%!PS-Adobe-3.0 EPSF-3.0
%%Creator: MATLAB, The Mathworks, Inc. Version 7.7.0.471 (R2008b). Operating System: Microsoft Windows Vista.
%%Title: Pictures\main_fusion_us_logreg_analyse_FNMR@FMR=0.001.eps
%%CreationDate: 08/21/2011  05:25:54
%%DocumentNeededFonts: Helvetica
%%DocumentProcessColors: Cyan Magenta Yellow Black
%%LanguageLevel: 2
%%Pages: 1
%%BoundingBox:    69   415   557   583
%%EndComments

%%BeginProlog
% MathWorks dictionary
/MathWorks 160 dict begin
% definition operators
/bdef {bind def} bind def
/ldef {load def} bind def
/xdef {exch def} bdef
/xstore {exch store} bdef
% operator abbreviations
/c  /clip ldef
/cc /concat ldef
/cp /closepath ldef
/gr /grestore ldef
/gs /gsave ldef
/mt /moveto ldef
/np /newpath ldef
/cm /currentmatrix ldef
/sm /setmatrix ldef
/rm /rmoveto ldef
/rl /rlineto ldef
/s {show newpath} bdef
/sc {setcmykcolor} bdef
/sr /setrgbcolor ldef
/sg /setgray ldef
/w /setlinewidth ldef
/j /setlinejoin ldef
/cap /setlinecap ldef
/rc {rectclip} bdef
/rf {rectfill} bdef
% page state control
/pgsv () def
/bpage {/pgsv save def} bdef
/epage {pgsv restore} bdef
/bplot /gsave ldef
/eplot {stroke grestore} bdef
% orientation switch
/portraitMode 0 def /landscapeMode 1 def /rotateMode 2 def
% coordinate system mappings
/dpi2point 0 def
% font control
/FontSize 0 def
/FMS {/FontSize xstore findfont [FontSize 0 0 FontSize neg 0 0]
  makefont setfont} bdef
/ISOLatin1Encoding where {pop /WindowsLatin1Encoding 256 array bdef
ISOLatin1Encoding WindowsLatin1Encoding copy pop
/.notdef/.notdef/quotesinglbase/florin/quotedblbase/ellipsis/dagger
/daggerdbl/circumflex/perthousand/Scaron/guilsinglleft/OE/.notdef/.notdef
/.notdef/.notdef/quoteleft/quoteright/quotedblleft/quotedblright/bullet
/endash/emdash/tilde/trademark/scaron/guilsinglright/oe/.notdef/.notdef
/Ydieresis WindowsLatin1Encoding 128 32 getinterval astore pop}
{/WindowsLatin1Encoding StandardEncoding bdef} ifelse
/reencode {exch dup where {pop load} {pop StandardEncoding} ifelse
  exch dup 3 1 roll findfont dup length dict begin
  { 1 index /FID ne {def}{pop pop} ifelse } forall
  /Encoding exch def currentdict end definefont pop} bdef
/isroman {findfont /CharStrings get /Agrave known} bdef
/FMSR {3 1 roll 1 index dup isroman {reencode} {pop pop} ifelse
  exch FMS} bdef
/csm {1 dpi2point div -1 dpi2point div scale neg translate
 dup landscapeMode eq {pop -90 rotate}
  {rotateMode eq {90 rotate} if} ifelse} bdef
% line types: solid, dotted, dashed, dotdash
/SO { [] 0 setdash } bdef
/DO { [.5 dpi2point mul 4 dpi2point mul] 0 setdash } bdef
/DA { [6 dpi2point mul] 0 setdash } bdef
/DD { [.5 dpi2point mul 4 dpi2point mul 6 dpi2point mul 4
  dpi2point mul] 0 setdash } bdef
% macros for lines and objects
/L {lineto stroke} bdef
/MP {3 1 roll moveto 1 sub {rlineto} repeat} bdef
/AP {{rlineto} repeat} bdef
/PDlw -1 def
/W {/PDlw currentlinewidth def setlinewidth} def
/PP {closepath eofill} bdef
/DP {closepath stroke} bdef
/MR {4 -2 roll moveto dup  0 exch rlineto exch 0 rlineto
  neg 0 exch rlineto closepath} bdef
/FR {MR stroke} bdef
/PR {MR fill} bdef
/L1i {{currentfile picstr readhexstring pop} image} bdef
/tMatrix matrix def
/MakeOval {newpath tMatrix currentmatrix pop translate scale
0 0 1 0 360 arc tMatrix setmatrix} bdef
/FO {MakeOval stroke} bdef
/PO {MakeOval fill} bdef
/PD {currentlinewidth 2 div 0 360 arc fill
   PDlw -1 eq not {PDlw w /PDlw -1 def} if} def
/FA {newpath tMatrix currentmatrix pop translate scale
  0 0 1 5 -2 roll arc tMatrix setmatrix stroke} bdef
/PA {newpath tMatrix currentmatrix pop	translate 0 0 moveto scale
  0 0 1 5 -2 roll arc closepath tMatrix setmatrix fill} bdef
/FAn {newpath tMatrix currentmatrix pop translate scale
  0 0 1 5 -2 roll arcn tMatrix setmatrix stroke} bdef
/PAn {newpath tMatrix currentmatrix pop translate 0 0 moveto scale
  0 0 1 5 -2 roll arcn closepath tMatrix setmatrix fill} bdef
/vradius 0 def /hradius 0 def /lry 0 def
/lrx 0 def /uly 0 def /ulx 0 def /rad 0 def
/MRR {/vradius xdef /hradius xdef /lry xdef /lrx xdef /uly xdef
  /ulx xdef newpath tMatrix currentmatrix pop ulx hradius add uly
  vradius add translate hradius vradius scale 0 0 1 180 270 arc 
  tMatrix setmatrix lrx hradius sub uly vradius add translate
  hradius vradius scale 0 0 1 270 360 arc tMatrix setmatrix
  lrx hradius sub lry vradius sub translate hradius vradius scale
  0 0 1 0 90 arc tMatrix setmatrix ulx hradius add lry vradius sub
  translate hradius vradius scale 0 0 1 90 180 arc tMatrix setmatrix
  closepath} bdef
/FRR {MRR stroke } bdef
/PRR {MRR fill } bdef
/MlrRR {/lry xdef /lrx xdef /uly xdef /ulx xdef /rad lry uly sub 2 div def
  newpath tMatrix currentmatrix pop ulx rad add uly rad add translate
  rad rad scale 0 0 1 90 270 arc tMatrix setmatrix lrx rad sub lry rad
  sub translate rad rad scale 0 0 1 270 90 arc tMatrix setmatrix
  closepath} bdef
/FlrRR {MlrRR stroke } bdef
/PlrRR {MlrRR fill } bdef
/MtbRR {/lry xdef /lrx xdef /uly xdef /ulx xdef /rad lrx ulx sub 2 div def
  newpath tMatrix currentmatrix pop ulx rad add uly rad add translate
  rad rad scale 0 0 1 180 360 arc tMatrix setmatrix lrx rad sub lry rad
  sub translate rad rad scale 0 0 1 0 180 arc tMatrix setmatrix
  closepath} bdef
/FtbRR {MtbRR stroke } bdef
/PtbRR {MtbRR fill } bdef
/stri 6 array def /dtri 6 array def
/smat 6 array def /dmat 6 array def
/tmat1 6 array def /tmat2 6 array def /dif 3 array def
/asub {/ind2 exch def /ind1 exch def dup dup
  ind1 get exch ind2 get sub exch } bdef
/tri_to_matrix {
  2 0 asub 3 1 asub 4 0 asub 5 1 asub
  dup 0 get exch 1 get 7 -1 roll astore } bdef
/compute_transform {
  dmat dtri tri_to_matrix tmat1 invertmatrix 
  smat stri tri_to_matrix tmat2 concatmatrix } bdef
/ds {stri astore pop} bdef
/dt {dtri astore pop} bdef
/db {2 copy /cols xdef /rows xdef mul dup 3 mul string
  currentfile 
  3 index 0 eq {/ASCIIHexDecode filter}
  {/ASCII85Decode filter 3 index 2 eq {/RunLengthDecode filter} if }
  ifelse exch readstring pop
  dup 0 3 index getinterval /rbmap xdef
  dup 2 index dup getinterval /gbmap xdef
  1 index dup 2 mul exch getinterval /bbmap xdef pop pop}bdef
/it {gs np dtri aload pop moveto lineto lineto cp c
  cols rows 8 compute_transform 
  rbmap gbmap bbmap true 3 colorimage gr}bdef
/il {newpath moveto lineto stroke}bdef
currentdict end def
%%EndProlog

%%BeginSetup
MathWorks begin

0 cap

end
%%EndSetup

%%Page: 1 1
%%BeginPageSetup
%%PageBoundingBox:    69   415   557   583
MathWorks begin
bpage
%%EndPageSetup

%%BeginObject: obj1
bplot

/dpi2point 12 def
portraitMode 0216 7344 csm

  616   341  5861  2020 rc
86 dict begin %Colortable dictionary
/c0 { 0.000000 0.000000 0.000000 sr} bdef
/c1 { 1.000000 1.000000 1.000000 sr} bdef
/c2 { 0.900000 0.000000 0.000000 sr} bdef
/c3 { 0.000000 0.820000 0.000000 sr} bdef
/c4 { 0.000000 0.000000 0.800000 sr} bdef
/c5 { 0.910000 0.820000 0.320000 sr} bdef
/c6 { 1.000000 0.260000 0.820000 sr} bdef
/c7 { 0.000000 0.820000 0.820000 sr} bdef
c0
1 j
1 sg
   0    0 6919 5187 rf
6 w
0 1586 2316 0 0 -1586 899 1975 4 MP
PP
-2316 0 0 1586 2316 0 0 -1586 899 1975 5 MP stroke
4 w
DO
SO
6 w
0 sg
 899  389 mt 3215  389 L
 899 1975 mt 3215 1975 L
3215 1975 mt 3215  389 L
 899 1975 mt  899  389 L
 899 1975 mt 3215 1975 L
 899 1975 mt  899  389 L
1256 1975 mt 1256 1951 L
1256  389 mt 1256  412 L
%%IncludeResource: font Helvetica
/Helvetica /WindowsLatin1Encoding 144 FMSR

1092 2143 mt 
(-80) s
1705 1975 mt 1705 1951 L
1705  389 mt 1705  412 L
1541 2143 mt 
(-60) s
2154 1975 mt 2154 1951 L
2154  389 mt 2154  412 L
1990 2143 mt 
(-40) s
2604 1975 mt 2604 1951 L
2604  389 mt 2604  412 L
2440 2143 mt 
(-20) s
3053 1975 mt 3053 1951 L
3053  389 mt 3053  412 L
3013 2143 mt 
(0) s
 899 1776 mt  922 1776 L
3215 1776 mt 3191 1776 L
 752 1829 mt 
(O) s
 899 1380 mt  922 1380 L
3215 1380 mt 3191 1380 L
 777 1433 mt 
(Z) s
 899  983 mt  922  983 L
3215  983 mt 3191  983 L
 696 1036 mt 
(dZ) s
 899  587 mt  922  587 L
3215  587 mt 3191  587 L
 616  640 mt 
(dpZ) s
 899  389 mt 3215  389 L
 899 1975 mt 3215 1975 L
3215 1975 mt 3215  389 L
 899 1975 mt  899  389 L
 813 2304 mt 
(rel. change of FNMR@FMR=0.001 \(%\)) s
gs 899 389 2317 1587 rc
DA
263 0 2692 1776 2 MP stroke
3053 1380 PD
233 0 2876 983 2 MP stroke
298 0 2717 587 2 MP stroke
454 0 1660 1776 2 MP stroke
3053 1380 PD
267 0 2246 983 2 MP stroke
1023 0 1004 587 2 MP stroke
SO
0 -99 2955 1826 2 MP stroke
0 -99 3053 1429 2 MP stroke
0 -99 3109 1033 2 MP stroke
0 -99 3015 636 2 MP stroke
0 -99 1660 1826 2 MP stroke
0 -99 3053 1429 2 MP stroke
0 -99 2246 1033 2 MP stroke
0 -99 1004 636 2 MP stroke
/c8 { 0.000000 0.000000 1.000000 sr} bdef
c8
0 198 -578 0 0 -198 578 0 2114 1875 5 MP stroke
0 -198 3053 1479 2 MP stroke
0 198 -363 0 0 -198 363 0 2513 1082 5 MP stroke
0 198 -690 0 0 -198 690 0 2027 686 5 MP stroke
/c9 { 1.000000 0.000000 0.000000 sr} bdef
c9
0 -198 2459 1875 2 MP stroke
0 -198 3053 1479 2 MP stroke
0 -198 2727 1082 2 MP stroke
0 -198 2331 686 2 MP stroke
/c10 { 0.000000 1.000000 0.000000 sr} bdef
c10
0 1587 3053 389 2 MP stroke
gr

c10
1 sg
0 1586 2197 0 0 -1586 4064 1975 4 MP
PP
-2197 0 0 1586 2197 0 0 -1586 4064 1975 5 MP stroke
4 w
DO
SO
6 w
0 sg
4064  389 mt 6261  389 L
4064 1975 mt 6261 1975 L
6261 1975 mt 6261  389 L
4064 1975 mt 4064  389 L
4064 1975 mt 6261 1975 L
4064 1975 mt 4064  389 L
4205 1975 mt 4205 1953 L
4205  389 mt 4205  410 L
4041 2143 mt 
(-40) s
4660 1975 mt 4660 1953 L
4660  389 mt 4660  410 L
4496 2143 mt 
(-20) s
5115 1975 mt 5115 1953 L
5115  389 mt 5115  410 L
5075 2143 mt 
(0) s
5570 1975 mt 5570 1953 L
5570  389 mt 5570  410 L
5490 2143 mt 
(20) s
6025 1975 mt 6025 1953 L
6025  389 mt 6025  410 L
5945 2143 mt 
(40) s
4064 1817 mt 4085 1817 L
6261 1817 mt 6239 1817 L
3917 1870 mt 
(O) s
4064 1396 mt 4085 1396 L
6261 1396 mt 6239 1396 L
3942 1449 mt 
(F) s
4064  975 mt 4085  975 L
6261  975 mt 6239  975 L
3861 1028 mt 
(dF) s
4064  554 mt 4085  554 L
6261  554 mt 6239  554 L
3781  607 mt 
(dpF) s
4064  389 mt 6261  389 L
4064 1975 mt 6261 1975 L
6261 1975 mt 6261  389 L
4064 1975 mt 4064  389 L
3918 2304 mt 
(rel. change of FNMR@FMR=0.001 \(%\)) s
gs 4064 389 2198 1587 rc
DA
31 0 6200 1817 2 MP stroke
5115 1396 PD
303 0 5189 975 2 MP stroke
153 0 5162 554 2 MP stroke
518 0 4267 1817 2 MP stroke
5115 1396 PD
107 0 4865 975 2 MP stroke
509 0 4122 554 2 MP stroke
SO
0 -105 6231 1870 2 MP stroke
0 -105 5115 1449 2 MP stroke
0 -106 5492 1028 2 MP stroke
0 -106 5315 607 2 MP stroke
0 -105 4267 1870 2 MP stroke
0 -105 5115 1449 2 MP stroke
0 -106 4865 1028 2 MP stroke
0 -106 4122 607 2 MP stroke
c8
0 211 -1415 0 0 -211 1415 0 4785 1923 5 MP stroke
0 -210 5115 1501 2 MP stroke
0 210 -217 0 0 -210 217 0 4972 1080 5 MP stroke
0 210 -531 0 0 -210 531 0 4631 659 5 MP stroke
c9
0 -211 5005 1923 2 MP stroke
0 -210 5115 1501 2 MP stroke
0 -210 5112 1080 2 MP stroke
0 -210 4956 659 2 MP stroke
gs 5555 902 147 147 rc
5592  975 mt 5664  975 L
5628  939 mt 5628 1011 L
gr

c10
0 1587 5115 389 2 MP stroke
gr

c10

end %%Color Dict

eplot
%%EndObject

epage
end

showpage

%%Trailer
%%EOF
