%!PS-Adobe-3.0 EPSF-3.0
%%Creator: MATLAB, The Mathworks, Inc. Version 7.7.0.471 (R2008b). Operating System: Microsoft Windows Vista.
%%Title: Pictures\main_fusion_us_logreg_analyse_FNMR@FMR=0.1.eps
%%CreationDate: 08/21/2011  05:25:54
%%DocumentNeededFonts: Helvetica
%%DocumentProcessColors: Cyan Magenta Yellow Black
%%LanguageLevel: 2
%%Pages: 1
%%BoundingBox:    69   415   551   583
%%EndComments

%%BeginProlog
% MathWorks dictionary
/MathWorks 160 dict begin
% definition operators
/bdef {bind def} bind def
/ldef {load def} bind def
/xdef {exch def} bdef
/xstore {exch store} bdef
% operator abbreviations
/c  /clip ldef
/cc /concat ldef
/cp /closepath ldef
/gr /grestore ldef
/gs /gsave ldef
/mt /moveto ldef
/np /newpath ldef
/cm /currentmatrix ldef
/sm /setmatrix ldef
/rm /rmoveto ldef
/rl /rlineto ldef
/s {show newpath} bdef
/sc {setcmykcolor} bdef
/sr /setrgbcolor ldef
/sg /setgray ldef
/w /setlinewidth ldef
/j /setlinejoin ldef
/cap /setlinecap ldef
/rc {rectclip} bdef
/rf {rectfill} bdef
% page state control
/pgsv () def
/bpage {/pgsv save def} bdef
/epage {pgsv restore} bdef
/bplot /gsave ldef
/eplot {stroke grestore} bdef
% orientation switch
/portraitMode 0 def /landscapeMode 1 def /rotateMode 2 def
% coordinate system mappings
/dpi2point 0 def
% font control
/FontSize 0 def
/FMS {/FontSize xstore findfont [FontSize 0 0 FontSize neg 0 0]
  makefont setfont} bdef
/ISOLatin1Encoding where {pop /WindowsLatin1Encoding 256 array bdef
ISOLatin1Encoding WindowsLatin1Encoding copy pop
/.notdef/.notdef/quotesinglbase/florin/quotedblbase/ellipsis/dagger
/daggerdbl/circumflex/perthousand/Scaron/guilsinglleft/OE/.notdef/.notdef
/.notdef/.notdef/quoteleft/quoteright/quotedblleft/quotedblright/bullet
/endash/emdash/tilde/trademark/scaron/guilsinglright/oe/.notdef/.notdef
/Ydieresis WindowsLatin1Encoding 128 32 getinterval astore pop}
{/WindowsLatin1Encoding StandardEncoding bdef} ifelse
/reencode {exch dup where {pop load} {pop StandardEncoding} ifelse
  exch dup 3 1 roll findfont dup length dict begin
  { 1 index /FID ne {def}{pop pop} ifelse } forall
  /Encoding exch def currentdict end definefont pop} bdef
/isroman {findfont /CharStrings get /Agrave known} bdef
/FMSR {3 1 roll 1 index dup isroman {reencode} {pop pop} ifelse
  exch FMS} bdef
/csm {1 dpi2point div -1 dpi2point div scale neg translate
 dup landscapeMode eq {pop -90 rotate}
  {rotateMode eq {90 rotate} if} ifelse} bdef
% line types: solid, dotted, dashed, dotdash
/SO { [] 0 setdash } bdef
/DO { [.5 dpi2point mul 4 dpi2point mul] 0 setdash } bdef
/DA { [6 dpi2point mul] 0 setdash } bdef
/DD { [.5 dpi2point mul 4 dpi2point mul 6 dpi2point mul 4
  dpi2point mul] 0 setdash } bdef
% macros for lines and objects
/L {lineto stroke} bdef
/MP {3 1 roll moveto 1 sub {rlineto} repeat} bdef
/AP {{rlineto} repeat} bdef
/PDlw -1 def
/W {/PDlw currentlinewidth def setlinewidth} def
/PP {closepath eofill} bdef
/DP {closepath stroke} bdef
/MR {4 -2 roll moveto dup  0 exch rlineto exch 0 rlineto
  neg 0 exch rlineto closepath} bdef
/FR {MR stroke} bdef
/PR {MR fill} bdef
/L1i {{currentfile picstr readhexstring pop} image} bdef
/tMatrix matrix def
/MakeOval {newpath tMatrix currentmatrix pop translate scale
0 0 1 0 360 arc tMatrix setmatrix} bdef
/FO {MakeOval stroke} bdef
/PO {MakeOval fill} bdef
/PD {currentlinewidth 2 div 0 360 arc fill
   PDlw -1 eq not {PDlw w /PDlw -1 def} if} def
/FA {newpath tMatrix currentmatrix pop translate scale
  0 0 1 5 -2 roll arc tMatrix setmatrix stroke} bdef
/PA {newpath tMatrix currentmatrix pop	translate 0 0 moveto scale
  0 0 1 5 -2 roll arc closepath tMatrix setmatrix fill} bdef
/FAn {newpath tMatrix currentmatrix pop translate scale
  0 0 1 5 -2 roll arcn tMatrix setmatrix stroke} bdef
/PAn {newpath tMatrix currentmatrix pop translate 0 0 moveto scale
  0 0 1 5 -2 roll arcn closepath tMatrix setmatrix fill} bdef
/vradius 0 def /hradius 0 def /lry 0 def
/lrx 0 def /uly 0 def /ulx 0 def /rad 0 def
/MRR {/vradius xdef /hradius xdef /lry xdef /lrx xdef /uly xdef
  /ulx xdef newpath tMatrix currentmatrix pop ulx hradius add uly
  vradius add translate hradius vradius scale 0 0 1 180 270 arc 
  tMatrix setmatrix lrx hradius sub uly vradius add translate
  hradius vradius scale 0 0 1 270 360 arc tMatrix setmatrix
  lrx hradius sub lry vradius sub translate hradius vradius scale
  0 0 1 0 90 arc tMatrix setmatrix ulx hradius add lry vradius sub
  translate hradius vradius scale 0 0 1 90 180 arc tMatrix setmatrix
  closepath} bdef
/FRR {MRR stroke } bdef
/PRR {MRR fill } bdef
/MlrRR {/lry xdef /lrx xdef /uly xdef /ulx xdef /rad lry uly sub 2 div def
  newpath tMatrix currentmatrix pop ulx rad add uly rad add translate
  rad rad scale 0 0 1 90 270 arc tMatrix setmatrix lrx rad sub lry rad
  sub translate rad rad scale 0 0 1 270 90 arc tMatrix setmatrix
  closepath} bdef
/FlrRR {MlrRR stroke } bdef
/PlrRR {MlrRR fill } bdef
/MtbRR {/lry xdef /lrx xdef /uly xdef /ulx xdef /rad lrx ulx sub 2 div def
  newpath tMatrix currentmatrix pop ulx rad add uly rad add translate
  rad rad scale 0 0 1 180 360 arc tMatrix setmatrix lrx rad sub lry rad
  sub translate rad rad scale 0 0 1 0 180 arc tMatrix setmatrix
  closepath} bdef
/FtbRR {MtbRR stroke } bdef
/PtbRR {MtbRR fill } bdef
/stri 6 array def /dtri 6 array def
/smat 6 array def /dmat 6 array def
/tmat1 6 array def /tmat2 6 array def /dif 3 array def
/asub {/ind2 exch def /ind1 exch def dup dup
  ind1 get exch ind2 get sub exch } bdef
/tri_to_matrix {
  2 0 asub 3 1 asub 4 0 asub 5 1 asub
  dup 0 get exch 1 get 7 -1 roll astore } bdef
/compute_transform {
  dmat dtri tri_to_matrix tmat1 invertmatrix 
  smat stri tri_to_matrix tmat2 concatmatrix } bdef
/ds {stri astore pop} bdef
/dt {dtri astore pop} bdef
/db {2 copy /cols xdef /rows xdef mul dup 3 mul string
  currentfile 
  3 index 0 eq {/ASCIIHexDecode filter}
  {/ASCII85Decode filter 3 index 2 eq {/RunLengthDecode filter} if }
  ifelse exch readstring pop
  dup 0 3 index getinterval /rbmap xdef
  dup 2 index dup getinterval /gbmap xdef
  1 index dup 2 mul exch getinterval /bbmap xdef pop pop}bdef
/it {gs np dtri aload pop moveto lineto lineto cp c
  cols rows 8 compute_transform 
  rbmap gbmap bbmap true 3 colorimage gr}bdef
/il {newpath moveto lineto stroke}bdef
currentdict end def
%%EndProlog

%%BeginSetup
MathWorks begin

0 cap

end
%%EndSetup

%%Page: 1 1
%%BeginPageSetup
%%PageBoundingBox:    69   415   551   583
MathWorks begin
bpage
%%EndPageSetup

%%BeginObject: obj1
bplot

/dpi2point 12 def
portraitMode 0216 7344 csm

  616   340  5781  2021 rc
86 dict begin %Colortable dictionary
/c0 { 0.000000 0.000000 0.000000 sr} bdef
/c1 { 1.000000 1.000000 1.000000 sr} bdef
/c2 { 0.900000 0.000000 0.000000 sr} bdef
/c3 { 0.000000 0.820000 0.000000 sr} bdef
/c4 { 0.000000 0.000000 0.800000 sr} bdef
/c5 { 0.910000 0.820000 0.320000 sr} bdef
/c6 { 1.000000 0.260000 0.820000 sr} bdef
/c7 { 0.000000 0.820000 0.820000 sr} bdef
c0
1 j
1 sg
   0    0 6919 5187 rf
6 w
0 1587 2315 0 0 -1587 899 1975 4 MP
PP
-2315 0 0 1587 2315 0 0 -1587 899 1975 5 MP stroke
4 w
DO
SO
6 w
0 sg
 899  388 mt 3214  388 L
 899 1975 mt 3214 1975 L
3214 1975 mt 3214  388 L
 899 1975 mt  899  388 L
 899 1975 mt 3214 1975 L
 899 1975 mt  899  388 L
1037 1975 mt 1037 1951 L
1037  389 mt 1037  412 L
%%IncludeResource: font Helvetica
/Helvetica /WindowsLatin1Encoding 144 FMSR

 873 2143 mt 
(-50) s
1644 1975 mt 1644 1951 L
1644  389 mt 1644  412 L
1604 2143 mt 
(0) s
2251 1975 mt 2251 1951 L
2251  389 mt 2251  412 L
2171 2143 mt 
(50) s
2858 1975 mt 2858 1951 L
2858  389 mt 2858  412 L
2738 2143 mt 
(100) s
 899 1796 mt  922 1796 L
3215 1796 mt 3191 1796 L
 752 1849 mt 
(O) s
 899 1384 mt  922 1384 L
3215 1384 mt 3191 1384 L
 777 1437 mt 
(Z) s
 899  971 mt  922  971 L
3215  971 mt 3191  971 L
 696 1024 mt 
(dZ) s
 899  559 mt  922  559 L
3215  559 mt 3191  559 L
 616  612 mt 
(dpZ) s
 899  388 mt 3214  388 L
 899 1975 mt 3214 1975 L
3214 1975 mt 3214  388 L
 899 1975 mt  899  388 L
 893 2304 mt 
(rel. change of FNMR@FMR=0.1 \(%\)) s
gs 899 389 2317 1587 rc
DA
54 0 3162 1796 2 MP stroke
1644 1384 PD
11 0 1891 971 2 MP stroke
958 0 1773 559 2 MP stroke
150 0 1262 1796 2 MP stroke
1644 1384 PD
62 0 1574 971 2 MP stroke
90 0 924 559 2 MP stroke
SO
0 -103 1644 1435 2 MP stroke
0 -103 1902 1023 2 MP stroke
0 -103 2731 610 2 MP stroke
0 -103 1262 1848 2 MP stroke
0 -103 1644 1435 2 MP stroke
0 -103 1574 1023 2 MP stroke
0 -103 924 610 2 MP stroke
/c8 { 0.000000 0.000000 1.000000 sr} bdef
c8
0 207 -1750 0 0 -207 1750 0 1412 1900 5 MP stroke
0 -206 1644 1487 2 MP stroke
0 206 -255 0 0 -206 255 0 1636 1074 5 MP stroke
0 207 -759 0 0 -207 759 0 1014 662 5 MP stroke
/c9 { 1.000000 0.000000 0.000000 sr} bdef
c9
0 -207 1800 1900 2 MP stroke
0 -206 1644 1487 2 MP stroke
0 -206 1823 1074 2 MP stroke
0 -207 1655 662 2 MP stroke
gs 1172 898 147 147 rc
1209  971 mt 1281  971 L
1245  935 mt 1245 1007 L
gr

/c10 { 0.000000 1.000000 0.000000 sr} bdef
c10
0 1587 1644 389 2 MP stroke
gr

c10
1 sg
0 1587 2197 0 0 -1587 4064 1975 4 MP
PP
-2197 0 0 1587 2197 0 0 -1587 4064 1975 5 MP stroke
4 w
DO
SO
6 w
0 sg
4064  388 mt 6261  388 L
4064 1975 mt 6261 1975 L
6261 1975 mt 6261  388 L
4064 1975 mt 4064  388 L
4064 1975 mt 6261 1975 L
4064 1975 mt 4064  388 L
4516 1975 mt 4516 1953 L
4516  388 mt 4516  410 L
4476 2143 mt 
(0) s
5288 1975 mt 5288 1953 L
5288  388 mt 5288  410 L
5208 2143 mt 
(50) s
6059 1975 mt 6059 1953 L
6059  388 mt 6059  410 L
5939 2143 mt 
(100) s
4064 1783 mt 4085 1783 L
6261 1783 mt 6239 1783 L
3917 1836 mt 
(O) s
4064 1360 mt 4085 1360 L
6261 1360 mt 6239 1360 L
3942 1413 mt 
(F) s
4064  937 mt 4085  937 L
6261  937 mt 6239  937 L
3861  990 mt 
(dF) s
4064  513 mt 4085  513 L
6261  513 mt 6239  513 L
3781  566 mt 
(dpF) s
4064  388 mt 6261  388 L
4064 1975 mt 6261 1975 L
6261 1975 mt 6261  388 L
4064 1975 mt 4064  388 L
3998 2304 mt 
(rel. change of FNMR@FMR=0.1 \(%\)) s
gs 4064 389 2198 1587 rc
DA
142 0 6120 1783 2 MP stroke
4516 1360 PD
10 0 4505 937 2 MP stroke
4719 513 PD
87 0 4442 1783 2 MP stroke
4516 1360 PD
4456 937 PD
31 0 4243 513 2 MP stroke
SO
0 -106 4516 1413 2 MP stroke
0 -106 4515 990 2 MP stroke
0 -105 4719 566 2 MP stroke
0 -105 4442 1836 2 MP stroke
0 -106 4516 1413 2 MP stroke
0 -106 4456 990 2 MP stroke
0 -105 4243 566 2 MP stroke
c8
0 211 -1591 0 0 -211 1591 0 4529 1889 5 MP stroke
0 -212 4516 1466 2 MP stroke
0 212 -49 0 0 -212 49 0 4456 1043 5 MP stroke
0 211 -445 0 0 -211 445 0 4274 619 5 MP stroke
c9
0 -211 4865 1889 2 MP stroke
0 -212 4516 1466 2 MP stroke
0 -212 4486 1043 2 MP stroke
0 -211 4486 619 2 MP stroke
gs 4132 864 546 147 rc
4169  937 mt 4241  937 L
4205  901 mt 4205  973 L
4231  937 mt 4303  937 L
4267  901 mt 4267  973 L
4568  937 mt 4640  937 L
4604  901 mt 4604  973 L
gr

gr

c9
gs 3991 440 2345 147 rc
5635  513 mt 5707  513 L
5671  477 mt 5671  549 L
gr

gs 4064 389 2198 1587 rc
c10
0 1587 4516 389 2 MP stroke
gr

c10

end %%Color Dict

eplot
%%EndObject

epage
end

showpage

%%Trailer
%%EOF
