%!PS-Adobe-3.0 EPSF-3.0
%%Creator: MATLAB, The Mathworks, Inc. Version 7.7.0.471 (R2008b). Operating System: Microsoft Windows Vista.
%%Title: Pictures\main_fusion_us_logreg_analyse_FNMR@FMR=0.01.eps
%%CreationDate: 08/21/2011  05:25:54
%%DocumentNeededFonts: Helvetica
%%DocumentProcessColors: Cyan Magenta Yellow Black
%%LanguageLevel: 2
%%Pages: 1
%%BoundingBox:    69   415   554   583
%%EndComments

%%BeginProlog
% MathWorks dictionary
/MathWorks 160 dict begin
% definition operators
/bdef {bind def} bind def
/ldef {load def} bind def
/xdef {exch def} bdef
/xstore {exch store} bdef
% operator abbreviations
/c  /clip ldef
/cc /concat ldef
/cp /closepath ldef
/gr /grestore ldef
/gs /gsave ldef
/mt /moveto ldef
/np /newpath ldef
/cm /currentmatrix ldef
/sm /setmatrix ldef
/rm /rmoveto ldef
/rl /rlineto ldef
/s {show newpath} bdef
/sc {setcmykcolor} bdef
/sr /setrgbcolor ldef
/sg /setgray ldef
/w /setlinewidth ldef
/j /setlinejoin ldef
/cap /setlinecap ldef
/rc {rectclip} bdef
/rf {rectfill} bdef
% page state control
/pgsv () def
/bpage {/pgsv save def} bdef
/epage {pgsv restore} bdef
/bplot /gsave ldef
/eplot {stroke grestore} bdef
% orientation switch
/portraitMode 0 def /landscapeMode 1 def /rotateMode 2 def
% coordinate system mappings
/dpi2point 0 def
% font control
/FontSize 0 def
/FMS {/FontSize xstore findfont [FontSize 0 0 FontSize neg 0 0]
  makefont setfont} bdef
/ISOLatin1Encoding where {pop /WindowsLatin1Encoding 256 array bdef
ISOLatin1Encoding WindowsLatin1Encoding copy pop
/.notdef/.notdef/quotesinglbase/florin/quotedblbase/ellipsis/dagger
/daggerdbl/circumflex/perthousand/Scaron/guilsinglleft/OE/.notdef/.notdef
/.notdef/.notdef/quoteleft/quoteright/quotedblleft/quotedblright/bullet
/endash/emdash/tilde/trademark/scaron/guilsinglright/oe/.notdef/.notdef
/Ydieresis WindowsLatin1Encoding 128 32 getinterval astore pop}
{/WindowsLatin1Encoding StandardEncoding bdef} ifelse
/reencode {exch dup where {pop load} {pop StandardEncoding} ifelse
  exch dup 3 1 roll findfont dup length dict begin
  { 1 index /FID ne {def}{pop pop} ifelse } forall
  /Encoding exch def currentdict end definefont pop} bdef
/isroman {findfont /CharStrings get /Agrave known} bdef
/FMSR {3 1 roll 1 index dup isroman {reencode} {pop pop} ifelse
  exch FMS} bdef
/csm {1 dpi2point div -1 dpi2point div scale neg translate
 dup landscapeMode eq {pop -90 rotate}
  {rotateMode eq {90 rotate} if} ifelse} bdef
% line types: solid, dotted, dashed, dotdash
/SO { [] 0 setdash } bdef
/DO { [.5 dpi2point mul 4 dpi2point mul] 0 setdash } bdef
/DA { [6 dpi2point mul] 0 setdash } bdef
/DD { [.5 dpi2point mul 4 dpi2point mul 6 dpi2point mul 4
  dpi2point mul] 0 setdash } bdef
% macros for lines and objects
/L {lineto stroke} bdef
/MP {3 1 roll moveto 1 sub {rlineto} repeat} bdef
/AP {{rlineto} repeat} bdef
/PDlw -1 def
/W {/PDlw currentlinewidth def setlinewidth} def
/PP {closepath eofill} bdef
/DP {closepath stroke} bdef
/MR {4 -2 roll moveto dup  0 exch rlineto exch 0 rlineto
  neg 0 exch rlineto closepath} bdef
/FR {MR stroke} bdef
/PR {MR fill} bdef
/L1i {{currentfile picstr readhexstring pop} image} bdef
/tMatrix matrix def
/MakeOval {newpath tMatrix currentmatrix pop translate scale
0 0 1 0 360 arc tMatrix setmatrix} bdef
/FO {MakeOval stroke} bdef
/PO {MakeOval fill} bdef
/PD {currentlinewidth 2 div 0 360 arc fill
   PDlw -1 eq not {PDlw w /PDlw -1 def} if} def
/FA {newpath tMatrix currentmatrix pop translate scale
  0 0 1 5 -2 roll arc tMatrix setmatrix stroke} bdef
/PA {newpath tMatrix currentmatrix pop	translate 0 0 moveto scale
  0 0 1 5 -2 roll arc closepath tMatrix setmatrix fill} bdef
/FAn {newpath tMatrix currentmatrix pop translate scale
  0 0 1 5 -2 roll arcn tMatrix setmatrix stroke} bdef
/PAn {newpath tMatrix currentmatrix pop translate 0 0 moveto scale
  0 0 1 5 -2 roll arcn closepath tMatrix setmatrix fill} bdef
/vradius 0 def /hradius 0 def /lry 0 def
/lrx 0 def /uly 0 def /ulx 0 def /rad 0 def
/MRR {/vradius xdef /hradius xdef /lry xdef /lrx xdef /uly xdef
  /ulx xdef newpath tMatrix currentmatrix pop ulx hradius add uly
  vradius add translate hradius vradius scale 0 0 1 180 270 arc 
  tMatrix setmatrix lrx hradius sub uly vradius add translate
  hradius vradius scale 0 0 1 270 360 arc tMatrix setmatrix
  lrx hradius sub lry vradius sub translate hradius vradius scale
  0 0 1 0 90 arc tMatrix setmatrix ulx hradius add lry vradius sub
  translate hradius vradius scale 0 0 1 90 180 arc tMatrix setmatrix
  closepath} bdef
/FRR {MRR stroke } bdef
/PRR {MRR fill } bdef
/MlrRR {/lry xdef /lrx xdef /uly xdef /ulx xdef /rad lry uly sub 2 div def
  newpath tMatrix currentmatrix pop ulx rad add uly rad add translate
  rad rad scale 0 0 1 90 270 arc tMatrix setmatrix lrx rad sub lry rad
  sub translate rad rad scale 0 0 1 270 90 arc tMatrix setmatrix
  closepath} bdef
/FlrRR {MlrRR stroke } bdef
/PlrRR {MlrRR fill } bdef
/MtbRR {/lry xdef /lrx xdef /uly xdef /ulx xdef /rad lrx ulx sub 2 div def
  newpath tMatrix currentmatrix pop ulx rad add uly rad add translate
  rad rad scale 0 0 1 180 360 arc tMatrix setmatrix lrx rad sub lry rad
  sub translate rad rad scale 0 0 1 0 180 arc tMatrix setmatrix
  closepath} bdef
/FtbRR {MtbRR stroke } bdef
/PtbRR {MtbRR fill } bdef
/stri 6 array def /dtri 6 array def
/smat 6 array def /dmat 6 array def
/tmat1 6 array def /tmat2 6 array def /dif 3 array def
/asub {/ind2 exch def /ind1 exch def dup dup
  ind1 get exch ind2 get sub exch } bdef
/tri_to_matrix {
  2 0 asub 3 1 asub 4 0 asub 5 1 asub
  dup 0 get exch 1 get 7 -1 roll astore } bdef
/compute_transform {
  dmat dtri tri_to_matrix tmat1 invertmatrix 
  smat stri tri_to_matrix tmat2 concatmatrix } bdef
/ds {stri astore pop} bdef
/dt {dtri astore pop} bdef
/db {2 copy /cols xdef /rows xdef mul dup 3 mul string
  currentfile 
  3 index 0 eq {/ASCIIHexDecode filter}
  {/ASCII85Decode filter 3 index 2 eq {/RunLengthDecode filter} if }
  ifelse exch readstring pop
  dup 0 3 index getinterval /rbmap xdef
  dup 2 index dup getinterval /gbmap xdef
  1 index dup 2 mul exch getinterval /bbmap xdef pop pop}bdef
/it {gs np dtri aload pop moveto lineto lineto cp c
  cols rows 8 compute_transform 
  rbmap gbmap bbmap true 3 colorimage gr}bdef
/il {newpath moveto lineto stroke}bdef
currentdict end def
%%EndProlog

%%BeginSetup
MathWorks begin

0 cap

end
%%EndSetup

%%Page: 1 1
%%BeginPageSetup
%%PageBoundingBox:    69   415   554   583
MathWorks begin
bpage
%%EndPageSetup

%%BeginObject: obj1
bplot

/dpi2point 12 def
portraitMode 0216 7344 csm

  616   340  5821  2021 rc
86 dict begin %Colortable dictionary
/c0 { 0.000000 0.000000 0.000000 sr} bdef
/c1 { 1.000000 1.000000 1.000000 sr} bdef
/c2 { 0.900000 0.000000 0.000000 sr} bdef
/c3 { 0.000000 0.820000 0.000000 sr} bdef
/c4 { 0.000000 0.000000 0.800000 sr} bdef
/c5 { 0.910000 0.820000 0.320000 sr} bdef
/c6 { 1.000000 0.260000 0.820000 sr} bdef
/c7 { 0.000000 0.820000 0.820000 sr} bdef
c0
1 j
1 sg
   0    0 6919 5187 rf
6 w
0 1587 2315 0 0 -1587 899 1975 4 MP
PP
-2315 0 0 1587 2315 0 0 -1587 899 1975 5 MP stroke
4 w
DO
SO
6 w
0 sg
 899  388 mt 3214  388 L
 899 1975 mt 3214 1975 L
3214 1975 mt 3214  388 L
 899 1975 mt  899  388 L
 899 1975 mt 3214 1975 L
 899 1975 mt  899  388 L
1096 1975 mt 1096 1951 L
1096  388 mt 1096  412 L
%%IncludeResource: font Helvetica
/Helvetica /WindowsLatin1Encoding 144 FMSR

 932 2143 mt 
(-60) s
1601 1975 mt 1601 1951 L
1601  388 mt 1601  412 L
1437 2143 mt 
(-40) s
2106 1975 mt 2106 1951 L
2106  388 mt 2106  412 L
1942 2143 mt 
(-20) s
2611 1975 mt 2611 1951 L
2611  388 mt 2611  412 L
2571 2143 mt 
(0) s
3116 1975 mt 3116 1951 L
3116  388 mt 3116  412 L
3036 2143 mt 
(20) s
 899 1801 mt  922 1801 L
3215 1801 mt 3191 1801 L
 752 1854 mt 
(O) s
 899 1382 mt  922 1382 L
3215 1382 mt 3191 1382 L
 777 1435 mt 
(Z) s
 899  963 mt  922  963 L
3215  963 mt 3191  963 L
 696 1016 mt 
(dZ) s
 899  544 mt  922  544 L
3215  544 mt 3191  544 L
 616  597 mt 
(dpZ) s
 899  388 mt 3214  388 L
 899 1975 mt 3214 1975 L
3214 1975 mt 3214  388 L
 899 1975 mt  899  388 L
 853 2304 mt 
(rel. change of FNMR@FMR=0.01 \(%\)) s
gs 899 389 2317 1587 rc
DA
220 0 2996 1801 2 MP stroke
2611 1382 PD
252 0 2445 963 2 MP stroke
835 0 2329 544 2 MP stroke
1007 0 975 1801 2 MP stroke
2611 1382 PD
140 0 1862 963 2 MP stroke
479 0 1170 544 2 MP stroke
SO
0 -105 2611 1435 2 MP stroke
0 -105 2697 1016 2 MP stroke
0 -105 3164 597 2 MP stroke
0 -105 975 1854 2 MP stroke
0 -105 2611 1435 2 MP stroke
0 -105 1862 1016 2 MP stroke
0 -105 1170 597 2 MP stroke
/c8 { 0.000000 0.000000 1.000000 sr} bdef
c8
0 209 -1014 0 0 -209 1014 0 1982 1906 5 MP stroke
0 -209 2611 1487 2 MP stroke
0 209 -443 0 0 -209 443 0 2002 1068 5 MP stroke
0 209 -680 0 0 -209 680 0 1649 649 5 MP stroke
/c9 { 1.000000 0.000000 0.000000 sr} bdef
c9
0 -209 2233 1906 2 MP stroke
0 -209 2611 1487 2 MP stroke
0 -209 2190 1068 2 MP stroke
0 -209 2099 649 2 MP stroke
gr

c9
gs 826 890 426 147 rc
1142  963 mt 1214  963 L
1178  927 mt 1178  999 L
gr

gs 899 389 2317 1587 rc
/c10 { 0.000000 1.000000 0.000000 sr} bdef
c10
0 1587 2611 389 2 MP stroke
gr

c10
1 sg
0 1587 2197 0 0 -1587 4064 1975 4 MP
PP
-2197 0 0 1587 2197 0 0 -1587 4064 1975 5 MP stroke
4 w
DO
SO
6 w
0 sg
4064  388 mt 6261  388 L
4064 1975 mt 6261 1975 L
6261 1975 mt 6261  388 L
4064 1975 mt 4064  388 L
4064 1975 mt 6261 1975 L
4064 1975 mt 4064  388 L
4246 1975 mt 4246 1953 L
4246  389 mt 4246  410 L
4082 2143 mt 
(-20) s
4603 1975 mt 4603 1953 L
4603  389 mt 4603  410 L
4563 2143 mt 
(0) s
4959 1975 mt 4959 1953 L
4959  389 mt 4959  410 L
4879 2143 mt 
(20) s
5315 1975 mt 5315 1953 L
5315  389 mt 5315  410 L
5235 2143 mt 
(40) s
5672 1975 mt 5672 1953 L
5672  389 mt 5672  410 L
5592 2143 mt 
(60) s
6028 1975 mt 6028 1953 L
6028  389 mt 6028  410 L
5948 2143 mt 
(80) s
4064 1796 mt 4085 1796 L
6261 1796 mt 6239 1796 L
3917 1849 mt 
(O) s
4064 1384 mt 4085 1384 L
6261 1384 mt 6239 1384 L
3942 1437 mt 
(F) s
4064  971 mt 4085  971 L
6261  971 mt 6239  971 L
3861 1024 mt 
(dF) s
4064  559 mt 4085  559 L
6261  559 mt 6239  559 L
3781  612 mt 
(dpF) s
4064  388 mt 6261  388 L
4064 1975 mt 6261 1975 L
6261 1975 mt 6261  388 L
4064 1975 mt 4064  388 L
3958 2304 mt 
(rel. change of FNMR@FMR=0.01 \(%\)) s
gs 4064 389 2198 1587 rc
DA
54 0 6208 1796 2 MP stroke
4603 1384 PD
24 0 4627 971 2 MP stroke
328 0 4658 559 2 MP stroke
603 0 4064 1796 2 MP stroke
4603 1384 PD
147 0 4333 971 2 MP stroke
222 0 4142 559 2 MP stroke
SO
0 -103 4603 1435 2 MP stroke
0 -103 4651 1023 2 MP stroke
0 -103 4986 610 2 MP stroke
0 -103 4603 1435 2 MP stroke
0 -103 4333 1023 2 MP stroke
0 -103 4142 610 2 MP stroke
c8
0 207 -1541 0 0 -207 1541 0 4667 1900 5 MP stroke
0 -206 4603 1487 2 MP stroke
0 206 -147 0 0 -206 147 0 4480 1074 5 MP stroke
0 207 -294 0 0 -207 294 0 4364 662 5 MP stroke
c9
0 -207 4827 1900 2 MP stroke
0 -206 4603 1487 2 MP stroke
0 -206 4601 1074 2 MP stroke
0 -207 4530 662 2 MP stroke
gs 4172 898 1350 147 rc
4209  971 mt 4281  971 L
4245  935 mt 4245 1007 L
5412  971 mt 5484  971 L
5448  935 mt 5448 1007 L
gr

gr

c9
gs 3991 486 1300 147 rc
5181  559 mt 5253  559 L
5217  523 mt 5217  595 L
gr

gs 4064 389 2198 1587 rc
c10
0 1587 4603 389 2 MP stroke
gr

c10

end %%Color Dict

eplot
%%EndObject

epage
end

showpage

%%Trailer
%%EOF
