%!PS-Adobe-3.0 EPSF-3.0
%%Creator: MATLAB, The Mathworks, Inc. Version 7.7.0.471 (R2008b). Operating System: Microsoft Windows Vista.
%%Title: Pictures\main_fusion_us_logreg__fnorm_DET_03.eps
%%CreationDate: 08/20/2011  15:18:40
%%DocumentNeededFonts: Helvetica
%%DocumentProcessColors: Cyan Magenta Yellow Black
%%LanguageLevel: 2
%%Pages: 1
%%BoundingBox:    96   199   499   602
%%EndComments

%%BeginProlog
% MathWorks dictionary
/MathWorks 160 dict begin
% definition operators
/bdef {bind def} bind def
/ldef {load def} bind def
/xdef {exch def} bdef
/xstore {exch store} bdef
% operator abbreviations
/c  /clip ldef
/cc /concat ldef
/cp /closepath ldef
/gr /grestore ldef
/gs /gsave ldef
/mt /moveto ldef
/np /newpath ldef
/cm /currentmatrix ldef
/sm /setmatrix ldef
/rm /rmoveto ldef
/rl /rlineto ldef
/s {show newpath} bdef
/sc {setcmykcolor} bdef
/sr /setrgbcolor ldef
/sg /setgray ldef
/w /setlinewidth ldef
/j /setlinejoin ldef
/cap /setlinecap ldef
/rc {rectclip} bdef
/rf {rectfill} bdef
% page state control
/pgsv () def
/bpage {/pgsv save def} bdef
/epage {pgsv restore} bdef
/bplot /gsave ldef
/eplot {stroke grestore} bdef
% orientation switch
/portraitMode 0 def /landscapeMode 1 def /rotateMode 2 def
% coordinate system mappings
/dpi2point 0 def
% font control
/FontSize 0 def
/FMS {/FontSize xstore findfont [FontSize 0 0 FontSize neg 0 0]
  makefont setfont} bdef
/ISOLatin1Encoding where {pop /WindowsLatin1Encoding 256 array bdef
ISOLatin1Encoding WindowsLatin1Encoding copy pop
/.notdef/.notdef/quotesinglbase/florin/quotedblbase/ellipsis/dagger
/daggerdbl/circumflex/perthousand/Scaron/guilsinglleft/OE/.notdef/.notdef
/.notdef/.notdef/quoteleft/quoteright/quotedblleft/quotedblright/bullet
/endash/emdash/tilde/trademark/scaron/guilsinglright/oe/.notdef/.notdef
/Ydieresis WindowsLatin1Encoding 128 32 getinterval astore pop}
{/WindowsLatin1Encoding StandardEncoding bdef} ifelse
/reencode {exch dup where {pop load} {pop StandardEncoding} ifelse
  exch dup 3 1 roll findfont dup length dict begin
  { 1 index /FID ne {def}{pop pop} ifelse } forall
  /Encoding exch def currentdict end definefont pop} bdef
/isroman {findfont /CharStrings get /Agrave known} bdef
/FMSR {3 1 roll 1 index dup isroman {reencode} {pop pop} ifelse
  exch FMS} bdef
/csm {1 dpi2point div -1 dpi2point div scale neg translate
 dup landscapeMode eq {pop -90 rotate}
  {rotateMode eq {90 rotate} if} ifelse} bdef
% line types: solid, dotted, dashed, dotdash
/SO { [] 0 setdash } bdef
/DO { [.5 dpi2point mul 4 dpi2point mul] 0 setdash } bdef
/DA { [6 dpi2point mul] 0 setdash } bdef
/DD { [.5 dpi2point mul 4 dpi2point mul 6 dpi2point mul 4
  dpi2point mul] 0 setdash } bdef
% macros for lines and objects
/L {lineto stroke} bdef
/MP {3 1 roll moveto 1 sub {rlineto} repeat} bdef
/AP {{rlineto} repeat} bdef
/PDlw -1 def
/W {/PDlw currentlinewidth def setlinewidth} def
/PP {closepath eofill} bdef
/DP {closepath stroke} bdef
/MR {4 -2 roll moveto dup  0 exch rlineto exch 0 rlineto
  neg 0 exch rlineto closepath} bdef
/FR {MR stroke} bdef
/PR {MR fill} bdef
/L1i {{currentfile picstr readhexstring pop} image} bdef
/tMatrix matrix def
/MakeOval {newpath tMatrix currentmatrix pop translate scale
0 0 1 0 360 arc tMatrix setmatrix} bdef
/FO {MakeOval stroke} bdef
/PO {MakeOval fill} bdef
/PD {currentlinewidth 2 div 0 360 arc fill
   PDlw -1 eq not {PDlw w /PDlw -1 def} if} def
/FA {newpath tMatrix currentmatrix pop translate scale
  0 0 1 5 -2 roll arc tMatrix setmatrix stroke} bdef
/PA {newpath tMatrix currentmatrix pop	translate 0 0 moveto scale
  0 0 1 5 -2 roll arc closepath tMatrix setmatrix fill} bdef
/FAn {newpath tMatrix currentmatrix pop translate scale
  0 0 1 5 -2 roll arcn tMatrix setmatrix stroke} bdef
/PAn {newpath tMatrix currentmatrix pop translate 0 0 moveto scale
  0 0 1 5 -2 roll arcn closepath tMatrix setmatrix fill} bdef
/vradius 0 def /hradius 0 def /lry 0 def
/lrx 0 def /uly 0 def /ulx 0 def /rad 0 def
/MRR {/vradius xdef /hradius xdef /lry xdef /lrx xdef /uly xdef
  /ulx xdef newpath tMatrix currentmatrix pop ulx hradius add uly
  vradius add translate hradius vradius scale 0 0 1 180 270 arc 
  tMatrix setmatrix lrx hradius sub uly vradius add translate
  hradius vradius scale 0 0 1 270 360 arc tMatrix setmatrix
  lrx hradius sub lry vradius sub translate hradius vradius scale
  0 0 1 0 90 arc tMatrix setmatrix ulx hradius add lry vradius sub
  translate hradius vradius scale 0 0 1 90 180 arc tMatrix setmatrix
  closepath} bdef
/FRR {MRR stroke } bdef
/PRR {MRR fill } bdef
/MlrRR {/lry xdef /lrx xdef /uly xdef /ulx xdef /rad lry uly sub 2 div def
  newpath tMatrix currentmatrix pop ulx rad add uly rad add translate
  rad rad scale 0 0 1 90 270 arc tMatrix setmatrix lrx rad sub lry rad
  sub translate rad rad scale 0 0 1 270 90 arc tMatrix setmatrix
  closepath} bdef
/FlrRR {MlrRR stroke } bdef
/PlrRR {MlrRR fill } bdef
/MtbRR {/lry xdef /lrx xdef /uly xdef /ulx xdef /rad lrx ulx sub 2 div def
  newpath tMatrix currentmatrix pop ulx rad add uly rad add translate
  rad rad scale 0 0 1 180 360 arc tMatrix setmatrix lrx rad sub lry rad
  sub translate rad rad scale 0 0 1 0 180 arc tMatrix setmatrix
  closepath} bdef
/FtbRR {MtbRR stroke } bdef
/PtbRR {MtbRR fill } bdef
/stri 6 array def /dtri 6 array def
/smat 6 array def /dmat 6 array def
/tmat1 6 array def /tmat2 6 array def /dif 3 array def
/asub {/ind2 exch def /ind1 exch def dup dup
  ind1 get exch ind2 get sub exch } bdef
/tri_to_matrix {
  2 0 asub 3 1 asub 4 0 asub 5 1 asub
  dup 0 get exch 1 get 7 -1 roll astore } bdef
/compute_transform {
  dmat dtri tri_to_matrix tmat1 invertmatrix 
  smat stri tri_to_matrix tmat2 concatmatrix } bdef
/ds {stri astore pop} bdef
/dt {dtri astore pop} bdef
/db {2 copy /cols xdef /rows xdef mul dup 3 mul string
  currentfile 
  3 index 0 eq {/ASCIIHexDecode filter}
  {/ASCII85Decode filter 3 index 2 eq {/RunLengthDecode filter} if }
  ifelse exch readstring pop
  dup 0 3 index getinterval /rbmap xdef
  dup 2 index dup getinterval /gbmap xdef
  1 index dup 2 mul exch getinterval /bbmap xdef pop pop}bdef
/it {gs np dtri aload pop moveto lineto lineto cp c
  cols rows 8 compute_transform 
  rbmap gbmap bbmap true 3 colorimage gr}bdef
/il {newpath moveto lineto stroke}bdef
currentdict end def
%%EndProlog

%%BeginSetup
MathWorks begin

0 cap

end
%%EndSetup

%%Page: 1 1
%%BeginPageSetup
%%PageBoundingBox:    96   199   499   602
MathWorks begin
bpage
%%EndPageSetup

%%BeginObject: obj1
bplot

/dpi2point 12 def
portraitMode 0216 7344 csm

  947   110  4836  4846 rc
86 dict begin %Colortable dictionary
/c0 { 0.000000 0.000000 0.000000 sr} bdef
/c1 { 1.000000 1.000000 1.000000 sr} bdef
/c2 { 0.900000 0.000000 0.000000 sr} bdef
/c3 { 0.000000 0.820000 0.000000 sr} bdef
/c4 { 0.000000 0.000000 0.800000 sr} bdef
/c5 { 0.910000 0.820000 0.320000 sr} bdef
/c6 { 1.000000 0.260000 0.820000 sr} bdef
/c7 { 0.000000 0.820000 0.820000 sr} bdef
c0
1 j
1 sg
   0    0 6919 5187 rf
6 w
0 4227 4227 0 0 -4227 1466 4616 4 MP
PP
-4227 0 0 4227 4227 0 0 -4227 1466 4616 5 MP stroke
4 w
DO
0 sg
1671 4616 mt 1671  389 L
1671  389 mt 1671  389 L
1888 4616 mt 1888  389 L
1888  389 mt 1888  389 L
2197 4616 mt 2197  389 L
2197  389 mt 2197  389 L
2452 4616 mt 2452  389 L
2452  389 mt 2452  389 L
2731 4616 mt 2731  389 L
2731  389 mt 2731  389 L
3149 4616 mt 3149  389 L
3149  389 mt 3149  389 L
3521 4616 mt 3521  389 L
3521  389 mt 3521  389 L
3971 4616 mt 3971  389 L
3971  389 mt 3971  389 L
4573 4616 mt 4573  389 L
4573  389 mt 4573  389 L
5091 4616 mt 5091  389 L
5091  389 mt 5091  389 L
1466 4411 mt 5693 4411 L
5693 4411 mt 5693 4411 L
1466 4194 mt 5693 4194 L
5693 4194 mt 5693 4194 L
1466 3884 mt 5693 3884 L
5693 3884 mt 5693 3884 L
1466 3629 mt 5693 3629 L
5693 3629 mt 5693 3629 L
1466 3350 mt 5693 3350 L
5693 3350 mt 5693 3350 L
1466 2932 mt 5693 2932 L
5693 2932 mt 5693 2932 L
1466 2560 mt 5693 2560 L
5693 2560 mt 5693 2560 L
1466 2110 mt 5693 2110 L
5693 2110 mt 5693 2110 L
1466 1509 mt 5693 1509 L
5693 1509 mt 5693 1509 L
1466  990 mt 5693  990 L
5693  990 mt 5693  990 L
SO
6 w
1466 4616 mt 5693 4616 L
1466 4616 mt 1466  389 L
1671 4616 mt 1671 4573 L
%%IncludeResource: font Helvetica
/Helvetica /WindowsLatin1Encoding 120 FMSR

1538 4761 mt 
(  0.1 ) s
1888 4616 mt 1888 4573 L
1755 4761 mt 
(  0.2 ) s
2197 4616 mt 2197 4573 L
2064 4761 mt 
(  0.5 ) s
2452 4616 mt 2452 4573 L
2336 4761 mt 
(   1  ) s
2731 4616 mt 2731 4573 L
2615 4761 mt 
(   2  ) s
3149 4616 mt 3149 4573 L
3033 4761 mt 
(   5  ) s
3521 4616 mt 3521 4573 L
3388 4761 mt 
(  10  ) s
3971 4616 mt 3971 4573 L
3838 4761 mt 
(  20  ) s
4573 4616 mt 4573 4573 L
4440 4761 mt 
(  40  ) s
5091 4616 mt 5091 4573 L
4958 4761 mt 
(  60  ) s
1466 4411 mt 1508 4411 L
1165 4455 mt 
(   0.1) s
1466 4194 mt 1508 4194 L
1165 4238 mt 
(   0.2) s
1466 3884 mt 1508 3884 L
1165 3928 mt 
(   0.5) s
1466 3629 mt 1508 3629 L
1198 3673 mt 
(     1) s
1466 3350 mt 1508 3350 L
1198 3394 mt 
(     2) s
1466 2932 mt 1508 2932 L
1198 2976 mt 
(     5) s
1466 2560 mt 1508 2560 L
1165 2604 mt 
(    10) s
1466 2110 mt 1508 2110 L
1165 2154 mt 
(    20) s
1466 1509 mt 1508 1509 L
1165 1553 mt 
(    40) s
1466  990 mt 1508  990 L
1165 1034 mt 
(    60) s
gs 1466 389 4228 4228 rc
DA
12 w
-1 0 0 -2 -5 -9 -1 -1 0 -10 -4 -6 -2 -5 -3 -4 
-4 -5 -2 -1 -1 -11 -2 -6 -5 0 -1 -5 -4 -1 -4 -1 
-5 -4 -4 0 -4 -3 -4 -2 -1 -4 -4 -7 -4 -1 -4 -1 
-5 -2 -4 0 -4 -1 -4 -1 -3 -2 -4 0 -4 -1 -1 -2 
-1 -11 0 -12 -2 -5 -4 -1 -3 -1 -4 0 -3 -1 -4 -1 
-4 -1 -2 -1 -1 -6 -3 -4 -1 -2 -3 0 -3 -1 -4 -4 
-3 -1 -3 0 -3 -2 -3 -4 -1 -8 -1 -4 0 -12 -2 -6 
-1 -6 -2 -1 -3 -7 -3 -2 -2 -3 -1 -4 -3 0 -2 -8 
-1 -8 -1 -5 -2 -1 -3 -3 -3 -1 -3 -2 -3 0 -3 -1 
-2 0 -3 -3 -3 -1 -3 0 0 -1 -2 -14 -3 -5 -3 -5 
-2 -2 -1 -1 -2 -1 -3 -1 -2 -4 -3 -1 -2 -3 -3 -4 
-1 0 -2 0 -2 -9 -2 0 -3 -3 -2 -1 -1 -1 -2 0 
-2 -1 -3 -1 -2 -1 -2 -1 -3 0 -2 0 -2 -1 -3 -1 
-2 -3 -2 -2 -2 -3 0 -2 -3 -7 -2 -4 0 -1 -2 -4 
-2 -1 -2 -1 -3 0 -2 0 -1 -9 -1 -5 -2 -1 -2 -9 
-1 0 -1 -2 -2 -13 -2 -2 -2 -3 -2 -1 -2 -10 0 -2 
-3 0 -2 -2 -2 -2 -2 0 -1 -1 -2 -5 -2 -1 -2 0 
-2 -1 -2 -1 0 -1 -2 -11 -2 -1 -2 -3 -1 -1 -1 0 
-2 -1 -1 -1 -2 0 -2 0 -2 -1 -2 0 -2 0 -1 -2 
-2 0 -2 -3 -2 0 -2 0 -1 -1 -2 0 -2 0 -1 0 
-2 0 -2 -3 -2 -2 -1 0 -2 -1 -1 -2 0 -17 -1 -1 
-1 0 -2 -1 -2 0 -1 0 -2 -1 -2 0 -1 0 -2 0 
-1 0 -2 -1 -2 0 -1 0 -2 0 -1 -1 -2 0 -1 0 
-2 -1 -2 0 -1 -1 -3 -1 -2 0 -1 -2 -2 0 -1 0 
-2 0 -1 0 -2 -1 -1 0 -2 0 -1 0 -2 0 -1 0 
-1 0 -2 -1 -1 0 -2 -1 -1 0 -2 0 -1 -1 -1 0 
-2 0 -1 0 -2 -1 -1 0 -1 0 -2 -1 -1 0 -1 0 
-2 -1 -1 0 -1 0 -2 0 -1 -1 -1 -6 -2 -5 -1 -1 
-1 0 -1 -5 -1 -3 -1 -1 -1 -4 -2 -6 -1 -2 -1 -2 
0 -2 -1 -4 -2 -2 -1 0 -1 -1 -2 0 -1 -1 -1 -6 
-1 -2 -1 -1 0 -19 -1 -5 -1 -2 -1 -1 -1 -4 -2 -1 
-1 -1 0 -6 -1 -1 -1 -1 -1 0 -2 0 -1 -1 -1 0 
-1 0 -1 -1 -2 0 -1 -2 -1 0 -1 0 -1 0 -2 0 
-1 -1 -1 -1 -1 0 -1 -1 -1 0 -1 -1 -2 0 -1 0 
-1 0 -1 -1 -1 0 -1 0 -1 -1 -2 0 -1 0 -1 -1 
-1 0 -1 0 -1 -1 -1 0 -1 0 -1 0 -1 0 -2 0 
-1 0 -1 0 -1 -1 -1 0 -1 0 -1 -1 -1 0 -1 -1 
-1 0 -1 0 -1 -1 2002 2816 300 MP stroke
-1 0 -1 0 -1 -1 -2 0 -1 0 -1 -1 -1 0 -1 0 
-1 0 -1 0 -1 -1 -1 -2 -1 0 -1 0 -1 -2 -1 -1 
-1 -2 -1 0 -1 -3 -1 0 -1 -1 -1 -1 -1 0 -1 -1 
-1 0 -1 -1 -1 -3 -1 -1 -1 -1 -1 -2 -1 -1 -1 -6 
-1 -3 -1 0 -1 -1 -1 -2 -1 -5 -1 -2 -1 -1 -1 -1 
-1 -14 -1 -5 -1 0 -1 -3 0 -1 -1 -4 -1 -3 -1 -1 
-1 -1 -1 -7 0 -2 -1 -3 -1 -1 0 -1 -1 -1 -1 0 
-1 -2 -1 0 -1 -1 -1 0 -1 0 -1 0 -1 -1 -1 0 
-1 0 -1 -1 -1 0 -1 -1 -1 0 -1 -1 -1 -1 -1 -1 
-1 0 -1 0 -1 -3 -1 0 -1 -1 -1 0 -1 -2 -1 -1 
-1 -1 -1 -1 -1 0 1 0 -2 -3 -1 0 -1 0 -1 0 
-1 -1 -1 -1 -1 -1 -1 -1 -1 0 -1 -1 -1 0 -1 -1 
-1 0 -2 -1 -1 -1 -1 -1 -1 0 -1 -1 -1 -1 -1 0 
-1 -1 -1 -1 -1 0 -1 -1 -1 -4 -1 -1 -1 0 -1 -1 
-1 0 -1 -3 -1 -1 -1 0 -1 0 -1 0 -1 -1 -1 0 
-1 0 1 0 -2 -2 -1 0 -1 0 -1 -19 0 -8 -1 -20 
-1 -4 0 -14 -1 -9 0 -9 -1 -1 -1 0 -1 -1 -1 0 
-1 0 -1 -1 -1 0 -1 0 -1 -1 -1 0 -1 0 -1 -1 
-1 0 -1 0 -1 0 -1 -1 -1 0 -1 -1 -1 -1 -1 -1 
-1 0 -1 0 -1 -1 -1 0 -1 0 -1 -1 -1 -1 -1 0 
-1 -1 -1 0 -1 0 0 -2 -1 -1 -1 0 -1 0 -1 -2 
-1 0 -1 -2 -1 0 -1 -1 -1 0 -1 0 -1 0 -1 0 
-1 -1 -1 -1 -1 -1 -1 0 -1 -1 -1 0 -1 0 1 0 
-2 -2 -1 0 -1 0 -1 0 -1 -1 -1 0 -1 -1 -1 0 
-1 -1 -1 0 -1 -1 -1 0 -1 -1 -1 0 -1 0 -1 -1 
-1 0 -1 0 1 0 -2 -2 -1 0 -1 -1 -1 0 -1 0 
-1 -1 -1 0 -1 0 -1 -1 -1 0 -1 -1 -1 0 -1 0 
-1 -1 -1 -1 -1 0 -1 0 -1 -1 -1 0 -1 0 -1 -1 
-1 -1 -1 0 -1 0 -1 -1 -1 0 -1 0 -1 -1 -1 0 
-1 -1 -1 0 -1 0 -1 -1 -1 0 -1 -1 -1 0 -1 -1 
-1 -1 -1 0 -1 0 -1 -1 -1 0 -1 -1 -1 0 -1 0 
-1 -1 -1 0 1 0 -2 -2 -1 0 -1 -1 -1 -1 -1 0 
-1 -1 -1 0 -1 -1 -1 0 -1 -1 -1 0 0 -1 -2 -12 
0 -2 -1 -8 0 -3 -1 -8 -1 -1 0 -2 -1 -1 0 -1 
-1 -3 0 -1 -1 -2 -1 0 0 -3 -1 -3 -1 -2 0 -2 
-1 -1 -1 -1 0 -1 -1 -1 -1 0 -1 -5 0 -2 -1 -2 
-1 -1 -1 -1 -1 -1 0 -1 0 1 -1 -3 -1 0 1 0 
-2 -3 -1 0 -1 -1 2279 3179 300 MP stroke
-1 0 1 0 -2 -2 -1 0 -1 -1 -1 -1 0 -1 -1 -1 
-1 -1 -1 -1 -1 -1 -1 -1 -1 0 -1 -1 -1 -1 -1 -1 
-1 -1 -1 0 -1 -1 -1 0 0 -1 -2 -2 -1 0 1 0 
-2 -2 -1 -1 -1 -1 0 -2 -1 0 0 -2 -1 0 -1 -1 
-1 0 -1 0 -1 -1 -1 -1 -1 0 -1 -1 -1 -1 -1 -1 
-1 -1 -1 0 0 -1 -2 -3 -1 0 1 0 -2 -2 -1 -1 
-1 -1 -1 -1 -1 -1 -1 -1 -1 -1 -1 -1 -1 0 -1 -1 
-1 0 -1 -1 -1 0 1 0 -2 -2 -1 -1 -1 0 0 -1 
-2 -2 -1 0 -1 -1 -1 -1 -1 -2 -1 -1 -1 -1 -1 0 
-1 -1 -1 -1 0 -2 -1 0 -1 -1 -1 -1 -1 -1 -1 -1 
-1 0 1 0 -2 -2 0 -1 -1 -1 -1 -1 -1 -1 -1 0 
-1 -1 0 -3 -1 -4 0 -1 -1 -6 0 -2 -1 -2 0 -5 
-1 -3 0 -1 -1 -9 0 -6 -1 -4 -1 -1 -1 0 0 -4 
-1 -3 0 -1 -1 -1 0 -1 -2 -3 0 -3 -2 -3 0 -1 
-1 -3 0 -4 -1 -1 0 -1 -2 -3 -1 -1 0 -2 -1 -1 
-1 0 0 -3 -1 -2 -1 -1 0 -2 -1 0 -1 0 0 -3 
-1 0 0 -2 -2 -2 -1 -1 -1 0 -1 -1 -1 0 1 0 
-2 -2 -1 -3 -1 -1 -1 -1 -1 -1 0 -1 -1 -1 0 -1 
-1 -1 -1 0 -1 0 1 0 -2 -2 -1 -1 -1 -1 -1 0 
-1 -1 -1 -2 -1 0 0 -1 0 1 -1 -3 -1 0 1 0 
-2 -2 -1 0 -1 -2 -1 -1 -1 -1 -1 -1 -1 -1 -1 -2 
-1 -1 -1 -1 -1 -1 -1 -1 -1 0 -1 -1 0 -4 -1 0 
-1 -1 -1 -1 -1 -1 -1 -1 -1 -1 -1 -1 -1 -1 -1 -1 
-1 -1 -1 -1 0 -6 -1 -1 0 -1 -1 -1 -1 -3 0 -5 
-1 -1 0 -1 -1 -1 0 -1 -1 -1 0 -4 -1 -2 0 -2 
-1 -1 0 -3 -1 -2 0 -1 -1 -3 0 -1 -1 -1 0 -2 
-1 -5 0 -3 -1 -1 0 -4 -1 -2 0 -4 -1 -1 0 -2 
-1 -1 0 -2 -1 -3 -1 0 0 -2 -1 -1 -1 0 0 -2 
-2 -2 0 -1 -1 -2 0 -3 -2 -2 0 -1 -2 -2 0 -1 
-2 -2 -1 -1 0 -1 -1 -1 -1 -1 -1 -1 0 -2 -1 -1 
0 -2 -1 0 -1 -1 -1 -1 -1 -1 0 -1 -2 -2 0 -2 
-2 -2 -1 -1 -1 -1 -1 -3 -1 -1 -1 -1 -1 0 1 0 
-2 -2 0 -1 -1 -2 -1 -1 0 -3 -1 -1 -1 0 -1 -1 
-1 -1 -1 -1 0 -1 -2 -2 -1 -1 -1 -1 0 -5 -1 -1 
-1 -1 0 -1 -1 -1 -1 -1 -1 -1 0 -3 -1 -2 0 -2 
-1 -1 -1 -1 -1 -1 0 -2 -1 -2 -1 0 0 -2 -1 -3 
0 -1 -1 -1 -1 -1 0 -5 -1 -2 0 -2 -1 -1 -1 -3 
0 -1 -1 -1 -1 0 2512 3591 300 MP stroke
0 -2 -1 0 0 -2 -1 -1 0 -1 -1 -1 -1 -1 0 -5 
-1 -3 0 -3 -2 -2 0 -1 0 1 -1 -3 0 -3 -1 -1 
0 -3 -2 -4 0 -2 -1 -1 -1 -1 -1 0 -1 0 -1 -1 
-1 0 -1 -1 -1 0 -1 -1 -1 -1 -1 -1 -1 -1 -1 -1 
-1 0 -1 -1 -1 -1 -1 0 -1 0 -1 -1 -1 -1 -1 0 
-1 -1 -1 0 -1 -1 -1 -1 -1 0 -1 -1 -1 0 -1 0 
-1 -1 -1 0 -1 -1 -1 0 -1 0 -1 -1 -1 0 -1 -1 
-1 -1 -1 0 -1 -1 -1 0 -1 0 -1 -1 -1 0 -1 -1 
-1 0 -1 -1 -1 0 -1 -1 -1 0 -1 -1 -1 -1 -1 0 
-1 -1 -1 -1 -1 -1 -1 0 -1 -1 -1 0 -1 -1 -1 0 
-1 -1 -1 0 -1 -1 -1 0 -1 -1 -1 0 -1 0 -1 -1 
-1 0 -1 -1 -1 0 -1 0 -1 -1 -1 0 -1 -1 -1 0 
-1 0 -1 -1 -1 0 -1 -1 -1 0 -1 0 -1 0 -1 -1 
-1 0 -1 0 -1 -1 -1 0 -1 -1 -1 0 -1 -1 -1 0 
-1 -1 -1 0 -1 -1 -1 0 -1 -1 -1 0 -1 -1 -1 -1 
-1 0 -1 -1 -1 -1 -1 0 -1 0 -1 -1 -1 0 -1 -1 
-1 0 -1 0 -1 0 -1 -1 -1 0 -1 0 -1 -1 -1 0 
-1 0 -1 -1 -1 0 -1 -1 -1 0 -1 0 -1 0 -1 0 
-1 -1 -1 0 -1 0 -1 -1 -1 0 -1 -1 -1 0 -1 0 
-1 -1 -1 0 -1 -1 -1 0 -1 0 -1 -1 -1 -1 -1 0 
-1 0 -1 -1 -1 0 -1 0 -1 -1 -1 0 -1 -1 -1 0 
-1 0 -1 0 -1 -1 -1 0 -1 0 -1 0 -1 -1 -1 0 
-1 0 -1 -1 -1 0 -1 0 -1 -1 -1 0 -1 0 -1 -1 
-1 0 -1 0 -1 0 -1 -1 -1 0 -1 0 -1 -1 -1 0 
-1 0 -1 0 -1 -1 -1 0 -1 0 -1 -1 -1 0 -1 0 
-1 -1 -1 0 -1 0 -1 -1 -1 0 -1 0 -1 0 -1 0 
-1 -1 -1 0 -1 0 -1 -1 -1 0 -1 0 -1 -1 -1 0 
-1 0 -1 0 -1 -1 -1 0 -1 0 -1 -1 -1 0 -1 0 
-1 0 -1 0 -1 -1 -1 0 -1 0 -1 -1 -1 0 -1 0 
-1 0 -1 -1 -1 0 -1 0 -1 0 -1 -1 -1 0 -1 0 
-1 0 -1 -1 -1 0 -1 0 -1 -1 -1 0 -1 0 -1 0 
-1 0 -1 -1 -1 0 -1 0 -1 0 -1 -1 -1 0 -1 0 
-1 0 -1 0 -1 -1 -1 0 -1 0 -1 0 -1 0 -1 -1 
-1 0 -1 0 -1 0 -1 0 -1 -1 -1 0 -1 0 -1 0 
-1 0 -1 0 -1 -1 -1 0 -1 0 -1 0 -1 0 -1 0 
-1 -1 -1 0 -1 0 -1 0 -1 0 -1 0 -1 -1 -1 0 
-1 0 -1 0 -1 0 -1 -1 -1 0 -1 0 -1 0 -1 0 
-1 0 -1 0 -1 -1 2803 3730 300 MP stroke
-1 0 -1 0 -1 0 -1 0 -1 0 -1 -1 -1 0 -1 0 
-1 0 -1 0 -1 0 -1 -1 -1 0 -1 0 -1 0 -1 0 
-1 -1 -1 0 -1 0 -1 0 -1 0 -1 0 -1 0 -1 -1 
-1 0 -1 0 -1 0 -1 0 -1 0 -1 0 -1 0 -1 -1 
-1 0 -1 0 -1 0 -1 0 -1 0 -1 0 -1 0 -1 -1 
-1 0 -1 0 -1 0 -1 0 -1 0 -1 -1 -1 0 -1 0 
-1 0 -1 0 -1 0 -1 0 -1 0 -1 0 -1 -1 -1 0 
-1 0 1 0 -2 -2 -1 0 1 0 -2 -2 -1 -1 0 -1 
-1 -1 -1 -1 0 -2 -1 -1 -1 -1 -1 -1 0 -1 -2 -2 
-1 0 0 -2 -2 -2 -1 -1 0 -2 -1 -1 -1 -1 -1 0 
-1 -1 -1 -1 0 -1 -2 -2 -1 -1 0 -1 -2 -2 -1 0 
-1 -1 -1 -1 -1 -1 0 -1 -2 -2 -1 0 -1 -1 -1 -1 
-1 -1 -1 0 1 0 -2 -2 -1 0 -1 -1 -1 -1 -1 -1 
0 -1 -2 -2 0 -1 -2 -2 -1 -1 -1 0 0 -1 -2 -2 
-1 -1 -1 -1 -1 -1 -1 -1 -1 -1 -1 -1 -1 -1 0 -2 
-1 -1 -1 -1 -1 -1 -1 -1 -1 -1 -1 -1 -1 -1 -1 -1 
-1 -1 -1 0 1 0 -2 -2 -1 -1 -1 0 -1 -1 -1 -1 
-1 -1 -1 -1 -1 -1 -1 -1 -1 0 1 0 -2 -2 -1 0 
1 0 -2 -2 -1 0 -1 -1 -1 -1 -1 0 -1 -1 -1 -1 
-1 0 0 -1 -2 -2 -1 0 -1 -1 -1 -1 -1 0 -1 -1 
-1 -1 -1 -1 -1 -1 -1 -1 -1 -1 -1 -1 -1 0 -1 -1 
-1 0 -1 -1 -1 -1 -1 -1 -1 -1 -1 -1 -1 0 -1 -1 
-1 -1 -1 -1 -1 0 -1 -1 -1 -1 -1 -1 -1 -1 -1 -1 
-1 0 -1 -1 -1 0 -1 -1 -1 0 -1 -1 -1 -1 -1 0 
-1 -1 -1 -1 -1 0 -1 -1 -1 -1 -1 0 -1 -1 -1 -1 
-1 0 -1 -1 -1 0 -1 -1 -1 -1 -1 -1 -1 0 -1 -1 
-1 -1 -1 0 -1 -1 -1 -1 -1 -1 -1 0 -1 -1 -1 -1 
-1 0 1 0 -2 -2 -1 0 -1 -1 -1 -1 -1 0 -1 -1 
-1 -1 -1 0 1 0 -2 -2 0 -1 -2 -2 -1 -1 0 -1 
-1 -1 -1 0 1 0 -2 -2 0 -1 -2 -2 -1 -1 0 -1 
-2 -2 -1 -1 -1 -1 0 -1 -2 -2 -1 0 -1 -1 -1 -1 
-1 -1 -1 -1 -1 -1 -1 0 0 -1 -2 -2 -1 -1 0 -1 
-2 -2 0 -1 -2 -2 -1 -1 -1 -1 -1 -1 -1 0 -1 -1 
-1 -1 -1 -1 -1 -1 -1 -1 -1 -1 -1 -1 -1 -1 -1 0 
1 0 -2 -2 -1 -1 -1 -1 -1 -1 -1 -1 -1 -1 -1 0 
1 0 -2 -2 0 -1 -2 -2 -1 0 1 0 -2 -2 -1 -1 
-1 -1 -1 -1 -1 -1 -1 -1 -1 -1 -1 -1 -1 -1 -1 0 
-1 -1 -1 -1 -1 -1 3085 3957 300 MP stroke
-1 -1 -1 0 1 0 -2 -2 -1 -1 -1 -1 -1 0 -1 -1 
-1 -1 -1 -1 -1 -1 -1 0 1 0 -2 -2 -1 -1 -1 0 
-1 -1 -1 -1 -1 -1 -1 -1 -1 -1 -1 -1 -1 0 -1 -1 
0 -1 -2 -2 -1 -1 -1 -1 -1 -1 -1 -1 -1 0 -1 -1 
0 -1 -2 -2 -1 -1 -1 0 -1 -1 -1 -1 -1 -1 -1 -1 
-1 -1 -1 -1 -1 -1 -1 -1 -1 0 -1 -1 -1 -1 -1 -1 
-1 0 -1 -1 -1 -1 -1 0 -1 -1 -1 -1 -1 -1 -1 0 
-1 -1 -1 -1 -1 -1 -1 -1 -1 -1 -1 0 -1 -1 -1 -1 
-1 -1 -1 0 -1 -1 -1 -1 -1 -1 -1 0 -1 -1 -1 0 
-1 -1 -1 0 0 -1 -2 -2 -1 0 -1 -1 -1 -1 -1 0 
-1 -1 -1 -1 -1 -1 -1 0 0 -1 -2 -2 -1 0 -1 -1 
-1 -1 -1 0 -1 -1 -1 -1 -1 -1 -1 0 -1 -1 -1 -1 
-1 -1 -1 -1 -1 0 -1 -1 -1 -1 -1 0 -1 -1 -1 0 
-1 -1 -1 0 -1 -1 -1 0 -1 -1 -1 -1 -1 0 -1 -1 
-1 -1 -1 0 -1 -1 -1 -1 -1 0 -1 -1 -1 -1 -1 0 
-1 -1 -1 0 -1 -1 -1 -1 -1 -1 -1 0 -1 -1 -1 -1 
-1 -1 -1 -1 -1 -1 -1 -1 -1 0 -1 -1 -1 0 -1 -1 
-1 -1 -1 -1 -1 0 -1 -1 -1 -1 -1 0 -1 -1 -1 -1 
-1 0 -1 -1 -1 -1 -1 0 -1 -1 -1 0 -1 -1 -1 0 
-1 -1 -1 0 -1 0 -1 -1 -1 0 -1 -1 -1 -1 -1 0 
-1 -1 -1 -1 -1 0 -1 0 -1 -1 -1 -1 -1 0 -1 -1 
-1 0 -1 -1 -1 0 -1 -1 -1 0 -1 -1 -1 -1 -1 0 
-1 0 -1 -1 -1 0 -1 -1 -1 0 -1 -1 -1 -1 -1 0 
-1 -1 -1 0 -1 -1 -1 0 -1 -1 -1 -1 -1 0 -1 0 
-1 -1 -1 0 -1 -1 -1 -1 -1 0 -1 -1 -1 0 -1 -1 
-1 0 -1 -1 -1 0 -1 0 -1 -1 -1 0 -1 -1 -1 0 
-1 -1 -1 0 -1 -1 -1 0 -1 0 -1 -1 -1 0 -1 -1 
-1 0 -1 -1 -1 0 -1 0 -1 -1 -1 0 -1 0 -1 -1 
-1 0 -1 -1 -1 0 -1 -1 -1 0 -1 0 -1 -1 -1 0 
-1 0 -1 -1 -1 0 -1 0 -1 -1 -1 0 -1 -1 -1 0 
-1 -1 -1 0 -1 0 -1 -1 -1 0 -1 -1 -1 0 -1 0 
-1 -1 -1 0 -1 -1 -1 0 -1 -1 -1 0 -1 0 -1 -1 
-1 0 0 -496 3340 4617 259 MP stroke
gr

12 w
DA
3346 4904 mt 
(FMR [%]) s
1083 2780 mt  -90 rotate
(FNMR [%]) s
90 rotate
3376  294 mt 
(P1:3\(S\)) s
gs 1466 389 4228 4228 rc
/c8 { 0.000000 0.000000 1.000000 sr} bdef
c8
-1 -2 -1 0 -4 -1 -5 -1 -5 -3 -4 -2 -2 -1 -3 -4 
-5 -1 -5 -1 -4 0 -1 -2 0 -9 -1 -8 -3 -5 -4 -2 
-4 0 -4 -1 -1 -1 -4 -6 -4 0 -3 -2 -1 0 -5 -6 
-1 -2 -3 -5 -4 -2 -4 -1 -2 -1 -1 -1 -4 0 -4 -2 
-4 -1 -1 -4 -3 -6 -3 -3 -3 -9 -1 -1 -3 0 -4 -3 
-4 -1 -3 -1 -1 -3 -1 -8 0 -9 -1 -2 -4 0 -3 -3 
-4 -1 -3 -1 -3 -1 -3 -1 0 -1 -4 -8 -3 0 0 -9 
-1 -10 -2 -4 -3 -1 -3 -1 -3 -1 -3 -2 -3 -1 -3 -1 
-3 -1 -3 -2 -3 0 -1 -4 -2 -3 -3 -1 -2 -2 -3 -1 
-3 0 -3 -1 -2 -1 -2 0 0 -10 -1 -1 -3 -4 -2 -1 
-3 -1 -3 -1 0 -1 -2 -9 -2 -1 -1 0 -2 -1 -3 -1 
-3 0 -2 0 -2 -1 -3 -1 -2 -1 -3 -1 -2 0 -3 -1 
-2 -3 -1 0 -1 -1 -3 0 -2 -1 -2 -1 -3 -1 -2 -1 
-2 0 -2 -2 -3 -1 -2 0 0 -2 -2 -2 -2 0 -2 -1 
-3 -1 -2 0 -2 -1 -2 -1 -2 -1 -2 0 -2 -1 -1 -1 
-1 -10 0 -2 -2 0 -2 -2 -2 0 -3 -3 -2 0 -2 -2 
-2 -1 0 -1 -1 -1 -2 -1 -2 -4 -2 -1 -2 0 -2 -2 
0 -1 -1 -10 -1 -4 -2 0 -2 -3 -2 0 -2 -2 -1 0 
-2 -1 0 -4 -2 -1 -1 -6 -1 -1 -2 -5 -1 -4 -1 -2 
-1 -1 -2 -1 -2 0 -2 -2 -2 -2 -1 -3 0 -12 -2 0 
-2 0 -1 -6 -2 -4 0 -11 -1 -11 0 -11 -1 -1 -2 -1 
-1 -2 -2 -2 -2 -3 -1 -1 -2 -1 -2 -1 -1 -3 -2 -4 
-2 -1 0 -3 -1 -4 -2 -3 0 -5 -1 -12 0 -25 -2 -1 
-2 -1 -1 0 -2 0 -1 0 -2 -1 -1 0 -2 -2 -2 -2 
-1 0 -2 -2 0 -2 -1 -13 -2 -1 -1 -1 -2 -1 -1 -1 
-2 0 -1 0 -2 -1 -1 -2 -2 0 -1 -2 -2 -2 -1 -1 
-1 -1 -2 -4 -1 0 -2 -1 -1 -1 -2 -2 -1 -1 -1 0 
-2 -2 -1 -1 -1 0 -1 -1 -1 0 -1 -2 -2 -1 -1 -2 
-1 -1 -2 -2 -1 -3 -1 -1 0 -1 -2 -3 -1 0 -1 -1 
-2 -2 -1 0 -1 -1 -2 -2 -1 -4 0 -13 -1 -1 -2 -1 
-1 -1 -1 -2 -1 0 -2 -1 -1 -5 -1 -1 -2 -1 -1 0 
-1 0 -1 0 -2 -1 -1 0 -1 -3 -1 -1 -2 -1 -1 -6 
-1 0 -1 -3 0 -8 -1 -4 -2 -1 0 -1 -1 -3 -1 -2 
-1 -2 -1 -3 -2 -3 0 -1 -1 -2 -1 0 -1 0 -1 -3 
-2 0 -1 -1 -1 -2 -1 -2 -1 -3 -1 -2 -1 0 -1 0 
-1 -6 -1 -3 0 -6 -1 -11 0 -4 -1 -3 -1 -5 -1 -6 
-1 -1 -2 0 0 -1 -1 -1 -1 -2 -1 -3 -1 0 -1 -2 
-1 0 -1 -1 -1 -1 1988 2631 300 MP stroke
-1 -1 -2 -2 -1 0 -1 -1 -1 -2 -1 0 -1 -2 -1 -4 
-1 -1 -1 0 -1 -3 -1 0 -1 0 -1 -2 -1 -1 -1 -2 
-1 -1 -1 -1 -1 -1 -1 0 -1 -1 -1 0 -1 -1 -1 -3 
-1 -2 -1 0 -1 -1 -1 -1 -1 -3 -1 -1 -1 -1 -1 0 
-1 0 -1 -1 -1 -1 -1 0 -1 0 -1 -1 -1 0 -1 -1 
-1 0 -1 0 -1 0 -1 -1 -1 -1 -1 0 -1 0 -1 0 
-1 0 -1 -1 -1 0 -1 -1 -1 0 -1 -1 -1 0 -1 0 
-1 0 -1 0 -1 0 -1 0 -1 0 -1 -1 -1 0 -1 0 
-1 0 -1 0 -1 -1 -1 0 -1 0 -1 0 -1 -1 -1 0 
-1 -1 -1 0 -1 -1 -1 0 -1 -1 -1 -1 -1 0 -1 0 
-1 0 -1 -1 -1 0 -1 0 -1 0 -1 -1 -1 0 -1 0 
-1 0 -1 -1 -1 0 -1 -1 -1 -3 -1 0 1 0 -2 -2 
-1 -1 -1 0 -1 0 -1 0 1 0 -2 -2 -1 0 -1 0 
-1 0 -1 0 -1 -1 -1 -2 -1 0 -1 -1 -1 -1 0 -1 
-1 -1 -1 0 -1 -2 -1 0 1 0 -2 -3 -1 0 -1 -3 
-1 -4 0 -2 -1 0 -1 -2 0 -2 -1 -1 -1 0 -1 0 
-1 -1 -1 0 -1 0 -1 0 -1 0 -1 -1 -1 -1 -1 0 
-1 0 -1 0 -1 -1 -1 0 -1 -1 -1 -1 -1 0 -1 -1 
-1 -1 -1 0 -1 0 -1 0 -1 -1 -1 0 -1 -1 -1 0 
-1 0 -1 0 -1 0 -1 -1 -1 -1 -1 0 -1 -1 -1 0 
-1 0 -1 -1 -1 0 -1 0 -1 -1 -1 -1 -1 -1 -1 0 
-1 0 -1 -1 -1 -1 -1 -1 -1 0 -1 -1 -1 0 -1 -1 
0 -1 -1 -1 -1 0 -1 -1 -1 -1 -1 -1 -1 0 -1 -2 
-1 0 -1 0 1 0 -2 -2 -1 0 1 0 -2 -2 -1 0 
-1 0 -1 -3 -1 -1 -1 -1 -1 -1 -1 0 1 0 -2 -2 
-1 -1 -1 -1 -1 -1 -1 0 -1 0 0 -2 -1 -1 -1 0 
-1 -1 0 -1 -1 -1 -1 0 1 0 -2 -2 -1 -1 -1 0 
-1 0 -1 -1 -1 -1 0 -1 -2 -6 -1 0 0 -2 -1 -1 
-1 -1 0 -1 -1 -1 -1 -2 0 -1 -1 -1 0 -2 -1 -1 
-1 -1 -1 0 1 0 -2 -2 -1 -1 -1 -1 -1 0 1 0 
-2 -2 -1 -1 -1 0 0 -1 -2 -2 -1 0 -1 -1 -1 -1 
-1 -1 0 -1 -1 -1 -1 -1 -1 -1 0 -1 -1 -1 -1 -1 
-1 -1 0 -3 -1 -1 0 -4 -1 -1 -1 0 -1 -1 0 -1 
-1 -1 -1 -2 -1 -1 -1 -1 -1 0 -1 0 1 0 -2 -3 
0 -5 -1 -18 0 -2 -1 0 -1 -5 0 -3 -1 -1 -1 0 
1 0 -2 -5 -1 -2 0 -1 -1 -2 0 -1 -1 -1 -1 0 
-1 0 -1 0 -1 -1 -1 0 -1 -1 -1 0 -1 0 -1 0 
-1 0 -1 -1 -1 0 2257 2888 300 MP stroke
-1 0 -1 0 -1 0 -1 -1 -1 0 -1 -1 -1 0 -1 0 
-1 -1 -1 0 -1 -1 -1 0 -1 0 -1 -1 -1 -1 -1 0 
-1 0 -1 -1 -1 0 -1 -1 -1 0 -1 0 -1 0 -1 -1 
-1 -1 -1 0 -1 0 -1 -1 -1 0 -1 -1 -1 0 -1 0 
-1 0 -1 -1 -1 0 -1 -1 -1 0 -1 -1 -1 0 -1 0 
-1 0 -1 -1 -1 0 -1 0 -1 0 -1 -1 -1 -1 -1 0 
-1 0 -1 0 -1 0 -1 -1 -1 0 -1 -1 -1 0 -1 0 
0 -14 -1 -10 0 -1 -1 -1 -1 -3 -1 -2 -1 0 -1 -1 
-1 0 1 0 -2 -2 0 -2 -1 -1 -1 0 0 -2 -1 0 
0 -2 -1 -1 0 -1 -1 -1 0 -2 -1 -1 0 -1 -1 -1 
0 -8 -1 -1 -1 -4 0 -1 -1 -5 0 -3 -1 0 0 -5 
-1 -1 -1 0 -1 -1 -1 -1 -1 -1 -1 0 -1 -1 -1 0 
-1 0 1 0 -2 -2 -1 -1 -1 -2 -1 0 -1 -1 -1 0 
1 0 -2 -2 -1 0 1 0 -2 -2 -1 0 -1 0 -1 -1 
-1 -1 -1 -1 -1 -1 -1 0 -1 -1 -1 -1 -1 -1 -1 -1 
-1 -1 -1 -1 -1 -1 -1 0 1 0 -2 -3 0 -1 -1 -1 
-1 -1 -1 -1 0 -4 -1 -3 -1 -1 -1 -1 -1 0 -1 -1 
-1 0 0 -2 -1 -1 0 -1 -1 -1 -1 -1 -1 -1 0 -2 
-1 -3 -1 -1 -1 0 1 0 -2 -2 0 -2 -1 -1 -1 0 
0 -1 -2 -2 0 -1 -2 -3 -1 -1 -1 -1 0 -2 -1 0 
-1 -1 0 -2 -1 -1 0 -1 -1 -1 -1 0 1 0 -2 -3 
-1 -1 -1 -1 -1 -1 -1 0 1 0 -2 -3 0 -3 -1 -4 
0 -6 -1 -2 0 -6 -1 -3 -1 -2 0 -1 -1 -1 0 -4 
-1 -13 0 -16 -1 -5 -1 -1 -1 0 1 0 -2 -2 -1 -1 
-1 0 -1 -1 -1 -1 -1 0 -1 0 1 0 -2 -2 0 -1 
-2 -2 -1 -1 -1 -1 -1 -1 -1 -1 -1 -1 -1 -1 0 -1 
-1 -1 -1 -1 -1 0 -1 -1 -1 0 -1 -1 -1 -1 -1 -1 
-1 0 -1 -1 -1 -1 -1 0 -1 -1 -1 -1 -1 -1 -1 0 
-1 -1 -1 -1 -1 0 -1 -1 -1 -1 -1 0 -1 -1 -1 0 
-1 -1 -1 -1 -1 0 1 0 -2 -2 -1 -1 -1 0 1 0 
-2 -2 -1 -1 -1 -1 -1 -1 -1 -1 0 -1 0 1 -1 -3 
-1 -1 -1 0 -1 -1 -1 -1 -1 -1 -1 0 0 -1 -2 -2 
0 -2 -1 0 -1 -1 -1 0 -1 -1 0 -2 -1 -1 -1 -1 
-1 -1 -1 0 0 -2 -1 0 0 -2 -1 0 0 -2 -1 0 
-1 -1 -1 -1 -1 -1 -1 -1 -1 -1 -1 -2 0 -4 -1 0 
0 -9 -1 -8 0 -4 -2 -8 0 -7 -1 -1 -1 0 -1 -1 
0 -2 -2 -2 -1 -1 -1 -1 -1 -1 -1 0 -1 -1 -1 -1 
-1 0 0 -1 -2 -2 2506 3268 300 MP stroke
-1 -1 -1 -1 -1 -1 -1 -1 -1 0 0 -1 -2 -2 -1 0 
-1 -1 -1 -1 0 -1 -1 -1 -1 -1 -1 0 0 -2 -1 0 
0 -1 -2 -2 0 -1 -1 -1 -1 0 -1 -1 -1 0 1 0 
-2 -2 -1 -1 -1 -1 -1 0 0 -2 -1 0 -1 -1 -1 0 
-1 -1 -1 -1 -1 -1 -1 -1 -1 -1 0 -51 -1 -1 0 -5 
-1 -3 0 -3 -1 -3 -1 -1 0 -9 -1 -1 0 -2 -1 -1 
0 -2 -1 -1 0 -3 -1 -2 0 -5 -1 -1 0 -10 -1 -1 
0 -2 -1 -1 0 -61 -1 -1 0 -3 -1 -1 0 -2 -1 -1 
0 -2 -1 -1 -1 0 0 -2 -2 -2 0 -1 -1 -1 0 -2 
-1 -1 0 -1 -1 -3 0 -2 -1 -1 -1 -1 0 -1 0 1 
-1 -3 0 -4 -1 -1 0 -1 -1 -1 0 -2 -1 -3 0 -3 
-1 -1 0 -1 -1 -1 0 -2 -1 -1 -1 -1 0 -2 -1 0 
0 -2 -1 -2 -1 -1 0 -2 -2 -2 -1 -2 -1 -1 0 -2 
-1 -3 -1 -1 0 -2 -1 -2 -1 -1 0 -3 -1 -1 0 -4 
-1 -1 0 -1 -1 -1 -1 -1 0 -3 -1 -1 0 -4 -1 0 
0 -5 -1 -1 0 -3 -1 -2 0 -4 -1 -2 -1 -1 0 -2 
-1 -1 0 -5 -1 -1 0 -4 -1 -1 0 -7 -1 -1 0 -2 
-1 0 0 -3 -1 -1 0 -6 -1 -2 0 -1 -1 -1 0 -2 
-1 0 0 -2 -1 -1 0 -4 -1 -1 0 -4 -1 -2 0 -2 
-1 -1 0 -3 -1 -1 0 -3 -1 -1 0 -2 -1 0 0 -4 
-1 -4 -1 -3 0 -3 -1 -1 0 -6 -1 -1 0 -1 0 1 
-1 -3 0 -7 -1 -1 -1 -1 0 -5 -2 -2 0 -1 -1 -10 
-1 -1 0 -6 -1 -4 0 -2 -1 -2 0 -3 -1 -1 0 -5 
-1 -3 0 -3 -1 -1 0 -3 -1 -1 0 -3 -1 -4 0 -2 
-1 -1 0 -8 -1 -1 0 -4 -1 -1 0 -6 -1 -1 0 -11 
-1 0 0 -10 -1 -4 0 -9 -1 -6 0 -7 -1 -1 0 -16 
-1 -3 0 -15 -1 -4 0 -5 -1 -1 0 -10 -1 0 0 -10 
-1 -1 0 -2 -1 -1 0 -3 -1 -2 -1 -1 0 -1 0 1 
-1 -4 0 -3 -1 -1 0 -3 -2 -2 0 -1 0 1 -1 -3 
0 -5 -1 -1 0 -2 -2 -2 0 -3 -1 -1 0 -1 -1 -1 
0 -2 -2 -2 0 -2 -1 -1 0 -3 -1 -2 0 -6 -1 -1 
-1 -1 0 -2 -1 -1 0 -2 -2 -2 0 -4 -1 -2 -1 0 
1 0 -2 -2 0 -2 -1 -2 0 -4 -1 -2 0 -3 -1 -3 
0 -1 -1 -1 0 -1 -1 -1 0 -2 -1 -1 0 -3 -1 -2 
0 -1 -1 -1 0 -1 -2 -2 0 -2 -1 -1 0 -1 -1 -1 
0 -3 -1 -1 0 -2 -1 -1 0 -2 -1 -3 0 -3 -1 -1 
0 -2 -2 -2 0 -4 -1 -1 0 -3 -1 -3 0 -4 -1 -1 
0 -1 -1 -3 0 -2 2684 4039 300 MP stroke
-2 -2 0 -2 -1 -1 0 -2 -1 -3 0 -5 -1 -3 0 -2 
-1 -5 0 -4 -1 -3 0 -6 -1 -2 0 -1 0 1 -1 -4 
0 -2 -1 -1 0 -2 -1 -3 0 -2 -1 -1 0 -4 -1 -3 
-1 -1 0 -2 -1 -1 -1 -2 0 -3 -1 -1 0 -4 -1 -1 
0 -501 2702 4617 34 MP stroke
SO
/c9 { 0.000000 1.000000 0.000000 sr} bdef
c9
-1 0 -1 -1 -4 -9 -5 -5 -1 -4 0 -8 -4 -5 -4 -2 
-3 -2 -1 -9 -1 -1 -5 -1 -5 -1 -4 0 -5 -1 -4 0 
-4 -1 -4 -4 -1 -2 -4 -4 -1 -3 -3 -5 -4 -4 -1 -1 
-4 -2 -4 -6 -1 -1 -3 -2 -3 -7 -1 0 -3 -3 -4 -5 
-2 -1 -1 -10 -1 -1 -4 -3 -3 -5 -1 -2 -2 -8 0 -10 
-1 -5 -4 -5 -2 -9 -1 -10 0 -1 -4 -2 -4 -1 -3 -1 
-3 -6 0 -14 -4 -4 0 -2 -2 -10 -1 -2 -4 -1 -3 0 
-3 -2 -3 0 -4 -3 -3 -1 -3 -2 -3 -4 -2 -6 -1 -1 
-3 -5 -2 -5 -1 -3 -3 -3 -2 -5 -1 -1 -3 0 -3 -3 
-3 -1 -3 0 -3 -2 -2 -2 -2 -2 -1 -2 -3 -2 -3 -5 
-1 -2 -1 -3 -3 -8 -1 0 -2 0 -2 -2 -3 -5 -1 -4 
-2 -6 -1 -6 -1 0 -3 -1 -2 -5 -3 0 -3 -2 -1 -3 
-1 -2 -2 -6 -3 -2 -2 -1 -1 -1 -2 -6 -2 0 -3 -2 
-2 -3 -2 0 -1 -1 -2 -9 0 -3 -2 -5 -2 -3 -2 -4 
-1 -1 -2 -1 -2 0 -2 -2 -3 0 -2 -1 -2 -4 -2 0 
-2 0 -3 0 -2 -3 -2 0 -1 0 -1 -2 -2 0 -2 -5 
-1 -6 -1 -2 -2 0 -2 -1 -2 -1 -2 0 -3 -1 -2 -3 
-2 -4 -2 -3 -1 -5 -2 -1 -2 -3 -2 -1 -2 -1 -2 0 
-2 -1 -2 0 -2 0 -2 0 -2 -1 -1 -1 -2 0 -2 -2 
-2 -2 -2 -1 -2 -1 -1 0 -2 -2 -2 -1 -2 0 -2 -1 
-1 -2 -2 0 -2 -2 0 -9 -1 -9 -1 -4 -1 -2 -2 0 
-2 -3 -1 0 -2 0 -2 -2 -1 0 -2 -1 -2 0 -1 -3 
-1 -3 -1 -4 -2 -1 -1 -1 -2 0 -1 0 -2 -1 -2 0 
-1 -1 -2 0 -1 -2 -2 0 -1 -1 -2 0 -2 -1 -1 0 
-2 -1 -1 0 -2 0 -1 -1 -2 -6 -1 -4 -2 -2 0 -2 
-1 -4 -2 -6 0 -4 -1 -6 -2 -1 -1 -5 -1 -3 -1 -2 
-1 -4 -1 0 -2 -1 -1 -8 0 -3 -2 0 -1 -2 -2 -2 
-1 -2 -1 -6 0 -3 -2 -1 -1 -3 -2 -3 -1 -3 -1 0 
-2 -1 -1 0 0 -2 -1 -5 -2 0 -1 -6 -1 0 -2 -5 
0 -2 -1 -2 -1 -7 -2 0 -1 -2 -1 0 -1 -3 0 -34 
-1 0 -1 -1 -1 0 -2 -2 -1 0 -1 0 -1 -2 -2 0 
-1 -2 -1 -1 -2 0 -1 0 -1 -3 -1 -1 -2 -1 -1 -1 
-1 0 -1 0 -2 -1 -1 0 -1 0 -1 -1 -1 -1 -1 0 
-1 -1 -1 -5 -1 -7 -1 -4 -1 -1 -2 -1 -1 0 -1 0 
-1 0 -1 0 -2 -1 -1 0 -1 -1 -1 0 -1 0 -1 -1 
-1 0 -2 -2 -1 -1 -1 0 -1 0 -1 0 -1 -1 -1 -1 
-2 0 -1 0 -1 0 -1 -1 -1 0 -1 0 -1 0 -1 0 
-1 0 -1 0 -2 -1 1991 2733 300 MP stroke
-1 0 -1 -2 -1 0 -1 0 -1 0 -1 0 -1 -1 -1 -1 
-1 0 -1 0 -1 0 -1 -1 -1 -1 -1 0 -2 0 -1 0 
-1 -1 -1 0 -1 0 -1 0 -1 -3 -1 -7 -1 -1 -1 -1 
-1 -1 -1 -6 -1 -1 -1 -1 -1 0 -1 0 -1 -2 -1 -1 
-1 0 -1 0 -1 -2 -1 0 -1 0 -1 0 -1 -2 -1 0 
-1 0 -1 -1 -1 -1 -1 0 -1 -1 -1 0 -1 -1 -1 0 
-1 -2 -1 0 -1 -1 -1 0 -1 0 -1 -1 -1 -1 -1 0 
-1 -1 0 -1 -1 -3 -1 -1 -1 -12 0 -2 -1 -1 -1 -1 
-1 -2 -1 -1 -1 -6 -1 -2 -1 -1 -1 0 -1 -8 0 -1 
-2 -3 -1 0 -1 -2 -1 -3 -1 -1 -1 -1 -1 -3 -1 -5 
0 -6 -1 -8 -1 -2 -1 -6 -1 -2 -1 0 -1 -1 -1 0 
0 -2 -1 0 -1 -2 -1 0 -1 -1 -1 0 -1 -1 -1 -1 
-1 0 -1 0 -1 0 -1 -2 0 -1 -1 -1 -1 0 -1 0 
-1 -1 -1 -4 -1 -1 -1 0 -1 -4 -1 -1 -1 -1 -1 0 
-1 -1 -1 0 -1 0 -1 -2 -1 0 -1 0 -1 0 -1 -1 
-1 -1 -1 0 -1 0 -1 -1 -1 0 -1 0 -1 0 -1 -1 
-1 0 -1 -1 -1 0 -1 -1 -1 -1 -1 -1 -1 -1 -1 -2 
-1 0 -1 -1 -1 -1 -1 0 -1 -1 -1 0 -1 -1 0 -1 
-1 -1 -1 0 -1 -1 0 -1 -1 -1 -1 -2 -1 -1 0 -7 
-1 -6 -1 -2 0 -5 -2 -2 -1 -1 -1 -1 -1 -1 -1 0 
-1 -1 -1 0 -1 0 -1 -1 -1 -1 0 -1 -1 -1 -1 0 
-1 0 -1 0 -1 -1 -1 -1 -1 0 -1 -1 -1 0 -1 -1 
-1 0 -1 0 0 -2 -1 0 -1 0 -1 -1 -1 0 -1 0 
-1 -1 -1 0 -1 0 -1 0 -1 -1 -1 0 -1 -1 -1 0 
-1 0 -1 -1 -1 -1 -1 0 -1 -1 -1 -1 -1 0 -1 0 
-1 -1 -1 0 -1 -1 -1 -2 -1 -1 -1 -1 -1 -3 -1 -1 
-1 -2 0 -1 -1 -2 -1 -1 0 -1 -1 -1 -1 -2 0 -1 
-2 -3 -1 0 -1 -1 -1 0 -1 -1 -1 -1 0 -3 -1 -8 
0 -1 -1 -5 -1 -3 0 -3 -1 -1 0 -2 -1 -2 -1 -1 
-1 -1 -1 0 0 -2 -1 0 0 -2 -1 0 -1 0 -1 -1 
0 -2 -1 0 -1 0 -1 -1 -1 0 -1 -1 -1 0 0 -2 
-1 0 -1 -1 -1 -1 -1 0 -1 -1 -1 -1 0 -3 -1 -2 
-1 0 -1 0 -1 -1 -1 -1 -1 -2 -1 0 -1 -1 -1 -1 
-1 0 -1 -1 0 -5 -1 -2 -1 -4 -1 -4 -1 0 -1 -1 
-1 -1 0 -2 -1 -1 -1 -2 -1 -1 0 -3 -1 -4 -1 -1 
-1 -1 -1 -1 -1 -2 -1 0 -1 -1 0 -1 -1 -1 -1 0 
-1 -1 -1 -1 -1 0 -1 -1 -1 0 -1 -2 -1 0 -1 0 
-1 -1 -1 -2 -1 -1 2266 3087 300 MP stroke
-1 0 1 0 -2 -2 -1 0 -1 -1 -1 -1 -1 -1 -1 0 
-1 0 0 -2 -1 0 0 -1 -2 -2 -1 0 1 0 -2 -3 
-1 0 -1 -1 -1 -1 -1 0 1 0 -2 -2 -1 -1 -1 0 
-1 -1 -1 -1 -1 0 -1 -1 -1 0 -1 -1 -1 -1 -1 0 
-1 -1 -1 -1 -1 -1 -1 0 -1 0 -1 -1 -1 0 -1 0 
-1 -1 -1 -1 -1 0 -1 -1 -1 -1 -1 -1 -1 0 -1 0 
-1 -1 -1 -1 -1 -1 -1 0 -1 0 -1 -1 -1 0 -1 0 
-1 0 -1 -1 -1 0 -1 -1 -1 0 -1 -1 -1 0 -1 0 
-1 -1 -1 0 -1 0 -1 -1 -1 0 -1 0 -1 -1 -1 -1 
-1 0 -1 0 -1 -1 -1 0 -1 -1 -1 -1 -1 0 -1 -1 
-1 -1 -1 -1 -1 0 0 -1 -2 -6 0 -3 -1 -15 0 -11 
-1 -1 0 -7 -1 -1 0 -1 -1 -6 -1 -2 0 -2 -1 -3 
-1 -1 -1 -1 0 -10 -1 -1 -1 -2 -1 0 0 -3 -1 -6 
-1 -2 0 -1 -2 -3 -1 -4 0 -3 -1 -2 -1 -1 0 -1 
-1 -1 0 -7 -1 -7 0 -1 -1 -2 0 -2 -1 -1 0 -3 
-1 -2 0 -4 -1 -1 0 -9 -1 -3 0 -2 -1 -3 0 -7 
-1 -4 -1 -3 0 -8 -1 -3 0 -9 -1 -2 0 -3 -1 -4 
0 -13 -1 -1 0 -2 -1 -1 0 -8 -1 -1 0 -4 -1 0 
-1 -1 -1 -1 -1 -1 -1 -1 -1 -1 -1 -1 0 -1 -1 -1 
-1 -1 -1 -1 -1 -1 -1 -1 -1 -1 -1 -1 0 -3 -1 0 
0 -2 -1 -1 0 -1 -1 -1 0 -2 -1 -1 -1 -1 -1 -1 
-1 -1 -1 0 -1 -1 -1 -1 0 -2 -1 -1 -1 -1 -1 -1 
0 -2 -1 -1 -1 0 -1 -1 0 -1 -2 -2 -1 -1 -1 0 
-1 -1 -1 -2 0 -2 -1 -1 0 -91 -1 -19 0 -26 -1 -3 
0 -57 -1 -10 0 -18 -1 -1 -1 -1 -1 0 1 0 -2 -2 
-1 -1 -1 0 0 -1 -2 -2 -1 0 1 0 -2 -2 -1 -1 
-1 0 -1 -1 0 -2 -1 -1 -1 -1 -1 -2 -1 0 -1 -1 
-1 -1 -1 -1 -1 0 -1 -1 -1 -1 -1 -1 -1 -1 -1 0 
1 0 -2 -2 -1 -1 0 -2 -2 -2 -1 -1 0 -1 -2 -2 
-1 -1 0 -1 -2 -2 -1 0 -1 -1 -1 -1 -1 0 -1 -1 
-1 0 -1 -1 -1 -1 -1 -1 0 -1 -2 -2 -1 0 1 0 
-2 -2 0 -1 -1 -1 -1 0 0 -3 -2 -2 0 -1 -2 -2 
0 -1 -1 -1 -1 -1 -1 0 -1 -1 -1 -1 -1 -1 0 -2 
-1 -1 -1 -1 -1 0 -1 -1 -1 -1 -1 -1 -1 -1 0 -1 
-2 -2 -1 -1 0 -1 -1 -1 -1 0 -1 -1 0 -1 -2 -2 
-1 0 -1 -1 -1 0 -1 -1 -1 -1 -1 -1 0 -1 -1 -1 
-1 -1 -1 -1 0 -1 -2 -2 -1 -1 -1 0 1 0 -2 -3 
-1 0 0 -1 -2 -2 2514 3733 300 MP stroke
-1 -1 0 -1 -2 -2 -1 0 0 -147 -1 -1 0 -2 -1 -1 
-1 0 0 -2 -1 -1 -1 -1 -1 -1 0 -1 -1 -1 -1 0 
-1 0 0 -1 -2 -2 -1 -1 -1 -1 -1 -1 -1 -1 0 -2 
-1 -1 0 -1 -1 -1 0 -3 -1 -1 -1 -1 0 -1 -2 -3 
0 -1 -1 -1 -1 -2 -1 -1 0 -2 -1 -1 -1 0 -1 -1 
-1 -1 -1 -1 0 -3 -2 -2 -1 -1 -1 -1 -1 -1 -1 -1 
-1 -1 -1 -1 0 -1 -2 -2 -1 -1 0 -1 -2 -2 -1 -1 
-1 -1 -1 -1 -1 -1 -1 -1 -1 -1 0 -1 -1 -1 0 -1 
-1 -1 -1 0 1 0 -2 -2 -1 -1 -1 -1 0 -2 -2 -2 
-1 0 -1 -1 -1 0 0 -5 -1 0 -1 -1 0 -1 -2 -2 
-1 -1 0 -1 -2 -2 0 -1 -1 -1 -1 0 1 0 -2 -2 
-1 0 -1 -1 0 -3 -1 -1 0 -1 -1 -1 -1 -1 -1 -1 
-1 -1 0 -1 -2 -2 -1 -1 -1 0 -1 -1 -1 -1 -1 -1 
0 -1 -2 -2 -1 -1 -1 -1 0 -1 -2 -2 0 -2 -2 -2 
0 -1 -1 -1 -1 -1 -1 0 0 -1 0 1 -1 -3 0 -1 
-2 -2 -1 -1 -1 -1 0 -1 -2 -2 -1 -1 0 -2 -1 -1 
-1 -1 0 -1 -2 -2 0 -1 -2 -2 0 -1 -2 -2 -1 0 
1 0 -2 -2 0 -1 -1 -1 -1 -1 0 -1 -2 -2 0 -2 
-1 -1 0 -1 -2 -2 0 -1 -2 -2 -1 -1 -1 -1 -1 -1 
-1 -1 -1 -1 -1 -1 0 -2 -2 -2 -1 -1 -1 -1 -1 0 
1 0 -2 -2 -1 -1 -1 -2 -1 -1 -1 0 0 -1 -2 -2 
-1 0 0 -2 -2 -2 0 -1 -2 -2 -1 -1 -1 -1 -1 -1 
-1 -1 -1 -1 -1 -1 -1 0 -1 -1 -1 -1 -1 -1 -1 0 
-1 -1 0 -1 -2 -2 -1 -1 -1 -1 -1 -1 0 -2 -2 -2 
0 -2 -2 -2 -1 -1 -1 -1 0 -1 -2 -2 0 -1 -2 -2 
-1 -1 -1 0 1 0 -2 -2 -1 0 -1 -1 -1 -1 -1 -1 
0 -496 2696 4617 210 MP stroke
DA
-1 -9 -1 -8 -4 -21 0 -6 -5 -4 -5 -4 -4 -5 -5 -3 
-5 -2 -5 -1 -4 -6 -5 -1 -4 -1 -1 0 -3 -29 0 -3 
-5 -9 -3 -19 -1 -1 -4 -5 -4 -2 -5 0 -4 -3 -4 -1 
-4 -1 -3 0 -4 0 -4 -2 -4 -2 -4 -1 -3 -1 -4 -1 
-3 0 -4 -1 -4 -5 -3 -2 -3 0 -4 -3 -1 -1 -2 -4 
-4 -2 -3 -4 -3 -2 -3 -1 -4 -1 -3 -1 -3 -1 -3 -2 
-3 -9 -3 0 -3 -2 -3 -5 -1 0 -2 -5 -3 -9 -3 -16 
-3 -5 -1 -1 -2 -36 0 -3 -3 -1 -2 -3 -3 -3 -3 -1 
-3 -2 -2 0 -3 -1 -3 -3 -2 -3 -3 -1 -3 -3 -2 -5 
-3 -1 -2 -5 -3 -4 -3 -3 -2 -2 -2 -1 -1 0 -2 -7 
-2 -15 -3 -12 -2 -3 -3 -5 -1 -4 -1 -1 -2 -4 -3 -1 
-2 0 -2 -2 -3 -3 -2 -2 -2 -1 -2 -7 -3 -2 -2 -3 
-2 -1 -2 -2 -2 -7 -3 -2 -2 -2 -2 0 -2 -1 -2 -1 
-2 -1 -2 0 -2 -4 -2 0 -2 -3 -2 0 -2 0 -1 -1 
-2 -7 -2 -2 -2 0 -1 -7 -2 0 -2 -3 -2 -5 -2 0 
-2 -3 -2 0 -2 -2 -2 -2 -2 -2 -2 -4 -1 -1 -2 -5 
-2 -3 -2 -2 -2 -7 0 -7 -2 -2 -1 -21 -2 -33 0 -2 
-2 -63 0 -8 -2 -4 -2 -5 -1 -5 -2 -7 -2 -2 -1 0 
-2 -1 -2 0 -2 -2 -1 -4 -2 -1 -2 -4 -1 -1 -2 0 
-2 -2 -1 -3 -2 -2 -2 -1 -1 -2 -2 0 -1 -3 -2 -3 
-2 -4 -1 -2 -2 -3 -1 -7 -2 -1 -1 -6 -2 0 -2 -1 
-1 -3 -2 -6 -1 -1 -1 -1 -1 -2 -1 -2 -2 -2 -1 -1 
-2 -1 -1 -3 -2 0 -1 -2 -2 -1 -1 -1 -2 -6 -1 0 
-1 -1 -2 0 -1 -2 -2 -1 -1 -3 -2 -6 -1 -3 -1 -2 
-2 -2 -1 0 -2 -4 -1 -1 -1 -1 -2 -5 -1 -5 -1 -1 
-2 -2 -1 -1 -1 -1 -2 -3 -1 -1 -1 -2 -2 -3 -1 0 
-1 -1 -2 -4 -1 -6 -1 -1 -2 -2 -1 -2 -1 -2 -1 -3 
-2 -3 -1 0 -1 -2 -2 0 -1 0 -1 -4 -1 -1 -2 -2 
-1 0 -1 -2 -1 -1 -2 -1 0 -1 -1 -6 -1 -4 -1 -2 
-1 -1 -2 0 -1 -3 -1 -5 -1 -1 -1 -3 -2 -8 -1 -4 
-1 -4 -1 -4 -1 -1 -2 -9 -1 -5 -1 -2 -1 -3 -1 -3 
-1 -2 -1 -2 -2 -2 -1 -1 -1 -18 -1 -9 -1 0 -1 -2 
-1 -4 -2 -2 -1 -4 -1 -1 -1 -1 -1 -1 -1 0 -1 -3 
-1 -1 -1 -3 -1 0 -2 -4 -1 -1 -1 0 -1 0 -1 -3 
-1 -9 -1 -1 -1 -3 -1 -1 -1 -4 -1 -1 -1 -2 -1 -1 
-1 0 -1 -3 -2 -3 -1 0 -1 -1 -1 -10 -1 0 -1 -1 
-1 -1 -1 -2 -1 -5 -1 -4 -1 -1 -1 -5 -1 0 -1 -2 
-1 -1 -1 -1 -1 -4 2023 3936 300 MP stroke
-1 -3 -1 -2 -1 -2 -1 0 -1 -1 -1 -1 -1 0 -1 -2 
-1 -1 -1 -2 -1 -2 -1 -1 -1 -1 0 -1 -1 -1 -1 -3 
-1 -2 -1 -3 -1 -1 -1 0 -1 0 -1 0 -1 -1 -1 0 
-1 -1 -1 -1 -1 -5 -1 -4 -1 -2 -1 -1 -1 -1 -1 -4 
-1 0 -1 0 -1 -3 -1 -3 -1 -5 -1 -2 -1 -1 -1 -1 
0 -1 -1 -3 -1 -2 -1 -2 -1 -3 -1 0 -1 -1 -1 -3 
-1 0 1 0 -2 -3 -1 -2 -1 -3 -1 -1 -1 -6 -1 -1 
-1 -2 0 -1 -1 -9 -1 -3 -1 0 -1 -2 -1 -6 -1 -4 
0 -1 -1 -2 -1 -1 -1 0 -1 -4 -1 -1 -1 -2 -1 -1 
-1 0 -1 0 -1 -1 -1 -1 -1 0 -1 -2 -1 0 -1 -1 
-1 -1 -1 -2 -1 -1 -1 -2 -1 -1 -1 -1 -1 0 -1 -1 
0 -2 -1 0 -1 -5 -1 -1 -1 -1 0 -3 -1 -1 -1 -1 
-1 0 -1 -1 -1 0 -1 0 -1 -1 0 -2 -1 -1 -1 -3 
-1 -1 -1 -1 -1 0 -1 0 -1 -1 -1 0 -1 0 -1 -2 
-1 -2 -1 -2 -1 0 0 -2 -1 -1 -1 -3 0 -496 2132 4617 120 MP stroke
SO
/c10 { 1.000000 0.000000 0.000000 sr} bdef
c10
-1 0 -5 -6 -5 -1 -5 -1 -1 -3 -3 -19 -1 -5 -4 -17 
-5 -3 -5 -4 -2 -1 -2 -2 -3 -25 -2 -5 -4 -1 -4 0 
-5 -4 -3 -17 0 -29 -1 -2 -4 -9 -4 -10 -3 -10 -2 -17 
-4 -6 -4 -1 -2 -8 -2 -3 -3 -9 -4 -2 -4 -20 -1 0 
-3 -2 -4 -9 -3 0 -4 -3 -3 -22 0 -1 -4 0 -4 -1 
-3 -1 -3 -1 -4 -2 -3 0 -4 0 -3 -1 -3 -1 -3 0 
-4 -1 -3 -1 -3 -2 -3 -1 -3 0 -3 -1 -3 -1 -3 -1 
-3 0 -3 0 -3 -1 -3 -2 -3 -1 -3 0 -2 -1 -3 -1 
-3 -2 -3 0 -2 -1 -3 -1 -3 0 -2 -1 -3 -1 -3 -1 
-2 0 -3 -1 -2 -2 -3 0 -3 -1 -2 -1 -2 -1 -3 -2 
-2 -2 -1 0 -1 -42 -1 -3 -2 -2 -3 -1 -2 -1 -2 -2 
-3 0 -2 -2 -2 -1 -3 0 -2 -1 -2 0 -2 -1 -3 -1 
-2 -4 -2 -1 -2 -1 -2 -1 -3 -4 -2 -7 -2 -4 -2 -4 
-2 -1 -2 -1 -2 -1 -2 0 -1 -2 -1 -2 -2 -1 -2 -4 
-3 -1 -2 -6 -2 -2 -2 -3 -1 -1 -2 -5 -2 0 -2 -3 
-2 0 -2 0 -2 -2 -2 -7 -2 0 -2 0 -2 -5 -1 -2 
-2 0 -2 -1 -2 -1 -2 -1 -2 -1 -1 -1 -2 0 -1 -1 
-1 -6 -2 -4 -2 -12 -1 -23 -2 -1 -2 -1 -1 -7 -1 -2 
-1 -11 -2 -4 -2 -11 -1 -2 -2 0 -2 -4 -1 -5 -2 -10 
-2 -6 -1 0 -2 0 -2 -3 0 -7 -1 -6 -2 -1 -1 -2 
-2 -4 -2 -1 -1 -1 -2 -3 -1 -2 -2 -7 -1 -4 -2 -4 
-2 0 -1 -2 -2 -1 -1 -6 -2 -1 -1 -2 -2 -2 -1 0 
-2 0 -1 -2 -2 -1 -1 -3 -2 -2 -1 0 -2 -2 -1 -1 
-1 -2 -2 -1 -1 0 -2 -2 -1 0 -2 -1 -1 -1 -1 -1 
-2 -2 -1 -2 -1 -1 -1 -3 -1 -3 -1 -1 -2 -5 -1 -3 
-1 0 -2 -1 -1 -5 -1 -4 -2 0 -1 0 -1 -4 -2 -1 
-1 -1 -1 -2 -2 -1 -1 -4 -1 -3 -2 -1 -1 -2 -1 0 
-1 -1 -2 -2 -1 -9 -1 -2 -2 -1 -1 -3 -1 -1 -1 -1 
-2 0 -1 -1 -1 -2 -1 -2 -2 -5 -1 -2 -1 -9 -1 -2 
0 -1 -1 -2 -2 0 -1 -2 -1 -2 -1 -1 -1 -6 -2 -17 
-1 -2 -1 0 -1 -1 -1 -5 -2 -5 -1 -3 -1 -3 -1 -2 
-1 -2 -1 -1 -1 -2 -2 -4 -1 -10 -1 -11 -1 -1 -1 -6 
-1 -5 -1 -2 -2 -7 -1 -1 -1 -1 -1 -2 -1 -2 -1 -11 
-1 -2 -1 -8 -1 -4 -1 -1 -2 -4 -1 -1 -1 -2 -1 -4 
-1 -6 -1 -9 -1 -1 -1 -1 -1 -6 -1 -1 -1 -3 -1 -4 
-1 -5 -1 -6 -1 -1 -2 -2 -1 -20 -1 0 -1 -7 -1 -5 
-1 -1 -1 -2 -1 -1 -1 -4 -1 -2 -1 -7 -1 -1 -1 0 
-1 -7 -1 -7 -1 -1 2022 3885 300 MP stroke
-1 0 -1 -1 -1 -4 -1 -5 -1 -2 -1 -7 -1 -3 -1 -1 
-1 -1 -1 -2 -1 -9 -1 0 -1 -1 -1 -2 -1 -1 -1 -1 
-1 -2 -1 -4 -1 -2 -1 -3 -1 -1 -1 -3 -1 -3 -1 0 
-1 -5 -1 -17 -1 0 -1 -1 -1 -5 -1 -1 0 -1 -1 -4 
-1 -1 -1 -2 -1 0 -1 0 -1 -1 -1 -2 -1 -5 -1 -1 
-1 -1 0 -4 -1 -1 -1 -2 -1 -1 -1 0 -1 0 -1 -1 
-1 -3 -1 -2 -1 -2 -1 0 -1 -5 -1 -2 -1 -6 -1 -6 
-1 -1 0 -2 -1 -2 -1 0 -1 -1 -1 -1 -1 -2 -1 -1 
0 -2 -1 -3 -1 -3 -1 0 -1 -1 -1 0 -1 -1 -1 -2 
-1 -1 -1 -2 -1 -3 0 -3 -1 0 -1 -1 -1 -2 -1 -1 
-1 -2 -1 -1 -1 -4 -1 -3 -1 -2 -1 -3 -1 0 -1 -3 
-1 -2 -1 -1 -1 -1 -1 0 -1 -2 -1 -2 -1 -2 -1 0 
-1 -3 0 -2 -1 -1 -1 -1 -1 -1 0 -1 -1 -1 -1 0 
-1 -1 -1 -1 -1 -1 -1 0 -1 -1 0 -1 -1 -2 -1 -1 
-1 -7 -1 -1 -1 -2 -1 0 0 -501 2130 4617 118 MP stroke
DA
-1 -1 -1 -1 0 -21 -4 -4 -5 -2 -5 -3 -4 -13 0 -1 
-5 -3 -5 0 -5 -1 -4 -2 -5 -2 -4 -8 -4 -5 -2 0 
0 -24 -3 -13 -2 -11 -2 -6 -4 -10 -2 -9 -2 -5 -5 -3 
-2 -19 -2 -1 -4 0 -4 -1 -3 -1 -4 -1 -4 -1 -4 0 
-4 -1 -3 -2 -4 -1 -3 -5 -4 -3 -4 -9 -1 -1 -2 -29 
0 -31 -3 -1 -4 0 -3 -1 -4 -1 -3 0 -3 -1 -3 -1 
-4 0 -3 -1 -3 -1 -3 -1 -3 -3 -3 0 -3 0 -3 -2 
-3 0 -3 -2 -3 -1 -3 0 -3 0 -3 0 -2 -1 -3 -1 
-3 0 -3 -1 -2 0 -3 -1 -3 0 -2 -1 -3 0 -3 -1 
-2 -1 -3 -1 -2 0 -3 -1 -3 -1 -2 -2 -2 0 -3 0 
-2 0 -3 -2 -2 0 -3 0 -2 -1 -2 0 -3 0 -2 0 
-2 -1 -1 0 0 -34 -2 -6 -2 -7 -2 -7 -2 -11 -3 -2 
-2 -1 -1 -2 -1 -39 -2 -1 -2 -6 -3 0 -2 -1 -2 0 
-2 -1 -2 0 -2 0 -2 -2 -2 0 -2 -3 -2 -6 -2 -4 
-3 -4 -2 -7 -2 -1 -2 0 -1 -3 -2 -3 -2 0 0 -1 
-2 0 -2 -8 -2 -6 -2 -3 -2 -3 -2 -1 -2 -1 -2 0 
-1 -7 -2 -1 -2 -1 -2 -10 -2 -1 -2 -1 -1 -2 0 -3 
-2 -2 -2 -1 -2 -2 -2 0 -1 -2 -2 -6 -2 -3 -1 -4 
-2 -7 -2 -3 -2 -4 -1 -2 -2 -5 -2 -3 -1 0 -1 -3 
-1 -4 -2 -2 -1 -3 -2 -6 -2 -2 -1 -7 -2 0 -1 0 
-2 -1 -2 -1 -1 -2 -2 -8 -1 -1 -2 -5 -1 -6 -2 -2 
-2 -2 -1 -4 0 -2 -2 -9 -1 -1 -2 -1 -1 -5 -2 -2 
-1 -1 -2 -2 -1 -1 -2 -3 -1 0 -2 0 -1 0 -2 -2 
-1 -5 -1 -2 -2 -2 -1 -1 -2 0 -1 -1 -2 0 -1 0 
-1 -1 -2 -2 -1 -5 -2 -3 -1 -1 -1 -5 -2 0 -1 0 
-1 -2 -2 -2 -1 -2 0 -1 -1 -2 -2 -5 -1 0 -1 -4 
-2 -11 -1 0 -1 -5 -2 -7 -1 -15 -1 -2 -2 -2 -1 -2 
-1 -2 -1 -8 -2 -2 -1 -2 -1 -3 0 -6 -1 -81 -1 -1 
-1 -7 -1 -1 -1 -2 -2 -5 -1 -1 -1 -14 -1 -1 -2 -5 
-1 -1 -1 -9 -1 -2 -1 -3 -2 0 -1 -3 -1 -8 -1 -2 
-1 -2 -2 -1 -1 0 -1 -4 -1 0 -1 -1 -2 -1 -1 0 
-1 -3 -1 -1 -1 -8 -1 -2 -1 -1 -2 0 -1 0 -1 -4 
-1 -1 -1 -2 -1 -2 -1 0 -2 -1 -1 -6 -1 -2 -1 -2 
-1 -2 -1 -1 -1 -1 -1 0 -1 0 -1 -5 -2 -1 -1 -2 
-1 -1 -1 0 -1 -1 -1 0 -1 0 -1 -1 -1 -3 -1 -7 
-1 0 -1 -1 -1 -1 -1 0 -1 -1 -2 0 -1 -1 -1 -1 
-1 -1 -1 -1 -1 -3 -1 -1 -1 -1 -1 -1 -1 -1 -1 -3 
-1 0 -1 -1 -1 0 2020 3781 300 MP stroke
-1 0 -1 -1 -1 -1 -1 -1 -1 0 -1 0 -1 -1 -1 -1 
-1 -1 -1 0 -1 -1 -1 0 -1 0 -1 -1 -1 -1 -1 -1 
0 -3 -1 -1 -1 -1 -1 0 -1 -1 -1 0 -1 -2 -1 -1 
-1 -1 -1 -1 -1 0 -1 0 -1 0 -1 -1 -1 0 -1 0 
-1 0 0 -2 -1 0 -1 -1 -1 -1 -1 0 -1 -1 -1 0 
-1 0 -1 -1 -1 0 -1 -1 -1 -1 -1 0 -1 0 -1 -2 
-1 0 -1 -1 -1 0 -1 0 0 -2 -1 -1 -1 0 -1 -1 
-1 0 -1 -1 -1 0 -1 -2 0 -2 -1 -1 -1 0 -1 -1 
-1 -1 -1 -1 -1 0 -1 0 -1 -1 -1 -1 -1 0 -1 0 
-1 -1 -1 -1 -1 -1 -1 -1 -1 -1 -1 0 -1 -1 -1 -2 
-1 0 -1 0 1 0 -2 -2 -1 0 -1 -1 -1 0 -1 -1 
-1 0 -1 -1 -1 0 -1 -1 -1 0 -1 -1 -1 0 -1 0 
-1 -1 -1 0 -1 -1 -1 -2 -1 0 -1 -1 -1 -1 -1 0 
-1 -1 -1 0 -1 -1 -1 0 -1 0 -1 -1 -1 0 -1 0 
-1 -1 -1 0 -1 0 -1 -1 -1 0 -1 0 -1 -1 -1 0 
-1 0 -1 -1 -1 0 -1 -1 -1 0 -1 0 -1 -1 -1 0 
-1 0 -1 0 -1 0 -1 0 1 0 -2 -2 -1 0 -1 0 
-1 -1 -1 0 -1 0 -1 0 -1 -1 -1 -1 -1 0 -1 0 
-1 0 -1 -1 -1 0 -1 0 -1 0 -1 -1 -1 0 -1 0 
-1 -1 -1 -1 -1 0 -1 -1 -1 0 -1 -1 -1 0 -1 0 
-1 -1 -1 0 -1 0 -1 -1 -1 0 -1 0 -1 -1 -1 0 
-1 0 -1 0 -1 0 -1 -1 -1 0 -1 0 -1 0 -1 -1 
-1 0 -1 0 -1 -1 -1 0 -1 0 -1 0 -1 -1 -1 0 
-1 0 -1 0 -1 -1 -1 0 -1 -1 -1 0 -1 0 -1 0 
-1 -1 -1 0 -1 0 -1 0 -1 -1 -1 0 -1 -1 -1 0 
-1 0 -1 0 -1 -1 -1 0 -1 0 -1 0 -1 0 -1 0 
-1 -1 -1 0 -1 0 -1 0 0 -2 -1 -21 -1 -11 0 -9 
-1 -12 0 -9 -1 -24 0 -1 -1 -55 -1 -5 0 -18 -1 -18 
0 -14 -1 -16 -1 -1 0 -517 2235 4617 229 MP stroke
SO
24 w
-1 0 -5 -1 -5 -1 -5 -3 -4 -1 -5 -2 -5 -2 -5 -2 
-4 -1 -2 -1 -3 -9 -3 -13 -1 -4 -4 -7 -4 -13 -1 -6 
-3 -18 -1 -1 -3 -24 -1 -11 -2 -16 0 -27 -2 -4 -5 -1 
-4 0 -4 -5 -4 -1 -3 -1 -4 -2 -4 -3 -4 -1 -4 -1 
-3 -7 -3 -3 -1 -2 -3 -2 -4 -1 -4 -2 -3 -6 -3 -1 
-4 -9 -3 -2 -4 -1 -3 -2 0 -3 -1 -32 -1 -34 -1 -13 
-3 -4 -4 -8 -3 -2 -3 -3 -3 -2 -3 -2 -3 -1 0 -1 
-3 -38 -1 -1 -2 -1 -3 0 -3 -3 -3 -1 -3 -1 -3 -2 
-3 -1 -2 0 -3 -1 -3 -1 -3 -1 -2 -1 -3 0 -3 0 
-2 -1 -3 0 -3 -1 -2 0 -3 -2 -2 -2 -3 -2 -3 0 
-2 0 -2 -1 -3 -1 -2 0 -3 -1 -2 0 -3 -2 -2 -1 
-2 0 -3 -1 -2 -1 -2 0 -3 -1 -2 0 -2 0 -2 -1 
-3 -1 -2 0 -2 0 -2 0 -2 -1 -3 -1 -2 -1 -2 0 
-2 0 -2 -1 -2 0 -2 -1 -2 0 -2 0 -2 -1 -2 -1 
-3 0 -2 -2 -2 -1 -1 0 -1 -2 -1 -3 -2 -2 -2 -2 
-2 -3 -2 -4 -2 -2 -2 -1 -2 0 -2 0 -2 -1 -2 -1 
-1 -1 -2 0 -2 0 -2 -1 -2 0 -2 -1 -1 -1 -2 0 
-2 -2 -2 -1 -2 -1 -1 -2 -2 0 -2 -1 -1 0 -2 -1 
-2 -1 -2 0 -1 -1 -2 -2 -2 -2 -1 -1 -2 -2 -2 0 
-1 0 -2 0 -2 -2 -1 0 -2 -1 -1 -1 -2 0 -2 0 
-1 -9 -2 -2 -1 -3 -2 0 -1 -6 -2 -30 0 -3 -2 -2 
-1 -3 -2 -9 -1 -1 -2 0 -1 -6 -2 -4 -1 -4 -2 -2 
-1 -2 -2 -1 -1 -2 -2 -2 -1 0 -2 -2 -1 -1 -1 -7 
-2 -3 -1 -1 -2 -1 -1 -25 -1 -38 -1 -6 -1 0 -1 -2 
-2 -10 -1 -2 -2 0 -1 -1 -1 -1 -2 -6 -1 -1 -1 -2 
-2 -6 -1 -3 -1 -3 -2 -1 -1 -1 -1 -2 -2 -7 -1 0 
-1 -2 -2 -4 -1 -1 -1 -1 -2 -1 -1 -3 -1 -1 -1 0 
-2 -2 -1 0 -1 -4 0 -5 -2 -1 -1 -4 -1 -6 -1 -6 
-2 -17 -1 -1 -1 -8 -1 -6 -2 -12 -1 -7 -1 -6 -1 -8 
0 -1 -1 -3 -2 -1 -1 -1 -1 0 -1 -2 -1 -4 -2 -1 
-1 -1 -1 -3 -1 0 -1 -6 -2 -1 -1 0 -1 -1 -1 -2 
-1 -4 -1 0 -1 -1 -2 -2 -1 -1 -1 -4 -1 0 -1 0 
-1 -3 -1 -1 -2 -1 -1 -1 -1 0 -1 -1 -1 -1 -1 -3 
-1 -4 -1 -1 -1 0 -1 -4 -2 -1 -1 0 -1 0 -1 -1 
-1 -1 -1 -2 -1 0 -1 0 -1 -5 -1 -1 -1 0 -1 -2 
-1 -1 -1 0 -1 -3 -2 0 -1 -3 -1 -1 -1 0 -1 -1 
-1 -1 -1 -1 -1 0 -1 -1 -1 -1 -1 -3 -1 0 -1 -3 
-1 0 -1 0 -1 -1 2022 3721 300 MP stroke
-1 0 -1 -1 -1 0 -1 -1 -1 -2 -1 -2 -1 0 -1 0 
-1 0 -1 -1 -1 0 -1 -1 -1 -3 -1 -2 0 -1 -1 -1 
-1 0 -1 -1 -1 0 -1 -1 -1 -16 -1 -50 -1 -6 -1 -6 
-1 -26 -1 -8 -1 -14 -1 -6 -1 -14 -1 -1 -1 -3 0 -6 
-1 -1 -1 -2 -1 -4 -1 -1 -1 -4 -1 -2 -1 -3 -1 -1 
-1 0 -1 -1 0 -6 -1 -3 -1 -1 -1 -1 -1 -1 -1 -2 
-1 -1 -1 -2 -1 -1 0 -2 -1 -5 -1 -2 -1 -3 -1 -3 
-1 -3 -1 -1 -1 0 0 -3 -1 -3 -1 -4 -1 -1 -1 0 
-1 -4 -1 0 0 -2 -1 0 -1 -1 -1 0 -1 -3 -1 -2 
-1 0 -1 -1 -1 0 -1 -6 -1 -8 0 -1 -1 -2 -1 -1 
-1 -4 -1 0 -1 -2 0 -3 -1 -1 -1 -2 -1 -5 -1 -1 
-1 -2 -1 0 -1 -4 -1 0 0 -3 -1 -2 -1 0 -1 -1 
-1 -1 0 -1 -1 -1 -1 -1 -1 -1 -1 0 -1 0 -1 0 
-1 -2 0 -2 -1 0 -1 -2 -1 -2 -1 0 0 -2 -1 0 
-1 -1 -1 0 -1 -2 -1 0 -1 -1 -1 -1 -1 -1 -1 -1 
-1 -1 -1 0 -1 -2 0 -3 -1 -2 -1 -1 -1 -1 -1 -1 
-1 0 -1 -1 -1 0 -1 -1 -1 -1 -1 -1 -1 -1 -1 -1 
-1 -4 -1 0 1 0 -2 -2 -1 0 -1 -1 -1 0 -1 -2 
-1 -1 -1 0 0 -2 -1 -1 -1 0 -1 -1 -1 0 -1 -1 
-1 0 -1 0 -1 -1 -1 0 -1 -1 -1 -1 -1 0 -1 -1 
-1 0 1 0 -2 -2 -1 -1 0 -3 -1 -1 -1 -1 -1 -3 
-1 -2 -1 -1 -1 -1 -1 -1 -1 0 0 -2 -1 -1 -1 -2 
-1 -1 -1 0 -1 -1 -1 -2 -1 -1 -1 -1 -1 0 -1 -1 
-1 -1 0 -1 -1 -1 -1 0 -1 -1 -1 -1 -1 -1 -1 0 
0 -3 -1 0 -1 -1 -1 -1 -1 -1 -1 0 0 -497 2200 4617 200 MP stroke
gr

24 w
c10
SO
0 sg
1449 4659 mt 
( ) s
5677  431 mt 
( ) s
gs 1466 389 4228 4228 rc
DA
12 w
-1 0 0 -2 -5 -9 -1 -1 0 -10 -4 -6 -2 -5 -3 -4 
-4 -5 -2 -1 -1 -11 -2 -6 -5 0 -1 -5 -4 -1 -4 -1 
-5 -4 -4 0 -4 -3 -4 -2 -1 -4 -4 -7 -4 -1 -4 -1 
-5 -2 -4 0 -4 -1 -4 -1 -3 -2 -4 0 -4 -1 -1 -2 
-1 -11 0 -12 -2 -5 -4 -1 -3 -1 -4 0 -3 -1 -4 -1 
-4 -1 -2 -1 -1 -6 -3 -4 -1 -2 -3 0 -3 -1 -4 -4 
-3 -1 -3 0 -3 -2 -3 -4 -1 -8 -1 -4 0 -12 -2 -6 
-1 -6 -2 -1 -3 -7 -3 -2 -2 -3 -1 -4 -3 0 -2 -8 
-1 -8 -1 -5 -2 -1 -3 -3 -3 -1 -3 -2 -3 0 -3 -1 
-2 0 -3 -3 -3 -1 -3 0 0 -1 -2 -14 -3 -5 -3 -5 
-2 -2 -1 -1 -2 -1 -3 -1 -2 -4 -3 -1 -2 -3 -3 -4 
-1 0 -2 0 -2 -9 -2 0 -3 -3 -2 -1 -1 -1 -2 0 
-2 -1 -3 -1 -2 -1 -2 -1 -3 0 -2 0 -2 -1 -3 -1 
-2 -3 -2 -2 -2 -3 0 -2 -3 -7 -2 -4 0 -1 -2 -4 
-2 -1 -2 -1 -3 0 -2 0 -1 -9 -1 -5 -2 -1 -2 -9 
-1 0 -1 -2 -2 -13 -2 -2 -2 -3 -2 -1 -2 -10 0 -2 
-3 0 -2 -2 -2 -2 -2 0 -1 -1 -2 -5 -2 -1 -2 0 
-2 -1 -2 -1 0 -1 -2 -11 -2 -1 -2 -3 -1 -1 -1 0 
-2 -1 -1 -1 -2 0 -2 0 -2 -1 -2 0 -2 0 -1 -2 
-2 0 -2 -3 -2 0 -2 0 -1 -1 -2 0 -2 0 -1 0 
-2 0 -2 -3 -2 -2 -1 0 -2 -1 -1 -2 0 -17 -1 -1 
-1 0 -2 -1 -2 0 -1 0 -2 -1 -2 0 -1 0 -2 0 
-1 0 -2 -1 -2 0 -1 0 -2 0 -1 -1 -2 0 -1 0 
-2 -1 -2 0 -1 -1 -3 -1 -2 0 -1 -2 -2 0 -1 0 
-2 0 -1 0 -2 -1 -1 0 -2 0 -1 0 -2 0 -1 0 
-1 0 -2 -1 -1 0 -2 -1 -1 0 -2 0 -1 -1 -1 0 
-2 0 -1 0 -2 -1 -1 0 -1 0 -2 -1 -1 0 -1 0 
-2 -1 -1 0 -1 0 -2 0 -1 -1 -1 -6 -2 -5 -1 -1 
-1 0 -1 -5 -1 -3 -1 -1 -1 -4 -2 -6 -1 -2 -1 -2 
0 -2 -1 -4 -2 -2 -1 0 -1 -1 -2 0 -1 -1 -1 -6 
-1 -2 -1 -1 0 -19 -1 -5 -1 -2 -1 -1 -1 -4 -2 -1 
-1 -1 0 -6 -1 -1 -1 -1 -1 0 -2 0 -1 -1 -1 0 
-1 0 -1 -1 -2 0 -1 -2 -1 0 -1 0 -1 0 -2 0 
-1 -1 -1 -1 -1 0 -1 -1 -1 0 -1 -1 -2 0 -1 0 
-1 0 -1 -1 -1 0 -1 0 -1 -1 -2 0 -1 0 -1 -1 
-1 0 -1 0 -1 -1 -1 0 -1 0 -1 0 -1 0 -2 0 
-1 0 -1 0 -1 -1 -1 0 -1 0 -1 -1 -1 0 -1 -1 
-1 0 -1 0 -1 -1 2002 2816 300 MP stroke
-1 0 -1 0 -1 -1 -2 0 -1 0 -1 -1 -1 0 -1 0 
-1 0 -1 0 -1 -1 -1 -2 -1 0 -1 0 -1 -2 -1 -1 
-1 -2 -1 0 -1 -3 -1 0 -1 -1 -1 -1 -1 0 -1 -1 
-1 0 -1 -1 -1 -3 -1 -1 -1 -1 -1 -2 -1 -1 -1 -6 
-1 -3 -1 0 -1 -1 -1 -2 -1 -5 -1 -2 -1 -1 -1 -1 
-1 -14 -1 -5 -1 0 -1 -3 0 -1 -1 -4 -1 -3 -1 -1 
-1 -1 -1 -7 0 -2 -1 -3 -1 -1 0 -1 -1 -1 -1 0 
-1 -2 -1 0 -1 -1 -1 0 -1 0 -1 0 -1 -1 -1 0 
-1 0 -1 -1 -1 0 -1 -1 -1 0 -1 -1 -1 -1 -1 -1 
-1 0 -1 0 -1 -3 -1 0 -1 -1 -1 0 -1 -2 -1 -1 
-1 -1 -1 -1 -1 0 1 0 -2 -3 -1 0 -1 0 -1 0 
-1 -1 -1 -1 -1 -1 -1 -1 -1 0 -1 -1 -1 0 -1 -1 
-1 0 -2 -1 -1 -1 -1 -1 -1 0 -1 -1 -1 -1 -1 0 
-1 -1 -1 -1 -1 0 -1 -1 -1 -4 -1 -1 -1 0 -1 -1 
-1 0 -1 -3 -1 -1 -1 0 -1 0 -1 0 -1 -1 -1 0 
-1 0 1 0 -2 -2 -1 0 -1 0 -1 -19 0 -8 -1 -20 
-1 -4 0 -14 -1 -9 0 -9 -1 -1 -1 0 -1 -1 -1 0 
-1 0 -1 -1 -1 0 -1 0 -1 -1 -1 0 -1 0 -1 -1 
-1 0 -1 0 -1 0 -1 -1 -1 0 -1 -1 -1 -1 -1 -1 
-1 0 -1 0 -1 -1 -1 0 -1 0 -1 -1 -1 -1 -1 0 
-1 -1 -1 0 -1 0 0 -2 -1 -1 -1 0 -1 0 -1 -2 
-1 0 -1 -2 -1 0 -1 -1 -1 0 -1 0 -1 0 -1 0 
-1 -1 -1 -1 -1 -1 -1 0 -1 -1 -1 0 -1 0 1 0 
-2 -2 -1 0 -1 0 -1 0 -1 -1 -1 0 -1 -1 -1 0 
-1 -1 -1 0 -1 -1 -1 0 -1 -1 -1 0 -1 0 -1 -1 
-1 0 -1 0 1 0 -2 -2 -1 0 -1 -1 -1 0 -1 0 
-1 -1 -1 0 -1 0 -1 -1 -1 0 -1 -1 -1 0 -1 0 
-1 -1 -1 -1 -1 0 -1 0 -1 -1 -1 0 -1 0 -1 -1 
-1 -1 -1 0 -1 0 -1 -1 -1 0 -1 0 -1 -1 -1 0 
-1 -1 -1 0 -1 0 -1 -1 -1 0 -1 -1 -1 0 -1 -1 
-1 -1 -1 0 -1 0 -1 -1 -1 0 -1 -1 -1 0 -1 0 
-1 -1 -1 0 1 0 -2 -2 -1 0 -1 -1 -1 -1 -1 0 
-1 -1 -1 0 -1 -1 -1 0 -1 -1 -1 0 0 -1 -2 -12 
0 -2 -1 -8 0 -3 -1 -8 -1 -1 0 -2 -1 -1 0 -1 
-1 -3 0 -1 -1 -2 -1 0 0 -3 -1 -3 -1 -2 0 -2 
-1 -1 -1 -1 0 -1 -1 -1 -1 0 -1 -5 0 -2 -1 -2 
-1 -1 -1 -1 -1 -1 0 -1 0 1 -1 -3 -1 0 1 0 
-2 -3 -1 0 -1 -1 2279 3179 300 MP stroke
-1 0 1 0 -2 -2 -1 0 -1 -1 -1 -1 0 -1 -1 -1 
-1 -1 -1 -1 -1 -1 -1 -1 -1 0 -1 -1 -1 -1 -1 -1 
-1 -1 -1 0 -1 -1 -1 0 0 -1 -2 -2 -1 0 1 0 
-2 -2 -1 -1 -1 -1 0 -2 -1 0 0 -2 -1 0 -1 -1 
-1 0 -1 0 -1 -1 -1 -1 -1 0 -1 -1 -1 -1 -1 -1 
-1 -1 -1 0 0 -1 -2 -3 -1 0 1 0 -2 -2 -1 -1 
-1 -1 -1 -1 -1 -1 -1 -1 -1 -1 -1 -1 -1 0 -1 -1 
-1 0 -1 -1 -1 0 1 0 -2 -2 -1 -1 -1 0 0 -1 
-2 -2 -1 0 -1 -1 -1 -1 -1 -2 -1 -1 -1 -1 -1 0 
-1 -1 -1 -1 0 -2 -1 0 -1 -1 -1 -1 -1 -1 -1 -1 
-1 0 1 0 -2 -2 0 -1 -1 -1 -1 -1 -1 -1 -1 0 
-1 -1 0 -3 -1 -4 0 -1 -1 -6 0 -2 -1 -2 0 -5 
-1 -3 0 -1 -1 -9 0 -6 -1 -4 -1 -1 -1 0 0 -4 
-1 -3 0 -1 -1 -1 0 -1 -2 -3 0 -3 -2 -3 0 -1 
-1 -3 0 -4 -1 -1 0 -1 -2 -3 -1 -1 0 -2 -1 -1 
-1 0 0 -3 -1 -2 -1 -1 0 -2 -1 0 -1 0 0 -3 
-1 0 0 -2 -2 -2 -1 -1 -1 0 -1 -1 -1 0 1 0 
-2 -2 -1 -3 -1 -1 -1 -1 -1 -1 0 -1 -1 -1 0 -1 
-1 -1 -1 0 -1 0 1 0 -2 -2 -1 -1 -1 -1 -1 0 
-1 -1 -1 -2 -1 0 0 -1 0 1 -1 -3 -1 0 1 0 
-2 -2 -1 0 -1 -2 -1 -1 -1 -1 -1 -1 -1 -1 -1 -2 
-1 -1 -1 -1 -1 -1 -1 -1 -1 0 -1 -1 0 -4 -1 0 
-1 -1 -1 -1 -1 -1 -1 -1 -1 -1 -1 -1 -1 -1 -1 -1 
-1 -1 -1 -1 0 -6 -1 -1 0 -1 -1 -1 -1 -3 0 -5 
-1 -1 0 -1 -1 -1 0 -1 -1 -1 0 -4 -1 -2 0 -2 
-1 -1 0 -3 -1 -2 0 -1 -1 -3 0 -1 -1 -1 0 -2 
-1 -5 0 -3 -1 -1 0 -4 -1 -2 0 -4 -1 -1 0 -2 
-1 -1 0 -2 -1 -3 -1 0 0 -2 -1 -1 -1 0 0 -2 
-2 -2 0 -1 -1 -2 0 -3 -2 -2 0 -1 -2 -2 0 -1 
-2 -2 -1 -1 0 -1 -1 -1 -1 -1 -1 -1 0 -2 -1 -1 
0 -2 -1 0 -1 -1 -1 -1 -1 -1 0 -1 -2 -2 0 -2 
-2 -2 -1 -1 -1 -1 -1 -3 -1 -1 -1 -1 -1 0 1 0 
-2 -2 0 -1 -1 -2 -1 -1 0 -3 -1 -1 -1 0 -1 -1 
-1 -1 -1 -1 0 -1 -2 -2 -1 -1 -1 -1 0 -5 -1 -1 
-1 -1 0 -1 -1 -1 -1 -1 -1 -1 0 -3 -1 -2 0 -2 
-1 -1 -1 -1 -1 -1 0 -2 -1 -2 -1 0 0 -2 -1 -3 
0 -1 -1 -1 -1 -1 0 -5 -1 -2 0 -2 -1 -1 -1 -3 
0 -1 -1 -1 -1 0 2512 3591 300 MP stroke
0 -2 -1 0 0 -2 -1 -1 0 -1 -1 -1 -1 -1 0 -5 
-1 -3 0 -3 -2 -2 0 -1 0 1 -1 -3 0 -3 -1 -1 
0 -3 -2 -4 0 -2 -1 -1 -1 -1 -1 0 -1 0 -1 -1 
-1 0 -1 -1 -1 0 -1 -1 -1 -1 -1 -1 -1 -1 -1 -1 
-1 0 -1 -1 -1 -1 -1 0 -1 0 -1 -1 -1 -1 -1 0 
-1 -1 -1 0 -1 -1 -1 -1 -1 0 -1 -1 -1 0 -1 0 
-1 -1 -1 0 -1 -1 -1 0 -1 0 -1 -1 -1 0 -1 -1 
-1 -1 -1 0 -1 -1 -1 0 -1 0 -1 -1 -1 0 -1 -1 
-1 0 -1 -1 -1 0 -1 -1 -1 0 -1 -1 -1 -1 -1 0 
-1 -1 -1 -1 -1 -1 -1 0 -1 -1 -1 0 -1 -1 -1 0 
-1 -1 -1 0 -1 -1 -1 0 -1 -1 -1 0 -1 0 -1 -1 
-1 0 -1 -1 -1 0 -1 0 -1 -1 -1 0 -1 -1 -1 0 
-1 0 -1 -1 -1 0 -1 -1 -1 0 -1 0 -1 0 -1 -1 
-1 0 -1 0 -1 -1 -1 0 -1 -1 -1 0 -1 -1 -1 0 
-1 -1 -1 0 -1 -1 -1 0 -1 -1 -1 0 -1 -1 -1 -1 
-1 0 -1 -1 -1 -1 -1 0 -1 0 -1 -1 -1 0 -1 -1 
-1 0 -1 0 -1 0 -1 -1 -1 0 -1 0 -1 -1 -1 0 
-1 0 -1 -1 -1 0 -1 -1 -1 0 -1 0 -1 0 -1 0 
-1 -1 -1 0 -1 0 -1 -1 -1 0 -1 -1 -1 0 -1 0 
-1 -1 -1 0 -1 -1 -1 0 -1 0 -1 -1 -1 -1 -1 0 
-1 0 -1 -1 -1 0 -1 0 -1 -1 -1 0 -1 -1 -1 0 
-1 0 -1 0 -1 -1 -1 0 -1 0 -1 0 -1 -1 -1 0 
-1 0 -1 -1 -1 0 -1 0 -1 -1 -1 0 -1 0 -1 -1 
-1 0 -1 0 -1 0 -1 -1 -1 0 -1 0 -1 -1 -1 0 
-1 0 -1 0 -1 -1 -1 0 -1 0 -1 -1 -1 0 -1 0 
-1 -1 -1 0 -1 0 -1 -1 -1 0 -1 0 -1 0 -1 0 
-1 -1 -1 0 -1 0 -1 -1 -1 0 -1 0 -1 -1 -1 0 
-1 0 -1 0 -1 -1 -1 0 -1 0 -1 -1 -1 0 -1 0 
-1 0 -1 0 -1 -1 -1 0 -1 0 -1 -1 -1 0 -1 0 
-1 0 -1 -1 -1 0 -1 0 -1 0 -1 -1 -1 0 -1 0 
-1 0 -1 -1 -1 0 -1 0 -1 -1 -1 0 -1 0 -1 0 
-1 0 -1 -1 -1 0 -1 0 -1 0 -1 -1 -1 0 -1 0 
-1 0 -1 0 -1 -1 -1 0 -1 0 -1 0 -1 0 -1 -1 
-1 0 -1 0 -1 0 -1 0 -1 -1 -1 0 -1 0 -1 0 
-1 0 -1 0 -1 -1 -1 0 -1 0 -1 0 -1 0 -1 0 
-1 -1 -1 0 -1 0 -1 0 -1 0 -1 0 -1 -1 -1 0 
-1 0 -1 0 -1 0 -1 -1 -1 0 -1 0 -1 0 -1 0 
-1 0 -1 0 -1 -1 2803 3730 300 MP stroke
-1 0 -1 0 -1 0 -1 0 -1 0 -1 -1 -1 0 -1 0 
-1 0 -1 0 -1 0 -1 -1 -1 0 -1 0 -1 0 -1 0 
-1 -1 -1 0 -1 0 -1 0 -1 0 -1 0 -1 0 -1 -1 
-1 0 -1 0 -1 0 -1 0 -1 0 -1 0 -1 0 -1 -1 
-1 0 -1 0 -1 0 -1 0 -1 0 -1 0 -1 0 -1 -1 
-1 0 -1 0 -1 0 -1 0 -1 0 -1 -1 -1 0 -1 0 
-1 0 -1 0 -1 0 -1 0 -1 0 -1 0 -1 -1 -1 0 
-1 0 1 0 -2 -2 -1 0 1 0 -2 -2 -1 -1 0 -1 
-1 -1 -1 -1 0 -2 -1 -1 -1 -1 -1 -1 0 -1 -2 -2 
-1 0 0 -2 -2 -2 -1 -1 0 -2 -1 -1 -1 -1 -1 0 
-1 -1 -1 -1 0 -1 -2 -2 -1 -1 0 -1 -2 -2 -1 0 
-1 -1 -1 -1 -1 -1 0 -1 -2 -2 -1 0 -1 -1 -1 -1 
-1 -1 -1 0 1 0 -2 -2 -1 0 -1 -1 -1 -1 -1 -1 
0 -1 -2 -2 0 -1 -2 -2 -1 -1 -1 0 0 -1 -2 -2 
-1 -1 -1 -1 -1 -1 -1 -1 -1 -1 -1 -1 -1 -1 0 -2 
-1 -1 -1 -1 -1 -1 -1 -1 -1 -1 -1 -1 -1 -1 -1 -1 
-1 -1 -1 0 1 0 -2 -2 -1 -1 -1 0 -1 -1 -1 -1 
-1 -1 -1 -1 -1 -1 -1 -1 -1 0 1 0 -2 -2 -1 0 
1 0 -2 -2 -1 0 -1 -1 -1 -1 -1 0 -1 -1 -1 -1 
-1 0 0 -1 -2 -2 -1 0 -1 -1 -1 -1 -1 0 -1 -1 
-1 -1 -1 -1 -1 -1 -1 -1 -1 -1 -1 -1 -1 0 -1 -1 
-1 0 -1 -1 -1 -1 -1 -1 -1 -1 -1 -1 -1 0 -1 -1 
-1 -1 -1 -1 -1 0 -1 -1 -1 -1 -1 -1 -1 -1 -1 -1 
-1 0 -1 -1 -1 0 -1 -1 -1 0 -1 -1 -1 -1 -1 0 
-1 -1 -1 -1 -1 0 -1 -1 -1 -1 -1 0 -1 -1 -1 -1 
-1 0 -1 -1 -1 0 -1 -1 -1 -1 -1 -1 -1 0 -1 -1 
-1 -1 -1 0 -1 -1 -1 -1 -1 -1 -1 0 -1 -1 -1 -1 
-1 0 1 0 -2 -2 -1 0 -1 -1 -1 -1 -1 0 -1 -1 
-1 -1 -1 0 1 0 -2 -2 0 -1 -2 -2 -1 -1 0 -1 
-1 -1 -1 0 1 0 -2 -2 0 -1 -2 -2 -1 -1 0 -1 
-2 -2 -1 -1 -1 -1 0 -1 -2 -2 -1 0 -1 -1 -1 -1 
-1 -1 -1 -1 -1 -1 -1 0 0 -1 -2 -2 -1 -1 0 -1 
-2 -2 0 -1 -2 -2 -1 -1 -1 -1 -1 -1 -1 0 -1 -1 
-1 -1 -1 -1 -1 -1 -1 -1 -1 -1 -1 -1 -1 -1 -1 0 
1 0 -2 -2 -1 -1 -1 -1 -1 -1 -1 -1 -1 -1 -1 0 
1 0 -2 -2 0 -1 -2 -2 -1 0 1 0 -2 -2 -1 -1 
-1 -1 -1 -1 -1 -1 -1 -1 -1 -1 -1 -1 -1 -1 -1 0 
-1 -1 -1 -1 -1 -1 3085 3957 300 MP stroke
-1 -1 -1 0 1 0 -2 -2 -1 -1 -1 -1 -1 0 -1 -1 
-1 -1 -1 -1 -1 -1 -1 0 1 0 -2 -2 -1 -1 -1 0 
-1 -1 -1 -1 -1 -1 -1 -1 -1 -1 -1 -1 -1 0 -1 -1 
0 -1 -2 -2 -1 -1 -1 -1 -1 -1 -1 -1 -1 0 -1 -1 
0 -1 -2 -2 -1 -1 -1 0 -1 -1 -1 -1 -1 -1 -1 -1 
-1 -1 -1 -1 -1 -1 -1 -1 -1 0 -1 -1 -1 -1 -1 -1 
-1 0 -1 -1 -1 -1 -1 0 -1 -1 -1 -1 -1 -1 -1 0 
-1 -1 -1 -1 -1 -1 -1 -1 -1 -1 -1 0 -1 -1 -1 -1 
-1 -1 -1 0 -1 -1 -1 -1 -1 -1 -1 0 -1 -1 -1 0 
-1 -1 -1 0 0 -1 -2 -2 -1 0 -1 -1 -1 -1 -1 0 
-1 -1 -1 -1 -1 -1 -1 0 0 -1 -2 -2 -1 0 -1 -1 
-1 -1 -1 0 -1 -1 -1 -1 -1 -1 -1 0 -1 -1 -1 -1 
-1 -1 -1 -1 -1 0 -1 -1 -1 -1 -1 0 -1 -1 -1 0 
-1 -1 -1 0 -1 -1 -1 0 -1 -1 -1 -1 -1 0 -1 -1 
-1 -1 -1 0 -1 -1 -1 -1 -1 0 -1 -1 -1 -1 -1 0 
-1 -1 -1 0 -1 -1 -1 -1 -1 -1 -1 0 -1 -1 -1 -1 
-1 -1 -1 -1 -1 -1 -1 -1 -1 0 -1 -1 -1 0 -1 -1 
-1 -1 -1 -1 -1 0 -1 -1 -1 -1 -1 0 -1 -1 -1 -1 
-1 0 -1 -1 -1 -1 -1 0 -1 -1 -1 0 -1 -1 -1 0 
-1 -1 -1 0 -1 0 -1 -1 -1 0 -1 -1 -1 -1 -1 0 
-1 -1 -1 -1 -1 0 -1 0 -1 -1 -1 -1 -1 0 -1 -1 
-1 0 -1 -1 -1 0 -1 -1 -1 0 -1 -1 -1 -1 -1 0 
-1 0 -1 -1 -1 0 -1 -1 -1 0 -1 -1 -1 -1 -1 0 
-1 -1 -1 0 -1 -1 -1 0 -1 -1 -1 -1 -1 0 -1 0 
-1 -1 -1 0 -1 -1 -1 -1 -1 0 -1 -1 -1 0 -1 -1 
-1 0 -1 -1 -1 0 -1 0 -1 -1 -1 0 -1 -1 -1 0 
-1 -1 -1 0 -1 -1 -1 0 -1 0 -1 -1 -1 0 -1 -1 
-1 0 -1 -1 -1 0 -1 0 -1 -1 -1 0 -1 0 -1 -1 
-1 0 -1 -1 -1 0 -1 -1 -1 0 -1 0 -1 -1 -1 0 
-1 0 -1 -1 -1 0 -1 0 -1 -1 -1 0 -1 -1 -1 0 
-1 -1 -1 0 -1 0 -1 -1 -1 0 -1 -1 -1 0 -1 0 
-1 -1 -1 0 -1 -1 -1 0 -1 -1 -1 0 -1 0 -1 -1 
-1 0 0 -496 3340 4617 259 MP stroke
SO
c9
0 -3 -1 -1 -5 -3 -5 -4 -1 -7 -2 -16 -2 -12 -4 -1 
-3 -3 -2 -13 -1 -3 -4 -5 -5 -1 -4 -4 -5 -5 -2 -2 
-2 -14 -1 -3 -3 -4 -5 -3 -1 -10 0 -18 -3 -18 0 -1 
-4 -7 -4 0 -5 0 0 -11 -1 -19 -3 -15 -4 -3 -1 -2 
-3 -8 -3 -2 -4 -5 -3 -6 -1 -1 -4 -2 -4 -1 -3 -1 
-4 0 -3 -1 -4 -5 -4 -3 -3 0 -3 -6 -4 0 -1 -1 
-2 -4 -4 -6 -2 -12 -1 -1 -3 -10 -3 -2 -4 -4 -2 -5 
-1 -3 -3 -8 -1 -13 -2 -1 -3 -1 -3 -6 -3 0 -3 -1 
-3 -1 -3 -2 -3 -5 -3 -2 -3 -1 -1 -4 -1 -25 -1 -4 
-2 -14 -2 -9 -1 -1 -3 0 -3 0 -2 -3 -3 -1 -3 0 
-2 -2 -3 0 -3 -5 -2 0 -3 -1 -2 0 -3 -2 -3 -5 
-2 0 -2 -2 -3 -1 -2 -1 -1 -3 -2 -6 -2 -3 -3 -6 
-2 -1 -2 -4 -3 -5 -1 -4 -1 -7 -2 -2 -3 -5 -2 -1 
-2 -5 -2 -1 -3 -1 -2 -1 -2 -1 -2 -1 -2 -4 -3 0 
-2 0 -2 -2 -2 0 -2 -2 -2 -3 -2 -1 -2 -4 -2 -2 
-2 -1 -2 -1 -3 0 -2 -1 -2 -2 -2 -2 -1 0 -2 -1 
-2 0 -2 0 -2 -1 -2 0 -2 -2 -2 -3 -2 -2 -2 -2 
-1 -2 0 -34 -1 -1 -1 -2 -2 -2 -2 -4 -2 -4 -2 0 
-2 -1 -1 -1 -2 -3 -2 -3 -1 -15 -1 -12 -2 -6 -1 -6 
-2 -4 -2 -7 -1 -4 0 -2 -2 -1 -2 0 -2 0 -1 0 
-2 -1 -2 0 -1 -1 -2 -1 -2 -1 -1 -1 -2 0 -2 -2 
-1 0 -2 -1 -1 -5 -2 -3 -2 -1 -1 -1 -2 0 -1 -2 
-2 -1 -1 -2 -2 -2 -2 0 -1 -1 -2 0 -1 -2 -2 -2 
-1 -2 -2 -3 -1 0 -2 0 -1 -1 -2 0 -1 -1 -2 0 
-1 0 -1 -2 -1 -13 -1 -1 -1 -15 -2 -14 0 -3 -1 -2 
-2 -1 -1 0 -2 -2 -1 0 -1 0 -2 -1 -1 0 -2 -3 
-1 0 -1 -2 -2 -2 -1 -2 -1 -1 -2 -1 -1 -1 -1 -2 
-2 0 -1 -3 -1 0 -2 -1 -1 0 -1 -3 -2 -1 -1 -2 
-1 0 -2 -1 -1 -1 -1 -1 -1 0 -2 -1 -1 0 -1 0 
-2 -2 -1 -2 -1 -2 -1 0 -2 -2 -1 -2 -1 0 -1 -4 
-1 -2 -1 -1 -1 0 -1 -1 -1 0 -1 -4 -2 0 -1 -1 
-1 0 -1 -1 -1 -1 -2 0 -1 0 -1 -1 -1 0 -1 -1 
-2 -1 -1 0 -1 -1 -1 0 -1 -1 -1 0 -1 -1 -2 0 
-1 0 -1 -1 -1 0 -1 -2 -1 -1 -1 -1 -2 -1 -1 -1 
-1 0 -1 -1 -1 0 -1 -1 -1 -2 -1 0 -1 0 -1 0 
-2 0 -1 -1 -1 0 -1 -1 -1 -1 -1 0 -1 -2 -1 -1 
-1 -1 -1 0 -1 -1 -1 -1 -1 0 -1 0 -1 -2 -2 0 
-1 -1 -1 -1 -1 -2 2010 3391 300 MP stroke
-1 -1 -1 0 -1 -1 -1 0 -1 -1 -1 0 -1 0 -1 0 
-1 -3 -1 0 -1 0 -1 -1 -1 -1 -1 -1 -1 -3 -1 -2 
-1 0 -1 -1 -1 -17 -1 -1 -1 -22 -1 -1 -1 -5 -1 -15 
0 -2 -1 -1 -1 -2 -1 -1 -1 0 -1 -1 -1 0 -1 0 
-1 -1 -1 0 -1 -1 -1 0 -1 -1 -1 0 -1 -2 -1 -1 
-1 0 -1 -5 -1 -2 0 -2 -1 0 -1 0 -1 0 -1 0 
-1 0 -1 -1 -1 -1 -1 -1 -1 -2 -1 0 -1 -2 -1 -1 
-1 0 -1 -1 -1 0 -1 0 -1 -1 -1 -2 -1 -1 -1 0 
-1 0 -1 -1 -1 0 -1 0 -1 -1 -1 -3 -1 -1 -1 -1 
-1 0 -1 -1 -1 0 -1 -1 -1 -1 -1 0 -1 -2 -1 0 
-1 -1 -1 -1 -1 0 -1 -1 -1 0 -1 -1 -1 -1 -1 -1 
-1 0 -1 0 -1 -1 -1 0 -1 -1 -1 0 1 0 -2 -2 
-1 -1 -1 0 -1 -3 -1 -1 -1 -1 -1 -1 -1 -1 -1 -4 
-1 0 -1 -1 -1 0 -1 0 -1 -1 -1 0 -1 0 -1 0 
-1 -1 -1 0 -1 0 -1 -1 -1 0 1 0 -2 -2 -1 0 
-1 -1 -1 -1 -1 -2 -1 -1 -1 0 -1 -1 -1 -1 -1 0 
-1 0 -1 -1 -1 -1 -1 0 -1 0 -1 -1 -1 0 0 -2 
-1 -1 -1 -1 -1 0 -1 -1 -1 0 -1 0 1 0 -2 -2 
-1 0 0 -2 -1 0 -1 -1 -1 0 -1 -1 -1 0 -1 -1 
-1 -1 -1 -1 -1 -1 -1 -2 -1 0 -1 0 1 0 -2 -2 
-1 -1 0 -2 -1 0 -1 0 -1 -3 -1 -1 -1 0 -1 -1 
-1 0 1 0 -2 -2 -1 -1 -1 0 -1 0 1 0 -2 -3 
-1 -1 -1 0 -1 -1 0 -1 -1 -1 -1 0 -1 -1 -1 -1 
-1 0 -1 0 -1 0 -1 -1 -1 0 -1 -1 -1 0 -1 0 
-1 -1 -1 0 -1 0 -1 -1 -1 -2 -1 0 -1 -1 -1 0 
-1 -1 -1 0 -1 -2 -1 0 -1 -1 -1 0 -1 0 -1 -1 
0 -1 -1 -1 -1 0 -1 -1 -1 0 -1 -1 -1 -1 -1 -1 
-1 0 1 0 -2 -2 -1 0 -1 0 -1 -1 -1 0 1 0 
-2 -2 -1 -1 -1 0 1 0 -2 -2 -1 -1 -1 0 1 0 
-2 -3 -1 -1 -1 -1 -1 0 -1 -1 -1 -1 -1 -2 -1 -1 
-1 -1 -1 0 0 -12 -2 -3 -1 0 -1 -2 0 -1 -1 -2 
-1 -2 -1 -1 -1 0 -1 -1 0 -1 -1 -2 -1 0 -1 -8 
-1 -8 0 -1 -1 -1 0 -4 -1 -1 0 -6 -1 -3 -1 -1 
-1 -3 0 -2 -1 -4 0 -1 -1 -2 -1 -1 0 -5 -2 -2 
-1 -1 0 -1 -1 -2 0 -3 -1 -1 0 -1 -1 -1 -1 -4 
0 -2 -1 0 -1 -1 0 -5 -1 0 0 -7 -1 -1 -1 -1 
-1 0 -1 -1 -1 0 -1 -1 -1 0 -1 -1 -1 -1 0 -2 
-1 0 -1 0 1 0 2276 3746 300 MP stroke
-2 -2 -1 0 0 -2 -1 0 -1 -1 -1 0 -1 -1 -1 -1 
-1 -2 -1 0 -1 0 -1 0 -1 -1 -1 -1 -1 -1 -1 0 
-1 -1 -1 -1 -1 -1 -1 -1 0 -1 -1 -1 -1 0 -1 0 
1 0 -2 -3 -1 0 -1 0 -1 -1 -1 0 -1 -1 -1 -1 
-1 -1 -1 -1 0 -2 -1 0 -1 -1 -1 -1 -1 -1 0 -2 
-1 -1 -1 -1 -1 0 -1 -1 -1 0 -1 -1 -1 0 0 -1 
-2 -2 -1 0 -1 -1 -1 -1 -1 0 1 0 -2 -3 -1 -1 
-1 -1 -1 -1 -1 -2 0 -1 -1 -1 -1 -1 0 -1 0 1 
-1 -3 -1 -1 -1 -1 0 -1 -2 -2 -1 -1 -1 -1 -1 0 
-1 -1 -1 -1 0 -2 -1 0 -1 0 -1 -1 0 -2 -1 -1 
-1 -1 0 -2 -1 0 -1 -1 0 -2 -1 -1 -1 -1 -1 0 
1 0 -2 -2 0 -2 -1 0 -1 -1 -1 -1 -1 0 0 -3 
-1 0 -1 -1 -1 0 1 0 -2 -2 -1 0 -1 -1 -1 -1 
-1 0 -1 -1 0 -2 -1 0 -1 -1 -1 -1 -1 -1 -1 -1 
-1 -1 -1 -1 -1 0 -1 -1 -1 -1 0 -1 -1 -1 -1 -1 
-1 -1 -1 -1 -1 -1 -1 -1 0 -1 -1 -1 -1 0 -1 -1 
-1 0 -1 0 -1 -2 -1 -1 -1 -1 -1 -1 -1 -1 -1 -1 
0 -2 -1 -1 -1 -1 0 -1 -2 -2 -1 -1 0 -2 -2 -2 
0 -1 -2 -2 -1 -1 0 -1 -2 -2 -1 -1 -1 -1 -1 -1 
-1 0 -1 0 -1 0 -1 -1 -1 -1 -1 0 -1 -1 -1 -1 
-1 -1 -1 0 -1 -1 -1 0 -1 -1 -1 -1 -1 0 1 0 
-2 -2 0 -1 -1 -1 -1 -1 -1 -1 -1 0 1 0 -2 -3 
0 -1 -2 -2 -1 0 -1 -1 -1 -2 -1 -1 -1 -1 -1 0 
-1 -1 -1 0 -1 -1 -1 -1 -1 -2 0 -1 -2 -2 -1 0 
0 -2 -2 -2 -1 -1 -1 0 -1 -1 -1 -1 0 -2 -2 -2 
-1 -1 -1 -1 -1 -1 -1 -1 -1 -1 0 -2 -1 -1 -1 -1 
-1 0 -1 -1 -1 -2 0 -3 -1 -1 -1 -1 0 -4 -1 0 
-1 0 0 -2 -2 -2 -1 -1 -1 -1 -1 -1 -1 -1 -1 -1 
-1 -1 -1 0 1 0 -2 -2 -1 -1 -1 0 -1 -1 -1 -1 
0 -1 -2 -3 -1 0 -1 -1 0 -1 -2 -2 -1 -1 -1 0 
1 0 -2 -2 0 -1 -2 -2 -1 0 0 -2 -1 0 -1 -1 
0 -2 -1 0 -1 0 1 0 -2 -2 0 -1 -2 -2 -1 -1 
-1 0 -1 -1 -1 -1 -1 0 0 -2 -2 -2 0 -2 -2 -2 
0 -1 -2 -2 -1 -1 0 -1 -2 -2 -1 -1 -1 0 1 0 
-2 -2 -1 0 -1 -1 -1 -1 0 -1 -2 -2 0 -1 -1 -1 
-1 -1 0 -1 -2 -2 -1 0 1 0 -2 -2 0 -2 -1 -1 
-1 -2 -1 0 -1 -1 0 -1 -2 -2 0 -1 -2 -2 -1 -1 
0 -3 -2 -2 0 -1 2539 4046 300 MP stroke
-1 -1 0 -4 -1 -1 0 -1 -1 -1 -1 0 1 0 -2 -2 
-1 -1 0 -1 -1 -1 0 -1 -1 -1 0 -1 -2 -2 -1 -1 
-1 -1 -1 -1 0 -3 -1 -1 0 -1 -2 -2 0 -1 -1 -1 
-1 -1 0 -1 -2 -2 -1 0 1 0 -2 -2 0 -2 -1 -1 
0 -1 -1 -1 -1 -1 0 -1 -1 -1 -1 -1 -1 -1 -1 -1 
-1 -1 0 -1 -2 -2 0 -2 -2 -2 -1 -1 0 -1 -2 -2 
0 -2 -1 0 0 -2 -1 -2 0 -1 -2 -2 -1 -1 0 -1 
-2 -2 0 -1 -1 -1 0 -497 2584 4617 61 MP stroke
DA
-1 0 -5 -2 -5 -4 -5 -2 -4 -1 -5 -6 -5 -8 -5 -4 
-4 0 -5 -10 0 -1 -3 -21 -1 -15 -4 -1 -3 -8 -2 -1 
-4 -2 -4 -4 -4 -7 -5 -4 -4 -1 -4 -1 -4 0 -2 -4 
-1 -2 -4 0 -4 -1 -4 0 -4 -5 -3 -4 -4 0 -3 -6 
-4 -1 -4 -2 -3 -1 -2 -3 -1 -11 -4 -15 -1 -1 0 -27 
-2 -1 -4 -2 -3 0 -3 -1 -3 -3 -4 -2 -3 -2 -3 -1 
-3 -1 -3 0 -3 -2 -3 -3 -3 -4 -3 -1 -3 0 -3 -6 
-3 -1 -3 -2 -3 -17 -2 -5 -3 -1 -1 -5 -2 -31 0 -1 
-3 -4 -2 -5 -3 0 -3 -3 -2 -3 -3 -2 -3 0 -2 -2 
-3 -2 -2 -3 -3 -2 -3 -2 -2 -2 -2 -1 -3 -3 -2 -1 
-3 -2 -2 -5 -3 -1 -2 -2 -2 -2 -3 -1 -2 -9 -2 -5 
-3 -6 -2 -2 -1 0 -1 -2 -2 -2 -3 -2 -2 -1 -2 -2 
-2 -2 -2 -4 -3 -6 -2 -2 -2 -7 -2 -9 -1 0 -1 -1 
-2 -2 -2 -1 -2 0 -2 -5 -2 -2 -2 -7 -3 0 -2 -4 
-2 -1 -2 -1 -1 -1 -2 0 -2 -3 -2 -3 -2 -2 -2 0 
-2 -2 -2 -2 -2 -1 -2 0 -2 -2 -1 -2 0 -3 -2 -2 
-2 -5 -2 -1 -2 -7 -2 -9 -1 -2 -2 -1 -2 -4 -2 -2 
-2 -3 -1 -7 -2 -2 -2 -3 -1 -4 -2 -1 -2 -1 -2 0 
-1 -3 -2 -2 -2 -5 -1 -1 -2 -8 -2 -5 -1 -15 0 -1 
-2 -1 -2 0 -1 -5 -2 -1 -1 -3 -2 -3 -2 -1 -1 -1 
-2 0 -1 -8 -2 -1 -1 -1 -2 0 -2 -6 -1 -3 -2 -4 
-1 -1 -2 -3 -1 0 -2 -4 -1 -3 -2 -3 -1 0 -1 -3 
-1 -4 -1 -2 -2 -5 -1 0 -2 -8 -1 -3 -1 -1 -2 -8 
-1 0 -2 -13 -1 -1 -2 -3 -1 -7 -1 0 -2 -3 -1 -1 
-2 0 -1 -3 0 -1 -1 -33 -2 -2 -1 -30 -1 -8 0 -1 
-2 -1 -1 0 -1 -2 -2 0 -1 0 -1 -2 -2 -1 -1 0 
-1 -3 -2 0 -1 -1 -1 -1 -2 0 -1 -2 -1 0 -1 0 
-2 -1 -1 -1 -1 0 -2 -1 -1 0 -1 -2 -1 -1 -2 -2 
-1 -2 -1 -1 -1 0 -2 -2 -1 0 -1 0 -1 -1 -1 0 
-2 -2 -1 0 -1 -1 -1 -1 -1 0 -2 -1 -1 0 -1 -1 
-1 0 -1 -2 -2 0 -1 0 -1 -1 -1 -1 -1 -3 -1 -1 
-1 -1 -2 0 -1 -1 -1 -1 -1 -2 -1 -1 -1 -1 -1 -1 
-2 0 -1 0 -1 -1 -1 0 -1 -1 -1 0 -1 0 -1 -1 
-1 -1 -1 0 -2 0 -1 -1 -1 0 -1 -1 -1 -1 -1 -1 
-1 0 -1 0 -1 0 -1 -1 -1 0 -1 0 -1 0 -1 0 
-1 0 -2 -1 -1 -1 -1 -1 -1 -1 -1 -1 -1 0 -1 -1 
-1 0 -1 0 -1 -1 -1 0 -1 -2 -1 -1 -1 0 -1 -1 
-1 0 -1 0 -1 0 2024 3612 300 MP stroke
-1 -1 -1 0 -1 -1 -1 -1 -1 0 -1 -1 -1 0 -1 0 
-1 -1 -1 0 -1 0 -1 0 -1 0 -1 -1 -1 0 -1 0 
-1 0 -1 -1 -1 0 -1 -1 -1 0 -1 0 -1 0 -1 0 
-1 -1 -1 -1 -1 0 -1 -1 -1 0 -1 0 -1 0 -1 -1 
-1 -1 -1 0 -1 0 -1 -1 -1 0 -1 0 -1 -1 -1 0 
-1 0 -1 0 -1 0 -1 0 -1 0 -1 -1 -1 0 -1 0 
-1 0 -1 -1 -1 0 -1 0 -1 0 0 -21 -1 -77 -1 -11 
0 -10 -1 -3 -1 -9 -1 -4 -1 -6 0 -24 -1 -10 -1 -5 
-1 -4 -1 -28 -1 -4 0 -12 -1 -19 -1 -8 -1 -1 -1 0 
-1 -1 -1 -1 -1 -2 -1 -1 -1 -2 -1 -2 -1 -1 -1 0 
-1 -1 -1 -2 -1 -4 -1 -2 -1 -4 -1 0 -1 -1 -1 0 
-1 -1 -1 -2 0 -1 -1 -1 -1 -1 -1 0 -1 -1 0 -3 
-1 -1 -1 -5 -1 0 1 0 -2 -2 -1 -2 -1 0 -1 -1 
-1 0 -1 0 -1 -3 -1 -1 -1 0 -1 0 0 -2 -1 -1 
-1 0 -1 -1 0 -2 -1 -1 -1 -2 -1 0 -1 -1 -1 0 
-1 0 1 0 -2 -4 -1 0 -1 0 0 -2 -1 0 -1 -1 
-1 -1 -1 0 -1 -2 -1 -1 -1 0 -1 -1 0 -1 -1 -1 
-1 -2 -1 -1 -1 0 -1 -1 0 -2 -1 0 -1 -1 -1 0 
-1 -1 -1 -1 -1 -2 -1 0 1 0 -2 -2 -1 0 -1 -1 
-1 0 -1 0 -1 0 -1 -1 -1 0 -1 -4 -1 0 -1 -1 
-1 -1 -1 -1 -1 -1 -1 0 -1 -1 -1 0 0 -2 -1 0 
-1 0 -1 -1 -1 -1 -1 0 -1 -1 0 -1 -1 -1 -1 0 
-1 -1 -1 -2 0 -1 -2 -2 -1 0 -1 -1 -1 0 -1 -1 
-1 0 -1 -1 -1 0 1 0 -2 -2 -1 0 -1 0 0 -2 
-1 0 -1 -1 -1 -1 -1 0 -1 0 -1 -1 -1 0 -1 -1 
-1 0 -1 -1 -1 -1 -1 0 0 -2 -1 0 -1 0 -1 -1 
-1 -1 -1 -1 -1 0 -1 -1 -1 0 -1 -1 -1 0 1 0 
-2 -2 -1 0 -1 0 -1 -1 -1 0 -1 0 1 0 -2 -2 
-1 0 -1 -1 -1 -1 -1 -1 -1 0 -1 -1 -1 -1 -1 0 
-1 -1 -1 -1 -1 0 -1 0 -1 -1 -1 -1 -1 -1 -1 0 
-1 -1 -1 0 -1 -1 -1 0 -1 -1 -1 -1 -1 -1 -1 -1 
-1 -1 -1 0 -1 -1 -1 -1 -1 0 -1 0 -1 0 -1 0 
-1 -1 -1 0 -1 -1 -1 0 -1 -1 -1 0 -1 -1 -1 -1 
-1 -1 -1 -1 -1 0 -1 -1 -1 0 -1 0 -1 -1 -1 0 
-1 -1 -1 -1 -1 0 -1 0 -1 -1 -1 -1 -1 0 -1 -1 
-1 0 -1 0 -1 0 -1 -1 -1 0 -1 -1 -1 0 -1 0 
-1 -1 -1 0 -1 -1 -1 -1 -1 0 -1 0 -1 -1 -1 -1 
-1 0 -1 0 -1 -1 2302 4061 300 MP stroke
-1 0 -1 -1 -1 -1 -1 -1 -1 -1 -1 -1 -1 0 -1 -1 
-1 0 -1 0 -1 -1 -1 -1 -1 0 -1 0 -1 0 -1 -1 
-1 0 -1 0 -1 -1 -1 0 -1 -1 -1 0 -1 -1 -1 0 
-1 -1 -1 0 -1 -1 -1 0 -1 0 -1 -1 -1 -1 -1 0 
-1 0 -1 -1 -1 0 -1 -1 -1 0 -1 0 -1 0 -1 -1 
-1 0 -1 -1 -1 0 -1 0 -1 -1 -1 0 -1 0 -1 0 
-1 -1 -1 -1 -1 -1 -1 0 -1 0 -1 -1 -1 0 -1 0 
-1 -1 -1 0 -1 0 -1 -1 -1 0 -1 0 -1 0 -1 0 
-1 -1 -1 0 -1 0 -1 0 -1 -1 -1 0 -1 0 -1 -1 
-1 0 -1 0 -1 0 -1 0 -1 0 -1 -1 -1 0 -1 0 
-1 0 -1 -1 -1 0 -1 0 -1 -1 -1 0 -1 0 -1 -1 
-1 0 -1 0 -1 0 -1 -1 -1 -1 -1 0 -1 0 -1 -1 
-1 0 -1 0 -1 0 -1 -1 -1 0 -1 0 -1 -1 -1 0 
-1 0 -1 -1 -1 0 -1 0 -1 0 -1 -1 -1 0 -1 0 
-1 -1 -1 -1 -1 0 -1 0 -1 0 -1 0 -1 0 -1 -1 
-1 0 -1 -1 -1 0 -1 0 -1 -1 -1 0 -1 0 -1 -1 
-1 0 -1 0 -1 0 -1 -1 -1 0 -1 0 -1 0 -1 -1 
-1 0 -1 0 -1 0 -1 -1 -1 0 -1 0 -1 0 -1 -1 
-1 0 -1 0 -1 0 -1 0 -1 -1 -1 0 -1 0 -1 0 
-1 0 -1 -1 -1 0 -1 0 -1 0 -1 0 -1 0 -1 -1 
-1 0 -1 0 -1 -1 -1 0 -1 0 -1 -1 -1 0 -1 0 
-1 0 -1 -1 -1 0 -1 0 -1 0 -1 -1 -1 0 -1 0 
-1 0 -1 0 -1 0 -1 0 -1 -1 -1 0 -1 0 -1 0 
-1 0 -1 0 -1 0 -1 -1 0 -496 2490 4617 190 MP stroke
SO
24 w
-1 -2 -5 -6 -5 0 -1 -2 -4 -5 -4 -4 -5 -8 -2 -4 
-3 -2 -5 -2 -4 -2 -5 0 -4 -5 -4 0 -5 -3 -4 -2 
-4 -1 -4 -3 -5 0 -2 -1 -2 -2 -1 -20 0 -22 -1 -24 
-2 -2 -4 -2 -3 -1 -4 -2 -4 -1 -4 -2 -4 -2 -3 0 
-4 -2 -3 -2 -4 0 -4 0 -3 -6 -3 -1 -4 -1 -3 0 
-3 0 -1 -1 -3 -17 -2 -7 -1 -3 -1 -24 -2 -4 -4 -2 
-3 -4 -3 -5 -3 -3 -3 -1 -3 -1 -3 -5 -2 -2 -1 -5 
-3 -9 -3 -8 -1 -7 -2 -4 -3 -6 -3 0 -3 -8 -2 -4 
-3 -3 -3 -5 -1 -1 -2 0 -2 -1 -3 0 -3 -7 -2 -1 
-3 -2 -3 -1 -2 -2 -3 -8 -2 -1 -3 -1 -3 -1 -2 -1 
-2 -4 -2 -2 -1 -1 -2 -1 -3 -5 -2 -3 -3 -7 -2 -3 
-2 -1 -3 -1 -2 -3 -2 -1 -3 -3 -2 0 -2 -1 -2 0 
-3 -2 -1 -2 -1 -2 -2 -6 -2 -1 -2 -14 -3 -4 -2 -3 
-2 -1 -2 -5 0 -4 -2 -16 -2 -17 0 -2 -2 -2 -2 0 
-2 -1 -2 0 -2 -4 -3 -1 -2 -1 -2 -3 -2 -2 -1 -5 
-2 0 -2 0 -2 0 -2 -2 -2 -1 -2 -1 -2 -1 -2 0 
-2 0 -2 -1 -1 -1 -2 0 -2 0 -2 0 -2 -2 -2 -3 
-1 -1 -2 -2 -2 0 -2 -3 -2 0 -1 -1 -2 -2 -2 -1 
-1 -1 0 -13 -2 -8 -2 -23 0 -2 -2 -15 -1 -8 -2 -27 
0 -3 -2 -3 -1 -2 -2 -12 -2 -5 -1 -20 -2 -11 -2 -14 
-1 -19 -2 -7 -1 -4 -2 -1 -2 -8 -1 -4 -2 -5 0 -1 
-1 -2 -2 -1 -1 -1 -2 -2 -2 0 -1 -3 -2 -1 -1 0 
-2 -2 -1 0 -2 -1 -1 0 -2 0 -1 0 -2 -1 -1 -1 
-2 -1 -1 -1 -2 0 -1 -2 -1 0 -2 0 -1 -1 -2 0 
-1 -1 -2 0 -1 -1 -1 -1 -2 0 -1 0 -2 -2 -1 -1 
-1 0 -2 0 -1 -1 -1 -1 -2 0 -1 -1 -1 -1 -2 0 
-1 0 -1 -1 -2 0 -1 0 -1 0 -2 -1 -1 0 -1 -2 
-2 -1 -1 0 -1 -1 -1 -1 -2 -1 -1 0 -1 -3 -2 0 
-1 0 -1 -1 -1 0 -2 0 -1 -1 -1 0 -1 -1 -2 0 
-1 0 -1 -1 -1 0 -1 -1 -2 0 -1 -1 -1 0 -1 -1 
-1 -1 -2 0 -1 0 -1 0 -1 -2 -1 0 -2 -1 -1 -1 
-1 -2 -1 0 -1 0 -1 0 -1 -1 -2 0 -1 -1 -1 -1 
-1 0 -1 -2 -1 0 -1 0 -2 -1 -1 0 -1 0 -1 0 
-1 -1 -1 0 -1 -1 -1 0 -1 0 -1 -1 -2 -1 -1 0 
-1 0 -1 0 -1 0 -1 -1 -1 0 -1 0 -1 -1 -1 0 
-1 0 -1 0 -1 0 -1 -1 -1 0 -2 0 -1 -1 -1 -1 
-1 0 -1 -1 -1 0 -1 0 -1 -1 -1 0 -1 -1 -1 0 
1 0 -2 -4 -1 0 2019 3546 300 MP stroke
-1 -5 -1 -12 -1 -4 -1 -3 -1 -1 -1 -9 -1 -10 -1 -2 
-1 -6 -1 -21 -1 -8 0 -2 -1 -1 -1 0 -1 -2 -1 0 
-1 -2 -1 0 1 0 -2 -2 -1 -1 -1 0 -1 -3 -1 0 
-1 -1 -1 -2 -1 -4 -1 -8 -1 -1 -1 -1 -1 -1 -1 -2 
-1 -1 -1 -4 -1 -1 0 -9 -1 -1 -1 -10 -1 -3 -1 0 
-1 -4 -1 -1 -1 -3 -1 -3 -1 0 -1 -1 -1 -1 -1 -2 
-1 -1 -1 -1 -1 -1 -1 -3 -1 -1 -1 -1 0 -1 -1 -7 
-1 0 -1 0 -1 0 -1 -1 -1 0 -1 -1 0 -2 -1 -2 
-1 0 -1 -5 -1 -1 -1 -1 -1 -1 0 -1 -1 -2 -1 -1 
-1 -2 -1 -4 -1 0 0 -2 -1 0 -1 -1 -1 -3 -1 0 
-1 -3 -1 -1 -1 -1 -1 -2 -1 -1 -1 -1 0 -2 -1 -1 
-1 0 -1 -1 -1 0 1 0 -2 -2 -1 0 -1 -1 -1 -1 
0 -2 -1 0 -1 -1 -1 -1 -1 -1 -1 -1 -1 -2 -1 0 
-1 0 -1 -1 -1 -2 -1 -1 -1 0 -1 -3 -1 -1 -1 0 
-1 -1 -1 -1 -1 -2 -1 0 -1 -1 -1 -1 -1 -1 -1 -1 
-1 -1 0 -1 -1 -2 -1 0 -1 -1 -1 -1 -1 -1 -1 -1 
0 -1 -1 -4 -1 -1 -1 0 -1 -1 -1 0 0 -2 -1 0 
-1 -1 -1 0 -1 -3 -1 -3 -1 0 -1 -2 -1 0 -1 0 
-1 -1 -1 0 1 0 -2 -2 -1 0 -1 -1 -1 -2 -1 -1 
-1 -2 -1 -1 -1 -1 -1 -1 0 -3 -1 -3 -1 0 -1 -1 
-1 0 -1 -1 -1 -1 -1 0 1 0 -2 -2 -1 -1 0 -2 
-1 -2 -1 -1 -1 0 -1 -1 -1 -1 -1 -1 -1 -2 -1 0 
-1 -1 -1 -1 -1 0 -1 0 -1 -1 -1 -1 -1 -1 -1 -1 
-1 0 -1 -1 -1 -1 -1 -1 -1 0 -1 -1 -1 0 1 0 
-2 -2 -1 0 1 0 -2 -5 -1 0 -1 -1 0 -1 -1 -1 
-1 0 -1 0 -1 -2 -1 -1 -1 -1 -1 0 -1 -1 -1 -1 
-1 0 -1 -1 -1 -2 -1 0 -1 0 -1 -1 -1 0 -1 -1 
-1 0 -1 -1 0 -1 -2 -2 0 -2 -2 -2 -1 0 -1 -1 
-1 -2 -1 0 -1 -1 0 -2 -1 -3 -1 -1 0 -3 -1 -1 
-1 0 -1 0 -1 -1 0 -2 -1 0 -1 0 -1 -1 -1 0 
0 -1 -2 -2 -1 -1 -1 0 -1 -2 -1 -1 -1 0 1 0 
-2 -2 0 -1 -1 -1 -1 0 -1 0 -1 -1 -1 -1 -1 -1 
-1 0 -1 -1 -1 -1 -1 0 -1 -1 -1 -1 -1 -1 0 -2 
-1 -1 -1 -1 -1 -1 -1 -1 -1 0 -1 -1 0 -2 -1 0 
-1 0 -1 -1 0 -1 -2 -2 -1 -1 0 -1 -1 -1 -1 -1 
-1 0 -1 0 -1 -1 -1 -1 -1 0 -1 -1 0 -1 -1 -2 
-1 -1 -1 0 -1 -1 -1 -1 -1 -1 -1 0 -1 -1 -1 -2 
0 -2 -1 0 -1 -1 2288 3960 300 MP stroke
-1 0 0 -2 -1 0 -1 -1 -1 -1 -1 -1 -1 0 -1 -1 
-1 -1 -1 0 -1 -1 -1 -1 0 -1 -1 -1 -1 -1 -1 -1 
-1 -1 -1 0 1 0 -2 -2 -1 0 1 0 -2 -2 -1 0 
-1 -1 -1 -1 0 -1 -2 -2 0 -1 -1 -1 0 -1 -1 -1 
-1 0 -1 -1 -1 0 -1 -1 -1 0 -1 -1 -1 -1 -1 -1 
-1 0 -1 -1 -1 -1 0 -1 -2 -2 -1 0 -1 0 -1 -1 
-1 -1 -1 0 0 -2 -1 -1 -1 -1 0 -1 -1 -1 -1 0 
-1 -1 0 -1 -2 -3 0 -1 -1 -1 -1 0 0 -2 -1 0 
-1 0 -1 0 0 -1 -2 -2 -1 -1 -1 -1 -1 -1 -1 0 
-1 -1 -1 -1 -1 -1 -1 0 0 -2 -1 0 -1 -2 -1 0 
-1 0 -1 0 -1 -1 -1 -1 -1 -1 -1 -1 -1 0 -1 -1 
-1 0 1 0 -2 -2 -1 -1 -1 -1 -1 -1 -1 0 -1 -1 
-1 -1 -1 0 -1 0 -1 -1 -1 -1 -1 -1 -1 0 -1 -1 
-1 0 -1 -1 -1 0 -1 -1 -1 -1 -1 0 -1 0 -1 -1 
-1 0 -1 0 -1 -1 -1 0 -1 -1 -1 0 -1 -1 -1 0 
-1 -1 -1 0 0 -1 -2 -2 -1 0 -1 -1 -1 0 -1 -1 
-1 0 -1 -1 -1 -1 -1 0 -1 0 -1 0 -1 -1 -1 0 
-1 0 -1 -1 -1 0 -1 -1 -1 0 -1 -1 -1 0 -1 0 
-1 0 -1 -1 -1 -1 -1 0 -1 -1 -1 -1 -1 0 -1 0 
-1 -1 -1 0 -1 -1 -1 0 -1 0 -1 -1 -1 -1 -1 0 
-1 -1 -1 0 -1 -1 -1 0 -1 0 -1 -1 -1 0 -1 0 
-1 -1 -1 0 -1 -1 -1 0 -1 -1 -1 0 -1 0 -1 0 
-1 -1 -1 -1 -1 0 -1 -2 -1 0 -1 -1 -1 0 -1 -1 
-1 -1 -1 0 -1 0 -1 0 -1 0 -1 -1 -1 0 -1 -1 
-1 0 -1 -1 -1 0 -1 -1 -1 0 -1 0 -1 -1 -1 0 
-1 -1 -1 0 -1 0 -1 0 -1 -1 -1 0 -1 -1 -1 -1 
-1 0 -1 0 -1 -1 -1 0 -1 0 -1 -1 -1 0 -1 -1 
-1 0 -1 0 -1 -1 -1 0 -1 -1 -1 0 -1 0 -1 -1 
-1 0 -1 0 -1 0 -1 0 -1 -1 -1 0 -1 -1 -1 0 
-1 0 -1 0 -1 0 -1 -1 -1 0 -1 -1 -1 0 -1 0 
-1 0 -1 0 -1 0 -1 -1 -1 0 -1 -1 -1 0 -1 0 
-1 0 -1 0 -1 -1 -1 0 -1 0 -1 0 -1 -1 -1 0 
-1 0 -1 0 -1 -1 -1 0 -1 -1 -1 0 -1 0 -1 -1 
-1 0 -1 0 -1 -1 -1 0 -1 0 -1 -1 -1 0 -1 0 
-1 0 -1 0 -1 -1 -1 0 -1 0 -1 0 -1 -1 -1 0 
-1 0 -1 0 -1 -1 -1 0 -1 0 -1 0 -1 0 -1 0 
-1 -1 -1 0 -1 0 -1 0 -1 0 -1 -1 -1 0 -1 0 
-1 0 -1 -1 -1 0 2575 4117 300 MP stroke
-1 0 -1 0 -1 0 -1 -1 -1 0 -1 0 -1 0 -1 0 
-1 0 -1 -1 -1 0 -1 0 -1 0 -1 0 -1 0 -1 0 
-1 -1 -1 0 -1 0 -1 0 -1 0 -1 0 -1 0 -1 -1 
-1 0 -1 0 0 -496 2601 4617 28 MP stroke
DA
-1 -1 -2 -1 -3 -7 -5 -2 -4 -8 -1 -2 0 -16 -4 -18 
-1 0 -4 -7 -5 -3 -5 -6 -3 -3 -1 -8 -2 -11 -3 -5 
-4 -7 -4 0 -5 -4 -3 -4 -1 -2 -4 -5 -4 -9 -5 -1 
-4 -1 -4 0 -4 -1 0 -2 -3 -12 -4 -5 -4 -1 -1 -3 
-1 -22 -2 -4 -4 -7 -3 -8 -2 -3 -2 -2 -3 -7 -4 -2 
-4 -2 -3 -9 -3 -1 -1 -1 -1 -24 -2 -25 0 -1 -3 -3 
-4 -1 -3 0 -3 -2 -3 0 -4 0 -3 -1 -3 -3 -3 -2 
-3 -1 -3 0 -3 0 -3 -4 -3 -2 -3 -1 -3 -1 -3 -1 
-3 -1 -3 -2 0 -1 -2 -1 -3 -2 -3 0 -3 -1 -2 0 
-3 -1 -3 -2 -2 -2 -3 0 -3 -1 -2 -2 -3 -2 -2 0 
-3 -2 -3 -1 -2 -1 -2 0 -3 -1 -2 0 -3 -3 -2 0 
-3 -1 -2 0 -2 -1 -3 -2 -2 0 -2 -1 -3 0 -2 0 
-2 -6 -2 -5 -3 -6 -2 -5 -2 -2 -1 -5 -1 -31 -2 -10 
-3 0 -2 -16 0 -6 -2 -8 -1 -26 -1 -28 -1 -8 -1 -5 
-2 -3 -2 -15 -2 -16 0 -2 -2 -2 -2 -4 -2 -3 -3 0 
-2 -1 -2 -2 -2 0 -1 -1 -2 -2 -2 0 -2 -1 -2 -1 
-2 -2 -2 0 -2 -1 -2 -1 -2 0 -2 -2 -1 0 -2 0 
-2 0 -2 -2 -2 0 -2 -2 -1 -2 -2 -6 -2 -2 -2 -2 
-2 0 -1 -1 -2 0 -2 -16 -1 -12 -2 -2 -2 -4 -2 -7 
-1 -5 0 -1 -2 0 -2 -2 -1 0 -2 -1 -2 0 -1 -1 
-2 0 -2 -1 -1 -1 -2 0 -1 -1 -2 -3 -2 0 -1 -1 
-2 -1 -1 0 -2 -1 -1 -1 -2 0 -2 -1 -1 -1 -2 -1 
-1 -2 -2 -2 -1 0 -2 -3 -1 0 -2 0 -1 -2 -2 -1 
-1 -1 -2 -1 -1 0 -2 -2 -1 -2 -1 0 -2 0 -1 0 
-2 -1 -1 -1 -2 0 -1 -1 -1 -2 -2 -2 -1 -1 -2 0 
-1 0 -1 -1 -2 0 -1 -3 -1 -1 -2 -1 -1 0 -1 0 
-2 0 -1 0 -1 -1 -2 0 -1 0 -1 -1 -2 0 -1 -1 
-1 0 -2 -2 -1 0 -1 0 -1 0 -2 0 -1 -1 -1 0 
-2 0 -1 0 -1 -1 -1 0 -2 0 -1 -1 -1 -1 -1 0 
-2 -1 -1 0 -1 -1 -1 0 -1 -2 -2 0 -1 -2 -1 0 
-1 -1 -1 0 -2 -1 -1 0 -1 0 -1 -1 -1 0 -2 0 
-1 -1 -1 0 -1 -1 -1 0 -1 -1 -1 0 -2 -2 -1 -1 
-1 -1 -1 0 -1 -1 -1 -1 -1 0 -2 -2 -1 0 -1 -1 
-1 0 -1 0 -1 0 -1 -1 -1 0 -1 0 -1 0 -2 0 
-1 -1 -1 0 -1 0 -1 -1 -1 0 -1 -1 -1 0 -1 -1 
-1 -1 -1 0 -1 0 -1 -1 -1 0 -1 -1 -2 0 -1 0 
-1 -1 -1 0 -1 0 -1 -1 -1 0 -1 -1 -1 -1 -1 0 
-1 0 -1 0 -1 0 2019 3390 300 MP stroke
-1 -1 -1 0 -1 -1 -1 0 -1 -1 -1 0 -1 -1 -1 0 
-1 0 -1 0 -1 0 -1 -1 -1 0 -1 0 -1 0 -1 -1 
-1 0 -1 -1 -1 -1 -1 0 -1 0 -1 -1 -1 0 -1 0 
-1 0 -1 0 -1 -1 -1 0 -1 0 -1 0 -1 0 -1 0 
-1 0 -1 -1 -1 0 -1 0 -1 0 -1 0 -1 -1 -1 0 
-1 0 -1 0 -1 0 -1 0 -1 0 -1 -1 -1 0 -1 0 
-1 0 -1 0 -1 0 -1 -1 -1 0 -1 0 -1 0 -1 0 
-1 -1 -1 0 -1 -1 -1 0 -1 0 -1 0 -1 0 -1 -5 
0 -5 -1 -3 -1 -3 -1 -4 -1 -1 -1 -1 0 -10 -1 -1 
-1 -1 -1 -3 -1 -3 -1 -1 0 -1 -1 -1 -1 -12 -1 0 
-1 -1 -1 -1 0 -2 -1 -1 -1 -1 -1 -2 0 -1 -1 -2 
0 -13 -1 0 -1 -2 -1 -7 -1 -2 -1 -12 -1 -5 -1 0 
-1 -1 0 -7 -1 -14 -1 -3 0 -4 -1 -2 -1 0 -1 -1 
-1 0 -1 -1 0 -1 -1 -1 -1 -1 -1 0 -1 0 1 0 
-2 -2 -1 -1 -1 0 -1 0 -1 -2 -1 0 -1 -1 -1 -1 
-1 0 -1 -1 -1 0 -1 0 -1 -4 -1 -1 -1 -1 -1 -1 
-1 -1 -1 -1 -1 -1 -1 0 0 -2 -1 -3 -1 -1 -1 0 
-1 -1 -1 0 -1 -1 -1 0 -1 -1 0 -1 -1 -1 -1 0 
-1 0 -1 -1 -1 0 -1 -2 -1 0 1 0 -2 -2 -1 0 
-1 -1 0 -2 -1 -2 -1 0 -1 0 -1 0 -1 -1 -1 0 
-1 0 -1 -1 -1 0 -1 -1 -1 0 -1 -1 -1 0 -1 -1 
-1 0 -1 -1 -1 0 -1 -1 -1 0 -1 -1 -1 0 -1 -2 
-1 -1 -1 -1 -1 0 -1 0 -1 -1 0 -1 -1 -1 -1 0 
-1 0 -1 -1 -1 -1 -1 0 -1 -1 -1 -1 -1 0 -1 0 
-1 -1 -1 -1 -1 -1 -1 -1 -1 -1 -1 0 -1 0 -1 -1 
-1 0 -1 -1 -1 -1 -1 0 -1 0 -1 -1 -1 0 -1 -1 
-1 -1 -1 -1 -1 -1 -1 0 0 -1 -2 -3 -1 -1 -1 0 
-1 -1 -1 0 -1 0 -1 0 -1 -2 -1 0 -1 -1 -1 0 
0 -4 -1 -4 0 -2 -1 0 -1 -5 -1 0 -1 0 1 0 
-2 -7 -1 -3 0 -5 -1 -6 0 -4 -1 -5 0 -1 -1 -4 
-1 -1 0 -4 -1 -5 0 -1 -1 -5 0 -6 -1 -1 -1 -2 
0 -4 -1 -2 0 -15 -1 0 -1 -4 0 -9 -1 0 -1 0 
0 -5 -1 0 -1 -2 -1 0 1 0 -2 -3 -1 -1 -1 -1 
-1 0 0 -1 -2 -4 0 -1 -1 -1 -1 -3 -1 -3 0 -1 
-2 -2 -1 -1 0 -1 -1 -2 -1 0 1 0 -2 -2 -1 0 
-1 -2 0 -1 -2 -2 0 -1 -1 -1 -1 0 0 -2 -1 -1 
-1 0 -1 0 0 -3 -2 -2 -1 0 -1 -1 -1 0 -1 -1 
0 -2 -1 -1 -1 -1 2283 3793 300 MP stroke
0 -2 -1 0 -1 0 1 0 -2 -3 -1 -1 0 -1 -2 -2 
0 -2 -1 0 -1 -1 -1 -2 0 -1 -1 -1 -1 -2 -1 0 
-1 -1 -1 0 -1 -1 -1 -1 -1 -2 -1 -1 -1 -1 -1 -1 
-1 0 -1 -1 -1 0 0 -2 -1 0 -1 0 1 0 -2 -3 
-1 -1 -1 0 0 -2 -1 -1 0 -1 -2 -2 -1 0 1 0 
-2 -2 0 -1 -1 -1 -1 -1 -1 -1 0 -2 -1 -1 0 -1 
-1 -1 -1 -1 -1 0 -1 -1 -1 0 -1 -2 -1 0 1 0 
-2 -2 -1 -1 -1 -1 0 -1 -2 -2 -1 -1 -1 -1 -1 0 
-1 -1 -1 0 0 -2 -1 -1 0 -1 -1 -1 -1 0 0 -2 
-1 0 -1 -1 -1 -1 -1 -1 -1 0 -1 -1 -1 0 -1 0 
1 0 -2 -2 -1 -1 -1 0 -1 -1 -1 -1 -1 0 -1 0 
0 -2 -1 -1 -1 0 -1 0 -1 -1 -1 -2 -1 -1 -1 0 
-1 -1 -1 -1 -1 -1 -1 -1 0 -1 -1 -1 -1 -1 -1 -1 
0 -2 -1 -1 0 -2 -1 0 -1 -1 -1 0 1 0 -2 -2 
0 -1 -1 -1 -1 -1 0 -4 -1 0 0 -2 -2 -2 -1 -1 
0 -2 -1 -1 -1 -1 0 -1 -1 -1 -1 0 0 -2 -1 -1 
0 -1 -1 -1 0 -1 -1 -1 -1 -1 -1 -1 0 -3 -1 0 
-1 -1 -1 -1 0 -2 -1 -1 -1 0 -1 -1 -1 0 0 -3 
-1 -3 -1 0 0 -1 0 1 -1 -3 -1 -1 -1 0 -1 -1 
-1 0 0 -1 -2 -2 -1 -1 -1 -1 -1 -1 0 -1 -2 -2 
0 -1 -1 -1 0 -1 0 1 -1 -3 0 -3 -1 -1 -1 -1 
-1 -1 0 -1 -1 -1 -1 -3 -1 -1 0 -1 0 1 -1 -3 
-1 0 1 0 -2 -2 -1 -1 -1 -1 -1 -1 -1 -1 0 -1 
-1 -1 -1 -1 0 -1 -2 -2 -1 -1 -1 -1 -1 -1 -1 -1 
0 -1 -1 -1 0 -1 -1 -1 -1 -1 -1 -1 -1 -1 -1 0 
0 -1 -2 -2 -1 -1 -1 -1 0 -1 -2 -2 0 -1 -2 -2 
-1 -1 -1 0 -1 -1 -1 0 -1 -1 -1 -1 -1 -1 -1 -1 
-1 -1 -1 0 -1 -1 -1 0 -1 -1 -1 0 0 -1 -2 -2 
-1 0 0 -1 -2 -2 0 -1 -1 -1 -1 -1 -1 0 -1 -1 
0 -2 -1 -1 -1 0 1 0 -2 -3 0 -2 -2 -2 -1 -1 
-1 0 -1 -1 -1 0 -1 -1 0 -2 -1 -1 -1 0 1 0 
-2 -2 -1 -1 0 -1 -2 -2 0 -1 -2 -2 -1 -1 -1 -1 
-1 -1 0 -1 -2 -2 -1 -1 0 -1 -2 -2 -1 -1 -1 -1 
-1 -1 -1 -1 -1 -1 -1 -1 -1 0 -1 -1 -1 -1 -1 -1 
-1 -1 -1 -1 -1 0 1 0 -2 -2 -1 0 -1 -1 -1 -1 
-1 -1 -1 -1 -1 0 1 0 -2 -2 -1 0 1 0 -2 -2 
-1 -1 -1 -1 0 -1 -1 -1 -1 -1 -1 -1 -1 -1 -1 0 
1 0 -2 -2 -1 -1 2528 4091 300 MP stroke
-1 0 -1 0 1 0 -2 -2 -1 0 -1 -1 -1 -1 -1 -1 
-1 -1 -1 -1 -1 -1 -1 0 -1 -1 -1 -1 -1 -1 -1 0 
-1 -1 -1 -1 -1 -1 -1 -1 -1 0 -1 0 -1 -1 -1 -1 
-1 0 -1 -1 0 -1 -2 -2 -1 -1 -1 0 -1 -1 -1 0 
-1 -1 -1 0 -1 -1 -1 -1 -1 0 -1 -1 -1 0 -1 -1 
-1 -1 -1 -1 0 -496 2569 4617 44 MP stroke
SO
6 w
gr

6 w
c9
1 sg
0 772 1225 0 0 -772 4409 1221 4 MP
PP
-1225 0 0 772 1225 0 0 -772 4409 1221 5 MP stroke
4 w
DO
SO
6 w
0 sg
4409  449 mt 5634  449 L
4409 1221 mt 5634 1221 L
5634 1221 mt 5634  449 L
4409 1221 mt 4409  449 L
4409 1221 mt 5634 1221 L
4409 1221 mt 4409  449 L
4409  449 mt 5634  449 L
4409 1221 mt 5634 1221 L
5634 1221 mt 5634  449 L
4409 1221 mt 4409  449 L
4903  583 mt 
(orig) s
gs 4409 449 1226 773 rc
DA
12 w
380 0 4484 540 2 MP stroke
SO
gr

12 w
4903  730 mt 
(f-norm) s
gs 4409 449 1226 773 rc
DA
c8
380 0 4484 687 2 MP stroke
SO
gr

c8
0 sg
4903  878 mt 
(f-norm v1 \(lr\)) s
gs 4409 449 1226 773 rc
c9
380 0 4484 835 2 MP stroke
gr

c9
0 sg
4903 1025 mt 
(f-norm v2 \(lr\)) s
gs 4409 449 1226 773 rc
DA
c9
380 0 4484 982 2 MP stroke
SO
gr

c9
0 sg
4903 1172 mt 
(f-norm-lr) s
gs 4409 449 1226 773 rc
c10
380 0 4484 1129 2 MP stroke
6 w
gr

6 w
c10

end %%Color Dict

eplot
%%EndObject

epage
end

showpage

%%Trailer
%%EOF
