%!PS-Adobe-3.0 EPSF-3.0
%%Creator: MATLAB, The Mathworks, Inc. Version 7.5.0.338 (R2007b). Operating System: Linux 2.6.22.9-61.fc6 #1 SMP Thu Sep 27 17:45:57 EDT 2007 i686.
%%Title: Pictures/main_compen04_demo_us_density_m3_p1_b3_d1_users20.eps
%%CreationDate: 01/23/2009  11:20:20
%%DocumentNeededFonts: Helvetica
%%DocumentProcessColors: Cyan Magenta Yellow Black
%%LanguageLevel: 2
%%Pages: 1
%%BoundingBox:    42   187   543   583
%%EndComments

%%BeginProlog
% MathWorks dictionary
/MathWorks 160 dict begin
% definition operators
/bdef {bind def} bind def
/ldef {load def} bind def
/xdef {exch def} bdef
/xstore {exch store} bdef
% operator abbreviations
/c  /clip ldef
/cc /concat ldef
/cp /closepath ldef
/gr /grestore ldef
/gs /gsave ldef
/mt /moveto ldef
/np /newpath ldef
/cm /currentmatrix ldef
/sm /setmatrix ldef
/rm /rmoveto ldef
/rl /rlineto ldef
/s {show newpath} bdef
/sc {setcmykcolor} bdef
/sr /setrgbcolor ldef
/sg /setgray ldef
/w /setlinewidth ldef
/j /setlinejoin ldef
/cap /setlinecap ldef
/rc {rectclip} bdef
/rf {rectfill} bdef
% page state control
/pgsv () def
/bpage {/pgsv save def} bdef
/epage {pgsv restore} bdef
/bplot /gsave ldef
/eplot {stroke grestore} bdef
% orientation switch
/portraitMode 0 def /landscapeMode 1 def /rotateMode 2 def
% coordinate system mappings
/dpi2point 0 def
% font control
/FontSize 0 def
/FMS {/FontSize xstore findfont [FontSize 0 0 FontSize neg 0 0]
  makefont setfont} bdef
/reencode {exch dup where {pop load} {pop StandardEncoding} ifelse
  exch dup 3 1 roll findfont dup length dict begin
  { 1 index /FID ne {def}{pop pop} ifelse } forall
  /Encoding exch def currentdict end definefont pop} bdef
/isroman {findfont /CharStrings get /Agrave known} bdef
/FMSR {3 1 roll 1 index dup isroman {reencode} {pop pop} ifelse
  exch FMS} bdef
/csm {1 dpi2point div -1 dpi2point div scale neg translate
 dup landscapeMode eq {pop -90 rotate}
  {rotateMode eq {90 rotate} if} ifelse} bdef
% line types: solid, dotted, dashed, dotdash
/SO { [] 0 setdash } bdef
/DO { [.5 dpi2point mul 4 dpi2point mul] 0 setdash } bdef
/DA { [6 dpi2point mul] 0 setdash } bdef
/DD { [.5 dpi2point mul 4 dpi2point mul 6 dpi2point mul 4
  dpi2point mul] 0 setdash } bdef
% macros for lines and objects
/L {lineto stroke} bdef
/MP {3 1 roll moveto 1 sub {rlineto} repeat} bdef
/AP {{rlineto} repeat} bdef
/PDlw -1 def
/W {/PDlw currentlinewidth def setlinewidth} def
/PP {closepath eofill} bdef
/DP {closepath stroke} bdef
/MR {4 -2 roll moveto dup  0 exch rlineto exch 0 rlineto
  neg 0 exch rlineto closepath} bdef
/FR {MR stroke} bdef
/PR {MR fill} bdef
/L1i {{currentfile picstr readhexstring pop} image} bdef
/tMatrix matrix def
/MakeOval {newpath tMatrix currentmatrix pop translate scale
0 0 1 0 360 arc tMatrix setmatrix} bdef
/FO {MakeOval stroke} bdef
/PO {MakeOval fill} bdef
/PD {currentlinewidth 2 div 0 360 arc fill
   PDlw -1 eq not {PDlw w /PDlw -1 def} if} def
/FA {newpath tMatrix currentmatrix pop translate scale
  0 0 1 5 -2 roll arc tMatrix setmatrix stroke} bdef
/PA {newpath tMatrix currentmatrix pop	translate 0 0 moveto scale
  0 0 1 5 -2 roll arc closepath tMatrix setmatrix fill} bdef
/FAn {newpath tMatrix currentmatrix pop translate scale
  0 0 1 5 -2 roll arcn tMatrix setmatrix stroke} bdef
/PAn {newpath tMatrix currentmatrix pop translate 0 0 moveto scale
  0 0 1 5 -2 roll arcn closepath tMatrix setmatrix fill} bdef
/vradius 0 def /hradius 0 def /lry 0 def
/lrx 0 def /uly 0 def /ulx 0 def /rad 0 def
/MRR {/vradius xdef /hradius xdef /lry xdef /lrx xdef /uly xdef
  /ulx xdef newpath tMatrix currentmatrix pop ulx hradius add uly
  vradius add translate hradius vradius scale 0 0 1 180 270 arc 
  tMatrix setmatrix lrx hradius sub uly vradius add translate
  hradius vradius scale 0 0 1 270 360 arc tMatrix setmatrix
  lrx hradius sub lry vradius sub translate hradius vradius scale
  0 0 1 0 90 arc tMatrix setmatrix ulx hradius add lry vradius sub
  translate hradius vradius scale 0 0 1 90 180 arc tMatrix setmatrix
  closepath} bdef
/FRR {MRR stroke } bdef
/PRR {MRR fill } bdef
/MlrRR {/lry xdef /lrx xdef /uly xdef /ulx xdef /rad lry uly sub 2 div def
  newpath tMatrix currentmatrix pop ulx rad add uly rad add translate
  rad rad scale 0 0 1 90 270 arc tMatrix setmatrix lrx rad sub lry rad
  sub translate rad rad scale 0 0 1 270 90 arc tMatrix setmatrix
  closepath} bdef
/FlrRR {MlrRR stroke } bdef
/PlrRR {MlrRR fill } bdef
/MtbRR {/lry xdef /lrx xdef /uly xdef /ulx xdef /rad lrx ulx sub 2 div def
  newpath tMatrix currentmatrix pop ulx rad add uly rad add translate
  rad rad scale 0 0 1 180 360 arc tMatrix setmatrix lrx rad sub lry rad
  sub translate rad rad scale 0 0 1 0 180 arc tMatrix setmatrix
  closepath} bdef
/FtbRR {MtbRR stroke } bdef
/PtbRR {MtbRR fill } bdef
/stri 6 array def /dtri 6 array def
/smat 6 array def /dmat 6 array def
/tmat1 6 array def /tmat2 6 array def /dif 3 array def
/asub {/ind2 exch def /ind1 exch def dup dup
  ind1 get exch ind2 get sub exch } bdef
/tri_to_matrix {
  2 0 asub 3 1 asub 4 0 asub 5 1 asub
  dup 0 get exch 1 get 7 -1 roll astore } bdef
/compute_transform {
  dmat dtri tri_to_matrix tmat1 invertmatrix 
  smat stri tri_to_matrix tmat2 concatmatrix } bdef
/ds {stri astore pop} bdef
/dt {dtri astore pop} bdef
/db {2 copy /cols xdef /rows xdef mul dup 3 mul string
  currentfile 
  3 index 0 eq {/ASCIIHexDecode filter}
  {/ASCII85Decode filter 3 index 2 eq {/RunLengthDecode filter} if }
  ifelse exch readstring pop
  dup 0 3 index getinterval /rbmap xdef
  dup 2 index dup getinterval /gbmap xdef
  1 index dup 2 mul exch getinterval /bbmap xdef pop pop}bdef
/it {gs np dtri aload pop moveto lineto lineto cp c
  cols rows 8 compute_transform 
  rbmap gbmap bbmap true 3 colorimage gr}bdef
/il {newpath moveto lineto stroke}bdef
currentdict end def
%%EndProlog

%%BeginSetup
MathWorks begin

0 cap

end
%%EndSetup

%%Page: 1 1
%%BeginPageSetup
%%PageBoundingBox:    42   187   543   583
MathWorks begin
bpage
%%EndPageSetup

%%BeginObject: obj1
bplot

/dpi2point 12 def
portraitMode 0216 7344 csm

  297   341  6008  4750 rc
85 dict begin %Colortable dictionary
/c0 { 0.000000 0.000000 0.000000 sr} bdef
/c1 { 1.000000 1.000000 1.000000 sr} bdef
/c2 { 0.900000 0.000000 0.000000 sr} bdef
/c3 { 0.000000 0.820000 0.000000 sr} bdef
/c4 { 0.000000 0.000000 0.800000 sr} bdef
/c5 { 0.910000 0.820000 0.320000 sr} bdef
/c6 { 1.000000 0.260000 0.820000 sr} bdef
/c7 { 0.000000 0.820000 0.820000 sr} bdef
c0
1 j
1 sg
   0    0 6913 5186 rf
6 w
0 4226 5357 0 0 -4226 898 4615 4 MP
PP
-5357 0 0 4226 5357 0 0 -4226 898 4615 5 MP stroke
4 w
DO
SO
6 w
0 sg
 898 4615 mt 6255 4615 L
 898 4615 mt  898  389 L
1410 4615 mt 1410 4561 L
%%IncludeResource: font Helvetica
/Helvetica /ISOLatin1Encoding 192 FMSR

1245 4827 mt 
(-2) s
2124 4615 mt 2124 4561 L
2071 4827 mt 
(0) s
2838 4615 mt 2838 4561 L
2785 4827 mt 
(2) s
3552 4615 mt 3552 4561 L
3499 4827 mt 
(4) s
4266 4615 mt 4266 4561 L
4213 4827 mt 
(6) s
4980 4615 mt 4980 4561 L
4927 4827 mt 
(8) s
5694 4615 mt 5694 4561 L
5588 4827 mt 
(10) s
 898 4615 mt  952 4615 L
 758 4686 mt 
(0) s
 898 4144 mt  952 4144 L
 598 4215 mt 
(0.1) s
 898 3673 mt  952 3673 L
 598 3744 mt 
(0.2) s
 898 3203 mt  952 3203 L
 598 3274 mt 
(0.3) s
 898 2732 mt  952 2732 L
 598 2803 mt 
(0.4) s
 898 2261 mt  952 2261 L
 598 2332 mt 
(0.5) s
 898 1791 mt  952 1791 L
 598 1862 mt 
(0.6) s
 898 1320 mt  952 1320 L
 598 1391 mt 
(0.7) s
 898  850 mt  952  850 L
 598  921 mt 
(0.8) s
3292 5023 mt 
(scores) s
 500 2901 mt  -90 rotate
(likelihood) s
90 rotate
gs 898 389 5358 4227 rc
/c8 { 1.000000 0.000000 0.000000 sr} bdef
c8
28 0 94 0 94 0 94 0 94 0 94 0 94 0 93 0 
94 0 94 0 94 0 94 0 94 1 94 0 94 0 94 0 
94 0 94 0 94 0 93 0 94 0 94 0 94 0 94 0 
94 0 94 0 94 0 94 0 94 0 94 1 94 1 94 5 
93 9 94 19 94 37 94 64 94 105 94 156 94 213 94 264 
94 295 94 290 94 239 94 147 93 26 94 -101 94 -207 94 -276 
94 -298 94 -279 94 -235 94 -179 94 -123 94 -79 94 -47 94 -25 
93 -13 71 -4 898 4609 59 MP stroke
/c9 { 0.000000 0.000000 1.000000 sr} bdef
c9
28 0 94 0 94 1 94 0 94 0 94 0 94 0 93 0 
94 0 94 0 94 0 94 0 94 2 94 10 94 38 94 116 
94 284 94 544 94 797 93 843 94 529 94 -63 94 -620 94 -861 
94 -756 94 -488 94 -242 94 -95 94 -29 94 -8 94 -1 94 0 
93 0 94 0 94 0 94 0 94 0 94 0 94 0 94 0 
94 -1 94 0 94 0 94 0 93 0 94 0 94 0 94 0 
94 0 94 0 94 0 94 0 94 0 94 0 94 0 94 0 
93 0 71 0 898 4615 59 MP stroke
c8
28 0 94 0 94 0 94 0 94 0 94 0 94 0 93 0 
94 0 94 0 94 0 94 0 94 1 94 0 94 0 94 0 
94 0 94 0 94 0 93 0 94 0 94 0 94 0 94 0 
94 0 94 0 94 0 94 0 94 0 94 1 94 1 94 5 
93 9 94 19 94 37 94 64 94 105 94 156 94 213 94 264 
94 295 94 290 94 239 94 147 93 26 94 -101 94 -207 94 -276 
94 -298 94 -279 94 -235 94 -179 94 -123 94 -79 94 -47 94 -25 
93 -13 71 -4 898 4609 59 MP stroke
c9
28 0 94 0 94 0 94 0 94 0 94 0 94 0 93 0 
94 0 94 2 94 3 94 8 94 18 94 36 94 65 94 110 
94 169 94 235 94 294 93 328 94 315 94 248 94 130 94 -14 
94 -157 94 -266 94 -322 94 -323 94 -284 94 -222 94 -157 94 -100 
93 -58 94 -32 94 -15 94 -7 94 -3 94 -1 94 0 94 0 
94 0 94 0 94 0 94 0 93 0 94 0 94 0 94 0 
94 0 94 0 94 0 94 0 94 0 94 0 94 -1 94 0 
93 0 71 0 898 4615 59 MP stroke
c8
28 0 94 0 94 0 94 0 94 0 94 0 94 0 93 0 
94 0 94 0 94 0 94 0 94 1 94 0 94 0 94 0 
94 0 94 0 94 0 93 0 94 0 94 0 94 0 94 0 
94 0 94 0 94 0 94 0 94 0 94 1 94 1 94 5 
93 9 94 19 94 37 94 64 94 105 94 156 94 213 94 264 
94 295 94 290 94 239 94 147 93 26 94 -101 94 -207 94 -276 
94 -298 94 -279 94 -235 94 -179 94 -123 94 -79 94 -47 94 -25 
93 -13 71 -4 898 4609 59 MP stroke
c9
28 0 94 0 94 0 94 1 94 0 94 0 94 0 93 0 
94 0 94 0 94 0 94 0 94 0 94 0 94 0 94 0 
94 1 94 4 94 13 93 32 94 75 94 150 94 260 94 389 
94 491 94 507 94 392 94 157 94 -130 94 -374 94 -502 94 -497 
93 -401 94 -272 94 -159 94 -81 94 -35 94 -14 94 -5 94 -1 
94 0 94 0 94 0 94 0 93 0 94 0 94 0 94 0 
94 0 94 0 94 0 94 0 94 -1 94 0 94 0 94 0 
93 0 71 0 898 4615 59 MP stroke
c8
28 0 94 0 94 0 94 0 94 0 94 0 94 0 93 0 
94 0 94 0 94 0 94 0 94 1 94 0 94 0 94 0 
94 0 94 0 94 0 93 0 94 0 94 0 94 0 94 0 
94 0 94 0 94 0 94 0 94 0 94 1 94 1 94 5 
93 9 94 19 94 37 94 64 94 105 94 156 94 213 94 264 
94 295 94 290 94 239 94 147 93 26 94 -101 94 -207 94 -276 
94 -298 94 -279 94 -235 94 -179 94 -123 94 -79 94 -47 94 -25 
93 -13 71 -4 898 4609 59 MP stroke
c9
59 -371 94 -1590 94 -1364 94 -658 94 -198 94 -39 94 -5 94 0 
94 0 93 0 94 0 94 0 94 0 94 -1 94 0 94 0 
94 0 94 0 94 0 94 0 94 0 93 0 71 0 898 4615 24 MP stroke
28 0 94 0 94 0 94 0 94 0 94 0 94 0 93 0 
94 0 94 0 94 0 94 0 94 0 94 0 94 0 94 0 
94 0 94 0 94 0 93 0 94 0 94 1 94 0 94 0 
94 0 94 0 94 0 94 0 94 2 94 23 94 133 94 496 
93 1175 94 1635 74 761 3055 389 36 MP stroke
c8
28 0 94 0 94 0 94 0 94 0 94 0 94 0 93 0 
94 0 94 0 94 0 94 0 94 1 94 0 94 0 94 0 
94 0 94 0 94 0 93 0 94 0 94 0 94 0 94 0 
94 0 94 0 94 0 94 0 94 0 94 1 94 1 94 5 
93 9 94 19 94 37 94 64 94 105 94 156 94 213 94 264 
94 295 94 290 94 239 94 147 93 26 94 -101 94 -207 94 -276 
94 -298 94 -279 94 -235 94 -179 94 -123 94 -79 94 -47 94 -25 
93 -13 71 -4 898 4609 59 MP stroke
c9
28 0 94 0 94 0 94 0 94 0 94 0 94 0 93 0 
94 1 94 6 94 22 94 64 94 161 94 327 94 542 94 706 
94 684 94 398 94 -66 93 -500 94 -715 94 -675 94 -483 94 -275 
94 -128 94 -49 94 -15 94 -4 94 -1 94 0 94 0 94 0 
93 0 94 0 94 0 94 0 94 0 94 0 94 0 94 -1 
94 0 94 0 94 0 94 0 93 0 94 0 94 0 94 0 
94 0 94 0 94 0 94 0 94 0 94 0 94 0 94 0 
93 0 71 0 898 4615 59 MP stroke
c8
28 0 94 0 94 0 94 0 94 0 94 0 94 0 93 0 
94 0 94 0 94 0 94 0 94 1 94 0 94 0 94 0 
94 0 94 0 94 0 93 0 94 0 94 0 94 0 94 0 
94 0 94 0 94 0 94 0 94 0 94 1 94 1 94 5 
93 9 94 19 94 37 94 64 94 105 94 156 94 213 94 264 
94 295 94 290 94 239 94 147 93 26 94 -101 94 -207 94 -276 
94 -298 94 -279 94 -235 94 -179 94 -123 94 -79 94 -47 94 -25 
93 -13 71 -4 898 4609 59 MP stroke
c9
28 0 94 0 94 0 94 0 94 1 94 0 94 0 93 0 
94 0 94 0 94 0 94 0 94 0 94 0 94 0 94 0 
94 1 94 5 94 17 93 48 94 114 94 230 94 391 94 550 
94 617 94 513 94 224 94 -153 94 -469 94 -612 94 -574 94 -424 
93 -259 94 -133 94 -57 94 -21 94 -6 94 -2 94 0 94 0 
94 0 94 0 94 0 94 0 93 0 94 0 94 0 94 0 
94 0 94 -1 94 0 94 0 94 0 94 0 94 0 94 0 
93 0 71 0 898 4615 59 MP stroke
c8
28 0 94 0 94 0 94 0 94 0 94 0 94 0 93 0 
94 0 94 0 94 0 94 0 94 1 94 0 94 0 94 0 
94 0 94 0 94 0 93 0 94 0 94 0 94 0 94 0 
94 0 94 0 94 0 94 0 94 0 94 1 94 1 94 5 
93 9 94 19 94 37 94 64 94 105 94 156 94 213 94 264 
94 295 94 290 94 239 94 147 93 26 94 -101 94 -207 94 -276 
94 -298 94 -279 94 -235 94 -179 94 -123 94 -79 94 -47 94 -25 
93 -13 71 -4 898 4609 59 MP stroke
c9
28 0 94 0 94 0 94 0 94 0 94 0 94 0 93 1 
94 0 94 0 94 0 94 0 94 0 94 0 94 0 94 6 
94 38 94 160 94 489 93 1012 94 1344 94 914 94 -218 94 -1172 
94 -1288 94 -819 94 -343 94 -100 94 -20 94 -3 94 0 94 0 
93 0 94 0 94 0 94 0 94 0 94 -1 94 0 94 0 
94 0 94 0 94 0 94 0 93 0 94 0 94 0 94 0 
94 0 94 0 94 0 94 0 94 0 94 0 94 0 94 0 
93 0 71 0 898 4615 59 MP stroke
c8
28 0 94 0 94 0 94 0 94 0 94 0 94 0 93 0 
94 0 94 0 94 0 94 0 94 1 94 0 94 0 94 0 
94 0 94 0 94 0 93 0 94 0 94 0 94 0 94 0 
94 0 94 0 94 0 94 0 94 0 94 1 94 1 94 5 
93 9 94 19 94 37 94 64 94 105 94 156 94 213 94 264 
94 295 94 290 94 239 94 147 93 26 94 -101 94 -207 94 -276 
94 -298 94 -279 94 -235 94 -179 94 -123 94 -79 94 -47 94 -25 
93 -13 71 -4 898 4609 59 MP stroke
c9
28 0 94 0 94 0 94 0 94 0 94 0 94 0 93 0 
94 0 94 0 94 0 94 0 94 0 94 1 94 0 94 0 
94 0 94 0 94 0 93 0 94 0 94 0 94 1 94 6 
94 26 94 87 94 234 94 487 94 776 94 899 94 651 94 58 
93 -568 94 -886 94 -816 94 -539 94 -269 94 -105 94 -33 94 -8 
94 -1 94 0 94 0 94 0 93 0 94 0 94 0 94 0 
94 0 94 0 94 -1 94 0 94 0 94 0 94 0 94 0 
93 0 71 0 898 4615 59 MP stroke
c8
28 0 94 0 94 0 94 0 94 0 94 0 94 0 93 0 
94 0 94 0 94 0 94 0 94 1 94 0 94 0 94 0 
94 0 94 0 94 0 93 0 94 0 94 0 94 0 94 0 
94 0 94 0 94 0 94 0 94 0 94 1 94 1 94 5 
93 9 94 19 94 37 94 64 94 105 94 156 94 213 94 264 
94 295 94 290 94 239 94 147 93 26 94 -101 94 -207 94 -276 
94 -298 94 -279 94 -235 94 -179 94 -123 94 -79 94 -47 94 -25 
93 -13 71 -4 898 4609 59 MP stroke
c9
28 1 94 4 94 11 94 25 94 51 94 94 94 159 93 238 
94 319 94 373 94 374 94 302 94 161 94 -21 94 -196 94 -324 
94 -380 94 -365 94 -302 93 -220 94 -143 94 -84 94 -43 94 -21 
94 -9 94 -4 94 -1 94 0 94 0 94 0 94 0 94 0 
93 0 94 0 94 0 94 0 94 0 94 0 94 0 94 0 
94 0 94 -1 94 0 94 0 93 0 94 0 94 0 94 0 
94 0 94 0 94 0 94 0 94 0 94 0 94 0 94 0 
93 0 71 0 898 4615 59 MP stroke
c8
28 0 94 0 94 0 94 0 94 0 94 0 94 0 93 0 
94 0 94 0 94 0 94 0 94 1 94 0 94 0 94 0 
94 0 94 0 94 0 93 0 94 0 94 0 94 0 94 0 
94 0 94 0 94 0 94 0 94 0 94 1 94 1 94 5 
93 9 94 19 94 37 94 64 94 105 94 156 94 213 94 264 
94 295 94 290 94 239 94 147 93 26 94 -101 94 -207 94 -276 
94 -298 94 -279 94 -235 94 -179 94 -123 94 -79 94 -47 94 -25 
93 -13 71 -4 898 4609 59 MP stroke
c9
28 0 94 3 94 9 94 21 94 45 94 90 94 156 93 244 
94 335 94 401 94 405 94 326 94 166 94 -39 94 -233 94 -366 
94 -413 94 -382 94 -302 93 -210 94 -128 94 -71 94 -34 94 -15 
94 -6 94 -3 94 0 94 0 94 0 94 0 94 0 94 0 
93 0 94 0 94 0 94 0 94 0 94 0 94 0 94 0 
94 -1 94 0 94 0 94 0 93 0 94 0 94 0 94 0 
94 0 94 0 94 0 94 0 94 0 94 0 94 0 94 0 
93 0 71 0 898 4615 59 MP stroke
c8
28 0 94 0 94 0 94 0 94 0 94 0 94 0 93 0 
94 0 94 0 94 0 94 0 94 1 94 0 94 0 94 0 
94 0 94 0 94 0 93 0 94 0 94 0 94 0 94 0 
94 0 94 0 94 0 94 0 94 0 94 1 94 1 94 5 
93 9 94 19 94 37 94 64 94 105 94 156 94 213 94 264 
94 295 94 290 94 239 94 147 93 26 94 -101 94 -207 94 -276 
94 -298 94 -279 94 -235 94 -179 94 -123 94 -79 94 -47 94 -25 
93 -13 71 -4 898 4609 59 MP stroke
c9
28 0 94 1 94 2 94 5 94 9 94 18 94 33 93 54 
94 85 94 123 94 168 94 210 94 241 94 251 94 231 94 179 
94 99 94 3 94 -95 93 -176 94 -230 94 -251 94 -242 94 -211 
94 -170 94 -126 94 -86 94 -55 94 -34 94 -18 94 -10 94 -5 
93 -2 94 -1 94 0 94 0 94 0 94 0 94 0 94 0 
94 0 94 0 94 0 94 0 93 0 94 0 94 0 94 0 
94 0 94 0 94 0 94 0 94 -1 94 0 94 0 94 0 
93 0 71 0 898 4615 59 MP stroke
c8
28 0 94 0 94 0 94 0 94 0 94 0 94 0 93 0 
94 0 94 0 94 0 94 0 94 1 94 0 94 0 94 0 
94 0 94 0 94 0 93 0 94 0 94 0 94 0 94 0 
94 0 94 0 94 0 94 0 94 0 94 1 94 1 94 5 
93 9 94 19 94 37 94 64 94 105 94 156 94 213 94 264 
94 295 94 290 94 239 94 147 93 26 94 -101 94 -207 94 -276 
94 -298 94 -279 94 -235 94 -179 94 -123 94 -79 94 -47 94 -25 
93 -13 71 -4 898 4609 59 MP stroke
c9
28 0 94 0 94 0 94 0 94 0 94 0 94 0 93 0 
94 0 94 1 94 0 94 0 94 0 94 0 94 0 94 0 
94 0 94 0 94 0 93 0 94 0 94 1 94 6 94 21 
94 57 94 138 94 276 94 457 94 615 94 644 94 464 94 101 
93 -306 94 -585 94 -652 94 -543 94 -360 94 -196 94 -89 94 -35 
94 -11 94 -3 94 0 94 0 93 0 94 0 94 0 94 0 
94 0 94 0 94 0 94 0 94 0 94 -1 94 0 94 0 
93 0 71 0 898 4615 59 MP stroke
c8
28 0 94 0 94 0 94 0 94 0 94 0 94 0 93 0 
94 0 94 0 94 0 94 0 94 1 94 0 94 0 94 0 
94 0 94 0 94 0 93 0 94 0 94 0 94 0 94 0 
94 0 94 0 94 0 94 0 94 0 94 1 94 1 94 5 
93 9 94 19 94 37 94 64 94 105 94 156 94 213 94 264 
94 295 94 290 94 239 94 147 93 26 94 -101 94 -207 94 -276 
94 -298 94 -279 94 -235 94 -179 94 -123 94 -79 94 -47 94 -25 
93 -13 71 -4 898 4609 59 MP stroke
c9
28 0 94 0 94 0 94 0 94 0 94 0 94 0 93 0 
94 0 94 2 94 7 94 26 94 72 94 173 94 340 94 543 
94 688 94 649 94 365 93 -78 94 -487 94 -689 94 -654 94 -474 
94 -277 94 -131 94 -52 94 -17 94 -5 94 -1 94 0 94 0 
93 0 94 0 94 0 94 0 94 0 94 0 94 0 94 0 
94 -1 94 0 94 0 94 0 93 0 94 0 94 0 94 0 
94 0 94 0 94 0 94 0 94 0 94 0 94 0 94 0 
93 0 71 0 898 4615 59 MP stroke
c8
28 0 94 0 94 0 94 0 94 0 94 0 94 0 93 0 
94 0 94 0 94 0 94 0 94 1 94 0 94 0 94 0 
94 0 94 0 94 0 93 0 94 0 94 0 94 0 94 0 
94 0 94 0 94 0 94 0 94 0 94 1 94 1 94 5 
93 9 94 19 94 37 94 64 94 105 94 156 94 213 94 264 
94 295 94 290 94 239 94 147 93 26 94 -101 94 -207 94 -276 
94 -298 94 -279 94 -235 94 -179 94 -123 94 -79 94 -47 94 -25 
93 -13 71 -4 898 4609 59 MP stroke
c9
28 0 94 0 94 0 94 0 94 0 94 0 94 0 93 2 
94 5 94 15 94 36 94 78 94 147 94 247 94 358 94 446 
94 462 94 374 94 180 93 -69 94 -295 94 -435 94 -466 94 -404 
94 -298 94 -190 94 -106 94 -52 94 -23 94 -8 94 -3 94 -1 
93 0 94 0 94 0 94 0 94 0 94 0 94 0 94 0 
94 0 94 0 94 0 94 0 93 -1 94 0 94 0 94 0 
94 0 94 0 94 0 94 0 94 0 94 0 94 0 94 0 
93 0 71 0 898 4615 59 MP stroke
c8
28 0 94 0 94 0 94 0 94 0 94 0 94 0 93 0 
94 0 94 0 94 0 94 0 94 1 94 0 94 0 94 0 
94 0 94 0 94 0 93 0 94 0 94 0 94 0 94 0 
94 0 94 0 94 0 94 0 94 0 94 1 94 1 94 5 
93 9 94 19 94 37 94 64 94 105 94 156 94 213 94 264 
94 295 94 290 94 239 94 147 93 26 94 -101 94 -207 94 -276 
94 -298 94 -279 94 -235 94 -179 94 -123 94 -79 94 -47 94 -25 
93 -13 71 -4 898 4609 59 MP stroke
c9
28 12 94 73 94 120 94 180 94 243 94 296 94 322 93 300 
94 227 94 107 94 -36 94 -170 94 -269 94 -318 94 -314 94 -273 
94 -212 94 -148 94 -96 93 -56 94 -29 94 -15 94 -7 94 -3 
94 -1 94 0 94 0 94 0 94 0 94 0 94 0 94 0 
93 0 94 0 94 0 94 0 94 0 94 0 94 0 94 0 
94 0 94 -1 94 0 94 0 93 0 94 0 94 0 94 0 
94 0 94 0 94 0 94 0 94 0 94 0 94 0 94 0 
93 0 71 0 898 4615 59 MP stroke
c8
28 0 94 0 94 0 94 0 94 0 94 0 94 0 93 0 
94 0 94 0 94 0 94 0 94 1 94 0 94 0 94 0 
94 0 94 0 94 0 93 0 94 0 94 0 94 0 94 0 
94 0 94 0 94 0 94 0 94 0 94 1 94 1 94 5 
93 9 94 19 94 37 94 64 94 105 94 156 94 213 94 264 
94 295 94 290 94 239 94 147 93 26 94 -101 94 -207 94 -276 
94 -298 94 -279 94 -235 94 -179 94 -123 94 -79 94 -47 94 -25 
93 -13 71 -4 898 4609 59 MP stroke
c9
28 0 94 4 94 12 94 27 94 58 94 113 94 195 93 294 
94 388 94 437 94 404 94 273 94 68 94 -157 94 -338 94 -429 
94 -425 94 -352 94 -253 93 -159 94 -88 94 -43 94 -19 94 -8 
94 -2 94 -1 94 0 94 0 94 0 94 0 94 0 94 0 
93 0 94 0 94 0 94 0 94 0 94 0 94 0 94 -1 
94 0 94 0 94 0 94 0 93 0 94 0 94 0 94 0 
94 0 94 0 94 0 94 0 94 0 94 0 94 0 94 0 
93 0 71 0 898 4615 59 MP stroke
c8
28 0 94 0 94 0 94 0 94 0 94 0 94 0 93 0 
94 0 94 0 94 0 94 0 94 1 94 0 94 0 94 0 
94 0 94 0 94 0 93 0 94 0 94 0 94 0 94 0 
94 0 94 0 94 0 94 0 94 0 94 1 94 1 94 5 
93 9 94 19 94 37 94 64 94 105 94 156 94 213 94 264 
94 295 94 290 94 239 94 147 93 26 94 -101 94 -207 94 -276 
94 -298 94 -279 94 -235 94 -179 94 -123 94 -79 94 -47 94 -25 
93 -13 71 -4 898 4609 59 MP stroke
c9
28 7 94 35 94 49 94 64 94 83 94 100 94 118 93 132 
94 139 94 138 94 129 94 107 94 78 94 41 94 0 94 -40 
94 -78 94 -107 94 -128 93 -139 94 -139 94 -132 94 -118 94 -101 
94 -82 94 -65 94 -48 94 -35 94 -25 94 -16 94 -11 94 -7 
93 -3 94 -3 94 -1 94 -1 94 0 94 0 94 0 94 0 
94 0 94 0 94 0 94 0 93 0 94 0 94 0 94 0 
94 0 94 0 94 0 94 0 94 0 94 0 94 0 94 0 
93 0 71 0 898 4614 59 MP stroke
c8
28 0 94 0 94 0 94 0 94 0 94 0 94 0 93 0 
94 0 94 0 94 0 94 0 94 1 94 0 94 0 94 0 
94 0 94 0 94 0 93 0 94 0 94 0 94 0 94 0 
94 0 94 0 94 0 94 0 94 0 94 1 94 1 94 5 
93 9 94 19 94 37 94 64 94 105 94 156 94 213 94 264 
94 295 94 290 94 239 94 147 93 26 94 -101 94 -207 94 -276 
94 -298 94 -279 94 -235 94 -179 94 -123 94 -79 94 -47 94 -25 
93 -13 71 -4 898 4609 59 MP stroke
c9
28 0 94 0 94 0 94 0 94 0 94 0 94 0 93 0 
94 0 94 0 94 0 94 1 94 4 94 10 94 24 94 50 
94 98 94 169 94 258 93 348 94 406 94 399 94 307 94 136 
94 -71 94 -258 94 -379 94 -413 94 -372 94 -288 94 -196 94 -118 
93 -64 94 -30 94 -14 94 -5 94 -2 94 0 94 0 94 0 
94 0 94 0 94 0 94 0 93 0 94 0 94 0 94 0 
94 0 94 0 94 0 94 -1 94 0 94 0 94 0 94 0 
93 0 71 0 898 4615 59 MP stroke
c8
28 0 94 0 94 0 94 0 94 0 94 0 94 0 93 0 
94 0 94 0 94 0 94 0 94 1 94 0 94 0 94 0 
94 0 94 0 94 0 93 0 94 0 94 0 94 0 94 0 
94 0 94 0 94 0 94 0 94 0 94 1 94 1 94 5 
93 9 94 19 94 37 94 64 94 105 94 156 94 213 94 264 
94 295 94 290 94 239 94 147 93 26 94 -101 94 -207 94 -276 
94 -298 94 -279 94 -235 94 -179 94 -123 94 -79 94 -47 94 -25 
93 -13 71 -4 898 4609 59 MP stroke
c9
28 0 94 0 94 0 94 0 94 0 94 0 94 0 93 0 
94 0 94 0 94 0 94 0 94 0 94 0 94 0 94 0 
94 0 94 1 94 0 93 0 94 0 94 0 94 0 94 0 
94 0 94 0 94 1 94 10 94 45 94 155 94 401 94 769 
93 1045 94 894 94 220 94 -600 94 -1039 94 -943 94 -582 94 -261 
94 -88 94 -22 94 -5 94 0 93 0 94 0 94 0 94 0 
94 0 94 0 94 0 94 -1 94 0 94 0 94 0 94 0 
93 0 71 0 898 4615 59 MP stroke
c8
28 0 94 0 94 0 94 0 94 0 94 0 94 0 93 0 
94 0 94 0 94 0 94 0 94 1 94 0 94 0 94 0 
94 0 94 0 94 0 93 0 94 0 94 0 94 0 94 0 
94 0 94 0 94 0 94 0 94 0 94 1 94 1 94 5 
93 9 94 19 94 37 94 64 94 105 94 156 94 213 94 264 
94 295 94 290 94 239 94 147 93 26 94 -101 94 -207 94 -276 
94 -298 94 -279 94 -235 94 -179 94 -123 94 -79 94 -47 94 -25 
93 -13 71 -4 898 4609 59 MP stroke
c9
28 0 94 0 94 0 94 0 94 0 94 0 94 0 93 1 
94 0 94 0 94 0 94 0 94 0 94 0 94 0 94 0 
94 2 94 10 94 43 93 145 94 370 94 711 94 986 94 895 
94 314 94 -464 94 -954 94 -950 94 -638 94 -313 94 -116 94 -33 
93 -7 94 -1 94 0 94 0 94 0 94 0 94 0 94 0 
94 0 94 0 94 -1 94 0 93 0 94 0 94 0 94 0 
94 0 94 0 94 0 94 0 94 0 94 0 94 0 94 0 
93 0 71 0 898 4615 59 MP stroke
gr

c9

end %%Color Dict

eplot
%%EndObject

epage
end

showpage

%%Trailer
%%EOF
