%!PS-Adobe-3.0 EPSF-3.0
%%Creator: MATLAB, The Mathworks, Inc.
%%Title: Pictures\main_compen05_norm_fusion_exp1.eps
%%CreationDate: 11/17/2007  01:47:05
%%DocumentNeededFonts: Helvetica
%%DocumentProcessColors: Cyan Magenta Yellow Black
%%LanguageLevel: 2
%%Pages: 1
%%BoundingBox:    76   191   506   609
%%EndComments

%%BeginProlog
% MathWorks dictionary
/MathWorks 160 dict begin
% definition operators
/bdef {bind def} bind def
/ldef {load def} bind def
/xdef {exch def} bdef
/xstore {exch store} bdef
% operator abbreviations
/c  /clip ldef
/cc /concat ldef
/cp /closepath ldef
/gr /grestore ldef
/gs /gsave ldef
/mt /moveto ldef
/np /newpath ldef
/cm /currentmatrix ldef
/sm /setmatrix ldef
/rm /rmoveto ldef
/rl /rlineto ldef
/s {show newpath} bdef
/sc {setcmykcolor} bdef
/sr /setrgbcolor ldef
/sg /setgray ldef
/w /setlinewidth ldef
/j /setlinejoin ldef
/cap /setlinecap ldef
/rc {rectclip} bdef
/rf {rectfill} bdef
% page state control
/pgsv () def
/bpage {/pgsv save def} bdef
/epage {pgsv restore} bdef
/bplot /gsave ldef
/eplot {stroke grestore} bdef
% orientation switch
/portraitMode 0 def /landscapeMode 1 def /rotateMode 2 def
% coordinate system mappings
/dpi2point 0 def
% font control
/FontSize 0 def
/FMS {/FontSize xstore findfont [FontSize 0 0 FontSize neg 0 0]
  makefont setfont} bdef
/ISOLatin1Encoding where {pop /WindowsLatin1Encoding 256 array bdef
ISOLatin1Encoding WindowsLatin1Encoding copy pop
/.notdef/.notdef/quotesinglbase/florin/quotedblbase/ellipsis/dagger
/daggerdbl/circumflex/perthousand/Scaron/guilsinglleft/OE/.notdef/.notdef
/.notdef/.notdef/quoteleft/quoteright/quotedblleft/quotedblright/bullet
/endash/emdash/tilde/trademark/scaron/guilsinglright/oe/.notdef/.notdef
/Ydieresis WindowsLatin1Encoding 128 32 getinterval astore pop}
{/WindowsLatin1Encoding StandardEncoding bdef} ifelse
/reencode {exch dup where {pop load} {pop StandardEncoding} ifelse
  exch dup 3 1 roll findfont dup length dict begin
  { 1 index /FID ne {def}{pop pop} ifelse } forall
  /Encoding exch def currentdict end definefont pop} bdef
/isroman {findfont /CharStrings get /Agrave known} bdef
/FMSR {3 1 roll 1 index dup isroman {reencode} {pop pop} ifelse
  exch FMS} bdef
/csm {1 dpi2point div -1 dpi2point div scale neg translate
 dup landscapeMode eq {pop -90 rotate}
  {rotateMode eq {90 rotate} if} ifelse} bdef
% line types: solid, dotted, dashed, dotdash
/SO { [] 0 setdash } bdef
/DO { [.5 dpi2point mul 4 dpi2point mul] 0 setdash } bdef
/DA { [6 dpi2point mul] 0 setdash } bdef
/DD { [.5 dpi2point mul 4 dpi2point mul 6 dpi2point mul 4
  dpi2point mul] 0 setdash } bdef
% macros for lines and objects
/L {lineto stroke} bdef
/MP {3 1 roll moveto 1 sub {rlineto} repeat} bdef
/AP {{rlineto} repeat} bdef
/PDlw -1 def
/W {/PDlw currentlinewidth def setlinewidth} def
/PP {closepath eofill} bdef
/DP {closepath stroke} bdef
/MR {4 -2 roll moveto dup  0 exch rlineto exch 0 rlineto
  neg 0 exch rlineto closepath} bdef
/FR {MR stroke} bdef
/PR {MR fill} bdef
/L1i {{currentfile picstr readhexstring pop} image} bdef
/tMatrix matrix def
/MakeOval {newpath tMatrix currentmatrix pop translate scale
0 0 1 0 360 arc tMatrix setmatrix} bdef
/FO {MakeOval stroke} bdef
/PO {MakeOval fill} bdef
/PD {currentlinewidth 2 div 0 360 arc fill
   PDlw -1 eq not {PDlw w /PDlw -1 def} if} def
/FA {newpath tMatrix currentmatrix pop translate scale
  0 0 1 5 -2 roll arc tMatrix setmatrix stroke} bdef
/PA {newpath tMatrix currentmatrix pop	translate 0 0 moveto scale
  0 0 1 5 -2 roll arc closepath tMatrix setmatrix fill} bdef
/FAn {newpath tMatrix currentmatrix pop translate scale
  0 0 1 5 -2 roll arcn tMatrix setmatrix stroke} bdef
/PAn {newpath tMatrix currentmatrix pop translate 0 0 moveto scale
  0 0 1 5 -2 roll arcn closepath tMatrix setmatrix fill} bdef
/vradius 0 def /hradius 0 def /lry 0 def
/lrx 0 def /uly 0 def /ulx 0 def /rad 0 def
/MRR {/vradius xdef /hradius xdef /lry xdef /lrx xdef /uly xdef
  /ulx xdef newpath tMatrix currentmatrix pop ulx hradius add uly
  vradius add translate hradius vradius scale 0 0 1 180 270 arc 
  tMatrix setmatrix lrx hradius sub uly vradius add translate
  hradius vradius scale 0 0 1 270 360 arc tMatrix setmatrix
  lrx hradius sub lry vradius sub translate hradius vradius scale
  0 0 1 0 90 arc tMatrix setmatrix ulx hradius add lry vradius sub
  translate hradius vradius scale 0 0 1 90 180 arc tMatrix setmatrix
  closepath} bdef
/FRR {MRR stroke } bdef
/PRR {MRR fill } bdef
/MlrRR {/lry xdef /lrx xdef /uly xdef /ulx xdef /rad lry uly sub 2 div def
  newpath tMatrix currentmatrix pop ulx rad add uly rad add translate
  rad rad scale 0 0 1 90 270 arc tMatrix setmatrix lrx rad sub lry rad
  sub translate rad rad scale 0 0 1 270 90 arc tMatrix setmatrix
  closepath} bdef
/FlrRR {MlrRR stroke } bdef
/PlrRR {MlrRR fill } bdef
/MtbRR {/lry xdef /lrx xdef /uly xdef /ulx xdef /rad lrx ulx sub 2 div def
  newpath tMatrix currentmatrix pop ulx rad add uly rad add translate
  rad rad scale 0 0 1 180 360 arc tMatrix setmatrix lrx rad sub lry rad
  sub translate rad rad scale 0 0 1 0 180 arc tMatrix setmatrix
  closepath} bdef
/FtbRR {MtbRR stroke } bdef
/PtbRR {MtbRR fill } bdef
/stri 6 array def /dtri 6 array def
/smat 6 array def /dmat 6 array def
/tmat1 6 array def /tmat2 6 array def /dif 3 array def
/asub {/ind2 exch def /ind1 exch def dup dup
  ind1 get exch ind2 get sub exch } bdef
/tri_to_matrix {
  2 0 asub 3 1 asub 4 0 asub 5 1 asub
  dup 0 get exch 1 get 7 -1 roll astore } bdef
/compute_transform {
  dmat dtri tri_to_matrix tmat1 invertmatrix 
  smat stri tri_to_matrix tmat2 concatmatrix } bdef
/ds {stri astore pop} bdef
/dt {dtri astore pop} bdef
/db {2 copy /cols xdef /rows xdef mul dup 3 mul string
  currentfile 
  3 index 0 eq {/ASCIIHexDecode filter}
  {/ASCII85Decode filter 3 index 2 eq {/RunLengthDecode filter} if }
  ifelse exch readstring pop
  dup 0 3 index getinterval /rbmap xdef
  dup 2 index dup getinterval /gbmap xdef
  1 index dup 2 mul exch getinterval /bbmap xdef pop pop}bdef
/it {gs np dtri aload pop moveto lineto lineto cp c
  cols rows 8 compute_transform 
  rbmap gbmap bbmap true 3 colorimage gr}bdef
/il {newpath moveto lineto stroke}bdef
currentdict end def
%%EndProlog

%%BeginSetup
MathWorks begin

0 cap

end
%%EndSetup

%%Page: 1 1
%%BeginPageSetup
%%PageBoundingBox:    76   191   506   609
MathWorks begin
bpage
%%EndPageSetup

%%BeginObject: obj1
bplot

/dpi2point 12 def
portraitMode 0216 7344 csm

  705    28  5158  5018 rc
85 dict begin %Colortable dictionary
/c0 { 0.000000 0.000000 0.000000 sr} bdef
/c1 { 1.000000 1.000000 1.000000 sr} bdef
/c2 { 0.900000 0.000000 0.000000 sr} bdef
/c3 { 0.000000 0.820000 0.000000 sr} bdef
/c4 { 0.000000 0.000000 0.800000 sr} bdef
/c5 { 0.910000 0.820000 0.320000 sr} bdef
/c6 { 1.000000 0.260000 0.820000 sr} bdef
/c7 { 0.000000 0.820000 0.820000 sr} bdef
c0
1 j
1 sg
   0    0 6919 5187 rf
6 w
0 4227 4387 0 0 -4227 1386 4616 4 MP
PP
-4387 0 0 4227 4387 0 0 -4227 1386 4616 5 MP stroke
4 w
DO
0 sg
1735 4616 mt 1735  389 L
1735  389 mt 1735  389 L
2084 4616 mt 2084  389 L
2084  389 mt 2084  389 L
2581 4616 mt 2581  389 L
2581  389 mt 2581  389 L
2991 4616 mt 2991  389 L
2991  389 mt 2991  389 L
3439 4616 mt 3439  389 L
3439  389 mt 3439  389 L
4111 4616 mt 4111  389 L
4111  389 mt 4111  389 L
4708 4616 mt 4708  389 L
4708  389 mt 4708  389 L
5431 4616 mt 5431  389 L
5431  389 mt 5431  389 L
1386 4276 mt 5773 4276 L
5773 4276 mt 5773 4276 L
1386 3928 mt 5773 3928 L
5773 3928 mt 5773 3928 L
1386 3431 mt 5773 3431 L
5773 3431 mt 5773 3431 L
1386 3021 mt 5773 3021 L
5773 3021 mt 5773 3021 L
1386 2573 mt 5773 2573 L
5773 2573 mt 5773 2573 L
1386 1901 mt 5773 1901 L
5773 1901 mt 5773 1901 L
1386 1304 mt 5773 1304 L
5773 1304 mt 5773 1304 L
1386  581 mt 5773  581 L
5773  581 mt 5773  581 L
SO
6 w
1386 4616 mt 5773 4616 L
1386 4616 mt 1386  389 L
1735 4616 mt 1735 4572 L
%%IncludeResource: font Helvetica
/Helvetica /WindowsLatin1Encoding 168 FMSR

1549 4806 mt 
(  0.1 ) s
2084 4616 mt 2084 4572 L
1898 4806 mt 
(  0.2 ) s
2581 4616 mt 2581 4572 L
2395 4806 mt 
(  0.5 ) s
2991 4616 mt 2991 4572 L
2828 4806 mt 
(   1  ) s
3439 4616 mt 3439 4572 L
3276 4806 mt 
(   2  ) s
4111 4616 mt 4111 4572 L
3948 4806 mt 
(   5  ) s
4708 4616 mt 4708 4572 L
4522 4806 mt 
(  10  ) s
5431 4616 mt 5431 4572 L
5245 4806 mt 
(  20  ) s
1386 4276 mt 1430 4276 L
 978 4338 mt 
(   0.1) s
1386 3928 mt 1430 3928 L
 978 3990 mt 
(   0.2) s
1386 3431 mt 1430 3431 L
 978 3493 mt 
(   0.5) s
1386 3021 mt 1430 3021 L
1025 3083 mt 
(     1) s
1386 2573 mt 1430 2573 L
1025 2635 mt 
(     2) s
1386 1901 mt 1430 1901 L
1025 1963 mt 
(     5) s
1386 1304 mt 1430 1304 L
 978 1366 mt 
(    10) s
1386  581 mt 1430  581 L
 978  643 mt 
(    20) s
gs 1386 389 4388 4228 rc
gr

0 j
84 111 -84 111 -84 -111 84 -111 2579 2286 5 MP
/c8 { 0.000000 0.000000 1.000000 sr} bdef
c8
DP
gs 1386 389 4388 4228 rc
gr

0 -132 -132 0 0 132 132 0 2253 2815 5 MP
/c9 { 1.000000 0.000000 0.000000 sr} bdef
c9
DP
gs 1386 389 4388 4228 rc
gr

1940 2419 mt 2108 2419 L
2024 2335 mt 2024 2503 L
1965 2360 mt 2083 2478 L
2083 2360 mt 1965 2478 L
gs 1386 389 4388 4228 rc
gr

-97 167 -97 -167 194 0 2822 2286 4 MP
0 sg
DP
gs 1386 389 4388 4228 rc
gr

97 167 -194 0 97 -167 2579 2286 4 MP
DP
gs 1386 389 4388 4228 rc
c8
-55 -101 -80 -72 -80 -64 -64 -108 -69 -83 -69 -80 -68 -79 -56 -100 
-72 -62 -88 -26 -65 -73 -51 -95 -87 -27 -48 -97 -59 -74 -67 -58 
-21 -129 -76 -41 -80 -35 -43 -87 -50 -76 -63 -57 -47 -77 -27 -99 
-52 -67 -45 -75 -26 -92 -44 -72 -39 -77 -27 -85 -75 -40 -79 -37 
-85 -34 -95 -27 -104 -23 -108 -21 -55 -66 -59 -62 -69 -56 -73 -54 
-58 -66 -65 -61 -68 -61 -78 -56 -83 -54 -97 -49 -72 -65 -21 -90 
-20 -90 -17 -91 -16 -90 -15 -90 -12 -91 -11 -90 -9 -89 -4 -44 
4552 4617 57 MP stroke
c9
-44 -74 -60 -108 -77 -53 -38 -151 -65 -75 -62 -76 -65 -65 -57 -79 
-57 -77 -69 -49 -26 -130 -58 -64 -44 -86 -38 -93 -43 -81 -45 -75 
-30 -94 -16 -111 -9 -117 -31 -80 -11 -105 -26 -82 -18 -88 -18 -86 
-25 -76 -21 -77 -24 -72 -36 -58 -28 -66 -46 -47 -40 -53 -48 -45 
-46 -48 -45 -49 -24 -65 -23 -65 -21 -66 -20 -65 -19 -66 -17 -65 
-16 -66 -15 -65 -13 -65 -12 -65 -10 -65 -10 -65 -1 -14 2953 4617 48 MP stroke
DA
-11 -10 -48 -135 -54 -109 -40 -137 -69 -54 -51 -95 -53 -85 -52 -83 
-55 -72 -61 -57 -59 -58 -30 -110 -51 -68 -59 -51 -34 -92 -58 -50 
-59 -48 -65 -40 -22 -98 -47 -62 -60 -43 -60 -44 -53 -53 -63 -40 
-47 -59 -24 -83 -31 -73 -48 -56 -45 -57 -47 -55 -58 -45 -47 -56 
-39 -62 -35 -65 -46 -56 -47 -55 -45 -57 -47 -55 -24 -72 -21 -71 
-21 -72 -18 -72 -18 -72 -16 -72 -14 -72 -13 -72 -12 -71 -10 -72 
-9 -71 0 -3 3382 4617 51 MP stroke
SO
0 sg
-8 -4 -90 -66 -81 -91 -80 -86 -86 -65 -87 -57 -71 -97 -50 -139 
-54 -123 -70 -79 -55 -107 -49 -114 -70 -68 -88 -35 -73 -60 -77 -53 
-62 -76 -39 -110 -86 -35 -50 -89 -54 -80 -51 -82 -25 -115 -62 -63 
-61 -65 -34 -95 -51 -72 -12 -115 -6 -116 -26 -93 -33 -84 -22 -93 
-19 -92 -19 -91 -11 -95 -6 -97 -18 -85 -23 -79 -25 -77 -21 -79 
-19 -79 -22 -75 -22 -75 -21 -75 -19 -75 -17 -74 -16 -75 -15 -75 
-13 -74 -12 -75 -10 -74 -9 -74 0 -6 3564 4617 54 MP stroke
DA
-55 -101 -80 -72 -80 -64 -63 -108 -70 -83 -69 -80 -68 -79 -56 -100 
-72 -62 -88 -25 -65 -74 -52 -95 -86 -27 -48 -97 -59 -73 -67 -59 
-21 -129 -76 -41 -81 -33 -42 -89 -51 -75 -63 -58 -46 -77 -28 -98 
-52 -67 -44 -75 -27 -93 -44 -71 -39 -77 -26 -86 -89 -27 -91 -27 
-91 -29 -91 -32 -94 -31 -92 -35 -65 -57 -65 -59 -65 -59 -63 -62 
-85 -48 -84 -50 -81 -54 -76 -58 -74 -62 -71 -64 -46 -78 -21 -90 
-20 -90 -17 -91 -16 -90 -15 -90 -12 -91 -11 -90 -9 -89 -4 -44 
4552 4617 57 MP stroke
gr

DA
3273 4984 mt 
(FAR [%]) s
 886 2820 mt  -90 rotate
(FRR [%]) s
90 rotate
3275  257 mt 
(Exp 1: 1) s
%%IncludeResource: font Helvetica
/Helvetica /WindowsLatin1Encoding 120 FMSR

1369 4659 mt 
( ) s
5757  431 mt 
( ) s
SO
1 sg
0 912 1825 0 0 -912 3888 1361 4 MP
PP
-1825 0 0 912 1825 0 0 -912 3888 1361 5 MP stroke
4 w
DO
SO
6 w
0 sg
3888  449 mt 5713  449 L
3888 1361 mt 5713 1361 L
5713 1361 mt 5713  449 L
3888 1361 mt 3888  449 L
3888 1361 mt 5713 1361 L
3888 1361 mt 3888  449 L
3888  449 mt 5713  449 L
3888 1361 mt 5713 1361 L
5713 1361 mt 5713  449 L
3888 1361 mt 3888  449 L
%%IncludeResource: font Helvetica
/Helvetica /WindowsLatin1Encoding 144 FMSR

4372  607 mt 
(baseline\(LR\)) s
gs 3888 449 1826 913 rc
gr

gs 3979 386 339 339 rc
84 111 -84 111 -84 -111 84 -111 4148 666 5 MP
c8
DP
gr

c8
gs 3888 449 1826 913 rc
gr

0 sg
4372  782 mt 
(MS-LLR\(LR\)) s
gs 3888 449 1826 913 rc
gs 3979 561 339 339 rc
0 -132 -132 0 0 132 132 0 4082 664 5 MP
c9
DP
gr

c9
gr

c9
0 sg
4372  957 mt 
(F-norm\(LR\)) s
gs 3888 449 1826 913 rc
gs 3979 736 339 339 rc
c9
4064  905 mt 4232  905 L
4148  821 mt 4148  989 L
4089  846 mt 4207  964 L
4207  846 mt 4089  964 L
gr

c9
gr

c9
0 sg
4372 1131 mt 
(Z-norm\(LR\)) s
gs 3888 449 1826 913 rc
gs 3979 910 339 339 rc
-97 167 -97 -167 194 0 4051 1135 4 MP
DP
gr

gr

4372 1306 mt 
(baseline-norm\(sum\)) s
gs 3888 449 1826 913 rc
gr

gs 3979 1085 339 339 rc
97 167 -194 0 97 -167 4148 1365 4 MP
DP
gr

gs 3888 449 1826 913 rc
gr


end %%Color Dict

eplot
%%EndObject

epage
end

showpage

%%Trailer
%%EOF
