%!PS-Adobe-3.0 EPSF-3.0
%%Creator: MATLAB, The Mathworks, Inc.
%%Title: Pictures\main_compen05_norm_fusion_exp7.eps
%%CreationDate: 11/17/2007  01:47:07
%%DocumentNeededFonts: Helvetica
%%DocumentProcessColors: Cyan Magenta Yellow Black
%%LanguageLevel: 2
%%Pages: 1
%%BoundingBox:    84   191   499   609
%%EndComments

%%BeginProlog
% MathWorks dictionary
/MathWorks 160 dict begin
% definition operators
/bdef {bind def} bind def
/ldef {load def} bind def
/xdef {exch def} bdef
/xstore {exch store} bdef
% operator abbreviations
/c  /clip ldef
/cc /concat ldef
/cp /closepath ldef
/gr /grestore ldef
/gs /gsave ldef
/mt /moveto ldef
/np /newpath ldef
/cm /currentmatrix ldef
/sm /setmatrix ldef
/rm /rmoveto ldef
/rl /rlineto ldef
/s {show newpath} bdef
/sc {setcmykcolor} bdef
/sr /setrgbcolor ldef
/sg /setgray ldef
/w /setlinewidth ldef
/j /setlinejoin ldef
/cap /setlinecap ldef
/rc {rectclip} bdef
/rf {rectfill} bdef
% page state control
/pgsv () def
/bpage {/pgsv save def} bdef
/epage {pgsv restore} bdef
/bplot /gsave ldef
/eplot {stroke grestore} bdef
% orientation switch
/portraitMode 0 def /landscapeMode 1 def /rotateMode 2 def
% coordinate system mappings
/dpi2point 0 def
% font control
/FontSize 0 def
/FMS {/FontSize xstore findfont [FontSize 0 0 FontSize neg 0 0]
  makefont setfont} bdef
/ISOLatin1Encoding where {pop /WindowsLatin1Encoding 256 array bdef
ISOLatin1Encoding WindowsLatin1Encoding copy pop
/.notdef/.notdef/quotesinglbase/florin/quotedblbase/ellipsis/dagger
/daggerdbl/circumflex/perthousand/Scaron/guilsinglleft/OE/.notdef/.notdef
/.notdef/.notdef/quoteleft/quoteright/quotedblleft/quotedblright/bullet
/endash/emdash/tilde/trademark/scaron/guilsinglright/oe/.notdef/.notdef
/Ydieresis WindowsLatin1Encoding 128 32 getinterval astore pop}
{/WindowsLatin1Encoding StandardEncoding bdef} ifelse
/reencode {exch dup where {pop load} {pop StandardEncoding} ifelse
  exch dup 3 1 roll findfont dup length dict begin
  { 1 index /FID ne {def}{pop pop} ifelse } forall
  /Encoding exch def currentdict end definefont pop} bdef
/isroman {findfont /CharStrings get /Agrave known} bdef
/FMSR {3 1 roll 1 index dup isroman {reencode} {pop pop} ifelse
  exch FMS} bdef
/csm {1 dpi2point div -1 dpi2point div scale neg translate
 dup landscapeMode eq {pop -90 rotate}
  {rotateMode eq {90 rotate} if} ifelse} bdef
% line types: solid, dotted, dashed, dotdash
/SO { [] 0 setdash } bdef
/DO { [.5 dpi2point mul 4 dpi2point mul] 0 setdash } bdef
/DA { [6 dpi2point mul] 0 setdash } bdef
/DD { [.5 dpi2point mul 4 dpi2point mul 6 dpi2point mul 4
  dpi2point mul] 0 setdash } bdef
% macros for lines and objects
/L {lineto stroke} bdef
/MP {3 1 roll moveto 1 sub {rlineto} repeat} bdef
/AP {{rlineto} repeat} bdef
/PDlw -1 def
/W {/PDlw currentlinewidth def setlinewidth} def
/PP {closepath eofill} bdef
/DP {closepath stroke} bdef
/MR {4 -2 roll moveto dup  0 exch rlineto exch 0 rlineto
  neg 0 exch rlineto closepath} bdef
/FR {MR stroke} bdef
/PR {MR fill} bdef
/L1i {{currentfile picstr readhexstring pop} image} bdef
/tMatrix matrix def
/MakeOval {newpath tMatrix currentmatrix pop translate scale
0 0 1 0 360 arc tMatrix setmatrix} bdef
/FO {MakeOval stroke} bdef
/PO {MakeOval fill} bdef
/PD {currentlinewidth 2 div 0 360 arc fill
   PDlw -1 eq not {PDlw w /PDlw -1 def} if} def
/FA {newpath tMatrix currentmatrix pop translate scale
  0 0 1 5 -2 roll arc tMatrix setmatrix stroke} bdef
/PA {newpath tMatrix currentmatrix pop	translate 0 0 moveto scale
  0 0 1 5 -2 roll arc closepath tMatrix setmatrix fill} bdef
/FAn {newpath tMatrix currentmatrix pop translate scale
  0 0 1 5 -2 roll arcn tMatrix setmatrix stroke} bdef
/PAn {newpath tMatrix currentmatrix pop translate 0 0 moveto scale
  0 0 1 5 -2 roll arcn closepath tMatrix setmatrix fill} bdef
/vradius 0 def /hradius 0 def /lry 0 def
/lrx 0 def /uly 0 def /ulx 0 def /rad 0 def
/MRR {/vradius xdef /hradius xdef /lry xdef /lrx xdef /uly xdef
  /ulx xdef newpath tMatrix currentmatrix pop ulx hradius add uly
  vradius add translate hradius vradius scale 0 0 1 180 270 arc 
  tMatrix setmatrix lrx hradius sub uly vradius add translate
  hradius vradius scale 0 0 1 270 360 arc tMatrix setmatrix
  lrx hradius sub lry vradius sub translate hradius vradius scale
  0 0 1 0 90 arc tMatrix setmatrix ulx hradius add lry vradius sub
  translate hradius vradius scale 0 0 1 90 180 arc tMatrix setmatrix
  closepath} bdef
/FRR {MRR stroke } bdef
/PRR {MRR fill } bdef
/MlrRR {/lry xdef /lrx xdef /uly xdef /ulx xdef /rad lry uly sub 2 div def
  newpath tMatrix currentmatrix pop ulx rad add uly rad add translate
  rad rad scale 0 0 1 90 270 arc tMatrix setmatrix lrx rad sub lry rad
  sub translate rad rad scale 0 0 1 270 90 arc tMatrix setmatrix
  closepath} bdef
/FlrRR {MlrRR stroke } bdef
/PlrRR {MlrRR fill } bdef
/MtbRR {/lry xdef /lrx xdef /uly xdef /ulx xdef /rad lrx ulx sub 2 div def
  newpath tMatrix currentmatrix pop ulx rad add uly rad add translate
  rad rad scale 0 0 1 180 360 arc tMatrix setmatrix lrx rad sub lry rad
  sub translate rad rad scale 0 0 1 0 180 arc tMatrix setmatrix
  closepath} bdef
/FtbRR {MtbRR stroke } bdef
/PtbRR {MtbRR fill } bdef
/stri 6 array def /dtri 6 array def
/smat 6 array def /dmat 6 array def
/tmat1 6 array def /tmat2 6 array def /dif 3 array def
/asub {/ind2 exch def /ind1 exch def dup dup
  ind1 get exch ind2 get sub exch } bdef
/tri_to_matrix {
  2 0 asub 3 1 asub 4 0 asub 5 1 asub
  dup 0 get exch 1 get 7 -1 roll astore } bdef
/compute_transform {
  dmat dtri tri_to_matrix tmat1 invertmatrix 
  smat stri tri_to_matrix tmat2 concatmatrix } bdef
/ds {stri astore pop} bdef
/dt {dtri astore pop} bdef
/db {2 copy /cols xdef /rows xdef mul dup 3 mul string
  currentfile 
  3 index 0 eq {/ASCIIHexDecode filter}
  {/ASCII85Decode filter 3 index 2 eq {/RunLengthDecode filter} if }
  ifelse exch readstring pop
  dup 0 3 index getinterval /rbmap xdef
  dup 2 index dup getinterval /gbmap xdef
  1 index dup 2 mul exch getinterval /bbmap xdef pop pop}bdef
/it {gs np dtri aload pop moveto lineto lineto cp c
  cols rows 8 compute_transform 
  rbmap gbmap bbmap true 3 colorimage gr}bdef
/il {newpath moveto lineto stroke}bdef
currentdict end def
%%EndProlog

%%BeginSetup
MathWorks begin

0 cap

end
%%EndSetup

%%Page: 1 1
%%BeginPageSetup
%%PageBoundingBox:    84   191   499   609
MathWorks begin
bpage
%%EndPageSetup

%%BeginObject: obj1
bplot

/dpi2point 12 def
portraitMode 0216 7344 csm

  796    28  4977  5018 rc
85 dict begin %Colortable dictionary
/c0 { 0.000000 0.000000 0.000000 sr} bdef
/c1 { 1.000000 1.000000 1.000000 sr} bdef
/c2 { 0.900000 0.000000 0.000000 sr} bdef
/c3 { 0.000000 0.820000 0.000000 sr} bdef
/c4 { 0.000000 0.000000 0.800000 sr} bdef
/c5 { 0.910000 0.820000 0.320000 sr} bdef
/c6 { 1.000000 0.260000 0.820000 sr} bdef
/c7 { 0.000000 0.820000 0.820000 sr} bdef
c0
1 j
1 sg
   0    0 6919 5187 rf
6 w
0 4227 4207 0 0 -4227 1476 4616 4 MP
PP
-4207 0 0 4227 4207 0 0 -4227 1476 4616 5 MP stroke
4 w
DO
0 sg
1841 4616 mt 1841  389 L
1841  389 mt 1841  389 L
2205 4616 mt 2205  389 L
2205  389 mt 2205  389 L
2724 4616 mt 2724  389 L
2724  389 mt 2724  389 L
3153 4616 mt 3153  389 L
3153  389 mt 3153  389 L
3621 4616 mt 3621  389 L
3621  389 mt 3621  389 L
4323 4616 mt 4323  389 L
4323  389 mt 4323  389 L
4946 4616 mt 4946  389 L
4946  389 mt 4946  389 L
1476 4261 mt 5683 4261 L
5683 4261 mt 5683 4261 L
1476 3897 mt 5683 3897 L
5683 3897 mt 5683 3897 L
1476 3378 mt 5683 3378 L
5683 3378 mt 5683 3378 L
1476 2950 mt 5683 2950 L
5683 2950 mt 5683 2950 L
1476 2482 mt 5683 2482 L
5683 2482 mt 5683 2482 L
1476 1780 mt 5683 1780 L
5683 1780 mt 5683 1780 L
1476 1156 mt 5683 1156 L
5683 1156 mt 5683 1156 L
1476  401 mt 5683  401 L
5683  401 mt 5683  401 L
SO
6 w
1476 4616 mt 5683 4616 L
1476 4616 mt 1476  389 L
1841 4616 mt 1841 4573 L
%%IncludeResource: font Helvetica
/Helvetica /WindowsLatin1Encoding 168 FMSR

1655 4806 mt 
(  0.1 ) s
2205 4616 mt 2205 4573 L
2019 4806 mt 
(  0.2 ) s
2724 4616 mt 2724 4573 L
2538 4806 mt 
(  0.5 ) s
3153 4616 mt 3153 4573 L
2990 4806 mt 
(   1  ) s
3621 4616 mt 3621 4573 L
3458 4806 mt 
(   2  ) s
4323 4616 mt 4323 4573 L
4160 4806 mt 
(   5  ) s
4946 4616 mt 4946 4573 L
4760 4806 mt 
(  10  ) s
1476 4261 mt 1519 4261 L
1069 4323 mt 
(   0.1) s
1476 3897 mt 1519 3897 L
1069 3959 mt 
(   0.2) s
1476 3378 mt 1519 3378 L
1069 3440 mt 
(   0.5) s
1476 2950 mt 1519 2950 L
1116 3012 mt 
(     1) s
1476 2482 mt 1519 2482 L
1116 2544 mt 
(     2) s
1476 1780 mt 1519 1780 L
1116 1842 mt 
(     5) s
1476 1156 mt 1519 1156 L
1069 1218 mt 
(    10) s
1476  401 mt 1519  401 L
1069  463 mt 
(    20) s
gs 1476 389 4208 4228 rc
gr

0 j
84 111 -84 111 -84 -111 84 -111 2629 2361 5 MP
/c8 { 0.000000 0.000000 1.000000 sr} bdef
c8
DP
gs 1476 389 4208 4228 rc
gr

0 -132 -132 0 0 132 132 0 2087 2416 5 MP
/c9 { 1.000000 0.000000 0.000000 sr} bdef
c9
DP
gs 1476 389 4208 4228 rc
gr

1802 2576 mt 1970 2576 L
1886 2492 mt 1886 2660 L
1827 2517 mt 1945 2635 L
1945 2517 mt 1827 2635 L
gs 1476 389 4208 4228 rc
gr

-97 167 -97 -167 194 0 2499 2538 4 MP
0 sg
DP
gs 1476 389 4208 4228 rc
gr

97 167 -194 0 97 -167 2858 1569 4 MP
DP
gs 1476 389 4208 4228 rc
c8
-26 -16 -90 -47 -66 -116 -88 -45 -86 -50 -74 -76 -59 -112 -57 -106 
-76 -59 -65 -82 -26 -154 -48 -103 -69 -61 -80 -40 -43 -101 -61 -69 
-61 -68 -31 -110 -59 -65 -50 -78 -68 -50 -33 -96 -75 -42 -77 -39 
-78 -40 -77 -42 -82 -37 -7 -115 -7 -113 -39 -78 -60 -57 -73 -46 
-76 -45 -68 -52 -74 -47 -81 -44 -91 -39 -103 -31 -114 -26 -68 -61 
-53 -72 -51 -72 -53 -72 -52 -73 -55 -72 -23 -89 -21 -89 -20 -89 
-18 -89 -16 -89 -14 -89 -13 -89 -10 -89 -10 -88 -2 -23 4453 4617 56 MP stroke
c9
-13 -17 -69 -70 -59 -95 -57 -92 -40 -125 -79 -32 -51 -90 -55 -77 
-39 -106 -71 -38 -71 -39 -25 -119 -35 -98 -28 -103 -15 -118 -29 -92 
-45 -66 -24 -93 -24 -89 -34 -74 -23 -84 -28 -76 -28 -74 -27 -74 
-36 -61 -44 -52 -40 -57 -45 -50 -46 -49 -50 -47 -54 -42 -63 -36 
-41 -55 -25 -67 -23 -68 -21 -67 -21 -68 -19 -67 -17 -68 -16 -68 
-15 -67 -13 -68 -12 -67 -11 -67 -8 -58 3065 4617 46 MP stroke
DA
-40 -18 -79 -35 -38 -135 -38 -127 -51 -87 -31 -126 -33 -114 -25 -124 
-31 -104 -46 -71 -47 -68 -52 -57 -29 -91 -50 -56 -66 -30 -72 -23 
-72 -24 -81 -13 -82 -14 -88 -10 -91 -8 -21 -91 -8 -103 -17 -90 
-7 -97 -25 -77 -38 -61 -39 -60 -48 -52 -50 -49 -48 -52 -54 -47 
-64 -40 -31 -66 -24 -70 -22 -70 -21 -71 -20 -70 -18 -71 -16 -70 
-15 -71 -14 -70 -12 -70 -11 -70 -10 -70 -1 -10 3252 4617 47 MP stroke
SO
0 sg
-51 -47 -46 -160 -78 -61 -68 -82 -86 -33 -69 -74 -84 -36 -58 -93 
-79 -44 -56 -89 -51 -95 -59 -76 -64 -65 -63 -65 -28 -119 -57 -69 
-35 -99 -61 -60 -29 -102 -54 -65 -63 -52 -57 -60 -49 -69 -27 -93 
-68 -45 -71 -42 -77 -37 -71 -43 -54 -62 -48 -66 -40 -75 -21 -88 
-21 -87 -32 -77 -45 -66 -44 -66 -47 -63 -45 -65 -52 -60 -34 -73 
-23 -78 -22 -79 -20 -78 -18 -79 -17 -78 -16 -79 -14 -78 -12 -79 
-11 -78 -10 -78 -1 -18 3782 4617 52 MP stroke
DA
-19 -28 -67 -141 -86 -73 -91 -54 -92 -51 -84 -68 -84 -66 -82 -67 
-100 -29 -95 -38 -85 -58 -61 -104 -54 -111 -73 -72 -83 -56 -90 -42 
-80 -60 -68 -77 -50 -101 -45 -104 -52 -92 -63 -75 -95 -35 -88 -45 
-78 -58 -77 -59 -82 -53 -75 -62 -11 -128 -43 -91 -59 -76 -61 -72 
-66 -69 -61 -73 -74 -62 -79 -60 -73 -64 -37 -92 -37 -91 -55 -78 
-49 -82 -43 -85 -52 -80 -45 -84 -42 -85 -38 -88 -29 -91 -22 -95 
-20 -94 -19 -94 -16 -95 -15 -94 -13 -94 -12 -94 -9 -94 -4 -44 
4780 4617 57 MP stroke
gr

DA
3272 4984 mt 
(FAR [%]) s
 977 2820 mt  -90 rotate
(FRR [%]) s
90 rotate
3088  257 mt 
(Exp 7: 1  2  3) s
%%IncludeResource: font Helvetica
/Helvetica /WindowsLatin1Encoding 120 FMSR

1459 4659 mt 
( ) s
5667  431 mt 
( ) s
SO
1 sg
0 912 1825 0 0 -912 3798 1361 4 MP
PP
-1825 0 0 912 1825 0 0 -912 3798 1361 5 MP stroke
4 w
DO
SO
6 w
0 sg
3798  449 mt 5623  449 L
3798 1361 mt 5623 1361 L
5623 1361 mt 5623  449 L
3798 1361 mt 3798  449 L
3798 1361 mt 5623 1361 L
3798 1361 mt 3798  449 L
3798  449 mt 5623  449 L
3798 1361 mt 5623 1361 L
5623 1361 mt 5623  449 L
3798 1361 mt 3798  449 L
%%IncludeResource: font Helvetica
/Helvetica /WindowsLatin1Encoding 144 FMSR

4282  607 mt 
(baseline\(LR\)) s
gs 3798 449 1826 913 rc
gr

gs 3889 386 339 339 rc
84 111 -84 111 -84 -111 84 -111 4058 666 5 MP
c8
DP
gr

c8
gs 3798 449 1826 913 rc
gr

0 sg
4282  782 mt 
(MS-LLR\(LR\)) s
gs 3798 449 1826 913 rc
gs 3889 561 339 339 rc
0 -132 -132 0 0 132 132 0 3992 664 5 MP
c9
DP
gr

c9
gr

c9
0 sg
4282  957 mt 
(F-norm\(LR\)) s
gs 3798 449 1826 913 rc
gs 3889 736 339 339 rc
c9
3974  905 mt 4142  905 L
4058  821 mt 4058  989 L
3999  846 mt 4117  964 L
4117  846 mt 3999  964 L
gr

c9
gr

c9
0 sg
4282 1131 mt 
(Z-norm\(LR\)) s
gs 3798 449 1826 913 rc
gs 3889 910 339 339 rc
-97 167 -97 -167 194 0 3961 1135 4 MP
DP
gr

gr

4282 1306 mt 
(baseline-norm\(sum\)) s
gs 3798 449 1826 913 rc
gr

gs 3889 1085 339 339 rc
97 167 -194 0 97 -167 4058 1365 4 MP
DP
gr

gs 3798 449 1826 913 rc
gr


end %%Color Dict

eplot
%%EndObject

epage
end

showpage

%%Trailer
%%EOF
