%!PS-Adobe-3.0 EPSF-3.0
%%Creator: MATLAB, The Mathworks, Inc.
%%Title: Pictures\main_compen05_norm_fusion_exp2.eps
%%CreationDate: 11/17/2007  01:47:06
%%DocumentNeededFonts: Helvetica
%%DocumentProcessColors: Cyan Magenta Yellow Black
%%LanguageLevel: 2
%%Pages: 1
%%BoundingBox:    84   191   498   609
%%EndComments

%%BeginProlog
% MathWorks dictionary
/MathWorks 160 dict begin
% definition operators
/bdef {bind def} bind def
/ldef {load def} bind def
/xdef {exch def} bdef
/xstore {exch store} bdef
% operator abbreviations
/c  /clip ldef
/cc /concat ldef
/cp /closepath ldef
/gr /grestore ldef
/gs /gsave ldef
/mt /moveto ldef
/np /newpath ldef
/cm /currentmatrix ldef
/sm /setmatrix ldef
/rm /rmoveto ldef
/rl /rlineto ldef
/s {show newpath} bdef
/sc {setcmykcolor} bdef
/sr /setrgbcolor ldef
/sg /setgray ldef
/w /setlinewidth ldef
/j /setlinejoin ldef
/cap /setlinecap ldef
/rc {rectclip} bdef
/rf {rectfill} bdef
% page state control
/pgsv () def
/bpage {/pgsv save def} bdef
/epage {pgsv restore} bdef
/bplot /gsave ldef
/eplot {stroke grestore} bdef
% orientation switch
/portraitMode 0 def /landscapeMode 1 def /rotateMode 2 def
% coordinate system mappings
/dpi2point 0 def
% font control
/FontSize 0 def
/FMS {/FontSize xstore findfont [FontSize 0 0 FontSize neg 0 0]
  makefont setfont} bdef
/ISOLatin1Encoding where {pop /WindowsLatin1Encoding 256 array bdef
ISOLatin1Encoding WindowsLatin1Encoding copy pop
/.notdef/.notdef/quotesinglbase/florin/quotedblbase/ellipsis/dagger
/daggerdbl/circumflex/perthousand/Scaron/guilsinglleft/OE/.notdef/.notdef
/.notdef/.notdef/quoteleft/quoteright/quotedblleft/quotedblright/bullet
/endash/emdash/tilde/trademark/scaron/guilsinglright/oe/.notdef/.notdef
/Ydieresis WindowsLatin1Encoding 128 32 getinterval astore pop}
{/WindowsLatin1Encoding StandardEncoding bdef} ifelse
/reencode {exch dup where {pop load} {pop StandardEncoding} ifelse
  exch dup 3 1 roll findfont dup length dict begin
  { 1 index /FID ne {def}{pop pop} ifelse } forall
  /Encoding exch def currentdict end definefont pop} bdef
/isroman {findfont /CharStrings get /Agrave known} bdef
/FMSR {3 1 roll 1 index dup isroman {reencode} {pop pop} ifelse
  exch FMS} bdef
/csm {1 dpi2point div -1 dpi2point div scale neg translate
 dup landscapeMode eq {pop -90 rotate}
  {rotateMode eq {90 rotate} if} ifelse} bdef
% line types: solid, dotted, dashed, dotdash
/SO { [] 0 setdash } bdef
/DO { [.5 dpi2point mul 4 dpi2point mul] 0 setdash } bdef
/DA { [6 dpi2point mul] 0 setdash } bdef
/DD { [.5 dpi2point mul 4 dpi2point mul 6 dpi2point mul 4
  dpi2point mul] 0 setdash } bdef
% macros for lines and objects
/L {lineto stroke} bdef
/MP {3 1 roll moveto 1 sub {rlineto} repeat} bdef
/AP {{rlineto} repeat} bdef
/PDlw -1 def
/W {/PDlw currentlinewidth def setlinewidth} def
/PP {closepath eofill} bdef
/DP {closepath stroke} bdef
/MR {4 -2 roll moveto dup  0 exch rlineto exch 0 rlineto
  neg 0 exch rlineto closepath} bdef
/FR {MR stroke} bdef
/PR {MR fill} bdef
/L1i {{currentfile picstr readhexstring pop} image} bdef
/tMatrix matrix def
/MakeOval {newpath tMatrix currentmatrix pop translate scale
0 0 1 0 360 arc tMatrix setmatrix} bdef
/FO {MakeOval stroke} bdef
/PO {MakeOval fill} bdef
/PD {currentlinewidth 2 div 0 360 arc fill
   PDlw -1 eq not {PDlw w /PDlw -1 def} if} def
/FA {newpath tMatrix currentmatrix pop translate scale
  0 0 1 5 -2 roll arc tMatrix setmatrix stroke} bdef
/PA {newpath tMatrix currentmatrix pop	translate 0 0 moveto scale
  0 0 1 5 -2 roll arc closepath tMatrix setmatrix fill} bdef
/FAn {newpath tMatrix currentmatrix pop translate scale
  0 0 1 5 -2 roll arcn tMatrix setmatrix stroke} bdef
/PAn {newpath tMatrix currentmatrix pop translate 0 0 moveto scale
  0 0 1 5 -2 roll arcn closepath tMatrix setmatrix fill} bdef
/vradius 0 def /hradius 0 def /lry 0 def
/lrx 0 def /uly 0 def /ulx 0 def /rad 0 def
/MRR {/vradius xdef /hradius xdef /lry xdef /lrx xdef /uly xdef
  /ulx xdef newpath tMatrix currentmatrix pop ulx hradius add uly
  vradius add translate hradius vradius scale 0 0 1 180 270 arc 
  tMatrix setmatrix lrx hradius sub uly vradius add translate
  hradius vradius scale 0 0 1 270 360 arc tMatrix setmatrix
  lrx hradius sub lry vradius sub translate hradius vradius scale
  0 0 1 0 90 arc tMatrix setmatrix ulx hradius add lry vradius sub
  translate hradius vradius scale 0 0 1 90 180 arc tMatrix setmatrix
  closepath} bdef
/FRR {MRR stroke } bdef
/PRR {MRR fill } bdef
/MlrRR {/lry xdef /lrx xdef /uly xdef /ulx xdef /rad lry uly sub 2 div def
  newpath tMatrix currentmatrix pop ulx rad add uly rad add translate
  rad rad scale 0 0 1 90 270 arc tMatrix setmatrix lrx rad sub lry rad
  sub translate rad rad scale 0 0 1 270 90 arc tMatrix setmatrix
  closepath} bdef
/FlrRR {MlrRR stroke } bdef
/PlrRR {MlrRR fill } bdef
/MtbRR {/lry xdef /lrx xdef /uly xdef /ulx xdef /rad lrx ulx sub 2 div def
  newpath tMatrix currentmatrix pop ulx rad add uly rad add translate
  rad rad scale 0 0 1 180 360 arc tMatrix setmatrix lrx rad sub lry rad
  sub translate rad rad scale 0 0 1 0 180 arc tMatrix setmatrix
  closepath} bdef
/FtbRR {MtbRR stroke } bdef
/PtbRR {MtbRR fill } bdef
/stri 6 array def /dtri 6 array def
/smat 6 array def /dmat 6 array def
/tmat1 6 array def /tmat2 6 array def /dif 3 array def
/asub {/ind2 exch def /ind1 exch def dup dup
  ind1 get exch ind2 get sub exch } bdef
/tri_to_matrix {
  2 0 asub 3 1 asub 4 0 asub 5 1 asub
  dup 0 get exch 1 get 7 -1 roll astore } bdef
/compute_transform {
  dmat dtri tri_to_matrix tmat1 invertmatrix 
  smat stri tri_to_matrix tmat2 concatmatrix } bdef
/ds {stri astore pop} bdef
/dt {dtri astore pop} bdef
/db {2 copy /cols xdef /rows xdef mul dup 3 mul string
  currentfile 
  3 index 0 eq {/ASCIIHexDecode filter}
  {/ASCII85Decode filter 3 index 2 eq {/RunLengthDecode filter} if }
  ifelse exch readstring pop
  dup 0 3 index getinterval /rbmap xdef
  dup 2 index dup getinterval /gbmap xdef
  1 index dup 2 mul exch getinterval /bbmap xdef pop pop}bdef
/it {gs np dtri aload pop moveto lineto lineto cp c
  cols rows 8 compute_transform 
  rbmap gbmap bbmap true 3 colorimage gr}bdef
/il {newpath moveto lineto stroke}bdef
currentdict end def
%%EndProlog

%%BeginSetup
MathWorks begin

0 cap

end
%%EndSetup

%%Page: 1 1
%%BeginPageSetup
%%PageBoundingBox:    84   191   498   609
MathWorks begin
bpage
%%EndPageSetup

%%BeginObject: obj1
bplot

/dpi2point 12 def
portraitMode 0216 7344 csm

  800    27  4968  5019 rc
85 dict begin %Colortable dictionary
/c0 { 0.000000 0.000000 0.000000 sr} bdef
/c1 { 1.000000 1.000000 1.000000 sr} bdef
/c2 { 0.900000 0.000000 0.000000 sr} bdef
/c3 { 0.000000 0.820000 0.000000 sr} bdef
/c4 { 0.000000 0.000000 0.800000 sr} bdef
/c5 { 0.910000 0.820000 0.320000 sr} bdef
/c6 { 1.000000 0.260000 0.820000 sr} bdef
/c7 { 0.000000 0.820000 0.820000 sr} bdef
c0
1 j
1 sg
   0    0 6919 5187 rf
6 w
0 4228 4197 0 0 -4228 1481 4616 4 MP
PP
-4197 0 0 4228 4197 0 0 -4228 1481 4616 5 MP stroke
4 w
DO
0 sg
1706 4616 mt 1706  388 L
1706  388 mt 1706  388 L
1959 4616 mt 1959  388 L
1959  388 mt 1959  388 L
2321 4616 mt 2321  388 L
2321  388 mt 2321  388 L
2619 4616 mt 2619  388 L
2619  388 mt 2619  388 L
2945 4616 mt 2945  388 L
2945  388 mt 2945  388 L
3434 4616 mt 3434  388 L
3434  388 mt 3434  388 L
3868 4616 mt 3868  388 L
3868  388 mt 3868  388 L
4394 4616 mt 4394  388 L
4394  388 mt 4394  388 L
5098 4616 mt 5098  388 L
5098  388 mt 5098  388 L
1481 4369 mt 5678 4369 L
5678 4369 mt 5678 4369 L
1481 4115 mt 5678 4115 L
5678 4115 mt 5678 4115 L
1481 3754 mt 5678 3754 L
5678 3754 mt 5678 3754 L
1481 3455 mt 5678 3455 L
5678 3455 mt 5678 3455 L
1481 3129 mt 5678 3129 L
5678 3129 mt 5678 3129 L
1481 2640 mt 5678 2640 L
5678 2640 mt 5678 2640 L
1481 2206 mt 5678 2206 L
5678 2206 mt 5678 2206 L
1481 1680 mt 5678 1680 L
5678 1680 mt 5678 1680 L
1481  976 mt 5678  976 L
5678  976 mt 5678  976 L
SO
6 w
1481 4616 mt 5678 4616 L
1481 4616 mt 1481  388 L
1706 4616 mt 1706 4573 L
%%IncludeResource: font Helvetica
/Helvetica /WindowsLatin1Encoding 168 FMSR

1520 4806 mt 
(  0.1 ) s
1959 4616 mt 1959 4573 L
1773 4806 mt 
(  0.2 ) s
2321 4616 mt 2321 4573 L
2135 4806 mt 
(  0.5 ) s
2619 4616 mt 2619 4573 L
2456 4806 mt 
(   1  ) s
2945 4616 mt 2945 4573 L
2782 4806 mt 
(   2  ) s
3434 4616 mt 3434 4573 L
3271 4806 mt 
(   5  ) s
3868 4616 mt 3868 4573 L
3682 4806 mt 
(  10  ) s
4394 4616 mt 4394 4573 L
4208 4806 mt 
(  20  ) s
5098 4616 mt 5098 4573 L
4912 4806 mt 
(  40  ) s
1481 4369 mt 1523 4369 L
1073 4431 mt 
(   0.1) s
1481 4115 mt 1523 4115 L
1073 4177 mt 
(   0.2) s
1481 3754 mt 1523 3754 L
1073 3816 mt 
(   0.5) s
1481 3455 mt 1523 3455 L
1120 3517 mt 
(     1) s
1481 3129 mt 1523 3129 L
1120 3191 mt 
(     2) s
1481 2640 mt 1523 2640 L
1120 2702 mt 
(     5) s
1481 2206 mt 1523 2206 L
1073 2268 mt 
(    10) s
1481 1680 mt 1523 1680 L
1073 1742 mt 
(    20) s
1481  976 mt 1523  976 L
1073 1038 mt 
(    40) s
gs 1481 388 4198 4229 rc
gr

0 j
84 111 -84 111 -84 -111 84 -111 2674 1879 5 MP
/c8 { 0.000000 0.000000 1.000000 sr} bdef
c8
DP
gs 1481 388 4198 4229 rc
gr

0 -132 -132 0 0 132 132 0 2451 1760 5 MP
/c9 { 1.000000 0.000000 0.000000 sr} bdef
c9
DP
gs 1481 388 4198 4229 rc
gr

2412 1779 mt 2580 1779 L
2496 1695 mt 2496 1863 L
2437 1720 mt 2555 1838 L
2555 1720 mt 2437 1838 L
gs 1481 388 4198 4229 rc
gr

-97 167 -97 -167 194 0 2620 1969 4 MP
0 sg
DP
gs 1481 388 4198 4229 rc
gr

97 167 -194 0 97 -167 2674 1879 4 MP
DP
gs 1481 388 4198 4229 rc
c8
-73 -32 -69 -90 -69 -85 -74 -58 -66 -80 -68 -67 -74 -50 -74 -43 
-65 -66 -62 -72 -59 -72 -65 -57 -54 -78 -73 -37 -76 -30 -70 -43 
-57 -65 -77 -29 -72 -40 -61 -56 -45 -78 -47 -73 -68 -43 -69 -41 
-31 -91 -78 -30 -65 -46 -74 -37 -69 -43 -71 -42 -63 -51 -82 -32 
-90 -27 -79 -39 -45 -70 -64 -54 -39 -75 -76 -45 -86 -38 -83 -42 
-53 -66 -56 -64 -65 -58 -64 -60 -22 -86 -35 -78 -20 -86 -72 -57 
-51 -69 0 -95 -25 -82 -23 -82 -45 -71 -48 -71 -47 -72 -47 -73 
-15 -84 -13 -85 -13 -85 -10 -84 -9 -85 -8 -84 -5 -77 4909 4617 64 MP stroke
c9
-29 -37 -78 -74 -73 -87 -67 -98 -65 -96 -77 -53 -64 -84 -56 -102 
-61 -82 -54 -95 -57 -81 -56 -78 -57 -72 -64 -55 -45 -91 -65 -49 
-54 -67 -60 -54 -34 -97 -46 -73 -54 -59 -54 -57 -65 -40 -41 -74 
-43 -69 -57 -49 -68 -36 -42 -68 -21 -90 -66 -37 -81 -23 -65 -41 
-57 -49 -56 -51 -84 -25 -72 -37 -49 -60 -46 -61 -41 -66 -64 -47 
-39 -67 -80 -36 -82 -37 -73 -45 -68 -50 -62 -55 -82 -43 -93 -39 
-62 -60 -14 -85 -67 -57 -76 -54 -87 -51 -56 -67 -45 -73 -47 -72 
-51 -71 -18 -84 -13 -85 -13 -85 -10 -85 -9 -85 -8 -85 -6 -82 
4930 4617 65 MP stroke
DA
-12 -19 -74 -86 -74 -75 -68 -89 -66 -92 -71 -66 -72 -57 -57 -98 
-61 -79 -55 -89 -66 -59 -54 -81 -65 -56 -62 -59 -65 -51 -50 -77 
-58 -61 -51 -70 -41 -86 -70 -35 -59 -53 -65 -43 -55 -57 -45 -70 
-47 -66 -39 -74 -46 -64 -64 -42 -56 -51 -59 -48 -25 -84 -77 -29 
-80 -27 -60 -48 -49 -58 -74 -36 -81 -32 -70 -42 -48 -62 -59 -52 
-61 -52 -22 -81 -45 -64 -82 -39 -70 -48 -50 -62 -47 -64 -44 -67 
-38 -70 -69 -53 -88 -46 -99 -42 -112 -38 -91 -52 -73 -61 -82 -60 
-92 -57 -107 -55 -24 -85 -14 -90 -12 -89 -10 -89 -9 -89 -7 -89 
-4 -60 5183 4617 66 MP stroke
SO
0 sg
-51 -36 -77 -86 -68 -113 -74 -76 -69 -90 -71 -76 -72 -64 -72 -64 
-74 -54 -61 -84 -70 -58 -51 -98 -64 -65 -40 -113 -60 -64 -65 -55 
-58 -65 -53 -73 -48 -77 -41 -87 -55 -61 -48 -71 -69 -39 -60 -51 
-43 -74 -75 -31 -59 -52 -55 -57 -58 -52 -45 -66 -50 -62 -71 -37 
-22 -90 -50 -58 -68 -42 -85 -28 -66 -46 -32 -76 -53 -58 -49 -61 
-32 -74 -65 -48 -8 -91 -51 -59 -95 -30 -103 -29 -67 -53 -41 -69 
-36 -72 -55 -62 -90 -45 -97 -44 -108 -41 -100 -48 -71 -62 -78 -62 
-85 -61 -92 -60 -23 -87 -13 -89 -12 -89 -11 -89 -8 -89 -8 -89 
-3 -61 5185 4617 66 MP stroke
DA
-73 -32 -69 -90 -69 -85 -74 -58 -66 -80 -68 -67 -74 -50 -74 -43 
-65 -66 -62 -72 -59 -72 -65 -57 -54 -78 -73 -37 -76 -30 -70 -43 
-57 -65 -77 -29 -72 -39 -61 -57 -45 -78 -47 -73 -68 -43 -69 -41 
-31 -90 -78 -31 -65 -46 -74 -36 -69 -44 -71 -42 -63 -51 -82 -32 
-90 -27 -79 -39 -45 -70 -64 -54 -39 -75 -77 -44 -85 -38 -84 -42 
-52 -67 -56 -64 -66 -57 -63 -61 -22 -86 -35 -78 -21 -86 -75 -55 
-47 -71 0 -95 -26 -81 -22 -83 -53 -68 -51 -70 -44 -73 -39 -76 
-15 -84 -13 -85 -13 -85 -10 -84 -9 -85 -8 -84 -5 -77 4909 4617 64 MP stroke
gr

DA
3273 4984 mt 
(FAR [%]) s
 981 2820 mt  -90 rotate
(FRR [%]) s
90 rotate
3275  256 mt 
(Exp 2: 2) s
%%IncludeResource: font Helvetica
/Helvetica /WindowsLatin1Encoding 120 FMSR

1464 4659 mt 
( ) s
5662  430 mt 
( ) s
SO
1 sg
0 912 1825 0 0 -912 3794 1360 4 MP
PP
-1825 0 0 912 1825 0 0 -912 3794 1360 5 MP stroke
4 w
DO
SO
6 w
0 sg
3794  448 mt 5619  448 L
3794 1360 mt 5619 1360 L
5619 1360 mt 5619  448 L
3794 1360 mt 3794  448 L
3794 1360 mt 5619 1360 L
3794 1360 mt 3794  448 L
3794  448 mt 5619  448 L
3794 1360 mt 5619 1360 L
5619 1360 mt 5619  448 L
3794 1360 mt 3794  448 L
%%IncludeResource: font Helvetica
/Helvetica /WindowsLatin1Encoding 144 FMSR

4278  606 mt 
(baseline\(LR\)) s
gs 3794 448 1826 913 rc
gr

gs 3885 385 339 339 rc
84 111 -84 111 -84 -111 84 -111 4054 665 5 MP
c8
DP
gr

c8
gs 3794 448 1826 913 rc
gr

0 sg
4278  781 mt 
(MS-LLR\(LR\)) s
gs 3794 448 1826 913 rc
gs 3885 560 339 339 rc
0 -132 -132 0 0 132 132 0 3988 663 5 MP
c9
DP
gr

c9
gr

c9
0 sg
4278  956 mt 
(F-norm\(LR\)) s
gs 3794 448 1826 913 rc
gs 3885 735 339 339 rc
c9
3970  904 mt 4138  904 L
4054  820 mt 4054  988 L
3995  845 mt 4113  963 L
4113  845 mt 3995  963 L
gr

c9
gr

c9
0 sg
4278 1130 mt 
(Z-norm\(LR\)) s
gs 3794 448 1826 913 rc
gs 3885 909 339 339 rc
-97 167 -97 -167 194 0 3957 1134 4 MP
DP
gr

gr

4278 1305 mt 
(baseline-norm\(sum\)) s
gs 3794 448 1826 913 rc
gr

gs 3885 1084 339 339 rc
97 167 -194 0 97 -167 4054 1364 4 MP
DP
gr

gs 3794 448 1826 913 rc
gr


end %%Color Dict

eplot
%%EndObject

epage
end

showpage

%%Trailer
%%EOF
