%!PS-Adobe-3.0 EPSF-3.0
%%Creator: MATLAB, The Mathworks, Inc.
%%Title: Pictures\main_compen05_norm_fusion_exp3.eps
%%CreationDate: 11/17/2007  01:47:06
%%DocumentNeededFonts: Helvetica
%%DocumentProcessColors: Cyan Magenta Yellow Black
%%LanguageLevel: 2
%%Pages: 1
%%BoundingBox:    86   191   497   609
%%EndComments

%%BeginProlog
% MathWorks dictionary
/MathWorks 160 dict begin
% definition operators
/bdef {bind def} bind def
/ldef {load def} bind def
/xdef {exch def} bdef
/xstore {exch store} bdef
% operator abbreviations
/c  /clip ldef
/cc /concat ldef
/cp /closepath ldef
/gr /grestore ldef
/gs /gsave ldef
/mt /moveto ldef
/np /newpath ldef
/cm /currentmatrix ldef
/sm /setmatrix ldef
/rm /rmoveto ldef
/rl /rlineto ldef
/s {show newpath} bdef
/sc {setcmykcolor} bdef
/sr /setrgbcolor ldef
/sg /setgray ldef
/w /setlinewidth ldef
/j /setlinejoin ldef
/cap /setlinecap ldef
/rc {rectclip} bdef
/rf {rectfill} bdef
% page state control
/pgsv () def
/bpage {/pgsv save def} bdef
/epage {pgsv restore} bdef
/bplot /gsave ldef
/eplot {stroke grestore} bdef
% orientation switch
/portraitMode 0 def /landscapeMode 1 def /rotateMode 2 def
% coordinate system mappings
/dpi2point 0 def
% font control
/FontSize 0 def
/FMS {/FontSize xstore findfont [FontSize 0 0 FontSize neg 0 0]
  makefont setfont} bdef
/ISOLatin1Encoding where {pop /WindowsLatin1Encoding 256 array bdef
ISOLatin1Encoding WindowsLatin1Encoding copy pop
/.notdef/.notdef/quotesinglbase/florin/quotedblbase/ellipsis/dagger
/daggerdbl/circumflex/perthousand/Scaron/guilsinglleft/OE/.notdef/.notdef
/.notdef/.notdef/quoteleft/quoteright/quotedblleft/quotedblright/bullet
/endash/emdash/tilde/trademark/scaron/guilsinglright/oe/.notdef/.notdef
/Ydieresis WindowsLatin1Encoding 128 32 getinterval astore pop}
{/WindowsLatin1Encoding StandardEncoding bdef} ifelse
/reencode {exch dup where {pop load} {pop StandardEncoding} ifelse
  exch dup 3 1 roll findfont dup length dict begin
  { 1 index /FID ne {def}{pop pop} ifelse } forall
  /Encoding exch def currentdict end definefont pop} bdef
/isroman {findfont /CharStrings get /Agrave known} bdef
/FMSR {3 1 roll 1 index dup isroman {reencode} {pop pop} ifelse
  exch FMS} bdef
/csm {1 dpi2point div -1 dpi2point div scale neg translate
 dup landscapeMode eq {pop -90 rotate}
  {rotateMode eq {90 rotate} if} ifelse} bdef
% line types: solid, dotted, dashed, dotdash
/SO { [] 0 setdash } bdef
/DO { [.5 dpi2point mul 4 dpi2point mul] 0 setdash } bdef
/DA { [6 dpi2point mul] 0 setdash } bdef
/DD { [.5 dpi2point mul 4 dpi2point mul 6 dpi2point mul 4
  dpi2point mul] 0 setdash } bdef
% macros for lines and objects
/L {lineto stroke} bdef
/MP {3 1 roll moveto 1 sub {rlineto} repeat} bdef
/AP {{rlineto} repeat} bdef
/PDlw -1 def
/W {/PDlw currentlinewidth def setlinewidth} def
/PP {closepath eofill} bdef
/DP {closepath stroke} bdef
/MR {4 -2 roll moveto dup  0 exch rlineto exch 0 rlineto
  neg 0 exch rlineto closepath} bdef
/FR {MR stroke} bdef
/PR {MR fill} bdef
/L1i {{currentfile picstr readhexstring pop} image} bdef
/tMatrix matrix def
/MakeOval {newpath tMatrix currentmatrix pop translate scale
0 0 1 0 360 arc tMatrix setmatrix} bdef
/FO {MakeOval stroke} bdef
/PO {MakeOval fill} bdef
/PD {currentlinewidth 2 div 0 360 arc fill
   PDlw -1 eq not {PDlw w /PDlw -1 def} if} def
/FA {newpath tMatrix currentmatrix pop translate scale
  0 0 1 5 -2 roll arc tMatrix setmatrix stroke} bdef
/PA {newpath tMatrix currentmatrix pop	translate 0 0 moveto scale
  0 0 1 5 -2 roll arc closepath tMatrix setmatrix fill} bdef
/FAn {newpath tMatrix currentmatrix pop translate scale
  0 0 1 5 -2 roll arcn tMatrix setmatrix stroke} bdef
/PAn {newpath tMatrix currentmatrix pop translate 0 0 moveto scale
  0 0 1 5 -2 roll arcn closepath tMatrix setmatrix fill} bdef
/vradius 0 def /hradius 0 def /lry 0 def
/lrx 0 def /uly 0 def /ulx 0 def /rad 0 def
/MRR {/vradius xdef /hradius xdef /lry xdef /lrx xdef /uly xdef
  /ulx xdef newpath tMatrix currentmatrix pop ulx hradius add uly
  vradius add translate hradius vradius scale 0 0 1 180 270 arc 
  tMatrix setmatrix lrx hradius sub uly vradius add translate
  hradius vradius scale 0 0 1 270 360 arc tMatrix setmatrix
  lrx hradius sub lry vradius sub translate hradius vradius scale
  0 0 1 0 90 arc tMatrix setmatrix ulx hradius add lry vradius sub
  translate hradius vradius scale 0 0 1 90 180 arc tMatrix setmatrix
  closepath} bdef
/FRR {MRR stroke } bdef
/PRR {MRR fill } bdef
/MlrRR {/lry xdef /lrx xdef /uly xdef /ulx xdef /rad lry uly sub 2 div def
  newpath tMatrix currentmatrix pop ulx rad add uly rad add translate
  rad rad scale 0 0 1 90 270 arc tMatrix setmatrix lrx rad sub lry rad
  sub translate rad rad scale 0 0 1 270 90 arc tMatrix setmatrix
  closepath} bdef
/FlrRR {MlrRR stroke } bdef
/PlrRR {MlrRR fill } bdef
/MtbRR {/lry xdef /lrx xdef /uly xdef /ulx xdef /rad lrx ulx sub 2 div def
  newpath tMatrix currentmatrix pop ulx rad add uly rad add translate
  rad rad scale 0 0 1 180 360 arc tMatrix setmatrix lrx rad sub lry rad
  sub translate rad rad scale 0 0 1 0 180 arc tMatrix setmatrix
  closepath} bdef
/FtbRR {MtbRR stroke } bdef
/PtbRR {MtbRR fill } bdef
/stri 6 array def /dtri 6 array def
/smat 6 array def /dmat 6 array def
/tmat1 6 array def /tmat2 6 array def /dif 3 array def
/asub {/ind2 exch def /ind1 exch def dup dup
  ind1 get exch ind2 get sub exch } bdef
/tri_to_matrix {
  2 0 asub 3 1 asub 4 0 asub 5 1 asub
  dup 0 get exch 1 get 7 -1 roll astore } bdef
/compute_transform {
  dmat dtri tri_to_matrix tmat1 invertmatrix 
  smat stri tri_to_matrix tmat2 concatmatrix } bdef
/ds {stri astore pop} bdef
/dt {dtri astore pop} bdef
/db {2 copy /cols xdef /rows xdef mul dup 3 mul string
  currentfile 
  3 index 0 eq {/ASCIIHexDecode filter}
  {/ASCII85Decode filter 3 index 2 eq {/RunLengthDecode filter} if }
  ifelse exch readstring pop
  dup 0 3 index getinterval /rbmap xdef
  dup 2 index dup getinterval /gbmap xdef
  1 index dup 2 mul exch getinterval /bbmap xdef pop pop}bdef
/it {gs np dtri aload pop moveto lineto lineto cp c
  cols rows 8 compute_transform 
  rbmap gbmap bbmap true 3 colorimage gr}bdef
/il {newpath moveto lineto stroke}bdef
currentdict end def
%%EndProlog

%%BeginSetup
MathWorks begin

0 cap

end
%%EndSetup

%%Page: 1 1
%%BeginPageSetup
%%PageBoundingBox:    86   191   497   609
MathWorks begin
bpage
%%EndPageSetup

%%BeginObject: obj1
bplot

/dpi2point 12 def
portraitMode 0216 7344 csm

  819    28  4930  5018 rc
85 dict begin %Colortable dictionary
/c0 { 0.000000 0.000000 0.000000 sr} bdef
/c1 { 1.000000 1.000000 1.000000 sr} bdef
/c2 { 0.900000 0.000000 0.000000 sr} bdef
/c3 { 0.000000 0.820000 0.000000 sr} bdef
/c4 { 0.000000 0.000000 0.800000 sr} bdef
/c5 { 0.910000 0.820000 0.320000 sr} bdef
/c6 { 1.000000 0.260000 0.820000 sr} bdef
/c7 { 0.000000 0.820000 0.820000 sr} bdef
c0
1 j
1 sg
   0    0 6919 5187 rf
6 w
0 4227 4159 0 0 -4227 1500 4616 4 MP
PP
-4159 0 0 4227 4159 0 0 -4227 1500 4616 5 MP stroke
4 w
DO
0 sg
1743 4616 mt 1743  389 L
1743  389 mt 1743  389 L
2036 4616 mt 2036  389 L
2036  389 mt 2036  389 L
2453 4616 mt 2453  389 L
2453  389 mt 2453  389 L
2798 4616 mt 2798  389 L
2798  389 mt 2798  389 L
3175 4616 mt 3175  389 L
3175  389 mt 3175  389 L
3740 4616 mt 3740  389 L
3740  389 mt 3740  389 L
4242 4616 mt 4242  389 L
4242  389 mt 4242  389 L
4849 4616 mt 4849  389 L
4849  389 mt 4849  389 L
1500 4330 mt 5659 4330 L
5659 4330 mt 5659 4330 L
1500 4037 mt 5659 4037 L
5659 4037 mt 5659 4037 L
1500 3620 mt 5659 3620 L
5659 3620 mt 5659 3620 L
1500 3275 mt 5659 3275 L
5659 3275 mt 5659 3275 L
1500 2898 mt 5659 2898 L
5659 2898 mt 5659 2898 L
1500 2333 mt 5659 2333 L
5659 2333 mt 5659 2333 L
1500 1831 mt 5659 1831 L
5659 1831 mt 5659 1831 L
1500 1224 mt 5659 1224 L
5659 1224 mt 5659 1224 L
1500  411 mt 5659  411 L
5659  411 mt 5659  411 L
SO
6 w
1500 4616 mt 5659 4616 L
1500 4616 mt 1500  389 L
1743 4616 mt 1743 4573 L
%%IncludeResource: font Helvetica
/Helvetica /WindowsLatin1Encoding 168 FMSR

1557 4806 mt 
(  0.1 ) s
2036 4616 mt 2036 4573 L
1850 4806 mt 
(  0.2 ) s
2453 4616 mt 2453 4573 L
2267 4806 mt 
(  0.5 ) s
2798 4616 mt 2798 4573 L
2635 4806 mt 
(   1  ) s
3175 4616 mt 3175 4573 L
3012 4806 mt 
(   2  ) s
3740 4616 mt 3740 4573 L
3577 4806 mt 
(   5  ) s
4242 4616 mt 4242 4573 L
4056 4806 mt 
(  10  ) s
4849 4616 mt 4849 4573 L
4663 4806 mt 
(  20  ) s
1500 4330 mt 1542 4330 L
1092 4392 mt 
(   0.1) s
1500 4037 mt 1542 4037 L
1092 4099 mt 
(   0.2) s
1500 3620 mt 1542 3620 L
1092 3682 mt 
(   0.5) s
1500 3275 mt 1542 3275 L
1139 3337 mt 
(     1) s
1500 2898 mt 1542 2898 L
1139 2960 mt 
(     2) s
1500 2333 mt 1542 2333 L
1139 2395 mt 
(     5) s
1500 1831 mt 1542 1831 L
1092 1893 mt 
(    10) s
1500 1224 mt 1542 1224 L
1092 1286 mt 
(    20) s
1500  411 mt 1542  411 L
1092  473 mt 
(    40) s
gs 1500 389 4160 4228 rc
gr

0 j
84 111 -84 111 -84 -111 84 -111 3007 1885 5 MP
/c8 { 0.000000 0.000000 1.000000 sr} bdef
c8
DP
gs 1500 389 4160 4228 rc
gr

0 -132 -132 0 0 132 132 0 2544 2060 5 MP
/c9 { 1.000000 0.000000 0.000000 sr} bdef
c9
DP
gs 1500 389 4160 4228 rc
gr

2532 2153 mt 2700 2153 L
2616 2069 mt 2616 2237 L
2557 2094 mt 2675 2212 L
2675 2094 mt 2557 2212 L
gs 1500 389 4160 4228 rc
gr

-97 167 -97 -167 194 0 2709 2106 4 MP
0 sg
DP
gs 1500 389 4160 4228 rc
gr

97 167 -194 0 97 -167 3007 1885 4 MP
DP
gs 1500 389 4160 4228 rc
c8
-41 -36 -80 -69 -74 -82 -78 -66 -81 -50 -78 -57 -81 -49 -76 -57 
-69 -72 -85 -34 -87 -28 -72 -61 -75 -53 -74 -54 -73 -55 -60 -76 
-77 -46 -83 -36 -66 -63 -64 -65 -54 -77 -54 -77 -74 -48 -87 -32 
-44 -86 -54 -73 -70 -52 -62 -62 -65 -59 -77 -46 -60 -64 -68 -56 
-85 -42 -64 -61 -94 -35 -79 -50 -45 -80 -49 -76 -14 -101 -61 -65 
-60 -66 -57 -69 -52 -73 -29 -87 -33 -83 -32 -84 -9 -96 -8 -95 
-86 -53 -96 -51 -105 -50 -119 -45 -135 -42 -158 -37 -189 -31 -129 -58 
-16 -100 -15 -101 -13 -100 -11 -101 -10 -100 -7 -100 -2 -31 5605 4617 64 MP stroke
c9
-1 -3 -76 -74 -68 -91 -76 -62 -84 -32 -71 -71 -68 -71 -54 -106 
-50 -104 -54 -91 -66 -60 -76 -36 -55 -79 -55 -76 -53 -76 -51 -75 
-66 -49 -56 -64 -29 -104 -19 -115 -63 -46 -45 -71 -63 -46 -52 -59 
-52 -59 -26 -90 -40 -69 -64 -43 -58 -49 -37 -71 -56 -51 -73 -34 
-80 -30 -78 -33 -64 -47 -49 -60 -30 -76 -32 -73 -49 -59 -67 -47 
-75 -42 -78 -41 -73 -47 -81 -42 -88 -41 -98 -37 -69 -56 -1 -93 
-2 -91 -6 -88 -18 -80 -17 -81 -15 -80 -14 -81 -12 -80 -11 -81 
-9 -80 -7 -80 -4 -48 4384 4617 60 MP stroke
DA
-19 -15 -75 -58 -77 -47 -68 -73 -72 -55 -70 -59 -73 -49 -74 -43 
-65 -63 -51 -92 -80 -28 -67 -52 -54 -76 -50 -80 -61 -59 -39 -93 
-56 -62 -56 -62 -67 -42 -63 -50 -65 -45 -38 -83 -36 -82 -46 -66 
-48 -65 -44 -67 -72 -35 -52 -57 -63 -46 -62 -48 -34 -75 -52 -57 
-69 -41 -79 -34 -85 -31 -50 -61 -30 -77 -45 -64 -58 -55 -73 -45 
-78 -43 -80 -43 -70 -52 -74 -50 -82 -47 -77 -52 -52 -67 -51 -67 
-53 -68 -53 -68 -34 -77 -17 -85 -16 -84 -14 -85 -12 -84 -11 -84 
-10 -85 -7 -84 -3 -42 4632 4617 60 MP stroke
SO
0 sg
-53 -38 -76 -86 -74 -86 -85 -45 -84 -46 -58 -114 -69 -77 -52 -116 
-75 -54 -73 -55 -73 -56 -71 -56 -71 -57 -50 -93 -54 -82 -57 -74 
-56 -74 -55 -72 -47 -83 -58 -64 -47 -79 -41 -84 -52 -67 -54 -64 
-46 -71 -38 -80 -49 -66 -66 -46 -35 -80 -54 -58 -50 -62 -30 -81 
-71 -41 -73 -40 -70 -45 -46 -65 -30 -78 -34 -74 -64 -50 -70 -48 
-48 -63 -46 -65 -66 -53 -79 -45 -87 -41 -98 -38 -110 -34 -47 -70 
-16 -87 -15 -87 -13 -86 -18 -83 -17 -82 -15 -83 -13 -83 -12 -83 
-10 -83 -9 -82 -7 -83 -1 -14 4538 4617 61 MP stroke
DA
-41 -36 -80 -69 -74 -82 -78 -66 -81 -50 -78 -57 -81 -49 -76 -57 
-69 -72 -85 -34 -87 -28 -72 -61 -75 -53 -74 -54 -73 -55 -60 -76 
-77 -45 -83 -37 -66 -63 -64 -65 -55 -77 -53 -77 -75 -47 -86 -33 
-44 -86 -54 -73 -71 -51 -61 -63 -65 -58 -77 -47 -60 -64 -69 -56 
-84 -41 -64 -62 -96 -34 -78 -51 -45 -80 -48 -76 -14 -101 -62 -64 
-60 -67 -58 -68 -50 -74 -29 -87 -35 -82 -30 -85 -9 -96 -8 -95 
-130 -31 -135 -33 -137 -36 -137 -40 -136 -45 -136 -48 -129 -56 -77 -78 
-16 -100 -15 -101 -13 -100 -11 -101 -10 -100 -7 -100 -2 -31 5605 4617 64 MP stroke
gr

DA
3273 4984 mt 
(FAR [%]) s
1000 2820 mt  -90 rotate
(FRR [%]) s
90 rotate
3275  257 mt 
(Exp 3: 3) s
%%IncludeResource: font Helvetica
/Helvetica /WindowsLatin1Encoding 120 FMSR

1483 4659 mt 
( ) s
5643  431 mt 
( ) s
SO
1 sg
0 912 1826 0 0 -912 3774 1361 4 MP
PP
-1826 0 0 912 1826 0 0 -912 3774 1361 5 MP stroke
4 w
DO
SO
6 w
0 sg
3774  449 mt 5600  449 L
3774 1361 mt 5600 1361 L
5600 1361 mt 5600  449 L
3774 1361 mt 3774  449 L
3774 1361 mt 5600 1361 L
3774 1361 mt 3774  449 L
3774  449 mt 5600  449 L
3774 1361 mt 5600 1361 L
5600 1361 mt 5600  449 L
3774 1361 mt 3774  449 L
%%IncludeResource: font Helvetica
/Helvetica /WindowsLatin1Encoding 144 FMSR

4259  607 mt 
(baseline\(LR\)) s
gs 3774 449 1827 913 rc
gr

gs 3865 386 339 339 rc
84 111 -84 111 -84 -111 84 -111 4034 666 5 MP
c8
DP
gr

c8
gs 3774 449 1827 913 rc
gr

0 sg
4259  782 mt 
(MS-LLR\(LR\)) s
gs 3774 449 1827 913 rc
gs 3865 561 339 339 rc
0 -132 -132 0 0 132 132 0 3968 664 5 MP
c9
DP
gr

c9
gr

c9
0 sg
4259  957 mt 
(F-norm\(LR\)) s
gs 3774 449 1827 913 rc
gs 3865 736 339 339 rc
c9
3950  905 mt 4118  905 L
4034  821 mt 4034  989 L
3975  846 mt 4093  964 L
4093  846 mt 3975  964 L
gr

c9
gr

c9
0 sg
4259 1131 mt 
(Z-norm\(LR\)) s
gs 3774 449 1827 913 rc
gs 3865 910 339 339 rc
-97 167 -97 -167 194 0 3937 1135 4 MP
DP
gr

gr

4259 1306 mt 
(baseline-norm\(sum\)) s
gs 3774 449 1827 913 rc
gr

gs 3865 1085 339 339 rc
97 167 -194 0 97 -167 4034 1365 4 MP
DP
gr

gs 3774 449 1827 913 rc
gr


end %%Color Dict

eplot
%%EndObject

epage
end

showpage

%%Trailer
%%EOF
