%!PS-Adobe-3.0 EPSF-3.0
%%Creator: MATLAB, The Mathworks, Inc. Version 7.5.0.338 (R2007b). Operating System: Linux 2.6.22.9-61.fc6 #1 SMP Thu Sep 27 17:45:57 EDT 2007 i686.
%%Title: Pictures/main_compen04_demo_us_density_m4_p1_b3_d1_users20.eps
%%CreationDate: 01/23/2009  11:20:20
%%DocumentNeededFonts: Helvetica
%%DocumentProcessColors: Cyan Magenta Yellow Black
%%LanguageLevel: 2
%%Pages: 1
%%BoundingBox:    56   187   543   583
%%EndComments

%%BeginProlog
% MathWorks dictionary
/MathWorks 160 dict begin
% definition operators
/bdef {bind def} bind def
/ldef {load def} bind def
/xdef {exch def} bdef
/xstore {exch store} bdef
% operator abbreviations
/c  /clip ldef
/cc /concat ldef
/cp /closepath ldef
/gr /grestore ldef
/gs /gsave ldef
/mt /moveto ldef
/np /newpath ldef
/cm /currentmatrix ldef
/sm /setmatrix ldef
/rm /rmoveto ldef
/rl /rlineto ldef
/s {show newpath} bdef
/sc {setcmykcolor} bdef
/sr /setrgbcolor ldef
/sg /setgray ldef
/w /setlinewidth ldef
/j /setlinejoin ldef
/cap /setlinecap ldef
/rc {rectclip} bdef
/rf {rectfill} bdef
% page state control
/pgsv () def
/bpage {/pgsv save def} bdef
/epage {pgsv restore} bdef
/bplot /gsave ldef
/eplot {stroke grestore} bdef
% orientation switch
/portraitMode 0 def /landscapeMode 1 def /rotateMode 2 def
% coordinate system mappings
/dpi2point 0 def
% font control
/FontSize 0 def
/FMS {/FontSize xstore findfont [FontSize 0 0 FontSize neg 0 0]
  makefont setfont} bdef
/reencode {exch dup where {pop load} {pop StandardEncoding} ifelse
  exch dup 3 1 roll findfont dup length dict begin
  { 1 index /FID ne {def}{pop pop} ifelse } forall
  /Encoding exch def currentdict end definefont pop} bdef
/isroman {findfont /CharStrings get /Agrave known} bdef
/FMSR {3 1 roll 1 index dup isroman {reencode} {pop pop} ifelse
  exch FMS} bdef
/csm {1 dpi2point div -1 dpi2point div scale neg translate
 dup landscapeMode eq {pop -90 rotate}
  {rotateMode eq {90 rotate} if} ifelse} bdef
% line types: solid, dotted, dashed, dotdash
/SO { [] 0 setdash } bdef
/DO { [.5 dpi2point mul 4 dpi2point mul] 0 setdash } bdef
/DA { [6 dpi2point mul] 0 setdash } bdef
/DD { [.5 dpi2point mul 4 dpi2point mul 6 dpi2point mul 4
  dpi2point mul] 0 setdash } bdef
% macros for lines and objects
/L {lineto stroke} bdef
/MP {3 1 roll moveto 1 sub {rlineto} repeat} bdef
/AP {{rlineto} repeat} bdef
/PDlw -1 def
/W {/PDlw currentlinewidth def setlinewidth} def
/PP {closepath eofill} bdef
/DP {closepath stroke} bdef
/MR {4 -2 roll moveto dup  0 exch rlineto exch 0 rlineto
  neg 0 exch rlineto closepath} bdef
/FR {MR stroke} bdef
/PR {MR fill} bdef
/L1i {{currentfile picstr readhexstring pop} image} bdef
/tMatrix matrix def
/MakeOval {newpath tMatrix currentmatrix pop translate scale
0 0 1 0 360 arc tMatrix setmatrix} bdef
/FO {MakeOval stroke} bdef
/PO {MakeOval fill} bdef
/PD {currentlinewidth 2 div 0 360 arc fill
   PDlw -1 eq not {PDlw w /PDlw -1 def} if} def
/FA {newpath tMatrix currentmatrix pop translate scale
  0 0 1 5 -2 roll arc tMatrix setmatrix stroke} bdef
/PA {newpath tMatrix currentmatrix pop	translate 0 0 moveto scale
  0 0 1 5 -2 roll arc closepath tMatrix setmatrix fill} bdef
/FAn {newpath tMatrix currentmatrix pop translate scale
  0 0 1 5 -2 roll arcn tMatrix setmatrix stroke} bdef
/PAn {newpath tMatrix currentmatrix pop translate 0 0 moveto scale
  0 0 1 5 -2 roll arcn closepath tMatrix setmatrix fill} bdef
/vradius 0 def /hradius 0 def /lry 0 def
/lrx 0 def /uly 0 def /ulx 0 def /rad 0 def
/MRR {/vradius xdef /hradius xdef /lry xdef /lrx xdef /uly xdef
  /ulx xdef newpath tMatrix currentmatrix pop ulx hradius add uly
  vradius add translate hradius vradius scale 0 0 1 180 270 arc 
  tMatrix setmatrix lrx hradius sub uly vradius add translate
  hradius vradius scale 0 0 1 270 360 arc tMatrix setmatrix
  lrx hradius sub lry vradius sub translate hradius vradius scale
  0 0 1 0 90 arc tMatrix setmatrix ulx hradius add lry vradius sub
  translate hradius vradius scale 0 0 1 90 180 arc tMatrix setmatrix
  closepath} bdef
/FRR {MRR stroke } bdef
/PRR {MRR fill } bdef
/MlrRR {/lry xdef /lrx xdef /uly xdef /ulx xdef /rad lry uly sub 2 div def
  newpath tMatrix currentmatrix pop ulx rad add uly rad add translate
  rad rad scale 0 0 1 90 270 arc tMatrix setmatrix lrx rad sub lry rad
  sub translate rad rad scale 0 0 1 270 90 arc tMatrix setmatrix
  closepath} bdef
/FlrRR {MlrRR stroke } bdef
/PlrRR {MlrRR fill } bdef
/MtbRR {/lry xdef /lrx xdef /uly xdef /ulx xdef /rad lrx ulx sub 2 div def
  newpath tMatrix currentmatrix pop ulx rad add uly rad add translate
  rad rad scale 0 0 1 180 360 arc tMatrix setmatrix lrx rad sub lry rad
  sub translate rad rad scale 0 0 1 0 180 arc tMatrix setmatrix
  closepath} bdef
/FtbRR {MtbRR stroke } bdef
/PtbRR {MtbRR fill } bdef
/stri 6 array def /dtri 6 array def
/smat 6 array def /dmat 6 array def
/tmat1 6 array def /tmat2 6 array def /dif 3 array def
/asub {/ind2 exch def /ind1 exch def dup dup
  ind1 get exch ind2 get sub exch } bdef
/tri_to_matrix {
  2 0 asub 3 1 asub 4 0 asub 5 1 asub
  dup 0 get exch 1 get 7 -1 roll astore } bdef
/compute_transform {
  dmat dtri tri_to_matrix tmat1 invertmatrix 
  smat stri tri_to_matrix tmat2 concatmatrix } bdef
/ds {stri astore pop} bdef
/dt {dtri astore pop} bdef
/db {2 copy /cols xdef /rows xdef mul dup 3 mul string
  currentfile 
  3 index 0 eq {/ASCIIHexDecode filter}
  {/ASCII85Decode filter 3 index 2 eq {/RunLengthDecode filter} if }
  ifelse exch readstring pop
  dup 0 3 index getinterval /rbmap xdef
  dup 2 index dup getinterval /gbmap xdef
  1 index dup 2 mul exch getinterval /bbmap xdef pop pop}bdef
/it {gs np dtri aload pop moveto lineto lineto cp c
  cols rows 8 compute_transform 
  rbmap gbmap bbmap true 3 colorimage gr}bdef
/il {newpath moveto lineto stroke}bdef
currentdict end def
%%EndProlog

%%BeginSetup
MathWorks begin

0 cap

end
%%EndSetup

%%Page: 1 1
%%BeginPageSetup
%%PageBoundingBox:    56   187   543   583
MathWorks begin
bpage
%%EndPageSetup

%%BeginObject: obj1
bplot

/dpi2point 12 def
portraitMode 0216 7344 csm

  457   341  5848  4750 rc
85 dict begin %Colortable dictionary
/c0 { 0.000000 0.000000 0.000000 sr} bdef
/c1 { 1.000000 1.000000 1.000000 sr} bdef
/c2 { 0.900000 0.000000 0.000000 sr} bdef
/c3 { 0.000000 0.820000 0.000000 sr} bdef
/c4 { 0.000000 0.000000 0.800000 sr} bdef
/c5 { 0.910000 0.820000 0.320000 sr} bdef
/c6 { 1.000000 0.260000 0.820000 sr} bdef
/c7 { 0.000000 0.820000 0.820000 sr} bdef
c0
1 j
1 sg
   0    0 6913 5186 rf
6 w
0 4226 5356 0 0 -4226 899 4615 4 MP
PP
-5356 0 0 4226 5356 0 0 -4226 899 4615 5 MP stroke
4 w
DO
SO
6 w
0 sg
 899 4615 mt 6255 4615 L
 899 4615 mt  899  389 L
2067 4615 mt 2067 4561 L
%%IncludeResource: font Helvetica
/Helvetica /ISOLatin1Encoding 192 FMSR

2014 4827 mt 
(0) s
3479 4615 mt 3479 4561 L
3346 4827 mt 
(0.5) s
4892 4615 mt 4892 4561 L
4839 4827 mt 
(1) s
 899 4615 mt  952 4615 L
 758 4686 mt 
(0) s
 899 3897 mt  952 3897 L
 758 3968 mt 
(1) s
 899 3180 mt  952 3180 L
 758 3251 mt 
(2) s
 899 2463 mt  952 2463 L
 758 2534 mt 
(3) s
 899 1745 mt  952 1745 L
 758 1816 mt 
(4) s
 899 1028 mt  952 1028 L
 758 1099 mt 
(5) s
3293 5023 mt 
(scores) s
 660 2901 mt  -90 rotate
(likelihood) s
90 rotate
gs 899 389 5357 4227 rc
/c8 { 1.000000 0.000000 0.000000 sr} bdef
c8
58 0 63 0 63 0 63 0 64 0 63 0 63 0 64 0 
63 0 63 0 63 0 64 0 63 0 63 0 64 0 63 1 
63 0 63 0 64 0 63 0 63 0 64 0 63 0 63 0 
63 0 64 0 63 0 63 0 64 0 63 0 63 0 63 0 
64 0 63 0 63 0 64 0 63 0 63 0 64 0 63 0 
63 0 63 0 64 0 63 1 63 2 64 3 63 4 63 8 
63 13 64 18 63 29 63 40 64 57 63 77 63 101 63 126 
64 154 63 179 63 201 64 215 63 219 63 211 63 188 64 151 
63 104 63 48 64 -13 63 -73 63 -125 63 -169 64 -200 63 -216 
63 -218 64 -211 63 -192 63 -168 63 -142 64 -115 63 -90 63 -68 
64 -50 63 -35 63 -24 63 -15 47 -8 899 4597 86 MP stroke
/c9 { 0.000000 0.000000 1.000000 sr} bdef
c9
58 0 63 0 63 0 63 0 64 0 63 0 63 0 64 0 
63 0 63 0 63 0 64 0 63 0 63 1 64 4 63 9 
63 21 63 46 64 92 63 166 63 272 64 402 63 532 63 623 
63 631 64 526 63 310 63 21 64 -272 63 -502 63 -624 63 -630 
64 -548 63 -421 63 -289 64 -179 63 -100 63 -52 64 -23 63 -11 
63 -3 63 -2 64 0 63 0 63 0 64 0 63 0 63 0 
63 0 64 0 63 0 63 0 64 0 63 0 63 0 63 0 
64 0 63 -1 63 0 64 0 63 0 63 0 63 0 64 0 
63 0 63 0 64 0 63 0 63 0 63 0 64 0 63 0 
63 0 64 0 63 0 63 0 63 0 64 0 63 0 63 0 
64 0 63 0 63 0 63 0 47 0 899 4615 86 MP stroke
c8
58 0 63 0 63 0 63 0 64 1 63 0 63 0 64 0 
63 0 63 0 63 0 64 0 63 0 63 0 64 0 63 0 
63 0 63 0 64 0 63 0 63 0 64 0 63 0 63 0 
63 0 64 0 63 0 63 0 64 0 63 0 63 0 63 0 
64 0 63 0 63 0 64 0 63 0 63 0 64 1 63 1 
63 2 63 2 64 4 63 6 63 8 64 12 63 16 63 22 
63 30 64 39 63 50 63 62 64 76 63 91 63 105 63 119 
64 131 63 141 63 145 64 145 63 140 63 127 63 109 64 86 
63 57 63 26 64 -7 63 -40 63 -70 63 -96 64 -118 63 -133 
63 -143 64 -146 63 -143 63 -137 63 -127 64 -113 63 -99 63 -84 
64 -70 63 -57 63 -45 63 -35 47 -19 899 4543 86 MP stroke
c9
58 84 63 110 63 127 63 141 64 153 63 160 63 161 64 155 
63 141 63 121 63 92 64 59 63 22 63 -16 64 -53 63 -87 
63 -117 63 -138 64 -153 63 -161 63 -160 64 -155 63 -143 63 -130 
63 -112 64 -96 63 -79 63 -63 64 -50 63 -38 63 -29 63 -20 
64 -15 63 -10 63 -7 64 -5 63 -3 63 -2 64 -1 63 -1 
63 0 63 0 64 0 63 0 63 0 64 0 63 0 63 0 
63 0 64 0 63 0 63 0 64 0 63 0 63 0 63 0 
64 0 63 0 63 0 64 0 63 0 63 0 63 0 64 0 
63 0 63 0 64 0 63 0 63 0 63 0 64 0 63 -1 
63 0 64 0 63 0 63 0 63 0 64 0 63 0 63 0 
64 0 63 0 63 0 63 0 47 0 899 4615 86 MP stroke
c8
58 0 63 1 63 0 63 0 64 0 63 0 63 0 64 0 
63 0 63 0 63 0 64 0 63 0 63 0 64 0 63 0 
63 0 63 0 64 0 63 0 63 0 64 0 63 0 63 0 
63 0 64 0 63 0 63 0 64 0 63 0 63 0 63 0 
64 0 63 0 63 0 64 0 63 1 63 0 64 2 63 1 
63 3 63 4 64 5 63 8 63 11 64 15 63 20 63 27 
63 34 64 44 63 54 63 65 64 78 63 90 63 102 63 114 
64 122 63 129 63 131 64 130 63 122 63 111 63 95 64 73 
63 49 63 23 64 -7 63 -33 63 -60 63 -83 64 -102 63 -117 
63 -126 64 -131 63 -131 63 -126 63 -119 64 -109 63 -97 63 -85 
64 -73 63 -60 63 -49 63 -39 47 -23 899 4521 86 MP stroke
c9
58 4 63 8 63 12 63 19 64 29 63 42 63 60 64 80 
63 105 63 133 63 161 64 189 63 210 63 225 64 226 63 216 
63 189 63 148 64 95 63 34 63 -30 64 -92 63 -145 63 -186 
63 -215 64 -226 63 -225 63 -212 64 -190 63 -163 63 -134 63 -107 
64 -82 63 -60 63 -43 64 -30 63 -20 63 -13 64 -8 63 -4 
63 -3 63 -2 64 -1 63 0 63 0 64 0 63 0 63 0 
63 0 64 0 63 0 63 0 64 0 63 0 63 0 63 0 
64 0 63 0 63 0 64 0 63 0 63 0 63 0 64 0 
63 0 63 0 64 0 63 0 63 0 63 -1 64 0 63 0 
63 0 64 0 63 0 63 0 63 0 64 0 63 0 63 0 
64 0 63 0 63 0 63 0 47 0 899 4615 86 MP stroke
c8
58 0 63 0 63 0 63 0 64 0 63 0 63 0 64 0 
63 0 63 0 63 0 64 0 63 0 63 0 64 0 63 0 
63 0 63 0 64 0 63 0 63 0 64 0 63 0 63 0 
63 0 64 0 63 0 63 0 64 0 63 0 63 1 63 0 
64 1 63 2 63 1 64 3 63 3 63 4 64 6 63 7 
63 10 63 12 64 15 63 19 63 24 64 28 63 34 63 39 
63 46 64 53 63 59 63 65 64 72 63 77 63 82 63 84 
64 87 63 85 63 83 64 79 63 72 63 63 63 53 64 39 
63 27 63 11 64 -3 63 -18 63 -32 63 -45 64 -58 63 -67 
63 -75 64 -81 63 -84 63 -86 63 -86 64 -84 63 -79 63 -75 
64 -70 63 -62 63 -57 63 -49 47 -32 899 4411 86 MP stroke
c9
58 0 63 0 63 0 63 0 64 0 63 0 63 0 64 0 
63 0 63 1 63 2 64 5 63 11 63 22 64 42 63 76 
63 126 63 195 64 278 63 365 63 441 64 482 63 466 63 386 
63 241 64 55 63 -142 63 -313 64 -431 63 -481 63 -469 63 -410 
64 -326 63 -239 63 -162 64 -101 63 -59 63 -32 64 -16 63 -8 
63 -3 63 -2 64 0 63 0 63 0 64 0 63 0 63 0 
63 0 64 0 63 0 63 0 64 0 63 0 63 0 63 0 
64 0 63 0 63 0 64 -1 63 0 63 0 63 0 64 0 
63 0 63 0 64 0 63 0 63 0 63 0 64 0 63 0 
63 0 64 0 63 0 63 0 63 0 64 0 63 0 63 0 
64 0 63 0 63 0 63 0 47 0 899 4615 86 MP stroke
c8
58 0 63 0 63 0 63 0 64 0 63 0 63 0 64 0 
63 0 63 0 63 1 64 0 63 0 63 0 64 0 63 0 
63 0 63 0 64 0 63 0 63 0 64 0 63 0 63 0 
63 0 64 0 63 0 63 0 64 0 63 0 63 0 63 0 
64 0 63 0 63 0 64 0 63 0 63 0 64 0 63 0 
63 1 63 0 64 2 63 2 63 4 64 6 63 9 63 14 
63 20 64 28 63 39 63 53 64 68 63 86 63 106 63 127 
64 146 63 163 63 175 64 181 63 180 63 167 63 147 64 117 
63 79 63 35 64 -9 63 -55 63 -96 63 -131 64 -157 63 -173 
63 -182 64 -179 63 -171 63 -156 63 -138 64 -118 63 -97 63 -79 
64 -61 63 -46 63 -34 63 -24 47 -13 899 4578 86 MP stroke
c9
58 17 63 35 63 62 63 103 64 159 63 229 63 308 64 380 
63 432 63 444 63 403 64 305 63 159 63 -13 64 -183 63 -323 
63 -412 63 -446 64 -426 63 -371 63 -295 64 -219 63 -149 63 -96 
63 -58 64 -32 63 -17 63 -8 64 -4 63 -1 63 -1 63 0 
64 0 63 0 63 0 64 0 63 0 63 0 64 0 63 0 
63 0 63 0 64 0 63 0 63 0 64 0 63 0 63 0 
63 -1 64 0 63 0 63 0 64 0 63 0 63 0 63 0 
64 0 63 0 63 0 64 0 63 0 63 0 63 0 64 0 
63 0 63 0 64 0 63 0 63 0 63 0 64 0 63 0 
63 0 64 0 63 0 63 0 63 0 64 0 63 0 63 0 
64 0 63 0 63 0 63 0 47 0 899 4615 86 MP stroke
c8
58 0 63 0 63 1 63 0 64 0 63 0 63 0 64 0 
63 0 63 0 63 0 64 0 63 0 63 0 64 0 63 0 
63 0 63 0 64 0 63 0 63 0 64 0 63 0 63 0 
63 0 64 0 63 0 63 0 64 0 63 0 63 0 63 0 
64 0 63 0 63 0 64 0 63 0 63 1 64 1 63 2 
63 2 63 3 64 6 63 7 63 10 64 15 63 19 63 26 
63 33 64 42 63 53 63 65 64 78 63 90 63 103 63 115 
64 124 63 132 63 134 64 133 63 127 63 114 63 98 64 76 
63 51 63 23 64 -7 63 -35 63 -62 63 -85 64 -106 63 -120 
63 -130 64 -134 63 -134 63 -129 63 -121 64 -110 63 -97 63 -85 
64 -72 63 -60 63 -48 63 -38 47 -23 899 4527 86 MP stroke
c9
58 4 63 7 63 14 63 21 64 35 63 52 63 77 64 106 
63 142 63 180 63 219 64 252 63 274 63 280 64 265 63 227 
63 168 63 91 64 5 63 -81 63 -159 64 -221 63 -262 63 -279 
63 -276 64 -255 63 -223 63 -185 64 -147 63 -110 63 -80 63 -55 
64 -36 63 -23 63 -14 64 -9 63 -4 63 -3 64 -1 63 -1 
63 0 63 0 64 0 63 0 63 0 64 0 63 0 63 0 
63 0 64 0 63 0 63 0 64 0 63 0 63 0 63 0 
64 0 63 0 63 0 64 0 63 0 63 0 63 0 64 -1 
63 0 63 0 64 0 63 0 63 0 63 0 64 0 63 0 
63 0 64 0 63 0 63 0 63 0 64 0 63 0 63 0 
64 0 63 0 63 0 63 0 47 0 899 4615 86 MP stroke
c8
58 0 63 0 63 0 63 0 64 0 63 0 63 0 64 0 
63 0 63 0 63 0 64 0 63 1 63 0 64 0 63 0 
63 0 63 0 64 0 63 0 63 0 64 0 63 0 63 0 
63 0 64 0 63 0 63 0 64 0 63 0 63 0 63 0 
64 0 63 0 63 0 64 0 63 0 63 0 64 0 63 0 
63 0 63 1 64 1 63 1 63 3 64 5 63 7 63 11 
63 17 64 25 63 34 63 48 64 65 63 83 63 105 63 127 
64 150 63 169 63 186 64 194 63 194 63 184 63 161 64 130 
63 87 63 40 64 -11 63 -61 63 -106 63 -145 64 -172 63 -189 
63 -196 64 -191 63 -180 63 -161 63 -141 64 -117 63 -95 63 -75 
64 -57 63 -42 63 -30 63 -21 47 -11 899 4587 86 MP stroke
c9
52 -368 63 -783 63 -894 64 -804 63 -603 63 -387 63 -214 64 -104 
63 -44 63 -17 64 -5 63 -2 63 0 64 0 63 0 63 0 
63 0 64 0 63 0 63 0 64 0 63 0 63 0 63 0 
64 -1 63 0 63 0 64 0 63 0 63 0 63 0 64 0 
63 0 63 0 64 0 63 0 63 0 63 0 64 0 63 0 
63 0 64 0 63 0 63 0 63 0 64 0 63 0 63 0 
64 0 63 0 63 0 63 0 64 0 63 0 63 0 64 0 
63 0 63 0 63 0 47 0 899 4615 61 MP stroke
58 0 63 0 63 0 63 0 64 0 63 0 63 0 64 0 
63 0 63 0 63 0 64 0 63 1 63 5 64 15 63 40 
63 96 63 201 64 366 63 581 63 786 64 893 63 805 56 436 
4750 389 25 MP stroke
c8
58 0 63 0 63 0 63 0 64 0 63 0 63 0 64 0 
63 0 63 0 63 0 64 0 63 0 63 0 64 0 63 0 
63 0 63 0 64 0 63 0 63 0 64 0 63 0 63 0 
63 0 64 0 63 0 63 0 64 0 63 0 63 0 63 0 
64 0 63 1 63 1 64 1 63 2 63 2 64 3 63 5 
63 6 63 9 64 11 63 14 63 19 64 23 63 29 63 36 
63 43 64 50 63 59 63 68 64 76 63 84 63 91 63 97 
64 100 63 102 63 101 64 97 63 89 63 79 63 67 64 51 
63 33 63 15 64 -4 63 -23 63 -41 63 -58 64 -72 63 -84 
63 -93 64 -99 63 -101 63 -102 63 -99 64 -95 63 -88 63 -81 
64 -72 63 -64 63 -56 63 -47 47 -29 899 4458 86 MP stroke
c9
58 1 63 4 63 5 63 11 64 18 63 31 63 48 64 74 
63 106 63 145 63 190 64 235 63 275 63 303 64 311 63 294 
63 247 63 176 64 84 63 -18 63 -118 64 -203 63 -267 63 -302 
63 -311 64 -295 63 -263 63 -220 64 -174 63 -130 63 -94 63 -64 
64 -41 63 -26 63 -15 64 -9 63 -5 63 -2 64 -1 63 -1 
63 0 63 0 64 0 63 0 63 0 64 0 63 0 63 0 
63 0 64 0 63 0 63 0 64 0 63 0 63 0 63 0 
64 0 63 0 63 0 64 0 63 0 63 -1 63 0 64 0 
63 0 63 0 64 0 63 0 63 0 63 0 64 0 63 0 
63 0 64 0 63 0 63 0 63 0 64 0 63 0 63 0 
64 0 63 0 63 0 63 0 47 0 899 4615 86 MP stroke
c8
58 0 63 0 63 0 63 0 64 0 63 0 63 0 64 0 
63 0 63 0 63 0 64 0 63 0 63 0 64 1 63 0 
63 0 63 0 64 0 63 0 63 0 64 0 63 0 63 0 
63 0 64 0 63 0 63 0 64 0 63 0 63 0 63 0 
64 0 63 0 63 0 64 0 63 0 63 0 64 0 63 0 
63 0 63 0 64 1 63 1 63 2 64 3 63 5 63 9 
63 14 64 21 63 30 63 43 64 59 63 79 63 102 63 127 
64 153 63 176 63 197 64 208 63 211 63 202 63 180 64 144 
63 99 63 45 64 -13 63 -68 63 -120 63 -161 64 -190 63 -208 
63 -211 64 -205 63 -188 63 -167 63 -141 64 -117 63 -91 63 -71 
64 -51 63 -38 63 -25 63 -18 47 -8 899 4594 86 MP stroke
c9
58 76 63 115 63 150 63 187 64 222 63 252 63 269 64 270 
63 249 63 209 63 148 64 72 63 -11 63 -92 64 -165 63 -221 
63 -256 63 -272 64 -266 63 -245 63 -214 64 -178 63 -140 63 -107 
63 -77 64 -54 63 -36 63 -23 64 -14 63 -8 63 -5 63 -3 
64 -1 63 -1 63 0 64 0 63 0 63 0 64 0 63 0 
63 0 63 0 64 0 63 0 63 0 64 0 63 0 63 0 
63 0 64 0 63 0 63 0 64 0 63 0 63 0 63 0 
64 0 63 -1 63 0 64 0 63 0 63 0 63 0 64 0 
63 0 63 0 64 0 63 0 63 0 63 0 64 0 63 0 
63 0 64 0 63 0 63 0 63 0 64 0 63 0 63 0 
64 0 63 0 63 0 63 0 47 0 899 4615 86 MP stroke
c8
58 0 63 0 63 0 63 0 64 0 63 0 63 0 64 0 
63 0 63 0 63 0 64 0 63 0 63 0 64 0 63 0 
63 0 63 1 64 0 63 0 63 0 64 0 63 0 63 0 
63 0 64 0 63 0 63 0 64 0 63 0 63 0 63 0 
64 0 63 0 63 0 64 0 63 0 63 0 64 0 63 0 
63 0 63 0 64 0 63 1 63 1 64 1 63 4 63 6 
63 9 64 15 63 24 63 36 64 51 63 71 63 96 63 125 
64 154 63 185 63 211 64 230 63 237 63 232 63 208 64 170 
63 117 63 53 64 -14 63 -82 63 -141 63 -188 64 -221 63 -236 
63 -236 64 -223 63 -200 63 -172 63 -141 64 -112 63 -85 63 -62 
64 -44 63 -30 63 -20 63 -13 47 -5 899 4602 86 MP stroke
c9
58 2 63 5 63 9 63 17 64 28 63 46 63 72 64 105 
63 147 63 195 63 245 64 289 63 321 63 329 64 311 63 259 
63 179 63 77 64 -34 63 -141 63 -231 64 -294 63 -326 63 -327 
63 -304 64 -263 63 -215 63 -165 64 -121 63 -83 63 -55 63 -35 
64 -20 63 -12 63 -6 64 -3 63 -2 63 -1 64 0 63 0 
63 0 63 0 64 0 63 0 63 0 64 0 63 0 63 0 
63 0 64 0 63 0 63 0 64 0 63 0 63 0 63 0 
64 0 63 0 63 0 64 -1 63 0 63 0 63 0 64 0 
63 0 63 0 64 0 63 0 63 0 63 0 64 0 63 0 
63 0 64 0 63 0 63 0 63 0 64 0 63 0 63 0 
64 0 63 0 63 0 63 0 47 0 899 4615 86 MP stroke
c8
58 0 63 0 63 0 63 0 64 0 63 0 63 0 64 0 
63 0 63 0 63 0 64 1 63 0 63 0 64 0 63 0 
63 0 63 0 64 0 63 0 63 0 64 0 63 0 63 0 
63 0 64 0 63 0 63 0 64 0 63 0 63 0 63 0 
64 0 63 0 63 0 64 0 63 0 63 0 64 0 63 0 
63 0 63 1 64 1 63 2 63 4 64 5 63 8 63 13 
63 18 64 26 63 37 63 51 64 66 63 85 63 105 63 127 
64 148 63 167 63 180 64 188 63 186 63 175 63 154 64 123 
63 83 63 38 64 -11 63 -57 63 -101 63 -137 64 -165 63 -181 
63 -188 64 -186 63 -175 63 -159 63 -139 64 -118 63 -96 63 -77 
64 -59 63 -44 63 -32 63 -23 47 -11 899 4582 86 MP stroke
c9
58 75 63 100 63 117 63 132 64 145 63 155 63 158 64 157 
63 147 63 131 63 107 64 77 63 43 63 6 64 -31 63 -66 
63 -98 63 -123 64 -143 63 -154 63 -159 64 -156 63 -149 63 -137 
63 -122 64 -105 63 -89 63 -73 64 -59 63 -45 63 -35 63 -25 
64 -19 63 -13 63 -9 64 -7 63 -4 63 -2 64 -2 63 -1 
63 -1 63 0 64 0 63 0 63 0 64 0 63 0 63 0 
63 0 64 0 63 0 63 0 64 0 63 0 63 0 63 0 
64 0 63 0 63 0 64 0 63 0 63 0 63 0 64 0 
63 0 63 0 64 0 63 0 63 0 63 0 64 0 63 0 
63 -1 64 0 63 0 63 0 63 0 64 0 63 0 63 0 
64 0 63 0 63 0 63 0 47 0 899 4615 86 MP stroke
c8
58 0 63 0 63 0 63 0 64 0 63 0 63 0 64 0 
63 0 63 0 63 0 64 0 63 0 63 0 64 0 63 0 
63 0 63 0 64 0 63 0 63 0 64 0 63 0 63 0 
63 0 64 0 63 0 63 0 64 0 63 0 63 0 63 0 
64 0 63 0 63 1 64 1 63 1 63 1 64 3 63 3 
63 5 63 7 64 9 63 12 63 15 64 21 63 26 63 33 
63 40 64 49 63 58 63 68 64 77 63 87 63 96 63 102 
64 109 63 111 63 110 64 108 63 100 63 89 63 75 64 58 
63 38 63 18 64 -5 63 -27 63 -47 63 -65 64 -82 63 -94 
63 -104 64 -109 63 -111 63 -110 63 -107 64 -99 63 -92 63 -83 
64 -74 63 -63 63 -54 63 -45 47 -28 899 4482 86 MP stroke
c9
58 0 63 1 63 1 63 2 64 4 63 6 63 11 64 17 
63 27 63 40 63 58 64 80 63 107 63 138 64 170 63 201 
63 227 63 242 64 246 63 232 63 201 64 154 63 92 63 22 
63 -50 64 -118 63 -173 63 -216 64 -239 63 -246 63 -238 63 -217 
64 -190 63 -157 63 -126 64 -96 63 -71 63 -51 64 -34 63 -23 
63 -14 63 -9 64 -5 63 -3 63 -2 64 -1 63 0 63 0 
63 0 64 0 63 0 63 0 64 0 63 0 63 0 63 0 
64 0 63 0 63 0 64 0 63 0 63 0 63 0 64 0 
63 0 63 0 64 0 63 0 63 0 63 0 64 0 63 -1 
63 0 64 0 63 0 63 0 63 0 64 0 63 0 63 0 
64 0 63 0 63 0 63 0 47 0 899 4615 86 MP stroke
c8
58 0 63 0 63 0 63 0 64 0 63 0 63 0 64 0 
63 0 63 0 63 0 64 1 63 0 63 0 64 0 63 0 
63 0 63 0 64 0 63 0 63 0 64 0 63 0 63 0 
63 0 64 0 63 0 63 0 64 0 63 0 63 0 63 0 
64 0 63 0 63 0 64 0 63 0 63 0 64 0 63 0 
63 0 63 1 64 2 63 2 63 3 64 6 63 9 63 13 
63 19 64 28 63 38 63 52 64 67 63 86 63 106 63 126 
64 147 63 165 63 177 64 184 63 182 63 171 63 150 64 119 
63 81 63 36 64 -10 63 -56 63 -98 63 -133 64 -160 63 -177 
63 -184 64 -182 63 -173 63 -157 63 -139 64 -117 63 -97 63 -78 
64 -60 63 -46 63 -33 63 -24 47 -12 899 4580 86 MP stroke
c9
58 2 63 6 63 13 63 24 64 44 63 75 63 120 64 181 
63 253 63 328 63 393 64 432 63 428 63 370 64 258 63 107 
63 -62 63 -221 64 -345 63 -418 63 -436 64 -407 63 -347 63 -273 
63 -199 64 -135 63 -86 63 -51 64 -28 63 -15 63 -8 63 -3 
64 -2 63 0 63 0 64 0 63 0 63 0 64 0 63 0 
63 0 63 0 64 0 63 0 63 0 64 0 63 0 63 0 
63 0 64 0 63 0 63 0 64 -1 63 0 63 0 63 0 
64 0 63 0 63 0 64 0 63 0 63 0 63 0 64 0 
63 0 63 0 64 0 63 0 63 0 63 0 64 0 63 0 
63 0 64 0 63 0 63 0 63 0 64 0 63 0 63 0 
64 0 63 0 63 0 63 0 47 0 899 4615 86 MP stroke
c8
58 0 63 0 63 0 63 0 64 0 63 0 63 0 64 0 
63 0 63 0 63 0 64 0 63 1 63 0 64 0 63 0 
63 0 63 0 64 0 63 0 63 0 64 0 63 0 63 0 
63 0 64 0 63 0 63 0 64 0 63 0 63 0 63 0 
64 0 63 0 63 0 64 0 63 0 63 0 64 0 63 0 
63 0 63 1 64 1 63 2 63 3 64 5 63 8 63 12 
63 18 64 26 63 36 63 49 64 66 63 84 63 105 63 127 
64 149 63 168 63 182 64 190 63 189 63 178 63 157 64 125 
63 85 63 38 64 -10 63 -59 63 -103 63 -140 64 -167 63 -184 
63 -191 64 -188 63 -176 63 -160 63 -140 64 -118 63 -96 63 -76 
64 -58 63 -43 63 -32 63 -22 47 -11 899 4584 86 MP stroke
c9
58 5 63 10 63 18 63 28 64 45 63 68 63 98 64 135 
63 177 63 219 63 260 64 288 63 300 63 290 64 253 63 191 
63 108 63 13 64 -82 63 -170 63 -238 64 -282 63 -300 63 -294 
63 -268 64 -232 63 -188 63 -146 64 -108 63 -75 63 -51 63 -33 
64 -20 63 -12 63 -6 64 -4 63 -2 63 -1 64 0 63 0 
63 0 63 0 64 0 63 0 63 0 64 0 63 0 63 0 
63 0 64 0 63 0 63 0 64 0 63 0 63 0 63 0 
64 0 63 0 63 0 64 0 63 -1 63 0 63 0 64 0 
63 0 63 0 64 0 63 0 63 0 63 0 64 0 63 0 
63 0 64 0 63 0 63 0 63 0 64 0 63 0 63 0 
64 0 63 0 63 0 63 0 47 0 899 4615 86 MP stroke
c8
58 0 63 0 63 0 63 0 64 0 63 0 63 0 64 0 
63 0 63 0 63 0 64 0 63 0 63 0 64 0 63 0 
63 0 63 1 64 0 63 0 63 0 64 0 63 0 63 0 
63 0 64 0 63 0 63 0 64 0 63 0 63 0 63 0 
64 0 63 0 63 0 64 0 63 0 63 0 64 0 63 0 
63 0 63 0 64 0 63 1 63 1 64 2 63 4 63 7 
63 10 64 17 63 26 63 37 64 54 63 74 63 98 63 125 
64 155 63 182 63 207 64 224 63 230 63 222 63 200 64 162 
63 111 63 51 64 -14 63 -78 63 -134 63 -180 64 -212 63 -227 
63 -229 64 -217 63 -197 63 -171 63 -142 64 -113 63 -87 63 -65 
64 -46 63 -32 63 -22 63 -14 47 -6 899 4600 86 MP stroke
c9
58 100 63 142 63 174 63 206 64 230 63 246 63 247 64 231 
63 198 63 148 63 85 64 13 63 -60 63 -127 64 -182 63 -222 
63 -243 63 -248 64 -237 63 -215 63 -186 64 -153 63 -122 63 -92 
63 -67 64 -48 63 -32 63 -21 64 -13 63 -8 63 -5 63 -2 
64 -2 63 -1 63 0 64 0 63 0 63 0 64 0 63 0 
63 0 63 0 64 0 63 0 63 0 64 0 63 0 63 0 
63 0 64 0 63 0 63 0 64 0 63 0 63 0 63 0 
64 0 63 0 63 0 64 -1 63 0 63 0 63 0 64 0 
63 0 63 0 64 0 63 0 63 0 63 0 64 0 63 0 
63 0 64 0 63 0 63 0 63 0 64 0 63 0 63 0 
64 0 63 0 63 0 63 0 47 0 899 4615 86 MP stroke
c8
58 0 63 0 63 0 63 0 64 0 63 0 63 0 64 0 
63 0 63 0 63 0 64 0 63 0 63 0 64 0 63 0 
63 0 63 1 64 0 63 0 63 0 64 0 63 0 63 0 
63 0 64 0 63 0 63 0 64 0 63 0 63 0 63 0 
64 0 63 0 63 0 64 0 63 0 63 0 64 0 63 0 
63 0 63 0 64 0 63 1 63 1 64 2 63 3 63 7 
63 10 64 16 63 24 63 37 64 52 63 72 63 97 63 125 
64 155 63 183 63 209 64 228 63 234 63 227 63 205 64 166 
63 114 63 52 64 -14 63 -80 63 -138 63 -184 64 -217 63 -232 
63 -232 64 -221 63 -199 63 -171 63 -142 64 -112 63 -86 63 -64 
64 -45 63 -31 63 -20 63 -13 47 -6 899 4601 86 MP stroke
c9
58 5 63 11 63 20 63 34 64 54 63 85 63 123 64 171 
63 223 63 275 63 318 64 343 63 339 63 302 64 232 63 133 
63 17 63 -101 64 -206 63 -286 63 -332 64 -344 63 -328 63 -288 
63 -239 64 -185 63 -136 63 -95 64 -62 63 -39 63 -23 63 -14 
64 -7 63 -3 63 -2 64 -1 63 0 63 0 64 0 63 0 
63 0 63 0 64 0 63 0 63 0 64 0 63 0 63 0 
63 0 64 0 63 0 63 0 64 0 63 0 63 0 63 0 
64 -1 63 0 63 0 64 0 63 0 63 0 63 0 64 0 
63 0 63 0 64 0 63 0 63 0 63 0 64 0 63 0 
63 0 64 0 63 0 63 0 63 0 64 0 63 0 63 0 
64 0 63 0 63 0 63 0 47 0 899 4615 86 MP stroke
c8
58 0 63 0 63 0 63 0 64 0 63 0 63 0 64 0 
63 0 63 0 63 0 64 0 63 0 63 0 64 0 63 0 
63 0 63 0 64 0 63 0 63 1 64 0 63 0 63 0 
63 0 64 0 63 0 63 0 64 0 63 0 63 0 63 0 
64 0 63 0 63 0 64 0 63 0 63 0 64 0 63 0 
63 0 63 0 64 0 63 0 63 0 64 1 63 2 63 4 
63 6 64 10 63 17 63 28 64 42 63 62 63 87 63 118 
64 154 63 190 63 224 64 253 63 267 63 266 63 244 64 201 
63 140 63 64 64 -18 63 -97 63 -169 63 -222 64 -256 63 -269 
63 -262 64 -242 63 -210 63 -175 63 -138 64 -104 63 -76 63 -52 
64 -36 63 -22 63 -14 63 -8 47 -4 899 4608 86 MP stroke
c9
58 4 63 6 63 9 63 11 64 16 63 21 63 27 64 35 
63 44 63 53 63 65 64 76 63 89 63 99 64 110 63 118 
63 124 63 126 64 125 63 118 63 107 64 92 63 72 63 50 
63 24 64 -2 63 -29 63 -53 64 -76 63 -95 63 -109 63 -120 
64 -125 63 -126 63 -123 64 -117 63 -109 63 -97 64 -87 63 -74 
63 -63 63 -52 64 -42 63 -33 63 -26 64 -20 63 -15 63 -11 
63 -8 64 -6 63 -4 63 -2 64 -2 63 -1 63 -1 63 -1 
64 0 63 0 63 0 64 0 63 0 63 0 63 0 64 0 
63 0 63 0 64 0 63 0 63 0 63 0 64 0 63 0 
63 0 64 0 63 0 63 0 63 0 64 0 63 0 63 0 
64 0 63 0 63 0 63 0 47 0 899 4614 86 MP stroke
c8
58 0 63 0 63 0 63 0 64 0 63 0 63 0 64 0 
63 1 63 0 63 0 64 0 63 0 63 0 64 0 63 0 
63 0 63 0 64 0 63 0 63 0 64 0 63 0 63 0 
63 0 64 0 63 0 63 0 64 0 63 0 63 0 63 0 
64 0 63 0 63 0 64 0 63 0 63 0 64 0 63 1 
63 0 63 2 64 2 63 3 63 6 64 8 63 11 63 17 
63 24 64 33 63 43 63 57 64 72 63 88 63 107 63 124 
64 141 63 155 63 164 64 167 63 163 63 151 63 131 64 104 
63 70 63 31 64 -8 63 -49 63 -85 63 -116 64 -141 63 -157 
63 -166 64 -166 63 -161 63 -149 63 -134 64 -117 63 -99 63 -81 
64 -65 63 -51 63 -39 63 -28 47 -15 899 4566 86 MP stroke
c9
58 2 63 3 63 6 63 9 64 15 63 24 63 34 64 50 
63 70 63 93 63 120 64 149 63 179 63 204 64 223 63 232 
63 227 63 207 64 172 63 122 63 63 64 -3 63 -68 63 -127 
63 -175 64 -209 63 -229 63 -231 64 -222 63 -202 63 -176 63 -147 
64 -118 63 -91 63 -67 64 -49 63 -34 63 -22 64 -15 63 -9 
63 -5 63 -4 64 -1 63 -1 63 -1 64 0 63 0 63 0 
63 0 64 0 63 0 63 0 64 0 63 0 63 0 63 0 
64 0 63 0 63 0 64 0 63 0 63 0 63 0 64 0 
63 0 63 0 64 0 63 0 63 0 63 0 64 -1 63 0 
63 0 64 0 63 0 63 0 63 0 64 0 63 0 63 0 
64 0 63 0 63 0 63 0 47 0 899 4615 86 MP stroke
c8
58 0 63 0 63 0 63 0 64 0 63 0 63 0 64 0 
63 0 63 0 63 0 64 0 63 0 63 0 64 0 63 0 
63 0 63 0 64 0 63 0 63 0 64 0 63 0 63 0 
63 0 64 0 63 0 63 0 64 0 63 0 63 0 63 1 
64 1 63 1 63 1 64 2 63 2 63 4 64 5 63 6 
63 9 63 11 64 14 63 17 63 22 64 27 63 32 63 39 
63 45 64 52 63 59 63 67 64 73 63 80 63 85 63 88 
64 91 63 91 63 88 64 84 63 78 63 68 63 56 64 43 
63 29 63 13 64 -4 63 -20 63 -34 63 -50 64 -61 63 -73 
63 -80 64 -86 63 -90 63 -91 63 -90 64 -87 63 -83 63 -77 
64 -70 63 -64 63 -56 63 -49 47 -32 899 4427 86 MP stroke
c9
58 0 63 0 63 0 63 0 64 0 63 0 63 0 64 2 
63 2 63 4 63 9 64 15 63 26 63 43 64 66 63 99 
63 139 63 186 64 235 63 280 63 314 64 327 63 314 63 269 
63 194 64 98 63 -13 63 -119 64 -213 63 -282 63 -319 63 -327 
64 -308 63 -271 63 -224 64 -175 63 -130 63 -91 64 -60 63 -39 
63 -23 63 -13 64 -8 63 -4 63 -2 64 -1 63 0 63 0 
63 0 64 0 63 0 63 0 64 0 63 0 63 0 63 0 
64 0 63 0 63 0 64 0 63 0 63 0 63 0 64 0 
63 0 63 0 64 0 63 -1 63 0 63 0 64 0 63 0 
63 0 64 0 63 0 63 0 63 0 64 0 63 0 63 0 
64 0 63 0 63 0 63 0 47 0 899 4615 86 MP stroke
c8
58 0 63 0 63 0 63 0 64 0 63 0 63 1 64 0 
63 0 63 0 63 0 64 0 63 0 63 0 64 0 63 0 
63 0 63 0 64 0 63 0 63 0 64 0 63 0 63 0 
63 0 64 0 63 0 63 0 64 0 63 0 63 0 63 0 
64 0 63 0 63 0 64 0 63 0 63 0 64 0 63 1 
63 1 63 2 64 3 63 5 63 6 64 10 63 14 63 20 
63 27 64 35 63 47 63 60 64 74 63 90 63 107 63 122 
64 136 63 147 63 155 64 155 63 151 63 139 63 120 64 94 
63 63 63 28 64 -7 63 -44 63 -77 63 -106 64 -129 63 -144 
63 -154 64 -156 63 -152 63 -143 63 -131 64 -115 63 -99 63 -83 
64 -68 63 -54 63 -42 63 -32 47 -17 899 4555 86 MP stroke
c9
58 0 63 0 63 0 63 0 64 1 63 2 63 6 64 13 
63 28 63 54 63 97 64 162 63 248 63 349 64 448 63 517 
63 531 63 468 64 323 63 117 63 -113 64 -319 63 -465 63 -530 
63 -519 64 -449 63 -351 63 -251 64 -163 63 -99 63 -54 63 -28 
64 -14 63 -6 63 -2 64 -1 63 0 63 0 64 0 63 0 
63 0 63 0 64 0 63 0 63 0 64 0 63 0 63 0 
63 0 64 0 63 0 63 0 64 -1 63 0 63 0 63 0 
64 0 63 0 63 0 64 0 63 0 63 0 63 0 64 0 
63 0 63 0 64 0 63 0 63 0 63 0 64 0 63 0 
63 0 64 0 63 0 63 0 63 0 64 0 63 0 63 0 
64 0 63 0 63 0 63 0 47 0 899 4615 86 MP stroke
gr

c9

end %%Color Dict

eplot
%%EndObject

epage
end

showpage

%%Trailer
%%EOF
