%!PS-Adobe-3.0 EPSF-3.0
%%Creator: MATLAB, The Mathworks, Inc.
%%Title: Pictures\main_compen05_norm_fusion_exp5.eps
%%CreationDate: 11/17/2007  01:47:07
%%DocumentNeededFonts: Helvetica
%%DocumentProcessColors: Cyan Magenta Yellow Black
%%LanguageLevel: 2
%%Pages: 1
%%BoundingBox:    83   191   511   609
%%EndComments

%%BeginProlog
% MathWorks dictionary
/MathWorks 160 dict begin
% definition operators
/bdef {bind def} bind def
/ldef {load def} bind def
/xdef {exch def} bdef
/xstore {exch store} bdef
% operator abbreviations
/c  /clip ldef
/cc /concat ldef
/cp /closepath ldef
/gr /grestore ldef
/gs /gsave ldef
/mt /moveto ldef
/np /newpath ldef
/cm /currentmatrix ldef
/sm /setmatrix ldef
/rm /rmoveto ldef
/rl /rlineto ldef
/s {show newpath} bdef
/sc {setcmykcolor} bdef
/sr /setrgbcolor ldef
/sg /setgray ldef
/w /setlinewidth ldef
/j /setlinejoin ldef
/cap /setlinecap ldef
/rc {rectclip} bdef
/rf {rectfill} bdef
% page state control
/pgsv () def
/bpage {/pgsv save def} bdef
/epage {pgsv restore} bdef
/bplot /gsave ldef
/eplot {stroke grestore} bdef
% orientation switch
/portraitMode 0 def /landscapeMode 1 def /rotateMode 2 def
% coordinate system mappings
/dpi2point 0 def
% font control
/FontSize 0 def
/FMS {/FontSize xstore findfont [FontSize 0 0 FontSize neg 0 0]
  makefont setfont} bdef
/ISOLatin1Encoding where {pop /WindowsLatin1Encoding 256 array bdef
ISOLatin1Encoding WindowsLatin1Encoding copy pop
/.notdef/.notdef/quotesinglbase/florin/quotedblbase/ellipsis/dagger
/daggerdbl/circumflex/perthousand/Scaron/guilsinglleft/OE/.notdef/.notdef
/.notdef/.notdef/quoteleft/quoteright/quotedblleft/quotedblright/bullet
/endash/emdash/tilde/trademark/scaron/guilsinglright/oe/.notdef/.notdef
/Ydieresis WindowsLatin1Encoding 128 32 getinterval astore pop}
{/WindowsLatin1Encoding StandardEncoding bdef} ifelse
/reencode {exch dup where {pop load} {pop StandardEncoding} ifelse
  exch dup 3 1 roll findfont dup length dict begin
  { 1 index /FID ne {def}{pop pop} ifelse } forall
  /Encoding exch def currentdict end definefont pop} bdef
/isroman {findfont /CharStrings get /Agrave known} bdef
/FMSR {3 1 roll 1 index dup isroman {reencode} {pop pop} ifelse
  exch FMS} bdef
/csm {1 dpi2point div -1 dpi2point div scale neg translate
 dup landscapeMode eq {pop -90 rotate}
  {rotateMode eq {90 rotate} if} ifelse} bdef
% line types: solid, dotted, dashed, dotdash
/SO { [] 0 setdash } bdef
/DO { [.5 dpi2point mul 4 dpi2point mul] 0 setdash } bdef
/DA { [6 dpi2point mul] 0 setdash } bdef
/DD { [.5 dpi2point mul 4 dpi2point mul 6 dpi2point mul 4
  dpi2point mul] 0 setdash } bdef
% macros for lines and objects
/L {lineto stroke} bdef
/MP {3 1 roll moveto 1 sub {rlineto} repeat} bdef
/AP {{rlineto} repeat} bdef
/PDlw -1 def
/W {/PDlw currentlinewidth def setlinewidth} def
/PP {closepath eofill} bdef
/DP {closepath stroke} bdef
/MR {4 -2 roll moveto dup  0 exch rlineto exch 0 rlineto
  neg 0 exch rlineto closepath} bdef
/FR {MR stroke} bdef
/PR {MR fill} bdef
/L1i {{currentfile picstr readhexstring pop} image} bdef
/tMatrix matrix def
/MakeOval {newpath tMatrix currentmatrix pop translate scale
0 0 1 0 360 arc tMatrix setmatrix} bdef
/FO {MakeOval stroke} bdef
/PO {MakeOval fill} bdef
/PD {currentlinewidth 2 div 0 360 arc fill
   PDlw -1 eq not {PDlw w /PDlw -1 def} if} def
/FA {newpath tMatrix currentmatrix pop translate scale
  0 0 1 5 -2 roll arc tMatrix setmatrix stroke} bdef
/PA {newpath tMatrix currentmatrix pop	translate 0 0 moveto scale
  0 0 1 5 -2 roll arc closepath tMatrix setmatrix fill} bdef
/FAn {newpath tMatrix currentmatrix pop translate scale
  0 0 1 5 -2 roll arcn tMatrix setmatrix stroke} bdef
/PAn {newpath tMatrix currentmatrix pop translate 0 0 moveto scale
  0 0 1 5 -2 roll arcn closepath tMatrix setmatrix fill} bdef
/vradius 0 def /hradius 0 def /lry 0 def
/lrx 0 def /uly 0 def /ulx 0 def /rad 0 def
/MRR {/vradius xdef /hradius xdef /lry xdef /lrx xdef /uly xdef
  /ulx xdef newpath tMatrix currentmatrix pop ulx hradius add uly
  vradius add translate hradius vradius scale 0 0 1 180 270 arc 
  tMatrix setmatrix lrx hradius sub uly vradius add translate
  hradius vradius scale 0 0 1 270 360 arc tMatrix setmatrix
  lrx hradius sub lry vradius sub translate hradius vradius scale
  0 0 1 0 90 arc tMatrix setmatrix ulx hradius add lry vradius sub
  translate hradius vradius scale 0 0 1 90 180 arc tMatrix setmatrix
  closepath} bdef
/FRR {MRR stroke } bdef
/PRR {MRR fill } bdef
/MlrRR {/lry xdef /lrx xdef /uly xdef /ulx xdef /rad lry uly sub 2 div def
  newpath tMatrix currentmatrix pop ulx rad add uly rad add translate
  rad rad scale 0 0 1 90 270 arc tMatrix setmatrix lrx rad sub lry rad
  sub translate rad rad scale 0 0 1 270 90 arc tMatrix setmatrix
  closepath} bdef
/FlrRR {MlrRR stroke } bdef
/PlrRR {MlrRR fill } bdef
/MtbRR {/lry xdef /lrx xdef /uly xdef /ulx xdef /rad lrx ulx sub 2 div def
  newpath tMatrix currentmatrix pop ulx rad add uly rad add translate
  rad rad scale 0 0 1 180 360 arc tMatrix setmatrix lrx rad sub lry rad
  sub translate rad rad scale 0 0 1 0 180 arc tMatrix setmatrix
  closepath} bdef
/FtbRR {MtbRR stroke } bdef
/PtbRR {MtbRR fill } bdef
/stri 6 array def /dtri 6 array def
/smat 6 array def /dmat 6 array def
/tmat1 6 array def /tmat2 6 array def /dif 3 array def
/asub {/ind2 exch def /ind1 exch def dup dup
  ind1 get exch ind2 get sub exch } bdef
/tri_to_matrix {
  2 0 asub 3 1 asub 4 0 asub 5 1 asub
  dup 0 get exch 1 get 7 -1 roll astore } bdef
/compute_transform {
  dmat dtri tri_to_matrix tmat1 invertmatrix 
  smat stri tri_to_matrix tmat2 concatmatrix } bdef
/ds {stri astore pop} bdef
/dt {dtri astore pop} bdef
/db {2 copy /cols xdef /rows xdef mul dup 3 mul string
  currentfile 
  3 index 0 eq {/ASCIIHexDecode filter}
  {/ASCII85Decode filter 3 index 2 eq {/RunLengthDecode filter} if }
  ifelse exch readstring pop
  dup 0 3 index getinterval /rbmap xdef
  dup 2 index dup getinterval /gbmap xdef
  1 index dup 2 mul exch getinterval /bbmap xdef pop pop}bdef
/it {gs np dtri aload pop moveto lineto lineto cp c
  cols rows 8 compute_transform 
  rbmap gbmap bbmap true 3 colorimage gr}bdef
/il {newpath moveto lineto stroke}bdef
currentdict end def
%%EndProlog

%%BeginSetup
MathWorks begin

0 cap

end
%%EndSetup

%%Page: 1 1
%%BeginPageSetup
%%PageBoundingBox:    83   191   511   609
MathWorks begin
bpage
%%EndPageSetup

%%BeginObject: obj1
bplot

/dpi2point 12 def
portraitMode 0216 7344 csm

  785    28  5142  5018 rc
85 dict begin %Colortable dictionary
/c0 { 0.000000 0.000000 0.000000 sr} bdef
/c1 { 1.000000 1.000000 1.000000 sr} bdef
/c2 { 0.900000 0.000000 0.000000 sr} bdef
/c3 { 0.000000 0.820000 0.000000 sr} bdef
/c4 { 0.000000 0.000000 0.800000 sr} bdef
/c5 { 0.910000 0.820000 0.320000 sr} bdef
/c6 { 1.000000 0.260000 0.820000 sr} bdef
/c7 { 0.000000 0.820000 0.820000 sr} bdef
c0
1 j
1 sg
   0    0 6919 5187 rf
6 w
0 4227 4227 0 0 -4227 1466 4616 4 MP
PP
-4227 0 0 4227 4227 0 0 -4227 1466 4616 5 MP stroke
4 w
DO
0 sg
1850 4616 mt 1850  389 L
1850  389 mt 1850  389 L
2212 4616 mt 2212  389 L
2212  389 mt 2212  389 L
2729 4616 mt 2729  389 L
2729  389 mt 2729  389 L
3155 4616 mt 3155  389 L
3155  389 mt 3155  389 L
3620 4616 mt 3620  389 L
3620  389 mt 3620  389 L
4319 4616 mt 4319  389 L
4319  389 mt 4319  389 L
4940 4616 mt 4940  389 L
4940  389 mt 4940  389 L
5691 4616 mt 5691  389 L
5691  389 mt 5691  389 L
1466 4263 mt 5693 4263 L
5693 4263 mt 5693 4263 L
1466 3901 mt 5693 3901 L
5693 3901 mt 5693 3901 L
1466 3384 mt 5693 3384 L
5693 3384 mt 5693 3384 L
1466 2958 mt 5693 2958 L
5693 2958 mt 5693 2958 L
1466 2492 mt 5693 2492 L
5693 2492 mt 5693 2492 L
1466 1794 mt 5693 1794 L
5693 1794 mt 5693 1794 L
1466 1173 mt 5693 1173 L
5693 1173 mt 5693 1173 L
1466  422 mt 5693  422 L
5693  422 mt 5693  422 L
SO
6 w
1466 4616 mt 5693 4616 L
1466 4616 mt 1466  389 L
1850 4616 mt 1850 4573 L
%%IncludeResource: font Helvetica
/Helvetica /WindowsLatin1Encoding 168 FMSR

1664 4806 mt 
(  0.1 ) s
2212 4616 mt 2212 4573 L
2026 4806 mt 
(  0.2 ) s
2729 4616 mt 2729 4573 L
2543 4806 mt 
(  0.5 ) s
3155 4616 mt 3155 4573 L
2992 4806 mt 
(   1  ) s
3620 4616 mt 3620 4573 L
3457 4806 mt 
(   2  ) s
4319 4616 mt 4319 4573 L
4156 4806 mt 
(   5  ) s
4940 4616 mt 4940 4573 L
4754 4806 mt 
(  10  ) s
5691 4616 mt 5691 4573 L
5505 4806 mt 
(  20  ) s
1466 4263 mt 1508 4263 L
1058 4325 mt 
(   0.1) s
1466 3901 mt 1508 3901 L
1058 3963 mt 
(   0.2) s
1466 3384 mt 1508 3384 L
1058 3446 mt 
(   0.5) s
1466 2958 mt 1508 2958 L
1105 3020 mt 
(     1) s
1466 2492 mt 1508 2492 L
1105 2554 mt 
(     2) s
1466 1794 mt 1508 1794 L
1105 1856 mt 
(     5) s
1466 1173 mt 1508 1173 L
1058 1235 mt 
(    10) s
1466  422 mt 1508  422 L
1058  484 mt 
(    20) s
gs 1466 389 4228 4228 rc
gr

0 j
84 111 -84 111 -84 -111 84 -111 2664 2308 5 MP
/c8 { 0.000000 0.000000 1.000000 sr} bdef
c8
DP
gs 1466 389 4228 4228 rc
gr

0 -132 -132 0 0 132 132 0 2202 2520 5 MP
/c9 { 1.000000 0.000000 0.000000 sr} bdef
c9
DP
gs 1466 389 4228 4228 rc
gr

1870 2813 mt 2038 2813 L
1954 2729 mt 1954 2897 L
1895 2754 mt 2013 2872 L
2013 2754 mt 1895 2872 L
gs 1466 389 4228 4228 rc
gr

-97 167 -97 -167 194 0 2561 2388 4 MP
0 sg
DP
gs 1466 389 4228 4228 rc
gr

97 167 -194 0 97 -167 2897 1991 4 MP
DP
gs 1466 389 4228 4228 rc
c8
-60 -21 -77 -90 -81 -69 -68 -101 -63 -109 -82 -53 -76 -67 -74 -67 
-54 -107 -70 -69 -49 -108 -87 -33 -51 -96 -51 -92 -64 -67 -45 -97 
-68 -57 -62 -65 -38 -99 -54 -72 -25 -110 -67 -52 -82 -33 -62 -59 
-45 -78 -28 -95 -24 -97 -37 -81 -35 -81 -56 -59 -58 -57 -65 -51 
-71 -47 -75 -44 -85 -38 -91 -35 -98 -31 -113 -23 -124 -19 -124 -23 
-36 -84 -40 -80 -37 -82 -38 -81 -35 -82 -23 -88 -21 -89 -19 -88 
-18 -89 -16 -88 -14 -88 -13 -89 -10 -88 -9 -87 -2 -19 4436 4617 56 MP stroke
c9
-37 -147 -56 -108 -67 -69 -56 -93 -57 -85 -65 -61 -40 -114 -54 -78 
-68 -47 -63 -54 -38 -99 -48 -78 -55 -62 -56 -60 -44 -76 -39 -80 
-7 -126 -9 -115 -21 -95 -34 -73 -35 -72 -37 -66 -31 -73 -22 -80 
-27 -73 -18 -80 -16 -80 -12 -83 -4 -86 -20 -71 -25 -63 -25 -64 
-22 -64 -22 -64 -20 -64 -19 -64 -17 -64 -16 -64 -15 -63 -13 -64 
-13 -64 -10 -63 -10 -64 0 -2 2829 4617 45 MP stroke
DA
-12 -6 -48 -125 -83 -24 -23 -174 -36 -127 -37 -117 -62 -56 -32 -117 
-39 -95 -43 -82 -20 -120 -21 -112 -41 -72 -36 -79 -58 -40 -68 -27 
-72 -21 -74 -20 -81 -12 -84 -10 -90 -6 -54 -52 -38 -70 -44 -61 
-21 -85 -22 -82 -21 -81 -46 -54 -45 -55 -44 -57 -45 -54 -59 -43 
-59 -44 -60 -44 -73 -34 -38 -62 -23 -72 -23 -72 -20 -72 -19 -72 
-18 -72 -16 -72 -15 -71 -13 -72 -12 -72 -11 -71 -8 -65 3373 4617 48 MP stroke
SO
0 sg
-6 -7 -90 -36 -70 -97 -65 -102 -64 -97 -61 -97 -64 -86 -53 -105 
-66 -71 -70 -60 -77 -44 -64 -69 -35 -120 -75 -44 -36 -107 -59 -67 
-73 -44 -70 -48 -67 -52 -52 -73 -42 -84 -30 -97 -46 -75 -74 -39 
-77 -37 -58 -59 -65 -52 -30 -88 -34 -82 -60 -55 -67 -49 -69 -48 
-45 -69 -26 -85 -31 -79 -33 -77 -26 -81 -23 -82 -24 -80 -21 -81 
-24 -78 -22 -78 -22 -77 -20 -78 -18 -77 -16 -78 -16 -78 -13 -77 
-12 -77 -11 -78 -9 -77 0 -4 3747 4617 53 MP stroke
DA
-28 -24 -105 -23 -89 -68 -76 -105 -90 -59 -63 -127 -92 -44 -68 -102 
-57 -120 -67 -92 -55 -113 -77 -63 -97 -23 -67 -80 -53 -101 -63 -81 
-72 -63 -63 -76 -70 -64 -81 -49 -75 -56 -61 -75 -40 -100 -59 -74 
-53 -80 -85 -42 -89 -39 -44 -88 -46 -85 -84 -45 -68 -62 -18 -109 
-35 -90 -14 -108 -14 -104 -13 -103 -75 -52 -79 -50 -79 -52 -76 -55 
-70 -60 -51 -74 -50 -75 -46 -77 -42 -79 -35 -84 -23 -89 -21 -89 
-20 -89 -18 -89 -16 -89 -15 -89 -12 -89 -11 -89 -10 -88 -3 -33 
4477 4617 57 MP stroke
gr

DA
3273 4984 mt 
(FAR [%]) s
 966 2820 mt  -90 rotate
(FRR [%]) s
90 rotate
3182  257 mt 
(Exp 5: 1  3) s
%%IncludeResource: font Helvetica
/Helvetica /WindowsLatin1Encoding 120 FMSR

1449 4659 mt 
( ) s
5677  431 mt 
( ) s
SO
1 sg
0 912 1826 0 0 -912 3808 1361 4 MP
PP
-1826 0 0 912 1826 0 0 -912 3808 1361 5 MP stroke
4 w
DO
SO
6 w
0 sg
3808  449 mt 5634  449 L
3808 1361 mt 5634 1361 L
5634 1361 mt 5634  449 L
3808 1361 mt 3808  449 L
3808 1361 mt 5634 1361 L
3808 1361 mt 3808  449 L
3808  449 mt 5634  449 L
3808 1361 mt 5634 1361 L
5634 1361 mt 5634  449 L
3808 1361 mt 3808  449 L
%%IncludeResource: font Helvetica
/Helvetica /WindowsLatin1Encoding 144 FMSR

4293  607 mt 
(baseline\(LR\)) s
gs 3808 449 1827 913 rc
gr

gs 3899 386 339 339 rc
84 111 -84 111 -84 -111 84 -111 4068 666 5 MP
c8
DP
gr

c8
gs 3808 449 1827 913 rc
gr

0 sg
4293  782 mt 
(MS-LLR\(LR\)) s
gs 3808 449 1827 913 rc
gs 3899 561 339 339 rc
0 -132 -132 0 0 132 132 0 4002 664 5 MP
c9
DP
gr

c9
gr

c9
0 sg
4293  957 mt 
(F-norm\(LR\)) s
gs 3808 449 1827 913 rc
gs 3899 736 339 339 rc
c9
3984  905 mt 4152  905 L
4068  821 mt 4068  989 L
4009  846 mt 4127  964 L
4127  846 mt 4009  964 L
gr

c9
gr

c9
0 sg
4293 1131 mt 
(Z-norm\(LR\)) s
gs 3808 449 1827 913 rc
gs 3899 910 339 339 rc
-97 167 -97 -167 194 0 3971 1135 4 MP
DP
gr

gr

4293 1306 mt 
(baseline-norm\(sum\)) s
gs 3808 449 1827 913 rc
gr

gs 3899 1085 339 339 rc
97 167 -194 0 97 -167 4068 1365 4 MP
DP
gr

gs 3808 449 1827 913 rc
gr


end %%Color Dict

eplot
%%EndObject

epage
end

showpage

%%Trailer
%%EOF
