%!PS-Adobe-3.0 EPSF-3.0
%%Creator: MATLAB, The Mathworks, Inc.
%%Title: Pictures\main_compen04_demo_us_density_m2_p1_b3_d2_users20.eps
%%CreationDate: 01/17/2007  05:39:48
%%DocumentNeededFonts: Helvetica
%%DocumentProcessColors: Cyan Magenta Yellow Black
%%LanguageLevel: 2
%%Pages: 1
%%BoundingBox:    33   187   543   583
%%EndComments

%%BeginProlog
% MathWorks dictionary
/MathWorks 160 dict begin
% definition operators
/bdef {bind def} bind def
/ldef {load def} bind def
/xdef {exch def} bdef
/xstore {exch store} bdef
% operator abbreviations
/c  /clip ldef
/cc /concat ldef
/cp /closepath ldef
/gr /grestore ldef
/gs /gsave ldef
/mt /moveto ldef
/np /newpath ldef
/cm /currentmatrix ldef
/sm /setmatrix ldef
/rm /rmoveto ldef
/rl /rlineto ldef
/s {show newpath} bdef
/sc {setcmykcolor} bdef
/sr /setrgbcolor ldef
/sg /setgray ldef
/w /setlinewidth ldef
/j /setlinejoin ldef
/cap /setlinecap ldef
/rc {rectclip} bdef
/rf {rectfill} bdef
% page state control
/pgsv () def
/bpage {/pgsv save def} bdef
/epage {pgsv restore} bdef
/bplot /gsave ldef
/eplot {stroke grestore} bdef
% orientation switch
/portraitMode 0 def /landscapeMode 1 def /rotateMode 2 def
% coordinate system mappings
/dpi2point 0 def
% font control
/FontSize 0 def
/FMS {/FontSize xstore findfont [FontSize 0 0 FontSize neg 0 0]
  makefont setfont} bdef
/ISOLatin1Encoding where {pop /WindowsLatin1Encoding 256 array bdef
ISOLatin1Encoding WindowsLatin1Encoding copy pop
/.notdef/.notdef/quotesinglbase/florin/quotedblbase/ellipsis/dagger
/daggerdbl/circumflex/perthousand/Scaron/guilsinglleft/OE/.notdef/.notdef
/.notdef/.notdef/quoteleft/quoteright/quotedblleft/quotedblright/bullet
/endash/emdash/tilde/trademark/scaron/guilsinglright/oe/.notdef/.notdef
/Ydieresis WindowsLatin1Encoding 128 32 getinterval astore pop}
{/WindowsLatin1Encoding StandardEncoding bdef} ifelse
/reencode {exch dup where {pop load} {pop StandardEncoding} ifelse
  exch dup 3 1 roll findfont dup length dict begin
  { 1 index /FID ne {def}{pop pop} ifelse } forall
  /Encoding exch def currentdict end definefont pop} bdef
/isroman {findfont /CharStrings get /Agrave known} bdef
/FMSR {3 1 roll 1 index dup isroman {reencode} {pop pop} ifelse
  exch FMS} bdef
/csm {1 dpi2point div -1 dpi2point div scale neg translate
 dup landscapeMode eq {pop -90 rotate}
  {rotateMode eq {90 rotate} if} ifelse} bdef
% line types: solid, dotted, dashed, dotdash
/SO { [] 0 setdash } bdef
/DO { [.5 dpi2point mul 4 dpi2point mul] 0 setdash } bdef
/DA { [6 dpi2point mul] 0 setdash } bdef
/DD { [.5 dpi2point mul 4 dpi2point mul 6 dpi2point mul 4
  dpi2point mul] 0 setdash } bdef
% macros for lines and objects
/L {lineto stroke} bdef
/MP {3 1 roll moveto 1 sub {rlineto} repeat} bdef
/AP {{rlineto} repeat} bdef
/PDlw -1 def
/W {/PDlw currentlinewidth def setlinewidth} def
/PP {closepath eofill} bdef
/DP {closepath stroke} bdef
/MR {4 -2 roll moveto dup  0 exch rlineto exch 0 rlineto
  neg 0 exch rlineto closepath} bdef
/FR {MR stroke} bdef
/PR {MR fill} bdef
/L1i {{currentfile picstr readhexstring pop} image} bdef
/tMatrix matrix def
/MakeOval {newpath tMatrix currentmatrix pop translate scale
0 0 1 0 360 arc tMatrix setmatrix} bdef
/FO {MakeOval stroke} bdef
/PO {MakeOval fill} bdef
/PD {currentlinewidth 2 div 0 360 arc fill
   PDlw -1 eq not {PDlw w /PDlw -1 def} if} def
/FA {newpath tMatrix currentmatrix pop translate scale
  0 0 1 5 -2 roll arc tMatrix setmatrix stroke} bdef
/PA {newpath tMatrix currentmatrix pop	translate 0 0 moveto scale
  0 0 1 5 -2 roll arc closepath tMatrix setmatrix fill} bdef
/FAn {newpath tMatrix currentmatrix pop translate scale
  0 0 1 5 -2 roll arcn tMatrix setmatrix stroke} bdef
/PAn {newpath tMatrix currentmatrix pop translate 0 0 moveto scale
  0 0 1 5 -2 roll arcn closepath tMatrix setmatrix fill} bdef
/vradius 0 def /hradius 0 def /lry 0 def
/lrx 0 def /uly 0 def /ulx 0 def /rad 0 def
/MRR {/vradius xdef /hradius xdef /lry xdef /lrx xdef /uly xdef
  /ulx xdef newpath tMatrix currentmatrix pop ulx hradius add uly
  vradius add translate hradius vradius scale 0 0 1 180 270 arc 
  tMatrix setmatrix lrx hradius sub uly vradius add translate
  hradius vradius scale 0 0 1 270 360 arc tMatrix setmatrix
  lrx hradius sub lry vradius sub translate hradius vradius scale
  0 0 1 0 90 arc tMatrix setmatrix ulx hradius add lry vradius sub
  translate hradius vradius scale 0 0 1 90 180 arc tMatrix setmatrix
  closepath} bdef
/FRR {MRR stroke } bdef
/PRR {MRR fill } bdef
/MlrRR {/lry xdef /lrx xdef /uly xdef /ulx xdef /rad lry uly sub 2 div def
  newpath tMatrix currentmatrix pop ulx rad add uly rad add translate
  rad rad scale 0 0 1 90 270 arc tMatrix setmatrix lrx rad sub lry rad
  sub translate rad rad scale 0 0 1 270 90 arc tMatrix setmatrix
  closepath} bdef
/FlrRR {MlrRR stroke } bdef
/PlrRR {MlrRR fill } bdef
/MtbRR {/lry xdef /lrx xdef /uly xdef /ulx xdef /rad lrx ulx sub 2 div def
  newpath tMatrix currentmatrix pop ulx rad add uly rad add translate
  rad rad scale 0 0 1 180 360 arc tMatrix setmatrix lrx rad sub lry rad
  sub translate rad rad scale 0 0 1 0 180 arc tMatrix setmatrix
  closepath} bdef
/FtbRR {MtbRR stroke } bdef
/PtbRR {MtbRR fill } bdef
/stri 6 array def /dtri 6 array def
/smat 6 array def /dmat 6 array def
/tmat1 6 array def /tmat2 6 array def /dif 3 array def
/asub {/ind2 exch def /ind1 exch def dup dup
  ind1 get exch ind2 get sub exch } bdef
/tri_to_matrix {
  2 0 asub 3 1 asub 4 0 asub 5 1 asub
  dup 0 get exch 1 get 7 -1 roll astore } bdef
/compute_transform {
  dmat dtri tri_to_matrix tmat1 invertmatrix 
  smat stri tri_to_matrix tmat2 concatmatrix } bdef
/ds {stri astore pop} bdef
/dt {dtri astore pop} bdef
/db {2 copy /cols xdef /rows xdef mul dup 3 mul string
  currentfile 
  3 index 0 eq {/ASCIIHexDecode filter}
  {/ASCII85Decode filter 3 index 2 eq {/RunLengthDecode filter} if }
  ifelse exch readstring pop
  dup 0 3 index getinterval /rbmap xdef
  dup 2 index dup getinterval /gbmap xdef
  1 index dup 2 mul exch getinterval /bbmap xdef pop pop}bdef
/it {gs np dtri aload pop moveto lineto lineto cp c
  cols rows 8 compute_transform 
  rbmap gbmap bbmap true 3 colorimage gr}bdef
/il {newpath moveto lineto stroke}bdef
currentdict end def
%%EndProlog

%%BeginSetup
MathWorks begin

0 cap

end
%%EndSetup

%%Page: 1 1
%%BeginPageSetup
%%PageBoundingBox:    33   187   543   583
MathWorks begin
bpage
%%EndPageSetup

%%BeginObject: obj1
bplot

/dpi2point 12 def
portraitMode 0216 7344 csm

  190   341  6121  4751 rc
85 dict begin %Colortable dictionary
/c0 { 0.000000 0.000000 0.000000 sr} bdef
/c1 { 1.000000 1.000000 1.000000 sr} bdef
/c2 { 0.900000 0.000000 0.000000 sr} bdef
/c3 { 0.000000 0.820000 0.000000 sr} bdef
/c4 { 0.000000 0.000000 0.800000 sr} bdef
/c5 { 0.910000 0.820000 0.320000 sr} bdef
/c6 { 1.000000 0.260000 0.820000 sr} bdef
/c7 { 0.000000 0.820000 0.820000 sr} bdef
c0
1 j
1 sg
   0    0 6919 5187 rf
6 w
0 4227 5361 0 0 -4227 899 4616 4 MP
PP
-5361 0 0 4227 5361 0 0 -4227 899 4616 5 MP stroke
4 w
DO
SO
6 w
0 sg
 899 4616 mt 6260 4616 L
 899 4616 mt  899  389 L
1317 4616 mt 1317 4562 L
%%IncludeResource: font Helvetica
/Helvetica /WindowsLatin1Encoding 192 FMSR

1099 4828 mt 
(-20) s
1979 4616 mt 1979 4562 L
1761 4828 mt 
(-10) s
2641 4616 mt 2641 4562 L
2588 4828 mt 
(0) s
3303 4616 mt 3303 4562 L
3197 4828 mt 
(10) s
3965 4616 mt 3965 4562 L
3859 4828 mt 
(20) s
4627 4616 mt 4627 4562 L
4521 4828 mt 
(30) s
5289 4616 mt 5289 4562 L
5183 4828 mt 
(40) s
5950 4616 mt 5950 4562 L
5844 4828 mt 
(50) s
 899 4616 mt  952 4616 L
 758 4687 mt 
(0) s
 899 3943 mt  952 3943 L
 491 4014 mt 
(0.05) s
 899 3271 mt  952 3271 L
 598 3342 mt 
(0.1) s
 899 2599 mt  952 2599 L
 491 2670 mt 
(0.15) s
 899 1927 mt  952 1927 L
 598 1998 mt 
(0.2) s
 899 1255 mt  952 1255 L
 491 1326 mt 
(0.25) s
 899  583 mt  952  583 L
 598  654 mt 
(0.3) s
3296 5024 mt 
(scores) s
 393 2901 mt  -90 rotate
(likelihood) s
90 rotate
gs 899 389 5363 4228 rc
/c8 { 1.000000 0.000000 0.000000 sr} bdef
c8
19 0 180 0 180 0 180 0 181 0 180 0 180 0 180 0 
181 0 180 0 180 0 180 0 181 0 180 0 180 0 180 0 
181 0 180 0 180 0 181 1 180 0 180 7 180 887 181 2673 
180 -3079 180 -486 180 -2 181 0 180 -1 180 0 117 0 899 4616 32 MP stroke
/c9 { 0.000000 0.000000 1.000000 sr} bdef
c9
19 0 180 0 180 0 180 0 181 0 180 0 180 0 180 0 
181 0 180 1 180 0 180 0 181 4 180 195 180 1391 180 819 
181 -1716 180 -656 180 -37 181 0 180 0 180 0 180 -1 181 0 
180 0 180 0 180 0 181 0 180 0 180 0 117 0 899 4616 32 MP stroke
c8
19 0 180 0 180 0 180 0 181 0 180 0 180 0 180 0 
181 0 180 0 180 0 180 0 181 0 180 0 180 0 180 0 
181 0 180 0 180 0 181 1 180 0 180 0 180 0 181 50 
180 803 180 1700 180 -1203 181 -1224 180 -124 180 -2 117 0 899 4615 32 MP stroke
c9
19 0 180 0 180 0 180 0 181 0 180 0 180 0 180 0 
181 0 180 1 180 0 180 2 181 566 180 3153 180 -3042 180 -676 
181 -3 180 0 180 -1 181 0 180 0 180 0 180 0 181 0 
180 0 180 0 180 0 181 0 180 0 180 0 117 0 899 4616 32 MP stroke
c8
19 0 180 0 180 0 180 0 181 0 180 0 180 0 180 0 
181 0 180 0 180 0 180 0 181 0 180 0 180 0 180 0 
181 0 180 1 180 0 181 0 180 2 180 149 180 1446 181 950 
180 -1933 180 -592 180 -22 181 0 180 0 180 -1 117 0 899 4616 32 MP stroke
c9
19 0 180 0 180 0 180 0 181 0 180 0 180 0 180 0 
181 0 180 0 180 0 180 0 181 1 180 0 180 23 180 2589 
181 -495 180 -2105 180 -12 181 0 180 -1 180 0 180 0 181 0 
180 0 180 0 180 0 181 0 180 0 180 0 117 0 899 4616 32 MP stroke
c8
19 0 180 0 180 0 180 0 181 0 180 0 180 0 180 0 
181 0 180 0 180 0 180 0 181 0 180 0 180 0 180 0 
181 1 180 0 180 0 181 0 180 83 180 1127 180 1473 181 -1773 
180 -863 180 -47 180 0 181 0 180 0 180 -1 117 0 899 4616 32 MP stroke
c9
19 0 180 0 180 0 180 0 181 0 180 0 180 0 180 0 
181 0 180 0 180 0 180 0 181 0 180 0 180 0 180 1 
181 0 180 19 180 2699 181 -745 180 -1966 180 -7 180 0 181 -1 
180 0 180 0 180 0 181 0 180 0 180 0 117 0 899 4616 32 MP stroke
c8
19 0 180 0 180 0 180 0 181 0 180 0 180 0 180 0 
181 0 180 0 180 0 180 0 181 0 180 0 180 0 180 0 
181 0 180 0 180 1 181 0 180 0 180 1 180 113 181 1259 
180 1244 180 -1827 180 -753 181 -37 180 0 180 0 117 0 899 4615 32 MP stroke
c9
19 0 180 0 180 0 180 0 181 0 180 1 180 0 180 0 
181 4 180 244 180 1682 180 382 181 -1885 180 -415 180 -12 180 0 
181 0 180 -1 180 0 181 0 180 0 180 0 180 0 181 0 
180 0 180 0 180 0 181 0 180 0 180 0 117 0 899 4616 32 MP stroke
c8
19 0 180 0 180 0 180 0 181 0 180 0 180 0 180 0 
181 0 180 0 180 0 180 0 181 0 180 0 180 0 180 0 
181 0 180 0 180 1 181 0 180 0 180 1 180 193 181 1878 
180 299 180 -2081 180 -287 181 -3 180 0 180 0 117 0 899 4615 32 MP stroke
c9
19 0 180 0 180 0 180 0 181 0 180 0 180 0 180 0 
181 0 180 0 180 0 180 0 181 1 180 0 180 12 180 916 
181 2475 180 -2804 180 -594 181 -5 180 0 180 -1 180 0 181 0 
180 0 180 0 180 0 181 0 180 0 180 0 117 0 899 4616 32 MP stroke
c8
19 0 180 0 180 0 180 0 181 0 180 0 180 0 180 0 
181 0 180 0 180 0 180 0 181 0 180 0 180 0 180 0 
181 0 180 0 180 1 181 0 180 0 180 48 180 1852 181 911 
180 -2654 180 -157 180 0 181 0 180 -1 180 0 117 0 899 4616 32 MP stroke
c9
19 0 180 0 180 0 180 0 181 1 180 0 180 0 180 0 
181 0 180 0 180 4 180 45 181 262 180 677 180 607 180 -286 
181 -763 180 -431 180 -103 181 -12 180 0 180 0 180 0 181 0 
180 0 180 -1 180 0 181 0 180 0 180 0 117 0 899 4616 32 MP stroke
c8
19 0 180 0 180 0 180 0 181 0 180 0 180 0 180 0 
181 0 180 0 180 0 180 0 181 0 180 0 180 0 180 0 
181 0 180 1 180 0 181 0 180 0 180 17 180 475 181 1832 
180 -476 180 -1601 180 -242 181 -5 180 0 180 0 117 0 899 4615 32 MP stroke
c9
19 0 180 0 180 0 180 0 181 0 180 0 180 0 180 0 
181 0 180 0 180 0 180 0 181 0 180 0 180 1 180 0 
181 2 180 926 180 2960 181 -3721 180 -167 180 0 180 -1 181 0 
180 0 180 0 180 0 181 0 180 0 180 0 117 0 899 4616 32 MP stroke
c8
19 0 180 0 180 0 180 0 181 0 180 0 180 0 180 0 
181 0 180 0 180 0 180 0 181 0 180 0 180 0 180 0 
181 0 180 0 180 0 181 1 180 0 180 0 180 30 181 721 
180 1931 180 -1312 180 -1270 181 -99 180 -1 180 0 117 0 899 4615 32 MP stroke
c9
19 0 180 0 180 0 180 0 181 0 180 0 180 0 180 0 
181 0 180 0 180 0 180 0 181 0 180 0 180 0 180 0 
181 0 180 0 180 0 181 0 180 0 180 0 180 0 181 0 
180 0 180 0 180 0 181 0 180 0 180 0 117 0 899 4616 32 MP stroke
c8
19 0 180 0 180 0 180 0 181 0 180 0 180 0 180 0 
181 0 180 0 180 0 180 0 181 0 180 0 180 0 180 0 
181 0 180 0 180 0 181 1 180 0 180 0 180 41 181 1598 
180 1358 180 -2747 180 -250 181 0 180 0 180 -1 117 0 899 4616 32 MP stroke
c9
19 0 180 0 180 0 180 0 181 0 180 1 180 0 180 0 
181 67 180 1182 180 1571 180 -2048 181 -747 180 -25 180 0 180 0 
181 -1 180 0 180 0 181 0 180 0 180 0 180 0 181 0 
180 0 180 0 180 0 181 0 180 0 180 0 117 0 899 4616 32 MP stroke
c8
19 0 180 0 180 0 180 0 181 0 180 0 180 0 180 0 
181 0 180 0 180 0 180 0 181 0 180 0 180 0 180 0 
181 0 180 0 180 1 181 0 180 0 180 0 180 44 181 868 
180 1808 180 -1538 180 -1107 181 -75 180 0 180 0 117 0 899 4615 32 MP stroke
c9
19 0 180 0 180 0 180 0 181 0 180 1 180 0 180 0 
181 156 180 2425 180 -482 180 -2015 181 -84 180 0 180 0 180 -1 
181 0 180 0 180 0 181 0 180 0 180 0 180 0 181 0 
180 0 180 0 180 0 181 0 180 0 180 0 117 0 899 4616 32 MP stroke
c8
19 0 180 0 180 0 180 0 181 0 180 0 180 0 180 0 
181 0 180 0 180 0 180 0 181 0 180 0 180 0 180 0 
181 0 180 1 180 0 181 0 180 5 180 245 180 1633 181 433 
180 -1851 180 -450 180 -15 181 0 180 0 180 -1 117 0 899 4616 32 MP stroke
c9
19 0 180 0 180 0 180 0 181 0 180 0 180 0 180 0 
181 0 180 0 180 0 180 0 181 0 180 0 180 1 180 0 
181 8 180 1165 180 2357 181 -3294 180 -236 180 0 180 0 181 -1 
180 0 180 0 180 0 181 0 180 0 180 0 117 0 899 4616 32 MP stroke
c8
19 0 180 0 180 0 180 0 181 0 180 0 180 0 180 0 
181 0 180 0 180 0 180 0 181 0 180 0 180 0 180 0 
181 0 180 0 180 1 181 0 180 0 180 3 180 348 181 2383 
180 -983 180 -1659 180 -92 181 0 180 0 180 -1 117 0 899 4616 32 MP stroke
c9
19 0 180 0 180 0 180 0 181 0 180 0 180 0 180 0 
181 1 180 0 180 16 180 1548 181 1628 180 -3052 180 -140 180 0 
181 0 180 -1 180 0 181 0 180 0 180 0 180 0 181 0 
180 0 180 0 180 0 181 0 180 0 180 0 117 0 899 4616 32 MP stroke
c8
19 0 180 0 180 0 180 0 181 0 180 0 180 0 180 0 
181 0 180 0 180 0 180 0 181 0 180 0 180 0 180 0 
181 0 180 0 180 0 181 1 180 0 180 0 180 3 181 281 
180 2124 180 -350 180 -1881 181 -176 180 -1 180 0 117 0 899 4615 32 MP stroke
c9
19 0 180 0 180 0 180 0 181 0 180 7 180 62 180 299 
181 666 180 516 180 -311 180 -711 181 -408 180 -106 180 -14 180 0 
181 0 180 0 180 0 181 0 180 -1 180 0 180 0 181 0 
180 0 180 0 180 0 181 0 180 0 180 0 117 0 899 4616 32 MP stroke
c8
19 0 180 0 180 0 180 0 181 0 180 0 180 0 180 0 
181 0 180 0 180 0 180 0 181 0 180 0 180 0 180 0 
181 0 180 0 180 0 181 1 180 0 180 0 180 19 181 571 
180 1973 180 -950 180 -1466 181 -146 180 -1 180 0 117 0 899 4615 32 MP stroke
c9
19 0 180 1 180 0 180 0 181 0 180 82 180 1181 180 1464 
181 -1900 180 -792 180 -35 180 0 181 0 180 -1 180 0 180 0 
181 0 180 0 180 0 181 0 180 0 180 0 180 0 181 0 
180 0 180 0 180 0 181 0 180 0 180 0 117 0 899 4616 32 MP stroke
c8
19 0 180 0 180 0 180 0 181 0 180 0 180 0 180 0 
181 0 180 0 180 0 180 0 181 0 180 0 180 0 180 0 
181 0 180 0 180 0 181 0 180 1 180 0 180 0 181 156 
180 2000 180 244 180 -2185 181 -214 180 -1 180 0 117 0 899 4615 32 MP stroke
c9
19 0 180 0 180 1 180 0 181 0 180 0 180 0 180 14 
181 165 180 730 180 923 180 -364 181 -1000 180 -409 180 -57 180 -2 
181 0 180 0 180 0 181 0 180 -1 180 0 180 0 181 0 
180 0 180 0 180 0 181 0 180 0 180 0 117 0 899 4616 32 MP stroke
c8
19 0 180 0 180 0 180 0 181 0 180 0 180 0 180 0 
181 0 180 0 180 0 180 0 181 0 180 0 180 0 180 0 
181 0 180 0 180 0 181 1 180 0 180 0 180 297 181 2988 
180 -1950 180 -1316 180 -19 181 0 180 -1 180 0 117 0 899 4616 32 MP stroke
c9
19 0 180 0 180 0 180 19 181 -18 180 -1 180 0 180 0 
181 0 180 0 180 0 180 0 181 0 180 0 180 0 180 0 
181 0 180 0 180 0 181 0 180 0 180 0 180 0 181 0 
180 0 180 0 180 0 181 0 180 0 180 0 117 0 899 4616 32 MP stroke
c8
19 0 180 0 180 0 180 0 181 0 180 0 180 0 180 0 
181 0 180 0 180 0 180 0 181 0 180 0 180 0 180 0 
181 0 180 0 180 1 181 0 180 0 180 39 180 974 181 1896 
180 -1969 180 -906 180 -34 181 0 180 0 180 -1 117 0 899 4616 32 MP stroke
c9
19 0 180 0 180 0 180 0 181 0 180 0 180 0 180 0 
181 0 180 1 180 0 180 0 181 2 180 116 180 1116 180 1271 
181 -1509 180 -919 180 -76 181 -1 180 0 180 0 180 -1 181 0 
180 0 180 0 180 0 181 0 180 0 180 0 117 0 899 4616 32 MP stroke
c8
19 0 180 0 180 0 180 0 181 0 180 0 180 0 180 0 
181 0 180 0 180 0 180 0 181 0 180 0 180 0 180 0 
181 0 180 1 180 0 181 0 180 98 180 1513 180 1124 181 -2254 
180 -473 180 -8 180 0 181 0 180 -1 180 0 117 0 899 4616 32 MP stroke
c9
171 -4127 180 -99 180 0 180 -1 181 0 180 0 180 0 180 0 
181 0 180 0 180 0 117 0 899 4616 13 MP stroke
19 0 180 0 180 0 180 0 181 0 180 0 180 0 180 0 
181 0 180 0 180 0 180 0 181 0 180 0 180 0 180 1 
181 0 180 574 169 3652 3010 389 20 MP stroke
c8
19 0 180 0 180 0 180 0 181 0 180 0 180 0 180 0 
181 0 180 0 180 0 180 0 181 0 180 0 180 0 180 0 
181 0 180 0 180 1 181 0 180 0 180 8 180 311 181 1715 
180 138 180 -1784 180 -377 181 -11 180 0 180 0 117 0 899 4615 32 MP stroke
c9
19 0 180 0 180 0 180 0 181 0 180 0 180 1 180 0 
181 0 180 0 180 1 180 46 181 495 180 1312 180 22 180 -1314 
181 -512 180 -49 180 -1 181 0 180 0 180 0 180 -1 181 0 
180 0 180 0 180 0 181 0 180 0 180 0 117 0 899 4616 32 MP stroke
gr

c9

end %%Color Dict

eplot
%%EndObject

epage
end

showpage

%%Trailer
%%EOF
