%!PS-Adobe-3.0 EPSF-3.0
%%Creator: MATLAB, The Mathworks, Inc. Version 7.5.0.338 (R2007b). Operating System: Linux 2.6.22.9-61.fc6 #1 SMP Thu Sep 27 17:45:57 EDT 2007 i686.
%%Title: Pictures/main_compen04_demo_us_density_m1_p1_b3_d1_users20.eps
%%CreationDate: 01/23/2009  11:20:19
%%DocumentNeededFonts: Helvetica
%%DocumentProcessColors: Cyan Magenta Yellow Black
%%LanguageLevel: 2
%%Pages: 1
%%BoundingBox:    33   187   543   583
%%EndComments

%%BeginProlog
% MathWorks dictionary
/MathWorks 160 dict begin
% definition operators
/bdef {bind def} bind def
/ldef {load def} bind def
/xdef {exch def} bdef
/xstore {exch store} bdef
% operator abbreviations
/c  /clip ldef
/cc /concat ldef
/cp /closepath ldef
/gr /grestore ldef
/gs /gsave ldef
/mt /moveto ldef
/np /newpath ldef
/cm /currentmatrix ldef
/sm /setmatrix ldef
/rm /rmoveto ldef
/rl /rlineto ldef
/s {show newpath} bdef
/sc {setcmykcolor} bdef
/sr /setrgbcolor ldef
/sg /setgray ldef
/w /setlinewidth ldef
/j /setlinejoin ldef
/cap /setlinecap ldef
/rc {rectclip} bdef
/rf {rectfill} bdef
% page state control
/pgsv () def
/bpage {/pgsv save def} bdef
/epage {pgsv restore} bdef
/bplot /gsave ldef
/eplot {stroke grestore} bdef
% orientation switch
/portraitMode 0 def /landscapeMode 1 def /rotateMode 2 def
% coordinate system mappings
/dpi2point 0 def
% font control
/FontSize 0 def
/FMS {/FontSize xstore findfont [FontSize 0 0 FontSize neg 0 0]
  makefont setfont} bdef
/reencode {exch dup where {pop load} {pop StandardEncoding} ifelse
  exch dup 3 1 roll findfont dup length dict begin
  { 1 index /FID ne {def}{pop pop} ifelse } forall
  /Encoding exch def currentdict end definefont pop} bdef
/isroman {findfont /CharStrings get /Agrave known} bdef
/FMSR {3 1 roll 1 index dup isroman {reencode} {pop pop} ifelse
  exch FMS} bdef
/csm {1 dpi2point div -1 dpi2point div scale neg translate
 dup landscapeMode eq {pop -90 rotate}
  {rotateMode eq {90 rotate} if} ifelse} bdef
% line types: solid, dotted, dashed, dotdash
/SO { [] 0 setdash } bdef
/DO { [.5 dpi2point mul 4 dpi2point mul] 0 setdash } bdef
/DA { [6 dpi2point mul] 0 setdash } bdef
/DD { [.5 dpi2point mul 4 dpi2point mul 6 dpi2point mul 4
  dpi2point mul] 0 setdash } bdef
% macros for lines and objects
/L {lineto stroke} bdef
/MP {3 1 roll moveto 1 sub {rlineto} repeat} bdef
/AP {{rlineto} repeat} bdef
/PDlw -1 def
/W {/PDlw currentlinewidth def setlinewidth} def
/PP {closepath eofill} bdef
/DP {closepath stroke} bdef
/MR {4 -2 roll moveto dup  0 exch rlineto exch 0 rlineto
  neg 0 exch rlineto closepath} bdef
/FR {MR stroke} bdef
/PR {MR fill} bdef
/L1i {{currentfile picstr readhexstring pop} image} bdef
/tMatrix matrix def
/MakeOval {newpath tMatrix currentmatrix pop translate scale
0 0 1 0 360 arc tMatrix setmatrix} bdef
/FO {MakeOval stroke} bdef
/PO {MakeOval fill} bdef
/PD {currentlinewidth 2 div 0 360 arc fill
   PDlw -1 eq not {PDlw w /PDlw -1 def} if} def
/FA {newpath tMatrix currentmatrix pop translate scale
  0 0 1 5 -2 roll arc tMatrix setmatrix stroke} bdef
/PA {newpath tMatrix currentmatrix pop	translate 0 0 moveto scale
  0 0 1 5 -2 roll arc closepath tMatrix setmatrix fill} bdef
/FAn {newpath tMatrix currentmatrix pop translate scale
  0 0 1 5 -2 roll arcn tMatrix setmatrix stroke} bdef
/PAn {newpath tMatrix currentmatrix pop translate 0 0 moveto scale
  0 0 1 5 -2 roll arcn closepath tMatrix setmatrix fill} bdef
/vradius 0 def /hradius 0 def /lry 0 def
/lrx 0 def /uly 0 def /ulx 0 def /rad 0 def
/MRR {/vradius xdef /hradius xdef /lry xdef /lrx xdef /uly xdef
  /ulx xdef newpath tMatrix currentmatrix pop ulx hradius add uly
  vradius add translate hradius vradius scale 0 0 1 180 270 arc 
  tMatrix setmatrix lrx hradius sub uly vradius add translate
  hradius vradius scale 0 0 1 270 360 arc tMatrix setmatrix
  lrx hradius sub lry vradius sub translate hradius vradius scale
  0 0 1 0 90 arc tMatrix setmatrix ulx hradius add lry vradius sub
  translate hradius vradius scale 0 0 1 90 180 arc tMatrix setmatrix
  closepath} bdef
/FRR {MRR stroke } bdef
/PRR {MRR fill } bdef
/MlrRR {/lry xdef /lrx xdef /uly xdef /ulx xdef /rad lry uly sub 2 div def
  newpath tMatrix currentmatrix pop ulx rad add uly rad add translate
  rad rad scale 0 0 1 90 270 arc tMatrix setmatrix lrx rad sub lry rad
  sub translate rad rad scale 0 0 1 270 90 arc tMatrix setmatrix
  closepath} bdef
/FlrRR {MlrRR stroke } bdef
/PlrRR {MlrRR fill } bdef
/MtbRR {/lry xdef /lrx xdef /uly xdef /ulx xdef /rad lrx ulx sub 2 div def
  newpath tMatrix currentmatrix pop ulx rad add uly rad add translate
  rad rad scale 0 0 1 180 360 arc tMatrix setmatrix lrx rad sub lry rad
  sub translate rad rad scale 0 0 1 0 180 arc tMatrix setmatrix
  closepath} bdef
/FtbRR {MtbRR stroke } bdef
/PtbRR {MtbRR fill } bdef
/stri 6 array def /dtri 6 array def
/smat 6 array def /dmat 6 array def
/tmat1 6 array def /tmat2 6 array def /dif 3 array def
/asub {/ind2 exch def /ind1 exch def dup dup
  ind1 get exch ind2 get sub exch } bdef
/tri_to_matrix {
  2 0 asub 3 1 asub 4 0 asub 5 1 asub
  dup 0 get exch 1 get 7 -1 roll astore } bdef
/compute_transform {
  dmat dtri tri_to_matrix tmat1 invertmatrix 
  smat stri tri_to_matrix tmat2 concatmatrix } bdef
/ds {stri astore pop} bdef
/dt {dtri astore pop} bdef
/db {2 copy /cols xdef /rows xdef mul dup 3 mul string
  currentfile 
  3 index 0 eq {/ASCIIHexDecode filter}
  {/ASCII85Decode filter 3 index 2 eq {/RunLengthDecode filter} if }
  ifelse exch readstring pop
  dup 0 3 index getinterval /rbmap xdef
  dup 2 index dup getinterval /gbmap xdef
  1 index dup 2 mul exch getinterval /bbmap xdef pop pop}bdef
/it {gs np dtri aload pop moveto lineto lineto cp c
  cols rows 8 compute_transform 
  rbmap gbmap bbmap true 3 colorimage gr}bdef
/il {newpath moveto lineto stroke}bdef
currentdict end def
%%EndProlog

%%BeginSetup
MathWorks begin

0 cap

end
%%EndSetup

%%Page: 1 1
%%BeginPageSetup
%%PageBoundingBox:    33   187   543   583
MathWorks begin
bpage
%%EndPageSetup

%%BeginObject: obj1
bplot

/dpi2point 12 def
portraitMode 0216 7344 csm

  190   341  6115  4750 rc
85 dict begin %Colortable dictionary
/c0 { 0.000000 0.000000 0.000000 sr} bdef
/c1 { 1.000000 1.000000 1.000000 sr} bdef
/c2 { 0.900000 0.000000 0.000000 sr} bdef
/c3 { 0.000000 0.820000 0.000000 sr} bdef
/c4 { 0.000000 0.000000 0.800000 sr} bdef
/c5 { 0.910000 0.820000 0.320000 sr} bdef
/c6 { 1.000000 0.260000 0.820000 sr} bdef
/c7 { 0.000000 0.820000 0.820000 sr} bdef
c0
1 j
1 sg
   0    0 6913 5186 rf
6 w
0 4226 5356 0 0 -4226 899 4615 4 MP
PP
-5356 0 0 4226 5356 0 0 -4226 899 4615 5 MP stroke
4 w
DO
SO
6 w
0 sg
 899 4615 mt 6255 4615 L
 899 4615 mt  899  389 L
1785 4615 mt 1785 4561 L
%%IncludeResource: font Helvetica
/Helvetica /ISOLatin1Encoding 192 FMSR

1567 4827 mt 
(-10) s
2727 4615 mt 2727 4561 L
2674 4827 mt 
(0) s
3669 4615 mt 3669 4561 L
3563 4827 mt 
(10) s
4611 4615 mt 4611 4561 L
4505 4827 mt 
(20) s
5553 4615 mt 5553 4561 L
5447 4827 mt 
(30) s
 899 4615 mt  952 4615 L
 758 4686 mt 
(0) s
 899 4081 mt  952 4081 L
 491 4152 mt 
(0.05) s
 899 3547 mt  952 3547 L
 598 3618 mt 
(0.1) s
 899 3014 mt  952 3014 L
 491 3085 mt 
(0.15) s
 899 2480 mt  952 2480 L
 598 2551 mt 
(0.2) s
 899 1946 mt  952 1946 L
 491 2017 mt 
(0.25) s
 899 1413 mt  952 1413 L
 598 1484 mt 
(0.3) s
 899  879 mt  952  879 L
 491  950 mt 
(0.35) s
3293 5023 mt 
(scores) s
 393 2901 mt  -90 rotate
(likelihood) s
90 rotate
gs 899 389 5357 4227 rc
/c8 { 1.000000 0.000000 0.000000 sr} bdef
c8
27 0 79 0 79 0 79 0 79 0 79 0 79 0 79 0 
79 0 79 0 79 0 79 0 79 0 79 0 80 0 79 0 
79 0 79 0 79 0 79 0 79 0 79 0 79 0 79 0 
79 0 79 0 79 0 79 0 79 0 79 0 79 0 79 0 
80 0 79 0 79 0 79 0 79 0 79 0 79 0 79 0 
79 0 79 0 79 0 79 0 79 0 79 0 79 1 79 0 
79 0 80 0 79 0 79 0 79 0 79 0 79 0 79 5 
79 28 79 114 79 331 79 673 79 900 79 655 79 -62 79 -731 
79 -888 79 -619 79 -287 80 -93 33 -10 899 4598 70 MP stroke
/c9 { 0.000000 0.000000 1.000000 sr} bdef
c9
27 0 79 0 79 0 79 0 79 0 79 0 79 0 79 0 
79 0 79 0 79 0 79 0 79 0 79 0 80 0 79 0 
79 0 79 0 79 0 79 0 79 0 79 0 79 0 79 0 
79 0 79 0 79 0 79 0 79 1 79 0 79 0 79 0 
80 0 79 0 79 8 79 89 79 500 79 1406 79 1660 79 -7 
79 -1665 79 -1400 79 -496 79 -87 79 -8 79 0 79 0 79 0 
79 0 80 0 79 -1 79 0 79 0 79 0 79 0 79 0 
79 0 79 0 79 0 79 0 79 0 79 0 79 0 79 0 
79 0 79 0 79 0 80 0 33 0 899 4615 70 MP stroke
c8
27 0 79 0 79 0 79 0 79 0 79 0 79 0 79 0 
79 0 79 0 79 0 79 0 79 0 79 0 80 0 79 0 
79 0 79 0 79 0 79 0 79 0 79 0 79 0 79 0 
79 0 79 0 79 0 79 0 79 0 79 0 79 0 79 0 
80 0 79 0 79 0 79 0 79 0 79 1 79 0 79 0 
79 0 79 0 79 0 79 0 79 0 79 0 79 0 79 0 
79 0 80 2 79 6 79 19 79 50 79 115 79 219 79 344 
79 439 79 433 79 283 79 22 79 -248 79 -420 79 -447 79 -362 
79 -237 79 -128 79 -58 80 -23 33 -3 899 4608 70 MP stroke
c9
27 2 79 11 79 22 79 39 79 66 79 100 79 141 79 180 
79 207 79 211 79 184 79 126 79 42 79 -49 80 -131 79 -188 
79 -212 79 -205 79 -177 79 -138 79 -97 79 -64 79 -37 79 -21 
79 -11 79 -5 79 -2 79 -1 79 0 79 0 79 0 79 0 
80 0 79 0 79 0 79 0 79 0 79 0 79 0 79 0 
79 0 79 0 79 0 79 0 79 -1 79 0 79 0 79 0 
79 0 80 0 79 0 79 0 79 0 79 0 79 0 79 0 
79 0 79 0 79 0 79 0 79 0 79 0 79 0 79 0 
79 0 79 0 79 0 80 0 33 0 899 4615 70 MP stroke
c8
27 0 79 0 79 0 79 0 79 0 79 0 79 0 79 0 
79 0 79 0 79 0 79 0 79 0 79 0 80 0 79 0 
79 0 79 0 79 0 79 0 79 0 79 0 79 0 79 0 
79 0 79 0 79 0 79 0 79 0 79 0 79 0 79 0 
80 0 79 0 79 0 79 0 79 0 79 0 79 1 79 0 
79 0 79 0 79 0 79 0 79 0 79 0 79 0 79 0 
79 0 80 1 79 5 79 19 79 55 79 132 79 261 79 416 
79 517 79 466 79 226 79 -118 79 -406 79 -521 79 -460 79 -312 
79 -169 79 -75 79 -27 80 -8 33 -1 899 4613 70 MP stroke
c9
27 0 79 0 79 0 79 0 79 0 79 0 79 0 79 0 
79 0 79 1 79 0 79 0 79 0 79 0 80 0 79 0 
79 0 79 0 79 0 79 0 79 3 79 10 79 34 79 94 
79 209 79 372 79 519 79 537 79 344 79 -12 79 -361 79 -541 
80 -512 79 -362 79 -201 79 -89 79 -32 79 -10 79 -2 79 0 
79 0 79 0 79 0 79 0 79 0 79 0 79 0 79 0 
79 0 80 -1 79 0 79 0 79 0 79 0 79 0 79 0 
79 0 79 0 79 0 79 0 79 0 79 0 79 0 79 0 
79 0 79 0 79 0 80 0 33 0 899 4615 70 MP stroke
c8
27 0 79 0 79 0 79 0 79 0 79 0 79 0 79 0 
79 0 79 0 79 0 79 0 79 0 79 0 80 0 79 0 
79 0 79 0 79 0 79 0 79 0 79 0 79 0 79 0 
79 0 79 0 79 0 79 0 79 0 79 0 79 0 79 0 
80 0 79 1 79 0 79 0 79 0 79 0 79 0 79 0 
79 0 79 0 79 0 79 0 79 0 79 0 79 0 79 2 
79 6 80 15 79 38 79 78 79 146 79 231 79 315 79 358 
79 324 79 198 79 8 79 -183 79 -316 79 -359 79 -321 79 -239 
79 -152 79 -84 79 -40 80 -17 33 -2 899 4608 70 MP stroke
c9
27 0 79 0 79 0 79 0 79 0 79 0 79 0 79 0 
79 0 79 0 79 0 79 0 79 0 79 0 80 0 79 0 
79 0 79 0 79 0 79 0 79 0 79 0 79 0 79 0 
79 0 79 1 79 0 79 0 79 0 79 0 79 0 79 6 
80 65 79 388 79 1202 79 1691 79 423 79 -1402 79 -1540 79 -670 
79 -146 79 -16 79 -1 79 0 79 0 79 0 79 0 79 -1 
79 0 80 0 79 0 79 0 79 0 79 0 79 0 79 0 
79 0 79 0 79 0 79 0 79 0 79 0 79 0 79 0 
79 0 79 0 79 0 80 0 33 0 899 4615 70 MP stroke
c8
27 0 79 0 79 0 79 0 79 0 79 0 79 0 79 0 
79 0 79 0 79 0 79 0 79 0 79 0 80 0 79 0 
79 0 79 0 79 0 79 0 79 0 79 0 79 0 79 0 
79 0 79 0 79 0 79 0 79 0 79 0 79 0 79 0 
80 0 79 0 79 0 79 0 79 0 79 0 79 0 79 1 
79 0 79 0 79 0 79 0 79 0 79 0 79 0 79 0 
79 0 80 3 79 13 79 47 79 131 79 290 79 495 79 628 
79 534 79 173 79 -285 79 -585 79 -610 79 -443 79 -243 79 -103 
79 -34 79 -9 79 -2 80 0 33 0 899 4614 70 MP stroke
c9
27 0 79 0 79 0 79 0 79 0 79 0 79 0 79 0 
79 2 79 12 79 47 79 141 79 328 79 571 80 706 79 541 
79 64 79 -451 79 -699 79 -620 79 -384 79 -176 79 -62 79 -16 
79 -4 79 0 79 0 79 0 79 0 79 0 79 0 79 0 
80 0 79 0 79 -1 79 0 79 0 79 0 79 0 79 0 
79 0 79 0 79 0 79 0 79 0 79 0 79 0 79 0 
79 0 80 0 79 0 79 0 79 0 79 0 79 0 79 0 
79 0 79 0 79 0 79 0 79 0 79 0 79 0 79 0 
79 0 79 0 79 0 80 0 33 0 899 4615 70 MP stroke
c8
27 0 79 0 79 0 79 0 79 0 79 0 79 0 79 0 
79 0 79 0 79 0 79 0 79 0 79 0 80 0 79 0 
79 0 79 0 79 0 79 0 79 0 79 0 79 0 79 0 
79 0 79 0 79 0 79 0 79 0 79 0 79 0 79 0 
80 0 79 0 79 0 79 0 79 0 79 0 79 1 79 0 
79 0 79 0 79 0 79 0 79 0 79 0 79 0 79 0 
79 0 80 3 79 10 79 35 79 91 79 198 79 352 79 491 
79 519 79 356 79 32 79 -307 79 -504 79 -508 79 -380 79 -224 
79 -106 79 -41 79 -13 80 -4 33 0 899 4614 70 MP stroke
c9
27 0 79 0 79 0 79 0 79 0 79 0 79 0 79 0 
79 1 79 0 79 0 79 0 79 0 79 0 80 0 79 0 
79 0 79 0 79 1 79 7 79 27 79 86 79 217 79 421 
79 612 79 624 79 346 79 -128 79 -526 79 -651 79 -523 79 -309 
80 -139 79 -48 79 -14 79 -3 79 0 79 0 79 0 79 0 
79 0 79 0 79 0 79 0 79 0 79 -1 79 0 79 0 
79 0 80 0 79 0 79 0 79 0 79 0 79 0 79 0 
79 0 79 0 79 0 79 0 79 0 79 0 79 0 79 0 
79 0 79 0 79 0 80 0 33 0 899 4615 70 MP stroke
c8
27 0 79 0 79 0 79 0 79 0 79 0 79 0 79 0 
79 0 79 0 79 0 79 0 79 0 79 0 80 0 79 0 
79 0 79 0 79 0 79 0 79 0 79 0 79 0 79 0 
79 0 79 0 79 0 79 0 79 0 79 0 79 0 79 0 
80 0 79 0 79 0 79 0 79 0 79 0 79 0 79 0 
79 0 79 0 79 0 79 1 79 0 79 0 79 0 79 0 
79 0 80 0 79 0 79 1 79 7 79 35 79 127 79 338 
79 642 79 827 79 605 79 -23 79 -632 79 -825 79 -624 79 -321 
79 -118 79 -32 79 -6 80 -1 33 0 899 4614 70 MP stroke
c9
64 -2307 79 -1645 79 -260 79 -13 79 0 79 0 79 0 79 0 
79 -1 79 0 79 0 79 0 79 0 80 0 79 0 79 0 
79 0 79 0 79 0 79 0 79 0 79 0 79 0 79 0 
79 0 79 0 79 0 79 0 79 0 79 0 79 0 80 0 
33 0 899 4615 34 MP stroke
27 0 79 0 79 0 79 0 79 0 79 0 79 0 79 0 
79 0 79 0 79 0 79 0 79 0 79 0 80 0 79 0 
79 0 79 0 79 0 79 0 79 0 79 0 79 0 79 0 
79 0 79 0 79 0 79 1 79 0 79 0 79 0 79 5 
80 144 79 1186 78 2890 3542 389 36 MP stroke
c8
27 0 79 0 79 0 79 0 79 0 79 0 79 0 79 0 
79 0 79 0 79 0 79 0 79 0 79 0 80 0 79 0 
79 0 79 0 79 0 79 0 79 0 79 0 79 0 79 0 
79 0 79 0 79 0 79 0 79 0 79 0 79 0 79 0 
80 0 79 0 79 1 79 0 79 0 79 0 79 0 79 0 
79 0 79 0 79 0 79 0 79 0 79 0 79 0 79 2 
79 6 80 18 79 44 79 96 79 179 79 281 79 371 79 397 
79 314 79 127 79 -104 79 -300 79 -393 79 -378 79 -292 79 -188 
79 -103 79 -48 79 -20 80 -7 33 -1 899 4613 70 MP stroke
c9
27 0 79 0 79 0 79 0 79 0 79 0 79 0 79 0 
79 0 79 0 79 0 79 1 79 0 79 0 80 0 79 0 
79 0 79 0 79 0 79 0 79 2 79 9 79 42 79 135 
79 330 79 594 79 749 79 568 79 43 79 -511 79 -747 79 -628 
80 -366 79 -156 79 -50 79 -12 79 -2 79 0 79 0 79 0 
79 0 79 0 79 0 79 0 79 0 79 -1 79 0 79 0 
79 0 80 0 79 0 79 0 79 0 79 0 79 0 79 0 
79 0 79 0 79 0 79 0 79 0 79 0 79 0 79 0 
79 0 79 0 79 0 80 0 33 0 899 4615 70 MP stroke
c8
27 0 79 0 79 0 79 0 79 0 79 0 79 0 79 0 
79 0 79 0 79 0 79 0 79 0 79 0 80 0 79 0 
79 0 79 0 79 0 79 0 79 0 79 0 79 0 79 0 
79 0 79 0 79 0 79 0 79 0 79 0 79 0 79 0 
80 0 79 0 79 0 79 0 79 0 79 0 79 0 79 0 
79 1 79 0 79 0 79 0 79 0 79 0 79 0 79 0 
79 0 80 0 79 3 79 12 79 44 79 131 79 298 79 517 
79 658 79 548 79 151 79 -334 79 -630 79 -624 79 -430 79 -221 
79 -88 79 -27 79 -7 80 -1 33 0 899 4614 70 MP stroke
c9
27 1 79 2 79 9 79 22 79 51 79 104 79 180 79 272 
79 345 79 361 79 284 79 122 79 -81 79 -258 80 -353 79 -354 
79 -290 79 -198 79 -118 79 -59 79 -27 79 -10 79 -4 79 -1 
79 0 79 0 79 0 79 0 79 0 79 0 79 0 79 0 
80 0 79 0 79 0 79 0 79 -1 79 0 79 0 79 0 
79 0 79 0 79 0 79 0 79 0 79 0 79 0 79 0 
79 0 80 0 79 0 79 0 79 0 79 0 79 0 79 0 
79 0 79 0 79 0 79 0 79 0 79 0 79 0 79 0 
79 0 79 0 79 0 80 0 33 0 899 4615 70 MP stroke
c8
27 0 79 0 79 0 79 0 79 0 79 0 79 0 79 0 
79 0 79 0 79 0 79 0 79 0 79 0 80 0 79 0 
79 0 79 0 79 0 79 0 79 0 79 0 79 0 79 0 
79 0 79 0 79 0 79 0 79 0 79 0 79 0 79 0 
80 0 79 0 79 0 79 0 79 0 79 0 79 0 79 0 
79 0 79 0 79 0 79 1 79 0 79 0 79 0 79 0 
79 0 80 0 79 0 79 0 79 4 79 22 79 93 79 281 
79 597 79 861 79 727 79 101 79 -601 79 -877 79 -685 79 -354 
79 -129 79 -33 79 -7 80 0 33 0 899 4614 70 MP stroke
c9
27 0 79 0 79 0 79 0 79 0 79 0 79 0 79 0 
79 1 79 0 79 0 79 0 79 0 79 0 80 0 79 0 
79 0 79 0 79 3 79 17 79 61 79 180 79 394 79 637 
79 715 79 444 79 -96 79 -575 79 -721 79 -564 79 -313 79 -130 
80 -40 79 -10 79 -2 79 0 79 0 79 0 79 0 79 0 
79 0 79 0 79 0 79 -1 79 0 79 0 79 0 79 0 
79 0 80 0 79 0 79 0 79 0 79 0 79 0 79 0 
79 0 79 0 79 0 79 0 79 0 79 0 79 0 79 0 
79 0 79 0 79 0 80 0 33 0 899 4615 70 MP stroke
c8
27 0 79 0 79 0 79 0 79 0 79 0 79 0 79 0 
79 0 79 0 79 0 79 0 79 0 79 0 80 0 79 0 
79 0 79 0 79 0 79 0 79 0 79 0 79 0 79 0 
79 0 79 0 79 0 79 0 79 0 79 0 79 0 79 0 
80 0 79 0 79 0 79 0 79 0 79 0 79 0 79 0 
79 1 79 0 79 0 79 0 79 0 79 0 79 0 79 0 
79 0 80 1 79 5 79 22 79 73 79 192 79 386 79 589 
79 642 79 407 79 -52 79 -481 79 -651 79 -554 79 -340 79 -160 
79 -58 79 -17 79 -4 80 0 33 0 899 4614 70 MP stroke
c9
27 0 79 0 79 1 79 3 79 6 79 14 79 27 79 51 
79 85 79 129 79 178 79 220 79 239 79 224 80 166 79 75 
79 -35 79 -135 79 -207 79 -238 79 -230 79 -196 79 -147 79 -101 
79 -62 79 -35 79 -18 79 -9 79 -3 79 -2 79 0 79 0 
80 0 79 0 79 0 79 0 79 0 79 0 79 0 79 0 
79 0 79 0 79 0 79 0 79 0 79 0 79 -1 79 0 
79 0 80 0 79 0 79 0 79 0 79 0 79 0 79 0 
79 0 79 0 79 0 79 0 79 0 79 0 79 0 79 0 
79 0 79 0 79 0 80 0 33 0 899 4615 70 MP stroke
c8
27 0 79 0 79 0 79 0 79 0 79 0 79 0 79 0 
79 0 79 0 79 0 79 0 79 0 79 0 80 0 79 0 
79 0 79 0 79 0 79 0 79 0 79 0 79 0 79 0 
79 0 79 0 79 0 79 0 79 0 79 0 79 0 79 0 
80 0 79 0 79 0 79 0 79 0 79 1 79 0 79 0 
79 0 79 0 79 0 79 0 79 0 79 0 79 0 79 0 
79 0 80 0 79 4 79 10 79 30 79 73 79 152 79 265 
79 382 79 443 79 384 79 188 79 -82 79 -319 79 -435 79 -418 
79 -316 79 -194 79 -101 80 -43 33 -7 899 4598 70 MP stroke
c9
27 0 79 0 79 0 79 0 79 0 79 0 79 0 79 0 
79 0 79 0 79 0 79 0 79 0 79 0 80 0 79 0 
79 0 79 1 79 0 79 0 79 0 79 0 79 0 79 0 
79 0 79 0 79 2 79 11 79 44 79 134 79 313 79 552 
80 698 79 557 79 103 79 -413 79 -686 79 -630 79 -402 79 -191 
79 -68 79 -20 79 -4 79 0 79 0 79 0 79 0 79 0 
79 0 80 0 79 0 79 0 79 -1 79 0 79 0 79 0 
79 0 79 0 79 0 79 0 79 0 79 0 79 0 79 0 
79 0 79 0 79 0 80 0 33 0 899 4615 70 MP stroke
c8
27 0 79 0 79 0 79 0 79 0 79 0 79 0 79 0 
79 0 79 0 79 0 79 0 79 0 79 0 80 0 79 0 
79 0 79 0 79 0 79 0 79 0 79 0 79 0 79 0 
79 0 79 0 79 0 79 0 79 0 79 0 79 0 79 0 
80 0 79 0 79 0 79 0 79 0 79 0 79 0 79 1 
79 0 79 0 79 0 79 0 79 0 79 0 79 0 79 0 
79 0 80 2 79 10 79 39 79 119 79 278 79 497 79 657 
79 575 79 199 79 -296 79 -618 79 -638 79 -451 79 -238 79 -96 
79 -30 79 -8 79 -1 80 0 33 0 899 4614 70 MP stroke
c9
27 0 79 0 79 0 79 0 79 0 79 0 79 0 79 1 
79 0 79 0 79 0 79 0 79 0 79 0 80 0 79 1 
79 7 79 40 79 157 79 431 79 802 79 932 79 477 79 -353 
79 -901 79 -851 79 -490 79 -190 79 -51 79 -10 79 -1 79 0 
80 0 79 0 79 0 79 0 79 0 79 0 79 -1 79 0 
79 0 79 0 79 0 79 0 79 0 79 0 79 0 79 0 
79 0 80 0 79 0 79 0 79 0 79 0 79 0 79 0 
79 0 79 0 79 0 79 0 79 0 79 0 79 0 79 0 
79 0 79 0 79 0 80 0 33 0 899 4615 70 MP stroke
c8
27 0 79 0 79 0 79 0 79 0 79 0 79 0 79 0 
79 0 79 0 79 0 79 0 79 0 79 0 80 0 79 0 
79 0 79 0 79 0 79 0 79 0 79 0 79 0 79 0 
79 0 79 0 79 0 79 0 79 0 79 0 79 0 79 0 
80 0 79 0 79 0 79 0 79 0 79 0 79 0 79 0 
79 0 79 0 79 1 79 0 79 0 79 0 79 0 79 0 
79 0 80 0 79 0 79 0 79 2 79 10 79 40 79 121 
79 285 79 512 79 670 79 576 79 178 79 -328 79 -640 79 -640 
79 -440 79 -224 79 -88 80 -27 33 -2 899 4609 70 MP stroke
c9
27 0 79 0 79 0 79 0 79 0 79 1 79 0 79 0 
79 0 79 0 79 0 79 0 79 0 79 0 80 0 79 0 
79 5 79 17 79 55 79 147 79 305 79 497 79 603 79 489 
79 139 79 -287 79 -561 79 -584 79 -429 79 -241 79 -105 79 -37 
80 -11 79 -2 79 0 79 0 79 0 79 0 79 0 79 0 
79 0 79 0 79 0 79 -1 79 0 79 0 79 0 79 0 
79 0 80 0 79 0 79 0 79 0 79 0 79 0 79 0 
79 0 79 0 79 0 79 0 79 0 79 0 79 0 79 0 
79 0 79 0 79 0 80 0 33 0 899 4615 70 MP stroke
c8
27 0 79 0 79 0 79 0 79 0 79 0 79 0 79 0 
79 0 79 0 79 0 79 0 79 0 79 0 80 0 79 0 
79 0 79 0 79 0 79 0 79 0 79 0 79 0 79 0 
79 0 79 0 79 0 79 0 79 0 79 0 79 0 79 0 
80 0 79 0 79 0 79 0 79 0 79 0 79 0 79 0 
79 0 79 1 79 0 79 0 79 0 79 0 79 0 79 0 
79 0 80 0 79 1 79 8 79 33 79 103 79 253 79 473 
79 656 79 612 79 258 79 -249 79 -608 79 -657 79 -479 79 -256 
79 -105 79 -33 79 -9 80 -1 33 0 899 4614 70 MP stroke
c9
27 9 79 59 79 107 79 173 79 245 79 301 79 309 79 250 
79 126 79 -34 79 -184 79 -284 79 -313 79 -281 80 -216 79 -144 
79 -84 79 -44 79 -21 79 -8 79 -3 79 -1 79 0 79 0 
79 0 79 0 79 0 79 0 79 0 79 0 79 0 79 0 
80 0 79 0 79 0 79 -1 79 0 79 0 79 0 79 0 
79 0 79 0 79 0 79 0 79 0 79 0 79 0 79 0 
79 0 80 0 79 0 79 0 79 0 79 0 79 0 79 0 
79 0 79 0 79 0 79 0 79 0 79 0 79 0 79 0 
79 0 79 0 79 0 80 0 33 0 899 4615 70 MP stroke
c8
27 0 79 0 79 0 79 0 79 0 79 0 79 0 79 0 
79 0 79 0 79 0 79 0 79 0 79 0 80 0 79 0 
79 0 79 0 79 0 79 0 79 0 79 0 79 0 79 0 
79 0 79 0 79 0 79 0 79 0 79 0 79 0 79 0 
80 0 79 0 79 0 79 0 79 0 79 0 79 0 79 0 
79 0 79 0 79 0 79 0 79 1 79 0 79 0 79 0 
79 0 80 0 79 0 79 0 79 0 79 2 79 11 79 50 
79 158 79 380 79 657 79 774 79 504 79 -92 79 -625 79 -774 
79 -581 79 -305 79 -117 80 -34 33 -3 899 4609 70 MP stroke
c9
27 0 79 0 79 0 79 1 79 0 79 0 79 0 79 0 
79 0 79 0 79 0 79 0 79 0 79 1 80 7 79 26 
79 82 79 201 79 389 79 573 79 607 79 378 79 -51 79 -452 
79 -620 79 -539 79 -344 79 -168 79 -65 79 -20 79 -4 79 -1 
80 0 79 0 79 0 79 0 79 0 79 0 79 0 79 0 
79 0 79 -1 79 0 79 0 79 0 79 0 79 0 79 0 
79 0 80 0 79 0 79 0 79 0 79 0 79 0 79 0 
79 0 79 0 79 0 79 0 79 0 79 0 79 0 79 0 
79 0 79 0 79 0 80 0 33 0 899 4615 70 MP stroke
c8
27 0 79 0 79 0 79 0 79 0 79 0 79 0 79 0 
79 0 79 0 79 0 79 0 79 0 79 0 80 0 79 0 
79 0 79 0 79 0 79 0 79 0 79 0 79 0 79 0 
79 0 79 0 79 0 79 0 79 0 79 0 79 0 79 0 
80 0 79 0 79 0 79 0 79 0 79 0 79 0 79 0 
79 0 79 0 79 0 79 0 79 0 79 0 79 0 79 1 
79 0 80 0 79 0 79 0 79 0 79 0 79 0 79 2 
79 16 79 85 79 298 79 697 79 1026 79 781 79 -97 79 -890 
79 -992 79 -610 79 -240 80 -63 33 -5 899 4606 70 MP stroke
c9
27 0 79 0 79 0 79 0 79 0 79 0 79 0 79 0 
79 0 79 0 79 0 79 1 79 0 79 0 80 0 79 0 
79 0 79 0 79 0 79 0 79 0 79 0 79 0 79 0 
79 0 79 2 79 5 79 14 79 33 79 67 79 121 79 195 
80 270 79 320 79 314 79 233 79 85 79 -88 79 -234 79 -314 
79 -321 79 -269 79 -193 79 -120 79 -67 79 -32 79 -14 79 -5 
79 -2 80 0 79 0 79 0 79 0 79 0 79 0 79 0 
79 0 79 0 79 0 79 0 79 0 79 0 79 -1 79 0 
79 0 79 0 79 0 80 0 33 0 899 4615 70 MP stroke
c8
27 0 79 0 79 0 79 0 79 0 79 0 79 0 79 0 
79 0 79 0 79 0 79 0 79 0 79 0 80 0 79 0 
79 0 79 0 79 0 79 0 79 0 79 0 79 0 79 0 
79 0 79 0 79 0 79 0 79 0 79 0 79 0 79 0 
80 0 79 0 79 0 79 0 79 0 79 0 79 0 79 0 
79 0 79 1 79 0 79 0 79 0 79 0 79 0 79 0 
79 0 80 0 79 0 79 4 79 17 79 61 79 169 79 365 
79 589 79 677 79 464 79 -12 79 -480 79 -678 79 -581 79 -355 
79 -163 79 -58 79 -15 80 -4 33 0 899 4614 70 MP stroke
c9
27 0 79 0 79 0 79 0 79 0 79 0 79 0 79 0 
79 0 79 0 79 0 79 0 79 1 79 0 80 0 79 0 
79 0 79 0 79 0 79 0 79 0 79 0 79 1 79 6 
79 23 79 73 79 183 79 362 79 550 79 609 79 417 79 10 
80 -403 79 -606 79 -557 79 -371 79 -189 79 -76 79 -25 79 -6 
79 -1 79 0 79 0 79 0 79 0 79 0 79 0 79 0 
79 0 80 0 79 -1 79 0 79 0 79 0 79 0 79 0 
79 0 79 0 79 0 79 0 79 0 79 0 79 0 79 0 
79 0 79 0 79 0 80 0 33 0 899 4615 70 MP stroke
c8
27 0 79 0 79 0 79 0 79 0 79 0 79 0 79 0 
79 0 79 0 79 0 79 0 79 0 79 0 80 0 79 0 
79 0 79 0 79 0 79 0 79 0 79 0 79 0 79 0 
79 0 79 0 79 0 79 0 79 0 79 0 79 0 79 0 
80 0 79 0 79 1 79 0 79 0 79 0 79 0 79 0 
79 0 79 0 79 0 79 0 79 0 79 0 79 0 79 3 
79 9 80 23 79 57 79 117 79 208 79 312 79 388 79 385 
79 268 79 60 79 -171 79 -340 79 -399 79 -358 79 -261 79 -160 
79 -83 79 -37 79 -15 80 -5 33 0 899 4613 70 MP stroke
c9
27 0 79 0 79 0 79 0 79 0 79 0 79 0 79 0 
79 0 79 0 79 0 79 0 79 0 79 0 80 0 79 0 
79 0 79 0 79 0 79 0 79 0 79 0 79 0 79 1 
79 0 79 0 79 0 79 0 79 0 79 0 79 1 79 15 
80 93 79 364 79 882 79 1220 79 671 79 -532 79 -1208 79 -952 
79 -419 79 -114 79 -19 79 -2 79 0 79 0 79 0 79 0 
79 0 80 0 79 -1 79 0 79 0 79 0 79 0 79 0 
79 0 79 0 79 0 79 0 79 0 79 0 79 0 79 0 
79 0 79 0 79 0 80 0 33 0 899 4615 70 MP stroke
c8
27 0 79 0 79 0 79 0 79 0 79 0 79 0 79 0 
79 0 79 0 79 0 79 0 79 0 79 0 80 0 79 0 
79 0 79 0 79 0 79 0 79 0 79 0 79 0 79 0 
79 0 79 0 79 0 79 0 79 0 79 0 79 0 79 0 
80 0 79 0 79 0 79 0 79 0 79 0 79 0 79 0 
79 0 79 1 79 0 79 0 79 0 79 0 79 0 79 0 
79 0 80 0 79 0 79 1 79 7 79 26 79 79 79 190 
79 362 79 537 79 585 79 396 79 11 79 -381 79 -581 79 -544 
79 -372 79 -197 79 -82 80 -28 33 -3 899 4608 70 MP stroke
c9
27 0 79 0 79 0 79 0 79 0 79 0 79 0 79 0 
79 0 79 0 79 0 79 0 79 0 79 0 80 0 79 1 
79 0 79 0 79 0 79 0 79 0 79 0 79 1 79 11 
79 71 79 283 79 728 79 1129 79 852 79 -180 79 -1039 79 -1046 
80 -570 79 -192 79 -42 79 -6 79 0 79 0 79 0 79 0 
79 0 79 0 79 0 79 -1 79 0 79 0 79 0 79 0 
79 0 80 0 79 0 79 0 79 0 79 0 79 0 79 0 
79 0 79 0 79 0 79 0 79 0 79 0 79 0 79 0 
79 0 79 0 79 0 80 0 33 0 899 4615 70 MP stroke
gr

c9

end %%Color Dict

eplot
%%EndObject

epage
end

showpage

%%Trailer
%%EOF
