%!PS-Adobe-3.0 EPSF-3.0
%%Creator: MATLAB, The Mathworks, Inc.
%%Title: Pictures\main_compen05_norm_fusion_exp6.eps
%%CreationDate: 11/17/2007  01:47:07
%%DocumentNeededFonts: Helvetica
%%DocumentProcessColors: Cyan Magenta Yellow Black
%%LanguageLevel: 2
%%Pages: 1
%%BoundingBox:    89   191   494   609
%%EndComments

%%BeginProlog
% MathWorks dictionary
/MathWorks 160 dict begin
% definition operators
/bdef {bind def} bind def
/ldef {load def} bind def
/xdef {exch def} bdef
/xstore {exch store} bdef
% operator abbreviations
/c  /clip ldef
/cc /concat ldef
/cp /closepath ldef
/gr /grestore ldef
/gs /gsave ldef
/mt /moveto ldef
/np /newpath ldef
/cm /currentmatrix ldef
/sm /setmatrix ldef
/rm /rmoveto ldef
/rl /rlineto ldef
/s {show newpath} bdef
/sc {setcmykcolor} bdef
/sr /setrgbcolor ldef
/sg /setgray ldef
/w /setlinewidth ldef
/j /setlinejoin ldef
/cap /setlinecap ldef
/rc {rectclip} bdef
/rf {rectfill} bdef
% page state control
/pgsv () def
/bpage {/pgsv save def} bdef
/epage {pgsv restore} bdef
/bplot /gsave ldef
/eplot {stroke grestore} bdef
% orientation switch
/portraitMode 0 def /landscapeMode 1 def /rotateMode 2 def
% coordinate system mappings
/dpi2point 0 def
% font control
/FontSize 0 def
/FMS {/FontSize xstore findfont [FontSize 0 0 FontSize neg 0 0]
  makefont setfont} bdef
/ISOLatin1Encoding where {pop /WindowsLatin1Encoding 256 array bdef
ISOLatin1Encoding WindowsLatin1Encoding copy pop
/.notdef/.notdef/quotesinglbase/florin/quotedblbase/ellipsis/dagger
/daggerdbl/circumflex/perthousand/Scaron/guilsinglleft/OE/.notdef/.notdef
/.notdef/.notdef/quoteleft/quoteright/quotedblleft/quotedblright/bullet
/endash/emdash/tilde/trademark/scaron/guilsinglright/oe/.notdef/.notdef
/Ydieresis WindowsLatin1Encoding 128 32 getinterval astore pop}
{/WindowsLatin1Encoding StandardEncoding bdef} ifelse
/reencode {exch dup where {pop load} {pop StandardEncoding} ifelse
  exch dup 3 1 roll findfont dup length dict begin
  { 1 index /FID ne {def}{pop pop} ifelse } forall
  /Encoding exch def currentdict end definefont pop} bdef
/isroman {findfont /CharStrings get /Agrave known} bdef
/FMSR {3 1 roll 1 index dup isroman {reencode} {pop pop} ifelse
  exch FMS} bdef
/csm {1 dpi2point div -1 dpi2point div scale neg translate
 dup landscapeMode eq {pop -90 rotate}
  {rotateMode eq {90 rotate} if} ifelse} bdef
% line types: solid, dotted, dashed, dotdash
/SO { [] 0 setdash } bdef
/DO { [.5 dpi2point mul 4 dpi2point mul] 0 setdash } bdef
/DA { [6 dpi2point mul] 0 setdash } bdef
/DD { [.5 dpi2point mul 4 dpi2point mul 6 dpi2point mul 4
  dpi2point mul] 0 setdash } bdef
% macros for lines and objects
/L {lineto stroke} bdef
/MP {3 1 roll moveto 1 sub {rlineto} repeat} bdef
/AP {{rlineto} repeat} bdef
/PDlw -1 def
/W {/PDlw currentlinewidth def setlinewidth} def
/PP {closepath eofill} bdef
/DP {closepath stroke} bdef
/MR {4 -2 roll moveto dup  0 exch rlineto exch 0 rlineto
  neg 0 exch rlineto closepath} bdef
/FR {MR stroke} bdef
/PR {MR fill} bdef
/L1i {{currentfile picstr readhexstring pop} image} bdef
/tMatrix matrix def
/MakeOval {newpath tMatrix currentmatrix pop translate scale
0 0 1 0 360 arc tMatrix setmatrix} bdef
/FO {MakeOval stroke} bdef
/PO {MakeOval fill} bdef
/PD {currentlinewidth 2 div 0 360 arc fill
   PDlw -1 eq not {PDlw w /PDlw -1 def} if} def
/FA {newpath tMatrix currentmatrix pop translate scale
  0 0 1 5 -2 roll arc tMatrix setmatrix stroke} bdef
/PA {newpath tMatrix currentmatrix pop	translate 0 0 moveto scale
  0 0 1 5 -2 roll arc closepath tMatrix setmatrix fill} bdef
/FAn {newpath tMatrix currentmatrix pop translate scale
  0 0 1 5 -2 roll arcn tMatrix setmatrix stroke} bdef
/PAn {newpath tMatrix currentmatrix pop translate 0 0 moveto scale
  0 0 1 5 -2 roll arcn closepath tMatrix setmatrix fill} bdef
/vradius 0 def /hradius 0 def /lry 0 def
/lrx 0 def /uly 0 def /ulx 0 def /rad 0 def
/MRR {/vradius xdef /hradius xdef /lry xdef /lrx xdef /uly xdef
  /ulx xdef newpath tMatrix currentmatrix pop ulx hradius add uly
  vradius add translate hradius vradius scale 0 0 1 180 270 arc 
  tMatrix setmatrix lrx hradius sub uly vradius add translate
  hradius vradius scale 0 0 1 270 360 arc tMatrix setmatrix
  lrx hradius sub lry vradius sub translate hradius vradius scale
  0 0 1 0 90 arc tMatrix setmatrix ulx hradius add lry vradius sub
  translate hradius vradius scale 0 0 1 90 180 arc tMatrix setmatrix
  closepath} bdef
/FRR {MRR stroke } bdef
/PRR {MRR fill } bdef
/MlrRR {/lry xdef /lrx xdef /uly xdef /ulx xdef /rad lry uly sub 2 div def
  newpath tMatrix currentmatrix pop ulx rad add uly rad add translate
  rad rad scale 0 0 1 90 270 arc tMatrix setmatrix lrx rad sub lry rad
  sub translate rad rad scale 0 0 1 270 90 arc tMatrix setmatrix
  closepath} bdef
/FlrRR {MlrRR stroke } bdef
/PlrRR {MlrRR fill } bdef
/MtbRR {/lry xdef /lrx xdef /uly xdef /ulx xdef /rad lrx ulx sub 2 div def
  newpath tMatrix currentmatrix pop ulx rad add uly rad add translate
  rad rad scale 0 0 1 180 360 arc tMatrix setmatrix lrx rad sub lry rad
  sub translate rad rad scale 0 0 1 0 180 arc tMatrix setmatrix
  closepath} bdef
/FtbRR {MtbRR stroke } bdef
/PtbRR {MtbRR fill } bdef
/stri 6 array def /dtri 6 array def
/smat 6 array def /dmat 6 array def
/tmat1 6 array def /tmat2 6 array def /dif 3 array def
/asub {/ind2 exch def /ind1 exch def dup dup
  ind1 get exch ind2 get sub exch } bdef
/tri_to_matrix {
  2 0 asub 3 1 asub 4 0 asub 5 1 asub
  dup 0 get exch 1 get 7 -1 roll astore } bdef
/compute_transform {
  dmat dtri tri_to_matrix tmat1 invertmatrix 
  smat stri tri_to_matrix tmat2 concatmatrix } bdef
/ds {stri astore pop} bdef
/dt {dtri astore pop} bdef
/db {2 copy /cols xdef /rows xdef mul dup 3 mul string
  currentfile 
  3 index 0 eq {/ASCIIHexDecode filter}
  {/ASCII85Decode filter 3 index 2 eq {/RunLengthDecode filter} if }
  ifelse exch readstring pop
  dup 0 3 index getinterval /rbmap xdef
  dup 2 index dup getinterval /gbmap xdef
  1 index dup 2 mul exch getinterval /bbmap xdef pop pop}bdef
/it {gs np dtri aload pop moveto lineto lineto cp c
  cols rows 8 compute_transform 
  rbmap gbmap bbmap true 3 colorimage gr}bdef
/il {newpath moveto lineto stroke}bdef
currentdict end def
%%EndProlog

%%BeginSetup
MathWorks begin

0 cap

end
%%EndSetup

%%Page: 1 1
%%BeginPageSetup
%%PageBoundingBox:    89   191   494   609
MathWorks begin
bpage
%%EndPageSetup

%%BeginObject: obj1
bplot

/dpi2point 12 def
portraitMode 0216 7344 csm

  857    28  4855  5018 rc
85 dict begin %Colortable dictionary
/c0 { 0.000000 0.000000 0.000000 sr} bdef
/c1 { 1.000000 1.000000 1.000000 sr} bdef
/c2 { 0.900000 0.000000 0.000000 sr} bdef
/c3 { 0.000000 0.820000 0.000000 sr} bdef
/c4 { 0.000000 0.000000 0.800000 sr} bdef
/c5 { 0.910000 0.820000 0.320000 sr} bdef
/c6 { 1.000000 0.260000 0.820000 sr} bdef
/c7 { 0.000000 0.820000 0.820000 sr} bdef
c0
1 j
1 sg
   0    0 6919 5187 rf
6 w
0 4227 4085 0 0 -4227 1537 4616 4 MP
PP
-4085 0 0 4227 4085 0 0 -4227 1537 4616 5 MP stroke
4 w
DO
0 sg
1866 4616 mt 1866  389 L
1866  389 mt 1866  389 L
2176 4616 mt 2176  389 L
2176  389 mt 2176  389 L
2619 4616 mt 2619  389 L
2619  389 mt 2619  389 L
2984 4616 mt 2984  389 L
2984  389 mt 2984  389 L
3383 4616 mt 3383  389 L
3383  389 mt 3383  389 L
3981 4616 mt 3981  389 L
3981  389 mt 3981  389 L
4513 4616 mt 4513  389 L
4513  389 mt 4513  389 L
5156 4616 mt 5156  389 L
5156  389 mt 5156  389 L
1537 4349 mt 5622 4349 L
5622 4349 mt 5622 4349 L
1537 4039 mt 5622 4039 L
5622 4039 mt 5622 4039 L
1537 3596 mt 5622 3596 L
5622 3596 mt 5622 3596 L
1537 3231 mt 5622 3231 L
5622 3231 mt 5622 3231 L
1537 2833 mt 5622 2833 L
5622 2833 mt 5622 2833 L
1537 2234 mt 5622 2234 L
5622 2234 mt 5622 2234 L
1537 1703 mt 5622 1703 L
5622 1703 mt 5622 1703 L
1537 1059 mt 5622 1059 L
5622 1059 mt 5622 1059 L
SO
6 w
1537 4616 mt 5622 4616 L
1537 4616 mt 1537  389 L
1866 4616 mt 1866 4573 L
%%IncludeResource: font Helvetica
/Helvetica /WindowsLatin1Encoding 168 FMSR

1680 4806 mt 
(  0.1 ) s
2176 4616 mt 2176 4573 L
1990 4806 mt 
(  0.2 ) s
2619 4616 mt 2619 4573 L
2433 4806 mt 
(  0.5 ) s
2984 4616 mt 2984 4573 L
2821 4806 mt 
(   1  ) s
3383 4616 mt 3383 4573 L
3220 4806 mt 
(   2  ) s
3981 4616 mt 3981 4573 L
3818 4806 mt 
(   5  ) s
4513 4616 mt 4513 4573 L
4327 4806 mt 
(  10  ) s
5156 4616 mt 5156 4573 L
4970 4806 mt 
(  20  ) s
1537 4349 mt 1580 4349 L
1130 4411 mt 
(   0.1) s
1537 4039 mt 1580 4039 L
1130 4101 mt 
(   0.2) s
1537 3596 mt 1580 3596 L
1130 3658 mt 
(   0.5) s
1537 3231 mt 1580 3231 L
1177 3293 mt 
(     1) s
1537 2833 mt 1580 2833 L
1177 2895 mt 
(     2) s
1537 2234 mt 1580 2234 L
1177 2296 mt 
(     5) s
1537 1703 mt 1580 1703 L
1130 1765 mt 
(    10) s
1537 1059 mt 1580 1059 L
1130 1121 mt 
(    20) s
gs 1537 389 4086 4228 rc
gs 2790 1473 339 339 rc
0 j
84 111 -84 111 -84 -111 84 -111 2959 1753 5 MP
/c8 { 0.000000 0.000000 1.000000 sr} bdef
c8
DP
gr

c8
gs 2419 1818 339 339 rc
0 j
0 -132 -132 0 0 132 132 0 2522 1921 5 MP
/c9 { 1.000000 0.000000 0.000000 sr} bdef
c9
DP
gr

c9
gs 2430 1818 339 339 rc
2515 1987 mt 2683 1987 L
2599 1903 mt 2599 2071 L
2540 1928 mt 2658 2046 L
2658 1928 mt 2540 2046 L
gr

gs 2597 1555 339 339 rc
0 j
-97 167 -97 -167 194 0 2669 1780 4 MP
0 sg
DP
gr

0 sg
gs 2839 1473 339 339 rc
0 j
97 167 -194 0 97 -167 3008 1753 4 MP
DP
gr

c8
-54 -38 -79 -76 -85 -53 -88 -38 -83 -55 -88 -35 -84 -48 -50 -129 
-76 -61 -91 -24 -73 -63 -74 -58 -88 -31 -81 -45 -68 -67 -80 -47 
-77 -50 -77 -49 -81 -43 -90 -32 -73 -57 -79 -47 -71 -59 -80 -47 
-55 -80 -60 -72 -63 -66 -69 -61 -71 -57 -24 -107 -32 -96 -95 -33 
-61 -67 -46 -80 -57 -71 -52 -73 -50 -76 -98 -36 -104 -35 -58 -72 
-72 -62 -93 -48 -68 -66 -43 -84 -46 -81 -46 -81 -15 -98 -12 -99 
-81 -61 -84 -62 -92 -61 -102 -58 -113 -56 -104 -63 -18 -98 -17 -98 
-15 -98 -13 -99 -11 -98 -9 -98 -6 -71 5462 4617 62 MP stroke
c9
-67 -113 -77 -90 -68 -111 -73 -83 -69 -90 -77 -61 -56 -115 -81 -43 
-60 -92 -69 -66 -56 -92 -52 -95 -57 -81 -49 -91 -61 -68 -54 -76 
-35 -105 -49 -79 -49 -75 -71 -42 -53 -66 -40 -83 -59 -56 -21 -103 
-52 -62 -73 -36 -68 -42 -41 -74 -37 -76 -49 -62 -58 -52 -56 -55 
-62 -50 -73 -39 -82 -33 -84 -34 -81 -38 -85 -36 -95 -31 -80 -44 
-48 -69 -39 -74 -1 -98 -1 -97 -8 -90 -8 -89 -7 -87 -9 -86 
-20 -78 -18 -79 -16 -78 -15 -79 -13 -78 -12 -79 -11 -78 -9 -78 
-4 -43 4255 4617 58 MP stroke
DA
-6 -7 -82 -53 -73 -82 -83 -45 -69 -84 -64 -89 -72 -65 -63 -83 
-66 -71 -75 -47 -64 -71 -44 -108 -62 -68 -74 -41 -56 -75 -65 -56 
-50 -80 -61 -60 -62 -55 -61 -58 -57 -62 -64 -52 -45 -78 -29 -94 
-75 -35 -62 -52 -38 -79 -43 -72 -47 -67 -30 -83 -44 -68 -46 -64 
-50 -60 -65 -47 -69 -44 -85 -31 -93 -27 -98 -25 -108 -21 -117 -18 
-59 -61 -49 -69 -36 -78 -25 -83 -21 -85 -25 -82 -26 -81 -22 -82 
-21 -82 -20 -81 -18 -82 -16 -82 -15 -82 -13 -82 -12 -81 -10 -82 
-9 -81 -3 -31 4454 4617 59 MP stroke
SO
0 sg
-3 -9 -89 -61 -67 -136 -79 -79 -72 -97 -80 -68 -83 -53 -76 -70 
-81 -56 -81 -51 -78 -59 -68 -77 -63 -85 -50 -106 -48 -104 -55 -87 
-58 -79 -72 -52 -40 -103 -46 -90 -47 -85 -43 -88 -61 -61 -67 -52 
-39 -87 -61 -57 -32 -92 -62 -55 -82 -33 -55 -64 -80 -36 -69 -50 
-61 -57 -39 -79 -11 -101 -36 -79 -16 -93 -34 -77 -46 -66 -60 -56 
-62 -55 -64 -54 -73 -50 -77 -47 -84 -45 -93 -42 -69 -58 -18 -87 
-19 -86 -15 -87 -16 -85 -19 -83 -17 -84 -15 -83 -14 -83 -13 -83 
-11 -83 -9 -83 -5 -60 4541 4617 60 MP stroke
DA
-51 -62 -85 -58 -94 -22 -84 -54 -83 -56 -90 -31 -92 -30 -74 -71 
-68 -84 -67 -81 -75 -60 -70 -68 -89 -30 -82 -43 -61 -82 -83 -39 
-74 -57 -83 -39 -78 -50 -79 -47 -88 -35 -96 -26 -39 -102 -65 -66 
-56 -77 -54 -78 -59 -71 -52 -77 -52 -77 -76 -51 -63 -65 -68 -58 
-65 -64 -97 -34 -67 -63 -44 -82 -41 -83 -57 -71 -70 -61 -92 -45 
-78 -58 -60 -71 -72 -63 -63 -70 -9 -103 -11 -100 -12 -99 -59 -71 
-121 -41 -121 -44 -118 -50 -115 -53 -111 -58 -103 -65 -31 -95 -17 -100 
-15 -100 -14 -100 -12 -100 -10 -99 -7 -99 5559 4617 62 MP stroke
gr

DA
3273 4984 mt 
(FAR [%]) s
1038 2820 mt  -90 rotate
(FRR [%]) s
90 rotate
3182  257 mt 
(Exp 6: 2  3) s
%%IncludeResource: font Helvetica
/Helvetica /WindowsLatin1Encoding 120 FMSR

1520 4659 mt 
( ) s
5606  431 mt 
( ) s
SO
1 sg
0 972 1825 0 0 -972 3576 1519 4 MP
PP
-1825 0 0 972 1825 0 0 -972 3576 1519 5 MP stroke
4 w
DO
SO
6 w
0 sg
3576  547 mt 5401  547 L
3576 1519 mt 5401 1519 L
5401 1519 mt 5401  547 L
3576 1519 mt 3576  547 L
3576 1519 mt 5401 1519 L
3576 1519 mt 3576  547 L
3576  547 mt 5401  547 L
3576 1519 mt 5401 1519 L
5401 1519 mt 5401  547 L
3576 1519 mt 3576  547 L
%%IncludeResource: font Helvetica
/Helvetica /WindowsLatin1Encoding 144 FMSR

4060  712 mt 
(baseline\(LR\)) s
gs 3576 547 1826 973 rc
gr

gs 3667 492 339 339 rc
0 j
84 111 -84 111 -84 -111 84 -111 3836 772 5 MP
c8
DP
gr

c8
gs 3576 547 1826 973 rc
gr

0 sg
4060  898 mt 
(MS-LLR\(LR\)) s
gs 3576 547 1826 973 rc
gs 3667 678 339 339 rc
0 j
0 -132 -132 0 0 132 132 0 3770 781 5 MP
c9
DP
gr

c9
gr

c9
0 sg
4060 1085 mt 
(F-norm\(LR\)) s
gs 3576 547 1826 973 rc
gs 3667 864 339 339 rc
c9
3752 1033 mt 3920 1033 L
3836  949 mt 3836 1117 L
3777  974 mt 3895 1092 L
3895  974 mt 3777 1092 L
gr

c9
gr

c9
0 sg
4060 1271 mt 
(Z-norm\(LR\)) s
gs 3576 547 1826 973 rc
gs 3667 1050 339 339 rc
0 j
-97 167 -97 -167 194 0 3739 1275 4 MP
DP
gr

gr

4060 1457 mt 
(baseline-norm\(sum\)) s
gs 3576 547 1826 973 rc
gr

gs 3667 1236 339 339 rc
0 j
97 167 -194 0 97 -167 3836 1516 4 MP
DP
gr

gs 3576 547 1826 973 rc
gr


end %%Color Dict

eplot
%%EndObject

epage
end

showpage

%%Trailer
%%EOF
