%!PS-Adobe-3.0 EPSF-3.0
%%Creator: MATLAB, The Mathworks, Inc.
%%Title: Pictures\demo_pdf_cdf.eps
%%CreationDate: 11/30/2006  14:19:07
%%DocumentNeededFonts: Helvetica
%%DocumentProcessColors: Cyan Magenta Yellow Black
%%LanguageLevel: 2
%%Pages: 1
%%BoundingBox:    52   199   549   602
%%EndComments

%%BeginProlog
% MathWorks dictionary
/MathWorks 160 dict begin
% definition operators
/bdef {bind def} bind def
/ldef {load def} bind def
/xdef {exch def} bdef
/xstore {exch store} bdef
% operator abbreviations
/c  /clip ldef
/cc /concat ldef
/cp /closepath ldef
/gr /grestore ldef
/gs /gsave ldef
/mt /moveto ldef
/np /newpath ldef
/cm /currentmatrix ldef
/sm /setmatrix ldef
/rm /rmoveto ldef
/rl /rlineto ldef
/s {show newpath} bdef
/sc {setcmykcolor} bdef
/sr /setrgbcolor ldef
/sg /setgray ldef
/w /setlinewidth ldef
/j /setlinejoin ldef
/cap /setlinecap ldef
/rc {rectclip} bdef
/rf {rectfill} bdef
% page state control
/pgsv () def
/bpage {/pgsv save def} bdef
/epage {pgsv restore} bdef
/bplot /gsave ldef
/eplot {stroke grestore} bdef
% orientation switch
/portraitMode 0 def /landscapeMode 1 def /rotateMode 2 def
% coordinate system mappings
/dpi2point 0 def
% font control
/FontSize 0 def
/FMS {/FontSize xstore findfont [FontSize 0 0 FontSize neg 0 0]
  makefont setfont} bdef
/ISOLatin1Encoding where {pop /WindowsLatin1Encoding 256 array bdef
ISOLatin1Encoding WindowsLatin1Encoding copy pop
/.notdef/.notdef/quotesinglbase/florin/quotedblbase/ellipsis/dagger
/daggerdbl/circumflex/perthousand/Scaron/guilsinglleft/OE/.notdef/.notdef
/.notdef/.notdef/quoteleft/quoteright/quotedblleft/quotedblright/bullet
/endash/emdash/tilde/trademark/scaron/guilsinglright/oe/.notdef/.notdef
/Ydieresis WindowsLatin1Encoding 128 32 getinterval astore pop}
{/WindowsLatin1Encoding StandardEncoding bdef} ifelse
/reencode {exch dup where {pop load} {pop StandardEncoding} ifelse
  exch dup 3 1 roll findfont dup length dict begin
  { 1 index /FID ne {def}{pop pop} ifelse } forall
  /Encoding exch def currentdict end definefont pop} bdef
/isroman {findfont /CharStrings get /Agrave known} bdef
/FMSR {3 1 roll 1 index dup isroman {reencode} {pop pop} ifelse
  exch FMS} bdef
/csm {1 dpi2point div -1 dpi2point div scale neg translate
 dup landscapeMode eq {pop -90 rotate}
  {rotateMode eq {90 rotate} if} ifelse} bdef
% line types: solid, dotted, dashed, dotdash
/SO { [] 0 setdash } bdef
/DO { [.5 dpi2point mul 4 dpi2point mul] 0 setdash } bdef
/DA { [6 dpi2point mul] 0 setdash } bdef
/DD { [.5 dpi2point mul 4 dpi2point mul 6 dpi2point mul 4
  dpi2point mul] 0 setdash } bdef
% macros for lines and objects
/L {lineto stroke} bdef
/MP {3 1 roll moveto 1 sub {rlineto} repeat} bdef
/AP {{rlineto} repeat} bdef
/PDlw -1 def
/W {/PDlw currentlinewidth def setlinewidth} def
/PP {closepath eofill} bdef
/DP {closepath stroke} bdef
/MR {4 -2 roll moveto dup  0 exch rlineto exch 0 rlineto
  neg 0 exch rlineto closepath} bdef
/FR {MR stroke} bdef
/PR {MR fill} bdef
/L1i {{currentfile picstr readhexstring pop} image} bdef
/tMatrix matrix def
/MakeOval {newpath tMatrix currentmatrix pop translate scale
0 0 1 0 360 arc tMatrix setmatrix} bdef
/FO {MakeOval stroke} bdef
/PO {MakeOval fill} bdef
/PD {currentlinewidth 2 div 0 360 arc fill
   PDlw -1 eq not {PDlw w /PDlw -1 def} if} def
/FA {newpath tMatrix currentmatrix pop translate scale
  0 0 1 5 -2 roll arc tMatrix setmatrix stroke} bdef
/PA {newpath tMatrix currentmatrix pop	translate 0 0 moveto scale
  0 0 1 5 -2 roll arc closepath tMatrix setmatrix fill} bdef
/FAn {newpath tMatrix currentmatrix pop translate scale
  0 0 1 5 -2 roll arcn tMatrix setmatrix stroke} bdef
/PAn {newpath tMatrix currentmatrix pop translate 0 0 moveto scale
  0 0 1 5 -2 roll arcn closepath tMatrix setmatrix fill} bdef
/vradius 0 def /hradius 0 def /lry 0 def
/lrx 0 def /uly 0 def /ulx 0 def /rad 0 def
/MRR {/vradius xdef /hradius xdef /lry xdef /lrx xdef /uly xdef
  /ulx xdef newpath tMatrix currentmatrix pop ulx hradius add uly
  vradius add translate hradius vradius scale 0 0 1 180 270 arc 
  tMatrix setmatrix lrx hradius sub uly vradius add translate
  hradius vradius scale 0 0 1 270 360 arc tMatrix setmatrix
  lrx hradius sub lry vradius sub translate hradius vradius scale
  0 0 1 0 90 arc tMatrix setmatrix ulx hradius add lry vradius sub
  translate hradius vradius scale 0 0 1 90 180 arc tMatrix setmatrix
  closepath} bdef
/FRR {MRR stroke } bdef
/PRR {MRR fill } bdef
/MlrRR {/lry xdef /lrx xdef /uly xdef /ulx xdef /rad lry uly sub 2 div def
  newpath tMatrix currentmatrix pop ulx rad add uly rad add translate
  rad rad scale 0 0 1 90 270 arc tMatrix setmatrix lrx rad sub lry rad
  sub translate rad rad scale 0 0 1 270 90 arc tMatrix setmatrix
  closepath} bdef
/FlrRR {MlrRR stroke } bdef
/PlrRR {MlrRR fill } bdef
/MtbRR {/lry xdef /lrx xdef /uly xdef /ulx xdef /rad lrx ulx sub 2 div def
  newpath tMatrix currentmatrix pop ulx rad add uly rad add translate
  rad rad scale 0 0 1 180 360 arc tMatrix setmatrix lrx rad sub lry rad
  sub translate rad rad scale 0 0 1 0 180 arc tMatrix setmatrix
  closepath} bdef
/FtbRR {MtbRR stroke } bdef
/PtbRR {MtbRR fill } bdef
/stri 6 array def /dtri 6 array def
/smat 6 array def /dmat 6 array def
/tmat1 6 array def /tmat2 6 array def /dif 3 array def
/asub {/ind2 exch def /ind1 exch def dup dup
  ind1 get exch ind2 get sub exch } bdef
/tri_to_matrix {
  2 0 asub 3 1 asub 4 0 asub 5 1 asub
  dup 0 get exch 1 get 7 -1 roll astore } bdef
/compute_transform {
  dmat dtri tri_to_matrix tmat1 invertmatrix 
  smat stri tri_to_matrix tmat2 concatmatrix } bdef
/ds {stri astore pop} bdef
/dt {dtri astore pop} bdef
/db {2 copy /cols xdef /rows xdef mul dup 3 mul string
  currentfile 
  3 index 0 eq {/ASCIIHexDecode filter}
  {/ASCII85Decode filter 3 index 2 eq {/RunLengthDecode filter} if }
  ifelse exch readstring pop
  dup 0 3 index getinterval /rbmap xdef
  dup 2 index dup getinterval /gbmap xdef
  1 index dup 2 mul exch getinterval /bbmap xdef pop pop}bdef
/it {gs np dtri aload pop moveto lineto lineto cp c
  cols rows 8 compute_transform 
  rbmap gbmap bbmap true 3 colorimage gr}bdef
/il {newpath moveto lineto stroke}bdef
currentdict end def
%%EndProlog

%%BeginSetup
MathWorks begin

0 cap

end
%%EndSetup

%%Page: 1 1
%%BeginPageSetup
%%PageBoundingBox:    52   199   549   602
MathWorks begin
bpage
%%EndPageSetup

%%BeginObject: obj1
bplot

/dpi2point 12 def
portraitMode 0216 7344 csm

  413   110  5964  4846 rc
85 dict begin %Colortable dictionary
/c0 { 0.000000 0.000000 0.000000 sr} bdef
/c1 { 1.000000 1.000000 1.000000 sr} bdef
/c2 { 0.900000 0.000000 0.000000 sr} bdef
/c3 { 0.000000 0.820000 0.000000 sr} bdef
/c4 { 0.000000 0.000000 0.800000 sr} bdef
/c5 { 0.910000 0.820000 0.320000 sr} bdef
/c6 { 1.000000 0.260000 0.820000 sr} bdef
/c7 { 0.000000 0.820000 0.820000 sr} bdef
c0
1 j
1 sg
   0    0 6919 5187 rf
6 w
0 1769 2316 0 0 -1769 899 2158 4 MP
PP
-2316 0 0 1769 2316 0 0 -1769 899 2158 5 MP stroke
4 w
DO
SO
6 w
0 sg
 899 2158 mt 3215 2158 L
 899 2158 mt  899  389 L
 899 2158 mt  899 2134 L
%%IncludeResource: font Helvetica
/Helvetica /WindowsLatin1Encoding 120 FMSR

 763 2303 mt 
(-10) s
1671 2158 mt 1671 2134 L
1568 2303 mt 
(-5) s
2443 2158 mt 2443 2134 L
2410 2303 mt 
(0) s
3215 2158 mt 3215 2134 L
3182 2303 mt 
(5) s
 899 2158 mt  922 2158 L
 798 2202 mt 
(0) s
 899 1715 mt  922 1715 L
 698 1759 mt 
(0.1) s
 899 1273 mt  922 1273 L
 698 1317 mt 
(0.2) s
 899  831 mt  922  831 L
 698  875 mt 
(0.3) s
 899  389 mt  922  389 L
 698  433 mt 
(0.4) s
1826  294 mt 
(impostor) s
gs 899 389 2317 1770 rc
/c8 { 0.000000 0.000000 1.000000 sr} bdef
c8
29 0 25 0 3 0 12 1 8 0 1 0 2 0 2 0 
1 0 2 0 3 0 6 0 9 1 7 0 3 1 1 0 
7 0 7 1 2 0 3 0 2 1 3 0 1 0 1 0 
3 1 1 0 1 0 2 0 1 0 1 0 1 1 1 0 
1 0 3 0 2 1 1 0 1 0 2 0 2 1 1 0 
1 0 2 0 0 1 3 0 1 0 1 1 3 1 1 0 
1 0 2 0 0 1 3 0 1 0 1 1 1 0 1 0 
1 1 1 0 1 0 2 1 1 0 1 1 2 0 2 1 
1 0 1 1 1 0 1 0 1 1 1 0 1 1 2 1 
1 0 1 0 1 1 1 0 1 1 1 0 1 1 1 0 
1 1 1 0 1 1 1 0 1 1 1 0 2 1 1 1 
2 1 1 1 1 0 1 1 1 1 1 0 1 1 1 0 
1 1 1 1 1 0 1 1 1 1 1 1 1 0 1 1 
1 1 1 0 1 1 1 1 1 1 1 1 1 0 1 1 
1 1 1 1 1 1 1 1 1 1 1 0 0 1 2 2 
1 0 1 1 1 1 1 1 1 1 1 1 1 1 1 1 
0 1 2 2 1 1 1 1 1 1 1 1 1 1 1 1 
0 1 2 2 1 1 1 1 0 1 2 2 1 1 0 1 
2 2 1 1 0 1 2 2 0 1 2 2 0 1 2 2 
1 1 1 1 0 2 2 2 0 1 2 2 1 1 0 2 
2 2 1 1 0 2 2 2 1 1 0 2 2 2 0 2 
2 2 0 1 2 2 0 2 2 2 0 2 2 2 0 2 
2 2 0 2 2 2 0 2 2 2 0 2 2 2 0 3 
2 2 0 2 2 2 0 2 1 1 0 2 2 2 0 2 
1 1 0 1 1 1 0 2 1 1 0 2 2 2 0 2 
1 1 0 1 1 1 0 3 2 2 0 2 1 1 0 2 
1 1 0 1 1 1 0 2 1 1 0 2 1 1 0 2 
1 1 0 1 1 1 0 2 1 1 0 2 1 1 0 2 
1 1 0 1 1 1 0 2 1 1 0 2 1 1 0 2 
1 1 0 2 1 1 0 3 1 1 0 1 1 1 0 2 
1 1 0 3 1 1 0 2 1 1 0 2 1 1 0 2 
1 1 0 2 1 1 0 3 1 1 0 2 1 1 0 2 
1 1 0 3 1 1 0 2 1 1 0 2 1 1 0 3 
1 1 0 2 1 1 0 3 1 1 0 2 1 1 0 3 
1 1 0 2 1 1 0 3 1 1 0 3 1 1 0 2 
1 1 0 3 1 1 0 3 1 1 0 3 1 1 0 3 
1 1 0 3 1 1 0 2 1 1 0 3 1 1 0 3 
1 1 0 3 1 1 2493 1817 300 MP stroke
0 3 1 1 0 3 1 1 0 3 1 1 0 4 1 1 
0 3 1 1 0 3 1 1 0 3 1 1 0 3 1 1 
0 4 1 1 0 3 1 1 0 3 1 1 0 4 1 1 
0 3 1 1 0 3 1 1 0 4 1 1 0 3 1 1 
0 4 1 1 0 3 1 1 0 4 1 1 0 3 1 1 
0 4 1 1 0 4 1 1 0 3 1 1 0 4 1 1 
0 4 1 1 0 4 1 1 0 4 1 1 0 3 1 1 
0 4 1 1 0 4 1 1 0 4 1 1 0 4 1 1 
0 4 1 1 0 4 1 1 0 5 1 1 0 3 1 1 
0 5 1 1 0 4 1 1 0 4 1 1 0 4 1 1 
0 4 1 1 0 5 1 1 0 4 1 1 0 4 1 1 
0 5 1 1 0 4 1 1 0 5 1 1 0 4 1 1 
0 4 1 1 0 5 1 1 0 5 1 1 0 4 1 1 
0 5 1 1 0 4 1 1 0 5 1 1 0 4 1 1 
0 5 1 1 0 5 1 1 0 5 1 1 0 4 1 1 
0 5 1 1 0 5 1 1 0 5 1 1 0 5 1 1 
0 4 1 1 0 5 1 1 0 5 1 1 0 5 1 1 
0 5 1 1 0 5 1 1 0 5 1 1 0 5 1 1 
0 5 1 1 0 5 1 1 0 5 1 1 0 5 1 1 
0 6 1 1 0 5 1 1 0 5 1 1 0 5 1 1 
0 5 1 1 0 5 1 1 0 6 1 1 0 5 1 1 
0 5 1 1 0 5 1 1 0 6 1 1 0 5 1 1 
0 5 1 1 0 6 1 1 0 5 1 1 0 5 1 1 
0 6 1 1 0 5 1 1 0 5 1 1 0 6 1 1 
0 5 1 1 0 6 1 1 0 5 1 1 0 6 1 1 
0 5 1 1 0 5 1 1 0 6 1 1 0 5 1 1 
0 6 1 1 0 5 1 1 0 6 1 1 0 5 1 1 
0 6 1 1 0 5 1 1 0 6 1 1 0 5 1 1 
0 6 1 1 0 5 1 1 0 6 1 1 0 5 1 1 
0 6 1 1 0 5 1 1 0 6 1 1 0 5 1 1 
0 6 1 1 0 5 1 1 0 6 1 1 0 5 1 1 
0 6 1 1 0 5 1 1 0 6 1 1 0 5 1 1 
0 5 1 1 0 6 1 1 0 5 1 1 0 6 1 1 
0 5 1 1 0 6 1 1 0 5 1 1 0 5 1 1 
0 6 1 1 0 5 1 1 0 5 1 1 0 6 1 1 
0 5 1 1 0 5 1 1 0 6 1 1 0 5 1 1 
0 5 1 1 0 5 1 1 0 6 1 1 0 5 1 1 
0 5 1 1 0 5 2344 956 300 MP stroke
1 1 0 5 1 1 0 6 1 1 0 5 1 1 0 5 
1 1 0 5 1 1 0 5 1 1 0 5 1 1 0 5 
1 1 0 5 1 1 0 5 1 1 0 5 1 1 0 4 
1 1 0 5 1 1 0 5 1 1 0 5 1 1 0 5 
1 1 0 4 1 1 0 5 1 1 0 5 1 1 0 4 
1 1 0 5 1 1 0 5 1 1 0 4 1 1 0 5 
1 1 0 4 1 1 0 5 1 1 0 4 1 1 0 4 
1 1 0 5 1 1 0 4 1 1 0 4 1 1 0 5 
1 1 0 4 1 1 0 4 1 1 0 4 1 1 0 4 
1 1 0 4 1 1 0 4 1 1 0 4 1 1 0 4 
1 1 0 4 1 1 0 4 1 1 0 3 1 1 0 4 
1 1 0 4 1 1 0 3 1 1 0 4 1 1 0 3 
1 1 0 4 1 1 0 3 1 1 0 4 1 1 0 3 
1 1 0 3 1 1 0 4 1 1 0 3 1 1 0 3 
1 1 0 3 1 1 0 3 1 1 0 3 1 1 0 3 
1 1 0 3 1 1 0 3 1 1 0 3 1 1 0 2 
1 1 0 3 1 1 0 3 1 1 0 2 1 1 0 3 
1 1 0 2 1 1 0 3 1 1 0 2 1 1 0 2 
1 1 0 2 1 1 0 3 1 1 0 2 1 1 0 2 
1 1 0 2 1 1 0 2 1 1 0 3 2 2 0 2 
1 1 0 2 1 1 0 3 2 2 0 3 2 2 0 3 
2 2 0 2 2 2 0 2 1 1 0 2 2 2 0 2 
2 2 0 1 2 2 0 2 2 2 0 1 2 2 0 1 
2 2 1 1 0 1 2 2 1 1 1 1 1 1 1 1 
1 1 1 1 1 0 1 1 1 1 1 0 1 1 1 0 
1 1 1 0 1 0 1 1 1 0 1 0 1 0 1 0 
1 0 1 0 1 -1 1 0 1 0 1 -1 1 0 1 -1 
1 0 1 -1 1 -1 1 -1 1 0 1 -1 1 -1 0 -1 
2 -2 1 -1 1 -1 1 -1 0 -1 2 -2 0 -1 2 -2 
0 -1 2 -2 0 -2 2 -2 1 -1 0 -2 2 -2 0 -2 
2 -2 0 -2 2 -2 0 -2 1 -1 0 -2 2 -2 0 -2 
1 -1 0 -2 2 -2 0 -2 1 -1 0 -3 2 -2 0 -2 
1 -1 0 -3 2 -2 0 -2 1 -1 0 -2 1 -1 0 -2 
1 -1 0 -2 1 -1 0 -2 1 -1 0 -2 1 -1 0 -2 
1 -1 0 -3 1 -1 0 -2 1 -1 0 -2 1 -1 0 -2 
1 -1 0 -3 1 -1 0 -2 1 -1 0 -3 1 -1 0 -2 
1 -1 0 -3 1 -1 0 -2 1 -1 0 -3 1 -1 0 -3 
1 -1 0 -3 1 -1 2150 649 300 MP stroke
0 -2 1 -1 0 -3 1 -1 0 -3 1 -1 0 -3 1 -1 
0 -3 1 -1 0 -3 1 -1 0 -3 1 -1 0 -3 1 -1 
0 -3 1 -1 0 -3 1 -1 0 -3 1 -1 0 -4 1 -1 
0 -3 1 -1 0 -3 1 -1 0 -4 1 -1 0 -3 1 -1 
0 -3 1 -1 0 -4 1 -1 0 -3 1 -1 0 -4 1 -1 
0 -3 1 -1 0 -4 1 -1 0 -4 1 -1 0 -3 1 -1 
0 -4 1 -1 0 -3 1 -1 0 -4 1 -1 0 -4 1 -1 
0 -4 1 -1 0 -4 1 -1 0 -3 1 -1 0 -4 1 -1 
0 -4 1 -1 0 -4 1 -1 0 -4 1 -1 0 -4 1 -1 
0 -4 1 -1 0 -4 1 -1 0 -4 1 -1 0 -4 1 -1 
0 -4 1 -1 0 -5 1 -1 0 -4 1 -1 0 -4 1 -1 
0 -4 1 -1 0 -4 1 -1 0 -4 1 -1 0 -5 1 -1 
0 -4 1 -1 0 -4 1 -1 0 -5 1 -1 0 -4 1 -1 
0 -4 1 -1 0 -5 1 -1 0 -4 1 -1 0 -4 1 -1 
0 -5 1 -1 0 -4 1 -1 0 -5 1 -1 0 -4 1 -1 
0 -4 1 -1 0 -5 1 -1 0 -4 1 -1 0 -5 1 -1 
0 -4 1 -1 0 -5 1 -1 0 -5 1 -1 0 -4 1 -1 
0 -5 1 -1 0 -4 1 -1 0 -5 1 -1 0 -4 1 -1 
0 -5 1 -1 0 -5 1 -1 0 -4 1 -1 0 -5 1 -1 
0 -4 1 -1 0 -5 1 -1 0 -5 1 -1 0 -4 1 -1 
0 -5 1 -1 0 -4 1 -1 0 -5 1 -1 0 -5 1 -1 
0 -4 1 -1 0 -5 1 -1 0 -5 1 -1 0 -4 1 -1 
0 -5 1 -1 0 -5 1 -1 0 -4 1 -1 0 -5 1 -1 
0 -5 1 -1 0 -4 1 -1 0 -5 1 -1 0 -4 1 -1 
0 -5 1 -1 0 -5 1 -1 0 -4 1 -1 0 -5 1 -1 
0 -5 1 -1 0 -4 1 -1 0 -5 1 -1 0 -4 1 -1 
0 -5 1 -1 0 -5 1 -1 0 -4 1 -1 0 -5 1 -1 
0 -4 1 -1 0 -5 1 -1 0 -5 1 -1 0 -4 1 -1 
0 -5 1 -1 0 -4 1 -1 0 -5 1 -1 0 -4 1 -1 
0 -5 1 -1 0 -4 1 -1 0 -5 1 -1 0 -4 1 -1 
0 -5 1 -1 0 -4 1 -1 0 -5 1 -1 0 -4 1 -1 
0 -5 1 -1 0 -4 1 -1 0 -4 1 -1 0 -5 1 -1 
0 -4 1 -1 0 -5 1 -1 0 -4 1 -1 0 -4 1 -1 
0 -5 1 -1 0 -4 1 -1 0 -4 1 -1 0 -5 1 -1 
0 -4 1 -1 0 -4 1 -1 0 -4 1 -1 0 -5 1 -1 
0 -4 1 -1 0 -4 1 -1 0 -4 1 -1 0 -4 1 -1 
0 -4 1 -1 0 -5 1 -1 0 -4 1 -1 0 -4 1 -1 
0 -4 1 -1 0 -4 2001 1427 300 MP stroke
1 -1 0 -4 1 -1 0 -4 1 -1 0 -4 1 -1 0 -4 
1 -1 0 -4 1 -1 0 -4 1 -1 0 -4 1 -1 0 -4 
1 -1 0 -4 1 -1 0 -4 1 -1 0 -4 1 -1 0 -3 
1 -1 0 -4 1 -1 0 -4 1 -1 0 -4 1 -1 0 -4 
1 -1 0 -3 1 -1 0 -4 1 -1 0 -4 1 -1 0 -4 
1 -1 0 -3 1 -1 0 -4 1 -1 0 -3 1 -1 0 -4 
1 -1 0 -4 1 -1 0 -3 1 -1 0 -4 1 -1 0 -3 
1 -1 0 -4 1 -1 0 -3 1 -1 0 -4 1 -1 0 -3 
1 -1 0 -4 1 -1 0 -3 1 -1 0 -3 1 -1 0 -4 
1 -1 0 -3 1 -1 0 -3 1 -1 0 -4 1 -1 0 -3 
1 -1 0 -3 1 -1 0 -3 1 -1 0 -3 1 -1 0 -4 
1 -1 0 -3 1 -1 0 -3 1 -1 0 -3 1 -1 0 -3 
1 -1 0 -3 1 -1 0 -3 1 -1 0 -3 1 -1 0 -3 
1 -1 0 -3 1 -1 0 -3 1 -1 0 -3 1 -1 0 -3 
1 -1 0 -3 1 -1 0 -3 1 -1 0 -3 1 -1 0 -3 
1 -1 0 -2 1 -1 0 -3 1 -1 0 -3 1 -1 0 -3 
1 -1 0 -2 1 -1 0 -3 1 -1 0 -3 1 -1 0 -2 
1 -1 0 -3 1 -1 0 -3 1 -1 0 -2 1 -1 0 -3 
1 -1 0 -2 1 -1 0 -3 1 -1 0 -2 1 -1 0 -3 
1 -1 0 -2 1 -1 0 -3 1 -1 0 -2 1 -1 0 -2 
1 -1 0 -3 1 -1 0 -2 1 -1 0 -2 1 -1 0 -3 
1 -1 0 -2 1 -1 0 -2 1 -1 0 -2 1 -1 0 -3 
1 -1 0 -2 1 -1 0 -2 1 -1 0 -2 1 -1 0 -2 
1 -1 0 -2 1 -1 0 -2 1 -1 0 -3 1 -1 0 -2 
1 -1 0 -2 1 -1 0 -2 1 -1 0 -2 1 -1 0 -2 
1 -1 0 -2 1 -1 0 -1 1 -1 0 -2 1 -1 0 -2 
1 -1 0 -2 1 -1 0 -2 1 -1 0 -3 2 -2 0 -2 
1 -1 0 -2 1 -1 0 -2 1 -1 0 -1 1 -1 0 -2 
1 -1 0 -3 2 -2 0 -2 1 -1 0 -3 2 -2 0 -3 
2 -2 0 -2 1 -1 0 -1 1 -1 0 -3 2 -2 0 -3 
2 -2 0 -2 1 -1 0 -2 2 -2 0 -2 1 -1 0 -2 
2 -2 0 -2 1 -1 0 -2 2 -2 0 -2 1 -1 0 -1 
1 -1 0 -2 2 -2 0 -2 2 -2 0 -3 2 -2 0 -2 
2 -2 0 -2 2 -2 0 -2 2 -2 0 -2 2 -2 0 -2 
2 -2 0 -2 2 -2 0 -2 2 -2 0 -2 2 -2 1 -1 
0 -2 2 -2 0 -2 2 -2 0 -1 2 -2 0 -2 2 -2 
1 -1 0 -2 2 -2 1 -1 0 -2 2 -2 0 -1 2 -2 
1 -1 0 -2 2 -2 1821 2005 300 MP stroke
0 -1 2 -2 0 -1 2 -2 0 -1 2 -2 0 -1 2 -2 
1 -1 0 -1 2 -2 0 -1 2 -2 1 -1 0 -1 2 -2 
1 -1 0 -1 2 -2 1 -1 0 -1 2 -2 1 -1 1 -1 
0 -1 2 -2 1 -1 1 -1 0 -1 2 -2 1 -1 1 -1 
1 -1 1 -1 1 -1 0 -1 2 -2 1 -1 1 -1 1 -1 
1 -1 1 -1 1 -1 1 -1 1 -1 1 -1 1 -1 1 -1 
1 -1 1 -1 1 -1 1 -1 1 -1 1 -1 1 -1 1 -1 
1 -1 1 -1 1 0 1 -1 1 -1 1 -1 1 -1 1 -1 
1 -1 1 -1 1 0 1 -1 1 -1 1 -1 1 -1 1 0 
1 -1 1 -1 1 -1 1 0 1 -1 1 -1 1 -1 1 0 
1 -1 1 -1 1 -1 1 0 1 -1 1 -1 1 0 1 -1 
1 -1 1 0 1 -1 1 -1 1 0 1 -1 1 -1 1 0 
1 -1 1 0 1 -1 1 -1 1 0 1 -1 1 0 1 -1 
1 0 1 -1 1 -1 1 0 1 -1 1 0 1 -1 1 0 
1 -1 1 0 1 -1 1 0 1 -1 1 0 1 -1 1 0 
1 -1 1 0 1 -1 1 0 1 -1 1 0 1 -1 1 0 
1 0 1 -1 1 0 1 -1 1 0 1 -1 1 0 1 0 
1 -1 1 0 1 -1 1 0 1 0 1 -1 1 0 1 0 
1 -1 1 0 1 0 1 -1 1 0 1 -1 1 0 1 0 
1 -1 1 0 1 0 1 -1 1 0 1 0 1 -1 1 0 
1 0 1 0 1 -1 1 0 1 0 1 -1 1 0 1 0 
1 -1 1 0 1 0 1 0 1 -1 1 0 1 0 1 0 
1 -1 1 0 1 0 1 0 1 -1 1 0 1 0 1 0 
1 -1 1 0 1 0 1 0 1 -1 1 0 1 0 1 0 
1 0 1 -1 1 0 1 0 1 0 1 0 1 -1 1 0 
1 0 1 0 1 0 1 -1 1 0 2 0 1 0 1 -1 
1 0 1 0 1 0 1 0 1 0 1 -1 2 0 1 0 
1 0 1 0 1 -1 1 0 1 0 1 0 1 0 1 0 
1 0 1 -1 1 0 1 0 1 0 1 0 1 0 1 0 
1 -1 1 0 1 0 1 0 1 0 1 0 1 0 1 0 
1 -1 1 0 1 0 1 0 1 0 1 0 2 0 1 0 
2 -1 1 0 2 0 1 0 1 0 1 0 1 0 1 0 
1 -1 2 0 2 0 1 0 1 0 1 0 1 0 1 0 
1 0 2 -1 1 0 1 0 1 0 1 0 1 0 1 0 
1 0 1 0 2 0 1 0 1 -1 1 0 1 0 1 0 
1 0 1 0 1 0 1 0 1 0 1 0 1 0 1 0 
1 0 1 0 1 0 1 0 1 -1 2 0 1 0 2 0 
2 0 3 0 2 0 1507 2154 300 MP stroke
1 0 2 0 1 0 2 0 1 0 1 0 2 -1 1 0 
1 0 1 0 3 0 1 0 1 0 2 0 1 0 1 0 
1 0 1 0 2 0 1 0 3 0 2 0 1 0 2 0 
1 -1 3 0 1 0 1 0 2 0 1 0 2 0 1 0 
4 0 3 0 1 0 2 0 1 0 2 0 1 0 1 0 
2 0 3 0 5 0 4 0 3 0 3 -1 5 0 4 0 
3 0 2 0 3 0 5 0 1 0 3 0 7 0 1 0 
4 0 1 0 4 0 5 0 3 0 16 0 7 0 3 0 
17 0 7 0 6 0 29 0 16 0 2 0 23 0 1248 2157 72 MP stroke
DA
24 w
/c9 { 1.000000 0.000000 0.000000 sr} bdef
c9
17 0 18 0 17 0 18 0 17 0 17 0 18 1 17 0 
18 0 17 1 18 2 17 2 18 2 17 3 17 3 18 6 
17 10 18 13 17 15 18 21 17 30 18 39 17 47 18 58 
17 74 17 85 18 100 17 119 18 122 17 123 18 136 17 139 
18 134 17 114 17 90 18 78 17 66 18 43 17 21 18 -10 
17 -34 18 -39 17 -60 17 -84 18 -79 17 -77 18 -99 17 -113 
18 -101 17 -81 18 -84 17 -88 18 -81 17 -72 17 -70 18 -62 
17 -53 18 -47 17 -42 18 -37 17 -40 18 -42 17 -35 17 -24 
18 -22 17 -17 18 -13 17 -13 18 -13 17 -11 18 -8 17 -7 
18 -7 17 -4 17 -2 18 -3 17 -4 18 -4 17 -3 18 -2 
17 -2 18 -2 17 -1 17 -1 18 -1 17 -1 18 -1 17 0 
18 0 17 -1 18 0 17 0 17 0 18 0 17 0 18 0 
17 0 18 0 17 0 1198 2157 100 MP stroke
SO
6 w
gr

c9
1 sg
0 1769 2315 0 0 -1769 3946 2158 4 MP
PP
-2315 0 0 1769 2315 0 0 -1769 3946 2158 5 MP stroke
4 w
DO
SO
6 w
0 sg
3946 2158 mt 6261 2158 L
3946 2158 mt 3946  389 L
3946 2158 mt 3946 2134 L
3810 2303 mt 
(-10) s
4717 2158 mt 4717 2134 L
4614 2303 mt 
(-5) s
5489 2158 mt 5489 2134 L
5456 2303 mt 
(0) s
6261 2158 mt 6261 2134 L
6228 2303 mt 
(5) s
3946 2158 mt 3969 2158 L
3845 2202 mt 
(0) s
3946 1804 mt 3969 1804 L
3745 1848 mt 
(0.2) s
3946 1450 mt 3969 1450 L
3745 1494 mt 
(0.4) s
3946 1096 mt 3969 1096 L
3745 1140 mt 
(0.6) s
3946  742 mt 3969  742 L
3745  786 mt 
(0.8) s
3946  389 mt 3969  389 L
3845  433 mt 
(1) s
4873  294 mt 
(impostor) s
gs 3946 389 2316 1770 rc
c8
29 0 25 0 3 0 12 0 8 0 1 0 2 0 2 0 
1 0 1 0 1 0 3 0 6 0 8 0 8 0 3 0 
1 0 6 0 1 0 6 0 2 0 3 0 3 0 3 0 
1 0 4 0 2 0 2 0 1 0 1 0 1 0 1 0 
1 0 2 0 2 0 1 0 1 0 1 0 2 0 2 0 
1 0 1 0 1 0 1 0 3 0 1 0 1 0 3 0 
1 0 2 0 1 0 3 0 1 0 1 0 1 0 1 0 
1 0 1 0 1 0 1 0 1 0 1 0 1 0 2 0 
1 0 1 0 1 0 1 0 1 0 1 0 1 0 1 0 
3 0 1 0 2 0 1 0 1 0 1 0 2 0 1 0 
1 0 1 0 1 0 1 0 1 0 1 0 1 0 1 0 
2 0 1 0 1 0 1 0 1 0 1 0 1 0 1 0 
1 0 1 0 1 0 1 0 1 0 1 0 1 0 1 0 
1 0 1 0 1 0 1 0 1 0 1 0 1 0 1 0 
1 0 1 0 1 0 1 0 1 0 1 0 1 0 1 0 
1 0 1 0 1 0 1 0 1 0 1 0 1 0 1 0 
1 0 1 0 1 0 1 0 1 0 1 0 1 0 1 0 
1 0 1 0 1 0 1 0 1 0 1 0 1 0 1 0 
1 0 1 0 1 0 1 0 1 0 1 0 1 0 1 0 
1 0 1 0 1 0 1 0 1 0 1 0 1 0 1 0 
1 0 1 0 1 0 1 0 1 0 1 0 1 0 1 0 
1 0 1 0 1 0 1 0 1 0 1 0 1 0 1 0 
1 0 1 0 1 0 1 0 1 -1 1 0 1 0 1 0 
1 0 1 0 1 0 1 0 1 0 1 0 1 0 1 0 
1 0 1 0 1 0 1 0 1 0 1 0 1 0 1 0 
1 0 1 -1 1 0 1 0 1 0 1 0 1 0 1 0 
1 0 1 0 1 0 1 0 1 0 1 -1 1 0 1 0 
1 0 1 0 1 0 1 0 1 0 1 0 1 -1 1 0 
1 0 1 0 1 0 1 0 1 0 1 0 1 -1 1 0 
1 0 1 0 1 0 1 0 1 -1 1 0 1 0 1 0 
1 0 1 -1 1 0 1 0 1 0 1 0 1 -1 1 0 
1 0 1 0 1 -1 1 0 1 0 1 0 1 -1 1 0 
1 0 1 -1 1 0 1 0 1 -1 1 0 1 0 1 -1 
1 0 1 -1 1 0 1 0 1 -1 1 0 1 -1 1 0 
1 0 1 -1 1 0 1 -1 1 0 1 -1 1 0 1 -1 
1 0 1 -1 1 0 1 -1 1 0 1 -1 1 -1 1 0 
1 -1 1 -1 1 0 1 -1 1 -1 1 0 1 -1 1 -1 
1 -1 1 0 1 -1 5486 421 300 MP stroke
1 -1 1 -1 1 -1 1 0 1 -1 1 -1 1 -1 1 -1 
1 -1 1 -1 1 -1 1 -1 1 -1 0 -1 2 -2 1 -1 
1 -1 1 -1 1 -1 0 -1 2 -2 1 -1 0 -1 2 -2 
1 -1 1 -1 1 -1 0 -1 2 -2 0 -1 2 -2 0 -1 
2 -2 0 -1 2 -2 0 -1 2 -2 0 -1 2 -2 1 -1 
0 -2 2 -2 0 -1 2 -2 0 -2 2 -2 0 -1 2 -2 
0 -2 2 -2 0 -2 2 -2 0 -2 2 -2 0 -2 1 -1 
0 -2 2 -2 0 -2 2 -2 0 -2 1 -1 0 -2 2 -2 
0 -3 2 -2 0 -3 2 -2 0 -3 2 -2 0 -3 2 -2 
0 -3 2 -2 0 -3 2 -2 0 -2 1 -1 0 -2 1 -1 
0 -3 2 -2 0 -2 1 -1 0 -2 1 -1 0 -3 1 -1 
0 -2 1 -1 0 -2 1 -1 0 -2 1 -1 0 -2 1 -1 
0 -2 1 -1 0 -2 1 -1 0 -2 1 -1 0 -3 1 -1 
0 -2 1 -1 0 -2 1 -1 0 -3 1 -1 0 -3 1 -1 
0 -2 1 -1 0 -3 1 -1 0 -3 1 -1 0 -2 1 -1 
0 -3 1 -1 0 -3 1 -1 0 -3 1 -1 0 -2 1 -1 
0 -3 1 -1 0 -3 1 -1 0 -2 1 -1 0 -3 1 -1 
0 -3 1 -1 0 -3 1 -1 0 -3 1 -1 0 -3 1 -1 
0 -4 1 -1 0 -2 1 -1 0 -3 1 -1 0 -3 1 -1 
0 -3 1 -1 0 -3 1 -1 0 -4 1 -1 0 -3 1 -1 
0 -4 1 -1 0 -3 1 -1 0 -3 1 -1 0 -3 1 -1 
0 -4 1 -1 0 -4 1 -1 0 -3 1 -1 0 -4 1 -1 
0 -4 1 -1 0 -3 1 -1 0 -4 1 -1 0 -4 1 -1 
0 -4 1 -1 0 -3 1 -1 0 -4 1 -1 0 -4 1 -1 
0 -4 1 -1 0 -3 1 -1 0 -4 1 -1 0 -4 1 -1 
0 -4 1 -1 0 -4 1 -1 0 -4 1 -1 0 -3 1 -1 
0 -4 1 -1 0 -4 1 -1 0 -5 1 -1 0 -4 1 -1 
0 -4 1 -1 0 -4 1 -1 0 -5 1 -1 0 -4 1 -1 
0 -5 1 -1 0 -4 1 -1 0 -4 1 -1 0 -5 1 -1 
0 -5 1 -1 0 -4 1 -1 0 -4 1 -1 0 -4 1 -1 
0 -5 1 -1 0 -5 1 -1 0 -5 1 -1 0 -5 1 -1 
0 -4 1 -1 0 -5 1 -1 0 -5 1 -1 0 -5 1 -1 
0 -5 1 -1 0 -4 1 -1 0 -4 1 -1 0 -5 1 -1 
0 -5 1 -1 0 -5 1 -1 0 -5 1 -1 0 -4 1 -1 
0 -5 1 -1 0 -5 1 -1 0 -5 1 -1 0 -5 1 -1 
0 -5 1 -1 0 -5 1 -1 0 -5 1 -1 0 -5 1 -1 
0 -5 1 -1 0 -6 1 -1 0 -5 1 -1 0 -5 1 -1 
0 -5 1 -1 0 -5 5300 1069 300 MP stroke
1 -1 0 -5 1 -1 0 -5 1 -1 0 -5 1 -1 0 -4 
1 -1 0 -6 1 -1 0 -5 1 -1 0 -5 1 -1 0 -6 
1 -1 0 -5 1 -1 0 -5 1 -1 0 -5 1 -1 0 -5 
1 -1 0 -5 1 -1 0 -6 1 -1 0 -5 1 -1 0 -6 
1 -1 0 -5 1 -1 0 -6 1 -1 0 -5 1 -1 0 -6 
1 -1 0 -5 1 -1 0 -6 1 -1 0 -5 1 -1 0 -5 
1 -1 0 -5 1 -1 0 -6 1 -1 0 -5 1 -1 0 -5 
1 -1 0 -5 1 -1 0 -6 1 -1 0 -5 1 -1 0 -5 
1 -1 0 -5 1 -1 0 -5 1 -1 0 -5 1 -1 0 -5 
1 -1 0 -5 1 -1 0 -5 1 -1 0 -6 1 -1 0 -4 
1 -1 0 -5 1 -1 0 -5 1 -1 0 -6 1 -1 0 -5 
1 -1 0 -5 1 -1 0 -5 1 -1 0 -5 1 -1 0 -5 
1 -1 0 -5 1 -1 0 -4 1 -1 0 -5 1 -1 0 -5 
1 -1 0 -5 1 -1 0 -5 1 -1 0 -5 1 -1 0 -5 
1 -1 0 -6 1 -1 0 -5 1 -1 0 -6 1 -1 0 -5 
1 -1 0 -4 1 -1 0 -5 1 -1 0 -4 1 -1 0 -5 
1 -1 0 -5 1 -1 0 -5 1 -1 0 -4 1 -1 0 -5 
1 -1 0 -5 1 -1 0 -5 1 -1 0 -4 1 -1 0 -5 
1 -1 0 -5 1 -1 0 -5 1 -1 0 -5 1 -1 0 -5 
1 -1 0 -4 1 -1 0 -5 1 -1 0 -4 1 -1 0 -5 
1 -1 0 -4 1 -1 0 -5 1 -1 0 -4 1 -1 0 -5 
1 -1 0 -4 1 -1 0 -4 1 -1 0 -5 1 -1 0 -5 
1 -1 0 -4 1 -1 0 -5 1 -1 0 -4 1 -1 0 -4 
1 -1 0 -4 1 -1 0 -3 1 -1 0 -4 1 -1 0 -5 
1 -1 0 -3 1 -1 0 -4 1 -1 0 -3 1 -1 0 -5 
1 -1 0 -3 1 -1 0 -4 1 -1 0 -4 1 -1 0 -4 
1 -1 0 -3 1 -1 0 -4 1 -1 0 -4 1 -1 0 -4 
1 -1 0 -3 1 -1 0 -4 1 -1 0 -4 1 -1 0 -3 
1 -1 0 -4 1 -1 0 -4 1 -1 0 -3 1 -1 0 -4 
1 -1 0 -3 1 -1 0 -4 1 -1 0 -2 1 -1 0 -4 
1 -1 0 -4 1 -1 0 -3 1 -1 0 -3 1 -1 0 -3 
1 -1 0 -4 1 -1 0 -3 1 -1 0 -4 1 -1 0 -3 
1 -1 0 -3 1 -1 0 -4 1 -1 0 -3 1 -1 0 -3 
1 -1 0 -3 1 -1 0 -3 1 -1 0 -3 1 -1 0 -3 
1 -1 0 -3 1 -1 0 -3 1 -1 0 -2 1 -1 0 -3 
1 -1 0 -3 1 -1 0 -3 1 -1 0 -2 1 -1 0 -3 
1 -1 0 -2 1 -1 0 -3 1 -1 0 -2 1 -1 0 -3 
1 -1 0 -3 1 -1 5150 1866 300 MP stroke
0 -2 1 -1 0 -3 1 -1 0 -3 1 -1 0 -2 1 -1 
0 -3 1 -1 0 -2 1 -1 0 -2 1 -1 0 -3 1 -1 
0 -2 1 -1 0 -2 1 -1 0 -2 1 -1 0 -2 1 -1 
0 -3 1 -1 0 -2 1 -1 0 -2 1 -1 0 -2 1 -1 
0 -2 1 -1 0 -2 1 -1 0 -2 1 -1 0 -2 1 -1 
0 -2 1 -1 0 -2 2 -2 0 -3 2 -2 0 -2 1 -1 
0 -3 2 -2 0 -3 2 -2 0 -3 2 -2 0 -3 2 -2 
0 -3 2 -2 0 -3 2 -2 0 -2 1 -1 0 -2 2 -2 
0 -3 2 -2 0 -2 2 -2 0 -2 1 -1 0 -1 1 -1 
0 -2 2 -2 0 -2 2 -2 0 -3 2 -2 0 -2 2 -2 
0 -2 2 -2 0 -2 2 -2 0 -1 2 -2 0 -2 2 -2 
0 -2 2 -2 0 -1 2 -2 0 -2 2 -2 1 -1 0 -2 
2 -2 1 -1 0 -2 2 -2 1 -1 0 -2 2 -2 1 -1 
0 -1 2 -2 0 -1 2 -2 1 -1 0 -1 2 -2 0 -1 
2 -2 0 -1 2 -2 1 -1 1 -1 1 -1 1 -1 1 -1 
0 -1 2 -2 1 -1 1 -1 0 -1 2 -2 1 -1 1 0 
0 -1 2 -2 1 -1 1 -1 1 -1 1 -1 1 -1 1 -1 
1 -1 1 -1 1 -1 1 0 1 -1 1 -1 1 -1 1 -1 
1 -1 1 -1 1 -1 1 -1 1 -1 1 0 1 -1 1 -1 
1 -1 1 -1 1 0 1 -1 1 -1 1 -1 1 -1 1 0 
1 -1 1 0 1 -1 1 -1 1 0 1 -1 1 0 1 -1 
1 0 1 -1 1 -1 1 0 1 -1 1 -1 1 0 1 -1 
1 0 1 -1 1 0 1 -1 1 0 1 -1 1 0 1 -1 
1 0 1 -1 1 0 1 -1 1 0 1 -1 1 0 1 -1 
1 0 1 0 1 -1 1 0 1 -1 1 0 1 0 1 -1 
1 0 1 0 1 -1 1 0 1 0 1 -1 1 0 1 -1 
1 0 1 0 1 0 1 -1 1 0 1 0 1 -1 1 0 
1 0 1 -1 1 0 1 0 1 -1 1 0 1 0 1 0 
1 -1 1 0 1 0 1 0 1 -1 1 0 1 0 1 0 
1 0 1 -1 1 0 1 0 1 0 1 0 1 -1 1 0 
1 0 1 0 1 -1 1 0 1 0 1 0 1 0 1 0 
1 -1 1 0 1 0 1 0 1 0 1 0 1 -1 1 0 
1 0 1 0 1 0 1 0 1 0 1 -1 1 0 1 0 
1 0 1 0 1 0 1 0 1 -1 1 0 1 0 1 0 
1 0 1 0 1 0 1 0 1 0 1 -1 1 0 1 0 
1 0 1 0 1 0 1 0 1 0 1 0 1 0 1 0 
1 -1 1 0 1 0 1 0 1 0 1 0 1 0 1 0 
1 0 1 0 1 0 4876 2154 300 MP stroke
1 0 1 0 1 0 1 0 1 -1 1 0 1 0 1 0 
1 0 1 0 1 0 1 0 1 0 1 0 1 0 1 0 
1 0 1 0 1 0 1 0 1 0 1 0 1 0 1 0 
1 -1 1 0 1 0 1 0 1 0 1 0 1 0 1 0 
1 0 1 0 1 0 1 0 1 0 1 0 1 0 1 0 
1 0 1 0 1 0 1 0 1 0 1 0 1 0 1 0 
1 0 1 0 1 0 1 0 1 0 1 0 1 0 1 0 
1 0 1 0 1 0 1 -1 1 0 1 0 1 0 1 0 
1 0 1 0 1 0 1 0 1 0 1 0 1 0 1 0 
1 0 1 0 1 0 1 0 1 0 1 0 1 0 1 0 
1 0 1 0 1 0 1 0 1 0 1 0 1 0 1 0 
1 0 1 0 1 0 1 0 1 0 1 0 1 0 1 0 
1 0 1 0 1 0 1 0 1 0 1 0 1 0 1 0 
1 0 1 0 1 0 1 0 1 0 1 0 1 0 1 0 
1 0 1 0 1 0 1 0 1 0 1 0 1 0 1 0 
1 0 1 0 1 0 1 0 1 0 1 0 1 0 1 0 
1 0 1 0 1 0 1 0 1 0 1 0 1 0 1 0 
1 0 1 0 1 0 1 0 1 0 1 0 1 0 1 0 
1 0 1 0 1 0 1 0 1 0 1 0 1 0 1 0 
1 0 1 0 1 0 1 0 1 0 1 0 1 0 1 0 
1 0 1 0 1 0 1 0 1 0 1 0 1 0 1 0 
1 0 1 0 1 0 1 0 1 0 1 0 1 0 1 0 
2 0 1 0 1 0 1 0 1 0 1 0 1 0 1 0 
1 0 1 0 1 0 1 0 1 0 1 0 1 0 1 0 
1 0 1 0 1 0 1 0 1 0 1 0 1 0 1 0 
1 0 1 0 1 0 1 0 1 0 1 0 1 0 1 0 
1 0 1 0 1 0 1 0 2 0 1 0 1 0 1 0 
1 0 1 0 1 0 1 0 1 0 1 0 1 0 1 0 
1 0 1 0 1 0 1 0 1 0 1 0 1 0 1 0 
1 0 1 0 1 0 1 0 1 0 1 0 1 0 1 0 
1 0 1 0 1 0 1 0 1 0 1 0 1 0 1 0 
1 0 1 0 1 0 1 0 1 0 2 0 1 0 1 0 
2 0 1 0 3 0 1 0 2 0 1 0 1 0 2 0 
1 0 1 0 1 0 1 0 1 0 1 0 1 0 1 0 
2 0 1 0 1 0 1 0 1 0 1 0 1 0 1 0 
1 0 1 0 1 0 1 0 1 0 1 0 1 0 1 0 
1 0 1 0 1 0 1 0 1 0 2 0 1 0 1 0 
1 0 2 0 1 0 4566 2157 300 MP stroke
2 0 1 0 2 0 1 0 1 0 3 0 3 0 1 0 
2 0 2 0 2 0 2 0 1 0 1 0 1 0 1 0 
2 0 1 0 1 0 2 0 1 0 1 0 1 0 2 0 
1 0 1 0 3 0 3 0 2 0 1 0 3 0 1 0 
1 0 1 0 1 0 1 0 2 0 1 0 5 0 2 0 
1 0 3 0 2 0 2 0 2 0 3 0 5 0 5 0 
2 0 3 0 5 0 5 0 2 0 2 0 3 0 6 0 
3 0 7 0 2 0 3 0 2 0 3 0 5 0 3 0 
16 0 7 0 4 0 16 0 7 0 6 0 30 0 15 0 
3 0 22 0 4295 2157 75 MP stroke
24 w
c9
17 0 18 0 17 0 17 0 18 0 17 0 18 0 17 0 
18 0 17 0 17 0 18 0 17 0 18 -1 17 0 18 -1 
17 -1 18 -1 17 -2 17 -3 18 -3 17 -5 18 -7 17 -9 
18 -11 17 -15 18 -19 17 -23 17 -29 18 -34 17 -39 18 -46 
17 -52 18 -58 17 -63 18 -68 17 -71 17 -73 18 -76 17 -77 
18 -76 17 -75 18 -73 17 -70 17 -67 18 -63 17 -59 18 -55 
17 -50 18 -45 17 -42 18 -38 17 -33 17 -31 18 -26 17 -24 
18 -21 17 -19 18 -16 17 -15 18 -13 17 -11 17 -9 18 -7 
17 -7 18 -5 17 -5 18 -4 17 -4 18 -3 17 -2 17 -2 
18 -2 17 -1 18 -2 17 -1 18 -1 17 -1 17 -1 18 0 
17 -1 18 0 17 0 18 -1 17 0 18 0 17 0 17 0 
18 0 17 0 18 0 17 0 18 0 17 0 18 0 17 0 
17 0 18 0 17 0 4245 2157 100 MP stroke
6 w
gr

c9
1 sg
0 1770 2316 0 0 -1770 899 4616 4 MP
PP
-2316 0 0 1770 2316 0 0 -1770 899 4616 5 MP stroke
4 w
DO
SO
6 w
0 sg
 899 4616 mt 3215 4616 L
 899 4616 mt  899 2846 L
 899 4616 mt  899 4592 L
 796 4761 mt 
(-5) s
1671 4616 mt 1671 4592 L
1638 4761 mt 
(0) s
2443 4616 mt 2443 4592 L
2410 4761 mt 
(5) s
3215 4616 mt 3215 4592 L
3149 4761 mt 
(10) s
 899 4616 mt  922 4616 L
 798 4660 mt 
(0) s
 899 4363 mt  922 4363 L
 631 4407 mt 
(0.05) s
 899 4110 mt  922 4110 L
 698 4154 mt 
(0.1) s
 899 3857 mt  922 3857 L
 631 3901 mt 
(0.15) s
 899 3604 mt  922 3604 L
 698 3648 mt 
(0.2) s
 899 3351 mt  922 3351 L
 631 3395 mt 
(0.25) s
 899 3098 mt  922 3098 L
 698 3142 mt 
(0.3) s
 899 2846 mt  922 2846 L
 631 2890 mt 
(0.35) s
1879 4904 mt 
(scores) s
 549 3981 mt  -90 rotate
(likelihood) s
90 rotate
1916 2751 mt 
(client) s
gs 899 2846 2317 1771 rc
c8
43 32 64 87 16 35 3 9 4 11 28 94 7 27 7 30 
11 45 2 11 5 17 7 25 2 6 2 6 8 25 10 28 
4 10 0 1 4 11 3 12 2 4 9 30 1 6 2 8 
7 26 1 1 2 8 2 9 1 3 1 7 10 42 3 11 
1 6 0 1 3 14 4 14 3 16 7 29 1 3 1 6 
0 1 3 10 0 1 1 3 2 11 3 14 2 6 4 17 
0 2 2 8 4 19 1 3 0 3 3 11 0 2 1 2 
0 3 1 1 3 14 1 5 3 15 1 4 2 10 0 3 
1 2 2 11 2 10 1 7 3 11 0 2 1 6 1 3 
4 23 0 1 8 44 2 13 1 2 2 15 1 5 4 21 
1 4 1 5 1 7 2 6 0 2 3 14 2 9 1 8 
1 2 1 6 1 6 1 3 0 1 2 8 1 3 0 1 
1 3 1 5 1 5 1 2 1 4 1 3 4 16 1 1 
2 8 4 11 0 1 2 5 3 8 1 3 1 1 0 1 
2 4 1 3 1 3 2 4 2 4 3 5 1 2 1 3 
2 4 3 4 3 5 2 2 5 6 1 1 4 3 1 1 
2 1 1 0 5 1 1 0 1 0 1 0 2 0 1 0 
1 0 1 0 1 -1 3 -1 1 0 1 0 1 -1 1 -1 
3 -1 1 0 -1 0 5 -2 1 0 1 -1 1 0 1 -1 
5 -1 4 0 2 1 2 0 1 0 1 1 2 1 1 0 
2 2 2 1 2 2 1 0 -1 0 4 4 3 3 1 1 
2 2 3 4 2 2 5 6 1 1 1 1 1 2 2 1 
2 2 5 5 1 0 -1 0 4 2 1 1 2 0 2 1 
5 -1 3 -1 1 0 1 -1 1 -1 2 -1 1 -1 0 -1 
2 -2 1 0 -1 0 2 -3 2 -2 3 -5 3 -5 1 -2 
0 -2 2 -2 0 -1 3 -7 2 -5 1 -2 1 -2 2 -5 
2 -5 2 -4 1 -3 1 -1 0 -1 6 -11 5 -3 1 0 
1 1 1 0 1 1 1 3 1 1 2 4 0 1 1 2 
2 5 0 1 5 16 2 7 0 1 1 1 3 7 1 1 
1 0 1 0 1 -1 1 -3 4 -13 1 -4 3 -21 3 -20 
2 -17 1 -8 1 -7 2 -15 3 -23 4 -33 10 -65 0 -2 
4 -19 0 -3 2 -11 1 -7 1 -1 4 -25 1 -5 5 -27 
2 -15 3 -11 2 -13 2 -12 3 -13 1 -3 3 -15 11 -49 
1 -1 0 -2 2 -9 3 -9 0 -1 1 -2 1 -4 11 -35 
8 -21 8 -18 1 -3 0 -1 1 -2 0 -1 2 -4 2 -6 
3 -7 6 -16 8 -20 0 -1 5 -14 6 -19 1 -3 1 -1 
1 -4 1 -2 1 -5 5 -15 5 -16 10 -35 1 -5 1 -4 
4 -12 0 -1 3 -12 1836 3999 300 MP stroke
1 -2 2 -9 3 -8 0 -4 3 -8 1 -4 10 -35 3 -12 
1 -4 1 -4 4 -12 7 -25 2 -6 0 -2 2 -7 1 -2 
1 -2 13 -40 2 -6 4 -12 5 -13 3 -6 1 -2 7 -18 
21 -39 15 -23 3 -5 1 -2 11 -17 2 -3 9 -15 1 -1 
2 -4 15 -27 6 -12 4 -8 1 -1 1 -3 11 -20 3 -5 
15 -25 8 -13 4 -4 2 -3 16 -19 23 -21 51 -35 8 -4 
172 -51 1354 4602 50 MP stroke
DA
24 w
c9
17 0 17 0 17 1 17 1 17 1 17 2 17 3 17 3 
17 5 17 5 17 7 17 7 17 10 17 12 17 15 17 20 
17 25 17 32 17 39 17 46 17 54 17 62 17 71 17 78 
17 85 17 91 17 95 17 96 17 94 17 89 17 80 17 69 
17 59 17 47 17 39 17 30 17 25 17 20 17 14 17 10 
17 5 17 -3 17 -12 17 -23 17 -37 17 -52 17 -67 17 -78 
17 -85 17 -87 17 -83 17 -73 17 -60 17 -48 17 -36 17 -27 
17 -23 17 -22 17 -26 17 -30 17 -35 17 -39 17 -40 17 -39 
17 -37 17 -33 17 -29 17 -28 17 -27 17 -28 17 -29 17 -28 
17 -29 17 -27 17 -24 17 -21 17 -18 17 -14 17 -12 17 -9 
17 -7 17 -5 16 -3 17 -1 17 -1 17 0 17 0 17 -1 
17 -1 17 -1 17 -2 17 -2 17 -1 17 -2 17 -1 17 -1 
17 0 17 0 17 0 1155 4615 100 MP stroke
SO
6 w
gr

c9
1 sg
0 1770 2315 0 0 -1770 3946 4616 4 MP
PP
-2315 0 0 1770 2315 0 0 -1770 3946 4616 5 MP stroke
4 w
DO
SO
6 w
0 sg
3946 4616 mt 6261 4616 L
3946 4616 mt 3946 2846 L
3946 4616 mt 3946 4592 L
3843 4761 mt 
(-5) s
4717 4616 mt 4717 4592 L
4684 4761 mt 
(0) s
5489 4616 mt 5489 4592 L
5456 4761 mt 
(5) s
6261 4616 mt 6261 4592 L
6195 4761 mt 
(10) s
3946 4616 mt 3969 4616 L
3845 4660 mt 
(0) s
3946 4262 mt 3969 4262 L
3745 4306 mt 
(0.2) s
3946 3908 mt 3969 3908 L
3745 3952 mt 
(0.4) s
3946 3554 mt 3969 3554 L
3745 3598 mt 
(0.6) s
3946 3200 mt 3969 3200 L
3745 3244 mt 
(0.8) s
3946 2846 mt 3969 2846 L
3845 2890 mt 
(1) s
4925 4904 mt 
(scores) s
3663 3812 mt  -90 rotate
(cdf) s
90 rotate
4963 2751 mt 
(client) s
gs 3946 2846 2316 1771 rc
c8
43 0 63 0 16 -1 4 -1 4 -1 28 -1 6 -1 8 -1 
10 -2 3 -2 5 -2 7 -2 2 -2 2 -2 8 -2 10 -2 
3 -2 1 -3 0 -2 3 -2 4 -3 1 -2 9 -3 2 -2 
2 -3 7 -3 0 -2 2 -3 2 -3 1 -3 2 -3 10 -2 
2 -4 2 -3 0 -3 3 -3 3 -3 4 -3 6 -4 1 -3 
1 -4 1 -3 2 -4 0 -3 1 -4 3 -3 3 -4 1 -4 
4 -3 1 -4 1 -4 5 -4 0 -4 1 -3 2 -4 1 -4 
0 -4 1 -4 0 -4 3 -4 0 -4 1 -4 3 -4 1 -5 
2 -4 1 -4 0 -8 3 -5 1 -4 2 -4 2 -4 0 -5 
2 -4 0 -5 4 -4 1 -5 8 -4 2 -5 0 -9 3 -5 
1 -5 4 -5 1 -5 0 -5 2 -5 0 -5 1 -5 0 -5 
3 -5 2 -5 2 -5 0 -6 1 -5 1 -5 1 -5 0 -6 
1 -5 2 -5 0 -5 1 -6 0 -10 2 -6 1 -5 0 -5 
2 -6 0 -5 5 -6 0 -5 3 -6 3 -5 0 -6 1 -5 
1 -6 4 -5 1 -6 0 -6 1 -5 2 -6 1 -6 1 -5 
2 -6 1 -6 3 -6 1 -5 2 -6 2 -6 3 -6 3 -5 
2 -6 4 -6 1 -6 1 -6 0 -6 4 -6 1 -5 2 -6 
0 -6 1 -6 5 -6 1 -6 0 -6 1 -6 1 -6 2 -6 
0 -5 1 -6 0 -6 2 -6 0 -6 4 -6 0 -6 1 -6 
1 -6 0 -11 1 -6 1 -6 2 -6 0 -6 1 -6 1 -6 
3 -5 1 -6 0 -6 1 -6 0 -6 1 -6 0 -6 2 -5 
4 -6 1 -6 3 -6 3 -6 0 -6 1 -6 1 -5 1 -6 
0 -12 1 -6 0 -6 2 -6 0 -5 3 -6 1 -6 1 -6 
2 -6 0 -6 1 -6 3 -6 3 -6 1 -5 0 -6 2 -6 
3 -6 1 -6 5 -6 1 -6 1 -6 0 -6 2 -6 1 -6 
2 -6 5 -6 1 -6 1 -6 2 -6 0 -6 2 -6 1 -6 
2 -6 5 -6 3 -6 0 -19 1 -6 1 -6 2 -6 1 -6 
1 -6 0 -6 1 -6 0 -6 1 -6 1 -6 0 -24 2 -6 
2 -6 3 -6 2 -6 1 -6 1 -6 0 -12 1 -5 0 -6 
1 -6 2 -6 3 -6 1 -6 0 -6 3 -6 2 -5 2 -6 
1 -6 0 -12 7 -5 4 -6 2 -6 1 -6 0 -11 1 -6 
0 -5 2 -6 1 -6 1 -6 1 -5 0 -12 2 -6 0 -17 
5 -6 2 -6 1 -5 0 -6 4 -6 0 -6 1 -6 1 -6 
0 -12 1 -6 0 -6 2 -6 4 -6 0 -5 4 -6 2 -6 
3 -6 1 -5 0 -6 2 -5 3 -6 5 -5 10 -5 0 -5 
3 -5 1 -5 2 -5 1 -5 0 -5 4 -4 1 -5 5 -5 
3 -4 2 -5 2 -4 3 -4 2 -5 1 -4 3 -4 12 -4 
0 -4 1 -4 2 -4 4982 4430 300 MP stroke
2 -4 1 -4 0 -4 1 -4 12 -3 8 -4 7 -4 1 -3 
0 -4 1 -3 1 -4 1 -3 3 -4 2 -3 7 -4 7 -3 
1 -3 5 -4 6 -3 1 -3 0 -3 2 -3 0 -3 2 -3 
5 -3 4 -3 10 -3 2 -3 1 -3 3 -3 0 -2 4 -3 
0 -3 3 -2 2 -3 1 -2 2 -3 1 -2 0 -3 10 -2 
3 -3 1 -2 1 -2 4 -2 7 -3 2 -2 1 -2 2 -2 
0 -2 1 -2 13 -2 2 -2 4 -2 0 -1 6 -2 2 -2 
1 -1 7 -2 21 -2 15 -1 3 -1 1 -2 12 -1 2 -1 
9 -2 0 -1 2 -1 15 -1 6 -1 5 -1 0 -1 2 -1 
10 -1 3 -1 15 0 9 -1 3 -1 2 0 17 -1 22 0 
51 -1 9 0 171 0 4401 4615 84 MP stroke
24 w
c9
17 0 17 0 17 0 17 0 17 0 17 0 17 0 17 0 
17 -1 17 0 17 -1 17 -1 17 -2 17 -1 17 -3 17 -2 
17 -4 17 -5 17 -5 17 -8 17 -9 17 -11 17 -13 17 -16 
17 -20 17 -22 17 -26 17 -30 17 -33 17 -37 17 -41 17 -43 
17 -46 17 -49 16 -50 17 -52 17 -53 17 -54 17 -54 17 -55 
17 -56 17 -56 17 -55 17 -56 17 -54 17 -53 17 -51 17 -48 
17 -45 17 -42 17 -39 17 -35 17 -33 17 -30 17 -29 17 -27 
17 -26 17 -25 17 -24 17 -24 17 -22 17 -21 17 -19 17 -18 
17 -16 17 -15 17 -13 17 -13 17 -11 17 -11 17 -9 17 -8 
17 -7 17 -6 17 -5 17 -4 17 -3 17 -3 17 -2 17 -1 
17 -1 17 -1 17 -1 17 0 17 -1 17 0 17 -1 17 0 
17 -1 17 0 17 -1 17 0 17 0 17 0 17 0 17 0 
17 0 16 0 17 0 4202 4615 100 MP stroke
6 w
gr

c9

end %%Color Dict

eplot
%%EndObject

epage
end

showpage

%%Trailer
%%EOF
