%!PS-Adobe-3.0 EPSF-3.0
%%Creator: MATLAB, The Mathworks, Inc.
%%Title: Pictures\DET_MSCC_vs_emp.eps
%%CreationDate: 11/30/2006  09:46:57
%%DocumentNeededFonts: Helvetica
%%DocumentProcessColors: Cyan Magenta Yellow Black
%%LanguageLevel: 2
%%Pages: 1
%%BoundingBox:    76   187   499   591
%%EndComments

%%BeginProlog
% MathWorks dictionary
/MathWorks 160 dict begin
% definition operators
/bdef {bind def} bind def
/ldef {load def} bind def
/xdef {exch def} bdef
/xstore {exch store} bdef
% operator abbreviations
/c  /clip ldef
/cc /concat ldef
/cp /closepath ldef
/gr /grestore ldef
/gs /gsave ldef
/mt /moveto ldef
/np /newpath ldef
/cm /currentmatrix ldef
/sm /setmatrix ldef
/rm /rmoveto ldef
/rl /rlineto ldef
/s {show newpath} bdef
/sc {setcmykcolor} bdef
/sr /setrgbcolor ldef
/sg /setgray ldef
/w /setlinewidth ldef
/j /setlinejoin ldef
/cap /setlinecap ldef
/rc {rectclip} bdef
/rf {rectfill} bdef
% page state control
/pgsv () def
/bpage {/pgsv save def} bdef
/epage {pgsv restore} bdef
/bplot /gsave ldef
/eplot {stroke grestore} bdef
% orientation switch
/portraitMode 0 def /landscapeMode 1 def /rotateMode 2 def
% coordinate system mappings
/dpi2point 0 def
% font control
/FontSize 0 def
/FMS {/FontSize xstore findfont [FontSize 0 0 FontSize neg 0 0]
  makefont setfont} bdef
/ISOLatin1Encoding where {pop /WindowsLatin1Encoding 256 array bdef
ISOLatin1Encoding WindowsLatin1Encoding copy pop
/.notdef/.notdef/quotesinglbase/florin/quotedblbase/ellipsis/dagger
/daggerdbl/circumflex/perthousand/Scaron/guilsinglleft/OE/.notdef/.notdef
/.notdef/.notdef/quoteleft/quoteright/quotedblleft/quotedblright/bullet
/endash/emdash/tilde/trademark/scaron/guilsinglright/oe/.notdef/.notdef
/Ydieresis WindowsLatin1Encoding 128 32 getinterval astore pop}
{/WindowsLatin1Encoding StandardEncoding bdef} ifelse
/reencode {exch dup where {pop load} {pop StandardEncoding} ifelse
  exch dup 3 1 roll findfont dup length dict begin
  { 1 index /FID ne {def}{pop pop} ifelse } forall
  /Encoding exch def currentdict end definefont pop} bdef
/isroman {findfont /CharStrings get /Agrave known} bdef
/FMSR {3 1 roll 1 index dup isroman {reencode} {pop pop} ifelse
  exch FMS} bdef
/csm {1 dpi2point div -1 dpi2point div scale neg translate
 dup landscapeMode eq {pop -90 rotate}
  {rotateMode eq {90 rotate} if} ifelse} bdef
% line types: solid, dotted, dashed, dotdash
/SO { [] 0 setdash } bdef
/DO { [.5 dpi2point mul 4 dpi2point mul] 0 setdash } bdef
/DA { [6 dpi2point mul] 0 setdash } bdef
/DD { [.5 dpi2point mul 4 dpi2point mul 6 dpi2point mul 4
  dpi2point mul] 0 setdash } bdef
% macros for lines and objects
/L {lineto stroke} bdef
/MP {3 1 roll moveto 1 sub {rlineto} repeat} bdef
/AP {{rlineto} repeat} bdef
/PDlw -1 def
/W {/PDlw currentlinewidth def setlinewidth} def
/PP {closepath eofill} bdef
/DP {closepath stroke} bdef
/MR {4 -2 roll moveto dup  0 exch rlineto exch 0 rlineto
  neg 0 exch rlineto closepath} bdef
/FR {MR stroke} bdef
/PR {MR fill} bdef
/L1i {{currentfile picstr readhexstring pop} image} bdef
/tMatrix matrix def
/MakeOval {newpath tMatrix currentmatrix pop translate scale
0 0 1 0 360 arc tMatrix setmatrix} bdef
/FO {MakeOval stroke} bdef
/PO {MakeOval fill} bdef
/PD {currentlinewidth 2 div 0 360 arc fill
   PDlw -1 eq not {PDlw w /PDlw -1 def} if} def
/FA {newpath tMatrix currentmatrix pop translate scale
  0 0 1 5 -2 roll arc tMatrix setmatrix stroke} bdef
/PA {newpath tMatrix currentmatrix pop	translate 0 0 moveto scale
  0 0 1 5 -2 roll arc closepath tMatrix setmatrix fill} bdef
/FAn {newpath tMatrix currentmatrix pop translate scale
  0 0 1 5 -2 roll arcn tMatrix setmatrix stroke} bdef
/PAn {newpath tMatrix currentmatrix pop translate 0 0 moveto scale
  0 0 1 5 -2 roll arcn closepath tMatrix setmatrix fill} bdef
/vradius 0 def /hradius 0 def /lry 0 def
/lrx 0 def /uly 0 def /ulx 0 def /rad 0 def
/MRR {/vradius xdef /hradius xdef /lry xdef /lrx xdef /uly xdef
  /ulx xdef newpath tMatrix currentmatrix pop ulx hradius add uly
  vradius add translate hradius vradius scale 0 0 1 180 270 arc 
  tMatrix setmatrix lrx hradius sub uly vradius add translate
  hradius vradius scale 0 0 1 270 360 arc tMatrix setmatrix
  lrx hradius sub lry vradius sub translate hradius vradius scale
  0 0 1 0 90 arc tMatrix setmatrix ulx hradius add lry vradius sub
  translate hradius vradius scale 0 0 1 90 180 arc tMatrix setmatrix
  closepath} bdef
/FRR {MRR stroke } bdef
/PRR {MRR fill } bdef
/MlrRR {/lry xdef /lrx xdef /uly xdef /ulx xdef /rad lry uly sub 2 div def
  newpath tMatrix currentmatrix pop ulx rad add uly rad add translate
  rad rad scale 0 0 1 90 270 arc tMatrix setmatrix lrx rad sub lry rad
  sub translate rad rad scale 0 0 1 270 90 arc tMatrix setmatrix
  closepath} bdef
/FlrRR {MlrRR stroke } bdef
/PlrRR {MlrRR fill } bdef
/MtbRR {/lry xdef /lrx xdef /uly xdef /ulx xdef /rad lrx ulx sub 2 div def
  newpath tMatrix currentmatrix pop ulx rad add uly rad add translate
  rad rad scale 0 0 1 180 360 arc tMatrix setmatrix lrx rad sub lry rad
  sub translate rad rad scale 0 0 1 0 180 arc tMatrix setmatrix
  closepath} bdef
/FtbRR {MtbRR stroke } bdef
/PtbRR {MtbRR fill } bdef
/stri 6 array def /dtri 6 array def
/smat 6 array def /dmat 6 array def
/tmat1 6 array def /tmat2 6 array def /dif 3 array def
/asub {/ind2 exch def /ind1 exch def dup dup
  ind1 get exch ind2 get sub exch } bdef
/tri_to_matrix {
  2 0 asub 3 1 asub 4 0 asub 5 1 asub
  dup 0 get exch 1 get 7 -1 roll astore } bdef
/compute_transform {
  dmat dtri tri_to_matrix tmat1 invertmatrix 
  smat stri tri_to_matrix tmat2 concatmatrix } bdef
/ds {stri astore pop} bdef
/dt {dtri astore pop} bdef
/db {2 copy /cols xdef /rows xdef mul dup 3 mul string
  currentfile 
  3 index 0 eq {/ASCIIHexDecode filter}
  {/ASCII85Decode filter 3 index 2 eq {/RunLengthDecode filter} if }
  ifelse exch readstring pop
  dup 0 3 index getinterval /rbmap xdef
  dup 2 index dup getinterval /gbmap xdef
  1 index dup 2 mul exch getinterval /bbmap xdef pop pop}bdef
/it {gs np dtri aload pop moveto lineto lineto cp c
  cols rows 8 compute_transform 
  rbmap gbmap bbmap true 3 colorimage gr}bdef
/il {newpath moveto lineto stroke}bdef
currentdict end def
%%EndProlog

%%BeginSetup
MathWorks begin

0 cap

end
%%EndSetup

%%Page: 1 1
%%BeginPageSetup
%%PageBoundingBox:    76   187   499   591
MathWorks begin
bpage
%%EndPageSetup

%%BeginObject: obj1
bplot

/dpi2point 12 def
portraitMode 0216 7344 csm

  703   247  5080  4845 rc
85 dict begin %Colortable dictionary
/c0 { 0.000000 0.000000 0.000000 sr} bdef
/c1 { 1.000000 1.000000 1.000000 sr} bdef
/c2 { 0.900000 0.000000 0.000000 sr} bdef
/c3 { 0.000000 0.820000 0.000000 sr} bdef
/c4 { 0.000000 0.000000 0.800000 sr} bdef
/c5 { 0.910000 0.820000 0.320000 sr} bdef
/c6 { 1.000000 0.260000 0.820000 sr} bdef
/c7 { 0.000000 0.820000 0.820000 sr} bdef
c0
1 j
1 sg
   0    0 6919 5187 rf
6 w
0 4227 4227 0 0 -4227 1466 4616 4 MP
PP
-4227 0 0 4227 4227 0 0 -4227 1466 4616 5 MP stroke
4 w
DO
0 sg
1671 4616 mt 1671  389 L
1671  389 mt 1671  389 L
1888 4616 mt 1888  389 L
1888  389 mt 1888  389 L
2197 4616 mt 2197  389 L
2197  389 mt 2197  389 L
2452 4616 mt 2452  389 L
2452  389 mt 2452  389 L
2731 4616 mt 2731  389 L
2731  389 mt 2731  389 L
3149 4616 mt 3149  389 L
3149  389 mt 3149  389 L
3521 4616 mt 3521  389 L
3521  389 mt 3521  389 L
3971 4616 mt 3971  389 L
3971  389 mt 3971  389 L
4573 4616 mt 4573  389 L
4573  389 mt 4573  389 L
5091 4616 mt 5091  389 L
5091  389 mt 5091  389 L
1466 4411 mt 5693 4411 L
5693 4411 mt 5693 4411 L
1466 4194 mt 5693 4194 L
5693 4194 mt 5693 4194 L
1466 3884 mt 5693 3884 L
5693 3884 mt 5693 3884 L
1466 3629 mt 5693 3629 L
5693 3629 mt 5693 3629 L
1466 3350 mt 5693 3350 L
5693 3350 mt 5693 3350 L
1466 2932 mt 5693 2932 L
5693 2932 mt 5693 2932 L
1466 2560 mt 5693 2560 L
5693 2560 mt 5693 2560 L
1466 2110 mt 5693 2110 L
5693 2110 mt 5693 2110 L
1466 1509 mt 5693 1509 L
5693 1509 mt 5693 1509 L
1466  990 mt 5693  990 L
5693  990 mt 5693  990 L
SO
6 w
1466 4616 mt 5693 4616 L
1466 4616 mt 1466  389 L
1671 4616 mt 1671 4573 L
%%IncludeResource: font Helvetica
/Helvetica /WindowsLatin1Encoding 192 FMSR

1458 4828 mt 
(  0.1 ) s
1888 4616 mt 1888 4573 L
1675 4828 mt 
(  0.2 ) s
2197 4616 mt 2197 4573 L
1984 4828 mt 
(  0.5 ) s
2452 4616 mt 2452 4573 L
2266 4828 mt 
(   1  ) s
2731 4616 mt 2731 4573 L
2545 4828 mt 
(   2  ) s
3149 4616 mt 3149 4573 L
2963 4828 mt 
(   5  ) s
3521 4616 mt 3521 4573 L
3308 4828 mt 
(  10  ) s
3971 4616 mt 3971 4573 L
3758 4828 mt 
(  20  ) s
4573 4616 mt 4573 4573 L
4360 4828 mt 
(  40  ) s
5091 4616 mt 5091 4573 L
4878 4828 mt 
(  60  ) s
1466 4411 mt 1508 4411 L
1004 4482 mt 
(   0.1) s
1466 4194 mt 1508 4194 L
1004 4265 mt 
(   0.2) s
1466 3884 mt 1508 3884 L
1004 3955 mt 
(   0.5) s
1466 3629 mt 1508 3629 L
1058 3700 mt 
(     1) s
1466 3350 mt 1508 3350 L
1058 3421 mt 
(     2) s
1466 2932 mt 1508 2932 L
1058 3003 mt 
(     5) s
1466 2560 mt 1508 2560 L
1004 2631 mt 
(    10) s
1466 2110 mt 1508 2110 L
1004 2181 mt 
(    20) s
1466 1509 mt 1508 1509 L
1004 1580 mt 
(    40) s
1466  990 mt 1508  990 L
1004 1061 mt 
(    60) s
3299 5024 mt 
(FA [%]) s
 906 2796 mt  -90 rotate
(FR [%]) s
90 rotate
%%IncludeResource: font Helvetica
/Helvetica /WindowsLatin1Encoding 120 FMSR

1449 4659 mt 
( ) s
5677  431 mt 
( ) s
gs 1466 389 4228 4228 rc
/c8 { 0.000000 0.000000 1.000000 sr} bdef
c8
-30 -19 -57 -36 -57 -35 -56 -35 -55 -35 -56 -35 -54 -34 -55 -34 
-54 -35 -53 -34 -54 -34 -53 -34 -53 -34 -53 -33 -53 -34 -53 -33 
-53 -32 -53 -33 -54 -32 -54 -32 -54 -32 -55 -32 -55 -31 -55 -32 
-55 -32 -56 -32 -56 -33 -56 -33 -57 -34 -56 -34 -57 -35 -57 -35 
-58 -36 -59 -35 -59 -36 -61 -36 -61 -37 -64 -36 -64 -36 -66 -37 
-68 -37 -69 -38 -70 -38 -72 -39 -73 -40 -75 -41 -77 -41 -78 -43 
-81 -44 -82 -44 -85 -46 -87 -47 -89 -49 -93 -49 -95 -52 -98 -53 
-101 -54 -105 -57 -108 -58 -112 -61 -117 -63 -120 -65 -52 -28 5694 4446 64 MP stroke
gr

c8
  36   36 5642 4418 FO
  36   36 5522 4353 FO
  36   36 5405 4290 FO
  36   36 5293 4229 FO
  36   36 5185 4171 FO
  36   36 5080 4114 FO
  36   36 4979 4060 FO
  36   36 4881 4007 FO
  36   36 4786 3955 FO
  36   36 4693 3906 FO
  36   36 4604 3857 FO
  36   36 4517 3810 FO
  36   36 4432 3764 FO
  36   36 4350 3720 FO
  36   36 4269 3676 FO
  36   36 4191 3633 FO
  36   36 4114 3592 FO
  36   36 4039 3551 FO
  36   36 3966 3511 FO
  36   36 3894 3472 FO
  36   36 3824 3434 FO
  36   36 3755 3396 FO
  36   36 3687 3359 FO
  36   36 3621 3322 FO
  36   36 3557 3286 FO
  36   36 3493 3250 FO
  36   36 3432 3213 FO
  36   36 3371 3177 FO
  36   36 3312 3141 FO
  36   36 3253 3106 FO
  36   36 3195 3070 FO
  36   36 3138 3035 FO
  36   36 3081 3000 FO
  36   36 3025 2966 FO
  36   36 2968 2932 FO
  36   36 2912 2899 FO
  36   36 2856 2866 FO
  36   36 2800 2834 FO
  36   36 2745 2802 FO
  36   36 2690 2770 FO
  36   36 2635 2739 FO
  36   36 2580 2707 FO
  36   36 2526 2675 FO
  36   36 2472 2643 FO
  36   36 2418 2611 FO
  36   36 2365 2578 FO
  36   36 2312 2546 FO
  36   36 2259 2513 FO
  36   36 2206 2479 FO
  36   36 2153 2446 FO
  36   36 2100 2412 FO
  36   36 2047 2378 FO
  36   36 1993 2344 FO
  36   36 1940 2310 FO
  36   36 1886 2275 FO
  36   36 1831 2241 FO
  36   36 1777 2207 FO
  36   36 1721 2172 FO
  36   36 1666 2137 FO
  36   36 1610 2102 FO
  36   36 1553 2067 FO
  36   36 1496 2031 FO
gs 1466 389 4228 4228 rc
/c9 { 1.000000 0.000000 0.000000 sr} bdef
c9
-10 -11 -61 -19 -64 -9 -56 -34 -51 -45 -61 -18 -55 -34 -44 -56 
-61 -18 -62 -14 -48 -47 -48 -43 -41 -55 -60 -19 -45 -46 -58 -23 
-33 -62 -60 -21 -57 -25 -44 -44 -42 -47 -61 -20 -71 -9 -72 -10 
-70 -14 -59 -29 -54 -35 -55 -34 -65 -25 -33 -59 -72 -19 -62 -31 
-42 -50 -25 -64 -64 -31 -42 -50 -70 -28 -61 -37 -41 -52 -20 -67 
-46 -48 -64 -38 -69 -36 -67 -37 -78 -35 -96 -25 -96 -28 -96 -31 
-61 -52 -26 -68 -67 -50 -137 -22 -142 -25 -146 -27 -148 -32 -151 -35 
-150 -40 -147 -46 -140 -53 -143 -56 -58 -22 5694 4250 62 MP stroke
gr

c9
5611 4203 mt 5661 4253 L
5661 4203 mt 5611 4253 L
5468 4147 mt 5518 4197 L
5518 4147 mt 5468 4197 L
5328 4094 mt 5378 4144 L
5378 4094 mt 5328 4144 L
5181 4048 mt 5231 4098 L
5231 4048 mt 5181 4098 L
5031 4008 mt 5081 4058 L
5081 4008 mt 5031 4058 L
4880 3973 mt 4930 4023 L
4930 3973 mt 4880 4023 L
4732 3941 mt 4782 3991 L
4782 3941 mt 4732 3991 L
4586 3914 mt 4636 3964 L
4636 3914 mt 4586 3964 L
4444 3889 mt 4494 3939 L
4494 3889 mt 4444 3939 L
4307 3867 mt 4357 3917 L
4357 3867 mt 4307 3917 L
4240 3817 mt 4290 3867 L
4290 3817 mt 4240 3867 L
4214 3749 mt 4264 3799 L
4264 3749 mt 4214 3799 L
4153 3697 mt 4203 3747 L
4203 3697 mt 4153 3747 L
4057 3666 mt 4107 3716 L
4107 3666 mt 4057 3716 L
3961 3638 mt 4011 3688 L
4011 3638 mt 3961 3688 L
3865 3613 mt 3915 3663 L
3915 3613 mt 3865 3663 L
3787 3578 mt 3837 3628 L
3837 3578 mt 3787 3628 L
3720 3541 mt 3770 3591 L
3770 3541 mt 3720 3591 L
3651 3505 mt 3701 3555 L
3701 3505 mt 3651 3555 L
3587 3467 mt 3637 3517 L
3637 3467 mt 3587 3517 L
3541 3419 mt 3591 3469 L
3591 3419 mt 3541 3469 L
3521 3352 mt 3571 3402 L
3571 3352 mt 3521 3402 L
3480 3300 mt 3530 3350 L
3530 3300 mt 3480 3350 L
3419 3263 mt 3469 3313 L
3469 3263 mt 3419 3313 L
3349 3235 mt 3399 3285 L
3399 3235 mt 3349 3285 L
3307 3185 mt 3357 3235 L
3357 3185 mt 3307 3235 L
3243 3154 mt 3293 3204 L
3293 3154 mt 3243 3204 L
3218 3090 mt 3268 3140 L
3268 3090 mt 3218 3140 L
3176 3040 mt 3226 3090 L
3226 3040 mt 3176 3090 L
3114 3009 mt 3164 3059 L
3164 3009 mt 3114 3059 L
3042 2990 mt 3092 3040 L
3092 2990 mt 3042 3040 L
3009 2931 mt 3059 2981 L
3059 2931 mt 3009 2981 L
2944 2906 mt 2994 2956 L
2994 2906 mt 2944 2956 L
2889 2872 mt 2939 2922 L
2939 2872 mt 2889 2922 L
2835 2837 mt 2885 2887 L
2885 2837 mt 2835 2887 L
2776 2808 mt 2826 2858 L
2826 2808 mt 2776 2858 L
2706 2794 mt 2756 2844 L
2756 2794 mt 2706 2844 L
2634 2784 mt 2684 2834 L
2684 2784 mt 2634 2834 L
2563 2775 mt 2613 2825 L
2613 2775 mt 2563 2825 L
2502 2755 mt 2552 2805 L
2552 2755 mt 2502 2805 L
2460 2708 mt 2510 2758 L
2510 2708 mt 2460 2758 L
2416 2664 mt 2466 2714 L
2466 2664 mt 2416 2714 L
2359 2639 mt 2409 2689 L
2409 2639 mt 2359 2689 L
2299 2618 mt 2349 2668 L
2349 2618 mt 2299 2668 L
2266 2556 mt 2316 2606 L
2316 2556 mt 2266 2606 L
2208 2533 mt 2258 2583 L
2258 2533 mt 2208 2583 L
2163 2487 mt 2213 2537 L
2213 2487 mt 2163 2537 L
2103 2468 mt 2153 2518 L
2153 2468 mt 2103 2518 L
2062 2413 mt 2112 2463 L
2112 2413 mt 2062 2463 L
2014 2370 mt 2064 2420 L
2064 2370 mt 2014 2420 L
1966 2323 mt 2016 2373 L
2016 2323 mt 1966 2373 L
1904 2309 mt 1954 2359 L
1954 2309 mt 1904 2359 L
1843 2291 mt 1893 2341 L
1893 2291 mt 1843 2341 L
1799 2235 mt 1849 2285 L
1849 2235 mt 1799 2285 L
1744 2201 mt 1794 2251 L
1794 2201 mt 1744 2251 L
1683 2183 mt 1733 2233 L
1733 2183 mt 1683 2233 L
1632 2138 mt 1682 2188 L
1682 2138 mt 1632 2188 L
1576 2104 mt 1626 2154 L
1626 2104 mt 1576 2154 L
1512 2095 mt 1562 2145 L
1562 2095 mt 1512 2145 L
1451 2076 mt 1501 2126 L
1501 2076 mt 1451 2126 L
gs 1466 389 4228 4228 rc
gr

1 sg
0 500 1028 0 0 -500 4605 949 4 MP
PP
-1028 0 0 500 1028 0 0 -500 4605 949 5 MP stroke
4 w
DO
SO
6 w
0 sg
4605  449 mt 5633  449 L
4605  949 mt 5633  949 L
5633  949 mt 5633  449 L
4605  949 mt 4605  449 L
4605  949 mt 5633  949 L
4605  949 mt 4605  449 L
4605  449 mt 5633  449 L
4605  949 mt 5633  949 L
5633  949 mt 5633  449 L
4605  949 mt 4605  449 L
%%IncludeResource: font Helvetica
/Helvetica /WindowsLatin1Encoding 192 FMSR

5062  652 mt 
(data) s
gs 4605 449 1029 501 rc
c8
351 0 4675 583 2 MP stroke
gs 4778 510 147 147 rc
  36   36 4851  583 FO
gr

gr

c8
0 sg
5062  883 mt 
(model) s
gs 4605 449 1029 501 rc
c9
351 0 4675 814 2 MP stroke
gs 4778 741 147 147 rc
4826  789 mt 4876  839 L
4876  789 mt 4826  839 L
gr

gr

c9

end %%Color Dict

eplot
%%EndObject

epage
end

showpage

%%Trailer
%%EOF
