%!PS-Adobe-3.0 EPSF-3.0
%%Creator: MATLAB, The Mathworks, Inc.
%%Title: Pictures\FAR_FRR_thrd.eps
%%CreationDate: 12/01/2006  15:52:26
%%DocumentNeededFonts: Helvetica
%%DocumentProcessColors: Cyan Magenta Yellow Black
%%LanguageLevel: 2
%%Pages: 1
%%BoundingBox:    42   187   547   591
%%EndComments

%%BeginProlog
% MathWorks dictionary
/MathWorks 160 dict begin
% definition operators
/bdef {bind def} bind def
/ldef {load def} bind def
/xdef {exch def} bdef
/xstore {exch store} bdef
% operator abbreviations
/c  /clip ldef
/cc /concat ldef
/cp /closepath ldef
/gr /grestore ldef
/gs /gsave ldef
/mt /moveto ldef
/np /newpath ldef
/cm /currentmatrix ldef
/sm /setmatrix ldef
/rm /rmoveto ldef
/rl /rlineto ldef
/s {show newpath} bdef
/sc {setcmykcolor} bdef
/sr /setrgbcolor ldef
/sg /setgray ldef
/w /setlinewidth ldef
/j /setlinejoin ldef
/cap /setlinecap ldef
/rc {rectclip} bdef
/rf {rectfill} bdef
% page state control
/pgsv () def
/bpage {/pgsv save def} bdef
/epage {pgsv restore} bdef
/bplot /gsave ldef
/eplot {stroke grestore} bdef
% orientation switch
/portraitMode 0 def /landscapeMode 1 def /rotateMode 2 def
% coordinate system mappings
/dpi2point 0 def
% font control
/FontSize 0 def
/FMS {/FontSize xstore findfont [FontSize 0 0 FontSize neg 0 0]
  makefont setfont} bdef
/ISOLatin1Encoding where {pop /WindowsLatin1Encoding 256 array bdef
ISOLatin1Encoding WindowsLatin1Encoding copy pop
/.notdef/.notdef/quotesinglbase/florin/quotedblbase/ellipsis/dagger
/daggerdbl/circumflex/perthousand/Scaron/guilsinglleft/OE/.notdef/.notdef
/.notdef/.notdef/quoteleft/quoteright/quotedblleft/quotedblright/bullet
/endash/emdash/tilde/trademark/scaron/guilsinglright/oe/.notdef/.notdef
/Ydieresis WindowsLatin1Encoding 128 32 getinterval astore pop}
{/WindowsLatin1Encoding StandardEncoding bdef} ifelse
/reencode {exch dup where {pop load} {pop StandardEncoding} ifelse
  exch dup 3 1 roll findfont dup length dict begin
  { 1 index /FID ne {def}{pop pop} ifelse } forall
  /Encoding exch def currentdict end definefont pop} bdef
/isroman {findfont /CharStrings get /Agrave known} bdef
/FMSR {3 1 roll 1 index dup isroman {reencode} {pop pop} ifelse
  exch FMS} bdef
/csm {1 dpi2point div -1 dpi2point div scale neg translate
 dup landscapeMode eq {pop -90 rotate}
  {rotateMode eq {90 rotate} if} ifelse} bdef
% line types: solid, dotted, dashed, dotdash
/SO { [] 0 setdash } bdef
/DO { [.5 dpi2point mul 4 dpi2point mul] 0 setdash } bdef
/DA { [6 dpi2point mul] 0 setdash } bdef
/DD { [.5 dpi2point mul 4 dpi2point mul 6 dpi2point mul 4
  dpi2point mul] 0 setdash } bdef
% macros for lines and objects
/L {lineto stroke} bdef
/MP {3 1 roll moveto 1 sub {rlineto} repeat} bdef
/AP {{rlineto} repeat} bdef
/PDlw -1 def
/W {/PDlw currentlinewidth def setlinewidth} def
/PP {closepath eofill} bdef
/DP {closepath stroke} bdef
/MR {4 -2 roll moveto dup  0 exch rlineto exch 0 rlineto
  neg 0 exch rlineto closepath} bdef
/FR {MR stroke} bdef
/PR {MR fill} bdef
/L1i {{currentfile picstr readhexstring pop} image} bdef
/tMatrix matrix def
/MakeOval {newpath tMatrix currentmatrix pop translate scale
0 0 1 0 360 arc tMatrix setmatrix} bdef
/FO {MakeOval stroke} bdef
/PO {MakeOval fill} bdef
/PD {currentlinewidth 2 div 0 360 arc fill
   PDlw -1 eq not {PDlw w /PDlw -1 def} if} def
/FA {newpath tMatrix currentmatrix pop translate scale
  0 0 1 5 -2 roll arc tMatrix setmatrix stroke} bdef
/PA {newpath tMatrix currentmatrix pop	translate 0 0 moveto scale
  0 0 1 5 -2 roll arc closepath tMatrix setmatrix fill} bdef
/FAn {newpath tMatrix currentmatrix pop translate scale
  0 0 1 5 -2 roll arcn tMatrix setmatrix stroke} bdef
/PAn {newpath tMatrix currentmatrix pop translate 0 0 moveto scale
  0 0 1 5 -2 roll arcn closepath tMatrix setmatrix fill} bdef
/vradius 0 def /hradius 0 def /lry 0 def
/lrx 0 def /uly 0 def /ulx 0 def /rad 0 def
/MRR {/vradius xdef /hradius xdef /lry xdef /lrx xdef /uly xdef
  /ulx xdef newpath tMatrix currentmatrix pop ulx hradius add uly
  vradius add translate hradius vradius scale 0 0 1 180 270 arc 
  tMatrix setmatrix lrx hradius sub uly vradius add translate
  hradius vradius scale 0 0 1 270 360 arc tMatrix setmatrix
  lrx hradius sub lry vradius sub translate hradius vradius scale
  0 0 1 0 90 arc tMatrix setmatrix ulx hradius add lry vradius sub
  translate hradius vradius scale 0 0 1 90 180 arc tMatrix setmatrix
  closepath} bdef
/FRR {MRR stroke } bdef
/PRR {MRR fill } bdef
/MlrRR {/lry xdef /lrx xdef /uly xdef /ulx xdef /rad lry uly sub 2 div def
  newpath tMatrix currentmatrix pop ulx rad add uly rad add translate
  rad rad scale 0 0 1 90 270 arc tMatrix setmatrix lrx rad sub lry rad
  sub translate rad rad scale 0 0 1 270 90 arc tMatrix setmatrix
  closepath} bdef
/FlrRR {MlrRR stroke } bdef
/PlrRR {MlrRR fill } bdef
/MtbRR {/lry xdef /lrx xdef /uly xdef /ulx xdef /rad lrx ulx sub 2 div def
  newpath tMatrix currentmatrix pop ulx rad add uly rad add translate
  rad rad scale 0 0 1 180 360 arc tMatrix setmatrix lrx rad sub lry rad
  sub translate rad rad scale 0 0 1 0 180 arc tMatrix setmatrix
  closepath} bdef
/FtbRR {MtbRR stroke } bdef
/PtbRR {MtbRR fill } bdef
/stri 6 array def /dtri 6 array def
/smat 6 array def /dmat 6 array def
/tmat1 6 array def /tmat2 6 array def /dif 3 array def
/asub {/ind2 exch def /ind1 exch def dup dup
  ind1 get exch ind2 get sub exch } bdef
/tri_to_matrix {
  2 0 asub 3 1 asub 4 0 asub 5 1 asub
  dup 0 get exch 1 get 7 -1 roll astore } bdef
/compute_transform {
  dmat dtri tri_to_matrix tmat1 invertmatrix 
  smat stri tri_to_matrix tmat2 concatmatrix } bdef
/ds {stri astore pop} bdef
/dt {dtri astore pop} bdef
/db {2 copy /cols xdef /rows xdef mul dup 3 mul string
  currentfile 
  3 index 0 eq {/ASCIIHexDecode filter}
  {/ASCII85Decode filter 3 index 2 eq {/RunLengthDecode filter} if }
  ifelse exch readstring pop
  dup 0 3 index getinterval /rbmap xdef
  dup 2 index dup getinterval /gbmap xdef
  1 index dup 2 mul exch getinterval /bbmap xdef pop pop}bdef
/it {gs np dtri aload pop moveto lineto lineto cp c
  cols rows 8 compute_transform 
  rbmap gbmap bbmap true 3 colorimage gr}bdef
/il {newpath moveto lineto stroke}bdef
currentdict end def
%%EndProlog

%%BeginSetup
MathWorks begin

0 cap

end
%%EndSetup

%%Page: 1 1
%%BeginPageSetup
%%PageBoundingBox:    42   187   547   591
MathWorks begin
bpage
%%EndPageSetup

%%BeginObject: obj1
bplot

/dpi2point 12 def
portraitMode 0216 7344 csm

  297   247  6054  4845 rc
85 dict begin %Colortable dictionary
/c0 { 0.000000 0.000000 0.000000 sr} bdef
/c1 { 1.000000 1.000000 1.000000 sr} bdef
/c2 { 0.900000 0.000000 0.000000 sr} bdef
/c3 { 0.000000 0.820000 0.000000 sr} bdef
/c4 { 0.000000 0.000000 0.800000 sr} bdef
/c5 { 0.910000 0.820000 0.320000 sr} bdef
/c6 { 1.000000 0.260000 0.820000 sr} bdef
/c7 { 0.000000 0.820000 0.820000 sr} bdef
c0
1 j
1 sg
   0    0 6919 5187 rf
6 w
0 1770 5362 0 0 -1770 899 4616 4 MP
PP
-5362 0 0 1770 5362 0 0 -1770 899 4616 5 MP stroke
4 w
DO
SO
6 w
0 sg
 899 4616 mt 6261 4616 L
 899 4616 mt  899 2846 L
 920 4616 mt  920 4562 L
%%IncludeResource: font Helvetica
/Helvetica /WindowsLatin1Encoding 192 FMSR

 755 4828 mt 
(-8) s
1606 4616 mt 1606 4562 L
1441 4828 mt 
(-6) s
2293 4616 mt 2293 4562 L
2128 4828 mt 
(-4) s
2980 4616 mt 2980 4562 L
2815 4828 mt 
(-2) s
3667 4616 mt 3667 4562 L
3614 4828 mt 
(0) s
4353 4616 mt 4353 4562 L
4300 4828 mt 
(2) s
5040 4616 mt 5040 4562 L
4987 4828 mt 
(4) s
5727 4616 mt 5727 4562 L
5674 4828 mt 
(6) s
 899 4616 mt  952 4616 L
 758 4687 mt 
(0) s
 899 3731 mt  952 3731 L
 598 3802 mt 
(0.5) s
 899 2846 mt  952 2846 L
 758 2917 mt 
(1) s
3280 5024 mt 
(Scores) s
 500 4167 mt  -90 rotate
(FRR, FAR) s
90 rotate
%%IncludeResource: font Helvetica
/Helvetica /WindowsLatin1Encoding 120 FMSR

 882 4659 mt 
( ) s
6245 2888 mt 
( ) s
gs 899 2846 5363 1771 rc
DA
/c8 { 1.000000 0.000000 0.000000 sr} bdef
c8
5 1 5 0 5 0 4 0 5 0 5 0 5 0 5 0 
5 0 4 0 5 0 5 0 5 0 5 0 4 0 5 0 
5 0 5 0 5 0 4 0 5 0 5 0 5 0 5 0 
5 0 4 0 5 0 5 0 5 0 5 0 4 0 5 0 
5 0 5 0 5 0 4 0 5 0 5 0 5 0 5 0 
5 0 4 0 5 0 5 0 5 0 5 0 4 0 5 0 
5 0 5 0 5 0 4 0 5 0 5 0 5 0 5 0 
5 0 4 0 5 0 5 0 5 0 5 0 4 0 5 0 
5 0 5 0 5 0 4 0 5 0 5 0 5 0 5 0 
4 0 5 0 5 0 5 0 5 0 5 0 4 0 5 0 
5 0 5 0 5 0 4 0 5 0 5 0 5 0 5 0 
4 0 5 0 5 0 5 0 5 0 5 0 4 0 5 0 
5 0 5 0 5 0 4 0 5 0 5 0 5 0 5 0 
4 0 5 0 5 0 5 0 5 0 5 0 4 0 5 0 
5 0 5 0 5 0 4 0 5 0 5 0 5 0 5 0 
4 0 5 0 5 0 5 0 5 0 4 0 5 0 5 0 
5 0 5 0 5 0 4 0 5 0 5 0 5 0 5 0 
4 0 5 0 5 0 5 0 5 0 4 0 5 0 5 0 
5 0 5 0 5 0 4 0 5 0 5 0 5 0 5 0 
4 0 5 0 5 0 5 0 5 0 4 0 5 0 5 0 
5 0 5 0 5 0 4 0 5 0 5 0 5 0 5 0 
4 0 5 0 5 0 5 0 5 0 4 0 5 0 5 0 
5 0 5 0 5 0 4 0 5 0 5 0 5 0 5 0 
4 0 5 0 5 0 5 0 5 0 4 0 5 0 5 0 
5 0 5 0 4 0 5 0 5 0 5 0 5 0 5 0 
4 0 5 0 5 0 5 0 5 0 4 0 5 0 5 0 
5 0 5 0 4 0 5 0 5 0 5 0 5 0 5 0 
4 0 5 0 5 0 5 0 5 0 4 0 5 0 5 0 
5 0 5 0 4 0 5 0 5 0 5 0 5 0 5 0 
4 0 5 0 5 0 5 0 5 0 4 0 5 0 5 0 
5 0 5 0 4 0 5 0 5 0 5 0 5 0 4 0 
5 0 5 0 5 0 5 0 5 0 4 0 5 0 5 0 
5 0 5 0 4 0 5 0 5 0 5 0 5 0 4 0 
5 0 5 0 5 0 5 0 5 0 4 0 5 0 5 0 
5 0 5 0 4 0 5 0 5 0 5 0 5 0 4 0 
5 0 5 0 5 0 5 0 5 0 4 0 5 0 5 0 
5 0 5 0 4 0 5 0 5 0 5 0 5 0 4 0 
5 0 5 0 5 0 4379 4615 300 MP stroke
5 0 5 0 4 0 5 0 5 0 5 0 5 0 4 0 
5 0 5 0 5 0 5 0 4 0 5 0 5 0 5 0 
5 0 4 0 5 0 5 0 5 0 5 0 5 1 4 0 
5 0 5 0 5 0 5 0 4 0 5 0 5 0 5 0 
5 0 4 0 5 0 5 0 5 0 5 1 5 0 4 0 
5 0 5 0 5 0 5 0 4 0 5 0 5 1 5 0 
5 0 4 0 5 0 5 0 5 1 5 0 5 0 4 0 
5 0 5 1 5 0 5 0 4 0 5 1 5 0 5 0 
5 0 4 1 5 0 5 0 5 1 5 0 5 0 4 1 
5 0 5 0 5 1 5 0 4 1 5 0 5 1 5 0 
5 1 4 0 5 1 5 0 5 1 5 0 4 1 5 1 
5 0 5 1 5 1 5 0 4 1 5 1 5 1 5 1 
5 0 4 1 5 1 5 1 5 1 5 1 4 1 5 1 
5 1 5 1 5 2 5 1 4 1 5 1 5 1 5 2 
5 1 4 2 5 1 5 2 5 1 5 2 4 1 5 2 
5 2 5 1 5 2 5 2 4 2 5 2 5 2 5 2 
5 2 4 2 5 2 5 2 5 3 5 2 4 2 5 3 
5 2 5 3 5 3 4 2 5 3 5 3 5 3 5 3 
5 3 4 3 5 3 5 3 5 4 5 3 4 3 5 4 
5 3 5 4 5 4 4 3 5 4 5 4 5 4 5 4 
5 4 4 4 5 5 5 4 5 5 5 4 4 5 5 4 
5 5 5 5 5 5 4 5 5 5 5 5 5 5 5 5 
5 6 4 5 5 6 5 5 5 6 5 6 4 6 5 5 
5 6 5 6 5 7 4 6 5 6 5 7 5 6 5 7 
5 6 4 7 5 7 5 6 5 7 5 7 4 7 5 7 
5 8 5 7 5 7 4 8 5 7 5 8 5 7 5 8 
4 8 5 7 5 8 5 8 5 8 5 8 4 8 5 8 
5 9 5 8 5 8 4 9 5 8 5 9 5 8 5 9 
4 8 5 9 5 9 5 8 5 9 5 9 4 9 5 9 
5 8 5 9 5 9 4 9 5 9 5 9 5 10 5 9 
4 9 5 9 5 9 5 9 5 9 5 10 4 9 5 9 
5 9 5 9 5 10 4 9 5 9 5 9 5 10 5 9 
4 9 5 9 5 9 5 10 5 9 4 9 5 9 5 9 
5 9 5 9 5 9 4 9 5 9 5 9 5 9 5 9 
4 9 5 9 5 9 5 9 5 8 4 9 5 9 5 8 
5 9 5 9 5 8 4 9 5 8 5 8 5 9 5 8 
4 8 5 8 5 8 5 9 5 8 4 7 5 8 5 8 
5 8 5 8 5 7 2940 3377 300 MP stroke
4 8 5 8 5 7 5 7 5 8 4 7 5 7 5 8 
5 7 5 7 4 7 5 7 5 6 5 7 5 7 5 7 
4 6 5 7 5 6 5 7 5 6 4 6 5 6 5 6 
5 6 5 6 4 6 5 6 5 6 5 6 5 5 4 6 
5 5 5 6 5 5 5 5 5 5 4 6 5 5 5 5 
5 5 5 5 4 4 5 5 5 5 5 4 5 5 4 4 
5 5 5 4 5 5 5 4 5 4 4 4 5 4 5 4 
5 4 5 4 4 4 5 3 5 4 5 4 5 3 4 4 
5 3 5 4 5 3 5 3 5 4 4 3 5 3 5 3 
5 3 5 3 4 3 5 3 5 3 5 3 5 2 4 3 
5 3 5 2 5 3 5 2 5 3 4 2 5 3 5 2 
5 2 5 2 4 3 5 2 5 2 5 2 5 2 4 2 
5 2 5 2 5 2 5 2 4 1 5 2 5 2 5 2 
5 1 5 2 4 2 5 1 5 2 5 1 5 2 4 1 
5 2 5 1 5 2 5 1 4 1 5 1 5 2 5 1 
5 1 5 1 4 2 5 1 5 1 5 1 5 1 4 1 
5 1 5 1 5 1 5 1 4 1 5 1 5 1 5 1 
5 0 5 1 4 1 5 1 5 1 5 0 5 1 4 1 
5 1 5 0 5 1 5 1 4 0 5 1 5 1 5 0 
5 1 4 0 5 1 5 1 5 0 5 1 5 0 4 1 
5 0 5 1 5 0 5 1 4 0 5 1 5 0 5 0 
5 1 4 0 5 1 5 0 5 0 5 1 5 0 4 0 
5 1 5 0 5 0 5 1 4 0 5 0 5 1 5 0 
5 0 4 0 5 1 5 0 5 0 5 1 5 0 4 0 
5 0 5 0 5 1 5 0 4 0 5 0 5 0 5 1 
5 0 4 0 5 0 5 0 5 1 5 0 5 0 4 0 
5 0 5 0 5 0 5 1 4 0 5 0 5 0 5 0 
5 0 4 0 5 1 5 0 5 0 5 0 4 0 5 0 
5 0 5 0 5 0 5 0 4 1 5 0 5 0 5 0 
5 0 4 0 5 0 5 0 5 0 5 0 4 0 5 0 
5 0 5 0 5 1 5 0 4 0 5 0 5 0 5 0 
5 0 4 0 5 0 5 0 5 0 5 0 4 0 5 0 
5 0 5 0 5 0 5 0 4 0 5 0 5 0 5 0 
5 1 4 0 5 0 5 0 5 0 5 0 4 0 5 0 
5 0 5 0 5 0 4 0 5 0 5 0 5 0 5 0 
5 0 4 0 5 0 5 0 5 0 5 0 4 0 5 0 
5 0 5 0 5 0 4 0 5 0 5 0 5 0 5 0 
5 0 4 0 5 0 1502 2846 300 MP stroke
5 0 5 0 5 0 4 0 5 0 5 0 5 0 5 0 
4 0 5 0 5 0 5 0 5 0 5 0 4 0 5 0 
5 0 5 0 5 0 4 0 5 0 5 0 5 0 5 0 
4 0 5 0 5 0 5 0 5 0 5 0 4 0 5 0 
5 0 5 0 5 0 4 0 5 0 5 0 5 0 5 0 
4 0 5 0 5 0 5 0 5 0 4 0 5 0 5 0 
5 0 5 0 5 0 4 0 5 0 5 0 5 0 5 0 
4 0 5 0 5 0 5 0 5 0 4 0 5 0 5 0 
5 0 5 0 5 0 4 0 5 0 5 0 5 0 5 0 
4 0 5 0 5 0 5 0 5 0 4 0 5 0 5 0 
5 0 5 0 5 0 4 0 5 0 5 0 5 0 5 0 
4 0 5 0 5 0 5 0 5 0 4 0 5 0 5 0 
5 0 5 0 5 0 4 0 5 0 5 0 1011 2846 103 MP stroke
24 w
/c9 { 0.000000 0.000000 1.000000 sr} bdef
c9
96 0 141 0 35 0 9 0 9 0 61 0 15 0 16 0 
24 0 6 0 10 0 16 0 4 0 4 0 19 0 22 0 
7 0 1 0 1 0 8 0 8 0 3 0 20 0 4 0 
4 0 15 0 1 0 5 0 4 0 2 0 4 0 22 0 
5 0 4 0 7 0 7 0 8 0 15 0 2 0 3 0 
5 0 1 0 2 0 5 0 7 0 3 0 9 0 1 0 
4 0 10 0 1 0 1 0 6 0 1 0 1 0 1 0 
1 0 6 0 1 0 2 0 7 0 2 0 4 0 1 0 
1 0 1 0 5 0 4 0 3 0 5 0 3 0 2 0 
9 0 18 0 5 0 1 0 6 0 2 0 9 0 2 0 
2 0 3 0 2 0 1 0 6 0 5 0 3 0 1 0 
3 0 3 0 2 0 4 0 2 0 1 0 1 0 3 0 
3 0 1 0 3 0 1 0 11 0 6 0 8 0 1 0 
4 0 7 0 2 0 2 0 4 0 3 0 3 0 4 0 
3 0 6 0 3 0 3 0 5 0 6 0 7 0 4 0 
10 0 1 0 2 0 1 0 9 0 2 0 4 0 1 0 
2 0 11 0 1 0 2 0 2 0 1 0 5 0 1 0 
2 0 4 0 1 0 8 0 3 0 1 0 2 0 2 0 
6 0 2 0 2 0 7 0 2 0 2 0 1 0 1 0 
1 0 3 0 10 0 1 0 8 0 6 0 3 0 2 0 
1 0 1 0 1 0 1 0 4 0 1 0 5 0 4 0 
1 0 5 0 1 0 7 0 7 0 2 0 4 0 7 0 
4 0 10 0 4 0 1 0 4 0 3 0 4 0 12 0 
2 0 1 0 5 0 4 0 2 0 1 1 5 0 11 0 
6 0 1 0 1 0 3 0 3 0 4 0 2 0 1 0 
1 0 1 0 2 0 1 0 1 0 3 0 4 0 7 0 
5 0 2 0 1 0 1 0 1 0 1 0 1 0 1 0 
6 0 5 0 2 0 2 0 5 0 5 0 4 0 2 0 
1 0 1 0 14 0 1 0 8 0 1 0 3 0 2 0 
1 0 1 0 2 0 3 0 2 0 4 0 1 0 1 0 
4 0 1 0 10 0 5 0 1 0 1 0 1 0 1 0 
6 0 3 0 1 0 1 0 1 0 2 0 1 0 2 0 
7 0 2 0 1 0 8 0 2 0 4 0 5 0 2 0 
2 0 4 0 2 0 4 0 10 0 3 0 6 0 2 0 
11 0 1 0 3 0 4 0 1 0 5 0 2 0 1 0 
2 0 5 0 3 0 2 0 1 0 6 0 3 0 3 0 
1 0 3 0 4 0 5 0 1 0 3 0 2 0 2 0 
2 0 2 0 1 0 4296 4615 300 MP stroke
1 0 2 0 1 0 1 0 1 0 1 0 4 0 5 0 
1 0 2 0 3 0 4 0 4 0 1 0 1 0 1 0 
1 0 1 0 3 0 1 0 1 0 6 0 2 0 2 0 
8 0 2 0 5 1 1 0 7 0 1 0 1 0 1 0 
2 0 1 0 1 0 1 0 1 0 1 0 1 0 1 0 
1 0 1 0 2 0 2 0 1 0 1 0 1 0 1 0 
2 0 4 0 4 0 1 0 1 0 1 0 1 0 2 0 
1 0 1 0 1 0 1 0 1 0 1 0 2 0 1 0 
4 0 2 0 1 0 2 0 1 0 2 0 1 0 -1 0 
3 1 1 0 1 0 1 0 1 0 1 0 4 0 1 0 
1 0 3 0 1 0 1 0 1 0 3 0 1 0 1 0 
3 0 1 0 1 0 2 0 4 0 1 0 1 0 1 0 
1 0 1 0 1 0 1 0 2 0 1 0 1 0 1 0 
1 0 1 0 1 0 1 0 1 0 1 0 1 0 1 0 
1 0 1 0 2 0 1 1 1 0 2 0 1 0 2 0 
1 0 1 0 1 0 1 0 1 0 1 0 1 0 1 0 
1 0 1 0 2 0 1 0 1 0 1 0 1 0 1 0 
1 0 1 0 1 0 1 0 1 0 1 0 1 1 1 0 
1 0 1 0 1 0 1 0 1 0 1 0 1 0 1 0 
1 0 1 0 2 0 1 0 1 0 1 0 1 0 1 0 
1 0 1 0 1 0 1 0 1 1 1 0 1 0 1 0 
1 0 1 0 1 0 1 0 1 0 1 0 1 0 1 0 
1 0 1 0 1 0 1 0 1 0 1 0 1 0 1 0 
1 0 1 1 1 0 1 0 1 0 1 0 1 0 1 0 
1 0 1 0 1 0 1 0 1 0 1 0 1 0 1 0 
1 1 1 0 1 0 1 0 1 0 1 0 1 0 1 0 
1 0 1 0 1 0 1 0 1 0 1 0 1 0 1 0 
1 0 1 0 1 0 1 1 1 0 1 0 1 0 1 0 
1 0 1 0 1 0 1 0 1 0 1 0 1 0 1 0 
1 1 1 0 1 0 1 0 1 0 1 0 1 0 1 0 
1 0 1 0 1 0 1 0 1 1 1 0 1 0 1 0 
1 0 1 0 1 0 1 0 1 0 1 0 1 0 1 0 
1 0 1 1 1 0 1 0 1 0 1 0 1 0 1 0 
1 0 1 0 1 0 1 1 1 0 1 0 1 0 1 0 
1 0 1 0 1 0 1 0 1 0 1 1 1 0 1 0 
1 0 1 0 1 0 1 0 1 0 1 0 1 1 1 0 
1 0 1 0 1 0 1 0 1 0 1 1 1 0 1 0 
1 0 1 0 1 0 3916 4600 300 MP stroke
1 0 1 1 1 0 1 0 1 0 1 0 1 0 1 1 
1 0 1 0 1 0 1 0 1 0 1 0 1 0 1 1 
1 0 1 0 1 0 1 0 1 0 1 0 1 1 1 0 
1 0 1 0 1 0 1 0 1 1 1 0 1 0 1 0 
1 0 1 0 1 0 1 1 1 0 1 0 1 0 1 0 
1 1 1 0 1 0 1 0 1 0 1 1 1 0 1 0 
1 0 1 0 1 1 1 0 1 0 1 0 1 0 1 0 
1 1 1 0 1 0 1 0 1 1 1 0 1 0 1 0 
1 1 1 0 1 0 1 0 1 0 1 0 1 1 1 0 
1 0 1 0 1 1 1 0 1 0 1 0 1 1 1 0 
1 0 1 0 1 1 1 0 1 0 1 0 1 1 1 0 
1 0 1 0 1 1 1 0 1 0 1 1 1 0 1 0 
1 0 1 1 1 0 1 0 1 0 1 0 1 1 1 0 
1 0 1 1 1 0 1 0 1 0 1 1 1 0 1 0 
1 0 1 1 1 0 1 0 1 1 1 0 1 0 1 1 
1 0 1 0 1 1 1 0 1 0 1 0 1 1 1 0 
1 1 1 0 1 0 1 1 1 0 1 0 1 1 1 0 
1 0 1 1 1 0 1 1 1 0 1 0 1 1 1 0 
1 0 1 1 1 0 1 0 1 1 1 0 1 1 1 0 
1 0 1 1 1 0 1 0 1 1 1 0 1 0 1 1 
1 0 1 1 1 0 1 1 1 0 1 0 1 1 1 0 
1 1 1 0 1 1 1 0 1 1 1 0 1 1 1 0 
1 0 1 1 1 1 1 0 1 1 1 0 1 1 1 0 
1 1 1 0 1 1 1 0 1 1 1 0 1 0 1 1 
1 1 1 0 1 0 1 1 1 0 1 1 1 0 1 1 
1 0 1 1 1 0 1 1 1 0 1 1 1 0 1 1 
1 0 1 1 1 0 1 1 1 0 1 1 1 0 1 1 
1 0 1 1 1 1 1 0 1 1 1 0 1 1 1 0 
1 1 1 1 1 0 1 1 1 1 1 0 1 1 1 1 
1 0 1 1 1 0 1 1 1 1 1 0 1 1 1 1 
1 0 1 1 1 1 1 0 1 1 1 1 1 0 1 1 
1 1 1 0 1 1 1 1 1 0 1 1 1 0 1 1 
1 1 1 0 1 1 1 1 1 1 1 0 1 1 1 1 
1 1 1 0 1 1 1 1 1 0 1 1 1 1 1 1 
1 1 1 1 1 0 1 1 1 1 1 1 1 1 1 1 
1 0 1 1 1 1 1 1 1 1 1 1 1 0 1 1 
1 1 1 1 1 1 1 1 1 0 1 1 1 1 1 1 
1 1 1 1 1 1 3617 4473 300 MP stroke
1 1 1 0 1 1 1 1 1 1 1 1 1 1 1 1 
1 1 1 1 1 1 1 0 1 1 1 1 1 1 1 1 
1 1 1 1 1 1 1 0 1 1 1 1 0 1 2 2 
1 0 1 1 1 1 0 1 2 2 1 1 1 0 -1 0 
2 2 1 0 1 1 1 1 1 1 1 1 1 1 1 1 
1 1 1 1 1 1 1 1 1 1 1 1 1 1 1 1 
1 1 1 1 1 1 1 1 1 1 1 1 1 1 1 1 
1 1 1 1 1 1 1 1 1 1 1 1 0 1 2 2 
1 1 1 1 1 1 0 1 2 2 1 1 1 1 1 1 
1 1 1 1 1 1 0 1 2 2 1 1 1 1 0 1 
2 2 1 1 1 1 1 1 1 1 0 1 2 2 1 1 
0 1 2 2 1 1 0 1 2 2 1 1 1 1 1 1 
1 1 0 1 2 2 1 1 0 1 2 2 0 1 2 2 
1 1 1 1 1 1 1 1 0 1 2 2 1 1 0 1 
2 2 1 1 0 1 2 2 1 1 1 1 1 1 0 1 
2 2 0 1 2 2 1 1 1 1 0 1 2 2 0 1 
2 2 1 1 0 1 2 2 0 1 2 2 0 1 2 2 
1 1 0 1 2 2 0 1 2 2 1 1 0 1 2 2 
0 1 2 2 0 1 2 2 0 1 2 2 0 1 2 2 
0 1 2 2 0 1 2 2 0 1 2 2 1 1 1 1 
0 2 2 2 0 1 2 2 0 1 2 2 0 1 2 2 
0 2 2 2 0 1 2 2 0 1 2 2 0 1 2 2 
0 2 2 2 0 1 2 2 0 1 2 2 0 1 2 2 
0 1 2 2 0 1 2 2 1 1 0 2 2 2 0 1 
2 2 0 2 2 2 0 1 2 2 0 1 2 2 0 2 
2 2 0 1 2 2 0 1 2 2 1 1 0 2 2 2 
1 1 0 2 2 2 0 1 2 2 0 2 2 2 1 1 
0 2 2 2 0 1 2 2 1 1 0 2 2 2 0 1 
2 2 0 2 2 2 0 1 2 2 0 2 2 2 0 2 
2 2 0 1 2 2 0 2 2 2 0 1 2 2 0 2 
2 2 0 1 2 2 0 2 2 2 1 1 0 2 2 2 
0 2 2 2 0 1 2 2 0 2 2 2 0 1 2 2 
0 2 2 2 1 1 0 2 2 2 0 2 2 2 0 1 
2 2 0 2 2 2 0 1 2 2 0 2 2 2 1 1 
0 2 2 2 1 1 0 2 2 2 0 2 1 1 1 1 
0 2 2 2 0 1 1 1 1 1 0 2 2 2 0 2 
2 2 0 2 2 2 0 2 2 2 0 2 2 2 0 1 
2 2 0 2 2 2 3321 4051 300 MP stroke
0 2 2 2 0 2 2 2 0 2 2 2 1 1 0 2 
2 2 1 1 0 3 2 2 0 2 2 2 1 1 0 3 
2 2 0 2 2 2 0 2 2 2 1 1 0 2 2 2 
0 2 2 2 0 2 2 2 0 2 2 2 0 2 2 2 
0 1 2 2 0 2 2 2 0 2 2 2 0 2 2 2 
0 2 2 2 0 2 2 2 0 2 2 2 1 1 0 2 
2 2 0 2 1 1 1 1 0 2 2 2 0 2 2 2 
0 2 2 2 0 2 2 2 0 2 2 2 0 2 2 2 
0 2 2 2 0 2 2 2 0 2 2 2 0 2 1 1 
0 1 2 2 0 2 2 2 0 2 2 2 0 2 2 2 
0 2 2 2 0 2 2 2 1 1 0 2 2 2 0 2 
2 2 0 2 2 2 0 2 2 2 0 2 2 2 0 2 
2 2 0 2 2 2 0 2 2 2 0 2 2 2 0 2 
2 2 0 2 2 2 0 2 2 2 0 2 2 2 0 2 
2 2 0 2 2 2 0 2 2 2 0 2 2 2 0 3 
2 2 0 2 2 2 0 2 2 2 0 2 2 2 0 2 
2 2 0 2 2 2 0 2 2 2 0 2 2 2 0 2 
2 2 0 2 2 2 0 2 2 2 1 1 0 2 1 1 
0 2 2 2 0 2 2 2 0 2 2 2 0 2 2 2 
0 1 2 2 0 2 2 2 0 2 2 2 0 2 2 2 
1 1 0 2 1 1 0 1 1 1 1 1 0 2 2 2 
0 2 2 2 0 2 2 2 1 1 0 2 1 1 0 2 
2 2 0 2 2 2 0 1 2 2 0 2 2 2 0 2 
2 2 0 2 2 2 0 2 2 2 0 1 2 2 0 2 
2 2 0 2 2 2 0 1 2 2 0 2 2 2 0 2 
2 2 0 2 2 2 0 2 2 2 0 2 2 2 0 2 
2 2 0 2 2 2 0 2 2 2 0 2 2 2 0 2 
2 2 1 1 0 2 2 2 0 1 2 2 0 2 2 2 
0 2 2 2 0 1 2 2 0 2 2 2 0 2 2 2 
0 2 2 2 0 2 2 2 0 1 2 2 0 2 2 2 
0 2 2 2 0 2 2 2 0 1 2 2 0 2 2 2 
0 2 2 2 0 2 2 2 0 2 2 2 1 1 0 2 
2 2 0 1 2 2 0 2 2 2 0 2 2 2 0 1 
2 2 0 2 2 2 0 2 2 2 0 1 2 2 0 2 
2 2 0 2 2 2 1 1 0 2 2 2 0 2 2 2 
0 1 2 2 0 2 2 2 0 1 2 2 0 2 2 2 
0 1 2 2 1 1 0 2 2 2 0 1 2 2 0 2 
2 2 0 1 2 2 3028 3490 300 MP stroke
0 1 2 2 0 1 2 2 0 2 2 2 1 1 0 2 
2 2 0 1 2 2 0 1 2 2 0 2 2 2 0 1 
2 2 1 1 0 2 2 2 1 1 0 2 2 2 1 1 
0 2 2 2 1 1 0 2 2 2 0 1 2 2 0 1 
2 2 0 2 2 2 1 1 0 2 2 2 0 1 2 2 
0 1 2 2 0 1 2 2 0 1 2 2 1 1 0 2 
2 2 1 1 0 2 2 2 1 1 1 1 0 2 2 2 
0 1 2 2 1 1 0 2 2 2 1 1 0 2 2 2 
1 1 0 2 2 2 0 1 2 2 1 1 0 2 2 2 
0 1 2 2 0 1 2 2 0 1 2 2 1 1 1 1 
0 2 2 2 1 1 0 2 2 2 0 1 2 2 0 1 
2 2 1 1 0 1 2 2 0 1 2 2 0 1 2 2 
1 1 0 1 2 2 0 1 2 2 1 1 0 1 2 2 
0 1 2 2 0 1 2 2 1 1 0 1 2 2 0 1 
2 2 0 1 2 2 0 1 2 2 0 1 2 2 0 1 
2 2 0 1 2 2 1 1 0 1 2 2 1 1 0 1 
2 2 0 1 2 2 1 1 0 1 2 2 0 1 2 2 
1 1 1 1 0 1 2 2 0 1 2 2 1 1 0 1 
2 2 1 1 1 1 0 1 2 2 1 1 1 1 1 1 
0 1 2 2 0 1 2 2 1 1 1 1 0 1 2 2 
1 1 1 1 1 1 1 1 1 1 0 1 2 2 1 1 
1 1 1 1 0 1 2 2 1 1 1 1 1 1 1 1 
0 1 2 2 1 1 1 1 1 1 1 1 1 1 1 1 
1 1 0 1 2 2 1 1 1 1 1 1 0 1 2 2 
1 1 1 1 1 1 0 1 2 2 1 1 1 1 1 1 
1 1 1 1 0 1 2 2 1 1 1 1 1 1 1 1 
1 1 1 1 1 1 1 1 1 1 0 1 2 2 1 1 
1 1 1 1 1 1 0 1 2 2 1 1 1 1 1 0 
-1 0 2 2 1 1 1 1 0 1 2 2 1 1 1 0 
-1 0 2 2 1 0 -1 0 2 2 1 1 1 1 1 1 
1 1 1 1 1 1 1 1 1 1 1 1 1 1 1 1 
1 1 1 1 1 1 1 1 1 1 1 1 1 1 1 1 
1 1 1 1 1 1 1 1 1 1 1 1 1 1 1 1 
1 1 1 1 1 1 1 1 1 1 1 1 1 1 1 1 
0 1 2 2 1 0 1 1 1 1 1 1 1 1 1 1 
1 1 1 1 1 1 1 1 1 1 1 1 1 1 1 1 
1 1 1 1 1 1 1 1 1 1 1 0 1 1 1 1 
1 1 1 1 1 0 2732 3105 300 MP stroke
1 1 1 1 1 1 1 1 1 1 1 0 -1 0 2 2 
1 1 1 0 1 1 1 1 1 1 1 1 1 1 1 1 
1 1 1 1 1 1 1 1 1 0 1 1 1 1 1 1 
1 1 1 0 1 1 1 1 1 1 1 0 1 1 1 1 
1 0 1 1 1 1 1 1 1 1 1 1 1 0 1 1 
1 1 1 1 1 1 1 1 1 0 1 1 1 1 1 1 
1 0 1 1 1 1 1 0 1 1 1 1 1 1 1 1 
1 1 1 0 1 1 1 1 1 1 1 0 1 1 1 1 
1 0 1 1 1 1 1 1 1 1 1 0 1 1 1 1 
1 0 1 1 1 0 1 1 1 1 1 1 1 1 1 0 
1 1 1 1 1 1 1 0 1 1 1 1 1 0 1 1 
1 1 1 0 1 1 1 1 1 0 1 1 1 1 1 1 
1 0 1 1 1 1 1 0 1 1 1 1 1 0 1 1 
1 1 1 0 1 1 1 1 1 0 1 1 1 1 1 1 
1 0 1 1 1 1 1 0 1 1 1 1 1 0 1 1 
1 0 1 1 1 1 1 0 1 1 1 0 1 1 1 0 
1 1 1 0 1 1 1 0 1 1 1 0 1 1 1 1 
1 0 1 1 1 0 1 1 1 0 1 1 1 1 1 0 
1 1 1 1 1 0 1 1 1 1 1 0 1 1 1 0 
1 1 1 0 1 1 1 0 1 1 1 1 1 0 1 1 
1 0 1 1 1 0 1 1 1 0 1 1 1 0 1 1 
1 0 1 1 1 0 1 1 1 0 1 1 1 0 1 1 
1 0 1 1 1 1 1 0 1 1 1 0 1 1 1 0 
1 1 1 0 1 1 1 0 1 1 1 0 1 1 1 0 
1 1 1 0 1 1 1 0 1 1 1 0 1 1 1 0 
1 1 1 0 1 1 1 0 1 1 1 0 1 0 1 1 
1 0 1 1 1 0 1 1 1 0 1 1 1 0 1 1 
1 0 1 0 1 1 1 0 1 1 1 0 1 1 1 0 
1 1 1 0 1 1 1 0 1 1 1 0 1 0 1 1 
1 0 1 1 1 0 1 0 1 1 1 1 1 0 1 0 
1 1 1 0 1 1 1 0 1 0 1 1 1 0 1 1 
1 0 1 1 1 0 1 0 1 1 1 0 1 1 1 0 
1 1 1 0 1 0 1 1 1 0 1 1 1 0 1 0 
1 1 1 0 1 0 1 1 1 0 1 1 1 0 1 0 
1 1 1 0 1 0 1 1 1 0 1 0 1 1 1 0 
1 0 1 1 1 0 1 0 1 1 1 0 1 1 1 0 
1 0 1 1 1 0 1 1 1 0 1 0 1 1 1 0 
1 0 1 1 1 0 2434 2930 300 MP stroke
1 1 1 0 1 0 1 1 1 0 1 0 1 1 1 0 
1 0 1 1 1 0 1 0 1 1 1 0 1 0 1 1 
1 0 1 0 1 1 1 0 1 1 1 0 1 0 1 1 
1 0 1 0 1 1 1 0 1 0 1 1 1 0 1 0 
1 0 1 1 1 0 1 1 1 0 1 0 1 0 1 1 
1 0 1 0 1 0 1 1 1 0 1 0 1 0 1 1 
1 0 1 1 1 0 1 0 1 1 1 0 1 0 1 0 
1 1 1 0 1 0 1 1 1 0 1 0 1 1 1 0 
1 0 1 0 1 1 1 0 1 0 1 1 1 0 1 0 
1 0 1 1 1 0 1 0 1 0 1 1 1 0 1 0 
1 0 1 1 1 0 1 0 1 0 1 1 1 0 1 0 
1 1 1 0 1 0 1 1 1 0 1 0 1 0 1 0 
1 0 1 1 1 0 1 0 1 1 1 0 1 0 1 0 
1 0 1 0 1 1 1 0 1 0 1 0 1 1 1 0 
1 0 1 0 1 0 1 1 1 0 1 0 1 0 1 1 
1 0 1 0 1 0 1 0 1 0 1 1 1 0 1 0 
1 0 1 1 1 0 1 0 1 0 1 0 1 0 1 1 
1 0 1 0 1 0 1 0 1 0 1 1 1 0 1 0 
1 0 1 0 1 1 1 0 1 0 1 0 1 0 1 0 
1 0 1 1 1 0 1 0 1 0 1 0 1 1 1 0 
1 0 1 0 1 0 1 1 1 0 1 0 1 0 1 0 
1 1 1 0 1 0 1 0 1 0 1 1 1 0 1 0 
1 0 1 0 1 0 1 1 1 0 1 0 1 0 1 0 
1 0 1 0 1 0 1 1 1 0 1 0 1 0 1 0 
1 0 1 1 1 0 1 0 1 0 1 0 1 1 1 0 
1 0 1 0 1 0 1 0 1 1 1 0 1 0 1 0 
1 0 1 0 1 0 1 0 1 1 1 0 1 0 1 0 
1 0 1 0 1 0 1 0 1 0 1 1 1 0 1 0 
1 0 1 0 1 0 1 0 1 1 1 0 1 0 1 0 
1 0 1 0 1 0 1 1 1 0 1 0 1 0 1 0 
1 0 1 0 1 0 1 1 1 0 1 0 1 0 1 0 
1 0 1 0 1 0 1 0 1 1 1 0 1 0 1 0 
1 0 1 0 1 0 1 0 1 1 1 0 1 0 1 0 
1 0 1 0 1 0 1 1 1 0 1 0 1 0 1 0 
1 0 1 0 1 0 1 0 1 1 1 0 1 0 1 0 
1 0 1 0 1 0 1 0 1 0 1 0 1 1 1 0 
1 0 1 0 1 0 1 0 1 0 1 0 1 1 1 0 
1 0 1 0 1 0 2135 2869 300 MP stroke
1 0 1 0 1 0 1 0 1 0 1 0 1 1 1 0 
1 0 1 0 1 0 1 0 1 0 1 0 1 0 1 0 
1 0 1 1 1 0 1 0 1 0 1 0 1 0 1 0 
1 0 1 0 1 1 1 0 1 0 1 0 1 0 1 0 
1 0 1 0 1 0 1 0 1 1 1 0 1 0 1 0 
1 0 1 0 1 0 1 0 1 0 1 0 1 1 1 0 
1 0 1 0 1 0 1 0 1 0 1 0 1 0 1 0 
1 0 1 0 1 1 1 0 1 0 1 0 1 0 1 0 
1 0 1 0 1 0 1 0 1 0 1 0 1 0 1 0 
1 1 1 0 1 0 1 0 1 0 1 0 1 0 1 0 
1 0 1 0 1 0 1 0 1 0 1 0 1 1 1 0 
1 0 1 0 1 0 1 0 1 0 2 0 1 0 1 0 
1 0 1 0 1 0 1 0 1 0 1 0 1 0 1 0 
1 1 1 0 1 0 1 0 1 0 1 0 1 0 1 0 
1 0 1 0 1 0 1 0 1 0 1 1 1 0 1 0 
1 0 1 0 1 0 1 0 1 0 1 0 1 0 1 0 
1 0 1 0 1 0 1 1 1 0 1 0 1 0 1 0 
2 0 1 0 1 0 1 0 1 0 1 0 1 0 1 0 
1 0 1 0 1 0 1 0 1 0 1 0 1 0 1 0 
1 0 1 1 1 0 1 0 2 0 1 0 1 0 1 0 
1 0 1 0 1 0 1 0 1 0 1 0 1 0 1 0 
1 0 1 0 1 0 1 0 1 1 1 0 1 0 1 0 
1 0 1 0 1 0 1 0 1 0 1 0 1 0 1 0 
1 0 1 0 1 0 1 0 1 0 1 0 1 1 1 0 
1 0 1 0 1 0 1 0 1 0 1 0 1 0 1 0 
1 0 1 0 1 0 1 0 1 0 1 0 1 0 1 0 
1 0 1 1 1 0 1 0 1 0 2 0 1 0 1 0 
1 0 1 0 2 0 3 0 1 0 2 0 1 0 1 0 
1 0 1 0 2 0 2 0 1 0 1 0 1 0 3 0 
1 0 1 0 3 0 1 1 1 0 1 0 1 0 1 0 
1 0 1 0 1 0 1 0 1 0 2 0 1 0 1 0 
1 0 1 0 1 0 1 0 1 0 1 0 1 0 1 0 
1 0 2 0 1 0 2 0 1 0 1 1 1 0 1 0 
1 0 1 0 1 0 1 0 1 0 1 0 1 0 1 0 
1 0 1 0 1 0 1 0 1 0 1 0 1 0 1 0 
1 0 1 0 1 0 1 0 2 0 2 0 1 1 1 0 
3 0 1 0 1 0 1 0 1 0 1 0 1 0 1 0 
1 0 1 0 1 0 1815 2851 300 MP stroke
1 0 1 0 1 0 2 0 1 0 1 0 2 0 1 0 
3 0 1 0 1 0 1 0 1 0 1 0 1 0 1 0 
1 0 2 0 1 1 1 0 1 0 1 0 1 0 1 0 
1 0 2 0 1 0 1 0 1 0 2 0 2 0 1 0 
1 0 1 0 1 0 1 0 1 0 1 0 1 0 2 0 
1 0 1 0 1 0 1 0 1 0 1 0 1 0 1 0 
1 1 1 0 1 0 1 0 2 0 1 0 1 0 1 0 
1 0 2 0 1 0 1 0 2 0 2 0 1 0 1 0 
1 0 1 0 1 0 3 0 3 0 1 0 2 0 4 0 
1 0 1 0 5 0 3 0 1 0 1 0 2 0 1 0 
1 0 -1 0 3 1 2 0 5 0 1 0 2 0 2 0 
2 0 1 0 2 0 2 0 1 0 2 0 1 0 1 0 
1 0 3 0 1 0 2 0 2 0 1 0 2 0 1 0 
2 0 1 0 2 0 1 0 1 0 1 0 2 0 1 0 
2 0 1 0 2 0 2 0 1 0 2 0 2 0 1 0 
2 0 2 0 3 0 2 0 1 1 3 0 3 0 1 0 
1 0 1 0 1 0 2 0 1 0 1 0 3 0 1 0 
2 0 4 0 1 0 1 0 5 0 1 0 4 0 6 0 
6 0 2 0 5 0 1 0 4 0 3 0 1 0 4 0 
1 0 2 0 1 0 1 0 2 0 2 0 5 0 3 0 
2 0 5 0 1 0 1 0 1 0 1 0 1 0 1 0 
3 0 4 1 1 0 1 0 6 0 6 0 1 0 1 0 
3 0 2 0 1 0 6 0 3 0 1 0 1 0 1 0 
3 0 2 0 5 0 2 0 10 0 6 0 1 0 1 0 
5 0 1 0 1 0 4 0 3 0 1 0 5 0 7 0 
11 0 10 0 6 0 7 0 11 0 9 0 6 0 4 0 
6 0 13 0 2 0 7 0 14 0 4 0 8 0 3 0 
8 0 11 0 7 0 36 0 15 0 7 0 38 0 14 0 
14 0 66 0 33 0 7 0 49 0 1011 2846 230 MP stroke
SO
6 w
c8
5 0 5 0 5 0 4 -1 5 0 5 0 5 0 5 -1 
5 0 4 0 5 -1 5 0 5 0 5 -1 4 0 5 0 
5 -1 5 0 5 -1 4 0 5 0 5 -1 5 0 5 -1 
5 0 4 -1 5 0 5 -1 5 0 5 -1 4 0 5 -1 
5 0 5 -1 5 -1 4 0 5 -1 5 0 5 -1 5 -1 
5 0 4 -1 5 -1 5 0 5 -1 5 -1 4 -1 5 -1 
5 0 5 -1 5 -1 4 -1 5 -1 5 -1 5 -1 5 -1 
5 -1 4 -1 5 -1 5 -1 5 -1 5 -1 4 -1 5 -2 
5 -1 5 -1 5 -1 4 -2 5 -1 5 -1 5 -2 5 -1 
4 -2 5 -2 5 -1 5 -2 5 -2 5 -1 4 -2 5 -2 
5 -2 5 -2 5 -2 4 -2 5 -2 5 -2 5 -2 5 -2 
4 -3 5 -2 5 -2 5 -2 5 -3 5 -2 4 -3 5 -2 
5 -3 5 -2 5 -3 4 -2 5 -3 5 -3 5 -2 5 -3 
4 -3 5 -3 5 -2 5 -3 5 -3 5 -3 4 -3 5 -3 
5 -3 5 -3 5 -3 4 -3 5 -4 5 -3 5 -3 5 -3 
4 -4 5 -3 5 -4 5 -3 5 -4 4 -3 5 -4 5 -4 
5 -3 5 -4 5 -4 4 -4 5 -4 5 -4 5 -4 5 -4 
4 -4 5 -4 5 -4 5 -5 5 -4 4 -4 5 -5 5 -4 
5 -5 5 -4 5 -5 4 -4 5 -5 5 -5 5 -4 5 -5 
4 -5 5 -5 5 -5 5 -5 5 -5 4 -5 5 -6 5 -5 
5 -5 5 -6 5 -5 4 -6 5 -5 5 -6 5 -5 5 -6 
4 -6 5 -6 5 -6 5 -6 5 -6 4 -6 5 -6 5 -6 
5 -6 5 -6 5 -7 4 -6 5 -6 5 -7 5 -6 5 -7 
4 -6 5 -7 5 -6 5 -7 5 -6 4 -7 5 -6 5 -7 
5 -7 5 -6 4 -7 5 -7 5 -6 5 -7 5 -7 5 -7 
4 -7 5 -6 5 -7 5 -7 5 -7 4 -7 5 -6 5 -7 
5 -7 5 -7 4 -7 5 -6 5 -7 5 -7 5 -7 5 -6 
4 -7 5 -7 5 -7 5 -7 5 -6 4 -7 5 -7 5 -7 
5 -6 5 -7 4 -7 5 -7 5 -6 5 -7 5 -7 5 -7 
4 -7 5 -6 5 -7 5 -7 5 -7 4 -7 5 -7 5 -7 
5 -7 5 -7 4 -6 5 -7 5 -7 5 -7 5 -7 4 -7 
5 -7 5 -7 5 -7 5 -7 5 -7 4 -7 5 -7 5 -7 
5 -7 5 -7 4 -7 5 -7 5 -7 5 -6 5 -7 4 -7 
5 -7 5 -7 5 -6 5 -7 5 -7 4 -6 5 -7 5 -7 
5 -6 5 -7 4 -6 5 -7 5 -7 5 -6 5 -7 4 -7 
5 -6 5 -7 5 -7 5 -7 5 -6 4 -7 5 -7 5 -7 
5 -7 5 -6 4 -7 5 -7 5 -6 5 -7 5 -6 4 -6 
5 -6 5 -6 5 -6 4379 4103 300 MP stroke
5 -6 5 -6 4 -6 5 -6 5 -5 5 -6 5 -5 4 -6 
5 -5 5 -6 5 -5 5 -5 4 -5 5 -6 5 -5 5 -5 
5 -5 4 -4 5 -5 5 -5 5 -5 5 -5 5 -4 4 -5 
5 -4 5 -5 5 -4 5 -5 4 -4 5 -5 5 -4 5 -4 
5 -5 4 -4 5 -4 5 -4 5 -5 5 -4 5 -4 4 -4 
5 -4 5 -4 5 -4 5 -4 4 -4 5 -4 5 -4 5 -4 
5 -4 4 -3 5 -4 5 -4 5 -4 5 -3 5 -4 4 -4 
5 -3 5 -4 5 -3 5 -4 4 -3 5 -4 5 -3 5 -4 
5 -3 4 -3 5 -3 5 -4 5 -3 5 -3 5 -3 4 -3 
5 -3 5 -3 5 -3 5 -3 4 -3 5 -3 5 -3 5 -2 
5 -3 4 -3 5 -2 5 -3 5 -3 5 -2 4 -3 5 -2 
5 -2 5 -3 5 -2 5 -2 4 -3 5 -2 5 -2 5 -2 
5 -3 4 -2 5 -2 5 -2 5 -2 5 -2 4 -2 5 -2 
5 -2 5 -2 5 -1 5 -2 4 -2 5 -2 5 -2 5 -1 
5 -2 4 -2 5 -2 5 -1 5 -2 5 -2 4 -1 5 -2 
5 -1 5 -2 5 -2 5 -1 4 -2 5 -1 5 -2 5 -1 
5 -2 4 -1 5 -1 5 -2 5 -1 5 -2 4 -1 5 -1 
5 -2 5 -1 5 -1 4 -2 5 -1 5 -1 5 -1 5 -1 
5 -2 4 -1 5 -1 5 -1 5 -1 5 -1 4 -1 5 -1 
5 -1 5 -1 5 -1 4 -1 5 -1 5 -1 5 -1 5 -1 
5 -1 4 0 5 -1 5 -1 5 -1 5 -1 4 0 5 -1 
5 -1 5 -1 5 0 4 -1 5 -1 5 0 5 -1 5 -1 
5 0 4 -1 5 0 5 -1 5 -1 5 0 4 -1 5 0 
5 -1 5 0 5 -1 4 0 5 -1 5 0 5 -1 5 0 
5 -1 4 0 5 -1 5 0 5 -1 5 0 4 0 5 -1 
5 0 5 -1 5 0 4 -1 5 0 5 0 5 -1 5 0 
4 0 5 -1 5 0 5 0 5 -1 5 0 4 0 5 -1 
5 0 5 0 5 -1 4 0 5 0 5 0 5 -1 5 0 
4 0 5 -1 5 0 5 0 5 0 5 -1 4 0 5 0 
5 0 5 -1 5 0 4 0 5 0 5 0 5 -1 5 0 
4 0 5 0 5 0 5 -1 5 0 5 0 4 0 5 0 
5 0 5 -1 5 0 4 0 5 0 5 0 5 0 5 -1 
4 0 5 0 5 0 5 0 5 0 4 0 5 0 5 -1 
5 0 5 0 5 0 4 0 5 0 5 0 5 0 5 -1 
4 0 5 0 5 0 5 0 5 0 4 0 5 0 5 0 
5 0 5 0 5 -1 4 0 5 0 5 0 5 0 5 0 
4 0 5 0 5 0 5 0 5 0 4 0 5 0 5 -1 
5 0 5 0 5 0 2940 4613 300 MP stroke
4 0 5 0 5 0 5 0 5 0 4 0 5 0 5 0 
5 0 5 0 4 0 5 0 5 0 5 0 5 0 5 -1 
4 0 5 0 5 0 5 0 5 0 4 0 5 0 5 0 
5 0 5 0 4 0 5 0 5 0 5 0 5 0 4 0 
5 0 5 0 5 0 5 0 5 0 4 0 5 0 5 0 
5 0 5 0 4 0 5 0 5 0 5 0 5 -1 4 0 
5 0 5 0 5 0 5 0 5 0 4 0 5 0 5 0 
5 0 5 0 4 0 5 0 5 0 5 0 5 0 4 0 
5 0 5 0 5 0 5 0 5 0 4 0 5 0 5 0 
5 0 5 0 4 0 5 0 5 0 5 0 5 0 4 0 
5 0 5 0 5 0 5 0 5 0 4 0 5 0 5 0 
5 0 5 0 4 0 5 0 5 0 5 0 5 0 4 0 
5 0 5 0 5 0 5 0 4 0 5 0 5 0 5 0 
5 0 5 0 4 0 5 0 5 0 5 0 5 0 4 0 
5 0 5 0 5 0 5 0 4 0 5 0 5 0 5 0 
5 0 5 0 4 0 5 0 5 0 5 0 5 0 4 0 
5 0 5 0 5 0 5 0 4 0 5 0 5 0 5 0 
5 0 5 0 4 0 5 0 5 0 5 0 5 0 4 0 
5 0 5 0 5 0 5 0 4 0 5 0 5 0 5 0 
5 0 4 0 5 0 5 0 5 0 5 0 5 0 4 0 
5 0 5 0 5 0 5 0 4 0 5 0 5 0 5 0 
5 0 4 0 5 0 5 0 5 0 5 0 5 0 4 0 
5 0 5 0 5 0 5 0 4 0 5 0 5 0 5 0 
5 0 4 0 5 0 5 0 5 0 5 0 5 0 4 0 
5 0 5 0 5 0 5 0 4 0 5 0 5 0 5 0 
5 0 4 0 5 0 5 0 5 0 5 0 5 0 4 0 
5 0 5 0 5 0 5 0 4 0 5 0 5 0 5 0 
5 0 4 0 5 0 5 0 5 0 5 0 4 0 5 0 
5 0 5 0 5 0 5 0 4 0 5 0 5 0 5 0 
5 0 4 0 5 0 5 0 5 0 5 0 4 0 5 0 
5 0 5 0 5 0 5 0 4 0 5 0 5 0 5 0 
5 0 4 0 5 0 5 0 5 0 5 0 4 0 5 0 
5 0 5 0 5 0 5 0 4 0 5 0 5 0 5 0 
5 0 4 0 5 0 5 0 5 0 5 0 4 0 5 0 
5 0 5 0 5 0 4 0 5 0 5 0 5 0 5 0 
5 0 4 0 5 0 5 0 5 0 5 0 4 0 5 0 
5 0 5 0 5 0 4 0 5 0 5 0 5 0 5 0 
5 0 4 0 5 0 1502 4615 300 MP stroke
5 0 5 0 5 0 4 0 5 0 5 0 5 0 5 0 
4 0 5 0 5 0 5 0 5 0 5 0 4 0 5 0 
5 0 5 0 5 0 4 0 5 0 5 0 5 0 5 0 
4 0 5 0 5 0 5 0 5 0 5 0 4 0 5 0 
5 0 5 0 5 0 4 0 5 0 5 0 5 0 5 0 
4 0 5 0 5 0 5 0 5 0 4 0 5 0 5 0 
5 0 5 0 5 0 4 0 5 0 5 0 5 0 5 0 
4 0 5 0 5 0 5 0 5 0 4 0 5 0 5 0 
5 0 5 0 5 0 4 0 5 0 5 0 5 0 5 0 
4 0 5 0 5 0 5 0 5 0 4 0 5 0 5 0 
5 0 5 0 5 0 4 0 5 0 5 0 5 0 5 0 
4 0 5 0 5 0 5 0 5 0 4 0 5 0 5 0 
5 0 5 0 5 0 4 0 5 0 5 0 1011 4615 103 MP stroke
24 w
c9
96 -4 141 -4 35 -5 9 -4 9 -5 61 -4 15 -4 16 -5 
24 -4 6 -5 10 -4 16 -5 4 -4 4 -4 19 -5 22 -4 
7 -5 1 -4 1 -5 8 -4 8 -4 3 -5 20 -4 4 -5 
4 -4 15 -5 1 -4 5 -4 4 -5 2 -4 4 -5 22 -4 
5 -5 4 -4 0 -4 7 -5 7 -4 8 -5 15 -4 2 -5 
3 -4 0 -4 5 -5 1 -4 2 -5 5 -4 7 -4 3 -5 
9 -4 1 -5 4 -4 10 -5 1 -4 1 -4 6 -5 1 -4 
1 -5 1 -4 1 -5 6 -4 1 -4 2 -5 7 -4 2 -5 
4 -4 1 -5 1 -4 1 -4 5 -5 4 -4 3 -5 5 -4 
0 -5 3 -4 2 -4 9 -5 0 -4 18 -5 5 -4 0 -5 
1 -4 6 -4 2 -5 9 -4 2 -5 2 -4 3 -4 0 -5 
2 -4 1 -5 6 -4 5 -5 3 -4 1 -4 3 -5 0 -4 
3 -5 2 -4 0 -5 4 -4 2 -4 1 -5 1 -4 0 -5 
3 -4 3 -5 1 -4 3 -4 1 -5 11 -4 0 -5 6 -4 
8 -5 0 -4 1 -4 4 -5 7 -4 2 -5 2 -4 0 -5 
4 -4 3 -4 3 -5 4 -4 3 -5 6 -4 3 -4 3 -5 
5 -4 6 -5 7 -4 4 -5 10 -4 1 -4 2 -5 1 -4 
9 -5 2 -4 4 -5 1 -4 2 -4 11 -5 1 -4 2 -5 
2 -4 1 -5 5 -4 1 -4 2 -5 0 -4 4 -5 1 -4 
8 -5 0 -4 3 -4 0 -5 1 -4 0 -5 2 -4 2 -5 
6 -4 0 -4 2 -5 2 -4 7 -5 2 -4 0 -4 2 -5 
1 -4 1 -5 1 -4 3 -5 10 -4 1 -4 8 -5 6 -4 
0 -5 3 -4 2 -5 1 -4 1 -4 0 -5 1 -4 1 -5 
4 -4 1 -5 5 -4 4 -4 1 -5 5 -4 1 -5 0 -4 
7 -5 7 -4 2 -4 0 -5 4 -4 7 -5 4 -4 10 -5 
4 -4 0 -4 1 -5 4 -4 3 -5 4 -4 12 -4 2 -5 
1 -4 5 -5 0 -4 4 -5 2 -3 1 -1 5 -4 11 -5 
6 -4 0 -5 1 -9 1 -4 3 -4 3 -5 4 -4 2 -5 
0 -4 1 -5 1 -4 1 -4 2 -5 0 -4 1 -5 0 -4 
1 -5 3 -4 4 -4 7 -5 5 -4 2 -3 1 -2 1 -4 
0 -5 1 -4 1 -4 1 -5 1 -4 6 -5 5 -4 2 -4 
2 -5 5 -4 5 -5 4 -4 2 -5 1 -4 1 -4 14 -5 
1 0 8 -4 1 0 3 -5 2 -4 1 -5 1 -4 0 -4 
2 -5 3 -4 2 -5 4 -4 1 -5 1 -4 0 -4 4 -5 
0 -9 1 -3 0 -1 10 -5 5 -4 1 -4 1 -5 1 -1 
1 0 6 -3 0 -5 3 -4 1 -4 1 -1 0 -4 1 -4 
2 -5 0 -4 1 -2 2 -2 0 -1 7 -3 2 -1 1 -4 
8 -5 2 -1 4 -3 4415 4124 300 MP stroke
5 -5 2 -4 2 -5 4 -4 2 -1 4 -3 10 -5 3 0 
6 -2 2 0 11 -2 1 -5 3 -1 0 -1 4 -2 1 -5 
5 -4 2 -4 1 -5 2 -1 5 -2 3 -1 2 -5 1 0 
6 -3 3 -1 3 -2 1 0 -1 0 4 -3 4 -4 5 -4 
1 0 3 -3 2 -2 2 -2 2 -1 2 -1 1 -5 1 0 
2 -1 1 -1 1 -1 1 0 1 -1 4 -1 5 -1 1 0 
2 0 3 -1 4 0 4 -1 1 0 1 -1 1 0 0 -4 
1 -2 0 -1 1 -1 3 -3 1 -1 1 -1 6 -4 0 -5 
2 -4 0 -1 2 -4 8 -1 2 0 5 -1 1 0 7 -2 
1 0 1 0 1 0 2 -1 1 0 1 0 1 0 1 -1 
1 0 1 0 1 0 1 -1 1 0 2 0 2 -1 1 0 
1 0 1 -1 1 0 2 -1 4 -1 4 -1 1 0 1 0 
1 -1 1 0 -1 0 3 -3 0 -1 1 -5 1 -1 0 -2 
1 -1 0 -1 1 -3 1 -2 1 -1 0 -1 2 -1 1 -1 
4 -3 2 -1 0 -1 3 -2 1 -1 2 0 1 -1 2 0 
1 -1 1 0 1 0 1 -1 1 0 4 -1 1 0 1 -1 
3 0 1 -1 1 0 1 0 3 -1 1 0 1 -1 3 0 
1 -1 0 -1 1 -3 2 -1 4 -2 1 0 1 0 1 -1 
1 0 1 0 1 -1 1 0 2 -1 1 0 1 0 1 -1 
1 0 1 -1 1 0 1 0 1 -1 1 0 1 0 -1 0 
2 -3 1 -1 0 -3 1 -2 2 -3 1 -1 0 -1 1 -4 
2 -2 0 -1 1 -1 2 -1 1 0 1 -1 1 0 1 0 
1 -1 1 0 1 0 1 -1 1 0 1 -1 2 0 1 -1 
1 0 1 -1 1 0 1 -1 1 0 1 -1 1 0 1 0 
1 0 1 -1 1 0 1 0 1 0 1 0 1 -1 1 0 
1 0 1 0 1 0 1 0 1 -1 1 0 2 0 1 0 
1 -1 1 0 1 0 1 0 -1 0 2 -2 1 -1 1 -2 
1 0 -1 0 2 -2 0 -2 1 -1 1 0 1 -1 1 0 
1 -1 1 -1 1 0 1 -1 0 -3 1 -1 1 -1 1 0 
1 -1 1 -1 1 0 1 -1 1 0 -1 0 2 -4 0 -1 
1 -1 1 0 1 -1 1 -1 1 -1 1 0 1 -1 1 -1 
1 -1 1 -1 0 -1 2 -2 0 -1 1 -1 1 -1 1 -1 
1 -1 1 -1 1 -1 0 -1 1 -2 1 0 0 -1 0 1 
1 -5 1 -1 1 0 1 0 1 0 1 0 1 -1 1 0 
1 0 1 0 1 0 1 -1 1 0 1 0 1 0 1 -1 
1 0 1 0 1 0 1 -1 1 0 1 0 1 0 1 -1 
1 0 1 -1 1 -1 1 0 1 -1 1 -1 0 -2 2 -2 
0 -2 2 -2 1 0 3978 4434 300 MP stroke
1 -1 1 -1 1 0 1 -1 1 0 1 -1 1 -1 1 0 
1 0 1 0 1 -1 1 0 1 0 1 0 1 -1 1 0 
1 0 1 -1 1 0 1 0 1 0 1 -1 1 0 1 -1 
1 -1 1 -1 1 -1 1 -1 0 -3 1 -1 1 -1 1 -1 
1 -1 0 -1 2 -2 0 -2 1 -1 0 -3 1 0 1 -1 
1 0 1 0 1 -1 1 0 1 0 1 0 1 0 1 0 
1 -1 1 0 1 0 1 0 1 0 1 0 1 0 1 -1 
1 0 1 0 1 0 1 0 1 0 1 -1 1 0 1 0 
1 0 1 0 1 0 1 0 1 -1 1 -1 1 -1 1 -1 
1 -1 1 0 1 -1 1 0 1 -1 1 0 1 -1 1 0 
1 -1 1 0 0 -5 1 0 1 0 1 -1 1 0 1 0 
1 -1 1 0 1 -1 1 0 1 0 1 -1 1 0 1 -1 
1 -1 1 -1 1 -1 1 0 0 -2 2 -2 1 -1 1 -1 
1 0 1 0 1 0 1 -1 1 0 1 0 1 0 1 -1 
1 0 1 0 1 0 1 -1 1 0 1 0 1 0 1 -1 
1 0 1 0 1 0 1 0 1 0 1 0 1 0 1 0 
1 0 1 -1 1 0 1 0 1 0 1 0 1 0 1 0 
1 0 1 0 1 0 1 0 1 -1 1 0 1 0 1 0 
1 0 1 0 1 0 1 0 1 0 1 0 1 -1 1 0 
1 0 1 0 1 0 1 0 1 0 1 0 1 0 1 0 
1 0 1 -1 1 0 1 0 1 0 1 0 1 0 1 0 
1 0 1 -1 1 0 1 0 1 0 1 0 1 0 1 0 
1 0 1 -1 1 0 1 0 1 0 1 0 1 0 1 0 
1 -1 1 0 1 0 1 0 1 0 1 0 1 0 1 0 
1 -1 1 0 1 0 1 0 1 0 1 0 1 -1 1 0 
1 -1 1 -1 1 0 1 -1 1 -1 1 -1 0 -1 2 -2 
1 0 1 0 1 -1 1 0 1 0 1 0 1 0 1 -1 
1 0 1 0 1 0 1 0 1 0 1 -1 1 0 1 0 
1 0 1 0 1 -1 1 0 1 0 1 0 1 0 1 0 
1 -1 1 -1 1 -1 1 0 1 -1 1 -1 1 0 1 -1 
1 0 1 0 1 0 1 0 1 -1 1 0 1 0 1 0 
1 0 1 -1 1 0 1 0 1 0 1 -1 1 0 1 0 
1 0 1 -1 0 -3 1 -1 1 -1 1 -1 1 -1 1 -1 
1 0 1 -1 1 0 1 0 1 0 1 0 1 0 1 0 
1 0 1 -1 1 0 1 0 1 0 1 0 1 0 1 0 
1 -1 1 0 1 0 1 0 1 0 1 0 1 0 1 0 
1 -1 1 0 1 0 1 0 1 0 1 0 1 0 1 -1 
1 0 1 0 1 0 3684 4545 300 MP stroke
1 -1 1 0 1 0 1 -1 1 0 1 0 1 -1 1 0 
1 0 1 -1 1 0 1 0 1 -1 1 0 1 -1 1 0 
1 0 1 -1 1 0 1 -1 1 0 -1 0 2 -2 0 -2 
1 -1 0 -1 2 -2 1 -1 1 -1 1 0 1 0 1 0 
1 0 1 -1 1 0 1 0 1 0 1 0 1 0 1 -1 
1 0 1 0 1 0 1 0 1 -1 1 0 1 0 1 0 
1 0 1 -1 1 0 1 0 1 -1 1 0 1 -1 1 -1 
1 0 1 -1 1 0 1 0 1 -1 1 0 1 0 1 0 
1 0 1 0 1 0 1 -1 1 0 1 0 1 0 1 0 
1 0 1 0 1 0 1 -1 1 0 1 0 1 0 1 0 
1 0 1 0 1 -1 1 0 1 0 1 0 1 0 1 0 
1 0 1 0 1 -1 1 0 1 0 1 0 1 0 1 -1 
1 0 1 0 1 0 1 -1 1 0 1 0 1 0 1 -1 
1 0 1 0 1 0 1 -1 1 0 1 0 1 0 1 -1 
1 -1 1 0 1 -1 1 0 1 -1 1 0 1 -1 0 -1 
2 -2 1 -1 1 0 1 0 1 0 1 0 1 -1 1 0 
1 0 1 0 1 0 1 0 1 0 1 0 1 0 1 -1 
1 0 1 0 1 0 1 0 1 0 1 0 1 0 1 -1 
1 0 1 0 1 0 1 0 1 0 1 0 1 0 1 0 
1 -1 1 0 1 0 1 0 1 0 1 0 1 0 1 0 
1 0 1 -1 1 0 1 0 1 0 1 0 1 0 1 0 
1 0 1 0 1 0 1 0 1 -1 1 0 1 0 1 0 
1 0 1 0 1 0 1 0 1 0 1 0 1 0 1 -1 
1 0 1 0 1 0 1 0 1 0 1 0 1 0 1 0 
1 0 1 0 1 -1 1 0 1 0 1 0 1 0 1 0 
1 0 1 0 1 0 1 0 1 0 1 0 1 -1 1 0 
1 0 1 0 1 0 1 0 1 0 1 0 1 0 1 0 
1 0 1 0 1 0 1 0 1 0 1 0 1 0 1 0 
1 0 1 0 1 0 1 -1 1 0 1 0 1 0 1 0 
1 0 1 0 1 0 1 0 1 0 1 0 1 0 1 0 
1 0 1 0 1 0 1 0 1 0 1 0 1 0 1 0 
1 0 1 0 1 0 1 0 1 0 1 -1 1 0 1 0 
1 0 1 0 1 0 1 0 1 0 1 0 1 0 1 0 
1 0 1 0 1 0 1 0 1 0 1 0 1 0 1 0 
1 0 1 0 1 0 1 0 1 0 1 0 1 -1 1 0 
1 0 1 0 1 0 1 0 1 0 1 0 1 0 1 0 
1 0 1 0 1 0 1 0 1 0 1 0 1 0 1 0 
1 0 1 0 1 0 3387 4601 300 MP stroke
1 0 1 0 1 0 1 0 1 0 1 -1 1 0 1 0 
1 0 1 0 1 0 1 0 1 0 1 0 1 0 1 0 
1 0 1 0 1 0 1 0 1 0 1 0 1 0 1 0 
1 0 1 -1 1 0 1 0 1 0 1 -1 1 0 1 0 
1 0 1 -1 1 0 1 0 1 0 1 0 1 -1 1 0 
1 0 1 0 1 -1 1 0 1 0 1 0 1 0 1 0 
1 0 1 0 1 0 1 0 1 0 1 0 1 0 1 0 
1 0 1 0 1 0 1 0 1 0 1 0 1 0 1 0 
1 0 1 0 1 0 1 0 1 0 1 0 1 0 1 0 
1 0 1 0 1 0 1 0 1 0 1 0 1 0 1 0 
1 0 1 0 1 0 1 0 1 0 1 0 1 0 1 0 
1 0 1 0 1 0 1 0 1 0 1 0 1 0 1 0 
1 0 1 0 1 0 1 0 1 0 1 0 1 0 1 0 
1 0 1 0 1 0 1 0 1 0 1 0 1 0 1 0 
1 0 1 0 1 0 1 0 1 -1 1 0 1 0 1 0 
1 0 1 0 1 0 1 0 1 0 1 0 1 0 1 0 
1 0 1 0 1 0 1 0 1 0 1 0 1 0 1 0 
1 0 1 0 1 0 1 0 1 0 1 0 1 0 1 0 
1 0 1 0 1 0 1 0 1 0 1 0 1 0 1 0 
1 0 1 0 1 0 1 0 1 0 1 0 1 0 1 0 
1 0 1 0 1 0 1 0 1 0 1 0 1 0 1 0 
1 0 1 0 1 0 1 0 1 0 1 0 1 0 1 0 
1 0 1 0 1 0 1 0 1 0 1 0 1 0 1 0 
1 0 1 0 1 0 1 0 1 0 1 0 1 0 1 0 
1 0 1 0 1 0 1 0 1 0 1 0 1 0 1 0 
1 0 1 0 1 -1 1 0 1 0 1 0 1 0 1 0 
1 0 1 0 1 0 1 0 1 0 1 0 1 0 1 0 
1 0 1 0 1 0 1 0 1 0 1 0 1 0 1 0 
1 0 1 0 1 0 1 0 1 0 1 0 1 0 1 0 
1 0 1 0 1 0 1 0 1 0 1 0 1 0 1 0 
1 0 1 0 1 0 1 0 1 0 1 0 1 0 1 0 
1 0 1 0 1 0 1 0 1 0 1 0 1 0 1 0 
1 0 1 0 1 0 1 0 1 0 1 0 1 0 1 0 
1 0 1 0 1 0 1 0 1 0 1 0 1 0 1 0 
1 0 1 0 1 0 1 0 1 0 1 0 1 0 1 0 
1 0 1 0 1 0 1 0 1 0 1 0 1 0 1 0 
1 0 1 -1 1 0 1 0 1 0 1 0 1 0 1 0 
1 0 1 0 1 0 3088 4610 300 MP stroke
1 0 1 0 1 0 1 0 1 0 1 0 1 0 1 0 
1 0 1 0 1 0 1 0 1 0 1 0 1 0 1 0 
1 0 1 0 1 0 1 0 1 0 1 0 1 0 1 0 
1 0 1 0 1 0 1 0 1 0 1 0 1 0 1 0 
1 0 1 0 1 0 1 0 1 0 1 0 1 0 1 0 
1 0 1 0 1 0 1 0 1 0 1 0 1 0 1 0 
1 0 1 0 1 0 1 0 1 0 1 0 1 0 1 0 
1 0 1 0 1 0 1 0 1 0 1 0 1 0 1 0 
1 0 1 0 1 0 1 0 1 0 1 0 1 0 1 0 
1 0 1 0 1 0 1 0 1 -1 1 0 1 0 1 0 
1 0 1 0 1 0 1 0 1 0 1 0 1 0 1 0 
1 0 1 0 1 0 1 0 1 0 1 0 1 0 1 0 
1 0 1 0 1 0 1 0 1 0 1 0 1 0 1 0 
1 0 1 0 1 0 1 0 1 0 1 0 1 0 1 0 
1 0 1 0 1 0 1 0 1 0 1 0 1 0 1 0 
1 0 1 0 1 0 1 0 1 0 1 0 0 -5 1 0 
1 0 1 0 1 0 1 0 1 0 1 0 1 0 1 0 
1 0 1 0 1 0 1 0 1 0 1 0 1 0 1 0 
1 0 1 0 1 0 1 0 1 0 1 0 1 0 1 0 
1 0 1 0 1 0 1 0 1 0 1 0 1 0 1 0 
1 0 1 0 1 0 1 0 1 0 1 0 1 0 1 0 
1 0 1 0 1 0 1 0 1 0 1 0 1 0 1 0 
1 0 1 0 1 0 1 0 1 0 1 0 1 0 1 0 
1 0 1 0 1 0 1 0 1 0 1 0 1 0 1 0 
1 0 1 0 1 0 1 0 1 0 1 0 1 0 1 0 
1 0 1 0 1 0 1 0 1 0 1 0 1 0 1 0 
1 0 1 0 1 0 1 0 1 0 1 0 1 0 1 0 
1 0 1 0 1 0 1 0 1 0 1 0 1 0 1 0 
1 0 1 0 1 0 1 0 1 0 1 0 1 0 1 0 
1 0 1 0 1 0 1 0 1 0 1 0 1 0 1 0 
1 0 1 0 1 0 1 0 1 0 1 0 1 0 1 0 
1 0 1 0 1 0 1 0 1 0 1 0 1 0 1 0 
1 0 1 0 1 0 1 0 1 0 1 0 1 0 1 0 
1 0 1 0 1 0 1 0 1 0 1 0 1 0 1 0 
1 0 1 0 1 0 1 0 1 0 1 0 1 0 1 0 
1 0 1 0 1 0 1 0 1 0 1 0 1 0 1 0 
1 0 1 0 1 0 1 0 1 0 1 0 1 0 1 0 
1 0 1 0 1 0 2790 4616 300 MP stroke
1 0 1 0 1 0 1 0 1 0 1 0 1 0 1 0 
1 0 1 0 1 0 1 0 1 0 1 0 1 0 1 0 
1 0 1 0 1 0 1 0 1 0 1 0 1 0 1 0 
1 0 1 0 1 0 1 0 1 0 1 0 1 0 1 0 
1 0 1 0 1 0 1 0 1 0 1 0 1 0 1 0 
1 0 1 0 1 0 1 0 1 0 1 0 1 0 1 0 
1 0 1 0 1 0 1 0 1 0 1 0 1 0 1 0 
1 0 1 0 1 0 1 0 1 0 1 0 1 0 1 0 
1 0 1 0 1 0 1 0 1 0 1 0 1 0 1 0 
1 0 1 0 1 0 1 0 1 0 1 0 1 0 1 0 
1 0 1 0 1 0 1 0 1 0 1 0 1 0 1 0 
1 0 1 0 1 0 1 0 1 0 1 0 1 0 1 0 
1 0 1 0 1 0 1 0 1 0 1 0 1 0 1 0 
1 0 1 0 1 0 1 0 1 0 1 0 1 0 1 0 
1 0 1 0 1 0 1 0 1 0 1 0 1 0 1 0 
1 0 1 0 1 0 1 0 1 0 1 0 1 0 1 0 
1 0 1 0 1 0 1 0 1 0 1 0 1 0 1 0 
1 0 1 0 1 0 1 0 1 0 1 0 1 0 1 0 
1 0 1 0 1 0 1 0 1 0 1 0 1 0 1 0 
1 0 1 0 1 0 1 0 1 0 1 0 1 0 1 0 
1 0 1 0 1 0 1 0 1 0 1 0 1 0 1 0 
1 0 1 0 1 0 1 0 1 0 1 0 1 0 1 0 
1 0 1 0 1 0 1 0 1 0 1 0 1 0 1 0 
1 0 1 0 1 0 1 0 1 0 1 0 1 0 1 0 
1 0 1 0 1 0 1 0 1 0 1 0 1 0 1 0 
1 0 1 0 1 0 1 0 1 0 1 0 1 0 1 0 
1 0 1 0 1 0 1 0 1 0 1 0 1 0 1 0 
1 0 1 0 1 0 1 0 1 0 1 0 1 0 1 0 
1 0 1 0 1 0 1 0 1 0 1 0 1 0 1 0 
1 0 1 0 1 0 1 0 1 0 1 0 1 0 1 0 
1 0 1 0 1 0 1 0 1 0 1 0 1 0 1 0 
1 0 1 0 1 0 1 0 1 0 1 0 1 0 1 0 
1 0 1 0 1 0 1 0 1 0 1 0 1 0 1 0 
1 0 1 0 1 0 1 0 1 0 1 0 1 0 1 0 
1 0 1 0 1 0 1 0 1 0 1 0 1 0 1 0 
1 0 1 0 1 0 1 0 1 0 1 0 1 0 1 0 
1 0 1 0 1 0 1 0 1 0 1 0 1 0 1 0 
1 0 1 0 1 0 2491 4616 300 MP stroke
1 0 1 0 1 0 1 0 1 0 1 0 1 0 1 0 
1 0 1 0 1 0 1 0 1 0 1 0 1 0 1 0 
1 0 1 0 1 0 1 0 1 0 1 0 1 0 1 0 
1 0 1 0 1 0 1 0 1 0 1 0 1 0 1 0 
1 0 1 0 1 0 1 0 1 0 1 0 1 0 1 0 
1 0 1 0 1 0 1 0 1 0 1 0 1 0 1 0 
1 0 1 0 1 0 1 0 1 0 1 0 1 0 1 0 
1 0 1 0 1 0 1 0 1 0 1 0 1 0 1 0 
1 0 1 0 1 0 1 0 1 0 1 0 1 0 1 0 
1 0 1 0 1 0 1 0 1 0 1 0 1 0 1 0 
1 0 1 0 1 0 1 0 1 0 1 0 1 0 1 0 
1 0 1 0 1 0 1 0 1 0 1 0 1 0 1 0 
1 0 1 0 1 0 1 0 1 0 1 0 1 0 1 0 
1 0 1 0 1 0 1 0 1 0 1 0 1 0 1 0 
1 0 1 0 1 0 1 0 1 0 1 0 1 0 1 0 
1 0 1 0 1 0 1 0 1 0 1 0 1 0 1 0 
1 0 1 0 1 0 1 0 1 0 1 0 1 0 1 0 
1 0 1 0 1 0 1 0 1 0 1 0 1 0 1 0 
1 0 1 0 1 0 1 0 1 0 1 0 1 0 1 0 
1 0 1 0 1 0 1 0 1 0 1 0 1 0 1 0 
1 0 1 0 1 0 1 0 1 0 1 0 1 0 1 0 
1 0 1 0 1 0 1 0 1 0 1 0 1 0 1 0 
1 0 1 0 1 0 1 0 1 0 1 0 1 0 1 0 
1 0 1 0 1 0 1 0 1 0 1 0 1 0 1 0 
1 0 1 0 1 0 1 0 1 0 1 0 1 0 1 0 
1 0 1 0 1 0 1 0 1 0 1 0 1 0 1 0 
1 0 1 0 1 0 1 0 1 0 1 0 1 0 1 0 
1 0 1 0 1 0 1 0 1 0 1 0 1 0 1 0 
1 0 1 0 1 0 1 0 1 0 1 0 1 0 1 0 
1 0 1 0 1 0 1 0 1 0 1 0 1 0 1 0 
1 0 1 0 1 0 1 0 1 0 1 0 1 0 1 0 
1 0 1 0 1 0 1 0 1 0 1 0 1 0 1 0 
1 0 1 0 1 0 1 0 1 0 1 0 1 0 1 0 
1 0 1 0 1 0 1 0 1 0 1 0 1 0 1 0 
1 0 1 0 1 0 1 0 1 0 1 0 1 0 1 0 
1 0 1 0 1 0 1 0 1 0 1 0 1 0 1 0 
1 0 1 0 1 0 1 0 1 0 1 0 1 0 1 0 
1 0 1 0 1 0 2192 4616 300 MP stroke
1 0 1 0 1 0 1 0 1 0 1 0 1 0 1 0 
1 0 1 0 1 0 1 0 1 0 1 0 1 0 1 0 
1 0 1 0 1 0 1 0 1 0 1 0 1 0 1 0 
1 0 1 0 1 0 1 0 1 0 1 0 1 0 1 0 
1 0 1 0 1 0 1 0 1 0 1 0 1 0 1 0 
1 0 1 0 1 0 1 0 1 0 1 0 1 0 1 0 
1 0 1 0 1 0 1 0 1 0 1 0 1 0 1 0 
1 0 1 0 1 0 1 0 1 0 1 0 1 0 1 0 
1 0 1 0 1 0 1 0 1 0 1 0 1 0 1 0 
1 0 1 0 1 0 1 0 1 0 1 0 1 0 1 0 
1 0 1 0 1 0 1 0 1 0 1 0 1 0 1 0 
1 0 1 0 1 0 1 0 1 0 1 0 1 0 1 0 
1 0 1 0 1 0 1 0 1 0 1 0 1 0 1 0 
1 0 1 0 1 0 1 0 1 0 1 0 1 0 1 0 
1 0 1 0 1 0 1 0 1 0 1 0 1 0 1 0 
1 0 1 0 1 0 1 0 1 0 1 0 1 0 1 0 
1 0 1 0 1 0 1 0 1 0 1 0 1 0 1 0 
1 0 1 0 1 0 1 0 1 0 1 0 1 0 1 0 
1 0 1 0 1 0 1 0 1 0 1 0 2 0 1 0 
1 0 1 0 1 0 1 0 1 0 1 0 1 0 1 0 
1 0 1 0 1 0 1 0 1 0 1 0 1 0 1 0 
1 0 1 0 1 0 1 0 1 0 1 0 1 0 1 0 
1 0 1 0 1 0 1 0 1 0 1 0 1 0 1 0 
1 0 1 0 1 0 1 0 1 0 1 0 1 0 1 0 
1 0 2 0 1 0 1 0 1 0 1 0 1 0 1 0 
1 0 1 0 1 0 1 0 1 0 1 0 1 0 1 0 
1 0 1 0 1 0 1 0 1 0 2 0 1 0 1 0 
1 0 1 0 1 0 1 0 1 0 1 0 1 0 1 0 
1 0 1 0 1 0 1 0 1 0 1 0 1 0 1 0 
1 0 1 0 1 0 1 0 1 0 1 0 1 0 1 0 
1 0 1 0 1 0 1 0 1 0 1 0 1 0 1 0 
1 0 1 0 1 0 1 0 1 0 1 0 1 0 1 0 
1 0 1 0 1 0 1 0 1 0 1 0 1 0 1 0 
1 0 1 0 1 0 1 0 1 0 1 0 2 0 1 0 
1 0 1 0 1 0 2 0 3 0 1 0 2 0 1 0 
1 0 1 0 1 0 2 0 2 0 1 0 1 0 1 0 
3 0 1 0 1 0 3 0 1 0 1 0 1 0 1 0 
1 0 1 0 1 0 1879 4616 300 MP stroke
1 0 1 0 1 0 2 0 1 0 1 0 1 0 1 0 
1 0 1 0 1 0 1 0 1 0 1 0 1 0 2 0 
1 0 2 0 1 0 1 0 1 0 1 0 1 0 1 0 
1 0 1 0 1 0 1 0 1 0 1 0 1 0 1 0 
1 0 1 0 1 0 1 0 1 0 1 0 1 0 1 0 
1 0 1 0 2 0 2 0 1 0 1 0 3 0 1 0 
1 0 1 0 1 0 1 0 1 0 1 0 1 0 1 0 
1 0 1 0 1 0 1 0 2 0 1 0 1 0 2 0 
1 0 3 0 1 0 1 0 1 0 1 0 1 0 1 0 
1 0 1 0 2 0 1 0 1 0 1 0 1 0 1 0 
1 0 1 0 2 0 1 0 1 0 1 0 2 0 2 0 
1 0 1 0 1 0 1 0 1 0 1 0 1 0 1 0 
2 0 1 0 1 0 1 0 1 0 1 0 1 0 1 0 
1 0 1 0 1 0 1 0 1 0 2 0 1 0 1 0 
1 0 1 0 2 0 1 0 1 0 2 0 2 0 1 0 
1 0 1 0 1 0 1 0 3 0 3 0 1 0 2 0 
4 0 1 0 1 0 5 0 3 0 1 0 1 0 2 0 
1 0 1 0 2 0 2 0 5 0 1 0 2 0 2 0 
2 0 1 0 2 0 2 0 1 0 2 0 1 0 1 0 
1 0 3 0 1 0 2 0 2 0 1 0 2 0 1 0 
2 0 1 0 2 0 1 0 1 0 1 0 2 0 1 0 
2 0 1 0 2 0 2 0 1 0 2 0 2 0 1 0 
2 0 2 0 3 0 2 0 1 0 3 0 3 0 1 0 
1 0 1 0 1 0 2 0 1 0 1 0 3 0 1 0 
2 0 4 0 1 0 1 0 5 0 1 0 4 0 6 0 
6 0 2 0 5 0 1 0 4 0 3 0 1 0 4 0 
1 0 2 0 1 0 1 0 2 0 2 0 5 0 3 0 
2 0 5 0 1 0 1 0 1 0 1 0 1 0 1 0 
3 0 4 0 1 0 1 0 6 0 6 0 1 0 1 0 
3 0 2 0 1 0 6 0 3 0 1 0 1 0 1 0 
3 0 2 0 5 0 2 0 10 0 6 0 1 0 1 0 
5 0 1 0 1 0 4 0 3 0 1 0 5 0 7 0 
11 0 10 0 6 0 7 0 11 0 9 0 6 0 4 0 
6 0 13 0 2 0 7 0 14 0 4 0 8 0 3 0 
8 0 11 0 7 0 36 0 15 0 7 0 38 0 14 0 
14 0 66 0 33 0 7 0 49 0 1011 4616 286 MP stroke
6 w
gr

c9
1 sg
0 1759 5362 0 0 -1759 899 2148 4 MP
PP
-5362 0 0 1759 5362 0 0 -1759 899 2148 5 MP stroke
4 w
DO
SO
6 w
0 sg
 899 2148 mt 6261 2148 L
 899 2148 mt  899  389 L
 920 2148 mt  920 2094 L
%%IncludeResource: font Helvetica
/Helvetica /WindowsLatin1Encoding 192 FMSR

 755 2360 mt 
(-8) s
1606 2148 mt 1606 2094 L
1441 2360 mt 
(-6) s
2293 2148 mt 2293 2094 L
2128 2360 mt 
(-4) s
2980 2148 mt 2980 2094 L
2815 2360 mt 
(-2) s
3667 2148 mt 3667 2094 L
3614 2360 mt 
(0) s
4353 2148 mt 4353 2094 L
4300 2360 mt 
(2) s
5040 2148 mt 5040 2094 L
4987 2360 mt 
(4) s
5727 2148 mt 5727 2094 L
5674 2360 mt 
(6) s
 899 1689 mt  952 1689 L
 598 1760 mt 
(0.1) s
 899 1231 mt  952 1231 L
 598 1302 mt 
(0.2) s
 899  773 mt  952  773 L
 598  844 mt 
(0.3) s
3181 2556 mt 
(likelihood) s
 500 1552 mt  -90 rotate
(scores) s
90 rotate
%%IncludeResource: font Helvetica
/Helvetica /WindowsLatin1Encoding 120 FMSR

 882 2191 mt 
( ) s
6245  431 mt 
( ) s
gs 899 389 5363 1760 rc
DA
c8
65 0 54 0 8 0 26 1 18 0 1 0 6 0 4 0 
1 0 4 0 2 0 7 0 13 1 19 0 17 0 6 1 
2 0 15 0 15 1 5 0 6 0 6 1 6 0 1 0 
3 0 9 1 4 0 4 0 2 0 2 1 2 0 2 0 
1 0 1 0 1 0 5 1 5 0 1 0 2 0 3 0 
4 1 4 0 1 0 1 0 2 0 4 1 1 0 1 0 
6 1 2 0 2 0 8 1 2 0 5 1 1 0 7 1 
1 0 2 0 2 1 1 0 1 0 1 0 1 0 1 0 
1 0 1 0 1 1 1 0 2 0 2 0 1 0 -1 0 
3 1 1 0 2 0 4 1 4 1 1 0 1 0 1 0 
1 0 2 1 2 0 1 0 1 0 1 1 1 0 2 0 
1 0 6 1 1 1 2 0 3 1 1 0 2 0 1 1 
1 0 1 0 1 0 1 1 4 0 1 0 1 1 3 0 
1 1 1 0 1 0 3 1 1 0 1 0 3 1 1 1 
3 0 4 1 1 1 1 0 1 0 1 1 1 0 1 0 
1 0 2 1 1 0 1 0 1 1 1 0 1 1 1 0 
1 0 1 0 1 1 1 0 1 0 1 0 -1 0 4 1 
1 1 1 0 2 1 1 0 2 1 1 0 1 1 1 0 
1 0 1 1 1 0 1 0 1 1 1 0 1 1 2 0 
1 0 1 1 1 0 1 1 1 0 1 1 1 0 1 0 
1 1 1 0 1 0 1 1 1 0 1 1 1 0 1 0 
1 1 1 0 1 1 1 0 1 0 1 1 1 0 2 1 
1 1 1 0 1 1 1 0 1 0 1 1 1 0 1 1 
1 0 1 1 1 0 1 1 1 0 1 1 1 0 1 1 
1 0 1 1 1 0 1 1 1 0 1 1 1 0 1 1 
1 0 1 1 1 0 1 1 1 0 1 1 1 0 1 1 
1 0 1 1 1 1 1 0 1 1 1 0 1 1 1 0 
1 1 1 1 1 0 1 0 1 1 1 1 1 0 1 1 
1 0 1 1 1 1 1 1 1 0 1 1 1 0 1 1 
1 0 1 1 1 1 1 0 1 1 1 1 1 0 1 1 
1 1 1 0 1 2 1 0 1 0 1 1 1 1 1 0 
1 1 1 1 1 0 1 1 1 1 1 1 1 0 1 1 
1 1 1 0 -1 0 2 2 1 0 1 1 1 1 1 0 
1 1 1 1 1 0 1 1 1 1 1 1 1 0 1 1 
1 1 1 1 1 1 1 0 1 1 1 1 1 1 1 1 
1 1 1 0 1 1 1 1 1 1 1 1 1 1 1 0 
-1 0 2 2 1 0 1 1 1 1 1 1 1 1 1 1 
1 1 1 1 1 0 3939 2012 300 MP stroke
1 1 1 1 1 1 1 1 1 1 1 1 1 1 1 1 
1 1 1 1 1 1 1 1 1 1 1 1 1 1 1 1 
1 1 1 0 -1 0 2 2 1 1 1 1 1 1 1 1 
1 1 1 1 1 1 1 1 1 1 1 1 1 1 1 1 
1 1 1 1 1 1 0 1 2 2 1 0 -1 0 2 2 
1 1 1 1 1 1 1 1 1 1 1 1 0 1 2 2 
1 1 1 1 1 1 1 1 0 1 2 2 1 1 1 1 
0 1 2 2 1 1 1 1 1 1 0 1 2 2 1 1 
0 1 2 2 1 1 1 1 1 1 0 1 2 2 1 1 
0 1 2 2 1 1 1 1 0 1 2 2 0 1 2 2 
1 1 0 1 2 2 1 1 0 1 2 2 1 1 0 1 
2 2 0 1 2 2 1 1 0 1 2 2 0 1 2 2 
0 1 2 2 0 1 2 2 1 1 0 1 2 2 0 1 
2 2 1 1 0 2 2 2 1 1 1 1 0 2 2 2 
0 1 2 2 0 1 2 2 0 1 2 2 1 1 0 2 
2 2 0 1 2 2 1 1 0 2 2 2 1 1 0 2 
2 2 1 1 0 2 2 2 1 1 0 2 2 2 1 1 
0 2 2 2 0 1 2 2 0 2 2 2 0 1 2 2 
0 2 2 2 0 1 2 2 0 2 2 2 0 1 2 2 
0 2 2 2 0 2 2 2 0 1 1 1 1 1 0 2 
2 2 0 2 2 2 0 1 2 2 0 2 2 2 0 2 
2 2 0 1 1 1 0 2 2 2 0 2 2 2 1 1 
0 2 2 2 0 2 2 2 0 2 2 2 0 2 2 2 
0 2 2 2 0 2 2 2 0 2 2 2 0 2 2 2 
0 2 1 1 0 1 1 1 0 2 2 2 0 2 2 2 
0 2 2 2 0 2 1 1 0 1 2 2 0 2 1 1 
0 2 2 2 0 2 2 2 0 2 2 2 0 2 1 1 
0 2 2 2 0 2 2 2 0 3 2 2 0 2 2 2 
0 2 1 1 0 1 1 1 0 1 1 1 0 2 1 1 
0 1 1 1 0 1 1 1 0 2 2 2 0 2 1 1 
0 2 2 2 0 2 1 1 0 1 1 1 0 2 2 2 
0 2 1 1 0 2 2 2 0 3 2 2 0 2 1 1 
0 2 2 2 0 2 1 1 0 1 1 1 0 2 1 1 
0 2 2 2 0 2 1 1 0 1 1 1 0 2 1 1 
0 2 2 2 0 3 2 2 0 3 2 2 0 3 2 2 
0 2 1 1 0 2 2 2 0 2 1 1 0 2 1 1 
0 1 1 1 0 2 1 1 0 1 1 1 0 2 1 1 
0 1 1 1 0 2 3675 1562 300 MP stroke
1 1 0 1 1 1 0 3 2 2 0 3 2 2 0 3 
2 2 0 2 1 1 0 3 2 2 0 3 2 2 0 2 
1 1 0 3 2 2 0 2 1 1 0 2 1 1 0 1 
1 1 0 3 2 2 0 2 1 1 0 3 2 2 0 2 
1 1 0 3 2 2 0 2 1 1 0 3 2 2 0 2 
1 1 0 2 1 1 0 2 1 1 0 1 1 1 0 2 
1 1 0 3 2 2 0 2 1 1 0 2 1 1 0 3 
2 2 0 2 1 1 0 2 1 1 0 2 1 1 0 1 
1 1 0 2 1 1 0 2 1 1 0 3 2 2 0 2 
1 1 0 2 1 1 0 2 1 1 0 2 1 1 0 2 
1 1 0 1 1 1 0 2 1 1 0 2 1 1 0 2 
1 1 0 2 1 1 0 1 1 1 0 2 1 1 0 2 
1 1 0 2 1 1 0 2 1 1 0 2 1 1 0 1 
1 1 0 2 1 1 0 2 1 1 0 2 1 1 0 2 
1 1 0 2 1 1 0 3 2 2 0 2 1 1 0 2 
1 1 0 2 1 1 0 2 1 1 0 2 1 1 0 2 
1 1 0 2 1 1 0 2 1 1 0 2 1 1 0 1 
1 1 0 2 1 1 0 2 1 1 0 2 1 1 0 2 
1 1 0 2 1 1 0 2 1 1 0 2 1 1 0 2 
1 1 0 2 1 1 0 2 1 1 0 2 1 1 0 2 
1 1 0 2 1 1 0 2 1 1 0 1 1 1 0 2 
1 1 0 2 1 1 0 2 1 1 0 2 1 1 0 2 
1 1 0 2 1 1 0 2 1 1 0 2 1 1 0 2 
1 1 0 2 1 1 0 2 1 1 0 2 1 1 0 2 
1 1 0 2 1 1 0 2 1 1 0 2 1 1 0 2 
1 1 0 2 1 1 0 2 1 1 0 2 1 1 0 2 
1 1 0 2 1 1 0 2 1 1 0 2 1 1 0 2 
1 1 0 2 1 1 0 2 1 1 0 2 1 1 0 2 
1 1 0 2 1 1 0 2 1 1 0 2 1 1 0 2 
1 1 0 2 1 1 0 2 1 1 0 2 1 1 0 2 
1 1 0 2 1 1 0 2 1 1 0 2 1 1 0 2 
1 1 0 2 1 1 0 2 1 1 0 2 1 1 0 2 
1 1 0 2 1 1 0 3 1 1 0 2 1 1 0 2 
1 1 0 2 1 1 0 2 1 1 0 2 1 1 0 2 
1 1 0 2 1 1 0 2 1 1 0 2 1 1 0 2 
1 1 0 2 1 1 0 2 1 1 0 2 1 1 0 2 
1 1 0 2 1 1 0 2 1 1 0 2 1 1 0 2 
1 1 0 2 1 1 3511 1094 300 MP stroke
0 2 1 1 0 2 1 1 0 2 1 1 0 2 1 1 
0 2 1 1 0 2 1 1 0 2 1 1 0 2 1 1 
0 2 1 1 0 2 1 1 0 2 1 1 0 2 1 1 
0 2 1 1 0 2 1 1 0 2 1 1 0 2 1 1 
0 2 1 1 0 2 1 1 0 2 1 1 0 2 1 1 
0 2 1 1 0 2 1 1 0 2 1 1 0 2 1 1 
0 2 1 1 0 2 1 1 0 2 1 1 0 2 1 1 
0 2 1 1 0 2 1 1 0 2 1 1 0 2 1 1 
0 2 1 1 0 2 1 1 0 2 1 1 0 2 1 1 
0 2 1 1 0 2 1 1 0 2 1 1 0 2 1 1 
0 2 1 1 0 2 1 1 0 2 1 1 0 2 1 1 
0 2 1 1 0 2 1 1 0 2 1 1 0 2 1 1 
0 1 1 1 0 2 1 1 0 2 1 1 0 2 1 1 
0 2 1 1 0 2 1 1 0 2 1 1 0 2 1 1 
0 2 1 1 0 2 1 1 0 2 1 1 0 1 1 1 
0 2 1 1 0 2 1 1 0 2 1 1 0 2 1 1 
0 2 1 1 0 2 1 1 0 2 1 1 0 1 1 1 
0 2 1 1 0 2 1 1 0 2 1 1 0 2 1 1 
0 3 2 2 0 2 1 1 0 2 1 1 0 2 1 1 
0 2 1 1 0 2 1 1 0 1 1 1 0 2 1 1 
0 2 1 1 0 3 2 2 0 2 1 1 0 2 1 1 
0 2 1 1 0 2 1 1 0 1 1 1 0 2 1 1 
0 2 1 1 0 2 1 1 0 1 1 1 0 2 1 1 
0 3 2 2 0 2 1 1 0 2 1 1 0 2 1 1 
0 1 1 1 0 2 1 1 0 2 1 1 0 1 1 1 
0 2 1 1 0 2 1 1 0 1 1 1 0 3 2 2 
0 2 1 1 0 3 2 2 0 2 1 1 0 3 2 2 
0 3 2 2 0 3 2 2 0 2 1 1 0 3 2 2 
0 3 2 2 0 3 2 2 0 3 2 2 0 3 2 2 
0 3 2 2 0 3 2 2 0 2 1 1 0 2 2 2 
0 3 2 2 0 2 1 1 0 2 2 2 0 3 2 2 
0 2 1 1 0 2 2 2 0 2 1 1 0 2 2 2 
0 2 1 1 0 1 1 1 0 2 2 2 0 3 2 2 
0 2 2 2 0 3 2 2 0 2 2 2 0 3 2 2 
0 2 2 2 0 2 2 2 0 2 1 1 0 1 1 1 
0 2 2 2 0 2 2 2 0 2 2 2 0 2 2 2 
0 2 1 1 0 1 1 1 0 1 1 1 0 2 2 2 
0 1 1 1 0 1 3328 606 300 MP stroke
1 1 0 1 1 1 0 1 1 1 0 1 2 2 0 2 
2 2 0 2 2 2 0 2 2 2 0 2 2 2 1 1 
0 2 2 2 0 2 2 2 1 1 0 2 2 2 0 2 
2 2 1 1 0 2 2 2 1 1 0 2 2 2 1 1 
0 2 2 2 1 1 0 2 2 2 0 1 2 2 0 1 
2 2 0 1 2 2 1 1 0 2 2 2 0 1 2 2 
1 1 0 1 2 2 0 1 2 2 0 1 2 2 1 1 
0 1 2 2 1 1 0 1 2 2 1 1 0 1 2 2 
1 1 1 1 0 1 2 2 1 1 1 1 1 1 0 1 
2 2 1 1 1 1 1 1 1 1 1 1 1 1 1 1 
0 1 2 2 1 1 1 1 1 1 1 1 1 1 1 1 
1 1 1 0 1 1 1 1 1 1 1 1 1 1 1 1 
1 1 1 1 1 0 1 1 1 1 1 1 1 1 1 0 
1 1 1 1 1 1 1 0 1 1 1 1 1 1 1 0 
1 1 1 0 1 1 1 1 1 0 1 1 1 0 1 1 
1 1 1 0 1 1 1 0 1 1 1 0 1 1 1 0 
1 0 1 1 1 0 1 1 1 0 1 0 1 1 1 0 
1 1 1 0 1 0 1 0 1 1 1 0 1 0 1 1 
1 0 1 0 1 0 1 0 1 1 1 0 1 0 1 0 
1 0 1 0 1 0 1 0 1 0 1 0 1 1 1 0 
1 0 1 0 1 0 1 0 1 -1 1 0 1 0 1 0 
1 0 1 0 1 0 1 0 1 0 1 0 1 -1 1 0 
1 0 1 0 1 0 1 -1 1 0 1 0 1 0 1 -1 
1 0 1 0 1 -1 1 0 1 0 1 -1 1 0 1 -1 
1 0 1 0 1 -1 1 0 1 -1 1 0 1 -1 1 0 
1 -1 1 0 1 -1 1 0 1 -1 1 0 1 -1 1 -1 
1 0 1 -1 1 0 1 -1 1 -1 1 0 1 -1 1 -1 
1 0 1 -1 1 -1 1 -1 1 0 1 -1 1 -1 1 -1 
1 -1 1 0 1 -1 1 -1 1 -1 1 -1 1 -1 1 0 
1 -1 1 -1 1 -1 1 -1 1 -1 1 -1 1 -1 1 -1 
1 -1 1 -1 1 -1 1 -1 1 -1 1 -1 1 -1 1 -1 
0 -1 2 -2 1 -1 1 -1 1 -1 1 -1 1 -1 0 -1 
2 -2 1 -1 1 -1 1 -1 0 -1 2 -2 1 -1 1 -1 
0 -1 2 -2 1 -1 0 -1 2 -2 1 -1 0 -1 2 -2 
1 -1 0 -1 2 -2 1 -1 0 -1 2 -2 0 -1 2 -2 
0 -1 2 -2 0 -1 2 -2 1 -1 0 -1 2 -2 0 -1 
2 -2 1 -1 0 -2 2 -2 0 -1 2 -2 0 -1 2 -2 
1 -1 0 -2 2 -2 3031 560 300 MP stroke
1 -1 0 -2 2 -2 1 -1 0 -2 2 -2 1 -1 0 -2 
2 -2 0 -1 2 -2 0 -2 2 -2 0 -1 2 -2 0 -2 
2 -2 0 -1 2 -2 0 -2 2 -2 0 -2 2 -2 0 -1 
2 -2 0 -2 2 -2 0 -2 2 -2 1 -1 0 -2 2 -2 
0 -2 2 -2 0 -2 2 -2 0 -2 2 -2 0 -2 2 -2 
0 -2 2 -2 0 -2 2 -2 0 -2 2 -2 0 -2 2 -2 
0 -2 2 -2 0 -2 2 -2 0 -2 2 -2 0 -2 2 -2 
0 -2 2 -2 0 -2 1 -1 0 -2 2 -2 0 -2 2 -2 
0 -2 2 -2 0 -2 1 -1 0 -1 1 -1 0 -2 2 -2 
0 -2 2 -2 0 -2 1 -1 0 -2 2 -2 0 -2 2 -2 
0 -3 2 -2 0 -2 2 -2 0 -3 2 -2 0 -2 2 -2 
0 -2 1 -1 0 -2 2 -2 0 -2 1 -1 0 -1 1 -1 
0 -2 2 -2 0 -2 1 -1 0 -2 2 -2 0 -2 1 -1 
0 -2 2 -2 0 -2 1 -1 0 -2 2 -2 0 -3 2 -2 
0 -2 1 -1 0 -2 2 -2 0 -2 1 -1 0 -2 2 -2 
0 -3 2 -2 0 -2 1 -1 0 -1 1 -1 0 -2 1 -1 
0 -2 2 -2 0 -3 2 -2 0 -2 1 -1 0 -1 1 -1 
0 -2 1 -1 0 -2 2 -2 0 -3 2 -2 0 -3 2 -2 
0 -3 2 -2 0 -3 2 -2 0 -3 2 -2 0 -3 2 -2 
0 -3 2 -2 0 -3 2 -2 0 -3 2 -2 0 -3 2 -2 
0 -3 2 -2 0 -3 2 -2 0 -3 2 -2 0 -2 1 -1 
0 -2 1 -1 0 -1 1 -1 0 -3 2 -2 0 -3 2 -2 
0 -3 2 -2 0 -2 1 -1 0 -2 1 -1 0 -1 1 -1 
0 -3 2 -2 0 -3 2 -2 0 -2 1 -1 0 -3 2 -2 
0 -3 2 -2 0 -2 1 -1 0 -2 1 -1 0 -1 1 -1 
0 -3 2 -2 0 -2 1 -1 0 -2 1 -1 0 -1 1 -1 
0 -3 2 -2 0 -2 1 -1 0 -2 1 -1 0 -1 1 -1 
0 -3 2 -2 0 -2 1 -1 0 -3 2 -2 0 -3 2 -2 
0 -2 1 -1 0 -3 2 -2 0 -2 1 -1 0 -2 1 -1 
0 -1 1 -1 0 -3 2 -2 0 -2 1 -1 0 -3 2 -2 
0 -2 1 -1 0 -2 1 -1 0 -1 1 -1 0 -3 2 -2 
0 -2 1 -1 0 -3 2 -2 0 -2 1 -1 0 -3 2 -2 
0 -3 2 -2 0 -2 1 -1 0 -2 1 -1 0 -2 1 -1 
0 -1 1 -1 0 -3 2 -2 0 -2 1 -1 0 -2 1 -1 
0 -1 1 -1 0 -3 2 -2 0 -2 1 -1 0 -3 2 -2 
0 -2 1 -1 0 -2 1 -1 0 -1 1 -1 0 -2 1 -1 
0 -2 1 -1 0 -1 1 -1 0 -3 2 -2 0 -2 1 -1 
0 -2 1 -1 0 -1 2794 1114 300 MP stroke
1 -1 0 -3 2 -2 0 -2 1 -1 0 -3 2 -2 0 -2 
1 -1 0 -2 1 -1 0 -1 1 -1 0 -3 2 -2 0 -2 
1 -1 0 -3 2 -2 0 -3 2 -2 0 -2 1 -1 0 -2 
1 -1 0 -1 1 -1 0 -2 1 -1 0 -2 1 -1 0 -1 
1 -1 0 -3 2 -2 0 -3 2 -2 0 -2 1 -1 0 -3 
2 -2 0 -3 2 -2 0 -3 2 -2 0 -2 1 -1 0 -2 
1 -1 0 -1 1 -1 0 -3 2 -2 0 -3 2 -2 0 -2 
1 -1 0 -2 1 -1 0 -1 1 -1 0 -3 2 -2 0 -3 
2 -2 0 -3 2 -2 0 -2 1 -1 0 -2 1 -1 0 -1 
1 -1 0 -3 2 -2 0 -3 2 -2 0 -3 2 -2 0 -3 
2 -2 0 -3 2 -2 0 -3 2 -2 0 -3 2 -2 0 -3 
2 -2 0 -3 2 -2 0 -3 2 -2 0 -3 2 -2 0 -3 
2 -2 0 -3 2 -2 0 -3 2 -2 0 -2 1 -1 0 -1 
1 -1 0 -2 1 -1 0 -2 2 -2 0 -3 2 -2 0 -2 
1 -1 0 -1 1 -1 0 -2 1 -1 0 -2 2 -2 0 -3 
2 -2 0 -2 1 -1 0 -2 2 -2 0 -3 2 -2 0 -3 
2 -2 0 -2 1 -1 0 -2 2 -2 0 -2 1 -1 0 -2 
2 -2 0 -2 1 -1 0 -2 2 -2 0 -3 2 -2 0 -2 
1 -1 0 -2 2 -2 0 -2 1 -1 0 -2 2 -2 0 -2 
1 -1 0 -2 2 -2 0 -2 1 -1 0 -1 1 -1 0 -2 
2 -2 0 -2 1 -1 0 -2 2 -2 0 -2 1 -1 0 -2 
2 -2 0 -2 1 -1 0 -1 1 -1 0 -2 2 -2 0 -2 
1 -1 0 -1 1 -1 0 -2 2 -2 0 -2 1 -1 0 -1 
1 -1 0 -2 2 -2 0 -2 1 -1 0 -2 2 -2 0 -2 
2 -2 0 -2 1 -1 0 -2 2 -2 0 -2 2 -2 0 -2 
1 -1 0 -1 1 -1 0 -2 2 -2 0 -2 2 -2 0 -2 
1 -1 0 -2 2 -2 0 -2 2 -2 0 -2 1 -1 1 -1 
0 -2 1 -1 0 -2 2 -2 0 -2 2 -2 0 -2 2 -2 
0 -2 2 -2 0 -3 2 -2 0 -2 2 -2 0 -2 2 -2 
0 -2 2 -2 0 -2 2 -2 0 -2 2 -2 0 -2 2 -2 
0 -2 1 -1 0 -1 2 -2 0 -2 1 -1 0 -1 1 -1 
0 -1 1 -1 0 -1 1 -1 0 -1 1 -1 0 -1 1 -1 
0 -1 1 -1 1 -1 0 -2 1 -1 1 -1 0 -2 1 -1 
0 -1 2 -2 0 -2 2 -2 0 -2 2 -2 0 -2 2 -2 
0 -2 2 -2 0 -2 2 -2 0 -2 2 -2 0 -1 2 -2 
0 -2 2 -2 0 -2 2 -2 0 -2 2 -2 0 -1 1 -1 
0 -1 2 -2 0 -2 2 -2 0 -2 2 -2 0 -1 2 -2 
0 -2 2 -2 0 -2 2558 1656 300 MP stroke
2 -2 1 -1 0 -2 2 -2 0 -2 2 -2 0 -1 2 -2 
0 -2 2 -2 0 -1 2 -2 0 -2 2 -2 0 -1 2 -2 
0 -2 2 -2 1 -1 0 -2 2 -2 0 -1 2 -2 0 -2 
2 -2 1 -1 0 -2 2 -2 1 -1 0 -2 2 -2 1 -1 
0 -2 2 -2 1 -1 0 -2 2 -2 0 -1 2 -2 1 -1 
0 -2 2 -2 1 -1 0 -2 2 -2 0 -1 2 -2 0 -1 
2 -2 1 -1 0 -2 2 -2 0 -1 2 -2 0 -1 2 -2 
0 -1 2 -2 1 -1 0 -2 2 -2 0 -1 2 -2 0 -1 
2 -2 0 -1 2 -2 0 -1 2 -2 0 -1 2 -2 0 -1 
2 -2 0 -1 2 -2 1 -1 0 -1 2 -2 0 -1 2 -2 
0 -1 2 -2 0 -1 2 -2 1 -1 0 -1 2 -2 0 -1 
2 -2 1 -1 0 -1 2 -2 0 -1 2 -2 1 -1 0 -1 
2 -2 1 -1 0 -1 2 -2 1 -1 0 -1 2 -2 1 -1 
0 -1 2 -2 1 -1 0 -1 2 -2 1 -1 0 -1 2 -2 
1 -1 0 -1 2 -2 1 -1 1 -1 0 -1 2 -2 1 -1 
0 -1 2 -2 1 -1 1 -1 0 -1 2 -2 1 -1 1 -1 
1 -1 0 -1 2 -2 1 -1 1 -1 0 -1 2 -2 1 -1 
1 -1 1 -1 0 -1 2 -2 1 -1 1 -1 1 -1 1 -1 
0 -1 2 -2 1 -1 1 -1 1 -1 1 -1 1 -1 0 -1 
2 -2 1 -1 1 -1 1 -1 1 -1 1 -1 1 -1 0 -1 
2 -2 1 -1 1 -1 1 -1 1 -1 1 -1 1 -1 1 -1 
1 -1 1 -1 1 -1 0 -1 2 -2 1 -1 1 -1 1 -1 
1 -1 1 -1 1 -1 1 -1 1 -1 1 -1 1 -1 1 -1 
1 -1 1 -1 1 -1 1 -1 1 -1 1 -1 1 -1 1 -1 
1 -1 1 -1 1 -1 1 -1 1 -1 1 -1 1 -1 1 -1 
1 -1 1 -1 1 -1 1 -1 1 0 1 -1 1 -1 1 -1 
1 -1 1 -1 1 -1 1 -1 1 -1 1 -1 1 -1 1 -1 
1 -1 1 0 1 -1 1 -1 1 -1 1 -1 1 -1 1 -1 
1 -1 1 0 1 -1 1 -1 1 -1 1 -1 1 -1 1 -1 
1 0 1 -1 1 -1 1 -1 1 -1 1 -1 1 0 1 -1 
1 -1 1 -1 1 -1 1 -1 1 0 1 -1 1 -1 1 -1 
1 -1 1 0 1 -1 1 -1 1 -1 1 -1 1 0 1 -1 
1 -1 1 -1 1 0 1 -1 1 -1 1 -1 1 -1 1 0 
1 -1 1 -1 1 0 1 -1 1 -1 1 -1 1 0 1 -1 
1 -1 1 -1 1 0 1 -1 1 -1 1 0 1 -1 1 -1 
1 0 1 -1 1 -1 1 -1 1 0 1 -1 1 -1 1 0 
1 -1 1 -1 1 0 1 -1 1 -1 1 0 1 -1 1 -1 
1 0 1 -1 1 -1 2258 2008 300 MP stroke
1 0 1 -1 1 -1 1 0 1 -1 1 -1 1 0 1 -1 
1 0 1 -1 1 -1 1 0 1 -1 1 0 1 -1 1 -1 
1 0 1 -1 1 -1 1 0 1 -1 1 0 1 -1 1 -1 
1 0 1 -1 1 0 1 -1 1 0 1 -1 1 -1 1 0 
1 -1 1 0 1 -1 1 0 1 -1 1 -1 1 0 1 -1 
1 0 1 -1 1 0 1 -1 1 0 1 -1 1 0 1 -1 
1 0 1 -1 1 -1 1 0 1 -1 1 -1 1 0 1 0 
1 -1 1 0 1 -1 1 0 1 -1 1 0 1 -1 1 0 
1 -1 1 0 1 -1 1 0 1 -1 1 0 1 -1 1 0 
1 -1 1 0 1 -1 1 0 1 -1 1 0 1 -1 1 0 
1 0 1 -1 1 0 1 -1 1 0 1 -1 1 0 1 -1 
1 0 1 0 1 -1 1 0 1 -1 1 0 1 -1 1 0 
1 0 1 -1 1 0 1 -1 1 0 1 -1 1 0 1 0 
1 -1 1 0 1 -1 1 0 1 -1 1 0 1 0 1 -1 
1 0 1 0 1 -1 1 0 1 -1 1 0 1 -1 1 0 
1 0 1 -1 1 0 1 -1 1 0 1 0 1 -1 1 0 
1 0 1 -1 1 0 1 0 1 -1 1 0 1 -1 1 0 
1 0 1 -1 1 0 1 0 1 -1 1 0 1 0 1 -1 
1 0 1 0 1 -1 1 0 1 0 1 -1 1 0 1 -1 
1 0 1 0 1 0 1 -1 1 0 1 0 1 -1 1 0 
1 -1 1 0 1 0 1 0 1 -1 1 0 1 0 1 -1 
1 0 1 0 1 -1 1 0 1 0 1 -1 1 0 1 0 
1 0 1 -1 1 0 1 0 1 -1 1 0 1 0 1 -1 
1 0 1 0 1 0 1 -1 1 0 1 0 1 0 1 -1 
1 0 1 0 1 -1 1 0 1 0 1 0 1 -1 1 0 
1 0 1 -1 1 0 1 0 1 0 1 -1 1 0 1 0 
1 0 1 -1 1 0 1 0 1 0 1 -1 1 0 1 0 
2 -1 1 0 1 0 1 -1 1 0 1 0 1 0 1 0 
1 -1 1 0 1 0 1 0 1 -1 1 0 1 0 1 0 
1 0 1 -1 1 0 1 0 1 0 1 -1 1 0 1 0 
1 0 1 0 1 -1 1 0 1 0 1 0 1 -1 1 0 
1 0 1 0 1 0 1 -1 1 0 1 0 1 0 1 0 
1 -1 1 0 1 0 2 0 1 -1 1 0 1 0 1 0 
1 0 1 -1 1 0 1 0 1 0 1 0 1 -1 1 0 
1 0 1 0 1 0 1 -1 1 0 1 0 1 0 2 0 
1 -1 1 0 1 0 1 0 1 0 1 -1 1 0 1 0 
1 0 1 0 1 0 1 -1 1 0 1 0 1 0 1 0 
1 0 1 -1 1 0 1956 2117 300 MP stroke
1 0 1 0 1 0 1 0 1 -1 1 0 1 0 1 0 
1 0 1 0 1 -1 1 0 1 0 1 0 1 0 1 0 
1 -1 1 0 1 0 1 0 1 0 1 0 1 0 1 0 
1 -1 1 0 1 0 1 0 1 0 1 0 1 -1 1 0 
1 0 1 0 1 0 1 0 1 0 2 -1 1 0 1 0 
1 0 1 0 2 -1 3 0 1 0 2 0 1 0 1 0 
1 -1 1 0 2 0 2 0 1 0 1 -1 1 0 3 0 
1 0 1 0 3 -1 1 0 1 0 1 0 1 0 1 0 
1 0 1 0 1 0 1 -1 1 0 2 0 1 0 1 0 
1 0 1 0 1 0 1 -1 1 0 1 0 1 0 1 0 
1 0 2 0 1 0 2 -1 1 0 1 0 1 0 1 0 
1 0 1 0 1 0 1 0 1 0 1 -1 1 0 1 0 
1 0 1 0 1 0 1 0 1 0 1 0 1 0 1 -1 
1 0 1 0 1 0 1 0 2 0 2 0 1 0 1 0 
3 -1 1 0 1 0 1 0 1 0 1 0 1 0 1 0 
1 0 1 0 1 0 1 -1 1 0 1 0 2 0 1 0 
1 0 2 0 1 0 3 -1 1 0 1 0 1 0 1 0 
1 0 1 0 1 0 1 0 2 0 1 0 1 0 1 0 
1 -1 1 0 1 0 1 0 2 0 1 0 1 0 1 0 
2 0 2 0 1 0 1 0 1 0 1 -1 1 0 1 0 
1 0 1 0 2 0 1 0 1 0 1 0 1 0 1 0 
1 0 1 0 1 0 1 -1 1 0 1 0 1 0 2 0 
1 0 1 0 1 0 1 0 2 0 1 0 1 0 2 0 
2 0 1 -1 1 0 1 0 1 0 1 0 3 0 3 0 
1 0 2 0 4 0 1 0 1 0 -1 0 6 -1 3 0 
1 0 1 0 2 0 1 0 1 0 2 0 2 0 5 -1 
1 0 2 0 2 0 2 0 1 0 2 0 2 0 1 0 
2 0 1 0 1 0 1 0 3 0 1 0 2 0 2 -1 
1 0 2 0 1 0 2 0 1 0 2 0 1 0 1 0 
1 0 2 0 1 0 2 0 1 0 2 0 2 0 1 0 
2 0 2 0 1 -1 2 0 2 0 3 0 2 0 1 0 
3 0 3 0 1 0 1 0 1 0 1 0 2 0 1 0 
1 0 3 0 1 0 2 0 4 0 1 -1 1 0 5 0 
1 0 4 0 6 0 6 0 2 0 5 0 1 0 4 0 
3 0 1 0 4 0 1 0 2 -1 1 0 1 0 2 0 
2 0 5 0 3 0 2 0 5 0 1 0 1 0 1 0 
1 0 1 0 1 0 3 0 4 0 1 0 1 0 6 0 
6 0 1 0 1 0 1512 2145 300 MP stroke
3 0 2 0 1 0 6 -1 3 0 1 0 1 0 1 0 
3 0 2 0 5 0 2 0 10 0 6 0 1 0 1 0 
5 0 1 0 1 0 4 0 3 0 1 0 5 0 7 0 
11 0 10 0 6 0 7 0 11 -1 9 0 6 0 4 0 
6 0 13 0 2 0 7 0 14 0 4 0 8 0 3 0 
8 0 11 0 7 0 36 0 15 0 7 0 38 0 14 0 
14 0 66 0 33 0 7 0 49 0 1011 2147 54 MP stroke
24 w
c9
39 1 38 0 39 0 39 0 39 0 39 0 38 1 39 0 
39 0 39 1 39 2 38 2 39 2 39 3 39 3 39 6 
38 11 39 13 39 16 39 22 39 31 38 40 39 49 39 60 
39 77 39 88 38 104 39 122 39 127 39 128 39 141 38 144 
39 139 39 117 39 94 39 81 39 68 38 44 39 22 39 -10 
39 -35 39 -40 38 -62 39 -88 39 -81 39 -81 39 -102 38 -117 
39 -105 39 -84 39 -86 39 -92 38 -84 39 -75 39 -72 39 -64 
39 -55 38 -49 39 -43 39 -39 39 -41 39 -44 38 -36 39 -25 
39 -22 39 -18 39 -14 39 -13 38 -14 39 -11 39 -8 39 -7 
39 -8 38 -4 39 -2 39 -3 39 -4 39 -5 38 -2 39 -2 
39 -3 39 -1 39 -1 38 -2 39 -1 39 -1 39 -1 39 0 
38 0 39 -1 39 0 39 0 39 0 38 0 39 0 39 0 
39 0 39 0 38 0 899 2147 100 MP stroke
SO
6 w
c8
96 29 141 79 35 32 9 8 9 10 61 85 15 24 16 28 
24 40 6 10 10 16 16 23 4 5 4 6 19 22 22 26 
7 8 1 1 1 1 8 9 8 11 3 4 20 27 4 6 
4 6 15 24 1 1 5 7 4 8 2 4 4 5 22 38 
5 11 4 5 0 1 7 13 7 12 8 15 15 26 2 3 
3 5 0 1 5 9 1 1 2 3 5 10 7 12 3 6 
9 16 1 1 4 8 10 17 1 2 1 3 6 10 1 2 
1 2 1 2 1 1 6 13 1 0 2 4 7 14 2 3 
4 10 1 1 1 1 1 2 5 10 4 9 3 7 5 10 
0 1 3 6 2 3 9 21 18 40 5 12 1 2 6 14 
2 4 9 19 2 3 2 5 3 6 0 1 2 5 1 2 
6 12 5 9 3 7 1 2 3 5 3 5 2 3 0 1 
4 7 2 3 1 1 1 3 3 4 3 4 1 3 3 4 
1 2 11 15 0 1 6 7 8 9 1 1 4 5 7 7 
2 3 2 1 4 5 3 2 3 3 4 4 3 3 6 5 
3 2 3 2 5 4 6 4 7 4 4 2 10 5 1 0 
2 1 1 0 9 3 2 0 4 1 1 1 2 0 11 1 
1 0 2 0 2 0 1 0 5 0 1 0 2 0 4 -1 
1 0 8 -1 3 -1 1 0 2 0 2 -1 6 -1 2 0 
2 0 7 -2 2 0 2 -1 1 0 1 0 1 0 3 0 
10 -1 1 0 8 0 6 0 3 0 2 1 1 0 1 0 
1 0 1 0 4 1 1 0 5 2 4 1 1 0 5 2 
1 0 7 3 7 3 2 1 4 2 7 3 4 2 10 5 
4 2 1 1 4 1 3 1 4 2 12 4 2 1 1 0 
5 1 4 1 3 0 5 1 11 0 6 -1 1 0 1 -1 
3 0 3 -1 4 -2 2 0 1 -1 1 0 1 -1 2 -1 
1 0 1 -1 3 -1 4 -3 7 -4 5 -5 3 -1 1 -1 
1 -1 1 -1 1 -1 1 -1 6 -6 5 -5 2 -1 2 -2 
5 -5 5 -5 4 -4 2 -2 1 -1 1 0 14 -11 10 -2 
3 0 2 0 1 1 1 0 2 1 3 2 2 1 4 4 
1 1 1 1 4 5 1 1 10 15 5 6 1 0 1 2 
8 6 3 1 2 0 1 -1 2 0 3 -3 9 -12 1 -4 
8 -18 6 -18 5 -16 2 -7 2 -6 4 -14 6 -21 10 -30 
22 -58 1 -2 7 -17 1 -3 5 -10 2 -6 1 -2 10 -22 
2 -5 10 -24 7 -14 4 -10 6 -11 5 -12 6 -11 1 -3 
7 -14 26 -44 0 -1 2 -2 5 -8 6 -8 0 -1 2 -2 
2 -3 25 -32 18 -19 16 -17 2 -2 1 -1 2 -2 1 -1 
4 -4 5 -5 6 -6 4166 1421 300 MP stroke
14 -15 17 -18 1 -1 11 -12 14 -17 2 -3 1 -1 3 -4 
1 -1 3 -5 11 -14 10 -14 23 -32 3 -5 2 -3 8 -11 
0 -1 8 -11 1 -2 5 -8 6 -7 2 -3 5 -8 2 -3 
22 -33 7 -10 2 -3 3 -4 8 -11 16 -22 4 -7 2 -1 
4 -6 2 -3 1 -1 29 -36 5 -6 9 -10 12 -13 5 -5 
2 -2 16 -16 47 -35 33 -21 7 -4 3 -2 24 -16 5 -3 
20 -13 2 -1 4 -3 33 -25 13 -11 10 -8 1 -1 4 -2 
23 -18 7 -5 33 -23 19 -11 8 -4 4 -2 37 -18 50 -19 
114 -31 18 -4 383 -46 2962 2135 68 MP stroke
24 w
c9
38 0 38 0 38 1 38 0 37 2 38 2 38 2 38 3 
38 4 37 5 38 6 38 7 38 9 38 10 37 14 38 18 
38 23 38 29 37 35 38 42 38 49 38 57 38 63 37 71 
38 77 38 83 38 86 38 87 37 85 38 80 38 73 38 63 
38 53 37 43 38 35 38 28 38 22 37 18 38 13 38 9 
38 4 38 -2 37 -11 38 -21 38 -34 38 -47 38 -60 37 -71 
38 -78 38 -78 38 -75 38 -66 37 -55 38 -43 38 -33 38 -25 
37 -20 38 -21 38 -22 38 -28 38 -31 37 -36 38 -36 38 -36 
38 -33 38 -30 37 -27 38 -25 38 -25 38 -25 38 -25 37 -27 
38 -25 38 -25 38 -21 37 -20 38 -16 38 -13 38 -11 38 -8 
37 -6 38 -4 38 -3 38 -1 38 -1 37 0 38 0 38 -1 
38 -1 38 -1 37 -2 38 -1 38 -2 38 -1 37 -1 38 -1 
38 0 38 0 38 0 2519 2147 100 MP stroke
6 w
gr

c9
1 sg
0 1038 1998 0 0 -1038 871 4413 4 MP
PP
-1998 0 0 1038 1998 0 0 -1038 871 4413 5 MP stroke
4 w
DO
SO
6 w
0 sg
 871 3375 mt 2869 3375 L
 871 4413 mt 2869 4413 L
2869 4413 mt 2869 3375 L
 871 4413 mt  871 3375 L
 871 4413 mt 2869 4413 L
 871 4413 mt  871 3375 L
 871 3375 mt 2869 3375 L
 871 4413 mt 2869 4413 L
2869 4413 mt 2869 3375 L
 871 4413 mt  871 3375 L
%%IncludeResource: font Helvetica
/Helvetica /WindowsLatin1Encoding 192 FMSR

1339 3589 mt 
(impostor \(model\)) s
gs 871 3375 1999 1039 rc
DA
c8
360 0 943 3520 2 MP stroke
SO
gr

c8
0 sg
1339 3838 mt 
(impostor \(data\)) s
gs 871 3375 1999 1039 rc
DA
24 w
c9
360 0 943 3769 2 MP stroke
SO
gr

24 w
c9
0 sg
1339 4087 mt 
(client \(model\)) s
gs 871 3375 1999 1039 rc
6 w
c8
360 0 943 4018 2 MP stroke
gr

6 w
c8
0 sg
1339 4336 mt 
(client \(data\)) s
gs 871 3375 1999 1039 rc
24 w
c9
360 0 943 4267 2 MP stroke
6 w
gr

c9

end %%Color Dict

eplot
%%EndObject

epage
end

showpage

%%Trailer
%%EOF
