%!PS-Adobe-3.0 EPSF-3.0
%%Creator: MATLAB, The Mathworks, Inc. Version 7.7.0.471 (R2008b). Operating System: Microsoft Windows XP.
%%Title: Pictures\main_zoo_mvar_analysis_data_BMI_xcorr_bmig_p1_k2_2_7.eps
%%CreationDate: 10/26/2009  05:45:19
%%DocumentNeededFonts: Helvetica
%%DocumentProcessColors: Cyan Magenta Yellow Black
%%LanguageLevel: 2
%%Pages: 1
%%BoundingBox:    37   180   549   616
%%EndComments

%%BeginProlog
% MathWorks dictionary
/MathWorks 160 dict begin
% definition operators
/bdef {bind def} bind def
/ldef {load def} bind def
/xdef {exch def} bdef
/xstore {exch store} bdef
% operator abbreviations
/c  /clip ldef
/cc /concat ldef
/cp /closepath ldef
/gr /grestore ldef
/gs /gsave ldef
/mt /moveto ldef
/np /newpath ldef
/cm /currentmatrix ldef
/sm /setmatrix ldef
/rm /rmoveto ldef
/rl /rlineto ldef
/s {show newpath} bdef
/sc {setcmykcolor} bdef
/sr /setrgbcolor ldef
/sg /setgray ldef
/w /setlinewidth ldef
/j /setlinejoin ldef
/cap /setlinecap ldef
/rc {rectclip} bdef
/rf {rectfill} bdef
% page state control
/pgsv () def
/bpage {/pgsv save def} bdef
/epage {pgsv restore} bdef
/bplot /gsave ldef
/eplot {stroke grestore} bdef
% orientation switch
/portraitMode 0 def /landscapeMode 1 def /rotateMode 2 def
% coordinate system mappings
/dpi2point 0 def
% font control
/FontSize 0 def
/FMS {/FontSize xstore findfont [FontSize 0 0 FontSize neg 0 0]
  makefont setfont} bdef
/ISOLatin1Encoding where {pop /WindowsLatin1Encoding 256 array bdef
ISOLatin1Encoding WindowsLatin1Encoding copy pop
/.notdef/.notdef/quotesinglbase/florin/quotedblbase/ellipsis/dagger
/daggerdbl/circumflex/perthousand/Scaron/guilsinglleft/OE/.notdef/.notdef
/.notdef/.notdef/quoteleft/quoteright/quotedblleft/quotedblright/bullet
/endash/emdash/tilde/trademark/scaron/guilsinglright/oe/.notdef/.notdef
/Ydieresis WindowsLatin1Encoding 128 32 getinterval astore pop}
{/WindowsLatin1Encoding StandardEncoding bdef} ifelse
/reencode {exch dup where {pop load} {pop StandardEncoding} ifelse
  exch dup 3 1 roll findfont dup length dict begin
  { 1 index /FID ne {def}{pop pop} ifelse } forall
  /Encoding exch def currentdict end definefont pop} bdef
/isroman {findfont /CharStrings get /Agrave known} bdef
/FMSR {3 1 roll 1 index dup isroman {reencode} {pop pop} ifelse
  exch FMS} bdef
/csm {1 dpi2point div -1 dpi2point div scale neg translate
 dup landscapeMode eq {pop -90 rotate}
  {rotateMode eq {90 rotate} if} ifelse} bdef
% line types: solid, dotted, dashed, dotdash
/SO { [] 0 setdash } bdef
/DO { [.5 dpi2point mul 4 dpi2point mul] 0 setdash } bdef
/DA { [6 dpi2point mul] 0 setdash } bdef
/DD { [.5 dpi2point mul 4 dpi2point mul 6 dpi2point mul 4
  dpi2point mul] 0 setdash } bdef
% macros for lines and objects
/L {lineto stroke} bdef
/MP {3 1 roll moveto 1 sub {rlineto} repeat} bdef
/AP {{rlineto} repeat} bdef
/PDlw -1 def
/W {/PDlw currentlinewidth def setlinewidth} def
/PP {closepath eofill} bdef
/DP {closepath stroke} bdef
/MR {4 -2 roll moveto dup  0 exch rlineto exch 0 rlineto
  neg 0 exch rlineto closepath} bdef
/FR {MR stroke} bdef
/PR {MR fill} bdef
/L1i {{currentfile picstr readhexstring pop} image} bdef
/tMatrix matrix def
/MakeOval {newpath tMatrix currentmatrix pop translate scale
0 0 1 0 360 arc tMatrix setmatrix} bdef
/FO {MakeOval stroke} bdef
/PO {MakeOval fill} bdef
/PD {currentlinewidth 2 div 0 360 arc fill
   PDlw -1 eq not {PDlw w /PDlw -1 def} if} def
/FA {newpath tMatrix currentmatrix pop translate scale
  0 0 1 5 -2 roll arc tMatrix setmatrix stroke} bdef
/PA {newpath tMatrix currentmatrix pop	translate 0 0 moveto scale
  0 0 1 5 -2 roll arc closepath tMatrix setmatrix fill} bdef
/FAn {newpath tMatrix currentmatrix pop translate scale
  0 0 1 5 -2 roll arcn tMatrix setmatrix stroke} bdef
/PAn {newpath tMatrix currentmatrix pop translate 0 0 moveto scale
  0 0 1 5 -2 roll arcn closepath tMatrix setmatrix fill} bdef
/vradius 0 def /hradius 0 def /lry 0 def
/lrx 0 def /uly 0 def /ulx 0 def /rad 0 def
/MRR {/vradius xdef /hradius xdef /lry xdef /lrx xdef /uly xdef
  /ulx xdef newpath tMatrix currentmatrix pop ulx hradius add uly
  vradius add translate hradius vradius scale 0 0 1 180 270 arc 
  tMatrix setmatrix lrx hradius sub uly vradius add translate
  hradius vradius scale 0 0 1 270 360 arc tMatrix setmatrix
  lrx hradius sub lry vradius sub translate hradius vradius scale
  0 0 1 0 90 arc tMatrix setmatrix ulx hradius add lry vradius sub
  translate hradius vradius scale 0 0 1 90 180 arc tMatrix setmatrix
  closepath} bdef
/FRR {MRR stroke } bdef
/PRR {MRR fill } bdef
/MlrRR {/lry xdef /lrx xdef /uly xdef /ulx xdef /rad lry uly sub 2 div def
  newpath tMatrix currentmatrix pop ulx rad add uly rad add translate
  rad rad scale 0 0 1 90 270 arc tMatrix setmatrix lrx rad sub lry rad
  sub translate rad rad scale 0 0 1 270 90 arc tMatrix setmatrix
  closepath} bdef
/FlrRR {MlrRR stroke } bdef
/PlrRR {MlrRR fill } bdef
/MtbRR {/lry xdef /lrx xdef /uly xdef /ulx xdef /rad lrx ulx sub 2 div def
  newpath tMatrix currentmatrix pop ulx rad add uly rad add translate
  rad rad scale 0 0 1 180 360 arc tMatrix setmatrix lrx rad sub lry rad
  sub translate rad rad scale 0 0 1 0 180 arc tMatrix setmatrix
  closepath} bdef
/FtbRR {MtbRR stroke } bdef
/PtbRR {MtbRR fill } bdef
/stri 6 array def /dtri 6 array def
/smat 6 array def /dmat 6 array def
/tmat1 6 array def /tmat2 6 array def /dif 3 array def
/asub {/ind2 exch def /ind1 exch def dup dup
  ind1 get exch ind2 get sub exch } bdef
/tri_to_matrix {
  2 0 asub 3 1 asub 4 0 asub 5 1 asub
  dup 0 get exch 1 get 7 -1 roll astore } bdef
/compute_transform {
  dmat dtri tri_to_matrix tmat1 invertmatrix 
  smat stri tri_to_matrix tmat2 concatmatrix } bdef
/ds {stri astore pop} bdef
/dt {dtri astore pop} bdef
/db {2 copy /cols xdef /rows xdef mul dup 3 mul string
  currentfile 
  3 index 0 eq {/ASCIIHexDecode filter}
  {/ASCII85Decode filter 3 index 2 eq {/RunLengthDecode filter} if }
  ifelse exch readstring pop
  dup 0 3 index getinterval /rbmap xdef
  dup 2 index dup getinterval /gbmap xdef
  1 index dup 2 mul exch getinterval /bbmap xdef pop pop}bdef
/it {gs np dtri aload pop moveto lineto lineto cp c
  cols rows 8 compute_transform 
  rbmap gbmap bbmap true 3 colorimage gr}bdef
/il {newpath moveto lineto stroke}bdef
currentdict end def
%%EndProlog

%%BeginSetup
MathWorks begin

0 cap

end
%%EndSetup

%%Page: 1 1
%%BeginPageSetup
%%PageBoundingBox:    37   180   549   616
MathWorks begin
bpage
%%EndPageSetup

%%BeginObject: obj1
bplot

/dpi2point 12 def
portraitMode 0216 7344 csm

  234   -48  6149  5231 rc
85 dict begin %Colortable dictionary
/c0 { 0.000000 0.000000 0.000000 sr} bdef
/c1 { 1.000000 1.000000 1.000000 sr} bdef
/c2 { 0.900000 0.000000 0.000000 sr} bdef
/c3 { 0.000000 0.820000 0.000000 sr} bdef
/c4 { 0.000000 0.000000 0.800000 sr} bdef
/c5 { 0.910000 0.820000 0.320000 sr} bdef
/c6 { 1.000000 0.260000 0.820000 sr} bdef
/c7 { 0.000000 0.820000 0.820000 sr} bdef
c0
1 j
1 sg
   0    0 6919 5187 rf
6 w
0 4202 5362 0 0 -4202 899 4616 4 MP
PP
-5362 0 0 4202 5362 0 0 -4202 899 4616 5 MP stroke
4 w
DO
SO
6 w
0 sg
 899  414 mt 6261  414 L
 899 4616 mt 6261 4616 L
6261 4616 mt 6261  414 L
 899 4616 mt  899  414 L
 899 4616 mt 6261 4616 L
 899 4616 mt  899  414 L
 919 4616 mt  919 4562 L
 919  414 mt  919  467 L
%%IncludeResource: font Helvetica
/Helvetica /WindowsLatin1Encoding 240 FMSR

 713 4873 mt 
(-3) s
1806 4616 mt 1806 4562 L
1806  414 mt 1806  467 L
1600 4873 mt 
(-2) s
2693 4616 mt 2693 4562 L
2693  414 mt 2693  467 L
2487 4873 mt 
(-1) s
3580 4616 mt 3580 4562 L
3580  414 mt 3580  467 L
3514 4873 mt 
(0) s
4466 4616 mt 4466 4562 L
4466  414 mt 4466  467 L
4400 4873 mt 
(1) s
5353 4616 mt 5353 4562 L
5353  414 mt 5353  467 L
5287 4873 mt 
(2) s
6240 4616 mt 6240 4562 L
6240  414 mt 6240  467 L
6174 4873 mt 
(3) s
 899 4599 mt  952 4599 L
6261 4599 mt 6207 4599 L
 591 4688 mt 
(-3) s
 899 3904 mt  952 3904 L
6261 3904 mt 6207 3904 L
 591 3993 mt 
(-2) s
 899 3209 mt  952 3209 L
6261 3209 mt 6207 3209 L
 591 3298 mt 
(-1) s
 899 2514 mt  952 2514 L
6261 2514 mt 6207 2514 L
 731 2603 mt 
(0) s
 899 1820 mt  952 1820 L
6261 1820 mt 6207 1820 L
 731 1909 mt 
(1) s
 899 1125 mt  952 1125 L
6261 1125 mt 6207 1125 L
 731 1214 mt 
(2) s
 899  430 mt  952  430 L
6261  430 mt 6207  430 L
 731  519 mt 
(3) s
 899  414 mt 6261  414 L
 899 4616 mt 6261 4616 L
6261 4616 mt 6261  414 L
 899 4616 mt  899  414 L
gs 899 414 5363 4203 rc
gr

/c8 { 0.000000 0.000000 1.000000 sr} bdef
c8
3471 1653 mt 3543 1653 L
3507 1617 mt 3507 1689 L
3376 2293 mt 3448 2293 L
3412 2257 mt 3412 2329 L
3166 3022 mt 3238 3022 L
3202 2986 mt 3202 3058 L
2126 2057 mt 2198 2057 L
2162 2021 mt 2162 2093 L
3232 1689 mt 3304 1689 L
3268 1653 mt 3268 1725 L
3296 2558 mt 3368 2558 L
3332 2522 mt 3332 2594 L
2987 1898 mt 3059 1898 L
3023 1862 mt 3023 1934 L
3110 2673 mt 3182 2673 L
3146 2637 mt 3146 2709 L
1907 1948 mt 1979 1948 L
1943 1912 mt 1943 1984 L
4836 2414 mt 4908 2414 L
4872 2378 mt 4872 2450 L
2662 2338 mt 2734 2338 L
2698 2302 mt 2698 2374 L
2924 2889 mt 2996 2889 L
2960 2853 mt 2960 2925 L
4398 1978 mt 4470 1978 L
4434 1942 mt 4434 2014 L
2980 2379 mt 3052 2379 L
3016 2343 mt 3016 2415 L
4087 1960 mt 4159 1960 L
4123 1924 mt 4123 1996 L
3605 2155 mt 3677 2155 L
3641 2119 mt 3641 2191 L
3290 2920 mt 3362 2920 L
3326 2884 mt 3326 2956 L
4206 3848 mt 4278 3848 L
4242 3812 mt 4242 3884 L
2251 2233 mt 2323 2233 L
2287 2197 mt 2287 2269 L
3996 2549 mt 4068 2549 L
4032 2513 mt 4032 2585 L
3728 2242 mt 3800 2242 L
3764 2206 mt 3764 2278 L
2394 3797 mt 2466 3797 L
2430 3761 mt 2430 3833 L
3359 1764 mt 3431 1764 L
3395 1728 mt 3395 1800 L
4553 2370 mt 4625 2370 L
4589 2334 mt 4589 2406 L
4259 2140 mt 4331 2140 L
4295 2104 mt 4295 2176 L
3927 2480 mt 3999 2480 L
3963 2444 mt 3963 2516 L
 863 2528 mt  935 2528 L
 899 2492 mt  899 2564 L
3284 2237 mt 3356 2237 L
3320 2201 mt 3320 2273 L
3711 1794 mt 3783 1794 L
3747 1758 mt 3747 1830 L
5211 2251 mt 5283 2251 L
5247 2215 mt 5247 2287 L
4290 2646 mt 4362 2646 L
4326 2610 mt 4326 2682 L
2615 2209 mt 2687 2209 L
2651 2173 mt 2651 2245 L
3499 2700 mt 3571 2700 L
3535 2664 mt 3535 2736 L
4074 2840 mt 4146 2840 L
4110 2804 mt 4110 2876 L
2740 1707 mt 2812 1707 L
2776 1671 mt 2776 1743 L
3046 2835 mt 3118 2835 L
3082 2799 mt 3082 2871 L
3785 2580 mt 3857 2580 L
3821 2544 mt 3821 2616 L
3196 1984 mt 3268 1984 L
3232 1948 mt 3232 2020 L
3734 1388 mt 3806 1388 L
3770 1352 mt 3770 1424 L
2523 1858 mt 2595 1858 L
2559 1822 mt 2559 1894 L
2732 2909 mt 2804 2909 L
2768 2873 mt 2768 2945 L
4314 1298 mt 4386 1298 L
4350 1262 mt 4350 1334 L
3677 2334 mt 3749 2334 L
3713 2298 mt 3713 2370 L
3571 3349 mt 3643 3349 L
3607 3313 mt 3607 3385 L
4585 3017 mt 4657 3017 L
4621 2981 mt 4621 3053 L
2888 2396 mt 2960 2396 L
2924 2360 mt 2924 2432 L
3226 1802 mt 3298 1802 L
3262 1766 mt 3262 1838 L
4381 2519 mt 4453 2519 L
4417 2483 mt 4417 2555 L
3313 3045 mt 3385 3045 L
3349 3009 mt 3349 3081 L
4041 2611 mt 4113 2611 L
4077 2575 mt 4077 2647 L
3510 2298 mt 3582 2298 L
3546 2262 mt 3546 2334 L
3921 2361 mt 3993 2361 L
3957 2325 mt 3957 2397 L
4564 2864 mt 4636 2864 L
4600 2828 mt 4600 2900 L
3135 2619 mt 3207 2619 L
3171 2583 mt 3171 2655 L
4266 2628 mt 4338 2628 L
4302 2592 mt 4302 2664 L
4170 2972 mt 4242 2972 L
4206 2936 mt 4206 3008 L
3347 2423 mt 3419 2423 L
3383 2387 mt 3383 2459 L
3588 2682 mt 3660 2682 L
3624 2646 mt 3624 2718 L
2805 1954 mt 2877 1954 L
2841 1918 mt 2841 1990 L
2671 2347 mt 2743 2347 L
2707 2311 mt 2707 2383 L
3449 3395 mt 3521 3395 L
3485 3359 mt 3485 3431 L
3404 2223 mt 3476 2223 L
3440 2187 mt 3440 2259 L
3273 3468 mt 3345 3468 L
3309 3432 mt 3309 3504 L
4114 1816 mt 4186 1816 L
4150 1780 mt 4150 1852 L
2298 2754 mt 2370 2754 L
2334 2718 mt 2334 2790 L
4522 2633 mt 4594 2633 L
4558 2597 mt 4558 2669 L
3621 2284 mt 3693 2284 L
3657 2248 mt 3657 2320 L
2444 2185 mt 2516 2185 L
2480 2149 mt 2480 2221 L
3706 1851 mt 3778 1851 L
3742 1815 mt 3742 1887 L
2479 1181 mt 2551 1181 L
2515 1145 mt 2515 1217 L
3780 1892 mt 3852 1892 L
3816 1856 mt 3816 1928 L
3078 2951 mt 3150 2951 L
3114 2915 mt 3114 2987 L
3432 2602 mt 3504 2602 L
3468 2566 mt 3468 2638 L
2973 1336 mt 3045 1336 L
3009 1300 mt 3009 1372 L
1991 2356 mt 2063 2356 L
2027 2320 mt 2027 2392 L
1259 4072 mt 1331 4072 L
1295 4036 mt 1295 4108 L
4028 3178 mt 4100 3178 L
4064 3142 mt 4064 3214 L
2966 1354 mt 3038 1354 L
3002 1318 mt 3002 1390 L
3013 2040 mt 3085 2040 L
3049 2004 mt 3049 2076 L
4719 2029 mt 4791 2029 L
4755 1993 mt 4755 2065 L
2680 1809 mt 2752 1809 L
2716 1773 mt 2716 1845 L
3141 3540 mt 3213 3540 L
3177 3504 mt 3177 3576 L
4177 2709 mt 4249 2709 L
4213 2673 mt 4213 2745 L
4228 1087 mt 4300 1087 L
4264 1051 mt 4264 1123 L
4706 1972 mt 4778 1972 L
4742 1936 mt 4742 2008 L
3426 3567 mt 3498 3567 L
3462 3531 mt 3462 3603 L
3020 1448 mt 3092 1448 L
3056 1412 mt 3056 1484 L
4021 2659 mt 4093 2659 L
4057 2623 mt 4057 2695 L
4619 3425 mt 4691 3425 L
4655 3389 mt 4655 3461 L
3147 1207 mt 3219 1207 L
3183 1171 mt 3183 1243 L
3007 1502 mt 3079 1502 L
3043 1466 mt 3043 1538 L
4869 1838 mt 4941 1838 L
4905 1802 mt 4905 1874 L
2312 2160 mt 2384 2160 L
2348 2124 mt 2348 2196 L
3832 2554 mt 3904 2554 L
3868 2518 mt 3868 2590 L
3325 2820 mt 3397 2820 L
3361 2784 mt 3361 2856 L
4142 2589 mt 4214 2589 L
4178 2553 mt 4178 2625 L
2945 2501 mt 3017 2501 L
2981 2465 mt 2981 2537 L
3302 1671 mt 3374 1671 L
3338 1635 mt 3338 1707 L
3267 3877 mt 3339 3877 L
3303 3841 mt 3303 3913 L
2490 1514 mt 2562 1514 L
2526 1478 mt 2526 1550 L
3844 2099 mt 3916 2099 L
3880 2063 mt 3880 2135 L
4667 2506 mt 4739 2506 L
4703 2470 mt 4703 2542 L
2643 3405 mt 2715 3405 L
2679 3369 mt 2679 3441 L
2341 4131 mt 2413 4131 L
2377 4095 mt 2377 4167 L
3820 2844 mt 3892 2844 L
3856 2808 mt 3856 2880 L
2534 1878 mt 2606 1878 L
2570 1842 mt 2570 1914 L
2749 1872 mt 2821 1872 L
2785 1836 mt 2785 1908 L
3370 2145 mt 3442 2145 L
3406 2109 mt 3406 2181 L
2456 2759 mt 2528 2759 L
2492 2723 mt 2492 2795 L
4002 2475 mt 4074 2475 L
4038 2439 mt 4038 2511 L
4298 3131 mt 4370 3131 L
4334 3095 mt 4334 3167 L
2407 2768 mt 2479 2768 L
2443 2732 mt 2443 2804 L
2586 3376 mt 2658 3376 L
2622 3340 mt 2622 3412 L
4213 1917 mt 4285 1917 L
4249 1881 mt 4249 1953 L
3098 3503 mt 3170 3503 L
3134 3467 mt 3134 3539 L
2715 3051 mt 2787 3051 L
2751 3015 mt 2751 3087 L
3915 1593 mt 3987 1593 L
3951 1557 mt 3951 1629 L
3560 2316 mt 3632 2316 L
3596 2280 mt 3596 2352 L
3482 2894 mt 3554 2894 L
3518 2858 mt 3518 2930 L
1387 2383 mt 1459 2383 L
1423 2347 mt 1423 2419 L
3549 2288 mt 3621 2288 L
3585 2252 mt 3585 2324 L
4922 2307 mt 4994 2307 L
4958 2271 mt 4958 2343 L
3946 2125 mt 4018 2125 L
3982 2089 mt 3982 2161 L
2595 2035 mt 2667 2035 L
2631 1999 mt 2631 2071 L
3466 3415 mt 3538 3415 L
3502 3379 mt 3502 3451 L
4425 2467 mt 4497 2467 L
4461 2431 mt 4461 2503 L
2355 2445 mt 2427 2445 L
2391 2409 mt 2391 2481 L
1937 2745 mt 2009 2745 L
1973 2709 mt 1973 2781 L
3803 2150 mt 3875 2150 L
3839 2114 mt 3839 2186 L
3964 3595 mt 4036 3595 L
4000 3559 mt 4000 3631 L
4156 2199 mt 4228 2199 L
4192 2163 mt 4192 2235 L
3903 3137 mt 3975 3137 L
3939 3101 mt 3939 3173 L
4191 2637 mt 4263 2637 L
4227 2601 mt 4227 2673 L
3723 3081 mt 3795 3081 L
3759 3045 mt 3759 3117 L
2146 2497 mt 2218 2497 L
2182 2461 mt 2182 2533 L
3220 3625 mt 3292 3625 L
3256 3589 mt 3256 3661 L
2706 3553 mt 2778 3553 L
2742 3517 mt 2742 3589 L
4655 2302 mt 4727 2302 L
4691 2266 mt 4691 2338 L
2605 2830 mt 2677 2830 L
2641 2794 mt 2641 2866 L
3977 2051 mt 4049 2051 L
4013 2015 mt 4013 2087 L
4492 2329 mt 4564 2329 L
4528 2293 mt 4528 2365 L
4015 1634 mt 4087 1634 L
4051 1598 mt 4051 1670 L
3202 2440 mt 3274 2440 L
3238 2404 mt 3238 2476 L
3027 2256 mt 3099 2256 L
3063 2220 mt 3063 2292 L
3952 1748 mt 4024 1748 L
3988 1712 mt 3988 1784 L
4355 2571 mt 4427 2571 L
4391 2535 mt 4391 2607 L
3666 2778 mt 3738 2778 L
3702 2742 mt 3702 2814 L
3129 1462 mt 3201 1462 L
3165 1426 mt 3165 1498 L
3393 1845 mt 3465 1845 L
3429 1809 mt 3429 1881 L
3410 1538 mt 3482 1538 L
3446 1502 mt 3446 1574 L
4067 2194 mt 4139 2194 L
4103 2158 mt 4103 2230 L
4094 3446 mt 4166 3446 L
4130 3410 mt 4130 3482 L
2165 2018 mt 2237 2018 L
2201 1982 mt 2201 2054 L
2634 2567 mt 2706 2567 L
2670 2531 mt 2670 2603 L
3885 2024 mt 3957 2024 L
3921 1988 mt 3921 2060 L
3521 1779 mt 3593 1779 L
3557 1743 mt 3557 1815 L
2282 3479 mt 2354 3479 L
2318 3443 mt 2318 3515 L
3983 3039 mt 4055 3039 L
4019 3003 mt 4019 3075 L
1619 2704 mt 1691 2704 L
1655 2668 mt 1655 2740 L
4435 2736 mt 4507 2736 L
4471 2700 mt 4471 2772 L
3153 3000 mt 3225 3000 L
3189 2964 mt 3189 3036 L
3214 3731 mt 3286 3731 L
3250 3695 mt 3250 3767 L
3364 2365 mt 3436 2365 L
3400 2329 mt 3400 2401 L
5047 2722 mt 5119 2722 L
5083 2686 mt 5083 2758 L
4512 1756 mt 4584 1756 L
4548 1720 mt 4548 1792 L
3072 2170 mt 3144 2170 L
3108 2134 mt 3108 2206 L
4060 3157 mt 4132 3157 L
4096 3121 mt 4096 3193 L
3053 2536 mt 3125 2536 L
3089 2500 mt 3089 2572 L
3421 1006 mt 3493 1006 L
3457  970 mt 3457 1042 L
3855 1885 mt 3927 1885 L
3891 1849 mt 3891 1921 L
3797 1865 mt 3869 1865 L
3833 1829 mt 3833 1901 L
4199 1698 mt 4271 1698 L
4235 1662 mt 4235 1734 L
2468 2214 mt 2540 2214 L
2504 2178 mt 2504 2250 L
3381 2228 mt 3453 2228 L
3417 2192 mt 3417 2264 L
3768 2859 mt 3840 2859 L
3804 2823 mt 3804 2895 L
2836 2388 mt 2908 2388 L
2872 2352 mt 2872 2424 L
3700 2204 mt 3772 2204 L
3736 2168 mt 3736 2240 L
3791 2792 mt 3863 2792 L
3827 2756 mt 3827 2828 L
3085 2279 mt 3157 2279 L
3121 2243 mt 3121 2315 L
2513 1643 mt 2585 1643 L
2549 1607 mt 2549 1679 L
2874 2731 mt 2946 2731 L
2910 2695 mt 2910 2767 L
4532 3164 mt 4604 3164 L
4568 3128 mt 4568 3200 L
3454 2089 mt 3526 2089 L
3490 2053 mt 3490 2125 L
1965 3069 mt 2037 3069 L
2001 3033 mt 2001 3105 L
4886 2078 mt 4958 2078 L
4922 2042 mt 4922 2114 L
2502 2967 mt 2574 2967 L
2538 2931 mt 2538 3003 L
5606 2453 mt 5678 2453 L
5642 2417 mt 5642 2489 L
3577 2801 mt 3649 2801 L
3613 2765 mt 3613 2837 L
5024 1732 mt 5096 1732 L
5060 1696 mt 5060 1768 L
3616 3075 mt 3688 3075 L
3652 3039 mt 3652 3111 L
3838 3527 mt 3910 3527 L
3874 3491 mt 3874 3563 L
2896 3112 mt 2968 3112 L
2932 3076 mt 2932 3148 L
5150 1723 mt 5222 1723 L
5186 1687 mt 5186 1759 L
4732 2115 mt 4804 2115 L
4768 2079 mt 4768 2151 L
3243 1550 mt 3315 1550 L
3279 1514 mt 3279 1586 L
3178 1614 mt 3250 1614 L
3214 1578 mt 3214 1650 L
3909 2615 mt 3981 2615 L
3945 2579 mt 3945 2651 L
3599 1604 mt 3671 1604 L
3635 1568 mt 3635 1640 L
2903 2493 mt 2975 2493 L
2939 2457 mt 2939 2529 L
3555 2764 mt 3627 2764 L
3591 2728 mt 3591 2800 L
4364 1787 mt 4436 1787 L
4400 1751 mt 4400 1823 L
2575 1583 mt 2647 1583 L
2611 1547 mt 2611 1619 L
4904 2165 mt 4976 2165 L
4940 2129 mt 4940 2201 L
4372 2854 mt 4444 2854 L
4408 2818 mt 4408 2890 L
3672 1823 mt 3744 1823 L
3708 1787 mt 3708 1859 L
2851 2695 mt 2923 2695 L
2887 2659 mt 2887 2731 L
4390 2787 mt 4462 2787 L
4426 2751 mt 4426 2823 L
4322 3322 mt 4394 3322 L
4358 3286 mt 4358 3358 L
3826  414 mt 3898  414 L
3862  378 mt 3862  450 L
2201 3457 mt 2273 3457 L
2237 3421 mt 2237 3493 L
2624 1419 mt 2696 1419 L
2660 1383 mt 2660 1455 L
4047 2664 mt 4119 2664 L
4083 2628 mt 4083 2700 L
3861 1715 mt 3933 1715 L
3897 1679 mt 3897 1751 L
3460 2541 mt 3532 2541 L
3496 2505 mt 3496 2577 L
4034 1561 mt 4106 1561 L
4070 1525 mt 4070 1597 L
5700 3227 mt 5772 3227 L
5736 3191 mt 5736 3263 L
2881 1049 mt 2953 1049 L
2917 1013 mt 2917 1085 L
2565 3099 mt 2637 3099 L
2601 3063 mt 2601 3135 L
3814 3980 mt 3886 3980 L
3850 3944 mt 3850 4016 L
3940 2741 mt 4012 2741 L
3976 2705 mt 3976 2777 L
5245 2874 mt 5317 2874 L
5281 2838 mt 5281 2910 L
2327 1966 mt 2399 1966 L
2363 1930 mt 2363 2002 L
3934 2488 mt 4006 2488 L
3970 2452 mt 3970 2524 L
1876 3774 mt 1948 3774 L
1912 3738 mt 1912 3810 L
5365 2946 mt 5437 2946 L
5401 2910 mt 5401 2982 L
3989 2311 mt 4061 2311 L
4025 2275 mt 4025 2347 L
2085 2135 mt 2157 2135 L
2121 2099 mt 2121 2171 L
3689 2083 mt 3761 2083 L
3725 2047 mt 3725 2119 L
3638 2275 mt 3710 2275 L
3674 2239 mt 3674 2311 L
4693 2668 mt 4765 2668 L
4729 2632 mt 4729 2704 L
4221 3942 mt 4293 3942 L
4257 3906 mt 4257 3978 L
3091 2899 mt 3163 2899 L
3127 2863 mt 3127 2935 L
2432 2930 mt 2504 2930 L
2468 2894 mt 2468 2966 L
4680 2401 mt 4752 2401 L
4716 2365 mt 4716 2437 L
3544  957 mt 3616  957 L
3580  921 mt 3580  993 L
3649 2462 mt 3721 2462 L
3685 2426 mt 3685 2498 L
3717 3151 mt 3789 3151 L
3753 3115 mt 3753 3187 L
2545 2935 mt 2617 2935 L
2581 2899 mt 2581 2971 L
2866 1936 mt 2938 1936 L
2902 1900 mt 2902 1972 L
3415 2062 mt 3487 2062 L
3451 2026 mt 3451 2098 L
4347 3087 mt 4419 3087 L
4383 3051 mt 4383 3123 L
4746 2750 mt 4818 2750 L
4782 2714 mt 4782 2786 L
5828 2265 mt 5900 2265 L
5864 2229 mt 5864 2301 L
4542 1121 mt 4614 1121 L
4578 1085 mt 4578 1157 L
4163 4205 mt 4235 4205 L
4199 4169 mt 4199 4241 L
4054 2189 mt 4126 2189 L
4090 2153 mt 4090 2225 L
3897 2606 mt 3969 2606 L
3933 2570 mt 3933 2642 L
3438 1942 mt 3510 1942 L
3474 1906 mt 3474 1978 L
4574  898 mt 4646  898 L
4610  862 mt 4610  934 L
2016 3297 mt 2088 3297 L
2052 3261 mt 2052 3333 L
4251 3752 mt 4323 3752 L
4287 3716 mt 4287 3788 L
3633 2218 mt 3705 2218 L
3669 2182 mt 3669 2254 L
2765 2374 mt 2837 2374 L
2801 2338 mt 2801 2410 L
4789 2884 mt 4861 2884 L
4825 2848 mt 4825 2920 L
2789 2624 mt 2861 2624 L
2825 2588 mt 2825 2660 L
4128 3711 mt 4200 3711 L
4164 3675 mt 4164 3747 L
4407 1831 mt 4479 1831 L
4443 1795 mt 4443 1867 L
3891 2994 mt 3963 2994 L
3927 2958 mt 3927 3030 L
3387 2067 mt 3459 2067 L
3423 2031 mt 3423 2103 L
4416 2427 mt 4488 2427 L
4452 2391 mt 4452 2463 L
2218 3206 mt 2290 3206 L
2254 3170 mt 2254 3242 L
4338 2012 mt 4410 2012 L
4374 1976 mt 4374 2048 L
5282 2418 mt 5354 2418 L
5318 2382 mt 5318 2454 L
3160 3306 mt 3232 3306 L
3196 3270 mt 3196 3342 L
3116 1572 mt 3188 1572 L
3152 1536 mt 3152 1608 L
3477 3250 mt 3549 3250 L
3513 3214 mt 3513 3286 L
2938 3235 mt 3010 3235 L
2974 3199 mt 2974 3271 L
3757 1930 mt 3829 1930 L
3793 1894 mt 3793 1966 L
2235 1371 mt 2307 1371 L
2271 1335 mt 2271 1407 L
3594 2650 mt 3666 2650 L
3630 2614 mt 3630 2686 L
4306 1740 mt 4378 1740 L
4342 1704 mt 4342 1776 L
3488 3436 mt 3560 3436 L
3524 3400 mt 3524 3472 L
5468 3358 mt 5540 3358 L
5504 3322 mt 5504 3394 L
2821 1476 mt 2893 1476 L
2857 1440 mt 2857 1512 L
3538 2532 mt 3610 2532 L
3574 2496 mt 3574 2568 L
2652 4616 mt 2724 4616 L
2688 4580 mt 2688 4652 L
4330 2727 mt 4402 2727 L
4366 2691 mt 4366 2763 L
2959 2001 mt 3031 2001 L
2995 1965 mt 2995 2037 L
3694 2484 mt 3766 2484 L
3730 2448 mt 3730 2520 L
4009 1152 mt 4081 1152 L
4045 1116 mt 4045 1188 L
4100 2782 mt 4172 2782 L
4136 2746 mt 4136 2818 L
2106 2691 mt 2178 2691 L
2142 2655 mt 2142 2727 L
4597 3093 mt 4669 3093 L
4633 3057 mt 4633 3129 L
4274 2320 mt 4346 2320 L
4310 2284 mt 4310 2356 L
4453 2545 mt 4525 2545 L
4489 2509 mt 4489 2581 L
3033 1526 mt 3105 1526 L
3069 1490 mt 3069 1562 L
3255 1404 mt 3327 1404 L
3291 1368 mt 3291 1440 L
3774 2677 mt 3846 2677 L
3810 2641 mt 3810 2713 L
3627 3340 mt 3699 3340 L
3663 3304 mt 3663 3376 L
1481 2597 mt 1553 2597 L
1517 2561 mt 1517 2633 L
3655 2458 mt 3727 2458 L
3691 2422 mt 3691 2494 L
4282 1911 mt 4354 1911 L
4318 1875 mt 4318 1947 L
2931 2343 mt 3003 2343 L
2967 2307 mt 2967 2379 L
4107 3273 mt 4179 3273 L
4143 3237 mt 4143 3309 L
3104 2261 mt 3176 2261 L
3140 2225 mt 3140 2297 L
5071 3191 mt 5143 3191 L
5107 3155 mt 5107 3227 L
3237 3491 mt 3309 3491 L
3273 3455 mt 3273 3527 L
3066  724 mt 3138  724 L
3102  688 mt 3102  760 L
2381 3658 mt 2453 3658 L
2417 3622 mt 2417 3694 L
2781 2094 mt 2853 2094 L
2817 2058 mt 2817 2130 L
4236 2247 mt 4308 2247 L
4272 2211 mt 4272 2283 L
4463 3213 mt 4535 3213 L
4499 3177 mt 4499 3249 L
3740 2815 mt 3812 2815 L
3776 2779 mt 3776 2851 L
2773 3386 mt 2845 3386 L
2809 3350 mt 2809 3422 L
4444 2584 mt 4516 2584 L
4480 2548 mt 4480 2620 L
4981 2956 mt 5053 2956 L
5017 2920 mt 5017 2992 L
1722 2046 mt 1794 2046 L
1758 2010 mt 1758 2082 L
4135 2471 mt 4207 2471 L
4171 2435 mt 4171 2507 L
1766 3220 mt 1838 3220 L
1802 3184 mt 1802 3256 L
3172 2978 mt 3244 2978 L
3208 2942 mt 3208 3014 L
5002 1995 mt 5074 1995 L
5038 1959 mt 5038 2031 L
3319 3693 mt 3391 3693 L
3355 3657 mt 3355 3729 L
3353 3265 mt 3425 3265 L
3389 3229 mt 3389 3301 L
3190 2718 mt 3262 2718 L
3226 2682 mt 3226 2754 L
1674 3034 mt 1746 3034 L
1710 2998 mt 1710 3070 L
2555 2914 mt 2627 2914 L
2591 2878 mt 2591 2950 L
5531 2449 mt 5603 2449 L
5567 2413 mt 5567 2485 L
2813 2641 mt 2885 2641 L
2849 2605 mt 2849 2677 L
3867 2576 mt 3939 2576 L
3903 2540 mt 3903 2612 L
3879  824 mt 3951  824 L
3915  788 mt 3915  860 L
3000 2405 mt 3072 2405 L
3036 2369 mt 3036 2441 L
2689 2879 mt 2761 2879 L
2725 2843 mt 2725 2915 L
3527 2436 mt 3599 2436 L
3563 2400 mt 3563 2472 L
5321 2432 mt 5393 2432 L
5357 2396 mt 5357 2468 L
3516 1662 mt 3588 1662 L
3552 1626 mt 3552 1698 L
4121 2523 mt 4193 2523 L
4157 2487 mt 4157 2559 L
4820 4305 mt 4892 4305 L
4856 4269 mt 4856 4341 L
3505 3118 mt 3577 3118 L
3541 3082 mt 3541 3154 L
3751 3515 mt 3823 3515 L
3787 3479 mt 3787 3551 L
3184 2352 mt 3256 2352 L
3220 2316 mt 3220 2388 L
1556 1904 mt 1628 1904 L
1592 1868 mt 1592 1940 L
2993 3289 mt 3065 3289 L
3029 3253 mt 3029 3325 L
5096 2514 mt 5168 2514 L
5132 2478 mt 5132 2550 L
2757 2983 mt 2829 2983 L
2793 2947 mt 2793 3019 L
3762 2510 mt 3834 2510 L
3798 2474 mt 3798 2546 L
2420 3106 mt 2492 3106 L
2456 3070 mt 2456 3142 L
3123 2562 mt 3195 2562 L
3159 2526 mt 3159 2598 L
4482 1434 mt 4554 1434 L
4518 1398 mt 4518 1470 L
3745 3057 mt 3817 3057 L
3781 3021 mt 3781 3093 L
3809 2410 mt 3881 2410 L
3845 2374 mt 3845 2446 L
4472 1255 mt 4544 1255 L
4508 1219 mt 4508 1291 L
4608 2007 mt 4680 2007 L
4644 1971 mt 4644 2043 L
4149 3242 mt 4221 3242 L
4185 3206 mt 4185 3278 L
2063 2109 mt 2135 2109 L
2099 2073 mt 2099 2145 L
4961 1680 mt 5033 1680 L
4997 1644 mt 4997 1716 L
4080 2904 mt 4152 2904 L
4116 2868 mt 4116 2940 L
1805 3610 mt 1877 3610 L
1841 3574 mt 1841 3646 L
3644 2989 mt 3716 2989 L
3680 2953 mt 3680 3025 L
2859 2104 mt 2931 2104 L
2895 2068 mt 2895 2140 L
2040 3908 mt 2112 3908 L
2076 3872 mt 2076 3944 L
4184 2270 mt 4256 2270 L
4220 2234 mt 4220 2306 L
3683 3314 mt 3755 3314 L
3719 3278 mt 3719 3350 L
2828 3028 mt 2900 3028 L
2864 2992 mt 2864 3064 L
6225 2686 mt 6297 2686 L
6261 2650 mt 6261 2722 L
2844 1624 mt 2916 1624 L
2880 1588 mt 2880 1660 L
6033 1232 mt 6105 1232 L
6069 1196 mt 6069 1268 L
2797 3198 mt 2869 3198 L
2833 3162 mt 2833 3234 L
3566 3331 mt 3638 3331 L
3602 3295 mt 3602 3367 L
2917 2869 mt 2989 2869 L
2953 2833 mt 2953 2905 L
3398 2773 mt 3470 2773 L
3434 2737 mt 3434 2809 L
3850 4023 mt 3922 4023 L
3886 3987 mt 3886 4059 L
4243 2325 mt 4315 2325 L
4279 2289 mt 4279 2361 L
3873  564 mt 3945  564 L
3909  528 mt 3909  600 L
4941 2811 mt 5013 2811 L
4977 2775 mt 4977 2847 L
3610 2940 mt 3682 2940 L
3646 2904 mt 3646 2976 L
3661 3005 mt 3733 3005 L
3697 2969 mt 3697 3041 L
4760 3171 mt 4832 3171 L
4796 3135 mt 4796 3207 L
1842 3675 mt 1914 3675 L
1878 3639 mt 1878 3711 L
3443 3822 mt 3515 3822 L
3479 3786 mt 3479 3858 L
4501 2175 mt 4573 2175 L
4537 2139 mt 4537 2211 L
4643 3367 mt 4715 3367 L
4679 3331 mt 4679 3403 L
4775 2796 mt 4847 2796 L
4811 2760 mt 4811 2832 L
3493 2593 mt 3565 2593 L
3529 2557 mt 3529 2629 L
2910 2962 mt 2982 2962 L
2946 2926 mt 2946 2998 L
3330 3281 mt 3402 3281 L
3366 3245 mt 3366 3317 L
2952 2180 mt 3024 2180 L
2988 2144 mt 2988 2216 L
3208 2806 mt 3280 2806 L
3244 2770 mt 3244 2842 L
4631 3011 mt 4703 3011 L
4667 2975 mt 4667 3047 L
3278 2713 mt 3350 2713 L
3314 2677 mt 3314 2749 L
3059 3184 mt 3131 3184 L
3095 3148 mt 3095 3220 L
3261 3641 mt 3333 3641 L
3297 3605 mt 3297 3677 L
3336 2130 mt 3408 2130 L
3372 2094 mt 3372 2166 L
5180 2120 mt 5252 2120 L
5216 2084 mt 5216 2156 L
3532 2073 mt 3604 2073 L
3568 2037 mt 3568 2109 L
2267 2392 mt 2339 2392 L
2303 2356 mt 2303 2428 L
4805 3144 mt 4877 3144 L
4841 3108 mt 4841 3180 L
3971 3581 mt 4043 3581 L
4007 3545 mt 4007 3617 L
2723 2825 mt 2795 2825 L
2759 2789 mt 2759 2861 L
3958 3063 mt 4030 3063 L
3994 3027 mt 3994 3099 L
3342 1318 mt 3414 1318 L
3378 1282 mt 3378 1354 L
2697 3257 mt 2769 3257 L
2733 3221 mt 2733 3293 L
2183 2849 mt 2255 2849 L
2219 2813 mt 2219 2885 L
3307 2655 mt 3379 2655 L
3343 2619 mt 3343 2691 L
4852 1990 mt 4924 1990 L
4888 1954 mt 4888 2026 L
5122 1923 mt 5194 1923 L
5158 1887 mt 5158 1959 L
2368 1277 mt 2440 1277 L
2404 1241 mt 2404 1313 L
3582 3125 mt 3654 3125 L
3618 3089 mt 3618 3161 L
3249 1489 mt 3321 1489 L
3285 1453 mt 3285 1525 L
3040 2925 mt 3112 2925 L
3076 2889 mt 3076 2961 L
5413 1772 mt 5485 1772 L
5449 1736 mt 5449 1808 L
gs 899 414 5363 4203 rc
gr

0 sg
2775 5104 mt 
(\(F,DCTb,GMM\)) s
 482 3343 mt  -90 rotate
(\(S,LFCC,GMM\)) s
90 rotate
2975  223 mt 
(Corr = 0.07) s

end %%Color Dict

eplot
%%EndObject

epage
end

showpage

%%Trailer
%%EOF
