%!PS-Adobe-3.0 EPSF-3.0
%%Creator: MATLAB, The Mathworks, Inc.
%%Title: Pictures\main_fusion_us_logreg_face_epc.eps
%%CreationDate: 02/14/2009  02:15:22
%%DocumentNeededFonts: Helvetica
%%DocumentProcessColors: Cyan Magenta Yellow Black
%%LanguageLevel: 2
%%Pages: 1
%%BoundingBox:    47   191   553   609
%%EndComments

%%BeginProlog
% MathWorks dictionary
/MathWorks 160 dict begin
% definition operators
/bdef {bind def} bind def
/ldef {load def} bind def
/xdef {exch def} bdef
/xstore {exch store} bdef
% operator abbreviations
/c  /clip ldef
/cc /concat ldef
/cp /closepath ldef
/gr /grestore ldef
/gs /gsave ldef
/mt /moveto ldef
/np /newpath ldef
/cm /currentmatrix ldef
/sm /setmatrix ldef
/rm /rmoveto ldef
/rl /rlineto ldef
/s {show newpath} bdef
/sc {setcmykcolor} bdef
/sr /setrgbcolor ldef
/sg /setgray ldef
/w /setlinewidth ldef
/j /setlinejoin ldef
/cap /setlinecap ldef
/rc {rectclip} bdef
/rf {rectfill} bdef
% page state control
/pgsv () def
/bpage {/pgsv save def} bdef
/epage {pgsv restore} bdef
/bplot /gsave ldef
/eplot {stroke grestore} bdef
% orientation switch
/portraitMode 0 def /landscapeMode 1 def /rotateMode 2 def
% coordinate system mappings
/dpi2point 0 def
% font control
/FontSize 0 def
/FMS {/FontSize xstore findfont [FontSize 0 0 FontSize neg 0 0]
  makefont setfont} bdef
/ISOLatin1Encoding where {pop /WindowsLatin1Encoding 256 array bdef
ISOLatin1Encoding WindowsLatin1Encoding copy pop
/.notdef/.notdef/quotesinglbase/florin/quotedblbase/ellipsis/dagger
/daggerdbl/circumflex/perthousand/Scaron/guilsinglleft/OE/.notdef/.notdef
/.notdef/.notdef/quoteleft/quoteright/quotedblleft/quotedblright/bullet
/endash/emdash/tilde/trademark/scaron/guilsinglright/oe/.notdef/.notdef
/Ydieresis WindowsLatin1Encoding 128 32 getinterval astore pop}
{/WindowsLatin1Encoding StandardEncoding bdef} ifelse
/reencode {exch dup where {pop load} {pop StandardEncoding} ifelse
  exch dup 3 1 roll findfont dup length dict begin
  { 1 index /FID ne {def}{pop pop} ifelse } forall
  /Encoding exch def currentdict end definefont pop} bdef
/isroman {findfont /CharStrings get /Agrave known} bdef
/FMSR {3 1 roll 1 index dup isroman {reencode} {pop pop} ifelse
  exch FMS} bdef
/csm {1 dpi2point div -1 dpi2point div scale neg translate
 dup landscapeMode eq {pop -90 rotate}
  {rotateMode eq {90 rotate} if} ifelse} bdef
% line types: solid, dotted, dashed, dotdash
/SO { [] 0 setdash } bdef
/DO { [.5 dpi2point mul 4 dpi2point mul] 0 setdash } bdef
/DA { [6 dpi2point mul] 0 setdash } bdef
/DD { [.5 dpi2point mul 4 dpi2point mul 6 dpi2point mul 4
  dpi2point mul] 0 setdash } bdef
% macros for lines and objects
/L {lineto stroke} bdef
/MP {3 1 roll moveto 1 sub {rlineto} repeat} bdef
/AP {{rlineto} repeat} bdef
/PDlw -1 def
/W {/PDlw currentlinewidth def setlinewidth} def
/PP {closepath eofill} bdef
/DP {closepath stroke} bdef
/MR {4 -2 roll moveto dup  0 exch rlineto exch 0 rlineto
  neg 0 exch rlineto closepath} bdef
/FR {MR stroke} bdef
/PR {MR fill} bdef
/L1i {{currentfile picstr readhexstring pop} image} bdef
/tMatrix matrix def
/MakeOval {newpath tMatrix currentmatrix pop translate scale
0 0 1 0 360 arc tMatrix setmatrix} bdef
/FO {MakeOval stroke} bdef
/PO {MakeOval fill} bdef
/PD {currentlinewidth 2 div 0 360 arc fill
   PDlw -1 eq not {PDlw w /PDlw -1 def} if} def
/FA {newpath tMatrix currentmatrix pop translate scale
  0 0 1 5 -2 roll arc tMatrix setmatrix stroke} bdef
/PA {newpath tMatrix currentmatrix pop	translate 0 0 moveto scale
  0 0 1 5 -2 roll arc closepath tMatrix setmatrix fill} bdef
/FAn {newpath tMatrix currentmatrix pop translate scale
  0 0 1 5 -2 roll arcn tMatrix setmatrix stroke} bdef
/PAn {newpath tMatrix currentmatrix pop translate 0 0 moveto scale
  0 0 1 5 -2 roll arcn closepath tMatrix setmatrix fill} bdef
/vradius 0 def /hradius 0 def /lry 0 def
/lrx 0 def /uly 0 def /ulx 0 def /rad 0 def
/MRR {/vradius xdef /hradius xdef /lry xdef /lrx xdef /uly xdef
  /ulx xdef newpath tMatrix currentmatrix pop ulx hradius add uly
  vradius add translate hradius vradius scale 0 0 1 180 270 arc 
  tMatrix setmatrix lrx hradius sub uly vradius add translate
  hradius vradius scale 0 0 1 270 360 arc tMatrix setmatrix
  lrx hradius sub lry vradius sub translate hradius vradius scale
  0 0 1 0 90 arc tMatrix setmatrix ulx hradius add lry vradius sub
  translate hradius vradius scale 0 0 1 90 180 arc tMatrix setmatrix
  closepath} bdef
/FRR {MRR stroke } bdef
/PRR {MRR fill } bdef
/MlrRR {/lry xdef /lrx xdef /uly xdef /ulx xdef /rad lry uly sub 2 div def
  newpath tMatrix currentmatrix pop ulx rad add uly rad add translate
  rad rad scale 0 0 1 90 270 arc tMatrix setmatrix lrx rad sub lry rad
  sub translate rad rad scale 0 0 1 270 90 arc tMatrix setmatrix
  closepath} bdef
/FlrRR {MlrRR stroke } bdef
/PlrRR {MlrRR fill } bdef
/MtbRR {/lry xdef /lrx xdef /uly xdef /ulx xdef /rad lrx ulx sub 2 div def
  newpath tMatrix currentmatrix pop ulx rad add uly rad add translate
  rad rad scale 0 0 1 180 360 arc tMatrix setmatrix lrx rad sub lry rad
  sub translate rad rad scale 0 0 1 0 180 arc tMatrix setmatrix
  closepath} bdef
/FtbRR {MtbRR stroke } bdef
/PtbRR {MtbRR fill } bdef
/stri 6 array def /dtri 6 array def
/smat 6 array def /dmat 6 array def
/tmat1 6 array def /tmat2 6 array def /dif 3 array def
/asub {/ind2 exch def /ind1 exch def dup dup
  ind1 get exch ind2 get sub exch } bdef
/tri_to_matrix {
  2 0 asub 3 1 asub 4 0 asub 5 1 asub
  dup 0 get exch 1 get 7 -1 roll astore } bdef
/compute_transform {
  dmat dtri tri_to_matrix tmat1 invertmatrix 
  smat stri tri_to_matrix tmat2 concatmatrix } bdef
/ds {stri astore pop} bdef
/dt {dtri astore pop} bdef
/db {2 copy /cols xdef /rows xdef mul dup 3 mul string
  currentfile 
  3 index 0 eq {/ASCIIHexDecode filter}
  {/ASCII85Decode filter 3 index 2 eq {/RunLengthDecode filter} if }
  ifelse exch readstring pop
  dup 0 3 index getinterval /rbmap xdef
  dup 2 index dup getinterval /gbmap xdef
  1 index dup 2 mul exch getinterval /bbmap xdef pop pop}bdef
/it {gs np dtri aload pop moveto lineto lineto cp c
  cols rows 8 compute_transform 
  rbmap gbmap bbmap true 3 colorimage gr}bdef
/il {newpath moveto lineto stroke}bdef
currentdict end def
%%EndProlog

%%BeginSetup
MathWorks begin

0 cap

end
%%EndSetup

%%Page: 1 1
%%BeginPageSetup
%%PageBoundingBox:    47   191   553   609
MathWorks begin
bpage
%%EndPageSetup

%%BeginObject: obj1
bplot

/dpi2point 12 def
portraitMode 0216 7344 csm

  358    28  6073  5022 rc
86 dict begin %Colortable dictionary
/c0 { 0.000000 0.000000 0.000000 sr} bdef
/c1 { 1.000000 1.000000 1.000000 sr} bdef
/c2 { 0.900000 0.000000 0.000000 sr} bdef
/c3 { 0.000000 0.820000 0.000000 sr} bdef
/c4 { 0.000000 0.000000 0.800000 sr} bdef
/c5 { 0.910000 0.820000 0.320000 sr} bdef
/c6 { 1.000000 0.260000 0.820000 sr} bdef
/c7 { 0.000000 0.820000 0.820000 sr} bdef
c0
1 j
1 sg
   0    0 6919 5187 rf
6 w
0 4227 5362 0 0 -4227 899 4616 4 MP
PP
-5362 0 0 4227 5362 0 0 -4227 899 4616 5 MP stroke
4 w
DO
SO
6 w
0 sg
 899 4616 mt 6261 4616 L
 899 4616 mt  899  389 L
 899 4616 mt  899 4562 L
%%IncludeResource: font Helvetica
/Helvetica /WindowsLatin1Encoding 168 FMSR

 783 4806 mt 
(0.1) s
1569 4616 mt 1569 4562 L
1453 4806 mt 
(0.2) s
2239 4616 mt 2239 4562 L
2123 4806 mt 
(0.3) s
2909 4616 mt 2909 4562 L
2793 4806 mt 
(0.4) s
3580 4616 mt 3580 4562 L
3464 4806 mt 
(0.5) s
4250 4616 mt 4250 4562 L
4134 4806 mt 
(0.6) s
4920 4616 mt 4920 4562 L
4804 4806 mt 
(0.7) s
5590 4616 mt 5590 4562 L
5474 4806 mt 
(0.8) s
6261 4616 mt 6261 4562 L
6145 4806 mt 
(0.9) s
 899 4616 mt  952 4616 L
 631 4678 mt 
(3.5) s
 899 4012 mt  952 4012 L
 771 4074 mt 
(4) s
 899 3408 mt  952 3408 L
 631 3470 mt 
(4.5) s
 899 2804 mt  952 2804 L
 771 2866 mt 
(5) s
 899 2200 mt  952 2200 L
 631 2262 mt 
(5.5) s
 899 1596 mt  952 1596 L
 771 1658 mt 
(6) s
 899  992 mt  952  992 L
 631 1054 mt 
(6.5) s
 899  389 mt  952  389 L
 771  451 mt 
(7) s
gs 899 389 5363 4228 rc
537 -602 536 -553 536 -374 536 -311 536 16 537 152 536 36 536 543 
536 712 536 1798 899 1143 11 MP stroke
gr

gs 778 1022 5605 3500 rc
0 j
69 119 -138 0 69 -119 899 1222 4 MP
DP
69 119 -138 0 69 -119 1435 3020 4 MP
DP
69 119 -138 0 69 -119 1971 3732 4 MP
DP
69 119 -138 0 69 -119 2507 4275 4 MP
DP
69 119 -138 0 69 -119 3043 4311 4 MP
DP
69 119 -138 0 69 -119 3580 4463 4 MP
DP
69 119 -138 0 69 -119 4116 4479 4 MP
DP
69 119 -138 0 69 -119 4652 4168 4 MP
DP
69 119 -138 0 69 -119 5188 3794 4 MP
DP
69 119 -138 0 69 -119 5724 3241 4 MP
DP
69 119 -138 0 69 -119 6261 2639 4 MP
DP
gr

gs 899 389 5363 4228 rc
/c8 { 0.000000 0.000000 1.000000 sr} bdef
c8
537 -1018 536 -406 536 -109 536 -273 536 57 537 173 536 226 536 548 
536 835 536 1922 899 712 11 MP stroke
gr

c8
gs 778 591 5605 4004 rc
 857  670 mt  941  754 L
 941  670 mt  857  754 L
1393 2592 mt 1477 2676 L
1477 2592 mt 1393 2676 L
1929 3427 mt 2013 3511 L
2013 3427 mt 1929 3511 L
2465 3975 mt 2549 4059 L
2549 3975 mt 2465 4059 L
3001 4201 mt 3085 4285 L
3085 4201 mt 3001 4285 L
3538 4374 mt 3622 4458 L
3622 4374 mt 3538 4458 L
4074 4431 mt 4158 4515 L
4158 4431 mt 4074 4515 L
4610 4158 mt 4694 4242 L
4694 4158 mt 4610 4242 L
5146 4049 mt 5230 4133 L
5230 4049 mt 5146 4133 L
5682 3643 mt 5766 3727 L
5766 3643 mt 5682 3727 L
6219 2625 mt 6303 2709 L
6303 2625 mt 6219 2709 L
gr

gs 899 389 5363 4228 rc
/c9 { 1.000000 0.000000 0.000000 sr} bdef
c9
537 -841 536 -464 536 -280 536 -70 536 -21 537 160 536 304 536 455 
536 868 536 1786 899 813 11 MP stroke
gr

c9
gs 778 692 5605 3816 rc
  60   60  899  813 FO
  60   60 1435 2599 FO
  60   60 1971 3467 FO
  60   60 2507 3922 FO
  60   60 3043 4226 FO
  60   60 3580 4386 FO
  60   60 4116 4365 FO
  60   60 4652 4295 FO
  60   60 5188 4015 FO
  60   60 5724 3551 FO
  60   60 6261 2710 FO
gr

gs 899 389 5363 4228 rc
/c10 { 0.000000 1.000000 0.000000 sr} bdef
c10
537 -693 536 -419 536 -387 536 -91 536 -26 537 -178 536 -12 536 241 
536 183 536 795 899 3134 11 MP stroke
gr

c10
gs 778 2426 5605 2049 rc
 857 3092 mt  941 3176 L
 941 3092 mt  857 3176 L
1393 3887 mt 1477 3971 L
1477 3887 mt 1393 3971 L
1929 4070 mt 2013 4154 L
2013 4070 mt 1929 4154 L
2465 4311 mt 2549 4395 L
2549 4311 mt 2465 4395 L
3001 4299 mt 3085 4383 L
3085 4299 mt 3001 4383 L
3538 4121 mt 3622 4205 L
3622 4121 mt 3538 4205 L
4074 4095 mt 4158 4179 L
4158 4095 mt 4074 4179 L
4610 4004 mt 4694 4088 L
4694 4004 mt 4610 4088 L
5146 3617 mt 5230 3701 L
5230 3617 mt 5146 3701 L
5682 3198 mt 5766 3282 L
5766 3198 mt 5682 3282 L
6219 2505 mt 6303 2589 L
6303 2505 mt 6219 2589 L
gr

gs 899 389 5363 4228 rc
c8
537 -891 536 -222 536 -253 536 -252 536 -155 537 -129 536 163 536 330 
536 180 536 1143 899 2617 11 MP stroke
gr

c8
gs 778 2410 5605 2145 rc
 839 2617 mt  959 2617 L
 899 2557 mt  899 2677 L
1375 3760 mt 1495 3760 L
1435 3700 mt 1435 3820 L
1911 3940 mt 2031 3940 L
1971 3880 mt 1971 4000 L
2447 4270 mt 2567 4270 L
2507 4210 mt 2507 4330 L
2983 4433 mt 3103 4433 L
3043 4373 mt 3043 4493 L
3520 4304 mt 3640 4304 L
3580 4244 mt 3580 4364 L
4056 4149 mt 4176 4149 L
4116 4089 mt 4116 4209 L
4592 3897 mt 4712 3897 L
4652 3837 mt 4652 3957 L
5128 3644 mt 5248 3644 L
5188 3584 mt 5188 3704 L
5664 3422 mt 5784 3422 L
5724 3362 mt 5724 3482 L
6201 2531 mt 6321 2531 L
6261 2471 mt 6261 2591 L
 857 2575 mt  941 2659 L
 941 2575 mt  857 2659 L
1393 3718 mt 1477 3802 L
1477 3718 mt 1393 3802 L
1929 3898 mt 2013 3982 L
2013 3898 mt 1929 3982 L
2465 4228 mt 2549 4312 L
2549 4228 mt 2465 4312 L
3001 4391 mt 3085 4475 L
3085 4391 mt 3001 4475 L
3538 4262 mt 3622 4346 L
3622 4262 mt 3538 4346 L
4074 4107 mt 4158 4191 L
4158 4107 mt 4074 4191 L
4610 3855 mt 4694 3939 L
4694 3855 mt 4610 3939 L
5146 3602 mt 5230 3686 L
5230 3602 mt 5146 3686 L
5682 3380 mt 5766 3464 L
5766 3380 mt 5682 3464 L
6219 2489 mt 6303 2573 L
6303 2489 mt 6219 2573 L
gr

gs 899 389 5363 4228 rc
c9
537 -679 536 -267 536 -227 536 43 536 -47 537 -107 536 250 536 426 
536 862 536 1744 899 624 11 MP stroke
gr

c9
gs 778 503 5605 3525 rc
0 j
0 -94 -94 0 0 94 94 0 852 577 5 MP
DP
0 -94 -94 0 0 94 94 0 1388 2321 5 MP
DP
0 -94 -94 0 0 94 94 0 1924 3183 5 MP
DP
0 -94 -94 0 0 94 94 0 2460 3609 5 MP
DP
0 -94 -94 0 0 94 94 0 2996 3859 5 MP
DP
0 -94 -94 0 0 94 94 0 3533 3752 5 MP
DP
0 -94 -94 0 0 94 94 0 4069 3705 5 MP
DP
0 -94 -94 0 0 94 94 0 4605 3748 5 MP
DP
0 -94 -94 0 0 94 94 0 5141 3521 5 MP
DP
0 -94 -94 0 0 94 94 0 5677 3254 5 MP
DP
0 -94 -94 0 0 94 94 0 6214 2575 5 MP
DP
gr

gs 899 389 5363 4228 rc
c10
537 -712 536 -561 536 -235 536 -180 536 -175 537 -80 536 109 536 295 
536 723 536 1522 899 1883 11 MP stroke
gr

c10
gs 778 1762 5605 2892 rc
0 j
60 79 -60 79 -60 -79 60 -79 899 1962 5 MP
DP
60 79 -60 79 -60 -79 60 -79 1435 3484 5 MP
DP
60 79 -60 79 -60 -79 60 -79 1971 4207 5 MP
DP
60 79 -60 79 -60 -79 60 -79 2507 4502 5 MP
DP
60 79 -60 79 -60 -79 60 -79 3043 4611 5 MP
DP
60 79 -60 79 -60 -79 60 -79 3580 4531 5 MP
DP
60 79 -60 79 -60 -79 60 -79 4116 4356 5 MP
DP
60 79 -60 79 -60 -79 60 -79 4652 4176 5 MP
DP
60 79 -60 79 -60 -79 60 -79 5188 3941 5 MP
DP
60 79 -60 79 -60 -79 60 -79 5724 3380 5 MP
DP
60 79 -60 79 -60 -79 60 -79 6261 2668 5 MP
DP
gr

gs 899 389 5363 4228 rc
c8
537 -761 536 -350 536 -462 536 -53 536 -117 537 150 536 236 536 594 
536 1020 536 2058 899 535 11 MP stroke
gr

c8
gs 778 414 5605 4301 rc
0 j
69 119 -138 0 69 -119 899 614 4 MP
DP
69 119 -138 0 69 -119 1435 2672 4 MP
DP
69 119 -138 0 69 -119 1971 3692 4 MP
DP
69 119 -138 0 69 -119 2507 4286 4 MP
DP
69 119 -138 0 69 -119 3043 4522 4 MP
DP
69 119 -138 0 69 -119 3580 4672 4 MP
DP
69 119 -138 0 69 -119 4116 4555 4 MP
DP
69 119 -138 0 69 -119 4652 4502 4 MP
DP
69 119 -138 0 69 -119 5188 4040 4 MP
DP
69 119 -138 0 69 -119 5724 3690 4 MP
DP
69 119 -138 0 69 -119 6261 2929 4 MP
DP
gr

gs 899 389 5363 4228 rc
c10
537 -606 536 -549 536 -190 536 -111 536 -216 537 72 536 140 536 213 
536 520 536 829 899 2619 11 MP stroke
gr

c10
gs 778 2498 5605 2017 rc
0 j
-69 119 -69 -119 138 0 830 2659 4 MP
DP
-69 119 -69 -119 138 0 1366 3488 4 MP
DP
-69 119 -69 -119 138 0 1902 4008 4 MP
DP
-69 119 -69 -119 138 0 2438 4221 4 MP
DP
-69 119 -69 -119 138 0 2974 4361 4 MP
DP
-69 119 -69 -119 138 0 3511 4433 4 MP
DP
-69 119 -69 -119 138 0 4047 4217 4 MP
DP
-69 119 -69 -119 138 0 4583 4106 4 MP
DP
-69 119 -69 -119 138 0 5119 3916 4 MP
DP
-69 119 -69 -119 138 0 5655 3367 4 MP
DP
-69 119 -69 -119 138 0 6192 2761 4 MP
DP
gr

gs 899 389 5363 4228 rc
c8
537 -918 536 -440 536 -235 536 -245 536 -236 537 -37 536 91 536 346 
536 658 536 1401 899 2085 11 MP stroke
gr

c8
gs 778 1964 5605 2739 rc
0 j
-119 69 0 -138 119 69 820 2085 4 MP
DP
-119 69 0 -138 119 69 1356 3486 4 MP
DP
-119 69 0 -138 119 69 1892 4144 4 MP
DP
-119 69 0 -138 119 69 2428 4490 4 MP
DP
-119 69 0 -138 119 69 2964 4581 4 MP
DP
-119 69 0 -138 119 69 3501 4544 4 MP
DP
-119 69 0 -138 119 69 4037 4308 4 MP
DP
-119 69 0 -138 119 69 4573 4063 4 MP
DP
-119 69 0 -138 119 69 5109 3828 4 MP
DP
-119 69 0 -138 119 69 5645 3388 4 MP
DP
-119 69 0 -138 119 69 6182 2470 4 MP
DP
gr

gs 899 389 5363 4228 rc
gr

0 sg
%%IncludeResource: font Symbol
/Symbol /WindowsLatin1Encoding 168 FMSR

3533 4976 mt 
(b) s
%%IncludeResource: font Helvetica
/Helvetica /WindowsLatin1Encoding 168 FMSR

 539 2886 mt  -90 rotate
(HTER \(%\)) s
90 rotate
3423  257 mt 
(face) s
%%IncludeResource: font Helvetica
/Helvetica /WindowsLatin1Encoding 120 FMSR

 882 4659 mt 
( ) s
6245  431 mt 
( ) s
1 sg
0 2052 1824 0 0 -2052 2668 2501 4 MP
PP
-1824 0 0 2052 1824 0 0 -2052 2668 2501 5 MP stroke
4 w
DO
SO
6 w
0 sg
2668  449 mt 4492  449 L
2668 2501 mt 4492 2501 L
4492 2501 mt 4492  449 L
2668 2501 mt 2668  449 L
2668 2501 mt 4492 2501 L
2668 2501 mt 2668  449 L
2668  449 mt 4492  449 L
2668 2501 mt 4492 2501 L
4492 2501 mt 4492  449 L
2668 2501 mt 2668  449 L
%%IncludeResource: font Helvetica
/Helvetica /WindowsLatin1Encoding 168 FMSR

3145  629 mt 
(orig) s
gs 2668 449 1825 2053 rc
366 0 2741 568 2 MP stroke
gr

gs 2803 447 243 243 rc
0 j
69 119 -138 0 69 -119 2924 647 4 MP
DP
gr

gs 2668 449 1825 2053 rc
gr

3145  830 mt 
(z-norm \(lr\)) s
gs 2668 449 1825 2053 rc
c8
366 0 2741 770 2 MP stroke
gs 2803 649 243 243 rc
2882  728 mt 2966  812 L
2966  728 mt 2882  812 L
gr

gr

c8
0 sg
3145 1032 mt 
(z-norm) s
gs 2668 449 1825 2053 rc
c9
366 0 2741 971 2 MP stroke
gs 2803 850 243 243 rc
  60   60 2924  971 FO
gr

gr

c9
0 sg
3145 1233 mt 
(z-norm, gen \(lr\)) s
gs 2668 449 1825 2053 rc
c10
366 0 2741 1172 2 MP stroke
gs 2803 1051 243 243 rc
2882 1130 mt 2966 1214 L
2966 1130 mt 2882 1214 L
gr

gr

c10
0 sg
3145 1435 mt 
(z-norm [y,p] \(lr\)) s
gs 2668 449 1825 2053 rc
c8
366 0 2741 1374 2 MP stroke
gs 2803 1253 243 243 rc
2864 1374 mt 2984 1374 L
2924 1314 mt 2924 1434 L
2882 1332 mt 2966 1416 L
2966 1332 mt 2882 1416 L
gr

gr

c8
0 sg
3145 1636 mt 
(z-norm [y,y*p] \(lr\)) s
gs 2668 449 1825 2053 rc
c9
366 0 2741 1575 2 MP stroke
gs 2803 1454 243 243 rc
0 j
0 -94 -94 0 0 94 94 0 2877 1528 5 MP
DP
gr

gr

c9
0 sg
3145 1838 mt 
(f-norm) s
gs 2668 449 1825 2053 rc
c10
366 0 2741 1777 2 MP stroke
gs 2803 1656 243 243 rc
0 j
60 79 -60 79 -60 -79 60 -79 2924 1856 5 MP
DP
gr

gr

c10
0 sg
3145 2039 mt 
(f-norm v1 \(lr\)) s
gs 2668 449 1825 2053 rc
c8
366 0 2741 1978 2 MP stroke
gs 2803 1857 243 243 rc
0 j
69 119 -138 0 69 -119 2924 2057 4 MP
DP
gr

gr

c8
0 sg
3145 2241 mt 
(f-norm v2 \(lr\)) s
gs 2668 449 1825 2053 rc
c10
366 0 2741 2179 2 MP stroke
gs 2803 2058 243 243 rc
0 j
-69 119 -69 -119 138 0 2855 2219 4 MP
DP
gr

gr

c10
0 sg
3145 2442 mt 
(f-norm-lr) s
gs 2668 449 1825 2053 rc
c8
366 0 2741 2381 2 MP stroke
gr

c8
gs 2803 2260 243 243 rc
0 j
-119 69 0 -138 119 69 2845 2381 4 MP
DP
gr

gs 2668 449 1825 2053 rc
gr


end %%Color Dict

eplot
%%EndObject

epage
end

showpage

%%Trailer
%%EOF
