%!PS-Adobe-3.0 EPSF-3.0
%%Creator: MATLAB, The Mathworks, Inc. Version 7.7.0.471 (R2008b). Operating System: Microsoft Windows XP.
%%Title: Pictures\main_zoo_mvar_analysis_data_BMI_xcorr_bmig_p1_k2_5_6.eps
%%CreationDate: 10/26/2009  05:45:29
%%DocumentNeededFonts: Helvetica
%%DocumentProcessColors: Cyan Magenta Yellow Black
%%LanguageLevel: 2
%%Pages: 1
%%BoundingBox:    37   180   549   616
%%EndComments

%%BeginProlog
% MathWorks dictionary
/MathWorks 160 dict begin
% definition operators
/bdef {bind def} bind def
/ldef {load def} bind def
/xdef {exch def} bdef
/xstore {exch store} bdef
% operator abbreviations
/c  /clip ldef
/cc /concat ldef
/cp /closepath ldef
/gr /grestore ldef
/gs /gsave ldef
/mt /moveto ldef
/np /newpath ldef
/cm /currentmatrix ldef
/sm /setmatrix ldef
/rm /rmoveto ldef
/rl /rlineto ldef
/s {show newpath} bdef
/sc {setcmykcolor} bdef
/sr /setrgbcolor ldef
/sg /setgray ldef
/w /setlinewidth ldef
/j /setlinejoin ldef
/cap /setlinecap ldef
/rc {rectclip} bdef
/rf {rectfill} bdef
% page state control
/pgsv () def
/bpage {/pgsv save def} bdef
/epage {pgsv restore} bdef
/bplot /gsave ldef
/eplot {stroke grestore} bdef
% orientation switch
/portraitMode 0 def /landscapeMode 1 def /rotateMode 2 def
% coordinate system mappings
/dpi2point 0 def
% font control
/FontSize 0 def
/FMS {/FontSize xstore findfont [FontSize 0 0 FontSize neg 0 0]
  makefont setfont} bdef
/ISOLatin1Encoding where {pop /WindowsLatin1Encoding 256 array bdef
ISOLatin1Encoding WindowsLatin1Encoding copy pop
/.notdef/.notdef/quotesinglbase/florin/quotedblbase/ellipsis/dagger
/daggerdbl/circumflex/perthousand/Scaron/guilsinglleft/OE/.notdef/.notdef
/.notdef/.notdef/quoteleft/quoteright/quotedblleft/quotedblright/bullet
/endash/emdash/tilde/trademark/scaron/guilsinglright/oe/.notdef/.notdef
/Ydieresis WindowsLatin1Encoding 128 32 getinterval astore pop}
{/WindowsLatin1Encoding StandardEncoding bdef} ifelse
/reencode {exch dup where {pop load} {pop StandardEncoding} ifelse
  exch dup 3 1 roll findfont dup length dict begin
  { 1 index /FID ne {def}{pop pop} ifelse } forall
  /Encoding exch def currentdict end definefont pop} bdef
/isroman {findfont /CharStrings get /Agrave known} bdef
/FMSR {3 1 roll 1 index dup isroman {reencode} {pop pop} ifelse
  exch FMS} bdef
/csm {1 dpi2point div -1 dpi2point div scale neg translate
 dup landscapeMode eq {pop -90 rotate}
  {rotateMode eq {90 rotate} if} ifelse} bdef
% line types: solid, dotted, dashed, dotdash
/SO { [] 0 setdash } bdef
/DO { [.5 dpi2point mul 4 dpi2point mul] 0 setdash } bdef
/DA { [6 dpi2point mul] 0 setdash } bdef
/DD { [.5 dpi2point mul 4 dpi2point mul 6 dpi2point mul 4
  dpi2point mul] 0 setdash } bdef
% macros for lines and objects
/L {lineto stroke} bdef
/MP {3 1 roll moveto 1 sub {rlineto} repeat} bdef
/AP {{rlineto} repeat} bdef
/PDlw -1 def
/W {/PDlw currentlinewidth def setlinewidth} def
/PP {closepath eofill} bdef
/DP {closepath stroke} bdef
/MR {4 -2 roll moveto dup  0 exch rlineto exch 0 rlineto
  neg 0 exch rlineto closepath} bdef
/FR {MR stroke} bdef
/PR {MR fill} bdef
/L1i {{currentfile picstr readhexstring pop} image} bdef
/tMatrix matrix def
/MakeOval {newpath tMatrix currentmatrix pop translate scale
0 0 1 0 360 arc tMatrix setmatrix} bdef
/FO {MakeOval stroke} bdef
/PO {MakeOval fill} bdef
/PD {currentlinewidth 2 div 0 360 arc fill
   PDlw -1 eq not {PDlw w /PDlw -1 def} if} def
/FA {newpath tMatrix currentmatrix pop translate scale
  0 0 1 5 -2 roll arc tMatrix setmatrix stroke} bdef
/PA {newpath tMatrix currentmatrix pop	translate 0 0 moveto scale
  0 0 1 5 -2 roll arc closepath tMatrix setmatrix fill} bdef
/FAn {newpath tMatrix currentmatrix pop translate scale
  0 0 1 5 -2 roll arcn tMatrix setmatrix stroke} bdef
/PAn {newpath tMatrix currentmatrix pop translate 0 0 moveto scale
  0 0 1 5 -2 roll arcn closepath tMatrix setmatrix fill} bdef
/vradius 0 def /hradius 0 def /lry 0 def
/lrx 0 def /uly 0 def /ulx 0 def /rad 0 def
/MRR {/vradius xdef /hradius xdef /lry xdef /lrx xdef /uly xdef
  /ulx xdef newpath tMatrix currentmatrix pop ulx hradius add uly
  vradius add translate hradius vradius scale 0 0 1 180 270 arc 
  tMatrix setmatrix lrx hradius sub uly vradius add translate
  hradius vradius scale 0 0 1 270 360 arc tMatrix setmatrix
  lrx hradius sub lry vradius sub translate hradius vradius scale
  0 0 1 0 90 arc tMatrix setmatrix ulx hradius add lry vradius sub
  translate hradius vradius scale 0 0 1 90 180 arc tMatrix setmatrix
  closepath} bdef
/FRR {MRR stroke } bdef
/PRR {MRR fill } bdef
/MlrRR {/lry xdef /lrx xdef /uly xdef /ulx xdef /rad lry uly sub 2 div def
  newpath tMatrix currentmatrix pop ulx rad add uly rad add translate
  rad rad scale 0 0 1 90 270 arc tMatrix setmatrix lrx rad sub lry rad
  sub translate rad rad scale 0 0 1 270 90 arc tMatrix setmatrix
  closepath} bdef
/FlrRR {MlrRR stroke } bdef
/PlrRR {MlrRR fill } bdef
/MtbRR {/lry xdef /lrx xdef /uly xdef /ulx xdef /rad lrx ulx sub 2 div def
  newpath tMatrix currentmatrix pop ulx rad add uly rad add translate
  rad rad scale 0 0 1 180 360 arc tMatrix setmatrix lrx rad sub lry rad
  sub translate rad rad scale 0 0 1 0 180 arc tMatrix setmatrix
  closepath} bdef
/FtbRR {MtbRR stroke } bdef
/PtbRR {MtbRR fill } bdef
/stri 6 array def /dtri 6 array def
/smat 6 array def /dmat 6 array def
/tmat1 6 array def /tmat2 6 array def /dif 3 array def
/asub {/ind2 exch def /ind1 exch def dup dup
  ind1 get exch ind2 get sub exch } bdef
/tri_to_matrix {
  2 0 asub 3 1 asub 4 0 asub 5 1 asub
  dup 0 get exch 1 get 7 -1 roll astore } bdef
/compute_transform {
  dmat dtri tri_to_matrix tmat1 invertmatrix 
  smat stri tri_to_matrix tmat2 concatmatrix } bdef
/ds {stri astore pop} bdef
/dt {dtri astore pop} bdef
/db {2 copy /cols xdef /rows xdef mul dup 3 mul string
  currentfile 
  3 index 0 eq {/ASCIIHexDecode filter}
  {/ASCII85Decode filter 3 index 2 eq {/RunLengthDecode filter} if }
  ifelse exch readstring pop
  dup 0 3 index getinterval /rbmap xdef
  dup 2 index dup getinterval /gbmap xdef
  1 index dup 2 mul exch getinterval /bbmap xdef pop pop}bdef
/it {gs np dtri aload pop moveto lineto lineto cp c
  cols rows 8 compute_transform 
  rbmap gbmap bbmap true 3 colorimage gr}bdef
/il {newpath moveto lineto stroke}bdef
currentdict end def
%%EndProlog

%%BeginSetup
MathWorks begin

0 cap

end
%%EndSetup

%%Page: 1 1
%%BeginPageSetup
%%PageBoundingBox:    37   180   549   616
MathWorks begin
bpage
%%EndPageSetup

%%BeginObject: obj1
bplot

/dpi2point 12 def
portraitMode 0216 7344 csm

  234   -48  6149  5231 rc
85 dict begin %Colortable dictionary
/c0 { 0.000000 0.000000 0.000000 sr} bdef
/c1 { 1.000000 1.000000 1.000000 sr} bdef
/c2 { 0.900000 0.000000 0.000000 sr} bdef
/c3 { 0.000000 0.820000 0.000000 sr} bdef
/c4 { 0.000000 0.000000 0.800000 sr} bdef
/c5 { 0.910000 0.820000 0.320000 sr} bdef
/c6 { 1.000000 0.260000 0.820000 sr} bdef
/c7 { 0.000000 0.820000 0.820000 sr} bdef
c0
1 j
1 sg
   0    0 6919 5187 rf
6 w
0 4202 5362 0 0 -4202 899 4616 4 MP
PP
-5362 0 0 4202 5362 0 0 -4202 899 4616 5 MP stroke
4 w
DO
SO
6 w
0 sg
 899  414 mt 6261  414 L
 899 4616 mt 6261 4616 L
6261 4616 mt 6261  414 L
 899 4616 mt  899  414 L
 899 4616 mt 6261 4616 L
 899 4616 mt  899  414 L
 919 4616 mt  919 4562 L
 919  414 mt  919  467 L
%%IncludeResource: font Helvetica
/Helvetica /WindowsLatin1Encoding 240 FMSR

 713 4873 mt 
(-3) s
1806 4616 mt 1806 4562 L
1806  414 mt 1806  467 L
1600 4873 mt 
(-2) s
2693 4616 mt 2693 4562 L
2693  414 mt 2693  467 L
2487 4873 mt 
(-1) s
3580 4616 mt 3580 4562 L
3580  414 mt 3580  467 L
3514 4873 mt 
(0) s
4466 4616 mt 4466 4562 L
4466  414 mt 4466  467 L
4400 4873 mt 
(1) s
5353 4616 mt 5353 4562 L
5353  414 mt 5353  467 L
5287 4873 mt 
(2) s
6240 4616 mt 6240 4562 L
6240  414 mt 6240  467 L
6174 4873 mt 
(3) s
 899 4599 mt  952 4599 L
6261 4599 mt 6207 4599 L
 591 4688 mt 
(-3) s
 899 3904 mt  952 3904 L
6261 3904 mt 6207 3904 L
 591 3993 mt 
(-2) s
 899 3209 mt  952 3209 L
6261 3209 mt 6207 3209 L
 591 3298 mt 
(-1) s
 899 2514 mt  952 2514 L
6261 2514 mt 6207 2514 L
 731 2603 mt 
(0) s
 899 1820 mt  952 1820 L
6261 1820 mt 6207 1820 L
 731 1909 mt 
(1) s
 899 1125 mt  952 1125 L
6261 1125 mt 6207 1125 L
 731 1214 mt 
(2) s
 899  430 mt  952  430 L
6261  430 mt 6207  430 L
 731  519 mt 
(3) s
 899  414 mt 6261  414 L
 899 4616 mt 6261 4616 L
6261 4616 mt 6261  414 L
 899 4616 mt  899  414 L
gs 899 414 5363 4203 rc
gr

/c8 { 0.000000 0.000000 1.000000 sr} bdef
c8
3745 2611 mt 3817 2611 L
3781 2575 mt 3781 2647 L
3376 2695 mt 3448 2695 L
3412 2659 mt 3412 2731 L
3915 2284 mt 3987 2284 L
3951 2248 mt 3951 2320 L
3493 2700 mt 3565 2700 L
3529 2664 mt 3529 2736 L
3566 2199 mt 3638 2199 L
3602 2163 mt 3602 2235 L
4121 2165 mt 4193 2165 L
4157 2129 mt 4157 2201 L
2502 3075 mt 2574 3075 L
2538 3039 mt 2538 3111 L
2813 3051 mt 2885 3051 L
2849 3015 mt 2849 3087 L
2565 3358 mt 2637 3358 L
2601 3322 mt 2601 3394 L
4981 1462 mt 5053 1462 L
5017 1426 mt 5017 1498 L
2165 3265 mt 2237 3265 L
2201 3229 mt 2201 3301 L
3689 2562 mt 3761 2562 L
3725 2526 mt 3725 2598 L
4364 1936 mt 4436 1936 L
4400 1900 mt 4400 1972 L
3627 2589 mt 3699 2589 L
3663 2553 mt 3663 2625 L
4904 1583 mt 4976 1583 L
4940 1547 mt 4940 1619 L
3110 3581 mt 3182 3581 L
3146 3545 mt 3146 3617 L
3290 3045 mt 3362 3045 L
3326 3009 mt 3326 3081 L
3516 2637 mt 3588 2637 L
3552 2601 mt 3552 2673 L
3296 2962 mt 3368 2962 L
3332 2926 mt 3332 2998 L
3364 2471 mt 3436 2471 L
3400 2435 mt 3400 2507 L
3549 2691 mt 3621 2691 L
3585 2655 mt 3585 2727 L
3706 2130 mt 3778 2130 L
3742 2094 mt 3742 2166 L
2805 2940 mt 2877 2940 L
2841 2904 mt 2841 2976 L
3621 2567 mt 3693 2567 L
3657 2531 mt 3657 2603 L
5047 1388 mt 5119 1388 L
5083 1352 mt 5083 1424 L
4107 1593 mt 4179 1593 L
4143 1557 mt 4143 1629 L
3432 2773 mt 3504 2773 L
3468 2737 mt 3468 2809 L
4425 1858 mt 4497 1858 L
4461 1822 mt 4461 1894 L
2586 3610 mt 2658 3610 L
2622 3574 mt 2622 3646 L
2624 3515 mt 2696 3515 L
2660 3479 mt 2660 3551 L
3610 2094 mt 3682 2094 L
3646 2058 mt 3646 2130 L
2468 2983 mt 2540 2983 L
2504 2947 mt 2504 3019 L
2251 3405 mt 2323 3405 L
2287 3369 mt 2287 3441 L
3370 2418 mt 3442 2418 L
3406 2382 mt 3406 2454 L
3855 2352 mt 3927 2352 L
3891 2316 mt 3891 2388 L
2874 2806 mt 2946 2806 L
2910 2770 mt 2910 2842 L
2715 3314 mt 2787 3314 L
2751 3278 mt 2751 3350 L
3415 2316 mt 3487 2316 L
3451 2280 mt 3451 2352 L
3958 2347 mt 4030 2347 L
3994 2311 mt 3994 2383 L
2797 3087 mt 2869 3087 L
2833 3051 mt 2833 3123 L
4067 2218 mt 4139 2218 L
4103 2182 mt 4103 2254 L
4608 1872 mt 4680 1872 L
4644 1836 mt 4644 1908 L
4100 2135 mt 4172 2135 L
4136 2099 mt 4136 2171 L
3387 2293 mt 3459 2293 L
3423 2257 mt 3423 2329 L
3666 2801 mt 3738 2801 L
3702 2765 mt 3702 2837 L
3873 2458 mt 3945 2458 L
3909 2422 mt 3909 2494 L
2931 2874 mt 3003 2874 L
2967 2838 mt 2967 2910 L
3359 2396 mt 3431 2396 L
3395 2360 mt 3395 2432 L
3677 2624 mt 3749 2624 L
3713 2588 mt 3713 2660 L
4381 1232 mt 4453 1232 L
4417 1196 mt 4417 1268 L
3232 3457 mt 3304 3457 L
3268 3421 mt 3268 3493 L
2959 3057 mt 3031 3057 L
2995 3021 mt 2995 3093 L
3605 2189 mt 3677 2189 L
3641 2153 mt 3641 2225 L
3184 3376 mt 3256 3376 L
3220 3340 mt 3220 3412 L
3104 2554 mt 3176 2554 L
3140 2518 mt 3140 2590 L
3438 2815 mt 3510 2815 L
3474 2779 mt 3474 2851 L
2456 2849 mt 2528 2849 L
2492 2813 mt 2492 2885 L
4619 1779 mt 4691 1779 L
4655 1743 mt 4655 1815 L
1387 3658 mt 1459 3658 L
1423 3622 mt 1423 3694 L
4398 1930 mt 4470 1930 L
4434 1894 mt 4434 1966 L
3510 2731 mt 3582 2731 L
3546 2695 mt 3546 2767 L
2063 3131 mt 2135 3131 L
2099 3095 mt 2099 3167 L
3803 2510 mt 3875 2510 L
3839 2474 mt 3839 2546 L
3319 2778 mt 3391 2778 L
3355 2742 mt 3355 2814 L
2444 3198 mt 2516 3198 L
2480 3162 mt 2480 3234 L
4355 2018 mt 4427 2018 L
4391 1982 mt 4391 2054 L
3347 3063 mt 3419 3063 L
3383 3027 mt 3383 3099 L
3700 2673 mt 3772 2673 L
3736 2637 mt 3736 2709 L
2652 2628 mt 2724 2628 L
2688 2592 mt 2688 2664 L
3129 2904 mt 3201 2904 L
3165 2868 mt 3165 2940 L
3577 2580 mt 3649 2580 L
3613 2544 mt 3613 2616 L
4574 1764 mt 4646 1764 L
4610 1728 mt 4610 1800 L
2282 2741 mt 2354 2741 L
2318 2705 mt 2318 2777 L
3053 2664 mt 3125 2664 L
3089 2628 mt 3089 2700 L
2183 3446 mt 2255 3446 L
2219 3410 mt 2219 3482 L
2671 2787 mt 2743 2787 L
2707 2751 mt 2707 2823 L
3261 2859 mt 3333 2859 L
3297 2823 mt 3297 2895 L
3832 2462 mt 3904 2462 L
3868 2426 mt 3868 2498 L
4170 2185 mt 4242 2185 L
4206 2149 mt 4206 2221 L
 863 3257 mt  935 3257 L
 899 3221 mt  899 3293 L
1722 3425 mt 1794 3425 L
1758 3389 mt 1758 3461 L
3066 2619 mt 3138 2619 L
3102 2583 mt 3102 2655 L
3098 2967 mt 3170 2967 L
3134 2931 mt 3134 3003 L
3694 2242 mt 3766 2242 L
3730 2206 mt 3730 2278 L
3330 2320 mt 3402 2320 L
3366 2284 mt 3366 2356 L
2773 2925 mt 2845 2925 L
2809 2889 mt 2809 2961 L
3421 2972 mt 3493 2972 L
3457 2936 mt 3457 3008 L
4074 2228 mt 4146 2228 L
4110 2192 mt 4110 2264 L
3820 2078 mt 3892 2078 L
3856 2042 mt 3856 2114 L
4087 2155 mt 4159 2155 L
4123 2119 mt 4123 2191 L
2016 3797 mt 2088 3797 L
2052 3761 mt 2052 3833 L
4094 2209 mt 4166 2209 L
4130 2173 mt 4130 2245 L
2910 3367 mt 2982 3367 L
2946 3331 mt 2946 3403 L
2966 3028 mt 3038 3028 L
3002 2992 mt 3002 3064 L
2697 3164 mt 2769 3164 L
2733 3128 mt 2733 3200 L
4732 1662 mt 4804 1662 L
4768 1626 mt 4768 1698 L
3460 2668 mt 3532 2668 L
3496 2632 mt 3496 2704 L
1674 3227 mt 1746 3227 L
1710 3191 mt 1710 3263 L
2394 3306 mt 2466 3306 L
2430 3270 mt 2430 3342 L
4149 2115 mt 4221 2115 L
4185 2079 mt 4185 2151 L
4472 1904 mt 4544 1904 L
4508 1868 mt 4508 1940 L
4655 1715 mt 4727 1715 L
4691 1679 mt 4691 1751 L
3313 2237 mt 3385 2237 L
3349 2201 mt 3349 2273 L
2355 3567 mt 2427 3567 L
2391 3531 mt 2391 3603 L
3091 3157 mt 3163 3157 L
3127 3121 mt 3127 3193 L
4338 1966 mt 4410 1966 L
4374 1930 mt 4374 2002 L
3909 2432 mt 3981 2432 L
3945 2396 mt 3945 2468 L
4282 2062 mt 4354 2062 L
4318 2026 mt 4318 2098 L
3147 2825 mt 3219 2825 L
3183 2789 mt 3183 2861 L
3740 2576 mt 3812 2576 L
3776 2540 mt 3776 2612 L
4290 2001 mt 4362 2001 L
4326 1965 mt 4326 2037 L
3809 2484 mt 3881 2484 L
3845 2448 mt 3845 2520 L
2643 3171 mt 2715 3171 L
2679 3135 mt 2679 3207 L
3571 2251 mt 3643 2251 L
3607 2215 mt 3607 2287 L
2740 3468 mt 2812 3468 L
2776 3432 mt 2776 3504 L
3237 2844 mt 3309 2844 L
3273 2808 mt 3273 2880 L
3940 2343 mt 4012 2343 L
3976 2307 mt 3976 2379 L
4522 1865 mt 4594 1865 L
4558 1829 mt 4558 1901 L
3178 3022 mt 3250 3022 L
3214 2986 mt 3214 3058 L
2432 2894 mt 2504 2894 L
2468 2858 mt 2468 2930 L
3644 2571 mt 3716 2571 L
3680 2535 mt 3680 2607 L
3443 2288 mt 3515 2288 L
3479 2252 mt 3479 2324 L
3135 3081 mt 3207 3081 L
3171 3045 mt 3171 3117 L
3404 3137 mt 3476 3137 L
3440 3101 mt 3440 3173 L
2689 2935 mt 2761 2935 L
2725 2899 mt 2725 2971 L
5122 1489 mt 5194 1489 L
5158 1453 mt 5158 1525 L
2680 3213 mt 2752 3213 L
2716 3177 mt 2716 3249 L
3499 2718 mt 3571 2718 L
3535 2682 mt 3535 2754 L
4034 2247 mt 4106 2247 L
4070 2211 mt 4070 2283 L
2407 3395 mt 2479 3395 L
2443 3359 mt 2443 3431 L
4444 1923 mt 4516 1923 L
4480 1887 mt 4480 1959 L
3734 2073 mt 3806 2073 L
3770 2037 mt 3770 2109 L
4243 2083 mt 4315 2083 L
4279 2047 mt 4279 2119 L
3582 2646 mt 3654 2646 L
3618 2610 mt 3618 2682 L
2924 3144 mt 2996 3144 L
2960 3108 mt 2960 3180 L
3723 2506 mt 3795 2506 L
3759 2470 mt 3759 2542 L
2312 3693 mt 2384 3693 L
2348 3657 mt 2348 3729 L
4306 1960 mt 4378 1960 L
4342 1924 mt 4342 1996 L
3116 2545 mt 3188 2545 L
3152 2509 mt 3152 2581 L
3059 3908 mt 3131 3908 L
3095 3872 mt 3095 3944 L
2765 2930 mt 2837 2930 L
2801 2894 mt 2801 2966 L
3897 2329 mt 3969 2329 L
3933 2293 mt 3933 2365 L
3594 2736 mt 3666 2736 L
3630 2700 mt 3630 2772 L
3426 2414 mt 3498 2414 L
3462 2378 mt 3462 2450 L
3166 2899 mt 3238 2899 L
3202 2863 mt 3202 2935 L
4836 1707 mt 4908 1707 L
4872 1671 mt 4872 1743 L
3353 2423 mt 3425 2423 L
3389 2387 mt 3389 2459 L
2420 3731 mt 2492 3731 L
2456 3695 mt 2456 3767 L
3278 2514 mt 3350 2514 L
3314 2478 mt 3314 2550 L
3243 2549 mt 3315 2549 L
3279 2513 mt 3279 2585 L
2821 2754 mt 2893 2754 L
2857 2718 mt 2857 2790 L
2917 2854 mt 2989 2854 L
2953 2818 mt 2953 2890 L
1937 4072 mt 2009 4072 L
1973 4036 mt 1973 4108 L
2106 3848 mt 2178 3848 L
2142 3812 mt 2142 3884 L
3307 2493 mt 3379 2493 L
3343 2457 mt 3343 2529 L
3249 3242 mt 3321 3242 L
3285 3206 mt 3285 3278 L
3544 2782 mt 3616 2782 L
3580 2746 mt 3580 2818 L
3078 2704 mt 3150 2704 L
3114 2668 mt 3114 2740 L
4047 2160 mt 4119 2160 L
4083 2124 mt 4083 2196 L
4080 1624 mt 4152 1624 L
4116 1588 mt 4116 1660 L
3952 2298 mt 4024 2298 L
3988 2262 mt 3988 2334 L
1766 3752 mt 1838 3752 L
1802 3716 mt 1802 3788 L
2381 3178 mt 2453 3178 L
2417 3142 mt 2417 3214 L
2844 2840 mt 2916 2840 L
2880 2804 mt 2880 2876 L
2490 3322 mt 2562 3322 L
2526 3286 mt 2526 3358 L
2851 2946 mt 2923 2946 L
2887 2910 mt 2887 2982 L
3284 2405 mt 3356 2405 L
3320 2369 mt 3320 2441 L
4667 1698 mt 4739 1698 L
4703 1662 mt 4703 1734 L
3717 2602 mt 3789 2602 L
3753 2566 mt 3753 2638 L
4002 2275 mt 4074 2275 L
4038 2239 mt 4038 2311 L
3410 2909 mt 3482 2909 L
3446 2873 mt 3446 2945 L
1876 3553 mt 1948 3553 L
1912 3517 mt 1912 3589 L
3838 2383 mt 3910 2383 L
3874 2347 mt 3874 2419 L
2723 2709 mt 2795 2709 L
2759 2673 mt 2759 2745 L
2513 3297 mt 2585 3297 L
2549 3261 mt 2549 3333 L
3934 2338 mt 4006 2338 L
3970 2302 mt 3970 2374 L
3861 2361 mt 3933 2361 L
3897 2325 mt 3897 2397 L
2706 2956 mt 2778 2956 L
2742 2920 mt 2742 2992 L
1619 3250 mt 1691 3250 L
1655 3214 mt 1655 3286 L
3661 2528 mt 3733 2528 L
3697 2492 mt 3697 2564 L
4221 2029 mt 4293 2029 L
4257 1993 mt 4257 2065 L
3527 2302 mt 3599 2302 L
3563 2266 mt 3563 2338 L
3046 3349 mt 3118 3349 L
3082 3313 mt 3082 3385 L
2146 3942 mt 2218 3942 L
2182 3906 mt 2182 3978 L
3454 2401 mt 3526 2401 L
3490 2365 mt 3490 2437 L
2828 3206 mt 2900 3206 L
2864 3170 mt 2864 3242 L
3588 3017 mt 3660 3017 L
3624 2981 mt 3624 3053 L
3393 2453 mt 3465 2453 L
3429 2417 mt 3429 2489 L
3762 2057 mt 3834 2057 L
3798 2021 mt 3798 2093 L
3791 2445 mt 3863 2445 L
3827 2409 mt 3827 2481 L
2938 2835 mt 3010 2835 L
2974 2799 mt 2974 2871 L
2126 3386 mt 2198 3386 L
2162 3350 mt 2162 3422 L
4597 1787 mt 4669 1787 L
4633 1751 mt 4633 1823 L
5321 1152 mt 5393 1152 L
5357 1116 mt 5357 1188 L
3768 2501 mt 3840 2501 L
3804 2465 mt 3804 2537 L
3903 2440 mt 3975 2440 L
3939 2404 mt 3939 2476 L
2789 3281 mt 2861 3281 L
2825 3245 mt 2825 3317 L
2980 2686 mt 3052 2686 L
3016 2650 mt 3016 2722 L
2987 2541 mt 3059 2541 L
3023 2505 mt 3023 2577 L
4941 1604 mt 5013 1604 L
4977 1568 mt 4977 1640 L
4706 1643 mt 4778 1643 L
4742 1607 mt 4742 1679 L
4390 1885 mt 4462 1885 L
4426 1849 mt 4426 1921 L
3971 2270 mt 4043 2270 L
4007 2234 mt 4007 2306 L
3649 2099 mt 3721 2099 L
3685 2063 mt 3685 2135 L
3672 2584 mt 3744 2584 L
3708 2548 mt 3708 2620 L
4236 1990 mt 4308 1990 L
4272 1954 mt 4272 2026 L
4775 1121 mt 4847 1121 L
4811 1085 mt 4811 1157 L
3683 2256 mt 3755 2256 L
3719 2220 mt 3719 2292 L
4922 1434 mt 4994 1434 L
4958 1398 mt 4958 1470 L
2881 3039 mt 2953 3039 L
2917 3003 mt 2917 3075 L
2575 3331 mt 2647 3331 L
2611 3295 mt 2611 3367 L
4719 1816 mt 4791 1816 L
4755 1780 mt 4755 1852 L
3505 3980 mt 3577 3980 L
3541 3944 mt 3541 4016 L
4869 1614 mt 4941 1614 L
4905 1578 mt 4905 1650 L
4135 2120 mt 4207 2120 L
4171 2084 mt 4171 2156 L
3336 2830 mt 3408 2830 L
3372 2794 mt 3372 2866 L
4114 2261 mt 4186 2261 L
4150 2225 mt 4150 2297 L
3785 2467 mt 3857 2467 L
3821 2431 mt 3821 2503 L
5365 1207 mt 5437 1207 L
5401 1171 mt 5401 1243 L
3751 2233 mt 3823 2233 L
3787 2197 mt 3787 2269 L
2218 4131 mt 2290 4131 L
2254 4095 mt 2254 4167 L
2945 2869 mt 3017 2869 L
2981 2833 mt 2981 2905 L
4298 1954 mt 4370 1954 L
4334 1918 mt 4334 1990 L
4852 1526 mt 4924 1526 L
4888 1490 mt 4888 1562 L
4961 1561 mt 5033 1561 L
4997 1525 mt 4997 1597 L
3555 2223 mt 3627 2223 L
3591 2187 mt 3591 2259 L
2903 3273 mt 2975 3273 L
2939 3237 mt 2939 3309 L
2896 2796 mt 2968 2796 L
2932 2760 mt 2932 2832 L
4156 2140 mt 4228 2140 L
4192 2104 mt 4192 2176 L
2634 3034 mt 2706 3034 L
2670 2998 mt 2670 3070 L
1259 3503 mt 1331 3503 L
1295 3467 mt 1295 3539 L
4553 1371 mt 4625 1371 L
4589 1335 mt 4589 1407 L
5002 1404 mt 5074 1404 L
5038 1368 mt 5038 1440 L
2085 3540 mt 2157 3540 L
2121 3504 mt 2121 3576 L
3190 2497 mt 3262 2497 L
3226 2461 mt 3226 2533 L
5531 1087 mt 5603 1087 L
5567 1051 mt 5567 1123 L
5700  898 mt 5772  898 L
5736  862 mt 5736  934 L
3532 2682 mt 3604 2682 L
3568 2646 mt 3568 2718 L
3202 2558 mt 3274 2558 L
3238 2522 mt 3238 2594 L
3226 2989 mt 3298 2989 L
3262 2953 mt 3262 3025 L
3757 2597 mt 3829 2597 L
3793 2561 mt 3793 2633 L
4760 1723 mt 4832 1723 L
4796 1687 mt 4796 1759 L
4542 1802 mt 4614 1802 L
4578 1766 mt 4578 1838 L
4266 1318 mt 4338 1318 L
4302 1282 mt 4302 1354 L
4163 1740 mt 4235 1740 L
4199 1704 mt 4199 1776 L
4372 1898 mt 4444 1898 L
4408 1862 mt 4408 1934 L
3214 2475 mt 3286 2475 L
3250 2439 mt 3250 2511 L
2298 2759 mt 2370 2759 L
2334 2723 mt 2334 2795 L
3072 3415 mt 3144 3415 L
3108 3379 mt 3108 3451 L
2534 3289 mt 2606 3289 L
2570 3253 mt 2570 3325 L
3867 2379 mt 3939 2379 L
3903 2343 mt 3903 2415 L
2859 2920 mt 2931 2920 L
2895 2884 mt 2895 2956 L
3538 2677 mt 3610 2677 L
3574 2641 mt 3574 2713 L
4564 1809 mt 4636 1809 L
4600 1773 mt 4600 1845 L
2866 3125 mt 2938 3125 L
2902 3089 mt 2902 3161 L
3220 3069 mt 3292 3069 L
3256 3033 mt 3256 3105 L
4463 1851 mt 4535 1851 L
4499 1815 mt 4499 1887 L
4251 1732 mt 4323 1732 L
4287 1696 mt 4287 1768 L
4886 1006 mt 4958 1006 L
4922  970 mt 4922 1042 L
3850 2410 mt 3922 2410 L
3886 2374 mt 3886 2446 L
3780 2523 mt 3852 2523 L
3816 2487 mt 3816 2559 L
4041 2175 mt 4113 2175 L
4077 2139 mt 4077 2211 L
1842 3641 mt 1914 3641 L
1878 3605 mt 1878 3677 L
1907 4205 mt 1979 4205 L
1943 4169 mt 1943 4241 L
4512 1794 mt 4584 1794 L
4548 1758 mt 4548 1830 L
4314 2012 mt 4386 2012 L
4350 1976 mt 4350 2048 L
3273 2480 mt 3345 2480 L
3309 2444 mt 3309 2516 L
3085 2713 mt 3157 2713 L
3121 2677 mt 3121 2749 L
2615 3527 mt 2687 3527 L
2651 3491 mt 2651 3563 L
3774 1878 mt 3846 1878 L
3810 1842 mt 3810 1914 L
5180 1572 mt 5252 1572 L
5216 1536 mt 5216 1608 L
3989 2265 mt 4061 2265 L
4025 2229 mt 4025 2301 L
4199 2051 mt 4271 2051 L
4235 2015 mt 4235 2087 L
3000 2519 mt 3072 2519 L
3036 2483 mt 3036 2555 L
3616 2145 mt 3688 2145 L
3652 2109 mt 3652 2181 L
4435 1911 mt 4507 1911 L
4471 1875 mt 4471 1947 L
4453 1917 mt 4525 1917 L
4489 1881 mt 4489 1953 L
3013 2615 mt 3085 2615 L
3049 2579 mt 3049 2651 L
4054 1514 mt 4126 1514 L
4090 1478 mt 4090 1550 L
4142 2170 mt 4214 2170 L
4178 2134 mt 4178 2206 L
4532 1689 mt 4604 1689 L
4568 1653 mt 4568 1725 L
2479 3191 mt 2551 3191 L
2515 3155 mt 2515 3227 L
3381 3774 mt 3453 3774 L
3417 3738 mt 3417 3810 L
3996 1978 mt 4068 1978 L
4032 1942 mt 4032 2014 L
2327 2641 mt 2399 2641 L
2363 2605 mt 2363 2677 L
4028 2356 mt 4100 2356 L
4064 2320 mt 4064 2392 L
4128 2109 mt 4200 2109 L
4164 2073 mt 4164 2145 L
3885 2370 mt 3957 2370 L
3921 2334 mt 3921 2406 L
2757 3235 mt 2829 3235 L
2793 3199 mt 2793 3271 L
4228 1984 mt 4300 1984 L
4264 1948 mt 4264 2020 L
4021 1823 mt 4093 1823 L
4057 1787 mt 4057 1859 L
3946 2311 mt 4018 2311 L
3982 2275 mt 3982 2347 L
4259 2046 mt 4331 2046 L
4295 2010 mt 4295 2082 L
2523 3625 mt 2595 3625 L
2559 3589 mt 2559 3661 L
3728 2536 mt 3800 2536 L
3764 2500 mt 3764 2572 L
6225  414 mt 6297  414 L
6261  378 mt 6261  450 L
3844 2436 mt 3916 2436 L
3880 2400 mt 3880 2472 L
2973 2764 mt 3045 2764 L
3009 2728 mt 3009 2800 L
3521 1634 mt 3593 1634 L
3557 1598 mt 3557 1670 L
4501 2606 mt 4573 2606 L
4537 2570 mt 4537 2642 L
6033  957 mt 6105  957 L
6069  921 mt 6069  993 L
3141 2659 mt 3213 2659 L
3177 2623 mt 3177 2695 L
5468 1049 mt 5540 1049 L
5504 1013 mt 5504 1085 L
2781 2307 mt 2853 2307 L
2817 2271 mt 2817 2343 L
3007 4023 mt 3079 4023 L
3043 3987 mt 3043 4059 L
5606  824 mt 5678  824 L
5642  788 mt 5642  860 L
4820 1502 mt 4892 1502 L
4856 1466 mt 4856 1538 L
2836 1680 mt 2908 1680 L
2872 1644 mt 2872 1716 L
2749 3011 mt 2821 3011 L
2785 2975 mt 2785 3047 L
4191 2089 mt 4263 2089 L
4227 2053 mt 4227 2125 L
3020 3822 mt 3092 3822 L
3056 3786 mt 3056 3858 L
3983 2325 mt 4055 2325 L
4019 2289 mt 4019 2361 L
4322 2024 mt 4394 2024 L
4358 1988 mt 4358 2060 L
2888 2792 mt 2960 2792 L
2924 2756 mt 2924 2828 L
4407 1948 mt 4479 1948 L
4443 1912 mt 4443 1984 L
3477 2722 mt 3549 2722 L
3513 2686 mt 3513 2758 L
5282  724 mt 5354  724 L
5318  688 mt 5318  760 L
3826 1845 mt 3898 1845 L
3862 1809 mt 3862 1881 L
3255 3093 mt 3327 3093 L
3291 3057 mt 3291 3129 L
3172 2104 mt 3244 2104 L
3208 2068 mt 3208 2140 L
5071 1298 mt 5143 1298 L
5107 1262 mt 5107 1334 L
3160 2879 mt 3232 2879 L
3196 2843 mt 3196 2915 L
3153 3005 mt 3225 3005 L
3189 2969 mt 3189 3041 L
4805 1550 mt 4877 1550 L
4841 1514 mt 4841 1586 L
5024 1419 mt 5096 1419 L
5060 1383 mt 5060 1455 L
4416 1892 mt 4488 1892 L
4452 1856 mt 4452 1928 L
2605 3184 mt 2677 3184 L
2641 3148 mt 2641 3220 L
3342 3099 mt 3414 3099 L
3378 3063 mt 3378 3135 L
3814 2978 mt 3886 2978 L
3850 2942 mt 3850 3014 L
1991 3479 mt 2063 3479 L
2027 3443 mt 2027 3515 L
4631 1772 mt 4703 1772 L
4667 1736 mt 4667 1808 L
3027 2820 mt 3099 2820 L
3063 2784 mt 3063 2856 L
4585 1476 mt 4657 1476 L
4621 1440 mt 4621 1512 L
3123 3220 mt 3195 3220 L
3159 3184 mt 3159 3256 L
3891 2388 mt 3963 2388 L
3927 2352 mt 3927 2424 L
3921 2334 mt 3993 2334 L
3957 2298 mt 3957 2370 L
3196 3106 mt 3268 3106 L
3232 3070 mt 3232 3142 L
4177 2067 mt 4249 2067 L
4213 2031 mt 4213 2103 L
4274 2040 mt 4346 2040 L
4310 2004 mt 4310 2076 L
4789 1448 mt 4861 1448 L
4825 1412 mt 4825 1484 L
1805 3675 mt 1877 3675 L
1841 3639 mt 1841 3711 L
5413 1181 mt 5485 1181 L
5449 1145 mt 5449 1217 L
4746 1653 mt 4818 1653 L
4782 1617 mt 4782 1689 L
2545 3877 mt 2617 3877 L
2581 3841 mt 2581 3913 L
3797 1972 mt 3869 1972 L
3833 1936 mt 3833 2008 L
2201 3340 mt 2273 3340 L
2237 3304 mt 2237 3376 L
2662 3112 mt 2734 3112 L
2698 3076 mt 2698 3148 L
2952 2994 mt 3024 2994 L
2988 2958 mt 2988 3030 L
2732 3118 mt 2804 3118 L
2768 3082 mt 2768 3154 L
1965 4305 mt 2037 4305 L
2001 4269 mt 2001 4341 L
2555 3151 mt 2627 3151 L
2591 3115 mt 2591 3187 L
3208 2488 mt 3280 2488 L
3244 2452 mt 3244 2524 L
2267 2914 mt 2339 2914 L
2303 2878 mt 2303 2950 L
5211 1277 mt 5283 1277 L
5247 1241 mt 5247 1313 L
2993 2727 mt 3065 2727 L
3029 2691 mt 3029 2763 L
4492 2035 mt 4564 2035 L
4528 1999 mt 4528 2071 L
5150 1336 mt 5222 1336 L
5186 1300 mt 5186 1372 L
3927 1942 mt 3999 1942 L
3963 1906 mt 3963 1978 L
3302 2884 mt 3374 2884 L
3338 2848 mt 3338 2920 L
3398 2768 mt 3470 2768 L
3434 2732 mt 3434 2804 L
3638 2365 mt 3710 2365 L
3674 2329 mt 3674 2401 L
3655 2593 mt 3727 2593 L
3691 2557 mt 3691 2629 L
3633 2150 mt 3705 2150 L
3669 2114 mt 3669 2186 L
3471 2449 mt 3543 2449 L
3507 2413 mt 3507 2485 L
2235 3711 mt 2307 3711 L
2271 3675 mt 2271 3747 L
3267 2427 mt 3339 2427 L
3303 2391 mt 3303 2463 L
3482 2864 mt 3554 2864 L
3518 2828 mt 3518 2900 L
2595 4616 mt 2667 4616 L
2631 4580 mt 2631 4652 L
5245 1538 mt 5317 1538 L
5281 1502 mt 5281 1574 L
4206 1255 mt 4278 1255 L
4242 1219 mt 4242 1291 L
3977 1838 mt 4049 1838 L
4013 1802 mt 4013 1874 L
4643 1748 mt 4715 1748 L
4679 1712 mt 4679 1784 L
3879 2374 mt 3951 2374 L
3915 2338 mt 3915 2410 L
4184 2125 mt 4256 2125 L
4220 2089 mt 4220 2161 L
3599 2889 mt 3671 2889 L
3635 2853 mt 3635 2925 L
2368 3491 mt 2440 3491 L
2404 3455 mt 2404 3527 L
1481 2532 mt 1553 2532 L
1517 2496 mt 1517 2568 L
4330 2194 mt 4402 2194 L
4366 2158 mt 4366 2230 L
3040 2745 mt 3112 2745 L
3076 2709 mt 3076 2781 L
3488 2750 mt 3560 2750 L
3524 2714 mt 3524 2786 L
5096 1354 mt 5168 1354 L
5132 1318 mt 5132 1390 L
1556 3595 mt 1628 3595 L
1592 3559 mt 1592 3631 L
4693 1671 mt 4765 1671 L
4729 1635 mt 4729 1707 L
4482 1831 mt 4554 1831 L
4518 1795 mt 4518 1867 L
2341 2655 mt 2413 2655 L
2377 2619 mt 2377 2691 L
4347 1995 mt 4419 1995 L
4383 1959 mt 4383 2031 L
3560 2650 mt 3632 2650 L
3596 2614 mt 3596 2686 L
2040 3436 mt 2112 3436 L
2076 3400 mt 2076 3472 L
3033 3000 mt 3105 3000 L
3069 2964 mt 3069 3036 L
4009 2214 mt 4081 2214 L
4045 2178 mt 4045 2250 L
3466 2392 mt 3538 2392 L
3502 2356 mt 3502 2428 L
3711 2633 mt 3783 2633 L
3747 2597 mt 3747 2669 L
3964 2279 mt 4036 2279 L
4000 2243 mt 4000 2315 L
5828  564 mt 5900  564 L
5864  528 mt 5864  600 L
4015 2204 mt 4087 2204 L
4051 2168 mt 4051 2240 L
3325 2951 mt 3397 2951 L
3361 2915 mt 3361 2987 L
3449 2811 mt 3521 2811 L
3485 2775 mt 3485 2847 L
4060 2180 mt 4132 2180 L
4096 2144 mt 4096 2216 L
4213 2007 mt 4285 2007 L
4249 1971 mt 4249 2043 L
4680 1756 mt 4752 1756 L
4716 1720 mt 4716 1792 L
gs 899 414 5363 4203 rc
gr

0 sg
2822 5104 mt 
(\(F,DCTb,MLP\)) s
 482 3300 mt  -90 rotate
(\(F,DCTb,iMLP\)) s
90 rotate
2975  223 mt 
(Corr = 0.88) s

end %%Color Dict

eplot
%%EndObject

epage
end

showpage

%%Trailer
%%EOF
