%!PS-Adobe-3.0 EPSF-3.0
%%Creator: MATLAB, The Mathworks, Inc.
%%Title: .\main_fusion_us_logreg_speech_beta3.eps
%%CreationDate: 02/14/2009  01:51:40
%%DocumentNeededFonts: Helvetica
%%DocumentProcessColors: Cyan Magenta Yellow Black
%%LanguageLevel: 2
%%Pages: 1
%%BoundingBox:    18   187   543   615
%%EndComments

%%BeginProlog
% MathWorks dictionary
/MathWorks 160 dict begin
% definition operators
/bdef {bind def} bind def
/ldef {load def} bind def
/xdef {exch def} bdef
/xstore {exch store} bdef
% operator abbreviations
/c  /clip ldef
/cc /concat ldef
/cp /closepath ldef
/gr /grestore ldef
/gs /gsave ldef
/mt /moveto ldef
/np /newpath ldef
/cm /currentmatrix ldef
/sm /setmatrix ldef
/rm /rmoveto ldef
/rl /rlineto ldef
/s {show newpath} bdef
/sc {setcmykcolor} bdef
/sr /setrgbcolor ldef
/sg /setgray ldef
/w /setlinewidth ldef
/j /setlinejoin ldef
/cap /setlinecap ldef
/rc {rectclip} bdef
/rf {rectfill} bdef
% page state control
/pgsv () def
/bpage {/pgsv save def} bdef
/epage {pgsv restore} bdef
/bplot /gsave ldef
/eplot {stroke grestore} bdef
% orientation switch
/portraitMode 0 def /landscapeMode 1 def /rotateMode 2 def
% coordinate system mappings
/dpi2point 0 def
% font control
/FontSize 0 def
/FMS {/FontSize xstore findfont [FontSize 0 0 FontSize neg 0 0]
  makefont setfont} bdef
/ISOLatin1Encoding where {pop /WindowsLatin1Encoding 256 array bdef
ISOLatin1Encoding WindowsLatin1Encoding copy pop
/.notdef/.notdef/quotesinglbase/florin/quotedblbase/ellipsis/dagger
/daggerdbl/circumflex/perthousand/Scaron/guilsinglleft/OE/.notdef/.notdef
/.notdef/.notdef/quoteleft/quoteright/quotedblleft/quotedblright/bullet
/endash/emdash/tilde/trademark/scaron/guilsinglright/oe/.notdef/.notdef
/Ydieresis WindowsLatin1Encoding 128 32 getinterval astore pop}
{/WindowsLatin1Encoding StandardEncoding bdef} ifelse
/reencode {exch dup where {pop load} {pop StandardEncoding} ifelse
  exch dup 3 1 roll findfont dup length dict begin
  { 1 index /FID ne {def}{pop pop} ifelse } forall
  /Encoding exch def currentdict end definefont pop} bdef
/isroman {findfont /CharStrings get /Agrave known} bdef
/FMSR {3 1 roll 1 index dup isroman {reencode} {pop pop} ifelse
  exch FMS} bdef
/csm {1 dpi2point div -1 dpi2point div scale neg translate
 dup landscapeMode eq {pop -90 rotate}
  {rotateMode eq {90 rotate} if} ifelse} bdef
% line types: solid, dotted, dashed, dotdash
/SO { [] 0 setdash } bdef
/DO { [.5 dpi2point mul 4 dpi2point mul] 0 setdash } bdef
/DA { [6 dpi2point mul] 0 setdash } bdef
/DD { [.5 dpi2point mul 4 dpi2point mul 6 dpi2point mul 4
  dpi2point mul] 0 setdash } bdef
% macros for lines and objects
/L {lineto stroke} bdef
/MP {3 1 roll moveto 1 sub {rlineto} repeat} bdef
/AP {{rlineto} repeat} bdef
/PDlw -1 def
/W {/PDlw currentlinewidth def setlinewidth} def
/PP {closepath eofill} bdef
/DP {closepath stroke} bdef
/MR {4 -2 roll moveto dup  0 exch rlineto exch 0 rlineto
  neg 0 exch rlineto closepath} bdef
/FR {MR stroke} bdef
/PR {MR fill} bdef
/L1i {{currentfile picstr readhexstring pop} image} bdef
/tMatrix matrix def
/MakeOval {newpath tMatrix currentmatrix pop translate scale
0 0 1 0 360 arc tMatrix setmatrix} bdef
/FO {MakeOval stroke} bdef
/PO {MakeOval fill} bdef
/PD {currentlinewidth 2 div 0 360 arc fill
   PDlw -1 eq not {PDlw w /PDlw -1 def} if} def
/FA {newpath tMatrix currentmatrix pop translate scale
  0 0 1 5 -2 roll arc tMatrix setmatrix stroke} bdef
/PA {newpath tMatrix currentmatrix pop	translate 0 0 moveto scale
  0 0 1 5 -2 roll arc closepath tMatrix setmatrix fill} bdef
/FAn {newpath tMatrix currentmatrix pop translate scale
  0 0 1 5 -2 roll arcn tMatrix setmatrix stroke} bdef
/PAn {newpath tMatrix currentmatrix pop translate 0 0 moveto scale
  0 0 1 5 -2 roll arcn closepath tMatrix setmatrix fill} bdef
/vradius 0 def /hradius 0 def /lry 0 def
/lrx 0 def /uly 0 def /ulx 0 def /rad 0 def
/MRR {/vradius xdef /hradius xdef /lry xdef /lrx xdef /uly xdef
  /ulx xdef newpath tMatrix currentmatrix pop ulx hradius add uly
  vradius add translate hradius vradius scale 0 0 1 180 270 arc 
  tMatrix setmatrix lrx hradius sub uly vradius add translate
  hradius vradius scale 0 0 1 270 360 arc tMatrix setmatrix
  lrx hradius sub lry vradius sub translate hradius vradius scale
  0 0 1 0 90 arc tMatrix setmatrix ulx hradius add lry vradius sub
  translate hradius vradius scale 0 0 1 90 180 arc tMatrix setmatrix
  closepath} bdef
/FRR {MRR stroke } bdef
/PRR {MRR fill } bdef
/MlrRR {/lry xdef /lrx xdef /uly xdef /ulx xdef /rad lry uly sub 2 div def
  newpath tMatrix currentmatrix pop ulx rad add uly rad add translate
  rad rad scale 0 0 1 90 270 arc tMatrix setmatrix lrx rad sub lry rad
  sub translate rad rad scale 0 0 1 270 90 arc tMatrix setmatrix
  closepath} bdef
/FlrRR {MlrRR stroke } bdef
/PlrRR {MlrRR fill } bdef
/MtbRR {/lry xdef /lrx xdef /uly xdef /ulx xdef /rad lrx ulx sub 2 div def
  newpath tMatrix currentmatrix pop ulx rad add uly rad add translate
  rad rad scale 0 0 1 180 360 arc tMatrix setmatrix lrx rad sub lry rad
  sub translate rad rad scale 0 0 1 0 180 arc tMatrix setmatrix
  closepath} bdef
/FtbRR {MtbRR stroke } bdef
/PtbRR {MtbRR fill } bdef
/stri 6 array def /dtri 6 array def
/smat 6 array def /dmat 6 array def
/tmat1 6 array def /tmat2 6 array def /dif 3 array def
/asub {/ind2 exch def /ind1 exch def dup dup
  ind1 get exch ind2 get sub exch } bdef
/tri_to_matrix {
  2 0 asub 3 1 asub 4 0 asub 5 1 asub
  dup 0 get exch 1 get 7 -1 roll astore } bdef
/compute_transform {
  dmat dtri tri_to_matrix tmat1 invertmatrix 
  smat stri tri_to_matrix tmat2 concatmatrix } bdef
/ds {stri astore pop} bdef
/dt {dtri astore pop} bdef
/db {2 copy /cols xdef /rows xdef mul dup 3 mul string
  currentfile 
  3 index 0 eq {/ASCIIHexDecode filter}
  {/ASCII85Decode filter 3 index 2 eq {/RunLengthDecode filter} if }
  ifelse exch readstring pop
  dup 0 3 index getinterval /rbmap xdef
  dup 2 index dup getinterval /gbmap xdef
  1 index dup 2 mul exch getinterval /bbmap xdef pop pop}bdef
/it {gs np dtri aload pop moveto lineto lineto cp c
  cols rows 8 compute_transform 
  rbmap gbmap bbmap true 3 colorimage gr}bdef
/il {newpath moveto lineto stroke}bdef
currentdict end def
%%EndProlog

%%BeginSetup
MathWorks begin

0 cap

end
%%EndSetup

%%Page: 1 1
%%BeginPageSetup
%%PageBoundingBox:    18   187   543   615
MathWorks begin
bpage
%%EndPageSetup

%%BeginObject: obj1
bplot

/dpi2point 12 def
portraitMode 0216 7344 csm

    0   -42  6311  5134 rc
86 dict begin %Colortable dictionary
/c0 { 0.000000 0.000000 0.000000 sr} bdef
/c1 { 1.000000 1.000000 1.000000 sr} bdef
/c2 { 0.900000 0.000000 0.000000 sr} bdef
/c3 { 0.000000 0.820000 0.000000 sr} bdef
/c4 { 0.000000 0.000000 0.800000 sr} bdef
/c5 { 0.910000 0.820000 0.320000 sr} bdef
/c6 { 1.000000 0.260000 0.820000 sr} bdef
/c7 { 0.000000 0.820000 0.820000 sr} bdef
c0
1 j
1 sg
   0    0 6919 5187 rf
6 w
0 4227 4721 0 0 -4227 1540 4616 4 MP
PP
-4721 0 0 4227 4721 0 0 -4227 1540 4616 5 MP stroke
4 w
DO
SO
6 w
0 sg
1540  389 mt 6261  389 L
1540 4616 mt 6261 4616 L
6261 4616 mt 6261  389 L
1540 4616 mt 1540  389 L
1540 4616 mt 6261 4616 L
1540 4616 mt 1540  389 L
2029 4616 mt 2029 4568 L
2029  389 mt 2029  436 L
%%IncludeResource: font Helvetica
/Helvetica /WindowsLatin1Encoding 192 FMSR

1811 4828 mt 
(-60) s
2662 4616 mt 2662 4568 L
2662  389 mt 2662  436 L
2444 4828 mt 
(-50) s
3294 4616 mt 3294 4568 L
3294  389 mt 3294  436 L
3076 4828 mt 
(-40) s
3927 4616 mt 3927 4568 L
3927  389 mt 3927  436 L
3709 4828 mt 
(-30) s
4559 4616 mt 4559 4568 L
4559  389 mt 4559  436 L
4341 4828 mt 
(-20) s
5192 4616 mt 5192 4568 L
5192  389 mt 5192  436 L
4974 4828 mt 
(-10) s
5824 4616 mt 5824 4568 L
5824  389 mt 5824  436 L
5771 4828 mt 
(0) s
1540 4404 mt 1587 4404 L
6261 4404 mt 6213 4404 L
1183 4475 mt 
(orig) s
1540 3981 mt 1587 3981 L
6261 3981 mt 6213 3981 L
 567 4052 mt 
(z-norm \(lr\)) s
1540 3559 mt 1587 3559 L
6261 3559 mt 6213 3559 L
 855 3630 mt 
(z-norm) s
1540 3136 mt 1587 3136 L
6261 3136 mt 6213 3136 L
 140 3207 mt 
(z-norm, gen \(lr\)) s
1540 2713 mt 1587 2713 L
6261 2713 mt 6213 2713 L
 170 2784 mt 
(z-norm [y,p] \(lr\)) s
1540 2291 mt 1587 2291 L
6261 2291 mt 6213 2291 L
   0 2362 mt 
(z-norm [y,y*p] \(lr\)) s
1540 1868 mt 1587 1868 L
6261 1868 mt 6213 1868 L
 898 1939 mt 
(f-norm) s
1540 1445 mt 1587 1445 L
6261 1445 mt 6213 1445 L
 354 1516 mt 
(f-norm v1 \(lr\)) s
1540 1023 mt 1587 1023 L
6261 1023 mt 6213 1023 L
 354 1094 mt 
(f-norm v2 \(lr\)) s
1540  600 mt 1587  600 L
6261  600 mt 6213  600 L
 679  671 mt 
(f-norm-lr) s
1540  389 mt 6261  389 L
1540 4616 mt 6261 4616 L
6261 4616 mt 6261  389 L
1540 4616 mt 1540  389 L
2680 5024 mt 
(relative change of HTER \(%\)) s
3298  224 mt 
(speech, ) s
%%IncludeResource: font Symbol
/Symbol /WindowsLatin1Encoding 192 FMSR

4023  224 mt 
(b) s
%%IncludeResource: font Helvetica
/Helvetica /WindowsLatin1Encoding 192 FMSR

4128  224 mt 
(=0.9) s
gs 1540 389 4722 4228 rc
DA
5824 4404 PD
5824 4404 PD
SO
0 -106 5824 4457 2 MP stroke
0 -106 5824 4457 2 MP stroke
/c8 { 0.000000 0.000000 1.000000 sr} bdef
c8
0 -212 5824 4510 2 MP stroke
/c9 { 1.000000 0.000000 0.000000 sr} bdef
c9
0 -212 5824 4510 2 MP stroke
DA
0 sg
184 0 5684 3981 2 MP stroke
601 0 2880 3981 2 MP stroke
SO
0 -105 5868 4034 2 MP stroke
0 -105 2880 4034 2 MP stroke
c8
2203 0 0 211 -2203 0 0 -211 5684 4087 5 MP stroke
c9
0 -211 4660 4087 2 MP stroke
DA
0 sg
391 0 5655 3559 2 MP stroke
561 0 3088 3559 2 MP stroke
SO
0 -106 6046 3612 2 MP stroke
0 -106 3088 3612 2 MP stroke
c8
2006 0 0 211 -2006 0 0 -211 5655 3664 5 MP stroke
c9
0 -211 4386 3664 2 MP stroke
DA
0 sg
324 0 5391 3136 2 MP stroke
190 0 2692 3136 2 MP stroke
SO
0 -106 5715 3189 2 MP stroke
0 -106 2692 3189 2 MP stroke
c8
2509 0 0 212 -2509 0 0 -212 5391 3242 5 MP stroke
c9
0 -212 4946 3242 2 MP stroke
DA
0 sg
588 0 5189 2713 2 MP stroke
738 0 2164 2713 2 MP stroke
SO
0 -105 5777 2766 2 MP stroke
0 -105 2164 2766 2 MP stroke
c8
2287 0 0 211 -2287 0 0 -211 5189 2819 5 MP stroke
c9
0 -211 3838 2819 2 MP stroke
DA
0 sg
672 0 4884 2291 2 MP stroke
247 0 2680 2291 2 MP stroke
SO
0 -105 5556 2343 2 MP stroke
0 -105 2680 2343 2 MP stroke
c8
1957 0 0 211 -1957 0 0 -211 4884 2396 5 MP stroke
c9
0 -211 3699 2396 2 MP stroke
DA
0 sg
185 0 5618 1868 2 MP stroke
513 0 3222 1868 2 MP stroke
SO
0 -106 5803 1921 2 MP stroke
0 -106 3222 1921 2 MP stroke
c8
1883 0 0 212 -1883 0 0 -212 5618 1974 5 MP stroke
c9
0 -212 4346 1974 2 MP stroke
DA
0 sg
117 0 5278 1445 2 MP stroke
797 0 1756 1445 2 MP stroke
SO
0 -106 5395 1498 2 MP stroke
0 -106 1756 1498 2 MP stroke
c8
2725 0 0 211 -2725 0 0 -211 5278 1551 5 MP stroke
c9
0 -211 3619 1551 2 MP stroke
DA
0 sg
226 0 5051 1023 2 MP stroke
36 0 1754 1023 2 MP stroke
SO
0 -105 5277 1075 2 MP stroke
0 -105 1754 1075 2 MP stroke
c8
3261 0 0 211 -3261 0 0 -211 5051 1128 5 MP stroke
c9
0 -211 3685 1128 2 MP stroke
DA
0 sg
175 0 5617 600 2 MP stroke
507 0 2934 600 2 MP stroke
SO
0 -106 5792 653 2 MP stroke
0 -106 2934 653 2 MP stroke
c8
2176 0 0 212 -2176 0 0 -212 5617 706 5 MP stroke
c9
0 -212 4112 706 2 MP stroke
/c10 { 0.000000 1.000000 0.000000 sr} bdef
c10
0 4228 5824 389 2 MP stroke
gr

c10

end %%Color Dict

eplot
%%EndObject

epage
end

showpage

%%Trailer
%%EOF
