%!PS-Adobe-3.0 EPSF-3.0
%%Creator: MATLAB, The Mathworks, Inc. Version 7.7.0.471 (R2008b). Operating System: Microsoft Windows XP.
%%Title: Pictures\main_zoo_mvar_analysis_data_BMI_xcorr_bmig_p1_k1_1_5.eps
%%CreationDate: 10/26/2009  05:44:46
%%DocumentNeededFonts: Helvetica
%%DocumentProcessColors: Cyan Magenta Yellow Black
%%LanguageLevel: 2
%%Pages: 1
%%BoundingBox:    37   180   549   616
%%EndComments

%%BeginProlog
% MathWorks dictionary
/MathWorks 160 dict begin
% definition operators
/bdef {bind def} bind def
/ldef {load def} bind def
/xdef {exch def} bdef
/xstore {exch store} bdef
% operator abbreviations
/c  /clip ldef
/cc /concat ldef
/cp /closepath ldef
/gr /grestore ldef
/gs /gsave ldef
/mt /moveto ldef
/np /newpath ldef
/cm /currentmatrix ldef
/sm /setmatrix ldef
/rm /rmoveto ldef
/rl /rlineto ldef
/s {show newpath} bdef
/sc {setcmykcolor} bdef
/sr /setrgbcolor ldef
/sg /setgray ldef
/w /setlinewidth ldef
/j /setlinejoin ldef
/cap /setlinecap ldef
/rc {rectclip} bdef
/rf {rectfill} bdef
% page state control
/pgsv () def
/bpage {/pgsv save def} bdef
/epage {pgsv restore} bdef
/bplot /gsave ldef
/eplot {stroke grestore} bdef
% orientation switch
/portraitMode 0 def /landscapeMode 1 def /rotateMode 2 def
% coordinate system mappings
/dpi2point 0 def
% font control
/FontSize 0 def
/FMS {/FontSize xstore findfont [FontSize 0 0 FontSize neg 0 0]
  makefont setfont} bdef
/ISOLatin1Encoding where {pop /WindowsLatin1Encoding 256 array bdef
ISOLatin1Encoding WindowsLatin1Encoding copy pop
/.notdef/.notdef/quotesinglbase/florin/quotedblbase/ellipsis/dagger
/daggerdbl/circumflex/perthousand/Scaron/guilsinglleft/OE/.notdef/.notdef
/.notdef/.notdef/quoteleft/quoteright/quotedblleft/quotedblright/bullet
/endash/emdash/tilde/trademark/scaron/guilsinglright/oe/.notdef/.notdef
/Ydieresis WindowsLatin1Encoding 128 32 getinterval astore pop}
{/WindowsLatin1Encoding StandardEncoding bdef} ifelse
/reencode {exch dup where {pop load} {pop StandardEncoding} ifelse
  exch dup 3 1 roll findfont dup length dict begin
  { 1 index /FID ne {def}{pop pop} ifelse } forall
  /Encoding exch def currentdict end definefont pop} bdef
/isroman {findfont /CharStrings get /Agrave known} bdef
/FMSR {3 1 roll 1 index dup isroman {reencode} {pop pop} ifelse
  exch FMS} bdef
/csm {1 dpi2point div -1 dpi2point div scale neg translate
 dup landscapeMode eq {pop -90 rotate}
  {rotateMode eq {90 rotate} if} ifelse} bdef
% line types: solid, dotted, dashed, dotdash
/SO { [] 0 setdash } bdef
/DO { [.5 dpi2point mul 4 dpi2point mul] 0 setdash } bdef
/DA { [6 dpi2point mul] 0 setdash } bdef
/DD { [.5 dpi2point mul 4 dpi2point mul 6 dpi2point mul 4
  dpi2point mul] 0 setdash } bdef
% macros for lines and objects
/L {lineto stroke} bdef
/MP {3 1 roll moveto 1 sub {rlineto} repeat} bdef
/AP {{rlineto} repeat} bdef
/PDlw -1 def
/W {/PDlw currentlinewidth def setlinewidth} def
/PP {closepath eofill} bdef
/DP {closepath stroke} bdef
/MR {4 -2 roll moveto dup  0 exch rlineto exch 0 rlineto
  neg 0 exch rlineto closepath} bdef
/FR {MR stroke} bdef
/PR {MR fill} bdef
/L1i {{currentfile picstr readhexstring pop} image} bdef
/tMatrix matrix def
/MakeOval {newpath tMatrix currentmatrix pop translate scale
0 0 1 0 360 arc tMatrix setmatrix} bdef
/FO {MakeOval stroke} bdef
/PO {MakeOval fill} bdef
/PD {currentlinewidth 2 div 0 360 arc fill
   PDlw -1 eq not {PDlw w /PDlw -1 def} if} def
/FA {newpath tMatrix currentmatrix pop translate scale
  0 0 1 5 -2 roll arc tMatrix setmatrix stroke} bdef
/PA {newpath tMatrix currentmatrix pop	translate 0 0 moveto scale
  0 0 1 5 -2 roll arc closepath tMatrix setmatrix fill} bdef
/FAn {newpath tMatrix currentmatrix pop translate scale
  0 0 1 5 -2 roll arcn tMatrix setmatrix stroke} bdef
/PAn {newpath tMatrix currentmatrix pop translate 0 0 moveto scale
  0 0 1 5 -2 roll arcn closepath tMatrix setmatrix fill} bdef
/vradius 0 def /hradius 0 def /lry 0 def
/lrx 0 def /uly 0 def /ulx 0 def /rad 0 def
/MRR {/vradius xdef /hradius xdef /lry xdef /lrx xdef /uly xdef
  /ulx xdef newpath tMatrix currentmatrix pop ulx hradius add uly
  vradius add translate hradius vradius scale 0 0 1 180 270 arc 
  tMatrix setmatrix lrx hradius sub uly vradius add translate
  hradius vradius scale 0 0 1 270 360 arc tMatrix setmatrix
  lrx hradius sub lry vradius sub translate hradius vradius scale
  0 0 1 0 90 arc tMatrix setmatrix ulx hradius add lry vradius sub
  translate hradius vradius scale 0 0 1 90 180 arc tMatrix setmatrix
  closepath} bdef
/FRR {MRR stroke } bdef
/PRR {MRR fill } bdef
/MlrRR {/lry xdef /lrx xdef /uly xdef /ulx xdef /rad lry uly sub 2 div def
  newpath tMatrix currentmatrix pop ulx rad add uly rad add translate
  rad rad scale 0 0 1 90 270 arc tMatrix setmatrix lrx rad sub lry rad
  sub translate rad rad scale 0 0 1 270 90 arc tMatrix setmatrix
  closepath} bdef
/FlrRR {MlrRR stroke } bdef
/PlrRR {MlrRR fill } bdef
/MtbRR {/lry xdef /lrx xdef /uly xdef /ulx xdef /rad lrx ulx sub 2 div def
  newpath tMatrix currentmatrix pop ulx rad add uly rad add translate
  rad rad scale 0 0 1 180 360 arc tMatrix setmatrix lrx rad sub lry rad
  sub translate rad rad scale 0 0 1 0 180 arc tMatrix setmatrix
  closepath} bdef
/FtbRR {MtbRR stroke } bdef
/PtbRR {MtbRR fill } bdef
/stri 6 array def /dtri 6 array def
/smat 6 array def /dmat 6 array def
/tmat1 6 array def /tmat2 6 array def /dif 3 array def
/asub {/ind2 exch def /ind1 exch def dup dup
  ind1 get exch ind2 get sub exch } bdef
/tri_to_matrix {
  2 0 asub 3 1 asub 4 0 asub 5 1 asub
  dup 0 get exch 1 get 7 -1 roll astore } bdef
/compute_transform {
  dmat dtri tri_to_matrix tmat1 invertmatrix 
  smat stri tri_to_matrix tmat2 concatmatrix } bdef
/ds {stri astore pop} bdef
/dt {dtri astore pop} bdef
/db {2 copy /cols xdef /rows xdef mul dup 3 mul string
  currentfile 
  3 index 0 eq {/ASCIIHexDecode filter}
  {/ASCII85Decode filter 3 index 2 eq {/RunLengthDecode filter} if }
  ifelse exch readstring pop
  dup 0 3 index getinterval /rbmap xdef
  dup 2 index dup getinterval /gbmap xdef
  1 index dup 2 mul exch getinterval /bbmap xdef pop pop}bdef
/it {gs np dtri aload pop moveto lineto lineto cp c
  cols rows 8 compute_transform 
  rbmap gbmap bbmap true 3 colorimage gr}bdef
/il {newpath moveto lineto stroke}bdef
currentdict end def
%%EndProlog

%%BeginSetup
MathWorks begin

0 cap

end
%%EndSetup

%%Page: 1 1
%%BeginPageSetup
%%PageBoundingBox:    37   180   549   616
MathWorks begin
bpage
%%EndPageSetup

%%BeginObject: obj1
bplot

/dpi2point 12 def
portraitMode 0216 7344 csm

  234   -48  6149  5231 rc
85 dict begin %Colortable dictionary
/c0 { 0.000000 0.000000 0.000000 sr} bdef
/c1 { 1.000000 1.000000 1.000000 sr} bdef
/c2 { 0.900000 0.000000 0.000000 sr} bdef
/c3 { 0.000000 0.820000 0.000000 sr} bdef
/c4 { 0.000000 0.000000 0.800000 sr} bdef
/c5 { 0.910000 0.820000 0.320000 sr} bdef
/c6 { 1.000000 0.260000 0.820000 sr} bdef
/c7 { 0.000000 0.820000 0.820000 sr} bdef
c0
1 j
1 sg
   0    0 6919 5187 rf
6 w
0 4202 5362 0 0 -4202 899 4616 4 MP
PP
-5362 0 0 4202 5362 0 0 -4202 899 4616 5 MP stroke
4 w
DO
SO
6 w
0 sg
 899  414 mt 6261  414 L
 899 4616 mt 6261 4616 L
6261 4616 mt 6261  414 L
 899 4616 mt  899  414 L
 899 4616 mt 6261 4616 L
 899 4616 mt  899  414 L
 919 4616 mt  919 4562 L
 919  414 mt  919  467 L
%%IncludeResource: font Helvetica
/Helvetica /WindowsLatin1Encoding 240 FMSR

 713 4873 mt 
(-3) s
1806 4616 mt 1806 4562 L
1806  414 mt 1806  467 L
1600 4873 mt 
(-2) s
2693 4616 mt 2693 4562 L
2693  414 mt 2693  467 L
2487 4873 mt 
(-1) s
3580 4616 mt 3580 4562 L
3580  414 mt 3580  467 L
3514 4873 mt 
(0) s
4466 4616 mt 4466 4562 L
4466  414 mt 4466  467 L
4400 4873 mt 
(1) s
5353 4616 mt 5353 4562 L
5353  414 mt 5353  467 L
5287 4873 mt 
(2) s
6240 4616 mt 6240 4562 L
6240  414 mt 6240  467 L
6174 4873 mt 
(3) s
 899 4599 mt  952 4599 L
6261 4599 mt 6207 4599 L
 591 4688 mt 
(-3) s
 899 3904 mt  952 3904 L
6261 3904 mt 6207 3904 L
 591 3993 mt 
(-2) s
 899 3209 mt  952 3209 L
6261 3209 mt 6207 3209 L
 591 3298 mt 
(-1) s
 899 2514 mt  952 2514 L
6261 2514 mt 6207 2514 L
 731 2603 mt 
(0) s
 899 1820 mt  952 1820 L
6261 1820 mt 6207 1820 L
 731 1909 mt 
(1) s
 899 1125 mt  952 1125 L
6261 1125 mt 6207 1125 L
 731 1214 mt 
(2) s
 899  430 mt  952  430 L
6261  430 mt 6207  430 L
 731  519 mt 
(3) s
 899  414 mt 6261  414 L
 899 4616 mt 6261 4616 L
6261 4616 mt 6261  414 L
 899 4616 mt  899  414 L
gs 899 414 5363 4203 rc
gr

/c8 { 0.000000 0.000000 1.000000 sr} bdef
c8
4453 1207 mt 4525 1207 L
4489 1171 mt 4489 1243 L
2749 1572 mt 2821 1572 L
2785 1536 mt 2785 1608 L
4067 2109 mt 4139 2109 L
4103 2073 mt 4103 2145 L
3582 2204 mt 3654 2204 L
3618 2168 mt 3618 2240 L
1805 2414 mt 1877 2414 L
1841 2378 mt 1841 2450 L
4163 3306 mt 4235 3306 L
4199 3270 mt 4199 3342 L
3267 3540 mt 3339 3540 L
3303 3504 mt 3303 3576 L
3202 2493 mt 3274 2493 L
3238 2457 mt 3238 2529 L
4585 3322 mt 4657 3322 L
4621 3286 mt 4621 3358 L
4981 1152 mt 5053 1152 L
5017 1116 mt 5017 1188 L
3085  724 mt 3157  724 L
3121  688 mt 3121  760 L
1766 2615 mt 1838 2615 L
1802 2579 mt 1802 2651 L
3330 1838 mt 3402 1838 L
3366 1802 mt 3366 1874 L
3046 2040 mt 3118 2040 L
3082 2004 mt 3082 2076 L
4243 2035 mt 4315 2035 L
4279 1999 mt 4279 2071 L
4416 1634 mt 4488 1634 L
4452 1598 mt 4452 1670 L
3135 2302 mt 3207 2302 L
3171 2266 mt 3171 2338 L
3307 3415 mt 3379 3415 L
3343 3379 mt 3343 3451 L
2634 2383 mt 2706 2383 L
2670 2347 mt 2670 2419 L
4028 3106 mt 4100 3106 L
4064 3070 mt 4064 3142 L
4398 2825 mt 4470 2825 L
4434 2789 mt 4434 2861 L
3325 1049 mt 3397 1049 L
3361 1013 mt 3361 1085 L
2723 2709 mt 2795 2709 L
2759 2673 mt 2759 2745 L
3290 2956 mt 3362 2956 L
3326 2920 mt 3326 2992 L
5468 3395 mt 5540 3395 L
5504 3359 mt 5504 3431 L
3700 2628 mt 3772 2628 L
3736 2592 mt 3736 2664 L
3426 3069 mt 3498 3069 L
3462 3033 mt 3462 3105 L
4338 1298 mt 4410 1298 L
4374 1262 mt 4374 1334 L
1556 2379 mt 1628 2379 L
1592 2343 mt 1592 2415 L
3751 3171 mt 3823 3171 L
3787 3135 mt 3787 3207 L
2355 1892 mt 2427 1892 L
2391 1856 mt 2391 1928 L
3694 2046 mt 3766 2046 L
3730 2010 mt 3730 2082 L
3538 2370 mt 3610 2370 L
3574 2334 mt 3574 2406 L
1842 2545 mt 1914 2545 L
1878 2509 mt 1878 2581 L
3785 2223 mt 3857 2223 L
3821 2187 mt 3821 2259 L
2781 2120 mt 2853 2120 L
2817 2084 mt 2817 2156 L
4149 3567 mt 4221 3567 L
4185 3531 mt 4185 3603 L
3723 1593 mt 3795 1593 L
3759 1557 mt 3759 1629 L
3190 1930 mt 3262 1930 L
3226 1894 mt 3226 1966 L
3493 1583 mt 3565 1583 L
3529 1547 mt 3529 1619 L
2063 1371 mt 2135 1371 L
2099 1335 mt 2099 1407 L
2987 2311 mt 3059 2311 L
3023 2275 mt 3023 2347 L
3098 3022 mt 3170 3022 L
3134 2986 mt 3134 3058 L
4444 2874 mt 4516 2874 L
4480 2838 mt 4480 2910 L
5606  898 mt 5678  898 L
5642  862 mt 5642  934 L
2765 3797 mt 2837 3797 L
2801 3761 mt 2801 3833 L
3091 2155 mt 3163 2155 L
3127 2119 mt 3127 2191 L
3466 2925 mt 3538 2925 L
3502 2889 mt 3502 2961 L
4512 3198 mt 4584 3198 L
4548 3162 mt 4548 3234 L
2534 1336 mt 2606 1336 L
2570 1300 mt 2570 1372 L
4236 2884 mt 4308 2884 L
4272 2848 mt 4272 2920 L
3172 2374 mt 3244 2374 L
3208 2338 mt 3208 2410 L
3566 2704 mt 3638 2704 L
3602 2668 mt 3602 2740 L
3381 1948 mt 3453 1948 L
3417 1912 mt 3417 1984 L
4372 2792 mt 4444 2792 L
4408 2756 mt 4408 2828 L
2394 3011 mt 2466 3011 L
2430 2975 mt 2430 3047 L
2298  564 mt 2370  564 L
2334  528 mt 2334  600 L
3655  824 mt 3727  824 L
3691  788 mt 3691  860 L
4680 1181 mt 4752 1181 L
4716 1145 mt 4716 1217 L
2917 3164 mt 2989 3164 L
2953 3128 mt 2953 3200 L
4015 1904 mt 4087 1904 L
4051 1868 mt 4051 1940 L
4435 1779 mt 4507 1779 L
4471 1743 mt 4471 1815 L
2085 3515 mt 2157 3515 L
2121 3479 mt 2121 3551 L
4390 3242 mt 4462 3242 L
4426 3206 mt 4426 3278 L
4251 2820 mt 4323 2820 L
4287 2784 mt 4287 2856 L
1481 2352 mt 1553 2352 L
1517 2316 mt 1517 2388 L
4259 2549 mt 4331 2549 L
4295 2513 mt 4295 2585 L
2757 1550 mt 2829 1550 L
2793 1514 mt 2793 1586 L
2680 2029 mt 2752 2029 L
2716 1993 mt 2716 2065 L
3588 3250 mt 3660 3250 L
3624 3214 mt 3624 3286 L
4501 1772 mt 4573 1772 L
4537 1736 mt 4537 1808 L
4191 2247 mt 4263 2247 L
4227 2211 mt 4227 2283 L
5245 2899 mt 5317 2899 L
5281 2863 mt 5281 2935 L
3214 3314 mt 3286 3314 L
3250 3278 mt 3250 3350 L
4047 2691 mt 4119 2691 L
4083 2655 mt 4083 2727 L
1876 2261 mt 1948 2261 L
1912 2225 mt 1912 2297 L
4564 1561 mt 4636 1561 L
4600 1525 mt 4600 1597 L
3116 2562 mt 3188 2562 L
3152 2526 mt 3152 2598 L
3072 3595 mt 3144 3595 L
3108 3559 mt 3108 3631 L
4836 1936 mt 4908 1936 L
4872 1900 mt 4872 1972 L
4094  414 mt 4166  414 L
4130  378 mt 4130  450 L
3594 2815 mt 3666 2815 L
3630 2779 mt 3630 2851 L
3855 2189 mt 3927 2189 L
3891 2153 mt 3891 2225 L
2165 3131 mt 2237 3131 L
2201 3095 mt 2201 3167 L
5180 2869 mt 5252 2869 L
5216 2833 mt 5216 2905 L
3415 2270 mt 3487 2270 L
3451 2234 mt 3451 2306 L
3921 1662 mt 3993 1662 L
3957 1626 mt 3957 1698 L
5096 2298 mt 5168 2298 L
5132 2262 mt 5132 2334 L
2828 3675 mt 2900 3675 L
2864 3639 mt 2864 3711 L
5150 2115 mt 5222 2115 L
5186 2079 mt 5186 2151 L
3757 1689 mt 3829 1689 L
3793 1653 mt 3793 1725 L
3599 2001 mt 3671 2001 L
3635 1965 mt 3635 2037 L
1965 3125 mt 2037 3125 L
2001 3089 mt 2001 3161 L
2959 2256 mt 3031 2256 L
2995 2220 mt 2995 2292 L
4142 3093 mt 4214 3093 L
4178 3057 mt 4178 3129 L
3927 2602 mt 3999 2602 L
3963 2566 mt 3963 2638 L
4805 3331 mt 4877 3331 L
4841 3295 mt 4841 3367 L
4608 1277 mt 4680 1277 L
4644 1241 mt 4644 1313 L
4719 3527 mt 4791 3527 L
4755 3491 mt 4755 3563 L
4597 3281 mt 4669 3281 L
4633 3245 mt 4633 3317 L
3488 1514 mt 3560 1514 L
3524 1478 mt 3524 1550 L
2444 2347 mt 2516 2347 L
2480 2311 mt 2480 2383 L
4643 1526 mt 4715 1526 L
4679 1490 mt 4679 1562 L
3940 2488 mt 4012 2488 L
3976 2452 mt 3976 2524 L
6033 2175 mt 6105 2175 L
6069 2139 mt 6069 2211 L
2773 2637 mt 2845 2637 L
2809 2601 mt 2809 2673 L
3897 2554 mt 3969 2554 L
3933 2518 mt 3933 2590 L
3141 1823 mt 3213 1823 L
3177 1787 mt 3177 1859 L
2040 1434 mt 2112 1434 L
2076 1398 mt 2076 1470 L
4199 2018 mt 4271 2018 L
4235 1982 mt 4235 2054 L
5321 3425 mt 5393 3425 L
5357 3389 mt 5357 3461 L
3505 2180 mt 3577 2180 L
3541 2144 mt 3541 2216 L
3410 3137 mt 3482 3137 L
3446 3101 mt 3446 3173 L
1907 2695 mt 1979 2695 L
1943 2659 mt 1943 2731 L
3232 2057 mt 3304 2057 L
3268 2021 mt 3268 2093 L
2468 1624 mt 2540 1624 L
2504 1588 mt 2504 1660 L
3059 2475 mt 3131 2475 L
3095 2439 mt 3095 2511 L
3033 3457 mt 3105 3457 L
3069 3421 mt 3069 3493 L
3891 2401 mt 3963 2401 L
3927 2365 mt 3927 2437 L
2938 1680 mt 3010 1680 L
2974 1644 mt 2974 1716 L
4904 2423 mt 4976 2423 L
4940 2387 mt 4940 2459 L
3838 2214 mt 3910 2214 L
3874 2178 mt 3874 2250 L
2662 2589 mt 2734 2589 L
2698 2553 mt 2698 2625 L
3364 2859 mt 3436 2859 L
3400 2823 mt 3400 2895 L
2740 1255 mt 2812 1255 L
2776 1219 mt 2776 1291 L
4330 1698 mt 4402 1698 L
4366 1662 mt 4366 1734 L
3013 3063 mt 3085 3063 L
3049 3027 mt 3049 3099 L
3404 3503 mt 3476 3503 L
3440 3467 mt 3440 3539 L
3605 2768 mt 3677 2768 L
3641 2732 mt 3641 2804 L
3903 3265 mt 3975 3265 L
3939 3229 mt 3939 3301 L
4655 2659 mt 4727 2659 L
4691 2623 mt 4691 2695 L
 863 3028 mt  935 3028 L
 899 2992 mt  899 3064 L
3166 2160 mt 3238 2160 L
3202 2124 mt 3202 2196 L
2282 4072 mt 2354 4072 L
2318 4036 mt 2318 4108 L
2595 1954 mt 2667 1954 L
2631 1918 mt 2631 1990 L
3284 3610 mt 3356 3610 L
3320 3574 mt 3320 3646 L
2697 2682 mt 2769 2682 L
2733 2646 mt 2733 2718 L
2327 3436 mt 2399 3436 L
2363 3400 mt 2363 3472 L
1387 1462 mt 1459 1462 L
1423 1426 mt 1423 1498 L
2980 1318 mt 3052 1318 L
3016 1282 mt 3016 1354 L
2523 2994 mt 2595 2994 L
2559 2958 mt 2559 3030 L
3359 3144 mt 3431 3144 L
3395 3108 mt 3395 3180 L
4314 2480 mt 4386 2480 L
4350 2444 mt 4350 2516 L
2924 2506 mt 2996 2506 L
2960 2470 mt 2960 2542 L
3768 1960 mt 3840 1960 L
3804 1924 mt 3804 1996 L
4306 2007 mt 4378 2007 L
4342 1971 mt 4342 2043 L
2218 2677 mt 2290 2677 L
2254 2641 mt 2254 2713 L
4087 3289 mt 4159 3289 L
4123 3253 mt 4123 3325 L
4922 1404 mt 4994 1404 L
4958 1368 mt 4958 1440 L
1619 2265 mt 1691 2265 L
1655 2229 mt 1655 2301 L
4492 1121 mt 4564 1121 L
4528 1085 mt 4528 1157 L
3255 4616 mt 3327 4616 L
3291 4580 mt 3291 4652 L
2201 2089 mt 2273 2089 L
2237 2053 mt 2237 2125 L
3438 3731 mt 3510 3731 L
3474 3695 mt 3474 3767 L
2490 1990 mt 2562 1990 L
2526 1954 mt 2526 2026 L
3571 3553 mt 3643 3553 L
3607 3517 mt 3607 3589 L
3728 3752 mt 3800 3752 L
3764 3716 mt 3764 3788 L
3983 2736 mt 4055 2736 L
4019 2700 mt 4019 2772 L
2859 2078 mt 2931 2078 L
2895 2042 mt 2895 2114 L
4553 2879 mt 4625 2879 L
4589 2843 mt 4589 2915 L
4184 3057 mt 4256 3057 L
4220 3021 mt 4220 3093 L
3780 1764 mt 3852 1764 L
3816 1728 mt 3816 1800 L
4228 2356 mt 4300 2356 L
4264 2320 mt 4264 2392 L
2888 1978 mt 2960 1978 L
2924 1942 mt 2924 2014 L
4746 2218 mt 4818 2218 L
4782 2182 mt 4782 2254 L
3178 2405 mt 3250 2405 L
3214 2369 mt 3214 2441 L
4021 1911 mt 4093 1911 L
4057 1875 mt 4057 1947 L
4522 1715 mt 4594 1715 L
4558 1679 mt 4558 1751 L
2555 2125 mt 2627 2125 L
2591 2089 mt 2591 2161 L
2715 2731 mt 2787 2731 L
2751 2695 mt 2751 2767 L
3208 2920 mt 3280 2920 L
3244 2884 mt 3244 2956 L
4156 3191 mt 4228 3191 L
4192 3155 mt 4192 3227 L
2836 2099 mt 2908 2099 L
2872 2063 mt 2872 2135 L
3319 3693 mt 3391 3693 L
3355 3657 mt 3355 3729 L
3666 2510 mt 3738 2510 L
3702 2474 mt 3702 2546 L
2432 1794 mt 2504 1794 L
2468 1758 mt 2468 1830 L
2789 2062 mt 2861 2062 L
2825 2026 mt 2825 2098 L
5531 2104 mt 5603 2104 L
5567 2068 mt 5567 2140 L
3627 2606 mt 3699 2606 L
3663 2570 mt 3663 2642 L
3826 2388 mt 3898 2388 L
3862 2352 mt 3862 2424 L
3510 1538 mt 3582 1538 L
3546 1502 mt 3546 1574 L
3989 1643 mt 4061 1643 L
4025 1607 mt 4025 1679 L
2106 3942 mt 2178 3942 L
2142 3906 mt 2142 3978 L
3421 1087 mt 3493 1087 L
3457 1051 mt 3457 1123 L
2502 1865 mt 2574 1865 L
2538 1829 mt 2538 1901 L
2183 2410 mt 2255 2410 L
2219 2374 mt 2219 2446 L
3689 1984 mt 3761 1984 L
3725 1948 mt 3725 2020 L
3336 2519 mt 3408 2519 L
3372 2483 mt 3372 2555 L
2513 2796 mt 2585 2796 L
2549 2760 mt 2549 2832 L
3832 2597 mt 3904 2597 L
3868 2561 mt 3868 2633 L
2267 1858 mt 2339 1858 L
2303 1822 mt 2303 1894 L
2126 1878 mt 2198 1878 L
2162 1842 mt 2162 1914 L
2235 2445 mt 2307 2445 L
2271 2409 mt 2271 2481 L
4760 2835 mt 4832 2835 L
4796 2799 mt 4796 2871 L
3946 1448 mt 4018 1448 L
3982 1412 mt 3982 1484 L
3885 1707 mt 3957 1707 L
3921 1671 mt 3921 1743 L
2575 2759 mt 2647 2759 L
2611 2723 mt 2611 2795 L
3053 3005 mt 3125 3005 L
3089 2969 mt 3089 3041 L
2671 2432 mt 2743 2432 L
2707 2396 mt 2707 2468 L
4213 1966 mt 4285 1966 L
4249 1930 mt 4249 2002 L
4100 2584 mt 4172 2584 L
4136 2548 mt 4136 2620 L
3621 3075 mt 3693 3075 L
3657 3039 mt 3657 3111 L
4820 2633 mt 4892 2633 L
4856 2597 mt 4856 2669 L
2993 2750 mt 3065 2750 L
3029 2714 mt 3029 2786 L
1722 2170 mt 1794 2170 L
1758 2134 mt 1758 2206 L
3915 3349 mt 3987 3349 L
3951 3313 mt 3951 3385 L
3549 2343 mt 3621 2343 L
3585 2307 mt 3585 2379 L
3460 2514 mt 3532 2514 L
3496 2478 mt 3496 2550 L
5282 2427 mt 5354 2427 L
5318 2391 mt 5318 2463 L
4706 1354 mt 4778 1354 L
4742 1318 mt 4742 1390 L
3820 1845 mt 3892 1845 L
3856 1809 mt 3856 1881 L
2381 2754 mt 2453 2754 L
2417 2718 mt 2417 2790 L
3971 3257 mt 4043 3257 L
4007 3221 mt 4007 3293 L
3007 2967 mt 3079 2967 L
3043 2931 mt 3043 3003 L
4128 2209 mt 4200 2209 L
4164 2173 mt 4164 2245 L
5047 2894 mt 5119 2894 L
5083 2858 mt 5083 2930 L
3814 2972 mt 3886 2972 L
3850 2936 mt 3850 3008 L
2706 4305 mt 2778 4305 L
2742 4269 mt 2742 4341 L
2797 2806 mt 2869 2806 L
2833 2770 mt 2833 2842 L
4009 3581 mt 4081 3581 L
4045 3545 mt 4045 3617 L
4266 2316 mt 4338 2316 L
4302 2280 mt 4302 2352 L
3717 2593 mt 3789 2593 L
3753 2557 mt 3753 2629 L
2732 3178 mt 2804 3178 L
2768 3142 mt 2768 3214 L
3803 2307 mt 3875 2307 L
3839 2271 mt 3839 2343 L
3797 2199 mt 3869 2199 L
3833 2163 mt 3833 2235 L
3683 2484 mt 3755 2484 L
3719 2448 mt 3719 2520 L
3850 2073 mt 3922 2073 L
3886 2037 mt 3886 2109 L
4135 2130 mt 4207 2130 L
4171 2094 mt 4171 2166 L
3577 2320 mt 3649 2320 L
3613 2284 mt 3613 2356 L
2881 2773 mt 2953 2773 L
2917 2737 mt 2917 2809 L
2456 3908 mt 2528 3908 L
2492 3872 mt 2492 3944 L
3532 2727 mt 3604 2727 L
3568 2691 mt 3568 2763 L
3844 2983 mt 3916 2983 L
3880 2947 mt 3880 3019 L
3160 2914 mt 3232 2914 L
3196 2878 mt 3196 2950 L
3237 2940 mt 3309 2940 L
3273 2904 mt 3273 2976 L
3398 2325 mt 3470 2325 L
3434 2289 mt 3434 2361 L
4041 3340 mt 4113 3340 L
4077 3304 mt 4077 3376 L
4463 3479 mt 4535 3479 L
4499 3443 mt 4499 3515 L
3499 2012 mt 3571 2012 L
3535 1976 mt 3535 2048 L
2146 2930 mt 2218 2930 L
2182 2894 mt 2182 2966 L
3184 3227 mt 3256 3227 L
3220 3191 mt 3220 3263 L
3249 3000 mt 3321 3000 L
3285 2964 mt 3285 3036 L
3471 3081 mt 3543 3081 L
3507 3045 mt 3507 3117 L
4886 3213 mt 4958 3213 L
4922 3177 mt 4922 3249 L
6225 1614 mt 6297 1614 L
6261 1578 mt 6261 1650 L
3644 2811 mt 3716 2811 L
3680 2775 mt 3680 2847 L
3123 2989 mt 3195 2989 L
3159 2953 mt 3159 3025 L
3964 2619 mt 4036 2619 L
4000 2583 mt 4000 2655 L
4532 1995 mt 4604 1995 L
4568 1959 mt 4568 2031 L
2931 2567 mt 3003 2567 L
2967 2531 mt 2967 2603 L
4355 3848 mt 4427 3848 L
4391 3812 mt 4391 3884 L
3353 2462 mt 3425 2462 L
3389 2426 mt 3389 2498 L
3000 1851 mt 3072 1851 L
3036 1815 mt 3036 1887 L
3633 2233 mt 3705 2233 L
3669 2197 mt 3669 2269 L
4177 3206 mt 4249 3206 L
4213 3170 mt 4213 3242 L
2874 2329 mt 2946 2329 L
2910 2293 mt 2910 2365 L
2896 2067 mt 2968 2067 L
2932 2031 mt 2932 2103 L
3861 2365 mt 3933 2365 L
3897 2329 mt 3897 2401 L
4693 1388 mt 4765 1388 L
4729 1352 mt 4729 1424 L
3027 2361 mt 3099 2361 L
3063 2325 mt 3063 2397 L
3909 2801 mt 3981 2801 L
3945 2765 mt 3945 2837 L
4290 2145 mt 4362 2145 L
4326 2109 mt 4326 2181 L
3296 3039 mt 3368 3039 L
3332 3003 mt 3332 3075 L
5071 2436 mt 5143 2436 L
5107 2400 mt 5107 2472 L
1259 2094 mt 1331 2094 L
1295 2058 mt 1295 2130 L
2605 1787 mt 2677 1787 L
2641 1751 mt 2641 1823 L
3560 2840 mt 3632 2840 L
3596 2804 mt 3596 2876 L
2479 2778 mt 2551 2778 L
2515 2742 mt 2515 2814 L
3153 1816 mt 3225 1816 L
3189 1780 mt 3189 1852 L
2341 2624 mt 2413 2624 L
2377 2588 mt 2377 2660 L
4631 1653 mt 4703 1653 L
4667 1617 mt 4667 1689 L
4054 2528 mt 4126 2528 L
4090 2492 mt 4090 2564 L
5365 2904 mt 5437 2904 L
5401 2868 mt 5401 2940 L
2652 3774 mt 2724 3774 L
2688 3738 mt 2688 3810 L
4114 2782 mt 4186 2782 L
4150 2746 mt 4150 2818 L
3649 2854 mt 3721 2854 L
3685 2818 mt 3685 2890 L
4789 1502 mt 4861 1502 L
4825 1466 mt 4825 1538 L
2586 2962 mt 2658 2962 L
2622 2926 mt 2622 2998 L
3638 2541 mt 3710 2541 L
3674 2505 mt 3674 2577 L
5211 4131 mt 5283 4131 L
5247 4095 mt 5247 4167 L
4347  957 mt 4419  957 L
4383  921 mt 4383  993 L
3791 2051 mt 3863 2051 L
3827 2015 mt 3827 2087 L
3873 3711 mt 3945 3711 L
3909 3675 mt 3909 3747 L
3273 2467 mt 3345 2467 L
3309 2431 mt 3309 2503 L
4574 1923 mt 4646 1923 L
4610 1887 mt 4610 1959 L
3740 3045 mt 3812 3045 L
3776 3009 mt 3776 3081 L
4274 1872 mt 4346 1872 L
4310 1836 mt 4310 1908 L
4732 2686 mt 4804 2686 L
4768 2650 mt 4768 2722 L
2407 2787 mt 2479 2787 L
2443 2751 mt 2443 2823 L
4667 1740 mt 4739 1740 L
4703 1704 mt 4703 1776 L
3934 2722 mt 4006 2722 L
3970 2686 mt 3970 2758 L
3879 2523 mt 3951 2523 L
3915 2487 mt 3915 2559 L
2624 2449 mt 2696 2449 L
2660 2413 mt 2660 2485 L
4364 3446 mt 4436 3446 L
4400 3410 mt 4400 3482 L
3977 2849 mt 4049 2849 L
4013 2813 mt 4013 2885 L
3482 1972 mt 3554 1972 L
3518 1936 mt 3518 2008 L
4381 2571 mt 4453 2571 L
4417 2535 mt 4417 2607 L
4869 3877 mt 4941 3877 L
4905 3841 mt 4905 3913 L
5002 3118 mt 5074 3118 L
5038 3082 mt 5038 3154 L
4472 2558 mt 4544 2558 L
4508 2522 mt 4508 2594 L
3661 2501 mt 3733 2501 L
3697 2465 mt 3697 2537 L
3347 3151 mt 3419 3151 L
3383 3115 mt 3383 3187 L
5024 2700 mt 5096 2700 L
5060 2664 mt 5060 2736 L
3745 3017 mt 3817 3017 L
3781 2981 mt 3781 3053 L
4775 2251 mt 4847 2251 L
4811 2215 mt 4811 2287 L
3516 2951 mt 3588 2951 L
3552 2915 mt 3552 2987 L
4002 3468 mt 4074 3468 L
4038 3432 mt 4038 3504 L
3261 2293 mt 3333 2293 L
3297 2257 mt 3297 2329 L
3432 2576 mt 3504 2576 L
3468 2540 mt 3468 2612 L
4206 2664 mt 4278 2664 L
4242 2628 mt 4242 2700 L
5828 3625 mt 5900 3625 L
5864 3589 mt 5864 3661 L
2689 3051 mt 2761 3051 L
2725 3015 mt 2725 3087 L
2615 3491 mt 2687 3491 L
2651 3455 mt 2651 3527 L
3278 2909 mt 3350 2909 L
3314 2873 mt 3314 2945 L
3387 2228 mt 3459 2228 L
3423 2192 mt 3423 2264 L
3104 2764 mt 3176 2764 L
3140 2728 mt 3140 2800 L
3196 1917 mt 3268 1917 L
3232 1881 mt 3232 1953 L
4060 3822 mt 4132 3822 L
4096 3786 mt 4096 3858 L
3809 3112 mt 3881 3112 L
3845 3076 mt 3845 3148 L
3110 2334 mt 3182 2334 L
3146 2298 mt 3146 2370 L
5122 2194 mt 5194 2194 L
5158 2158 mt 5158 2230 L
4074 2165 mt 4146 2165 L
4110 2129 mt 4110 2201 L
3078 2150 mt 3150 2150 L
3114 2114 mt 3114 2186 L
3867 1476 mt 3939 1476 L
3903 1440 mt 3903 1512 L
1991 2275 mt 2063 2275 L
2027 2239 mt 2027 2311 L
4961 2864 mt 5033 2864 L
4997 2828 mt 4997 2900 L
3342 2741 mt 3414 2741 L
3378 2705 mt 3378 2777 L
3220 2668 mt 3292 2668 L
3256 2632 mt 3256 2704 L
3762 2288 mt 3834 2288 L
3798 2252 mt 3798 2324 L
3952 2242 mt 4024 2242 L
3988 2206 mt 3988 2278 L
4941 1671 mt 5013 1671 L
4977 1635 mt 4977 1707 L
3226 4205 mt 3298 4205 L
3262 4169 mt 3262 4241 L
3454 2338 mt 3526 2338 L
3490 2302 mt 3490 2374 L
2565 1748 mt 2637 1748 L
2601 1712 mt 2601 1784 L
3129 3235 mt 3201 3235 L
3165 3199 mt 3165 3271 L
2821 3980 mt 2893 3980 L
2857 3944 mt 2857 4016 L
3147 2024 mt 3219 2024 L
3183 1988 mt 3183 2060 L
2420 2392 mt 2492 2392 L
2456 2356 mt 2456 2428 L
3370 1419 mt 3442 1419 L
3406 1383 mt 3406 1455 L
3711 1831 mt 3783 1831 L
3747 1795 mt 3747 1867 L
2545 2083 mt 2617 2083 L
2581 2047 mt 2581 2119 L
3020 2641 mt 3092 2641 L
3056 2605 mt 3056 2677 L
4542 2889 mt 4614 2889 L
4578 2853 mt 4578 2925 L
2312 2646 mt 2384 2646 L
2348 2610 mt 2348 2682 L
3040 2844 mt 3112 2844 L
3076 2808 mt 3076 2880 L
4407 2440 mt 4479 2440 L
4443 2404 mt 4443 2476 L
2844 3376 mt 2916 3376 L
2880 3340 mt 2880 3412 L
4221 3034 mt 4293 3034 L
4257 2998 mt 4257 3070 L
4425 1732 mt 4497 1732 L
4461 1696 mt 4461 1768 L
3243 1802 mt 3315 1802 L
3279 1766 mt 3279 1838 L
5413 1489 mt 5485 1489 L
5449 1453 mt 5449 1525 L
3443 2536 mt 3515 2536 L
3479 2500 mt 3479 2572 L
2016 1006 mt 2088 1006 L
2052  970 mt 2052 1042 L
2851 2655 mt 2923 2655 L
2887 2619 mt 2887 2691 L
1674 3220 mt 1746 3220 L
1710 3184 mt 1710 3256 L
3774 3087 mt 3846 3087 L
3810 3051 mt 3810 3123 L
4034 2140 mt 4106 2140 L
4070 2104 mt 4070 2176 L
4121 2471 mt 4193 2471 L
4157 2435 mt 4157 2507 L
2813 3273 mt 2885 3273 L
2849 3237 mt 2849 3309 L
4619 2611 mt 4691 2611 L
4655 2575 mt 4655 2647 L
3477 2935 mt 3549 2935 L
3513 2899 mt 3513 2971 L
3706 1723 mt 3778 1723 L
3742 1687 mt 3742 1759 L
3672 1898 mt 3744 1898 L
3708 1862 mt 3708 1934 L
2866 2830 mt 2938 2830 L
2902 2794 mt 2902 2866 L
4852 3405 mt 4924 3405 L
4888 3369 mt 4888 3441 L
3302 1756 mt 3374 1756 L
3338 1720 mt 3338 1792 L
4170 2673 mt 4242 2673 L
4206 2637 mt 4206 2709 L
4482 2745 mt 4554 2745 L
4518 2709 mt 4518 2781 L
2368 3297 mt 2440 3297 L
2404 3261 mt 2404 3333 L
2251 2135 mt 2323 2135 L
2287 2099 mt 2287 2171 L
3616 3658 mt 3688 3658 L
3652 3622 mt 3652 3694 L
4282 2418 mt 4354 2418 L
4318 2382 mt 4318 2454 L
2805 2396 mt 2877 2396 L
2841 2360 mt 2841 2432 L
3996 3358 mt 4068 3358 L
4032 3322 mt 4032 3394 L
4107 3184 mt 4179 3184 L
4143 3148 mt 4143 3220 L
3313 1232 mt 3385 1232 L
3349 1196 mt 3349 1268 L
3610 2453 mt 3682 2453 L
3646 2417 mt 3646 2489 L
5700 2978 mt 5772 2978 L
5736 2942 mt 5736 3014 L
3066 3386 mt 3138 3386 L
3102 3350 mt 3102 3422 L
4298 2279 mt 4370 2279 L
4334 2243 mt 4334 2315 L
3449 3641 mt 3521 3641 L
3485 3605 mt 3485 3677 L
3734 2237 mt 3806 2237 L
3770 2201 mt 3770 2273 L
2910 2580 mt 2982 2580 L
2946 2544 mt 2946 2616 L
2973 1942 mt 3045 1942 L
3009 1906 mt 3009 1978 L
2903 2185 mt 2975 2185 L
2939 2149 mt 2939 2221 L
1937 2497 mt 2009 2497 L
1973 2461 mt 1973 2533 L
4080 3099 mt 4152 3099 L
4116 3063 mt 4116 3135 L
3527 2713 mt 3599 2713 L
3563 2677 mt 3563 2749 L
3521 2532 mt 3593 2532 L
3557 2496 mt 3557 2568 L
3677 3367 mt 3749 3367 L
3713 3331 mt 3713 3403 L
3544 2650 mt 3616 2650 L
3580 2614 mt 3580 2686 L
2966 2718 mt 3038 2718 L
3002 2682 mt 3002 2754 L
2952 1885 mt 3024 1885 L
2988 1849 mt 2988 1921 L
4322 2284 mt 4394 2284 L
4358 2248 mt 4358 2320 L
3958 2458 mt 4030 2458 L
3994 2422 mt 3994 2494 L
3376 1809 mt 3448 1809 L
3412 1773 mt 3412 1845 L
2643 2946 mt 2715 2946 L
2679 2910 mt 2679 2982 L
3393 3157 mt 3465 3157 L
3429 3121 mt 3429 3193 L
2945 4023 mt 3017 4023 L
2981 3987 mt 2981 4059 L
3555 1604 mt 3627 1604 L
3591 1568 mt 3591 1640 L
gs 899 414 5363 4203 rc
gr

0 sg
2779 5104 mt 
(\(F,DCTs,GMM\)) s
 482 3273 mt  -90 rotate
(\(F,DCTb,MLP\)) s
90 rotate
2975  223 mt 
(Corr = 0.03) s

end %%Color Dict

eplot
%%EndObject

epage
end

showpage

%%Trailer
%%EOF
