%!PS-Adobe-3.0 EPSF-3.0
%%Creator: MATLAB, The Mathworks, Inc. Version 7.7.0.471 (R2008b). Operating System: Microsoft Windows XP.
%%Title: Pictures\main_zoo_mvar_analysis_data_BMI_xcorr_bmig_p1_k1_2_4.eps
%%CreationDate: 10/26/2009  05:44:50
%%DocumentNeededFonts: Helvetica
%%DocumentProcessColors: Cyan Magenta Yellow Black
%%LanguageLevel: 2
%%Pages: 1
%%BoundingBox:    37   180   549   616
%%EndComments

%%BeginProlog
% MathWorks dictionary
/MathWorks 160 dict begin
% definition operators
/bdef {bind def} bind def
/ldef {load def} bind def
/xdef {exch def} bdef
/xstore {exch store} bdef
% operator abbreviations
/c  /clip ldef
/cc /concat ldef
/cp /closepath ldef
/gr /grestore ldef
/gs /gsave ldef
/mt /moveto ldef
/np /newpath ldef
/cm /currentmatrix ldef
/sm /setmatrix ldef
/rm /rmoveto ldef
/rl /rlineto ldef
/s {show newpath} bdef
/sc {setcmykcolor} bdef
/sr /setrgbcolor ldef
/sg /setgray ldef
/w /setlinewidth ldef
/j /setlinejoin ldef
/cap /setlinecap ldef
/rc {rectclip} bdef
/rf {rectfill} bdef
% page state control
/pgsv () def
/bpage {/pgsv save def} bdef
/epage {pgsv restore} bdef
/bplot /gsave ldef
/eplot {stroke grestore} bdef
% orientation switch
/portraitMode 0 def /landscapeMode 1 def /rotateMode 2 def
% coordinate system mappings
/dpi2point 0 def
% font control
/FontSize 0 def
/FMS {/FontSize xstore findfont [FontSize 0 0 FontSize neg 0 0]
  makefont setfont} bdef
/ISOLatin1Encoding where {pop /WindowsLatin1Encoding 256 array bdef
ISOLatin1Encoding WindowsLatin1Encoding copy pop
/.notdef/.notdef/quotesinglbase/florin/quotedblbase/ellipsis/dagger
/daggerdbl/circumflex/perthousand/Scaron/guilsinglleft/OE/.notdef/.notdef
/.notdef/.notdef/quoteleft/quoteright/quotedblleft/quotedblright/bullet
/endash/emdash/tilde/trademark/scaron/guilsinglright/oe/.notdef/.notdef
/Ydieresis WindowsLatin1Encoding 128 32 getinterval astore pop}
{/WindowsLatin1Encoding StandardEncoding bdef} ifelse
/reencode {exch dup where {pop load} {pop StandardEncoding} ifelse
  exch dup 3 1 roll findfont dup length dict begin
  { 1 index /FID ne {def}{pop pop} ifelse } forall
  /Encoding exch def currentdict end definefont pop} bdef
/isroman {findfont /CharStrings get /Agrave known} bdef
/FMSR {3 1 roll 1 index dup isroman {reencode} {pop pop} ifelse
  exch FMS} bdef
/csm {1 dpi2point div -1 dpi2point div scale neg translate
 dup landscapeMode eq {pop -90 rotate}
  {rotateMode eq {90 rotate} if} ifelse} bdef
% line types: solid, dotted, dashed, dotdash
/SO { [] 0 setdash } bdef
/DO { [.5 dpi2point mul 4 dpi2point mul] 0 setdash } bdef
/DA { [6 dpi2point mul] 0 setdash } bdef
/DD { [.5 dpi2point mul 4 dpi2point mul 6 dpi2point mul 4
  dpi2point mul] 0 setdash } bdef
% macros for lines and objects
/L {lineto stroke} bdef
/MP {3 1 roll moveto 1 sub {rlineto} repeat} bdef
/AP {{rlineto} repeat} bdef
/PDlw -1 def
/W {/PDlw currentlinewidth def setlinewidth} def
/PP {closepath eofill} bdef
/DP {closepath stroke} bdef
/MR {4 -2 roll moveto dup  0 exch rlineto exch 0 rlineto
  neg 0 exch rlineto closepath} bdef
/FR {MR stroke} bdef
/PR {MR fill} bdef
/L1i {{currentfile picstr readhexstring pop} image} bdef
/tMatrix matrix def
/MakeOval {newpath tMatrix currentmatrix pop translate scale
0 0 1 0 360 arc tMatrix setmatrix} bdef
/FO {MakeOval stroke} bdef
/PO {MakeOval fill} bdef
/PD {currentlinewidth 2 div 0 360 arc fill
   PDlw -1 eq not {PDlw w /PDlw -1 def} if} def
/FA {newpath tMatrix currentmatrix pop translate scale
  0 0 1 5 -2 roll arc tMatrix setmatrix stroke} bdef
/PA {newpath tMatrix currentmatrix pop	translate 0 0 moveto scale
  0 0 1 5 -2 roll arc closepath tMatrix setmatrix fill} bdef
/FAn {newpath tMatrix currentmatrix pop translate scale
  0 0 1 5 -2 roll arcn tMatrix setmatrix stroke} bdef
/PAn {newpath tMatrix currentmatrix pop translate 0 0 moveto scale
  0 0 1 5 -2 roll arcn closepath tMatrix setmatrix fill} bdef
/vradius 0 def /hradius 0 def /lry 0 def
/lrx 0 def /uly 0 def /ulx 0 def /rad 0 def
/MRR {/vradius xdef /hradius xdef /lry xdef /lrx xdef /uly xdef
  /ulx xdef newpath tMatrix currentmatrix pop ulx hradius add uly
  vradius add translate hradius vradius scale 0 0 1 180 270 arc 
  tMatrix setmatrix lrx hradius sub uly vradius add translate
  hradius vradius scale 0 0 1 270 360 arc tMatrix setmatrix
  lrx hradius sub lry vradius sub translate hradius vradius scale
  0 0 1 0 90 arc tMatrix setmatrix ulx hradius add lry vradius sub
  translate hradius vradius scale 0 0 1 90 180 arc tMatrix setmatrix
  closepath} bdef
/FRR {MRR stroke } bdef
/PRR {MRR fill } bdef
/MlrRR {/lry xdef /lrx xdef /uly xdef /ulx xdef /rad lry uly sub 2 div def
  newpath tMatrix currentmatrix pop ulx rad add uly rad add translate
  rad rad scale 0 0 1 90 270 arc tMatrix setmatrix lrx rad sub lry rad
  sub translate rad rad scale 0 0 1 270 90 arc tMatrix setmatrix
  closepath} bdef
/FlrRR {MlrRR stroke } bdef
/PlrRR {MlrRR fill } bdef
/MtbRR {/lry xdef /lrx xdef /uly xdef /ulx xdef /rad lrx ulx sub 2 div def
  newpath tMatrix currentmatrix pop ulx rad add uly rad add translate
  rad rad scale 0 0 1 180 360 arc tMatrix setmatrix lrx rad sub lry rad
  sub translate rad rad scale 0 0 1 0 180 arc tMatrix setmatrix
  closepath} bdef
/FtbRR {MtbRR stroke } bdef
/PtbRR {MtbRR fill } bdef
/stri 6 array def /dtri 6 array def
/smat 6 array def /dmat 6 array def
/tmat1 6 array def /tmat2 6 array def /dif 3 array def
/asub {/ind2 exch def /ind1 exch def dup dup
  ind1 get exch ind2 get sub exch } bdef
/tri_to_matrix {
  2 0 asub 3 1 asub 4 0 asub 5 1 asub
  dup 0 get exch 1 get 7 -1 roll astore } bdef
/compute_transform {
  dmat dtri tri_to_matrix tmat1 invertmatrix 
  smat stri tri_to_matrix tmat2 concatmatrix } bdef
/ds {stri astore pop} bdef
/dt {dtri astore pop} bdef
/db {2 copy /cols xdef /rows xdef mul dup 3 mul string
  currentfile 
  3 index 0 eq {/ASCIIHexDecode filter}
  {/ASCII85Decode filter 3 index 2 eq {/RunLengthDecode filter} if }
  ifelse exch readstring pop
  dup 0 3 index getinterval /rbmap xdef
  dup 2 index dup getinterval /gbmap xdef
  1 index dup 2 mul exch getinterval /bbmap xdef pop pop}bdef
/it {gs np dtri aload pop moveto lineto lineto cp c
  cols rows 8 compute_transform 
  rbmap gbmap bbmap true 3 colorimage gr}bdef
/il {newpath moveto lineto stroke}bdef
currentdict end def
%%EndProlog

%%BeginSetup
MathWorks begin

0 cap

end
%%EndSetup

%%Page: 1 1
%%BeginPageSetup
%%PageBoundingBox:    37   180   549   616
MathWorks begin
bpage
%%EndPageSetup

%%BeginObject: obj1
bplot

/dpi2point 12 def
portraitMode 0216 7344 csm

  234   -48  6149  5231 rc
85 dict begin %Colortable dictionary
/c0 { 0.000000 0.000000 0.000000 sr} bdef
/c1 { 1.000000 1.000000 1.000000 sr} bdef
/c2 { 0.900000 0.000000 0.000000 sr} bdef
/c3 { 0.000000 0.820000 0.000000 sr} bdef
/c4 { 0.000000 0.000000 0.800000 sr} bdef
/c5 { 0.910000 0.820000 0.320000 sr} bdef
/c6 { 1.000000 0.260000 0.820000 sr} bdef
/c7 { 0.000000 0.820000 0.820000 sr} bdef
c0
1 j
1 sg
   0    0 6919 5187 rf
6 w
0 4202 5362 0 0 -4202 899 4616 4 MP
PP
-5362 0 0 4202 5362 0 0 -4202 899 4616 5 MP stroke
4 w
DO
SO
6 w
0 sg
 899  414 mt 6261  414 L
 899 4616 mt 6261 4616 L
6261 4616 mt 6261  414 L
 899 4616 mt  899  414 L
 899 4616 mt 6261 4616 L
 899 4616 mt  899  414 L
 919 4616 mt  919 4562 L
 919  414 mt  919  467 L
%%IncludeResource: font Helvetica
/Helvetica /WindowsLatin1Encoding 240 FMSR

 713 4873 mt 
(-3) s
1806 4616 mt 1806 4562 L
1806  414 mt 1806  467 L
1600 4873 mt 
(-2) s
2693 4616 mt 2693 4562 L
2693  414 mt 2693  467 L
2487 4873 mt 
(-1) s
3580 4616 mt 3580 4562 L
3580  414 mt 3580  467 L
3514 4873 mt 
(0) s
4466 4616 mt 4466 4562 L
4466  414 mt 4466  467 L
4400 4873 mt 
(1) s
5353 4616 mt 5353 4562 L
5353  414 mt 5353  467 L
5287 4873 mt 
(2) s
6240 4616 mt 6240 4562 L
6240  414 mt 6240  467 L
6174 4873 mt 
(3) s
 899 4599 mt  952 4599 L
6261 4599 mt 6207 4599 L
 591 4688 mt 
(-3) s
 899 3904 mt  952 3904 L
6261 3904 mt 6207 3904 L
 591 3993 mt 
(-2) s
 899 3209 mt  952 3209 L
6261 3209 mt 6207 3209 L
 591 3298 mt 
(-1) s
 899 2514 mt  952 2514 L
6261 2514 mt 6207 2514 L
 731 2603 mt 
(0) s
 899 1820 mt  952 1820 L
6261 1820 mt 6207 1820 L
 731 1909 mt 
(1) s
 899 1125 mt  952 1125 L
6261 1125 mt 6207 1125 L
 731 1214 mt 
(2) s
 899  430 mt  952  430 L
6261  430 mt 6207  430 L
 731  519 mt 
(3) s
 899  414 mt 6261  414 L
 899 4616 mt 6261 4616 L
6261 4616 mt 6261  414 L
 899 4616 mt  899  414 L
gs 899 414 5363 4203 rc
gr

/c8 { 0.000000 0.000000 1.000000 sr} bdef
c8
3785 2899 mt 3857 2899 L
3821 2863 mt 3821 2935 L
2063 2170 mt 2135 2170 L
2099 2134 mt 2099 2206 L
4080 1593 mt 4152 1593 L
4116 1557 mt 4116 1629 L
4191 2320 mt 4263 2320 L
4227 2284 mt 4227 2356 L
2381 3045 mt 2453 3045 L
2417 3009 mt 2417 3081 L
2903 2580 mt 2975 2580 L
2939 2544 mt 2939 2616 L
3342 1923 mt 3414 1923 L
3378 1887 mt 3378 1959 L
1674 3057 mt 1746 3057 L
1710 3021 mt 1710 3093 L
3415 2611 mt 3487 2611 L
3451 2575 mt 3451 2647 L
5700 2204 mt 5772 2204 L
5736 2168 mt 5736 2240 L
1259 2453 mt 1331 2453 L
1295 2417 mt 1295 2489 L
2757 1898 mt 2829 1898 L
2793 1862 mt 2793 1934 L
2595 1723 mt 2667 1723 L
2631 1687 mt 2631 1759 L
2706 2089 mt 2778 2089 L
2742 2053 mt 2742 2125 L
4034 2247 mt 4106 2247 L
4070 2211 mt 4070 2283 L
3694 1930 mt 3766 1930 L
3730 1894 mt 3730 1966 L
2765 2750 mt 2837 2750 L
2801 2714 mt 2801 2786 L
3488 3005 mt 3560 3005 L
3524 2969 mt 3524 3041 L
4054 1371 mt 4126 1371 L
4090 1335 mt 4090 1407 L
4274 2467 mt 4346 2467 L
4310 2431 mt 4310 2503 L
2605 2523 mt 2677 2523 L
2641 2487 mt 2641 2559 L
3421 3358 mt 3493 3358 L
3457 3322 mt 3457 3394 L
3745 2334 mt 3817 2334 L
3781 2298 mt 3781 2370 L
2789 1489 mt 2861 1489 L
2825 1453 mt 2825 1525 L
4836 2983 mt 4908 2983 L
4872 2947 mt 4872 3019 L
4482 2288 mt 4554 2288 L
4518 2252 mt 4518 2324 L
3085 2383 mt 3157 2383 L
3121 2347 mt 3121 2419 L
4087 2256 mt 4159 2256 L
4123 2220 mt 4123 2292 L
4114 2352 mt 4186 2352 L
4150 2316 mt 4150 2388 L
5071 2637 mt 5143 2637 L
5107 2601 mt 5107 2673 L
3104 3075 mt 3176 3075 L
3140 3039 mt 3140 3111 L
3958 2401 mt 4030 2401 L
3994 2365 mt 3994 2437 L
4009 1838 mt 4081 1838 L
4045 1802 mt 4045 1874 L
5024 3178 mt 5096 3178 L
5060 3142 mt 5060 3214 L
4330 1878 mt 4402 1878 L
4366 1842 mt 4366 1914 L
3927 3415 mt 3999 3415 L
3963 3379 mt 3963 3451 L
3861 3273 mt 3933 3273 L
3897 3237 mt 3897 3309 L
3147 2396 mt 3219 2396 L
3183 2360 mt 3183 2432 L
3166 2233 mt 3238 2233 L
3202 2197 mt 3202 2269 L
2805 2012 mt 2877 2012 L
2841 1976 mt 2841 2048 L
4322 2619 mt 4394 2619 L
4358 2583 mt 4358 2655 L
3178 1526 mt 3250 1526 L
3214 1490 mt 3214 1562 L
2468 3395 mt 2540 3395 L
2504 3359 mt 2504 3431 L
4177 1152 mt 4249 1152 L
4213 1116 mt 4213 1188 L
5828  564 mt 5900  564 L
5864  528 mt 5864  600 L
3921 2284 mt 3993 2284 L
3957 2248 mt 3957 2320 L
3066 3289 mt 3138 3289 L
3102 3253 mt 3102 3325 L
2146 1892 mt 2218 1892 L
2182 1856 mt 2182 1928 L
4355 1680 mt 4427 1680 L
4391 1644 mt 4391 1716 L
2040 1653 mt 2112 1653 L
2076 1617 mt 2076 1689 L
3903 3367 mt 3975 3367 L
3939 3331 mt 3939 3403 L
4221 3822 mt 4293 3822 L
4257 3786 mt 4257 3858 L
2740 1087 mt 2812 1087 L
2776 1051 mt 2776 1123 L
2881 2825 mt 2953 2825 L
2917 2789 mt 2917 2861 L
3677 2709 mt 3749 2709 L
3713 2673 mt 3713 2745 L
4213 2713 mt 4285 2713 L
4249 2677 mt 4249 2749 L
3809 2279 mt 3881 2279 L
3845 2243 mt 3845 2315 L
4206 2722 mt 4278 2722 L
4242 2686 mt 4242 2758 L
4760 1904 mt 4832 1904 L
4796 1868 mt 4796 1940 L
3020 1816 mt 3092 1816 L
3056 1780 mt 3056 1852 L
4407 3106 mt 4479 3106 L
4443 3070 mt 4443 3142 L
3832 3711 mt 3904 3711 L
3868 3675 mt 3868 3747 L
4135 1572 mt 4207 1572 L
4171 1536 mt 4171 1608 L
4542 1318 mt 4614 1318 L
4578 1282 mt 4578 1354 L
3426 1502 mt 3498 1502 L
3462 1466 mt 3462 1538 L
3460 3022 mt 3532 3022 L
3496 2986 mt 3496 3058 L
4643 1255 mt 4715 1255 L
4679 1219 mt 4679 1291 L
2016 3198 mt 2088 3198 L
2052 3162 mt 2052 3234 L
3644 2497 mt 3716 2497 L
3680 2461 mt 3680 2533 L
2106 2664 mt 2178 2664 L
2142 2628 mt 2142 2700 L
3717 2365 mt 3789 2365 L
3753 2329 mt 3753 2401 L
3850 2024 mt 3922 2024 L
3886 1988 mt 3886 2060 L
2634 2311 mt 2706 2311 L
2670 2275 mt 2670 2347 L
3190 2700 mt 3262 2700 L
3226 2664 mt 3226 2736 L
1842 2864 mt 1914 2864 L
1878 2828 mt 1878 2900 L
1937 1462 mt 2009 1462 L
1973 1426 mt 1973 1498 L
5245 1748 mt 5317 1748 L
5281 1712 mt 5281 1784 L
3091 2218 mt 3163 2218 L
3127 2182 mt 3127 2254 L
3220 1662 mt 3292 1662 L
3256 1626 mt 3256 1698 L
3532 2532 mt 3604 2532 L
3568 2496 mt 3568 2568 L
3838 1448 mt 3910 1448 L
3874 1412 mt 3874 1484 L
2715 1336 mt 2787 1336 L
2751 1300 mt 2751 1372 L
2555 3257 mt 2627 3257 L
2591 3221 mt 2591 3293 L
3232 2488 mt 3304 2488 L
3268 2452 mt 3268 2524 L
4869 2519 mt 4941 2519 L
4905 2483 mt 4905 2555 L
3249 2099 mt 3321 2099 L
3285 2063 mt 3285 2135 L
3571 2844 mt 3643 2844 L
3607 2808 mt 3607 2880 L
4941 1121 mt 5013 1121 L
4977 1085 mt 4977 1157 L
4904 3349 mt 4976 3349 L
4940 3313 mt 4940 3385 L
3370 3553 mt 3442 3553 L
3406 3517 mt 3406 3589 L
3728 1698 mt 3800 1698 L
3764 1662 mt 3764 1734 L
3296 1434 mt 3368 1434 L
3332 1398 mt 3332 1470 L
1907 2062 mt 1979 2062 L
1943 2026 mt 1943 2098 L
3577 2242 mt 3649 2242 L
3613 2206 mt 3613 2278 L
2797 4131 mt 2869 4131 L
2833 4095 mt 2833 4167 L
2732 2145 mt 2804 2145 L
2768 2109 mt 2768 2181 L
3672 2731 mt 3744 2731 L
3708 2695 mt 3708 2767 L
3538 2691 mt 3610 2691 L
3574 2655 mt 3574 2727 L
5413 1634 mt 5485 1634 L
5449 1598 mt 5449 1670 L
4184 2994 mt 4256 2994 L
4220 2958 mt 4220 3030 L
 863 2940 mt  935 2940 L
 899 2904 mt  899 2976 L
3940 2633 mt 4012 2633 L
3976 2597 mt 3976 2669 L
3751 1865 mt 3823 1865 L
3787 1829 mt 3787 1901 L
1481 2956 mt 1553 2956 L
1517 2920 mt 1517 2992 L
3996 2261 mt 4068 2261 L
4032 2225 mt 4032 2297 L
3814 2140 mt 3886 2140 L
3850 2104 mt 3850 2176 L
3466 1972 mt 3538 1972 L
3502 1936 mt 3502 2008 L
4719 2773 mt 4791 2773 L
4755 2737 mt 4755 2809 L
3013 2597 mt 3085 2597 L
3049 2561 mt 3049 2633 L
2251 3081 mt 2323 3081 L
2287 3045 mt 2287 3117 L
5531  724 mt 5603  724 L
5567  688 mt 5567  760 L
3897 2584 mt 3969 2584 L
3933 2548 mt 3933 2620 L
3046 3137 mt 3118 3137 L
3082 3101 mt 3082 3173 L
3820 3051 mt 3892 3051 L
3856 3015 mt 3856 3087 L
4074 1948 mt 4146 1948 L
4110 1912 mt 4110 1984 L
2966 2209 mt 3038 2209 L
3002 2173 mt 3002 2245 L
2513 2073 mt 2585 2073 L
2549 2037 mt 2549 2109 L
1619 2361 mt 1691 2361 L
1655 2325 mt 1655 2397 L
3364 1550 mt 3436 1550 L
3400 1514 mt 3400 1586 L
4094 3281 mt 4166 3281 L
4130 3245 mt 4130 3317 L
3482 2874 mt 3554 2874 L
3518 2838 mt 3518 2910 L
3521 1978 mt 3593 1978 L
3557 1942 mt 3557 2014 L
1965 3131 mt 2037 3131 L
2001 3095 mt 2001 3167 L
2652 1476 mt 2724 1476 L
2688 1440 mt 2688 1512 L
3278 2475 mt 3350 2475 L
3314 2439 mt 3314 2511 L
1556 1354 mt 1628 1354 L
1592 1318 mt 1592 1390 L
3184 2820 mt 3256 2820 L
3220 2784 mt 3220 2856 L
3610 2506 mt 3682 2506 L
3646 2470 mt 3646 2542 L
3505 2695 mt 3577 2695 L
3541 2659 mt 3541 2731 L
4693 3658 mt 4765 3658 L
4729 3622 mt 4729 3694 L
3683 1787 mt 3755 1787 L
3719 1751 mt 3719 1823 L
4128 2668 mt 4200 2668 L
4164 2632 mt 4164 2704 L
2888 2920 mt 2960 2920 L
2924 2884 mt 2924 2956 L
2910 4305 mt 2982 4305 L
2946 4269 mt 2946 4341 L
1991 4205 mt 2063 4205 L
2027 4169 mt 2027 4241 L
3172 3314 mt 3244 3314 L
3208 3278 mt 3208 3350 L
3443 2673 mt 3515 2673 L
3479 2637 mt 3479 2709 L
3605 2736 mt 3677 2736 L
3641 2700 mt 3641 2772 L
3661 1917 mt 3733 1917 L
3697 1881 mt 3697 1953 L
3544 2904 mt 3616 2904 L
3580 2868 mt 3580 2940 L
3319 2125 mt 3391 2125 L
3355 2089 mt 3355 2161 L
4512 2237 mt 4584 2237 L
4548 2201 mt 4548 2273 L
4608 1671 mt 4680 1671 L
4644 1635 mt 4644 1707 L
3689 3436 mt 3761 3436 L
3725 3400 mt 3725 3472 L
4564 2545 mt 4636 2545 L
4600 2509 mt 4600 2581 L
5096 2624 mt 5168 2624 L
5132 2588 mt 5132 2660 L
3123 2115 mt 3195 2115 L
3159 2079 mt 3159 2151 L
4789 1740 mt 4861 1740 L
4825 1704 mt 4825 1776 L
4732 1707 mt 4804 1707 L
4768 1671 mt 4768 1743 L
2643 3468 mt 2715 3468 L
2679 3432 mt 2679 3504 L
5047  414 mt 5119  414 L
5083  378 mt 5083  450 L
3762 3125 mt 3834 3125 L
3798 3089 mt 3798 3161 L
3053 2571 mt 3125 2571 L
3089 2535 mt 3089 2607 L
4028 1990 mt 4100 1990 L
4064 1954 mt 4064 2026 L
3078 3774 mt 3150 3774 L
3114 3738 mt 3114 3810 L
4381 2646 mt 4453 2646 L
4417 2610 mt 4417 2682 L
2836 1851 mt 2908 1851 L
2872 1815 mt 2872 1887 L
2126 2567 mt 2198 2567 L
2162 2531 mt 2162 2603 L
3855 3567 mt 3927 3567 L
3891 3531 mt 3891 3603 L
3989 1995 mt 4061 1995 L
4025 1959 mt 4025 2031 L
3438 1614 mt 3510 1614 L
3474 1578 mt 3474 1650 L
2490 2806 mt 2562 2806 L
2526 2770 mt 2526 2842 L
4100 3069 mt 4172 3069 L
4136 3033 mt 4136 3105 L
4251 2307 mt 4323 2307 L
4287 2271 mt 4287 2343 L
5002 2414 mt 5074 2414 L
5038 2378 mt 5038 2450 L
3261 2007 mt 3333 2007 L
3297 1971 mt 3297 2043 L
4706 1006 mt 4778 1006 L
4742  970 mt 4742 1042 L
4015 2316 mt 4087 2316 L
4051 2280 mt 4051 2352 L
2866 2541 mt 2938 2541 L
2902 2505 mt 2902 2577 L
2938 1872 mt 3010 1872 L
2974 1836 mt 2974 1908 L
3566 2967 mt 3638 2967 L
3602 2931 mt 3602 3003 L
3284 3039 mt 3356 3039 L
3320 3003 mt 3320 3075 L
3599 3540 mt 3671 3540 L
3635 3504 mt 3635 3576 L
1387 2347 mt 1459 2347 L
1423 2311 mt 1423 2383 L
3040 2589 mt 3112 2589 L
3076 2553 mt 3076 2625 L
2697 2370 mt 2769 2370 L
2733 2334 mt 2733 2406 L
3510 2194 mt 3582 2194 L
3546 2158 mt 3546 2230 L
4338 2528 mt 4410 2528 L
4374 2492 mt 4374 2564 L
2749 2029 mt 2821 2029 L
2785 1993 mt 2785 2065 L
2407 2449 mt 2479 2449 L
2443 2413 mt 2443 2485 L
3307 3034 mt 3379 3034 L
3343 2998 mt 3343 3070 L
4574 3250 mt 4646 3250 L
4610 3214 mt 4610 3286 L
2432 2155 mt 2504 2155 L
2468 2119 mt 2468 2191 L
3267 1277 mt 3339 1277 L
3303 1241 mt 3303 1313 L
4961 2051 mt 5033 2051 L
4997 2015 mt 4997 2087 L
3007 2405 mt 3079 2405 L
3043 2369 mt 3043 2441 L
3196 2787 mt 3268 2787 L
3232 2751 mt 3232 2823 L
2662 2427 mt 2734 2427 L
2698 2391 mt 2698 2463 L
4585 2869 mt 4657 2869 L
4621 2833 mt 4621 2905 L
2394 2764 mt 2466 2764 L
2430 2728 mt 2430 2800 L
2523 2840 mt 2595 2840 L
2559 2804 mt 2559 2876 L
3915 2067 mt 3987 2067 L
3951 2031 mt 3951 2103 L
3359 2859 mt 3431 2859 L
3395 2823 mt 3395 2895 L
2444 3220 mt 2516 3220 L
2480 3184 mt 2480 3256 L
2355 3942 mt 2427 3942 L
2391 3906 mt 2391 3978 L
4425 1298 mt 4497 1298 L
4461 1262 mt 4461 1334 L
3325 2458 mt 3397 2458 L
3361 2422 mt 3361 2494 L
3582 2641 mt 3654 2641 L
3618 2605 mt 3618 2677 L
2575 2329 mt 2647 2329 L
2611 2293 mt 2611 2365 L
2828 2650 mt 2900 2650 L
2864 2614 mt 2864 2686 L
3381 2655 mt 3453 2655 L
3417 2619 mt 3417 2691 L
2565 2501 mt 2637 2501 L
2601 2465 mt 2601 2537 L
4886 3011 mt 4958 3011 L
4922 2975 mt 4922 3047 L
3977 3503 mt 4049 3503 L
4013 3467 mt 4013 3539 L
2773 3265 mt 2845 3265 L
2809 3229 mt 2809 3301 L
2201 2849 mt 2273 2849 L
2237 2813 mt 2237 2885 L
3141 1823 mt 3213 1823 L
3177 1787 mt 3177 1859 L
3734 3908 mt 3806 3908 L
3770 3872 mt 3770 3944 L
3803 2040 mt 3875 2040 L
3839 2004 mt 3839 2076 L
5365 1772 mt 5437 1772 L
5401 1736 mt 5401 1808 L
2980 3980 mt 3052 3980 L
3016 3944 mt 3016 4016 L
2420 2214 mt 2492 2214 L
2456 2178 mt 2456 2250 L
3237 2120 mt 3309 2120 L
3273 2084 mt 3273 2156 L
3033 3000 mt 3105 3000 L
3069 2964 mt 3069 3036 L
3432 3242 mt 3504 3242 L
3468 3206 mt 3468 3278 L
4107 1419 mt 4179 1419 L
4143 1383 mt 4143 1455 L
2267 3171 mt 2339 3171 L
2303 3135 mt 2303 3207 L
3072 2879 mt 3144 2879 L
3108 2843 mt 3108 2915 L
3560 2094 mt 3632 2094 L
3596 2058 mt 3596 2130 L
4149 1966 mt 4221 1966 L
4185 1930 mt 4185 2002 L
3255 3446 mt 3327 3446 L
3291 3410 mt 3291 3482 L
3627 2889 mt 3699 2889 L
3663 2853 mt 3663 2925 L
3330 1936 mt 3402 1936 L
3366 1900 mt 3366 1972 L
2874 2160 mt 2946 2160 L
2910 2124 mt 2910 2196 L
3797 1643 mt 3869 1643 L
3833 1607 mt 3833 1679 L
4472 2265 mt 4544 2265 L
4508 2229 mt 4508 2301 L
3214 2302 mt 3286 2302 L
3250 2266 mt 3250 2338 L
3934 2223 mt 4006 2223 L
3970 2187 mt 3970 2259 L
2896 2436 mt 2968 2436 L
2932 2400 mt 2932 2472 L
4680 2677 mt 4752 2677 L
4716 2641 mt 4716 2713 L
2183 3625 mt 2255 3625 L
2219 3589 mt 2219 3661 L
3844 2018 mt 3916 2018 L
3880 1982 mt 3880 2054 L
4306 2440 mt 4378 2440 L
4342 2404 mt 4342 2476 L
5211 2989 mt 5283 2989 L
5247 2953 mt 5247 3025 L
3588 3028 mt 3660 3028 L
3624 2992 mt 3624 3064 L
2624 3151 mt 2696 3151 L
2660 3115 mt 2660 3187 L
3649 2562 mt 3721 2562 L
3685 2526 mt 3685 2598 L
3700 4616 mt 3772 4616 L
3736 4580 mt 3736 4652 L
3410 2830 mt 3482 2830 L
3446 2794 mt 3446 2866 L
1876 2338 mt 1948 2338 L
1912 2302 mt 1912 2374 L
4002 2759 mt 4074 2759 L
4038 2723 mt 4038 2795 L
3774 1732 mt 3846 1732 L
3810 1696 mt 3810 1768 L
3393 3322 mt 3465 3322 L
3429 3286 mt 3429 3358 L
4655 2001 mt 4727 2001 L
4691 1965 mt 4691 2037 L
6225 1049 mt 6297 1049 L
6261 1013 mt 6261 1085 L
3616 2536 mt 3688 2536 L
3652 2500 mt 3652 2572 L
2924 2727 mt 2996 2727 L
2960 2691 mt 2960 2763 L
3499 1858 mt 3571 1858 L
3535 1822 mt 3535 1894 L
4981 2782 mt 5053 2782 L
5017 2746 mt 5017 2818 L
3471 2471 mt 3543 2471 L
3507 2435 mt 3507 2507 L
3885 2972 mt 3957 2972 L
3921 2936 mt 3921 3008 L
4453 2909 mt 4525 2909 L
4489 2873 mt 4489 2945 L
3791 1538 mt 3863 1538 L
3827 1502 mt 3827 1574 L
2545 3112 mt 2617 3112 L
2581 3076 mt 2581 3148 L
3208 2298 mt 3280 2298 L
3244 2262 mt 3244 2334 L
4631 2593 mt 4703 2593 L
4667 2557 mt 4667 2629 L
4298 2189 mt 4370 2189 L
4334 2153 mt 4334 2225 L
4372 3731 mt 4444 3731 L
4408 3695 mt 4408 3767 L
4775 1954 mt 4847 1954 L
4811 1918 mt 4811 1990 L
3059 2418 mt 3131 2418 L
3095 2382 mt 3095 2454 L
4444 3164 mt 4516 3164 L
4480 3128 mt 4480 3200 L
4259 2659 mt 4331 2659 L
4295 2623 mt 4295 2695 L
4398 1942 mt 4470 1942 L
4434 1906 mt 4434 1978 L
5282  957 mt 5354  957 L
5318  921 mt 5318  993 L
3116 3610 mt 3188 3610 L
3152 3574 mt 3152 3646 L
3110 2745 mt 3182 2745 L
3146 2709 mt 3146 2781 L
3780 2801 mt 3852 2801 L
3816 2765 mt 3816 2837 L
2945 3425 mt 3017 3425 L
2981 3389 mt 2981 3461 L
3952 2078 mt 4024 2078 L
3988 2042 mt 3988 2114 L
4142 2576 mt 4214 2576 L
4178 2540 mt 4178 2612 L
4463 2046 mt 4535 2046 L
4499 2010 mt 4499 2082 L
2085 3213 mt 2157 3213 L
2121 3177 mt 2121 3249 L
3516 2130 mt 3588 2130 L
3552 2094 mt 3552 2166 L
3153 2180 mt 3225 2180 L
3189 2144 mt 3189 2216 L
3129 2792 mt 3201 2792 L
3165 2756 mt 3165 2828 L
3243 2150 mt 3315 2150 L
3279 2114 mt 3279 2186 L
5468 1831 mt 5540 1831 L
5504 1795 mt 5504 1867 L
2534 3752 mt 2606 3752 L
2570 3716 mt 2570 3788 L
3909 2199 mt 3981 2199 L
3945 2163 mt 3945 2235 L
3290 3093 mt 3362 3093 L
3326 3057 mt 3326 3129 L
4121 1181 mt 4193 1181 L
4157 1145 mt 4157 1217 L
2781 1802 mt 2853 1802 L
2817 1766 mt 2817 1838 L
2723 2374 mt 2795 2374 L
2759 2338 mt 2759 2410 L
4266 3184 mt 4338 3184 L
4302 3148 mt 4302 3220 L
4852 1960 mt 4924 1960 L
4888 1924 mt 4888 1996 L
3879 2514 mt 3951 2514 L
3915 2478 mt 3915 2550 L
3768 2325 mt 3840 2325 L
3804 2289 mt 3804 2361 L
5180 1207 mt 5252 1207 L
5216 1171 mt 5216 1243 L
4522 2628 mt 4594 2628 L
4558 2592 mt 4558 2664 L
4067 3331 mt 4139 3331 L
4103 3295 mt 4103 3367 L
4347 2165 mt 4419 2165 L
4383 2129 mt 4383 2201 L
2993 2109 mt 3065 2109 L
3029 2073 mt 3029 2145 L
2235 2686 mt 2307 2686 L
2271 2650 mt 2271 2722 L
4364 2392 mt 4436 2392 L
4400 2356 mt 4400 2428 L
1766 3340 mt 1838 3340 L
1802 3304 mt 1802 3376 L
2312 2343 mt 2384 2343 L
2348 2307 mt 2348 2379 L
4199 1779 mt 4271 1779 L
4235 1743 mt 4235 1815 L
4390 3099 mt 4462 3099 L
4426 3063 mt 4426 3135 L
5321 1561 mt 5393 1561 L
5357 1525 mt 5357 1597 L
4314 2275 mt 4386 2275 L
4350 2239 mt 4350 2311 L
2298 3297 mt 2370 3297 L
2334 3261 mt 2334 3333 L
1805 3206 mt 1877 3206 L
1841 3170 mt 1841 3242 L
4228 1583 mt 4300 1583 L
4264 1547 mt 4264 1619 L
2586 3386 mt 2658 3386 L
2622 3350 mt 2622 3422 L
3867 1514 mt 3939 1514 L
3903 1478 mt 3903 1550 L
2973 2228 mt 3045 2228 L
3009 2192 mt 3009 2264 L
4047 1794 mt 4119 1794 L
4083 1758 mt 4083 1830 L
4746 3797 mt 4818 3797 L
4782 3761 mt 4782 3833 L
2327 2778 mt 2399 2778 L
2363 2742 mt 2363 2814 L
3404 2914 mt 3476 2914 L
3440 2878 mt 3440 2950 L
6033  898 mt 6105  898 L
6069  862 mt 6069  934 L
3313 2423 mt 3385 2423 L
3349 2387 mt 3349 2459 L
2615 2083 mt 2687 2083 L
2651 2047 mt 2651 2119 L
3527 3405 mt 3599 3405 L
3563 3369 mt 3563 3441 L
3706 2410 mt 3778 2410 L
3742 2374 mt 3742 2446 L
2813 3376 mt 2885 3376 L
2849 3340 mt 2849 3412 L
2341 2554 mt 2413 2554 L
2377 2518 mt 2377 2590 L
3971 4023 mt 4043 4023 L
4007 3987 mt 4007 4059 L
3387 1624 mt 3459 1624 L
3423 1588 mt 3423 1660 L
4041 2558 mt 4113 2558 L
4077 2522 mt 4077 2594 L
3347 2480 mt 3419 2480 L
3383 2444 mt 3383 2516 L
4021 2811 mt 4093 2811 L
4057 2775 mt 4057 2847 L
3594 2930 mt 3666 2930 L
3630 2894 mt 3630 2966 L
2689 1756 mt 2761 1756 L
2725 1720 mt 2725 1792 L
3376 3491 mt 3448 3491 L
3412 3455 mt 3412 3527 L
3449 2432 mt 3521 2432 L
3485 2396 mt 3485 2468 L
3135 2704 mt 3207 2704 L
3171 2668 mt 3171 2740 L
4170 2946 mt 4242 2946 L
4206 2910 mt 4206 2982 L
3000 2510 mt 3072 2510 L
3036 2474 mt 3036 2546 L
4435 3515 mt 4507 3515 L
4471 3479 mt 4471 3551 L
4236 1604 mt 4308 1604 L
4272 1568 mt 4272 1640 L
3964 4072 mt 4036 4072 L
4000 4036 mt 4000 4108 L
3666 2356 mt 3738 2356 L
3702 2320 mt 3702 2392 L
3226 3063 mt 3298 3063 L
3262 3027 mt 3262 3099 L
2987 3191 mt 3059 3191 L
3023 3155 mt 3023 3227 L
2368 2549 mt 2440 2549 L
2404 2513 mt 2404 2585 L
2917 2835 mt 2989 2835 L
2953 2799 mt 2953 2871 L
3891 3235 mt 3963 3235 L
3927 3199 mt 3927 3271 L
2844 3595 mt 2916 3595 L
2880 3559 mt 2880 3631 L
4553 3693 mt 4625 3693 L
4589 3657 mt 4589 3729 L
2456 1911 mt 2528 1911 L
2492 1875 mt 2492 1947 L
4243 2185 mt 4315 2185 L
4279 2149 mt 4279 2221 L
4805 1404 mt 4877 1404 L
4841 1368 mt 4841 1440 L
3398 3641 mt 3470 3641 L
3434 3605 mt 3434 3677 L
4416 2035 mt 4488 2035 L
4452 1999 mt 4452 2071 L
4619 2796 mt 4691 2796 L
4655 2760 mt 4655 2832 L
4060 2768 mt 4132 2768 L
4096 2732 mt 4096 2804 L
4820 1845 mt 4892 1845 L
4856 1809 mt 4856 1881 L
4667 1885 mt 4739 1885 L
4703 1849 mt 4703 1921 L
2502 2270 mt 2574 2270 L
2538 2234 mt 2538 2306 L
5606  824 mt 5678  824 L
5642  788 mt 5642  860 L
3740 2057 mt 3812 2057 L
3776 2021 mt 3776 2093 L
2851 2951 mt 2923 2951 L
2887 2915 mt 2887 2987 L
2282 3581 mt 2354 3581 L
2318 3545 mt 2318 3617 L
3273 3017 mt 3345 3017 L
3309 2981 mt 3309 3053 L
3655 3675 mt 3727 3675 L
3691 3639 mt 3691 3711 L
3638 2815 mt 3710 2815 L
3674 2779 mt 3674 2851 L
3160 3306 mt 3232 3306 L
3196 3270 mt 3196 3342 L
3757 2602 mt 3829 2602 L
3793 2566 mt 3793 2638 L
4597 2493 mt 4669 2493 L
4633 2457 mt 4633 2529 L
1722 2682 mt 1794 2682 L
1758 2646 mt 1758 2718 L
2218 3457 mt 2290 3457 L
2254 3421 mt 2254 3493 L
3621 2962 mt 3693 2962 L
3657 2926 mt 3657 2998 L
3983 2854 mt 4055 2854 L
4019 2818 mt 4019 2890 L
5122 2175 mt 5194 2175 L
5158 2139 mt 5158 2211 L
3098 2606 mt 3170 2606 L
3134 2570 mt 3134 2642 L
4922 1232 mt 4994 1232 L
4958 1196 mt 4958 1268 L
4163 2884 mt 4235 2884 L
4199 2848 mt 4199 2920 L
3202 2935 mt 3274 2935 L
3238 2899 mt 3238 2971 L
2959 3848 mt 3031 3848 L
2995 3812 mt 2995 3884 L
4290 3087 mt 4362 3087 L
4326 3051 mt 4326 3123 L
3711 3877 mt 3783 3877 L
3747 3841 mt 3747 3913 L
3493 3157 mt 3565 3157 L
3529 3121 mt 3529 3193 L
3633 3118 mt 3705 3118 L
3669 3082 mt 3669 3154 L
3946 3144 mt 4018 3144 L
3982 3108 mt 3982 3180 L
3826 1809 mt 3898 1809 L
3862 1773 mt 3862 1845 L
2680 2293 mt 2752 2293 L
2716 2257 mt 2716 2329 L
4532 2104 mt 4604 2104 L
4568 2068 mt 4568 2140 L
3336 1984 mt 3408 1984 L
3372 1948 mt 3372 2020 L
3723 2462 mt 3795 2462 L
3759 2426 mt 3759 2498 L
3302 2484 mt 3374 2484 L
3338 2448 mt 3338 2520 L
4492 2379 mt 4564 2379 L
4528 2343 mt 4528 2415 L
3477 1715 mt 3549 1715 L
3513 1679 mt 3513 1751 L
2165 1689 mt 2237 1689 L
2201 1653 mt 2201 1725 L
5150 2615 mt 5222 2615 L
5186 2579 mt 5186 2651 L
3555 2894 mt 3627 2894 L
3591 2858 mt 3591 2930 L
4282 2718 mt 4354 2718 L
4318 2682 mt 4318 2754 L
2821 2445 mt 2893 2445 L
2857 2409 mt 2857 2481 L
3454 1764 mt 3526 1764 L
3490 1728 mt 3490 1800 L
3353 2925 mt 3425 2925 L
3389 2889 mt 3389 2961 L
3549 2754 mt 3621 2754 L
3585 2718 mt 3585 2790 L
4156 2135 mt 4228 2135 L
4192 2099 mt 4192 2171 L
2952 3527 mt 3024 3527 L
2988 3491 mt 2988 3563 L
2479 2388 mt 2551 2388 L
2515 2352 mt 2515 2424 L
2931 2978 mt 3003 2978 L
2967 2942 mt 2967 3014 L
4501 1388 mt 4573 1388 L
4537 1352 mt 4537 1424 L
3873 2251 mt 3945 2251 L
3909 2215 mt 3909 2287 L
2671 3227 mt 2743 3227 L
2707 3191 mt 2707 3263 L
3027 3479 mt 3099 3479 L
3063 3443 mt 3063 3515 L
2859 2741 mt 2931 2741 L
2895 2705 mt 2895 2777 L
gs 899 414 5363 4203 rc
gr

0 sg
2775 5104 mt 
(\(F,DCTb,GMM\)) s
 482 3296 mt  -90 rotate
(\(F,DCTs,iMLP\)) s
90 rotate
2975  223 mt 
(Corr = 0.27) s

end %%Color Dict

eplot
%%EndObject

epage
end

showpage

%%Trailer
%%EOF
