%!PS-Adobe-3.0 EPSF-3.0
%%Creator: MATLAB, The Mathworks, Inc. Version 7.7.0.471 (R2008b). Operating System: Microsoft Windows XP.
%%Title: Pictures\main_zoo_mvar_analysis_data_BMI_xcorr_bmi_p1_k1_4_5.eps
%%CreationDate: 10/26/2009  05:44:03
%%DocumentNeededFonts: Helvetica
%%DocumentProcessColors: Cyan Magenta Yellow Black
%%LanguageLevel: 2
%%Pages: 1
%%BoundingBox:    32   180   546   616
%%EndComments

%%BeginProlog
% MathWorks dictionary
/MathWorks 160 dict begin
% definition operators
/bdef {bind def} bind def
/ldef {load def} bind def
/xdef {exch def} bdef
/xstore {exch store} bdef
% operator abbreviations
/c  /clip ldef
/cc /concat ldef
/cp /closepath ldef
/gr /grestore ldef
/gs /gsave ldef
/mt /moveto ldef
/np /newpath ldef
/cm /currentmatrix ldef
/sm /setmatrix ldef
/rm /rmoveto ldef
/rl /rlineto ldef
/s {show newpath} bdef
/sc {setcmykcolor} bdef
/sr /setrgbcolor ldef
/sg /setgray ldef
/w /setlinewidth ldef
/j /setlinejoin ldef
/cap /setlinecap ldef
/rc {rectclip} bdef
/rf {rectfill} bdef
% page state control
/pgsv () def
/bpage {/pgsv save def} bdef
/epage {pgsv restore} bdef
/bplot /gsave ldef
/eplot {stroke grestore} bdef
% orientation switch
/portraitMode 0 def /landscapeMode 1 def /rotateMode 2 def
% coordinate system mappings
/dpi2point 0 def
% font control
/FontSize 0 def
/FMS {/FontSize xstore findfont [FontSize 0 0 FontSize neg 0 0]
  makefont setfont} bdef
/ISOLatin1Encoding where {pop /WindowsLatin1Encoding 256 array bdef
ISOLatin1Encoding WindowsLatin1Encoding copy pop
/.notdef/.notdef/quotesinglbase/florin/quotedblbase/ellipsis/dagger
/daggerdbl/circumflex/perthousand/Scaron/guilsinglleft/OE/.notdef/.notdef
/.notdef/.notdef/quoteleft/quoteright/quotedblleft/quotedblright/bullet
/endash/emdash/tilde/trademark/scaron/guilsinglright/oe/.notdef/.notdef
/Ydieresis WindowsLatin1Encoding 128 32 getinterval astore pop}
{/WindowsLatin1Encoding StandardEncoding bdef} ifelse
/reencode {exch dup where {pop load} {pop StandardEncoding} ifelse
  exch dup 3 1 roll findfont dup length dict begin
  { 1 index /FID ne {def}{pop pop} ifelse } forall
  /Encoding exch def currentdict end definefont pop} bdef
/isroman {findfont /CharStrings get /Agrave known} bdef
/FMSR {3 1 roll 1 index dup isroman {reencode} {pop pop} ifelse
  exch FMS} bdef
/csm {1 dpi2point div -1 dpi2point div scale neg translate
 dup landscapeMode eq {pop -90 rotate}
  {rotateMode eq {90 rotate} if} ifelse} bdef
% line types: solid, dotted, dashed, dotdash
/SO { [] 0 setdash } bdef
/DO { [.5 dpi2point mul 4 dpi2point mul] 0 setdash } bdef
/DA { [6 dpi2point mul] 0 setdash } bdef
/DD { [.5 dpi2point mul 4 dpi2point mul 6 dpi2point mul 4
  dpi2point mul] 0 setdash } bdef
% macros for lines and objects
/L {lineto stroke} bdef
/MP {3 1 roll moveto 1 sub {rlineto} repeat} bdef
/AP {{rlineto} repeat} bdef
/PDlw -1 def
/W {/PDlw currentlinewidth def setlinewidth} def
/PP {closepath eofill} bdef
/DP {closepath stroke} bdef
/MR {4 -2 roll moveto dup  0 exch rlineto exch 0 rlineto
  neg 0 exch rlineto closepath} bdef
/FR {MR stroke} bdef
/PR {MR fill} bdef
/L1i {{currentfile picstr readhexstring pop} image} bdef
/tMatrix matrix def
/MakeOval {newpath tMatrix currentmatrix pop translate scale
0 0 1 0 360 arc tMatrix setmatrix} bdef
/FO {MakeOval stroke} bdef
/PO {MakeOval fill} bdef
/PD {currentlinewidth 2 div 0 360 arc fill
   PDlw -1 eq not {PDlw w /PDlw -1 def} if} def
/FA {newpath tMatrix currentmatrix pop translate scale
  0 0 1 5 -2 roll arc tMatrix setmatrix stroke} bdef
/PA {newpath tMatrix currentmatrix pop	translate 0 0 moveto scale
  0 0 1 5 -2 roll arc closepath tMatrix setmatrix fill} bdef
/FAn {newpath tMatrix currentmatrix pop translate scale
  0 0 1 5 -2 roll arcn tMatrix setmatrix stroke} bdef
/PAn {newpath tMatrix currentmatrix pop translate 0 0 moveto scale
  0 0 1 5 -2 roll arcn closepath tMatrix setmatrix fill} bdef
/vradius 0 def /hradius 0 def /lry 0 def
/lrx 0 def /uly 0 def /ulx 0 def /rad 0 def
/MRR {/vradius xdef /hradius xdef /lry xdef /lrx xdef /uly xdef
  /ulx xdef newpath tMatrix currentmatrix pop ulx hradius add uly
  vradius add translate hradius vradius scale 0 0 1 180 270 arc 
  tMatrix setmatrix lrx hradius sub uly vradius add translate
  hradius vradius scale 0 0 1 270 360 arc tMatrix setmatrix
  lrx hradius sub lry vradius sub translate hradius vradius scale
  0 0 1 0 90 arc tMatrix setmatrix ulx hradius add lry vradius sub
  translate hradius vradius scale 0 0 1 90 180 arc tMatrix setmatrix
  closepath} bdef
/FRR {MRR stroke } bdef
/PRR {MRR fill } bdef
/MlrRR {/lry xdef /lrx xdef /uly xdef /ulx xdef /rad lry uly sub 2 div def
  newpath tMatrix currentmatrix pop ulx rad add uly rad add translate
  rad rad scale 0 0 1 90 270 arc tMatrix setmatrix lrx rad sub lry rad
  sub translate rad rad scale 0 0 1 270 90 arc tMatrix setmatrix
  closepath} bdef
/FlrRR {MlrRR stroke } bdef
/PlrRR {MlrRR fill } bdef
/MtbRR {/lry xdef /lrx xdef /uly xdef /ulx xdef /rad lrx ulx sub 2 div def
  newpath tMatrix currentmatrix pop ulx rad add uly rad add translate
  rad rad scale 0 0 1 180 360 arc tMatrix setmatrix lrx rad sub lry rad
  sub translate rad rad scale 0 0 1 0 180 arc tMatrix setmatrix
  closepath} bdef
/FtbRR {MtbRR stroke } bdef
/PtbRR {MtbRR fill } bdef
/stri 6 array def /dtri 6 array def
/smat 6 array def /dmat 6 array def
/tmat1 6 array def /tmat2 6 array def /dif 3 array def
/asub {/ind2 exch def /ind1 exch def dup dup
  ind1 get exch ind2 get sub exch } bdef
/tri_to_matrix {
  2 0 asub 3 1 asub 4 0 asub 5 1 asub
  dup 0 get exch 1 get 7 -1 roll astore } bdef
/compute_transform {
  dmat dtri tri_to_matrix tmat1 invertmatrix 
  smat stri tri_to_matrix tmat2 concatmatrix } bdef
/ds {stri astore pop} bdef
/dt {dtri astore pop} bdef
/db {2 copy /cols xdef /rows xdef mul dup 3 mul string
  currentfile 
  3 index 0 eq {/ASCIIHexDecode filter}
  {/ASCII85Decode filter 3 index 2 eq {/RunLengthDecode filter} if }
  ifelse exch readstring pop
  dup 0 3 index getinterval /rbmap xdef
  dup 2 index dup getinterval /gbmap xdef
  1 index dup 2 mul exch getinterval /bbmap xdef pop pop}bdef
/it {gs np dtri aload pop moveto lineto lineto cp c
  cols rows 8 compute_transform 
  rbmap gbmap bbmap true 3 colorimage gr}bdef
/il {newpath moveto lineto stroke}bdef
currentdict end def
%%EndProlog

%%BeginSetup
MathWorks begin

0 cap

end
%%EndSetup

%%Page: 1 1
%%BeginPageSetup
%%PageBoundingBox:    32   180   546   616
MathWorks begin
bpage
%%EndPageSetup

%%BeginObject: obj1
bplot

/dpi2point 12 def
portraitMode 0216 7344 csm

  174   -48  6173  5231 rc
85 dict begin %Colortable dictionary
/c0 { 0.000000 0.000000 0.000000 sr} bdef
/c1 { 1.000000 1.000000 1.000000 sr} bdef
/c2 { 0.900000 0.000000 0.000000 sr} bdef
/c3 { 0.000000 0.820000 0.000000 sr} bdef
/c4 { 0.000000 0.000000 0.800000 sr} bdef
/c5 { 0.910000 0.820000 0.320000 sr} bdef
/c6 { 1.000000 0.260000 0.820000 sr} bdef
/c7 { 0.000000 0.820000 0.820000 sr} bdef
c0
1 j
1 sg
   0    0 6919 5187 rf
6 w
0 4202 5363 0 0 -4202 898 4616 4 MP
PP
-5363 0 0 4202 5363 0 0 -4202 898 4616 5 MP stroke
4 w
DO
SO
6 w
0 sg
 898  414 mt 6261  414 L
 898 4616 mt 6261 4616 L
6261 4616 mt 6261  414 L
 898 4616 mt  898  414 L
 898 4616 mt 6261 4616 L
 898 4616 mt  898  414 L
1827 4616 mt 1827 4562 L
1827  414 mt 1827  467 L
%%IncludeResource: font Helvetica
/Helvetica /WindowsLatin1Encoding 240 FMSR

1661 4873 mt 
(0.1) s
2756 4616 mt 2756 4562 L
2756  414 mt 2756  467 L
2590 4873 mt 
(0.2) s
3684 4616 mt 3684 4562 L
3684  414 mt 3684  467 L
3518 4873 mt 
(0.3) s
4613 4616 mt 4613 4562 L
4613  414 mt 4613  467 L
4447 4873 mt 
(0.4) s
5542 4616 mt 5542 4562 L
5542  414 mt 5542  467 L
5376 4873 mt 
(0.5) s
 898 3928 mt  952 3928 L
6261 3928 mt 6207 3928 L
 531 4017 mt 
(0.1) s
 898 3240 mt  952 3240 L
6261 3240 mt 6207 3240 L
 531 3329 mt 
(0.2) s
 898 2553 mt  952 2553 L
6261 2553 mt 6207 2553 L
 531 2642 mt 
(0.3) s
 898 1865 mt  952 1865 L
6261 1865 mt 6207 1865 L
 531 1954 mt 
(0.4) s
 898 1178 mt  952 1178 L
6261 1178 mt 6207 1178 L
 531 1267 mt 
(0.5) s
 898  490 mt  952  490 L
6261  490 mt 6207  490 L
 531  579 mt 
(0.6) s
 898  414 mt 6261  414 L
 898 4616 mt 6261 4616 L
6261 4616 mt 6261  414 L
 898 4616 mt  898  414 L
gs 898 414 5364 4203 rc
gr

/c8 { 0.000000 0.000000 1.000000 sr} bdef
c8
 933 3364 mt 1005 3364 L
 969 3328 mt  969 3400 L
1516 4089 mt 1588 4089 L
1552 4053 mt 1552 4125 L
2634 4423 mt 2706 4423 L
2670 4387 mt 2670 4459 L
1292 4454 mt 1364 4454 L
1328 4418 mt 1328 4490 L
 902 4524 mt  974 4524 L
 938 4488 mt  938 4560 L
1082 4613 mt 1154 4613 L
1118 4577 mt 1118 4649 L
1963 4615 mt 2035 4615 L
1999 4579 mt 1999 4651 L
 901 4534 mt  973 4534 L
 937 4498 mt  937 4570 L
1069 4613 mt 1141 4613 L
1105 4577 mt 1105 4649 L
1470 3236 mt 1542 3236 L
1506 3200 mt 1506 3272 L
1173 1884 mt 1245 1884 L
1209 1848 mt 1209 1920 L
2029 4563 mt 2101 4563 L
2065 4527 mt 2065 4599 L
2416 4275 mt 2488 4275 L
2452 4239 mt 2452 4311 L
1664 4384 mt 1736 4384 L
1700 4348 mt 1700 4420 L
1387 4383 mt 1459 4383 L
1423 4347 mt 1423 4419 L
1954 4145 mt 2026 4145 L
1990 4109 mt 1990 4181 L
 995 4497 mt 1067 4497 L
1031 4461 mt 1031 4533 L
 912 4614 mt  984 4614 L
 948 4578 mt  948 4650 L
3377 4514 mt 3449 4514 L
3413 4478 mt 3413 4550 L
1167 4604 mt 1239 4604 L
1203 4568 mt 1203 4640 L
1112 4589 mt 1184 4589 L
1148 4553 mt 1148 4625 L
 870 3066 mt  942 3066 L
 906 3030 mt  906 3102 L
1290 4574 mt 1362 4574 L
1326 4538 mt 1326 4610 L
2865 4597 mt 2937 4597 L
2901 4561 mt 2901 4633 L
 915 4614 mt  987 4614 L
 951 4578 mt  951 4650 L
1356 4564 mt 1428 4564 L
1392 4528 mt 1392 4600 L
1235 4603 mt 1307 4603 L
1271 4567 mt 1271 4639 L
1382 3702 mt 1454 3702 L
1418 3666 mt 1418 3738 L
1259 4513 mt 1331 4513 L
1295 4477 mt 1295 4549 L
1051 4610 mt 1123 4610 L
1087 4574 mt 1087 4646 L
 899 4303 mt  971 4303 L
 935 4267 mt  935 4339 L
1221 4388 mt 1293 4388 L
1257 4352 mt 1257 4424 L
2178 4511 mt 2250 4511 L
2214 4475 mt 2214 4547 L
 887 4546 mt  959 4546 L
 923 4510 mt  923 4582 L
2059 4471 mt 2131 4471 L
2095 4435 mt 2095 4507 L
 869 4426 mt  941 4426 L
 905 4390 mt  905 4462 L
 874 4615 mt  946 4615 L
 910 4579 mt  910 4651 L
1223 4120 mt 1295 4120 L
1259 4084 mt 1259 4156 L
1424 4323 mt 1496 4323 L
1460 4287 mt 1460 4359 L
1818 4099 mt 1890 4099 L
1854 4063 mt 1854 4135 L
1060 3795 mt 1132 3795 L
1096 3759 mt 1096 3831 L
2798 4498 mt 2870 4498 L
2834 4462 mt 2834 4534 L
 869 4601 mt  941 4601 L
 905 4565 mt  905 4637 L
3708 4594 mt 3780 4594 L
3744 4558 mt 3744 4630 L
4769 2830 mt 4841 2830 L
4805 2794 mt 4805 2866 L
1360 4615 mt 1432 4615 L
1396 4579 mt 1396 4651 L
 873 4440 mt  945 4440 L
 909 4404 mt  909 4476 L
2033 4596 mt 2105 4596 L
2069 4560 mt 2069 4632 L
2466 4610 mt 2538 4610 L
2502 4574 mt 2502 4646 L
2510 3762 mt 2582 3762 L
2546 3726 mt 2546 3798 L
 870 4594 mt  942 4594 L
 906 4558 mt  906 4630 L
 863 4511 mt  935 4511 L
 899 4475 mt  899 4547 L
4075 4574 mt 4147 4574 L
4111 4538 mt 4111 4610 L
 959 4331 mt 1031 4331 L
 995 4295 mt  995 4367 L
1012 4586 mt 1084 4586 L
1048 4550 mt 1048 4622 L
1010 4600 mt 1082 4600 L
1046 4564 mt 1046 4636 L
1363 1321 mt 1435 1321 L
1399 1285 mt 1399 1357 L
1007 2278 mt 1079 2278 L
1043 2242 mt 1043 2314 L
2024 3344 mt 2096 3344 L
2060 3308 mt 2060 3380 L
2189 4610 mt 2261 4610 L
2225 4574 mt 2225 4646 L
 895 4311 mt  967 4311 L
 931 4275 mt  931 4347 L
 864 4248 mt  936 4248 L
 900 4212 mt  900 4284 L
2659 4615 mt 2731 4615 L
2695 4579 mt 2695 4651 L
3538 4612 mt 3610 4612 L
3574 4576 mt 3574 4648 L
2818 4588 mt 2890 4588 L
2854 4552 mt 2854 4624 L
 907 4506 mt  979 4506 L
 943 4470 mt  943 4542 L
3603 4547 mt 3675 4547 L
3639 4511 mt 3639 4583 L
 885 4081 mt  957 4081 L
 921 4045 mt  921 4117 L
1146 4383 mt 1218 4383 L
1182 4347 mt 1182 4419 L
1037 4612 mt 1109 4612 L
1073 4576 mt 1073 4648 L
1254 4248 mt 1326 4248 L
1290 4212 mt 1290 4284 L
1795 4477 mt 1867 4477 L
1831 4441 mt 1831 4513 L
1313 4595 mt 1385 4595 L
1349 4559 mt 1349 4631 L
1014 4613 mt 1086 4613 L
1050 4577 mt 1050 4649 L
 943 4572 mt 1015 4572 L
 979 4536 mt  979 4608 L
2869 4485 mt 2941 4485 L
2905 4449 mt 2905 4521 L
2351 4088 mt 2423 4088 L
2387 4052 mt 2387 4124 L
1447 4551 mt 1519 4551 L
1483 4515 mt 1483 4587 L
2485 4615 mt 2557 4615 L
2521 4579 mt 2521 4651 L
1108 4326 mt 1180 4326 L
1144 4290 mt 1144 4362 L
2977  414 mt 3049  414 L
3013  378 mt 3013  450 L
3446 4588 mt 3518 4588 L
3482 4552 mt 3482 4624 L
 876 4450 mt  948 4450 L
 912 4414 mt  912 4486 L
1147 4606 mt 1219 4606 L
1183 4570 mt 1183 4642 L
1114 4592 mt 1186 4592 L
1150 4556 mt 1150 4628 L
1616 4490 mt 1688 4490 L
1652 4454 mt 1652 4526 L
 947 4173 mt 1019 4173 L
 983 4137 mt  983 4209 L
3758 4497 mt 3830 4497 L
3794 4461 mt 3794 4533 L
 871 4615 mt  943 4615 L
 907 4579 mt  907 4651 L
 865 4424 mt  937 4424 L
 901 4388 mt  901 4460 L
2435 4188 mt 2507 4188 L
2471 4152 mt 2471 4224 L
3094 4372 mt 3166 4372 L
3130 4336 mt 3130 4408 L
1736 4606 mt 1808 4606 L
1772 4570 mt 1772 4642 L
1408 4481 mt 1480 4481 L
1444 4445 mt 1444 4517 L
 863 4604 mt  935 4604 L
 899 4568 mt  899 4640 L
1534 4557 mt 1606 4557 L
1570 4521 mt 1570 4593 L
1006 4613 mt 1078 4613 L
1042 4577 mt 1042 4649 L
1018 3664 mt 1090 3664 L
1054 3628 mt 1054 3700 L
2530 4615 mt 2602 4615 L
2566 4579 mt 2566 4651 L
 913 4612 mt  985 4612 L
 949 4576 mt  949 4648 L
 919 4036 mt  991 4036 L
 955 4000 mt  955 4072 L
1053 4505 mt 1125 4505 L
1089 4469 mt 1089 4541 L
2066 4050 mt 2138 4050 L
2102 4014 mt 2102 4086 L
 919 4534 mt  991 4534 L
 955 4498 mt  955 4570 L
1376 4447 mt 1448 4447 L
1412 4411 mt 1412 4483 L
1544 4565 mt 1616 4565 L
1580 4529 mt 1580 4601 L
1867 4548 mt 1939 4548 L
1903 4512 mt 1903 4584 L
 984 4270 mt 1056 4270 L
1020 4234 mt 1020 4306 L
1077 3924 mt 1149 3924 L
1113 3888 mt 1113 3960 L
 898 4378 mt  970 4378 L
 934 4342 mt  934 4414 L
4557 4614 mt 4629 4614 L
4593 4578 mt 4593 4650 L
1082 4447 mt 1154 4447 L
1118 4411 mt 1118 4483 L
 890 4607 mt  962 4607 L
 926 4571 mt  926 4643 L
 901 4573 mt  973 4573 L
 937 4537 mt  937 4609 L
1893 4391 mt 1965 4391 L
1929 4355 mt 1929 4427 L
1468 4143 mt 1540 4143 L
1504 4107 mt 1504 4179 L
1701 4533 mt 1773 4533 L
1737 4497 mt 1737 4569 L
1257 4615 mt 1329 4615 L
1293 4579 mt 1293 4651 L
2731 4520 mt 2803 4520 L
2767 4484 mt 2767 4556 L
 873 4184 mt  945 4184 L
 909 4148 mt  909 4220 L
 941 4525 mt 1013 4525 L
 977 4489 mt  977 4561 L
1856 4460 mt 1928 4460 L
1892 4424 mt 1892 4496 L
 891 4553 mt  963 4553 L
 927 4517 mt  927 4589 L
2866 4592 mt 2938 4592 L
2902 4556 mt 2902 4628 L
1158 3625 mt 1230 3625 L
1194 3589 mt 1194 3661 L
3417 4202 mt 3489 4202 L
3453 4166 mt 3453 4238 L
 962 4603 mt 1034 4603 L
 998 4567 mt  998 4639 L
1130 4615 mt 1202 4615 L
1166 4579 mt 1166 4651 L
1017 4584 mt 1089 4584 L
1053 4548 mt 1053 4620 L
 864 4612 mt  936 4612 L
 900 4576 mt  900 4648 L
2218 4569 mt 2290 4569 L
2254 4533 mt 2254 4605 L
1036 4601 mt 1108 4601 L
1072 4565 mt 1072 4637 L
 925 4441 mt  997 4441 L
 961 4405 mt  961 4477 L
 863 4615 mt  935 4615 L
 899 4579 mt  899 4651 L
 863 4332 mt  935 4332 L
 899 4296 mt  899 4368 L
 871 4615 mt  943 4615 L
 907 4579 mt  907 4651 L
1030 4572 mt 1102 4572 L
1066 4536 mt 1066 4608 L
1004 4614 mt 1076 4614 L
1040 4578 mt 1040 4650 L
2008 3932 mt 2080 3932 L
2044 3896 mt 2044 3968 L
 932 3714 mt 1004 3714 L
 968 3678 mt  968 3750 L
1597 4599 mt 1669 4599 L
1633 4563 mt 1633 4635 L
1419 4609 mt 1491 4609 L
1455 4573 mt 1455 4645 L
2471 4533 mt 2543 4533 L
2507 4497 mt 2507 4569 L
 868 4537 mt  940 4537 L
 904 4501 mt  904 4573 L
1103 4341 mt 1175 4341 L
1139 4305 mt 1139 4377 L
1060 4373 mt 1132 4373 L
1096 4337 mt 1096 4409 L
1598 4571 mt 1670 4571 L
1634 4535 mt 1634 4607 L
2397 4612 mt 2469 4612 L
2433 4576 mt 2433 4648 L
2434 3819 mt 2506 3819 L
2470 3783 mt 2470 3855 L
 867 4486 mt  939 4486 L
 903 4450 mt  903 4522 L
6225 3192 mt 6297 3192 L
6261 3156 mt 6261 3228 L
 892 4616 mt  964 4616 L
 928 4580 mt  928 4652 L
1088 4413 mt 1160 4413 L
1124 4377 mt 1124 4449 L
1847 4615 mt 1919 4615 L
1883 4579 mt 1883 4651 L
 863 4358 mt  935 4358 L
 899 4322 mt  899 4394 L
1049 4615 mt 1121 4615 L
1085 4579 mt 1085 4651 L
2070 4615 mt 2142 4615 L
2106 4579 mt 2106 4651 L
1089 4578 mt 1161 4578 L
1125 4542 mt 1125 4614 L
 865 4401 mt  937 4401 L
 901 4365 mt  901 4437 L
1834 4594 mt 1906 4594 L
1870 4558 mt 1870 4630 L
2561 4603 mt 2633 4603 L
2597 4567 mt 2597 4639 L
 967 4238 mt 1039 4238 L
1003 4202 mt 1003 4274 L
 900 4507 mt  972 4507 L
 936 4471 mt  936 4543 L
1327 4348 mt 1399 4348 L
1363 4312 mt 1363 4384 L
1204 4466 mt 1276 4466 L
1240 4430 mt 1240 4502 L
1819 4522 mt 1891 4522 L
1855 4486 mt 1855 4558 L
4267 4313 mt 4339 4313 L
4303 4277 mt 4303 4349 L
1306 4205 mt 1378 4205 L
1342 4169 mt 1342 4241 L
1104 4427 mt 1176 4427 L
1140 4391 mt 1140 4463 L
2065 4578 mt 2137 4578 L
2101 4542 mt 2101 4614 L
 917 4596 mt  989 4596 L
 953 4560 mt  953 4632 L
 903 4610 mt  975 4610 L
 939 4574 mt  939 4646 L
 865 4417 mt  937 4417 L
 901 4381 mt  901 4453 L
1260 4615 mt 1332 4615 L
1296 4579 mt 1296 4651 L
1080 4538 mt 1152 4538 L
1116 4502 mt 1116 4574 L
1246 4256 mt 1318 4256 L
1282 4220 mt 1282 4292 L
1485 4393 mt 1557 4393 L
1521 4357 mt 1521 4429 L
1111 4419 mt 1183 4419 L
1147 4383 mt 1147 4455 L
1790 4558 mt 1862 4558 L
1826 4522 mt 1826 4594 L
1175 4517 mt 1247 4517 L
1211 4481 mt 1211 4553 L
 903 4068 mt  975 4068 L
 939 4032 mt  939 4104 L
 876 4152 mt  948 4152 L
 912 4116 mt  912 4188 L
1527 4615 mt 1599 4615 L
1563 4579 mt 1563 4651 L
3564 3074 mt 3636 3074 L
3600 3038 mt 3600 3110 L
1762 4290 mt 1834 4290 L
1798 4254 mt 1798 4326 L
1220 4524 mt 1292 4524 L
1256 4488 mt 1256 4560 L
 975 4355 mt 1047 4355 L
1011 4319 mt 1011 4391 L
1189 4538 mt 1261 4538 L
1225 4502 mt 1225 4574 L
 943 4587 mt 1015 4587 L
 979 4551 mt  979 4623 L
 992 4555 mt 1064 4555 L
1028 4519 mt 1028 4591 L
 948 4285 mt 1020 4285 L
 984 4249 mt  984 4321 L
1711 4297 mt 1783 4297 L
1747 4261 mt 1747 4333 L
 944 4527 mt 1016 4527 L
 980 4491 mt  980 4563 L
 880 4590 mt  952 4590 L
 916 4554 mt  916 4626 L
 863 3924 mt  935 3924 L
 899 3888 mt  899 3960 L
3553 4205 mt 3625 4205 L
3589 4169 mt 3589 4241 L
1170 4582 mt 1242 4582 L
1206 4546 mt 1206 4618 L
1050 4600 mt 1122 4600 L
1086 4564 mt 1086 4636 L
1291 4525 mt 1363 4525 L
1327 4489 mt 1327 4561 L
1048 4342 mt 1120 4342 L
1084 4306 mt 1084 4378 L
1042 4553 mt 1114 4553 L
1078 4517 mt 1078 4589 L
1138 4603 mt 1210 4603 L
1174 4567 mt 1174 4639 L
 909 4565 mt  981 4565 L
 945 4529 mt  945 4601 L
 867 4580 mt  939 4580 L
 903 4544 mt  903 4616 L
 875 4446 mt  947 4446 L
 911 4410 mt  911 4482 L
 947 4613 mt 1019 4613 L
 983 4577 mt  983 4649 L
2184 4505 mt 2256 4505 L
2220 4469 mt 2220 4541 L
 863 4538 mt  935 4538 L
 899 4502 mt  899 4574 L
1785 4525 mt 1857 4525 L
1821 4489 mt 1821 4561 L
2246 3768 mt 2318 3768 L
2282 3732 mt 2282 3804 L
 863 4276 mt  935 4276 L
 899 4240 mt  899 4312 L
1455 4581 mt 1527 4581 L
1491 4545 mt 1491 4617 L
1597 4612 mt 1669 4612 L
1633 4576 mt 1633 4648 L
 912 4598 mt  984 4598 L
 948 4562 mt  948 4634 L
 876 4457 mt  948 4457 L
 912 4421 mt  912 4493 L
3181 4594 mt 3253 4594 L
3217 4558 mt 3217 4630 L
 887 4598 mt  959 4598 L
 923 4562 mt  923 4634 L
 940 4615 mt 1012 4615 L
 976 4579 mt  976 4651 L
1627 4587 mt 1699 4587 L
1663 4551 mt 1663 4623 L
1869 4615 mt 1941 4615 L
1905 4579 mt 1905 4651 L
 868 4499 mt  940 4499 L
 904 4463 mt  904 4535 L
 935 4554 mt 1007 4554 L
 971 4518 mt  971 4590 L
1943 4610 mt 2015 4610 L
1979 4574 mt 1979 4646 L
1523 4497 mt 1595 4497 L
1559 4461 mt 1559 4533 L
2529 4454 mt 2601 4454 L
2565 4418 mt 2565 4490 L
1375 4534 mt 1447 4534 L
1411 4498 mt 1411 4570 L
1328 4395 mt 1400 4395 L
1364 4359 mt 1364 4431 L
1428 4433 mt 1500 4433 L
1464 4397 mt 1464 4469 L
1186 4500 mt 1258 4500 L
1222 4464 mt 1222 4536 L
1030 4585 mt 1102 4585 L
1066 4549 mt 1066 4621 L
 864 4615 mt  936 4615 L
 900 4579 mt  900 4651 L
1806 4577 mt 1878 4577 L
1842 4541 mt 1842 4613 L
1180 4598 mt 1252 4598 L
1216 4562 mt 1216 4634 L
 914 4596 mt  986 4596 L
 950 4560 mt  950 4632 L
 904 4597 mt  976 4597 L
 940 4561 mt  940 4633 L
 889 4500 mt  961 4500 L
 925 4464 mt  925 4536 L
1095 4613 mt 1167 4613 L
1131 4577 mt 1131 4649 L
 862 4615 mt  934 4615 L
 898 4579 mt  898 4651 L
 957 4375 mt 1029 4375 L
 993 4339 mt  993 4411 L
1271 4596 mt 1343 4596 L
1307 4560 mt 1307 4632 L
 992 4611 mt 1064 4611 L
1028 4575 mt 1028 4647 L
2399 4599 mt 2471 4599 L
2435 4563 mt 2435 4635 L
 871 4603 mt  943 4603 L
 907 4567 mt  907 4639 L
1822 4611 mt 1894 4611 L
1858 4575 mt 1858 4647 L
4257 4135 mt 4329 4135 L
4293 4099 mt 4293 4171 L
1108 4588 mt 1180 4588 L
1144 4552 mt 1144 4624 L
1007 4599 mt 1079 4599 L
1043 4563 mt 1043 4635 L
2070 4564 mt 2142 4564 L
2106 4528 mt 2106 4600 L
 981 4359 mt 1053 4359 L
1017 4323 mt 1017 4395 L
1164 4551 mt 1236 4551 L
1200 4515 mt 1200 4587 L
 916 4615 mt  988 4615 L
 952 4579 mt  952 4651 L
 930 4531 mt 1002 4531 L
 966 4495 mt  966 4567 L
2770 4281 mt 2842 4281 L
2806 4245 mt 2806 4317 L
 893 4473 mt  965 4473 L
 929 4437 mt  929 4509 L
1332 4611 mt 1404 4611 L
1368 4575 mt 1368 4647 L
1077 4502 mt 1149 4502 L
1113 4466 mt 1113 4538 L
1498 4394 mt 1570 4394 L
1534 4358 mt 1534 4430 L
 863 4510 mt  935 4510 L
 899 4474 mt  899 4546 L
1881 3816 mt 1953 3816 L
1917 3780 mt 1917 3852 L
1202 4510 mt 1274 4510 L
1238 4474 mt 1238 4546 L
 888 4587 mt  960 4587 L
 924 4551 mt  924 4623 L
1040 4438 mt 1112 4438 L
1076 4402 mt 1076 4474 L
1931 4602 mt 2003 4602 L
1967 4566 mt 1967 4638 L
4343 4526 mt 4415 4526 L
4379 4490 mt 4379 4562 L
 864 4415 mt  936 4415 L
 900 4379 mt  900 4451 L
 995 4251 mt 1067 4251 L
1031 4215 mt 1031 4287 L
 973 4591 mt 1045 4591 L
1009 4555 mt 1009 4627 L
 868 4585 mt  940 4585 L
 904 4549 mt  904 4621 L
1697 4265 mt 1769 4265 L
1733 4229 mt 1733 4301 L
1083 4564 mt 1155 4564 L
1119 4528 mt 1119 4600 L
1765 4173 mt 1837 4173 L
1801 4137 mt 1801 4209 L
 882 4539 mt  954 4539 L
 918 4503 mt  918 4575 L
1597 4595 mt 1669 4595 L
1633 4559 mt 1633 4631 L
1508 4615 mt 1580 4615 L
1544 4579 mt 1544 4651 L
 973 4585 mt 1045 4585 L
1009 4549 mt 1009 4621 L
1529 4592 mt 1601 4592 L
1565 4556 mt 1565 4628 L
2179 4010 mt 2251 4010 L
2215 3974 mt 2215 4046 L
 863 4598 mt  935 4598 L
 899 4562 mt  899 4634 L
1471 4545 mt 1543 4545 L
1507 4509 mt 1507 4581 L
 897 4615 mt  969 4615 L
 933 4579 mt  933 4651 L
3694 2916 mt 3766 2916 L
3730 2880 mt 3730 2952 L
2214 4389 mt 2286 4389 L
2250 4353 mt 2250 4425 L
1246 4615 mt 1318 4615 L
1282 4579 mt 1282 4651 L
 886 4532 mt  958 4532 L
 922 4496 mt  922 4568 L
1879 4321 mt 1951 4321 L
1915 4285 mt 1915 4357 L
1124 4602 mt 1196 4602 L
1160 4566 mt 1160 4638 L
1291 4291 mt 1363 4291 L
1327 4255 mt 1327 4327 L
3653 4572 mt 3725 4572 L
3689 4536 mt 3689 4608 L
1054 4585 mt 1126 4585 L
1090 4549 mt 1090 4621 L
 871 4215 mt  943 4215 L
 907 4179 mt  907 4251 L
1520 4577 mt 1592 4577 L
1556 4541 mt 1556 4613 L
1609 4538 mt 1681 4538 L
1645 4502 mt 1645 4574 L
1023 4529 mt 1095 4529 L
1059 4493 mt 1059 4565 L
1227 4615 mt 1299 4615 L
1263 4579 mt 1263 4651 L
 871 4592 mt  943 4592 L
 907 4556 mt  907 4628 L
1268 4345 mt 1340 4345 L
1304 4309 mt 1304 4381 L
2222 4551 mt 2294 4551 L
2258 4515 mt 2258 4587 L
 896 4615 mt  968 4615 L
 932 4579 mt  932 4651 L
2700 4604 mt 2772 4604 L
2736 4568 mt 2736 4640 L
1366 4549 mt 1438 4549 L
1402 4513 mt 1402 4585 L
 872 4535 mt  944 4535 L
 908 4499 mt  908 4571 L
 882 4609 mt  954 4609 L
 918 4573 mt  918 4645 L
2638 4573 mt 2710 4573 L
2674 4537 mt 2674 4609 L
 869 4601 mt  941 4601 L
 905 4565 mt  905 4637 L
2817 4480 mt 2889 4480 L
2853 4444 mt 2853 4516 L
1424 4597 mt 1496 4597 L
1460 4561 mt 1460 4633 L
2216 4615 mt 2288 4615 L
2252 4579 mt 2252 4651 L
 863 4496 mt  935 4496 L
 899 4460 mt  899 4532 L
 981 4552 mt 1053 4552 L
1017 4516 mt 1017 4588 L
 925 4570 mt  997 4570 L
 961 4534 mt  961 4606 L
4425 4615 mt 4497 4615 L
4461 4579 mt 4461 4651 L
1198 4602 mt 1270 4602 L
1234 4566 mt 1234 4638 L
1669 4615 mt 1741 4615 L
1705 4579 mt 1705 4651 L
 869 4595 mt  941 4595 L
 905 4559 mt  905 4631 L
1207 4471 mt 1279 4471 L
1243 4435 mt 1243 4507 L
 870 4582 mt  942 4582 L
 906 4546 mt  906 4618 L
1102 4317 mt 1174 4317 L
1138 4281 mt 1138 4353 L
 863 4615 mt  935 4615 L
 899 4579 mt  899 4651 L
2544 4604 mt 2616 4604 L
2580 4568 mt 2580 4640 L
1101 4504 mt 1173 4504 L
1137 4468 mt 1137 4540 L
1151 4452 mt 1223 4452 L
1187 4416 mt 1187 4488 L
 967 4443 mt 1039 4443 L
1003 4407 mt 1003 4479 L
 920 4440 mt  992 4440 L
 956 4404 mt  956 4476 L
2342 3972 mt 2414 3972 L
2378 3936 mt 2378 4008 L
 867 4491 mt  939 4491 L
 903 4455 mt  903 4527 L
1189 4592 mt 1261 4592 L
1225 4556 mt 1225 4628 L
1013 4579 mt 1085 4579 L
1049 4543 mt 1049 4615 L
 919 4570 mt  991 4570 L
 955 4534 mt  955 4606 L
1129 4494 mt 1201 4494 L
1165 4458 mt 1165 4530 L
 866 4475 mt  938 4475 L
 902 4439 mt  902 4511 L
2583 4175 mt 2655 4175 L
2619 4139 mt 2619 4211 L
 863 4615 mt  935 4615 L
 899 4579 mt  899 4651 L
1258 4504 mt 1330 4504 L
1294 4468 mt 1294 4540 L
 900 4220 mt  972 4220 L
 936 4184 mt  936 4256 L
 886 4612 mt  958 4612 L
 922 4576 mt  922 4648 L
1103 4615 mt 1175 4615 L
1139 4579 mt 1139 4651 L
 949 4379 mt 1021 4379 L
 985 4343 mt  985 4415 L
 877 4518 mt  949 4518 L
 913 4482 mt  913 4554 L
 865 3912 mt  937 3912 L
 901 3876 mt  901 3948 L
 864 4274 mt  936 4274 L
 900 4238 mt  900 4310 L
2021 4409 mt 2093 4409 L
2057 4373 mt 2057 4445 L
1503 4567 mt 1575 4567 L
1539 4531 mt 1539 4603 L
3230 4594 mt 3302 4594 L
3266 4558 mt 3266 4630 L
 864 4568 mt  936 4568 L
 900 4532 mt  900 4604 L
1785 4591 mt 1857 4591 L
1821 4555 mt 1821 4627 L
 973 4526 mt 1045 4526 L
1009 4490 mt 1009 4562 L
 987 4614 mt 1059 4614 L
1023 4578 mt 1023 4650 L
2147 4601 mt 2219 4601 L
2183 4565 mt 2183 4637 L
2055 4208 mt 2127 4208 L
2091 4172 mt 2091 4244 L
1371 4258 mt 1443 4258 L
1407 4222 mt 1407 4294 L
4531 3981 mt 4603 3981 L
4567 3945 mt 4567 4017 L
1750 4540 mt 1822 4540 L
1786 4504 mt 1786 4576 L
 919 3051 mt  991 3051 L
 955 3015 mt  955 3087 L
 865 4568 mt  937 4568 L
 901 4532 mt  901 4604 L
 908 4611 mt  980 4611 L
 944 4575 mt  944 4647 L
 864 4603 mt  936 4603 L
 900 4567 mt  900 4639 L
 967 4438 mt 1039 4438 L
1003 4402 mt 1003 4474 L
 872 4532 mt  944 4532 L
 908 4496 mt  908 4568 L
1074 4612 mt 1146 4612 L
1110 4576 mt 1110 4648 L
1147 4560 mt 1219 4560 L
1183 4524 mt 1183 4596 L
1028 4596 mt 1100 4596 L
1064 4560 mt 1064 4632 L
 868 4205 mt  940 4205 L
 904 4169 mt  904 4241 L
 918 4308 mt  990 4308 L
 954 4272 mt  954 4344 L
 946 4589 mt 1018 4589 L
 982 4553 mt  982 4625 L
1514 4614 mt 1586 4614 L
1550 4578 mt 1550 4650 L
1069 4230 mt 1141 4230 L
1105 4194 mt 1105 4266 L
3649 4570 mt 3721 4570 L
3685 4534 mt 3685 4606 L
 939 4579 mt 1011 4579 L
 975 4543 mt  975 4615 L
 920 4612 mt  992 4612 L
 956 4576 mt  956 4648 L
 863 4438 mt  935 4438 L
 899 4402 mt  899 4474 L
 897 4615 mt  969 4615 L
 933 4579 mt  933 4651 L
 863 4524 mt  935 4524 L
 899 4488 mt  899 4560 L
 888 4519 mt  960 4519 L
 924 4483 mt  924 4555 L
 892 4613 mt  964 4613 L
 928 4577 mt  928 4649 L
 890 4610 mt  962 4610 L
 926 4574 mt  926 4646 L
2192 3470 mt 2264 3470 L
2228 3434 mt 2228 3506 L
1344 4530 mt 1416 4530 L
1380 4494 mt 1380 4566 L
1610 4598 mt 1682 4598 L
1646 4562 mt 1646 4634 L
1851 4614 mt 1923 4614 L
1887 4578 mt 1887 4650 L
1169 4492 mt 1241 4492 L
1205 4456 mt 1205 4528 L
1151 4615 mt 1223 4615 L
1187 4579 mt 1187 4651 L
1244 4473 mt 1316 4473 L
1280 4437 mt 1280 4509 L
2419 4552 mt 2491 4552 L
2455 4516 mt 2455 4588 L
2452 4327 mt 2524 4327 L
2488 4291 mt 2488 4363 L
1068 4450 mt 1140 4450 L
1104 4414 mt 1104 4486 L
 935 4535 mt 1007 4535 L
 971 4499 mt  971 4571 L
1009 4604 mt 1081 4604 L
1045 4568 mt 1045 4640 L
1177 4574 mt 1249 4574 L
1213 4538 mt 1213 4610 L
2300 4539 mt 2372 4539 L
2336 4503 mt 2336 4575 L
 924 4614 mt  996 4614 L
 960 4578 mt  960 4650 L
 993 4568 mt 1065 4568 L
1029 4532 mt 1029 4604 L
1561 4575 mt 1633 4575 L
1597 4539 mt 1597 4611 L
 866 4299 mt  938 4299 L
 902 4263 mt  902 4335 L
1229 4492 mt 1301 4492 L
1265 4456 mt 1265 4528 L
 915 4531 mt  987 4531 L
 951 4495 mt  951 4567 L
3353 4261 mt 3425 4261 L
3389 4225 mt 3389 4297 L
1386 4597 mt 1458 4597 L
1422 4561 mt 1422 4633 L
 880 4609 mt  952 4609 L
 916 4573 mt  916 4645 L
 867 4615 mt  939 4615 L
 903 4579 mt  903 4651 L
 996 4130 mt 1068 4130 L
1032 4094 mt 1032 4166 L
gs 898 414 5364 4203 rc
gr

0 sg
2798 5104 mt 
(\(F,DCTs,iMLP\)) s
 422 3273 mt  -90 rotate
(\(F,DCTb,MLP\)) s
90 rotate
2975  223 mt 
(Corr = 0.14) s

end %%Color Dict

eplot
%%EndObject

epage
end

showpage

%%Trailer
%%EOF
