%!PS-Adobe-3.0 EPSF-3.0
%%Creator: MATLAB, The Mathworks, Inc. Version 7.7.0.471 (R2008b). Operating System: Microsoft Windows XP.
%%Title: Pictures\main_zoo_mvar_analysis_data_BMI_xcorr_bmig_p1_k2_2_9.eps
%%CreationDate: 10/26/2009  05:45:20
%%DocumentNeededFonts: Helvetica
%%DocumentProcessColors: Cyan Magenta Yellow Black
%%LanguageLevel: 2
%%Pages: 1
%%BoundingBox:    37   180   549   616
%%EndComments

%%BeginProlog
% MathWorks dictionary
/MathWorks 160 dict begin
% definition operators
/bdef {bind def} bind def
/ldef {load def} bind def
/xdef {exch def} bdef
/xstore {exch store} bdef
% operator abbreviations
/c  /clip ldef
/cc /concat ldef
/cp /closepath ldef
/gr /grestore ldef
/gs /gsave ldef
/mt /moveto ldef
/np /newpath ldef
/cm /currentmatrix ldef
/sm /setmatrix ldef
/rm /rmoveto ldef
/rl /rlineto ldef
/s {show newpath} bdef
/sc {setcmykcolor} bdef
/sr /setrgbcolor ldef
/sg /setgray ldef
/w /setlinewidth ldef
/j /setlinejoin ldef
/cap /setlinecap ldef
/rc {rectclip} bdef
/rf {rectfill} bdef
% page state control
/pgsv () def
/bpage {/pgsv save def} bdef
/epage {pgsv restore} bdef
/bplot /gsave ldef
/eplot {stroke grestore} bdef
% orientation switch
/portraitMode 0 def /landscapeMode 1 def /rotateMode 2 def
% coordinate system mappings
/dpi2point 0 def
% font control
/FontSize 0 def
/FMS {/FontSize xstore findfont [FontSize 0 0 FontSize neg 0 0]
  makefont setfont} bdef
/ISOLatin1Encoding where {pop /WindowsLatin1Encoding 256 array bdef
ISOLatin1Encoding WindowsLatin1Encoding copy pop
/.notdef/.notdef/quotesinglbase/florin/quotedblbase/ellipsis/dagger
/daggerdbl/circumflex/perthousand/Scaron/guilsinglleft/OE/.notdef/.notdef
/.notdef/.notdef/quoteleft/quoteright/quotedblleft/quotedblright/bullet
/endash/emdash/tilde/trademark/scaron/guilsinglright/oe/.notdef/.notdef
/Ydieresis WindowsLatin1Encoding 128 32 getinterval astore pop}
{/WindowsLatin1Encoding StandardEncoding bdef} ifelse
/reencode {exch dup where {pop load} {pop StandardEncoding} ifelse
  exch dup 3 1 roll findfont dup length dict begin
  { 1 index /FID ne {def}{pop pop} ifelse } forall
  /Encoding exch def currentdict end definefont pop} bdef
/isroman {findfont /CharStrings get /Agrave known} bdef
/FMSR {3 1 roll 1 index dup isroman {reencode} {pop pop} ifelse
  exch FMS} bdef
/csm {1 dpi2point div -1 dpi2point div scale neg translate
 dup landscapeMode eq {pop -90 rotate}
  {rotateMode eq {90 rotate} if} ifelse} bdef
% line types: solid, dotted, dashed, dotdash
/SO { [] 0 setdash } bdef
/DO { [.5 dpi2point mul 4 dpi2point mul] 0 setdash } bdef
/DA { [6 dpi2point mul] 0 setdash } bdef
/DD { [.5 dpi2point mul 4 dpi2point mul 6 dpi2point mul 4
  dpi2point mul] 0 setdash } bdef
% macros for lines and objects
/L {lineto stroke} bdef
/MP {3 1 roll moveto 1 sub {rlineto} repeat} bdef
/AP {{rlineto} repeat} bdef
/PDlw -1 def
/W {/PDlw currentlinewidth def setlinewidth} def
/PP {closepath eofill} bdef
/DP {closepath stroke} bdef
/MR {4 -2 roll moveto dup  0 exch rlineto exch 0 rlineto
  neg 0 exch rlineto closepath} bdef
/FR {MR stroke} bdef
/PR {MR fill} bdef
/L1i {{currentfile picstr readhexstring pop} image} bdef
/tMatrix matrix def
/MakeOval {newpath tMatrix currentmatrix pop translate scale
0 0 1 0 360 arc tMatrix setmatrix} bdef
/FO {MakeOval stroke} bdef
/PO {MakeOval fill} bdef
/PD {currentlinewidth 2 div 0 360 arc fill
   PDlw -1 eq not {PDlw w /PDlw -1 def} if} def
/FA {newpath tMatrix currentmatrix pop translate scale
  0 0 1 5 -2 roll arc tMatrix setmatrix stroke} bdef
/PA {newpath tMatrix currentmatrix pop	translate 0 0 moveto scale
  0 0 1 5 -2 roll arc closepath tMatrix setmatrix fill} bdef
/FAn {newpath tMatrix currentmatrix pop translate scale
  0 0 1 5 -2 roll arcn tMatrix setmatrix stroke} bdef
/PAn {newpath tMatrix currentmatrix pop translate 0 0 moveto scale
  0 0 1 5 -2 roll arcn closepath tMatrix setmatrix fill} bdef
/vradius 0 def /hradius 0 def /lry 0 def
/lrx 0 def /uly 0 def /ulx 0 def /rad 0 def
/MRR {/vradius xdef /hradius xdef /lry xdef /lrx xdef /uly xdef
  /ulx xdef newpath tMatrix currentmatrix pop ulx hradius add uly
  vradius add translate hradius vradius scale 0 0 1 180 270 arc 
  tMatrix setmatrix lrx hradius sub uly vradius add translate
  hradius vradius scale 0 0 1 270 360 arc tMatrix setmatrix
  lrx hradius sub lry vradius sub translate hradius vradius scale
  0 0 1 0 90 arc tMatrix setmatrix ulx hradius add lry vradius sub
  translate hradius vradius scale 0 0 1 90 180 arc tMatrix setmatrix
  closepath} bdef
/FRR {MRR stroke } bdef
/PRR {MRR fill } bdef
/MlrRR {/lry xdef /lrx xdef /uly xdef /ulx xdef /rad lry uly sub 2 div def
  newpath tMatrix currentmatrix pop ulx rad add uly rad add translate
  rad rad scale 0 0 1 90 270 arc tMatrix setmatrix lrx rad sub lry rad
  sub translate rad rad scale 0 0 1 270 90 arc tMatrix setmatrix
  closepath} bdef
/FlrRR {MlrRR stroke } bdef
/PlrRR {MlrRR fill } bdef
/MtbRR {/lry xdef /lrx xdef /uly xdef /ulx xdef /rad lrx ulx sub 2 div def
  newpath tMatrix currentmatrix pop ulx rad add uly rad add translate
  rad rad scale 0 0 1 180 360 arc tMatrix setmatrix lrx rad sub lry rad
  sub translate rad rad scale 0 0 1 0 180 arc tMatrix setmatrix
  closepath} bdef
/FtbRR {MtbRR stroke } bdef
/PtbRR {MtbRR fill } bdef
/stri 6 array def /dtri 6 array def
/smat 6 array def /dmat 6 array def
/tmat1 6 array def /tmat2 6 array def /dif 3 array def
/asub {/ind2 exch def /ind1 exch def dup dup
  ind1 get exch ind2 get sub exch } bdef
/tri_to_matrix {
  2 0 asub 3 1 asub 4 0 asub 5 1 asub
  dup 0 get exch 1 get 7 -1 roll astore } bdef
/compute_transform {
  dmat dtri tri_to_matrix tmat1 invertmatrix 
  smat stri tri_to_matrix tmat2 concatmatrix } bdef
/ds {stri astore pop} bdef
/dt {dtri astore pop} bdef
/db {2 copy /cols xdef /rows xdef mul dup 3 mul string
  currentfile 
  3 index 0 eq {/ASCIIHexDecode filter}
  {/ASCII85Decode filter 3 index 2 eq {/RunLengthDecode filter} if }
  ifelse exch readstring pop
  dup 0 3 index getinterval /rbmap xdef
  dup 2 index dup getinterval /gbmap xdef
  1 index dup 2 mul exch getinterval /bbmap xdef pop pop}bdef
/it {gs np dtri aload pop moveto lineto lineto cp c
  cols rows 8 compute_transform 
  rbmap gbmap bbmap true 3 colorimage gr}bdef
/il {newpath moveto lineto stroke}bdef
currentdict end def
%%EndProlog

%%BeginSetup
MathWorks begin

0 cap

end
%%EndSetup

%%Page: 1 1
%%BeginPageSetup
%%PageBoundingBox:    37   180   549   616
MathWorks begin
bpage
%%EndPageSetup

%%BeginObject: obj1
bplot

/dpi2point 12 def
portraitMode 0216 7344 csm

  234   -48  6149  5231 rc
85 dict begin %Colortable dictionary
/c0 { 0.000000 0.000000 0.000000 sr} bdef
/c1 { 1.000000 1.000000 1.000000 sr} bdef
/c2 { 0.900000 0.000000 0.000000 sr} bdef
/c3 { 0.000000 0.820000 0.000000 sr} bdef
/c4 { 0.000000 0.000000 0.800000 sr} bdef
/c5 { 0.910000 0.820000 0.320000 sr} bdef
/c6 { 1.000000 0.260000 0.820000 sr} bdef
/c7 { 0.000000 0.820000 0.820000 sr} bdef
c0
1 j
1 sg
   0    0 6919 5187 rf
6 w
0 4202 5362 0 0 -4202 899 4616 4 MP
PP
-5362 0 0 4202 5362 0 0 -4202 899 4616 5 MP stroke
4 w
DO
SO
6 w
0 sg
 899  414 mt 6261  414 L
 899 4616 mt 6261 4616 L
6261 4616 mt 6261  414 L
 899 4616 mt  899  414 L
 899 4616 mt 6261 4616 L
 899 4616 mt  899  414 L
 919 4616 mt  919 4562 L
 919  414 mt  919  467 L
%%IncludeResource: font Helvetica
/Helvetica /WindowsLatin1Encoding 240 FMSR

 713 4873 mt 
(-3) s
1806 4616 mt 1806 4562 L
1806  414 mt 1806  467 L
1600 4873 mt 
(-2) s
2693 4616 mt 2693 4562 L
2693  414 mt 2693  467 L
2487 4873 mt 
(-1) s
3580 4616 mt 3580 4562 L
3580  414 mt 3580  467 L
3514 4873 mt 
(0) s
4466 4616 mt 4466 4562 L
4466  414 mt 4466  467 L
4400 4873 mt 
(1) s
5353 4616 mt 5353 4562 L
5353  414 mt 5353  467 L
5287 4873 mt 
(2) s
6240 4616 mt 6240 4562 L
6240  414 mt 6240  467 L
6174 4873 mt 
(3) s
 899 4599 mt  952 4599 L
6261 4599 mt 6207 4599 L
 591 4688 mt 
(-3) s
 899 3904 mt  952 3904 L
6261 3904 mt 6207 3904 L
 591 3993 mt 
(-2) s
 899 3209 mt  952 3209 L
6261 3209 mt 6207 3209 L
 591 3298 mt 
(-1) s
 899 2514 mt  952 2514 L
6261 2514 mt 6207 2514 L
 731 2603 mt 
(0) s
 899 1820 mt  952 1820 L
6261 1820 mt 6207 1820 L
 731 1909 mt 
(1) s
 899 1125 mt  952 1125 L
6261 1125 mt 6207 1125 L
 731 1214 mt 
(2) s
 899  430 mt  952  430 L
6261  430 mt 6207  430 L
 731  519 mt 
(3) s
 899  414 mt 6261  414 L
 899 4616 mt 6261 4616 L
6261 4616 mt 6261  414 L
 899 4616 mt  899  414 L
gs 899 414 5363 4203 rc
gr

/c8 { 0.000000 0.000000 1.000000 sr} bdef
c8
3471 1756 mt 3543 1756 L
3507 1720 mt 3507 1792 L
3376 1930 mt 3448 1930 L
3412 1894 mt 3412 1966 L
3166 2584 mt 3238 2584 L
3202 2548 mt 3202 2620 L
2126 3081 mt 2198 3081 L
2162 3045 mt 2162 3117 L
3232 1816 mt 3304 1816 L
3268 1780 mt 3268 1852 L
3296 2067 mt 3368 2067 L
3332 2031 mt 3332 2103 L
2987 3797 mt 3059 3797 L
3023 3761 mt 3023 3833 L
3110 2405 mt 3182 2405 L
3146 2369 mt 3146 2441 L
1907 1831 mt 1979 1831 L
1943 1795 mt 1943 1867 L
4836 2204 mt 4908 2204 L
4872 2168 mt 4872 2240 L
2662 2180 mt 2734 2180 L
2698 2144 mt 2698 2216 L
2924 2150 mt 2996 2150 L
2960 2114 mt 2960 2186 L
4398 2480 mt 4470 2480 L
4434 2444 mt 4434 2516 L
2980 2467 mt 3052 2467 L
3016 2431 mt 3016 2503 L
4087 2125 mt 4159 2125 L
4123 2089 mt 4123 2161 L
3605 2401 mt 3677 2401 L
3641 2365 mt 3641 2437 L
3290 3625 mt 3362 3625 L
3326 3589 mt 3326 3661 L
4206 2519 mt 4278 2519 L
4242 2483 mt 4242 2555 L
2251 2554 mt 2323 2554 L
2287 2518 mt 2287 2590 L
3996 2624 mt 4068 2624 L
4032 2588 mt 4032 2660 L
3728 3118 mt 3800 3118 L
3764 3082 mt 3764 3154 L
2394 3908 mt 2466 3908 L
2430 3872 mt 2430 3944 L
3359 2275 mt 3431 2275 L
3395 2239 mt 3395 2311 L
4553 2462 mt 4625 2462 L
4589 2426 mt 4589 2498 L
4259 2884 mt 4331 2884 L
4295 2848 mt 4295 2920 L
3927 2145 mt 3999 2145 L
3963 2109 mt 3963 2181 L
 863 2967 mt  935 2967 L
 899 2931 mt  899 3003 L
3284 3322 mt 3356 3322 L
3320 3286 mt 3320 3358 L
3711 1680 mt 3783 1680 L
3747 1644 mt 3747 1716 L
5211 1990 mt 5283 1990 L
5247 1954 mt 5247 2026 L
4290 2619 mt 4362 2619 L
4326 2583 mt 4326 2655 L
2615 1748 mt 2687 1748 L
2651 1712 mt 2651 1784 L
3499 2214 mt 3571 2214 L
3535 2178 mt 3535 2250 L
4074 3112 mt 4146 3112 L
4110 3076 mt 4110 3148 L
2740 1995 mt 2812 1995 L
2776 1959 mt 2776 2031 L
3046 2104 mt 3118 2104 L
3082 2068 mt 3082 2140 L
3785 2637 mt 3857 2637 L
3821 2601 mt 3821 2673 L
3196 2493 mt 3268 2493 L
3232 2457 mt 3232 2529 L
3734 2536 mt 3806 2536 L
3770 2500 mt 3770 2572 L
2523 2655 mt 2595 2655 L
2559 2619 mt 2559 2691 L
2732 2279 mt 2804 2279 L
2768 2243 mt 2768 2315 L
4314 1462 mt 4386 1462 L
4350 1426 mt 4350 1498 L
3677 2199 mt 3749 2199 L
3713 2163 mt 3713 2235 L
3571 3297 mt 3643 3297 L
3607 3261 mt 3607 3333 L
4585 3540 mt 4657 3540 L
4621 3504 mt 4621 3576 L
2888 3848 mt 2960 3848 L
2924 3812 mt 2924 3884 L
3226 2165 mt 3298 2165 L
3262 2129 mt 3262 2201 L
4381 3386 mt 4453 3386 L
4417 3350 mt 4417 3422 L
3313 2849 mt 3385 2849 L
3349 2813 mt 3349 2885 L
4041 2951 mt 4113 2951 L
4077 2915 mt 4077 2987 L
3510 3553 mt 3582 3553 L
3546 3517 mt 3546 3589 L
3921 1538 mt 3993 1538 L
3957 1502 mt 3957 1574 L
4564 2347 mt 4636 2347 L
4600 2311 mt 4600 2383 L
3135 2782 mt 3207 2782 L
3171 2746 mt 3171 2818 L
4266 1049 mt 4338 1049 L
4302 1013 mt 4302 1085 L
4170 2545 mt 4242 2545 L
4206 2509 mt 4206 2581 L
3347 1966 mt 3419 1966 L
3383 1930 mt 3383 2002 L
3588 1723 mt 3660 1723 L
3624 1687 mt 3624 1759 L
2805 2293 mt 2877 2293 L
2841 2257 mt 2841 2329 L
2671 2423 mt 2743 2423 L
2707 2387 mt 2707 2459 L
3449 3877 mt 3521 3877 L
3485 3841 mt 3485 3913 L
3404 1787 mt 3476 1787 L
3440 1751 mt 3440 1823 L
3273 3515 mt 3345 3515 L
3309 3479 mt 3309 3551 L
4114 2488 mt 4186 2488 L
4150 2452 mt 4150 2524 L
2298 1936 mt 2370 1936 L
2334 1900 mt 2334 1972 L
4522 2361 mt 4594 2361 L
4558 2325 mt 4558 2397 L
3621 1858 mt 3693 1858 L
3657 1822 mt 3657 1894 L
2444 2611 mt 2516 2611 L
2480 2575 mt 2480 2647 L
3706 2012 mt 3778 2012 L
3742 1976 mt 3742 2048 L
2479 2218 mt 2551 2218 L
2515 2182 mt 2515 2254 L
3780 3213 mt 3852 3213 L
3816 3177 mt 3816 3249 L
3078 2874 mt 3150 2874 L
3114 2838 mt 3114 2910 L
3432 3273 mt 3504 3273 L
3468 3237 mt 3468 3309 L
2973 1624 mt 3045 1624 L
3009 1588 mt 3009 1660 L
1991 2029 mt 2063 2029 L
2027 1993 mt 2027 2065 L
1259 3479 mt 1331 3479 L
1295 3443 mt 1295 3515 L
4028 2709 mt 4100 2709 L
4064 2673 mt 4064 2745 L
2966 2379 mt 3038 2379 L
3002 2343 mt 3002 2415 L
3013 1978 mt 3085 1978 L
3049 1942 mt 3049 2014 L
4719 2956 mt 4791 2956 L
4755 2920 mt 4755 2992 L
2680 1593 mt 2752 1593 L
2716 1557 mt 2716 1629 L
3141 2549 mt 3213 2549 L
3177 2513 mt 3177 2585 L
4177 3011 mt 4249 3011 L
4213 2975 mt 4213 3047 L
4228 1152 mt 4300 1152 L
4264 1116 mt 4264 1188 L
4706 2325 mt 4778 2325 L
4742 2289 mt 4742 2361 L
3426 2677 mt 3498 2677 L
3462 2641 mt 3462 2713 L
3020 1972 mt 3092 1972 L
3056 1936 mt 3056 2008 L
4021 2135 mt 4093 2135 L
4057 2099 mt 4057 2171 L
4619 3595 mt 4691 3595 L
4655 3559 mt 4655 3631 L
3147 2668 mt 3219 2668 L
3183 2632 mt 3183 2704 L
3007 2343 mt 3079 2343 L
3043 2307 mt 3043 2379 L
4869 1845 mt 4941 1845 L
4905 1809 mt 4905 1881 L
2312 2209 mt 2384 2209 L
2348 2173 mt 2348 2245 L
3832 2830 mt 3904 2830 L
3868 2794 mt 3868 2866 L
3325 3157 mt 3397 3157 L
3361 3121 mt 3361 3193 L
4142 3752 mt 4214 3752 L
4178 3716 mt 4178 3788 L
2945 3075 mt 3017 3075 L
2981 3039 mt 2981 3111 L
3302 1489 mt 3374 1489 L
3338 1453 mt 3338 1525 L
3267 2745 mt 3339 2745 L
3303 2709 mt 3303 2781 L
2490 1604 mt 2562 1604 L
2526 1568 mt 2526 1640 L
3844 2185 mt 3916 2185 L
3880 2149 mt 3880 2221 L
4667 2475 mt 4739 2475 L
4703 2439 mt 4703 2511 L
2643 2899 mt 2715 2899 L
2679 2863 mt 2679 2935 L
2341 3641 mt 2413 3641 L
2377 3605 mt 2377 3677 L
3820 2704 mt 3892 2704 L
3856 2668 mt 3856 2740 L
2534 1643 mt 2606 1643 L
2570 1607 mt 2570 1679 L
2749 2307 mt 2821 2307 L
2785 2271 mt 2785 2343 L
3370 2194 mt 3442 2194 L
3406 2158 mt 3406 2230 L
2456 2736 mt 2528 2736 L
2492 2700 mt 2492 2772 L
4002 2170 mt 4074 2170 L
4038 2134 mt 4038 2206 L
4298 2288 mt 4370 2288 L
4334 2252 mt 4334 2324 L
2407 1277 mt 2479 1277 L
2443 1241 mt 2443 1313 L
2586 2713 mt 2658 2713 L
2622 2677 mt 2622 2749 L
4213 2265 mt 4285 2265 L
4249 2229 mt 4249 2301 L
3098 3022 mt 3170 3022 L
3134 2986 mt 3134 3058 L
2715 2962 mt 2787 2962 L
2751 2926 mt 2751 2998 L
3915 1794 mt 3987 1794 L
3951 1758 mt 3951 1830 L
3560 3250 mt 3632 3250 L
3596 3214 mt 3596 3286 L
3482 2458 mt 3554 2458 L
3518 2422 mt 3518 2494 L
1387 2682 mt 1459 2682 L
1423 2646 mt 1423 2718 L
3549 2374 mt 3621 2374 L
3585 2338 mt 3585 2410 L
4922 1448 mt 4994 1448 L
4958 1412 mt 4958 1484 L
3946 2040 mt 4018 2040 L
3982 2004 mt 3982 2076 L
2595 2338 mt 2667 2338 L
2631 2302 mt 2631 2374 L
3466 1838 mt 3538 1838 L
3502 1802 mt 3502 1874 L
4425 2449 mt 4497 2449 L
4461 2413 mt 4461 2485 L
2355 3039 mt 2427 3039 L
2391 3003 mt 2391 3075 L
1937 2396 mt 2009 2396 L
1973 2360 mt 1973 2432 L
3803 2298 mt 3875 2298 L
3839 2262 mt 3839 2334 L
3964 2115 mt 4036 2115 L
4000 2079 mt 4000 2151 L
4156 2365 mt 4228 2365 L
4192 2329 mt 4192 2401 L
3903 2778 mt 3975 2778 L
3939 2742 mt 3939 2814 L
4191 3125 mt 4263 3125 L
4227 3089 mt 4227 3161 L
3723 2510 mt 3795 2510 L
3759 2474 mt 3759 2546 L
2146 2392 mt 2218 2392 L
2182 2356 mt 2182 2428 L
3220 1917 mt 3292 1917 L
3256 1881 mt 3256 1953 L
2706 4072 mt 2778 4072 L
2742 4036 mt 2742 4108 L
4655 1872 mt 4727 1872 L
4691 1836 mt 4691 1908 L
2605 1911 mt 2677 1911 L
2641 1875 mt 2641 1947 L
3977 2869 mt 4049 2869 L
4013 2833 mt 4013 2905 L
4492 2741 mt 4564 2741 L
4528 2705 mt 4528 2777 L
4015 1802 mt 4087 1802 L
4051 1766 mt 4051 1838 L
3202 3227 mt 3274 3227 L
3238 3191 mt 3238 3263 L
3027 2130 mt 3099 2130 L
3063 2094 mt 3063 2166 L
3952 2633 mt 4024 2633 L
3988 2597 mt 3988 2669 L
4355 2414 mt 4427 2414 L
4391 2378 mt 4391 2450 L
3666 2320 mt 3738 2320 L
3702 2284 mt 3702 2356 L
3129 1698 mt 3201 1698 L
3165 1662 mt 3165 1734 L
3393 1942 mt 3465 1942 L
3429 1906 mt 3429 1978 L
3410 2018 mt 3482 2018 L
3446 1982 mt 3446 2054 L
4067 2311 mt 4139 2311 L
4103 2275 mt 4103 2347 L
4094 2062 mt 4166 2062 L
4130 2026 mt 4130 2098 L
2165 2001 mt 2237 2001 L
2201 1965 mt 2201 2037 L
2634 2571 mt 2706 2571 L
2670 2535 mt 2670 2607 L
3885 2700 mt 3957 2700 L
3921 2664 mt 3921 2736 L
3521 2764 mt 3593 2764 L
3557 2728 mt 3557 2800 L
2282 2695 mt 2354 2695 L
2318 2659 mt 2318 2731 L
3983 3057 mt 4055 3057 L
4019 3021 mt 4019 3093 L
1619 2864 mt 1691 2864 L
1655 2828 mt 1655 2900 L
4435 2994 mt 4507 2994 L
4471 2958 mt 4471 3030 L
3153 2792 mt 3225 2792 L
3189 2756 mt 3189 2828 L
3214 2806 mt 3286 2806 L
3250 2770 mt 3250 2842 L
3364 2256 mt 3436 2256 L
3400 2220 mt 3400 2292 L
5047 2242 mt 5119 2242 L
5083 2206 mt 5083 2278 L
4512 1662 mt 4584 1662 L
4548 1626 mt 4548 1698 L
3072 1878 mt 3144 1878 L
3108 1842 mt 3108 1914 L
4060 2811 mt 4132 2811 L
4096 2775 mt 4096 2847 L
3053 2593 mt 3125 2593 L
3089 2557 mt 3089 2629 L
3421 1572 mt 3493 1572 L
3457 1536 mt 3457 1608 L
3855 2261 mt 3927 2261 L
3891 2225 mt 3891 2297 L
3797  957 mt 3869  957 L
3833  921 mt 3833  993 L
4199 1583 mt 4271 1583 L
4235 1547 mt 4235 1619 L
2468 2237 mt 2540 2237 L
2504 2201 mt 2504 2273 L
3381 2051 mt 3453 2051 L
3417 2015 mt 3417 2087 L
3768 3610 mt 3840 3610 L
3804 3574 mt 3804 3646 L
2836 1671 mt 2908 1671 L
2872 1635 mt 2872 1707 L
3700 1740 mt 3772 1740 L
3736 1704 mt 3736 1776 L
3791 1948 mt 3863 1948 L
3827 1912 mt 3827 1984 L
3085 2659 mt 3157 2659 L
3121 2623 mt 3121 2695 L
2513 1614 mt 2585 1614 L
2549 1578 mt 2549 1650 L
2874 2506 mt 2946 2506 L
2910 2470 mt 2910 2542 L
4532 2889 mt 4604 2889 L
4568 2853 mt 4568 2925 L
3454 1419 mt 3526 1419 L
3490 1383 mt 3490 1455 L
1965 3087 mt 2037 3087 L
2001 3051 mt 2001 3123 L
4886 3164 mt 4958 3164 L
4922 3128 mt 4922 3200 L
2502 1318 mt 2574 1318 L
2538 1282 mt 2538 1354 L
5606 2514 mt 5678 2514 L
5642 2478 mt 5642 2550 L
3577 2370 mt 3649 2370 L
3613 2334 mt 3613 2406 L
5024 1561 mt 5096 1561 L
5060 1525 mt 5060 1597 L
3616 2284 mt 3688 2284 L
3652 2248 mt 3652 2320 L
3838 2615 mt 3910 2615 L
3874 2579 mt 3874 2651 L
2896 2840 mt 2968 2840 L
2932 2804 mt 2932 2876 L
5150 2189 mt 5222 2189 L
5186 2153 mt 5186 2225 L
4732 1689 mt 4804 1689 L
4768 1653 mt 4768 1725 L
3243 1087 mt 3315 1087 L
3279 1051 mt 3279 1123 L
3178 2007 mt 3250 2007 L
3214 1971 mt 3214 2043 L
3909 3567 mt 3981 3567 L
3945 3531 mt 3945 3603 L
3599 1779 mt 3671 1779 L
3635 1743 mt 3635 1815 L
2903 2801 mt 2975 2801 L
2939 2765 mt 2939 2837 L
3555 2083 mt 3627 2083 L
3591 2047 mt 3591 2119 L
4364 1885 mt 4436 1885 L
4400 1849 mt 4400 1921 L
2575 1764 mt 2647 1764 L
2611 1728 mt 2611 1800 L
4904 2935 mt 4976 2935 L
4940 2899 mt 4940 2971 L
4372 2691 mt 4444 2691 L
4408 2655 mt 4408 2727 L
3672 1904 mt 3744 1904 L
3708 1868 mt 3708 1940 L
2851 2562 mt 2923 2562 L
2887 2526 mt 2887 2598 L
4390 3503 mt 4462 3503 L
4426 3467 mt 4426 3539 L
4322 2731 mt 4394 2731 L
4358 2695 mt 4358 2767 L
3826  414 mt 3898  414 L
3862  378 mt 3862  450 L
2201 3349 mt 2273 3349 L
2237 3313 mt 2237 3385 L
2624 1121 mt 2696 1121 L
2660 1085 mt 2660 1157 L
4047 2727 mt 4119 2727 L
4083 2691 mt 4083 2763 L
3861 1851 mt 3933 1851 L
3897 1815 mt 3897 1887 L
3460 3774 mt 3532 3774 L
3496 3738 mt 3496 3810 L
4034 1232 mt 4106 1232 L
4070 1196 mt 4070 1268 L
5700 2247 mt 5772 2247 L
5736 2211 mt 5736 2283 L
2881 2946 mt 2953 2946 L
2917 2910 mt 2917 2982 L
2565 3491 mt 2637 3491 L
2601 3455 mt 2601 3527 L
3814 1434 mt 3886 1434 L
3850 1398 mt 3850 1470 L
3940 2879 mt 4012 2879 L
3976 2843 mt 3976 2915 L
5245 1388 mt 5317 1388 L
5281 1352 mt 5281 1424 L
2327 2453 mt 2399 2453 L
2363 2417 mt 2363 2489 L
3934 2484 mt 4006 2484 L
3970 2448 mt 3970 2520 L
1876 3151 mt 1948 3151 L
1912 3115 mt 1912 3187 L
5365 3281 mt 5437 3281 L
5401 3245 mt 5401 3317 L
3989 2418 mt 4061 2418 L
4025 2382 mt 4025 2454 L
2085 2035 mt 2157 2035 L
2121 1999 mt 2121 2071 L
3689 2445 mt 3761 2445 L
3725 2409 mt 3725 2481 L
3638 1865 mt 3710 1865 L
3674 1829 mt 3674 1901 L
4693 2471 mt 4765 2471 L
4729 2435 mt 4729 2507 L
4221 3206 mt 4293 3206 L
4257 3170 mt 4257 3242 L
3091 3184 mt 3163 3184 L
3127 3148 mt 3127 3220 L
2432 2650 mt 2504 2650 L
2468 2614 mt 2468 2686 L
4680 2302 mt 4752 2302 L
4716 2266 mt 4716 2338 L
3544 1404 mt 3616 1404 L
3580 1368 mt 3580 1440 L
3649 3257 mt 3721 3257 L
3685 3221 mt 3685 3293 L
3717 3178 mt 3789 3178 L
3753 3142 mt 3753 3214 L
2545 2920 mt 2617 2920 L
2581 2884 mt 2581 2956 L
2866 2641 mt 2938 2641 L
2902 2605 mt 2902 2677 L
3415 2094 mt 3487 2094 L
3451 2058 mt 3451 2130 L
4347 3942 mt 4419 3942 L
4383 3906 mt 4383 3978 L
4746 2155 mt 4818 2155 L
4782 2119 mt 4782 2191 L
5828 2602 mt 5900 2602 L
5864 2566 mt 5864 2638 L
4542 2909 mt 4614 2909 L
4578 2873 mt 4578 2945 L
4163 2754 mt 4235 2754 L
4199 2718 mt 4199 2790 L
4054 3028 mt 4126 3028 L
4090 2992 mt 4090 3064 L
3897 1653 mt 3969 1653 L
3933 1617 mt 3933 1689 L
3438 2787 mt 3510 2787 L
3474 2751 mt 3474 2823 L
4574 2773 mt 4646 2773 L
4610 2737 mt 4610 2809 L
2016 3468 mt 2088 3468 L
2052 3432 mt 2052 3504 L
4251 3581 mt 4323 3581 L
4287 3545 mt 4287 3617 L
3633 2228 mt 3705 2228 L
3669 2192 mt 3669 2264 L
2765 2497 mt 2837 2497 L
2801 2461 mt 2801 2533 L
4789 3137 mt 4861 3137 L
4825 3101 mt 4825 3173 L
2789 1898 mt 2861 1898 L
2825 1862 mt 2825 1934 L
4128 3340 mt 4200 3340 L
4164 3304 mt 4164 3376 L
4407 2835 mt 4479 2835 L
4443 2799 mt 4443 2871 L
3891 1476 mt 3963 1476 L
3927 1440 mt 3927 1512 L
3387 1298 mt 3459 1298 L
3423 1262 mt 3423 1334 L
4416 2334 mt 4488 2334 L
4452 2298 mt 4452 2370 L
2218 2750 mt 2290 2750 L
2254 2714 mt 2254 2786 L
4338 2523 mt 4410 2523 L
4374 2487 mt 4374 2559 L
5282 2628 mt 5354 2628 L
5318 2592 mt 5318 2664 L
3160 3144 mt 3232 3144 L
3196 3108 mt 3196 3180 L
3116 2646 mt 3188 2646 L
3152 2610 mt 3152 2682 L
3477 2432 mt 3549 2432 L
3513 2396 mt 3513 2468 L
2938 2664 mt 3010 2664 L
2974 2628 mt 2974 2700 L
3757 1336 mt 3829 1336 L
3793 1300 mt 3793 1372 L
2235 1634 mt 2307 1634 L
2271 1598 mt 2271 1670 L
3594 2844 mt 3666 2844 L
3630 2808 mt 3630 2880 L
4306 2120 mt 4378 2120 L
4342 2084 mt 4342 2156 L
3488 2356 mt 3560 2356 L
3524 2320 mt 3524 2392 L
5468 3367 mt 5540 3367 L
5504 3331 mt 5504 3403 L
2821 1707 mt 2893 1707 L
2857 1671 mt 2857 1743 L
3538 1371 mt 3610 1371 L
3574 1335 mt 3574 1407 L
2652 3675 mt 2724 3675 L
2688 3639 mt 2688 3711 L
4330 2436 mt 4402 2436 L
4366 2400 mt 4366 2472 L
2959 2427 mt 3031 2427 L
2995 2391 mt 2995 2463 L
3694 2078 mt 3766 2078 L
3730 2042 mt 3730 2114 L
4009 1006 mt 4081 1006 L
4045  970 mt 4045 1042 L
4100 2972 mt 4172 2972 L
4136 2936 mt 4136 3008 L
2106 2073 mt 2178 2073 L
2142 2037 mt 2142 2109 L
4597 4023 mt 4669 4023 L
4633 3987 mt 4633 4059 L
4274 2352 mt 4346 2352 L
4310 2316 mt 4310 2388 L
4453 3415 mt 4525 3415 L
4489 3379 mt 4489 3451 L
3033  724 mt 3105  724 L
3069  688 mt 3069  760 L
3255 2089 mt 3327 2089 L
3291 2053 mt 3291 2125 L
3774 2722 mt 3846 2722 L
3810 2686 mt 3810 2758 L
3627 3242 mt 3699 3242 L
3663 3206 mt 3663 3278 L
1481 3425 mt 1553 3425 L
1517 3389 mt 1517 3461 L
3655 3000 mt 3727 3000 L
3691 2964 mt 3691 3036 L
4282 2501 mt 4354 2501 L
4318 2465 mt 4318 2537 L
2931 2099 mt 3003 2099 L
2967 2063 mt 2967 2135 L
4107 3822 mt 4179 3822 L
4143 3786 mt 4143 3858 L
3104 2270 mt 3176 2270 L
3140 2234 mt 3140 2306 L
5071 3980 mt 5143 3980 L
5107 3944 mt 5107 4016 L
3237 3034 mt 3309 3034 L
3273 2998 mt 3273 3070 L
3066 1550 mt 3138 1550 L
3102 1514 mt 3102 1586 L
2381 2718 mt 2453 2718 L
2417 2682 mt 2417 2754 L
2781 2576 mt 2853 2576 L
2817 2540 mt 2817 2612 L
4236 1984 mt 4308 1984 L
4272 1948 mt 4272 2020 L
4463 2940 mt 4535 2940 L
4499 2904 mt 4499 2976 L
3740 2233 mt 3812 2233 L
3776 2197 mt 3776 2269 L
2773 3099 mt 2845 3099 L
2809 3063 mt 2809 3135 L
4444 2580 mt 4516 2580 L
4480 2544 mt 4480 2616 L
4981 4616 mt 5053 4616 L
5017 4580 mt 5017 4652 L
1722 1255 mt 1794 1255 L
1758 1219 mt 1758 1291 L
4135 3051 mt 4207 3051 L
4171 3015 mt 4171 3087 L
1766 3376 mt 1838 3376 L
1802 3340 mt 1802 3412 L
3172 2930 mt 3244 2930 L
3208 2894 mt 3208 2966 L
5002 2160 mt 5074 2160 L
5038 2124 mt 5038 2196 L
3319 3191 mt 3391 3191 L
3355 3155 mt 3355 3227 L
3353 1732 mt 3425 1732 L
3389 1696 mt 3389 1768 L
3190 3405 mt 3262 3405 L
3226 3369 mt 3226 3441 L
1674 4131 mt 1746 4131 L
1710 4095 mt 1710 4167 L
2555 2983 mt 2627 2983 L
2591 2947 mt 2591 3019 L
5531 2606 mt 5603 2606 L
5567 2570 mt 5567 2642 L
2813 3265 mt 2885 3265 L
2849 3229 mt 2849 3301 L
3867 2383 mt 3939 2383 L
3903 2347 mt 3903 2419 L
3879 1514 mt 3951 1514 L
3915 1478 mt 3915 1550 L
3000 2046 mt 3072 2046 L
3036 2010 mt 3036 2082 L
2689 3131 mt 2761 3131 L
2725 3095 mt 2725 3167 L
3527 2024 mt 3599 2024 L
3563 1988 mt 3563 2060 L
5321 2978 mt 5393 2978 L
5357 2942 mt 5357 3014 L
3516  564 mt 3588  564 L
3552  528 mt 3552  600 L
4121 1823 mt 4193 1823 L
4157 1787 mt 4157 1859 L
4820 3235 mt 4892 3235 L
4856 3199 mt 4856 3271 L
3505 2989 mt 3577 2989 L
3541 2953 mt 3541 3025 L
3751 2316 mt 3823 2316 L
3787 2280 mt 3787 2352 L
3184 3436 mt 3256 3436 L
3220 3400 mt 3220 3472 L
1556 1207 mt 1628 1207 L
1592 1171 mt 1592 1243 L
2993 2854 mt 3065 2854 L
3029 2818 mt 3029 2890 L
5096 2567 mt 5168 2567 L
5132 2531 mt 5132 2603 L
2757 2440 mt 2829 2440 L
2793 2404 mt 2793 2476 L
3762 1715 mt 3834 1715 L
3798 1679 mt 3798 1751 L
2420 2558 mt 2492 2558 L
2456 2522 mt 2456 2594 L
3123 3017 mt 3195 3017 L
3159 2981 mt 3159 3053 L
4482 2759 mt 4554 2759 L
4518 2723 mt 4518 2795 L
3745 2768 mt 3817 2768 L
3781 2732 mt 3781 2804 L
3809 3063 mt 3881 3063 L
3845 3027 mt 3845 3099 L
4472 2329 mt 4544 2329 L
4508 2293 mt 4508 2365 L
4608 2796 mt 4680 2796 L
4644 2760 mt 4644 2832 L
4149 3289 mt 4221 3289 L
4185 3253 mt 4185 3325 L
2063 3198 mt 2135 3198 L
2099 3162 mt 2099 3234 L
4961 3106 mt 5033 3106 L
4997 3070 mt 4997 3142 L
4080 2589 mt 4152 2589 L
4116 2553 mt 4116 2625 L
1805 1772 mt 1877 1772 L
1841 1736 mt 1841 1808 L
3644 1502 mt 3716 1502 L
3680 1466 mt 3680 1538 L
2859 2140 mt 2931 2140 L
2895 2104 mt 2895 2176 L
2040 2925 mt 2112 2925 L
2076 2889 mt 2076 2961 L
4184 2109 mt 4256 2109 L
4220 2073 mt 4220 2145 L
3683 3457 mt 3755 3457 L
3719 3421 mt 3719 3493 L
2828 1526 mt 2900 1526 L
2864 1490 mt 2864 1562 L
6225 4205 mt 6297 4205 L
6261 4169 mt 6261 4241 L
2844  824 mt 2916  824 L
2880  788 mt 2880  860 L
6033  898 mt 6105  898 L
6069  862 mt 6069  934 L
2797 2251 mt 2869 2251 L
2833 2215 mt 2833 2287 L
3566 3711 mt 3638 3711 L
3602 3675 mt 3602 3747 L
2917 3306 mt 2989 3306 L
2953 3270 mt 2953 3342 L
3398 3171 mt 3470 3171 L
3434 3135 mt 3434 3207 L
3850 3731 mt 3922 3731 L
3886 3695 mt 3886 3767 L
4243 2410 mt 4315 2410 L
4279 2374 mt 4279 2446 L
3873 2914 mt 3945 2914 L
3909 2878 mt 3909 2950 L
4941 1354 mt 5013 1354 L
4977 1318 mt 4977 1390 L
3610 2820 mt 3682 2820 L
3646 2784 mt 3646 2856 L
3661 4305 mt 3733 4305 L
3697 4269 mt 3697 4341 L
4760 3658 mt 4832 3658 L
4796 3622 mt 4796 3694 L
1842 2825 mt 1914 2825 L
1878 2789 mt 1878 2861 L
3443 1954 mt 3515 1954 L
3479 1918 mt 3479 1990 L
4501 2686 mt 4573 2686 L
4537 2650 mt 4537 2722 L
4643 3220 mt 4715 3220 L
4679 3184 mt 4679 3256 L
4775 2532 mt 4847 2532 L
4811 2496 mt 4811 2568 L
3493 3005 mt 3565 3005 L
3529 2969 mt 3529 3041 L
2910 2057 mt 2982 2057 L
2946 2021 mt 2946 2093 L
3330 3331 mt 3402 3331 L
3366 3295 mt 3366 3367 L
2952 1892 mt 3024 1892 L
2988 1856 mt 2988 1928 L
3208 3527 mt 3280 3527 L
3244 3491 mt 3244 3563 L
4631 3314 mt 4703 3314 L
4667 3278 mt 4667 3350 L
3278 3693 mt 3350 3693 L
3314 3657 mt 3314 3729 L
3059 3395 mt 3131 3395 L
3095 3359 mt 3095 3431 L
3261 3358 mt 3333 3358 L
3297 3322 mt 3297 3394 L
3336 2894 mt 3408 2894 L
3372 2858 mt 3372 2930 L
5180 2597 mt 5252 2597 L
5216 2561 mt 5216 2633 L
3532 1923 mt 3604 1923 L
3568 1887 mt 3568 1959 L
2267 3045 mt 2339 3045 L
2303 3009 mt 2303 3081 L
4805 2541 mt 4877 2541 L
4841 2505 mt 4841 2577 L
3971 2904 mt 4043 2904 L
4007 2868 mt 4007 2940 L
2723 3093 mt 2795 3093 L
2759 3057 mt 2759 3129 L
3958 3069 mt 4030 3069 L
3994 3033 mt 3994 3105 L
3342 2223 mt 3414 2223 L
3378 2187 mt 3378 2259 L
2697 2528 mt 2769 2528 L
2733 2492 mt 2733 2564 L
2183 2673 mt 2255 2673 L
2219 2637 mt 2219 2709 L
3307 2815 mt 3379 2815 L
3343 2779 mt 3343 2851 L
4852 2175 mt 4924 2175 L
4888 2139 mt 4888 2211 L
5122 1960 mt 5194 1960 L
5158 1924 mt 5158 1996 L
2368 1809 mt 2440 1809 L
2404 1773 mt 2404 1845 L
3582 3446 mt 3654 3446 L
3618 3410 mt 3618 3482 L
3249 1181 mt 3321 1181 L
3285 1145 mt 3285 1217 L
3040 2859 mt 3112 2859 L
3076 2823 mt 3076 2895 L
5413 2388 mt 5485 2388 L
5449 2352 mt 5449 2424 L
gs 899 414 5363 4203 rc
gr

0 sg
2775 5104 mt 
(\(F,DCTb,GMM\)) s
 482 3277 mt  -90 rotate
(\(S,SSC,GMM\)) s
90 rotate
2905  223 mt 
(Corr = -0.02) s

end %%Color Dict

eplot
%%EndObject

epage
end

showpage

%%Trailer
%%EOF
