%!PS-Adobe-3.0 EPSF-3.0
%%Creator: MATLAB, The Mathworks, Inc. Version 7.7.0.471 (R2008b). Operating System: Microsoft Windows XP.
%%Title: Pictures\main_zoo_mvar_analysis_data_BMI_xcorr_bmi_p1_k2_1_3.eps
%%CreationDate: 10/26/2009  05:44:14
%%DocumentNeededFonts: Helvetica
%%DocumentProcessColors: Cyan Magenta Yellow Black
%%LanguageLevel: 2
%%Pages: 1
%%BoundingBox:    32   180   546   616
%%EndComments

%%BeginProlog
% MathWorks dictionary
/MathWorks 160 dict begin
% definition operators
/bdef {bind def} bind def
/ldef {load def} bind def
/xdef {exch def} bdef
/xstore {exch store} bdef
% operator abbreviations
/c  /clip ldef
/cc /concat ldef
/cp /closepath ldef
/gr /grestore ldef
/gs /gsave ldef
/mt /moveto ldef
/np /newpath ldef
/cm /currentmatrix ldef
/sm /setmatrix ldef
/rm /rmoveto ldef
/rl /rlineto ldef
/s {show newpath} bdef
/sc {setcmykcolor} bdef
/sr /setrgbcolor ldef
/sg /setgray ldef
/w /setlinewidth ldef
/j /setlinejoin ldef
/cap /setlinecap ldef
/rc {rectclip} bdef
/rf {rectfill} bdef
% page state control
/pgsv () def
/bpage {/pgsv save def} bdef
/epage {pgsv restore} bdef
/bplot /gsave ldef
/eplot {stroke grestore} bdef
% orientation switch
/portraitMode 0 def /landscapeMode 1 def /rotateMode 2 def
% coordinate system mappings
/dpi2point 0 def
% font control
/FontSize 0 def
/FMS {/FontSize xstore findfont [FontSize 0 0 FontSize neg 0 0]
  makefont setfont} bdef
/ISOLatin1Encoding where {pop /WindowsLatin1Encoding 256 array bdef
ISOLatin1Encoding WindowsLatin1Encoding copy pop
/.notdef/.notdef/quotesinglbase/florin/quotedblbase/ellipsis/dagger
/daggerdbl/circumflex/perthousand/Scaron/guilsinglleft/OE/.notdef/.notdef
/.notdef/.notdef/quoteleft/quoteright/quotedblleft/quotedblright/bullet
/endash/emdash/tilde/trademark/scaron/guilsinglright/oe/.notdef/.notdef
/Ydieresis WindowsLatin1Encoding 128 32 getinterval astore pop}
{/WindowsLatin1Encoding StandardEncoding bdef} ifelse
/reencode {exch dup where {pop load} {pop StandardEncoding} ifelse
  exch dup 3 1 roll findfont dup length dict begin
  { 1 index /FID ne {def}{pop pop} ifelse } forall
  /Encoding exch def currentdict end definefont pop} bdef
/isroman {findfont /CharStrings get /Agrave known} bdef
/FMSR {3 1 roll 1 index dup isroman {reencode} {pop pop} ifelse
  exch FMS} bdef
/csm {1 dpi2point div -1 dpi2point div scale neg translate
 dup landscapeMode eq {pop -90 rotate}
  {rotateMode eq {90 rotate} if} ifelse} bdef
% line types: solid, dotted, dashed, dotdash
/SO { [] 0 setdash } bdef
/DO { [.5 dpi2point mul 4 dpi2point mul] 0 setdash } bdef
/DA { [6 dpi2point mul] 0 setdash } bdef
/DD { [.5 dpi2point mul 4 dpi2point mul 6 dpi2point mul 4
  dpi2point mul] 0 setdash } bdef
% macros for lines and objects
/L {lineto stroke} bdef
/MP {3 1 roll moveto 1 sub {rlineto} repeat} bdef
/AP {{rlineto} repeat} bdef
/PDlw -1 def
/W {/PDlw currentlinewidth def setlinewidth} def
/PP {closepath eofill} bdef
/DP {closepath stroke} bdef
/MR {4 -2 roll moveto dup  0 exch rlineto exch 0 rlineto
  neg 0 exch rlineto closepath} bdef
/FR {MR stroke} bdef
/PR {MR fill} bdef
/L1i {{currentfile picstr readhexstring pop} image} bdef
/tMatrix matrix def
/MakeOval {newpath tMatrix currentmatrix pop translate scale
0 0 1 0 360 arc tMatrix setmatrix} bdef
/FO {MakeOval stroke} bdef
/PO {MakeOval fill} bdef
/PD {currentlinewidth 2 div 0 360 arc fill
   PDlw -1 eq not {PDlw w /PDlw -1 def} if} def
/FA {newpath tMatrix currentmatrix pop translate scale
  0 0 1 5 -2 roll arc tMatrix setmatrix stroke} bdef
/PA {newpath tMatrix currentmatrix pop	translate 0 0 moveto scale
  0 0 1 5 -2 roll arc closepath tMatrix setmatrix fill} bdef
/FAn {newpath tMatrix currentmatrix pop translate scale
  0 0 1 5 -2 roll arcn tMatrix setmatrix stroke} bdef
/PAn {newpath tMatrix currentmatrix pop translate 0 0 moveto scale
  0 0 1 5 -2 roll arcn closepath tMatrix setmatrix fill} bdef
/vradius 0 def /hradius 0 def /lry 0 def
/lrx 0 def /uly 0 def /ulx 0 def /rad 0 def
/MRR {/vradius xdef /hradius xdef /lry xdef /lrx xdef /uly xdef
  /ulx xdef newpath tMatrix currentmatrix pop ulx hradius add uly
  vradius add translate hradius vradius scale 0 0 1 180 270 arc 
  tMatrix setmatrix lrx hradius sub uly vradius add translate
  hradius vradius scale 0 0 1 270 360 arc tMatrix setmatrix
  lrx hradius sub lry vradius sub translate hradius vradius scale
  0 0 1 0 90 arc tMatrix setmatrix ulx hradius add lry vradius sub
  translate hradius vradius scale 0 0 1 90 180 arc tMatrix setmatrix
  closepath} bdef
/FRR {MRR stroke } bdef
/PRR {MRR fill } bdef
/MlrRR {/lry xdef /lrx xdef /uly xdef /ulx xdef /rad lry uly sub 2 div def
  newpath tMatrix currentmatrix pop ulx rad add uly rad add translate
  rad rad scale 0 0 1 90 270 arc tMatrix setmatrix lrx rad sub lry rad
  sub translate rad rad scale 0 0 1 270 90 arc tMatrix setmatrix
  closepath} bdef
/FlrRR {MlrRR stroke } bdef
/PlrRR {MlrRR fill } bdef
/MtbRR {/lry xdef /lrx xdef /uly xdef /ulx xdef /rad lrx ulx sub 2 div def
  newpath tMatrix currentmatrix pop ulx rad add uly rad add translate
  rad rad scale 0 0 1 180 360 arc tMatrix setmatrix lrx rad sub lry rad
  sub translate rad rad scale 0 0 1 0 180 arc tMatrix setmatrix
  closepath} bdef
/FtbRR {MtbRR stroke } bdef
/PtbRR {MtbRR fill } bdef
/stri 6 array def /dtri 6 array def
/smat 6 array def /dmat 6 array def
/tmat1 6 array def /tmat2 6 array def /dif 3 array def
/asub {/ind2 exch def /ind1 exch def dup dup
  ind1 get exch ind2 get sub exch } bdef
/tri_to_matrix {
  2 0 asub 3 1 asub 4 0 asub 5 1 asub
  dup 0 get exch 1 get 7 -1 roll astore } bdef
/compute_transform {
  dmat dtri tri_to_matrix tmat1 invertmatrix 
  smat stri tri_to_matrix tmat2 concatmatrix } bdef
/ds {stri astore pop} bdef
/dt {dtri astore pop} bdef
/db {2 copy /cols xdef /rows xdef mul dup 3 mul string
  currentfile 
  3 index 0 eq {/ASCIIHexDecode filter}
  {/ASCII85Decode filter 3 index 2 eq {/RunLengthDecode filter} if }
  ifelse exch readstring pop
  dup 0 3 index getinterval /rbmap xdef
  dup 2 index dup getinterval /gbmap xdef
  1 index dup 2 mul exch getinterval /bbmap xdef pop pop}bdef
/it {gs np dtri aload pop moveto lineto lineto cp c
  cols rows 8 compute_transform 
  rbmap gbmap bbmap true 3 colorimage gr}bdef
/il {newpath moveto lineto stroke}bdef
currentdict end def
%%EndProlog

%%BeginSetup
MathWorks begin

0 cap

end
%%EndSetup

%%Page: 1 1
%%BeginPageSetup
%%PageBoundingBox:    32   180   546   616
MathWorks begin
bpage
%%EndPageSetup

%%BeginObject: obj1
bplot

/dpi2point 12 def
portraitMode 0216 7344 csm

  174   -48  6173  5231 rc
85 dict begin %Colortable dictionary
/c0 { 0.000000 0.000000 0.000000 sr} bdef
/c1 { 1.000000 1.000000 1.000000 sr} bdef
/c2 { 0.900000 0.000000 0.000000 sr} bdef
/c3 { 0.000000 0.820000 0.000000 sr} bdef
/c4 { 0.000000 0.000000 0.800000 sr} bdef
/c5 { 0.910000 0.820000 0.320000 sr} bdef
/c6 { 1.000000 0.260000 0.820000 sr} bdef
/c7 { 0.000000 0.820000 0.820000 sr} bdef
c0
1 j
1 sg
   0    0 6919 5187 rf
6 w
0 4201 5362 0 0 -4201 899 4616 4 MP
PP
-5362 0 0 4201 5362 0 0 -4201 899 4616 5 MP stroke
4 w
DO
SO
6 w
0 sg
 899  415 mt 6261  415 L
 899 4616 mt 6261 4616 L
6261 4616 mt 6261  415 L
 899 4616 mt  899  415 L
 899 4616 mt 6261 4616 L
 899 4616 mt  899  415 L
1971 4616 mt 1971 4562 L
1971  415 mt 1971  468 L
%%IncludeResource: font Helvetica
/Helvetica /WindowsLatin1Encoding 240 FMSR

1805 4873 mt 
(0.2) s
3043 4616 mt 3043 4562 L
3043  415 mt 3043  468 L
2877 4873 mt 
(0.4) s
4116 4616 mt 4116 4562 L
4116  415 mt 4116  468 L
3950 4873 mt 
(0.6) s
5188 4616 mt 5188 4562 L
5188  415 mt 5188  468 L
5022 4873 mt 
(0.8) s
 899 4195 mt  952 4195 L
6261 4195 mt 6207 4195 L
 531 4284 mt 
(0.1) s
 899 3775 mt  952 3775 L
6261 3775 mt 6207 3775 L
 531 3864 mt 
(0.2) s
 899 3355 mt  952 3355 L
6261 3355 mt 6207 3355 L
 531 3444 mt 
(0.3) s
 899 2935 mt  952 2935 L
6261 2935 mt 6207 2935 L
 531 3024 mt 
(0.4) s
 899 2515 mt  952 2515 L
6261 2515 mt 6207 2515 L
 531 2604 mt 
(0.5) s
 899 2095 mt  952 2095 L
6261 2095 mt 6207 2095 L
 531 2184 mt 
(0.6) s
 899 1675 mt  952 1675 L
6261 1675 mt 6207 1675 L
 531 1764 mt 
(0.7) s
 899 1255 mt  952 1255 L
6261 1255 mt 6207 1255 L
 531 1344 mt 
(0.8) s
 899  835 mt  952  835 L
6261  835 mt 6207  835 L
 531  924 mt 
(0.9) s
 899  415 mt 6261  415 L
 899 4616 mt 6261 4616 L
6261 4616 mt 6261  415 L
 899 4616 mt  899  415 L
gs 899 414 5363 4203 rc
gr

/c8 { 0.000000 0.000000 1.000000 sr} bdef
c8
5711  544 mt 5783  544 L
5747  508 mt 5747  580 L
6170  468 mt 6242  468 L
6206  432 mt 6206  504 L
1538 3343 mt 1610 3343 L
1574 3307 mt 1574 3379 L
1040 3951 mt 1112 3951 L
1076 3915 mt 1076 3987 L
5197  621 mt 5269  621 L
5233  585 mt 5233  657 L
1063 1114 mt 1135 1114 L
1099 1078 mt 1099 1150 L
 864 4200 mt  936 4200 L
 900 4164 mt  900 4236 L
5223 3476 mt 5295 3476 L
5259 3440 mt 5259 3512 L
5098  956 mt 5170  956 L
5134  920 mt 5134  992 L
6173 4302 mt 6245 4302 L
6209 4266 mt 6209 4338 L
1044 4615 mt 1116 4615 L
1080 4579 mt 1080 4651 L
4160  699 mt 4232  699 L
4196  663 mt 4196  735 L
6191  462 mt 6263  462 L
6227  426 mt 6227  498 L
3007  886 mt 3079  886 L
3043  850 mt 3043  922 L
6104  422 mt 6176  422 L
6140  386 mt 6140  458 L
3711  802 mt 3783  802 L
3747  766 mt 3747  838 L
4390 4364 mt 4462 4364 L
4426 4328 mt 4426 4400 L
5397 1317 mt 5469 1317 L
5433 1281 mt 5433 1353 L
6060 3114 mt 6132 3114 L
6096 3078 mt 6096 3150 L
4636 1223 mt 4708 1223 L
4672 1187 mt 4672 1259 L
1303 4281 mt 1375 4281 L
1339 4245 mt 1339 4317 L
5038 2870 mt 5110 2870 L
5074 2834 mt 5074 2906 L
1035 4086 mt 1107 4086 L
1071 4050 mt 1071 4122 L
1800 1322 mt 1872 1322 L
1836 1286 mt 1836 1358 L
5740  797 mt 5812  797 L
5776  761 mt 5776  833 L
3523 4615 mt 3595 4615 L
3559 4579 mt 3559 4651 L
1092 4258 mt 1164 4258 L
1128 4222 mt 1128 4294 L
4803  601 mt 4875  601 L
4839  565 mt 4839  637 L
4217 1445 mt 4289 1445 L
4253 1409 mt 4253 1481 L
5194 3923 mt 5266 3923 L
5230 3887 mt 5230 3959 L
 907 4571 mt  979 4571 L
 943 4535 mt  943 4607 L
2766 4607 mt 2838 4607 L
2802 4571 mt 2802 4643 L
 961 2816 mt 1033 2816 L
 997 2780 mt  997 2852 L
3180 2221 mt 3252 2221 L
3216 2185 mt 3216 2257 L
3180  476 mt 3252  476 L
3216  440 mt 3216  512 L
3852 3760 mt 3924 3760 L
3888 3724 mt 3888 3796 L
4663 3869 mt 4735 3869 L
4699 3833 mt 4699 3905 L
 940 4262 mt 1012 4262 L
 976 4226 mt  976 4298 L
2473 4199 mt 2545 4199 L
2509 4163 mt 2509 4235 L
2619 1805 mt 2691 1805 L
2655 1769 mt 2655 1841 L
3905  589 mt 3977  589 L
3941  553 mt 3941  625 L
5778  439 mt 5850  439 L
5814  403 mt 5814  475 L
6222 1412 mt 6294 1412 L
6258 1376 mt 6258 1448 L
4214 3814 mt 4286 3814 L
4250 3778 mt 4250 3850 L
6050  421 mt 6122  421 L
6086  385 mt 6086  457 L
3498 4371 mt 3570 4371 L
3534 4335 mt 3534 4407 L
2940 2492 mt 3012 2492 L
2976 2456 mt 2976 2528 L
5549 3917 mt 5621 3917 L
5585 3881 mt 5585 3953 L
1041 4114 mt 1113 4114 L
1077 4078 mt 1077 4150 L
5607 4340 mt 5679 4340 L
5643 4304 mt 5643 4376 L
1610  421 mt 1682  421 L
1646  385 mt 1646  457 L
4620  656 mt 4692  656 L
4656  620 mt 4656  692 L
4842 2090 mt 4914 2090 L
4878 2054 mt 4878 2126 L
5380  545 mt 5452  545 L
5416  509 mt 5416  581 L
4579 2054 mt 4651 2054 L
4615 2018 mt 4615 2090 L
4239 1522 mt 4311 1522 L
4275 1486 mt 4275 1558 L
2372 2414 mt 2444 2414 L
2408 2378 mt 2408 2450 L
5971  422 mt 6043  422 L
6007  386 mt 6007  458 L
1830 3101 mt 1902 3101 L
1866 3065 mt 1866 3137 L
5677 2654 mt 5749 2654 L
5713 2618 mt 5713 2690 L
2918  544 mt 2990  544 L
2954  508 mt 2954  580 L
 927 3876 mt  999 3876 L
 963 3840 mt  963 3912 L
3256 1371 mt 3328 1371 L
3292 1335 mt 3292 1407 L
6194  421 mt 6266  421 L
6230  385 mt 6230  457 L
5370  740 mt 5442  740 L
5406  704 mt 5406  776 L
5131  421 mt 5203  421 L
5167  385 mt 5167  457 L
3962  425 mt 4034  425 L
3998  389 mt 3998  461 L
2036 1173 mt 2108 1173 L
2072 1137 mt 2072 1209 L
5446 3248 mt 5518 3248 L
5482 3212 mt 5482 3284 L
 971  538 mt 1043  538 L
1007  502 mt 1007  574 L
1359 4114 mt 1431 4114 L
1395 4078 mt 1395 4150 L
6163  489 mt 6235  489 L
6199  453 mt 6199  525 L
5817 4615 mt 5889 4615 L
5853 4579 mt 5853 4651 L
1293 3057 mt 1365 3057 L
1329 3021 mt 1329 3093 L
 863 4355 mt  935 4355 L
 899 4319 mt  899 4391 L
2723  450 mt 2795  450 L
2759  414 mt 2759  486 L
6008  447 mt 6080  447 L
6044  411 mt 6044  483 L
1168 4370 mt 1240 4370 L
1204 4334 mt 1204 4406 L
1296 4304 mt 1368 4304 L
1332 4268 mt 1332 4340 L
5794 3286 mt 5866 3286 L
5830 3250 mt 5830 3322 L
3873  495 mt 3945  495 L
3909  459 mt 3909  531 L
2098 3700 mt 2170 3700 L
2134 3664 mt 2134 3736 L
5464  540 mt 5536  540 L
5500  504 mt 5500  576 L
4624 1726 mt 4696 1726 L
4660 1690 mt 4660 1762 L
5846 4479 mt 5918 4479 L
5882 4443 mt 5882 4515 L
5544 1911 mt 5616 1911 L
5580 1875 mt 5580 1947 L
3068  467 mt 3140  467 L
3104  431 mt 3104  503 L
2757 1092 mt 2829 1092 L
2793 1056 mt 2793 1128 L
5227 1673 mt 5299 1673 L
5263 1637 mt 5263 1709 L
1016  419 mt 1088  419 L
1052  383 mt 1052  455 L
2792 2437 mt 2864 2437 L
2828 2401 mt 2828 2473 L
6062  417 mt 6134  417 L
6098  381 mt 6098  453 L
1838 4326 mt 1910 4326 L
1874 4290 mt 1874 4362 L
 993  898 mt 1065  898 L
1029  862 mt 1029  934 L
2582 4304 mt 2654 4304 L
2618 4268 mt 2618 4340 L
 963 1069 mt 1035 1069 L
 999 1033 mt  999 1105 L
5110  499 mt 5182  499 L
5146  463 mt 5146  535 L
4747  433 mt 4819  433 L
4783  397 mt 4783  469 L
1945 3273 mt 2017 3273 L
1981 3237 mt 1981 3309 L
 945  489 mt 1017  489 L
 981  453 mt  981  525 L
5880  415 mt 5952  415 L
5916  379 mt 5916  451 L
1619 1678 mt 1691 1678 L
1655 1642 mt 1655 1714 L
2589 4413 mt 2661 4413 L
2625 4377 mt 2625 4449 L
 894  473 mt  966  473 L
 930  437 mt  930  509 L
 927 3473 mt  999 3473 L
 963 3437 mt  963 3509 L
1550 4370 mt 1622 4370 L
1586 4334 mt 1586 4406 L
4091  843 mt 4163  843 L
4127  807 mt 4127  879 L
1660 4503 mt 1732 4503 L
1696 4467 mt 1696 4539 L
 925 3944 mt  997 3944 L
 961 3908 mt  961 3980 L
3721 2627 mt 3793 2627 L
3757 2591 mt 3757 2663 L
4849  827 mt 4921  827 L
4885  791 mt 4885  863 L
2299 4262 mt 2371 4262 L
2335 4226 mt 2335 4298 L
 950  694 mt 1022  694 L
 986  658 mt  986  730 L
6207  457 mt 6279  457 L
6243  421 mt 6243  493 L
1040 4252 mt 1112 4252 L
1076 4216 mt 1076 4288 L
5206 4426 mt 5278 4426 L
5242 4390 mt 5242 4462 L
3564 2359 mt 3636 2359 L
3600 2323 mt 3600 2395 L
1046  456 mt 1118  456 L
1082  420 mt 1082  492 L
2161 4602 mt 2233 4602 L
2197 4566 mt 2197 4638 L
 864 2833 mt  936 2833 L
 900 2797 mt  900 2869 L
4474  629 mt 4546  629 L
4510  593 mt 4510  665 L
5970 3955 mt 6042 3955 L
6006 3919 mt 6006 3991 L
5201  948 mt 5273  948 L
5237  912 mt 5237  984 L
4632 4590 mt 4704 4590 L
4668 4554 mt 4668 4626 L
 880 2513 mt  952 2513 L
 916 2477 mt  916 2549 L
5709  416 mt 5781  416 L
5745  380 mt 5745  452 L
 886  603 mt  958  603 L
 922  567 mt  922  639 L
1401  744 mt 1473  744 L
1437  708 mt 1437  780 L
2622 4108 mt 2694 4108 L
2658 4072 mt 2658 4144 L
1799 4589 mt 1871 4589 L
1835 4553 mt 1835 4625 L
6022  460 mt 6094  460 L
6058  424 mt 6058  496 L
5965 1912 mt 6037 1912 L
6001 1876 mt 6001 1948 L
3854 3496 mt 3926 3496 L
3890 3460 mt 3890 3532 L
2904  796 mt 2976  796 L
2940  760 mt 2940  832 L
1900 4393 mt 1972 4393 L
1936 4357 mt 1936 4429 L
3761  512 mt 3833  512 L
3797  476 mt 3797  548 L
1620 3871 mt 1692 3871 L
1656 3835 mt 1656 3907 L
6163 1598 mt 6235 1598 L
6199 1562 mt 6199 1634 L
1867 2863 mt 1939 2863 L
1903 2827 mt 1903 2899 L
4826 1503 mt 4898 1503 L
4862 1467 mt 4862 1539 L
5360 1722 mt 5432 1722 L
5396 1686 mt 5396 1758 L
5983  436 mt 6055  436 L
6019  400 mt 6019  472 L
1376 4596 mt 1448 4596 L
1412 4560 mt 1412 4632 L
2127 3692 mt 2199 3692 L
2163 3656 mt 2163 3728 L
5120  438 mt 5192  438 L
5156  402 mt 5156  474 L
5697 1556 mt 5769 1556 L
5733 1520 mt 5733 1592 L
 884 4372 mt  956 4372 L
 920 4336 mt  920 4408 L
 863  480 mt  935  480 L
 899  444 mt  899  516 L
2436 2749 mt 2508 2749 L
2472 2713 mt 2472 2785 L
3379 3051 mt 3451 3051 L
3415 3015 mt 3415 3087 L
 908 4425 mt  980 4425 L
 944 4389 mt  944 4461 L
5547 3422 mt 5619 3422 L
5583 3386 mt 5583 3458 L
1101 3832 mt 1173 3832 L
1137 3796 mt 1137 3868 L
1354 4144 mt 1426 4144 L
1390 4108 mt 1390 4180 L
4585 4495 mt 4657 4495 L
4621 4459 mt 4621 4531 L
 990 2751 mt 1062 2751 L
1026 2715 mt 1026 2787 L
3519 4300 mt 3591 4300 L
3555 4264 mt 3555 4336 L
6111 4023 mt 6183 4023 L
6147 3987 mt 6147 4059 L
1164 4615 mt 1236 4615 L
1200 4579 mt 1200 4651 L
6060 1613 mt 6132 1613 L
6096 1577 mt 6096 1649 L
4165 1305 mt 4237 1305 L
4201 1269 mt 4201 1341 L
1343 3253 mt 1415 3253 L
1379 3217 mt 1379 3289 L
1653 4526 mt 1725 4526 L
1689 4490 mt 1689 4562 L
5704 1131 mt 5776 1131 L
5740 1095 mt 5740 1167 L
3663 4080 mt 3735 4080 L
3699 4044 mt 3699 4116 L
1001 4548 mt 1073 4548 L
1037 4512 mt 1037 4584 L
1288 4197 mt 1360 4197 L
1324 4161 mt 1324 4233 L
6194  815 mt 6266  815 L
6230  779 mt 6230  851 L
1350 3434 mt 1422 3434 L
1386 3398 mt 1386 3470 L
5870  429 mt 5942  429 L
5906  393 mt 5906  465 L
2321 2074 mt 2393 2074 L
2357 2038 mt 2357 2110 L
3693  521 mt 3765  521 L
3729  485 mt 3729  557 L
1161 4086 mt 1233 4086 L
1197 4050 mt 1197 4122 L
3572 2483 mt 3644 2483 L
3608 2447 mt 3608 2519 L
5169 3492 mt 5241 3492 L
5205 3456 mt 5205 3528 L
2340  529 mt 2412  529 L
2376  493 mt 2376  565 L
4999 1367 mt 5071 1367 L
5035 1331 mt 5035 1403 L
5649  415 mt 5721  415 L
5685  379 mt 5685  451 L
2013  482 mt 2085  482 L
2049  446 mt 2049  518 L
2820 4491 mt 2892 4491 L
2856 4455 mt 2856 4527 L
1411 4199 mt 1483 4199 L
1447 4163 mt 1447 4235 L
5571 2121 mt 5643 2121 L
5607 2085 mt 5607 2157 L
2520 3001 mt 2592 3001 L
2556 2965 mt 2556 3037 L
1254  442 mt 1326  442 L
1290  406 mt 1290  478 L
6065 2487 mt 6137 2487 L
6101 2451 mt 6101 2523 L
1035 4046 mt 1107 4046 L
1071 4010 mt 1071 4082 L
6154  964 mt 6226  964 L
6190  928 mt 6190 1000 L
2914  787 mt 2986  787 L
2950  751 mt 2950  823 L
6111 1326 mt 6183 1326 L
6147 1290 mt 6147 1362 L
5448 3714 mt 5520 3714 L
5484 3678 mt 5484 3750 L
2307 4494 mt 2379 4494 L
2343 4458 mt 2343 4530 L
5109 1008 mt 5181 1008 L
5145  972 mt 5145 1044 L
6215  431 mt 6287  431 L
6251  395 mt 6251  467 L
6211  544 mt 6283  544 L
6247  508 mt 6247  580 L
3874  705 mt 3946  705 L
3910  669 mt 3910  741 L
 868 4448 mt  940 4448 L
 904 4412 mt  904 4484 L
5426 3047 mt 5498 3047 L
5462 3011 mt 5462 3083 L
4968  571 mt 5040  571 L
5004  535 mt 5004  607 L
4738 2491 mt 4810 2491 L
4774 2455 mt 4774 2527 L
4677  939 mt 4749  939 L
4713  903 mt 4713  975 L
6199  420 mt 6271  420 L
6235  384 mt 6235  456 L
4534  430 mt 4606  430 L
4570  394 mt 4570  466 L
6218 3542 mt 6290 3542 L
6254 3506 mt 6254 3578 L
3364 3892 mt 3436 3892 L
3400 3856 mt 3400 3928 L
3515 4432 mt 3587 4432 L
3551 4396 mt 3551 4468 L
6171  506 mt 6243  506 L
6207  470 mt 6207  542 L
6219 4529 mt 6291 4529 L
6255 4493 mt 6255 4565 L
5635  786 mt 5707  786 L
5671  750 mt 5671  822 L
1420  427 mt 1492  427 L
1456  391 mt 1456  463 L
1553 4610 mt 1625 4610 L
1589 4574 mt 1589 4646 L
2432 4255 mt 2504 4255 L
2468 4219 mt 2468 4291 L
6219  419 mt 6291  419 L
6255  383 mt 6255  455 L
5620  415 mt 5692  415 L
5656  379 mt 5656  451 L
3007 1495 mt 3079 1495 L
3043 1459 mt 3043 1531 L
 868  430 mt  940  430 L
 904  394 mt  904  466 L
6010  434 mt 6082  434 L
6046  398 mt 6046  470 L
5291  450 mt 5363  450 L
5327  414 mt 5327  486 L
6203  781 mt 6275  781 L
6239  745 mt 6239  817 L
6217 4361 mt 6289 4361 L
6253 4325 mt 6253 4397 L
4887 2329 mt 4959 2329 L
4923 2293 mt 4923 2365 L
1903 3342 mt 1975 3342 L
1939 3306 mt 1939 3378 L
1555 3350 mt 1627 3350 L
1591 3314 mt 1591 3386 L
5063  458 mt 5135  458 L
5099  422 mt 5099  494 L
 886 4608 mt  958 4608 L
 922 4572 mt  922 4644 L
6216  476 mt 6288  476 L
6252  440 mt 6252  512 L
2994 3588 mt 3066 3588 L
3030 3552 mt 3030 3624 L
2114 3958 mt 2186 3958 L
2150 3922 mt 2150 3994 L
2705  623 mt 2777  623 L
2741  587 mt 2741  659 L
5541 2636 mt 5613 2636 L
5577 2600 mt 5577 2672 L
6220 1218 mt 6292 1218 L
6256 1182 mt 6256 1254 L
3137  616 mt 3209  616 L
3173  580 mt 3173  652 L
2672 1753 mt 2744 1753 L
2708 1717 mt 2708 1789 L
4751 2158 mt 4823 2158 L
4787 2122 mt 4787 2194 L
4823 1880 mt 4895 1880 L
4859 1844 mt 4859 1916 L
 868 3628 mt  940 3628 L
 904 3592 mt  904 3664 L
5351  764 mt 5423  764 L
5387  728 mt 5387  800 L
4878  425 mt 4950  425 L
4914  389 mt 4914  461 L
1311  600 mt 1383  600 L
1347  564 mt 1347  636 L
6144 4417 mt 6216 4417 L
6180 4381 mt 6180 4453 L
3948  417 mt 4020  417 L
3984  381 mt 3984  453 L
6209  417 mt 6281  417 L
6245  381 mt 6245  453 L
6203  422 mt 6275  422 L
6239  386 mt 6239  458 L
6224  416 mt 6296  416 L
6260  380 mt 6260  452 L
5930  429 mt 6002  429 L
5966  393 mt 5966  465 L
6200  586 mt 6272  586 L
6236  550 mt 6236  622 L
4633  418 mt 4705  418 L
4669  382 mt 4669  454 L
3165 3026 mt 3237 3026 L
3201 2990 mt 3201 3062 L
1836 3883 mt 1908 3883 L
1872 3847 mt 1872 3919 L
 865  453 mt  937  453 L
 901  417 mt  901  489 L
1071 4604 mt 1143 4604 L
1107 4568 mt 1107 4640 L
1432  426 mt 1504  426 L
1468  390 mt 1468  462 L
1019 1270 mt 1091 1270 L
1055 1234 mt 1055 1306 L
1868 1661 mt 1940 1661 L
1904 1625 mt 1904 1697 L
6095  418 mt 6167  418 L
6131  382 mt 6131  454 L
2806 3197 mt 2878 3197 L
2842 3161 mt 2842 3233 L
6162 1916 mt 6234 1916 L
6198 1880 mt 6198 1952 L
5857  432 mt 5929  432 L
5893  396 mt 5893  468 L
4893 2163 mt 4965 2163 L
4929 2127 mt 4929 2199 L
5374  453 mt 5446  453 L
5410  417 mt 5410  489 L
3029 4485 mt 3101 4485 L
3065 4449 mt 3065 4521 L
4505  416 mt 4577  416 L
4541  380 mt 4541  452 L
6133  541 mt 6205  541 L
6169  505 mt 6169  577 L
 871  541 mt  943  541 L
 907  505 mt  907  577 L
5645  430 mt 5717  430 L
5681  394 mt 5681  466 L
 872 2155 mt  944 2155 L
 908 2119 mt  908 2191 L
3303 2072 mt 3375 2072 L
3339 2036 mt 3339 2108 L
5829  422 mt 5901  422 L
5865  386 mt 5865  458 L
2408 2773 mt 2480 2773 L
2444 2737 mt 2444 2809 L
 937 2115 mt 1009 2115 L
 973 2079 mt  973 2151 L
1857  569 mt 1929  569 L
1893  533 mt 1893  605 L
5713  415 mt 5785  415 L
5749  379 mt 5749  451 L
5058  458 mt 5130  458 L
5094  422 mt 5094  494 L
6215  420 mt 6287  420 L
6251  384 mt 6251  456 L
1590 3594 mt 1662 3594 L
1626 3558 mt 1626 3630 L
2387 3009 mt 2459 3009 L
2423 2973 mt 2423 3045 L
1694 3815 mt 1766 3815 L
1730 3779 mt 1730 3851 L
6060  421 mt 6132  421 L
6096  385 mt 6096  457 L
 958  422 mt 1030  422 L
 994  386 mt  994  458 L
1972 3950 mt 2044 3950 L
2008 3914 mt 2008 3986 L
4628  418 mt 4700  418 L
4664  382 mt 4664  454 L
6219 1593 mt 6291 1593 L
6255 1557 mt 6255 1629 L
 905 3278 mt  977 3278 L
 941 3242 mt  941 3314 L
6220  419 mt 6292  419 L
6256  383 mt 6256  455 L
4119 1327 mt 4191 1327 L
4155 1291 mt 4155 1363 L
6208  529 mt 6280  529 L
6244  493 mt 6244  565 L
 983 3565 mt 1055 3565 L
1019 3529 mt 1019 3601 L
1296  429 mt 1368  429 L
1332  393 mt 1332  465 L
5900  624 mt 5972  624 L
5936  588 mt 5936  660 L
3116 1999 mt 3188 1999 L
3152 1963 mt 3152 2035 L
3875  445 mt 3947  445 L
3911  409 mt 3911  481 L
4310  437 mt 4382  437 L
4346  401 mt 4346  473 L
6154  512 mt 6226  512 L
6190  476 mt 6190  548 L
 934 2509 mt 1006 2509 L
 970 2473 mt  970 2545 L
 864 3369 mt  936 3369 L
 900 3333 mt  900 3405 L
2890  916 mt 2962  916 L
2926  880 mt 2926  952 L
5334 4173 mt 5406 4173 L
5370 4137 mt 5370 4209 L
6225  808 mt 6297  808 L
6261  772 mt 6261  844 L
3531 3250 mt 3603 3250 L
3567 3214 mt 3567 3286 L
1039 3281 mt 1111 3281 L
1075 3245 mt 1075 3317 L
4377  422 mt 4449  422 L
4413  386 mt 4413  458 L
5340  535 mt 5412  535 L
5376  499 mt 5376  571 L
6201 1064 mt 6273 1064 L
6237 1028 mt 6237 1100 L
5565 1408 mt 5637 1408 L
5601 1372 mt 5601 1444 L
3411  429 mt 3483  429 L
3447  393 mt 3447  465 L
3161 3389 mt 3233 3389 L
3197 3353 mt 3197 3425 L
 878 1790 mt  950 1790 L
 914 1754 mt  914 1826 L
5914  415 mt 5986  415 L
5950  379 mt 5950  451 L
6210  463 mt 6282  463 L
6246  427 mt 6246  499 L
5595  459 mt 5667  459 L
5631  423 mt 5631  495 L
5872 2161 mt 5944 2161 L
5908 2125 mt 5908 2197 L
5977  593 mt 6049  593 L
6013  557 mt 6013  629 L
1058 3136 mt 1130 3136 L
1094 3100 mt 1094 3172 L
2517 2388 mt 2589 2388 L
2553 2352 mt 2553 2424 L
1669 3263 mt 1741 3263 L
1705 3227 mt 1705 3299 L
1300 3600 mt 1372 3600 L
1336 3564 mt 1336 3636 L
 994 4611 mt 1066 4611 L
1030 4575 mt 1030 4647 L
5951  436 mt 6023  436 L
5987  400 mt 5987  472 L
4182  917 mt 4254  917 L
4218  881 mt 4218  953 L
6087  973 mt 6159  973 L
6123  937 mt 6123 1009 L
2531  434 mt 2603  434 L
2567  398 mt 2567  470 L
6028  418 mt 6100  418 L
6064  382 mt 6064  454 L
3230  892 mt 3302  892 L
3266  856 mt 3266  928 L
2897  956 mt 2969  956 L
2933  920 mt 2933  992 L
5995 4615 mt 6067 4615 L
6031 4579 mt 6031 4651 L
1654  659 mt 1726  659 L
1690  623 mt 1690  695 L
2390 1017 mt 2462 1017 L
2426  981 mt 2426 1053 L
5265  559 mt 5337  559 L
5301  523 mt 5301  595 L
6085  552 mt 6157  552 L
6121  516 mt 6121  588 L
4089  417 mt 4161  417 L
4125  381 mt 4125  453 L
1640 4205 mt 1712 4205 L
1676 4169 mt 1676 4241 L
6126  494 mt 6198  494 L
6162  458 mt 6162  530 L
1656 3639 mt 1728 3639 L
1692 3603 mt 1692 3675 L
6223  468 mt 6295  468 L
6259  432 mt 6259  504 L
 958 1274 mt 1030 1274 L
 994 1238 mt  994 1310 L
4403 1823 mt 4475 1823 L
4439 1787 mt 4439 1859 L
5060  742 mt 5132  742 L
5096  706 mt 5096  778 L
3554 2827 mt 3626 2827 L
3590 2791 mt 3590 2863 L
6207  456 mt 6279  456 L
6243  420 mt 6243  492 L
4275 1187 mt 4347 1187 L
4311 1151 mt 4311 1223 L
3907 2176 mt 3979 2176 L
3943 2140 mt 3943 2212 L
6212 2386 mt 6284 2386 L
6248 2350 mt 6248 2422 L
6184  415 mt 6256  415 L
6220  379 mt 6220  451 L
4648 4083 mt 4720 4083 L
4684 4047 mt 4684 4119 L
1181 4615 mt 1253 4615 L
1217 4579 mt 1217 4651 L
5602 2184 mt 5674 2184 L
5638 2148 mt 5638 2220 L
5478  834 mt 5550  834 L
5514  798 mt 5514  870 L
 912  657 mt  984  657 L
 948  621 mt  948  693 L
1285  826 mt 1357  826 L
1321  790 mt 1321  862 L
3357  921 mt 3429  921 L
3393  885 mt 3393  957 L
2314 4609 mt 2386 4609 L
2350 4573 mt 2350 4645 L
 883 4609 mt  955 4609 L
 919 4573 mt  919 4645 L
3368 3612 mt 3440 3612 L
3404 3576 mt 3404 3648 L
 863  916 mt  935  916 L
 899  880 mt  899  952 L
1180 1052 mt 1252 1052 L
1216 1016 mt 1216 1088 L
1996 3084 mt 2068 3084 L
2032 3048 mt 2032 3120 L
5320  570 mt 5392  570 L
5356  534 mt 5356  606 L
3854 4047 mt 3926 4047 L
3890 4011 mt 3890 4083 L
3447 3213 mt 3519 3213 L
3483 3177 mt 3483 3249 L
2063 4298 mt 2135 4298 L
2099 4262 mt 2099 4334 L
2549 3892 mt 2621 3892 L
2585 3856 mt 2585 3928 L
5963  500 mt 6035  500 L
5999  464 mt 5999  536 L
6088 1563 mt 6160 1563 L
6124 1527 mt 6124 1599 L
 874 4615 mt  946 4615 L
 910 4579 mt  910 4651 L
5992  532 mt 6064  532 L
6028  496 mt 6028  568 L
6165 4306 mt 6237 4306 L
6201 4270 mt 6201 4342 L
5655 1317 mt 5727 1317 L
5691 1281 mt 5691 1353 L
4838  453 mt 4910  453 L
4874  417 mt 4874  489 L
2987 4463 mt 3059 4463 L
3023 4427 mt 3023 4499 L
5000  423 mt 5072  423 L
5036  387 mt 5036  459 L
1158  427 mt 1230  427 L
1194  391 mt 1194  463 L
4696 3024 mt 4768 3024 L
4732 2988 mt 4732 3060 L
6111  430 mt 6183  430 L
6147  394 mt 6147  466 L
2117  417 mt 2189  417 L
2153  381 mt 2153  453 L
3816 3783 mt 3888 3783 L
3852 3747 mt 3852 3819 L
1031  424 mt 1103  424 L
1067  388 mt 1067  460 L
1678 3829 mt 1750 3829 L
1714 3793 mt 1714 3865 L
1109 4614 mt 1181 4614 L
1145 4578 mt 1145 4650 L
5449 2371 mt 5521 2371 L
5485 2335 mt 5485 2407 L
2743 3265 mt 2815 3265 L
2779 3229 mt 2779 3301 L
1423 4616 mt 1495 4616 L
1459 4580 mt 1459 4652 L
 895 4513 mt  967 4513 L
 931 4477 mt  931 4549 L
2558 4445 mt 2630 4445 L
2594 4409 mt 2594 4481 L
1890  415 mt 1962  415 L
1926  379 mt 1926  451 L
6181  439 mt 6253  439 L
6217  403 mt 6217  475 L
1517 4533 mt 1589 4533 L
1553 4497 mt 1553 4569 L
5965  416 mt 6037  416 L
6001  380 mt 6001  452 L
4160 3155 mt 4232 3155 L
4196 3119 mt 4196 3191 L
 950 1897 mt 1022 1897 L
 986 1861 mt  986 1933 L
3380 4477 mt 3452 4477 L
3416 4441 mt 3416 4513 L
2078 2682 mt 2150 2682 L
2114 2646 mt 2114 2718 L
2784 4606 mt 2856 4606 L
2820 4570 mt 2820 4642 L
6204 1015 mt 6276 1015 L
6240  979 mt 6240 1051 L
4614  445 mt 4686  445 L
4650  409 mt 4650  481 L
5439 1824 mt 5511 1824 L
5475 1788 mt 5475 1860 L
6202  415 mt 6274  415 L
6238  379 mt 6238  451 L
2007 3069 mt 2079 3069 L
2043 3033 mt 2043 3105 L
5910  794 mt 5982  794 L
5946  758 mt 5946  830 L
 912  806 mt  984  806 L
 948  770 mt  948  842 L
6223 1749 mt 6295 1749 L
6259 1713 mt 6259 1785 L
6171  423 mt 6243  423 L
6207  387 mt 6207  459 L
gs 899 414 5363 4203 rc
gr

0 sg
2779 5104 mt 
(\(F,DCTs,GMM\)) s
 422 3269 mt  -90 rotate
(\(F,DCTs,MLP\)) s
90 rotate
2975  223 mt 
(Corr = 0.38) s

end %%Color Dict

eplot
%%EndObject

epage
end

showpage

%%Trailer
%%EOF
