%!PS-Adobe-3.0 EPSF-3.0
%%Creator: MATLAB, The Mathworks, Inc.
%%Title: Pictures\main_analyse_rerun3_arun_B-ratio-F-norm.eps
%%CreationDate: 02/01/2009  09:15:35
%%DocumentNeededFonts: Helvetica
%%DocumentProcessColors: Cyan Magenta Yellow Black
%%LanguageLevel: 2
%%Pages: 1
%%BoundingBox:    87   221   546   598
%%EndComments

%%BeginProlog
% MathWorks dictionary
/MathWorks 160 dict begin
% definition operators
/bdef {bind def} bind def
/ldef {load def} bind def
/xdef {exch def} bdef
/xstore {exch store} bdef
% operator abbreviations
/c  /clip ldef
/cc /concat ldef
/cp /closepath ldef
/gr /grestore ldef
/gs /gsave ldef
/mt /moveto ldef
/np /newpath ldef
/cm /currentmatrix ldef
/sm /setmatrix ldef
/rm /rmoveto ldef
/rl /rlineto ldef
/s {show newpath} bdef
/sc {setcmykcolor} bdef
/sr /setrgbcolor ldef
/sg /setgray ldef
/w /setlinewidth ldef
/j /setlinejoin ldef
/cap /setlinecap ldef
/rc {rectclip} bdef
/rf {rectfill} bdef
% page state control
/pgsv () def
/bpage {/pgsv save def} bdef
/epage {pgsv restore} bdef
/bplot /gsave ldef
/eplot {stroke grestore} bdef
% orientation switch
/portraitMode 0 def /landscapeMode 1 def /rotateMode 2 def
% coordinate system mappings
/dpi2point 0 def
% font control
/FontSize 0 def
/FMS {/FontSize xstore findfont [FontSize 0 0 FontSize neg 0 0]
  makefont setfont} bdef
/ISOLatin1Encoding where {pop /WindowsLatin1Encoding 256 array bdef
ISOLatin1Encoding WindowsLatin1Encoding copy pop
/.notdef/.notdef/quotesinglbase/florin/quotedblbase/ellipsis/dagger
/daggerdbl/circumflex/perthousand/Scaron/guilsinglleft/OE/.notdef/.notdef
/.notdef/.notdef/quoteleft/quoteright/quotedblleft/quotedblright/bullet
/endash/emdash/tilde/trademark/scaron/guilsinglright/oe/.notdef/.notdef
/Ydieresis WindowsLatin1Encoding 128 32 getinterval astore pop}
{/WindowsLatin1Encoding StandardEncoding bdef} ifelse
/reencode {exch dup where {pop load} {pop StandardEncoding} ifelse
  exch dup 3 1 roll findfont dup length dict begin
  { 1 index /FID ne {def}{pop pop} ifelse } forall
  /Encoding exch def currentdict end definefont pop} bdef
/isroman {findfont /CharStrings get /Agrave known} bdef
/FMSR {3 1 roll 1 index dup isroman {reencode} {pop pop} ifelse
  exch FMS} bdef
/csm {1 dpi2point div -1 dpi2point div scale neg translate
 dup landscapeMode eq {pop -90 rotate}
  {rotateMode eq {90 rotate} if} ifelse} bdef
% line types: solid, dotted, dashed, dotdash
/SO { [] 0 setdash } bdef
/DO { [.5 dpi2point mul 4 dpi2point mul] 0 setdash } bdef
/DA { [6 dpi2point mul] 0 setdash } bdef
/DD { [.5 dpi2point mul 4 dpi2point mul 6 dpi2point mul 4
  dpi2point mul] 0 setdash } bdef
% macros for lines and objects
/L {lineto stroke} bdef
/MP {3 1 roll moveto 1 sub {rlineto} repeat} bdef
/AP {{rlineto} repeat} bdef
/PDlw -1 def
/W {/PDlw currentlinewidth def setlinewidth} def
/PP {closepath eofill} bdef
/DP {closepath stroke} bdef
/MR {4 -2 roll moveto dup  0 exch rlineto exch 0 rlineto
  neg 0 exch rlineto closepath} bdef
/FR {MR stroke} bdef
/PR {MR fill} bdef
/L1i {{currentfile picstr readhexstring pop} image} bdef
/tMatrix matrix def
/MakeOval {newpath tMatrix currentmatrix pop translate scale
0 0 1 0 360 arc tMatrix setmatrix} bdef
/FO {MakeOval stroke} bdef
/PO {MakeOval fill} bdef
/PD {currentlinewidth 2 div 0 360 arc fill
   PDlw -1 eq not {PDlw w /PDlw -1 def} if} def
/FA {newpath tMatrix currentmatrix pop translate scale
  0 0 1 5 -2 roll arc tMatrix setmatrix stroke} bdef
/PA {newpath tMatrix currentmatrix pop	translate 0 0 moveto scale
  0 0 1 5 -2 roll arc closepath tMatrix setmatrix fill} bdef
/FAn {newpath tMatrix currentmatrix pop translate scale
  0 0 1 5 -2 roll arcn tMatrix setmatrix stroke} bdef
/PAn {newpath tMatrix currentmatrix pop translate 0 0 moveto scale
  0 0 1 5 -2 roll arcn closepath tMatrix setmatrix fill} bdef
/vradius 0 def /hradius 0 def /lry 0 def
/lrx 0 def /uly 0 def /ulx 0 def /rad 0 def
/MRR {/vradius xdef /hradius xdef /lry xdef /lrx xdef /uly xdef
  /ulx xdef newpath tMatrix currentmatrix pop ulx hradius add uly
  vradius add translate hradius vradius scale 0 0 1 180 270 arc 
  tMatrix setmatrix lrx hradius sub uly vradius add translate
  hradius vradius scale 0 0 1 270 360 arc tMatrix setmatrix
  lrx hradius sub lry vradius sub translate hradius vradius scale
  0 0 1 0 90 arc tMatrix setmatrix ulx hradius add lry vradius sub
  translate hradius vradius scale 0 0 1 90 180 arc tMatrix setmatrix
  closepath} bdef
/FRR {MRR stroke } bdef
/PRR {MRR fill } bdef
/MlrRR {/lry xdef /lrx xdef /uly xdef /ulx xdef /rad lry uly sub 2 div def
  newpath tMatrix currentmatrix pop ulx rad add uly rad add translate
  rad rad scale 0 0 1 90 270 arc tMatrix setmatrix lrx rad sub lry rad
  sub translate rad rad scale 0 0 1 270 90 arc tMatrix setmatrix
  closepath} bdef
/FlrRR {MlrRR stroke } bdef
/PlrRR {MlrRR fill } bdef
/MtbRR {/lry xdef /lrx xdef /uly xdef /ulx xdef /rad lrx ulx sub 2 div def
  newpath tMatrix currentmatrix pop ulx rad add uly rad add translate
  rad rad scale 0 0 1 180 360 arc tMatrix setmatrix lrx rad sub lry rad
  sub translate rad rad scale 0 0 1 0 180 arc tMatrix setmatrix
  closepath} bdef
/FtbRR {MtbRR stroke } bdef
/PtbRR {MtbRR fill } bdef
/stri 6 array def /dtri 6 array def
/smat 6 array def /dmat 6 array def
/tmat1 6 array def /tmat2 6 array def /dif 3 array def
/asub {/ind2 exch def /ind1 exch def dup dup
  ind1 get exch ind2 get sub exch } bdef
/tri_to_matrix {
  2 0 asub 3 1 asub 4 0 asub 5 1 asub
  dup 0 get exch 1 get 7 -1 roll astore } bdef
/compute_transform {
  dmat dtri tri_to_matrix tmat1 invertmatrix 
  smat stri tri_to_matrix tmat2 concatmatrix } bdef
/ds {stri astore pop} bdef
/dt {dtri astore pop} bdef
/db {2 copy /cols xdef /rows xdef mul dup 3 mul string
  currentfile 
  3 index 0 eq {/ASCIIHexDecode filter}
  {/ASCII85Decode filter 3 index 2 eq {/RunLengthDecode filter} if }
  ifelse exch readstring pop
  dup 0 3 index getinterval /rbmap xdef
  dup 2 index dup getinterval /gbmap xdef
  1 index dup 2 mul exch getinterval /bbmap xdef pop pop}bdef
/it {gs np dtri aload pop moveto lineto lineto cp c
  cols rows 8 compute_transform 
  rbmap gbmap bbmap true 3 colorimage gr}bdef
/il {newpath moveto lineto stroke}bdef
currentdict end def
%%EndProlog

%%BeginSetup
MathWorks begin

0 cap

end
%%EndSetup

%%Page: 1 1
%%BeginPageSetup
%%PageBoundingBox:    87   221   546   598
MathWorks begin
bpage
%%EndPageSetup

%%BeginObject: obj1
bplot

/dpi2point 12 def
portraitMode 0216 7344 csm

  828   160  5519  4530 rc
85 dict begin %Colortable dictionary
/c0 { 0.000000 0.000000 0.000000 sr} bdef
/c1 { 1.000000 1.000000 1.000000 sr} bdef
/c2 { 0.900000 0.000000 0.000000 sr} bdef
/c3 { 0.000000 0.820000 0.000000 sr} bdef
/c4 { 0.000000 0.000000 0.800000 sr} bdef
/c5 { 0.910000 0.820000 0.320000 sr} bdef
/c6 { 1.000000 0.260000 0.820000 sr} bdef
/c7 { 0.000000 0.820000 0.820000 sr} bdef
c0
1 j
1 sg
   0    0 6919 5187 rf
6 w
0 1068 856 0 0 -1068 899 1508 4 MP
PP
-856 0 0 1068 856 0 0 -1068 899 1508 5 MP stroke
4 w
DO
SO
6 w
0 sg
 899 1508 mt 1755 1508 L
 899 1508 mt  899  440 L
 960 1508 mt  960 1497 L
1127 1508 mt 1127 1497 L
1294 1508 mt 1294 1497 L
1462 1508 mt 1462 1497 L
1629 1508 mt 1629 1497 L
 899 1374 mt  909 1374 L
 899 1107 mt  909 1107 L
 899  840 mt  909  840 L
 899  573 mt  909  573 L
%%IncludeResource: font Helvetica
/Helvetica /WindowsLatin1Encoding 120 FMSR

 986  345 mt 
(P1:1 P1:1\(F\)) s
gs 899 440 857 1069 rc
gr

gs 826 367 1003 1215 rc
24 W
/c8 { 0.000000 0.000000 1.000000 sr} bdef
c8
1606 604 PD
24 W
1298 839 PD
24 W
1251 944 PD
24 W
1157 1131 PD
24 W
1057 1176 PD
24 W
1149 1177 PD
24 W
1068 1143 PD
24 W
1209 1026 PD
24 W
1303 854 PD
24 W
994 1336 PD
24 W
1237 1015 PD
24 W
1130 977 PD
24 W
1620 456 PD
24 W
1237 988 PD
24 W
1194 915 PD
24 W
1011 1174 PD
24 W
1027 1244 PD
24 W
1465 820 PD
24 W
1285 881 PD
24 W
1314 916 PD
24 W
1235 998 PD
24 W
1139 1227 PD
24 W
1144 1158 PD
24 W
1135 956 PD
24 W
1755 466 PD
24 W
1251 932 PD
24 W
1318 934 PD
24 W
1287 986 PD
24 W
1331 838 PD
24 W
1025 1328 PD
24 W
1245 975 PD
24 W
1304 805 PD
24 W
1205 1060 PD
24 W
1116 1107 PD
24 W
1164 989 PD
24 W
1148 1122 PD
24 W
1083 1183 PD
24 W
1371 695 PD
24 W
1289 951 PD
24 W
1293 849 PD
24 W
1272 1164 PD
24 W
1168 1097 PD
24 W
1229 1060 PD
24 W
1214 1022 PD
24 W
1264 915 PD
24 W
1217 1044 PD
24 W
1224 1159 PD
24 W
1126 1099 PD
24 W
1532 820 PD
24 W
1277 952 PD
24 W
1057 1186 PD
24 W
1266 962 PD
24 W
1356 827 PD
24 W
1299 892 PD
24 W
1158 1015 PD
24 W
1146 1097 PD
24 W
1075 1117 PD
24 W
1299 739 PD
24 W
1270 973 PD
24 W
1115 1163 PD
24 W
1327 854 PD
24 W
1197 1148 PD
24 W
1219 956 PD
24 W
1135 969 PD
24 W
1527 615 PD
24 W
1322 1019 PD
24 W
1579 695 PD
24 W
1167 1018 PD
24 W
1162 966 PD
24 W
1373 895 PD
24 W
1220 1050 PD
24 W
1300 850 PD
24 W
1447 970 PD
24 W
1222 1085 PD
24 W
1392 799 PD
24 W
1547 442 PD
24 W
1223 875 PD
24 W
1220 819 PD
24 W
1128 1096 PD
24 W
1244 856 PD
24 W
1280 971 PD
24 W
1068 1188 PD
24 W
1361 895 PD
24 W
1047 1287 PD
24 W
1122 1283 PD
24 W
1212 857 PD
24 W
1353 858 PD
24 W
1277 927 PD
24 W
1040 1309 PD
24 W
1215 1046 PD
24 W
1327 905 PD
24 W
1355 738 PD
24 W
1070 1115 PD
24 W
1574 684 PD
24 W
1306 1061 PD
24 W
1093 1178 PD
24 W
1165 1162 PD
24 W
1340 965 PD
24 W
1159 959 PD
24 W
1192 886 PD
24 W
1305 848 PD
24 W
1072 1300 PD
24 W
1194 970 PD
24 W
1218 928 PD
24 W
1283 1067 PD
24 W
1154 1156 PD
24 W
1257 934 PD
24 W
1097 1146 PD
24 W
994 1359 PD
24 W
1217 999 PD
24 W
1246 937 PD
24 W
1126 1107 PD
24 W
1459 787 PD
24 W
899 1508 PD
24 W
1256 846 PD
24 W
1504 794 PD
24 W
1098 1187 PD
24 W
1358 777 PD
24 W
1208 1007 PD
24 W
1152 1129 PD
24 W
1343 693 PD
24 W
952 1390 PD
24 W
1083 1267 PD
24 W
1100 1133 PD
24 W
1250 891 PD
24 W
1392 605 PD
24 W
1208 948 PD
24 W
1222 952 PD
24 W
1222 994 PD
24 W
1231 1017 PD
24 W
1379 822 PD
24 W
1215 1074 PD
24 W
1228 935 PD
24 W
1130 1109 PD
24 W
1173 1017 PD
24 W
1159 981 PD
24 W
1466 960 PD
24 W
1398 687 PD
24 W
1373 749 PD
24 W
1320 831 PD
24 W
1067 1301 PD
24 W
1407 826 PD
24 W
1143 1066 PD
24 W
1364 902 PD
24 W
1248 1009 PD
24 W
1075 1174 PD
24 W
1200 1055 PD
24 W
1279 826 PD
24 W
1375 895 PD
24 W
1180 986 PD
24 W
985 1267 PD
24 W
1000 1306 PD
24 W
1241 990 PD
24 W
1058 1141 PD
24 W
1175 1218 PD
24 W
1187 1149 PD
24 W
1396 1068 PD
24 W
1368 897 PD
24 W
1346 783 PD
24 W
1088 1213 PD
24 W
1066 1265 PD
24 W
1180 1213 PD
24 W
1353 842 PD
24 W
1014 1353 PD
24 W
1256 1046 PD
24 W
1087 1160 PD
24 W
1247 942 PD
24 W
1644 440 PD
24 W
1140 1131 PD
24 W
1076 1130 PD
24 W
1314 937 PD
24 W
1278 928 PD
24 W
1258 944 PD
24 W
1035 1206 PD
24 W
1227 965 PD
24 W
1091 1166 PD
24 W
1513 877 PD
24 W
1088 1210 PD
24 W
1164 891 PD
24 W
1264 880 PD
24 W
1116 1224 PD
24 W
919 1429 PD
24 W
1262 1070 PD
24 W
1404 908 PD
24 W
1082 1227 PD
24 W
1212 885 PD
24 W
1158 1116 PD
24 W
1016 1310 PD
24 W
971 1365 PD
24 W
1102 1222 PD
24 W
1128 1006 PD
24 W
1397 765 PD
24 W
1294 831 PD
24 W
1367 995 PD
24 W
1241 1044 PD
24 W
1262 958 PD
24 W
1117 1285 PD
24 W
1321 913 PD
24 W
1586 726 PD
24 W
1256 956 PD
gs 899 440 857 1069 rc
/c9 { 1.000000 0.000000 0.000000 sr} bdef
c9
646 -1033 899 1473 2 MP stroke
gr
gr

c9
1 sg
0 1068 856 0 0 -1068 2026 1508 4 MP
PP
-856 0 0 1068 856 0 0 -1068 2026 1508 5 MP stroke
4 w
DO
SO
6 w
0 sg
2026 1508 mt 2882 1508 L
2026 1508 mt 2026  440 L
2086 1508 mt 2086 1497 L
2593 1508 mt 2593 1497 L
2026 1494 mt 2036 1494 L
2026 1120 mt 2036 1120 L
2026  746 mt 2036  746 L
2113  344 mt 
(P1:2 P1:2\(F\)) s
gs 2026 439 857 1070 rc
gr

gs 1953 367 1003 1215 rc
24 W
c8
2617 666 PD
24 W
2302 943 PD
24 W
2365 847 PD
24 W
2189 1166 PD
24 W
2380 776 PD
24 W
2159 1346 PD
24 W
2303 987 PD
24 W
2087 1404 PD
24 W
2349 935 PD
24 W
2210 1262 PD
24 W
2347 975 PD
24 W
2292 1009 PD
24 W
2530 619 PD
24 W
2189 1159 PD
24 W
2274 1145 PD
24 W
2149 1211 PD
24 W
2283 1097 PD
24 W
2547 953 PD
24 W
2315 996 PD
24 W
2181 1244 PD
24 W
2274 793 PD
24 W
2197 1183 PD
24 W
2202 1265 PD
24 W
2230 1080 PD
24 W
2882 648 PD
24 W
2230 973 PD
24 W
2245 991 PD
24 W
2537 853 PD
24 W
2337 851 PD
24 W
2117 1312 PD
24 W
2110 1305 PD
24 W
2130 1174 PD
24 W
2334 1034 PD
24 W
2264 905 PD
24 W
2137 1124 PD
24 W
2243 1131 PD
24 W
2098 1295 PD
24 W
2259 983 PD
24 W
2347 763 PD
24 W
2385 907 PD
24 W
2372 921 PD
24 W
2179 1264 PD
24 W
2133 1262 PD
24 W
2383 995 PD
24 W
2220 990 PD
24 W
2273 1012 PD
24 W
2369 1140 PD
24 W
2310 943 PD
24 W
2332 948 PD
24 W
2505 820 PD
24 W
2228 1121 PD
24 W
2537 853 PD
24 W
2329 921 PD
24 W
2344 921 PD
24 W
2078 1322 PD
24 W
2297 1067 PD
24 W
2074 1353 PD
24 W
2287 866 PD
24 W
2293 902 PD
24 W
2359 872 PD
24 W
2508 754 PD
24 W
2204 1211 PD
24 W
2273 906 PD
24 W
2229 814 PD
24 W
2536 440 PD
24 W
2534 815 PD
24 W
2567 827 PD
24 W
2315 919 PD
24 W
2323 950 PD
24 W
2388 804 PD
24 W
2154 1210 PD
24 W
2300 1240 PD
24 W
2121 1163 PD
24 W
2296 988 PD
24 W
2278 1031 PD
24 W
2411 731 PD
24 W
2396 791 PD
24 W
2360 759 PD
24 W
2153 1325 PD
24 W
2182 1188 PD
24 W
2224 1184 PD
24 W
2128 1196 PD
24 W
2391 768 PD
24 W
2200 1090 PD
24 W
2159 1226 PD
24 W
2423 692 PD
24 W
2233 979 PD
24 W
2347 903 PD
24 W
2185 1119 PD
24 W
2155 1173 PD
24 W
2219 1066 PD
24 W
2505 616 PD
24 W
2361 1054 PD
24 W
2405 801 PD
24 W
2157 1235 PD
24 W
2144 1196 PD
24 W
2366 869 PD
24 W
2361 1069 PD
24 W
2291 919 PD
24 W
2465 795 PD
24 W
2176 1055 PD
24 W
2095 1434 PD
24 W
2158 1207 PD
24 W
2237 768 PD
24 W
2113 1230 PD
24 W
2191 1223 PD
24 W
2309 827 PD
24 W
2228 1086 PD
24 W
2225 1184 PD
24 W
2295 912 PD
24 W
2248 792 PD
24 W
2108 1182 PD
24 W
2314 725 PD
24 W
2120 1330 PD
24 W
2270 930 PD
24 W
2440 806 PD
24 W
2227 950 PD
24 W
2367 774 PD
24 W
2337 1120 PD
24 W
2264 905 PD
24 W
2213 962 PD
24 W
2069 1378 PD
24 W
2146 1328 PD
24 W
2215 1099 PD
24 W
2559 864 PD
24 W
2415 699 PD
24 W
2413 796 PD
24 W
2563 678 PD
24 W
2281 1119 PD
24 W
2150 1228 PD
24 W
2222 1012 PD
24 W
2279 1194 PD
24 W
2296 841 PD
24 W
2268 1012 PD
24 W
2589 664 PD
24 W
2137 1208 PD
24 W
2358 929 PD
24 W
2457 678 PD
24 W
2320 852 PD
24 W
2332 749 PD
24 W
2037 1508 PD
24 W
2521 726 PD
24 W
2175 1096 PD
24 W
2411 678 PD
24 W
2409 705 PD
24 W
2280 1177 PD
24 W
2090 1348 PD
24 W
2326 1000 PD
24 W
2520 816 PD
24 W
2372 851 PD
24 W
2110 1197 PD
24 W
2173 1199 PD
24 W
2520 605 PD
24 W
2284 1023 PD
24 W
2100 1383 PD
24 W
2112 1443 PD
24 W
2253 1219 PD
24 W
2245 1067 PD
24 W
2377 705 PD
24 W
2153 945 PD
24 W
2150 1187 PD
24 W
2272 1243 PD
24 W
2385 918 PD
24 W
2100 1368 PD
24 W
2407 691 PD
24 W
2277 989 PD
24 W
2304 971 PD
24 W
2560 541 PD
24 W
2711 467 PD
24 W
2116 1325 PD
24 W
2279 1019 PD
24 W
2246 1090 PD
24 W
2391 1042 PD
24 W
2081 1387 PD
24 W
2215 1079 PD
24 W
2119 1405 PD
24 W
2327 1093 PD
24 W
2129 1186 PD
24 W
2101 1209 PD
24 W
2164 1150 PD
24 W
2256 1077 PD
24 W
2212 1088 PD
24 W
2151 968 PD
24 W
2449 726 PD
24 W
2357 775 PD
24 W
2344 839 PD
24 W
2202 1228 PD
24 W
2026 1377 PD
24 W
2103 1403 PD
24 W
2242 1105 PD
24 W
2221 1156 PD
24 W
2335 712 PD
24 W
2535 788 PD
24 W
2413 785 PD
24 W
2425 796 PD
24 W
2373 890 PD
24 W
2132 1322 PD
24 W
2205 1259 PD
24 W
2570 1060 PD
24 W
2199 951 PD
gs 2026 439 857 1070 rc
c9
530 -978 2026 1418 2 MP stroke
gr
gr

c9
1 sg
0 1068 856 0 0 -1068 3152 1508 4 MP
PP
-856 0 0 1068 856 0 0 -1068 3152 1508 5 MP stroke
4 w
DO
SO
6 w
0 sg
3152 1508 mt 4008 1508 L
3152 1508 mt 3152  440 L
3319 1508 mt 3319 1497 L
3663 1508 mt 3663 1497 L
4007 1508 mt 4007 1497 L
3152 1397 mt 3162 1397 L
3152 1211 mt 3162 1211 L
3152 1026 mt 3162 1026 L
3152  841 mt 3162  841 L
3152  655 mt 3162  655 L
3152  470 mt 3162  470 L
3235  345 mt 
(P1:3 P1:3\(S\)) s
gs 3152 440 857 1069 rc
gr

gs 3079 367 1003 1215 rc
24 W
c8
3462 995 PD
24 W
3299 1218 PD
24 W
3266 1372 PD
24 W
3166 1476 PD
24 W
3378 1288 PD
24 W
3273 1296 PD
24 W
3409 1167 PD
24 W
3201 1412 PD
24 W
3445 1144 PD
24 W
3503 1021 PD
24 W
3393 1250 PD
24 W
3222 1413 PD
24 W
3384 1193 PD
24 W
3398 1130 PD
24 W
3485 1089 PD
24 W
3495 987 PD
24 W
3572 938 PD
24 W
3346 1316 PD
24 W
3177 1452 PD
24 W
3321 1331 PD
24 W
3339 1356 PD
24 W
3344 1311 PD
24 W
3171 1489 PD
24 W
3321 1276 PD
24 W
3221 1410 PD
24 W
3466 1187 PD
24 W
3248 1337 PD
24 W
3244 1355 PD
24 W
3252 1391 PD
24 W
3250 1377 PD
24 W
3228 1386 PD
24 W
3339 1188 PD
24 W
3317 1295 PD
24 W
3196 1435 PD
24 W
3354 1341 PD
24 W
3191 1452 PD
24 W
3517 991 PD
24 W
3355 1200 PD
24 W
3385 1307 PD
24 W
3329 1313 PD
24 W
3176 1473 PD
24 W
3349 1274 PD
24 W
3300 1371 PD
24 W
3370 1151 PD
24 W
3278 1375 PD
24 W
3247 1339 PD
24 W
3422 1156 PD
24 W
3229 1393 PD
24 W
3180 1452 PD
24 W
3182 1462 PD
24 W
3229 1391 PD
24 W
3487 1213 PD
24 W
3297 1311 PD
24 W
3350 1251 PD
24 W
3302 1356 PD
24 W
3212 1420 PD
24 W
3270 1356 PD
24 W
3167 1493 PD
24 W
3174 1469 PD
24 W
3215 1369 PD
24 W
3445 1203 PD
24 W
3472 1201 PD
24 W
3213 1408 PD
24 W
3459 1083 PD
24 W
3302 1283 PD
24 W
3372 1093 PD
24 W
3476 1124 PD
24 W
3408 1163 PD
24 W
3193 1453 PD
24 W
3194 1427 PD
24 W
3365 1305 PD
24 W
3255 1367 PD
24 W
3178 1464 PD
24 W
3279 1369 PD
24 W
3356 1279 PD
24 W
3462 1130 PD
24 W
3515 1053 PD
24 W
3205 1456 PD
24 W
3240 1404 PD
24 W
3309 1394 PD
24 W
3490 1146 PD
24 W
3374 1198 PD
24 W
3179 1475 PD
24 W
3178 1472 PD
24 W
3209 1430 PD
24 W
3202 1441 PD
24 W
3228 1399 PD
24 W
3447 1090 PD
24 W
3262 1400 PD
24 W
3249 1357 PD
24 W
3169 1501 PD
24 W
3179 1465 PD
24 W
3198 1445 PD
24 W
3198 1446 PD
24 W
3273 1390 PD
24 W
3251 1421 PD
24 W
3259 1353 PD
24 W
3225 1407 PD
24 W
3323 1334 PD
24 W
3152 1506 PD
24 W
4008 440 PD
24 W
3291 1387 PD
24 W
3460 919 PD
24 W
3359 1288 PD
24 W
3260 1451 PD
24 W
3323 1282 PD
24 W
3180 1445 PD
24 W
3410 1175 PD
24 W
3223 1410 PD
24 W
3182 1443 PD
24 W
3290 1267 PD
24 W
3281 1336 PD
24 W
3429 1213 PD
24 W
3196 1438 PD
24 W
3260 1381 PD
24 W
3382 1262 PD
24 W
3276 1316 PD
24 W
3215 1388 PD
24 W
3300 1387 PD
24 W
3363 1313 PD
24 W
3322 1336 PD
24 W
3287 1247 PD
24 W
3273 1376 PD
24 W
3206 1408 PD
24 W
3311 1206 PD
24 W
3272 1382 PD
24 W
3233 1393 PD
24 W
3201 1455 PD
24 W
3162 1479 PD
24 W
3209 1426 PD
24 W
3247 1341 PD
24 W
3440 1235 PD
24 W
3272 1391 PD
24 W
3389 1218 PD
24 W
3276 1284 PD
24 W
3317 1273 PD
24 W
3260 1403 PD
24 W
3542 975 PD
24 W
3312 1387 PD
24 W
3278 1295 PD
24 W
3322 1302 PD
24 W
3447 1150 PD
24 W
3298 1386 PD
24 W
3199 1442 PD
24 W
3201 1445 PD
24 W
3297 1333 PD
24 W
3620 1042 PD
24 W
3303 1295 PD
24 W
3374 1212 PD
24 W
3404 1216 PD
24 W
3514 1179 PD
24 W
3192 1448 PD
24 W
3207 1406 PD
24 W
3236 1384 PD
24 W
3407 1002 PD
24 W
3326 1302 PD
24 W
3249 1404 PD
24 W
3331 1280 PD
24 W
3346 1281 PD
24 W
3417 1276 PD
24 W
3303 1330 PD
24 W
3245 1416 PD
24 W
3181 1459 PD
24 W
3243 1411 PD
24 W
3183 1474 PD
24 W
3204 1449 PD
24 W
3221 1401 PD
24 W
3249 1360 PD
24 W
3331 1351 PD
24 W
3304 1319 PD
24 W
3235 1371 PD
24 W
3202 1441 PD
24 W
3180 1477 PD
24 W
3178 1483 PD
24 W
3256 1373 PD
24 W
3276 1360 PD
24 W
3161 1508 PD
24 W
3168 1486 PD
24 W
3193 1450 PD
24 W
3189 1440 PD
24 W
3239 1389 PD
24 W
3196 1437 PD
24 W
3241 1360 PD
24 W
3231 1379 PD
24 W
3257 1376 PD
24 W
3266 1332 PD
24 W
3204 1456 PD
24 W
3369 1244 PD
24 W
3531 987 PD
24 W
3338 1239 PD
24 W
3215 1387 PD
24 W
3196 1457 PD
24 W
3286 1359 PD
24 W
3453 1270 PD
24 W
3420 1234 PD
24 W
3403 1209 PD
24 W
3242 1422 PD
24 W
3252 1377 PD
24 W
3387 1316 PD
24 W
3245 1405 PD
gs 3152 440 857 1069 rc
c9
793 -1069 3168 1509 2 MP stroke
gr
gr

c9
1 sg
0 1068 856 0 0 -1068 4278 1508 4 MP
PP
-856 0 0 1068 856 0 0 -1068 4278 1508 5 MP stroke
4 w
DO
SO
6 w
0 sg
4278 1508 mt 5134 1508 L
4278 1508 mt 4278  440 L
4311 1508 mt 4311 1497 L
4768 1508 mt 4768 1497 L
4278 1460 mt 4288 1460 L
4278 1190 mt 4288 1190 L
4278  919 mt 4288  919 L
4278  648 mt 4288  648 L
4361  344 mt 
(P1:4 P1:4\(S\)) s
gs 4278 439 857 1070 rc
gr

gs 4205 367 1003 1215 rc
24 W
c8
4779 979 PD
24 W
4567 1087 PD
24 W
4552 1065 PD
24 W
4489 1155 PD
24 W
4661 1114 PD
24 W
4432 1269 PD
24 W
4646 1154 PD
24 W
4306 1419 PD
24 W
4689 1088 PD
24 W
4723 1047 PD
24 W
4573 1184 PD
24 W
4392 1338 PD
24 W
4609 1151 PD
24 W
4535 1128 PD
24 W
4564 1256 PD
24 W
4679 1064 PD
24 W
4738 1088 PD
24 W
4404 1390 PD
24 W
4476 1209 PD
24 W
4529 1251 PD
24 W
4381 1402 PD
24 W
4852 828 PD
24 W
4394 1347 PD
24 W
4658 951 PD
24 W
4618 931 PD
24 W
4441 1335 PD
24 W
4333 1378 PD
24 W
4410 1328 PD
24 W
4593 1182 PD
24 W
4400 1304 PD
24 W
4278 1489 PD
24 W
4494 1098 PD
24 W
4457 1337 PD
24 W
4626 1146 PD
24 W
4629 1227 PD
24 W
4426 1296 PD
24 W
4584 1253 PD
24 W
4387 1348 PD
24 W
4560 1286 PD
24 W
4576 1224 PD
24 W
4391 1159 PD
24 W
4591 1132 PD
24 W
4428 1326 PD
24 W
4920 600 PD
24 W
4378 1366 PD
24 W
4507 1125 PD
24 W
4639 1180 PD
24 W
4651 931 PD
24 W
4484 1157 PD
24 W
4485 1097 PD
24 W
4587 1065 PD
24 W
4423 1332 PD
24 W
4454 1343 PD
24 W
4433 1315 PD
24 W
4471 1279 PD
24 W
4435 1192 PD
24 W
4424 1309 PD
24 W
4457 1185 PD
24 W
4420 1253 PD
24 W
4494 1144 PD
24 W
4775 1033 PD
24 W
5062 549 PD
24 W
4914 623 PD
24 W
4761 983 PD
24 W
4625 1074 PD
24 W
4958 937 PD
24 W
4597 1236 PD
24 W
4513 1252 PD
24 W
4489 1155 PD
24 W
4464 1112 PD
24 W
4425 1307 PD
24 W
4421 1305 PD
24 W
4523 1152 PD
24 W
4502 1257 PD
24 W
4508 1280 PD
24 W
4532 1232 PD
24 W
4745 974 PD
24 W
4697 1048 PD
24 W
4420 1336 PD
24 W
4464 1340 PD
24 W
4713 1128 PD
24 W
4520 1207 PD
24 W
4691 1201 PD
24 W
4321 1381 PD
24 W
4535 1181 PD
24 W
4578 1105 PD
24 W
4380 1335 PD
24 W
4625 1142 PD
24 W
4386 1388 PD
24 W
4630 1003 PD
24 W
4433 1319 PD
24 W
4504 1156 PD
24 W
4385 1320 PD
24 W
4442 1257 PD
24 W
4483 1263 PD
24 W
4391 1384 PD
24 W
4464 1151 PD
24 W
4490 1226 PD
24 W
4366 1412 PD
24 W
4463 1053 PD
24 W
5134 687 PD
24 W
4377 1373 PD
24 W
4802 879 PD
24 W
4438 1316 PD
24 W
4358 1435 PD
24 W
4381 1375 PD
24 W
4458 1170 PD
24 W
4692 1117 PD
24 W
4397 1242 PD
24 W
4476 1112 PD
24 W
4402 1313 PD
24 W
4435 1302 PD
24 W
4494 1291 PD
24 W
4629 948 PD
24 W
4696 1106 PD
24 W
4698 1097 PD
24 W
4552 1060 PD
24 W
4466 1144 PD
24 W
4346 1416 PD
24 W
4410 1374 PD
24 W
4362 1406 PD
24 W
4405 1167 PD
24 W
4376 1338 PD
24 W
4601 674 PD
24 W
4660 844 PD
24 W
4548 1176 PD
24 W
4505 1228 PD
24 W
4634 1099 PD
24 W
4423 1272 PD
24 W
4474 1188 PD
24 W
4609 1088 PD
24 W
4521 1282 PD
24 W
4380 1363 PD
24 W
4537 1290 PD
24 W
4486 1171 PD
24 W
4518 1224 PD
24 W
4280 1508 PD
24 W
4558 1239 PD
24 W
4436 1350 PD
24 W
4589 1018 PD
24 W
4521 1259 PD
24 W
4777 1000 PD
24 W
4389 1403 PD
24 W
4454 1149 PD
24 W
4472 1176 PD
24 W
4989 791 PD
24 W
4567 1200 PD
24 W
4759 987 PD
24 W
4407 1295 PD
24 W
4625 1146 PD
24 W
4667 1095 PD
24 W
4290 1461 PD
24 W
4577 1145 PD
24 W
4405 1328 PD
24 W
4748 1037 PD
24 W
4440 1329 PD
24 W
4607 1154 PD
24 W
4528 1005 PD
24 W
4502 1279 PD
24 W
4690 1161 PD
24 W
4630 1120 PD
24 W
4438 1342 PD
24 W
4709 882 PD
24 W
4569 1195 PD
24 W
4413 1299 PD
24 W
4410 1237 PD
24 W
4377 1369 PD
24 W
4414 1210 PD
24 W
4492 1229 PD
24 W
4445 1293 PD
24 W
4464 1165 PD
24 W
4523 1087 PD
24 W
4443 1180 PD
24 W
4621 955 PD
24 W
4552 1118 PD
24 W
4429 1317 PD
24 W
4449 1287 PD
24 W
4381 1250 PD
24 W
4675 925 PD
24 W
4446 1176 PD
24 W
4472 1174 PD
24 W
4813 1070 PD
24 W
4613 1001 PD
24 W
4728 958 PD
24 W
4528 1144 PD
24 W
4623 1118 PD
24 W
4689 932 PD
24 W
4901 950 PD
24 W
4764 1082 PD
24 W
5066 440 PD
24 W
4652 1033 PD
24 W
4958 721 PD
24 W
4420 1330 PD
24 W
4536 1257 PD
24 W
4719 1054 PD
24 W
4886 875 PD
24 W
4451 1324 PD
24 W
4793 881 PD
24 W
4533 1227 PD
24 W
4491 1273 PD
gs 4278 439 857 1070 rc
c9
857 -1016 4278 1500 2 MP stroke
gr
gr

c9
1 sg
0 1068 856 0 0 -1068 5405 1508 4 MP
PP
-856 0 0 1068 856 0 0 -1068 5405 1508 5 MP stroke
4 w
DO
SO
6 w
0 sg
5405 1508 mt 6261 1508 L
5405 1508 mt 5405  440 L
5638 1508 mt 5638 1497 L
5909 1508 mt 5909 1497 L
6181 1508 mt 6181 1497 L
5405 1254 mt 5415 1254 L
5405  898 mt 5415  898 L
5405  542 mt 5415  542 L
5488  345 mt 
(P1:5 P1:5\(S\)) s
gs 5405 440 857 1069 rc
gr

gs 5332 367 1003 1215 rc
24 W
c8
5651 1072 PD
24 W
5761 826 PD
24 W
5756 1013 PD
24 W
5700 1163 PD
24 W
5647 1168 PD
24 W
5615 1104 PD
24 W
5625 1205 PD
24 W
5420 1411 PD
24 W
5838 938 PD
24 W
5639 1081 PD
24 W
5634 1180 PD
24 W
5670 1295 PD
24 W
5575 1260 PD
24 W
5686 1020 PD
24 W
5738 1125 PD
24 W
5746 958 PD
24 W
5792 1008 PD
24 W
5536 1339 PD
24 W
5816 1074 PD
24 W
5506 1352 PD
24 W
5522 1419 PD
24 W
5924 727 PD
24 W
5778 1125 PD
24 W
5903 883 PD
24 W
5907 847 PD
24 W
5643 1260 PD
24 W
5466 1336 PD
24 W
5490 1283 PD
24 W
5752 1155 PD
24 W
5596 1145 PD
24 W
5405 1374 PD
24 W
5769 994 PD
24 W
5630 1161 PD
24 W
5900 936 PD
24 W
5593 1284 PD
24 W
5612 1299 PD
24 W
5779 977 PD
24 W
5732 851 PD
24 W
5537 1412 PD
24 W
5599 1202 PD
24 W
5642 1110 PD
24 W
5653 1131 PD
24 W
5513 1359 PD
24 W
6169 469 PD
24 W
5547 1343 PD
24 W
5808 895 PD
24 W
5612 1237 PD
24 W
5819 879 PD
24 W
5659 1231 PD
24 W
5764 1077 PD
24 W
5871 922 PD
24 W
5691 1184 PD
24 W
5468 1405 PD
24 W
5562 1298 PD
24 W
5484 1395 PD
24 W
5591 1230 PD
24 W
5464 1363 PD
24 W
5542 1389 PD
24 W
5537 1289 PD
24 W
5637 1173 PD
24 W
5570 1310 PD
24 W
6000 567 PD
24 W
5969 758 PD
24 W
5736 1051 PD
24 W
5817 758 PD
24 W
5782 1086 PD
24 W
5742 1099 PD
24 W
5674 1086 PD
24 W
5687 1217 PD
24 W
5656 1133 PD
24 W
5537 1342 PD
24 W
5424 1407 PD
24 W
5767 1027 PD
24 W
5536 1329 PD
24 W
5542 1296 PD
24 W
5653 1115 PD
24 W
5746 975 PD
24 W
5808 1112 PD
24 W
5526 1321 PD
24 W
5417 1508 PD
24 W
5843 923 PD
24 W
5652 1114 PD
24 W
5821 1066 PD
24 W
5593 1319 PD
24 W
5805 987 PD
24 W
5646 1192 PD
24 W
5680 1067 PD
24 W
5639 1155 PD
24 W
5502 1383 PD
24 W
5888 866 PD
24 W
5673 1237 PD
24 W
5707 1183 PD
24 W
5767 1091 PD
24 W
5728 1178 PD
24 W
5568 1278 PD
24 W
5546 1239 PD
24 W
5745 1035 PD
24 W
5593 1299 PD
24 W
5521 1309 PD
24 W
5543 1145 PD
24 W
6130 440 PD
24 W
5429 1494 PD
24 W
5924 651 PD
24 W
5555 1312 PD
24 W
5451 1447 PD
24 W
5573 1281 PD
24 W
5662 1093 PD
24 W
5551 1289 PD
24 W
5687 1177 PD
24 W
5635 1186 PD
24 W
5534 1202 PD
24 W
5481 1359 PD
24 W
5594 1235 PD
24 W
5843 1002 PD
24 W
5921 971 PD
24 W
5749 1049 PD
24 W
5990 840 PD
24 W
5623 1186 PD
24 W
5569 1287 PD
24 W
5563 1327 PD
24 W
5580 1340 PD
24 W
5711 1026 PD
24 W
5531 1340 PD
24 W
5749 867 PD
24 W
5788 863 PD
24 W
5462 1360 PD
24 W
5797 1076 PD
24 W
5752 1117 PD
24 W
5724 1169 PD
24 W
5875 999 PD
24 W
5867 1033 PD
24 W
5611 1272 PD
24 W
5440 1447 PD
24 W
5615 1316 PD
24 W
5842 866 PD
24 W
5638 1110 PD
24 W
5493 1431 PD
24 W
5673 1097 PD
24 W
5597 1304 PD
24 W
5803 934 PD
24 W
5584 1186 PD
24 W
5639 1114 PD
24 W
5537 1384 PD
24 W
5679 1122 PD
24 W
5573 1296 PD
24 W
5919 914 PD
24 W
5852 909 PD
24 W
5891 969 PD
24 W
5650 1060 PD
24 W
5702 1109 PD
24 W
5701 1089 PD
24 W
5414 1465 PD
24 W
5756 1108 PD
24 W
5437 1420 PD
24 W
5701 1035 PD
24 W
5527 1282 PD
24 W
5902 1010 PD
24 W
5859 866 PD
24 W
5504 1358 PD
24 W
5556 1315 PD
24 W
5550 1255 PD
24 W
5463 1427 PD
24 W
5855 906 PD
24 W
5809 1107 PD
24 W
5695 1233 PD
24 W
5694 1208 PD
24 W
5500 1278 PD
24 W
5836 974 PD
24 W
5657 1260 PD
24 W
5569 1219 PD
24 W
5785 1054 PD
24 W
5778 1035 PD
24 W
5593 1292 PD
24 W
5667 1216 PD
24 W
5851 956 PD
24 W
5482 1374 PD
24 W
5604 1353 PD
24 W
5639 1130 PD
24 W
5809 990 PD
24 W
5677 1176 PD
24 W
5949 868 PD
24 W
5913 918 PD
24 W
5796 936 PD
24 W
5973 735 PD
24 W
5852 967 PD
24 W
5860 833 PD
24 W
5892 977 PD
24 W
5875 899 PD
24 W
5872 872 PD
24 W
6261 442 PD
24 W
5821 1033 PD
24 W
6144 618 PD
24 W
5522 1313 PD
24 W
5586 1306 PD
24 W
5696 1097 PD
24 W
5642 1231 PD
24 W
5414 1492 PD
24 W
5812 969 PD
24 W
5570 1273 PD
24 W
5458 1404 PD
gs 5405 440 857 1069 rc
c9
815 -1069 5444 1509 2 MP stroke
gr
gr

c9
1 sg
0 1069 856 0 0 -1069 899 3062 4 MP
PP
-856 0 0 1069 856 0 0 -1069 899 3062 5 MP stroke
4 w
DO
SO
6 w
0 sg
 899 3062 mt 1755 3062 L
 899 3062 mt  899 1993 L
1037 3062 mt 1037 3051 L
1297 3062 mt 1297 3051 L
1558 3062 mt 1558 3051 L
 899 2888 mt  909 2888 L
 899 2705 mt  909 2705 L
 899 2521 mt  909 2521 L
 899 2338 mt  909 2338 L
 899 2154 mt  909 2154 L
 986 1898 mt 
(P1:6 P1:6\(F\)) s
gs 899 1993 857 1070 rc
gr

gs 826 1920 1003 1216 rc
24 W
c8
1315 2694 PD
24 W
1001 3055 PD
24 W
1343 2871 PD
24 W
1068 2926 PD
24 W
924 3049 PD
24 W
1251 2923 PD
24 W
1200 2921 PD
24 W
1035 2740 PD
24 W
1044 2809 PD
24 W
1402 2569 PD
24 W
1275 2760 PD
24 W
980 2813 PD
24 W
1161 2853 PD
24 W
1274 2854 PD
24 W
1148 2832 PD
24 W
1022 2596 PD
24 W
1337 2772 PD
24 W
1176 2960 PD
24 W
1386 2618 PD
24 W
1013 2798 PD
24 W
899 3037 PD
24 W
1237 2570 PD
24 W
975 2984 PD
24 W
1168 2571 PD
24 W
1302 2808 PD
24 W
1183 2898 PD
24 W
1049 2893 PD
24 W
1371 2967 PD
24 W
1059 2912 PD
24 W
1025 2982 PD
24 W
1281 2911 PD
24 W
1040 2762 PD
24 W
1179 2662 PD
24 W
1062 2940 PD
24 W
960 2977 PD
24 W
1239 2731 PD
24 W
1021 2887 PD
24 W
958 2890 PD
24 W
1154 2790 PD
24 W
1222 2871 PD
24 W
1078 2779 PD
24 W
1174 2711 PD
24 W
1255 2713 PD
24 W
1257 2947 PD
24 W
1250 2224 PD
24 W
1040 2696 PD
24 W
1130 3023 PD
24 W
1149 2905 PD
24 W
1105 2862 PD
24 W
1251 2917 PD
24 W
994 2920 PD
24 W
1080 2911 PD
24 W
1324 2728 PD
24 W
1081 2861 PD
24 W
1045 3051 PD
24 W
1244 2974 PD
24 W
1094 2724 PD
24 W
1069 2834 PD
24 W
1755 2345 PD
24 W
1376 2771 PD
24 W
942 2982 PD
24 W
930 2897 PD
24 W
1158 2707 PD
24 W
966 2794 PD
24 W
1666 2861 PD
24 W
1134 2893 PD
24 W
1415 2812 PD
24 W
1209 2832 PD
24 W
1427 2604 PD
24 W
1440 2808 PD
24 W
1353 2116 PD
24 W
1108 2904 PD
24 W
965 3041 PD
24 W
1167 2906 PD
24 W
1293 2852 PD
24 W
1108 2866 PD
24 W
1243 2395 PD
24 W
1399 2829 PD
24 W
1264 2416 PD
24 W
961 2934 PD
24 W
1258 2591 PD
24 W
1099 2844 PD
24 W
1565 2419 PD
24 W
920 2931 PD
24 W
925 2993 PD
24 W
994 2923 PD
24 W
1162 2928 PD
24 W
1579 2882 PD
24 W
905 3057 PD
24 W
975 2958 PD
24 W
1127 2950 PD
24 W
1179 2454 PD
24 W
1069 2798 PD
24 W
1088 2866 PD
24 W
1155 2865 PD
24 W
1163 2918 PD
24 W
913 2985 PD
24 W
1061 2850 PD
24 W
1219 2728 PD
24 W
1047 2734 PD
24 W
1164 2787 PD
24 W
1059 2967 PD
24 W
1558 2769 PD
24 W
975 2900 PD
24 W
980 2870 PD
24 W
996 2929 PD
24 W
1217 2511 PD
24 W
1179 2958 PD
24 W
1097 2841 PD
24 W
962 2938 PD
24 W
1240 1993 PD
24 W
1114 2901 PD
24 W
1081 2662 PD
24 W
1125 2883 PD
24 W
1114 2882 PD
24 W
1118 2725 PD
24 W
1155 2709 PD
24 W
1228 2839 PD
24 W
1358 2545 PD
24 W
1137 2795 PD
24 W
936 2896 PD
24 W
1516 2626 PD
24 W
1174 2765 PD
24 W
937 2954 PD
24 W
1366 2798 PD
24 W
1301 2958 PD
24 W
1138 2862 PD
24 W
1278 2895 PD
24 W
1412 2707 PD
24 W
1286 2784 PD
24 W
1181 2731 PD
24 W
1155 2940 PD
24 W
1123 2636 PD
24 W
973 2837 PD
24 W
1170 2647 PD
24 W
1024 2589 PD
24 W
1307 2795 PD
24 W
1217 2870 PD
24 W
1239 2915 PD
24 W
1376 2607 PD
24 W
1074 2904 PD
24 W
1259 2867 PD
24 W
1071 2947 PD
24 W
1010 2952 PD
24 W
983 2896 PD
24 W
1009 2995 PD
24 W
1254 2558 PD
24 W
1136 2719 PD
24 W
1541 2639 PD
24 W
1265 2923 PD
24 W
1553 2452 PD
24 W
931 2999 PD
24 W
1199 2669 PD
24 W
1007 2779 PD
24 W
1595 2821 PD
24 W
996 2937 PD
24 W
1522 2964 PD
24 W
1044 3009 PD
24 W
1122 2818 PD
24 W
957 3013 PD
24 W
978 2956 PD
24 W
1308 2769 PD
24 W
1457 2600 PD
24 W
989 3013 PD
24 W
970 3062 PD
24 W
1196 2883 PD
24 W
1179 2330 PD
24 W
1011 2827 PD
24 W
1188 2817 PD
24 W
1013 2771 PD
24 W
1173 2753 PD
24 W
988 2882 PD
24 W
1160 2888 PD
24 W
1049 2877 PD
24 W
1176 2874 PD
24 W
1421 2449 PD
24 W
1177 2893 PD
24 W
923 3007 PD
24 W
1038 2785 PD
24 W
1005 2864 PD
24 W
1078 2875 PD
24 W
985 2996 PD
24 W
1242 2677 PD
24 W
1754 2326 PD
24 W
1052 2710 PD
24 W
1080 2557 PD
24 W
1126 2826 PD
24 W
1031 2969 PD
24 W
938 2839 PD
24 W
966 2769 PD
24 W
954 2956 PD
24 W
1017 2823 PD
24 W
1074 2889 PD
24 W
1005 2884 PD
24 W
1035 3011 PD
24 W
1003 2885 PD
24 W
1092 2714 PD
24 W
1044 2879 PD
24 W
1268 2912 PD
24 W
1029 2972 PD
gs 899 1993 857 1070 rc
c9
759 -1070 913 3063 2 MP stroke
gr
gr

c9
1 sg
0 1069 856 0 0 -1069 2026 3062 4 MP
PP
-856 0 0 1069 856 0 0 -1069 2026 3062 5 MP stroke
4 w
DO
SO
6 w
0 sg
2026 3062 mt 2882 3062 L
2026 3062 mt 2026 1993 L
2192 3062 mt 2192 3051 L
2679 3062 mt 2679 3051 L
2026 2961 mt 2036 2961 L
2026 2736 mt 2036 2736 L
2026 2512 mt 2036 2512 L
2026 2288 mt 2036 2288 L
2026 2064 mt 2036 2064 L
2113 1898 mt 
(P1:7 P1:7\(F\)) s
gs 2026 1993 857 1070 rc
gr

gs 1953 1920 1003 1216 rc
24 W
c8
2422 2585 PD
24 W
2085 2999 PD
24 W
2270 2879 PD
24 W
2196 2907 PD
24 W
2036 3024 PD
24 W
2221 2883 PD
24 W
2352 2718 PD
24 W
2273 2657 PD
24 W
2132 2853 PD
24 W
2532 2535 PD
24 W
2390 2687 PD
24 W
2162 2796 PD
24 W
2251 2799 PD
24 W
2401 2725 PD
24 W
2194 2820 PD
24 W
2301 2456 PD
24 W
2365 2756 PD
24 W
2298 2892 PD
24 W
2523 2586 PD
24 W
2103 2864 PD
24 W
2050 2964 PD
24 W
2317 2638 PD
24 W
2202 2837 PD
24 W
2398 2616 PD
24 W
2483 2639 PD
24 W
2186 2885 PD
24 W
2145 2859 PD
24 W
2512 2718 PD
24 W
2236 2842 PD
24 W
2085 2969 PD
24 W
2294 2791 PD
24 W
2249 2691 PD
24 W
2409 2707 PD
24 W
2062 2933 PD
24 W
2164 2862 PD
24 W
2329 2702 PD
24 W
2186 2839 PD
24 W
2096 2910 PD
24 W
2309 2756 PD
24 W
2274 2778 PD
24 W
2272 2680 PD
24 W
2482 2557 PD
24 W
2326 2655 PD
24 W
2155 2966 PD
24 W
2787 1993 PD
24 W
2247 2671 PD
24 W
2282 2887 PD
24 W
2330 2774 PD
24 W
2183 2869 PD
24 W
2240 2846 PD
24 W
2148 2906 PD
24 W
2267 2854 PD
24 W
2165 2821 PD
24 W
2264 2807 PD
24 W
2046 3062 PD
24 W
2357 2814 PD
24 W
2209 2693 PD
24 W
2277 2730 PD
24 W
2825 2231 PD
24 W
2407 2748 PD
24 W
2106 2955 PD
24 W
2068 2904 PD
24 W
2426 2538 PD
24 W
2330 2415 PD
24 W
2416 2736 PD
24 W
2275 2830 PD
24 W
2442 2713 PD
24 W
2335 2783 PD
24 W
2349 2660 PD
24 W
2406 2745 PD
24 W
2534 2200 PD
24 W
2221 2889 PD
24 W
2053 3011 PD
24 W
2268 2830 PD
24 W
2379 2756 PD
24 W
2256 2777 PD
24 W
2544 2254 PD
24 W
2417 2741 PD
24 W
2410 2486 PD
24 W
2104 2958 PD
24 W
2521 2436 PD
24 W
2306 2741 PD
24 W
2632 2499 PD
24 W
2041 2931 PD
24 W
2026 3000 PD
24 W
2187 2832 PD
24 W
2264 2830 PD
24 W
2675 2550 PD
24 W
2030 3044 PD
24 W
2139 2904 PD
24 W
2287 2831 PD
24 W
2473 2455 PD
24 W
2251 2746 PD
24 W
2179 2836 PD
24 W
2239 2857 PD
24 W
2180 2906 PD
24 W
2051 2972 PD
24 W
2139 2889 PD
24 W
2456 2582 PD
24 W
2155 2779 PD
24 W
2273 2739 PD
24 W
2186 2864 PD
24 W
2514 2553 PD
24 W
2141 2844 PD
24 W
2060 2930 PD
24 W
2201 2808 PD
24 W
2256 2661 PD
24 W
2279 2871 PD
24 W
2400 2675 PD
24 W
2125 2857 PD
24 W
2615 2015 PD
24 W
2179 2868 PD
24 W
2220 2767 PD
24 W
2136 2919 PD
24 W
2241 2846 PD
24 W
2229 2725 PD
24 W
2381 2677 PD
24 W
2275 2787 PD
24 W
2480 2592 PD
24 W
2330 2710 PD
24 W
2073 2904 PD
24 W
2408 2661 PD
24 W
2271 2804 PD
24 W
2133 2850 PD
24 W
2343 2729 PD
24 W
2292 2835 PD
24 W
2277 2762 PD
24 W
2420 2705 PD
24 W
2472 2604 PD
24 W
2239 2814 PD
24 W
2523 2481 PD
24 W
2189 2902 PD
24 W
2343 2600 PD
24 W
2142 2783 PD
24 W
2316 2682 PD
24 W
2232 2651 PD
24 W
2293 2807 PD
24 W
2291 2809 PD
24 W
2293 2823 PD
24 W
2437 2676 PD
24 W
2214 2867 PD
24 W
2466 2693 PD
24 W
2333 2704 PD
24 W
2125 2892 PD
24 W
2143 2806 PD
24 W
2094 2979 PD
24 W
2265 2689 PD
24 W
2187 2818 PD
24 W
2697 2496 PD
24 W
2286 2835 PD
24 W
2882 2204 PD
24 W
2064 2963 PD
24 W
2363 2707 PD
24 W
2225 2735 PD
24 W
2550 2785 PD
24 W
2151 2836 PD
24 W
2255 2921 PD
24 W
2136 2922 PD
24 W
2278 2768 PD
24 W
2066 2981 PD
24 W
2126 2933 PD
24 W
2383 2749 PD
24 W
2495 2580 PD
24 W
2163 2910 PD
24 W
2083 3041 PD
24 W
2384 2811 PD
24 W
2409 2391 PD
24 W
2186 2781 PD
24 W
2295 2769 PD
24 W
2207 2777 PD
24 W
2223 2759 PD
24 W
2122 2873 PD
24 W
2237 2844 PD
24 W
2109 2941 PD
24 W
2212 2871 PD
24 W
2549 2479 PD
24 W
2338 2770 PD
24 W
2034 2987 PD
24 W
2275 2662 PD
24 W
2207 2747 PD
24 W
2135 2918 PD
24 W
2091 2993 PD
24 W
2247 2767 PD
24 W
2429 2527 PD
24 W
2189 2745 PD
24 W
2324 2613 PD
24 W
2177 2879 PD
24 W
2229 2803 PD
24 W
2066 2901 PD
24 W
2178 2796 PD
24 W
2094 2855 PD
24 W
2212 2756 PD
24 W
2247 2758 PD
24 W
2101 2912 PD
24 W
2151 2971 PD
24 W
2284 2691 PD
24 W
2301 2797 PD
24 W
2208 2796 PD
24 W
2347 2852 PD
24 W
2176 2873 PD
gs 2026 1993 857 1070 rc
c9
857 -984 2026 3039 2 MP stroke
gr
gr

c9
1 sg
0 1070 856 0 0 -1070 3152 3062 4 MP
PP
-856 0 0 1070 856 0 0 -1070 3152 3062 5 MP stroke
4 w
DO
SO
6 w
0 sg
3152 3062 mt 4008 3062 L
3152 3062 mt 3152 1992 L
3346 3062 mt 3346 3051 L
3604 3062 mt 3604 3051 L
3862 3062 mt 3862 3051 L
3152 2968 mt 3162 2968 L
3152 2735 mt 3162 2735 L
3152 2502 mt 3162 2502 L
3152 2269 mt 3162 2269 L
3152 2036 mt 3162 2036 L
3239 1898 mt 
(P1:8 P1:8\(F\)) s
gs 3152 1993 857 1070 rc
gr

gs 3079 1920 1003 1216 rc
24 W
c8
3469 2702 PD
24 W
3339 2800 PD
24 W
3254 2913 PD
24 W
3418 2854 PD
24 W
3280 2799 PD
24 W
3232 2922 PD
24 W
3265 2969 PD
24 W
3281 2785 PD
24 W
3220 2970 PD
24 W
3283 2895 PD
24 W
3462 2754 PD
24 W
3281 2888 PD
24 W
3353 2827 PD
24 W
3218 2922 PD
24 W
3231 2949 PD
24 W
3208 2843 PD
24 W
3257 2848 PD
24 W
3275 2893 PD
24 W
3380 2831 PD
24 W
3181 3018 PD
24 W
3280 2921 PD
24 W
3389 2854 PD
24 W
3274 2840 PD
24 W
3340 2668 PD
24 W
3243 2935 PD
24 W
3192 3031 PD
24 W
3263 2772 PD
24 W
3443 2773 PD
24 W
3297 2862 PD
24 W
3233 2766 PD
24 W
3177 3001 PD
24 W
3228 2906 PD
24 W
3354 2706 PD
24 W
3197 2889 PD
24 W
3287 2832 PD
24 W
3378 2715 PD
24 W
3219 2926 PD
24 W
3276 2927 PD
24 W
3271 2808 PD
24 W
3335 2933 PD
24 W
3495 2745 PD
24 W
3301 2734 PD
24 W
3343 2799 PD
24 W
3242 2932 PD
24 W
3692 2471 PD
24 W
3276 2891 PD
24 W
3304 2894 PD
24 W
3214 2933 PD
24 W
3251 2936 PD
24 W
3322 2874 PD
24 W
3303 2860 PD
24 W
3282 2815 PD
24 W
3208 2911 PD
24 W
3272 2918 PD
24 W
3244 2876 PD
24 W
3291 2675 PD
24 W
3598 2672 PD
24 W
3601 2670 PD
24 W
3416 2643 PD
24 W
3286 2663 PD
24 W
3195 2934 PD
24 W
3197 2991 PD
24 W
3316 2877 PD
24 W
3282 2630 PD
24 W
3241 2738 PD
24 W
3304 2665 PD
24 W
3304 2767 PD
24 W
3182 2931 PD
24 W
3367 2752 PD
24 W
3239 2906 PD
24 W
3349 2615 PD
24 W
3238 2926 PD
24 W
3286 2850 PD
24 W
3270 2908 PD
24 W
3264 2747 PD
24 W
3291 2900 PD
24 W
3357 2701 PD
24 W
3292 2832 PD
24 W
3349 2718 PD
24 W
3176 2879 PD
gs 3152 1993 857 1070 rc
gr

24 W
3256 2718 PD
24 W
3245 2755 PD
24 W
3177 3062 PD
24 W
3221 3001 PD
24 W
3328 2879 PD
24 W
3258 2917 PD
24 W
3326 2736 PD
24 W
3185 3043 PD
24 W
3240 2985 PD
24 W
3214 2931 PD
24 W
3374 2739 PD
24 W
3277 2725 PD
24 W
3258 2946 PD
24 W
3268 2840 PD
24 W
3260 2983 PD
24 W
3240 2960 PD
24 W
3355 2900 PD
24 W
3241 2896 PD
24 W
3243 2920 PD
24 W
3214 2895 PD
24 W
3278 2868 PD
24 W
3410 2718 PD
24 W
3205 2855 PD
24 W
3214 2956 PD
24 W
3231 2872 PD
24 W
3237 2904 PD
24 W
3264 2855 PD
24 W
3358 2791 PD
24 W
3303 2814 PD
24 W
3405 2727 PD
24 W
3220 2895 PD
24 W
3267 2916 PD
24 W
3232 2880 PD
24 W
3207 2964 PD
24 W
3449 2795 PD
24 W
3309 2700 PD
24 W
3277 2709 PD
24 W
3281 2932 PD
24 W
3205 2949 PD
24 W
3259 2914 PD
24 W
3250 2735 PD
24 W
3371 2585 PD
24 W
3347 2492 PD
24 W
3350 2791 PD
24 W
3419 2842 PD
24 W
3262 2961 PD
24 W
3203 2848 PD
24 W
3247 2725 PD
24 W
3250 2994 PD
24 W
3293 2644 PD
24 W
3214 2983 PD
24 W
3399 2629 PD
24 W
3209 2733 PD
24 W
3338 2775 PD
24 W
3271 2823 PD
24 W
3288 2783 PD
24 W
3308 2906 PD
24 W
3311 2797 PD
24 W
3350 2653 PD
24 W
3236 2975 PD
24 W
3299 2724 PD
24 W
3320 2763 PD
24 W
3222 3020 PD
24 W
3343 2891 PD
24 W
3208 2906 PD
24 W
3219 2961 PD
24 W
3299 2816 PD
24 W
3359 2783 PD
24 W
3214 2962 PD
24 W
3533 2561 PD
24 W
3219 2886 PD
24 W
3349 2257 PD
24 W
3299 2795 PD
24 W
3317 2917 PD
24 W
3225 2862 PD
24 W
3256 2958 PD
24 W
3188 3016 PD
24 W
3257 2775 PD
24 W
3233 2995 PD
24 W
3276 2903 PD
24 W
3341 2744 PD
24 W
3328 2698 PD
24 W
3194 2986 PD
24 W
3181 2994 PD
24 W
3261 2824 PD
24 W
3190 2971 PD
24 W
3461 2742 PD
24 W
3372 2775 PD
24 W
3285 2757 PD
24 W
3280 2825 PD
24 W
3260 2840 PD
24 W
3319 2869 PD
24 W
3253 2877 PD
24 W
3229 2923 PD
24 W
3409 2255 PD
24 W
3256 2909 PD
24 W
3197 2945 PD
24 W
3299 2894 PD
24 W
3355 2703 PD
24 W
3192 2882 PD
24 W
3256 2947 PD
24 W
3293 2720 PD
24 W
3418 2779 PD
24 W
3152 3028 PD
24 W
3316 2838 PD
24 W
3386 2858 PD
24 W
3189 2949 PD
24 W
3208 2902 PD
24 W
3239 2836 PD
24 W
3312 2829 PD
24 W
3208 2903 PD
24 W
3299 2700 PD
24 W
3276 2699 PD
24 W
3209 2902 PD
24 W
3358 2588 PD
24 W
3245 2939 PD
24 W
3276 2892 PD
24 W
3310 2859 PD
24 W
3207 2979 PD
gs 3152 1993 857 1070 rc
c9
593 -1070 3164 3063 2 MP stroke
gr
gr

c9
1 sg
0 1069 856 0 0 -1069 4278 3062 4 MP
PP
-856 0 0 1069 856 0 0 -1069 4278 3062 5 MP stroke
4 w
DO
SO
6 w
0 sg
4278 3062 mt 5134 3062 L
4278 3062 mt 4278 1993 L
4576 3062 mt 4576 3051 L
5068 3062 mt 5068 3051 L
4278 3059 mt 4288 3059 L
4278 2788 mt 4288 2788 L
4278 2516 mt 4288 2516 L
4278 2245 mt 4288 2245 L
4365 1898 mt 
(P1:9 P1:9\(F\)) s
gs 4278 1993 857 1070 rc
gr

gs 4205 1920 1003 1216 rc
24 W
c8
4716 2664 PD
24 W
4557 2724 PD
24 W
4436 2890 PD
24 W
4684 2660 PD
24 W
4497 2763 PD
24 W
4387 2928 PD
24 W
4505 2828 PD
24 W
4493 2813 PD
24 W
4398 2958 PD
24 W
4387 2914 PD
24 W
4536 2713 PD
24 W
4483 2787 PD
24 W
4487 2838 PD
24 W
4419 2839 PD
24 W
4366 2898 PD
24 W
4417 2746 PD
24 W
4466 2845 PD
24 W
4441 2851 PD
24 W
4590 2733 PD
24 W
4288 3019 PD
24 W
4452 2883 PD
24 W
4486 2842 PD
24 W
4495 2801 PD
24 W
4592 2640 PD
24 W
4470 2811 PD
24 W
4308 3029 PD
24 W
4452 2794 PD
24 W
4658 2706 PD
24 W
4477 2834 PD
24 W
4429 2801 PD
24 W
4309 3012 PD
24 W
4439 2783 PD
24 W
4628 2570 PD
24 W
4371 2878 PD
24 W
4432 2831 PD
24 W
4612 2606 PD
24 W
4400 2890 PD
24 W
4439 2951 PD
24 W
4486 2743 PD
24 W
4491 2914 PD
24 W
4724 2607 PD
24 W
4595 2624 PD
24 W
4558 2718 PD
24 W
4372 2931 PD
24 W
4738 2387 PD
24 W
4537 2751 PD
24 W
4471 2849 PD
24 W
4380 2906 PD
24 W
4401 2888 PD
24 W
4478 2876 PD
24 W
4450 2886 PD
24 W
4455 2835 PD
24 W
4328 2932 PD
24 W
4440 2908 PD
24 W
4400 2933 PD
24 W
4576 2605 PD
24 W
4641 2665 PD
24 W
4663 2550 PD
24 W
4506 2744 PD
24 W
4584 2589 PD
24 W
4329 2997 PD
24 W
4314 2968 PD
24 W
4489 2813 PD
24 W
4536 2675 PD
24 W
4471 2773 PD
24 W
4526 2739 PD
24 W
4496 2792 PD
24 W
4362 2865 PD
24 W
4530 2777 PD
24 W
4479 2841 PD
24 W
4509 2748 PD
24 W
4434 2893 PD
24 W
4408 2865 PD
24 W
4445 2837 PD
24 W
4467 2725 PD
24 W
4395 2920 PD
24 W
4480 2785 PD
24 W
4470 2769 PD
24 W
4572 2691 PD
24 W
4332 2914 PD
24 W
5134 1993 PD
24 W
4411 2791 PD
24 W
4474 2669 PD
24 W
4285 3062 PD
24 W
4371 2993 PD
24 W
4470 2885 PD
24 W
4456 2838 PD
24 W
4585 2699 PD
24 W
4311 3039 PD
24 W
4350 2956 PD
24 W
4359 2907 PD
24 W
4621 2652 PD
24 W
4528 2673 PD
24 W
4395 2923 PD
24 W
4421 2840 PD
24 W
4474 2893 PD
24 W
4400 2904 PD
24 W
4448 2876 PD
24 W
4440 2842 PD
24 W
4461 2851 PD
24 W
4421 2822 PD
24 W
4495 2870 PD
24 W
4616 2696 PD
24 W
4382 2854 PD
24 W
4335 2967 PD
24 W
4449 2799 PD
24 W
4387 2868 PD
24 W
4531 2736 PD
24 W
4536 2726 PD
24 W
4436 2826 PD
24 W
4594 2598 PD
24 W
4421 2810 PD
24 W
4440 2873 PD
24 W
4377 2902 PD
24 W
4384 2960 PD
24 W
4674 2622 PD
24 W
4561 2745 PD
24 W
4538 2586 PD
24 W
4458 2889 PD
24 W
4360 2890 PD
24 W
4421 2873 PD
24 W
4502 2765 PD
24 W
4664 2520 PD
24 W
4611 2583 PD
24 W
4468 2836 PD
24 W
4580 2731 PD
24 W
4421 2889 PD
24 W
4359 2892 PD
24 W
4476 2784 PD
24 W
4374 2970 PD
24 W
4640 2562 PD
24 W
4362 2972 PD
24 W
4731 2471 PD
24 W
4447 2755 PD
24 W
4558 2697 PD
24 W
4546 2715 PD
24 W
4460 2805 PD
24 W
4497 2811 PD
24 W
4387 2891 PD
24 W
4579 2652 PD
24 W
4420 2918 PD
24 W
4537 2710 PD
24 W
4502 2712 PD
24 W
4350 3027 PD
24 W
4490 2842 PD
24 W
4452 2834 PD
24 W
4361 2935 PD
24 W
4410 2852 PD
24 W
4476 2785 PD
24 W
4408 2881 PD
24 W
4775 2498 PD
24 W
4377 2941 PD
24 W
4707 2346 PD
24 W
4532 2701 PD
24 W
4514 2834 PD
24 W
4434 2830 PD
24 W
4436 2898 PD
24 W
4320 3028 PD
24 W
4493 2760 PD
24 W
4357 2991 PD
24 W
4414 2854 PD
24 W
4499 2785 PD
24 W
4540 2645 PD
24 W
4359 2964 PD
24 W
4329 2994 PD
24 W
4442 2855 PD
24 W
4317 2967 PD
24 W
4660 2676 PD
24 W
4576 2737 PD
24 W
4474 2817 PD
24 W
4481 2779 PD
24 W
4403 2889 PD
24 W
4485 2879 PD
24 W
4435 2885 PD
24 W
4426 2822 PD
24 W
4747 2256 PD
24 W
4484 2820 PD
24 W
4333 2976 PD
24 W
4461 2810 PD
24 W
4557 2723 PD
24 W
4336 2913 PD
24 W
4365 2941 PD
24 W
4465 2762 PD
24 W
4477 2822 PD
24 W
4278 3006 PD
24 W
4490 2801 PD
24 W
4553 2789 PD
24 W
4317 2966 PD
24 W
4395 2904 PD
24 W
4417 2812 PD
24 W
4496 2766 PD
24 W
4396 2871 PD
24 W
4537 2601 PD
24 W
4514 2713 PD
24 W
4392 2908 PD
24 W
4578 2561 PD
24 W
4468 2817 PD
24 W
4452 2863 PD
24 W
4477 2794 PD
24 W
4418 2918 PD
gs 4278 1993 857 1070 rc
c9
777 -1069 4278 3062 2 MP stroke
gr
gr

c9
1 sg
0 1069 856 0 0 -1069 5405 3062 4 MP
PP
-856 0 0 1069 856 0 0 -1069 5405 3062 5 MP stroke
4 w
DO
SO
6 w
0 sg
5405 3062 mt 6261 3062 L
5405 3062 mt 5405 1993 L
5482 3062 mt 5482 3051 L
5657 3062 mt 5657 3051 L
5831 3062 mt 5831 3051 L
6005 3062 mt 6005 3051 L
6180 3062 mt 6180 3051 L
5405 2887 mt 5415 2887 L
5405 2587 mt 5415 2587 L
5405 2287 mt 5415 2287 L
5492 1898 mt 
(P2:1 P2:1\(F\)) s
gs 5405 1993 857 1070 rc
gr

gs 5332 1920 1003 1216 rc
24 W
c8
5871 2194 PD
24 W
5734 2554 PD
24 W
5569 2699 PD
24 W
5597 2710 PD
24 W
5710 2522 PD
24 W
5625 2875 PD
24 W
5742 2704 PD
24 W
5504 2995 PD
24 W
5665 2580 PD
24 W
5817 2340 PD
24 W
5732 2551 PD
24 W
5779 2397 PD
24 W
5929 2041 PD
24 W
5508 2866 PD
24 W
5670 2699 PD
24 W
5532 2732 PD
24 W
5717 2613 PD
24 W
6160 2422 PD
24 W
5633 2669 PD
24 W
5696 2740 PD
24 W
5718 2512 PD
24 W
5597 2860 PD
24 W
5644 2664 PD
24 W
5624 2669 PD
24 W
6073 2448 PD
24 W
5603 2861 PD
24 W
5527 2751 PD
24 W
6058 2391 PD
24 W
5666 2541 PD
24 W
5523 2917 PD
24 W
5550 2942 PD
24 W
5541 2542 PD
24 W
5674 2714 PD
24 W
5447 2842 PD
24 W
5499 2887 PD
24 W
5520 2836 PD
24 W
5555 2710 PD
24 W
5700 2324 PD
24 W
6100 2073 PD
24 W
5734 2495 PD
24 W
5668 2650 PD
24 W
5512 2876 PD
24 W
5510 2878 PD
24 W
5583 2617 PD
24 W
5480 2781 PD
24 W
5963 2324 PD
24 W
5669 2669 PD
24 W
5683 2545 PD
24 W
5678 2646 PD
24 W
6050 2247 PD
24 W
5687 2665 PD
24 W
5950 2393 PD
24 W
5845 2430 PD
24 W
5636 2718 PD
24 W
5529 2870 PD
24 W
5627 2688 PD
24 W
5676 2594 PD
24 W
5588 2601 PD
24 W
5556 2790 PD
24 W
5905 2310 PD
24 W
5750 2468 PD
24 W
5572 2697 PD
24 W
5697 2436 PD
24 W
5612 2468 PD
24 W
5793 2464 PD
24 W
5794 2425 PD
24 W
5934 2374 PD
24 W
5803 2216 PD
24 W
5819 2537 PD
24 W
5739 2586 PD
24 W
5460 2938 PD
24 W
5748 2750 PD
24 W
5642 2582 PD
24 W
5742 2531 PD
24 W
5746 2419 PD
24 W
5688 2405 PD
24 W
5732 2395 PD
24 W
5785 2289 PD
24 W
5538 2900 PD
24 W
5587 2612 PD
24 W
5594 2766 PD
24 W
5577 2757 PD
24 W
5692 2496 PD
24 W
5667 2548 PD
24 W
5607 2763 PD
24 W
5884 2306 PD
24 W
5714 2387 PD
24 W
5678 2535 PD
24 W
5466 2977 PD
24 W
5543 2765 PD
24 W
5806 2340 PD
24 W
5923 2373 PD
24 W
5665 2675 PD
24 W
5820 2262 PD
24 W
5519 2811 PD
24 W
5609 2667 PD
24 W
5789 2336 PD
24 W
5851 2465 PD
24 W
5603 2692 PD
24 W
5937 2299 PD
24 W
5696 2369 PD
24 W
5467 3030 PD
24 W
5514 2819 PD
24 W
5668 2344 PD
24 W
5562 2723 PD
24 W
5574 2864 PD
24 W
5548 2576 PD
24 W
5646 2724 PD
24 W
5640 2722 PD
24 W
5653 2600 PD
24 W
5675 2348 PD
24 W
5464 2813 PD
24 W
5721 2400 PD
24 W
5529 2910 PD
24 W
5645 2538 PD
24 W
5836 2328 PD
24 W
5508 2705 PD
24 W
5688 2348 PD
24 W
5586 2801 PD
24 W
5686 2506 PD
24 W
5549 2681 PD
24 W
5579 2808 PD
24 W
5512 2954 PD
24 W
5620 2720 PD
24 W
5938 2531 PD
24 W
5715 2410 PD
24 W
5786 2393 PD
24 W
6115 2060 PD
24 W
5598 2779 PD
24 W
5510 2903 PD
24 W
5540 2746 PD
24 W
5708 2692 PD
24 W
5602 2754 PD
24 W
5702 2483 PD
24 W
6261 2044 PD
24 W
5488 2849 PD
24 W
5951 2389 PD
24 W
5942 2339 PD
24 W
5816 2363 PD
24 W
5671 2558 PD
24 W
5439 3062 PD
24 W
5826 2416 PD
24 W
5518 2755 PD
24 W
5893 2155 PD
24 W
5968 1993 PD
24 W
5566 2916 PD
24 W
5536 2888 PD
24 W
5678 2630 PD
24 W
5885 2570 PD
24 W
5911 2343 PD
24 W
5488 2808 PD
24 W
5445 2923 PD
24 W
5732 2405 PD
24 W
5813 2500 PD
24 W
5735 2561 PD
24 W
5470 3008 PD
24 W
5627 2723 PD
24 W
5535 2747 PD
24 W
5888 2131 PD
24 W
5619 2390 PD
24 W
5654 2551 PD
24 W
5576 3003 PD
24 W
5856 2193 PD
24 W
5421 2967 PD
24 W
5405 3060 PD
24 W
5641 2663 PD
24 W
5666 2612 PD
24 W
5952 2228 PD
24 W
6057 2198 PD
24 W
5514 2891 PD
24 W
5577 2672 PD
24 W
5623 2648 PD
24 W
5733 2597 PD
24 W
5521 2840 PD
24 W
5657 2603 PD
24 W
5519 2943 PD
24 W
5722 2602 PD
24 W
5643 2604 PD
24 W
5715 2391 PD
24 W
5536 2790 PD
24 W
5647 2692 PD
24 W
5571 2731 PD
24 W
5634 2367 PD
24 W
5802 2475 PD
24 W
5807 2266 PD
24 W
5910 2277 PD
24 W
5605 2631 PD
24 W
5452 2797 PD
24 W
5466 2981 PD
24 W
5641 2631 PD
24 W
5656 2607 PD
24 W
5827 2309 PD
24 W
5855 2435 PD
24 W
5730 2312 PD
24 W
5851 2382 PD
24 W
5860 2415 PD
24 W
5657 2706 PD
24 W
5520 2970 PD
24 W
5912 2584 PD
24 W
5666 2416 PD
gs 5405 1993 857 1070 rc
c9
597 -1028 5405 3021 2 MP stroke
gr
gr

c9
1 sg
0 1069 856 0 0 -1069 899 4616 4 MP
PP
-856 0 0 1069 856 0 0 -1069 899 4616 5 MP stroke
4 w
DO
SO
6 w
0 sg
 899 4616 mt 1755 4616 L
 899 4616 mt  899 3547 L
1004 4616 mt 1004 4605 L
1172 4616 mt 1172 4605 L
1341 4616 mt 1341 4605 L
1510 4616 mt 1510 4605 L
1679 4616 mt 1679 4605 L
 899 4514 mt  909 4514 L
 899 4318 mt  909 4318 L
 899 4123 mt  909 4123 L
 899 3928 mt  909 3928 L
 899 3733 mt  909 3733 L
 982 3452 mt 
(P2:2 P2:2\(S\)) s
gs 899 3547 857 1070 rc
gr

gs 826 3474 1003 1216 rc
24 W
c8
1367 3924 PD
24 W
1104 4285 PD
24 W
1023 4460 PD
24 W
908 4581 PD
24 W
1155 4418 PD
24 W
1053 4376 PD
24 W
1230 4271 PD
24 W
924 4552 PD
24 W
1273 4235 PD
24 W
1377 4041 PD
24 W
1250 4283 PD
24 W
986 4521 PD
24 W
1208 4298 PD
24 W
1216 4130 PD
24 W
1319 4142 PD
24 W
1239 4172 PD
24 W
1313 4175 PD
24 W
1130 4423 PD
24 W
899 4596 PD
24 W
1080 4473 PD
24 W
1127 4476 PD
24 W
1142 4403 PD
24 W
941 4575 PD
24 W
1157 4319 PD
24 W
977 4518 PD
24 W
1254 4303 PD
24 W
992 4475 PD
24 W
1006 4458 PD
24 W
1004 4494 PD
24 W
1030 4476 PD
24 W
984 4511 PD
24 W
1140 4290 PD
24 W
1097 4397 PD
24 W
966 4505 PD
24 W
1140 4438 PD
24 W
987 4513 PD
24 W
1479 3978 PD
24 W
1193 4252 PD
24 W
1170 4414 PD
24 W
1114 4406 PD
24 W
934 4565 PD
24 W
1137 4391 PD
24 W
1093 4457 PD
24 W
1227 4217 PD
24 W
1022 4493 PD
24 W
989 4480 PD
24 W
1114 4292 PD
24 W
970 4505 PD
24 W
939 4538 PD
24 W
963 4538 PD
24 W
1016 4460 PD
24 W
1327 4253 PD
24 W
995 4493 PD
24 W
1229 4260 PD
24 W
1142 4393 PD
24 W
964 4524 PD
24 W
1033 4494 PD
24 W
929 4576 PD
24 W
914 4581 PD
24 W
1025 4392 PD
24 W
1306 4224 PD
24 W
1335 4276 PD
24 W
982 4487 PD
24 W
1260 4154 PD
24 W
1108 4366 PD
24 W
1195 4101 PD
24 W
1457 4105 PD
24 W
1226 4277 PD
24 W
970 4548 PD
24 W
985 4482 PD
24 W
1196 4342 PD
24 W
1018 4480 PD
24 W
899 4614 PD
24 W
1045 4473 PD
24 W
1128 4407 PD
24 W
1344 4211 PD
24 W
1447 4036 PD
24 W
930 4582 PD
24 W
986 4536 PD
24 W
1105 4475 PD
24 W
1336 4202 PD
24 W
1160 4337 PD
24 W
947 4559 PD
24 W
948 4558 PD
24 W
1012 4484 PD
24 W
955 4541 PD
24 W
960 4531 PD
24 W
1237 4182 PD
24 W
1069 4506 PD
24 W
1051 4420 PD
24 W
930 4595 PD
24 W
930 4573 PD
24 W
941 4571 PD
24 W
968 4530 PD
24 W
1057 4464 PD
24 W
1024 4512 PD
24 W
1097 4373 PD
24 W
988 4492 PD
24 W
1112 4437 PD
24 W
928 4572 PD
24 W
1755 3547 PD
24 W
1110 4462 PD
24 W
1357 3902 PD
24 W
1117 4419 PD
24 W
1023 4577 PD
24 W
1140 4332 PD
24 W
943 4533 PD
24 W
1194 4220 PD
24 W
983 4509 PD
24 W
938 4544 PD
24 W
1076 4347 PD
24 W
1056 4448 PD
24 W
1302 4236 PD
24 W
958 4523 PD
24 W
992 4543 PD
24 W
1189 4359 PD
24 W
1050 4421 PD
24 W
978 4481 PD
24 W
1125 4456 PD
24 W
990 4599 PD
24 W
1110 4445 PD
24 W
1149 4217 PD
24 W
1056 4474 PD
24 W
969 4494 PD
24 W
1078 4339 PD
24 W
1030 4511 PD
24 W
973 4530 PD
24 W
958 4561 PD
24 W
938 4546 PD
24 W
957 4536 PD
24 W
1013 4471 PD
24 W
1374 4233 PD
24 W
1086 4467 PD
24 W
1173 4329 PD
24 W
1107 4305 PD
24 W
1107 4366 PD
24 W
1090 4458 PD
24 W
1243 4219 PD
24 W
1147 4452 PD
24 W
1057 4386 PD
24 W
1058 4448 PD
24 W
1251 4249 PD
24 W
1102 4470 PD
24 W
925 4573 PD
24 W
955 4541 PD
24 W
1113 4397 PD
24 W
1456 4127 PD
24 W
1109 4375 PD
24 W
1181 4307 PD
24 W
1251 4282 PD
24 W
1352 4269 PD
24 W
927 4590 PD
24 W
973 4504 PD
24 W
1010 4469 PD
24 W
1270 4048 PD
24 W
1078 4436 PD
24 W
1013 4500 PD
24 W
1132 4321 PD
24 W
1128 4401 PD
24 W
1224 4390 PD
24 W
1046 4487 PD
24 W
1063 4482 PD
24 W
940 4543 PD
24 W
974 4530 PD
24 W
926 4591 PD
24 W
970 4527 PD
24 W
997 4491 PD
24 W
1006 4477 PD
24 W
1092 4491 PD
24 W
1102 4427 PD
24 W
1031 4413 PD
24 W
953 4553 PD
24 W
937 4572 PD
24 W
904 4616 PD
24 W
1009 4482 PD
24 W
1055 4473 PD
24 W
936 4581 PD
24 W
941 4564 PD
24 W
983 4517 PD
24 W
957 4525 PD
24 W
1008 4476 PD
24 W
955 4536 PD
24 W
1033 4449 PD
24 W
1003 4490 PD
24 W
998 4496 PD
24 W
1088 4401 PD
24 W
1001 4504 PD
24 W
1216 4273 PD
24 W
1392 4039 PD
24 W
1120 4353 PD
24 W
981 4470 PD
24 W
934 4580 PD
24 W
1054 4469 PD
24 W
1257 4395 PD
24 W
1217 4343 PD
24 W
1175 4342 PD
24 W
985 4553 PD
24 W
1085 4404 PD
24 W
1131 4460 PD
24 W
1027 4514 PD
gs 899 3547 857 1070 rc
c9
842 -972 914 4617 2 MP stroke
gr
gr

c9
1 sg
0 1069 856 0 0 -1069 2026 4616 4 MP
PP
-856 0 0 1069 856 0 0 -1069 2026 4616 5 MP stroke
4 w
DO
SO
6 w
0 sg
2026 4616 mt 2882 4616 L
2026 4616 mt 2026 3547 L
2099 4616 mt 2099 4605 L
2458 4616 mt 2458 4605 L
2817 4616 mt 2817 4605 L
2026 4531 mt 2036 4531 L
2026 4275 mt 2036 4275 L
2026 4019 mt 2036 4019 L
2026 3764 mt 2036 3764 L
2109 3452 mt 
(P2:3 P2:3\(S\)) s
gs 2026 3547 857 1070 rc
gr

gs 1953 3474 1003 1216 rc
24 W
c8
2566 3930 PD
24 W
2335 4137 PD
24 W
2238 4256 PD
24 W
2336 4118 PD
24 W
2415 4166 PD
24 W
2205 4355 PD
24 W
2411 4248 PD
24 W
2079 4508 PD
24 W
2427 4147 PD
24 W
2417 4167 PD
24 W
2484 4055 PD
24 W
2271 4307 PD
24 W
2356 4228 PD
24 W
2301 4169 PD
24 W
2383 4236 PD
24 W
2401 4155 PD
24 W
2287 4351 PD
24 W
2071 4589 PD
24 W
2238 4320 PD
24 W
2254 4344 PD
24 W
2162 4456 PD
24 W
2457 4072 PD
24 W
2102 4509 PD
24 W
2654 3692 PD
24 W
2341 4060 PD
24 W
2175 4446 PD
24 W
2105 4481 PD
24 W
2151 4422 PD
24 W
2337 4248 PD
24 W
2194 4359 PD
24 W
2127 4483 PD
24 W
2321 4107 PD
24 W
2242 4360 PD
24 W
2329 4247 PD
24 W
2428 4187 PD
24 W
2278 4245 PD
24 W
2270 4375 PD
24 W
2256 4311 PD
24 W
2340 4290 PD
24 W
2259 4391 PD
24 W
2182 4265 PD
24 W
2318 4222 PD
24 W
2191 4408 PD
24 W
2616 3729 PD
24 W
2142 4445 PD
24 W
2350 4085 PD
24 W
2370 4244 PD
24 W
2320 4129 PD
24 W
2261 4231 PD
24 W
2286 4151 PD
24 W
2377 4069 PD
24 W
2212 4387 PD
24 W
2115 4522 PD
24 W
2314 4238 PD
24 W
2297 4274 PD
24 W
2206 4262 PD
24 W
2166 4412 PD
24 W
2239 4184 PD
24 W
2117 4449 PD
24 W
2330 4139 PD
24 W
2572 3991 PD
24 W
2882 3547 PD
24 W
2658 3588 PD
24 W
2620 3905 PD
24 W
2438 4110 PD
24 W
2581 4032 PD
24 W
2482 4115 PD
24 W
2329 4251 PD
24 W
2351 4121 PD
24 W
2227 4224 PD
24 W
2171 4408 PD
24 W
2175 4410 PD
24 W
2198 4328 PD
24 W
2221 4378 PD
24 W
2276 4329 PD
24 W
2302 4238 PD
24 W
2353 4162 PD
24 W
2374 4192 PD
24 W
2204 4374 PD
24 W
2224 4427 PD
24 W
2479 4143 PD
24 W
2304 4263 PD
24 W
2476 4163 PD
24 W
2150 4430 PD
24 W
2298 4277 PD
24 W
2320 4146 PD
24 W
2186 4382 PD
24 W
2348 4270 PD
24 W
2117 4535 PD
24 W
2370 4075 PD
24 W
2255 4281 PD
24 W
2277 4194 PD
24 W
2179 4399 PD
24 W
2285 4203 PD
24 W
2228 4379 PD
24 W
2121 4507 PD
24 W
2354 4050 PD
24 W
2238 4307 PD
24 W
2111 4525 PD
24 W
2297 4082 PD
24 W
2742 3809 PD
24 W
2190 4402 PD
24 W
2550 3884 PD
24 W
2194 4403 PD
24 W
2158 4493 PD
24 W
2153 4457 PD
24 W
2329 4101 PD
24 W
2448 4149 PD
24 W
2193 4321 PD
24 W
2315 4102 PD
24 W
2221 4320 PD
24 W
2222 4361 PD
24 W
2249 4401 PD
24 W
2360 4018 PD
24 W
2446 4191 PD
24 W
2325 4270 PD
24 W
2291 4151 PD
24 W
2277 4212 PD
24 W
2151 4469 PD
24 W
2095 4567 PD
24 W
2180 4431 PD
24 W
2276 4085 PD
24 W
2162 4431 PD
24 W
2342 3903 PD
24 W
2386 3980 PD
24 W
2200 4382 PD
24 W
2235 4330 PD
24 W
2415 4123 PD
24 W
2259 4256 PD
24 W
2255 4224 PD
24 W
2146 4447 PD
24 W
2411 4193 PD
24 W
2246 4317 PD
24 W
2237 4400 PD
24 W
2269 4258 PD
24 W
2242 4329 PD
24 W
2102 4542 PD
24 W
2176 4444 PD
24 W
2192 4431 PD
24 W
2346 4066 PD
24 W
2139 4496 PD
24 W
2398 4180 PD
24 W
2224 4394 PD
24 W
2338 4062 PD
24 W
2248 4271 PD
24 W
2790 3828 PD
24 W
2229 4393 PD
24 W
2437 4044 PD
24 W
2217 4329 PD
24 W
2341 4229 PD
24 W
2388 4168 PD
24 W
2026 4616 PD
24 W
2408 4171 PD
24 W
2232 4325 PD
24 W
2395 4180 PD
24 W
2047 4610 PD
24 W
2539 4047 PD
24 W
2464 3885 PD
24 W
2294 4317 PD
24 W
2349 4310 PD
24 W
2306 4270 PD
24 W
2231 4379 PD
24 W
2451 3929 PD
24 W
2250 4356 PD
24 W
2123 4457 PD
24 W
2184 4309 PD
24 W
2168 4417 PD
24 W
2170 4335 PD
24 W
2277 4250 PD
24 W
2212 4371 PD
24 W
2371 4033 PD
24 W
2349 4098 PD
24 W
2269 4182 PD
24 W
2348 4030 PD
24 W
2218 4335 PD
24 W
2203 4382 PD
24 W
2406 4181 PD
24 W
2255 4200 PD
24 W
2353 4096 PD
24 W
2278 4158 PD
24 W
2400 4030 PD
24 W
2420 4196 PD
24 W
2316 4169 PD
24 W
2473 4069 PD
24 W
2364 4122 PD
24 W
2533 3971 PD
24 W
2350 4062 PD
24 W
2712 3940 PD
24 W
2551 4035 PD
24 W
2572 3725 PD
24 W
2421 4098 PD
24 W
2567 3934 PD
24 W
2205 4386 PD
24 W
2346 4260 PD
24 W
2450 4138 PD
24 W
2579 3892 PD
24 W
2169 4455 PD
24 W
2518 3906 PD
24 W
2236 4357 PD
24 W
2313 4285 PD
gs 2026 3547 857 1070 rc
c9
752 -1070 2038 4617 2 MP stroke
gr
gr

c9
1 sg
0 1069 856 0 0 -1069 3152 4616 4 MP
PP
-856 0 0 1069 856 0 0 -1069 3152 4616 5 MP stroke
4 w
DO
SO
6 w
0 sg
3152 4616 mt 4008 4616 L
3152 4616 mt 3152 3547 L
3355 4616 mt 3355 4605 L
3585 4616 mt 3585 4605 L
3815 4616 mt 3815 4605 L
3152 4395 mt 3162 4395 L
3152 4119 mt 3162 4119 L
3152 3843 mt 3162 3843 L
3152 3567 mt 3162 3567 L
3235 3452 mt 
(P2:4 P2:4\(S\)) s
gs 3152 3547 857 1070 rc
gr

gs 3079 3474 1003 1216 rc
24 W
c8
3444 4153 PD
24 W
3562 3924 PD
24 W
3587 4102 PD
24 W
3587 4097 PD
24 W
3421 4242 PD
24 W
3373 4153 PD
24 W
3392 4257 PD
24 W
3185 4495 PD
24 W
3592 4060 PD
24 W
3380 4235 PD
24 W
3493 4161 PD
24 W
3565 4256 PD
24 W
3338 4346 PD
24 W
3476 4056 PD
24 W
3587 4083 PD
24 W
3444 4175 PD
24 W
3318 4394 PD
24 W
3321 4397 PD
24 W
3618 4172 PD
24 W
3222 4501 PD
24 W
3279 4509 PD
24 W
3612 3947 PD
24 W
3522 4236 PD
24 W
4008 3687 PD
24 W
3572 4070 PD
24 W
3484 4270 PD
24 W
3259 4375 PD
24 W
3314 4287 PD
24 W
3583 4118 PD
24 W
3355 4273 PD
24 W
3187 4476 PD
24 W
3752 3899 PD
24 W
3369 4255 PD
24 W
3722 3950 PD
24 W
3363 4359 PD
24 W
3574 4163 PD
24 W
3560 4141 PD
24 W
3535 4007 PD
24 W
3344 4426 PD
24 W
3354 4302 PD
24 W
3511 4082 PD
24 W
3386 4293 PD
24 W
3312 4429 PD
24 W
3900 3656 PD
24 W
3351 4355 PD
24 W
3557 4037 PD
24 W
3367 4313 PD
24 W
3622 3995 PD
24 W
3326 4468 PD
24 W
3605 4083 PD
24 W
3807 3849 PD
24 W
3451 4272 PD
24 W
3167 4566 PD
24 W
3432 4268 PD
24 W
3297 4398 PD
24 W
3558 4073 PD
24 W
3189 4524 PD
24 W
3456 4223 PD
24 W
3264 4455 PD
24 W
3489 4232 PD
24 W
3437 4274 PD
24 W
3873 3554 PD
24 W
3770 3859 PD
24 W
3624 4021 PD
24 W
3583 4082 PD
24 W
3543 4147 PD
24 W
3644 4048 PD
24 W
3485 4123 PD
24 W
3616 4150 PD
24 W
3429 4225 PD
24 W
3265 4436 PD
24 W
3201 4501 PD
24 W
3390 4347 PD
24 W
3318 4404 PD
24 W
3312 4395 PD
24 W
3490 4134 PD
24 W
3644 3931 PD
24 W
3588 4190 PD
24 W
3314 4372 PD
24 W
3238 4520 PD
24 W
3693 3900 PD
24 W
3361 4337 PD
24 W
3702 4079 PD
24 W
3369 4388 PD
24 W
3586 4088 PD
24 W
3519 4189 PD
24 W
3458 4185 PD
24 W
3459 4208 PD
24 W
3276 4451 PD
24 W
3774 3837 PD
24 W
3426 4295 PD
24 W
3464 4307 PD
24 W
3480 4317 PD
24 W
3603 4158 PD
24 W
3373 4332 PD
24 W
3321 4370 PD
24 W
3668 3965 PD
24 W
3609 4109 PD
24 W
3259 4438 PD
24 W
3437 4211 PD
24 W
3838 3680 PD
24 W
3272 4478 PD
24 W
3846 3585 PD
24 W
3264 4434 PD
24 W
3214 4541 PD
24 W
3343 4349 PD
24 W
3563 3998 PD
24 W
3382 4248 PD
24 W
3551 4168 PD
24 W
3476 4189 PD
24 W
3319 4269 PD
24 W
3267 4448 PD
24 W
3440 4244 PD
24 W
3583 4038 PD
24 W
3625 4171 PD
24 W
3576 4101 PD
24 W
3787 3897 PD
24 W
3503 4184 PD
24 W
3375 4359 PD
24 W
3156 4616 PD
24 W
3325 4408 PD
24 W
3613 3867 PD
24 W
3285 4434 PD
24 W
3627 3948 PD
24 W
3657 3980 PD
24 W
3177 4518 PD
24 W
3424 4326 PD
24 W
3512 4273 PD
24 W
3559 4170 PD
24 W
3761 4001 PD
24 W
3470 4302 PD
24 W
3524 4200 PD
24 W
3287 4405 PD
24 W
3358 4393 PD
24 W
3733 3953 PD
24 W
3351 4254 PD
24 W
3302 4444 PD
24 W
3268 4429 PD
24 W
3463 4223 PD
24 W
3573 4064 PD
24 W
3258 4380 PD
24 W
3376 4283 PD
24 W
3381 4369 PD
24 W
3554 4114 PD
24 W
3354 4356 PD
24 W
3819 3934 PD
24 W
3526 4127 PD
24 W
3778 3980 PD
24 W
3473 4112 PD
24 W
3461 4220 PD
24 W
3481 4208 PD
24 W
3152 4568 PD
24 W
3513 4238 PD
24 W
3257 4416 PD
24 W
3462 4194 PD
24 W
3284 4342 PD
24 W
3795 4016 PD
24 W
3982 3547 PD
24 W
3287 4432 PD
24 W
3428 4310 PD
24 W
3238 4466 PD
24 W
3290 4437 PD
24 W
3702 3933 PD
24 W
3546 4254 PD
24 W
3383 4387 PD
24 W
3525 4191 PD
24 W
3243 4402 PD
24 W
3435 4251 PD
24 W
3329 4430 PD
24 W
3351 4331 PD
24 W
3656 4030 PD
24 W
3628 4040 PD
24 W
3522 4148 PD
24 W
3435 4321 PD
24 W
3431 4326 PD
24 W
3280 4382 PD
24 W
3547 4256 PD
24 W
3467 4180 PD
24 W
3601 4093 PD
24 W
3436 4245 PD
24 W
3847 3738 PD
24 W
3702 4004 PD
24 W
3573 4108 PD
24 W
3747 3896 PD
24 W
3686 4068 PD
24 W
3998 3637 PD
24 W
3706 3976 PD
24 W
3696 3959 PD
24 W
3705 3872 PD
24 W
3915 3771 PD
24 W
3584 4124 PD
24 W
3700 3928 PD
24 W
3302 4403 PD
24 W
3395 4377 PD
24 W
3476 4198 PD
24 W
3464 4272 PD
24 W
3201 4534 PD
24 W
3763 3936 PD
24 W
3332 4364 PD
24 W
3273 4450 PD
gs 3152 3547 857 1070 rc
c9
839 -1006 3170 4617 2 MP stroke
gr
gr

c9

end %%Color Dict

eplot
%%EndObject

epage
end

showpage

%%Trailer
%%EOF
