%!PS-Adobe-3.0 EPSF-3.0
%%Creator: MATLAB, The Mathworks, Inc. Version 7.7.0.471 (R2008b). Operating System: Microsoft Windows XP.
%%Title: Pictures\main_zoo_mvar_analysis_data_BMI_xcorr_bmi_p1_k1_4_8.eps
%%CreationDate: 10/26/2009  05:44:05
%%DocumentNeededFonts: Helvetica
%%DocumentProcessColors: Cyan Magenta Yellow Black
%%LanguageLevel: 2
%%Pages: 1
%%BoundingBox:    32   180   546   616
%%EndComments

%%BeginProlog
% MathWorks dictionary
/MathWorks 160 dict begin
% definition operators
/bdef {bind def} bind def
/ldef {load def} bind def
/xdef {exch def} bdef
/xstore {exch store} bdef
% operator abbreviations
/c  /clip ldef
/cc /concat ldef
/cp /closepath ldef
/gr /grestore ldef
/gs /gsave ldef
/mt /moveto ldef
/np /newpath ldef
/cm /currentmatrix ldef
/sm /setmatrix ldef
/rm /rmoveto ldef
/rl /rlineto ldef
/s {show newpath} bdef
/sc {setcmykcolor} bdef
/sr /setrgbcolor ldef
/sg /setgray ldef
/w /setlinewidth ldef
/j /setlinejoin ldef
/cap /setlinecap ldef
/rc {rectclip} bdef
/rf {rectfill} bdef
% page state control
/pgsv () def
/bpage {/pgsv save def} bdef
/epage {pgsv restore} bdef
/bplot /gsave ldef
/eplot {stroke grestore} bdef
% orientation switch
/portraitMode 0 def /landscapeMode 1 def /rotateMode 2 def
% coordinate system mappings
/dpi2point 0 def
% font control
/FontSize 0 def
/FMS {/FontSize xstore findfont [FontSize 0 0 FontSize neg 0 0]
  makefont setfont} bdef
/ISOLatin1Encoding where {pop /WindowsLatin1Encoding 256 array bdef
ISOLatin1Encoding WindowsLatin1Encoding copy pop
/.notdef/.notdef/quotesinglbase/florin/quotedblbase/ellipsis/dagger
/daggerdbl/circumflex/perthousand/Scaron/guilsinglleft/OE/.notdef/.notdef
/.notdef/.notdef/quoteleft/quoteright/quotedblleft/quotedblright/bullet
/endash/emdash/tilde/trademark/scaron/guilsinglright/oe/.notdef/.notdef
/Ydieresis WindowsLatin1Encoding 128 32 getinterval astore pop}
{/WindowsLatin1Encoding StandardEncoding bdef} ifelse
/reencode {exch dup where {pop load} {pop StandardEncoding} ifelse
  exch dup 3 1 roll findfont dup length dict begin
  { 1 index /FID ne {def}{pop pop} ifelse } forall
  /Encoding exch def currentdict end definefont pop} bdef
/isroman {findfont /CharStrings get /Agrave known} bdef
/FMSR {3 1 roll 1 index dup isroman {reencode} {pop pop} ifelse
  exch FMS} bdef
/csm {1 dpi2point div -1 dpi2point div scale neg translate
 dup landscapeMode eq {pop -90 rotate}
  {rotateMode eq {90 rotate} if} ifelse} bdef
% line types: solid, dotted, dashed, dotdash
/SO { [] 0 setdash } bdef
/DO { [.5 dpi2point mul 4 dpi2point mul] 0 setdash } bdef
/DA { [6 dpi2point mul] 0 setdash } bdef
/DD { [.5 dpi2point mul 4 dpi2point mul 6 dpi2point mul 4
  dpi2point mul] 0 setdash } bdef
% macros for lines and objects
/L {lineto stroke} bdef
/MP {3 1 roll moveto 1 sub {rlineto} repeat} bdef
/AP {{rlineto} repeat} bdef
/PDlw -1 def
/W {/PDlw currentlinewidth def setlinewidth} def
/PP {closepath eofill} bdef
/DP {closepath stroke} bdef
/MR {4 -2 roll moveto dup  0 exch rlineto exch 0 rlineto
  neg 0 exch rlineto closepath} bdef
/FR {MR stroke} bdef
/PR {MR fill} bdef
/L1i {{currentfile picstr readhexstring pop} image} bdef
/tMatrix matrix def
/MakeOval {newpath tMatrix currentmatrix pop translate scale
0 0 1 0 360 arc tMatrix setmatrix} bdef
/FO {MakeOval stroke} bdef
/PO {MakeOval fill} bdef
/PD {currentlinewidth 2 div 0 360 arc fill
   PDlw -1 eq not {PDlw w /PDlw -1 def} if} def
/FA {newpath tMatrix currentmatrix pop translate scale
  0 0 1 5 -2 roll arc tMatrix setmatrix stroke} bdef
/PA {newpath tMatrix currentmatrix pop	translate 0 0 moveto scale
  0 0 1 5 -2 roll arc closepath tMatrix setmatrix fill} bdef
/FAn {newpath tMatrix currentmatrix pop translate scale
  0 0 1 5 -2 roll arcn tMatrix setmatrix stroke} bdef
/PAn {newpath tMatrix currentmatrix pop translate 0 0 moveto scale
  0 0 1 5 -2 roll arcn closepath tMatrix setmatrix fill} bdef
/vradius 0 def /hradius 0 def /lry 0 def
/lrx 0 def /uly 0 def /ulx 0 def /rad 0 def
/MRR {/vradius xdef /hradius xdef /lry xdef /lrx xdef /uly xdef
  /ulx xdef newpath tMatrix currentmatrix pop ulx hradius add uly
  vradius add translate hradius vradius scale 0 0 1 180 270 arc 
  tMatrix setmatrix lrx hradius sub uly vradius add translate
  hradius vradius scale 0 0 1 270 360 arc tMatrix setmatrix
  lrx hradius sub lry vradius sub translate hradius vradius scale
  0 0 1 0 90 arc tMatrix setmatrix ulx hradius add lry vradius sub
  translate hradius vradius scale 0 0 1 90 180 arc tMatrix setmatrix
  closepath} bdef
/FRR {MRR stroke } bdef
/PRR {MRR fill } bdef
/MlrRR {/lry xdef /lrx xdef /uly xdef /ulx xdef /rad lry uly sub 2 div def
  newpath tMatrix currentmatrix pop ulx rad add uly rad add translate
  rad rad scale 0 0 1 90 270 arc tMatrix setmatrix lrx rad sub lry rad
  sub translate rad rad scale 0 0 1 270 90 arc tMatrix setmatrix
  closepath} bdef
/FlrRR {MlrRR stroke } bdef
/PlrRR {MlrRR fill } bdef
/MtbRR {/lry xdef /lrx xdef /uly xdef /ulx xdef /rad lrx ulx sub 2 div def
  newpath tMatrix currentmatrix pop ulx rad add uly rad add translate
  rad rad scale 0 0 1 180 360 arc tMatrix setmatrix lrx rad sub lry rad
  sub translate rad rad scale 0 0 1 0 180 arc tMatrix setmatrix
  closepath} bdef
/FtbRR {MtbRR stroke } bdef
/PtbRR {MtbRR fill } bdef
/stri 6 array def /dtri 6 array def
/smat 6 array def /dmat 6 array def
/tmat1 6 array def /tmat2 6 array def /dif 3 array def
/asub {/ind2 exch def /ind1 exch def dup dup
  ind1 get exch ind2 get sub exch } bdef
/tri_to_matrix {
  2 0 asub 3 1 asub 4 0 asub 5 1 asub
  dup 0 get exch 1 get 7 -1 roll astore } bdef
/compute_transform {
  dmat dtri tri_to_matrix tmat1 invertmatrix 
  smat stri tri_to_matrix tmat2 concatmatrix } bdef
/ds {stri astore pop} bdef
/dt {dtri astore pop} bdef
/db {2 copy /cols xdef /rows xdef mul dup 3 mul string
  currentfile 
  3 index 0 eq {/ASCIIHexDecode filter}
  {/ASCII85Decode filter 3 index 2 eq {/RunLengthDecode filter} if }
  ifelse exch readstring pop
  dup 0 3 index getinterval /rbmap xdef
  dup 2 index dup getinterval /gbmap xdef
  1 index dup 2 mul exch getinterval /bbmap xdef pop pop}bdef
/it {gs np dtri aload pop moveto lineto lineto cp c
  cols rows 8 compute_transform 
  rbmap gbmap bbmap true 3 colorimage gr}bdef
/il {newpath moveto lineto stroke}bdef
currentdict end def
%%EndProlog

%%BeginSetup
MathWorks begin

0 cap

end
%%EndSetup

%%Page: 1 1
%%BeginPageSetup
%%PageBoundingBox:    32   180   546   616
MathWorks begin
bpage
%%EndPageSetup

%%BeginObject: obj1
bplot

/dpi2point 12 def
portraitMode 0216 7344 csm

  174   -48  6172  5231 rc
85 dict begin %Colortable dictionary
/c0 { 0.000000 0.000000 0.000000 sr} bdef
/c1 { 1.000000 1.000000 1.000000 sr} bdef
/c2 { 0.900000 0.000000 0.000000 sr} bdef
/c3 { 0.000000 0.820000 0.000000 sr} bdef
/c4 { 0.000000 0.000000 0.800000 sr} bdef
/c5 { 0.910000 0.820000 0.320000 sr} bdef
/c6 { 1.000000 0.260000 0.820000 sr} bdef
/c7 { 0.000000 0.820000 0.820000 sr} bdef
c0
1 j
1 sg
   0    0 6919 5187 rf
6 w
0 4202 5363 0 0 -4202 898 4616 4 MP
PP
-5363 0 0 4202 5363 0 0 -4202 898 4616 5 MP stroke
4 w
DO
SO
6 w
0 sg
 898  414 mt 6261  414 L
 898 4616 mt 6261 4616 L
6261 4616 mt 6261  414 L
 898 4616 mt  898  414 L
 898 4616 mt 6261 4616 L
 898 4616 mt  898  414 L
1827 4616 mt 1827 4562 L
1827  414 mt 1827  467 L
%%IncludeResource: font Helvetica
/Helvetica /WindowsLatin1Encoding 240 FMSR

1661 4873 mt 
(0.1) s
2756 4616 mt 2756 4562 L
2756  414 mt 2756  467 L
2590 4873 mt 
(0.2) s
3684 4616 mt 3684 4562 L
3684  414 mt 3684  467 L
3518 4873 mt 
(0.3) s
4613 4616 mt 4613 4562 L
4613  414 mt 4613  467 L
4447 4873 mt 
(0.4) s
5542 4616 mt 5542 4562 L
5542  414 mt 5542  467 L
5376 4873 mt 
(0.5) s
 898 3780 mt  952 3780 L
6261 3780 mt 6207 3780 L
 531 3869 mt 
(0.1) s
 898 2945 mt  952 2945 L
6261 2945 mt 6207 2945 L
 531 3034 mt 
(0.2) s
 898 2109 mt  952 2109 L
6261 2109 mt 6207 2109 L
 531 2198 mt 
(0.3) s
 898 1274 mt  952 1274 L
6261 1274 mt 6207 1274 L
 531 1363 mt 
(0.4) s
 898  439 mt  952  439 L
6261  439 mt 6207  439 L
 531  528 mt 
(0.5) s
 898  414 mt 6261  414 L
 898 4616 mt 6261 4616 L
6261 4616 mt 6261  414 L
 898 4616 mt  898  414 L
gs 898 414 5363 4203 rc
gr

/c8 { 0.000000 0.000000 1.000000 sr} bdef
c8
 933  414 mt 1005  414 L
 969  378 mt  969  450 L
1516 4410 mt 1588 4410 L
1552 4374 mt 1552 4446 L
2634 4556 mt 2706 4556 L
2670 4520 mt 2670 4592 L
1292 4214 mt 1364 4214 L
1328 4178 mt 1328 4250 L
 902 4305 mt  974 4305 L
 938 4269 mt  938 4341 L
1082 4518 mt 1154 4518 L
1118 4482 mt 1118 4554 L
1963 3006 mt 2035 3006 L
1999 2970 mt 1999 3042 L
 901 4431 mt  973 4431 L
 937 4395 mt  937 4467 L
1069 4615 mt 1141 4615 L
1105 4579 mt 1105 4651 L
1470 3867 mt 1542 3867 L
1506 3831 mt 1506 3903 L
1173 4369 mt 1245 4369 L
1209 4333 mt 1209 4405 L
2029 4616 mt 2101 4616 L
2065 4580 mt 2065 4652 L
2416 4608 mt 2488 4608 L
2452 4572 mt 2452 4644 L
1664 4596 mt 1736 4596 L
1700 4560 mt 1700 4632 L
1387 4298 mt 1459 4298 L
1423 4262 mt 1423 4334 L
1954 3582 mt 2026 3582 L
1990 3546 mt 1990 3618 L
 995 2973 mt 1067 2973 L
1031 2937 mt 1031 3009 L
 912 4312 mt  984 4312 L
 948 4276 mt  948 4348 L
3377 4467 mt 3449 4467 L
3413 4431 mt 3413 4503 L
1167 3806 mt 1239 3806 L
1203 3770 mt 1203 3842 L
1112 4280 mt 1184 4280 L
1148 4244 mt 1148 4316 L
 870 4421 mt  942 4421 L
 906 4385 mt  906 4457 L
1290 4313 mt 1362 4313 L
1326 4277 mt 1326 4349 L
2865 4341 mt 2937 4341 L
2901 4305 mt 2901 4377 L
 915 3642 mt  987 3642 L
 951 3606 mt  951 3678 L
1356 4507 mt 1428 4507 L
1392 4471 mt 1392 4543 L
1235 4049 mt 1307 4049 L
1271 4013 mt 1271 4085 L
1382 4514 mt 1454 4514 L
1418 4478 mt 1418 4550 L
1259 4550 mt 1331 4550 L
1295 4514 mt 1295 4586 L
1051 4400 mt 1123 4400 L
1087 4364 mt 1087 4436 L
 899 2943 mt  971 2943 L
 935 2907 mt  935 2979 L
1221 4327 mt 1293 4327 L
1257 4291 mt 1257 4363 L
2178 4387 mt 2250 4387 L
2214 4351 mt 2214 4423 L
 887 3514 mt  959 3514 L
 923 3478 mt  923 3550 L
2059 4594 mt 2131 4594 L
2095 4558 mt 2095 4630 L
 869 4393 mt  941 4393 L
 905 4357 mt  905 4429 L
 874 4576 mt  946 4576 L
 910 4540 mt  910 4612 L
1223 4519 mt 1295 4519 L
1259 4483 mt 1259 4555 L
1424 4315 mt 1496 4315 L
1460 4279 mt 1460 4351 L
1818 1753 mt 1890 1753 L
1854 1717 mt 1854 1789 L
1060 4415 mt 1132 4415 L
1096 4379 mt 1096 4451 L
2798 4355 mt 2870 4355 L
2834 4319 mt 2834 4391 L
 869 3432 mt  941 3432 L
 905 3396 mt  905 3468 L
3708 3531 mt 3780 3531 L
3744 3495 mt 3744 3567 L
4769 3533 mt 4841 3533 L
4805 3497 mt 4805 3569 L
1360 4558 mt 1432 4558 L
1396 4522 mt 1396 4594 L
 873 1182 mt  945 1182 L
 909 1146 mt  909 1218 L
2033 4507 mt 2105 4507 L
2069 4471 mt 2069 4543 L
2466 4613 mt 2538 4613 L
2502 4577 mt 2502 4649 L
2510 4277 mt 2582 4277 L
2546 4241 mt 2546 4313 L
 870 4187 mt  942 4187 L
 906 4151 mt  906 4223 L
 863 4180 mt  935 4180 L
 899 4144 mt  899 4216 L
4075 4525 mt 4147 4525 L
4111 4489 mt 4111 4561 L
 959 4355 mt 1031 4355 L
 995 4319 mt  995 4391 L
1012 4518 mt 1084 4518 L
1048 4482 mt 1048 4554 L
1010 3754 mt 1082 3754 L
1046 3718 mt 1046 3790 L
1363 4178 mt 1435 4178 L
1399 4142 mt 1399 4214 L
1007 4613 mt 1079 4613 L
1043 4577 mt 1043 4649 L
2024 4432 mt 2096 4432 L
2060 4396 mt 2060 4468 L
2189 4357 mt 2261 4357 L
2225 4321 mt 2225 4393 L
 895 4074 mt  967 4074 L
 931 4038 mt  931 4110 L
 864 4462 mt  936 4462 L
 900 4426 mt  900 4498 L
2659 1148 mt 2731 1148 L
2695 1112 mt 2695 1184 L
3538 3682 mt 3610 3682 L
3574 3646 mt 3574 3718 L
2818 4615 mt 2890 4615 L
2854 4579 mt 2854 4651 L
 907 3890 mt  979 3890 L
 943 3854 mt  943 3926 L
3603 4609 mt 3675 4609 L
3639 4573 mt 3639 4645 L
 885 4612 mt  957 4612 L
 921 4576 mt  921 4648 L
1146 4608 mt 1218 4608 L
1182 4572 mt 1182 4644 L
1037 4416 mt 1109 4416 L
1073 4380 mt 1073 4452 L
1254 3838 mt 1326 3838 L
1290 3802 mt 1290 3874 L
1795 4580 mt 1867 4580 L
1831 4544 mt 1831 4616 L
1313 4307 mt 1385 4307 L
1349 4271 mt 1349 4343 L
1014 4614 mt 1086 4614 L
1050 4578 mt 1050 4650 L
 943 4572 mt 1015 4572 L
 979 4536 mt  979 4608 L
2869 4295 mt 2941 4295 L
2905 4259 mt 2905 4331 L
2351 4503 mt 2423 4503 L
2387 4467 mt 2387 4539 L
1447 4584 mt 1519 4584 L
1483 4548 mt 1483 4620 L
2485 3873 mt 2557 3873 L
2521 3837 mt 2521 3909 L
1108 4578 mt 1180 4578 L
1144 4542 mt 1144 4614 L
2977 4253 mt 3049 4253 L
3013 4217 mt 3013 4289 L
3446 3521 mt 3518 3521 L
3482 3485 mt 3482 3557 L
 876 2277 mt  948 2277 L
 912 2241 mt  912 2313 L
1147 4290 mt 1219 4290 L
1183 4254 mt 1183 4326 L
1114 2343 mt 1186 2343 L
1150 2307 mt 1150 2379 L
1616 4223 mt 1688 4223 L
1652 4187 mt 1652 4259 L
 947 4608 mt 1019 4608 L
 983 4572 mt  983 4644 L
3758 4570 mt 3830 4570 L
3794 4534 mt 3794 4606 L
 871 4607 mt  943 4607 L
 907 4571 mt  907 4643 L
 865 3733 mt  937 3733 L
 901 3697 mt  901 3769 L
2435 4549 mt 2507 4549 L
2471 4513 mt 2471 4585 L
3094 4321 mt 3166 4321 L
3130 4285 mt 3130 4357 L
1736 4325 mt 1808 4325 L
1772 4289 mt 1772 4361 L
1408 4604 mt 1480 4604 L
1444 4568 mt 1444 4640 L
 863 4543 mt  935 4543 L
 899 4507 mt  899 4579 L
1534 3892 mt 1606 3892 L
1570 3856 mt 1570 3928 L
1006 3903 mt 1078 3903 L
1042 3867 mt 1042 3939 L
1018 4527 mt 1090 4527 L
1054 4491 mt 1054 4563 L
2530 4172 mt 2602 4172 L
2566 4136 mt 2566 4208 L
 913 4245 mt  985 4245 L
 949 4209 mt  949 4281 L
 919 1071 mt  991 1071 L
 955 1035 mt  955 1107 L
1053 4519 mt 1125 4519 L
1089 4483 mt 1089 4555 L
2066 1426 mt 2138 1426 L
2102 1390 mt 2102 1462 L
 919 4152 mt  991 4152 L
 955 4116 mt  955 4188 L
1376 4435 mt 1448 4435 L
1412 4399 mt 1412 4471 L
1544 4441 mt 1616 4441 L
1580 4405 mt 1580 4477 L
1867 4615 mt 1939 4615 L
1903 4579 mt 1903 4651 L
 984 4488 mt 1056 4488 L
1020 4452 mt 1020 4524 L
1077 4554 mt 1149 4554 L
1113 4518 mt 1113 4590 L
 898 4009 mt  970 4009 L
 934 3973 mt  934 4045 L
4557 4610 mt 4629 4610 L
4593 4574 mt 4593 4646 L
1082 4539 mt 1154 4539 L
1118 4503 mt 1118 4575 L
 890 4586 mt  962 4586 L
 926 4550 mt  926 4622 L
 901 4431 mt  973 4431 L
 937 4395 mt  937 4467 L
1893 4361 mt 1965 4361 L
1929 4325 mt 1929 4397 L
1468 4448 mt 1540 4448 L
1504 4412 mt 1504 4484 L
1701 4606 mt 1773 4606 L
1737 4570 mt 1737 4642 L
1257 4615 mt 1329 4615 L
1293 4579 mt 1293 4651 L
2731 3759 mt 2803 3759 L
2767 3723 mt 2767 3795 L
 873 2684 mt  945 2684 L
 909 2648 mt  909 2720 L
 941 4163 mt 1013 4163 L
 977 4127 mt  977 4199 L
1856 4082 mt 1928 4082 L
1892 4046 mt 1892 4118 L
 891 4610 mt  963 4610 L
 927 4574 mt  927 4646 L
2866 2846 mt 2938 2846 L
2902 2810 mt 2902 2882 L
1158 3928 mt 1230 3928 L
1194 3892 mt 1194 3964 L
3417 3780 mt 3489 3780 L
3453 3744 mt 3453 3816 L
 962 4233 mt 1034 4233 L
 998 4197 mt  998 4269 L
1130 4395 mt 1202 4395 L
1166 4359 mt 1166 4431 L
1017 4409 mt 1089 4409 L
1053 4373 mt 1053 4445 L
 864 4348 mt  936 4348 L
 900 4312 mt  900 4384 L
2218 4240 mt 2290 4240 L
2254 4204 mt 2254 4276 L
1036 3640 mt 1108 3640 L
1072 3604 mt 1072 3676 L
 925 4583 mt  997 4583 L
 961 4547 mt  961 4619 L
 863 4592 mt  935 4592 L
 899 4556 mt  899 4628 L
 863 3865 mt  935 3865 L
 899 3829 mt  899 3901 L
 871 4590 mt  943 4590 L
 907 4554 mt  907 4626 L
1030 4545 mt 1102 4545 L
1066 4509 mt 1066 4581 L
1004 2843 mt 1076 2843 L
1040 2807 mt 1040 2879 L
2008 4419 mt 2080 4419 L
2044 4383 mt 2044 4455 L
 932 3905 mt 1004 3905 L
 968 3869 mt  968 3941 L
1597 4615 mt 1669 4615 L
1633 4579 mt 1633 4651 L
1419 4615 mt 1491 4615 L
1455 4579 mt 1455 4651 L
2471 3649 mt 2543 3649 L
2507 3613 mt 2507 3685 L
 868 4312 mt  940 4312 L
 904 4276 mt  904 4348 L
1103 4155 mt 1175 4155 L
1139 4119 mt 1139 4191 L
1060 3962 mt 1132 3962 L
1096 3926 mt 1096 3998 L
1598 4606 mt 1670 4606 L
1634 4570 mt 1634 4642 L
2397 3601 mt 2469 3601 L
2433 3565 mt 2433 3637 L
2434 4596 mt 2506 4596 L
2470 4560 mt 2470 4632 L
 867 4093 mt  939 4093 L
 903 4057 mt  903 4129 L
6225 4544 mt 6297 4544 L
6261 4508 mt 6261 4580 L
 892 4257 mt  964 4257 L
 928 4221 mt  928 4293 L
1088 2838 mt 1160 2838 L
1124 2802 mt 1124 2874 L
1847 4483 mt 1919 4483 L
1883 4447 mt 1883 4519 L
 863 3980 mt  935 3980 L
 899 3944 mt  899 4016 L
1049 4482 mt 1121 4482 L
1085 4446 mt 1085 4518 L
2070 4563 mt 2142 4563 L
2106 4527 mt 2106 4599 L
1089 4338 mt 1161 4338 L
1125 4302 mt 1125 4374 L
 865 4492 mt  937 4492 L
 901 4456 mt  901 4528 L
1834 4465 mt 1906 4465 L
1870 4429 mt 1870 4501 L
2561 3872 mt 2633 3872 L
2597 3836 mt 2597 3908 L
 967 4342 mt 1039 4342 L
1003 4306 mt 1003 4378 L
 900 3426 mt  972 3426 L
 936 3390 mt  936 3462 L
1327 4608 mt 1399 4608 L
1363 4572 mt 1363 4644 L
1204 4493 mt 1276 4493 L
1240 4457 mt 1240 4529 L
1819 3868 mt 1891 3868 L
1855 3832 mt 1855 3904 L
4267 3628 mt 4339 3628 L
4303 3592 mt 4303 3664 L
1306 4551 mt 1378 4551 L
1342 4515 mt 1342 4587 L
1104 4603 mt 1176 4603 L
1140 4567 mt 1140 4639 L
2065 4356 mt 2137 4356 L
2101 4320 mt 2101 4392 L
 917 3217 mt  989 3217 L
 953 3181 mt  953 3253 L
 903 3658 mt  975 3658 L
 939 3622 mt  939 3694 L
 865 3828 mt  937 3828 L
 901 3792 mt  901 3864 L
1260 3960 mt 1332 3960 L
1296 3924 mt 1296 3996 L
1080 3727 mt 1152 3727 L
1116 3691 mt 1116 3763 L
1246 4571 mt 1318 4571 L
1282 4535 mt 1282 4607 L
1485 4370 mt 1557 4370 L
1521 4334 mt 1521 4406 L
1111 4539 mt 1183 4539 L
1147 4503 mt 1147 4575 L
1790 2746 mt 1862 2746 L
1826 2710 mt 1826 2782 L
1175 4602 mt 1247 4602 L
1211 4566 mt 1211 4638 L
 903 4613 mt  975 4613 L
 939 4577 mt  939 4649 L
 876 2097 mt  948 2097 L
 912 2061 mt  912 2133 L
1527 1790 mt 1599 1790 L
1563 1754 mt 1563 1826 L
3564 4597 mt 3636 4597 L
3600 4561 mt 3600 4633 L
1762 4282 mt 1834 4282 L
1798 4246 mt 1798 4318 L
1220 3002 mt 1292 3002 L
1256 2966 mt 1256 3038 L
 975 3389 mt 1047 3389 L
1011 3353 mt 1011 3425 L
1189 3618 mt 1261 3618 L
1225 3582 mt 1225 3654 L
 943 4566 mt 1015 4566 L
 979 4530 mt  979 4602 L
 992 3182 mt 1064 3182 L
1028 3146 mt 1028 3218 L
 948 4589 mt 1020 4589 L
 984 4553 mt  984 4625 L
1711 4200 mt 1783 4200 L
1747 4164 mt 1747 4236 L
 944 4282 mt 1016 4282 L
 980 4246 mt  980 4318 L
 880 4467 mt  952 4467 L
 916 4431 mt  916 4503 L
 863 4466 mt  935 4466 L
 899 4430 mt  899 4502 L
3553 1210 mt 3625 1210 L
3589 1174 mt 3589 1246 L
1170 3086 mt 1242 3086 L
1206 3050 mt 1206 3122 L
1050 2178 mt 1122 2178 L
1086 2142 mt 1086 2214 L
1291 4473 mt 1363 4473 L
1327 4437 mt 1327 4509 L
1048 4539 mt 1120 4539 L
1084 4503 mt 1084 4575 L
1042  693 mt 1114  693 L
1078  657 mt 1078  729 L
1138 3443 mt 1210 3443 L
1174 3407 mt 1174 3479 L
 909 4540 mt  981 4540 L
 945 4504 mt  945 4576 L
 867 4509 mt  939 4509 L
 903 4473 mt  903 4545 L
 875 4576 mt  947 4576 L
 911 4540 mt  911 4612 L
 947 4523 mt 1019 4523 L
 983 4487 mt  983 4559 L
2184 3590 mt 2256 3590 L
2220 3554 mt 2220 3626 L
 863 4539 mt  935 4539 L
 899 4503 mt  899 4575 L
1785 4604 mt 1857 4604 L
1821 4568 mt 1821 4640 L
2246 3794 mt 2318 3794 L
2282 3758 mt 2282 3830 L
 863 4573 mt  935 4573 L
 899 4537 mt  899 4609 L
1455 4294 mt 1527 4294 L
1491 4258 mt 1491 4330 L
1597 4550 mt 1669 4550 L
1633 4514 mt 1633 4586 L
 912 4007 mt  984 4007 L
 948 3971 mt  948 4043 L
 876 4308 mt  948 4308 L
 912 4272 mt  912 4344 L
3181 2857 mt 3253 2857 L
3217 2821 mt 3217 2893 L
 887 3127 mt  959 3127 L
 923 3091 mt  923 3163 L
 940 4515 mt 1012 4515 L
 976 4479 mt  976 4551 L
1627 4029 mt 1699 4029 L
1663 3993 mt 1663 4065 L
1869 3455 mt 1941 3455 L
1905 3419 mt 1905 3491 L
 868 4577 mt  940 4577 L
 904 4541 mt  904 4613 L
 935 4608 mt 1007 4608 L
 971 4572 mt  971 4644 L
1943 3529 mt 2015 3529 L
1979 3493 mt 1979 3565 L
1523 4580 mt 1595 4580 L
1559 4544 mt 1559 4616 L
2529 3573 mt 2601 3573 L
2565 3537 mt 2565 3609 L
1375 4615 mt 1447 4615 L
1411 4579 mt 1411 4651 L
1328 4567 mt 1400 4567 L
1364 4531 mt 1364 4603 L
1428 4506 mt 1500 4506 L
1464 4470 mt 1464 4542 L
1186 3997 mt 1258 3997 L
1222 3961 mt 1222 4033 L
1030 4591 mt 1102 4591 L
1066 4555 mt 1066 4627 L
 864 3872 mt  936 3872 L
 900 3836 mt  900 3908 L
1806 3628 mt 1878 3628 L
1842 3592 mt 1842 3664 L
1180 4575 mt 1252 4575 L
1216 4539 mt 1216 4611 L
 914 2459 mt  986 2459 L
 950 2423 mt  950 2495 L
 904 4604 mt  976 4604 L
 940 4568 mt  940 4640 L
 889 4614 mt  961 4614 L
 925 4578 mt  925 4650 L
1095 4592 mt 1167 4592 L
1131 4556 mt 1131 4628 L
 862 4554 mt  934 4554 L
 898 4518 mt  898 4590 L
 957 4392 mt 1029 4392 L
 993 4356 mt  993 4428 L
1271 2405 mt 1343 2405 L
1307 2369 mt 1307 2441 L
 992 4302 mt 1064 4302 L
1028 4266 mt 1028 4338 L
2399 3775 mt 2471 3775 L
2435 3739 mt 2435 3811 L
 871 4041 mt  943 4041 L
 907 4005 mt  907 4077 L
1822 4106 mt 1894 4106 L
1858 4070 mt 1858 4142 L
4257 4221 mt 4329 4221 L
4293 4185 mt 4293 4257 L
1108 4335 mt 1180 4335 L
1144 4299 mt 1144 4371 L
1007 1465 mt 1079 1465 L
1043 1429 mt 1043 1501 L
2070 4614 mt 2142 4614 L
2106 4578 mt 2106 4650 L
 981 4589 mt 1053 4589 L
1017 4553 mt 1017 4625 L
1164 4436 mt 1236 4436 L
1200 4400 mt 1200 4472 L
 916 4549 mt  988 4549 L
 952 4513 mt  952 4585 L
 930 4461 mt 1002 4461 L
 966 4425 mt  966 4497 L
2770 4598 mt 2842 4598 L
2806 4562 mt 2806 4634 L
 893 4585 mt  965 4585 L
 929 4549 mt  929 4621 L
1332 4610 mt 1404 4610 L
1368 4574 mt 1368 4646 L
1077 3887 mt 1149 3887 L
1113 3851 mt 1113 3923 L
1498 4538 mt 1570 4538 L
1534 4502 mt 1534 4574 L
 863 4545 mt  935 4545 L
 899 4509 mt  899 4581 L
1881 3722 mt 1953 3722 L
1917 3686 mt 1917 3758 L
1202 3855 mt 1274 3855 L
1238 3819 mt 1238 3891 L
 888 4040 mt  960 4040 L
 924 4004 mt  924 4076 L
1040 4449 mt 1112 4449 L
1076 4413 mt 1076 4485 L
1931 1364 mt 2003 1364 L
1967 1328 mt 1967 1400 L
4343 3799 mt 4415 3799 L
4379 3763 mt 4379 3835 L
 864 4258 mt  936 4258 L
 900 4222 mt  900 4294 L
 995 4487 mt 1067 4487 L
1031 4451 mt 1031 4523 L
 973 4614 mt 1045 4614 L
1009 4578 mt 1009 4650 L
 868 4522 mt  940 4522 L
 904 4486 mt  904 4558 L
1697 4377 mt 1769 4377 L
1733 4341 mt 1733 4413 L
1083 3445 mt 1155 3445 L
1119 3409 mt 1119 3481 L
1765 4381 mt 1837 4381 L
1801 4345 mt 1801 4417 L
 882 4293 mt  954 4293 L
 918 4257 mt  918 4329 L
1597 4573 mt 1669 4573 L
1633 4537 mt 1633 4609 L
1508 4426 mt 1580 4426 L
1544 4390 mt 1544 4462 L
 973 4411 mt 1045 4411 L
1009 4375 mt 1009 4447 L
1529 4014 mt 1601 4014 L
1565 3978 mt 1565 4050 L
2179 4585 mt 2251 4585 L
2215 4549 mt 2215 4621 L
 863 4437 mt  935 4437 L
 899 4401 mt  899 4473 L
1471 4498 mt 1543 4498 L
1507 4462 mt 1507 4534 L
 897 4544 mt  969 4544 L
 933 4508 mt  933 4580 L
3694 4453 mt 3766 4453 L
3730 4417 mt 3730 4489 L
2214 3721 mt 2286 3721 L
2250 3685 mt 2250 3757 L
1246 1843 mt 1318 1843 L
1282 1807 mt 1282 1879 L
 886 3500 mt  958 3500 L
 922 3464 mt  922 3536 L
1879 1292 mt 1951 1292 L
1915 1256 mt 1915 1328 L
1124 4554 mt 1196 4554 L
1160 4518 mt 1160 4590 L
1291 4094 mt 1363 4094 L
1327 4058 mt 1327 4130 L
3653 4578 mt 3725 4578 L
3689 4542 mt 3689 4614 L
1054 4530 mt 1126 4530 L
1090 4494 mt 1090 4566 L
 871 4343 mt  943 4343 L
 907 4307 mt  907 4379 L
1520 3998 mt 1592 3998 L
1556 3962 mt 1556 4034 L
1609 4615 mt 1681 4615 L
1645 4579 mt 1645 4651 L
1023 3946 mt 1095 3946 L
1059 3910 mt 1059 3982 L
1227 4078 mt 1299 4078 L
1263 4042 mt 1263 4114 L
 871 4548 mt  943 4548 L
 907 4512 mt  907 4584 L
1268 4537 mt 1340 4537 L
1304 4501 mt 1304 4573 L
2222 4364 mt 2294 4364 L
2258 4328 mt 2258 4400 L
 896 4572 mt  968 4572 L
 932 4536 mt  932 4608 L
2700 4453 mt 2772 4453 L
2736 4417 mt 2736 4489 L
1366 3888 mt 1438 3888 L
1402 3852 mt 1402 3924 L
 872 1791 mt  944 1791 L
 908 1755 mt  908 1827 L
 882 4615 mt  954 4615 L
 918 4579 mt  918 4651 L
2638 1264 mt 2710 1264 L
2674 1228 mt 2674 1300 L
 869 4417 mt  941 4417 L
 905 4381 mt  905 4453 L
2817 4590 mt 2889 4590 L
2853 4554 mt 2853 4626 L
1424 4185 mt 1496 4185 L
1460 4149 mt 1460 4221 L
2216 4411 mt 2288 4411 L
2252 4375 mt 2252 4447 L
 863 4544 mt  935 4544 L
 899 4508 mt  899 4580 L
 981 4613 mt 1053 4613 L
1017 4577 mt 1017 4649 L
 925 4167 mt  997 4167 L
 961 4131 mt  961 4203 L
4425 4190 mt 4497 4190 L
4461 4154 mt 4461 4226 L
1198 4564 mt 1270 4564 L
1234 4528 mt 1234 4600 L
1669 4611 mt 1741 4611 L
1705 4575 mt 1705 4647 L
 869 4533 mt  941 4533 L
 905 4497 mt  905 4569 L
1207 3767 mt 1279 3767 L
1243 3731 mt 1243 3803 L
 870 4241 mt  942 4241 L
 906 4205 mt  906 4277 L
1102 4312 mt 1174 4312 L
1138 4276 mt 1138 4348 L
 863 4486 mt  935 4486 L
 899 4450 mt  899 4522 L
2544 4277 mt 2616 4277 L
2580 4241 mt 2580 4313 L
1101 3419 mt 1173 3419 L
1137 3383 mt 1137 3455 L
1151 4494 mt 1223 4494 L
1187 4458 mt 1187 4530 L
 967 4354 mt 1039 4354 L
1003 4318 mt 1003 4390 L
 920 4290 mt  992 4290 L
 956 4254 mt  956 4326 L
2342 1520 mt 2414 1520 L
2378 1484 mt 2378 1556 L
 867 3251 mt  939 3251 L
 903 3215 mt  903 3287 L
1189 4501 mt 1261 4501 L
1225 4465 mt 1225 4537 L
1013 3342 mt 1085 3342 L
1049 3306 mt 1049 3378 L
 919 4596 mt  991 4596 L
 955 4560 mt  955 4632 L
1129 3608 mt 1201 3608 L
1165 3572 mt 1165 3644 L
 866 4553 mt  938 4553 L
 902 4517 mt  902 4589 L
2583 4591 mt 2655 4591 L
2619 4555 mt 2619 4627 L
 863 4022 mt  935 4022 L
 899 3986 mt  899 4058 L
1258 4313 mt 1330 4313 L
1294 4277 mt 1294 4349 L
 900 4607 mt  972 4607 L
 936 4571 mt  936 4643 L
 886 3020 mt  958 3020 L
 922 2984 mt  922 3056 L
1103 4417 mt 1175 4417 L
1139 4381 mt 1139 4453 L
 949 4614 mt 1021 4614 L
 985 4578 mt  985 4650 L
 877 3677 mt  949 3677 L
 913 3641 mt  913 3713 L
 865 4550 mt  937 4550 L
 901 4514 mt  901 4586 L
 864 4256 mt  936 4256 L
 900 4220 mt  900 4292 L
2021 4588 mt 2093 4588 L
2057 4552 mt 2057 4624 L
1503 4610 mt 1575 4610 L
1539 4574 mt 1539 4646 L
3230 4179 mt 3302 4179 L
3266 4143 mt 3266 4215 L
 864 4287 mt  936 4287 L
 900 4251 mt  900 4323 L
1785 4411 mt 1857 4411 L
1821 4375 mt 1821 4447 L
 973 4606 mt 1045 4606 L
1009 4570 mt 1009 4642 L
 987 4593 mt 1059 4593 L
1023 4557 mt 1023 4629 L
2147 4561 mt 2219 4561 L
2183 4525 mt 2183 4597 L
2055 4335 mt 2127 4335 L
2091 4299 mt 2091 4371 L
1371 4038 mt 1443 4038 L
1407 4002 mt 1407 4074 L
4531 4419 mt 4603 4419 L
4567 4383 mt 4567 4455 L
1750 4582 mt 1822 4582 L
1786 4546 mt 1786 4618 L
 919 1839 mt  991 1839 L
 955 1803 mt  955 1875 L
 865 4607 mt  937 4607 L
 901 4571 mt  901 4643 L
 908 4392 mt  980 4392 L
 944 4356 mt  944 4428 L
 864 4615 mt  936 4615 L
 900 4579 mt  900 4651 L
 967 3830 mt 1039 3830 L
1003 3794 mt 1003 3866 L
 872 3508 mt  944 3508 L
 908 3472 mt  908 3544 L
1074 4527 mt 1146 4527 L
1110 4491 mt 1110 4563 L
1147 4385 mt 1219 4385 L
1183 4349 mt 1183 4421 L
1028 3970 mt 1100 3970 L
1064 3934 mt 1064 4006 L
 868 4609 mt  940 4609 L
 904 4573 mt  904 4645 L
 918 3843 mt  990 3843 L
 954 3807 mt  954 3879 L
 946 4393 mt 1018 4393 L
 982 4357 mt  982 4429 L
1514 3901 mt 1586 3901 L
1550 3865 mt 1550 3937 L
1069 3165 mt 1141 3165 L
1105 3129 mt 1105 3201 L
3649 4279 mt 3721 4279 L
3685 4243 mt 3685 4315 L
 939 4400 mt 1011 4400 L
 975 4364 mt  975 4436 L
 920 4315 mt  992 4315 L
 956 4279 mt  956 4351 L
 863 3739 mt  935 3739 L
 899 3703 mt  899 3775 L
 897 3326 mt  969 3326 L
 933 3290 mt  933 3362 L
 863 4267 mt  935 4267 L
 899 4231 mt  899 4303 L
 888 4116 mt  960 4116 L
 924 4080 mt  924 4152 L
 892 4040 mt  964 4040 L
 928 4004 mt  928 4076 L
 890 2565 mt  962 2565 L
 926 2529 mt  926 2601 L
2192 4504 mt 2264 4504 L
2228 4468 mt 2228 4540 L
1344 3792 mt 1416 3792 L
1380 3756 mt 1380 3828 L
1610 4609 mt 1682 4609 L
1646 4573 mt 1646 4645 L
1851 3060 mt 1923 3060 L
1887 3024 mt 1887 3096 L
1169 4554 mt 1241 4554 L
1205 4518 mt 1205 4590 L
1151 4487 mt 1223 4487 L
1187 4451 mt 1187 4523 L
1244 1725 mt 1316 1725 L
1280 1689 mt 1280 1761 L
2419 1895 mt 2491 1895 L
2455 1859 mt 2455 1931 L
2452 4553 mt 2524 4553 L
2488 4517 mt 2488 4589 L
1068 4513 mt 1140 4513 L
1104 4477 mt 1104 4549 L
 935 2272 mt 1007 2272 L
 971 2236 mt  971 2308 L
1009 4036 mt 1081 4036 L
1045 4000 mt 1045 4072 L
1177 4387 mt 1249 4387 L
1213 4351 mt 1213 4423 L
2300 4555 mt 2372 4555 L
2336 4519 mt 2336 4591 L
 924 3356 mt  996 3356 L
 960 3320 mt  960 3392 L
 993 4579 mt 1065 4579 L
1029 4543 mt 1029 4615 L
1561 4598 mt 1633 4598 L
1597 4562 mt 1597 4634 L
 866 3940 mt  938 3940 L
 902 3904 mt  902 3976 L
1229 4493 mt 1301 4493 L
1265 4457 mt 1265 4529 L
 915 4355 mt  987 4355 L
 951 4319 mt  951 4391 L
3353 1603 mt 3425 1603 L
3389 1567 mt 3389 1639 L
1386 3661 mt 1458 3661 L
1422 3625 mt 1422 3697 L
 880 2623 mt  952 2623 L
 916 2587 mt  916 2659 L
 867 4327 mt  939 4327 L
 903 4291 mt  903 4363 L
 996 4578 mt 1068 4578 L
1032 4542 mt 1032 4614 L
gs 898 414 5363 4203 rc
gr

0 sg
2798 5104 mt 
(\(F,DCTs,iMLP\)) s
 422 3259 mt  -90 rotate
(\(S,PAC,GMM\)) s
90 rotate
2974  223 mt 
(Corr = 0.02) s

end %%Color Dict

eplot
%%EndObject

epage
end

showpage

%%Trailer
%%EOF
