%!PS-Adobe-3.0 EPSF-3.0
%%Creator: MATLAB, The Mathworks, Inc. Version 7.7.0.471 (R2008b). Operating System: Microsoft Windows XP.
%%Title: Pictures\main_zoo_mvar_analysis_data_BMI_xcorr_bmi_p1_k2_3_7.eps
%%CreationDate: 10/26/2009  05:44:25
%%DocumentNeededFonts: Helvetica
%%DocumentProcessColors: Cyan Magenta Yellow Black
%%LanguageLevel: 2
%%Pages: 1
%%BoundingBox:    32   180   546   616
%%EndComments

%%BeginProlog
% MathWorks dictionary
/MathWorks 160 dict begin
% definition operators
/bdef {bind def} bind def
/ldef {load def} bind def
/xdef {exch def} bdef
/xstore {exch store} bdef
% operator abbreviations
/c  /clip ldef
/cc /concat ldef
/cp /closepath ldef
/gr /grestore ldef
/gs /gsave ldef
/mt /moveto ldef
/np /newpath ldef
/cm /currentmatrix ldef
/sm /setmatrix ldef
/rm /rmoveto ldef
/rl /rlineto ldef
/s {show newpath} bdef
/sc {setcmykcolor} bdef
/sr /setrgbcolor ldef
/sg /setgray ldef
/w /setlinewidth ldef
/j /setlinejoin ldef
/cap /setlinecap ldef
/rc {rectclip} bdef
/rf {rectfill} bdef
% page state control
/pgsv () def
/bpage {/pgsv save def} bdef
/epage {pgsv restore} bdef
/bplot /gsave ldef
/eplot {stroke grestore} bdef
% orientation switch
/portraitMode 0 def /landscapeMode 1 def /rotateMode 2 def
% coordinate system mappings
/dpi2point 0 def
% font control
/FontSize 0 def
/FMS {/FontSize xstore findfont [FontSize 0 0 FontSize neg 0 0]
  makefont setfont} bdef
/ISOLatin1Encoding where {pop /WindowsLatin1Encoding 256 array bdef
ISOLatin1Encoding WindowsLatin1Encoding copy pop
/.notdef/.notdef/quotesinglbase/florin/quotedblbase/ellipsis/dagger
/daggerdbl/circumflex/perthousand/Scaron/guilsinglleft/OE/.notdef/.notdef
/.notdef/.notdef/quoteleft/quoteright/quotedblleft/quotedblright/bullet
/endash/emdash/tilde/trademark/scaron/guilsinglright/oe/.notdef/.notdef
/Ydieresis WindowsLatin1Encoding 128 32 getinterval astore pop}
{/WindowsLatin1Encoding StandardEncoding bdef} ifelse
/reencode {exch dup where {pop load} {pop StandardEncoding} ifelse
  exch dup 3 1 roll findfont dup length dict begin
  { 1 index /FID ne {def}{pop pop} ifelse } forall
  /Encoding exch def currentdict end definefont pop} bdef
/isroman {findfont /CharStrings get /Agrave known} bdef
/FMSR {3 1 roll 1 index dup isroman {reencode} {pop pop} ifelse
  exch FMS} bdef
/csm {1 dpi2point div -1 dpi2point div scale neg translate
 dup landscapeMode eq {pop -90 rotate}
  {rotateMode eq {90 rotate} if} ifelse} bdef
% line types: solid, dotted, dashed, dotdash
/SO { [] 0 setdash } bdef
/DO { [.5 dpi2point mul 4 dpi2point mul] 0 setdash } bdef
/DA { [6 dpi2point mul] 0 setdash } bdef
/DD { [.5 dpi2point mul 4 dpi2point mul 6 dpi2point mul 4
  dpi2point mul] 0 setdash } bdef
% macros for lines and objects
/L {lineto stroke} bdef
/MP {3 1 roll moveto 1 sub {rlineto} repeat} bdef
/AP {{rlineto} repeat} bdef
/PDlw -1 def
/W {/PDlw currentlinewidth def setlinewidth} def
/PP {closepath eofill} bdef
/DP {closepath stroke} bdef
/MR {4 -2 roll moveto dup  0 exch rlineto exch 0 rlineto
  neg 0 exch rlineto closepath} bdef
/FR {MR stroke} bdef
/PR {MR fill} bdef
/L1i {{currentfile picstr readhexstring pop} image} bdef
/tMatrix matrix def
/MakeOval {newpath tMatrix currentmatrix pop translate scale
0 0 1 0 360 arc tMatrix setmatrix} bdef
/FO {MakeOval stroke} bdef
/PO {MakeOval fill} bdef
/PD {currentlinewidth 2 div 0 360 arc fill
   PDlw -1 eq not {PDlw w /PDlw -1 def} if} def
/FA {newpath tMatrix currentmatrix pop translate scale
  0 0 1 5 -2 roll arc tMatrix setmatrix stroke} bdef
/PA {newpath tMatrix currentmatrix pop	translate 0 0 moveto scale
  0 0 1 5 -2 roll arc closepath tMatrix setmatrix fill} bdef
/FAn {newpath tMatrix currentmatrix pop translate scale
  0 0 1 5 -2 roll arcn tMatrix setmatrix stroke} bdef
/PAn {newpath tMatrix currentmatrix pop translate 0 0 moveto scale
  0 0 1 5 -2 roll arcn closepath tMatrix setmatrix fill} bdef
/vradius 0 def /hradius 0 def /lry 0 def
/lrx 0 def /uly 0 def /ulx 0 def /rad 0 def
/MRR {/vradius xdef /hradius xdef /lry xdef /lrx xdef /uly xdef
  /ulx xdef newpath tMatrix currentmatrix pop ulx hradius add uly
  vradius add translate hradius vradius scale 0 0 1 180 270 arc 
  tMatrix setmatrix lrx hradius sub uly vradius add translate
  hradius vradius scale 0 0 1 270 360 arc tMatrix setmatrix
  lrx hradius sub lry vradius sub translate hradius vradius scale
  0 0 1 0 90 arc tMatrix setmatrix ulx hradius add lry vradius sub
  translate hradius vradius scale 0 0 1 90 180 arc tMatrix setmatrix
  closepath} bdef
/FRR {MRR stroke } bdef
/PRR {MRR fill } bdef
/MlrRR {/lry xdef /lrx xdef /uly xdef /ulx xdef /rad lry uly sub 2 div def
  newpath tMatrix currentmatrix pop ulx rad add uly rad add translate
  rad rad scale 0 0 1 90 270 arc tMatrix setmatrix lrx rad sub lry rad
  sub translate rad rad scale 0 0 1 270 90 arc tMatrix setmatrix
  closepath} bdef
/FlrRR {MlrRR stroke } bdef
/PlrRR {MlrRR fill } bdef
/MtbRR {/lry xdef /lrx xdef /uly xdef /ulx xdef /rad lrx ulx sub 2 div def
  newpath tMatrix currentmatrix pop ulx rad add uly rad add translate
  rad rad scale 0 0 1 180 360 arc tMatrix setmatrix lrx rad sub lry rad
  sub translate rad rad scale 0 0 1 0 180 arc tMatrix setmatrix
  closepath} bdef
/FtbRR {MtbRR stroke } bdef
/PtbRR {MtbRR fill } bdef
/stri 6 array def /dtri 6 array def
/smat 6 array def /dmat 6 array def
/tmat1 6 array def /tmat2 6 array def /dif 3 array def
/asub {/ind2 exch def /ind1 exch def dup dup
  ind1 get exch ind2 get sub exch } bdef
/tri_to_matrix {
  2 0 asub 3 1 asub 4 0 asub 5 1 asub
  dup 0 get exch 1 get 7 -1 roll astore } bdef
/compute_transform {
  dmat dtri tri_to_matrix tmat1 invertmatrix 
  smat stri tri_to_matrix tmat2 concatmatrix } bdef
/ds {stri astore pop} bdef
/dt {dtri astore pop} bdef
/db {2 copy /cols xdef /rows xdef mul dup 3 mul string
  currentfile 
  3 index 0 eq {/ASCIIHexDecode filter}
  {/ASCII85Decode filter 3 index 2 eq {/RunLengthDecode filter} if }
  ifelse exch readstring pop
  dup 0 3 index getinterval /rbmap xdef
  dup 2 index dup getinterval /gbmap xdef
  1 index dup 2 mul exch getinterval /bbmap xdef pop pop}bdef
/it {gs np dtri aload pop moveto lineto lineto cp c
  cols rows 8 compute_transform 
  rbmap gbmap bbmap true 3 colorimage gr}bdef
/il {newpath moveto lineto stroke}bdef
currentdict end def
%%EndProlog

%%BeginSetup
MathWorks begin

0 cap

end
%%EndSetup

%%Page: 1 1
%%BeginPageSetup
%%PageBoundingBox:    32   180   546   616
MathWorks begin
bpage
%%EndPageSetup

%%BeginObject: obj1
bplot

/dpi2point 12 def
portraitMode 0216 7344 csm

  174   -48  6173  5231 rc
85 dict begin %Colortable dictionary
/c0 { 0.000000 0.000000 0.000000 sr} bdef
/c1 { 1.000000 1.000000 1.000000 sr} bdef
/c2 { 0.900000 0.000000 0.000000 sr} bdef
/c3 { 0.000000 0.820000 0.000000 sr} bdef
/c4 { 0.000000 0.000000 0.800000 sr} bdef
/c5 { 0.910000 0.820000 0.320000 sr} bdef
/c6 { 1.000000 0.260000 0.820000 sr} bdef
/c7 { 0.000000 0.820000 0.820000 sr} bdef
c0
1 j
1 sg
   0    0 6919 5187 rf
6 w
0 4201 5362 0 0 -4201 899 4616 4 MP
PP
-5362 0 0 4201 5362 0 0 -4201 899 4616 5 MP stroke
4 w
DO
SO
6 w
0 sg
 899  415 mt 6261  415 L
 899 4616 mt 6261 4616 L
6261 4616 mt 6261  415 L
 899 4616 mt  899  415 L
 899 4616 mt 6261 4616 L
 899 4616 mt  899  415 L
1971 4616 mt 1971 4562 L
1971  415 mt 1971  468 L
%%IncludeResource: font Helvetica
/Helvetica /WindowsLatin1Encoding 240 FMSR

1805 4873 mt 
(0.2) s
3043 4616 mt 3043 4562 L
3043  415 mt 3043  468 L
2877 4873 mt 
(0.4) s
4116 4616 mt 4116 4562 L
4116  415 mt 4116  468 L
3950 4873 mt 
(0.6) s
5188 4616 mt 5188 4562 L
5188  415 mt 5188  468 L
5022 4873 mt 
(0.8) s
 899 4196 mt  952 4196 L
6261 4196 mt 6207 4196 L
 531 4285 mt 
(0.1) s
 899 3776 mt  952 3776 L
6261 3776 mt 6207 3776 L
 531 3865 mt 
(0.2) s
 899 3356 mt  952 3356 L
6261 3356 mt 6207 3356 L
 531 3445 mt 
(0.3) s
 899 2935 mt  952 2935 L
6261 2935 mt 6207 2935 L
 531 3024 mt 
(0.4) s
 899 2515 mt  952 2515 L
6261 2515 mt 6207 2515 L
 531 2604 mt 
(0.5) s
 899 2095 mt  952 2095 L
6261 2095 mt 6207 2095 L
 531 2184 mt 
(0.6) s
 899 1675 mt  952 1675 L
6261 1675 mt 6207 1675 L
 531 1764 mt 
(0.7) s
 899 1255 mt  952 1255 L
6261 1255 mt 6207 1255 L
 531 1344 mt 
(0.8) s
 899  835 mt  952  835 L
6261  835 mt 6207  835 L
 531  924 mt 
(0.9) s
 899  415 mt 6261  415 L
 899 4616 mt 6261 4616 L
6261 4616 mt 6261  415 L
 899 4616 mt  899  415 L
gs 899 414 5363 4203 rc
gr

/c8 { 0.000000 0.000000 1.000000 sr} bdef
c8
6059  505 mt 6131  505 L
6095  469 mt 6095  541 L
6157 1018 mt 6229 1018 L
6193  982 mt 6193 1054 L
2487 3370 mt 2559 3370 L
2523 3334 mt 2523 3406 L
1711  725 mt 1783  725 L
1747  689 mt 1747  761 L
5961  512 mt 6033  512 L
5997  476 mt 5997  548 L
5332 1672 mt 5404 1672 L
5368 1636 mt 5368 1708 L
1393  602 mt 1465  602 L
1429  566 mt 1429  638 L
2316 2010 mt 2388 2010 L
2352 1974 mt 2352 2046 L
5533  616 mt 5605  616 L
5569  580 mt 5569  652 L
1262 1244 mt 1334 1244 L
1298 1208 mt 1298 1280 L
 863 1113 mt  935 1113 L
 899 1077 mt  899 1149 L
5861 2644 mt 5933 2644 L
5897 2608 mt 5897 2680 L
6164  634 mt 6236  634 L
6200  598 mt 6200  670 L
5622 1173 mt 5694 1173 L
5658 1137 mt 5658 1209 L
6216  623 mt 6288  623 L
6252  587 mt 6252  659 L
5730  821 mt 5802  821 L
5766  785 mt 5766  857 L
1183 2877 mt 1255 2877 L
1219 2841 mt 1219 2913 L
5072 4591 mt 5144 4591 L
5108 4555 mt 5108 4627 L
2779  905 mt 2851  905 L
2815  869 mt 2815  941 L
5193 1649 mt 5265 1649 L
5229 1613 mt 5229 1685 L
1290  914 mt 1362  914 L
1326  878 mt 1326  950 L
3090 4587 mt 3162 4587 L
3126 4551 mt 3126 4623 L
1538  537 mt 1610  537 L
1574  501 mt 1574  573 L
5066 1154 mt 5138 1154 L
5102 1118 mt 5102 1190 L
5736  811 mt 5808  811 L
5772  775 mt 5772  847 L
 864 1450 mt  936 1450 L
 900 1414 mt  900 1486 L
1319 1574 mt 1391 1574 L
1355 1538 mt 1355 1610 L
5987  912 mt 6059  912 L
6023  876 mt 6023  948 L
4909  555 mt 4981  555 L
4945  519 mt 4945  591 L
1747  934 mt 1819  934 L
1783  898 mt 1783  970 L
 919 1947 mt  991 1947 L
 955 1911 mt  955 1983 L
 873  870 mt  945  870 L
 909  834 mt  909  906 L
3159 2130 mt 3231 2130 L
3195 2094 mt 3195 2166 L
3919 2523 mt 3991 2523 L
3955 2487 mt 3955 2559 L
6146  522 mt 6218  522 L
6182  486 mt 6182  558 L
1954 2520 mt 2026 2520 L
1990 2484 mt 1990 2556 L
1815 1740 mt 1887 1740 L
1851 1704 mt 1851 1776 L
1314  649 mt 1386  649 L
1350  613 mt 1350  685 L
1395  452 mt 1467  452 L
1431  416 mt 1431  488 L
4450  582 mt 4522  582 L
4486  546 mt 4486  618 L
6001 2743 mt 6073 2743 L
6037 2707 mt 6037 2779 L
6193  444 mt 6265  444 L
6229  408 mt 6229  480 L
4951 1101 mt 5023 1101 L
4987 1065 mt 4987 1137 L
1885 4196 mt 1957 4196 L
1921 4160 mt 1921 4232 L
6216 3339 mt 6288 3339 L
6252 3303 mt 6252 3375 L
1175 1223 mt 1247 1223 L
1211 1187 mt 1211 1259 L
3572  557 mt 3644  557 L
3608  521 mt 3608  593 L
1754 1557 mt 1826 1557 L
1790 1521 mt 1790 1593 L
1503 3405 mt 1575 3405 L
1539 3369 mt 1539 3441 L
1214 1862 mt 1286 1862 L
1250 1826 mt 1250 1898 L
6217 1030 mt 6289 1030 L
6253  994 mt 6253 1066 L
5916 1147 mt 5988 1147 L
5952 1111 mt 5952 1183 L
4086 2599 mt 4158 2599 L
4122 2563 mt 4122 2635 L
6058 1900 mt 6130 1900 L
6094 1864 mt 6094 1936 L
4132 1916 mt 4204 1916 L
4168 1880 mt 4168 1952 L
4810 3146 mt 4882 3146 L
4846 3110 mt 4846 3182 L
3673 1272 mt 3745 1272 L
3709 1236 mt 3709 1308 L
6215 2050 mt 6287 2050 L
6251 2014 mt 6251 2086 L
2796  617 mt 2868  617 L
2832  581 mt 2832  653 L
3366 1123 mt 3438 1123 L
3402 1087 mt 3402 1159 L
6059 4353 mt 6131 4353 L
6095 4317 mt 6095 4389 L
1806  881 mt 1878  881 L
1842  845 mt 1842  917 L
5003 4469 mt 5075 4469 L
5039 4433 mt 5039 4505 L
6217  565 mt 6289  565 L
6253  529 mt 6253  601 L
5809 2246 mt 5881 2246 L
5845 2210 mt 5845 2282 L
6216 1917 mt 6288 1917 L
6252 1881 mt 6252 1953 L
6211  989 mt 6283  989 L
6247  953 mt 6247 1025 L
5257  841 mt 5329  841 L
5293  805 mt 5293  877 L
2607  580 mt 2679  580 L
2643  544 mt 2643  616 L
6067  428 mt 6139  428 L
6103  392 mt 6103  464 L
1502  600 mt 1574  600 L
1538  564 mt 1538  636 L
6130 3031 mt 6202 3031 L
6166 2995 mt 6166 3067 L
 863 1815 mt  935 1815 L
 899 1779 mt  899 1851 L
2852  445 mt 2924  445 L
2888  409 mt 2888  481 L
1195 1145 mt 1267 1145 L
1231 1109 mt 1231 1181 L
6179 4612 mt 6251 4612 L
6215 4576 mt 6215 4648 L
6184 3920 mt 6256 3920 L
6220 3884 mt 6220 3956 L
1176  449 mt 1248  449 L
1212  413 mt 1212  485 L
1259  714 mt 1331  714 L
1295  678 mt 1295  750 L
2559  697 mt 2631  697 L
2595  661 mt 2595  733 L
6122  561 mt 6194  561 L
6158  525 mt 6158  597 L
2031 4497 mt 2103 4497 L
2067 4461 mt 2067 4533 L
6064 2161 mt 6136 2161 L
6100 2125 mt 6100 2197 L
4550  425 mt 4622  425 L
4586  389 mt 4586  461 L
1037  626 mt 1109  626 L
1073  590 mt 1073  662 L
4315 4511 mt 4387 4511 L
4351 4475 mt 4351 4547 L
6157  466 mt 6229  466 L
6193  430 mt 6193  502 L
5360 1969 mt 5432 1969 L
5396 1933 mt 5396 2005 L
4619 4399 mt 4691 4399 L
4655 4363 mt 4655 4435 L
6219  430 mt 6291  430 L
6255  394 mt 6255  466 L
3643  477 mt 3715  477 L
3679  441 mt 3679  513 L
6221  573 mt 6293  573 L
6257  537 mt 6257  609 L
1232  823 mt 1304  823 L
1268  787 mt 1268  859 L
5607 1669 mt 5679 1669 L
5643 1633 mt 5643 1705 L
1260 2450 mt 1332 2450 L
1296 2414 mt 1296 2486 L
5389 1763 mt 5461 1763 L
5425 1727 mt 5425 1799 L
6117 1527 mt 6189 1527 L
6153 1491 mt 6153 1563 L
6201  508 mt 6273  508 L
6237  472 mt 6237  544 L
2577 4596 mt 2649 4596 L
2613 4560 mt 2613 4632 L
6129  479 mt 6201  479 L
6165  443 mt 6165  515 L
6225  757 mt 6297  757 L
6261  721 mt 6261  793 L
4612 1547 mt 4684 1547 L
4648 1511 mt 4648 1583 L
1121 4360 mt 1193 4360 L
1157 4324 mt 1157 4396 L
6150 4612 mt 6222 4612 L
6186 4576 mt 6186 4648 L
2321 2533 mt 2393 2533 L
2357 2497 mt 2357 2569 L
1176  589 mt 1248  589 L
1212  553 mt 1212  625 L
5677  588 mt 5749  588 L
5713  552 mt 5713  624 L
1006  820 mt 1078  820 L
1042  784 mt 1042  856 L
1720 2269 mt 1792 2269 L
1756 2233 mt 1756 2305 L
3401 1448 mt 3473 1448 L
3437 1412 mt 3437 1484 L
5698 3726 mt 5770 3726 L
5734 3690 mt 5734 3762 L
1314 2309 mt 1386 2309 L
1350 2273 mt 1350 2345 L
5868 4287 mt 5940 4287 L
5904 4251 mt 5904 4323 L
6170  607 mt 6242  607 L
6206  571 mt 6206  643 L
1326 4482 mt 1398 4482 L
1362 4446 mt 1362 4518 L
1104 3412 mt 1176 3412 L
1140 3376 mt 1140 3448 L
3742  491 mt 3814  491 L
3778  455 mt 3778  527 L
6171 1074 mt 6243 1074 L
6207 1038 mt 6207 1110 L
 879 2671 mt  951 2671 L
 915 2635 mt  915 2707 L
3138 1194 mt 3210 1194 L
3174 1158 mt 3174 1230 L
5951  995 mt 6023  995 L
5987  959 mt 5987 1031 L
1705 1048 mt 1777 1048 L
1741 1012 mt 1741 1084 L
5544  794 mt 5616  794 L
5580  758 mt 5580  830 L
 894  704 mt  966  704 L
 930  668 mt  930  740 L
3546 4374 mt 3618 4374 L
3582 4338 mt 3582 4410 L
6223 1395 mt 6295 1395 L
6259 1359 mt 6259 1431 L
5984 1343 mt 6056 1343 L
6020 1307 mt 6020 1379 L
5804 2222 mt 5876 2222 L
5840 2186 mt 5840 2258 L
1510  821 mt 1582  821 L
1546  785 mt 1546  857 L
 896 4545 mt  968 4545 L
 932 4509 mt  932 4581 L
6166  853 mt 6238  853 L
6202  817 mt 6202  889 L
4313 3752 mt 4385 3752 L
4349 3716 mt 4349 3788 L
2291 1939 mt 2363 1939 L
2327 1903 mt 2327 1975 L
5737 3538 mt 5809 3538 L
5773 3502 mt 5773 3574 L
1147 1511 mt 1219 1511 L
1183 1475 mt 1183 1547 L
6100 4548 mt 6172 4548 L
6136 4512 mt 6136 4584 L
1812 4505 mt 1884 4505 L
1848 4469 mt 1848 4541 L
4714 1040 mt 4786 1040 L
4750 1004 mt 4750 1076 L
3100 2520 mt 3172 2520 L
3136 2484 mt 3136 2556 L
4835  722 mt 4907  722 L
4871  686 mt 4871  758 L
4556 1099 mt 4628 1099 L
4592 1063 mt 4592 1135 L
6197  499 mt 6269  499 L
6233  463 mt 6233  535 L
 888 1318 mt  960 1318 L
 924 1282 mt  924 1354 L
2041  934 mt 2113  934 L
2077  898 mt 2077  970 L
6194  526 mt 6266  526 L
6230  490 mt 6230  562 L
4767 1707 mt 4839 1707 L
4803 1671 mt 4803 1743 L
1173 2327 mt 1245 2327 L
1209 2291 mt 1209 2363 L
6141  467 mt 6213  467 L
6177  431 mt 6177  503 L
3245  573 mt 3317  573 L
3281  537 mt 3281  609 L
2860  484 mt 2932  484 L
2896  448 mt 2896  520 L
1106  853 mt 1178  853 L
1142  817 mt 1142  889 L
2386 4406 mt 2458 4406 L
2422 4370 mt 2422 4442 L
1863  682 mt 1935  682 L
1899  646 mt 1899  718 L
1465 1706 mt 1537 1706 L
1501 1670 mt 1501 1742 L
1016  685 mt 1088  685 L
1052  649 mt 1052  721 L
3242  545 mt 3314  545 L
3278  509 mt 3278  581 L
1265 4470 mt 1337 4470 L
1301 4434 mt 1301 4506 L
1619 3397 mt 1691 3397 L
1655 3361 mt 1655 3433 L
 863 2131 mt  935 2131 L
 899 2095 mt  899 2167 L
4695 2216 mt 4767 2216 L
4731 2180 mt 4731 2252 L
5087 3241 mt 5159 3241 L
5123 3205 mt 5123 3277 L
2601 4574 mt 2673 4574 L
2637 4538 mt 2637 4610 L
 977 1148 mt 1049 1148 L
1013 1112 mt 1013 1184 L
5311 2209 mt 5383 2209 L
5347 2173 mt 5347 2245 L
1546  529 mt 1618  529 L
1582  493 mt 1582  565 L
 948  833 mt 1020  833 L
 984  797 mt  984  869 L
1397 3831 mt 1469 3831 L
1433 3795 mt 1433 3867 L
5713 1578 mt 5785 1578 L
5749 1542 mt 5749 1614 L
2370  417 mt 2442  417 L
2406  381 mt 2406  453 L
6206  594 mt 6278  594 L
6242  558 mt 6242  630 L
4106  586 mt 4178  586 L
4142  550 mt 4142  622 L
6088  519 mt 6160  519 L
6124  483 mt 6124  555 L
1538  873 mt 1610  873 L
1574  837 mt 1574  909 L
3584  901 mt 3656  901 L
3620  865 mt 3620  937 L
2296 2590 mt 2368 2590 L
2332 2554 mt 2332 2626 L
6078 1206 mt 6150 1206 L
6114 1170 mt 6114 1242 L
5009  862 mt 5081  862 L
5045  826 mt 5045  898 L
6223 2400 mt 6295 2400 L
6259 2364 mt 6259 2436 L
6139  983 mt 6211  983 L
6175  947 mt 6175 1019 L
1021  502 mt 1093  502 L
1057  466 mt 1057  538 L
1394 2213 mt 1466 2213 L
1430 2177 mt 1430 2249 L
4046 3867 mt 4118 3867 L
4082 3831 mt 4082 3903 L
2924  751 mt 2996  751 L
2960  715 mt 2960  787 L
6189 3470 mt 6261 3470 L
6225 3434 mt 6225 3506 L
3579  739 mt 3651  739 L
3615  703 mt 3615  775 L
1590 3133 mt 1662 3133 L
1626 3097 mt 1626 3169 L
5523 1376 mt 5595 1376 L
5559 1340 mt 5559 1412 L
5748 2412 mt 5820 2412 L
5784 2376 mt 5784 2448 L
5061  525 mt 5133  525 L
5097  489 mt 5097  561 L
2013 3509 mt 2085 3509 L
2049 3473 mt 2049 3545 L
1018 4496 mt 1090 4496 L
1054 4460 mt 1054 4532 L
5467 3659 mt 5539 3659 L
5503 3623 mt 5503 3695 L
6203  524 mt 6275  524 L
6239  488 mt 6239  560 L
6059  779 mt 6131  779 L
6095  743 mt 6095  815 L
5853  486 mt 5925  486 L
5889  450 mt 5889  522 L
1077  496 mt 1149  496 L
1113  460 mt 1113  532 L
2865 1877 mt 2937 1877 L
2901 1841 mt 2901 1913 L
6025  493 mt 6097  493 L
6061  457 mt 6061  529 L
3575 1497 mt 3647 1497 L
3611 1461 mt 3611 1533 L
5555 2298 mt 5627 2298 L
5591 2262 mt 5591 2334 L
6217  553 mt 6289  553 L
6253  517 mt 6253  589 L
6205  490 mt 6277  490 L
6241  454 mt 6241  526 L
2233  830 mt 2305  830 L
2269  794 mt 2269  866 L
1787 2577 mt 1859 2577 L
1823 2541 mt 1823 2613 L
1097  569 mt 1169  569 L
1133  533 mt 1133  605 L
6108 2088 mt 6180 2088 L
6144 2052 mt 6144 2124 L
 973 2370 mt 1045 2370 L
1009 2334 mt 1009 2406 L
5751 4166 mt 5823 4166 L
5787 4130 mt 5787 4202 L
6209  415 mt 6281  415 L
6245  379 mt 6245  451 L
 870 4425 mt  942 4425 L
 906 4389 mt  906 4461 L
1323  459 mt 1395  459 L
1359  423 mt 1359  495 L
6219 1972 mt 6291 1972 L
6255 1936 mt 6255 2008 L
6223  523 mt 6295  523 L
6259  487 mt 6259  559 L
4845 1621 mt 4917 1621 L
4881 1585 mt 4881 1657 L
6205  489 mt 6277  489 L
6241  453 mt 6241  525 L
6199 4014 mt 6271 4014 L
6235 3978 mt 6235 4050 L
6179  420 mt 6251  420 L
6215  384 mt 6215  456 L
5757 3624 mt 5829 3624 L
5793 3588 mt 5793 3660 L
1188 4610 mt 1260 4610 L
1224 4574 mt 1224 4646 L
3781 2221 mt 3853 2221 L
3817 2185 mt 3817 2257 L
2488 2614 mt 2560 2614 L
2524 2578 mt 2524 2650 L
2478  624 mt 2550  624 L
2514  588 mt 2514  660 L
6169 1481 mt 6241 1481 L
6205 1445 mt 6205 1517 L
 873 4582 mt  945 4582 L
 909 4546 mt  909 4618 L
6146 2961 mt 6218 2961 L
6182 2925 mt 6182 2997 L
2174 1057 mt 2246 1057 L
2210 1021 mt 2210 1093 L
1702  808 mt 1774  808 L
1738  772 mt 1738  844 L
5959  745 mt 6031  745 L
5995  709 mt 5995  781 L
3389  956 mt 3461  956 L
3425  920 mt 3425  992 L
5199 1974 mt 5271 1974 L
5235 1938 mt 5235 2010 L
5967 4607 mt 6039 4607 L
6003 4571 mt 6003 4643 L
4515 2704 mt 4587 2704 L
4551 2668 mt 4551 2740 L
3999 2890 mt 4071 2890 L
4035 2854 mt 4035 2926 L
4353 1224 mt 4425 1224 L
4389 1188 mt 4389 1260 L
2123  417 mt 2195  417 L
2159  381 mt 2159  453 L
5778 1388 mt 5850 1388 L
5814 1352 mt 5814 1424 L
6211 3804 mt 6283 3804 L
6247 3768 mt 6247 3840 L
5987 2914 mt 6059 2914 L
6023 2878 mt 6023 2950 L
1116  612 mt 1188  612 L
1152  576 mt 1152  648 L
6221  728 mt 6293  728 L
6257  692 mt 6257  764 L
6222 3562 mt 6294 3562 L
6258 3526 mt 6258 3598 L
6215 2230 mt 6287 2230 L
6251 2194 mt 6251 2266 L
6223  952 mt 6295  952 L
6259  916 mt 6259  988 L
6207  427 mt 6279  427 L
6243  391 mt 6243  463 L
6005 4613 mt 6077 4613 L
6041 4577 mt 6041 4649 L
6220  852 mt 6292  852 L
6256  816 mt 6256  888 L
2892 1816 mt 2964 1816 L
2928 1780 mt 2928 1852 L
1798  615 mt 1870  615 L
1834  579 mt 1834  651 L
6175  416 mt 6247  416 L
6211  380 mt 6211  452 L
 877 4139 mt  949 4139 L
 913 4103 mt  913 4175 L
6210 4576 mt 6282 4576 L
6246 4540 mt 6246 4612 L
5133  875 mt 5205  875 L
5169  839 mt 5169  911 L
4634 1157 mt 4706 1157 L
4670 1121 mt 4670 1193 L
6220 2624 mt 6292 2624 L
6256 2588 mt 6256 2660 L
2673 1907 mt 2745 1907 L
2709 1871 mt 2709 1943 L
4308 4571 mt 4380 4571 L
4344 4535 mt 4344 4607 L
6202  572 mt 6274  572 L
6238  536 mt 6238  608 L
3993 3227 mt 4065 3227 L
4029 3191 mt 4029 3263 L
6175  734 mt 6247  734 L
6211  698 mt 6211  770 L
1028 1272 mt 1100 1272 L
1064 1236 mt 1064 1308 L
6222 3991 mt 6294 3991 L
6258 3955 mt 6258 4027 L
6063  679 mt 6135  679 L
6099  643 mt 6099  715 L
6064 1268 mt 6136 1268 L
6100 1232 mt 6100 1304 L
6205 4151 mt 6277 4151 L
6241 4115 mt 6241 4187 L
4002  490 mt 4074  490 L
4038  454 mt 4038  526 L
4109 4050 mt 4181 4050 L
4145 4014 mt 4145 4086 L
6215 4041 mt 6287 4041 L
6251 4005 mt 6251 4077 L
3214  612 mt 3286  612 L
3250  576 mt 3250  648 L
4054  449 mt 4126  449 L
4090  413 mt 4090  485 L
6028 1947 mt 6100 1947 L
6064 1911 mt 6064 1983 L
6224  525 mt 6296  525 L
6260  489 mt 6260  561 L
6168 4401 mt 6240 4401 L
6204 4365 mt 6204 4437 L
6217 4223 mt 6289 4223 L
6253 4187 mt 6253 4259 L
2166  476 mt 2238  476 L
2202  440 mt 2202  512 L
2913 1576 mt 2985 1576 L
2949 1540 mt 2949 1612 L
1885 4616 mt 1957 4616 L
1921 4580 mt 1921 4652 L
6216 2211 mt 6288 2211 L
6252 2175 mt 6252 2247 L
6215  670 mt 6287  670 L
6251  634 mt 6251  706 L
1711 1461 mt 1783 1461 L
1747 1425 mt 1747 1497 L
6220  427 mt 6292  427 L
6256  391 mt 6256  463 L
4720 2339 mt 4792 2339 L
4756 2303 mt 4756 2375 L
2569 2084 mt 2641 2084 L
2605 2048 mt 2605 2120 L
6219 3576 mt 6291 3576 L
6255 3540 mt 6255 3612 L
5060 1091 mt 5132 1091 L
5096 1055 mt 5096 1127 L
6078 1645 mt 6150 1645 L
6114 1609 mt 6114 1681 L
2203  481 mt 2275  481 L
2239  445 mt 2239  517 L
6205  458 mt 6277  458 L
6241  422 mt 6241  494 L
5958 2015 mt 6030 2015 L
5994 1979 mt 5994 2051 L
4202 4194 mt 4274 4194 L
4238 4158 mt 4238 4230 L
6186 1798 mt 6258 1798 L
6222 1762 mt 6222 1834 L
6195 1381 mt 6267 1381 L
6231 1345 mt 6231 1417 L
6100  604 mt 6172  604 L
6136  568 mt 6136  640 L
3551 1114 mt 3623 1114 L
3587 1078 mt 3587 1150 L
2454 4110 mt 2526 4110 L
2490 4074 mt 2490 4146 L
5584  941 mt 5656  941 L
5620  905 mt 5620  977 L
1427 3972 mt 1499 3972 L
1463 3936 mt 1463 4008 L
5722 4471 mt 5794 4471 L
5758 4435 mt 5758 4507 L
2605  415 mt 2677  415 L
2641  379 mt 2641  451 L
2566 4556 mt 2638 4556 L
2602 4520 mt 2602 4592 L
6215  752 mt 6287  752 L
6251  716 mt 6251  788 L
6070  927 mt 6142  927 L
6106  891 mt 6106  963 L
5396 4006 mt 5468 4006 L
5432 3970 mt 5432 4042 L
4956 2446 mt 5028 2446 L
4992 2410 mt 4992 2482 L
6206 4299 mt 6278 4299 L
6242 4263 mt 6242 4335 L
2428 1758 mt 2500 1758 L
2464 1722 mt 2464 1794 L
4469 3036 mt 4541 3036 L
4505 3000 mt 4505 3072 L
6224  719 mt 6296  719 L
6260  683 mt 6260  755 L
6163 1404 mt 6235 1404 L
6199 1368 mt 6199 1440 L
6168 4014 mt 6240 4014 L
6204 3978 mt 6204 4050 L
3995 3176 mt 4067 3176 L
4031 3140 mt 4031 3212 L
5996  668 mt 6068  668 L
6032  632 mt 6032  704 L
2751 4567 mt 2823 4567 L
2787 4531 mt 2787 4603 L
3705 4092 mt 3777 4092 L
3741 4056 mt 3741 4128 L
2589 2164 mt 2661 2164 L
2625 2128 mt 2625 2200 L
2158 3387 mt 2230 3387 L
2194 3351 mt 2194 3423 L
 869 2803 mt  941 2803 L
 905 2767 mt  905 2839 L
6197 1346 mt 6269 1346 L
6233 1310 mt 6233 1382 L
5583 1945 mt 5655 1945 L
5619 1909 mt 5619 1981 L
5512 1718 mt 5584 1718 L
5548 1682 mt 5548 1754 L
6200  415 mt 6272  415 L
6236  379 mt 6236  451 L
6221 1226 mt 6293 1226 L
6257 1190 mt 6257 1262 L
5616 2617 mt 5688 2617 L
5652 2581 mt 5652 2653 L
5533 1299 mt 5605 1299 L
5569 1263 mt 5569 1335 L
 863 1280 mt  935 1280 L
 899 1244 mt  899 1316 L
5913  506 mt 5985  506 L
5949  470 mt 5949  542 L
5455 1559 mt 5527 1559 L
5491 1523 mt 5491 1595 L
6040 4615 mt 6112 4615 L
6076 4579 mt 6076 4651 L
6049 3669 mt 6121 3669 L
6085 3633 mt 6085 3705 L
6221 4491 mt 6293 4491 L
6257 4455 mt 6257 4527 L
1386 1124 mt 1458 1124 L
1422 1088 mt 1422 1160 L
6123  603 mt 6195  603 L
6159  567 mt 6159  639 L
2109 4130 mt 2181 4130 L
2145 4094 mt 2145 4166 L
6156 1557 mt 6228 1557 L
6192 1521 mt 6192 1593 L
5127 3198 mt 5199 3198 L
5163 3162 mt 5163 3234 L
4427 1553 mt 4499 1553 L
4463 1517 mt 4463 1589 L
5807 3641 mt 5879 3641 L
5843 3605 mt 5843 3677 L
3146 1686 mt 3218 1686 L
3182 1650 mt 3182 1722 L
6172  461 mt 6244  461 L
6208  425 mt 6208  497 L
5239 3424 mt 5311 3424 L
5275 3388 mt 5275 3460 L
3977 1226 mt 4049 1226 L
4013 1190 mt 4013 1262 L
3708  441 mt 3780  441 L
3744  405 mt 3744  477 L
6224  677 mt 6296  677 L
6260  641 mt 6260  713 L
1542 4042 mt 1614 4042 L
1578 4006 mt 1578 4078 L
 863  769 mt  935  769 L
 899  733 mt  899  805 L
3966  508 mt 4038  508 L
4002  472 mt 4002  544 L
5690 2717 mt 5762 2717 L
5726 2681 mt 5726 2753 L
5915 4547 mt 5987 4547 L
5951 4511 mt 5951 4583 L
5699 3213 mt 5771 3213 L
5735 3177 mt 5735 3249 L
5578  764 mt 5650  764 L
5614  728 mt 5614  800 L
 870 4602 mt  942 4602 L
 906 4566 mt  906 4638 L
 870  955 mt  942  955 L
 906  919 mt  906  991 L
2143 4159 mt 2215 4159 L
2179 4123 mt 2179 4195 L
5585 3383 mt 5657 3383 L
5621 3347 mt 5621 3419 L
5411 2064 mt 5483 2064 L
5447 2028 mt 5447 2100 L
2817  499 mt 2889  499 L
2853  463 mt 2853  535 L
6026  432 mt 6098  432 L
6062  396 mt 6062  468 L
1588 3973 mt 1660 3973 L
1624 3937 mt 1624 4009 L
2653 4184 mt 2725 4184 L
2689 4148 mt 2689 4220 L
1268 2610 mt 1340 2610 L
1304 2574 mt 1304 2646 L
1786 2315 mt 1858 2315 L
1822 2279 mt 1822 2351 L
6115 4611 mt 6187 4611 L
6151 4575 mt 6151 4647 L
4758 1096 mt 4830 1096 L
4794 1060 mt 4794 1132 L
 863  415 mt  935  415 L
 899  379 mt  899  451 L
6075 2438 mt 6147 2438 L
6111 2402 mt 6111 2474 L
1258 2923 mt 1330 2923 L
1294 2887 mt 1294 2959 L
5073 3293 mt 5145 3293 L
5109 3257 mt 5109 3329 L
6175 3887 mt 6247 3887 L
6211 3851 mt 6211 3923 L
1057 4564 mt 1129 4564 L
1093 4528 mt 1093 4600 L
6213 4589 mt 6285 4589 L
6249 4553 mt 6249 4625 L
6209  834 mt 6281  834 L
6245  798 mt 6245  870 L
2894 4277 mt 2966 4277 L
2930 4241 mt 2930 4313 L
6205 2406 mt 6277 2406 L
6241 2370 mt 6241 2442 L
6222 1791 mt 6294 1791 L
6258 1755 mt 6258 1827 L
1926 3042 mt 1998 3042 L
1962 3006 mt 1962 3078 L
6213 4125 mt 6285 4125 L
6249 4089 mt 6249 4161 L
1866  841 mt 1938  841 L
1902  805 mt 1902  877 L
 864 2419 mt  936 2419 L
 900 2383 mt  900 2455 L
3728 3332 mt 3800 3332 L
3764 3296 mt 3764 3368 L
2586 2162 mt 2658 2162 L
2622 2126 mt 2622 2198 L
 863 3940 mt  935 3940 L
 899 3904 mt  899 3976 L
 994 4550 mt 1066 4550 L
1030 4514 mt 1030 4586 L
1080  795 mt 1152  795 L
1116  759 mt 1116  831 L
6223  780 mt 6295  780 L
6259  744 mt 6259  816 L
6193  737 mt 6265  737 L
6229  701 mt 6229  773 L
 968 1208 mt 1040 1208 L
1004 1172 mt 1004 1244 L
6223 3775 mt 6295 3775 L
6259 3739 mt 6259 3811 L
2726 4536 mt 2798 4536 L
2762 4500 mt 2762 4572 L
4333 2455 mt 4405 2455 L
4369 2419 mt 4369 2491 L
1039 3469 mt 1111 3469 L
1075 3433 mt 1075 3505 L
3331  444 mt 3403  444 L
3367  408 mt 3367  480 L
 874 4068 mt  946 4068 L
 910 4032 mt  910 4104 L
5458 2548 mt 5530 2548 L
5494 2512 mt 5494 2584 L
6186 1953 mt 6258 1953 L
6222 1917 mt 6222 1989 L
4426  665 mt 4498  665 L
4462  629 mt 4462  701 L
6223  609 mt 6295  609 L
6259  573 mt 6259  645 L
2837  443 mt 2909  443 L
2873  407 mt 2873  479 L
5740 3716 mt 5812 3716 L
5776 3680 mt 5776 3752 L
5725  476 mt 5797  476 L
5761  440 mt 5761  512 L
4521 2883 mt 4593 2883 L
4557 2847 mt 4557 2919 L
6213  538 mt 6285  538 L
6249  502 mt 6249  574 L
gs 899 414 5363 4203 rc
gr

0 sg
2826 5104 mt 
(\(F,DCTs,MLP\)) s
 422 3343 mt  -90 rotate
(\(S,LFCC,GMM\)) s
90 rotate
2975  223 mt 
(Corr = 0.10) s

end %%Color Dict

eplot
%%EndObject

epage
end

showpage

%%Trailer
%%EOF
