%!PS-Adobe-3.0 EPSF-3.0
%%Creator: MATLAB, The Mathworks, Inc. Version 7.7.0.471 (R2008b). Operating System: Microsoft Windows XP.
%%Title: Pictures\main_zoo_mvar_analysis_data_BMI_xcorr_bmi_p2_k1_1_2.eps
%%CreationDate: 10/26/2009  05:44:37
%%DocumentNeededFonts: Helvetica
%%DocumentProcessColors: Cyan Magenta Yellow Black
%%LanguageLevel: 2
%%Pages: 1
%%BoundingBox:    32   180   546   616
%%EndComments

%%BeginProlog
% MathWorks dictionary
/MathWorks 160 dict begin
% definition operators
/bdef {bind def} bind def
/ldef {load def} bind def
/xdef {exch def} bdef
/xstore {exch store} bdef
% operator abbreviations
/c  /clip ldef
/cc /concat ldef
/cp /closepath ldef
/gr /grestore ldef
/gs /gsave ldef
/mt /moveto ldef
/np /newpath ldef
/cm /currentmatrix ldef
/sm /setmatrix ldef
/rm /rmoveto ldef
/rl /rlineto ldef
/s {show newpath} bdef
/sc {setcmykcolor} bdef
/sr /setrgbcolor ldef
/sg /setgray ldef
/w /setlinewidth ldef
/j /setlinejoin ldef
/cap /setlinecap ldef
/rc {rectclip} bdef
/rf {rectfill} bdef
% page state control
/pgsv () def
/bpage {/pgsv save def} bdef
/epage {pgsv restore} bdef
/bplot /gsave ldef
/eplot {stroke grestore} bdef
% orientation switch
/portraitMode 0 def /landscapeMode 1 def /rotateMode 2 def
% coordinate system mappings
/dpi2point 0 def
% font control
/FontSize 0 def
/FMS {/FontSize xstore findfont [FontSize 0 0 FontSize neg 0 0]
  makefont setfont} bdef
/ISOLatin1Encoding where {pop /WindowsLatin1Encoding 256 array bdef
ISOLatin1Encoding WindowsLatin1Encoding copy pop
/.notdef/.notdef/quotesinglbase/florin/quotedblbase/ellipsis/dagger
/daggerdbl/circumflex/perthousand/Scaron/guilsinglleft/OE/.notdef/.notdef
/.notdef/.notdef/quoteleft/quoteright/quotedblleft/quotedblright/bullet
/endash/emdash/tilde/trademark/scaron/guilsinglright/oe/.notdef/.notdef
/Ydieresis WindowsLatin1Encoding 128 32 getinterval astore pop}
{/WindowsLatin1Encoding StandardEncoding bdef} ifelse
/reencode {exch dup where {pop load} {pop StandardEncoding} ifelse
  exch dup 3 1 roll findfont dup length dict begin
  { 1 index /FID ne {def}{pop pop} ifelse } forall
  /Encoding exch def currentdict end definefont pop} bdef
/isroman {findfont /CharStrings get /Agrave known} bdef
/FMSR {3 1 roll 1 index dup isroman {reencode} {pop pop} ifelse
  exch FMS} bdef
/csm {1 dpi2point div -1 dpi2point div scale neg translate
 dup landscapeMode eq {pop -90 rotate}
  {rotateMode eq {90 rotate} if} ifelse} bdef
% line types: solid, dotted, dashed, dotdash
/SO { [] 0 setdash } bdef
/DO { [.5 dpi2point mul 4 dpi2point mul] 0 setdash } bdef
/DA { [6 dpi2point mul] 0 setdash } bdef
/DD { [.5 dpi2point mul 4 dpi2point mul 6 dpi2point mul 4
  dpi2point mul] 0 setdash } bdef
% macros for lines and objects
/L {lineto stroke} bdef
/MP {3 1 roll moveto 1 sub {rlineto} repeat} bdef
/AP {{rlineto} repeat} bdef
/PDlw -1 def
/W {/PDlw currentlinewidth def setlinewidth} def
/PP {closepath eofill} bdef
/DP {closepath stroke} bdef
/MR {4 -2 roll moveto dup  0 exch rlineto exch 0 rlineto
  neg 0 exch rlineto closepath} bdef
/FR {MR stroke} bdef
/PR {MR fill} bdef
/L1i {{currentfile picstr readhexstring pop} image} bdef
/tMatrix matrix def
/MakeOval {newpath tMatrix currentmatrix pop translate scale
0 0 1 0 360 arc tMatrix setmatrix} bdef
/FO {MakeOval stroke} bdef
/PO {MakeOval fill} bdef
/PD {currentlinewidth 2 div 0 360 arc fill
   PDlw -1 eq not {PDlw w /PDlw -1 def} if} def
/FA {newpath tMatrix currentmatrix pop translate scale
  0 0 1 5 -2 roll arc tMatrix setmatrix stroke} bdef
/PA {newpath tMatrix currentmatrix pop	translate 0 0 moveto scale
  0 0 1 5 -2 roll arc closepath tMatrix setmatrix fill} bdef
/FAn {newpath tMatrix currentmatrix pop translate scale
  0 0 1 5 -2 roll arcn tMatrix setmatrix stroke} bdef
/PAn {newpath tMatrix currentmatrix pop translate 0 0 moveto scale
  0 0 1 5 -2 roll arcn closepath tMatrix setmatrix fill} bdef
/vradius 0 def /hradius 0 def /lry 0 def
/lrx 0 def /uly 0 def /ulx 0 def /rad 0 def
/MRR {/vradius xdef /hradius xdef /lry xdef /lrx xdef /uly xdef
  /ulx xdef newpath tMatrix currentmatrix pop ulx hradius add uly
  vradius add translate hradius vradius scale 0 0 1 180 270 arc 
  tMatrix setmatrix lrx hradius sub uly vradius add translate
  hradius vradius scale 0 0 1 270 360 arc tMatrix setmatrix
  lrx hradius sub lry vradius sub translate hradius vradius scale
  0 0 1 0 90 arc tMatrix setmatrix ulx hradius add lry vradius sub
  translate hradius vradius scale 0 0 1 90 180 arc tMatrix setmatrix
  closepath} bdef
/FRR {MRR stroke } bdef
/PRR {MRR fill } bdef
/MlrRR {/lry xdef /lrx xdef /uly xdef /ulx xdef /rad lry uly sub 2 div def
  newpath tMatrix currentmatrix pop ulx rad add uly rad add translate
  rad rad scale 0 0 1 90 270 arc tMatrix setmatrix lrx rad sub lry rad
  sub translate rad rad scale 0 0 1 270 90 arc tMatrix setmatrix
  closepath} bdef
/FlrRR {MlrRR stroke } bdef
/PlrRR {MlrRR fill } bdef
/MtbRR {/lry xdef /lrx xdef /uly xdef /ulx xdef /rad lrx ulx sub 2 div def
  newpath tMatrix currentmatrix pop ulx rad add uly rad add translate
  rad rad scale 0 0 1 180 360 arc tMatrix setmatrix lrx rad sub lry rad
  sub translate rad rad scale 0 0 1 0 180 arc tMatrix setmatrix
  closepath} bdef
/FtbRR {MtbRR stroke } bdef
/PtbRR {MtbRR fill } bdef
/stri 6 array def /dtri 6 array def
/smat 6 array def /dmat 6 array def
/tmat1 6 array def /tmat2 6 array def /dif 3 array def
/asub {/ind2 exch def /ind1 exch def dup dup
  ind1 get exch ind2 get sub exch } bdef
/tri_to_matrix {
  2 0 asub 3 1 asub 4 0 asub 5 1 asub
  dup 0 get exch 1 get 7 -1 roll astore } bdef
/compute_transform {
  dmat dtri tri_to_matrix tmat1 invertmatrix 
  smat stri tri_to_matrix tmat2 concatmatrix } bdef
/ds {stri astore pop} bdef
/dt {dtri astore pop} bdef
/db {2 copy /cols xdef /rows xdef mul dup 3 mul string
  currentfile 
  3 index 0 eq {/ASCIIHexDecode filter}
  {/ASCII85Decode filter 3 index 2 eq {/RunLengthDecode filter} if }
  ifelse exch readstring pop
  dup 0 3 index getinterval /rbmap xdef
  dup 2 index dup getinterval /gbmap xdef
  1 index dup 2 mul exch getinterval /bbmap xdef pop pop}bdef
/it {gs np dtri aload pop moveto lineto lineto cp c
  cols rows 8 compute_transform 
  rbmap gbmap bbmap true 3 colorimage gr}bdef
/il {newpath moveto lineto stroke}bdef
currentdict end def
%%EndProlog

%%BeginSetup
MathWorks begin

0 cap

end
%%EndSetup

%%Page: 1 1
%%BeginPageSetup
%%PageBoundingBox:    32   180   546   616
MathWorks begin
bpage
%%EndPageSetup

%%BeginObject: obj1
bplot

/dpi2point 12 def
portraitMode 0216 7344 csm

  174   -48  6173  5231 rc
85 dict begin %Colortable dictionary
/c0 { 0.000000 0.000000 0.000000 sr} bdef
/c1 { 1.000000 1.000000 1.000000 sr} bdef
/c2 { 0.900000 0.000000 0.000000 sr} bdef
/c3 { 0.000000 0.820000 0.000000 sr} bdef
/c4 { 0.000000 0.000000 0.800000 sr} bdef
/c5 { 0.910000 0.820000 0.320000 sr} bdef
/c6 { 1.000000 0.260000 0.820000 sr} bdef
/c7 { 0.000000 0.820000 0.820000 sr} bdef
c0
1 j
1 sg
   0    0 6919 5187 rf
6 w
0 4201 5362 0 0 -4201 899 4616 4 MP
PP
-5362 0 0 4201 5362 0 0 -4201 899 4616 5 MP stroke
4 w
DO
SO
6 w
0 sg
 899  415 mt 6261  415 L
 899 4616 mt 6261 4616 L
6261 4616 mt 6261  415 L
 899 4616 mt  899  415 L
 899 4616 mt 6261 4616 L
 899 4616 mt  899  415 L
1592 4616 mt 1592 4562 L
1592  415 mt 1592  468 L
%%IncludeResource: font Helvetica
/Helvetica /WindowsLatin1Encoding 240 FMSR

1426 4873 mt 
(0.1) s
2286 4616 mt 2286 4562 L
2286  415 mt 2286  468 L
2120 4873 mt 
(0.2) s
2980 4616 mt 2980 4562 L
2980  415 mt 2980  468 L
2814 4873 mt 
(0.3) s
3674 4616 mt 3674 4562 L
3674  415 mt 3674  468 L
3508 4873 mt 
(0.4) s
4368 4616 mt 4368 4562 L
4368  415 mt 4368  468 L
4202 4873 mt 
(0.5) s
5062 4616 mt 5062 4562 L
5062  415 mt 5062  468 L
4896 4873 mt 
(0.6) s
5756 4616 mt 5756 4562 L
5756  415 mt 5756  468 L
5590 4873 mt 
(0.7) s
 899 4112 mt  952 4112 L
6261 4112 mt 6207 4112 L
 531 4201 mt 
(0.1) s
 899 3609 mt  952 3609 L
6261 3609 mt 6207 3609 L
 531 3698 mt 
(0.2) s
 899 3106 mt  952 3106 L
6261 3106 mt 6207 3106 L
 531 3195 mt 
(0.3) s
 899 2603 mt  952 2603 L
6261 2603 mt 6207 2603 L
 531 2692 mt 
(0.4) s
 899 2100 mt  952 2100 L
6261 2100 mt 6207 2100 L
 531 2189 mt 
(0.5) s
 899 1596 mt  952 1596 L
6261 1596 mt 6207 1596 L
 531 1685 mt 
(0.6) s
 899 1093 mt  952 1093 L
6261 1093 mt 6207 1093 L
 531 1182 mt 
(0.7) s
 899  590 mt  952  590 L
6261  590 mt 6207  590 L
 531  679 mt 
(0.8) s
 899  415 mt 6261  415 L
 899 4616 mt 6261 4616 L
6261 4616 mt 6261  415 L
 899 4616 mt  899  415 L
gs 899 414 5363 4203 rc
gr

/c8 { 0.000000 0.000000 1.000000 sr} bdef
c8
2370 1094 mt 2442 1094 L
2406 1058 mt 2406 1130 L
 895 4538 mt  967 4538 L
 931 4502 mt  931 4574 L
2187 4612 mt 2259 4612 L
2223 4576 mt 2223 4648 L
1596 4611 mt 1668 4611 L
1632 4575 mt 1632 4647 L
1644 4577 mt 1716 4577 L
1680 4541 mt 1680 4613 L
 865 4604 mt  937 4604 L
 901 4568 mt  901 4640 L
 863 4615 mt  935 4615 L
 899 4579 mt  899 4651 L
1502 4614 mt 1574 4614 L
1538 4578 mt 1538 4650 L
1617 4615 mt 1689 4615 L
1653 4579 mt 1653 4651 L
4338 4180 mt 4410 4180 L
4374 4144 mt 4374 4216 L
 955 4546 mt 1027 4546 L
 991 4510 mt  991 4582 L
 930 4211 mt 1002 4211 L
 966 4175 mt  966 4247 L
 947 4317 mt 1019 4317 L
 983 4281 mt  983 4353 L
1421 3786 mt 1493 3786 L
1457 3750 mt 1457 3822 L
2245 4515 mt 2317 4515 L
2281 4479 mt 2281 4551 L
2873 3329 mt 2945 3329 L
2909 3293 mt 2909 3365 L
 863 1027 mt  935 1027 L
 899  991 mt  899 1063 L
1427 4562 mt 1499 4562 L
1463 4526 mt 1463 4598 L
 879 4606 mt  951 4606 L
 915 4570 mt  915 4642 L
3392 4288 mt 3464 4288 L
3428 4252 mt 3428 4324 L
 979 4615 mt 1051 4615 L
1015 4579 mt 1015 4651 L
 866 4557 mt  938 4557 L
 902 4521 mt  902 4593 L
2086 4513 mt 2158 4513 L
2122 4477 mt 2122 4549 L
1079 4516 mt 1151 4516 L
1115 4480 mt 1115 4552 L
4052 3801 mt 4124 3801 L
4088 3765 mt 4088 3837 L
1941 4492 mt 2013 4492 L
1977 4456 mt 1977 4528 L
 937 4179 mt 1009 4179 L
 973 4143 mt  973 4215 L
2243 4611 mt 2315 4611 L
2279 4575 mt 2279 4647 L
1198 4604 mt 1270 4604 L
1234 4568 mt 1234 4640 L
3402 4570 mt 3474 4570 L
3438 4534 mt 3438 4606 L
1242 4599 mt 1314 4599 L
1278 4563 mt 1278 4635 L
1194 4549 mt 1266 4549 L
1230 4513 mt 1230 4585 L
1966 4459 mt 2038 4459 L
2002 4423 mt 2002 4495 L
3707 4368 mt 3779 4368 L
3743 4332 mt 3743 4404 L
 864 4466 mt  936 4466 L
 900 4430 mt  900 4502 L
1260 4456 mt 1332 4456 L
1296 4420 mt 1296 4492 L
2963 4608 mt 3035 4608 L
2999 4572 mt 2999 4644 L
2464 4563 mt 2536 4563 L
2500 4527 mt 2500 4599 L
 864 3856 mt  936 3856 L
 900 3820 mt  900 3892 L
 872 4017 mt  944 4017 L
 908 3981 mt  908 4053 L
 866 4453 mt  938 4453 L
 902 4417 mt  902 4489 L
1611 4526 mt 1683 4526 L
1647 4490 mt 1647 4562 L
1434 4017 mt 1506 4017 L
1470 3981 mt 1470 4053 L
1763 4048 mt 1835 4048 L
1799 4012 mt 1799 4084 L
5832 4547 mt 5904 4547 L
5868 4511 mt 5868 4583 L
1763 4612 mt 1835 4612 L
1799 4576 mt 1799 4648 L
1116 3656 mt 1188 3656 L
1152 3620 mt 1152 3692 L
2972 4507 mt 3044 4507 L
3008 4471 mt 3008 4543 L
1130 4277 mt 1202 4277 L
1166 4241 mt 1166 4313 L
 874 4593 mt  946 4593 L
 910 4557 mt  910 4629 L
2031 3888 mt 2103 3888 L
2067 3852 mt 2067 3924 L
2323 4186 mt 2395 4186 L
2359 4150 mt 2359 4222 L
2221 4587 mt 2293 4587 L
2257 4551 mt 2257 4623 L
1179 4438 mt 1251 4438 L
1215 4402 mt 1215 4474 L
2409 3392 mt 2481 3392 L
2445 3356 mt 2445 3428 L
1220 4382 mt 1292 4382 L
1256 4346 mt 1256 4418 L
1488 4226 mt 1560 4226 L
1524 4190 mt 1524 4262 L
1030 4589 mt 1102 4589 L
1066 4553 mt 1066 4625 L
2810 4336 mt 2882 4336 L
2846 4300 mt 2846 4372 L
2037 4580 mt 2109 4580 L
2073 4544 mt 2073 4616 L
1695 4387 mt 1767 4387 L
1731 4351 mt 1731 4423 L
2781 2994 mt 2853 2994 L
2817 2958 mt 2817 3030 L
3344 4521 mt 3416 4521 L
3380 4485 mt 3380 4557 L
3171 4493 mt 3243 4493 L
3207 4457 mt 3207 4529 L
2395 4603 mt 2467 4603 L
2431 4567 mt 2431 4639 L
1233 4518 mt 1305 4518 L
1269 4482 mt 1269 4554 L
2481 3244 mt 2553 3244 L
2517 3208 mt 2517 3280 L
2408 4541 mt 2480 4541 L
2444 4505 mt 2444 4577 L
1304 4539 mt 1376 4539 L
1340 4503 mt 1340 4575 L
1305 4610 mt 1377 4610 L
1341 4574 mt 1341 4646 L
2529 4557 mt 2601 4557 L
2565 4521 mt 2565 4593 L
1467 4608 mt 1539 4608 L
1503 4572 mt 1503 4644 L
1475 4608 mt 1547 4608 L
1511 4572 mt 1511 4644 L
 923 4328 mt  995 4328 L
 959 4292 mt  959 4364 L
 890 4562 mt  962 4562 L
 926 4526 mt  926 4598 L
 972 4142 mt 1044 4142 L
1008 4106 mt 1008 4178 L
4944 4614 mt 5016 4614 L
4980 4578 mt 4980 4650 L
 887 4615 mt  959 4615 L
 923 4579 mt  923 4651 L
 943 4388 mt 1015 4388 L
 979 4352 mt  979 4424 L
3114 4533 mt 3186 4533 L
3150 4497 mt 3150 4569 L
2276 3936 mt 2348 3936 L
2312 3900 mt 2312 3972 L
 895 4615 mt  967 4615 L
 931 4579 mt  931 4651 L
1942 4294 mt 2014 4294 L
1978 4258 mt 1978 4330 L
2001 4614 mt 2073 4614 L
2037 4578 mt 2037 4650 L
4991 3335 mt 5063 3335 L
5027 3299 mt 5027 3371 L
1101 4588 mt 1173 4588 L
1137 4552 mt 1137 4624 L
1107 4598 mt 1179 4598 L
1143 4562 mt 1143 4634 L
3966 4128 mt 4038 4128 L
4002 4092 mt 4002 4164 L
1491 4597 mt 1563 4597 L
1527 4561 mt 1527 4633 L
1111 3888 mt 1183 3888 L
1147 3852 mt 1147 3924 L
3369 4446 mt 3441 4446 L
3405 4410 mt 3405 4482 L
3047 4603 mt 3119 4603 L
3083 4567 mt 3083 4639 L
 944 4299 mt 1016 4299 L
 980 4263 mt  980 4335 L
2991 3533 mt 3063 3533 L
3027 3497 mt 3027 3569 L
1175 4521 mt 1247 4521 L
1211 4485 mt 1211 4557 L
 909 4332 mt  981 4332 L
 945 4296 mt  945 4368 L
2250 4576 mt 2322 4576 L
2286 4540 mt 2286 4612 L
3503 4592 mt 3575 4592 L
3539 4556 mt 3539 4628 L
4218 4204 mt 4290 4204 L
4254 4168 mt 4254 4240 L
1652 4612 mt 1724 4612 L
1688 4576 mt 1688 4648 L
1057  415 mt 1129  415 L
1093  379 mt 1093  451 L
 904 4399 mt  976 4399 L
 940 4363 mt  940 4435 L
1236 4112 mt 1308 4112 L
1272 4076 mt 1272 4148 L
1283 4590 mt 1355 4590 L
1319 4554 mt 1319 4626 L
2054 3826 mt 2126 3826 L
2090 3790 mt 2090 3862 L
1046 4502 mt 1118 4502 L
1082 4466 mt 1082 4538 L
1104 4454 mt 1176 4454 L
1140 4418 mt 1140 4490 L
3333 4047 mt 3405 4047 L
3369 4011 mt 3369 4083 L
 875 4495 mt  947 4495 L
 911 4459 mt  911 4531 L
 863 4615 mt  935 4615 L
 899 4579 mt  899 4651 L
5436 4437 mt 5508 4437 L
5472 4401 mt 5472 4473 L
1240 4615 mt 1312 4615 L
1276 4579 mt 1276 4651 L
 904 3431 mt  976 3431 L
 940 3395 mt  940 3467 L
2144 4225 mt 2216 4225 L
2180 4189 mt 2180 4261 L
2155 4588 mt 2227 4588 L
2191 4552 mt 2191 4624 L
 864 4486 mt  936 4486 L
 900 4450 mt  900 4522 L
1191 4574 mt 1263 4574 L
1227 4538 mt 1227 4610 L
 863 4315 mt  935 4315 L
 899 4279 mt  899 4351 L
1758 4602 mt 1830 4602 L
1794 4566 mt 1794 4638 L
1805 4256 mt 1877 4256 L
1841 4220 mt 1841 4292 L
1443 4580 mt 1515 4580 L
1479 4544 mt 1479 4616 L
1014 4398 mt 1086 4398 L
1050 4362 mt 1050 4434 L
1166 4543 mt 1238 4543 L
1202 4507 mt 1202 4579 L
 999 3940 mt 1071 3940 L
1035 3904 mt 1035 3976 L
1201 3611 mt 1273 3611 L
1237 3575 mt 1237 3647 L
 901 4534 mt  973 4534 L
 937 4498 mt  937 4570 L
1474 4567 mt 1546 4567 L
1510 4531 mt 1510 4603 L
1446 4536 mt 1518 4536 L
1482 4500 mt 1482 4572 L
1863 4542 mt 1935 4542 L
1899 4506 mt 1899 4578 L
2846 4536 mt 2918 4536 L
2882 4500 mt 2882 4572 L
3514 4585 mt 3586 4585 L
3550 4549 mt 3550 4621 L
2952 3140 mt 3024 3140 L
2988 3104 mt 2988 3176 L
1351 4556 mt 1423 4556 L
1387 4520 mt 1387 4592 L
1130 4377 mt 1202 4377 L
1166 4341 mt 1166 4413 L
2665 4547 mt 2737 4547 L
2701 4511 mt 2701 4583 L
1163 4449 mt 1235 4449 L
1199 4413 mt 1199 4485 L
1259 4524 mt 1331 4524 L
1295 4488 mt 1295 4560 L
2357 4465 mt 2429 4465 L
2393 4429 mt 2393 4501 L
 863 2935 mt  935 2935 L
 899 2899 mt  899 2971 L
 863 4525 mt  935 4525 L
 899 4489 mt  899 4561 L
1229 4609 mt 1301 4609 L
1265 4573 mt 1265 4645 L
3035 4172 mt 3107 4172 L
3071 4136 mt 3071 4208 L
4394 4615 mt 4466 4615 L
4430 4579 mt 4430 4651 L
2394 4405 mt 2466 4405 L
2430 4369 mt 2430 4441 L
2011 4519 mt 2083 4519 L
2047 4483 mt 2047 4555 L
3389 4517 mt 3461 4517 L
3425 4481 mt 3425 4553 L
1192 2963 mt 1264 2963 L
1228 2927 mt 1228 2999 L
3461 3094 mt 3533 3094 L
3497 3058 mt 3497 3130 L
4542 4233 mt 4614 4233 L
4578 4197 mt 4578 4269 L
2363 3366 mt 2435 3366 L
2399 3330 mt 2399 3402 L
4645 4611 mt 4717 4611 L
4681 4575 mt 4681 4647 L
1215 4438 mt 1287 4438 L
1251 4402 mt 1251 4474 L
1124 4614 mt 1196 4614 L
1160 4578 mt 1160 4650 L
2604 4207 mt 2676 4207 L
2640 4171 mt 2640 4243 L
3533 2640 mt 3605 2640 L
3569 2604 mt 3569 2676 L
3397 4490 mt 3469 4490 L
3433 4454 mt 3433 4526 L
1004 4544 mt 1076 4544 L
1040 4508 mt 1040 4580 L
 913 3495 mt  985 3495 L
 949 3459 mt  949 3531 L
1217 4346 mt 1289 4346 L
1253 4310 mt 1253 4382 L
2778 4615 mt 2850 4615 L
2814 4579 mt 2814 4651 L
1693 4615 mt 1765 4615 L
1729 4579 mt 1729 4651 L
 911 4385 mt  983 4385 L
 947 4349 mt  947 4421 L
 874 4522 mt  946 4522 L
 910 4486 mt  910 4558 L
1297 4324 mt 1369 4324 L
1333 4288 mt 1333 4360 L
1594 4574 mt 1666 4574 L
1630 4538 mt 1630 4610 L
 977 4286 mt 1049 4286 L
1013 4250 mt 1013 4322 L
3263 3569 mt 3335 3569 L
3299 3533 mt 3299 3605 L
 893 4382 mt  965 4382 L
 929 4346 mt  929 4418 L
 875 4595 mt  947 4595 L
 911 4559 mt  911 4631 L
 998 4399 mt 1070 4399 L
1034 4363 mt 1034 4435 L
 937 2731 mt 1009 2731 L
 973 2695 mt  973 2767 L
1438 4124 mt 1510 4124 L
1474 4088 mt 1474 4160 L
1974 4310 mt 2046 4310 L
2010 4274 mt 2010 4346 L
1999 4614 mt 2071 4614 L
2035 4578 mt 2035 4650 L
1348 4150 mt 1420 4150 L
1384 4114 mt 1384 4186 L
 863 4597 mt  935 4597 L
 899 4561 mt  899 4633 L
1261 4256 mt 1333 4256 L
1297 4220 mt 1297 4292 L
3078 4545 mt 3150 4545 L
3114 4509 mt 3114 4581 L
1399 4250 mt 1471 4250 L
1435 4214 mt 1435 4286 L
1433 4609 mt 1505 4609 L
1469 4573 mt 1469 4645 L
1887 4004 mt 1959 4004 L
1923 3968 mt 1923 4040 L
4600 4166 mt 4672 4166 L
4636 4130 mt 4636 4202 L
3055 3389 mt 3127 3389 L
3091 3353 mt 3091 3425 L
 909 4496 mt  981 4496 L
 945 4460 mt  945 4532 L
3431 4515 mt 3503 4515 L
3467 4479 mt 3467 4551 L
2312 4597 mt 2384 4597 L
2348 4561 mt 2348 4633 L
1599 4612 mt 1671 4612 L
1635 4576 mt 1635 4648 L
 903 4541 mt  975 4541 L
 939 4505 mt  939 4577 L
3728 3039 mt 3800 3039 L
3764 3003 mt 3764 3075 L
 916 3762 mt  988 3762 L
 952 3726 mt  952 3798 L
1542 3748 mt 1614 3748 L
1578 3712 mt 1578 3784 L
3528 4599 mt 3600 4599 L
3564 4563 mt 3564 4635 L
1596 4445 mt 1668 4445 L
1632 4409 mt 1632 4481 L
1027 4589 mt 1099 4589 L
1063 4553 mt 1063 4625 L
1202 4603 mt 1274 4603 L
1238 4567 mt 1238 4639 L
2295 2457 mt 2367 2457 L
2331 2421 mt 2331 2493 L
 881 4056 mt  953 4056 L
 917 4020 mt  917 4092 L
1885 3075 mt 1957 3075 L
1921 3039 mt 1921 3111 L
 865 4578 mt  937 4578 L
 901 4542 mt  901 4614 L
 935 4358 mt 1007 4358 L
 971 4322 mt  971 4394 L
2069  852 mt 2141  852 L
2105  816 mt 2105  888 L
 951 3395 mt 1023 3395 L
 987 3359 mt  987 3431 L
3808 4562 mt 3880 4562 L
3844 4526 mt 3844 4598 L
1424 4337 mt 1496 4337 L
1460 4301 mt 1460 4373 L
2115 4581 mt 2187 4581 L
2151 4545 mt 2151 4617 L
 912 3765 mt  984 3765 L
 948 3729 mt  948 3801 L
 931 4501 mt 1003 4501 L
 967 4465 mt  967 4537 L
2487 3818 mt 2559 3818 L
2523 3782 mt 2523 3854 L
1915 4584 mt 1987 4584 L
1951 4548 mt 1951 4620 L
3800 3419 mt 3872 3419 L
3836 3383 mt 3836 3455 L
 985 4573 mt 1057 4573 L
1021 4537 mt 1021 4609 L
 866 4472 mt  938 4472 L
 902 4436 mt  902 4508 L
1156 4536 mt 1228 4536 L
1192 4500 mt 1192 4572 L
1726 1893 mt 1798 1893 L
1762 1857 mt 1762 1929 L
1407 4612 mt 1479 4612 L
1443 4576 mt 1443 4648 L
3696 2516 mt 3768 2516 L
3732 2480 mt 3732 2552 L
 869 1199 mt  941 1199 L
 905 1163 mt  905 1235 L
 920 4380 mt  992 4380 L
 956 4344 mt  956 4416 L
 868 4392 mt  940 4392 L
 904 4356 mt  904 4428 L
2706 4114 mt 2778 4114 L
2742 4078 mt 2742 4150 L
1323 4570 mt 1395 4570 L
1359 4534 mt 1359 4606 L
 984 4066 mt 1056 4066 L
1020 4030 mt 1020 4102 L
2376 4335 mt 2448 4335 L
2412 4299 mt 2412 4371 L
1442 4588 mt 1514 4588 L
1478 4552 mt 1478 4624 L
1904 4049 mt 1976 4049 L
1940 4013 mt 1940 4085 L
1213 4334 mt 1285 4334 L
1249 4298 mt 1249 4370 L
 972 4538 mt 1044 4538 L
1008 4502 mt 1008 4574 L
1683 3804 mt 1755 3804 L
1719 3768 mt 1719 3840 L
 947 4574 mt 1019 4574 L
 983 4538 mt  983 4610 L
2202 4312 mt 2274 4312 L
2238 4276 mt 2238 4348 L
 876 4026 mt  948 4026 L
 912 3990 mt  912 4062 L
1397 4547 mt 1469 4547 L
1433 4511 mt 1433 4583 L
2725 4601 mt 2797 4601 L
2761 4565 mt 2761 4637 L
4464 3775 mt 4536 3775 L
4500 3739 mt 4500 3811 L
1548 4588 mt 1620 4588 L
1584 4552 mt 1584 4624 L
 863 4614 mt  935 4614 L
 899 4578 mt  899 4650 L
2946 4493 mt 3018 4493 L
2982 4457 mt 2982 4529 L
3594 3384 mt 3666 3384 L
3630 3348 mt 3630 3420 L
 872 3632 mt  944 3632 L
 908 3596 mt  908 3668 L
 983 4409 mt 1055 4409 L
1019 4373 mt 1019 4445 L
 957 4029 mt 1029 4029 L
 993 3993 mt  993 4065 L
2212 4044 mt 2284 4044 L
2248 4008 mt 2248 4080 L
2213 4482 mt 2285 4482 L
2249 4446 mt 2249 4518 L
3059 4603 mt 3131 4603 L
3095 4567 mt 3095 4639 L
6225 4521 mt 6297 4521 L
6261 4485 mt 6261 4557 L
1279 4558 mt 1351 4558 L
1315 4522 mt 1315 4594 L
1855 2848 mt 1927 2848 L
1891 2812 mt 1891 2884 L
3645 4599 mt 3717 4599 L
3681 4563 mt 3681 4635 L
2261 3807 mt 2333 3807 L
2297 3771 mt 2297 3843 L
1705 4604 mt 1777 4604 L
1741 4568 mt 1741 4640 L
1842 4092 mt 1914 4092 L
1878 4056 mt 1878 4128 L
2657 3938 mt 2729 3938 L
2693 3902 mt 2693 3974 L
3113 4574 mt 3185 4574 L
3149 4538 mt 3149 4610 L
 892 4535 mt  964 4535 L
 928 4499 mt  928 4571 L
2006 4155 mt 2078 4155 L
2042 4119 mt 2042 4191 L
2008 3997 mt 2080 3997 L
2044 3961 mt 2044 4033 L
1100 4614 mt 1172 4614 L
1136 4578 mt 1136 4650 L
 913 4480 mt  985 4480 L
 949 4444 mt  949 4516 L
2850 3751 mt 2922 3751 L
2886 3715 mt 2886 3787 L
1770 4316 mt 1842 4316 L
1806 4280 mt 1806 4352 L
1447 4412 mt 1519 4412 L
1483 4376 mt 1483 4448 L
3415 3641 mt 3487 3641 L
3451 3605 mt 3451 3677 L
2760 4590 mt 2832 4590 L
2796 4554 mt 2796 4626 L
4314 4497 mt 4386 4497 L
4350 4461 mt 4350 4533 L
 863 4530 mt  935 4530 L
 899 4494 mt  899 4566 L
1015 4587 mt 1087 4587 L
1051 4551 mt 1051 4623 L
1321 4157 mt 1393 4157 L
1357 4121 mt 1357 4193 L
3145 3899 mt 3217 3899 L
3181 3863 mt 3181 3935 L
1510 4615 mt 1582 4615 L
1546 4579 mt 1546 4651 L
2647 4497 mt 2719 4497 L
2683 4461 mt 2683 4533 L
3648 4238 mt 3720 4238 L
3684 4202 mt 3684 4274 L
 865 4217 mt  937 4217 L
 901 4181 mt  901 4253 L
3308 4484 mt 3380 4484 L
3344 4448 mt 3344 4520 L
1098 4616 mt 1170 4616 L
1134 4580 mt 1134 4652 L
 908 4565 mt  980 4565 L
 944 4529 mt  944 4601 L
 964 4303 mt 1036 4303 L
1000 4267 mt 1000 4339 L
5337 4407 mt 5409 4407 L
5373 4371 mt 5373 4443 L
1163 4476 mt 1235 4476 L
1199 4440 mt 1199 4512 L
1236 4607 mt 1308 4607 L
1272 4571 mt 1272 4643 L
3214 4603 mt 3286 4603 L
3250 4567 mt 3250 4639 L
2916 3890 mt 2988 3890 L
2952 3854 mt 2952 3926 L
 886 4613 mt  958 4613 L
 922 4577 mt  922 4649 L
1983 3655 mt 2055 3655 L
2019 3619 mt 2019 3691 L
3270 4446 mt 3342 4446 L
3306 4410 mt 3306 4482 L
4653 2690 mt 4725 2690 L
4689 2654 mt 4689 2726 L
1493 4591 mt 1565 4591 L
1529 4555 mt 1529 4627 L
1466 4429 mt 1538 4429 L
1502 4393 mt 1502 4465 L
4458 3896 mt 4530 3896 L
4494 3860 mt 4494 3932 L
 949 4559 mt 1021 4559 L
 985 4523 mt  985 4595 L
1720 4373 mt 1792 4373 L
1756 4337 mt 1756 4409 L
4139 4091 mt 4211 4091 L
4175 4055 mt 4175 4127 L
2372 4561 mt 2444 4561 L
2408 4525 mt 2408 4597 L
 894 4498 mt  966 4498 L
 930 4462 mt  930 4534 L
3566 2812 mt 3638 2812 L
3602 2776 mt 3602 2848 L
1080 4547 mt 1152 4547 L
1116 4511 mt 1116 4583 L
 868 4610 mt  940 4610 L
 904 4574 mt  904 4646 L
2775 4559 mt 2847 4559 L
2811 4523 mt 2811 4595 L
4051 4356 mt 4123 4356 L
4087 4320 mt 4087 4392 L
3904 4611 mt 3976 4611 L
3940 4575 mt 3940 4647 L
1435 4536 mt 1507 4536 L
1471 4500 mt 1471 4572 L
 922  439 mt  994  439 L
 958  403 mt  958  475 L
1070 4587 mt 1142 4587 L
1106 4551 mt 1106 4623 L
1974 3195 mt 2046 3195 L
2010 3159 mt 2010 3231 L
1794 4361 mt 1866 4361 L
1830 4325 mt 1830 4397 L
1831 4370 mt 1903 4370 L
1867 4334 mt 1867 4406 L
 865 4306 mt  937 4306 L
 901 4270 mt  901 4342 L
1875 4047 mt 1947 4047 L
1911 4011 mt 1911 4083 L
2887 3316 mt 2959 3316 L
2923 3280 mt 2923 3352 L
 886 4593 mt  958 4593 L
 922 4557 mt  922 4629 L
1401 4496 mt 1473 4496 L
1437 4460 mt 1437 4532 L
6076 2943 mt 6148 2943 L
6112 2907 mt 6112 2979 L
 895 4027 mt  967 4027 L
 931 3991 mt  931 4063 L
 866 3502 mt  938 3502 L
 902 3466 mt  902 3538 L
1352 3822 mt 1424 3822 L
1388 3786 mt 1388 3858 L
2240 4553 mt 2312 4553 L
2276 4517 mt 2276 4589 L
 931 4422 mt 1003 4422 L
 967 4386 mt  967 4458 L
1262 4173 mt 1334 4173 L
1298 4137 mt 1298 4209 L
1709 3718 mt 1781 3718 L
1745 3682 mt 1745 3754 L
1759 4484 mt 1831 4484 L
1795 4448 mt 1795 4520 L
1242 4528 mt 1314 4528 L
1278 4492 mt 1278 4564 L
1265 4607 mt 1337 4607 L
1301 4571 mt 1301 4643 L
1119 3945 mt 1191 3945 L
1155 3909 mt 1155 3981 L
1646 4170 mt 1718 4170 L
1682 4134 mt 1682 4206 L
 873 3920 mt  945 3920 L
 909 3884 mt  909 3956 L
1236 2932 mt 1308 2932 L
1272 2896 mt 1272 2968 L
1321 4403 mt 1393 4403 L
1357 4367 mt 1357 4439 L
2822 4388 mt 2894 4388 L
2858 4352 mt 2858 4424 L
1889 4607 mt 1961 4607 L
1925 4571 mt 1925 4643 L
1595 4225 mt 1667 4225 L
1631 4189 mt 1631 4261 L
2395 4118 mt 2467 4118 L
2431 4082 mt 2431 4154 L
4514 4238 mt 4586 4238 L
4550 4202 mt 4550 4274 L
2836 3301 mt 2908 3301 L
2872 3265 mt 2872 3337 L
2097 4565 mt 2169 4565 L
2133 4529 mt 2133 4601 L
1385 4441 mt 1457 4441 L
1421 4405 mt 1421 4477 L
3291 4073 mt 3363 4073 L
3327 4037 mt 3327 4109 L
 863 3690 mt  935 3690 L
 899 3654 mt  899 3726 L
1986 4615 mt 2058 4615 L
2022 4579 mt 2022 4651 L
1602 3563 mt 1674 3563 L
1638 3527 mt 1638 3599 L
 869 3526 mt  941 3526 L
 905 3490 mt  905 3562 L
 887 4580 mt  959 4580 L
 923 4544 mt  923 4616 L
 863 4208 mt  935 4208 L
 899 4172 mt  899 4244 L
2474 3567 mt 2546 3567 L
2510 3531 mt 2510 3603 L
4669 4606 mt 4741 4606 L
4705 4570 mt 4705 4642 L
2267 4523 mt 2339 4523 L
2303 4487 mt 2303 4559 L
2119 4059 mt 2191 4059 L
2155 4023 mt 2155 4095 L
1875 4599 mt 1947 4599 L
1911 4563 mt 1911 4635 L
2035 3787 mt 2107 3787 L
2071 3751 mt 2071 3823 L
3234 3830 mt 3306 3830 L
3270 3794 mt 3270 3866 L
3873 3275 mt 3945 3275 L
3909 3239 mt 3909 3311 L
2231 3418 mt 2303 3418 L
2267 3382 mt 2267 3454 L
5558 4610 mt 5630 4610 L
5594 4574 mt 5594 4646 L
1170 4539 mt 1242 4539 L
1206 4503 mt 1206 4575 L
 884 4253 mt  956 4253 L
 920 4217 mt  920 4289 L
 983 4614 mt 1055 4614 L
1019 4578 mt 1019 4650 L
2977 2598 mt 3049 2598 L
3013 2562 mt 3013 2634 L
2461 4400 mt 2533 4400 L
2497 4364 mt 2497 4436 L
2181 4340 mt 2253 4340 L
2217 4304 mt 2217 4376 L
1381 2869 mt 1453 2869 L
1417 2833 mt 1417 2905 L
1032 4602 mt 1104 4602 L
1068 4566 mt 1068 4638 L
3157 4608 mt 3229 4608 L
3193 4572 mt 3193 4644 L
1185 4593 mt 1257 4593 L
1221 4557 mt 1221 4629 L
 901 4602 mt  973 4602 L
 937 4566 mt  937 4638 L
1204 4285 mt 1276 4285 L
1240 4249 mt 1240 4321 L
1119 3658 mt 1191 3658 L
1155 3622 mt 1155 3694 L
1002 4273 mt 1074 4273 L
1038 4237 mt 1038 4309 L
 972 3745 mt 1044 3745 L
1008 3709 mt 1008 3781 L
3534 4520 mt 3606 4520 L
3570 4484 mt 3570 4556 L
 865 4515 mt  937 4515 L
 901 4479 mt  901 4551 L
 891 4553 mt  963 4553 L
 927 4517 mt  927 4589 L
1354 3959 mt 1426 3959 L
1390 3923 mt 1390 3995 L
1349 2564 mt 1421 2564 L
1385 2528 mt 1385 2600 L
2442 4537 mt 2514 4537 L
2478 4501 mt 2478 4573 L
2214 4555 mt 2286 4555 L
2250 4519 mt 2250 4591 L
2789 4511 mt 2861 4511 L
2825 4475 mt 2825 4547 L
2224 3548 mt 2296 3548 L
2260 3512 mt 2260 3584 L
1335 4483 mt 1407 4483 L
1371 4447 mt 1371 4519 L
 908 3762 mt  980 3762 L
 944 3726 mt  944 3798 L
3730 4056 mt 3802 4056 L
3766 4020 mt 3766 4092 L
2324 4417 mt 2396 4417 L
2360 4381 mt 2360 4453 L
 863 4553 mt  935 4553 L
 899 4517 mt  899 4589 L
1976 3295 mt 2048 3295 L
2012 3259 mt 2012 3331 L
4273 3376 mt 4345 3376 L
4309 3340 mt 4309 3412 L
4503 3538 mt 4575 3538 L
4539 3502 mt 4539 3574 L
 916 4603 mt  988 4603 L
 952 4567 mt  952 4639 L
4662 4189 mt 4734 4189 L
4698 4153 mt 4698 4225 L
2662 4583 mt 2734 4583 L
2698 4547 mt 2698 4619 L
3409 4420 mt 3481 4420 L
3445 4384 mt 3445 4456 L
 905 4523 mt  977 4523 L
 941 4487 mt  941 4559 L
2398 2981 mt 2470 2981 L
2434 2945 mt 2434 3017 L
1296 4147 mt 1368 4147 L
1332 4111 mt 1332 4183 L
3077 2904 mt 3149 2904 L
3113 2868 mt 3113 2940 L
3852 4585 mt 3924 4585 L
3888 4549 mt 3888 4621 L
1047 4049 mt 1119 4049 L
1083 4013 mt 1083 4085 L
 935 4586 mt 1007 4586 L
 971 4550 mt  971 4622 L
1460 4615 mt 1532 4615 L
1496 4579 mt 1496 4651 L
2160 2521 mt 2232 2521 L
2196 2485 mt 2196 2557 L
 923 4525 mt  995 4525 L
 959 4489 mt  959 4561 L
1004 3114 mt 1076 3114 L
1040 3078 mt 1040 3150 L
 982 4612 mt 1054 4612 L
1018 4576 mt 1018 4648 L
 952 4615 mt 1024 4615 L
 988 4579 mt  988 4651 L
gs 899 414 5363 4203 rc
gr

0 sg
2775 5104 mt 
(\(F,DCTb,GMM\)) s
 422 3343 mt  -90 rotate
(\(S,LFCC,GMM\)) s
90 rotate
2975  223 mt 
(Corr = 0.11) s

end %%Color Dict

eplot
%%EndObject

epage
end

showpage

%%Trailer
%%EOF
