%!PS-Adobe-3.0 EPSF-3.0
%%Creator: MATLAB, The Mathworks, Inc.
%%Title: Pictures\main_fusion_us_logreg_demo_density_logistic_id40_3.eps
%%CreationDate: 02/14/2009  03:44:06
%%DocumentNeededFonts: Helvetica
%%DocumentProcessColors: Cyan Magenta Yellow Black
%%LanguageLevel: 2
%%Pages: 1
%%BoundingBox:    42   187   552   592
%%EndComments

%%BeginProlog
% MathWorks dictionary
/MathWorks 160 dict begin
% definition operators
/bdef {bind def} bind def
/ldef {load def} bind def
/xdef {exch def} bdef
/xstore {exch store} bdef
% operator abbreviations
/c  /clip ldef
/cc /concat ldef
/cp /closepath ldef
/gr /grestore ldef
/gs /gsave ldef
/mt /moveto ldef
/np /newpath ldef
/cm /currentmatrix ldef
/sm /setmatrix ldef
/rm /rmoveto ldef
/rl /rlineto ldef
/s {show newpath} bdef
/sc {setcmykcolor} bdef
/sr /setrgbcolor ldef
/sg /setgray ldef
/w /setlinewidth ldef
/j /setlinejoin ldef
/cap /setlinecap ldef
/rc {rectclip} bdef
/rf {rectfill} bdef
% page state control
/pgsv () def
/bpage {/pgsv save def} bdef
/epage {pgsv restore} bdef
/bplot /gsave ldef
/eplot {stroke grestore} bdef
% orientation switch
/portraitMode 0 def /landscapeMode 1 def /rotateMode 2 def
% coordinate system mappings
/dpi2point 0 def
% font control
/FontSize 0 def
/FMS {/FontSize xstore findfont [FontSize 0 0 FontSize neg 0 0]
  makefont setfont} bdef
/ISOLatin1Encoding where {pop /WindowsLatin1Encoding 256 array bdef
ISOLatin1Encoding WindowsLatin1Encoding copy pop
/.notdef/.notdef/quotesinglbase/florin/quotedblbase/ellipsis/dagger
/daggerdbl/circumflex/perthousand/Scaron/guilsinglleft/OE/.notdef/.notdef
/.notdef/.notdef/quoteleft/quoteright/quotedblleft/quotedblright/bullet
/endash/emdash/tilde/trademark/scaron/guilsinglright/oe/.notdef/.notdef
/Ydieresis WindowsLatin1Encoding 128 32 getinterval astore pop}
{/WindowsLatin1Encoding StandardEncoding bdef} ifelse
/reencode {exch dup where {pop load} {pop StandardEncoding} ifelse
  exch dup 3 1 roll findfont dup length dict begin
  { 1 index /FID ne {def}{pop pop} ifelse } forall
  /Encoding exch def currentdict end definefont pop} bdef
/isroman {findfont /CharStrings get /Agrave known} bdef
/FMSR {3 1 roll 1 index dup isroman {reencode} {pop pop} ifelse
  exch FMS} bdef
/csm {1 dpi2point div -1 dpi2point div scale neg translate
 dup landscapeMode eq {pop -90 rotate}
  {rotateMode eq {90 rotate} if} ifelse} bdef
% line types: solid, dotted, dashed, dotdash
/SO { [] 0 setdash } bdef
/DO { [.5 dpi2point mul 4 dpi2point mul] 0 setdash } bdef
/DA { [6 dpi2point mul] 0 setdash } bdef
/DD { [.5 dpi2point mul 4 dpi2point mul 6 dpi2point mul 4
  dpi2point mul] 0 setdash } bdef
% macros for lines and objects
/L {lineto stroke} bdef
/MP {3 1 roll moveto 1 sub {rlineto} repeat} bdef
/AP {{rlineto} repeat} bdef
/PDlw -1 def
/W {/PDlw currentlinewidth def setlinewidth} def
/PP {closepath eofill} bdef
/DP {closepath stroke} bdef
/MR {4 -2 roll moveto dup  0 exch rlineto exch 0 rlineto
  neg 0 exch rlineto closepath} bdef
/FR {MR stroke} bdef
/PR {MR fill} bdef
/L1i {{currentfile picstr readhexstring pop} image} bdef
/tMatrix matrix def
/MakeOval {newpath tMatrix currentmatrix pop translate scale
0 0 1 0 360 arc tMatrix setmatrix} bdef
/FO {MakeOval stroke} bdef
/PO {MakeOval fill} bdef
/PD {currentlinewidth 2 div 0 360 arc fill
   PDlw -1 eq not {PDlw w /PDlw -1 def} if} def
/FA {newpath tMatrix currentmatrix pop translate scale
  0 0 1 5 -2 roll arc tMatrix setmatrix stroke} bdef
/PA {newpath tMatrix currentmatrix pop	translate 0 0 moveto scale
  0 0 1 5 -2 roll arc closepath tMatrix setmatrix fill} bdef
/FAn {newpath tMatrix currentmatrix pop translate scale
  0 0 1 5 -2 roll arcn tMatrix setmatrix stroke} bdef
/PAn {newpath tMatrix currentmatrix pop translate 0 0 moveto scale
  0 0 1 5 -2 roll arcn closepath tMatrix setmatrix fill} bdef
/vradius 0 def /hradius 0 def /lry 0 def
/lrx 0 def /uly 0 def /ulx 0 def /rad 0 def
/MRR {/vradius xdef /hradius xdef /lry xdef /lrx xdef /uly xdef
  /ulx xdef newpath tMatrix currentmatrix pop ulx hradius add uly
  vradius add translate hradius vradius scale 0 0 1 180 270 arc 
  tMatrix setmatrix lrx hradius sub uly vradius add translate
  hradius vradius scale 0 0 1 270 360 arc tMatrix setmatrix
  lrx hradius sub lry vradius sub translate hradius vradius scale
  0 0 1 0 90 arc tMatrix setmatrix ulx hradius add lry vradius sub
  translate hradius vradius scale 0 0 1 90 180 arc tMatrix setmatrix
  closepath} bdef
/FRR {MRR stroke } bdef
/PRR {MRR fill } bdef
/MlrRR {/lry xdef /lrx xdef /uly xdef /ulx xdef /rad lry uly sub 2 div def
  newpath tMatrix currentmatrix pop ulx rad add uly rad add translate
  rad rad scale 0 0 1 90 270 arc tMatrix setmatrix lrx rad sub lry rad
  sub translate rad rad scale 0 0 1 270 90 arc tMatrix setmatrix
  closepath} bdef
/FlrRR {MlrRR stroke } bdef
/PlrRR {MlrRR fill } bdef
/MtbRR {/lry xdef /lrx xdef /uly xdef /ulx xdef /rad lrx ulx sub 2 div def
  newpath tMatrix currentmatrix pop ulx rad add uly rad add translate
  rad rad scale 0 0 1 180 360 arc tMatrix setmatrix lrx rad sub lry rad
  sub translate rad rad scale 0 0 1 0 180 arc tMatrix setmatrix
  closepath} bdef
/FtbRR {MtbRR stroke } bdef
/PtbRR {MtbRR fill } bdef
/stri 6 array def /dtri 6 array def
/smat 6 array def /dmat 6 array def
/tmat1 6 array def /tmat2 6 array def /dif 3 array def
/asub {/ind2 exch def /ind1 exch def dup dup
  ind1 get exch ind2 get sub exch } bdef
/tri_to_matrix {
  2 0 asub 3 1 asub 4 0 asub 5 1 asub
  dup 0 get exch 1 get 7 -1 roll astore } bdef
/compute_transform {
  dmat dtri tri_to_matrix tmat1 invertmatrix 
  smat stri tri_to_matrix tmat2 concatmatrix } bdef
/ds {stri astore pop} bdef
/dt {dtri astore pop} bdef
/db {2 copy /cols xdef /rows xdef mul dup 3 mul string
  currentfile 
  3 index 0 eq {/ASCIIHexDecode filter}
  {/ASCII85Decode filter 3 index 2 eq {/RunLengthDecode filter} if }
  ifelse exch readstring pop
  dup 0 3 index getinterval /rbmap xdef
  dup 2 index dup getinterval /gbmap xdef
  1 index dup 2 mul exch getinterval /bbmap xdef pop pop}bdef
/it {gs np dtri aload pop moveto lineto lineto cp c
  cols rows 8 compute_transform 
  rbmap gbmap bbmap true 3 colorimage gr}bdef
/il {newpath moveto lineto stroke}bdef
currentdict end def
%%EndProlog

%%BeginSetup
MathWorks begin

0 cap

end
%%EndSetup

%%Page: 1 1
%%BeginPageSetup
%%PageBoundingBox:    42   187   552   592
MathWorks begin
bpage
%%EndPageSetup

%%BeginObject: obj1
bplot

/dpi2point 12 def
portraitMode 0216 7344 csm

  297   234  6120  4858 rc
86 dict begin %Colortable dictionary
/c0 { 0.000000 0.000000 0.000000 sr} bdef
/c1 { 1.000000 1.000000 1.000000 sr} bdef
/c2 { 0.900000 0.000000 0.000000 sr} bdef
/c3 { 0.000000 0.820000 0.000000 sr} bdef
/c4 { 0.000000 0.000000 0.800000 sr} bdef
/c5 { 0.910000 0.820000 0.320000 sr} bdef
/c6 { 1.000000 0.260000 0.820000 sr} bdef
/c7 { 0.000000 0.820000 0.820000 sr} bdef
c0
1 j
1 sg
   0    0 6919 5187 rf
6 w
0 4227 5362 0 0 -4227 899 4616 4 MP
PP
-5362 0 0 4227 5362 0 0 -4227 899 4616 5 MP stroke
4 w
DO
SO
6 w
0 sg
 899 4616 mt 6261 4616 L
 899 4616 mt  899  389 L
 899 4616 mt  899 4562 L
%%IncludeResource: font Helvetica
/Helvetica /WindowsLatin1Encoding 192 FMSR

 734 4828 mt 
(-2) s
1792 4616 mt 1792 4562 L
1739 4828 mt 
(0) s
2686 4616 mt 2686 4562 L
2633 4828 mt 
(2) s
3580 4616 mt 3580 4562 L
3527 4828 mt 
(4) s
4473 4616 mt 4473 4562 L
4420 4828 mt 
(6) s
5367 4616 mt 5367 4562 L
5314 4828 mt 
(8) s
6261 4616 mt 6261 4562 L
6155 4828 mt 
(10) s
 899 4616 mt  952 4616 L
 758 4687 mt 
(0) s
 899 4012 mt  952 4012 L
 598 4083 mt 
(0.2) s
 899 3408 mt  952 3408 L
 598 3479 mt 
(0.4) s
 899 2804 mt  952 2804 L
 598 2875 mt 
(0.6) s
 899 2200 mt  952 2200 L
 598 2271 mt 
(0.8) s
 899 1596 mt  952 1596 L
 758 1667 mt 
(1) s
 899  992 mt  952  992 L
 598 1063 mt 
(1.2) s
 899  389 mt  952  389 L
 598  460 mt 
(1.4) s
gs 899 389 5363 4228 rc
/c8 { 0.000000 0.000000 1.000000 sr} bdef
c8
47 0 46 0 47 0 46 0 46 0 47 0 46 0 46 0 
47 0 46 0 46 0 47 0 46 0 47 0 46 0 46 0 
47 0 46 0 46 0 47 0 46 0 47 0 46 0 46 0 
47 0 46 0 46 0 47 0 46 0 46 0 47 -1 46 0 
47 -4 46 -12 46 -42 47 -145 46 -420 46 -840 47 -868 46 -460 
47 -161 46 -48 46 -13 47 -4 46 -1 46 0 47 0 46 0 
46 0 47 0 46 0 47 0 46 0 46 0 47 0 46 0 
46 0 47 0 46 0 46 0 47 0 46 0 47 0 46 0 
46 0 47 0 46 0 46 0 47 0 46 0 47 0 46 0 
46 0 47 0 46 0 46 0 47 0 46 0 46 0 47 0 
46 0 47 0 46 0 46 0 47 0 46 0 46 0 47 0 
46 0 47 0 46 0 46 0 47 0 46 0 46 0 47 0 
46 0 46 0 47 0 962 4615 100 MP stroke
12 w
/c9 { 1.000000 0.000000 0.000000 sr} bdef
c9
47 0 46 1 47 0 46 0 46 0 47 0 46 0 46 0 
47 0 46 0 46 0 47 0 46 0 47 0 46 0 46 0 
47 0 46 0 46 0 47 0 46 0 47 0 46 0 46 0 
47 0 46 0 46 0 47 0 46 0 46 0 47 0 46 0 
47 0 46 0 46 0 47 0 46 0 46 0 47 1 46 1 
47 1 46 2 46 2 47 4 46 5 46 8 47 10 46 13 
46 18 47 24 46 29 47 37 46 46 46 55 47 64 46 75 
46 85 47 93 46 101 46 107 47 110 46 109 47 105 46 97 
46 86 47 70 46 52 46 31 47 9 46 -13 47 -36 46 -56 
46 -73 47 -88 46 -100 46 -106 47 -109 46 -110 46 -106 47 -99 
46 -92 47 -83 46 -72 46 -63 47 -53 46 -44 46 -35 47 -29 
46 -22 47 -17 46 -13 46 -9 47 -7 46 -5 46 -3 47 -3 
46 -1 46 -2 47 0 962 4614 100 MP stroke
/c10 { 0.000000 1.000000 0.000000 sr} bdef
c10
47 0 46 0 47 0 46 0 46 0 47 0 46 0 46 0 
47 0 46 0 46 1 47 6 46 16 47 46 46 108 46 223 
47 402 46 617 46 802 47 852 46 687 47 307 46 -177 46 -601 
47 -829 46 -834 46 -676 47 -459 46 -267 46 -134 47 -58 46 -22 
47 -8 46 -2 46 0 47 0 46 0 46 0 47 0 46 0 
47 0 46 0 46 0 47 0 46 0 46 0 47 -1 46 0 
46 0 47 0 46 0 47 0 46 0 46 0 47 0 46 0 
46 0 47 0 46 0 46 0 47 0 46 0 47 0 46 0 
46 0 47 0 46 0 46 0 47 0 46 0 47 0 46 0 
46 0 47 0 46 0 46 0 47 0 46 0 46 0 47 0 
46 0 47 0 46 0 46 0 47 0 46 0 46 0 47 0 
46 0 47 0 46 0 46 0 47 0 46 0 46 0 47 0 
46 0 46 0 47 0 962 4616 100 MP stroke
24 w
c9
47 0 46 0 47 0 46 0 46 0 47 0 46 0 46 0 
47 0 46 0 46 0 47 0 46 0 47 0 46 0 46 0 
47 0 46 0 46 0 47 0 46 0 47 0 46 0 46 0 
47 0 46 0 46 0 47 0 46 0 46 0 47 0 46 0 
47 0 46 0 46 0 47 0 46 0 46 1 47 1 46 1 
47 1 46 2 46 4 47 4 46 7 46 8 47 11 46 15 
46 19 47 24 46 31 47 37 46 45 46 53 47 62 46 70 
46 79 47 87 46 93 46 97 47 100 46 100 47 96 46 90 
46 79 47 67 46 52 46 33 47 15 46 -5 47 -24 46 -43 
46 -59 47 -74 46 -85 46 -93 47 -98 46 -100 46 -99 47 -96 
46 -90 47 -83 46 -75 46 -66 47 -58 46 -49 46 -41 47 -33 
46 -27 47 -22 46 -17 46 -13 47 -10 46 -7 46 -5 47 -4 
46 -3 46 -2 47 -1 962 4613 100 MP stroke
c10
47 0 46 0 47 0 46 0 46 0 47 1 46 2 46 5 
47 11 46 22 46 41 47 74 46 121 47 186 46 263 46 342 
47 408 46 439 46 418 47 337 46 200 47 27 46 -151 46 -302 
47 -400 46 -439 46 -422 47 -364 46 -286 46 -208 47 -139 46 -86 
47 -50 46 -26 46 -14 47 -6 46 -3 46 -1 47 0 46 0 
47 0 46 0 46 0 47 0 46 0 46 0 47 0 46 0 
46 0 47 0 46 0 47 0 46 0 46 0 47 0 46 -1 
46 0 47 0 46 0 46 0 47 0 46 0 47 0 46 0 
46 0 47 0 46 0 46 0 47 0 46 0 47 0 46 0 
46 0 47 0 46 0 46 0 47 0 46 0 46 0 47 0 
46 0 47 0 46 0 46 0 47 0 46 0 46 0 47 0 
46 0 47 0 46 0 46 0 47 0 46 0 46 0 47 0 
46 0 46 0 47 0 962 4616 100 MP stroke
gr

24 w
c10
0 sg
3296 5024 mt 
(scores) s
 500 3329 mt  -90 rotate
(likelihood, posterior) s
90 rotate
%%IncludeResource: font Helvetica
/Helvetica /WindowsLatin1Encoding 120 FMSR

 882 4659 mt 
( ) s
6245  431 mt 
( ) s
6 w
1 sg
0 1187 1818 0 0 -1187 959 1636 4 MP
PP
-1818 0 0 1187 1818 0 0 -1187 959 1636 5 MP stroke
4 w
DO
SO
6 w
0 sg
 959  449 mt 2777  449 L
 959 1636 mt 2777 1636 L
2777 1636 mt 2777  449 L
 959 1636 mt  959  449 L
 959 1636 mt 2777 1636 L
 959 1636 mt  959  449 L
 959  449 mt 2777  449 L
 959 1636 mt 2777 1636 L
2777 1636 mt 2777  449 L
 959 1636 mt  959  449 L
%%IncludeResource: font Helvetica
/Helvetica /WindowsLatin1Encoding 192 FMSR

1418  651 mt 
(logistic function) s
gs 959 449 1819 1188 rc
c8
353 0 1029 583 2 MP stroke
gr

c8
0 sg
1418  881 mt 
(impostor \(dev\)) s
gs 959 449 1819 1188 rc
12 w
c9
353 0 1029 812 2 MP stroke
gr

12 w
c9
0 sg
1418 1111 mt 
(client\(dev\)) s
gs 959 449 1819 1188 rc
c10
353 0 1029 1042 2 MP stroke
gr

c10
0 sg
1418 1341 mt 
(impostor \(eva\)) s
gs 959 449 1819 1188 rc
24 w
c9
353 0 1029 1272 2 MP stroke
gr

24 w
c9
0 sg
1418 1571 mt 
(client\(eva\)) s
gs 959 449 1819 1188 rc
c10
353 0 1029 1501 2 MP stroke
6 w
gr

6 w
c10

end %%Color Dict

eplot
%%EndObject

epage
end

showpage

%%Trailer
%%EOF
