%!PS-Adobe-3.0 EPSF-3.0
%%Creator: MATLAB, The Mathworks, Inc.
%%Title: .\main_fusion_us_logreg_face_beta2.eps
%%CreationDate: 02/14/2009  01:51:38
%%DocumentNeededFonts: Helvetica
%%DocumentProcessColors: Cyan Magenta Yellow Black
%%LanguageLevel: 2
%%Pages: 1
%%BoundingBox:    18   187   543   615
%%EndComments

%%BeginProlog
% MathWorks dictionary
/MathWorks 160 dict begin
% definition operators
/bdef {bind def} bind def
/ldef {load def} bind def
/xdef {exch def} bdef
/xstore {exch store} bdef
% operator abbreviations
/c  /clip ldef
/cc /concat ldef
/cp /closepath ldef
/gr /grestore ldef
/gs /gsave ldef
/mt /moveto ldef
/np /newpath ldef
/cm /currentmatrix ldef
/sm /setmatrix ldef
/rm /rmoveto ldef
/rl /rlineto ldef
/s {show newpath} bdef
/sc {setcmykcolor} bdef
/sr /setrgbcolor ldef
/sg /setgray ldef
/w /setlinewidth ldef
/j /setlinejoin ldef
/cap /setlinecap ldef
/rc {rectclip} bdef
/rf {rectfill} bdef
% page state control
/pgsv () def
/bpage {/pgsv save def} bdef
/epage {pgsv restore} bdef
/bplot /gsave ldef
/eplot {stroke grestore} bdef
% orientation switch
/portraitMode 0 def /landscapeMode 1 def /rotateMode 2 def
% coordinate system mappings
/dpi2point 0 def
% font control
/FontSize 0 def
/FMS {/FontSize xstore findfont [FontSize 0 0 FontSize neg 0 0]
  makefont setfont} bdef
/ISOLatin1Encoding where {pop /WindowsLatin1Encoding 256 array bdef
ISOLatin1Encoding WindowsLatin1Encoding copy pop
/.notdef/.notdef/quotesinglbase/florin/quotedblbase/ellipsis/dagger
/daggerdbl/circumflex/perthousand/Scaron/guilsinglleft/OE/.notdef/.notdef
/.notdef/.notdef/quoteleft/quoteright/quotedblleft/quotedblright/bullet
/endash/emdash/tilde/trademark/scaron/guilsinglright/oe/.notdef/.notdef
/Ydieresis WindowsLatin1Encoding 128 32 getinterval astore pop}
{/WindowsLatin1Encoding StandardEncoding bdef} ifelse
/reencode {exch dup where {pop load} {pop StandardEncoding} ifelse
  exch dup 3 1 roll findfont dup length dict begin
  { 1 index /FID ne {def}{pop pop} ifelse } forall
  /Encoding exch def currentdict end definefont pop} bdef
/isroman {findfont /CharStrings get /Agrave known} bdef
/FMSR {3 1 roll 1 index dup isroman {reencode} {pop pop} ifelse
  exch FMS} bdef
/csm {1 dpi2point div -1 dpi2point div scale neg translate
 dup landscapeMode eq {pop -90 rotate}
  {rotateMode eq {90 rotate} if} ifelse} bdef
% line types: solid, dotted, dashed, dotdash
/SO { [] 0 setdash } bdef
/DO { [.5 dpi2point mul 4 dpi2point mul] 0 setdash } bdef
/DA { [6 dpi2point mul] 0 setdash } bdef
/DD { [.5 dpi2point mul 4 dpi2point mul 6 dpi2point mul 4
  dpi2point mul] 0 setdash } bdef
% macros for lines and objects
/L {lineto stroke} bdef
/MP {3 1 roll moveto 1 sub {rlineto} repeat} bdef
/AP {{rlineto} repeat} bdef
/PDlw -1 def
/W {/PDlw currentlinewidth def setlinewidth} def
/PP {closepath eofill} bdef
/DP {closepath stroke} bdef
/MR {4 -2 roll moveto dup  0 exch rlineto exch 0 rlineto
  neg 0 exch rlineto closepath} bdef
/FR {MR stroke} bdef
/PR {MR fill} bdef
/L1i {{currentfile picstr readhexstring pop} image} bdef
/tMatrix matrix def
/MakeOval {newpath tMatrix currentmatrix pop translate scale
0 0 1 0 360 arc tMatrix setmatrix} bdef
/FO {MakeOval stroke} bdef
/PO {MakeOval fill} bdef
/PD {currentlinewidth 2 div 0 360 arc fill
   PDlw -1 eq not {PDlw w /PDlw -1 def} if} def
/FA {newpath tMatrix currentmatrix pop translate scale
  0 0 1 5 -2 roll arc tMatrix setmatrix stroke} bdef
/PA {newpath tMatrix currentmatrix pop	translate 0 0 moveto scale
  0 0 1 5 -2 roll arc closepath tMatrix setmatrix fill} bdef
/FAn {newpath tMatrix currentmatrix pop translate scale
  0 0 1 5 -2 roll arcn tMatrix setmatrix stroke} bdef
/PAn {newpath tMatrix currentmatrix pop translate 0 0 moveto scale
  0 0 1 5 -2 roll arcn closepath tMatrix setmatrix fill} bdef
/vradius 0 def /hradius 0 def /lry 0 def
/lrx 0 def /uly 0 def /ulx 0 def /rad 0 def
/MRR {/vradius xdef /hradius xdef /lry xdef /lrx xdef /uly xdef
  /ulx xdef newpath tMatrix currentmatrix pop ulx hradius add uly
  vradius add translate hradius vradius scale 0 0 1 180 270 arc 
  tMatrix setmatrix lrx hradius sub uly vradius add translate
  hradius vradius scale 0 0 1 270 360 arc tMatrix setmatrix
  lrx hradius sub lry vradius sub translate hradius vradius scale
  0 0 1 0 90 arc tMatrix setmatrix ulx hradius add lry vradius sub
  translate hradius vradius scale 0 0 1 90 180 arc tMatrix setmatrix
  closepath} bdef
/FRR {MRR stroke } bdef
/PRR {MRR fill } bdef
/MlrRR {/lry xdef /lrx xdef /uly xdef /ulx xdef /rad lry uly sub 2 div def
  newpath tMatrix currentmatrix pop ulx rad add uly rad add translate
  rad rad scale 0 0 1 90 270 arc tMatrix setmatrix lrx rad sub lry rad
  sub translate rad rad scale 0 0 1 270 90 arc tMatrix setmatrix
  closepath} bdef
/FlrRR {MlrRR stroke } bdef
/PlrRR {MlrRR fill } bdef
/MtbRR {/lry xdef /lrx xdef /uly xdef /ulx xdef /rad lrx ulx sub 2 div def
  newpath tMatrix currentmatrix pop ulx rad add uly rad add translate
  rad rad scale 0 0 1 180 360 arc tMatrix setmatrix lrx rad sub lry rad
  sub translate rad rad scale 0 0 1 0 180 arc tMatrix setmatrix
  closepath} bdef
/FtbRR {MtbRR stroke } bdef
/PtbRR {MtbRR fill } bdef
/stri 6 array def /dtri 6 array def
/smat 6 array def /dmat 6 array def
/tmat1 6 array def /tmat2 6 array def /dif 3 array def
/asub {/ind2 exch def /ind1 exch def dup dup
  ind1 get exch ind2 get sub exch } bdef
/tri_to_matrix {
  2 0 asub 3 1 asub 4 0 asub 5 1 asub
  dup 0 get exch 1 get 7 -1 roll astore } bdef
/compute_transform {
  dmat dtri tri_to_matrix tmat1 invertmatrix 
  smat stri tri_to_matrix tmat2 concatmatrix } bdef
/ds {stri astore pop} bdef
/dt {dtri astore pop} bdef
/db {2 copy /cols xdef /rows xdef mul dup 3 mul string
  currentfile 
  3 index 0 eq {/ASCIIHexDecode filter}
  {/ASCII85Decode filter 3 index 2 eq {/RunLengthDecode filter} if }
  ifelse exch readstring pop
  dup 0 3 index getinterval /rbmap xdef
  dup 2 index dup getinterval /gbmap xdef
  1 index dup 2 mul exch getinterval /bbmap xdef pop pop}bdef
/it {gs np dtri aload pop moveto lineto lineto cp c
  cols rows 8 compute_transform 
  rbmap gbmap bbmap true 3 colorimage gr}bdef
/il {newpath moveto lineto stroke}bdef
currentdict end def
%%EndProlog

%%BeginSetup
MathWorks begin

0 cap

end
%%EndSetup

%%Page: 1 1
%%BeginPageSetup
%%PageBoundingBox:    18   187   543   615
MathWorks begin
bpage
%%EndPageSetup

%%BeginObject: obj1
bplot

/dpi2point 12 def
portraitMode 0216 7344 csm

    0   -42  6311  5134 rc
86 dict begin %Colortable dictionary
/c0 { 0.000000 0.000000 0.000000 sr} bdef
/c1 { 1.000000 1.000000 1.000000 sr} bdef
/c2 { 0.900000 0.000000 0.000000 sr} bdef
/c3 { 0.000000 0.820000 0.000000 sr} bdef
/c4 { 0.000000 0.000000 0.800000 sr} bdef
/c5 { 0.910000 0.820000 0.320000 sr} bdef
/c6 { 1.000000 0.260000 0.820000 sr} bdef
/c7 { 0.000000 0.820000 0.820000 sr} bdef
c0
1 j
1 sg
   0    0 6919 5187 rf
6 w
0 4227 4721 0 0 -4227 1540 4616 4 MP
PP
-4721 0 0 4227 4721 0 0 -4227 1540 4616 5 MP stroke
4 w
DO
SO
6 w
0 sg
1540  389 mt 6261  389 L
1540 4616 mt 6261 4616 L
6261 4616 mt 6261  389 L
1540 4616 mt 1540  389 L
1540 4616 mt 6261 4616 L
1540 4616 mt 1540  389 L
1895 4616 mt 1895 4568 L
1895  389 mt 1895  436 L
%%IncludeResource: font Helvetica
/Helvetica /WindowsLatin1Encoding 192 FMSR

1677 4828 mt 
(-20) s
2461 4616 mt 2461 4568 L
2461  389 mt 2461  436 L
2243 4828 mt 
(-10) s
3026 4616 mt 3026 4568 L
3026  389 mt 3026  436 L
2973 4828 mt 
(0) s
3592 4616 mt 3592 4568 L
3592  389 mt 3592  436 L
3486 4828 mt 
(10) s
4157 4616 mt 4157 4568 L
4157  389 mt 4157  436 L
4051 4828 mt 
(20) s
4723 4616 mt 4723 4568 L
4723  389 mt 4723  436 L
4617 4828 mt 
(30) s
5289 4616 mt 5289 4568 L
5289  389 mt 5289  436 L
5183 4828 mt 
(40) s
5854 4616 mt 5854 4568 L
5854  389 mt 5854  436 L
5748 4828 mt 
(50) s
1540 4404 mt 1587 4404 L
6261 4404 mt 6213 4404 L
1183 4475 mt 
(orig) s
1540 3981 mt 1587 3981 L
6261 3981 mt 6213 3981 L
 567 4052 mt 
(z-norm \(lr\)) s
1540 3559 mt 1587 3559 L
6261 3559 mt 6213 3559 L
 855 3630 mt 
(z-norm) s
1540 3136 mt 1587 3136 L
6261 3136 mt 6213 3136 L
 140 3207 mt 
(z-norm, gen \(lr\)) s
1540 2713 mt 1587 2713 L
6261 2713 mt 6213 2713 L
 170 2784 mt 
(z-norm [y,p] \(lr\)) s
1540 2291 mt 1587 2291 L
6261 2291 mt 6213 2291 L
   0 2362 mt 
(z-norm [y,y*p] \(lr\)) s
1540 1868 mt 1587 1868 L
6261 1868 mt 6213 1868 L
 898 1939 mt 
(f-norm) s
1540 1445 mt 1587 1445 L
6261 1445 mt 6213 1445 L
 354 1516 mt 
(f-norm v1 \(lr\)) s
1540 1023 mt 1587 1023 L
6261 1023 mt 6213 1023 L
 354 1094 mt 
(f-norm v2 \(lr\)) s
1540  600 mt 1587  600 L
6261  600 mt 6213  600 L
 679  671 mt 
(f-norm-lr) s
1540  389 mt 6261  389 L
1540 4616 mt 6261 4616 L
6261 4616 mt 6261  389 L
1540 4616 mt 1540  389 L
2680 5024 mt 
(relative change of HTER \(%\)) s
3425  224 mt 
(face, ) s
%%IncludeResource: font Symbol
/Symbol /WindowsLatin1Encoding 192 FMSR

3885  224 mt 
(b) s
%%IncludeResource: font Helvetica
/Helvetica /WindowsLatin1Encoding 192 FMSR

3990  224 mt 
(=0.5) s
gs 1540 389 4722 4228 rc
DA
3026 4404 PD
3026 4404 PD
SO
0 -106 3026 4457 2 MP stroke
0 -106 3026 4457 2 MP stroke
/c8 { 0.000000 0.000000 1.000000 sr} bdef
c8
0 -212 3026 4510 2 MP stroke
/c9 { 1.000000 0.000000 0.000000 sr} bdef
c9
0 -212 3026 4510 2 MP stroke
DA
0 sg
198 0 3294 3981 2 MP stroke
23 0 2892 3981 2 MP stroke
SO
0 -105 3492 4034 2 MP stroke
0 -105 2892 4034 2 MP stroke
c8
379 0 0 211 -379 0 0 -211 3294 4087 5 MP stroke
c9
0 -211 2943 4087 2 MP stroke
DA
0 sg
559 0 4082 3559 2 MP stroke
120 0 2570 3559 2 MP stroke
SO
0 -106 4641 3612 2 MP stroke
0 -106 2570 3612 2 MP stroke
c8
1392 0 0 211 -1392 0 0 -211 4082 3664 5 MP stroke
c9
0 -211 2971 3664 2 MP stroke
DA
0 sg
1147 0 4039 3136 2 MP stroke
365 0 2014 3136 2 MP stroke
SO
0 -106 5186 3189 2 MP stroke
0 -106 2014 3189 2 MP stroke
c8
1660 0 0 212 -1660 0 0 -212 4039 3242 5 MP stroke
c9
0 -212 3609 3242 2 MP stroke
DA
0 sg
2108 0 3938 2713 2 MP stroke
467 0 1754 2713 2 MP stroke
SO
0 -105 6046 2766 2 MP stroke
0 -105 1754 2766 2 MP stroke
c8
1717 0 0 211 -1717 0 0 -211 3938 2819 5 MP stroke
c9
0 -211 3569 2819 2 MP stroke
DA
0 sg
415 0 4101 2291 2 MP stroke
224 0 2846 2291 2 MP stroke
SO
0 -105 4516 2343 2 MP stroke
0 -105 2846 2343 2 MP stroke
c8
1031 0 0 211 -1031 0 0 -211 4101 2396 5 MP stroke
c9
0 -211 3191 2396 2 MP stroke
DA
0 sg
46 0 2894 1868 2 MP stroke
283 0 2095 1868 2 MP stroke
SO
0 -106 2940 1921 2 MP stroke
0 -106 2095 1921 2 MP stroke
c8
516 0 0 212 -516 0 0 -212 2894 1974 5 MP stroke
c9
0 -212 2621 1974 2 MP stroke
gr

c9
3862 1868 mt 3934 1868 L
3898 1832 mt 3898 1904 L
gs 1540 389 4722 4228 rc
DA
0 sg
646 0 3261 1445 2 MP stroke
115 0 2249 1445 2 MP stroke
SO
0 -106 3907 1498 2 MP stroke
0 -106 2249 1498 2 MP stroke
c8
897 0 0 211 -897 0 0 -211 3261 1551 5 MP stroke
c9
0 -211 2762 1551 2 MP stroke
DA
0 sg
520 0 3757 1023 2 MP stroke
145 0 2212 1023 2 MP stroke
SO
0 -105 4277 1075 2 MP stroke
0 -105 2212 1075 2 MP stroke
c8
1400 0 0 211 -1400 0 0 -211 3757 1128 5 MP stroke
c9
0 -211 2690 1128 2 MP stroke
DA
0 sg
831 0 3360 600 2 MP stroke
148 0 2056 600 2 MP stroke
SO
0 -106 4191 653 2 MP stroke
0 -106 2056 653 2 MP stroke
c8
1156 0 0 212 -1156 0 0 -212 3360 706 5 MP stroke
c9
0 -212 2748 706 2 MP stroke
/c10 { 0.000000 1.000000 0.000000 sr} bdef
c10
0 4228 3026 389 2 MP stroke
gr

c10

end %%Color Dict

eplot
%%EndObject

epage
end

showpage

%%Trailer
%%EOF
