%!PS-Adobe-3.0 EPSF-3.0
%%Creator: MATLAB, The Mathworks, Inc. Version 7.7.0.471 (R2008b). Operating System: Microsoft Windows XP.
%%Title: Pictures\main_zoo_mvar_analysis_data_BMI_xcorr_bmig_p1_k1_4_9.eps
%%CreationDate: 10/26/2009  05:45:01
%%DocumentNeededFonts: Helvetica
%%DocumentProcessColors: Cyan Magenta Yellow Black
%%LanguageLevel: 2
%%Pages: 1
%%BoundingBox:    37   180   549   616
%%EndComments

%%BeginProlog
% MathWorks dictionary
/MathWorks 160 dict begin
% definition operators
/bdef {bind def} bind def
/ldef {load def} bind def
/xdef {exch def} bdef
/xstore {exch store} bdef
% operator abbreviations
/c  /clip ldef
/cc /concat ldef
/cp /closepath ldef
/gr /grestore ldef
/gs /gsave ldef
/mt /moveto ldef
/np /newpath ldef
/cm /currentmatrix ldef
/sm /setmatrix ldef
/rm /rmoveto ldef
/rl /rlineto ldef
/s {show newpath} bdef
/sc {setcmykcolor} bdef
/sr /setrgbcolor ldef
/sg /setgray ldef
/w /setlinewidth ldef
/j /setlinejoin ldef
/cap /setlinecap ldef
/rc {rectclip} bdef
/rf {rectfill} bdef
% page state control
/pgsv () def
/bpage {/pgsv save def} bdef
/epage {pgsv restore} bdef
/bplot /gsave ldef
/eplot {stroke grestore} bdef
% orientation switch
/portraitMode 0 def /landscapeMode 1 def /rotateMode 2 def
% coordinate system mappings
/dpi2point 0 def
% font control
/FontSize 0 def
/FMS {/FontSize xstore findfont [FontSize 0 0 FontSize neg 0 0]
  makefont setfont} bdef
/ISOLatin1Encoding where {pop /WindowsLatin1Encoding 256 array bdef
ISOLatin1Encoding WindowsLatin1Encoding copy pop
/.notdef/.notdef/quotesinglbase/florin/quotedblbase/ellipsis/dagger
/daggerdbl/circumflex/perthousand/Scaron/guilsinglleft/OE/.notdef/.notdef
/.notdef/.notdef/quoteleft/quoteright/quotedblleft/quotedblright/bullet
/endash/emdash/tilde/trademark/scaron/guilsinglright/oe/.notdef/.notdef
/Ydieresis WindowsLatin1Encoding 128 32 getinterval astore pop}
{/WindowsLatin1Encoding StandardEncoding bdef} ifelse
/reencode {exch dup where {pop load} {pop StandardEncoding} ifelse
  exch dup 3 1 roll findfont dup length dict begin
  { 1 index /FID ne {def}{pop pop} ifelse } forall
  /Encoding exch def currentdict end definefont pop} bdef
/isroman {findfont /CharStrings get /Agrave known} bdef
/FMSR {3 1 roll 1 index dup isroman {reencode} {pop pop} ifelse
  exch FMS} bdef
/csm {1 dpi2point div -1 dpi2point div scale neg translate
 dup landscapeMode eq {pop -90 rotate}
  {rotateMode eq {90 rotate} if} ifelse} bdef
% line types: solid, dotted, dashed, dotdash
/SO { [] 0 setdash } bdef
/DO { [.5 dpi2point mul 4 dpi2point mul] 0 setdash } bdef
/DA { [6 dpi2point mul] 0 setdash } bdef
/DD { [.5 dpi2point mul 4 dpi2point mul 6 dpi2point mul 4
  dpi2point mul] 0 setdash } bdef
% macros for lines and objects
/L {lineto stroke} bdef
/MP {3 1 roll moveto 1 sub {rlineto} repeat} bdef
/AP {{rlineto} repeat} bdef
/PDlw -1 def
/W {/PDlw currentlinewidth def setlinewidth} def
/PP {closepath eofill} bdef
/DP {closepath stroke} bdef
/MR {4 -2 roll moveto dup  0 exch rlineto exch 0 rlineto
  neg 0 exch rlineto closepath} bdef
/FR {MR stroke} bdef
/PR {MR fill} bdef
/L1i {{currentfile picstr readhexstring pop} image} bdef
/tMatrix matrix def
/MakeOval {newpath tMatrix currentmatrix pop translate scale
0 0 1 0 360 arc tMatrix setmatrix} bdef
/FO {MakeOval stroke} bdef
/PO {MakeOval fill} bdef
/PD {currentlinewidth 2 div 0 360 arc fill
   PDlw -1 eq not {PDlw w /PDlw -1 def} if} def
/FA {newpath tMatrix currentmatrix pop translate scale
  0 0 1 5 -2 roll arc tMatrix setmatrix stroke} bdef
/PA {newpath tMatrix currentmatrix pop	translate 0 0 moveto scale
  0 0 1 5 -2 roll arc closepath tMatrix setmatrix fill} bdef
/FAn {newpath tMatrix currentmatrix pop translate scale
  0 0 1 5 -2 roll arcn tMatrix setmatrix stroke} bdef
/PAn {newpath tMatrix currentmatrix pop translate 0 0 moveto scale
  0 0 1 5 -2 roll arcn closepath tMatrix setmatrix fill} bdef
/vradius 0 def /hradius 0 def /lry 0 def
/lrx 0 def /uly 0 def /ulx 0 def /rad 0 def
/MRR {/vradius xdef /hradius xdef /lry xdef /lrx xdef /uly xdef
  /ulx xdef newpath tMatrix currentmatrix pop ulx hradius add uly
  vradius add translate hradius vradius scale 0 0 1 180 270 arc 
  tMatrix setmatrix lrx hradius sub uly vradius add translate
  hradius vradius scale 0 0 1 270 360 arc tMatrix setmatrix
  lrx hradius sub lry vradius sub translate hradius vradius scale
  0 0 1 0 90 arc tMatrix setmatrix ulx hradius add lry vradius sub
  translate hradius vradius scale 0 0 1 90 180 arc tMatrix setmatrix
  closepath} bdef
/FRR {MRR stroke } bdef
/PRR {MRR fill } bdef
/MlrRR {/lry xdef /lrx xdef /uly xdef /ulx xdef /rad lry uly sub 2 div def
  newpath tMatrix currentmatrix pop ulx rad add uly rad add translate
  rad rad scale 0 0 1 90 270 arc tMatrix setmatrix lrx rad sub lry rad
  sub translate rad rad scale 0 0 1 270 90 arc tMatrix setmatrix
  closepath} bdef
/FlrRR {MlrRR stroke } bdef
/PlrRR {MlrRR fill } bdef
/MtbRR {/lry xdef /lrx xdef /uly xdef /ulx xdef /rad lrx ulx sub 2 div def
  newpath tMatrix currentmatrix pop ulx rad add uly rad add translate
  rad rad scale 0 0 1 180 360 arc tMatrix setmatrix lrx rad sub lry rad
  sub translate rad rad scale 0 0 1 0 180 arc tMatrix setmatrix
  closepath} bdef
/FtbRR {MtbRR stroke } bdef
/PtbRR {MtbRR fill } bdef
/stri 6 array def /dtri 6 array def
/smat 6 array def /dmat 6 array def
/tmat1 6 array def /tmat2 6 array def /dif 3 array def
/asub {/ind2 exch def /ind1 exch def dup dup
  ind1 get exch ind2 get sub exch } bdef
/tri_to_matrix {
  2 0 asub 3 1 asub 4 0 asub 5 1 asub
  dup 0 get exch 1 get 7 -1 roll astore } bdef
/compute_transform {
  dmat dtri tri_to_matrix tmat1 invertmatrix 
  smat stri tri_to_matrix tmat2 concatmatrix } bdef
/ds {stri astore pop} bdef
/dt {dtri astore pop} bdef
/db {2 copy /cols xdef /rows xdef mul dup 3 mul string
  currentfile 
  3 index 0 eq {/ASCIIHexDecode filter}
  {/ASCII85Decode filter 3 index 2 eq {/RunLengthDecode filter} if }
  ifelse exch readstring pop
  dup 0 3 index getinterval /rbmap xdef
  dup 2 index dup getinterval /gbmap xdef
  1 index dup 2 mul exch getinterval /bbmap xdef pop pop}bdef
/it {gs np dtri aload pop moveto lineto lineto cp c
  cols rows 8 compute_transform 
  rbmap gbmap bbmap true 3 colorimage gr}bdef
/il {newpath moveto lineto stroke}bdef
currentdict end def
%%EndProlog

%%BeginSetup
MathWorks begin

0 cap

end
%%EndSetup

%%Page: 1 1
%%BeginPageSetup
%%PageBoundingBox:    37   180   549   616
MathWorks begin
bpage
%%EndPageSetup

%%BeginObject: obj1
bplot

/dpi2point 12 def
portraitMode 0216 7344 csm

  234   -48  6149  5231 rc
85 dict begin %Colortable dictionary
/c0 { 0.000000 0.000000 0.000000 sr} bdef
/c1 { 1.000000 1.000000 1.000000 sr} bdef
/c2 { 0.900000 0.000000 0.000000 sr} bdef
/c3 { 0.000000 0.820000 0.000000 sr} bdef
/c4 { 0.000000 0.000000 0.800000 sr} bdef
/c5 { 0.910000 0.820000 0.320000 sr} bdef
/c6 { 1.000000 0.260000 0.820000 sr} bdef
/c7 { 0.000000 0.820000 0.820000 sr} bdef
c0
1 j
1 sg
   0    0 6919 5187 rf
6 w
0 4202 5362 0 0 -4202 899 4616 4 MP
PP
-5362 0 0 4202 5362 0 0 -4202 899 4616 5 MP stroke
4 w
DO
SO
6 w
0 sg
 899  414 mt 6261  414 L
 899 4616 mt 6261 4616 L
6261 4616 mt 6261  414 L
 899 4616 mt  899  414 L
 899 4616 mt 6261 4616 L
 899 4616 mt  899  414 L
 919 4616 mt  919 4562 L
 919  414 mt  919  467 L
%%IncludeResource: font Helvetica
/Helvetica /WindowsLatin1Encoding 240 FMSR

 713 4873 mt 
(-3) s
1806 4616 mt 1806 4562 L
1806  414 mt 1806  467 L
1600 4873 mt 
(-2) s
2693 4616 mt 2693 4562 L
2693  414 mt 2693  467 L
2487 4873 mt 
(-1) s
3580 4616 mt 3580 4562 L
3580  414 mt 3580  467 L
3514 4873 mt 
(0) s
4466 4616 mt 4466 4562 L
4466  414 mt 4466  467 L
4400 4873 mt 
(1) s
5353 4616 mt 5353 4562 L
5353  414 mt 5353  467 L
5287 4873 mt 
(2) s
6240 4616 mt 6240 4562 L
6240  414 mt 6240  467 L
6174 4873 mt 
(3) s
 899 4599 mt  952 4599 L
6261 4599 mt 6207 4599 L
 591 4688 mt 
(-3) s
 899 3904 mt  952 3904 L
6261 3904 mt 6207 3904 L
 591 3993 mt 
(-2) s
 899 3209 mt  952 3209 L
6261 3209 mt 6207 3209 L
 591 3298 mt 
(-1) s
 899 2514 mt  952 2514 L
6261 2514 mt 6207 2514 L
 731 2603 mt 
(0) s
 899 1820 mt  952 1820 L
6261 1820 mt 6207 1820 L
 731 1909 mt 
(1) s
 899 1125 mt  952 1125 L
6261 1125 mt 6207 1125 L
 731 1214 mt 
(2) s
 899  430 mt  952  430 L
6261  430 mt 6207  430 L
 731  519 mt 
(3) s
 899  414 mt 6261  414 L
 899 4616 mt 6261 4616 L
6261 4616 mt 6261  414 L
 899 4616 mt  899  414 L
gs 899 414 5363 4203 rc
gr

/c8 { 0.000000 0.000000 1.000000 sr} bdef
c8
3053 1698 mt 3125 1698 L
3089 1662 mt 3089 1734 L
3983 2815 mt 4055 2815 L
4019 2779 mt 4019 2851 L
4719 4023 mt 4791 4023 L
4755 3987 mt 4755 4059 L
3791 2978 mt 3863 2978 L
3827 2942 mt 3827 3014 L
2866 1892 mt 2938 1892 L
2902 1856 mt 2902 1928 L
3460 2859 mt 3532 2859 L
3496 2823 mt 3496 2895 L
4298 2549 mt 4370 2549 L
4334 2513 mt 4334 2585 L
2851 2160 mt 2923 2160 L
2887 2124 mt 2887 2196 L
3421 2388 mt 3493 2388 L
3457 2352 mt 3457 2424 L
3940 2067 mt 4012 2067 L
3976 2031 mt 3976 2103 L
3621 1740 mt 3693 1740 L
3657 1704 mt 3657 1776 L
4330 2237 mt 4402 2237 L
4366 2201 mt 4366 2273 L
4553 2223 mt 4625 2223 L
4589 2187 mt 4589 2259 L
4087 2320 mt 4159 2320 L
4123 2284 mt 4123 2356 L
3885 2001 mt 3957 2001 L
3921 1965 mt 3921 2037 L
4290 2347 mt 4362 2347 L
4326 2311 mt 4326 2383 L
3243 3273 mt 3315 3273 L
3279 3237 mt 3279 3309 L
2917 2204 mt 2989 2204 L
2953 2168 mt 2953 2240 L
5002 2589 mt 5074 2589 L
5038 2553 mt 5038 2625 L
3605 3567 mt 3677 3567 L
3641 3531 mt 3641 3603 L
3532 3118 mt 3604 3118 L
3568 3082 mt 3568 3154 L
2468 1087 mt 2540 1087 L
2504 1051 mt 2504 1123 L
3774 1404 mt 3846 1404 L
3810 1368 mt 3810 1440 L
4852  564 mt 4924  564 L
4888  528 mt 4888  600 L
2945 2007 mt 3017 2007 L
2981 1971 mt 2981 2043 L
3832 3213 mt 3904 3213 L
3868 3177 mt 3868 3249 L
3711 2576 mt 3783 2576 L
3747 2540 mt 3747 2612 L
3873 2506 mt 3945 2506 L
3909 2470 mt 3909 2542 L
3751 2782 mt 3823 2782 L
3787 2746 mt 3787 2818 L
3387 3358 mt 3459 3358 L
3423 3322 mt 3423 3394 L
2828 3731 mt 2900 3731 L
2864 3695 mt 2864 3767 L
3689 2078 mt 3761 2078 L
3725 2042 mt 3725 2114 L
4407 3581 mt 4479 3581 L
4443 3545 mt 4443 3617 L
2697 2673 mt 2769 2673 L
2733 2637 mt 2733 2709 L
4355 3069 mt 4427 3069 L
4391 3033 mt 4391 3105 L
2394 2909 mt 2466 2909 L
2430 2873 mt 2430 2945 L
2575 2686 mt 2647 2686 L
2611 2650 mt 2611 2722 L
3694 2650 mt 3766 2650 L
3730 2614 mt 3730 2686 L
3903 1960 mt 3975 1960 L
3939 1924 mt 3939 1996 L
4184 4205 mt 4256 4205 L
4220 4169 mt 4220 4241 L
3410 3289 mt 3482 3289 L
3446 3253 mt 3446 3325 L
4805 2365 mt 4877 2365 L
4841 2329 mt 4841 2401 L
2420 3658 mt 2492 3658 L
2456 3622 mt 2456 3694 L
5282 1006 mt 5354 1006 L
5318  970 mt 5318 1042 L
6033 3125 mt 6105 3125 L
6069 3089 mt 6069 3161 L
3838 3045 mt 3910 3045 L
3874 3009 mt 3874 3081 L
2555 2401 mt 2627 2401 L
2591 2365 mt 2591 2437 L
4338 3349 mt 4410 3349 L
4374 3313 mt 4374 3385 L
4608 3093 mt 4680 3093 L
4644 3057 mt 4644 3129 L
4643 2796 mt 4715 2796 L
4679 2760 mt 4679 2832 L
2456 1232 mt 2528 1232 L
2492 1196 mt 2492 1268 L
1876 2140 mt 1948 2140 L
1912 2104 mt 1912 2176 L
5365 1653 mt 5437 1653 L
5401 1617 mt 5401 1689 L
3147 2731 mt 3219 2731 L
3183 2695 mt 3183 2767 L
3296 1561 mt 3368 1561 L
3332 1525 mt 3332 1597 L
3290 2493 mt 3362 2493 L
3326 2457 mt 3326 2529 L
3844 1984 mt 3916 1984 L
3880 1948 mt 3880 2020 L
3278 2029 mt 3350 2029 L
3314 1993 mt 3314 2065 L
4322 2619 mt 4394 2619 L
4358 2583 mt 4358 2655 L
4435 3711 mt 4507 3711 L
4471 3675 mt 4471 3747 L
2789 1787 mt 2861 1787 L
2825 1751 mt 2825 1823 L
2016 3005 mt 2088 3005 L
2052 2969 mt 2052 3041 L
4746 2155 mt 4818 2155 L
4782 2119 mt 4782 2191 L
5071 2820 mt 5143 2820 L
5107 2784 mt 5107 2856 L
4836 2889 mt 4908 2889 L
4872 2853 mt 4872 2925 L
2896 2270 mt 2968 2270 L
2932 2234 mt 2932 2306 L
5150 3675 mt 5222 3675 L
5186 3639 mt 5186 3711 L
2671 4305 mt 2743 4305 L
2707 4269 mt 2707 4341 L
3566 2307 mt 3638 2307 L
3602 2271 mt 3602 2343 L
3353 2633 mt 3425 2633 L
3389 2597 mt 3389 2669 L
3734 3693 mt 3806 3693 L
3770 3657 mt 3770 3729 L
4170 2884 mt 4242 2884 L
4206 2848 mt 4206 2920 L
3803 2120 mt 3875 2120 L
3839 2084 mt 3839 2156 L
3307 2445 mt 3379 2445 L
3343 2409 mt 3343 2481 L
3098 1538 mt 3170 1538 L
3134 1502 mt 3134 1574 L
4886 3942 mt 4958 3942 L
4922 3906 mt 4922 3978 L
4522 2338 mt 4594 2338 L
4558 2302 mt 4558 2374 L
3921 3386 mt 3993 3386 L
3957 3350 mt 3957 3422 L
4631 2311 mt 4703 2311 L
4667 2275 mt 4667 2347 L
3521 2298 mt 3593 2298 L
3557 2262 mt 3557 2334 L
4904 1689 mt 4976 1689 L
4940 1653 mt 4940 1725 L
5047 2754 mt 5119 2754 L
5083 2718 mt 5083 2790 L
2595 3137 mt 2667 3137 L
2631 3101 mt 2631 3173 L
3577 3340 mt 3649 3340 L
3613 3304 mt 3613 3376 L
3538 3265 mt 3610 3265 L
3574 3229 mt 3574 3301 L
4074 2109 mt 4146 2109 L
4110 2073 mt 4110 2145 L
3123  824 mt 3195  824 L
3159  788 mt 3159  860 L
5321 2379 mt 5393 2379 L
5357 2343 mt 5357 2415 L
2479 3376 mt 2551 3376 L
2515 3340 mt 2515 3412 L
2218 1904 mt 2290 1904 L
2254 1868 mt 2254 1940 L
4585 3503 mt 4657 3503 L
4621 3467 mt 4621 3539 L
4922 1336 mt 4994 1336 L
4958 1300 mt 4958 1372 L
4121 2247 mt 4193 2247 L
4157 2211 mt 4157 2283 L
3891 2778 mt 3963 2778 L
3927 2742 mt 3927 2814 L
1481 2611 mt 1553 2611 L
1517 2575 mt 1517 2647 L
4015 2849 mt 4087 2849 L
4051 2813 mt 4051 2885 L
3267 3057 mt 3339 3057 L
3303 3021 mt 3303 3093 L
3319 3491 mt 3391 3491 L
3355 3455 mt 3355 3527 L
4667 3051 mt 4739 3051 L
4703 3015 mt 4703 3087 L
2931 1954 mt 3003 1954 L
2967 1918 mt 2967 1990 L
3000 2284 mt 3072 2284 L
3036 2248 mt 3036 2320 L
3393 1624 mt 3465 1624 L
3429 1588 mt 3429 1660 L
4372 1419 mt 4444 1419 L
4408 1383 mt 4408 1455 L
2980 2554 mt 3052 2554 L
3016 2518 mt 3016 2590 L
3867 2104 mt 3939 2104 L
3903 2068 mt 3903 2140 L
4021 2293 mt 4093 2293 L
4057 2257 mt 4057 2329 L
4236 2940 mt 4308 2940 L
4272 2904 mt 4272 2976 L
3214 2471 mt 3286 2471 L
3250 2435 mt 3250 2507 L
3438 1978 mt 3510 1978 L
3474 1942 mt 3474 2014 L
2821 3822 mt 2893 3822 L
2857 3786 mt 2857 3858 L
5828 2768 mt 5900 2768 L
5864 2732 mt 5864 2804 L
3454 3022 mt 3526 3022 L
3490 2986 mt 3490 3058 L
2749 2361 mt 2821 2361 L
2785 2325 mt 2785 2397 L
2859 2185 mt 2931 2185 L
2895 2149 mt 2895 2221 L
4266 1816 mt 4338 1816 L
4302 1780 mt 4302 1852 L
3934 1277 mt 4006 1277 L
3970 1241 mt 3970 1313 L
4107 2983 mt 4179 2983 L
4143 2947 mt 4143 3019 L
3740 2874 mt 3812 2874 L
3776 2838 mt 3776 2910 L
4775 2989 mt 4847 2989 L
4811 2953 mt 4811 3025 L
2565 2035 mt 2637 2035 L
2601 1999 mt 2601 2071 L
3085 2825 mt 3157 2825 L
3121 2789 mt 3121 2861 L
4228 1152 mt 4300 1152 L
4264 1116 mt 4264 1188 L
2757 2914 mt 2829 2914 L
2793 2878 mt 2793 2950 L
4869 1858 mt 4941 1858 L
4905 1822 mt 4905 1894 L
3594 2316 mt 3666 2316 L
3630 2280 mt 3630 2352 L
5024 2150 mt 5096 2150 L
5060 2114 mt 5060 2186 L
3153 3281 mt 3225 3281 L
3189 3245 mt 3189 3317 L
3555 2228 mt 3627 2228 L
3591 2192 mt 3591 2264 L
3313 2668 mt 3385 2668 L
3349 2632 mt 3349 2704 L
2085 1462 mt 2157 1462 L
2121 1426 mt 2121 1498 L
4472 2012 mt 4544 2012 L
4508 1976 mt 4508 2048 L
3347 1748 mt 3419 1748 L
3383 1712 mt 3383 1784 L
3027 2130 mt 3099 2130 L
3063 2094 mt 3063 2166 L
1259 2083 mt 1331 2083 L
1295 2047 mt 1295 2119 L
1387 2879 mt 1459 2879 L
1423 2843 mt 1423 2915 L
2523 2704 mt 2595 2704 L
2559 2668 mt 2559 2740 L
3342 2864 mt 3414 2864 L
3378 2828 mt 3378 2900 L
3261 3087 mt 3333 3087 L
3297 3051 mt 3297 3123 L
4306 2510 mt 4378 2510 L
4342 2474 mt 4342 2546 L
3046 2467 mt 3118 2467 L
3082 2431 mt 3082 2503 L
4041 2602 mt 4113 2602 L
4077 2566 mt 4077 2638 L
3897 2251 mt 3969 2251 L
3933 2215 mt 3933 2287 L
4619 2414 mt 4691 2414 L
4655 2378 mt 4655 2450 L
2368 2165 mt 2440 2165 L
2404 2129 mt 2404 2201 L
3505 2458 mt 3577 2458 L
3541 2422 mt 3541 2494 L
3404 2967 mt 3476 2967 L
3440 2931 mt 3440 3003 L
4054 2024 mt 4126 2024 L
4090 1988 mt 4090 2060 L
4532 1371 mt 4604 1371 L
4568 1335 mt 4568 1407 L
4574 2356 mt 4646 2356 L
4610 2320 mt 4610 2392 L
2327 2750 mt 2399 2750 L
2363 2714 mt 2363 2786 L
6225 2046 mt 6297 2046 L
6261 2010 mt 6261 2082 L
2765 2514 mt 2837 2514 L
2801 2478 mt 2801 2550 L
3471 3908 mt 3543 3908 L
3507 3872 mt 3507 3944 L
4213 1851 mt 4285 1851 L
4249 1815 mt 4249 1887 L
1937 2773 mt 2009 2773 L
1973 2737 mt 1973 2809 L
3376 2811 mt 3448 2811 L
3412 2775 mt 3412 2847 L
4390 3479 mt 4462 3479 L
4426 3443 mt 4426 3515 L
3477 2099 mt 3549 2099 L
3513 2063 mt 3513 2135 L
2201 1779 mt 2273 1779 L
2237 1743 mt 2237 1815 L
4206 2073 mt 4278 2073 L
4242 2037 mt 4242 2109 L
4693 3436 mt 4765 3436 L
4729 3400 mt 4729 3472 L
3172 2541 mt 3244 2541 L
3208 2505 mt 3208 2577 L
2836 1255 mt 2908 1255 L
2872 1219 mt 2872 1291 L
3809 3250 mt 3881 3250 L
3845 3214 mt 3845 3286 L
3672 2089 mt 3744 2089 L
3708 2053 mt 3708 2125 L
4191 3220 mt 4263 3220 L
4227 3184 mt 4227 3256 L
5468 2764 mt 5540 2764 L
5504 2728 mt 5504 2800 L
3797 1838 mt 3869 1838 L
3833 1802 mt 3833 1874 L
3510 1809 mt 3582 1809 L
3546 1773 mt 3546 1845 L
4364 2869 mt 4436 2869 L
4400 2833 mt 4400 2905 L
2966 1207 mt 3038 1207 L
3002 1171 mt 3002 1243 L
2874 1948 mt 2946 1948 L
2910 1912 mt 2910 1984 L
2235 3184 mt 2307 3184 L
2271 3148 mt 2271 3220 L
3757 2343 mt 3829 2343 L
3793 2307 mt 3793 2379 L
3449 2175 mt 3521 2175 L
3485 2139 mt 3485 2211 L
3728 2242 mt 3800 2242 L
3764 2206 mt 3764 2278 L
3952 2501 mt 4024 2501 L
3988 2465 mt 3988 2537 L
3527 3641 mt 3599 3641 L
3563 3605 mt 3563 3677 L
4163 2718 mt 4235 2718 L
4199 2682 mt 4199 2754 L
3627 2787 mt 3699 2787 L
3663 2751 mt 3663 2823 L
2881 1794 mt 2953 1794 L
2917 1758 mt 2917 1830 L
2605 3797 mt 2677 3797 L
2641 3761 mt 2641 3833 L
4002  898 mt 4074  898 L
4038  862 mt 4038  934 L
5122 2558 mt 5194 2558 L
5158 2522 mt 5158 2594 L
4135 2580 mt 4207 2580 L
4171 2544 mt 4171 2616 L
3683 2624 mt 3755 2624 L
3719 2588 mt 3719 2660 L
3196 1550 mt 3268 1550 L
3232 1514 mt 3232 1586 L
3655 2899 mt 3727 2899 L
3691 2863 mt 3691 2935 L
3091 3625 mt 3163 3625 L
3127 3589 mt 3127 3661 L
3226 1318 mt 3298 1318 L
3262 1282 mt 3262 1354 L
3129 2352 mt 3201 2352 L
3165 2316 mt 3165 2388 L
4114  414 mt 4186  414 L
4150  378 mt 4150  450 L
3104 3034 mt 3176 3034 L
3140 2998 mt 3140 3070 L
2643 1764 mt 2715 1764 L
2679 1728 mt 2679 1800 L
1722 1972 mt 1794 1972 L
1758 1936 mt 1758 2008 L
5096 2436 mt 5168 2436 L
5132 2400 mt 5132 2472 L
3616 1593 mt 3688 1593 L
3652 1557 mt 3652 1629 L
3381 1942 mt 3453 1942 L
3417 1906 mt 3417 1978 L
3780 2325 mt 3852 2325 L
3816 2289 mt 3816 2361 L
3370 2094 mt 3442 2094 L
3406 2058 mt 3406 2130 L
3364 1680 mt 3436 1680 L
3400 1644 mt 3400 1716 L
3560 1572 mt 3632 1572 L
3596 1536 mt 3596 1608 L
2910 2682 mt 2982 2682 L
2946 2646 mt 2946 2718 L
2282 2418 mt 2354 2418 L
2318 2382 mt 2318 2454 L
2586 2449 mt 2658 2449 L
2622 2413 mt 2622 2485 L
3116 2405 mt 3188 2405 L
3152 2369 mt 3152 2441 L
4425 2677 mt 4497 2677 L
4461 2641 mt 4461 2713 L
1766 3848 mt 1838 3848 L
1802 3812 mt 1802 3884 L
4149 2302 mt 4221 2302 L
4185 2266 mt 4185 2338 L
4492 2528 mt 4564 2528 L
4528 2492 mt 4528 2564 L
1674 2256 mt 1746 2256 L
1710 2220 mt 1710 2292 L
3927 3039 mt 3999 3039 L
3963 3003 mt 3963 3075 L
4047 2536 mt 4119 2536 L
4083 2500 mt 4083 2572 L
2924 1354 mt 2996 1354 L
2960 1318 mt 2960 1390 L
2615 1823 mt 2687 1823 L
2651 1787 mt 2651 1859 L
4941 1756 mt 5013 1756 L
4977 1720 mt 4977 1792 L
2706 3752 mt 2778 3752 L
2742 3716 mt 2742 3788 L
3078 2523 mt 3150 2523 L
3114 2487 mt 3114 2559 L
4080 3610 mt 4152 3610 L
4116 3574 mt 4116 3646 L
4243 2628 mt 4315 2628 L
4279 2592 mt 4279 2664 L
2355 3131 mt 2427 3131 L
2391 3095 mt 2391 3167 L
3066  724 mt 3138  724 L
3102  688 mt 3102  760 L
4282 1930 mt 4354 1930 L
4318 1894 mt 4318 1966 L
3996 1049 mt 4068 1049 L
4032 1013 mt 4032 1085 L
4655 2334 mt 4727 2334 L
4691 2298 mt 4691 2370 L
3861 4072 mt 3933 4072 L
3897 4036 mt 3897 4108 L
3814 2606 mt 3886 2606 L
3850 2570 mt 3850 2642 L
3915 2956 mt 3987 2956 L
3951 2920 mt 3951 2992 L
3644 2275 mt 3716 2275 L
3680 2239 mt 3680 2311 L
3336 2218 mt 3408 2218 L
3372 2182 mt 3372 2254 L
2126 1878 mt 2198 1878 L
2162 1842 mt 2162 1914 L
4177 2709 mt 4249 2709 L
4213 2673 mt 4213 2745 L
3638 3306 mt 3710 3306 L
3674 3270 mt 3674 3342 L
2938 3527 mt 3010 3527 L
2974 3491 mt 2974 3563 L
2888 2741 mt 2960 2741 L
2924 2705 mt 2924 2777 L
2732 2792 mt 2804 2792 L
2768 2756 mt 2768 2828 L
3482 3297 mt 3554 3297 L
3518 3261 mt 3518 3333 L
 863 1448 mt  935 1448 L
 899 1412 mt  899 1484 L
3141 1662 mt 3213 1662 L
3177 1626 mt 3177 1698 L
3768 3099 mt 3840 3099 L
3804 3063 mt 3804 3135 L
3232 3075 mt 3304 3075 L
3268 3039 mt 3268 3111 L
4542 3515 mt 4614 3515 L
4578 3479 mt 4578 3551 L
2513 3395 mt 2585 3395 L
2549 3359 mt 2549 3431 L
4199 1526 mt 4271 1526 L
4235 1490 mt 4235 1562 L
5413 2462 mt 5485 2462 L
5449 2426 mt 5449 2498 L
3516 3081 mt 3588 3081 L
3552 3045 mt 3552 3117 L
3273 1923 mt 3345 1923 L
3309 1887 mt 3309 1959 L
4381 2664 mt 4453 2664 L
4417 2628 mt 4417 2700 L
3202 2925 mt 3274 2925 L
3238 2889 mt 3238 2961 L
3599 3242 mt 3671 3242 L
3635 3206 mt 3635 3278 L
2959 1723 mt 3031 1723 L
2995 1687 mt 2995 1759 L
3040 2209 mt 3112 2209 L
3076 2173 mt 3076 2245 L
4789 1604 mt 4861 1604 L
4825 1568 mt 4825 1640 L
2781 2894 mt 2853 2894 L
2817 2858 mt 2817 2930 L
3820 1707 mt 3892 1707 L
3856 1671 mt 3856 1743 L
3443 2423 mt 3515 2423 L
3479 2387 mt 3479 2459 L
3958 2519 mt 4030 2519 L
3994 2483 mt 3994 2555 L
1991 2427 mt 2063 2427 L
2027 2391 mt 2027 2463 L
4259 1772 mt 4331 1772 L
4295 1736 mt 4295 1808 L
3666 2659 mt 3738 2659 L
3702 2623 mt 3702 2695 L
2715 1671 mt 2787 1671 L
2751 1635 mt 2751 1707 L
3359 3151 mt 3431 3151 L
3395 3115 mt 3395 3187 L
4274 2691 mt 4346 2691 L
4310 2655 mt 4310 2727 L
5531 2695 mt 5603 2695 L
5567 2659 mt 5567 2731 L
2146 3017 mt 2218 3017 L
2182 2981 mt 2182 3053 L
3249 1865 mt 3321 1865 L
3285 1829 mt 3285 1901 L
3178 3063 mt 3250 3063 L
3214 3027 mt 3214 3099 L
2381 2484 mt 2453 2484 L
2417 2448 mt 2417 2520 L
4100 2835 mt 4172 2835 L
4136 2799 mt 4136 2871 L
3466 2759 mt 3538 2759 L
3502 2723 mt 3502 2795 L
4142 2713 mt 4214 2713 L
4178 2677 mt 4178 2749 L
2652 3468 mt 2724 3468 L
2688 3432 mt 2688 3504 L
4034 2801 mt 4106 2801 L
4070 2765 mt 4070 2837 L
3971 3191 mt 4043 3191 L
4007 3155 mt 4007 3227 L
3190 1911 mt 3262 1911 L
3226 1875 mt 3226 1947 L
4009 3235 mt 4081 3235 L
4045 3199 mt 4045 3271 L
4416 1831 mt 4488 1831 L
4452 1795 mt 4452 1867 L
1965 2637 mt 2037 2637 L
2001 2601 mt 2001 2673 L
3946 3157 mt 4018 3157 L
3982 3121 mt 3982 3193 L
2805 2383 mt 2877 2383 L
2841 2347 mt 2841 2419 L
5245 1802 mt 5317 1802 L
5281 1766 mt 5281 1838 L
4453 2597 mt 4525 2597 L
4489 2561 mt 4489 2633 L
3723 1995 mt 3795 1995 L
3759 1959 mt 3759 2031 L
2689 2480 mt 2761 2480 L
2725 2444 mt 2725 2516 L
4251 2189 mt 4323 2189 L
4287 2153 mt 4287 2225 L
3544 2920 mt 3616 2920 L
3580 2884 mt 3580 2956 L
3785 1181 mt 3857 1181 L
3821 1145 mt 3821 1217 L
5211 2233 mt 5283 2233 L
5247 2197 mt 5247 2269 L
3398 2641 mt 3470 2641 L
3434 2605 mt 3434 2677 L
2502 2951 mt 2574 2951 L
2538 2915 mt 2538 2987 L
3989 2265 mt 4061 2265 L
4025 2229 mt 4025 2301 L
4060 1936 mt 4132 1936 L
4096 1900 mt 4096 1972 L
3325 2615 mt 3397 2615 L
3361 2579 mt 3361 2651 L
3700 1872 mt 3772 1872 L
3736 1836 mt 3736 1908 L
2490 3457 mt 2562 3457 L
2526 3421 mt 2526 3493 L
3762 3322 mt 3834 3322 L
3798 3286 mt 3798 3358 L
4482 2532 mt 4554 2532 L
4518 2496 mt 4518 2568 L
2797 2374 mt 2869 2374 L
2833 2338 mt 2833 2410 L
4760 2994 mt 4832 2994 L
4796 2958 mt 4796 3030 L
3850 1514 mt 3922 1514 L
3886 1478 mt 3886 1550 L
2545 2410 mt 2617 2410 L
2581 2374 mt 2581 2446 L
2662 2018 mt 2734 2018 L
2698 1982 mt 2698 2054 L
4732  957 mt 4804  957 L
4768  921 mt 4768  993 L
2432 3367 mt 2504 3367 L
2468 3331 mt 2468 3403 L
4820 2370 mt 4892 2370 L
4856 2334 mt 4856 2406 L
3909 2040 mt 3981 2040 L
3945 2004 mt 3945 2076 L
4463 3171 mt 4535 3171 L
4499 3135 mt 4499 3207 L
1907 2199 mt 1979 2199 L
1943 2163 mt 1943 2235 L
3208 2057 mt 3280 2057 L
3244 2021 mt 3244 2093 L
3033 3144 mt 3105 3144 L
3069 3108 mt 3069 3180 L
5606 2655 mt 5678 2655 L
5642 2619 mt 5642 2691 L
3661 2930 mt 3733 2930 L
3697 2894 mt 3697 2966 L
4094 2396 mt 4166 2396 L
4130 2360 mt 4130 2432 L
2407 2840 mt 2479 2840 L
2443 2804 mt 2443 2876 L
3677 2135 mt 3749 2135 L
3713 2099 mt 3713 2171 L
2444 1298 mt 2516 1298 L
2480 1262 mt 2480 1334 L
3493 3178 mt 3565 3178 L
3529 3142 mt 3529 3214 L
1619 1990 mt 1691 1990 L
1655 1954 mt 1655 2026 L
4680 3106 mt 4752 3106 L
4716 3070 mt 4716 3142 L
3488 1845 mt 3560 1845 L
3524 1809 mt 3524 1881 L
3588 3011 mt 3660 3011 L
3624 2975 mt 3624 3047 L
3166 1583 mt 3238 1583 L
3202 1547 mt 3202 1619 L
3013 3595 mt 3085 3595 L
3049 3559 mt 3049 3631 L
4512 1732 mt 4584 1732 L
4548 1696 mt 4548 1768 L
2298 3227 mt 2370 3227 L
2334 3191 mt 2334 3263 L
3649 3028 mt 3721 3028 L
3685 2992 mt 3685 3064 L
3302 2214 mt 3374 2214 L
3338 2178 mt 3338 2250 L
2993 1614 mt 3065 1614 L
3029 1578 mt 3029 1650 L
3549 2962 mt 3621 2962 L
3585 2926 mt 3585 2998 L
2267 2261 mt 2339 2261 L
2303 2225 mt 2303 2297 L
4706 2545 mt 4778 2545 L
4742 2509 mt 4742 2581 L
1556 1715 mt 1628 1715 L
1592 1679 mt 1592 1751 L
3745 2453 mt 3817 2453 L
3781 2417 mt 3781 2489 L
2844 2115 mt 2916 2115 L
2880 2079 mt 2880 2151 L
2680 3206 mt 2752 3206 L
2716 3170 mt 2716 3242 L
3499 4131 mt 3571 4131 L
3535 4095 mt 3535 4167 L
3135 3314 mt 3207 3314 L
3171 3278 mt 3171 3350 L
2624 3000 mt 2696 3000 L
2660 2964 mt 2660 3036 L
2165 2562 mt 2237 2562 L
2201 2526 mt 2201 2598 L
2040 2972 mt 2112 2972 L
2076 2936 mt 2076 3008 L
4314 3405 mt 4386 3405 L
4350 3369 mt 4350 3441 L
3964 2722 mt 4036 2722 L
4000 2686 mt 4000 2758 L
4961 2475 mt 5033 2475 L
4997 2439 mt 4997 2511 L
2106 2180 mt 2178 2180 L
2142 2144 mt 2142 2216 L
4156 3877 mt 4228 3877 L
4192 3841 mt 4192 3913 L
3184 2844 mt 3256 2844 L
3220 2808 mt 3220 2880 L
3220 2125 mt 3292 2125 L
3256 2089 mt 3256 2161 L
4398 1966 mt 4470 1966 L
4434 1930 mt 4434 2002 L
4347 1434 mt 4419 1434 L
4383 1398 mt 4383 1470 L
3855 2904 mt 3927 2904 L
3891 2868 mt 3891 2940 L
5700 2051 mt 5772 2051 L
5736 2015 mt 5736 2087 L
4128 3425 mt 4200 3425 L
4164 3389 mt 4164 3461 L
2987 2279 mt 3059 2279 L
3023 2243 mt 3023 2315 L
2183 2593 mt 2255 2593 L
2219 2557 mt 2219 2629 L
2903 2497 mt 2975 2497 L
2939 2461 mt 2939 2533 L
2063 2854 mt 2135 2854 L
2099 2818 mt 2099 2890 L
3160 2488 mt 3232 2488 L
3196 2452 mt 3196 2524 L
2534 3331 mt 2606 3331 L
2570 3295 mt 2570 3367 L
3432 2170 mt 3504 2170 L
3468 2134 mt 3468 2206 L
3571 2329 mt 3643 2329 L
3607 2293 mt 3607 2365 L
3330 3980 mt 3402 3980 L
3366 3944 mt 3366 4016 L
2341 3540 mt 2413 3540 L
2377 3504 mt 2377 3576 L
2973 1898 mt 3045 1898 L
3009 1862 mt 3009 1934 L
3110 2145 mt 3182 2145 L
3146 2109 mt 3146 2181 L
3977 2946 mt 4049 2946 L
4013 2910 mt 4013 2982 L
3426 3198 mt 3498 3198 L
3462 3162 mt 3462 3234 L
5180 2700 mt 5252 2700 L
5216 2664 mt 5216 2736 L
3072 2288 mt 3144 2288 L
3108 2252 mt 3108 2324 L
3007 2062 mt 3079 2062 L
3043 2026 mt 3043 2098 L
1842 2646 mt 1914 2646 L
1878 2610 mt 1878 2682 L
2813 1476 mt 2885 1476 L
2849 1440 mt 2849 1512 L
1805 3112 mt 1877 3112 L
1841 3076 mt 1841 3148 L
2723 2830 mt 2795 2830 L
2759 2794 mt 2759 2866 L
2773 2736 mt 2845 2736 L
2809 2700 mt 2809 2772 L
2740 1502 mt 2812 1502 L
2776 1466 mt 2776 1538 L
4444 3446 mt 4516 3446 L
4480 3410 mt 4480 3482 L
3826 1634 mt 3898 1634 L
3862 1598 mt 3862 1670 L
4067 2745 mt 4139 2745 L
4103 2709 mt 4103 2781 L
4221 3774 mt 4293 3774 L
4257 3738 mt 4257 3810 L
3610 3257 mt 3682 3257 L
3646 3221 mt 3646 3293 L
3582 2806 mt 3654 2806 L
3618 2770 mt 3618 2842 L
3717 2432 mt 3789 2432 L
3753 2396 mt 3753 2468 L
4564 1121 mt 4636 1121 L
4600 1085 mt 4600 1157 L
4597 1917 mt 4669 1917 L
4633 1881 mt 4633 1953 L
3415 3553 mt 3487 3553 L
3451 3517 mt 3451 3589 L
3059 2935 mt 3131 2935 L
3095 2899 mt 3095 2971 L
3284 2194 mt 3356 2194 L
3320 2158 mt 3320 2230 L
3633 3415 mt 3705 3415 L
3669 3379 mt 3669 3451 L
4501 3164 mt 4573 3164 L
4537 3128 mt 4537 3200 L
3020 1489 mt 3092 1489 L
3056 1453 mt 3056 1525 L
3237 2584 mt 3309 2584 L
3273 2548 mt 3273 2620 L
4028 1388 mt 4100 1388 L
4064 1352 mt 4064 1424 L
2251 4616 mt 2323 4616 L
2287 4580 mt 2287 4652 L
3706 1643 mt 3778 1643 L
3742 1607 mt 3742 1679 L
2952 2392 mt 3024 2392 L
2988 2356 mt 2988 2428 L
4981 2440 mt 5053 2440 L
5017 2404 mt 5017 2476 L
3879 1885 mt 3951 1885 L
3915 1849 mt 3915 1921 L
2634 2727 mt 2706 2727 L
2670 2691 mt 2670 2763 L
2312 2567 mt 2384 2567 L
2348 2531 mt 2348 2603 L
3255 2571 mt 3327 2571 L
3291 2535 mt 3291 2607 L
gs 899 414 5363 4203 rc
gr

0 sg
2799 5104 mt 
(\(F,DCTs,iMLP\)) s
 482 3277 mt  -90 rotate
(\(S,SSC,GMM\)) s
90 rotate
2975  223 mt 
(Corr = 0.02) s

end %%Color Dict

eplot
%%EndObject

epage
end

showpage

%%Trailer
%%EOF
