%!PS-Adobe-3.0 EPSF-3.0
%%Creator: MATLAB, The Mathworks, Inc.
%%Title: Pictures\main_zoo_analysis_zoo_index_d2_k2_boxplot.eps
%%CreationDate: 10/21/2008  06:03:37
%%DocumentNeededFonts: Helvetica
%%DocumentProcessColors: Cyan Magenta Yellow Black
%%LanguageLevel: 2
%%Pages: 1
%%BoundingBox:    18   191   555   583
%%EndComments

%%BeginProlog
% MathWorks dictionary
/MathWorks 160 dict begin
% definition operators
/bdef {bind def} bind def
/ldef {load def} bind def
/xdef {exch def} bdef
/xstore {exch store} bdef
% operator abbreviations
/c  /clip ldef
/cc /concat ldef
/cp /closepath ldef
/gr /grestore ldef
/gs /gsave ldef
/mt /moveto ldef
/np /newpath ldef
/cm /currentmatrix ldef
/sm /setmatrix ldef
/rm /rmoveto ldef
/rl /rlineto ldef
/s {show newpath} bdef
/sc {setcmykcolor} bdef
/sr /setrgbcolor ldef
/sg /setgray ldef
/w /setlinewidth ldef
/j /setlinejoin ldef
/cap /setlinecap ldef
/rc {rectclip} bdef
/rf {rectfill} bdef
% page state control
/pgsv () def
/bpage {/pgsv save def} bdef
/epage {pgsv restore} bdef
/bplot /gsave ldef
/eplot {stroke grestore} bdef
% orientation switch
/portraitMode 0 def /landscapeMode 1 def /rotateMode 2 def
% coordinate system mappings
/dpi2point 0 def
% font control
/FontSize 0 def
/FMS {/FontSize xstore findfont [FontSize 0 0 FontSize neg 0 0]
  makefont setfont} bdef
/ISOLatin1Encoding where {pop /WindowsLatin1Encoding 256 array bdef
ISOLatin1Encoding WindowsLatin1Encoding copy pop
/.notdef/.notdef/quotesinglbase/florin/quotedblbase/ellipsis/dagger
/daggerdbl/circumflex/perthousand/Scaron/guilsinglleft/OE/.notdef/.notdef
/.notdef/.notdef/quoteleft/quoteright/quotedblleft/quotedblright/bullet
/endash/emdash/tilde/trademark/scaron/guilsinglright/oe/.notdef/.notdef
/Ydieresis WindowsLatin1Encoding 128 32 getinterval astore pop}
{/WindowsLatin1Encoding StandardEncoding bdef} ifelse
/reencode {exch dup where {pop load} {pop StandardEncoding} ifelse
  exch dup 3 1 roll findfont dup length dict begin
  { 1 index /FID ne {def}{pop pop} ifelse } forall
  /Encoding exch def currentdict end definefont pop} bdef
/isroman {findfont /CharStrings get /Agrave known} bdef
/FMSR {3 1 roll 1 index dup isroman {reencode} {pop pop} ifelse
  exch FMS} bdef
/csm {1 dpi2point div -1 dpi2point div scale neg translate
 dup landscapeMode eq {pop -90 rotate}
  {rotateMode eq {90 rotate} if} ifelse} bdef
% line types: solid, dotted, dashed, dotdash
/SO { [] 0 setdash } bdef
/DO { [.5 dpi2point mul 4 dpi2point mul] 0 setdash } bdef
/DA { [6 dpi2point mul] 0 setdash } bdef
/DD { [.5 dpi2point mul 4 dpi2point mul 6 dpi2point mul 4
  dpi2point mul] 0 setdash } bdef
% macros for lines and objects
/L {lineto stroke} bdef
/MP {3 1 roll moveto 1 sub {rlineto} repeat} bdef
/AP {{rlineto} repeat} bdef
/PDlw -1 def
/W {/PDlw currentlinewidth def setlinewidth} def
/PP {closepath eofill} bdef
/DP {closepath stroke} bdef
/MR {4 -2 roll moveto dup  0 exch rlineto exch 0 rlineto
  neg 0 exch rlineto closepath} bdef
/FR {MR stroke} bdef
/PR {MR fill} bdef
/L1i {{currentfile picstr readhexstring pop} image} bdef
/tMatrix matrix def
/MakeOval {newpath tMatrix currentmatrix pop translate scale
0 0 1 0 360 arc tMatrix setmatrix} bdef
/FO {MakeOval stroke} bdef
/PO {MakeOval fill} bdef
/PD {currentlinewidth 2 div 0 360 arc fill
   PDlw -1 eq not {PDlw w /PDlw -1 def} if} def
/FA {newpath tMatrix currentmatrix pop translate scale
  0 0 1 5 -2 roll arc tMatrix setmatrix stroke} bdef
/PA {newpath tMatrix currentmatrix pop	translate 0 0 moveto scale
  0 0 1 5 -2 roll arc closepath tMatrix setmatrix fill} bdef
/FAn {newpath tMatrix currentmatrix pop translate scale
  0 0 1 5 -2 roll arcn tMatrix setmatrix stroke} bdef
/PAn {newpath tMatrix currentmatrix pop translate 0 0 moveto scale
  0 0 1 5 -2 roll arcn closepath tMatrix setmatrix fill} bdef
/vradius 0 def /hradius 0 def /lry 0 def
/lrx 0 def /uly 0 def /ulx 0 def /rad 0 def
/MRR {/vradius xdef /hradius xdef /lry xdef /lrx xdef /uly xdef
  /ulx xdef newpath tMatrix currentmatrix pop ulx hradius add uly
  vradius add translate hradius vradius scale 0 0 1 180 270 arc 
  tMatrix setmatrix lrx hradius sub uly vradius add translate
  hradius vradius scale 0 0 1 270 360 arc tMatrix setmatrix
  lrx hradius sub lry vradius sub translate hradius vradius scale
  0 0 1 0 90 arc tMatrix setmatrix ulx hradius add lry vradius sub
  translate hradius vradius scale 0 0 1 90 180 arc tMatrix setmatrix
  closepath} bdef
/FRR {MRR stroke } bdef
/PRR {MRR fill } bdef
/MlrRR {/lry xdef /lrx xdef /uly xdef /ulx xdef /rad lry uly sub 2 div def
  newpath tMatrix currentmatrix pop ulx rad add uly rad add translate
  rad rad scale 0 0 1 90 270 arc tMatrix setmatrix lrx rad sub lry rad
  sub translate rad rad scale 0 0 1 270 90 arc tMatrix setmatrix
  closepath} bdef
/FlrRR {MlrRR stroke } bdef
/PlrRR {MlrRR fill } bdef
/MtbRR {/lry xdef /lrx xdef /uly xdef /ulx xdef /rad lrx ulx sub 2 div def
  newpath tMatrix currentmatrix pop ulx rad add uly rad add translate
  rad rad scale 0 0 1 180 360 arc tMatrix setmatrix lrx rad sub lry rad
  sub translate rad rad scale 0 0 1 0 180 arc tMatrix setmatrix
  closepath} bdef
/FtbRR {MtbRR stroke } bdef
/PtbRR {MtbRR fill } bdef
/stri 6 array def /dtri 6 array def
/smat 6 array def /dmat 6 array def
/tmat1 6 array def /tmat2 6 array def /dif 3 array def
/asub {/ind2 exch def /ind1 exch def dup dup
  ind1 get exch ind2 get sub exch } bdef
/tri_to_matrix {
  2 0 asub 3 1 asub 4 0 asub 5 1 asub
  dup 0 get exch 1 get 7 -1 roll astore } bdef
/compute_transform {
  dmat dtri tri_to_matrix tmat1 invertmatrix 
  smat stri tri_to_matrix tmat2 concatmatrix } bdef
/ds {stri astore pop} bdef
/dt {dtri astore pop} bdef
/db {2 copy /cols xdef /rows xdef mul dup 3 mul string
  currentfile 
  3 index 0 eq {/ASCIIHexDecode filter}
  {/ASCII85Decode filter 3 index 2 eq {/RunLengthDecode filter} if }
  ifelse exch readstring pop
  dup 0 3 index getinterval /rbmap xdef
  dup 2 index dup getinterval /gbmap xdef
  1 index dup 2 mul exch getinterval /bbmap xdef pop pop}bdef
/it {gs np dtri aload pop moveto lineto lineto cp c
  cols rows 8 compute_transform 
  rbmap gbmap bbmap true 3 colorimage gr}bdef
/il {newpath moveto lineto stroke}bdef
currentdict end def
%%EndProlog

%%BeginSetup
MathWorks begin

0 cap

end
%%EndSetup

%%Page: 1 1
%%BeginPageSetup
%%PageBoundingBox:    18   191   555   583
MathWorks begin
bpage
%%EndPageSetup

%%BeginObject: obj1
bplot

/dpi2point 12 def
portraitMode 0216 7344 csm

    0   341  6450  4705 rc
85 dict begin %Colortable dictionary
/c0 { 0.000000 0.000000 0.000000 sr} bdef
/c1 { 1.000000 1.000000 1.000000 sr} bdef
/c2 { 0.900000 0.000000 0.000000 sr} bdef
/c3 { 0.000000 0.820000 0.000000 sr} bdef
/c4 { 0.000000 0.000000 0.800000 sr} bdef
/c5 { 0.910000 0.820000 0.320000 sr} bdef
/c6 { 1.000000 0.260000 0.820000 sr} bdef
/c7 { 0.000000 0.820000 0.820000 sr} bdef
c0
1 j
1 sg
   0    0 6919 5187 rf
6 w
0 -4227 4817 0 0 4227 1444 389 4 MP
PP
-4817 0 0 -4227 4817 0 0 4227 1444 389 5 MP stroke
4 w
DO
SO
6 w
0 sg
1444 4616 mt 6261 4616 L
1444  389 mt 6261  389 L
6261  389 mt 6261 4616 L
1444  389 mt 1444 4616 L
1444 4616 mt 6261 4616 L
1444  389 mt 1444 4616 L
1444 4616 mt 1444 4567 L
1444  389 mt 1444  437 L
%%IncludeResource: font Helvetica
/Helvetica /WindowsLatin1Encoding 168 FMSR

1398 4806 mt 
(0) s
2407 4616 mt 2407 4567 L
2407  389 mt 2407  437 L
2314 4806 mt 
(20) s
3370 4616 mt 3370 4567 L
3370  389 mt 3370  437 L
3277 4806 mt 
(40) s
4334 4616 mt 4334 4567 L
4334  389 mt 4334  437 L
4241 4806 mt 
(60) s
5297 4616 mt 5297 4567 L
5297  389 mt 5297  437 L
5204 4806 mt 
(80) s
6261 4616 mt 6261 4567 L
6261  389 mt 6261  437 L
6121 4806 mt 
(100) s
1444  551 mt 1492  551 L
6261  551 mt 6212  551 L
 289  613 mt 
(\(F,DCTs,GMM\)) s
1444  876 mt 1492  876 L
6261  876 mt 6212  876 L
 284  938 mt 
(\(F,DCTb,GMM\)) s
1444 1201 mt 1492 1201 L
6261 1201 mt 6212 1201 L
 355 1263 mt 
(\(F,DCTs,MLP\)) s
1444 1527 mt 1492 1527 L
6261 1527 mt 6212 1527 L
 317 1589 mt 
(\(F,DCTs,iMLP\)) s
1444 1852 mt 1492 1852 L
6261 1852 mt 6212 1852 L
 349 1914 mt 
(\(F,DCTb,MLP\)) s
1444 2177 mt 1492 2177 L
6261 2177 mt 6212 2177 L
 312 2239 mt 
(\(F,DCTb,iMLP\)) s
1444 2502 mt 1492 2502 L
6261 2502 mt 6212 2502 L
 251 2564 mt 
(\(S,LFCC,GMM\)) s
1444 2827 mt 1492 2827 L
6261 2827 mt 6212 2827 L
 370 2889 mt 
(\(S,PAC,GMM\)) s
1444 3152 mt 1492 3152 L
6261 3152 mt 6212 3152 L
 345 3214 mt 
(\(S,SSC,GMM\)) s
1444 3477 mt 1492 3477 L
6261 3477 mt 6212 3477 L
 251 3539 mt 
(\(S,LFCC,GMM\)) s
1444 3803 mt 1492 3803 L
6261 3803 mt 6212 3803 L
 370 3865 mt 
(\(S,PAC,GMM\)) s
1444 4128 mt 1492 4128 L
6261 4128 mt 6212 4128 L
 345 4190 mt 
(\(S,SSC,GMM\)) s
1444 4453 mt 1492 4453 L
6261 4453 mt 6212 4453 L
 289 4515 mt 
(\(F,DCTs,GMM\)) s
1444 4616 mt 6261 4616 L
1444  389 mt 6261  389 L
6261  389 mt 6261 4616 L
1444  389 mt 1444 4616 L
3351 4984 mt 
(zoo index [%]) s
 159 2858 mt  -90 rotate
(Data sets) s
90 rotate
gs 1444 389 4818 4228 rc
DA
429 0 5833 551 2 MP stroke
440 0 2753 551 2 MP stroke
SO
0 82 2753 510 2 MP stroke
/c8 { 0.000000 0.000000 1.000000 sr} bdef
c8
1320 40 0 -162 -1320 40 -1320 -40 0 162 1320 -40 4513 510 7 MP stroke
/c9 { 1.000000 0.000000 0.000000 sr} bdef
c9
0 82 4513 510 2 MP stroke
DA
0 sg
129 0 5498 876 2 MP stroke
SO
0 81 5498 836 2 MP stroke
c8
246 -26 6016 836 2 MP stroke
389 41 0 -163 -389 41 -246 -26 6262 943 5 MP stroke
c9
0 81 6016 836 2 MP stroke
DA
0 sg
221 0 4712 1201 2 MP stroke
SO
0 81 4712 1161 2 MP stroke
c8
664 -41 5598 1161 2 MP stroke
665 41 0 -163 -665 41 -664 -41 6262 1283 5 MP stroke
c9
0 81 5598 1161 2 MP stroke
DA
0 sg
375 0 5683 1527 2 MP stroke
375 0 3060 1527 2 MP stroke
SO
0 81 6058 1486 2 MP stroke
0 81 3060 1486 2 MP stroke
c8
1124 41 0 -163 -1124 41 -1124 -41 0 163 1124 -41 4559 1486 7 MP stroke
c9
0 81 4559 1486 2 MP stroke
DA
0 sg
424 0 5620 1852 2 MP stroke
424 0 2652 1852 2 MP stroke
SO
0 81 6044 1811 2 MP stroke
0 81 2652 1811 2 MP stroke
c8
1272 41 0 -163 -1272 41 -1272 -41 0 163 1272 -41 4348 1811 7 MP stroke
c9
0 81 4348 1811 2 MP stroke
DA
0 sg
32 0 6066 2177 2 MP stroke
SO
0 81 6066 2136 2 MP stroke
c8
69 -29 6193 2136 2 MP stroke
95 40 0 -162 -95 41 -69 -30 6262 2247 5 MP stroke
c9
0 81 6193 2136 2 MP stroke
DA
0 sg
439 0 5582 2502 2 MP stroke
440 0 2507 2502 2 MP stroke
SO
0 82 6021 2461 2 MP stroke
0 82 2507 2461 2 MP stroke
c8
1317 40 0 -162 -1317 40 -1318 -40 0 162 1318 -40 4264 2461 7 MP stroke
c9
0 82 4264 2461 2 MP stroke
DA
0 sg
58 0 5873 2827 2 MP stroke
SO
0 81 5873 2787 2 MP stroke
c8
156 -37 6106 2787 2 MP stroke
175 41 0 -162 -175 40 -156 -36 6262 2904 5 MP stroke
c9
0 81 6106 2787 2 MP stroke
DA
0 sg
9 0 6253 3152 2 MP stroke
175 0 5028 3152 2 MP stroke
SO
0 81 5028 3112 2 MP stroke
c8
525 41 0 -163 -525 41 -525 -41 0 163 525 -41 5728 3112 7 MP stroke
c9
0 81 5728 3112 2 MP stroke
DA
0 sg
143 0 6119 3477 2 MP stroke
378 0 3470 3477 2 MP stroke
SO
0 81 3470 3437 2 MP stroke
c8
1136 41 0 -163 -1136 41 -1135 -41 0 163 1135 -41 4984 3437 7 MP stroke
c9
0 81 4984 3437 2 MP stroke
DA
0 sg
21 0 6131 3803 2 MP stroke
SO
0 81 6131 3762 2 MP stroke
c8
47 -30 6215 3762 2 MP stroke
63 41 0 -163 -63 41 -47 -30 6262 3873 5 MP stroke
c9
0 81 6215 3762 2 MP stroke
DA
0 sg
336 0 3943 4128 2 MP stroke
SO
0 81 3943 4087 2 MP stroke
c8
974 -39 5288 4087 2 MP stroke
1009 41 0 -163 -1009 41 -974 -40 6262 4208 5 MP stroke
c9
0 81 5288 4087 2 MP stroke
DA
0 sg
71 0 5864 4453 2 MP stroke
SO
0 82 5864 4412 2 MP stroke
c8
116 -22 6146 4412 2 MP stroke
211 40 0 -162 -211 40 -116 -22 6262 4516 5 MP stroke
c9
0 82 6146 4412 2 MP stroke
gr

c9

end %%Color Dict

eplot
%%EndObject

epage
end

showpage

%%Trailer
%%EOF
