%!PS-Adobe-3.0 EPSF-3.0
%%Creator: MATLAB, The Mathworks, Inc. Version 7.7.0.471 (R2008b). Operating System: Microsoft Windows XP.
%%Title: Pictures\main_zoo_mvar_analysis_data_BMI_xcorr_bmig_p1_k1_8_9.eps
%%CreationDate: 10/26/2009  05:45:09
%%DocumentNeededFonts: Helvetica
%%DocumentProcessColors: Cyan Magenta Yellow Black
%%LanguageLevel: 2
%%Pages: 1
%%BoundingBox:    37   180   549   616
%%EndComments

%%BeginProlog
% MathWorks dictionary
/MathWorks 160 dict begin
% definition operators
/bdef {bind def} bind def
/ldef {load def} bind def
/xdef {exch def} bdef
/xstore {exch store} bdef
% operator abbreviations
/c  /clip ldef
/cc /concat ldef
/cp /closepath ldef
/gr /grestore ldef
/gs /gsave ldef
/mt /moveto ldef
/np /newpath ldef
/cm /currentmatrix ldef
/sm /setmatrix ldef
/rm /rmoveto ldef
/rl /rlineto ldef
/s {show newpath} bdef
/sc {setcmykcolor} bdef
/sr /setrgbcolor ldef
/sg /setgray ldef
/w /setlinewidth ldef
/j /setlinejoin ldef
/cap /setlinecap ldef
/rc {rectclip} bdef
/rf {rectfill} bdef
% page state control
/pgsv () def
/bpage {/pgsv save def} bdef
/epage {pgsv restore} bdef
/bplot /gsave ldef
/eplot {stroke grestore} bdef
% orientation switch
/portraitMode 0 def /landscapeMode 1 def /rotateMode 2 def
% coordinate system mappings
/dpi2point 0 def
% font control
/FontSize 0 def
/FMS {/FontSize xstore findfont [FontSize 0 0 FontSize neg 0 0]
  makefont setfont} bdef
/ISOLatin1Encoding where {pop /WindowsLatin1Encoding 256 array bdef
ISOLatin1Encoding WindowsLatin1Encoding copy pop
/.notdef/.notdef/quotesinglbase/florin/quotedblbase/ellipsis/dagger
/daggerdbl/circumflex/perthousand/Scaron/guilsinglleft/OE/.notdef/.notdef
/.notdef/.notdef/quoteleft/quoteright/quotedblleft/quotedblright/bullet
/endash/emdash/tilde/trademark/scaron/guilsinglright/oe/.notdef/.notdef
/Ydieresis WindowsLatin1Encoding 128 32 getinterval astore pop}
{/WindowsLatin1Encoding StandardEncoding bdef} ifelse
/reencode {exch dup where {pop load} {pop StandardEncoding} ifelse
  exch dup 3 1 roll findfont dup length dict begin
  { 1 index /FID ne {def}{pop pop} ifelse } forall
  /Encoding exch def currentdict end definefont pop} bdef
/isroman {findfont /CharStrings get /Agrave known} bdef
/FMSR {3 1 roll 1 index dup isroman {reencode} {pop pop} ifelse
  exch FMS} bdef
/csm {1 dpi2point div -1 dpi2point div scale neg translate
 dup landscapeMode eq {pop -90 rotate}
  {rotateMode eq {90 rotate} if} ifelse} bdef
% line types: solid, dotted, dashed, dotdash
/SO { [] 0 setdash } bdef
/DO { [.5 dpi2point mul 4 dpi2point mul] 0 setdash } bdef
/DA { [6 dpi2point mul] 0 setdash } bdef
/DD { [.5 dpi2point mul 4 dpi2point mul 6 dpi2point mul 4
  dpi2point mul] 0 setdash } bdef
% macros for lines and objects
/L {lineto stroke} bdef
/MP {3 1 roll moveto 1 sub {rlineto} repeat} bdef
/AP {{rlineto} repeat} bdef
/PDlw -1 def
/W {/PDlw currentlinewidth def setlinewidth} def
/PP {closepath eofill} bdef
/DP {closepath stroke} bdef
/MR {4 -2 roll moveto dup  0 exch rlineto exch 0 rlineto
  neg 0 exch rlineto closepath} bdef
/FR {MR stroke} bdef
/PR {MR fill} bdef
/L1i {{currentfile picstr readhexstring pop} image} bdef
/tMatrix matrix def
/MakeOval {newpath tMatrix currentmatrix pop translate scale
0 0 1 0 360 arc tMatrix setmatrix} bdef
/FO {MakeOval stroke} bdef
/PO {MakeOval fill} bdef
/PD {currentlinewidth 2 div 0 360 arc fill
   PDlw -1 eq not {PDlw w /PDlw -1 def} if} def
/FA {newpath tMatrix currentmatrix pop translate scale
  0 0 1 5 -2 roll arc tMatrix setmatrix stroke} bdef
/PA {newpath tMatrix currentmatrix pop	translate 0 0 moveto scale
  0 0 1 5 -2 roll arc closepath tMatrix setmatrix fill} bdef
/FAn {newpath tMatrix currentmatrix pop translate scale
  0 0 1 5 -2 roll arcn tMatrix setmatrix stroke} bdef
/PAn {newpath tMatrix currentmatrix pop translate 0 0 moveto scale
  0 0 1 5 -2 roll arcn closepath tMatrix setmatrix fill} bdef
/vradius 0 def /hradius 0 def /lry 0 def
/lrx 0 def /uly 0 def /ulx 0 def /rad 0 def
/MRR {/vradius xdef /hradius xdef /lry xdef /lrx xdef /uly xdef
  /ulx xdef newpath tMatrix currentmatrix pop ulx hradius add uly
  vradius add translate hradius vradius scale 0 0 1 180 270 arc 
  tMatrix setmatrix lrx hradius sub uly vradius add translate
  hradius vradius scale 0 0 1 270 360 arc tMatrix setmatrix
  lrx hradius sub lry vradius sub translate hradius vradius scale
  0 0 1 0 90 arc tMatrix setmatrix ulx hradius add lry vradius sub
  translate hradius vradius scale 0 0 1 90 180 arc tMatrix setmatrix
  closepath} bdef
/FRR {MRR stroke } bdef
/PRR {MRR fill } bdef
/MlrRR {/lry xdef /lrx xdef /uly xdef /ulx xdef /rad lry uly sub 2 div def
  newpath tMatrix currentmatrix pop ulx rad add uly rad add translate
  rad rad scale 0 0 1 90 270 arc tMatrix setmatrix lrx rad sub lry rad
  sub translate rad rad scale 0 0 1 270 90 arc tMatrix setmatrix
  closepath} bdef
/FlrRR {MlrRR stroke } bdef
/PlrRR {MlrRR fill } bdef
/MtbRR {/lry xdef /lrx xdef /uly xdef /ulx xdef /rad lrx ulx sub 2 div def
  newpath tMatrix currentmatrix pop ulx rad add uly rad add translate
  rad rad scale 0 0 1 180 360 arc tMatrix setmatrix lrx rad sub lry rad
  sub translate rad rad scale 0 0 1 0 180 arc tMatrix setmatrix
  closepath} bdef
/FtbRR {MtbRR stroke } bdef
/PtbRR {MtbRR fill } bdef
/stri 6 array def /dtri 6 array def
/smat 6 array def /dmat 6 array def
/tmat1 6 array def /tmat2 6 array def /dif 3 array def
/asub {/ind2 exch def /ind1 exch def dup dup
  ind1 get exch ind2 get sub exch } bdef
/tri_to_matrix {
  2 0 asub 3 1 asub 4 0 asub 5 1 asub
  dup 0 get exch 1 get 7 -1 roll astore } bdef
/compute_transform {
  dmat dtri tri_to_matrix tmat1 invertmatrix 
  smat stri tri_to_matrix tmat2 concatmatrix } bdef
/ds {stri astore pop} bdef
/dt {dtri astore pop} bdef
/db {2 copy /cols xdef /rows xdef mul dup 3 mul string
  currentfile 
  3 index 0 eq {/ASCIIHexDecode filter}
  {/ASCII85Decode filter 3 index 2 eq {/RunLengthDecode filter} if }
  ifelse exch readstring pop
  dup 0 3 index getinterval /rbmap xdef
  dup 2 index dup getinterval /gbmap xdef
  1 index dup 2 mul exch getinterval /bbmap xdef pop pop}bdef
/it {gs np dtri aload pop moveto lineto lineto cp c
  cols rows 8 compute_transform 
  rbmap gbmap bbmap true 3 colorimage gr}bdef
/il {newpath moveto lineto stroke}bdef
currentdict end def
%%EndProlog

%%BeginSetup
MathWorks begin

0 cap

end
%%EndSetup

%%Page: 1 1
%%BeginPageSetup
%%PageBoundingBox:    37   180   549   616
MathWorks begin
bpage
%%EndPageSetup

%%BeginObject: obj1
bplot

/dpi2point 12 def
portraitMode 0216 7344 csm

  234   -48  6149  5231 rc
85 dict begin %Colortable dictionary
/c0 { 0.000000 0.000000 0.000000 sr} bdef
/c1 { 1.000000 1.000000 1.000000 sr} bdef
/c2 { 0.900000 0.000000 0.000000 sr} bdef
/c3 { 0.000000 0.820000 0.000000 sr} bdef
/c4 { 0.000000 0.000000 0.800000 sr} bdef
/c5 { 0.910000 0.820000 0.320000 sr} bdef
/c6 { 1.000000 0.260000 0.820000 sr} bdef
/c7 { 0.000000 0.820000 0.820000 sr} bdef
c0
1 j
1 sg
   0    0 6919 5187 rf
6 w
0 4202 5362 0 0 -4202 899 4616 4 MP
PP
-5362 0 0 4202 5362 0 0 -4202 899 4616 5 MP stroke
4 w
DO
SO
6 w
0 sg
 899  414 mt 6261  414 L
 899 4616 mt 6261 4616 L
6261 4616 mt 6261  414 L
 899 4616 mt  899  414 L
 899 4616 mt 6261 4616 L
 899 4616 mt  899  414 L
 919 4616 mt  919 4562 L
 919  414 mt  919  467 L
%%IncludeResource: font Helvetica
/Helvetica /WindowsLatin1Encoding 240 FMSR

 713 4873 mt 
(-3) s
1806 4616 mt 1806 4562 L
1806  414 mt 1806  467 L
1600 4873 mt 
(-2) s
2693 4616 mt 2693 4562 L
2693  414 mt 2693  467 L
2487 4873 mt 
(-1) s
3580 4616 mt 3580 4562 L
3580  414 mt 3580  467 L
3514 4873 mt 
(0) s
4466 4616 mt 4466 4562 L
4466  414 mt 4466  467 L
4400 4873 mt 
(1) s
5353 4616 mt 5353 4562 L
5353  414 mt 5353  467 L
5287 4873 mt 
(2) s
6240 4616 mt 6240 4562 L
6240  414 mt 6240  467 L
6174 4873 mt 
(3) s
 899 4599 mt  952 4599 L
6261 4599 mt 6207 4599 L
 591 4688 mt 
(-3) s
 899 3904 mt  952 3904 L
6261 3904 mt 6207 3904 L
 591 3993 mt 
(-2) s
 899 3209 mt  952 3209 L
6261 3209 mt 6207 3209 L
 591 3298 mt 
(-1) s
 899 2514 mt  952 2514 L
6261 2514 mt 6207 2514 L
 731 2603 mt 
(0) s
 899 1820 mt  952 1820 L
6261 1820 mt 6207 1820 L
 731 1909 mt 
(1) s
 899 1125 mt  952 1125 L
6261 1125 mt 6207 1125 L
 731 1214 mt 
(2) s
 899  430 mt  952  430 L
6261  430 mt 6207  430 L
 731  519 mt 
(3) s
 899  414 mt 6261  414 L
 899 4616 mt 6261 4616 L
6261 4616 mt 6261  414 L
 899 4616 mt  899  414 L
gs 899 414 5363 4203 rc
gr

/c8 { 0.000000 0.000000 1.000000 sr} bdef
c8
6225 1698 mt 6297 1698 L
6261 1662 mt 6261 1734 L
3432 2815 mt 3504 2815 L
3468 2779 mt 3468 2851 L
2881 4023 mt 2953 4023 L
2917 3987 mt 2917 4059 L
3826 2978 mt 3898 2978 L
3862 2942 mt 3862 3014 L
3677 1892 mt 3749 1892 L
3713 1856 mt 3713 1928 L
3129 2859 mt 3201 2859 L
3165 2823 mt 3165 2895 L
4706 2549 mt 4778 2549 L
4742 2513 mt 4742 2585 L
3364 2160 mt 3436 2160 L
3400 2124 mt 3400 2196 L
1387 2388 mt 1459 2388 L
1423 2352 mt 1423 2424 L
4149 2067 mt 4221 2067 L
4185 2031 mt 4185 2103 L
3516 1740 mt 3588 1740 L
3552 1704 mt 3552 1776 L
 863 2237 mt  935 2237 L
 899 2201 mt  899 2273 L
2282 2223 mt 2354 2223 L
2318 2187 mt 2318 2259 L
2513 2320 mt 2585 2320 L
2549 2284 mt 2549 2356 L
3689 2001 mt 3761 2001 L
3725 1965 mt 3725 2037 L
4416 2347 mt 4488 2347 L
4452 2311 mt 4452 2383 L
4732 3273 mt 4804 3273 L
4768 3237 mt 4768 3309 L
3661 2204 mt 3733 2204 L
3697 2168 mt 3697 2240 L
3278 2589 mt 3350 2589 L
3314 2553 mt 3314 2625 L
4199 3567 mt 4271 3567 L
4235 3531 mt 4235 3603 L
3740 3118 mt 3812 3118 L
3776 3082 mt 3776 3154 L
3376 1087 mt 3448 1087 L
3412 1051 mt 3412 1123 L
3644 1404 mt 3716 1404 L
3680 1368 mt 3680 1440 L
3582  564 mt 3654  564 L
3618  528 mt 3618  600 L
4347 2007 mt 4419 2007 L
4383 1971 mt 4383 2043 L
3172 3213 mt 3244 3213 L
3208 3177 mt 3208 3249 L
3946 2576 mt 4018 2576 L
3982 2540 mt 3982 2612 L
3147 2506 mt 3219 2506 L
3183 2470 mt 3183 2542 L
2959 2782 mt 3031 2782 L
2995 2746 mt 2995 2818 L
3449 3358 mt 3521 3358 L
3485 3322 mt 3485 3394 L
4746 3731 mt 4818 3731 L
4782 3695 mt 4782 3767 L
3605 2078 mt 3677 2078 L
3641 2042 mt 3641 2114 L
3488 3581 mt 3560 3581 L
3524 3545 mt 3524 3617 L
4472 2673 mt 4544 2673 L
4508 2637 mt 4508 2709 L
2545 3069 mt 2617 3069 L
2581 3033 mt 2581 3105 L
3466 2909 mt 3538 2909 L
3502 2873 mt 3502 2945 L
2773 2686 mt 2845 2686 L
2809 2650 mt 2809 2722 L
3123 2650 mt 3195 2650 L
3159 2614 mt 3159 2686 L
3633 1960 mt 3705 1960 L
3669 1924 mt 3669 1996 L
5150 4205 mt 5222 4205 L
5186 4169 mt 5186 4241 L
3410 3289 mt 3482 3289 L
3446 3253 mt 3446 3325 L
3555 2365 mt 3627 2365 L
3591 2329 mt 3591 2401 L
4532 3658 mt 4604 3658 L
4568 3622 mt 4568 3694 L
4444 1006 mt 4516 1006 L
4480  970 mt 4480 1042 L
4435 3125 mt 4507 3125 L
4471 3089 mt 4471 3161 L
2874 3045 mt 2946 3045 L
2910 3009 mt 2910 3081 L
5606 2401 mt 5678 2401 L
5642 2365 mt 5642 2437 L
3166 3349 mt 3238 3349 L
3202 3313 mt 3202 3385 L
2085 3093 mt 2157 3093 L
2121 3057 mt 2121 3129 L
3751 2796 mt 3823 2796 L
3787 2760 mt 3787 2832 L
3844 1232 mt 3916 1232 L
3880 1196 mt 3880 1268 L
3855 2140 mt 3927 2140 L
3891 2104 mt 3891 2176 L
3098 1653 mt 3170 1653 L
3134 1617 mt 3134 1689 L
3544 2731 mt 3616 2731 L
3580 2695 mt 3580 2767 L
3135 1561 mt 3207 1561 L
3171 1525 mt 3171 1597 L
4259 2493 mt 4331 2493 L
4295 2457 mt 4295 2529 L
3867 1984 mt 3939 1984 L
3903 1948 mt 3903 2020 L
2063 2029 mt 2135 2029 L
2099 1993 mt 2099 2065 L
3353 2619 mt 3425 2619 L
3389 2583 mt 3389 2655 L
3532 3711 mt 3604 3711 L
3568 3675 mt 3568 3747 L
3940 1787 mt 4012 1787 L
3976 1751 mt 3976 1823 L
3296 3005 mt 3368 3005 L
3332 2969 mt 3332 3041 L
5700 2155 mt 5772 2155 L
5736 2119 mt 5736 2191 L
4306 2820 mt 4378 2820 L
4342 2784 mt 4342 2856 L
1619 2889 mt 1691 2889 L
1655 2853 mt 1655 2925 L
4100 2270 mt 4172 2270 L
4136 2234 mt 4136 2306 L
2251 3675 mt 2323 3675 L
2287 3639 mt 2287 3711 L
2106 4305 mt 2178 4305 L
2142 4269 mt 2142 4341 L
2267 2307 mt 2339 2307 L
2303 2271 mt 2303 2343 L
3404 2633 mt 3476 2633 L
3440 2597 mt 3440 2669 L
4177 3693 mt 4249 3693 L
4213 3657 mt 4213 3729 L
2706 2884 mt 2778 2884 L
2742 2848 mt 2742 2920 L
3672 2120 mt 3744 2120 L
3708 2084 mt 3708 2156 L
1991 2445 mt 2063 2445 L
2027 2409 mt 2027 2481 L
2805 1538 mt 2877 1538 L
2841 1502 mt 2841 1574 L
3694 3942 mt 3766 3942 L
3730 3906 mt 3730 3978 L
3190 2338 mt 3262 2338 L
3226 2302 mt 3226 2374 L
2680 3386 mt 2752 3386 L
2716 3350 mt 2716 3422 L
4121 2311 mt 4193 2311 L
4157 2275 mt 4157 2347 L
2740 2298 mt 2812 2298 L
2776 2262 mt 2776 2334 L
3785 1689 mt 3857 1689 L
3821 1653 mt 3821 1725 L
4463 2754 mt 4535 2754 L
4499 2718 mt 4499 2790 L
4941 3137 mt 5013 3137 L
4977 3101 mt 4977 3173 L
3717 3340 mt 3789 3340 L
3753 3304 mt 3753 3376 L
4922 3265 mt 4994 3265 L
4958 3229 mt 4958 3301 L
3814 2109 mt 3886 2109 L
3850 2073 mt 3850 2145 L
2298  824 mt 2370  824 L
2334  788 mt 2334  860 L
2828 2379 mt 2900 2379 L
2864 2343 mt 2864 2415 L
2341 3376 mt 2413 3376 L
2377 3340 mt 2377 3412 L
4274 1904 mt 4346 1904 L
4310 1868 mt 4310 1940 L
2973 3503 mt 3045 3503 L
3009 3467 mt 3009 3539 L
3621 1336 mt 3693 1336 L
3657 1300 mt 3657 1372 L
3616 2247 mt 3688 2247 L
3652 2211 mt 3652 2283 L
2432 2778 mt 2504 2778 L
2468 2742 mt 2468 2814 L
3020 2611 mt 3092 2611 L
3056 2575 mt 3056 2647 L
4094 2849 mt 4166 2849 L
4130 2813 mt 4130 2885 L
4080 3057 mt 4152 3057 L
4116 3021 mt 4116 3093 L
3091 3491 mt 3163 3491 L
3127 3455 mt 3127 3527 L
3873 3051 mt 3945 3051 L
3909 3015 mt 3909 3087 L
3791 1954 mt 3863 1954 L
3827 1918 mt 3827 1990 L
5828 2284 mt 5900 2284 L
5864 2248 mt 5864 2320 L
3116 1624 mt 3188 1624 L
3152 1588 mt 3152 1660 L
5321 1419 mt 5393 1419 L
5357 1383 mt 5357 1455 L
3897 2554 mt 3969 2554 L
3933 2518 mt 3933 2590 L
3347 2104 mt 3419 2104 L
3383 2068 mt 3383 2140 L
3330 2293 mt 3402 2293 L
3366 2257 mt 3366 2329 L
1481 2940 mt 1553 2940 L
1517 2904 mt 1517 2976 L
3232 2471 mt 3304 2471 L
3268 2435 mt 3268 2507 L
2910 1978 mt 2982 1978 L
2946 1942 mt 2946 2014 L
4002 3822 mt 4074 3822 L
4038 3786 mt 4038 3858 L
2146 2768 mt 2218 2768 L
2182 2732 mt 2182 2804 L
3053 3022 mt 3125 3022 L
3089 2986 mt 3089 3058 L
2652 2361 mt 2724 2361 L
2688 2325 mt 2688 2397 L
3359 2185 mt 3431 2185 L
3395 2149 mt 3395 2221 L
3527 1816 mt 3599 1816 L
3563 1780 mt 3563 1852 L
3325 1277 mt 3397 1277 L
3361 1241 mt 3361 1313 L
2394 2983 mt 2466 2983 L
2430 2947 mt 2430 3019 L
1842 2874 mt 1914 2874 L
1878 2838 mt 1878 2910 L
4251 2989 mt 4323 2989 L
4287 2953 mt 4287 3025 L
4836 2035 mt 4908 2035 L
4872 1999 mt 4872 2071 L
3885 2825 mt 3957 2825 L
3921 2789 mt 3921 2861 L
3927 1152 mt 3999 1152 L
3963 1116 mt 3963 1188 L
2201 2914 mt 2273 2914 L
2237 2878 mt 2237 2950 L
4775 1858 mt 4847 1858 L
4811 1822 mt 4811 1894 L
4067 2316 mt 4139 2316 L
4103 2280 mt 4103 2352 L
4228 2150 mt 4300 2150 L
4264 2114 mt 4264 2186 L
3809 3281 mt 3881 3281 L
3845 3245 mt 3845 3317 L
3454 2228 mt 3526 2228 L
3490 2192 mt 3490 2264 L
3438 2668 mt 3510 2668 L
3474 2632 mt 3474 2704 L
3566 1462 mt 3638 1462 L
3602 1426 mt 3602 1498 L
3803 2012 mt 3875 2012 L
3839 1976 mt 3839 2048 L
4355 1748 mt 4427 1748 L
4391 1712 mt 4391 1784 L
2689 2130 mt 2761 2130 L
2725 2094 mt 2725 2166 L
2575 2083 mt 2647 2083 L
2611 2047 mt 2611 2119 L
4156 2879 mt 4228 2879 L
4192 2843 mt 4192 2915 L
2615 2704 mt 2687 2704 L
2651 2668 mt 2651 2740 L
2993 2864 mt 3065 2864 L
3029 2828 mt 3029 2900 L
4789 3087 mt 4861 3087 L
4825 3051 mt 4825 3123 L
3387 2510 mt 3459 2510 L
3423 2474 mt 3423 2546 L
4074 2467 mt 4146 2467 L
4110 2431 mt 4110 2503 L
1556 2602 mt 1628 2602 L
1592 2566 mt 1592 2638 L
1766 2251 mt 1838 2251 L
1802 2215 mt 1802 2287 L
4338 2414 mt 4410 2414 L
4374 2378 mt 4374 2450 L
3655 2165 mt 3727 2165 L
3691 2129 mt 3691 2201 L
3891 2458 mt 3963 2458 L
3927 2422 mt 3927 2494 L
4041 2967 mt 4113 2967 L
4077 2931 mt 4077 3003 L
2407 2024 mt 2479 2024 L
2443 1988 mt 2443 2060 L
4398 1371 mt 4470 1371 L
4434 1335 mt 4434 1407 L
2534 2356 mt 2606 2356 L
2570 2320 mt 2570 2392 L
3921 2750 mt 3993 2750 L
3957 2714 mt 3957 2786 L
3013 2046 mt 3085 2046 L
3049 2010 mt 3049 2082 L
3774 2514 mt 3846 2514 L
3810 2478 mt 3810 2550 L
4805 3908 mt 4877 3908 L
4841 3872 mt 4841 3944 L
3255 1851 mt 3327 1851 L
3291 1815 mt 3291 1887 L
4028 2773 mt 4100 2773 L
4064 2737 mt 4064 2809 L
3261 2811 mt 3333 2811 L
3297 2775 mt 3297 2847 L
2859 3479 mt 2931 3479 L
2895 3443 mt 2895 3515 L
3588 2099 mt 3660 2099 L
3624 2063 mt 3624 2135 L
3226 1779 mt 3298 1779 L
3262 1743 mt 3262 1815 L
3290 2073 mt 3362 2073 L
3326 2037 mt 3326 2109 L
4128 3436 mt 4200 3436 L
4164 3400 mt 4164 3472 L
3577 2541 mt 3649 2541 L
3613 2505 mt 3613 2577 L
4542 1255 mt 4614 1255 L
4578 1219 mt 4578 1291 L
2327 3250 mt 2399 3250 L
2363 3214 mt 2363 3286 L
3214 2089 mt 3286 2089 L
3250 2053 mt 3250 2125 L
4142 3220 mt 4214 3220 L
4178 3184 mt 4178 3256 L
4364 2764 mt 4436 2764 L
4400 2728 mt 4400 2800 L
2938 1838 mt 3010 1838 L
2974 1802 mt 2974 1874 L
2456 1809 mt 2528 1809 L
2492 1773 mt 2492 1845 L
3538 2869 mt 3610 2869 L
3574 2833 mt 3574 2905 L
4619 1207 mt 4691 1207 L
4655 1171 mt 4655 1243 L
4330 1948 mt 4402 1948 L
4366 1912 mt 4366 1984 L
4191 3184 mt 4263 3184 L
4227 3148 mt 4227 3220 L
4047 2343 mt 4119 2343 L
4083 2307 mt 4083 2379 L
4282 2175 mt 4354 2175 L
4318 2139 mt 4318 2211 L
2821 2242 mt 2893 2242 L
2857 2206 mt 2857 2278 L
3510 2501 mt 3582 2501 L
3546 2465 mt 3546 2537 L
3033 3641 mt 3105 3641 L
3069 3605 mt 3069 3677 L
4820 2718 mt 4892 2718 L
4856 2682 mt 4856 2754 L
2468 2787 mt 2540 2787 L
2504 2751 mt 2504 2823 L
2040 1794 mt 2112 1794 L
2076 1758 mt 2076 1830 L
5002 3797 mt 5074 3797 L
5038 3761 mt 5038 3833 L
5122  898 mt 5194  898 L
5158  862 mt 5158  934 L
2502 2558 mt 2574 2558 L
2538 2522 mt 2538 2594 L
3728 2580 mt 3800 2580 L
3764 2544 mt 3764 2616 L
4719 2624 mt 4791 2624 L
4755 2588 mt 4755 2660 L
4564 1550 mt 4636 1550 L
4600 1514 mt 4600 1586 L
4381 2899 mt 4453 2899 L
4417 2863 mt 4417 2935 L
2844 3625 mt 2916 3625 L
2880 3589 mt 2880 3661 L
4631 1318 mt 4703 1318 L
4667 1282 mt 4667 1354 L
2624 2352 mt 2696 2352 L
2660 2316 mt 2660 2388 L
3832  414 mt 3904  414 L
3868  378 mt 3868  450 L
3734 3034 mt 3806 3034 L
3770 2998 mt 3770 3070 L
3273 1764 mt 3345 1764 L
3309 1728 mt 3309 1800 L
3284 1972 mt 3356 1972 L
3320 1936 mt 3320 2008 L
5531 2436 mt 5603 2436 L
5567 2400 mt 5567 2472 L
4667 1593 mt 4739 1593 L
4703 1557 mt 4703 1629 L
4981 1942 mt 5053 1942 L
5017 1906 mt 5017 1978 L
3267 2325 mt 3339 2325 L
3303 2289 mt 3303 2361 L
3046 2094 mt 3118 2094 L
3082 2058 mt 3082 2130 L
6033 1680 mt 6105 1680 L
6069 1644 mt 6069 1716 L
4522 1572 mt 4594 1572 L
4558 1536 mt 4558 1608 L
3027 2682 mt 3099 2682 L
3063 2646 mt 3063 2718 L
3160 2418 mt 3232 2418 L
3196 2382 mt 3196 2454 L
2765 2449 mt 2837 2449 L
2801 2413 mt 2801 2485 L
3104 2405 mt 3176 2405 L
3140 2369 mt 3140 2441 L
4407 2677 mt 4479 2677 L
4443 2641 mt 4443 2713 L
3040 3848 mt 3112 3848 L
3076 3812 mt 3076 3884 L
2444 2302 mt 2516 2302 L
2480 2266 mt 2480 2338 L
4213 2528 mt 4285 2528 L
4249 2492 mt 4249 2564 L
2797 2256 mt 2869 2256 L
2833 2220 mt 2833 2292 L
3700 3039 mt 3772 3039 L
3736 3003 mt 3736 3075 L
2952 2536 mt 3024 2536 L
2988 2500 mt 2988 2572 L
4009 1354 mt 4081 1354 L
4045 1318 mt 4045 1390 L
3666 1823 mt 3738 1823 L
3702 1787 mt 3702 1859 L
4760 1756 mt 4832 1756 L
4796 1720 mt 4796 1792 L
4655 3752 mt 4727 3752 L
4691 3716 mt 4691 3788 L
3141 2523 mt 3213 2523 L
3177 2487 mt 3177 2559 L
3983 3610 mt 4055 3610 L
4019 3574 mt 4019 3646 L
4501 2628 mt 4573 2628 L
4537 2592 mt 4537 2664 L
2757 3131 mt 2829 3131 L
2793 3095 mt 2793 3167 L
2312  724 mt 2384  724 L
2348  688 mt 2348  760 L
4453 1930 mt 4525 1930 L
4489 1894 mt 4489 1966 L
2715 1049 mt 2787 1049 L
2751 1013 mt 2751 1085 L
4425 2334 mt 4497 2334 L
4461 2298 mt 4461 2370 L
1259 4072 mt 1331 4072 L
1295 4036 mt 1295 4108 L
2836 2606 mt 2908 2606 L
2872 2570 mt 2872 2642 L
3178 2956 mt 3250 2956 L
3214 2920 mt 3214 2992 L
4021 2275 mt 4093 2275 L
4057 2239 mt 4057 2311 L
2586 2218 mt 2658 2218 L
2622 2182 mt 2622 2254 L
4135 1878 mt 4207 1878 L
4171 1842 mt 4171 1914 L
4372 2709 mt 4444 2709 L
4408 2673 mt 4408 2745 L
2781 3306 mt 2853 3306 L
2817 3270 mt 2817 3342 L
4886 3527 mt 4958 3527 L
4922 3491 mt 4922 3563 L
2420 2741 mt 2492 2741 L
2456 2705 mt 2456 2777 L
1907 2792 mt 1979 2792 L
1943 2756 mt 1943 2828 L
2565 3297 mt 2637 3297 L
2601 3261 mt 2601 3333 L
2896 1448 mt 2968 1448 L
2932 1412 mt 2932 1484 L
3477 1662 mt 3549 1662 L
3513 1626 mt 3513 1698 L
4904 3099 mt 4976 3099 L
4940 3063 mt 4940 3135 L
3683 3075 mt 3755 3075 L
3719 3039 mt 3719 3111 L
4236 3515 mt 4308 3515 L
4272 3479 mt 4272 3551 L
3952 3395 mt 4024 3395 L
3988 3359 mt 3988 3431 L
3909 1526 mt 3981 1526 L
3945 1490 mt 3945 1562 L
3820 2462 mt 3892 2462 L
3856 2426 mt 3856 2498 L
3594 3081 mt 3666 3081 L
3630 3045 mt 3630 3117 L
5282 1923 mt 5354 1923 L
5318 1887 mt 5318 1959 L
1876 2664 mt 1948 2664 L
1912 2628 mt 1912 2700 L
2634 2925 mt 2706 2925 L
2670 2889 mt 2670 2961 L
3342 3242 mt 3414 3242 L
3378 3206 mt 3378 3278 L
2966 1723 mt 3038 1723 L
3002 1687 mt 3002 1759 L
3302 2209 mt 3374 2209 L
3338 2173 mt 3338 2245 L
2490 1604 mt 2562 1604 L
2526 1568 mt 2526 1640 L
2662 2894 mt 2734 2894 L
2698 2858 mt 2698 2930 L
2165 1707 mt 2237 1707 L
2201 1671 mt 2201 1743 L
4114 2423 mt 4186 2423 L
4150 2387 mt 4150 2459 L
3059 2519 mt 3131 2519 L
3095 2483 mt 3095 2555 L
2987 2427 mt 3059 2427 L
3023 2391 mt 3023 2463 L
4290 1772 mt 4362 1772 L
4326 1736 mt 4326 1808 L
4163 2659 mt 4235 2659 L
4199 2623 mt 4199 2695 L
3958 1671 mt 4030 1671 L
3994 1635 mt 3994 1707 L
3319 3151 mt 3391 3151 L
3355 3115 mt 3355 3187 L
5365 2691 mt 5437 2691 L
5401 2655 mt 5401 2727 L
4206 2695 mt 4278 2695 L
4242 2659 mt 4242 2731 L
3768 3017 mt 3840 3017 L
3804 2981 mt 3804 3053 L
3243 1865 mt 3315 1865 L
3279 1829 mt 3279 1901 L
1965 3063 mt 2037 3063 L
2001 3027 mt 2001 3099 L
3110 2484 mt 3182 2484 L
3146 2448 mt 3146 2520 L
3505 2835 mt 3577 2835 L
3541 2799 mt 3541 2871 L
4512 2759 mt 4584 2759 L
4548 2723 mt 4548 2795 L
3499 2713 mt 3571 2713 L
3535 2677 mt 3535 2749 L
3706 3468 mt 3778 3468 L
3742 3432 mt 3742 3504 L
2789 2801 mt 2861 2801 L
2825 2765 mt 2825 2837 L
3370 3191 mt 3442 3191 L
3406 3155 mt 3406 3227 L
3415 1911 mt 3487 1911 L
3451 1875 mt 3451 1947 L
3996 3235 mt 4068 3235 L
4032 3199 mt 4032 3271 L
2671 1831 mt 2743 1831 L
2707 1795 mt 2707 1867 L
3336 2637 mt 3408 2637 L
3372 2601 mt 3372 2673 L
3202 3157 mt 3274 3157 L
3238 3121 mt 3238 3193 L
3007 2383 mt 3079 2383 L
3043 2347 mt 3043 2419 L
3307 1802 mt 3379 1802 L
3343 1766 mt 3343 1838 L
4298 2597 mt 4370 2597 L
4334 2561 mt 4334 2633 L
5047 1995 mt 5119 1995 L
5083 1959 mt 5083 2031 L
4492 2480 mt 4564 2480 L
4528 2444 mt 4528 2516 L
5413 2189 mt 5485 2189 L
5449 2153 mt 5449 2225 L
2903 2920 mt 2975 2920 L
2939 2884 mt 2939 2956 L
3915 1181 mt 3987 1181 L
3951 1145 mt 3951 1217 L
2749 2233 mt 2821 2233 L
2785 2197 mt 2785 2269 L
3078 2641 mt 3150 2641 L
3114 2605 mt 3114 2677 L
3571 2951 mt 3643 2951 L
3607 2915 mt 3607 2987 L
4015 2265 mt 4087 2265 L
4051 2229 mt 4051 2301 L
1722 1936 mt 1794 1936 L
1758 1900 mt 1758 1972 L
4054 2615 mt 4126 2615 L
4090 2579 mt 4090 2651 L
3934 1872 mt 4006 1872 L
3970 1836 mt 3970 1908 L
2980 3457 mt 3052 3457 L
3016 3421 mt 3016 3493 L
3066 3322 mt 3138 3322 L
3102 3286 mt 3102 3358 L
3521 2532 mt 3593 2532 L
3557 2496 mt 3557 2568 L
2813 2374 mt 2885 2374 L
2849 2338 mt 2849 2410 L
3313 2994 mt 3385 2994 L
3349 2958 mt 3349 3030 L
4107 1514 mt 4179 1514 L
4143 1478 mt 4143 1550 L
5096 2410 mt 5168 2410 L
5132 2374 mt 5132 2446 L
1805 2018 mt 1877 2018 L
1841 1982 mt 1841 2054 L
5468  957 mt 5540  957 L
5504  921 mt 5504  993 L
3398 3367 mt 3470 3367 L
3434 3331 mt 3434 3403 L
2605 2370 mt 2677 2370 L
2641 2334 mt 2641 2406 L
3850 2040 mt 3922 2040 L
3886 2004 mt 3886 2076 L
3421 3171 mt 3493 3171 L
3457 3135 mt 3457 3207 L
3000 2199 mt 3072 2199 L
3036 2163 mt 3036 2235 L
2016 2057 mt 2088 2057 L
2052 2021 mt 2052 2093 L
3879 3144 mt 3951 3144 L
3915 3108 mt 3915 3180 L
3838 2655 mt 3910 2655 L
3874 2619 mt 3874 2691 L
2851 2930 mt 2923 2930 L
2887 2894 mt 2887 2966 L
2126 2396 mt 2198 2396 L
2162 2360 mt 2162 2432 L
3072 2840 mt 3144 2840 L
3108 2804 mt 3108 2876 L
4243 2135 mt 4315 2135 L
4279 2099 mt 4279 2171 L
3797 1298 mt 3869 1298 L
3833 1262 mt 3833 1334 L
3649 3178 mt 3721 3178 L
3685 3142 mt 3685 3214 L
3249 1990 mt 3321 1990 L
3285 1954 mt 3285 2026 L
3757 3106 mt 3829 3106 L
3793 3070 mt 3793 3142 L
4553 1845 mt 4625 1845 L
4589 1809 mt 4589 1881 L
3208 3011 mt 3280 3011 L
3244 2975 mt 3244 3047 L
3560 1583 mt 3632 1583 L
3596 1547 mt 3596 1619 L
3711 3595 mt 3783 3595 L
3747 3559 mt 3747 3631 L
5245 1732 mt 5317 1732 L
5281 1696 mt 5281 1768 L
4608 3227 mt 4680 3227 L
4644 3191 mt 4644 3263 L
3196 3028 mt 3268 3028 L
3232 2992 mt 3232 3064 L
4585 2214 mt 4657 2214 L
4621 2178 mt 4621 2250 L
2523 1614 mt 2595 1614 L
2559 1578 mt 2559 1650 L
4390 2962 mt 4462 2962 L
4426 2926 mt 4426 2998 L
2924 2261 mt 2996 2261 L
2960 2225 mt 2960 2297 L
2595 2545 mt 2667 2545 L
2631 2509 mt 2631 2581 L
3989 1715 mt 4061 1715 L
4025 1679 mt 4025 1751 L
3638 2453 mt 3710 2453 L
3674 2417 mt 3674 2489 L
2368 2115 mt 2440 2115 L
2404 2079 mt 2404 2151 L
4693 3206 mt 4765 3206 L
4729 3170 mt 4729 3242 L
3393 4131 mt 3465 4131 L
3429 4095 mt 3429 4167 L
1937 3314 mt 2009 3314 L
1973 3278 mt 1973 3350 L
4314 3000 mt 4386 3000 L
4350 2964 mt 4350 3036 L
2945 2562 mt 3017 2562 L
2981 2526 mt 2981 2598 L
3780 2972 mt 3852 2972 L
3816 2936 mt 3816 3008 L
2643 3405 mt 2715 3405 L
2679 3369 mt 2679 3441 L
2183 2722 mt 2255 2722 L
2219 2686 mt 2219 2758 L
3861 2475 mt 3933 2475 L
3897 2439 mt 3897 2511 L
3723 2180 mt 3795 2180 L
3759 2144 mt 3759 2216 L
3426 3877 mt 3498 3877 L
3462 3841 mt 3462 3913 L
2381 2844 mt 2453 2844 L
2417 2808 mt 2417 2880 L
2555 2125 mt 2627 2125 L
2591 2089 mt 2591 2161 L
2866 1966 mt 2938 1966 L
2902 1930 mt 2902 2002 L
3599 1434 mt 3671 1434 L
3635 1398 mt 3635 1470 L
3971 2904 mt 4043 2904 L
4007 2868 mt 4007 2940 L
3381 2051 mt 3453 2051 L
3417 2015 mt 3417 2087 L
2697 3425 mt 2769 3425 L
2733 3389 mt 2733 3461 L
5071 2279 mt 5143 2279 L
5107 2243 mt 5107 2315 L
2355 2593 mt 2427 2593 L
2391 2557 mt 2391 2629 L
3471 2497 mt 3543 2497 L
3507 2461 mt 3507 2533 L
1674 2854 mt 1746 2854 L
1710 2818 mt 1710 2890 L
4184 2488 mt 4256 2488 L
4220 2452 mt 4220 2524 L
4482 3331 mt 4554 3331 L
4518 3295 mt 4518 3367 L
3085 2170 mt 3157 2170 L
3121 2134 mt 3121 2206 L
3493 2329 mt 3565 2329 L
3529 2293 mt 3529 2365 L
4034 3980 mt 4106 3980 L
4070 3944 mt 4070 4016 L
2235 3540 mt 2307 3540 L
2271 3504 mt 2271 3576 L
4170 1898 mt 4242 1898 L
4206 1862 mt 4206 1934 L
3460 2145 mt 3532 2145 L
3496 2109 mt 3496 2181 L
4087 2946 mt 4159 2946 L
4123 2910 mt 4123 2982 L
4643 3198 mt 4715 3198 L
4679 3162 mt 4679 3234 L
3745 2700 mt 3817 2700 L
3781 2664 mt 3781 2736 L
3443 2288 mt 3515 2288 L
3479 2252 mt 3479 2324 L
3627 2062 mt 3699 2062 L
3663 2026 mt 3663 2098 L
4266 2646 mt 4338 2646 L
4302 2610 mt 4302 2682 L
4597 1476 mt 4669 1476 L
4633 1440 mt 4633 1512 L
3762 3112 mt 3834 3112 L
3798 3076 mt 3798 3148 L
3903 2830 mt 3975 2830 L
3939 2794 mt 3939 2866 L
3964 2736 mt 4036 2736 L
4000 2700 mt 4000 2772 L
4869 1502 mt 4941 1502 L
4905 1466 mt 4905 1538 L
3184 3446 mt 3256 3446 L
3220 3410 mt 3220 3482 L
4221 1634 mt 4293 1634 L
4257 1598 mt 4257 1670 L
2218 2745 mt 2290 2745 L
2254 2709 mt 2254 2781 L
4680 3774 mt 4752 3774 L
4716 3738 mt 4716 3810 L
2917 3257 mt 2989 3257 L
2953 3221 mt 2953 3293 L
3237 2806 mt 3309 2806 L
3273 2770 mt 3273 2842 L
5180 2432 mt 5252 2432 L
5216 2396 mt 5216 2468 L
5024 1121 mt 5096 1121 L
5060 1085 mt 5060 1157 L
2931 1917 mt 3003 1917 L
2967 1881 mt 2967 1953 L
3153 3553 mt 3225 3553 L
3189 3517 mt 3189 3589 L
4961 2935 mt 5033 2935 L
4997 2899 mt 4997 2971 L
3977 2194 mt 4049 2194 L
4013 2158 mt 4013 2230 L
3482 3415 mt 3554 3415 L
3518 3379 mt 3518 3451 L
2888 3164 mt 2960 3164 L
2924 3128 mt 2924 3200 L
4574 1489 mt 4646 1489 L
4610 1453 mt 4610 1525 L
2723 2584 mt 2795 2584 L
2759 2548 mt 2759 2620 L
2479 1388 mt 2551 1388 L
2515 1352 mt 2515 1424 L
4060 4616 mt 4132 4616 L
4096 4580 mt 4096 4652 L
3220 1643 mt 3292 1643 L
3256 1607 mt 3256 1679 L
3549 2392 mt 3621 2392 L
3585 2356 mt 3585 2428 L
5211 2440 mt 5283 2440 L
5247 2404 mt 5247 2476 L
4322 1885 mt 4394 1885 L
4358 1849 mt 4358 1921 L
4852 2727 mt 4924 2727 L
4888 2691 mt 4888 2763 L
3610 2567 mt 3682 2567 L
3646 2531 mt 3646 2603 L
2732 2571 mt 2804 2571 L
2768 2535 mt 2768 2607 L
gs 899 414 5363 4203 rc
gr

0 sg
2836 5104 mt 
(\(S,PAC,GMM\)) s
 482 3277 mt  -90 rotate
(\(S,SSC,GMM\)) s
90 rotate
2975  223 mt 
(Corr = 0.09) s

end %%Color Dict

eplot
%%EndObject

epage
end

showpage

%%Trailer
%%EOF
