%!PS-Adobe-3.0 EPSF-3.0
%%Creator: MATLAB, The Mathworks, Inc.
%%Title: Pictures\main_fusion_us_logreg_speech_det.eps
%%CreationDate: 02/14/2009  02:10:28
%%DocumentNeededFonts: Helvetica
%%DocumentProcessColors: Cyan Magenta Yellow Black
%%LanguageLevel: 2
%%Pages: 1
%%BoundingBox:    87   191   501   609
%%EndComments

%%BeginProlog
% MathWorks dictionary
/MathWorks 160 dict begin
% definition operators
/bdef {bind def} bind def
/ldef {load def} bind def
/xdef {exch def} bdef
/xstore {exch store} bdef
% operator abbreviations
/c  /clip ldef
/cc /concat ldef
/cp /closepath ldef
/gr /grestore ldef
/gs /gsave ldef
/mt /moveto ldef
/np /newpath ldef
/cm /currentmatrix ldef
/sm /setmatrix ldef
/rm /rmoveto ldef
/rl /rlineto ldef
/s {show newpath} bdef
/sc {setcmykcolor} bdef
/sr /setrgbcolor ldef
/sg /setgray ldef
/w /setlinewidth ldef
/j /setlinejoin ldef
/cap /setlinecap ldef
/rc {rectclip} bdef
/rf {rectfill} bdef
% page state control
/pgsv () def
/bpage {/pgsv save def} bdef
/epage {pgsv restore} bdef
/bplot /gsave ldef
/eplot {stroke grestore} bdef
% orientation switch
/portraitMode 0 def /landscapeMode 1 def /rotateMode 2 def
% coordinate system mappings
/dpi2point 0 def
% font control
/FontSize 0 def
/FMS {/FontSize xstore findfont [FontSize 0 0 FontSize neg 0 0]
  makefont setfont} bdef
/ISOLatin1Encoding where {pop /WindowsLatin1Encoding 256 array bdef
ISOLatin1Encoding WindowsLatin1Encoding copy pop
/.notdef/.notdef/quotesinglbase/florin/quotedblbase/ellipsis/dagger
/daggerdbl/circumflex/perthousand/Scaron/guilsinglleft/OE/.notdef/.notdef
/.notdef/.notdef/quoteleft/quoteright/quotedblleft/quotedblright/bullet
/endash/emdash/tilde/trademark/scaron/guilsinglright/oe/.notdef/.notdef
/Ydieresis WindowsLatin1Encoding 128 32 getinterval astore pop}
{/WindowsLatin1Encoding StandardEncoding bdef} ifelse
/reencode {exch dup where {pop load} {pop StandardEncoding} ifelse
  exch dup 3 1 roll findfont dup length dict begin
  { 1 index /FID ne {def}{pop pop} ifelse } forall
  /Encoding exch def currentdict end definefont pop} bdef
/isroman {findfont /CharStrings get /Agrave known} bdef
/FMSR {3 1 roll 1 index dup isroman {reencode} {pop pop} ifelse
  exch FMS} bdef
/csm {1 dpi2point div -1 dpi2point div scale neg translate
 dup landscapeMode eq {pop -90 rotate}
  {rotateMode eq {90 rotate} if} ifelse} bdef
% line types: solid, dotted, dashed, dotdash
/SO { [] 0 setdash } bdef
/DO { [.5 dpi2point mul 4 dpi2point mul] 0 setdash } bdef
/DA { [6 dpi2point mul] 0 setdash } bdef
/DD { [.5 dpi2point mul 4 dpi2point mul 6 dpi2point mul 4
  dpi2point mul] 0 setdash } bdef
% macros for lines and objects
/L {lineto stroke} bdef
/MP {3 1 roll moveto 1 sub {rlineto} repeat} bdef
/AP {{rlineto} repeat} bdef
/PDlw -1 def
/W {/PDlw currentlinewidth def setlinewidth} def
/PP {closepath eofill} bdef
/DP {closepath stroke} bdef
/MR {4 -2 roll moveto dup  0 exch rlineto exch 0 rlineto
  neg 0 exch rlineto closepath} bdef
/FR {MR stroke} bdef
/PR {MR fill} bdef
/L1i {{currentfile picstr readhexstring pop} image} bdef
/tMatrix matrix def
/MakeOval {newpath tMatrix currentmatrix pop translate scale
0 0 1 0 360 arc tMatrix setmatrix} bdef
/FO {MakeOval stroke} bdef
/PO {MakeOval fill} bdef
/PD {currentlinewidth 2 div 0 360 arc fill
   PDlw -1 eq not {PDlw w /PDlw -1 def} if} def
/FA {newpath tMatrix currentmatrix pop translate scale
  0 0 1 5 -2 roll arc tMatrix setmatrix stroke} bdef
/PA {newpath tMatrix currentmatrix pop	translate 0 0 moveto scale
  0 0 1 5 -2 roll arc closepath tMatrix setmatrix fill} bdef
/FAn {newpath tMatrix currentmatrix pop translate scale
  0 0 1 5 -2 roll arcn tMatrix setmatrix stroke} bdef
/PAn {newpath tMatrix currentmatrix pop translate 0 0 moveto scale
  0 0 1 5 -2 roll arcn closepath tMatrix setmatrix fill} bdef
/vradius 0 def /hradius 0 def /lry 0 def
/lrx 0 def /uly 0 def /ulx 0 def /rad 0 def
/MRR {/vradius xdef /hradius xdef /lry xdef /lrx xdef /uly xdef
  /ulx xdef newpath tMatrix currentmatrix pop ulx hradius add uly
  vradius add translate hradius vradius scale 0 0 1 180 270 arc 
  tMatrix setmatrix lrx hradius sub uly vradius add translate
  hradius vradius scale 0 0 1 270 360 arc tMatrix setmatrix
  lrx hradius sub lry vradius sub translate hradius vradius scale
  0 0 1 0 90 arc tMatrix setmatrix ulx hradius add lry vradius sub
  translate hradius vradius scale 0 0 1 90 180 arc tMatrix setmatrix
  closepath} bdef
/FRR {MRR stroke } bdef
/PRR {MRR fill } bdef
/MlrRR {/lry xdef /lrx xdef /uly xdef /ulx xdef /rad lry uly sub 2 div def
  newpath tMatrix currentmatrix pop ulx rad add uly rad add translate
  rad rad scale 0 0 1 90 270 arc tMatrix setmatrix lrx rad sub lry rad
  sub translate rad rad scale 0 0 1 270 90 arc tMatrix setmatrix
  closepath} bdef
/FlrRR {MlrRR stroke } bdef
/PlrRR {MlrRR fill } bdef
/MtbRR {/lry xdef /lrx xdef /uly xdef /ulx xdef /rad lrx ulx sub 2 div def
  newpath tMatrix currentmatrix pop ulx rad add uly rad add translate
  rad rad scale 0 0 1 180 360 arc tMatrix setmatrix lrx rad sub lry rad
  sub translate rad rad scale 0 0 1 0 180 arc tMatrix setmatrix
  closepath} bdef
/FtbRR {MtbRR stroke } bdef
/PtbRR {MtbRR fill } bdef
/stri 6 array def /dtri 6 array def
/smat 6 array def /dmat 6 array def
/tmat1 6 array def /tmat2 6 array def /dif 3 array def
/asub {/ind2 exch def /ind1 exch def dup dup
  ind1 get exch ind2 get sub exch } bdef
/tri_to_matrix {
  2 0 asub 3 1 asub 4 0 asub 5 1 asub
  dup 0 get exch 1 get 7 -1 roll astore } bdef
/compute_transform {
  dmat dtri tri_to_matrix tmat1 invertmatrix 
  smat stri tri_to_matrix tmat2 concatmatrix } bdef
/ds {stri astore pop} bdef
/dt {dtri astore pop} bdef
/db {2 copy /cols xdef /rows xdef mul dup 3 mul string
  currentfile 
  3 index 0 eq {/ASCIIHexDecode filter}
  {/ASCII85Decode filter 3 index 2 eq {/RunLengthDecode filter} if }
  ifelse exch readstring pop
  dup 0 3 index getinterval /rbmap xdef
  dup 2 index dup getinterval /gbmap xdef
  1 index dup 2 mul exch getinterval /bbmap xdef pop pop}bdef
/it {gs np dtri aload pop moveto lineto lineto cp c
  cols rows 8 compute_transform 
  rbmap gbmap bbmap true 3 colorimage gr}bdef
/il {newpath moveto lineto stroke}bdef
currentdict end def
%%EndProlog

%%BeginSetup
MathWorks begin

0 cap

end
%%EndSetup

%%Page: 1 1
%%BeginPageSetup
%%PageBoundingBox:    87   191   501   609
MathWorks begin
bpage
%%EndPageSetup

%%BeginObject: obj1
bplot

/dpi2point 12 def
portraitMode 0216 7344 csm

  832    27  4971  5019 rc
86 dict begin %Colortable dictionary
/c0 { 0.000000 0.000000 0.000000 sr} bdef
/c1 { 1.000000 1.000000 1.000000 sr} bdef
/c2 { 0.900000 0.000000 0.000000 sr} bdef
/c3 { 0.000000 0.820000 0.000000 sr} bdef
/c4 { 0.000000 0.000000 0.800000 sr} bdef
/c5 { 0.910000 0.820000 0.320000 sr} bdef
/c6 { 1.000000 0.260000 0.820000 sr} bdef
/c7 { 0.000000 0.820000 0.820000 sr} bdef
c0
1 j
1 sg
   0    0 6919 5187 rf
6 w
0 4228 4227 0 0 -4228 1466 4616 4 MP
PP
-4227 0 0 4228 4227 0 0 -4228 1466 4616 5 MP stroke
4 w
DO
0 sg
1533 4616 mt 1533  388 L
1533  388 mt 1533  388 L
2377 4616 mt 2377  388 L
2377  388 mt 2377  388 L
3299 4616 mt 3299  388 L
3299  388 mt 3299  388 L
4682 4616 mt 4682  388 L
4682  388 mt 4682  388 L
1466 4355 mt 5693 4355 L
5693 4355 mt 5693 4355 L
1466 3303 mt 5693 3303 L
5693 3303 mt 5693 3303 L
1466 1725 mt 5693 1725 L
5693 1725 mt 5693 1725 L
SO
6 w
1466 4616 mt 5693 4616 L
1466 4616 mt 1466  388 L
1533 4616 mt 1533 4573 L
%%IncludeResource: font Helvetica
/Helvetica /WindowsLatin1Encoding 168 FMSR

1347 4806 mt 
(  0.5 ) s
2377 4616 mt 2377 4573 L
2214 4806 mt 
(   1  ) s
3299 4616 mt 3299 4573 L
3136 4806 mt 
(   2  ) s
4682 4616 mt 4682 4573 L
4519 4806 mt 
(   5  ) s
1466 4355 mt 1508 4355 L
1105 4417 mt 
(     1) s
1466 3303 mt 1508 3303 L
1105 3365 mt 
(     2) s
1466 1725 mt 1508 1725 L
1105 1787 mt 
(     5) s
gs 1466 388 4228 4229 rc
-493 -500 -402 -410 -336 -412 -267 -227 -257 -215 -255 -260 -253 -247 -338 -175 
-411 -341 -396 -577 5693 3752 11 MP stroke
gr

0 j
69 119 -138 0 69 -119 5693 3831 4 MP
DP
69 119 -138 0 69 -119 5297 3254 4 MP
DP
69 119 -138 0 69 -119 4886 2913 4 MP
DP
69 119 -138 0 69 -119 4548 2738 4 MP
DP
69 119 -138 0 69 -119 4295 2491 4 MP
DP
69 119 -138 0 69 -119 4040 2231 4 MP
DP
69 119 -138 0 69 -119 3783 2016 4 MP
DP
69 119 -138 0 69 -119 3516 1789 4 MP
DP
69 119 -138 0 69 -119 3180 1377 4 MP
DP
69 119 -138 0 69 -119 2778 967 4 MP
DP
69 119 -138 0 69 -119 2285 467 4 MP
DP
gs 1466 388 4228 4229 rc
/c8 { 0.000000 0.000000 1.000000 sr} bdef
c8
-411 -676 -296 -339 -253 -282 -252 -260 -273 -396 -198 -276 -189 -252 -284 -333 
-298 -358 -488 -268 5276 4295 11 MP stroke
gr

c8
5234 4253 mt 5318 4337 L
5318 4253 mt 5234 4337 L
4746 3985 mt 4830 4069 L
4830 3985 mt 4746 4069 L
4448 3627 mt 4532 3711 L
4532 3627 mt 4448 3711 L
4164 3294 mt 4248 3378 L
4248 3294 mt 4164 3378 L
3975 3042 mt 4059 3126 L
4059 3042 mt 3975 3126 L
3777 2766 mt 3861 2850 L
3861 2766 mt 3777 2850 L
3504 2370 mt 3588 2454 L
3588 2370 mt 3504 2454 L
3252 2110 mt 3336 2194 L
3336 2110 mt 3252 2194 L
2999 1828 mt 3083 1912 L
3083 1828 mt 2999 1912 L
2703 1489 mt 2787 1573 L
2787 1489 mt 2703 1573 L
2292  813 mt 2376  897 L
2376  813 mt 2292  897 L
gs 1466 388 4228 4229 rc
/c9 { 1.000000 0.000000 0.000000 sr} bdef
c9
-355 -501 -274 -248 -302 -477 -245 -395 -199 -93 -239 -310 -169 -334 -246 -326 
-354 -448 -435 -539 5283 4616 11 MP stroke
gr

c9
  60   60 5283 4616 FO
  60   60 4848 4077 FO
  60   60 4494 3629 FO
  60   60 4248 3303 FO
  60   60 4079 2969 FO
  60   60 3840 2659 FO
  60   60 3641 2566 FO
  60   60 3396 2171 FO
  60   60 3094 1694 FO
  60   60 2820 1446 FO
  60   60 2465  945 FO
gs 1466 388 4228 4229 rc
/c10 { 0.000000 1.000000 0.000000 sr} bdef
c10
-346 -385 -220 -257 -193 -241 -174 -234 -213 -244 -193 -171 -153 -144 -228 -177 
-204 -119 -257 -405 3697 3113 11 MP stroke
gr

c10
3655 3071 mt 3739 3155 L
3739 3071 mt 3655 3155 L
3398 2666 mt 3482 2750 L
3482 2666 mt 3398 2750 L
3194 2547 mt 3278 2631 L
3278 2547 mt 3194 2631 L
2966 2370 mt 3050 2454 L
3050 2370 mt 2966 2454 L
2813 2226 mt 2897 2310 L
2897 2226 mt 2813 2310 L
2620 2055 mt 2704 2139 L
2704 2055 mt 2620 2139 L
2407 1811 mt 2491 1895 L
2491 1811 mt 2407 1895 L
2233 1577 mt 2317 1661 L
2317 1577 mt 2233 1661 L
2040 1336 mt 2124 1420 L
2124 1336 mt 2040 1420 L
1820 1079 mt 1904 1163 L
1904 1079 mt 1820 1163 L
1474  694 mt 1558  778 L
1558  694 mt 1474  778 L
gs 1466 388 4228 4229 rc
c8
-398 -419 -244 -309 -246 -256 -163 -147 -210 -140 -214 -189 -145 -249 -211 -161 
-258 -201 -285 -378 3856 3238 11 MP stroke
gr

c8
3796 3238 mt 3916 3238 L
3856 3178 mt 3856 3298 L
3511 2860 mt 3631 2860 L
3571 2800 mt 3571 2920 L
3253 2659 mt 3373 2659 L
3313 2599 mt 3313 2719 L
3042 2498 mt 3162 2498 L
3102 2438 mt 3102 2558 L
2897 2249 mt 3017 2249 L
2957 2189 mt 2957 2309 L
2683 2060 mt 2803 2060 L
2743 2000 mt 2743 2120 L
2473 1920 mt 2593 1920 L
2533 1860 mt 2533 1980 L
2310 1773 mt 2430 1773 L
2370 1713 mt 2370 1833 L
2064 1517 mt 2184 1517 L
2124 1457 mt 2124 1577 L
1820 1208 mt 1940 1208 L
1880 1148 mt 1880 1268 L
1422  789 mt 1542  789 L
1482  729 mt 1482  849 L
3814 3196 mt 3898 3280 L
3898 3196 mt 3814 3280 L
3529 2818 mt 3613 2902 L
3613 2818 mt 3529 2902 L
3271 2617 mt 3355 2701 L
3355 2617 mt 3271 2701 L
3060 2456 mt 3144 2540 L
3144 2456 mt 3060 2540 L
2915 2207 mt 2999 2291 L
2999 2207 mt 2915 2291 L
2701 2018 mt 2785 2102 L
2785 2018 mt 2701 2102 L
2491 1878 mt 2575 1962 L
2575 1878 mt 2491 1962 L
2328 1731 mt 2412 1815 L
2412 1731 mt 2328 1815 L
2082 1475 mt 2166 1559 L
2166 1475 mt 2082 1559 L
1838 1166 mt 1922 1250 L
1922 1166 mt 1838 1250 L
1440  747 mt 1524  831 L
1524  747 mt 1440  831 L
gs 1466 388 4228 4229 rc
c9
-417 -434 -313 -414 -281 -335 -259 -228 -259 -233 -232 -211 -186 -102 -246 -107 
-321 -395 -412 -459 4572 3795 11 MP stroke
gr

c9
0 -94 -94 0 0 94 94 0 4525 3748 5 MP
DP
0 -94 -94 0 0 94 94 0 4113 3289 5 MP
DP
0 -94 -94 0 0 94 94 0 3792 2894 5 MP
DP
0 -94 -94 0 0 94 94 0 3546 2787 5 MP
DP
0 -94 -94 0 0 94 94 0 3360 2685 5 MP
DP
0 -94 -94 0 0 94 94 0 3128 2474 5 MP
DP
0 -94 -94 0 0 94 94 0 2869 2241 5 MP
DP
0 -94 -94 0 0 94 94 0 2610 2013 5 MP
DP
0 -94 -94 0 0 94 94 0 2329 1678 5 MP
DP
0 -94 -94 0 0 94 94 0 2016 1264 5 MP
DP
0 -94 -94 0 0 94 94 0 1599 830 5 MP
DP
gs 1466 388 4228 4229 rc
c10
-447 -474 -324 -373 -242 -226 -217 -267 -197 -205 -189 -100 -243 -237 -206 -294 
-332 -165 -416 -452 4339 3477 11 MP stroke
gr

c10
60 79 -60 79 -60 -79 60 -79 4339 3556 5 MP
DP
60 79 -60 79 -60 -79 60 -79 3923 3104 5 MP
DP
60 79 -60 79 -60 -79 60 -79 3591 2939 5 MP
DP
60 79 -60 79 -60 -79 60 -79 3385 2645 5 MP
DP
60 79 -60 79 -60 -79 60 -79 3142 2408 5 MP
DP
60 79 -60 79 -60 -79 60 -79 2953 2308 5 MP
DP
60 79 -60 79 -60 -79 60 -79 2756 2103 5 MP
DP
60 79 -60 79 -60 -79 60 -79 2539 1836 5 MP
DP
60 79 -60 79 -60 -79 60 -79 2297 1610 5 MP
DP
60 79 -60 79 -60 -79 60 -79 1973 1237 5 MP
DP
60 79 -60 79 -60 -79 60 -79 1526 763 5 MP
DP
gs 1466 388 4228 4229 rc
c8
-455 -517 -363 -368 -267 -324 -250 -273 -292 -242 -220 -302 -191 -199 -243 -93 
-280 -345 -477 -379 4579 3930 11 MP stroke
gr

c8
69 119 -138 0 69 -119 4579 4009 4 MP
DP
69 119 -138 0 69 -119 4102 3630 4 MP
DP
69 119 -138 0 69 -119 3822 3285 4 MP
DP
69 119 -138 0 69 -119 3579 3192 4 MP
DP
69 119 -138 0 69 -119 3388 2993 4 MP
DP
69 119 -138 0 69 -119 3168 2691 4 MP
DP
69 119 -138 0 69 -119 2876 2449 4 MP
DP
69 119 -138 0 69 -119 2626 2176 4 MP
DP
69 119 -138 0 69 -119 2359 1852 4 MP
DP
69 119 -138 0 69 -119 1996 1484 4 MP
DP
69 119 -138 0 69 -119 1541 967 4 MP
DP
gs 1466 388 4228 4229 rc
c10
-441 -513 -334 -248 -223 -176 -218 -359 -189 -141 -195 -173 -214 -140 -240 -151 
-232 -135 -461 -367 4271 3336 11 MP stroke
gr

c10
-69 119 -69 -119 138 0 4202 3376 4 MP
DP
-69 119 -69 -119 138 0 3741 3009 4 MP
DP
-69 119 -69 -119 138 0 3509 2874 4 MP
DP
-69 119 -69 -119 138 0 3269 2723 4 MP
DP
-69 119 -69 -119 138 0 3055 2583 4 MP
DP
-69 119 -69 -119 138 0 2860 2410 4 MP
DP
-69 119 -69 -119 138 0 2671 2269 4 MP
DP
-69 119 -69 -119 138 0 2453 1910 4 MP
DP
-69 119 -69 -119 138 0 2230 1734 4 MP
DP
-69 119 -69 -119 138 0 1896 1486 4 MP
DP
-69 119 -69 -119 138 0 1455 973 4 MP
DP
gs 1466 388 4228 4229 rc
c8
-442 -506 -343 -339 -251 -229 -200 -148 -223 -273 -187 -139 -201 -240 -224 -271 
-341 -137 -412 -408 4290 3405 11 MP stroke
gr

c8
-119 69 0 -138 119 69 4211 3405 4 MP
DP
-119 69 0 -138 119 69 3799 2997 4 MP
DP
-119 69 0 -138 119 69 3458 2860 4 MP
DP
-119 69 0 -138 119 69 3234 2589 4 MP
DP
-119 69 0 -138 119 69 3033 2349 4 MP
DP
-119 69 0 -138 119 69 2846 2210 4 MP
DP
-119 69 0 -138 119 69 2623 1937 4 MP
DP
-119 69 0 -138 119 69 2423 1789 4 MP
DP
-119 69 0 -138 119 69 2172 1560 4 MP
DP
-119 69 0 -138 119 69 1829 1221 4 MP
DP
-119 69 0 -138 119 69 1387 715 4 MP
DP
gs 1466 388 4228 4229 rc
gr

0 sg
3273 4984 mt 
(FAR [%]) s
1013 2820 mt  -90 rotate
(FRR [%]) s
90 rotate
3308  256 mt 
(speech) s
%%IncludeResource: font Helvetica
/Helvetica /WindowsLatin1Encoding 120 FMSR

1449 4659 mt 
( ) s
5677  430 mt 
( ) s
1 sg
0 2052 1823 0 0 -2052 3810 2500 4 MP
PP
-1823 0 0 2052 1823 0 0 -2052 3810 2500 5 MP stroke
4 w
DO
SO
6 w
0 sg
3810  448 mt 5633  448 L
3810 2500 mt 5633 2500 L
5633 2500 mt 5633  448 L
3810 2500 mt 3810  448 L
3810 2500 mt 5633 2500 L
3810 2500 mt 3810  448 L
3810  448 mt 5633  448 L
3810 2500 mt 5633 2500 L
5633 2500 mt 5633  448 L
3810 2500 mt 3810  448 L
%%IncludeResource: font Helvetica
/Helvetica /WindowsLatin1Encoding 168 FMSR

4287  628 mt 
(orig) s
gs 3810 448 1824 2053 rc
366 0 3883 567 2 MP stroke
gr

gs 3945 446 243 243 rc
69 119 -138 0 69 -119 4066 646 4 MP
DP
gr

gs 3810 448 1824 2053 rc
gr

4287  829 mt 
(z-norm \(lr\)) s
gs 3810 448 1824 2053 rc
c8
366 0 3883 769 2 MP stroke
gs 3945 648 243 243 rc
4024  727 mt 4108  811 L
4108  727 mt 4024  811 L
gr

gr

c8
0 sg
4287 1031 mt 
(z-norm) s
gs 3810 448 1824 2053 rc
c9
366 0 3883 970 2 MP stroke
gs 3945 849 243 243 rc
  60   60 4066  970 FO
gr

gr

c9
0 sg
4287 1232 mt 
(z-norm, gen \(lr\)) s
gs 3810 448 1824 2053 rc
c10
366 0 3883 1171 2 MP stroke
gs 3945 1050 243 243 rc
4024 1129 mt 4108 1213 L
4108 1129 mt 4024 1213 L
gr

gr

c10
0 sg
4287 1434 mt 
(z-norm [y,p] \(lr\)) s
gs 3810 448 1824 2053 rc
c8
366 0 3883 1373 2 MP stroke
gs 3945 1252 243 243 rc
4006 1373 mt 4126 1373 L
4066 1313 mt 4066 1433 L
4024 1331 mt 4108 1415 L
4108 1331 mt 4024 1415 L
gr

gr

c8
0 sg
4287 1635 mt 
(z-norm [y,y*p] \(lr\)) s
gs 3810 448 1824 2053 rc
c9
366 0 3883 1574 2 MP stroke
gs 3945 1453 243 243 rc
0 -94 -94 0 0 94 94 0 4019 1527 5 MP
DP
gr

gr

c9
0 sg
4287 1837 mt 
(f-norm) s
gs 3810 448 1824 2053 rc
c10
366 0 3883 1776 2 MP stroke
gs 3945 1655 243 243 rc
60 79 -60 79 -60 -79 60 -79 4066 1855 5 MP
DP
gr

gr

c10
0 sg
4287 2038 mt 
(f-norm v1 \(lr\)) s
gs 3810 448 1824 2053 rc
c8
366 0 3883 1977 2 MP stroke
gs 3945 1856 243 243 rc
69 119 -138 0 69 -119 4066 2056 4 MP
DP
gr

gr

c8
0 sg
4287 2240 mt 
(f-norm v2 \(lr\)) s
gs 3810 448 1824 2053 rc
c10
366 0 3883 2178 2 MP stroke
gs 3945 2057 243 243 rc
-69 119 -69 -119 138 0 3997 2218 4 MP
DP
gr

gr

c10
0 sg
4287 2441 mt 
(f-norm-lr) s
gs 3810 448 1824 2053 rc
c8
366 0 3883 2380 2 MP stroke
gr

c8
gs 3945 2259 243 243 rc
-119 69 0 -138 119 69 3987 2380 4 MP
DP
gr

gs 3810 448 1824 2053 rc
gr


end %%Color Dict

eplot
%%EndObject

epage
end

showpage

%%Trailer
%%EOF
