%!PS-Adobe-3.0 EPSF-3.0
%%Creator: MATLAB, The Mathworks, Inc. Version 7.7.0.471 (R2008b). Operating System: Microsoft Windows XP.
%%Title: Pictures\main_zoo_mvar_analysis_data_BMI_xcorr_bmig_p1_k1_3_8.eps
%%CreationDate: 10/26/2009  05:44:57
%%DocumentNeededFonts: Helvetica
%%DocumentProcessColors: Cyan Magenta Yellow Black
%%LanguageLevel: 2
%%Pages: 1
%%BoundingBox:    37   180   549   616
%%EndComments

%%BeginProlog
% MathWorks dictionary
/MathWorks 160 dict begin
% definition operators
/bdef {bind def} bind def
/ldef {load def} bind def
/xdef {exch def} bdef
/xstore {exch store} bdef
% operator abbreviations
/c  /clip ldef
/cc /concat ldef
/cp /closepath ldef
/gr /grestore ldef
/gs /gsave ldef
/mt /moveto ldef
/np /newpath ldef
/cm /currentmatrix ldef
/sm /setmatrix ldef
/rm /rmoveto ldef
/rl /rlineto ldef
/s {show newpath} bdef
/sc {setcmykcolor} bdef
/sr /setrgbcolor ldef
/sg /setgray ldef
/w /setlinewidth ldef
/j /setlinejoin ldef
/cap /setlinecap ldef
/rc {rectclip} bdef
/rf {rectfill} bdef
% page state control
/pgsv () def
/bpage {/pgsv save def} bdef
/epage {pgsv restore} bdef
/bplot /gsave ldef
/eplot {stroke grestore} bdef
% orientation switch
/portraitMode 0 def /landscapeMode 1 def /rotateMode 2 def
% coordinate system mappings
/dpi2point 0 def
% font control
/FontSize 0 def
/FMS {/FontSize xstore findfont [FontSize 0 0 FontSize neg 0 0]
  makefont setfont} bdef
/ISOLatin1Encoding where {pop /WindowsLatin1Encoding 256 array bdef
ISOLatin1Encoding WindowsLatin1Encoding copy pop
/.notdef/.notdef/quotesinglbase/florin/quotedblbase/ellipsis/dagger
/daggerdbl/circumflex/perthousand/Scaron/guilsinglleft/OE/.notdef/.notdef
/.notdef/.notdef/quoteleft/quoteright/quotedblleft/quotedblright/bullet
/endash/emdash/tilde/trademark/scaron/guilsinglright/oe/.notdef/.notdef
/Ydieresis WindowsLatin1Encoding 128 32 getinterval astore pop}
{/WindowsLatin1Encoding StandardEncoding bdef} ifelse
/reencode {exch dup where {pop load} {pop StandardEncoding} ifelse
  exch dup 3 1 roll findfont dup length dict begin
  { 1 index /FID ne {def}{pop pop} ifelse } forall
  /Encoding exch def currentdict end definefont pop} bdef
/isroman {findfont /CharStrings get /Agrave known} bdef
/FMSR {3 1 roll 1 index dup isroman {reencode} {pop pop} ifelse
  exch FMS} bdef
/csm {1 dpi2point div -1 dpi2point div scale neg translate
 dup landscapeMode eq {pop -90 rotate}
  {rotateMode eq {90 rotate} if} ifelse} bdef
% line types: solid, dotted, dashed, dotdash
/SO { [] 0 setdash } bdef
/DO { [.5 dpi2point mul 4 dpi2point mul] 0 setdash } bdef
/DA { [6 dpi2point mul] 0 setdash } bdef
/DD { [.5 dpi2point mul 4 dpi2point mul 6 dpi2point mul 4
  dpi2point mul] 0 setdash } bdef
% macros for lines and objects
/L {lineto stroke} bdef
/MP {3 1 roll moveto 1 sub {rlineto} repeat} bdef
/AP {{rlineto} repeat} bdef
/PDlw -1 def
/W {/PDlw currentlinewidth def setlinewidth} def
/PP {closepath eofill} bdef
/DP {closepath stroke} bdef
/MR {4 -2 roll moveto dup  0 exch rlineto exch 0 rlineto
  neg 0 exch rlineto closepath} bdef
/FR {MR stroke} bdef
/PR {MR fill} bdef
/L1i {{currentfile picstr readhexstring pop} image} bdef
/tMatrix matrix def
/MakeOval {newpath tMatrix currentmatrix pop translate scale
0 0 1 0 360 arc tMatrix setmatrix} bdef
/FO {MakeOval stroke} bdef
/PO {MakeOval fill} bdef
/PD {currentlinewidth 2 div 0 360 arc fill
   PDlw -1 eq not {PDlw w /PDlw -1 def} if} def
/FA {newpath tMatrix currentmatrix pop translate scale
  0 0 1 5 -2 roll arc tMatrix setmatrix stroke} bdef
/PA {newpath tMatrix currentmatrix pop	translate 0 0 moveto scale
  0 0 1 5 -2 roll arc closepath tMatrix setmatrix fill} bdef
/FAn {newpath tMatrix currentmatrix pop translate scale
  0 0 1 5 -2 roll arcn tMatrix setmatrix stroke} bdef
/PAn {newpath tMatrix currentmatrix pop translate 0 0 moveto scale
  0 0 1 5 -2 roll arcn closepath tMatrix setmatrix fill} bdef
/vradius 0 def /hradius 0 def /lry 0 def
/lrx 0 def /uly 0 def /ulx 0 def /rad 0 def
/MRR {/vradius xdef /hradius xdef /lry xdef /lrx xdef /uly xdef
  /ulx xdef newpath tMatrix currentmatrix pop ulx hradius add uly
  vradius add translate hradius vradius scale 0 0 1 180 270 arc 
  tMatrix setmatrix lrx hradius sub uly vradius add translate
  hradius vradius scale 0 0 1 270 360 arc tMatrix setmatrix
  lrx hradius sub lry vradius sub translate hradius vradius scale
  0 0 1 0 90 arc tMatrix setmatrix ulx hradius add lry vradius sub
  translate hradius vradius scale 0 0 1 90 180 arc tMatrix setmatrix
  closepath} bdef
/FRR {MRR stroke } bdef
/PRR {MRR fill } bdef
/MlrRR {/lry xdef /lrx xdef /uly xdef /ulx xdef /rad lry uly sub 2 div def
  newpath tMatrix currentmatrix pop ulx rad add uly rad add translate
  rad rad scale 0 0 1 90 270 arc tMatrix setmatrix lrx rad sub lry rad
  sub translate rad rad scale 0 0 1 270 90 arc tMatrix setmatrix
  closepath} bdef
/FlrRR {MlrRR stroke } bdef
/PlrRR {MlrRR fill } bdef
/MtbRR {/lry xdef /lrx xdef /uly xdef /ulx xdef /rad lrx ulx sub 2 div def
  newpath tMatrix currentmatrix pop ulx rad add uly rad add translate
  rad rad scale 0 0 1 180 360 arc tMatrix setmatrix lrx rad sub lry rad
  sub translate rad rad scale 0 0 1 0 180 arc tMatrix setmatrix
  closepath} bdef
/FtbRR {MtbRR stroke } bdef
/PtbRR {MtbRR fill } bdef
/stri 6 array def /dtri 6 array def
/smat 6 array def /dmat 6 array def
/tmat1 6 array def /tmat2 6 array def /dif 3 array def
/asub {/ind2 exch def /ind1 exch def dup dup
  ind1 get exch ind2 get sub exch } bdef
/tri_to_matrix {
  2 0 asub 3 1 asub 4 0 asub 5 1 asub
  dup 0 get exch 1 get 7 -1 roll astore } bdef
/compute_transform {
  dmat dtri tri_to_matrix tmat1 invertmatrix 
  smat stri tri_to_matrix tmat2 concatmatrix } bdef
/ds {stri astore pop} bdef
/dt {dtri astore pop} bdef
/db {2 copy /cols xdef /rows xdef mul dup 3 mul string
  currentfile 
  3 index 0 eq {/ASCIIHexDecode filter}
  {/ASCII85Decode filter 3 index 2 eq {/RunLengthDecode filter} if }
  ifelse exch readstring pop
  dup 0 3 index getinterval /rbmap xdef
  dup 2 index dup getinterval /gbmap xdef
  1 index dup 2 mul exch getinterval /bbmap xdef pop pop}bdef
/it {gs np dtri aload pop moveto lineto lineto cp c
  cols rows 8 compute_transform 
  rbmap gbmap bbmap true 3 colorimage gr}bdef
/il {newpath moveto lineto stroke}bdef
currentdict end def
%%EndProlog

%%BeginSetup
MathWorks begin

0 cap

end
%%EndSetup

%%Page: 1 1
%%BeginPageSetup
%%PageBoundingBox:    37   180   549   616
MathWorks begin
bpage
%%EndPageSetup

%%BeginObject: obj1
bplot

/dpi2point 12 def
portraitMode 0216 7344 csm

  234   -48  6149  5231 rc
85 dict begin %Colortable dictionary
/c0 { 0.000000 0.000000 0.000000 sr} bdef
/c1 { 1.000000 1.000000 1.000000 sr} bdef
/c2 { 0.900000 0.000000 0.000000 sr} bdef
/c3 { 0.000000 0.820000 0.000000 sr} bdef
/c4 { 0.000000 0.000000 0.800000 sr} bdef
/c5 { 0.910000 0.820000 0.320000 sr} bdef
/c6 { 1.000000 0.260000 0.820000 sr} bdef
/c7 { 0.000000 0.820000 0.820000 sr} bdef
c0
1 j
1 sg
   0    0 6919 5187 rf
6 w
0 4202 5362 0 0 -4202 899 4616 4 MP
PP
-5362 0 0 4202 5362 0 0 -4202 899 4616 5 MP stroke
4 w
DO
SO
6 w
0 sg
 899  414 mt 6261  414 L
 899 4616 mt 6261 4616 L
6261 4616 mt 6261  414 L
 899 4616 mt  899  414 L
 899 4616 mt 6261 4616 L
 899 4616 mt  899  414 L
 919 4616 mt  919 4562 L
 919  414 mt  919  467 L
%%IncludeResource: font Helvetica
/Helvetica /WindowsLatin1Encoding 240 FMSR

 713 4873 mt 
(-3) s
1806 4616 mt 1806 4562 L
1806  414 mt 1806  467 L
1600 4873 mt 
(-2) s
2693 4616 mt 2693 4562 L
2693  414 mt 2693  467 L
2487 4873 mt 
(-1) s
3580 4616 mt 3580 4562 L
3580  414 mt 3580  467 L
3514 4873 mt 
(0) s
4466 4616 mt 4466 4562 L
4466  414 mt 4466  467 L
4400 4873 mt 
(1) s
5353 4616 mt 5353 4562 L
5353  414 mt 5353  467 L
5287 4873 mt 
(2) s
6240 4616 mt 6240 4562 L
6240  414 mt 6240  467 L
6174 4873 mt 
(3) s
 899 4599 mt  952 4599 L
6261 4599 mt 6207 4599 L
 591 4688 mt 
(-3) s
 899 3904 mt  952 3904 L
6261 3904 mt 6207 3904 L
 591 3993 mt 
(-2) s
 899 3209 mt  952 3209 L
6261 3209 mt 6207 3209 L
 591 3298 mt 
(-1) s
 899 2514 mt  952 2514 L
6261 2514 mt 6207 2514 L
 731 2603 mt 
(0) s
 899 1820 mt  952 1820 L
6261 1820 mt 6207 1820 L
 731 1909 mt 
(1) s
 899 1125 mt  952 1125 L
6261 1125 mt 6207 1125 L
 731 1214 mt 
(2) s
 899  430 mt  952  430 L
6261  430 mt 6207  430 L
 731  519 mt 
(3) s
 899  414 mt 6261  414 L
 899 4616 mt 6261 4616 L
6261 4616 mt 6261  414 L
 899 4616 mt  899  414 L
gs 899 414 5363 4203 rc
gr

/c8 { 0.000000 0.000000 1.000000 sr} bdef
c8
4619  414 mt 4691  414 L
4655  378 mt 4655  450 L
3364 2602 mt 3436 2602 L
3400 2566 mt 3400 2638 L
5282 3034 mt 5354 3034 L
5318 2998 mt 5318 3070 L
3577 2293 mt 3649 2293 L
3613 2257 mt 3613 2329 L
3627 2410 mt 3699 2410 L
3663 2374 mt 3663 2446 L
4177 2840 mt 4249 2840 L
4213 2804 mt 4213 2876 L
2394 1604 mt 2466 1604 L
2430 1568 mt 2430 1640 L
2605 2655 mt 2677 2655 L
2641 2619 mt 2641 2691 L
3135 4205 mt 3207 4205 L
3171 4169 mt 3171 4241 L
4482 2040 mt 4554 2040 L
4518 2004 mt 4518 2076 L
4746 2536 mt 4818 2536 L
4782 2500 mt 4782 2572 L
4532 4616 mt 4604 4616 L
4568 4580 mt 4568 4652 L
4542 3503 mt 4614 3503 L
4578 3467 mt 4578 3539 L
4869 3322 mt 4941 3322 L
4905 3286 mt 4905 3358 L
3897 2401 mt 3969 2401 L
3933 2365 mt 3933 2437 L
3538 1831 mt 3610 1831 L
3574 1795 mt 3574 1867 L
4852 1583 mt 4924 1583 L
4888 1547 mt 4888 1619 L
2723 2423 mt 2795 2423 L
2759 2387 mt 2759 2459 L
3202 2722 mt 3274 2722 L
3238 2686 mt 3238 2758 L
2945 2001 mt 3017 2001 L
2981 1965 mt 2981 2037 L
4416 2361 mt 4488 2361 L
4452 2325 mt 4452 2397 L
4251 2646 mt 4323 2646 L
4287 2610 mt 4287 2682 L
3499 2436 mt 3571 2436 L
3535 2400 mt 3535 2472 L
3717 2484 mt 3789 2484 L
3753 2448 mt 3753 2520 L
4330 1885 mt 4402 1885 L
4366 1849 mt 4366 1921 L
4149 2806 mt 4221 2806 L
4185 2770 mt 4185 2842 L
3020 2199 mt 3092 2199 L
3056 2163 mt 3056 2235 L
4060 2825 mt 4132 2825 L
4096 2789 mt 4096 2861 L
3762 2972 mt 3834 2972 L
3798 2936 mt 3798 3008 L
2844 2589 mt 2916 2589 L
2880 2553 mt 2880 2625 L
4381 1572 mt 4453 1572 L
4417 1536 mt 4417 1608 L
3273 2467 mt 3345 2467 L
3309 2431 mt 3309 2503 L
2615 2558 mt 2687 2558 L
2651 2522 mt 2651 2594 L
1674 1787 mt 1746 1787 L
1710 1751 mt 1710 1823 L
4597 3297 mt 4669 3297 L
4633 3261 mt 4633 3333 L
4259 2576 mt 4331 2576 L
4295 2540 mt 4295 2612 L
2634 3118 mt 2706 3118 L
2670 3082 mt 2670 3154 L
4390 2844 mt 4462 2844 L
4426 2808 mt 4426 2880 L
4364 2445 mt 4436 2445 L
4400 2409 mt 4400 2481 L
4732 1255 mt 4804 1255 L
4768 1219 mt 4768 1291 L
2881 2619 mt 2953 2619 L
2917 2583 mt 2917 2655 L
3421 2506 mt 3493 2506 L
3457 2470 mt 3457 2542 L
3785 1740 mt 3857 1740 L
3821 1704 mt 3821 1776 L
5413 1809 mt 5485 1809 L
5449 1773 mt 5449 1845 L
2773 1816 mt 2845 1816 L
2809 1780 mt 2809 1852 L
3393 3039 mt 3465 3039 L
3429 3003 mt 3429 3075 L
4322  898 mt 4394  898 L
4358  862 mt 4358  934 L
2987 2811 mt 3059 2811 L
3023 2775 mt 3023 2847 L
4492 3658 mt 4564 3658 L
4528 3622 mt 4528 3694 L
4981 2352 mt 5053 2352 L
5017 2316 mt 5017 2388 L
3861 2279 mt 3933 2279 L
3897 2243 mt 3897 2315 L
 863 2270 mt  935 2270 L
 899 2234 mt  899 2306 L
5828 2864 mt 5900 2864 L
5864 2828 mt 5864 2900 L
3000 2514 mt 3072 2514 L
3036 2478 mt 3036 2550 L
2368 2835 mt 2440 2835 L
2404 2799 mt 2404 2871 L
3359 1954 mt 3431 1954 L
3395 1918 mt 3395 1990 L
2874 2261 mt 2946 2261 L
2910 2225 mt 2910 2297 L
3404 3675 mt 3476 3675 L
3440 3639 mt 3440 3711 L
5150 2664 mt 5222 2664 L
5186 2628 mt 5186 2700 L
5321 2523 mt 5393 2523 L
5357 2487 mt 5357 2559 L
4407 2204 mt 4479 2204 L
4443 2168 mt 4443 2240 L
3989 2709 mt 4061 2709 L
4025 2673 mt 4025 2745 L
3172  824 mt 3244  824 L
3208  788 mt 3208  860 L
4243 1917 mt 4315 1917 L
4279 1881 mt 4279 1953 L
6033 4023 mt 6105 4023 L
6069 3987 mt 6069 4059 L
3091 2078 mt 3163 2078 L
3127 2042 mt 3127 2114 L
5606 3527 mt 5678 3527 L
5642 3491 mt 5642 3563 L
4034 3641 mt 4106 3641 L
4070 3605 mt 4070 3677 L
5047 3515 mt 5119 3515 L
5083 3479 mt 5083 3551 L
4961 2624 mt 5033 2624 L
4997 2588 mt 4997 2660 L
4608 2018 mt 4680 2018 L
4644 1982 mt 4644 2054 L
4041 3171 mt 4113 3171 L
4077 3135 mt 4077 3207 L
3510 2414 mt 3582 2414 L
3546 2378 mt 3546 2450 L
3711 3731 mt 3783 3731 L
3747 3695 mt 3747 3767 L
4760 3093 mt 4832 3093 L
4796 3057 mt 4796 3129 L
4472 2396 mt 4544 2396 L
4508 2360 mt 4508 2432 L
2040 2792 mt 2112 2792 L
2076 2756 mt 2076 2828 L
5180 3191 mt 5252 3191 L
5216 3155 mt 5216 3227 L
2624 2062 mt 2696 2062 L
2660 2026 mt 2660 2098 L
4372 3144 mt 4444 3144 L
4408 3108 mt 4408 3180 L
2671 2325 mt 2743 2325 L
2707 2289 mt 2707 2361 L
4015 1794 mt 4087 1794 L
4051 1758 mt 4051 1830 L
5211 1419 mt 5283 1419 L
5247 1383 mt 5247 1455 L
4087 2379 mt 4159 2379 L
4123 2343 mt 4123 2415 L
4021 1434 mt 4093 1434 L
4057 1398 mt 4057 1470 L
4135 2302 mt 4207 2302 L
4171 2266 mt 4171 2338 L
2235 3491 mt 2307 3491 L
2271 3455 mt 2271 3527 L
3059 3075 mt 3131 3075 L
3095 3039 mt 3095 3111 L
3952 3457 mt 4024 3457 L
3988 3421 mt 3988 3493 L
3826 1942 mt 3898 1942 L
3862 1906 mt 3862 1978 L
4585 2962 mt 4657 2962 L
4621 2926 mt 4621 2998 L
3774 2453 mt 3846 2453 L
3810 2417 mt 3810 2489 L
3803 2458 mt 3875 2458 L
3839 2422 mt 3839 2494 L
3307 3386 mt 3379 3386 L
3343 3350 mt 3343 3422 L
3190 2925 mt 3262 2925 L
3226 2889 mt 3226 2961 L
4114 2083 mt 4186 2083 L
4150 2047 mt 4150 2119 L
4266 2094 mt 4338 2094 L
4302 2058 mt 4302 2130 L
4199 2869 mt 4271 2869 L
4235 2833 mt 4235 2905 L
2689 2256 mt 2761 2256 L
2725 2220 mt 2725 2292 L
3237 2320 mt 3309 2320 L
3273 2284 mt 3273 2356 L
3482  724 mt 3554  724 L
3518  688 mt 3518  760 L
3832 2849 mt 3904 2849 L
3868 2813 mt 3868 2885 L
4398 1121 mt 4470 1121 L
4434 1085 mt 4434 1157 L
4028 2237 mt 4100 2237 L
4064 2201 mt 4064 2273 L
3249 2668 mt 3321 2668 L
3285 2632 mt 3285 2704 L
3689 2682 mt 3761 2682 L
3725 2646 mt 3725 2718 L
4706 4131 mt 4778 4131 L
4742 4095 mt 4742 4167 L
4221 2759 mt 4293 2759 L
4257 2723 mt 4257 2795 L
3677 3011 mt 3749 3011 L
3713 2975 mt 3713 3047 L
3983 2155 mt 4055 2155 L
4019 2119 mt 4019 2191 L
3780 3610 mt 3852 3610 L
3816 3574 mt 3816 3646 L
3449 2899 mt 3521 2899 L
3485 2863 mt 3485 2935 L
2381 3213 mt 2453 3213 L
2417 3177 mt 2417 3249 L
4667 2659 mt 4739 2659 L
4703 2623 mt 4703 2695 L
3934 2528 mt 4006 2528 L
3970 2492 mt 3970 2564 L
3728 2686 mt 3800 2686 L
3764 2650 mt 3764 2722 L
2888 3415 mt 2960 3415 L
2924 3379 mt 2924 3451 L
4298 3848 mt 4370 3848 L
4334 3812 mt 4334 3884 L
1991 1960 mt 2063 1960 L
2027 1924 mt 2027 1996 L
3153 1502 mt 3225 1502 L
3189 1466 mt 3189 1538 L
3855 2247 mt 3927 2247 L
3891 2211 mt 3891 2283 L
5700 2214 mt 5772 2214 L
5736 2178 mt 5736 2250 L
2680 3567 mt 2752 3567 L
2716 3531 mt 2716 3603 L
4631 1550 mt 4703 1550 L
4667 1514 mt 4667 1586 L
5071 2104 mt 5143 2104 L
5107 2068 mt 5107 2140 L
5245 1978 mt 5317 1978 L
5281 1942 mt 5281 2014 L
3313 2307 mt 3385 2307 L
3349 2271 mt 3349 2343 L
4719 2584 mt 4791 2584 L
4755 2548 mt 4755 2620 L
4643 2597 mt 4715 2597 L
4679 2561 mt 4679 2633 L
3791 2497 mt 3863 2497 L
3827 2461 mt 3827 2533 L
2432 2311 mt 2504 2311 L
2468 2275 mt 2468 2347 L
4306 1878 mt 4378 1878 L
4342 1842 mt 4342 1914 L
3123 3184 mt 3195 3184 L
3159 3148 mt 3159 3220 L
3566 3273 mt 3638 3273 L
3602 3237 mt 3602 3309 L
3885 2035 mt 3957 2035 L
3921 1999 mt 3921 2071 L
2502 3242 mt 2574 3242 L
2538 3206 mt 2538 3278 L
3330 2946 mt 3402 2946 L
3366 2910 mt 3366 2982 L
4094 1538 mt 4166 1538 L
4130 1502 mt 4130 1574 L
5002 2637 mt 5074 2637 L
5038 2601 mt 5038 2673 L
4789 2099 mt 4861 2099 L
4825 2063 mt 4825 2135 L
3867 4072 mt 3939 4072 L
3903 4036 mt 3903 4108 L
3116 3908 mt 3188 3908 L
3152 3872 mt 3152 3944 L
3616 1892 mt 3688 1892 L
3652 1856 mt 3652 1928 L
3066 2427 mt 3138 2427 L
3102 2391 mt 3102 2463 L
3302 2242 mt 3374 2242 L
3338 2206 mt 3338 2278 L
3398 2125 mt 3470 2125 L
3434 2089 mt 3434 2161 L
3033 3405 mt 3105 3405 L
3069 3369 mt 3069 3441 L
4435 1845 mt 4507 1845 L
4471 1809 mt 4471 1881 L
4338 3306 mt 4410 3306 L
4374 3270 mt 4374 3342 L
4444 2218 mt 4516 2218 L
4480 2182 mt 4480 2254 L
3599 2930 mt 3671 2930 L
3635 2894 mt 3635 2966 L
3694 2334 mt 3766 2334 L
3730 2298 mt 3730 2370 L
3605 1526 mt 3677 1526 L
3641 1490 mt 3641 1562 L
3927 2741 mt 3999 2741 L
3963 2705 mt 3963 2777 L
5365 2135 mt 5437 2135 L
5401 2099 mt 5401 2171 L
2662 2736 mt 2734 2736 L
2698 2700 mt 2698 2772 L
5531 3051 mt 5603 3051 L
5567 3015 mt 5567 3087 L
2545 2480 mt 2617 2480 L
2581 2444 mt 2581 2516 L
3370 2764 mt 3442 2764 L
3406 2728 mt 3406 2800 L
2146 2713 mt 2218 2713 L
2182 2677 mt 2182 2749 L
4836 2057 mt 4908 2057 L
4872 2021 mt 4872 2093 L
4886 2488 mt 4958 2488 L
4922 2452 mt 4922 2524 L
4922 1732 mt 4994 1732 L
4958 1696 mt 4958 1768 L
3255 3468 mt 3327 3468 L
3291 3432 mt 3291 3504 L
2959 2773 mt 3031 2773 L
2995 2737 mt 2995 2809 L
1619 2046 mt 1691 2046 L
1655 2010 mt 1655 2082 L
4463 1872 mt 4535 1872 L
4499 1836 mt 4499 1908 L
1907 2989 mt 1979 2989 L
1943 2953 mt 1943 3025 L
4274 3367 mt 4346 3367 L
4310 3331 mt 4310 3403 L
4501 2519 mt 4573 2519 L
4537 2483 mt 4537 2555 L
3319 1671 mt 3391 1671 L
3355 1635 mt 3355 1707 L
4067 1898 mt 4139 1898 L
4103 1862 mt 4103 1934 L
2732 2007 mt 2804 2007 L
2768 1971 mt 2768 2043 L
3588 2120 mt 3660 2120 L
3624 2084 mt 3624 2156 L
4236 1936 mt 4308 1936 L
4272 1900 mt 4272 1972 L
4355 3081 mt 4427 3081 L
4391 3045 mt 4391 3117 L
2903 2541 mt 2975 2541 L
2939 2505 mt 2939 2577 L
4290 2914 mt 4362 2914 L
4326 2878 mt 4326 2950 L
3915 1514 mt 3987 1514 L
3951 1478 mt 3951 1550 L
3638 3358 mt 3710 3358 L
3674 3322 mt 3674 3394 L
3706 3693 mt 3778 3693 L
3742 3657 mt 3742 3729 L
3226 1371 mt 3298 1371 L
3262 1335 mt 3262 1407 L
4805 1277 mt 4877 1277 L
4841 1241 mt 4841 1313 L
6225 3331 mt 6297 3331 L
6261 3295 mt 6261 3367 L
3921 2370 mt 3993 2370 L
3957 2334 mt 3957 2406 L
2355 1593 mt 2427 1593 L
2391 1557 mt 2391 1629 L
3410 1715 mt 3482 1715 L
3446 1679 mt 3446 1751 L
3797 1858 mt 3869 1858 L
3833 1822 mt 3833 1894 L
3621 3063 mt 3693 3063 L
3657 3027 mt 3657 3099 L
2267 1662 mt 2339 1662 L
2303 1626 mt 2303 1698 L
3505 3235 mt 3577 3235 L
3541 3199 mt 3541 3271 L
4228 2288 mt 4300 2288 L
4264 2252 mt 4264 2324 L
2341 2365 mt 2413 2365 L
2377 2329 mt 2377 2401 L
4128 2727 mt 4200 2727 L
4164 2691 mt 4164 2763 L
3723 2718 mt 3795 2718 L
3759 2682 mt 3759 2754 L
4314  957 mt 4386  957 L
4350  921 mt 4350  993 L
3879 1634 mt 3951 1634 L
3915 1598 mt 3915 1670 L
2575 1388 mt 2647 1388 L
2611 1352 mt 2611 1424 L
4775 2731 mt 4847 2731 L
4811 2695 mt 4811 2767 L
3996 2904 mt 4068 2904 L
4032 2868 mt 4032 2940 L
3243  564 mt 3315  564 L
3279  528 mt 3279  600 L
4121 1748 mt 4193 1748 L
4157 1712 mt 4157 1784 L
3129 2920 mt 3201 2920 L
3165 2884 mt 3165 2956 L
2757 2815 mt 2829 2815 L
2793 2779 mt 2793 2851 L
3376 3125 mt 3448 3125 L
3412 3089 mt 3412 3161 L
2706 2859 mt 2778 2859 L
2742 2823 mt 2742 2895 L
3521 1838 mt 3593 1838 L
3557 1802 mt 3557 1874 L
3649 2909 mt 3721 2909 L
3685 2873 mt 3685 2945 L
3946 3376 mt 4018 3376 L
3982 3340 mt 3982 3412 L
2924 1990 mt 2996 1990 L
2960 1954 mt 2960 2026 L
3555 3099 mt 3627 3099 L
3591 3063 mt 3591 3135 L
3672 2392 mt 3744 2392 L
3708 2356 mt 3708 2428 L
3544 2978 mt 3616 2978 L
3580 2942 mt 3580 3014 L
2938 2150 mt 3010 2150 L
2974 2114 mt 2974 2186 L
2586 2418 mt 2658 2418 L
2622 2382 mt 2622 2454 L
2595 1561 mt 2667 1561 L
2631 1525 mt 2631 1597 L
3820 1643 mt 3892 1643 L
3856 1607 mt 3856 1679 L
3958 2830 mt 4030 2830 L
3994 2794 mt 3994 2866 L
2910 2170 mt 2982 2170 L
2946 2134 mt 2946 2206 L
4184 1764 mt 4256 1764 L
4220 1728 mt 4220 1800 L
3838 3131 mt 3910 3131 L
3874 3095 mt 3874 3167 L
4425 3479 mt 4497 3479 L
4461 3443 mt 4461 3515 L
4156 1802 mt 4228 1802 L
4192 1766 mt 4192 1838 L
3147 3164 mt 3219 3164 L
3183 3128 mt 3183 3200 L
4107 1823 mt 4179 1823 L
4143 1787 mt 4143 1859 L
3078 4305 mt 3150 4305 L
3114 4269 mt 3114 4341 L
3342 3069 mt 3414 3069 L
3378 3033 mt 3378 3105 L
3296 2801 mt 3368 2801 L
3332 2765 mt 3332 2837 L
3903 2140 mt 3975 2140 L
3939 2104 mt 3939 2176 L
3460 3265 mt 3532 3265 L
3496 3229 mt 3496 3301 L
2218 2051 mt 2290 2051 L
2254 2015 mt 2254 2087 L
3220 1865 mt 3292 1865 L
3256 1829 mt 3256 1901 L
2896 3112 mt 2968 3112 L
2932 3076 mt 2932 3148 L
3661 1462 mt 3733 1462 L
3697 1426 mt 3697 1498 L
3432 3395 mt 3504 3395 L
3468 3359 mt 3468 3431 L
3757 3797 mt 3829 3797 L
3793 3761 mt 3793 3833 L
3549 3281 mt 3621 3281 L
3585 3245 mt 3585 3317 L
2513 3022 mt 2585 3022 L
2549 2986 mt 2549 3058 L
3644 2567 mt 3716 2567 L
3680 2531 mt 3680 2603 L
3655 1448 mt 3727 1448 L
3691 1412 mt 3691 1484 L
2652 2405 mt 2724 2405 L
2688 2369 mt 2688 2441 L
3387 1972 mt 3459 1972 L
3423 1936 mt 3423 2008 L
3560 2194 mt 3632 2194 L
3596 2158 mt 3596 2230 L
3040 2228 mt 3112 2228 L
3076 2192 mt 3076 2264 L
4074 2298 mt 4146 2298 L
4110 2262 mt 4110 2334 L
3166 2475 mt 3238 2475 L
3202 2439 mt 3202 2511 L
3085 1152 mt 3157 1152 L
3121 1116 mt 3121 1188 L
3610 3822 mt 3682 3822 L
3646 3786 mt 3646 3858 L
1805 3227 mt 1877 3227 L
1841 3191 mt 1841 3263 L
2740 2673 mt 2812 2673 L
2776 2637 mt 2776 2709 L
3284 2967 mt 3356 2967 L
3320 2931 mt 3320 3003 L
2715 2704 mt 2787 2704 L
2751 2668 mt 2751 2740 L
4941 3340 mt 5013 3340 L
4977 3304 mt 4977 3376 L
2282 3206 mt 2354 3206 L
2318 3170 mt 2318 3242 L
2859 3595 mt 2931 3595 L
2895 3559 mt 2895 3631 L
3353 2067 mt 3425 2067 L
3389 2031 mt 3389 2103 L
3336 2894 mt 3408 2894 L
3372 2858 mt 3372 2930 L
2479 2951 mt 2551 2951 L
2515 2915 mt 2515 2987 L
4655 1930 mt 4727 1930 L
4691 1894 mt 4691 1966 L
3814 2029 mt 3886 2029 L
3850 1993 mt 3850 2065 L
4009 2189 mt 4081 2189 L
4045 2153 mt 4045 2225 L
1965 2691 mt 2037 2691 L
2001 2655 mt 2001 2727 L
2643 1087 mt 2715 1087 L
2679 1051 mt 2679 1123 L
3633 1995 mt 3705 1995 L
3669 1959 mt 3669 2031 L
2126 2338 mt 2198 2338 L
2162 2302 mt 2162 2374 L
1259 2750 mt 1331 2750 L
1295 2714 mt 1295 2786 L
2952 3752 mt 3024 3752 L
2988 3716 mt 2988 3788 L
1937 2854 mt 2009 2854 L
1973 2818 mt 1973 2890 L
4904 2545 mt 4976 2545 L
4940 2509 mt 4940 2581 L
3104 1756 mt 3176 1756 L
3140 1720 mt 3140 1792 L
5096 2549 mt 5168 2549 L
5132 2513 mt 5132 2585 L
3683 2388 mt 3755 2388 L
3719 2352 mt 3719 2424 L
2813 3106 mt 2885 3106 L
2849 3070 mt 2849 3142 L
3208 2650 mt 3280 2650 L
3244 2614 mt 3244 2686 L
2016 2615 mt 2088 2615 L
2052 2579 mt 2052 2651 L
3532 2160 mt 3604 2160 L
3568 2124 mt 3568 2196 L
4213 3198 mt 4285 3198 L
4249 3162 mt 4249 3234 L
2993 2677 mt 3065 2677 L
3029 2641 mt 3029 2713 L
4522 2782 mt 4594 2782 L
4558 2746 mt 4558 2818 L
3454 2935 mt 3526 2935 L
3490 2899 mt 3490 2971 L
3415 2700 mt 3487 2700 L
3451 2664 mt 3451 2736 L
3072 1923 mt 3144 1923 L
3108 1887 mt 3108 1959 L
4054 1336 mt 4126 1336 L
4090 1300 mt 4090 1372 L
2183 1772 mt 2255 1772 L
2219 1736 mt 2219 1808 L
2201 1049 mt 2273 1049 L
2237 1013 mt 2237 1085 L
3466 3017 mt 3538 3017 L
3502 2981 mt 3502 3053 L
4142 2223 mt 4214 2223 L
4178 2187 mt 4178 2259 L
3751 3137 mt 3823 3137 L
3787 3101 mt 3787 3173 L
3666 2879 mt 3738 2879 L
3702 2843 mt 3702 2915 L
3768 2493 mt 3840 2493 L
3804 2457 mt 3804 2529 L
3214 2145 mt 3286 2145 L
3250 2109 mt 3250 2181 L
3909 3942 mt 3981 3942 L
3945 3906 mt 3945 3978 L
2765 2115 mt 2837 2115 L
2801 2079 mt 2801 2151 L
3007 2209 mt 3079 2209 L
3043 2173 mt 3043 2245 L
1766 2956 mt 1838 2956 L
1802 2920 mt 1802 2992 L
1387 2889 mt 1459 2889 L
1423 2853 mt 1423 2925 L
1556 2532 mt 1628 2532 L
1592 2496 mt 1592 2568 L
2085 3087 mt 2157 3087 L
2121 3051 mt 2121 3123 L
2468 2695 mt 2540 2695 L
2504 2659 mt 2504 2731 L
4163 2073 mt 4235 2073 L
4199 2037 mt 4199 2109 L
2251 1298 mt 2323 1298 L
2287 1262 mt 2287 1334 L
2821 3877 mt 2893 3877 L
2857 3841 mt 2857 3913 L
2534 1006 mt 2606 1006 L
2570  970 mt 2570 1042 L
3098 2628 mt 3170 2628 L
3134 2592 mt 3134 2664 L
4170 3250 mt 4242 3250 L
4206 3214 mt 4206 3286 L
3477 2275 mt 3549 2275 L
3513 2239 mt 3513 2311 L
5122 2611 mt 5194 2611 L
5158 2575 mt 5158 2647 L
3141 2940 mt 3213 2940 L
3177 2904 mt 3177 2976 L
3347 3711 mt 3419 3711 L
3383 3675 mt 3383 3747 L
3493 2251 mt 3565 2251 L
3529 2215 mt 3529 2287 L
4191 2284 mt 4263 2284 L
4227 2248 mt 4227 2320 L
3046 3057 mt 3118 3057 L
3082 3021 mt 3082 3093 L
4680 3625 mt 4752 3625 L
4716 3589 mt 4716 3661 L
3891 2884 mt 3963 2884 L
3927 2848 mt 3927 2920 L
3471 1966 mt 3543 1966 L
3507 1930 mt 3507 2002 L
3977 2316 mt 4049 2316 L
4013 2280 mt 4013 2352 L
3740 2432 mt 3812 2432 L
3776 2396 mt 3776 2468 L
2327 2745 mt 2399 2745 L
2363 2709 mt 2363 2781 L
2828 2347 mt 2900 2347 L
2864 2311 mt 2864 2383 L
2866 1723 mt 2938 1723 L
2902 1687 mt 2902 1759 L
2063 2778 mt 2135 2778 L
2099 2742 mt 2099 2814 L
4553 2501 mt 4625 2501 L
4589 2465 mt 4589 2537 L
2836 2383 mt 2908 2383 L
2872 2347 mt 2872 2419 L
4282 1181 mt 4354 1181 L
4318 1145 mt 4318 1217 L
3426 1680 mt 3498 1680 L
3462 1644 mt 3462 1716 L
1842 2787 mt 1914 2787 L
1878 2751 mt 1878 2823 L
3267 1698 mt 3339 1698 L
3303 1662 mt 3303 1734 L
3290 3314 mt 3362 3314 L
3326 3278 mt 3326 3350 L
3516 1851 mt 3588 1851 L
3552 1815 mt 3552 1887 L
2966 3000 mt 3038 3000 L
3002 2964 mt 3002 3036 L
2444 3257 mt 2516 3257 L
2480 3221 mt 2480 3293 L
2165 2165 mt 2237 2165 L
2201 2129 mt 2201 2201 L
3261 2440 mt 3333 2440 L
3297 2404 mt 3297 2476 L
2781 3436 mt 2853 3436 L
2817 3400 mt 2817 3472 L
3964 1614 mt 4036 1614 L
4000 1578 mt 4000 1650 L
4693 2633 mt 4765 2633 L
4729 2597 mt 4729 2669 L
2456 3774 mt 2528 3774 L
2492 3738 mt 2492 3810 L
1876 1911 mt 1948 1911 L
1912 1875 mt 1912 1947 L
2312 2983 mt 2384 2983 L
2348 2947 mt 2348 3019 L
4574 2329 mt 4646 2329 L
4610 2293 mt 4610 2365 L
3582 3220 mt 3654 3220 L
3618 3184 mt 3618 3256 L
3438 3581 mt 3510 3581 L
3474 3545 mt 3474 3617 L
4080 2265 mt 4152 2265 L
4116 2229 mt 4116 2301 L
2917 2374 mt 2989 2374 L
2953 2338 mt 2953 2410 L
3734 2606 mt 3806 2606 L
3770 2570 mt 3770 2642 L
3873 3425 mt 3945 3425 L
3909 3389 mt 3909 3461 L
4100 3289 mt 4172 3289 L
4136 3253 mt 4136 3325 L
4564 3045 mt 4636 3045 L
4600 3009 mt 4600 3081 L
2523 2471 mt 2595 2471 L
2559 2435 mt 2559 2507 L
3745 2180 mt 3817 2180 L
3781 2144 mt 3781 2216 L
2697 2641 mt 2769 2641 L
2733 2605 mt 2733 2677 L
2980 3178 mt 3052 3178 L
3016 3142 mt 3016 3214 L
4453 1318 mt 4525 1318 L
4489 1282 mt 4489 1354 L
3850 3446 mt 3922 3446 L
3886 3410 mt 3886 3482 L
1481 2571 mt 1553 2571 L
1517 2535 mt 1517 2607 L
2931 3980 mt 3003 3980 L
2967 3944 mt 2967 4016 L
3381 2012 mt 3453 2012 L
3417 1976 mt 3417 2048 L
3160 1779 mt 3232 1779 L
3196 1743 mt 3196 1815 L
2851 2874 mt 2923 2874 L
2887 2838 mt 2887 2910 L
3027 2554 mt 3099 2554 L
3063 2518 mt 3063 2590 L
4002 2130 mt 4074 2130 L
4038 2094 mt 4038 2166 L
3809 3540 mt 3881 3540 L
3845 3504 mt 3845 3576 L
4347 2024 mt 4419 2024 L
4383 1988 mt 4383 2060 L
2565 2580 mt 2637 2580 L
2601 2544 mt 2601 2616 L
3278 2089 mt 3350 2089 L
3314 2053 mt 3314 2125 L
3196 1653 mt 3268 1653 L
3232 1617 mt 3232 1689 L
2797 2356 mt 2869 2356 L
2833 2320 mt 2833 2392 L
2749 2593 mt 2821 2593 L
2785 2557 mt 2785 2629 L
3178 2449 mt 3250 2449 L
3214 2413 mt 3214 2485 L
3053 1948 mt 3125 1948 L
3089 1912 mt 3089 1984 L
2407 1689 mt 2479 1689 L
2443 1653 mt 2443 1725 L
3232 2343 mt 3304 2343 L
3268 2307 mt 3268 2379 L
1722 2233 mt 1794 2233 L
1758 2197 mt 1758 2269 L
2555 2185 mt 2627 2185 L
2591 2149 mt 2591 2221 L
3013 1476 mt 3085 1476 L
3049 1440 mt 3049 1512 L
2490 2796 mt 2562 2796 L
2526 2760 mt 2526 2832 L
3488 1984 mt 3560 1984 L
3524 1948 mt 3524 2020 L
3184 3553 mt 3256 3553 L
3220 3517 mt 3220 3589 L
3443 1624 mt 3515 1624 L
3479 1588 mt 3479 1660 L
2805 3005 mt 2877 3005 L
2841 2969 mt 2841 3041 L
2973 2754 mt 3045 2754 L
3009 2718 mt 3009 2790 L
2298 1232 mt 2370 1232 L
2334 1196 mt 2334 1268 L
5024 1354 mt 5096 1354 L
5060 1318 mt 5060 1390 L
5468 2994 mt 5540 2994 L
5504 2958 mt 5504 3030 L
3594 2820 mt 3666 2820 L
3630 2784 mt 3630 2856 L
4512 1404 mt 4584 1404 L
4548 1368 mt 4548 1440 L
3325 2175 mt 3397 2175 L
3361 2139 mt 3361 2211 L
3527 2562 mt 3599 2562 L
3563 2526 mt 3563 2598 L
4820 3028 mt 4892 3028 L
4856 2992 mt 4856 3064 L
3971 1707 mt 4043 1707 L
4007 1671 mt 4007 1743 L
3571 3157 mt 3643 3157 L
3607 3121 mt 3607 3193 L
3700 3349 mt 3772 3349 L
3736 3313 mt 3736 3385 L
2789 2109 mt 2861 2109 L
2825 2073 mt 2825 2145 L
2420 2768 mt 2492 2768 L
2456 2732 mt 2456 2804 L
3940 2510 mt 4012 2510 L
3976 2474 mt 3976 2546 L
4047 1207 mt 4119 1207 L
4083 1171 mt 4083 1243 L
4206 1904 mt 4278 1904 L
4242 1868 mt 4242 1940 L
2106 1489 mt 2178 1489 L
2142 1453 mt 2142 1525 L
3110 2462 mt 3182 2462 L
3146 2426 mt 3146 2498 L
3844 3151 mt 3916 3151 L
3880 3115 mt 3880 3187 L
gs 899 414 5363 4203 rc
gr

0 sg
2826 5104 mt 
(\(F,DCTs,MLP\)) s
 482 3259 mt  -90 rotate
(\(S,PAC,GMM\)) s
90 rotate
2905  223 mt 
(Corr = -0.01) s

end %%Color Dict

eplot
%%EndObject

epage
end

showpage

%%Trailer
%%EOF
