%!PS-Adobe-3.0 EPSF-3.0
%%Creator: MATLAB, The Mathworks, Inc. Version 7.7.0.471 (R2008b). Operating System: Microsoft Windows XP.
%%Title: Pictures\main_zoo_mvar_analysis_data_BMI_xcorr_bmig_p1_k2_6_7.eps
%%CreationDate: 10/26/2009  05:45:31
%%DocumentNeededFonts: Helvetica
%%DocumentProcessColors: Cyan Magenta Yellow Black
%%LanguageLevel: 2
%%Pages: 1
%%BoundingBox:    37   180   549   616
%%EndComments

%%BeginProlog
% MathWorks dictionary
/MathWorks 160 dict begin
% definition operators
/bdef {bind def} bind def
/ldef {load def} bind def
/xdef {exch def} bdef
/xstore {exch store} bdef
% operator abbreviations
/c  /clip ldef
/cc /concat ldef
/cp /closepath ldef
/gr /grestore ldef
/gs /gsave ldef
/mt /moveto ldef
/np /newpath ldef
/cm /currentmatrix ldef
/sm /setmatrix ldef
/rm /rmoveto ldef
/rl /rlineto ldef
/s {show newpath} bdef
/sc {setcmykcolor} bdef
/sr /setrgbcolor ldef
/sg /setgray ldef
/w /setlinewidth ldef
/j /setlinejoin ldef
/cap /setlinecap ldef
/rc {rectclip} bdef
/rf {rectfill} bdef
% page state control
/pgsv () def
/bpage {/pgsv save def} bdef
/epage {pgsv restore} bdef
/bplot /gsave ldef
/eplot {stroke grestore} bdef
% orientation switch
/portraitMode 0 def /landscapeMode 1 def /rotateMode 2 def
% coordinate system mappings
/dpi2point 0 def
% font control
/FontSize 0 def
/FMS {/FontSize xstore findfont [FontSize 0 0 FontSize neg 0 0]
  makefont setfont} bdef
/ISOLatin1Encoding where {pop /WindowsLatin1Encoding 256 array bdef
ISOLatin1Encoding WindowsLatin1Encoding copy pop
/.notdef/.notdef/quotesinglbase/florin/quotedblbase/ellipsis/dagger
/daggerdbl/circumflex/perthousand/Scaron/guilsinglleft/OE/.notdef/.notdef
/.notdef/.notdef/quoteleft/quoteright/quotedblleft/quotedblright/bullet
/endash/emdash/tilde/trademark/scaron/guilsinglright/oe/.notdef/.notdef
/Ydieresis WindowsLatin1Encoding 128 32 getinterval astore pop}
{/WindowsLatin1Encoding StandardEncoding bdef} ifelse
/reencode {exch dup where {pop load} {pop StandardEncoding} ifelse
  exch dup 3 1 roll findfont dup length dict begin
  { 1 index /FID ne {def}{pop pop} ifelse } forall
  /Encoding exch def currentdict end definefont pop} bdef
/isroman {findfont /CharStrings get /Agrave known} bdef
/FMSR {3 1 roll 1 index dup isroman {reencode} {pop pop} ifelse
  exch FMS} bdef
/csm {1 dpi2point div -1 dpi2point div scale neg translate
 dup landscapeMode eq {pop -90 rotate}
  {rotateMode eq {90 rotate} if} ifelse} bdef
% line types: solid, dotted, dashed, dotdash
/SO { [] 0 setdash } bdef
/DO { [.5 dpi2point mul 4 dpi2point mul] 0 setdash } bdef
/DA { [6 dpi2point mul] 0 setdash } bdef
/DD { [.5 dpi2point mul 4 dpi2point mul 6 dpi2point mul 4
  dpi2point mul] 0 setdash } bdef
% macros for lines and objects
/L {lineto stroke} bdef
/MP {3 1 roll moveto 1 sub {rlineto} repeat} bdef
/AP {{rlineto} repeat} bdef
/PDlw -1 def
/W {/PDlw currentlinewidth def setlinewidth} def
/PP {closepath eofill} bdef
/DP {closepath stroke} bdef
/MR {4 -2 roll moveto dup  0 exch rlineto exch 0 rlineto
  neg 0 exch rlineto closepath} bdef
/FR {MR stroke} bdef
/PR {MR fill} bdef
/L1i {{currentfile picstr readhexstring pop} image} bdef
/tMatrix matrix def
/MakeOval {newpath tMatrix currentmatrix pop translate scale
0 0 1 0 360 arc tMatrix setmatrix} bdef
/FO {MakeOval stroke} bdef
/PO {MakeOval fill} bdef
/PD {currentlinewidth 2 div 0 360 arc fill
   PDlw -1 eq not {PDlw w /PDlw -1 def} if} def
/FA {newpath tMatrix currentmatrix pop translate scale
  0 0 1 5 -2 roll arc tMatrix setmatrix stroke} bdef
/PA {newpath tMatrix currentmatrix pop	translate 0 0 moveto scale
  0 0 1 5 -2 roll arc closepath tMatrix setmatrix fill} bdef
/FAn {newpath tMatrix currentmatrix pop translate scale
  0 0 1 5 -2 roll arcn tMatrix setmatrix stroke} bdef
/PAn {newpath tMatrix currentmatrix pop translate 0 0 moveto scale
  0 0 1 5 -2 roll arcn closepath tMatrix setmatrix fill} bdef
/vradius 0 def /hradius 0 def /lry 0 def
/lrx 0 def /uly 0 def /ulx 0 def /rad 0 def
/MRR {/vradius xdef /hradius xdef /lry xdef /lrx xdef /uly xdef
  /ulx xdef newpath tMatrix currentmatrix pop ulx hradius add uly
  vradius add translate hradius vradius scale 0 0 1 180 270 arc 
  tMatrix setmatrix lrx hradius sub uly vradius add translate
  hradius vradius scale 0 0 1 270 360 arc tMatrix setmatrix
  lrx hradius sub lry vradius sub translate hradius vradius scale
  0 0 1 0 90 arc tMatrix setmatrix ulx hradius add lry vradius sub
  translate hradius vradius scale 0 0 1 90 180 arc tMatrix setmatrix
  closepath} bdef
/FRR {MRR stroke } bdef
/PRR {MRR fill } bdef
/MlrRR {/lry xdef /lrx xdef /uly xdef /ulx xdef /rad lry uly sub 2 div def
  newpath tMatrix currentmatrix pop ulx rad add uly rad add translate
  rad rad scale 0 0 1 90 270 arc tMatrix setmatrix lrx rad sub lry rad
  sub translate rad rad scale 0 0 1 270 90 arc tMatrix setmatrix
  closepath} bdef
/FlrRR {MlrRR stroke } bdef
/PlrRR {MlrRR fill } bdef
/MtbRR {/lry xdef /lrx xdef /uly xdef /ulx xdef /rad lrx ulx sub 2 div def
  newpath tMatrix currentmatrix pop ulx rad add uly rad add translate
  rad rad scale 0 0 1 180 360 arc tMatrix setmatrix lrx rad sub lry rad
  sub translate rad rad scale 0 0 1 0 180 arc tMatrix setmatrix
  closepath} bdef
/FtbRR {MtbRR stroke } bdef
/PtbRR {MtbRR fill } bdef
/stri 6 array def /dtri 6 array def
/smat 6 array def /dmat 6 array def
/tmat1 6 array def /tmat2 6 array def /dif 3 array def
/asub {/ind2 exch def /ind1 exch def dup dup
  ind1 get exch ind2 get sub exch } bdef
/tri_to_matrix {
  2 0 asub 3 1 asub 4 0 asub 5 1 asub
  dup 0 get exch 1 get 7 -1 roll astore } bdef
/compute_transform {
  dmat dtri tri_to_matrix tmat1 invertmatrix 
  smat stri tri_to_matrix tmat2 concatmatrix } bdef
/ds {stri astore pop} bdef
/dt {dtri astore pop} bdef
/db {2 copy /cols xdef /rows xdef mul dup 3 mul string
  currentfile 
  3 index 0 eq {/ASCIIHexDecode filter}
  {/ASCII85Decode filter 3 index 2 eq {/RunLengthDecode filter} if }
  ifelse exch readstring pop
  dup 0 3 index getinterval /rbmap xdef
  dup 2 index dup getinterval /gbmap xdef
  1 index dup 2 mul exch getinterval /bbmap xdef pop pop}bdef
/it {gs np dtri aload pop moveto lineto lineto cp c
  cols rows 8 compute_transform 
  rbmap gbmap bbmap true 3 colorimage gr}bdef
/il {newpath moveto lineto stroke}bdef
currentdict end def
%%EndProlog

%%BeginSetup
MathWorks begin

0 cap

end
%%EndSetup

%%Page: 1 1
%%BeginPageSetup
%%PageBoundingBox:    37   180   549   616
MathWorks begin
bpage
%%EndPageSetup

%%BeginObject: obj1
bplot

/dpi2point 12 def
portraitMode 0216 7344 csm

  234   -48  6149  5231 rc
85 dict begin %Colortable dictionary
/c0 { 0.000000 0.000000 0.000000 sr} bdef
/c1 { 1.000000 1.000000 1.000000 sr} bdef
/c2 { 0.900000 0.000000 0.000000 sr} bdef
/c3 { 0.000000 0.820000 0.000000 sr} bdef
/c4 { 0.000000 0.000000 0.800000 sr} bdef
/c5 { 0.910000 0.820000 0.320000 sr} bdef
/c6 { 1.000000 0.260000 0.820000 sr} bdef
/c7 { 0.000000 0.820000 0.820000 sr} bdef
c0
1 j
1 sg
   0    0 6919 5187 rf
6 w
0 4202 5362 0 0 -4202 899 4616 4 MP
PP
-5362 0 0 4202 5362 0 0 -4202 899 4616 5 MP stroke
4 w
DO
SO
6 w
0 sg
 899  414 mt 6261  414 L
 899 4616 mt 6261 4616 L
6261 4616 mt 6261  414 L
 899 4616 mt  899  414 L
 899 4616 mt 6261 4616 L
 899 4616 mt  899  414 L
 919 4616 mt  919 4562 L
 919  414 mt  919  467 L
%%IncludeResource: font Helvetica
/Helvetica /WindowsLatin1Encoding 240 FMSR

 713 4873 mt 
(-3) s
1806 4616 mt 1806 4562 L
1806  414 mt 1806  467 L
1600 4873 mt 
(-2) s
2693 4616 mt 2693 4562 L
2693  414 mt 2693  467 L
2487 4873 mt 
(-1) s
3580 4616 mt 3580 4562 L
3580  414 mt 3580  467 L
3514 4873 mt 
(0) s
4466 4616 mt 4466 4562 L
4466  414 mt 4466  467 L
4400 4873 mt 
(1) s
5353 4616 mt 5353 4562 L
5353  414 mt 5353  467 L
5287 4873 mt 
(2) s
6240 4616 mt 6240 4562 L
6240  414 mt 6240  467 L
6174 4873 mt 
(3) s
 899 4599 mt  952 4599 L
6261 4599 mt 6207 4599 L
 591 4688 mt 
(-3) s
 899 3904 mt  952 3904 L
6261 3904 mt 6207 3904 L
 591 3993 mt 
(-2) s
 899 3209 mt  952 3209 L
6261 3209 mt 6207 3209 L
 591 3298 mt 
(-1) s
 899 2514 mt  952 2514 L
6261 2514 mt 6207 2514 L
 731 2603 mt 
(0) s
 899 1820 mt  952 1820 L
6261 1820 mt 6207 1820 L
 731 1909 mt 
(1) s
 899 1125 mt  952 1125 L
6261 1125 mt 6207 1125 L
 731 1214 mt 
(2) s
 899  430 mt  952  430 L
6261  430 mt 6207  430 L
 731  519 mt 
(3) s
 899  414 mt 6261  414 L
 899 4616 mt 6261 4616 L
6261 4616 mt 6261  414 L
 899 4616 mt  899  414 L
gs 899 414 5363 4203 rc
gr

/c8 { 0.000000 0.000000 1.000000 sr} bdef
c8
3421 1653 mt 3493 1653 L
3457 1617 mt 3457 1689 L
3313 2293 mt 3385 2293 L
3349 2257 mt 3349 2329 L
3838 3022 mt 3910 3022 L
3874 2986 mt 3874 3058 L
3307 2057 mt 3379 2057 L
3343 2021 mt 3343 2093 L
3946 1689 mt 4018 1689 L
3982 1653 mt 3982 1725 L
3989 2558 mt 4061 2558 L
4025 2522 mt 4025 2594 L
2828 1898 mt 2900 1898 L
2864 1862 mt 2864 1934 L
2859 2673 mt 2931 2673 L
2895 2637 mt 2895 2709 L
2468 1948 mt 2540 1948 L
2504 1912 mt 2504 1984 L
4886 2414 mt 4958 2414 L
4922 2378 mt 4922 2450 L
2586 2338 mt 2658 2338 L
2622 2302 mt 2622 2374 L
3482 2889 mt 3554 2889 L
3518 2853 mt 3518 2925 L
4282 1978 mt 4354 1978 L
4318 1942 mt 4318 2014 L
3449 2379 mt 3521 2379 L
3485 2343 mt 3485 2415 L
4732 1960 mt 4804 1960 L
4768 1924 mt 4768 1996 L
2183 2155 mt 2255 2155 L
2219 2119 mt 2219 2191 L
2866 2920 mt 2938 2920 L
2902 2884 mt 2902 2956 L
3387 3848 mt 3459 3848 L
3423 3812 mt 3423 3884 L
2973 2233 mt 3045 2233 L
3009 2197 mt 3009 2269 L
3599 2549 mt 3671 2549 L
3635 2513 mt 3635 2585 L
3319 2242 mt 3391 2242 L
3355 2206 mt 3355 2278 L
4034 3797 mt 4106 3797 L
4070 3761 mt 4070 3833 L
3000 1764 mt 3072 1764 L
3036 1728 mt 3036 1800 L
3477 2370 mt 3549 2370 L
3513 2334 mt 3513 2406 L
4981 2140 mt 5053 2140 L
5017 2104 mt 5017 2176 L
4719 2480 mt 4791 2480 L
4755 2444 mt 4755 2516 L
3214 2528 mt 3286 2528 L
3250 2492 mt 3250 2564 L
4381 2237 mt 4453 2237 L
4417 2201 mt 4417 2273 L
2146 1794 mt 2218 1794 L
2182 1758 mt 2182 1830 L
2267 2251 mt 2339 2251 L
2303 2215 mt 2303 2287 L
4080 2646 mt 4152 2646 L
4116 2610 mt 4116 2682 L
2945 2209 mt 3017 2209 L
2981 2173 mt 2981 2245 L
2407 2700 mt 2479 2700 L
2443 2664 mt 2443 2736 L
3666 2840 mt 3738 2840 L
3702 2804 mt 3702 2876 L
3751 1707 mt 3823 1707 L
3787 1671 mt 3787 1743 L
3172 2835 mt 3244 2835 L
3208 2799 mt 3208 2871 L
2523 2580 mt 2595 2580 L
2559 2544 mt 2559 2616 L
3797 1984 mt 3869 1984 L
3833 1948 mt 3833 2020 L
3757 1388 mt 3829 1388 L
3793 1352 mt 3793 1424 L
2813 1858 mt 2885 1858 L
2849 1822 mt 2849 1894 L
3921 2909 mt 3993 2909 L
3957 2873 mt 3957 2945 L
4364 1298 mt 4436 1298 L
4400 1262 mt 4400 1334 L
4028 2334 mt 4100 2334 L
4064 2298 mt 4064 2370 L
3826 3349 mt 3898 3349 L
3862 3313 mt 3862 3385 L
3178 3017 mt 3250 3017 L
3214 2981 mt 3214 3053 L
3616 2396 mt 3688 2396 L
3652 2360 mt 3652 2432 L
3085 1802 mt 3157 1802 L
3121 1766 mt 3121 1838 L
3694 2519 mt 3766 2519 L
3730 2483 mt 3730 2555 L
3404 3045 mt 3476 3045 L
3440 3009 mt 3440 3081 L
5180 2611 mt 5252 2611 L
5216 2575 mt 5216 2647 L
2341 2298 mt 2413 2298 L
2377 2262 mt 2377 2334 L
2851 2361 mt 2923 2361 L
2887 2325 mt 2887 2397 L
3958 2864 mt 4030 2864 L
3994 2828 mt 3994 2900 L
2444 2619 mt 2516 2619 L
2480 2583 mt 2480 2655 L
3493 2628 mt 3565 2628 L
3529 2592 mt 3529 2664 L
3160 2972 mt 3232 2972 L
3196 2936 mt 3196 3008 L
3116 2423 mt 3188 2423 L
3152 2387 mt 3152 2459 L
4482 2682 mt 4554 2682 L
4518 2646 mt 4518 2718 L
2085 1954 mt 2157 1954 L
2121 1918 mt 2121 1990 L
4290 2347 mt 4362 2347 L
4326 2311 mt 4326 2383 L
3267 3395 mt 3339 3395 L
3303 3359 mt 3303 3431 L
2757 2223 mt 2829 2223 L
2793 2187 mt 2793 2259 L
3549 3468 mt 3621 3468 L
3585 3432 mt 3585 3504 L
3208 1816 mt 3280 1816 L
3244 1780 mt 3244 1852 L
2671 2754 mt 2743 2754 L
2707 2718 mt 2707 2790 L
4177 2633 mt 4249 2633 L
4213 2597 mt 4213 2669 L
2844 2284 mt 2916 2284 L
2880 2248 mt 2880 2320 L
3342 2185 mt 3414 2185 L
3378 2149 mt 3378 2221 L
3398 1851 mt 3470 1851 L
3434 1815 mt 3434 1887 L
3046 1181 mt 3118 1181 L
3082 1145 mt 3082 1217 L
3460 1892 mt 3532 1892 L
3496 1856 mt 3496 1928 L
4501 2951 mt 4573 2951 L
4537 2915 mt 4537 2987 L
3255 2602 mt 3327 2602 L
3291 2566 mt 3291 2638 L
3353 1336 mt 3425 1336 L
3389 1300 mt 3389 1372 L
2355 2356 mt 2427 2356 L
2391 2320 mt 2391 2392 L
3196 4072 mt 3268 4072 L
3232 4036 mt 3232 4108 L
3104 3178 mt 3176 3178 L
3140 3142 mt 3140 3214 L
3610 1354 mt 3682 1354 L
3646 1318 mt 3646 1390 L
3964 2040 mt 4036 2040 L
4000 2004 mt 4000 2076 L
2595 2029 mt 2667 2029 L
2631 1993 mt 2631 2065 L
2381 1809 mt 2453 1809 L
2417 1773 mt 2417 1845 L
3410 3540 mt 3482 3540 L
3446 3504 mt 3446 3576 L
2966 2709 mt 3038 2709 L
3002 2673 mt 3002 2745 L
3891 1087 mt 3963 1087 L
3927 1051 mt 3927 1123 L
3791 1972 mt 3863 1972 L
3827 1936 mt 3827 2008 L
3020 3567 mt 3092 3567 L
3056 3531 mt 3056 3603 L
2959 1448 mt 3031 1448 L
2995 1412 mt 2995 1484 L
3909 2659 mt 3981 2659 L
3945 2623 mt 3945 2695 L
4100 3425 mt 4172 3425 L
4136 3389 mt 4136 3461 L
4002 1207 mt 4074 1207 L
4038 1171 mt 4038 1243 L
1907 1502 mt 1979 1502 L
1943 1466 mt 1943 1538 L
3934 1838 mt 4006 1838 L
3970 1802 mt 3970 1874 L
2456 2160 mt 2528 2160 L
2492 2124 mt 2492 2196 L
2888 2554 mt 2960 2554 L
2924 2518 mt 2924 2590 L
2715 2820 mt 2787 2820 L
2751 2784 mt 2751 2856 L
4631 2589 mt 4703 2589 L
4667 2553 mt 4667 2625 L
3347 2501 mt 3419 2501 L
3383 2465 mt 3383 2537 L
2634 1671 mt 2706 1671 L
2670 1635 mt 2670 1707 L
2534 3877 mt 2606 3877 L
2570 3841 mt 2570 3913 L
4054 1514 mt 4126 1514 L
4090 1478 mt 4090 1550 L
4322 2099 mt 4394 2099 L
4358 2063 mt 4358 2135 L
4564 2506 mt 4636 2506 L
4600 2470 mt 4600 2542 L
3897 3405 mt 3969 3405 L
3933 3369 mt 3933 3441 L
2201 4131 mt 2273 4131 L
2237 4095 mt 2237 4167 L
2723 2844 mt 2795 2844 L
2759 2808 mt 2759 2880 L
4243 1878 mt 4315 1878 L
4279 1842 mt 4279 1914 L
3649 1872 mt 3721 1872 L
3685 1836 mt 3685 1908 L
4121 2145 mt 4193 2145 L
4157 2109 mt 4157 2181 L
3147 2759 mt 3219 2759 L
3183 2723 mt 3183 2795 L
3466 2475 mt 3538 2475 L
3502 2439 mt 3502 2511 L
4199 3131 mt 4271 3131 L
4235 3095 mt 4235 3167 L
3582 2768 mt 3654 2768 L
3618 2732 mt 3618 2804 L
2706 3376 mt 2778 3376 L
2742 3340 mt 2742 3412 L
3879 1917 mt 3951 1917 L
3915 1881 mt 3915 1953 L
2327 3503 mt 2399 3503 L
2363 3467 mt 2363 3539 L
3123 3051 mt 3195 3051 L
3159 3015 mt 3159 3087 L
3762 1593 mt 3834 1593 L
3798 1557 mt 3798 1629 L
4372 2316 mt 4444 2316 L
4408 2280 mt 4408 2352 L
2896 2894 mt 2968 2894 L
2932 2858 mt 2932 2930 L
3059 2383 mt 3131 2383 L
3095 2347 mt 3095 2419 L
3471 2288 mt 3543 2288 L
3507 2252 mt 3507 2324 L
3832 2307 mt 3904 2307 L
3868 2271 mt 3868 2343 L
2821 2125 mt 2893 2125 L
2857 2089 mt 2857 2161 L
2749 2035 mt 2821 2035 L
2785 1999 mt 2785 2071 L
3007 3415 mt 3079 3415 L
3043 3379 mt 3043 3451 L
4852 2467 mt 4924 2467 L
4888 2431 mt 4888 2503 L
2652 2445 mt 2724 2445 L
2688 2409 mt 2688 2481 L
3284 2745 mt 3356 2745 L
3320 2709 mt 3320 2781 L
3885 2150 mt 3957 2150 L
3921 2114 mt 3921 2186 L
2420 3595 mt 2492 3595 L
2456 3559 mt 2456 3631 L
4298 2199 mt 4370 2199 L
4334 2163 mt 4334 2235 L
4107 3137 mt 4179 3137 L
4143 3101 mt 4143 3173 L
4094 2637 mt 4166 2637 L
4130 2601 mt 4130 2673 L
3376 3081 mt 3448 3081 L
3412 3045 mt 3412 3117 L
2740 2497 mt 2812 2497 L
2776 2461 mt 2776 2533 L
3555 3625 mt 3627 3625 L
3591 3589 mt 3591 3661 L
2040 3553 mt 2112 3553 L
2076 3517 mt 2076 3589 L
4251 2302 mt 4323 2302 L
4287 2266 mt 4287 2338 L
3505 2830 mt 3577 2830 L
3541 2794 mt 3541 2866 L
1766 2051 mt 1838 2051 L
1802 2015 mt 1802 2087 L
3013 2329 mt 3085 2329 L
3049 2293 mt 3049 2365 L
3780 1634 mt 3852 1634 L
3816 1598 mt 3816 1670 L
3261 2440 mt 3333 2440 L
3297 2404 mt 3297 2476 L
3672 2256 mt 3744 2256 L
3708 2220 mt 3708 2292 L
3053 1748 mt 3125 1748 L
3089 1712 mt 3089 1784 L
4574 2571 mt 4646 2571 L
4610 2535 mt 4610 2607 L
3661 2778 mt 3733 2778 L
3697 2742 mt 3697 2814 L
1991 1462 mt 2063 1462 L
2027 1426 mt 2027 1498 L
3544 1845 mt 3616 1845 L
3580 1809 mt 3580 1881 L
3499 1538 mt 3571 1538 L
3535 1502 mt 3535 1574 L
3237 2194 mt 3309 2194 L
3273 2158 mt 3273 2230 L
3110 3446 mt 3182 3446 L
3146 3410 mt 3146 3482 L
1556 2018 mt 1628 2018 L
1592 1982 mt 1592 2054 L
1842 2567 mt 1914 2567 L
1878 2531 mt 1878 2603 L
3571 2024 mt 3643 2024 L
3607 1988 mt 3607 2060 L
2615 1779 mt 2687 1779 L
2651 1743 mt 2651 1815 L
3202 3479 mt 3274 3479 L
3238 3443 mt 3238 3515 L
3302 3039 mt 3374 3039 L
3338 3003 mt 3338 3075 L
3996 2704 mt 4068 2704 L
4032 2668 mt 4032 2740 L
4680 2736 mt 4752 2736 L
4716 2700 mt 4716 2772 L
3820 3000 mt 3892 3000 L
3856 2964 mt 3856 3036 L
1965 3731 mt 2037 3731 L
2001 3695 mt 2001 3767 L
2697 2365 mt 2769 2365 L
2733 2329 mt 2733 2401 L
3129 2722 mt 3201 2722 L
3165 2686 mt 3165 2758 L
2513 1756 mt 2585 1756 L
2549 1720 mt 2549 1792 L
2993 2170 mt 3065 2170 L
3029 2134 mt 3029 2206 L
3683 3157 mt 3755 3157 L
3719 3121 mt 3719 3193 L
4585 2536 mt 4657 2536 L
4621 2500 mt 4621 2572 L
3432 1006 mt 3504 1006 L
3468  970 mt 3468 1042 L
3850 1885 mt 3922 1885 L
3886 1849 mt 3886 1921 L
3040 1865 mt 3112 1865 L
3076 1829 mt 3076 1901 L
2218 1698 mt 2290 1698 L
2254 1662 mt 2254 1734 L
3711 2214 mt 3783 2214 L
3747 2178 mt 3747 2250 L
3296 2228 mt 3368 2228 L
3332 2192 mt 3332 2264 L
2545 2859 mt 2617 2859 L
2581 2823 mt 2581 2895 L
3768 2388 mt 3840 2388 L
3804 2352 mt 3804 2424 L
3740 2204 mt 3812 2204 L
3776 2168 mt 3776 2240 L
2980 2792 mt 3052 2792 L
3016 2756 mt 3016 2828 L
2605 2279 mt 2677 2279 L
2641 2243 mt 2641 2315 L
3527 1643 mt 3599 1643 L
3563 1607 mt 3563 1679 L
4163 2731 mt 4235 2731 L
4199 2695 mt 4199 2767 L
3814 3164 mt 3886 3164 L
3850 3128 mt 3850 3200 L
2479 2089 mt 2551 2089 L
2515 2053 mt 2515 2125 L
1722 3069 mt 1794 3069 L
1758 3033 mt 1758 3105 L
3689 2078 mt 3761 2078 L
3725 2042 mt 3725 2114 L
2662 2967 mt 2734 2967 L
2698 2931 mt 2698 3003 L
2903 2453 mt 2975 2453 L
2939 2417 mt 2939 2489 L
3621 2801 mt 3693 2801 L
3657 2765 mt 3657 2837 L
4128 1732 mt 4200 1732 L
4164 1696 mt 4164 1768 L
3633 3075 mt 3705 3075 L
3669 3039 mt 3669 3111 L
3135 3527 mt 3207 3527 L
3171 3491 mt 3171 3563 L
2432 3112 mt 2504 3112 L
2468 3076 mt 2468 3148 L
4472 1723 mt 4544 1723 L
4508 1687 mt 4508 1759 L
5282 2115 mt 5354 2115 L
5318 2079 mt 5318 2151 L
3560 1550 mt 3632 1550 L
3596 1514 mt 3596 1586 L
3638 1614 mt 3710 1614 L
3674 1578 mt 3674 1650 L
2565 2615 mt 2637 2615 L
2601 2579 mt 2601 2651 L
3325 1604 mt 3397 1604 L
3361 1568 mt 3361 1640 L
3510 2493 mt 3582 2493 L
3546 2457 mt 3546 2529 L
4706 2764 mt 4778 2764 L
4742 2728 mt 4742 2800 L
4655 1787 mt 4727 1787 L
4691 1751 mt 4691 1823 L
4347 1583 mt 4419 1583 L
4383 1547 mt 4383 1619 L
3855 2165 mt 3927 2165 L
3891 2129 mt 3891 2201 L
4074 2854 mt 4146 2854 L
4110 2818 mt 4110 2890 L
3454 1823 mt 3526 1823 L
3490 1787 mt 3490 1859 L
4213 2695 mt 4285 2695 L
4249 2659 mt 4249 2731 L
5321 2787 mt 5393 2787 L
5357 2751 mt 5357 2823 L
3873 3322 mt 3945 3322 L
3909 3286 mt 3909 3358 L
4922  414 mt 4994  414 L
4958  378 mt 4958  450 L
2874 3457 mt 2946 3457 L
2910 3421 mt 2910 3493 L
2502 1419 mt 2574 1419 L
2538 1383 mt 2538 1455 L
4435 2664 mt 4507 2664 L
4471 2628 mt 4471 2700 L
1674 1715 mt 1746 1715 L
1710 1679 mt 1710 1751 L
4693 2541 mt 4765 2541 L
4729 2505 mt 4729 2577 L
4047 1561 mt 4119 1561 L
4083 1525 mt 4083 1597 L
3141 3227 mt 3213 3227 L
3177 3191 mt 3177 3263 L
3867 1049 mt 3939 1049 L
3903 1013 mt 3903 1085 L
3605 3099 mt 3677 3099 L
3641 3063 mt 3641 3135 L
5211 3980 mt 5283 3980 L
5247 3944 mt 5247 4016 L
3903 2741 mt 3975 2741 L
3939 2705 mt 3939 2777 L
1481 2874 mt 1553 2874 L
1517 2838 mt 1517 2910 L
3091 1966 mt 3163 1966 L
3127 1930 mt 3127 2002 L
4259 2488 mt 4331 2488 L
4295 2452 mt 4295 2524 L
4805 3774 mt 4877 3774 L
4841 3738 mt 4841 3810 L
4760 2946 mt 4832 2946 L
4796 2910 mt 4796 2982 L
3915 2311 mt 3987 2311 L
3951 2275 mt 3951 2347 L
2575 2135 mt 2647 2135 L
2611 2099 mt 2611 2171 L
3184 2083 mt 3256 2083 L
3220 2047 mt 3220 2119 L
4021 2275 mt 4093 2275 L
4057 2239 mt 4057 2311 L
2881 2668 mt 2953 2668 L
2917 2632 mt 2917 2704 L
2282 3942 mt 2354 3942 L
2318 3906 mt 2318 3978 L
5002 2899 mt 5074 2899 L
5038 2863 mt 5038 2935 L
4961 2930 mt 5033 2930 L
4997 2894 mt 4997 2966 L
2235 2401 mt 2307 2401 L
2271 2365 mt 2271 2437 L
3566  957 mt 3638  957 L
3602  921 mt 3602  993 L
5365 2462 mt 5437 2462 L
5401 2426 mt 5401 2498 L
5606 3151 mt 5678 3151 L
5642 3115 mt 5642 3187 L
3330 2935 mt 3402 2935 L
3366 2899 mt 3366 2971 L
3488 1936 mt 3560 1936 L
3524 1900 mt 3524 1972 L
2938 2062 mt 3010 2062 L
2974 2026 mt 2974 2098 L
3438 3087 mt 3510 3087 L
3474 3051 mt 3474 3123 L
4553 2750 mt 4625 2750 L
4589 2714 mt 4589 2786 L
4453 2265 mt 4525 2265 L
4489 2229 mt 4489 2301 L
5071 1121 mt 5143 1121 L
5107 1085 mt 5107 1157 L
4532 4205 mt 4604 4205 L
4568 4169 mt 4568 4241 L
4330 2189 mt 4402 2189 L
4366 2153 mt 4366 2225 L
3594 2606 mt 3666 2606 L
3630 2570 mt 3630 2642 L
3232 1942 mt 3304 1942 L
3268 1906 mt 3268 1978 L
2394  898 mt 2466  898 L
2430  862 mt 2430  934 L
2555 3297 mt 2627 3297 L
2591 3261 mt 2591 3333 L
3717 3752 mt 3789 3752 L
3753 3716 mt 3753 3788 L
3027 2218 mt 3099 2218 L
3063 2182 mt 3063 2254 L
3336 2374 mt 3408 2374 L
3372 2338 mt 3372 2410 L
4444 2884 mt 4516 2884 L
4480 2848 mt 4480 2920 L
2765 2624 mt 2837 2624 L
2801 2588 mt 2801 2660 L
2836 3711 mt 2908 3711 L
2872 3675 mt 2872 3747 L
4390 1831 mt 4462 1831 L
4426 1795 mt 4426 1867 L
4542 2994 mt 4614 2994 L
4578 2958 mt 4578 3030 L
5468 2067 mt 5540 2067 L
5504 2031 mt 5504 2103 L
3677 2427 mt 3749 2427 L
3713 2391 mt 3713 2463 L
3532 3206 mt 3604 3206 L
3568 3170 mt 3568 3242 L
3977 2012 mt 4049 2012 L
4013 1976 mt 4013 2048 L
2106 2418 mt 2178 2418 L
2142 2382 mt 2142 2454 L
1387 3306 mt 1459 3306 L
1423 3270 mt 1423 3342 L
4463 1572 mt 4535 1572 L
4499 1536 mt 4499 1608 L
4184 3250 mt 4256 3250 L
4220 3214 mt 4220 3286 L
3588 3235 mt 3660 3235 L
3624 3199 mt 3624 3271 L
3290 1930 mt 3362 1930 L
3326 1894 mt 3326 1966 L
2251 1371 mt 2323 1371 L
2287 1335 mt 2287 1407 L
4355 2650 mt 4427 2650 L
4391 2614 mt 4391 2686 L
4746 1740 mt 4818 1740 L
4782 1704 mt 4782 1776 L
3861 3436 mt 3933 3436 L
3897 3400 mt 3897 3472 L
4135 3358 mt 4207 3358 L
4171 3322 mt 4171 3394 L
3538 1476 mt 3610 1476 L
3574 1440 mt 3574 1512 L
4015 2532 mt 4087 2532 L
4051 2496 mt 4051 2568 L
4314 4616 mt 4386 4616 L
4350 4580 mt 4350 4652 L
4306 2727 mt 4378 2727 L
4342 2691 mt 4342 2763 L
3415 2001 mt 3487 2001 L
3451 1965 mt 3451 2037 L
4820 2484 mt 4892 2484 L
4856 2448 mt 4856 2520 L
3983 1152 mt 4055 1152 L
4019 1116 mt 4019 1188 L
4597 2782 mt 4669 2782 L
4633 2746 mt 4633 2818 L
2680 2691 mt 2752 2691 L
2716 2655 mt 2716 2727 L
1937 3093 mt 2009 3093 L
1973 3057 mt 1973 3129 L
4228 2320 mt 4300 2320 L
4264 2284 mt 4264 2356 L
3381 2545 mt 3453 2545 L
3417 2509 mt 3417 2581 L
3745 1526 mt 3817 1526 L
3781 1490 mt 3781 1562 L
4060 1404 mt 4132 1404 L
4096 1368 mt 4096 1440 L
3728 2677 mt 3800 2677 L
3764 2641 mt 3764 2713 L
2624 3340 mt 2696 3340 L
2660 3304 mt 2660 3376 L
4221 2597 mt 4293 2597 L
4257 2561 mt 4257 2633 L
4425 2458 mt 4497 2458 L
4461 2422 mt 4461 2494 L
3803 1911 mt 3875 1911 L
3839 1875 mt 3839 1947 L
4142 2343 mt 4214 2343 L
4178 2307 mt 4178 2379 L
2126 3273 mt 2198 3273 L
2162 3237 mt 2162 3309 L
3516 2261 mt 3588 2261 L
3552 2225 mt 3552 2297 L
6225 3191 mt 6297 3191 L
6261 3155 mt 6261 3227 L
3644 3491 mt 3716 3491 L
3680 3455 mt 3680 3527 L
3226  724 mt 3298  724 L
3262  688 mt 3262  760 L
4667 3658 mt 4739 3658 L
4703 3622 mt 4703 3694 L
3426 2094 mt 3498 2094 L
3462 2058 mt 3462 2130 L
5531 2247 mt 5603 2247 L
5567 2211 mt 5567 2283 L
3359 3213 mt 3431 3213 L
3395 3177 mt 3395 3249 L
5413 2815 mt 5485 2815 L
5449 2779 mt 5449 2851 L
3809 3386 mt 3881 3386 L
3845 3350 mt 3845 3422 L
1619 2584 mt 1691 2584 L
1655 2548 mt 1655 2620 L
5700 2956 mt 5772 2956 L
5736 2920 mt 5736 2992 L
4836 2046 mt 4908 2046 L
4872 2010 mt 4872 2082 L
4608 2471 mt 4680 2471 L
4644 2435 mt 4644 2507 L
2910 3220 mt 2982 3220 L
2946 3184 mt 2946 3256 L
4087 2978 mt 4159 2978 L
4123 2942 mt 4123 3014 L
1876 1995 mt 1948 1995 L
1912 1959 mt 1912 2031 L
3785 3693 mt 3857 3693 L
3821 3657 mt 3821 3729 L
4170 3265 mt 4242 3265 L
4206 3229 mt 4206 3301 L
3190 2718 mt 3262 2718 L
3226 2682 mt 3226 2754 L
4266 3034 mt 4338 3034 L
4302 2998 mt 4302 3070 L
3278 2914 mt 3350 2914 L
3314 2878 mt 3314 2950 L
5828 2449 mt 5900 2449 L
5864 2413 mt 5864 2485 L
4398 2641 mt 4470 2641 L
4434 2605 mt 4434 2677 L
2805 2576 mt 2877 2576 L
2841 2540 mt 2841 2612 L
4067  824 mt 4139  824 L
4103  788 mt 4103  860 L
5096 2405 mt 5168 2405 L
5132 2369 mt 5132 2441 L
3078 2879 mt 3150 2879 L
3114 2843 mt 3114 2915 L
2917 2436 mt 2989 2436 L
2953 2400 mt 2953 2472 L
4775 2432 mt 4847 2432 L
4811 2396 mt 4811 2468 L
4941 1662 mt 5013 1662 L
4977 1626 mt 4977 1698 L
4338 2523 mt 4410 2523 L
4374 2487 mt 4374 2559 L
2689 4305 mt 2761 4305 L
2725 4269 mt 2725 4341 L
2797 3118 mt 2869 3118 L
2833 3082 mt 2833 3154 L
2952 3515 mt 3024 3515 L
2988 3479 mt 2988 3551 L
2312 2352 mt 2384 2352 L
2348 2316 mt 2348 2388 L
4492 1904 mt 4564 1904 L
4528 1868 mt 4528 1940 L
3153 3289 mt 3225 3289 L
3189 3253 mt 3189 3325 L
4869 2514 mt 4941 2514 L
4905 2478 mt 4905 2550 L
2643 2983 mt 2715 2983 L
2679 2947 mt 2679 3019 L
3706 2510 mt 3778 2510 L
3742 2474 mt 3742 2546 L
3774 3106 mt 3846 3106 L
3810 3070 mt 3810 3142 L
2789 2562 mt 2861 2562 L
2825 2526 mt 2825 2598 L
4114 1434 mt 4186 1434 L
4150 1398 mt 4150 1470 L
4149 3057 mt 4221 3057 L
4185 3021 mt 4185 3093 L
4904 2410 mt 4976 2410 L
4940 2374 mt 4940 2446 L
2063 1255 mt 2135 1255 L
2099 1219 mt 2099 1291 L
5245 2007 mt 5317 2007 L
5281 1971 mt 5281 2043 L
4643 3242 mt 4715 3242 L
4679 3206 mt 4679 3278 L
1805 2109 mt 1877 2109 L
1841 2073 mt 1841 2145 L
4236 1680 mt 4308 1680 L
4272 1644 mt 4272 1716 L
2490 2904 mt 2562 2904 L
2526 2868 mt 2526 2940 L
2781 3610 mt 2853 3610 L
2817 3574 mt 2817 3646 L
2931 2989 mt 3003 2989 L
2967 2953 mt 2967 3025 L
2773 2104 mt 2845 2104 L
2809 2068 mt 2809 2140 L
1259 3908 mt 1331 3908 L
1295 3872 mt 1295 3944 L
2732 2270 mt 2804 2270 L
2768 2234 mt 2768 2306 L
3577 3314 mt 3649 3314 L
3613 3278 mt 3613 3350 L
3033 3028 mt 3105 3028 L
3069 2992 mt 3069 3064 L
5122 2686 mt 5194 2686 L
5158 2650 mt 5158 2722 L
3273 1624 mt 3345 1624 L
3309 1588 mt 3309 1660 L
4156 1232 mt 4228 1232 L
4192 1196 mt 4192 1268 L
5047 3198 mt 5119 3198 L
5083 3162 mt 5083 3234 L
4274 3331 mt 4346 3331 L
4310 3295 mt 4310 3367 L
3072 2869 mt 3144 2869 L
3108 2833 mt 3108 2905 L
3220 2773 mt 3292 2773 L
3256 2737 mt 3256 2809 L
3734 4023 mt 3806 4023 L
3770 3987 mt 3770 4059 L
3443 2325 mt 3515 2325 L
3479 2289 mt 3479 2361 L
4009  564 mt 4081  564 L
4045  528 mt 4045  600 L
3627 2811 mt 3699 2811 L
3663 2775 mt 3663 2847 L
2016 2940 mt 2088 2940 L
2052 2904 mt 2052 2976 L
3655 3005 mt 3727 3005 L
3691 2969 mt 3691 3041 L
3098 3171 mt 3170 3171 L
3134 3135 mt 3134 3207 L
 863 3675 mt  935 3675 L
 899 3639 mt  899 3711 L
4789 3822 mt 4861 3822 L
4825 3786 mt 4825 3858 L
5150 2175 mt 5222 2175 L
5186 2139 mt 5186 2211 L
4407 3367 mt 4479 3367 L
4443 3331 mt 4443 3403 L
4522 2796 mt 4594 2796 L
4558 2760 mt 4558 2832 L
3723 2593 mt 3795 2593 L
3759 2557 mt 3759 2629 L
4041 2962 mt 4113 2962 L
4077 2926 mt 4077 2998 L
3066 3281 mt 3138 3281 L
3102 3245 mt 3102 3317 L
2298 2180 mt 2370 2180 L
2334 2144 mt 2334 2216 L
3521 2806 mt 3593 2806 L
3557 2770 mt 3557 2842 L
3952 3011 mt 4024 3011 L
3988 2975 mt 3988 3047 L
3249 2713 mt 3321 2713 L
3285 2677 mt 3285 2749 L
3243 3184 mt 3315 3184 L
3279 3148 mt 3279 3220 L
5024 3641 mt 5096 3641 L
5060 3605 mt 5060 3677 L
2165 2130 mt 2237 2130 L
2201 2094 mt 2201 2166 L
4619 2120 mt 4691 2120 L
4655 2084 mt 4655 2156 L
4416 2073 mt 4488 2073 L
4452 2037 mt 4452 2109 L
3364 2392 mt 3436 2392 L
3400 2356 mt 3400 2428 L
4206 3144 mt 4278 3144 L
4242 3108 mt 4242 3180 L
3370 3581 mt 3442 3581 L
3406 3545 mt 3406 3617 L
2368 2825 mt 2440 2825 L
2404 2789 mt 2404 2861 L
2924 3063 mt 2996 3063 L
2960 3027 mt 2960 3099 L
3927 1318 mt 3999 1318 L
3963 1282 mt 3963 1354 L
3700 3257 mt 3772 3257 L
3736 3221 mt 3736 3293 L
3393 2849 mt 3465 2849 L
3429 2813 mt 3429 2885 L
3844 2655 mt 3916 2655 L
3880 2619 mt 3880 2691 L
6033 1990 mt 6105 1990 L
6069 1954 mt 6069 2026 L
3940 1923 mt 4012 1923 L
3976 1887 mt 3976 1959 L
2987 1277 mt 3059 1277 L
3023 1241 mt 3023 1313 L
3166 3125 mt 3238 3125 L
3202 3089 mt 3202 3161 L
3971 1489 mt 4043 1489 L
4007 1453 mt 4007 1525 L
4191 2925 mt 4263 2925 L
4227 2889 mt 4227 2961 L
4512 1772 mt 4584 1772 L
4548 1736 mt 4548 1808 L
gs 899 414 5363 4203 rc
gr

0 sg
2795 5104 mt 
(\(F,DCTb,iMLP\)) s
 482 3343 mt  -90 rotate
(\(S,LFCC,GMM\)) s
90 rotate
2975  223 mt 
(Corr = 0.04) s

end %%Color Dict

eplot
%%EndObject

epage
end

showpage

%%Trailer
%%EOF
