%!PS-Adobe-3.0 EPSF-3.0
%%Creator: MATLAB, The Mathworks, Inc. Version 7.7.0.471 (R2008b). Operating System: Microsoft Windows XP.
%%Title: Pictures\main_zoo_mvar_analysis_data_BMI_xcorr_bmig_p1_k1_3_5.eps
%%CreationDate: 10/26/2009  05:44:55
%%DocumentNeededFonts: Helvetica
%%DocumentProcessColors: Cyan Magenta Yellow Black
%%LanguageLevel: 2
%%Pages: 1
%%BoundingBox:    37   180   549   616
%%EndComments

%%BeginProlog
% MathWorks dictionary
/MathWorks 160 dict begin
% definition operators
/bdef {bind def} bind def
/ldef {load def} bind def
/xdef {exch def} bdef
/xstore {exch store} bdef
% operator abbreviations
/c  /clip ldef
/cc /concat ldef
/cp /closepath ldef
/gr /grestore ldef
/gs /gsave ldef
/mt /moveto ldef
/np /newpath ldef
/cm /currentmatrix ldef
/sm /setmatrix ldef
/rm /rmoveto ldef
/rl /rlineto ldef
/s {show newpath} bdef
/sc {setcmykcolor} bdef
/sr /setrgbcolor ldef
/sg /setgray ldef
/w /setlinewidth ldef
/j /setlinejoin ldef
/cap /setlinecap ldef
/rc {rectclip} bdef
/rf {rectfill} bdef
% page state control
/pgsv () def
/bpage {/pgsv save def} bdef
/epage {pgsv restore} bdef
/bplot /gsave ldef
/eplot {stroke grestore} bdef
% orientation switch
/portraitMode 0 def /landscapeMode 1 def /rotateMode 2 def
% coordinate system mappings
/dpi2point 0 def
% font control
/FontSize 0 def
/FMS {/FontSize xstore findfont [FontSize 0 0 FontSize neg 0 0]
  makefont setfont} bdef
/ISOLatin1Encoding where {pop /WindowsLatin1Encoding 256 array bdef
ISOLatin1Encoding WindowsLatin1Encoding copy pop
/.notdef/.notdef/quotesinglbase/florin/quotedblbase/ellipsis/dagger
/daggerdbl/circumflex/perthousand/Scaron/guilsinglleft/OE/.notdef/.notdef
/.notdef/.notdef/quoteleft/quoteright/quotedblleft/quotedblright/bullet
/endash/emdash/tilde/trademark/scaron/guilsinglright/oe/.notdef/.notdef
/Ydieresis WindowsLatin1Encoding 128 32 getinterval astore pop}
{/WindowsLatin1Encoding StandardEncoding bdef} ifelse
/reencode {exch dup where {pop load} {pop StandardEncoding} ifelse
  exch dup 3 1 roll findfont dup length dict begin
  { 1 index /FID ne {def}{pop pop} ifelse } forall
  /Encoding exch def currentdict end definefont pop} bdef
/isroman {findfont /CharStrings get /Agrave known} bdef
/FMSR {3 1 roll 1 index dup isroman {reencode} {pop pop} ifelse
  exch FMS} bdef
/csm {1 dpi2point div -1 dpi2point div scale neg translate
 dup landscapeMode eq {pop -90 rotate}
  {rotateMode eq {90 rotate} if} ifelse} bdef
% line types: solid, dotted, dashed, dotdash
/SO { [] 0 setdash } bdef
/DO { [.5 dpi2point mul 4 dpi2point mul] 0 setdash } bdef
/DA { [6 dpi2point mul] 0 setdash } bdef
/DD { [.5 dpi2point mul 4 dpi2point mul 6 dpi2point mul 4
  dpi2point mul] 0 setdash } bdef
% macros for lines and objects
/L {lineto stroke} bdef
/MP {3 1 roll moveto 1 sub {rlineto} repeat} bdef
/AP {{rlineto} repeat} bdef
/PDlw -1 def
/W {/PDlw currentlinewidth def setlinewidth} def
/PP {closepath eofill} bdef
/DP {closepath stroke} bdef
/MR {4 -2 roll moveto dup  0 exch rlineto exch 0 rlineto
  neg 0 exch rlineto closepath} bdef
/FR {MR stroke} bdef
/PR {MR fill} bdef
/L1i {{currentfile picstr readhexstring pop} image} bdef
/tMatrix matrix def
/MakeOval {newpath tMatrix currentmatrix pop translate scale
0 0 1 0 360 arc tMatrix setmatrix} bdef
/FO {MakeOval stroke} bdef
/PO {MakeOval fill} bdef
/PD {currentlinewidth 2 div 0 360 arc fill
   PDlw -1 eq not {PDlw w /PDlw -1 def} if} def
/FA {newpath tMatrix currentmatrix pop translate scale
  0 0 1 5 -2 roll arc tMatrix setmatrix stroke} bdef
/PA {newpath tMatrix currentmatrix pop	translate 0 0 moveto scale
  0 0 1 5 -2 roll arc closepath tMatrix setmatrix fill} bdef
/FAn {newpath tMatrix currentmatrix pop translate scale
  0 0 1 5 -2 roll arcn tMatrix setmatrix stroke} bdef
/PAn {newpath tMatrix currentmatrix pop translate 0 0 moveto scale
  0 0 1 5 -2 roll arcn closepath tMatrix setmatrix fill} bdef
/vradius 0 def /hradius 0 def /lry 0 def
/lrx 0 def /uly 0 def /ulx 0 def /rad 0 def
/MRR {/vradius xdef /hradius xdef /lry xdef /lrx xdef /uly xdef
  /ulx xdef newpath tMatrix currentmatrix pop ulx hradius add uly
  vradius add translate hradius vradius scale 0 0 1 180 270 arc 
  tMatrix setmatrix lrx hradius sub uly vradius add translate
  hradius vradius scale 0 0 1 270 360 arc tMatrix setmatrix
  lrx hradius sub lry vradius sub translate hradius vradius scale
  0 0 1 0 90 arc tMatrix setmatrix ulx hradius add lry vradius sub
  translate hradius vradius scale 0 0 1 90 180 arc tMatrix setmatrix
  closepath} bdef
/FRR {MRR stroke } bdef
/PRR {MRR fill } bdef
/MlrRR {/lry xdef /lrx xdef /uly xdef /ulx xdef /rad lry uly sub 2 div def
  newpath tMatrix currentmatrix pop ulx rad add uly rad add translate
  rad rad scale 0 0 1 90 270 arc tMatrix setmatrix lrx rad sub lry rad
  sub translate rad rad scale 0 0 1 270 90 arc tMatrix setmatrix
  closepath} bdef
/FlrRR {MlrRR stroke } bdef
/PlrRR {MlrRR fill } bdef
/MtbRR {/lry xdef /lrx xdef /uly xdef /ulx xdef /rad lrx ulx sub 2 div def
  newpath tMatrix currentmatrix pop ulx rad add uly rad add translate
  rad rad scale 0 0 1 180 360 arc tMatrix setmatrix lrx rad sub lry rad
  sub translate rad rad scale 0 0 1 0 180 arc tMatrix setmatrix
  closepath} bdef
/FtbRR {MtbRR stroke } bdef
/PtbRR {MtbRR fill } bdef
/stri 6 array def /dtri 6 array def
/smat 6 array def /dmat 6 array def
/tmat1 6 array def /tmat2 6 array def /dif 3 array def
/asub {/ind2 exch def /ind1 exch def dup dup
  ind1 get exch ind2 get sub exch } bdef
/tri_to_matrix {
  2 0 asub 3 1 asub 4 0 asub 5 1 asub
  dup 0 get exch 1 get 7 -1 roll astore } bdef
/compute_transform {
  dmat dtri tri_to_matrix tmat1 invertmatrix 
  smat stri tri_to_matrix tmat2 concatmatrix } bdef
/ds {stri astore pop} bdef
/dt {dtri astore pop} bdef
/db {2 copy /cols xdef /rows xdef mul dup 3 mul string
  currentfile 
  3 index 0 eq {/ASCIIHexDecode filter}
  {/ASCII85Decode filter 3 index 2 eq {/RunLengthDecode filter} if }
  ifelse exch readstring pop
  dup 0 3 index getinterval /rbmap xdef
  dup 2 index dup getinterval /gbmap xdef
  1 index dup 2 mul exch getinterval /bbmap xdef pop pop}bdef
/it {gs np dtri aload pop moveto lineto lineto cp c
  cols rows 8 compute_transform 
  rbmap gbmap bbmap true 3 colorimage gr}bdef
/il {newpath moveto lineto stroke}bdef
currentdict end def
%%EndProlog

%%BeginSetup
MathWorks begin

0 cap

end
%%EndSetup

%%Page: 1 1
%%BeginPageSetup
%%PageBoundingBox:    37   180   549   616
MathWorks begin
bpage
%%EndPageSetup

%%BeginObject: obj1
bplot

/dpi2point 12 def
portraitMode 0216 7344 csm

  234   -48  6149  5231 rc
85 dict begin %Colortable dictionary
/c0 { 0.000000 0.000000 0.000000 sr} bdef
/c1 { 1.000000 1.000000 1.000000 sr} bdef
/c2 { 0.900000 0.000000 0.000000 sr} bdef
/c3 { 0.000000 0.820000 0.000000 sr} bdef
/c4 { 0.000000 0.000000 0.800000 sr} bdef
/c5 { 0.910000 0.820000 0.320000 sr} bdef
/c6 { 1.000000 0.260000 0.820000 sr} bdef
/c7 { 0.000000 0.820000 0.820000 sr} bdef
c0
1 j
1 sg
   0    0 6919 5187 rf
6 w
0 4202 5362 0 0 -4202 899 4616 4 MP
PP
-5362 0 0 4202 5362 0 0 -4202 899 4616 5 MP stroke
4 w
DO
SO
6 w
0 sg
 899  414 mt 6261  414 L
 899 4616 mt 6261 4616 L
6261 4616 mt 6261  414 L
 899 4616 mt  899  414 L
 899 4616 mt 6261 4616 L
 899 4616 mt  899  414 L
 919 4616 mt  919 4562 L
 919  414 mt  919  467 L
%%IncludeResource: font Helvetica
/Helvetica /WindowsLatin1Encoding 240 FMSR

 713 4873 mt 
(-3) s
1806 4616 mt 1806 4562 L
1806  414 mt 1806  467 L
1600 4873 mt 
(-2) s
2693 4616 mt 2693 4562 L
2693  414 mt 2693  467 L
2487 4873 mt 
(-1) s
3580 4616 mt 3580 4562 L
3580  414 mt 3580  467 L
3514 4873 mt 
(0) s
4466 4616 mt 4466 4562 L
4466  414 mt 4466  467 L
4400 4873 mt 
(1) s
5353 4616 mt 5353 4562 L
5353  414 mt 5353  467 L
5287 4873 mt 
(2) s
6240 4616 mt 6240 4562 L
6240  414 mt 6240  467 L
6174 4873 mt 
(3) s
 899 4599 mt  952 4599 L
6261 4599 mt 6207 4599 L
 591 4688 mt 
(-3) s
 899 3904 mt  952 3904 L
6261 3904 mt 6207 3904 L
 591 3993 mt 
(-2) s
 899 3209 mt  952 3209 L
6261 3209 mt 6207 3209 L
 591 3298 mt 
(-1) s
 899 2514 mt  952 2514 L
6261 2514 mt 6207 2514 L
 731 2603 mt 
(0) s
 899 1820 mt  952 1820 L
6261 1820 mt 6207 1820 L
 731 1909 mt 
(1) s
 899 1125 mt  952 1125 L
6261 1125 mt 6207 1125 L
 731 1214 mt 
(2) s
 899  430 mt  952  430 L
6261  430 mt 6207  430 L
 731  519 mt 
(3) s
 899  414 mt 6261  414 L
 899 4616 mt 6261 4616 L
6261 4616 mt 6261  414 L
 899 4616 mt  899  414 L
gs 899 414 5363 4203 rc
gr

/c8 { 0.000000 0.000000 1.000000 sr} bdef
c8
4619 1207 mt 4691 1207 L
4655 1171 mt 4655 1243 L
3364 1572 mt 3436 1572 L
3400 1536 mt 3400 1608 L
5282 2109 mt 5354 2109 L
5318 2073 mt 5318 2145 L
3577 2204 mt 3649 2204 L
3613 2168 mt 3613 2240 L
3627 2414 mt 3699 2414 L
3663 2378 mt 3663 2450 L
4177 3306 mt 4249 3306 L
4213 3270 mt 4213 3342 L
2394 3540 mt 2466 3540 L
2430 3504 mt 2430 3576 L
2605 2493 mt 2677 2493 L
2641 2457 mt 2641 2529 L
3135 3322 mt 3207 3322 L
3171 3286 mt 3171 3358 L
4482 1152 mt 4554 1152 L
4518 1116 mt 4518 1188 L
4746  724 mt 4818  724 L
4782  688 mt 4782  760 L
4532 2615 mt 4604 2615 L
4568 2579 mt 4568 2651 L
4542 1838 mt 4614 1838 L
4578 1802 mt 4578 1874 L
4869 2040 mt 4941 2040 L
4905 2004 mt 4905 2076 L
3897 2035 mt 3969 2035 L
3933 1999 mt 3933 2071 L
3538 1634 mt 3610 1634 L
3574 1598 mt 3574 1670 L
4852 2302 mt 4924 2302 L
4888 2266 mt 4888 2338 L
2723 3415 mt 2795 3415 L
2759 3379 mt 2759 3451 L
3202 2383 mt 3274 2383 L
3238 2347 mt 3238 2419 L
2945 3106 mt 3017 3106 L
2981 3070 mt 2981 3142 L
4416 2825 mt 4488 2825 L
4452 2789 mt 4452 2861 L
4251 1049 mt 4323 1049 L
4287 1013 mt 4287 1085 L
3499 2709 mt 3571 2709 L
3535 2673 mt 3535 2745 L
3717 2956 mt 3789 2956 L
3753 2920 mt 3753 2992 L
4330 3395 mt 4402 3395 L
4366 3359 mt 4366 3431 L
4149 2628 mt 4221 2628 L
4185 2592 mt 4185 2664 L
3020 3069 mt 3092 3069 L
3056 3033 mt 3056 3105 L
4060 1298 mt 4132 1298 L
4096 1262 mt 4096 1334 L
3762 2379 mt 3834 2379 L
3798 2343 mt 3798 2415 L
2844 3171 mt 2916 3171 L
2880 3135 mt 2880 3207 L
4381 1892 mt 4453 1892 L
4417 1856 mt 4417 1928 L
3273 2046 mt 3345 2046 L
3309 2010 mt 3309 2082 L
2615 2370 mt 2687 2370 L
2651 2334 mt 2651 2406 L
1674 2545 mt 1746 2545 L
1710 2509 mt 1710 2581 L
4597 2223 mt 4669 2223 L
4633 2187 mt 4633 2259 L
4259 2120 mt 4331 2120 L
4295 2084 mt 4295 2156 L
2634 3567 mt 2706 3567 L
2670 3531 mt 2670 3603 L
4390 1593 mt 4462 1593 L
4426 1557 mt 4426 1629 L
4364 1930 mt 4436 1930 L
4400 1894 mt 4400 1966 L
4732 1583 mt 4804 1583 L
4768 1547 mt 4768 1619 L
2881 1371 mt 2953 1371 L
2917 1335 mt 2917 1407 L
3421 2311 mt 3493 2311 L
3457 2275 mt 3457 2347 L
3785 3022 mt 3857 3022 L
3821 2986 mt 3821 3058 L
5413 2874 mt 5485 2874 L
5449 2838 mt 5449 2910 L
2773  898 mt 2845  898 L
2809  862 mt 2809  934 L
3393 3797 mt 3465 3797 L
3429 3761 mt 3429 3833 L
4322 2155 mt 4394 2155 L
4358 2119 mt 4358 2191 L
2987 2925 mt 3059 2925 L
3023 2889 mt 3023 2961 L
4492 3198 mt 4564 3198 L
4528 3162 mt 4528 3234 L
4981 1336 mt 5053 1336 L
5017 1300 mt 5017 1372 L
3861 2884 mt 3933 2884 L
3897 2848 mt 3897 2920 L
 863 2374 mt  935 2374 L
 899 2338 mt  899 2410 L
5828 2704 mt 5900 2704 L
5864 2668 mt 5864 2740 L
3000 1948 mt 3072 1948 L
3036 1912 mt 3036 1984 L
2368 2792 mt 2440 2792 L
2404 2756 mt 2404 2828 L
3359 3011 mt 3431 3011 L
3395 2975 mt 3395 3047 L
2874  564 mt 2946  564 L
2910  528 mt 2910  600 L
3404  824 mt 3476  824 L
3440  788 mt 3440  860 L
5150 1181 mt 5222 1181 L
5186 1145 mt 5186 1217 L
5321 3164 mt 5393 3164 L
5357 3128 mt 5357 3200 L
4407 1904 mt 4479 1904 L
4443 1868 mt 4443 1940 L
3989 1779 mt 4061 1779 L
4025 1743 mt 4025 1815 L
3172 3515 mt 3244 3515 L
3208 3479 mt 3208 3551 L
4243 3242 mt 4315 3242 L
4279 3206 mt 4279 3278 L
6033 2820 mt 6105 2820 L
6069 2784 mt 6069 2856 L
3091 2352 mt 3163 2352 L
3127 2316 mt 3127 2388 L
5606 2549 mt 5678 2549 L
5642 2513 mt 5642 2585 L
4034 1550 mt 4106 1550 L
4070 1514 mt 4070 1586 L
5047 2029 mt 5119 2029 L
5083 1993 mt 5083 2065 L
4961 3250 mt 5033 3250 L
4997 3214 mt 4997 3286 L
4608 1772 mt 4680 1772 L
4644 1736 mt 4644 1808 L
4041 2247 mt 4113 2247 L
4077 2211 mt 4077 2283 L
3510 2899 mt 3582 2899 L
3546 2863 mt 3546 2935 L
3711 3314 mt 3783 3314 L
3747 3278 mt 3747 3350 L
4760 2691 mt 4832 2691 L
4796 2655 mt 4796 2727 L
4472 2261 mt 4544 2261 L
4508 2225 mt 4508 2297 L
2040 1561 mt 2112 1561 L
2076 1525 mt 2076 1597 L
5180 2562 mt 5252 2562 L
5216 2526 mt 5216 2598 L
2624 3595 mt 2696 3595 L
2660 3559 mt 2660 3631 L
4372 1936 mt 4444 1936 L
4408 1900 mt 4408 1972 L
2671  414 mt 2743  414 L
2707  378 mt 2707  450 L
4015 2815 mt 4087 2815 L
4051 2779 mt 4051 2851 L
5211 2189 mt 5283 2189 L
5247 2153 mt 5247 2225 L
4087 3131 mt 4159 3131 L
4123 3095 mt 4123 3167 L
4021 2869 mt 4093 2869 L
4057 2833 mt 4057 2905 L
4135 2270 mt 4207 2270 L
4171 2234 mt 4171 2306 L
2235 1662 mt 2307 1662 L
2271 1626 mt 2271 1698 L
3059 2298 mt 3131 2298 L
3095 2262 mt 3095 2334 L
3952 3675 mt 4024 3675 L
3988 3639 mt 3988 3711 L
3826 2115 mt 3898 2115 L
3862 2079 mt 3862 2151 L
4585 1689 mt 4657 1689 L
4621 1653 mt 4621 1725 L
3774 2001 mt 3846 2001 L
3810 1965 mt 3810 2037 L
3803 3125 mt 3875 3125 L
3839 3089 mt 3839 3161 L
3307 2256 mt 3379 2256 L
3343 2220 mt 3343 2292 L
3190 3093 mt 3262 3093 L
3226 3057 mt 3226 3129 L
4114 2602 mt 4186 2602 L
4150 2566 mt 4150 2638 L
4266 3331 mt 4338 3331 L
4302 3295 mt 4302 3367 L
4199 1277 mt 4271 1277 L
4235 1241 mt 4235 1313 L
2689 3527 mt 2761 3527 L
2725 3491 mt 2725 3563 L
3237 3281 mt 3309 3281 L
3273 3245 mt 3273 3317 L
3482 1514 mt 3554 1514 L
3518 1478 mt 3518 1550 L
3832 2347 mt 3904 2347 L
3868 2311 mt 3868 2383 L
4398 1526 mt 4470 1526 L
4434 1490 mt 4434 1562 L
4028 2488 mt 4100 2488 L
4064 2452 mt 4064 2524 L
3249 2175 mt 3321 2175 L
3285 2139 mt 3285 2211 L
3689 2637 mt 3761 2637 L
3725 2601 mt 3725 2673 L
4706 2554 mt 4778 2554 L
4742 2518 mt 4742 2590 L
4221 1823 mt 4293 1823 L
4257 1787 mt 4257 1859 L
3677 1434 mt 3749 1434 L
3713 1398 mt 3713 1470 L
3983 2018 mt 4055 2018 L
4019 1982 mt 4019 2054 L
3780 3425 mt 3852 3425 L
3816 3389 mt 3816 3461 L
3449 2180 mt 3521 2180 L
3485 2144 mt 3485 2216 L
2381 3137 mt 2453 3137 L
2417 3101 mt 2417 3173 L
4667 2695 mt 4739 2695 L
4703 2659 mt 4703 2731 L
3934 2057 mt 4006 2057 L
3970 2021 mt 3970 2093 L
3728 1624 mt 3800 1624 L
3764 1588 mt 3764 1660 L
2888 2475 mt 2960 2475 L
2924 2439 mt 2924 2511 L
4298 3457 mt 4370 3457 L
4334 3421 mt 4334 3493 L
1991 2401 mt 2063 2401 L
2027 2365 mt 2027 2437 L
3153 1680 mt 3225 1680 L
3189 1644 mt 3189 1716 L
3855 2423 mt 3927 2423 L
3891 2387 mt 3891 2459 L
5700 2214 mt 5772 2214 L
5736 2178 mt 5736 2250 L
2680 2589 mt 2752 2589 L
2716 2553 mt 2716 2625 L
4631 2859 mt 4703 2859 L
4667 2823 mt 4667 2895 L
5071 1255 mt 5143 1255 L
5107 1219 mt 5107 1291 L
5245 1698 mt 5317 1698 L
5281 1662 mt 5281 1734 L
3313 3063 mt 3385 3063 L
3349 3027 mt 3349 3099 L
4719 3503 mt 4791 3503 L
4755 3467 mt 4755 3539 L
4643 2768 mt 4715 2768 L
4679 2732 mt 4679 2804 L
3791 3265 mt 3863 3265 L
3827 3229 mt 3827 3301 L
2432 2659 mt 2504 2659 L
2468 2623 mt 2468 2695 L
4306 3028 mt 4378 3028 L
4342 2992 mt 4342 3064 L
3123 2160 mt 3195 2160 L
3159 2124 mt 3159 2196 L
3566 4072 mt 3638 4072 L
3602 4036 mt 3602 4108 L
3885 1954 mt 3957 1954 L
3921 1918 mt 3921 1990 L
2502 3610 mt 2574 3610 L
2538 3574 mt 2538 3646 L
3330 2682 mt 3402 2682 L
3366 2646 mt 3366 2718 L
4094 3436 mt 4166 3436 L
4130 3400 mt 4130 3472 L
5002 1462 mt 5074 1462 L
5038 1426 mt 5038 1498 L
4789 1318 mt 4861 1318 L
4825 1282 mt 4825 1354 L
3867 2994 mt 3939 2994 L
3903 2958 mt 3903 3030 L
3116 3144 mt 3188 3144 L
3152 3108 mt 3152 3180 L
3616 2480 mt 3688 2480 L
3652 2444 mt 3652 2516 L
3066 2506 mt 3138 2506 L
3102 2470 mt 3102 2542 L
3302 1960 mt 3374 1960 L
3338 1924 mt 3338 1996 L
3398 2007 mt 3470 2007 L
3434 1971 mt 3434 2043 L
3033 2677 mt 3105 2677 L
3069 2641 mt 3069 2713 L
4435 3289 mt 4507 3289 L
4471 3253 mt 4471 3325 L
4338 1404 mt 4410 1404 L
4374 1368 mt 4374 1440 L
4444 2265 mt 4516 2265 L
4480 2229 mt 4480 2301 L
3599 1121 mt 3671 1121 L
3635 1085 mt 3635 1157 L
3694 4616 mt 3766 4616 L
3730 4580 mt 3730 4652 L
3605 2089 mt 3677 2089 L
3641 2053 mt 3641 2125 L
3927 3731 mt 3999 3731 L
3963 3695 mt 3963 3767 L
5365 1990 mt 5437 1990 L
5401 1954 mt 5401 2026 L
2662 3553 mt 2734 3553 L
2698 3517 mt 2698 3589 L
5531 3752 mt 5603 3752 L
5567 3716 mt 5567 3788 L
2545 2736 mt 2617 2736 L
2581 2700 mt 2581 2772 L
3370 2078 mt 3442 2078 L
3406 2042 mt 3406 2114 L
2146 2879 mt 2218 2879 L
2182 2843 mt 2182 2915 L
4836 3057 mt 4908 3057 L
4872 3021 mt 4872 3093 L
4886 1764 mt 4958 1764 L
4922 1728 mt 4922 1800 L
4922 2356 mt 4994 2356 L
4958 2320 mt 4958 2392 L
3255 1978 mt 3327 1978 L
3291 1942 mt 3291 2014 L
2959 2218 mt 3031 2218 L
2995 2182 mt 2995 2254 L
1619 2405 mt 1691 2405 L
1655 2369 mt 1655 2441 L
4463 1911 mt 4535 1911 L
4499 1875 mt 4499 1947 L
1907 1715 mt 1979 1715 L
1943 1679 mt 1943 1751 L
4274 2125 mt 4346 2125 L
4310 2089 mt 4310 2161 L
4501 2731 mt 4573 2731 L
4537 2695 mt 4537 2767 L
3319 2920 mt 3391 2920 L
3355 2884 mt 3355 2956 L
4067 3191 mt 4139 3191 L
4103 3155 mt 4103 3227 L
2732 2099 mt 2804 2099 L
2768 2063 mt 2768 2135 L
3588 3693 mt 3660 3693 L
3624 3657 mt 3624 3729 L
4236 2510 mt 4308 2510 L
4272 2474 mt 4272 2546 L
4355 1794 mt 4427 1794 L
4391 1758 mt 4391 1830 L
2903 2062 mt 2975 2062 L
2939 2026 mt 2939 2098 L
4290 2104 mt 4362 2104 L
4326 2068 mt 4326 2140 L
3915 2606 mt 3987 2606 L
3951 2570 mt 3951 2642 L
3638 2388 mt 3710 2388 L
3674 2352 mt 3674 2424 L
3706 1538 mt 3778 1538 L
3742 1502 mt 3742 1574 L
3226 1643 mt 3298 1643 L
3262 1607 mt 3262 1679 L
4805 3942 mt 4877 3942 L
4841 3906 mt 4841 3978 L
6225 1087 mt 6297 1087 L
6261 1051 mt 6261 1123 L
3921 1865 mt 3993 1865 L
3957 1829 mt 3957 1901 L
2355 2410 mt 2427 2410 L
2391 2374 mt 2391 2446 L
3410 1984 mt 3482 1984 L
3446 1948 mt 3446 2020 L
3797 2519 mt 3869 2519 L
3833 2483 mt 3833 2555 L
3621 2796 mt 3693 2796 L
3657 2760 mt 3657 2832 L
2267 2597 mt 2339 2597 L
2303 2561 mt 2303 2633 L
3505 1858 mt 3577 1858 L
3541 1822 mt 3541 1894 L
4228 1878 mt 4300 1878 L
4264 1842 mt 4264 1914 L
2341 2445 mt 2413 2445 L
2377 2409 mt 2377 2481 L
4128 2835 mt 4200 2835 L
4164 2799 mt 4164 2871 L
3723 1448 mt 3795 1448 L
3759 1412 mt 3759 1484 L
4314 1707 mt 4386 1707 L
4350 1671 mt 4350 1743 L
3879 2759 mt 3951 2759 L
3915 2723 mt 3915 2795 L
2575 3005 mt 2647 3005 L
2611 2969 mt 2611 3041 L
4775 2432 mt 4847 2432 L
4811 2396 mt 4811 2468 L
3996 1966 mt 4068 1966 L
4032 1930 mt 4032 2002 L
3243 2584 mt 3315 2584 L
3279 2548 mt 3279 2620 L
4121 3075 mt 4193 3075 L
4157 3039 mt 4157 3111 L
3129 2633 mt 3201 2633 L
3165 2597 mt 3165 2669 L
2757 2750 mt 2829 2750 L
2793 2714 mt 2793 2786 L
3376 2170 mt 3448 2170 L
3412 2134 mt 3412 2206 L
2706 3349 mt 2778 3349 L
2742 3313 mt 2742 3385 L
3521 2343 mt 3593 2343 L
3557 2307 mt 3557 2379 L
3649 2514 mt 3721 2514 L
3685 2478 mt 3685 2550 L
3946 2427 mt 4018 2427 L
3982 2391 mt 3982 2463 L
2924 1354 mt 2996 1354 L
2960 1318 mt 2960 1390 L
3555 1845 mt 3627 1845 L
3591 1809 mt 3591 1881 L
3672 2754 mt 3744 2754 L
3708 2718 mt 3708 2790 L
3544 3257 mt 3616 3257 L
3580 3221 mt 3580 3293 L
2938 2967 mt 3010 2967 L
2974 2931 mt 2974 3003 L
2586 2209 mt 2658 2209 L
2622 2173 mt 2622 2245 L
2595 2894 mt 2667 2894 L
2631 2858 mt 2631 2930 L
3820 2972 mt 3892 2972 L
3856 2936 mt 3856 3008 L
3958 4305 mt 4030 4305 L
3994 4269 mt 3994 4341 L
2910 2806 mt 2982 2806 L
2946 2770 mt 2946 2842 L
4184 3581 mt 4256 3581 L
4220 3545 mt 4220 3617 L
3838 2316 mt 3910 2316 L
3874 2280 mt 3874 2352 L
4425 2593 mt 4497 2593 L
4461 2557 mt 4461 2629 L
4156 3178 mt 4228 3178 L
4192 3142 mt 4192 3214 L
3147 2307 mt 3219 2307 L
3183 2271 mt 3183 2343 L
4107 2199 mt 4179 2199 L
4143 2163 mt 4143 2235 L
3078 2484 mt 3150 2484 L
3114 2448 mt 3114 2520 L
3342 2073 mt 3414 2073 L
3378 2037 mt 3378 2109 L
3296 2130 mt 3368 2130 L
3332 2094 mt 3332 2166 L
3903 2320 mt 3975 2320 L
3939 2284 mt 3939 2356 L
3460 2773 mt 3532 2773 L
3496 2737 mt 3496 2809 L
2218 3908 mt 2290 3908 L
2254 3872 mt 2254 3944 L
3220 2727 mt 3292 2727 L
3256 2691 mt 3256 2763 L
2896 2983 mt 2968 2983 L
2932 2947 mt 2932 3019 L
3661 2914 mt 3733 2914 L
3697 2878 mt 3697 2950 L
3432 2940 mt 3504 2940 L
3468 2904 mt 3468 2976 L
3757 2325 mt 3829 2325 L
3793 2289 mt 3793 2361 L
3549 3340 mt 3621 3340 L
3585 3304 mt 3585 3376 L
2513 3479 mt 2585 3479 L
2549 3443 mt 2549 3515 L
3644 2012 mt 3716 2012 L
3680 1976 mt 3680 2048 L
3655 2930 mt 3727 2930 L
3691 2894 mt 3691 2966 L
2652 3227 mt 2724 3227 L
2688 3191 mt 2688 3263 L
3387 3000 mt 3459 3000 L
3423 2964 mt 3423 3036 L
3560 3081 mt 3632 3081 L
3596 3045 mt 3596 3117 L
3040 3213 mt 3112 3213 L
3076 3177 mt 3076 3249 L
4074 1614 mt 4146 1614 L
4110 1578 mt 4110 1650 L
3166 2811 mt 3238 2811 L
3202 2775 mt 3202 2847 L
3085 2989 mt 3157 2989 L
3121 2953 mt 3121 3025 L
3610 2619 mt 3682 2619 L
3646 2583 mt 3646 2655 L
1805 1995 mt 1877 1995 L
1841 1959 mt 1841 2031 L
2740 2567 mt 2812 2567 L
2776 2531 mt 2776 2603 L
3284 3848 mt 3356 3848 L
3320 3812 mt 3320 3884 L
2715 2462 mt 2787 2462 L
2751 2426 mt 2751 2498 L
4941 1851 mt 5013 1851 L
4977 1815 mt 4977 1887 L
2282 2233 mt 2354 2233 L
2318 2197 mt 2318 2269 L
2859 3206 mt 2931 3206 L
2895 3170 mt 2895 3242 L
3353 2329 mt 3425 2329 L
3389 2293 mt 3389 2365 L
3336 2067 mt 3408 2067 L
3372 2031 mt 3372 2103 L
2479 2365 mt 2551 2365 L
2515 2329 mt 2515 2401 L
4655 1388 mt 4727 1388 L
4691 1352 mt 4691 1424 L
3814 2361 mt 3886 2361 L
3850 2325 mt 3850 2397 L
4009 2801 mt 4081 2801 L
4045 2765 mt 4045 2837 L
1965 2145 mt 2037 2145 L
2001 2109 mt 2001 2181 L
2643 3039 mt 2715 3039 L
2679 3003 mt 2679 3075 L
3633 2436 mt 3705 2436 L
3669 2400 mt 3669 2472 L
2126 2094 mt 2198 2094 L
2162 2058 mt 2162 2130 L
1259 1787 mt 1331 1787 L
1295 1751 mt 1295 1823 L
2952 2840 mt 3024 2840 L
2988 2804 mt 2988 2876 L
1937 2778 mt 2009 2778 L
1973 2742 mt 1973 2814 L
4904 1816 mt 4976 1816 L
4940 1780 mt 4940 1852 L
3104 2624 mt 3176 2624 L
3140 2588 mt 3140 2660 L
5096 1653 mt 5168 1653 L
5132 1617 mt 5132 1689 L
3683 2528 mt 3755 2528 L
3719 2492 mt 3719 2564 L
2813 2904 mt 2885 2904 L
2849 2868 mt 2849 2940 L
3208 3774 mt 3280 3774 L
3244 3738 mt 3244 3810 L
2016 2782 mt 2088 2782 L
2052 2746 mt 2052 2818 L
3532 2854 mt 3604 2854 L
3568 2818 mt 3568 2890 L
4213 1502 mt 4285 1502 L
4249 1466 mt 4249 1538 L
2993 2962 mt 3065 2962 L
3029 2926 mt 3029 2998 L
4522 2541 mt 4594 2541 L
4558 2505 mt 4558 2577 L
3454 4131 mt 3526 4131 L
3490 4095 mt 3490 4167 L
3415  957 mt 3487  957 L
3451  921 mt 3451  993 L
3072 2051 mt 3144 2051 L
3108 2015 mt 3108 2087 L
4054 3711 mt 4126 3711 L
4090 3675 mt 4090 3747 L
2183 2467 mt 2255 2467 L
2219 2431 mt 2219 2503 L
2201 1923 mt 2273 1923 L
2237 1887 mt 2237 1959 L
3466 3045 mt 3538 3045 L
3502 3009 mt 3502 3081 L
4142 1872 mt 4214 1872 L
4178 1836 mt 4178 1908 L
3751 2686 mt 3823 2686 L
3787 2650 mt 3787 2722 L
3666 2787 mt 3738 2787 L
3702 2751 mt 3702 2823 L
3768 1740 mt 3840 1740 L
3804 1704 mt 3804 1776 L
3214 2722 mt 3286 2722 L
3250 2686 mt 3250 2758 L
3909 2523 mt 3981 2523 L
3945 2487 mt 3945 2559 L
2765 2449 mt 2837 2449 L
2801 2413 mt 2801 2485 L
3007 3446 mt 3079 3446 L
3043 3410 mt 3043 3482 L
1766 2849 mt 1838 2849 L
1802 2813 mt 1802 2885 L
1387 1972 mt 1459 1972 L
1423 1936 mt 1423 2008 L
1556 2571 mt 1628 2571 L
1592 2535 mt 1592 2607 L
2085 3877 mt 2157 3877 L
2121 3841 mt 2121 3913 L
2468 3118 mt 2540 3118 L
2504 3082 mt 2504 3154 L
4163 2558 mt 4235 2558 L
4199 2522 mt 4199 2594 L
2251 2501 mt 2323 2501 L
2287 2465 mt 2287 2537 L
2821 3151 mt 2893 3151 L
2857 3115 mt 2857 3187 L
2534 2700 mt 2606 2700 L
2570 2664 mt 2570 2736 L
3098 3017 mt 3170 3017 L
3134 2981 mt 3134 3053 L
4170 2251 mt 4242 2251 L
4206 2215 mt 4206 2287 L
3477 2951 mt 3549 2951 L
3513 2915 mt 3513 2987 L
5122 3468 mt 5194 3468 L
5158 3432 mt 5158 3504 L
3141 2293 mt 3213 2293 L
3177 2257 mt 3177 2329 L
3347 2576 mt 3419 2576 L
3383 2540 mt 3383 2612 L
3493 2664 mt 3565 2664 L
3529 2628 mt 3529 2700 L
4191 3625 mt 4263 3625 L
4227 3589 mt 4227 3661 L
3046 3051 mt 3118 3051 L
3082 3015 mt 3082 3087 L
4680 3491 mt 4752 3491 L
4716 3455 mt 4716 3527 L
3891 2909 mt 3963 2909 L
3927 2873 mt 3927 2945 L
3471 2228 mt 3543 2228 L
3507 2192 mt 3507 2264 L
3977 2764 mt 4049 2764 L
4013 2728 mt 4013 2800 L
3740 1917 mt 3812 1917 L
3776 1881 mt 3776 1953 L
2327 3822 mt 2399 3822 L
2363 3786 mt 2363 3858 L
2828 3112 mt 2900 3112 L
2864 3076 mt 2864 3148 L
2866 2334 mt 2938 2334 L
2902 2298 mt 2902 2370 L
2063 2194 mt 2135 2194 L
2099 2158 mt 2099 2230 L
4553 2165 mt 4625 2165 L
4589 2129 mt 4589 2201 L
2836 2150 mt 2908 2150 L
2872 2114 mt 2872 2186 L
4282 1476 mt 4354 1476 L
4318 1440 mt 4318 1512 L
3426 2275 mt 3498 2275 L
3462 2239 mt 3462 2311 L
1842 2864 mt 1914 2864 L
1878 2828 mt 1878 2900 L
3267 2741 mt 3339 2741 L
3303 2705 mt 3303 2777 L
3290 2668 mt 3362 2668 L
3326 2632 mt 3326 2704 L
3516 2288 mt 3588 2288 L
3552 2252 mt 3552 2324 L
2966 2242 mt 3038 2242 L
3002 2206 mt 3002 2278 L
2444 1671 mt 2516 1671 L
2480 1635 mt 2480 1707 L
2165 4205 mt 2237 4205 L
2201 4169 mt 2201 4241 L
3261 2338 mt 3333 2338 L
3297 2302 mt 3297 2374 L
2781 1748 mt 2853 1748 L
2817 1712 mt 2817 1784 L
3964 3235 mt 4036 3235 L
4000 3199 mt 4000 3271 L
4693 3980 mt 4765 3980 L
4729 3944 mt 4729 4016 L
2456 2024 mt 2528 2024 L
2492 1988 mt 2492 2060 L
1876 2392 mt 1948 2392 L
1912 2356 mt 1912 2428 L
2312 1419 mt 2384 1419 L
2348 1383 mt 2348 1455 L
4574 1831 mt 4646 1831 L
4610 1795 mt 4610 1867 L
3582 2083 mt 3654 2083 L
3618 2047 mt 3618 2119 L
3438 2641 mt 3510 2641 L
3474 2605 mt 3474 2677 L
4080 2889 mt 4152 2889 L
4116 2853 mt 4116 2925 L
2917 2646 mt 2989 2646 L
2953 2610 mt 2953 2682 L
3734 2844 mt 3806 2844 L
3770 2808 mt 3770 2880 L
3873 2440 mt 3945 2440 L
3909 2404 mt 3909 2476 L
4100 3376 mt 4172 3376 L
4136 3340 mt 4136 3412 L
4564 3034 mt 4636 3034 L
4600 2998 mt 4600 3070 L
2523 1732 mt 2595 1732 L
2559 1696 mt 2559 1768 L
3745 1802 mt 3817 1802 L
3781 1766 mt 3781 1838 L
2697 1489 mt 2769 1489 L
2733 1453 mt 2733 1525 L
2980 2536 mt 3052 2536 L
3016 2500 mt 3016 2572 L
4453 1006 mt 4525 1006 L
4489  970 mt 4489 1042 L
3850 2655 mt 3922 2655 L
3886 2619 mt 3886 2691 L
1481 3220 mt 1553 3220 L
1517 3184 mt 1517 3256 L
2931 3087 mt 3003 3087 L
2967 3051 mt 2967 3123 L
3381 2140 mt 3453 2140 L
3417 2104 mt 3417 2176 L
3160 2471 mt 3232 2471 L
3196 2435 mt 3196 2507 L
2851 3273 mt 2923 3273 L
2887 3237 mt 2887 3309 L
3027 2611 mt 3099 2611 L
3063 2575 mt 3063 2647 L
4002 2935 mt 4074 2935 L
4038 2899 mt 4038 2971 L
3809 1723 mt 3881 1723 L
3845 1687 mt 3845 1759 L
4347 1898 mt 4419 1898 L
4383 1862 mt 4383 1934 L
2565 2830 mt 2637 2830 L
2601 2794 mt 2601 2866 L
3278 3405 mt 3350 3405 L
3314 3369 mt 3314 3441 L
3196 1756 mt 3268 1756 L
3232 1720 mt 3232 1792 L
2797 2673 mt 2869 2673 L
2833 2637 mt 2833 2709 L
2749 2745 mt 2821 2745 L
2785 2709 mt 2785 2781 L
3178 3297 mt 3250 3297 L
3214 3261 mt 3214 3333 L
3053 2135 mt 3125 2135 L
3089 2099 mt 3089 2171 L
2407 3658 mt 2479 3658 L
2443 3622 mt 2443 3694 L
3232 2418 mt 3304 2418 L
3268 2382 mt 3268 2454 L
1722 2396 mt 1794 2396 L
1758 2360 mt 1758 2432 L
2555 3358 mt 2627 3358 L
2591 3322 mt 2591 3394 L
3013 3184 mt 3085 3184 L
3049 3148 mt 3049 3220 L
2490 1232 mt 2562 1232 L
2526 1196 mt 2526 1268 L
3488 2453 mt 3560 2453 L
3524 2417 mt 3524 2489 L
3184 2978 mt 3256 2978 L
3220 2942 mt 3220 3014 L
3443 3386 mt 3515 3386 L
3479 3350 mt 3479 3422 L
2805 2279 mt 2877 2279 L
2841 2243 mt 2841 2315 L
2973 3641 mt 3045 3641 L
3009 3605 mt 3009 3677 L
2298 2237 mt 2370 2237 L
2334 2201 mt 2334 2273 L
5024 2580 mt 5096 2580 L
5060 2544 mt 5060 2616 L
5468 1942 mt 5540 1942 L
5504 1906 mt 5504 1978 L
3594 2185 mt 3666 2185 L
3630 2149 mt 3630 2221 L
4512 2497 mt 4584 2497 L
4548 2461 mt 4548 2533 L
3325 3099 mt 3397 3099 L
3361 3063 mt 3361 3135 L
3527 2713 mt 3599 2713 L
3563 2677 mt 3563 2749 L
4820 2532 mt 4892 2532 L
4856 2496 mt 4856 2568 L
3971 3367 mt 4043 3367 L
4007 3331 mt 4007 3403 L
3571 2650 mt 3643 2650 L
3607 2614 mt 3607 2686 L
3700 2718 mt 3772 2718 L
3736 2682 mt 3736 2754 L
2789 1885 mt 2861 1885 L
2825 1849 mt 2825 1921 L
2420 2284 mt 2492 2284 L
2456 2248 mt 2456 2320 L
3940 2458 mt 4012 2458 L
3976 2422 mt 3976 2494 L
4047 1809 mt 4119 1809 L
4083 1773 mt 4083 1845 L
4206 2946 mt 4278 2946 L
4242 2910 mt 4242 2982 L
2106 3157 mt 2178 3157 L
2142 3121 mt 2142 3193 L
3110 4023 mt 3182 4023 L
3146 3987 mt 3146 4059 L
3844 1604 mt 3916 1604 L
3880 1568 mt 3880 1640 L
gs 899 414 5363 4203 rc
gr

0 sg
2826 5104 mt 
(\(F,DCTs,MLP\)) s
 482 3273 mt  -90 rotate
(\(F,DCTb,MLP\)) s
90 rotate
2975  223 mt 
(Corr = 0.14) s

end %%Color Dict

eplot
%%EndObject

epage
end

showpage

%%Trailer
%%EOF
