%!PS-Adobe-3.0 EPSF-3.0
%%Creator: MATLAB, The Mathworks, Inc. Version 7.7.0.471 (R2008b). Operating System: Microsoft Windows XP.
%%Title: Pictures\main_zoo_mvar_analysis_data_BMI_xcorr_bmi_p1_k1_8_9.eps
%%CreationDate: 10/26/2009  05:44:12
%%DocumentNeededFonts: Helvetica
%%DocumentProcessColors: Cyan Magenta Yellow Black
%%LanguageLevel: 2
%%Pages: 1
%%BoundingBox:    21   180   555   616
%%EndComments

%%BeginProlog
% MathWorks dictionary
/MathWorks 160 dict begin
% definition operators
/bdef {bind def} bind def
/ldef {load def} bind def
/xdef {exch def} bdef
/xstore {exch store} bdef
% operator abbreviations
/c  /clip ldef
/cc /concat ldef
/cp /closepath ldef
/gr /grestore ldef
/gs /gsave ldef
/mt /moveto ldef
/np /newpath ldef
/cm /currentmatrix ldef
/sm /setmatrix ldef
/rm /rmoveto ldef
/rl /rlineto ldef
/s {show newpath} bdef
/sc {setcmykcolor} bdef
/sr /setrgbcolor ldef
/sg /setgray ldef
/w /setlinewidth ldef
/j /setlinejoin ldef
/cap /setlinecap ldef
/rc {rectclip} bdef
/rf {rectfill} bdef
% page state control
/pgsv () def
/bpage {/pgsv save def} bdef
/epage {pgsv restore} bdef
/bplot /gsave ldef
/eplot {stroke grestore} bdef
% orientation switch
/portraitMode 0 def /landscapeMode 1 def /rotateMode 2 def
% coordinate system mappings
/dpi2point 0 def
% font control
/FontSize 0 def
/FMS {/FontSize xstore findfont [FontSize 0 0 FontSize neg 0 0]
  makefont setfont} bdef
/ISOLatin1Encoding where {pop /WindowsLatin1Encoding 256 array bdef
ISOLatin1Encoding WindowsLatin1Encoding copy pop
/.notdef/.notdef/quotesinglbase/florin/quotedblbase/ellipsis/dagger
/daggerdbl/circumflex/perthousand/Scaron/guilsinglleft/OE/.notdef/.notdef
/.notdef/.notdef/quoteleft/quoteright/quotedblleft/quotedblright/bullet
/endash/emdash/tilde/trademark/scaron/guilsinglright/oe/.notdef/.notdef
/Ydieresis WindowsLatin1Encoding 128 32 getinterval astore pop}
{/WindowsLatin1Encoding StandardEncoding bdef} ifelse
/reencode {exch dup where {pop load} {pop StandardEncoding} ifelse
  exch dup 3 1 roll findfont dup length dict begin
  { 1 index /FID ne {def}{pop pop} ifelse } forall
  /Encoding exch def currentdict end definefont pop} bdef
/isroman {findfont /CharStrings get /Agrave known} bdef
/FMSR {3 1 roll 1 index dup isroman {reencode} {pop pop} ifelse
  exch FMS} bdef
/csm {1 dpi2point div -1 dpi2point div scale neg translate
 dup landscapeMode eq {pop -90 rotate}
  {rotateMode eq {90 rotate} if} ifelse} bdef
% line types: solid, dotted, dashed, dotdash
/SO { [] 0 setdash } bdef
/DO { [.5 dpi2point mul 4 dpi2point mul] 0 setdash } bdef
/DA { [6 dpi2point mul] 0 setdash } bdef
/DD { [.5 dpi2point mul 4 dpi2point mul 6 dpi2point mul 4
  dpi2point mul] 0 setdash } bdef
% macros for lines and objects
/L {lineto stroke} bdef
/MP {3 1 roll moveto 1 sub {rlineto} repeat} bdef
/AP {{rlineto} repeat} bdef
/PDlw -1 def
/W {/PDlw currentlinewidth def setlinewidth} def
/PP {closepath eofill} bdef
/DP {closepath stroke} bdef
/MR {4 -2 roll moveto dup  0 exch rlineto exch 0 rlineto
  neg 0 exch rlineto closepath} bdef
/FR {MR stroke} bdef
/PR {MR fill} bdef
/L1i {{currentfile picstr readhexstring pop} image} bdef
/tMatrix matrix def
/MakeOval {newpath tMatrix currentmatrix pop translate scale
0 0 1 0 360 arc tMatrix setmatrix} bdef
/FO {MakeOval stroke} bdef
/PO {MakeOval fill} bdef
/PD {currentlinewidth 2 div 0 360 arc fill
   PDlw -1 eq not {PDlw w /PDlw -1 def} if} def
/FA {newpath tMatrix currentmatrix pop translate scale
  0 0 1 5 -2 roll arc tMatrix setmatrix stroke} bdef
/PA {newpath tMatrix currentmatrix pop	translate 0 0 moveto scale
  0 0 1 5 -2 roll arc closepath tMatrix setmatrix fill} bdef
/FAn {newpath tMatrix currentmatrix pop translate scale
  0 0 1 5 -2 roll arcn tMatrix setmatrix stroke} bdef
/PAn {newpath tMatrix currentmatrix pop translate 0 0 moveto scale
  0 0 1 5 -2 roll arcn closepath tMatrix setmatrix fill} bdef
/vradius 0 def /hradius 0 def /lry 0 def
/lrx 0 def /uly 0 def /ulx 0 def /rad 0 def
/MRR {/vradius xdef /hradius xdef /lry xdef /lrx xdef /uly xdef
  /ulx xdef newpath tMatrix currentmatrix pop ulx hradius add uly
  vradius add translate hradius vradius scale 0 0 1 180 270 arc 
  tMatrix setmatrix lrx hradius sub uly vradius add translate
  hradius vradius scale 0 0 1 270 360 arc tMatrix setmatrix
  lrx hradius sub lry vradius sub translate hradius vradius scale
  0 0 1 0 90 arc tMatrix setmatrix ulx hradius add lry vradius sub
  translate hradius vradius scale 0 0 1 90 180 arc tMatrix setmatrix
  closepath} bdef
/FRR {MRR stroke } bdef
/PRR {MRR fill } bdef
/MlrRR {/lry xdef /lrx xdef /uly xdef /ulx xdef /rad lry uly sub 2 div def
  newpath tMatrix currentmatrix pop ulx rad add uly rad add translate
  rad rad scale 0 0 1 90 270 arc tMatrix setmatrix lrx rad sub lry rad
  sub translate rad rad scale 0 0 1 270 90 arc tMatrix setmatrix
  closepath} bdef
/FlrRR {MlrRR stroke } bdef
/PlrRR {MlrRR fill } bdef
/MtbRR {/lry xdef /lrx xdef /uly xdef /ulx xdef /rad lrx ulx sub 2 div def
  newpath tMatrix currentmatrix pop ulx rad add uly rad add translate
  rad rad scale 0 0 1 180 360 arc tMatrix setmatrix lrx rad sub lry rad
  sub translate rad rad scale 0 0 1 0 180 arc tMatrix setmatrix
  closepath} bdef
/FtbRR {MtbRR stroke } bdef
/PtbRR {MtbRR fill } bdef
/stri 6 array def /dtri 6 array def
/smat 6 array def /dmat 6 array def
/tmat1 6 array def /tmat2 6 array def /dif 3 array def
/asub {/ind2 exch def /ind1 exch def dup dup
  ind1 get exch ind2 get sub exch } bdef
/tri_to_matrix {
  2 0 asub 3 1 asub 4 0 asub 5 1 asub
  dup 0 get exch 1 get 7 -1 roll astore } bdef
/compute_transform {
  dmat dtri tri_to_matrix tmat1 invertmatrix 
  smat stri tri_to_matrix tmat2 concatmatrix } bdef
/ds {stri astore pop} bdef
/dt {dtri astore pop} bdef
/db {2 copy /cols xdef /rows xdef mul dup 3 mul string
  currentfile 
  3 index 0 eq {/ASCIIHexDecode filter}
  {/ASCII85Decode filter 3 index 2 eq {/RunLengthDecode filter} if }
  ifelse exch readstring pop
  dup 0 3 index getinterval /rbmap xdef
  dup 2 index dup getinterval /gbmap xdef
  1 index dup 2 mul exch getinterval /bbmap xdef pop pop}bdef
/it {gs np dtri aload pop moveto lineto lineto cp c
  cols rows 8 compute_transform 
  rbmap gbmap bbmap true 3 colorimage gr}bdef
/il {newpath moveto lineto stroke}bdef
currentdict end def
%%EndProlog

%%BeginSetup
MathWorks begin

0 cap

end
%%EndSetup

%%Page: 1 1
%%BeginPageSetup
%%PageBoundingBox:    21   180   555   616
MathWorks begin
bpage
%%EndPageSetup

%%BeginObject: obj1
bplot

/dpi2point 12 def
portraitMode 0216 7344 csm

   40   -48  6404  5231 rc
85 dict begin %Colortable dictionary
/c0 { 0.000000 0.000000 0.000000 sr} bdef
/c1 { 1.000000 1.000000 1.000000 sr} bdef
/c2 { 0.900000 0.000000 0.000000 sr} bdef
/c3 { 0.000000 0.820000 0.000000 sr} bdef
/c4 { 0.000000 0.000000 0.800000 sr} bdef
/c5 { 0.910000 0.820000 0.320000 sr} bdef
/c6 { 1.000000 0.260000 0.820000 sr} bdef
/c7 { 0.000000 0.820000 0.820000 sr} bdef
c0
1 j
1 sg
   0    0 6919 5187 rf
6 w
0 4202 5363 0 0 -4202 898 4616 4 MP
PP
-5363 0 0 4202 5363 0 0 -4202 898 4616 5 MP stroke
4 w
DO
SO
6 w
0 sg
 898  414 mt 6261  414 L
 898 4616 mt 6261 4616 L
6261 4616 mt 6261  414 L
 898 4616 mt  898  414 L
 898 4616 mt 6261 4616 L
 898 4616 mt  898  414 L
1964 4616 mt 1964 4562 L
1964  414 mt 1964  467 L
%%IncludeResource: font Helvetica
/Helvetica /WindowsLatin1Encoding 240 FMSR

1798 4873 mt 
(0.1) s
3030 4616 mt 3030 4562 L
3030  414 mt 3030  467 L
2864 4873 mt 
(0.2) s
4096 4616 mt 4096 4562 L
4096  414 mt 4096  467 L
3930 4873 mt 
(0.3) s
5162 4616 mt 5162 4562 L
5162  414 mt 5162  467 L
4996 4873 mt 
(0.4) s
6228 4616 mt 6228 4562 L
6228  414 mt 6228  467 L
6062 4873 mt 
(0.5) s
 898 3934 mt  952 3934 L
6261 3934 mt 6207 3934 L
 397 4023 mt 
(0.05) s
 898 3253 mt  952 3253 L
6261 3253 mt 6207 3253 L
 531 3342 mt 
(0.1) s
 898 2572 mt  952 2572 L
6261 2572 mt 6207 2572 L
 397 2661 mt 
(0.15) s
 898 1891 mt  952 1891 L
6261 1891 mt 6207 1891 L
 531 1980 mt 
(0.2) s
 898 1209 mt  952 1209 L
6261 1209 mt 6207 1209 L
 397 1298 mt 
(0.25) s
 898  528 mt  952  528 L
6261  528 mt 6207  528 L
 531  617 mt 
(0.3) s
 898  414 mt 6261  414 L
 898 4616 mt 6261 4616 L
6261 4616 mt 6261  414 L
 898 4616 mt  898  414 L
gs 898 414 5363 4203 rc
gr

/c8 { 0.000000 0.000000 1.000000 sr} bdef
c8
6225 3194 mt 6297 3194 L
6261 3158 mt 6261 3230 L
1125 4484 mt 1197 4484 L
1161 4448 mt 1161 4520 L
 939 4615 mt 1011 4615 L
 975 4579 mt  975 4651 L
1374 4536 mt 1446 4536 L
1410 4500 mt 1410 4572 L
1259 3542 mt 1331 3542 L
1295 3506 mt 1295 3578 L
 986 4494 mt 1058 4494 L
1022 4458 mt 1022 4530 L
2917 4316 mt 2989 4316 L
2953 4280 mt 2953 4352 L
1098 3896 mt 1170 3896 L
1134 3860 mt 1134 3932 L
 863 4160 mt  935 4160 L
 899 4124 mt  899 4196 L
1817 3785 mt 1889 3785 L
1853 3749 mt 1853 3821 L
1176 3233 mt 1248 3233 L
1212 3197 mt 1212 3269 L
 862 3995 mt  934 3995 L
 898 3959 mt  898 4031 L
 872 3987 mt  944 3987 L
 908 3951 mt  908 4023 L
 887 4088 mt  959 4088 L
 923 4052 mt  923 4124 L
1268 3719 mt 1340 3719 L
1304 3683 mt 1304 3755 L
2181 4130 mt 2253 4130 L
2217 4094 mt 2217 4166 L
2959 4590 mt 3031 4590 L
2995 4554 mt 2995 4626 L
1250 3930 mt 1322 3930 L
1286 3894 mt 1286 3966 L
1053 4358 mt 1125 4358 L
1089 4322 mt 1089 4394 L
1896 4609 mt 1968 4609 L
1932 4573 mt 1932 4645 L
1291 4572 mt 1363 4572 L
1327 4536 mt 1327 4608 L
1111 1537 mt 1183 1537 L
1147 1501 mt 1147 1573 L
1249 2348 mt 1321 2348 L
1285 2312 mt 1285 2384 L
1213  598 mt 1285  598 L
1249  562 mt 1249  634 L
2105 3722 mt 2177 3722 L
2141 3686 mt 2141 3758 L
1001 4583 mt 1073 4583 L
1037 4547 mt 1037 4619 L
1586 4348 mt 1658 4348 L
1622 4312 mt 1622 4384 L
 992 4266 mt 1064 4266 L
1028 4230 mt 1028 4302 L
 946 4466 mt 1018 4466 L
 982 4430 mt  982 4502 L
1137 4601 mt 1209 4601 L
1173 4565 mt 1173 4637 L
2997 4612 mt 3069 4612 L
3033 4576 mt 3033 4648 L
1231 3800 mt 1303 3800 L
1267 3764 mt 1267 3836 L
1154 4609 mt 1226 4609 L
1190 4573 mt 1190 4645 L
2268 4406 mt 2340 4406 L
2304 4370 mt 2304 4442 L
 890 4565 mt  962 4565 L
 926 4529 mt  926 4601 L
1147 4507 mt 1219 4507 L
1183 4471 mt 1183 4543 L
 913 4408 mt  985 4408 L
 949 4372 mt  949 4444 L
 986 4400 mt 1058 4400 L
1022 4364 mt 1022 4436 L
1247 3603 mt 1319 3603 L
1283 3567 mt 1283 3639 L
4516 4615 mt 4588 4615 L
4552 4579 mt 4552 4651 L
1119 4592 mt 1191 4592 L
1155 4556 mt 1155 4628 L
1195 4143 mt 1267 4143 L
1231 4107 mt 1231 4179 L
2373 4611 mt 2445 4611 L
2409 4575 mt 2409 4647 L
2246 1497 mt 2318 1497 L
2282 1461 mt 2282 1533 L
2244 4572 mt 2316 4572 L
2280 4536 mt 2280 4608 L
 936 4559 mt 1008 4559 L
 972 4523 mt  972 4595 L
5244 4166 mt 5316 4166 L
5280 4130 mt 5280 4202 L
1001 4600 mt 1073 4600 L
1037 4564 mt 1037 4636 L
 866 4568 mt  938 4568 L
 902 4532 mt  902 4604 L
1294 4479 mt 1366 4479 L
1330 4443 mt 1330 4515 L
1409 2008 mt 1481 2008 L
1445 1972 mt 1445 2044 L
1419 3888 mt 1491 3888 L
1455 3852 mt 1455 3924 L
 978 3099 mt 1050 3099 L
1014 3063 mt 1014 3135 L
1194 4439 mt 1266 4439 L
1230 4403 mt 1230 4475 L
 986 2910 mt 1058 2910 L
1022 2874 mt 1022 2946 L
1962 4256 mt 2034 4256 L
1998 4220 mt 1998 4292 L
1420 3647 mt 1492 3647 L
1456 3611 mt 1456 3683 L
 866 3761 mt  938 3761 L
 902 3725 mt  902 3797 L
1097 4384 mt 1169 4384 L
1133 4348 mt 1133 4420 L
1192 4612 mt 1264 4612 L
1228 4576 mt 1228 4648 L
1554 3277 mt 1626 3277 L
1590 3241 mt 1590 3313 L
1059 4542 mt 1131 4542 L
1095 4506 mt 1095 4578 L
5287 3896 mt 5359 3896 L
5323 3860 mt 5323 3932 L
2053 4485 mt 2125 4485 L
2089 4449 mt 2089 4521 L
 863 4504 mt  935 4504 L
 899 4468 mt  899 4540 L
1789 4027 mt 1861 4027 L
1825 3991 mt 1825 4063 L
 871 4611 mt  943 4611 L
 907 4575 mt  907 4647 L
 867 4615 mt  939 4615 L
 903 4579 mt  903 4651 L
 872 4063 mt  944 4063 L
 908 4027 mt  908 4099 L
1117 4392 mt 1189 4392 L
1153 4356 mt 1153 4428 L
1855 4612 mt 1927 4612 L
1891 4576 mt 1891 4648 L
 907 4502 mt  979 4502 L
 943 4466 mt  943 4538 L
1256 3852 mt 1328 3852 L
1292 3816 mt 1292 3888 L
 865 4198 mt  937 4198 L
 901 4162 mt  901 4234 L
 918 2721 mt  990 2721 L
 954 2685 mt  954 2757 L
1271 4615 mt 1343 4615 L
1307 4579 mt 1307 4651 L
1006 4125 mt 1078 4125 L
1042 4089 mt 1042 4161 L
 903 4601 mt  975 4601 L
 939 4565 mt  939 4637 L
1810 4065 mt 1882 4065 L
1846 4029 mt 1846 4101 L
 910 4041 mt  982 4041 L
 946 4005 mt  946 4077 L
1325 3194 mt 1397 3194 L
1361 3158 mt 1361 3230 L
2259 4454 mt 2331 4454 L
2295 4418 mt 2295 4490 L
3847 4574 mt 3919 4574 L
3883 4538 mt 3883 4610 L
1278 4600 mt 1350 4600 L
1314 4564 mt 1314 4636 L
3762 4589 mt 3834 4589 L
3798 4553 mt 3798 4625 L
1364 3830 mt 1436 3830 L
1400 3794 mt 1400 3866 L
 872  671 mt  944  671 L
 908  635 mt  908  707 L
 921 4153 mt  993 4153 L
 957 4117 mt  957 4189 L
 873 4601 mt  945 4601 L
 909 4565 mt  909 4637 L
1989 3545 mt 2061 3545 L
2025 3509 mt 2025 3581 L
 947 4606 mt 1019 4606 L
 983 4570 mt  983 4642 L
1239 2150 mt 1311 2150 L
1275 2114 mt 1275 2186 L
1233 4000 mt 1305 4000 L
1269 3964 mt 1269 4036 L
 877 4465 mt  949 4465 L
 913 4429 mt  913 4501 L
 955 4374 mt 1027 4374 L
 991 4338 mt  991 4410 L
1786 4490 mt 1858 4490 L
1822 4454 mt 1822 4526 L
1771 4562 mt 1843 4562 L
1807 4526 mt 1807 4598 L
 975 4606 mt 1047 4606 L
1011 4570 mt 1011 4642 L
1429 4562 mt 1501 4562 L
1465 4526 mt 1465 4598 L
1335 3602 mt 1407 3602 L
1371 3566 mt 1371 3638 L
5385 4037 mt 5457 4037 L
5421 4001 mt 5421 4073 L
 986 3028 mt 1058 3028 L
1022 2992 mt 1022 3064 L
4932 2356 mt 5004 2356 L
4968 2320 mt 4968 2392 L
1454 4321 mt 1526 4321 L
1490 4285 mt 1490 4357 L
1093 3829 mt 1165 3829 L
1129 3793 mt 1129 3865 L
1086 4040 mt 1158 4040 L
1122 4004 mt 1122 4076 L
 863 4522 mt  935 4522 L
 899 4486 mt  899 4558 L
1025 4239 mt 1097 4239 L
1061 4203 mt 1061 4275 L
 941 3641 mt 1013 3641 L
 977 3605 mt  977 3677 L
1636 4613 mt 1708 4613 L
1672 4577 mt 1672 4649 L
 869 4459 mt  941 4459 L
 905 4423 mt  905 4495 L
 960 4549 mt 1032 4549 L
 996 4513 mt  996 4585 L
 901 4142 mt  973 4142 L
 937 4106 mt  937 4178 L
1098 3913 mt 1170 3913 L
1134 3877 mt 1134 3949 L
1187 3328 mt 1259 3328 L
1223 3292 mt 1223 3364 L
1076 2068 mt 1148 2068 L
1112 2032 mt 1112 2104 L
 875 4537 mt  947 4537 L
 911 4501 mt  911 4573 L
 864 4500 mt  936 4500 L
 900 4464 mt  900 4536 L
1955 4542 mt 2027 4542 L
1991 4506 mt 1991 4578 L
3327 3762 mt 3399 3762 L
3363 3726 mt 3363 3798 L
1440 4486 mt 1512 4486 L
1476 4450 mt 1476 4522 L
1544 1892 mt 1616 1892 L
1580 1856 mt 1580 1928 L
 870 4510 mt  942 4510 L
 906 4474 mt  906 4546 L
3121 3481 mt 3193 3481 L
3157 3445 mt 3157 3517 L
1740 4087 mt 1812 4087 L
1776 4051 mt 1776 4123 L
1928 3894 mt 2000 3894 L
1964 3858 mt 1964 3930 L
1351 4591 mt 1423 4591 L
1387 4555 mt 1387 4627 L
1143 3990 mt 1215 3990 L
1179 3954 mt 1179 4026 L
1126 4404 mt 1198 4404 L
1162 4368 mt 1162 4440 L
1204 2611 mt 1276 2611 L
1240 2575 mt 1240 2647 L
1342 3732 mt 1414 3732 L
1378 3696 mt 1378 3768 L
2108 3242 mt 2180 3242 L
2144 3206 mt 2144 3278 L
 904 3854 mt  976 3854 L
 940 3818 mt  940 3890 L
 893 3809 mt  965 3809 L
 929 3773 mt  929 3845 L
1821 4502 mt 1893 4502 L
1857 4466 mt 1857 4538 L
 895 4419 mt  967 4419 L
 931 4383 mt  931 4455 L
 953 4498 mt 1025 4498 L
 989 4462 mt  989 4534 L
3124 4568 mt 3196 4568 L
3160 4532 mt 3160 4604 L
1113 4270 mt 1185 4270 L
1149 4234 mt 1149 4306 L
1769 4218 mt 1841 4218 L
1805 4182 mt 1805 4254 L
 863 4372 mt  935 4372 L
 899 4336 mt  899 4408 L
 863 4004 mt  935 4004 L
 899 3968 mt  899 4040 L
2096 4170 mt 2168 4170 L
2132 4134 mt 2132 4206 L
1250 3905 mt 1322 3905 L
1286 3869 mt 1286 3941 L
1450 4211 mt 1522 4211 L
1486 4175 mt 1486 4247 L
1696 4535 mt 1768 4535 L
1732 4499 mt 1732 4571 L
 875 3751 mt  947 3751 L
 911 3715 mt  911 3787 L
2157 2202 mt 2229 2202 L
2193 2166 mt 2193 2238 L
 888 4139 mt  960 4139 L
 924 4103 mt  924 4175 L
1529 4452 mt 1601 4452 L
1565 4416 mt 1565 4488 L
 954 3773 mt 1026 3773 L
 990 3737 mt  990 3809 L
1320 4278 mt 1392 4278 L
1356 4242 mt 1356 4314 L
3130 4615 mt 3202 4615 L
3166 4579 mt 3166 4651 L
1032 3475 mt 1104 3475 L
1068 3439 mt 1068 3511 L
1673 4462 mt 1745 4462 L
1709 4426 mt 1709 4498 L
1033 4484 mt 1105 4484 L
1069 4448 mt 1069 4520 L
 929 4606 mt 1001 4606 L
 965 4570 mt  965 4642 L
1216 3826 mt 1288 3826 L
1252 3790 mt 1252 3862 L
1020 3268 mt 1092 3268 L
1056 3232 mt 1056 3304 L
1054 3797 mt 1126 3797 L
1090 3761 mt 1090 3833 L
1811 4604 mt 1883 4604 L
1847 4568 mt 1847 4640 L
1212 4310 mt 1284 4310 L
1248 4274 mt 1248 4346 L
2380 2031 mt 2452 2031 L
2416 1995 mt 2416 2067 L
 873 4588 mt  945 4588 L
 909 4552 mt  909 4624 L
1019 3816 mt 1091 3816 L
1055 3780 mt 1055 3852 L
1816 4586 mt 1888 4586 L
1852 4550 mt 1852 4622 L
2122 4456 mt 2194 4456 L
2158 4420 mt 2158 4492 L
 945 3425 mt 1017 3425 L
 981 3389 mt  981 3461 L
 878 3305 mt  950 3305 L
 914 3269 mt  914 3341 L
1194 4498 mt 1266 4498 L
1230 4462 mt 1230 4534 L
2647 1973 mt 2719 1973 L
2683 1937 mt 2683 2009 L
2085 3599 mt 2157 3599 L
2121 3563 mt 2121 3635 L
1867 4579 mt 1939 4579 L
1903 4543 mt 1903 4615 L
1699 4128 mt 1771 4128 L
1735 4092 mt 1735 4164 L
1996 3911 mt 2068 3911 L
2032 3875 mt 2032 3947 L
 919 3998 mt  991 3998 L
 955 3962 mt  955 4034 L
1176 4264 mt 1248 4264 L
1212 4228 mt 1212 4300 L
 960 4611 mt 1032 4611 L
 996 4575 mt  996 4647 L
3248 4427 mt 3320 4427 L
3284 4391 mt 3284 4463 L
 880 4472 mt  952 4472 L
 916 4436 mt  916 4508 L
 866 3298 mt  938 3298 L
 902 3262 mt  902 3334 L
4076 4613 mt 4148 4613 L
4112 4577 mt 4112 4649 L
4468  813 mt 4540  813 L
4504  777 mt 4504  849 L
 886 4336 mt  958 4336 L
 922 4300 mt  922 4372 L
1288 4349 mt 1360 4349 L
1324 4313 mt 1324 4385 L
2922 4387 mt 2994 4387 L
2958 4351 mt 2958 4423 L
2427 2808 mt 2499 2808 L
2463 2772 mt 2463 2844 L
2135 4507 mt 2207 4507 L
2171 4471 mt 2171 4543 L
 926 4610 mt  998 4610 L
 962 4574 mt  962 4646 L
2692 2103 mt 2764 2103 L
2728 2067 mt 2728 2139 L
 896 4138 mt  968 4138 L
 932 4102 mt  932 4174 L
1393  414 mt 1465  414 L
1429  378 mt 1429  450 L
1288 4556 mt 1360 4556 L
1324 4520 mt 1324 4592 L
1052 3262 mt 1124 3262 L
1088 3226 mt 1088 3298 L
1053 3641 mt 1125 3641 L
1089 3605 mt 1089 3677 L
5208 4196 mt 5280 4196 L
5244 4160 mt 5244 4232 L
2815 2991 mt 2887 2991 L
2851 2955 mt 2851 3027 L
3973 3588 mt 4045 3588 L
4009 3552 mt 4009 3624 L
1044 4094 mt 1116 4094 L
1080 4058 mt 1080 4130 L
 960 3826 mt 1032 3826 L
 996 3790 mt  996 3862 L
5868 3159 mt 5940 3159 L
5904 3123 mt 5904 3195 L
2359 2927 mt 2431 2927 L
2395 2891 mt 2395 2963 L
 958 4406 mt 1030 4406 L
 994 4370 mt  994 4442 L
 998 4172 mt 1070 4172 L
1034 4136 mt 1034 4208 L
 913 4204 mt  985 4204 L
 949 4168 mt  949 4240 L
 981 4168 mt 1053 4168 L
1017 4132 mt 1017 4204 L
2171 4406 mt 2243 4406 L
2207 4370 mt 2207 4442 L
 960 4614 mt 1032 4614 L
 996 4578 mt  996 4650 L
 878 4054 mt  950 4054 L
 914 4018 mt  914 4090 L
1910 4301 mt 1982 4301 L
1946 4265 mt 1946 4337 L
 917 4008 mt  989 4008 L
 953 3972 mt  953 4044 L
1273 4558 mt 1345 4558 L
1309 4522 mt 1309 4594 L
 946 4308 mt 1018 4308 L
 982 4272 mt  982 4344 L
1640 2166 mt 1712 2166 L
1676 2130 mt 1676 2202 L
1255 3349 mt 1327 3349 L
1291 3313 mt 1291 3385 L
3107 3254 mt 3179 3254 L
3143 3218 mt 3143 3290 L
2762 4613 mt 2834 4613 L
2798 4577 mt 2798 4649 L
 991 4295 mt 1063 4295 L
1027 4259 mt 1027 4331 L
1610 4609 mt 1682 4609 L
1646 4573 mt 1646 4645 L
2343 4389 mt 2415 4389 L
2379 4353 mt 2379 4425 L
 912 4572 mt  984 4572 L
 948 4536 mt  948 4608 L
 872  623 mt  944  623 L
 908  587 mt  908  659 L
2249 3570 mt 2321 3570 L
2285 3534 mt 2285 3606 L
 908 1512 mt  980 1512 L
 944 1476 mt  944 1548 L
2193 4125 mt 2265 4125 L
2229 4089 mt 2229 4161 L
 863 4615 mt  935 4615 L
 899 4579 mt  899 4651 L
 924 4372 mt  996 4372 L
 960 4336 mt  960 4408 L
1002 4530 mt 1074 4530 L
1038 4494 mt 1038 4566 L
1652 4030 mt 1724 4030 L
1688 3994 mt 1688 4066 L
 894 3984 mt  966 3984 L
 930 3948 mt  930 4020 L
1812 3523 mt 1884 3523 L
1848 3487 mt 1848 3559 L
2123 4421 mt 2195 4421 L
2159 4385 mt 2159 4457 L
 914 4593 mt  986 4593 L
 950 4557 mt  950 4629 L
3615 4607 mt 3687 4607 L
3651 4571 mt 3651 4643 L
 877 4449 mt  949 4449 L
 913 4413 mt  913 4485 L
 864 4478 mt  936 4478 L
 900 4442 mt  900 4514 L
 892 4592 mt  964 4592 L
 928 4556 mt  928 4628 L
 941 2473 mt 1013 2473 L
 977 2437 mt  977 2509 L
1147 3140 mt 1219 3140 L
1183 3104 mt 1183 3176 L
3683 4568 mt 3755 4568 L
3719 4532 mt 3719 4604 L
1263 4567 mt 1335 4567 L
1299 4531 mt 1299 4603 L
1935 4607 mt 2007 4607 L
1971 4571 mt 1971 4643 L
1596 4602 mt 1668 4602 L
1632 4566 mt 1632 4638 L
1513 2701 mt 1585 2701 L
1549 2665 mt 1549 2737 L
1366 4216 mt 1438 4216 L
1402 4180 mt 1402 4252 L
1220 4567 mt 1292 4567 L
1256 4531 mt 1256 4603 L
4882 3559 mt 4954 3559 L
4918 3523 mt 4918 3595 L
 864 4403 mt  936 4403 L
 900 4367 mt  900 4439 L
 897 4517 mt  969 4517 L
 933 4481 mt  933 4553 L
1091 4588 mt 1163 4588 L
1127 4552 mt 1127 4624 L
 947 3226 mt 1019 3226 L
 983 3190 mt  983 3262 L
1060 3941 mt 1132 3941 L
1096 3905 mt 1096 3977 L
 885 3007 mt  957 3007 L
 921 2971 mt  921 3043 L
 901 4505 mt  973 4505 L
 937 4469 mt  937 4541 L
 869 3220 mt  941 3220 L
 905 3184 mt  905 3256 L
1792 4173 mt 1864 4173 L
1828 4137 mt 1828 4209 L
 961 4295 mt 1033 4295 L
 997 4259 mt  997 4331 L
 952 4179 mt 1024 4179 L
 988 4143 mt  988 4215 L
2003 3265 mt 2075 3265 L
2039 3229 mt 2039 3301 L
1833 4402 mt 1905 4402 L
1869 4366 mt 1869 4438 L
1596 3152 mt 1668 3152 L
1632 3116 mt 1632 3188 L
1074 4576 mt 1146 4576 L
1110 4540 mt 1110 4612 L
5012 4412 mt 5084 4412 L
5048 4376 mt 5048 4448 L
1904 4416 mt 1976 4416 L
1940 4380 mt 1940 4452 L
1319 4545 mt 1391 4545 L
1355 4509 mt 1355 4581 L
1027 3490 mt 1099 3490 L
1063 3454 mt 1063 3526 L
 864 4562 mt  936 4562 L
 900 4526 mt  900 4598 L
 982 4254 mt 1054 4254 L
1018 4218 mt 1018 4290 L
1167 4486 mt 1239 4486 L
1203 4450 mt 1203 4522 L
2356 4455 mt 2428 4455 L
2392 4419 mt 2392 4491 L
1161 4427 mt 1233 4427 L
1197 4391 mt 1197 4463 L
1274 4605 mt 1346 4605 L
1310 4569 mt 1310 4641 L
 917 4481 mt  989 4481 L
 953 4445 mt  953 4517 L
1105 4580 mt 1177 4580 L
1141 4544 mt 1141 4616 L
1123 3547 mt 1195 3547 L
1159 3511 mt 1159 3583 L
1630 4588 mt 1702 4588 L
1666 4552 mt 1666 4624 L
 902 3380 mt  974 3380 L
 938 3344 mt  938 3416 L
1090 4395 mt 1162 4395 L
1126 4359 mt 1126 4431 L
1012 4576 mt 1084 4576 L
1048 4540 mt 1048 4612 L
 954 4156 mt 1026 4156 L
 990 4120 mt  990 4192 L
1069 3302 mt 1141 3302 L
1105 3266 mt 1105 3338 L
2004 4365 mt 2076 4365 L
2040 4329 mt 2040 4401 L
4401 3682 mt 4473 3682 L
4437 3646 mt 4437 3718 L
2287 4250 mt 2359 4250 L
2323 4214 mt 2323 4286 L
5103 3922 mt 5175 3922 L
5139 3886 mt 5139 3958 L
 941 4512 mt 1013 4512 L
 977 4476 mt  977 4548 L
1528 1965 mt 1600 1965 L
1564 1929 mt 1564 2001 L
 910 3993 mt  982 3993 L
 946 3957 mt  946 4029 L
 972 4398 mt 1044 4398 L
1008 4362 mt 1008 4434 L
1210 4527 mt 1282 4527 L
1246 4491 mt 1246 4563 L
1650 4026 mt 1722 4026 L
1686 3990 mt 1686 4062 L
 863 3578 mt  935 3578 L
 899 3542 mt  899 3614 L
1717 4376 mt 1789 4376 L
1753 4340 mt 1753 4412 L
1548 3494 mt 1620 3494 L
1584 3458 mt 1584 3530 L
 948 4605 mt 1020 4605 L
 984 4569 mt  984 4641 L
 963 4594 mt 1035 4594 L
 999 4558 mt  999 4630 L
1183 4303 mt 1255 4303 L
1219 4267 mt 1219 4339 L
 918 4150 mt  990 4150 L
 954 4114 mt  954 4186 L
1070 4542 mt 1142 4542 L
1106 4506 mt 1106 4578 L
1791 2674 mt 1863 2674 L
1827 2638 mt 1827 2710 L
4467 4170 mt 4539 4170 L
4503 4134 mt 4503 4206 L
 864 3748 mt  936 3748 L
 900 3712 mt  900 3784 L
5139  940 mt 5211  940 L
5175  904 mt 5175  976 L
1116 4601 mt 1188 4601 L
1152 4565 mt 1152 4637 L
 894 4147 mt  966 4147 L
 930 4111 mt  930 4183 L
1412 3769 mt 1484 3769 L
1448 3733 mt 1448 3805 L
1124 4578 mt 1196 4578 L
1160 4542 mt 1160 4614 L
 953 3928 mt 1025 3928 L
 989 3892 mt  989 3964 L
 866 3777 mt  938 3777 L
 902 3741 mt  902 3813 L
1435 4575 mt 1507 4575 L
1471 4539 mt 1471 4611 L
1405 4402 mt 1477 4402 L
1441 4366 mt 1441 4438 L
 928 4517 mt 1000 4517 L
 964 4481 mt  964 4553 L
 868 4164 mt  940 4164 L
 904 4128 mt  904 4200 L
 968 4489 mt 1040 4489 L
1004 4453 mt 1004 4525 L
1945 3855 mt 2017 3855 L
1981 3819 mt 1981 3891 L
1340 2099 mt 1412 2099 L
1376 2063 mt 1376 2135 L
1249 4579 mt 1321 4579 L
1285 4543 mt 1285 4615 L
1028 3656 mt 1100 3656 L
1064 3620 mt 1064 3692 L
1294 4570 mt 1366 4570 L
1330 4534 mt 1330 4606 L
2389 3457 mt 2461 3457 L
2425 3421 mt 2425 3493 L
1018 4544 mt 1090 4544 L
1054 4508 mt 1054 4580 L
1196 2968 mt 1268 2968 L
1232 2932 mt 1232 3004 L
1278 4609 mt 1350 4609 L
1314 4573 mt 1314 4645 L
4813 3231 mt 4885 3231 L
4849 3195 mt 4849 3267 L
2604 4587 mt 2676 4587 L
2640 4551 mt 2640 4623 L
1008 4551 mt 1080 4551 L
1044 4515 mt 1044 4587 L
2487 3971 mt 2559 3971 L
2523 3935 mt 2523 4007 L
 887 3008 mt  959 3008 L
 923 2972 mt  923 3044 L
2148 4534 mt 2220 4534 L
2184 4498 mt 2184 4570 L
 942 4020 mt 1014 4020 L
 978 3984 mt  978 4056 L
 894 4310 mt  966 4310 L
 930 4274 mt  930 4346 L
1620 3224 mt 1692 3224 L
1656 3188 mt 1656 3260 L
1249 4209 mt 1321 4209 L
1285 4173 mt 1285 4245 L
 873 3830 mt  945 3830 L
 909 3794 mt  909 3866 L
2898 4583 mt 2970 4583 L
2934 4547 mt 2934 4619 L
1116 4615 mt 1188 4615 L
1152 4579 mt 1152 4651 L
 864 4594 mt  936 4594 L
 900 4558 mt  900 4630 L
2060 4542 mt 2132 4542 L
2096 4506 mt 2096 4578 L
 945 4340 mt 1017 4340 L
 981 4304 mt  981 4376 L
1321 4536 mt 1393 4536 L
1357 4500 mt 1357 4572 L
 898 4603 mt  970 4603 L
 934 4567 mt  934 4639 L
 869 4431 mt  941 4431 L
 905 4395 mt  905 4467 L
1419 4250 mt 1491 4250 L
1455 4214 mt 1455 4286 L
1282 3911 mt 1354 3911 L
1318 3875 mt 1318 3947 L
1124 4614 mt 1196 4614 L
1160 4578 mt 1160 4650 L
 874 4489 mt  946 4489 L
 910 4453 mt  910 4525 L
 892 3854 mt  964 3854 L
 928 3818 mt  928 3890 L
 932 3607 mt 1004 3607 L
 968 3571 mt  968 3643 L
1221 2409 mt 1293 2409 L
1257 2373 mt 1257 2445 L
1599 4507 mt 1671 4507 L
1635 4471 mt 1635 4543 L
1113 3776 mt 1185 3776 L
1149 3740 mt 1149 3812 L
 906 4604 mt  978 4604 L
 942 4568 mt  942 4640 L
4406 4030 mt 4478 4030 L
4442 3994 mt 4442 4066 L
 873 4360 mt  945 4360 L
 909 4324 mt  909 4396 L
1147 4257 mt 1219 4257 L
1183 4221 mt 1183 4293 L
 863 4493 mt  935 4493 L
 899 4457 mt  899 4529 L
1865 4255 mt 1937 4255 L
1901 4219 mt 1901 4291 L
2276 4596 mt 2348 4596 L
2312 4560 mt 2312 4632 L
 975 3908 mt 1047 3908 L
1011 3872 mt 1011 3944 L
1156 4116 mt 1228 4116 L
1192 4080 mt 1192 4152 L
1686 4615 mt 1758 4615 L
1722 4579 mt 1722 4651 L
 871 4607 mt  943 4607 L
 907 4571 mt  907 4643 L
1849 3544 mt 1921 3544 L
1885 3508 mt 1885 3580 L
1146 3893 mt 1218 3893 L
1182 3857 mt 1182 3929 L
1774 4523 mt 1846 4523 L
1810 4487 mt 1810 4559 L
2713 4582 mt 2785 4582 L
2749 4546 mt 2749 4618 L
1292 4418 mt 1364 4418 L
1328 4382 mt 1328 4454 L
1137 4039 mt 1209 4039 L
1173 4003 mt 1173 4075 L
1246 3783 mt 1318 3783 L
1282 3747 mt 1282 3819 L
1981 4399 mt 2053 4399 L
2017 4363 mt 2017 4435 L
2508 2637 mt 2580 2637 L
2544 2601 mt 2544 2673 L
1308 4572 mt 1380 4572 L
1344 4536 mt 1344 4608 L
1500 4486 mt 1572 4486 L
1536 4450 mt 1536 4522 L
1597 4444 mt 1669 4444 L
1633 4408 mt 1633 4480 L
3479 2652 mt 3551 2652 L
3515 2616 mt 3515 2688 L
1005 4605 mt 1077 4605 L
1041 4569 mt 1041 4641 L
1913 3076 mt 1985 3076 L
1949 3040 mt 1949 3112 L
 871 4451 mt  943 4451 L
 907 4415 mt  907 4487 L
2847 4613 mt 2919 4613 L
2883 4577 mt 2883 4649 L
 941 4588 mt 1013 4588 L
 977 4552 mt  977 4624 L
1027 4483 mt 1099 4483 L
1063 4447 mt 1063 4519 L
4552 4186 mt 4624 4186 L
4588 4150 mt 4588 4222 L
4334 1841 mt 4406 1841 L
4370 1805 mt 4370 1877 L
 943 3558 mt 1015 3558 L
 979 3522 mt  979 3594 L
 993 4608 mt 1065 4608 L
1029 4572 mt 1029 4644 L
3853 4519 mt 3925 4519 L
3889 4483 mt 3889 4555 L
1602 3923 mt 1674 3923 L
1638 3887 mt 1638 3959 L
1154 4603 mt 1226 4603 L
1190 4567 mt 1190 4639 L
 939 4577 mt 1011 4577 L
 975 4541 mt  975 4613 L
2469 2646 mt 2541 2646 L
2505 2610 mt 2505 2682 L
 910 4355 mt  982 4355 L
 946 4319 mt  946 4391 L
 885 2257 mt  957 2257 L
 921 2221 mt  921 2293 L
1724 4616 mt 1796 4616 L
1760 4580 mt 1760 4652 L
1019 3076 mt 1091 3076 L
1055 3040 mt 1055 3112 L
1195 4163 mt 1267 4163 L
1231 4127 mt 1231 4199 L
4707 4196 mt 4779 4196 L
4743 4160 mt 4743 4232 L
2080 3538 mt 2152 3538 L
2116 3502 mt 2116 3574 L
3405 4437 mt 3477 4437 L
3441 4401 mt 3441 4473 L
1231 4341 mt 1303 4341 L
1267 4305 mt 1267 4377 L
 910 4344 mt  982 4344 L
 946 4308 mt  946 4380 L
gs 898 414 5363 4203 rc
gr

0 sg
2835 5104 mt 
(\(S,PAC,GMM\)) s
 288 3277 mt  -90 rotate
(\(S,SSC,GMM\)) s
90 rotate
2974  223 mt 
(Corr = 0.09) s

end %%Color Dict

eplot
%%EndObject

epage
end

showpage

%%Trailer
%%EOF
