%!PS-Adobe-3.0 EPSF-3.0
%%Creator: MATLAB, The Mathworks, Inc. Version 7.7.0.471 (R2008b). Operating System: Microsoft Windows XP.
%%Title: Pictures\main_zoo_mvar_analysis_data_BMI_xcorr_bmi_p1_k1_7_8.eps
%%CreationDate: 10/26/2009  05:44:11
%%DocumentNeededFonts: Helvetica
%%DocumentProcessColors: Cyan Magenta Yellow Black
%%LanguageLevel: 2
%%Pages: 1
%%BoundingBox:    32   180   548   616
%%EndComments

%%BeginProlog
% MathWorks dictionary
/MathWorks 160 dict begin
% definition operators
/bdef {bind def} bind def
/ldef {load def} bind def
/xdef {exch def} bdef
/xstore {exch store} bdef
% operator abbreviations
/c  /clip ldef
/cc /concat ldef
/cp /closepath ldef
/gr /grestore ldef
/gs /gsave ldef
/mt /moveto ldef
/np /newpath ldef
/cm /currentmatrix ldef
/sm /setmatrix ldef
/rm /rmoveto ldef
/rl /rlineto ldef
/s {show newpath} bdef
/sc {setcmykcolor} bdef
/sr /setrgbcolor ldef
/sg /setgray ldef
/w /setlinewidth ldef
/j /setlinejoin ldef
/cap /setlinecap ldef
/rc {rectclip} bdef
/rf {rectfill} bdef
% page state control
/pgsv () def
/bpage {/pgsv save def} bdef
/epage {pgsv restore} bdef
/bplot /gsave ldef
/eplot {stroke grestore} bdef
% orientation switch
/portraitMode 0 def /landscapeMode 1 def /rotateMode 2 def
% coordinate system mappings
/dpi2point 0 def
% font control
/FontSize 0 def
/FMS {/FontSize xstore findfont [FontSize 0 0 FontSize neg 0 0]
  makefont setfont} bdef
/ISOLatin1Encoding where {pop /WindowsLatin1Encoding 256 array bdef
ISOLatin1Encoding WindowsLatin1Encoding copy pop
/.notdef/.notdef/quotesinglbase/florin/quotedblbase/ellipsis/dagger
/daggerdbl/circumflex/perthousand/Scaron/guilsinglleft/OE/.notdef/.notdef
/.notdef/.notdef/quoteleft/quoteright/quotedblleft/quotedblright/bullet
/endash/emdash/tilde/trademark/scaron/guilsinglright/oe/.notdef/.notdef
/Ydieresis WindowsLatin1Encoding 128 32 getinterval astore pop}
{/WindowsLatin1Encoding StandardEncoding bdef} ifelse
/reencode {exch dup where {pop load} {pop StandardEncoding} ifelse
  exch dup 3 1 roll findfont dup length dict begin
  { 1 index /FID ne {def}{pop pop} ifelse } forall
  /Encoding exch def currentdict end definefont pop} bdef
/isroman {findfont /CharStrings get /Agrave known} bdef
/FMSR {3 1 roll 1 index dup isroman {reencode} {pop pop} ifelse
  exch FMS} bdef
/csm {1 dpi2point div -1 dpi2point div scale neg translate
 dup landscapeMode eq {pop -90 rotate}
  {rotateMode eq {90 rotate} if} ifelse} bdef
% line types: solid, dotted, dashed, dotdash
/SO { [] 0 setdash } bdef
/DO { [.5 dpi2point mul 4 dpi2point mul] 0 setdash } bdef
/DA { [6 dpi2point mul] 0 setdash } bdef
/DD { [.5 dpi2point mul 4 dpi2point mul 6 dpi2point mul 4
  dpi2point mul] 0 setdash } bdef
% macros for lines and objects
/L {lineto stroke} bdef
/MP {3 1 roll moveto 1 sub {rlineto} repeat} bdef
/AP {{rlineto} repeat} bdef
/PDlw -1 def
/W {/PDlw currentlinewidth def setlinewidth} def
/PP {closepath eofill} bdef
/DP {closepath stroke} bdef
/MR {4 -2 roll moveto dup  0 exch rlineto exch 0 rlineto
  neg 0 exch rlineto closepath} bdef
/FR {MR stroke} bdef
/PR {MR fill} bdef
/L1i {{currentfile picstr readhexstring pop} image} bdef
/tMatrix matrix def
/MakeOval {newpath tMatrix currentmatrix pop translate scale
0 0 1 0 360 arc tMatrix setmatrix} bdef
/FO {MakeOval stroke} bdef
/PO {MakeOval fill} bdef
/PD {currentlinewidth 2 div 0 360 arc fill
   PDlw -1 eq not {PDlw w /PDlw -1 def} if} def
/FA {newpath tMatrix currentmatrix pop translate scale
  0 0 1 5 -2 roll arc tMatrix setmatrix stroke} bdef
/PA {newpath tMatrix currentmatrix pop	translate 0 0 moveto scale
  0 0 1 5 -2 roll arc closepath tMatrix setmatrix fill} bdef
/FAn {newpath tMatrix currentmatrix pop translate scale
  0 0 1 5 -2 roll arcn tMatrix setmatrix stroke} bdef
/PAn {newpath tMatrix currentmatrix pop translate 0 0 moveto scale
  0 0 1 5 -2 roll arcn closepath tMatrix setmatrix fill} bdef
/vradius 0 def /hradius 0 def /lry 0 def
/lrx 0 def /uly 0 def /ulx 0 def /rad 0 def
/MRR {/vradius xdef /hradius xdef /lry xdef /lrx xdef /uly xdef
  /ulx xdef newpath tMatrix currentmatrix pop ulx hradius add uly
  vradius add translate hradius vradius scale 0 0 1 180 270 arc 
  tMatrix setmatrix lrx hradius sub uly vradius add translate
  hradius vradius scale 0 0 1 270 360 arc tMatrix setmatrix
  lrx hradius sub lry vradius sub translate hradius vradius scale
  0 0 1 0 90 arc tMatrix setmatrix ulx hradius add lry vradius sub
  translate hradius vradius scale 0 0 1 90 180 arc tMatrix setmatrix
  closepath} bdef
/FRR {MRR stroke } bdef
/PRR {MRR fill } bdef
/MlrRR {/lry xdef /lrx xdef /uly xdef /ulx xdef /rad lry uly sub 2 div def
  newpath tMatrix currentmatrix pop ulx rad add uly rad add translate
  rad rad scale 0 0 1 90 270 arc tMatrix setmatrix lrx rad sub lry rad
  sub translate rad rad scale 0 0 1 270 90 arc tMatrix setmatrix
  closepath} bdef
/FlrRR {MlrRR stroke } bdef
/PlrRR {MlrRR fill } bdef
/MtbRR {/lry xdef /lrx xdef /uly xdef /ulx xdef /rad lrx ulx sub 2 div def
  newpath tMatrix currentmatrix pop ulx rad add uly rad add translate
  rad rad scale 0 0 1 180 360 arc tMatrix setmatrix lrx rad sub lry rad
  sub translate rad rad scale 0 0 1 0 180 arc tMatrix setmatrix
  closepath} bdef
/FtbRR {MtbRR stroke } bdef
/PtbRR {MtbRR fill } bdef
/stri 6 array def /dtri 6 array def
/smat 6 array def /dmat 6 array def
/tmat1 6 array def /tmat2 6 array def /dif 3 array def
/asub {/ind2 exch def /ind1 exch def dup dup
  ind1 get exch ind2 get sub exch } bdef
/tri_to_matrix {
  2 0 asub 3 1 asub 4 0 asub 5 1 asub
  dup 0 get exch 1 get 7 -1 roll astore } bdef
/compute_transform {
  dmat dtri tri_to_matrix tmat1 invertmatrix 
  smat stri tri_to_matrix tmat2 concatmatrix } bdef
/ds {stri astore pop} bdef
/dt {dtri astore pop} bdef
/db {2 copy /cols xdef /rows xdef mul dup 3 mul string
  currentfile 
  3 index 0 eq {/ASCIIHexDecode filter}
  {/ASCII85Decode filter 3 index 2 eq {/RunLengthDecode filter} if }
  ifelse exch readstring pop
  dup 0 3 index getinterval /rbmap xdef
  dup 2 index dup getinterval /gbmap xdef
  1 index dup 2 mul exch getinterval /bbmap xdef pop pop}bdef
/it {gs np dtri aload pop moveto lineto lineto cp c
  cols rows 8 compute_transform 
  rbmap gbmap bbmap true 3 colorimage gr}bdef
/il {newpath moveto lineto stroke}bdef
currentdict end def
%%EndProlog

%%BeginSetup
MathWorks begin

0 cap

end
%%EndSetup

%%Page: 1 1
%%BeginPageSetup
%%PageBoundingBox:    32   180   548   616
MathWorks begin
bpage
%%EndPageSetup

%%BeginObject: obj1
bplot

/dpi2point 12 def
portraitMode 0216 7344 csm

  174   -48  6197  5231 rc
85 dict begin %Colortable dictionary
/c0 { 0.000000 0.000000 0.000000 sr} bdef
/c1 { 1.000000 1.000000 1.000000 sr} bdef
/c2 { 0.900000 0.000000 0.000000 sr} bdef
/c3 { 0.000000 0.820000 0.000000 sr} bdef
/c4 { 0.000000 0.000000 0.800000 sr} bdef
/c5 { 0.910000 0.820000 0.320000 sr} bdef
/c6 { 1.000000 0.260000 0.820000 sr} bdef
/c7 { 0.000000 0.820000 0.820000 sr} bdef
c0
1 j
1 sg
   0    0 6919 5187 rf
6 w
0 4202 5362 0 0 -4202 899 4616 4 MP
PP
-5362 0 0 4202 5362 0 0 -4202 899 4616 5 MP stroke
4 w
DO
SO
6 w
0 sg
 899  414 mt 6261  414 L
 899 4616 mt 6261 4616 L
6261 4616 mt 6261  414 L
 899 4616 mt  899  414 L
 899 4616 mt 6261 4616 L
 899 4616 mt  899  414 L
2204 4616 mt 2204 4562 L
2204  414 mt 2204  467 L
%%IncludeResource: font Helvetica
/Helvetica /WindowsLatin1Encoding 240 FMSR

2038 4873 mt 
(0.2) s
3509 4616 mt 3509 4562 L
3509  414 mt 3509  467 L
3343 4873 mt 
(0.4) s
4814 4616 mt 4814 4562 L
4814  414 mt 4814  467 L
4648 4873 mt 
(0.6) s
6119 4616 mt 6119 4562 L
6119  414 mt 6119  467 L
5953 4873 mt 
(0.8) s
 899 3780 mt  952 3780 L
6261 3780 mt 6207 3780 L
 531 3869 mt 
(0.1) s
 899 2945 mt  952 2945 L
6261 2945 mt 6207 2945 L
 531 3034 mt 
(0.2) s
 899 2109 mt  952 2109 L
6261 2109 mt 6207 2109 L
 531 2198 mt 
(0.3) s
 899 1274 mt  952 1274 L
6261 1274 mt 6207 1274 L
 531 1363 mt 
(0.4) s
 899  439 mt  952  439 L
6261  439 mt 6207  439 L
 531  528 mt 
(0.5) s
 899  414 mt 6261  414 L
 899 4616 mt 6261 4616 L
6261 4616 mt 6261  414 L
 899 4616 mt  899  414 L
gs 899 414 5363 4203 rc
gr

/c8 { 0.000000 0.000000 1.000000 sr} bdef
c8
4741  414 mt 4813  414 L
4777  378 mt 4777  450 L
1010 4410 mt 1082 4410 L
1046 4374 mt 1046 4446 L
 876 4556 mt  948 4556 L
 912 4520 mt  912 4592 L
 863 4214 mt  935 4214 L
 899 4178 mt  899 4250 L
1315 4305 mt 1387 4305 L
1351 4269 mt 1351 4341 L
 896 4518 mt  968 4518 L
 932 4482 mt  932 4554 L
1050 3006 mt 1122 3006 L
1086 2970 mt 1086 3042 L
 932 4431 mt 1004 4431 L
 968 4395 mt  968 4467 L
 868 4615 mt  940 4615 L
 904 4579 mt  904 4651 L
1192 3867 mt 1264 3867 L
1228 3831 mt 1228 3903 L
 996 4369 mt 1068 4369 L
1032 4333 mt 1032 4405 L
1248 4616 mt 1320 4616 L
1284 4580 mt 1284 4652 L
1328 4608 mt 1400 4608 L
1364 4572 mt 1364 4644 L
2183 4596 mt 2255 4596 L
2219 4560 mt 2219 4632 L
 870 4298 mt  942 4298 L
 906 4262 mt  906 4334 L
3133 3582 mt 3205 3582 L
3169 3546 mt 3169 3618 L
5189 2973 mt 5261 2973 L
5225 2937 mt 5225 3009 L
 979 4312 mt 1051 4312 L
1015 4276 mt 1015 4348 L
1018 4467 mt 1090 4467 L
1054 4431 mt 1054 4503 L
1688 3806 mt 1760 3806 L
1724 3770 mt 1724 3842 L
 978 4280 mt 1050 4280 L
1014 4244 mt 1014 4316 L
 905 4421 mt  977 4421 L
 941 4385 mt  941 4457 L
 932 4313 mt 1004 4313 L
 968 4277 mt  968 4349 L
 955 4341 mt 1027 4341 L
 991 4305 mt  991 4377 L
2662 3642 mt 2734 3642 L
2698 3606 mt 2698 3678 L
1216 4507 mt 1288 4507 L
1252 4471 mt 1252 4543 L
1323 4049 mt 1395 4049 L
1359 4013 mt 1359 4085 L
 889 4514 mt  961 4514 L
 925 4478 mt  925 4550 L
 864 4550 mt  936 4550 L
 900 4514 mt  900 4586 L
 991 4400 mt 1063 4400 L
1027 4364 mt 1027 4436 L
 928 2943 mt 1000 2943 L
 964 2907 mt  964 2979 L
1174 4327 mt 1246 4327 L
1210 4291 mt 1210 4363 L
 914 4387 mt  986 4387 L
 950 4351 mt  950 4423 L
1213 3514 mt 1285 3514 L
1249 3478 mt 1249 3550 L
 919 4594 mt  991 4594 L
 955 4558 mt  955 4630 L
1008 4393 mt 1080 4393 L
1044 4357 mt 1044 4429 L
1132 4576 mt 1204 4576 L
1168 4540 mt 1168 4612 L
1497 4519 mt 1569 4519 L
1533 4483 mt 1533 4555 L
2722 4315 mt 2794 4315 L
2758 4279 mt 2758 4351 L
1963 1753 mt 2035 1753 L
1999 1717 mt 1999 1789 L
 984 4415 mt 1056 4415 L
1020 4379 mt 1020 4451 L
 923 4355 mt  995 4355 L
 959 4319 mt  959 4391 L
1838 3432 mt 1910 3432 L
1874 3396 mt 1874 3468 L
1450 3531 mt 1522 3531 L
1486 3495 mt 1486 3567 L
1016 3533 mt 1088 3533 L
1052 3497 mt 1052 3569 L
 864 4558 mt  936 4558 L
 900 4522 mt  900 4594 L
3113 1182 mt 3185 1182 L
3149 1146 mt 3149 1218 L
1065 4507 mt 1137 4507 L
1101 4471 mt 1101 4543 L
1489 4613 mt 1561 4613 L
1525 4577 mt 1525 4649 L
 870 4277 mt  942 4277 L
 906 4241 mt  906 4313 L
1644 4187 mt 1716 4187 L
1680 4151 mt 1680 4223 L
1143 4180 mt 1215 4180 L
1179 4144 mt 1179 4216 L
1093 4525 mt 1165 4525 L
1129 4489 mt 1129 4561 L
 871 4355 mt  943 4355 L
 907 4319 mt  907 4391 L
2145 4518 mt 2217 4518 L
2181 4482 mt 2181 4554 L
 928 3754 mt 1000 3754 L
 964 3718 mt  964 3790 L
1317 4178 mt 1389 4178 L
1353 4142 mt 1353 4214 L
 877 4613 mt  949 4613 L
 913 4577 mt  913 4649 L
1240 4432 mt 1312 4432 L
1276 4396 mt 1276 4468 L
1024 4357 mt 1096 4357 L
1060 4321 mt 1060 4393 L
1709 4074 mt 1781 4074 L
1745 4038 mt 1745 4110 L
3019 4462 mt 3091 4462 L
3055 4426 mt 3055 4498 L
1030 1148 mt 1102 1148 L
1066 1112 mt 1066 1184 L
1020 3682 mt 1092 3682 L
1056 3646 mt 1056 3718 L
 883 4615 mt  955 4615 L
 919 4579 mt  919 4651 L
1262 3890 mt 1334 3890 L
1298 3854 mt 1298 3926 L
 922 4609 mt  994 4609 L
 958 4573 mt  958 4645 L
1376 4612 mt 1448 4612 L
1412 4576 mt 1412 4648 L
 995 4608 mt 1067 4608 L
1031 4572 mt 1031 4644 L
 871 4416 mt  943 4416 L
 907 4380 mt  907 4452 L
 867 3838 mt  939 3838 L
 903 3802 mt  903 3874 L
1022 4580 mt 1094 4580 L
1058 4544 mt 1058 4616 L
 871 4307 mt  943 4307 L
 907 4271 mt  907 4343 L
 993 4614 mt 1065 4614 L
1029 4578 mt 1029 4650 L
1450 4572 mt 1522 4572 L
1486 4536 mt 1486 4608 L
1521 4295 mt 1593 4295 L
1557 4259 mt 1557 4331 L
 917 4503 mt  989 4503 L
 953 4467 mt  953 4539 L
1003 4584 mt 1075 4584 L
1039 4548 mt 1039 4620 L
1418 3873 mt 1490 3873 L
1454 3837 mt 1454 3909 L
1638 4578 mt 1710 4578 L
1674 4542 mt 1674 4614 L
1094 4253 mt 1166 4253 L
1130 4217 mt 1130 4289 L
 869 3521 mt  941 3521 L
 905 3485 mt  905 3557 L
1507 2277 mt 1579 2277 L
1543 2241 mt 1543 2313 L
 864 4290 mt  936 4290 L
 900 4254 mt  900 4326 L
2178 2343 mt 2250 2343 L
2214 2307 mt 2214 2379 L
 869 4223 mt  941 4223 L
 905 4187 mt  905 4259 L
 863 4608 mt  935 4608 L
 899 4572 mt  899 4644 L
 922 4570 mt  994 4570 L
 958 4534 mt  958 4606 L
 863 4607 mt  935 4607 L
 899 4571 mt  899 4643 L
1691 3733 mt 1763 3733 L
1727 3697 mt 1727 3769 L
1073 4549 mt 1145 4549 L
1109 4513 mt 1109 4585 L
 887 4321 mt  959 4321 L
 923 4285 mt  923 4357 L
 864 4325 mt  936 4325 L
 900 4289 mt  900 4361 L
2109 4604 mt 2181 4604 L
2145 4568 mt 2145 4640 L
 993 4543 mt 1065 4543 L
1029 4507 mt 1029 4579 L
1720 3892 mt 1792 3892 L
1756 3856 mt 1756 3928 L
1097 3903 mt 1169 3903 L
1133 3867 mt 1133 3939 L
 960 4527 mt 1032 4527 L
 996 4491 mt  996 4563 L
1197 4172 mt 1269 4172 L
1233 4136 mt 1233 4208 L
 880 4245 mt  952 4245 L
 916 4209 mt  916 4281 L
6225 1071 mt 6297 1071 L
6261 1035 mt 6261 1107 L
1074 4519 mt 1146 4519 L
1110 4483 mt 1110 4555 L
1314 1426 mt 1386 1426 L
1350 1390 mt 1350 1462 L
 874 4152 mt  946 4152 L
 910 4116 mt  910 4188 L
1835 4435 mt 1907 4435 L
1871 4399 mt 1871 4471 L
1197 4441 mt 1269 4441 L
1233 4405 mt 1233 4477 L
 870 4615 mt  942 4615 L
 906 4579 mt  906 4651 L
2106 4488 mt 2178 4488 L
2142 4452 mt 2142 4524 L
1285 4554 mt 1357 4554 L
1321 4518 mt 1321 4590 L
 863 4009 mt  935 4009 L
 899 3973 mt  899 4045 L
 975 4610 mt 1047 4610 L
1011 4574 mt 1011 4646 L
 875 4539 mt  947 4539 L
 911 4503 mt  911 4575 L
1554 4586 mt 1626 4586 L
1590 4550 mt 1590 4622 L
1092 4431 mt 1164 4431 L
1128 4395 mt 1128 4467 L
 886 4361 mt  958 4361 L
 922 4325 mt  922 4397 L
1310 4448 mt 1382 4448 L
1346 4412 mt 1346 4484 L
 896 4606 mt  968 4606 L
 932 4570 mt  932 4642 L
1239 4615 mt 1311 4615 L
1275 4579 mt 1275 4651 L
1003 3759 mt 1075 3759 L
1039 3723 mt 1039 3795 L
 908 2684 mt  980 2684 L
 944 2648 mt  944 2720 L
1018 4163 mt 1090 4163 L
1054 4127 mt 1054 4199 L
 892 4082 mt  964 4082 L
 928 4046 mt  928 4118 L
 914 4610 mt  986 4610 L
 950 4574 mt  950 4646 L
1762 2846 mt 1834 2846 L
1798 2810 mt 1798 2882 L
1899 3928 mt 1971 3928 L
1935 3892 mt 1935 3964 L
1527 3780 mt 1599 3780 L
1563 3744 mt 1563 3816 L
 971 4233 mt 1043 4233 L
1007 4197 mt 1007 4269 L
 923 4395 mt  995 4395 L
 959 4359 mt  959 4431 L
 867 4409 mt  939 4409 L
 903 4373 mt  903 4445 L
1398 4348 mt 1470 4348 L
1434 4312 mt 1434 4384 L
 871 4240 mt  943 4240 L
 907 4204 mt  907 4276 L
2891 3640 mt 2963 3640 L
2927 3604 mt 2927 3676 L
 872 4583 mt  944 4583 L
 908 4547 mt  908 4619 L
 863 4592 mt  935 4592 L
 899 4556 mt  899 4628 L
 882 3865 mt  954 3865 L
 918 3829 mt  918 3901 L
1220 4590 mt 1292 4590 L
1256 4554 mt 1256 4626 L
 879 4545 mt  951 4545 L
 915 4509 mt  915 4581 L
1213 2843 mt 1285 2843 L
1249 2807 mt 1249 2879 L
1889 4419 mt 1961 4419 L
1925 4383 mt 1925 4455 L
1129 3905 mt 1201 3905 L
1165 3869 mt 1165 3941 L
 876 4615 mt  948 4615 L
 912 4579 mt  912 4651 L
1283 4615 mt 1355 4615 L
1319 4579 mt 1319 4651 L
1299 3649 mt 1371 3649 L
1335 3613 mt 1335 3685 L
1257 4312 mt 1329 4312 L
1293 4276 mt 1293 4348 L
 946 4155 mt 1018 4155 L
 982 4119 mt  982 4191 L
 872 3962 mt  944 3962 L
 908 3926 mt  908 3998 L
2367 4606 mt 2439 4606 L
2403 4570 mt 2403 4642 L
2633 3601 mt 2705 3601 L
2669 3565 mt 2669 3637 L
1570 4596 mt 1642 4596 L
1606 4560 mt 1606 4632 L
1925 4093 mt 1997 4093 L
1961 4057 mt 1961 4129 L
 904 4544 mt  976 4544 L
 940 4508 mt  940 4580 L
1016 4257 mt 1088 4257 L
1052 4221 mt 1052 4293 L
 939 2838 mt 1011 2838 L
 975 2802 mt  975 2874 L
1337 4483 mt 1409 4483 L
1373 4447 mt 1373 4519 L
2530 3980 mt 2602 3980 L
2566 3944 mt 2566 4016 L
 863 4482 mt  935 4482 L
 899 4446 mt  899 4518 L
1120 4563 mt 1192 4563 L
1156 4527 mt 1156 4599 L
2563 4338 mt 2635 4338 L
2599 4302 mt 2599 4374 L
1098 4492 mt 1170 4492 L
1134 4456 mt 1134 4528 L
 875 4465 mt  947 4465 L
 911 4429 mt  911 4501 L
1251 3872 mt 1323 3872 L
1287 3836 mt 1287 3908 L
1105 4342 mt 1177 4342 L
1141 4306 mt 1141 4378 L
1082 3426 mt 1154 3426 L
1118 3390 mt 1118 3462 L
1299 4608 mt 1371 4608 L
1335 4572 mt 1335 4644 L
 981 4493 mt 1053 4493 L
1017 4457 mt 1017 4529 L
1110 3868 mt 1182 3868 L
1146 3832 mt 1146 3904 L
2018 3628 mt 2090 3628 L
2054 3592 mt 2054 3664 L
1498 4551 mt 1570 4551 L
1534 4515 mt 1534 4587 L
 946 4603 mt 1018 4603 L
 982 4567 mt  982 4639 L
 977 4356 mt 1049 4356 L
1013 4320 mt 1013 4392 L
2650 3217 mt 2722 3217 L
2686 3181 mt 2686 3253 L
1323 3658 mt 1395 3658 L
1359 3622 mt 1359 3694 L
1120 3828 mt 1192 3828 L
1156 3792 mt 1156 3864 L
 910 3960 mt  982 3960 L
 946 3924 mt  946 3996 L
1746 3727 mt 1818 3727 L
1782 3691 mt 1782 3763 L
 867 4571 mt  939 4571 L
 903 4535 mt  903 4607 L
1383 4370 mt 1455 4370 L
1419 4334 mt 1419 4406 L
1024 4539 mt 1096 4539 L
1060 4503 mt 1060 4575 L
1233 2746 mt 1305 2746 L
1269 2710 mt 1269 2782 L
 872 4602 mt  944 4602 L
 908 4566 mt  908 4638 L
1194 4613 mt 1266 4613 L
1230 4577 mt 1230 4649 L
1245 2097 mt 1317 2097 L
1281 2061 mt 1281 2133 L
2502 1790 mt 2574 1790 L
2538 1754 mt 2538 1826 L
 894 4597 mt  966 4597 L
 930 4561 mt  930 4633 L
 877 4282 mt  949 4282 L
 913 4246 mt  913 4318 L
 867 3002 mt  939 3002 L
 903 2966 mt  903 3038 L
 876 3389 mt  948 3389 L
 912 3353 mt  912 3425 L
 866 3618 mt  938 3618 L
 902 3582 mt  902 3654 L
3621 4566 mt 3693 4566 L
3657 4530 mt 3657 4602 L
1901 3182 mt 1973 3182 L
1937 3146 mt 1937 3218 L
2451 4589 mt 2523 4589 L
2487 4553 mt 2487 4625 L
 943 4200 mt 1015 4200 L
 979 4164 mt  979 4236 L
1365 4282 mt 1437 4282 L
1401 4246 mt 1401 4318 L
 895 4467 mt  967 4467 L
 931 4431 mt  931 4503 L
 883 4466 mt  955 4466 L
 919 4430 mt  919 4502 L
4203 1210 mt 4275 1210 L
4239 1174 mt 4239 1246 L
1729 3086 mt 1801 3086 L
1765 3050 mt 1765 3122 L
2934 2178 mt 3006 2178 L
2970 2142 mt 2970 2214 L
 909 4473 mt  981 4473 L
 945 4437 mt  945 4509 L
1168 4539 mt 1240 4539 L
1204 4503 mt 1204 4575 L
5015  693 mt 5087  693 L
5051  657 mt 5051  729 L
2679 3443 mt 2751 3443 L
2715 3407 mt 2715 3479 L
 906 4540 mt  978 4540 L
 942 4504 mt  942 4576 L
1109 4509 mt 1181 4509 L
1145 4473 mt 1145 4545 L
 891 4576 mt  963 4576 L
 927 4540 mt  927 4612 L
1756 4523 mt 1828 4523 L
1792 4487 mt 1792 4559 L
1335 3590 mt 1407 3590 L
1371 3554 mt 1371 3626 L
1325 4539 mt 1397 4539 L
1361 4503 mt 1361 4575 L
 939 4604 mt 1011 4604 L
 975 4568 mt  975 4640 L
2296 3794 mt 2368 3794 L
2332 3758 mt 2332 3830 L
 912 4573 mt  984 4573 L
 948 4537 mt  948 4609 L
1026 4294 mt 1098 4294 L
1062 4258 mt 1062 4330 L
1000 4550 mt 1072 4550 L
1036 4514 mt 1036 4586 L
4060 4007 mt 4132 4007 L
4096 3971 mt 4096 4043 L
1078 4308 mt 1150 4308 L
1114 4272 mt 1114 4344 L
4076 2857 mt 4148 2857 L
4112 2821 mt 4112 2893 L
5198 3127 mt 5270 3127 L
5234 3091 mt 5234 3163 L
1239 4515 mt 1311 4515 L
1275 4479 mt 1275 4551 L
1613 4029 mt 1685 4029 L
1649 3993 mt 1649 4065 L
1976 3455 mt 2048 3455 L
2012 3419 mt 2012 3491 L
 863 4577 mt  935 4577 L
 899 4541 mt  899 4613 L
1442 4608 mt 1514 4608 L
1478 4572 mt 1478 4644 L
1145 3529 mt 1217 3529 L
1181 3493 mt 1181 3565 L
 884 4580 mt  956 4580 L
 920 4544 mt  920 4616 L
2289 3573 mt 2361 3573 L
2325 3537 mt 2325 3609 L
1407 4615 mt 1479 4615 L
1443 4579 mt 1443 4651 L
1142 4567 mt 1214 4567 L
1178 4531 mt 1178 4603 L
1712 4506 mt 1784 4506 L
1748 4470 mt 1748 4542 L
 996 3997 mt 1068 3997 L
1032 3961 mt 1032 4033 L
1224 4591 mt 1296 4591 L
1260 4555 mt 1260 4627 L
1656 3872 mt 1728 3872 L
1692 3836 mt 1692 3908 L
 863 3628 mt  935 3628 L
 899 3592 mt  899 3664 L
 924 4575 mt  996 4575 L
 960 4539 mt  960 4611 L
2081 2459 mt 2153 2459 L
2117 2423 mt 2117 2495 L
 871 4604 mt  943 4604 L
 907 4568 mt  907 4640 L
 863 4614 mt  935 4614 L
 899 4578 mt  899 4650 L
 895 4592 mt  967 4592 L
 931 4556 mt  931 4628 L
3407 4554 mt 3479 4554 L
3443 4518 mt 3443 4590 L
2805 4392 mt 2877 4392 L
2841 4356 mt 2841 4428 L
1356 2405 mt 1428 2405 L
1392 2369 mt 1392 2441 L
1420 4302 mt 1492 4302 L
1456 4266 mt 1456 4338 L
1547 3775 mt 1619 3775 L
1583 3739 mt 1583 3811 L
1255 4041 mt 1327 4041 L
1291 4005 mt 1291 4077 L
 885 4106 mt  957 4106 L
 921 4070 mt  921 4142 L
 871 4221 mt  943 4221 L
 907 4185 mt  907 4257 L
 999 4335 mt 1071 4335 L
1035 4299 mt 1035 4371 L
3666 1465 mt 3738 1465 L
3702 1429 mt 3702 1501 L
 900 4614 mt  972 4614 L
 936 4578 mt  936 4650 L
2210 4589 mt 2282 4589 L
2246 4553 mt 2246 4625 L
 907 4436 mt  979 4436 L
 943 4400 mt  943 4472 L
1513 4549 mt 1585 4549 L
1549 4513 mt 1549 4585 L
1367 4461 mt 1439 4461 L
1403 4425 mt 1403 4497 L
 884 4598 mt  956 4598 L
 920 4562 mt  920 4634 L
 871 4585 mt  943 4585 L
 907 4549 mt  907 4621 L
1438 4610 mt 1510 4610 L
1474 4574 mt 1474 4646 L
1335 3887 mt 1407 3887 L
1371 3851 mt 1371 3923 L
 885 4538 mt  957 4538 L
 921 4502 mt  921 4574 L
 938 4545 mt 1010 4545 L
 974 4509 mt  974 4581 L
1915 3722 mt 1987 3722 L
1951 3686 mt 1951 3758 L
1373 3855 mt 1445 3855 L
1409 3819 mt 1409 3891 L
1715 4040 mt 1787 4040 L
1751 4004 mt 1751 4076 L
1889 4449 mt 1961 4449 L
1925 4413 mt 1925 4485 L
 905 1364 mt  977 1364 L
 941 1328 mt  941 1400 L
1030 3799 mt 1102 3799 L
1066 3763 mt 1066 3835 L
1003 4258 mt 1075 4258 L
1039 4222 mt 1039 4294 L
 893 4487 mt  965 4487 L
 929 4451 mt  929 4523 L
 884 4614 mt  956 4614 L
 920 4578 mt  920 4650 L
2542 4522 mt 2614 4522 L
2578 4486 mt 2578 4558 L
 873 4377 mt  945 4377 L
 909 4341 mt  909 4413 L
 997 3445 mt 1069 3445 L
1033 3409 mt 1033 3481 L
1104 4381 mt 1176 4381 L
1140 4345 mt 1140 4417 L
1998 4293 mt 2070 4293 L
2034 4257 mt 2034 4329 L
 899 4573 mt  971 4573 L
 935 4537 mt  935 4609 L
 913 4426 mt  985 4426 L
 949 4390 mt  949 4462 L
 898 4411 mt  970 4411 L
 934 4375 mt  934 4447 L
1434 4014 mt 1506 4014 L
1470 3978 mt 1470 4050 L
1404 4585 mt 1476 4585 L
1440 4549 mt 1440 4621 L
 864 4437 mt  936 4437 L
 900 4401 mt  900 4473 L
 868 4498 mt  940 4498 L
 904 4462 mt  904 4534 L
1297 4544 mt 1369 4544 L
1333 4508 mt 1333 4580 L
1219 4453 mt 1291 4453 L
1255 4417 mt 1255 4489 L
 868 3721 mt  940 3721 L
 904 3685 mt  904 3757 L
2454 1843 mt 2526 1843 L
2490 1807 mt 2490 1879 L
1051 3500 mt 1123 3500 L
1087 3464 mt 1087 3536 L
3104 1292 mt 3176 1292 L
3140 1256 mt 3140 1328 L
 885 4554 mt  957 4554 L
 921 4518 mt  921 4590 L
 986 4094 mt 1058 4094 L
1022 4058 mt 1022 4130 L
1083 4578 mt 1155 4578 L
1119 4542 mt 1119 4614 L
1065 4530 mt 1137 4530 L
1101 4494 mt 1101 4566 L
1120 4343 mt 1192 4343 L
1156 4307 mt 1156 4379 L
1538 3998 mt 1610 3998 L
1574 3962 mt 1574 4034 L
1193 4615 mt 1265 4615 L
1229 4579 mt 1229 4651 L
 910 3946 mt  982 3946 L
 946 3910 mt  946 3982 L
3117 4078 mt 3189 4078 L
3153 4042 mt 3153 4114 L
 900 4548 mt  972 4548 L
 936 4512 mt  936 4584 L
 944 4537 mt 1016 4537 L
 980 4501 mt  980 4573 L
 870 4364 mt  942 4364 L
 906 4328 mt  906 4400 L
 878 4572 mt  950 4572 L
 914 4536 mt  914 4608 L
 863 4453 mt  935 4453 L
 899 4417 mt  899 4489 L
 877 3888 mt  949 3888 L
 913 3852 mt  913 3924 L
6014 1791 mt 6086 1791 L
6050 1755 mt 6050 1827 L
 886 4615 mt  958 4615 L
 922 4579 mt  922 4651 L
2569 1264 mt 2641 1264 L
2605 1228 mt 2605 1300 L
1028 4417 mt 1100 4417 L
1064 4381 mt 1064 4453 L
1161 4590 mt 1233 4590 L
1197 4554 mt 1197 4626 L
1328 4185 mt 1400 4185 L
1364 4149 mt 1364 4221 L
1079 4411 mt 1151 4411 L
1115 4375 mt 1115 4447 L
2951 4544 mt 3023 4544 L
2987 4508 mt 2987 4580 L
1135 4613 mt 1207 4613 L
1171 4577 mt 1171 4649 L
 958 4167 mt 1030 4167 L
 994 4131 mt  994 4203 L
2678 4190 mt 2750 4190 L
2714 4154 mt 2714 4226 L
1808 4564 mt 1880 4564 L
1844 4528 mt 1844 4600 L
1573 4611 mt 1645 4611 L
1609 4575 mt 1609 4647 L
1541 4533 mt 1613 4533 L
1577 4497 mt 1577 4569 L
 890 3767 mt  962 3767 L
 926 3731 mt  926 3803 L
1367 4241 mt 1439 4241 L
1403 4205 mt 1403 4277 L
 970 4312 mt 1042 4312 L
1006 4276 mt 1006 4348 L
2081 4486 mt 2153 4486 L
2117 4450 mt 2117 4522 L
 910 4277 mt  982 4277 L
 946 4241 mt  946 4313 L
 947 3419 mt 1019 3419 L
 983 3383 mt  983 3455 L
 893 4494 mt  965 4494 L
 929 4458 mt  929 4530 L
1133 4354 mt 1205 4354 L
1169 4318 mt 1169 4390 L
1384 4290 mt 1456 4290 L
1420 4254 mt 1420 4326 L
1733 1520 mt 1805 1520 L
1769 1484 mt 1769 1556 L
2784 3251 mt 2856 3251 L
2820 3215 mt 2820 3287 L
 875 4501 mt  947 4501 L
 911 4465 mt  911 4537 L
1362 3342 mt 1434 3342 L
1398 3306 mt 1398 3378 L
 881 4596 mt  953 4596 L
 917 4560 mt  917 4632 L
1127 3608 mt 1199 3608 L
1163 3572 mt 1163 3644 L
2052 4553 mt 2124 4553 L
2088 4517 mt 2088 4589 L
1100 4591 mt 1172 4591 L
1136 4555 mt 1136 4627 L
2549 4022 mt 2621 4022 L
2585 3986 mt 2585 4058 L
 988 4313 mt 1060 4313 L
1024 4277 mt 1024 4349 L
 864 4607 mt  936 4607 L
 900 4571 mt  900 4643 L
1268 3020 mt 1340 3020 L
1304 2984 mt 1304 3056 L
2394 4417 mt 2466 4417 L
2430 4381 mt 2430 4453 L
 969 4614 mt 1041 4614 L
1005 4578 mt 1005 4650 L
2461 3677 mt 2533 3677 L
2497 3641 mt 2497 3713 L
1485 4550 mt 1557 4550 L
1521 4514 mt 1521 4586 L
 866 4256 mt  938 4256 L
 902 4220 mt  902 4292 L
1310 4588 mt 1382 4588 L
1346 4552 mt 1346 4624 L
1946 4610 mt 2018 4610 L
1982 4574 mt 1982 4646 L
1042 4179 mt 1114 4179 L
1078 4143 mt 1078 4215 L
1085 4287 mt 1157 4287 L
1121 4251 mt 1121 4323 L
1416 4411 mt 1488 4411 L
1452 4375 mt 1452 4447 L
1260 4606 mt 1332 4606 L
1296 4570 mt 1296 4642 L
1253 4593 mt 1325 4593 L
1289 4557 mt 1289 4629 L
1814 4561 mt 1886 4561 L
1850 4525 mt 1850 4597 L
3028 4335 mt 3100 4335 L
3064 4299 mt 3064 4371 L
2254 4038 mt 2326 4038 L
2290 4002 mt 2290 4074 L
 884 4419 mt  956 4419 L
 920 4383 mt  920 4455 L
1066 4582 mt 1138 4582 L
1102 4546 mt 1102 4618 L
1718 1839 mt 1790 1839 L
1754 1803 mt 1754 1875 L
 870 4607 mt  942 4607 L
 906 4571 mt  906 4643 L
2699 4392 mt 2771 4392 L
2735 4356 mt 2735 4428 L
1695 4615 mt 1767 4615 L
1731 4579 mt 1731 4651 L
1418 3830 mt 1490 3830 L
1454 3794 mt 1454 3866 L
3155 3508 mt 3227 3508 L
3191 3472 mt 3191 3544 L
 864 4527 mt  936 4527 L
 900 4491 mt  900 4563 L
 865 4385 mt  937 4385 L
 901 4349 mt  901 4421 L
1074 3970 mt 1146 3970 L
1110 3934 mt 1110 4006 L
 863 4609 mt  935 4609 L
 899 4573 mt  899 4645 L
1373 3843 mt 1445 3843 L
1409 3807 mt 1409 3879 L
1949 4393 mt 2021 4393 L
1985 4357 mt 1985 4429 L
1567 3901 mt 1639 3901 L
1603 3865 mt 1603 3937 L
1753 3165 mt 1825 3165 L
1789 3129 mt 1789 3201 L
 898 4279 mt  970 4279 L
 934 4243 mt  934 4315 L
1314 4400 mt 1386 4400 L
1350 4364 mt 1350 4436 L
 875 4315 mt  947 4315 L
 911 4279 mt  911 4351 L
1733 3739 mt 1805 3739 L
1769 3703 mt 1769 3775 L
2651 3326 mt 2723 3326 L
2687 3290 mt 2687 3362 L
 904 4267 mt  976 4267 L
 940 4231 mt  940 4303 L
 887 4116 mt  959 4116 L
 923 4080 mt  923 4152 L
1105 4040 mt 1177 4040 L
1141 4004 mt 1141 4076 L
2552 2565 mt 2624 2565 L
2588 2529 mt 2588 2601 L
1248 4504 mt 1320 4504 L
1284 4468 mt 1284 4540 L
1966 3792 mt 2038 3792 L
2002 3756 mt 2002 3828 L
1712 4609 mt 1784 4609 L
1748 4573 mt 1748 4645 L
1004 3060 mt 1076 3060 L
1040 3024 mt 1040 3096 L
1096 4554 mt 1168 4554 L
1132 4518 mt 1132 4590 L
1888 4487 mt 1960 4487 L
1924 4451 mt 1924 4523 L
2075 1725 mt 2147 1725 L
2111 1689 mt 2111 1761 L
2268 1895 mt 2340 1895 L
2304 1859 mt 2304 1931 L
 878 4553 mt  950 4553 L
 914 4517 mt  914 4589 L
 943 4513 mt 1015 4513 L
 979 4477 mt  979 4549 L
1136 2272 mt 1208 2272 L
1172 2236 mt 1172 2308 L
1001 4036 mt 1073 4036 L
1037 4000 mt 1037 4072 L
1112 4387 mt 1184 4387 L
1148 4351 mt 1148 4423 L
3651 4555 mt 3723 4555 L
3687 4519 mt 3687 4591 L
1461 3356 mt 1533 3356 L
1497 3320 mt 1497 3392 L
3396 4579 mt 3468 4579 L
3432 4543 mt 3432 4615 L
 882 4598 mt  954 4598 L
 918 4562 mt  918 4634 L
1888 3940 mt 1960 3940 L
1924 3904 mt 1924 3976 L
1038 4493 mt 1110 4493 L
1074 4457 mt 1074 4529 L
 931 4355 mt 1003 4355 L
 967 4319 mt  967 4391 L
4060 1603 mt 4132 1603 L
4096 1567 mt 4096 1639 L
1148 3661 mt 1220 3661 L
1184 3625 mt 1184 3697 L
2767 2623 mt 2839 2623 L
2803 2587 mt 2803 2659 L
 896 4327 mt  968 4327 L
 932 4291 mt  932 4363 L
 867 4578 mt  939 4578 L
 903 4542 mt  903 4614 L
gs 899 414 5363 4203 rc
gr

0 sg
2752 5104 mt 
(\(S,LFCC,GMM\)) s
 422 3259 mt  -90 rotate
(\(S,PAC,GMM\)) s
90 rotate
2975  223 mt 
(Corr = 0.35) s

end %%Color Dict

eplot
%%EndObject

epage
end

showpage

%%Trailer
%%EOF
