%!PS-Adobe-3.0 EPSF-3.0
%%Creator: MATLAB, The Mathworks, Inc. Version 7.7.0.471 (R2008b). Operating System: Microsoft Windows XP.
%%Title: Pictures\main_zoo_mvar_analysis_data_BMI_xcorr_bmig_p1_k2_3_8.eps
%%CreationDate: 10/26/2009  05:45:24
%%DocumentNeededFonts: Helvetica
%%DocumentProcessColors: Cyan Magenta Yellow Black
%%LanguageLevel: 2
%%Pages: 1
%%BoundingBox:    37   180   549   616
%%EndComments

%%BeginProlog
% MathWorks dictionary
/MathWorks 160 dict begin
% definition operators
/bdef {bind def} bind def
/ldef {load def} bind def
/xdef {exch def} bdef
/xstore {exch store} bdef
% operator abbreviations
/c  /clip ldef
/cc /concat ldef
/cp /closepath ldef
/gr /grestore ldef
/gs /gsave ldef
/mt /moveto ldef
/np /newpath ldef
/cm /currentmatrix ldef
/sm /setmatrix ldef
/rm /rmoveto ldef
/rl /rlineto ldef
/s {show newpath} bdef
/sc {setcmykcolor} bdef
/sr /setrgbcolor ldef
/sg /setgray ldef
/w /setlinewidth ldef
/j /setlinejoin ldef
/cap /setlinecap ldef
/rc {rectclip} bdef
/rf {rectfill} bdef
% page state control
/pgsv () def
/bpage {/pgsv save def} bdef
/epage {pgsv restore} bdef
/bplot /gsave ldef
/eplot {stroke grestore} bdef
% orientation switch
/portraitMode 0 def /landscapeMode 1 def /rotateMode 2 def
% coordinate system mappings
/dpi2point 0 def
% font control
/FontSize 0 def
/FMS {/FontSize xstore findfont [FontSize 0 0 FontSize neg 0 0]
  makefont setfont} bdef
/ISOLatin1Encoding where {pop /WindowsLatin1Encoding 256 array bdef
ISOLatin1Encoding WindowsLatin1Encoding copy pop
/.notdef/.notdef/quotesinglbase/florin/quotedblbase/ellipsis/dagger
/daggerdbl/circumflex/perthousand/Scaron/guilsinglleft/OE/.notdef/.notdef
/.notdef/.notdef/quoteleft/quoteright/quotedblleft/quotedblright/bullet
/endash/emdash/tilde/trademark/scaron/guilsinglright/oe/.notdef/.notdef
/Ydieresis WindowsLatin1Encoding 128 32 getinterval astore pop}
{/WindowsLatin1Encoding StandardEncoding bdef} ifelse
/reencode {exch dup where {pop load} {pop StandardEncoding} ifelse
  exch dup 3 1 roll findfont dup length dict begin
  { 1 index /FID ne {def}{pop pop} ifelse } forall
  /Encoding exch def currentdict end definefont pop} bdef
/isroman {findfont /CharStrings get /Agrave known} bdef
/FMSR {3 1 roll 1 index dup isroman {reencode} {pop pop} ifelse
  exch FMS} bdef
/csm {1 dpi2point div -1 dpi2point div scale neg translate
 dup landscapeMode eq {pop -90 rotate}
  {rotateMode eq {90 rotate} if} ifelse} bdef
% line types: solid, dotted, dashed, dotdash
/SO { [] 0 setdash } bdef
/DO { [.5 dpi2point mul 4 dpi2point mul] 0 setdash } bdef
/DA { [6 dpi2point mul] 0 setdash } bdef
/DD { [.5 dpi2point mul 4 dpi2point mul 6 dpi2point mul 4
  dpi2point mul] 0 setdash } bdef
% macros for lines and objects
/L {lineto stroke} bdef
/MP {3 1 roll moveto 1 sub {rlineto} repeat} bdef
/AP {{rlineto} repeat} bdef
/PDlw -1 def
/W {/PDlw currentlinewidth def setlinewidth} def
/PP {closepath eofill} bdef
/DP {closepath stroke} bdef
/MR {4 -2 roll moveto dup  0 exch rlineto exch 0 rlineto
  neg 0 exch rlineto closepath} bdef
/FR {MR stroke} bdef
/PR {MR fill} bdef
/L1i {{currentfile picstr readhexstring pop} image} bdef
/tMatrix matrix def
/MakeOval {newpath tMatrix currentmatrix pop translate scale
0 0 1 0 360 arc tMatrix setmatrix} bdef
/FO {MakeOval stroke} bdef
/PO {MakeOval fill} bdef
/PD {currentlinewidth 2 div 0 360 arc fill
   PDlw -1 eq not {PDlw w /PDlw -1 def} if} def
/FA {newpath tMatrix currentmatrix pop translate scale
  0 0 1 5 -2 roll arc tMatrix setmatrix stroke} bdef
/PA {newpath tMatrix currentmatrix pop	translate 0 0 moveto scale
  0 0 1 5 -2 roll arc closepath tMatrix setmatrix fill} bdef
/FAn {newpath tMatrix currentmatrix pop translate scale
  0 0 1 5 -2 roll arcn tMatrix setmatrix stroke} bdef
/PAn {newpath tMatrix currentmatrix pop translate 0 0 moveto scale
  0 0 1 5 -2 roll arcn closepath tMatrix setmatrix fill} bdef
/vradius 0 def /hradius 0 def /lry 0 def
/lrx 0 def /uly 0 def /ulx 0 def /rad 0 def
/MRR {/vradius xdef /hradius xdef /lry xdef /lrx xdef /uly xdef
  /ulx xdef newpath tMatrix currentmatrix pop ulx hradius add uly
  vradius add translate hradius vradius scale 0 0 1 180 270 arc 
  tMatrix setmatrix lrx hradius sub uly vradius add translate
  hradius vradius scale 0 0 1 270 360 arc tMatrix setmatrix
  lrx hradius sub lry vradius sub translate hradius vradius scale
  0 0 1 0 90 arc tMatrix setmatrix ulx hradius add lry vradius sub
  translate hradius vradius scale 0 0 1 90 180 arc tMatrix setmatrix
  closepath} bdef
/FRR {MRR stroke } bdef
/PRR {MRR fill } bdef
/MlrRR {/lry xdef /lrx xdef /uly xdef /ulx xdef /rad lry uly sub 2 div def
  newpath tMatrix currentmatrix pop ulx rad add uly rad add translate
  rad rad scale 0 0 1 90 270 arc tMatrix setmatrix lrx rad sub lry rad
  sub translate rad rad scale 0 0 1 270 90 arc tMatrix setmatrix
  closepath} bdef
/FlrRR {MlrRR stroke } bdef
/PlrRR {MlrRR fill } bdef
/MtbRR {/lry xdef /lrx xdef /uly xdef /ulx xdef /rad lrx ulx sub 2 div def
  newpath tMatrix currentmatrix pop ulx rad add uly rad add translate
  rad rad scale 0 0 1 180 360 arc tMatrix setmatrix lrx rad sub lry rad
  sub translate rad rad scale 0 0 1 0 180 arc tMatrix setmatrix
  closepath} bdef
/FtbRR {MtbRR stroke } bdef
/PtbRR {MtbRR fill } bdef
/stri 6 array def /dtri 6 array def
/smat 6 array def /dmat 6 array def
/tmat1 6 array def /tmat2 6 array def /dif 3 array def
/asub {/ind2 exch def /ind1 exch def dup dup
  ind1 get exch ind2 get sub exch } bdef
/tri_to_matrix {
  2 0 asub 3 1 asub 4 0 asub 5 1 asub
  dup 0 get exch 1 get 7 -1 roll astore } bdef
/compute_transform {
  dmat dtri tri_to_matrix tmat1 invertmatrix 
  smat stri tri_to_matrix tmat2 concatmatrix } bdef
/ds {stri astore pop} bdef
/dt {dtri astore pop} bdef
/db {2 copy /cols xdef /rows xdef mul dup 3 mul string
  currentfile 
  3 index 0 eq {/ASCIIHexDecode filter}
  {/ASCII85Decode filter 3 index 2 eq {/RunLengthDecode filter} if }
  ifelse exch readstring pop
  dup 0 3 index getinterval /rbmap xdef
  dup 2 index dup getinterval /gbmap xdef
  1 index dup 2 mul exch getinterval /bbmap xdef pop pop}bdef
/it {gs np dtri aload pop moveto lineto lineto cp c
  cols rows 8 compute_transform 
  rbmap gbmap bbmap true 3 colorimage gr}bdef
/il {newpath moveto lineto stroke}bdef
currentdict end def
%%EndProlog

%%BeginSetup
MathWorks begin

0 cap

end
%%EndSetup

%%Page: 1 1
%%BeginPageSetup
%%PageBoundingBox:    37   180   549   616
MathWorks begin
bpage
%%EndPageSetup

%%BeginObject: obj1
bplot

/dpi2point 12 def
portraitMode 0216 7344 csm

  234   -48  6149  5231 rc
85 dict begin %Colortable dictionary
/c0 { 0.000000 0.000000 0.000000 sr} bdef
/c1 { 1.000000 1.000000 1.000000 sr} bdef
/c2 { 0.900000 0.000000 0.000000 sr} bdef
/c3 { 0.000000 0.820000 0.000000 sr} bdef
/c4 { 0.000000 0.000000 0.800000 sr} bdef
/c5 { 0.910000 0.820000 0.320000 sr} bdef
/c6 { 1.000000 0.260000 0.820000 sr} bdef
/c7 { 0.000000 0.820000 0.820000 sr} bdef
c0
1 j
1 sg
   0    0 6919 5187 rf
6 w
0 4202 5362 0 0 -4202 899 4616 4 MP
PP
-5362 0 0 4202 5362 0 0 -4202 899 4616 5 MP stroke
4 w
DO
SO
6 w
0 sg
 899  414 mt 6261  414 L
 899 4616 mt 6261 4616 L
6261 4616 mt 6261  414 L
 899 4616 mt  899  414 L
 899 4616 mt 6261 4616 L
 899 4616 mt  899  414 L
 919 4616 mt  919 4562 L
 919  414 mt  919  467 L
%%IncludeResource: font Helvetica
/Helvetica /WindowsLatin1Encoding 240 FMSR

 713 4873 mt 
(-3) s
1806 4616 mt 1806 4562 L
1806  414 mt 1806  467 L
1600 4873 mt 
(-2) s
2693 4616 mt 2693 4562 L
2693  414 mt 2693  467 L
2487 4873 mt 
(-1) s
3580 4616 mt 3580 4562 L
3580  414 mt 3580  467 L
3514 4873 mt 
(0) s
4466 4616 mt 4466 4562 L
4466  414 mt 4466  467 L
4400 4873 mt 
(1) s
5353 4616 mt 5353 4562 L
5353  414 mt 5353  467 L
5287 4873 mt 
(2) s
6240 4616 mt 6240 4562 L
6240  414 mt 6240  467 L
6174 4873 mt 
(3) s
 899 4599 mt  952 4599 L
6261 4599 mt 6207 4599 L
 591 4688 mt 
(-3) s
 899 3904 mt  952 3904 L
6261 3904 mt 6207 3904 L
 591 3993 mt 
(-2) s
 899 3209 mt  952 3209 L
6261 3209 mt 6207 3209 L
 591 3298 mt 
(-1) s
 899 2514 mt  952 2514 L
6261 2514 mt 6207 2514 L
 731 2603 mt 
(0) s
 899 1820 mt  952 1820 L
6261 1820 mt 6207 1820 L
 731 1909 mt 
(1) s
 899 1125 mt  952 1125 L
6261 1125 mt 6207 1125 L
 731 1214 mt 
(2) s
 899  430 mt  952  430 L
6261  430 mt 6207  430 L
 731  519 mt 
(3) s
 899  414 mt 6261  414 L
 899 4616 mt 6261 4616 L
6261 4616 mt 6261  414 L
 899 4616 mt  899  414 L
gs 899 414 5363 4203 rc
gr

/c8 { 0.000000 0.000000 1.000000 sr} bdef
c8
4080 1255 mt 4152 1255 L
4116 1219 mt 4116 1291 L
4266 2001 mt 4338 2001 L
4302 1965 mt 4302 2037 L
3085 1990 mt 3157 1990 L
3121 1954 mt 3121 2026 L
2828 2637 mt 2900 2637 L
2864 2601 mt 2864 2673 L
3983 1572 mt 4055 1572 L
4019 1536 mt 4019 1608 L
3700 1604 mt 3772 1604 L
3736 1568 mt 3736 1640 L
2680 3257 mt 2752 3257 L
2716 3221 mt 2716 3293 L
3040 2237 mt 3112 2237 L
3076 2201 mt 3076 2273 L
3762 2228 mt 3834 2228 L
3798 2192 mt 3798 2264 L
2586 1336 mt 2658 1336 L
2622 1300 mt 2622 1372 L
1674 2480 mt 1746 2480 L
1710 2444 mt 1710 2516 L
3934 2204 mt 4006 2204 L
3970 2168 mt 3970 2240 L
4290 2695 mt 4362 2695 L
4326 2659 mt 4326 2731 L
3814 1593 mt 3886 1593 L
3850 1557 mt 3850 1629 L
4805 2894 mt 4877 2894 L
4841 2858 mt 4841 2930 L
3861 2796 mt 3933 2796 L
3897 2760 mt 3897 2832 L
2502 1851 mt 2574 1851 L
2538 1815 mt 2538 1887 L
3644 4131 mt 3716 4131 L
3680 4095 mt 3680 4167 L
3178 2458 mt 3250 2458 L
3214 2422 mt 3214 2494 L
3672 2383 mt 3744 2383 L
3708 2347 mt 3708 2419 L
2615 2284 mt 2687 2284 L
2651 2248 mt 2651 2320 L
3243 2311 mt 3315 2311 L
3279 2275 mt 3279 2347 L
2765 2046 mt 2837 2046 L
2801 2010 mt 2801 2082 L
3638 2754 mt 3710 2754 L
3674 2718 mt 3674 2790 L
3867 3289 mt 3939 3289 L
3903 3253 mt 3903 3325 L
1722 2338 mt 1794 2338 L
1758 2302 mt 1758 2374 L
2643 2401 mt 2715 2401 L
2679 2365 mt 2679 2437 L
4002 2488 mt 4074 2488 L
4038 2452 mt 4038 2524 L
3599 1772 mt 3671 1772 L
3635 1736 mt 3635 1808 L
2851 2165 mt 2923 2165 L
2887 2129 mt 2887 2201 L
2126 2514 mt 2198 2514 L
2162 2478 mt 2162 2550 L
1965 2057 mt 2037 2057 L
2001 2021 mt 2001 2093 L
3267 2374 mt 3339 2374 L
3303 2338 mt 3303 2410 L
3387 3250 mt 3459 3250 L
3423 3214 mt 3423 3286 L
4243 1995 mt 4315 1995 L
4279 1959 mt 4279 2031 L
2945 1614 mt 3017 1614 L
2981 1578 mt 2981 1650 L
2903 1978 mt 2975 1978 L
2939 1942 mt 2939 2014 L
2624 3595 mt 2696 3595 L
2660 3559 mt 2660 3631 L
2697 2194 mt 2769 2194 L
2733 2158 mt 2733 2230 L
3505 2035 mt 3577 2035 L
3541 1999 mt 3541 2071 L
4021 2189 mt 4093 2189 L
4057 2153 mt 4057 2225 L
4444 1707 mt 4516 1707 L
4480 1671 mt 4480 1743 L
3605 2265 mt 3677 2265 L
3641 2229 mt 3641 2301 L
2931 2361 mt 3003 2361 L
2967 2325 mt 2967 2397 L
4852 3322 mt 4924 3322 L
4888 3286 mt 4888 3358 L
2468 3415 mt 2540 3415 L
2504 3379 mt 2504 3451 L
3325 2410 mt 3397 2410 L
3361 2374 mt 3361 2446 L
2859 2484 mt 2931 2484 L
2895 2448 mt 2895 2520 L
2740 2825 mt 2812 2825 L
2776 2789 mt 2776 2861 L
2534 3479 mt 2606 3479 L
2570 3443 mt 2570 3515 L
4886 2686 mt 4958 2686 L
4922 2650 mt 4922 2722 L
3958 1550 mt 4030 1550 L
3994 1514 mt 3994 1586 L
3438 2759 mt 3510 2759 L
3474 2723 mt 3474 2795 L
4067 2040 mt 4139 2040 L
4103 2004 mt 4103 2076 L
3454 2440 mt 3526 2440 L
3490 2404 mt 3490 2476 L
3582 2475 mt 3654 2475 L
3618 2439 mt 3618 2511 L
3353 3242 mt 3425 3242 L
3389 3206 mt 3389 3278 L
4732 1966 mt 4804 1966 L
4768 1930 mt 4768 2002 L
3184 2597 mt 3256 2597 L
3220 2561 mt 3220 2633 L
3296 2445 mt 3368 2445 L
3332 2409 mt 3332 2481 L
4074 3171 mt 4146 3171 L
4110 3135 mt 4110 3207 L
2888 3367 mt 2960 3367 L
2924 3331 mt 2924 3403 L
3616 1972 mt 3688 1972 L
3652 1936 mt 3652 2008 L
4869 2493 mt 4941 2493 L
4905 2457 mt 4905 2529 L
3921 1006 mt 3993 1006 L
3957  970 mt 3957 1042 L
4820 2989 mt 4892 2989 L
4856 2953 mt 4856 3025 L
4667 2506 mt 4739 2506 L
4703 2470 mt 4703 2542 L
3689 2864 mt 3761 2864 L
3725 2828 mt 3725 2900 L
3147 2062 mt 3219 2062 L
3183 2026 mt 3183 2098 L
4114 2067 mt 4186 2067 L
4150 2031 mt 4150 2103 L
2732 2160 mt 2804 2160 L
2768 2124 mt 2768 2196 L
4213 1917 mt 4285 1917 L
4249 1881 mt 4249 1953 L
1556 2914 mt 1628 2914 L
1592 2878 mt 1592 2950 L
3202 1152 mt 3274 1152 L
3238 1116 mt 3238 1188 L
2523 1872 mt 2595 1872 L
2559 1836 mt 2559 1908 L
4381 2741 mt 4453 2741 L
4417 2705 mt 4417 2777 L
4398 2175 mt 4470 2175 L
4434 2139 mt 4434 2211 L
2490 2242 mt 2562 2242 L
2526 2206 mt 2526 2278 L
2565 1787 mt 2637 1787 L
2601 1751 mt 2601 1823 L
3098 2423 mt 3170 2423 L
3134 2387 mt 3134 2459 L
4191 1404 mt 4263 1404 L
4227 1368 mt 4227 1440 L
2959 2325 mt 3031 2325 L
2995 2289 mt 2995 2361 L
4107 2664 mt 4179 2664 L
4143 2628 mt 4143 2700 L
3527 2209 mt 3599 2209 L
3563 2173 mt 3563 2245 L
2312 2956 mt 2384 2956 L
2348 2920 mt 2348 2992 L
3477 3051 mt 3549 3051 L
3513 3015 mt 3513 3087 L
4274 1561 mt 4346 1561 L
4310 1525 mt 4310 1597 L
3706 3625 mt 3778 3625 L
3742 3589 mt 3742 3661 L
3544 2270 mt 3616 2270 L
3580 2234 mt 3580 2306 L
4941  824 mt 5013  824 L
4977  788 mt 4977  860 L
3347 2668 mt 3419 2668 L
3383 2632 mt 3383 2704 L
5122 2920 mt 5194 2920 L
5158 2884 mt 5158 2956 L
2545 1898 mt 2617 1898 L
2581 1862 mt 2581 1934 L
3803 2567 mt 3875 2567 L
3839 2531 mt 3839 2603 L
2575 3144 mt 2647 3144 L
2611 3108 mt 2611 3180 L
3711 3235 mt 3783 3235 L
3747 3199 mt 3747 3271 L
4184 2682 mt 4256 2682 L
4220 2646 mt 4220 2718 L
4512 1634 mt 4584 1634 L
4548 1598 mt 4548 1670 L
3116 3797 mt 3188 3797 L
3152 3761 mt 3152 3833 L
4206 2611 mt 4278 2611 L
4242 2575 mt 4242 2647 L
6225 2018 mt 6297 2018 L
6261 1982 mt 6261 2054 L
3538 2528 mt 3610 2528 L
3574 2492 mt 3574 2564 L
2432 3131 mt 2504 3131 L
2468 3095 mt 2468 3167 L
4251 2972 mt 4323 2972 L
4287 2936 mt 4287 3008 L
3046 3178 mt 3118 3178 L
3082 3142 mt 3082 3214 L
2479 2185 mt 2551 2185 L
2515 2149 mt 2515 2221 L
3820 2835 mt 3892 2835 L
3856 2799 mt 3856 2871 L
2235 2532 mt 2307 2532 L
2271 2496 mt 2271 2568 L
2844 2388 mt 2916 2388 L
2880 2352 mt 2880 2424 L
3307 2180 mt 3379 2180 L
3343 2144 mt 3343 2216 L
3832 2329 mt 3904 2329 L
3868 2293 mt 3868 2365 L
2634 2764 mt 2706 2764 L
2670 2728 mt 2670 2800 L
3940 2830 mt 4012 2830 L
3976 2794 mt 3976 2866 L
4330 4205 mt 4402 4205 L
4366 4169 mt 4366 4241 L
2662 2704 mt 2734 2704 L
2698 2668 mt 2698 2740 L
2394 2541 mt 2466 2541 L
2430 2505 mt 2430 2577 L
3376 1756 mt 3448 1756 L
3412 1720 mt 3412 1792 L
4338 3503 mt 4410 3503 L
4374 3467 mt 4374 3539 L
2040 3184 mt 2112 3184 L
2076 3148 mt 2076 3220 L
3255 3908 mt 3327 3908 L
3291 3872 mt 3291 3944 L
3964 2352 mt 4036 2352 L
4000 2316 mt 4000 2388 L
2821 1779 mt 2893 1779 L
2857 1743 mt 2857 1815 L
3768 2343 mt 3840 2343 L
3804 2307 mt 3804 2379 L
2085 3112 mt 2157 3112 L
2121 3076 mt 2121 3148 L
3313 1845 mt 3385 1845 L
3349 1809 mt 3349 1881 L
5282 1671 mt 5354 1671 L
5318 1635 mt 5318 1707 L
3996 3693 mt 4068 3693 L
4032 3657 mt 4032 3729 L
3909 2673 mt 3981 2673 L
3945 2637 mt 3945 2709 L
2749 1794 mt 2821 1794 L
2785 1758 mt 2785 1830 L
2106 3045 mt 2178 3045 L
2142 3009 mt 2142 3081 L
4298 3022 mt 4370 3022 L
4334 2986 mt 4334 3058 L
3471 2768 mt 3543 2768 L
3507 2732 mt 3507 2804 L
3027 2519 mt 3099 2519 L
3063 2483 mt 3063 2555 L
3873 2497 mt 3945 2497 L
3909 2461 mt 3909 2533 L
2444 2650 mt 2516 2650 L
2480 2614 mt 2480 2686 L
4163 2909 mt 4235 2909 L
4199 2873 mt 4199 2945 L
2896 2580 mt 2968 2580 L
2932 2544 mt 2932 2616 L
3560 1885 mt 3632 1885 L
3596 1849 mt 3596 1921 L
3249 2820 mt 3321 2820 L
3285 2784 mt 3285 2856 L
3588 3125 mt 3660 3125 L
3624 3089 mt 3624 3161 L
3532 2967 mt 3604 2967 L
3568 2931 mt 3568 3003 L
4472 2279 mt 4544 2279 L
4508 2243 mt 4508 2315 L
2063 3057 mt 2135 3057 L
2099 3021 mt 2099 3093 L
2966 2700 mt 3038 2700 L
3002 2664 mt 3002 2736 L
4453 1698 mt 4525 1698 L
4489 1662 mt 4489 1734 L
3577 2392 mt 3649 2392 L
3613 2356 mt 3613 2428 L
2456 2334 mt 2528 2334 L
2492 2298 mt 2492 2370 L
4228 1388 mt 4300 1388 L
4264 1352 mt 4264 1424 L
3284 3675 mt 3356 3675 L
3320 3639 mt 3320 3711 L
3208 1904 mt 3280 1904 L
3244 1868 mt 3244 1940 L
2407 2449 mt 2479 2449 L
2443 2413 mt 2443 2485 L
3059 3395 mt 3131 3395 L
3095 3359 mt 3095 3431 L
2910 2713 mt 2982 2713 L
2946 2677 mt 2946 2749 L
2723 2261 mt 2795 2261 L
2759 2225 mt 2759 2297 L
2251 2709 mt 2323 2709 L
2287 2673 mt 2287 2745 L
3278 3340 mt 3350 3340 L
3314 3304 mt 3314 3376 L
2595 1689 mt 2667 1689 L
2631 1653 mt 2631 1725 L
2805 2899 mt 2877 2899 L
2841 2863 mt 2841 2935 L
1387 1838 mt 1459 1838 L
1423 1802 mt 1423 1874 L
3555 3273 mt 3627 3273 L
3591 3237 mt 3591 3309 L
3655 2854 mt 3727 2854 L
3691 2818 mt 3691 2890 L
3135 3641 mt 3207 3641 L
3171 3605 mt 3171 3677 L
2201 2462 mt 2273 2462 L
2237 2426 mt 2237 2498 L
3694 2302 mt 3766 2302 L
3730 2266 mt 3730 2338 L
2781 2736 mt 2853 2736 L
2817 2700 mt 2817 2772 L
2146 2930 mt 2218 2930 L
2182 2894 mt 2182 2966 L
2706 2633 mt 2778 2633 L
2742 2597 mt 2742 2669 L
3844 4616 mt 3916 4616 L
3880 4580 mt 3880 4652 L
3053 2659 mt 3125 2659 L
3089 2623 mt 3089 2695 L
4597 2293 mt 4669 2293 L
4633 2257 mt 4633 2329 L
3443 2199 mt 3515 2199 L
3479 2163 mt 3479 2235 L
4149 1948 mt 4221 1948 L
4185 1912 mt 4185 1984 L
2757 3191 mt 2829 3191 L
2793 3155 mt 2793 3227 L
3342 2307 mt 3414 2307 L
3378 2271 mt 3378 2343 L
3033 3206 mt 3105 3206 L
3069 3170 mt 3069 3242 L
4135 2094 mt 4207 2094 L
4171 2058 mt 4171 2130 L
3621 2396 mt 3693 2396 L
3657 2360 mt 3657 2432 L
5531 2874 mt 5603 2874 L
5567 2838 mt 5567 2910 L
4221 2125 mt 4293 2125 L
4257 2089 mt 4257 2161 L
2282 1865 mt 2354 1865 L
2318 1829 mt 2318 1901 L
2689 2935 mt 2761 2935 L
2725 2899 mt 2725 2971 L
3426 3017 mt 3498 3017 L
3462 2981 mt 3462 3053 L
3237 1643 mt 3309 1643 L
3273 1607 mt 3273 1679 L
4425 2078 mt 4497 2078 L
4461 2042 mt 4461 2114 L
3336 3349 mt 3408 3349 L
3372 3313 mt 3372 3385 L
2797 1831 mt 2869 1831 L
2833 1795 mt 2833 1867 L
3751 2347 mt 3823 2347 L
3787 2311 mt 3787 2383 L
3885 1748 mt 3957 1748 L
3921 1712 mt 3921 1784 L
3633 3658 mt 3705 3658 L
3669 3622 mt 3669 3694 L
2952 1419 mt 3024 1419 L
2988 1383 mt 2988 1455 L
2267 1538 mt 2339 1538 L
2303 1502 mt 2303 1574 L
3740 2727 mt 3812 2727 L
3776 2691 mt 3776 2763 L
4532 2275 mt 4604 2275 L
4568 2239 mt 4568 2311 L
4087 1984 mt 4159 1984 L
4123 1948 mt 4123 2020 L
3927 1583 mt 3999 1583 L
3963 1547 mt 3963 1619 L
2355 1923 mt 2427 1923 L
2391 1887 mt 2391 1959 L
3214 3039 mt 3286 3039 L
3250 3003 mt 3250 3075 L
4034 2405 mt 4106 2405 L
4070 2369 mt 4070 2441 L
3330 3358 mt 3402 3358 L
3366 3322 mt 3366 3394 L
3774 2140 mt 3846 2140 L
3810 2104 mt 3810 2176 L
4904 1087 mt 4976 1087 L
4940 1051 mt 4940 1123 L
4542 1715 mt 4614 1715 L
4578 1679 mt 4578 1751 L
3020 2099 mt 3092 2099 L
3056 2063 mt 3056 2135 L
2874 3164 mt 2946 3164 L
2910 3128 mt 2910 3200 L
2381 2012 mt 2453 2012 L
2417 1976 mt 2417 2048 L
4170 2467 mt 4242 2467 L
4206 2431 mt 4206 2503 L
2183 3034 mt 2255 3034 L
2219 2998 mt 2219 3070 L
3891 2007 mt 3963 2007 L
3927 1971 mt 3927 2043 L
4643 1930 mt 4715 1930 L
4679 1894 mt 4679 1966 L
1842 3314 mt 1914 3314 L
1878 3278 mt 1878 3350 L
2652 1181 mt 2724 1181 L
2688 1145 mt 2688 1217 L
4961 2247 mt 5033 2247 L
4997 2211 mt 4997 2283 L
5413 1911 mt 5485 1911 L
5449 1875 mt 5449 1947 L
3594 3005 mt 3666 3005 L
3630 2969 mt 3630 3041 L
4564 2365 mt 4636 2365 L
4600 2329 mt 4600 2401 L
4492 1878 mt 4564 1878 L
4528 1842 mt 4528 1914 L
4390 1802 mt 4462 1802 L
4426 1766 mt 4426 1838 L
3897 2256 mt 3969 2256 L
3933 2220 mt 3933 2292 L
2513 2432 mt 2585 2432 L
2549 2396 mt 2549 2468 L
3381 2558 mt 3453 2558 L
3417 2522 mt 3417 2594 L
3091 2869 mt 3163 2869 L
3127 2833 mt 3127 2905 L
3078 2994 mt 3150 2994 L
3114 2958 mt 3114 3030 L
4322 2745 mt 4394 2745 L
4358 2709 mt 4358 2781 L
1937 3567 mt 2009 3567 L
1973 3531 mt 1973 3603 L
4236 2571 mt 4308 2571 L
4272 2535 mt 4272 2607 L
3007 2356 mt 3079 2356 L
3043 2320 mt 3043 2392 L
2813 3157 mt 2885 3157 L
2849 3121 mt 2849 3193 L
3977 2615 mt 4049 2615 L
4013 2579 mt 4013 2651 L
3302 1207 mt 3374 1207 L
3338 1171 mt 3338 1243 L
3677 1318 mt 3749 1318 L
3713 1282 mt 3713 1354 L
3989 4305 mt 4061 4305 L
4025 4269 mt 4025 4341 L
3516 3457 mt 3588 3457 L
3552 3421 mt 3552 3493 L
3415 3942 mt 3487 3942 L
3451 3906 mt 3451 3978 L
3488 2120 mt 3560 2120 L
3524 2084 mt 3524 2156 L
2980 1371 mt 3052 1371 L
3016 1335 mt 3016 1407 L
3903 4023 mt 3975 4023 L
3939 3987 mt 3939 4059 L
4680 3081 mt 4752 3081 L
4716 3045 mt 4716 3117 L
4009 2115 mt 4081 2115 L
4045 2079 mt 4045 2151 L
2420 2545 mt 2492 2545 L
2456 2509 mt 2456 2581 L
5096 2218 mt 5168 2218 L
5132 2182 mt 5132 2254 L
5180 2787 mt 5252 2787 L
5216 2751 mt 5216 2823 L
4775 2677 mt 4847 2677 L
4811 2641 mt 4811 2713 L
5321 2024 mt 5393 2024 L
5357 1988 mt 5357 2060 L
4619 2562 mt 4691 2562 L
4655 2526 mt 4655 2598 L
4028 2135 mt 4100 2135 L
4064 2099 mt 4064 2171 L
5024 2773 mt 5096 2773 L
5060 2737 mt 5060 2809 L
3220 2170 mt 3292 2170 L
3256 2134 mt 3256 2206 L
2881 1892 mt 2953 1892 L
2917 1856 mt 2917 1928 L
4364 2251 mt 4436 2251 L
4400 2215 mt 4400 2287 L
2016 2731 mt 2088 2731 L
2052 2695 mt 2052 2767 L
4655 2940 mt 4727 2940 L
4691 2904 mt 4691 2976 L
3666 1680 mt 3738 1680 L
3702 1644 mt 3702 1716 L
3549 1049 mt 3621 1049 L
3585 1013 mt 3585 1085 L
5047 4072 mt 5119 4072 L
5083 4036 mt 5083 4108 L
3160 2576 mt 3232 2576 L
3196 2540 mt 3196 2612 L
3466 3436 mt 3538 3436 L
3502 3400 mt 3502 3472 L
4522 2150 mt 4594 2150 L
4558 2114 mt 4558 2186 L
3404 2523 mt 3476 2523 L
3440 2487 mt 3440 2559 L
4372 1354 mt 4444 1354 L
4408 1318 mt 4408 1390 L
2298 2029 mt 2370 2029 L
2334 1993 mt 2334 2065 L
5245 3198 mt 5317 3198 L
5281 3162 mt 5281 3234 L
4094 3220 mt 4166 3220 L
4130 3184 mt 4130 3256 L
4100 3731 mt 4172 3731 L
4136 3695 mt 4136 3767 L
4553 3540 mt 4625 3540 L
4589 3504 mt 4589 3576 L
3421 1809 mt 3493 1809 L
3457 1773 mt 3457 1845 L
3449 2414 mt 3521 2414 L
3485 2378 mt 3485 2450 L
4789 3075 mt 4861 3075 L
4825 3039 mt 4825 3111 L
3273  898 mt 3345  898 L
3309  862 mt 3309  934 L
3432 2214 mt 3504 2214 L
3468 2178 mt 3468 2250 L
4047 2298 mt 4119 2298 L
4083 2262 mt 4083 2334 L
5700 2628 mt 5772 2628 L
5736 2592 mt 5736 2664 L
4314 1489 mt 4386 1489 L
4350 1453 mt 4350 1525 L
4922 3028 mt 4994 3028 L
4958 2992 mt 4958 3064 L
3000 2951 mt 3072 2951 L
3036 2915 mt 3036 2987 L
3232 1624 mt 3304 1624 L
3268 1588 mt 3268 1660 L
2924 1448 mt 2996 1448 L
2960 1412 mt 2960 1484 L
4836 1740 mt 4908 1740 L
4872 1704 mt 4872 1776 L
4760 2815 mt 4832 2815 L
4796 2779 mt 4796 2851 L
2836 2316 mt 2908 2316 L
2872 2280 mt 2872 2352 L
5002 1954 mt 5074 1954 L
5038 1918 mt 5038 1990 L
3566 2602 mt 3638 2602 L
3602 2566 mt 3602 2638 L
3110 1434 mt 3182 1434 L
3146 1398 mt 3146 1470 L
4981 3087 mt 5053 3087 L
5017 3051 mt 5017 3123 L
3627 2619 mt 3699 2619 L
3663 2583 mt 3663 2655 L
4142 3376 mt 4214 3376 L
4178 3340 mt 4178 3412 L
3013 1121 mt 3085 1121 L
3049 1085 mt 3049 1157 L
4585 2510 mt 4657 2510 L
4621 2474 mt 4621 2546 L
3971 3822 mt 4043 3822 L
4007 3786 mt 4007 3858 L
3460 2589 mt 3532 2589 L
3496 2553 mt 3496 2625 L
4407  414 mt 4479  414 L
4443  378 mt 4443  450 L
4463 3553 mt 4535 3553 L
4499 3517 mt 4499 3589 L
4156 3106 mt 4228 3106 L
4192 3070 mt 4192 3142 L
3319 2130 mt 3391 2130 L
3355 2094 mt 3355 2166 L
3072 3331 mt 3144 3331 L
3108 3295 mt 3108 3367 L
3791 3297 mt 3863 3297 L
3827 3261 mt 3827 3333 L
2715 3011 mt 2787 3011 L
2751 2975 mt 2751 3047 L
3850 2792 mt 3922 2792 L
3886 2756 mt 3886 2828 L
3141 2089 mt 3213 2089 L
3177 2053 mt 3177 2125 L
3104 1764 mt 3176 1764 L
3140 1728 mt 3140 1800 L
4746 2811 mt 4818 2811 L
4782 2775 mt 4782 2847 L
4121 2320 mt 4193 2320 L
4157 2284 mt 4157 2356 L
3717 1476 mt 3789 1476 L
3753 1440 mt 3753 1512 L
3610 2536 mt 3682 2536 L
3646 2500 mt 3646 2572 L
4608 3118 mt 4680 3118 L
4644 3082 mt 4644 3154 L
3066 2418 mt 3138 2418 L
3102 2382 mt 3102 2454 L
3510 2925 mt 3582 2925 L
3546 2889 mt 3546 2961 L
5828 3213 mt 5900 3213 L
5864 3177 mt 5864 3249 L
4282 3093 mt 4354 3093 L
4318 3057 mt 4318 3129 L
4306 2879 mt 4378 2879 L
4342 2843 mt 4342 2915 L
3410 3581 mt 3482 3581 L
3446 3545 mt 3446 3617 L
4015 2233 mt 4087 2233 L
4051 2197 mt 4051 2269 L
3172 3137 mt 3244 3137 L
3208 3101 mt 3208 3173 L
3359 2978 mt 3431 2978 L
3395 2942 mt 3395 3014 L
3129 2145 mt 3201 2145 L
3165 2109 mt 3165 2181 L
2993 2223 mt 3065 2223 L
3029 2187 mt 3029 2259 L
1805 3877 mt 1877 3877 L
1841 3841 mt 1841 3913 L
4482 2104 mt 4554 2104 L
4518 2068 mt 4518 2140 L
3785 2904 mt 3857 2904 L
3821 2868 mt 3821 2940 L
3745 3610 mt 3817 3610 L
3781 3574 mt 3781 3646 L
4501 2109 mt 4573 2109 L
4537 2073 mt 4537 2145 L
5071 2083 mt 5143 2083 L
5107 2047 mt 5107 2119 L
3809 3980 mt 3881 3980 L
3845 3944 mt 3845 4016 L
3757 3306 mt 3829 3306 L
3793 3270 mt 3793 3342 L
1619 1462 mt 1691 1462 L
1655 1426 mt 1655 1498 L
3946 2624 mt 4018 2624 L
3982 2588 mt 3982 2660 L
3728 1858 mt 3800 1858 L
3764 1822 mt 3764 1894 L
4054 2750 mt 4126 2750 L
4090 2714 mt 4090 2786 L
4060 3711 mt 4132 3711 L
4096 3675 mt 4096 3747 L
5150 3752 mt 5222 3752 L
5186 3716 mt 5186 3788 L
2671 2946 mt 2743 2946 L
2707 2910 mt 2707 2982 L
4199 2051 mt 4271 2051 L
4235 2015 mt 4235 2087 L
2973 2801 mt 3045 2801 L
3009 2765 mt 3009 2837 L
4259 1526 mt 4331 1526 L
4295 1490 mt 4295 1562 L
3661 2718 mt 3733 2718 L
3697 2682 mt 3697 2754 L
3499 3491 mt 3571 3491 L
3535 3455 mt 3535 3527 L
3915 3774 mt 3987 3774 L
3951 3738 mt 3951 3810 L
3261 3386 mt 3333 3386 L
3297 3350 mt 3297 3422 L
4347 1936 mt 4419 1936 L
4383 1900 mt 4383 1972 L
3683 2884 mt 3755 2884 L
3719 2848 mt 3719 2920 L
3398 2073 mt 3470 2073 L
3434 2037 mt 3434 2109 L
3364 2849 mt 3436 2849 L
3400 2813 mt 3400 2885 L
6033 2554 mt 6105 2554 L
6069 2518 mt 6069 2590 L
2773 1277 mt 2845 1277 L
2809 1241 mt 2809 1313 L
1481 3446 mt 1553 3446 L
1517 3410 mt 1517 3482 L
3393 2436 mt 3465 2436 L
3429 2400 mt 3429 2472 L
3826 2782 mt 3898 2782 L
3862 2746 mt 3862 2818 L
3952 1823 mt 4024 1823 L
3988 1787 mt 3988 1859 L
3838 1298 mt 3910 1298 L
3874 1262 mt 3874 1334 L
3780 3515 mt 3852 3515 L
3816 3479 mt 3816 3551 L
1876 3063 mt 1948 3063 L
1912 3027 mt 1912 3099 L
1907 2155 mt 1979 2155 L
1943 2119 mt 1943 2191 L
2987 3069 mt 3059 3069 L
3023 3033 mt 3023 3105 L
3797 2370 mt 3869 2370 L
3833 2334 mt 3833 2406 L
3723 1960 mt 3795 1960 L
3759 1924 mt 3759 1996 L
3190  564 mt 3262  564 L
3226  528 mt 3226  600 L
4041 2983 mt 4113 2983 L
4077 2947 mt 4077 3019 L
2789 3468 mt 2861 3468 L
2825 3432 mt 2825 3504 L
3153 2844 mt 3225 2844 L
3189 2808 mt 3189 2880 L
2605 3281 mt 2677 3281 L
2641 3245 mt 2641 3317 L
2866 3527 mt 2938 3527 L
2902 3491 mt 2902 3563 L
4177 1816 mt 4249 1816 L
4213 1780 mt 4213 1852 L
3571 2549 mt 3643 2549 L
3607 2513 mt 3607 2585 L
1259 2288 mt 1331 2288 L
1295 2252 mt 1295 2324 L
4128 1662 mt 4200 1662 L
4164 1626 mt 4164 1698 L
2555 3265 mt 2627 3265 L
2591 3229 mt 2591 3301 L
3649 3425 mt 3721 3425 L
3685 3389 mt 3685 3461 L
4355 2584 mt 4427 2584 L
4391 2548 mt 4391 2620 L
2341 2889 mt 2413 2889 L
2377 2853 mt 2377 2925 L
4719 1232 mt 4791 1232 L
4755 1196 mt 4755 1268 L
4631 1942 mt 4703 1942 L
4667 1906 mt 4667 1978 L
3226 3227 mt 3298 3227 L
3262 3191 mt 3262 3263 L
4574 2471 mt 4646 2471 L
4610 2435 mt 4610 2507 L
5211 2806 mt 5283 2806 L
5247 2770 mt 5247 2842 L
2938 1514 mt 3010 1514 L
2974 1478 mt 2974 1550 L
4693 2379 mt 4765 2379 L
4729 2343 mt 4729 2415 L
2917 1502 mt 2989 1502 L
2953 1466 mt 2953 1538 L
1766 2962 mt 1838 2962 L
1802 2926 mt 1802 2998 L
3370 2641 mt 3442 2641 L
3406 2605 mt 3406 2677 L
3123 2778 mt 3195 2778 L
3159 2742 mt 3159 2814 L
 863 2655 mt  935 2655 L
 899 2619 mt  899 2691 L
2218 2691 mt 2290 2691 L
2254 2655 mt 2254 2727 L
2368 2501 mt 2440 2501 L
2404 2465 mt 2404 2537 L
5606 2427 mt 5678 2427 L
5642 2391 mt 5642 2463 L
4435 2593 mt 4507 2593 L
4471 2557 mt 4471 2629 L
2165 2606 mt 2237 2606 L
2201 2570 mt 2201 2642 L
5365 3151 mt 5437 3151 L
5401 3115 mt 5401 3187 L
3166 3099 mt 3238 3099 L
3202 3063 mt 3202 3135 L
3482 3405 mt 3554 3405 L
3518 3369 mt 3518 3441 L
2327 2859 mt 2399 2859 L
2363 2823 mt 2363 2895 L
3290 1723 mt 3362 1723 L
3326 1687 mt 3326 1759 L
1991 2453 mt 2063 2453 L
2027 2417 mt 2027 2489 L
3734 3848 mt 3806 3848 L
3770 3812 mt 3770 3884 L
4416 2722 mt 4488 2722 L
4452 2686 mt 4452 2758 L
3493  957 mt 3565  957 L
3529  921 mt 3529  993 L
5468 3000 mt 5540 3000 L
5504 2964 mt 5504 3036 L
3196  724 mt 3268  724 L
3232  688 mt 3232  760 L
3879 2646 mt 3951 2646 L
3915 2610 mt 3915 2682 L
3855 1653 mt 3927 1653 L
3891 1617 mt 3891 1689 L
3521 2840 mt 3593 2840 L
3557 2804 mt 3557 2876 L
4706 1732 mt 4778 1732 L
4742 1696 mt 4742 1768 L
gs 899 414 5363 4203 rc
gr

0 sg
2826 5104 mt 
(\(F,DCTs,MLP\)) s
 482 3259 mt  -90 rotate
(\(S,PAC,GMM\)) s
90 rotate
2975  223 mt 
(Corr = 0.04) s

end %%Color Dict

eplot
%%EndObject

epage
end

showpage

%%Trailer
%%EOF
