%!PS-Adobe-3.0 EPSF-3.0
%%Creator: MATLAB, The Mathworks, Inc. Version 7.7.0.471 (R2008b). Operating System: Microsoft Windows XP.
%%Title: Pictures\main_zoo_mvar_analysis_data_BMI_xcorr_bmi_p1_k2_2_6.eps
%%CreationDate: 10/26/2009  05:44:20
%%DocumentNeededFonts: Helvetica
%%DocumentProcessColors: Cyan Magenta Yellow Black
%%LanguageLevel: 2
%%Pages: 1
%%BoundingBox:    32   180   546   616
%%EndComments

%%BeginProlog
% MathWorks dictionary
/MathWorks 160 dict begin
% definition operators
/bdef {bind def} bind def
/ldef {load def} bind def
/xdef {exch def} bdef
/xstore {exch store} bdef
% operator abbreviations
/c  /clip ldef
/cc /concat ldef
/cp /closepath ldef
/gr /grestore ldef
/gs /gsave ldef
/mt /moveto ldef
/np /newpath ldef
/cm /currentmatrix ldef
/sm /setmatrix ldef
/rm /rmoveto ldef
/rl /rlineto ldef
/s {show newpath} bdef
/sc {setcmykcolor} bdef
/sr /setrgbcolor ldef
/sg /setgray ldef
/w /setlinewidth ldef
/j /setlinejoin ldef
/cap /setlinecap ldef
/rc {rectclip} bdef
/rf {rectfill} bdef
% page state control
/pgsv () def
/bpage {/pgsv save def} bdef
/epage {pgsv restore} bdef
/bplot /gsave ldef
/eplot {stroke grestore} bdef
% orientation switch
/portraitMode 0 def /landscapeMode 1 def /rotateMode 2 def
% coordinate system mappings
/dpi2point 0 def
% font control
/FontSize 0 def
/FMS {/FontSize xstore findfont [FontSize 0 0 FontSize neg 0 0]
  makefont setfont} bdef
/ISOLatin1Encoding where {pop /WindowsLatin1Encoding 256 array bdef
ISOLatin1Encoding WindowsLatin1Encoding copy pop
/.notdef/.notdef/quotesinglbase/florin/quotedblbase/ellipsis/dagger
/daggerdbl/circumflex/perthousand/Scaron/guilsinglleft/OE/.notdef/.notdef
/.notdef/.notdef/quoteleft/quoteright/quotedblleft/quotedblright/bullet
/endash/emdash/tilde/trademark/scaron/guilsinglright/oe/.notdef/.notdef
/Ydieresis WindowsLatin1Encoding 128 32 getinterval astore pop}
{/WindowsLatin1Encoding StandardEncoding bdef} ifelse
/reencode {exch dup where {pop load} {pop StandardEncoding} ifelse
  exch dup 3 1 roll findfont dup length dict begin
  { 1 index /FID ne {def}{pop pop} ifelse } forall
  /Encoding exch def currentdict end definefont pop} bdef
/isroman {findfont /CharStrings get /Agrave known} bdef
/FMSR {3 1 roll 1 index dup isroman {reencode} {pop pop} ifelse
  exch FMS} bdef
/csm {1 dpi2point div -1 dpi2point div scale neg translate
 dup landscapeMode eq {pop -90 rotate}
  {rotateMode eq {90 rotate} if} ifelse} bdef
% line types: solid, dotted, dashed, dotdash
/SO { [] 0 setdash } bdef
/DO { [.5 dpi2point mul 4 dpi2point mul] 0 setdash } bdef
/DA { [6 dpi2point mul] 0 setdash } bdef
/DD { [.5 dpi2point mul 4 dpi2point mul 6 dpi2point mul 4
  dpi2point mul] 0 setdash } bdef
% macros for lines and objects
/L {lineto stroke} bdef
/MP {3 1 roll moveto 1 sub {rlineto} repeat} bdef
/AP {{rlineto} repeat} bdef
/PDlw -1 def
/W {/PDlw currentlinewidth def setlinewidth} def
/PP {closepath eofill} bdef
/DP {closepath stroke} bdef
/MR {4 -2 roll moveto dup  0 exch rlineto exch 0 rlineto
  neg 0 exch rlineto closepath} bdef
/FR {MR stroke} bdef
/PR {MR fill} bdef
/L1i {{currentfile picstr readhexstring pop} image} bdef
/tMatrix matrix def
/MakeOval {newpath tMatrix currentmatrix pop translate scale
0 0 1 0 360 arc tMatrix setmatrix} bdef
/FO {MakeOval stroke} bdef
/PO {MakeOval fill} bdef
/PD {currentlinewidth 2 div 0 360 arc fill
   PDlw -1 eq not {PDlw w /PDlw -1 def} if} def
/FA {newpath tMatrix currentmatrix pop translate scale
  0 0 1 5 -2 roll arc tMatrix setmatrix stroke} bdef
/PA {newpath tMatrix currentmatrix pop	translate 0 0 moveto scale
  0 0 1 5 -2 roll arc closepath tMatrix setmatrix fill} bdef
/FAn {newpath tMatrix currentmatrix pop translate scale
  0 0 1 5 -2 roll arcn tMatrix setmatrix stroke} bdef
/PAn {newpath tMatrix currentmatrix pop translate 0 0 moveto scale
  0 0 1 5 -2 roll arcn closepath tMatrix setmatrix fill} bdef
/vradius 0 def /hradius 0 def /lry 0 def
/lrx 0 def /uly 0 def /ulx 0 def /rad 0 def
/MRR {/vradius xdef /hradius xdef /lry xdef /lrx xdef /uly xdef
  /ulx xdef newpath tMatrix currentmatrix pop ulx hradius add uly
  vradius add translate hradius vradius scale 0 0 1 180 270 arc 
  tMatrix setmatrix lrx hradius sub uly vradius add translate
  hradius vradius scale 0 0 1 270 360 arc tMatrix setmatrix
  lrx hradius sub lry vradius sub translate hradius vradius scale
  0 0 1 0 90 arc tMatrix setmatrix ulx hradius add lry vradius sub
  translate hradius vradius scale 0 0 1 90 180 arc tMatrix setmatrix
  closepath} bdef
/FRR {MRR stroke } bdef
/PRR {MRR fill } bdef
/MlrRR {/lry xdef /lrx xdef /uly xdef /ulx xdef /rad lry uly sub 2 div def
  newpath tMatrix currentmatrix pop ulx rad add uly rad add translate
  rad rad scale 0 0 1 90 270 arc tMatrix setmatrix lrx rad sub lry rad
  sub translate rad rad scale 0 0 1 270 90 arc tMatrix setmatrix
  closepath} bdef
/FlrRR {MlrRR stroke } bdef
/PlrRR {MlrRR fill } bdef
/MtbRR {/lry xdef /lrx xdef /uly xdef /ulx xdef /rad lrx ulx sub 2 div def
  newpath tMatrix currentmatrix pop ulx rad add uly rad add translate
  rad rad scale 0 0 1 180 360 arc tMatrix setmatrix lrx rad sub lry rad
  sub translate rad rad scale 0 0 1 0 180 arc tMatrix setmatrix
  closepath} bdef
/FtbRR {MtbRR stroke } bdef
/PtbRR {MtbRR fill } bdef
/stri 6 array def /dtri 6 array def
/smat 6 array def /dmat 6 array def
/tmat1 6 array def /tmat2 6 array def /dif 3 array def
/asub {/ind2 exch def /ind1 exch def dup dup
  ind1 get exch ind2 get sub exch } bdef
/tri_to_matrix {
  2 0 asub 3 1 asub 4 0 asub 5 1 asub
  dup 0 get exch 1 get 7 -1 roll astore } bdef
/compute_transform {
  dmat dtri tri_to_matrix tmat1 invertmatrix 
  smat stri tri_to_matrix tmat2 concatmatrix } bdef
/ds {stri astore pop} bdef
/dt {dtri astore pop} bdef
/db {2 copy /cols xdef /rows xdef mul dup 3 mul string
  currentfile 
  3 index 0 eq {/ASCIIHexDecode filter}
  {/ASCII85Decode filter 3 index 2 eq {/RunLengthDecode filter} if }
  ifelse exch readstring pop
  dup 0 3 index getinterval /rbmap xdef
  dup 2 index dup getinterval /gbmap xdef
  1 index dup 2 mul exch getinterval /bbmap xdef pop pop}bdef
/it {gs np dtri aload pop moveto lineto lineto cp c
  cols rows 8 compute_transform 
  rbmap gbmap bbmap true 3 colorimage gr}bdef
/il {newpath moveto lineto stroke}bdef
currentdict end def
%%EndProlog

%%BeginSetup
MathWorks begin

0 cap

end
%%EndSetup

%%Page: 1 1
%%BeginPageSetup
%%PageBoundingBox:    32   180   546   616
MathWorks begin
bpage
%%EndPageSetup

%%BeginObject: obj1
bplot

/dpi2point 12 def
portraitMode 0216 7344 csm

  174   -48  6173  5231 rc
85 dict begin %Colortable dictionary
/c0 { 0.000000 0.000000 0.000000 sr} bdef
/c1 { 1.000000 1.000000 1.000000 sr} bdef
/c2 { 0.900000 0.000000 0.000000 sr} bdef
/c3 { 0.000000 0.820000 0.000000 sr} bdef
/c4 { 0.000000 0.000000 0.800000 sr} bdef
/c5 { 0.910000 0.820000 0.320000 sr} bdef
/c6 { 1.000000 0.260000 0.820000 sr} bdef
/c7 { 0.000000 0.820000 0.820000 sr} bdef
c0
1 j
1 sg
   0    0 6919 5187 rf
6 w
0 4203 5362 0 0 -4203 899 4616 4 MP
PP
-5362 0 0 4203 5362 0 0 -4203 899 4616 5 MP stroke
4 w
DO
SO
6 w
0 sg
 899  413 mt 6261  413 L
 899 4616 mt 6261 4616 L
6261 4616 mt 6261  413 L
 899 4616 mt  899  413 L
 899 4616 mt 6261 4616 L
 899 4616 mt  899  413 L
1971 4616 mt 1971 4562 L
1971  414 mt 1971  467 L
%%IncludeResource: font Helvetica
/Helvetica /WindowsLatin1Encoding 240 FMSR

1805 4873 mt 
(0.2) s
3043 4616 mt 3043 4562 L
3043  414 mt 3043  467 L
2877 4873 mt 
(0.4) s
4116 4616 mt 4116 4562 L
4116  414 mt 4116  467 L
3950 4873 mt 
(0.6) s
5188 4616 mt 5188 4562 L
5188  414 mt 5188  467 L
5022 4873 mt 
(0.8) s
 899 4195 mt  952 4195 L
6261 4195 mt 6207 4195 L
 531 4284 mt 
(0.1) s
 899 3775 mt  952 3775 L
6261 3775 mt 6207 3775 L
 531 3864 mt 
(0.2) s
 899 3355 mt  952 3355 L
6261 3355 mt 6207 3355 L
 531 3444 mt 
(0.3) s
 899 2935 mt  952 2935 L
6261 2935 mt 6207 2935 L
 531 3024 mt 
(0.4) s
 899 2514 mt  952 2514 L
6261 2514 mt 6207 2514 L
 531 2603 mt 
(0.5) s
 899 2094 mt  952 2094 L
6261 2094 mt 6207 2094 L
 531 2183 mt 
(0.6) s
 899 1674 mt  952 1674 L
6261 1674 mt 6207 1674 L
 531 1763 mt 
(0.7) s
 899 1254 mt  952 1254 L
6261 1254 mt 6207 1254 L
 531 1343 mt 
(0.8) s
 899  834 mt  952  834 L
6261  834 mt 6207  834 L
 531  923 mt 
(0.9) s
 899  413 mt 6261  413 L
 899 4616 mt 6261 4616 L
6261 4616 mt 6261  413 L
 899 4616 mt  899  413 L
gs 899 414 5363 4203 rc
gr

/c8 { 0.000000 0.000000 1.000000 sr} bdef
c8
3932 2424 mt 4004 2424 L
3968 2388 mt 3968 2460 L
3522 2741 mt 3594 2741 L
3558 2705 mt 3558 2777 L
2578 1245 mt 2650 1245 L
2614 1209 mt 2614 1281 L
 886 2758 mt  958 2758 L
 922 2722 mt  922 2794 L
2960 1027 mt 3032 1027 L
2996  991 mt 2996 1063 L
3183  975 mt 3255  975 L
3219  939 mt 3219 1011 L
2027 4000 mt 2099 4000 L
2063 3964 mt 2063 4036 L
2391 3958 mt 2463 3958 L
2427 3922 mt 2427 3994 L
 871 4500 mt  943 4500 L
 907 4464 mt  907 4536 L
6163  446 mt 6235  446 L
6199  410 mt 6199  482 L
1331 4382 mt 1403 4382 L
1367 4346 mt 1367 4418 L
1850 2118 mt 1922 2118 L
1886 2082 mt 1886 2154 L
5997  637 mt 6069  637 L
6033  601 mt 6033  673 L
2010 2248 mt 2082 2248 L
2046 2212 mt 2046 2284 L
5505  470 mt 5577  470 L
5541  434 mt 5541  506 L
4368 4570 mt 4440 4570 L
4404 4534 mt 4404 4606 L
3179 3955 mt 3251 3955 L
3215 3919 mt 3215 3991 L
5769 2512 mt 5841 2512 L
5805 2476 mt 5805 2548 L
 918 3773 mt  990 3773 L
 954 3737 mt  954 3809 L
5401 1864 mt 5473 1864 L
5437 1828 mt 5437 1900 L
4826 2734 mt 4898 2734 L
4862 2698 mt 4862 2770 L
1022  886 mt 1094  886 L
1058  850 mt 1058  922 L
3460 3611 mt 3532 3611 L
3496 3575 mt 3496 3647 L
6081 2120 mt 6153 2120 L
6117 2084 mt 6117 2156 L
5834  437 mt 5906  437 L
5870  401 mt 5870  473 L
5301  471 mt 5373  471 L
5337  435 mt 5337  507 L
 863 2997 mt  935 2997 L
 899 2961 mt  899 3033 L
3171  581 mt 3243  581 L
3207  545 mt 3207  617 L
4724 4576 mt 4796 4576 L
4760 4540 mt 4760 4612 L
6208 4551 mt 6280 4551 L
6244 4515 mt 6244 4587 L
5897  852 mt 5969  852 L
5933  816 mt 5933  888 L
1274 3814 mt 1346 3814 L
1310 3778 mt 1310 3850 L
4026 4524 mt 4098 4524 L
4062 4488 mt 4062 4560 L
5478 1588 mt 5550 1588 L
5514 1552 mt 5514 1624 L
1444 1374 mt 1516 1374 L
1480 1338 mt 1480 1410 L
2186 3091 mt 2258 3091 L
2222 3055 mt 2222 3127 L
4954 4465 mt 5026 4465 L
4990 4429 mt 4990 4501 L
2791 1305 mt 2863 1305 L
2827 1269 mt 2827 1341 L
4851 1373 mt 4923 1373 L
4887 1337 mt 4887 1409 L
1108 4005 mt 1180 4005 L
1144 3969 mt 1144 4041 L
1421 1050 mt 1493 1050 L
1457 1014 mt 1457 1086 L
5903  597 mt 5975  597 L
5939  561 mt 5939  633 L
4630  893 mt 4702  893 L
4666  857 mt 4666  929 L
4263 1261 mt 4335 1261 L
4299 1225 mt 4299 1297 L
6114 3080 mt 6186 3080 L
6150 3044 mt 6150 3116 L
1759 1754 mt 1831 1754 L
1795 1718 mt 1795 1790 L
2940 3381 mt 3012 3381 L
2976 3345 mt 2976 3417 L
5983 1538 mt 6055 1538 L
6019 1502 mt 6019 1574 L
3288 2469 mt 3360 2469 L
3324 2433 mt 3324 2505 L
5451  428 mt 5523  428 L
5487  392 mt 5487  464 L
4059 4536 mt 4131 4536 L
4095 4500 mt 4095 4572 L
5256 3959 mt 5328 3959 L
5292 3923 mt 5292 3995 L
6101  998 mt 6173  998 L
6137  962 mt 6137 1034 L
2443 4503 mt 2515 4503 L
2479 4467 mt 2479 4539 L
5856 2095 mt 5928 2095 L
5892 2059 mt 5892 2131 L
5672 3109 mt 5744 3109 L
5708 3073 mt 5708 3145 L
3400 3291 mt 3472 3291 L
3436 3255 mt 3436 3327 L
4339  542 mt 4411  542 L
4375  506 mt 4375  578 L
1615 4583 mt 1687 4583 L
1651 4547 mt 1651 4619 L
1336  636 mt 1408  636 L
1372  600 mt 1372  672 L
3782 2866 mt 3854 2866 L
3818 2830 mt 3818 2902 L
3602 4149 mt 3674 4149 L
3638 4113 mt 3638 4185 L
3144 1974 mt 3216 1974 L
3180 1938 mt 3180 2010 L
5547 3012 mt 5619 3012 L
5583 2976 mt 5583 3048 L
 933 4217 mt 1005 4217 L
 969 4181 mt  969 4253 L
6070  747 mt 6142  747 L
6106  711 mt 6106  783 L
4398 3965 mt 4470 3965 L
4434 3929 mt 4434 4001 L
1055 2648 mt 1127 2648 L
1091 2612 mt 1091 2684 L
4712 2497 mt 4784 2497 L
4748 2461 mt 4748 2533 L
1063 3461 mt 1135 3461 L
1099 3425 mt 1099 3497 L
4953 2223 mt 5025 2223 L
4989 2187 mt 4989 2259 L
2257  536 mt 2329  536 L
2293  500 mt 2293  572 L
3686 2914 mt 3758 2914 L
3722 2878 mt 3722 2950 L
1983 2602 mt 2055 2602 L
2019 2566 mt 2019 2638 L
 876 4534 mt  948 4534 L
 912 4498 mt  912 4570 L
 863 3062 mt  935 3062 L
 899 3026 mt  899 3098 L
5441 3358 mt 5513 3358 L
5477 3322 mt 5477 3394 L
1926 1806 mt 1998 1806 L
1962 1770 mt 1962 1842 L
2063  985 mt 2135  985 L
2099  949 mt 2099 1021 L
6145 4379 mt 6217 4379 L
6181 4343 mt 6181 4415 L
1343 4531 mt 1415 4531 L
1379 4495 mt 1379 4567 L
2447 2463 mt 2519 2463 L
2483 2427 mt 2483 2499 L
5695 3774 mt 5767 3774 L
5731 3738 mt 5731 3810 L
5791 1091 mt 5863 1091 L
5827 1055 mt 5827 1127 L
6137 1317 mt 6209 1317 L
6173 1281 mt 6173 1353 L
3655 3575 mt 3727 3575 L
3691 3539 mt 3691 3611 L
2100 3791 mt 2172 3791 L
2136 3755 mt 2136 3827 L
5436 1062 mt 5508 1062 L
5472 1026 mt 5472 1098 L
6121  828 mt 6193  828 L
6157  792 mt 6157  864 L
2460  956 mt 2532  956 L
2496  920 mt 2496  992 L
2049 4610 mt 2121 4610 L
2085 4574 mt 2085 4646 L
6170 1036 mt 6242 1036 L
6206 1000 mt 6206 1072 L
 968 4503 mt 1040 4503 L
1004 4467 mt 1004 4539 L
5093 3910 mt 5165 3910 L
5129 3874 mt 5129 3946 L
3333 4179 mt 3405 4179 L
3369 4143 mt 3369 4215 L
5593  480 mt 5665  480 L
5629  444 mt 5629  516 L
1877 2609 mt 1949 2609 L
1913 2573 mt 1913 2645 L
3190 4262 mt 3262 4262 L
3226 4226 mt 3226 4298 L
3137 4427 mt 3209 4427 L
3173 4391 mt 3173 4463 L
1072  877 mt 1144  877 L
1108  841 mt 1108  913 L
5125  614 mt 5197  614 L
5161  578 mt 5161  650 L
6129  503 mt 6201  503 L
6165  467 mt 6165  539 L
1323 1088 mt 1395 1088 L
1359 1052 mt 1359 1124 L
 977 4570 mt 1049 4570 L
1013 4534 mt 1013 4606 L
5083 4172 mt 5155 4172 L
5119 4136 mt 5119 4208 L
1121  691 mt 1193  691 L
1157  655 mt 1157  727 L
1455 1632 mt 1527 1632 L
1491 1596 mt 1491 1668 L
3490  780 mt 3562  780 L
3526  744 mt 3526  816 L
1057 3183 mt 1129 3183 L
1093 3147 mt 1093 3219 L
5407 2220 mt 5479 2220 L
5443 2184 mt 5443 2256 L
5897  730 mt 5969  730 L
5933  694 mt 5933  766 L
1024 1920 mt 1096 1920 L
1060 1884 mt 1060 1956 L
1243 4190 mt 1315 4190 L
1279 4154 mt 1279 4226 L
5775 1164 mt 5847 1164 L
5811 1128 mt 5811 1200 L
2326 4539 mt 2398 4539 L
2362 4503 mt 2362 4575 L
1393 3276 mt 1465 3276 L
1429 3240 mt 1429 3312 L
5247 1369 mt 5319 1369 L
5283 1333 mt 5283 1405 L
4238  588 mt 4310  588 L
4274  552 mt 4274  624 L
3966 3899 mt 4038 3899 L
4002 3863 mt 4002 3935 L
 863 3443 mt  935 3443 L
 899 3407 mt  899 3479 L
4219 2155 mt 4291 2155 L
4255 2119 mt 4255 2191 L
6181 1256 mt 6253 1256 L
6217 1220 mt 6217 1292 L
5332 4005 mt 5404 4005 L
5368 3969 mt 5368 4041 L
1251 4158 mt 1323 4158 L
1287 4122 mt 1287 4194 L
3903 3589 mt 3975 3589 L
3939 3553 mt 3939 3625 L
6023  450 mt 6095  450 L
6059  414 mt 6059  486 L
 986 4255 mt 1058 4255 L
1022 4219 mt 1022 4291 L
 872 2807 mt  944 2807 L
 908 2771 mt  908 2843 L
5031 1111 mt 5103 1111 L
5067 1075 mt 5067 1147 L
5352 4523 mt 5424 4523 L
5388 4487 mt 5388 4559 L
5602  622 mt 5674  622 L
5638  586 mt 5638  658 L
5220  789 mt 5292  789 L
5256  753 mt 5256  825 L
5726  830 mt 5798  830 L
5762  794 mt 5762  866 L
4768 2538 mt 4840 2538 L
4804 2502 mt 4804 2574 L
 887 4164 mt  959 4164 L
 923 4128 mt  923 4200 L
2878 1961 mt 2950 1961 L
2914 1925 mt 2914 1997 L
1388 4594 mt 1460 4594 L
1424 4558 mt 1424 4630 L
6125  677 mt 6197  677 L
6161  641 mt 6161  713 L
1261 2089 mt 1333 2089 L
1297 2053 mt 1297 2125 L
5373 4615 mt 5445 4615 L
5409 4579 mt 5409 4651 L
6059 3586 mt 6131 3586 L
6095 3550 mt 6095 3622 L
5418 1336 mt 5490 1336 L
5454 1300 mt 5454 1372 L
2816 2881 mt 2888 2881 L
2852 2845 mt 2852 2917 L
2118 1585 mt 2190 1585 L
2154 1549 mt 2154 1621 L
5333 3455 mt 5405 3455 L
5369 3419 mt 5369 3491 L
5972  502 mt 6044  502 L
6008  466 mt 6008  538 L
4571 1588 mt 4643 1588 L
4607 1552 mt 4607 1624 L
2438 4605 mt 2510 4605 L
2474 4569 mt 2474 4641 L
3565 1994 mt 3637 1994 L
3601 1958 mt 3601 2030 L
3605 2090 mt 3677 2090 L
3641 2054 mt 3641 2126 L
5475 2971 mt 5547 2971 L
5511 2935 mt 5511 3007 L
5516 3309 mt 5588 3309 L
5552 3273 mt 5552 3345 L
 895 4615 mt  967 4615 L
 931 4579 mt  931 4651 L
1316 4612 mt 1388 4612 L
1352 4576 mt 1352 4648 L
5208 1946 mt 5280 1946 L
5244 1910 mt 5244 1982 L
4162 4346 mt 4234 4346 L
4198 4310 mt 4198 4382 L
 932 3043 mt 1004 3043 L
 968 3007 mt  968 3079 L
5385 2777 mt 5457 2777 L
5421 2741 mt 5421 2813 L
 865  973 mt  937  973 L
 901  937 mt  901 1009 L
6027  473 mt 6099  473 L
6063  437 mt 6063  509 L
2462 1272 mt 2534 1272 L
2498 1236 mt 2498 1308 L
2851 4608 mt 2923 4608 L
2887 4572 mt 2887 4644 L
3478 4191 mt 3550 4191 L
3514 4155 mt 3514 4227 L
6200 3273 mt 6272 3273 L
6236 3237 mt 6236 3309 L
6070 4472 mt 6142 4472 L
6106 4436 mt 6106 4508 L
2236 3635 mt 2308 3635 L
2272 3599 mt 2272 3671 L
5473 1569 mt 5545 1569 L
5509 1533 mt 5509 1605 L
2199  502 mt 2271  502 L
2235  466 mt 2235  538 L
3638 2366 mt 3710 2366 L
3674 2330 mt 3674 2402 L
5148 1188 mt 5220 1188 L
5184 1152 mt 5184 1224 L
5009 3525 mt 5081 3525 L
5045 3489 mt 5045 3561 L
5743 4568 mt 5815 4568 L
5779 4532 mt 5779 4604 L
1057 1478 mt 1129 1478 L
1093 1442 mt 1093 1514 L
3553 2785 mt 3625 2785 L
3589 2749 mt 3589 2821 L
4927 4424 mt 4999 4424 L
4963 4388 mt 4963 4460 L
1667 1355 mt 1739 1355 L
1703 1319 mt 1703 1391 L
4696 1412 mt 4768 1412 L
4732 1376 mt 4732 1448 L
4959 3697 mt 5031 3697 L
4995 3661 mt 4995 3733 L
2290 4378 mt 2362 4378 L
2326 4342 mt 2326 4414 L
1084 2051 mt 1156 2051 L
1120 2015 mt 1120 2087 L
1748  753 mt 1820  753 L
1784  717 mt 1784  789 L
6075 1290 mt 6147 1290 L
6111 1254 mt 6111 1326 L
3794 4493 mt 3866 4493 L
3830 4457 mt 3830 4529 L
 873 4615 mt  945 4615 L
 909 4579 mt  909 4651 L
6171 1540 mt 6243 1540 L
6207 1504 mt 6207 1576 L
1081 4252 mt 1153 4252 L
1117 4216 mt 1117 4288 L
6221 3892 mt 6293 3892 L
6257 3856 mt 6257 3928 L
4277 1721 mt 4349 1721 L
4313 1685 mt 4313 1757 L
6199  779 mt 6271  779 L
6235  743 mt 6235  815 L
4394 1692 mt 4466 1692 L
4430 1656 mt 4430 1728 L
5101 3269 mt 5173 3269 L
5137 3233 mt 5137 3305 L
1772 4522 mt 1844 4522 L
1808 4486 mt 1808 4558 L
6207  544 mt 6279  544 L
6243  508 mt 6243  580 L
6146  427 mt 6218  427 L
6182  391 mt 6182  463 L
2980 1953 mt 3052 1953 L
3016 1917 mt 3016 1989 L
2661 1666 mt 2733 1666 L
2697 1630 mt 2697 1702 L
5221 4411 mt 5293 4411 L
5257 4375 mt 5257 4447 L
4362 2734 mt 4434 2734 L
4398 2698 mt 4398 2770 L
1791 2070 mt 1863 2070 L
1827 2034 mt 1827 2106 L
4227  471 mt 4299  471 L
4263  435 mt 4263  507 L
5978  477 mt 6050  477 L
6014  441 mt 6014  513 L
1237  603 mt 1309  603 L
1273  567 mt 1273  639 L
6173 1180 mt 6245 1180 L
6209 1144 mt 6209 1216 L
5980  855 mt 6052  855 L
6016  819 mt 6016  891 L
4600 2230 mt 4672 2230 L
4636 2194 mt 4636 2266 L
1682  727 mt 1754  727 L
1718  691 mt 1718  763 L
5990  422 mt 6062  422 L
6026  386 mt 6026  458 L
5906 1165 mt 5978 1165 L
5942 1129 mt 5942 1201 L
5086  443 mt 5158  443 L
5122  407 mt 5122  479 L
 898 3936 mt  970 3936 L
 934 3900 mt  934 3972 L
1305 4485 mt 1377 4485 L
1341 4449 mt 1341 4521 L
5461  552 mt 5533  552 L
5497  516 mt 5497  588 L
5148 4615 mt 5220 4615 L
5184 4579 mt 5184 4651 L
3822  472 mt 3894  472 L
3858  436 mt 3858  508 L
5446  877 mt 5518  877 L
5482  841 mt 5482  913 L
6221 3267 mt 6293 3267 L
6257 3231 mt 6257 3303 L
1755 1169 mt 1827 1169 L
1791 1133 mt 1791 1205 L
1200 1840 mt 1272 1840 L
1236 1804 mt 1236 1876 L
5063  428 mt 5135  428 L
5099  392 mt 5099  464 L
5329 1068 mt 5401 1068 L
5365 1032 mt 5365 1104 L
6210 4615 mt 6282 4615 L
6246 4579 mt 6246 4651 L
 968 3374 mt 1040 3374 L
1004 3338 mt 1004 3410 L
5325  676 mt 5397  676 L
5361  640 mt 5361  712 L
 871  459 mt  943  459 L
 907  423 mt  907  495 L
6217  468 mt 6289  468 L
6253  432 mt 6253  504 L
5386 1058 mt 5458 1058 L
5422 1022 mt 5422 1094 L
 884 4406 mt  956 4406 L
 920 4370 mt  920 4442 L
4682 3079 mt 4754 3079 L
4718 3043 mt 4718 3115 L
4505  907 mt 4577  907 L
4541  871 mt 4541  943 L
6135 3921 mt 6207 3921 L
6171 3885 mt 6171 3957 L
5782 4549 mt 5854 4549 L
5818 4513 mt 5818 4585 L
2305  437 mt 2377  437 L
2341  401 mt 2341  473 L
1049  440 mt 1121  440 L
1085  404 mt 1085  476 L
6132 4567 mt 6204 4567 L
6168 4531 mt 6168 4603 L
4214 1948 mt 4286 1948 L
4250 1912 mt 4250 1984 L
4548  421 mt 4620  421 L
4584  385 mt 4584  457 L
4735  417 mt 4807  417 L
4771  381 mt 4771  453 L
1140 2724 mt 1212 2724 L
1176 2688 mt 1176 2760 L
1699 2114 mt 1771 2114 L
1735 2078 mt 1735 2150 L
3626 3818 mt 3698 3818 L
3662 3782 mt 3662 3854 L
5961 2366 mt 6033 2366 L
5997 2330 mt 5997 2402 L
6146  509 mt 6218  509 L
6182  473 mt 6182  545 L
6222  550 mt 6294  550 L
6258  514 mt 6258  586 L
6079  432 mt 6151  432 L
6115  396 mt 6115  468 L
5612  513 mt 5684  513 L
5648  477 mt 5648  549 L
5465  606 mt 5537  606 L
5501  570 mt 5501  642 L
5213 1865 mt 5285 1865 L
5249 1829 mt 5249 1901 L
3759 2971 mt 3831 2971 L
3795 2935 mt 3795 3007 L
6109 4526 mt 6181 4526 L
6145 4490 mt 6145 4562 L
 881 4420 mt  953 4420 L
 917 4384 mt  917 4456 L
5811 1468 mt 5883 1468 L
5847 1432 mt 5847 1504 L
4491 3565 mt 4563 3565 L
4527 3529 mt 4527 3601 L
1476 2682 mt 1548 2682 L
1512 2646 mt 1512 2718 L
6152  550 mt 6224  550 L
6188  514 mt 6188  586 L
1556 4132 mt 1628 4132 L
1592 4096 mt 1592 4168 L
5576 3994 mt 5648 3994 L
5612 3958 mt 5612 4030 L
6015  579 mt 6087  579 L
6051  543 mt 6051  615 L
5213  509 mt 5285  509 L
5249  473 mt 5249  545 L
3560  417 mt 3632  417 L
3596  381 mt 3596  453 L
6017 1581 mt 6089 1581 L
6053 1545 mt 6053 1617 L
 913 2024 mt  985 2024 L
 949 1988 mt  949 2060 L
5960  985 mt 6032  985 L
5996  949 mt 5996 1021 L
6213 4580 mt 6285 4580 L
6249 4544 mt 6249 4616 L
2485 4615 mt 2557 4615 L
2521 4579 mt 2521 4651 L
2410  547 mt 2482  547 L
2446  511 mt 2446  583 L
3935  746 mt 4007  746 L
3971  710 mt 3971  782 L
1864 1871 mt 1936 1871 L
1900 1835 mt 1900 1907 L
4905 2805 mt 4977 2805 L
4941 2769 mt 4941 2841 L
 917 4556 mt  989 4556 L
 953 4520 mt  953 4592 L
4355  602 mt 4427  602 L
4391  566 mt 4391  638 L
5898  469 mt 5970  469 L
5934  433 mt 5934  505 L
3980 1179 mt 4052 1179 L
4016 1143 mt 4016 1215 L
6220  779 mt 6292  779 L
6256  743 mt 6256  815 L
1624 2015 mt 1696 2015 L
1660 1979 mt 1660 2051 L
4208  926 mt 4280  926 L
4244  890 mt 4244  962 L
1327  615 mt 1399  615 L
1363  579 mt 1363  651 L
5938  620 mt 6010  620 L
5974  584 mt 5974  656 L
1924 2452 mt 1996 2452 L
1960 2416 mt 1960 2488 L
4685  459 mt 4757  459 L
4721  423 mt 4721  495 L
5410  978 mt 5482  978 L
5446  942 mt 5446 1014 L
5530  492 mt 5602  492 L
5566  456 mt 5566  528 L
 884 4212 mt  956 4212 L
 920 4176 mt  920 4248 L
6117 4608 mt 6189 4608 L
6153 4572 mt 6153 4644 L
5863  714 mt 5935  714 L
5899  678 mt 5899  750 L
6030 2533 mt 6102 2533 L
6066 2497 mt 6066 2569 L
2125 1404 mt 2197 1404 L
2161 1368 mt 2161 1440 L
3024  871 mt 3096  871 L
3060  835 mt 3060  907 L
4928 1456 mt 5000 1456 L
4964 1420 mt 4964 1492 L
4475 4313 mt 4547 4313 L
4511 4277 mt 4511 4349 L
 863  725 mt  935  725 L
 899  689 mt  899  761 L
4557  556 mt 4629  556 L
4593  520 mt 4593  592 L
5888 1296 mt 5960 1296 L
5924 1260 mt 5924 1332 L
1855  769 mt 1927  769 L
1891  733 mt 1891  805 L
5543 4578 mt 5615 4578 L
5579 4542 mt 5579 4614 L
2332 2065 mt 2404 2065 L
2368 2029 mt 2368 2101 L
gs 899 414 5363 4203 rc
gr

2977 1652 mt 3049 1652 L
3013 1616 mt 3013 1688 L
2232 2982 mt 2304 2982 L
2268 2946 mt 2268 3018 L
1016  475 mt 1088  475 L
1052  439 mt 1052  511 L
1497 2381 mt 1569 2381 L
1533 2345 mt 1533 2417 L
5803  417 mt 5875  417 L
5839  381 mt 5839  453 L
6042 2592 mt 6114 2592 L
6078 2556 mt 6078 2628 L
4855  420 mt 4927  420 L
4891  384 mt 4891  456 L
1485 1294 mt 1557 1294 L
1521 1258 mt 1521 1330 L
6029 4615 mt 6101 4615 L
6065 4579 mt 6065 4651 L
6198  416 mt 6270  416 L
6234  380 mt 6234  452 L
 869  459 mt  941  459 L
 905  423 mt  905  495 L
5590  490 mt 5662  490 L
5626  454 mt 5626  526 L
 869 3891 mt  941 3891 L
 905 3855 mt  905 3927 L
2645  844 mt 2717  844 L
2681  808 mt 2681  880 L
6198 4610 mt 6270 4610 L
6234 4574 mt 6234 4646 L
3315 1321 mt 3387 1321 L
3351 1285 mt 3351 1357 L
3426  749 mt 3498  749 L
3462  713 mt 3462  785 L
2770 3069 mt 2842 3069 L
2806 3033 mt 2806 3105 L
 865  668 mt  937  668 L
 901  632 mt  901  704 L
1194 2819 mt 1266 2819 L
1230 2783 mt 1230 2855 L
6221  415 mt 6293  415 L
6257  379 mt 6257  451 L
1616  575 mt 1688  575 L
1652  539 mt 1652  611 L
5162 4051 mt 5234 4051 L
5198 4015 mt 5198 4087 L
5168  870 mt 5240  870 L
5204  834 mt 5204  906 L
2035  432 mt 2107  432 L
2071  396 mt 2071  468 L
1361 3413 mt 1433 3413 L
1397 3377 mt 1397 3449 L
4164 3859 mt 4236 3859 L
4200 3823 mt 4200 3895 L
6214  464 mt 6286  464 L
6250  428 mt 6250  500 L
4152  443 mt 4224  443 L
4188  407 mt 4188  479 L
5573  605 mt 5645  605 L
5609  569 mt 5609  641 L
6162 4195 mt 6234 4195 L
6198 4159 mt 6198 4231 L
4042 4065 mt 4114 4065 L
4078 4029 mt 4078 4101 L
4887 3806 mt 4959 3806 L
4923 3770 mt 4923 3842 L
2742 4544 mt 2814 4544 L
2778 4508 mt 2778 4580 L
 864  538 mt  936  538 L
 900  502 mt  900  574 L
2034 3125 mt 2106 3125 L
2070 3089 mt 2070 3161 L
6201  448 mt 6273  448 L
6237  412 mt 6237  484 L
1472 4261 mt 1544 4261 L
1508 4225 mt 1508 4297 L
4912 1478 mt 4984 1478 L
4948 1442 mt 4948 1514 L
1038 1338 mt 1110 1338 L
1074 1302 mt 1074 1374 L
2437 4066 mt 2509 4066 L
2473 4030 mt 2473 4102 L
6055  784 mt 6127  784 L
6091  748 mt 6091  820 L
4871  763 mt 4943  763 L
4907  727 mt 4907  799 L
5045  445 mt 5117  445 L
5081  409 mt 5081  481 L
6050 4594 mt 6122 4594 L
6086 4558 mt 6086 4630 L
6118  427 mt 6190  427 L
6154  391 mt 6154  463 L
5597  477 mt 5669  477 L
5633  441 mt 5633  513 L
 883 4614 mt  955 4614 L
 919 4578 mt  919 4650 L
6196  709 mt 6268  709 L
6232  673 mt 6232  745 L
5486 4493 mt 5558 4493 L
5522 4457 mt 5522 4529 L
 869 4115 mt  941 4115 L
 905 4079 mt  905 4151 L
4516 3845 mt 4588 3845 L
4552 3809 mt 4552 3881 L
1694 4118 mt 1766 4118 L
1730 4082 mt 1730 4154 L
 883 4615 mt  955 4615 L
 919 4579 mt  919 4651 L
5721 4169 mt 5793 4169 L
5757 4133 mt 5757 4205 L
4643 1941 mt 4715 1941 L
4679 1905 mt 4679 1977 L
1628 3535 mt 1700 3535 L
1664 3499 mt 1664 3571 L
6225  432 mt 6297  432 L
6261  396 mt 6261  468 L
1671 2831 mt 1743 2831 L
1707 2795 mt 1707 2867 L
6224  762 mt 6296  762 L
6260  726 mt 6260  798 L
1599  433 mt 1671  433 L
1635  397 mt 1635  469 L
4262  655 mt 4334  655 L
4298  619 mt 4298  691 L
1850 3422 mt 1922 3422 L
1886 3386 mt 1886 3458 L
3578 2994 mt 3650 2994 L
3614 2958 mt 3614 3030 L
5137 1445 mt 5209 1445 L
5173 1409 mt 5173 1481 L
5806 2312 mt 5878 2312 L
5842 2276 mt 5842 2348 L
5163  930 mt 5235  930 L
5199  894 mt 5199  966 L
6183 1699 mt 6255 1699 L
6219 1663 mt 6219 1735 L
4393 4601 mt 4465 4601 L
4429 4565 mt 4429 4637 L
4562 1608 mt 4634 1608 L
4598 1572 mt 4598 1644 L
6148 3372 mt 6220 3372 L
6184 3336 mt 6184 3408 L
 870 4616 mt  942 4616 L
 906 4580 mt  906 4652 L
3773  460 mt 3845  460 L
3809  424 mt 3809  496 L
6068  430 mt 6140  430 L
6104  394 mt 6104  466 L
6125  568 mt 6197  568 L
6161  532 mt 6161  604 L
6149  517 mt 6221  517 L
6185  481 mt 6185  553 L
4003 1460 mt 4075 1460 L
4039 1424 mt 4039 1496 L
1843  883 mt 1915  883 L
1879  847 mt 1879  919 L
3354 3424 mt 3426 3424 L
3390 3388 mt 3390 3460 L
1923 4547 mt 1995 4547 L
1959 4511 mt 1959 4583 L
2835 2059 mt 2907 2059 L
2871 2023 mt 2871 2095 L
6122 1005 mt 6194 1005 L
6158  969 mt 6158 1041 L
3146 2935 mt 3218 2935 L
3182 2899 mt 3182 2971 L
2230 2963 mt 2302 2963 L
2266 2927 mt 2266 2999 L
3074  436 mt 3146  436 L
3110  400 mt 3110  472 L
3359 4573 mt 3431 4573 L
3395 4537 mt 3395 4609 L
6207  489 mt 6279  489 L
6243  453 mt 6243  525 L
4188  564 mt 4260  564 L
4224  528 mt 4224  600 L
 925 2580 mt  997 2580 L
 961 2544 mt  961 2616 L
6153  730 mt 6225  730 L
6189  694 mt 6189  766 L
5352 2573 mt 5424 2573 L
5388 2537 mt 5388 2609 L
1416 4532 mt 1488 4532 L
1452 4496 mt 1452 4568 L
5350 3846 mt 5422 3846 L
5386 3810 mt 5386 3882 L
3373 1036 mt 3445 1036 L
3409 1000 mt 3409 1072 L
1378 1501 mt 1450 1501 L
1414 1465 mt 1414 1537 L
 896 2510 mt  968 2510 L
 932 2474 mt  932 2546 L
3223 1219 mt 3295 1219 L
3259 1183 mt 3259 1255 L
6167  414 mt 6239  414 L
6203  378 mt 6203  450 L
6205 1031 mt 6277 1031 L
6241  995 mt 6241 1067 L
 991 3677 mt 1063 3677 L
1027 3641 mt 1027 3713 L
4299 3106 mt 4371 3106 L
4335 3070 mt 4335 3142 L
2984  985 mt 3056  985 L
3020  949 mt 3020 1021 L
2150  736 mt 2222  736 L
2186  700 mt 2186  772 L
6220  519 mt 6292  519 L
6256  483 mt 6256  555 L
gs 899 414 5363 4203 rc
gr

0 sg
2775 5104 mt 
(\(F,DCTb,GMM\)) s
 422 3300 mt  -90 rotate
(\(F,DCTb,iMLP\)) s
90 rotate
2975  223 mt 
(Corr = 0.29) s

end %%Color Dict

eplot
%%EndObject

epage
end

showpage

%%Trailer
%%EOF
