%!PS-Adobe-3.0 EPSF-3.0
%%Creator: MATLAB, The Mathworks, Inc. Version 7.7.0.471 (R2008b). Operating System: Microsoft Windows XP.
%%Title: Pictures\main_zoo_mvar_analysis_data_BMI_xcorr_bmi_p1_k2_6_8.eps
%%CreationDate: 10/26/2009  05:44:33
%%DocumentNeededFonts: Helvetica
%%DocumentProcessColors: Cyan Magenta Yellow Black
%%LanguageLevel: 2
%%Pages: 1
%%BoundingBox:    32   180   546   616
%%EndComments

%%BeginProlog
% MathWorks dictionary
/MathWorks 160 dict begin
% definition operators
/bdef {bind def} bind def
/ldef {load def} bind def
/xdef {exch def} bdef
/xstore {exch store} bdef
% operator abbreviations
/c  /clip ldef
/cc /concat ldef
/cp /closepath ldef
/gr /grestore ldef
/gs /gsave ldef
/mt /moveto ldef
/np /newpath ldef
/cm /currentmatrix ldef
/sm /setmatrix ldef
/rm /rmoveto ldef
/rl /rlineto ldef
/s {show newpath} bdef
/sc {setcmykcolor} bdef
/sr /setrgbcolor ldef
/sg /setgray ldef
/w /setlinewidth ldef
/j /setlinejoin ldef
/cap /setlinecap ldef
/rc {rectclip} bdef
/rf {rectfill} bdef
% page state control
/pgsv () def
/bpage {/pgsv save def} bdef
/epage {pgsv restore} bdef
/bplot /gsave ldef
/eplot {stroke grestore} bdef
% orientation switch
/portraitMode 0 def /landscapeMode 1 def /rotateMode 2 def
% coordinate system mappings
/dpi2point 0 def
% font control
/FontSize 0 def
/FMS {/FontSize xstore findfont [FontSize 0 0 FontSize neg 0 0]
  makefont setfont} bdef
/ISOLatin1Encoding where {pop /WindowsLatin1Encoding 256 array bdef
ISOLatin1Encoding WindowsLatin1Encoding copy pop
/.notdef/.notdef/quotesinglbase/florin/quotedblbase/ellipsis/dagger
/daggerdbl/circumflex/perthousand/Scaron/guilsinglleft/OE/.notdef/.notdef
/.notdef/.notdef/quoteleft/quoteright/quotedblleft/quotedblright/bullet
/endash/emdash/tilde/trademark/scaron/guilsinglright/oe/.notdef/.notdef
/Ydieresis WindowsLatin1Encoding 128 32 getinterval astore pop}
{/WindowsLatin1Encoding StandardEncoding bdef} ifelse
/reencode {exch dup where {pop load} {pop StandardEncoding} ifelse
  exch dup 3 1 roll findfont dup length dict begin
  { 1 index /FID ne {def}{pop pop} ifelse } forall
  /Encoding exch def currentdict end definefont pop} bdef
/isroman {findfont /CharStrings get /Agrave known} bdef
/FMSR {3 1 roll 1 index dup isroman {reencode} {pop pop} ifelse
  exch FMS} bdef
/csm {1 dpi2point div -1 dpi2point div scale neg translate
 dup landscapeMode eq {pop -90 rotate}
  {rotateMode eq {90 rotate} if} ifelse} bdef
% line types: solid, dotted, dashed, dotdash
/SO { [] 0 setdash } bdef
/DO { [.5 dpi2point mul 4 dpi2point mul] 0 setdash } bdef
/DA { [6 dpi2point mul] 0 setdash } bdef
/DD { [.5 dpi2point mul 4 dpi2point mul 6 dpi2point mul 4
  dpi2point mul] 0 setdash } bdef
% macros for lines and objects
/L {lineto stroke} bdef
/MP {3 1 roll moveto 1 sub {rlineto} repeat} bdef
/AP {{rlineto} repeat} bdef
/PDlw -1 def
/W {/PDlw currentlinewidth def setlinewidth} def
/PP {closepath eofill} bdef
/DP {closepath stroke} bdef
/MR {4 -2 roll moveto dup  0 exch rlineto exch 0 rlineto
  neg 0 exch rlineto closepath} bdef
/FR {MR stroke} bdef
/PR {MR fill} bdef
/L1i {{currentfile picstr readhexstring pop} image} bdef
/tMatrix matrix def
/MakeOval {newpath tMatrix currentmatrix pop translate scale
0 0 1 0 360 arc tMatrix setmatrix} bdef
/FO {MakeOval stroke} bdef
/PO {MakeOval fill} bdef
/PD {currentlinewidth 2 div 0 360 arc fill
   PDlw -1 eq not {PDlw w /PDlw -1 def} if} def
/FA {newpath tMatrix currentmatrix pop translate scale
  0 0 1 5 -2 roll arc tMatrix setmatrix stroke} bdef
/PA {newpath tMatrix currentmatrix pop	translate 0 0 moveto scale
  0 0 1 5 -2 roll arc closepath tMatrix setmatrix fill} bdef
/FAn {newpath tMatrix currentmatrix pop translate scale
  0 0 1 5 -2 roll arcn tMatrix setmatrix stroke} bdef
/PAn {newpath tMatrix currentmatrix pop translate 0 0 moveto scale
  0 0 1 5 -2 roll arcn closepath tMatrix setmatrix fill} bdef
/vradius 0 def /hradius 0 def /lry 0 def
/lrx 0 def /uly 0 def /ulx 0 def /rad 0 def
/MRR {/vradius xdef /hradius xdef /lry xdef /lrx xdef /uly xdef
  /ulx xdef newpath tMatrix currentmatrix pop ulx hradius add uly
  vradius add translate hradius vradius scale 0 0 1 180 270 arc 
  tMatrix setmatrix lrx hradius sub uly vradius add translate
  hradius vradius scale 0 0 1 270 360 arc tMatrix setmatrix
  lrx hradius sub lry vradius sub translate hradius vradius scale
  0 0 1 0 90 arc tMatrix setmatrix ulx hradius add lry vradius sub
  translate hradius vradius scale 0 0 1 90 180 arc tMatrix setmatrix
  closepath} bdef
/FRR {MRR stroke } bdef
/PRR {MRR fill } bdef
/MlrRR {/lry xdef /lrx xdef /uly xdef /ulx xdef /rad lry uly sub 2 div def
  newpath tMatrix currentmatrix pop ulx rad add uly rad add translate
  rad rad scale 0 0 1 90 270 arc tMatrix setmatrix lrx rad sub lry rad
  sub translate rad rad scale 0 0 1 270 90 arc tMatrix setmatrix
  closepath} bdef
/FlrRR {MlrRR stroke } bdef
/PlrRR {MlrRR fill } bdef
/MtbRR {/lry xdef /lrx xdef /uly xdef /ulx xdef /rad lrx ulx sub 2 div def
  newpath tMatrix currentmatrix pop ulx rad add uly rad add translate
  rad rad scale 0 0 1 180 360 arc tMatrix setmatrix lrx rad sub lry rad
  sub translate rad rad scale 0 0 1 0 180 arc tMatrix setmatrix
  closepath} bdef
/FtbRR {MtbRR stroke } bdef
/PtbRR {MtbRR fill } bdef
/stri 6 array def /dtri 6 array def
/smat 6 array def /dmat 6 array def
/tmat1 6 array def /tmat2 6 array def /dif 3 array def
/asub {/ind2 exch def /ind1 exch def dup dup
  ind1 get exch ind2 get sub exch } bdef
/tri_to_matrix {
  2 0 asub 3 1 asub 4 0 asub 5 1 asub
  dup 0 get exch 1 get 7 -1 roll astore } bdef
/compute_transform {
  dmat dtri tri_to_matrix tmat1 invertmatrix 
  smat stri tri_to_matrix tmat2 concatmatrix } bdef
/ds {stri astore pop} bdef
/dt {dtri astore pop} bdef
/db {2 copy /cols xdef /rows xdef mul dup 3 mul string
  currentfile 
  3 index 0 eq {/ASCIIHexDecode filter}
  {/ASCII85Decode filter 3 index 2 eq {/RunLengthDecode filter} if }
  ifelse exch readstring pop
  dup 0 3 index getinterval /rbmap xdef
  dup 2 index dup getinterval /gbmap xdef
  1 index dup 2 mul exch getinterval /bbmap xdef pop pop}bdef
/it {gs np dtri aload pop moveto lineto lineto cp c
  cols rows 8 compute_transform 
  rbmap gbmap bbmap true 3 colorimage gr}bdef
/il {newpath moveto lineto stroke}bdef
currentdict end def
%%EndProlog

%%BeginSetup
MathWorks begin

0 cap

end
%%EndSetup

%%Page: 1 1
%%BeginPageSetup
%%PageBoundingBox:    32   180   546   616
MathWorks begin
bpage
%%EndPageSetup

%%BeginObject: obj1
bplot

/dpi2point 12 def
portraitMode 0216 7344 csm

  174   -48  6173  5231 rc
85 dict begin %Colortable dictionary
/c0 { 0.000000 0.000000 0.000000 sr} bdef
/c1 { 1.000000 1.000000 1.000000 sr} bdef
/c2 { 0.900000 0.000000 0.000000 sr} bdef
/c3 { 0.000000 0.820000 0.000000 sr} bdef
/c4 { 0.000000 0.000000 0.800000 sr} bdef
/c5 { 0.910000 0.820000 0.320000 sr} bdef
/c6 { 1.000000 0.260000 0.820000 sr} bdef
/c7 { 0.000000 0.820000 0.820000 sr} bdef
c0
1 j
1 sg
   0    0 6919 5187 rf
6 w
0 4202 5362 0 0 -4202 899 4616 4 MP
PP
-5362 0 0 4202 5362 0 0 -4202 899 4616 5 MP stroke
4 w
DO
SO
6 w
0 sg
 899  414 mt 6261  414 L
 899 4616 mt 6261 4616 L
6261 4616 mt 6261  414 L
 899 4616 mt  899  414 L
 899 4616 mt 6261 4616 L
 899 4616 mt  899  414 L
1971 4616 mt 1971 4562 L
1971  414 mt 1971  467 L
%%IncludeResource: font Helvetica
/Helvetica /WindowsLatin1Encoding 240 FMSR

1805 4873 mt 
(0.2) s
3043 4616 mt 3043 4562 L
3043  414 mt 3043  467 L
2877 4873 mt 
(0.4) s
4116 4616 mt 4116 4562 L
4116  414 mt 4116  467 L
3950 4873 mt 
(0.6) s
5188 4616 mt 5188 4562 L
5188  414 mt 5188  467 L
5022 4873 mt 
(0.8) s
 899 4196 mt  952 4196 L
6261 4196 mt 6207 4196 L
 531 4285 mt 
(0.1) s
 899 3775 mt  952 3775 L
6261 3775 mt 6207 3775 L
 531 3864 mt 
(0.2) s
 899 3355 mt  952 3355 L
6261 3355 mt 6207 3355 L
 531 3444 mt 
(0.3) s
 899 2935 mt  952 2935 L
6261 2935 mt 6207 2935 L
 531 3024 mt 
(0.4) s
 899 2515 mt  952 2515 L
6261 2515 mt 6207 2515 L
 531 2604 mt 
(0.5) s
 899 2094 mt  952 2094 L
6261 2094 mt 6207 2094 L
 531 2183 mt 
(0.6) s
 899 1674 mt  952 1674 L
6261 1674 mt 6207 1674 L
 531 1763 mt 
(0.7) s
 899 1254 mt  952 1254 L
6261 1254 mt 6207 1254 L
 531 1343 mt 
(0.8) s
 899  834 mt  952  834 L
6261  834 mt 6207  834 L
 531  923 mt 
(0.9) s
 899  414 mt 6261  414 L
 899 4616 mt 6261 4616 L
6261 4616 mt 6261  414 L
 899 4616 mt  899  414 L
gs 899 414 5363 4203 rc
gr

/c8 { 0.000000 0.000000 1.000000 sr} bdef
c8
3659  429 mt 3731  429 L
3695  393 mt 3695  465 L
3255  739 mt 3327  739 L
3291  703 mt 3291  775 L
5163  733 mt 5235  733 L
5199  697 mt 5199  769 L
3233 2347 mt 3305 2347 L
3269 2311 mt 3269 2383 L
5442  482 mt 5514  482 L
5478  446 mt 5478  518 L
5508  491 mt 5580  491 L
5544  455 mt 5544  527 L
1647 4196 mt 1719 4196 L
1683 4160 mt 1683 4232 L
1701 1144 mt 1773 1144 L
1737 1108 mt 1737 1180 L
1010 1143 mt 1082 1143 L
1046 1107 mt 1046 1179 L
6183  441 mt 6255  441 L
6219  405 mt 6219  477 L
1160 1779 mt 1232 1779 L
1196 1743 mt 1196 1815 L
4050 1087 mt 4122 1087 L
4086 1051 mt 4086 1123 L
5939 2545 mt 6011 2545 L
5975 2509 mt 5975 2581 L
3883  491 mt 3955  491 L
3919  455 mt 3919  527 L
6153 3384 mt 6225 3384 L
6189 3348 mt 6189 3420 L
 920 2936 mt  992 2936 L
 956 2900 mt  956 2972 L
1706  625 mt 1778  625 L
1742  589 mt 1742  661 L
3547 4613 mt 3619 4613 L
3583 4577 mt 3583 4649 L
1937 1745 mt 2009 1745 L
1973 1709 mt 1973 1781 L
4373 1570 mt 4445 1570 L
4409 1534 mt 4409 1606 L
3264 1291 mt 3336 1291 L
3300 1255 mt 3300 1327 L
5622 1351 mt 5694 1351 L
5658 1315 mt 5658 1387 L
2145  785 mt 2217  785 L
2181  749 mt 2181  821 L
4046 2731 mt 4118 2731 L
4082 2695 mt 4082 2767 L
6195 4226 mt 6267 4226 L
6231 4190 mt 6231 4262 L
6152 1410 mt 6224 1410 L
6188 1374 mt 6188 1446 L
2928 1610 mt 3000 1610 L
2964 1574 mt 2964 1646 L
6010 1792 mt 6082 1792 L
6046 1756 mt 6046 1828 L
 913  563 mt  985  563 L
 949  527 mt  949  599 L
 945  958 mt 1017  958 L
 981  922 mt  981  994 L
5665 1892 mt 5737 1892 L
5701 1856 mt 5701 1928 L
1886  803 mt 1958  803 L
1922  767 mt 1922  839 L
 979 1537 mt 1051 1537 L
1015 1501 mt 1015 1573 L
4726 4163 mt 4798 4163 L
4762 4127 mt 4762 4199 L
4999  738 mt 5071  738 L
5035  702 mt 5035  774 L
2808  494 mt 2880  494 L
2844  458 mt 2844  530 L
1054  724 mt 1126  724 L
1090  688 mt 1090  760 L
5087 4556 mt 5159 4556 L
5123 4520 mt 5123 4592 L
5000 1037 mt 5072 1037 L
5036 1001 mt 5036 1073 L
1641  776 mt 1713  776 L
1677  740 mt 1677  812 L
5412 1035 mt 5484 1035 L
5448  999 mt 5448 1071 L
5991  538 mt 6063  538 L
6027  502 mt 6027  574 L
5613 1244 mt 5685 1244 L
5649 1208 mt 5649 1280 L
5143 1453 mt 5215 1453 L
5179 1417 mt 5179 1489 L
2822 4295 mt 2894 4295 L
2858 4259 mt 2858 4331 L
4514 4404 mt 4586 4404 L
4550 4368 mt 4550 4440 L
2438 1618 mt 2510 1618 L
2474 1582 mt 2474 1654 L
4790 1782 mt 4862 1782 L
4826 1746 mt 4826 1818 L
3602 3036 mt 3674 3036 L
3638 3000 mt 3638 3072 L
6206 4489 mt 6278 4489 L
6242 4453 mt 6242 4525 L
 964 2519 mt 1036 2519 L
1000 2483 mt 1000 2555 L
1700  475 mt 1772  475 L
1736  439 mt 1736  511 L
5478 2761 mt 5550 2761 L
5514 2725 mt 5514 2797 L
1006  777 mt 1078  777 L
1042  741 mt 1042  813 L
4078 1672 mt 4150 1672 L
4114 1636 mt 4114 1708 L
2785 1778 mt 2857 1778 L
2821 1742 mt 2821 1814 L
2553 4135 mt 2625 4135 L
2589 4099 mt 2589 4171 L
6060  700 mt 6132  700 L
6096  664 mt 6096  736 L
 904 2195 mt  976 2195 L
 940 2159 mt  940 2231 L
5940 1677 mt 6012 1677 L
5976 1641 mt 5976 1713 L
3095 4032 mt 3167 4032 L
3131 3996 mt 3131 4068 L
1458 4348 mt 1530 4348 L
1494 4312 mt 1494 4384 L
4234  722 mt 4306  722 L
4270  686 mt 4270  758 L
2909 1793 mt 2981 1793 L
2945 1757 mt 2945 1829 L
1371  417 mt 1443  417 L
1407  381 mt 1407  453 L
5799 3606 mt 5871 3606 L
5835 3570 mt 5835 3642 L
1693 1864 mt 1765 1864 L
1729 1828 mt 1729 1900 L
3373 3180 mt 3445 3180 L
3409 3144 mt 3409 3216 L
3566  809 mt 3638  809 L
3602  773 mt 3602  845 L
2336  810 mt 2408  810 L
2372  774 mt 2372  846 L
3915  958 mt 3987  958 L
3951  922 mt 3951  994 L
6068  665 mt 6140  665 L
6104  629 mt 6104  701 L
3034 3444 mt 3106 3444 L
3070 3408 mt 3070 3480 L
3431  421 mt 3503  421 L
3467  385 mt 3467  457 L
 967  647 mt 1039  647 L
1003  611 mt 1003  683 L
2845 2699 mt 2917 2699 L
2881 2663 mt 2881 2735 L
2467 1019 mt 2539 1019 L
2503  983 mt 2503 1055 L
4447 1161 mt 4519 1161 L
4483 1125 mt 4483 1197 L
5495  590 mt 5567  590 L
5531  554 mt 5531  626 L
1165 1639 mt 1237 1639 L
1201 1603 mt 1201 1675 L
 970  451 mt 1042  451 L
1006  415 mt 1006  487 L
3609 1381 mt 3681 1381 L
3645 1345 mt 3645 1417 L
1937 2457 mt 2009 2457 L
1973 2421 mt 1973 2493 L
5360 1091 mt 5432 1091 L
5396 1055 mt 5396 1127 L
5072 3524 mt 5144 3524 L
5108 3488 mt 5108 3560 L
2191 3804 mt 2263 3804 L
2227 3768 mt 2227 3840 L
1914  482 mt 1986  482 L
1950  446 mt 1950  518 L
5397 4563 mt 5469 4563 L
5433 4527 mt 5433 4599 L
5695 1250 mt 5767 1250 L
5731 1214 mt 5731 1286 L
5533  415 mt 5605  415 L
5569  379 mt 5569  451 L
 869 2457 mt  941 2457 L
 905 2421 mt  905 2493 L
5431 3466 mt 5503 3466 L
5467 3430 mt 5467 3502 L
1006  657 mt 1078  657 L
1042  621 mt 1042  693 L
1763 2121 mt 1835 2121 L
1799 2085 mt 1799 2157 L
1419 3978 mt 1491 3978 L
1455 3942 mt 1455 4014 L
6139 4109 mt 6211 4109 L
6175 4073 mt 6175 4145 L
3423 2495 mt 3495 2495 L
3459 2459 mt 3459 2531 L
1314  502 mt 1386  502 L
1350  466 mt 1350  538 L
1103 4597 mt 1175 4597 L
1139 4561 mt 1139 4633 L
5633 2241 mt 5705 2241 L
5669 2205 mt 5669 2277 L
5969  748 mt 6041  748 L
6005  712 mt 6005  784 L
6110 1971 mt 6182 1971 L
6146 1935 mt 6146 2007 L
5364 3957 mt 5436 3957 L
5400 3921 mt 5400 3993 L
 921 3588 mt  993 3588 L
 957 3552 mt  957 3624 L
1429 4044 mt 1501 4044 L
1465 4008 mt 1465 4080 L
5871 1029 mt 5943 1029 L
5907  993 mt 5907 1065 L
4669 3080 mt 4741 3080 L
4705 3044 mt 4705 3116 L
5757 1977 mt 5829 1977 L
5793 1941 mt 5793 2013 L
2691 1572 mt 2763 1572 L
2727 1536 mt 2727 1608 L
3920 1024 mt 3992 1024 L
3956  988 mt 3956 1060 L
5821 1384 mt 5893 1384 L
5857 1348 mt 5857 1420 L
4302 2775 mt 4374 2775 L
4338 2739 mt 4338 2811 L
1406 3076 mt 1478 3076 L
1442 3040 mt 1442 3112 L
5267 4615 mt 5339 4615 L
5303 4579 mt 5303 4651 L
 960 2556 mt 1032 2556 L
 996 2520 mt  996 2592 L
2572 2035 mt 2644 2035 L
2608 1999 mt 2608 2071 L
5006  555 mt 5078  555 L
5042  519 mt 5042  591 L
6002 4517 mt 6074 4517 L
6038 4481 mt 6038 4553 L
1777 4059 mt 1849 4059 L
1813 4023 mt 1813 4095 L
2358 4609 mt 2430 4609 L
2394 4573 mt 2394 4645 L
4002 1439 mt 4074 1439 L
4038 1403 mt 4038 1475 L
5150  588 mt 5222  588 L
5186  552 mt 5186  624 L
1642 1424 mt 1714 1424 L
1678 1388 mt 1678 1460 L
1447 3935 mt 1519 3935 L
1483 3899 mt 1483 3971 L
2172  618 mt 2244  618 L
2208  582 mt 2208  654 L
6178  514 mt 6250  514 L
6214  478 mt 6214  550 L
1322 4582 mt 1394 4582 L
1358 4546 mt 1358 4618 L
3170 2482 mt 3242 2482 L
3206 2446 mt 3206 2518 L
5334  590 mt 5406  590 L
5370  554 mt 5370  626 L
 981 3790 mt 1053 3790 L
1017 3754 mt 1017 3826 L
5958 3690 mt 6030 3690 L
5994 3654 mt 5994 3726 L
5746 2795 mt 5818 2795 L
5782 2759 mt 5782 2831 L
5693 1933 mt 5765 1933 L
5729 1897 mt 5729 1969 L
3513 1804 mt 3585 1804 L
3549 1768 mt 3549 1840 L
1438 2363 mt 1510 2363 L
1474 2327 mt 1474 2399 L
4250 3405 mt 4322 3405 L
4286 3369 mt 4286 3441 L
 889 2161 mt  961 2161 L
 925 2125 mt  925 2197 L
5889  651 mt 5961  651 L
5925  615 mt 5925  687 L
4087 3036 mt 4159 3036 L
4123 3000 mt 4123 3072 L
 864 3955 mt  936 3955 L
 900 3919 mt  900 3991 L
2177 3581 mt 2249 3581 L
2213 3545 mt 2213 3617 L
5047 1273 mt 5119 1273 L
5083 1237 mt 5083 1309 L
3076 3824 mt 3148 3824 L
3112 3788 mt 3112 3860 L
4730 2548 mt 4802 2548 L
4766 2512 mt 4766 2584 L
2343  535 mt 2415  535 L
2379  499 mt 2379  571 L
6112 1576 mt 6184 1576 L
6148 1540 mt 6148 1612 L
4726 1395 mt 4798 1395 L
4762 1359 mt 4762 1431 L
 876  445 mt  948  445 L
 912  409 mt  912  481 L
4207 4579 mt 4279 4579 L
4243 4543 mt 4243 4615 L
4085  659 mt 4157  659 L
4121  623 mt 4121  695 L
2961 1692 mt 3033 1692 L
2997 1656 mt 2997 1728 L
2530 4390 mt 2602 4390 L
2566 4354 mt 2566 4426 L
 863 2609 mt  935 2609 L
 899 2573 mt  899 2645 L
 866 1232 mt  938 1232 L
 902 1196 mt  902 1268 L
4268 2577 mt 4340 2577 L
4304 2541 mt 4304 2613 L
1207 4312 mt 1279 4312 L
1243 4276 mt 1243 4348 L
2869  524 mt 2941  524 L
2905  488 mt 2905  560 L
3208 3403 mt 3280 3403 L
3244 3367 mt 3244 3439 L
5510  617 mt 5582  617 L
5546  581 mt 5546  653 L
6148 4224 mt 6220 4224 L
6184 4188 mt 6184 4260 L
5129 3100 mt 5201 3100 L
5165 3064 mt 5165 3136 L
 872 4568 mt  944 4568 L
 908 4532 mt  908 4604 L
1404 1746 mt 1476 1746 L
1440 1710 mt 1440 1782 L
2576 1345 mt 2648 1345 L
2612 1309 mt 2612 1381 L
1046 2691 mt 1118 2691 L
1082 2655 mt 1082 2727 L
2114 3474 mt 2186 3474 L
2150 3438 mt 2150 3510 L
4749 2315 mt 4821 2315 L
4785 2279 mt 4785 2351 L
6112 4616 mt 6184 4616 L
6148 4580 mt 6148 4652 L
3733 2454 mt 3805 2454 L
3769 2418 mt 3769 2490 L
5236 1314 mt 5308 1314 L
5272 1278 mt 5272 1350 L
2254 1048 mt 2326 1048 L
2290 1012 mt 2290 1084 L
 923  674 mt  995  674 L
 959  638 mt  959  710 L
4866 4069 mt 4938 4069 L
4902 4033 mt 4902 4105 L
3199 1348 mt 3271 1348 L
3235 1312 mt 3235 1384 L
1107 4091 mt 1179 4091 L
1143 4055 mt 1143 4127 L
5024  865 mt 5096  865 L
5060  829 mt 5060  901 L
4950 1603 mt 5022 1603 L
4986 1567 mt 4986 1639 L
2035 3254 mt 2107 3254 L
2071 3218 mt 2071 3290 L
1166  924 mt 1238  924 L
1202  888 mt 1202  960 L
4135  645 mt 4207  645 L
4171  609 mt 4171  681 L
5791 3490 mt 5863 3490 L
5827 3454 mt 5827 3526 L
5106 3663 mt 5178 3663 L
5142 3627 mt 5142 3699 L
1018  509 mt 1090  509 L
1054  473 mt 1054  545 L
 864  843 mt  936  843 L
 900  807 mt  900  879 L
4786 4322 mt 4858 4322 L
4822 4286 mt 4822 4358 L
1326  616 mt 1398  616 L
1362  580 mt 1362  652 L
1785 1435 mt 1857 1435 L
1821 1399 mt 1821 1471 L
4556  551 mt 4628  551 L
4592  515 mt 4592  587 L
5758 4579 mt 5830 4579 L
5794 4543 mt 5794 4615 L
4593  451 mt 4665  451 L
4629  415 mt 4629  487 L
2581  473 mt 2653  473 L
2617  437 mt 2617  509 L
 982 2685 mt 1054 2685 L
1018 2649 mt 1018 2721 L
6059 1253 mt 6131 1253 L
6095 1217 mt 6095 1289 L
6208  724 mt 6280  724 L
6244  688 mt 6244  760 L
4260  486 mt 4332  486 L
4296  450 mt 4296  522 L
4626  668 mt 4698  668 L
4662  632 mt 4662  704 L
1123 3777 mt 1195 3777 L
1159 3741 mt 1159 3813 L
3264 1613 mt 3336 1613 L
3300 1577 mt 3300 1649 L
4111 4329 mt 4183 4329 L
4147 4293 mt 4147 4365 L
6151  949 mt 6223  949 L
6187  913 mt 6187  985 L
6144  418 mt 6216  418 L
6180  382 mt 6180  454 L
5982  543 mt 6054  543 L
6018  507 mt 6018  579 L
5246  879 mt 5318  879 L
5282  843 mt 5282  915 L
5661 4024 mt 5733 4024 L
5697 3988 mt 5697 4060 L
3906  743 mt 3978  743 L
3942  707 mt 3942  779 L
5824 1755 mt 5896 1755 L
5860 1719 mt 5860 1791 L
6213 3760 mt 6285 3760 L
6249 3724 mt 6249 3796 L
5266  741 mt 5338  741 L
5302  705 mt 5302  777 L
6186  671 mt 6258  671 L
6222  635 mt 6222  707 L
1729 4252 mt 1801 4252 L
1765 4216 mt 1765 4288 L
1028  422 mt 1100  422 L
1064  386 mt 1064  458 L
6048 1176 mt 6120 1176 L
6084 1140 mt 6084 1212 L
 863  661 mt  935  661 L
 899  625 mt  899  697 L
6150 3652 mt 6222 3652 L
6186 3616 mt 6186 3688 L
5633 1468 mt 5705 1468 L
5669 1432 mt 5669 1504 L
2584  649 mt 2656  649 L
2620  613 mt 2620  685 L
5261  600 mt 5333  600 L
5297  564 mt 5297  636 L
4404 1201 mt 4476 1201 L
4440 1165 mt 4440 1237 L
6206 1668 mt 6278 1668 L
6242 1632 mt 6242 1704 L
5390 2096 mt 5462 2096 L
5426 2060 mt 5426 2132 L
 863 3229 mt  935 3229 L
 899 3193 mt  899 3265 L
2446 3622 mt 2518 3622 L
2482 3586 mt 2482 3658 L
5890 2713 mt 5962 2713 L
5926 2677 mt 5926 2749 L
6166 4549 mt 6238 4549 L
6202 4513 mt 6202 4585 L
6154 2132 mt 6226 2132 L
6190 2096 mt 6190 2168 L
5402 1453 mt 5474 1453 L
5438 1417 mt 5438 1489 L
1130 4004 mt 1202 4004 L
1166 3968 mt 1166 4040 L
2824 2252 mt 2896 2252 L
2860 2216 mt 2860 2288 L
5595  423 mt 5667  423 L
5631  387 mt 5631  459 L
1749  436 mt 1821  436 L
1785  400 mt 1785  472 L
 948 4615 mt 1020 4615 L
 984 4579 mt  984 4651 L
6195 4459 mt 6267 4459 L
6231 4423 mt 6231 4495 L
6191 4610 mt 6263 4610 L
6227 4574 mt 6227 4646 L
 924  914 mt  996  914 L
 960  878 mt  960  950 L
4266  445 mt 4338  445 L
4302  409 mt 4302  481 L
6215 4612 mt 6287 4612 L
6251 4576 mt 6251 4648 L
6220 3887 mt 6292 3887 L
6256 3851 mt 6256 3923 L
3276  905 mt 3348  905 L
3312  869 mt 3312  941 L
4054 2060 mt 4126 2060 L
4090 2024 mt 4090 2096 L
1880 1135 mt 1952 1135 L
1916 1099 mt 1916 1171 L
3734 2873 mt 3806 2873 L
3770 2837 mt 3770 2909 L
6103 2491 mt 6175 2491 L
6139 2455 mt 6139 2527 L
6050  748 mt 6122  748 L
6086  712 mt 6086  784 L
6200 2120 mt 6272 2120 L
6236 2084 mt 6236 2156 L
6098  946 mt 6170  946 L
6134  910 mt 6134  982 L
5978 2838 mt 6050 2838 L
6014 2802 mt 6014 2874 L
4372 1000 mt 4444 1000 L
4408  964 mt 4408 1036 L
2961  653 mt 3033  653 L
2997  617 mt 2997  689 L
 977 1187 mt 1049 1187 L
1013 1151 mt 1013 1223 L
1113 2688 mt 1185 2688 L
1149 2652 mt 1149 2724 L
4879 3493 mt 4951 3493 L
4915 3457 mt 4915 3529 L
2203  522 mt 2275  522 L
2239  486 mt 2239  558 L
3330  418 mt 3402  418 L
3366  382 mt 3366  454 L
6050 4613 mt 6122 4613 L
6086 4577 mt 6086 4649 L
1479 2156 mt 1551 2156 L
1515 2120 mt 1515 2192 L
1655 4434 mt 1727 4434 L
1691 4398 mt 1691 4470 L
6013  955 mt 6085  955 L
6049  919 mt 6049  991 L
6102 1950 mt 6174 1950 L
6138 1914 mt 6138 1986 L
6220  442 mt 6292  442 L
6256  406 mt 6256  478 L
4734  751 mt 4806  751 L
4770  715 mt 4770  787 L
4170 4074 mt 4242 4074 L
4206 4038 mt 4206 4110 L
5495 4107 mt 5567 4107 L
5531 4071 mt 5531 4143 L
 908 4587 mt  980 4587 L
 944 4551 mt  944 4623 L
 863 4537 mt  935 4537 L
 899 4501 mt  899 4573 L
6054  608 mt 6126  608 L
6090  572 mt 6090  644 L
5800 1623 mt 5872 1623 L
5836 1587 mt 5836 1659 L
4365 3882 mt 4437 3882 L
4401 3846 mt 4401 3918 L
3173  416 mt 3245  416 L
3209  380 mt 3209  452 L
 939 1129 mt 1011 1129 L
 975 1093 mt  975 1165 L
5984 1336 mt 6056 1336 L
6020 1300 mt 6020 1372 L
6154 2299 mt 6226 2299 L
6190 2263 mt 6190 2335 L
5248  464 mt 5320  464 L
5284  428 mt 5284  500 L
5759 3707 mt 5831 3707 L
5795 3671 mt 5795 3743 L
4181 3507 mt 4253 3507 L
4217 3471 mt 4217 3543 L
5571  496 mt 5643  496 L
5607  460 mt 5607  532 L
5967  455 mt 6039  455 L
6003  419 mt 6003  491 L
5961  548 mt 6033  548 L
5997  512 mt 5997  584 L
3624 3035 mt 3696 3035 L
3660 2999 mt 3660 3071 L
6166 1372 mt 6238 1372 L
6202 1336 mt 6202 1408 L
5504  678 mt 5576  678 L
5540  642 mt 5540  714 L
6124 2199 mt 6196 2199 L
6160 2163 mt 6160 2235 L
1378  451 mt 1450  451 L
1414  415 mt 1414  487 L
 871 3892 mt  943 3892 L
 907 3856 mt  907 3928 L
5842 2268 mt 5914 2268 L
5878 2232 mt 5878 2304 L
3520 4358 mt 3592 4358 L
3556 4322 mt 3556 4394 L
4960  418 mt 5032  418 L
4996  382 mt 4996  454 L
5641 1875 mt 5713 1875 L
5677 1839 mt 5677 1911 L
4895 4604 mt 4967 4604 L
4931 4568 mt 4931 4640 L
1249 2168 mt 1321 2168 L
1285 2132 mt 1285 2204 L
5827  414 mt 5899  414 L
5863  378 mt 5863  450 L
6043 4542 mt 6115 4542 L
6079 4506 mt 6079 4578 L
5099 3933 mt 5171 3933 L
5135 3897 mt 5135 3969 L
5770  937 mt 5842  937 L
5806  901 mt 5806  973 L
 910 4300 mt  982 4300 L
 946 4264 mt  946 4336 L
4117 4226 mt 4189 4226 L
4153 4190 mt 4153 4262 L
6225 3662 mt 6297 3662 L
6261 3626 mt 6261 3698 L
4644 2922 mt 4716 2922 L
4680 2886 mt 4680 2958 L
2947  859 mt 3019  859 L
2983  823 mt 2983  895 L
6146  563 mt 6218  563 L
6182  527 mt 6182  599 L
3714 2981 mt 3786 2981 L
3750 2945 mt 3750 3017 L
6220 1377 mt 6292 1377 L
6256 1341 mt 6256 1413 L
3445  459 mt 3517  459 L
3481  423 mt 3481  495 L
6216 2027 mt 6288 2027 L
6252 1991 mt 6252 2063 L
5101 3953 mt 5173 3953 L
5137 3917 mt 5137 3989 L
 863 1628 mt  935 1628 L
 899 1592 mt  899 1664 L
6221 3470 mt 6293 3470 L
6257 3434 mt 6257 3506 L
6166 4099 mt 6238 4099 L
6202 4063 mt 6202 4135 L
6127 3894 mt 6199 3894 L
6163 3858 mt 6163 3930 L
1787 3292 mt 1859 3292 L
1823 3256 mt 1823 3328 L
5676 4551 mt 5748 4551 L
5712 4515 mt 5712 4587 L
 869 1143 mt  941 1143 L
 905 1107 mt  905 1179 L
5066 3965 mt 5138 3965 L
5102 3929 mt 5102 4001 L
5796 3588 mt 5868 3588 L
5832 3552 mt 5832 3624 L
2836  953 mt 2908  953 L
2872  917 mt 2872  989 L
5899 1138 mt 5971 1138 L
5935 1102 mt 5935 1174 L
3154 4608 mt 3226 4608 L
3190 4572 mt 3190 4644 L
6223  899 mt 6295  899 L
6259  863 mt 6259  935 L
6018 3405 mt 6090 3405 L
6054 3369 mt 6054 3441 L
1583 4558 mt 1655 4558 L
1619 4522 mt 1619 4594 L
5642  900 mt 5714  900 L
5678  864 mt 5678  936 L
6201  850 mt 6273  850 L
6237  814 mt 6237  886 L
2397 4612 mt 2469 4612 L
2433 4576 mt 2433 4648 L
1828 4234 mt 1900 4234 L
1864 4198 mt 1864 4270 L
6160  456 mt 6232  456 L
6196  420 mt 6196  492 L
6187 2280 mt 6259 2280 L
6223 2244 mt 6223 2316 L
5980  629 mt 6052  629 L
6016  593 mt 6016  665 L
1399 2725 mt 1471 2725 L
1435 2689 mt 1435 2761 L
1565 4584 mt 1637 4584 L
1601 4548 mt 1601 4620 L
1895 4591 mt 1967 4591 L
1931 4555 mt 1931 4627 L
 954 3495 mt 1026 3495 L
 990 3459 mt  990 3531 L
6065  791 mt 6137  791 L
6101  755 mt 6101  827 L
2764 2942 mt 2836 2942 L
2800 2906 mt 2800 2978 L
6180  471 mt 6252  471 L
6216  435 mt 6216  507 L
1314 2642 mt 1386 2642 L
1350 2606 mt 1350 2678 L
4866 4512 mt 4938 4512 L
4902 4476 mt 4902 4548 L
5045 4591 mt 5117 4591 L
5081 4555 mt 5081 4627 L
1564 4382 mt 1636 4382 L
1600 4346 mt 1600 4418 L
5752  674 mt 5824  674 L
5788  638 mt 5788  710 L
5778 3321 mt 5850 3321 L
5814 3285 mt 5814 3357 L
6185  821 mt 6257  821 L
6221  785 mt 6221  857 L
 890 3097 mt  962 3097 L
 926 3061 mt  926 3133 L
6208 2094 mt 6280 2094 L
6244 2058 mt 6244 2130 L
6143  432 mt 6215  432 L
6179  396 mt 6179  468 L
 864 4435 mt  936 4435 L
 900 4399 mt  900 4471 L
5848 1670 mt 5920 1670 L
5884 1634 mt 5884 1706 L
1019 2851 mt 1091 2851 L
1055 2815 mt 1055 2887 L
1501  615 mt 1573  615 L
1537  579 mt 1537  651 L
1846  433 mt 1918  433 L
1882  397 mt 1882  469 L
1497 4525 mt 1569 4525 L
1533 4489 mt 1533 4561 L
 863 3832 mt  935 3832 L
 899 3796 mt  899 3868 L
1432  958 mt 1504  958 L
1468  922 mt 1468  994 L
4275 3877 mt 4347 3877 L
4311 3841 mt 4311 3913 L
2241 1496 mt 2313 1496 L
2277 1460 mt 2277 1532 L
6202  685 mt 6274  685 L
6238  649 mt 6238  721 L
3139  414 mt 3211  414 L
3175  378 mt 3175  450 L
5780 3590 mt 5852 3590 L
5816 3554 mt 5816 3626 L
6199 4479 mt 6271 4479 L
6235 4443 mt 6235 4515 L
5916 3094 mt 5988 3094 L
5952 3058 mt 5952 3130 L
2386 4226 mt 2458 4226 L
2422 4190 mt 2422 4262 L
2932 4529 mt 3004 4529 L
2968 4493 mt 2968 4565 L
4908  614 mt 4980  614 L
4944  578 mt 4944  650 L
3802 2091 mt 3874 2091 L
3838 2055 mt 3838 2127 L
5565 1313 mt 5637 1313 L
5601 1277 mt 5601 1349 L
4585  511 mt 4657  511 L
4621  475 mt 4621  547 L
 881 4215 mt  953 4215 L
 917 4179 mt  917 4251 L
4701 4431 mt 4773 4431 L
4737 4395 mt 4737 4467 L
2450 2165 mt 2522 2165 L
2486 2129 mt 2486 2201 L
 863 3346 mt  935 3346 L
 899 3310 mt  899 3382 L
6165  425 mt 6237  425 L
6201  389 mt 6201  461 L
6204  674 mt 6276  674 L
6240  638 mt 6240  710 L
6027 4108 mt 6099 4108 L
6063 4072 mt 6063 4144 L
6093 1769 mt 6165 1769 L
6129 1733 mt 6129 1805 L
4889 2951 mt 4961 2951 L
4925 2915 mt 4925 2987 L
5625  469 mt 5697  469 L
5661  433 mt 5661  505 L
2383 1547 mt 2455 1547 L
2419 1511 mt 2419 1583 L
 950  469 mt 1022  469 L
 986  433 mt  986  505 L
4125 3559 mt 4197 3559 L
4161 3523 mt 4161 3595 L
5470 2352 mt 5542 2352 L
5506 2316 mt 5506 2388 L
3007 2846 mt 3079 2846 L
3043 2810 mt 3043 2882 L
2971 2393 mt 3043 2393 L
3007 2357 mt 3007 2429 L
6195 2522 mt 6267 2522 L
6231 2486 mt 6231 2558 L
 917 1810 mt  989 1810 L
 953 1774 mt  953 1846 L
6128 1641 mt 6200 1641 L
6164 1605 mt 6164 1677 L
6032 2194 mt 6104 2194 L
6068 2158 mt 6068 2230 L
3460 2220 mt 3532 2220 L
3496 2184 mt 3496 2256 L
5821 3999 mt 5893 3999 L
5857 3963 mt 5857 4035 L
3469 3925 mt 3541 3925 L
3505 3889 mt 3505 3961 L
 969 4394 mt 1041 4394 L
1005 4358 mt 1005 4430 L
1844 3142 mt 1916 3142 L
1880 3106 mt 1880 3178 L
5430  544 mt 5502  544 L
5466  508 mt 5466  580 L
4837 1710 mt 4909 1710 L
4873 1674 mt 4873 1746 L
3550 4606 mt 3622 4606 L
3586 4570 mt 3586 4642 L
5197 2675 mt 5269 2675 L
5233 2639 mt 5233 2711 L
6224  416 mt 6296  416 L
6260  380 mt 6260  452 L
5437 3628 mt 5509 3628 L
5473 3592 mt 5473 3664 L
2060  415 mt 2132  415 L
2096  379 mt 2096  451 L
2789 2362 mt 2861 2362 L
2825 2326 mt 2825 2398 L
5495  510 mt 5567  510 L
5531  474 mt 5531  546 L
5813 3085 mt 5885 3085 L
5849 3049 mt 5849 3121 L
6090  546 mt 6162  546 L
6126  510 mt 6126  582 L
gs 899 414 5363 4203 rc
gr

0 sg
2795 5104 mt 
(\(F,DCTb,iMLP\)) s
 422 3259 mt  -90 rotate
(\(S,PAC,GMM\)) s
90 rotate
2975  223 mt 
(Corr = 0.07) s

end %%Color Dict

eplot
%%EndObject

epage
end

showpage

%%Trailer
%%EOF
