%!PS-Adobe-3.0 EPSF-3.0
%%Creator: MATLAB, The Mathworks, Inc. Version 7.7.0.471 (R2008b). Operating System: Microsoft Windows XP.
%%Title: Pictures\main_zoo_mvar_analysis_data_BMI_xcorr_bmig_p1_k1_6_9.eps
%%CreationDate: 10/26/2009  05:45:07
%%DocumentNeededFonts: Helvetica
%%DocumentProcessColors: Cyan Magenta Yellow Black
%%LanguageLevel: 2
%%Pages: 1
%%BoundingBox:    37   180   549   616
%%EndComments

%%BeginProlog
% MathWorks dictionary
/MathWorks 160 dict begin
% definition operators
/bdef {bind def} bind def
/ldef {load def} bind def
/xdef {exch def} bdef
/xstore {exch store} bdef
% operator abbreviations
/c  /clip ldef
/cc /concat ldef
/cp /closepath ldef
/gr /grestore ldef
/gs /gsave ldef
/mt /moveto ldef
/np /newpath ldef
/cm /currentmatrix ldef
/sm /setmatrix ldef
/rm /rmoveto ldef
/rl /rlineto ldef
/s {show newpath} bdef
/sc {setcmykcolor} bdef
/sr /setrgbcolor ldef
/sg /setgray ldef
/w /setlinewidth ldef
/j /setlinejoin ldef
/cap /setlinecap ldef
/rc {rectclip} bdef
/rf {rectfill} bdef
% page state control
/pgsv () def
/bpage {/pgsv save def} bdef
/epage {pgsv restore} bdef
/bplot /gsave ldef
/eplot {stroke grestore} bdef
% orientation switch
/portraitMode 0 def /landscapeMode 1 def /rotateMode 2 def
% coordinate system mappings
/dpi2point 0 def
% font control
/FontSize 0 def
/FMS {/FontSize xstore findfont [FontSize 0 0 FontSize neg 0 0]
  makefont setfont} bdef
/ISOLatin1Encoding where {pop /WindowsLatin1Encoding 256 array bdef
ISOLatin1Encoding WindowsLatin1Encoding copy pop
/.notdef/.notdef/quotesinglbase/florin/quotedblbase/ellipsis/dagger
/daggerdbl/circumflex/perthousand/Scaron/guilsinglleft/OE/.notdef/.notdef
/.notdef/.notdef/quoteleft/quoteright/quotedblleft/quotedblright/bullet
/endash/emdash/tilde/trademark/scaron/guilsinglright/oe/.notdef/.notdef
/Ydieresis WindowsLatin1Encoding 128 32 getinterval astore pop}
{/WindowsLatin1Encoding StandardEncoding bdef} ifelse
/reencode {exch dup where {pop load} {pop StandardEncoding} ifelse
  exch dup 3 1 roll findfont dup length dict begin
  { 1 index /FID ne {def}{pop pop} ifelse } forall
  /Encoding exch def currentdict end definefont pop} bdef
/isroman {findfont /CharStrings get /Agrave known} bdef
/FMSR {3 1 roll 1 index dup isroman {reencode} {pop pop} ifelse
  exch FMS} bdef
/csm {1 dpi2point div -1 dpi2point div scale neg translate
 dup landscapeMode eq {pop -90 rotate}
  {rotateMode eq {90 rotate} if} ifelse} bdef
% line types: solid, dotted, dashed, dotdash
/SO { [] 0 setdash } bdef
/DO { [.5 dpi2point mul 4 dpi2point mul] 0 setdash } bdef
/DA { [6 dpi2point mul] 0 setdash } bdef
/DD { [.5 dpi2point mul 4 dpi2point mul 6 dpi2point mul 4
  dpi2point mul] 0 setdash } bdef
% macros for lines and objects
/L {lineto stroke} bdef
/MP {3 1 roll moveto 1 sub {rlineto} repeat} bdef
/AP {{rlineto} repeat} bdef
/PDlw -1 def
/W {/PDlw currentlinewidth def setlinewidth} def
/PP {closepath eofill} bdef
/DP {closepath stroke} bdef
/MR {4 -2 roll moveto dup  0 exch rlineto exch 0 rlineto
  neg 0 exch rlineto closepath} bdef
/FR {MR stroke} bdef
/PR {MR fill} bdef
/L1i {{currentfile picstr readhexstring pop} image} bdef
/tMatrix matrix def
/MakeOval {newpath tMatrix currentmatrix pop translate scale
0 0 1 0 360 arc tMatrix setmatrix} bdef
/FO {MakeOval stroke} bdef
/PO {MakeOval fill} bdef
/PD {currentlinewidth 2 div 0 360 arc fill
   PDlw -1 eq not {PDlw w /PDlw -1 def} if} def
/FA {newpath tMatrix currentmatrix pop translate scale
  0 0 1 5 -2 roll arc tMatrix setmatrix stroke} bdef
/PA {newpath tMatrix currentmatrix pop	translate 0 0 moveto scale
  0 0 1 5 -2 roll arc closepath tMatrix setmatrix fill} bdef
/FAn {newpath tMatrix currentmatrix pop translate scale
  0 0 1 5 -2 roll arcn tMatrix setmatrix stroke} bdef
/PAn {newpath tMatrix currentmatrix pop translate 0 0 moveto scale
  0 0 1 5 -2 roll arcn closepath tMatrix setmatrix fill} bdef
/vradius 0 def /hradius 0 def /lry 0 def
/lrx 0 def /uly 0 def /ulx 0 def /rad 0 def
/MRR {/vradius xdef /hradius xdef /lry xdef /lrx xdef /uly xdef
  /ulx xdef newpath tMatrix currentmatrix pop ulx hradius add uly
  vradius add translate hradius vradius scale 0 0 1 180 270 arc 
  tMatrix setmatrix lrx hradius sub uly vradius add translate
  hradius vradius scale 0 0 1 270 360 arc tMatrix setmatrix
  lrx hradius sub lry vradius sub translate hradius vradius scale
  0 0 1 0 90 arc tMatrix setmatrix ulx hradius add lry vradius sub
  translate hradius vradius scale 0 0 1 90 180 arc tMatrix setmatrix
  closepath} bdef
/FRR {MRR stroke } bdef
/PRR {MRR fill } bdef
/MlrRR {/lry xdef /lrx xdef /uly xdef /ulx xdef /rad lry uly sub 2 div def
  newpath tMatrix currentmatrix pop ulx rad add uly rad add translate
  rad rad scale 0 0 1 90 270 arc tMatrix setmatrix lrx rad sub lry rad
  sub translate rad rad scale 0 0 1 270 90 arc tMatrix setmatrix
  closepath} bdef
/FlrRR {MlrRR stroke } bdef
/PlrRR {MlrRR fill } bdef
/MtbRR {/lry xdef /lrx xdef /uly xdef /ulx xdef /rad lrx ulx sub 2 div def
  newpath tMatrix currentmatrix pop ulx rad add uly rad add translate
  rad rad scale 0 0 1 180 360 arc tMatrix setmatrix lrx rad sub lry rad
  sub translate rad rad scale 0 0 1 0 180 arc tMatrix setmatrix
  closepath} bdef
/FtbRR {MtbRR stroke } bdef
/PtbRR {MtbRR fill } bdef
/stri 6 array def /dtri 6 array def
/smat 6 array def /dmat 6 array def
/tmat1 6 array def /tmat2 6 array def /dif 3 array def
/asub {/ind2 exch def /ind1 exch def dup dup
  ind1 get exch ind2 get sub exch } bdef
/tri_to_matrix {
  2 0 asub 3 1 asub 4 0 asub 5 1 asub
  dup 0 get exch 1 get 7 -1 roll astore } bdef
/compute_transform {
  dmat dtri tri_to_matrix tmat1 invertmatrix 
  smat stri tri_to_matrix tmat2 concatmatrix } bdef
/ds {stri astore pop} bdef
/dt {dtri astore pop} bdef
/db {2 copy /cols xdef /rows xdef mul dup 3 mul string
  currentfile 
  3 index 0 eq {/ASCIIHexDecode filter}
  {/ASCII85Decode filter 3 index 2 eq {/RunLengthDecode filter} if }
  ifelse exch readstring pop
  dup 0 3 index getinterval /rbmap xdef
  dup 2 index dup getinterval /gbmap xdef
  1 index dup 2 mul exch getinterval /bbmap xdef pop pop}bdef
/it {gs np dtri aload pop moveto lineto lineto cp c
  cols rows 8 compute_transform 
  rbmap gbmap bbmap true 3 colorimage gr}bdef
/il {newpath moveto lineto stroke}bdef
currentdict end def
%%EndProlog

%%BeginSetup
MathWorks begin

0 cap

end
%%EndSetup

%%Page: 1 1
%%BeginPageSetup
%%PageBoundingBox:    37   180   549   616
MathWorks begin
bpage
%%EndPageSetup

%%BeginObject: obj1
bplot

/dpi2point 12 def
portraitMode 0216 7344 csm

  234   -48  6149  5231 rc
85 dict begin %Colortable dictionary
/c0 { 0.000000 0.000000 0.000000 sr} bdef
/c1 { 1.000000 1.000000 1.000000 sr} bdef
/c2 { 0.900000 0.000000 0.000000 sr} bdef
/c3 { 0.000000 0.820000 0.000000 sr} bdef
/c4 { 0.000000 0.000000 0.800000 sr} bdef
/c5 { 0.910000 0.820000 0.320000 sr} bdef
/c6 { 1.000000 0.260000 0.820000 sr} bdef
/c7 { 0.000000 0.820000 0.820000 sr} bdef
c0
1 j
1 sg
   0    0 6919 5187 rf
6 w
0 4202 5362 0 0 -4202 899 4616 4 MP
PP
-5362 0 0 4202 5362 0 0 -4202 899 4616 5 MP stroke
4 w
DO
SO
6 w
0 sg
 899  414 mt 6261  414 L
 899 4616 mt 6261 4616 L
6261 4616 mt 6261  414 L
 899 4616 mt  899  414 L
 899 4616 mt 6261 4616 L
 899 4616 mt  899  414 L
 919 4616 mt  919 4562 L
 919  414 mt  919  467 L
%%IncludeResource: font Helvetica
/Helvetica /WindowsLatin1Encoding 240 FMSR

 713 4873 mt 
(-3) s
1806 4616 mt 1806 4562 L
1806  414 mt 1806  467 L
1600 4873 mt 
(-2) s
2693 4616 mt 2693 4562 L
2693  414 mt 2693  467 L
2487 4873 mt 
(-1) s
3580 4616 mt 3580 4562 L
3580  414 mt 3580  467 L
3514 4873 mt 
(0) s
4466 4616 mt 4466 4562 L
4466  414 mt 4466  467 L
4400 4873 mt 
(1) s
5353 4616 mt 5353 4562 L
5353  414 mt 5353  467 L
5287 4873 mt 
(2) s
6240 4616 mt 6240 4562 L
6240  414 mt 6240  467 L
6174 4873 mt 
(3) s
 899 4599 mt  952 4599 L
6261 4599 mt 6207 4599 L
 591 4688 mt 
(-3) s
 899 3904 mt  952 3904 L
6261 3904 mt 6207 3904 L
 591 3993 mt 
(-2) s
 899 3209 mt  952 3209 L
6261 3209 mt 6207 3209 L
 591 3298 mt 
(-1) s
 899 2514 mt  952 2514 L
6261 2514 mt 6207 2514 L
 731 2603 mt 
(0) s
 899 1820 mt  952 1820 L
6261 1820 mt 6207 1820 L
 731 1909 mt 
(1) s
 899 1125 mt  952 1125 L
6261 1125 mt 6207 1125 L
 731 1214 mt 
(2) s
 899  430 mt  952  430 L
6261  430 mt 6207  430 L
 731  519 mt 
(3) s
 899  414 mt 6261  414 L
 899 4616 mt 6261 4616 L
6261 4616 mt 6261  414 L
 899 4616 mt  899  414 L
gs 899 414 5363 4203 rc
gr

/c8 { 0.000000 0.000000 1.000000 sr} bdef
c8
2821 1698 mt 2893 1698 L
2857 1662 mt 2857 1734 L
4435 2815 mt 4507 2815 L
4471 2779 mt 4471 2851 L
3903 4023 mt 3975 4023 L
3939 3987 mt 3939 4059 L
4542 2978 mt 4614 2978 L
4578 2942 mt 4578 3014 L
3952 1892 mt 4024 1892 L
3988 1856 mt 3988 1928 L
3757 2859 mt 3829 2859 L
3793 2823 mt 3793 2895 L
2844 2549 mt 2916 2549 L
2880 2513 mt 2880 2585 L
3214 2160 mt 3286 2160 L
3250 2124 mt 3250 2196 L
3605 2388 mt 3677 2388 L
3641 2352 mt 3641 2424 L
3232 2067 mt 3304 2067 L
3268 2031 mt 3268 2103 L
6225 1740 mt 6297 1740 L
6261 1704 mt 6261 1776 L
3850 2237 mt 3922 2237 L
3886 2201 mt 3886 2273 L
4170 2223 mt 4242 2223 L
4206 2187 mt 4206 2259 L
3958 2320 mt 4030 2320 L
3994 2284 mt 3994 2356 L
2381 2001 mt 2453 2001 L
2417 1965 mt 2417 2037 L
5282 2347 mt 5354 2347 L
5318 2311 mt 5318 2383 L
4472 3273 mt 4544 3273 L
4508 3237 mt 4508 3309 L
3040 2204 mt 3112 2204 L
3076 2168 mt 3076 2240 L
3989 2589 mt 4061 2589 L
4025 2553 mt 4025 2625 L
4425 3567 mt 4497 3567 L
4461 3531 mt 4461 3603 L
3549 3118 mt 3621 3118 L
3585 3082 mt 3585 3154 L
3007 1087 mt 3079 1087 L
3043 1051 mt 3043 1123 L
5002 1404 mt 5074 1404 L
5038 1368 mt 5038 1440 L
3927  564 mt 3999  564 L
3963  528 mt 3963  600 L
3129 2007 mt 3201 2007 L
3165 1971 mt 3165 2043 L
3027 3213 mt 3099 3213 L
3063 3177 mt 3063 3249 L
3347 2576 mt 3419 2576 L
3383 2540 mt 3383 2612 L
2896 2506 mt 2968 2506 L
2932 2470 mt 2932 2542 L
2859 2782 mt 2931 2782 L
2895 2746 mt 2895 2818 L
2016 3358 mt 2088 3358 L
2052 3322 mt 2052 3394 L
3723 3731 mt 3795 3731 L
3759 3695 mt 3759 3767 L
4760 2078 mt 4832 2078 L
4796 2042 mt 4796 2114 L
4298 3581 mt 4370 3581 L
4334 3545 mt 4334 3617 L
3387 2673 mt 3459 2673 L
3423 2637 mt 3423 2709 L
3466 3069 mt 3538 3069 L
3502 3033 mt 3502 3105 L
4706 2909 mt 4778 2909 L
4742 2873 mt 4742 2945 L
3768 2686 mt 3840 2686 L
3804 2650 mt 3804 2722 L
4655 2650 mt 4727 2650 L
4691 2614 mt 4691 2686 L
5700 1960 mt 5772 1960 L
5736 1924 mt 5736 1996 L
3971 4205 mt 4043 4205 L
4007 4169 mt 4007 4241 L
3633 3289 mt 3705 3289 L
3669 3253 mt 3669 3325 L
5606 2365 mt 5678 2365 L
5642 2329 mt 5642 2401 L
4381 3658 mt 4453 3658 L
4417 3622 mt 4417 3694 L
3454 1006 mt 3526 1006 L
3490  970 mt 3490 1042 L
4135 3125 mt 4207 3125 L
4171 3089 mt 4171 3161 L
3844 3045 mt 3916 3045 L
3880 3009 mt 3880 3081 L
2218 2401 mt 2290 2401 L
2254 2365 mt 2254 2437 L
1766 3349 mt 1838 3349 L
1802 3313 mt 1802 3385 L
4156 3093 mt 4228 3093 L
4192 3057 mt 4192 3129 L
4463 2796 mt 4535 2796 L
4499 2760 mt 4499 2832 L
2502 1232 mt 2574 1232 L
2538 1196 mt 2538 1268 L
4121 2140 mt 4193 2140 L
4157 2104 mt 4157 2176 L
5096 1653 mt 5168 1653 L
5132 1617 mt 5132 1689 L
4805 2731 mt 4877 2731 L
4841 2695 mt 4841 2767 L
2931 1561 mt 3003 1561 L
2967 1525 mt 2967 1597 L
3915 2493 mt 3987 2493 L
3951 2457 mt 3951 2529 L
4789 1984 mt 4861 1984 L
4825 1948 mt 4825 2020 L
4021 2029 mt 4093 2029 L
4057 1993 mt 4057 2065 L
4398 2619 mt 4470 2619 L
4434 2583 mt 4434 2655 L
3694 3711 mt 3766 3711 L
3730 3675 mt 3730 3747 L
1619 1787 mt 1691 1787 L
1655 1751 mt 1655 1823 L
1991 3005 mt 2063 3005 L
2027 2969 mt 2027 3041 L
2534 2155 mt 2606 2155 L
2570 2119 mt 2570 2191 L
3178 2820 mt 3250 2820 L
3214 2784 mt 3214 2856 L
4266 2889 mt 4338 2889 L
4302 2853 mt 4302 2925 L
3785 2270 mt 3857 2270 L
3821 2234 mt 3821 2306 L
2251 3675 mt 2323 3675 L
2287 3639 mt 2287 3711 L
4355 4305 mt 4427 4305 L
4391 4269 mt 4391 4341 L
3153 2307 mt 3225 2307 L
3189 2271 mt 3189 2343 L
2732 2633 mt 2804 2633 L
2768 2597 mt 2768 2669 L
4107 3693 mt 4179 3693 L
4143 3657 mt 4143 3729 L
3774 2884 mt 3846 2884 L
3810 2848 mt 3810 2920 L
3116 2120 mt 3188 2120 L
3152 2084 mt 3152 2156 L
3588 2445 mt 3660 2445 L
3624 2409 mt 3624 2481 L
3891 1538 mt 3963 1538 L
3927 1502 mt 3927 1574 L
4221 3942 mt 4293 3942 L
4257 3906 mt 4257 3978 L
4347 2338 mt 4419 2338 L
4383 2302 mt 4383 2374 L
3359 3386 mt 3431 3386 L
3395 3350 mt 3395 3422 L
4444 2311 mt 4516 2311 L
4480 2275 mt 4480 2347 L
3325 2298 mt 3397 2298 L
3361 2262 mt 3361 2334 L
4693 1689 mt 4765 1689 L
4729 1653 mt 4729 1725 L
3940 2754 mt 4012 2754 L
3976 2718 mt 3976 2790 L
4574 3137 mt 4646 3137 L
4610 3101 mt 4610 3173 L
4364 3340 mt 4436 3340 L
4400 3304 mt 4400 3376 L
2267 3265 mt 2339 3265 L
2303 3229 mt 2303 3301 L
2085 2109 mt 2157 2109 L
2121 2073 mt 2121 2145 L
5413  824 mt 5485  824 L
5449  788 mt 5449  860 L
2773 2379 mt 2845 2379 L
2809 2343 mt 2809 2415 L
3330 3376 mt 3402 3376 L
3366 3340 mt 3366 3412 L
3046 1904 mt 3118 1904 L
3082 1868 mt 3082 1940 L
4060 3503 mt 4132 3503 L
4096 3467 mt 4096 3539 L
2980 1336 mt 3052 1336 L
3016 1300 mt 3016 1372 L
4251 2247 mt 4323 2247 L
4287 2211 mt 4287 2283 L
5180 2778 mt 5252 2778 L
5216 2742 mt 5216 2814 L
3582 2611 mt 3654 2611 L
3618 2575 mt 3618 2647 L
3571 2849 mt 3643 2849 L
3607 2813 mt 3607 2885 L
4149 3057 mt 4221 3057 L
4185 3021 mt 4185 3093 L
5245 3491 mt 5317 3491 L
5281 3455 mt 5281 3527 L
1259 3051 mt 1331 3051 L
1295 3015 mt 1295 3087 L
2040 1954 mt 2112 1954 L
2076 1918 mt 2076 1990 L
4680 2284 mt 4752 2284 L
4716 2248 mt 4716 2320 L
4501 1624 mt 4573 1624 L
4537 1588 mt 4537 1660 L
3740 1419 mt 3812 1419 L
3776 1383 mt 3776 1455 L
2468 2554 mt 2540 2554 L
2504 2518 mt 2504 2590 L
2966 2104 mt 3038 2104 L
3002 2068 mt 3002 2140 L
2952 2293 mt 3024 2293 L
2988 2257 mt 2988 2329 L
3147 2940 mt 3219 2940 L
3183 2904 mt 3183 2976 L
5828 2471 mt 5900 2471 L
5864 2435 mt 5864 2507 L
1842 1978 mt 1914 1978 L
1878 1942 mt 1878 2014 L
4746 3822 mt 4818 3822 L
4782 3786 mt 4782 3858 L
5024 2768 mt 5096 2768 L
5060 2732 mt 5060 2804 L
3594 3022 mt 3666 3022 L
3630 2986 mt 3630 3058 L
3160 2361 mt 3232 2361 L
3196 2325 mt 3196 2397 L
3237 2185 mt 3309 2185 L
3273 2149 mt 3273 2221 L
3814 1816 mt 3886 1816 L
3850 1780 mt 3850 1852 L
3797 1277 mt 3869 1277 L
3833 1241 mt 3833 1313 L
5365 2983 mt 5437 2983 L
5401 2947 mt 5401 3019 L
2605 2874 mt 2677 2874 L
2641 2838 mt 2641 2910 L
3861 2989 mt 3933 2989 L
3897 2953 mt 3897 3025 L
4372 2035 mt 4444 2035 L
4408 1999 mt 4408 2071 L
2959 2825 mt 3031 2825 L
2995 2789 mt 2995 2861 L
2444 1152 mt 2516 1152 L
2480 1116 mt 2480 1188 L
4852 2914 mt 4924 2914 L
4888 2878 mt 4888 2950 L
4643 1858 mt 4715 1858 L
4679 1822 mt 4679 1894 L
4961 2316 mt 5033 2316 L
4997 2280 mt 4997 2352 L
2903 2150 mt 2975 2150 L
2939 2114 mt 2939 2186 L
3243 3281 mt 3315 3281 L
3279 3245 mt 3279 3317 L
4512 2228 mt 4584 2228 L
4548 2192 mt 4548 2264 L
3471 2668 mt 3543 2668 L
3507 2632 mt 3507 2704 L
3983 1462 mt 4055 1462 L
4019 1426 mt 4019 1498 L
3393 2012 mt 3465 2012 L
3429 1976 mt 3429 2048 L
3885 1748 mt 3957 1748 L
3921 1712 mt 3921 1784 L
4564 2130 mt 4636 2130 L
4600 2094 mt 4600 2166 L
3921 2083 mt 3993 2083 L
3957 2047 mt 3957 2119 L
2595 2879 mt 2667 2879 L
2631 2843 mt 2631 2915 L
3745 2704 mt 3817 2704 L
3781 2668 mt 3781 2740 L
2341 2864 mt 2413 2864 L
2377 2828 mt 2377 2900 L
3196 3087 mt 3268 3087 L
3232 3051 mt 3232 3123 L
5150 2510 mt 5222 2510 L
5186 2474 mt 5186 2546 L
4631 2467 mt 4703 2467 L
4667 2431 mt 4667 2503 L
3066 2602 mt 3138 2602 L
3102 2566 mt 3102 2638 L
3897 2251 mt 3969 2251 L
3933 2215 mt 3933 2287 L
2993 2414 mt 3065 2414 L
3029 2378 mt 3029 2450 L
3482 2165 mt 3554 2165 L
3518 2129 mt 3518 2201 L
3873 2458 mt 3945 2458 L
3909 2422 mt 3909 2494 L
4228 2967 mt 4300 2967 L
4264 2931 mt 4264 3003 L
2797 2024 mt 2869 2024 L
2833 1988 mt 2833 2060 L
2165 1371 mt 2237 1371 L
2201 1335 mt 2201 1407 L
3104 2356 mt 3176 2356 L
3140 2320 mt 3140 2392 L
4585 2750 mt 4657 2750 L
4621 2714 mt 4621 2786 L
4243 2046 mt 4315 2046 L
4279 2010 mt 4279 2082 L
3033 2514 mt 3105 2514 L
3069 2478 mt 3069 2550 L
4492 3908 mt 4564 3908 L
4528 3872 mt 4528 3944 L
4163 1851 mt 4235 1851 L
4199 1815 mt 4199 1887 L
3202 2773 mt 3274 2773 L
3238 2737 mt 3238 2809 L
2828 2811 mt 2900 2811 L
2864 2775 mt 2864 2847 L
3078 3479 mt 3150 3479 L
3114 3443 mt 3114 3515 L
3538 2099 mt 3610 2099 L
3574 2063 mt 3574 2135 L
5531 1779 mt 5603 1779 L
5567 1743 mt 5567 1815 L
3527 2073 mt 3599 2073 L
3563 2037 mt 3563 2109 L
3666 3436 mt 3738 3436 L
3702 3400 mt 3702 3472 L
3135 2541 mt 3207 2541 L
3171 2505 mt 3171 2577 L
3336 1255 mt 3408 1255 L
3372 1219 mt 3372 1291 L
4054 3250 mt 4126 3250 L
4090 3214 mt 4090 3286 L
2789 2089 mt 2861 2089 L
2825 2053 mt 2825 2125 L
3226 3220 mt 3298 3220 L
3262 3184 mt 3262 3256 L
2523 2764 mt 2595 2764 L
2559 2728 mt 2559 2800 L
3566 1838 mt 3638 1838 L
3602 1802 mt 3602 1874 L
2715 1809 mt 2787 1809 L
2751 1773 mt 2751 1845 L
3273 2869 mt 3345 2869 L
3309 2833 mt 3309 2905 L
3762 1207 mt 3834 1207 L
3798 1171 mt 3798 1243 L
3410 1948 mt 3482 1948 L
3446 1912 mt 3446 1984 L
4074 3184 mt 4146 3184 L
4110 3148 mt 4110 3220 L
2106 2343 mt 2178 2343 L
2142 2307 mt 2142 2379 L
3516 2175 mt 3588 2175 L
3552 2139 mt 3552 2211 L
4009 2242 mt 4081 2242 L
4045 2206 mt 4045 2278 L
4532 2501 mt 4604 2501 L
4568 2465 mt 4568 2537 L
2327 3641 mt 2399 3641 L
2363 3605 mt 2363 3677 L
3278 2718 mt 3350 2718 L
3314 2682 mt 3314 2754 L
2615 2787 mt 2687 2787 L
2651 2751 mt 2651 2823 L
2586 1794 mt 2658 1794 L
2622 1758 mt 2622 1830 L
4886 3797 mt 4958 3797 L
4922 3761 mt 4922 3833 L
3053  898 mt 3125  898 L
3089  862 mt 3089  934 L
4869 2558 mt 4941 2558 L
4905 2522 mt 4905 2594 L
4034 2580 mt 4106 2580 L
4070 2544 mt 4070 2616 L
2680 2624 mt 2752 2624 L
2716 2588 mt 2716 2660 L
2513 1550 mt 2585 1550 L
2549 1514 mt 2549 1586 L
1907 2899 mt 1979 2899 L
1943 2863 mt 1943 2935 L
4236 3625 mt 4308 3625 L
4272 3589 mt 4272 3661 L
 863 1318 mt  935 1318 L
 899 1282 mt  899 1354 L
2394 2352 mt 2466 2352 L
2430 2316 mt 2430 2388 L
4114  414 mt 4186  414 L
4150  378 mt 4150  450 L
3249 3034 mt 3321 3034 L
3285 2998 mt 3285 3070 L
3964 1764 mt 4036 1764 L
4000 1728 mt 4000 1800 L
5211 1972 mt 5283 1972 L
5247 1936 mt 5247 2008 L
2987 2436 mt 3059 2436 L
3023 2400 mt 3023 2472 L
4087 1593 mt 4159 1593 L
4123 1557 mt 4123 1629 L
2910 1942 mt 2982 1942 L
2946 1906 mt 2946 1978 L
2479 2325 mt 2551 2325 L
2515 2289 mt 2515 2361 L
3621 2094 mt 3693 2094 L
3657 2058 mt 3657 2130 L
3166 1680 mt 3238 1680 L
3202 1644 mt 3202 1716 L
1722 1572 mt 1794 1572 L
1758 1536 mt 1758 1608 L
2126 2682 mt 2198 2682 L
2162 2646 mt 2162 2718 L
4836 2418 mt 4908 2418 L
4872 2382 mt 4872 2454 L
3638 2449 mt 3710 2449 L
3674 2413 mt 3674 2485 L
4390 2405 mt 4462 2405 L
4426 2369 mt 4426 2441 L
3826 2677 mt 3898 2677 L
3862 2641 mt 3862 2713 L
3284 3848 mt 3356 3848 L
3320 3812 mt 3320 3884 L
3449 2302 mt 3521 2302 L
3485 2266 mt 3485 2338 L
2652 2528 mt 2724 2528 L
2688 2492 mt 2688 2564 L
3977 2256 mt 4049 2256 L
4013 2220 mt 4013 2292 L
3711 3039 mt 3783 3039 L
3747 3003 mt 3747 3075 L
3438 2536 mt 3510 2536 L
3474 2500 mt 3474 2572 L
2201 1354 mt 2273 1354 L
2237 1318 mt 2237 1390 L
1937 1823 mt 2009 1823 L
1973 1787 mt 1973 1859 L
4775 1756 mt 4847 1756 L
4811 1720 mt 4811 1792 L
3432 3752 mt 3504 3752 L
3468 3716 mt 3468 3788 L
3510 2523 mt 3582 2523 L
3546 2487 mt 3546 2559 L
4282 3610 mt 4354 3610 L
4318 3574 mt 4318 3646 L
4482 2628 mt 4554 2628 L
4518 2592 mt 4518 2664 L
1556 3131 mt 1628 3131 L
1592 3095 mt 1592 3167 L
3683  724 mt 3755  724 L
3719  688 mt 3719  760 L
4416 1930 mt 4488 1930 L
4452 1894 mt 4452 1966 L
3488 1049 mt 3560 1049 L
3524 1013 mt 3524 1085 L
3655 2334 mt 3727 2334 L
3691 2298 mt 3691 2370 L
3255 4072 mt 3327 4072 L
3291 4036 mt 3291 4108 L
3791 2606 mt 3863 2606 L
3827 2570 mt 3827 2642 L
3296 2956 mt 3368 2956 L
3332 2920 mt 3332 2992 L
3751 2275 mt 3823 2275 L
3787 2239 mt 3787 2311 L
2689 2218 mt 2761 2218 L
2725 2182 mt 2725 2254 L
4100 1878 mt 4172 1878 L
4136 1842 mt 4136 1914 L
4553 2709 mt 4625 2709 L
4589 2673 mt 4589 2745 L
4981 3306 mt 5053 3306 L
5017 3270 mt 5017 3342 L
2917 3527 mt 2989 3527 L
2953 3491 mt 2953 3563 L
2945 2741 mt 3017 2741 L
2981 2705 mt 2981 2777 L
4922 2792 mt 4994 2792 L
4958 2756 mt 4958 2828 L
3415 3297 mt 3487 3297 L
3451 3261 mt 3451 3333 L
3717 1448 mt 3789 1448 L
3753 1412 mt 3753 1484 L
4732 1662 mt 4804 1662 L
4768 1626 mt 4768 1698 L
2757 3099 mt 2829 3099 L
2793 3063 mt 2793 3135 L
4290 3075 mt 4362 3075 L
4326 3039 mt 4326 3111 L
4904 3515 mt 4976 3515 L
4940 3479 mt 4940 3551 L
3184 3395 mt 3256 3395 L
3220 3359 mt 3220 3431 L
3000 1526 mt 3072 1526 L
3036 1490 mt 3036 1562 L
4941 2462 mt 5013 2462 L
4977 2426 mt 4977 2498 L
4128 3081 mt 4200 3081 L
4164 3045 mt 4164 3117 L
3460 1923 mt 3532 1923 L
3496 1887 mt 3496 1959 L
3313 2664 mt 3385 2664 L
3349 2628 mt 3349 2700 L
3091 2925 mt 3163 2925 L
3127 2889 mt 3127 2961 L
3443 3242 mt 3515 3242 L
3479 3206 mt 3479 3278 L
3020 1723 mt 3092 1723 L
3056 1687 mt 3056 1759 L
4002 2209 mt 4074 2209 L
4038 2173 mt 4038 2245 L
5071 1604 mt 5143 1604 L
5107 1568 mt 5107 1640 L
3879 2894 mt 3951 2894 L
3915 2858 mt 3915 2930 L
3110 1707 mt 3182 1707 L
3146 1671 mt 3146 1743 L
4028 2423 mt 4100 2423 L
4064 2387 mt 4064 2459 L
3013 2519 mt 3085 2519 L
3049 2483 mt 3049 2555 L
3700 2427 mt 3772 2427 L
3736 2391 mt 3736 2463 L
4213 1772 mt 4285 1772 L
4249 1736 mt 4249 1808 L
3610 2659 mt 3682 2659 L
3646 2623 mt 3646 2695 L
4184 1671 mt 4256 1671 L
4220 1635 mt 4220 1707 L
1481 3151 mt 1553 3151 L
1517 3115 mt 1517 3187 L
1805 2691 mt 1877 2691 L
1841 2655 mt 1841 2727 L
3672 2695 mt 3744 2695 L
3708 2659 mt 3708 2731 L
2565 3017 mt 2637 3017 L
2601 2981 mt 2601 3053 L
3934 1865 mt 4006 1865 L
3970 1829 mt 3970 1901 L
2063 3063 mt 2135 3063 L
2099 3027 mt 2099 3099 L
3123 2484 mt 3195 2484 L
3159 2448 mt 3159 2520 L
3085 2835 mt 3157 2835 L
3121 2799 mt 3121 2871 L
2697 2759 mt 2769 2759 L
2733 2723 mt 2733 2795 L
3627 2713 mt 3699 2713 L
3663 2677 mt 3663 2749 L
1965 3468 mt 2037 3468 L
2001 3432 mt 2001 3504 L
3290 2801 mt 3362 2801 L
3326 2765 mt 3326 2837 L
3532 3191 mt 3604 3191 L
3568 3155 mt 3568 3227 L
3677 1911 mt 3749 1911 L
3713 1875 mt 3713 1947 L
4177 3235 mt 4249 3235 L
4213 3199 mt 4213 3271 L
4619 1831 mt 4691 1831 L
4655 1795 mt 4655 1867 L
2671 2637 mt 2743 2637 L
2707 2601 mt 2707 2673 L
3505 3157 mt 3577 3157 L
3541 3121 mt 3541 3193 L
2407 2383 mt 2479 2383 L
2443 2347 mt 2443 2419 L
6033 1802 mt 6105 1802 L
6069 1766 mt 6069 1838 L
3261 2597 mt 3333 2597 L
3297 2561 mt 3297 2633 L
4597 1995 mt 4669 1995 L
4633 1959 mt 4633 2031 L
3342 2480 mt 3414 2480 L
3378 2444 mt 3378 2516 L
2866 2189 mt 2938 2189 L
2902 2153 mt 2902 2225 L
2643 2920 mt 2715 2920 L
2679 2884 mt 2679 2956 L
5047 1181 mt 5119 1181 L
5083 1145 mt 5083 1217 L
2836 2233 mt 2908 2233 L
2872 2197 mt 2872 2269 L
3098 2641 mt 3170 2641 L
3134 2605 mt 3134 2677 L
2298 2951 mt 2370 2951 L
2334 2915 mt 2334 2987 L
2545 2265 mt 2617 2265 L
2581 2229 mt 2581 2301 L
3190 1936 mt 3262 1936 L
3226 1900 mt 3226 1972 L
3832 2615 mt 3904 2615 L
3868 2579 mt 3868 2651 L
4274 1872 mt 4346 1872 L
4310 1836 mt 4310 1908 L
3426 3457 mt 3498 3457 L
3462 3421 mt 3462 3493 L
3867 3322 mt 3939 3322 L
3903 3286 mt 3903 3358 L
3370 2532 mt 3442 2532 L
3406 2496 mt 3406 2568 L
3544 2374 mt 3616 2374 L
3580 2338 mt 3580 2410 L
2624 2994 mt 2696 2994 L
2660 2958 mt 2660 3030 L
2432 1514 mt 2504 1514 L
2468 1478 mt 2468 1550 L
3661 2410 mt 3733 2410 L
3697 2374 mt 3697 2446 L
2183 2018 mt 2255 2018 L
2219 1982 mt 2219 2054 L
4306  957 mt 4378  957 L
4342  921 mt 4342  993 L
2456 3367 mt 2528 3367 L
2492 3331 mt 2492 3403 L
3072 2370 mt 3144 2370 L
3108 2334 mt 3108 2406 L
2765 2040 mt 2837 2040 L
2801 2004 mt 2801 2076 L
3820 3171 mt 3892 3171 L
3856 3135 mt 3856 3207 L
4820 2199 mt 4892 2199 L
4856 2163 mt 4856 2235 L
4015 2057 mt 4087 2057 L
4051 2021 mt 4051 2093 L
4094 3144 mt 4166 3144 L
4130 3108 mt 4130 3180 L
5122 2655 mt 5194 2655 L
5158 2619 mt 5158 2691 L
2851 2930 mt 2923 2930 L
2887 2894 mt 2887 2966 L
3398 2396 mt 3470 2396 L
3434 2360 mt 3434 2432 L
2420 2840 mt 2492 2840 L
2456 2804 mt 2456 2876 L
2368 2135 mt 2440 2135 L
2404 2099 mt 2404 2171 L
3909 1298 mt 3981 1298 L
3945 1262 mt 3945 1334 L
2781 3178 mt 2853 3178 L
2817 3142 mt 2817 3214 L
4330 1990 mt 4402 1990 L
4366 1954 mt 4366 2026 L
3220 3106 mt 3292 3106 L
3256 3070 mt 3256 3142 L
4142 1845 mt 4214 1845 L
4178 1809 mt 4178 1881 L
3381 3011 mt 3453 3011 L
3417 2975 mt 3417 3047 L
3728 1583 mt 3800 1583 L
3764 1547 mt 3764 1619 L
4719 3595 mt 4791 3595 L
4755 3559 mt 4755 3631 L
3644 1732 mt 3716 1732 L
3680 1696 mt 3680 1768 L
3499 3227 mt 3571 3227 L
3535 3191 mt 3535 3263 L
3267 3028 mt 3339 3028 L
3303 2992 mt 3303 3064 L
2881 2214 mt 2953 2214 L
2917 2178 mt 2917 2250 L
4322 1614 mt 4394 1614 L
4358 1578 mt 4358 1650 L
2662 2962 mt 2734 2962 L
2698 2926 mt 2698 2998 L
3404 2261 mt 3476 2261 L
3440 2225 mt 3440 2297 L
2235 2545 mt 2307 2545 L
2271 2509 mt 2271 2581 L
3493 1715 mt 3565 1715 L
3529 1679 mt 3529 1751 L
4667 2453 mt 4739 2453 L
4703 2417 mt 4703 2489 L
4199 2115 mt 4271 2115 L
4235 2079 mt 4235 2151 L
3706 3206 mt 3778 3206 L
3742 3170 mt 3742 3242 L
3555 4131 mt 3627 4131 L
3591 4095 mt 3591 4167 L
3421 3314 mt 3493 3314 L
3457 3278 mt 3457 3350 L
3477 3000 mt 3549 3000 L
3513 2964 mt 3513 3036 L
5468 2562 mt 5540 2562 L
5504 2526 mt 5504 2598 L
1387 2972 mt 1459 2972 L
1423 2936 mt 1423 3008 L
3855 3405 mt 3927 3405 L
3891 3369 mt 3891 3441 L
2973 2722 mt 3045 2722 L
3009 2686 mt 3009 2758 L
2938 2475 mt 3010 2475 L
2974 2439 mt 2974 2511 L
2888 2180 mt 2960 2180 L
2924 2144 mt 2924 2216 L
2312 3877 mt 2384 3877 L
2348 3841 mt 2348 3913 L
3172 2844 mt 3244 2844 L
3208 2808 mt 3208 2880 L
1674 2125 mt 1746 2125 L
1710 2089 mt 1710 2161 L
2740 1966 mt 2812 1966 L
2776 1930 mt 2776 2002 L
2575 1434 mt 2647 1434 L
2611 1398 mt 2611 1470 L
5321 2904 mt 5393 2904 L
5357 2868 mt 5357 2940 L
4259 2051 mt 4331 2051 L
4295 2015 mt 4295 2087 L
4314 3425 mt 4386 3425 L
4350 3389 mt 4350 3461 L
4338 2279 mt 4410 2279 L
4374 2243 mt 4374 2315 L
3809 2593 mt 3881 2593 L
3845 2557 mt 3845 2629 L
4047 2497 mt 4119 2497 L
4083 2461 mt 4083 2533 L
2813 2854 mt 2885 2854 L
2849 2818 mt 2849 2890 L
2924 2488 mt 2996 2488 L
2960 2452 mt 2960 2524 L
3838 3331 mt 3910 3331 L
3874 3295 mt 3874 3367 L
3689 2170 mt 3761 2170 L
3725 2134 mt 3725 2206 L
2634 2329 mt 2706 2329 L
2670 2293 mt 2670 2365 L
2805 3980 mt 2877 3980 L
2841 3944 mt 2841 4016 L
4067 3540 mt 4139 3540 L
4103 3504 mt 4103 3576 L
3302 1898 mt 3374 1898 L
3338 1862 mt 3338 1934 L
2490 2145 mt 2562 2145 L
2526 2109 mt 2526 2181 L
4608 2946 mt 4680 2946 L
4644 2910 mt 4644 2982 L
4206 3198 mt 4278 3198 L
4242 3162 mt 4242 3234 L
2555 2700 mt 2627 2700 L
2591 2664 mt 2591 2736 L
4407 2288 mt 4479 2288 L
4443 2252 mt 4443 2324 L
3780 2062 mt 3852 2062 L
3816 2026 mt 3816 2098 L
4041 2646 mt 4113 2646 L
4077 2610 mt 4077 2682 L
3364 1476 mt 3436 1476 L
3400 1440 mt 3400 1512 L
4080 3112 mt 4152 3112 L
4116 3076 mt 4116 3148 L
2355 2830 mt 2427 2830 L
2391 2794 mt 2391 2866 L
2749 2736 mt 2821 2736 L
2785 2700 mt 2785 2772 L
3376 1502 mt 3448 1502 L
3412 1466 mt 3412 1538 L
4522 3446 mt 4594 3446 L
4558 3410 mt 4558 3482 L
3734 1634 mt 3806 1634 L
3770 1598 mt 3770 1670 L
3599 2745 mt 3671 2745 L
3635 2709 mt 3635 2781 L
2874 3774 mt 2946 3774 L
2910 3738 mt 2910 3810 L
1876 3257 mt 1948 3257 L
1912 3221 mt 1912 3293 L
3803 2806 mt 3875 2806 L
3839 2770 mt 3839 2842 L
4453 2432 mt 4525 2432 L
4489 2396 mt 4489 2468 L
3059 1121 mt 3131 1121 L
3095 1085 mt 3095 1157 L
4191 1917 mt 4263 1917 L
4227 1881 mt 4227 1953 L
3946 3553 mt 4018 3553 L
3982 3517 mt 3982 3589 L
3521 2935 mt 3593 2935 L
3557 2899 mt 3557 2971 L
3319 2194 mt 3391 2194 L
3355 2158 mt 3355 2230 L
3577 3415 mt 3649 3415 L
3613 3379 mt 3613 3451 L
2706 3164 mt 2778 3164 L
2742 3128 mt 2742 3200 L
2146 1489 mt 2218 1489 L
2182 1453 mt 2182 1525 L
3996 2584 mt 4068 2584 L
4032 2548 mt 4032 2620 L
3208 1388 mt 3280 1388 L
3244 1352 mt 3244 1424 L
2723 4616 mt 2795 4616 L
2759 4580 mt 2759 4652 L
2282 1643 mt 2354 1643 L
2318 1607 mt 2318 1679 L
3141 2392 mt 3213 2392 L
3177 2356 mt 3177 2428 L
3353 2440 mt 3425 2440 L
3389 2404 mt 3389 2476 L
3560 1885 mt 3632 1885 L
3596 1849 mt 3596 1921 L
3307 2727 mt 3379 2727 L
3343 2691 mt 3343 2763 L
3616 2567 mt 3688 2567 L
3652 2531 mt 3652 2603 L
3649 2571 mt 3721 2571 L
3685 2535 mt 3685 2607 L
gs 899 414 5363 4203 rc
gr

0 sg
2795 5104 mt 
(\(F,DCTb,iMLP\)) s
 482 3277 mt  -90 rotate
(\(S,SSC,GMM\)) s
90 rotate
2975  223 mt 
(Corr = 0.01) s

end %%Color Dict

eplot
%%EndObject

epage
end

showpage

%%Trailer
%%EOF
