%!PS-Adobe-3.0 EPSF-3.0
%%Creator: MATLAB, The Mathworks, Inc.
%%Title: Pictures\main_arun_global_transform_density_1.eps
%%CreationDate: 01/26/2009  17:57:02
%%DocumentNeededFonts: Helvetica
%%DocumentProcessColors: Cyan Magenta Yellow Black
%%LanguageLevel: 2
%%Pages: 1
%%BoundingBox:    58   199   550   602
%%EndComments

%%BeginProlog
% MathWorks dictionary
/MathWorks 160 dict begin
% definition operators
/bdef {bind def} bind def
/ldef {load def} bind def
/xdef {exch def} bdef
/xstore {exch store} bdef
% operator abbreviations
/c  /clip ldef
/cc /concat ldef
/cp /closepath ldef
/gr /grestore ldef
/gs /gsave ldef
/mt /moveto ldef
/np /newpath ldef
/cm /currentmatrix ldef
/sm /setmatrix ldef
/rm /rmoveto ldef
/rl /rlineto ldef
/s {show newpath} bdef
/sc {setcmykcolor} bdef
/sr /setrgbcolor ldef
/sg /setgray ldef
/w /setlinewidth ldef
/j /setlinejoin ldef
/cap /setlinecap ldef
/rc {rectclip} bdef
/rf {rectfill} bdef
% page state control
/pgsv () def
/bpage {/pgsv save def} bdef
/epage {pgsv restore} bdef
/bplot /gsave ldef
/eplot {stroke grestore} bdef
% orientation switch
/portraitMode 0 def /landscapeMode 1 def /rotateMode 2 def
% coordinate system mappings
/dpi2point 0 def
% font control
/FontSize 0 def
/FMS {/FontSize xstore findfont [FontSize 0 0 FontSize neg 0 0]
  makefont setfont} bdef
/ISOLatin1Encoding where {pop /WindowsLatin1Encoding 256 array bdef
ISOLatin1Encoding WindowsLatin1Encoding copy pop
/.notdef/.notdef/quotesinglbase/florin/quotedblbase/ellipsis/dagger
/daggerdbl/circumflex/perthousand/Scaron/guilsinglleft/OE/.notdef/.notdef
/.notdef/.notdef/quoteleft/quoteright/quotedblleft/quotedblright/bullet
/endash/emdash/tilde/trademark/scaron/guilsinglright/oe/.notdef/.notdef
/Ydieresis WindowsLatin1Encoding 128 32 getinterval astore pop}
{/WindowsLatin1Encoding StandardEncoding bdef} ifelse
/reencode {exch dup where {pop load} {pop StandardEncoding} ifelse
  exch dup 3 1 roll findfont dup length dict begin
  { 1 index /FID ne {def}{pop pop} ifelse } forall
  /Encoding exch def currentdict end definefont pop} bdef
/isroman {findfont /CharStrings get /Agrave known} bdef
/FMSR {3 1 roll 1 index dup isroman {reencode} {pop pop} ifelse
  exch FMS} bdef
/csm {1 dpi2point div -1 dpi2point div scale neg translate
 dup landscapeMode eq {pop -90 rotate}
  {rotateMode eq {90 rotate} if} ifelse} bdef
% line types: solid, dotted, dashed, dotdash
/SO { [] 0 setdash } bdef
/DO { [.5 dpi2point mul 4 dpi2point mul] 0 setdash } bdef
/DA { [6 dpi2point mul] 0 setdash } bdef
/DD { [.5 dpi2point mul 4 dpi2point mul 6 dpi2point mul 4
  dpi2point mul] 0 setdash } bdef
% macros for lines and objects
/L {lineto stroke} bdef
/MP {3 1 roll moveto 1 sub {rlineto} repeat} bdef
/AP {{rlineto} repeat} bdef
/PDlw -1 def
/W {/PDlw currentlinewidth def setlinewidth} def
/PP {closepath eofill} bdef
/DP {closepath stroke} bdef
/MR {4 -2 roll moveto dup  0 exch rlineto exch 0 rlineto
  neg 0 exch rlineto closepath} bdef
/FR {MR stroke} bdef
/PR {MR fill} bdef
/L1i {{currentfile picstr readhexstring pop} image} bdef
/tMatrix matrix def
/MakeOval {newpath tMatrix currentmatrix pop translate scale
0 0 1 0 360 arc tMatrix setmatrix} bdef
/FO {MakeOval stroke} bdef
/PO {MakeOval fill} bdef
/PD {currentlinewidth 2 div 0 360 arc fill
   PDlw -1 eq not {PDlw w /PDlw -1 def} if} def
/FA {newpath tMatrix currentmatrix pop translate scale
  0 0 1 5 -2 roll arc tMatrix setmatrix stroke} bdef
/PA {newpath tMatrix currentmatrix pop	translate 0 0 moveto scale
  0 0 1 5 -2 roll arc closepath tMatrix setmatrix fill} bdef
/FAn {newpath tMatrix currentmatrix pop translate scale
  0 0 1 5 -2 roll arcn tMatrix setmatrix stroke} bdef
/PAn {newpath tMatrix currentmatrix pop translate 0 0 moveto scale
  0 0 1 5 -2 roll arcn closepath tMatrix setmatrix fill} bdef
/vradius 0 def /hradius 0 def /lry 0 def
/lrx 0 def /uly 0 def /ulx 0 def /rad 0 def
/MRR {/vradius xdef /hradius xdef /lry xdef /lrx xdef /uly xdef
  /ulx xdef newpath tMatrix currentmatrix pop ulx hradius add uly
  vradius add translate hradius vradius scale 0 0 1 180 270 arc 
  tMatrix setmatrix lrx hradius sub uly vradius add translate
  hradius vradius scale 0 0 1 270 360 arc tMatrix setmatrix
  lrx hradius sub lry vradius sub translate hradius vradius scale
  0 0 1 0 90 arc tMatrix setmatrix ulx hradius add lry vradius sub
  translate hradius vradius scale 0 0 1 90 180 arc tMatrix setmatrix
  closepath} bdef
/FRR {MRR stroke } bdef
/PRR {MRR fill } bdef
/MlrRR {/lry xdef /lrx xdef /uly xdef /ulx xdef /rad lry uly sub 2 div def
  newpath tMatrix currentmatrix pop ulx rad add uly rad add translate
  rad rad scale 0 0 1 90 270 arc tMatrix setmatrix lrx rad sub lry rad
  sub translate rad rad scale 0 0 1 270 90 arc tMatrix setmatrix
  closepath} bdef
/FlrRR {MlrRR stroke } bdef
/PlrRR {MlrRR fill } bdef
/MtbRR {/lry xdef /lrx xdef /uly xdef /ulx xdef /rad lrx ulx sub 2 div def
  newpath tMatrix currentmatrix pop ulx rad add uly rad add translate
  rad rad scale 0 0 1 180 360 arc tMatrix setmatrix lrx rad sub lry rad
  sub translate rad rad scale 0 0 1 0 180 arc tMatrix setmatrix
  closepath} bdef
/FtbRR {MtbRR stroke } bdef
/PtbRR {MtbRR fill } bdef
/stri 6 array def /dtri 6 array def
/smat 6 array def /dmat 6 array def
/tmat1 6 array def /tmat2 6 array def /dif 3 array def
/asub {/ind2 exch def /ind1 exch def dup dup
  ind1 get exch ind2 get sub exch } bdef
/tri_to_matrix {
  2 0 asub 3 1 asub 4 0 asub 5 1 asub
  dup 0 get exch 1 get 7 -1 roll astore } bdef
/compute_transform {
  dmat dtri tri_to_matrix tmat1 invertmatrix 
  smat stri tri_to_matrix tmat2 concatmatrix } bdef
/ds {stri astore pop} bdef
/dt {dtri astore pop} bdef
/db {2 copy /cols xdef /rows xdef mul dup 3 mul string
  currentfile 
  3 index 0 eq {/ASCIIHexDecode filter}
  {/ASCII85Decode filter 3 index 2 eq {/RunLengthDecode filter} if }
  ifelse exch readstring pop
  dup 0 3 index getinterval /rbmap xdef
  dup 2 index dup getinterval /gbmap xdef
  1 index dup 2 mul exch getinterval /bbmap xdef pop pop}bdef
/it {gs np dtri aload pop moveto lineto lineto cp c
  cols rows 8 compute_transform 
  rbmap gbmap bbmap true 3 colorimage gr}bdef
/il {newpath moveto lineto stroke}bdef
currentdict end def
%%EndProlog

%%BeginSetup
MathWorks begin

0 cap

end
%%EndSetup

%%Page: 1 1
%%BeginPageSetup
%%PageBoundingBox:    58   199   550   602
MathWorks begin
bpage
%%EndPageSetup

%%BeginObject: obj1
bplot

/dpi2point 12 def
portraitMode 0216 7344 csm

  480   110  5913  4846 rc
85 dict begin %Colortable dictionary
/c0 { 0.000000 0.000000 0.000000 sr} bdef
/c1 { 1.000000 1.000000 1.000000 sr} bdef
/c2 { 0.900000 0.000000 0.000000 sr} bdef
/c3 { 0.000000 0.820000 0.000000 sr} bdef
/c4 { 0.000000 0.000000 0.800000 sr} bdef
/c5 { 0.910000 0.820000 0.320000 sr} bdef
/c6 { 1.000000 0.260000 0.820000 sr} bdef
/c7 { 0.000000 0.820000 0.820000 sr} bdef
c0
1 j
1 sg
   0    0 6919 5187 rf
6 w
0 1769 5362 0 0 -1769 899 2158 4 MP
PP
-5362 0 0 1769 5362 0 0 -1769 899 2158 5 MP stroke
4 w
DO
SO
6 w
0 sg
 899  389 mt 6261  389 L
 899 2158 mt 6261 2158 L
6261 2158 mt 6261  389 L
 899 2158 mt  899  389 L
 899 2158 mt 6261 2158 L
 899 2158 mt  899  389 L
 899 2158 mt  899 2104 L
 899  389 mt  899  442 L
%%IncludeResource: font Helvetica
/Helvetica /WindowsLatin1Encoding 120 FMSR

 746 2303 mt 
(-1.5) s
1792 2158 mt 1792 2104 L
1792  389 mt 1792  442 L
1689 2303 mt 
(-1) s
2686 2158 mt 2686 2104 L
2686  389 mt 2686  442 L
2533 2303 mt 
(-0.5) s
3580 2158 mt 3580 2104 L
3580  389 mt 3580  442 L
3547 2303 mt 
(0) s
4473 2158 mt 4473 2104 L
4473  389 mt 4473  442 L
4390 2303 mt 
(0.5) s
5367 2158 mt 5367 2104 L
5367  389 mt 5367  442 L
5334 2303 mt 
(1) s
6261 2158 mt 6261 2104 L
6261  389 mt 6261  442 L
6178 2303 mt 
(1.5) s
 899 2158 mt  952 2158 L
6261 2158 mt 6207 2158 L
 798 2202 mt 
(0) s
 899 1863 mt  952 1863 L
6261 1863 mt 6207 1863 L
 798 1907 mt 
(2) s
 899 1568 mt  952 1568 L
6261 1568 mt 6207 1568 L
 798 1612 mt 
(4) s
 899 1273 mt  952 1273 L
6261 1273 mt 6207 1273 L
 798 1317 mt 
(6) s
 899  978 mt  952  978 L
6261  978 mt 6207  978 L
 798 1022 mt 
(8) s
 899  683 mt  952  683 L
6261  683 mt 6207  683 L
 731  727 mt 
(10) s
 899  389 mt  952  389 L
6261  389 mt 6207  389 L
 731  433 mt 
(12) s
 899  389 mt 6261  389 L
 899 2158 mt 6261 2158 L
6261 2158 mt 6261  389 L
 899 2158 mt  899  389 L
gs 899 389 5363 1770 rc
/c8 { 0.000000 0.000000 1.000000 sr} bdef
c8
40 1 39 4 39 14 39 34 39 69 39 109 39 133 39 120 
39 68 40 -4 39 -62 39 -88 39 -81 39 -56 39 -31 39 -17 
39 -16 39 -21 39 -27 40 -27 39 -22 39 -13 39 -8 39 -7 
39 -8 39 -8 39 -4 39 -2 39 -2 40 -2 39 -5 39 -6 
39 -7 39 -5 39 -1 39 1 39 3 39 2 39 2 40 0 
39 0 39 0 39 1 39 0 39 -1 39 -3 39 -4 39 -3 
40 -2 39 -1 39 -1 39 -2 39 -2 39 0 39 0 39 0 
39 2 39 2 40 3 39 1 39 0 39 -3 39 -3 39 -1 
39 0 39 1 39 2 39 1 40 1 39 -1 39 -3 39 -3 
39 -2 39 1 39 4 39 7 39 6 39 3 40 -4 39 -6 
39 -7 39 -5 39 -3 39 -1 39 -1 39 0 39 0 39 1 
40 0 39 1 39 1 39 0 39 0 39 -1 39 -2 39 -2 
39 -1 40 0 39 0 1652 2157 100 MP stroke
DA
36 0 37 0 36 0 36 0 37 0 36 0 36 0 37 0 
36 0 36 0 37 0 36 0 36 0 36 0 37 0 36 0 
36 0 37 0 36 0 36 0 37 0 36 0 36 1 37 -1 
36 0 36 1 37 0 36 -1 36 1 37 0 36 -1 36 1 
37 0 36 0 36 0 37 0 36 0 36 0 37 0 36 -1 
36 1 36 1 37 -1 36 0 36 2 37 -2 36 2 36 -1 
37 0 36 0 36 0 37 0 36 0 36 1 37 1 36 0 
36 -1 37 1 36 1 36 -1 37 1 36 0 36 0 37 2 
36 0 36 -1 37 2 36 -1 36 0 36 1 37 1 36 3 
36 1 37 1 36 -1 36 4 37 3 36 1 36 2 37 3 
36 7 36 3 37 6 36 7 36 6 37 13 36 14 36 20 
37 22 36 42 36 53 37 82 36 145 36 241 37 322 36 371 
36 167 36 -973 37 -574 1767 2157 100 MP stroke
gr

c8
DA
0 sg
 649 1474 mt  -90 rotate
(Density) s
90 rotate
3392 2446 mt 
(Scores) s
3411  294 mt 
(before) s
SO
1 sg
0 1770 5362 0 0 -1770 899 4616 4 MP
PP
-5362 0 0 1770 5362 0 0 -1770 899 4616 5 MP stroke
4 w
DO
SO
6 w
0 sg
 899 2846 mt 6261 2846 L
 899 4616 mt 6261 4616 L
6261 4616 mt 6261 2846 L
 899 4616 mt  899 2846 L
 899 4616 mt 6261 4616 L
 899 4616 mt  899 2846 L
 899 4616 mt  899 4562 L
 899 2846 mt  899 2899 L
 763 4761 mt 
(-10) s
1569 4616 mt 1569 4562 L
1569 2846 mt 1569 2899 L
1466 4761 mt 
(-8) s
2239 4616 mt 2239 4562 L
2239 2846 mt 2239 2899 L
2136 4761 mt 
(-6) s
2909 4616 mt 2909 4562 L
2909 2846 mt 2909 2899 L
2806 4761 mt 
(-4) s
3580 4616 mt 3580 4562 L
3580 2846 mt 3580 2899 L
3477 4761 mt 
(-2) s
4250 4616 mt 4250 4562 L
4250 2846 mt 4250 2899 L
4217 4761 mt 
(0) s
4920 4616 mt 4920 4562 L
4920 2846 mt 4920 2899 L
4887 4761 mt 
(2) s
5590 4616 mt 5590 4562 L
5590 2846 mt 5590 2899 L
5557 4761 mt 
(4) s
6261 4616 mt 6261 4562 L
6261 2846 mt 6261 2899 L
6228 4761 mt 
(6) s
 899 4616 mt  952 4616 L
6261 4616 mt 6207 4616 L
 798 4660 mt 
(0) s
 899 4262 mt  952 4262 L
6261 4262 mt 6207 4262 L
 698 4306 mt 
(0.1) s
 899 3908 mt  952 3908 L
6261 3908 mt 6207 3908 L
 698 3952 mt 
(0.2) s
 899 3554 mt  952 3554 L
6261 3554 mt 6207 3554 L
 698 3598 mt 
(0.3) s
 899 3200 mt  952 3200 L
6261 3200 mt 6207 3200 L
 698 3244 mt 
(0.4) s
 899 2846 mt  952 2846 L
6261 2846 mt 6207 2846 L
 698 2890 mt 
(0.5) s
 899 2846 mt 6261 2846 L
 899 4616 mt 6261 4616 L
6261 4616 mt 6261 2846 L
 899 4616 mt  899 2846 L
gs 899 2846 5363 1771 rc
c8
32 0 31 2 32 2 31 5 32 8 31 12 31 18 32 25 
31 33 32 47 31 64 31 90 32 120 31 153 32 182 31 201 
32 204 31 191 31 161 32 116 31 61 32 7 31 -44 32 -82 
31 -103 31 -107 32 -95 31 -76 32 -56 31 -46 32 -45 31 -55 
31 -68 32 -79 31 -83 32 -79 31 -71 31 -62 32 -53 31 -46 
32 -39 31 -33 32 -25 31 -17 31 -11 32 -8 31 -10 32 -14 
31 -18 32 -21 31 -22 31 -19 32 -14 31 -10 32 -7 31 -5 
31 -5 32 -7 31 -6 32 -7 31 -5 32 -2 31 0 31 1 
32 0 31 -5 32 -13 31 -18 32 -22 31 -22 31 -19 32 -15 
31 -10 32 -5 31 -3 32 -1 31 -1 31 -2 32 -1 31 -2 
32 -1 31 1 31 1 32 3 31 2 32 3 31 1 32 0 
31 0 31 -2 32 -3 31 -3 32 -3 31 -3 32 -2 31 -2 
31 -1 32 0 31 0 2731 4615 100 MP stroke
DA
45 0 44 0 44 0 45 0 44 0 45 0 44 0 45 0 
44 0 45 0 44 0 45 0 44 0 44 0 45 0 44 0 
45 0 44 0 45 0 44 0 45 0 44 0 45 1 44 1 
45 0 44 1 44 0 45 0 44 2 45 2 44 2 45 2 
44 2 45 2 44 1 45 5 44 7 45 3 44 5 44 9 
45 8 44 9 45 10 44 6 45 16 44 23 45 20 44 25 
45 32 44 42 44 42 45 46 44 55 45 69 44 70 45 96 
44 106 45 120 44 150 45 154 44 169 45 156 44 82 44 16 
45 -1 44 -39 45 -90 44 -108 45 -132 44 -137 45 -131 44 -131 
45 -134 44 -122 45 -96 44 -82 44 -79 45 -66 44 -51 45 -37 
44 -34 45 -25 44 -14 45 -16 44 -13 45 -9 44 -5 44 -4 
45 -5 44 -2 45 -1 44 -1 45 -1 44 0 45 -1 44 0 
45 0 44 0 45 0 1539 4615 100 MP stroke
gr

c8
DA
0 sg
 616 3932 mt  -90 rotate
(Density) s
90 rotate
3392 4904 mt 
(Scores) s
3459 2751 mt 
(after) s
SO

end %%Color Dict

eplot
%%EndObject

epage
end

showpage

%%Trailer
%%EOF
