%!PS-Adobe-3.0 EPSF-3.0
%%Creator: MATLAB, The Mathworks, Inc. Version 7.7.0.471 (R2008b). Operating System: Microsoft Windows XP.
%%Title: Pictures\main_zoo_mvar_analysis_data_BMI_xcorr_bmi_p1_k2_5_6.eps
%%CreationDate: 10/26/2009  05:44:30
%%DocumentNeededFonts: Helvetica
%%DocumentProcessColors: Cyan Magenta Yellow Black
%%LanguageLevel: 2
%%Pages: 1
%%BoundingBox:    32   180   546   616
%%EndComments

%%BeginProlog
% MathWorks dictionary
/MathWorks 160 dict begin
% definition operators
/bdef {bind def} bind def
/ldef {load def} bind def
/xdef {exch def} bdef
/xstore {exch store} bdef
% operator abbreviations
/c  /clip ldef
/cc /concat ldef
/cp /closepath ldef
/gr /grestore ldef
/gs /gsave ldef
/mt /moveto ldef
/np /newpath ldef
/cm /currentmatrix ldef
/sm /setmatrix ldef
/rm /rmoveto ldef
/rl /rlineto ldef
/s {show newpath} bdef
/sc {setcmykcolor} bdef
/sr /setrgbcolor ldef
/sg /setgray ldef
/w /setlinewidth ldef
/j /setlinejoin ldef
/cap /setlinecap ldef
/rc {rectclip} bdef
/rf {rectfill} bdef
% page state control
/pgsv () def
/bpage {/pgsv save def} bdef
/epage {pgsv restore} bdef
/bplot /gsave ldef
/eplot {stroke grestore} bdef
% orientation switch
/portraitMode 0 def /landscapeMode 1 def /rotateMode 2 def
% coordinate system mappings
/dpi2point 0 def
% font control
/FontSize 0 def
/FMS {/FontSize xstore findfont [FontSize 0 0 FontSize neg 0 0]
  makefont setfont} bdef
/ISOLatin1Encoding where {pop /WindowsLatin1Encoding 256 array bdef
ISOLatin1Encoding WindowsLatin1Encoding copy pop
/.notdef/.notdef/quotesinglbase/florin/quotedblbase/ellipsis/dagger
/daggerdbl/circumflex/perthousand/Scaron/guilsinglleft/OE/.notdef/.notdef
/.notdef/.notdef/quoteleft/quoteright/quotedblleft/quotedblright/bullet
/endash/emdash/tilde/trademark/scaron/guilsinglright/oe/.notdef/.notdef
/Ydieresis WindowsLatin1Encoding 128 32 getinterval astore pop}
{/WindowsLatin1Encoding StandardEncoding bdef} ifelse
/reencode {exch dup where {pop load} {pop StandardEncoding} ifelse
  exch dup 3 1 roll findfont dup length dict begin
  { 1 index /FID ne {def}{pop pop} ifelse } forall
  /Encoding exch def currentdict end definefont pop} bdef
/isroman {findfont /CharStrings get /Agrave known} bdef
/FMSR {3 1 roll 1 index dup isroman {reencode} {pop pop} ifelse
  exch FMS} bdef
/csm {1 dpi2point div -1 dpi2point div scale neg translate
 dup landscapeMode eq {pop -90 rotate}
  {rotateMode eq {90 rotate} if} ifelse} bdef
% line types: solid, dotted, dashed, dotdash
/SO { [] 0 setdash } bdef
/DO { [.5 dpi2point mul 4 dpi2point mul] 0 setdash } bdef
/DA { [6 dpi2point mul] 0 setdash } bdef
/DD { [.5 dpi2point mul 4 dpi2point mul 6 dpi2point mul 4
  dpi2point mul] 0 setdash } bdef
% macros for lines and objects
/L {lineto stroke} bdef
/MP {3 1 roll moveto 1 sub {rlineto} repeat} bdef
/AP {{rlineto} repeat} bdef
/PDlw -1 def
/W {/PDlw currentlinewidth def setlinewidth} def
/PP {closepath eofill} bdef
/DP {closepath stroke} bdef
/MR {4 -2 roll moveto dup  0 exch rlineto exch 0 rlineto
  neg 0 exch rlineto closepath} bdef
/FR {MR stroke} bdef
/PR {MR fill} bdef
/L1i {{currentfile picstr readhexstring pop} image} bdef
/tMatrix matrix def
/MakeOval {newpath tMatrix currentmatrix pop translate scale
0 0 1 0 360 arc tMatrix setmatrix} bdef
/FO {MakeOval stroke} bdef
/PO {MakeOval fill} bdef
/PD {currentlinewidth 2 div 0 360 arc fill
   PDlw -1 eq not {PDlw w /PDlw -1 def} if} def
/FA {newpath tMatrix currentmatrix pop translate scale
  0 0 1 5 -2 roll arc tMatrix setmatrix stroke} bdef
/PA {newpath tMatrix currentmatrix pop	translate 0 0 moveto scale
  0 0 1 5 -2 roll arc closepath tMatrix setmatrix fill} bdef
/FAn {newpath tMatrix currentmatrix pop translate scale
  0 0 1 5 -2 roll arcn tMatrix setmatrix stroke} bdef
/PAn {newpath tMatrix currentmatrix pop translate 0 0 moveto scale
  0 0 1 5 -2 roll arcn closepath tMatrix setmatrix fill} bdef
/vradius 0 def /hradius 0 def /lry 0 def
/lrx 0 def /uly 0 def /ulx 0 def /rad 0 def
/MRR {/vradius xdef /hradius xdef /lry xdef /lrx xdef /uly xdef
  /ulx xdef newpath tMatrix currentmatrix pop ulx hradius add uly
  vradius add translate hradius vradius scale 0 0 1 180 270 arc 
  tMatrix setmatrix lrx hradius sub uly vradius add translate
  hradius vradius scale 0 0 1 270 360 arc tMatrix setmatrix
  lrx hradius sub lry vradius sub translate hradius vradius scale
  0 0 1 0 90 arc tMatrix setmatrix ulx hradius add lry vradius sub
  translate hradius vradius scale 0 0 1 90 180 arc tMatrix setmatrix
  closepath} bdef
/FRR {MRR stroke } bdef
/PRR {MRR fill } bdef
/MlrRR {/lry xdef /lrx xdef /uly xdef /ulx xdef /rad lry uly sub 2 div def
  newpath tMatrix currentmatrix pop ulx rad add uly rad add translate
  rad rad scale 0 0 1 90 270 arc tMatrix setmatrix lrx rad sub lry rad
  sub translate rad rad scale 0 0 1 270 90 arc tMatrix setmatrix
  closepath} bdef
/FlrRR {MlrRR stroke } bdef
/PlrRR {MlrRR fill } bdef
/MtbRR {/lry xdef /lrx xdef /uly xdef /ulx xdef /rad lrx ulx sub 2 div def
  newpath tMatrix currentmatrix pop ulx rad add uly rad add translate
  rad rad scale 0 0 1 180 360 arc tMatrix setmatrix lrx rad sub lry rad
  sub translate rad rad scale 0 0 1 0 180 arc tMatrix setmatrix
  closepath} bdef
/FtbRR {MtbRR stroke } bdef
/PtbRR {MtbRR fill } bdef
/stri 6 array def /dtri 6 array def
/smat 6 array def /dmat 6 array def
/tmat1 6 array def /tmat2 6 array def /dif 3 array def
/asub {/ind2 exch def /ind1 exch def dup dup
  ind1 get exch ind2 get sub exch } bdef
/tri_to_matrix {
  2 0 asub 3 1 asub 4 0 asub 5 1 asub
  dup 0 get exch 1 get 7 -1 roll astore } bdef
/compute_transform {
  dmat dtri tri_to_matrix tmat1 invertmatrix 
  smat stri tri_to_matrix tmat2 concatmatrix } bdef
/ds {stri astore pop} bdef
/dt {dtri astore pop} bdef
/db {2 copy /cols xdef /rows xdef mul dup 3 mul string
  currentfile 
  3 index 0 eq {/ASCIIHexDecode filter}
  {/ASCII85Decode filter 3 index 2 eq {/RunLengthDecode filter} if }
  ifelse exch readstring pop
  dup 0 3 index getinterval /rbmap xdef
  dup 2 index dup getinterval /gbmap xdef
  1 index dup 2 mul exch getinterval /bbmap xdef pop pop}bdef
/it {gs np dtri aload pop moveto lineto lineto cp c
  cols rows 8 compute_transform 
  rbmap gbmap bbmap true 3 colorimage gr}bdef
/il {newpath moveto lineto stroke}bdef
currentdict end def
%%EndProlog

%%BeginSetup
MathWorks begin

0 cap

end
%%EndSetup

%%Page: 1 1
%%BeginPageSetup
%%PageBoundingBox:    32   180   546   616
MathWorks begin
bpage
%%EndPageSetup

%%BeginObject: obj1
bplot

/dpi2point 12 def
portraitMode 0216 7344 csm

  174   -48  6173  5231 rc
85 dict begin %Colortable dictionary
/c0 { 0.000000 0.000000 0.000000 sr} bdef
/c1 { 1.000000 1.000000 1.000000 sr} bdef
/c2 { 0.900000 0.000000 0.000000 sr} bdef
/c3 { 0.000000 0.820000 0.000000 sr} bdef
/c4 { 0.000000 0.000000 0.800000 sr} bdef
/c5 { 0.910000 0.820000 0.320000 sr} bdef
/c6 { 1.000000 0.260000 0.820000 sr} bdef
/c7 { 0.000000 0.820000 0.820000 sr} bdef
c0
1 j
1 sg
   0    0 6919 5187 rf
6 w
0 4203 5362 0 0 -4203 899 4616 4 MP
PP
-5362 0 0 4203 5362 0 0 -4203 899 4616 5 MP stroke
4 w
DO
SO
6 w
0 sg
 899  413 mt 6261  413 L
 899 4616 mt 6261 4616 L
6261 4616 mt 6261  413 L
 899 4616 mt  899  413 L
 899 4616 mt 6261 4616 L
 899 4616 mt  899  413 L
1971 4616 mt 1971 4562 L
1971  414 mt 1971  467 L
%%IncludeResource: font Helvetica
/Helvetica /WindowsLatin1Encoding 240 FMSR

1805 4873 mt 
(0.2) s
3043 4616 mt 3043 4562 L
3043  414 mt 3043  467 L
2877 4873 mt 
(0.4) s
4116 4616 mt 4116 4562 L
4116  414 mt 4116  467 L
3950 4873 mt 
(0.6) s
5188 4616 mt 5188 4562 L
5188  414 mt 5188  467 L
5022 4873 mt 
(0.8) s
 899 4195 mt  952 4195 L
6261 4195 mt 6207 4195 L
 531 4284 mt 
(0.1) s
 899 3775 mt  952 3775 L
6261 3775 mt 6207 3775 L
 531 3864 mt 
(0.2) s
 899 3355 mt  952 3355 L
6261 3355 mt 6207 3355 L
 531 3444 mt 
(0.3) s
 899 2935 mt  952 2935 L
6261 2935 mt 6207 2935 L
 531 3024 mt 
(0.4) s
 899 2514 mt  952 2514 L
6261 2514 mt 6207 2514 L
 531 2603 mt 
(0.5) s
 899 2094 mt  952 2094 L
6261 2094 mt 6207 2094 L
 531 2183 mt 
(0.6) s
 899 1674 mt  952 1674 L
6261 1674 mt 6207 1674 L
 531 1763 mt 
(0.7) s
 899 1254 mt  952 1254 L
6261 1254 mt 6207 1254 L
 531 1343 mt 
(0.8) s
 899  834 mt  952  834 L
6261  834 mt 6207  834 L
 531  923 mt 
(0.9) s
 899  413 mt 6261  413 L
 899 4616 mt 6261 4616 L
6261 4616 mt 6261  413 L
 899 4616 mt  899  413 L
gs 899 414 5363 4203 rc
gr

/c8 { 0.000000 0.000000 1.000000 sr} bdef
c8
5516 2424 mt 5588 2424 L
5552 2388 mt 5552 2460 L
4175 2741 mt 4247 2741 L
4211 2705 mt 4211 2777 L
5908 1245 mt 5980 1245 L
5944 1209 mt 5944 1281 L
4558 2758 mt 4630 2758 L
4594 2722 mt 4594 2794 L
4872 1027 mt 4944 1027 L
4908  991 mt 4908 1063 L
6093  975 mt 6165  975 L
6129  939 mt 6129 1011 L
1262 4000 mt 1334 4000 L
1298 3964 mt 1298 4036 L
1855 3958 mt 1927 3958 L
1891 3922 mt 1891 3994 L
1315 4500 mt 1387 4500 L
1351 4464 mt 1351 4536 L
6218  446 mt 6290  446 L
6254  410 mt 6254  482 L
1008 4382 mt 1080 4382 L
1044 4346 mt 1044 4418 L
5320 2118 mt 5392 2118 L
5356 2082 mt 5356 2154 L
6172  637 mt 6244  637 L
6208  601 mt 6208  673 L
5163 2248 mt 5235 2248 L
5199 2212 mt 5199 2284 L
6216  470 mt 6288  470 L
6252  434 mt 6252  506 L
2774 4570 mt 2846 4570 L
2810 4534 mt 2810 4606 L
3773 3955 mt 3845 3955 L
3809 3919 mt 3809 3991 L
4689 2512 mt 4761 2512 L
4725 2476 mt 4725 2548 L
3774 3773 mt 3846 3773 L
3810 3737 mt 3810 3809 L
4101 1864 mt 4173 1864 L
4137 1828 mt 4137 1900 L
4849 2734 mt 4921 2734 L
4885 2698 mt 4885 2770 L
5381  886 mt 5453  886 L
5417  850 mt 5417  922 L
1840 3611 mt 1912 3611 L
1876 3575 mt 1876 3647 L
5103 2120 mt 5175 2120 L
5139 2084 mt 5139 2156 L
6220  437 mt 6292  437 L
6256  401 mt 6256  473 L
6089  471 mt 6161  471 L
6125  435 mt 6125  507 L
4432 2997 mt 4504 2997 L
4468 2961 mt 4468 3033 L
6180  581 mt 6252  581 L
6216  545 mt 6216  617 L
1396 4576 mt 1468 4576 L
1432 4540 mt 1432 4612 L
1533 4551 mt 1605 4551 L
1569 4515 mt 1569 4587 L
5072  852 mt 5144  852 L
5108  816 mt 5108  888 L
1230 3814 mt 1302 3814 L
1266 3778 mt 1266 3850 L
1073 4524 mt 1145 4524 L
1109 4488 mt 1109 4560 L
4145 1588 mt 4217 1588 L
4181 1552 mt 4181 1624 L
5840 1374 mt 5912 1374 L
5876 1338 mt 5876 1410 L
1996 3091 mt 2068 3091 L
2032 3055 mt 2032 3127 L
1655 4465 mt 1727 4465 L
1691 4429 mt 1691 4501 L
4295 1305 mt 4367 1305 L
4331 1269 mt 4331 1341 L
5967 1373 mt 6039 1373 L
6003 1337 mt 6003 1409 L
1807 4005 mt 1879 4005 L
1843 3969 mt 1843 4041 L
6070 1050 mt 6142 1050 L
6106 1014 mt 6106 1086 L
6197  597 mt 6269  597 L
6233  561 mt 6233  633 L
6084  893 mt 6156  893 L
6120  857 mt 6120  929 L
4209 1261 mt 4281 1261 L
4245 1225 mt 4245 1297 L
5262 3080 mt 5334 3080 L
5298 3044 mt 5298 3116 L
5866 1754 mt 5938 1754 L
5902 1718 mt 5902 1790 L
2112 3381 mt 2184 3381 L
2148 3345 mt 2148 3417 L
4042 1538 mt 4114 1538 L
4078 1502 mt 4078 1574 L
5291 2469 mt 5363 2469 L
5327 2433 mt 5327 2505 L
6174  428 mt 6246  428 L
6210  392 mt 6210  464 L
3505 4536 mt 3577 4536 L
3541 4500 mt 3541 4572 L
2232 3959 mt 2304 3959 L
2268 3923 mt 2268 3995 L
4995  998 mt 5067  998 L
5031  962 mt 5031 1034 L
3098 4503 mt 3170 4503 L
3134 4467 mt 3134 4539 L
2754 2095 mt 2826 2095 L
2790 2059 mt 2790 2131 L
4457 3109 mt 4529 3109 L
4493 3073 mt 4493 3145 L
1225 3291 mt 1297 3291 L
1261 3255 mt 1261 3327 L
6199  542 mt 6271  542 L
6235  506 mt 6235  578 L
 863 4583 mt  935 4583 L
 899 4547 mt  899 4619 L
6175  636 mt 6247  636 L
6211  600 mt 6211  672 L
4688 2866 mt 4760 2866 L
4724 2830 mt 4724 2902 L
 924 4149 mt  996 4149 L
 960 4113 mt  960 4185 L
5711 1974 mt 5783 1974 L
5747 1938 mt 5747 2010 L
3843 3012 mt 3915 3012 L
3879 2976 mt 3879 3048 L
1217 4217 mt 1289 4217 L
1253 4181 mt 1253 4253 L
6170  747 mt 6242  747 L
6206  711 mt 6206  783 L
3913 3965 mt 3985 3965 L
3949 3929 mt 3949 4001 L
5374 2648 mt 5446 2648 L
5410 2612 mt 5410 2684 L
1539 2497 mt 1611 2497 L
1575 2461 mt 1575 2533 L
2880 3461 mt 2952 3461 L
2916 3425 mt 2916 3497 L
4897 2223 mt 4969 2223 L
4933 2187 mt 4933 2259 L
6193  536 mt 6265  536 L
6229  500 mt 6229  572 L
1081 2914 mt 1153 2914 L
1117 2878 mt 1117 2950 L
2559 2602 mt 2631 2602 L
2595 2566 mt 2595 2638 L
1009 4534 mt 1081 4534 L
1045 4498 mt 1045 4570 L
1589 3062 mt 1661 3062 L
1625 3026 mt 1625 3098 L
3667 3358 mt 3739 3358 L
3703 3322 mt 3703 3394 L
5768 1806 mt 5840 1806 L
5804 1770 mt 5804 1842 L
6113  985 mt 6185  985 L
6149  949 mt 6149 1021 L
 863 4379 mt  935 4379 L
 899 4343 mt  899 4415 L
 872 4531 mt  944 4531 L
 908 4495 mt  908 4567 L
2634 2463 mt 2706 2463 L
2670 2427 mt 2670 2499 L
2737 3774 mt 2809 3774 L
2773 3738 mt 2773 3810 L
5338 1091 mt 5410 1091 L
5374 1055 mt 5374 1127 L
3868 1317 mt 3940 1317 L
3904 1281 mt 3904 1353 L
1754 3575 mt 1826 3575 L
1790 3539 mt 1790 3611 L
4336 3791 mt 4408 3791 L
4372 3755 mt 4372 3827 L
6071 1062 mt 6143 1062 L
6107 1026 mt 6107 1098 L
5725  828 mt 5797  828 L
5761  792 mt 5761  864 L
6075  956 mt 6147  956 L
6111  920 mt 6111  992 L
 911 4610 mt  983 4610 L
 947 4574 mt  947 4646 L
6076 1036 mt 6148 1036 L
6112 1000 mt 6112 1072 L
2058 4503 mt 2130 4503 L
2094 4467 mt 2094 4539 L
2290 3910 mt 2362 3910 L
2326 3874 mt 2326 3946 L
1613 4179 mt 1685 4179 L
1649 4143 mt 1649 4215 L
6209  480 mt 6281  480 L
6245  444 mt 6245  516 L
4512 2609 mt 4584 2609 L
4548 2573 mt 4548 2645 L
 869 4262 mt  941 4262 L
 905 4226 mt  905 4298 L
1153 4427 mt 1225 4427 L
1189 4391 mt 1189 4463 L
6107  877 mt 6179  877 L
6143  841 mt 6143  913 L
6187  614 mt 6259  614 L
6223  578 mt 6223  650 L
6204  503 mt 6276  503 L
6240  467 mt 6240  539 L
3841 1088 mt 3913 1088 L
3877 1052 mt 3877 1124 L
1126 4570 mt 1198 4570 L
1162 4534 mt 1162 4606 L
2730 4172 mt 2802 4172 L
2766 4136 mt 2766 4208 L
6164  691 mt 6236  691 L
6200  655 mt 6200  727 L
5903 1632 mt 5975 1632 L
5939 1596 mt 5939 1668 L
6153  780 mt 6225  780 L
6189  744 mt 6189  816 L
2966 3183 mt 3038 3183 L
3002 3147 mt 3002 3219 L
5485 2220 mt 5557 2220 L
5521 2184 mt 5521 2256 L
6153  730 mt 6225  730 L
6189  694 mt 6189  766 L
5713 1920 mt 5785 1920 L
5749 1884 mt 5749 1956 L
1535 4190 mt 1607 4190 L
1571 4154 mt 1571 4226 L
4873 1164 mt 4945 1164 L
4909 1128 mt 4909 1200 L
1703 4539 mt 1775 4539 L
1739 4503 mt 1739 4575 L
3549 3276 mt 3621 3276 L
3585 3240 mt 3585 3312 L
5931 1369 mt 6003 1369 L
5967 1333 mt 5967 1405 L
6191  588 mt 6263  588 L
6227  552 mt 6227  624 L
3066 3899 mt 3138 3899 L
3102 3863 mt 3102 3935 L
1188 3443 mt 1260 3443 L
1224 3407 mt 1224 3479 L
5208 2155 mt 5280 2155 L
5244 2119 mt 5244 2191 L
4477 1256 mt 4549 1256 L
4513 1220 mt 4513 1292 L
2954 4005 mt 3026 4005 L
2990 3969 mt 2990 4041 L
4238 4158 mt 4310 4158 L
4274 4122 mt 4274 4194 L
1608 3589 mt 1680 3589 L
1644 3553 mt 1644 3625 L
6220  450 mt 6292  450 L
6256  414 mt 6256  486 L
1599 4255 mt 1671 4255 L
1635 4219 mt 1635 4291 L
4584 2807 mt 4656 2807 L
4620 2771 mt 4620 2843 L
6052 1111 mt 6124 1111 L
6088 1075 mt 6088 1147 L
1175 4523 mt 1247 4523 L
1211 4487 mt 1211 4559 L
6181  622 mt 6253  622 L
6217  586 mt 6217  658 L
5459  789 mt 5531  789 L
5495  753 mt 5495  825 L
6140  830 mt 6212  830 L
6176  794 mt 6176  866 L
4926 2538 mt 4998 2538 L
4962 2502 mt 4962 2574 L
2082 4164 mt 2154 4164 L
2118 4128 mt 2118 4200 L
5431 1961 mt 5503 1961 L
5467 1925 mt 5467 1997 L
1096 4594 mt 1168 4594 L
1132 4558 mt 1132 4630 L
6156  677 mt 6228  677 L
6192  641 mt 6192  713 L
2823 2089 mt 2895 2089 L
2859 2053 mt 2859 2125 L
2565 4615 mt 2637 4615 L
2601 4579 mt 2601 4651 L
1751 3586 mt 1823 3586 L
1787 3550 mt 1787 3622 L
5876 1336 mt 5948 1336 L
5912 1300 mt 5912 1372 L
4958 2881 mt 5030 2881 L
4994 2845 mt 4994 2917 L
4428 1585 mt 4500 1585 L
4464 1549 mt 4464 1621 L
3016 3455 mt 3088 3455 L
3052 3419 mt 3052 3491 L
6213  502 mt 6285  502 L
6249  466 mt 6249  538 L
4001 1588 mt 4073 1588 L
4037 1552 mt 4037 1624 L
1186 4605 mt 1258 4605 L
1222 4569 mt 1222 4641 L
3735 1994 mt 3807 1994 L
3771 1958 mt 3771 2030 L
3569 2090 mt 3641 2090 L
3605 2054 mt 3605 2126 L
1882 2971 mt 1954 2971 L
1918 2935 mt 1918 3007 L
2070 3309 mt 2142 3309 L
2106 3273 mt 2106 3345 L
 900 4615 mt  972 4615 L
 936 4579 mt  936 4651 L
 993 4612 mt 1065 4612 L
1029 4576 mt 1029 4648 L
3816 1946 mt 3888 1946 L
3852 1910 mt 3852 1982 L
3593 4346 mt 3665 4346 L
3629 4310 mt 3629 4382 L
4830 3043 mt 4902 3043 L
4866 3007 mt 4866 3079 L
2698 2777 mt 2770 2777 L
2734 2741 mt 2734 2813 L
6065  973 mt 6137  973 L
6101  937 mt 6101 1009 L
6074  473 mt 6146  473 L
6110  437 mt 6110  509 L
5933 1272 mt 6005 1272 L
5969 1236 mt 5969 1308 L
 874 4608 mt  946 4608 L
 910 4572 mt  910 4644 L
1146 4191 mt 1218 4191 L
1182 4155 mt 1182 4227 L
1927 3273 mt 1999 3273 L
1963 3237 mt 1963 3309 L
1257 4472 mt 1329 4472 L
1293 4436 mt 1293 4508 L
1931 3635 mt 2003 3635 L
1967 3599 mt 1967 3671 L
3763 1569 mt 3835 1569 L
3799 1533 mt 3799 1605 L
6204  502 mt 6276  502 L
6240  466 mt 6240  538 L
5415 2366 mt 5487 2366 L
5451 2330 mt 5451 2402 L
6025 1188 mt 6097 1188 L
6061 1152 mt 6061 1224 L
4271 3525 mt 4343 3525 L
4307 3489 mt 4307 3561 L
 888 4568 mt  960 4568 L
 924 4532 mt  924 4604 L
5801 1478 mt 5873 1478 L
5837 1442 mt 5837 1514 L
1672 2785 mt 1744 2785 L
1708 2749 mt 1708 2821 L
1276 4424 mt 1348 4424 L
1312 4388 mt 1312 4460 L
5915 1355 mt 5987 1355 L
5951 1319 mt 5951 1391 L
5862 1412 mt 5934 1412 L
5898 1376 mt 5898 1448 L
1638 3697 mt 1710 3697 L
1674 3661 mt 1674 3733 L
 868 4378 mt  940 4378 L
 904 4342 mt  904 4414 L
5248 2051 mt 5320 2051 L
5284 2015 mt 5284 2087 L
6138  753 mt 6210  753 L
6174  717 mt 6174  789 L
4701 1290 mt 4773 1290 L
4737 1254 mt 4737 1326 L
2540 4493 mt 2612 4493 L
2576 4457 mt 2576 4529 L
1005 4615 mt 1077 4615 L
1041 4579 mt 1041 4651 L
4496 1540 mt 4568 1540 L
4532 1504 mt 4532 1576 L
1908 4252 mt 1980 4252 L
1944 4216 mt 1944 4288 L
4940 3892 mt 5012 3892 L
4976 3856 mt 4976 3928 L
4223 1721 mt 4295 1721 L
4259 1685 mt 4259 1757 L
5561  779 mt 5633  779 L
5597  743 mt 5597  815 L
5638 1692 mt 5710 1692 L
5674 1656 mt 5674 1728 L
2118 3269 mt 2190 3269 L
2154 3233 mt 2154 3305 L
1004 4522 mt 1076 4522 L
1040 4486 mt 1040 4558 L
6195  544 mt 6267  544 L
6231  508 mt 6231  580 L
6222  427 mt 6294  427 L
6258  391 mt 6258  463 L
5569 1953 mt 5641 1953 L
5605 1917 mt 5605 1989 L
5900 1666 mt 5972 1666 L
5936 1630 mt 5936 1702 L
1802 4411 mt 1874 4411 L
1838 4375 mt 1838 4447 L
2353 2734 mt 2425 2734 L
2389 2698 mt 2389 2770 L
2353 2070 mt 2425 2070 L
2389 2034 mt 2389 2106 L
6217  471 mt 6289  471 L
6253  435 mt 6253  507 L
6208  477 mt 6280  477 L
6244  441 mt 6244  513 L
6175  603 mt 6247  603 L
6211  567 mt 6211  639 L
5979 1180 mt 6051 1180 L
6015 1144 mt 6015 1216 L
5210  855 mt 5282  855 L
5246  819 mt 5246  891 L
5284 2230 mt 5356 2230 L
5320 2194 mt 5320 2266 L
6140  727 mt 6212  727 L
6176  691 mt 6176  763 L
6211  422 mt 6283  422 L
6247  386 mt 6247  458 L
5294 1165 mt 5366 1165 L
5330 1129 mt 5330 1201 L
6217  443 mt 6289  443 L
6253  407 mt 6253  479 L
2034 3936 mt 2106 3936 L
2070 3900 mt 2070 3972 L
1391 4485 mt 1463 4485 L
1427 4449 mt 1427 4521 L
6209  552 mt 6281  552 L
6245  516 mt 6245  588 L
4599 4615 mt 4671 4615 L
4635 4579 mt 4635 4651 L
6215  472 mt 6287  472 L
6251  436 mt 6251  508 L
6105  877 mt 6177  877 L
6141  841 mt 6141  913 L
3874 3267 mt 3946 3267 L
3910 3231 mt 3910 3303 L
6090 1169 mt 6162 1169 L
6126 1133 mt 6126 1205 L
5632 1840 mt 5704 1840 L
5668 1804 mt 5668 1876 L
6222  428 mt 6294  428 L
6258  392 mt 6258  464 L
5533 1068 mt 5605 1068 L
5569 1032 mt 5569 1104 L
1046 4615 mt 1118 4615 L
1082 4579 mt 1082 4651 L
2194 3374 mt 2266 3374 L
2230 3338 mt 2230 3410 L
6154  676 mt 6226  676 L
6190  640 mt 6190  712 L
6213  459 mt 6285  459 L
6249  423 mt 6249  495 L
6218  468 mt 6290  468 L
6254  432 mt 6254  504 L
4855 1058 mt 4927 1058 L
4891 1022 mt 4891 1094 L
2057 4406 mt 2129 4406 L
2093 4370 mt 2093 4442 L
2039 3079 mt 2111 3079 L
2075 3043 mt 2075 3115 L
6111  907 mt 6183  907 L
6147  871 mt 6147  943 L
1533 3921 mt 1605 3921 L
1569 3885 mt 1569 3957 L
 863 4549 mt  935 4549 L
 899 4513 mt  899 4585 L
6192  437 mt 6264  437 L
6228  401 mt 6228  473 L
6218  440 mt 6290  440 L
6254  404 mt 6254  476 L
 955 4567 mt 1027 4567 L
 991 4531 mt  991 4603 L
3123 1948 mt 3195 1948 L
3159 1912 mt 3159 1984 L
6224  421 mt 6296  421 L
6260  385 mt 6260  457 L
6224  417 mt 6296  417 L
6260  381 mt 6260  453 L
4736 2724 mt 4808 2724 L
4772 2688 mt 4772 2760 L
3188 2114 mt 3260 2114 L
3224 2078 mt 3224 2150 L
3467 3818 mt 3539 3818 L
3503 3782 mt 3503 3854 L
5550 2366 mt 5622 2366 L
5586 2330 mt 5586 2402 L
6210  509 mt 6282  509 L
6246  473 mt 6246  545 L
6192  550 mt 6264  550 L
6228  514 mt 6228  586 L
6149  432 mt 6221  432 L
6185  396 mt 6185  468 L
6111  513 mt 6183  513 L
6147  477 mt 6147  549 L
6173  606 mt 6245  606 L
6209  570 mt 6209  642 L
3368 1865 mt 3440 1865 L
3404 1829 mt 3404 1901 L
1089 2971 mt 1161 2971 L
1125 2935 mt 1125 3007 L
2683 4526 mt 2755 4526 L
2719 4490 mt 2719 4562 L
1294 4420 mt 1366 4420 L
1330 4384 mt 1330 4456 L
5862 1468 mt 5934 1468 L
5898 1432 mt 5898 1504 L
1948 3565 mt 2020 3565 L
1984 3529 mt 1984 3601 L
4785 2682 mt 4857 2682 L
4821 2646 mt 4821 2718 L
6192  550 mt 6264  550 L
6228  514 mt 6228  586 L
1950 4132 mt 2022 4132 L
1986 4096 mt 1986 4168 L
3397 3994 mt 3469 3994 L
3433 3958 mt 3433 4030 L
6185  579 mt 6257  579 L
6221  543 mt 6221  615 L
6144  509 mt 6216  509 L
6180  473 mt 6180  545 L
6216  417 mt 6288  417 L
6252  381 mt 6252  453 L
5808 1581 mt 5880 1581 L
5844 1545 mt 5844 1617 L
5620 2024 mt 5692 2024 L
5656 1988 mt 5656 2060 L
6053  985 mt 6125  985 L
6089  949 mt 6089 1021 L
 881 4580 mt  953 4580 L
 917 4544 mt  917 4616 L
 899 4615 mt  971 4615 L
 935 4579 mt  935 4651 L
6189  547 mt 6261  547 L
6225  511 mt 6225  583 L
6158  746 mt 6230  746 L
6194  710 mt 6194  782 L
3727 1871 mt 3799 1871 L
3763 1835 mt 3763 1907 L
2725 2805 mt 2797 2805 L
2761 2769 mt 2761 2841 L
1479 4556 mt 1551 4556 L
1515 4520 mt 1515 4592 L
5602  602 mt 5674  602 L
5638  566 mt 5638  638 L
6220  469 mt 6292  469 L
6256  433 mt 6256  505 L
5995 1179 mt 6067 1179 L
6031 1143 mt 6031 1215 L
6122  779 mt 6194  779 L
6158  743 mt 6158  815 L
2395 2015 mt 2467 2015 L
2431 1979 mt 2431 2051 L
5082  926 mt 5154  926 L
5118  890 mt 5118  962 L
6181  615 mt 6253  615 L
6217  579 mt 6217  651 L
6183  620 mt 6255  620 L
6219  584 mt 6219  656 L
2456 2452 mt 2528 2452 L
2492 2416 mt 2492 2488 L
6067  459 mt 6139  459 L
6103  423 mt 6103  495 L
6107  978 mt 6179  978 L
6143  942 mt 6143 1014 L
6191  492 mt 6263  492 L
6227  456 mt 6227  528 L
1236 4212 mt 1308 4212 L
1272 4176 mt 1272 4248 L
4184 4608 mt 4256 4608 L
4220 4572 mt 4220 4644 L
6002  714 mt 6074  714 L
6038  678 mt 6038  750 L
1107 2533 mt 1179 2533 L
1143 2497 mt 1143 2569 L
6050 1404 mt 6122 1404 L
6086 1368 mt 6086 1440 L
6094  871 mt 6166  871 L
6130  835 mt 6130  907 L
5872 1456 mt 5944 1456 L
5908 1420 mt 5908 1492 L
1739 4313 mt 1811 4313 L
1775 4277 mt 1775 4349 L
6139  725 mt 6211  725 L
6175  689 mt 6175  761 L
6041  556 mt 6113  556 L
6077  520 mt 6077  592 L
5932 1296 mt 6004 1296 L
5968 1260 mt 5968 1332 L
6149  769 mt 6221  769 L
6185  733 mt 6185  805 L
1278 4578 mt 1350 4578 L
1314 4542 mt 1314 4614 L
5448 2065 mt 5520 2065 L
5484 2029 mt 5484 2101 L
gs 899 414 5363 4203 rc
gr

5801 1652 mt 5873 1652 L
5837 1616 mt 5837 1688 L
2328 2982 mt 2400 2982 L
2364 2946 mt 2364 3018 L
4701  475 mt 4773  475 L
4737  439 mt 4737  511 L
6188 2381 mt 6260 2381 L
6224 2345 mt 6224 2417 L
6224  417 mt 6296  417 L
6260  381 mt 6260  453 L
2961 2592 mt 3033 2592 L
2997 2556 mt 2997 2628 L
6223  420 mt 6295  420 L
6259  384 mt 6259  456 L
1782 1294 mt 1854 1294 L
1818 1258 mt 1818 1330 L
2408 4615 mt 2480 4615 L
2444 4579 mt 2444 4651 L
6224  416 mt 6296  416 L
6260  380 mt 6260  452 L
6213  459 mt 6285  459 L
6249  423 mt 6249  495 L
1909  490 mt 1981  490 L
1945  454 mt 1945  526 L
1710 3891 mt 1782 3891 L
1746 3855 mt 1746 3927 L
6122  844 mt 6194  844 L
6158  808 mt 6158  880 L
2466 4610 mt 2538 4610 L
2502 4574 mt 2502 4646 L
5985 1321 mt 6057 1321 L
6021 1285 mt 6021 1357 L
6159  749 mt 6231  749 L
6195  713 mt 6195  785 L
2035 3069 mt 2107 3069 L
2071 3033 mt 2071 3105 L
6178  668 mt 6250  668 L
6214  632 mt 6214  704 L
4542 2819 mt 4614 2819 L
4578 2783 mt 4578 2855 L
6222  415 mt 6294  415 L
6258  379 mt 6258  451 L
5756  575 mt 5828  575 L
5792  539 mt 5792  611 L
3660 4051 mt 3732 4051 L
3696 4015 mt 3696 4087 L
3035  870 mt 3107  870 L
3071  834 mt 3071  906 L
6220  432 mt 6292  432 L
6256  396 mt 6256  468 L
3001 3413 mt 3073 3413 L
3037 3377 mt 3037 3449 L
2969 3859 mt 3041 3859 L
3005 3823 mt 3005 3895 L
6211  464 mt 6283  464 L
6247  428 mt 6247  500 L
6220  443 mt 6292  443 L
6256  407 mt 6256  479 L
6180  605 mt 6252  605 L
6216  569 mt 6216  641 L
1445 4195 mt 1517 4195 L
1481 4159 mt 1481 4231 L
3912 4065 mt 3984 4065 L
3948 4029 mt 3948 4101 L
5721 3806 mt 5793 3806 L
5757 3770 mt 5757 3842 L
 904 4544 mt  976 4544 L
 940 4508 mt  940 4580 L
6202  538 mt 6274  538 L
6238  502 mt 6238  574 L
2482 3125 mt 2554 3125 L
2518 3089 mt 2518 3161 L
6194  448 mt 6266  448 L
6230  412 mt 6230  484 L
2831 4261 mt 2903 4261 L
2867 4225 mt 2867 4297 L
5875 1478 mt 5947 1478 L
5911 1442 mt 5911 1514 L
5911 1338 mt 5983 1338 L
5947 1302 mt 5947 1374 L
3160 4066 mt 3232 4066 L
3196 4030 mt 3196 4102 L
6120  784 mt 6192  784 L
6156  748 mt 6156  820 L
6150  763 mt 6222  763 L
6186  727 mt 6186  799 L
6211  445 mt 6283  445 L
6247  409 mt 6247  481 L
 880 4594 mt  952 4594 L
 916 4558 mt  916 4630 L
6222  427 mt 6294  427 L
6258  391 mt 6258  463 L
6209  477 mt 6281  477 L
6245  441 mt 6245  513 L
1296 4614 mt 1368 4614 L
1332 4578 mt 1332 4650 L
5700  709 mt 5772  709 L
5736  673 mt 5736  745 L
1022 4493 mt 1094 4493 L
1058 4457 mt 1058 4529 L
1570 4115 mt 1642 4115 L
1606 4079 mt 1606 4151 L
2213 3845 mt 2285 3845 L
2249 3809 mt 2249 3881 L
1698 4118 mt 1770 4118 L
1734 4082 mt 1734 4154 L
 904 4615 mt  976 4615 L
 940 4579 mt  940 4651 L
1302 4169 mt 1374 4169 L
1338 4133 mt 1338 4205 L
3345 1941 mt 3417 1941 L
3381 1905 mt 3381 1977 L
1074 3535 mt 1146 3535 L
1110 3499 mt 1110 3571 L
6221  432 mt 6293  432 L
6257  396 mt 6257  468 L
2381 2831 mt 2453 2831 L
2417 2795 mt 2417 2867 L
6187  762 mt 6259  762 L
6223  726 mt 6223  798 L
6220  433 mt 6292  433 L
6256  397 mt 6256  469 L
5913  655 mt 5985  655 L
5949  619 mt 5949  691 L
3798 3422 mt 3870 3422 L
3834 3386 mt 3834 3458 L
4236 2994 mt 4308 2994 L
4272 2958 mt 4272 3030 L
5190 1445 mt 5262 1445 L
5226 1409 mt 5226 1481 L
5236 2312 mt 5308 2312 L
5272 2276 mt 5272 2348 L
5165  930 mt 5237  930 L
5201  894 mt 5201  966 L
4526 1699 mt 4598 1699 L
4562 1663 mt 4562 1735 L
1053 4601 mt 1125 4601 L
1089 4565 mt 1089 4637 L
3721 1608 mt 3793 1608 L
3757 1572 mt 3757 1644 L
4543 3372 mt 4615 3372 L
4579 3336 mt 4579 3408 L
1401 4616 mt 1473 4616 L
1437 4580 mt 1437 4652 L
6222  460 mt 6294  460 L
6258  424 mt 6258  496 L
6129  430 mt 6201  430 L
6165  394 mt 6165  466 L
5980  568 mt 6052  568 L
6016  532 mt 6016  604 L
6204  517 mt 6276  517 L
6240  481 mt 6240  553 L
5869 1460 mt 5941 1460 L
5905 1424 mt 5905 1496 L
6120  883 mt 6192  883 L
6156  847 mt 6156  919 L
4980 3424 mt 5052 3424 L
5016 3388 mt 5016 3460 L
1128 4547 mt 1200 4547 L
1164 4511 mt 1164 4583 L
 865 2059 mt  937 2059 L
 901 2023 mt  901 2095 L
6160 1005 mt 6232 1005 L
6196  969 mt 6196 1041 L
2529 2935 mt 2601 2935 L
2565 2899 mt 2565 2971 L
4555 2963 mt 4627 2963 L
4591 2927 mt 4591 2999 L
6220  436 mt 6292  436 L
6256  400 mt 6256  472 L
 867 4573 mt  939 4573 L
 903 4537 mt  903 4609 L
6207  489 mt 6279  489 L
6243  453 mt 6243  525 L
6187  564 mt 6259  564 L
6223  528 mt 6223  600 L
1119 2580 mt 1191 2580 L
1155 2544 mt 1155 2616 L
6170  730 mt 6242  730 L
6206  694 mt 6206  766 L
4860 2573 mt 4932 2573 L
4896 2537 mt 4896 2609 L
 914 4532 mt  986 4532 L
 950 4496 mt  950 4568 L
2494 3846 mt 2566 3846 L
2530 3810 mt 2530 3882 L
6036 1036 mt 6108 1036 L
6072 1000 mt 6072 1072 L
4523 1501 mt 4595 1501 L
4559 1465 mt 4559 1537 L
5393 2510 mt 5465 2510 L
5429 2474 mt 5429 2546 L
5970 1219 mt 6042 1219 L
6006 1183 mt 6006 1255 L
6224  414 mt 6296  414 L
6260  378 mt 6260  450 L
6036 1031 mt 6108 1031 L
6072  995 mt 6072 1067 L
3866 3677 mt 3938 3677 L
3902 3641 mt 3902 3713 L
4492 3106 mt 4564 3106 L
4528 3070 mt 4528 3142 L
6068  985 mt 6140  985 L
6104  949 mt 6104 1021 L
6136  736 mt 6208  736 L
6172  700 mt 6172  772 L
6206  519 mt 6278  519 L
6242  483 mt 6242  555 L
gs 899 414 5363 4203 rc
gr

0 sg
2822 5104 mt 
(\(F,DCTb,MLP\)) s
 422 3300 mt  -90 rotate
(\(F,DCTb,iMLP\)) s
90 rotate
2975  223 mt 
(Corr = 0.88) s

end %%Color Dict

eplot
%%EndObject

epage
end

showpage

%%Trailer
%%EOF
