%!PS-Adobe-3.0 EPSF-3.0
%%Creator: MATLAB, The Mathworks, Inc. Version 7.7.0.471 (R2008b). Operating System: Microsoft Windows XP.
%%Title: Pictures\main_zoo_mvar_analysis_data_BMI_xcorr_bmi_p2_k2_3_4.eps
%%CreationDate: 10/26/2009  05:44:44
%%DocumentNeededFonts: Helvetica
%%DocumentProcessColors: Cyan Magenta Yellow Black
%%LanguageLevel: 2
%%Pages: 1
%%BoundingBox:    32   180   546   616
%%EndComments

%%BeginProlog
% MathWorks dictionary
/MathWorks 160 dict begin
% definition operators
/bdef {bind def} bind def
/ldef {load def} bind def
/xdef {exch def} bdef
/xstore {exch store} bdef
% operator abbreviations
/c  /clip ldef
/cc /concat ldef
/cp /closepath ldef
/gr /grestore ldef
/gs /gsave ldef
/mt /moveto ldef
/np /newpath ldef
/cm /currentmatrix ldef
/sm /setmatrix ldef
/rm /rmoveto ldef
/rl /rlineto ldef
/s {show newpath} bdef
/sc {setcmykcolor} bdef
/sr /setrgbcolor ldef
/sg /setgray ldef
/w /setlinewidth ldef
/j /setlinejoin ldef
/cap /setlinecap ldef
/rc {rectclip} bdef
/rf {rectfill} bdef
% page state control
/pgsv () def
/bpage {/pgsv save def} bdef
/epage {pgsv restore} bdef
/bplot /gsave ldef
/eplot {stroke grestore} bdef
% orientation switch
/portraitMode 0 def /landscapeMode 1 def /rotateMode 2 def
% coordinate system mappings
/dpi2point 0 def
% font control
/FontSize 0 def
/FMS {/FontSize xstore findfont [FontSize 0 0 FontSize neg 0 0]
  makefont setfont} bdef
/ISOLatin1Encoding where {pop /WindowsLatin1Encoding 256 array bdef
ISOLatin1Encoding WindowsLatin1Encoding copy pop
/.notdef/.notdef/quotesinglbase/florin/quotedblbase/ellipsis/dagger
/daggerdbl/circumflex/perthousand/Scaron/guilsinglleft/OE/.notdef/.notdef
/.notdef/.notdef/quoteleft/quoteright/quotedblleft/quotedblright/bullet
/endash/emdash/tilde/trademark/scaron/guilsinglright/oe/.notdef/.notdef
/Ydieresis WindowsLatin1Encoding 128 32 getinterval astore pop}
{/WindowsLatin1Encoding StandardEncoding bdef} ifelse
/reencode {exch dup where {pop load} {pop StandardEncoding} ifelse
  exch dup 3 1 roll findfont dup length dict begin
  { 1 index /FID ne {def}{pop pop} ifelse } forall
  /Encoding exch def currentdict end definefont pop} bdef
/isroman {findfont /CharStrings get /Agrave known} bdef
/FMSR {3 1 roll 1 index dup isroman {reencode} {pop pop} ifelse
  exch FMS} bdef
/csm {1 dpi2point div -1 dpi2point div scale neg translate
 dup landscapeMode eq {pop -90 rotate}
  {rotateMode eq {90 rotate} if} ifelse} bdef
% line types: solid, dotted, dashed, dotdash
/SO { [] 0 setdash } bdef
/DO { [.5 dpi2point mul 4 dpi2point mul] 0 setdash } bdef
/DA { [6 dpi2point mul] 0 setdash } bdef
/DD { [.5 dpi2point mul 4 dpi2point mul 6 dpi2point mul 4
  dpi2point mul] 0 setdash } bdef
% macros for lines and objects
/L {lineto stroke} bdef
/MP {3 1 roll moveto 1 sub {rlineto} repeat} bdef
/AP {{rlineto} repeat} bdef
/PDlw -1 def
/W {/PDlw currentlinewidth def setlinewidth} def
/PP {closepath eofill} bdef
/DP {closepath stroke} bdef
/MR {4 -2 roll moveto dup  0 exch rlineto exch 0 rlineto
  neg 0 exch rlineto closepath} bdef
/FR {MR stroke} bdef
/PR {MR fill} bdef
/L1i {{currentfile picstr readhexstring pop} image} bdef
/tMatrix matrix def
/MakeOval {newpath tMatrix currentmatrix pop translate scale
0 0 1 0 360 arc tMatrix setmatrix} bdef
/FO {MakeOval stroke} bdef
/PO {MakeOval fill} bdef
/PD {currentlinewidth 2 div 0 360 arc fill
   PDlw -1 eq not {PDlw w /PDlw -1 def} if} def
/FA {newpath tMatrix currentmatrix pop translate scale
  0 0 1 5 -2 roll arc tMatrix setmatrix stroke} bdef
/PA {newpath tMatrix currentmatrix pop	translate 0 0 moveto scale
  0 0 1 5 -2 roll arc closepath tMatrix setmatrix fill} bdef
/FAn {newpath tMatrix currentmatrix pop translate scale
  0 0 1 5 -2 roll arcn tMatrix setmatrix stroke} bdef
/PAn {newpath tMatrix currentmatrix pop translate 0 0 moveto scale
  0 0 1 5 -2 roll arcn closepath tMatrix setmatrix fill} bdef
/vradius 0 def /hradius 0 def /lry 0 def
/lrx 0 def /uly 0 def /ulx 0 def /rad 0 def
/MRR {/vradius xdef /hradius xdef /lry xdef /lrx xdef /uly xdef
  /ulx xdef newpath tMatrix currentmatrix pop ulx hradius add uly
  vradius add translate hradius vradius scale 0 0 1 180 270 arc 
  tMatrix setmatrix lrx hradius sub uly vradius add translate
  hradius vradius scale 0 0 1 270 360 arc tMatrix setmatrix
  lrx hradius sub lry vradius sub translate hradius vradius scale
  0 0 1 0 90 arc tMatrix setmatrix ulx hradius add lry vradius sub
  translate hradius vradius scale 0 0 1 90 180 arc tMatrix setmatrix
  closepath} bdef
/FRR {MRR stroke } bdef
/PRR {MRR fill } bdef
/MlrRR {/lry xdef /lrx xdef /uly xdef /ulx xdef /rad lry uly sub 2 div def
  newpath tMatrix currentmatrix pop ulx rad add uly rad add translate
  rad rad scale 0 0 1 90 270 arc tMatrix setmatrix lrx rad sub lry rad
  sub translate rad rad scale 0 0 1 270 90 arc tMatrix setmatrix
  closepath} bdef
/FlrRR {MlrRR stroke } bdef
/PlrRR {MlrRR fill } bdef
/MtbRR {/lry xdef /lrx xdef /uly xdef /ulx xdef /rad lrx ulx sub 2 div def
  newpath tMatrix currentmatrix pop ulx rad add uly rad add translate
  rad rad scale 0 0 1 180 360 arc tMatrix setmatrix lrx rad sub lry rad
  sub translate rad rad scale 0 0 1 0 180 arc tMatrix setmatrix
  closepath} bdef
/FtbRR {MtbRR stroke } bdef
/PtbRR {MtbRR fill } bdef
/stri 6 array def /dtri 6 array def
/smat 6 array def /dmat 6 array def
/tmat1 6 array def /tmat2 6 array def /dif 3 array def
/asub {/ind2 exch def /ind1 exch def dup dup
  ind1 get exch ind2 get sub exch } bdef
/tri_to_matrix {
  2 0 asub 3 1 asub 4 0 asub 5 1 asub
  dup 0 get exch 1 get 7 -1 roll astore } bdef
/compute_transform {
  dmat dtri tri_to_matrix tmat1 invertmatrix 
  smat stri tri_to_matrix tmat2 concatmatrix } bdef
/ds {stri astore pop} bdef
/dt {dtri astore pop} bdef
/db {2 copy /cols xdef /rows xdef mul dup 3 mul string
  currentfile 
  3 index 0 eq {/ASCIIHexDecode filter}
  {/ASCII85Decode filter 3 index 2 eq {/RunLengthDecode filter} if }
  ifelse exch readstring pop
  dup 0 3 index getinterval /rbmap xdef
  dup 2 index dup getinterval /gbmap xdef
  1 index dup 2 mul exch getinterval /bbmap xdef pop pop}bdef
/it {gs np dtri aload pop moveto lineto lineto cp c
  cols rows 8 compute_transform 
  rbmap gbmap bbmap true 3 colorimage gr}bdef
/il {newpath moveto lineto stroke}bdef
currentdict end def
%%EndProlog

%%BeginSetup
MathWorks begin

0 cap

end
%%EndSetup

%%Page: 1 1
%%BeginPageSetup
%%PageBoundingBox:    32   180   546   616
MathWorks begin
bpage
%%EndPageSetup

%%BeginObject: obj1
bplot

/dpi2point 12 def
portraitMode 0216 7344 csm

  174   -48  6173  5231 rc
85 dict begin %Colortable dictionary
/c0 { 0.000000 0.000000 0.000000 sr} bdef
/c1 { 1.000000 1.000000 1.000000 sr} bdef
/c2 { 0.900000 0.000000 0.000000 sr} bdef
/c3 { 0.000000 0.820000 0.000000 sr} bdef
/c4 { 0.000000 0.000000 0.800000 sr} bdef
/c5 { 0.910000 0.820000 0.320000 sr} bdef
/c6 { 1.000000 0.260000 0.820000 sr} bdef
/c7 { 0.000000 0.820000 0.820000 sr} bdef
c0
1 j
1 sg
   0    0 6919 5187 rf
6 w
0 4202 5362 0 0 -4202 899 4616 4 MP
PP
-5362 0 0 4202 5362 0 0 -4202 899 4616 5 MP stroke
4 w
DO
SO
6 w
0 sg
 899  414 mt 6261  414 L
 899 4616 mt 6261 4616 L
6261 4616 mt 6261  414 L
 899 4616 mt  899  414 L
 899 4616 mt 6261 4616 L
 899 4616 mt  899  414 L
1971 4616 mt 1971 4562 L
1971  414 mt 1971  467 L
%%IncludeResource: font Helvetica
/Helvetica /WindowsLatin1Encoding 240 FMSR

1805 4873 mt 
(0.2) s
3043 4616 mt 3043 4562 L
3043  414 mt 3043  467 L
2877 4873 mt 
(0.4) s
4116 4616 mt 4116 4562 L
4116  414 mt 4116  467 L
3950 4873 mt 
(0.6) s
5188 4616 mt 5188 4562 L
5188  414 mt 5188  467 L
5022 4873 mt 
(0.8) s
 899 4196 mt  952 4196 L
6261 4196 mt 6207 4196 L
 531 4285 mt 
(0.1) s
 899 3775 mt  952 3775 L
6261 3775 mt 6207 3775 L
 531 3864 mt 
(0.2) s
 899 3355 mt  952 3355 L
6261 3355 mt 6207 3355 L
 531 3444 mt 
(0.3) s
 899 2935 mt  952 2935 L
6261 2935 mt 6207 2935 L
 531 3024 mt 
(0.4) s
 899 2515 mt  952 2515 L
6261 2515 mt 6207 2515 L
 531 2604 mt 
(0.5) s
 899 2094 mt  952 2094 L
6261 2094 mt 6207 2094 L
 531 2183 mt 
(0.6) s
 899 1674 mt  952 1674 L
6261 1674 mt 6207 1674 L
 531 1763 mt 
(0.7) s
 899 1254 mt  952 1254 L
6261 1254 mt 6207 1254 L
 531 1343 mt 
(0.8) s
 899  834 mt  952  834 L
6261  834 mt 6207  834 L
 531  923 mt 
(0.9) s
 899  414 mt 6261  414 L
 899 4616 mt 6261 4616 L
6261 4616 mt 6261  414 L
 899 4616 mt  899  414 L
gs 899 414 5363 4203 rc
gr

/c8 { 0.000000 0.000000 1.000000 sr} bdef
c8
6221  429 mt 6293  429 L
6257  393 mt 6257  465 L
6193  439 mt 6265  439 L
6229  403 mt 6229  475 L
1590 4565 mt 1662 4565 L
1626 4529 mt 1626 4601 L
6224  468 mt 6296  468 L
6260  432 mt 6260  504 L
6190  416 mt 6262  416 L
6226  380 mt 6226  452 L
5096 1109 mt 5168 1109 L
5132 1073 mt 5132 1145 L
6224 4254 mt 6296 4254 L
6260 4218 mt 6260 4290 L
5808 4584 mt 5880 4584 L
5844 4548 mt 5844 4620 L
5989  443 mt 6061  443 L
6025  407 mt 6025  479 L
1391 4529 mt 1463 4529 L
1427 4493 mt 1427 4565 L
6097  464 mt 6169  464 L
6133  428 mt 6133  500 L
6218  681 mt 6290  681 L
6254  645 mt 6254  717 L
1875 1179 mt 1947 1179 L
1911 1143 mt 1911 1215 L
6224  424 mt 6296  424 L
6260  388 mt 6260  460 L
5743  435 mt 5815  435 L
5779  399 mt 5779  471 L
4866 1339 mt 4938 1339 L
4902 1303 mt 4902 1375 L
6219  478 mt 6291  478 L
6255  442 mt 6255  514 L
6034  682 mt 6106  682 L
6070  646 mt 6070  718 L
3416 3825 mt 3488 3825 L
3452 3789 mt 3452 3861 L
6103 1863 mt 6175 1863 L
6139 1827 mt 6139 1899 L
5392 1046 mt 5464 1046 L
5428 1010 mt 5428 1082 L
6142 4113 mt 6214 4113 L
6178 4077 mt 6178 4149 L
5921  460 mt 5993  460 L
5957  424 mt 5957  496 L
5841 3707 mt 5913 3707 L
5877 3671 mt 5877 3743 L
4807 3957 mt 4879 3957 L
4843 3921 mt 4843 3993 L
5350  441 mt 5422  441 L
5386  405 mt 5386  477 L
1034  831 mt 1106  831 L
1070  795 mt 1070  867 L
3118  738 mt 3190  738 L
3154  702 mt 3154  774 L
6149  566 mt 6221  566 L
6185  530 mt 6185  602 L
6014  422 mt 6086  422 L
6050  386 mt 6050  458 L
6212  697 mt 6284  697 L
6248  661 mt 6248  733 L
5618 4616 mt 5690 4616 L
5654 4580 mt 5654 4652 L
2257  490 mt 2329  490 L
2293  454 mt 2293  526 L
 899 1251 mt  971 1251 L
 935 1215 mt  935 1287 L
6218  541 mt 6290  541 L
6254  505 mt 6254  577 L
1077 1953 mt 1149 1953 L
1113 1917 mt 1113 1989 L
5944 1362 mt 6016 1362 L
5980 1326 mt 5980 1398 L
6198  532 mt 6270  532 L
6234  496 mt 6234  568 L
4621 4497 mt 4693 4497 L
4657 4461 mt 4657 4533 L
6187  470 mt 6259  470 L
6223  434 mt 6223  506 L
1374 4437 mt 1446 4437 L
1410 4401 mt 1410 4473 L
6202  431 mt 6274  431 L
6238  395 mt 6238  467 L
3823 4557 mt 3895 4557 L
3859 4521 mt 3859 4593 L
6057 4612 mt 6129 4612 L
6093 4576 mt 6093 4648 L
5107  809 mt 5179  809 L
5143  773 mt 5143  845 L
3610 2459 mt 3682 2459 L
3646 2423 mt 3646 2495 L
5908  414 mt 5980  414 L
5944  378 mt 5944  450 L
4165 4028 mt 4237 4028 L
4201 3992 mt 4201 4064 L
1021  542 mt 1093  542 L
1057  506 mt 1057  578 L
4929  416 mt 5001  416 L
4965  380 mt 4965  452 L
6174  718 mt 6246  718 L
6210  682 mt 6210  754 L
6175  520 mt 6247  520 L
6211  484 mt 6211  556 L
6195 1528 mt 6267 1528 L
6231 1492 mt 6231 1564 L
1680 3761 mt 1752 3761 L
1716 3725 mt 1716 3797 L
6037  451 mt 6109  451 L
6073  415 mt 6073  487 L
1661 3618 mt 1733 3618 L
1697 3582 mt 1697 3654 L
5988  534 mt 6060  534 L
6024  498 mt 6024  570 L
4569 3262 mt 4641 3262 L
4605 3226 mt 4605 3298 L
5729  506 mt 5801  506 L
5765  470 mt 5765  542 L
2164  450 mt 2236  450 L
2200  414 mt 2200  486 L
1442  527 mt 1514  527 L
1478  491 mt 1478  563 L
4673  595 mt 4745  595 L
4709  559 mt 4709  631 L
5546 4330 mt 5618 4330 L
5582 4294 mt 5582 4366 L
3999 1040 mt 4071 1040 L
4035 1004 mt 4035 1076 L
6220  713 mt 6292  713 L
6256  677 mt 6256  749 L
5402  535 mt 5474  535 L
5438  499 mt 5438  571 L
6115  482 mt 6187  482 L
6151  446 mt 6151  518 L
5845  454 mt 5917  454 L
5881  418 mt 5881  490 L
5894  602 mt 5966  602 L
5930  566 mt 5930  638 L
5746  979 mt 5818  979 L
5782  943 mt 5782 1015 L
5968  728 mt 6040  728 L
6004  692 mt 6004  764 L
1110 3514 mt 1182 3514 L
1146 3478 mt 1146 3550 L
3714  487 mt 3786  487 L
3750  451 mt 3750  523 L
4700  558 mt 4772  558 L
4736  522 mt 4736  594 L
6029  563 mt 6101  563 L
6065  527 mt 6065  599 L
5754  427 mt 5826  427 L
5790  391 mt 5790  463 L
 960  864 mt 1032  864 L
 996  828 mt  996  900 L
3282 2420 mt 3354 2420 L
3318 2384 mt 3318 2456 L
6201  416 mt 6273  416 L
6237  380 mt 6237  452 L
5201  442 mt 5273  442 L
5237  406 mt 5237  478 L
5470  593 mt 5542  593 L
5506  557 mt 5506  629 L
4889 1206 mt 4961 1206 L
4925 1170 mt 4925 1242 L
4207 2021 mt 4279 2021 L
4243 1985 mt 4243 2057 L
6032  622 mt 6104  622 L
6068  586 mt 6068  658 L
5732 2522 mt 5804 2522 L
5768 2486 mt 5768 2558 L
6109 2728 mt 6181 2728 L
6145 2692 mt 6145 2764 L
6224  496 mt 6296  496 L
6260  460 mt 6260  532 L
5520  515 mt 5592  515 L
5556  479 mt 5556  551 L
6015 4379 mt 6087 4379 L
6051 4343 mt 6051 4415 L
6196 1615 mt 6268 1615 L
6232 1579 mt 6232 1651 L
6189 1087 mt 6261 1087 L
6225 1051 mt 6225 1123 L
5670  414 mt 5742  414 L
5706  378 mt 5706  450 L
6172  614 mt 6244  614 L
6208  578 mt 6208  650 L
3804 3326 mt 3876 3326 L
3840 3290 mt 3840 3362 L
5381 1002 mt 5453 1002 L
5417  966 mt 5417 1038 L
5365 3211 mt 5437 3211 L
5401 3175 mt 5401 3247 L
5659 3640 mt 5731 3640 L
5695 3604 mt 5695 3676 L
6178  569 mt 6250  569 L
6214  533 mt 6214  605 L
6221 1489 mt 6293 1489 L
6257 1453 mt 6257 1525 L
3451  415 mt 3523  415 L
3487  379 mt 3487  451 L
4273 1675 mt 4345 1675 L
4309 1639 mt 4309 1711 L
5325  460 mt 5397  460 L
5361  424 mt 5361  496 L
1565  713 mt 1637  713 L
1601  677 mt 1601  749 L
2866 1910 mt 2938 1910 L
2902 1874 mt 2902 1946 L
4530 2024 mt 4602 2024 L
4566 1988 mt 4566 2060 L
6204  425 mt 6276  425 L
6240  389 mt 6240  461 L
6216  568 mt 6288  568 L
6252  532 mt 6252  604 L
5527 2515 mt 5599 2515 L
5563 2479 mt 5563 2551 L
6146 1407 mt 6218 1407 L
6182 1371 mt 6182 1443 L
6224 1455 mt 6296 1455 L
6260 1419 mt 6260 1491 L
6177  852 mt 6249  852 L
6213  816 mt 6213  888 L
4675 2711 mt 4747 2711 L
4711 2675 mt 4711 2747 L
6217 2697 mt 6289 2697 L
6253 2661 mt 6253 2733 L
6123 2095 mt 6195 2095 L
6159 2059 mt 6159 2131 L
4580 1389 mt 4652 1389 L
4616 1353 mt 4616 1425 L
6162 2123 mt 6234 2123 L
6198 2087 mt 6198 2159 L
6164  587 mt 6236  587 L
6200  551 mt 6200  623 L
5893 4239 mt 5965 4239 L
5929 4203 mt 5929 4275 L
6153 2268 mt 6225 2268 L
6189 2232 mt 6189 2304 L
6219  450 mt 6291  450 L
6255  414 mt 6255  486 L
5773  739 mt 5845  739 L
5809  703 mt 5809  775 L
 960  631 mt 1032  631 L
 996  595 mt  996  667 L
6159 1163 mt 6231 1163 L
6195 1127 mt 6195 1199 L
2496  444 mt 2568  444 L
2532  408 mt 2532  480 L
5848  414 mt 5920  414 L
5884  378 mt 5884  450 L
6213  429 mt 6285  429 L
6249  393 mt 6249  465 L
5310  567 mt 5382  567 L
5346  531 mt 5346  603 L
6182  447 mt 6254  447 L
6218  411 mt 6218  483 L
1547 1858 mt 1619 1858 L
1583 1822 mt 1583 1894 L
3374 4127 mt 3446 4127 L
3410 4091 mt 3410 4163 L
6222  414 mt 6294  414 L
6258  378 mt 6258  450 L
6212  719 mt 6284  719 L
6248  683 mt 6248  755 L
6084 2042 mt 6156 2042 L
6120 2006 mt 6120 2078 L
6224  447 mt 6296  447 L
6260  411 mt 6260  483 L
1156 2034 mt 1228 2034 L
1192 1998 mt 1192 2070 L
 913  776 mt  985  776 L
 949  740 mt  949  812 L
5859 4366 mt 5931 4366 L
5895 4330 mt 5895 4402 L
5733  613 mt 5805  613 L
5769  577 mt 5769  649 L
2381  506 mt 2453  506 L
2417  470 mt 2417  542 L
4404  909 mt 4476  909 L
4440  873 mt 4440  945 L
5329  981 mt 5401  981 L
5365  945 mt 5365 1017 L
4061  491 mt 4133  491 L
4097  455 mt 4097  527 L
1110  445 mt 1182  445 L
1146  409 mt 1146  481 L
3273 3486 mt 3345 3486 L
3309 3450 mt 3309 3522 L
4783  747 mt 4855  747 L
4819  711 mt 4819  783 L
5837 1931 mt 5909 1931 L
5873 1895 mt 5873 1967 L
6012 1669 mt 6084 1669 L
6048 1633 mt 6048 1705 L
5912 2983 mt 5984 2983 L
5948 2947 mt 5948 3019 L
2248  878 mt 2320  878 L
2284  842 mt 2284  914 L
2831  748 mt 2903  748 L
2867  712 mt 2867  784 L
6057  504 mt 6129  504 L
6093  468 mt 6093  540 L
5989  628 mt 6061  628 L
6025  592 mt 6025  664 L
5901  645 mt 5973  645 L
5937  609 mt 5937  681 L
4912 1081 mt 4984 1081 L
4948 1045 mt 4948 1117 L
5641  437 mt 5713  437 L
5677  401 mt 5677  473 L
6184  514 mt 6256  514 L
6220  478 mt 6220  550 L
4318 3220 mt 4390 3220 L
4354 3184 mt 4354 3256 L
6204 1056 mt 6276 1056 L
6240 1020 mt 6240 1092 L
5747 3835 mt 5819 3835 L
5783 3799 mt 5783 3871 L
6208 1269 mt 6280 1269 L
6244 1233 mt 6244 1305 L
1993 1281 mt 2065 1281 L
2029 1245 mt 2029 1317 L
6077 2648 mt 6149 2648 L
6113 2612 mt 6113 2684 L
5919 3084 mt 5991 3084 L
5955 3048 mt 5955 3120 L
6055  740 mt 6127  740 L
6091  704 mt 6091  776 L
6210  425 mt 6282  425 L
6246  389 mt 6246  461 L
2297 3674 mt 2369 3674 L
2333 3638 mt 2333 3710 L
5879 1472 mt 5951 1472 L
5915 1436 mt 5915 1508 L
4279  932 mt 4351  932 L
4315  896 mt 4315  968 L
1531  415 mt 1603  415 L
1567  379 mt 1567  451 L
6004  458 mt 6076  458 L
6040  422 mt 6040  494 L
6198  435 mt 6270  435 L
6234  399 mt 6234  471 L
5917  429 mt 5989  429 L
5953  393 mt 5953  465 L
5898  425 mt 5970  425 L
5934  389 mt 5934  461 L
6198  536 mt 6270  536 L
6234  500 mt 6234  572 L
6140  853 mt 6212  853 L
6176  817 mt 6176  889 L
6201  459 mt 6273  459 L
6237  423 mt 6237  495 L
5761  457 mt 5833  457 L
5797  421 mt 5797  493 L
6153 3124 mt 6225 3124 L
6189 3088 mt 6189 3160 L
5637  518 mt 5709  518 L
5673  482 mt 5673  554 L
6102 1332 mt 6174 1332 L
6138 1296 mt 6138 1368 L
4360 3189 mt 4432 3189 L
4396 3153 mt 4396 3225 L
6213  414 mt 6285  414 L
6249  378 mt 6249  450 L
5155  469 mt 5227  469 L
5191  433 mt 5191  505 L
5702  648 mt 5774  648 L
5738  612 mt 5738  684 L
6220 4466 mt 6292 4466 L
6256 4430 mt 6256 4502 L
2020 2978 mt 2092 2978 L
2056 2942 mt 2056 3014 L
6209  472 mt 6281  472 L
6245  436 mt 6245  508 L
1040 3019 mt 1112 3019 L
1076 2983 mt 1076 3055 L
2433  733 mt 2505  733 L
2469  697 mt 2469  769 L
6218  579 mt 6290  579 L
6254  543 mt 6254  615 L
 898 1458 mt  970 1458 L
 934 1422 mt  934 1494 L
3772 3038 mt 3844 3038 L
3808 3002 mt 3808 3074 L
4049 2462 mt 4121 2462 L
4085 2426 mt 4085 2498 L
4672  658 mt 4744  658 L
4708  622 mt 4708  694 L
5861  473 mt 5933  473 L
5897  437 mt 5897  509 L
6035  427 mt 6107  427 L
6071  391 mt 6071  463 L
4594 4379 mt 4666 4379 L
4630 4343 mt 4630 4415 L
5552 4310 mt 5624 4310 L
5588 4274 mt 5588 4346 L
5669 1199 mt 5741 1199 L
5705 1163 mt 5705 1235 L
6179 2350 mt 6251 2350 L
6215 2314 mt 6215 2386 L
6202  705 mt 6274  705 L
6238  669 mt 6238  741 L
5985  450 mt 6057  450 L
6021  414 mt 6021  486 L
2449 4483 mt 2521 4483 L
2485 4447 mt 2485 4519 L
3851 3930 mt 3923 3930 L
3887 3894 mt 3887 3966 L
6215  461 mt 6287  461 L
6251  425 mt 6251  497 L
4204 2057 mt 4276 2057 L
4240 2021 mt 4240 2093 L
5859 3584 mt 5931 3584 L
5895 3548 mt 5895 3620 L
4560 1347 mt 4632 1347 L
4596 1311 mt 4596 1383 L
6171  441 mt 6243  441 L
6207  405 mt 6207  477 L
1223 4523 mt 1295 4523 L
1259 4487 mt 1259 4559 L
5744  445 mt 5816  445 L
5780  409 mt 5780  481 L
6114  482 mt 6186  482 L
6150  446 mt 6150  518 L
4284 1471 mt 4356 1471 L
4320 1435 mt 4320 1507 L
3585 4028 mt 3657 4028 L
3621 3992 mt 3621 4064 L
4590  441 mt 4662  441 L
4626  405 mt 4626  477 L
6052  797 mt 6124  797 L
6088  761 mt 6088  833 L
5536 1913 mt 5608 1913 L
5572 1877 mt 5572 1949 L
6188  914 mt 6260  914 L
6224  878 mt 6224  950 L
3169 2498 mt 3241 2498 L
3205 2462 mt 3205 2534 L
5936  724 mt 6008  724 L
5972  688 mt 5972  760 L
3794 1733 mt 3866 1733 L
3830 1697 mt 3830 1769 L
5491  709 mt 5563  709 L
5527  673 mt 5527  745 L
3591  825 mt 3663  825 L
3627  789 mt 3627  861 L
2708 4592 mt 2780 4592 L
2744 4556 mt 2744 4628 L
6204 4206 mt 6276 4206 L
6240 4170 mt 6240 4242 L
4514  573 mt 4586  573 L
4550  537 mt 4550  609 L
6224 1535 mt 6296 1535 L
6260 1499 mt 6260 1571 L
6064 4441 mt 6136 4441 L
6100 4405 mt 6100 4477 L
5886  456 mt 5958  456 L
5922  420 mt 5922  492 L
5596  897 mt 5668  897 L
5632  861 mt 5632  933 L
4973 4004 mt 5045 4004 L
5009 3968 mt 5009 4040 L
1387 1132 mt 1459 1132 L
1423 1096 mt 1423 1168 L
5938  576 mt 6010  576 L
5974  540 mt 5974  612 L
2073 1183 mt 2145 1183 L
2109 1147 mt 2109 1219 L
5956  860 mt 6028  860 L
5992  824 mt 5992  896 L
1591 4106 mt 1663 4106 L
1627 4070 mt 1627 4142 L
5959 2136 mt 6031 2136 L
5995 2100 mt 5995 2172 L
6218 1577 mt 6290 1577 L
6254 1541 mt 6254 1613 L
6142 2973 mt 6214 2973 L
6178 2937 mt 6178 3009 L
6224 2455 mt 6296 2455 L
6260 2419 mt 6260 2491 L
5626 3573 mt 5698 3573 L
5662 3537 mt 5662 3609 L
4481  575 mt 4553  575 L
4517  539 mt 4517  611 L
6146  440 mt 6218  440 L
6182  404 mt 6182  476 L
2314 2628 mt 2386 2628 L
2350 2592 mt 2350 2664 L
5666 1772 mt 5738 1772 L
5702 1736 mt 5702 1808 L
5459  449 mt 5531  449 L
5495  413 mt 5495  485 L
5744 1621 mt 5816 1621 L
5780 1585 mt 5780 1657 L
5542 3217 mt 5614 3217 L
5578 3181 mt 5578 3253 L
5191 1559 mt 5263 1559 L
5227 1523 mt 5227 1595 L
3422 1453 mt 3494 1453 L
3458 1417 mt 3458 1489 L
6056  809 mt 6128  809 L
6092  773 mt 6092  845 L
5007  455 mt 5079  455 L
5043  419 mt 5043  491 L
1039 2855 mt 1111 2855 L
1075 2819 mt 1075 2891 L
2262 1477 mt 2334 1477 L
2298 1441 mt 2298 1513 L
5574  466 mt 5646  466 L
5610  430 mt 5610  502 L
2022 4603 mt 2094 4603 L
2058 4567 mt 2058 4639 L
6216 1635 mt 6288 1635 L
6252 1599 mt 6252 1671 L
5756 1865 mt 5828 1865 L
5792 1829 mt 5792 1901 L
6184  517 mt 6256  517 L
6220  481 mt 6220  553 L
5629  563 mt 5701  563 L
5665  527 mt 5665  599 L
6186 1329 mt 6258 1329 L
6222 1293 mt 6222 1365 L
2919  449 mt 2991  449 L
2955  413 mt 2955  485 L
2743  466 mt 2815  466 L
2779  430 mt 2779  502 L
4094 2795 mt 4166 2795 L
4130 2759 mt 4130 2831 L
5912  417 mt 5984  417 L
5948  381 mt 5948  453 L
5638  563 mt 5710  563 L
5674  527 mt 5674  599 L
6173 1644 mt 6245 1644 L
6209 1608 mt 6209 1680 L
5410  421 mt 5482  421 L
5446  385 mt 5446  457 L
6214  692 mt 6286  692 L
6250  656 mt 6250  728 L
5312  489 mt 5384  489 L
5348  453 mt 5348  525 L
2843  541 mt 2915  541 L
2879  505 mt 2879  577 L
5421  427 mt 5493  427 L
5457  391 mt 5457  463 L
6158  451 mt 6230  451 L
6194  415 mt 6194  487 L
6174 4575 mt 6246 4575 L
6210 4539 mt 6210 4611 L
6118  415 mt 6190  415 L
6154  379 mt 6154  451 L
5176 4337 mt 5248 4337 L
5212 4301 mt 5212 4373 L
6211  469 mt 6283  469 L
6247  433 mt 6247  505 L
5742  790 mt 5814  790 L
5778  754 mt 5778  826 L
5960  460 mt 6032  460 L
5996  424 mt 5996  496 L
6210  528 mt 6282  528 L
6246  492 mt 6246  564 L
5017  466 mt 5089  466 L
5053  430 mt 5053  502 L
5093  433 mt 5165  433 L
5129  397 mt 5129  469 L
1098 4588 mt 1170 4588 L
1134 4552 mt 1134 4624 L
2442  603 mt 2514  603 L
2478  567 mt 2478  639 L
6198  547 mt 6270  547 L
6234  511 mt 6234  583 L
5130 4202 mt 5202 4202 L
5166 4166 mt 5166 4238 L
5992  643 mt 6064  643 L
6028  607 mt 6028  679 L
6224  709 mt 6296  709 L
6260  673 mt 6260  745 L
6157  442 mt 6229  442 L
6193  406 mt 6193  478 L
4506  972 mt 4578  972 L
4542  936 mt 4542 1008 L
5971  692 mt 6043  692 L
6007  656 mt 6007  728 L
6109  426 mt 6181  426 L
6145  390 mt 6145  462 L
3782  419 mt 3854  419 L
3818  383 mt 3818  455 L
5672  437 mt 5744  437 L
5708  401 mt 5708  473 L
1964  824 mt 2036  824 L
2000  788 mt 2000  860 L
5488 2292 mt 5560 2292 L
5524 2256 mt 5524 2328 L
5482 1074 mt 5554 1074 L
5518 1038 mt 5518 1110 L
5574  414 mt 5646  414 L
5610  378 mt 5610  450 L
3505  585 mt 3577  585 L
3541  549 mt 3541  621 L
 880  436 mt  952  436 L
 916  400 mt  916  472 L
6183  479 mt 6255  479 L
6219  443 mt 6219  515 L
4475 1178 mt 4547 1178 L
4511 1142 mt 4511 1214 L
4738  446 mt 4810  446 L
4774  410 mt 4774  482 L
3024 1618 mt 3096 1618 L
3060 1582 mt 3060 1654 L
6214 1029 mt 6286 1029 L
6250  993 mt 6250 1065 L
1315 4339 mt 1387 4339 L
1351 4303 mt 1351 4375 L
4933 4443 mt 5005 4443 L
4969 4407 mt 4969 4479 L
1445 1072 mt 1517 1072 L
1481 1036 mt 1481 1108 L
6112 4244 mt 6184 4244 L
6148 4208 mt 6148 4280 L
4034  595 mt 4106  595 L
4070  559 mt 4070  631 L
4677 4165 mt 4749 4165 L
4713 4129 mt 4713 4201 L
6224  461 mt 6296  461 L
6260  425 mt 6260  497 L
4494 2100 mt 4566 2100 L
4530 2064 mt 4530 2136 L
6175 2228 mt 6247 2228 L
6211 2192 mt 6211 2264 L
4033  530 mt 4105  530 L
4069  494 mt 4069  566 L
3745 1981 mt 3817 1981 L
3781 1945 mt 3781 2017 L
6218  793 mt 6290  793 L
6254  757 mt 6254  829 L
6218  511 mt 6290  511 L
6254  475 mt 6254  547 L
6101  641 mt 6173  641 L
6137  605 mt 6137  677 L
1462 1683 mt 1534 1683 L
1498 1647 mt 1498 1719 L
6174  708 mt 6246  708 L
6210  672 mt 6210  744 L
 898 1087 mt  970 1087 L
 934 1051 mt  934 1123 L
6066  685 mt 6138  685 L
6102  649 mt 6102  721 L
6129  611 mt 6201  611 L
6165  575 mt 6165  647 L
4592  415 mt 4664  415 L
4628  379 mt 4628  451 L
6099  465 mt 6171  465 L
6135  429 mt 6135  501 L
4072 4613 mt 4144 4613 L
4108 4577 mt 4108 4649 L
4491  728 mt 4563  728 L
4527  692 mt 4527  764 L
3146 2901 mt 3218 2901 L
3182 2865 mt 3182 2937 L
5897 2297 mt 5969 2297 L
5933 2261 mt 5933 2333 L
5373 1136 mt 5445 1136 L
5409 1100 mt 5409 1172 L
3409  421 mt 3481  421 L
3445  385 mt 3445  457 L
5981 1051 mt 6053 1051 L
6017 1015 mt 6017 1087 L
1333  483 mt 1405  483 L
1369  447 mt 1369  519 L
4207  577 mt 4279  577 L
4243  541 mt 4243  613 L
 935  810 mt 1007  810 L
 971  774 mt  971  846 L
1752  446 mt 1824  446 L
1788  410 mt 1788  482 L
3665  453 mt 3737  453 L
3701  417 mt 3701  489 L
6210  448 mt 6282  448 L
6246  412 mt 6246  484 L
1581  834 mt 1653  834 L
1617  798 mt 1617  870 L
1395  435 mt 1467  435 L
1431  399 mt 1431  471 L
5757  730 mt 5829  730 L
5793  694 mt 5793  766 L
5523 2014 mt 5595 2014 L
5559 1978 mt 5559 2050 L
1053 3267 mt 1125 3267 L
1089 3231 mt 1089 3303 L
5250 4486 mt 5322 4486 L
5286 4450 mt 5286 4522 L
4816  991 mt 4888  991 L
4852  955 mt 4852 1027 L
4755  719 mt 4827  719 L
4791  683 mt 4791  755 L
5851 1390 mt 5923 1390 L
5887 1354 mt 5887 1426 L
5195 1382 mt 5267 1382 L
5231 1346 mt 5231 1418 L
5714  463 mt 5786  463 L
5750  427 mt 5750  499 L
6000  512 mt 6072  512 L
6036  476 mt 6036  548 L
1067 3953 mt 1139 3953 L
1103 3917 mt 1103 3989 L
5241 3757 mt 5313 3757 L
5277 3721 mt 5277 3793 L
6125  927 mt 6197  927 L
6161  891 mt 6161  963 L
4110  422 mt 4182  422 L
4146  386 mt 4146  458 L
3841 2021 mt 3913 2021 L
3877 1985 mt 3877 2057 L
1331 4106 mt 1403 4106 L
1367 4070 mt 1367 4142 L
5795 3446 mt 5867 3446 L
5831 3410 mt 5831 3482 L
6077 2887 mt 6149 2887 L
6113 2851 mt 6113 2923 L
2607 4370 mt 2679 4370 L
2643 4334 mt 2643 4406 L
5524 3891 mt 5596 3891 L
5560 3855 mt 5560 3927 L
5774  464 mt 5846  464 L
5810  428 mt 5810  500 L
6223  434 mt 6295  434 L
6259  398 mt 6259  470 L
6075  470 mt 6147  470 L
6111  434 mt 6111  506 L
5990  540 mt 6062  540 L
6026  504 mt 6026  576 L
5278 4457 mt 5350 4457 L
5314 4421 mt 5314 4493 L
5885 3288 mt 5957 3288 L
5921 3252 mt 5921 3324 L
3648  423 mt 3720  423 L
3684  387 mt 3684  459 L
5744  487 mt 5816  487 L
5780  451 mt 5780  523 L
5750  466 mt 5822  466 L
5786  430 mt 5786  502 L
5914  700 mt 5986  700 L
5950  664 mt 5950  736 L
6109  431 mt 6181  431 L
6145  395 mt 6145  467 L
6038 1009 mt 6110 1009 L
6074  973 mt 6074 1045 L
5845  505 mt 5917  505 L
5881  469 mt 5881  541 L
6121 1804 mt 6193 1804 L
6157 1768 mt 6157 1840 L
5957  415 mt 6029  415 L
5993  379 mt 5993  451 L
6225 3495 mt 6297 3495 L
6261 3459 mt 6261 3531 L
5997 1701 mt 6069 1701 L
6033 1665 mt 6033 1737 L
1348 3140 mt 1420 3140 L
1384 3104 mt 1384 3176 L
6020 4310 mt 6092 4310 L
6056 4274 mt 6056 4346 L
6051  824 mt 6123  824 L
6087  788 mt 6087  860 L
6040  458 mt 6112  458 L
6076  422 mt 6076  494 L
6147  433 mt 6219  433 L
6183  397 mt 6183  469 L
1613  459 mt 1685  459 L
1649  423 mt 1649  495 L
6208  830 mt 6280  830 L
6244  794 mt 6244  866 L
6072 3242 mt 6144 3242 L
6108 3206 mt 6108 3278 L
 883 1048 mt  955 1048 L
 919 1012 mt  919 1084 L
 863  800 mt  935  800 L
 899  764 mt  899  836 L
4068 2681 mt 4140 2681 L
4104 2645 mt 4104 2717 L
6166  455 mt 6238  455 L
6202  419 mt 6202  491 L
4911  807 mt 4983  807 L
4947  771 mt 4947  843 L
4738  781 mt 4810  781 L
4774  745 mt 4774  817 L
1589 1481 mt 1661 1481 L
1625 1445 mt 1625 1517 L
5814  448 mt 5886  448 L
5850  412 mt 5850  484 L
5196  471 mt 5268  471 L
5232  435 mt 5232  507 L
6076  419 mt 6148  419 L
6112  383 mt 6112  455 L
4520 3548 mt 4592 3548 L
4556 3512 mt 4556 3584 L
6203  431 mt 6275  431 L
6239  395 mt 6239  467 L
6083  425 mt 6155  425 L
6119  389 mt 6119  461 L
5920  779 mt 5992  779 L
5956  743 mt 5956  815 L
gs 899 414 5363 4203 rc
gr

0 sg
2836 5104 mt 
(\(S,PAC,GMM\)) s
 422 3277 mt  -90 rotate
(\(S,SSC,GMM\)) s
90 rotate
2975  223 mt 
(Corr = 0.23) s

end %%Color Dict

eplot
%%EndObject

epage
end

showpage

%%Trailer
%%EOF
