%!PS-Adobe-3.0 EPSF-3.0
%%Creator: MATLAB, The Mathworks, Inc. Version 7.7.0.471 (R2008b). Operating System: Microsoft Windows XP.
%%Title: Pictures\main_zoo_mvar_analysis_data_BMI_xcorr_bmi_p1_k2_1_4.eps
%%CreationDate: 10/26/2009  05:44:14
%%DocumentNeededFonts: Helvetica
%%DocumentProcessColors: Cyan Magenta Yellow Black
%%LanguageLevel: 2
%%Pages: 1
%%BoundingBox:    32   180   546   616
%%EndComments

%%BeginProlog
% MathWorks dictionary
/MathWorks 160 dict begin
% definition operators
/bdef {bind def} bind def
/ldef {load def} bind def
/xdef {exch def} bdef
/xstore {exch store} bdef
% operator abbreviations
/c  /clip ldef
/cc /concat ldef
/cp /closepath ldef
/gr /grestore ldef
/gs /gsave ldef
/mt /moveto ldef
/np /newpath ldef
/cm /currentmatrix ldef
/sm /setmatrix ldef
/rm /rmoveto ldef
/rl /rlineto ldef
/s {show newpath} bdef
/sc {setcmykcolor} bdef
/sr /setrgbcolor ldef
/sg /setgray ldef
/w /setlinewidth ldef
/j /setlinejoin ldef
/cap /setlinecap ldef
/rc {rectclip} bdef
/rf {rectfill} bdef
% page state control
/pgsv () def
/bpage {/pgsv save def} bdef
/epage {pgsv restore} bdef
/bplot /gsave ldef
/eplot {stroke grestore} bdef
% orientation switch
/portraitMode 0 def /landscapeMode 1 def /rotateMode 2 def
% coordinate system mappings
/dpi2point 0 def
% font control
/FontSize 0 def
/FMS {/FontSize xstore findfont [FontSize 0 0 FontSize neg 0 0]
  makefont setfont} bdef
/ISOLatin1Encoding where {pop /WindowsLatin1Encoding 256 array bdef
ISOLatin1Encoding WindowsLatin1Encoding copy pop
/.notdef/.notdef/quotesinglbase/florin/quotedblbase/ellipsis/dagger
/daggerdbl/circumflex/perthousand/Scaron/guilsinglleft/OE/.notdef/.notdef
/.notdef/.notdef/quoteleft/quoteright/quotedblleft/quotedblright/bullet
/endash/emdash/tilde/trademark/scaron/guilsinglright/oe/.notdef/.notdef
/Ydieresis WindowsLatin1Encoding 128 32 getinterval astore pop}
{/WindowsLatin1Encoding StandardEncoding bdef} ifelse
/reencode {exch dup where {pop load} {pop StandardEncoding} ifelse
  exch dup 3 1 roll findfont dup length dict begin
  { 1 index /FID ne {def}{pop pop} ifelse } forall
  /Encoding exch def currentdict end definefont pop} bdef
/isroman {findfont /CharStrings get /Agrave known} bdef
/FMSR {3 1 roll 1 index dup isroman {reencode} {pop pop} ifelse
  exch FMS} bdef
/csm {1 dpi2point div -1 dpi2point div scale neg translate
 dup landscapeMode eq {pop -90 rotate}
  {rotateMode eq {90 rotate} if} ifelse} bdef
% line types: solid, dotted, dashed, dotdash
/SO { [] 0 setdash } bdef
/DO { [.5 dpi2point mul 4 dpi2point mul] 0 setdash } bdef
/DA { [6 dpi2point mul] 0 setdash } bdef
/DD { [.5 dpi2point mul 4 dpi2point mul 6 dpi2point mul 4
  dpi2point mul] 0 setdash } bdef
% macros for lines and objects
/L {lineto stroke} bdef
/MP {3 1 roll moveto 1 sub {rlineto} repeat} bdef
/AP {{rlineto} repeat} bdef
/PDlw -1 def
/W {/PDlw currentlinewidth def setlinewidth} def
/PP {closepath eofill} bdef
/DP {closepath stroke} bdef
/MR {4 -2 roll moveto dup  0 exch rlineto exch 0 rlineto
  neg 0 exch rlineto closepath} bdef
/FR {MR stroke} bdef
/PR {MR fill} bdef
/L1i {{currentfile picstr readhexstring pop} image} bdef
/tMatrix matrix def
/MakeOval {newpath tMatrix currentmatrix pop translate scale
0 0 1 0 360 arc tMatrix setmatrix} bdef
/FO {MakeOval stroke} bdef
/PO {MakeOval fill} bdef
/PD {currentlinewidth 2 div 0 360 arc fill
   PDlw -1 eq not {PDlw w /PDlw -1 def} if} def
/FA {newpath tMatrix currentmatrix pop translate scale
  0 0 1 5 -2 roll arc tMatrix setmatrix stroke} bdef
/PA {newpath tMatrix currentmatrix pop	translate 0 0 moveto scale
  0 0 1 5 -2 roll arc closepath tMatrix setmatrix fill} bdef
/FAn {newpath tMatrix currentmatrix pop translate scale
  0 0 1 5 -2 roll arcn tMatrix setmatrix stroke} bdef
/PAn {newpath tMatrix currentmatrix pop translate 0 0 moveto scale
  0 0 1 5 -2 roll arcn closepath tMatrix setmatrix fill} bdef
/vradius 0 def /hradius 0 def /lry 0 def
/lrx 0 def /uly 0 def /ulx 0 def /rad 0 def
/MRR {/vradius xdef /hradius xdef /lry xdef /lrx xdef /uly xdef
  /ulx xdef newpath tMatrix currentmatrix pop ulx hradius add uly
  vradius add translate hradius vradius scale 0 0 1 180 270 arc 
  tMatrix setmatrix lrx hradius sub uly vradius add translate
  hradius vradius scale 0 0 1 270 360 arc tMatrix setmatrix
  lrx hradius sub lry vradius sub translate hradius vradius scale
  0 0 1 0 90 arc tMatrix setmatrix ulx hradius add lry vradius sub
  translate hradius vradius scale 0 0 1 90 180 arc tMatrix setmatrix
  closepath} bdef
/FRR {MRR stroke } bdef
/PRR {MRR fill } bdef
/MlrRR {/lry xdef /lrx xdef /uly xdef /ulx xdef /rad lry uly sub 2 div def
  newpath tMatrix currentmatrix pop ulx rad add uly rad add translate
  rad rad scale 0 0 1 90 270 arc tMatrix setmatrix lrx rad sub lry rad
  sub translate rad rad scale 0 0 1 270 90 arc tMatrix setmatrix
  closepath} bdef
/FlrRR {MlrRR stroke } bdef
/PlrRR {MlrRR fill } bdef
/MtbRR {/lry xdef /lrx xdef /uly xdef /ulx xdef /rad lrx ulx sub 2 div def
  newpath tMatrix currentmatrix pop ulx rad add uly rad add translate
  rad rad scale 0 0 1 180 360 arc tMatrix setmatrix lrx rad sub lry rad
  sub translate rad rad scale 0 0 1 0 180 arc tMatrix setmatrix
  closepath} bdef
/FtbRR {MtbRR stroke } bdef
/PtbRR {MtbRR fill } bdef
/stri 6 array def /dtri 6 array def
/smat 6 array def /dmat 6 array def
/tmat1 6 array def /tmat2 6 array def /dif 3 array def
/asub {/ind2 exch def /ind1 exch def dup dup
  ind1 get exch ind2 get sub exch } bdef
/tri_to_matrix {
  2 0 asub 3 1 asub 4 0 asub 5 1 asub
  dup 0 get exch 1 get 7 -1 roll astore } bdef
/compute_transform {
  dmat dtri tri_to_matrix tmat1 invertmatrix 
  smat stri tri_to_matrix tmat2 concatmatrix } bdef
/ds {stri astore pop} bdef
/dt {dtri astore pop} bdef
/db {2 copy /cols xdef /rows xdef mul dup 3 mul string
  currentfile 
  3 index 0 eq {/ASCIIHexDecode filter}
  {/ASCII85Decode filter 3 index 2 eq {/RunLengthDecode filter} if }
  ifelse exch readstring pop
  dup 0 3 index getinterval /rbmap xdef
  dup 2 index dup getinterval /gbmap xdef
  1 index dup 2 mul exch getinterval /bbmap xdef pop pop}bdef
/it {gs np dtri aload pop moveto lineto lineto cp c
  cols rows 8 compute_transform 
  rbmap gbmap bbmap true 3 colorimage gr}bdef
/il {newpath moveto lineto stroke}bdef
currentdict end def
%%EndProlog

%%BeginSetup
MathWorks begin

0 cap

end
%%EndSetup

%%Page: 1 1
%%BeginPageSetup
%%PageBoundingBox:    32   180   546   616
MathWorks begin
bpage
%%EndPageSetup

%%BeginObject: obj1
bplot

/dpi2point 12 def
portraitMode 0216 7344 csm

  174   -48  6173  5231 rc
85 dict begin %Colortable dictionary
/c0 { 0.000000 0.000000 0.000000 sr} bdef
/c1 { 1.000000 1.000000 1.000000 sr} bdef
/c2 { 0.900000 0.000000 0.000000 sr} bdef
/c3 { 0.000000 0.820000 0.000000 sr} bdef
/c4 { 0.000000 0.000000 0.800000 sr} bdef
/c5 { 0.910000 0.820000 0.320000 sr} bdef
/c6 { 1.000000 0.260000 0.820000 sr} bdef
/c7 { 0.000000 0.820000 0.820000 sr} bdef
c0
1 j
1 sg
   0    0 6919 5187 rf
6 w
0 4202 5362 0 0 -4202 899 4616 4 MP
PP
-5362 0 0 4202 5362 0 0 -4202 899 4616 5 MP stroke
4 w
DO
SO
6 w
0 sg
 899  414 mt 6261  414 L
 899 4616 mt 6261 4616 L
6261 4616 mt 6261  414 L
 899 4616 mt  899  414 L
 899 4616 mt 6261 4616 L
 899 4616 mt  899  414 L
1971 4616 mt 1971 4562 L
1971  414 mt 1971  467 L
%%IncludeResource: font Helvetica
/Helvetica /WindowsLatin1Encoding 240 FMSR

1805 4873 mt 
(0.2) s
3043 4616 mt 3043 4562 L
3043  414 mt 3043  467 L
2877 4873 mt 
(0.4) s
4116 4616 mt 4116 4562 L
4116  414 mt 4116  467 L
3950 4873 mt 
(0.6) s
5188 4616 mt 5188 4562 L
5188  414 mt 5188  467 L
5022 4873 mt 
(0.8) s
 899 4196 mt  952 4196 L
6261 4196 mt 6207 4196 L
 531 4285 mt 
(0.1) s
 899 3776 mt  952 3776 L
6261 3776 mt 6207 3776 L
 531 3865 mt 
(0.2) s
 899 3355 mt  952 3355 L
6261 3355 mt 6207 3355 L
 531 3444 mt 
(0.3) s
 899 2935 mt  952 2935 L
6261 2935 mt 6207 2935 L
 531 3024 mt 
(0.4) s
 899 2515 mt  952 2515 L
6261 2515 mt 6207 2515 L
 531 2604 mt 
(0.5) s
 899 2094 mt  952 2094 L
6261 2094 mt 6207 2094 L
 531 2183 mt 
(0.6) s
 899 1674 mt  952 1674 L
6261 1674 mt 6207 1674 L
 531 1763 mt 
(0.7) s
 899 1254 mt  952 1254 L
6261 1254 mt 6207 1254 L
 531 1343 mt 
(0.8) s
 899  833 mt  952  833 L
6261  833 mt 6207  833 L
 531  922 mt 
(0.9) s
 899  414 mt 6261  414 L
 899 4616 mt 6261 4616 L
6261 4616 mt 6261  414 L
 899 4616 mt  899  414 L
gs 899 414 5363 4203 rc
gr

/c8 { 0.000000 0.000000 1.000000 sr} bdef
c8
5711 1151 mt 5783 1151 L
5747 1115 mt 5747 1187 L
6170  795 mt 6242  795 L
6206  759 mt 6206  831 L
1538 4443 mt 1610 4443 L
1574 4407 mt 1574 4479 L
1040 4095 mt 1112 4095 L
1076 4059 mt 1076 4131 L
5197  573 mt 5269  573 L
5233  537 mt 5233  609 L
1063 3628 mt 1135 3628 L
1099 3592 mt 1099 3664 L
 864 4473 mt  936 4473 L
 900 4437 mt  900 4509 L
5223 4009 mt 5295 4009 L
5259 3973 mt 5259 4045 L
5098 1962 mt 5170 1962 L
5134 1926 mt 5134 1998 L
6173 2651 mt 6245 2651 L
6209 2615 mt 6209 2687 L
1044 4598 mt 1116 4598 L
1080 4562 mt 1080 4634 L
4160 1788 mt 4232 1788 L
4196 1752 mt 4196 1824 L
6191  668 mt 6263  668 L
6227  632 mt 6227  704 L
3007 2040 mt 3079 2040 L
3043 2004 mt 3043 2076 L
6104  457 mt 6176  457 L
6140  421 mt 6140  493 L
3711 2708 mt 3783 2708 L
3747 2672 mt 3747 2744 L
4390 3274 mt 4462 3274 L
4426 3238 mt 4426 3310 L
5397 2721 mt 5469 2721 L
5433 2685 mt 5433 2757 L
6060 3522 mt 6132 3522 L
6096 3486 mt 6096 3558 L
4636 1037 mt 4708 1037 L
4672 1001 mt 4672 1073 L
1303 4606 mt 1375 4606 L
1339 4570 mt 1339 4642 L
5038 2429 mt 5110 2429 L
5074 2393 mt 5074 2465 L
1035 4319 mt 1107 4319 L
1071 4283 mt 1071 4355 L
1800 2849 mt 1872 2849 L
1836 2813 mt 1836 2885 L
5740 1667 mt 5812 1667 L
5776 1631 mt 5776 1703 L
3523 4610 mt 3595 4610 L
3559 4574 mt 3559 4646 L
1092 4058 mt 1164 4058 L
1128 4022 mt 1128 4094 L
4803 1348 mt 4875 1348 L
4839 1312 mt 4839 1384 L
4217 2793 mt 4289 2793 L
4253 2757 mt 4253 2829 L
5194 2383 mt 5266 2383 L
5230 2347 mt 5230 2419 L
 907 4509 mt  979 4509 L
 943 4473 mt  943 4545 L
2766 4610 mt 2838 4610 L
2802 4574 mt 2802 4646 L
 961 4588 mt 1033 4588 L
 997 4552 mt  997 4624 L
3180 2341 mt 3252 2341 L
3216 2305 mt 3216 2377 L
3180  804 mt 3252  804 L
3216  768 mt 3216  840 L
3852 2926 mt 3924 2926 L
3888 2890 mt 3888 2962 L
4663 3552 mt 4735 3552 L
4699 3516 mt 4699 3588 L
 940 4363 mt 1012 4363 L
 976 4327 mt  976 4399 L
2473 4312 mt 2545 4312 L
2509 4276 mt 2509 4348 L
2619 3399 mt 2691 3399 L
2655 3363 mt 2655 3435 L
3905 1295 mt 3977 1295 L
3941 1259 mt 3941 1331 L
5778  569 mt 5850  569 L
5814  533 mt 5814  605 L
6222 2840 mt 6294 2840 L
6258 2804 mt 6258 2876 L
4214 3797 mt 4286 3797 L
4250 3761 mt 4250 3833 L
6050  449 mt 6122  449 L
6086  413 mt 6086  485 L
3498 4598 mt 3570 4598 L
3534 4562 mt 3534 4634 L
2940 2353 mt 3012 2353 L
2976 2317 mt 2976 2389 L
5549 3736 mt 5621 3736 L
5585 3700 mt 5585 3772 L
1041 3924 mt 1113 3924 L
1077 3888 mt 1077 3960 L
5607 1866 mt 5679 1866 L
5643 1830 mt 5643 1902 L
1610  451 mt 1682  451 L
1646  415 mt 1646  487 L
4620 1280 mt 4692 1280 L
4656 1244 mt 4656 1316 L
4842 1512 mt 4914 1512 L
4878 1476 mt 4878 1548 L
5380 1029 mt 5452 1029 L
5416  993 mt 5416 1065 L
4579 1617 mt 4651 1617 L
4615 1581 mt 4615 1653 L
4239 2980 mt 4311 2980 L
4275 2944 mt 4275 3016 L
2372 2430 mt 2444 2430 L
2408 2394 mt 2408 2466 L
5971  460 mt 6043  460 L
6007  424 mt 6007  496 L
1830 4556 mt 1902 4556 L
1866 4520 mt 1866 4592 L
5677 3643 mt 5749 3643 L
5713 3607 mt 5713 3679 L
2918 1049 mt 2990 1049 L
2954 1013 mt 2954 1085 L
 927 4615 mt  999 4615 L
 963 4579 mt  963 4651 L
3256 3361 mt 3328 3361 L
3292 3325 mt 3292 3397 L
6194  451 mt 6266  451 L
6230  415 mt 6230  487 L
5370 1988 mt 5442 1988 L
5406 1952 mt 5406 2024 L
5131  459 mt 5203  459 L
5167  423 mt 5167  495 L
3962  481 mt 4034  481 L
3998  445 mt 3998  517 L
2036 3370 mt 2108 3370 L
2072 3334 mt 2072 3406 L
5446 4233 mt 5518 4233 L
5482 4197 mt 5482 4269 L
 971 1107 mt 1043 1107 L
1007 1071 mt 1007 1143 L
1359 4098 mt 1431 4098 L
1395 4062 mt 1395 4134 L
6163  786 mt 6235  786 L
6199  750 mt 6199  822 L
5817 1817 mt 5889 1817 L
5853 1781 mt 5853 1853 L
1293 2461 mt 1365 2461 L
1329 2425 mt 1329 2497 L
 863 4298 mt  935 4298 L
 899 4262 mt  899 4334 L
2723  629 mt 2795  629 L
2759  593 mt 2759  665 L
6008  616 mt 6080  616 L
6044  580 mt 6044  652 L
1168 4603 mt 1240 4603 L
1204 4567 mt 1204 4639 L
1296 4504 mt 1368 4504 L
1332 4468 mt 1332 4540 L
5794 4485 mt 5866 4485 L
5830 4449 mt 5830 4521 L
3873  916 mt 3945  916 L
3909  880 mt 3909  952 L
2098 3531 mt 2170 3531 L
2134 3495 mt 2134 3567 L
5464 1141 mt 5536 1141 L
5500 1105 mt 5500 1177 L
4624 1329 mt 4696 1329 L
4660 1293 mt 4660 1365 L
5846 1603 mt 5918 1603 L
5882 1567 mt 5882 1639 L
5544 3847 mt 5616 3847 L
5580 3811 mt 5580 3883 L
3068  714 mt 3140  714 L
3104  678 mt 3104  750 L
2757 2818 mt 2829 2818 L
2793 2782 mt 2793 2854 L
5227 1073 mt 5299 1073 L
5263 1037 mt 5263 1109 L
1016  449 mt 1088  449 L
1052  413 mt 1052  485 L
2792 3681 mt 2864 3681 L
2828 3645 mt 2828 3717 L
6062  433 mt 6134  433 L
6098  397 mt 6098  469 L
1838 4085 mt 1910 4085 L
1874 4049 mt 1874 4121 L
 993 1928 mt 1065 1928 L
1029 1892 mt 1029 1964 L
2582 2816 mt 2654 2816 L
2618 2780 mt 2618 2852 L
 963 3938 mt 1035 3938 L
 999 3902 mt  999 3974 L
5110  871 mt 5182  871 L
5146  835 mt 5146  907 L
4747  525 mt 4819  525 L
4783  489 mt 4783  561 L
1945 3139 mt 2017 3139 L
1981 3103 mt 1981 3175 L
 945  763 mt 1017  763 L
 981  727 mt  981  799 L
5880  414 mt 5952  414 L
5916  378 mt 5916  450 L
1619 3663 mt 1691 3663 L
1655 3627 mt 1655 3699 L
2589 3189 mt 2661 3189 L
2625 3153 mt 2625 3225 L
 894  763 mt  966  763 L
 930  727 mt  930  799 L
 927 4293 mt  999 4293 L
 963 4257 mt  963 4329 L
1550 4102 mt 1622 4102 L
1586 4066 mt 1586 4138 L
4091 2206 mt 4163 2206 L
4127 2170 mt 4127 2242 L
1660 4323 mt 1732 4323 L
1696 4287 mt 1696 4359 L
 925 4070 mt  997 4070 L
 961 4034 mt  961 4106 L
3721 4157 mt 3793 4157 L
3757 4121 mt 3757 4193 L
4849 1658 mt 4921 1658 L
4885 1622 mt 4885 1694 L
2299 4365 mt 2371 4365 L
2335 4329 mt 2335 4401 L
 950 2044 mt 1022 2044 L
 986 2008 mt  986 2080 L
6207  474 mt 6279  474 L
6243  438 mt 6243  510 L
1040 3848 mt 1112 3848 L
1076 3812 mt 1076 3884 L
5206 4139 mt 5278 4139 L
5242 4103 mt 5242 4175 L
3564 1202 mt 3636 1202 L
3600 1166 mt 3600 1238 L
1046  683 mt 1118  683 L
1082  647 mt 1082  719 L
2161 4615 mt 2233 4615 L
2197 4579 mt 2197 4651 L
 864 3106 mt  936 3106 L
 900 3070 mt  900 3142 L
4474 1371 mt 4546 1371 L
4510 1335 mt 4510 1407 L
5970 2848 mt 6042 2848 L
6006 2812 mt 6006 2884 L
5201 2220 mt 5273 2220 L
5237 2184 mt 5237 2256 L
4632 3392 mt 4704 3392 L
4668 3356 mt 4668 3428 L
 880 1317 mt  952 1317 L
 916 1281 mt  916 1353 L
5709  423 mt 5781  423 L
5745  387 mt 5745  459 L
 886 1148 mt  958 1148 L
 922 1112 mt  922 1184 L
1401 1858 mt 1473 1858 L
1437 1822 mt 1437 1894 L
2622 4175 mt 2694 4175 L
2658 4139 mt 2658 4211 L
1799 4507 mt 1871 4507 L
1835 4471 mt 1835 4543 L
6022  663 mt 6094  663 L
6058  627 mt 6058  699 L
5965 1385 mt 6037 1385 L
6001 1349 mt 6001 1421 L
3854 3841 mt 3926 3841 L
3890 3805 mt 3890 3877 L
2904 1948 mt 2976 1948 L
2940 1912 mt 2940 1984 L
1900 4486 mt 1972 4486 L
1936 4450 mt 1936 4522 L
3761 1180 mt 3833 1180 L
3797 1144 mt 3797 1216 L
1620 4606 mt 1692 4606 L
1656 4570 mt 1656 4642 L
6163 2575 mt 6235 2575 L
6199 2539 mt 6199 2611 L
1867 1935 mt 1939 1935 L
1903 1899 mt 1903 1971 L
4826  897 mt 4898  897 L
4862  861 mt 4862  933 L
5360 3215 mt 5432 3215 L
5396 3179 mt 5396 3251 L
5983  579 mt 6055  579 L
6019  543 mt 6019  615 L
1376 4518 mt 1448 4518 L
1412 4482 mt 1412 4554 L
2127 3046 mt 2199 3046 L
2163 3010 mt 2163 3082 L
5120  545 mt 5192  545 L
5156  509 mt 5156  581 L
5697 2663 mt 5769 2663 L
5733 2627 mt 5733 2699 L
 884 3271 mt  956 3271 L
 920 3235 mt  920 3307 L
 863  844 mt  935  844 L
 899  808 mt  899  880 L
2436 3317 mt 2508 3317 L
2472 3281 mt 2472 3353 L
3379 2980 mt 3451 2980 L
3415 2944 mt 3415 3016 L
 908 4479 mt  980 4479 L
 944 4443 mt  944 4515 L
5547 3609 mt 5619 3609 L
5583 3573 mt 5583 3645 L
1101 3790 mt 1173 3790 L
1137 3754 mt 1137 3826 L
1354 4506 mt 1426 4506 L
1390 4470 mt 1390 4542 L
4585 3930 mt 4657 3930 L
4621 3894 mt 4621 3966 L
 990 3921 mt 1062 3921 L
1026 3885 mt 1026 3957 L
3519 4613 mt 3591 4613 L
3555 4577 mt 3555 4649 L
6111 4491 mt 6183 4491 L
6147 4455 mt 6147 4527 L
1164 4596 mt 1236 4596 L
1200 4560 mt 1200 4632 L
6060 1048 mt 6132 1048 L
6096 1012 mt 6096 1084 L
4165 2879 mt 4237 2879 L
4201 2843 mt 4201 2915 L
1343 2906 mt 1415 2906 L
1379 2870 mt 1379 2942 L
1653 3880 mt 1725 3880 L
1689 3844 mt 1689 3916 L
5704  797 mt 5776  797 L
5740  761 mt 5740  833 L
3663 4280 mt 3735 4280 L
3699 4244 mt 3699 4316 L
1001 4616 mt 1073 4616 L
1037 4580 mt 1037 4652 L
1288 4573 mt 1360 4573 L
1324 4537 mt 1324 4609 L
6194 1584 mt 6266 1584 L
6230 1548 mt 6230 1620 L
1350 4426 mt 1422 4426 L
1386 4390 mt 1386 4462 L
5870  504 mt 5942  504 L
5906  468 mt 5906  540 L
2321 4188 mt 2393 4188 L
2357 4152 mt 2357 4224 L
3693  921 mt 3765  921 L
3729  885 mt 3729  957 L
1161 4609 mt 1233 4609 L
1197 4573 mt 1197 4645 L
3572 2096 mt 3644 2096 L
3608 2060 mt 3608 2132 L
5169 3254 mt 5241 3254 L
5205 3218 mt 5205 3290 L
2340  999 mt 2412  999 L
2376  963 mt 2376 1035 L
4999 2724 mt 5071 2724 L
5035 2688 mt 5035 2760 L
5649  418 mt 5721  418 L
5685  382 mt 5685  454 L
2013  834 mt 2085  834 L
2049  798 mt 2049  870 L
2820 4460 mt 2892 4460 L
2856 4424 mt 2856 4496 L
1411 4379 mt 1483 4379 L
1447 4343 mt 1447 4415 L
5571 1641 mt 5643 1641 L
5607 1605 mt 5607 1677 L
2520 2728 mt 2592 2728 L
2556 2692 mt 2556 2764 L
1254  562 mt 1326  562 L
1290  526 mt 1290  598 L
6065 1570 mt 6137 1570 L
6101 1534 mt 6101 1606 L
1035 4300 mt 1107 4300 L
1071 4264 mt 1071 4336 L
6154  539 mt 6226  539 L
6190  503 mt 6190  575 L
2914 1620 mt 2986 1620 L
2950 1584 mt 2950 1656 L
6111 1002 mt 6183 1002 L
6147  966 mt 6147 1038 L
5448 3942 mt 5520 3942 L
5484 3906 mt 5484 3978 L
2307 4553 mt 2379 4553 L
2343 4517 mt 2343 4589 L
5109 1969 mt 5181 1969 L
5145 1933 mt 5145 2005 L
6215  519 mt 6287  519 L
6251  483 mt 6251  555 L
6211  964 mt 6283  964 L
6247  928 mt 6247 1000 L
3874 1456 mt 3946 1456 L
3910 1420 mt 3910 1492 L
 868 2806 mt  940 2806 L
 904 2770 mt  904 2842 L
5426 4124 mt 5498 4124 L
5462 4088 mt 5462 4160 L
4968 1145 mt 5040 1145 L
5004 1109 mt 5004 1181 L
4738 3659 mt 4810 3659 L
4774 3623 mt 4774 3695 L
4677 1874 mt 4749 1874 L
4713 1838 mt 4713 1910 L
6199  450 mt 6271  450 L
6235  414 mt 6235  486 L
4534  509 mt 4606  509 L
4570  473 mt 4570  545 L
6218  611 mt 6290  611 L
6254  575 mt 6254  647 L
3364 4604 mt 3436 4604 L
3400 4568 mt 3400 4640 L
3515 4474 mt 3587 4474 L
3551 4438 mt 3551 4510 L
6171  921 mt 6243  921 L
6207  885 mt 6207  957 L
6219 2483 mt 6291 2483 L
6255 2447 mt 6255 2519 L
5635 2433 mt 5707 2433 L
5671 2397 mt 5671 2469 L
1420  533 mt 1492  533 L
1456  497 mt 1456  569 L
1553 4206 mt 1625 4206 L
1589 4170 mt 1589 4242 L
2432 4557 mt 2504 4557 L
2468 4521 mt 2468 4593 L
6219  442 mt 6291  442 L
6255  406 mt 6255  478 L
5620  881 mt 5692  881 L
5656  845 mt 5656  917 L
3007 2816 mt 3079 2816 L
3043 2780 mt 3043 2852 L
 868  511 mt  940  511 L
 904  475 mt  904  547 L
6010  537 mt 6082  537 L
6046  501 mt 6046  573 L
5291  619 mt 5363  619 L
5327  583 mt 5327  655 L
6203 2762 mt 6275 2762 L
6239 2726 mt 6239 2798 L
6217 4229 mt 6289 4229 L
6253 4193 mt 6253 4265 L
4887 1641 mt 4959 1641 L
4923 1605 mt 4923 1677 L
1903 3763 mt 1975 3763 L
1939 3727 mt 1939 3799 L
1555 3744 mt 1627 3744 L
1591 3708 mt 1591 3780 L
5063  665 mt 5135  665 L
5099  629 mt 5099  701 L
 886 4573 mt  958 4573 L
 922 4537 mt  922 4609 L
6216  759 mt 6288  759 L
6252  723 mt 6252  795 L
2994 4254 mt 3066 4254 L
3030 4218 mt 3030 4290 L
2114 4610 mt 2186 4610 L
2150 4574 mt 2150 4646 L
2705 1419 mt 2777 1419 L
2741 1383 mt 2741 1455 L
5541 4225 mt 5613 4225 L
5577 4189 mt 5577 4261 L
6220 4573 mt 6292 4573 L
6256 4537 mt 6256 4609 L
3137 1359 mt 3209 1359 L
3173 1323 mt 3173 1395 L
2672 2817 mt 2744 2817 L
2708 2781 mt 2708 2853 L
4751 4351 mt 4823 4351 L
4787 4315 mt 4787 4387 L
4823 3920 mt 4895 3920 L
4859 3884 mt 4859 3956 L
 868 4561 mt  940 4561 L
 904 4525 mt  904 4597 L
5351  667 mt 5423  667 L
5387  631 mt 5387  703 L
4878  481 mt 4950  481 L
4914  445 mt 4914  517 L
1311 1295 mt 1383 1295 L
1347 1259 mt 1347 1331 L
6144 4588 mt 6216 4588 L
6180 4552 mt 6180 4624 L
3948  434 mt 4020  434 L
3984  398 mt 3984  470 L
6209  428 mt 6281  428 L
6245  392 mt 6245  464 L
6203  474 mt 6275  474 L
6239  438 mt 6239  510 L
6224  420 mt 6296  420 L
6260  384 mt 6260  456 L
5930  424 mt 6002  424 L
5966  388 mt 5966  460 L
6200  434 mt 6272  434 L
6236  398 mt 6236  470 L
4633  437 mt 4705  437 L
4669  401 mt 4669  473 L
3165 2508 mt 3237 2508 L
3201 2472 mt 3201 2544 L
1836 3846 mt 1908 3846 L
1872 3810 mt 1872 3882 L
 865  644 mt  937  644 L
 901  608 mt  901  680 L
1071 4322 mt 1143 4322 L
1107 4286 mt 1107 4358 L
1432  491 mt 1504  491 L
1468  455 mt 1468  527 L
1019 2939 mt 1091 2939 L
1055 2903 mt 1055 2975 L
1868 3076 mt 1940 3076 L
1904 3040 mt 1904 3112 L
6095  433 mt 6167  433 L
6131  397 mt 6131  469 L
2806 3120 mt 2878 3120 L
2842 3084 mt 2842 3156 L
6162 1058 mt 6234 1058 L
6198 1022 mt 6198 1094 L
5857  531 mt 5929  531 L
5893  495 mt 5893  567 L
4893 3514 mt 4965 3514 L
4929 3478 mt 4929 3550 L
5374  641 mt 5446  641 L
5410  605 mt 5410  677 L
3029 3075 mt 3101 3075 L
3065 3039 mt 3065 3111 L
4505  427 mt 4577  427 L
4541  391 mt 4541  463 L
6133  470 mt 6205  470 L
6169  434 mt 6169  506 L
 871 1067 mt  943 1067 L
 907 1031 mt  907 1103 L
5645  507 mt 5717  507 L
5681  471 mt 5681  543 L
 872 1305 mt  944 1305 L
 908 1269 mt  908 1341 L
3303 3686 mt 3375 3686 L
3339 3650 mt 3339 3722 L
5829  460 mt 5901  460 L
5865  424 mt 5865  496 L
2408 2509 mt 2480 2509 L
2444 2473 mt 2444 2545 L
 937 3376 mt 1009 3376 L
 973 3340 mt  973 3412 L
1857 1168 mt 1929 1168 L
1893 1132 mt 1893 1204 L
5713  417 mt 5785  417 L
5749  381 mt 5749  453 L
5058  702 mt 5130  702 L
5094  666 mt 5094  738 L
6215  449 mt 6287  449 L
6251  413 mt 6251  485 L
1590 3403 mt 1662 3403 L
1626 3367 mt 1626 3439 L
2387 1943 mt 2459 1943 L
2423 1907 mt 2423 1979 L
1694 3968 mt 1766 3968 L
1730 3932 mt 1730 4004 L
6060  456 mt 6132  456 L
6096  420 mt 6096  492 L
 958  471 mt 1030  471 L
 994  435 mt  994  507 L
1972 4025 mt 2044 4025 L
2008 3989 mt 2008 4061 L
4628  461 mt 4700  461 L
4664  425 mt 4664  497 L
6219 1119 mt 6291 1119 L
6255 1083 mt 6255 1155 L
 905 1355 mt  977 1355 L
 941 1319 mt  941 1391 L
6220  448 mt 6292  448 L
6256  412 mt 6256  484 L
4119 1391 mt 4191 1391 L
4155 1355 mt 4155 1427 L
6208 1155 mt 6280 1155 L
6244 1119 mt 6244 1191 L
 983 4356 mt 1055 4356 L
1019 4320 mt 1019 4392 L
1296  548 mt 1368  548 L
1332  512 mt 1332  584 L
5900 1745 mt 5972 1745 L
5936 1709 mt 5936 1781 L
3116 3618 mt 3188 3618 L
3152 3582 mt 3152 3654 L
3875  594 mt 3947  594 L
3911  558 mt 3911  630 L
4310  476 mt 4382  476 L
4346  440 mt 4346  512 L
6154  931 mt 6226  931 L
6190  895 mt 6190  967 L
 934 3986 mt 1006 3986 L
 970 3950 mt  970 4022 L
 864 3297 mt  936 3297 L
 900 3261 mt  900 3333 L
2890 2742 mt 2962 2742 L
2926 2706 mt 2926 2778 L
5334 3752 mt 5406 3752 L
5370 3716 mt 5370 3788 L
6225 1851 mt 6297 1851 L
6261 1815 mt 6261 1887 L
3531 4149 mt 3603 4149 L
3567 4113 mt 3567 4185 L
1039 3585 mt 1111 3585 L
1075 3549 mt 1075 3621 L
4377  467 mt 4449  467 L
4413  431 mt 4413  503 L
5340 1035 mt 5412 1035 L
5376  999 mt 5376 1071 L
6201  793 mt 6273  793 L
6237  757 mt 6237  829 L
5565 2912 mt 5637 2912 L
5601 2876 mt 5601 2948 L
3411  537 mt 3483  537 L
3447  501 mt 3447  573 L
3161 3929 mt 3233 3929 L
3197 3893 mt 3197 3965 L
 878  417 mt  950  417 L
 914  381 mt  914  453 L
5914  414 mt 5986  414 L
5950  378 mt 5950  450 L
6210  689 mt 6282  689 L
6246  653 mt 6246  725 L
5595  690 mt 5667  690 L
5631  654 mt 5631  726 L
5872 4270 mt 5944 4270 L
5908 4234 mt 5908 4306 L
5977 1415 mt 6049 1415 L
6013 1379 mt 6013 1451 L
1058 3151 mt 1130 3151 L
1094 3115 mt 1094 3187 L
2517 4256 mt 2589 4256 L
2553 4220 mt 2553 4292 L
1669 3645 mt 1741 3645 L
1705 3609 mt 1705 3681 L
1300 3290 mt 1372 3290 L
1336 3254 mt 1336 3326 L
 994 4462 mt 1066 4462 L
1030 4426 mt 1030 4498 L
5951  431 mt 6023  431 L
5987  395 mt 5987  467 L
4182  633 mt 4254  633 L
4218  597 mt 4218  669 L
6087 3245 mt 6159 3245 L
6123 3209 mt 6123 3281 L
2531  531 mt 2603  531 L
2567  495 mt 2567  567 L
6028  433 mt 6100  433 L
6064  397 mt 6064  469 L
3230 2037 mt 3302 2037 L
3266 2001 mt 3266 2073 L
2897 3724 mt 2969 3724 L
2933 3688 mt 2933 3760 L
5995 4002 mt 6067 4002 L
6031 3966 mt 6031 4038 L
1654 1472 mt 1726 1472 L
1690 1436 mt 1690 1508 L
2390 2533 mt 2462 2533 L
2426 2497 mt 2426 2569 L
5265  602 mt 5337  602 L
5301  566 mt 5301  638 L
6085  465 mt 6157  465 L
6121  429 mt 6121  501 L
4089  431 mt 4161  431 L
4125  395 mt 4125  467 L
1640 4192 mt 1712 4192 L
1676 4156 mt 1676 4228 L
6126  829 mt 6198  829 L
6162  793 mt 6162  865 L
1656 3158 mt 1728 3158 L
1692 3122 mt 1692 3194 L
6223  469 mt 6295  469 L
6259  433 mt 6259  505 L
 958 2720 mt 1030 2720 L
 994 2684 mt  994 2756 L
4403 3385 mt 4475 3385 L
4439 3349 mt 4439 3421 L
5060 3075 mt 5132 3075 L
5096 3039 mt 5096 3111 L
3554 2287 mt 3626 2287 L
3590 2251 mt 3590 2323 L
6207  652 mt 6279  652 L
6243  616 mt 6243  688 L
4275 2532 mt 4347 2532 L
4311 2496 mt 4311 2568 L
3907 1656 mt 3979 1656 L
3943 1620 mt 3943 1692 L
6212 1172 mt 6284 1172 L
6248 1136 mt 6248 1208 L
6184  414 mt 6256  414 L
6220  378 mt 6220  450 L
4648 2159 mt 4720 2159 L
4684 2123 mt 4684 2195 L
1181 4582 mt 1253 4582 L
1217 4546 mt 1217 4618 L
5602 1521 mt 5674 1521 L
5638 1485 mt 5638 1557 L
5478 2227 mt 5550 2227 L
5514 2191 mt 5514 2263 L
 912 1588 mt  984 1588 L
 948 1552 mt  948 1624 L
1285 1884 mt 1357 1884 L
1321 1848 mt 1321 1920 L
3357 2390 mt 3429 2390 L
3393 2354 mt 3393 2426 L
2314 2981 mt 2386 2981 L
2350 2945 mt 2350 3017 L
 883 4614 mt  955 4614 L
 919 4578 mt  919 4650 L
3368 3689 mt 3440 3689 L
3404 3653 mt 3404 3725 L
 863 2123 mt  935 2123 L
 899 2087 mt  899 2159 L
1180 2314 mt 1252 2314 L
1216 2278 mt 1216 2350 L
1996 3012 mt 2068 3012 L
2032 2976 mt 2032 3048 L
5320 1331 mt 5392 1331 L
5356 1295 mt 5356 1367 L
3854 4498 mt 3926 4498 L
3890 4462 mt 3890 4534 L
3447 3420 mt 3519 3420 L
3483 3384 mt 3483 3456 L
2063 4337 mt 2135 4337 L
2099 4301 mt 2099 4373 L
2549 3977 mt 2621 3977 L
2585 3941 mt 2585 4013 L
5963  874 mt 6035  874 L
5999  838 mt 5999  910 L
6088 4308 mt 6160 4308 L
6124 4272 mt 6124 4344 L
 874 1330 mt  946 1330 L
 910 1294 mt  910 1366 L
5992  512 mt 6064  512 L
6028  476 mt 6028  548 L
6165 4493 mt 6237 4493 L
6201 4457 mt 6201 4529 L
5655 3560 mt 5727 3560 L
5691 3524 mt 5691 3596 L
4838  757 mt 4910  757 L
4874  721 mt 4874  793 L
2987 2511 mt 3059 2511 L
3023 2475 mt 3023 2547 L
5000  476 mt 5072  476 L
5036  440 mt 5036  512 L
1158  490 mt 1230  490 L
1194  454 mt 1194  526 L
4696 2119 mt 4768 2119 L
4732 2083 mt 4732 2155 L
6111  518 mt 6183  518 L
6147  482 mt 6147  554 L
2117  428 mt 2189  428 L
2153  392 mt 2153  464 L
3816 3563 mt 3888 3563 L
3852 3527 mt 3852 3599 L
1031  472 mt 1103  472 L
1067  436 mt 1067  508 L
1678 4606 mt 1750 4606 L
1714 4570 mt 1714 4642 L
1109 4572 mt 1181 4572 L
1145 4536 mt 1145 4608 L
5449 3638 mt 5521 3638 L
5485 3602 mt 5485 3674 L
2743 2985 mt 2815 2985 L
2779 2949 mt 2779 3021 L
1423 4609 mt 1495 4609 L
1459 4573 mt 1459 4645 L
 895 3279 mt  967 3279 L
 931 3243 mt  931 3315 L
2558 4519 mt 2630 4519 L
2594 4483 mt 2594 4555 L
1890  418 mt 1962  418 L
1926  382 mt 1926  454 L
6181  653 mt 6253  653 L
6217  617 mt 6217  689 L
1517 4615 mt 1589 4615 L
1553 4579 mt 1553 4651 L
5965  420 mt 6037  420 L
6001  384 mt 6001  456 L
4160 1935 mt 4232 1935 L
4196 1899 mt 4196 1971 L
 950 1265 mt 1022 1265 L
 986 1229 mt  986 1301 L
3380 3356 mt 3452 3356 L
3416 3320 mt 3416 3392 L
2078 2067 mt 2150 2067 L
2114 2031 mt 2114 2103 L
2784 4403 mt 2856 4403 L
2820 4367 mt 2820 4439 L
6204 2557 mt 6276 2557 L
6240 2521 mt 6240 2593 L
4614  597 mt 4686  597 L
4650  561 mt 4650  633 L
5439 1074 mt 5511 1074 L
5475 1038 mt 5475 1110 L
6202  420 mt 6274  420 L
6238  384 mt 6238  456 L
2007 2068 mt 2079 2068 L
2043 2032 mt 2043 2104 L
5910 2203 mt 5982 2203 L
5946 2167 mt 5946 2239 L
 912 1565 mt  984 1565 L
 948 1529 mt  948 1601 L
6223 4065 mt 6295 4065 L
6259 4029 mt 6259 4101 L
6171  479 mt 6243  479 L
6207  443 mt 6207  515 L
gs 899 414 5363 4203 rc
gr

0 sg
2779 5104 mt 
(\(F,DCTs,GMM\)) s
 422 3296 mt  -90 rotate
(\(F,DCTs,iMLP\)) s
90 rotate
2975  223 mt 
(Corr = 0.39) s

end %%Color Dict

eplot
%%EndObject

epage
end

showpage

%%Trailer
%%EOF
