%!PS-Adobe-3.0 EPSF-3.0
%%Creator: MATLAB, The Mathworks, Inc. Version 7.7.0.471 (R2008b). Operating System: Microsoft Windows XP.
%%Title: Pictures\main_zoo_mvar_analysis_data_BMI_xcorr_bmig_p1_k2_5_8.eps
%%CreationDate: 10/26/2009  05:45:30
%%DocumentNeededFonts: Helvetica
%%DocumentProcessColors: Cyan Magenta Yellow Black
%%LanguageLevel: 2
%%Pages: 1
%%BoundingBox:    37   180   549   616
%%EndComments

%%BeginProlog
% MathWorks dictionary
/MathWorks 160 dict begin
% definition operators
/bdef {bind def} bind def
/ldef {load def} bind def
/xdef {exch def} bdef
/xstore {exch store} bdef
% operator abbreviations
/c  /clip ldef
/cc /concat ldef
/cp /closepath ldef
/gr /grestore ldef
/gs /gsave ldef
/mt /moveto ldef
/np /newpath ldef
/cm /currentmatrix ldef
/sm /setmatrix ldef
/rm /rmoveto ldef
/rl /rlineto ldef
/s {show newpath} bdef
/sc {setcmykcolor} bdef
/sr /setrgbcolor ldef
/sg /setgray ldef
/w /setlinewidth ldef
/j /setlinejoin ldef
/cap /setlinecap ldef
/rc {rectclip} bdef
/rf {rectfill} bdef
% page state control
/pgsv () def
/bpage {/pgsv save def} bdef
/epage {pgsv restore} bdef
/bplot /gsave ldef
/eplot {stroke grestore} bdef
% orientation switch
/portraitMode 0 def /landscapeMode 1 def /rotateMode 2 def
% coordinate system mappings
/dpi2point 0 def
% font control
/FontSize 0 def
/FMS {/FontSize xstore findfont [FontSize 0 0 FontSize neg 0 0]
  makefont setfont} bdef
/ISOLatin1Encoding where {pop /WindowsLatin1Encoding 256 array bdef
ISOLatin1Encoding WindowsLatin1Encoding copy pop
/.notdef/.notdef/quotesinglbase/florin/quotedblbase/ellipsis/dagger
/daggerdbl/circumflex/perthousand/Scaron/guilsinglleft/OE/.notdef/.notdef
/.notdef/.notdef/quoteleft/quoteright/quotedblleft/quotedblright/bullet
/endash/emdash/tilde/trademark/scaron/guilsinglright/oe/.notdef/.notdef
/Ydieresis WindowsLatin1Encoding 128 32 getinterval astore pop}
{/WindowsLatin1Encoding StandardEncoding bdef} ifelse
/reencode {exch dup where {pop load} {pop StandardEncoding} ifelse
  exch dup 3 1 roll findfont dup length dict begin
  { 1 index /FID ne {def}{pop pop} ifelse } forall
  /Encoding exch def currentdict end definefont pop} bdef
/isroman {findfont /CharStrings get /Agrave known} bdef
/FMSR {3 1 roll 1 index dup isroman {reencode} {pop pop} ifelse
  exch FMS} bdef
/csm {1 dpi2point div -1 dpi2point div scale neg translate
 dup landscapeMode eq {pop -90 rotate}
  {rotateMode eq {90 rotate} if} ifelse} bdef
% line types: solid, dotted, dashed, dotdash
/SO { [] 0 setdash } bdef
/DO { [.5 dpi2point mul 4 dpi2point mul] 0 setdash } bdef
/DA { [6 dpi2point mul] 0 setdash } bdef
/DD { [.5 dpi2point mul 4 dpi2point mul 6 dpi2point mul 4
  dpi2point mul] 0 setdash } bdef
% macros for lines and objects
/L {lineto stroke} bdef
/MP {3 1 roll moveto 1 sub {rlineto} repeat} bdef
/AP {{rlineto} repeat} bdef
/PDlw -1 def
/W {/PDlw currentlinewidth def setlinewidth} def
/PP {closepath eofill} bdef
/DP {closepath stroke} bdef
/MR {4 -2 roll moveto dup  0 exch rlineto exch 0 rlineto
  neg 0 exch rlineto closepath} bdef
/FR {MR stroke} bdef
/PR {MR fill} bdef
/L1i {{currentfile picstr readhexstring pop} image} bdef
/tMatrix matrix def
/MakeOval {newpath tMatrix currentmatrix pop translate scale
0 0 1 0 360 arc tMatrix setmatrix} bdef
/FO {MakeOval stroke} bdef
/PO {MakeOval fill} bdef
/PD {currentlinewidth 2 div 0 360 arc fill
   PDlw -1 eq not {PDlw w /PDlw -1 def} if} def
/FA {newpath tMatrix currentmatrix pop translate scale
  0 0 1 5 -2 roll arc tMatrix setmatrix stroke} bdef
/PA {newpath tMatrix currentmatrix pop	translate 0 0 moveto scale
  0 0 1 5 -2 roll arc closepath tMatrix setmatrix fill} bdef
/FAn {newpath tMatrix currentmatrix pop translate scale
  0 0 1 5 -2 roll arcn tMatrix setmatrix stroke} bdef
/PAn {newpath tMatrix currentmatrix pop translate 0 0 moveto scale
  0 0 1 5 -2 roll arcn closepath tMatrix setmatrix fill} bdef
/vradius 0 def /hradius 0 def /lry 0 def
/lrx 0 def /uly 0 def /ulx 0 def /rad 0 def
/MRR {/vradius xdef /hradius xdef /lry xdef /lrx xdef /uly xdef
  /ulx xdef newpath tMatrix currentmatrix pop ulx hradius add uly
  vradius add translate hradius vradius scale 0 0 1 180 270 arc 
  tMatrix setmatrix lrx hradius sub uly vradius add translate
  hradius vradius scale 0 0 1 270 360 arc tMatrix setmatrix
  lrx hradius sub lry vradius sub translate hradius vradius scale
  0 0 1 0 90 arc tMatrix setmatrix ulx hradius add lry vradius sub
  translate hradius vradius scale 0 0 1 90 180 arc tMatrix setmatrix
  closepath} bdef
/FRR {MRR stroke } bdef
/PRR {MRR fill } bdef
/MlrRR {/lry xdef /lrx xdef /uly xdef /ulx xdef /rad lry uly sub 2 div def
  newpath tMatrix currentmatrix pop ulx rad add uly rad add translate
  rad rad scale 0 0 1 90 270 arc tMatrix setmatrix lrx rad sub lry rad
  sub translate rad rad scale 0 0 1 270 90 arc tMatrix setmatrix
  closepath} bdef
/FlrRR {MlrRR stroke } bdef
/PlrRR {MlrRR fill } bdef
/MtbRR {/lry xdef /lrx xdef /uly xdef /ulx xdef /rad lrx ulx sub 2 div def
  newpath tMatrix currentmatrix pop ulx rad add uly rad add translate
  rad rad scale 0 0 1 180 360 arc tMatrix setmatrix lrx rad sub lry rad
  sub translate rad rad scale 0 0 1 0 180 arc tMatrix setmatrix
  closepath} bdef
/FtbRR {MtbRR stroke } bdef
/PtbRR {MtbRR fill } bdef
/stri 6 array def /dtri 6 array def
/smat 6 array def /dmat 6 array def
/tmat1 6 array def /tmat2 6 array def /dif 3 array def
/asub {/ind2 exch def /ind1 exch def dup dup
  ind1 get exch ind2 get sub exch } bdef
/tri_to_matrix {
  2 0 asub 3 1 asub 4 0 asub 5 1 asub
  dup 0 get exch 1 get 7 -1 roll astore } bdef
/compute_transform {
  dmat dtri tri_to_matrix tmat1 invertmatrix 
  smat stri tri_to_matrix tmat2 concatmatrix } bdef
/ds {stri astore pop} bdef
/dt {dtri astore pop} bdef
/db {2 copy /cols xdef /rows xdef mul dup 3 mul string
  currentfile 
  3 index 0 eq {/ASCIIHexDecode filter}
  {/ASCII85Decode filter 3 index 2 eq {/RunLengthDecode filter} if }
  ifelse exch readstring pop
  dup 0 3 index getinterval /rbmap xdef
  dup 2 index dup getinterval /gbmap xdef
  1 index dup 2 mul exch getinterval /bbmap xdef pop pop}bdef
/it {gs np dtri aload pop moveto lineto lineto cp c
  cols rows 8 compute_transform 
  rbmap gbmap bbmap true 3 colorimage gr}bdef
/il {newpath moveto lineto stroke}bdef
currentdict end def
%%EndProlog

%%BeginSetup
MathWorks begin

0 cap

end
%%EndSetup

%%Page: 1 1
%%BeginPageSetup
%%PageBoundingBox:    37   180   549   616
MathWorks begin
bpage
%%EndPageSetup

%%BeginObject: obj1
bplot

/dpi2point 12 def
portraitMode 0216 7344 csm

  234   -48  6149  5231 rc
85 dict begin %Colortable dictionary
/c0 { 0.000000 0.000000 0.000000 sr} bdef
/c1 { 1.000000 1.000000 1.000000 sr} bdef
/c2 { 0.900000 0.000000 0.000000 sr} bdef
/c3 { 0.000000 0.820000 0.000000 sr} bdef
/c4 { 0.000000 0.000000 0.800000 sr} bdef
/c5 { 0.910000 0.820000 0.320000 sr} bdef
/c6 { 1.000000 0.260000 0.820000 sr} bdef
/c7 { 0.000000 0.820000 0.820000 sr} bdef
c0
1 j
1 sg
   0    0 6919 5187 rf
6 w
0 4202 5362 0 0 -4202 899 4616 4 MP
PP
-5362 0 0 4202 5362 0 0 -4202 899 4616 5 MP stroke
4 w
DO
SO
6 w
0 sg
 899  414 mt 6261  414 L
 899 4616 mt 6261 4616 L
6261 4616 mt 6261  414 L
 899 4616 mt  899  414 L
 899 4616 mt 6261 4616 L
 899 4616 mt  899  414 L
 919 4616 mt  919 4562 L
 919  414 mt  919  467 L
%%IncludeResource: font Helvetica
/Helvetica /WindowsLatin1Encoding 240 FMSR

 713 4873 mt 
(-3) s
1806 4616 mt 1806 4562 L
1806  414 mt 1806  467 L
1600 4873 mt 
(-2) s
2693 4616 mt 2693 4562 L
2693  414 mt 2693  467 L
2487 4873 mt 
(-1) s
3580 4616 mt 3580 4562 L
3580  414 mt 3580  467 L
3514 4873 mt 
(0) s
4466 4616 mt 4466 4562 L
4466  414 mt 4466  467 L
4400 4873 mt 
(1) s
5353 4616 mt 5353 4562 L
5353  414 mt 5353  467 L
5287 4873 mt 
(2) s
6240 4616 mt 6240 4562 L
6240  414 mt 6240  467 L
6174 4873 mt 
(3) s
 899 4599 mt  952 4599 L
6261 4599 mt 6207 4599 L
 591 4688 mt 
(-3) s
 899 3904 mt  952 3904 L
6261 3904 mt 6207 3904 L
 591 3993 mt 
(-2) s
 899 3209 mt  952 3209 L
6261 3209 mt 6207 3209 L
 591 3298 mt 
(-1) s
 899 2514 mt  952 2514 L
6261 2514 mt 6207 2514 L
 731 2603 mt 
(0) s
 899 1820 mt  952 1820 L
6261 1820 mt 6207 1820 L
 731 1909 mt 
(1) s
 899 1125 mt  952 1125 L
6261 1125 mt 6207 1125 L
 731 1214 mt 
(2) s
 899  430 mt  952  430 L
6261  430 mt 6207  430 L
 731  519 mt 
(3) s
 899  414 mt 6261  414 L
 899 4616 mt 6261 4616 L
6261 4616 mt 6261  414 L
 899 4616 mt  899  414 L
gs 899 414 5363 4203 rc
gr

/c8 { 0.000000 0.000000 1.000000 sr} bdef
c8
3745 1255 mt 3817 1255 L
3781 1219 mt 3781 1291 L
3376 2001 mt 3448 2001 L
3412 1965 mt 3412 2037 L
3915 1990 mt 3987 1990 L
3951 1954 mt 3951 2026 L
3493 2637 mt 3565 2637 L
3529 2601 mt 3529 2673 L
3566 1572 mt 3638 1572 L
3602 1536 mt 3602 1608 L
4121 1604 mt 4193 1604 L
4157 1568 mt 4157 1640 L
2502 3257 mt 2574 3257 L
2538 3221 mt 2538 3293 L
2813 2237 mt 2885 2237 L
2849 2201 mt 2849 2273 L
2565 2228 mt 2637 2228 L
2601 2192 mt 2601 2264 L
4981 1336 mt 5053 1336 L
5017 1300 mt 5017 1372 L
2165 2480 mt 2237 2480 L
2201 2444 mt 2201 2516 L
3689 2204 mt 3761 2204 L
3725 2168 mt 3725 2240 L
4364 2695 mt 4436 2695 L
4400 2659 mt 4400 2731 L
3627 1593 mt 3699 1593 L
3663 1557 mt 3663 1629 L
4904 2894 mt 4976 2894 L
4940 2858 mt 4940 2930 L
3110 2796 mt 3182 2796 L
3146 2760 mt 3146 2832 L
3290 1851 mt 3362 1851 L
3326 1815 mt 3326 1887 L
3516 4131 mt 3588 4131 L
3552 4095 mt 3552 4167 L
3296 2458 mt 3368 2458 L
3332 2422 mt 3332 2494 L
3364 2383 mt 3436 2383 L
3400 2347 mt 3400 2419 L
3549 2284 mt 3621 2284 L
3585 2248 mt 3585 2320 L
3706 2311 mt 3778 2311 L
3742 2275 mt 3742 2347 L
2805 2046 mt 2877 2046 L
2841 2010 mt 2841 2082 L
3621 2754 mt 3693 2754 L
3657 2718 mt 3657 2790 L
5047 3289 mt 5119 3289 L
5083 3253 mt 5083 3325 L
4107 2338 mt 4179 2338 L
4143 2302 mt 4143 2374 L
3432 2401 mt 3504 2401 L
3468 2365 mt 3468 2437 L
4425 2488 mt 4497 2488 L
4461 2452 mt 4461 2524 L
2586 1772 mt 2658 1772 L
2622 1736 mt 2622 1808 L
2624 2165 mt 2696 2165 L
2660 2129 mt 2660 2201 L
3610 2514 mt 3682 2514 L
3646 2478 mt 3646 2550 L
2468 2057 mt 2540 2057 L
2504 2021 mt 2504 2093 L
2251 2374 mt 2323 2374 L
2287 2338 mt 2287 2410 L
3370 3250 mt 3442 3250 L
3406 3214 mt 3406 3286 L
3855 1995 mt 3927 1995 L
3891 1959 mt 3891 2031 L
2874 1614 mt 2946 1614 L
2910 1578 mt 2910 1650 L
2715 1978 mt 2787 1978 L
2751 1942 mt 2751 2014 L
3415 3595 mt 3487 3595 L
3451 3559 mt 3451 3631 L
3958 2194 mt 4030 2194 L
3994 2158 mt 3994 2230 L
2797 2035 mt 2869 2035 L
2833 1999 mt 2833 2071 L
4067 2189 mt 4139 2189 L
4103 2153 mt 4103 2225 L
4608 1707 mt 4680 1707 L
4644 1671 mt 4644 1743 L
4100 2265 mt 4172 2265 L
4136 2229 mt 4136 2301 L
3387 2361 mt 3459 2361 L
3423 2325 mt 3423 2397 L
3666 3322 mt 3738 3322 L
3702 3286 mt 3702 3358 L
3873 3415 mt 3945 3415 L
3909 3379 mt 3909 3451 L
2931 2410 mt 3003 2410 L
2967 2374 mt 2967 2446 L
3359 2484 mt 3431 2484 L
3395 2448 mt 3395 2520 L
3677 2825 mt 3749 2825 L
3713 2789 mt 3713 2861 L
4381 3479 mt 4453 3479 L
4417 3443 mt 4417 3515 L
3232 2686 mt 3304 2686 L
3268 2650 mt 3268 2722 L
2959 1550 mt 3031 1550 L
2995 1514 mt 2995 1586 L
3605 2759 mt 3677 2759 L
3641 2723 mt 3641 2795 L
3184 2040 mt 3256 2040 L
3220 2004 mt 3220 2076 L
3104 2440 mt 3176 2440 L
3140 2404 mt 3140 2476 L
3438 2475 mt 3510 2475 L
3474 2439 mt 3474 2511 L
2456 3242 mt 2528 3242 L
2492 3206 mt 2492 3278 L
4619 1966 mt 4691 1966 L
4655 1930 mt 4655 2002 L
1387 2597 mt 1459 2597 L
1423 2561 mt 1423 2633 L
4398 2445 mt 4470 2445 L
4434 2409 mt 4434 2481 L
3510 3171 mt 3582 3171 L
3546 3135 mt 3546 3207 L
2063 3367 mt 2135 3367 L
2099 3331 mt 2099 3403 L
3803 1972 mt 3875 1972 L
3839 1936 mt 3839 2008 L
3319 2493 mt 3391 2493 L
3355 2457 mt 3355 2529 L
2444 1006 mt 2516 1006 L
2480  970 mt 2480 1042 L
4355 2989 mt 4427 2989 L
4391 2953 mt 4391 3025 L
3347 2506 mt 3419 2506 L
3383 2470 mt 3383 2542 L
3700 2864 mt 3772 2864 L
3736 2828 mt 3736 2900 L
2652 2062 mt 2724 2062 L
2688 2026 mt 2688 2098 L
3129 2067 mt 3201 2067 L
3165 2031 mt 3165 2103 L
3577 2160 mt 3649 2160 L
3613 2124 mt 3613 2196 L
4574 1917 mt 4646 1917 L
4610 1881 mt 4610 1953 L
2282 2914 mt 2354 2914 L
2318 2878 mt 2318 2950 L
3053 1152 mt 3125 1152 L
3089 1116 mt 3089 1188 L
2183 1872 mt 2255 1872 L
2219 1836 mt 2219 1908 L
2671 2741 mt 2743 2741 L
2707 2705 mt 2707 2777 L
3261 2175 mt 3333 2175 L
3297 2139 mt 3297 2211 L
3832 2242 mt 3904 2242 L
3868 2206 mt 3868 2278 L
4170 1787 mt 4242 1787 L
4206 1751 mt 4206 1823 L
 863 2423 mt  935 2423 L
 899 2387 mt  899 2459 L
1722 1404 mt 1794 1404 L
1758 1368 mt 1758 1440 L
3066 2325 mt 3138 2325 L
3102 2289 mt 3102 2361 L
3098 2664 mt 3170 2664 L
3134 2628 mt 3134 2700 L
3694 2209 mt 3766 2209 L
3730 2173 mt 3730 2245 L
3330 2956 mt 3402 2956 L
3366 2920 mt 3366 2992 L
2773 3051 mt 2845 3051 L
2809 3015 mt 2809 3087 L
3421 1561 mt 3493 1561 L
3457 1525 mt 3457 1597 L
4074 3625 mt 4146 3625 L
4110 3589 mt 4110 3661 L
3820 2270 mt 3892 2270 L
3856 2234 mt 3856 2306 L
4087  824 mt 4159  824 L
4123  788 mt 4123  860 L
2016 2668 mt 2088 2668 L
2052 2632 mt 2052 2704 L
4094 2920 mt 4166 2920 L
4130 2884 mt 4130 2956 L
2910 1898 mt 2982 1898 L
2946 1862 mt 2946 1934 L
2966 2567 mt 3038 2567 L
3002 2531 mt 3002 2603 L
2697 3144 mt 2769 3144 L
2733 3108 mt 2733 3180 L
4732 3235 mt 4804 3235 L
4768 3199 mt 4768 3271 L
3460 2682 mt 3532 2682 L
3496 2646 mt 3496 2718 L
1674 1634 mt 1746 1634 L
1710 1598 mt 1710 1670 L
2394 3797 mt 2466 3797 L
2430 3761 mt 2430 3833 L
4149 2611 mt 4221 2611 L
4185 2575 mt 4185 2647 L
4472 2018 mt 4544 2018 L
4508 1982 mt 4508 2054 L
4655 2528 mt 4727 2528 L
4691 2492 mt 4691 2564 L
3313 3131 mt 3385 3131 L
3349 3095 mt 3349 3167 L
2355 2972 mt 2427 2972 L
2391 2936 mt 2391 3008 L
3091 3178 mt 3163 3178 L
3127 3142 mt 3127 3214 L
4338 2185 mt 4410 2185 L
4374 2149 mt 4374 2221 L
3909 2835 mt 3981 2835 L
3945 2799 mt 3945 2871 L
4282 2532 mt 4354 2532 L
4318 2496 mt 4318 2568 L
3147 2388 mt 3219 2388 L
3183 2352 mt 3183 2424 L
3740 2180 mt 3812 2180 L
3776 2144 mt 3776 2216 L
4290 2329 mt 4362 2329 L
4326 2293 mt 4326 2365 L
3809 2764 mt 3881 2764 L
3845 2728 mt 3845 2800 L
2643 2830 mt 2715 2830 L
2679 2794 mt 2679 2866 L
3571 4205 mt 3643 4205 L
3607 4169 mt 3607 4241 L
2740 2704 mt 2812 2704 L
2776 2668 mt 2776 2740 L
3237 2541 mt 3309 2541 L
3273 2505 mt 3273 2577 L
3940 1756 mt 4012 1756 L
3976 1720 mt 3976 1792 L
4522 3503 mt 4594 3503 L
4558 3467 mt 4558 3539 L
3178 3184 mt 3250 3184 L
3214 3148 mt 3214 3220 L
2432 3908 mt 2504 3908 L
2468 3872 mt 2468 3944 L
3644 2352 mt 3716 2352 L
3680 2316 mt 3680 2388 L
3443 1779 mt 3515 1779 L
3479 1743 mt 3479 1815 L
3135 2343 mt 3207 2343 L
3171 2307 mt 3171 2379 L
3404 3112 mt 3476 3112 L
3440 3076 mt 3440 3148 L
2689 1845 mt 2761 1845 L
2725 1809 mt 2725 1881 L
5122 1671 mt 5194 1671 L
5158 1635 mt 5158 1707 L
2680 3693 mt 2752 3693 L
2716 3657 mt 2716 3729 L
3499 2673 mt 3571 2673 L
3535 2637 mt 3535 2709 L
4034 1794 mt 4106 1794 L
4070 1758 mt 4070 1830 L
2407 3045 mt 2479 3045 L
2443 3009 mt 2443 3081 L
4444 3022 mt 4516 3022 L
4480 2986 mt 4480 3058 L
3734 2768 mt 3806 2768 L
3770 2732 mt 3770 2804 L
4243 2519 mt 4315 2519 L
4279 2483 mt 4279 2555 L
3582 2497 mt 3654 2497 L
3618 2461 mt 3618 2533 L
2924 2650 mt 2996 2650 L
2960 2614 mt 2960 2686 L
3723 2909 mt 3795 2909 L
3759 2873 mt 3759 2945 L
2312 2580 mt 2384 2580 L
2348 2544 mt 2348 2616 L
4306 1885 mt 4378 1885 L
4342 1849 mt 4342 1921 L
3116 2820 mt 3188 2820 L
3152 2784 mt 3152 2856 L
3059 3125 mt 3131 3125 L
3095 3089 mt 3095 3161 L
2765 2967 mt 2837 2967 L
2801 2931 mt 2801 3003 L
3897 2279 mt 3969 2279 L
3933 2243 mt 3933 2315 L
3594 3057 mt 3666 3057 L
3630 3021 mt 3630 3093 L
3426 2700 mt 3498 2700 L
3462 2664 mt 3462 2736 L
3166 1698 mt 3238 1698 L
3202 1662 mt 3202 1734 L
4836 2392 mt 4908 2392 L
4872 2356 mt 4872 2428 L
3353 2334 mt 3425 2334 L
3389 2298 mt 3389 2370 L
2420 1388 mt 2492 1388 L
2456 1352 mt 2456 1424 L
3278 3675 mt 3350 3675 L
3314 3639 mt 3314 3711 L
3243 1904 mt 3315 1904 L
3279 1868 mt 3279 1940 L
2821 2449 mt 2893 2449 L
2857 2413 mt 2857 2485 L
2917 3395 mt 2989 3395 L
2953 3359 mt 2953 3431 L
1937 2713 mt 2009 2713 L
1973 2677 mt 1973 2749 L
2106 2261 mt 2178 2261 L
2142 2225 mt 2142 2297 L
3307 2709 mt 3379 2709 L
3343 2673 mt 3343 2745 L
3249 3340 mt 3321 3340 L
3285 3304 mt 3285 3376 L
3544 1689 mt 3616 1689 L
3580 1653 mt 3580 1725 L
3078 2899 mt 3150 2899 L
3114 2863 mt 3114 2935 L
4047 1838 mt 4119 1838 L
4083 1802 mt 4083 1874 L
4080 3273 mt 4152 3273 L
4116 3237 mt 4116 3309 L
3952 2854 mt 4024 2854 L
3988 2818 mt 3988 2890 L
1766 3641 mt 1838 3641 L
1802 3605 mt 1802 3677 L
2381 2462 mt 2453 2462 L
2417 2426 mt 2417 2498 L
2844 2302 mt 2916 2302 L
2880 2266 mt 2880 2338 L
2490 2736 mt 2562 2736 L
2526 2700 mt 2526 2772 L
2851 2930 mt 2923 2930 L
2887 2894 mt 2887 2966 L
3284 2633 mt 3356 2633 L
3320 2597 mt 3320 2669 L
4667 4616 mt 4739 4616 L
4703 4580 mt 4703 4652 L
3717 2659 mt 3789 2659 L
3753 2623 mt 3753 2695 L
4002 2293 mt 4074 2293 L
4038 2257 mt 4038 2329 L
3410 2199 mt 3482 2199 L
3446 2163 mt 3446 2235 L
1876 1948 mt 1948 1948 L
1912 1912 mt 1912 1984 L
3838 3191 mt 3910 3191 L
3874 3155 mt 3874 3227 L
2723 2307 mt 2795 2307 L
2759 2271 mt 2759 2343 L
2513 3206 mt 2585 3206 L
2549 3170 mt 2549 3242 L
3934 2094 mt 4006 2094 L
3970 2058 mt 3970 2130 L
3861 2396 mt 3933 2396 L
3897 2360 mt 3897 2432 L
2706 2874 mt 2778 2874 L
2742 2838 mt 2742 2910 L
1619 2125 mt 1691 2125 L
1655 2089 mt 1655 2161 L
3661 1865 mt 3733 1865 L
3697 1829 mt 3697 1901 L
4221 2935 mt 4293 2935 L
4257 2899 mt 4257 2971 L
3527 3017 mt 3599 3017 L
3563 2981 mt 3563 3053 L
3046 1643 mt 3118 1643 L
3082 1607 mt 3082 1679 L
2146 2078 mt 2218 2078 L
2182 2042 mt 2182 2114 L
3454 3349 mt 3526 3349 L
3490 3313 mt 3490 3385 L
2828 1831 mt 2900 1831 L
2864 1795 mt 2864 1867 L
3588 2347 mt 3660 2347 L
3624 2311 mt 3624 2383 L
3393 1748 mt 3465 1748 L
3429 1712 mt 3429 1784 L
3762 3658 mt 3834 3658 L
3798 3622 mt 3798 3694 L
3791 1419 mt 3863 1419 L
3827 1383 mt 3827 1455 L
2938 1538 mt 3010 1538 L
2974 1502 mt 2974 1574 L
2126 2727 mt 2198 2727 L
2162 2691 mt 2162 2763 L
4597 2275 mt 4669 2275 L
4633 2239 mt 4633 2311 L
5321 1984 mt 5393 1984 L
5357 1948 mt 5357 2020 L
3768 1583 mt 3840 1583 L
3804 1547 mt 3804 1619 L
3903 1923 mt 3975 1923 L
3939 1887 mt 3939 1959 L
2789 3039 mt 2861 3039 L
2825 3003 mt 2825 3075 L
2980 2405 mt 3052 2405 L
3016 2369 mt 3016 2441 L
2987 3358 mt 3059 3358 L
3023 3322 mt 3023 3394 L
4941 2140 mt 5013 2140 L
4977 2104 mt 4977 2176 L
4706 1087 mt 4778 1087 L
4742 1051 mt 4742 1123 L
4390 1715 mt 4462 1715 L
4426 1679 mt 4426 1751 L
3971 2099 mt 4043 2099 L
4007 2063 mt 4007 2135 L
3649 3164 mt 3721 3164 L
3685 3128 mt 3685 3200 L
3672 2012 mt 3744 2012 L
3708 1976 mt 3708 2048 L
4236 2467 mt 4308 2467 L
4272 2431 mt 4272 2503 L
4775 3034 mt 4847 3034 L
4811 2998 mt 4811 3070 L
3683 2007 mt 3755 2007 L
3719 1971 mt 3719 2043 L
4922 1930 mt 4994 1930 L
4958 1894 mt 4958 1966 L
2881 3314 mt 2953 3314 L
2917 3278 mt 2917 3350 L
2575 1181 mt 2647 1181 L
2611 1145 mt 2611 1217 L
4719 2247 mt 4791 2247 L
4755 2211 mt 4755 2283 L
3505 1911 mt 3577 1911 L
3541 1875 mt 3541 1947 L
4869 3005 mt 4941 3005 L
4905 2969 mt 4905 3041 L
4135 2365 mt 4207 2365 L
4171 2329 mt 4171 2401 L
3336 1878 mt 3408 1878 L
3372 1842 mt 3372 1914 L
4114 1802 mt 4186 1802 L
4150 1766 mt 4150 1838 L
3785 2256 mt 3857 2256 L
3821 2220 mt 3821 2292 L
5365 2432 mt 5437 2432 L
5401 2396 mt 5401 2468 L
3751 2558 mt 3823 2558 L
3787 2522 mt 3787 2594 L
2218 2869 mt 2290 2869 L
2254 2833 mt 2254 2905 L
2945 2994 mt 3017 2994 L
2981 2958 mt 2981 3030 L
4298 2745 mt 4370 2745 L
4334 2709 mt 4334 2781 L
4852 3567 mt 4924 3567 L
4888 3531 mt 4888 3603 L
4961 2571 mt 5033 2571 L
4997 2535 mt 4997 2607 L
3555 2356 mt 3627 2356 L
3591 2320 mt 3591 2392 L
2903 3157 mt 2975 3157 L
2939 3121 mt 2939 3193 L
2896 2615 mt 2968 2615 L
2932 2579 mt 2932 2651 L
4156 1207 mt 4228 1207 L
4192 1171 mt 4192 1243 L
2634 1318 mt 2706 1318 L
2670 1282 mt 2670 1354 L
1259 4305 mt 1331 4305 L
1295 4269 mt 1295 4341 L
4553 3457 mt 4625 3457 L
4589 3421 mt 4589 3493 L
5002 3942 mt 5074 3942 L
5038 3906 mt 5038 3978 L
2085 2120 mt 2157 2120 L
2121 2084 mt 2121 2156 L
3190 1371 mt 3262 1371 L
3226 1335 mt 3226 1407 L
5531 4023 mt 5603 4023 L
5567 3987 mt 5567 4059 L
5700 3081 mt 5772 3081 L
5736 3045 mt 5736 3117 L
3532 2115 mt 3604 2115 L
3568 2079 mt 3568 2151 L
3202 2545 mt 3274 2545 L
3238 2509 mt 3238 2581 L
3226 2218 mt 3298 2218 L
3262 2182 mt 3262 2254 L
3757 2787 mt 3829 2787 L
3793 2751 mt 3793 2823 L
4760 2677 mt 4832 2677 L
4796 2641 mt 4796 2713 L
4542 2024 mt 4614 2024 L
4578 1988 mt 4578 2060 L
4266 2562 mt 4338 2562 L
4302 2526 mt 4302 2598 L
4163 2135 mt 4235 2135 L
4199 2099 mt 4199 2171 L
4372 2773 mt 4444 2773 L
4408 2737 mt 4408 2809 L
3214 2170 mt 3286 2170 L
3250 2134 mt 3250 2206 L
2298 1892 mt 2370 1892 L
2334 1856 mt 2334 1928 L
3072 2251 mt 3144 2251 L
3108 2215 mt 3108 2287 L
2534 2731 mt 2606 2731 L
2570 2695 mt 2570 2767 L
3867 2940 mt 3939 2940 L
3903 2904 mt 3903 2976 L
2859 1680 mt 2931 1680 L
2895 1644 mt 2895 1716 L
3538 1049 mt 3610 1049 L
3574 1013 mt 3574 1085 L
4564 4072 mt 4636 4072 L
4600 4036 mt 4600 4108 L
2866 2576 mt 2938 2576 L
2902 2540 mt 2902 2612 L
3220 3436 mt 3292 3436 L
3256 3400 mt 3256 3472 L
4463 2150 mt 4535 2150 L
4499 2114 mt 4499 2186 L
4251 2523 mt 4323 2523 L
4287 2487 mt 4287 2559 L
4886 1354 mt 4958 1354 L
4922 1318 mt 4922 1390 L
3850 2029 mt 3922 2029 L
3886 1993 mt 3886 2065 L
3780 3198 mt 3852 3198 L
3816 3162 mt 3816 3234 L
4041 3220 mt 4113 3220 L
4077 3184 mt 4077 3256 L
1842 3731 mt 1914 3731 L
1878 3695 mt 1878 3767 L
1907 3540 mt 1979 3540 L
1943 3504 mt 1943 3576 L
4512 1809 mt 4584 1809 L
4548 1773 mt 4548 1845 L
4314 2414 mt 4386 2414 L
4350 2378 mt 4350 2450 L
3273 3075 mt 3345 3075 L
3309 3039 mt 3309 3111 L
3085  898 mt 3157  898 L
3121  862 mt 3121  934 L
2615 2214 mt 2687 2214 L
2651 2178 mt 2651 2250 L
3774 2298 mt 3846 2298 L
3810 2262 mt 3810 2334 L
5180 2628 mt 5252 2628 L
5216 2592 mt 5216 2664 L
3989 1489 mt 4061 1489 L
4025 1453 mt 4025 1525 L
4199 3028 mt 4271 3028 L
4235 2992 mt 4235 3064 L
3000 2951 mt 3072 2951 L
3036 2915 mt 3036 2987 L
3616 1624 mt 3688 1624 L
3652 1588 mt 3652 1660 L
4435 1448 mt 4507 1448 L
4471 1412 mt 4471 1484 L
4453 1740 mt 4525 1740 L
4489 1704 mt 4489 1776 L
3013 2815 mt 3085 2815 L
3049 2779 mt 3049 2851 L
4054 2316 mt 4126 2316 L
4090 2280 mt 4090 2352 L
4142 1954 mt 4214 1954 L
4178 1918 mt 4178 1990 L
4532 2602 mt 4604 2602 L
4568 2566 mt 4568 2638 L
2479 1434 mt 2551 1434 L
2515 1398 mt 2515 1470 L
3381 3087 mt 3453 3087 L
3417 3051 mt 3417 3123 L
3996 2619 mt 4068 2619 L
4032 2583 mt 4032 2655 L
2327 3376 mt 2399 3376 L
2363 3340 mt 2363 3412 L
4028 1121 mt 4100 1121 L
4064 1085 mt 4064 1157 L
4128 2510 mt 4200 2510 L
4164 2474 mt 4164 2546 L
3885 3822 mt 3957 3822 L
3921 3786 mt 3921 3858 L
2757 2589 mt 2829 2589 L
2793 2553 mt 2793 2625 L
4228  414 mt 4300  414 L
4264  378 mt 4264  450 L
4021 3553 mt 4093 3553 L
4057 3517 mt 4057 3589 L
3946 3106 mt 4018 3106 L
3982 3070 mt 3982 3142 L
4259 2130 mt 4331 2130 L
4295 2094 mt 4295 2166 L
2523 3331 mt 2595 3331 L
2559 3295 mt 2559 3367 L
3728 3297 mt 3800 3297 L
3764 3261 mt 3764 3333 L
6225 3011 mt 6297 3011 L
6261 2975 mt 6261 3047 L
3844 2792 mt 3916 2792 L
3880 2756 mt 3880 2828 L
2973 2089 mt 3045 2089 L
3009 2053 mt 3009 2125 L
3521 1764 mt 3593 1764 L
3557 1728 mt 3557 1800 L
4501 2811 mt 4573 2811 L
4537 2775 mt 4537 2847 L
6033 2320 mt 6105 2320 L
6069 2284 mt 6069 2356 L
3141 1476 mt 3213 1476 L
3177 1440 mt 3177 1512 L
5468 2536 mt 5540 2536 L
5504 2500 mt 5504 2572 L
2781 3118 mt 2853 3118 L
2817 3082 mt 2817 3154 L
3007 2418 mt 3079 2418 L
3043 2382 mt 3043 2454 L
5606 2925 mt 5678 2925 L
5642 2889 mt 5642 2961 L
4820 3213 mt 4892 3213 L
4856 3177 mt 4856 3249 L
2836 3093 mt 2908 3093 L
2872 3057 mt 2872 3129 L
2749 2879 mt 2821 2879 L
2785 2843 mt 2785 2915 L
4191 3581 mt 4263 3581 L
4227 3545 mt 4227 3617 L
3020 2233 mt 3092 2233 L
3056 2197 mt 3056 2269 L
3983 3137 mt 4055 3137 L
4019 3101 mt 4019 3173 L
4322 2978 mt 4394 2978 L
4358 2942 mt 4358 3014 L
2888 2145 mt 2960 2145 L
2924 2109 mt 2924 2181 L
4407 2223 mt 4479 2223 L
4443 2187 mt 4443 2259 L
3477 3877 mt 3549 3877 L
3513 3841 mt 3513 3913 L
5282 2104 mt 5354 2104 L
5318 2068 mt 5318 2140 L
3826 2904 mt 3898 2904 L
3862 2868 mt 3862 2940 L
3255 3610 mt 3327 3610 L
3291 3574 mt 3291 3646 L
3172 2109 mt 3244 2109 L
3208 2073 mt 3208 2145 L
5071 2083 mt 5143 2083 L
5107 2047 mt 5107 2119 L
3160 3980 mt 3232 3980 L
3196 3944 mt 3196 4016 L
3153 3306 mt 3225 3306 L
3189 3270 mt 3189 3342 L
4805 1462 mt 4877 1462 L
4841 1426 mt 4841 1498 L
5024 2624 mt 5096 2624 L
5060 2588 mt 5060 2660 L
4416 1858 mt 4488 1858 L
4452 1822 mt 4452 1894 L
2605 2750 mt 2677 2750 L
2641 2714 mt 2641 2786 L
3342 3711 mt 3414 3711 L
3378 3675 mt 3378 3747 L
3814 3752 mt 3886 3752 L
3850 3716 mt 3850 3788 L
1991 2946 mt 2063 2946 L
2027 2910 mt 2027 2982 L
4631 2051 mt 4703 2051 L
4667 2015 mt 4667 2087 L
3027 2801 mt 3099 2801 L
3063 2765 mt 3063 2837 L
4585 1526 mt 4657 1526 L
4621 1490 mt 4621 1562 L
3123 2718 mt 3195 2718 L
3159 2682 mt 3159 2754 L
3891 3491 mt 3963 3491 L
3927 3455 mt 3927 3527 L
3921 3774 mt 3993 3774 L
3957 3738 mt 3957 3810 L
3196 3386 mt 3268 3386 L
3232 3350 mt 3232 3422 L
4177 1936 mt 4249 1936 L
4213 1900 mt 4213 1972 L
4274 2884 mt 4346 2884 L
4310 2848 mt 4310 2920 L
4789 2073 mt 4861 2073 L
4825 2037 mt 4825 2109 L
1805 2849 mt 1877 2849 L
1841 2813 mt 1841 2885 L
5413 2554 mt 5485 2554 L
5449 2518 mt 5449 2590 L
4746 1277 mt 4818 1277 L
4782 1241 mt 4782 1313 L
2545 3446 mt 2617 3446 L
2581 3410 mt 2581 3482 L
3797 2436 mt 3869 2436 L
3833 2400 mt 3833 2472 L
2201 2782 mt 2273 2782 L
2237 2746 mt 2237 2818 L
2662 1823 mt 2734 1823 L
2698 1787 mt 2698 1859 L
2952 1298 mt 3024 1298 L
2988 1262 mt 2988 1334 L
2732 3515 mt 2804 3515 L
2768 3479 mt 2768 3551 L
1965 3063 mt 2037 3063 L
2001 3027 mt 2001 3099 L
2555 2155 mt 2627 2155 L
2591 2119 mt 2591 2191 L
3208 3069 mt 3280 3069 L
3244 3033 mt 3244 3105 L
2267 2370 mt 2339 2370 L
2303 2334 mt 2303 2406 L
5211 1960 mt 5283 1960 L
5247 1924 mt 5247 1996 L
2993  564 mt 3065  564 L
3029  528 mt 3029  600 L
4492 2983 mt 4564 2983 L
4528 2947 mt 4528 3019 L
5150 3468 mt 5222 3468 L
5186 3432 mt 5186 3504 L
3927 2844 mt 3999 2844 L
3963 2808 mt 3963 2880 L
3302 3281 mt 3374 3281 L
3338 3245 mt 3338 3317 L
3398 3527 mt 3470 3527 L
3434 3491 mt 3434 3563 L
3638 1816 mt 3710 1816 L
3674 1780 mt 3674 1852 L
3655 2549 mt 3727 2549 L
3691 2513 mt 3691 2585 L
3633 2288 mt 3705 2288 L
3669 2252 mt 3669 2324 L
3471 1662 mt 3543 1662 L
3507 1626 mt 3507 1698 L
2235 3265 mt 2307 3265 L
2271 3229 mt 2271 3301 L
3267 3425 mt 3339 3425 L
3303 3389 mt 3303 3461 L
3482 2584 mt 3554 2584 L
3518 2548 mt 3518 2620 L
2595 2889 mt 2667 2889 L
2631 2853 mt 2631 2925 L
5245 1232 mt 5317 1232 L
5281 1196 mt 5281 1268 L
4206 1942 mt 4278 1942 L
4242 1906 mt 4242 1978 L
3977 3227 mt 4049 3227 L
4013 3191 mt 4013 3263 L
4643 2471 mt 4715 2471 L
4679 2435 mt 4679 2507 L
3879 2806 mt 3951 2806 L
3915 2770 mt 3915 2842 L
4184 1514 mt 4256 1514 L
4220 1478 mt 4220 1550 L
3599 2379 mt 3671 2379 L
3635 2343 mt 3635 2415 L
2368 1502 mt 2440 1502 L
2404 1466 mt 2404 1538 L
1481 2962 mt 1553 2962 L
1517 2926 mt 1517 2998 L
4330 2641 mt 4402 2641 L
4366 2605 mt 4366 2677 L
3040 2778 mt 3112 2778 L
3076 2742 mt 3076 2814 L
3488 2655 mt 3560 2655 L
3524 2619 mt 3524 2691 L
5096 2691 mt 5168 2691 L
5132 2655 mt 5132 2727 L
1556 2501 mt 1628 2501 L
1592 2465 mt 1592 2537 L
4693 2427 mt 4765 2427 L
4729 2391 mt 4729 2463 L
4482 2593 mt 4554 2593 L
4518 2557 mt 4518 2629 L
2341 2606 mt 2413 2606 L
2377 2570 mt 2377 2642 L
4347 3151 mt 4419 3151 L
4383 3115 mt 4383 3187 L
3560 3099 mt 3632 3099 L
3596 3063 mt 3596 3135 L
2040 3405 mt 2112 3405 L
2076 3369 mt 2076 3441 L
3033 2859 mt 3105 2859 L
3069 2823 mt 3069 2895 L
4009 1723 mt 4081 1723 L
4045 1687 mt 4045 1759 L
3466 2453 mt 3538 2453 L
3502 2417 mt 3502 2489 L
3711 3848 mt 3783 3848 L
3747 3812 mt 3747 3884 L
3964 2722 mt 4036 2722 L
4000 2686 mt 4000 2758 L
5828  957 mt 5900  957 L
5864  921 mt 5864  993 L
4015 3000 mt 4087 3000 L
4051 2964 mt 4051 3036 L
3325  724 mt 3397  724 L
3361  688 mt 3361  760 L
3449 2646 mt 3521 2646 L
3485 2610 mt 3485 2682 L
4060 1653 mt 4132 1653 L
4096 1617 mt 4096 1689 L
4213 2840 mt 4285 2840 L
4249 2804 mt 4249 2876 L
4680 1732 mt 4752 1732 L
4716 1696 mt 4716 1768 L
gs 899 414 5363 4203 rc
gr

0 sg
2822 5104 mt 
(\(F,DCTb,MLP\)) s
 482 3259 mt  -90 rotate
(\(S,PAC,GMM\)) s
90 rotate
2975  223 mt 
(Corr = 0.08) s

end %%Color Dict

eplot
%%EndObject

epage
end

showpage

%%Trailer
%%EOF
