%!PS-Adobe-3.0 EPSF-3.0
%%Creator: MATLAB, The Mathworks, Inc. Version 7.7.0.471 (R2008b). Operating System: Microsoft Windows XP.
%%Title: Pictures\main_zoo_mvar_analysis_data_BMI_xcorr_bmig_p1_k2_8_9.eps
%%CreationDate: 10/26/2009  05:45:36
%%DocumentNeededFonts: Helvetica
%%DocumentProcessColors: Cyan Magenta Yellow Black
%%LanguageLevel: 2
%%Pages: 1
%%BoundingBox:    37   180   549   616
%%EndComments

%%BeginProlog
% MathWorks dictionary
/MathWorks 160 dict begin
% definition operators
/bdef {bind def} bind def
/ldef {load def} bind def
/xdef {exch def} bdef
/xstore {exch store} bdef
% operator abbreviations
/c  /clip ldef
/cc /concat ldef
/cp /closepath ldef
/gr /grestore ldef
/gs /gsave ldef
/mt /moveto ldef
/np /newpath ldef
/cm /currentmatrix ldef
/sm /setmatrix ldef
/rm /rmoveto ldef
/rl /rlineto ldef
/s {show newpath} bdef
/sc {setcmykcolor} bdef
/sr /setrgbcolor ldef
/sg /setgray ldef
/w /setlinewidth ldef
/j /setlinejoin ldef
/cap /setlinecap ldef
/rc {rectclip} bdef
/rf {rectfill} bdef
% page state control
/pgsv () def
/bpage {/pgsv save def} bdef
/epage {pgsv restore} bdef
/bplot /gsave ldef
/eplot {stroke grestore} bdef
% orientation switch
/portraitMode 0 def /landscapeMode 1 def /rotateMode 2 def
% coordinate system mappings
/dpi2point 0 def
% font control
/FontSize 0 def
/FMS {/FontSize xstore findfont [FontSize 0 0 FontSize neg 0 0]
  makefont setfont} bdef
/ISOLatin1Encoding where {pop /WindowsLatin1Encoding 256 array bdef
ISOLatin1Encoding WindowsLatin1Encoding copy pop
/.notdef/.notdef/quotesinglbase/florin/quotedblbase/ellipsis/dagger
/daggerdbl/circumflex/perthousand/Scaron/guilsinglleft/OE/.notdef/.notdef
/.notdef/.notdef/quoteleft/quoteright/quotedblleft/quotedblright/bullet
/endash/emdash/tilde/trademark/scaron/guilsinglright/oe/.notdef/.notdef
/Ydieresis WindowsLatin1Encoding 128 32 getinterval astore pop}
{/WindowsLatin1Encoding StandardEncoding bdef} ifelse
/reencode {exch dup where {pop load} {pop StandardEncoding} ifelse
  exch dup 3 1 roll findfont dup length dict begin
  { 1 index /FID ne {def}{pop pop} ifelse } forall
  /Encoding exch def currentdict end definefont pop} bdef
/isroman {findfont /CharStrings get /Agrave known} bdef
/FMSR {3 1 roll 1 index dup isroman {reencode} {pop pop} ifelse
  exch FMS} bdef
/csm {1 dpi2point div -1 dpi2point div scale neg translate
 dup landscapeMode eq {pop -90 rotate}
  {rotateMode eq {90 rotate} if} ifelse} bdef
% line types: solid, dotted, dashed, dotdash
/SO { [] 0 setdash } bdef
/DO { [.5 dpi2point mul 4 dpi2point mul] 0 setdash } bdef
/DA { [6 dpi2point mul] 0 setdash } bdef
/DD { [.5 dpi2point mul 4 dpi2point mul 6 dpi2point mul 4
  dpi2point mul] 0 setdash } bdef
% macros for lines and objects
/L {lineto stroke} bdef
/MP {3 1 roll moveto 1 sub {rlineto} repeat} bdef
/AP {{rlineto} repeat} bdef
/PDlw -1 def
/W {/PDlw currentlinewidth def setlinewidth} def
/PP {closepath eofill} bdef
/DP {closepath stroke} bdef
/MR {4 -2 roll moveto dup  0 exch rlineto exch 0 rlineto
  neg 0 exch rlineto closepath} bdef
/FR {MR stroke} bdef
/PR {MR fill} bdef
/L1i {{currentfile picstr readhexstring pop} image} bdef
/tMatrix matrix def
/MakeOval {newpath tMatrix currentmatrix pop translate scale
0 0 1 0 360 arc tMatrix setmatrix} bdef
/FO {MakeOval stroke} bdef
/PO {MakeOval fill} bdef
/PD {currentlinewidth 2 div 0 360 arc fill
   PDlw -1 eq not {PDlw w /PDlw -1 def} if} def
/FA {newpath tMatrix currentmatrix pop translate scale
  0 0 1 5 -2 roll arc tMatrix setmatrix stroke} bdef
/PA {newpath tMatrix currentmatrix pop	translate 0 0 moveto scale
  0 0 1 5 -2 roll arc closepath tMatrix setmatrix fill} bdef
/FAn {newpath tMatrix currentmatrix pop translate scale
  0 0 1 5 -2 roll arcn tMatrix setmatrix stroke} bdef
/PAn {newpath tMatrix currentmatrix pop translate 0 0 moveto scale
  0 0 1 5 -2 roll arcn closepath tMatrix setmatrix fill} bdef
/vradius 0 def /hradius 0 def /lry 0 def
/lrx 0 def /uly 0 def /ulx 0 def /rad 0 def
/MRR {/vradius xdef /hradius xdef /lry xdef /lrx xdef /uly xdef
  /ulx xdef newpath tMatrix currentmatrix pop ulx hradius add uly
  vradius add translate hradius vradius scale 0 0 1 180 270 arc 
  tMatrix setmatrix lrx hradius sub uly vradius add translate
  hradius vradius scale 0 0 1 270 360 arc tMatrix setmatrix
  lrx hradius sub lry vradius sub translate hradius vradius scale
  0 0 1 0 90 arc tMatrix setmatrix ulx hradius add lry vradius sub
  translate hradius vradius scale 0 0 1 90 180 arc tMatrix setmatrix
  closepath} bdef
/FRR {MRR stroke } bdef
/PRR {MRR fill } bdef
/MlrRR {/lry xdef /lrx xdef /uly xdef /ulx xdef /rad lry uly sub 2 div def
  newpath tMatrix currentmatrix pop ulx rad add uly rad add translate
  rad rad scale 0 0 1 90 270 arc tMatrix setmatrix lrx rad sub lry rad
  sub translate rad rad scale 0 0 1 270 90 arc tMatrix setmatrix
  closepath} bdef
/FlrRR {MlrRR stroke } bdef
/PlrRR {MlrRR fill } bdef
/MtbRR {/lry xdef /lrx xdef /uly xdef /ulx xdef /rad lrx ulx sub 2 div def
  newpath tMatrix currentmatrix pop ulx rad add uly rad add translate
  rad rad scale 0 0 1 180 360 arc tMatrix setmatrix lrx rad sub lry rad
  sub translate rad rad scale 0 0 1 0 180 arc tMatrix setmatrix
  closepath} bdef
/FtbRR {MtbRR stroke } bdef
/PtbRR {MtbRR fill } bdef
/stri 6 array def /dtri 6 array def
/smat 6 array def /dmat 6 array def
/tmat1 6 array def /tmat2 6 array def /dif 3 array def
/asub {/ind2 exch def /ind1 exch def dup dup
  ind1 get exch ind2 get sub exch } bdef
/tri_to_matrix {
  2 0 asub 3 1 asub 4 0 asub 5 1 asub
  dup 0 get exch 1 get 7 -1 roll astore } bdef
/compute_transform {
  dmat dtri tri_to_matrix tmat1 invertmatrix 
  smat stri tri_to_matrix tmat2 concatmatrix } bdef
/ds {stri astore pop} bdef
/dt {dtri astore pop} bdef
/db {2 copy /cols xdef /rows xdef mul dup 3 mul string
  currentfile 
  3 index 0 eq {/ASCIIHexDecode filter}
  {/ASCII85Decode filter 3 index 2 eq {/RunLengthDecode filter} if }
  ifelse exch readstring pop
  dup 0 3 index getinterval /rbmap xdef
  dup 2 index dup getinterval /gbmap xdef
  1 index dup 2 mul exch getinterval /bbmap xdef pop pop}bdef
/it {gs np dtri aload pop moveto lineto lineto cp c
  cols rows 8 compute_transform 
  rbmap gbmap bbmap true 3 colorimage gr}bdef
/il {newpath moveto lineto stroke}bdef
currentdict end def
%%EndProlog

%%BeginSetup
MathWorks begin

0 cap

end
%%EndSetup

%%Page: 1 1
%%BeginPageSetup
%%PageBoundingBox:    37   180   549   616
MathWorks begin
bpage
%%EndPageSetup

%%BeginObject: obj1
bplot

/dpi2point 12 def
portraitMode 0216 7344 csm

  234   -48  6149  5231 rc
85 dict begin %Colortable dictionary
/c0 { 0.000000 0.000000 0.000000 sr} bdef
/c1 { 1.000000 1.000000 1.000000 sr} bdef
/c2 { 0.900000 0.000000 0.000000 sr} bdef
/c3 { 0.000000 0.820000 0.000000 sr} bdef
/c4 { 0.000000 0.000000 0.800000 sr} bdef
/c5 { 0.910000 0.820000 0.320000 sr} bdef
/c6 { 1.000000 0.260000 0.820000 sr} bdef
/c7 { 0.000000 0.820000 0.820000 sr} bdef
c0
1 j
1 sg
   0    0 6919 5187 rf
6 w
0 4202 5362 0 0 -4202 899 4616 4 MP
PP
-5362 0 0 4202 5362 0 0 -4202 899 4616 5 MP stroke
4 w
DO
SO
6 w
0 sg
 899  414 mt 6261  414 L
 899 4616 mt 6261 4616 L
6261 4616 mt 6261  414 L
 899 4616 mt  899  414 L
 899 4616 mt 6261 4616 L
 899 4616 mt  899  414 L
 919 4616 mt  919 4562 L
 919  414 mt  919  467 L
%%IncludeResource: font Helvetica
/Helvetica /WindowsLatin1Encoding 240 FMSR

 713 4873 mt 
(-3) s
1806 4616 mt 1806 4562 L
1806  414 mt 1806  467 L
1600 4873 mt 
(-2) s
2693 4616 mt 2693 4562 L
2693  414 mt 2693  467 L
2487 4873 mt 
(-1) s
3580 4616 mt 3580 4562 L
3580  414 mt 3580  467 L
3514 4873 mt 
(0) s
4466 4616 mt 4466 4562 L
4466  414 mt 4466  467 L
4400 4873 mt 
(1) s
5353 4616 mt 5353 4562 L
5353  414 mt 5353  467 L
5287 4873 mt 
(2) s
6240 4616 mt 6240 4562 L
6240  414 mt 6240  467 L
6174 4873 mt 
(3) s
 899 4599 mt  952 4599 L
6261 4599 mt 6207 4599 L
 591 4688 mt 
(-3) s
 899 3904 mt  952 3904 L
6261 3904 mt 6207 3904 L
 591 3993 mt 
(-2) s
 899 3209 mt  952 3209 L
6261 3209 mt 6207 3209 L
 591 3298 mt 
(-1) s
 899 2514 mt  952 2514 L
6261 2514 mt 6207 2514 L
 731 2603 mt 
(0) s
 899 1820 mt  952 1820 L
6261 1820 mt 6207 1820 L
 731 1909 mt 
(1) s
 899 1125 mt  952 1125 L
6261 1125 mt 6207 1125 L
 731 1214 mt 
(2) s
 899  430 mt  952  430 L
6261  430 mt 6207  430 L
 731  519 mt 
(3) s
 899  414 mt 6261  414 L
 899 4616 mt 6261 4616 L
6261 4616 mt 6261  414 L
 899 4616 mt  899  414 L
gs 899 414 5363 4203 rc
gr

/c8 { 0.000000 0.000000 1.000000 sr} bdef
c8
5150 1756 mt 5222 1756 L
5186 1720 mt 5186 1792 L
4199 1930 mt 4271 1930 L
4235 1894 mt 4235 1966 L
4213 2584 mt 4285 2584 L
4249 2548 mt 4249 2620 L
3387 3081 mt 3459 3081 L
3423 3045 mt 3423 3117 L
4746 1816 mt 4818 1816 L
4782 1780 mt 4782 1852 L
4706 2067 mt 4778 2067 L
4742 2031 mt 4742 2103 L
2595 3797 mt 2667 3797 L
2631 3761 mt 2631 3833 L
3897 2405 mt 3969 2405 L
3933 2369 mt 3933 2441 L
3909 1831 mt 3981 1831 L
3945 1795 mt 3945 1867 L
5047 2204 mt 5119 2204 L
5083 2168 mt 5083 2240 L
3588 2180 mt 3660 2180 L
3624 2144 mt 3624 2216 L
3940 2150 mt 4012 2150 L
3976 2114 mt 3976 2186 L
3313 2480 mt 3385 2480 L
3349 2444 mt 3349 2516 L
4719 2467 mt 4791 2467 L
4755 2431 mt 4755 2503 L
3059 2125 mt 3131 2125 L
3095 2089 mt 3095 2161 L
3184 2401 mt 3256 2401 L
3220 2365 mt 3220 2437 L
4390 3625 mt 4462 3625 L
4426 3589 mt 4426 3661 L
1481 2519 mt 1553 2519 L
1517 2483 mt 1517 2555 L
3616 2554 mt 3688 2554 L
3652 2518 mt 3652 2590 L
3711 2624 mt 3783 2624 L
3747 2588 mt 3747 2660 L
3838 3118 mt 3910 3118 L
3874 3082 mt 3874 3154 L
3803 3908 mt 3875 3908 L
3839 3872 mt 3839 3944 L
4142 2275 mt 4214 2275 L
4178 2239 mt 4178 2311 L
3237 2462 mt 3309 2462 L
3273 2426 mt 3273 2498 L
2555 2884 mt 2627 2884 L
2591 2848 mt 2591 2920 L
3768 2145 mt 3840 2145 L
3804 2109 mt 3804 2181 L
3689 2967 mt 3761 2967 L
3725 2931 mt 3725 3003 L
3577 3322 mt 3649 3322 L
3613 3286 mt 3613 3358 L
4492 1680 mt 4564 1680 L
4528 1644 mt 4528 1716 L
3989 1990 mt 4061 1990 L
4025 1954 mt 4025 2026 L
3544 2619 mt 3616 2619 L
3580 2583 mt 3580 2655 L
4128 1748 mt 4200 1748 L
4164 1712 mt 4164 1784 L
3723 2214 mt 3795 2214 L
3759 2178 mt 3759 2250 L
2605 3112 mt 2677 3112 L
2641 3076 mt 2641 3148 L
4206 1995 mt 4278 1995 L
4242 1959 mt 4242 2031 L
4693 2104 mt 4765 2104 L
4729 2068 mt 4729 2140 L
4228 2637 mt 4300 2637 L
4264 2601 mt 4264 2673 L
2165 2493 mt 2237 2493 L
2201 2457 mt 2201 2529 L
3952 2536 mt 4024 2536 L
3988 2500 mt 3988 2572 L
4156 2655 mt 4228 2655 L
4192 2619 mt 4192 2691 L
3958 2279 mt 4030 2279 L
3994 2243 mt 3994 2315 L
4574 1462 mt 4646 1462 L
4610 1426 mt 4610 1498 L
3861 2199 mt 3933 2199 L
3897 2163 mt 3897 2235 L
3740 3297 mt 3812 3297 L
3776 3261 mt 3776 3333 L
2513 3540 mt 2585 3540 L
2549 3504 mt 2549 3576 L
2394 3848 mt 2466 3848 L
2430 3812 mt 2430 3884 L
3677 2165 mt 3749 2165 L
3713 2129 mt 3713 2201 L
3582 3386 mt 3654 3386 L
3618 3350 mt 3618 3422 L
3147 2849 mt 3219 2849 L
3183 2813 mt 3183 2885 L
2312 2951 mt 2384 2951 L
2348 2915 mt 2348 2987 L
3325 3553 mt 3397 3553 L
3361 3517 mt 3361 3589 L
4775 1538 mt 4847 1538 L
4811 1502 mt 4811 1574 L
3232 2347 mt 3304 2347 L
3268 2311 mt 3268 2383 L
4149 2782 mt 4221 2782 L
4185 2746 mt 4185 2818 L
3638 1049 mt 3710 1049 L
3674 1013 mt 3674 1085 L
3594 2545 mt 3666 2545 L
3630 2509 mt 3630 2581 L
2615 1966 mt 2687 1966 L
2651 1930 mt 2651 2002 L
4243 1723 mt 4315 1723 L
4279 1687 mt 4279 1759 L
3438 2293 mt 3510 2293 L
3474 2257 mt 3474 2329 L
3633 2423 mt 3705 2423 L
3669 2387 mt 3669 2459 L
2706 3877 mt 2778 3877 L
2742 3841 mt 2742 3913 L
2456 1787 mt 2528 1787 L
2492 1751 mt 2492 1823 L
4236 3515 mt 4308 3515 L
4272 3479 mt 4272 3551 L
3571 2488 mt 3643 2488 L
3607 2452 mt 3607 2524 L
5468 1936 mt 5540 1936 L
5504 1900 mt 5504 1972 L
2938 2361 mt 3010 2361 L
2974 2325 mt 2974 2397 L
3555 1858 mt 3627 1858 L
3591 1822 mt 3591 1894 L
3098 2611 mt 3170 2611 L
3134 2575 mt 3134 2647 L
4121 2012 mt 4193 2012 L
4157 1976 mt 4157 2048 L
4114 2218 mt 4186 2218 L
4150 2182 mt 4150 2254 L
3996 3213 mt 4068 3213 L
4032 3177 mt 4032 3249 L
4306 2874 mt 4378 2874 L
4342 2838 mt 4342 2910 L
3033 3273 mt 3105 3273 L
3069 3237 mt 3069 3309 L
5282 1624 mt 5354 1624 L
5318 1588 mt 5318 1660 L
4364 2029 mt 4436 2029 L
4400 1993 mt 4400 2065 L
3255 3479 mt 3327 3479 L
3291 3443 mt 3291 3515 L
3977 2709 mt 4049 2709 L
4013 2673 mt 4013 2745 L
3891 2379 mt 3963 2379 L
3927 2343 mt 3927 2415 L
4472 1978 mt 4544 1978 L
4508 1942 mt 4508 2014 L
3661 2956 mt 3733 2956 L
3697 2920 mt 3697 2992 L
4961 1593 mt 5033 1593 L
4997 1557 mt 4997 1629 L
3785 2549 mt 3857 2549 L
3821 2513 mt 3821 2585 L
3353 3011 mt 3425 3011 L
3389 2975 mt 3389 3047 L
3934 1152 mt 4006 1152 L
3970 1116 mt 3970 1188 L
2980 2325 mt 3052 2325 L
3016 2289 mt 3016 2361 L
2859 2677 mt 2931 2677 L
2895 2641 mt 2895 2713 L
4760 1972 mt 4832 1972 L
4796 1936 mt 4796 2008 L
2126 2135 mt 2198 2135 L
2162 2099 mt 2162 2171 L
3855 3595 mt 3927 3595 L
3891 3559 mt 3891 3631 L
5700 2668 mt 5772 2668 L
5736 2632 mt 5736 2704 L
3347 2343 mt 3419 2343 L
3383 2307 mt 3383 2379 L
3027 1845 mt 3099 1845 L
3063 1809 mt 3063 1881 L
4330 2209 mt 4402 2209 L
4366 2173 mt 4366 2245 L
3477 2830 mt 3549 2830 L
3513 2794 mt 3513 2866 L
2740 3157 mt 2812 3157 L
2776 3121 mt 2776 3193 L
2624 3752 mt 2696 3752 L
2660 3716 mt 2660 3788 L
3330 3075 mt 3402 3075 L
3366 3039 mt 3366 3111 L
4667 1489 mt 4739 1489 L
4703 1453 mt 4703 1525 L
1907 2745 mt 1979 2745 L
1943 2709 mt 1943 2781 L
3421 1604 mt 3493 1604 L
3457 1568 mt 3457 1640 L
4177 2185 mt 4249 2185 L
4213 2149 mt 4213 2221 L
3527 2475 mt 3599 2475 L
3563 2439 mt 3563 2511 L
2757 2899 mt 2829 2899 L
2793 2863 mt 2793 2935 L
2959 3641 mt 3031 3641 L
2995 3605 mt 2995 3677 L
2697 2704 mt 2769 2704 L
2733 2668 mt 2733 2740 L
3964 1643 mt 4036 1643 L
4000 1607 mt 4000 1679 L
3135 2307 mt 3207 2307 L
3171 2271 mt 3171 2343 L
3521 2194 mt 3593 2194 L
3557 2158 mt 3557 2230 L
3706 2736 mt 3778 2736 L
3742 2700 mt 3742 2772 L
3971 2170 mt 4043 2170 L
4007 2134 mt 4007 2206 L
3780 2288 mt 3852 2288 L
3816 2252 mt 3816 2324 L
3226 1277 mt 3298 1277 L
3262 1241 mt 3262 1313 L
3141 2713 mt 3213 2713 L
3177 2677 mt 3177 2749 L
1387 2265 mt 1459 2265 L
1423 2229 mt 1423 2301 L
3302 3022 mt 3374 3022 L
3338 2986 mt 3338 3058 L
3510 2962 mt 3582 2962 L
3546 2926 mt 3546 2998 L
4512 1794 mt 4584 1794 L
4548 1758 mt 4548 1830 L
2282 3250 mt 2354 3250 L
2318 3214 mt 2318 3286 L
2689 2458 mt 2761 2458 L
2725 2422 mt 2725 2494 L
1766 2682 mt 1838 2682 L
1802 2646 mt 1802 2718 L
3751 2374 mt 3823 2374 L
3787 2338 mt 3787 2410 L
4482 1448 mt 4554 1448 L
4518 1412 mt 4518 1484 L
3762 2040 mt 3834 2040 L
3798 2004 mt 3798 2076 L
2781 2338 mt 2853 2338 L
2817 2302 mt 2817 2374 L
4398 1838 mt 4470 1838 L
4434 1802 mt 4434 1874 L
4619 2449 mt 4691 2449 L
4655 2413 mt 4655 2485 L
2040 3039 mt 2112 3039 L
2076 3003 mt 2076 3075 L
3342 2396 mt 3414 2396 L
3378 2360 mt 3378 2432 L
4463 2298 mt 4535 2298 L
4499 2262 mt 4499 2334 L
2866 2115 mt 2938 2115 L
2902 2079 mt 2902 2151 L
2896 2365 mt 2968 2365 L
2932 2329 mt 2932 2401 L
3220 2778 mt 3292 2778 L
3256 2742 mt 3256 2814 L
3538 3125 mt 3610 3125 L
3574 3089 mt 3574 3161 L
3566 2510 mt 3638 2510 L
3602 2474 mt 3602 2546 L
3370 2392 mt 3442 2392 L
3406 2356 mt 3406 2428 L
3040 1917 mt 3112 1917 L
3076 1881 mt 3076 1953 L
3460 4072 mt 3532 4072 L
3496 4036 mt 3496 4108 L
4347 1872 mt 4419 1872 L
4383 1836 mt 4383 1908 L
3153 1911 mt 3225 1911 L
3189 1875 mt 3189 1947 L
2765 2869 mt 2837 2869 L
2801 2833 mt 2801 2905 L
2966 2741 mt 3038 2741 L
3002 2705 mt 3002 2777 L
3844 1802 mt 3916 1802 L
3880 1766 mt 3880 1838 L
2851 3227 mt 2923 3227 L
2887 3191 mt 2887 3263 L
3307 2130 mt 3379 2130 L
3343 2094 mt 3343 2166 L
4585 2633 mt 4657 2633 L
4621 2597 mt 4621 2669 L
3700 2414 mt 3772 2414 L
3736 2378 mt 3736 2450 L
3774 2320 mt 3846 2320 L
3810 2284 mt 3810 2356 L
4981 1698 mt 5053 1698 L
5017 1662 mt 5017 1734 L
2063 1942 mt 2135 1942 L
2099 1906 mt 2099 1978 L
4322 2018 mt 4394 2018 L
4358 1982 mt 4358 2054 L
3627 2311 mt 3699 2311 L
3663 2275 mt 3663 2347 L
2420 2062 mt 2492 2062 L
2456 2026 mt 2456 2098 L
3290 2001 mt 3362 2001 L
3326 1965 mt 3326 2037 L
3867 2571 mt 3939 2571 L
3903 2535 mt 3903 2607 L
3296 2700 mt 3368 2700 L
3332 2664 mt 3332 2736 L
2490 2764 mt 2562 2764 L
2526 2728 mt 2526 2800 L
4597 2695 mt 4669 2695 L
4633 2659 mt 4633 2731 L
3053 3057 mt 3125 3057 L
3089 3021 mt 3089 3093 L
4407 2864 mt 4479 2864 L
4443 2828 mt 4443 2900 L
2575 2994 mt 2647 2994 L
2611 2958 mt 2611 3030 L
3110 2792 mt 3182 2792 L
3146 2756 mt 3146 2828 L
2106 2806 mt 2178 2806 L
2142 2770 mt 2142 2842 L
3610 2256 mt 3682 2256 L
3646 2220 mt 3646 2292 L
3814 2242 mt 3886 2242 L
3850 2206 mt 3850 2278 L
3261 1662 mt 3333 1662 L
3297 1626 mt 3297 1698 L
3013 1878 mt 3085 1878 L
3049 1842 mt 3049 1914 L
3393 2811 mt 3465 2811 L
3429 2775 mt 3429 2847 L
 863 2593 mt  935 2593 L
 899 2557 mt  899 2629 L
3359 1572 mt 3431 1572 L
3395 1536 mt 3395 1608 L
3826 2261 mt 3898 2261 L
3862 2225 mt 3862 2297 L
3946  957 mt 4018  957 L
3982  921 mt 3982  993 L
4266 1583 mt 4338 1583 L
4302 1547 mt 4302 1619 L
2680 2237 mt 2752 2237 L
2716 2201 mt 2716 2273 L
3809 2051 mt 3881 2051 L
3845 2015 mt 3845 2087 L
2662 3610 mt 2734 3610 L
2698 3574 mt 2698 3646 L
4080 1671 mt 4152 1671 L
4116 1635 mt 4116 1707 L
3694 1740 mt 3766 1740 L
3730 1704 mt 3730 1776 L
3085 1948 mt 3157 1948 L
3121 1912 mt 3121 1984 L
4041 2659 mt 4113 2659 L
4077 2623 mt 4077 2695 L
4372 1614 mt 4444 1614 L
4408 1578 mt 4408 1650 L
3007 2506 mt 3079 2506 L
3043 2470 mt 3043 2542 L
2903 2889 mt 2975 2889 L
2939 2853 mt 2939 2925 L
4655 1419 mt 4727 1419 L
4691 1383 mt 4691 1455 L
4100 3087 mt 4172 3087 L
4136 3051 mt 4136 3123 L
2479 3164 mt 2551 3164 L
2515 3128 mt 2515 3200 L
4416 1318 mt 4488 1318 L
4452 1282 mt 4452 1354 L
3757 2514 mt 3829 2514 L
3793 2478 mt 3793 2550 L
4522 2370 mt 4594 2370 L
4558 2334 mt 4558 2406 L
2085 1561 mt 2157 1561 L
2121 1525 mt 2121 1597 L
4941 2284 mt 5013 2284 L
4977 2248 mt 4977 2320 L
4789 2615 mt 4861 2615 L
4825 2579 mt 4825 2651 L
3273 2840 mt 3345 2840 L
3309 2804 mt 3309 2876 L
3850 2189 mt 3922 2189 L
3886 2153 mt 3886 2225 L
4221 1689 mt 4293 1689 L
4257 1653 mt 4257 1725 L
4732 1087 mt 4804 1087 L
4768 1051 mt 4768 1123 L
4298 2007 mt 4370 2007 L
4334 1971 mt 4334 2043 L
2874 3567 mt 2946 3567 L
2910 3531 mt 2910 3603 L
3683 1779 mt 3755 1779 L
3719 1743 mt 3719 1815 L
2468 2801 mt 2540 2801 L
2504 2765 mt 2504 2837 L
4021 2083 mt 4093 2083 L
4057 2047 mt 4057 2119 L
5365 1885 mt 5437 1885 L
5401 1849 mt 5401 1921 L
4564 1764 mt 4636 1764 L
4600 1728 mt 4600 1800 L
4074 2935 mt 4146 2935 L
4110 2899 mt 4110 2971 L
2715 2691 mt 2787 2691 L
2751 2655 mt 2751 2727 L
4184 1904 mt 4256 1904 L
4220 1868 mt 4220 1940 L
3605 2562 mt 3677 2562 L
3641 2526 mt 3641 2598 L
2881 3503 mt 2953 3503 L
2917 3467 mt 2917 3539 L
4191 2731 mt 4263 2731 L
4227 2695 mt 4227 2767 L
4290  414 mt 4362  414 L
4326  378 mt 4326  450 L
2523 3349 mt 2595 3349 L
2559 3313 mt 2559 3385 L
5245 1121 mt 5317 1121 L
5281 1085 mt 5281 1157 L
3885 2727 mt 3957 2727 L
3921 2691 mt 3921 2763 L
4314 1851 mt 4386 1851 L
4350 1815 mt 4350 1887 L
2917 3774 mt 2989 3774 L
2953 3738 mt 2953 3810 L
3734 1232 mt 3806 1232 L
3770 1196 mt 3770 1268 L
4355 2247 mt 4427 2247 L
4391 2211 mt 4391 2283 L
4453 2946 mt 4525 2946 L
4489 2910 mt 4489 2982 L
3873 3491 mt 3945 3491 L
3909 3455 mt 3909 3527 L
3649 1434 mt 3721 1434 L
3685 1398 mt 3685 1470 L
3488 2879 mt 3560 2879 L
3524 2843 mt 3524 2915 L
3091 1388 mt 3163 1388 L
3127 1352 mt 3127 1424 L
2931 2453 mt 3003 2453 L
2967 2417 mt 2967 2489 L
3249 2484 mt 3321 2484 L
3285 2448 mt 3285 2520 L
2201 3151 mt 2273 3151 L
2237 3115 mt 2237 3187 L
3471 3281 mt 3543 3281 L
3507 3245 mt 3507 3317 L
3745 2418 mt 3817 2418 L
3781 2382 mt 3781 2454 L
2723 2035 mt 2795 2035 L
2759 1999 mt 2759 2071 L
3415 2445 mt 3487 2445 L
3451 2409 mt 3451 2481 L
5211 1865 mt 5283 1865 L
5247 1829 mt 5247 1901 L
5071 2471 mt 5143 2471 L
5107 2435 mt 5107 2507 L
1259 3206 mt 1331 3206 L
1295 3170 mt 1295 3242 L
2341 3184 mt 2413 3184 L
2377 3148 mt 2377 3220 L
1722 2650 mt 1794 2650 L
1758 2614 mt 1758 2686 L
4047 2302 mt 4119 2302 L
4083 2266 mt 4083 2338 L
5002 1404 mt 5074 1404 L
5038 1368 mt 5038 1440 L
1619 3257 mt 1691 3257 L
1655 3221 mt 1655 3293 L
2821 3178 mt 2893 3178 L
2857 3142 mt 2857 3214 L
4054 2920 mt 4126 2920 L
4090 2884 mt 4090 2956 L
3505 2641 mt 3577 2641 L
3541 2605 mt 3541 2677 L
3921 2094 mt 3993 2094 L
3957 2058 mt 3957 2130 L
3196 3942 mt 3268 3942 L
3232 3906 mt 3232 3978 L
3336 2155 mt 3408 2155 L
3372 2119 mt 3372 2191 L
4170 2602 mt 4242 2602 L
4206 2566 mt 4206 2638 L
3482 2909 mt 3554 2909 L
3518 2873 mt 3518 2945 L
4028 2754 mt 4100 2754 L
4064 2718 mt 4064 2790 L
3214 3028 mt 3286 3028 L
3250 2992 mt 3250 3064 L
3983 1653 mt 4055 1653 L
4019 1617 mt 4019 1689 L
4338 2787 mt 4410 2787 L
4374 2751 mt 4374 2823 L
3879 2773 mt 3951 2773 L
3915 2737 mt 3915 2809 L
3267 3468 mt 3339 3468 L
3303 3432 mt 3303 3504 L
3000 3581 mt 3072 3581 L
3036 3545 mt 3036 3617 L
4608 2228 mt 4680 2228 L
4644 2192 mt 4644 2264 L
5413 2497 mt 5485 2497 L
5449 2461 mt 5449 2533 L
1556 3137 mt 1628 3137 L
1592 3101 mt 1592 3173 L
3466 1898 mt 3538 1898 L
3502 1862 mt 3502 1934 L
2368 3340 mt 2440 3340 L
2404 3304 mt 2404 3376 L
4009 2835 mt 4081 2835 L
4045 2799 mt 4045 2871 L
3532 1476 mt 3604 1476 L
3568 1440 mt 3568 1512 L
5024 1298 mt 5096 1298 L
5060 1262 mt 5060 1334 L
4163 2334 mt 4235 2334 L
4199 2298 mt 4199 2370 L
2671 2750 mt 2743 2750 L
2707 2714 mt 2707 2786 L
2643 2523 mt 2715 2523 L
2679 2487 mt 2679 2559 L
1991 2628 mt 2063 2628 L
2027 2592 mt 2027 2664 L
2235 3144 mt 2307 3144 L
2271 3108 mt 2271 3180 L
4444 2646 mt 4516 2646 L
4480 2610 mt 4480 2682 L
3672 2432 mt 3744 2432 L
3708 2396 mt 3708 2468 L
2828 2664 mt 2900 2664 L
2864 2628 mt 2864 2700 L
5606 1336 mt 5678 1336 L
5642 1300 mt 5642 1372 L
3927 1634 mt 3999 1634 L
3963 1598 mt 3963 1670 L
3820 2844 mt 3892 2844 L
3856 2808 mt 3856 2880 L
3398 2120 mt 3470 2120 L
3434 2084 mt 3434 2156 L
4852 2356 mt 4924 2356 L
4888 2320 mt 4888 2392 L
2888 3367 mt 2960 3367 L
2924 3331 mt 2924 3403 L
2987 1707 mt 3059 1707 L
3023 1671 mt 3023 1743 L
4680 1371 mt 4752 1371 L
4716 1335 mt 4716 1407 L
4904 3675 mt 4976 3675 L
4940 3639 mt 4940 3711 L
4532 2436 mt 4604 2436 L
4568 2400 mt 4568 2472 L
3160 2427 mt 3232 2427 L
3196 2391 mt 3196 2463 L
3797 2078 mt 3869 2078 L
3833 2042 mt 3833 2114 L
4259 1006 mt 4331 1006 L
4295  970 mt 4295 1042 L
3432 2972 mt 3504 2972 L
3468 2936 mt 3468 3008 L
4922 2073 mt 4994 2073 L
4958 2037 mt 4958 2109 L
2813 4023 mt 2885 4023 L
2849 3987 mt 2849 4059 L
3410 2352 mt 3482 2352 L
3446 2316 mt 3446 2388 L
2444 3415 mt 2516 3415 L
2480 3379 mt 2480 3451 L
5321  724 mt 5393  724 L
5357  688 mt 5357  760 L
3549 2089 mt 3621 2089 L
3585 2053 mt 3585 2125 L
1876 2722 mt 1948 2722 L
1912 2686 mt 1912 2758 L
3449 3242 mt 3521 3242 L
3485 3206 mt 3485 3278 L
6225 3425 mt 6297 3425 L
6261 3389 mt 6261 3461 L
2218 3000 mt 2290 3000 L
2254 2964 mt 2254 3036 L
2789 2501 mt 2861 2501 L
2825 2465 mt 2825 2537 L
4034 2099 mt 4106 2099 L
4070 2063 mt 4070 2135 L
2502 3822 mt 2574 3822 L
2538 3786 mt 2538 3858 L
2545 2270 mt 2617 2270 L
2581 2234 mt 2581 2306 L
2910 3980 mt 2982 3980 L
2946 3944 mt 2946 4016 L
3190 3034 mt 3262 3034 L
3226 2998 mt 3226 3070 L
4087 1550 mt 4159 1550 L
4123 1514 mt 4123 1586 L
4501 2718 mt 4573 2718 L
4537 2682 mt 4537 2754 L
3166 2576 mt 3238 2576 L
3202 2540 mt 3202 2612 L
3791 1984 mt 3863 1984 L
3827 1948 mt 3827 2020 L
4869 2940 mt 4941 2940 L
4905 2904 mt 4905 2976 L
3516 2233 mt 3588 2233 L
3552 2197 mt 3552 2269 L
2773 3099 mt 2845 3099 L
2809 3063 mt 2809 3135 L
3666 2580 mt 3738 2580 L
3702 2544 mt 3702 2616 L
3020 4616 mt 3092 4616 L
3056 4580 mt 3056 4652 L
2652 1255 mt 2724 1255 L
2688 1219 mt 2688 1291 L
2805 3051 mt 2877 3051 L
2841 3015 mt 2841 3087 L
3078 3376 mt 3150 3376 L
3114 3340 mt 3114 3412 L
2183 2930 mt 2255 2930 L
2219 2894 mt 2219 2966 L
3903 2160 mt 3975 2160 L
3939 2124 mt 3939 2196 L
2749 3191 mt 2821 3191 L
2785 3155 mt 2785 3227 L
2952 1732 mt 3024 1732 L
2988 1696 mt 2988 1768 L
4015 3405 mt 4087 3405 L
4051 3369 mt 4051 3441 L
3915 4131 mt 3987 4131 L
3951 4095 mt 3951 4167 L
1805 2983 mt 1877 2983 L
1841 2947 mt 1841 3019 L
4067 2606 mt 4139 2606 L
4103 2570 mt 4103 2642 L
3046 3265 mt 3118 3265 L
3082 3229 mt 3082 3301 L
2146 2383 mt 2218 2383 L
2182 2347 mt 2182 2419 L
4060 1514 mt 4132 1514 L
4096 1478 mt 4096 1550 L
4094 2046 mt 4166 2046 L
4130 2010 mt 4130 2082 L
1674 3131 mt 1746 3131 L
1710 3095 mt 1710 3167 L
2534 2024 mt 2606 2024 L
2570 1988 mt 2570 2060 L
4886 2978 mt 4958 2978 L
4922 2942 mt 4922 3014 L
3404  564 mt 3476  564 L
3440  528 mt 3440  600 L
4381 1823 mt 4453 1823 L
4417 1787 mt 4417 1859 L
3243 3235 mt 3315 3235 L
3279 3199 mt 3279 3271 L
2016 2989 mt 2088 2989 L
2052 2953 mt 2052 3025 L
1965 2316 mt 2037 2316 L
2001 2280 mt 2001 2352 L
2993 3436 mt 3065 3436 L
3029 3400 mt 3029 3472 L
4135 1207 mt 4207 1207 L
4171 1171 mt 4171 1243 L
3178 2854 mt 3250 2854 L
3214 2818 mt 3214 2890 L
4805 2567 mt 4877 2567 L
4841 2531 mt 4841 2603 L
3284 2440 mt 3356 2440 L
3320 2404 mt 3320 2476 L
2298 1715 mt 2370 1715 L
2334 1679 mt 2334 1751 L
1937 2558 mt 2009 2558 L
1973 2522 mt 1973 2594 L
2432 3017 mt 2504 3017 L
2468 2981 mt 2468 3053 L
4282 2759 mt 4354 2759 L
4318 2723 mt 4318 2795 L
3072 2768 mt 3144 2768 L
3108 2732 mt 3108 2804 L
4107 3063 mt 4179 3063 L
4143 3027 mt 4143 3099 L
3116 2329 mt 3188 2329 L
3152 2293 mt 3152 2365 L
3493 2796 mt 3565 2796 L
3529 2760 mt 3529 2832 L
5122 3289 mt 5194 3289 L
5158 3253 mt 5158 3325 L
2355 3198 mt 2427 3198 L
2391 3162 mt 2391 3234 L
3644 3106 mt 3716 3106 L
3680 3070 mt 3680 3142 L
3202 2589 mt 3274 2589 L
3238 2553 mt 3238 2625 L
4425 1772 mt 4497 1772 L
4461 1736 mt 4461 1808 L
5096 1502 mt 5168 1502 L
5132 1466 mt 5132 1538 L
2267 2140 mt 2339 2140 L
2303 2104 mt 2303 2176 L
2844 2925 mt 2916 2925 L
2880 2889 mt 2880 2961 L
4002 2109 mt 4074 2109 L
4038 2073 mt 4038 2145 L
2836 3457 mt 2908 3457 L
2872 3421 mt 2872 3493 L
3728 1526 mt 3800 1526 L
3764 1490 mt 3764 1562 L
4251 4205 mt 4323 4205 L
4287 4169 mt 4287 4241 L
6033  824 mt 6105  824 L
6069  788 mt 6069  860 L
2945  898 mt 3017  898 L
2981  862 mt 2981  934 L
2327 2251 mt 2399 2251 L
2363 2215 mt 2363 2287 L
3123 3711 mt 3195 3711 L
3159 3675 mt 3159 3747 L
2565 3306 mt 2637 3306 L
2601 3270 mt 2601 3342 L
2251 3171 mt 2323 3171 L
2287 3135 mt 2287 3207 L
4435 3731 mt 4507 3731 L
4471 3695 mt 4471 3767 L
3499 2410 mt 3571 2410 L
3535 2374 mt 3535 2446 L
3832 2914 mt 3904 2914 L
3868 2878 mt 3868 2950 L
4631 1354 mt 4703 1354 L
4667 1318 mt 4667 1390 L
2586 2820 mt 2658 2820 L
2622 2784 mt 2622 2856 L
2381 4305 mt 2453 4305 L
2417 4269 mt 2417 4341 L
3454 3658 mt 3526 3658 L
3490 3622 mt 3490 3694 L
3066 2825 mt 3138 2825 L
3102 2789 mt 3102 2861 L
5180 1954 mt 5252 1954 L
5216 1918 mt 5216 1990 L
4274 2686 mt 4346 2686 L
4310 2650 mt 4310 2722 L
2634 3220 mt 2706 3220 L
2670 3184 mt 2670 3256 L
3599 2532 mt 3671 2532 L
3635 2496 mt 3635 2568 L
3172 3005 mt 3244 3005 L
3208 2969 mt 3208 3041 L
4820 2057 mt 4892 2057 L
4856 2021 mt 4856 2093 L
3717 3331 mt 3789 3331 L
3753 3295 mt 3753 3367 L
4836 1892 mt 4908 1892 L
4872 1856 mt 4872 1928 L
2973 3527 mt 3045 3527 L
3009 3491 mt 3009 3563 L
3381 3314 mt 3453 3314 L
3417 3278 mt 3417 3350 L
3208 3693 mt 3280 3693 L
3244 3657 mt 3244 3729 L
3364 3395 mt 3436 3395 L
3400 3359 mt 3400 3431 L
3319 3358 mt 3391 3358 L
3355 3322 mt 3355 3394 L
3560 2894 mt 3632 2894 L
3596 2858 mt 3596 2930 L
3655 2597 mt 3727 2597 L
3691 2561 mt 3691 2633 L
3443 1923 mt 3515 1923 L
3479 1887 mt 3479 1959 L
3426 3045 mt 3498 3045 L
3462 3009 mt 3462 3081 L
2732 2541 mt 2804 2541 L
2768 2505 mt 2768 2577 L
2797 2904 mt 2869 2904 L
2833 2868 mt 2833 2940 L
2407 3093 mt 2479 3093 L
2443 3057 mt 2443 3129 L
3104 3069 mt 3176 3069 L
3140 3033 mt 3140 3105 L
4553 2223 mt 4625 2223 L
4589 2187 mt 4589 2259 L
3621 2528 mt 3693 2528 L
3657 2492 mt 3657 2564 L
1842 2673 mt 1914 2673 L
1878 2637 mt 1878 2709 L
3278 2815 mt 3350 2815 L
3314 2779 mt 3314 2851 L
5531 2175 mt 5603 2175 L
5567 2139 mt 5567 2211 L
2924 1960 mt 2996 1960 L
2960 1924 mt 2960 1996 L
5828 1809 mt 5900 1809 L
5864 1773 mt 5864 1845 L
3376 3446 mt 3448 3446 L
3412 3410 mt 3412 3482 L
4643 1181 mt 4715 1181 L
4679 1145 mt 4679 1217 L
3129 2859 mt 3201 2859 L
3165 2823 mt 3165 2895 L
4542 2388 mt 4614 2388 L
4578 2352 mt 4578 2424 L
gs 899 414 5363 4203 rc
gr

0 sg
2836 5104 mt 
(\(S,PAC,GMM\)) s
 482 3277 mt  -90 rotate
(\(S,SSC,GMM\)) s
90 rotate
2975  223 mt 
(Corr = 0.38) s

end %%Color Dict

eplot
%%EndObject

epage
end

showpage

%%Trailer
%%EOF
