%!PS-Adobe-3.0 EPSF-3.0
%%Creator: MATLAB, The Mathworks, Inc. Version 7.7.0.471 (R2008b). Operating System: Microsoft Windows XP.
%%Title: Pictures\main_zoo_mvar_analysis_data_BMI_xcorr_bmig_p1_k1_4_7.eps
%%CreationDate: 10/26/2009  05:45:00
%%DocumentNeededFonts: Helvetica
%%DocumentProcessColors: Cyan Magenta Yellow Black
%%LanguageLevel: 2
%%Pages: 1
%%BoundingBox:    37   180   549   616
%%EndComments

%%BeginProlog
% MathWorks dictionary
/MathWorks 160 dict begin
% definition operators
/bdef {bind def} bind def
/ldef {load def} bind def
/xdef {exch def} bdef
/xstore {exch store} bdef
% operator abbreviations
/c  /clip ldef
/cc /concat ldef
/cp /closepath ldef
/gr /grestore ldef
/gs /gsave ldef
/mt /moveto ldef
/np /newpath ldef
/cm /currentmatrix ldef
/sm /setmatrix ldef
/rm /rmoveto ldef
/rl /rlineto ldef
/s {show newpath} bdef
/sc {setcmykcolor} bdef
/sr /setrgbcolor ldef
/sg /setgray ldef
/w /setlinewidth ldef
/j /setlinejoin ldef
/cap /setlinecap ldef
/rc {rectclip} bdef
/rf {rectfill} bdef
% page state control
/pgsv () def
/bpage {/pgsv save def} bdef
/epage {pgsv restore} bdef
/bplot /gsave ldef
/eplot {stroke grestore} bdef
% orientation switch
/portraitMode 0 def /landscapeMode 1 def /rotateMode 2 def
% coordinate system mappings
/dpi2point 0 def
% font control
/FontSize 0 def
/FMS {/FontSize xstore findfont [FontSize 0 0 FontSize neg 0 0]
  makefont setfont} bdef
/ISOLatin1Encoding where {pop /WindowsLatin1Encoding 256 array bdef
ISOLatin1Encoding WindowsLatin1Encoding copy pop
/.notdef/.notdef/quotesinglbase/florin/quotedblbase/ellipsis/dagger
/daggerdbl/circumflex/perthousand/Scaron/guilsinglleft/OE/.notdef/.notdef
/.notdef/.notdef/quoteleft/quoteright/quotedblleft/quotedblright/bullet
/endash/emdash/tilde/trademark/scaron/guilsinglright/oe/.notdef/.notdef
/Ydieresis WindowsLatin1Encoding 128 32 getinterval astore pop}
{/WindowsLatin1Encoding StandardEncoding bdef} ifelse
/reencode {exch dup where {pop load} {pop StandardEncoding} ifelse
  exch dup 3 1 roll findfont dup length dict begin
  { 1 index /FID ne {def}{pop pop} ifelse } forall
  /Encoding exch def currentdict end definefont pop} bdef
/isroman {findfont /CharStrings get /Agrave known} bdef
/FMSR {3 1 roll 1 index dup isroman {reencode} {pop pop} ifelse
  exch FMS} bdef
/csm {1 dpi2point div -1 dpi2point div scale neg translate
 dup landscapeMode eq {pop -90 rotate}
  {rotateMode eq {90 rotate} if} ifelse} bdef
% line types: solid, dotted, dashed, dotdash
/SO { [] 0 setdash } bdef
/DO { [.5 dpi2point mul 4 dpi2point mul] 0 setdash } bdef
/DA { [6 dpi2point mul] 0 setdash } bdef
/DD { [.5 dpi2point mul 4 dpi2point mul 6 dpi2point mul 4
  dpi2point mul] 0 setdash } bdef
% macros for lines and objects
/L {lineto stroke} bdef
/MP {3 1 roll moveto 1 sub {rlineto} repeat} bdef
/AP {{rlineto} repeat} bdef
/PDlw -1 def
/W {/PDlw currentlinewidth def setlinewidth} def
/PP {closepath eofill} bdef
/DP {closepath stroke} bdef
/MR {4 -2 roll moveto dup  0 exch rlineto exch 0 rlineto
  neg 0 exch rlineto closepath} bdef
/FR {MR stroke} bdef
/PR {MR fill} bdef
/L1i {{currentfile picstr readhexstring pop} image} bdef
/tMatrix matrix def
/MakeOval {newpath tMatrix currentmatrix pop translate scale
0 0 1 0 360 arc tMatrix setmatrix} bdef
/FO {MakeOval stroke} bdef
/PO {MakeOval fill} bdef
/PD {currentlinewidth 2 div 0 360 arc fill
   PDlw -1 eq not {PDlw w /PDlw -1 def} if} def
/FA {newpath tMatrix currentmatrix pop translate scale
  0 0 1 5 -2 roll arc tMatrix setmatrix stroke} bdef
/PA {newpath tMatrix currentmatrix pop	translate 0 0 moveto scale
  0 0 1 5 -2 roll arc closepath tMatrix setmatrix fill} bdef
/FAn {newpath tMatrix currentmatrix pop translate scale
  0 0 1 5 -2 roll arcn tMatrix setmatrix stroke} bdef
/PAn {newpath tMatrix currentmatrix pop translate 0 0 moveto scale
  0 0 1 5 -2 roll arcn closepath tMatrix setmatrix fill} bdef
/vradius 0 def /hradius 0 def /lry 0 def
/lrx 0 def /uly 0 def /ulx 0 def /rad 0 def
/MRR {/vradius xdef /hradius xdef /lry xdef /lrx xdef /uly xdef
  /ulx xdef newpath tMatrix currentmatrix pop ulx hradius add uly
  vradius add translate hradius vradius scale 0 0 1 180 270 arc 
  tMatrix setmatrix lrx hradius sub uly vradius add translate
  hradius vradius scale 0 0 1 270 360 arc tMatrix setmatrix
  lrx hradius sub lry vradius sub translate hradius vradius scale
  0 0 1 0 90 arc tMatrix setmatrix ulx hradius add lry vradius sub
  translate hradius vradius scale 0 0 1 90 180 arc tMatrix setmatrix
  closepath} bdef
/FRR {MRR stroke } bdef
/PRR {MRR fill } bdef
/MlrRR {/lry xdef /lrx xdef /uly xdef /ulx xdef /rad lry uly sub 2 div def
  newpath tMatrix currentmatrix pop ulx rad add uly rad add translate
  rad rad scale 0 0 1 90 270 arc tMatrix setmatrix lrx rad sub lry rad
  sub translate rad rad scale 0 0 1 270 90 arc tMatrix setmatrix
  closepath} bdef
/FlrRR {MlrRR stroke } bdef
/PlrRR {MlrRR fill } bdef
/MtbRR {/lry xdef /lrx xdef /uly xdef /ulx xdef /rad lrx ulx sub 2 div def
  newpath tMatrix currentmatrix pop ulx rad add uly rad add translate
  rad rad scale 0 0 1 180 360 arc tMatrix setmatrix lrx rad sub lry rad
  sub translate rad rad scale 0 0 1 0 180 arc tMatrix setmatrix
  closepath} bdef
/FtbRR {MtbRR stroke } bdef
/PtbRR {MtbRR fill } bdef
/stri 6 array def /dtri 6 array def
/smat 6 array def /dmat 6 array def
/tmat1 6 array def /tmat2 6 array def /dif 3 array def
/asub {/ind2 exch def /ind1 exch def dup dup
  ind1 get exch ind2 get sub exch } bdef
/tri_to_matrix {
  2 0 asub 3 1 asub 4 0 asub 5 1 asub
  dup 0 get exch 1 get 7 -1 roll astore } bdef
/compute_transform {
  dmat dtri tri_to_matrix tmat1 invertmatrix 
  smat stri tri_to_matrix tmat2 concatmatrix } bdef
/ds {stri astore pop} bdef
/dt {dtri astore pop} bdef
/db {2 copy /cols xdef /rows xdef mul dup 3 mul string
  currentfile 
  3 index 0 eq {/ASCIIHexDecode filter}
  {/ASCII85Decode filter 3 index 2 eq {/RunLengthDecode filter} if }
  ifelse exch readstring pop
  dup 0 3 index getinterval /rbmap xdef
  dup 2 index dup getinterval /gbmap xdef
  1 index dup 2 mul exch getinterval /bbmap xdef pop pop}bdef
/it {gs np dtri aload pop moveto lineto lineto cp c
  cols rows 8 compute_transform 
  rbmap gbmap bbmap true 3 colorimage gr}bdef
/il {newpath moveto lineto stroke}bdef
currentdict end def
%%EndProlog

%%BeginSetup
MathWorks begin

0 cap

end
%%EndSetup

%%Page: 1 1
%%BeginPageSetup
%%PageBoundingBox:    37   180   549   616
MathWorks begin
bpage
%%EndPageSetup

%%BeginObject: obj1
bplot

/dpi2point 12 def
portraitMode 0216 7344 csm

  234   -48  6149  5231 rc
85 dict begin %Colortable dictionary
/c0 { 0.000000 0.000000 0.000000 sr} bdef
/c1 { 1.000000 1.000000 1.000000 sr} bdef
/c2 { 0.900000 0.000000 0.000000 sr} bdef
/c3 { 0.000000 0.820000 0.000000 sr} bdef
/c4 { 0.000000 0.000000 0.800000 sr} bdef
/c5 { 0.910000 0.820000 0.320000 sr} bdef
/c6 { 1.000000 0.260000 0.820000 sr} bdef
/c7 { 0.000000 0.820000 0.820000 sr} bdef
c0
1 j
1 sg
   0    0 6919 5187 rf
6 w
0 4202 5362 0 0 -4202 899 4616 4 MP
PP
-5362 0 0 4202 5362 0 0 -4202 899 4616 5 MP stroke
4 w
DO
SO
6 w
0 sg
 899  414 mt 6261  414 L
 899 4616 mt 6261 4616 L
6261 4616 mt 6261  414 L
 899 4616 mt  899  414 L
 899 4616 mt 6261 4616 L
 899 4616 mt  899  414 L
 919 4616 mt  919 4562 L
 919  414 mt  919  467 L
%%IncludeResource: font Helvetica
/Helvetica /WindowsLatin1Encoding 240 FMSR

 713 4873 mt 
(-3) s
1806 4616 mt 1806 4562 L
1806  414 mt 1806  467 L
1600 4873 mt 
(-2) s
2693 4616 mt 2693 4562 L
2693  414 mt 2693  467 L
2487 4873 mt 
(-1) s
3580 4616 mt 3580 4562 L
3580  414 mt 3580  467 L
3514 4873 mt 
(0) s
4466 4616 mt 4466 4562 L
4466  414 mt 4466  467 L
4400 4873 mt 
(1) s
5353 4616 mt 5353 4562 L
5353  414 mt 5353  467 L
5287 4873 mt 
(2) s
6240 4616 mt 6240 4562 L
6240  414 mt 6240  467 L
6174 4873 mt 
(3) s
 899 4599 mt  952 4599 L
6261 4599 mt 6207 4599 L
 591 4688 mt 
(-3) s
 899 3904 mt  952 3904 L
6261 3904 mt 6207 3904 L
 591 3993 mt 
(-2) s
 899 3209 mt  952 3209 L
6261 3209 mt 6207 3209 L
 591 3298 mt 
(-1) s
 899 2514 mt  952 2514 L
6261 2514 mt 6207 2514 L
 731 2603 mt 
(0) s
 899 1820 mt  952 1820 L
6261 1820 mt 6207 1820 L
 731 1909 mt 
(1) s
 899 1125 mt  952 1125 L
6261 1125 mt 6207 1125 L
 731 1214 mt 
(2) s
 899  430 mt  952  430 L
6261  430 mt 6207  430 L
 731  519 mt 
(3) s
 899  414 mt 6261  414 L
 899 4616 mt 6261 4616 L
6261 4616 mt 6261  414 L
 899 4616 mt  899  414 L
gs 899 414 5363 4203 rc
gr

/c8 { 0.000000 0.000000 1.000000 sr} bdef
c8
3053  957 mt 3125  957 L
3089  921 mt 3089  993 L
3983 2686 mt 4055 2686 L
4019 2650 mt 4019 2722 L
4719 3273 mt 4791 3273 L
4755 3237 mt 4755 3309 L
3791 4072 mt 3863 4072 L
3827 4036 mt 3827 4108 L
2866 2284 mt 2938 2284 L
2902 2248 mt 2902 2320 L
3460 3039 mt 3532 3039 L
3496 3003 mt 3496 3075 L
4298 2619 mt 4370 2619 L
4334 2583 mt 4334 2655 L
2851 2874 mt 2923 2874 L
2887 2838 mt 2887 2910 L
3421 3553 mt 3493 3553 L
3457 3517 mt 3457 3589 L
3940 2436 mt 4012 2436 L
3976 2400 mt 3976 2472 L
3621 2731 mt 3693 2731 L
3657 2695 mt 3657 2767 L
4330 2365 mt 4402 2365 L
4366 2329 mt 4366 2401 L
4553 2261 mt 4625 2261 L
4589 2225 mt 4589 2297 L
4087 1740 mt 4159 1740 L
4123 1704 mt 4123 1776 L
3885 3479 mt 3957 3479 L
3921 3443 mt 3921 3515 L
4290 1298 mt 4362 1298 L
4326 1262 mt 4326 1334 L
3243  824 mt 3315  824 L
3279  788 mt 3279  860 L
2917 2778 mt 2989 2778 L
2953 2742 mt 2953 2814 L
5002 2668 mt 5074 2668 L
5038 2632 mt 5038 2704 L
3605 2024 mt 3677 2024 L
3641 1988 mt 3641 2060 L
3532 2782 mt 3604 2782 L
3568 2746 mt 3568 2818 L
2468 2989 mt 2540 2989 L
2504 2953 mt 2504 3025 L
3774 2869 mt 3846 2869 L
3810 2833 mt 3810 2905 L
4852 2820 mt 4924 2820 L
4888 2784 mt 4888 2856 L
2945 1538 mt 3017 1538 L
2981 1502 mt 2981 1574 L
3832 2405 mt 3904 2405 L
3868 2369 mt 3868 2441 L
3711 2270 mt 3783 2270 L
3747 2234 mt 3747 2306 L
3873 3106 mt 3945 3106 L
3909 3070 mt 3909 3142 L
3751 3822 mt 3823 3822 L
3787 3786 mt 3787 3858 L
3387 2754 mt 3459 2754 L
3423 2718 mt 3423 2790 L
2828 2889 mt 2900 2889 L
2864 2853 mt 2864 2925 L
3689 2440 mt 3761 2440 L
3725 2404 mt 3725 2476 L
4407 2935 mt 4479 2935 L
4443 2899 mt 4443 2971 L
2697 2414 mt 2769 2414 L
2733 2378 mt 2733 2450 L
4355 2920 mt 4427 2920 L
4391 2884 mt 4391 2956 L
2394 2691 mt 2466 2691 L
2430 2655 mt 2430 2727 L
2575 2484 mt 2647 2484 L
2611 2448 mt 2611 2520 L
3694 2115 mt 3766 2115 L
3730 2079 mt 3730 2151 L
3903 1489 mt 3975 1489 L
3939 1453 mt 3939 1525 L
4184 1838 mt 4256 1838 L
4220 1802 mt 4220 1874 L
3410 2768 mt 3482 2768 L
3446 2732 mt 3446 2804 L
4805 2904 mt 4877 2904 L
4841 2868 mt 4841 2940 L
2420 1911 mt 2492 1911 L
2456 1875 mt 2456 1947 L
5282 2140 mt 5354 2140 L
5318 2104 mt 5318 2176 L
6033 2682 mt 6105 2682 L
6069 2646 mt 6069 2718 L
3838 3693 mt 3910 3693 L
3874 3657 mt 3874 3729 L
2555 1336 mt 2627 1336 L
2591 1300 mt 2591 1372 L
4338 2606 mt 4410 2606 L
4374 2570 mt 4374 2642 L
4608 2120 mt 4680 2120 L
4644 2084 mt 4644 2156 L
4643 3468 mt 4715 3468 L
4679 3432 mt 4679 3504 L
2456 2035 mt 2528 2035 L
2492 1999 mt 2492 2071 L
1876 2462 mt 1948 2462 L
1912 2426 mt 1912 2498 L
5365 2558 mt 5437 2558 L
5401 2522 mt 5401 2594 L
3147 3405 mt 3219 3405 L
3183 3369 mt 3183 3441 L
3296 1756 mt 3368 1756 L
3332 1720 mt 3332 1792 L
3290 2884 mt 3362 2884 L
3326 2848 mt 3326 2920 L
3844 2279 mt 3916 2279 L
3880 2243 mt 3880 2315 L
3278 3265 mt 3350 3265 L
3314 3229 mt 3314 3301 L
4322 2374 mt 4394 2374 L
4358 2338 mt 4358 2410 L
4435 2650 mt 4507 2650 L
4471 2614 mt 4471 2686 L
2789 2007 mt 2861 2007 L
2825 1971 mt 2825 2043 L
2016 1388 mt 2088 1388 L
2052 1352 mt 2052 1424 L
4746 2633 mt 4818 2633 L
4782 2597 mt 4782 2669 L
5071 2664 mt 5143 2664 L
5107 2628 mt 5107 2700 L
4836 3184 mt 4908 3184 L
4872 3148 mt 4872 3220 L
2896 2334 mt 2968 2334 L
2932 2298 mt 2932 2370 L
5150 2914 mt 5222 2914 L
5186 2878 mt 5186 2950 L
2671 2204 mt 2743 2204 L
2707 2168 mt 2707 2240 L
3566 2741 mt 3638 2741 L
3602 2705 mt 3602 2777 L
3353 3436 mt 3425 3436 L
3389 3400 mt 3389 3472 L
3734 3610 mt 3806 3610 L
3770 3574 mt 3770 3646 L
4170 2659 mt 4242 2659 L
4206 2623 mt 4206 2695 L
3803 3376 mt 3875 3376 L
3839 3340 mt 3839 3412 L
3307 2745 mt 3379 2745 L
3343 2709 mt 3343 2781 L
3098 2135 mt 3170 2135 L
3134 2099 mt 3134 2171 L
4886 2094 mt 4958 2094 L
4922 2058 mt 4922 2130 L
4522 2925 mt 4594 2925 L
4558 2889 mt 4558 2961 L
3921 2709 mt 3993 2709 L
3957 2673 mt 3957 2745 L
4631 2165 mt 4703 2165 L
4667 2129 mt 4667 2201 L
3521 2040 mt 3593 2040 L
3557 2004 mt 3557 2076 L
4904 2554 mt 4976 2554 L
4940 2518 mt 4940 2590 L
5047 3503 mt 5119 3503 L
5083 3467 mt 5083 3539 L
2595 2104 mt 2667 2104 L
2631 2068 mt 2631 2140 L
3577 3731 mt 3649 3731 L
3613 3695 mt 3613 3767 L
3538 1748 mt 3610 1748 L
3574 1712 mt 3574 1784 L
4074 3515 mt 4146 3515 L
4110 3479 mt 4110 3551 L
3123 4205 mt 3195 4205 L
3159 4169 mt 3159 4241 L
5321 2909 mt 5393 2909 L
5357 2873 mt 5357 2945 L
2479 3980 mt 2551 3980 L
2515 3944 mt 2515 4016 L
2218 2018 mt 2290 2018 L
2254 1982 mt 2254 2054 L
4585 2597 mt 4657 2597 L
4621 2561 mt 4621 2633 L
4922 3112 mt 4994 3112 L
4958 3076 mt 4958 3148 L
4121 3711 mt 4193 3711 L
4157 3675 mt 4157 3747 L
3891 1764 mt 3963 1764 L
3927 1728 mt 3927 1800 L
1481 2750 mt 1553 2750 L
1517 2714 mt 1517 2786 L
4015 1978 mt 4087 1978 L
4051 1942 mt 4051 2014 L
3267 2545 mt 3339 2545 L
3303 2509 mt 3303 2581 L
3319 2811 mt 3391 2811 L
3355 2775 mt 3355 2847 L
4667 2423 mt 4739 2423 L
4703 2387 mt 4703 2459 L
2931 3220 mt 3003 3220 L
2967 3184 mt 2967 3256 L
3000  414 mt 3072  414 L
3036  378 mt 3036  450 L
3393 2593 mt 3465 2593 L
3429 2557 mt 3429 2629 L
4372 2293 mt 4444 2293 L
4408 2257 mt 4408 2329 L
2980 3331 mt 3052 3331 L
3016 3295 mt 3016 3367 L
3867 1917 mt 3939 1917 L
3903 1881 mt 3903 1953 L
4021 2418 mt 4093 2418 L
4057 2382 mt 4057 2454 L
4236 3491 mt 4308 3491 L
4272 3455 mt 4272 3527 L
3214 1772 mt 3286 1772 L
3250 1736 mt 3250 1808 L
3438 2320 mt 3510 2320 L
3474 2284 mt 3474 2356 L
2821 4131 mt 2893 4131 L
2857 4095 mt 2857 4167 L
5828 2792 mt 5900 2792 L
5864 2756 mt 5864 2828 L
3454 3306 mt 3526 3306 L
3490 3270 mt 3490 3342 L
2749 2067 mt 2821 2067 L
2785 2031 mt 2785 2103 L
2859 2562 mt 2931 2562 L
2895 2526 mt 2895 2598 L
4266 3125 mt 4338 3125 L
4302 3089 mt 4302 3161 L
3934 2298 mt 4006 2298 L
3970 2262 mt 3970 2334 L
4107 3051 mt 4179 3051 L
4143 3015 mt 4143 3087 L
3740 2383 mt 3812 2383 L
3776 2347 mt 3776 2419 L
4775 2704 mt 4847 2704 L
4811 2668 mt 4811 2740 L
2565 2972 mt 2637 2972 L
2601 2936 mt 2601 3008 L
3085 2673 mt 3157 2673 L
3121 2637 mt 3121 2709 L
4228 3087 mt 4300 3087 L
4264 3051 mt 4264 3123 L
2757 2930 mt 2829 2930 L
2793 2894 mt 2793 2966 L
4869 1936 mt 4941 1936 L
4905 1900 mt 4905 1972 L
3594 1878 mt 3666 1878 L
3630 1842 mt 3630 1914 L
5024 2089 mt 5096 2089 L
5060 2053 mt 5060 2125 L
3153 2796 mt 3225 2796 L
3189 2760 mt 3189 2832 L
3555 2899 mt 3627 2899 L
3591 2863 mt 3591 2935 L
3313 3625 mt 3385 3625 L
3349 3589 mt 3349 3661 L
2085 2189 mt 2157 2189 L
2121 2153 mt 2121 2225 L
4472 3415 mt 4544 3415 L
4508 3379 mt 4508 3451 L
3347 1434 mt 3419 1434 L
3383 1398 mt 3383 1470 L
3027 3349 mt 3099 3349 L
3063 3313 mt 3063 3385 L
1259 4305 mt 1331 4305 L
1295 4269 mt 1295 4341 L
1387 3206 mt 1459 3206 L
1423 3170 mt 1423 3242 L
2523 2396 mt 2595 2396 L
2559 2360 mt 2559 2432 L
3342 3227 mt 3414 3227 L
3378 3191 mt 3378 3263 L
3261 2410 mt 3333 2410 L
3297 2374 mt 3297 2446 L
4306 1892 mt 4378 1892 L
4342 1856 mt 4342 1928 L
3046 2488 mt 3118 2488 L
3082 2452 mt 3082 2524 L
4041 3289 mt 4113 3289 L
4077 3253 mt 4077 3325 L
3897 2325 mt 3969 2325 L
3933 2289 mt 3933 2361 L
4619 2307 mt 4691 2307 L
4655 2271 mt 4655 2343 L
2368 2343 mt 2440 2343 L
2404 2307 mt 2404 2379 L
3505 2835 mt 3577 2835 L
3541 2799 mt 3541 2871 L
3404 3358 mt 3476 3358 L
3440 3322 mt 3440 3394 L
4054 1689 mt 4126 1689 L
4090 1653 mt 4090 1725 L
4532 1572 mt 4604 1572 L
4568 1536 mt 4568 1608 L
4574 2057 mt 4646 2057 L
4610 2021 mt 4610 2093 L
2327 1858 mt 2399 1858 L
2363 1822 mt 2363 1894 L
6225 3000 mt 6297 3000 L
6261 2964 mt 6261 3036 L
2765 2677 mt 2837 2677 L
2801 2641 mt 2801 2713 L
3471 2859 mt 3543 2859 L
3507 2823 mt 3507 2895 L
4213 2242 mt 4285 2242 L
4249 2206 mt 4249 2278 L
1937 1634 mt 2009 1634 L
1973 1598 mt 1973 1670 L
3376 3877 mt 3448 3877 L
3412 3841 mt 3412 3913 L
4390 2497 mt 4462 2497 L
4426 2461 mt 4426 2533 L
3477 1593 mt 3549 1593 L
3513 1557 mt 3513 1629 L
2201 2541 mt 2273 2541 L
2237 2505 mt 2237 2577 L
4206 3322 mt 4278 3322 L
4242 3286 mt 4242 3358 L
4693 2356 mt 4765 2356 L
4729 2320 mt 4729 2392 L
3172 2523 mt 3244 2523 L
3208 2487 mt 3208 2559 L
2836 2576 mt 2908 2576 L
2872 2540 mt 2872 2612 L
3809 2311 mt 3881 2311 L
3845 2275 mt 3845 2347 L
3672 2773 mt 3744 2773 L
3708 2737 mt 3708 2809 L
4191 2514 mt 4263 2514 L
4227 2478 mt 4227 2550 L
5468 1809 mt 5540 1809 L
5504 1773 mt 5504 1845 L
3797 2109 mt 3869 2109 L
3833 2073 mt 3833 2145 L
3510 2830 mt 3582 2830 L
3546 2794 mt 3546 2866 L
4364 2787 mt 4436 2787 L
4400 2751 mt 4400 2823 L
2966 1561 mt 3038 1561 L
3002 1525 mt 3002 1597 L
2874 2275 mt 2946 2275 L
2910 2239 mt 2910 2311 L
2235 2501 mt 2307 2501 L
2271 2465 mt 2271 2537 L
3757 2956 mt 3829 2956 L
3793 2920 mt 3793 2992 L
3449 1954 mt 3521 1954 L
3485 1918 mt 3485 1990 L
3728 3567 mt 3800 3567 L
3764 3531 mt 3764 3603 L
3952 2199 mt 4024 2199 L
3988 2163 mt 3988 2235 L
3527 2655 mt 3599 2655 L
3563 2619 mt 3563 2691 L
4163 2388 mt 4235 2388 L
4199 2352 mt 4199 2424 L
3627 3367 mt 3699 3367 L
3663 3331 mt 3663 3403 L
2881 2427 mt 2953 2427 L
2917 2391 mt 2917 2463 L
2605 2370 mt 2677 2370 L
2641 2334 mt 2641 2406 L
4002 1643 mt 4074 1643 L
4038 1607 mt 4038 1679 L
5122 3069 mt 5194 3069 L
5158 3033 mt 5158 3105 L
4135 3250 mt 4207 3250 L
4171 3214 mt 4171 3286 L
3683 3581 mt 3755 3581 L
3719 3545 mt 3719 3617 L
3196 3281 mt 3268 3281 L
3232 3245 mt 3232 3317 L
3655 3641 mt 3727 3641 L
3691 3605 mt 3691 3677 L
3091 1207 mt 3163 1207 L
3127 1171 mt 3127 1243 L
3226 1872 mt 3298 1872 L
3262 1836 mt 3262 1908 L
3129 1671 mt 3201 1671 L
3165 1635 mt 3165 1707 L
4114 2849 mt 4186 2849 L
4150 2813 mt 4150 2885 L
3104 2228 mt 3176 2228 L
3140 2192 mt 3140 2264 L
2643 3057 mt 2715 3057 L
2679 3021 mt 2679 3093 L
1722 3191 mt 1794 3191 L
1758 3155 mt 1758 3227 L
5096 1006 mt 5168 1006 L
5132  970 mt 5132 1042 L
3616 1972 mt 3688 1972 L
3652 1936 mt 3652 2008 L
3381 1419 mt 3453 1419 L
3417 1383 mt 3417 1455 L
3780 2967 mt 3852 2967 L
3816 2931 mt 3816 3003 L
3370 2445 mt 3442 2445 L
3406 2409 mt 3406 2481 L
3364  898 mt 3436  898 L
3400  862 mt 3400  934 L
3560 1514 mt 3632 1514 L
3596 1478 mt 3596 1550 L
2910 2983 mt 2982 2983 L
2946 2947 mt 2946 3019 L
2282 2519 mt 2354 2519 L
2318 2483 mt 2318 2555 L
2586 3093 mt 2658 3093 L
2622 3057 mt 2622 3129 L
3116 1942 mt 3188 1942 L
3152 1906 mt 3152 1978 L
4425 2247 mt 4497 2247 L
4461 2211 mt 4461 2283 L
1766 2265 mt 1838 2265 L
1802 2229 mt 1802 2301 L
4149 2854 mt 4221 2854 L
4185 2818 mt 4185 2890 L
4492 1698 mt 4564 1698 L
4528 1662 mt 4528 1734 L
1674 2946 mt 1746 2946 L
1710 2910 mt 1710 2982 L
3927 2646 mt 3999 2646 L
3963 2610 mt 3963 2682 L
4047 2718 mt 4119 2718 L
4083 2682 mt 4083 2754 L
2924 1121 mt 2996 1121 L
2960 1085 mt 2960 1157 L
2615 2584 mt 2687 2584 L
2651 2548 mt 2651 2620 L
4941 1049 mt 5013 1049 L
4977 1013 mt 4977 1085 L
2706  724 mt 2778  724 L
2742  688 mt 2742  760 L
3078 2379 mt 3150 2379 L
3114 2343 mt 3114 2415 L
4080 2046 mt 4152 2046 L
4116 2010 mt 4116 2082 L
4243 1823 mt 4315 1823 L
4279 1787 mt 4279 1859 L
2355 4023 mt 2427 4023 L
2391 3987 mt 2391 4059 L
3066 2145 mt 3138 2145 L
3102 2109 mt 3102 2181 L
4282 2458 mt 4354 2458 L
4318 2422 mt 4318 2494 L
3996 3157 mt 4068 3157 L
4032 3121 mt 4032 3193 L
4655 1707 mt 4727 1707 L
4691 1671 mt 4691 1743 L
3861 2180 mt 3933 2180 L
3897 2144 mt 3897 2216 L
3814 2467 mt 3886 2467 L
3850 2431 mt 3850 2503 L
3915 2001 mt 3987 2001 L
3951 1965 mt 3951 2037 L
3644 2736 mt 3716 2736 L
3680 2700 mt 3680 2772 L
3336 2392 mt 3408 2392 L
3372 2356 mt 3372 2428 L
2126 2029 mt 2198 2029 L
2162 1993 mt 2162 2065 L
4177 4616 mt 4249 4616 L
4213 4580 mt 4213 4652 L
3638 2894 mt 3710 2894 L
3674 2858 mt 3674 2930 L
2938 1779 mt 3010 1779 L
2974 1743 mt 2974 1815 L
2888 3395 mt 2960 3395 L
2924 3359 mt 2924 3431 L
2732 3942 mt 2804 3942 L
2768 3906 mt 2768 3978 L
3482 3063 mt 3554 3063 L
3518 3027 mt 3518 3099 L
 863 1232 mt  935 1232 L
 899 1196 mt  899 1268 L
3141 1448 mt 3213 1448 L
3177 1412 mt 3177 1484 L
3768 2237 mt 3840 2237 L
3804 2201 mt 3804 2273 L
3232 2160 mt 3304 2160 L
3268 2124 mt 3268 2196 L
4542 2073 mt 4614 2073 L
4578 2037 mt 4578 2109 L
2513 2347 mt 2585 2347 L
2549 2311 mt 2549 2383 L
4199 3151 mt 4271 3151 L
4235 3115 mt 4235 3187 L
5413 3386 mt 5485 3386 L
5449 3350 mt 5449 3422 L
3516 2722 mt 3588 2722 L
3552 2686 mt 3552 2758 L
3273 1152 mt 3345 1152 L
3309 1116 mt 3309 1188 L
4381 3017 mt 4453 3017 L
4417 2981 mt 4417 3053 L
3202 1732 mt 3274 1732 L
3238 1696 mt 3238 1768 L
3599 2978 mt 3671 2978 L
3635 2942 mt 3635 3014 L
2959 2099 mt 3031 2099 L
2995 2063 mt 2995 2135 L
3040 2218 mt 3112 2218 L
3076 2182 mt 3076 2254 L
4789 3164 mt 4861 3164 L
4825 3128 mt 4825 3200 L
2781 3425 mt 2853 3425 L
2817 3389 mt 2817 3461 L
3820 2150 mt 3892 2150 L
3856 2114 mt 3856 2186 L
3443 2251 mt 3515 2251 L
3479 2215 mt 3479 2287 L
3958 3144 mt 4030 3144 L
3994 3108 mt 3994 3180 L
1991 2864 mt 2063 2864 L
2027 2828 mt 2027 2900 L
4259 1865 mt 4331 1865 L
4295 1829 mt 4295 1901 L
3666 2214 mt 3738 2214 L
3702 2178 mt 3702 2250 L
2715 1990 mt 2787 1990 L
2751 1954 mt 2751 2026 L
3359 1885 mt 3431 1885 L
3395 1849 mt 3395 1921 L
4274 2994 mt 4346 2994 L
4310 2958 mt 4310 3030 L
5531 2637 mt 5603 2637 L
5567 2601 mt 5567 2673 L
2146 2700 mt 2218 2700 L
2182 2664 mt 2182 2736 L
3249 3081 mt 3321 3081 L
3285 3045 mt 3285 3117 L
3178 3178 mt 3250 3178 L
3214 3142 mt 3214 3214 L
2381 1624 mt 2453 1624 L
2417 1588 mt 2417 1660 L
4100 3340 mt 4172 3340 L
4136 3304 mt 4136 3376 L
3466 2727 mt 3538 2727 L
3502 2691 mt 3502 2763 L
4142 2532 mt 4214 2532 L
4178 2496 mt 4178 2568 L
2652 1816 mt 2724 1816 L
2688 1780 mt 2688 1852 L
4034 3022 mt 4106 3022 L
4070 2986 mt 4070 3058 L
3971 2940 mt 4043 2940 L
4007 2904 mt 4007 2976 L
3190 3034 mt 3262 3034 L
3226 2998 mt 3226 3070 L
4009 2155 mt 4081 2155 L
4045 2119 mt 4045 2191 L
4416 2185 mt 4488 2185 L
4452 2149 mt 4452 2221 L
1965 3797 mt 2037 3797 L
2001 3761 mt 2001 3833 L
3946 3527 mt 4018 3527 L
3982 3491 mt 3982 3563 L
2805 2316 mt 2877 2316 L
2841 2280 mt 2841 2352 L
5245 2401 mt 5317 2401 L
5281 2365 mt 5281 2437 L
4453 3540 mt 4525 3540 L
4489 3504 mt 4489 3576 L
3723 1662 mt 3795 1662 L
3759 1626 mt 3759 1698 L
2689 2615 mt 2761 2615 L
2725 2579 mt 2725 2651 L
4251 1354 mt 4323 1354 L
4287 1318 mt 4287 1390 L
3544 3137 mt 3616 3137 L
3580 3101 mt 3580 3173 L
3785 2764 mt 3857 2764 L
3821 2728 mt 3821 2800 L
5211 2571 mt 5283 2571 L
5247 2535 mt 5247 2607 L
3398 2611 mt 3470 2611 L
3434 2575 mt 3434 2647 L
2502 2506 mt 2574 2506 L
2538 2470 mt 2538 2542 L
3989 2083 mt 4061 2083 L
4025 2047 mt 4025 2119 L
4060 2432 mt 4132 2432 L
4096 2396 mt 4096 2468 L
3325 2951 mt 3397 2951 L
3361 2915 mt 3361 2987 L
3700 1318 mt 3772 1318 L
3736 1282 mt 3736 1354 L
2490 3011 mt 2562 3011 L
2526 2975 mt 2526 3047 L
3762 2840 mt 3834 2840 L
3798 2804 mt 3798 2876 L
4482 3457 mt 4554 3457 L
4518 3421 mt 4518 3493 L
2797 3242 mt 2869 3242 L
2833 3206 mt 2833 3278 L
4760 3908 mt 4832 3908 L
4796 3872 mt 4796 3944 L
3850 3257 mt 3922 3257 L
3886 3221 mt 3886 3293 L
2545  564 mt 2617  564 L
2581  528 mt 2581  600 L
2662 3131 mt 2734 3131 L
2698 3095 mt 2698 3167 L
4732 1583 mt 4804 1583 L
4768 1547 mt 4768 1619 L
2432 2641 mt 2504 2641 L
2468 2605 mt 2468 2677 L
4820 2449 mt 4892 2449 L
4856 2413 mt 4856 2485 L
3909 2256 mt 3981 2256 L
3945 2220 mt 3945 2292 L
4463 2580 mt 4535 2580 L
4499 2544 mt 4499 2616 L
1907 1404 mt 1979 1404 L
1943 1368 mt 1943 1440 L
3208 2475 mt 3280 2475 L
3244 2439 mt 3244 2511 L
3033 2815 mt 3105 2815 L
3069 2779 mt 3069 2851 L
5606 1526 mt 5678 1526 L
5642 1490 mt 5642 1562 L
3661 1930 mt 3733 1930 L
3697 1894 mt 3697 1966 L
4094 2051 mt 4166 2051 L
4130 2015 mt 4130 2087 L
2407 2078 mt 2479 2078 L
2443 2042 mt 2443 2114 L
3677 3099 mt 3749 3099 L
3713 3063 mt 3713 3135 L
2444 2223 mt 2516 2223 L
2480 2187 mt 2480 2259 L
3493 2801 mt 3565 2801 L
3529 2765 mt 3529 2837 L
1619 1787 mt 1691 1787 L
1655 1751 mt 1655 1823 L
4680 2962 mt 4752 2962 L
4716 2926 mt 4716 2998 L
3488 2825 mt 3560 2825 L
3524 2789 mt 3524 2861 L
3588 3075 mt 3660 3075 L
3624 3039 mt 3624 3111 L
3166 2480 mt 3238 2480 L
3202 2444 mt 3202 2516 L
3013 2194 mt 3085 2194 L
3049 2158 mt 3049 2230 L
4512 1960 mt 4584 1960 L
4548 1924 mt 4548 1996 L
2298 1462 mt 2370 1462 L
2334 1426 mt 2334 1498 L
3649 3297 mt 3721 3297 L
3685 3261 mt 3685 3333 L
3302 2233 mt 3374 2233 L
3338 2197 mt 3338 2269 L
2993 3213 mt 3065 3213 L
3029 3177 mt 3029 3249 L
3549 2493 mt 3621 2493 L
3585 2457 mt 3585 2529 L
2267 1802 mt 2339 1802 L
2303 1766 mt 2303 1838 L
4706 2536 mt 4778 2536 L
4742 2500 mt 4742 2572 L
1556 1614 mt 1628 1614 L
1592 1578 mt 1592 1650 L
3745 2759 mt 3817 2759 L
3781 2723 mt 3781 2795 L
2844 3774 mt 2916 3774 L
2880 3738 mt 2880 3810 L
2680 2329 mt 2752 2329 L
2716 2293 mt 2716 2365 L
3499 1680 mt 3571 1680 L
3535 1644 mt 3535 1716 L
3135 2806 mt 3207 2806 L
3171 2770 mt 3171 2842 L
2624 1653 mt 2696 1653 L
2660 1617 mt 2660 1689 L
2165 2125 mt 2237 2125 L
2201 2089 mt 2201 2161 L
2040 3658 mt 2112 3658 L
2076 3622 mt 2076 3694 L
4314 2302 mt 4386 2302 L
4350 2266 mt 4350 2338 L
3964 1851 mt 4036 1851 L
4000 1815 mt 4000 1887 L
4961 2624 mt 5033 2624 L
4997 2588 mt 4997 2660 L
2106 2567 mt 2178 2567 L
2142 2531 mt 2142 2603 L
4156 2175 mt 4228 2175 L
4192 2139 mt 4192 2211 L
3184 2338 mt 3256 2338 L
3220 2302 mt 3220 2374 L
3220 2352 mt 3292 2352 L
3256 2316 mt 3256 2388 L
4398 1923 mt 4470 1923 L
4434 1887 mt 4434 1959 L
4347 1371 mt 4419 1371 L
4383 1335 mt 4383 1407 L
3855 1723 mt 3927 1723 L
3891 1687 mt 3891 1759 L
5700 3171 mt 5772 3171 L
5736 3135 mt 5736 3207 L
4128 2602 mt 4200 2602 L
4164 2566 mt 4164 2638 L
2987 1984 mt 3059 1984 L
3023 1948 mt 3023 2020 L
2183 3446 mt 2255 3446 L
2219 3410 mt 2219 3482 L
2903 1502 mt 2975 1502 L
2939 1466 mt 2939 1538 L
2063 2012 mt 2135 2012 L
2099 1976 mt 2099 2048 L
3160 2170 mt 3232 2170 L
3196 2134 mt 3196 2206 L
2534 1277 mt 2606 1277 L
2570 1241 mt 2570 1313 L
3432 3752 mt 3504 3752 L
3468 3716 mt 3468 3788 L
3571 3675 mt 3643 3675 L
3607 3639 mt 3607 3711 L
3330 2589 mt 3402 2589 L
3366 2553 mt 3366 2625 L
2341 3848 mt 2413 3848 L
2377 3812 mt 2377 3884 L
2973 2209 mt 3045 2209 L
3009 2173 mt 3009 2245 L
3110 1845 mt 3182 1845 L
3146 1809 mt 3146 1881 L
3977 2062 mt 4049 2062 L
4013 2026 mt 4013 2098 L
3426 1948 mt 3498 1948 L
3462 1912 mt 3462 1984 L
5180 3028 mt 5252 3028 L
5216 2992 mt 5216 3064 L
3072 2288 mt 3144 2288 L
3108 2252 mt 3108 2324 L
3007 3314 mt 3079 3314 L
3043 3278 mt 3043 3350 L
1842 1966 mt 1914 1966 L
1878 1930 mt 1878 2002 L
2813 1550 mt 2885 1550 L
2849 1514 mt 2849 1586 L
1805 3005 mt 1877 3005 L
1841 2969 mt 1841 3041 L
2723 3118 mt 2795 3118 L
2759 3082 mt 2759 3154 L
2773 2528 mt 2845 2528 L
2809 2492 mt 2809 2564 L
2740 1604 mt 2812 1604 L
2776 1568 mt 2776 1640 L
4444 2361 mt 4516 2361 L
4480 2325 mt 4480 2397 L
3826 1831 mt 3898 1831 L
3862 1795 mt 3862 1867 L
4067 1995 mt 4139 1995 L
4103 1959 mt 4103 2031 L
4221 2695 mt 4293 2695 L
4257 2659 mt 4257 2731 L
3610 2549 mt 3682 2549 L
3646 2513 mt 3646 2585 L
3582 1904 mt 3654 1904 L
3618 1868 mt 3618 1940 L
3717 1794 mt 3789 1794 L
3753 1758 mt 3753 1830 L
4564 1715 mt 4636 1715 L
4600 1679 mt 4600 1751 L
4597 3235 mt 4669 3235 L
4633 3199 mt 4633 3271 L
3415 2844 mt 3487 2844 L
3451 2808 mt 3451 2880 L
3059 2471 mt 3131 2471 L
3095 2435 mt 3095 2507 L
3284 2713 mt 3356 2713 L
3320 2677 mt 3320 2749 L
3633 2510 mt 3705 2510 L
3669 2474 mt 3669 2546 L
4501 1181 mt 4573 1181 L
4537 1145 mt 4537 1217 L
3020 2130 mt 3092 2130 L
3056 2094 mt 3056 2166 L
3237 1255 mt 3309 1255 L
3273 1219 mt 3273 1291 L
4028 3198 mt 4100 3198 L
4064 3162 mt 4064 3234 L
2251 1898 mt 2323 1898 L
2287 1862 mt 2287 1934 L
3706 2628 mt 3778 2628 L
3742 2592 mt 3742 2664 L
2952 2879 mt 3024 2879 L
2988 2843 mt 2988 2915 L
4981 1087 mt 5053 1087 L
5017 1051 mt 5017 1123 L
3879 2453 mt 3951 2453 L
3915 2417 mt 3915 2489 L
2634 1476 mt 2706 1476 L
2670 1440 mt 2670 1512 L
2312 3045 mt 2384 3045 L
2348 3009 mt 2348 3081 L
3255 3595 mt 3327 3595 L
3291 3559 mt 3291 3631 L
gs 899 414 5363 4203 rc
gr

0 sg
2799 5104 mt 
(\(F,DCTs,iMLP\)) s
 482 3343 mt  -90 rotate
(\(S,LFCC,GMM\)) s
90 rotate
2905  223 mt 
(Corr = -0.05) s

end %%Color Dict

eplot
%%EndObject

epage
end

showpage

%%Trailer
%%EOF
