%!PS-Adobe-3.0 EPSF-3.0
%%Creator: MATLAB, The Mathworks, Inc. Version 7.7.0.471 (R2008b). Operating System: Microsoft Windows XP.
%%Title: Pictures\main_zoo_mvar_analysis_data_BMI_xcorr_bmi_p1_k1_3_8.eps
%%CreationDate: 10/26/2009  05:44:02
%%DocumentNeededFonts: Helvetica
%%DocumentProcessColors: Cyan Magenta Yellow Black
%%LanguageLevel: 2
%%Pages: 1
%%BoundingBox:    32   180   546   616
%%EndComments

%%BeginProlog
% MathWorks dictionary
/MathWorks 160 dict begin
% definition operators
/bdef {bind def} bind def
/ldef {load def} bind def
/xdef {exch def} bdef
/xstore {exch store} bdef
% operator abbreviations
/c  /clip ldef
/cc /concat ldef
/cp /closepath ldef
/gr /grestore ldef
/gs /gsave ldef
/mt /moveto ldef
/np /newpath ldef
/cm /currentmatrix ldef
/sm /setmatrix ldef
/rm /rmoveto ldef
/rl /rlineto ldef
/s {show newpath} bdef
/sc {setcmykcolor} bdef
/sr /setrgbcolor ldef
/sg /setgray ldef
/w /setlinewidth ldef
/j /setlinejoin ldef
/cap /setlinecap ldef
/rc {rectclip} bdef
/rf {rectfill} bdef
% page state control
/pgsv () def
/bpage {/pgsv save def} bdef
/epage {pgsv restore} bdef
/bplot /gsave ldef
/eplot {stroke grestore} bdef
% orientation switch
/portraitMode 0 def /landscapeMode 1 def /rotateMode 2 def
% coordinate system mappings
/dpi2point 0 def
% font control
/FontSize 0 def
/FMS {/FontSize xstore findfont [FontSize 0 0 FontSize neg 0 0]
  makefont setfont} bdef
/ISOLatin1Encoding where {pop /WindowsLatin1Encoding 256 array bdef
ISOLatin1Encoding WindowsLatin1Encoding copy pop
/.notdef/.notdef/quotesinglbase/florin/quotedblbase/ellipsis/dagger
/daggerdbl/circumflex/perthousand/Scaron/guilsinglleft/OE/.notdef/.notdef
/.notdef/.notdef/quoteleft/quoteright/quotedblleft/quotedblright/bullet
/endash/emdash/tilde/trademark/scaron/guilsinglright/oe/.notdef/.notdef
/Ydieresis WindowsLatin1Encoding 128 32 getinterval astore pop}
{/WindowsLatin1Encoding StandardEncoding bdef} ifelse
/reencode {exch dup where {pop load} {pop StandardEncoding} ifelse
  exch dup 3 1 roll findfont dup length dict begin
  { 1 index /FID ne {def}{pop pop} ifelse } forall
  /Encoding exch def currentdict end definefont pop} bdef
/isroman {findfont /CharStrings get /Agrave known} bdef
/FMSR {3 1 roll 1 index dup isroman {reencode} {pop pop} ifelse
  exch FMS} bdef
/csm {1 dpi2point div -1 dpi2point div scale neg translate
 dup landscapeMode eq {pop -90 rotate}
  {rotateMode eq {90 rotate} if} ifelse} bdef
% line types: solid, dotted, dashed, dotdash
/SO { [] 0 setdash } bdef
/DO { [.5 dpi2point mul 4 dpi2point mul] 0 setdash } bdef
/DA { [6 dpi2point mul] 0 setdash } bdef
/DD { [.5 dpi2point mul 4 dpi2point mul 6 dpi2point mul 4
  dpi2point mul] 0 setdash } bdef
% macros for lines and objects
/L {lineto stroke} bdef
/MP {3 1 roll moveto 1 sub {rlineto} repeat} bdef
/AP {{rlineto} repeat} bdef
/PDlw -1 def
/W {/PDlw currentlinewidth def setlinewidth} def
/PP {closepath eofill} bdef
/DP {closepath stroke} bdef
/MR {4 -2 roll moveto dup  0 exch rlineto exch 0 rlineto
  neg 0 exch rlineto closepath} bdef
/FR {MR stroke} bdef
/PR {MR fill} bdef
/L1i {{currentfile picstr readhexstring pop} image} bdef
/tMatrix matrix def
/MakeOval {newpath tMatrix currentmatrix pop translate scale
0 0 1 0 360 arc tMatrix setmatrix} bdef
/FO {MakeOval stroke} bdef
/PO {MakeOval fill} bdef
/PD {currentlinewidth 2 div 0 360 arc fill
   PDlw -1 eq not {PDlw w /PDlw -1 def} if} def
/FA {newpath tMatrix currentmatrix pop translate scale
  0 0 1 5 -2 roll arc tMatrix setmatrix stroke} bdef
/PA {newpath tMatrix currentmatrix pop	translate 0 0 moveto scale
  0 0 1 5 -2 roll arc closepath tMatrix setmatrix fill} bdef
/FAn {newpath tMatrix currentmatrix pop translate scale
  0 0 1 5 -2 roll arcn tMatrix setmatrix stroke} bdef
/PAn {newpath tMatrix currentmatrix pop translate 0 0 moveto scale
  0 0 1 5 -2 roll arcn closepath tMatrix setmatrix fill} bdef
/vradius 0 def /hradius 0 def /lry 0 def
/lrx 0 def /uly 0 def /ulx 0 def /rad 0 def
/MRR {/vradius xdef /hradius xdef /lry xdef /lrx xdef /uly xdef
  /ulx xdef newpath tMatrix currentmatrix pop ulx hradius add uly
  vradius add translate hradius vradius scale 0 0 1 180 270 arc 
  tMatrix setmatrix lrx hradius sub uly vradius add translate
  hradius vradius scale 0 0 1 270 360 arc tMatrix setmatrix
  lrx hradius sub lry vradius sub translate hradius vradius scale
  0 0 1 0 90 arc tMatrix setmatrix ulx hradius add lry vradius sub
  translate hradius vradius scale 0 0 1 90 180 arc tMatrix setmatrix
  closepath} bdef
/FRR {MRR stroke } bdef
/PRR {MRR fill } bdef
/MlrRR {/lry xdef /lrx xdef /uly xdef /ulx xdef /rad lry uly sub 2 div def
  newpath tMatrix currentmatrix pop ulx rad add uly rad add translate
  rad rad scale 0 0 1 90 270 arc tMatrix setmatrix lrx rad sub lry rad
  sub translate rad rad scale 0 0 1 270 90 arc tMatrix setmatrix
  closepath} bdef
/FlrRR {MlrRR stroke } bdef
/PlrRR {MlrRR fill } bdef
/MtbRR {/lry xdef /lrx xdef /uly xdef /ulx xdef /rad lrx ulx sub 2 div def
  newpath tMatrix currentmatrix pop ulx rad add uly rad add translate
  rad rad scale 0 0 1 180 360 arc tMatrix setmatrix lrx rad sub lry rad
  sub translate rad rad scale 0 0 1 0 180 arc tMatrix setmatrix
  closepath} bdef
/FtbRR {MtbRR stroke } bdef
/PtbRR {MtbRR fill } bdef
/stri 6 array def /dtri 6 array def
/smat 6 array def /dmat 6 array def
/tmat1 6 array def /tmat2 6 array def /dif 3 array def
/asub {/ind2 exch def /ind1 exch def dup dup
  ind1 get exch ind2 get sub exch } bdef
/tri_to_matrix {
  2 0 asub 3 1 asub 4 0 asub 5 1 asub
  dup 0 get exch 1 get 7 -1 roll astore } bdef
/compute_transform {
  dmat dtri tri_to_matrix tmat1 invertmatrix 
  smat stri tri_to_matrix tmat2 concatmatrix } bdef
/ds {stri astore pop} bdef
/dt {dtri astore pop} bdef
/db {2 copy /cols xdef /rows xdef mul dup 3 mul string
  currentfile 
  3 index 0 eq {/ASCIIHexDecode filter}
  {/ASCII85Decode filter 3 index 2 eq {/RunLengthDecode filter} if }
  ifelse exch readstring pop
  dup 0 3 index getinterval /rbmap xdef
  dup 2 index dup getinterval /gbmap xdef
  1 index dup 2 mul exch getinterval /bbmap xdef pop pop}bdef
/it {gs np dtri aload pop moveto lineto lineto cp c
  cols rows 8 compute_transform 
  rbmap gbmap bbmap true 3 colorimage gr}bdef
/il {newpath moveto lineto stroke}bdef
currentdict end def
%%EndProlog

%%BeginSetup
MathWorks begin

0 cap

end
%%EndSetup

%%Page: 1 1
%%BeginPageSetup
%%PageBoundingBox:    32   180   546   616
MathWorks begin
bpage
%%EndPageSetup

%%BeginObject: obj1
bplot

/dpi2point 12 def
portraitMode 0216 7344 csm

  174   -48  6173  5231 rc
85 dict begin %Colortable dictionary
/c0 { 0.000000 0.000000 0.000000 sr} bdef
/c1 { 1.000000 1.000000 1.000000 sr} bdef
/c2 { 0.900000 0.000000 0.000000 sr} bdef
/c3 { 0.000000 0.820000 0.000000 sr} bdef
/c4 { 0.000000 0.000000 0.800000 sr} bdef
/c5 { 0.910000 0.820000 0.320000 sr} bdef
/c6 { 1.000000 0.260000 0.820000 sr} bdef
/c7 { 0.000000 0.820000 0.820000 sr} bdef
c0
1 j
1 sg
   0    0 6919 5187 rf
6 w
0 4202 5362 0 0 -4202 899 4616 4 MP
PP
-5362 0 0 4202 5362 0 0 -4202 899 4616 5 MP stroke
4 w
DO
SO
6 w
0 sg
 899  414 mt 6261  414 L
 899 4616 mt 6261 4616 L
6261 4616 mt 6261  414 L
 899 4616 mt  899  414 L
 899 4616 mt 6261 4616 L
 899 4616 mt  899  414 L
1877 4616 mt 1877 4562 L
1877  414 mt 1877  467 L
%%IncludeResource: font Helvetica
/Helvetica /WindowsLatin1Encoding 240 FMSR

1711 4873 mt 
(0.1) s
2855 4616 mt 2855 4562 L
2855  414 mt 2855  467 L
2689 4873 mt 
(0.2) s
3834 4616 mt 3834 4562 L
3834  414 mt 3834  467 L
3668 4873 mt 
(0.3) s
4812 4616 mt 4812 4562 L
4812  414 mt 4812  467 L
4646 4873 mt 
(0.4) s
5791 4616 mt 5791 4562 L
5791  414 mt 5791  467 L
5625 4873 mt 
(0.5) s
 899 3780 mt  952 3780 L
6261 3780 mt 6207 3780 L
 531 3869 mt 
(0.1) s
 899 2945 mt  952 2945 L
6261 2945 mt 6207 2945 L
 531 3034 mt 
(0.2) s
 899 2109 mt  952 2109 L
6261 2109 mt 6207 2109 L
 531 2198 mt 
(0.3) s
 899 1274 mt  952 1274 L
6261 1274 mt 6207 1274 L
 531 1363 mt 
(0.4) s
 899  439 mt  952  439 L
6261  439 mt 6207  439 L
 531  528 mt 
(0.5) s
 899  414 mt 6261  414 L
 899 4616 mt 6261 4616 L
6261 4616 mt 6261  414 L
 899 4616 mt  899  414 L
gs 899 414 5363 4203 rc
gr

/c8 { 0.000000 0.000000 1.000000 sr} bdef
c8
1505  414 mt 1577  414 L
1541  378 mt 1541  450 L
 925 4410 mt  997 4410 L
 961 4374 mt  961 4446 L
2984 4556 mt 3056 4556 L
3020 4520 mt 3020 4592 L
 967 4214 mt 1039 4214 L
1003 4178 mt 1003 4250 L
 978 4305 mt 1050 4305 L
1014 4269 mt 1014 4341 L
1174 4518 mt 1246 4518 L
1210 4482 mt 1210 4554 L
 867 3006 mt  939 3006 L
 903 2970 mt  903 3042 L
 869 4431 mt  941 4431 L
 905 4395 mt  905 4467 L
 897 4615 mt  969 4615 L
 933 4579 mt  933 4651 L
1394 3867 mt 1466 3867 L
1430 3831 mt 1430 3903 L
1762 4369 mt 1834 4369 L
1798 4333 mt 1798 4405 L
1444 4616 mt 1516 4616 L
1480 4580 mt 1480 4652 L
1451 4608 mt 1523 4608 L
1487 4572 mt 1487 4644 L
1990 4596 mt 2062 4596 L
2026 4560 mt 2026 4632 L
1043 4298 mt 1115 4298 L
1079 4262 mt 1079 4334 L
 956 3582 mt 1028 3582 L
 992 3546 mt  992 3618 L
1977 2973 mt 2049 2973 L
2013 2937 mt 2013 3009 L
 873 4312 mt  945 4312 L
 909 4276 mt  909 4348 L
 905 4467 mt  977 4467 L
 941 4431 mt  941 4503 L
 881 3806 mt  953 3806 L
 917 3770 mt  917 3842 L
1323 4280 mt 1395 4280 L
1359 4244 mt 1359 4316 L
1210 4421 mt 1282 4421 L
1246 4385 mt 1246 4457 L
 947 4313 mt 1019 4313 L
 983 4277 mt  983 4349 L
 996 4341 mt 1068 4341 L
1032 4305 mt 1032 4377 L
1256 3642 mt 1328 3642 L
1292 3606 mt 1292 3678 L
1149 4507 mt 1221 4507 L
1185 4471 mt 1185 4543 L
 887 4049 mt  959 4049 L
 923 4013 mt  923 4085 L
1095 4514 mt 1167 4514 L
1131 4478 mt 1131 4550 L
1006 4550 mt 1078 4550 L
1042 4514 mt 1042 4586 L
 877 4400 mt  949 4400 L
 913 4364 mt  913 4436 L
1293 2943 mt 1365 2943 L
1329 2907 mt 1329 2979 L
 912 4327 mt  984 4327 L
 948 4291 mt  948 4363 L
 870 4387 mt  942 4387 L
 906 4351 mt  906 4423 L
 863 3514 mt  935 3514 L
 899 3478 mt  899 3550 L
1493 4594 mt 1565 4594 L
1529 4558 mt 1529 4630 L
1221 4393 mt 1293 4393 L
1257 4357 mt 1257 4429 L
 870 4576 mt  942 4576 L
 906 4540 mt  906 4612 L
1299 4519 mt 1371 4519 L
1335 4483 mt 1335 4555 L
1279 4315 mt 1351 4315 L
1315 4279 mt 1315 4351 L
1683 1753 mt 1755 1753 L
1719 1717 mt 1719 1789 L
 879 4415 mt  951 4415 L
 915 4379 mt  915 4451 L
 933 4355 mt 1005 4355 L
 969 4319 mt  969 4391 L
1013 3432 mt 1085 3432 L
1049 3396 mt 1049 3468 L
3481 3531 mt 3553 3531 L
3517 3495 mt 3517 3567 L
 874 3533 mt  946 3533 L
 910 3497 mt  910 3569 L
 928 4558 mt 1000 4558 L
 964 4522 mt  964 4594 L
1255 1182 mt 1327 1182 L
1291 1146 mt 1291 1218 L
 885 4507 mt  957 4507 L
 921 4471 mt  921 4543 L
1394 4613 mt 1466 4613 L
1430 4577 mt 1430 4649 L
2224 4277 mt 2296 4277 L
2260 4241 mt 2260 4313 L
1032 4187 mt 1104 4187 L
1068 4151 mt 1068 4223 L
 863 4180 mt  935 4180 L
 899 4144 mt  899 4216 L
4295 4525 mt 4367 4525 L
4331 4489 mt 4331 4561 L
 886 4355 mt  958 4355 L
 922 4319 mt  922 4391 L
 866 4518 mt  938 4518 L
 902 4482 mt  902 4554 L
 925 3754 mt  997 3754 L
 961 3718 mt  961 3790 L
 878 4178 mt  950 4178 L
 914 4142 mt  914 4214 L
 930 4613 mt 1002 4613 L
 966 4577 mt  966 4649 L
2636 4432 mt 2708 4432 L
2672 4396 mt 2672 4468 L
2988 4357 mt 3060 4357 L
3024 4321 mt 3024 4393 L
1319 4074 mt 1391 4074 L
1355 4038 mt 1355 4110 L
1073 4462 mt 1145 4462 L
1109 4426 mt 1109 4498 L
 901 1148 mt  973 1148 L
 937 1112 mt  937 1184 L
1207 3682 mt 1279 3682 L
1243 3646 mt 1243 3718 L
5296 4615 mt 5368 4615 L
5332 4579 mt 5332 4651 L
 892 3890 mt  964 3890 L
 928 3854 mt  928 3926 L
3861 4609 mt 3933 4609 L
3897 4573 mt 3897 4645 L
1090 4612 mt 1162 4612 L
1126 4576 mt 1126 4648 L
2394 4608 mt 2466 4608 L
2430 4572 mt 2430 4644 L
2199 4416 mt 2271 4416 L
2235 4380 mt 2235 4452 L
1495 3838 mt 1567 3838 L
1531 3802 mt 1531 3874 L
1093 4580 mt 1165 4580 L
1129 4544 mt 1129 4616 L
 950 4307 mt 1022 4307 L
 986 4271 mt  986 4343 L
 995 4614 mt 1067 4614 L
1031 4578 mt 1031 4650 L
1766 4572 mt 1838 4572 L
1802 4536 mt 1802 4608 L
1389 4295 mt 1461 4295 L
1425 4259 mt 1425 4331 L
 863 4503 mt  935 4503 L
 899 4467 mt  899 4539 L
2715 4584 mt 2787 4584 L
2751 4548 mt 2751 4620 L
 870 3873 mt  942 3873 L
 906 3837 mt  906 3909 L
1290 4578 mt 1362 4578 L
1326 4542 mt 1326 4614 L
 872 4253 mt  944 4253 L
 908 4217 mt  908 4289 L
1080 3521 mt 1152 3521 L
1116 3485 mt 1116 3557 L
2888 2277 mt 2960 2277 L
2924 2241 mt 2924 2313 L
1120 4290 mt 1192 4290 L
1156 4254 mt 1156 4326 L
1081 2343 mt 1153 2343 L
1117 2307 mt 1117 2379 L
1145 4223 mt 1217 4223 L
1181 4187 mt 1181 4259 L
 864 4608 mt  936 4608 L
 900 4572 mt  900 4644 L
 891 4570 mt  963 4570 L
 927 4534 mt  927 4606 L
1066 4607 mt 1138 4607 L
1102 4571 mt 1102 4643 L
1021 3733 mt 1093 3733 L
1057 3697 mt 1057 3769 L
1482 4549 mt 1554 4549 L
1518 4513 mt 1518 4585 L
1008 4321 mt 1080 4321 L
1044 4285 mt 1044 4357 L
1014 4325 mt 1086 4325 L
1050 4289 mt 1050 4361 L
 919 4604 mt  991 4604 L
 955 4568 mt  955 4640 L
 905 4543 mt  977 4543 L
 941 4507 mt  941 4579 L
1126 3892 mt 1198 3892 L
1162 3856 mt 1162 3928 L
1221 3903 mt 1293 3903 L
1257 3867 mt 1257 3939 L
1183 4527 mt 1255 4527 L
1219 4491 mt 1219 4563 L
 872 4172 mt  944 4172 L
 908 4136 mt  908 4208 L
 909 4245 mt  981 4245 L
 945 4209 mt  945 4281 L
 945 1071 mt 1017 1071 L
 981 1035 mt  981 1107 L
1022 4519 mt 1094 4519 L
1058 4483 mt 1058 4555 L
1304 1426 mt 1376 1426 L
1340 1390 mt 1340 1462 L
1082 4152 mt 1154 4152 L
1118 4116 mt 1118 4188 L
 910 4435 mt  982 4435 L
 946 4399 mt  946 4471 L
 990 4441 mt 1062 4441 L
1026 4405 mt 1026 4477 L
1653 4615 mt 1725 4615 L
1689 4579 mt 1689 4651 L
1194 4488 mt 1266 4488 L
1230 4452 mt 1230 4524 L
 989 4554 mt 1061 4554 L
1025 4518 mt 1025 4590 L
1071 4009 mt 1143 4009 L
1107 3973 mt 1107 4045 L
1008 4610 mt 1080 4610 L
1044 4574 mt 1044 4646 L
 940 4539 mt 1012 4539 L
 976 4503 mt  976 4575 L
 866 4586 mt  938 4586 L
 902 4550 mt  902 4622 L
1610 4431 mt 1682 4431 L
1646 4395 mt 1646 4467 L
1059 4361 mt 1131 4361 L
1095 4325 mt 1095 4397 L
 997 4448 mt 1069 4448 L
1033 4412 mt 1033 4484 L
 879 4606 mt  951 4606 L
 915 4570 mt  915 4642 L
1244 4615 mt 1316 4615 L
1280 4579 mt 1280 4651 L
 863 3759 mt  935 3759 L
 899 3723 mt  899 3795 L
 900 2684 mt  972 2684 L
 936 2648 mt  936 2720 L
1031 4163 mt 1103 4163 L
1067 4127 mt 1067 4199 L
4075 4082 mt 4147 4082 L
4111 4046 mt 4111 4118 L
 872 4610 mt  944 4610 L
 908 4574 mt  908 4646 L
1520 2846 mt 1592 2846 L
1556 2810 mt 1556 2882 L
2424 3928 mt 2496 3928 L
2460 3892 mt 2460 3964 L
2934 3780 mt 3006 3780 L
2970 3744 mt 2970 3816 L
 919 4233 mt  991 4233 L
 955 4197 mt  955 4269 L
1673 4395 mt 1745 4395 L
1709 4359 mt 1709 4431 L
1553 4409 mt 1625 4409 L
1589 4373 mt 1589 4445 L
1014 4348 mt 1086 4348 L
1050 4312 mt 1050 4384 L
 867 4240 mt  939 4240 L
 903 4204 mt  903 4276 L
1246 3640 mt 1318 3640 L
1282 3604 mt 1282 3676 L
 894 4583 mt  966 4583 L
 930 4547 mt  930 4619 L
 962 4592 mt 1034 4592 L
 998 4556 mt  998 4628 L
1041 3865 mt 1113 3865 L
1077 3829 mt 1077 3901 L
 868 4590 mt  940 4590 L
 904 4554 mt  904 4626 L
 922 4545 mt  994 4545 L
 958 4509 mt  958 4581 L
1124 2843 mt 1196 2843 L
1160 2807 mt 1160 2879 L
2234 4419 mt 2306 4419 L
2270 4383 mt 2270 4455 L
1904 3905 mt 1976 3905 L
1940 3869 mt 1940 3941 L
1032 4615 mt 1104 4615 L
1068 4579 mt 1068 4651 L
 893 4615 mt  965 4615 L
 929 4579 mt  929 4651 L
 971 3649 mt 1043 3649 L
1007 3613 mt 1007 3685 L
 891 4312 mt  963 4312 L
 927 4276 mt  927 4348 L
 918 4155 mt  990 4155 L
 954 4119 mt  954 4191 L
 928 3962 mt 1000 3962 L
 964 3926 mt  964 3998 L
 888 4606 mt  960 4606 L
 924 4570 mt  924 4642 L
1336 3601 mt 1408 3601 L
1372 3565 mt 1372 3637 L
1268 4596 mt 1340 4596 L
1304 4560 mt 1304 4632 L
1370 4093 mt 1442 4093 L
1406 4057 mt 1406 4129 L
 969 4544 mt 1041 4544 L
1005 4508 mt 1005 4580 L
 990 4257 mt 1062 4257 L
1026 4221 mt 1026 4293 L
 969 2838 mt 1041 2838 L
1005 2802 mt 1005 2874 L
1054 4483 mt 1126 4483 L
1090 4447 mt 1090 4519 L
3092 3980 mt 3164 3980 L
3128 3944 mt 3128 4016 L
 871 4482 mt  943 4482 L
 907 4446 mt  907 4518 L
3845 4563 mt 3917 4563 L
3881 4527 mt 3881 4599 L
 869 4338 mt  941 4338 L
 905 4302 mt  905 4374 L
 926 4492 mt  998 4492 L
 962 4456 mt  962 4528 L
 864 4465 mt  936 4465 L
 900 4429 mt  900 4501 L
1956 3872 mt 2028 3872 L
1992 3836 mt 1992 3908 L
2003 4342 mt 2075 4342 L
2039 4306 mt 2039 4378 L
2036 3426 mt 2108 3426 L
2072 3390 mt 2072 3462 L
 911 4608 mt  983 4608 L
 947 4572 mt  947 4644 L
 883 4493 mt  955 4493 L
 919 4457 mt  919 4529 L
 863 3868 mt  935 3868 L
 899 3832 mt  899 3904 L
1385 3628 mt 1457 3628 L
1421 3592 mt 1421 3664 L
 863 4551 mt  935 4551 L
 899 4515 mt  899 4587 L
1228 4603 mt 1300 4603 L
1264 4567 mt 1264 4639 L
1407 4356 mt 1479 4356 L
1443 4320 mt 1443 4392 L
 919 3217 mt  991 3217 L
 955 3181 mt  955 3253 L
1098 3658 mt 1170 3658 L
1134 3622 mt 1134 3694 L
 873 3828 mt  945 3828 L
 909 3792 mt  909 3864 L
 968 3960 mt 1040 3960 L
1004 3924 mt 1004 3996 L
1206 3727 mt 1278 3727 L
1242 3691 mt 1242 3763 L
1275 4571 mt 1347 4571 L
1311 4535 mt 1311 4607 L
 880 4370 mt  952 4370 L
 916 4334 mt  916 4406 L
1236 4539 mt 1308 4539 L
1272 4503 mt 1272 4575 L
1048 2746 mt 1120 2746 L
1084 2710 mt 1084 2782 L
 981 4602 mt 1053 4602 L
1017 4566 mt 1017 4638 L
 994 4613 mt 1066 4613 L
1030 4577 mt 1030 4649 L
 908 2097 mt  980 2097 L
 944 2061 mt  944 2133 L
1928 1790 mt 2000 1790 L
1964 1754 mt 1964 1826 L
6225 4597 mt 6297 4597 L
6261 4561 mt 6261 4633 L
1054 4282 mt 1126 4282 L
1090 4246 mt 1090 4318 L
 866 3002 mt  938 3002 L
 902 2966 mt  902 3038 L
 932 3389 mt 1004 3389 L
 968 3353 mt  968 3425 L
1014 3618 mt 1086 3618 L
1050 3582 mt 1050 3654 L
 972 4566 mt 1044 4566 L
1008 4530 mt 1008 4602 L
 865 3182 mt  937 3182 L
 901 3146 mt  901 3218 L
 949 4589 mt 1021 4589 L
 985 4553 mt  985 4625 L
1204 4200 mt 1276 4200 L
1240 4164 mt 1240 4236 L
 865 4282 mt  937 4282 L
 901 4246 mt  901 4318 L
1132 4467 mt 1204 4467 L
1168 4431 mt 1168 4503 L
 997 4466 mt 1069 4466 L
1033 4430 mt 1033 4502 L
1255 1210 mt 1327 1210 L
1291 1174 mt 1291 1246 L
1039 3086 mt 1111 3086 L
1075 3050 mt 1075 3122 L
 869 2178 mt  941 2178 L
 905 2142 mt  905 2214 L
1854 4473 mt 1926 4473 L
1890 4437 mt 1890 4509 L
1076 4539 mt 1148 4539 L
1112 4503 mt 1112 4575 L
 910  693 mt  982  693 L
 946  657 mt  946  729 L
1128 3443 mt 1200 3443 L
1164 3407 mt 1164 3479 L
 896 4540 mt  968 4540 L
 932 4504 mt  932 4576 L
 873 4509 mt  945 4509 L
 909 4473 mt  909 4545 L
 926 4576 mt  998 4576 L
 962 4540 mt  962 4612 L
 872 4523 mt  944 4523 L
 908 4487 mt  908 4559 L
 953 3590 mt 1025 3590 L
 989 3554 mt  989 3626 L
 984 4539 mt 1056 4539 L
1020 4503 mt 1020 4575 L
1065 4604 mt 1137 4604 L
1101 4568 mt 1101 4640 L
 880 3794 mt  952 3794 L
 916 3758 mt  916 3830 L
 960 4573 mt 1032 4573 L
 996 4537 mt  996 4609 L
 989 4294 mt 1061 4294 L
1025 4258 mt 1025 4330 L
 957 4550 mt 1029 4550 L
 993 4514 mt  993 4586 L
 880 4007 mt  952 4007 L
 916 3971 mt  916 4043 L
 869 4308 mt  941 4308 L
 905 4272 mt  905 4344 L
 869 2857 mt  941 2857 L
 905 2821 mt  905 2893 L
1016 3127 mt 1088 3127 L
1052 3091 mt 1052 3163 L
1067 4515 mt 1139 4515 L
1103 4479 mt 1103 4551 L
 880 4029 mt  952 4029 L
 916 3993 mt  916 4065 L
1180 3455 mt 1252 3455 L
1216 3419 mt 1216 3491 L
1026 4577 mt 1098 4577 L
1062 4541 mt 1062 4613 L
1332 4608 mt 1404 4608 L
1368 4572 mt 1368 4644 L
1150 3529 mt 1222 3529 L
1186 3493 mt 1186 3565 L
 898 4580 mt  970 4580 L
 934 4544 mt  934 4616 L
1124 3573 mt 1196 3573 L
1160 3537 mt 1160 3609 L
 892 4615 mt  964 4615 L
 928 4579 mt  928 4651 L
 922 4567 mt  994 4567 L
 958 4531 mt  958 4603 L
 918 4506 mt  990 4506 L
 954 4470 mt  954 4542 L
1044 3997 mt 1116 3997 L
1080 3961 mt 1080 4033 L
 941 4591 mt 1013 4591 L
 977 4555 mt  977 4627 L
 864 3872 mt  936 3872 L
 900 3836 mt  900 3908 L
 907 3628 mt  979 3628 L
 943 3592 mt  943 3664 L
 879 4575 mt  951 4575 L
 915 4539 mt  915 4611 L
 985 2459 mt 1057 2459 L
1021 2423 mt 1021 2495 L
 936 4604 mt 1008 4604 L
 972 4568 mt  972 4640 L
1004 4614 mt 1076 4614 L
1040 4578 mt 1040 4650 L
 959 4592 mt 1031 4592 L
 995 4556 mt  995 4628 L
 868 4554 mt  940 4554 L
 904 4518 mt  904 4590 L
 983 4392 mt 1055 4392 L
1019 4356 mt 1019 4428 L
 984 2405 mt 1056 2405 L
1020 2369 mt 1020 2441 L
 871 4302 mt  943 4302 L
 907 4266 mt  907 4338 L
 927 3775 mt  999 3775 L
 963 3739 mt  963 3811 L
 960 4041 mt 1032 4041 L
 996 4005 mt  996 4077 L
 888 4106 mt  960 4106 L
 924 4070 mt  924 4142 L
1111 4221 mt 1183 4221 L
1147 4185 mt 1147 4257 L
 901 4335 mt  973 4335 L
 937 4299 mt  937 4371 L
 892 1465 mt  964 1465 L
 928 1429 mt  928 1501 L
 970 4614 mt 1042 4614 L
1006 4578 mt 1006 4650 L
 863 4589 mt  935 4589 L
 899 4553 mt  899 4625 L
 873 4436 mt  945 4436 L
 909 4400 mt  909 4472 L
 914 4549 mt  986 4549 L
 950 4513 mt  950 4585 L
 872 4461 mt  944 4461 L
 908 4425 mt  908 4497 L
2157 4598 mt 2229 4598 L
2193 4562 mt 2193 4634 L
 865 4585 mt  937 4585 L
 901 4549 mt  901 4621 L
 878 4610 mt  950 4610 L
 914 4574 mt  914 4646 L
 924 3887 mt  996 3887 L
 960 3851 mt  960 3923 L
 922 4538 mt  994 4538 L
 958 4502 mt  958 4574 L
 868 4545 mt  940 4545 L
 904 4509 mt  904 4581 L
1595 3722 mt 1667 3722 L
1631 3686 mt 1631 3758 L
1015 3855 mt 1087 3855 L
1051 3819 mt 1051 3891 L
1080 4040 mt 1152 4040 L
1116 4004 mt 1116 4076 L
 863 4449 mt  935 4449 L
 899 4413 mt  899 4485 L
 871 1364 mt  943 1364 L
 907 1328 mt  907 1400 L
 979 3799 mt 1051 3799 L
1015 3763 mt 1015 3835 L
 864 4258 mt  936 4258 L
 900 4222 mt  900 4294 L
 863 4487 mt  935 4487 L
 899 4451 mt  899 4523 L
 883 4614 mt  955 4614 L
 919 4578 mt  919 4650 L
 863 4522 mt  935 4522 L
 899 4486 mt  899 4558 L
2032 4377 mt 2104 4377 L
2068 4341 mt 2068 4413 L
 893 3445 mt  965 3445 L
 929 3409 mt  929 3481 L
2585 4381 mt 2657 4381 L
2621 4345 mt 2621 4417 L
 989 4293 mt 1061 4293 L
1025 4257 mt 1025 4329 L
 877 4573 mt  949 4573 L
 913 4537 mt  913 4609 L
 906 4426 mt  978 4426 L
 942 4390 mt  942 4462 L
 863 4411 mt  935 4411 L
 899 4375 mt  899 4447 L
 955 4014 mt 1027 4014 L
 991 3978 mt  991 4050 L
1191 4585 mt 1263 4585 L
1227 4549 mt 1227 4621 L
 886 4437 mt  958 4437 L
 922 4401 mt  922 4473 L
1433 4498 mt 1505 4498 L
1469 4462 mt 1469 4534 L
 940 4544 mt 1012 4544 L
 976 4508 mt  976 4580 L
 932 4453 mt 1004 4453 L
 968 4417 mt  968 4489 L
 891 3721 mt  963 3721 L
 927 3685 mt  927 3757 L
1094 1843 mt 1166 1843 L
1130 1807 mt 1130 1879 L
 864 3500 mt  936 3500 L
 900 3464 mt  900 3536 L
 864 1292 mt  936 1292 L
 900 1256 mt  900 1328 L
 941 4554 mt 1013 4554 L
 977 4518 mt  977 4590 L
1146 4094 mt 1218 4094 L
1182 4058 mt 1182 4130 L
1004 4578 mt 1076 4578 L
1040 4542 mt 1040 4614 L
 986 4530 mt 1058 4530 L
1022 4494 mt 1022 4566 L
1008 4343 mt 1080 4343 L
1044 4307 mt 1044 4379 L
 906 3998 mt  978 3998 L
 942 3962 mt  942 4034 L
1048 4615 mt 1120 4615 L
1084 4579 mt 1084 4651 L
 873 3946 mt  945 3946 L
 909 3910 mt  909 3982 L
 886 4078 mt  958 4078 L
 922 4042 mt  922 4114 L
 863 4548 mt  935 4548 L
 899 4512 mt  899 4584 L
 863 4537 mt  935 4537 L
 899 4501 mt  899 4573 L
 863 4364 mt  935 4364 L
 899 4328 mt  899 4400 L
 863 4572 mt  935 4572 L
 899 4536 mt  899 4608 L
 867 4453 mt  939 4453 L
 903 4417 mt  903 4489 L
1159 3888 mt 1231 3888 L
1195 3852 mt 1195 3924 L
 864 1791 mt  936 1791 L
 900 1755 mt  900 1827 L
 877 4615 mt  949 4615 L
 913 4579 mt  913 4651 L
 869 1264 mt  941 1264 L
 905 1228 mt  905 1300 L
 893 4417 mt  965 4417 L
 929 4381 mt  929 4453 L
1171 4590 mt 1243 4590 L
1207 4554 mt 1207 4626 L
 942 4185 mt 1014 4185 L
 978 4149 mt  978 4221 L
2602 4411 mt 2674 4411 L
2638 4375 mt 2638 4447 L
 898 4544 mt  970 4544 L
 934 4508 mt  934 4580 L
 924 4613 mt  996 4613 L
 960 4577 mt  960 4649 L
 947 4167 mt 1019 4167 L
 983 4131 mt  983 4203 L
1181 4190 mt 1253 4190 L
1217 4154 mt 1217 4226 L
 889 4564 mt  961 4564 L
 925 4528 mt  925 4600 L
1615 4611 mt 1687 4611 L
1651 4575 mt 1651 4647 L
1041 4533 mt 1113 4533 L
1077 4497 mt 1077 4569 L
 942 3767 mt 1014 3767 L
 978 3731 mt  978 3803 L
1070 4241 mt 1142 4241 L
1106 4205 mt 1106 4277 L
1001 4312 mt 1073 4312 L
1037 4276 mt 1037 4348 L
 865 4486 mt  937 4486 L
 901 4450 mt  901 4522 L
 877 4277 mt  949 4277 L
 913 4241 mt  913 4313 L
 878 3419 mt  950 3419 L
 914 3383 mt  914 3455 L
 863 4494 mt  935 4494 L
 899 4458 mt  899 4530 L
1459 4354 mt 1531 4354 L
1495 4318 mt 1495 4390 L
 877 4290 mt  949 4290 L
 913 4254 mt  913 4326 L
1234 1520 mt 1306 1520 L
1270 1484 mt 1270 1556 L
 934 3251 mt 1006 3251 L
 970 3215 mt  970 3287 L
 863 4501 mt  935 4501 L
 899 4465 mt  899 4537 L
 912 3342 mt  984 3342 L
 948 3306 mt  948 3378 L
 916 4596 mt  988 4596 L
 952 4560 mt  952 4632 L
 951 3608 mt 1023 3608 L
 987 3572 mt  987 3644 L
 883 4553 mt  955 4553 L
 919 4517 mt  919 4589 L
 867 4591 mt  939 4591 L
 903 4555 mt  903 4627 L
 864 4022 mt  936 4022 L
 900 3986 mt  900 4058 L
 911 4313 mt  983 4313 L
 947 4277 mt  947 4349 L
 874 4607 mt  946 4607 L
 910 4571 mt  910 4643 L
1068 3020 mt 1140 3020 L
1104 2984 mt 1104 3056 L
1635 4417 mt 1707 4417 L
1671 4381 mt 1671 4453 L
 867 4614 mt  939 4614 L
 903 4578 mt  903 4650 L
 863 3677 mt  935 3677 L
 899 3641 mt  899 3713 L
 865 4550 mt  937 4550 L
 901 4514 mt  901 4586 L
1473 4256 mt 1545 4256 L
1509 4220 mt 1509 4292 L
 967 4588 mt 1039 4588 L
1003 4552 mt 1003 4624 L
 937 4610 mt 1009 4610 L
 973 4574 mt  973 4646 L
1116 4179 mt 1188 4179 L
1152 4143 mt 1152 4215 L
 880 4287 mt  952 4287 L
 916 4251 mt  916 4323 L
 999 4411 mt 1071 4411 L
1035 4375 mt 1035 4447 L
1034 4606 mt 1106 4606 L
1070 4570 mt 1070 4642 L
1124 4593 mt 1196 4593 L
1160 4557 mt 1160 4629 L
1459 4561 mt 1531 4561 L
1495 4525 mt 1495 4597 L
 868 4335 mt  940 4335 L
 904 4299 mt  904 4371 L
1001 4038 mt 1073 4038 L
1037 4002 mt 1037 4074 L
 872 4419 mt  944 4419 L
 908 4383 mt  908 4455 L
 885 4582 mt  957 4582 L
 921 4546 mt  921 4618 L
1377 1839 mt 1449 1839 L
1413 1803 mt 1413 1875 L
1030 4607 mt 1102 4607 L
1066 4571 mt 1066 4643 L
 863 4392 mt  935 4392 L
 899 4356 mt  899 4428 L
 880 4615 mt  952 4615 L
 916 4579 mt  916 4651 L
 926 3830 mt  998 3830 L
 962 3794 mt  962 3866 L
 901 3508 mt  973 3508 L
 937 3472 mt  937 3544 L
 878 4527 mt  950 4527 L
 914 4491 mt  914 4563 L
 887 4385 mt  959 4385 L
 923 4349 mt  923 4421 L
1079 3970 mt 1151 3970 L
1115 3934 mt 1115 4006 L
1015 4609 mt 1087 4609 L
1051 4573 mt 1051 4645 L
1271 3843 mt 1343 3843 L
1307 3807 mt 1307 3879 L
 869 4393 mt  941 4393 L
 905 4357 mt  905 4429 L
 913 3901 mt  985 3901 L
 949 3865 mt  949 3937 L
 905 3165 mt  977 3165 L
 941 3129 mt  941 3201 L
 875 4279 mt  947 4279 L
 911 4243 mt  911 4315 L
 873 4400 mt  945 4400 L
 909 4364 mt  909 4436 L
 903 4315 mt  975 4315 L
 939 4279 mt  939 4351 L
 891 3739 mt  963 3739 L
 927 3703 mt  927 3775 L
 867 3326 mt  939 3326 L
 903 3290 mt  903 3362 L
 908 4267 mt  980 4267 L
 944 4231 mt  944 4303 L
 863 4116 mt  935 4116 L
 899 4080 mt  899 4152 L
 869 4040 mt  941 4040 L
 905 4004 mt  905 4076 L
 886 2565 mt  958 2565 L
 922 2529 mt  922 2601 L
 868 4504 mt  940 4504 L
 904 4468 mt  904 4540 L
 946 3792 mt 1018 3792 L
 982 3756 mt  982 3828 L
 904 4609 mt  976 4609 L
 940 4573 mt  940 4645 L
 939 3060 mt 1011 3060 L
 975 3024 mt  975 3096 L
 876 4554 mt  948 4554 L
 912 4518 mt  912 4590 L
 883 4487 mt  955 4487 L
 919 4451 mt  919 4523 L
 865 1725 mt  937 1725 L
 901 1689 mt  901 1761 L
2360 1895 mt 2432 1895 L
2396 1859 mt 2396 1931 L
3633 4553 mt 3705 4553 L
3669 4517 mt 3669 4589 L
 969 4513 mt 1041 4513 L
1005 4477 mt 1005 4549 L
1433 2272 mt 1505 2272 L
1469 2236 mt 1469 2308 L
 920 4036 mt  992 4036 L
 956 4000 mt  956 4072 L
 953 4387 mt 1025 4387 L
 989 4351 mt  989 4423 L
1953 4555 mt 2025 4555 L
1989 4519 mt 1989 4591 L
1070 3356 mt 1142 3356 L
1106 3320 mt 1106 3392 L
 963 4579 mt 1035 4579 L
 999 4543 mt  999 4615 L
 993 4598 mt 1065 4598 L
1029 4562 mt 1029 4634 L
 875 3940 mt  947 3940 L
 911 3904 mt  911 3976 L
 867 4493 mt  939 4493 L
 903 4457 mt  903 4529 L
1063 4355 mt 1135 4355 L
1099 4319 mt 1099 4391 L
1093 1603 mt 1165 1603 L
1129 1567 mt 1129 1639 L
1191 3661 mt 1263 3661 L
1227 3625 mt 1227 3697 L
 864 2623 mt  936 2623 L
 900 2587 mt  900 2659 L
 893 4327 mt  965 4327 L
 929 4291 mt  929 4363 L
1027 4578 mt 1099 4578 L
1063 4542 mt 1063 4614 L
gs 899 414 5363 4203 rc
gr

0 sg
2826 5104 mt 
(\(F,DCTs,MLP\)) s
 422 3259 mt  -90 rotate
(\(S,PAC,GMM\)) s
90 rotate
2905  223 mt 
(Corr = -0.01) s

end %%Color Dict

eplot
%%EndObject

epage
end

showpage

%%Trailer
%%EOF
