%!PS-Adobe-3.0 EPSF-3.0
%%Creator: MATLAB, The Mathworks, Inc. Version 7.7.0.471 (R2008b). Operating System: Microsoft Windows XP.
%%Title: Pictures\main_zoo_mvar_analysis_data_BMI_xcorr_bmi_p2_k2_2_4.eps
%%CreationDate: 10/26/2009  05:44:43
%%DocumentNeededFonts: Helvetica
%%DocumentProcessColors: Cyan Magenta Yellow Black
%%LanguageLevel: 2
%%Pages: 1
%%BoundingBox:    32   180   546   616
%%EndComments

%%BeginProlog
% MathWorks dictionary
/MathWorks 160 dict begin
% definition operators
/bdef {bind def} bind def
/ldef {load def} bind def
/xdef {exch def} bdef
/xstore {exch store} bdef
% operator abbreviations
/c  /clip ldef
/cc /concat ldef
/cp /closepath ldef
/gr /grestore ldef
/gs /gsave ldef
/mt /moveto ldef
/np /newpath ldef
/cm /currentmatrix ldef
/sm /setmatrix ldef
/rm /rmoveto ldef
/rl /rlineto ldef
/s {show newpath} bdef
/sc {setcmykcolor} bdef
/sr /setrgbcolor ldef
/sg /setgray ldef
/w /setlinewidth ldef
/j /setlinejoin ldef
/cap /setlinecap ldef
/rc {rectclip} bdef
/rf {rectfill} bdef
% page state control
/pgsv () def
/bpage {/pgsv save def} bdef
/epage {pgsv restore} bdef
/bplot /gsave ldef
/eplot {stroke grestore} bdef
% orientation switch
/portraitMode 0 def /landscapeMode 1 def /rotateMode 2 def
% coordinate system mappings
/dpi2point 0 def
% font control
/FontSize 0 def
/FMS {/FontSize xstore findfont [FontSize 0 0 FontSize neg 0 0]
  makefont setfont} bdef
/ISOLatin1Encoding where {pop /WindowsLatin1Encoding 256 array bdef
ISOLatin1Encoding WindowsLatin1Encoding copy pop
/.notdef/.notdef/quotesinglbase/florin/quotedblbase/ellipsis/dagger
/daggerdbl/circumflex/perthousand/Scaron/guilsinglleft/OE/.notdef/.notdef
/.notdef/.notdef/quoteleft/quoteright/quotedblleft/quotedblright/bullet
/endash/emdash/tilde/trademark/scaron/guilsinglright/oe/.notdef/.notdef
/Ydieresis WindowsLatin1Encoding 128 32 getinterval astore pop}
{/WindowsLatin1Encoding StandardEncoding bdef} ifelse
/reencode {exch dup where {pop load} {pop StandardEncoding} ifelse
  exch dup 3 1 roll findfont dup length dict begin
  { 1 index /FID ne {def}{pop pop} ifelse } forall
  /Encoding exch def currentdict end definefont pop} bdef
/isroman {findfont /CharStrings get /Agrave known} bdef
/FMSR {3 1 roll 1 index dup isroman {reencode} {pop pop} ifelse
  exch FMS} bdef
/csm {1 dpi2point div -1 dpi2point div scale neg translate
 dup landscapeMode eq {pop -90 rotate}
  {rotateMode eq {90 rotate} if} ifelse} bdef
% line types: solid, dotted, dashed, dotdash
/SO { [] 0 setdash } bdef
/DO { [.5 dpi2point mul 4 dpi2point mul] 0 setdash } bdef
/DA { [6 dpi2point mul] 0 setdash } bdef
/DD { [.5 dpi2point mul 4 dpi2point mul 6 dpi2point mul 4
  dpi2point mul] 0 setdash } bdef
% macros for lines and objects
/L {lineto stroke} bdef
/MP {3 1 roll moveto 1 sub {rlineto} repeat} bdef
/AP {{rlineto} repeat} bdef
/PDlw -1 def
/W {/PDlw currentlinewidth def setlinewidth} def
/PP {closepath eofill} bdef
/DP {closepath stroke} bdef
/MR {4 -2 roll moveto dup  0 exch rlineto exch 0 rlineto
  neg 0 exch rlineto closepath} bdef
/FR {MR stroke} bdef
/PR {MR fill} bdef
/L1i {{currentfile picstr readhexstring pop} image} bdef
/tMatrix matrix def
/MakeOval {newpath tMatrix currentmatrix pop translate scale
0 0 1 0 360 arc tMatrix setmatrix} bdef
/FO {MakeOval stroke} bdef
/PO {MakeOval fill} bdef
/PD {currentlinewidth 2 div 0 360 arc fill
   PDlw -1 eq not {PDlw w /PDlw -1 def} if} def
/FA {newpath tMatrix currentmatrix pop translate scale
  0 0 1 5 -2 roll arc tMatrix setmatrix stroke} bdef
/PA {newpath tMatrix currentmatrix pop	translate 0 0 moveto scale
  0 0 1 5 -2 roll arc closepath tMatrix setmatrix fill} bdef
/FAn {newpath tMatrix currentmatrix pop translate scale
  0 0 1 5 -2 roll arcn tMatrix setmatrix stroke} bdef
/PAn {newpath tMatrix currentmatrix pop translate 0 0 moveto scale
  0 0 1 5 -2 roll arcn closepath tMatrix setmatrix fill} bdef
/vradius 0 def /hradius 0 def /lry 0 def
/lrx 0 def /uly 0 def /ulx 0 def /rad 0 def
/MRR {/vradius xdef /hradius xdef /lry xdef /lrx xdef /uly xdef
  /ulx xdef newpath tMatrix currentmatrix pop ulx hradius add uly
  vradius add translate hradius vradius scale 0 0 1 180 270 arc 
  tMatrix setmatrix lrx hradius sub uly vradius add translate
  hradius vradius scale 0 0 1 270 360 arc tMatrix setmatrix
  lrx hradius sub lry vradius sub translate hradius vradius scale
  0 0 1 0 90 arc tMatrix setmatrix ulx hradius add lry vradius sub
  translate hradius vradius scale 0 0 1 90 180 arc tMatrix setmatrix
  closepath} bdef
/FRR {MRR stroke } bdef
/PRR {MRR fill } bdef
/MlrRR {/lry xdef /lrx xdef /uly xdef /ulx xdef /rad lry uly sub 2 div def
  newpath tMatrix currentmatrix pop ulx rad add uly rad add translate
  rad rad scale 0 0 1 90 270 arc tMatrix setmatrix lrx rad sub lry rad
  sub translate rad rad scale 0 0 1 270 90 arc tMatrix setmatrix
  closepath} bdef
/FlrRR {MlrRR stroke } bdef
/PlrRR {MlrRR fill } bdef
/MtbRR {/lry xdef /lrx xdef /uly xdef /ulx xdef /rad lrx ulx sub 2 div def
  newpath tMatrix currentmatrix pop ulx rad add uly rad add translate
  rad rad scale 0 0 1 180 360 arc tMatrix setmatrix lrx rad sub lry rad
  sub translate rad rad scale 0 0 1 0 180 arc tMatrix setmatrix
  closepath} bdef
/FtbRR {MtbRR stroke } bdef
/PtbRR {MtbRR fill } bdef
/stri 6 array def /dtri 6 array def
/smat 6 array def /dmat 6 array def
/tmat1 6 array def /tmat2 6 array def /dif 3 array def
/asub {/ind2 exch def /ind1 exch def dup dup
  ind1 get exch ind2 get sub exch } bdef
/tri_to_matrix {
  2 0 asub 3 1 asub 4 0 asub 5 1 asub
  dup 0 get exch 1 get 7 -1 roll astore } bdef
/compute_transform {
  dmat dtri tri_to_matrix tmat1 invertmatrix 
  smat stri tri_to_matrix tmat2 concatmatrix } bdef
/ds {stri astore pop} bdef
/dt {dtri astore pop} bdef
/db {2 copy /cols xdef /rows xdef mul dup 3 mul string
  currentfile 
  3 index 0 eq {/ASCIIHexDecode filter}
  {/ASCII85Decode filter 3 index 2 eq {/RunLengthDecode filter} if }
  ifelse exch readstring pop
  dup 0 3 index getinterval /rbmap xdef
  dup 2 index dup getinterval /gbmap xdef
  1 index dup 2 mul exch getinterval /bbmap xdef pop pop}bdef
/it {gs np dtri aload pop moveto lineto lineto cp c
  cols rows 8 compute_transform 
  rbmap gbmap bbmap true 3 colorimage gr}bdef
/il {newpath moveto lineto stroke}bdef
currentdict end def
%%EndProlog

%%BeginSetup
MathWorks begin

0 cap

end
%%EndSetup

%%Page: 1 1
%%BeginPageSetup
%%PageBoundingBox:    32   180   546   616
MathWorks begin
bpage
%%EndPageSetup

%%BeginObject: obj1
bplot

/dpi2point 12 def
portraitMode 0216 7344 csm

  174   -48  6173  5231 rc
85 dict begin %Colortable dictionary
/c0 { 0.000000 0.000000 0.000000 sr} bdef
/c1 { 1.000000 1.000000 1.000000 sr} bdef
/c2 { 0.900000 0.000000 0.000000 sr} bdef
/c3 { 0.000000 0.820000 0.000000 sr} bdef
/c4 { 0.000000 0.000000 0.800000 sr} bdef
/c5 { 0.910000 0.820000 0.320000 sr} bdef
/c6 { 1.000000 0.260000 0.820000 sr} bdef
/c7 { 0.000000 0.820000 0.820000 sr} bdef
c0
1 j
1 sg
   0    0 6919 5187 rf
6 w
0 4202 5362 0 0 -4202 899 4616 4 MP
PP
-5362 0 0 4202 5362 0 0 -4202 899 4616 5 MP stroke
4 w
DO
SO
6 w
0 sg
 899  414 mt 6261  414 L
 899 4616 mt 6261 4616 L
6261 4616 mt 6261  414 L
 899 4616 mt  899  414 L
 899 4616 mt 6261 4616 L
 899 4616 mt  899  414 L
1960 4616 mt 1960 4562 L
1960  414 mt 1960  467 L
%%IncludeResource: font Helvetica
/Helvetica /WindowsLatin1Encoding 240 FMSR

1794 4873 mt 
(0.2) s
3035 4616 mt 3035 4562 L
3035  414 mt 3035  467 L
2869 4873 mt 
(0.4) s
4110 4616 mt 4110 4562 L
4110  414 mt 4110  467 L
3944 4873 mt 
(0.6) s
5185 4616 mt 5185 4562 L
5185  414 mt 5185  467 L
5019 4873 mt 
(0.8) s
 899 4196 mt  952 4196 L
6261 4196 mt 6207 4196 L
 531 4285 mt 
(0.1) s
 899 3775 mt  952 3775 L
6261 3775 mt 6207 3775 L
 531 3864 mt 
(0.2) s
 899 3355 mt  952 3355 L
6261 3355 mt 6207 3355 L
 531 3444 mt 
(0.3) s
 899 2935 mt  952 2935 L
6261 2935 mt 6207 2935 L
 531 3024 mt 
(0.4) s
 899 2515 mt  952 2515 L
6261 2515 mt 6207 2515 L
 531 2604 mt 
(0.5) s
 899 2094 mt  952 2094 L
6261 2094 mt 6207 2094 L
 531 2183 mt 
(0.6) s
 899 1674 mt  952 1674 L
6261 1674 mt 6207 1674 L
 531 1763 mt 
(0.7) s
 899 1254 mt  952 1254 L
6261 1254 mt 6207 1254 L
 531 1343 mt 
(0.8) s
 899  834 mt  952  834 L
6261  834 mt 6207  834 L
 531  923 mt 
(0.9) s
 899  414 mt 6261  414 L
 899 4616 mt 6261 4616 L
6261 4616 mt 6261  414 L
 899 4616 mt  899  414 L
gs 899 414 5363 4203 rc
gr

/c8 { 0.000000 0.000000 1.000000 sr} bdef
c8
6203  429 mt 6275  429 L
6239  393 mt 6239  465 L
6216  439 mt 6288  439 L
6252  403 mt 6252  475 L
1404 4565 mt 1476 4565 L
1440 4529 mt 1440 4601 L
6218  468 mt 6290  468 L
6254  432 mt 6254  504 L
6206  416 mt 6278  416 L
6242  380 mt 6242  452 L
5025 1109 mt 5097 1109 L
5061 1073 mt 5061 1145 L
5221 4254 mt 5293 4254 L
5257 4218 mt 5257 4290 L
4980 4584 mt 5052 4584 L
5016 4548 mt 5016 4620 L
6142  443 mt 6214  443 L
6178  407 mt 6178  479 L
2775 4529 mt 2847 4529 L
2811 4493 mt 2811 4565 L
6193  464 mt 6265  464 L
6229  428 mt 6229  500 L
5203  681 mt 5275  681 L
5239  645 mt 5239  717 L
4756 1179 mt 4828 1179 L
4792 1143 mt 4792 1215 L
6212  424 mt 6284  424 L
6248  388 mt 6248  460 L
6148  435 mt 6220  435 L
6184  399 mt 6184  471 L
2636 1339 mt 2708 1339 L
2672 1303 mt 2672 1375 L
6216  478 mt 6288  478 L
6252  442 mt 6252  514 L
3667  682 mt 3739  682 L
3703  646 mt 3703  718 L
5983 3825 mt 6055 3825 L
6019 3789 mt 6019 3861 L
2471 1863 mt 2543 1863 L
2507 1827 mt 2507 1899 L
4904 1046 mt 4976 1046 L
4940 1010 mt 4940 1082 L
4626 4113 mt 4698 4113 L
4662 4077 mt 4662 4149 L
5950  460 mt 6022  460 L
5986  424 mt 5986  496 L
5526 3707 mt 5598 3707 L
5562 3671 mt 5562 3743 L
5970 3957 mt 6042 3957 L
6006 3921 mt 6006 3993 L
5545  441 mt 5617  441 L
5581  405 mt 5581  477 L
5234  831 mt 5306  831 L
5270  795 mt 5270  867 L
5681  738 mt 5753  738 L
5717  702 mt 5717  774 L
6213  566 mt 6285  566 L
6249  530 mt 6249  602 L
6211  422 mt 6283  422 L
6247  386 mt 6247  458 L
6195  697 mt 6267  697 L
6231  661 mt 6231  733 L
4261 4616 mt 4333 4616 L
4297 4580 mt 4297 4652 L
6143  490 mt 6215  490 L
6179  454 mt 6179  526 L
6214 1251 mt 6286 1251 L
6250 1215 mt 6250 1287 L
5901  541 mt 5973  541 L
5937  505 mt 5937  577 L
5527 1953 mt 5599 1953 L
5563 1917 mt 5563 1989 L
6224 1362 mt 6296 1362 L
6260 1326 mt 6260 1398 L
5861  532 mt 5933  532 L
5897  496 mt 5897  568 L
5551 4497 mt 5623 4497 L
5587 4461 mt 5587 4533 L
6198  470 mt 6270  470 L
6234  434 mt 6234  506 L
2105 4437 mt 2177 4437 L
2141 4401 mt 2141 4473 L
6224  431 mt 6296  431 L
6260  395 mt 6260  467 L
6224 4557 mt 6296 4557 L
6260 4521 mt 6260 4593 L
6050 4612 mt 6122 4612 L
6086 4576 mt 6086 4648 L
6169  809 mt 6241  809 L
6205  773 mt 6205  845 L
5415 2459 mt 5487 2459 L
5451 2423 mt 5451 2495 L
6145  414 mt 6217  414 L
6181  378 mt 6181  450 L
5917 4028 mt 5989 4028 L
5953 3992 mt 5953 4064 L
6195  542 mt 6267  542 L
6231  506 mt 6231  578 L
4145  416 mt 4217  416 L
4181  380 mt 4181  452 L
4816  718 mt 4888  718 L
4852  682 mt 4852  754 L
5834  520 mt 5906  520 L
5870  484 mt 5870  556 L
6223 1528 mt 6295 1528 L
6259 1492 mt 6259 1564 L
3217 3761 mt 3289 3761 L
3253 3725 mt 3253 3797 L
5172  451 mt 5244  451 L
5208  415 mt 5208  487 L
5850 3618 mt 5922 3618 L
5886 3582 mt 5886 3654 L
6063  534 mt 6135  534 L
6099  498 mt 6099  570 L
4659 3262 mt 4731 3262 L
4695 3226 mt 4695 3298 L
5712  506 mt 5784  506 L
5748  470 mt 5748  542 L
6008  450 mt 6080  450 L
6044  414 mt 6044  486 L
5549  527 mt 5621  527 L
5585  491 mt 5585  563 L
5985  595 mt 6057  595 L
6021  559 mt 6021  631 L
 998 4330 mt 1070 4330 L
1034 4294 mt 1034 4366 L
6100 1040 mt 6172 1040 L
6136 1004 mt 6136 1076 L
3513  713 mt 3585  713 L
3549  677 mt 3549  749 L
 882  535 mt  954  535 L
 918  499 mt  918  571 L
6103  482 mt 6175  482 L
6139  446 mt 6139  518 L
6219  454 mt 6291  454 L
6255  418 mt 6255  490 L
5796  602 mt 5868  602 L
5832  566 mt 5832  638 L
6214  979 mt 6286  979 L
6250  943 mt 6250 1015 L
5630  728 mt 5702  728 L
5666  692 mt 5666  764 L
3904 3514 mt 3976 3514 L
3940 3478 mt 3940 3550 L
6214  487 mt 6286  487 L
6250  451 mt 6250  523 L
6205  558 mt 6277  558 L
6241  522 mt 6241  594 L
6003  563 mt 6075  563 L
6039  527 mt 6039  599 L
4392  427 mt 4464  427 L
4428  391 mt 4428  463 L
5889  864 mt 5961  864 L
5925  828 mt 5925  900 L
6223 2420 mt 6295 2420 L
6259 2384 mt 6259 2456 L
5685  416 mt 5757  416 L
5721  380 mt 5721  452 L
6121  442 mt 6193  442 L
6157  406 mt 6157  478 L
4863  593 mt 4935  593 L
4899  557 mt 4899  629 L
6180 1206 mt 6252 1206 L
6216 1170 mt 6216 1242 L
5657 2021 mt 5729 2021 L
5693 1985 mt 5693 2057 L
6174  622 mt 6246  622 L
6210  586 mt 6210  658 L
3926 2522 mt 3998 2522 L
3962 2486 mt 3962 2558 L
2419 2728 mt 2491 2728 L
2455 2692 mt 2455 2764 L
6222  496 mt 6294  496 L
6258  460 mt 6258  532 L
6193  515 mt 6265  515 L
6229  479 mt 6229  551 L
4678 4379 mt 4750 4379 L
4714 4343 mt 4714 4415 L
6082 1615 mt 6154 1615 L
6118 1579 mt 6118 1651 L
6203 1087 mt 6275 1087 L
6239 1051 mt 6239 1123 L
6214  414 mt 6286  414 L
6250  378 mt 6250  450 L
5733  614 mt 5805  614 L
5769  578 mt 5769  650 L
4013 3326 mt 4085 3326 L
4049 3290 mt 4049 3362 L
5878 1002 mt 5950 1002 L
5914  966 mt 5914 1038 L
6174 3211 mt 6246 3211 L
6210 3175 mt 6210 3247 L
5758 3640 mt 5830 3640 L
5794 3604 mt 5794 3676 L
5778  569 mt 5850  569 L
5814  533 mt 5814  605 L
5649 1489 mt 5721 1489 L
5685 1453 mt 5685 1525 L
5808  415 mt 5880  415 L
5844  379 mt 5844  451 L
5259 1675 mt 5331 1675 L
5295 1639 mt 5295 1711 L
6219  460 mt 6291  460 L
6255  424 mt 6255  496 L
2860  713 mt 2932  713 L
2896  677 mt 2896  749 L
5263 1910 mt 5335 1910 L
5299 1874 mt 5299 1946 L
2125 2024 mt 2197 2024 L
2161 1988 mt 2161 2060 L
2161  425 mt 2233  425 L
2197  389 mt 2197  461 L
5334  568 mt 5406  568 L
5370  532 mt 5370  604 L
6206 2515 mt 6278 2515 L
6242 2479 mt 6242 2551 L
6042 1407 mt 6114 1407 L
6078 1371 mt 6078 1443 L
4579 1455 mt 4651 1455 L
4615 1419 mt 4615 1491 L
2957  852 mt 3029  852 L
2993  816 mt 2993  888 L
 935 2711 mt 1007 2711 L
 971 2675 mt  971 2747 L
5161 2697 mt 5233 2697 L
5197 2661 mt 5197 2733 L
5778 2095 mt 5850 2095 L
5814 2059 mt 5814 2131 L
3982 1389 mt 4054 1389 L
4018 1353 mt 4018 1425 L
5987 2123 mt 6059 2123 L
6023 2087 mt 6023 2159 L
6210  587 mt 6282  587 L
6246  551 mt 6246  623 L
5049 4239 mt 5121 4239 L
5085 4203 mt 5085 4275 L
3738 2268 mt 3810 2268 L
3774 2232 mt 3774 2304 L
6215  450 mt 6287  450 L
6251  414 mt 6251  486 L
6049  739 mt 6121  739 L
6085  703 mt 6085  775 L
2237  631 mt 2309  631 L
2273  595 mt 2273  667 L
6027 1163 mt 6099 1163 L
6063 1127 mt 6063 1199 L
6192  444 mt 6264  444 L
6228  408 mt 6228  480 L
5661  414 mt 5733  414 L
5697  378 mt 5697  450 L
6222  429 mt 6294  429 L
6258  393 mt 6258  465 L
6176  567 mt 6248  567 L
6212  531 mt 6212  603 L
5335  447 mt 5407  447 L
5371  411 mt 5371  483 L
 945 1858 mt 1017 1858 L
 981 1822 mt  981 1894 L
1168 4127 mt 1240 4127 L
1204 4091 mt 1204 4163 L
5931  414 mt 6003  414 L
5967  378 mt 5967  450 L
4945  719 mt 5017  719 L
4981  683 mt 4981  755 L
 941 2042 mt 1013 2042 L
 977 2006 mt  977 2078 L
6115  447 mt 6187  447 L
6151  411 mt 6151  483 L
6084 2034 mt 6156 2034 L
6120 1998 mt 6120 2070 L
5100  776 mt 5172  776 L
5136  740 mt 5136  812 L
4196 4366 mt 4268 4366 L
4232 4330 mt 4232 4402 L
5404  613 mt 5476  613 L
5440  577 mt 5440  649 L
6181  506 mt 6253  506 L
6217  470 mt 6217  542 L
5668  909 mt 5740  909 L
5704  873 mt 5704  945 L
5852  981 mt 5924  981 L
5888  945 mt 5888 1017 L
6188  491 mt 6260  491 L
6224  455 mt 6224  527 L
5456  445 mt 5528  445 L
5492  409 mt 5492  481 L
6214 3486 mt 6286 3486 L
6250 3450 mt 6250 3522 L
5025  747 mt 5097  747 L
5061  711 mt 5061  783 L
3773 1931 mt 3845 1931 L
3809 1895 mt 3809 1967 L
4777 1669 mt 4849 1669 L
4813 1633 mt 4813 1705 L
5054 2983 mt 5126 2983 L
5090 2947 mt 5090 3019 L
6190  878 mt 6262  878 L
6226  842 mt 6226  914 L
6108  748 mt 6180  748 L
6144  712 mt 6144  784 L
6062  504 mt 6134  504 L
6098  468 mt 6098  540 L
6053  628 mt 6125  628 L
6089  592 mt 6089  664 L
6025  645 mt 6097  645 L
6061  609 mt 6061  681 L
 874 1081 mt  946 1081 L
 910 1045 mt  910 1117 L
6190  437 mt 6262  437 L
6226  401 mt 6226  473 L
6223  514 mt 6295  514 L
6259  478 mt 6259  550 L
 923 3220 mt  995 3220 L
 959 3184 mt  959 3256 L
6093 1056 mt 6165 1056 L
6129 1020 mt 6129 1092 L
4619 3835 mt 4691 3835 L
4655 3799 mt 4655 3871 L
 863 1269 mt  935 1269 L
 899 1233 mt  899 1305 L
6038 1281 mt 6110 1281 L
6074 1245 mt 6074 1317 L
1827 2648 mt 1899 2648 L
1863 2612 mt 1863 2684 L
6168 3084 mt 6240 3084 L
6204 3048 mt 6204 3120 L
4345  740 mt 4417  740 L
4381  704 mt 4381  776 L
6222  425 mt 6294  425 L
6258  389 mt 6258  461 L
5091 3674 mt 5163 3674 L
5127 3638 mt 5127 3710 L
4495 1472 mt 4567 1472 L
4531 1436 mt 4531 1508 L
5331  932 mt 5403  932 L
5367  896 mt 5367  968 L
6213  415 mt 6285  415 L
6249  379 mt 6249  451 L
6225  458 mt 6297  458 L
6261  422 mt 6261  494 L
4426  435 mt 4498  435 L
4462  399 mt 4462  471 L
6148  429 mt 6220  429 L
6184  393 mt 6184  465 L
6200  425 mt 6272  425 L
6236  389 mt 6236  461 L
6212  536 mt 6284  536 L
6248  500 mt 6248  572 L
1276  853 mt 1348  853 L
1312  817 mt 1312  889 L
5832  459 mt 5904  459 L
5868  423 mt 5868  495 L
5901  457 mt 5973  457 L
5937  421 mt 5937  493 L
1071 3124 mt 1143 3124 L
1107 3088 mt 1107 3160 L
5592  518 mt 5664  518 L
5628  482 mt 5628  554 L
4173 1332 mt 4245 1332 L
4209 1296 mt 4209 1368 L
5689 3189 mt 5761 3189 L
5725 3153 mt 5725 3225 L
1345  414 mt 1417  414 L
1381  378 mt 1381  450 L
5643  469 mt 5715  469 L
5679  433 mt 5679  505 L
5692  648 mt 5764  648 L
5728  612 mt 5728  684 L
3040 4466 mt 3112 4466 L
3076 4430 mt 3076 4502 L
1160 2978 mt 1232 2978 L
1196 2942 mt 1196 3014 L
3699  472 mt 3771  472 L
3735  436 mt 3735  508 L
5456 3019 mt 5528 3019 L
5492 2983 mt 5492 3055 L
6218  733 mt 6290  733 L
6254  697 mt 6254  769 L
3648  579 mt 3720  579 L
3684  543 mt 3684  615 L
1544 1458 mt 1616 1458 L
1580 1422 mt 1580 1494 L
4655 3038 mt 4727 3038 L
4691 3002 mt 4691 3074 L
3981 2462 mt 4053 2462 L
4017 2426 mt 4017 2498 L
5663  658 mt 5735  658 L
5699  622 mt 5699  694 L
6220  473 mt 6292  473 L
6256  437 mt 6256  509 L
6224  427 mt 6296  427 L
6260  391 mt 6260  463 L
6024 4379 mt 6096 4379 L
6060 4343 mt 6060 4415 L
5993 4310 mt 6065 4310 L
6029 4274 mt 6029 4346 L
1832 1199 mt 1904 1199 L
1868 1163 mt 1868 1235 L
6074 2350 mt 6146 2350 L
6110 2314 mt 6110 2386 L
5756  705 mt 5828  705 L
5792  669 mt 5792  741 L
6222  450 mt 6294  450 L
6258  414 mt 6258  486 L
6052 4483 mt 6124 4483 L
6088 4447 mt 6088 4519 L
5899 3930 mt 5971 3930 L
5935 3894 mt 5935 3966 L
6105  461 mt 6177  461 L
6141  425 mt 6141  497 L
4595 2057 mt 4667 2057 L
4631 2021 mt 4631 2093 L
5096 3584 mt 5168 3584 L
5132 3548 mt 5132 3620 L
6185 1347 mt 6257 1347 L
6221 1311 mt 6221 1383 L
6121  441 mt 6193  441 L
6157  405 mt 6157  477 L
3505 4523 mt 3577 4523 L
3541 4487 mt 3541 4559 L
6220  445 mt 6292  445 L
6256  409 mt 6256  481 L
6045  482 mt 6117  482 L
6081  446 mt 6081  518 L
6168 1471 mt 6240 1471 L
6204 1435 mt 6204 1507 L
5823 4028 mt 5895 4028 L
5859 3992 mt 5859 4064 L
5697  441 mt 5769  441 L
5733  405 mt 5733  477 L
 874  797 mt  946  797 L
 910  761 mt  910  833 L
4625 1913 mt 4697 1913 L
4661 1877 mt 4661 1949 L
6162  914 mt 6234  914 L
6198  878 mt 6198  950 L
 911 2498 mt  983 2498 L
 947 2462 mt  947 2534 L
5655  724 mt 5727  724 L
5691  688 mt 5691  760 L
5838 1733 mt 5910 1733 L
5874 1697 mt 5874 1769 L
5144  709 mt 5216  709 L
5180  673 mt 5180  745 L
6206  825 mt 6278  825 L
6242  789 mt 6242  861 L
5876 4592 mt 5948 4592 L
5912 4556 mt 5912 4628 L
6216 4206 mt 6288 4206 L
6252 4170 mt 6252 4242 L
5655  573 mt 5727  573 L
5691  537 mt 5691  609 L
3347 1535 mt 3419 1535 L
3383 1499 mt 3383 1571 L
6224 4441 mt 6296 4441 L
6260 4405 mt 6260 4477 L
6206  456 mt 6278  456 L
6242  420 mt 6242  492 L
4301  897 mt 4373  897 L
4337  861 mt 4337  933 L
6011 4004 mt 6083 4004 L
6047 3968 mt 6047 4040 L
6010 1132 mt 6082 1132 L
6046 1096 mt 6046 1168 L
6018  576 mt 6090  576 L
6054  540 mt 6054  612 L
6081 1183 mt 6153 1183 L
6117 1147 mt 6117 1219 L
6178  860 mt 6250  860 L
6214  824 mt 6214  896 L
5755 4106 mt 5827 4106 L
5791 4070 mt 5791 4142 L
4817 2136 mt 4889 2136 L
4853 2100 mt 4853 2172 L
4023 1577 mt 4095 1577 L
4059 1541 mt 4059 1613 L
3326 2973 mt 3398 2973 L
3362 2937 mt 3362 3009 L
6023 2455 mt 6095 2455 L
6059 2419 mt 6059 2491 L
4600 3573 mt 4672 3573 L
4636 3537 mt 4636 3609 L
5798  575 mt 5870  575 L
5834  539 mt 5834  611 L
6038  440 mt 6110  440 L
6074  404 mt 6074  476 L
4650 2628 mt 4722 2628 L
4686 2592 mt 4686 2664 L
6219 1772 mt 6291 1772 L
6255 1736 mt 6255 1808 L
5767  449 mt 5839  449 L
5803  413 mt 5803  485 L
5626 1621 mt 5698 1621 L
5662 1585 mt 5662 1657 L
5026 3217 mt 5098 3217 L
5062 3181 mt 5062 3253 L
6030 1559 mt 6102 1559 L
6066 1523 mt 6066 1595 L
5065 1453 mt 5137 1453 L
5101 1417 mt 5101 1489 L
2393  809 mt 2465  809 L
2429  773 mt 2429  845 L
6165  455 mt 6237  455 L
6201  419 mt 6201  491 L
5647 2855 mt 5719 2855 L
5683 2819 mt 5683 2891 L
6050 1477 mt 6122 1477 L
6086 1441 mt 6086 1513 L
5240  466 mt 5312  466 L
5276  430 mt 5276  502 L
2180 4603 mt 2252 4603 L
2216 4567 mt 2216 4639 L
6058 1635 mt 6130 1635 L
6094 1599 mt 6094 1671 L
3755 1865 mt 3827 1865 L
3791 1829 mt 3791 1901 L
5996  517 mt 6068  517 L
6032  481 mt 6032  553 L
5978  563 mt 6050  563 L
6014  527 mt 6014  599 L
4777 1329 mt 4849 1329 L
4813 1293 mt 4813 1365 L
6221  449 mt 6293  449 L
6257  413 mt 6257  485 L
4562  466 mt 4634  466 L
4598  430 mt 4598  502 L
5784 2795 mt 5856 2795 L
5820 2759 mt 5820 2831 L
5885  417 mt 5957  417 L
5921  381 mt 5921  453 L
5393  563 mt 5465  563 L
5429  527 mt 5429  599 L
5453 1644 mt 5525 1644 L
5489 1608 mt 5489 1680 L
4846  421 mt 4918  421 L
4882  385 mt 4882  457 L
5198  692 mt 5270  692 L
5234  656 mt 5234  728 L
6208  489 mt 6280  489 L
6244  453 mt 6244  525 L
5851  541 mt 5923  541 L
5887  505 mt 5887  577 L
5661  427 mt 5733  427 L
5697  391 mt 5697  463 L
2687  451 mt 2759  451 L
2723  415 mt 2723  487 L
5280 4575 mt 5352 4575 L
5316 4539 mt 5316 4611 L
5985  415 mt 6057  415 L
6021  379 mt 6021  451 L
4233 4337 mt 4305 4337 L
4269 4301 mt 4269 4373 L
5104  469 mt 5176  469 L
5140  433 mt 5140  505 L
6224  790 mt 6296  790 L
6260  754 mt 6260  826 L
6081  460 mt 6153  460 L
6117  424 mt 6117  496 L
6201  528 mt 6273  528 L
6237  492 mt 6237  564 L
5431  466 mt 5503  466 L
5467  430 mt 5467  502 L
6202  433 mt 6274  433 L
6238  397 mt 6238  469 L
5805 4588 mt 5877 4588 L
5841 4552 mt 5841 4624 L
6202  603 mt 6274  603 L
6238  567 mt 6238  639 L
6119  547 mt 6191  547 L
6155  511 mt 6155  583 L
5524 4202 mt 5596 4202 L
5560 4166 mt 5560 4238 L
6095  643 mt 6167  643 L
6131  607 mt 6131  679 L
6223  709 mt 6295  709 L
6259  673 mt 6259  745 L
5549  442 mt 5621  442 L
5585  406 mt 5585  478 L
6001  972 mt 6073  972 L
6037  936 mt 6037 1008 L
6220  692 mt 6292  692 L
6256  656 mt 6256  728 L
6224  426 mt 6296  426 L
6260  390 mt 6260  462 L
4726  419 mt 4798  419 L
4762  383 mt 4762  455 L
1658  437 mt 1730  437 L
1694  401 mt 1694  473 L
6020  824 mt 6092  824 L
6056  788 mt 6056  860 L
1089 2292 mt 1161 2292 L
1125 2256 mt 1125 2328 L
4307 1074 mt 4379 1074 L
4343 1038 mt 4343 1110 L
5980  414 mt 6052  414 L
6016  378 mt 6016  450 L
4887  585 mt 4959  585 L
4923  549 mt 4923  621 L
5522  436 mt 5594  436 L
5558  400 mt 5558  472 L
6058  479 mt 6130  479 L
6094  443 mt 6094  515 L
5144 1178 mt 5216 1178 L
5180 1142 mt 5180 1214 L
6207  446 mt 6279  446 L
6243  410 mt 6243  482 L
5011 1618 mt 5083 1618 L
5047 1582 mt 5047 1654 L
6008 1029 mt 6080 1029 L
6044  993 mt 6044 1065 L
4775 4339 mt 4847 4339 L
4811 4303 mt 4811 4375 L
2268 4443 mt 2340 4443 L
2304 4407 mt 2304 4479 L
6201 1072 mt 6273 1072 L
6237 1036 mt 6237 1108 L
1235 4244 mt 1307 4244 L
1271 4208 mt 1271 4280 L
4453  595 mt 4525  595 L
4489  559 mt 4489  631 L
5520 4165 mt 5592 4165 L
5556 4129 mt 5556 4201 L
3127  461 mt 3199  461 L
3163  425 mt 3163  497 L
2118 2100 mt 2190 2100 L
2154 2064 mt 2154 2136 L
5983 2228 mt 6055 2228 L
6019 2192 mt 6019 2264 L
6016  530 mt 6088  530 L
6052  494 mt 6052  566 L
6108 1981 mt 6180 1981 L
6144 1945 mt 6144 2017 L
6223  793 mt 6295  793 L
6259  757 mt 6259  829 L
5498  511 mt 5570  511 L
5534  475 mt 5534  547 L
5878  641 mt 5950  641 L
5914  605 mt 5914  677 L
6189 1683 mt 6261 1683 L
6225 1647 mt 6225 1719 L
6219  708 mt 6291  708 L
6255  672 mt 6255  744 L
6121 1087 mt 6193 1087 L
6157 1051 mt 6157 1123 L
5754  685 mt 5826  685 L
5790  649 mt 5790  721 L
6221  611 mt 6293  611 L
6257  575 mt 6257  647 L
5803  415 mt 5875  415 L
5839  379 mt 5839  451 L
6222  465 mt 6294  465 L
6258  429 mt 6258  501 L
 936 4613 mt 1008 4613 L
 972 4577 mt  972 4649 L
 863  728 mt  935  728 L
 899  692 mt  899  764 L
 922 2901 mt  994 2901 L
 958 2865 mt  958 2937 L
4073 2297 mt 4145 2297 L
4109 2261 mt 4109 2333 L
6038 1136 mt 6110 1136 L
6074 1100 mt 6074 1172 L
4711  421 mt 4783  421 L
4747  385 mt 4747  457 L
5957 1051 mt 6029 1051 L
5993 1015 mt 5993 1087 L
1123  483 mt 1195  483 L
1159  447 mt 1159  519 L
5902  577 mt 5974  577 L
5938  541 mt 5938  613 L
4704  810 mt 4776  810 L
4740  774 mt 4740  846 L
6186  446 mt 6258  446 L
6222  410 mt 6222  482 L
5868  453 mt 5940  453 L
5904  417 mt 5904  489 L
6141  448 mt 6213  448 L
6177  412 mt 6177  484 L
6205  834 mt 6277  834 L
6241  798 mt 6241  870 L
5971  435 mt 6043  435 L
6007  399 mt 6007  471 L
6138  730 mt 6210  730 L
6174  694 mt 6174  766 L
 912 2014 mt  984 2014 L
 948 1978 mt  948 2050 L
6208 3267 mt 6280 3267 L
6244 3231 mt 6244 3303 L
5472 4486 mt 5544 4486 L
5508 4450 mt 5508 4522 L
6034  991 mt 6106  991 L
6070  955 mt 6070 1027 L
4540  719 mt 4612  719 L
4576  683 mt 4576  755 L
6224 1390 mt 6296 1390 L
6260 1354 mt 6260 1426 L
2956 1382 mt 3028 1382 L
2992 1346 mt 2992 1418 L
2794  463 mt 2866  463 L
2830  427 mt 2830  499 L
6006  512 mt 6078  512 L
6042  476 mt 6042  548 L
4132 3953 mt 4204 3953 L
4168 3917 mt 4168 3989 L
 899 3757 mt  971 3757 L
 935 3721 mt  935 3793 L
6180  927 mt 6252  927 L
6216  891 mt 6216  963 L
6192  422 mt 6264  422 L
6228  386 mt 6228  458 L
4431 2021 mt 4503 2021 L
4467 1985 mt 4467 2057 L
3178 4106 mt 3250 4106 L
3214 4070 mt 3214 4142 L
5803 3446 mt 5875 3446 L
5839 3410 mt 5839 3482 L
5993 2887 mt 6065 2887 L
6029 2851 mt 6029 2923 L
6034 4370 mt 6106 4370 L
6070 4334 mt 6070 4406 L
3810 3891 mt 3882 3891 L
3846 3855 mt 3846 3927 L
6082  464 mt 6154  464 L
6118  428 mt 6118  500 L
5543  434 mt 5615  434 L
5579  398 mt 5579  470 L
6171  470 mt 6243  470 L
6207  434 mt 6207  506 L
3970  540 mt 4042  540 L
4006  504 mt 4006  576 L
1373 4457 mt 1445 4457 L
1409 4421 mt 1409 4493 L
4559 3288 mt 4631 3288 L
4595 3252 mt 4595 3324 L
4205  423 mt 4277  423 L
4241  387 mt 4241  459 L
3256  487 mt 3328  487 L
3292  451 mt 3292  523 L
6213  466 mt 6285  466 L
6249  430 mt 6249  502 L
5788  700 mt 5860  700 L
5824  664 mt 5824  736 L
6192  431 mt 6264  431 L
6228  395 mt 6228  467 L
6029 1009 mt 6101 1009 L
6065  973 mt 6065 1045 L
5330  505 mt 5402  505 L
5366  469 mt 5366  541 L
6185 1804 mt 6257 1804 L
6221 1768 mt 6221 1840 L
6218  415 mt 6290  415 L
6254  379 mt 6254  451 L
6031 3495 mt 6103 3495 L
6067 3459 mt 6067 3531 L
5939 1701 mt 6011 1701 L
5975 1665 mt 5975 1737 L
5869 3140 mt 5941 3140 L
5905 3104 mt 5905 3176 L
6217 4310 mt 6289 4310 L
6253 4274 mt 6253 4346 L
1693  824 mt 1765  824 L
1729  788 mt 1729  860 L
4187  458 mt 4259  458 L
4223  422 mt 4223  494 L
6155  433 mt 6227  433 L
6191  397 mt 6191  469 L
6180  459 mt 6252  459 L
6216  423 mt 6216  495 L
6173  830 mt 6245  830 L
6209  794 mt 6209  866 L
2501 3242 mt 2573 3242 L
2537 3206 mt 2537 3278 L
1404 1048 mt 1476 1048 L
1440 1012 mt 1440 1084 L
6064  800 mt 6136  800 L
6100  764 mt 6100  836 L
3543 2681 mt 3615 2681 L
3579 2645 mt 3579 2717 L
6222  455 mt 6294  455 L
6258  419 mt 6258  491 L
4279  807 mt 4351  807 L
4315  771 mt 4315  843 L
6219  781 mt 6291  781 L
6255  745 mt 6255  817 L
3227 1481 mt 3299 1481 L
3263 1445 mt 3263 1517 L
6191  448 mt 6263  448 L
6227  412 mt 6227  484 L
6212  471 mt 6284  471 L
6248  435 mt 6248  507 L
6224  419 mt 6296  419 L
6260  383 mt 6260  455 L
 910 3548 mt  982 3548 L
 946 3512 mt  946 3584 L
6181  431 mt 6253  431 L
6217  395 mt 6217  467 L
6081  425 mt 6153  425 L
6117  389 mt 6117  461 L
5675  779 mt 5747  779 L
5711  743 mt 5711  815 L
gs 899 414 5363 4203 rc
gr

0 sg
2752 5104 mt 
(\(S,LFCC,GMM\)) s
 422 3277 mt  -90 rotate
(\(S,SSC,GMM\)) s
90 rotate
2975  223 mt 
(Corr = 0.32) s

end %%Color Dict

eplot
%%EndObject

epage
end

showpage

%%Trailer
%%EOF
