%!PS-Adobe-3.0 EPSF-3.0
%%Creator: MATLAB, The Mathworks, Inc.
%%Title: Pictures\main_zoo_analysis_zoo_index_1_corr.eps
%%CreationDate: 10/21/2008  06:02:40
%%DocumentNeededFonts: Helvetica
%%DocumentProcessColors: Cyan Magenta Yellow Black
%%LanguageLevel: 2
%%Pages: 1
%%BoundingBox:    18   191   555   591
%%EndComments

%%BeginProlog
% MathWorks dictionary
/MathWorks 160 dict begin
% definition operators
/bdef {bind def} bind def
/ldef {load def} bind def
/xdef {exch def} bdef
/xstore {exch store} bdef
% operator abbreviations
/c  /clip ldef
/cc /concat ldef
/cp /closepath ldef
/gr /grestore ldef
/gs /gsave ldef
/mt /moveto ldef
/np /newpath ldef
/cm /currentmatrix ldef
/sm /setmatrix ldef
/rm /rmoveto ldef
/rl /rlineto ldef
/s {show newpath} bdef
/sc {setcmykcolor} bdef
/sr /setrgbcolor ldef
/sg /setgray ldef
/w /setlinewidth ldef
/j /setlinejoin ldef
/cap /setlinecap ldef
/rc {rectclip} bdef
/rf {rectfill} bdef
% page state control
/pgsv () def
/bpage {/pgsv save def} bdef
/epage {pgsv restore} bdef
/bplot /gsave ldef
/eplot {stroke grestore} bdef
% orientation switch
/portraitMode 0 def /landscapeMode 1 def /rotateMode 2 def
% coordinate system mappings
/dpi2point 0 def
% font control
/FontSize 0 def
/FMS {/FontSize xstore findfont [FontSize 0 0 FontSize neg 0 0]
  makefont setfont} bdef
/ISOLatin1Encoding where {pop /WindowsLatin1Encoding 256 array bdef
ISOLatin1Encoding WindowsLatin1Encoding copy pop
/.notdef/.notdef/quotesinglbase/florin/quotedblbase/ellipsis/dagger
/daggerdbl/circumflex/perthousand/Scaron/guilsinglleft/OE/.notdef/.notdef
/.notdef/.notdef/quoteleft/quoteright/quotedblleft/quotedblright/bullet
/endash/emdash/tilde/trademark/scaron/guilsinglright/oe/.notdef/.notdef
/Ydieresis WindowsLatin1Encoding 128 32 getinterval astore pop}
{/WindowsLatin1Encoding StandardEncoding bdef} ifelse
/reencode {exch dup where {pop load} {pop StandardEncoding} ifelse
  exch dup 3 1 roll findfont dup length dict begin
  { 1 index /FID ne {def}{pop pop} ifelse } forall
  /Encoding exch def currentdict end definefont pop} bdef
/isroman {findfont /CharStrings get /Agrave known} bdef
/FMSR {3 1 roll 1 index dup isroman {reencode} {pop pop} ifelse
  exch FMS} bdef
/csm {1 dpi2point div -1 dpi2point div scale neg translate
 dup landscapeMode eq {pop -90 rotate}
  {rotateMode eq {90 rotate} if} ifelse} bdef
% line types: solid, dotted, dashed, dotdash
/SO { [] 0 setdash } bdef
/DO { [.5 dpi2point mul 4 dpi2point mul] 0 setdash } bdef
/DA { [6 dpi2point mul] 0 setdash } bdef
/DD { [.5 dpi2point mul 4 dpi2point mul 6 dpi2point mul 4
  dpi2point mul] 0 setdash } bdef
% macros for lines and objects
/L {lineto stroke} bdef
/MP {3 1 roll moveto 1 sub {rlineto} repeat} bdef
/AP {{rlineto} repeat} bdef
/PDlw -1 def
/W {/PDlw currentlinewidth def setlinewidth} def
/PP {closepath eofill} bdef
/DP {closepath stroke} bdef
/MR {4 -2 roll moveto dup  0 exch rlineto exch 0 rlineto
  neg 0 exch rlineto closepath} bdef
/FR {MR stroke} bdef
/PR {MR fill} bdef
/L1i {{currentfile picstr readhexstring pop} image} bdef
/tMatrix matrix def
/MakeOval {newpath tMatrix currentmatrix pop translate scale
0 0 1 0 360 arc tMatrix setmatrix} bdef
/FO {MakeOval stroke} bdef
/PO {MakeOval fill} bdef
/PD {currentlinewidth 2 div 0 360 arc fill
   PDlw -1 eq not {PDlw w /PDlw -1 def} if} def
/FA {newpath tMatrix currentmatrix pop translate scale
  0 0 1 5 -2 roll arc tMatrix setmatrix stroke} bdef
/PA {newpath tMatrix currentmatrix pop	translate 0 0 moveto scale
  0 0 1 5 -2 roll arc closepath tMatrix setmatrix fill} bdef
/FAn {newpath tMatrix currentmatrix pop translate scale
  0 0 1 5 -2 roll arcn tMatrix setmatrix stroke} bdef
/PAn {newpath tMatrix currentmatrix pop translate 0 0 moveto scale
  0 0 1 5 -2 roll arcn closepath tMatrix setmatrix fill} bdef
/vradius 0 def /hradius 0 def /lry 0 def
/lrx 0 def /uly 0 def /ulx 0 def /rad 0 def
/MRR {/vradius xdef /hradius xdef /lry xdef /lrx xdef /uly xdef
  /ulx xdef newpath tMatrix currentmatrix pop ulx hradius add uly
  vradius add translate hradius vradius scale 0 0 1 180 270 arc 
  tMatrix setmatrix lrx hradius sub uly vradius add translate
  hradius vradius scale 0 0 1 270 360 arc tMatrix setmatrix
  lrx hradius sub lry vradius sub translate hradius vradius scale
  0 0 1 0 90 arc tMatrix setmatrix ulx hradius add lry vradius sub
  translate hradius vradius scale 0 0 1 90 180 arc tMatrix setmatrix
  closepath} bdef
/FRR {MRR stroke } bdef
/PRR {MRR fill } bdef
/MlrRR {/lry xdef /lrx xdef /uly xdef /ulx xdef /rad lry uly sub 2 div def
  newpath tMatrix currentmatrix pop ulx rad add uly rad add translate
  rad rad scale 0 0 1 90 270 arc tMatrix setmatrix lrx rad sub lry rad
  sub translate rad rad scale 0 0 1 270 90 arc tMatrix setmatrix
  closepath} bdef
/FlrRR {MlrRR stroke } bdef
/PlrRR {MlrRR fill } bdef
/MtbRR {/lry xdef /lrx xdef /uly xdef /ulx xdef /rad lrx ulx sub 2 div def
  newpath tMatrix currentmatrix pop ulx rad add uly rad add translate
  rad rad scale 0 0 1 180 360 arc tMatrix setmatrix lrx rad sub lry rad
  sub translate rad rad scale 0 0 1 0 180 arc tMatrix setmatrix
  closepath} bdef
/FtbRR {MtbRR stroke } bdef
/PtbRR {MtbRR fill } bdef
/stri 6 array def /dtri 6 array def
/smat 6 array def /dmat 6 array def
/tmat1 6 array def /tmat2 6 array def /dif 3 array def
/asub {/ind2 exch def /ind1 exch def dup dup
  ind1 get exch ind2 get sub exch } bdef
/tri_to_matrix {
  2 0 asub 3 1 asub 4 0 asub 5 1 asub
  dup 0 get exch 1 get 7 -1 roll astore } bdef
/compute_transform {
  dmat dtri tri_to_matrix tmat1 invertmatrix 
  smat stri tri_to_matrix tmat2 concatmatrix } bdef
/ds {stri astore pop} bdef
/dt {dtri astore pop} bdef
/db {2 copy /cols xdef /rows xdef mul dup 3 mul string
  currentfile 
  3 index 0 eq {/ASCIIHexDecode filter}
  {/ASCII85Decode filter 3 index 2 eq {/RunLengthDecode filter} if }
  ifelse exch readstring pop
  dup 0 3 index getinterval /rbmap xdef
  dup 2 index dup getinterval /gbmap xdef
  1 index dup 2 mul exch getinterval /bbmap xdef pop pop}bdef
/it {gs np dtri aload pop moveto lineto lineto cp c
  cols rows 8 compute_transform 
  rbmap gbmap bbmap true 3 colorimage gr}bdef
/il {newpath moveto lineto stroke}bdef
currentdict end def
%%EndProlog

%%BeginSetup
MathWorks begin

0 cap

end
%%EndSetup

%%Page: 1 1
%%BeginPageSetup
%%PageBoundingBox:    18   191   555   591
MathWorks begin
bpage
%%EndPageSetup

%%BeginObject: obj1
bplot

/dpi2point 12 def
portraitMode 0216 7344 csm

    0   247  6450  4799 rc
85 dict begin %Colortable dictionary
/c0 { 0.000000 0.000000 0.000000 sr} bdef
/c1 { 1.000000 1.000000 1.000000 sr} bdef
/c2 { 0.900000 0.000000 0.000000 sr} bdef
/c3 { 0.000000 0.820000 0.000000 sr} bdef
/c4 { 0.000000 0.000000 0.800000 sr} bdef
/c5 { 0.910000 0.820000 0.320000 sr} bdef
/c6 { 1.000000 0.260000 0.820000 sr} bdef
/c7 { 0.000000 0.820000 0.820000 sr} bdef
c0
1 j
1 sg
   0    0 6919 5187 rf
6 w
0 -4227 4817 0 0 4227 1444 389 4 MP
PP
-4817 0 0 -4227 4817 0 0 4227 1444 389 5 MP stroke
4 w
DO
SO
6 w
0 sg
1444 4616 mt 6261 4616 L
1444  389 mt 6261  389 L
6261  389 mt 6261 4616 L
1444  389 mt 1444 4616 L
1444 4616 mt 6261 4616 L
1444  389 mt 1444 4616 L
1444 4616 mt 1444 4567 L
1444  389 mt 1444  437 L
%%IncludeResource: font Helvetica
/Helvetica /WindowsLatin1Encoding 168 FMSR

1398 4806 mt 
(0) s
2407 4616 mt 2407 4567 L
2407  389 mt 2407  437 L
2314 4806 mt 
(20) s
3370 4616 mt 3370 4567 L
3370  389 mt 3370  437 L
3277 4806 mt 
(40) s
4334 4616 mt 4334 4567 L
4334  389 mt 4334  437 L
4241 4806 mt 
(60) s
5297 4616 mt 5297 4567 L
5297  389 mt 5297  437 L
5204 4806 mt 
(80) s
6261 4616 mt 6261 4567 L
6261  389 mt 6261  437 L
6121 4806 mt 
(100) s
1444  690 mt 1492  690 L
6261  690 mt 6212  690 L
 289  752 mt 
(\(F,DCTs,GMM\)) s
1444  992 mt 1492  992 L
6261  992 mt 6212  992 L
 284 1054 mt 
(\(F,DCTb,GMM\)) s
1444 1294 mt 1492 1294 L
6261 1294 mt 6212 1294 L
 355 1356 mt 
(\(F,DCTs,MLP\)) s
1444 1596 mt 1492 1596 L
6261 1596 mt 6212 1596 L
 317 1658 mt 
(\(F,DCTs,iMLP\)) s
1444 1898 mt 1492 1898 L
6261 1898 mt 6212 1898 L
 349 1960 mt 
(\(F,DCTb,MLP\)) s
1444 2200 mt 1492 2200 L
6261 2200 mt 6212 2200 L
 312 2262 mt 
(\(F,DCTb,iMLP\)) s
1444 2502 mt 1492 2502 L
6261 2502 mt 6212 2502 L
 251 2564 mt 
(\(S,LFCC,GMM\)) s
1444 2804 mt 1492 2804 L
6261 2804 mt 6212 2804 L
 370 2866 mt 
(\(S,PAC,GMM\)) s
1444 3106 mt 1492 3106 L
6261 3106 mt 6212 3106 L
 345 3168 mt 
(\(S,SSC,GMM\)) s
1444 3408 mt 1492 3408 L
6261 3408 mt 6212 3408 L
 251 3470 mt 
(\(S,LFCC,GMM\)) s
1444 3710 mt 1492 3710 L
6261 3710 mt 6212 3710 L
 370 3772 mt 
(\(S,PAC,GMM\)) s
1444 4012 mt 1492 4012 L
6261 4012 mt 6212 4012 L
 345 4074 mt 
(\(S,SSC,GMM\)) s
1444 4314 mt 1492 4314 L
6261 4314 mt 6212 4314 L
 289 4376 mt 
(\(F,DCTs,GMM\)) s
1444 4616 mt 6261 4616 L
1444  389 mt 6261  389 L
6261  389 mt 6261 4616 L
1444  389 mt 1444 4616 L
gs 1444 389 4818 4228 rc
/c8 { 0.000000 0.000000 0.562500 sr} bdef
c8
-622 0 0 69 622 0 1444 613 4 MP
PP
0 sg
0 -69 -622 0 0 69 622 0 1444 613 5 MP stroke
c8
-4606 0 0 69 4606 0 1444 915 4 MP
PP
0 sg
0 -69 -4606 0 0 69 4606 0 1444 915 5 MP stroke
c8
-4165 0 0 69 4165 0 1444 1217 4 MP
PP
0 sg
0 -69 -4165 0 0 69 4165 0 1444 1217 5 MP stroke
c8
-3349 0 0 69 3349 0 1444 1519 4 MP
PP
0 sg
0 -69 -3349 0 0 69 3349 0 1444 1519 5 MP stroke
c8
-3072 0 0 69 3072 0 1444 1821 4 MP
PP
0 sg
0 -69 -3072 0 0 69 3072 0 1444 1821 5 MP stroke
c8
-4500 0 0 69 4500 0 1444 2122 4 MP
PP
0 sg
0 -69 -4500 0 0 69 4500 0 1444 2122 5 MP stroke
c8
-3838 0 0 69 3838 0 1444 2424 4 MP
PP
0 sg
0 -69 -3838 0 0 69 3838 0 1444 2424 5 MP stroke
c8
-4471 0 0 69 4471 0 1444 2726 4 MP
PP
0 sg
0 -69 -4471 0 0 69 4471 0 1444 2726 5 MP stroke
c8
-3942 0 0 69 3942 0 1444 3028 4 MP
PP
0 sg
0 -69 -3942 0 0 69 3942 0 1444 3028 5 MP stroke
c8
-1548 0 0 69 1548 0 1444 3330 4 MP
PP
0 sg
0 -69 -1548 0 0 69 1548 0 1444 3330 5 MP stroke
c8
-3506 0 0 69 3506 0 1444 3632 4 MP
PP
0 sg
0 -69 -3506 0 0 69 3506 0 1444 3632 5 MP stroke
c8
-2212 0 0 69 2212 0 1444 3934 4 MP
PP
0 sg
0 -69 -2212 0 0 69 2212 0 1444 3934 5 MP stroke
c8
-1172 0 0 69 1172 0 1444 4236 4 MP
PP
0 sg
0 -69 -1172 0 0 69 1172 0 1444 4236 5 MP stroke
0 4227 1444 389 2 MP stroke
/c9 { 0.500000 0.000000 0.000000 sr} bdef
c9
-348 0 0 69 348 0 1444 699 4 MP
PP
0 sg
0 -69 -348 0 0 69 348 0 1444 699 5 MP stroke
c9
-241 0 0 69 241 0 1444 1001 4 MP
PP
0 sg
0 -69 -241 0 0 69 241 0 1444 1001 5 MP stroke
c9
-921 0 0 69 921 0 1444 1303 4 MP
PP
0 sg
0 -69 -921 0 0 69 921 0 1444 1303 5 MP stroke
c9
-98 0 0 69 98 0 1444 1605 4 MP
PP
0 sg
0 -69 -98 0 0 69 98 0 1444 1605 5 MP stroke
c9
-339 0 0 69 339 0 1444 1907 4 MP
PP
0 sg
0 -69 -339 0 0 69 339 0 1444 1907 5 MP stroke
c9
-1707 0 0 69 1707 0 1444 2209 4 MP
PP
0 sg
0 -69 -1707 0 0 69 1707 0 1444 2209 5 MP stroke
c9
-159 0 0 69 159 0 1444 2511 4 MP
PP
0 sg
0 -69 -159 0 0 69 159 0 1444 2511 5 MP stroke
c9
-201 0 0 69 201 0 1444 2813 4 MP
PP
0 sg
0 -69 -201 0 0 69 201 0 1444 2813 5 MP stroke
c9
-588 0 0 69 588 0 1444 3114 4 MP
PP
0 sg
0 -69 -588 0 0 69 588 0 1444 3114 5 MP stroke
c9
-487 0 0 69 487 0 1444 3416 4 MP
PP
0 sg
0 -69 -487 0 0 69 487 0 1444 3416 5 MP stroke
c9
-191 0 0 69 191 0 1444 3718 4 MP
PP
0 sg
0 -69 -191 0 0 69 191 0 1444 3718 5 MP stroke
c9
-1092 0 0 69 1092 0 1444 4020 4 MP
PP
0 sg
0 -69 -1092 0 0 69 1092 0 1444 4020 5 MP stroke
c9
-383 0 0 69 383 0 1444 4322 4 MP
PP
0 sg
0 -69 -383 0 0 69 383 0 1444 4322 5 MP stroke
gr

3351 4984 mt 
(zoo index [%]) s
 159 2858 mt  -90 rotate
(Data sets) s
90 rotate
%%IncludeResource: font Helvetica
/Helvetica /WindowsLatin1Encoding 120 FMSR

1427 4659 mt 
( ) s
6245  431 mt 
( ) s
1 sg
0 444 1513 0 0 -444 4688 893 4 MP
PP
-1513 0 0 444 1513 0 0 -444 4688 893 5 MP stroke
4 w
DO
SO
6 w
0 sg
4688  449 mt 6201  449 L
4688  893 mt 6201  893 L
6201  893 mt 6201  449 L
4688  893 mt 4688  449 L
4688  893 mt 6201  893 L
4688  893 mt 4688  449 L
4688  449 mt 6201  449 L
4688  893 mt 6201  893 L
6201  893 mt 6201  449 L
4688  893 mt 4688  449 L
%%IncludeResource: font Helvetica
/Helvetica /WindowsLatin1Encoding 168 FMSR

5140  630 mt 
(before Fnorm) s
gs 4688 449 1514 445 rc
c8
-348 0 0 152 348 0 0 -152 4757 645 5 MP
PP
0 sg
0 0 -348 0 0 152 348 0 0 -152 4757 645 6 MP stroke
gr

5140  833 mt 
(after Fnorm) s
gs 4688 449 1514 445 rc
c9
-348 0 0 152 348 0 0 -152 4757 848 5 MP
PP
0 sg
0 0 -348 0 0 152 348 0 0 -152 4757 848 6 MP stroke
gr


end %%Color Dict

eplot
%%EndObject

epage
end

showpage

%%Trailer
%%EOF
