%!PS-Adobe-3.0 EPSF-3.0
%%Creator: MATLAB, The Mathworks, Inc. Version 7.7.0.471 (R2008b). Operating System: Microsoft Windows XP.
%%Title: Pictures\main_zoo_mvar_analysis_data_BMI_xcorr_bmig_p1_k1_1_3.eps
%%CreationDate: 10/26/2009  05:44:45
%%DocumentNeededFonts: Helvetica
%%DocumentProcessColors: Cyan Magenta Yellow Black
%%LanguageLevel: 2
%%Pages: 1
%%BoundingBox:    37   180   549   616
%%EndComments

%%BeginProlog
% MathWorks dictionary
/MathWorks 160 dict begin
% definition operators
/bdef {bind def} bind def
/ldef {load def} bind def
/xdef {exch def} bdef
/xstore {exch store} bdef
% operator abbreviations
/c  /clip ldef
/cc /concat ldef
/cp /closepath ldef
/gr /grestore ldef
/gs /gsave ldef
/mt /moveto ldef
/np /newpath ldef
/cm /currentmatrix ldef
/sm /setmatrix ldef
/rm /rmoveto ldef
/rl /rlineto ldef
/s {show newpath} bdef
/sc {setcmykcolor} bdef
/sr /setrgbcolor ldef
/sg /setgray ldef
/w /setlinewidth ldef
/j /setlinejoin ldef
/cap /setlinecap ldef
/rc {rectclip} bdef
/rf {rectfill} bdef
% page state control
/pgsv () def
/bpage {/pgsv save def} bdef
/epage {pgsv restore} bdef
/bplot /gsave ldef
/eplot {stroke grestore} bdef
% orientation switch
/portraitMode 0 def /landscapeMode 1 def /rotateMode 2 def
% coordinate system mappings
/dpi2point 0 def
% font control
/FontSize 0 def
/FMS {/FontSize xstore findfont [FontSize 0 0 FontSize neg 0 0]
  makefont setfont} bdef
/ISOLatin1Encoding where {pop /WindowsLatin1Encoding 256 array bdef
ISOLatin1Encoding WindowsLatin1Encoding copy pop
/.notdef/.notdef/quotesinglbase/florin/quotedblbase/ellipsis/dagger
/daggerdbl/circumflex/perthousand/Scaron/guilsinglleft/OE/.notdef/.notdef
/.notdef/.notdef/quoteleft/quoteright/quotedblleft/quotedblright/bullet
/endash/emdash/tilde/trademark/scaron/guilsinglright/oe/.notdef/.notdef
/Ydieresis WindowsLatin1Encoding 128 32 getinterval astore pop}
{/WindowsLatin1Encoding StandardEncoding bdef} ifelse
/reencode {exch dup where {pop load} {pop StandardEncoding} ifelse
  exch dup 3 1 roll findfont dup length dict begin
  { 1 index /FID ne {def}{pop pop} ifelse } forall
  /Encoding exch def currentdict end definefont pop} bdef
/isroman {findfont /CharStrings get /Agrave known} bdef
/FMSR {3 1 roll 1 index dup isroman {reencode} {pop pop} ifelse
  exch FMS} bdef
/csm {1 dpi2point div -1 dpi2point div scale neg translate
 dup landscapeMode eq {pop -90 rotate}
  {rotateMode eq {90 rotate} if} ifelse} bdef
% line types: solid, dotted, dashed, dotdash
/SO { [] 0 setdash } bdef
/DO { [.5 dpi2point mul 4 dpi2point mul] 0 setdash } bdef
/DA { [6 dpi2point mul] 0 setdash } bdef
/DD { [.5 dpi2point mul 4 dpi2point mul 6 dpi2point mul 4
  dpi2point mul] 0 setdash } bdef
% macros for lines and objects
/L {lineto stroke} bdef
/MP {3 1 roll moveto 1 sub {rlineto} repeat} bdef
/AP {{rlineto} repeat} bdef
/PDlw -1 def
/W {/PDlw currentlinewidth def setlinewidth} def
/PP {closepath eofill} bdef
/DP {closepath stroke} bdef
/MR {4 -2 roll moveto dup  0 exch rlineto exch 0 rlineto
  neg 0 exch rlineto closepath} bdef
/FR {MR stroke} bdef
/PR {MR fill} bdef
/L1i {{currentfile picstr readhexstring pop} image} bdef
/tMatrix matrix def
/MakeOval {newpath tMatrix currentmatrix pop translate scale
0 0 1 0 360 arc tMatrix setmatrix} bdef
/FO {MakeOval stroke} bdef
/PO {MakeOval fill} bdef
/PD {currentlinewidth 2 div 0 360 arc fill
   PDlw -1 eq not {PDlw w /PDlw -1 def} if} def
/FA {newpath tMatrix currentmatrix pop translate scale
  0 0 1 5 -2 roll arc tMatrix setmatrix stroke} bdef
/PA {newpath tMatrix currentmatrix pop	translate 0 0 moveto scale
  0 0 1 5 -2 roll arc closepath tMatrix setmatrix fill} bdef
/FAn {newpath tMatrix currentmatrix pop translate scale
  0 0 1 5 -2 roll arcn tMatrix setmatrix stroke} bdef
/PAn {newpath tMatrix currentmatrix pop translate 0 0 moveto scale
  0 0 1 5 -2 roll arcn closepath tMatrix setmatrix fill} bdef
/vradius 0 def /hradius 0 def /lry 0 def
/lrx 0 def /uly 0 def /ulx 0 def /rad 0 def
/MRR {/vradius xdef /hradius xdef /lry xdef /lrx xdef /uly xdef
  /ulx xdef newpath tMatrix currentmatrix pop ulx hradius add uly
  vradius add translate hradius vradius scale 0 0 1 180 270 arc 
  tMatrix setmatrix lrx hradius sub uly vradius add translate
  hradius vradius scale 0 0 1 270 360 arc tMatrix setmatrix
  lrx hradius sub lry vradius sub translate hradius vradius scale
  0 0 1 0 90 arc tMatrix setmatrix ulx hradius add lry vradius sub
  translate hradius vradius scale 0 0 1 90 180 arc tMatrix setmatrix
  closepath} bdef
/FRR {MRR stroke } bdef
/PRR {MRR fill } bdef
/MlrRR {/lry xdef /lrx xdef /uly xdef /ulx xdef /rad lry uly sub 2 div def
  newpath tMatrix currentmatrix pop ulx rad add uly rad add translate
  rad rad scale 0 0 1 90 270 arc tMatrix setmatrix lrx rad sub lry rad
  sub translate rad rad scale 0 0 1 270 90 arc tMatrix setmatrix
  closepath} bdef
/FlrRR {MlrRR stroke } bdef
/PlrRR {MlrRR fill } bdef
/MtbRR {/lry xdef /lrx xdef /uly xdef /ulx xdef /rad lrx ulx sub 2 div def
  newpath tMatrix currentmatrix pop ulx rad add uly rad add translate
  rad rad scale 0 0 1 180 360 arc tMatrix setmatrix lrx rad sub lry rad
  sub translate rad rad scale 0 0 1 0 180 arc tMatrix setmatrix
  closepath} bdef
/FtbRR {MtbRR stroke } bdef
/PtbRR {MtbRR fill } bdef
/stri 6 array def /dtri 6 array def
/smat 6 array def /dmat 6 array def
/tmat1 6 array def /tmat2 6 array def /dif 3 array def
/asub {/ind2 exch def /ind1 exch def dup dup
  ind1 get exch ind2 get sub exch } bdef
/tri_to_matrix {
  2 0 asub 3 1 asub 4 0 asub 5 1 asub
  dup 0 get exch 1 get 7 -1 roll astore } bdef
/compute_transform {
  dmat dtri tri_to_matrix tmat1 invertmatrix 
  smat stri tri_to_matrix tmat2 concatmatrix } bdef
/ds {stri astore pop} bdef
/dt {dtri astore pop} bdef
/db {2 copy /cols xdef /rows xdef mul dup 3 mul string
  currentfile 
  3 index 0 eq {/ASCIIHexDecode filter}
  {/ASCII85Decode filter 3 index 2 eq {/RunLengthDecode filter} if }
  ifelse exch readstring pop
  dup 0 3 index getinterval /rbmap xdef
  dup 2 index dup getinterval /gbmap xdef
  1 index dup 2 mul exch getinterval /bbmap xdef pop pop}bdef
/it {gs np dtri aload pop moveto lineto lineto cp c
  cols rows 8 compute_transform 
  rbmap gbmap bbmap true 3 colorimage gr}bdef
/il {newpath moveto lineto stroke}bdef
currentdict end def
%%EndProlog

%%BeginSetup
MathWorks begin

0 cap

end
%%EndSetup

%%Page: 1 1
%%BeginPageSetup
%%PageBoundingBox:    37   180   549   616
MathWorks begin
bpage
%%EndPageSetup

%%BeginObject: obj1
bplot

/dpi2point 12 def
portraitMode 0216 7344 csm

  234   -48  6149  5231 rc
85 dict begin %Colortable dictionary
/c0 { 0.000000 0.000000 0.000000 sr} bdef
/c1 { 1.000000 1.000000 1.000000 sr} bdef
/c2 { 0.900000 0.000000 0.000000 sr} bdef
/c3 { 0.000000 0.820000 0.000000 sr} bdef
/c4 { 0.000000 0.000000 0.800000 sr} bdef
/c5 { 0.910000 0.820000 0.320000 sr} bdef
/c6 { 1.000000 0.260000 0.820000 sr} bdef
/c7 { 0.000000 0.820000 0.820000 sr} bdef
c0
1 j
1 sg
   0    0 6919 5187 rf
6 w
0 4202 5362 0 0 -4202 899 4616 4 MP
PP
-5362 0 0 4202 5362 0 0 -4202 899 4616 5 MP stroke
4 w
DO
SO
6 w
0 sg
 899  414 mt 6261  414 L
 899 4616 mt 6261 4616 L
6261 4616 mt 6261  414 L
 899 4616 mt  899  414 L
 899 4616 mt 6261 4616 L
 899 4616 mt  899  414 L
 919 4616 mt  919 4562 L
 919  414 mt  919  467 L
%%IncludeResource: font Helvetica
/Helvetica /WindowsLatin1Encoding 240 FMSR

 713 4873 mt 
(-3) s
1806 4616 mt 1806 4562 L
1806  414 mt 1806  467 L
1600 4873 mt 
(-2) s
2693 4616 mt 2693 4562 L
2693  414 mt 2693  467 L
2487 4873 mt 
(-1) s
3580 4616 mt 3580 4562 L
3580  414 mt 3580  467 L
3514 4873 mt 
(0) s
4466 4616 mt 4466 4562 L
4466  414 mt 4466  467 L
4400 4873 mt 
(1) s
5353 4616 mt 5353 4562 L
5353  414 mt 5353  467 L
5287 4873 mt 
(2) s
6240 4616 mt 6240 4562 L
6240  414 mt 6240  467 L
6174 4873 mt 
(3) s
 899 4599 mt  952 4599 L
6261 4599 mt 6207 4599 L
 591 4688 mt 
(-3) s
 899 3904 mt  952 3904 L
6261 3904 mt 6207 3904 L
 591 3993 mt 
(-2) s
 899 3209 mt  952 3209 L
6261 3209 mt 6207 3209 L
 591 3298 mt 
(-1) s
 899 2514 mt  952 2514 L
6261 2514 mt 6207 2514 L
 731 2603 mt 
(0) s
 899 1820 mt  952 1820 L
6261 1820 mt 6207 1820 L
 731 1909 mt 
(1) s
 899 1125 mt  952 1125 L
6261 1125 mt 6207 1125 L
 731 1214 mt 
(2) s
 899  430 mt  952  430 L
6261  430 mt 6207  430 L
 731  519 mt 
(3) s
 899  414 mt 6261  414 L
 899 4616 mt 6261 4616 L
6261 4616 mt 6261  414 L
 899 4616 mt  899  414 L
gs 899 414 5363 4203 rc
gr

/c8 { 0.000000 0.000000 1.000000 sr} bdef
c8
4453 1671 mt 4525 1671 L
4489 1635 mt 4489 1707 L
2749 2655 mt 2821 2655 L
2785 2619 mt 2785 2691 L
4067 1152 mt 4139 1152 L
4103 1116 mt 4103 1188 L
3582 2488 mt 3654 2488 L
3618 2452 mt 3618 2524 L
1805 2449 mt 1877 2449 L
1841 2413 mt 1841 2485 L
4163 2018 mt 4235 2018 L
4199 1982 mt 4199 2054 L
3267 3415 mt 3339 3415 L
3303 3379 mt 3303 3451 L
3202 3250 mt 3274 3250 L
3238 3214 mt 3238 3286 L
4585 2835 mt 4657 2835 L
4621 2799 mt 4621 2871 L
4981 1779 mt 5053 1779 L
5017 1743 mt 5017 1815 L
3085 1572 mt 3157 1572 L
3121 1536 mt 3121 1608 L
1766 1740 mt 1838 1740 L
1802 1704 mt 1802 1776 L
3330 1732 mt 3402 1732 L
3366 1696 mt 3366 1768 L
3046 1476 mt 3118 1476 L
3082 1440 mt 3082 1512 L
4243 2237 mt 4315 2237 L
4279 2201 mt 4279 2273 L
4416 2519 mt 4488 2519 L
4452 2483 mt 4452 2555 L
3135 1489 mt 3207 1489 L
3171 1453 mt 3171 1525 L
3307 3157 mt 3379 3157 L
3343 3121 mt 3343 3193 L
2634 2782 mt 2706 2782 L
2670 2746 mt 2670 2818 L
4028 2983 mt 4100 2983 L
4064 2947 mt 4064 3019 L
4398 1831 mt 4470 1831 L
4434 1795 mt 4434 1867 L
3325 1960 mt 3397 1960 L
3361 1924 mt 3361 1996 L
2723 2549 mt 2795 2549 L
2759 2513 mt 2759 2585 L
3290 2379 mt 3362 2379 L
3326 2343 mt 3326 2415 L
5468 1898 mt 5540 1898 L
5504 1862 mt 5504 1934 L
3700 2040 mt 3772 2040 L
3736 2004 mt 3736 2076 L
3426 2925 mt 3498 2925 L
3462 2889 mt 3462 2961 L
4338 2109 mt 4410 2109 L
4374 2073 mt 4374 2145 L
1556 2343 mt 1628 2343 L
1592 2307 mt 1592 2379 L
3751 3063 mt 3823 3063 L
3787 3027 mt 3787 3099 L
2355 1858 mt 2427 1858 L
2391 1822 mt 2391 1894 L
3694 2727 mt 3766 2727 L
3730 2691 mt 3730 2763 L
3538 3242 mt 3610 3242 L
3574 3206 mt 3574 3278 L
1842 3980 mt 1914 3980 L
1878 3944 mt 1878 4016 L
3785 1689 mt 3857 1689 L
3821 1653 mt 3821 1725 L
2781 1954 mt 2853 1954 L
2817 1918 mt 2817 1990 L
4149 3227 mt 4221 3227 L
4185 3191 mt 4185 3263 L
3723 1851 mt 3795 1851 L
3759 1815 mt 3759 1887 L
3190 1872 mt 3262 1872 L
3226 1836 mt 3226 1908 L
3493 1583 mt 3565 1583 L
3529 1547 mt 3529 1619 L
2063 3034 mt 2135 3034 L
2099 2998 mt 2099 3070 L
2987 2611 mt 3059 2611 L
3023 2575 mt 3023 2647 L
3098 2325 mt 3170 2325 L
3134 2289 mt 3134 2361 L
4444 1049 mt 4516 1049 L
4480 1013 mt 4480 1085 L
5606 3118 mt 5678 3118 L
5642 3082 mt 5642 3154 L
2765 2633 mt 2837 2633 L
2801 2597 mt 2801 2669 L
3091 1904 mt 3163 1904 L
3127 1868 mt 3127 1940 L
3466 2951 mt 3538 2951 L
3502 2915 mt 3502 2987 L
4512 1772 mt 4584 1772 L
4548 1736 mt 4548 1808 L
2534 1388 mt 2606 1388 L
2570 1352 mt 2570 1424 L
4236 2265 mt 4308 2265 L
4272 2229 mt 4272 2301 L
3172 4616 mt 3244 4616 L
3208 4580 mt 3208 4652 L
3566  724 mt 3638  724 L
3602  688 mt 3602  760 L
3381 2940 mt 3453 2940 L
3417 2904 mt 3417 2976 L
4372 3436 mt 4444 3436 L
4408 3400 mt 4408 3472 L
2394 2659 mt 2466 2659 L
2430 2623 mt 2430 2695 L
2298 3039 mt 2370 3039 L
2334 3003 mt 2334 3075 L
3655 2624 mt 3727 2624 L
3691 2588 mt 3691 2660 L
4680 1255 mt 4752 1255 L
4716 1219 mt 4716 1291 L
2917 1121 mt 2989 1121 L
2953 1085 mt 2953 1157 L
4015 1838 mt 4087 1838 L
4051 1802 mt 4051 1874 L
4435 2165 mt 4507 2165 L
4471 2129 mt 4471 2201 L
2085 2806 mt 2157 2806 L
2121 2770 mt 2121 2842 L
4390 1966 mt 4462 1966 L
4426 1930 mt 4426 2002 L
4251  564 mt 4323  564 L
4287  528 mt 4287  600 L
1481 2869 mt 1553 2869 L
1517 2833 mt 1517 2905 L
4259  898 mt 4331  898 L
4295  862 mt 4295  934 L
2757 2130 mt 2829 2130 L
2793 2094 mt 2793 2166 L
2680 1336 mt 2752 1336 L
2716 1300 mt 2716 1372 L
3588 1404 mt 3660 1404 L
3624 1368 mt 3624 1440 L
4501 1680 mt 4573 1680 L
4537 1644 mt 4537 1716 L
4191 2125 mt 4263 2125 L
4227 2089 mt 4227 2161 L
5245 2541 mt 5317 2541 L
5281 2505 mt 5281 2577 L
3214 2383 mt 3286 2383 L
3250 2347 mt 3250 2419 L
4047 1561 mt 4119 1561 L
4083 1525 mt 4083 1597 L
1876 1787 mt 1948 1787 L
1912 1751 mt 1912 1823 L
4564 3693 mt 4636 3693 L
4600 3657 mt 4600 3729 L
3116 1232 mt 3188 1232 L
3152 1196 mt 3152 1268 L
3072 3235 mt 3144 3235 L
3108 3199 mt 3108 3271 L
4836 1865 mt 4908 1865 L
4872 1829 mt 4872 1901 L
4094 3198 mt 4166 3198 L
4130 3162 mt 4130 3234 L
3594 2145 mt 3666 2145 L
3630 2109 mt 3630 2181 L
3855 1207 mt 3927 1207 L
3891 1171 mt 3891 1243 L
2165 2089 mt 2237 2089 L
2201 2053 mt 2201 2125 L
5180 2140 mt 5252 2140 L
5216 2104 mt 5216 2176 L
3415 2051 mt 3487 2051 L
3451 2015 mt 3451 2087 L
3921 3540 mt 3993 3540 L
3957 3504 mt 3957 3576 L
5096 2894 mt 5168 2894 L
5132 2858 mt 5132 2930 L
2828 2194 mt 2900 2194 L
2864 2158 mt 2864 2230 L
5150 2293 mt 5222 2293 L
5186 2257 mt 5186 2329 L
3757 1698 mt 3829 1698 L
3793 1662 mt 3793 1734 L
3599 2334 mt 3671 2334 L
3635 2298 mt 3635 2370 L
1965 2311 mt 2037 2311 L
2001 2275 mt 2001 2347 L
2959 2700 mt 3031 2700 L
2995 2664 mt 2995 2736 L
4142 2792 mt 4214 2792 L
4178 2756 mt 4178 2828 L
3927 2067 mt 3999 2067 L
3963 2031 mt 3963 2103 L
4805 1948 mt 4877 1948 L
4841 1912 mt 4841 1984 L
4608 2001 mt 4680 2001 L
4644 1965 mt 4644 2037 L
4719 3184 mt 4791 3184 L
4755 3148 mt 4755 3220 L
4597 2754 mt 4669 2754 L
4633 2718 mt 4633 2790 L
3488 2562 mt 3560 2562 L
3524 2526 mt 3524 2598 L
2444 2288 mt 2516 2288 L
2480 2252 mt 2480 2324 L
4643 1845 mt 4715 1845 L
4679 1809 mt 4679 1881 L
3940 2135 mt 4012 2135 L
3976 2099 mt 3976 2171 L
6033 2745 mt 6105 2745 L
6069 2709 mt 6069 2781 L
2773 2401 mt 2845 2401 L
2809 2365 mt 2809 2437 L
3897 1604 mt 3969 1604 L
3933 1568 mt 3933 1640 L
3141 1984 mt 3213 1984 L
3177 1948 mt 3177 2020 L
2040 2410 mt 2112 2410 L
2076 2374 mt 2076 2446 L
4199 2170 mt 4271 2170 L
4235 2134 mt 4235 2206 L
5321 2329 mt 5393 2329 L
5357 2293 mt 5357 2365 L
3505 2589 mt 3577 2589 L
3541 2553 mt 3541 2625 L
3410 3425 mt 3482 3425 L
3446 3389 mt 3446 3461 L
1907 1634 mt 1979 1634 L
1943 1598 mt 1943 1670 L
3232 2209 mt 3304 2209 L
3268 2173 mt 3268 2245 L
2468 2370 mt 2540 2370 L
2504 2334 mt 2504 2406 L
3059 3028 mt 3131 3028 L
3095 2992 mt 3095 3064 L
3033 1923 mt 3105 1923 L
3069 1887 mt 3069 1959 L
3891 3731 mt 3963 3731 L
3927 3695 mt 3927 3767 L
2938 2820 mt 3010 2820 L
2974 2784 mt 2974 2856 L
4904 2270 mt 4976 2270 L
4940 2234 mt 4940 2306 L
3838  824 mt 3910  824 L
3874  788 mt 3874  860 L
2662 3191 mt 2734 3191 L
2698 3155 mt 2698 3227 L
3364 1662 mt 3436 1662 L
3400 1626 mt 3400 1698 L
2740 1318 mt 2812 1318 L
2776 1282 mt 2776 1354 L
4330 1181 mt 4402 1181 L
4366 1145 mt 4366 1217 L
3013 2695 mt 3085 2695 L
3049 2659 mt 3049 2731 L
3404 1593 mt 3476 1593 L
3440 1557 mt 3440 1629 L
3605 1653 mt 3677 1653 L
3641 1617 mt 3641 1689 L
3903 2320 mt 3975 2320 L
3939 2284 mt 3939 2356 L
4655 3386 mt 4727 3386 L
4691 3350 mt 4691 3422 L
 863 1917 mt  935 1917 L
 899 1881 mt  899 1953 L
3166 2844 mt 3238 2844 L
3202 2808 mt 3202 2880 L
2282 2497 mt 2354 2497 L
2318 2461 mt 2318 2533 L
2595 2247 mt 2667 2247 L
2631 2211 mt 2631 2283 L
3284 3331 mt 3356 3331 L
3320 3295 mt 3320 3367 L
2697 2682 mt 2769 2682 L
2733 2646 mt 2733 2718 L
2327 2083 mt 2399 2083 L
2363 2047 mt 2363 2119 L
1387 1371 mt 1459 1371 L
1423 1335 mt 1423 1407 L
2980 1538 mt 3052 1538 L
3016 1502 mt 3016 1574 L
2523 2261 mt 2595 2261 L
2559 2225 mt 2559 2297 L
3359 2849 mt 3431 2849 L
3395 2813 mt 3395 2885 L
4314 2458 mt 4386 2458 L
4350 2422 mt 4350 2494 L
2924 2889 mt 2996 2889 L
2960 2853 mt 2960 2925 L
3768 2704 mt 3840 2704 L
3804 2668 mt 3804 2740 L
4306 2628 mt 4378 2628 L
4342 2592 mt 4342 2664 L
2218 2914 mt 2290 2914 L
2254 2878 mt 2254 2950 L
4087 1816 mt 4159 1816 L
4123 1780 mt 4123 1852 L
4922 1892 mt 4994 1892 L
4958 1856 mt 4958 1928 L
1619 1809 mt 1691 1809 L
1655 1773 mt 1655 1845 L
4492 2471 mt 4564 2471 L
4528 2435 mt 4528 2507 L
3255 2396 mt 3327 2396 L
3291 2360 mt 3291 2432 L
2201 2467 mt 2273 2467 L
2237 2431 mt 2237 2503 L
3438 2214 mt 3510 2214 L
3474 2178 mt 3474 2250 L
2490 1087 mt 2562 1087 L
2526 1051 mt 2526 1123 L
3571 3206 mt 3643 3206 L
3607 3170 mt 3607 3242 L
3728  957 mt 3800  957 L
3764  921 mt 3764  993 L
3983 3297 mt 4055 3297 L
4019 3261 mt 4019 3333 L
2859 2650 mt 2931 2650 L
2895 2614 mt 2895 2686 L
4553 3610 mt 4625 3610 L
4589 3574 mt 4589 3646 L
4184 1502 mt 4256 1502 L
4220 1466 mt 4220 1538 L
3780 1462 mt 3852 1462 L
3816 1426 mt 3816 1498 L
4228 1434 mt 4300 1434 L
4264 1398 mt 4264 1470 L
2888 2741 mt 2960 2741 L
2924 2705 mt 2924 2777 L
4746 2972 mt 4818 2972 L
4782 2936 mt 4782 3008 L
3178 4023 mt 3250 4023 L
3214 3987 mt 3214 4059 L
4021 1794 mt 4093 1794 L
4057 1758 mt 4057 1830 L
4522 3797 mt 4594 3797 L
4558 3761 mt 4558 3833 L
2555 1942 mt 2627 1942 L
2591 1906 mt 2591 1978 L
2715 1764 mt 2787 1764 L
2751 1728 mt 2751 1800 L
3208 2691 mt 3280 2691 L
3244 2655 mt 3244 2727 L
4156 2104 mt 4228 2104 L
4192 2068 mt 4192 2140 L
2836 3151 mt 2908 3151 L
2872 3115 mt 2872 3187 L
3319 2480 mt 3391 2480 L
3355 2444 mt 3355 2516 L
3666 1972 mt 3738 1972 L
3702 1936 mt 3702 2008 L
2432 1878 mt 2504 1878 L
2468 1842 mt 2468 1914 L
2789 3017 mt 2861 3017 L
2825 2981 mt 2825 3053 L
5531 1930 mt 5603 1930 L
5567 1894 mt 5567 1966 L
3627 2223 mt 3699 2223 L
3663 2187 mt 3663 2259 L
3826 2440 mt 3898 2440 L
3862 2404 mt 3862 2476 L
3510 2388 mt 3582 2388 L
3546 2352 mt 3546 2424 L
3989 2764 mt 4061 2764 L
4025 2728 mt 4025 2800 L
2106 1526 mt 2178 1526 L
2142 1490 mt 2142 1562 L
3421  414 mt 3493  414 L
3457  378 mt 3457  450 L
2502 2218 mt 2574 2218 L
2538 2182 mt 2538 2254 L
2183 3446 mt 2255 3446 L
2219 3410 mt 2219 3482 L
3689 2619 mt 3761 2619 L
3725 2583 mt 3725 2655 L
3336 2316 mt 3408 2316 L
3372 2280 mt 3372 2352 L
2513 2453 mt 2585 2453 L
2549 2417 mt 2549 2489 L
3832 3515 mt 3904 3515 L
3868 3479 mt 3868 3551 L
2267 2545 mt 2339 2545 L
2303 2509 mt 2303 2581 L
2126 1978 mt 2198 1978 L
2162 1942 mt 2162 2014 L
2235 3457 mt 2307 3457 L
2271 3421 mt 2271 3493 L
4760 2057 mt 4832 2057 L
4796 2021 mt 4796 2093 L
3946 2374 mt 4018 2374 L
3982 2338 mt 3982 2410 L
3885 1911 mt 3957 1911 L
3921 1875 mt 3921 1947 L
2575 2251 mt 2647 2251 L
2611 2215 mt 2611 2287 L
3053 3273 mt 3125 3273 L
3089 3237 mt 3089 3309 L
2671 1550 mt 2743 1550 L
2707 1514 mt 2707 1586 L
4213 2160 mt 4285 2160 L
4249 2124 mt 4249 2196 L
4100 2750 mt 4172 2750 L
4136 2714 mt 4136 2786 L
3621 2062 mt 3693 2062 L
3657 2026 mt 3657 2098 L
4820 2840 mt 4892 2840 L
4856 2804 mt 4856 2876 L
2993 3131 mt 3065 3131 L
3029 3095 mt 3029 3167 L
1722 2646 mt 1794 2646 L
1758 2610 mt 1758 2682 L
3915 3171 mt 3987 3171 L
3951 3135 mt 3951 3207 L
3549 2532 mt 3621 2532 L
3585 2496 mt 3585 2568 L
3460 2432 mt 3532 2432 L
3496 2396 mt 3496 2468 L
5282 2199 mt 5354 2199 L
5318 2163 mt 5318 2235 L
4706 3000 mt 4778 3000 L
4742 2964 mt 4742 3036 L
3820 2506 mt 3892 2506 L
3856 2470 mt 3856 2542 L
2381 2414 mt 2453 2414 L
2417 2378 mt 2417 2450 L
3971 2514 mt 4043 2514 L
4007 2478 mt 4007 2550 L
3007 2989 mt 3079 2989 L
3043 2953 mt 3043 3025 L
4128 3265 mt 4200 3265 L
4164 3229 mt 4164 3301 L
5047 3257 mt 5119 3257 L
5083 3221 mt 5083 3293 L
3814 2298 mt 3886 2298 L
3850 2262 mt 3850 2334 L
2706 2189 mt 2778 2189 L
2742 2153 mt 2742 2225 L
2797 3011 mt 2869 3011 L
2833 2975 mt 2833 3047 L
4009 2012 mt 4081 2012 L
4045 1976 mt 4045 2048 L
4266 2284 mt 4338 2284 L
4302 2248 mt 4302 2320 L
3717 1823 mt 3789 1823 L
3753 1787 mt 3753 1859 L
2732 2035 mt 2804 2035 L
2768 1999 mt 2768 2071 L
3803 2825 mt 3875 2825 L
3839 2789 mt 3839 2861 L
3797 2073 mt 3869 2073 L
3833 2037 mt 3833 2109 L
3683 2879 mt 3755 2879 L
3719 2843 mt 3719 2915 L
3850 2673 mt 3922 2673 L
3886 2637 mt 3886 2709 L
4135 2709 mt 4207 2709 L
4171 2673 mt 4171 2745 L
3577 2233 mt 3649 2233 L
3613 2197 mt 3613 2269 L
2881 2580 mt 2953 2580 L
2917 2544 mt 2917 2616 L
2456 3553 mt 2528 3553 L
2492 3517 mt 2492 3589 L
3532 2768 mt 3604 2768 L
3568 2732 mt 3568 2804 L
3844 3022 mt 3916 3022 L
3880 2986 mt 3880 3058 L
3160 2423 mt 3232 2423 L
3196 2387 mt 3196 2459 L
3237 2602 mt 3309 2602 L
3273 2566 mt 3273 2638 L
3398 2347 mt 3470 2347 L
3434 2311 mt 3434 2383 L
4041 2510 mt 4113 2510 L
4077 2474 mt 4077 2546 L
4463 3322 mt 4535 3322 L
4499 3286 mt 4499 3358 L
3499 2436 mt 3571 2436 L
3535 2400 mt 3535 2472 L
2146 2427 mt 2218 2427 L
2182 2391 mt 2182 2463 L
3184 3213 mt 3256 3213 L
3220 3177 mt 3220 3249 L
3249 2637 mt 3321 2637 L
3285 2601 mt 3285 2673 L
3471 2501 mt 3543 2501 L
3507 2465 mt 3507 2537 L
4886 2909 mt 4958 2909 L
4922 2873 mt 4922 2945 L
6225 2099 mt 6297 2099 L
6261 2063 mt 6261 2135 L
3644 2811 mt 3716 2811 L
3680 2775 mt 3680 2847 L
3123 2874 mt 3195 2874 L
3159 2838 mt 3159 2910 L
3964 2462 mt 4036 2462 L
4000 2426 mt 4000 2498 L
4532 3877 mt 4604 3877 L
4568 3841 mt 4568 3913 L
2931 3144 mt 3003 3144 L
2967 3108 mt 2967 3180 L
4355 2718 mt 4427 2718 L
4391 2682 mt 4391 2754 L
3353 3164 mt 3425 3164 L
3389 3128 mt 3389 3200 L
3000 1419 mt 3072 1419 L
3036 1383 mt 3036 1455 L
3633 3503 mt 3705 3503 L
3669 3467 mt 3669 3539 L
4177 3051 mt 4249 3051 L
4213 3015 mt 4213 3087 L
2874 2664 mt 2946 2664 L
2910 2628 mt 2910 2700 L
2896 2677 mt 2968 2677 L
2932 2641 mt 2932 2713 L
3861 3349 mt 3933 3349 L
3897 3313 mt 3897 3385 L
4693 1643 mt 4765 1643 L
4729 1607 mt 4729 1679 L
3027 2302 mt 3099 2302 L
3063 2266 mt 3063 2338 L
3909 2150 mt 3981 2150 L
3945 2114 mt 3945 2186 L
4290 3752 mt 4362 3752 L
4326 3716 mt 4326 3788 L
3296 3220 mt 3368 3220 L
3332 3184 mt 3332 3256 L
5071 2445 mt 5143 2445 L
5107 2409 mt 5107 2481 L
1259 3625 mt 1331 3625 L
1295 3589 mt 1295 3661 L
2605 4305 mt 2677 4305 L
2641 4269 mt 2641 4341 L
3560 2978 mt 3632 2978 L
3596 2942 mt 3596 3014 L
2479 3774 mt 2551 3774 L
2515 3738 mt 2515 3810 L
3153 1448 mt 3225 1448 L
3189 1412 mt 3189 1484 L
2341 2859 mt 2413 2859 L
2377 2823 mt 2377 2895 L
4631 1298 mt 4703 1298 L
4667 1262 mt 4667 1334 L
4054 2405 mt 4126 2405 L
4090 2369 mt 4090 2441 L
5365 3087 mt 5437 3087 L
5401 3051 mt 5401 3123 L
2652 2778 mt 2724 2778 L
2688 2742 mt 2688 2814 L
4114 3711 mt 4186 3711 L
4150 3675 mt 4150 3747 L
3649 2523 mt 3721 2523 L
3685 2487 mt 3685 2559 L
4789 1990 mt 4861 1990 L
4825 1954 mt 4825 2026 L
2586 2946 mt 2658 2946 L
2622 2910 mt 2622 2982 L
3638 1748 mt 3710 1748 L
3674 1712 mt 3674 1784 L
5211 2584 mt 5283 2584 L
5247 2548 mt 5247 2620 L
4347 2615 mt 4419 2615 L
4383 2579 mt 4383 2651 L
3791 2884 mt 3863 2884 L
3827 2848 mt 3827 2920 L
3873 2115 mt 3945 2115 L
3909 2079 mt 3909 2151 L
3273 3581 mt 3345 3581 L
3309 3545 mt 3309 3617 L
4574 3567 mt 4646 3567 L
4610 3531 mt 4610 3603 L
3740 2576 mt 3812 2576 L
3776 2540 mt 3776 2612 L
4274 2046 mt 4346 2046 L
4310 2010 mt 4310 2082 L
4732 2352 mt 4804 2352 L
4768 2316 mt 4768 2388 L
2407 2418 mt 2479 2418 L
2443 2382 mt 2443 2454 L
4667 2338 mt 4739 2338 L
4703 2302 mt 4703 2374 L
3934 2773 mt 4006 2773 L
3970 2737 mt 3970 2809 L
3879 2228 mt 3951 2228 L
3915 2192 mt 3915 2264 L
2624 3125 mt 2696 3125 L
2660 3089 mt 2660 3161 L
4364 2935 mt 4436 2935 L
4400 2899 mt 4400 2971 L
3977 3908 mt 4049 3908 L
4013 3872 mt 4013 3944 L
3482 4205 mt 3554 4205 L
3518 4169 mt 3518 4241 L
4381 4072 mt 4453 4072 L
4417 4036 mt 4417 4108 L
4869 3658 mt 4941 3658 L
4905 3622 mt 4905 3694 L
5002 3358 mt 5074 3358 L
5038 3322 mt 5038 3394 L
4472 2029 mt 4544 2029 L
4508 1993 mt 4508 2065 L
3661 3527 mt 3733 3527 L
3697 3491 mt 3697 3563 L
3347 3081 mt 3419 3081 L
3383 3045 mt 3383 3117 L
5024 3306 mt 5096 3306 L
5060 3270 mt 5060 3342 L
3745 2864 mt 3817 2864 L
3781 2828 mt 3781 2900 L
4775 2024 mt 4847 2024 L
4811 1988 mt 4811 2060 L
3516 2567 mt 3588 2567 L
3552 2531 mt 3552 2603 L
4002 1277 mt 4074 1277 L
4038 1241 mt 4038 1313 L
3261 2830 mt 3333 2830 L
3297 2794 mt 3297 2866 L
3432 2668 mt 3504 2668 L
3468 2632 mt 3468 2704 L
4206 2554 mt 4278 2554 L
4242 2518 mt 4242 2590 L
5828 2007 mt 5900 2007 L
5864 1971 mt 5864 2043 L
2689 2904 mt 2761 2904 L
2725 2868 mt 2725 2940 L
2615 1624 mt 2687 1624 L
2651 1588 mt 2651 1660 L
3278 2242 mt 3350 2242 L
3314 2206 mt 3314 2278 L
3387 2571 mt 3459 2571 L
3423 2535 mt 3423 2607 L
3104 2175 mt 3176 2175 L
3140 2139 mt 3140 2211 L
3196 2361 mt 3268 2361 L
3232 2325 mt 3232 2397 L
4060 3468 mt 4132 3468 L
4096 3432 mt 4096 3504 L
3809 3075 mt 3881 3075 L
3845 3039 mt 3845 3111 L
3110 3045 mt 3182 3045 L
3146 3009 mt 3146 3081 L
5122 3675 mt 5194 3675 L
5158 3639 mt 5158 3711 L
4074 1723 mt 4146 1723 L
4110 1687 mt 4110 1759 L
3078 3069 mt 3150 3069 L
3114 3033 mt 3114 3105 L
3867 1936 mt 3939 1936 L
3903 1900 mt 3903 1972 L
1991 2606 mt 2063 2606 L
2027 2570 mt 2027 2642 L
4961 3848 mt 5033 3848 L
4997 3812 mt 4997 3884 L
3342 2731 mt 3414 2731 L
3378 2695 mt 3378 2767 L
3220 2713 mt 3292 2713 L
3256 2677 mt 3256 2749 L
3762 2536 mt 3834 2536 L
3798 2500 mt 3798 2572 L
3952 2967 mt 4024 2967 L
3988 2931 mt 3988 3003 L
4941 3376 mt 5013 3376 L
4977 3340 mt 4977 3412 L
3226 3595 mt 3298 3595 L
3262 3559 mt 3262 3631 L
3454 2736 mt 3526 2736 L
3490 2700 mt 3490 2772 L
2565 3112 mt 2637 3112 L
2601 3076 mt 2601 3148 L
3129 2185 mt 3201 2185 L
3165 2149 mt 3165 2221 L
2821 1614 mt 2893 1614 L
2857 1578 mt 2857 1650 L
3147 3367 mt 3219 3367 L
3183 3331 mt 3183 3403 L
2420 3822 mt 2492 3822 L
2456 3786 mt 2456 3858 L
3370 3479 mt 3442 3479 L
3406 3443 mt 3406 3515 L
3711 1707 mt 3783 1707 L
3747 1671 mt 3747 1743 L
2545 2484 mt 2617 2484 L
2581 2448 mt 2581 2520 L
3020 2597 mt 3092 2597 L
3056 2561 mt 3056 2633 L
4542 2094 mt 4614 2094 L
4578 2058 mt 4578 2130 L
2312 3005 mt 2384 3005 L
2348 2969 mt 2348 3041 L
3040 2365 mt 3112 2365 L
3076 2329 mt 3076 2401 L
4407 2256 mt 4479 2256 L
4443 2220 mt 4443 2292 L
2844 2078 mt 2916 2078 L
2880 2042 mt 2880 2114 L
4221 1715 mt 4293 1715 L
4257 1679 mt 4257 1751 L
4425 3314 mt 4497 3314 L
4461 3278 mt 4461 3350 L
3243 2356 mt 3315 2356 L
3279 2320 mt 3279 2392 L
5413 3178 mt 5485 3178 L
5449 3142 mt 5449 3214 L
3443 2956 mt 3515 2956 L
3479 2920 mt 3479 2992 L
2016 1802 mt 2088 1802 L
2052 1766 mt 2052 1838 L
2851 2275 mt 2923 2275 L
2887 2239 mt 2887 2311 L
1674 4131 mt 1746 4131 L
1710 4095 mt 1710 4167 L
3774 2994 mt 3846 2994 L
3810 2958 mt 3810 3030 L
4034 2641 mt 4106 2641 L
4070 2605 mt 4070 2677 L
4121 2815 mt 4193 2815 L
4157 2779 mt 4157 2851 L
2813 3057 mt 2885 3057 L
2849 3021 mt 2849 3093 L
4619 2920 mt 4691 2920 L
4655 2884 mt 4655 2956 L
3477 2155 mt 3549 2155 L
3513 2119 mt 3513 2191 L
3706 2307 mt 3778 2307 L
3742 2271 mt 3742 2343 L
3672 1885 mt 3744 1885 L
3708 1849 mt 3708 1921 L
2866 3281 mt 2938 3281 L
2902 3245 mt 2902 3317 L
4852 2722 mt 4924 2722 L
4888 2686 mt 4888 2758 L
3302 2787 mt 3374 2787 L
3338 2751 mt 3338 2823 L
4170 3099 mt 4242 3099 L
4206 3063 mt 4206 3135 L
4482 3137 mt 4554 3137 L
4518 3101 mt 4518 3173 L
2368 2801 mt 2440 2801 L
2404 2765 mt 2404 2837 L
2251 2899 mt 2323 2899 L
2287 2863 mt 2287 2935 L
3616 3405 mt 3688 3405 L
3652 3369 mt 3652 3441 L
4282 2759 mt 4354 2759 L
4318 2723 mt 4318 2795 L
2805 3942 mt 2877 3942 L
2841 3906 mt 2841 3978 L
3996 3289 mt 4068 3289 L
4032 3253 mt 4032 3325 L
4107 2930 mt 4179 2930 L
4143 2894 mt 4143 2966 L
3313 3340 mt 3385 3340 L
3349 3304 mt 3349 3376 L
3610 2558 mt 3682 2558 L
3646 2522 mt 3646 2594 L
5700 2796 mt 5772 2796 L
5736 2760 mt 5736 2832 L
3066 2593 mt 3138 2593 L
3102 2557 mt 3102 2629 L
4298 3093 mt 4370 3093 L
4334 3057 mt 4334 3129 L
3449 2962 mt 3521 2962 L
3485 2926 mt 3485 2998 L
3734 3491 mt 3806 3491 L
3770 3455 mt 3770 3527 L
2910 1354 mt 2982 1354 L
2946 1318 mt 2946 1390 L
2973 1006 mt 3045 1006 L
3009  970 mt 3009 1042 L
2903 2475 mt 2975 2475 L
2939 2439 mt 2939 2511 L
1937 1756 mt 2009 1756 L
1973 1720 mt 1973 1792 L
4080 2686 mt 4152 2686 L
4116 2650 mt 4116 2722 L
3527 2528 mt 3599 2528 L
3563 2492 mt 3563 2564 L
3521 1514 mt 3593 1514 L
3557 1478 mt 3557 1550 L
3677 2180 mt 3749 2180 L
3713 2144 mt 3713 2216 L
3544 2493 mt 3616 2493 L
3580 2457 mt 3580 2529 L
2966 2392 mt 3038 2392 L
3002 2356 mt 3002 2428 L
2952 3106 mt 3024 3106 L
2988 3070 mt 2988 3142 L
4322 3395 mt 4394 3395 L
4358 3359 mt 4358 3431 L
3958 2204 mt 4030 2204 L
3994 2168 mt 3994 2240 L
3376 2120 mt 3448 2120 L
3412 2084 mt 3412 2156 L
2643 1995 mt 2715 1995 L
2679 1959 mt 2679 2031 L
3393 3641 mt 3465 3641 L
3429 3605 mt 3429 3677 L
2945 2854 mt 3017 2854 L
2981 2818 mt 2981 2890 L
3555 2279 mt 3627 2279 L
3591 2243 mt 3591 2315 L
gs 899 414 5363 4203 rc
gr

0 sg
2779 5104 mt 
(\(F,DCTs,GMM\)) s
 482 3269 mt  -90 rotate
(\(F,DCTs,MLP\)) s
90 rotate
2905  223 mt 
(Corr = -0.02) s

end %%Color Dict

eplot
%%EndObject

epage
end

showpage

%%Trailer
%%EOF
