%!PS-Adobe-3.0 EPSF-3.0
%%Creator: MATLAB, The Mathworks, Inc. Version 7.7.0.471 (R2008b). Operating System: Microsoft Windows XP.
%%Title: Pictures\main_zoo_mvar_analysis_data_BMI_xcorr_bmi_p1_k2_1_8.eps
%%CreationDate: 10/26/2009  05:44:17
%%DocumentNeededFonts: Helvetica
%%DocumentProcessColors: Cyan Magenta Yellow Black
%%LanguageLevel: 2
%%Pages: 1
%%BoundingBox:    32   180   546   616
%%EndComments

%%BeginProlog
% MathWorks dictionary
/MathWorks 160 dict begin
% definition operators
/bdef {bind def} bind def
/ldef {load def} bind def
/xdef {exch def} bdef
/xstore {exch store} bdef
% operator abbreviations
/c  /clip ldef
/cc /concat ldef
/cp /closepath ldef
/gr /grestore ldef
/gs /gsave ldef
/mt /moveto ldef
/np /newpath ldef
/cm /currentmatrix ldef
/sm /setmatrix ldef
/rm /rmoveto ldef
/rl /rlineto ldef
/s {show newpath} bdef
/sc {setcmykcolor} bdef
/sr /setrgbcolor ldef
/sg /setgray ldef
/w /setlinewidth ldef
/j /setlinejoin ldef
/cap /setlinecap ldef
/rc {rectclip} bdef
/rf {rectfill} bdef
% page state control
/pgsv () def
/bpage {/pgsv save def} bdef
/epage {pgsv restore} bdef
/bplot /gsave ldef
/eplot {stroke grestore} bdef
% orientation switch
/portraitMode 0 def /landscapeMode 1 def /rotateMode 2 def
% coordinate system mappings
/dpi2point 0 def
% font control
/FontSize 0 def
/FMS {/FontSize xstore findfont [FontSize 0 0 FontSize neg 0 0]
  makefont setfont} bdef
/ISOLatin1Encoding where {pop /WindowsLatin1Encoding 256 array bdef
ISOLatin1Encoding WindowsLatin1Encoding copy pop
/.notdef/.notdef/quotesinglbase/florin/quotedblbase/ellipsis/dagger
/daggerdbl/circumflex/perthousand/Scaron/guilsinglleft/OE/.notdef/.notdef
/.notdef/.notdef/quoteleft/quoteright/quotedblleft/quotedblright/bullet
/endash/emdash/tilde/trademark/scaron/guilsinglright/oe/.notdef/.notdef
/Ydieresis WindowsLatin1Encoding 128 32 getinterval astore pop}
{/WindowsLatin1Encoding StandardEncoding bdef} ifelse
/reencode {exch dup where {pop load} {pop StandardEncoding} ifelse
  exch dup 3 1 roll findfont dup length dict begin
  { 1 index /FID ne {def}{pop pop} ifelse } forall
  /Encoding exch def currentdict end definefont pop} bdef
/isroman {findfont /CharStrings get /Agrave known} bdef
/FMSR {3 1 roll 1 index dup isroman {reencode} {pop pop} ifelse
  exch FMS} bdef
/csm {1 dpi2point div -1 dpi2point div scale neg translate
 dup landscapeMode eq {pop -90 rotate}
  {rotateMode eq {90 rotate} if} ifelse} bdef
% line types: solid, dotted, dashed, dotdash
/SO { [] 0 setdash } bdef
/DO { [.5 dpi2point mul 4 dpi2point mul] 0 setdash } bdef
/DA { [6 dpi2point mul] 0 setdash } bdef
/DD { [.5 dpi2point mul 4 dpi2point mul 6 dpi2point mul 4
  dpi2point mul] 0 setdash } bdef
% macros for lines and objects
/L {lineto stroke} bdef
/MP {3 1 roll moveto 1 sub {rlineto} repeat} bdef
/AP {{rlineto} repeat} bdef
/PDlw -1 def
/W {/PDlw currentlinewidth def setlinewidth} def
/PP {closepath eofill} bdef
/DP {closepath stroke} bdef
/MR {4 -2 roll moveto dup  0 exch rlineto exch 0 rlineto
  neg 0 exch rlineto closepath} bdef
/FR {MR stroke} bdef
/PR {MR fill} bdef
/L1i {{currentfile picstr readhexstring pop} image} bdef
/tMatrix matrix def
/MakeOval {newpath tMatrix currentmatrix pop translate scale
0 0 1 0 360 arc tMatrix setmatrix} bdef
/FO {MakeOval stroke} bdef
/PO {MakeOval fill} bdef
/PD {currentlinewidth 2 div 0 360 arc fill
   PDlw -1 eq not {PDlw w /PDlw -1 def} if} def
/FA {newpath tMatrix currentmatrix pop translate scale
  0 0 1 5 -2 roll arc tMatrix setmatrix stroke} bdef
/PA {newpath tMatrix currentmatrix pop	translate 0 0 moveto scale
  0 0 1 5 -2 roll arc closepath tMatrix setmatrix fill} bdef
/FAn {newpath tMatrix currentmatrix pop translate scale
  0 0 1 5 -2 roll arcn tMatrix setmatrix stroke} bdef
/PAn {newpath tMatrix currentmatrix pop translate 0 0 moveto scale
  0 0 1 5 -2 roll arcn closepath tMatrix setmatrix fill} bdef
/vradius 0 def /hradius 0 def /lry 0 def
/lrx 0 def /uly 0 def /ulx 0 def /rad 0 def
/MRR {/vradius xdef /hradius xdef /lry xdef /lrx xdef /uly xdef
  /ulx xdef newpath tMatrix currentmatrix pop ulx hradius add uly
  vradius add translate hradius vradius scale 0 0 1 180 270 arc 
  tMatrix setmatrix lrx hradius sub uly vradius add translate
  hradius vradius scale 0 0 1 270 360 arc tMatrix setmatrix
  lrx hradius sub lry vradius sub translate hradius vradius scale
  0 0 1 0 90 arc tMatrix setmatrix ulx hradius add lry vradius sub
  translate hradius vradius scale 0 0 1 90 180 arc tMatrix setmatrix
  closepath} bdef
/FRR {MRR stroke } bdef
/PRR {MRR fill } bdef
/MlrRR {/lry xdef /lrx xdef /uly xdef /ulx xdef /rad lry uly sub 2 div def
  newpath tMatrix currentmatrix pop ulx rad add uly rad add translate
  rad rad scale 0 0 1 90 270 arc tMatrix setmatrix lrx rad sub lry rad
  sub translate rad rad scale 0 0 1 270 90 arc tMatrix setmatrix
  closepath} bdef
/FlrRR {MlrRR stroke } bdef
/PlrRR {MlrRR fill } bdef
/MtbRR {/lry xdef /lrx xdef /uly xdef /ulx xdef /rad lrx ulx sub 2 div def
  newpath tMatrix currentmatrix pop ulx rad add uly rad add translate
  rad rad scale 0 0 1 180 360 arc tMatrix setmatrix lrx rad sub lry rad
  sub translate rad rad scale 0 0 1 0 180 arc tMatrix setmatrix
  closepath} bdef
/FtbRR {MtbRR stroke } bdef
/PtbRR {MtbRR fill } bdef
/stri 6 array def /dtri 6 array def
/smat 6 array def /dmat 6 array def
/tmat1 6 array def /tmat2 6 array def /dif 3 array def
/asub {/ind2 exch def /ind1 exch def dup dup
  ind1 get exch ind2 get sub exch } bdef
/tri_to_matrix {
  2 0 asub 3 1 asub 4 0 asub 5 1 asub
  dup 0 get exch 1 get 7 -1 roll astore } bdef
/compute_transform {
  dmat dtri tri_to_matrix tmat1 invertmatrix 
  smat stri tri_to_matrix tmat2 concatmatrix } bdef
/ds {stri astore pop} bdef
/dt {dtri astore pop} bdef
/db {2 copy /cols xdef /rows xdef mul dup 3 mul string
  currentfile 
  3 index 0 eq {/ASCIIHexDecode filter}
  {/ASCII85Decode filter 3 index 2 eq {/RunLengthDecode filter} if }
  ifelse exch readstring pop
  dup 0 3 index getinterval /rbmap xdef
  dup 2 index dup getinterval /gbmap xdef
  1 index dup 2 mul exch getinterval /bbmap xdef pop pop}bdef
/it {gs np dtri aload pop moveto lineto lineto cp c
  cols rows 8 compute_transform 
  rbmap gbmap bbmap true 3 colorimage gr}bdef
/il {newpath moveto lineto stroke}bdef
currentdict end def
%%EndProlog

%%BeginSetup
MathWorks begin

0 cap

end
%%EndSetup

%%Page: 1 1
%%BeginPageSetup
%%PageBoundingBox:    32   180   546   616
MathWorks begin
bpage
%%EndPageSetup

%%BeginObject: obj1
bplot

/dpi2point 12 def
portraitMode 0216 7344 csm

  174   -48  6173  5231 rc
85 dict begin %Colortable dictionary
/c0 { 0.000000 0.000000 0.000000 sr} bdef
/c1 { 1.000000 1.000000 1.000000 sr} bdef
/c2 { 0.900000 0.000000 0.000000 sr} bdef
/c3 { 0.000000 0.820000 0.000000 sr} bdef
/c4 { 0.000000 0.000000 0.800000 sr} bdef
/c5 { 0.910000 0.820000 0.320000 sr} bdef
/c6 { 1.000000 0.260000 0.820000 sr} bdef
/c7 { 0.000000 0.820000 0.820000 sr} bdef
c0
1 j
1 sg
   0    0 6919 5187 rf
6 w
0 4202 5362 0 0 -4202 899 4616 4 MP
PP
-5362 0 0 4202 5362 0 0 -4202 899 4616 5 MP stroke
4 w
DO
SO
6 w
0 sg
 899  414 mt 6261  414 L
 899 4616 mt 6261 4616 L
6261 4616 mt 6261  414 L
 899 4616 mt  899  414 L
 899 4616 mt 6261 4616 L
 899 4616 mt  899  414 L
1971 4616 mt 1971 4562 L
1971  414 mt 1971  467 L
%%IncludeResource: font Helvetica
/Helvetica /WindowsLatin1Encoding 240 FMSR

1805 4873 mt 
(0.2) s
3043 4616 mt 3043 4562 L
3043  414 mt 3043  467 L
2877 4873 mt 
(0.4) s
4116 4616 mt 4116 4562 L
4116  414 mt 4116  467 L
3950 4873 mt 
(0.6) s
5188 4616 mt 5188 4562 L
5188  414 mt 5188  467 L
5022 4873 mt 
(0.8) s
 899 4196 mt  952 4196 L
6261 4196 mt 6207 4196 L
 531 4285 mt 
(0.1) s
 899 3775 mt  952 3775 L
6261 3775 mt 6207 3775 L
 531 3864 mt 
(0.2) s
 899 3355 mt  952 3355 L
6261 3355 mt 6207 3355 L
 531 3444 mt 
(0.3) s
 899 2935 mt  952 2935 L
6261 2935 mt 6207 2935 L
 531 3024 mt 
(0.4) s
 899 2515 mt  952 2515 L
6261 2515 mt 6207 2515 L
 531 2604 mt 
(0.5) s
 899 2094 mt  952 2094 L
6261 2094 mt 6207 2094 L
 531 2183 mt 
(0.6) s
 899 1674 mt  952 1674 L
6261 1674 mt 6207 1674 L
 531 1763 mt 
(0.7) s
 899 1254 mt  952 1254 L
6261 1254 mt 6207 1254 L
 531 1343 mt 
(0.8) s
 899  834 mt  952  834 L
6261  834 mt 6207  834 L
 531  923 mt 
(0.9) s
 899  414 mt 6261  414 L
 899 4616 mt 6261 4616 L
6261 4616 mt 6261  414 L
 899 4616 mt  899  414 L
gs 899 414 5363 4203 rc
gr

/c8 { 0.000000 0.000000 1.000000 sr} bdef
c8
5711  429 mt 5783  429 L
5747  393 mt 5747  465 L
6170  739 mt 6242  739 L
6206  703 mt 6206  775 L
1538  733 mt 1610  733 L
1574  697 mt 1574  769 L
1040 2347 mt 1112 2347 L
1076 2311 mt 1076 2383 L
5197  482 mt 5269  482 L
5233  446 mt 5233  518 L
1063  491 mt 1135  491 L
1099  455 mt 1099  527 L
 864 4196 mt  936 4196 L
 900 4160 mt  900 4232 L
5223 1144 mt 5295 1144 L
5259 1108 mt 5259 1180 L
5098 1143 mt 5170 1143 L
5134 1107 mt 5134 1179 L
6173  441 mt 6245  441 L
6209  405 mt 6209  477 L
1044 1779 mt 1116 1779 L
1080 1743 mt 1080 1815 L
4160 1087 mt 4232 1087 L
4196 1051 mt 4196 1123 L
6191 2545 mt 6263 2545 L
6227 2509 mt 6227 2581 L
3007  491 mt 3079  491 L
3043  455 mt 3043  527 L
6104 3384 mt 6176 3384 L
6140 3348 mt 6140 3420 L
3711 2936 mt 3783 2936 L
3747 2900 mt 3747 2972 L
4390  625 mt 4462  625 L
4426  589 mt 4426  661 L
5397 4613 mt 5469 4613 L
5433 4577 mt 5433 4649 L
6060 1745 mt 6132 1745 L
6096 1709 mt 6096 1781 L
4636 1570 mt 4708 1570 L
4672 1534 mt 4672 1606 L
1303 1291 mt 1375 1291 L
1339 1255 mt 1339 1327 L
5038 1351 mt 5110 1351 L
5074 1315 mt 5074 1387 L
1035  785 mt 1107  785 L
1071  749 mt 1071  821 L
1800 2731 mt 1872 2731 L
1836 2695 mt 1836 2767 L
5740 4226 mt 5812 4226 L
5776 4190 mt 5776 4262 L
3523 1410 mt 3595 1410 L
3559 1374 mt 3559 1446 L
1092 1610 mt 1164 1610 L
1128 1574 mt 1128 1646 L
4803 1792 mt 4875 1792 L
4839 1756 mt 4839 1828 L
4217  563 mt 4289  563 L
4253  527 mt 4253  599 L
5194  958 mt 5266  958 L
5230  922 mt 5230  994 L
 907 1892 mt  979 1892 L
 943 1856 mt  943 1928 L
2766  803 mt 2838  803 L
2802  767 mt 2802  839 L
 961 1537 mt 1033 1537 L
 997 1501 mt  997 1573 L
3180 4163 mt 3252 4163 L
3216 4127 mt 3216 4199 L
3180  738 mt 3252  738 L
3216  702 mt 3216  774 L
3852  494 mt 3924  494 L
3888  458 mt 3888  530 L
4663  724 mt 4735  724 L
4699  688 mt 4699  760 L
 940 4556 mt 1012 4556 L
 976 4520 mt  976 4592 L
2473 1037 mt 2545 1037 L
2509 1001 mt 2509 1073 L
2619  776 mt 2691  776 L
2655  740 mt 2655  812 L
3905 1035 mt 3977 1035 L
3941  999 mt 3941 1071 L
5778  538 mt 5850  538 L
5814  502 mt 5814  574 L
6222 1244 mt 6294 1244 L
6258 1208 mt 6258 1280 L
4214 1453 mt 4286 1453 L
4250 1417 mt 4250 1489 L
6050 4295 mt 6122 4295 L
6086 4259 mt 6086 4331 L
3498 4404 mt 3570 4404 L
3534 4368 mt 3534 4440 L
2940 1618 mt 3012 1618 L
2976 1582 mt 2976 1654 L
5549 1782 mt 5621 1782 L
5585 1746 mt 5585 1818 L
1041 3036 mt 1113 3036 L
1077 3000 mt 1077 3072 L
5607 4489 mt 5679 4489 L
5643 4453 mt 5643 4525 L
1610 2519 mt 1682 2519 L
1646 2483 mt 1646 2555 L
4620  475 mt 4692  475 L
4656  439 mt 4656  511 L
4842 2761 mt 4914 2761 L
4878 2725 mt 4878 2797 L
5380  777 mt 5452  777 L
5416  741 mt 5416  813 L
4579 1672 mt 4651 1672 L
4615 1636 mt 4615 1708 L
4239 1778 mt 4311 1778 L
4275 1742 mt 4275 1814 L
2372 4135 mt 2444 4135 L
2408 4099 mt 2408 4171 L
5971  700 mt 6043  700 L
6007  664 mt 6007  736 L
1830 2195 mt 1902 2195 L
1866 2159 mt 1866 2231 L
5677 1677 mt 5749 1677 L
5713 1641 mt 5713 1713 L
2918 4032 mt 2990 4032 L
2954 3996 mt 2954 4068 L
 927 4348 mt  999 4348 L
 963 4312 mt  963 4384 L
3256  722 mt 3328  722 L
3292  686 mt 3292  758 L
6194 1793 mt 6266 1793 L
6230 1757 mt 6230 1829 L
5370  417 mt 5442  417 L
5406  381 mt 5406  453 L
5131 3606 mt 5203 3606 L
5167 3570 mt 5167 3642 L
3962 1864 mt 4034 1864 L
3998 1828 mt 3998 1900 L
2036 3180 mt 2108 3180 L
2072 3144 mt 2072 3216 L
5446  809 mt 5518  809 L
5482  773 mt 5482  845 L
 971  810 mt 1043  810 L
1007  774 mt 1007  846 L
1359  958 mt 1431  958 L
1395  922 mt 1395  994 L
6163  665 mt 6235  665 L
6199  629 mt 6199  701 L
5817 3444 mt 5889 3444 L
5853 3408 mt 5853 3480 L
1293  421 mt 1365  421 L
1329  385 mt 1329  457 L
 863  647 mt  935  647 L
 899  611 mt  899  683 L
2723 2699 mt 2795 2699 L
2759 2663 mt 2759 2735 L
6008 1019 mt 6080 1019 L
6044  983 mt 6044 1055 L
1168 1161 mt 1240 1161 L
1204 1125 mt 1204 1197 L
1296  590 mt 1368  590 L
1332  554 mt 1332  626 L
5794 1639 mt 5866 1639 L
5830 1603 mt 5830 1675 L
3873  451 mt 3945  451 L
3909  415 mt 3909  487 L
2098 1381 mt 2170 1381 L
2134 1345 mt 2134 1417 L
5464 2457 mt 5536 2457 L
5500 2421 mt 5500 2493 L
4624 1091 mt 4696 1091 L
4660 1055 mt 4660 1127 L
5846 3524 mt 5918 3524 L
5882 3488 mt 5882 3560 L
5544 3804 mt 5616 3804 L
5580 3768 mt 5580 3840 L
3068  482 mt 3140  482 L
3104  446 mt 3104  518 L
2757 4563 mt 2829 4563 L
2793 4527 mt 2793 4599 L
5227 1250 mt 5299 1250 L
5263 1214 mt 5263 1286 L
1016  415 mt 1088  415 L
1052  379 mt 1052  451 L
2792 2457 mt 2864 2457 L
2828 2421 mt 2828 2493 L
6062 3466 mt 6134 3466 L
6098 3430 mt 6098 3502 L
1838  657 mt 1910  657 L
1874  621 mt 1874  693 L
 993 2121 mt 1065 2121 L
1029 2085 mt 1029 2157 L
2582 3978 mt 2654 3978 L
2618 3942 mt 2618 4014 L
 963 4109 mt 1035 4109 L
 999 4073 mt  999 4145 L
5110 2495 mt 5182 2495 L
5146 2459 mt 5146 2531 L
4747  502 mt 4819  502 L
4783  466 mt 4783  538 L
1945 4597 mt 2017 4597 L
1981 4561 mt 1981 4633 L
 945 2241 mt 1017 2241 L
 981 2205 mt  981 2277 L
5880  748 mt 5952  748 L
5916  712 mt 5916  784 L
1619 1971 mt 1691 1971 L
1655 1935 mt 1655 2007 L
2589 3957 mt 2661 3957 L
2625 3921 mt 2625 3993 L
 894 3588 mt  966 3588 L
 930 3552 mt  930 3624 L
 927 4044 mt  999 4044 L
 963 4008 mt  963 4080 L
1550 1029 mt 1622 1029 L
1586  993 mt 1586 1065 L
4091 3080 mt 4163 3080 L
4127 3044 mt 4127 3116 L
1660 1977 mt 1732 1977 L
1696 1941 mt 1696 2013 L
 925 1572 mt  997 1572 L
 961 1536 mt  961 1608 L
3721 1024 mt 3793 1024 L
3757  988 mt 3757 1060 L
4849 1384 mt 4921 1384 L
4885 1348 mt 4885 1420 L
2299 2775 mt 2371 2775 L
2335 2739 mt 2335 2811 L
 950 3076 mt 1022 3076 L
 986 3040 mt  986 3112 L
6207 4615 mt 6279 4615 L
6243 4579 mt 6243 4651 L
1040 2556 mt 1112 2556 L
1076 2520 mt 1076 2592 L
5206 2035 mt 5278 2035 L
5242 1999 mt 5242 2071 L
3564  555 mt 3636  555 L
3600  519 mt 3600  591 L
1046 4517 mt 1118 4517 L
1082 4481 mt 1082 4553 L
2161 4059 mt 2233 4059 L
2197 4023 mt 2197 4095 L
 864 4609 mt  936 4609 L
 900 4573 mt  900 4645 L
4474 1439 mt 4546 1439 L
4510 1403 mt 4510 1475 L
5970  588 mt 6042  588 L
6006  552 mt 6006  624 L
5201 1424 mt 5273 1424 L
5237 1388 mt 5237 1460 L
4632 3935 mt 4704 3935 L
4668 3899 mt 4668 3971 L
 880  618 mt  952  618 L
 916  582 mt  916  654 L
5709  514 mt 5781  514 L
5745  478 mt 5745  550 L
 886 4582 mt  958 4582 L
 922 4546 mt  922 4618 L
1401 2482 mt 1473 2482 L
1437 2446 mt 1437 2518 L
2622  590 mt 2694  590 L
2658  554 mt 2658  626 L
1799 3790 mt 1871 3790 L
1835 3754 mt 1835 3826 L
6022 3690 mt 6094 3690 L
6058 3654 mt 6058 3726 L
5965 2795 mt 6037 2795 L
6001 2759 mt 6001 2831 L
3854 1933 mt 3926 1933 L
3890 1897 mt 3890 1969 L
2904 1804 mt 2976 1804 L
2940 1768 mt 2940 1840 L
1900 2363 mt 1972 2363 L
1936 2327 mt 1936 2399 L
3761 3405 mt 3833 3405 L
3797 3369 mt 3797 3441 L
1620 2161 mt 1692 2161 L
1656 2125 mt 1656 2197 L
6163  651 mt 6235  651 L
6199  615 mt 6199  687 L
1867 3036 mt 1939 3036 L
1903 3000 mt 1903 3072 L
4826 3955 mt 4898 3955 L
4862 3919 mt 4862 3991 L
5360 3581 mt 5432 3581 L
5396 3545 mt 5396 3617 L
5983 1273 mt 6055 1273 L
6019 1237 mt 6019 1309 L
1376 3824 mt 1448 3824 L
1412 3788 mt 1412 3860 L
2127 2548 mt 2199 2548 L
2163 2512 mt 2163 2584 L
5120  535 mt 5192  535 L
5156  499 mt 5156  571 L
5697 1576 mt 5769 1576 L
5733 1540 mt 5733 1612 L
 884 1395 mt  956 1395 L
 920 1359 mt  920 1431 L
 863  445 mt  935  445 L
 899  409 mt  899  481 L
2436 4579 mt 2508 4579 L
2472 4543 mt 2472 4615 L
3379  659 mt 3451  659 L
3415  623 mt 3415  695 L
 908 1692 mt  980 1692 L
 944 1656 mt  944 1728 L
5547 4390 mt 5619 4390 L
5583 4354 mt 5583 4426 L
1101 2609 mt 1173 2609 L
1137 2573 mt 1137 2645 L
1354 1232 mt 1426 1232 L
1390 1196 mt 1390 1268 L
4585 2577 mt 4657 2577 L
4621 2541 mt 4621 2613 L
 990 4312 mt 1062 4312 L
1026 4276 mt 1026 4348 L
3519  524 mt 3591  524 L
3555  488 mt 3555  560 L
6111 3403 mt 6183 3403 L
6147 3367 mt 6147 3439 L
1164  617 mt 1236  617 L
1200  581 mt 1200  653 L
6060 4224 mt 6132 4224 L
6096 4188 mt 6096 4260 L
4165 3100 mt 4237 3100 L
4201 3064 mt 4201 3136 L
1343 4568 mt 1415 4568 L
1379 4532 mt 1379 4604 L
1653 1746 mt 1725 1746 L
1689 1710 mt 1689 1782 L
5704 1345 mt 5776 1345 L
5740 1309 mt 5740 1381 L
3663 2691 mt 3735 2691 L
3699 2655 mt 3699 2727 L
1001 3474 mt 1073 3474 L
1037 3438 mt 1037 3510 L
1288 2315 mt 1360 2315 L
1324 2279 mt 1324 2351 L
6194 4616 mt 6266 4616 L
6230 4580 mt 6230 4652 L
1350 2454 mt 1422 2454 L
1386 2418 mt 1386 2490 L
5870 1314 mt 5942 1314 L
5906 1278 mt 5906 1350 L
2321 1048 mt 2393 1048 L
2357 1012 mt 2357 1084 L
3693  674 mt 3765  674 L
3729  638 mt 3729  710 L
1161 4069 mt 1233 4069 L
1197 4033 mt 1197 4105 L
3572 1348 mt 3644 1348 L
3608 1312 mt 3608 1384 L
5169 4091 mt 5241 4091 L
5205 4055 mt 5205 4127 L
2340  865 mt 2412  865 L
2376  829 mt 2376  901 L
4999 1603 mt 5071 1603 L
5035 1567 mt 5035 1639 L
5649 3254 mt 5721 3254 L
5685 3218 mt 5685 3290 L
2013  924 mt 2085  924 L
2049  888 mt 2049  960 L
2820  645 mt 2892  645 L
2856  609 mt 2856  681 L
1411 3490 mt 1483 3490 L
1447 3454 mt 1447 3526 L
5571 3663 mt 5643 3663 L
5607 3627 mt 5607 3699 L
2520  509 mt 2592  509 L
2556  473 mt 2556  545 L
1254  843 mt 1326  843 L
1290  807 mt 1290  879 L
6065 4322 mt 6137 4322 L
6101 4286 mt 6101 4358 L
1035  616 mt 1107  616 L
1071  580 mt 1071  652 L
6154 1435 mt 6226 1435 L
6190 1399 mt 6190 1471 L
2914  551 mt 2986  551 L
2950  515 mt 2950  587 L
6111 4579 mt 6183 4579 L
6147 4543 mt 6147 4615 L
5448  451 mt 5520  451 L
5484  415 mt 5484  487 L
2307  473 mt 2379  473 L
2343  437 mt 2343  509 L
5109 2685 mt 5181 2685 L
5145 2649 mt 5145 2721 L
6215 1253 mt 6287 1253 L
6251 1217 mt 6251 1289 L
6211  724 mt 6283  724 L
6247  688 mt 6247  760 L
3874  486 mt 3946  486 L
3910  450 mt 3910  522 L
 868  668 mt  940  668 L
 904  632 mt  904  704 L
5426 3777 mt 5498 3777 L
5462 3741 mt 5462 3813 L
4968 1613 mt 5040 1613 L
5004 1577 mt 5004 1649 L
4738 4329 mt 4810 4329 L
4774 4293 mt 4774 4365 L
4677  949 mt 4749  949 L
4713  913 mt 4713  985 L
6199  418 mt 6271  418 L
6235  382 mt 6235  454 L
4534  543 mt 4606  543 L
4570  507 mt 4570  579 L
6218  879 mt 6290  879 L
6254  843 mt 6254  915 L
3364 4024 mt 3436 4024 L
3400 3988 mt 3400 4060 L
3515  743 mt 3587  743 L
3551  707 mt 3551  779 L
6171 1755 mt 6243 1755 L
6207 1719 mt 6207 1791 L
6219 3760 mt 6291 3760 L
6255 3724 mt 6255 3796 L
5635  741 mt 5707  741 L
5671  705 mt 5671  777 L
1420  671 mt 1492  671 L
1456  635 mt 1456  707 L
1553 4252 mt 1625 4252 L
1589 4216 mt 1589 4288 L
2432  422 mt 2504  422 L
2468  386 mt 2468  458 L
6219 1176 mt 6291 1176 L
6255 1140 mt 6255 1212 L
5620  661 mt 5692  661 L
5656  625 mt 5656  697 L
3007 3652 mt 3079 3652 L
3043 3616 mt 3043 3688 L
 868 1468 mt  940 1468 L
 904 1432 mt  904 1504 L
6010  649 mt 6082  649 L
6046  613 mt 6046  685 L
5291  600 mt 5363  600 L
5327  564 mt 5327  636 L
6203 1201 mt 6275 1201 L
6239 1165 mt 6239 1237 L
6217 1668 mt 6289 1668 L
6253 1632 mt 6253 1704 L
4887 2096 mt 4959 2096 L
4923 2060 mt 4923 2132 L
1903 3229 mt 1975 3229 L
1939 3193 mt 1939 3265 L
1555 3622 mt 1627 3622 L
1591 3586 mt 1591 3658 L
5063 2713 mt 5135 2713 L
5099 2677 mt 5099 2749 L
 886 4549 mt  958 4549 L
 922 4513 mt  922 4585 L
6216 2132 mt 6288 2132 L
6252 2096 mt 6252 2168 L
2994 1453 mt 3066 1453 L
3030 1417 mt 3030 1489 L
2114 4004 mt 2186 4004 L
2150 3968 mt 2150 4040 L
2705 2252 mt 2777 2252 L
2741 2216 mt 2741 2288 L
5541  423 mt 5613  423 L
5577  387 mt 5577  459 L
6220  436 mt 6292  436 L
6256  400 mt 6256  472 L
3137 4615 mt 3209 4615 L
3173 4579 mt 3173 4651 L
2672 4459 mt 2744 4459 L
2708 4423 mt 2708 4495 L
4751 4610 mt 4823 4610 L
4787 4574 mt 4787 4646 L
4823  914 mt 4895  914 L
4859  878 mt 4859  950 L
 868  445 mt  940  445 L
 904  409 mt  904  481 L
5351 4612 mt 5423 4612 L
5387 4576 mt 5387 4648 L
4878 3887 mt 4950 3887 L
4914 3851 mt 4914 3923 L
1311  905 mt 1383  905 L
1347  869 mt 1347  941 L
6144 2060 mt 6216 2060 L
6180 2024 mt 6180 2096 L
3948 1135 mt 4020 1135 L
3984 1099 mt 3984 1171 L
6209 2873 mt 6281 2873 L
6245 2837 mt 6245 2909 L
6203 2491 mt 6275 2491 L
6239 2455 mt 6239 2527 L
6224  748 mt 6296  748 L
6260  712 mt 6260  784 L
5930 2120 mt 6002 2120 L
5966 2084 mt 5966 2156 L
6200  946 mt 6272  946 L
6236  910 mt 6236  982 L
4633 2838 mt 4705 2838 L
4669 2802 mt 4669 2874 L
3165 1000 mt 3237 1000 L
3201  964 mt 3201 1036 L
1836  653 mt 1908  653 L
1872  617 mt 1872  689 L
 865 1187 mt  937 1187 L
 901 1151 mt  901 1223 L
1071 2688 mt 1143 2688 L
1107 2652 mt 1107 2724 L
1432 3493 mt 1504 3493 L
1468 3457 mt 1468 3529 L
1019  522 mt 1091  522 L
1055  486 mt 1055  558 L
1868  418 mt 1940  418 L
1904  382 mt 1904  454 L
6095 4613 mt 6167 4613 L
6131 4577 mt 6131 4649 L
2806 2156 mt 2878 2156 L
2842 2120 mt 2842 2192 L
6162 4434 mt 6234 4434 L
6198 4398 mt 6198 4470 L
5857  955 mt 5929  955 L
5893  919 mt 5893  991 L
4893 1950 mt 4965 1950 L
4929 1914 mt 4929 1986 L
5374  442 mt 5446  442 L
5410  406 mt 5410  478 L
3029  751 mt 3101  751 L
3065  715 mt 3065  787 L
4505 4074 mt 4577 4074 L
4541 4038 mt 4541 4110 L
6133 4107 mt 6205 4107 L
6169 4071 mt 6169 4143 L
 871 4587 mt  943 4587 L
 907 4551 mt  907 4623 L
5645 4537 mt 5717 4537 L
5681 4501 mt 5681 4573 L
 872  608 mt  944  608 L
 908  572 mt  908  644 L
3303 1623 mt 3375 1623 L
3339 1587 mt 3339 1659 L
5829 3882 mt 5901 3882 L
5865 3846 mt 5865 3918 L
2408  416 mt 2480  416 L
2444  380 mt 2444  452 L
 937 1129 mt 1009 1129 L
 973 1093 mt  973 1165 L
1857 1336 mt 1929 1336 L
1893 1300 mt 1893 1372 L
5713 2299 mt 5785 2299 L
5749 2263 mt 5749 2335 L
5058  464 mt 5130  464 L
5094  428 mt 5094  500 L
6215 3707 mt 6287 3707 L
6251 3671 mt 6251 3743 L
1590 3507 mt 1662 3507 L
1626 3471 mt 1626 3543 L
2387  496 mt 2459  496 L
2423  460 mt 2423  532 L
1694  455 mt 1766  455 L
1730  419 mt 1730  491 L
6060  548 mt 6132  548 L
6096  512 mt 6096  584 L
 958 3035 mt 1030 3035 L
 994 2999 mt  994 3071 L
1972 1372 mt 2044 1372 L
2008 1336 mt 2008 1408 L
4628  678 mt 4700  678 L
4664  642 mt 4664  714 L
6219 2199 mt 6291 2199 L
6255 2163 mt 6255 2235 L
 905  451 mt  977  451 L
 941  415 mt  941  487 L
6220 3892 mt 6292 3892 L
6256 3856 mt 6256 3928 L
4119 2268 mt 4191 2268 L
4155 2232 mt 4155 2304 L
6208 4358 mt 6280 4358 L
6244 4322 mt 6244 4394 L
 983  418 mt 1055  418 L
1019  382 mt 1019  454 L
1296 1875 mt 1368 1875 L
1332 1839 mt 1332 1911 L
5900 4604 mt 5972 4604 L
5936 4568 mt 5936 4640 L
3116 2168 mt 3188 2168 L
3152 2132 mt 3152 2204 L
3875  414 mt 3947  414 L
3911  378 mt 3911  450 L
4310 4542 mt 4382 4542 L
4346 4506 mt 4346 4578 L
6154 3933 mt 6226 3933 L
6190 3897 mt 6190 3969 L
 934  937 mt 1006  937 L
 970  901 mt  970  973 L
 864 4300 mt  936 4300 L
 900 4264 mt  900 4336 L
2890 4226 mt 2962 4226 L
2926 4190 mt 2926 4262 L
5334 3662 mt 5406 3662 L
5370 3626 mt 5370 3698 L
6225 2922 mt 6297 2922 L
6261 2886 mt 6261 2958 L
3531  859 mt 3603  859 L
3567  823 mt 3567  895 L
1039  563 mt 1111  563 L
1075  527 mt 1075  599 L
4377 2981 mt 4449 2981 L
4413 2945 mt 4413 3017 L
5340 1377 mt 5412 1377 L
5376 1341 mt 5376 1413 L
6201  459 mt 6273  459 L
6237  423 mt 6237  495 L
5565 2027 mt 5637 2027 L
5601 1991 mt 5601 2063 L
3411 3953 mt 3483 3953 L
3447 3917 mt 3447 3989 L
3161 1628 mt 3233 1628 L
3197 1592 mt 3197 1664 L
 878 3470 mt  950 3470 L
 914 3434 mt  914 3506 L
5914 4099 mt 5986 4099 L
5950 4063 mt 5950 4135 L
6210 3894 mt 6282 3894 L
6246 3858 mt 6246 3930 L
5595 3292 mt 5667 3292 L
5631 3256 mt 5631 3328 L
5872 4551 mt 5944 4551 L
5908 4515 mt 5908 4587 L
5977 1143 mt 6049 1143 L
6013 1107 mt 6013 1179 L
1058 3965 mt 1130 3965 L
1094 3929 mt 1094 4001 L
2517 3588 mt 2589 3588 L
2553 3552 mt 2553 3624 L
1669  953 mt 1741  953 L
1705  917 mt 1705  989 L
1300 1138 mt 1372 1138 L
1336 1102 mt 1336 1174 L
 994 4608 mt 1066 4608 L
1030 4572 mt 1030 4644 L
5951  899 mt 6023  899 L
5987  863 mt 5987  935 L
4182 3405 mt 4254 3405 L
4218 3369 mt 4218 3441 L
6087 4558 mt 6159 4558 L
6123 4522 mt 6123 4594 L
2531  900 mt 2603  900 L
2567  864 mt 2567  936 L
6028  850 mt 6100  850 L
6064  814 mt 6064  886 L
3230 4612 mt 3302 4612 L
3266 4576 mt 3266 4648 L
2897 4234 mt 2969 4234 L
2933 4198 mt 2933 4270 L
5995  456 mt 6067  456 L
6031  420 mt 6031  492 L
1654 2280 mt 1726 2280 L
1690 2244 mt 1690 2316 L
2390  629 mt 2462  629 L
2426  593 mt 2426  665 L
5265 2725 mt 5337 2725 L
5301 2689 mt 5301 2761 L
6085 4584 mt 6157 4584 L
6121 4548 mt 6121 4620 L
4089 4591 mt 4161 4591 L
4125 4555 mt 4125 4627 L
1640 3495 mt 1712 3495 L
1676 3459 mt 1676 3531 L
6126  791 mt 6198  791 L
6162  755 mt 6162  827 L
1656 2942 mt 1728 2942 L
1692 2906 mt 1692 2978 L
6223  471 mt 6295  471 L
6259  435 mt 6259  507 L
 958 2642 mt 1030 2642 L
 994 2606 mt  994 2678 L
4403 4512 mt 4475 4512 L
4439 4476 mt 4439 4548 L
5060 4591 mt 5132 4591 L
5096 4555 mt 5096 4627 L
3554 4382 mt 3626 4382 L
3590 4346 mt 3590 4418 L
6207  674 mt 6279  674 L
6243  638 mt 6243  710 L
4275 3321 mt 4347 3321 L
4311 3285 mt 4311 3357 L
3907  821 mt 3979  821 L
3943  785 mt 3943  857 L
6212 3097 mt 6284 3097 L
6248 3061 mt 6248 3133 L
6184 2094 mt 6256 2094 L
6220 2058 mt 6220 2130 L
4648  432 mt 4720  432 L
4684  396 mt 4684  468 L
1181 4435 mt 1253 4435 L
1217 4399 mt 1217 4471 L
5602 1670 mt 5674 1670 L
5638 1634 mt 5638 1706 L
5478 2851 mt 5550 2851 L
5514 2815 mt 5514 2887 L
 912  615 mt  984  615 L
 948  579 mt  948  651 L
1285  433 mt 1357  433 L
1321  397 mt 1321  469 L
3357 4525 mt 3429 4525 L
3393 4489 mt 3393 4561 L
2314 3832 mt 2386 3832 L
2350 3796 mt 2350 3868 L
 883  958 mt  955  958 L
 919  922 mt  919  994 L
3368 3877 mt 3440 3877 L
3404 3841 mt 3404 3913 L
 863 1496 mt  935 1496 L
 899 1460 mt  899 1532 L
1180  685 mt 1252  685 L
1216  649 mt 1216  721 L
1996  414 mt 2068  414 L
2032  378 mt 2032  450 L
5320 3590 mt 5392 3590 L
5356 3554 mt 5356 3626 L
3854 4479 mt 3926 4479 L
3890 4443 mt 3890 4515 L
3447 3094 mt 3519 3094 L
3483 3058 mt 3483 3130 L
2063 4226 mt 2135 4226 L
2099 4190 mt 2099 4262 L
2549 4529 mt 2621 4529 L
2585 4493 mt 2585 4565 L
5963  614 mt 6035  614 L
5999  578 mt 5999  650 L
6088 2091 mt 6160 2091 L
6124 2055 mt 6124 2127 L
 874 1313 mt  946 1313 L
 910 1277 mt  910 1349 L
5992  511 mt 6064  511 L
6028  475 mt 6028  547 L
6165 4215 mt 6237 4215 L
6201 4179 mt 6201 4251 L
5655 4431 mt 5727 4431 L
5691 4395 mt 5691 4467 L
4838 2165 mt 4910 2165 L
4874 2129 mt 4874 2201 L
2987 3346 mt 3059 3346 L
3023 3310 mt 3023 3382 L
5000  425 mt 5072  425 L
5036  389 mt 5036  461 L
1158  674 mt 1230  674 L
1194  638 mt 1194  710 L
4696 4108 mt 4768 4108 L
4732 4072 mt 4732 4144 L
6111 1769 mt 6183 1769 L
6147 1733 mt 6147 1805 L
2117 2951 mt 2189 2951 L
2153 2915 mt 2153 2987 L
3816  469 mt 3888  469 L
3852  433 mt 3852  505 L
1031 1547 mt 1103 1547 L
1067 1511 mt 1067 1583 L
1678  469 mt 1750  469 L
1714  433 mt 1714  505 L
1109 3559 mt 1181 3559 L
1145 3523 mt 1145 3595 L
5449 2352 mt 5521 2352 L
5485 2316 mt 5485 2388 L
2743 2846 mt 2815 2846 L
2779 2810 mt 2779 2882 L
1423 2393 mt 1495 2393 L
1459 2357 mt 1459 2429 L
 895 2522 mt  967 2522 L
 931 2486 mt  931 2558 L
2558 1810 mt 2630 1810 L
2594 1774 mt 2594 1846 L
1890 1641 mt 1962 1641 L
1926 1605 mt 1926 1677 L
6181 2194 mt 6253 2194 L
6217 2158 mt 6217 2230 L
1517 2220 mt 1589 2220 L
1553 2184 mt 1553 2256 L
5965 3999 mt 6037 3999 L
6001 3963 mt 6001 4035 L
4160 3925 mt 4232 3925 L
4196 3889 mt 4196 3961 L
 950 4394 mt 1022 4394 L
 986 4358 mt  986 4430 L
3380 3142 mt 3452 3142 L
3416 3106 mt 3416 3178 L
2078  544 mt 2150  544 L
2114  508 mt 2114  580 L
2784 1710 mt 2856 1710 L
2820 1674 mt 2820 1746 L
6204 4606 mt 6276 4606 L
6240 4570 mt 6240 4642 L
4614 2675 mt 4686 2675 L
4650 2639 mt 4650 2711 L
5439  416 mt 5511  416 L
5475  380 mt 5475  452 L
6202 3628 mt 6274 3628 L
6238 3592 mt 6238 3664 L
2007  415 mt 2079  415 L
2043  379 mt 2043  451 L
5910 2362 mt 5982 2362 L
5946 2326 mt 5946 2398 L
 912  510 mt  984  510 L
 948  474 mt  948  546 L
6223 3085 mt 6295 3085 L
6259 3049 mt 6259 3121 L
6171  546 mt 6243  546 L
6207  510 mt 6207  582 L
gs 899 414 5363 4203 rc
gr

0 sg
2779 5104 mt 
(\(F,DCTs,GMM\)) s
 422 3259 mt  -90 rotate
(\(S,PAC,GMM\)) s
90 rotate
2905  223 mt 
(Corr = -0.04) s

end %%Color Dict

eplot
%%EndObject

epage
end

showpage

%%Trailer
%%EOF
