%!PS-Adobe-3.0 EPSF-3.0
%%Creator: MATLAB, The Mathworks, Inc. Version 7.7.0.471 (R2008b). Operating System: Microsoft Windows XP.
%%Title: Pictures\main_zoo_mvar_analysis_data_BMI_xcorr_bmi_p1_k1_7_9.eps
%%CreationDate: 10/26/2009  05:44:12
%%DocumentNeededFonts: Helvetica
%%DocumentProcessColors: Cyan Magenta Yellow Black
%%LanguageLevel: 2
%%Pages: 1
%%BoundingBox:    21   180   548   616
%%EndComments

%%BeginProlog
% MathWorks dictionary
/MathWorks 160 dict begin
% definition operators
/bdef {bind def} bind def
/ldef {load def} bind def
/xdef {exch def} bdef
/xstore {exch store} bdef
% operator abbreviations
/c  /clip ldef
/cc /concat ldef
/cp /closepath ldef
/gr /grestore ldef
/gs /gsave ldef
/mt /moveto ldef
/np /newpath ldef
/cm /currentmatrix ldef
/sm /setmatrix ldef
/rm /rmoveto ldef
/rl /rlineto ldef
/s {show newpath} bdef
/sc {setcmykcolor} bdef
/sr /setrgbcolor ldef
/sg /setgray ldef
/w /setlinewidth ldef
/j /setlinejoin ldef
/cap /setlinecap ldef
/rc {rectclip} bdef
/rf {rectfill} bdef
% page state control
/pgsv () def
/bpage {/pgsv save def} bdef
/epage {pgsv restore} bdef
/bplot /gsave ldef
/eplot {stroke grestore} bdef
% orientation switch
/portraitMode 0 def /landscapeMode 1 def /rotateMode 2 def
% coordinate system mappings
/dpi2point 0 def
% font control
/FontSize 0 def
/FMS {/FontSize xstore findfont [FontSize 0 0 FontSize neg 0 0]
  makefont setfont} bdef
/ISOLatin1Encoding where {pop /WindowsLatin1Encoding 256 array bdef
ISOLatin1Encoding WindowsLatin1Encoding copy pop
/.notdef/.notdef/quotesinglbase/florin/quotedblbase/ellipsis/dagger
/daggerdbl/circumflex/perthousand/Scaron/guilsinglleft/OE/.notdef/.notdef
/.notdef/.notdef/quoteleft/quoteright/quotedblleft/quotedblright/bullet
/endash/emdash/tilde/trademark/scaron/guilsinglright/oe/.notdef/.notdef
/Ydieresis WindowsLatin1Encoding 128 32 getinterval astore pop}
{/WindowsLatin1Encoding StandardEncoding bdef} ifelse
/reencode {exch dup where {pop load} {pop StandardEncoding} ifelse
  exch dup 3 1 roll findfont dup length dict begin
  { 1 index /FID ne {def}{pop pop} ifelse } forall
  /Encoding exch def currentdict end definefont pop} bdef
/isroman {findfont /CharStrings get /Agrave known} bdef
/FMSR {3 1 roll 1 index dup isroman {reencode} {pop pop} ifelse
  exch FMS} bdef
/csm {1 dpi2point div -1 dpi2point div scale neg translate
 dup landscapeMode eq {pop -90 rotate}
  {rotateMode eq {90 rotate} if} ifelse} bdef
% line types: solid, dotted, dashed, dotdash
/SO { [] 0 setdash } bdef
/DO { [.5 dpi2point mul 4 dpi2point mul] 0 setdash } bdef
/DA { [6 dpi2point mul] 0 setdash } bdef
/DD { [.5 dpi2point mul 4 dpi2point mul 6 dpi2point mul 4
  dpi2point mul] 0 setdash } bdef
% macros for lines and objects
/L {lineto stroke} bdef
/MP {3 1 roll moveto 1 sub {rlineto} repeat} bdef
/AP {{rlineto} repeat} bdef
/PDlw -1 def
/W {/PDlw currentlinewidth def setlinewidth} def
/PP {closepath eofill} bdef
/DP {closepath stroke} bdef
/MR {4 -2 roll moveto dup  0 exch rlineto exch 0 rlineto
  neg 0 exch rlineto closepath} bdef
/FR {MR stroke} bdef
/PR {MR fill} bdef
/L1i {{currentfile picstr readhexstring pop} image} bdef
/tMatrix matrix def
/MakeOval {newpath tMatrix currentmatrix pop translate scale
0 0 1 0 360 arc tMatrix setmatrix} bdef
/FO {MakeOval stroke} bdef
/PO {MakeOval fill} bdef
/PD {currentlinewidth 2 div 0 360 arc fill
   PDlw -1 eq not {PDlw w /PDlw -1 def} if} def
/FA {newpath tMatrix currentmatrix pop translate scale
  0 0 1 5 -2 roll arc tMatrix setmatrix stroke} bdef
/PA {newpath tMatrix currentmatrix pop	translate 0 0 moveto scale
  0 0 1 5 -2 roll arc closepath tMatrix setmatrix fill} bdef
/FAn {newpath tMatrix currentmatrix pop translate scale
  0 0 1 5 -2 roll arcn tMatrix setmatrix stroke} bdef
/PAn {newpath tMatrix currentmatrix pop translate 0 0 moveto scale
  0 0 1 5 -2 roll arcn closepath tMatrix setmatrix fill} bdef
/vradius 0 def /hradius 0 def /lry 0 def
/lrx 0 def /uly 0 def /ulx 0 def /rad 0 def
/MRR {/vradius xdef /hradius xdef /lry xdef /lrx xdef /uly xdef
  /ulx xdef newpath tMatrix currentmatrix pop ulx hradius add uly
  vradius add translate hradius vradius scale 0 0 1 180 270 arc 
  tMatrix setmatrix lrx hradius sub uly vradius add translate
  hradius vradius scale 0 0 1 270 360 arc tMatrix setmatrix
  lrx hradius sub lry vradius sub translate hradius vradius scale
  0 0 1 0 90 arc tMatrix setmatrix ulx hradius add lry vradius sub
  translate hradius vradius scale 0 0 1 90 180 arc tMatrix setmatrix
  closepath} bdef
/FRR {MRR stroke } bdef
/PRR {MRR fill } bdef
/MlrRR {/lry xdef /lrx xdef /uly xdef /ulx xdef /rad lry uly sub 2 div def
  newpath tMatrix currentmatrix pop ulx rad add uly rad add translate
  rad rad scale 0 0 1 90 270 arc tMatrix setmatrix lrx rad sub lry rad
  sub translate rad rad scale 0 0 1 270 90 arc tMatrix setmatrix
  closepath} bdef
/FlrRR {MlrRR stroke } bdef
/PlrRR {MlrRR fill } bdef
/MtbRR {/lry xdef /lrx xdef /uly xdef /ulx xdef /rad lrx ulx sub 2 div def
  newpath tMatrix currentmatrix pop ulx rad add uly rad add translate
  rad rad scale 0 0 1 180 360 arc tMatrix setmatrix lrx rad sub lry rad
  sub translate rad rad scale 0 0 1 0 180 arc tMatrix setmatrix
  closepath} bdef
/FtbRR {MtbRR stroke } bdef
/PtbRR {MtbRR fill } bdef
/stri 6 array def /dtri 6 array def
/smat 6 array def /dmat 6 array def
/tmat1 6 array def /tmat2 6 array def /dif 3 array def
/asub {/ind2 exch def /ind1 exch def dup dup
  ind1 get exch ind2 get sub exch } bdef
/tri_to_matrix {
  2 0 asub 3 1 asub 4 0 asub 5 1 asub
  dup 0 get exch 1 get 7 -1 roll astore } bdef
/compute_transform {
  dmat dtri tri_to_matrix tmat1 invertmatrix 
  smat stri tri_to_matrix tmat2 concatmatrix } bdef
/ds {stri astore pop} bdef
/dt {dtri astore pop} bdef
/db {2 copy /cols xdef /rows xdef mul dup 3 mul string
  currentfile 
  3 index 0 eq {/ASCIIHexDecode filter}
  {/ASCII85Decode filter 3 index 2 eq {/RunLengthDecode filter} if }
  ifelse exch readstring pop
  dup 0 3 index getinterval /rbmap xdef
  dup 2 index dup getinterval /gbmap xdef
  1 index dup 2 mul exch getinterval /bbmap xdef pop pop}bdef
/it {gs np dtri aload pop moveto lineto lineto cp c
  cols rows 8 compute_transform 
  rbmap gbmap bbmap true 3 colorimage gr}bdef
/il {newpath moveto lineto stroke}bdef
currentdict end def
%%EndProlog

%%BeginSetup
MathWorks begin

0 cap

end
%%EndSetup

%%Page: 1 1
%%BeginPageSetup
%%PageBoundingBox:    21   180   548   616
MathWorks begin
bpage
%%EndPageSetup

%%BeginObject: obj1
bplot

/dpi2point 12 def
portraitMode 0216 7344 csm

   40   -48  6331  5231 rc
85 dict begin %Colortable dictionary
/c0 { 0.000000 0.000000 0.000000 sr} bdef
/c1 { 1.000000 1.000000 1.000000 sr} bdef
/c2 { 0.900000 0.000000 0.000000 sr} bdef
/c3 { 0.000000 0.820000 0.000000 sr} bdef
/c4 { 0.000000 0.000000 0.800000 sr} bdef
/c5 { 0.910000 0.820000 0.320000 sr} bdef
/c6 { 1.000000 0.260000 0.820000 sr} bdef
/c7 { 0.000000 0.820000 0.820000 sr} bdef
c0
1 j
1 sg
   0    0 6919 5187 rf
6 w
0 4202 5362 0 0 -4202 899 4616 4 MP
PP
-5362 0 0 4202 5362 0 0 -4202 899 4616 5 MP stroke
4 w
DO
SO
6 w
0 sg
 899  414 mt 6261  414 L
 899 4616 mt 6261 4616 L
6261 4616 mt 6261  414 L
 899 4616 mt  899  414 L
 899 4616 mt 6261 4616 L
 899 4616 mt  899  414 L
2204 4616 mt 2204 4562 L
2204  414 mt 2204  467 L
%%IncludeResource: font Helvetica
/Helvetica /WindowsLatin1Encoding 240 FMSR

2038 4873 mt 
(0.2) s
3509 4616 mt 3509 4562 L
3509  414 mt 3509  467 L
3343 4873 mt 
(0.4) s
4814 4616 mt 4814 4562 L
4814  414 mt 4814  467 L
4648 4873 mt 
(0.6) s
6119 4616 mt 6119 4562 L
6119  414 mt 6119  467 L
5953 4873 mt 
(0.8) s
 899 3934 mt  952 3934 L
6261 3934 mt 6207 3934 L
 397 4023 mt 
(0.05) s
 899 3253 mt  952 3253 L
6261 3253 mt 6207 3253 L
 531 3342 mt 
(0.1) s
 899 2572 mt  952 2572 L
6261 2572 mt 6207 2572 L
 397 2661 mt 
(0.15) s
 899 1891 mt  952 1891 L
6261 1891 mt 6207 1891 L
 531 1980 mt 
(0.2) s
 899 1209 mt  952 1209 L
6261 1209 mt 6207 1209 L
 397 1298 mt 
(0.25) s
 899  528 mt  952  528 L
6261  528 mt 6207  528 L
 531  617 mt 
(0.3) s
 899  414 mt 6261  414 L
 899 4616 mt 6261 4616 L
6261 4616 mt 6261  414 L
 899 4616 mt  899  414 L
gs 899 414 5363 4203 rc
gr

/c8 { 0.000000 0.000000 1.000000 sr} bdef
c8
4741 3194 mt 4813 3194 L
4777 3158 mt 4777 3230 L
1010 4484 mt 1082 4484 L
1046 4448 mt 1046 4520 L
 876 4615 mt  948 4615 L
 912 4579 mt  912 4651 L
 863 4536 mt  935 4536 L
 899 4500 mt  899 4572 L
1315 3542 mt 1387 3542 L
1351 3506 mt 1351 3578 L
 896 4494 mt  968 4494 L
 932 4458 mt  932 4530 L
1050 4316 mt 1122 4316 L
1086 4280 mt 1086 4352 L
 932 3896 mt 1004 3896 L
 968 3860 mt  968 3932 L
 868 4160 mt  940 4160 L
 904 4124 mt  904 4196 L
1192 3785 mt 1264 3785 L
1228 3749 mt 1228 3821 L
 996 3233 mt 1068 3233 L
1032 3197 mt 1032 3269 L
1248 3995 mt 1320 3995 L
1284 3959 mt 1284 4031 L
1328 3987 mt 1400 3987 L
1364 3951 mt 1364 4023 L
2183 4088 mt 2255 4088 L
2219 4052 mt 2219 4124 L
 870 3719 mt  942 3719 L
 906 3683 mt  906 3755 L
3133 4130 mt 3205 4130 L
3169 4094 mt 3169 4166 L
5189 4590 mt 5261 4590 L
5225 4554 mt 5225 4626 L
 979 3930 mt 1051 3930 L
1015 3894 mt 1015 3966 L
1018 4358 mt 1090 4358 L
1054 4322 mt 1054 4394 L
1688 4609 mt 1760 4609 L
1724 4573 mt 1724 4645 L
 978 4572 mt 1050 4572 L
1014 4536 mt 1014 4608 L
 905 1537 mt  977 1537 L
 941 1501 mt  941 1573 L
 932 2348 mt 1004 2348 L
 968 2312 mt  968 2384 L
 955  598 mt 1027  598 L
 991  562 mt  991  634 L
2662 3722 mt 2734 3722 L
2698 3686 mt 2698 3758 L
1216 4583 mt 1288 4583 L
1252 4547 mt 1252 4619 L
1323 4348 mt 1395 4348 L
1359 4312 mt 1359 4384 L
 889 4266 mt  961 4266 L
 925 4230 mt  925 4302 L
 864 4466 mt  936 4466 L
 900 4430 mt  900 4502 L
 991 4601 mt 1063 4601 L
1027 4565 mt 1027 4637 L
 928 4612 mt 1000 4612 L
 964 4576 mt  964 4648 L
1174 3800 mt 1246 3800 L
1210 3764 mt 1210 3836 L
 914 4609 mt  986 4609 L
 950 4573 mt  950 4645 L
1213 4406 mt 1285 4406 L
1249 4370 mt 1249 4442 L
 919 4565 mt  991 4565 L
 955 4529 mt  955 4601 L
1008 4507 mt 1080 4507 L
1044 4471 mt 1044 4543 L
1132 4408 mt 1204 4408 L
1168 4372 mt 1168 4444 L
1497 4400 mt 1569 4400 L
1533 4364 mt 1533 4436 L
2722 3603 mt 2794 3603 L
2758 3567 mt 2758 3639 L
1963 4615 mt 2035 4615 L
1999 4579 mt 1999 4651 L
 984 4592 mt 1056 4592 L
1020 4556 mt 1020 4628 L
 923 4143 mt  995 4143 L
 959 4107 mt  959 4179 L
1838 4611 mt 1910 4611 L
1874 4575 mt 1874 4647 L
1450 1497 mt 1522 1497 L
1486 1461 mt 1486 1533 L
1016 4572 mt 1088 4572 L
1052 4536 mt 1052 4608 L
 864 4559 mt  936 4559 L
 900 4523 mt  900 4595 L
3113 4166 mt 3185 4166 L
3149 4130 mt 3149 4202 L
1065 4600 mt 1137 4600 L
1101 4564 mt 1101 4636 L
1489 4568 mt 1561 4568 L
1525 4532 mt 1525 4604 L
 870 4479 mt  942 4479 L
 906 4443 mt  906 4515 L
1644 2008 mt 1716 2008 L
1680 1972 mt 1680 2044 L
1143 3888 mt 1215 3888 L
1179 3852 mt 1179 3924 L
1093 3099 mt 1165 3099 L
1129 3063 mt 1129 3135 L
 871 4439 mt  943 4439 L
 907 4403 mt  907 4475 L
2145 2910 mt 2217 2910 L
2181 2874 mt 2181 2946 L
 928 4256 mt 1000 4256 L
 964 4220 mt  964 4292 L
1317 3647 mt 1389 3647 L
1353 3611 mt 1353 3683 L
 877 3761 mt  949 3761 L
 913 3725 mt  913 3797 L
1240 4384 mt 1312 4384 L
1276 4348 mt 1276 4420 L
1024 4612 mt 1096 4612 L
1060 4576 mt 1060 4648 L
1709 3277 mt 1781 3277 L
1745 3241 mt 1745 3313 L
3019 4542 mt 3091 4542 L
3055 4506 mt 3055 4578 L
1030 3896 mt 1102 3896 L
1066 3860 mt 1066 3932 L
1020 4485 mt 1092 4485 L
1056 4449 mt 1056 4521 L
 883 4504 mt  955 4504 L
 919 4468 mt  919 4540 L
1262 4027 mt 1334 4027 L
1298 3991 mt 1298 4063 L
 922 4611 mt  994 4611 L
 958 4575 mt  958 4647 L
1376 4615 mt 1448 4615 L
1412 4579 mt 1412 4651 L
 995 4063 mt 1067 4063 L
1031 4027 mt 1031 4099 L
 871 4392 mt  943 4392 L
 907 4356 mt  907 4428 L
 867 4612 mt  939 4612 L
 903 4576 mt  903 4648 L
1022 4502 mt 1094 4502 L
1058 4466 mt 1058 4538 L
 871 3852 mt  943 3852 L
 907 3816 mt  907 3888 L
 993 4198 mt 1065 4198 L
1029 4162 mt 1029 4234 L
1450 2721 mt 1522 2721 L
1486 2685 mt 1486 2757 L
1521 4615 mt 1593 4615 L
1557 4579 mt 1557 4651 L
 917 4125 mt  989 4125 L
 953 4089 mt  953 4161 L
1003 4601 mt 1075 4601 L
1039 4565 mt 1039 4637 L
1418 4065 mt 1490 4065 L
1454 4029 mt 1454 4101 L
1638 4041 mt 1710 4041 L
1674 4005 mt 1674 4077 L
1094 3194 mt 1166 3194 L
1130 3158 mt 1130 3230 L
 869 4454 mt  941 4454 L
 905 4418 mt  905 4490 L
1507 4574 mt 1579 4574 L
1543 4538 mt 1543 4610 L
 864 4600 mt  936 4600 L
 900 4564 mt  900 4636 L
2178 4589 mt 2250 4589 L
2214 4553 mt 2214 4625 L
 869 3830 mt  941 3830 L
 905 3794 mt  905 3866 L
 863  671 mt  935  671 L
 899  635 mt  899  707 L
 922 4153 mt  994 4153 L
 958 4117 mt  958 4189 L
 863 4601 mt  935 4601 L
 899 4565 mt  899 4637 L
1691 3545 mt 1763 3545 L
1727 3509 mt 1727 3581 L
1073 4606 mt 1145 4606 L
1109 4570 mt 1109 4642 L
 887 2150 mt  959 2150 L
 923 2114 mt  923 2186 L
 864 4000 mt  936 4000 L
 900 3964 mt  900 4036 L
2109 4465 mt 2181 4465 L
2145 4429 mt 2145 4501 L
 993 4374 mt 1065 4374 L
1029 4338 mt 1029 4410 L
1720 4490 mt 1792 4490 L
1756 4454 mt 1756 4526 L
1097 4562 mt 1169 4562 L
1133 4526 mt 1133 4598 L
 960 4606 mt 1032 4606 L
 996 4570 mt  996 4642 L
1197 4562 mt 1269 4562 L
1233 4526 mt 1233 4598 L
 880 3602 mt  952 3602 L
 916 3566 mt  916 3638 L
6225 4037 mt 6297 4037 L
6261 4001 mt 6261 4073 L
1074 3028 mt 1146 3028 L
1110 2992 mt 1110 3064 L
1314 2356 mt 1386 2356 L
1350 2320 mt 1350 2392 L
 874 4321 mt  946 4321 L
 910 4285 mt  910 4357 L
1835 3829 mt 1907 3829 L
1871 3793 mt 1871 3865 L
1197 4040 mt 1269 4040 L
1233 4004 mt 1233 4076 L
 870 4522 mt  942 4522 L
 906 4486 mt  906 4558 L
2106 4239 mt 2178 4239 L
2142 4203 mt 2142 4275 L
1285 3641 mt 1357 3641 L
1321 3605 mt 1321 3677 L
 863 4613 mt  935 4613 L
 899 4577 mt  899 4649 L
 975 4459 mt 1047 4459 L
1011 4423 mt 1011 4495 L
 875 4549 mt  947 4549 L
 911 4513 mt  911 4585 L
1554 4142 mt 1626 4142 L
1590 4106 mt 1590 4178 L
1092 3913 mt 1164 3913 L
1128 3877 mt 1128 3949 L
 886 3328 mt  958 3328 L
 922 3292 mt  922 3364 L
1310 2068 mt 1382 2068 L
1346 2032 mt 1346 2104 L
 896 4537 mt  968 4537 L
 932 4501 mt  932 4573 L
1239 4500 mt 1311 4500 L
1275 4464 mt 1275 4536 L
1003 4542 mt 1075 4542 L
1039 4506 mt 1039 4578 L
 908 3762 mt  980 3762 L
 944 3726 mt  944 3798 L
1018 4486 mt 1090 4486 L
1054 4450 mt 1054 4522 L
 892 1892 mt  964 1892 L
 928 1856 mt  928 1928 L
 914 4510 mt  986 4510 L
 950 4474 mt  950 4546 L
1762 3481 mt 1834 3481 L
1798 3445 mt 1798 3517 L
1899 4087 mt 1971 4087 L
1935 4051 mt 1935 4123 L
1527 3894 mt 1599 3894 L
1563 3858 mt 1563 3930 L
 971 4591 mt 1043 4591 L
1007 4555 mt 1007 4627 L
 923 3990 mt  995 3990 L
 959 3954 mt  959 4026 L
 867 4404 mt  939 4404 L
 903 4368 mt  903 4440 L
1398 2611 mt 1470 2611 L
1434 2575 mt 1434 2647 L
 871 3732 mt  943 3732 L
 907 3696 mt  907 3768 L
2891 3242 mt 2963 3242 L
2927 3206 mt 2927 3278 L
 872 3854 mt  944 3854 L
 908 3818 mt  908 3890 L
 863 3809 mt  935 3809 L
 899 3773 mt  899 3845 L
 882 4502 mt  954 4502 L
 918 4466 mt  918 4538 L
1220 4419 mt 1292 4419 L
1256 4383 mt 1256 4455 L
 879 4498 mt  951 4498 L
 915 4462 mt  915 4534 L
1213 4568 mt 1285 4568 L
1249 4532 mt 1249 4604 L
1889 4270 mt 1961 4270 L
1925 4234 mt 1925 4306 L
1129 4218 mt 1201 4218 L
1165 4182 mt 1165 4254 L
 876 4372 mt  948 4372 L
 912 4336 mt  912 4408 L
1283 4004 mt 1355 4004 L
1319 3968 mt 1319 4040 L
1299 4170 mt 1371 4170 L
1335 4134 mt 1335 4206 L
1257 3905 mt 1329 3905 L
1293 3869 mt 1293 3941 L
 946 4211 mt 1018 4211 L
 982 4175 mt  982 4247 L
 872 4535 mt  944 4535 L
 908 4499 mt  908 4571 L
2367 3751 mt 2439 3751 L
2403 3715 mt 2403 3787 L
2633 2202 mt 2705 2202 L
2669 2166 mt 2669 2238 L
1570 4139 mt 1642 4139 L
1606 4103 mt 1606 4175 L
1925 4452 mt 1997 4452 L
1961 4416 mt 1961 4488 L
 904 3773 mt  976 3773 L
 940 3737 mt  940 3809 L
1016 4278 mt 1088 4278 L
1052 4242 mt 1052 4314 L
 939 4615 mt 1011 4615 L
 975 4579 mt  975 4651 L
1337 3475 mt 1409 3475 L
1373 3439 mt 1373 3511 L
2530 4462 mt 2602 4462 L
2566 4426 mt 2566 4498 L
 863 4484 mt  935 4484 L
 899 4448 mt  899 4520 L
1120 4606 mt 1192 4606 L
1156 4570 mt 1156 4642 L
2563 3826 mt 2635 3826 L
2599 3790 mt 2599 3862 L
1098 3268 mt 1170 3268 L
1134 3232 mt 1134 3304 L
 875 3797 mt  947 3797 L
 911 3761 mt  911 3833 L
1251 4604 mt 1323 4604 L
1287 4568 mt 1287 4640 L
1105 4310 mt 1177 4310 L
1141 4274 mt 1141 4346 L
1082 2031 mt 1154 2031 L
1118 1995 mt 1118 2067 L
1299 4588 mt 1371 4588 L
1335 4552 mt 1335 4624 L
 981 3816 mt 1053 3816 L
1017 3780 mt 1017 3852 L
1110 4586 mt 1182 4586 L
1146 4550 mt 1146 4622 L
2018 4456 mt 2090 4456 L
2054 4420 mt 2054 4492 L
1498 3425 mt 1570 3425 L
1534 3389 mt 1534 3461 L
 946 3305 mt 1018 3305 L
 982 3269 mt  982 3341 L
 977 4498 mt 1049 4498 L
1013 4462 mt 1013 4534 L
2650 1973 mt 2722 1973 L
2686 1937 mt 2686 2009 L
1323 3599 mt 1395 3599 L
1359 3563 mt 1359 3635 L
1120 4579 mt 1192 4579 L
1156 4543 mt 1156 4615 L
 910 4128 mt  982 4128 L
 946 4092 mt  946 4164 L
1746 3911 mt 1818 3911 L
1782 3875 mt 1782 3947 L
 867 3998 mt  939 3998 L
 903 3962 mt  903 4034 L
1383 4264 mt 1455 4264 L
1419 4228 mt 1419 4300 L
1024 4611 mt 1096 4611 L
1060 4575 mt 1060 4647 L
1233 4427 mt 1305 4427 L
1269 4391 mt 1269 4463 L
 872 4472 mt  944 4472 L
 908 4436 mt  908 4508 L
1194 3298 mt 1266 3298 L
1230 3262 mt 1230 3334 L
1245 4613 mt 1317 4613 L
1281 4577 mt 1281 4649 L
2502  813 mt 2574  813 L
2538  777 mt 2538  849 L
 894 4336 mt  966 4336 L
 930 4300 mt  930 4372 L
 877 4349 mt  949 4349 L
 913 4313 mt  913 4385 L
 867 4387 mt  939 4387 L
 903 4351 mt  903 4423 L
 876 2808 mt  948 2808 L
 912 2772 mt  912 2844 L
 866 4507 mt  938 4507 L
 902 4471 mt  902 4543 L
3621 4610 mt 3693 4610 L
3657 4574 mt 3657 4646 L
1901 2103 mt 1973 2103 L
1937 2067 mt 1937 2139 L
2451 4138 mt 2523 4138 L
2487 4102 mt 2487 4174 L
 943  414 mt 1015  414 L
 979  378 mt  979  450 L
1365 4556 mt 1437 4556 L
1401 4520 mt 1401 4592 L
 895 3262 mt  967 3262 L
 931 3226 mt  931 3298 L
 883 3641 mt  955 3641 L
 919 3605 mt  919 3677 L
4203 4196 mt 4275 4196 L
4239 4160 mt 4239 4232 L
1729 2991 mt 1801 2991 L
1765 2955 mt 1765 3027 L
2934 3588 mt 3006 3588 L
2970 3552 mt 2970 3624 L
 909 4094 mt  981 4094 L
 945 4058 mt  945 4130 L
1168 3826 mt 1240 3826 L
1204 3790 mt 1204 3862 L
5015 3159 mt 5087 3159 L
5051 3123 mt 5051 3195 L
2679 2927 mt 2751 2927 L
2715 2891 mt 2715 2963 L
 906 4406 mt  978 4406 L
 942 4370 mt  942 4442 L
1109 4172 mt 1181 4172 L
1145 4136 mt 1145 4208 L
 891 4204 mt  963 4204 L
 927 4168 mt  927 4240 L
1756 4168 mt 1828 4168 L
1792 4132 mt 1792 4204 L
1335 4406 mt 1407 4406 L
1371 4370 mt 1371 4442 L
1325 4614 mt 1397 4614 L
1361 4578 mt 1361 4650 L
 939 4054 mt 1011 4054 L
 975 4018 mt  975 4090 L
2296 4301 mt 2368 4301 L
2332 4265 mt 2332 4337 L
 912 4008 mt  984 4008 L
 948 3972 mt  948 4044 L
1026 4558 mt 1098 4558 L
1062 4522 mt 1062 4594 L
1000 4308 mt 1072 4308 L
1036 4272 mt 1036 4344 L
4060 2166 mt 4132 2166 L
4096 2130 mt 4096 2202 L
1078 3349 mt 1150 3349 L
1114 3313 mt 1114 3385 L
4076 3254 mt 4148 3254 L
4112 3218 mt 4112 3290 L
5198 4613 mt 5270 4613 L
5234 4577 mt 5234 4649 L
1239 4295 mt 1311 4295 L
1275 4259 mt 1275 4331 L
1613 4609 mt 1685 4609 L
1649 4573 mt 1649 4645 L
1976 4389 mt 2048 4389 L
2012 4353 mt 2012 4425 L
 863 4572 mt  935 4572 L
 899 4536 mt  899 4608 L
1442  623 mt 1514  623 L
1478  587 mt 1478  659 L
1145 3570 mt 1217 3570 L
1181 3534 mt 1181 3606 L
 884 1512 mt  956 1512 L
 920 1476 mt  920 1548 L
2289 4125 mt 2361 4125 L
2325 4089 mt 2325 4161 L
1407 4615 mt 1479 4615 L
1443 4579 mt 1443 4651 L
1142 4372 mt 1214 4372 L
1178 4336 mt 1178 4408 L
1712 4530 mt 1784 4530 L
1748 4494 mt 1748 4566 L
 996 4030 mt 1068 4030 L
1032 3994 mt 1032 4066 L
1224 3984 mt 1296 3984 L
1260 3948 mt 1260 4020 L
1656 3523 mt 1728 3523 L
1692 3487 mt 1692 3559 L
 863 4421 mt  935 4421 L
 899 4385 mt  899 4457 L
 924 4593 mt  996 4593 L
 960 4557 mt  960 4629 L
2081 4607 mt 2153 4607 L
2117 4571 mt 2117 4643 L
 871 4449 mt  943 4449 L
 907 4413 mt  907 4485 L
 863 4478 mt  935 4478 L
 899 4442 mt  899 4514 L
 895 4592 mt  967 4592 L
 931 4556 mt  931 4628 L
3407 2473 mt 3479 2473 L
3443 2437 mt 3443 2509 L
2805 3140 mt 2877 3140 L
2841 3104 mt 2841 3176 L
1356 4568 mt 1428 4568 L
1392 4532 mt 1392 4604 L
1420 4567 mt 1492 4567 L
1456 4531 mt 1456 4603 L
1547 4607 mt 1619 4607 L
1583 4571 mt 1583 4643 L
1255 4602 mt 1327 4602 L
1291 4566 mt 1291 4638 L
 885 2701 mt  957 2701 L
 921 2665 mt  921 2737 L
 871 4216 mt  943 4216 L
 907 4180 mt  907 4252 L
 999 4567 mt 1071 4567 L
1035 4531 mt 1035 4603 L
3666 3559 mt 3738 3559 L
3702 3523 mt 3702 3595 L
 900 4403 mt  972 4403 L
 936 4367 mt  936 4439 L
2210 4517 mt 2282 4517 L
2246 4481 mt 2246 4553 L
 907 4588 mt  979 4588 L
 943 4552 mt  943 4624 L
1513 3226 mt 1585 3226 L
1549 3190 mt 1549 3262 L
1367 3941 mt 1439 3941 L
1403 3905 mt 1403 3977 L
 884 3007 mt  956 3007 L
 920 2971 mt  920 3043 L
 871 4505 mt  943 4505 L
 907 4469 mt  907 4541 L
1438 3220 mt 1510 3220 L
1474 3184 mt 1474 3256 L
1335 4173 mt 1407 4173 L
1371 4137 mt 1371 4209 L
 885 4295 mt  957 4295 L
 921 4259 mt  921 4331 L
 938 4179 mt 1010 4179 L
 974 4143 mt  974 4215 L
1915 3265 mt 1987 3265 L
1951 3229 mt 1951 3301 L
1373 4402 mt 1445 4402 L
1409 4366 mt 1409 4438 L
1715 3152 mt 1787 3152 L
1751 3116 mt 1751 3188 L
1889 4576 mt 1961 4576 L
1925 4540 mt 1925 4612 L
 905 4412 mt  977 4412 L
 941 4376 mt  941 4448 L
1030 4416 mt 1102 4416 L
1066 4380 mt 1066 4452 L
1003 4545 mt 1075 4545 L
1039 4509 mt 1039 4581 L
 893 3490 mt  965 3490 L
 929 3454 mt  929 3526 L
 884 4562 mt  956 4562 L
 920 4526 mt  920 4598 L
2542 4254 mt 2614 4254 L
2578 4218 mt 2578 4290 L
 873 4486 mt  945 4486 L
 909 4450 mt  909 4522 L
 997 4455 mt 1069 4455 L
1033 4419 mt 1033 4491 L
1104 4427 mt 1176 4427 L
1140 4391 mt 1140 4463 L
1998 4605 mt 2070 4605 L
2034 4569 mt 2034 4641 L
 899 4481 mt  971 4481 L
 935 4445 mt  935 4517 L
 913 4580 mt  985 4580 L
 949 4544 mt  949 4616 L
 898 3547 mt  970 3547 L
 934 3511 mt  934 3583 L
1434 4588 mt 1506 4588 L
1470 4552 mt 1470 4624 L
1404 3380 mt 1476 3380 L
1440 3344 mt 1440 3416 L
 864 4395 mt  936 4395 L
 900 4359 mt  900 4431 L
 868 4576 mt  940 4576 L
 904 4540 mt  904 4612 L
1297 4156 mt 1369 4156 L
1333 4120 mt 1333 4192 L
1219 3302 mt 1291 3302 L
1255 3266 mt 1255 3338 L
 868 4365 mt  940 4365 L
 904 4329 mt  904 4401 L
2454 3682 mt 2526 3682 L
2490 3646 mt 2490 3718 L
1051 4250 mt 1123 4250 L
1087 4214 mt 1087 4286 L
3104 3922 mt 3176 3922 L
3140 3886 mt 3140 3958 L
 885 4512 mt  957 4512 L
 921 4476 mt  921 4548 L
 986 1965 mt 1058 1965 L
1022 1929 mt 1022 2001 L
1083 3993 mt 1155 3993 L
1119 3957 mt 1119 4029 L
1065 4398 mt 1137 4398 L
1101 4362 mt 1101 4434 L
1120 4527 mt 1192 4527 L
1156 4491 mt 1156 4563 L
1538 4026 mt 1610 4026 L
1574 3990 mt 1574 4062 L
1193 3578 mt 1265 3578 L
1229 3542 mt 1229 3614 L
 910 4376 mt  982 4376 L
 946 4340 mt  946 4412 L
3117 3494 mt 3189 3494 L
3153 3458 mt 3153 3530 L
 900 4605 mt  972 4605 L
 936 4569 mt  936 4641 L
 944 4594 mt 1016 4594 L
 980 4558 mt  980 4630 L
 870 4303 mt  942 4303 L
 906 4267 mt  906 4339 L
 878 4150 mt  950 4150 L
 914 4114 mt  914 4186 L
 863 4542 mt  935 4542 L
 899 4506 mt  899 4578 L
 877 2674 mt  949 2674 L
 913 2638 mt  913 2710 L
6014 4170 mt 6086 4170 L
6050 4134 mt 6050 4206 L
 886 3748 mt  958 3748 L
 922 3712 mt  922 3784 L
2569  940 mt 2641  940 L
2605  904 mt 2605  976 L
1028 4601 mt 1100 4601 L
1064 4565 mt 1064 4637 L
1161 4147 mt 1233 4147 L
1197 4111 mt 1197 4183 L
1328 3769 mt 1400 3769 L
1364 3733 mt 1364 3805 L
1079 4578 mt 1151 4578 L
1115 4542 mt 1115 4614 L
2951 3928 mt 3023 3928 L
2987 3892 mt 2987 3964 L
1135 3777 mt 1207 3777 L
1171 3741 mt 1171 3813 L
 958 4575 mt 1030 4575 L
 994 4539 mt  994 4611 L
2678 4402 mt 2750 4402 L
2714 4366 mt 2714 4438 L
1808 4517 mt 1880 4517 L
1844 4481 mt 1844 4553 L
1573 4164 mt 1645 4164 L
1609 4128 mt 1609 4200 L
1541 4489 mt 1613 4489 L
1577 4453 mt 1577 4525 L
 890 3855 mt  962 3855 L
 926 3819 mt  926 3891 L
1367 2099 mt 1439 2099 L
1403 2063 mt 1403 2135 L
 970 4579 mt 1042 4579 L
1006 4543 mt 1006 4615 L
2081 3656 mt 2153 3656 L
2117 3620 mt 2117 3692 L
 910 4570 mt  982 4570 L
 946 4534 mt  946 4606 L
 947 3457 mt 1019 3457 L
 983 3421 mt  983 3493 L
 893 4544 mt  965 4544 L
 929 4508 mt  929 4580 L
1133 2968 mt 1205 2968 L
1169 2932 mt 1169 3004 L
1384 4609 mt 1456 4609 L
1420 4573 mt 1420 4645 L
1733 3231 mt 1805 3231 L
1769 3195 mt 1769 3267 L
2784 4587 mt 2856 4587 L
2820 4551 mt 2820 4623 L
 875 4551 mt  947 4551 L
 911 4515 mt  911 4587 L
1362 3971 mt 1434 3971 L
1398 3935 mt 1398 4007 L
 881 3008 mt  953 3008 L
 917 2972 mt  917 3044 L
1127 4534 mt 1199 4534 L
1163 4498 mt 1163 4570 L
2052 4020 mt 2124 4020 L
2088 3984 mt 2088 4056 L
1100 4310 mt 1172 4310 L
1136 4274 mt 1136 4346 L
2549 3224 mt 2621 3224 L
2585 3188 mt 2585 3260 L
 988 4209 mt 1060 4209 L
1024 4173 mt 1024 4245 L
 864 3830 mt  936 3830 L
 900 3794 mt  900 3866 L
1268 4583 mt 1340 4583 L
1304 4547 mt 1304 4619 L
2394 4615 mt 2466 4615 L
2430 4579 mt 2430 4651 L
 969 4594 mt 1041 4594 L
1005 4558 mt 1005 4630 L
2461 4542 mt 2533 4542 L
2497 4506 mt 2497 4578 L
1485 4340 mt 1557 4340 L
1521 4304 mt 1521 4376 L
 866 4536 mt  938 4536 L
 902 4500 mt  902 4572 L
1310 4603 mt 1382 4603 L
1346 4567 mt 1346 4639 L
1946 4431 mt 2018 4431 L
1982 4395 mt 1982 4467 L
1042 4250 mt 1114 4250 L
1078 4214 mt 1078 4286 L
1085 3911 mt 1157 3911 L
1121 3875 mt 1121 3947 L
1416 4614 mt 1488 4614 L
1452 4578 mt 1452 4650 L
1260 4489 mt 1332 4489 L
1296 4453 mt 1296 4525 L
1253 3854 mt 1325 3854 L
1289 3818 mt 1289 3890 L
1814 3607 mt 1886 3607 L
1850 3571 mt 1850 3643 L
3028 2409 mt 3100 2409 L
3064 2373 mt 3064 2445 L
2254 4507 mt 2326 4507 L
2290 4471 mt 2290 4543 L
 884 3776 mt  956 3776 L
 920 3740 mt  920 3812 L
1066 4604 mt 1138 4604 L
1102 4568 mt 1102 4640 L
1718 4030 mt 1790 4030 L
1754 3994 mt 1754 4066 L
 870 4360 mt  942 4360 L
 906 4324 mt  906 4396 L
2699 4257 mt 2771 4257 L
2735 4221 mt 2735 4293 L
1695 4493 mt 1767 4493 L
1731 4457 mt 1731 4529 L
1418 4255 mt 1490 4255 L
1454 4219 mt 1454 4291 L
3155 4596 mt 3227 4596 L
3191 4560 mt 3191 4632 L
 864 3908 mt  936 3908 L
 900 3872 mt  900 3944 L
 865 4116 mt  937 4116 L
 901 4080 mt  901 4152 L
1074 4615 mt 1146 4615 L
1110 4579 mt 1110 4651 L
 863 4607 mt  935 4607 L
 899 4571 mt  899 4643 L
1373 3544 mt 1445 3544 L
1409 3508 mt 1409 3580 L
1949 3893 mt 2021 3893 L
1985 3857 mt 1985 3929 L
1567 4523 mt 1639 4523 L
1603 4487 mt 1603 4559 L
1753 4582 mt 1825 4582 L
1789 4546 mt 1789 4618 L
 898 4418 mt  970 4418 L
 934 4382 mt  934 4454 L
1314 4039 mt 1386 4039 L
1350 4003 mt 1350 4075 L
 875 3783 mt  947 3783 L
 911 3747 mt  911 3819 L
1733 4399 mt 1805 4399 L
1769 4363 mt 1769 4435 L
2651 2637 mt 2723 2637 L
2687 2601 mt 2687 2673 L
 904 4572 mt  976 4572 L
 940 4536 mt  940 4608 L
 887 4486 mt  959 4486 L
 923 4450 mt  923 4522 L
1105 4444 mt 1177 4444 L
1141 4408 mt 1141 4480 L
2552 2652 mt 2624 2652 L
2588 2616 mt 2588 2688 L
1248 4605 mt 1320 4605 L
1284 4569 mt 1284 4641 L
1966 3076 mt 2038 3076 L
2002 3040 mt 2002 3112 L
1712 4451 mt 1784 4451 L
1748 4415 mt 1748 4487 L
1004 4613 mt 1076 4613 L
1040 4577 mt 1040 4649 L
1096 4588 mt 1168 4588 L
1132 4552 mt 1132 4624 L
1888 4483 mt 1960 4483 L
1924 4447 mt 1924 4519 L
2075 4186 mt 2147 4186 L
2111 4150 mt 2111 4222 L
2268 1841 mt 2340 1841 L
2304 1805 mt 2304 1877 L
 878 3558 mt  950 3558 L
 914 3522 mt  914 3594 L
 943 4608 mt 1015 4608 L
 979 4572 mt  979 4644 L
1136 4519 mt 1208 4519 L
1172 4483 mt 1172 4555 L
1001 3923 mt 1073 3923 L
1037 3887 mt 1037 3959 L
1112 4603 mt 1184 4603 L
1148 4567 mt 1148 4639 L
3651 4577 mt 3723 4577 L
3687 4541 mt 3687 4613 L
1461 2646 mt 1533 2646 L
1497 2610 mt 1497 2682 L
3396 4355 mt 3468 4355 L
3432 4319 mt 3432 4391 L
 882 2257 mt  954 2257 L
 918 2221 mt  918 2293 L
1888 4616 mt 1960 4616 L
1924 4580 mt 1924 4652 L
1038 3076 mt 1110 3076 L
1074 3040 mt 1074 3112 L
 931 4163 mt 1003 4163 L
 967 4127 mt  967 4199 L
4060 4196 mt 4132 4196 L
4096 4160 mt 4096 4232 L
1148 3538 mt 1220 3538 L
1184 3502 mt 1184 3574 L
2767 4437 mt 2839 4437 L
2803 4401 mt 2803 4473 L
 896 4341 mt  968 4341 L
 932 4305 mt  932 4377 L
 867 4344 mt  939 4344 L
 903 4308 mt  903 4380 L
gs 899 414 5363 4203 rc
gr

0 sg
2752 5104 mt 
(\(S,LFCC,GMM\)) s
 288 3277 mt  -90 rotate
(\(S,SSC,GMM\)) s
90 rotate
2975  223 mt 
(Corr = 0.11) s

end %%Color Dict

eplot
%%EndObject

epage
end

showpage

%%Trailer
%%EOF
