%!PS-Adobe-3.0 EPSF-3.0
%%Creator: MATLAB, The Mathworks, Inc. Version 7.7.0.471 (R2008b). Operating System: Microsoft Windows XP.
%%Title: Pictures\main_zoo_mvar_analysis_data_BMI_xcorr_bmi_p1_k2_3_9.eps
%%CreationDate: 10/26/2009  05:44:26
%%DocumentNeededFonts: Helvetica
%%DocumentProcessColors: Cyan Magenta Yellow Black
%%LanguageLevel: 2
%%Pages: 1
%%BoundingBox:    32   180   546   616
%%EndComments

%%BeginProlog
% MathWorks dictionary
/MathWorks 160 dict begin
% definition operators
/bdef {bind def} bind def
/ldef {load def} bind def
/xdef {exch def} bdef
/xstore {exch store} bdef
% operator abbreviations
/c  /clip ldef
/cc /concat ldef
/cp /closepath ldef
/gr /grestore ldef
/gs /gsave ldef
/mt /moveto ldef
/np /newpath ldef
/cm /currentmatrix ldef
/sm /setmatrix ldef
/rm /rmoveto ldef
/rl /rlineto ldef
/s {show newpath} bdef
/sc {setcmykcolor} bdef
/sr /setrgbcolor ldef
/sg /setgray ldef
/w /setlinewidth ldef
/j /setlinejoin ldef
/cap /setlinecap ldef
/rc {rectclip} bdef
/rf {rectfill} bdef
% page state control
/pgsv () def
/bpage {/pgsv save def} bdef
/epage {pgsv restore} bdef
/bplot /gsave ldef
/eplot {stroke grestore} bdef
% orientation switch
/portraitMode 0 def /landscapeMode 1 def /rotateMode 2 def
% coordinate system mappings
/dpi2point 0 def
% font control
/FontSize 0 def
/FMS {/FontSize xstore findfont [FontSize 0 0 FontSize neg 0 0]
  makefont setfont} bdef
/ISOLatin1Encoding where {pop /WindowsLatin1Encoding 256 array bdef
ISOLatin1Encoding WindowsLatin1Encoding copy pop
/.notdef/.notdef/quotesinglbase/florin/quotedblbase/ellipsis/dagger
/daggerdbl/circumflex/perthousand/Scaron/guilsinglleft/OE/.notdef/.notdef
/.notdef/.notdef/quoteleft/quoteright/quotedblleft/quotedblright/bullet
/endash/emdash/tilde/trademark/scaron/guilsinglright/oe/.notdef/.notdef
/Ydieresis WindowsLatin1Encoding 128 32 getinterval astore pop}
{/WindowsLatin1Encoding StandardEncoding bdef} ifelse
/reencode {exch dup where {pop load} {pop StandardEncoding} ifelse
  exch dup 3 1 roll findfont dup length dict begin
  { 1 index /FID ne {def}{pop pop} ifelse } forall
  /Encoding exch def currentdict end definefont pop} bdef
/isroman {findfont /CharStrings get /Agrave known} bdef
/FMSR {3 1 roll 1 index dup isroman {reencode} {pop pop} ifelse
  exch FMS} bdef
/csm {1 dpi2point div -1 dpi2point div scale neg translate
 dup landscapeMode eq {pop -90 rotate}
  {rotateMode eq {90 rotate} if} ifelse} bdef
% line types: solid, dotted, dashed, dotdash
/SO { [] 0 setdash } bdef
/DO { [.5 dpi2point mul 4 dpi2point mul] 0 setdash } bdef
/DA { [6 dpi2point mul] 0 setdash } bdef
/DD { [.5 dpi2point mul 4 dpi2point mul 6 dpi2point mul 4
  dpi2point mul] 0 setdash } bdef
% macros for lines and objects
/L {lineto stroke} bdef
/MP {3 1 roll moveto 1 sub {rlineto} repeat} bdef
/AP {{rlineto} repeat} bdef
/PDlw -1 def
/W {/PDlw currentlinewidth def setlinewidth} def
/PP {closepath eofill} bdef
/DP {closepath stroke} bdef
/MR {4 -2 roll moveto dup  0 exch rlineto exch 0 rlineto
  neg 0 exch rlineto closepath} bdef
/FR {MR stroke} bdef
/PR {MR fill} bdef
/L1i {{currentfile picstr readhexstring pop} image} bdef
/tMatrix matrix def
/MakeOval {newpath tMatrix currentmatrix pop translate scale
0 0 1 0 360 arc tMatrix setmatrix} bdef
/FO {MakeOval stroke} bdef
/PO {MakeOval fill} bdef
/PD {currentlinewidth 2 div 0 360 arc fill
   PDlw -1 eq not {PDlw w /PDlw -1 def} if} def
/FA {newpath tMatrix currentmatrix pop translate scale
  0 0 1 5 -2 roll arc tMatrix setmatrix stroke} bdef
/PA {newpath tMatrix currentmatrix pop	translate 0 0 moveto scale
  0 0 1 5 -2 roll arc closepath tMatrix setmatrix fill} bdef
/FAn {newpath tMatrix currentmatrix pop translate scale
  0 0 1 5 -2 roll arcn tMatrix setmatrix stroke} bdef
/PAn {newpath tMatrix currentmatrix pop translate 0 0 moveto scale
  0 0 1 5 -2 roll arcn closepath tMatrix setmatrix fill} bdef
/vradius 0 def /hradius 0 def /lry 0 def
/lrx 0 def /uly 0 def /ulx 0 def /rad 0 def
/MRR {/vradius xdef /hradius xdef /lry xdef /lrx xdef /uly xdef
  /ulx xdef newpath tMatrix currentmatrix pop ulx hradius add uly
  vradius add translate hradius vradius scale 0 0 1 180 270 arc 
  tMatrix setmatrix lrx hradius sub uly vradius add translate
  hradius vradius scale 0 0 1 270 360 arc tMatrix setmatrix
  lrx hradius sub lry vradius sub translate hradius vradius scale
  0 0 1 0 90 arc tMatrix setmatrix ulx hradius add lry vradius sub
  translate hradius vradius scale 0 0 1 90 180 arc tMatrix setmatrix
  closepath} bdef
/FRR {MRR stroke } bdef
/PRR {MRR fill } bdef
/MlrRR {/lry xdef /lrx xdef /uly xdef /ulx xdef /rad lry uly sub 2 div def
  newpath tMatrix currentmatrix pop ulx rad add uly rad add translate
  rad rad scale 0 0 1 90 270 arc tMatrix setmatrix lrx rad sub lry rad
  sub translate rad rad scale 0 0 1 270 90 arc tMatrix setmatrix
  closepath} bdef
/FlrRR {MlrRR stroke } bdef
/PlrRR {MlrRR fill } bdef
/MtbRR {/lry xdef /lrx xdef /uly xdef /ulx xdef /rad lrx ulx sub 2 div def
  newpath tMatrix currentmatrix pop ulx rad add uly rad add translate
  rad rad scale 0 0 1 180 360 arc tMatrix setmatrix lrx rad sub lry rad
  sub translate rad rad scale 0 0 1 0 180 arc tMatrix setmatrix
  closepath} bdef
/FtbRR {MtbRR stroke } bdef
/PtbRR {MtbRR fill } bdef
/stri 6 array def /dtri 6 array def
/smat 6 array def /dmat 6 array def
/tmat1 6 array def /tmat2 6 array def /dif 3 array def
/asub {/ind2 exch def /ind1 exch def dup dup
  ind1 get exch ind2 get sub exch } bdef
/tri_to_matrix {
  2 0 asub 3 1 asub 4 0 asub 5 1 asub
  dup 0 get exch 1 get 7 -1 roll astore } bdef
/compute_transform {
  dmat dtri tri_to_matrix tmat1 invertmatrix 
  smat stri tri_to_matrix tmat2 concatmatrix } bdef
/ds {stri astore pop} bdef
/dt {dtri astore pop} bdef
/db {2 copy /cols xdef /rows xdef mul dup 3 mul string
  currentfile 
  3 index 0 eq {/ASCIIHexDecode filter}
  {/ASCII85Decode filter 3 index 2 eq {/RunLengthDecode filter} if }
  ifelse exch readstring pop
  dup 0 3 index getinterval /rbmap xdef
  dup 2 index dup getinterval /gbmap xdef
  1 index dup 2 mul exch getinterval /bbmap xdef pop pop}bdef
/it {gs np dtri aload pop moveto lineto lineto cp c
  cols rows 8 compute_transform 
  rbmap gbmap bbmap true 3 colorimage gr}bdef
/il {newpath moveto lineto stroke}bdef
currentdict end def
%%EndProlog

%%BeginSetup
MathWorks begin

0 cap

end
%%EndSetup

%%Page: 1 1
%%BeginPageSetup
%%PageBoundingBox:    32   180   546   616
MathWorks begin
bpage
%%EndPageSetup

%%BeginObject: obj1
bplot

/dpi2point 12 def
portraitMode 0216 7344 csm

  174   -48  6173  5231 rc
85 dict begin %Colortable dictionary
/c0 { 0.000000 0.000000 0.000000 sr} bdef
/c1 { 1.000000 1.000000 1.000000 sr} bdef
/c2 { 0.900000 0.000000 0.000000 sr} bdef
/c3 { 0.000000 0.820000 0.000000 sr} bdef
/c4 { 0.000000 0.000000 0.800000 sr} bdef
/c5 { 0.910000 0.820000 0.320000 sr} bdef
/c6 { 1.000000 0.260000 0.820000 sr} bdef
/c7 { 0.000000 0.820000 0.820000 sr} bdef
c0
1 j
1 sg
   0    0 6919 5187 rf
6 w
0 4202 5362 0 0 -4202 899 4616 4 MP
PP
-5362 0 0 4202 5362 0 0 -4202 899 4616 5 MP stroke
4 w
DO
SO
6 w
0 sg
 899  414 mt 6261  414 L
 899 4616 mt 6261 4616 L
6261 4616 mt 6261  414 L
 899 4616 mt  899  414 L
 899 4616 mt 6261 4616 L
 899 4616 mt  899  414 L
1971 4616 mt 1971 4562 L
1971  415 mt 1971  468 L
%%IncludeResource: font Helvetica
/Helvetica /WindowsLatin1Encoding 240 FMSR

1805 4873 mt 
(0.2) s
3043 4616 mt 3043 4562 L
3043  415 mt 3043  468 L
2877 4873 mt 
(0.4) s
4116 4616 mt 4116 4562 L
4116  415 mt 4116  468 L
3950 4873 mt 
(0.6) s
5188 4616 mt 5188 4562 L
5188  415 mt 5188  468 L
5022 4873 mt 
(0.8) s
 899 4195 mt  952 4195 L
6261 4195 mt 6207 4195 L
 531 4284 mt 
(0.1) s
 899 3775 mt  952 3775 L
6261 3775 mt 6207 3775 L
 531 3864 mt 
(0.2) s
 899 3355 mt  952 3355 L
6261 3355 mt 6207 3355 L
 531 3444 mt 
(0.3) s
 899 2935 mt  952 2935 L
6261 2935 mt 6207 2935 L
 531 3024 mt 
(0.4) s
 899 2515 mt  952 2515 L
6261 2515 mt 6207 2515 L
 531 2604 mt 
(0.5) s
 899 2095 mt  952 2095 L
6261 2095 mt 6207 2095 L
 531 2184 mt 
(0.6) s
 899 1675 mt  952 1675 L
6261 1675 mt 6207 1675 L
 531 1764 mt 
(0.7) s
 899 1255 mt  952 1255 L
6261 1255 mt 6207 1255 L
 531 1344 mt 
(0.8) s
 899  834 mt  952  834 L
6261  834 mt 6207  834 L
 531  923 mt 
(0.9) s
 899  414 mt 6261  414 L
 899 4616 mt 6261 4616 L
6261 4616 mt 6261  414 L
 899 4616 mt  899  414 L
gs 899 414 5363 4203 rc
gr

/c8 { 0.000000 0.000000 1.000000 sr} bdef
c8
6059  523 mt 6131  523 L
6095  487 mt 6095  559 L
6157  606 mt 6229  606 L
6193  570 mt 6193  642 L
2487 1448 mt 2559 1448 L
2523 1412 mt 2523 1484 L
1711 3345 mt 1783 3345 L
1747 3309 mt 1747 3381 L
5961  556 mt 6033  556 L
5997  520 mt 5997  592 L
5332  675 mt 5404  675 L
5368  639 mt 5368  711 L
1393 4574 mt 1465 4574 L
1429 4538 mt 1429 4610 L
2316 1083 mt 2388 1083 L
2352 1047 mt 2352 1119 L
5533  558 mt 5605  558 L
5569  522 mt 5569  594 L
1262  781 mt 1334  781 L
1298  745 mt 1298  817 L
 863  765 mt  935  765 L
 899  729 mt  899  801 L
5861  740 mt 5933  740 L
5897  704 mt 5897  776 L
6164 1212 mt 6236 1212 L
6200 1176 mt 6200 1248 L
5622 1194 mt 5694 1194 L
5658 1158 mt 5658 1230 L
6216  719 mt 6288  719 L
6252  683 mt 6252  755 L
5730 1081 mt 5802 1081 L
5766 1045 mt 5766 1117 L
1183 4465 mt 1255 4465 L
1219 4429 mt 1219 4501 L
5072 1328 mt 5144 1328 L
5108 1292 mt 5108 1364 L
2779 1385 mt 2851 1385 L
2815 1349 mt 2815 1421 L
5193 1593 mt 5265 1593 L
5229 1557 mt 5229 1629 L
1290 3608 mt 1362 3608 L
1326 3572 mt 1326 3644 L
3090 4589 mt 3162 4589 L
3126 4553 mt 3126 4625 L
1538  880 mt 1610  880 L
1574  844 mt 1574  916 L
5066 1193 mt 5138 1193 L
5102 1157 mt 5102 1229 L
5736 2547 mt 5808 2547 L
5772 2511 mt 5772 2583 L
 864  736 mt  936  736 L
 900  700 mt  900  772 L
1319 2887 mt 1391 2887 L
1355 2851 mt 1355 2923 L
5987 4081 mt 6059 4081 L
6023 4045 mt 6023 4117 L
4909  487 mt 4981  487 L
4945  451 mt 4945  523 L
1747  635 mt 1819  635 L
1783  599 mt 1783  671 L
 919 1585 mt  991 1585 L
 955 1549 mt  955 1621 L
 873  519 mt  945  519 L
 909  483 mt  909  555 L
3159  792 mt 3231  792 L
3195  756 mt 3195  828 L
3919 3518 mt 3991 3518 L
3955 3482 mt 3955 3554 L
6146  638 mt 6218  638 L
6182  602 mt 6182  674 L
1954  699 mt 2026  699 L
1990  663 mt 1990  735 L
1815 1623 mt 1887 1623 L
1851 1587 mt 1851 1659 L
1314 1263 mt 1386 1263 L
1350 1227 mt 1350 1299 L
1395 1354 mt 1467 1354 L
1431 1318 mt 1431 1390 L
4450 1667 mt 4522 1667 L
4486 1631 mt 4486 1703 L
6001  881 mt 6073  881 L
6037  845 mt 6037  917 L
6193  452 mt 6265  452 L
6229  416 mt 6229  488 L
4951  776 mt 5023  776 L
4987  740 mt 4987  812 L
1885 4054 mt 1957 4054 L
1921 4018 mt 1921 4090 L
6216 4410 mt 6288 4410 L
6252 4374 mt 6252 4446 L
1175 4584 mt 1247 4584 L
1211 4548 mt 1211 4620 L
3572  746 mt 3644  746 L
3608  710 mt 3608  782 L
1754 4212 mt 1826 4212 L
1790 4176 mt 1790 4248 L
1503 2356 mt 1575 2356 L
1539 2320 mt 1539 2392 L
1214 2807 mt 1286 2807 L
1250 2771 mt 1250 2843 L
6217 4424 mt 6289 4424 L
6253 4388 mt 6253 4460 L
5916  459 mt 5988  459 L
5952  423 mt 5952  495 L
4086 1020 mt 4158 1020 L
4122  984 mt 4122 1056 L
6058 2100 mt 6130 2100 L
6094 2064 mt 6094 2136 L
4132  420 mt 4204  420 L
4168  384 mt 4168  456 L
4810 1363 mt 4882 1363 L
4846 1327 mt 4846 1399 L
3673  618 mt 3745  618 L
3709  582 mt 3709  654 L
6215  511 mt 6287  511 L
6251  475 mt 6251  547 L
2796  893 mt 2868  893 L
2832  857 mt 2832  929 L
3366 1115 mt 3438 1115 L
3402 1079 mt 3402 1151 L
6059 4588 mt 6131 4588 L
6095 4552 mt 6095 4624 L
1806  545 mt 1878  545 L
1842  509 mt 1842  581 L
5003 4380 mt 5075 4380 L
5039 4344 mt 5039 4416 L
6217 1255 mt 6289 1255 L
6253 1219 mt 6253 1291 L
5809  612 mt 5881  612 L
5845  576 mt 5845  648 L
6216 1038 mt 6288 1038 L
6252 1002 mt 6252 1074 L
6211  565 mt 6283  565 L
6247  529 mt 6247  601 L
5257 1553 mt 5329 1553 L
5293 1517 mt 5293 1589 L
2607  642 mt 2679  642 L
2643  606 mt 2643  678 L
6067  807 mt 6139  807 L
6103  771 mt 6103  843 L
1502 3861 mt 1574 3861 L
1538 3825 mt 1538 3897 L
6130 2490 mt 6202 2490 L
6166 2454 mt 6166 2526 L
 863 3983 mt  935 3983 L
 899 3947 mt  899 4019 L
2852  474 mt 2924  474 L
2888  438 mt 2888  510 L
1195  647 mt 1267  647 L
1231  611 mt 1231  683 L
6179 4348 mt 6251 4348 L
6215 4312 mt 6215 4384 L
6184 1820 mt 6256 1820 L
6220 1784 mt 6220 1856 L
1176 1075 mt 1248 1075 L
1212 1039 mt 1212 1111 L
1259  629 mt 1331  629 L
1295  593 mt 1295  665 L
2559 2837 mt 2631 2837 L
2595 2801 mt 2595 2873 L
6122  468 mt 6194  468 L
6158  432 mt 6158  504 L
2031 1382 mt 2103 1382 L
2067 1346 mt 2067 1418 L
6064 3072 mt 6136 3072 L
6100 3036 mt 6100 3108 L
4550  423 mt 4622  423 L
4586  387 mt 4586  459 L
1037  954 mt 1109  954 L
1073  918 mt 1073  990 L
4315 1705 mt 4387 1705 L
4351 1669 mt 4351 1741 L
6157  622 mt 6229  622 L
6193  586 mt 6193  658 L
5360  727 mt 5432  727 L
5396  691 mt 5396  763 L
4619 4464 mt 4691 4464 L
4655 4428 mt 4655 4500 L
6219 1701 mt 6291 1701 L
6255 1665 mt 6255 1737 L
3643 1019 mt 3715 1019 L
3679  983 mt 3679 1055 L
6221  564 mt 6293  564 L
6257  528 mt 6257  600 L
1232  787 mt 1304  787 L
1268  751 mt 1268  823 L
5607 2283 mt 5679 2283 L
5643 2247 mt 5643 2319 L
1260 3702 mt 1332 3702 L
1296 3666 mt 1296 3738 L
5389 4574 mt 5461 4574 L
5425 4538 mt 5425 4610 L
6117 3343 mt 6189 3343 L
6153 3307 mt 6153 3379 L
6201  457 mt 6273  457 L
6237  421 mt 6237  493 L
2577 1962 mt 2649 1962 L
2613 1926 mt 2613 1998 L
6129  468 mt 6201  468 L
6165  432 mt 6165  504 L
6225  767 mt 6297  767 L
6261  731 mt 6261  803 L
4612 1206 mt 4684 1206 L
4648 1170 mt 4648 1242 L
1121 2575 mt 1193 2575 L
1157 2539 mt 1157 2611 L
6150 4466 mt 6222 4466 L
6186 4430 mt 6186 4502 L
2321 1809 mt 2393 1809 L
2357 1773 mt 2357 1845 L
1176  482 mt 1248  482 L
1212  446 mt 1212  518 L
5677  926 mt 5749  926 L
5713  890 mt 5713  962 L
1006  772 mt 1078  772 L
1042  736 mt 1042  808 L
1720 1911 mt 1792 1911 L
1756 1875 mt 1756 1947 L
3401  760 mt 3473  760 L
3437  724 mt 3437  796 L
5698  885 mt 5770  885 L
5734  849 mt 5734  921 L
1314  430 mt 1386  430 L
1350  394 mt 1350  466 L
5868 1822 mt 5940 1822 L
5904 1786 mt 5904 1858 L
6170  864 mt 6242  864 L
6206  828 mt 6206  900 L
1326 3089 mt 1398 3089 L
1362 3053 mt 1362 3125 L
1104 2853 mt 1176 2853 L
1140 2817 mt 1140 2889 L
3742  545 mt 3814  545 L
3778  509 mt 3778  581 L
6171 3947 mt 6243 3947 L
6207 3911 mt 6207 3983 L
 879 1176 mt  951 1176 L
 915 1140 mt  915 1212 L
3138 1707 mt 3210 1707 L
3174 1671 mt 3174 1743 L
5951 1062 mt 6023 1062 L
5987 1026 mt 5987 1098 L
1705  452 mt 1777  452 L
1741  416 mt 1741  488 L
5544  660 mt 5616  660 L
5580  624 mt 5580  696 L
 894 1017 mt  966 1017 L
 930  981 mt  930 1053 L
3546  560 mt 3618  560 L
3582  524 mt 3582  596 L
6223 1143 mt 6295 1143 L
6259 1107 mt 6259 1179 L
5984 3151 mt 6056 3151 L
6020 3115 mt 6020 3187 L
5804 1077 mt 5876 1077 L
5840 1041 mt 5840 1113 L
1510  894 mt 1582  894 L
1546  858 mt 1546  930 L
 896  705 mt  968  705 L
 932  669 mt  932  741 L
6166 1038 mt 6238 1038 L
6202 1002 mt 6202 1074 L
4313 2084 mt 4385 2084 L
4349 2048 mt 4349 2120 L
2291 3609 mt 2363 3609 L
2327 3573 mt 2327 3645 L
5737 1312 mt 5809 1312 L
5773 1276 mt 5773 1348 L
1147 1076 mt 1219 1076 L
1183 1040 mt 1183 1112 L
6100  600 mt 6172  600 L
6136  564 mt 6136  636 L
1812 4610 mt 1884 4610 L
1848 4574 mt 1848 4646 L
4714  569 mt 4786  569 L
4750  533 mt 4750  605 L
3100  591 mt 3172  591 L
3136  555 mt 3136  627 L
4835 2452 mt 4907 2452 L
4871 2416 mt 4871 2488 L
4556 1915 mt 4628 1915 L
4592 1879 mt 4592 1951 L
6197  547 mt 6269  547 L
6233  511 mt 6233  583 L
 888 3880 mt  960 3880 L
 924 3844 mt  924 3916 L
2041  720 mt 2113  720 L
2077  684 mt 2077  756 L
6194 1602 mt 6266 1602 L
6230 1566 mt 6230 1638 L
4767 1104 mt 4839 1104 L
4803 1068 mt 4803 1140 L
1173  938 mt 1245  938 L
1209  902 mt 1209  974 L
6141  490 mt 6213  490 L
6177  454 mt 6177  526 L
3245  612 mt 3317  612 L
3281  576 mt 3281  648 L
2860  645 mt 2932  645 L
2896  609 mt 2896  681 L
1106  931 mt 1178  931 L
1142  895 mt 1142  967 L
2386  672 mt 2458  672 L
2422  636 mt 2422  708 L
1863  639 mt 1935  639 L
1899  603 mt 1899  675 L
1465 1428 mt 1537 1428 L
1501 1392 mt 1501 1464 L
1016 1776 mt 1088 1776 L
1052 1740 mt 1052 1812 L
3242 1999 mt 3314 1999 L
3278 1963 mt 3278 2035 L
1265 1763 mt 1337 1763 L
1301 1727 mt 1301 1799 L
1619 3297 mt 1691 3297 L
1655 3261 mt 1655 3333 L
 863 2445 mt  935 2445 L
 899 2409 mt  899 2481 L
4695 3001 mt 4767 3001 L
4731 2965 mt 4731 3037 L
5087 2108 mt 5159 2108 L
5123 2072 mt 5123 2144 L
2601 2145 mt 2673 2145 L
2637 2109 mt 2637 2181 L
 977  857 mt 1049  857 L
1013  821 mt 1013  893 L
5311  825 mt 5383  825 L
5347  789 mt 5347  861 L
1546  485 mt 1618  485 L
1582  449 mt 1582  521 L
 948  569 mt 1020  569 L
 984  533 mt  984  605 L
1397 2147 mt 1469 2147 L
1433 2111 mt 1433 2183 L
5713 1507 mt 5785 1507 L
5749 1471 mt 5749 1543 L
2370  463 mt 2442  463 L
2406  427 mt 2406  499 L
6206  864 mt 6278  864 L
6242  828 mt 6242  900 L
4106  417 mt 4178  417 L
4142  381 mt 4142  453 L
6088  468 mt 6160  468 L
6124  432 mt 6124  504 L
1538  823 mt 1610  823 L
1574  787 mt 1574  859 L
3584  670 mt 3656  670 L
3620  634 mt 3620  706 L
2296 4464 mt 2368 4464 L
2332 4428 mt 2332 4500 L
6078  486 mt 6150  486 L
6114  450 mt 6114  522 L
5009  516 mt 5081  516 L
5045  480 mt 5045  552 L
6223  614 mt 6295  614 L
6259  578 mt 6259  650 L
6139 1692 mt 6211 1692 L
6175 1656 mt 6175 1728 L
1021  473 mt 1093  473 L
1057  437 mt 1057  509 L
1394 1287 mt 1466 1287 L
1430 1251 mt 1430 1323 L
4046 2560 mt 4118 2560 L
4082 2524 mt 4082 2596 L
2924  444 mt 2996  444 L
2960  408 mt 2960  480 L
6189 3377 mt 6261 3377 L
6225 3341 mt 6225 3413 L
3579 3732 mt 3651 3732 L
3615 3696 mt 3615 3768 L
1590  433 mt 1662  433 L
1626  397 mt 1626  469 L
5523 1325 mt 5595 1325 L
5559 1289 mt 5559 1361 L
5748 1042 mt 5820 1042 L
5784 1006 mt 5784 1078 L
5061  461 mt 5133  461 L
5097  425 mt 5097  497 L
2013  884 mt 2085  884 L
2049  848 mt 2049  920 L
1018 1579 mt 1090 1579 L
1054 1543 mt 1054 1615 L
5467 2342 mt 5539 2342 L
5503 2306 mt 5503 2378 L
6203  772 mt 6275  772 L
6239  736 mt 6239  808 L
6059  490 mt 6131  490 L
6095  454 mt 6095  526 L
5853  420 mt 5925  420 L
5889  384 mt 5889  456 L
1077  640 mt 1149  640 L
1113  604 mt 1113  676 L
2865 4436 mt 2937 4436 L
2901 4400 mt 2901 4472 L
6025  532 mt 6097  532 L
6061  496 mt 6061  568 L
3575 2123 mt 3647 2123 L
3611 2087 mt 3611 2159 L
5555  685 mt 5627  685 L
5591  649 mt 5591  721 L
6217  576 mt 6289  576 L
6253  540 mt 6253  612 L
6205  524 mt 6277  524 L
6241  488 mt 6241  560 L
2233 2739 mt 2305 2739 L
2269 2703 mt 2269 2775 L
1787 1737 mt 1859 1737 L
1823 1701 mt 1823 1773 L
1097  591 mt 1169  591 L
1133  555 mt 1133  627 L
6108 1413 mt 6180 1413 L
6144 1377 mt 6144 1449 L
 973 4374 mt 1045 4374 L
1009 4338 mt 1009 4410 L
5751 1908 mt 5823 1908 L
5787 1872 mt 5787 1944 L
6209  414 mt 6281  414 L
6245  378 mt 6245  450 L
 870 4108 mt  942 4108 L
 906 4072 mt  906 4144 L
1323  420 mt 1395  420 L
1359  384 mt 1359  456 L
6219 1887 mt 6291 1887 L
6255 1851 mt 6255 1923 L
6223  565 mt 6295  565 L
6259  529 mt 6259  601 L
4845 4574 mt 4917 4574 L
4881 4538 mt 4881 4610 L
6205  428 mt 6277  428 L
6241  392 mt 6241  464 L
6199  845 mt 6271  845 L
6235  809 mt 6235  881 L
6179 2805 mt 6251 2805 L
6215 2769 mt 6215 2841 L
5757 4355 mt 5829 4355 L
5793 4319 mt 5793 4391 L
1188  448 mt 1260  448 L
1224  412 mt 1224  484 L
3781 2491 mt 3853 2491 L
3817 2455 mt 3817 2527 L
2488  439 mt 2560  439 L
2524  403 mt 2524  475 L
2478 1156 mt 2550 1156 L
2514 1120 mt 2514 1192 L
6169 1231 mt 6241 1231 L
6205 1195 mt 6205 1267 L
 873 3690 mt  945 3690 L
 909 3654 mt  909 3726 L
6146 3998 mt 6218 3998 L
6182 3962 mt 6182 4034 L
2174 1108 mt 2246 1108 L
2210 1072 mt 2210 1144 L
1702  648 mt 1774  648 L
1738  612 mt 1738  684 L
5959 1133 mt 6031 1133 L
5995 1097 mt 5995 1169 L
3389  567 mt 3461  567 L
3425  531 mt 3425  603 L
5199 1196 mt 5271 1196 L
5235 1160 mt 5235 1232 L
5967 3858 mt 6039 3858 L
6003 3822 mt 6003 3894 L
4515 3740 mt 4587 3740 L
4551 3704 mt 4551 3776 L
3999 1661 mt 4071 1661 L
4035 1625 mt 4035 1697 L
4353  920 mt 4425  920 L
4389  884 mt 4389  956 L
2123  440 mt 2195  440 L
2159  404 mt 2159  476 L
5778 3972 mt 5850 3972 L
5814 3936 mt 5814 4008 L
6211 3737 mt 6283 3737 L
6247 3701 mt 6247 3773 L
5987 2672 mt 6059 2672 L
6023 2636 mt 6023 2708 L
1116 1651 mt 1188 1651 L
1152 1615 mt 1152 1687 L
6221  691 mt 6293  691 L
6257  655 mt 6257  727 L
6222 4599 mt 6294 4599 L
6258 4563 mt 6258 4635 L
6215  744 mt 6287  744 L
6251  708 mt 6251  780 L
6223 1531 mt 6295 1531 L
6259 1495 mt 6259 1567 L
6207 2629 mt 6279 2629 L
6243 2593 mt 6243 2665 L
6005 1989 mt 6077 1989 L
6041 1953 mt 6041 2025 L
6220 3116 mt 6292 3116 L
6256 3080 mt 6256 3152 L
2892  484 mt 2964  484 L
2928  448 mt 2928  520 L
1798 2102 mt 1870 2102 L
1834 2066 mt 1834 2138 L
6175 2081 mt 6247 2081 L
6211 2045 mt 6211 2117 L
 877 4347 mt  949 4347 L
 913 4311 mt  913 4383 L
6210 4449 mt 6282 4449 L
6246 4413 mt 6246 4485 L
5133  819 mt 5205  819 L
5169  783 mt 5169  855 L
4634 1269 mt 4706 1269 L
4670 1233 mt 4670 1305 L
6220 3663 mt 6292 3663 L
6256 3627 mt 6256 3699 L
2673  588 mt 2745  588 L
2709  552 mt 2709  624 L
4308 4086 mt 4380 4086 L
4344 4050 mt 4344 4122 L
6202 2336 mt 6274 2336 L
6238 2300 mt 6238 2372 L
3993  453 mt 4065  453 L
4029  417 mt 4029  489 L
6175  430 mt 6247  430 L
6211  394 mt 6211  466 L
1028 1006 mt 1100 1006 L
1064  970 mt 1064 1042 L
6222 1973 mt 6294 1973 L
6258 1937 mt 6258 2009 L
6063 1336 mt 6135 1336 L
6099 1300 mt 6099 1372 L
6064 1600 mt 6136 1600 L
6100 1564 mt 6100 1636 L
6205 3684 mt 6277 3684 L
6241 3648 mt 6241 3720 L
4002 1652 mt 4074 1652 L
4038 1616 mt 4038 1688 L
4109 1120 mt 4181 1120 L
4145 1084 mt 4145 1156 L
6215 1693 mt 6287 1693 L
6251 1657 mt 6251 1729 L
3214  433 mt 3286  433 L
3250  397 mt 3250  469 L
4054  480 mt 4126  480 L
4090  444 mt 4090  516 L
6028 2347 mt 6100 2347 L
6064 2311 mt 6064 2383 L
6224  711 mt 6296  711 L
6260  675 mt 6260  747 L
6168 1029 mt 6240 1029 L
6204  993 mt 6204 1065 L
6217 4152 mt 6289 4152 L
6253 4116 mt 6253 4188 L
2166  495 mt 2238  495 L
2202  459 mt 2202  531 L
2913  438 mt 2985  438 L
2949  402 mt 2949  474 L
1885 4534 mt 1957 4534 L
1921 4498 mt 1921 4570 L
6216 1120 mt 6288 1120 L
6252 1084 mt 6252 1156 L
6215 1118 mt 6287 1118 L
6251 1082 mt 6251 1154 L
1711  683 mt 1783  683 L
1747  647 mt 1747  719 L
6220  417 mt 6292  417 L
6256  381 mt 6256  453 L
4720 2915 mt 4792 2915 L
4756 2879 mt 4756 2951 L
2569  681 mt 2641  681 L
2605  645 mt 2605  717 L
6219 4606 mt 6291 4606 L
6255 4570 mt 6255 4642 L
5060 1022 mt 5132 1022 L
5096  986 mt 5096 1058 L
6078 4230 mt 6150 4230 L
6114 4194 mt 6114 4266 L
2203  415 mt 2275  415 L
2239  379 mt 2239  451 L
6205  686 mt 6277  686 L
6241  650 mt 6241  722 L
5958 1885 mt 6030 1885 L
5994 1849 mt 5994 1921 L
4202 3919 mt 4274 3919 L
4238 3883 mt 4238 3955 L
6186 4299 mt 6258 4299 L
6222 4263 mt 6222 4335 L
6195 3021 mt 6267 3021 L
6231 2985 mt 6231 3057 L
6100 1278 mt 6172 1278 L
6136 1242 mt 6136 1314 L
3551  695 mt 3623  695 L
3587  659 mt 3587  731 L
2454 4580 mt 2526 4580 L
2490 4544 mt 2490 4616 L
5584  866 mt 5656  866 L
5620  830 mt 5620  902 L
1427 4603 mt 1499 4603 L
1463 4567 mt 1463 4639 L
5722 3131 mt 5794 3131 L
5758 3095 mt 5758 3167 L
2605  460 mt 2677  460 L
2641  424 mt 2641  496 L
2566 1878 mt 2638 1878 L
2602 1842 mt 2602 1914 L
6215 1428 mt 6287 1428 L
6251 1392 mt 6251 1464 L
6070  629 mt 6142  629 L
6106  593 mt 6106  665 L
5396 2749 mt 5468 2749 L
5432 2713 mt 5432 2785 L
4956  820 mt 5028  820 L
4992  784 mt 4992  856 L
6206 3397 mt 6278 3397 L
6242 3361 mt 6242 3433 L
2428 1432 mt 2500 1432 L
2464 1396 mt 2464 1468 L
4469 4616 mt 4541 4616 L
4505 4580 mt 4505 4652 L
6224  430 mt 6296  430 L
6260  394 mt 6260  466 L
6163 3264 mt 6235 3264 L
6199 3228 mt 6199 3300 L
6168 4182 mt 6240 4182 L
6204 4146 mt 6204 4218 L
3995 2737 mt 4067 2737 L
4031 2701 mt 4031 2773 L
5996  745 mt 6068  745 L
6032  709 mt 6032  781 L
2751 3745 mt 2823 3745 L
2787 3709 mt 2787 3781 L
3705  514 mt 3777  514 L
3741  478 mt 3741  550 L
2589 4229 mt 2661 4229 L
2625 4193 mt 2625 4265 L
2158 4614 mt 2230 4614 L
2194 4578 mt 2194 4650 L
 869 2935 mt  941 2935 L
 905 2899 mt  905 2971 L
6197 1547 mt 6269 1547 L
6233 1511 mt 6233 1583 L
5583 3977 mt 5655 3977 L
5619 3941 mt 5619 4013 L
5512 1076 mt 5584 1076 L
5548 1040 mt 5548 1112 L
6200  458 mt 6272  458 L
6236  422 mt 6236  494 L
6221  670 mt 6293  670 L
6257  634 mt 6257  706 L
5616 3632 mt 5688 3632 L
5652 3596 mt 5652 3668 L
5533  646 mt 5605  646 L
5569  610 mt 5569  682 L
 863 2921 mt  935 2921 L
 899 2885 mt  899 2957 L
5913  415 mt 5985  415 L
5949  379 mt 5949  451 L
5455  556 mt 5527  556 L
5491  520 mt 5491  592 L
6040 3911 mt 6112 3911 L
6076 3875 mt 6076 3947 L
6049 2960 mt 6121 2960 L
6085 2924 mt 6085 2996 L
6221  936 mt 6293  936 L
6257  900 mt 6257  972 L
1386 4308 mt 1458 4308 L
1422 4272 mt 1422 4344 L
6123  427 mt 6195  427 L
6159  391 mt 6159  463 L
2109 2409 mt 2181 2409 L
2145 2373 mt 2145 2445 L
6156 1421 mt 6228 1421 L
6192 1385 mt 6192 1457 L
5127 1130 mt 5199 1130 L
5163 1094 mt 5163 1166 L
4427  503 mt 4499  503 L
4463  467 mt 4463  539 L
5807 1400 mt 5879 1400 L
5843 1364 mt 5843 1436 L
3146 3081 mt 3218 3081 L
3182 3045 mt 3182 3117 L
6172 1993 mt 6244 1993 L
6208 1957 mt 6208 2029 L
5239 2046 mt 5311 2046 L
5275 2010 mt 5275 2082 L
3977 3301 mt 4049 3301 L
4013 3265 mt 4013 3337 L
3708  977 mt 3780  977 L
3744  941 mt 3744 1013 L
6224 2122 mt 6296 2122 L
6260 2086 mt 6260 2158 L
1542 4035 mt 1614 4035 L
1578 3999 mt 1578 4071 L
 863 3778 mt  935 3778 L
 899 3742 mt  899 3814 L
3966 3426 mt 4038 3426 L
4002 3390 mt 4002 3462 L
5690 1493 mt 5762 1493 L
5726 1457 mt 5726 1529 L
5915  526 mt 5987  526 L
5951  490 mt 5951  562 L
5699  458 mt 5771  458 L
5735  422 mt 5735  494 L
5578  731 mt 5650  731 L
5614  695 mt 5614  767 L
 870 2720 mt  942 2720 L
 906 2684 mt  906 2756 L
 870  705 mt  942  705 L
 906  669 mt  906  741 L
2143 4316 mt 2215 4316 L
2179 4280 mt 2179 4352 L
5585  459 mt 5657  459 L
5621  423 mt 5621  495 L
5411 4615 mt 5483 4615 L
5447 4579 mt 5447 4651 L
2817  415 mt 2889  415 L
2853  379 mt 2853  451 L
6026  416 mt 6098  416 L
6062  380 mt 6062  452 L
1588  848 mt 1660  848 L
1624  812 mt 1624  884 L
2653 4564 mt 2725 4564 L
2689 4528 mt 2689 4600 L
1268 4061 mt 1340 4061 L
1304 4025 mt 1304 4097 L
1786 3733 mt 1858 3733 L
1822 3697 mt 1822 3769 L
6115 4568 mt 6187 4568 L
6151 4532 mt 6151 4604 L
4758 1092 mt 4830 1092 L
4794 1056 mt 4794 1128 L
 863 2645 mt  935 2645 L
 899 2609 mt  899 2681 L
6075  434 mt 6147  434 L
6111  398 mt 6111  470 L
1258 2241 mt 1330 2241 L
1294 2205 mt 1294 2277 L
5073 4615 mt 5145 4615 L
5109 4579 mt 5109 4651 L
6175 4497 mt 6247 4497 L
6211 4461 mt 6211 4533 L
1057 2252 mt 1129 2252 L
1093 2216 mt 1093 2288 L
6213  615 mt 6285  615 L
6249  579 mt 6249  651 L
6209 1722 mt 6281 1722 L
6245 1686 mt 6245 1758 L
2894 3872 mt 2966 3872 L
2930 3836 mt 2930 3908 L
6205 1348 mt 6277 1348 L
6241 1312 mt 6241 1384 L
6222 3058 mt 6294 3058 L
6258 3022 mt 6258 3094 L
1926  671 mt 1998  671 L
1962  635 mt 1962  707 L
6213 4084 mt 6285 4084 L
6249 4048 mt 6249 4120 L
1866  579 mt 1938  579 L
1902  543 mt 1902  615 L
 864 4389 mt  936 4389 L
 900 4353 mt  900 4425 L
3728 4076 mt 3800 4076 L
3764 4040 mt 3764 4112 L
2586 4557 mt 2658 4557 L
2622 4521 mt 2622 4593 L
 863 4214 mt  935 4214 L
 899 4178 mt  899 4250 L
 994 4146 mt 1066 4146 L
1030 4110 mt 1030 4182 L
1080 2571 mt 1152 2571 L
1116 2535 mt 1116 2607 L
6223 1512 mt 6295 1512 L
6259 1476 mt 6259 1548 L
6193  601 mt 6265  601 L
6229  565 mt 6229  637 L
 968 3195 mt 1040 3195 L
1004 3159 mt 1004 3231 L
6223 1359 mt 6295 1359 L
6259 1323 mt 6259 1395 L
2726 2592 mt 2798 2592 L
2762 2556 mt 2762 2628 L
4333 3395 mt 4405 3395 L
4369 3359 mt 4369 3431 L
1039 3340 mt 1111 3340 L
1075 3304 mt 1075 3376 L
3331  818 mt 3403  818 L
3367  782 mt 3367  854 L
 874 1342 mt  946 1342 L
 910 1306 mt  910 1378 L
5458 1701 mt 5530 1701 L
5494 1665 mt 5494 1737 L
6186 2186 mt 6258 2186 L
6222 2150 mt 6222 2222 L
4426  760 mt 4498  760 L
4462  724 mt 4462  796 L
6223  617 mt 6295  617 L
6259  581 mt 6259  653 L
2837  555 mt 2909  555 L
2873  519 mt 2873  591 L
5740 4309 mt 5812 4309 L
5776 4273 mt 5776 4345 L
5725  423 mt 5797  423 L
5761  387 mt 5761  459 L
4521 2429 mt 4593 2429 L
4557 2393 mt 4557 2465 L
6213 1076 mt 6285 1076 L
6249 1040 mt 6249 1112 L
gs 899 414 5363 4203 rc
gr

0 sg
2826 5104 mt 
(\(F,DCTs,MLP\)) s
 422 3277 mt  -90 rotate
(\(S,SSC,GMM\)) s
90 rotate
2975  223 mt 
(Corr = 0.10) s

end %%Color Dict

eplot
%%EndObject

epage
end

showpage

%%Trailer
%%EOF
