%!PS-Adobe-3.0 EPSF-3.0
%%Creator: MATLAB, The Mathworks, Inc.
%%Title: Pictures\main_analyse_rerun3_arun_fratio_corr_corr.eps
%%CreationDate: 02/01/2009  09:33:45
%%DocumentNeededFonts: Helvetica
%%DocumentProcessColors: Cyan Magenta Yellow Black
%%LanguageLevel: 2
%%Pages: 1
%%BoundingBox:    18   191   543   583
%%EndComments

%%BeginProlog
% MathWorks dictionary
/MathWorks 160 dict begin
% definition operators
/bdef {bind def} bind def
/ldef {load def} bind def
/xdef {exch def} bdef
/xstore {exch store} bdef
% operator abbreviations
/c  /clip ldef
/cc /concat ldef
/cp /closepath ldef
/gr /grestore ldef
/gs /gsave ldef
/mt /moveto ldef
/np /newpath ldef
/cm /currentmatrix ldef
/sm /setmatrix ldef
/rm /rmoveto ldef
/rl /rlineto ldef
/s {show newpath} bdef
/sc {setcmykcolor} bdef
/sr /setrgbcolor ldef
/sg /setgray ldef
/w /setlinewidth ldef
/j /setlinejoin ldef
/cap /setlinecap ldef
/rc {rectclip} bdef
/rf {rectfill} bdef
% page state control
/pgsv () def
/bpage {/pgsv save def} bdef
/epage {pgsv restore} bdef
/bplot /gsave ldef
/eplot {stroke grestore} bdef
% orientation switch
/portraitMode 0 def /landscapeMode 1 def /rotateMode 2 def
% coordinate system mappings
/dpi2point 0 def
% font control
/FontSize 0 def
/FMS {/FontSize xstore findfont [FontSize 0 0 FontSize neg 0 0]
  makefont setfont} bdef
/ISOLatin1Encoding where {pop /WindowsLatin1Encoding 256 array bdef
ISOLatin1Encoding WindowsLatin1Encoding copy pop
/.notdef/.notdef/quotesinglbase/florin/quotedblbase/ellipsis/dagger
/daggerdbl/circumflex/perthousand/Scaron/guilsinglleft/OE/.notdef/.notdef
/.notdef/.notdef/quoteleft/quoteright/quotedblleft/quotedblright/bullet
/endash/emdash/tilde/trademark/scaron/guilsinglright/oe/.notdef/.notdef
/Ydieresis WindowsLatin1Encoding 128 32 getinterval astore pop}
{/WindowsLatin1Encoding StandardEncoding bdef} ifelse
/reencode {exch dup where {pop load} {pop StandardEncoding} ifelse
  exch dup 3 1 roll findfont dup length dict begin
  { 1 index /FID ne {def}{pop pop} ifelse } forall
  /Encoding exch def currentdict end definefont pop} bdef
/isroman {findfont /CharStrings get /Agrave known} bdef
/FMSR {3 1 roll 1 index dup isroman {reencode} {pop pop} ifelse
  exch FMS} bdef
/csm {1 dpi2point div -1 dpi2point div scale neg translate
 dup landscapeMode eq {pop -90 rotate}
  {rotateMode eq {90 rotate} if} ifelse} bdef
% line types: solid, dotted, dashed, dotdash
/SO { [] 0 setdash } bdef
/DO { [.5 dpi2point mul 4 dpi2point mul] 0 setdash } bdef
/DA { [6 dpi2point mul] 0 setdash } bdef
/DD { [.5 dpi2point mul 4 dpi2point mul 6 dpi2point mul 4
  dpi2point mul] 0 setdash } bdef
% macros for lines and objects
/L {lineto stroke} bdef
/MP {3 1 roll moveto 1 sub {rlineto} repeat} bdef
/AP {{rlineto} repeat} bdef
/PDlw -1 def
/W {/PDlw currentlinewidth def setlinewidth} def
/PP {closepath eofill} bdef
/DP {closepath stroke} bdef
/MR {4 -2 roll moveto dup  0 exch rlineto exch 0 rlineto
  neg 0 exch rlineto closepath} bdef
/FR {MR stroke} bdef
/PR {MR fill} bdef
/L1i {{currentfile picstr readhexstring pop} image} bdef
/tMatrix matrix def
/MakeOval {newpath tMatrix currentmatrix pop translate scale
0 0 1 0 360 arc tMatrix setmatrix} bdef
/FO {MakeOval stroke} bdef
/PO {MakeOval fill} bdef
/PD {currentlinewidth 2 div 0 360 arc fill
   PDlw -1 eq not {PDlw w /PDlw -1 def} if} def
/FA {newpath tMatrix currentmatrix pop translate scale
  0 0 1 5 -2 roll arc tMatrix setmatrix stroke} bdef
/PA {newpath tMatrix currentmatrix pop	translate 0 0 moveto scale
  0 0 1 5 -2 roll arc closepath tMatrix setmatrix fill} bdef
/FAn {newpath tMatrix currentmatrix pop translate scale
  0 0 1 5 -2 roll arcn tMatrix setmatrix stroke} bdef
/PAn {newpath tMatrix currentmatrix pop translate 0 0 moveto scale
  0 0 1 5 -2 roll arcn closepath tMatrix setmatrix fill} bdef
/vradius 0 def /hradius 0 def /lry 0 def
/lrx 0 def /uly 0 def /ulx 0 def /rad 0 def
/MRR {/vradius xdef /hradius xdef /lry xdef /lrx xdef /uly xdef
  /ulx xdef newpath tMatrix currentmatrix pop ulx hradius add uly
  vradius add translate hradius vradius scale 0 0 1 180 270 arc 
  tMatrix setmatrix lrx hradius sub uly vradius add translate
  hradius vradius scale 0 0 1 270 360 arc tMatrix setmatrix
  lrx hradius sub lry vradius sub translate hradius vradius scale
  0 0 1 0 90 arc tMatrix setmatrix ulx hradius add lry vradius sub
  translate hradius vradius scale 0 0 1 90 180 arc tMatrix setmatrix
  closepath} bdef
/FRR {MRR stroke } bdef
/PRR {MRR fill } bdef
/MlrRR {/lry xdef /lrx xdef /uly xdef /ulx xdef /rad lry uly sub 2 div def
  newpath tMatrix currentmatrix pop ulx rad add uly rad add translate
  rad rad scale 0 0 1 90 270 arc tMatrix setmatrix lrx rad sub lry rad
  sub translate rad rad scale 0 0 1 270 90 arc tMatrix setmatrix
  closepath} bdef
/FlrRR {MlrRR stroke } bdef
/PlrRR {MlrRR fill } bdef
/MtbRR {/lry xdef /lrx xdef /uly xdef /ulx xdef /rad lrx ulx sub 2 div def
  newpath tMatrix currentmatrix pop ulx rad add uly rad add translate
  rad rad scale 0 0 1 180 360 arc tMatrix setmatrix lrx rad sub lry rad
  sub translate rad rad scale 0 0 1 0 180 arc tMatrix setmatrix
  closepath} bdef
/FtbRR {MtbRR stroke } bdef
/PtbRR {MtbRR fill } bdef
/stri 6 array def /dtri 6 array def
/smat 6 array def /dmat 6 array def
/tmat1 6 array def /tmat2 6 array def /dif 3 array def
/asub {/ind2 exch def /ind1 exch def dup dup
  ind1 get exch ind2 get sub exch } bdef
/tri_to_matrix {
  2 0 asub 3 1 asub 4 0 asub 5 1 asub
  dup 0 get exch 1 get 7 -1 roll astore } bdef
/compute_transform {
  dmat dtri tri_to_matrix tmat1 invertmatrix 
  smat stri tri_to_matrix tmat2 concatmatrix } bdef
/ds {stri astore pop} bdef
/dt {dtri astore pop} bdef
/db {2 copy /cols xdef /rows xdef mul dup 3 mul string
  currentfile 
  3 index 0 eq {/ASCIIHexDecode filter}
  {/ASCII85Decode filter 3 index 2 eq {/RunLengthDecode filter} if }
  ifelse exch readstring pop
  dup 0 3 index getinterval /rbmap xdef
  dup 2 index dup getinterval /gbmap xdef
  1 index dup 2 mul exch getinterval /bbmap xdef pop pop}bdef
/it {gs np dtri aload pop moveto lineto lineto cp c
  cols rows 8 compute_transform 
  rbmap gbmap bbmap true 3 colorimage gr}bdef
/il {newpath moveto lineto stroke}bdef
currentdict end def
%%EndProlog

%%BeginSetup
MathWorks begin

0 cap

end
%%EndSetup

%%Page: 1 1
%%BeginPageSetup
%%PageBoundingBox:    18   191   543   583
MathWorks begin
bpage
%%EndPageSetup

%%BeginObject: obj1
bplot

/dpi2point 12 def
portraitMode 0216 7344 csm

    0   341  6311  4705 rc
85 dict begin %Colortable dictionary
/c0 { 0.000000 0.000000 0.000000 sr} bdef
/c1 { 1.000000 1.000000 1.000000 sr} bdef
/c2 { 0.900000 0.000000 0.000000 sr} bdef
/c3 { 0.000000 0.820000 0.000000 sr} bdef
/c4 { 0.000000 0.000000 0.800000 sr} bdef
/c5 { 0.910000 0.820000 0.320000 sr} bdef
/c6 { 1.000000 0.260000 0.820000 sr} bdef
/c7 { 0.000000 0.820000 0.820000 sr} bdef
c0
1 j
1 sg
   0    0 6919 5187 rf
6 w
0 4227 4466 0 0 -4227 1795 4616 4 MP
PP
-4466 0 0 4227 4466 0 0 -4227 1795 4616 5 MP stroke
4 w
DO
SO
6 w
0 sg
1795  389 mt 6261  389 L
1795 4616 mt 6261 4616 L
6261 4616 mt 6261  389 L
1795 4616 mt 1795  389 L
1795 4616 mt 6261 4616 L
1795 4616 mt 1795  389 L
2254 4616 mt 2254 4571 L
2254  389 mt 2254  433 L
%%IncludeResource: font Helvetica
/Helvetica /WindowsLatin1Encoding 168 FMSR

2138 4806 mt 
(0.2) s
2760 4616 mt 2760 4571 L
2760  389 mt 2760  433 L
2644 4806 mt 
(0.3) s
3266 4616 mt 3266 4571 L
3266  389 mt 3266  433 L
3150 4806 mt 
(0.4) s
3772 4616 mt 3772 4571 L
3772  389 mt 3772  433 L
3656 4806 mt 
(0.5) s
4278 4616 mt 4278 4571 L
4278  389 mt 4278  433 L
4162 4806 mt 
(0.6) s
4784 4616 mt 4784 4571 L
4784  389 mt 4784  433 L
4668 4806 mt 
(0.7) s
5290 4616 mt 5290 4571 L
5290  389 mt 5290  433 L
5174 4806 mt 
(0.8) s
5796 4616 mt 5796 4571 L
5796  389 mt 5796  433 L
5680 4806 mt 
(0.9) s
1795 4263 mt 1839 4263 L
6261 4263 mt 6216 4263 L
 793 4325 mt 
(F-ratio \(orig\)) s
1795 3559 mt 1839 3559 L
6261 3559 mt 6216 3559 L
 488 3621 mt 
(F-ratio \(F-norm\)) s
1795 2854 mt 1839 2854 L
6261 2854 mt 6216 2854 L
 305 2916 mt 
(comp. F-ratio \(orig\)) s
1795 2150 mt 1839 2150 L
6261 2150 mt 6216 2150 L
   0 2212 mt 
(comp. F-ratio \(F-norm\)) s
1795 1445 mt 1839 1445 L
6261 1445 mt 6216 1445 L
 784 1507 mt 
(B-ratio \(orig\)) s
1795  741 mt 1839  741 L
6261  741 mt 6216  741 L
 479  803 mt 
(B-ratio \(F-norm\)) s
1795  389 mt 6261  389 L
1795 4616 mt 6261 4616 L
6261 4616 mt 6261  389 L
1795 4616 mt 1795  389 L
3635 4984 mt 
(correlation) s
gs 1795 389 4467 4228 rc
DA
783 0 3371 4263 2 MP stroke
473 0 2301 4263 2 MP stroke
SO
0 -176 4154 4351 2 MP stroke
0 -176 2301 4351 2 MP stroke
/c8 { 0.000000 0.000000 1.000000 sr} bdef
c8
597 0 0 352 -597 0 0 -352 3371 4439 5 MP stroke
/c9 { 1.000000 0.000000 0.000000 sr} bdef
c9
0 -352 3069 4439 2 MP stroke
DA
0 sg
494 0 3749 3559 2 MP stroke
793 0 1998 3559 2 MP stroke
SO
0 -176 4243 3647 2 MP stroke
0 -176 1998 3647 2 MP stroke
c8
958 0 0 352 -958 0 0 -352 3749 3735 5 MP stroke
c9
0 -352 3150 3735 2 MP stroke
DA
0 sg
560 0 4380 2854 2 MP stroke
312 0 2805 2854 2 MP stroke
SO
0 -176 4940 2942 2 MP stroke
0 -176 2805 2942 2 MP stroke
c8
1263 0 0 352 -1263 0 0 -352 4380 3030 5 MP stroke
c9
0 -352 3545 3030 2 MP stroke
DA
0 sg
494 0 3749 2150 2 MP stroke
793 0 1998 2150 2 MP stroke
SO
0 -176 4243 2238 2 MP stroke
0 -176 1998 2238 2 MP stroke
c8
958 0 0 352 -958 0 0 -352 3749 2326 5 MP stroke
c9
0 -352 3150 2326 2 MP stroke
DA
0 sg
1085 0 4631 1445 2 MP stroke
1274 0 2375 1445 2 MP stroke
SO
0 -176 5716 1533 2 MP stroke
0 -176 2375 1533 2 MP stroke
c8
982 0 0 352 -982 0 0 -352 4631 1621 5 MP stroke
c9
0 -352 4259 1621 2 MP stroke
DA
0 sg
103 0 5955 741 2 MP stroke
617 0 4885 741 2 MP stroke
SO
0 -176 6058 829 2 MP stroke
0 -176 4885 829 2 MP stroke
c8
453 0 0 352 -453 0 0 -352 5955 917 5 MP stroke
c9
0 -352 5705 917 2 MP stroke
gr

c9
3733  741 mt 3805  741 L
3769  705 mt 3769  777 L
gs 1795 389 4467 4228 rc
gr


end %%Color Dict

eplot
%%EndObject

epage
end

showpage

%%Trailer
%%EOF
