%!PS-Adobe-3.0 EPSF-3.0
%%Creator: MATLAB, The Mathworks, Inc. Version 7.7.0.471 (R2008b). Operating System: Microsoft Windows XP.
%%Title: Pictures\main_zoo_mvar_analysis_data_BMI_xcorr_bmi_p1_k1_3_7.eps
%%CreationDate: 10/26/2009  05:44:02
%%DocumentNeededFonts: Helvetica
%%DocumentProcessColors: Cyan Magenta Yellow Black
%%LanguageLevel: 2
%%Pages: 1
%%BoundingBox:    32   180   546   616
%%EndComments

%%BeginProlog
% MathWorks dictionary
/MathWorks 160 dict begin
% definition operators
/bdef {bind def} bind def
/ldef {load def} bind def
/xdef {exch def} bdef
/xstore {exch store} bdef
% operator abbreviations
/c  /clip ldef
/cc /concat ldef
/cp /closepath ldef
/gr /grestore ldef
/gs /gsave ldef
/mt /moveto ldef
/np /newpath ldef
/cm /currentmatrix ldef
/sm /setmatrix ldef
/rm /rmoveto ldef
/rl /rlineto ldef
/s {show newpath} bdef
/sc {setcmykcolor} bdef
/sr /setrgbcolor ldef
/sg /setgray ldef
/w /setlinewidth ldef
/j /setlinejoin ldef
/cap /setlinecap ldef
/rc {rectclip} bdef
/rf {rectfill} bdef
% page state control
/pgsv () def
/bpage {/pgsv save def} bdef
/epage {pgsv restore} bdef
/bplot /gsave ldef
/eplot {stroke grestore} bdef
% orientation switch
/portraitMode 0 def /landscapeMode 1 def /rotateMode 2 def
% coordinate system mappings
/dpi2point 0 def
% font control
/FontSize 0 def
/FMS {/FontSize xstore findfont [FontSize 0 0 FontSize neg 0 0]
  makefont setfont} bdef
/ISOLatin1Encoding where {pop /WindowsLatin1Encoding 256 array bdef
ISOLatin1Encoding WindowsLatin1Encoding copy pop
/.notdef/.notdef/quotesinglbase/florin/quotedblbase/ellipsis/dagger
/daggerdbl/circumflex/perthousand/Scaron/guilsinglleft/OE/.notdef/.notdef
/.notdef/.notdef/quoteleft/quoteright/quotedblleft/quotedblright/bullet
/endash/emdash/tilde/trademark/scaron/guilsinglright/oe/.notdef/.notdef
/Ydieresis WindowsLatin1Encoding 128 32 getinterval astore pop}
{/WindowsLatin1Encoding StandardEncoding bdef} ifelse
/reencode {exch dup where {pop load} {pop StandardEncoding} ifelse
  exch dup 3 1 roll findfont dup length dict begin
  { 1 index /FID ne {def}{pop pop} ifelse } forall
  /Encoding exch def currentdict end definefont pop} bdef
/isroman {findfont /CharStrings get /Agrave known} bdef
/FMSR {3 1 roll 1 index dup isroman {reencode} {pop pop} ifelse
  exch FMS} bdef
/csm {1 dpi2point div -1 dpi2point div scale neg translate
 dup landscapeMode eq {pop -90 rotate}
  {rotateMode eq {90 rotate} if} ifelse} bdef
% line types: solid, dotted, dashed, dotdash
/SO { [] 0 setdash } bdef
/DO { [.5 dpi2point mul 4 dpi2point mul] 0 setdash } bdef
/DA { [6 dpi2point mul] 0 setdash } bdef
/DD { [.5 dpi2point mul 4 dpi2point mul 6 dpi2point mul 4
  dpi2point mul] 0 setdash } bdef
% macros for lines and objects
/L {lineto stroke} bdef
/MP {3 1 roll moveto 1 sub {rlineto} repeat} bdef
/AP {{rlineto} repeat} bdef
/PDlw -1 def
/W {/PDlw currentlinewidth def setlinewidth} def
/PP {closepath eofill} bdef
/DP {closepath stroke} bdef
/MR {4 -2 roll moveto dup  0 exch rlineto exch 0 rlineto
  neg 0 exch rlineto closepath} bdef
/FR {MR stroke} bdef
/PR {MR fill} bdef
/L1i {{currentfile picstr readhexstring pop} image} bdef
/tMatrix matrix def
/MakeOval {newpath tMatrix currentmatrix pop translate scale
0 0 1 0 360 arc tMatrix setmatrix} bdef
/FO {MakeOval stroke} bdef
/PO {MakeOval fill} bdef
/PD {currentlinewidth 2 div 0 360 arc fill
   PDlw -1 eq not {PDlw w /PDlw -1 def} if} def
/FA {newpath tMatrix currentmatrix pop translate scale
  0 0 1 5 -2 roll arc tMatrix setmatrix stroke} bdef
/PA {newpath tMatrix currentmatrix pop	translate 0 0 moveto scale
  0 0 1 5 -2 roll arc closepath tMatrix setmatrix fill} bdef
/FAn {newpath tMatrix currentmatrix pop translate scale
  0 0 1 5 -2 roll arcn tMatrix setmatrix stroke} bdef
/PAn {newpath tMatrix currentmatrix pop translate 0 0 moveto scale
  0 0 1 5 -2 roll arcn closepath tMatrix setmatrix fill} bdef
/vradius 0 def /hradius 0 def /lry 0 def
/lrx 0 def /uly 0 def /ulx 0 def /rad 0 def
/MRR {/vradius xdef /hradius xdef /lry xdef /lrx xdef /uly xdef
  /ulx xdef newpath tMatrix currentmatrix pop ulx hradius add uly
  vradius add translate hradius vradius scale 0 0 1 180 270 arc 
  tMatrix setmatrix lrx hradius sub uly vradius add translate
  hradius vradius scale 0 0 1 270 360 arc tMatrix setmatrix
  lrx hradius sub lry vradius sub translate hradius vradius scale
  0 0 1 0 90 arc tMatrix setmatrix ulx hradius add lry vradius sub
  translate hradius vradius scale 0 0 1 90 180 arc tMatrix setmatrix
  closepath} bdef
/FRR {MRR stroke } bdef
/PRR {MRR fill } bdef
/MlrRR {/lry xdef /lrx xdef /uly xdef /ulx xdef /rad lry uly sub 2 div def
  newpath tMatrix currentmatrix pop ulx rad add uly rad add translate
  rad rad scale 0 0 1 90 270 arc tMatrix setmatrix lrx rad sub lry rad
  sub translate rad rad scale 0 0 1 270 90 arc tMatrix setmatrix
  closepath} bdef
/FlrRR {MlrRR stroke } bdef
/PlrRR {MlrRR fill } bdef
/MtbRR {/lry xdef /lrx xdef /uly xdef /ulx xdef /rad lrx ulx sub 2 div def
  newpath tMatrix currentmatrix pop ulx rad add uly rad add translate
  rad rad scale 0 0 1 180 360 arc tMatrix setmatrix lrx rad sub lry rad
  sub translate rad rad scale 0 0 1 0 180 arc tMatrix setmatrix
  closepath} bdef
/FtbRR {MtbRR stroke } bdef
/PtbRR {MtbRR fill } bdef
/stri 6 array def /dtri 6 array def
/smat 6 array def /dmat 6 array def
/tmat1 6 array def /tmat2 6 array def /dif 3 array def
/asub {/ind2 exch def /ind1 exch def dup dup
  ind1 get exch ind2 get sub exch } bdef
/tri_to_matrix {
  2 0 asub 3 1 asub 4 0 asub 5 1 asub
  dup 0 get exch 1 get 7 -1 roll astore } bdef
/compute_transform {
  dmat dtri tri_to_matrix tmat1 invertmatrix 
  smat stri tri_to_matrix tmat2 concatmatrix } bdef
/ds {stri astore pop} bdef
/dt {dtri astore pop} bdef
/db {2 copy /cols xdef /rows xdef mul dup 3 mul string
  currentfile 
  3 index 0 eq {/ASCIIHexDecode filter}
  {/ASCII85Decode filter 3 index 2 eq {/RunLengthDecode filter} if }
  ifelse exch readstring pop
  dup 0 3 index getinterval /rbmap xdef
  dup 2 index dup getinterval /gbmap xdef
  1 index dup 2 mul exch getinterval /bbmap xdef pop pop}bdef
/it {gs np dtri aload pop moveto lineto lineto cp c
  cols rows 8 compute_transform 
  rbmap gbmap bbmap true 3 colorimage gr}bdef
/il {newpath moveto lineto stroke}bdef
currentdict end def
%%EndProlog

%%BeginSetup
MathWorks begin

0 cap

end
%%EndSetup

%%Page: 1 1
%%BeginPageSetup
%%PageBoundingBox:    32   180   546   616
MathWorks begin
bpage
%%EndPageSetup

%%BeginObject: obj1
bplot

/dpi2point 12 def
portraitMode 0216 7344 csm

  174   -48  6173  5231 rc
85 dict begin %Colortable dictionary
/c0 { 0.000000 0.000000 0.000000 sr} bdef
/c1 { 1.000000 1.000000 1.000000 sr} bdef
/c2 { 0.900000 0.000000 0.000000 sr} bdef
/c3 { 0.000000 0.820000 0.000000 sr} bdef
/c4 { 0.000000 0.000000 0.800000 sr} bdef
/c5 { 0.910000 0.820000 0.320000 sr} bdef
/c6 { 1.000000 0.260000 0.820000 sr} bdef
/c7 { 0.000000 0.820000 0.820000 sr} bdef
c0
1 j
1 sg
   0    0 6919 5187 rf
6 w
0 4202 5362 0 0 -4202 899 4616 4 MP
PP
-5362 0 0 4202 5362 0 0 -4202 899 4616 5 MP stroke
4 w
DO
SO
6 w
0 sg
 899  414 mt 6261  414 L
 899 4616 mt 6261 4616 L
6261 4616 mt 6261  414 L
 899 4616 mt  899  414 L
 899 4616 mt 6261 4616 L
 899 4616 mt  899  414 L
1877 4616 mt 1877 4562 L
1877  414 mt 1877  467 L
%%IncludeResource: font Helvetica
/Helvetica /WindowsLatin1Encoding 240 FMSR

1711 4873 mt 
(0.1) s
2855 4616 mt 2855 4562 L
2855  414 mt 2855  467 L
2689 4873 mt 
(0.2) s
3834 4616 mt 3834 4562 L
3834  414 mt 3834  467 L
3668 4873 mt 
(0.3) s
4812 4616 mt 4812 4562 L
4812  414 mt 4812  467 L
4646 4873 mt 
(0.4) s
5791 4616 mt 5791 4562 L
5791  414 mt 5791  467 L
5625 4873 mt 
(0.5) s
 899 4104 mt  952 4104 L
6261 4104 mt 6207 4104 L
 531 4193 mt 
(0.1) s
 899 3593 mt  952 3593 L
6261 3593 mt 6207 3593 L
 531 3682 mt 
(0.2) s
 899 3081 mt  952 3081 L
6261 3081 mt 6207 3081 L
 531 3170 mt 
(0.3) s
 899 2570 mt  952 2570 L
6261 2570 mt 6207 2570 L
 531 2659 mt 
(0.4) s
 899 2058 mt  952 2058 L
6261 2058 mt 6207 2058 L
 531 2147 mt 
(0.5) s
 899 1547 mt  952 1547 L
6261 1547 mt 6207 1547 L
 531 1636 mt 
(0.6) s
 899 1036 mt  952 1036 L
6261 1036 mt 6207 1036 L
 531 1125 mt 
(0.7) s
 899  524 mt  952  524 L
6261  524 mt 6207  524 L
 531  613 mt 
(0.8) s
 899  414 mt 6261  414 L
 899 4616 mt 6261 4616 L
6261 4616 mt 6261  414 L
 899 4616 mt  899  414 L
gs 899 414 5363 4203 rc
gr

/c8 { 0.000000 0.000000 1.000000 sr} bdef
c8
1505 1576 mt 1577 1576 L
1541 1540 mt 1541 1612 L
 925 4500 mt  997 4500 L
 961 4464 mt  961 4536 L
2984 4605 mt 3056 4605 L
3020 4569 mt 3020 4641 L
 967 4615 mt 1039 4615 L
1003 4579 mt 1003 4651 L
 978 4261 mt 1050 4261 L
1014 4225 mt 1014 4297 L
1174 4589 mt 1246 4589 L
1210 4553 mt 1210 4625 L
 867 4469 mt  939 4469 L
 903 4433 mt  903 4505 L
 869 4561 mt  941 4561 L
 905 4525 mt  905 4597 L
 897 4612 mt  969 4612 L
 933 4576 mt  933 4648 L
1394 4357 mt 1466 4357 L
1430 4321 mt 1430 4393 L
1762 4511 mt 1834 4511 L
1798 4475 mt 1798 4547 L
1444 4314 mt 1516 4314 L
1480 4278 mt 1480 4350 L
1451 4251 mt 1523 4251 L
1487 4215 mt 1487 4287 L
1990 3581 mt 2062 3581 L
2026 3545 mt 2026 3617 L
1043 4610 mt 1115 4610 L
1079 4574 mt 1079 4646 L
 956 2836 mt 1028 2836 L
 992 2800 mt  992 2872 L
1977 1225 mt 2049 1225 L
2013 1189 mt 2013 1261 L
 873 4524 mt  945 4524 L
 909 4488 mt  909 4560 L
 905 4493 mt  977 4493 L
 941 4457 mt  941 4529 L
 881 3968 mt  953 3968 L
 917 3932 mt  917 4004 L
1323 4525 mt 1395 4525 L
1359 4489 mt 1359 4561 L
1210 4582 mt 1282 4582 L
1246 4546 mt 1246 4618 L
 947 4561 mt 1019 4561 L
 983 4525 mt  983 4597 L
 996 4543 mt 1068 4543 L
1032 4507 mt 1032 4579 L
1256 3206 mt 1328 3206 L
1292 3170 mt 1292 3242 L
1149 4338 mt 1221 4338 L
1185 4302 mt 1185 4374 L
 887 4255 mt  959 4255 L
 923 4219 mt  923 4291 L
1095 4595 mt 1167 4595 L
1131 4559 mt 1131 4631 L
1006 4615 mt 1078 4615 L
1042 4579 mt 1042 4651 L
 877 4514 mt  949 4514 L
 913 4478 mt  913 4550 L
1293 4564 mt 1365 4564 L
1329 4528 mt 1329 4600 L
 912 4371 mt  984 4371 L
 948 4335 mt  948 4407 L
 870 4575 mt  942 4575 L
 906 4539 mt  906 4611 L
 863 4341 mt  935 4341 L
 899 4305 mt  899 4377 L
1493 4571 mt 1565 4571 L
1529 4535 mt 1529 4607 L
1221 4501 mt 1293 4501 L
1257 4465 mt 1257 4537 L
 870 4404 mt  942 4404 L
 906 4368 mt  906 4440 L
1299 4118 mt 1371 4118 L
1335 4082 mt 1335 4154 L
1279 3158 mt 1351 3158 L
1315 3122 mt 1315 3194 L
1683 3753 mt 1755 3753 L
1719 3717 mt 1719 3789 L
 879 4521 mt  951 4521 L
 915 4485 mt  915 4557 L
 933 4568 mt 1005 4568 L
 969 4532 mt  969 4604 L
1013 3851 mt 1085 3851 L
1049 3815 mt 1049 3887 L
3481 4155 mt 3553 4155 L
3517 4119 mt 3517 4191 L
 874 4496 mt  946 4496 L
 910 4460 mt  910 4532 L
 928 4614 mt 1000 4614 L
 964 4578 mt  964 4650 L
1255 2852 mt 1327 2852 L
1291 2816 mt 1291 2888 L
 885 4457 mt  957 4457 L
 921 4421 mt  921 4493 L
1394 4124 mt 1466 4124 L
1430 4088 mt 1430 4160 L
2224 4610 mt 2296 4610 L
2260 4574 mt 2260 4646 L
1032 4003 mt 1104 4003 L
1068 3967 mt 1068 4039 L
 863 4396 mt  935 4396 L
 899 4360 mt  899 4432 L
4295 4435 mt 4367 4435 L
4331 4399 mt 4331 4471 L
 886 4609 mt  958 4609 L
 922 4573 mt  922 4645 L
 866 3611 mt  938 3611 L
 902 3575 mt  902 3647 L
 925 4564 mt  997 4564 L
 961 4528 mt  961 4600 L
 878 4259 mt  950 4259 L
 914 4223 mt  914 4295 L
 930 4605 mt 1002 4605 L
 966 4569 mt  966 4641 L
2636 4320 mt 2708 4320 L
2672 4284 mt 2672 4356 L
2988 4489 mt 3060 4489 L
3024 4453 mt 3024 4525 L
1319 3952 mt 1391 3952 L
1355 3916 mt 1355 3988 L
1073 2926 mt 1145 2926 L
1109 2890 mt 1109 2962 L
 901 4484 mt  973 4484 L
 937 4448 mt  937 4520 L
1207 4492 mt 1279 4492 L
1243 4456 mt 1243 4528 L
5296 4599 mt 5368 4599 L
5332 4563 mt 5332 4635 L
 892 4303 mt  964 4303 L
 928 4267 mt  928 4339 L
3861 4569 mt 3933 4569 L
3897 4533 mt 3897 4605 L
1090 4213 mt 1162 4213 L
1126 4177 mt 1126 4249 L
2394 4512 mt 2466 4512 L
2430 4476 mt 2430 4548 L
2199 4609 mt 2271 4609 L
2235 4573 mt 2235 4645 L
1495 4612 mt 1567 4612 L
1531 4576 mt 1531 4648 L
1093 4491 mt 1165 4491 L
1129 4455 mt 1129 4527 L
 950 4609 mt 1022 4609 L
 986 4573 mt  986 4645 L
 995 4513 mt 1067 4513 L
1031 4477 mt 1031 4549 L
1766 4155 mt 1838 4155 L
1802 4119 mt 1802 4191 L
1389 4100 mt 1461 4100 L
1425 4064 mt 1425 4136 L
 863 4573 mt  935 4573 L
 899 4537 mt  899 4609 L
2715 4506 mt 2787 4506 L
2751 4470 mt 2751 4542 L
 870 4180 mt  942 4180 L
 906 4144 mt  906 4216 L
1290 4008 mt 1362 4008 L
1326 3972 mt 1326 4044 L
 872 4434 mt  944 4434 L
 908 4398 mt  908 4470 L
1080 4610 mt 1152 4610 L
1116 4574 mt 1116 4646 L
2888 4110 mt 2960 4110 L
2924 4074 mt 2924 4146 L
1120 4614 mt 1192 4614 L
1156 4578 mt 1156 4650 L
1081 3584 mt 1153 3584 L
1117 3548 mt 1117 3620 L
1145 4611 mt 1217 4611 L
1181 4575 mt 1181 4647 L
 864 4615 mt  936 4615 L
 900 4579 mt  900 4651 L
 891 4569 mt  963 4569 L
 927 4533 mt  927 4605 L
1066 4615 mt 1138 4615 L
1102 4579 mt 1102 4651 L
1021 3966 mt 1093 3966 L
1057 3930 mt 1057 4002 L
1482 4450 mt 1554 4450 L
1518 4414 mt 1518 4486 L
1008 4596 mt 1080 4596 L
1044 4560 mt 1044 4632 L
1014 4614 mt 1086 4614 L
1050 4578 mt 1050 4650 L
 919 3639 mt  991 3639 L
 955 3603 mt  955 3675 L
 905 4513 mt  977 4513 L
 941 4477 mt  941 4549 L
1126 3944 mt 1198 3944 L
1162 3908 mt 1162 3980 L
1221 4432 mt 1293 4432 L
1257 4396 mt 1257 4468 L
1183 4539 mt 1255 4539 L
1219 4503 mt 1219 4575 L
 872 4354 mt  944 4354 L
 908 4318 mt  908 4390 L
 909 4602 mt  981 4602 L
 945 4566 mt  945 4638 L
 945  414 mt 1017  414 L
 981  378 mt  981  450 L
1022 4450 mt 1094 4450 L
1058 4414 mt 1058 4486 L
1304 4262 mt 1376 4262 L
1340 4226 mt 1340 4298 L
1082 4607 mt 1154 4607 L
1118 4571 mt 1118 4643 L
 910 3854 mt  982 3854 L
 946 3818 mt  946 3890 L
 990 4353 mt 1062 4353 L
1026 4317 mt 1026 4389 L
1653 4610 mt 1725 4610 L
1689 4574 mt 1689 4646 L
1194 3641 mt 1266 3641 L
1230 3605 mt 1230 3677 L
 989 4284 mt 1061 4284 L
1025 4248 mt 1025 4320 L
1071 4615 mt 1143 4615 L
1107 4579 mt 1107 4651 L
1008 4527 mt 1080 4527 L
1044 4491 mt 1044 4563 L
 940 4606 mt 1012 4606 L
 976 4570 mt  976 4642 L
 866 4074 mt  938 4074 L
 902 4038 mt  902 4110 L
1610 4436 mt 1682 4436 L
1646 4400 mt 1646 4472 L
1059 4597 mt 1131 4597 L
1095 4561 mt 1095 4633 L
 997 4264 mt 1069 4264 L
1033 4228 mt 1033 4300 L
 879 4589 mt  951 4589 L
 915 4553 mt  915 4625 L
1244 4321 mt 1316 4321 L
1280 4285 mt 1280 4357 L
 863 4505 mt  935 4505 L
 899 4469 mt  899 4541 L
 900 4580 mt  972 4580 L
 936 4544 mt  936 4616 L
1031 4494 mt 1103 4494 L
1067 4458 mt 1067 4530 L
4075 4593 mt 4147 4593 L
4111 4557 mt 4111 4629 L
 872 4575 mt  944 4575 L
 908 4539 mt  908 4611 L
1520 3911 mt 1592 3911 L
1556 3875 mt 1556 3947 L
2424 3803 mt 2496 3803 L
2460 3767 mt 2460 3839 L
2934 4095 mt 3006 4095 L
2970 4059 mt 2970 4131 L
 919 4531 mt  991 4531 L
 955 4495 mt  955 4567 L
1673 4568 mt 1745 4568 L
1709 4532 mt 1709 4604 L
1553 4612 mt 1625 4612 L
1589 4576 mt 1589 4648 L
1014 4196 mt 1086 4196 L
1050 4160 mt 1050 4232 L
 867 4609 mt  939 4609 L
 903 4573 mt  903 4645 L
1246 3026 mt 1318 3026 L
1282 2990 mt 1282 3062 L
 894 4608 mt  966 4608 L
 930 4572 mt  930 4644 L
 962 4615 mt 1034 4615 L
 998 4579 mt  998 4651 L
1041 4600 mt 1113 4600 L
1077 4564 mt 1077 4636 L
 868 4335 mt  940 4335 L
 904 4299 mt  904 4371 L
 922 4602 mt  994 4602 L
 958 4566 mt  958 4638 L
1124 4341 mt 1196 4341 L
1160 4305 mt 1160 4377 L
2234 3811 mt 2306 3811 L
2270 3775 mt 2270 3847 L
1904 4407 mt 1976 4407 L
1940 4371 mt 1940 4443 L
1032 4605 mt 1104 4605 L
1068 4569 mt 1068 4641 L
 893 4286 mt  965 4286 L
 929 4250 mt  929 4322 L
 971 4274 mt 1043 4274 L
1007 4238 mt 1007 4310 L
 891 4307 mt  963 4307 L
 927 4271 mt  927 4343 L
 918 4550 mt  990 4550 L
 954 4514 mt  954 4586 L
 928 4608 mt 1000 4608 L
 964 4572 mt  964 4644 L
 888 3437 mt  960 3437 L
 924 3401 mt  924 3473 L
1336 3228 mt 1408 3228 L
1372 3192 mt 1372 3264 L
1268 4061 mt 1340 4061 L
1304 4025 mt 1304 4097 L
1370 3783 mt 1442 3783 L
1406 3747 mt 1406 3819 L
 969 4583 mt 1041 4583 L
1005 4547 mt 1005 4619 L
 990 4495 mt 1062 4495 L
1026 4459 mt 1026 4531 L
 969 4556 mt 1041 4556 L
1005 4520 mt 1005 4592 L
1054 4244 mt 1126 4244 L
1090 4208 mt 1090 4280 L
3092 3309 mt 3164 3309 L
3128 3273 mt 3128 3345 L
 871 4615 mt  943 4615 L
 907 4579 mt  907 4651 L
3845 4414 mt 3917 4414 L
3881 4378 mt 3881 4450 L
 869 3283 mt  941 3283 L
 905 3247 mt  905 3319 L
 926 4431 mt  998 4431 L
 962 4395 mt  962 4467 L
 864 4606 mt  936 4606 L
 900 4570 mt  900 4642 L
1956 4311 mt 2028 4311 L
1992 4275 mt 1992 4347 L
2003 4425 mt 2075 4425 L
2039 4389 mt 2039 4461 L
2036 4443 mt 2108 4443 L
2072 4407 mt 2072 4479 L
 911 4274 mt  983 4274 L
 947 4238 mt  947 4310 L
 883 4523 mt  955 4523 L
 919 4487 mt  919 4559 L
 863 4421 mt  935 4421 L
 899 4385 mt  899 4457 L
1385 3710 mt 1457 3710 L
1421 3674 mt 1421 3746 L
 863 4117 mt  935 4117 L
 899 4081 mt  899 4153 L
1228 4550 mt 1300 4550 L
1264 4514 mt 1264 4586 L
1407 4526 mt 1479 4526 L
1443 4490 mt 1443 4562 L
 919 3215 mt  991 3215 L
 955 3179 mt  955 3251 L
1098 4255 mt 1170 4255 L
1134 4219 mt 1134 4291 L
 873 4414 mt  945 4414 L
 909 4378 mt  909 4450 L
 968 4578 mt 1040 4578 L
1004 4542 mt 1004 4614 L
1206 3923 mt 1278 3923 L
1242 3887 mt 1242 3959 L
1275 4612 mt 1347 4612 L
1311 4576 mt 1311 4648 L
 880 4208 mt  952 4208 L
 916 4172 mt  916 4244 L
1236 4489 mt 1308 4489 L
1272 4453 mt 1272 4525 L
1048 4326 mt 1120 4326 L
1084 4290 mt 1084 4362 L
 981 4608 mt 1053 4608 L
1017 4572 mt 1017 4644 L
 994 4356 mt 1066 4356 L
1030 4320 mt 1030 4392 L
 908 4316 mt  980 4316 L
 944 4280 mt  944 4352 L
1928 3331 mt 2000 3331 L
1964 3295 mt 1964 3367 L
6225 4591 mt 6297 4591 L
6261 4555 mt 6261 4627 L
1054 4604 mt 1126 4604 L
1090 4568 mt 1090 4640 L
 866 4612 mt  938 4612 L
 902 4576 mt  902 4648 L
 932 4605 mt 1004 4605 L
 968 4569 mt  968 4641 L
1014 4613 mt 1086 4613 L
1050 4577 mt 1050 4649 L
 972 2454 mt 1044 2454 L
1008 2418 mt 1008 2490 L
 865 3801 mt  937 3801 L
 901 3765 mt  901 3837 L
 949 3371 mt 1021 3371 L
 985 3335 mt  985 3407 L
1204 4552 mt 1276 4552 L
1240 4516 mt 1240 4588 L
 865 4222 mt  937 4222 L
 901 4186 mt  901 4258 L
1132 4590 mt 1204 4590 L
1168 4554 mt 1168 4626 L
 997 4600 mt 1069 4600 L
1033 4564 mt 1033 4636 L
1255 1998 mt 1327 1998 L
1291 1962 mt 1291 2034 L
1039 3937 mt 1111 3937 L
1075 3901 mt 1075 3973 L
 869 2992 mt  941 2992 L
 905 2956 mt  905 3028 L
1854 4579 mt 1926 4579 L
1890 4543 mt 1890 4615 L
1076 4376 mt 1148 4376 L
1112 4340 mt 1112 4412 L
 910 1362 mt  982 1362 L
 946 1326 mt  946 1398 L
1128 3192 mt 1200 3192 L
1164 3156 mt 1164 3228 L
 896 4582 mt  968 4582 L
 932 4546 mt  932 4618 L
 873 4423 mt  945 4423 L
 909 4387 mt  909 4459 L
 926 4593 mt  998 4593 L
 962 4557 mt  962 4629 L
 872 3915 mt  944 3915 L
 908 3879 mt  908 3951 L
 953 4245 mt 1025 4245 L
 989 4209 mt  989 4281 L
 984 4253 mt 1056 4253 L
1020 4217 mt 1020 4289 L
1065 4555 mt 1137 4555 L
1101 4519 mt 1101 4591 L
 880 3492 mt  952 3492 L
 916 3456 mt  916 3528 L
 960 4577 mt 1032 4577 L
 996 4541 mt  996 4613 L
 989 4487 mt 1061 4487 L
1025 4451 mt 1025 4523 L
 957 4508 mt 1029 4508 L
 993 4472 mt  993 4544 L
 880 2110 mt  952 2110 L
 916 2074 mt  916 2146 L
 869 4446 mt  941 4446 L
 905 4410 mt  905 4482 L
 869 2097 mt  941 2097 L
 905 2061 mt  905 2133 L
1016 1218 mt 1088 1218 L
1052 1182 mt 1052 1254 L
1067 4320 mt 1139 4320 L
1103 4284 mt 1103 4356 L
 880 4027 mt  952 4027 L
 916 3991 mt  916 4063 L
1180 3743 mt 1252 3743 L
1216 3707 mt 1216 3779 L
1026 4615 mt 1098 4615 L
1062 4579 mt 1062 4651 L
1332 4161 mt 1404 4161 L
1368 4125 mt 1368 4197 L
1150 4394 mt 1222 4394 L
1186 4358 mt 1186 4430 L
 898 4598 mt  970 4598 L
 934 4562 mt  934 4634 L
1124 3498 mt 1196 3498 L
1160 3462 mt 1160 3534 L
 892 4188 mt  964 4188 L
 928 4152 mt  928 4224 L
 922 4397 mt  994 4397 L
 958 4361 mt  958 4433 L
 918 3949 mt  990 3949 L
 954 3913 mt  954 3985 L
1044 4511 mt 1116 4511 L
1080 4475 mt 1080 4547 L
 941 4332 mt 1013 4332 L
 977 4296 mt  977 4368 L
 864 3994 mt  936 3994 L
 900 3958 mt  900 4030 L
 907 4616 mt  979 4616 L
 943 4580 mt  943 4652 L
 879 4567 mt  951 4567 L
 915 4531 mt  915 4603 L
 985 3661 mt 1057 3661 L
1021 3625 mt 1021 3697 L
 936 4609 mt 1008 4609 L
 972 4573 mt  972 4645 L
1004 4615 mt 1076 4615 L
1040 4579 mt 1040 4651 L
 959 4590 mt 1031 4590 L
 995 4554 mt  995 4626 L
 868 2622 mt  940 2622 L
 904 2586 mt  904 2658 L
 983 3093 mt 1055 3093 L
1019 3057 mt 1019 3129 L
 984 4229 mt 1056 4229 L
1020 4193 mt 1020 4265 L
 871 4179 mt  943 4179 L
 907 4143 mt  907 4215 L
 927 4079 mt  999 4079 L
 963 4043 mt  963 4115 L
 960 4308 mt 1032 4308 L
 996 4272 mt  996 4344 L
 888 4598 mt  960 4598 L
 924 4562 mt  924 4634 L
1111 4609 mt 1183 4609 L
1147 4573 mt 1147 4645 L
 901 4508 mt  973 4508 L
 937 4472 mt  937 4544 L
 892 2419 mt  964 2419 L
 928 2383 mt  928 2455 L
 970 4586 mt 1042 4586 L
1006 4550 mt 1006 4622 L
 863 3559 mt  935 3559 L
 899 3523 mt  899 3595 L
 873 4581 mt  945 4581 L
 909 4545 mt  909 4617 L
 914 4106 mt  986 4106 L
 950 4070 mt  950 4142 L
 872 4220 mt  944 4220 L
 908 4184 mt  908 4256 L
2157 4599 mt 2229 4599 L
2193 4563 mt 2193 4635 L
 865 4609 mt  937 4609 L
 901 4573 mt  901 4645 L
 878 4165 mt  950 4165 L
 914 4129 mt  914 4201 L
 924 4246 mt  996 4246 L
 960 4210 mt  960 4282 L
 922 4598 mt  994 4598 L
 958 4562 mt  958 4634 L
 868 4557 mt  940 4557 L
 904 4521 mt  904 4593 L
1595 3791 mt 1667 3791 L
1631 3755 mt 1631 3827 L
1015 4215 mt 1087 4215 L
1051 4179 mt 1051 4251 L
1080 3948 mt 1152 3948 L
1116 3912 mt 1116 3984 L
 863 3811 mt  935 3811 L
 899 3775 mt  899 3847 L
 871 4582 mt  943 4582 L
 907 4546 mt  907 4618 L
 979 4484 mt 1051 4484 L
1015 4448 mt 1015 4520 L
 864 4505 mt  936 4505 L
 900 4469 mt  900 4541 L
 863 4592 mt  935 4592 L
 899 4556 mt  899 4628 L
 883 4599 mt  955 4599 L
 919 4563 mt  919 4635 L
 863 3299 mt  935 3299 L
 899 3263 mt  899 3335 L
2032 4607 mt 2104 4607 L
2068 4571 mt 2068 4643 L
 893 4510 mt  965 4510 L
 929 4474 mt  929 4546 L
2585 4426 mt 2657 4426 L
2621 4390 mt 2621 4462 L
 989 3726 mt 1061 3726 L
1025 3690 mt 1025 3762 L
 877 4587 mt  949 4587 L
 913 4551 mt  913 4623 L
 906 4576 mt  978 4576 L
 942 4540 mt  942 4612 L
 863 4588 mt  935 4588 L
 899 4552 mt  899 4624 L
 955 4168 mt 1027 4168 L
 991 4132 mt  991 4204 L
1191 4191 mt 1263 4191 L
1227 4155 mt 1227 4227 L
 886 4614 mt  958 4614 L
 922 4578 mt  922 4650 L
1433 4611 mt 1505 4611 L
1469 4575 mt 1469 4647 L
 940 4275 mt 1012 4275 L
 976 4239 mt  976 4311 L
 932 4336 mt 1004 4336 L
 968 4300 mt  968 4372 L
 891 4611 mt  963 4611 L
 927 4575 mt  927 4647 L
1094 3369 mt 1166 3369 L
1130 3333 mt 1130 3405 L
 864 4468 mt  936 4468 L
 900 4432 mt  900 4504 L
 864 2859 mt  936 2859 L
 900 2823 mt  900 2895 L
 941 4598 mt 1013 4598 L
 977 4562 mt  977 4634 L
1146 4519 mt 1218 4519 L
1182 4483 mt 1182 4555 L
1004 4442 mt 1076 4442 L
1040 4406 mt 1040 4478 L
 986 4457 mt 1058 4457 L
1022 4421 mt 1022 4493 L
1008 4414 mt 1080 4414 L
1044 4378 mt 1044 4450 L
 906 4086 mt  978 4086 L
 942 4050 mt  942 4122 L
1048 4356 mt 1120 4356 L
1084 4320 mt 1084 4392 L
 873 4578 mt  945 4578 L
 909 4542 mt  909 4614 L
 886 2849 mt  958 2849 L
 922 2813 mt  922 2885 L
 863 4586 mt  935 4586 L
 899 4550 mt  899 4622 L
 863 4552 mt  935 4552 L
 899 4516 mt  899 4588 L
 863 4610 mt  935 4610 L
 899 4574 mt  899 4646 L
 863 4603 mt  935 4603 L
 899 4567 mt  899 4639 L
 867 4615 mt  939 4615 L
 903 4579 mt  903 4651 L
1159 4604 mt 1231 4604 L
1195 4568 mt 1195 4640 L
 864  578 mt  936  578 L
 900  542 mt  900  614 L
 877 4597 mt  949 4597 L
 913 4561 mt  913 4633 L
 869 3278 mt  941 3278 L
 905 3242 mt  905 3314 L
 893 4486 mt  965 4486 L
 929 4450 mt  929 4522 L
1171 4382 mt 1243 4382 L
1207 4346 mt 1207 4418 L
 942 4250 mt 1014 4250 L
 978 4214 mt  978 4286 L
2602 4446 mt 2674 4446 L
2638 4410 mt 2638 4482 L
 898 2979 mt  970 2979 L
 934 2943 mt  934 3015 L
 924 4402 mt  996 4402 L
 960 4366 mt  960 4438 L
 947 4541 mt 1019 4541 L
 983 4505 mt  983 4577 L
1181 3193 mt 1253 3193 L
1217 3157 mt 1217 3229 L
 889 3874 mt  961 3874 L
 925 3838 mt  925 3910 L
1615 4059 mt 1687 4059 L
1651 4023 mt 1651 4095 L
1041 4084 mt 1113 4084 L
1077 4048 mt 1077 4120 L
 942 4594 mt 1014 4594 L
 978 4558 mt  978 4630 L
1070 4220 mt 1142 4220 L
1106 4184 mt 1106 4256 L
1001 4531 mt 1073 4531 L
1037 4495 mt 1037 4567 L
 865 3661 mt  937 3661 L
 901 3625 mt  901 3697 L
 877 4579 mt  949 4579 L
 913 4543 mt  913 4615 L
 878 4549 mt  950 4549 L
 914 4513 mt  914 4585 L
 863 4592 mt  935 4592 L
 899 4556 mt  899 4628 L
1459 4403 mt 1531 4403 L
1495 4367 mt 1495 4439 L
 877 4207 mt  949 4207 L
 913 4171 mt  913 4243 L
1234 3933 mt 1306 3933 L
1270 3897 mt 1270 3969 L
 934 3110 mt 1006 3110 L
 970 3074 mt  970 3146 L
 863 4605 mt  935 4605 L
 899 4569 mt  899 4641 L
 912 4224 mt  984 4224 L
 948 4188 mt  948 4260 L
 916 4601 mt  988 4601 L
 952 4565 mt  952 4637 L
 951 4408 mt 1023 4408 L
 987 4372 mt  987 4444 L
 883 3683 mt  955 3683 L
 919 3647 mt  919 3719 L
 867 4429 mt  939 4429 L
 903 4393 mt  903 4465 L
 864 3294 mt  936 3294 L
 900 3258 mt  900 3330 L
 911 4517 mt  983 4517 L
 947 4481 mt  947 4553 L
 874 4614 mt  946 4614 L
 910 4578 mt  910 4650 L
1068 4298 mt 1140 4298 L
1104 4262 mt 1104 4334 L
1635 3415 mt 1707 3415 L
1671 3379 mt 1671 3451 L
 867 4532 mt  939 4532 L
 903 4496 mt  903 4568 L
 863 3363 mt  935 3363 L
 899 3327 mt  899 3399 L
 865 4128 mt  937 4128 L
 901 4092 mt  901 4164 L
1473 4613 mt 1545 4613 L
1509 4577 mt 1509 4649 L
 967 4265 mt 1039 4265 L
1003 4229 mt 1003 4301 L
 937 3766 mt 1009 3766 L
 973 3730 mt  973 3802 L
1116 4475 mt 1188 4475 L
1152 4439 mt 1152 4511 L
 880 4441 mt  952 4441 L
 916 4405 mt  916 4477 L
 999 4182 mt 1071 4182 L
1035 4146 mt 1035 4218 L
1034 4304 mt 1106 4304 L
1070 4268 mt 1070 4340 L
1124 4310 mt 1196 4310 L
1160 4274 mt 1160 4346 L
1459 3870 mt 1531 3870 L
1495 3834 mt 1495 3906 L
 868 2918 mt  940 2918 L
 904 2882 mt  904 2954 L
1001 3525 mt 1073 3525 L
1037 3489 mt 1037 3561 L
 872 4599 mt  944 4599 L
 908 4563 mt  908 4635 L
 885 4456 mt  957 4456 L
 921 4420 mt  921 4492 L
1377 3945 mt 1449 3945 L
1413 3909 mt 1413 3981 L
1030 4609 mt 1102 4609 L
1066 4573 mt 1066 4645 L
 863 3176 mt  935 3176 L
 899 3140 mt  899 3212 L
 880 3963 mt  952 3963 L
 916 3927 mt  916 3999 L
 926 4180 mt  998 4180 L
 962 4144 mt  962 4216 L
 901 2819 mt  973 2819 L
 937 2783 mt  937 2855 L
 878 4614 mt  950 4614 L
 914 4578 mt  914 4650 L
 887 4614 mt  959 4614 L
 923 4578 mt  923 4650 L
1079 4450 mt 1151 4450 L
1115 4414 mt 1115 4486 L
1015 4615 mt 1087 4615 L
1051 4579 mt 1051 4651 L
1271 4215 mt 1343 4215 L
1307 4179 mt 1307 4251 L
 869 3764 mt  941 3764 L
 905 3728 mt  905 3800 L
 913 4063 mt  985 4063 L
 949 4027 mt  949 4099 L
 905 3917 mt  977 3917 L
 941 3881 mt  941 3953 L
 875 4587 mt  947 4587 L
 911 4551 mt  911 4623 L
 873 4262 mt  945 4262 L
 909 4226 mt  909 4298 L
 903 4606 mt  975 4606 L
 939 4570 mt  939 4642 L
 891 3934 mt  963 3934 L
 927 3898 mt  927 3970 L
 867 3214 mt  939 3214 L
 903 3178 mt  903 3250 L
 908 4583 mt  980 4583 L
 944 4547 mt  944 4619 L
 863 4596 mt  935 4596 L
 899 4560 mt  899 4632 L
 869 4426 mt  941 4426 L
 905 4390 mt  905 4462 L
 886 3291 mt  958 3291 L
 922 3255 mt  922 3327 L
 868 4313 mt  940 4313 L
 904 4277 mt  904 4349 L
 946 3751 mt 1018 3751 L
 982 3715 mt  982 3787 L
 904 3949 mt  976 3949 L
 940 3913 mt  940 3985 L
 939 4504 mt 1011 4504 L
 975 4468 mt  975 4540 L
 876 4432 mt  948 4432 L
 912 4396 mt  912 4468 L
 883 3812 mt  955 3812 L
 919 3776 mt  919 3848 L
 865 3665 mt  937 3665 L
 901 3629 mt  901 3701 L
2360 3514 mt 2432 3514 L
2396 3478 mt 2396 3550 L
3633 4603 mt 3705 4603 L
3669 4567 mt 3669 4639 L
 969 4552 mt 1041 4552 L
1005 4516 mt 1005 4588 L
1433 4401 mt 1505 4401 L
1469 4365 mt 1469 4437 L
 920 4507 mt  992 4507 L
 956 4471 mt  956 4543 L
 953 4420 mt 1025 4420 L
 989 4384 mt  989 4456 L
1953 2430 mt 2025 2430 L
1989 2394 mt 1989 2466 L
1070 4147 mt 1142 4147 L
1106 4111 mt 1106 4183 L
 963 2630 mt 1035 2630 L
 999 2594 mt  999 2666 L
 993 4600 mt 1065 4600 L
1029 4564 mt 1029 4636 L
 875 3812 mt  947 3812 L
 911 3776 mt  911 3848 L
 867 4478 mt  939 4478 L
 903 4442 mt  903 4514 L
1063 4562 mt 1135 4562 L
1099 4526 mt 1099 4598 L
1093 2110 mt 1165 2110 L
1129 2074 mt 1129 2146 L
1191 4392 mt 1263 4392 L
1227 4356 mt 1227 4428 L
 864 3123 mt  936 3123 L
 900 3087 mt  900 3159 L
 893 4589 mt  965 4589 L
 929 4553 mt  929 4625 L
1027 4612 mt 1099 4612 L
1063 4576 mt 1063 4648 L
gs 899 414 5363 4203 rc
gr

0 sg
2826 5104 mt 
(\(F,DCTs,MLP\)) s
 422 3343 mt  -90 rotate
(\(S,LFCC,GMM\)) s
90 rotate
2975  223 mt 
(Corr = 0.00) s

end %%Color Dict

eplot
%%EndObject

epage
end

showpage

%%Trailer
%%EOF
