%!PS-Adobe-3.0 EPSF-3.0
%%Creator: MATLAB, The Mathworks, Inc. Version 7.7.0.471 (R2008b). Operating System: Microsoft Windows XP.
%%Title: Pictures\main_zoo_mvar_analysis_data_BMI_xcorr_bmig_p1_k1_1_9.eps
%%CreationDate: 10/26/2009  05:44:49
%%DocumentNeededFonts: Helvetica
%%DocumentProcessColors: Cyan Magenta Yellow Black
%%LanguageLevel: 2
%%Pages: 1
%%BoundingBox:    37   180   549   616
%%EndComments

%%BeginProlog
% MathWorks dictionary
/MathWorks 160 dict begin
% definition operators
/bdef {bind def} bind def
/ldef {load def} bind def
/xdef {exch def} bdef
/xstore {exch store} bdef
% operator abbreviations
/c  /clip ldef
/cc /concat ldef
/cp /closepath ldef
/gr /grestore ldef
/gs /gsave ldef
/mt /moveto ldef
/np /newpath ldef
/cm /currentmatrix ldef
/sm /setmatrix ldef
/rm /rmoveto ldef
/rl /rlineto ldef
/s {show newpath} bdef
/sc {setcmykcolor} bdef
/sr /setrgbcolor ldef
/sg /setgray ldef
/w /setlinewidth ldef
/j /setlinejoin ldef
/cap /setlinecap ldef
/rc {rectclip} bdef
/rf {rectfill} bdef
% page state control
/pgsv () def
/bpage {/pgsv save def} bdef
/epage {pgsv restore} bdef
/bplot /gsave ldef
/eplot {stroke grestore} bdef
% orientation switch
/portraitMode 0 def /landscapeMode 1 def /rotateMode 2 def
% coordinate system mappings
/dpi2point 0 def
% font control
/FontSize 0 def
/FMS {/FontSize xstore findfont [FontSize 0 0 FontSize neg 0 0]
  makefont setfont} bdef
/ISOLatin1Encoding where {pop /WindowsLatin1Encoding 256 array bdef
ISOLatin1Encoding WindowsLatin1Encoding copy pop
/.notdef/.notdef/quotesinglbase/florin/quotedblbase/ellipsis/dagger
/daggerdbl/circumflex/perthousand/Scaron/guilsinglleft/OE/.notdef/.notdef
/.notdef/.notdef/quoteleft/quoteright/quotedblleft/quotedblright/bullet
/endash/emdash/tilde/trademark/scaron/guilsinglright/oe/.notdef/.notdef
/Ydieresis WindowsLatin1Encoding 128 32 getinterval astore pop}
{/WindowsLatin1Encoding StandardEncoding bdef} ifelse
/reencode {exch dup where {pop load} {pop StandardEncoding} ifelse
  exch dup 3 1 roll findfont dup length dict begin
  { 1 index /FID ne {def}{pop pop} ifelse } forall
  /Encoding exch def currentdict end definefont pop} bdef
/isroman {findfont /CharStrings get /Agrave known} bdef
/FMSR {3 1 roll 1 index dup isroman {reencode} {pop pop} ifelse
  exch FMS} bdef
/csm {1 dpi2point div -1 dpi2point div scale neg translate
 dup landscapeMode eq {pop -90 rotate}
  {rotateMode eq {90 rotate} if} ifelse} bdef
% line types: solid, dotted, dashed, dotdash
/SO { [] 0 setdash } bdef
/DO { [.5 dpi2point mul 4 dpi2point mul] 0 setdash } bdef
/DA { [6 dpi2point mul] 0 setdash } bdef
/DD { [.5 dpi2point mul 4 dpi2point mul 6 dpi2point mul 4
  dpi2point mul] 0 setdash } bdef
% macros for lines and objects
/L {lineto stroke} bdef
/MP {3 1 roll moveto 1 sub {rlineto} repeat} bdef
/AP {{rlineto} repeat} bdef
/PDlw -1 def
/W {/PDlw currentlinewidth def setlinewidth} def
/PP {closepath eofill} bdef
/DP {closepath stroke} bdef
/MR {4 -2 roll moveto dup  0 exch rlineto exch 0 rlineto
  neg 0 exch rlineto closepath} bdef
/FR {MR stroke} bdef
/PR {MR fill} bdef
/L1i {{currentfile picstr readhexstring pop} image} bdef
/tMatrix matrix def
/MakeOval {newpath tMatrix currentmatrix pop translate scale
0 0 1 0 360 arc tMatrix setmatrix} bdef
/FO {MakeOval stroke} bdef
/PO {MakeOval fill} bdef
/PD {currentlinewidth 2 div 0 360 arc fill
   PDlw -1 eq not {PDlw w /PDlw -1 def} if} def
/FA {newpath tMatrix currentmatrix pop translate scale
  0 0 1 5 -2 roll arc tMatrix setmatrix stroke} bdef
/PA {newpath tMatrix currentmatrix pop	translate 0 0 moveto scale
  0 0 1 5 -2 roll arc closepath tMatrix setmatrix fill} bdef
/FAn {newpath tMatrix currentmatrix pop translate scale
  0 0 1 5 -2 roll arcn tMatrix setmatrix stroke} bdef
/PAn {newpath tMatrix currentmatrix pop translate 0 0 moveto scale
  0 0 1 5 -2 roll arcn closepath tMatrix setmatrix fill} bdef
/vradius 0 def /hradius 0 def /lry 0 def
/lrx 0 def /uly 0 def /ulx 0 def /rad 0 def
/MRR {/vradius xdef /hradius xdef /lry xdef /lrx xdef /uly xdef
  /ulx xdef newpath tMatrix currentmatrix pop ulx hradius add uly
  vradius add translate hradius vradius scale 0 0 1 180 270 arc 
  tMatrix setmatrix lrx hradius sub uly vradius add translate
  hradius vradius scale 0 0 1 270 360 arc tMatrix setmatrix
  lrx hradius sub lry vradius sub translate hradius vradius scale
  0 0 1 0 90 arc tMatrix setmatrix ulx hradius add lry vradius sub
  translate hradius vradius scale 0 0 1 90 180 arc tMatrix setmatrix
  closepath} bdef
/FRR {MRR stroke } bdef
/PRR {MRR fill } bdef
/MlrRR {/lry xdef /lrx xdef /uly xdef /ulx xdef /rad lry uly sub 2 div def
  newpath tMatrix currentmatrix pop ulx rad add uly rad add translate
  rad rad scale 0 0 1 90 270 arc tMatrix setmatrix lrx rad sub lry rad
  sub translate rad rad scale 0 0 1 270 90 arc tMatrix setmatrix
  closepath} bdef
/FlrRR {MlrRR stroke } bdef
/PlrRR {MlrRR fill } bdef
/MtbRR {/lry xdef /lrx xdef /uly xdef /ulx xdef /rad lrx ulx sub 2 div def
  newpath tMatrix currentmatrix pop ulx rad add uly rad add translate
  rad rad scale 0 0 1 180 360 arc tMatrix setmatrix lrx rad sub lry rad
  sub translate rad rad scale 0 0 1 0 180 arc tMatrix setmatrix
  closepath} bdef
/FtbRR {MtbRR stroke } bdef
/PtbRR {MtbRR fill } bdef
/stri 6 array def /dtri 6 array def
/smat 6 array def /dmat 6 array def
/tmat1 6 array def /tmat2 6 array def /dif 3 array def
/asub {/ind2 exch def /ind1 exch def dup dup
  ind1 get exch ind2 get sub exch } bdef
/tri_to_matrix {
  2 0 asub 3 1 asub 4 0 asub 5 1 asub
  dup 0 get exch 1 get 7 -1 roll astore } bdef
/compute_transform {
  dmat dtri tri_to_matrix tmat1 invertmatrix 
  smat stri tri_to_matrix tmat2 concatmatrix } bdef
/ds {stri astore pop} bdef
/dt {dtri astore pop} bdef
/db {2 copy /cols xdef /rows xdef mul dup 3 mul string
  currentfile 
  3 index 0 eq {/ASCIIHexDecode filter}
  {/ASCII85Decode filter 3 index 2 eq {/RunLengthDecode filter} if }
  ifelse exch readstring pop
  dup 0 3 index getinterval /rbmap xdef
  dup 2 index dup getinterval /gbmap xdef
  1 index dup 2 mul exch getinterval /bbmap xdef pop pop}bdef
/it {gs np dtri aload pop moveto lineto lineto cp c
  cols rows 8 compute_transform 
  rbmap gbmap bbmap true 3 colorimage gr}bdef
/il {newpath moveto lineto stroke}bdef
currentdict end def
%%EndProlog

%%BeginSetup
MathWorks begin

0 cap

end
%%EndSetup

%%Page: 1 1
%%BeginPageSetup
%%PageBoundingBox:    37   180   549   616
MathWorks begin
bpage
%%EndPageSetup

%%BeginObject: obj1
bplot

/dpi2point 12 def
portraitMode 0216 7344 csm

  234   -48  6149  5231 rc
85 dict begin %Colortable dictionary
/c0 { 0.000000 0.000000 0.000000 sr} bdef
/c1 { 1.000000 1.000000 1.000000 sr} bdef
/c2 { 0.900000 0.000000 0.000000 sr} bdef
/c3 { 0.000000 0.820000 0.000000 sr} bdef
/c4 { 0.000000 0.000000 0.800000 sr} bdef
/c5 { 0.910000 0.820000 0.320000 sr} bdef
/c6 { 1.000000 0.260000 0.820000 sr} bdef
/c7 { 0.000000 0.820000 0.820000 sr} bdef
c0
1 j
1 sg
   0    0 6919 5187 rf
6 w
0 4202 5362 0 0 -4202 899 4616 4 MP
PP
-5362 0 0 4202 5362 0 0 -4202 899 4616 5 MP stroke
4 w
DO
SO
6 w
0 sg
 899  414 mt 6261  414 L
 899 4616 mt 6261 4616 L
6261 4616 mt 6261  414 L
 899 4616 mt  899  414 L
 899 4616 mt 6261 4616 L
 899 4616 mt  899  414 L
 919 4616 mt  919 4562 L
 919  414 mt  919  467 L
%%IncludeResource: font Helvetica
/Helvetica /WindowsLatin1Encoding 240 FMSR

 713 4873 mt 
(-3) s
1806 4616 mt 1806 4562 L
1806  414 mt 1806  467 L
1600 4873 mt 
(-2) s
2693 4616 mt 2693 4562 L
2693  414 mt 2693  467 L
2487 4873 mt 
(-1) s
3580 4616 mt 3580 4562 L
3580  414 mt 3580  467 L
3514 4873 mt 
(0) s
4466 4616 mt 4466 4562 L
4466  414 mt 4466  467 L
4400 4873 mt 
(1) s
5353 4616 mt 5353 4562 L
5353  414 mt 5353  467 L
5287 4873 mt 
(2) s
6240 4616 mt 6240 4562 L
6240  414 mt 6240  467 L
6174 4873 mt 
(3) s
 899 4599 mt  952 4599 L
6261 4599 mt 6207 4599 L
 591 4688 mt 
(-3) s
 899 3904 mt  952 3904 L
6261 3904 mt 6207 3904 L
 591 3993 mt 
(-2) s
 899 3209 mt  952 3209 L
6261 3209 mt 6207 3209 L
 591 3298 mt 
(-1) s
 899 2514 mt  952 2514 L
6261 2514 mt 6207 2514 L
 731 2603 mt 
(0) s
 899 1820 mt  952 1820 L
6261 1820 mt 6207 1820 L
 731 1909 mt 
(1) s
 899 1125 mt  952 1125 L
6261 1125 mt 6207 1125 L
 731 1214 mt 
(2) s
 899  430 mt  952  430 L
6261  430 mt 6207  430 L
 731  519 mt 
(3) s
 899  414 mt 6261  414 L
 899 4616 mt 6261 4616 L
6261 4616 mt 6261  414 L
 899 4616 mt  899  414 L
gs 899 414 5363 4203 rc
gr

/c8 { 0.000000 0.000000 1.000000 sr} bdef
c8
4453 1698 mt 4525 1698 L
4489 1662 mt 4489 1734 L
2749 2815 mt 2821 2815 L
2785 2779 mt 2785 2851 L
4067 4023 mt 4139 4023 L
4103 3987 mt 4103 4059 L
3582 2978 mt 3654 2978 L
3618 2942 mt 3618 3014 L
1805 1892 mt 1877 1892 L
1841 1856 mt 1841 1928 L
4163 2859 mt 4235 2859 L
4199 2823 mt 4199 2895 L
3267 2549 mt 3339 2549 L
3303 2513 mt 3303 2585 L
3202 2160 mt 3274 2160 L
3238 2124 mt 3238 2196 L
4585 2388 mt 4657 2388 L
4621 2352 mt 4621 2424 L
4981 2067 mt 5053 2067 L
5017 2031 mt 5017 2103 L
3085 1740 mt 3157 1740 L
3121 1704 mt 3121 1776 L
1766 2237 mt 1838 2237 L
1802 2201 mt 1802 2273 L
3330 2223 mt 3402 2223 L
3366 2187 mt 3366 2259 L
3046 2320 mt 3118 2320 L
3082 2284 mt 3082 2356 L
4243 2001 mt 4315 2001 L
4279 1965 mt 4279 2037 L
4416 2347 mt 4488 2347 L
4452 2311 mt 4452 2383 L
3135 3273 mt 3207 3273 L
3171 3237 mt 3171 3309 L
3307 2204 mt 3379 2204 L
3343 2168 mt 3343 2240 L
2634 2589 mt 2706 2589 L
2670 2553 mt 2670 2625 L
4028 3567 mt 4100 3567 L
4064 3531 mt 4064 3603 L
4398 3118 mt 4470 3118 L
4434 3082 mt 4434 3154 L
3325 1087 mt 3397 1087 L
3361 1051 mt 3361 1123 L
2723 1404 mt 2795 1404 L
2759 1368 mt 2759 1440 L
3290  564 mt 3362  564 L
3326  528 mt 3326  600 L
5468 2007 mt 5540 2007 L
5504 1971 mt 5504 2043 L
3700 3213 mt 3772 3213 L
3736 3177 mt 3736 3249 L
3426 2576 mt 3498 2576 L
3462 2540 mt 3462 2612 L
4338 2506 mt 4410 2506 L
4374 2470 mt 4374 2542 L
1556 2782 mt 1628 2782 L
1592 2746 mt 1592 2818 L
3751 3358 mt 3823 3358 L
3787 3322 mt 3787 3394 L
2355 3731 mt 2427 3731 L
2391 3695 mt 2391 3767 L
3694 2078 mt 3766 2078 L
3730 2042 mt 3730 2114 L
3538 3581 mt 3610 3581 L
3574 3545 mt 3574 3617 L
1842 2673 mt 1914 2673 L
1878 2637 mt 1878 2709 L
3785 3069 mt 3857 3069 L
3821 3033 mt 3821 3105 L
2781 2909 mt 2853 2909 L
2817 2873 mt 2817 2945 L
4149 2686 mt 4221 2686 L
4185 2650 mt 4185 2722 L
3723 2650 mt 3795 2650 L
3759 2614 mt 3759 2686 L
3190 1960 mt 3262 1960 L
3226 1924 mt 3226 1996 L
3493 4205 mt 3565 4205 L
3529 4169 mt 3529 4241 L
2063 3289 mt 2135 3289 L
2099 3253 mt 2099 3325 L
2987 2365 mt 3059 2365 L
3023 2329 mt 3023 2401 L
3098 3658 mt 3170 3658 L
3134 3622 mt 3134 3694 L
4444 1006 mt 4516 1006 L
4480  970 mt 4480 1042 L
5606 3125 mt 5678 3125 L
5642 3089 mt 5642 3161 L
2765 3045 mt 2837 3045 L
2801 3009 mt 2801 3081 L
3091 2401 mt 3163 2401 L
3127 2365 mt 3127 2437 L
3466 3349 mt 3538 3349 L
3502 3313 mt 3502 3385 L
4512 3093 mt 4584 3093 L
4548 3057 mt 4548 3129 L
2534 2796 mt 2606 2796 L
2570 2760 mt 2570 2832 L
4236 1232 mt 4308 1232 L
4272 1196 mt 4272 1268 L
3172 2140 mt 3244 2140 L
3208 2104 mt 3208 2176 L
3566 1653 mt 3638 1653 L
3602 1617 mt 3602 1689 L
3381 2731 mt 3453 2731 L
3417 2695 mt 3417 2767 L
4372 1561 mt 4444 1561 L
4408 1525 mt 4408 1597 L
2394 2493 mt 2466 2493 L
2430 2457 mt 2430 2529 L
2298 1984 mt 2370 1984 L
2334 1948 mt 2334 2020 L
3655 2029 mt 3727 2029 L
3691 1993 mt 3691 2065 L
4680 2619 mt 4752 2619 L
4716 2583 mt 4716 2655 L
2917 3711 mt 2989 3711 L
2953 3675 mt 2953 3747 L
4015 1787 mt 4087 1787 L
4051 1751 mt 4051 1823 L
4435 3005 mt 4507 3005 L
4471 2969 mt 4471 3041 L
2085 2155 mt 2157 2155 L
2121 2119 mt 2121 2191 L
4390 2820 mt 4462 2820 L
4426 2784 mt 4426 2856 L
4251 2889 mt 4323 2889 L
4287 2853 mt 4287 2925 L
1481 2270 mt 1553 2270 L
1517 2234 mt 1517 2306 L
4259 3675 mt 4331 3675 L
4295 3639 mt 4295 3711 L
2757 4305 mt 2829 4305 L
2793 4269 mt 2793 4341 L
2680 2307 mt 2752 2307 L
2716 2271 mt 2716 2343 L
3588 2633 mt 3660 2633 L
3624 2597 mt 3624 2669 L
4501 3693 mt 4573 3693 L
4537 3657 mt 4537 3729 L
4191 2884 mt 4263 2884 L
4227 2848 mt 4227 2920 L
5245 2120 mt 5317 2120 L
5281 2084 mt 5281 2156 L
3214 2445 mt 3286 2445 L
3250 2409 mt 3250 2481 L
4047 1538 mt 4119 1538 L
4083 1502 mt 4083 1574 L
1876 3942 mt 1948 3942 L
1912 3906 mt 1912 3978 L
4564 2338 mt 4636 2338 L
4600 2302 mt 4600 2374 L
3116 3386 mt 3188 3386 L
3152 3350 mt 3152 3422 L
3072 2311 mt 3144 2311 L
3108 2275 mt 3108 2347 L
4836 2298 mt 4908 2298 L
4872 2262 mt 4872 2334 L
4094 1689 mt 4166 1689 L
4130 1653 mt 4130 1725 L
3594 2754 mt 3666 2754 L
3630 2718 mt 3630 2790 L
3855 3137 mt 3927 3137 L
3891 3101 mt 3891 3173 L
2165 3340 mt 2237 3340 L
2201 3304 mt 2201 3376 L
5180 3265 mt 5252 3265 L
5216 3229 mt 5216 3301 L
3415 2109 mt 3487 2109 L
3451 2073 mt 3451 2145 L
3921  824 mt 3993  824 L
3957  788 mt 3957  860 L
5096 2379 mt 5168 2379 L
5132 2343 mt 5132 2415 L
2828 3376 mt 2900 3376 L
2864 3340 mt 2864 3412 L
5150 1904 mt 5222 1904 L
5186 1868 mt 5186 1940 L
3757 3503 mt 3829 3503 L
3793 3467 mt 3793 3539 L
3599 1336 mt 3671 1336 L
3635 1300 mt 3635 1372 L
1965 2247 mt 2037 2247 L
2001 2211 mt 2001 2283 L
2959 2778 mt 3031 2778 L
2995 2742 mt 2995 2814 L
4142 2611 mt 4214 2611 L
4178 2575 mt 4178 2647 L
3927 2849 mt 3999 2849 L
3963 2813 mt 3963 2885 L
4805 3057 mt 4877 3057 L
4841 3021 mt 4841 3093 L
4608 3491 mt 4680 3491 L
4644 3455 mt 4644 3527 L
4719 3051 mt 4791 3051 L
4755 3015 mt 4755 3087 L
4597 1954 mt 4669 1954 L
4633 1918 mt 4633 1990 L
3488 2284 mt 3560 2284 L
3524 2248 mt 3524 2320 L
2444 1624 mt 2516 1624 L
2480 1588 mt 2480 1660 L
4643 1419 mt 4715 1419 L
4679 1383 mt 4679 1455 L
3940 2554 mt 4012 2554 L
3976 2518 mt 3976 2590 L
6033 2104 mt 6105 2104 L
6069 2068 mt 6069 2140 L
2773 2293 mt 2845 2293 L
2809 2257 mt 2809 2329 L
3897 2940 mt 3969 2940 L
3933 2904 mt 3933 2976 L
3141 2471 mt 3213 2471 L
3177 2435 mt 3177 2507 L
2040 1978 mt 2112 1978 L
2076 1942 mt 2076 2014 L
4199 3822 mt 4271 3822 L
4235 3786 mt 4235 3858 L
5321 2768 mt 5393 2768 L
5357 2732 mt 5357 2804 L
3505 3022 mt 3577 3022 L
3541 2986 mt 3541 3058 L
3410 2361 mt 3482 2361 L
3446 2325 mt 3446 2397 L
1907 2185 mt 1979 2185 L
1943 2149 mt 1943 2221 L
3232 1816 mt 3304 1816 L
3268 1780 mt 3268 1852 L
2468 1277 mt 2540 1277 L
2504 1241 mt 2504 1313 L
3059 2983 mt 3131 2983 L
3095 2947 mt 3095 3019 L
3033 2874 mt 3105 2874 L
3069 2838 mt 3069 2910 L
3891 2989 mt 3963 2989 L
3927 2953 mt 3927 3025 L
2938 2035 mt 3010 2035 L
2974 1999 mt 2974 2071 L
4904 2825 mt 4976 2825 L
4940 2789 mt 4940 2861 L
3838 1152 mt 3910 1152 L
3874 1116 mt 3874 1188 L
2662 2914 mt 2734 2914 L
2698 2878 mt 2698 2950 L
3364 1858 mt 3436 1858 L
3400 1822 mt 3400 1894 L
2740 2316 mt 2812 2316 L
2776 2280 mt 2776 2352 L
4330 2150 mt 4402 2150 L
4366 2114 mt 4366 2186 L
3013 3281 mt 3085 3281 L
3049 3245 mt 3049 3317 L
3404 2228 mt 3476 2228 L
3440 2192 mt 3440 2264 L
3605 2668 mt 3677 2668 L
3641 2632 mt 3641 2704 L
3903 1462 mt 3975 1462 L
3939 1426 mt 3939 1498 L
4655 2012 mt 4727 2012 L
4691 1976 mt 4691 2048 L
 863 1748 mt  935 1748 L
 899 1712 mt  899 1784 L
3166 2130 mt 3238 2130 L
3202 2094 mt 3202 2166 L
2282 2083 mt 2354 2083 L
2318 2047 mt 2318 2119 L
2595 2879 mt 2667 2879 L
2631 2843 mt 2631 2915 L
3284 2704 mt 3356 2704 L
3320 2668 mt 3320 2740 L
2697 2864 mt 2769 2864 L
2733 2828 mt 2733 2900 L
2327 3087 mt 2399 3087 L
2363 3051 mt 2363 3123 L
1387 2510 mt 1459 2510 L
1423 2474 mt 1423 2546 L
2980 2467 mt 3052 2467 L
3016 2431 mt 3016 2503 L
2523 2602 mt 2595 2602 L
2559 2566 mt 2559 2638 L
3359 2251 mt 3431 2251 L
3395 2215 mt 3395 2287 L
4314 2414 mt 4386 2414 L
4350 2378 mt 4350 2450 L
2924 2165 mt 2996 2165 L
2960 2129 mt 2960 2201 L
3768 2458 mt 3840 2458 L
3804 2422 mt 3804 2494 L
4306 2967 mt 4378 2967 L
4342 2931 mt 4342 3003 L
2218 2024 mt 2290 2024 L
2254 1988 mt 2254 2060 L
4087 1371 mt 4159 1371 L
4123 1335 mt 4123 1407 L
4922 2356 mt 4994 2356 L
4958 2320 mt 4958 2392 L
1619 2750 mt 1691 2750 L
1655 2714 mt 1655 2786 L
4492 2046 mt 4564 2046 L
4528 2010 mt 4528 2082 L
3255 2514 mt 3327 2514 L
3291 2478 mt 3291 2550 L
2201 3908 mt 2273 3908 L
2237 3872 mt 2237 3944 L
3438 1851 mt 3510 1851 L
3474 1815 mt 3474 1887 L
2490 2773 mt 2562 2773 L
2526 2737 mt 2526 2809 L
3571 2811 mt 3643 2811 L
3607 2775 mt 3607 2847 L
3728 3479 mt 3800 3479 L
3764 3443 mt 3764 3515 L
3983 2099 mt 4055 2099 L
4019 2063 mt 4019 2135 L
2859 1779 mt 2931 1779 L
2895 1743 mt 2895 1815 L
4553 2073 mt 4625 2073 L
4589 2037 mt 4589 2109 L
4184 3436 mt 4256 3436 L
4220 3400 mt 4220 3472 L
3780 2541 mt 3852 2541 L
3816 2505 mt 3816 2577 L
4228 1255 mt 4300 1255 L
4264 1219 mt 4264 1291 L
2888 3250 mt 2960 3250 L
2924 3214 mt 2924 3286 L
4746 2089 mt 4818 2089 L
4782 2053 mt 4782 2125 L
3178 3220 mt 3250 3220 L
3214 3184 mt 3214 3256 L
4021 2764 mt 4093 2764 L
4057 2728 mt 4057 2800 L
4522 1838 mt 4594 1838 L
4558 1802 mt 4558 1874 L
2555 1809 mt 2627 1809 L
2591 1773 mt 2591 1845 L
2715 2869 mt 2787 2869 L
2751 2833 mt 2751 2905 L
3208 1207 mt 3280 1207 L
3244 1171 mt 3244 1243 L
4156 1948 mt 4228 1948 L
4192 1912 mt 4192 1984 L
2836 3184 mt 2908 3184 L
2872 3148 mt 2872 3220 L
3319 2343 mt 3391 2343 L
3355 2307 mt 3355 2379 L
3666 2175 mt 3738 2175 L
3702 2139 mt 3702 2211 L
2432 2242 mt 2504 2242 L
2468 2206 mt 2468 2278 L
2789 2501 mt 2861 2501 L
2825 2465 mt 2825 2537 L
5531 3641 mt 5603 3641 L
5567 3605 mt 5567 3677 L
3627 2718 mt 3699 2718 L
3663 2682 mt 3663 2754 L
3826 2787 mt 3898 2787 L
3862 2751 mt 3862 2823 L
3510 1794 mt 3582 1794 L
3546 1758 mt 3546 1830 L
3989 3797 mt 4061 3797 L
4025 3761 mt 4025 3833 L
2106  898 mt 2178  898 L
2142  862 mt 2142  934 L
3421 2558 mt 3493 2558 L
3457 2522 mt 3457 2594 L
2502 2580 mt 2574 2580 L
2538 2544 mt 2538 2616 L
2183 2624 mt 2255 2624 L
2219 2588 mt 2219 2660 L
3689 1550 mt 3761 1550 L
3725 1514 mt 3725 1586 L
3336 2899 mt 3408 2899 L
3372 2863 mt 3372 2935 L
2513 3625 mt 2585 3625 L
2549 3589 mt 2549 3661 L
3832 1318 mt 3904 1318 L
3868 1282 mt 3868 1354 L
2267 2352 mt 2339 2352 L
2303 2316 mt 2303 2388 L
2126  414 mt 2198  414 L
2162  378 mt 2162  450 L
2235 3034 mt 2307 3034 L
2271 2998 mt 2271 3070 L
4760 1764 mt 4832 1764 L
4796 1728 mt 4796 1800 L
3946 1972 mt 4018 1972 L
3982 1936 mt 3982 2008 L
3885 2436 mt 3957 2436 L
3921 2400 mt 3921 2472 L
2575 1593 mt 2647 1593 L
2611 1557 mt 2611 1629 L
3053 1942 mt 3125 1942 L
3089 1906 mt 3089 1978 L
2671 2325 mt 2743 2325 L
2707 2289 mt 2707 2361 L
4213 2094 mt 4285 2094 L
4249 2058 mt 4249 2130 L
4100 1680 mt 4172 1680 L
4136 1644 mt 4136 1716 L
3621 1572 mt 3693 1572 L
3657 1536 mt 3657 1608 L
4820 2682 mt 4892 2682 L
4856 2646 mt 4856 2718 L
2993 2418 mt 3065 2418 L
3029 2382 mt 3029 2454 L
1722 2449 mt 1794 2449 L
1758 2413 mt 1758 2485 L
3915 2405 mt 3987 2405 L
3951 2369 mt 3951 2441 L
3549 2677 mt 3621 2677 L
3585 2641 mt 3585 2713 L
3460 3848 mt 3532 3848 L
3496 3812 mt 3496 3884 L
5282 2302 mt 5354 2302 L
5318 2266 mt 5318 2338 L
4706 2528 mt 4778 2528 L
4742 2492 mt 4742 2564 L
3820 2256 mt 3892 2256 L
3856 2220 mt 3856 2292 L
2381 3039 mt 2453 3039 L
2417 3003 mt 2417 3075 L
3971 2536 mt 4043 2536 L
4007 2500 mt 4007 2572 L
3007 1354 mt 3079 1354 L
3043 1318 mt 3043 1390 L
4128 1823 mt 4200 1823 L
4164 1787 mt 4164 1859 L
5047 1756 mt 5119 1756 L
5083 1720 mt 5083 1792 L
3814 3752 mt 3886 3752 L
3850 3716 mt 3850 3788 L
2706 2523 mt 2778 2523 L
2742 2487 mt 2742 2559 L
2797 3610 mt 2869 3610 L
2833 3574 mt 2833 3646 L
4009 2628 mt 4081 2628 L
4045 2592 mt 4045 2664 L
4266 3131 mt 4338 3131 L
4302 3095 mt 4302 3167 L
3717  724 mt 3789  724 L
3753  688 mt 3753  760 L
2732 1930 mt 2804 1930 L
2768 1894 mt 2768 1966 L
3803 1049 mt 3875 1049 L
3839 1013 mt 3839 1085 L
3797 2334 mt 3869 2334 L
3833 2298 mt 3833 2370 L
3683 4072 mt 3755 4072 L
3719 4036 mt 3719 4108 L
3850 2606 mt 3922 2606 L
3886 2570 mt 3886 2642 L
4135 2956 mt 4207 2956 L
4171 2920 mt 4171 2992 L
3577 2275 mt 3649 2275 L
3613 2239 mt 3613 2311 L
2881 2218 mt 2953 2218 L
2917 2182 mt 2917 2254 L
2456 1878 mt 2528 1878 L
2492 1842 mt 2492 1914 L
3532 2709 mt 3604 2709 L
3568 2673 mt 3568 2745 L
3844 3306 mt 3916 3306 L
3880 3270 mt 3880 3342 L
3160 3527 mt 3232 3527 L
3196 3491 mt 3196 3563 L
3237 2741 mt 3309 2741 L
3273 2705 mt 3273 2777 L
3398 2792 mt 3470 2792 L
3434 2756 mt 3434 2828 L
4041 3297 mt 4113 3297 L
4077 3261 mt 4077 3333 L
4463 1448 mt 4535 1448 L
4499 1412 mt 4499 1484 L
3499 1662 mt 3571 1662 L
3535 1626 mt 3535 1698 L
2146 3099 mt 2218 3099 L
2182 3063 mt 2182 3135 L
3184 3075 mt 3256 3075 L
3220 3039 mt 3220 3111 L
3249 3515 mt 3321 3515 L
3285 3479 mt 3285 3551 L
3471 3395 mt 3543 3395 L
3507 3359 mt 3507 3431 L
4886 1526 mt 4958 1526 L
4922 1490 mt 4922 1562 L
6225 2462 mt 6297 2462 L
6261 2426 mt 6261 2498 L
3644 3081 mt 3716 3081 L
3680 3045 mt 3680 3117 L
3123 1923 mt 3195 1923 L
3159 1887 mt 3159 1959 L
3964 2664 mt 4036 2664 L
4000 2628 mt 4000 2700 L
4532 2925 mt 4604 2925 L
4568 2889 mt 4568 2961 L
2931 3242 mt 3003 3242 L
2967 3206 mt 2967 3278 L
4355 1723 mt 4427 1723 L
4391 1687 mt 4391 1759 L
3353 2209 mt 3425 2209 L
3389 2173 mt 3389 2245 L
3000 1604 mt 3072 1604 L
3036 1568 mt 3036 1640 L
3633 2894 mt 3705 2894 L
3669 2858 mt 3669 2930 L
4177 1707 mt 4249 1707 L
4213 1671 mt 4213 1743 L
2874 2423 mt 2946 2423 L
2910 2387 mt 2910 2459 L
2896 2519 mt 2968 2519 L
2932 2483 mt 2932 2555 L
3861 2427 mt 3933 2427 L
3897 2391 mt 3897 2463 L
4693 1772 mt 4765 1772 L
4729 1736 mt 4729 1808 L
3027 2659 mt 3099 2659 L
3063 2623 mt 3063 2695 L
3909 1671 mt 3981 1671 L
3945 1635 mt 3945 1707 L
4290 3151 mt 4362 3151 L
4326 3115 mt 4326 3187 L
3296 2691 mt 3368 2691 L
3332 2655 mt 3332 2727 L
5071 2695 mt 5143 2695 L
5107 2659 mt 5107 2731 L
1259 3017 mt 1331 3017 L
1295 2981 mt 1295 3053 L
2605 1865 mt 2677 1865 L
2641 1829 mt 2641 1901 L
3560 3063 mt 3632 3063 L
3596 3027 mt 3596 3099 L
2479 2484 mt 2551 2484 L
2515 2448 mt 2515 2520 L
3153 2835 mt 3225 2835 L
3189 2799 mt 3189 2871 L
2341 2759 mt 2413 2759 L
2377 2723 mt 2377 2795 L
4631 2713 mt 4703 2713 L
4667 2677 mt 4667 2749 L
4054 3468 mt 4126 3468 L
4090 3432 mt 4090 3504 L
5365 2801 mt 5437 2801 L
5401 2765 mt 5401 2837 L
2652 3191 mt 2724 3191 L
2688 3155 mt 2688 3227 L
4114 1911 mt 4186 1911 L
4150 1875 mt 4150 1947 L
3649 3235 mt 3721 3235 L
3685 3199 mt 3685 3271 L
4789 1831 mt 4861 1831 L
4825 1795 mt 4825 1867 L
2586 2637 mt 2658 2637 L
2622 2601 mt 2622 2673 L
3638 3157 mt 3710 3157 L
3674 3121 mt 3674 3193 L
5211 2383 mt 5283 2383 L
5247 2347 mt 5247 2419 L
4347 1802 mt 4419 1802 L
4383 1766 mt 4383 1838 L
3791 2597 mt 3863 2597 L
3827 2561 mt 3827 2633 L
3873 1995 mt 3945 1995 L
3909 1959 mt 3909 2031 L
3273 2480 mt 3345 2480 L
3309 2444 mt 3309 2516 L
4574 2189 mt 4646 2189 L
4610 2153 mt 4610 2225 L
3740 2920 mt 3812 2920 L
3776 2884 mt 3776 2956 L
4274 1181 mt 4346 1181 L
4310 1145 mt 4310 1217 L
4732 2233 mt 4804 2233 L
4768 2197 mt 4768 2269 L
2407 2641 mt 2479 2641 L
2443 2605 mt 2443 2677 L
4667 2951 mt 4739 2951 L
4703 2915 mt 4703 2987 L
3934 2265 mt 4006 2265 L
3970 2229 mt 3970 2301 L
3879 1936 mt 3951 1936 L
3915 1900 mt 3915 1972 L
2624 2615 mt 2696 2615 L
2660 2579 mt 2660 2651 L
4364 1872 mt 4436 1872 L
4400 1836 mt 4400 1908 L
3977 3457 mt 4049 3457 L
4013 3421 mt 4013 3493 L
3482 3322 mt 3554 3322 L
3518 3286 mt 3518 3358 L
4381 2532 mt 4453 2532 L
4417 2496 mt 4417 2568 L
4869 2374 mt 4941 2374 L
4905 2338 mt 4905 2410 L
5002 2994 mt 5074 2994 L
5038 2958 mt 5038 3030 L
4472 1514 mt 4544 1514 L
4508 1478 mt 4508 1550 L
3661 2410 mt 3733 2410 L
3697 2374 mt 3697 2446 L
3347 2018 mt 3419 2018 L
3383 1982 mt 3383 2054 L
5024  957 mt 5096  957 L
5060  921 mt 5060  993 L
3745 3367 mt 3817 3367 L
3781 3331 mt 3781 3403 L
4775 2370 mt 4847 2370 L
4811 2334 mt 4811 2406 L
3516 2040 mt 3588 2040 L
3552 2004 mt 3552 2076 L
4002 3171 mt 4074 3171 L
4038 3135 mt 4038 3207 L
3261 2199 mt 3333 2199 L
3297 2163 mt 3297 2235 L
3432 2057 mt 3504 2057 L
3468 2021 mt 3468 2093 L
4206 3144 mt 4278 3144 L
4242 3108 mt 4242 3180 L
5828 2655 mt 5900 2655 L
5864 2619 mt 5864 2691 L
2689 2930 mt 2761 2930 L
2725 2894 mt 2725 2966 L
2615 2396 mt 2687 2396 L
2651 2360 mt 2651 2432 L
3278 2840 mt 3350 2840 L
3314 2804 mt 3314 2876 L
3387 2135 mt 3459 2135 L
3423 2099 mt 3423 2171 L
3104 1298 mt 3176 1298 L
3140 1262 mt 3140 1334 L
3196 3178 mt 3268 3178 L
3232 3142 mt 3232 3214 L
4060 1990 mt 4132 1990 L
4096 1954 mt 4096 2026 L
3809 3106 mt 3881 3106 L
3845 3070 mt 3845 3142 L
3110 1845 mt 3182 1845 L
3146 1809 mt 3146 1881 L
5122 3011 mt 5194 3011 L
5158 2975 mt 5158 3047 L
4074 1583 mt 4146 1583 L
4110 1547 mt 4110 1619 L
3078 3595 mt 3150 3595 L
3114 3559 mt 3114 3631 L
3867 1732 mt 3939 1732 L
3903 1696 mt 3903 1768 L
1991 3227 mt 2063 3227 L
2027 3191 mt 2027 3263 L
4961 3028 mt 5033 3028 L
4997 2992 mt 4997 3064 L
3342 2214 mt 3414 2214 L
3378 2178 mt 3378 2250 L
3220 1614 mt 3292 1614 L
3256 1578 mt 3256 1650 L
3762 2962 mt 3834 2962 L
3798 2926 mt 3798 2998 L
3952 2261 mt 4024 2261 L
3988 2225 mt 3988 2297 L
4941 2545 mt 5013 2545 L
4977 2509 mt 4977 2581 L
3226 1715 mt 3298 1715 L
3262 1679 mt 3262 1751 L
3454 2453 mt 3526 2453 L
3490 2417 mt 3490 2489 L
2565 2115 mt 2637 2115 L
2601 2079 mt 2601 2151 L
3129 3206 mt 3201 3206 L
3165 3170 mt 3165 3242 L
2821 4131 mt 2893 4131 L
2857 4095 mt 2857 4167 L
3147 3314 mt 3219 3314 L
3183 3278 mt 3183 3350 L
2420 3000 mt 2492 3000 L
2456 2964 mt 2456 3036 L
3370 2562 mt 3442 2562 L
3406 2526 mt 3406 2598 L
3711 2972 mt 3783 2972 L
3747 2936 mt 3747 3008 L
2545 3405 mt 2617 3405 L
2581 3369 mt 2581 3441 L
3020 2722 mt 3092 2722 L
3056 2686 mt 3056 2758 L
4542 2475 mt 4614 2475 L
4578 2439 mt 4578 2511 L
2312 2180 mt 2384 2180 L
2348 2144 mt 2348 2216 L
3040 3877 mt 3112 3877 L
3076 3841 mt 3076 3913 L
4407 2844 mt 4479 2844 L
4443 2808 mt 4443 2880 L
2844 2125 mt 2916 2125 L
2880 2089 mt 2880 2161 L
4221 1966 mt 4293 1966 L
4257 1930 mt 4257 2002 L
4425 1434 mt 4497 1434 L
4461 1398 mt 4461 1470 L
3243 2904 mt 3315 2904 L
3279 2868 mt 3279 2940 L
5413 2051 mt 5485 2051 L
5449 2015 mt 5449 2087 L
3443 3425 mt 3515 3425 L
3479 3389 mt 3479 3461 L
2016 2279 mt 2088 2279 L
2052 2243 mt 2052 2315 L
2851 2593 mt 2923 2593 L
2887 2557 mt 2887 2629 L
1674 2497 mt 1746 2497 L
1710 2461 mt 1710 2533 L
3774 2854 mt 3846 2854 L
3810 2818 mt 3810 2890 L
4034 2488 mt 4106 2488 L
4070 2452 mt 4070 2524 L
4121 3331 mt 4193 3331 L
4157 3295 mt 4157 3367 L
2813 2170 mt 2885 2170 L
2849 2134 mt 2849 2206 L
4619 2329 mt 4691 2329 L
4655 2293 mt 4655 2365 L
3477 3980 mt 3549 3980 L
3513 3944 mt 3513 4016 L
3706 3540 mt 3778 3540 L
3742 3504 mt 3742 3576 L
3672 1898 mt 3744 1898 L
3708 1862 mt 3708 1934 L
2866 2145 mt 2938 2145 L
2902 2109 mt 2902 2181 L
4852 2946 mt 4924 2946 L
4888 2910 mt 4888 2982 L
3302 3198 mt 3374 3198 L
3338 3162 mt 3338 3234 L
4170 2700 mt 4242 2700 L
4206 2664 mt 4206 2736 L
4482 2288 mt 4554 2288 L
4518 2252 mt 4518 2324 L
2368 2062 mt 2440 2062 L
2404 2026 mt 2404 2098 L
2251 2646 mt 2323 2646 L
2287 2610 mt 2287 2682 L
3616 1476 mt 3688 1476 L
3652 1440 mt 3652 1512 L
4282 3112 mt 4354 3112 L
4318 3076 mt 4318 3148 L
2805 2830 mt 2877 2830 L
2841 2794 mt 2841 2866 L
3996 2736 mt 4068 2736 L
4032 2700 mt 4032 2772 L
4107 1502 mt 4179 1502 L
4143 1466 mt 4143 1538 L
3313 3446 mt 3385 3446 L
3349 3410 mt 3349 3482 L
3610 1634 mt 3682 1634 L
3646 1598 mt 3646 1670 L
5700 2745 mt 5772 2745 L
5736 2709 mt 5736 2781 L
3066 3774 mt 3138 3774 L
3102 3738 mt 3102 3810 L
4298 3257 mt 4370 3257 L
4334 3221 mt 4334 3293 L
3449 2806 mt 3521 2806 L
3485 2770 mt 3485 2842 L
3734 2432 mt 3806 2432 L
3770 2396 mt 3770 2468 L
2910 1121 mt 2982 1121 L
2946 1085 mt 2946 1157 L
2973 1917 mt 3045 1917 L
3009 1881 mt 3009 1953 L
2903 3553 mt 2975 3553 L
2939 3517 mt 2939 3589 L
1937 2935 mt 2009 2935 L
1973 2899 mt 1973 2971 L
4080 2194 mt 4152 2194 L
4116 2158 mt 4116 2230 L
3527 3415 mt 3599 3415 L
3563 3379 mt 3563 3451 L
3521 3164 mt 3593 3164 L
3557 3128 mt 3557 3200 L
3677 1489 mt 3749 1489 L
3713 1453 mt 3713 1525 L
3544 2584 mt 3616 2584 L
3580 2548 mt 3580 2620 L
2966 1388 mt 3038 1388 L
3002 1352 mt 3002 1424 L
2952 4616 mt 3024 4616 L
2988 4580 mt 2988 4652 L
4322 1643 mt 4394 1643 L
4358 1607 mt 4358 1679 L
3958 2392 mt 4030 2392 L
3994 2356 mt 3994 2428 L
3376 2440 mt 3448 2440 L
3412 2404 mt 3412 2476 L
2643 1885 mt 2715 1885 L
2679 1849 mt 2679 1921 L
3393 2727 mt 3465 2727 L
3429 2691 mt 3429 2763 L
2945 2567 mt 3017 2567 L
2981 2531 mt 2981 2603 L
3555 2571 mt 3627 2571 L
3591 2535 mt 3591 2607 L
gs 899 414 5363 4203 rc
gr

0 sg
2779 5104 mt 
(\(F,DCTs,GMM\)) s
 482 3277 mt  -90 rotate
(\(S,SSC,GMM\)) s
90 rotate
2975  223 mt 
(Corr = 0.07) s

end %%Color Dict

eplot
%%EndObject

epage
end

showpage

%%Trailer
%%EOF
