%!PS-Adobe-3.0 EPSF-3.0
%%Creator: MATLAB, The Mathworks, Inc. Version 7.7.0.471 (R2008b). Operating System: Microsoft Windows XP.
%%Title: Pictures\main_fusion_table.eps
%%CreationDate: 10/22/2009  08:20:19
%%DocumentNeededFonts: Helvetica
%%DocumentProcessColors: Cyan Magenta Yellow Black
%%LanguageLevel: 2
%%Pages: 1
%%BoundingBox:    66   199   596   598
%%EndComments

%%BeginProlog
% MathWorks dictionary
/MathWorks 160 dict begin
% definition operators
/bdef {bind def} bind def
/ldef {load def} bind def
/xdef {exch def} bdef
/xstore {exch store} bdef
% operator abbreviations
/c  /clip ldef
/cc /concat ldef
/cp /closepath ldef
/gr /grestore ldef
/gs /gsave ldef
/mt /moveto ldef
/np /newpath ldef
/cm /currentmatrix ldef
/sm /setmatrix ldef
/rm /rmoveto ldef
/rl /rlineto ldef
/s {show newpath} bdef
/sc {setcmykcolor} bdef
/sr /setrgbcolor ldef
/sg /setgray ldef
/w /setlinewidth ldef
/j /setlinejoin ldef
/cap /setlinecap ldef
/rc {rectclip} bdef
/rf {rectfill} bdef
% page state control
/pgsv () def
/bpage {/pgsv save def} bdef
/epage {pgsv restore} bdef
/bplot /gsave ldef
/eplot {stroke grestore} bdef
% orientation switch
/portraitMode 0 def /landscapeMode 1 def /rotateMode 2 def
% coordinate system mappings
/dpi2point 0 def
% font control
/FontSize 0 def
/FMS {/FontSize xstore findfont [FontSize 0 0 FontSize neg 0 0]
  makefont setfont} bdef
/ISOLatin1Encoding where {pop /WindowsLatin1Encoding 256 array bdef
ISOLatin1Encoding WindowsLatin1Encoding copy pop
/.notdef/.notdef/quotesinglbase/florin/quotedblbase/ellipsis/dagger
/daggerdbl/circumflex/perthousand/Scaron/guilsinglleft/OE/.notdef/.notdef
/.notdef/.notdef/quoteleft/quoteright/quotedblleft/quotedblright/bullet
/endash/emdash/tilde/trademark/scaron/guilsinglright/oe/.notdef/.notdef
/Ydieresis WindowsLatin1Encoding 128 32 getinterval astore pop}
{/WindowsLatin1Encoding StandardEncoding bdef} ifelse
/reencode {exch dup where {pop load} {pop StandardEncoding} ifelse
  exch dup 3 1 roll findfont dup length dict begin
  { 1 index /FID ne {def}{pop pop} ifelse } forall
  /Encoding exch def currentdict end definefont pop} bdef
/isroman {findfont /CharStrings get /Agrave known} bdef
/FMSR {3 1 roll 1 index dup isroman {reencode} {pop pop} ifelse
  exch FMS} bdef
/csm {1 dpi2point div -1 dpi2point div scale neg translate
 dup landscapeMode eq {pop -90 rotate}
  {rotateMode eq {90 rotate} if} ifelse} bdef
% line types: solid, dotted, dashed, dotdash
/SO { [] 0 setdash } bdef
/DO { [.5 dpi2point mul 4 dpi2point mul] 0 setdash } bdef
/DA { [6 dpi2point mul] 0 setdash } bdef
/DD { [.5 dpi2point mul 4 dpi2point mul 6 dpi2point mul 4
  dpi2point mul] 0 setdash } bdef
% macros for lines and objects
/L {lineto stroke} bdef
/MP {3 1 roll moveto 1 sub {rlineto} repeat} bdef
/AP {{rlineto} repeat} bdef
/PDlw -1 def
/W {/PDlw currentlinewidth def setlinewidth} def
/PP {closepath eofill} bdef
/DP {closepath stroke} bdef
/MR {4 -2 roll moveto dup  0 exch rlineto exch 0 rlineto
  neg 0 exch rlineto closepath} bdef
/FR {MR stroke} bdef
/PR {MR fill} bdef
/L1i {{currentfile picstr readhexstring pop} image} bdef
/tMatrix matrix def
/MakeOval {newpath tMatrix currentmatrix pop translate scale
0 0 1 0 360 arc tMatrix setmatrix} bdef
/FO {MakeOval stroke} bdef
/PO {MakeOval fill} bdef
/PD {currentlinewidth 2 div 0 360 arc fill
   PDlw -1 eq not {PDlw w /PDlw -1 def} if} def
/FA {newpath tMatrix currentmatrix pop translate scale
  0 0 1 5 -2 roll arc tMatrix setmatrix stroke} bdef
/PA {newpath tMatrix currentmatrix pop	translate 0 0 moveto scale
  0 0 1 5 -2 roll arc closepath tMatrix setmatrix fill} bdef
/FAn {newpath tMatrix currentmatrix pop translate scale
  0 0 1 5 -2 roll arcn tMatrix setmatrix stroke} bdef
/PAn {newpath tMatrix currentmatrix pop translate 0 0 moveto scale
  0 0 1 5 -2 roll arcn closepath tMatrix setmatrix fill} bdef
/vradius 0 def /hradius 0 def /lry 0 def
/lrx 0 def /uly 0 def /ulx 0 def /rad 0 def
/MRR {/vradius xdef /hradius xdef /lry xdef /lrx xdef /uly xdef
  /ulx xdef newpath tMatrix currentmatrix pop ulx hradius add uly
  vradius add translate hradius vradius scale 0 0 1 180 270 arc 
  tMatrix setmatrix lrx hradius sub uly vradius add translate
  hradius vradius scale 0 0 1 270 360 arc tMatrix setmatrix
  lrx hradius sub lry vradius sub translate hradius vradius scale
  0 0 1 0 90 arc tMatrix setmatrix ulx hradius add lry vradius sub
  translate hradius vradius scale 0 0 1 90 180 arc tMatrix setmatrix
  closepath} bdef
/FRR {MRR stroke } bdef
/PRR {MRR fill } bdef
/MlrRR {/lry xdef /lrx xdef /uly xdef /ulx xdef /rad lry uly sub 2 div def
  newpath tMatrix currentmatrix pop ulx rad add uly rad add translate
  rad rad scale 0 0 1 90 270 arc tMatrix setmatrix lrx rad sub lry rad
  sub translate rad rad scale 0 0 1 270 90 arc tMatrix setmatrix
  closepath} bdef
/FlrRR {MlrRR stroke } bdef
/PlrRR {MlrRR fill } bdef
/MtbRR {/lry xdef /lrx xdef /uly xdef /ulx xdef /rad lrx ulx sub 2 div def
  newpath tMatrix currentmatrix pop ulx rad add uly rad add translate
  rad rad scale 0 0 1 180 360 arc tMatrix setmatrix lrx rad sub lry rad
  sub translate rad rad scale 0 0 1 0 180 arc tMatrix setmatrix
  closepath} bdef
/FtbRR {MtbRR stroke } bdef
/PtbRR {MtbRR fill } bdef
/stri 6 array def /dtri 6 array def
/smat 6 array def /dmat 6 array def
/tmat1 6 array def /tmat2 6 array def /dif 3 array def
/asub {/ind2 exch def /ind1 exch def dup dup
  ind1 get exch ind2 get sub exch } bdef
/tri_to_matrix {
  2 0 asub 3 1 asub 4 0 asub 5 1 asub
  dup 0 get exch 1 get 7 -1 roll astore } bdef
/compute_transform {
  dmat dtri tri_to_matrix tmat1 invertmatrix 
  smat stri tri_to_matrix tmat2 concatmatrix } bdef
/ds {stri astore pop} bdef
/dt {dtri astore pop} bdef
/db {2 copy /cols xdef /rows xdef mul dup 3 mul string
  currentfile 
  3 index 0 eq {/ASCIIHexDecode filter}
  {/ASCII85Decode filter 3 index 2 eq {/RunLengthDecode filter} if }
  ifelse exch readstring pop
  dup 0 3 index getinterval /rbmap xdef
  dup 2 index dup getinterval /gbmap xdef
  1 index dup 2 mul exch getinterval /bbmap xdef pop pop}bdef
/it {gs np dtri aload pop moveto lineto lineto cp c
  cols rows 8 compute_transform 
  rbmap gbmap bbmap true 3 colorimage gr}bdef
/il {newpath moveto lineto stroke}bdef
currentdict end def
%%EndProlog

%%BeginSetup
MathWorks begin

0 cap

end
%%EndSetup

%%Page: 1 1
%%BeginPageSetup
%%PageBoundingBox:    66   199   596   598
MathWorks begin
bpage
%%EndPageSetup

%%BeginObject: obj1
bplot

/dpi2point 12 def
portraitMode 0216 7344 csm

  580   161  6358  4795 rc
85 dict begin %Colortable dictionary
/c0 { 0.000000 0.000000 0.000000 sr} bdef
/c1 { 1.000000 1.000000 1.000000 sr} bdef
/c2 { 0.900000 0.000000 0.000000 sr} bdef
/c3 { 0.000000 0.820000 0.000000 sr} bdef
/c4 { 0.000000 0.000000 0.800000 sr} bdef
/c5 { 0.910000 0.820000 0.320000 sr} bdef
/c6 { 1.000000 0.260000 0.820000 sr} bdef
/c7 { 0.000000 0.820000 0.820000 sr} bdef
c0
1 j
1 sg
   0    0 6919 5187 rf
6 w
0 1068 856 0 0 -1068 899 1508 4 MP
PP
-856 0 0 1068 856 0 0 -1068 899 1508 5 MP stroke
4 w
DO
SO
6 w
0 sg
 899 1508 mt 1755 1508 L
 899 1508 mt  899  440 L
 899 1508 mt  899 1497 L
%%IncludeResource: font Helvetica
/Helvetica /WindowsLatin1Encoding 120 FMSR

 866 1653 mt 
(0) s
1327 1508 mt 1327 1497 L
1244 1653 mt 
(0.5) s
1755 1508 mt 1755 1497 L
1722 1653 mt 
(1) s
 899 1508 mt  909 1508 L
 798 1552 mt 
(0) s
 899 1241 mt  909 1241 L
 798 1285 mt 
(1) s
 899  974 mt  909  974 L
 798 1018 mt 
(2) s
 899  707 mt  909  707 L
 798  751 mt 
(3) s
 899  440 mt  909  440 L
 798  484 mt 
(4) s
gs 899 440 857 1069 rc
/c8 { 0.000000 0.000000 1.000000 sr} bdef
c8
-85 3 -86 35 -85 32 -86 66 -86 45 -85 66 -86 47 -85 45 
-86 38 -86 92 1755 964 11 MP stroke
gr

c8
gs 826 891 1003 616 rc
  36   36 1755  964 FO
  36   36 1669 1056 FO
  36   36 1583 1094 FO
  36   36 1498 1139 FO
  36   36 1412 1186 FO
  36   36 1327 1252 FO
  36   36 1241 1297 FO
  36   36 1155 1363 FO
  36   36 1070 1395 FO
  36   36  984 1430 FO
  36   36  899 1433 FO
gr

gs 899 440 857 1069 rc
DA
24 w
/c9 { 1.000000 0.000000 0.000000 sr} bdef
c9
856 0 899 1356 2 MP stroke
6 w
0 sg
856 0 899 457 2 MP stroke
SO
856 0 899 1214 2 MP stroke
gr

0 sg
 798  345 mt 
(\(a\) P1:1\(F\)+P1:3\(S\)) s
1 sg
0 1068 856 0 0 -1068 2026 1508 4 MP
PP
-856 0 0 1068 856 0 0 -1068 2026 1508 5 MP stroke
4 w
DO
SO
6 w
0 sg
2026 1508 mt 2882 1508 L
2026 1508 mt 2026  440 L
2026 1508 mt 2026 1497 L
1993 1653 mt 
(0) s
2454 1508 mt 2454 1497 L
2371 1653 mt 
(0.5) s
2882 1508 mt 2882 1497 L
2849 1653 mt 
(1) s
2026 1508 mt 2036 1508 L
1925 1552 mt 
(0) s
2026 1241 mt 2036 1241 L
1925 1285 mt 
(2) s
2026  974 mt 2036  974 L
1925 1018 mt 
(4) s
2026  707 mt 2036  707 L
1925  751 mt 
(6) s
2026  440 mt 2036  440 L
1925  484 mt 
(8) s
gs 2026 440 857 1069 rc
c8
-85 13 -86 28 -85 24 -86 -1 -86 14 -85 12 -86 44 -85 15 
-86 41 -86 55 2882 1074 11 MP stroke
gr

c8
gs 1953 1001 1003 392 rc
  36   36 2882 1074 FO
  36   36 2796 1129 FO
  36   36 2710 1170 FO
  36   36 2625 1185 FO
  36   36 2539 1229 FO
  36   36 2454 1241 FO
  36   36 2368 1255 FO
  36   36 2282 1254 FO
  36   36 2197 1278 FO
  36   36 2111 1306 FO
  36   36 2026 1319 FO
gr

gs 2026 440 857 1069 rc
DA
24 w
c9
856 0 2026 1324 2 MP stroke
6 w
0 sg
856 0 2026 982 2 MP stroke
SO
856 0 2026 671 2 MP stroke
gr

0 sg
1925  345 mt 
(\(b\) P1:1\(F\)+P1:4\(S\)) s
1 sg
0 1068 856 0 0 -1068 3152 1508 4 MP
PP
-856 0 0 1068 856 0 0 -1068 3152 1508 5 MP stroke
4 w
DO
SO
6 w
0 sg
3152 1508 mt 4008 1508 L
3152 1508 mt 3152  440 L
3152 1508 mt 3152 1497 L
3119 1653 mt 
(0) s
3580 1508 mt 3580 1497 L
3497 1653 mt 
(0.5) s
4008 1508 mt 4008 1497 L
3975 1653 mt 
(1) s
3152 1508 mt 3162 1508 L
3051 1552 mt 
(0) s
3152 1152 mt 3162 1152 L
3051 1196 mt 
(2) s
3152  796 mt 3162  796 L
3051  840 mt 
(4) s
3152  440 mt 3162  440 L
3051  484 mt 
(6) s
gs 3152 440 857 1069 rc
c8
-85 9 -86 30 -85 27 -86 96 -86 21 -85 40 -86 58 -85 71 
-86 44 -86 125 4008 912 11 MP stroke
gr

c8
gs 3079 839 1003 668 rc
  36   36 4008  912 FO
  36   36 3922 1037 FO
  36   36 3836 1081 FO
  36   36 3751 1152 FO
  36   36 3665 1210 FO
  36   36 3580 1250 FO
  36   36 3494 1271 FO
  36   36 3408 1367 FO
  36   36 3323 1394 FO
  36   36 3237 1424 FO
  36   36 3152 1433 FO
gr

gs 3152 440 857 1069 rc
DA
24 w
c9
856 0 3152 1305 2 MP stroke
6 w
0 sg
856 0 3152 807 2 MP stroke
SO
856 0 3152 720 2 MP stroke
gr

0 sg
3054  345 mt 
(\(c\) P1:1\(F\)+P1:5\(S\)) s
1 sg
0 1068 856 0 0 -1068 4278 1508 4 MP
PP
-856 0 0 1068 856 0 0 -1068 4278 1508 5 MP stroke
4 w
DO
SO
6 w
0 sg
4278 1508 mt 5134 1508 L
4278 1508 mt 4278  440 L
4278 1508 mt 4278 1497 L
4245 1653 mt 
(0) s
4706 1508 mt 4706 1497 L
4623 1653 mt 
(0.5) s
5134 1508 mt 5134 1497 L
5101 1653 mt 
(1) s
4278 1508 mt 4288 1508 L
4177 1552 mt 
(0) s
4278 1241 mt 4288 1241 L
4077 1285 mt 
(0.5) s
4278  974 mt 4288  974 L
4177 1018 mt 
(1) s
4278  707 mt 4288  707 L
4077  751 mt 
(1.5) s
4278  440 mt 4288  440 L
4177  484 mt 
(2) s
gs 4278 440 857 1069 rc
c8
-85 20 -86 25 -85 16 -86 29 -86 35 -85 46 -86 159 -85 33 
-86 28 -86 266 5134 799 11 MP stroke
gr

c8
gs 4205 726 1003 804 rc
  36   36 5134  799 FO
  36   36 5048 1065 FO
  36   36 4962 1093 FO
  36   36 4877 1126 FO
  36   36 4791 1285 FO
  36   36 4706 1331 FO
  36   36 4620 1366 FO
  36   36 4534 1395 FO
  36   36 4449 1411 FO
  36   36 4363 1436 FO
  36   36 4278 1456 FO
gr

gs 4278 440 857 1069 rc
DA
24 w
c9
856 0 4278 1257 2 MP stroke
6 w
0 sg
856 0 4278 637 2 MP stroke
SO
856 0 4278 920 2 MP stroke
gr

0 sg
4177  345 mt 
(\(d\) P1:2\(F\)+P1:3\(S\)) s
1 sg
0 1068 856 0 0 -1068 5405 1508 4 MP
PP
-856 0 0 1068 856 0 0 -1068 5405 1508 5 MP stroke
4 w
DO
SO
6 w
0 sg
5405 1508 mt 6261 1508 L
5405 1508 mt 5405  440 L
5405 1508 mt 5405 1497 L
5372 1653 mt 
(0) s
5833 1508 mt 5833 1497 L
5750 1653 mt 
(0.5) s
6261 1508 mt 6261 1497 L
6228 1653 mt 
(1) s
5405 1508 mt 5415 1508 L
5304 1552 mt 
(0) s
5405 1241 mt 5415 1241 L
5304 1285 mt 
(2) s
5405  974 mt 5415  974 L
5304 1018 mt 
(4) s
5405  707 mt 5415  707 L
5304  751 mt 
(6) s
5405  440 mt 5415  440 L
5304  484 mt 
(8) s
gs 5405 440 857 1069 rc
c8
-85 10 -86 10 -85 11 -86 -4 -86 14 -85 7 -86 10 -85 9 
-86 26 -86 6 6261 1318 11 MP stroke
gr

c8
gs 5332 1245 1003 246 rc
  36   36 6261 1318 FO
  36   36 6175 1324 FO
  36   36 6089 1350 FO
  36   36 6004 1359 FO
  36   36 5918 1369 FO
  36   36 5833 1376 FO
  36   36 5747 1390 FO
  36   36 5661 1386 FO
  36   36 5576 1397 FO
  36   36 5490 1407 FO
  36   36 5405 1417 FO
gr

gs 5405 440 857 1069 rc
DA
24 w
c9
856 0 5405 1375 2 MP stroke
6 w
0 sg
856 0 5405 1290 2 MP stroke
SO
856 0 5405 671 2 MP stroke
gr

0 sg
5304  345 mt 
(\(e\) P1:2\(F\)+P1:4\(S\)) s
1 sg
0 1069 856 0 0 -1069 899 3062 4 MP
PP
-856 0 0 1069 856 0 0 -1069 899 3062 5 MP stroke
4 w
DO
SO
6 w
0 sg
 899 3062 mt 1755 3062 L
 899 3062 mt  899 1993 L
 899 3062 mt  899 3051 L
 866 3207 mt 
(0) s
1327 3062 mt 1327 3051 L
1244 3207 mt 
(0.5) s
1755 3062 mt 1755 3051 L
1722 3207 mt 
(1) s
 899 3062 mt  909 3062 L
 798 3106 mt 
(0) s
 899 2705 mt  909 2705 L
 798 2749 mt 
(2) s
 899 2349 mt  909 2349 L
 798 2393 mt 
(4) s
 899 1993 mt  909 1993 L
 798 2037 mt 
(6) s
gs 899 1993 857 1070 rc
c8
-85 19 -86 11 -85 11 -86 5 -86 13 -85 24 -86 7 -85 37 
-86 11 -86 29 1755 2808 11 MP stroke
gr

c8
gs 826 2735 1003 314 rc
  36   36 1755 2808 FO
  36   36 1669 2837 FO
  36   36 1583 2848 FO
  36   36 1498 2885 FO
  36   36 1412 2892 FO
  36   36 1327 2916 FO
  36   36 1241 2929 FO
  36   36 1155 2934 FO
  36   36 1070 2945 FO
  36   36  984 2956 FO
  36   36  899 2975 FO
gr

gs 899 1993 857 1070 rc
DA
24 w
c9
856 0 899 2921 2 MP stroke
6 w
0 sg
856 0 899 2771 2 MP stroke
SO
856 0 899 2273 2 MP stroke
gr

0 sg
 814 1898 mt 
(\(f\) P1:2\(F\)+P1:5\(S\)) s
1 sg
0 1069 856 0 0 -1069 2026 3062 4 MP
PP
-856 0 0 1069 856 0 0 -1069 2026 3062 5 MP stroke
4 w
DO
SO
6 w
0 sg
2026 3062 mt 2882 3062 L
2026 3062 mt 2026 1993 L
2026 3062 mt 2026 3051 L
1993 3207 mt 
(0) s
2454 3062 mt 2454 3051 L
2371 3207 mt 
(0.5) s
2882 3062 mt 2882 3051 L
2849 3207 mt 
(1) s
2026 3062 mt 2036 3062 L
1925 3106 mt 
(0) s
2026 2794 mt 2036 2794 L
1925 2838 mt 
(1) s
2026 2527 mt 2036 2527 L
1925 2571 mt 
(2) s
2026 2260 mt 2036 2260 L
1925 2304 mt 
(3) s
2026 1993 mt 2036 1993 L
1925 2037 mt 
(4) s
gs 2026 1993 857 1070 rc
c8
-85 70 -86 45 -85 37 -86 34 -86 53 -85 55 -86 40 -85 34 
-86 43 -86 106 2882 2461 11 MP stroke
gr

c8
gs 1953 2388 1003 664 rc
  36   36 2882 2461 FO
  36   36 2796 2567 FO
  36   36 2710 2610 FO
  36   36 2625 2644 FO
  36   36 2539 2684 FO
  36   36 2454 2739 FO
  36   36 2368 2792 FO
  36   36 2282 2826 FO
  36   36 2197 2863 FO
  36   36 2111 2908 FO
  36   36 2026 2978 FO
gr

gs 2026 1993 857 1070 rc
DA
24 w
c9
856 0 2026 2929 2 MP stroke
6 w
0 sg
856 0 2026 2245 2 MP stroke
SO
856 0 2026 2767 2 MP stroke
gr

0 sg
1925 1898 mt 
(\(g\) P1:7\(F\)+P1:3\(S\)) s
1 sg
0 1069 856 0 0 -1069 3152 3062 4 MP
PP
-856 0 0 1069 856 0 0 -1069 3152 3062 5 MP stroke
4 w
DO
SO
6 w
0 sg
3152 3062 mt 4008 3062 L
3152 3062 mt 3152 1993 L
3152 3062 mt 3152 3051 L
3119 3207 mt 
(0) s
3580 3062 mt 3580 3051 L
3497 3207 mt 
(0.5) s
4008 3062 mt 4008 3051 L
3975 3207 mt 
(1) s
3152 3062 mt 3162 3062 L
3051 3106 mt 
(0) s
3152 2794 mt 3162 2794 L
3051 2838 mt 
(2) s
3152 2527 mt 3162 2527 L
3051 2571 mt 
(4) s
3152 2260 mt 3162 2260 L
3051 2304 mt 
(6) s
3152 1993 mt 3162 1993 L
3051 2037 mt 
(8) s
gs 3152 1993 857 1070 rc
c8
-85 31 -86 43 -85 11 -86 14 -86 2 -85 28 -86 39 -85 40 
-86 52 -86 40 4008 2666 11 MP stroke
gr

c8
gs 3079 2593 1003 447 rc
  36   36 4008 2666 FO
  36   36 3922 2706 FO
  36   36 3836 2758 FO
  36   36 3751 2798 FO
  36   36 3665 2837 FO
  36   36 3580 2865 FO
  36   36 3494 2867 FO
  36   36 3408 2881 FO
  36   36 3323 2892 FO
  36   36 3237 2935 FO
  36   36 3152 2966 FO
gr

gs 3152 1993 857 1070 rc
DA
24 w
c9
856 0 3152 2963 2 MP stroke
6 w
0 sg
856 0 3152 2653 2 MP stroke
SO
856 0 3152 2224 2 MP stroke
gr

0 sg
3051 1898 mt 
(\(h\) P1:7\(F\)+P1:4\(S\)) s
1 sg
0 1069 856 0 0 -1069 4278 3062 4 MP
PP
-856 0 0 1069 856 0 0 -1069 4278 3062 5 MP stroke
4 w
DO
SO
6 w
0 sg
4278 3062 mt 5134 3062 L
4278 3062 mt 4278 1993 L
4278 3062 mt 4278 3051 L
4245 3207 mt 
(0) s
4706 3062 mt 4706 3051 L
4623 3207 mt 
(0.5) s
5134 3062 mt 5134 3051 L
5101 3207 mt 
(1) s
4278 3062 mt 4288 3062 L
4177 3106 mt 
(0) s
4278 2705 mt 4288 2705 L
4177 2749 mt 
(2) s
4278 2349 mt 4288 2349 L
4177 2393 mt 
(4) s
4278 1993 mt 4288 1993 L
4177 2037 mt 
(6) s
gs 4278 1993 857 1070 rc
c8
-85 43 -86 19 -85 44 -86 51 -86 54 -85 33 -86 28 -85 48 
-86 30 -86 104 5134 2533 11 MP stroke
gr

c8
gs 4205 2460 1003 601 rc
  36   36 5134 2533 FO
  36   36 5048 2637 FO
  36   36 4962 2667 FO
  36   36 4877 2715 FO
  36   36 4791 2743 FO
  36   36 4706 2776 FO
  36   36 4620 2830 FO
  36   36 4534 2881 FO
  36   36 4449 2925 FO
  36   36 4363 2944 FO
  36   36 4278 2987 FO
gr

gs 4278 1993 857 1070 rc
DA
24 w
c9
856 0 4278 2908 2 MP stroke
6 w
0 sg
856 0 4278 2517 2 MP stroke
SO
856 0 4278 2273 2 MP stroke
gr

0 sg
4197 1898 mt 
(\(i\) P1:7\(F\)+P1:5\(S\)) s
1 sg
0 1069 856 0 0 -1069 5405 3062 4 MP
PP
-856 0 0 1069 856 0 0 -1069 5405 3062 5 MP stroke
4 w
DO
SO
6 w
0 sg
5405 3062 mt 6261 3062 L
5405 3062 mt 5405 1993 L
5405 3062 mt 5405 3051 L
5372 3207 mt 
(0) s
5833 3062 mt 5833 3051 L
5750 3207 mt 
(0.5) s
6261 3062 mt 6261 3051 L
6228 3207 mt 
(1) s
5405 3062 mt 5415 3062 L
5304 3106 mt 
(0) s
5405 2794 mt 5415 2794 L
5304 2838 mt 
(2) s
5405 2527 mt 5415 2527 L
5304 2571 mt 
(4) s
5405 2260 mt 5415 2260 L
5304 2304 mt 
(6) s
5405 1993 mt 5415 1993 L
5304 2037 mt 
(8) s
gs 5405 1993 857 1070 rc
c8
-85 55 -86 19 -85 54 -86 31 -86 14 -85 29 -86 39 -85 66 
-86 -5 -86 19 6261 2696 11 MP stroke
gr

c8
gs 5332 2623 1003 468 rc
  36   36 6261 2696 FO
  36   36 6175 2715 FO
  36   36 6089 2710 FO
  36   36 6004 2776 FO
  36   36 5918 2815 FO
  36   36 5833 2844 FO
  36   36 5747 2858 FO
  36   36 5661 2889 FO
  36   36 5576 2943 FO
  36   36 5490 2962 FO
  36   36 5405 3017 FO
gr

gs 5405 1993 857 1070 rc
DA
24 w
c9
856 0 5405 2995 2 MP stroke
6 w
0 sg
856 0 5405 2227 2 MP stroke
SO
856 0 5405 2914 2 MP stroke
gr

0 sg
5324 1898 mt 
(\(j\) P1:9\(F\)+P1:3\(S\)) s
1 sg
0 1069 856 0 0 -1069 899 4616 4 MP
PP
-856 0 0 1069 856 0 0 -1069 899 4616 5 MP stroke
4 w
DO
SO
6 w
0 sg
 899 4616 mt 1755 4616 L
 899 4616 mt  899 3547 L
 899 4616 mt  899 4605 L
 866 4761 mt 
(0) s
1327 4616 mt 1327 4605 L
1244 4761 mt 
(0.5) s
1755 4616 mt 1755 4605 L
1722 4761 mt 
(1) s
 899 4616 mt  909 4616 L
 798 4660 mt 
(2) s
 899 4259 mt  909 4259 L
 798 4303 mt 
(4) s
 899 3903 mt  909 3903 L
 798 3947 mt 
(6) s
 899 3547 mt  909 3547 L
 798 3591 mt 
(8) s
gs 899 3547 857 1070 rc
c8
-85 76 -86 84 -85 37 -86 47 -86 38 -85 62 -86 36 -85 87 
-86 77 -86 72 1755 3954 11 MP stroke
gr

c8
gs 826 3881 1003 763 rc
  36   36 1755 3954 FO
  36   36 1669 4026 FO
  36   36 1583 4103 FO
  36   36 1498 4190 FO
  36   36 1412 4226 FO
  36   36 1327 4288 FO
  36   36 1241 4326 FO
  36   36 1155 4373 FO
  36   36 1070 4410 FO
  36   36  984 4494 FO
  36   36  899 4570 FO
gr

gs 899 3547 857 1070 rc
DA
24 w
c9
856 0 899 4546 2 MP stroke
6 w
0 sg
856 0 899 3859 2 MP stroke
SO
856 0 899 3855 2 MP stroke
gr

0 sg
 801 3452 mt 
(\(k\) P1:9\(F\)+P1:4\(S\)) s
 922 4904 mt 
(Pruning rate \(r\)) s
 716 4299 mt  -90 rotate
(EER\(%\)) s
90 rotate
1 sg
0 1069 856 0 0 -1069 2026 4616 4 MP
PP
-856 0 0 1069 856 0 0 -1069 2026 4616 5 MP stroke
4 w
DO
SO
6 w
0 sg
2026 4616 mt 2882 4616 L
2026 4616 mt 2026 3547 L
2026 4616 mt 2026 4605 L
1993 4761 mt 
(0) s
2454 4616 mt 2454 4605 L
2371 4761 mt 
(0.5) s
2882 4616 mt 2882 4605 L
2849 4761 mt 
(1) s
2026 4616 mt 2036 4616 L
1925 4660 mt 
(0) s
2026 4348 mt 2036 4348 L
1925 4392 mt 
(2) s
2026 4081 mt 2036 4081 L
1925 4125 mt 
(4) s
2026 3814 mt 2036 3814 L
1925 3858 mt 
(6) s
2026 3547 mt 2036 3547 L
1925 3591 mt 
(8) s
gs 2026 3547 857 1070 rc
c8
-85 76 -86 59 -85 75 -86 43 -86 39 -85 22 -86 11 -85 70 
-86 65 -86 65 2882 3936 11 MP stroke
gr

c8
gs 1953 3863 1003 672 rc
  36   36 2882 3936 FO
  36   36 2796 4001 FO
  36   36 2710 4066 FO
  36   36 2625 4136 FO
  36   36 2539 4147 FO
  36   36 2454 4169 FO
  36   36 2368 4208 FO
  36   36 2282 4251 FO
  36   36 2197 4326 FO
  36   36 2111 4385 FO
  36   36 2026 4461 FO
gr

gs 2026 3547 857 1070 rc
DA
24 w
c9
856 0 2026 4394 2 MP stroke
6 w
0 sg
856 0 2026 3781 2 MP stroke
SO
856 0 2026 4024 2 MP stroke
gr

0 sg
1945 3452 mt 
(\(l\) P1:9\(F\)+P1:5\(S\)) s
1 sg
0 1069 856 0 0 -1069 3152 4616 4 MP
PP
-856 0 0 1069 856 0 0 -1069 3152 4616 5 MP stroke
4 w
DO
SO
6 w
0 sg
3152 4616 mt 4008 4616 L
3152 4616 mt 3152 3547 L
3152 4616 mt 3152 4605 L
3119 4761 mt 
(0) s
3580 4616 mt 3580 4605 L
3497 4761 mt 
(0.5) s
4008 4616 mt 4008 4605 L
3975 4761 mt 
(1) s
3152 4616 mt 3162 4616 L
3051 4660 mt 
(0) s
3152 4259 mt 3162 4259 L
2951 4303 mt 
(0.5) s
3152 3903 mt 3162 3903 L
3051 3947 mt 
(1) s
3152 3547 mt 3162 3547 L
2951 3591 mt 
(1.5) s
gs 3152 3547 857 1070 rc
c8
-85 20 -86 171 -85 42 -86 17 -86 16 -85 53 -86 45 -85 21 
-86 40 -86 59 4008 4130 11 MP stroke
gr

c8
gs 3079 4057 1003 631 rc
  36   36 4008 4130 FO
  36   36 3922 4189 FO
  36   36 3836 4229 FO
  36   36 3751 4250 FO
  36   36 3665 4295 FO
  36   36 3580 4348 FO
  36   36 3494 4364 FO
  36   36 3408 4381 FO
  36   36 3323 4423 FO
  36   36 3237 4594 FO
  36   36 3152 4614 FO
gr

gs 3152 3547 857 1070 rc
DA
24 w
c9
856 0 3152 4569 2 MP stroke
6 w
0 sg
856 0 3152 4239 2 MP stroke
SO
856 0 3152 3757 2 MP stroke
gr

0 sg
3034 3452 mt 
(\(m\) P2:1\(F\)+P2:2\(S\)) s
1 sg
0 1069 856 0 0 -1069 4278 4616 4 MP
PP
-856 0 0 1069 856 0 0 -1069 4278 4616 5 MP stroke
4 w
DO
SO
6 w
0 sg
4278 4616 mt 5134 4616 L
4278 4616 mt 4278 3547 L
4278 4616 mt 4278 4605 L
4245 4761 mt 
(0) s
4706 4616 mt 4706 4605 L
4623 4761 mt 
(0.5) s
5134 4616 mt 5134 4605 L
5101 4761 mt 
(1) s
4278 4616 mt 4288 4616 L
4177 4660 mt 
(0) s
4278 4259 mt 4288 4259 L
4177 4303 mt 
(2) s
4278 3903 mt 4288 3903 L
4177 3947 mt 
(4) s
4278 3547 mt 4288 3547 L
4177 3591 mt 
(6) s
gs 4278 3547 857 1070 rc
c8
-85 1 -86 21 -85 43 -86 3 -86 19 -85 6 -86 6 -85 7 
-86 7 -86 7 5134 4490 11 MP stroke
gr

c8
gs 4205 4417 1003 267 rc
  36   36 5134 4490 FO
  36   36 5048 4497 FO
  36   36 4962 4504 FO
  36   36 4877 4511 FO
  36   36 4791 4517 FO
  36   36 4706 4523 FO
  36   36 4620 4542 FO
  36   36 4534 4545 FO
  36   36 4449 4588 FO
  36   36 4363 4609 FO
  36   36 4278 4610 FO
gr

gs 4278 3547 857 1070 rc
DA
24 w
c9
856 0 4278 4604 2 MP stroke
6 w
0 sg
856 0 4278 4521 2 MP stroke
SO
856 0 4278 3707 2 MP stroke
gr

0 sg
4177 3452 mt 
(\(n\) P2:1\(F\)+P2:3\(S\)) s
1 sg
0 1069 856 0 0 -1069 5405 4616 4 MP
PP
-856 0 0 1069 856 0 0 -1069 5405 4616 5 MP stroke
4 w
DO
SO
6 w
0 sg
5405 4616 mt 6261 4616 L
5405 4616 mt 5405 3547 L
5405 4616 mt 5405 4605 L
5372 4761 mt 
(0) s
5833 4616 mt 5833 4605 L
5750 4761 mt 
(0.5) s
6261 4616 mt 6261 4605 L
6228 4761 mt 
(1) s
5405 4616 mt 5415 4616 L
5304 4660 mt 
(0) s
5405 4348 mt 5415 4348 L
5304 4392 mt 
(1) s
5405 4081 mt 5415 4081 L
5304 4125 mt 
(2) s
5405 3814 mt 5415 3814 L
5304 3858 mt 
(3) s
5405 3547 mt 5415 3547 L
5304 3591 mt 
(4) s
gs 5405 3547 857 1070 rc
c8
-85 2 -86 5 -85 4 -86 4 -86 45 -85 76 -86 11 -85 11 
-86 3 -86 24 6261 4427 11 MP stroke
gr

c8
gs 5332 4354 1003 332 rc
  36   36 6261 4427 FO
  36   36 6175 4451 FO
  36   36 6089 4454 FO
  36   36 6004 4465 FO
  36   36 5918 4476 FO
  36   36 5833 4552 FO
  36   36 5747 4597 FO
  36   36 5661 4601 FO
  36   36 5576 4605 FO
  36   36 5490 4610 FO
  36   36 5405 4612 FO
gr

gs 5405 3547 857 1070 rc
DA
24 w
c9
856 0 5405 4590 2 MP stroke
6 w
0 sg
856 0 5405 4474 2 MP stroke
SO
856 0 5405 3756 2 MP stroke
gr

0 sg
5304 3452 mt 
(\(o\) P2:1\(F\)+P2:4\(S\)) s
5388 4659 mt 
( ) s
6245 3589 mt 
( ) s
1 sg
0 714 1402 0 0 -714 5486 4226 4 MP
PP
-1402 0 0 714 1402 0 0 -714 5486 4226 5 MP stroke
4 w
DO
SO
6 w
0 sg
5486 3512 mt 6888 3512 L
5486 4226 mt 6888 4226 L
6888 4226 mt 6888 3512 L
5486 4226 mt 5486 3512 L
5486 4226 mt 6888 4226 L
5486 4226 mt 5486 3512 L
5486 3512 mt 6888 3512 L
5486 4226 mt 6888 4226 L
6888 4226 mt 6888 3512 L
5486 4226 mt 5486 3512 L
5969 3659 mt 
(Client-specific\(r\)) s
gs 5486 3512 1403 715 rc
c8
371 0 5560 3617 2 MP stroke
gs 5672 3544 147 147 rc
  36   36 5745 3617 FO
gr

gr

c8
0 sg
5969 3827 mt 
(Fusion) s
gs 5486 3512 1403 715 rc
DA
24 w
c9
371 0 5560 3785 2 MP stroke
SO
gr

24 w
c9
0 sg
5969 3996 mt 
(Face) s
gs 5486 3512 1403 715 rc
DA
6 w
371 0 5560 3953 2 MP stroke
SO
gr

6 w
5969 4164 mt 
(Speech) s
gs 5486 3512 1403 715 rc
371 0 5560 4121 2 MP stroke
gr


end %%Color Dict

eplot
%%EndObject

epage
end

showpage

%%Trailer
%%EOF
