%!PS-Adobe-3.0 EPSF-3.0
%%Creator: MATLAB, The Mathworks, Inc. Version 7.7.0.471 (R2008b). Operating System: Microsoft Windows XP.
%%Title: Pictures\main_zoo_mvar_analysis_data_BMI_xcorr_bmi_p1_k1_6_9.eps
%%CreationDate: 10/26/2009  05:44:10
%%DocumentNeededFonts: Helvetica
%%DocumentProcessColors: Cyan Magenta Yellow Black
%%LanguageLevel: 2
%%Pages: 1
%%BoundingBox:    21   180   546   616
%%EndComments

%%BeginProlog
% MathWorks dictionary
/MathWorks 160 dict begin
% definition operators
/bdef {bind def} bind def
/ldef {load def} bind def
/xdef {exch def} bdef
/xstore {exch store} bdef
% operator abbreviations
/c  /clip ldef
/cc /concat ldef
/cp /closepath ldef
/gr /grestore ldef
/gs /gsave ldef
/mt /moveto ldef
/np /newpath ldef
/cm /currentmatrix ldef
/sm /setmatrix ldef
/rm /rmoveto ldef
/rl /rlineto ldef
/s {show newpath} bdef
/sc {setcmykcolor} bdef
/sr /setrgbcolor ldef
/sg /setgray ldef
/w /setlinewidth ldef
/j /setlinejoin ldef
/cap /setlinecap ldef
/rc {rectclip} bdef
/rf {rectfill} bdef
% page state control
/pgsv () def
/bpage {/pgsv save def} bdef
/epage {pgsv restore} bdef
/bplot /gsave ldef
/eplot {stroke grestore} bdef
% orientation switch
/portraitMode 0 def /landscapeMode 1 def /rotateMode 2 def
% coordinate system mappings
/dpi2point 0 def
% font control
/FontSize 0 def
/FMS {/FontSize xstore findfont [FontSize 0 0 FontSize neg 0 0]
  makefont setfont} bdef
/ISOLatin1Encoding where {pop /WindowsLatin1Encoding 256 array bdef
ISOLatin1Encoding WindowsLatin1Encoding copy pop
/.notdef/.notdef/quotesinglbase/florin/quotedblbase/ellipsis/dagger
/daggerdbl/circumflex/perthousand/Scaron/guilsinglleft/OE/.notdef/.notdef
/.notdef/.notdef/quoteleft/quoteright/quotedblleft/quotedblright/bullet
/endash/emdash/tilde/trademark/scaron/guilsinglright/oe/.notdef/.notdef
/Ydieresis WindowsLatin1Encoding 128 32 getinterval astore pop}
{/WindowsLatin1Encoding StandardEncoding bdef} ifelse
/reencode {exch dup where {pop load} {pop StandardEncoding} ifelse
  exch dup 3 1 roll findfont dup length dict begin
  { 1 index /FID ne {def}{pop pop} ifelse } forall
  /Encoding exch def currentdict end definefont pop} bdef
/isroman {findfont /CharStrings get /Agrave known} bdef
/FMSR {3 1 roll 1 index dup isroman {reencode} {pop pop} ifelse
  exch FMS} bdef
/csm {1 dpi2point div -1 dpi2point div scale neg translate
 dup landscapeMode eq {pop -90 rotate}
  {rotateMode eq {90 rotate} if} ifelse} bdef
% line types: solid, dotted, dashed, dotdash
/SO { [] 0 setdash } bdef
/DO { [.5 dpi2point mul 4 dpi2point mul] 0 setdash } bdef
/DA { [6 dpi2point mul] 0 setdash } bdef
/DD { [.5 dpi2point mul 4 dpi2point mul 6 dpi2point mul 4
  dpi2point mul] 0 setdash } bdef
% macros for lines and objects
/L {lineto stroke} bdef
/MP {3 1 roll moveto 1 sub {rlineto} repeat} bdef
/AP {{rlineto} repeat} bdef
/PDlw -1 def
/W {/PDlw currentlinewidth def setlinewidth} def
/PP {closepath eofill} bdef
/DP {closepath stroke} bdef
/MR {4 -2 roll moveto dup  0 exch rlineto exch 0 rlineto
  neg 0 exch rlineto closepath} bdef
/FR {MR stroke} bdef
/PR {MR fill} bdef
/L1i {{currentfile picstr readhexstring pop} image} bdef
/tMatrix matrix def
/MakeOval {newpath tMatrix currentmatrix pop translate scale
0 0 1 0 360 arc tMatrix setmatrix} bdef
/FO {MakeOval stroke} bdef
/PO {MakeOval fill} bdef
/PD {currentlinewidth 2 div 0 360 arc fill
   PDlw -1 eq not {PDlw w /PDlw -1 def} if} def
/FA {newpath tMatrix currentmatrix pop translate scale
  0 0 1 5 -2 roll arc tMatrix setmatrix stroke} bdef
/PA {newpath tMatrix currentmatrix pop	translate 0 0 moveto scale
  0 0 1 5 -2 roll arc closepath tMatrix setmatrix fill} bdef
/FAn {newpath tMatrix currentmatrix pop translate scale
  0 0 1 5 -2 roll arcn tMatrix setmatrix stroke} bdef
/PAn {newpath tMatrix currentmatrix pop translate 0 0 moveto scale
  0 0 1 5 -2 roll arcn closepath tMatrix setmatrix fill} bdef
/vradius 0 def /hradius 0 def /lry 0 def
/lrx 0 def /uly 0 def /ulx 0 def /rad 0 def
/MRR {/vradius xdef /hradius xdef /lry xdef /lrx xdef /uly xdef
  /ulx xdef newpath tMatrix currentmatrix pop ulx hradius add uly
  vradius add translate hradius vradius scale 0 0 1 180 270 arc 
  tMatrix setmatrix lrx hradius sub uly vradius add translate
  hradius vradius scale 0 0 1 270 360 arc tMatrix setmatrix
  lrx hradius sub lry vradius sub translate hradius vradius scale
  0 0 1 0 90 arc tMatrix setmatrix ulx hradius add lry vradius sub
  translate hradius vradius scale 0 0 1 90 180 arc tMatrix setmatrix
  closepath} bdef
/FRR {MRR stroke } bdef
/PRR {MRR fill } bdef
/MlrRR {/lry xdef /lrx xdef /uly xdef /ulx xdef /rad lry uly sub 2 div def
  newpath tMatrix currentmatrix pop ulx rad add uly rad add translate
  rad rad scale 0 0 1 90 270 arc tMatrix setmatrix lrx rad sub lry rad
  sub translate rad rad scale 0 0 1 270 90 arc tMatrix setmatrix
  closepath} bdef
/FlrRR {MlrRR stroke } bdef
/PlrRR {MlrRR fill } bdef
/MtbRR {/lry xdef /lrx xdef /uly xdef /ulx xdef /rad lrx ulx sub 2 div def
  newpath tMatrix currentmatrix pop ulx rad add uly rad add translate
  rad rad scale 0 0 1 180 360 arc tMatrix setmatrix lrx rad sub lry rad
  sub translate rad rad scale 0 0 1 0 180 arc tMatrix setmatrix
  closepath} bdef
/FtbRR {MtbRR stroke } bdef
/PtbRR {MtbRR fill } bdef
/stri 6 array def /dtri 6 array def
/smat 6 array def /dmat 6 array def
/tmat1 6 array def /tmat2 6 array def /dif 3 array def
/asub {/ind2 exch def /ind1 exch def dup dup
  ind1 get exch ind2 get sub exch } bdef
/tri_to_matrix {
  2 0 asub 3 1 asub 4 0 asub 5 1 asub
  dup 0 get exch 1 get 7 -1 roll astore } bdef
/compute_transform {
  dmat dtri tri_to_matrix tmat1 invertmatrix 
  smat stri tri_to_matrix tmat2 concatmatrix } bdef
/ds {stri astore pop} bdef
/dt {dtri astore pop} bdef
/db {2 copy /cols xdef /rows xdef mul dup 3 mul string
  currentfile 
  3 index 0 eq {/ASCIIHexDecode filter}
  {/ASCII85Decode filter 3 index 2 eq {/RunLengthDecode filter} if }
  ifelse exch readstring pop
  dup 0 3 index getinterval /rbmap xdef
  dup 2 index dup getinterval /gbmap xdef
  1 index dup 2 mul exch getinterval /bbmap xdef pop pop}bdef
/it {gs np dtri aload pop moveto lineto lineto cp c
  cols rows 8 compute_transform 
  rbmap gbmap bbmap true 3 colorimage gr}bdef
/il {newpath moveto lineto stroke}bdef
currentdict end def
%%EndProlog

%%BeginSetup
MathWorks begin

0 cap

end
%%EndSetup

%%Page: 1 1
%%BeginPageSetup
%%PageBoundingBox:    21   180   546   616
MathWorks begin
bpage
%%EndPageSetup

%%BeginObject: obj1
bplot

/dpi2point 12 def
portraitMode 0216 7344 csm

   40   -48  6307  5231 rc
85 dict begin %Colortable dictionary
/c0 { 0.000000 0.000000 0.000000 sr} bdef
/c1 { 1.000000 1.000000 1.000000 sr} bdef
/c2 { 0.900000 0.000000 0.000000 sr} bdef
/c3 { 0.000000 0.820000 0.000000 sr} bdef
/c4 { 0.000000 0.000000 0.800000 sr} bdef
/c5 { 0.910000 0.820000 0.320000 sr} bdef
/c6 { 1.000000 0.260000 0.820000 sr} bdef
/c7 { 0.000000 0.820000 0.820000 sr} bdef
c0
1 j
1 sg
   0    0 6919 5187 rf
6 w
0 4202 5361 0 0 -4202 899 4616 4 MP
PP
-5361 0 0 4202 5361 0 0 -4202 899 4616 5 MP stroke
4 w
DO
SO
6 w
0 sg
 899  414 mt 6260  414 L
 899 4616 mt 6260 4616 L
6260 4616 mt 6260  414 L
 899 4616 mt  899  414 L
 899 4616 mt 6260 4616 L
 899 4616 mt  899  414 L
1699 4616 mt 1699 4562 L
1699  414 mt 1699  467 L
%%IncludeResource: font Helvetica
/Helvetica /WindowsLatin1Encoding 240 FMSR

1466 4873 mt 
(0.05) s
2500 4616 mt 2500 4562 L
2500  414 mt 2500  467 L
2334 4873 mt 
(0.1) s
3301 4616 mt 3301 4562 L
3301  414 mt 3301  467 L
3068 4873 mt 
(0.15) s
4102 4616 mt 4102 4562 L
4102  414 mt 4102  467 L
3936 4873 mt 
(0.2) s
4902 4616 mt 4902 4562 L
4902  414 mt 4902  467 L
4669 4873 mt 
(0.25) s
5703 4616 mt 5703 4562 L
5703  414 mt 5703  467 L
5537 4873 mt 
(0.3) s
 899 3934 mt  952 3934 L
6261 3934 mt 6207 3934 L
 397 4023 mt 
(0.05) s
 899 3253 mt  952 3253 L
6261 3253 mt 6207 3253 L
 531 3342 mt 
(0.1) s
 899 2572 mt  952 2572 L
6261 2572 mt 6207 2572 L
 397 2661 mt 
(0.15) s
 899 1891 mt  952 1891 L
6261 1891 mt 6207 1891 L
 531 1980 mt 
(0.2) s
 899 1209 mt  952 1209 L
6261 1209 mt 6207 1209 L
 397 1298 mt 
(0.25) s
 899  528 mt  952  528 L
6261  528 mt 6207  528 L
 531  617 mt 
(0.3) s
 899  414 mt 6260  414 L
 899 4616 mt 6260 4616 L
6260 4616 mt 6260  414 L
 899 4616 mt  899  414 L
gs 899 414 5363 4203 rc
gr

/c8 { 0.000000 0.000000 1.000000 sr} bdef
c8
 936 3194 mt 1008 3194 L
 972 3158 mt  972 3230 L
2338 4484 mt 2410 4484 L
2374 4448 mt 2374 4520 L
1490 4615 mt 1562 4615 L
1526 4579 mt 1526 4651 L
2507 4536 mt 2579 4536 L
2543 4500 mt 2543 4572 L
1526 3542 mt 1598 3542 L
1562 3506 mt 1562 3578 L
1347 4494 mt 1419 4494 L
1383 4458 mt 1383 4530 L
 940 4316 mt 1012 4316 L
 976 4280 mt  976 4352 L
1048 3896 mt 1120 3896 L
1084 3860 mt 1084 3932 L
1270 4160 mt 1342 4160 L
1306 4124 mt 1306 4196 L
1056 3785 mt 1128 3785 L
1092 3749 mt 1092 3821 L
6224 3233 mt 6296 3233 L
6260 3197 mt 6260 3269 L
1446 3995 mt 1518 3995 L
1482 3959 mt 1482 4031 L
1910 3987 mt 1982 3987 L
1946 3951 mt 1946 4023 L
1526 4088 mt 1598 4088 L
1562 4052 mt 1562 4124 L
 875 3719 mt  947 3719 L
 911 3683 mt  911 3755 L
3793 4130 mt 3865 4130 L
3829 4094 mt 3829 4166 L
2408 4590 mt 2480 4590 L
2444 4554 mt 2444 4626 L
 989 3930 mt 1061 3930 L
1025 3894 mt 1025 3966 L
1552 4358 mt 1624 4358 L
1588 4322 mt 1588 4394 L
2334 4609 mt 2406 4609 L
2370 4573 mt 2370 4645 L
1235 4572 mt 1307 4572 L
1271 4536 mt 1271 4608 L
 978 1537 mt 1050 1537 L
1014 1501 mt 1014 1573 L
3242 2348 mt 3314 2348 L
3278 2312 mt 3278 2384 L
1503  598 mt 1575  598 L
1539  562 mt 1539  634 L
1017 3722 mt 1089 3722 L
1053 3686 mt 1053 3758 L
 987 4583 mt 1059 4583 L
1023 4547 mt 1023 4619 L
1124 4348 mt 1196 4348 L
1160 4312 mt 1160 4384 L
 951 4266 mt 1023 4266 L
 987 4230 mt  987 4302 L
 943 4466 mt 1015 4466 L
 979 4430 mt  979 4502 L
 865 4601 mt  937 4601 L
 901 4565 mt  901 4637 L
1329 4612 mt 1401 4612 L
1365 4576 mt 1365 4648 L
2864 3800 mt 2936 3800 L
2900 3764 mt 2900 3836 L
2107 4609 mt 2179 4609 L
2143 4573 mt 2143 4645 L
1143 4406 mt 1215 4406 L
1179 4370 mt 1179 4442 L
1184 4565 mt 1256 4565 L
1220 4529 mt 1220 4601 L
2828 4507 mt 2900 4507 L
2864 4471 mt 2864 4543 L
1365 4408 mt 1437 4408 L
1401 4372 mt 1401 4444 L
2713 4400 mt 2785 4400 L
2749 4364 mt 2749 4436 L
4181 3603 mt 4253 3603 L
4217 3567 mt 4217 3639 L
1544 4615 mt 1616 4615 L
1580 4579 mt 1580 4651 L
1278 4592 mt 1350 4592 L
1314 4556 mt 1314 4628 L
4082 4143 mt 4154 4143 L
4118 4107 mt 4118 4179 L
2292 4611 mt 2364 4611 L
2328 4575 mt 2328 4647 L
1178 1497 mt 1250 1497 L
1214 1461 mt 1214 1533 L
1795 4572 mt 1867 4572 L
1831 4536 mt 1831 4608 L
1441 4559 mt 1513 4559 L
1477 4523 mt 1477 4595 L
 869 4166 mt  941 4166 L
 905 4130 mt  905 4202 L
 863 4600 mt  935 4600 L
 899 4564 mt  899 4636 L
1904 4568 mt 1976 4568 L
1940 4532 mt 1940 4604 L
2405 4479 mt 2477 4479 L
2441 4443 mt 2441 4515 L
 886 2008 mt  958 2008 L
 922 1972 mt  922 2044 L
1774 3888 mt 1846 3888 L
1810 3852 mt 1810 3924 L
3479 3099 mt 3551 3099 L
3515 3063 mt 3515 3135 L
3010 4439 mt 3082 4439 L
3046 4403 mt 3046 4475 L
 956 2910 mt 1028 2910 L
 992 2874 mt  992 2946 L
1496 4256 mt 1568 4256 L
1532 4220 mt 1532 4292 L
3009 3647 mt 3081 3647 L
3045 3611 mt 3045 3683 L
1582 3761 mt 1654 3761 L
1618 3725 mt 1618 3797 L
2312 4384 mt 2384 4384 L
2348 4348 mt 2348 4420 L
1306 4612 mt 1378 4612 L
1342 4576 mt 1342 4648 L
 863 3277 mt  935 3277 L
 899 3241 mt  899 3313 L
 865 4542 mt  937 4542 L
 901 4506 mt  901 4578 L
 887 3896 mt  959 3896 L
 923 3860 mt  923 3932 L
1035 4485 mt 1107 4485 L
1071 4449 mt 1071 4521 L
2071 4504 mt 2143 4504 L
2107 4468 mt 2107 4540 L
1375 4027 mt 1447 4027 L
1411 3991 mt 1411 4063 L
 870 4611 mt  942 4611 L
 906 4575 mt  906 4647 L
2174 4615 mt 2246 4615 L
2210 4579 mt 2210 4651 L
1020 4063 mt 1092 4063 L
1056 4027 mt 1056 4099 L
 917 4392 mt  989 4392 L
 953 4356 mt  953 4428 L
1732 4612 mt 1804 4612 L
1768 4576 mt 1768 4648 L
1367 4502 mt 1439 4502 L
1403 4466 mt 1403 4538 L
1014 3852 mt 1086 3852 L
1050 3816 mt 1050 3888 L
1263 4198 mt 1335 4198 L
1299 4162 mt 1299 4234 L
1479 2721 mt 1551 2721 L
1515 2685 mt 1515 2757 L
1954 4615 mt 2026 4615 L
1990 4579 mt 1990 4651 L
2154 4125 mt 2226 4125 L
2190 4089 mt 2190 4161 L
1129 4601 mt 1201 4601 L
1165 4565 mt 1165 4637 L
2355 4065 mt 2427 4065 L
2391 4029 mt 2391 4101 L
1106 4041 mt 1178 4041 L
1142 4005 mt 1142 4077 L
2804 3194 mt 2876 3194 L
2840 3158 mt 2840 3230 L
1507 4454 mt 1579 4454 L
1543 4418 mt 1543 4490 L
2526 4574 mt 2598 4574 L
2562 4538 mt 2562 4610 L
2194 4600 mt 2266 4600 L
2230 4564 mt 2230 4636 L
 870 4589 mt  942 4589 L
 906 4553 mt  906 4625 L
 867 3830 mt  939 3830 L
 903 3794 mt  903 3866 L
3920  671 mt 3992  671 L
3956  635 mt 3956  707 L
 924 4153 mt  996 4153 L
 960 4117 mt  960 4189 L
1111 4601 mt 1183 4601 L
1147 4565 mt 1147 4637 L
 991 3545 mt 1063 3545 L
1027 3509 mt 1027 3581 L
1653 4606 mt 1725 4606 L
1689 4570 mt 1689 4642 L
 965 2150 mt 1037 2150 L
1001 2114 mt 1001 2186 L
2032 4000 mt 2104 4000 L
2068 3964 mt 2068 4036 L
3664 4465 mt 3736 4465 L
3700 4429 mt 3700 4501 L
1256 4374 mt 1328 4374 L
1292 4338 mt 1292 4410 L
1255 4490 mt 1327 4490 L
1291 4454 mt 1291 4526 L
1838 4562 mt 1910 4562 L
1874 4526 mt 1874 4598 L
3715 4606 mt 3787 4606 L
3751 4570 mt 3751 4642 L
 863 4562 mt  935 4562 L
 899 4526 mt  899 4598 L
 866 3602 mt  938 3602 L
 902 3566 mt  902 3638 L
2785 4037 mt 2857 4037 L
2821 4001 mt 2821 4073 L
2452 3028 mt 2524 3028 L
2488 2992 mt 2488 3064 L
1345 2356 mt 1417 2356 L
1381 2320 mt 1381 2392 L
 884 4321 mt  956 4321 L
 920 4285 mt  920 4357 L
 963 3829 mt 1035 3829 L
 999 3793 mt  999 3865 L
 961 4040 mt 1033 4040 L
 997 4004 mt  997 4076 L
1020 4522 mt 1092 4522 L
1056 4486 mt 1056 4558 L
4700 4239 mt 4772 4239 L
4736 4203 mt 4736 4275 L
 864 3641 mt  936 3641 L
 900 3605 mt  900 3677 L
2853 4613 mt 2925 4613 L
2889 4577 mt 2889 4649 L
3333 4459 mt 3405 4459 L
3369 4423 mt 3369 4495 L
1265 4549 mt 1337 4549 L
1301 4513 mt 1301 4585 L
1024 4142 mt 1096 4142 L
1060 4106 mt 1060 4178 L
1057 3913 mt 1129 3913 L
1093 3877 mt 1093 3949 L
1409 3328 mt 1481 3328 L
1445 3292 mt 1445 3364 L
1386 2068 mt 1458 2068 L
1422 2032 mt 1422 2104 L
3908 4537 mt 3980 4537 L
3944 4501 mt 3944 4573 L
 897 4500 mt  969 4500 L
 933 4464 mt  933 4536 L
1449 4542 mt 1521 4542 L
1485 4506 mt 1485 4578 L
2247 3762 mt 2319 3762 L
2283 3726 mt 2283 3798 L
 962 4486 mt 1034 4486 L
 998 4450 mt  998 4522 L
 880 1892 mt  952 1892 L
 916 1856 mt  916 1928 L
3102 4510 mt 3174 4510 L
3138 4474 mt 3138 4546 L
2647 3481 mt 2719 3481 L
2683 3445 mt 2683 3517 L
3193 4087 mt 3265 4087 L
3229 4051 mt 3229 4123 L
 952 3894 mt 1024 3894 L
 988 3858 mt  988 3930 L
1062 4591 mt 1134 4591 L
1098 4555 mt 1098 4627 L
2459 3990 mt 2531 3990 L
2495 3954 mt 2495 4026 L
1184 4404 mt 1256 4404 L
1220 4368 mt 1220 4440 L
1552 2611 mt 1624 2611 L
1588 2575 mt 1588 2647 L
1143 3732 mt 1215 3732 L
1179 3696 mt 1179 3768 L
1479 3242 mt 1551 3242 L
1515 3206 mt 1515 3278 L
2523 3854 mt 2595 3854 L
2559 3818 mt 2559 3890 L
1502 3809 mt 1574 3809 L
1538 3773 mt 1538 3845 L
 892 4502 mt  964 4502 L
 928 4466 mt  928 4538 L
1345 4419 mt 1417 4419 L
1381 4383 mt 1381 4455 L
 873 4498 mt  945 4498 L
 909 4462 mt  909 4534 L
1045 4568 mt 1117 4568 L
1081 4532 mt 1081 4604 L
3588 4270 mt 3660 4270 L
3624 4234 mt 3624 4306 L
2639 4218 mt 2711 4218 L
2675 4182 mt 2675 4254 L
 996 4372 mt 1068 4372 L
1032 4336 mt 1032 4408 L
1479 4004 mt 1551 4004 L
1515 3968 mt 1515 4040 L
 968 4170 mt 1040 4170 L
1004 4134 mt 1004 4206 L
1189 3905 mt 1261 3905 L
1225 3869 mt 1225 3941 L
1469 4211 mt 1541 4211 L
1505 4175 mt 1505 4247 L
1978 4535 mt 2050 4535 L
2014 4499 mt 2014 4571 L
 932 3751 mt 1004 3751 L
 968 3715 mt  968 3787 L
 868 2202 mt  940 2202 L
 904 2166 mt  904 2238 L
1010 4139 mt 1082 4139 L
1046 4103 mt 1046 4175 L
2555 4452 mt 2627 4452 L
2591 4416 mt 2591 4488 L
2024 3773 mt 2096 3773 L
2060 3737 mt 2060 3809 L
 989 4278 mt 1061 4278 L
1025 4242 mt 1025 4314 L
2425 4615 mt 2497 4615 L
2461 4579 mt 2461 4651 L
1906 3475 mt 1978 3475 L
1942 3439 mt 1942 3511 L
1048 4462 mt 1120 4462 L
1084 4426 mt 1084 4498 L
 937 4484 mt 1009 4484 L
 973 4448 mt  973 4520 L
1002 4606 mt 1074 4606 L
1038 4570 mt 1038 4642 L
1231 3826 mt 1303 3826 L
1267 3790 mt 1267 3862 L
4078 3268 mt 4150 3268 L
4114 3232 mt 4114 3304 L
1226 3797 mt 1298 3797 L
1262 3761 mt 1262 3833 L
1284 4604 mt 1356 4604 L
1320 4568 mt 1320 4640 L
1017 4310 mt 1089 4310 L
1053 4274 mt 1053 4346 L
1112 2031 mt 1184 2031 L
1148 1995 mt 1148 2067 L
1631 4588 mt 1703 4588 L
1667 4552 mt 1667 4624 L
 925 3816 mt  997 3816 L
 961 3780 mt  961 3852 L
1052 4586 mt 1124 4586 L
1088 4550 mt 1088 4622 L
 887 4456 mt  959 4456 L
 923 4420 mt  923 4492 L
1248 3425 mt 1320 3425 L
1284 3389 mt 1284 3461 L
 915 3305 mt  987 3305 L
 951 3269 mt  951 3341 L
1076 4498 mt 1148 4498 L
1112 4462 mt 1112 4534 L
1357 1973 mt 1429 1973 L
1393 1937 mt 1393 2009 L
1151 3599 mt 1223 3599 L
1187 3563 mt 1187 3635 L
1679 4579 mt 1751 4579 L
1715 4543 mt 1715 4615 L
 867 4128 mt  939 4128 L
 903 4092 mt  903 4164 L
1226 3911 mt 1298 3911 L
1262 3875 mt 1262 3947 L
1566 3998 mt 1638 3998 L
1602 3962 mt 1602 4034 L
2503 4264 mt 2575 4264 L
2539 4228 mt 2539 4300 L
 873 4611 mt  945 4611 L
 909 4575 mt  909 4647 L
1078 4427 mt 1150 4427 L
1114 4391 mt 1114 4463 L
 897 4472 mt  969 4472 L
 933 4436 mt  933 4508 L
 892 3298 mt  964 3298 L
 928 3262 mt  928 3334 L
3153 4613 mt 3225 4613 L
3189 4577 mt 3189 4649 L
 993  813 mt 1065  813 L
1029  777 mt 1029  849 L
3146 4336 mt 3218 4336 L
3182 4300 mt 3182 4372 L
1584 4349 mt 1656 4349 L
1620 4313 mt 1620 4385 L
 906 4387 mt  978 4387 L
 942 4351 mt  942 4423 L
 886 2808 mt  958 2808 L
 922 2772 mt  922 2844 L
 864 4507 mt  936 4507 L
 900 4471 mt  900 4543 L
2005 4610 mt 2077 4610 L
2041 4574 mt 2041 4646 L
 863 2103 mt  935 2103 L
 899 2067 mt  899 2139 L
 878 4138 mt  950 4138 L
 914 4102 mt  914 4174 L
1739  414 mt 1811  414 L
1775  378 mt 1775  450 L
1064 4556 mt 1136 4556 L
1100 4520 mt 1100 4592 L
1540 3262 mt 1612 3262 L
1576 3226 mt 1576 3298 L
3672 3641 mt 3744 3641 L
3708 3605 mt 3708 3677 L
 967 4196 mt 1039 4196 L
1003 4160 mt 1003 4232 L
1692 2991 mt 1764 2991 L
1728 2955 mt 1728 3027 L
 952 3588 mt 1024 3588 L
 988 3552 mt  988 3624 L
 885 4094 mt  957 4094 L
 921 4058 mt  921 4130 L
1277 3826 mt 1349 3826 L
1313 3790 mt 1313 3862 L
1025 3159 mt 1097 3159 L
1061 3123 mt 1061 3195 L
 863 2927 mt  935 2927 L
 899 2891 mt  899 2963 L
 868 4406 mt  940 4406 L
 904 4370 mt  904 4442 L
3065 4172 mt 3137 4172 L
3101 4136 mt 3101 4208 L
1280 4204 mt 1352 4204 L
1316 4168 mt 1316 4240 L
2292 4168 mt 2364 4168 L
2328 4132 mt 2328 4204 L
1427 4406 mt 1499 4406 L
1463 4370 mt 1463 4442 L
1080 4614 mt 1152 4614 L
1116 4578 mt 1116 4650 L
1174 4054 mt 1246 4054 L
1210 4018 mt 1210 4090 L
 901 4301 mt  973 4301 L
 937 4265 mt  937 4337 L
1547 4008 mt 1619 4008 L
1583 3972 mt 1583 4044 L
1328 4558 mt 1400 4558 L
1364 4522 mt 1364 4594 L
1172 4308 mt 1244 4308 L
1208 4272 mt 1208 4344 L
 869 2166 mt  941 2166 L
 905 2130 mt  905 2202 L
 864 3349 mt  936 3349 L
 900 3313 mt  900 3385 L
2906 3254 mt 2978 3254 L
2942 3218 mt 2942 3290 L
1168 4613 mt 1240 4613 L
1204 4577 mt 1204 4649 L
1217 4295 mt 1289 4295 L
1253 4259 mt 1253 4331 L
2080 4609 mt 2152 4609 L
2116 4573 mt 2116 4645 L
2409 4389 mt 2481 4389 L
2445 4353 mt 2445 4425 L
 863 4572 mt  935 4572 L
 899 4536 mt  899 4608 L
1297  623 mt 1369  623 L
1333  587 mt 1333  659 L
2332 3570 mt 2404 3570 L
2368 3534 mt 2368 3606 L
1199 1512 mt 1271 1512 L
1235 1476 mt 1235 1548 L
1283 4125 mt 1355 4125 L
1319 4089 mt 1319 4161 L
1067 4615 mt 1139 4615 L
1103 4579 mt 1103 4651 L
1380 4372 mt 1452 4372 L
1416 4336 mt 1416 4408 L
1081 4530 mt 1153 4530 L
1117 4494 mt 1117 4566 L
1346 4030 mt 1418 4030 L
1382 3994 mt 1382 4066 L
 913 3984 mt  985 3984 L
 949 3948 mt  949 4020 L
1724 3523 mt 1796 3523 L
1760 3487 mt 1760 3559 L
2522 4421 mt 2594 4421 L
2558 4385 mt 2558 4457 L
3220 4593 mt 3292 4593 L
3256 4557 mt 3256 4629 L
 953 4607 mt 1025 4607 L
 989 4571 mt  989 4643 L
 960 4449 mt 1032 4449 L
 996 4413 mt  996 4485 L
3180 4478 mt 3252 4478 L
3216 4442 mt 3216 4514 L
1156 4592 mt 1228 4592 L
1192 4556 mt 1192 4628 L
1329 2473 mt 1401 2473 L
1365 2437 mt 1365 2509 L
2850 3140 mt 2922 3140 L
2886 3104 mt 2886 3176 L
 923 4568 mt  995 4568 L
 959 4532 mt  959 4604 L
2091 4567 mt 2163 4567 L
2127 4531 mt 2127 4603 L
3165 4607 mt 3237 4607 L
3201 4571 mt 3201 4643 L
1036 4602 mt 1108 4602 L
1072 4566 mt 1072 4638 L
 971 2701 mt 1043 2701 L
1007 2665 mt 1007 2737 L
3190 4216 mt 3262 4216 L
3226 4180 mt 3226 4252 L
1791 4567 mt 1863 4567 L
1827 4531 mt 1827 4603 L
1180 3559 mt 1252 3559 L
1216 3523 mt 1216 3595 L
1093 4403 mt 1165 4403 L
1129 4367 mt 1129 4439 L
1006 4517 mt 1078 4517 L
1042 4481 mt 1042 4553 L
1173 4588 mt 1245 4588 L
1209 4552 mt 1209 4624 L
 980 3226 mt 1052 3226 L
1016 3190 mt 1016 3262 L
1562 3941 mt 1634 3941 L
1598 3905 mt 1598 3977 L
3445 3007 mt 3517 3007 L
3481 2971 mt 3481 3043 L
1478 4505 mt 1550 4505 L
1514 4469 mt 1514 4541 L
1013 3220 mt 1085 3220 L
1049 3184 mt 1049 3256 L
1584 4173 mt 1656 4173 L
1620 4137 mt 1620 4209 L
 979 4295 mt 1051 4295 L
1015 4259 mt 1015 4331 L
1307 4179 mt 1379 4179 L
1343 4143 mt 1343 4215 L
1939 3265 mt 2011 3265 L
1975 3229 mt 1975 3301 L
1275 4402 mt 1347 4402 L
1311 4366 mt 1311 4438 L
1917 3152 mt 1989 3152 L
1953 3116 mt 1953 3188 L
 863 4576 mt  935 4576 L
 899 4540 mt  899 4612 L
 863 4412 mt  935 4412 L
 899 4376 mt  899 4448 L
1289 4416 mt 1361 4416 L
1325 4380 mt 1325 4452 L
 890 4545 mt  962 4545 L
 926 4509 mt  926 4581 L
1505 3490 mt 1577 3490 L
1541 3454 mt 1541 3526 L
 866 4562 mt  938 4562 L
 902 4526 mt  902 4598 L
1016 4254 mt 1088 4254 L
1052 4218 mt 1052 4290 L
1004 4486 mt 1076 4486 L
1040 4450 mt 1040 4522 L
 914 4455 mt  986 4455 L
 950 4419 mt  950 4491 L
1277 4427 mt 1349 4427 L
1313 4391 mt 1313 4463 L
 865 4605 mt  937 4605 L
 901 4569 mt  901 4641 L
1080 4481 mt 1152 4481 L
1116 4445 mt 1116 4517 L
1228 4580 mt 1300 4580 L
1264 4544 mt 1264 4616 L
1295 3547 mt 1367 3547 L
1331 3511 mt 1331 3583 L
1911 4588 mt 1983 4588 L
1947 4552 mt 1947 4624 L
2629 3380 mt 2701 3380 L
2665 3344 mt 2665 3416 L
 902 4395 mt  974 4395 L
 938 4359 mt  938 4431 L
1209 4576 mt 1281 4576 L
1245 4540 mt 1245 4612 L
 879 4156 mt  951 4156 L
 915 4120 mt  915 4192 L
6090 3302 mt 6162 3302 L
6126 3266 mt 6126 3338 L
1073 4365 mt 1145 4365 L
1109 4329 mt 1109 4401 L
2568 3682 mt 2640 3682 L
2604 3646 mt 2604 3718 L
1123 4250 mt 1195 4250 L
1159 4214 mt 1159 4286 L
 944 3922 mt 1016 3922 L
 980 3886 mt  980 3958 L
 899 4512 mt  971 4512 L
 935 4476 mt  935 4548 L
3351 1965 mt 3423 1965 L
3387 1929 mt 3387 2001 L
 937 3993 mt 1009 3993 L
 973 3957 mt  973 4029 L
1009 4398 mt 1081 4398 L
1045 4362 mt 1045 4434 L
 871 4527 mt  943 4527 L
 907 4491 mt  907 4563 L
 888 4026 mt  960 4026 L
 924 3990 mt  924 4062 L
1043 3578 mt 1115 3578 L
1079 3542 mt 1079 3614 L
1428 4376 mt 1500 4376 L
1464 4340 mt 1464 4412 L
2072 3494 mt 2144 3494 L
2108 3458 mt 2108 3530 L
1163 4605 mt 1235 4605 L
1199 4569 mt 1199 4641 L
1449 4594 mt 1521 4594 L
1485 4558 mt 1485 4630 L
1131 4303 mt 1203 4303 L
1167 4267 mt 1167 4339 L
1232 4150 mt 1304 4150 L
1268 4114 mt 1268 4186 L
 899 4542 mt  971 4542 L
 935 4506 mt  935 4578 L
 880 2674 mt  952 2674 L
 916 2638 mt  916 2710 L
1283 4170 mt 1355 4170 L
1319 4134 mt 1319 4206 L
 868 3748 mt  940 3748 L
 904 3712 mt  904 3784 L
2112  940 mt 2184  940 L
2148  904 mt 2148  976 L
 881 4601 mt  953 4601 L
 917 4565 mt  917 4637 L
 997 4147 mt 1069 4147 L
1033 4111 mt 1033 4183 L
 923 3769 mt  995 3769 L
 959 3733 mt  959 3805 L
1421 4578 mt 1493 4578 L
1457 4542 mt 1457 4614 L
3050 3928 mt 3122 3928 L
3086 3892 mt 3086 3964 L
1571 3777 mt 1643 3777 L
1607 3741 mt 1607 3813 L
1703 4575 mt 1775 4575 L
1739 4539 mt 1739 4611 L
3484 4402 mt 3556 4402 L
3520 4366 mt 3520 4438 L
 941 4517 mt 1013 4517 L
 977 4481 mt  977 4553 L
1144 4164 mt 1216 4164 L
1180 4128 mt 1180 4200 L
 880 4489 mt  952 4489 L
 916 4453 mt  916 4525 L
 875 3855 mt  947 3855 L
 911 3819 mt  911 3891 L
1495 2099 mt 1567 2099 L
1531 2063 mt 1531 2135 L
 925 4579 mt  997 4579 L
 961 4543 mt  961 4615 L
2135 3656 mt 2207 3656 L
2171 3620 mt 2171 3692 L
1050 4570 mt 1122 4570 L
1086 4534 mt 1086 4606 L
1803 3457 mt 1875 3457 L
1839 3421 mt 1839 3493 L
1138 4544 mt 1210 4544 L
1174 4508 mt 1174 4580 L
1329 2968 mt 1401 2968 L
1365 2932 mt 1365 3004 L
2845 4609 mt 2917 4609 L
2881 4573 mt 2881 4645 L
1280 3231 mt 1352 3231 L
1316 3195 mt 1316 3267 L
1208 4587 mt 1280 4587 L
1244 4551 mt 1244 4623 L
1075 4551 mt 1147 4551 L
1111 4515 mt 1111 4587 L
 946 3971 mt 1018 3971 L
 982 3935 mt  982 4007 L
2134 3008 mt 2206 3008 L
2170 2972 mt 2170 3044 L
 901 4534 mt  973 4534 L
 937 4498 mt  937 4570 L
1146 4020 mt 1218 4020 L
1182 3984 mt 1182 4056 L
 869 4310 mt  941 4310 L
 905 4274 mt  905 4346 L
1205 3224 mt 1277 3224 L
1241 3188 mt 1241 3260 L
2746 4209 mt 2818 4209 L
2782 4173 mt 2782 4245 L
1934 3830 mt 2006 3830 L
1970 3794 mt 1970 3866 L
1311 4583 mt 1383 4583 L
1347 4547 mt 1347 4619 L
1244 4615 mt 1316 4615 L
1280 4579 mt 1280 4651 L
1161 4594 mt 1233 4594 L
1197 4558 mt 1197 4630 L
1187 4542 mt 1259 4542 L
1223 4506 mt 1223 4578 L
3958 4340 mt 4030 4340 L
3994 4304 mt 3994 4376 L
 863 4536 mt  935 4536 L
 899 4500 mt  899 4572 L
1447 4603 mt 1519 4603 L
1483 4567 mt 1483 4639 L
 964 4431 mt 1036 4431 L
1000 4395 mt 1000 4467 L
 956 4250 mt 1028 4250 L
 992 4214 mt  992 4286 L
 951 3911 mt 1023 3911 L
 987 3875 mt  987 3947 L
 872 4614 mt  944 4614 L
 908 4578 mt  908 4650 L
1028 4489 mt 1100 4489 L
1064 4453 mt 1064 4525 L
 863 3854 mt  935 3854 L
 899 3818 mt  899 3890 L
 919 3607 mt  991 3607 L
 955 3571 mt  955 3643 L
 890 2409 mt  962 2409 L
 926 2373 mt  926 2445 L
3903 4507 mt 3975 4507 L
3939 4471 mt 3939 4543 L
2049 3776 mt 2121 3776 L
2085 3740 mt 2085 3812 L
2132 4604 mt 2204 4604 L
2168 4568 mt 2168 4640 L
2140 4030 mt 2212 4030 L
2176 3994 mt 2176 4066 L
1390 4360 mt 1462 4360 L
1426 4324 mt 1426 4396 L
1601 4257 mt 1673 4257 L
1637 4221 mt 1637 4293 L
 933 4493 mt 1005 4493 L
 969 4457 mt  969 4529 L
 954 4255 mt 1026 4255 L
 990 4219 mt  990 4291 L
1433 4596 mt 1505 4596 L
1469 4560 mt 1469 4632 L
1300 3908 mt 1372 3908 L
1336 3872 mt 1336 3944 L
 899 4116 mt  971 4116 L
 935 4080 mt  935 4152 L
 932 4615 mt 1004 4615 L
 968 4579 mt  968 4651 L
1664 4607 mt 1736 4607 L
1700 4571 mt 1700 4643 L
1086 3544 mt 1158 3544 L
1122 3508 mt 1122 3580 L
 885 3893 mt  957 3893 L
 921 3857 mt  921 3929 L
2581 4523 mt 2653 4523 L
2617 4487 mt 2617 4559 L
1937 4582 mt 2009 4582 L
1973 4546 mt 1973 4618 L
 889 4418 mt  961 4418 L
 925 4382 mt  925 4454 L
2320 4039 mt 2392 4039 L
2356 4003 mt 2356 4075 L
1372 3783 mt 1444 3783 L
1408 3747 mt 1408 3819 L
1601 4399 mt 1673 4399 L
1637 4363 mt 1637 4435 L
1130 2637 mt 1202 2637 L
1166 2601 mt 1166 2673 L
1691 4572 mt 1763 4572 L
1727 4536 mt 1727 4608 L
 874 4486 mt  946 4486 L
 910 4450 mt  910 4522 L
 919 4444 mt  991 4444 L
 955 4408 mt  955 4480 L
1134 2652 mt 1206 2652 L
1170 2616 mt 1170 2688 L
2481 4605 mt 2553 4605 L
2517 4569 mt 2517 4641 L
1339 3076 mt 1411 3076 L
1375 3040 mt 1375 3112 L
1267 4451 mt 1339 4451 L
1303 4415 mt 1303 4487 L
 944 4613 mt 1016 4613 L
 980 4577 mt  980 4649 L
 864 4588 mt  936 4588 L
 900 4552 mt  900 4624 L
1387 4483 mt 1459 4483 L
1423 4447 mt 1423 4519 L
2385 4186 mt 2457 4186 L
2421 4150 mt 2421 4222 L
 996 1841 mt 1068 1841 L
1032 1805 mt 1032 1877 L
1925 3558 mt 1997 3558 L
1961 3522 mt 1961 3594 L
1518 4608 mt 1590 4608 L
1554 4572 mt 1554 4644 L
1226 4519 mt 1298 4519 L
1262 4483 mt 1262 4555 L
1102 3923 mt 1174 3923 L
1138 3887 mt 1138 3959 L
1255 4603 mt 1327 4603 L
1291 4567 mt 1291 4639 L
 915 4577 mt  987 4577 L
 951 4541 mt  951 4613 L
 868 2646 mt  940 2646 L
 904 2610 mt  904 2682 L
1562 4355 mt 1634 4355 L
1598 4319 mt 1598 4391 L
1048 2257 mt 1120 2257 L
1084 2221 mt 1084 2293 L
 916 4616 mt  988 4616 L
 952 4580 mt  952 4652 L
 871 3076 mt  943 3076 L
 907 3040 mt  907 3112 L
1017 4163 mt 1089 4163 L
1053 4127 mt 1053 4199 L
1127 4196 mt 1199 4196 L
1163 4160 mt 1163 4232 L
1247 3538 mt 1319 3538 L
1283 3502 mt 1283 3574 L
1089 4437 mt 1161 4437 L
1125 4401 mt 1125 4473 L
1275 4341 mt 1347 4341 L
1311 4305 mt 1311 4377 L
1282 4344 mt 1354 4344 L
1318 4308 mt 1318 4380 L
gs 899 414 5363 4203 rc
gr

0 sg
2795 5104 mt 
(\(F,DCTb,iMLP\)) s
 288 3277 mt  -90 rotate
(\(S,SSC,GMM\)) s
90 rotate
2975  223 mt 
(Corr = 0.01) s

end %%Color Dict

eplot
%%EndObject

epage
end

showpage

%%Trailer
%%EOF
