%!PS-Adobe-3.0 EPSF-3.0
%%Creator: MATLAB, The Mathworks, Inc. Version 7.7.0.471 (R2008b). Operating System: Microsoft Windows XP.
%%Title: Pictures\main_zoo_mvar_analysis_data_BMI_xcorr_bmig_p1_k1_5_7.eps
%%CreationDate: 10/26/2009  05:45:03
%%DocumentNeededFonts: Helvetica
%%DocumentProcessColors: Cyan Magenta Yellow Black
%%LanguageLevel: 2
%%Pages: 1
%%BoundingBox:    37   180   549   616
%%EndComments

%%BeginProlog
% MathWorks dictionary
/MathWorks 160 dict begin
% definition operators
/bdef {bind def} bind def
/ldef {load def} bind def
/xdef {exch def} bdef
/xstore {exch store} bdef
% operator abbreviations
/c  /clip ldef
/cc /concat ldef
/cp /closepath ldef
/gr /grestore ldef
/gs /gsave ldef
/mt /moveto ldef
/np /newpath ldef
/cm /currentmatrix ldef
/sm /setmatrix ldef
/rm /rmoveto ldef
/rl /rlineto ldef
/s {show newpath} bdef
/sc {setcmykcolor} bdef
/sr /setrgbcolor ldef
/sg /setgray ldef
/w /setlinewidth ldef
/j /setlinejoin ldef
/cap /setlinecap ldef
/rc {rectclip} bdef
/rf {rectfill} bdef
% page state control
/pgsv () def
/bpage {/pgsv save def} bdef
/epage {pgsv restore} bdef
/bplot /gsave ldef
/eplot {stroke grestore} bdef
% orientation switch
/portraitMode 0 def /landscapeMode 1 def /rotateMode 2 def
% coordinate system mappings
/dpi2point 0 def
% font control
/FontSize 0 def
/FMS {/FontSize xstore findfont [FontSize 0 0 FontSize neg 0 0]
  makefont setfont} bdef
/ISOLatin1Encoding where {pop /WindowsLatin1Encoding 256 array bdef
ISOLatin1Encoding WindowsLatin1Encoding copy pop
/.notdef/.notdef/quotesinglbase/florin/quotedblbase/ellipsis/dagger
/daggerdbl/circumflex/perthousand/Scaron/guilsinglleft/OE/.notdef/.notdef
/.notdef/.notdef/quoteleft/quoteright/quotedblleft/quotedblright/bullet
/endash/emdash/tilde/trademark/scaron/guilsinglright/oe/.notdef/.notdef
/Ydieresis WindowsLatin1Encoding 128 32 getinterval astore pop}
{/WindowsLatin1Encoding StandardEncoding bdef} ifelse
/reencode {exch dup where {pop load} {pop StandardEncoding} ifelse
  exch dup 3 1 roll findfont dup length dict begin
  { 1 index /FID ne {def}{pop pop} ifelse } forall
  /Encoding exch def currentdict end definefont pop} bdef
/isroman {findfont /CharStrings get /Agrave known} bdef
/FMSR {3 1 roll 1 index dup isroman {reencode} {pop pop} ifelse
  exch FMS} bdef
/csm {1 dpi2point div -1 dpi2point div scale neg translate
 dup landscapeMode eq {pop -90 rotate}
  {rotateMode eq {90 rotate} if} ifelse} bdef
% line types: solid, dotted, dashed, dotdash
/SO { [] 0 setdash } bdef
/DO { [.5 dpi2point mul 4 dpi2point mul] 0 setdash } bdef
/DA { [6 dpi2point mul] 0 setdash } bdef
/DD { [.5 dpi2point mul 4 dpi2point mul 6 dpi2point mul 4
  dpi2point mul] 0 setdash } bdef
% macros for lines and objects
/L {lineto stroke} bdef
/MP {3 1 roll moveto 1 sub {rlineto} repeat} bdef
/AP {{rlineto} repeat} bdef
/PDlw -1 def
/W {/PDlw currentlinewidth def setlinewidth} def
/PP {closepath eofill} bdef
/DP {closepath stroke} bdef
/MR {4 -2 roll moveto dup  0 exch rlineto exch 0 rlineto
  neg 0 exch rlineto closepath} bdef
/FR {MR stroke} bdef
/PR {MR fill} bdef
/L1i {{currentfile picstr readhexstring pop} image} bdef
/tMatrix matrix def
/MakeOval {newpath tMatrix currentmatrix pop translate scale
0 0 1 0 360 arc tMatrix setmatrix} bdef
/FO {MakeOval stroke} bdef
/PO {MakeOval fill} bdef
/PD {currentlinewidth 2 div 0 360 arc fill
   PDlw -1 eq not {PDlw w /PDlw -1 def} if} def
/FA {newpath tMatrix currentmatrix pop translate scale
  0 0 1 5 -2 roll arc tMatrix setmatrix stroke} bdef
/PA {newpath tMatrix currentmatrix pop	translate 0 0 moveto scale
  0 0 1 5 -2 roll arc closepath tMatrix setmatrix fill} bdef
/FAn {newpath tMatrix currentmatrix pop translate scale
  0 0 1 5 -2 roll arcn tMatrix setmatrix stroke} bdef
/PAn {newpath tMatrix currentmatrix pop translate 0 0 moveto scale
  0 0 1 5 -2 roll arcn closepath tMatrix setmatrix fill} bdef
/vradius 0 def /hradius 0 def /lry 0 def
/lrx 0 def /uly 0 def /ulx 0 def /rad 0 def
/MRR {/vradius xdef /hradius xdef /lry xdef /lrx xdef /uly xdef
  /ulx xdef newpath tMatrix currentmatrix pop ulx hradius add uly
  vradius add translate hradius vradius scale 0 0 1 180 270 arc 
  tMatrix setmatrix lrx hradius sub uly vradius add translate
  hradius vradius scale 0 0 1 270 360 arc tMatrix setmatrix
  lrx hradius sub lry vradius sub translate hradius vradius scale
  0 0 1 0 90 arc tMatrix setmatrix ulx hradius add lry vradius sub
  translate hradius vradius scale 0 0 1 90 180 arc tMatrix setmatrix
  closepath} bdef
/FRR {MRR stroke } bdef
/PRR {MRR fill } bdef
/MlrRR {/lry xdef /lrx xdef /uly xdef /ulx xdef /rad lry uly sub 2 div def
  newpath tMatrix currentmatrix pop ulx rad add uly rad add translate
  rad rad scale 0 0 1 90 270 arc tMatrix setmatrix lrx rad sub lry rad
  sub translate rad rad scale 0 0 1 270 90 arc tMatrix setmatrix
  closepath} bdef
/FlrRR {MlrRR stroke } bdef
/PlrRR {MlrRR fill } bdef
/MtbRR {/lry xdef /lrx xdef /uly xdef /ulx xdef /rad lrx ulx sub 2 div def
  newpath tMatrix currentmatrix pop ulx rad add uly rad add translate
  rad rad scale 0 0 1 180 360 arc tMatrix setmatrix lrx rad sub lry rad
  sub translate rad rad scale 0 0 1 0 180 arc tMatrix setmatrix
  closepath} bdef
/FtbRR {MtbRR stroke } bdef
/PtbRR {MtbRR fill } bdef
/stri 6 array def /dtri 6 array def
/smat 6 array def /dmat 6 array def
/tmat1 6 array def /tmat2 6 array def /dif 3 array def
/asub {/ind2 exch def /ind1 exch def dup dup
  ind1 get exch ind2 get sub exch } bdef
/tri_to_matrix {
  2 0 asub 3 1 asub 4 0 asub 5 1 asub
  dup 0 get exch 1 get 7 -1 roll astore } bdef
/compute_transform {
  dmat dtri tri_to_matrix tmat1 invertmatrix 
  smat stri tri_to_matrix tmat2 concatmatrix } bdef
/ds {stri astore pop} bdef
/dt {dtri astore pop} bdef
/db {2 copy /cols xdef /rows xdef mul dup 3 mul string
  currentfile 
  3 index 0 eq {/ASCIIHexDecode filter}
  {/ASCII85Decode filter 3 index 2 eq {/RunLengthDecode filter} if }
  ifelse exch readstring pop
  dup 0 3 index getinterval /rbmap xdef
  dup 2 index dup getinterval /gbmap xdef
  1 index dup 2 mul exch getinterval /bbmap xdef pop pop}bdef
/it {gs np dtri aload pop moveto lineto lineto cp c
  cols rows 8 compute_transform 
  rbmap gbmap bbmap true 3 colorimage gr}bdef
/il {newpath moveto lineto stroke}bdef
currentdict end def
%%EndProlog

%%BeginSetup
MathWorks begin

0 cap

end
%%EndSetup

%%Page: 1 1
%%BeginPageSetup
%%PageBoundingBox:    37   180   549   616
MathWorks begin
bpage
%%EndPageSetup

%%BeginObject: obj1
bplot

/dpi2point 12 def
portraitMode 0216 7344 csm

  234   -48  6149  5231 rc
85 dict begin %Colortable dictionary
/c0 { 0.000000 0.000000 0.000000 sr} bdef
/c1 { 1.000000 1.000000 1.000000 sr} bdef
/c2 { 0.900000 0.000000 0.000000 sr} bdef
/c3 { 0.000000 0.820000 0.000000 sr} bdef
/c4 { 0.000000 0.000000 0.800000 sr} bdef
/c5 { 0.910000 0.820000 0.320000 sr} bdef
/c6 { 1.000000 0.260000 0.820000 sr} bdef
/c7 { 0.000000 0.820000 0.820000 sr} bdef
c0
1 j
1 sg
   0    0 6919 5187 rf
6 w
0 4202 5362 0 0 -4202 899 4616 4 MP
PP
-5362 0 0 4202 5362 0 0 -4202 899 4616 5 MP stroke
4 w
DO
SO
6 w
0 sg
 899  414 mt 6261  414 L
 899 4616 mt 6261 4616 L
6261 4616 mt 6261  414 L
 899 4616 mt  899  414 L
 899 4616 mt 6261 4616 L
 899 4616 mt  899  414 L
 919 4616 mt  919 4562 L
 919  414 mt  919  467 L
%%IncludeResource: font Helvetica
/Helvetica /WindowsLatin1Encoding 240 FMSR

 713 4873 mt 
(-3) s
1806 4616 mt 1806 4562 L
1806  414 mt 1806  467 L
1600 4873 mt 
(-2) s
2693 4616 mt 2693 4562 L
2693  414 mt 2693  467 L
2487 4873 mt 
(-1) s
3580 4616 mt 3580 4562 L
3580  414 mt 3580  467 L
3514 4873 mt 
(0) s
4466 4616 mt 4466 4562 L
4466  414 mt 4466  467 L
4400 4873 mt 
(1) s
5353 4616 mt 5353 4562 L
5353  414 mt 5353  467 L
5287 4873 mt 
(2) s
6240 4616 mt 6240 4562 L
6240  414 mt 6240  467 L
6174 4873 mt 
(3) s
 899 4599 mt  952 4599 L
6261 4599 mt 6207 4599 L
 591 4688 mt 
(-3) s
 899 3904 mt  952 3904 L
6261 3904 mt 6207 3904 L
 591 3993 mt 
(-2) s
 899 3209 mt  952 3209 L
6261 3209 mt 6207 3209 L
 591 3298 mt 
(-1) s
 899 2514 mt  952 2514 L
6261 2514 mt 6207 2514 L
 731 2603 mt 
(0) s
 899 1820 mt  952 1820 L
6261 1820 mt 6207 1820 L
 731 1909 mt 
(1) s
 899 1125 mt  952 1125 L
6261 1125 mt 6207 1125 L
 731 1214 mt 
(2) s
 899  430 mt  952  430 L
6261  430 mt 6207  430 L
 731  519 mt 
(3) s
 899  414 mt 6261  414 L
 899 4616 mt 6261 4616 L
6261 4616 mt 6261  414 L
 899 4616 mt  899  414 L
gs 899 414 5363 4203 rc
gr

/c8 { 0.000000 0.000000 1.000000 sr} bdef
c8
5211  957 mt 5283  957 L
5247  921 mt 5247  993 L
4746 2686 mt 4818 2686 L
4782 2650 mt 4782 2722 L
4060 3273 mt 4132 3273 L
4096 3237 mt 4096 3309 L
3940 4072 mt 4012 4072 L
3976 4036 mt 3976 4108 L
3672 2284 mt 3744 2284 L
3708 2248 mt 3708 2320 L
2534 3039 mt 2606 3039 L
2570 3003 mt 2570 3075 L
2235 2619 mt 2307 2619 L
2271 2583 mt 2271 2655 L
3571 2874 mt 3643 2874 L
3607 2838 mt 3607 2910 L
2513 3553 mt 2585 3553 L
2549 3517 mt 2549 3589 L
5282 2436 mt 5354 2436 L
5318 2400 mt 5318 2472 L
5828 2731 mt 5900 2731 L
5864 2695 mt 5864 2767 L
3415 2365 mt 3487 2365 L
3451 2329 mt 3451 2401 L
4407 2261 mt 4479 2261 L
4443 2225 mt 4443 2297 L
4149 1740 mt 4221 1740 L
4185 1704 mt 4185 1776 L
4156 3479 mt 4228 3479 L
4192 3443 mt 4192 3515 L
4667 1298 mt 4739 1298 L
4703 1262 mt 4703 1334 L
3814  824 mt 3886  824 L
3850  788 mt 3850  860 L
2394 2778 mt 2466 2778 L
2430 2742 mt 2430 2814 L
3711 2668 mt 3783 2668 L
3747 2632 mt 3747 2704 L
2789 2024 mt 2861 2024 L
2825 1988 mt 2825 2060 L
3147 2782 mt 3219 2782 L
3183 2746 mt 3183 2818 L
5413 2989 mt 5485 2989 L
5449 2953 mt 5449 3025 L
3296 2869 mt 3368 2869 L
3332 2833 mt 3332 2905 L
2980 2820 mt 3052 2820 L
3016 2784 mt 3016 2856 L
2420 1538 mt 2492 1538 L
2456 1502 mt 2456 1574 L
3398 2405 mt 3470 2405 L
3434 2369 mt 3434 2441 L
2836 2270 mt 2908 2270 L
2872 2234 mt 2872 2306 L
5096 3106 mt 5168 3106 L
5132 3070 mt 5132 3142 L
3717 3822 mt 3789 3822 L
3753 3786 mt 3753 3858 L
2706 2754 mt 2778 2754 L
2742 2718 mt 2742 2790 L
4338 2889 mt 4410 2889 L
4374 2853 mt 4374 2925 L
4142 2440 mt 4214 2440 L
4178 2404 mt 4178 2476 L
3728 2935 mt 3800 2935 L
3764 2899 mt 3764 2971 L
3505 2414 mt 3577 2414 L
3541 2378 mt 3541 2450 L
3915 2920 mt 3987 2920 L
3951 2884 mt 3951 2956 L
4047 2691 mt 4119 2691 L
4083 2655 mt 4083 2727 L
2201 2484 mt 2273 2484 L
2237 2448 mt 2237 2520 L
4719 2115 mt 4791 2115 L
4755 2079 mt 4755 2151 L
4290 1489 mt 4362 1489 L
4326 1453 mt 4326 1525 L
4732 1838 mt 4804 1838 L
4768 1802 mt 4768 1874 L
5002 2768 mt 5074 2768 L
5038 2732 mt 5038 2804 L
3803 2904 mt 3875 2904 L
3839 2868 mt 3839 2940 L
2896 1911 mt 2968 1911 L
2932 1875 mt 2932 1947 L
3085 2140 mt 3157 2140 L
3121 2104 mt 3121 2176 L
5606 2682 mt 5678 2682 L
5642 2646 mt 5642 2718 L
1907 3693 mt 1979 3693 L
1943 3657 mt 1943 3729 L
4002 1336 mt 4074 1336 L
4038 1300 mt 4038 1372 L
3020 2606 mt 3092 2606 L
3056 2570 mt 3056 2642 L
2671 2120 mt 2743 2120 L
2707 2084 mt 2707 2156 L
5047 3468 mt 5119 3468 L
5083 3432 mt 5083 3504 L
3072 2035 mt 3144 2035 L
3108 1999 mt 3108 2071 L
3723 2462 mt 3795 2462 L
3759 2426 mt 3759 2498 L
3302 2558 mt 3374 2558 L
3338 2522 mt 3338 2594 L
4266 3405 mt 4338 3405 L
4302 3369 mt 4302 3441 L
3190 1756 mt 3262 1756 L
3226 1720 mt 3226 1792 L
2910 2884 mt 2982 2884 L
2946 2848 mt 2946 2920 L
6033 2279 mt 6105 2279 L
6069 2243 mt 6069 2315 L
5700 3265 mt 5772 3265 L
5736 3229 mt 5736 3301 L
5245 2374 mt 5317 2374 L
5281 2338 mt 5281 2410 L
2715 2650 mt 2787 2650 L
2751 2614 mt 2751 2686 L
4322 2007 mt 4394 2007 L
4358 1971 mt 4358 2043 L
4482 1388 mt 4554 1388 L
4518 1352 mt 4518 1424 L
2267 2633 mt 2339 2633 L
2303 2597 mt 2303 2669 L
2615 2664 mt 2687 2664 L
2651 2628 mt 2651 2700 L
3153 3184 mt 3225 3184 L
3189 3148 mt 3189 3220 L
3751 2334 mt 3823 2334 L
3787 2298 mt 3787 2370 L
3499 2914 mt 3571 2914 L
3535 2878 mt 3535 2950 L
4775 2204 mt 4847 2204 L
4811 2168 mt 4811 2240 L
4163 2741 mt 4235 2741 L
4199 2705 mt 4199 2777 L
2605 3436 mt 2677 3436 L
2641 3400 mt 2641 3472 L
4492 3610 mt 4564 3610 L
4528 3574 mt 4528 3646 L
3885 2659 mt 3957 2659 L
3921 2623 mt 3921 2695 L
3053 3376 mt 3125 3376 L
3089 3340 mt 3089 3412 L
2523 2745 mt 2595 2745 L
2559 2709 mt 2559 2781 L
3319 2135 mt 3391 2135 L
3355 2099 mt 3355 2171 L
3867 2094 mt 3939 2094 L
3903 2058 mt 3903 2130 L
4760 2925 mt 4832 2925 L
4796 2889 mt 4796 2961 L
3482 2709 mt 3554 2709 L
3518 2673 mt 3518 2745 L
2165 2165 mt 2237 2165 L
2201 2129 mt 2201 2201 L
4282 2040 mt 4354 2040 L
4318 2004 mt 4318 2076 L
6225 2554 mt 6297 2554 L
6261 2518 mt 6261 2590 L
3160 3503 mt 3232 3503 L
3196 3467 mt 3196 3539 L
3958 2104 mt 4030 2104 L
3994 2068 mt 3994 2140 L
2757 3731 mt 2829 3731 L
2793 3695 mt 2793 3767 L
3091 1748 mt 3163 1748 L
3127 1712 mt 3127 1784 L
3855 3515 mt 3927 3515 L
3891 3479 mt 3891 3551 L
4631 4205 mt 4703 4205 L
4667 4169 mt 4667 4241 L
3820 2909 mt 3892 2909 L
3856 2873 mt 3856 2945 L
2063 3980 mt 2135 3980 L
2099 3944 mt 2099 4016 L
4054 2018 mt 4126 2018 L
4090 1982 mt 4090 2054 L
4597 2597 mt 4669 2597 L
4633 2561 mt 4633 2633 L
4199 3112 mt 4271 3112 L
4235 3076 mt 4235 3148 L
2765 3711 mt 2837 3711 L
2801 3675 mt 2801 3747 L
3873 1764 mt 3945 1764 L
3909 1728 mt 3909 1800 L
2805 2750 mt 2877 2750 L
2841 2714 mt 2841 2786 L
3432 1978 mt 3504 1978 L
3468 1942 mt 3468 2014 L
2502 2545 mt 2574 2545 L
2538 2509 mt 2538 2581 L
5122 2811 mt 5194 2811 L
5158 2775 mt 5158 2847 L
2251 2423 mt 2323 2423 L
2287 2387 mt 2287 2459 L
2565 3220 mt 2637 3220 L
2601 3184 mt 2601 3256 L
4820  414 mt 4892  414 L
4856  378 mt 4856  450 L
3757 2593 mt 3829 2593 L
3793 2557 mt 3793 2629 L
4805 2293 mt 4877 2293 L
4841 2257 mt 4841 2329 L
3577 3331 mt 3649 3331 L
3613 3295 mt 3613 3367 L
3977 1917 mt 4049 1917 L
4013 1881 mt 4013 1953 L
3387 2418 mt 3459 2418 L
3423 2382 mt 3423 2454 L
3493 3491 mt 3565 3491 L
3529 3455 mt 3529 3527 L
4425 1772 mt 4497 1772 L
4461 1736 mt 4461 1808 L
4922 2320 mt 4994 2320 L
4958 2284 mt 4958 2356 L
4177 4131 mt 4249 4131 L
4213 4095 mt 4213 4167 L
2381 2792 mt 2453 2792 L
2417 2756 mt 2417 2828 L
3971 3306 mt 4043 3306 L
4007 3270 mt 4007 3342 L
2749 2067 mt 2821 2067 L
2785 2031 mt 2785 2103 L
3313 2562 mt 3385 2562 L
3349 2526 mt 3349 2598 L
4128 3125 mt 4200 3125 L
4164 3089 mt 4164 3161 L
4680 2298 mt 4752 2298 L
4716 2262 mt 4716 2334 L
3594 3051 mt 3666 3051 L
3630 3015 mt 3630 3087 L
2341 2383 mt 2413 2383 L
2377 2347 mt 2377 2419 L
3689 2704 mt 3761 2704 L
3725 2668 mt 3725 2740 L
4608 2972 mt 4680 2972 L
4644 2936 mt 4644 3008 L
3661 2673 mt 3733 2673 L
3697 2637 mt 3697 2709 L
3927 3087 mt 3999 3087 L
3963 3051 mt 3963 3123 L
3449 2930 mt 3521 2930 L
3485 2894 mt 3485 2966 L
3104 1936 mt 3176 1936 L
3140 1900 mt 3140 1972 L
5150 1878 mt 5222 1878 L
5186 1842 mt 5186 1914 L
4585 2089 mt 4657 2089 L
4621 2053 mt 4621 2125 L
2844 2796 mt 2916 2796 L
2880 2760 mt 2880 2832 L
2282 2899 mt 2354 2899 L
2318 2863 mt 2318 2935 L
3220 3625 mt 3292 3625 L
3256 3589 mt 3256 3661 L
2586 2189 mt 2658 2189 L
2622 2153 mt 2622 2225 L
3359 3415 mt 3431 3415 L
3395 3379 mt 3395 3451 L
2888 1434 mt 2960 1434 L
2924 1398 mt 2924 1470 L
3996 3349 mt 4068 3349 L
4032 3313 mt 4032 3385 L
1556 4305 mt 1628 4305 L
1592 4269 mt 1592 4341 L
4259 3206 mt 4331 3206 L
4295 3170 mt 4295 3242 L
2146 2396 mt 2218 2396 L
2182 2360 mt 2182 2432 L
3330 3227 mt 3402 3227 L
3366 3191 mt 3366 3263 L
2368 2410 mt 2440 2410 L
2404 2374 mt 2404 2446 L
4886 1892 mt 4958 1892 L
4922 1856 mt 4922 1928 L
5071 2488 mt 5143 2488 L
5107 2452 mt 5107 2524 L
2931 3289 mt 3003 3289 L
2967 3253 mt 2967 3325 L
2740 2325 mt 2812 2325 L
2776 2289 mt 2776 2361 L
3588 2307 mt 3660 2307 L
3624 2271 mt 3624 2343 L
3555 2343 mt 3627 2343 L
3591 2307 mt 3591 2379 L
4251 2835 mt 4323 2835 L
4287 2799 mt 4287 2871 L
4191 3358 mt 4263 3358 L
4227 3322 mt 4227 3394 L
3336 1689 mt 3408 1689 L
3372 1653 mt 3372 1725 L
2555 1572 mt 2627 1572 L
2591 1536 mt 2591 1608 L
4961 2057 mt 5033 2057 L
4997 2021 mt 4997 2093 L
3861 1858 mt 3933 1858 L
3897 1822 mt 3897 1894 L
5321 3000 mt 5393 3000 L
5357 2964 mt 5357 3036 L
 863 2677 mt  935 2677 L
 899 2641 mt  899 2713 L
4087 2859 mt 4159 2859 L
4123 2823 mt 4123 2895 L
1991 2242 mt 2063 2242 L
2027 2206 mt 2027 2278 L
4213 1634 mt 4285 1634 L
4249 1598 mt 4249 1670 L
2218 3877 mt 2290 3877 L
2254 3841 mt 2254 3913 L
1965 2497 mt 2037 2497 L
2001 2461 mt 2001 2533 L
3261 1593 mt 3333 1593 L
3297 1557 mt 3297 1629 L
4100 2541 mt 4172 2541 L
4136 2505 mt 4136 2577 L
3078 3322 mt 3150 3322 L
3114 3286 mt 3114 3358 L
2851 2356 mt 2923 2356 L
2887 2320 mt 2887 2392 L
4501 2523 mt 4573 2523 L
4537 2487 mt 4537 2559 L
3745 2576 mt 3817 2576 L
3781 2540 mt 3781 2612 L
4228 2311 mt 4300 2311 L
4264 2275 mt 4264 2347 L
3921 2773 mt 3993 2773 L
3957 2737 mt 3957 2809 L
3683 2514 mt 3755 2514 L
3719 2478 mt 3719 2550 L
4314 1809 mt 4386 1809 L
4350 1773 mt 4350 1845 L
4564 2109 mt 4636 2109 L
4600 2073 mt 4600 2145 L
4041 2830 mt 4113 2830 L
4077 2794 mt 4077 2866 L
3267 2787 mt 3339 2787 L
3303 2751 mt 3303 2823 L
3027 1561 mt 3099 1561 L
3063 1525 mt 3063 1597 L
2680 2275 mt 2752 2275 L
2716 2239 mt 2716 2311 L
4074 2501 mt 4146 2501 L
4110 2465 mt 4110 2537 L
2040 2956 mt 2112 2956 L
2076 2920 mt 2076 2992 L
3549 1954 mt 3621 1954 L
3585 1918 mt 3585 1990 L
4463 3567 mt 4535 3567 L
4499 3531 mt 4499 3603 L
4121 2199 mt 4193 2199 L
4157 2163 mt 4157 2235 L
4067 2655 mt 4139 2655 L
4103 2619 mt 4103 2691 L
3426 2388 mt 3498 2388 L
3462 2352 mt 3462 2424 L
3706 3367 mt 3778 3367 L
3742 3331 mt 3742 3403 L
4789 2427 mt 4861 2427 L
4825 2391 mt 4825 2463 L
4655 2370 mt 4727 2370 L
4691 2334 mt 4691 2406 L
1722 1643 mt 1794 1643 L
1758 1607 mt 1758 1679 L
5365 3069 mt 5437 3069 L
5401 3033 mt 5401 3105 L
4372 3250 mt 4444 3250 L
4408 3214 mt 4408 3286 L
3677 3581 mt 3749 3581 L
3713 3545 mt 3713 3617 L
4221 3281 mt 4293 3281 L
4257 3245 mt 4257 3317 L
3538 3641 mt 3610 3641 L
3574 3605 mt 3574 3677 L
3184 1207 mt 3256 1207 L
3220 1171 mt 3220 1243 L
3438 1872 mt 3510 1872 L
3474 1836 mt 3474 1908 L
4381 1671 mt 4453 1671 L
4417 1635 mt 4417 1707 L
4355 2849 mt 4427 2849 L
4391 2813 mt 4391 2885 L
3633 2228 mt 3705 2228 L
3669 2192 mt 3669 2264 L
3135 3057 mt 3207 3057 L
3171 3021 mt 3171 3093 L
4904 3191 mt 4976 3191 L
4940 3155 mt 4940 3227 L
4574 1006 mt 4646 1006 L
4610  970 mt 4610 1042 L
3232 1972 mt 3304 1972 L
3268 1936 mt 3268 2008 L
2917 1419 mt 2989 1419 L
2953 1383 mt 2953 1455 L
3649 2967 mt 3721 2967 L
3685 2931 mt 3685 3003 L
4243 2445 mt 4315 2445 L
4279 2409 mt 4279 2481 L
3454  898 mt 3526  898 L
3490  862 mt 3490  934 L
2828 1514 mt 2900 1514 L
2864 1478 mt 2864 1550 L
3393 2983 mt 3465 2983 L
3429 2947 mt 3429 3019 L
3243 2519 mt 3315 2519 L
3279 2483 mt 3279 2555 L
3983 3093 mt 4055 3093 L
4019 3057 mt 4019 3129 L
2479 1942 mt 2551 1942 L
2515 1906 mt 2515 1978 L
3762 2247 mt 3834 2247 L
3798 2211 mt 3798 2283 L
3544 2265 mt 3616 2265 L
3580 2229 mt 3580 2301 L
3655 2854 mt 3727 2854 L
3691 2818 mt 3691 2890 L
5024 1698 mt 5096 1698 L
5060 1662 mt 5060 1734 L
4398 2946 mt 4470 2946 L
4434 2910 mt 4434 2982 L
3237 2646 mt 3309 2646 L
3273 2610 mt 3273 2682 L
2595 2718 mt 2667 2718 L
2631 2682 mt 2631 2754 L
2966 1121 mt 3038 1121 L
3002 1085 mt 3002 1157 L
3934 2584 mt 4006 2584 L
3970 2548 mt 3970 2620 L
3059 1049 mt 3131 1049 L
3095 1013 mt 3095 1085 L
2959  724 mt 3031  724 L
2995  688 mt 2995  760 L
1259 2379 mt 1331 2379 L
1295 2343 mt 1295 2415 L
3172 2046 mt 3244 2046 L
3208 2010 mt 3208 2082 L
2183 1823 mt 2255 1823 L
2219 1787 mt 2219 1859 L
3797 4023 mt 3869 4023 L
3833 3987 mt 3833 4059 L
3443 2145 mt 3515 2145 L
3479 2109 mt 3479 2181 L
2697 2458 mt 2769 2458 L
2733 2422 mt 2733 2494 L
3809 3157 mt 3881 3157 L
3845 3121 mt 3845 3193 L
3946 1707 mt 4018 1707 L
3982 1671 mt 3982 1743 L
3582 2180 mt 3654 2180 L
3618 2144 mt 3618 2216 L
4107 2467 mt 4179 2467 L
4143 2431 mt 4143 2503 L
4034 2001 mt 4106 2001 L
4070 1965 mt 4070 2037 L
3791 2736 mt 3863 2736 L
3827 2700 mt 3827 2772 L
3214 2392 mt 3286 2392 L
3250 2356 mt 3250 2428 L
1766 2029 mt 1838 2029 L
1802 1993 mt 1802 2065 L
3273 4616 mt 3345 4616 L
3309 4580 mt 3309 4652 L
2945 2894 mt 3017 2894 L
2981 2858 mt 2981 2930 L
3033 1779 mt 3105 1779 L
3069 1743 mt 3069 1815 L
3000 3395 mt 3072 3395 L
3036 3359 mt 3036 3431 L
3785 3942 mt 3857 3942 L
3821 3906 mt 3821 3978 L
2490 3063 mt 2562 3063 L
2526 3027 mt 2526 3099 L
2312 1232 mt 2384 1232 L
2348 1196 mt 2348 1268 L
4184 1448 mt 4256 1448 L
4220 1412 mt 4220 1484 L
3013 2237 mt 3085 2237 L
3049 2201 mt 3049 2273 L
2634 2160 mt 2706 2160 L
2670 2124 mt 2670 2196 L
2924 2073 mt 2996 2073 L
2960 2037 mt 2960 2109 L
2821 2347 mt 2893 2347 L
2857 2311 mt 2857 2383 L
2652 3151 mt 2724 3151 L
2688 3115 mt 2688 3187 L
4693 3386 mt 4765 3386 L
4729 3350 mt 4729 3422 L
3166 2722 mt 3238 2722 L
3202 2686 mt 3202 2758 L
2938 1152 mt 3010 1152 L
2974 1116 mt 2974 1188 L
3410 3017 mt 3482 3017 L
3446 2981 mt 3446 3053 L
4206 1732 mt 4278 1732 L
4242 1696 mt 4242 1768 L
3477 2978 mt 3549 2978 L
3513 2942 mt 3513 3014 L
1842 2099 mt 1914 2099 L
1878 2063 mt 1878 2135 L
3610 2218 mt 3682 2218 L
3646 2182 mt 3646 2254 L
4390 3164 mt 4462 3164 L
4426 3128 mt 4426 3200 L
3903 3425 mt 3975 3425 L
3939 3389 mt 3939 3461 L
2662 2150 mt 2734 2150 L
2698 2114 mt 2698 2186 L
3780 2251 mt 3852 2251 L
3816 2215 mt 3816 2287 L
4114 3144 mt 4186 3144 L
4150 3108 mt 4150 3180 L
3734 2864 mt 3806 2864 L
3770 2828 mt 3770 2900 L
4981 1865 mt 5053 1865 L
5017 1829 mt 5017 1901 L
3740 2214 mt 3812 2214 L
3776 2178 mt 3776 2250 L
3178 1990 mt 3250 1990 L
3214 1954 mt 3214 2026 L
4015 1885 mt 4087 1885 L
4051 1849 mt 4051 1921 L
2874 2994 mt 2946 2994 L
2910 2958 mt 2910 3030 L
3644 2637 mt 3716 2637 L
3680 2601 mt 3680 2673 L
4080 2700 mt 4152 2700 L
4116 2664 mt 4116 2736 L
4472 3081 mt 4544 3081 L
4508 3045 mt 4508 3117 L
3129 3178 mt 3201 3178 L
3165 3142 mt 3165 3214 L
3208 1624 mt 3280 1624 L
3244 1588 mt 3244 1660 L
4435 3340 mt 4507 3340 L
4471 3304 mt 4471 3376 L
3404 2727 mt 3476 2727 L
3440 2691 mt 3440 2763 L
4643 2532 mt 4715 2532 L
4679 2496 mt 4679 2568 L
3527 1816 mt 3599 1816 L
3563 1780 mt 3563 1852 L
3046 3022 mt 3118 3022 L
3082 2986 mt 3082 3058 L
1937 2940 mt 2009 2940 L
1973 2904 mt 1973 2976 L
3202 3034 mt 3274 3034 L
3238 2998 mt 3238 3070 L
3110 2155 mt 3182 2155 L
3146 2119 mt 3146 2191 L
4836 2185 mt 4908 2185 L
4872 2149 mt 4872 2221 L
2973 3797 mt 3045 3797 L
3009 3761 mt 3009 3833 L
3510 3527 mt 3582 3527 L
3546 3491 mt 3546 3563 L
1481 2316 mt 1553 2316 L
1517 2280 mt 1517 2352 L
5531 2401 mt 5603 2401 L
5567 2365 mt 5567 2437 L
4135 3540 mt 4207 3540 L
4171 3504 mt 4171 3576 L
2016 1662 mt 2088 1662 L
2052 1626 mt 2052 1698 L
3605 2615 mt 3677 2615 L
3641 2579 mt 3641 2651 L
4298 1354 mt 4370 1354 L
4334 1318 mt 4334 1390 L
2866 3137 mt 2938 3137 L
2902 3101 mt 2902 3173 L
4364 2764 mt 4436 2764 L
4400 2728 mt 4400 2800 L
3325 2571 mt 3397 2571 L
3361 2535 mt 3361 2607 L
3196 2611 mt 3268 2611 L
3232 2575 mt 3232 2647 L
4532 2506 mt 4604 2506 L
4568 2470 mt 4568 2542 L
3278 2083 mt 3350 2083 L
3314 2047 mt 3314 2119 L
3532 2432 mt 3604 2432 L
3568 2396 mt 3568 2468 L
3627 2951 mt 3699 2951 L
3663 2915 mt 3663 2987 L
2355 1318 mt 2427 1318 L
2391 1282 mt 2391 1354 L
3116 3011 mt 3188 3011 L
3152 2975 mt 3152 3047 L
4236 2840 mt 4308 2840 L
4272 2804 mt 4272 2876 L
3471 3457 mt 3543 3457 L
3507 3421 mt 3507 3493 L
1805 3242 mt 1877 3242 L
1841 3206 mt 1841 3278 L
2773 3908 mt 2845 3908 L
2809 3872 mt 2809 3944 L
3488 3257 mt 3560 3257 L
3524 3221 mt 3524 3293 L
3560  564 mt 3632  564 L
3596  528 mt 3596  600 L
2732 3131 mt 2804 3131 L
2768 3095 mt 2768 3167 L
3307 1583 mt 3379 1583 L
3343 1547 mt 3343 1619 L
2903 2641 mt 2975 2641 L
2939 2605 mt 2939 2677 L
3879 2449 mt 3951 2449 L
3915 2413 mt 3915 2485 L
2987 2256 mt 3059 2256 L
3023 2220 mt 3023 2292 L
2327 2580 mt 2399 2580 L
2363 2544 mt 2363 2616 L
3826 1404 mt 3898 1404 L
3862 1368 mt 3862 1440 L
3466 2475 mt 3538 2475 L
3502 2439 mt 3502 2511 L
3353 2815 mt 3425 2815 L
3389 2779 mt 3389 2851 L
2126 1526 mt 2198 1526 L
2162 1490 mt 2162 1562 L
2859 1930 mt 2931 1930 L
2895 1894 mt 2895 1966 L
2298 2051 mt 2370 2051 L
2334 2015 mt 2334 2087 L
3040 2078 mt 3112 2078 L
3076 2042 mt 3076 2114 L
3909 3099 mt 3981 3099 L
3945 3063 mt 3945 3135 L
3226 2223 mt 3298 2223 L
3262 2187 mt 3262 2259 L
4306 2801 mt 4378 2801 L
4342 2765 mt 4342 2837 L
1876 1787 mt 1948 1787 L
1912 1751 mt 1912 1823 L
2781 2962 mt 2853 2962 L
2817 2926 mt 2817 2998 L
3774 2825 mt 3846 2825 L
3810 2789 mt 3810 2861 L
3952 3075 mt 4024 3075 L
3988 3039 mt 3988 3111 L
3989 2480 mt 4061 2480 L
4025 2444 mt 4025 2516 L
4009 2194 mt 4081 2194 L
4045 2158 mt 4045 2230 L
4869 1960 mt 4941 1960 L
4905 1924 mt 4905 1996 L
3850 1462 mt 3922 1462 L
3886 1426 mt 3886 1498 L
3098 3297 mt 3170 3297 L
3134 3261 mt 3134 3333 L
3255 2233 mt 3327 2233 L
3291 2197 mt 3291 2269 L
3347 3213 mt 3419 3213 L
3383 3177 mt 3383 3249 L
3832 2493 mt 3904 2493 L
3868 2457 mt 3868 2529 L
3891 1802 mt 3963 1802 L
3927 1766 mt 3927 1838 L
4619 2536 mt 4691 2536 L
4655 2500 mt 4655 2572 L
1387 1614 mt 1459 1614 L
1423 1578 mt 1423 1650 L
3768 2759 mt 3840 2759 L
3804 2723 mt 3804 2795 L
4522 3774 mt 4594 3774 L
4558 3738 mt 4558 3810 L
2624 2329 mt 2696 2329 L
2660 2293 mt 2660 2365 L
1674 1680 mt 1746 1680 L
1710 1644 mt 1710 1716 L
4170 2806 mt 4242 2806 L
4206 2770 mt 4206 2842 L
3700 1653 mt 3772 1653 L
3736 1617 mt 3736 1689 L
4941 2125 mt 5013 2125 L
4977 2089 mt 4977 2161 L
4416 3658 mt 4488 3658 L
4452 3622 mt 4452 3694 L
4094 2302 mt 4166 2302 L
4130 2266 mt 4130 2338 L
3381 1851 mt 3453 1851 L
3417 1815 mt 3417 1887 L
3066 2624 mt 3138 2624 L
3102 2588 mt 3102 2660 L
3376 2567 mt 3448 2567 L
3412 2531 mt 3412 2603 L
3123 2175 mt 3195 2175 L
3159 2139 mt 3159 2211 L
3638 2338 mt 3710 2338 L
3674 2302 mt 3674 2374 L
2444 2352 mt 2516 2352 L
2480 2316 mt 2480 2388 L
2881 1923 mt 2953 1923 L
2917 1887 mt 2917 1959 L
4542 1371 mt 4614 1371 L
4578 1335 mt 4578 1407 L
4453 1723 mt 4525 1723 L
4489 1687 mt 4489 1759 L
4852 3171 mt 4924 3171 L
4888 3135 mt 4888 3207 L
3516 2602 mt 3588 2602 L
3552 2566 mt 3552 2638 L
5468 1984 mt 5540 1984 L
5504 1948 mt 5504 2020 L
3364 3446 mt 3436 3446 L
3400 3410 mt 3400 3482 L
2643 1502 mt 2715 1502 L
2679 1466 mt 2679 1538 L
2813 2012 mt 2885 2012 L
2849 1976 mt 2849 2048 L
4021 2170 mt 4093 2170 L
4057 2134 mt 4057 2206 L
3599 1277 mt 3671 1277 L
3635 1241 mt 3635 1313 L
2575 3752 mt 2647 3752 L
2611 3716 mt 2611 3788 L
3421 3675 mt 3493 3675 L
3457 3639 mt 3457 3711 L
3007 2589 mt 3079 2589 L
3043 2553 mt 3043 2625 L
4553 3848 mt 4625 3848 L
4589 3812 mt 4589 3884 L
4330 2209 mt 4402 2209 L
4366 2173 mt 4366 2245 L
3141 1845 mt 3213 1845 L
3177 1809 mt 3177 1881 L
2407 2062 mt 2479 2062 L
2443 2026 mt 2443 2098 L
4512 1948 mt 4584 1948 L
4548 1912 mt 4548 1984 L
3342 3028 mt 3414 3028 L
3378 2992 mt 3378 3064 L
3249 2288 mt 3321 2288 L
3285 2252 mt 3285 2324 L
2545 3314 mt 2617 3314 L
2581 3278 mt 2581 3350 L
4028 1966 mt 4100 1966 L
4064 1930 mt 4064 2002 L
2085 1550 mt 2157 1550 L
2121 1514 mt 2121 1586 L
3666 3005 mt 3738 3005 L
3702 2969 mt 3702 3041 L
3694 3118 mt 3766 3118 L
3730 3082 mt 3730 3154 L
2468 2528 mt 2540 2528 L
2504 2492 mt 2504 2564 L
2689 1604 mt 2761 1604 L
2725 1568 mt 2725 1640 L
5180 2361 mt 5252 2361 L
5216 2325 mt 5216 2397 L
3621 1831 mt 3693 1831 L
3657 1795 mt 3657 1867 L
2952 1995 mt 3024 1995 L
2988 1959 mt 2988 2031 L
2432 2695 mt 2504 2695 L
2468 2659 mt 2468 2731 L
3844 2549 mt 3916 2549 L
3880 2513 mt 3880 2585 L
2106 1904 mt 2178 1904 L
2142 1868 mt 2142 1940 L
3897 1794 mt 3969 1794 L
3933 1758 mt 3933 1830 L
3460 1715 mt 3532 1715 L
3496 1679 mt 3496 1751 L
4274 3235 mt 4346 3235 L
4310 3199 mt 4310 3271 L
3964 2844 mt 4036 2844 L
4000 2808 mt 4000 2880 L
3566 2471 mt 3638 2471 L
3602 2435 mt 3602 2507 L
2797 2713 mt 2869 2713 L
2833 2677 mt 2833 2749 L
3290 2510 mt 3362 2510 L
3326 2474 mt 3326 2546 L
3521 1181 mt 3593 1181 L
3557 1145 mt 3557 1217 L
2456 2130 mt 2528 2130 L
2492 2094 mt 2492 2166 L
3370 1255 mt 3442 1255 L
3406 1219 mt 3406 1291 L
3284 3198 mt 3356 3198 L
3320 3162 mt 3320 3234 L
4347 1898 mt 4419 1898 L
4383 1862 mt 4383 1934 L
3838 2628 mt 3910 2628 L
3874 2592 mt 3874 2664 L
3616 2879 mt 3688 2879 L
3652 2843 mt 3652 2915 L
4444 1087 mt 4516 1087 L
4480 1051 mt 4480 1123 L
2993 2453 mt 3065 2453 L
3029 2417 mt 3029 2489 L
2723 1476 mt 2795 1476 L
2759 1440 mt 2759 1512 L
1619 3045 mt 1691 3045 L
1655 3009 mt 1655 3081 L
4706 3595 mt 4778 3595 L
4742 3559 mt 4742 3631 L
gs 899 414 5363 4203 rc
gr

0 sg
2822 5104 mt 
(\(F,DCTb,MLP\)) s
 482 3343 mt  -90 rotate
(\(S,LFCC,GMM\)) s
90 rotate
2905  223 mt 
(Corr = -0.03) s

end %%Color Dict

eplot
%%EndObject

epage
end

showpage

%%Trailer
%%EOF
