%!PS-Adobe-3.0 EPSF-3.0
%%Creator: MATLAB, The Mathworks, Inc. Version 7.7.0.471 (R2008b). Operating System: Microsoft Windows XP.
%%Title: Pictures\main_zoo_mvar_analysis_data_BMI_xcorr_bmi_p1_k2_2_9.eps
%%CreationDate: 10/26/2009  05:44:22
%%DocumentNeededFonts: Helvetica
%%DocumentProcessColors: Cyan Magenta Yellow Black
%%LanguageLevel: 2
%%Pages: 1
%%BoundingBox:    32   180   546   616
%%EndComments

%%BeginProlog
% MathWorks dictionary
/MathWorks 160 dict begin
% definition operators
/bdef {bind def} bind def
/ldef {load def} bind def
/xdef {exch def} bdef
/xstore {exch store} bdef
% operator abbreviations
/c  /clip ldef
/cc /concat ldef
/cp /closepath ldef
/gr /grestore ldef
/gs /gsave ldef
/mt /moveto ldef
/np /newpath ldef
/cm /currentmatrix ldef
/sm /setmatrix ldef
/rm /rmoveto ldef
/rl /rlineto ldef
/s {show newpath} bdef
/sc {setcmykcolor} bdef
/sr /setrgbcolor ldef
/sg /setgray ldef
/w /setlinewidth ldef
/j /setlinejoin ldef
/cap /setlinecap ldef
/rc {rectclip} bdef
/rf {rectfill} bdef
% page state control
/pgsv () def
/bpage {/pgsv save def} bdef
/epage {pgsv restore} bdef
/bplot /gsave ldef
/eplot {stroke grestore} bdef
% orientation switch
/portraitMode 0 def /landscapeMode 1 def /rotateMode 2 def
% coordinate system mappings
/dpi2point 0 def
% font control
/FontSize 0 def
/FMS {/FontSize xstore findfont [FontSize 0 0 FontSize neg 0 0]
  makefont setfont} bdef
/ISOLatin1Encoding where {pop /WindowsLatin1Encoding 256 array bdef
ISOLatin1Encoding WindowsLatin1Encoding copy pop
/.notdef/.notdef/quotesinglbase/florin/quotedblbase/ellipsis/dagger
/daggerdbl/circumflex/perthousand/Scaron/guilsinglleft/OE/.notdef/.notdef
/.notdef/.notdef/quoteleft/quoteright/quotedblleft/quotedblright/bullet
/endash/emdash/tilde/trademark/scaron/guilsinglright/oe/.notdef/.notdef
/Ydieresis WindowsLatin1Encoding 128 32 getinterval astore pop}
{/WindowsLatin1Encoding StandardEncoding bdef} ifelse
/reencode {exch dup where {pop load} {pop StandardEncoding} ifelse
  exch dup 3 1 roll findfont dup length dict begin
  { 1 index /FID ne {def}{pop pop} ifelse } forall
  /Encoding exch def currentdict end definefont pop} bdef
/isroman {findfont /CharStrings get /Agrave known} bdef
/FMSR {3 1 roll 1 index dup isroman {reencode} {pop pop} ifelse
  exch FMS} bdef
/csm {1 dpi2point div -1 dpi2point div scale neg translate
 dup landscapeMode eq {pop -90 rotate}
  {rotateMode eq {90 rotate} if} ifelse} bdef
% line types: solid, dotted, dashed, dotdash
/SO { [] 0 setdash } bdef
/DO { [.5 dpi2point mul 4 dpi2point mul] 0 setdash } bdef
/DA { [6 dpi2point mul] 0 setdash } bdef
/DD { [.5 dpi2point mul 4 dpi2point mul 6 dpi2point mul 4
  dpi2point mul] 0 setdash } bdef
% macros for lines and objects
/L {lineto stroke} bdef
/MP {3 1 roll moveto 1 sub {rlineto} repeat} bdef
/AP {{rlineto} repeat} bdef
/PDlw -1 def
/W {/PDlw currentlinewidth def setlinewidth} def
/PP {closepath eofill} bdef
/DP {closepath stroke} bdef
/MR {4 -2 roll moveto dup  0 exch rlineto exch 0 rlineto
  neg 0 exch rlineto closepath} bdef
/FR {MR stroke} bdef
/PR {MR fill} bdef
/L1i {{currentfile picstr readhexstring pop} image} bdef
/tMatrix matrix def
/MakeOval {newpath tMatrix currentmatrix pop translate scale
0 0 1 0 360 arc tMatrix setmatrix} bdef
/FO {MakeOval stroke} bdef
/PO {MakeOval fill} bdef
/PD {currentlinewidth 2 div 0 360 arc fill
   PDlw -1 eq not {PDlw w /PDlw -1 def} if} def
/FA {newpath tMatrix currentmatrix pop translate scale
  0 0 1 5 -2 roll arc tMatrix setmatrix stroke} bdef
/PA {newpath tMatrix currentmatrix pop	translate 0 0 moveto scale
  0 0 1 5 -2 roll arc closepath tMatrix setmatrix fill} bdef
/FAn {newpath tMatrix currentmatrix pop translate scale
  0 0 1 5 -2 roll arcn tMatrix setmatrix stroke} bdef
/PAn {newpath tMatrix currentmatrix pop translate 0 0 moveto scale
  0 0 1 5 -2 roll arcn closepath tMatrix setmatrix fill} bdef
/vradius 0 def /hradius 0 def /lry 0 def
/lrx 0 def /uly 0 def /ulx 0 def /rad 0 def
/MRR {/vradius xdef /hradius xdef /lry xdef /lrx xdef /uly xdef
  /ulx xdef newpath tMatrix currentmatrix pop ulx hradius add uly
  vradius add translate hradius vradius scale 0 0 1 180 270 arc 
  tMatrix setmatrix lrx hradius sub uly vradius add translate
  hradius vradius scale 0 0 1 270 360 arc tMatrix setmatrix
  lrx hradius sub lry vradius sub translate hradius vradius scale
  0 0 1 0 90 arc tMatrix setmatrix ulx hradius add lry vradius sub
  translate hradius vradius scale 0 0 1 90 180 arc tMatrix setmatrix
  closepath} bdef
/FRR {MRR stroke } bdef
/PRR {MRR fill } bdef
/MlrRR {/lry xdef /lrx xdef /uly xdef /ulx xdef /rad lry uly sub 2 div def
  newpath tMatrix currentmatrix pop ulx rad add uly rad add translate
  rad rad scale 0 0 1 90 270 arc tMatrix setmatrix lrx rad sub lry rad
  sub translate rad rad scale 0 0 1 270 90 arc tMatrix setmatrix
  closepath} bdef
/FlrRR {MlrRR stroke } bdef
/PlrRR {MlrRR fill } bdef
/MtbRR {/lry xdef /lrx xdef /uly xdef /ulx xdef /rad lrx ulx sub 2 div def
  newpath tMatrix currentmatrix pop ulx rad add uly rad add translate
  rad rad scale 0 0 1 180 360 arc tMatrix setmatrix lrx rad sub lry rad
  sub translate rad rad scale 0 0 1 0 180 arc tMatrix setmatrix
  closepath} bdef
/FtbRR {MtbRR stroke } bdef
/PtbRR {MtbRR fill } bdef
/stri 6 array def /dtri 6 array def
/smat 6 array def /dmat 6 array def
/tmat1 6 array def /tmat2 6 array def /dif 3 array def
/asub {/ind2 exch def /ind1 exch def dup dup
  ind1 get exch ind2 get sub exch } bdef
/tri_to_matrix {
  2 0 asub 3 1 asub 4 0 asub 5 1 asub
  dup 0 get exch 1 get 7 -1 roll astore } bdef
/compute_transform {
  dmat dtri tri_to_matrix tmat1 invertmatrix 
  smat stri tri_to_matrix tmat2 concatmatrix } bdef
/ds {stri astore pop} bdef
/dt {dtri astore pop} bdef
/db {2 copy /cols xdef /rows xdef mul dup 3 mul string
  currentfile 
  3 index 0 eq {/ASCIIHexDecode filter}
  {/ASCII85Decode filter 3 index 2 eq {/RunLengthDecode filter} if }
  ifelse exch readstring pop
  dup 0 3 index getinterval /rbmap xdef
  dup 2 index dup getinterval /gbmap xdef
  1 index dup 2 mul exch getinterval /bbmap xdef pop pop}bdef
/it {gs np dtri aload pop moveto lineto lineto cp c
  cols rows 8 compute_transform 
  rbmap gbmap bbmap true 3 colorimage gr}bdef
/il {newpath moveto lineto stroke}bdef
currentdict end def
%%EndProlog

%%BeginSetup
MathWorks begin

0 cap

end
%%EndSetup

%%Page: 1 1
%%BeginPageSetup
%%PageBoundingBox:    32   180   546   616
MathWorks begin
bpage
%%EndPageSetup

%%BeginObject: obj1
bplot

/dpi2point 12 def
portraitMode 0216 7344 csm

  174   -48  6173  5231 rc
85 dict begin %Colortable dictionary
/c0 { 0.000000 0.000000 0.000000 sr} bdef
/c1 { 1.000000 1.000000 1.000000 sr} bdef
/c2 { 0.900000 0.000000 0.000000 sr} bdef
/c3 { 0.000000 0.820000 0.000000 sr} bdef
/c4 { 0.000000 0.000000 0.800000 sr} bdef
/c5 { 0.910000 0.820000 0.320000 sr} bdef
/c6 { 1.000000 0.260000 0.820000 sr} bdef
/c7 { 0.000000 0.820000 0.820000 sr} bdef
c0
1 j
1 sg
   0    0 6919 5187 rf
6 w
0 4202 5362 0 0 -4202 899 4616 4 MP
PP
-5362 0 0 4202 5362 0 0 -4202 899 4616 5 MP stroke
4 w
DO
SO
6 w
0 sg
 899  414 mt 6261  414 L
 899 4616 mt 6261 4616 L
6261 4616 mt 6261  414 L
 899 4616 mt  899  414 L
 899 4616 mt 6261 4616 L
 899 4616 mt  899  414 L
1971 4616 mt 1971 4562 L
1971  415 mt 1971  468 L
%%IncludeResource: font Helvetica
/Helvetica /WindowsLatin1Encoding 240 FMSR

1805 4873 mt 
(0.2) s
3043 4616 mt 3043 4562 L
3043  415 mt 3043  468 L
2877 4873 mt 
(0.4) s
4116 4616 mt 4116 4562 L
4116  415 mt 4116  468 L
3950 4873 mt 
(0.6) s
5188 4616 mt 5188 4562 L
5188  415 mt 5188  468 L
5022 4873 mt 
(0.8) s
 899 4195 mt  952 4195 L
6261 4195 mt 6207 4195 L
 531 4284 mt 
(0.1) s
 899 3775 mt  952 3775 L
6261 3775 mt 6207 3775 L
 531 3864 mt 
(0.2) s
 899 3355 mt  952 3355 L
6261 3355 mt 6207 3355 L
 531 3444 mt 
(0.3) s
 899 2935 mt  952 2935 L
6261 2935 mt 6207 2935 L
 531 3024 mt 
(0.4) s
 899 2515 mt  952 2515 L
6261 2515 mt 6207 2515 L
 531 2604 mt 
(0.5) s
 899 2095 mt  952 2095 L
6261 2095 mt 6207 2095 L
 531 2184 mt 
(0.6) s
 899 1675 mt  952 1675 L
6261 1675 mt 6207 1675 L
 531 1764 mt 
(0.7) s
 899 1255 mt  952 1255 L
6261 1255 mt 6207 1255 L
 531 1344 mt 
(0.8) s
 899  834 mt  952  834 L
6261  834 mt 6207  834 L
 531  923 mt 
(0.9) s
 899  414 mt 6261  414 L
 899 4616 mt 6261 4616 L
6261 4616 mt 6261  414 L
 899 4616 mt  899  414 L
gs 899 414 5363 4203 rc
gr

/c8 { 0.000000 0.000000 1.000000 sr} bdef
c8
3932  523 mt 4004  523 L
3968  487 mt 3968  559 L
3522  606 mt 3594  606 L
3558  570 mt 3558  642 L
2578 1448 mt 2650 1448 L
2614 1412 mt 2614 1484 L
 886 3345 mt  958 3345 L
 922 3309 mt  922 3381 L
2960  556 mt 3032  556 L
2996  520 mt 2996  592 L
3183  675 mt 3255  675 L
3219  639 mt 3219  711 L
2027 4574 mt 2099 4574 L
2063 4538 mt 2063 4610 L
2391 1083 mt 2463 1083 L
2427 1047 mt 2427 1119 L
 871  558 mt  943  558 L
 907  522 mt  907  594 L
6163  781 mt 6235  781 L
6199  745 mt 6199  817 L
1331  765 mt 1403  765 L
1367  729 mt 1367  801 L
1850  740 mt 1922  740 L
1886  704 mt 1886  776 L
5997 1212 mt 6069 1212 L
6033 1176 mt 6033 1248 L
2010 1194 mt 2082 1194 L
2046 1158 mt 2046 1230 L
5505  719 mt 5577  719 L
5541  683 mt 5541  755 L
4368 1081 mt 4440 1081 L
4404 1045 mt 4404 1117 L
3179 4465 mt 3251 4465 L
3215 4429 mt 3215 4501 L
5769 1328 mt 5841 1328 L
5805 1292 mt 5805 1364 L
 918 1385 mt  990 1385 L
 954 1349 mt  954 1421 L
5401 1593 mt 5473 1593 L
5437 1557 mt 5437 1629 L
4826 3608 mt 4898 3608 L
4862 3572 mt 4862 3644 L
1022 4589 mt 1094 4589 L
1058 4553 mt 1058 4625 L
3460  880 mt 3532  880 L
3496  844 mt 3496  916 L
6081 1193 mt 6153 1193 L
6117 1157 mt 6117 1229 L
5834 2547 mt 5906 2547 L
5870 2511 mt 5870 2583 L
5301  736 mt 5373  736 L
5337  700 mt 5337  772 L
 863 2887 mt  935 2887 L
 899 2851 mt  899 2923 L
3171 4081 mt 3243 4081 L
3207 4045 mt 3207 4117 L
4724  487 mt 4796  487 L
4760  451 mt 4760  523 L
6208  635 mt 6280  635 L
6244  599 mt 6244  671 L
5897 1585 mt 5969 1585 L
5933 1549 mt 5933 1621 L
1274  519 mt 1346  519 L
1310  483 mt 1310  555 L
4026  792 mt 4098  792 L
4062  756 mt 4062  828 L
5478 3518 mt 5550 3518 L
5514 3482 mt 5514 3554 L
1444  638 mt 1516  638 L
1480  602 mt 1480  674 L
2186  699 mt 2258  699 L
2222  663 mt 2222  735 L
4954 1623 mt 5026 1623 L
4990 1587 mt 4990 1659 L
2791 1263 mt 2863 1263 L
2827 1227 mt 2827 1299 L
4851 1354 mt 4923 1354 L
4887 1318 mt 4887 1390 L
1108 1667 mt 1180 1667 L
1144 1631 mt 1144 1703 L
1421  881 mt 1493  881 L
1457  845 mt 1457  917 L
5903  452 mt 5975  452 L
5939  416 mt 5939  488 L
4630  776 mt 4702  776 L
4666  740 mt 4666  812 L
4263 4054 mt 4335 4054 L
4299 4018 mt 4299 4090 L
6114 4410 mt 6186 4410 L
6150 4374 mt 6150 4446 L
1759 4584 mt 1831 4584 L
1795 4548 mt 1795 4620 L
2940  746 mt 3012  746 L
2976  710 mt 2976  782 L
5983 4212 mt 6055 4212 L
6019 4176 mt 6019 4248 L
3288 2356 mt 3360 2356 L
3324 2320 mt 3324 2392 L
5451 2807 mt 5523 2807 L
5487 2771 mt 5487 2843 L
4059 4424 mt 4131 4424 L
4095 4388 mt 4095 4460 L
5256  459 mt 5328  459 L
5292  423 mt 5292  495 L
6101 1020 mt 6173 1020 L
6137  984 mt 6137 1056 L
2443 2100 mt 2515 2100 L
2479 2064 mt 2479 2136 L
5856  420 mt 5928  420 L
5892  384 mt 5892  456 L
5672 1363 mt 5744 1363 L
5708 1327 mt 5708 1399 L
3400  618 mt 3472  618 L
3436  582 mt 3436  654 L
4339  511 mt 4411  511 L
4375  475 mt 4375  547 L
1615  893 mt 1687  893 L
1651  857 mt 1651  929 L
1336 1115 mt 1408 1115 L
1372 1079 mt 1372 1151 L
3782 4588 mt 3854 4588 L
3818 4552 mt 3818 4624 L
3602  545 mt 3674  545 L
3638  509 mt 3638  581 L
3144 4380 mt 3216 4380 L
3180 4344 mt 3180 4416 L
5547 1255 mt 5619 1255 L
5583 1219 mt 5583 1291 L
 933  612 mt 1005  612 L
 969  576 mt  969  648 L
6070 1038 mt 6142 1038 L
6106 1002 mt 6106 1074 L
4398  565 mt 4470  565 L
4434  529 mt 4434  601 L
1055 1553 mt 1127 1553 L
1091 1517 mt 1091 1589 L
4712  642 mt 4784  642 L
4748  606 mt 4748  678 L
1063  807 mt 1135  807 L
1099  771 mt 1099  843 L
4953 3861 mt 5025 3861 L
4989 3825 mt 4989 3897 L
2257 2490 mt 2329 2490 L
2293 2454 mt 2293 2526 L
3686 3983 mt 3758 3983 L
3722 3947 mt 3722 4019 L
1983  474 mt 2055  474 L
2019  438 mt 2019  510 L
 876  647 mt  948  647 L
 912  611 mt  912  683 L
 863 4348 mt  935 4348 L
 899 4312 mt  899 4384 L
5441 1820 mt 5513 1820 L
5477 1784 mt 5477 1856 L
1926 1075 mt 1998 1075 L
1962 1039 mt 1962 1111 L
2063  629 mt 2135  629 L
2099  593 mt 2099  665 L
6145 2837 mt 6217 2837 L
6181 2801 mt 6181 2873 L
1343  468 mt 1415  468 L
1379  432 mt 1379  504 L
2447 1382 mt 2519 1382 L
2483 1346 mt 2483 1418 L
5695 3072 mt 5767 3072 L
5731 3036 mt 5731 3108 L
5791  423 mt 5863  423 L
5827  387 mt 5827  459 L
6137  954 mt 6209  954 L
6173  918 mt 6173  990 L
3655 1705 mt 3727 1705 L
3691 1669 mt 3691 1741 L
2100  622 mt 2172  622 L
2136  586 mt 2136  658 L
5436  727 mt 5508  727 L
5472  691 mt 5472  763 L
6121 4464 mt 6193 4464 L
6157 4428 mt 6157 4500 L
2460 1701 mt 2532 1701 L
2496 1665 mt 2496 1737 L
2049 1019 mt 2121 1019 L
2085  983 mt 2085 1055 L
6170  564 mt 6242  564 L
6206  528 mt 6206  600 L
 968  787 mt 1040  787 L
1004  751 mt 1004  823 L
5093 2283 mt 5165 2283 L
5129 2247 mt 5129 2319 L
3333 3702 mt 3405 3702 L
3369 3666 mt 3369 3738 L
5593 4574 mt 5665 4574 L
5629 4538 mt 5629 4610 L
1877 3343 mt 1949 3343 L
1913 3307 mt 1913 3379 L
3190  457 mt 3262  457 L
3226  421 mt 3226  493 L
3137 1962 mt 3209 1962 L
3173 1926 mt 3173 1998 L
1072  468 mt 1144  468 L
1108  432 mt 1108  504 L
5125  767 mt 5197  767 L
5161  731 mt 5161  803 L
6129 1206 mt 6201 1206 L
6165 1170 mt 6165 1242 L
1323 2575 mt 1395 2575 L
1359 2539 mt 1359 2611 L
 977 4466 mt 1049 4466 L
1013 4430 mt 1013 4502 L
5083 1809 mt 5155 1809 L
5119 1773 mt 5119 1845 L
1121  482 mt 1193  482 L
1157  446 mt 1157  518 L
1455  926 mt 1527  926 L
1491  890 mt 1491  962 L
3490  772 mt 3562  772 L
3526  736 mt 3526  808 L
1057 1911 mt 1129 1911 L
1093 1875 mt 1093 1947 L
5407  760 mt 5479  760 L
5443  724 mt 5443  796 L
5897  885 mt 5969  885 L
5933  849 mt 5933  921 L
1024  430 mt 1096  430 L
1060  394 mt 1060  466 L
1243 1822 mt 1315 1822 L
1279 1786 mt 1279 1858 L
5775  864 mt 5847  864 L
5811  828 mt 5811  900 L
2326 3089 mt 2398 3089 L
2362 3053 mt 2362 3125 L
1393 2853 mt 1465 2853 L
1429 2817 mt 1429 2889 L
5247  545 mt 5319  545 L
5283  509 mt 5283  581 L
4238 3947 mt 4310 3947 L
4274 3911 mt 4274 3983 L
3966 1176 mt 4038 1176 L
4002 1140 mt 4002 1212 L
 863 1707 mt  935 1707 L
 899 1671 mt  899 1743 L
4219 1062 mt 4291 1062 L
4255 1026 mt 4255 1098 L
6181  452 mt 6253  452 L
6217  416 mt 6217  488 L
5332  660 mt 5404  660 L
5368  624 mt 5368  696 L
1251 1017 mt 1323 1017 L
1287  981 mt 1287 1053 L
3903  560 mt 3975  560 L
3939  524 mt 3939  596 L
6023 1143 mt 6095 1143 L
6059 1107 mt 6059 1179 L
 986 3151 mt 1058 3151 L
1022 3115 mt 1022 3187 L
 872 1077 mt  944 1077 L
 908 1041 mt  908 1113 L
5031  894 mt 5103  894 L
5067  858 mt 5067  930 L
5352  705 mt 5424  705 L
5388  669 mt 5388  741 L
5602 1038 mt 5674 1038 L
5638 1002 mt 5638 1074 L
5220 2084 mt 5292 2084 L
5256 2048 mt 5256 2120 L
5726 3609 mt 5798 3609 L
5762 3573 mt 5762 3645 L
4768 1312 mt 4840 1312 L
4804 1276 mt 4804 1348 L
 887 1076 mt  959 1076 L
 923 1040 mt  923 1112 L
2878  600 mt 2950  600 L
2914  564 mt 2914  636 L
1388 4610 mt 1460 4610 L
1424 4574 mt 1424 4646 L
6125  569 mt 6197  569 L
6161  533 mt 6161  605 L
1261  591 mt 1333  591 L
1297  555 mt 1297  627 L
5373 2452 mt 5445 2452 L
5409 2416 mt 5409 2488 L
6059 1915 mt 6131 1915 L
6095 1879 mt 6095 1951 L
5418  547 mt 5490  547 L
5454  511 mt 5454  583 L
2816 3880 mt 2888 3880 L
2852 3844 mt 2852 3916 L
2118  720 mt 2190  720 L
2154  684 mt 2154  756 L
5333 1602 mt 5405 1602 L
5369 1566 mt 5369 1638 L
5972 1104 mt 6044 1104 L
6008 1068 mt 6008 1140 L
4571  938 mt 4643  938 L
4607  902 mt 4607  974 L
2438  490 mt 2510  490 L
2474  454 mt 2474  526 L
3565  612 mt 3637  612 L
3601  576 mt 3601  648 L
3605  645 mt 3677  645 L
3641  609 mt 3641  681 L
5475  931 mt 5547  931 L
5511  895 mt 5511  967 L
5516  672 mt 5588  672 L
5552  636 mt 5552  708 L
 895  639 mt  967  639 L
 931  603 mt  931  675 L
1316 1428 mt 1388 1428 L
1352 1392 mt 1352 1464 L
5208 1776 mt 5280 1776 L
5244 1740 mt 5244 1812 L
4162 1999 mt 4234 1999 L
4198 1963 mt 4198 2035 L
 932 1763 mt 1004 1763 L
 968 1727 mt  968 1799 L
5385 3297 mt 5457 3297 L
5421 3261 mt 5421 3333 L
 865 2445 mt  937 2445 L
 901 2409 mt  901 2481 L
6027 3001 mt 6099 3001 L
6063 2965 mt 6063 3037 L
2462 2108 mt 2534 2108 L
2498 2072 mt 2498 2144 L
2851 2145 mt 2923 2145 L
2887 2109 mt 2887 2181 L
3478  857 mt 3550  857 L
3514  821 mt 3514  893 L
6200  825 mt 6272  825 L
6236  789 mt 6236  861 L
6070  485 mt 6142  485 L
6106  449 mt 6106  521 L
2236  569 mt 2308  569 L
2272  533 mt 2272  605 L
5473 2147 mt 5545 2147 L
5509 2111 mt 5509 2183 L
2199 1507 mt 2271 1507 L
2235 1471 mt 2235 1543 L
3638  463 mt 3710  463 L
3674  427 mt 3674  499 L
5148  864 mt 5220  864 L
5184  828 mt 5184  900 L
5009  417 mt 5081  417 L
5045  381 mt 5045  453 L
5743  468 mt 5815  468 L
5779  432 mt 5779  504 L
1057  823 mt 1129  823 L
1093  787 mt 1093  859 L
3553  670 mt 3625  670 L
3589  634 mt 3589  706 L
4927 4464 mt 4999 4464 L
4963 4428 mt 4963 4500 L
1667  486 mt 1739  486 L
1703  450 mt 1703  522 L
4696  516 mt 4768  516 L
4732  480 mt 4732  552 L
4959  614 mt 5031  614 L
4995  578 mt 4995  650 L
2290 1692 mt 2362 1692 L
2326 1656 mt 2326 1728 L
1084  473 mt 1156  473 L
1120  437 mt 1120  509 L
1748 1287 mt 1820 1287 L
1784 1251 mt 1784 1323 L
6075 2560 mt 6147 2560 L
6111 2524 mt 6111 2596 L
3794  444 mt 3866  444 L
3830  408 mt 3830  480 L
 873 3377 mt  945 3377 L
 909 3341 mt  909 3413 L
6171 3732 mt 6243 3732 L
6207 3696 mt 6207 3768 L
1081  433 mt 1153  433 L
1117  397 mt 1117  469 L
6221 1325 mt 6293 1325 L
6257 1289 mt 6257 1361 L
4277 1042 mt 4349 1042 L
4313 1006 mt 4313 1078 L
6199  461 mt 6271  461 L
6235  425 mt 6235  497 L
4394  884 mt 4466  884 L
4430  848 mt 4430  920 L
5101 1579 mt 5173 1579 L
5137 1543 mt 5137 1615 L
1772 2342 mt 1844 2342 L
1808 2306 mt 1808 2378 L
6207  772 mt 6279  772 L
6243  736 mt 6243  808 L
6146  490 mt 6218  490 L
6182  454 mt 6182  526 L
2980  420 mt 3052  420 L
3016  384 mt 3016  456 L
2661  640 mt 2733  640 L
2697  604 mt 2697  676 L
5221 4436 mt 5293 4436 L
5257 4400 mt 5257 4472 L
4362  532 mt 4434  532 L
4398  496 mt 4398  568 L
1791 2123 mt 1863 2123 L
1827 2087 mt 1827 2159 L
4227  685 mt 4299  685 L
4263  649 mt 4263  721 L
5978  576 mt 6050  576 L
6014  540 mt 6014  612 L
1237  524 mt 1309  524 L
1273  488 mt 1273  560 L
6173 2739 mt 6245 2739 L
6209 2703 mt 6209 2775 L
5980 1737 mt 6052 1737 L
6016 1701 mt 6016 1773 L
4600  591 mt 4672  591 L
4636  555 mt 4636  627 L
1682 1413 mt 1754 1413 L
1718 1377 mt 1718 1449 L
5990 4374 mt 6062 4374 L
6026 4338 mt 6026 4410 L
5906 1908 mt 5978 1908 L
5942 1872 mt 5942 1944 L
5086  414 mt 5158  414 L
5122  378 mt 5122  450 L
 898 4108 mt  970 4108 L
 934 4072 mt  934 4144 L
1305  420 mt 1377  420 L
1341  384 mt 1341  456 L
5461 1887 mt 5533 1887 L
5497 1851 mt 5497 1923 L
5148  565 mt 5220  565 L
5184  529 mt 5184  601 L
3822 4574 mt 3894 4574 L
3858 4538 mt 3858 4610 L
5446  428 mt 5518  428 L
5482  392 mt 5482  464 L
6221  845 mt 6293  845 L
6257  809 mt 6257  881 L
1755 2805 mt 1827 2805 L
1791 2769 mt 1791 2841 L
1200 4355 mt 1272 4355 L
1236 4319 mt 1236 4391 L
5063  448 mt 5135  448 L
5099  412 mt 5099  484 L
5329 2491 mt 5401 2491 L
5365 2455 mt 5365 2527 L
6210  439 mt 6282  439 L
6246  403 mt 6246  475 L
 968 1156 mt 1040 1156 L
1004 1120 mt 1004 1192 L
5325 1231 mt 5397 1231 L
5361 1195 mt 5361 1267 L
 871 3690 mt  943 3690 L
 907 3654 mt  907 3726 L
6217 3998 mt 6289 3998 L
6253 3962 mt 6253 4034 L
5386 1108 mt 5458 1108 L
5422 1072 mt 5422 1144 L
 884  648 mt  956  648 L
 920  612 mt  920  684 L
4682 1133 mt 4754 1133 L
4718 1097 mt 4718 1169 L
4505  567 mt 4577  567 L
4541  531 mt 4541  603 L
6135 1196 mt 6207 1196 L
6171 1160 mt 6171 1232 L
5782 3858 mt 5854 3858 L
5818 3822 mt 5818 3894 L
2305 3740 mt 2377 3740 L
2341 3704 mt 2341 3776 L
1049 1661 mt 1121 1661 L
1085 1625 mt 1085 1697 L
6132  920 mt 6204  920 L
6168  884 mt 6168  956 L
4214  440 mt 4286  440 L
4250  404 mt 4250  476 L
4548 3972 mt 4620 3972 L
4584 3936 mt 4584 4008 L
4735 3737 mt 4807 3737 L
4771 3701 mt 4771 3773 L
1140 2672 mt 1212 2672 L
1176 2636 mt 1176 2708 L
1699 1651 mt 1771 1651 L
1735 1615 mt 1735 1687 L
3626  691 mt 3698  691 L
3662  655 mt 3662  727 L
5961 4599 mt 6033 4599 L
5997 4563 mt 5997 4635 L
6146  744 mt 6218  744 L
6182  708 mt 6182  780 L
6222 1531 mt 6294 1531 L
6258 1495 mt 6258 1567 L
6079 2629 mt 6151 2629 L
6115 2593 mt 6115 2665 L
5612 1989 mt 5684 1989 L
5648 1953 mt 5648 2025 L
5465 3116 mt 5537 3116 L
5501 3080 mt 5501 3152 L
5213  484 mt 5285  484 L
5249  448 mt 5249  520 L
3759 2102 mt 3831 2102 L
3795 2066 mt 3795 2138 L
6109 2081 mt 6181 2081 L
6145 2045 mt 6145 2117 L
 881 4347 mt  953 4347 L
 917 4311 mt  917 4383 L
5811 4449 mt 5883 4449 L
5847 4413 mt 5847 4485 L
4491  819 mt 4563  819 L
4527  783 mt 4527  855 L
1476 1269 mt 1548 1269 L
1512 1233 mt 1512 1305 L
6152 3663 mt 6224 3663 L
6188 3627 mt 6188 3699 L
1556  588 mt 1628  588 L
1592  552 mt 1592  624 L
5576 4086 mt 5648 4086 L
5612 4050 mt 5612 4122 L
6015 2336 mt 6087 2336 L
6051 2300 mt 6051 2372 L
5213  453 mt 5285  453 L
5249  417 mt 5249  489 L
3560  430 mt 3632  430 L
3596  394 mt 3596  466 L
6017 1006 mt 6089 1006 L
6053  970 mt 6053 1042 L
 913 1973 mt  985 1973 L
 949 1937 mt  949 2009 L
5960 1336 mt 6032 1336 L
5996 1300 mt 5996 1372 L
6213 1600 mt 6285 1600 L
6249 1564 mt 6249 1636 L
2485 3684 mt 2557 3684 L
2521 3648 mt 2521 3720 L
2410 1652 mt 2482 1652 L
2446 1616 mt 2446 1688 L
3935 1120 mt 4007 1120 L
3971 1084 mt 3971 1156 L
1864 1693 mt 1936 1693 L
1900 1657 mt 1900 1729 L
4905  433 mt 4977  433 L
4941  397 mt 4941  469 L
 917  480 mt  989  480 L
 953  444 mt  953  516 L
4355 2347 mt 4427 2347 L
4391 2311 mt 4391 2383 L
5898  711 mt 5970  711 L
5934  675 mt 5934  747 L
3980 1029 mt 4052 1029 L
4016  993 mt 4016 1065 L
6220 4152 mt 6292 4152 L
6256 4116 mt 6256 4188 L
1624  495 mt 1696  495 L
1660  459 mt 1660  531 L
4208  438 mt 4280  438 L
4244  402 mt 4244  474 L
1327 4534 mt 1399 4534 L
1363 4498 mt 1363 4570 L
5938 1120 mt 6010 1120 L
5974 1084 mt 5974 1156 L
1924 1118 mt 1996 1118 L
1960 1082 mt 1960 1154 L
4685  683 mt 4757  683 L
4721  647 mt 4721  719 L
5410  417 mt 5482  417 L
5446  381 mt 5446  453 L
5530 2915 mt 5602 2915 L
5566 2879 mt 5566 2951 L
 884  681 mt  956  681 L
 920  645 mt  920  717 L
6117 4606 mt 6189 4606 L
6153 4570 mt 6153 4642 L
5863 1022 mt 5935 1022 L
5899  986 mt 5899 1058 L
6030 4230 mt 6102 4230 L
6066 4194 mt 6066 4266 L
2125  415 mt 2197  415 L
2161  379 mt 2161  451 L
3024  686 mt 3096  686 L
3060  650 mt 3060  722 L
4928 1885 mt 5000 1885 L
4964 1849 mt 4964 1921 L
4475 3919 mt 4547 3919 L
4511 3883 mt 4511 3955 L
 863 4299 mt  935 4299 L
 899 4263 mt  899 4335 L
4557 3021 mt 4629 3021 L
4593 2985 mt 4593 3057 L
5888 1278 mt 5960 1278 L
5924 1242 mt 5924 1314 L
1855  695 mt 1927  695 L
1891  659 mt 1891  731 L
5543 4580 mt 5615 4580 L
5579 4544 mt 5579 4616 L
2332  866 mt 2404  866 L
2368  830 mt 2368  902 L
6200 4603 mt 6272 4603 L
6236 4567 mt 6236 4639 L
2977 3131 mt 3049 3131 L
3013 3095 mt 3013 3167 L
2232  460 mt 2304  460 L
2268  424 mt 2268  496 L
1016 1878 mt 1088 1878 L
1052 1842 mt 1052 1914 L
1497 1428 mt 1569 1428 L
1533 1392 mt 1533 1464 L
5803  629 mt 5875  629 L
5839  593 mt 5839  665 L
6042 2749 mt 6114 2749 L
6078 2713 mt 6078 2785 L
4855  820 mt 4927  820 L
4891  784 mt 4891  856 L
1485 3397 mt 1557 3397 L
1521 3361 mt 1521 3433 L
6029 1432 mt 6101 1432 L
6065 1396 mt 6065 1468 L
6198 4616 mt 6270 4616 L
6234 4580 mt 6234 4652 L
 869  430 mt  941  430 L
 905  394 mt  905  466 L
5590 3264 mt 5662 3264 L
5626 3228 mt 5626 3300 L
 869 4182 mt  941 4182 L
 905 4146 mt  905 4218 L
2645 2737 mt 2717 2737 L
2681 2701 mt 2681 2773 L
6198  745 mt 6270  745 L
6234  709 mt 6234  781 L
3315 3745 mt 3387 3745 L
3351 3709 mt 3351 3781 L
3426  514 mt 3498  514 L
3462  478 mt 3462  550 L
2770 4229 mt 2842 4229 L
2806 4193 mt 2806 4265 L
 865 4614 mt  937 4614 L
 901 4578 mt  901 4650 L
1194 2935 mt 1266 2935 L
1230 2899 mt 1230 2971 L
6221 1547 mt 6293 1547 L
6257 1511 mt 6257 1583 L
1616 3977 mt 1688 3977 L
1652 3941 mt 1652 4013 L
5162 1076 mt 5234 1076 L
5198 1040 mt 5198 1112 L
5168  458 mt 5240  458 L
5204  422 mt 5204  494 L
2035  670 mt 2107  670 L
2071  634 mt 2071  706 L
1361 3632 mt 1433 3632 L
1397 3596 mt 1397 3668 L
4164  646 mt 4236  646 L
4200  610 mt 4200  682 L
6214 2921 mt 6286 2921 L
6250 2885 mt 6250 2957 L
4152  415 mt 4224  415 L
4188  379 mt 4188  451 L
5573  556 mt 5645  556 L
5609  520 mt 5609  592 L
6162 3911 mt 6234 3911 L
6198 3875 mt 6198 3947 L
4042 2960 mt 4114 2960 L
4078 2924 mt 4078 2996 L
4887  936 mt 4959  936 L
4923  900 mt 4923  972 L
2742 4308 mt 2814 4308 L
2778 4272 mt 2778 4344 L
 864  427 mt  936  427 L
 900  391 mt  900  463 L
2034 2409 mt 2106 2409 L
2070 2373 mt 2070 2445 L
6201 1421 mt 6273 1421 L
6237 1385 mt 6237 1457 L
1472 1130 mt 1544 1130 L
1508 1094 mt 1508 1166 L
4912  503 mt 4984  503 L
4948  467 mt 4948  539 L
1038 1400 mt 1110 1400 L
1074 1364 mt 1074 1436 L
2437 3081 mt 2509 3081 L
2473 3045 mt 2473 3117 L
6055 1993 mt 6127 1993 L
6091 1957 mt 6091 2029 L
4871 2046 mt 4943 2046 L
4907 2010 mt 4907 2082 L
5045 3301 mt 5117 3301 L
5081 3265 mt 5081 3337 L
6050  977 mt 6122  977 L
6086  941 mt 6086 1013 L
6118 2122 mt 6190 2122 L
6154 2086 mt 6154 2158 L
5597 4035 mt 5669 4035 L
5633 3999 mt 5633 4071 L
 883 3778 mt  955 3778 L
 919 3742 mt  919 3814 L
6196 3426 mt 6268 3426 L
6232 3390 mt 6232 3462 L
5486 1493 mt 5558 1493 L
5522 1457 mt 5522 1529 L
 869  526 mt  941  526 L
 905  490 mt  905  562 L
4516  458 mt 4588  458 L
4552  422 mt 4552  494 L
1694  731 mt 1766  731 L
1730  695 mt 1730  767 L
 883 2720 mt  955 2720 L
 919 2684 mt  919 2756 L
5721  705 mt 5793  705 L
5757  669 mt 5757  741 L
4643 4316 mt 4715 4316 L
4679 4280 mt 4679 4352 L
1628  459 mt 1700  459 L
1664  423 mt 1664  495 L
6225 4615 mt 6297 4615 L
6261 4579 mt 6261 4651 L
1671  415 mt 1743  415 L
1707  379 mt 1707  451 L
6224  416 mt 6296  416 L
6260  380 mt 6260  452 L
1599  848 mt 1671  848 L
1635  812 mt 1635  884 L
4262 4564 mt 4334 4564 L
4298 4528 mt 4298 4600 L
1850 4061 mt 1922 4061 L
1886 4025 mt 1886 4097 L
3578 3733 mt 3650 3733 L
3614 3697 mt 3614 3769 L
5137 4568 mt 5209 4568 L
5173 4532 mt 5173 4604 L
5806 1092 mt 5878 1092 L
5842 1056 mt 5842 1128 L
5163 2645 mt 5235 2645 L
5199 2609 mt 5199 2681 L
6183  434 mt 6255  434 L
6219  398 mt 6219  470 L
4393 2241 mt 4465 2241 L
4429 2205 mt 4429 2277 L
4562 4615 mt 4634 4615 L
4598 4579 mt 4598 4651 L
6148 4497 mt 6220 4497 L
6184 4461 mt 6184 4533 L
 870 2252 mt  942 2252 L
 906 2216 mt  906 2288 L
3773  615 mt 3845  615 L
3809  579 mt 3809  651 L
6068 1722 mt 6140 1722 L
6104 1686 mt 6104 1758 L
6125 3872 mt 6197 3872 L
6161 3836 mt 6161 3908 L
6149 1348 mt 6221 1348 L
6185 1312 mt 6185 1384 L
4003 3058 mt 4075 3058 L
4039 3022 mt 4039 3094 L
1843  671 mt 1915  671 L
1879  635 mt 1879  707 L
3354 4084 mt 3426 4084 L
3390 4048 mt 3390 4120 L
1923  579 mt 1995  579 L
1959  543 mt 1959  615 L
2835 4389 mt 2907 4389 L
2871 4353 mt 2871 4425 L
6122 4076 mt 6194 4076 L
6158 4040 mt 6158 4112 L
3146 4557 mt 3218 4557 L
3182 4521 mt 3182 4593 L
2230 4214 mt 2302 4214 L
2266 4178 mt 2266 4250 L
3074 4146 mt 3146 4146 L
3110 4110 mt 3110 4182 L
3359 2571 mt 3431 2571 L
3395 2535 mt 3395 2607 L
6207 1512 mt 6279 1512 L
6243 1476 mt 6243 1548 L
4188  601 mt 4260  601 L
4224  565 mt 4224  637 L
 925 3195 mt  997 3195 L
 961 3159 mt  961 3231 L
6153 1359 mt 6225 1359 L
6189 1323 mt 6189 1395 L
5352 2592 mt 5424 2592 L
5388 2556 mt 5388 2628 L
1416 3395 mt 1488 3395 L
1452 3359 mt 1452 3431 L
5350 3340 mt 5422 3340 L
5386 3304 mt 5386 3376 L
3373  818 mt 3445  818 L
3409  782 mt 3409  854 L
1378 1342 mt 1450 1342 L
1414 1306 mt 1414 1378 L
 896 1701 mt  968 1701 L
 932 1665 mt  932 1737 L
3223 2186 mt 3295 2186 L
3259 2150 mt 3259 2222 L
6167  760 mt 6239  760 L
6203  724 mt 6203  796 L
6205  617 mt 6277  617 L
6241  581 mt 6241  653 L
 991  555 mt 1063  555 L
1027  519 mt 1027  591 L
4299 4309 mt 4371 4309 L
4335 4273 mt 4335 4345 L
2984  423 mt 3056  423 L
3020  387 mt 3020  459 L
2150 2429 mt 2222 2429 L
2186 2393 mt 2186 2465 L
6220 1076 mt 6292 1076 L
6256 1040 mt 6256 1112 L
gs 899 414 5363 4203 rc
gr

0 sg
2775 5104 mt 
(\(F,DCTb,GMM\)) s
 422 3277 mt  -90 rotate
(\(S,SSC,GMM\)) s
90 rotate
2905  223 mt 
(Corr = -0.02) s

end %%Color Dict

eplot
%%EndObject

epage
end

showpage

%%Trailer
%%EOF
