%!PS-Adobe-3.0 EPSF-3.0
%%Creator: MATLAB, The Mathworks, Inc.
%%Title: Pictures\main_analyse_rerun3_arun_F-ratio-F-norm.eps
%%CreationDate: 02/01/2009  09:15:34
%%DocumentNeededFonts: Helvetica
%%DocumentProcessColors: Cyan Magenta Yellow Black
%%LanguageLevel: 2
%%Pages: 1
%%BoundingBox:    87   221   546   598
%%EndComments

%%BeginProlog
% MathWorks dictionary
/MathWorks 160 dict begin
% definition operators
/bdef {bind def} bind def
/ldef {load def} bind def
/xdef {exch def} bdef
/xstore {exch store} bdef
% operator abbreviations
/c  /clip ldef
/cc /concat ldef
/cp /closepath ldef
/gr /grestore ldef
/gs /gsave ldef
/mt /moveto ldef
/np /newpath ldef
/cm /currentmatrix ldef
/sm /setmatrix ldef
/rm /rmoveto ldef
/rl /rlineto ldef
/s {show newpath} bdef
/sc {setcmykcolor} bdef
/sr /setrgbcolor ldef
/sg /setgray ldef
/w /setlinewidth ldef
/j /setlinejoin ldef
/cap /setlinecap ldef
/rc {rectclip} bdef
/rf {rectfill} bdef
% page state control
/pgsv () def
/bpage {/pgsv save def} bdef
/epage {pgsv restore} bdef
/bplot /gsave ldef
/eplot {stroke grestore} bdef
% orientation switch
/portraitMode 0 def /landscapeMode 1 def /rotateMode 2 def
% coordinate system mappings
/dpi2point 0 def
% font control
/FontSize 0 def
/FMS {/FontSize xstore findfont [FontSize 0 0 FontSize neg 0 0]
  makefont setfont} bdef
/ISOLatin1Encoding where {pop /WindowsLatin1Encoding 256 array bdef
ISOLatin1Encoding WindowsLatin1Encoding copy pop
/.notdef/.notdef/quotesinglbase/florin/quotedblbase/ellipsis/dagger
/daggerdbl/circumflex/perthousand/Scaron/guilsinglleft/OE/.notdef/.notdef
/.notdef/.notdef/quoteleft/quoteright/quotedblleft/quotedblright/bullet
/endash/emdash/tilde/trademark/scaron/guilsinglright/oe/.notdef/.notdef
/Ydieresis WindowsLatin1Encoding 128 32 getinterval astore pop}
{/WindowsLatin1Encoding StandardEncoding bdef} ifelse
/reencode {exch dup where {pop load} {pop StandardEncoding} ifelse
  exch dup 3 1 roll findfont dup length dict begin
  { 1 index /FID ne {def}{pop pop} ifelse } forall
  /Encoding exch def currentdict end definefont pop} bdef
/isroman {findfont /CharStrings get /Agrave known} bdef
/FMSR {3 1 roll 1 index dup isroman {reencode} {pop pop} ifelse
  exch FMS} bdef
/csm {1 dpi2point div -1 dpi2point div scale neg translate
 dup landscapeMode eq {pop -90 rotate}
  {rotateMode eq {90 rotate} if} ifelse} bdef
% line types: solid, dotted, dashed, dotdash
/SO { [] 0 setdash } bdef
/DO { [.5 dpi2point mul 4 dpi2point mul] 0 setdash } bdef
/DA { [6 dpi2point mul] 0 setdash } bdef
/DD { [.5 dpi2point mul 4 dpi2point mul 6 dpi2point mul 4
  dpi2point mul] 0 setdash } bdef
% macros for lines and objects
/L {lineto stroke} bdef
/MP {3 1 roll moveto 1 sub {rlineto} repeat} bdef
/AP {{rlineto} repeat} bdef
/PDlw -1 def
/W {/PDlw currentlinewidth def setlinewidth} def
/PP {closepath eofill} bdef
/DP {closepath stroke} bdef
/MR {4 -2 roll moveto dup  0 exch rlineto exch 0 rlineto
  neg 0 exch rlineto closepath} bdef
/FR {MR stroke} bdef
/PR {MR fill} bdef
/L1i {{currentfile picstr readhexstring pop} image} bdef
/tMatrix matrix def
/MakeOval {newpath tMatrix currentmatrix pop translate scale
0 0 1 0 360 arc tMatrix setmatrix} bdef
/FO {MakeOval stroke} bdef
/PO {MakeOval fill} bdef
/PD {currentlinewidth 2 div 0 360 arc fill
   PDlw -1 eq not {PDlw w /PDlw -1 def} if} def
/FA {newpath tMatrix currentmatrix pop translate scale
  0 0 1 5 -2 roll arc tMatrix setmatrix stroke} bdef
/PA {newpath tMatrix currentmatrix pop	translate 0 0 moveto scale
  0 0 1 5 -2 roll arc closepath tMatrix setmatrix fill} bdef
/FAn {newpath tMatrix currentmatrix pop translate scale
  0 0 1 5 -2 roll arcn tMatrix setmatrix stroke} bdef
/PAn {newpath tMatrix currentmatrix pop translate 0 0 moveto scale
  0 0 1 5 -2 roll arcn closepath tMatrix setmatrix fill} bdef
/vradius 0 def /hradius 0 def /lry 0 def
/lrx 0 def /uly 0 def /ulx 0 def /rad 0 def
/MRR {/vradius xdef /hradius xdef /lry xdef /lrx xdef /uly xdef
  /ulx xdef newpath tMatrix currentmatrix pop ulx hradius add uly
  vradius add translate hradius vradius scale 0 0 1 180 270 arc 
  tMatrix setmatrix lrx hradius sub uly vradius add translate
  hradius vradius scale 0 0 1 270 360 arc tMatrix setmatrix
  lrx hradius sub lry vradius sub translate hradius vradius scale
  0 0 1 0 90 arc tMatrix setmatrix ulx hradius add lry vradius sub
  translate hradius vradius scale 0 0 1 90 180 arc tMatrix setmatrix
  closepath} bdef
/FRR {MRR stroke } bdef
/PRR {MRR fill } bdef
/MlrRR {/lry xdef /lrx xdef /uly xdef /ulx xdef /rad lry uly sub 2 div def
  newpath tMatrix currentmatrix pop ulx rad add uly rad add translate
  rad rad scale 0 0 1 90 270 arc tMatrix setmatrix lrx rad sub lry rad
  sub translate rad rad scale 0 0 1 270 90 arc tMatrix setmatrix
  closepath} bdef
/FlrRR {MlrRR stroke } bdef
/PlrRR {MlrRR fill } bdef
/MtbRR {/lry xdef /lrx xdef /uly xdef /ulx xdef /rad lrx ulx sub 2 div def
  newpath tMatrix currentmatrix pop ulx rad add uly rad add translate
  rad rad scale 0 0 1 180 360 arc tMatrix setmatrix lrx rad sub lry rad
  sub translate rad rad scale 0 0 1 0 180 arc tMatrix setmatrix
  closepath} bdef
/FtbRR {MtbRR stroke } bdef
/PtbRR {MtbRR fill } bdef
/stri 6 array def /dtri 6 array def
/smat 6 array def /dmat 6 array def
/tmat1 6 array def /tmat2 6 array def /dif 3 array def
/asub {/ind2 exch def /ind1 exch def dup dup
  ind1 get exch ind2 get sub exch } bdef
/tri_to_matrix {
  2 0 asub 3 1 asub 4 0 asub 5 1 asub
  dup 0 get exch 1 get 7 -1 roll astore } bdef
/compute_transform {
  dmat dtri tri_to_matrix tmat1 invertmatrix 
  smat stri tri_to_matrix tmat2 concatmatrix } bdef
/ds {stri astore pop} bdef
/dt {dtri astore pop} bdef
/db {2 copy /cols xdef /rows xdef mul dup 3 mul string
  currentfile 
  3 index 0 eq {/ASCIIHexDecode filter}
  {/ASCII85Decode filter 3 index 2 eq {/RunLengthDecode filter} if }
  ifelse exch readstring pop
  dup 0 3 index getinterval /rbmap xdef
  dup 2 index dup getinterval /gbmap xdef
  1 index dup 2 mul exch getinterval /bbmap xdef pop pop}bdef
/it {gs np dtri aload pop moveto lineto lineto cp c
  cols rows 8 compute_transform 
  rbmap gbmap bbmap true 3 colorimage gr}bdef
/il {newpath moveto lineto stroke}bdef
currentdict end def
%%EndProlog

%%BeginSetup
MathWorks begin

0 cap

end
%%EndSetup

%%Page: 1 1
%%BeginPageSetup
%%PageBoundingBox:    87   221   546   598
MathWorks begin
bpage
%%EndPageSetup

%%BeginObject: obj1
bplot

/dpi2point 12 def
portraitMode 0216 7344 csm

  828   161  5519  4529 rc
85 dict begin %Colortable dictionary
/c0 { 0.000000 0.000000 0.000000 sr} bdef
/c1 { 1.000000 1.000000 1.000000 sr} bdef
/c2 { 0.900000 0.000000 0.000000 sr} bdef
/c3 { 0.000000 0.820000 0.000000 sr} bdef
/c4 { 0.000000 0.000000 0.800000 sr} bdef
/c5 { 0.910000 0.820000 0.320000 sr} bdef
/c6 { 1.000000 0.260000 0.820000 sr} bdef
/c7 { 0.000000 0.820000 0.820000 sr} bdef
c0
1 j
1 sg
   0    0 6919 5187 rf
6 w
0 1068 856 0 0 -1068 899 1508 4 MP
PP
-856 0 0 1068 856 0 0 -1068 899 1508 5 MP stroke
4 w
DO
SO
6 w
0 sg
 899 1508 mt 1755 1508 L
 899 1508 mt  899  440 L
1076 1508 mt 1076 1497 L
1422 1508 mt 1422 1497 L
 899 1435 mt  909 1435 L
 899 1223 mt  909 1223 L
 899 1011 mt  909 1011 L
 899  799 mt  909  799 L
 899  587 mt  909  587 L
%%IncludeResource: font Helvetica
/Helvetica /WindowsLatin1Encoding 120 FMSR

 986  345 mt 
(P1:1 P1:1\(F\)) s
gs 899 440 857 1069 rc
gr

gs 826 367 1003 1215 rc
24 W
/c8 { 0.000000 0.000000 1.000000 sr} bdef
c8
1313 604 PD
24 W
1445 1037 PD
24 W
1007 719 PD
24 W
939 1120 PD
24 W
1087 1375 PD
24 W
1136 928 PD
24 W
998 870 PD
24 W
1145 940 PD
24 W
1325 1100 PD
24 W
1184 1438 PD
24 W
1023 1302 PD
24 W
1126 757 PD
24 W
1755 770 PD
24 W
1151 1171 PD
24 W
1417 807 PD
24 W
1155 1094 PD
24 W
1064 1160 PD
24 W
1330 621 PD
24 W
1377 684 PD
24 W
1366 1172 PD
24 W
1042 1328 PD
24 W
1164 1393 PD
24 W
920 1231 PD
24 W
1009 1298 PD
24 W
1277 440 PD
24 W
1108 1405 PD
24 W
1058 902 PD
24 W
1253 1045 PD
24 W
1176 965 PD
24 W
1092 991 PD
24 W
1332 1211 PD
24 W
1184 995 PD
24 W
1030 1069 PD
24 W
916 935 PD
24 W
1068 1088 PD
24 W
1001 1293 PD
24 W
986 1121 PD
24 W
1008 1010 PD
24 W
1110 801 PD
24 W
1135 1090 PD
24 W
1119 890 PD
24 W
1260 866 PD
24 W
1501 784 PD
24 W
935 1195 PD
24 W
1344 753 PD
24 W
1164 1162 PD
24 W
935 1381 PD
24 W
1058 1458 PD
24 W
1453 1053 PD
24 W
1319 1316 PD
24 W
1117 1106 PD
24 W
1238 1314 PD
24 W
1196 1256 PD
24 W
1289 789 PD
24 W
1074 1365 PD
24 W
1268 905 PD
24 W
899 1096 PD
24 W
1392 680 PD
24 W
1078 1088 PD
24 W
1232 973 PD
24 W
1224 833 PD
24 W
985 961 PD
24 W
1179 1061 PD
24 W
1344 1072 PD
24 W
1360 1113 PD
24 W
1501 957 PD
24 W
1181 861 PD
24 W
1108 1218 PD
24 W
1315 1280 PD
24 W
1074 1266 PD
24 W
1083 1067 PD
24 W
1503 851 PD
24 W
1260 745 PD
24 W
997 1194 PD
24 W
1069 1313 PD
24 W
1302 1218 PD
24 W
1313 897 PD
24 W
995 1278 PD
24 W
1131 1250 PD
24 W
1234 1179 PD
24 W
1148 751 PD
24 W
1044 1137 PD
24 W
1281 694 PD
24 W
911 1486 PD
24 W
1229 1009 PD
24 W
1275 1241 PD
24 W
1316 957 PD
24 W
1087 964 PD
24 W
936 1484 PD
24 W
1153 1296 PD
24 W
995 1250 PD
24 W
1384 703 PD
24 W
942 1411 PD
24 W
1232 1030 PD
24 W
1270 1197 PD
24 W
1077 1196 PD
24 W
1288 849 PD
24 W
1190 1375 PD
24 W
1081 1316 PD
24 W
1189 1103 PD
24 W
1350 1008 PD
24 W
1086 1023 PD
24 W
1086 1180 PD
24 W
1042 824 PD
24 W
1311 1408 PD
24 W
1045 1044 PD
24 W
1231 708 PD
24 W
1032 876 PD
24 W
936 1216 PD
24 W
1280 776 PD
24 W
1166 891 PD
24 W
1101 1307 PD
24 W
1408 1229 PD
24 W
1114 1508 PD
24 W
1006 1111 PD
24 W
1325 1323 PD
24 W
1244 1168 PD
24 W
1344 973 PD
24 W
1042 869 PD
24 W
969 1018 PD
24 W
1373 552 PD
24 W
1083 1257 PD
24 W
1172 1186 PD
24 W
1179 1010 PD
24 W
1028 1158 PD
24 W
1638 846 PD
24 W
1097 1110 PD
24 W
1197 953 PD
24 W
1173 1187 PD
24 W
1149 1214 PD
24 W
1382 839 PD
24 W
1222 1306 PD
24 W
1129 717 PD
24 W
1195 1113 PD
24 W
989 1313 PD
24 W
1199 1018 PD
24 W
1223 1330 PD
24 W
1491 640 PD
24 W
1353 1036 PD
24 W
1064 1304 PD
24 W
1118 1023 PD
24 W
1323 834 PD
24 W
999 1061 PD
24 W
1101 1390 PD
24 W
1240 969 PD
24 W
1217 1177 PD
24 W
1056 1120 PD
24 W
1197 978 PD
24 W
1048 1220 PD
24 W
1089 1267 PD
24 W
968 1378 PD
24 W
981 1449 PD
24 W
969 1338 PD
24 W
934 1457 PD
24 W
1022 1468 PD
24 W
1087 983 PD
24 W
1277 1218 PD
24 W
1553 1219 PD
24 W
1005 1039 PD
24 W
1078 1459 PD
24 W
1141 1119 PD
24 W
999 924 PD
24 W
1271 1222 PD
24 W
1051 1262 PD
24 W
1039 886 PD
24 W
1011 1142 PD
24 W
1072 1092 PD
24 W
1730 1075 PD
24 W
941 1119 PD
24 W
1246 1142 PD
24 W
1092 1250 PD
24 W
1346 899 PD
24 W
1069 1307 PD
24 W
941 1413 PD
24 W
1093 989 PD
24 W
1100 1315 PD
24 W
1251 1358 PD
24 W
1087 1142 PD
24 W
1049 1288 PD
24 W
1109 1356 PD
24 W
1075 1187 PD
24 W
929 1470 PD
24 W
1004 1144 PD
24 W
1088 747 PD
24 W
1182 1442 PD
24 W
923 1007 PD
24 W
1282 1305 PD
24 W
929 1207 PD
24 W
1085 1397 PD
24 W
1029 1376 PD
24 W
1045 1216 PD
24 W
1255 599 PD
24 W
1521 982 PD
24 W
1632 1306 PD
24 W
1327 798 PD
24 W
1113 1281 PD
24 W
1128 1096 PD
24 W
1457 1080 PD
24 W
1263 533 PD
24 W
1119 861 PD
gs 899 440 857 1069 rc
/c9 { 1.000000 0.000000 0.000000 sr} bdef
c9
817 -1000 899 1440 2 MP stroke
gr
gr

c9
1 sg
0 1068 856 0 0 -1068 2026 1508 4 MP
PP
-856 0 0 1068 856 0 0 -1068 2026 1508 5 MP stroke
4 w
DO
SO
6 w
0 sg
2026 1508 mt 2882 1508 L
2026 1508 mt 2026  440 L
2178 1508 mt 2178 1497 L
2452 1508 mt 2452 1497 L
2725 1508 mt 2725 1497 L
2026 1323 mt 2036 1323 L
2026 1000 mt 2036 1000 L
2026  677 mt 2036  677 L
2113  345 mt 
(P1:2 P1:2\(F\)) s
gs 2026 440 857 1069 rc
gr

gs 1953 367 1003 1215 rc
24 W
c8
2285 854 PD
24 W
2340 1218 PD
24 W
2211 666 PD
24 W
2090 887 PD
24 W
2496 1201 PD
24 W
2474 1122 PD
24 W
2173 975 PD
24 W
2300 1011 PD
24 W
2328 1060 PD
24 W
2523 1450 PD
24 W
2139 1300 PD
24 W
2242 1029 PD
24 W
2772 462 PD
24 W
2262 1239 PD
24 W
2577 880 PD
24 W
2347 827 PD
24 W
2342 1179 PD
24 W
2622 753 PD
24 W
2364 651 PD
24 W
2225 1336 PD
24 W
2270 556 PD
24 W
2259 1458 PD
24 W
2070 1081 PD
24 W
2631 1016 PD
24 W
2453 444 PD
24 W
2348 1193 PD
24 W
2265 1269 PD
24 W
2309 1182 PD
24 W
2319 1180 PD
24 W
2529 1016 PD
24 W
2374 1150 PD
24 W
2332 1353 PD
24 W
2509 1312 PD
24 W
2140 925 PD
24 W
2239 1279 PD
24 W
2203 1380 PD
24 W
2235 1154 PD
24 W
2234 1326 PD
24 W
2344 826 PD
24 W
2251 1227 PD
24 W
2274 987 PD
24 W
2372 965 PD
24 W
2382 842 PD
24 W
2175 1119 PD
24 W
2464 836 PD
24 W
2257 951 PD
24 W
2201 1256 PD
24 W
2401 1151 PD
24 W
2284 669 PD
24 W
2371 1364 PD
24 W
2410 1015 PD
24 W
2344 1222 PD
24 W
2446 1327 PD
24 W
2218 697 PD
24 W
2333 1351 PD
24 W
2419 1214 PD
24 W
2026 1259 PD
24 W
2581 800 PD
24 W
2247 1080 PD
24 W
2294 856 PD
24 W
2534 717 PD
24 W
2271 915 PD
24 W
2285 610 PD
24 W
2292 1329 PD
24 W
2446 1323 PD
24 W
2766 1116 PD
24 W
2233 1313 PD
24 W
2207 1115 PD
24 W
2268 1215 PD
24 W
2158 1194 PD
24 W
2430 1032 PD
24 W
2430 1069 PD
24 W
2243 734 PD
24 W
2296 992 PD
24 W
2378 1192 PD
24 W
2367 1301 PD
24 W
2272 1151 PD
24 W
2263 1170 PD
24 W
2262 1242 PD
24 W
2488 870 PD
24 W
2255 1205 PD
24 W
2273 1093 PD
24 W
2478 857 PD
24 W
2230 1351 PD
24 W
2447 1094 PD
24 W
2201 1339 PD
24 W
2386 1273 PD
24 W
2316 1319 PD
24 W
2406 1455 PD
24 W
2330 1117 PD
24 W
2087 1414 PD
24 W
2773 894 PD
24 W
2213 1268 PD
24 W
2447 1073 PD
24 W
2244 1342 PD
24 W
2467 806 PD
24 W
2291 917 PD
24 W
2206 1316 PD
24 W
2389 1326 PD
24 W
2387 866 PD
24 W
2351 1064 PD
24 W
2566 1203 PD
24 W
2258 1251 PD
24 W
2135 931 PD
24 W
2384 944 PD
24 W
2282 813 PD
24 W
2312 1105 PD
24 W
2237 1043 PD
24 W
2181 1330 PD
24 W
2349 1151 PD
24 W
2412 584 PD
24 W
2245 1348 PD
24 W
2342 1121 PD
24 W
2284 1368 PD
24 W
2150 1308 PD
24 W
2369 1368 PD
24 W
2452 701 PD
24 W
2455 1172 PD
24 W
2283 1059 PD
24 W
2162 1018 PD
24 W
2439 1210 PD
24 W
2473 1421 PD
24 W
2344 1184 PD
24 W
2410 736 PD
24 W
2352 1288 PD
24 W
2733 440 PD
24 W
2139 788 PD
24 W
2296 1041 PD
24 W
2742 1175 PD
24 W
2232 1388 PD
24 W
2474 832 PD
24 W
2150 1461 PD
24 W
2342 693 PD
24 W
2547 1239 PD
24 W
2088 1020 PD
24 W
2437 1186 PD
24 W
2257 1239 PD
24 W
2718 871 PD
24 W
2385 1118 PD
24 W
2344 1307 PD
24 W
2368 1190 PD
24 W
2389 862 PD
24 W
2236 1089 PD
24 W
2148 1427 PD
24 W
2508 686 PD
24 W
2632 1253 PD
24 W
2307 1337 PD
24 W
2315 1049 PD
24 W
2271 1253 PD
24 W
2320 1223 PD
24 W
2243 1212 PD
24 W
2330 1236 PD
24 W
2208 1105 PD
24 W
2208 595 PD
24 W
2108 1508 PD
24 W
2242 968 PD
24 W
2369 1270 PD
24 W
2466 1189 PD
24 W
2193 1337 PD
24 W
2394 1296 PD
24 W
2339 1175 PD
24 W
2207 1059 PD
24 W
2307 1096 PD
24 W
2446 1151 PD
24 W
2769 1177 PD
24 W
2140 1103 PD
24 W
2412 791 PD
24 W
2354 1074 PD
24 W
2249 1154 PD
24 W
2409 944 PD
24 W
2463 867 PD
24 W
2603 869 PD
24 W
2168 1148 PD
24 W
2128 1362 PD
24 W
2251 861 PD
24 W
2208 1398 PD
24 W
2258 1106 PD
24 W
2191 956 PD
24 W
2199 1424 PD
24 W
2207 1298 PD
24 W
2299 1316 PD
24 W
2486 1280 PD
24 W
2173 628 PD
24 W
2203 1087 PD
24 W
2642 1290 PD
24 W
2039 821 PD
24 W
2645 1320 PD
24 W
2064 1308 PD
24 W
2409 1383 PD
24 W
2192 1365 PD
24 W
2230 1430 PD
24 W
2247 979 PD
24 W
2882 1349 PD
24 W
2767 831 PD
24 W
2418 483 PD
24 W
2360 1116 PD
24 W
2441 934 PD
24 W
2480 951 PD
24 W
2386 1254 PD
24 W
2201 617 PD
gs 2026 440 857 1069 rc
c9
857 -1012 2026 1503 2 MP stroke
gr
gr

c9
1 sg
0 1068 856 0 0 -1068 3152 1508 4 MP
PP
-856 0 0 1068 856 0 0 -1068 3152 1508 5 MP stroke
4 w
DO
SO
6 w
0 sg
3152 1508 mt 4008 1508 L
3152 1508 mt 3152  440 L
3188 1508 mt 3188 1497 L
3629 1508 mt 3629 1497 L
3152 1428 mt 3162 1428 L
3152 1139 mt 3162 1139 L
3152  851 mt 3162  851 L
3152  562 mt 3162  562 L
3235  345 mt 
(P1:3 P1:3\(S\)) s
gs 3152 440 857 1069 rc
gr

gs 3079 367 1003 1215 rc
24 W
c8
3910 1075 PD
24 W
3291 1177 PD
24 W
3338 1262 PD
24 W
3266 1430 PD
24 W
3665 1234 PD
24 W
3393 1273 PD
24 W
3888 1397 PD
24 W
3292 1368 PD
24 W
3593 747 PD
24 W
3730 937 PD
24 W
3359 1113 PD
24 W
3291 1366 PD
24 W
3669 1037 PD
24 W
3577 1378 PD
24 W
3596 996 PD
24 W
3739 1167 PD
24 W
3357 440 PD
24 W
3437 1320 PD
24 W
3252 1396 PD
24 W
3606 1391 PD
24 W
3499 1355 PD
24 W
3539 1206 PD
24 W
3258 1464 PD
24 W
3356 1311 PD
24 W
3354 1432 PD
24 W
3567 1289 PD
24 W
3347 1155 PD
24 W
3448 1250 PD
24 W
3402 1402 PD
24 W
3382 1398 PD
24 W
3165 1413 PD
24 W
3670 1293 PD
24 W
3547 1433 PD
24 W
3251 1435 PD
24 W
3676 1086 PD
24 W
3275 1369 PD
24 W
3994 1372 PD
24 W
3641 1396 PD
24 W
3884 1147 PD
24 W
3582 1238 PD
24 W
3217 1384 PD
24 W
3675 1326 PD
24 W
3534 1328 PD
24 W
3683 809 PD
24 W
3361 1350 PD
24 W
3293 1182 PD
24 W
3777 1261 PD
24 W
3372 1264 PD
24 W
3181 1230 PD
24 W
3236 1461 PD
24 W
3431 1461 PD
24 W
3560 1226 PD
24 W
3425 1210 PD
24 W
3436 1302 PD
24 W
3473 1374 PD
24 W
3271 1357 PD
24 W
3413 1209 PD
24 W
3271 1330 PD
24 W
3251 1408 PD
24 W
3260 1422 PD
24 W
3301 1391 PD
24 W
3669 1281 PD
24 W
3314 1307 PD
24 W
3929 1366 PD
24 W
3319 1119 PD
24 W
3611 1407 PD
24 W
3828 1324 PD
24 W
3526 1008 PD
24 W
3337 1251 PD
24 W
3408 1445 PD
24 W
3560 1257 PD
24 W
3533 1307 PD
24 W
3253 1431 PD
24 W
3570 1212 PD
24 W
3628 1321 PD
24 W
3579 1211 PD
24 W
3254 1278 PD
24 W
3420 1375 PD
24 W
3430 1412 PD
24 W
3512 1215 PD
24 W
3859 1340 PD
24 W
3589 1240 PD
24 W
3298 1508 PD
24 W
3353 1448 PD
24 W
3423 1403 PD
24 W
3312 1293 PD
24 W
3409 1263 PD
24 W
3445 1332 PD
24 W
3330 1499 PD
24 W
3585 1285 PD
24 W
3304 1422 PD
24 W
3246 1387 PD
24 W
3332 1388 PD
24 W
3268 1436 PD
24 W
3304 1405 PD
24 W
3434 1458 PD
24 W
3448 1494 PD
24 W
3422 1161 PD
24 W
3371 1343 PD
24 W
3236 1420 PD
24 W
3598 1053 PD
24 W
3350 1311 PD
24 W
3456 1209 PD
24 W
3335 1404 PD
24 W
3528 1410 PD
24 W
3575 1438 PD
24 W
3267 1357 PD
24 W
3531 1350 PD
24 W
3352 1303 PD
24 W
3266 1476 PD
24 W
3414 1189 PD
24 W
3487 1498 PD
24 W
3521 1326 PD
24 W
3288 1387 PD
24 W
3408 1473 PD
24 W
3617 1426 PD
24 W
3513 1454 PD
24 W
3357 1435 PD
24 W
3354 1401 PD
24 W
3335 1028 PD
24 W
3340 1323 PD
24 W
3334 1373 PD
24 W
3481 1294 PD
24 W
3315 1353 PD
24 W
3370 1050 PD
24 W
3426 1361 PD
24 W
3405 1439 PD
24 W
3407 1399 PD
24 W
3263 1356 PD
24 W
3381 1290 PD
24 W
3342 1317 PD
24 W
3295 1400 PD
24 W
3493 1370 PD
24 W
3406 1116 PD
24 W
3358 1416 PD
24 W
3344 1397 PD
24 W
3157 1454 PD
24 W
3565 677 PD
24 W
3342 1450 PD
24 W
3474 1198 PD
24 W
3350 1062 PD
24 W
3756 1193 PD
24 W
3478 1322 PD
24 W
3249 1395 PD
24 W
3411 1249 PD
24 W
3525 1405 PD
24 W
3586 1084 PD
24 W
3674 1386 PD
24 W
3804 1036 PD
24 W
4008 1394 PD
24 W
3446 1357 PD
24 W
3310 1337 PD
24 W
3384 1265 PD
24 W
3345 1403 PD
24 W
3577 1017 PD
24 W
3705 1044 PD
24 W
3409 1425 PD
24 W
3405 1230 PD
24 W
3391 1352 PD
24 W
3610 1254 PD
24 W
3430 1310 PD
24 W
3369 1423 PD
24 W
3183 1238 PD
24 W
3453 1419 PD
24 W
3348 1494 PD
24 W
3327 1494 PD
24 W
3268 1419 PD
24 W
3478 1406 PD
24 W
3818 1195 PD
24 W
3464 1371 PD
24 W
3453 1394 PD
24 W
3321 1493 PD
24 W
3252 1455 PD
24 W
3221 1482 PD
24 W
3247 1363 PD
24 W
3285 1385 PD
24 W
3184 1473 PD
24 W
3161 1464 PD
24 W
3253 1401 PD
24 W
3390 1413 PD
24 W
3248 1471 PD
24 W
3152 1263 PD
24 W
3347 1324 PD
24 W
3366 1219 PD
24 W
3462 1332 PD
24 W
3506 1248 PD
24 W
3325 1488 PD
24 W
3345 1394 PD
24 W
3901 1443 PD
24 W
3390 1004 PD
24 W
3216 1465 PD
24 W
3287 1425 PD
24 W
3582 1353 PD
24 W
3688 1174 PD
24 W
3651 1188 PD
24 W
3656 1124 PD
24 W
3416 1377 PD
24 W
3390 1250 PD
24 W
3636 1289 PD
24 W
3497 1204 PD
gs 3152 440 857 1069 rc
c9
857 -561 3152 1452 2 MP stroke
gr
gr

c9
1 sg
0 1068 856 0 0 -1068 4278 1508 4 MP
PP
-856 0 0 1068 856 0 0 -1068 4278 1508 5 MP stroke
4 w
DO
SO
6 w
0 sg
4278 1508 mt 5134 1508 L
4278 1508 mt 4278  440 L
4350 1508 mt 4350 1497 L
4507 1508 mt 4507 1497 L
4665 1508 mt 4665 1497 L
4823 1508 mt 4823 1497 L
4981 1508 mt 4981 1497 L
4278 1425 mt 4288 1425 L
4278 1088 mt 4288 1088 L
4278  752 mt 4288  752 L
4361  345 mt 
(P1:4 P1:4\(S\)) s
gs 4278 440 857 1069 rc
gr

gs 4205 367 1003 1215 rc
24 W
c8
4945 647 PD
24 W
4578 869 PD
24 W
4678 1028 PD
24 W
4461 1138 PD
24 W
4755 1138 PD
24 W
4573 910 PD
24 W
4675 1292 PD
24 W
4423 1208 PD
24 W
4512 861 PD
24 W
5018 921 PD
24 W
4298 827 PD
24 W
4358 1304 PD
24 W
4575 805 PD
24 W
4696 1009 PD
24 W
4416 1073 PD
24 W
4428 891 PD
24 W
4742 907 PD
24 W
4471 1222 PD
24 W
4684 936 PD
24 W
4614 1208 PD
24 W
4436 1265 PD
24 W
4773 1115 PD
24 W
4484 1266 PD
24 W
4378 1292 PD
24 W
4554 1384 PD
24 W
4456 1136 PD
24 W
4487 1106 PD
24 W
4424 1110 PD
24 W
4612 831 PD
24 W
4459 964 PD
24 W
4282 1388 PD
24 W
4543 1391 PD
24 W
4539 1345 PD
24 W
4591 1001 PD
24 W
4517 1010 PD
24 W
4560 1229 PD
24 W
4695 1302 PD
24 W
4367 1215 PD
24 W
4643 1157 PD
24 W
4732 983 PD
24 W
4452 1506 PD
24 W
4751 993 PD
24 W
4478 1144 PD
24 W
4680 642 PD
24 W
4439 1262 PD
24 W
4584 994 PD
24 W
4566 1029 PD
24 W
4521 690 PD
24 W
4481 1036 PD
24 W
4373 1191 PD
24 W
4670 1211 PD
24 W
4575 1041 PD
24 W
4397 948 PD
24 W
4567 1384 PD
24 W
4363 1212 PD
24 W
4283 1447 PD
24 W
4425 1008 PD
24 W
4610 1019 PD
24 W
4497 941 PD
24 W
4428 1221 PD
24 W
4559 1298 PD
24 W
4817 1147 PD
24 W
4890 1138 PD
24 W
4734 1125 PD
24 W
4880 1045 PD
24 W
4397 1038 PD
24 W
4562 961 PD
24 W
4442 841 PD
24 W
4432 944 PD
24 W
4478 1193 PD
24 W
4497 970 PD
24 W
4580 1010 PD
24 W
4498 1355 PD
24 W
4741 1020 PD
24 W
4593 999 PD
24 W
4479 917 PD
24 W
4587 842 PD
24 W
4799 1188 PD
24 W
4509 1257 PD
24 W
4595 1198 PD
24 W
4804 1256 PD
24 W
4494 856 PD
24 W
4654 1386 PD
24 W
4305 1339 PD
24 W
4525 1324 PD
24 W
4451 752 PD
24 W
4464 1342 PD
24 W
4478 1259 PD
24 W
4441 1344 PD
24 W
4925 527 PD
24 W
4344 1466 PD
24 W
4454 1109 PD
24 W
4447 1151 PD
24 W
4469 1332 PD
24 W
4431 1082 PD
24 W
4472 1381 PD
24 W
4398 1429 PD
24 W
4646 1240 PD
24 W
4403 1062 PD
24 W
4361 1186 PD
24 W
4868 1030 PD
24 W
4373 999 PD
24 W
4983 1110 PD
24 W
4537 1333 PD
24 W
4397 1277 PD
24 W
4468 1331 PD
24 W
4497 1178 PD
24 W
4575 1328 PD
24 W
4437 1359 PD
24 W
4581 1080 PD
24 W
4440 1170 PD
24 W
4437 1192 PD
24 W
4514 1184 PD
24 W
4470 941 PD
24 W
4680 1017 PD
24 W
4688 1143 PD
24 W
4547 1115 PD
24 W
4548 1455 PD
24 W
4405 1223 PD
24 W
4392 1088 PD
24 W
4321 1226 PD
24 W
4421 1508 PD
24 W
4558 1168 PD
24 W
4568 441 PD
24 W
4868 1028 PD
24 W
4665 984 PD
24 W
4441 1173 PD
24 W
4494 1346 PD
24 W
4536 1064 PD
24 W
4506 1292 PD
24 W
4627 1017 PD
24 W
4420 1357 PD
24 W
4389 1049 PD
24 W
4645 1205 PD
24 W
4533 1210 PD
24 W
4390 1237 PD
24 W
4278 1339 PD
24 W
4578 1016 PD
24 W
4494 1325 PD
24 W
4597 963 PD
24 W
4374 1247 PD
24 W
4748 805 PD
24 W
4411 1058 PD
24 W
4595 1250 PD
24 W
4633 1321 PD
24 W
4734 1208 PD
24 W
4608 923 PD
24 W
4870 791 PD
24 W
4445 1080 PD
24 W
4814 1113 PD
24 W
4576 1099 PD
24 W
4411 1271 PD
24 W
4526 1002 PD
24 W
4477 1098 PD
24 W
4844 575 PD
24 W
4441 1168 PD
24 W
4765 1267 PD
24 W
4427 1386 PD
24 W
4643 1055 PD
24 W
4573 1025 PD
24 W
4567 761 PD
24 W
4431 1264 PD
24 W
4688 1054 PD
24 W
4433 1073 PD
24 W
4477 1219 PD
24 W
4379 1396 PD
24 W
4374 1312 PD
24 W
4315 1267 PD
24 W
4420 835 PD
24 W
4476 1064 PD
24 W
4443 1313 PD
24 W
4477 1340 PD
24 W
4377 1434 PD
24 W
4788 782 PD
24 W
4422 1355 PD
24 W
4456 1029 PD
24 W
4483 1271 PD
24 W
4363 1411 PD
24 W
4809 1304 PD
24 W
4643 1387 PD
24 W
4303 1330 PD
24 W
4678 1129 PD
24 W
4718 1181 PD
24 W
4731 896 PD
24 W
4567 1161 PD
24 W
4733 1322 PD
24 W
4821 1386 PD
24 W
5129 1105 PD
24 W
4850 1044 PD
24 W
5134 639 PD
24 W
4863 1269 PD
24 W
5012 1140 PD
24 W
4460 1198 PD
24 W
4636 861 PD
24 W
4902 1058 PD
24 W
4753 440 PD
24 W
4353 1156 PD
24 W
4852 778 PD
24 W
4416 1226 PD
24 W
4541 979 PD
gs 4278 440 857 1069 rc
c9
837 -894 4278 1334 2 MP stroke
gr
gr

c9
1 sg
0 1068 856 0 0 -1068 5405 1508 4 MP
PP
-856 0 0 1068 856 0 0 -1068 5405 1508 5 MP stroke
4 w
DO
SO
6 w
0 sg
5405 1508 mt 6261 1508 L
5405 1508 mt 5405  440 L
5409 1508 mt 5409 1497 L
5616 1508 mt 5616 1497 L
5823 1508 mt 5823 1497 L
6030 1508 mt 6030 1497 L
6236 1508 mt 6236 1497 L
5405 1425 mt 5415 1425 L
5405 1099 mt 5415 1099 L
5405  773 mt 5415  773 L
5405  447 mt 5415  447 L
5488  345 mt 
(P1:5 P1:5\(S\)) s
gs 5405 440 857 1069 rc
gr

gs 5332 367 1003 1215 rc
24 W
c8
5864 929 PD
24 W
5766 813 PD
24 W
5993 1023 PD
24 W
5806 1182 PD
24 W
5714 1083 PD
24 W
5695 1106 PD
24 W
5703 1310 PD
24 W
5465 980 PD
24 W
5785 507 PD
24 W
5798 739 PD
24 W
5505 790 PD
24 W
5666 1255 PD
24 W
5599 917 PD
24 W
5866 1225 PD
24 W
5673 754 PD
24 W
5713 822 PD
24 W
5689 888 PD
24 W
5676 1104 PD
24 W
5873 716 PD
24 W
5667 1294 PD
24 W
5720 946 PD
24 W
5838 1050 PD
24 W
5746 1198 PD
24 W
5731 1146 PD
24 W
5737 1024 PD
24 W
5690 1133 PD
24 W
5616 939 PD
24 W
5510 827 PD
24 W
5941 978 PD
24 W
5719 1139 PD
24 W
5405 1255 PD
24 W
5880 1442 PD
24 W
5799 1216 PD
24 W
5628 926 PD
24 W
5707 933 PD
24 W
5745 1175 PD
24 W
5938 1153 PD
24 W
5668 1180 PD
24 W
5624 1101 PD
24 W
5611 794 PD
24 W
5555 1487 PD
24 W
5848 935 PD
24 W
5692 1170 PD
24 W
5948 673 PD
24 W
5771 1231 PD
24 W
5731 917 PD
24 W
5740 862 PD
24 W
5602 806 PD
24 W
5530 1089 PD
24 W
5784 1234 PD
24 W
5778 1133 PD
24 W
5913 1062 PD
24 W
5560 963 PD
24 W
5600 1316 PD
24 W
5755 1101 PD
24 W
5474 1368 PD
24 W
5703 936 PD
24 W
5701 1037 PD
24 W
5485 944 PD
24 W
5529 1240 PD
24 W
5429 1194 PD
24 W
5937 1222 PD
24 W
5763 711 PD
24 W
5701 1268 PD
24 W
5852 1234 PD
24 W
5764 1222 PD
24 W
5962 1152 PD
24 W
5482 740 PD
24 W
5811 944 PD
24 W
5671 1214 PD
24 W
5605 1032 PD
24 W
5465 1180 PD
24 W
5526 1442 PD
24 W
5741 901 PD
24 W
5595 931 PD
24 W
5664 983 PD
24 W
5610 1044 PD
24 W
5872 1027 PD
24 W
5603 1152 PD
24 W
5550 1021 PD
24 W
6165 1142 PD
24 W
5703 883 PD
24 W
5765 1335 PD
24 W
5848 1280 PD
24 W
5998 1324 PD
24 W
5459 736 PD
24 W
5639 1092 PD
24 W
5738 1233 PD
24 W
5541 1314 PD
24 W
5914 1057 PD
24 W
5603 1351 PD
24 W
5817 1126 PD
24 W
5726 1110 PD
24 W
5546 1386 PD
24 W
5451 1027 PD
24 W
5660 1315 PD
24 W
5496 1403 PD
24 W
5754 1026 PD
24 W
5531 1237 PD
24 W
5711 1295 PD
24 W
5844 780 PD
24 W
5433 1261 PD
24 W
5614 823 PD
24 W
5473 1274 PD
24 W
5489 1249 PD
24 W
5868 1219 PD
24 W
5700 780 PD
24 W
5695 1239 PD
24 W
5666 1045 PD
24 W
5701 1347 PD
24 W
5740 831 PD
24 W
5765 1240 PD
24 W
5641 859 PD
24 W
5636 1372 PD
24 W
5795 1261 PD
24 W
5722 1265 PD
24 W
5812 1309 PD
24 W
5572 1482 PD
24 W
5710 1041 PD
24 W
5515 940 PD
24 W
5512 1003 PD
24 W
5813 1508 PD
24 W
5691 1021 PD
24 W
5652 1216 PD
24 W
6065 440 PD
24 W
5570 1016 PD
24 W
5667 1206 PD
24 W
5726 1260 PD
24 W
5787 1047 PD
24 W
6198 1273 PD
24 W
5802 653 PD
24 W
5434 1156 PD
24 W
5450 1113 PD
24 W
5606 1073 PD
24 W
5947 652 PD
24 W
5778 1119 PD
24 W
5501 1285 PD
24 W
5842 703 PD
24 W
5707 1145 PD
24 W
5719 1282 PD
24 W
5432 1065 PD
24 W
5791 943 PD
24 W
5561 1123 PD
24 W
5699 1379 PD
24 W
5671 1178 PD
24 W
5886 1165 PD
24 W
5835 667 PD
24 W
6037 800 PD
24 W
5905 731 PD
24 W
5898 1026 PD
24 W
5596 1163 PD
24 W
5596 1233 PD
24 W
5873 721 PD
24 W
5517 1079 PD
24 W
5856 606 PD
24 W
5629 817 PD
24 W
5957 720 PD
24 W
5634 1296 PD
24 W
5567 1192 PD
24 W
5710 1233 PD
24 W
5665 1181 PD
24 W
5569 1303 PD
24 W
5951 1223 PD
24 W
5814 819 PD
24 W
5952 1307 PD
24 W
6019 1372 PD
24 W
5658 1179 PD
24 W
5663 1222 PD
24 W
5862 920 PD
24 W
5638 1215 PD
24 W
6171 1280 PD
24 W
5871 1271 PD
24 W
5518 1376 PD
24 W
5713 1084 PD
24 W
5584 1266 PD
24 W
5657 1134 PD
24 W
5723 1325 PD
24 W
5889 1452 PD
24 W
5986 1221 PD
24 W
5966 1416 PD
24 W
6261 1282 PD
24 W
5668 1095 PD
24 W
6006 1260 PD
24 W
6148 656 PD
24 W
6151 1302 PD
24 W
6226 1093 PD
24 W
6018 1302 PD
24 W
5958 964 PD
24 W
6108 1299 PD
24 W
6161 730 PD
24 W
5732 1246 PD
24 W
6253 703 PD
24 W
5748 1131 PD
24 W
5779 1085 PD
24 W
6019 1062 PD
24 W
5770 1030 PD
24 W
5467 1354 PD
24 W
5949 663 PD
24 W
5577 1227 PD
24 W
5624 1080 PD
gs 5405 440 857 1069 rc
c9
857 -676 5405 1266 2 MP stroke
gr
gr

c9
1 sg
0 1069 856 0 0 -1069 899 3062 4 MP
PP
-856 0 0 1069 856 0 0 -1069 899 3062 5 MP stroke
4 w
DO
SO
6 w
0 sg
 899 3062 mt 1755 3062 L
 899 3062 mt  899 1993 L
1039 3062 mt 1039 3051 L
1215 3062 mt 1215 3051 L
1391 3062 mt 1391 3051 L
1567 3062 mt 1567 3051 L
1743 3062 mt 1743 3051 L
 899 2897 mt  909 2897 L
 899 2706 mt  909 2706 L
 899 2514 mt  909 2514 L
 899 2323 mt  909 2323 L
 899 2131 mt  909 2131 L
 986 1898 mt 
(P1:6 P1:6\(F\)) s
gs 899 1993 857 1070 rc
gr

gs 826 1920 1003 1216 rc
24 W
c8
1323 2563 PD
24 W
1123 2893 PD
24 W
1109 2772 PD
24 W
912 2944 PD
24 W
944 3010 PD
24 W
1241 2818 PD
24 W
927 2889 PD
24 W
1017 2743 PD
24 W
1096 2689 PD
24 W
1125 2908 PD
24 W
1004 2932 PD
24 W
1081 2664 PD
24 W
1289 2675 PD
24 W
1227 2877 PD
24 W
1323 2702 PD
24 W
1123 2520 PD
24 W
1042 2681 PD
24 W
1143 2850 PD
24 W
1069 2869 PD
24 W
1142 3003 PD
24 W
940 3047 PD
24 W
992 3039 PD
24 W
917 2848 PD
24 W
1150 2949 PD
24 W
1231 2720 PD
24 W
980 3034 PD
24 W
952 2932 PD
24 W
1340 2855 PD
24 W
1085 2906 PD
24 W
1097 2874 PD
24 W
1040 2840 PD
24 W
960 2750 PD
24 W
1140 2819 PD
24 W
899 2926 PD
24 W
1080 2940 PD
24 W
1003 2976 PD
24 W
939 2746 PD
24 W
930 2821 PD
24 W
1080 2924 PD
24 W
1143 2710 PD
24 W
1166 2620 PD
24 W
1306 2592 PD
24 W
1157 2550 PD
24 W
910 2874 PD
24 W
1441 2293 PD
24 W
1003 2557 PD
24 W
917 3030 PD
24 W
943 3009 PD
24 W
1093 2741 PD
24 W
1167 2960 PD
24 W
1144 2772 PD
24 W
1153 2870 PD
24 W
988 2870 PD
24 W
1175 2700 PD
24 W
918 3046 PD
24 W
1149 2952 PD
24 W
928 2648 PD
24 W
1232 2800 PD
24 W
1189 2421 PD
24 W
1109 2902 PD
24 W
1047 2813 PD
24 W
992 2900 PD
24 W
1150 2696 PD
24 W
1108 2667 PD
24 W
1421 2960 PD
24 W
1306 2891 PD
24 W
1575 2668 PD
24 W
1202 3041 PD
24 W
1219 2859 PD
24 W
1423 2759 PD
24 W
957 1993 PD
24 W
1214 2786 PD
24 W
1044 2875 PD
24 W
917 3019 PD
24 W
965 2964 PD
24 W
1237 3005 PD
24 W
1368 2332 PD
24 W
1053 2674 PD
24 W
943 2997 PD
24 W
1011 2777 PD
24 W
1356 2996 PD
24 W
913 2893 PD
24 W
1455 2340 PD
24 W
914 3040 PD
24 W
1013 2858 PD
24 W
1051 2937 PD
24 W
1277 2786 PD
24 W
1293 2791 PD
24 W
944 2961 PD
24 W
1120 2813 PD
24 W
1078 2781 PD
24 W
1372 2579 PD
24 W
988 2892 PD
24 W
1133 3018 PD
24 W
1067 2820 PD
24 W
1210 2979 PD
24 W
1025 2898 PD
24 W
1214 2919 PD
24 W
970 3042 PD
24 W
1164 2608 PD
24 W
1381 2744 PD
24 W
1096 2997 PD
24 W
1120 2849 PD
24 W
1102 2746 PD
24 W
1009 3040 PD
24 W
992 2759 PD
24 W
1235 2333 PD
24 W
1007 2824 PD
24 W
915 2753 PD
24 W
1020 2897 PD
24 W
1206 2449 PD
24 W
950 3041 PD
24 W
1175 2837 PD
24 W
1013 3062 PD
24 W
965 3005 PD
24 W
1059 2949 PD
24 W
1037 2816 PD
24 W
1343 2930 PD
24 W
1009 2698 PD
24 W
1039 2670 PD
24 W
1045 2731 PD
24 W
1018 2780 PD
24 W
1186 2754 PD
24 W
996 2952 PD
24 W
1072 2800 PD
24 W
1530 2875 PD
24 W
1200 2713 PD
24 W
1257 2860 PD
24 W
1154 2561 PD
24 W
1002 2988 PD
24 W
1308 2600 PD
24 W
957 3007 PD
24 W
1030 2867 PD
24 W
1064 2856 PD
24 W
950 2847 PD
24 W
1154 2647 PD
24 W
1093 3014 PD
24 W
1121 2753 PD
24 W
1042 2887 PD
24 W
1052 3027 PD
24 W
1089 2799 PD
24 W
1392 2688 PD
24 W
984 2929 PD
24 W
940 2981 PD
24 W
1118 3005 PD
24 W
1053 2885 PD
24 W
1074 2678 PD
24 W
1269 2798 PD
24 W
1099 2747 PD
24 W
968 2922 PD
24 W
1029 2942 PD
24 W
929 3028 PD
24 W
978 2792 PD
24 W
913 2848 PD
24 W
1138 3036 PD
24 W
1027 2823 PD
24 W
1104 2954 PD
24 W
1020 3045 PD
24 W
992 2988 PD
24 W
966 3021 PD
24 W
1049 2836 PD
24 W
972 2815 PD
24 W
1120 2729 PD
24 W
947 2982 PD
24 W
917 3019 PD
24 W
1010 2850 PD
24 W
1044 2366 PD
24 W
1084 2886 PD
24 W
1080 2666 PD
24 W
1157 2648 PD
24 W
1136 2761 PD
24 W
1106 2746 PD
24 W
1064 2724 PD
24 W
914 3014 PD
24 W
951 2731 PD
24 W
1391 2861 PD
24 W
1140 2977 PD
24 W
1058 2943 PD
24 W
1156 3011 PD
24 W
980 2969 PD
24 W
1058 2930 PD
24 W
919 3013 PD
24 W
956 2513 PD
24 W
1755 2425 PD
24 W
973 2990 PD
24 W
916 2408 PD
24 W
1178 2949 PD
24 W
1105 2842 PD
24 W
922 2961 PD
24 W
908 3019 PD
24 W
947 2973 PD
24 W
1074 2821 PD
24 W
1220 2762 PD
24 W
1113 2956 PD
24 W
1117 2840 PD
24 W
1062 2974 PD
24 W
1056 2744 PD
24 W
1145 2757 PD
24 W
1238 2873 PD
24 W
1089 2816 PD
gs 899 1993 857 1070 rc
c9
857 -934 899 3051 2 MP stroke
gr
gr

c9
1 sg
0 1069 856 0 0 -1069 2026 3062 4 MP
PP
-856 0 0 1069 856 0 0 -1069 2026 3062 5 MP stroke
4 w
DO
SO
6 w
0 sg
2026 3062 mt 2882 3062 L
2026 3062 mt 2026 1993 L
2134 3062 mt 2134 3051 L
2333 3062 mt 2333 3051 L
2532 3062 mt 2532 3051 L
2731 3062 mt 2731 3051 L
2026 2934 mt 2036 2934 L
2026 2725 mt 2036 2725 L
2026 2517 mt 2036 2517 L
2026 2308 mt 2036 2308 L
2026 2099 mt 2036 2099 L
2113 1898 mt 
(P1:7 P1:7\(F\)) s
gs 2026 1993 857 1070 rc
gr

gs 1953 1920 1003 1216 rc
24 W
c8
2380 2473 PD
24 W
2245 2797 PD
24 W
2279 2698 PD
24 W
2076 2896 PD
24 W
2152 2991 PD
24 W
2330 2797 PD
24 W
2109 2724 PD
24 W
2221 2650 PD
24 W
2226 2747 PD
24 W
2374 2811 PD
24 W
2214 2872 PD
24 W
2282 2633 PD
24 W
2408 2580 PD
24 W
2369 2845 PD
24 W
2397 2679 PD
24 W
2406 2411 PD
24 W
2281 2654 PD
24 W
2289 2759 PD
24 W
2237 2767 PD
24 W
2314 2905 PD
24 W
2089 3023 PD
24 W
2210 3006 PD
24 W
2094 2733 PD
24 W
2352 2892 PD
24 W
2355 2609 PD
24 W
2159 3001 PD
24 W
2151 2870 PD
24 W
2440 2701 PD
24 W
2255 2848 PD
24 W
2258 2808 PD
24 W
2241 2819 PD
24 W
2155 2626 PD
24 W
2371 2772 PD
24 W
2026 2887 PD
24 W
2296 2868 PD
24 W
2232 2840 PD
24 W
2141 2694 PD
24 W
2107 2813 PD
24 W
2313 2852 PD
24 W
2301 2606 PD
24 W
2335 2513 PD
24 W
2496 2532 PD
24 W
2277 2481 PD
24 W
2069 2781 PD
24 W
2882 1993 PD
24 W
2210 2532 PD
24 W
2101 2955 PD
24 W
2147 2944 PD
24 W
2284 2708 PD
24 W
2339 2881 PD
24 W
2359 2738 PD
24 W
2331 2817 PD
24 W
2207 2860 PD
24 W
2342 2618 PD
24 W
2085 3017 PD
24 W
2286 2792 PD
24 W
2112 2651 PD
24 W
2470 2664 PD
24 W
2424 2361 PD
24 W
2249 2785 PD
24 W
2205 2747 PD
24 W
2185 2770 PD
24 W
2335 2613 PD
24 W
2510 2399 PD
24 W
2417 2797 PD
24 W
2457 2839 PD
24 W
2558 2567 PD
24 W
2363 3019 PD
24 W
2370 2854 PD
24 W
2445 2716 PD
24 W
2175 2104 PD
24 W
2339 2775 PD
24 W
2234 2794 PD
24 W
2103 2957 PD
24 W
2182 2835 PD
24 W
2384 2922 PD
24 W
2565 2260 PD
24 W
2256 2559 PD
24 W
2135 2924 PD
24 W
2201 2794 PD
24 W
2567 2847 PD
24 W
2082 2753 PD
24 W
2477 2452 PD
24 W
2092 3029 PD
24 W
2213 2813 PD
24 W
2232 2891 PD
24 W
2380 2738 PD
24 W
2397 2575 PD
24 W
2157 2931 PD
24 W
2340 2731 PD
24 W
2240 2616 PD
24 W
2627 2603 PD
24 W
2182 2852 PD
24 W
2272 2945 PD
24 W
2270 2774 PD
24 W
2321 2907 PD
24 W
2200 2897 PD
24 W
2345 2901 PD
24 W
2184 3012 PD
24 W
2310 2639 PD
24 W
2509 2727 PD
24 W
2277 2874 PD
24 W
2332 2798 PD
24 W
2318 2650 PD
24 W
2173 3011 PD
24 W
2180 2594 PD
24 W
2360 2467 PD
24 W
2199 2740 PD
24 W
2096 2689 PD
24 W
2187 2820 PD
24 W
2405 2394 PD
24 W
2136 2999 PD
24 W
2359 2803 PD
24 W
2214 3062 PD
24 W
2173 2940 PD
24 W
2264 2887 PD
24 W
2333 2643 PD
24 W
2397 2754 PD
24 W
2223 2649 PD
24 W
2202 2577 PD
24 W
2238 2693 PD
24 W
2275 2791 PD
24 W
2335 2713 PD
24 W
2213 2874 PD
24 W
2330 2802 PD
24 W
2501 2776 PD
24 W
2340 2573 PD
24 W
2383 2618 PD
24 W
2370 2482 PD
24 W
2184 2930 PD
24 W
2583 2347 PD
24 W
2180 2936 PD
24 W
2222 2685 PD
24 W
2245 2824 PD
24 W
2153 2822 PD
24 W
2408 2607 PD
24 W
2252 2932 PD
24 W
2261 2693 PD
24 W
2274 2852 PD
24 W
2352 2947 PD
24 W
2270 2700 PD
24 W
2505 2495 PD
24 W
2193 2767 PD
24 W
2141 2930 PD
24 W
2329 2882 PD
24 W
2201 2835 PD
24 W
2252 2703 PD
24 W
2376 2853 PD
24 W
2276 2666 PD
24 W
2166 2813 PD
24 W
2246 2868 PD
24 W
2102 2979 PD
24 W
2179 2799 PD
24 W
2079 2841 PD
24 W
2381 2991 PD
24 W
2221 2717 PD
24 W
2232 2907 PD
24 W
2180 3014 PD
24 W
2195 2925 PD
24 W
2187 2971 PD
24 W
2215 2806 PD
24 W
2195 2741 PD
24 W
2363 2588 PD
24 W
2188 2862 PD
24 W
2089 2982 PD
24 W
2222 2779 PD
24 W
2225 2363 PD
24 W
2258 2762 PD
24 W
2239 2587 PD
24 W
2388 2640 PD
24 W
2281 2671 PD
24 W
2295 2731 PD
24 W
2214 2657 PD
24 W
2085 2960 PD
24 W
2149 2701 PD
24 W
2455 2776 PD
24 W
2307 2937 PD
24 W
2265 2910 PD
24 W
2358 2921 PD
24 W
2155 2909 PD
24 W
2225 2865 PD
24 W
2105 2983 PD
24 W
2163 2568 PD
24 W
2530 2651 PD
24 W
2202 2962 PD
24 W
2093 2448 PD
24 W
2355 2858 PD
24 W
2295 2657 PD
24 W
2122 2894 PD
24 W
2071 2927 PD
24 W
2128 2895 PD
24 W
2239 2766 PD
24 W
2394 2660 PD
24 W
2261 2845 PD
24 W
2271 2754 PD
24 W
2335 2851 PD
24 W
2260 2735 PD
24 W
2327 2629 PD
24 W
2422 2802 PD
24 W
2248 2718 PD
gs 2026 1993 857 1070 rc
c9
857 -899 2026 3048 2 MP stroke
gr
gr

c9
1 sg
0 1069 856 0 0 -1069 3152 3062 4 MP
PP
-856 0 0 1069 856 0 0 -1069 3152 3062 5 MP stroke
4 w
DO
SO
6 w
0 sg
3152 3062 mt 4008 3062 L
3152 3062 mt 3152 1993 L
3397 3062 mt 3397 3051 L
3701 3062 mt 3701 3051 L
4004 3062 mt 4004 3051 L
3152 2932 mt 3162 2932 L
3152 2755 mt 3162 2755 L
3152 2578 mt 3162 2578 L
3152 2401 mt 3162 2401 L
3152 2223 mt 3162 2223 L
3152 2046 mt 3162 2046 L
3239 1898 mt 
(P1:8 P1:8\(F\)) s
gs 3152 1993 857 1070 rc
gr

gs 3079 1920 1003 1216 rc
24 W
c8
3519 2297 PD
24 W
3344 2476 PD
24 W
3383 2716 PD
24 W
3414 2865 PD
24 W
3227 2798 PD
24 W
3382 2677 PD
24 W
3234 2745 PD
24 W
3268 2936 PD
24 W
3238 2695 PD
24 W
3374 3062 PD
24 W
3309 2980 PD
24 W
3365 2592 PD
24 W
3600 2653 PD
24 W
3299 2628 PD
24 W
3411 2733 PD
24 W
3273 2840 PD
24 W
3326 2560 PD
24 W
3322 2762 PD
24 W
3388 2449 PD
24 W
3153 2996 PD
24 W
3341 2972 PD
24 W
3214 3046 PD
24 W
3179 2591 PD
24 W
3386 2213 PD
24 W
3443 2642 PD
24 W
3257 2982 PD
24 W
3330 2831 PD
24 W
3757 2921 PD
24 W
3285 2646 PD
24 W
3290 2954 PD
24 W
3218 2970 PD
24 W
3300 2726 PD
24 W
3267 2262 PD
24 W
3185 2979 PD
24 W
3410 2903 PD
24 W
3202 2342 PD
24 W
3180 2599 PD
24 W
3248 2854 PD
24 W
3412 2936 PD
24 W
3229 2865 PD
24 W
3717 2601 PD
24 W
3528 2368 PD
24 W
3529 2481 PD
24 W
3219 2683 PD
24 W
3674 2661 PD
24 W
3430 2609 PD
24 W
3208 2947 PD
24 W
3209 2827 PD
24 W
3353 2842 PD
24 W
3512 2987 PD
24 W
3377 2711 PD
24 W
3282 2970 PD
24 W
3201 2863 PD
24 W
3335 2648 PD
24 W
3224 3030 PD
24 W
3349 2755 PD
24 W
3359 2357 PD
24 W
4008 2677 PD
24 W
3232 2257 PD
24 W
3486 2543 PD
24 W
3269 2768 PD
24 W
3243 2794 PD
24 W
3418 2927 PD
24 W
3312 2880 PD
24 W
3198 2693 PD
24 W
3510 2404 PD
24 W
3368 2965 PD
24 W
3271 3023 PD
24 W
3348 2860 PD
24 W
3266 2766 PD
24 W
3380 2136 PD
24 W
3414 2709 PD
24 W
3326 2596 PD
24 W
3181 2892 PD
24 W
3235 2872 PD
24 W
3241 2644 PD
24 W
3355 2311 PD
24 W
3430 2904 PD
24 W
3596 2507 PD
24 W
3204 2683 PD
24 W
3229 2448 PD
24 W
3187 2961 PD
24 W
3273 2656 PD
24 W
3157 2984 PD
24 W
3243 2894 PD
24 W
3251 2620 PD
24 W
3339 2684 PD
24 W
3515 2619 PD
24 W
3177 3050 PD
24 W
3388 2755 PD
24 W
3214 2861 PD
24 W
3579 2586 PD
24 W
3304 2394 PD
24 W
3351 2992 PD
24 W
3258 2757 PD
24 W
3467 2697 PD
24 W
3299 2771 PD
24 W
3279 2970 PD
24 W
3199 2603 PD
24 W
3396 2607 PD
24 W
3359 2537 PD
24 W
3501 3002 PD
24 W
3386 2247 PD
24 W
3214 2728 PD
24 W
3263 2855 PD
24 W
3389 2499 PD
24 W
3358 2589 PD
24 W
3440 2521 PD
24 W
3182 2926 PD
24 W
3398 2578 PD
24 W
3685 2736 PD
24 W
3327 2664 PD
24 W
3257 2679 PD
24 W
3187 2979 PD
24 W
3265 2732 PD
24 W
3371 2787 PD
24 W
3473 2295 PD
24 W
3478 2672 PD
24 W
3313 2830 PD
24 W
3219 2771 PD
24 W
3340 2593 PD
24 W
3210 2887 PD
24 W
3351 2791 PD
24 W
3423 1993 PD
24 W
3204 2409 PD
24 W
3803 2552 PD
24 W
3188 2993 PD
24 W
3276 2769 PD
24 W
3404 2484 PD
24 W
3247 2983 PD
24 W
3504 2279 PD
24 W
3212 3037 PD
24 W
3634 2536 PD
24 W
3287 2785 PD
24 W
3305 2657 PD
24 W
3363 2648 PD
24 W
3179 2816 PD
24 W
3514 2659 PD
24 W
3226 2570 PD
24 W
3384 2491 PD
24 W
3192 2968 PD
24 W
3423 2268 PD
24 W
3395 2392 PD
24 W
3155 3035 PD
24 W
3317 2877 PD
24 W
3359 2923 PD
24 W
3181 2958 PD
24 W
3277 2883 PD
24 W
3188 3008 PD
24 W
3193 2986 PD
24 W
3300 2897 PD
24 W
3215 2956 PD
24 W
3255 2810 PD
24 W
3193 2399 PD
24 W
3199 2983 PD
24 W
3304 2598 PD
24 W
3340 2663 PD
24 W
3164 2942 PD
24 W
3417 2801 PD
24 W
3300 2919 PD
24 W
3427 2635 PD
24 W
3264 2728 PD
24 W
3264 2886 PD
24 W
3178 3009 PD
24 W
3171 2949 PD
24 W
3167 2932 PD
24 W
3217 2861 PD
24 W
3818 2817 PD
24 W
3454 2367 PD
24 W
3448 2385 PD
24 W
3351 2813 PD
24 W
3241 2531 PD
24 W
3446 2709 PD
24 W
3258 2667 PD
24 W
3224 2783 PD
24 W
3545 2932 PD
24 W
3376 2761 PD
24 W
3209 2673 PD
24 W
3209 2992 PD
24 W
3404 2734 PD
24 W
3310 2545 PD
24 W
3179 2993 PD
24 W
3333 2348 PD
24 W
3216 2437 PD
24 W
3152 2900 PD
24 W
3299 2582 PD
24 W
3497 2802 PD
24 W
3160 2985 PD
24 W
3197 2937 PD
24 W
3346 2628 PD
24 W
3163 2986 PD
24 W
3218 2759 PD
24 W
3530 2550 PD
24 W
3519 2196 PD
24 W
3302 2693 PD
24 W
3533 2485 PD
24 W
3306 2840 PD
24 W
3217 2701 PD
24 W
3275 2602 PD
24 W
3361 2728 PD
gs 3152 1993 857 1070 rc
c9
707 -1033 3152 3026 2 MP stroke
gr
gr

c9
1 sg
0 1069 856 0 0 -1069 4278 3062 4 MP
PP
-856 0 0 1069 856 0 0 -1069 4278 3062 5 MP stroke
4 w
DO
SO
6 w
0 sg
4278 3062 mt 5134 3062 L
4278 3062 mt 4278 1993 L
4500 3062 mt 4500 3051 L
4724 3062 mt 4724 3051 L
4948 3062 mt 4948 3051 L
4278 2958 mt 4288 2958 L
4278 2723 mt 4288 2723 L
4278 2489 mt 4288 2489 L
4278 2254 mt 4288 2254 L
4278 2020 mt 4288 2020 L
4365 1898 mt 
(P1:9 P1:9\(F\)) s
gs 4278 1993 857 1070 rc
gr

gs 4205 1920 1003 1216 rc
24 W
c8
4701 2175 PD
24 W
4568 2271 PD
24 W
4638 2630 PD
24 W
4732 2518 PD
24 W
4561 2770 PD
24 W
4636 2608 PD
24 W
4440 2406 PD
24 W
4475 2801 PD
24 W
4482 2582 PD
24 W
4507 3062 PD
24 W
4570 2838 PD
24 W
4598 2517 PD
24 W
4815 2498 PD
24 W
4551 2470 PD
24 W
4639 2625 PD
24 W
4571 2754 PD
24 W
4612 2436 PD
24 W
4476 2689 PD
24 W
4659 2267 PD
24 W
4292 2911 PD
24 W
4493 2870 PD
24 W
4498 3056 PD
24 W
4379 2485 PD
24 W
4635 2090 PD
24 W
4876 2441 PD
24 W
4497 2844 PD
24 W
4604 2689 PD
24 W
5130 2696 PD
24 W
4558 2620 PD
24 W
4561 2808 PD
24 W
4450 2890 PD
24 W
4613 2421 PD
24 W
4550 1993 PD
24 W
4412 2880 PD
24 W
4605 2692 PD
24 W
4476 2252 PD
24 W
4345 2462 PD
24 W
4567 2806 PD
24 W
4674 2674 PD
24 W
4456 2753 PD
24 W
5051 2344 PD
24 W
4911 2285 PD
24 W
4807 2334 PD
24 W
4481 2541 PD
24 W
5002 2292 PD
24 W
4840 2341 PD
24 W
4444 2748 PD
24 W
4464 2645 PD
24 W
4593 2670 PD
24 W
4884 2881 PD
24 W
4662 2701 PD
24 W
4534 2817 PD
24 W
4440 2792 PD
24 W
4572 2580 PD
24 W
4487 3005 PD
24 W
4636 2564 PD
24 W
4729 2305 PD
24 W
5106 2367 PD
24 W
4464 2225 PD
24 W
4890 2366 PD
24 W
4474 2733 PD
24 W
4440 2692 PD
24 W
4542 2772 PD
24 W
4583 2718 PD
24 W
4429 2694 PD
24 W
4770 2480 PD
24 W
4685 2800 PD
24 W
4556 2990 PD
24 W
4691 2731 PD
24 W
4514 2496 PD
24 W
4591 2402 PD
24 W
4761 2579 PD
24 W
4579 2521 PD
24 W
4394 2670 PD
24 W
4475 2593 PD
24 W
4497 2618 PD
24 W
4589 2320 PD
24 W
4701 2664 PD
24 W
5008 2237 PD
24 W
4420 2732 PD
24 W
4504 2223 PD
24 W
4404 2836 PD
24 W
4532 2400 PD
24 W
4287 2909 PD
24 W
4518 2753 PD
24 W
4495 2512 PD
24 W
4626 2515 PD
24 W
4861 2579 PD
24 W
4347 3013 PD
24 W
4564 2617 PD
24 W
4406 2686 PD
24 W
4916 2469 PD
24 W
4580 2211 PD
24 W
4632 2896 PD
24 W
4478 2721 PD
24 W
4849 2440 PD
24 W
4504 2607 PD
24 W
4557 2799 PD
24 W
4414 2395 PD
24 W
4705 2391 PD
24 W
4656 2375 PD
24 W
4883 2919 PD
24 W
4855 2186 PD
24 W
4384 2530 PD
24 W
4459 2735 PD
24 W
4730 2304 PD
24 W
4536 2441 PD
24 W
4792 2222 PD
24 W
4377 2858 PD
24 W
4561 2553 PD
24 W
5024 2473 PD
24 W
4591 2456 PD
24 W
4467 2623 PD
24 W
4413 2832 PD
24 W
4529 2708 PD
24 W
4663 2676 PD
24 W
4859 2226 PD
24 W
4841 2234 PD
24 W
4585 2678 PD
24 W
4449 2553 PD
24 W
4547 2440 PD
24 W
4536 2852 PD
24 W
4702 2647 PD
24 W
4827 2041 PD
24 W
4462 2433 PD
24 W
5028 2373 PD
24 W
4362 2877 PD
24 W
4512 2646 PD
24 W
4773 2392 PD
24 W
4453 2912 PD
24 W
4993 2224 PD
24 W
4479 2973 PD
24 W
5010 2166 PD
24 W
4579 2619 PD
24 W
4587 2617 PD
24 W
4660 2492 PD
24 W
4361 2681 PD
24 W
4799 2464 PD
24 W
4485 2634 PD
24 W
4776 2353 PD
24 W
4412 2859 PD
24 W
4677 2218 PD
24 W
4633 2266 PD
24 W
4296 3004 PD
24 W
4527 2635 PD
24 W
4746 2799 PD
24 W
4384 2899 PD
24 W
4492 2822 PD
24 W
4414 2905 PD
24 W
4421 2903 PD
24 W
4694 2807 PD
24 W
4436 2808 PD
24 W
4586 2502 PD
24 W
4399 2235 PD
24 W
4459 2822 PD
24 W
4630 2668 PD
24 W
4582 2463 PD
24 W
4329 2825 PD
24 W
4786 2715 PD
24 W
4584 2870 PD
24 W
4667 2435 PD
24 W
4477 2678 PD
24 W
4525 2595 PD
24 W
4372 2964 PD
24 W
4332 2851 PD
24 W
4333 2732 PD
24 W
4433 2761 PD
24 W
5134 2607 PD
24 W
4684 2404 PD
24 W
4722 2342 PD
24 W
4649 2561 PD
24 W
4442 2547 PD
24 W
4688 2678 PD
24 W
4552 2674 PD
24 W
4416 2574 PD
24 W
4878 2751 PD
24 W
4642 2507 PD
24 W
4401 2611 PD
24 W
4370 2828 PD
24 W
4611 2632 PD
24 W
4542 2522 PD
24 W
4395 2907 PD
24 W
4562 2349 PD
24 W
4410 2391 PD
24 W
4280 2755 PD
24 W
4508 2575 PD
24 W
4835 2747 PD
24 W
4306 2896 PD
24 W
4457 2883 PD
24 W
4603 2535 PD
24 W
4278 2862 PD
24 W
4414 2624 PD
24 W
4923 2423 PD
24 W
4970 2138 PD
24 W
4531 2631 PD
24 W
4876 2195 PD
24 W
4648 2697 PD
24 W
4480 2646 PD
24 W
4606 2437 PD
24 W
4716 2591 PD
gs 4278 1993 857 1070 rc
c9
857 -897 4278 2956 2 MP stroke
gr
gr

c9
1 sg
0 1069 856 0 0 -1069 5405 3062 4 MP
PP
-856 0 0 1069 856 0 0 -1069 5405 3062 5 MP stroke
4 w
DO
SO
6 w
0 sg
5405 3062 mt 6261 3062 L
5405 3062 mt 5405 1993 L
5735 3062 mt 5735 3051 L
6187 3062 mt 6187 3051 L
5405 2961 mt 5415 2961 L
5405 2700 mt 5415 2700 L
5405 2439 mt 5415 2439 L
5405 2178 mt 5415 2178 L
5492 1898 mt 
(P2:1 P2:1\(F\)) s
gs 5405 1993 857 1070 rc
gr

gs 5332 1920 1003 1216 rc
24 W
c8
5689 2932 PD
24 W
5559 2201 PD
24 W
5507 2787 PD
24 W
5795 2768 PD
24 W
5711 2786 PD
24 W
5643 2584 PD
24 W
5955 2655 PD
24 W
5806 2790 PD
24 W
5516 2718 PD
24 W
5749 2000 PD
24 W
5548 2888 PD
24 W
5649 2434 PD
24 W
5990 2072 PD
24 W
5593 2829 PD
24 W
5980 2542 PD
24 W
5590 2602 PD
24 W
5633 2285 PD
24 W
5917 2489 PD
24 W
5894 2748 PD
24 W
5627 2873 PD
24 W
5731 2479 PD
24 W
5847 3042 PD
24 W
5910 2881 PD
24 W
5704 2769 PD
24 W
5469 2670 PD
24 W
5438 2974 PD
24 W
5634 2396 PD
24 W
5809 2625 PD
24 W
5833 2833 PD
24 W
5587 2964 PD
24 W
5580 2659 PD
24 W
5778 2285 PD
24 W
5637 2910 PD
24 W
5488 2472 PD
24 W
5608 2984 PD
24 W
5785 2745 PD
24 W
5761 2633 PD
24 W
5537 2922 PD
24 W
5968 2498 PD
24 W
5604 2452 PD
24 W
5405 2887 PD
24 W
5574 2787 PD
24 W
5784 2839 PD
24 W
5518 2458 PD
24 W
5680 2421 PD
24 W
5999 2748 PD
24 W
5487 2378 PD
24 W
5632 2715 PD
24 W
5481 2690 PD
24 W
5707 2664 PD
24 W
5742 2270 PD
24 W
5652 2553 PD
24 W
5606 2674 PD
24 W
5651 2636 PD
24 W
5651 2604 PD
24 W
5520 2515 PD
24 W
5479 2814 PD
24 W
5558 2530 PD
24 W
5523 2886 PD
24 W
5958 2167 PD
24 W
6037 2279 PD
24 W
5571 2275 PD
24 W
5959 2363 PD
24 W
5597 2873 PD
24 W
5590 2559 PD
24 W
5525 2704 PD
24 W
6004 2764 PD
24 W
6040 1993 PD
24 W
5653 2733 PD
24 W
5486 2834 PD
24 W
5604 2783 PD
24 W
5659 2906 PD
24 W
5871 2529 PD
24 W
5721 2153 PD
24 W
5531 2882 PD
24 W
5602 2908 PD
24 W
5732 2313 PD
24 W
5726 2038 PD
24 W
5862 2790 PD
24 W
5656 2327 PD
24 W
5638 2722 PD
24 W
5663 2447 PD
24 W
5827 2256 PD
24 W
5592 2628 PD
24 W
5603 2752 PD
24 W
5727 2904 PD
24 W
6032 2847 PD
24 W
5554 2771 PD
24 W
5642 3055 PD
24 W
5546 2815 PD
24 W
5707 2809 PD
24 W
6261 2536 PD
24 W
5587 2573 PD
24 W
5560 2760 PD
24 W
5530 2774 PD
24 W
5697 2384 PD
24 W
5657 2601 PD
24 W
6204 2781 PD
24 W
5766 2973 PD
24 W
5648 2541 PD
24 W
5626 2267 PD
24 W
5564 2893 PD
24 W
5650 2812 PD
24 W
5677 2760 PD
24 W
5569 2653 PD
24 W
5863 2772 PD
24 W
5816 2582 PD
24 W
5615 2547 PD
24 W
5519 2777 PD
24 W
5924 2741 PD
24 W
5560 2366 PD
24 W
5595 2730 PD
24 W
5555 2693 PD
24 W
5499 2812 PD
24 W
5575 2444 PD
24 W
5577 2869 PD
24 W
5462 2455 PD
24 W
5590 2568 PD
24 W
5478 2762 PD
24 W
5967 2653 PD
24 W
5626 2465 PD
24 W
5467 3006 PD
24 W
5496 2648 PD
24 W
5847 2447 PD
24 W
5534 2620 PD
24 W
5810 2085 PD
24 W
6003 2802 PD
24 W
5729 2271 PD
24 W
5596 2684 PD
24 W
5438 2992 PD
24 W
5587 2920 PD
24 W
5870 3062 PD
24 W
5607 2638 PD
24 W
5738 2929 PD
24 W
5749 2716 PD
24 W
5806 2516 PD
24 W
5642 2854 PD
24 W
5933 2048 PD
24 W
5623 2804 PD
24 W
5650 2389 PD
24 W
5623 2715 PD
24 W
5831 2663 PD
24 W
5624 2518 PD
24 W
5497 2943 PD
24 W
5622 2268 PD
24 W
5593 2955 PD
24 W
5637 2651 PD
24 W
5852 2547 PD
24 W
5934 2181 PD
24 W
5857 2705 PD
24 W
5716 2483 PD
24 W
5574 2572 PD
24 W
5472 2106 PD
24 W
6140 2355 PD
24 W
5525 2996 PD
24 W
5660 2826 PD
24 W
5856 2307 PD
24 W
5430 2968 PD
24 W
5935 2127 PD
24 W
5427 2189 PD
24 W
5938 2550 PD
24 W
5631 2653 PD
24 W
5642 2161 PD
24 W
5595 2681 PD
24 W
5521 2969 PD
24 W
5622 2544 PD
24 W
5838 2862 PD
24 W
5765 2622 PD
24 W
5651 2329 PD
24 W
5559 2549 PD
24 W
5547 2771 PD
24 W
5911 2600 PD
24 W
5666 2473 PD
24 W
5605 2581 PD
24 W
5466 2852 PD
24 W
5577 2838 PD
24 W
5782 2834 PD
24 W
5710 2439 PD
24 W
5610 2992 PD
24 W
5585 2877 PD
24 W
5647 3008 PD
24 W
5685 2606 PD
24 W
5749 2345 PD
24 W
5579 2717 PD
24 W
5994 2524 PD
24 W
5717 2316 PD
24 W
5901 2606 PD
24 W
5567 2838 PD
24 W
5607 2830 PD
24 W
5974 2660 PD
24 W
5412 2974 PD
24 W
6015 2467 PD
24 W
6082 2984 PD
24 W
5506 2438 PD
24 W
6004 2122 PD
24 W
5701 2150 PD
24 W
5593 2964 PD
24 W
5721 2842 PD
24 W
5634 2701 PD
24 W
5813 2397 PD
gs 5405 1993 857 1070 rc
c9
730 -1054 5405 3047 2 MP stroke
gr
gr

c9
1 sg
0 1069 857 0 0 -1069 898 4616 4 MP
PP
-857 0 0 1069 857 0 0 -1069 898 4616 5 MP stroke
4 w
DO
SO
6 w
0 sg
 898 4616 mt 1755 4616 L
 898 4616 mt  898 3547 L
 919 4616 mt  919 4605 L
1141 4616 mt 1141 4605 L
1362 4616 mt 1362 4605 L
1584 4616 mt 1584 4605 L
 898 4608 mt  909 4608 L
 898 4345 mt  909 4345 L
 898 4082 mt  909 4082 L
 898 3819 mt  909 3819 L
 898 3557 mt  909 3557 L
 982 3452 mt 
(P2:2 P2:2\(S\)) s
gs 898 3547 858 1070 rc
gr

gs 825 3474 1004 1216 rc
24 W
c8
1482 4380 PD
24 W
1197 4100 PD
24 W
980 4362 PD
24 W
1006 4486 PD
24 W
1281 4365 PD
24 W
1049 4327 PD
24 W
1148 4491 PD
24 W
916 4412 PD
24 W
1244 4271 PD
24 W
1099 4088 PD
24 W
1283 4106 PD
24 W
1023 4445 PD
24 W
1101 4112 PD
24 W
1348 4292 PD
24 W
1268 4319 PD
24 W
1188 4274 PD
24 W
1362 4386 PD
24 W
1182 4246 PD
24 W
922 4487 PD
24 W
1045 4474 PD
24 W
1118 4385 PD
24 W
1153 4405 PD
24 W
983 4463 PD
24 W
1139 4232 PD
24 W
1018 4371 PD
24 W
1100 4316 PD
24 W
1027 4500 PD
24 W
1031 4274 PD
24 W
1110 4373 PD
24 W
1155 4473 PD
24 W
1094 4405 PD
24 W
1207 4238 PD
24 W
1172 4366 PD
24 W
1085 4452 PD
24 W
1137 4366 PD
24 W
1080 4422 PD
24 W
1755 3964 PD
24 W
1078 4443 PD
24 W
1068 4537 PD
24 W
1217 4321 PD
24 W
1039 4442 PD
24 W
1309 4379 PD
24 W
1257 4446 PD
24 W
1316 4338 PD
24 W
1147 4329 PD
24 W
992 4431 PD
24 W
1174 4295 PD
24 W
1021 4549 PD
24 W
1035 4456 PD
24 W
997 4477 PD
24 W
1101 4465 PD
24 W
1128 4156 PD
24 W
1123 4442 PD
24 W
1090 4128 PD
24 W
1117 4330 PD
24 W
1035 4560 PD
24 W
1009 4434 PD
24 W
1020 4506 PD
24 W
911 4549 PD
24 W
1049 4446 PD
24 W
1264 4418 PD
24 W
1246 4095 PD
24 W
1068 4531 PD
24 W
1309 4181 PD
24 W
1024 4322 PD
24 W
1196 4065 PD
24 W
1398 4116 PD
24 W
1369 4331 PD
24 W
1027 4516 PD
24 W
1103 4348 PD
24 W
1049 4445 PD
24 W
984 4339 PD
24 W
991 4530 PD
24 W
1126 4549 PD
24 W
1264 4374 PD
24 W
1423 4092 PD
24 W
1259 4260 PD
24 W
1035 4444 PD
24 W
1067 4464 PD
24 W
1160 4400 PD
24 W
1200 4260 PD
24 W
1286 4172 PD
24 W
1001 4479 PD
24 W
1028 4438 PD
24 W
1012 4381 PD
24 W
1046 4530 PD
24 W
1063 4515 PD
24 W
1315 3931 PD
24 W
1091 4490 PD
24 W
1106 4305 PD
24 W
1017 4467 PD
24 W
1013 4439 PD
24 W
939 4539 PD
24 W
1021 4427 PD
24 W
1084 4453 PD
24 W
1142 4484 PD
24 W
1139 4457 PD
24 W
1054 4489 PD
24 W
1130 4424 PD
24 W
981 4552 PD
24 W
1193 3921 PD
24 W
1247 4316 PD
24 W
1465 3547 PD
24 W
1062 4425 PD
24 W
1047 4496 PD
24 W
1090 4281 PD
24 W
970 4505 PD
24 W
1323 4086 PD
24 W
1093 4374 PD
24 W
945 4575 PD
24 W
1095 4373 PD
24 W
1083 4444 PD
24 W
1180 4358 PD
24 W
957 4412 PD
24 W
951 4475 PD
24 W
1280 4247 PD
24 W
1184 4246 PD
24 W
984 4513 PD
24 W
1135 4403 PD
24 W
1043 4511 PD
24 W
1150 4270 PD
24 W
1207 4100 PD
24 W
1117 4447 PD
24 W
1059 4337 PD
24 W
1100 4363 PD
24 W
1153 4355 PD
24 W
1054 4595 PD
24 W
1038 4458 PD
24 W
976 4540 PD
24 W
1018 4537 PD
24 W
1011 4511 PD
24 W
1250 4302 PD
24 W
1026 4401 PD
24 W
1311 4323 PD
24 W
1136 4434 PD
24 W
1206 4452 PD
24 W
966 4355 PD
24 W
1193 4091 PD
24 W
1228 4304 PD
24 W
1070 4223 PD
24 W
1052 4357 PD
24 W
1301 4224 PD
24 W
1172 4348 PD
24 W
1010 4454 PD
24 W
1013 4435 PD
24 W
1023 4279 PD
24 W
1232 4350 PD
24 W
1141 4163 PD
24 W
1280 4464 PD
24 W
1382 4354 PD
24 W
1132 4397 PD
24 W
1032 4520 PD
24 W
1023 4519 PD
24 W
1030 4343 PD
24 W
1256 4103 PD
24 W
1229 4483 PD
24 W
979 4466 PD
24 W
1228 4096 PD
24 W
1002 4353 PD
24 W
1136 4252 PD
24 W
1108 4371 PD
24 W
989 4422 PD
24 W
1016 4593 PD
24 W
985 4417 PD
24 W
1034 4616 PD
24 W
966 4610 PD
24 W
1075 4397 PD
24 W
1056 4337 PD
24 W
1227 4363 PD
24 W
1266 4313 PD
24 W
968 4302 PD
24 W
1019 4437 PD
24 W
1033 4510 PD
24 W
986 4547 PD
24 W
1089 4320 PD
24 W
1028 4342 PD
24 W
1003 4467 PD
24 W
939 4441 PD
24 W
1003 4462 PD
24 W
966 4372 PD
24 W
1057 4406 PD
24 W
984 4488 PD
24 W
1037 4362 PD
24 W
1106 4359 PD
24 W
1037 4360 PD
24 W
1077 4547 PD
24 W
1042 4550 PD
24 W
1094 4233 PD
24 W
1498 4570 PD
24 W
1240 4150 PD
24 W
898 4545 PD
24 W
1001 4447 PD
24 W
950 4552 PD
24 W
1133 4265 PD
24 W
1324 4198 PD
24 W
1340 4148 PD
24 W
1100 4426 PD
24 W
1078 4340 PD
24 W
1114 4369 PD
24 W
1159 4506 PD
gs 898 3547 858 1070 rc
c9
844 -1001 912 4617 2 MP stroke
gr
gr

c9
1 sg
0 1069 856 0 0 -1069 2026 4616 4 MP
PP
-856 0 0 1069 856 0 0 -1069 2026 4616 5 MP stroke
4 w
DO
SO
6 w
0 sg
2026 4616 mt 2882 4616 L
2026 4616 mt 2026 3547 L
2257 4616 mt 2257 4605 L
2519 4616 mt 2519 4605 L
2781 4616 mt 2781 4605 L
2026 4339 mt 2036 4339 L
2026 3981 mt 2036 3981 L
2026 3623 mt 2036 3623 L
2109 3452 mt 
(P2:3 P2:3\(S\)) s
gs 2026 3547 857 1070 rc
gr

gs 1953 3474 1003 1216 rc
24 W
c8
2808 3937 PD
24 W
2492 4096 PD
24 W
2079 4443 PD
24 W
2589 4080 PD
24 W
2576 3916 PD
24 W
2207 4371 PD
24 W
2702 4300 PD
24 W
2076 4459 PD
24 W
2484 3851 PD
24 W
2239 4371 PD
24 W
2521 4132 PD
24 W
2448 4333 PD
24 W
2473 4289 PD
24 W
2544 3970 PD
24 W
2490 4153 PD
24 W
2270 4008 PD
24 W
2436 4326 PD
24 W
2091 4463 PD
24 W
2239 4273 PD
24 W
2342 4279 PD
24 W
2253 4492 PD
24 W
2668 3934 PD
24 W
2122 4490 PD
24 W
2588 4064 PD
24 W
2231 3876 PD
24 W
2239 4439 PD
24 W
2187 4272 PD
24 W
2213 4263 PD
24 W
2385 4258 PD
24 W
2315 4246 PD
24 W
2282 4405 PD
24 W
2381 4224 PD
24 W
2269 4169 PD
24 W
2315 4169 PD
24 W
2665 4341 PD
24 W
2270 4218 PD
24 W
2340 4229 PD
24 W
2448 4088 PD
24 W
2297 4111 PD
24 W
2412 4147 PD
24 W
2085 4485 PD
24 W
2549 4113 PD
24 W
2327 4290 PD
24 W
2749 4309 PD
24 W
2198 4506 PD
24 W
2436 4179 PD
24 W
2304 4313 PD
24 W
2477 4066 PD
24 W
2243 4341 PD
24 W
2227 4343 PD
24 W
2507 4001 PD
24 W
2369 4418 PD
24 W
2258 4483 PD
24 W
2232 4260 PD
24 W
2391 4237 PD
24 W
2026 4310 PD
24 W
2207 4205 PD
24 W
2088 4223 PD
24 W
2113 4312 PD
24 W
2216 4409 PD
24 W
2218 3673 PD
24 W
2729 3785 PD
24 W
2386 3869 PD
24 W
2783 3756 PD
24 W
2686 4028 PD
24 W
2604 3922 PD
24 W
2606 3812 PD
24 W
2407 4103 PD
24 W
2504 3888 PD
24 W
2201 4367 PD
24 W
2350 4417 PD
24 W
2210 4408 PD
24 W
2215 4198 PD
24 W
2311 4166 PD
24 W
2393 4210 PD
24 W
2515 4383 PD
24 W
2577 3928 PD
24 W
2254 4125 PD
24 W
2346 4327 PD
24 W
2281 4276 PD
24 W
2393 4252 PD
24 W
2371 4342 PD
24 W
2266 4381 PD
24 W
2164 4323 PD
24 W
2411 4061 PD
24 W
2469 4383 PD
24 W
2372 4282 PD
24 W
2408 3982 PD
24 W
2193 4408 PD
24 W
2563 4066 PD
24 W
2444 4222 PD
24 W
2403 3976 PD
24 W
2253 4477 PD
24 W
2195 4087 PD
24 W
2299 4388 PD
24 W
2160 4397 PD
24 W
2426 4274 PD
24 W
2440 4493 PD
24 W
2274 4493 PD
24 W
2336 4108 PD
24 W
2309 3594 PD
24 W
2255 4401 PD
24 W
2339 3929 PD
24 W
2152 4478 PD
24 W
2298 4298 PD
24 W
2304 4503 PD
24 W
2530 4080 PD
24 W
2732 4230 PD
24 W
2363 4175 PD
24 W
2554 3946 PD
24 W
2363 4426 PD
24 W
2278 4105 PD
24 W
2439 4523 PD
24 W
2553 3828 PD
24 W
2303 4176 PD
24 W
2503 4157 PD
24 W
2366 3885 PD
24 W
2353 3990 PD
24 W
2296 4304 PD
24 W
2230 4566 PD
24 W
2272 4267 PD
24 W
2415 4270 PD
24 W
2312 4244 PD
24 W
2283 3860 PD
24 W
2544 4125 PD
24 W
2318 4323 PD
24 W
2237 4281 PD
24 W
2616 4218 PD
24 W
2174 4481 PD
24 W
2294 4252 PD
24 W
2297 4570 PD
24 W
2649 4043 PD
24 W
2470 4200 PD
24 W
2448 4330 PD
24 W
2180 4131 PD
24 W
2270 4355 PD
24 W
2168 4464 PD
24 W
2244 4408 PD
24 W
2261 4252 PD
24 W
2356 3793 PD
24 W
2131 4474 PD
24 W
2523 3985 PD
24 W
2282 4354 PD
24 W
2160 4184 PD
24 W
2218 4474 PD
24 W
2789 3547 PD
24 W
2297 4225 PD
24 W
2590 4217 PD
24 W
2256 4224 PD
24 W
2498 4120 PD
24 W
2489 4069 PD
24 W
2072 4531 PD
24 W
2396 4263 PD
24 W
2273 4210 PD
24 W
2416 4329 PD
24 W
2112 4616 PD
24 W
2655 4073 PD
24 W
2649 3851 PD
24 W
2394 4080 PD
24 W
2592 4353 PD
24 W
2399 4223 PD
24 W
2422 4254 PD
24 W
2468 3550 PD
24 W
2261 4390 PD
24 W
2268 4261 PD
24 W
2195 4346 PD
24 W
2248 4358 PD
24 W
2159 4478 PD
24 W
2244 4216 PD
24 W
2359 4303 PD
24 W
2604 3781 PD
24 W
2363 4036 PD
24 W
2402 4165 PD
24 W
2590 4025 PD
24 W
2292 4361 PD
24 W
2365 4368 PD
24 W
2604 3850 PD
24 W
2365 4058 PD
24 W
2467 4405 PD
24 W
2409 4135 PD
24 W
2169 3913 PD
24 W
2668 4152 PD
24 W
2215 3971 PD
24 W
2496 4505 PD
24 W
2607 3811 PD
24 W
2498 3810 PD
24 W
2566 4549 PD
24 W
2684 4194 PD
24 W
2064 3948 PD
24 W
2882 3662 PD
24 W
2410 4389 PD
24 W
2412 3896 PD
24 W
2096 4434 PD
24 W
2277 4171 PD
24 W
2455 4169 PD
24 W
2466 4102 PD
24 W
2088 4285 PD
24 W
2403 3640 PD
24 W
2386 4177 PD
24 W
2479 4204 PD
gs 2026 3547 857 1070 rc
c9
782 -1070 2055 4617 2 MP stroke
gr
gr

c9
1 sg
0 1069 856 0 0 -1069 3152 4616 4 MP
PP
-856 0 0 1069 856 0 0 -1069 3152 4616 5 MP stroke
4 w
DO
SO
6 w
0 sg
3152 4616 mt 4008 4616 L
3152 4616 mt 3152 3547 L
3313 4616 mt 3313 4605 L
3574 4616 mt 3574 4605 L
3835 4616 mt 3835 4605 L
3152 4443 mt 3162 4443 L
3152 4165 mt 3162 4165 L
3152 3886 mt 3162 3886 L
3152 3607 mt 3162 3607 L
3235 3452 mt 
(P2:4 P2:4\(S\)) s
gs 3152 3547 857 1070 rc
gr

gs 3079 3474 1003 1216 rc
24 W
c8
3592 4331 PD
24 W
3622 3950 PD
24 W
3208 4480 PD
24 W
3753 4582 PD
24 W
3613 4182 PD
24 W
3388 4300 PD
24 W
3293 4345 PD
24 W
3262 4400 PD
24 W
3631 4034 PD
24 W
3303 4366 PD
24 W
3490 4110 PD
24 W
3389 4270 PD
24 W
3377 4250 PD
24 W
3689 4219 PD
24 W
3677 3964 PD
24 W
3476 4141 PD
24 W
3345 4520 PD
24 W
3435 4169 PD
24 W
3343 4526 PD
24 W
3223 4440 PD
24 W
3359 4402 PD
24 W
3630 4005 PD
24 W
3602 4394 PD
24 W
3744 4239 PD
24 W
3560 4594 PD
24 W
3628 4208 PD
24 W
3318 4371 PD
24 W
3474 4358 PD
24 W
3617 4033 PD
24 W
3531 4284 PD
24 W
3312 4469 PD
24 W
3229 4152 PD
24 W
3512 4267 PD
24 W
3789 4081 PD
24 W
3462 4452 PD
24 W
3738 4304 PD
24 W
3579 4086 PD
24 W
3500 4216 PD
24 W
3408 4375 PD
24 W
3536 4269 PD
24 W
3370 4402 PD
24 W
3536 4237 PD
24 W
3462 4278 PD
24 W
3735 4027 PD
24 W
3450 4342 PD
24 W
3513 3824 PD
24 W
3585 4454 PD
24 W
3803 4281 PD
24 W
3354 4426 PD
24 W
3835 4199 PD
24 W
3689 3863 PD
24 W
3502 4180 PD
24 W
3278 4446 PD
24 W
3486 4309 PD
24 W
3439 4258 PD
24 W
3170 4191 PD
24 W
3240 4384 PD
24 W
3233 4365 PD
24 W
3303 4453 PD
24 W
3573 4373 PD
24 W
3572 4211 PD
24 W
3796 3736 PD
24 W
3363 3754 PD
24 W
3630 4392 PD
24 W
3421 3884 PD
24 W
3603 4203 PD
24 W
3718 4299 PD
24 W
3574 3945 PD
24 W
3679 4411 PD
24 W
3421 4091 PD
24 W
3336 4328 PD
24 W
3248 4297 PD
24 W
3507 4238 PD
24 W
3386 4367 PD
24 W
3415 4194 PD
24 W
3695 4129 PD
24 W
3531 3909 PD
24 W
3367 4199 PD
24 W
3504 4277 PD
24 W
3414 4424 PD
24 W
3782 3813 PD
24 W
3458 4180 PD
24 W
3461 4423 PD
24 W
3247 4349 PD
24 W
3273 4096 PD
24 W
3517 4528 PD
24 W
3445 4377 PD
24 W
3521 4287 PD
24 W
3413 4278 PD
24 W
3427 3987 PD
24 W
3343 4231 PD
24 W
3679 4120 PD
24 W
3340 4142 PD
24 W
3509 3961 PD
24 W
3530 4235 PD
24 W
3490 4377 PD
24 W
3522 4311 PD
24 W
3798 3896 PD
24 W
3422 4360 PD
24 W
3646 4128 PD
24 W
3371 3887 PD
24 W
3403 4379 PD
24 W
3692 3547 PD
24 W
3301 4464 PD
24 W
3322 4473 PD
24 W
3526 4377 PD
24 W
3652 4603 PD
24 W
3427 4192 PD
24 W
3497 4306 PD
24 W
3424 4103 PD
24 W
3464 4377 PD
24 W
3424 4240 PD
24 W
3268 4487 PD
24 W
3395 4322 PD
24 W
3482 4046 PD
24 W
3499 4319 PD
24 W
3510 4412 PD
24 W
3152 4258 PD
24 W
3457 4225 PD
24 W
3263 4482 PD
24 W
3379 4291 PD
24 W
3634 4377 PD
24 W
3358 4391 PD
24 W
3782 4042 PD
24 W
3911 3821 PD
24 W
3323 4368 PD
24 W
3404 4405 PD
24 W
3546 4274 PD
24 W
3438 4616 PD
24 W
3639 4087 PD
24 W
3684 4354 PD
24 W
3489 4011 PD
24 W
3361 4294 PD
24 W
3552 4218 PD
24 W
3589 4096 PD
24 W
3461 4331 PD
24 W
3307 4275 PD
24 W
3345 4224 PD
24 W
3440 4052 PD
24 W
3519 4333 PD
24 W
3331 4188 PD
24 W
3480 4188 PD
24 W
3588 4223 PD
24 W
3321 4463 PD
24 W
3459 4292 PD
24 W
3511 4010 PD
24 W
3474 4269 PD
24 W
3557 4454 PD
24 W
3463 4100 PD
24 W
3564 4083 PD
24 W
3497 4290 PD
24 W
3331 4408 PD
24 W
3401 4560 PD
24 W
3350 4252 PD
24 W
3588 4054 PD
24 W
3431 4422 PD
24 W
3713 4271 PD
24 W
3536 3851 PD
24 W
3286 4391 PD
24 W
3589 4285 PD
24 W
3285 4318 PD
24 W
3199 4316 PD
24 W
3602 3826 PD
24 W
3391 4300 PD
24 W
3532 4316 PD
24 W
3411 4483 PD
24 W
3314 4208 PD
24 W
3182 4141 PD
24 W
3535 4250 PD
24 W
3515 4226 PD
24 W
3725 4094 PD
24 W
3763 3971 PD
24 W
3710 4301 PD
24 W
3428 4272 PD
24 W
3371 4178 PD
24 W
3397 4189 PD
24 W
3710 4210 PD
24 W
3473 4434 PD
24 W
3580 4548 PD
24 W
3458 4448 PD
24 W
3234 3874 PD
24 W
3959 3924 PD
24 W
3510 4057 PD
24 W
3987 3875 PD
24 W
3556 4121 PD
24 W
3500 4324 PD
24 W
3831 4189 PD
24 W
3444 3949 PD
24 W
3414 4492 PD
24 W
4008 3676 PD
24 W
3344 4414 PD
24 W
3436 4071 PD
24 W
3268 4337 PD
24 W
3414 4236 PD
24 W
3495 4201 PD
24 W
3606 4116 PD
24 W
3243 4523 PD
24 W
3466 3916 PD
24 W
3428 4182 PD
24 W
3307 4401 PD
gs 3152 3547 857 1070 rc
c9
857 -915 3152 4616 2 MP stroke
gr
gr

c9

end %%Color Dict

eplot
%%EndObject

epage
end

showpage

%%Trailer
%%EOF
