%!PS-Adobe-3.0 EPSF-3.0
%%Creator: MATLAB, The Mathworks, Inc. Version 7.7.0.471 (R2008b). Operating System: Microsoft Windows XP.
%%Title: Pictures\main_zoo_mvar_analysis_data_BMI_xcorr_bmig_p1_k1_6_8.eps
%%CreationDate: 10/26/2009  05:45:06
%%DocumentNeededFonts: Helvetica
%%DocumentProcessColors: Cyan Magenta Yellow Black
%%LanguageLevel: 2
%%Pages: 1
%%BoundingBox:    37   180   549   616
%%EndComments

%%BeginProlog
% MathWorks dictionary
/MathWorks 160 dict begin
% definition operators
/bdef {bind def} bind def
/ldef {load def} bind def
/xdef {exch def} bdef
/xstore {exch store} bdef
% operator abbreviations
/c  /clip ldef
/cc /concat ldef
/cp /closepath ldef
/gr /grestore ldef
/gs /gsave ldef
/mt /moveto ldef
/np /newpath ldef
/cm /currentmatrix ldef
/sm /setmatrix ldef
/rm /rmoveto ldef
/rl /rlineto ldef
/s {show newpath} bdef
/sc {setcmykcolor} bdef
/sr /setrgbcolor ldef
/sg /setgray ldef
/w /setlinewidth ldef
/j /setlinejoin ldef
/cap /setlinecap ldef
/rc {rectclip} bdef
/rf {rectfill} bdef
% page state control
/pgsv () def
/bpage {/pgsv save def} bdef
/epage {pgsv restore} bdef
/bplot /gsave ldef
/eplot {stroke grestore} bdef
% orientation switch
/portraitMode 0 def /landscapeMode 1 def /rotateMode 2 def
% coordinate system mappings
/dpi2point 0 def
% font control
/FontSize 0 def
/FMS {/FontSize xstore findfont [FontSize 0 0 FontSize neg 0 0]
  makefont setfont} bdef
/ISOLatin1Encoding where {pop /WindowsLatin1Encoding 256 array bdef
ISOLatin1Encoding WindowsLatin1Encoding copy pop
/.notdef/.notdef/quotesinglbase/florin/quotedblbase/ellipsis/dagger
/daggerdbl/circumflex/perthousand/Scaron/guilsinglleft/OE/.notdef/.notdef
/.notdef/.notdef/quoteleft/quoteright/quotedblleft/quotedblright/bullet
/endash/emdash/tilde/trademark/scaron/guilsinglright/oe/.notdef/.notdef
/Ydieresis WindowsLatin1Encoding 128 32 getinterval astore pop}
{/WindowsLatin1Encoding StandardEncoding bdef} ifelse
/reencode {exch dup where {pop load} {pop StandardEncoding} ifelse
  exch dup 3 1 roll findfont dup length dict begin
  { 1 index /FID ne {def}{pop pop} ifelse } forall
  /Encoding exch def currentdict end definefont pop} bdef
/isroman {findfont /CharStrings get /Agrave known} bdef
/FMSR {3 1 roll 1 index dup isroman {reencode} {pop pop} ifelse
  exch FMS} bdef
/csm {1 dpi2point div -1 dpi2point div scale neg translate
 dup landscapeMode eq {pop -90 rotate}
  {rotateMode eq {90 rotate} if} ifelse} bdef
% line types: solid, dotted, dashed, dotdash
/SO { [] 0 setdash } bdef
/DO { [.5 dpi2point mul 4 dpi2point mul] 0 setdash } bdef
/DA { [6 dpi2point mul] 0 setdash } bdef
/DD { [.5 dpi2point mul 4 dpi2point mul 6 dpi2point mul 4
  dpi2point mul] 0 setdash } bdef
% macros for lines and objects
/L {lineto stroke} bdef
/MP {3 1 roll moveto 1 sub {rlineto} repeat} bdef
/AP {{rlineto} repeat} bdef
/PDlw -1 def
/W {/PDlw currentlinewidth def setlinewidth} def
/PP {closepath eofill} bdef
/DP {closepath stroke} bdef
/MR {4 -2 roll moveto dup  0 exch rlineto exch 0 rlineto
  neg 0 exch rlineto closepath} bdef
/FR {MR stroke} bdef
/PR {MR fill} bdef
/L1i {{currentfile picstr readhexstring pop} image} bdef
/tMatrix matrix def
/MakeOval {newpath tMatrix currentmatrix pop translate scale
0 0 1 0 360 arc tMatrix setmatrix} bdef
/FO {MakeOval stroke} bdef
/PO {MakeOval fill} bdef
/PD {currentlinewidth 2 div 0 360 arc fill
   PDlw -1 eq not {PDlw w /PDlw -1 def} if} def
/FA {newpath tMatrix currentmatrix pop translate scale
  0 0 1 5 -2 roll arc tMatrix setmatrix stroke} bdef
/PA {newpath tMatrix currentmatrix pop	translate 0 0 moveto scale
  0 0 1 5 -2 roll arc closepath tMatrix setmatrix fill} bdef
/FAn {newpath tMatrix currentmatrix pop translate scale
  0 0 1 5 -2 roll arcn tMatrix setmatrix stroke} bdef
/PAn {newpath tMatrix currentmatrix pop translate 0 0 moveto scale
  0 0 1 5 -2 roll arcn closepath tMatrix setmatrix fill} bdef
/vradius 0 def /hradius 0 def /lry 0 def
/lrx 0 def /uly 0 def /ulx 0 def /rad 0 def
/MRR {/vradius xdef /hradius xdef /lry xdef /lrx xdef /uly xdef
  /ulx xdef newpath tMatrix currentmatrix pop ulx hradius add uly
  vradius add translate hradius vradius scale 0 0 1 180 270 arc 
  tMatrix setmatrix lrx hradius sub uly vradius add translate
  hradius vradius scale 0 0 1 270 360 arc tMatrix setmatrix
  lrx hradius sub lry vradius sub translate hradius vradius scale
  0 0 1 0 90 arc tMatrix setmatrix ulx hradius add lry vradius sub
  translate hradius vradius scale 0 0 1 90 180 arc tMatrix setmatrix
  closepath} bdef
/FRR {MRR stroke } bdef
/PRR {MRR fill } bdef
/MlrRR {/lry xdef /lrx xdef /uly xdef /ulx xdef /rad lry uly sub 2 div def
  newpath tMatrix currentmatrix pop ulx rad add uly rad add translate
  rad rad scale 0 0 1 90 270 arc tMatrix setmatrix lrx rad sub lry rad
  sub translate rad rad scale 0 0 1 270 90 arc tMatrix setmatrix
  closepath} bdef
/FlrRR {MlrRR stroke } bdef
/PlrRR {MlrRR fill } bdef
/MtbRR {/lry xdef /lrx xdef /uly xdef /ulx xdef /rad lrx ulx sub 2 div def
  newpath tMatrix currentmatrix pop ulx rad add uly rad add translate
  rad rad scale 0 0 1 180 360 arc tMatrix setmatrix lrx rad sub lry rad
  sub translate rad rad scale 0 0 1 0 180 arc tMatrix setmatrix
  closepath} bdef
/FtbRR {MtbRR stroke } bdef
/PtbRR {MtbRR fill } bdef
/stri 6 array def /dtri 6 array def
/smat 6 array def /dmat 6 array def
/tmat1 6 array def /tmat2 6 array def /dif 3 array def
/asub {/ind2 exch def /ind1 exch def dup dup
  ind1 get exch ind2 get sub exch } bdef
/tri_to_matrix {
  2 0 asub 3 1 asub 4 0 asub 5 1 asub
  dup 0 get exch 1 get 7 -1 roll astore } bdef
/compute_transform {
  dmat dtri tri_to_matrix tmat1 invertmatrix 
  smat stri tri_to_matrix tmat2 concatmatrix } bdef
/ds {stri astore pop} bdef
/dt {dtri astore pop} bdef
/db {2 copy /cols xdef /rows xdef mul dup 3 mul string
  currentfile 
  3 index 0 eq {/ASCIIHexDecode filter}
  {/ASCII85Decode filter 3 index 2 eq {/RunLengthDecode filter} if }
  ifelse exch readstring pop
  dup 0 3 index getinterval /rbmap xdef
  dup 2 index dup getinterval /gbmap xdef
  1 index dup 2 mul exch getinterval /bbmap xdef pop pop}bdef
/it {gs np dtri aload pop moveto lineto lineto cp c
  cols rows 8 compute_transform 
  rbmap gbmap bbmap true 3 colorimage gr}bdef
/il {newpath moveto lineto stroke}bdef
currentdict end def
%%EndProlog

%%BeginSetup
MathWorks begin

0 cap

end
%%EndSetup

%%Page: 1 1
%%BeginPageSetup
%%PageBoundingBox:    37   180   549   616
MathWorks begin
bpage
%%EndPageSetup

%%BeginObject: obj1
bplot

/dpi2point 12 def
portraitMode 0216 7344 csm

  234   -48  6149  5231 rc
85 dict begin %Colortable dictionary
/c0 { 0.000000 0.000000 0.000000 sr} bdef
/c1 { 1.000000 1.000000 1.000000 sr} bdef
/c2 { 0.900000 0.000000 0.000000 sr} bdef
/c3 { 0.000000 0.820000 0.000000 sr} bdef
/c4 { 0.000000 0.000000 0.800000 sr} bdef
/c5 { 0.910000 0.820000 0.320000 sr} bdef
/c6 { 1.000000 0.260000 0.820000 sr} bdef
/c7 { 0.000000 0.820000 0.820000 sr} bdef
c0
1 j
1 sg
   0    0 6919 5187 rf
6 w
0 4202 5362 0 0 -4202 899 4616 4 MP
PP
-5362 0 0 4202 5362 0 0 -4202 899 4616 5 MP stroke
4 w
DO
SO
6 w
0 sg
 899  414 mt 6261  414 L
 899 4616 mt 6261 4616 L
6261 4616 mt 6261  414 L
 899 4616 mt  899  414 L
 899 4616 mt 6261 4616 L
 899 4616 mt  899  414 L
 919 4616 mt  919 4562 L
 919  414 mt  919  467 L
%%IncludeResource: font Helvetica
/Helvetica /WindowsLatin1Encoding 240 FMSR

 713 4873 mt 
(-3) s
1806 4616 mt 1806 4562 L
1806  414 mt 1806  467 L
1600 4873 mt 
(-2) s
2693 4616 mt 2693 4562 L
2693  414 mt 2693  467 L
2487 4873 mt 
(-1) s
3580 4616 mt 3580 4562 L
3580  414 mt 3580  467 L
3514 4873 mt 
(0) s
4466 4616 mt 4466 4562 L
4466  414 mt 4466  467 L
4400 4873 mt 
(1) s
5353 4616 mt 5353 4562 L
5353  414 mt 5353  467 L
5287 4873 mt 
(2) s
6240 4616 mt 6240 4562 L
6240  414 mt 6240  467 L
6174 4873 mt 
(3) s
 899 4599 mt  952 4599 L
6261 4599 mt 6207 4599 L
 591 4688 mt 
(-3) s
 899 3904 mt  952 3904 L
6261 3904 mt 6207 3904 L
 591 3993 mt 
(-2) s
 899 3209 mt  952 3209 L
6261 3209 mt 6207 3209 L
 591 3298 mt 
(-1) s
 899 2514 mt  952 2514 L
6261 2514 mt 6207 2514 L
 731 2603 mt 
(0) s
 899 1820 mt  952 1820 L
6261 1820 mt 6207 1820 L
 731 1909 mt 
(1) s
 899 1125 mt  952 1125 L
6261 1125 mt 6207 1125 L
 731 1214 mt 
(2) s
 899  430 mt  952  430 L
6261  430 mt 6207  430 L
 731  519 mt 
(3) s
 899  414 mt 6261  414 L
 899 4616 mt 6261 4616 L
6261 4616 mt 6261  414 L
 899 4616 mt  899  414 L
gs 899 414 5363 4203 rc
gr

/c8 { 0.000000 0.000000 1.000000 sr} bdef
c8
2821  414 mt 2893  414 L
2857  378 mt 2857  450 L
4435 2602 mt 4507 2602 L
4471 2566 mt 4471 2638 L
3903 3034 mt 3975 3034 L
3939 2998 mt 3939 3070 L
4542 2293 mt 4614 2293 L
4578 2257 mt 4578 2329 L
3952 2410 mt 4024 2410 L
3988 2374 mt 3988 2446 L
3757 2840 mt 3829 2840 L
3793 2804 mt 3793 2876 L
2844 1604 mt 2916 1604 L
2880 1568 mt 2880 1640 L
3214 2655 mt 3286 2655 L
3250 2619 mt 3250 2691 L
3605 4205 mt 3677 4205 L
3641 4169 mt 3641 4241 L
3232 2040 mt 3304 2040 L
3268 2004 mt 3268 2076 L
6225 2536 mt 6297 2536 L
6261 2500 mt 6261 2572 L
3850 4616 mt 3922 4616 L
3886 4580 mt 3886 4652 L
4170 3503 mt 4242 3503 L
4206 3467 mt 4206 3539 L
3958 3322 mt 4030 3322 L
3994 3286 mt 3994 3358 L
2381 2401 mt 2453 2401 L
2417 2365 mt 2417 2437 L
5282 1831 mt 5354 1831 L
5318 1795 mt 5318 1867 L
4472 1583 mt 4544 1583 L
4508 1547 mt 4508 1619 L
3040 2423 mt 3112 2423 L
3076 2387 mt 3076 2459 L
3989 2722 mt 4061 2722 L
4025 2686 mt 4025 2758 L
4425 2001 mt 4497 2001 L
4461 1965 mt 4461 2037 L
3549 2361 mt 3621 2361 L
3585 2325 mt 3585 2397 L
3007 2646 mt 3079 2646 L
3043 2610 mt 3043 2682 L
5002 2436 mt 5074 2436 L
5038 2400 mt 5038 2472 L
3927 2484 mt 3999 2484 L
3963 2448 mt 3963 2520 L
3129 1885 mt 3201 1885 L
3165 1849 mt 3165 1921 L
3027 2806 mt 3099 2806 L
3063 2770 mt 3063 2842 L
3347 2199 mt 3419 2199 L
3383 2163 mt 3383 2235 L
2896 2825 mt 2968 2825 L
2932 2789 mt 2932 2861 L
2859 2972 mt 2931 2972 L
2895 2936 mt 2895 3008 L
2016 2589 mt 2088 2589 L
2052 2553 mt 2052 2625 L
3723 1572 mt 3795 1572 L
3759 1536 mt 3759 1608 L
4760 2467 mt 4832 2467 L
4796 2431 mt 4796 2503 L
4298 2558 mt 4370 2558 L
4334 2522 mt 4334 2594 L
3387 1787 mt 3459 1787 L
3423 1751 mt 3423 1823 L
3466 3297 mt 3538 3297 L
3502 3261 mt 3502 3333 L
4706 2576 mt 4778 2576 L
4742 2540 mt 4742 2612 L
3768 3118 mt 3840 3118 L
3804 3082 mt 3804 3154 L
4655 2844 mt 4727 2844 L
4691 2808 mt 4691 2880 L
5700 2445 mt 5772 2445 L
5736 2409 mt 5736 2481 L
3971 1255 mt 4043 1255 L
4007 1219 mt 4007 1291 L
3633 2619 mt 3705 2619 L
3669 2583 mt 3669 2655 L
5606 2506 mt 5678 2506 L
5642 2470 mt 5642 2542 L
4381 1740 mt 4453 1740 L
4417 1704 mt 4417 1776 L
3454 1809 mt 3526 1809 L
3490 1773 mt 3490 1845 L
4135 1816 mt 4207 1816 L
4171 1780 mt 4171 1852 L
3844 3039 mt 3916 3039 L
3880 3003 mt 3880 3075 L
2218  898 mt 2290  898 L
2254  862 mt 2254  934 L
1766 2811 mt 1838 2811 L
1802 2775 mt 1802 2847 L
4156 3658 mt 4228 3658 L
4192 3622 mt 4192 3694 L
4463 2352 mt 4535 2352 L
4499 2316 mt 4499 2388 L
2502 2279 mt 2574 2279 L
2538 2243 mt 2538 2315 L
4121 2270 mt 4193 2270 L
4157 2234 mt 4157 2306 L
5096 2864 mt 5168 2864 L
5132 2828 mt 5132 2900 L
4805 2514 mt 4877 2514 L
4841 2478 mt 4841 2550 L
2931 2835 mt 3003 2835 L
2967 2799 mt 2967 2871 L
3915 1954 mt 3987 1954 L
3951 1918 mt 3951 1990 L
4789 2261 mt 4861 2261 L
4825 2225 mt 4825 2297 L
4021 3675 mt 4093 3675 L
4057 3639 mt 4057 3711 L
4398 2664 mt 4470 2664 L
4434 2628 mt 4434 2700 L
3694 2523 mt 3766 2523 L
3730 2487 mt 3730 2559 L
1619 2204 mt 1691 2204 L
1655 2168 mt 1655 2240 L
1991 2709 mt 2063 2709 L
2027 2673 mt 2027 2745 L
2534  824 mt 2606  824 L
2570  788 mt 2570  860 L
3178 1917 mt 3250 1917 L
3214 1881 mt 3214 1953 L
4266 4023 mt 4338 4023 L
4302 3987 mt 4302 4059 L
3785 2078 mt 3857 2078 L
3821 2042 mt 3821 2114 L
2251 3527 mt 2323 3527 L
2287 3491 mt 2287 3563 L
4355 3641 mt 4427 3641 L
4391 3605 mt 4391 3677 L
3153 3515 mt 3225 3515 L
3189 3479 mt 3189 3551 L
2732 2624 mt 2804 2624 L
2768 2588 mt 2768 2660 L
4107 2018 mt 4179 2018 L
4143 1982 mt 4143 2054 L
3774 3171 mt 3846 3171 L
3810 3135 mt 3810 3207 L
3116 2414 mt 3188 2414 L
3152 2378 mt 3152 2450 L
3588 3731 mt 3660 3731 L
3624 3695 mt 3624 3767 L
3891 3093 mt 3963 3093 L
3927 3057 mt 3927 3129 L
4221 2396 mt 4293 2396 L
4257 2360 mt 4257 2432 L
4347 2792 mt 4419 2792 L
4383 2756 mt 4383 2828 L
3359 3191 mt 3431 3191 L
3395 3155 mt 3395 3227 L
4444 2062 mt 4516 2062 L
4480 2026 mt 4480 2098 L
3325 3144 mt 3397 3144 L
3361 3108 mt 3361 3180 L
4693 2325 mt 4765 2325 L
4729 2289 mt 4729 2361 L
3940 1794 mt 4012 1794 L
3976 1758 mt 3976 1830 L
4574 1419 mt 4646 1419 L
4610 1383 mt 4610 1455 L
4364 2379 mt 4436 2379 L
4400 2343 mt 4400 2415 L
2267 1434 mt 2339 1434 L
2303 1398 mt 2303 1470 L
2085 2302 mt 2157 2302 L
2121 2266 mt 2121 2338 L
5413 3491 mt 5485 3491 L
5449 3455 mt 5449 3527 L
2773 3075 mt 2845 3075 L
2809 3039 mt 2809 3111 L
3330 3457 mt 3402 3457 L
3366 3421 mt 3366 3493 L
3046 1942 mt 3118 1942 L
3082 1906 mt 3082 1978 L
4060 2962 mt 4132 2962 L
4096 2926 mt 4096 2998 L
2980 2453 mt 3052 2453 L
3016 2417 mt 3016 2489 L
4251 2458 mt 4323 2458 L
4287 2422 mt 4287 2494 L
5180 3386 mt 5252 3386 L
5216 3350 mt 5216 3422 L
3582 2925 mt 3654 2925 L
3618 2889 mt 3618 2961 L
3571 2083 mt 3643 2083 L
3607 2047 mt 3607 2119 L
4149 2094 mt 4221 2094 L
4185 2058 mt 4185 2130 L
5245 2869 mt 5317 2869 L
5281 2833 mt 5281 2905 L
1259 2256 mt 1331 2256 L
1295 2220 mt 1295 2292 L
2040 2320 mt 2112 2320 L
2076 2284 mt 2076 2356 L
4680  724 mt 4752  724 L
4716  688 mt 4716  760 L
4501 2849 mt 4573 2849 L
4537 2813 mt 4537 2885 L
3740 1121 mt 3812 1121 L
3776 1085 mt 3776 1157 L
2468 2237 mt 2540 2237 L
2504 2201 mt 2504 2273 L
2966 2668 mt 3038 2668 L
3002 2632 mt 3002 2704 L
2952 2682 mt 3024 2682 L
2988 2646 mt 2988 2718 L
3147 4131 mt 3219 4131 L
3183 4095 mt 3183 4167 L
5828 2759 mt 5900 2759 L
5864 2723 mt 5864 2795 L
1842 3011 mt 1914 3011 L
1878 2975 mt 1878 3047 L
4746 2155 mt 4818 2155 L
4782 2119 mt 4782 2191 L
5024 3610 mt 5096 3610 L
5060 3574 mt 5060 3646 L
3594 2899 mt 3666 2899 L
3630 2863 mt 3630 2935 L
3160 3213 mt 3232 3213 L
3196 3177 mt 3196 3249 L
3237 2659 mt 3309 2659 L
3273 2623 mt 3273 2695 L
3814 2528 mt 3886 2528 L
3850 2492 mt 3850 2564 L
3797 2686 mt 3869 2686 L
3833 2650 mt 3833 2722 L
5365 3415 mt 5437 3415 L
5401 3379 mt 5401 3451 L
2605 3848 mt 2677 3848 L
2641 3812 mt 2641 3884 L
3861 1960 mt 3933 1960 L
3897 1924 mt 3897 1996 L
4372 1502 mt 4444 1502 L
4408 1466 mt 4408 1538 L
2959 2247 mt 3031 2247 L
2995 2211 mt 2995 2283 L
2444 2214 mt 2516 2214 L
2480 2178 mt 2480 2250 L
4852 3567 mt 4924 3567 L
4888 3531 mt 4888 3603 L
4643 1550 mt 4715 1550 L
4679 1514 mt 4679 1586 L
4961 2104 mt 5033 2104 L
4997 2068 mt 4997 2140 L
2903 1978 mt 2975 1978 L
2939 1942 mt 2939 2014 L
3243 2307 mt 3315 2307 L
3279 2271 mt 3279 2343 L
4512 2584 mt 4584 2584 L
4548 2548 mt 4548 2620 L
3471 2597 mt 3543 2597 L
3507 2561 mt 3507 2633 L
3983 2497 mt 4055 2497 L
4019 2461 mt 4019 2533 L
3393 2311 mt 3465 2311 L
3429 2275 mt 3429 2347 L
3885 1878 mt 3957 1878 L
3921 1842 mt 3921 1914 L
4564 3184 mt 4636 3184 L
4600 3148 mt 4600 3220 L
3921 3273 mt 3993 3273 L
3957 3237 mt 3957 3309 L
2595 2035 mt 2667 2035 L
2631 1999 mt 2631 2071 L
3745 3242 mt 3817 3242 L
3781 3206 mt 3781 3278 L
2341 2946 mt 2413 2946 L
2377 2910 mt 2377 2982 L
3196 1538 mt 3268 1538 L
3232 1502 mt 3232 1574 L
5150 2637 mt 5222 2637 L
5186 2601 mt 5186 2673 L
4631 2099 mt 4703 2099 L
4667 2063 mt 4667 2135 L
3066 4072 mt 3138 4072 L
3102 4036 mt 3102 4108 L
3897 3908 mt 3969 3908 L
3933 3872 mt 3933 3944 L
2993 1892 mt 3065 1892 L
3029 1856 mt 3029 1928 L
3482 2427 mt 3554 2427 L
3518 2391 mt 3518 2463 L
3873 2242 mt 3945 2242 L
3909 2206 mt 3909 2278 L
4228 2125 mt 4300 2125 L
4264 2089 mt 4264 2161 L
2797 3405 mt 2869 3405 L
2833 3369 mt 2833 3441 L
2165 1845 mt 2237 1845 L
2201 1809 mt 2201 1881 L
3104 3306 mt 3176 3306 L
3140 3270 mt 3140 3342 L
4585 2218 mt 4657 2218 L
4621 2182 mt 4621 2254 L
4243 2930 mt 4315 2930 L
4279 2894 mt 4279 2966 L
3033 2334 mt 3105 2334 L
3069 2298 mt 3069 2370 L
4492 1526 mt 4564 1526 L
4528 1490 mt 4528 1562 L
4163 2741 mt 4235 2741 L
4199 2705 mt 4199 2777 L
3202 2135 mt 3274 2135 L
3238 2099 mt 3238 2171 L
2828 2736 mt 2900 2736 L
2864 2700 mt 2864 2772 L
3078 3051 mt 3150 3051 L
3114 3015 mt 3114 3087 L
3538 2480 mt 3610 2480 L
3574 2444 mt 3574 2516 L
5531 2764 mt 5603 2764 L
5567 2728 mt 5567 2800 L
3527 2713 mt 3599 2713 L
3563 2677 mt 3563 2749 L
3666 2057 mt 3738 2057 L
3702 2021 mt 3702 2093 L
3135 2488 mt 3207 2488 L
3171 2452 mt 3171 2524 L
3336 1732 mt 3408 1732 L
3372 1696 mt 3372 1768 L
4054 3468 mt 4126 3468 L
4090 3432 mt 4090 3504 L
2789 2773 mt 2861 2773 L
2825 2737 mt 2825 2809 L
3226 2046 mt 3298 2046 L
3262 2010 mt 3262 2082 L
2523 1872 mt 2595 1872 L
2559 1836 mt 2559 1908 L
3566 2989 mt 3638 2989 L
3602 2953 mt 3602 3025 L
2715 3367 mt 2787 3367 L
2751 3331 mt 2751 3403 L
3273 2519 mt 3345 2519 L
3309 2483 mt 3309 2555 L
3762 1671 mt 3834 1671 L
3798 1635 mt 3798 1707 L
3410 1898 mt 3482 1898 L
3446 1862 mt 3446 1934 L
4074 2007 mt 4146 2007 L
4110 1971 mt 4110 2043 L
2106 2120 mt 2178 2120 L
2142 2084 mt 2142 2156 L
3516 1936 mt 3588 1936 L
3552 1900 mt 3552 1972 L
4009 3081 mt 4081 3081 L
4045 3045 mt 4045 3117 L
4532 2541 mt 4604 2541 L
4568 2505 mt 4568 2577 L
2327 2914 mt 2399 2914 L
2363 2878 mt 2363 2950 L
3278 1514 mt 3350 1514 L
3314 1478 mt 3314 1550 L
2615 3358 mt 2687 3358 L
2651 3322 mt 2651 3394 L
2586 3693 mt 2658 3693 L
2622 3657 mt 2622 3729 L
4886 1371 mt 4958 1371 L
4922 1335 mt 4922 1407 L
3053 1277 mt 3125 1277 L
3089 1241 mt 3089 1313 L
4869 3331 mt 4941 3331 L
4905 3295 mt 4905 3367 L
4034 2370 mt 4106 2370 L
4070 2334 mt 4070 2406 L
2680 1593 mt 2752 1593 L
2716 1557 mt 2716 1629 L
2513 1715 mt 2585 1715 L
2549 1679 mt 2549 1751 L
1907 1858 mt 1979 1858 L
1943 1822 mt 1943 1894 L
4236 3063 mt 4308 3063 L
4272 3027 mt 4272 3099 L
 863 1662 mt  935 1662 L
 899 1626 mt  899 1698 L
2394 3235 mt 2466 3235 L
2430 3199 mt 2430 3271 L
4114 2288 mt 4186 2288 L
4150 2252 mt 4150 2324 L
3249 2365 mt 3321 2365 L
3285 2329 mt 3285 2401 L
3964 2727 mt 4036 2727 L
4000 2691 mt 4000 2763 L
5211 2718 mt 5283 2718 L
5247 2682 mt 5247 2754 L
2987  957 mt 3059  957 L
3023  921 mt 3023  993 L
4087 1634 mt 4159 1634 L
4123 1598 mt 4123 1670 L
2910 1388 mt 2982 1388 L
2946 1352 mt 2946 1424 L
2479 2731 mt 2551 2731 L
2515 2695 mt 2515 2767 L
3621 2904 mt 3693 2904 L
3657 2868 mt 3657 2940 L
3166  564 mt 3238  564 L
3202  528 mt 3202  600 L
1722 1748 mt 1794 1748 L
1758 1712 mt 1758 1784 L
2126 2920 mt 2198 2920 L
2162 2884 mt 2162 2956 L
4836 2815 mt 4908 2815 L
4872 2779 mt 4872 2851 L
3638 3125 mt 3710 3125 L
3674 3089 mt 3674 3161 L
4390 2859 mt 4462 2859 L
4426 2823 mt 4426 2895 L
3826 1838 mt 3898 1838 L
3862 1802 mt 3862 1874 L
3284 2909 mt 3356 2909 L
3320 2873 mt 3320 2945 L
3449 3376 mt 3521 3376 L
3485 3340 mt 3485 3412 L
2652 1990 mt 2724 1990 L
2688 1954 mt 2688 2026 L
3977 3099 mt 4049 3099 L
4013 3063 mt 4013 3135 L
3711 2392 mt 3783 2392 L
3747 2356 mt 3747 2428 L
3438 2978 mt 3510 2978 L
3474 2942 mt 3474 3014 L
2201 2150 mt 2273 2150 L
2237 2114 mt 2237 2186 L
1937 2418 mt 2009 2418 L
1973 2382 mt 1973 2454 L
4775 1561 mt 4847 1561 L
4811 1525 mt 4811 1597 L
3432 1643 mt 3504 1643 L
3468 1607 mt 3468 1679 L
3510 2830 mt 3582 2830 L
3546 2794 mt 3546 2866 L
4282 2170 mt 4354 2170 L
4318 2134 mt 4318 2206 L
4482 1764 mt 4554 1764 L
4518 1728 mt 4518 1800 L
1556 3131 mt 1628 3131 L
1592 3095 mt 1592 3167 L
3683 3479 mt 3755 3479 L
3719 3443 mt 3719 3515 L
4416 1802 mt 4488 1802 L
4452 1766 mt 4452 1838 L
3488 3164 mt 3560 3164 L
3524 3128 mt 3524 3200 L
3655 1823 mt 3727 1823 L
3691 1787 mt 3691 1859 L
3255 4305 mt 3327 4305 L
3291 4269 mt 3291 4341 L
3791 3069 mt 3863 3069 L
3827 3033 mt 3827 3105 L
3296 2801 mt 3368 2801 L
3332 2765 mt 3332 2837 L
3751 2140 mt 3823 2140 L
3787 2104 mt 3787 2176 L
2689 3265 mt 2761 3265 L
2725 3229 mt 2725 3301 L
4100 2051 mt 4172 2051 L
4136 2015 mt 4136 2087 L
4553 1865 mt 4625 1865 L
4589 1829 mt 4589 1901 L
4981 3112 mt 5053 3112 L
5017 3076 mt 5017 3148 L
2917 1462 mt 2989 1462 L
2953 1426 mt 2953 1498 L
2945 3395 mt 3017 3395 L
2981 3359 mt 2981 3431 L
4922 3797 mt 4994 3797 L
4958 3761 mt 4958 3833 L
3415 3281 mt 3487 3281 L
3451 3245 mt 3451 3317 L
3717 3022 mt 3789 3022 L
3753 2986 mt 3753 3058 L
4732 2567 mt 4804 2567 L
4768 2531 mt 4768 2603 L
2757 1448 mt 2829 1448 L
2793 1412 mt 2793 1484 L
4290 2405 mt 4362 2405 L
4326 2369 mt 4326 2441 L
4904 1972 mt 4976 1972 L
4940 1936 mt 4940 2008 L
3184 2194 mt 3256 2194 L
3220 2158 mt 3220 2230 L
3000 2228 mt 3072 2228 L
3036 2192 mt 3036 2264 L
4941 2298 mt 5013 2298 L
4977 2262 mt 4977 2334 L
4128 2475 mt 4200 2475 L
4164 2439 mt 4164 2511 L
3460 1152 mt 3532 1152 L
3496 1116 mt 3496 1188 L
3313 3822 mt 3385 3822 L
3349 3786 mt 3349 3858 L
3091 3227 mt 3163 3227 L
3127 3191 mt 3127 3263 L
3443 2673 mt 3515 2673 L
3479 2637 mt 3479 2709 L
3020 2967 mt 3092 2967 L
3056 2931 mt 3056 3003 L
4002 2704 mt 4074 2704 L
4038 2668 mt 4038 2740 L
5071 3340 mt 5143 3340 L
5107 3304 mt 5107 3376 L
3879 3206 mt 3951 3206 L
3915 3170 mt 3915 3242 L
3110 3595 mt 3182 3595 L
3146 3559 mt 3146 3631 L
4028 2067 mt 4100 2067 L
4064 2031 mt 4064 2103 L
3013 2894 mt 3085 2894 L
3049 2858 mt 3049 2930 L
3700 2951 mt 3772 2951 L
3736 2915 mt 3736 2987 L
4213 1930 mt 4285 1930 L
4249 1894 mt 4249 1966 L
3610 2029 mt 3682 2029 L
3646 1993 mt 3646 2065 L
4184 2189 mt 4256 2189 L
4220 2153 mt 4220 2225 L
1481 2691 mt 1553 2691 L
1517 2655 mt 1517 2727 L
1805 1087 mt 1877 1087 L
1841 1051 mt 1841 1123 L
3672 1995 mt 3744 1995 L
3708 1959 mt 3708 2031 L
2565 2338 mt 2637 2338 L
2601 2302 mt 2601 2374 L
3934 2750 mt 4006 2750 L
3970 2714 mt 3970 2786 L
2063 3752 mt 2135 3752 L
2099 3716 mt 2099 3788 L
3123 2854 mt 3195 2854 L
3159 2818 mt 3159 2890 L
3085 2545 mt 3157 2545 L
3121 2509 mt 3121 2581 L
2697 1756 mt 2769 1756 L
2733 1720 mt 2733 1792 L
3627 2549 mt 3699 2549 L
3663 2513 mt 3663 2585 L
1965 2388 mt 2037 2388 L
2001 2352 mt 2001 2424 L
3290 3106 mt 3362 3106 L
3326 3070 mt 3326 3142 L
3532 2650 mt 3604 2650 L
3568 2614 mt 3568 2686 L
3677 2615 mt 3749 2615 L
3713 2579 mt 3713 2651 L
4177 2160 mt 4249 2160 L
4213 2124 mt 4213 2196 L
4619 3198 mt 4691 3198 L
4655 3162 mt 4655 3234 L
2671 2677 mt 2743 2677 L
2707 2641 mt 2707 2713 L
3505 2782 mt 3577 2782 L
3541 2746 mt 3541 2818 L
2407 2935 mt 2479 2935 L
2443 2899 mt 2443 2971 L
6033 2700 mt 6105 2700 L
6069 2664 mt 6069 2736 L
3261 1923 mt 3333 1923 L
3297 1887 mt 3297 1959 L
4597 1336 mt 4669 1336 L
4633 1300 mt 4633 1372 L
3342 1772 mt 3414 1772 L
3378 1736 mt 3378 1808 L
2866 1049 mt 2938 1049 L
2902 1013 mt 2902 1085 L
2643 3017 mt 2715 3017 L
2679 2981 mt 2679 3053 L
5047 2223 mt 5119 2223 L
5083 2187 mt 5083 2259 L
2836 3137 mt 2908 3137 L
2872 3101 mt 2872 3173 L
3098 2879 mt 3170 2879 L
3134 2843 mt 3134 2915 L
2298 2493 mt 2370 2493 L
2334 2457 mt 2334 2529 L
2545 2145 mt 2617 2145 L
2581 2109 mt 2581 2181 L
3190 3942 mt 3262 3942 L
3226 3906 mt 3226 3978 L
3832 2115 mt 3904 2115 L
3868 2079 mt 3868 2151 L
4274 2209 mt 4346 2209 L
4310 2173 mt 4310 2245 L
3426 2956 mt 3498 2956 L
3462 2920 mt 3462 2992 L
3867 2889 mt 3939 2889 L
3903 2853 mt 3903 2925 L
3370 2532 mt 3442 2532 L
3406 2496 mt 3406 2568 L
3544 3087 mt 3616 3087 L
3580 3051 mt 3580 3123 L
2624 2695 mt 2696 2695 L
2660 2659 mt 2660 2731 L
2432 2073 mt 2504 2073 L
2468 2037 mt 2468 2109 L
3661 1298 mt 3733 1298 L
3697 1262 mt 3697 1334 L
2183 3877 mt 2255 3877 L
2219 3841 mt 2219 3913 L
4306 1006 mt 4378 1006 L
4342  970 mt 4342 1042 L
2456 2628 mt 2528 2628 L
2492 2592 mt 2492 2664 L
3072 3250 mt 3144 3250 L
3108 3214 mt 3108 3286 L
2765 2275 mt 2837 2275 L
2801 2239 mt 2801 2311 L
3820 2611 mt 3892 2611 L
3856 2575 mt 3856 2647 L
4820 2940 mt 4892 2940 L
4856 2904 mt 4856 2976 L
4015 3711 mt 4087 3711 L
4051 3675 mt 4051 3747 L
4094 2251 mt 4166 2251 L
4130 2215 mt 4130 2287 L
5122 2284 mt 5194 2284 L
5158 2248 mt 5158 2320 L
2851 3057 mt 2923 3057 L
2887 3021 mt 2887 3093 L
3398 3625 mt 3470 3625 L
3434 3589 mt 3434 3661 L
2420 2884 mt 2492 2884 L
2456 2848 mt 2456 2920 L
2368 1966 mt 2440 1966 L
2404 1930 mt 2404 2002 L
3909 2316 mt 3981 2316 L
3945 2280 mt 3945 2352 L
2781 2432 mt 2853 2432 L
2817 2396 mt 2817 2468 L
4330 2745 mt 4402 2745 L
4366 2709 mt 4366 2781 L
3220 2347 mt 3292 2347 L
3256 2311 mt 3256 2383 L
4142 1723 mt 4214 1723 L
4178 1687 mt 4178 1759 L
3381 2778 mt 3453 2778 L
3417 2742 mt 3417 2814 L
3728 2501 mt 3800 2501 L
3764 2465 mt 3764 2537 L
4719 2383 mt 4791 2383 L
4755 2347 mt 4755 2419 L
3644 1181 mt 3716 1181 L
3680 1145 mt 3680 1217 L
3499 1680 mt 3571 1680 L
3535 1644 mt 3535 1716 L
3267 2787 mt 3339 2787 L
3303 2751 mt 3303 2823 L
2881 1698 mt 2953 1698 L
2917 1662 mt 2917 1734 L
4322 3314 mt 4394 3314 L
4358 3278 mt 4358 3350 L
2662 1851 mt 2734 1851 L
2698 1815 mt 2698 1887 L
3404 3000 mt 3476 3000 L
3440 2964 mt 3440 3036 L
2235 3257 mt 2307 3257 L
2271 3221 mt 2271 3293 L
3493 2165 mt 3565 2165 L
3529 2129 mt 3529 2201 L
4667 2440 mt 4739 2440 L
4703 2404 mt 4703 2476 L
4199 3436 mt 4271 3436 L
4235 3400 mt 4235 3472 L
3706 1614 mt 3778 1614 L
3742 1578 mt 3742 1650 L
3555 2633 mt 3627 2633 L
3591 2597 mt 3591 2669 L
3421 3774 mt 3493 3774 L
3457 3738 mt 3457 3810 L
3477 1911 mt 3549 1911 L
3513 1875 mt 3513 1947 L
5468 2983 mt 5540 2983 L
5504 2947 mt 5504 3019 L
1387 2329 mt 1459 2329 L
1423 2293 mt 1423 2365 L
3855 3220 mt 3927 3220 L
3891 3184 mt 3891 3256 L
2973 3581 mt 3045 3581 L
3009 3545 mt 3009 3617 L
2938 2265 mt 3010 2265 L
2974 2229 mt 2974 2301 L
2888 2374 mt 2960 2374 L
2924 2338 mt 2924 2410 L
2312 2606 mt 2384 2606 L
2348 2570 mt 2348 2642 L
3172 3425 mt 3244 3425 L
3208 3389 mt 3208 3461 L
1674 3289 mt 1746 3289 L
1710 3253 mt 1710 3325 L
2740 3045 mt 2812 3045 L
2776 3009 mt 2776 3081 L
2575 2471 mt 2647 2471 L
2611 2435 mt 2611 2507 L
5321 2180 mt 5393 2180 L
5357 2144 mt 5357 2216 L
4259 2641 mt 4331 2641 L
4295 2605 mt 4295 2677 L
4314 3178 mt 4386 3178 L
4350 3142 mt 4350 3214 L
4338 1318 mt 4410 1318 L
4374 1282 mt 4374 1354 L
3809 3446 mt 3881 3446 L
3845 3410 mt 3845 3482 L
4047 2571 mt 4119 2571 L
4083 2535 mt 4083 2607 L
2813 3980 mt 2885 3980 L
2849 3944 mt 2849 4016 L
2924 2012 mt 2996 2012 L
2960 1976 mt 2960 2048 L
3838 1779 mt 3910 1779 L
3874 1743 mt 3874 1815 L
3689 2874 mt 3761 2874 L
3725 2838 mt 3725 2910 L
2634 2554 mt 2706 2554 L
2670 2518 mt 2670 2590 L
2805 2130 mt 2877 2130 L
2841 2094 mt 2841 2166 L
4067 3540 mt 4139 3540 L
4103 3504 mt 4103 3576 L
3302 2024 mt 3374 2024 L
3338 1988 mt 3338 2060 L
2490 2580 mt 2562 2580 L
2526 2544 mt 2526 2616 L
4608 2089 mt 4680 2089 L
4644 2053 mt 4644 2125 L
4206 1653 mt 4278 1653 L
4242 1617 mt 4242 1689 L
2555 2356 mt 2627 2356 L
2591 2320 mt 2591 2392 L
4407 2593 mt 4479 2593 L
4443 2557 mt 4443 2629 L
3780 2449 mt 3852 2449 L
3816 2413 mt 3816 2485 L
4041 1948 mt 4113 1948 L
4077 1912 mt 4077 1984 L
3364 1689 mt 3436 1689 L
3400 1653 mt 3400 1725 L
4080 2343 mt 4152 2343 L
4116 2307 mt 4116 2379 L
2355 2233 mt 2427 2233 L
2391 2197 mt 2391 2269 L
2749 2185 mt 2821 2185 L
2785 2149 mt 2785 2221 L
3376 1476 mt 3448 1476 L
3412 1440 mt 3412 1512 L
4522 2796 mt 4594 2796 L
4558 2760 mt 4558 2832 L
3734 1984 mt 3806 1984 L
3770 1948 mt 3770 2020 L
3599 3553 mt 3671 3553 L
3635 3517 mt 3635 3589 L
2874 1624 mt 2946 1624 L
2910 1588 mt 2910 1660 L
1876 3005 mt 1948 3005 L
1912 2969 mt 1912 3041 L
3803 2754 mt 3875 2754 L
3839 2718 mt 3839 2790 L
4453 1232 mt 4525 1232 L
4489 1196 mt 4489 1268 L
3059 1354 mt 3131 1354 L
3095 1318 mt 3095 1390 L
4191 2994 mt 4263 2994 L
4227 2958 mt 4227 3030 L
3946 2820 mt 4018 2820 L
3982 2784 mt 3982 2856 L
3521 1404 mt 3593 1404 L
3557 1368 mt 3557 1440 L
3319 2175 mt 3391 2175 L
3355 2139 mt 3355 2211 L
3577 2562 mt 3649 2562 L
3613 2526 mt 3613 2598 L
2706 3028 mt 2778 3028 L
2742 2992 mt 2742 3064 L
2146 1707 mt 2218 1707 L
2182 1671 mt 2182 1743 L
3996 3157 mt 4068 3157 L
4032 3121 mt 4032 3193 L
3208 3349 mt 3280 3349 L
3244 3313 mt 3244 3385 L
2723 2109 mt 2795 2109 L
2759 2073 mt 2759 2145 L
2282 2768 mt 2354 2768 L
2318 2732 mt 2318 2804 L
3141 2510 mt 3213 2510 L
3177 2474 mt 3177 2546 L
3353 1207 mt 3425 1207 L
3389 1171 mt 3389 1243 L
3560 1904 mt 3632 1904 L
3596 1868 mt 3596 1940 L
3307 1489 mt 3379 1489 L
3343 1453 mt 3343 1525 L
3616 2462 mt 3688 2462 L
3652 2426 mt 3652 2498 L
3649 3151 mt 3721 3151 L
3685 3115 mt 3685 3187 L
gs 899 414 5363 4203 rc
gr

0 sg
2795 5104 mt 
(\(F,DCTb,iMLP\)) s
 482 3259 mt  -90 rotate
(\(S,PAC,GMM\)) s
90 rotate
2905  223 mt 
(Corr = -0.03) s

end %%Color Dict

eplot
%%EndObject

epage
end

showpage

%%Trailer
%%EOF
