%!PS-Adobe-3.0 EPSF-3.0
%%Creator: MATLAB, The Mathworks, Inc.
%%Title: Pictures\main_zoo_analysis_zoo_index_d2_k2_boxplot_fnorm.eps
%%CreationDate: 10/21/2008  06:04:31
%%DocumentNeededFonts: Helvetica
%%DocumentProcessColors: Cyan Magenta Yellow Black
%%LanguageLevel: 2
%%Pages: 1
%%BoundingBox:    18   199   552   583
%%EndComments

%%BeginProlog
% MathWorks dictionary
/MathWorks 160 dict begin
% definition operators
/bdef {bind def} bind def
/ldef {load def} bind def
/xdef {exch def} bdef
/xstore {exch store} bdef
% operator abbreviations
/c  /clip ldef
/cc /concat ldef
/cp /closepath ldef
/gr /grestore ldef
/gs /gsave ldef
/mt /moveto ldef
/np /newpath ldef
/cm /currentmatrix ldef
/sm /setmatrix ldef
/rm /rmoveto ldef
/rl /rlineto ldef
/s {show newpath} bdef
/sc {setcmykcolor} bdef
/sr /setrgbcolor ldef
/sg /setgray ldef
/w /setlinewidth ldef
/j /setlinejoin ldef
/cap /setlinecap ldef
/rc {rectclip} bdef
/rf {rectfill} bdef
% page state control
/pgsv () def
/bpage {/pgsv save def} bdef
/epage {pgsv restore} bdef
/bplot /gsave ldef
/eplot {stroke grestore} bdef
% orientation switch
/portraitMode 0 def /landscapeMode 1 def /rotateMode 2 def
% coordinate system mappings
/dpi2point 0 def
% font control
/FontSize 0 def
/FMS {/FontSize xstore findfont [FontSize 0 0 FontSize neg 0 0]
  makefont setfont} bdef
/ISOLatin1Encoding where {pop /WindowsLatin1Encoding 256 array bdef
ISOLatin1Encoding WindowsLatin1Encoding copy pop
/.notdef/.notdef/quotesinglbase/florin/quotedblbase/ellipsis/dagger
/daggerdbl/circumflex/perthousand/Scaron/guilsinglleft/OE/.notdef/.notdef
/.notdef/.notdef/quoteleft/quoteright/quotedblleft/quotedblright/bullet
/endash/emdash/tilde/trademark/scaron/guilsinglright/oe/.notdef/.notdef
/Ydieresis WindowsLatin1Encoding 128 32 getinterval astore pop}
{/WindowsLatin1Encoding StandardEncoding bdef} ifelse
/reencode {exch dup where {pop load} {pop StandardEncoding} ifelse
  exch dup 3 1 roll findfont dup length dict begin
  { 1 index /FID ne {def}{pop pop} ifelse } forall
  /Encoding exch def currentdict end definefont pop} bdef
/isroman {findfont /CharStrings get /Agrave known} bdef
/FMSR {3 1 roll 1 index dup isroman {reencode} {pop pop} ifelse
  exch FMS} bdef
/csm {1 dpi2point div -1 dpi2point div scale neg translate
 dup landscapeMode eq {pop -90 rotate}
  {rotateMode eq {90 rotate} if} ifelse} bdef
% line types: solid, dotted, dashed, dotdash
/SO { [] 0 setdash } bdef
/DO { [.5 dpi2point mul 4 dpi2point mul] 0 setdash } bdef
/DA { [6 dpi2point mul] 0 setdash } bdef
/DD { [.5 dpi2point mul 4 dpi2point mul 6 dpi2point mul 4
  dpi2point mul] 0 setdash } bdef
% macros for lines and objects
/L {lineto stroke} bdef
/MP {3 1 roll moveto 1 sub {rlineto} repeat} bdef
/AP {{rlineto} repeat} bdef
/PDlw -1 def
/W {/PDlw currentlinewidth def setlinewidth} def
/PP {closepath eofill} bdef
/DP {closepath stroke} bdef
/MR {4 -2 roll moveto dup  0 exch rlineto exch 0 rlineto
  neg 0 exch rlineto closepath} bdef
/FR {MR stroke} bdef
/PR {MR fill} bdef
/L1i {{currentfile picstr readhexstring pop} image} bdef
/tMatrix matrix def
/MakeOval {newpath tMatrix currentmatrix pop translate scale
0 0 1 0 360 arc tMatrix setmatrix} bdef
/FO {MakeOval stroke} bdef
/PO {MakeOval fill} bdef
/PD {currentlinewidth 2 div 0 360 arc fill
   PDlw -1 eq not {PDlw w /PDlw -1 def} if} def
/FA {newpath tMatrix currentmatrix pop translate scale
  0 0 1 5 -2 roll arc tMatrix setmatrix stroke} bdef
/PA {newpath tMatrix currentmatrix pop	translate 0 0 moveto scale
  0 0 1 5 -2 roll arc closepath tMatrix setmatrix fill} bdef
/FAn {newpath tMatrix currentmatrix pop translate scale
  0 0 1 5 -2 roll arcn tMatrix setmatrix stroke} bdef
/PAn {newpath tMatrix currentmatrix pop translate 0 0 moveto scale
  0 0 1 5 -2 roll arcn closepath tMatrix setmatrix fill} bdef
/vradius 0 def /hradius 0 def /lry 0 def
/lrx 0 def /uly 0 def /ulx 0 def /rad 0 def
/MRR {/vradius xdef /hradius xdef /lry xdef /lrx xdef /uly xdef
  /ulx xdef newpath tMatrix currentmatrix pop ulx hradius add uly
  vradius add translate hradius vradius scale 0 0 1 180 270 arc 
  tMatrix setmatrix lrx hradius sub uly vradius add translate
  hradius vradius scale 0 0 1 270 360 arc tMatrix setmatrix
  lrx hradius sub lry vradius sub translate hradius vradius scale
  0 0 1 0 90 arc tMatrix setmatrix ulx hradius add lry vradius sub
  translate hradius vradius scale 0 0 1 90 180 arc tMatrix setmatrix
  closepath} bdef
/FRR {MRR stroke } bdef
/PRR {MRR fill } bdef
/MlrRR {/lry xdef /lrx xdef /uly xdef /ulx xdef /rad lry uly sub 2 div def
  newpath tMatrix currentmatrix pop ulx rad add uly rad add translate
  rad rad scale 0 0 1 90 270 arc tMatrix setmatrix lrx rad sub lry rad
  sub translate rad rad scale 0 0 1 270 90 arc tMatrix setmatrix
  closepath} bdef
/FlrRR {MlrRR stroke } bdef
/PlrRR {MlrRR fill } bdef
/MtbRR {/lry xdef /lrx xdef /uly xdef /ulx xdef /rad lrx ulx sub 2 div def
  newpath tMatrix currentmatrix pop ulx rad add uly rad add translate
  rad rad scale 0 0 1 180 360 arc tMatrix setmatrix lrx rad sub lry rad
  sub translate rad rad scale 0 0 1 0 180 arc tMatrix setmatrix
  closepath} bdef
/FtbRR {MtbRR stroke } bdef
/PtbRR {MtbRR fill } bdef
/stri 6 array def /dtri 6 array def
/smat 6 array def /dmat 6 array def
/tmat1 6 array def /tmat2 6 array def /dif 3 array def
/asub {/ind2 exch def /ind1 exch def dup dup
  ind1 get exch ind2 get sub exch } bdef
/tri_to_matrix {
  2 0 asub 3 1 asub 4 0 asub 5 1 asub
  dup 0 get exch 1 get 7 -1 roll astore } bdef
/compute_transform {
  dmat dtri tri_to_matrix tmat1 invertmatrix 
  smat stri tri_to_matrix tmat2 concatmatrix } bdef
/ds {stri astore pop} bdef
/dt {dtri astore pop} bdef
/db {2 copy /cols xdef /rows xdef mul dup 3 mul string
  currentfile 
  3 index 0 eq {/ASCIIHexDecode filter}
  {/ASCII85Decode filter 3 index 2 eq {/RunLengthDecode filter} if }
  ifelse exch readstring pop
  dup 0 3 index getinterval /rbmap xdef
  dup 2 index dup getinterval /gbmap xdef
  1 index dup 2 mul exch getinterval /bbmap xdef pop pop}bdef
/it {gs np dtri aload pop moveto lineto lineto cp c
  cols rows 8 compute_transform 
  rbmap gbmap bbmap true 3 colorimage gr}bdef
/il {newpath moveto lineto stroke}bdef
currentdict end def
%%EndProlog

%%BeginSetup
MathWorks begin

0 cap

end
%%EndSetup

%%Page: 1 1
%%BeginPageSetup
%%PageBoundingBox:    18   199   552   583
MathWorks begin
bpage
%%EndPageSetup

%%BeginObject: obj1
bplot

/dpi2point 12 def
portraitMode 0216 7344 csm

    0   341  6410  4615 rc
85 dict begin %Colortable dictionary
/c0 { 0.000000 0.000000 0.000000 sr} bdef
/c1 { 1.000000 1.000000 1.000000 sr} bdef
/c2 { 0.900000 0.000000 0.000000 sr} bdef
/c3 { 0.000000 0.820000 0.000000 sr} bdef
/c4 { 0.000000 0.000000 0.800000 sr} bdef
/c5 { 0.910000 0.820000 0.320000 sr} bdef
/c6 { 1.000000 0.260000 0.820000 sr} bdef
/c7 { 0.000000 0.820000 0.820000 sr} bdef
c0
1 j
1 sg
   0    0 6919 5187 rf
6 w
0 -4227 5203 0 0 4227 1058 389 4 MP
PP
-5203 0 0 -4227 5203 0 0 4227 1058 389 5 MP stroke
4 w
DO
SO
6 w
0 sg
1058 4616 mt 6261 4616 L
1058  389 mt 6261  389 L
6261  389 mt 6261 4616 L
1058  389 mt 1058 4616 L
1058 4616 mt 6261 4616 L
1058  389 mt 1058 4616 L
1058 4616 mt 1058 4563 L
1058  389 mt 1058  441 L
%%IncludeResource: font Helvetica
/Helvetica /WindowsLatin1Encoding 120 FMSR

1025 4761 mt 
(0) s
1578 4616 mt 1578 4563 L
1578  389 mt 1578  441 L
1512 4761 mt 
(10) s
2098 4616 mt 2098 4563 L
2098  389 mt 2098  441 L
2032 4761 mt 
(20) s
2618 4616 mt 2618 4563 L
2618  389 mt 2618  441 L
2552 4761 mt 
(30) s
3139 4616 mt 3139 4563 L
3139  389 mt 3139  441 L
3073 4761 mt 
(40) s
3659 4616 mt 3659 4563 L
3659  389 mt 3659  441 L
3593 4761 mt 
(50) s
4179 4616 mt 4179 4563 L
4179  389 mt 4179  441 L
4113 4761 mt 
(60) s
4700 4616 mt 4700 4563 L
4700  389 mt 4700  441 L
4634 4761 mt 
(70) s
5220 4616 mt 5220 4563 L
5220  389 mt 5220  441 L
5154 4761 mt 
(80) s
5740 4616 mt 5740 4563 L
5740  389 mt 5740  441 L
5674 4761 mt 
(90) s
6261 4616 mt 6261 4563 L
6261  389 mt 6261  441 L
6161 4761 mt 
(100) s
1058  551 mt 1110  551 L
6261  551 mt 6208  551 L
 223  595 mt 
(\(F,DCTs,GMM\)) s
1058  876 mt 1110  876 L
6261  876 mt 6208  876 L
 220  920 mt 
(\(F,DCTb,GMM\)) s
1058 1201 mt 1110 1201 L
6261 1201 mt 6208 1201 L
 270 1245 mt 
(\(F,DCTs,MLP\)) s
1058 1527 mt 1110 1527 L
6261 1527 mt 6208 1527 L
 243 1571 mt 
(\(F,DCTs,iMLP\)) s
1058 1852 mt 1110 1852 L
6261 1852 mt 6208 1852 L
 266 1896 mt 
(\(F,DCTb,MLP\)) s
1058 2177 mt 1110 2177 L
6261 2177 mt 6208 2177 L
 240 2221 mt 
(\(F,DCTb,iMLP\)) s
1058 2502 mt 1110 2502 L
6261 2502 mt 6208 2502 L
 196 2546 mt 
(\(S,LFCC,GMM\)) s
1058 2827 mt 1110 2827 L
6261 2827 mt 6208 2827 L
 281 2871 mt 
(\(S,PAC,GMM\)) s
1058 3152 mt 1110 3152 L
6261 3152 mt 6208 3152 L
 263 3196 mt 
(\(S,SSC,GMM\)) s
1058 3477 mt 1110 3477 L
6261 3477 mt 6208 3477 L
 196 3521 mt 
(\(S,LFCC,GMM\)) s
1058 3803 mt 1110 3803 L
6261 3803 mt 6208 3803 L
 281 3847 mt 
(\(S,PAC,GMM\)) s
1058 4128 mt 1110 4128 L
6261 4128 mt 6208 4128 L
 263 4172 mt 
(\(S,SSC,GMM\)) s
1058 4453 mt 1110 4453 L
6261 4453 mt 6208 4453 L
 223 4497 mt 
(\(F,DCTs,GMM\)) s
1058 4616 mt 6261 4616 L
1058  389 mt 6261  389 L
6261  389 mt 6261 4616 L
1058  389 mt 1058 4616 L
3301 4904 mt 
(zoo index [%]) s
 114 2756 mt  -90 rotate
(Data sets) s
90 rotate
gs 1058 389 5204 4228 rc
DA
452 0 5311 551 2 MP stroke
453 0 2143 551 2 MP stroke
SO
0 82 5763 510 2 MP stroke
0 82 2143 510 2 MP stroke
/c8 { 0.000000 0.000000 1.000000 sr} bdef
c8
1357 40 0 -162 -1357 40 -1358 -40 0 162 1358 -40 3953 510 7 MP stroke
/c9 { 1.000000 0.000000 0.000000 sr} bdef
c9
0 82 3953 510 2 MP stroke
DA
0 sg
440 0 5286 876 2 MP stroke
441 0 2199 876 2 MP stroke
SO
0 81 5726 836 2 MP stroke
0 81 2199 836 2 MP stroke
c8
1323 41 0 -163 -1323 41 -1323 -41 0 163 1323 -41 3963 836 7 MP stroke
c9
0 81 3963 836 2 MP stroke
DA
0 sg
433 0 4676 1201 2 MP stroke
433 0 1643 1201 2 MP stroke
SO
0 81 5109 1161 2 MP stroke
0 81 1643 1161 2 MP stroke
c8
1300 41 0 -163 -1300 41 -1300 -41 0 163 1300 -41 3376 1161 7 MP stroke
c9
0 81 3376 1161 2 MP stroke
DA
0 sg
393 0 5175 1527 2 MP stroke
393 0 2428 1527 2 MP stroke
SO
0 81 5568 1486 2 MP stroke
0 81 2428 1486 2 MP stroke
c8
1177 41 0 -163 -1177 41 -1177 -41 0 163 1177 -41 3998 1486 7 MP stroke
c9
0 81 3998 1486 2 MP stroke
DA
0 sg
438 0 4556 1852 2 MP stroke
438 0 1494 1852 2 MP stroke
SO
0 81 4994 1811 2 MP stroke
0 81 1494 1811 2 MP stroke
c8
1312 41 0 -163 -1312 41 -1312 -41 0 163 1312 -41 3244 1811 7 MP stroke
c9
0 81 3244 1811 2 MP stroke
DA
0 sg
475 0 5530 2177 2 MP stroke
475 0 2206 2177 2 MP stroke
SO
0 81 6005 2136 2 MP stroke
0 81 2206 2136 2 MP stroke
c8
1425 40 0 -162 -1425 41 -1424 -41 0 162 1424 -40 4106 2136 7 MP stroke
c9
0 81 4106 2136 2 MP stroke
DA
0 sg
484 0 5537 2502 2 MP stroke
484 0 2147 2502 2 MP stroke
SO
0 82 6021 2461 2 MP stroke
0 82 2147 2461 2 MP stroke
c8
1453 40 0 -162 -1453 40 -1453 -40 0 162 1453 -40 4084 2461 7 MP stroke
c9
0 82 4084 2461 2 MP stroke
DA
0 sg
232 0 6030 2827 2 MP stroke
447 0 2902 2827 2 MP stroke
SO
0 81 2902 2787 2 MP stroke
c8
1340 41 0 -162 -1340 40 -1341 -40 0 162 1341 -41 4689 2787 7 MP stroke
c9
0 81 4689 2787 2 MP stroke
DA
0 sg
246 0 4851 3152 2 MP stroke
SO
0 81 4851 3112 2 MP stroke
c8
427 -24 5835 3112 2 MP stroke
738 41 0 -163 -738 41 -427 -23 6262 3216 5 MP stroke
c9
0 81 5835 3112 2 MP stroke
DA
0 sg
346 0 3928 3477 2 MP stroke
SO
0 81 3928 3437 2 MP stroke
c8
950 -37 5312 3437 2 MP stroke
1038 41 0 -163 -1038 41 -950 -37 6262 3555 5 MP stroke
c9
0 81 5312 3437 2 MP stroke
DA
0 sg
325 0 5937 3803 2 MP stroke
444 0 2831 3803 2 MP stroke
SO
0 81 2831 3762 2 MP stroke
c8
1331 41 0 -163 -1331 41 -1331 -41 0 163 1331 -41 4606 3762 7 MP stroke
c9
0 81 4606 3762 2 MP stroke
DA
0 sg
173 0 6089 4128 2 MP stroke
402 0 3275 4128 2 MP stroke
SO
0 81 3275 4087 2 MP stroke
c8
1206 41 0 -163 -1206 41 -1206 -41 0 163 1206 -41 4883 4087 7 MP stroke
c9
0 81 4883 4087 2 MP stroke
DA
0 sg
460 0 5795 4453 2 MP stroke
461 0 2571 4453 2 MP stroke
SO
0 82 6255 4412 2 MP stroke
0 82 2571 4412 2 MP stroke
c8
1381 40 0 -162 -1381 40 -1382 -40 0 162 1382 -40 4413 4412 7 MP stroke
c9
0 82 4413 4412 2 MP stroke
gr

c9

end %%Color Dict

eplot
%%EndObject

epage
end

showpage

%%Trailer
%%EOF
