%!PS-Adobe-3.0 EPSF-3.0
%%Creator: MATLAB, The Mathworks, Inc. Version 7.7.0.471 (R2008b). Operating System: Microsoft Windows XP.
%%Title: Pictures\main_zoo_mvar_analysis_data_BMI_xcorr_bmig_p1_k2_7_8.eps
%%CreationDate: 10/26/2009  05:45:34
%%DocumentNeededFonts: Helvetica
%%DocumentProcessColors: Cyan Magenta Yellow Black
%%LanguageLevel: 2
%%Pages: 1
%%BoundingBox:    37   180   549   616
%%EndComments

%%BeginProlog
% MathWorks dictionary
/MathWorks 160 dict begin
% definition operators
/bdef {bind def} bind def
/ldef {load def} bind def
/xdef {exch def} bdef
/xstore {exch store} bdef
% operator abbreviations
/c  /clip ldef
/cc /concat ldef
/cp /closepath ldef
/gr /grestore ldef
/gs /gsave ldef
/mt /moveto ldef
/np /newpath ldef
/cm /currentmatrix ldef
/sm /setmatrix ldef
/rm /rmoveto ldef
/rl /rlineto ldef
/s {show newpath} bdef
/sc {setcmykcolor} bdef
/sr /setrgbcolor ldef
/sg /setgray ldef
/w /setlinewidth ldef
/j /setlinejoin ldef
/cap /setlinecap ldef
/rc {rectclip} bdef
/rf {rectfill} bdef
% page state control
/pgsv () def
/bpage {/pgsv save def} bdef
/epage {pgsv restore} bdef
/bplot /gsave ldef
/eplot {stroke grestore} bdef
% orientation switch
/portraitMode 0 def /landscapeMode 1 def /rotateMode 2 def
% coordinate system mappings
/dpi2point 0 def
% font control
/FontSize 0 def
/FMS {/FontSize xstore findfont [FontSize 0 0 FontSize neg 0 0]
  makefont setfont} bdef
/ISOLatin1Encoding where {pop /WindowsLatin1Encoding 256 array bdef
ISOLatin1Encoding WindowsLatin1Encoding copy pop
/.notdef/.notdef/quotesinglbase/florin/quotedblbase/ellipsis/dagger
/daggerdbl/circumflex/perthousand/Scaron/guilsinglleft/OE/.notdef/.notdef
/.notdef/.notdef/quoteleft/quoteright/quotedblleft/quotedblright/bullet
/endash/emdash/tilde/trademark/scaron/guilsinglright/oe/.notdef/.notdef
/Ydieresis WindowsLatin1Encoding 128 32 getinterval astore pop}
{/WindowsLatin1Encoding StandardEncoding bdef} ifelse
/reencode {exch dup where {pop load} {pop StandardEncoding} ifelse
  exch dup 3 1 roll findfont dup length dict begin
  { 1 index /FID ne {def}{pop pop} ifelse } forall
  /Encoding exch def currentdict end definefont pop} bdef
/isroman {findfont /CharStrings get /Agrave known} bdef
/FMSR {3 1 roll 1 index dup isroman {reencode} {pop pop} ifelse
  exch FMS} bdef
/csm {1 dpi2point div -1 dpi2point div scale neg translate
 dup landscapeMode eq {pop -90 rotate}
  {rotateMode eq {90 rotate} if} ifelse} bdef
% line types: solid, dotted, dashed, dotdash
/SO { [] 0 setdash } bdef
/DO { [.5 dpi2point mul 4 dpi2point mul] 0 setdash } bdef
/DA { [6 dpi2point mul] 0 setdash } bdef
/DD { [.5 dpi2point mul 4 dpi2point mul 6 dpi2point mul 4
  dpi2point mul] 0 setdash } bdef
% macros for lines and objects
/L {lineto stroke} bdef
/MP {3 1 roll moveto 1 sub {rlineto} repeat} bdef
/AP {{rlineto} repeat} bdef
/PDlw -1 def
/W {/PDlw currentlinewidth def setlinewidth} def
/PP {closepath eofill} bdef
/DP {closepath stroke} bdef
/MR {4 -2 roll moveto dup  0 exch rlineto exch 0 rlineto
  neg 0 exch rlineto closepath} bdef
/FR {MR stroke} bdef
/PR {MR fill} bdef
/L1i {{currentfile picstr readhexstring pop} image} bdef
/tMatrix matrix def
/MakeOval {newpath tMatrix currentmatrix pop translate scale
0 0 1 0 360 arc tMatrix setmatrix} bdef
/FO {MakeOval stroke} bdef
/PO {MakeOval fill} bdef
/PD {currentlinewidth 2 div 0 360 arc fill
   PDlw -1 eq not {PDlw w /PDlw -1 def} if} def
/FA {newpath tMatrix currentmatrix pop translate scale
  0 0 1 5 -2 roll arc tMatrix setmatrix stroke} bdef
/PA {newpath tMatrix currentmatrix pop	translate 0 0 moveto scale
  0 0 1 5 -2 roll arc closepath tMatrix setmatrix fill} bdef
/FAn {newpath tMatrix currentmatrix pop translate scale
  0 0 1 5 -2 roll arcn tMatrix setmatrix stroke} bdef
/PAn {newpath tMatrix currentmatrix pop translate 0 0 moveto scale
  0 0 1 5 -2 roll arcn closepath tMatrix setmatrix fill} bdef
/vradius 0 def /hradius 0 def /lry 0 def
/lrx 0 def /uly 0 def /ulx 0 def /rad 0 def
/MRR {/vradius xdef /hradius xdef /lry xdef /lrx xdef /uly xdef
  /ulx xdef newpath tMatrix currentmatrix pop ulx hradius add uly
  vradius add translate hradius vradius scale 0 0 1 180 270 arc 
  tMatrix setmatrix lrx hradius sub uly vradius add translate
  hradius vradius scale 0 0 1 270 360 arc tMatrix setmatrix
  lrx hradius sub lry vradius sub translate hradius vradius scale
  0 0 1 0 90 arc tMatrix setmatrix ulx hradius add lry vradius sub
  translate hradius vradius scale 0 0 1 90 180 arc tMatrix setmatrix
  closepath} bdef
/FRR {MRR stroke } bdef
/PRR {MRR fill } bdef
/MlrRR {/lry xdef /lrx xdef /uly xdef /ulx xdef /rad lry uly sub 2 div def
  newpath tMatrix currentmatrix pop ulx rad add uly rad add translate
  rad rad scale 0 0 1 90 270 arc tMatrix setmatrix lrx rad sub lry rad
  sub translate rad rad scale 0 0 1 270 90 arc tMatrix setmatrix
  closepath} bdef
/FlrRR {MlrRR stroke } bdef
/PlrRR {MlrRR fill } bdef
/MtbRR {/lry xdef /lrx xdef /uly xdef /ulx xdef /rad lrx ulx sub 2 div def
  newpath tMatrix currentmatrix pop ulx rad add uly rad add translate
  rad rad scale 0 0 1 180 360 arc tMatrix setmatrix lrx rad sub lry rad
  sub translate rad rad scale 0 0 1 0 180 arc tMatrix setmatrix
  closepath} bdef
/FtbRR {MtbRR stroke } bdef
/PtbRR {MtbRR fill } bdef
/stri 6 array def /dtri 6 array def
/smat 6 array def /dmat 6 array def
/tmat1 6 array def /tmat2 6 array def /dif 3 array def
/asub {/ind2 exch def /ind1 exch def dup dup
  ind1 get exch ind2 get sub exch } bdef
/tri_to_matrix {
  2 0 asub 3 1 asub 4 0 asub 5 1 asub
  dup 0 get exch 1 get 7 -1 roll astore } bdef
/compute_transform {
  dmat dtri tri_to_matrix tmat1 invertmatrix 
  smat stri tri_to_matrix tmat2 concatmatrix } bdef
/ds {stri astore pop} bdef
/dt {dtri astore pop} bdef
/db {2 copy /cols xdef /rows xdef mul dup 3 mul string
  currentfile 
  3 index 0 eq {/ASCIIHexDecode filter}
  {/ASCII85Decode filter 3 index 2 eq {/RunLengthDecode filter} if }
  ifelse exch readstring pop
  dup 0 3 index getinterval /rbmap xdef
  dup 2 index dup getinterval /gbmap xdef
  1 index dup 2 mul exch getinterval /bbmap xdef pop pop}bdef
/it {gs np dtri aload pop moveto lineto lineto cp c
  cols rows 8 compute_transform 
  rbmap gbmap bbmap true 3 colorimage gr}bdef
/il {newpath moveto lineto stroke}bdef
currentdict end def
%%EndProlog

%%BeginSetup
MathWorks begin

0 cap

end
%%EndSetup

%%Page: 1 1
%%BeginPageSetup
%%PageBoundingBox:    37   180   549   616
MathWorks begin
bpage
%%EndPageSetup

%%BeginObject: obj1
bplot

/dpi2point 12 def
portraitMode 0216 7344 csm

  234   -48  6149  5231 rc
85 dict begin %Colortable dictionary
/c0 { 0.000000 0.000000 0.000000 sr} bdef
/c1 { 1.000000 1.000000 1.000000 sr} bdef
/c2 { 0.900000 0.000000 0.000000 sr} bdef
/c3 { 0.000000 0.820000 0.000000 sr} bdef
/c4 { 0.000000 0.000000 0.800000 sr} bdef
/c5 { 0.910000 0.820000 0.320000 sr} bdef
/c6 { 1.000000 0.260000 0.820000 sr} bdef
/c7 { 0.000000 0.820000 0.820000 sr} bdef
c0
1 j
1 sg
   0    0 6919 5187 rf
6 w
0 4202 5362 0 0 -4202 899 4616 4 MP
PP
-5362 0 0 4202 5362 0 0 -4202 899 4616 5 MP stroke
4 w
DO
SO
6 w
0 sg
 899  414 mt 6261  414 L
 899 4616 mt 6261 4616 L
6261 4616 mt 6261  414 L
 899 4616 mt  899  414 L
 899 4616 mt 6261 4616 L
 899 4616 mt  899  414 L
 919 4616 mt  919 4562 L
 919  414 mt  919  467 L
%%IncludeResource: font Helvetica
/Helvetica /WindowsLatin1Encoding 240 FMSR

 713 4873 mt 
(-3) s
1806 4616 mt 1806 4562 L
1806  414 mt 1806  467 L
1600 4873 mt 
(-2) s
2693 4616 mt 2693 4562 L
2693  414 mt 2693  467 L
2487 4873 mt 
(-1) s
3580 4616 mt 3580 4562 L
3580  414 mt 3580  467 L
3514 4873 mt 
(0) s
4466 4616 mt 4466 4562 L
4466  414 mt 4466  467 L
4400 4873 mt 
(1) s
5353 4616 mt 5353 4562 L
5353  414 mt 5353  467 L
5287 4873 mt 
(2) s
6240 4616 mt 6240 4562 L
6240  414 mt 6240  467 L
6174 4873 mt 
(3) s
 899 4599 mt  952 4599 L
6261 4599 mt 6207 4599 L
 591 4688 mt 
(-3) s
 899 3904 mt  952 3904 L
6261 3904 mt 6207 3904 L
 591 3993 mt 
(-2) s
 899 3209 mt  952 3209 L
6261 3209 mt 6207 3209 L
 591 3298 mt 
(-1) s
 899 2514 mt  952 2514 L
6261 2514 mt 6207 2514 L
 731 2603 mt 
(0) s
 899 1820 mt  952 1820 L
6261 1820 mt 6207 1820 L
 731 1909 mt 
(1) s
 899 1125 mt  952 1125 L
6261 1125 mt 6207 1125 L
 731 1214 mt 
(2) s
 899  430 mt  952  430 L
6261  430 mt 6207  430 L
 731  519 mt 
(3) s
 899  414 mt 6261  414 L
 899 4616 mt 6261 4616 L
6261 4616 mt 6261  414 L
 899 4616 mt  899  414 L
gs 899 414 5363 4203 rc
gr

/c8 { 0.000000 0.000000 1.000000 sr} bdef
c8
4643 1255 mt 4715 1255 L
4679 1219 mt 4679 1291 L
3826 2001 mt 3898 2001 L
3862 1965 mt 3862 2037 L
2896 1990 mt 2968 1990 L
2932 1954 mt 2932 2026 L
4128 2637 mt 4200 2637 L
4164 2601 mt 4164 2673 L
4597 1572 mt 4669 1572 L
4633 1536 mt 4633 1608 L
3488 1604 mt 3560 1604 L
3524 1568 mt 3524 1640 L
4330 3257 mt 4402 3257 L
4366 3221 mt 4366 3293 L
3342 2237 mt 3414 2237 L
3378 2201 mt 3378 2273 L
4266 2228 mt 4338 2228 L
4302 2192 mt 4302 2264 L
3672 1336 mt 3744 1336 L
3708 1300 mt 3708 1372 L
3768 2480 mt 3840 2480 L
3804 2444 mt 3804 2516 L
3066 2204 mt 3138 2204 L
3102 2168 mt 3102 2240 L
4228 2695 mt 4300 2695 L
4264 2659 mt 4264 2731 L
3717 1593 mt 3789 1593 L
3753 1557 mt 3753 1629 L
4251 2894 mt 4323 2894 L
4287 2858 mt 4287 2930 L
4002 2796 mt 4074 2796 L
4038 2760 mt 4038 2832 L
3027 1851 mt 3099 1851 L
3063 1815 mt 3063 1887 L
1842 4131 mt 1914 4131 L
1878 4095 mt 1878 4167 L
3903 2458 mt 3975 2458 L
3939 2422 mt 3939 2494 L
3499 2383 mt 3571 2383 L
3535 2347 mt 3535 2419 L
3891 2284 mt 3963 2284 L
3927 2248 mt 3927 2320 L
1907 2311 mt 1979 2311 L
1943 2275 mt 1943 2347 L
4501 2046 mt 4573 2046 L
4537 2010 mt 4537 2082 L
3728 2754 mt 3800 2754 L
3764 2718 mt 3764 2790 L
4021 3289 mt 4093 3289 L
4057 3253 mt 4057 3325 L
3588 2338 mt 3660 2338 L
3624 2302 mt 3624 2374 L
3527 2401 mt 3599 2401 L
3563 2365 mt 3563 2437 L
3897 2488 mt 3969 2488 L
3933 2452 mt 3933 2524 L
4463 1772 mt 4535 1772 L
4499 1736 mt 4499 1808 L
3879 2165 mt 3951 2165 L
3915 2129 mt 3915 2201 L
3376 2514 mt 3448 2514 L
3412 2478 mt 3412 2550 L
3934 2057 mt 4006 2057 L
3970 2021 mt 3970 2093 L
3307 2374 mt 3379 2374 L
3343 2338 mt 3343 2410 L
3129 3250 mt 3201 3250 L
3165 3214 mt 3165 3286 L
4574 1995 mt 4646 1995 L
4610 1959 mt 4610 2031 L
3135 1614 mt 3207 1614 L
3171 1578 mt 3171 1650 L
3460 1978 mt 3532 1978 L
3496 1942 mt 3496 2014 L
4221 3595 mt 4293 3595 L
4257 3559 mt 4257 3631 L
4981 2194 mt 5053 2194 L
5017 2158 mt 5017 2230 L
4381 2035 mt 4453 2035 L
4417 1999 mt 4417 2071 L
3040 2189 mt 3112 2189 L
3076 2153 mt 3076 2225 L
5096 1707 mt 5168 1707 L
5132 1671 mt 5132 1743 L
3774 2265 mt 3846 2265 L
3810 2229 mt 3810 2301 L
2479 2361 mt 2551 2361 L
2515 2325 mt 2515 2397 L
2903 3322 mt 2975 3322 L
2939 3286 mt 2939 3358 L
3694 3415 mt 3766 3415 L
3730 3379 mt 3730 3451 L
4453 2410 mt 4525 2410 L
4489 2374 mt 4489 2446 L
3538 2484 mt 3610 2484 L
3574 2448 mt 3574 2520 L
2866 2825 mt 2938 2825 L
2902 2789 mt 2902 2861 L
3421 3479 mt 3493 3479 L
3457 3443 mt 3457 3515 L
3820 2686 mt 3892 2686 L
3856 2650 mt 3856 2722 L
3740 1550 mt 3812 1550 L
3776 1514 mt 3776 1586 L
3098 2759 mt 3170 2759 L
3134 2723 mt 3134 2795 L
3410 2040 mt 3482 2040 L
3446 2004 mt 3446 2076 L
3398 2440 mt 3470 2440 L
3434 2404 mt 3434 2476 L
2959 2475 mt 3031 2475 L
2995 2439 mt 2995 2511 L
3661 3242 mt 3733 3242 L
3697 3206 mt 3697 3278 L
3330 1966 mt 3402 1966 L
3366 1930 mt 3366 2002 L
4259 2597 mt 4331 2597 L
4295 2561 mt 4295 2633 L
3757 2445 mt 3829 2445 L
3793 2409 mt 3793 2481 L
2420 3171 mt 2492 3171 L
2456 3135 mt 2456 3207 L
3915 3367 mt 3987 3367 L
3951 3331 mt 3951 3403 L
2327 1972 mt 2399 1972 L
2363 1936 mt 2363 2008 L
4435 2493 mt 4507 2493 L
4471 2457 mt 4471 2529 L
3237 1006 mt 3309 1006 L
3273  970 mt 3273 1042 L
3393 2989 mt 3465 2989 L
3429 2953 mt 3429 3025 L
3838 2506 mt 3910 2506 L
3874 2470 mt 3874 2542 L
3964 2864 mt 4036 2864 L
4000 2828 mt 4000 2900 L
4390 2062 mt 4462 2062 L
4426 2026 mt 4426 2098 L
5245 2067 mt 5317 2067 L
5281 2031 mt 5281 2103 L
4338 2160 mt 4410 2160 L
4374 2124 mt 4374 2196 L
2987 1917 mt 3059 1917 L
3023 1881 mt 3023 1953 L
3432 2914 mt 3504 2914 L
3468 2878 mt 3468 2950 L
5047 1152 mt 5119 1152 L
5083 1116 mt 5083 1188 L
3745 1872 mt 3817 1872 L
3781 1836 mt 3781 1908 L
1556 2741 mt 1628 2741 L
1592 2705 mt 1592 2777 L
2697 2175 mt 2769 2175 L
2733 2139 mt 2733 2211 L
5024 2242 mt 5096 2242 L
5060 2206 mt 5060 2278 L
4149 1787 mt 4221 1787 L
4185 1751 mt 4185 1823 L
4163 2423 mt 4235 2423 L
4199 2387 mt 4199 2459 L
4444 1404 mt 4516 1404 L
4480 1368 mt 4480 1440 L
2235 2325 mt 2307 2325 L
2271 2289 mt 2271 2361 L
3296 2664 mt 3368 2664 L
3332 2628 mt 3332 2700 L
5365 2209 mt 5437 2209 L
5401 2173 mt 5401 2245 L
4236 2956 mt 4308 2956 L
4272 2920 mt 4272 2992 L
2201 3051 mt 2273 3051 L
2237 3015 mt 2237 3087 L
4904 1561 mt 4976 1561 L
4940 1525 mt 4940 1597 L
3359 3625 mt 3431 3625 L
3395 3589 mt 3395 3661 L
2381 2270 mt 2453 2270 L
2417 2234 mt 2417 2306 L
5211  824 mt 5283  824 L
5247  788 mt 5247  860 L
4836 2668 mt 4908 2668 L
4872 2632 mt 4872 2704 L
4407 2920 mt 4479 2920 L
4443 2884 mt 4443 2956 L
3996 1898 mt 4068 1898 L
4032 1862 mt 4032 1934 L
3493 2567 mt 3565 2567 L
3529 2531 mt 3529 2603 L
3153 3144 mt 3225 3144 L
3189 3108 mt 3189 3180 L
3449 3235 mt 3521 3235 L
3485 3199 mt 3485 3271 L
3560 2682 mt 3632 2682 L
3596 2646 mt 3596 2718 L
4619 1634 mt 4691 1634 L
4655 1598 mt 4655 1670 L
1805 3797 mt 1877 3797 L
1841 3761 mt 1841 3833 L
4820 2611 mt 4892 2611 L
4856 2575 mt 4856 2647 L
4074 2018 mt 4146 2018 L
4110 1982 mt 4110 2054 L
3555 2528 mt 3627 2528 L
3591 2492 mt 3591 2564 L
2407 3131 mt 2479 3131 L
2443 3095 mt 2443 3167 L
1481 2972 mt 1553 2972 L
1517 2936 mt 1517 3008 L
3123 3178 mt 3195 3178 L
3159 3142 mt 3159 3214 L
4355 2185 mt 4427 2185 L
4391 2149 mt 4391 2221 L
4364 2835 mt 4436 2835 L
4400 2799 mt 4400 2871 L
4015 2532 mt 4087 2532 L
4051 2496 mt 4051 2568 L
3232 2388 mt 3304 2388 L
3268 2352 mt 3268 2424 L
3594 2180 mt 3666 2180 L
3630 2144 mt 3630 2216 L
2757 2329 mt 2829 2329 L
2793 2293 mt 2793 2365 L
3220 2764 mt 3292 2764 L
3256 2728 mt 3256 2800 L
2444 2830 mt 2516 2830 L
2480 2794 mt 2480 2866 L
4306 4205 mt 4378 4205 L
4342 4169 mt 4342 4241 L
2282 2704 mt 2354 2704 L
2318 2668 mt 2318 2740 L
2859 2541 mt 2931 2541 L
2895 2505 mt 2895 2577 L
4719 1756 mt 4791 1756 L
4755 1720 mt 4755 1792 L
3797 3503 mt 3869 3503 L
3833 3467 mt 3833 3539 L
3059 3184 mt 3131 3184 L
3095 3148 mt 3095 3220 L
3711 3908 mt 3783 3908 L
3747 3872 mt 3747 3944 L
3832 2352 mt 3904 2352 L
3868 2316 mt 3868 2388 L
3809 1779 mt 3881 1779 L
3845 1743 mt 3845 1815 L
4041 2343 mt 4113 2343 L
4077 2307 mt 4077 2379 L
4156 3112 mt 4228 3112 L
4192 3076 mt 4192 3148 L
2394 1845 mt 2466 1845 L
2430 1809 mt 2430 1881 L
3605 1671 mt 3677 1671 L
3641 1635 mt 3641 1707 L
3633 3693 mt 3705 3693 L
3669 3657 mt 3669 3729 L
3249 2673 mt 3321 2673 L
3285 2637 mt 3285 2709 L
4009 1794 mt 4081 1794 L
4045 1758 mt 4045 1830 L
2165 3045 mt 2237 3045 L
2201 3009 mt 2201 3081 L
3946 3022 mt 4018 3022 L
3982 2986 mt 3982 3058 L
2749 2768 mt 2821 2768 L
2785 2732 mt 2785 2804 L
3387 2519 mt 3459 2519 L
3423 2483 mt 3423 2555 L
2821 2497 mt 2893 2497 L
2857 2461 mt 2857 2533 L
3566 2650 mt 3638 2650 L
3602 2614 mt 3602 2686 L
2126 2909 mt 2198 2909 L
2162 2873 mt 2162 2945 L
2218 2580 mt 2290 2580 L
2254 2544 mt 2254 2616 L
3814 1885 mt 3886 1885 L
3850 1849 mt 3850 1921 L
3141 2820 mt 3213 2820 L
3177 2784 mt 3177 2856 L
4135 3125 mt 4207 3125 L
4171 3089 mt 4171 3161 L
3780 2967 mt 3852 2967 L
3816 2931 mt 3816 3003 L
4667 2279 mt 4739 2279 L
4703 2243 mt 4703 2315 L
3638 3057 mt 3710 3057 L
3674 3021 mt 3674 3093 L
3873 2700 mt 3945 2700 L
3909 2664 mt 3909 2736 L
4522 1698 mt 4594 1698 L
4558 1662 mt 4558 1734 L
3471 2392 mt 3543 2392 L
3507 2356 mt 3507 2428 L
3208 2334 mt 3280 2334 L
3244 2298 mt 3244 2370 L
4886 1388 mt 4958 1388 L
4922 1352 mt 4922 1424 L
4398 3675 mt 4470 3675 L
4434 3639 mt 4434 3711 L
4789 1904 mt 4861 1904 L
4825 1868 mt 4825 1940 L
3952 2449 mt 4024 2449 L
3988 2413 mt 3988 2485 L
2355 3395 mt 2427 3395 L
2391 3359 mt 2391 3431 L
4177 2713 mt 4249 2713 L
4213 2677 mt 4213 2749 L
3477 2261 mt 3549 2261 L
3513 2225 mt 3513 2297 L
4170 2709 mt 4242 2709 L
4206 2673 mt 4206 2745 L
4482 3340 mt 4554 3340 L
4518 3304 mt 4518 3376 L
2312 1689 mt 2384 1689 L
2348 1653 mt 2348 1725 L
2874 2899 mt 2946 2899 L
2910 2863 mt 2910 2935 L
3302 1838 mt 3374 1838 L
3338 1802 mt 3338 1874 L
3261 3273 mt 3333 3273 L
3297 3237 mt 3297 3309 L
2924 2854 mt 2996 2854 L
2960 2818 mt 2960 2890 L
1991 3641 mt 2063 3641 L
2027 3605 mt 2027 3677 L
3734 2462 mt 3806 2462 L
3770 2426 mt 3770 2498 L
3278 2302 mt 3350 2302 L
3314 2266 mt 3314 2338 L
4512 2736 mt 4584 2736 L
4548 2700 mt 4548 2772 L
3983 2930 mt 4055 2930 L
4019 2894 mt 4019 2966 L
2723 2633 mt 2795 2633 L
2759 2597 mt 2759 2669 L
3516 4616 mt 3588 4616 L
3552 4580 mt 3552 4652 L
5468 2659 mt 5540 2659 L
5504 2623 mt 5504 2695 L
4347 2293 mt 4419 2293 L
4383 2257 mt 4383 2329 L
4372 2199 mt 4444 2199 L
4408 2163 mt 4408 2235 L
4585 1948 mt 4657 1948 L
4621 1912 mt 4621 1984 L
3927 3191 mt 3999 3191 L
3963 3155 mt 3963 3227 L
3909 2307 mt 3981 2307 L
3945 2271 mt 3945 2343 L
3104 3206 mt 3176 3206 L
3140 3170 mt 3140 3242 L
3706 2094 mt 3778 2094 L
3742 2058 mt 3742 2130 L
3940 2396 mt 4012 2396 L
3976 2360 mt 3976 2432 L
3190 2874 mt 3262 2874 L
3226 2838 mt 3226 2910 L
3844 2125 mt 3916 2125 L
3880 2089 mt 3880 2161 L
4655 1865 mt 4727 1865 L
4691 1829 mt 4691 1901 L
3267 2935 mt 3339 2935 L
3303 2899 mt 3303 2971 L
2715 3017 mt 2787 3017 L
2751 2981 mt 2751 3053 L
4087 1643 mt 4159 1643 L
4123 1607 mt 4123 1679 L
2836 2078 mt 2908 2078 L
2872 2042 mt 2872 2114 L
4100 3349 mt 4172 3349 L
4136 3313 mt 4136 3385 L
2966 1831 mt 3038 1831 L
3002 1795 mt 3002 1867 L
3621 2347 mt 3693 2347 L
3657 2311 mt 3657 2383 L
3178 1748 mt 3250 1748 L
3214 1712 mt 3214 1784 L
4542 3658 mt 4614 3658 L
4578 3622 mt 4578 3694 L
2828 1419 mt 2900 1419 L
2864 1383 mt 2864 1455 L
2251 1538 mt 2323 1538 L
2287 1502 mt 2287 1574 L
2781 2727 mt 2853 2727 L
2817 2691 mt 2817 2763 L
4553 2275 mt 4625 2275 L
4589 2239 mt 4589 2311 L
4054 1984 mt 4126 1984 L
4090 1948 mt 4090 2020 L
4775 1583 mt 4847 1583 L
4811 1547 mt 4811 1619 L
4693 1923 mt 4765 1923 L
4729 1887 mt 4729 1959 L
3415 3039 mt 3487 3039 L
3451 3003 mt 3451 3075 L
4706 2405 mt 4778 2405 L
4742 2369 mt 4742 2441 L
3571 3358 mt 3643 3358 L
3607 3322 mt 3607 3394 L
3226 2140 mt 3298 2140 L
3262 2104 mt 3262 2176 L
4472 1087 mt 4544 1087 L
4508 1051 mt 4508 1123 L
4732 1715 mt 4804 1715 L
4768 1679 mt 4768 1751 L
3989 2099 mt 4061 2099 L
4025 2063 mt 4025 2135 L
3110 3164 mt 3182 3164 L
3146 3128 mt 3146 3200 L
4425 2012 mt 4497 2012 L
4461 1976 mt 4461 2048 L
3313 2467 mt 3385 2467 L
3349 2431 mt 3349 2503 L
3196 3034 mt 3268 3034 L
3232 2998 mt 3232 3070 L
2513 2007 mt 2585 2007 L
2549 1971 mt 2549 2043 L
6225 1930 mt 6297 1930 L
6261 1894 mt 6261 1966 L
2341 3314 mt 2413 3314 L
2377 3278 mt 2377 3350 L
4941 1181 mt 5013 1181 L
4977 1145 mt 4977 1217 L
3353 2247 mt 3425 2247 L
3389 2211 mt 3389 2283 L
4564 1911 mt 4636 1911 L
4600 1875 mt 4600 1947 L
3510 3005 mt 3582 3005 L
3546 2969 mt 3546 3041 L
4760 2365 mt 4832 2365 L
4796 2329 mt 4796 2401 L
2634 1878 mt 2706 1878 L
2670 1842 mt 2670 1914 L
5413 1802 mt 5485 1802 L
5449 1766 mt 5449 1838 L
2797 2256 mt 2869 2256 L
2833 2220 mt 2833 2292 L
1674 2432 mt 1746 2432 L
1710 2396 mt 1710 2468 L
3255 2558 mt 3327 2558 L
3291 2522 mt 3291 2594 L
3085 2869 mt 3157 2869 L
3121 2833 mt 3121 2905 L
4243 2994 mt 4315 2994 L
4279 2958 mt 4279 3030 L
3577 2745 mt 3649 2745 L
3613 2709 mt 3613 2781 L
1937 3567 mt 2009 3567 L
1973 3531 mt 1973 3603 L
2993 2571 mt 3065 2571 L
3029 2535 mt 3029 2607 L
3803 2356 mt 3875 2356 L
3839 2320 mt 3839 2392 L
4028 3157 mt 4100 3157 L
4064 3121 mt 4064 3193 L
4094 2615 mt 4166 2615 L
4130 2579 mt 4130 2651 L
3850 1207 mt 3922 1207 L
3886 1171 mt 3886 1243 L
3347 1318 mt 3419 1318 L
3383 1282 mt 3383 1354 L
1722 4305 mt 1794 4305 L
1758 4269 mt 1758 4341 L
3053 3457 mt 3125 3457 L
3089 3421 mt 3089 3493 L
3013 3942 mt 3085 3942 L
3049 3906 mt 3049 3978 L
3689 2120 mt 3761 2120 L
3725 2084 mt 3725 2156 L
5531 1371 mt 5603 1371 L
5567 1335 mt 5567 1407 L
3610 4023 mt 3682 4023 L
3646 3987 mt 3646 4059 L
2732 3081 mt 2804 3081 L
2768 3045 mt 2768 3117 L
3007 2115 mt 3079 2115 L
3043 2079 mt 3043 2151 L
4282 2545 mt 4354 2545 L
4318 2509 mt 4318 2581 L
4121 2218 mt 4193 2218 L
4157 2182 mt 4157 2254 L
2813 2787 mt 2885 2787 L
2849 2751 mt 2849 2823 L
3243 2677 mt 3315 2677 L
3279 2641 mt 3279 2713 L
3861 2024 mt 3933 2024 L
3897 1988 mt 3897 2060 L
5321 2562 mt 5393 2562 L
5357 2526 mt 5357 2598 L
1387 2135 mt 1459 2135 L
1423 2099 mt 1423 2171 L
3958 2773 mt 4030 2773 L
3994 2737 mt 3994 2809 L
3426 2170 mt 3498 2170 L
3462 2134 mt 3462 2206 L
4274 1892 mt 4346 1892 L
4310 1856 mt 4310 1928 L
5606 2251 mt 5678 2251 L
5642 2215 mt 5642 2287 L
2545 2731 mt 2617 2731 L
2581 2695 mt 2581 2767 L
1965 2940 mt 2037 2940 L
2001 2904 mt 2001 2976 L
3921 1680 mt 3993 1680 L
3957 1644 mt 3957 1716 L
3723 1049 mt 3795 1049 L
3759 1013 mt 3759 1085 L
3072 4072 mt 3144 4072 L
3108 4036 mt 3108 4108 L
3404 2576 mt 3476 2576 L
3440 2540 mt 3440 2612 L
2016 3436 mt 2088 3436 L
2052 3400 mt 2052 3472 L
4416 2150 mt 4488 2150 L
4452 2114 mt 4452 2186 L
2931 2523 mt 3003 2523 L
2967 2487 mt 2967 2559 L
4114 1354 mt 4186 1354 L
4150 1318 mt 4150 1390 L
3655 2029 mt 3727 2029 L
3691 1993 mt 3691 2065 L
2662 3198 mt 2734 3198 L
2698 3162 mt 2698 3234 L
4184 3220 mt 4256 3220 L
4220 3184 mt 4220 3256 L
3666 3731 mt 3738 3731 L
3702 3695 mt 3702 3767 L
2534 3540 mt 2606 3540 L
2570 3504 mt 2570 3576 L
4746 1809 mt 4818 1809 L
4782 1773 mt 4782 1845 L
2605 2414 mt 2677 2414 L
2641 2378 mt 2641 2450 L
2624 3075 mt 2696 3075 L
2660 3039 mt 2660 3111 L
4290  898 mt 4362  898 L
4326  862 mt 4326  934 L
5002 2214 mt 5074 2214 L
5038 2178 mt 5038 2250 L
3370 2298 mt 3442 2298 L
3406 2262 mt 3406 2334 L
4532 2628 mt 4604 2628 L
4568 2592 mt 4568 2664 L
2368 1489 mt 2440 1489 L
2404 1453 mt 2404 1525 L
2468 3028 mt 2540 3028 L
2504 2992 mt 2504 3064 L
4869 2951 mt 4941 2951 L
4905 2915 mt 4905 2987 L
3521 1624 mt 3593 1624 L
3557 1588 mt 3557 1660 L
 863 1448 mt  935 1448 L
 899 1412 mt  899 1484 L
3273 1740 mt 3345 1740 L
3309 1704 mt 3309 1776 L
4199 2815 mt 4271 2815 L
4235 2779 mt 4235 2851 L
3582 2316 mt 3654 2316 L
3618 2280 mt 3618 2352 L
5282 1954 mt 5354 1954 L
5318 1918 mt 5318 1990 L
3202 2602 mt 3274 2602 L
3238 2566 mt 3238 2638 L
3319 1434 mt 3391 1434 L
3355 1398 mt 3355 1470 L
2805 3087 mt 2877 3087 L
2841 3051 mt 2841 3123 L
3791 2619 mt 3863 2619 L
3827 2583 mt 3827 2655 L
3505 3376 mt 3577 3376 L
3541 3340 mt 3541 3412 L
4805 1121 mt 4877 1121 L
4841 1085 mt 4841 1157 L
4961 2510 mt 5033 2510 L
4997 2474 mt 4997 2546 L
3336 3822 mt 3408 3822 L
3372 3786 mt 3372 3858 L
2490 2589 mt 2562 2589 L
2526 2553 mt 2526 2625 L
3438  414 mt 3510  414 L
3474  378 mt 3474  450 L
3616 3553 mt 3688 3553 L
3652 3517 mt 3652 3589 L
4314 3106 mt 4386 3106 L
4350 3070 mt 4350 3142 L
3762 2130 mt 3834 2130 L
3798 2094 mt 3798 2166 L
2575 3331 mt 2647 3331 L
2611 3295 mt 2611 3367 L
3867 3297 mt 3939 3297 L
3903 3261 mt 3903 3333 L
2680 3011 mt 2752 3011 L
2716 2975 mt 2716 3047 L
2298 2792 mt 2370 2792 L
2334 2756 mt 2334 2828 L
5828 2089 mt 5900 2089 L
5864 2053 mt 5864 2125 L
2085 1764 mt 2157 1764 L
2121 1728 mt 2121 1800 L
4080 2811 mt 4152 2811 L
4116 2775 mt 4116 2847 L
3885 2320 mt 3957 2320 L
3921 2284 mt 3921 2356 L
2652 1476 mt 2724 1476 L
2688 1440 mt 2688 1512 L
3160 2536 mt 3232 2536 L
3196 2500 mt 3196 2572 L
2432 3118 mt 2504 3118 L
2468 3082 mt 2468 3154 L
3454 2418 mt 3526 2418 L
3490 2382 mt 3490 2454 L
2980 2925 mt 3052 2925 L
3016 2889 mt 3016 2961 L
4142 3213 mt 4214 3213 L
4178 3177 mt 4178 3249 L
3599 3093 mt 3671 3093 L
3635 3057 mt 3635 3129 L
2643 2879 mt 2715 2879 L
2679 2843 mt 2679 2915 L
2952 3581 mt 3024 3581 L
2988 3545 mt 2988 3617 L
4206 2233 mt 4278 2233 L
4242 2197 mt 4242 2269 L
2040 3137 mt 2112 3137 L
2076 3101 mt 2076 3173 L
2586 2978 mt 2658 2978 L
2622 2942 mt 2622 3014 L
3284 2145 mt 3356 2145 L
3320 2109 mt 3320 2181 L
2881 2223 mt 2953 2223 L
2917 2187 mt 2917 2259 L
3033 3877 mt 3105 3877 L
3069 3841 mt 3069 3913 L
3627 2104 mt 3699 2104 L
3663 2068 mt 3663 2140 L
3381 2904 mt 3453 2904 L
3417 2868 mt 3417 2940 L
3466 3610 mt 3538 3610 L
3502 3574 mt 3502 3646 L
5700 2109 mt 5772 2109 L
5736 2073 mt 5736 2145 L
3683 2083 mt 3755 2083 L
3719 2047 mt 3719 2119 L
3078 3980 mt 3150 3980 L
3114 3944 mt 3114 4016 L
3644 3306 mt 3716 3306 L
3680 3270 mt 3680 3342 L
3649 1462 mt 3721 1462 L
3685 1426 mt 3685 1498 L
4631 2624 mt 4703 2624 L
4667 2588 mt 4667 2660 L
3532 1858 mt 3604 1858 L
3568 1822 mt 3568 1894 L
1259 2750 mt 1331 2750 L
1295 2714 mt 1295 2786 L
2773 3711 mt 2845 3711 L
2809 3675 mt 2809 3747 L
2267 3752 mt 2339 3752 L
2303 3716 mt 2303 3788 L
3751 2946 mt 3823 2946 L
3787 2910 mt 3787 2982 L
4322 2051 mt 4394 2051 L
4358 2015 mt 4358 2087 L
2555 2801 mt 2627 2801 L
2591 2765 mt 2591 2837 L
3544 1526 mt 3616 1526 L
3580 1490 mt 3580 1562 L
2945 2718 mt 3017 2718 L
2981 2682 mt 2981 2754 L
3549 3491 mt 3621 3491 L
3585 3455 mt 3585 3527 L
2789 3774 mt 2861 3774 L
2825 3738 mt 2825 3810 L
3482 3386 mt 3554 3386 L
3518 3350 mt 3518 3422 L
4922 1936 mt 4994 1936 L
4958 1900 mt 4958 1972 L
2851 2884 mt 2923 2884 L
2887 2848 mt 2887 2920 L
3677 2073 mt 3749 2073 L
3713 2037 mt 3713 2109 L
5150 2849 mt 5222 2849 L
5186 2813 mt 5186 2885 L
4191 2554 mt 4263 2554 L
4227 2518 mt 4227 2590 L
2615 1277 mt 2687 1277 L
2651 1241 mt 2651 1313 L
4060 3446 mt 4132 3446 L
4096 3410 mt 4096 3482 L
4608 2436 mt 4680 2436 L
4644 2400 mt 4644 2472 L
3046 2782 mt 3118 2782 L
3082 2746 mt 3082 2818 L
2146 1823 mt 2218 1823 L
2182 1787 mt 2182 1859 L
2938 1298 mt 3010 1298 L
2974 1262 mt 2974 1334 L
4067 3515 mt 4139 3515 L
4103 3479 mt 4103 3551 L
1766 3063 mt 1838 3063 L
1802 3027 mt 1802 3099 L
3855 2155 mt 3927 2155 L
3891 2119 mt 3891 2191 L
2523 3069 mt 2595 3069 L
2559 3033 mt 2559 3105 L
2888 2370 mt 2960 2370 L
2924 2334 mt 2924 2406 L
3325 1960 mt 3397 1960 L
3361 1924 mt 3361 1996 L
4680  564 mt 4752  564 L
4716  528 mt 4716  600 L
5180 2983 mt 5252 2983 L
5216 2947 mt 5216 3019 L
2671 3468 mt 2743 3468 L
2707 3432 mt 2707 3504 L
2502 2844 mt 2574 2844 L
2538 2808 mt 2538 2880 L
3091 3281 mt 3163 3281 L
3127 3245 mt 3127 3317 L
3214 3527 mt 3286 3527 L
3250 3491 mt 3250 3563 L
1619 1816 mt 1691 1816 L
1655 1780 mt 1655 1852 L
3785 2549 mt 3857 2549 L
3821 2513 mt 3821 2585 L
6033 2288 mt 6105 2288 L
6069 2252 mt 6069 2324 L
3166 1662 mt 3238 1662 L
3202 1626 mt 3202 1698 L
3000 3265 mt 3072 3265 L
3036 3229 mt 3036 3301 L
2917 3425 mt 2989 3425 L
2953 3389 mt 2953 3461 L
2706 2584 mt 2778 2584 L
2742 2548 mt 2742 2620 L
2063 2889 mt 2135 2889 L
2099 2853 mt 2099 2925 L
1876 1232 mt 1948 1232 L
1912 1196 mt 1912 1268 L
3977 1942 mt 4049 1942 L
4013 1906 mt 4013 1978 L
2456 3227 mt 2528 3227 L
2492 3191 mt 2492 3263 L
3184 2471 mt 3256 2471 L
3220 2435 mt 3220 2507 L
3443 2806 mt 3515 2806 L
3479 2770 mt 3479 2842 L
2973 1514 mt 3045 1514 L
3009 1478 mt 3009 1550 L
2565 2379 mt 2637 2379 L
2601 2343 mt 2601 2415 L
3971 1502 mt 4043 1502 L
4007 1466 mt 4007 1538 L
3172 2962 mt 3244 2962 L
3208 2926 mt 3208 2998 L
2910 2641 mt 2982 2641 L
2946 2605 mt 2946 2677 L
3290 2778 mt 3362 2778 L
3326 2742 mt 3326 2814 L
2689 2655 mt 2761 2655 L
2725 2619 mt 2725 2691 L
2106 2691 mt 2178 2691 L
2142 2655 mt 2142 2727 L
4034 2501 mt 4106 2501 L
4070 2465 mt 4070 2537 L
4047 2427 mt 4119 2427 L
4083 2391 mt 4083 2463 L
4107 2593 mt 4179 2593 L
4143 2557 mt 4143 2629 L
3700 2606 mt 3772 2606 L
3736 2570 mt 3736 2642 L
2740 3151 mt 2812 3151 L
2776 3115 mt 2776 3187 L
2183 3099 mt 2255 3099 L
2219 3063 mt 2219 3135 L
3147 3405 mt 3219 3405 L
3183 3369 mt 3183 3441 L
2844 2859 mt 2916 2859 L
2880 2823 mt 2880 2895 L
5071 1723 mt 5143 1723 L
5107 1687 mt 5107 1759 L
2595 2453 mt 2667 2453 L
2631 2417 mt 2631 2489 L
3116 3848 mt 3188 3848 L
3152 3812 mt 3152 3884 L
3364 2722 mt 3436 2722 L
3400 2686 mt 3400 2758 L
4213  957 mt 4285  957 L
4249  921 mt 4249  993 L
4298 3000 mt 4370 3000 L
4334 2964 mt 4334 3036 L
5122  724 mt 5194  724 L
5158  688 mt 5158  760 L
2765 2646 mt 2837 2646 L
2801 2610 mt 2801 2682 L
4852 1653 mt 4924 1653 L
4888 1617 mt 4888 1689 L
3020 2840 mt 3092 2840 L
3056 2804 mt 3056 2876 L
4492 1732 mt 4564 1732 L
4528 1696 mt 4528 1768 L
gs 899 414 5363 4203 rc
gr

0 sg
2752 5104 mt 
(\(S,LFCC,GMM\)) s
 482 3259 mt  -90 rotate
(\(S,PAC,GMM\)) s
90 rotate
2975  223 mt 
(Corr = 0.29) s

end %%Color Dict

eplot
%%EndObject

epage
end

showpage

%%Trailer
%%EOF
