%!PS-Adobe-3.0 EPSF-3.0
%%Creator: MATLAB, The Mathworks, Inc. Version 7.7.0.471 (R2008b). Operating System: Microsoft Windows XP.
%%Title: Pictures\main_zoo_mvar_analysis_data_BMI_xcorr_bmig_p1_k1_1_7.eps
%%CreationDate: 10/26/2009  05:44:48
%%DocumentNeededFonts: Helvetica
%%DocumentProcessColors: Cyan Magenta Yellow Black
%%LanguageLevel: 2
%%Pages: 1
%%BoundingBox:    37   180   549   616
%%EndComments

%%BeginProlog
% MathWorks dictionary
/MathWorks 160 dict begin
% definition operators
/bdef {bind def} bind def
/ldef {load def} bind def
/xdef {exch def} bdef
/xstore {exch store} bdef
% operator abbreviations
/c  /clip ldef
/cc /concat ldef
/cp /closepath ldef
/gr /grestore ldef
/gs /gsave ldef
/mt /moveto ldef
/np /newpath ldef
/cm /currentmatrix ldef
/sm /setmatrix ldef
/rm /rmoveto ldef
/rl /rlineto ldef
/s {show newpath} bdef
/sc {setcmykcolor} bdef
/sr /setrgbcolor ldef
/sg /setgray ldef
/w /setlinewidth ldef
/j /setlinejoin ldef
/cap /setlinecap ldef
/rc {rectclip} bdef
/rf {rectfill} bdef
% page state control
/pgsv () def
/bpage {/pgsv save def} bdef
/epage {pgsv restore} bdef
/bplot /gsave ldef
/eplot {stroke grestore} bdef
% orientation switch
/portraitMode 0 def /landscapeMode 1 def /rotateMode 2 def
% coordinate system mappings
/dpi2point 0 def
% font control
/FontSize 0 def
/FMS {/FontSize xstore findfont [FontSize 0 0 FontSize neg 0 0]
  makefont setfont} bdef
/ISOLatin1Encoding where {pop /WindowsLatin1Encoding 256 array bdef
ISOLatin1Encoding WindowsLatin1Encoding copy pop
/.notdef/.notdef/quotesinglbase/florin/quotedblbase/ellipsis/dagger
/daggerdbl/circumflex/perthousand/Scaron/guilsinglleft/OE/.notdef/.notdef
/.notdef/.notdef/quoteleft/quoteright/quotedblleft/quotedblright/bullet
/endash/emdash/tilde/trademark/scaron/guilsinglright/oe/.notdef/.notdef
/Ydieresis WindowsLatin1Encoding 128 32 getinterval astore pop}
{/WindowsLatin1Encoding StandardEncoding bdef} ifelse
/reencode {exch dup where {pop load} {pop StandardEncoding} ifelse
  exch dup 3 1 roll findfont dup length dict begin
  { 1 index /FID ne {def}{pop pop} ifelse } forall
  /Encoding exch def currentdict end definefont pop} bdef
/isroman {findfont /CharStrings get /Agrave known} bdef
/FMSR {3 1 roll 1 index dup isroman {reencode} {pop pop} ifelse
  exch FMS} bdef
/csm {1 dpi2point div -1 dpi2point div scale neg translate
 dup landscapeMode eq {pop -90 rotate}
  {rotateMode eq {90 rotate} if} ifelse} bdef
% line types: solid, dotted, dashed, dotdash
/SO { [] 0 setdash } bdef
/DO { [.5 dpi2point mul 4 dpi2point mul] 0 setdash } bdef
/DA { [6 dpi2point mul] 0 setdash } bdef
/DD { [.5 dpi2point mul 4 dpi2point mul 6 dpi2point mul 4
  dpi2point mul] 0 setdash } bdef
% macros for lines and objects
/L {lineto stroke} bdef
/MP {3 1 roll moveto 1 sub {rlineto} repeat} bdef
/AP {{rlineto} repeat} bdef
/PDlw -1 def
/W {/PDlw currentlinewidth def setlinewidth} def
/PP {closepath eofill} bdef
/DP {closepath stroke} bdef
/MR {4 -2 roll moveto dup  0 exch rlineto exch 0 rlineto
  neg 0 exch rlineto closepath} bdef
/FR {MR stroke} bdef
/PR {MR fill} bdef
/L1i {{currentfile picstr readhexstring pop} image} bdef
/tMatrix matrix def
/MakeOval {newpath tMatrix currentmatrix pop translate scale
0 0 1 0 360 arc tMatrix setmatrix} bdef
/FO {MakeOval stroke} bdef
/PO {MakeOval fill} bdef
/PD {currentlinewidth 2 div 0 360 arc fill
   PDlw -1 eq not {PDlw w /PDlw -1 def} if} def
/FA {newpath tMatrix currentmatrix pop translate scale
  0 0 1 5 -2 roll arc tMatrix setmatrix stroke} bdef
/PA {newpath tMatrix currentmatrix pop	translate 0 0 moveto scale
  0 0 1 5 -2 roll arc closepath tMatrix setmatrix fill} bdef
/FAn {newpath tMatrix currentmatrix pop translate scale
  0 0 1 5 -2 roll arcn tMatrix setmatrix stroke} bdef
/PAn {newpath tMatrix currentmatrix pop translate 0 0 moveto scale
  0 0 1 5 -2 roll arcn closepath tMatrix setmatrix fill} bdef
/vradius 0 def /hradius 0 def /lry 0 def
/lrx 0 def /uly 0 def /ulx 0 def /rad 0 def
/MRR {/vradius xdef /hradius xdef /lry xdef /lrx xdef /uly xdef
  /ulx xdef newpath tMatrix currentmatrix pop ulx hradius add uly
  vradius add translate hradius vradius scale 0 0 1 180 270 arc 
  tMatrix setmatrix lrx hradius sub uly vradius add translate
  hradius vradius scale 0 0 1 270 360 arc tMatrix setmatrix
  lrx hradius sub lry vradius sub translate hradius vradius scale
  0 0 1 0 90 arc tMatrix setmatrix ulx hradius add lry vradius sub
  translate hradius vradius scale 0 0 1 90 180 arc tMatrix setmatrix
  closepath} bdef
/FRR {MRR stroke } bdef
/PRR {MRR fill } bdef
/MlrRR {/lry xdef /lrx xdef /uly xdef /ulx xdef /rad lry uly sub 2 div def
  newpath tMatrix currentmatrix pop ulx rad add uly rad add translate
  rad rad scale 0 0 1 90 270 arc tMatrix setmatrix lrx rad sub lry rad
  sub translate rad rad scale 0 0 1 270 90 arc tMatrix setmatrix
  closepath} bdef
/FlrRR {MlrRR stroke } bdef
/PlrRR {MlrRR fill } bdef
/MtbRR {/lry xdef /lrx xdef /uly xdef /ulx xdef /rad lrx ulx sub 2 div def
  newpath tMatrix currentmatrix pop ulx rad add uly rad add translate
  rad rad scale 0 0 1 180 360 arc tMatrix setmatrix lrx rad sub lry rad
  sub translate rad rad scale 0 0 1 0 180 arc tMatrix setmatrix
  closepath} bdef
/FtbRR {MtbRR stroke } bdef
/PtbRR {MtbRR fill } bdef
/stri 6 array def /dtri 6 array def
/smat 6 array def /dmat 6 array def
/tmat1 6 array def /tmat2 6 array def /dif 3 array def
/asub {/ind2 exch def /ind1 exch def dup dup
  ind1 get exch ind2 get sub exch } bdef
/tri_to_matrix {
  2 0 asub 3 1 asub 4 0 asub 5 1 asub
  dup 0 get exch 1 get 7 -1 roll astore } bdef
/compute_transform {
  dmat dtri tri_to_matrix tmat1 invertmatrix 
  smat stri tri_to_matrix tmat2 concatmatrix } bdef
/ds {stri astore pop} bdef
/dt {dtri astore pop} bdef
/db {2 copy /cols xdef /rows xdef mul dup 3 mul string
  currentfile 
  3 index 0 eq {/ASCIIHexDecode filter}
  {/ASCII85Decode filter 3 index 2 eq {/RunLengthDecode filter} if }
  ifelse exch readstring pop
  dup 0 3 index getinterval /rbmap xdef
  dup 2 index dup getinterval /gbmap xdef
  1 index dup 2 mul exch getinterval /bbmap xdef pop pop}bdef
/it {gs np dtri aload pop moveto lineto lineto cp c
  cols rows 8 compute_transform 
  rbmap gbmap bbmap true 3 colorimage gr}bdef
/il {newpath moveto lineto stroke}bdef
currentdict end def
%%EndProlog

%%BeginSetup
MathWorks begin

0 cap

end
%%EndSetup

%%Page: 1 1
%%BeginPageSetup
%%PageBoundingBox:    37   180   549   616
MathWorks begin
bpage
%%EndPageSetup

%%BeginObject: obj1
bplot

/dpi2point 12 def
portraitMode 0216 7344 csm

  234   -48  6149  5231 rc
85 dict begin %Colortable dictionary
/c0 { 0.000000 0.000000 0.000000 sr} bdef
/c1 { 1.000000 1.000000 1.000000 sr} bdef
/c2 { 0.900000 0.000000 0.000000 sr} bdef
/c3 { 0.000000 0.820000 0.000000 sr} bdef
/c4 { 0.000000 0.000000 0.800000 sr} bdef
/c5 { 0.910000 0.820000 0.320000 sr} bdef
/c6 { 1.000000 0.260000 0.820000 sr} bdef
/c7 { 0.000000 0.820000 0.820000 sr} bdef
c0
1 j
1 sg
   0    0 6919 5187 rf
6 w
0 4202 5362 0 0 -4202 899 4616 4 MP
PP
-5362 0 0 4202 5362 0 0 -4202 899 4616 5 MP stroke
4 w
DO
SO
6 w
0 sg
 899  414 mt 6261  414 L
 899 4616 mt 6261 4616 L
6261 4616 mt 6261  414 L
 899 4616 mt  899  414 L
 899 4616 mt 6261 4616 L
 899 4616 mt  899  414 L
 919 4616 mt  919 4562 L
 919  414 mt  919  467 L
%%IncludeResource: font Helvetica
/Helvetica /WindowsLatin1Encoding 240 FMSR

 713 4873 mt 
(-3) s
1806 4616 mt 1806 4562 L
1806  414 mt 1806  467 L
1600 4873 mt 
(-2) s
2693 4616 mt 2693 4562 L
2693  414 mt 2693  467 L
2487 4873 mt 
(-1) s
3580 4616 mt 3580 4562 L
3580  414 mt 3580  467 L
3514 4873 mt 
(0) s
4466 4616 mt 4466 4562 L
4466  414 mt 4466  467 L
4400 4873 mt 
(1) s
5353 4616 mt 5353 4562 L
5353  414 mt 5353  467 L
5287 4873 mt 
(2) s
6240 4616 mt 6240 4562 L
6240  414 mt 6240  467 L
6174 4873 mt 
(3) s
 899 4599 mt  952 4599 L
6261 4599 mt 6207 4599 L
 591 4688 mt 
(-3) s
 899 3904 mt  952 3904 L
6261 3904 mt 6207 3904 L
 591 3993 mt 
(-2) s
 899 3209 mt  952 3209 L
6261 3209 mt 6207 3209 L
 591 3298 mt 
(-1) s
 899 2514 mt  952 2514 L
6261 2514 mt 6207 2514 L
 731 2603 mt 
(0) s
 899 1820 mt  952 1820 L
6261 1820 mt 6207 1820 L
 731 1909 mt 
(1) s
 899 1125 mt  952 1125 L
6261 1125 mt 6207 1125 L
 731 1214 mt 
(2) s
 899  430 mt  952  430 L
6261  430 mt 6207  430 L
 731  519 mt 
(3) s
 899  414 mt 6261  414 L
 899 4616 mt 6261 4616 L
6261 4616 mt 6261  414 L
 899 4616 mt  899  414 L
gs 899 414 5363 4203 rc
gr

/c8 { 0.000000 0.000000 1.000000 sr} bdef
c8
4453  957 mt 4525  957 L
4489  921 mt 4489  993 L
2749 2686 mt 2821 2686 L
2785 2650 mt 2785 2722 L
4067 3273 mt 4139 3273 L
4103 3237 mt 4103 3309 L
3582 4072 mt 3654 4072 L
3618 4036 mt 3618 4108 L
1805 2284 mt 1877 2284 L
1841 2248 mt 1841 2320 L
4163 3039 mt 4235 3039 L
4199 3003 mt 4199 3075 L
3267 2619 mt 3339 2619 L
3303 2583 mt 3303 2655 L
3202 2874 mt 3274 2874 L
3238 2838 mt 3238 2910 L
4585 3553 mt 4657 3553 L
4621 3517 mt 4621 3589 L
4981 2436 mt 5053 2436 L
5017 2400 mt 5017 2472 L
3085 2731 mt 3157 2731 L
3121 2695 mt 3121 2767 L
1766 2365 mt 1838 2365 L
1802 2329 mt 1802 2401 L
3330 2261 mt 3402 2261 L
3366 2225 mt 3366 2297 L
3046 1740 mt 3118 1740 L
3082 1704 mt 3082 1776 L
4243 3479 mt 4315 3479 L
4279 3443 mt 4279 3515 L
4416 1298 mt 4488 1298 L
4452 1262 mt 4452 1334 L
3135  824 mt 3207  824 L
3171  788 mt 3171  860 L
3307 2778 mt 3379 2778 L
3343 2742 mt 3343 2814 L
2634 2668 mt 2706 2668 L
2670 2632 mt 2670 2704 L
4028 2024 mt 4100 2024 L
4064 1988 mt 4064 2060 L
4398 2782 mt 4470 2782 L
4434 2746 mt 4434 2818 L
3325 2989 mt 3397 2989 L
3361 2953 mt 3361 3025 L
2723 2869 mt 2795 2869 L
2759 2833 mt 2759 2905 L
3290 2820 mt 3362 2820 L
3326 2784 mt 3326 2856 L
5468 1538 mt 5540 1538 L
5504 1502 mt 5504 1574 L
3700 2405 mt 3772 2405 L
3736 2369 mt 3736 2441 L
3426 2270 mt 3498 2270 L
3462 2234 mt 3462 2306 L
4338 3106 mt 4410 3106 L
4374 3070 mt 4374 3142 L
1556 3822 mt 1628 3822 L
1592 3786 mt 1592 3858 L
3751 2754 mt 3823 2754 L
3787 2718 mt 3787 2790 L
2355 2889 mt 2427 2889 L
2391 2853 mt 2391 2925 L
3694 2440 mt 3766 2440 L
3730 2404 mt 3730 2476 L
3538 2935 mt 3610 2935 L
3574 2899 mt 3574 2971 L
1842 2414 mt 1914 2414 L
1878 2378 mt 1878 2450 L
3785 2920 mt 3857 2920 L
3821 2884 mt 3821 2956 L
2781 2691 mt 2853 2691 L
2817 2655 mt 2817 2727 L
4149 2484 mt 4221 2484 L
4185 2448 mt 4185 2520 L
3723 2115 mt 3795 2115 L
3759 2079 mt 3759 2151 L
3190 1489 mt 3262 1489 L
3226 1453 mt 3226 1525 L
3493 1838 mt 3565 1838 L
3529 1802 mt 3529 1874 L
2063 2768 mt 2135 2768 L
2099 2732 mt 2099 2804 L
2987 2904 mt 3059 2904 L
3023 2868 mt 3023 2940 L
3098 1911 mt 3170 1911 L
3134 1875 mt 3134 1947 L
4444 2140 mt 4516 2140 L
4480 2104 mt 4480 2176 L
5606 2682 mt 5678 2682 L
5642 2646 mt 5642 2718 L
2765 3693 mt 2837 3693 L
2801 3657 mt 2801 3729 L
3091 1336 mt 3163 1336 L
3127 1300 mt 3127 1372 L
3466 2606 mt 3538 2606 L
3502 2570 mt 3502 2642 L
4512 2120 mt 4584 2120 L
4548 2084 mt 4548 2156 L
2534 3468 mt 2606 3468 L
2570 3432 mt 2570 3504 L
4236 2035 mt 4308 2035 L
4272 1999 mt 4272 2071 L
3172 2462 mt 3244 2462 L
3208 2426 mt 3208 2498 L
3566 2558 mt 3638 2558 L
3602 2522 mt 3602 2594 L
3381 3405 mt 3453 3405 L
3417 3369 mt 3417 3441 L
4372 1756 mt 4444 1756 L
4408 1720 mt 4408 1792 L
2394 2884 mt 2466 2884 L
2430 2848 mt 2430 2920 L
2298 2279 mt 2370 2279 L
2334 2243 mt 2334 2315 L
3655 3265 mt 3727 3265 L
3691 3229 mt 3691 3301 L
4680 2374 mt 4752 2374 L
4716 2338 mt 4716 2410 L
2917 2650 mt 2989 2650 L
2953 2614 mt 2953 2686 L
4015 2007 mt 4087 2007 L
4051 1971 mt 4051 2043 L
4435 1388 mt 4507 1388 L
4471 1352 mt 4471 1424 L
2085 2633 mt 2157 2633 L
2121 2597 mt 2121 2669 L
4390 2664 mt 4462 2664 L
4426 2628 mt 4426 2700 L
4251 3184 mt 4323 3184 L
4287 3148 mt 4287 3220 L
1481 2334 mt 1553 2334 L
1517 2298 mt 1517 2370 L
4259 2914 mt 4331 2914 L
4295 2878 mt 4295 2950 L
2757 2204 mt 2829 2204 L
2793 2168 mt 2793 2240 L
2680 2741 mt 2752 2741 L
2716 2705 mt 2716 2777 L
3588 3436 mt 3660 3436 L
3624 3400 mt 3624 3472 L
4501 3610 mt 4573 3610 L
4537 3574 mt 4537 3646 L
4191 2659 mt 4263 2659 L
4227 2623 mt 4227 2695 L
5245 3376 mt 5317 3376 L
5281 3340 mt 5281 3412 L
3214 2745 mt 3286 2745 L
3250 2709 mt 3250 2781 L
4047 2135 mt 4119 2135 L
4083 2099 mt 4083 2171 L
1876 2094 mt 1948 2094 L
1912 2058 mt 1912 2130 L
4564 2925 mt 4636 2925 L
4600 2889 mt 4600 2961 L
3116 2709 mt 3188 2709 L
3152 2673 mt 3152 2745 L
3072 2165 mt 3144 2165 L
3108 2129 mt 3108 2201 L
4836 2040 mt 4908 2040 L
4872 2004 mt 4872 2076 L
4094 2554 mt 4166 2554 L
4130 2518 mt 4130 2590 L
3594 3503 mt 3666 3503 L
3630 3467 mt 3630 3539 L
3855 2104 mt 3927 2104 L
3891 2068 mt 3891 2140 L
2165 3731 mt 2237 3731 L
2201 3695 mt 2201 3767 L
5180 1748 mt 5252 1748 L
5216 1712 mt 5216 1784 L
3415 3515 mt 3487 3515 L
3451 3479 mt 3451 3551 L
3921 4205 mt 3993 4205 L
3957 4169 mt 3957 4241 L
5096 2909 mt 5168 2909 L
5132 2873 mt 5132 2945 L
2828 3980 mt 2900 3980 L
2864 3944 mt 2864 4016 L
5150 2018 mt 5222 2018 L
5186 1982 mt 5186 2054 L
3757 2597 mt 3829 2597 L
3793 2561 mt 3793 2633 L
3599 3112 mt 3671 3112 L
3635 3076 mt 3635 3148 L
1965 3711 mt 2037 3711 L
2001 3675 mt 2001 3747 L
2959 1764 mt 3031 1764 L
2995 1728 mt 2995 1800 L
4142 2750 mt 4214 2750 L
4178 2714 mt 4178 2786 L
3927 1978 mt 3999 1978 L
3963 1942 mt 3963 2014 L
4805 2545 mt 4877 2545 L
4841 2509 mt 4841 2581 L
4608 2811 mt 4680 2811 L
4644 2775 mt 4644 2847 L
4719 2423 mt 4791 2423 L
4755 2387 mt 4755 2459 L
4597 3220 mt 4669 3220 L
4633 3184 mt 4633 3256 L
3488  414 mt 3560  414 L
3524  378 mt 3524  450 L
2444 2593 mt 2516 2593 L
2480 2557 mt 2480 2629 L
4643 2293 mt 4715 2293 L
4679 2257 mt 4679 2329 L
3940 3331 mt 4012 3331 L
3976 3295 mt 3976 3367 L
6033 1917 mt 6105 1917 L
6069 1881 mt 6069 1953 L
2773 2418 mt 2845 2418 L
2809 2382 mt 2809 2454 L
3897 3491 mt 3969 3491 L
3933 3455 mt 3933 3527 L
3141 1772 mt 3213 1772 L
3177 1736 mt 3177 1808 L
2040 2320 mt 2112 2320 L
2076 2284 mt 2076 2356 L
4199 4131 mt 4271 4131 L
4235 4095 mt 4235 4167 L
5321 2792 mt 5393 2792 L
5357 2756 mt 5357 2828 L
3505 3306 mt 3577 3306 L
3541 3270 mt 3541 3342 L
3410 2067 mt 3482 2067 L
3446 2031 mt 3446 2103 L
1907 2562 mt 1979 2562 L
1943 2526 mt 1943 2598 L
3232 3125 mt 3304 3125 L
3268 3089 mt 3268 3161 L
2468 2298 mt 2540 2298 L
2504 2262 mt 2504 2334 L
3059 3051 mt 3131 3051 L
3095 3015 mt 3095 3087 L
3033 2383 mt 3105 2383 L
3069 2347 mt 3069 2419 L
3891 2704 mt 3963 2704 L
3927 2668 mt 3927 2740 L
2938 2972 mt 3010 2972 L
2974 2936 mt 2974 3008 L
4904 2673 mt 4976 2673 L
4940 2637 mt 4940 2709 L
3838 3087 mt 3910 3087 L
3874 3051 mt 3874 3123 L
2662 2930 mt 2734 2930 L
2698 2894 mt 2698 2966 L
3364 1936 mt 3436 1936 L
3400 1900 mt 3400 1972 L
2740 1878 mt 2812 1878 L
2776 1842 mt 2776 1914 L
4330 2089 mt 4402 2089 L
4366 2053 mt 4366 2125 L
3013 2796 mt 3085 2796 L
3049 2760 mt 3049 2832 L
3404 2899 mt 3476 2899 L
3440 2863 mt 3440 2935 L
3605 3625 mt 3677 3625 L
3641 3589 mt 3641 3661 L
3903 2189 mt 3975 2189 L
3939 2153 mt 3939 2225 L
4655 3415 mt 4727 3415 L
4691 3379 mt 4691 3451 L
 863 1434 mt  935 1434 L
 899 1398 mt  899 1470 L
3166 3349 mt 3238 3349 L
3202 3313 mt 3202 3385 L
2282 4305 mt 2354 4305 L
2318 4269 mt 2318 4341 L
2595 3206 mt 2667 3206 L
2631 3170 mt 2631 3242 L
3284 2396 mt 3356 2396 L
3320 2360 mt 3320 2432 L
2697 3227 mt 2769 3227 L
2733 3191 mt 2733 3263 L
2327 2410 mt 2399 2410 L
2363 2374 mt 2363 2446 L
1387 1892 mt 1459 1892 L
1423 1856 mt 1423 1928 L
2980 2488 mt 3052 2488 L
3016 2452 mt 3016 2524 L
2523 3289 mt 2595 3289 L
2559 3253 mt 2559 3325 L
3359 2325 mt 3431 2325 L
3395 2289 mt 3395 2361 L
4314 2307 mt 4386 2307 L
4350 2271 mt 4350 2343 L
2924 2343 mt 2996 2343 L
2960 2307 mt 2960 2379 L
3768 2835 mt 3840 2835 L
3804 2799 mt 3804 2871 L
4306 3358 mt 4378 3358 L
4342 3322 mt 4342 3394 L
2218 1689 mt 2290 1689 L
2254 1653 mt 2254 1725 L
4087 1572 mt 4159 1572 L
4123 1536 mt 4123 1608 L
4922 2057 mt 4994 2057 L
4958 2021 mt 4958 2093 L
1619 1858 mt 1691 1858 L
1655 1822 mt 1655 1894 L
4492 3000 mt 4564 3000 L
4528 2964 mt 4528 3036 L
3255 2677 mt 3327 2677 L
3291 2641 mt 3291 2713 L
2201 2859 mt 2273 2859 L
2237 2823 mt 2237 2895 L
3438 2242 mt 3510 2242 L
3474 2206 mt 3474 2278 L
2490 1634 mt 2562 1634 L
2526 1598 mt 2526 1670 L
3571 3877 mt 3643 3877 L
3607 3841 mt 3607 3913 L
3728 2497 mt 3800 2497 L
3764 2461 mt 3764 2533 L
3983 1593 mt 4055 1593 L
4019 1557 mt 4019 1629 L
2859 2541 mt 2931 2541 L
2895 2505 mt 2895 2577 L
4553 3322 mt 4625 3322 L
4589 3286 mt 4589 3358 L
4184 2356 mt 4256 2356 L
4220 2320 mt 4220 2392 L
3780 2523 mt 3852 2523 L
3816 2487 mt 3816 2559 L
4228 2576 mt 4300 2576 L
4264 2540 mt 4264 2612 L
2888 2311 mt 2960 2311 L
2924 2275 mt 2924 2347 L
4746 2773 mt 4818 2773 L
4782 2737 mt 4782 2809 L
3178 2514 mt 3250 2514 L
3214 2478 mt 3214 2550 L
4021 1809 mt 4093 1809 L
4057 1773 mt 4057 1845 L
4522 2109 mt 4594 2109 L
4558 2073 mt 4558 2145 L
2555 2830 mt 2627 2830 L
2591 2794 mt 2591 2866 L
2715 2787 mt 2787 2787 L
2751 2751 mt 2751 2823 L
3208 1561 mt 3280 1561 L
3244 1525 mt 3244 1597 L
4156 2275 mt 4228 2275 L
4192 2239 mt 4192 2311 L
2836 2501 mt 2908 2501 L
2872 2465 mt 2872 2537 L
3319 2956 mt 3391 2956 L
3355 2920 mt 3355 2992 L
3666 1954 mt 3738 1954 L
3702 1918 mt 3702 1990 L
2432 3567 mt 2504 3567 L
2468 3531 mt 2468 3603 L
2789 2199 mt 2861 2199 L
2825 2163 mt 2825 2235 L
5531 2655 mt 5603 2655 L
5567 2619 mt 5567 2691 L
3627 2388 mt 3699 2388 L
3663 2352 mt 3663 2424 L
3826 3367 mt 3898 3367 L
3862 3331 mt 3862 3403 L
3510 2427 mt 3582 2427 L
3546 2391 mt 3546 2463 L
3989 2370 mt 4061 2370 L
4025 2334 mt 4025 2406 L
2106 1643 mt 2178 1643 L
2142 1607 mt 2142 1679 L
3421 3069 mt 3493 3069 L
3457 3033 mt 3457 3105 L
2502 3250 mt 2574 3250 L
2538 3214 mt 2538 3286 L
2183 3581 mt 2255 3581 L
2219 3545 mt 2219 3617 L
3689 3281 mt 3761 3281 L
3725 3245 mt 3725 3317 L
3336 3641 mt 3408 3641 L
3372 3605 mt 3372 3677 L
2513 1207 mt 2585 1207 L
2549 1171 mt 2549 1243 L
3832 1872 mt 3904 1872 L
3868 1836 mt 3868 1908 L
2267 1671 mt 2339 1671 L
2303 1635 mt 2303 1707 L
2126 2849 mt 2198 2849 L
2162 2813 mt 2162 2885 L
2235 2228 mt 2307 2228 L
2271 2192 mt 2271 2264 L
4760 3057 mt 4832 3057 L
4796 3021 mt 4796 3093 L
3946 3191 mt 4018 3191 L
3982 3155 mt 3982 3227 L
3885 1006 mt 3957 1006 L
3921  970 mt 3921 1042 L
2575 1972 mt 2647 1972 L
2611 1936 mt 2611 2008 L
3053 1419 mt 3125 1419 L
3089 1383 mt 3089 1455 L
2671 2967 mt 2743 2967 L
2707 2931 mt 2707 3003 L
4213 2445 mt 4285 2445 L
4249 2409 mt 4249 2481 L
4100  898 mt 4172  898 L
4136  862 mt 4136  934 L
3621 1514 mt 3693 1514 L
3657 1478 mt 3657 1550 L
4820 2983 mt 4892 2983 L
4856 2947 mt 4856 3019 L
2993 2519 mt 3065 2519 L
3029 2483 mt 3029 2555 L
1722 3093 mt 1794 3093 L
1758 3057 mt 1758 3129 L
3915 1942 mt 3987 1942 L
3951 1906 mt 3951 1978 L
3549 2247 mt 3621 2247 L
3585 2211 mt 3585 2283 L
3460 2265 mt 3532 2265 L
3496 2229 mt 3496 2301 L
5282 2854 mt 5354 2854 L
5318 2818 mt 5318 2890 L
4706 1698 mt 4778 1698 L
4742 1662 mt 4742 1734 L
3820 2946 mt 3892 2946 L
3856 2910 mt 3856 2982 L
2381 2646 mt 2453 2646 L
2417 2610 mt 2417 2682 L
3971 2718 mt 4043 2718 L
4007 2682 mt 4007 2754 L
3007 1121 mt 3079 1121 L
3043 1085 mt 3043 1157 L
4128 2584 mt 4200 2584 L
4164 2548 mt 4164 2620 L
5047 1049 mt 5119 1049 L
5083 1013 mt 5083 1085 L
3814  724 mt 3886  724 L
3850  688 mt 3850  760 L
2706 2379 mt 2778 2379 L
2742 2343 mt 2742 2415 L
2797 2046 mt 2869 2046 L
2833 2010 mt 2833 2082 L
4009 1823 mt 4081 1823 L
4045 1787 mt 4045 1859 L
4266 4023 mt 4338 4023 L
4302 3987 mt 4302 4059 L
3717 2145 mt 3789 2145 L
3753 2109 mt 3753 2181 L
2732 2458 mt 2804 2458 L
2768 2422 mt 2768 2494 L
3803 3157 mt 3875 3157 L
3839 3121 mt 3839 3193 L
3797 1707 mt 3869 1707 L
3833 1671 mt 3833 1743 L
3683 2180 mt 3755 2180 L
3719 2144 mt 3719 2216 L
3850 2467 mt 3922 2467 L
3886 2431 mt 3886 2503 L
4135 2001 mt 4207 2001 L
4171 1965 mt 4171 2037 L
3577 2736 mt 3649 2736 L
3613 2700 mt 3613 2772 L
2881 2392 mt 2953 2392 L
2917 2356 mt 2917 2428 L
2456 2029 mt 2528 2029 L
2492 1993 mt 2492 2065 L
3532 4616 mt 3604 4616 L
3568 4580 mt 3568 4652 L
3844 2894 mt 3916 2894 L
3880 2858 mt 3880 2930 L
3160 1779 mt 3232 1779 L
3196 1743 mt 3196 1815 L
3237 3395 mt 3309 3395 L
3273 3359 mt 3273 3431 L
3398 3942 mt 3470 3942 L
3434 3906 mt 3434 3978 L
4041 3063 mt 4113 3063 L
4077 3027 mt 4077 3099 L
4463 1232 mt 4535 1232 L
4499 1196 mt 4499 1268 L
3499 1448 mt 3571 1448 L
3535 1412 mt 3535 1484 L
2146 2237 mt 2218 2237 L
2182 2201 mt 2182 2273 L
3184 2160 mt 3256 2160 L
3220 2124 mt 3220 2196 L
3249 2073 mt 3321 2073 L
3285 2037 mt 3285 2109 L
3471 2347 mt 3543 2347 L
3507 2311 mt 3507 2383 L
4886 3151 mt 4958 3151 L
4922 3115 mt 4922 3187 L
6225 3386 mt 6297 3386 L
6261 3350 mt 6261 3422 L
3644 2722 mt 3716 2722 L
3680 2686 mt 3680 2758 L
3123 1152 mt 3195 1152 L
3159 1116 mt 3159 1188 L
3964 3017 mt 4036 3017 L
4000 2981 mt 4000 3053 L
4532 1732 mt 4604 1732 L
4568 1696 mt 4568 1768 L
2931 2978 mt 3003 2978 L
2967 2942 mt 2967 3014 L
4355 2099 mt 4427 2099 L
4391 2063 mt 4391 2135 L
3353 2218 mt 3425 2218 L
3389 2182 mt 3389 2254 L
3000 3164 mt 3072 3164 L
3036 3128 mt 3036 3200 L
3633 3425 mt 3705 3425 L
3669 3389 mt 3669 3461 L
4177 2150 mt 4249 2150 L
4213 2114 mt 4213 2186 L
2874 2251 mt 2946 2251 L
2910 2215 mt 2910 2287 L
2896 3144 mt 2968 3144 L
2932 3108 mt 2932 3180 L
3861 2864 mt 3933 2864 L
3897 2828 mt 3897 2900 L
4693 1865 mt 4765 1865 L
4729 1829 mt 4729 1901 L
3027 2214 mt 3099 2214 L
3063 2178 mt 3063 2250 L
3909 1990 mt 3981 1990 L
3945 1954 mt 3945 2026 L
4290 1885 mt 4362 1885 L
4326 1849 mt 4326 1921 L
3296 2994 mt 3368 2994 L
3332 2958 mt 3332 3030 L
5071 2637 mt 5143 2637 L
5107 2601 mt 5107 2673 L
1259 2700 mt 1331 2700 L
1295 2664 mt 1295 2736 L
2605 3081 mt 2677 3081 L
2641 3045 mt 2641 3117 L
3560 3178 mt 3632 3178 L
3596 3142 mt 3596 3214 L
2479 1624 mt 2551 1624 L
2515 1588 mt 2515 1660 L
3153 3340 mt 3225 3340 L
3189 3304 mt 3189 3376 L
2341 2727 mt 2413 2727 L
2377 2691 mt 2377 2763 L
4631 2532 mt 4703 2532 L
4667 2496 mt 4667 2568 L
4054 1816 mt 4126 1816 L
4090 1780 mt 4090 1852 L
5365 3022 mt 5437 3022 L
5401 2986 mt 5401 3058 L
2652 2940 mt 2724 2940 L
2688 2904 mt 2688 2976 L
4114 3034 mt 4186 3034 L
4150 2998 mt 4150 3070 L
3649 2155 mt 3721 2155 L
3685 2119 mt 3685 2191 L
4789 2185 mt 4861 2185 L
4825 2149 mt 4825 2221 L
2586 3797 mt 2658 3797 L
2622 3761 mt 2622 3833 L
3638 3527 mt 3710 3527 L
3674 3491 mt 3674 3563 L
5211 2316 mt 5283 2316 L
5247 2280 mt 5247 2352 L
4347 2401 mt 4419 2401 L
4383 2365 mt 4383 2437 L
3791 3540 mt 3863 3540 L
3827 3504 mt 3827 3576 L
3873 1662 mt 3945 1662 L
3909 1626 mt 3909 1698 L
3273 2615 mt 3345 2615 L
3309 2579 mt 3309 2651 L
4574 1354 mt 4646 1354 L
4610 1318 mt 4610 1390 L
3740 3137 mt 3812 3137 L
3776 3101 mt 3776 3173 L
4274 2764 mt 4346 2764 L
4310 2728 mt 4310 2800 L
4732 2571 mt 4804 2571 L
4768 2535 mt 4768 2607 L
2407 2611 mt 2479 2611 L
2443 2575 mt 2443 2647 L
4667 2506 mt 4739 2506 L
4703 2470 mt 4703 2542 L
3934 2083 mt 4006 2083 L
3970 2047 mt 3970 2119 L
3879 2432 mt 3951 2432 L
3915 2396 mt 3915 2468 L
2624 2951 mt 2696 2951 L
2660 2915 mt 2660 2987 L
4364 1318 mt 4436 1318 L
4400 1282 mt 4400 1354 L
3977 3011 mt 4049 3011 L
4013 2975 mt 4013 3047 L
3482 2840 mt 3554 2840 L
3518 2804 mt 3518 2876 L
4381 3457 mt 4453 3457 L
4417 3421 mt 4417 3493 L
4869 3242 mt 4941 3242 L
4905 3206 mt 4905 3278 L
5002 3908 mt 5074 3908 L
5038 3872 mt 5038 3944 L
4472 3257 mt 4544 3257 L
4508 3221 mt 4508 3293 L
3661  564 mt 3733  564 L
3697  528 mt 3697  600 L
3347 3131 mt 3419 3131 L
3383 3095 mt 3383 3167 L
5024 1583 mt 5096 1583 L
5060 1547 mt 5060 1619 L
3745 2641 mt 3817 2641 L
3781 2605 mt 3781 2677 L
4775 2449 mt 4847 2449 L
4811 2413 mt 4811 2485 L
3516 2256 mt 3588 2256 L
3552 2220 mt 3552 2292 L
4002 2580 mt 4074 2580 L
4038 2544 mt 4038 2616 L
3261 1404 mt 3333 1404 L
3297 1368 mt 3297 1440 L
3432 2475 mt 3504 2475 L
3468 2439 mt 3468 2511 L
4206 2815 mt 4278 2815 L
4242 2779 mt 4242 2851 L
5828 1526 mt 5900 1526 L
5864 1490 mt 5864 1562 L
2689 1930 mt 2761 1930 L
2725 1894 mt 2725 1966 L
2615 2051 mt 2687 2051 L
2651 2015 mt 2651 2087 L
3278 2078 mt 3350 2078 L
3314 2042 mt 3314 2114 L
3387 3099 mt 3459 3099 L
3423 3063 mt 3423 3135 L
3104 2223 mt 3176 2223 L
3140 2187 mt 3140 2259 L
3196 2801 mt 3268 2801 L
3232 2765 mt 3232 2837 L
4060 1787 mt 4132 1787 L
4096 1751 mt 4096 1823 L
3809 2962 mt 3881 2962 L
3845 2926 mt 3845 2998 L
3110 2825 mt 3182 2825 L
3146 2789 mt 3146 2861 L
5122 3075 mt 5194 3075 L
5158 3039 mt 5158 3111 L
4074 2480 mt 4146 2480 L
4110 2444 mt 4110 2516 L
3078 2194 mt 3150 2194 L
3114 2158 mt 3114 2230 L
3867 1960 mt 3939 1960 L
3903 1924 mt 3903 1996 L
1991 1462 mt 2063 1462 L
2027 1426 mt 2027 1498 L
4961 3297 mt 5033 3297 L
4997 3261 mt 4997 3333 L
3342 2233 mt 3414 2233 L
3378 2197 mt 3378 2269 L
3220 3213 mt 3292 3213 L
3256 3177 mt 3256 3249 L
3762 2493 mt 3834 2493 L
3798 2457 mt 3798 2529 L
3952 1802 mt 4024 1802 L
3988 1766 mt 3988 1838 L
4941 2536 mt 5013 2536 L
4977 2500 mt 4977 2572 L
3226 1614 mt 3298 1614 L
3262 1578 mt 3262 1650 L
3454 2759 mt 3526 2759 L
3490 2723 mt 3490 2795 L
2565 3774 mt 2637 3774 L
2601 3738 mt 2601 3810 L
3129 2329 mt 3201 2329 L
3165 2293 mt 3165 2365 L
2821 1680 mt 2893 1680 L
2857 1644 mt 2857 1716 L
3147 2806 mt 3219 2806 L
3183 2770 mt 3183 2842 L
2420 1653 mt 2492 1653 L
2456 1617 mt 2456 1689 L
3370 2125 mt 3442 2125 L
3406 2089 mt 3406 2161 L
3711 3658 mt 3783 3658 L
3747 3622 mt 3747 3694 L
2545 2302 mt 2617 2302 L
2581 2266 mt 2581 2338 L
3020 1851 mt 3092 1851 L
3056 1815 mt 3056 1887 L
4542 2624 mt 4614 2624 L
4578 2588 mt 4578 2660 L
2312 2567 mt 2384 2567 L
2348 2531 mt 2348 2603 L
3040 2175 mt 3112 2175 L
3076 2139 mt 3076 2211 L
4407 2338 mt 4479 2338 L
4443 2302 mt 4443 2374 L
2844 2352 mt 2916 2352 L
2880 2316 mt 2880 2388 L
4221 1923 mt 4293 1923 L
4257 1887 mt 4257 1959 L
4425 1371 mt 4497 1371 L
4461 1335 mt 4461 1407 L
3243 1723 mt 3315 1723 L
3279 1687 mt 3279 1759 L
5413 3171 mt 5485 3171 L
5449 3135 mt 5449 3207 L
3443 2602 mt 3515 2602 L
3479 2566 mt 3479 2638 L
2016 1984 mt 2088 1984 L
2052 1948 mt 2052 2020 L
2851 3446 mt 2923 3446 L
2887 3410 mt 2887 3482 L
1674 1502 mt 1746 1502 L
1710 1466 mt 1710 1538 L
3774 2012 mt 3846 2012 L
3810 1976 mt 3810 2048 L
4034 2170 mt 4106 2170 L
4070 2134 mt 4070 2206 L
4121 1277 mt 4193 1277 L
4157 1241 mt 4157 1313 L
2813 3752 mt 2885 3752 L
2849 3716 mt 2849 3788 L
4619 3675 mt 4691 3675 L
4655 3639 mt 4655 3711 L
3477 2589 mt 3549 2589 L
3513 2553 mt 3513 2625 L
3706 3848 mt 3778 3848 L
3742 3812 mt 3742 3884 L
3672 2209 mt 3744 2209 L
3708 2173 mt 3708 2245 L
2866 1845 mt 2938 1845 L
2902 1809 mt 2902 1881 L
4852 2062 mt 4924 2062 L
4888 2026 mt 4888 2098 L
3302 1948 mt 3374 1948 L
3338 1912 mt 3338 1984 L
4170 3028 mt 4242 3028 L
4206 2992 mt 4206 3064 L
4482 2288 mt 4554 2288 L
4518 2252 mt 4518 2324 L
2368 3314 mt 2440 3314 L
2404 3278 mt 2404 3350 L
2251 1966 mt 2323 1966 L
2287 1930 mt 2287 2002 L
3616 1550 mt 3688 1550 L
3652 1514 mt 3652 1586 L
4282 3005 mt 4354 3005 L
4318 2969 mt 4318 3041 L
2805 3118 mt 2877 3118 L
2841 3082 mt 2841 3154 L
3996 2528 mt 4068 2528 L
4032 2492 mt 4032 2564 L
4107 1604 mt 4179 1604 L
4143 1568 mt 4143 1640 L
3313 2361 mt 3385 2361 L
3349 2325 mt 3349 2397 L
3610 1831 mt 3682 1831 L
3646 1795 mt 3646 1867 L
5700 1995 mt 5772 1995 L
5736 1959 mt 5736 2031 L
3066 2695 mt 3138 2695 L
3102 2659 mt 3102 2731 L
4298 2549 mt 4370 2549 L
4334 2513 mt 4334 2585 L
3449 1904 mt 3521 1904 L
3485 1868 mt 3485 1940 L
3734 1794 mt 3806 1794 L
3770 1758 mt 3770 1830 L
2910 1715 mt 2982 1715 L
2946 1679 mt 2946 1751 L
2973 3235 mt 3045 3235 L
3009 3199 mt 3009 3271 L
2903 2844 mt 2975 2844 L
2939 2808 mt 2939 2880 L
1937 2471 mt 2009 2471 L
1973 2435 mt 1973 2507 L
4080 2713 mt 4152 2713 L
4116 2677 mt 4116 2749 L
3527 2510 mt 3599 2510 L
3563 2474 mt 3563 2546 L
3521 1181 mt 3593 1181 L
3557 1145 mt 3557 1217 L
3677 2130 mt 3749 2130 L
3713 2094 mt 3713 2166 L
3544 1255 mt 3616 1255 L
3580 1219 mt 3580 1291 L
2966 3198 mt 3038 3198 L
3002 3162 mt 3002 3234 L
2952 1898 mt 3024 1898 L
2988 1862 mt 2988 1934 L
4322 2628 mt 4394 2628 L
4358 2592 mt 4358 2664 L
3958 2879 mt 4030 2879 L
3994 2843 mt 3994 2915 L
3376 1087 mt 3448 1087 L
3412 1051 mt 3412 1123 L
2643 2453 mt 2715 2453 L
2679 2417 mt 2679 2489 L
3393 1476 mt 3465 1476 L
3429 1440 mt 3429 1512 L
2945 3045 mt 3017 3045 L
2981 3009 mt 2981 3081 L
3555 3595 mt 3627 3595 L
3591 3559 mt 3591 3631 L
gs 899 414 5363 4203 rc
gr

0 sg
2779 5104 mt 
(\(F,DCTs,GMM\)) s
 482 3343 mt  -90 rotate
(\(S,LFCC,GMM\)) s
90 rotate
2975  223 mt 
(Corr = 0.01) s

end %%Color Dict

eplot
%%EndObject

epage
end

showpage

%%Trailer
%%EOF
