%!PS-Adobe-3.0 EPSF-3.0
%%Creator: MATLAB, The Mathworks, Inc. Version 7.7.0.471 (R2008b). Operating System: Microsoft Windows XP.
%%Title: Pictures\main_zoo_mvar_analysis_data_BMI_xcorr_bmi_p2_k1_1_4.eps
%%CreationDate: 10/26/2009  05:44:38
%%DocumentNeededFonts: Helvetica
%%DocumentProcessColors: Cyan Magenta Yellow Black
%%LanguageLevel: 2
%%Pages: 1
%%BoundingBox:    21   180   546   616
%%EndComments

%%BeginProlog
% MathWorks dictionary
/MathWorks 160 dict begin
% definition operators
/bdef {bind def} bind def
/ldef {load def} bind def
/xdef {exch def} bdef
/xstore {exch store} bdef
% operator abbreviations
/c  /clip ldef
/cc /concat ldef
/cp /closepath ldef
/gr /grestore ldef
/gs /gsave ldef
/mt /moveto ldef
/np /newpath ldef
/cm /currentmatrix ldef
/sm /setmatrix ldef
/rm /rmoveto ldef
/rl /rlineto ldef
/s {show newpath} bdef
/sc {setcmykcolor} bdef
/sr /setrgbcolor ldef
/sg /setgray ldef
/w /setlinewidth ldef
/j /setlinejoin ldef
/cap /setlinecap ldef
/rc {rectclip} bdef
/rf {rectfill} bdef
% page state control
/pgsv () def
/bpage {/pgsv save def} bdef
/epage {pgsv restore} bdef
/bplot /gsave ldef
/eplot {stroke grestore} bdef
% orientation switch
/portraitMode 0 def /landscapeMode 1 def /rotateMode 2 def
% coordinate system mappings
/dpi2point 0 def
% font control
/FontSize 0 def
/FMS {/FontSize xstore findfont [FontSize 0 0 FontSize neg 0 0]
  makefont setfont} bdef
/ISOLatin1Encoding where {pop /WindowsLatin1Encoding 256 array bdef
ISOLatin1Encoding WindowsLatin1Encoding copy pop
/.notdef/.notdef/quotesinglbase/florin/quotedblbase/ellipsis/dagger
/daggerdbl/circumflex/perthousand/Scaron/guilsinglleft/OE/.notdef/.notdef
/.notdef/.notdef/quoteleft/quoteright/quotedblleft/quotedblright/bullet
/endash/emdash/tilde/trademark/scaron/guilsinglright/oe/.notdef/.notdef
/Ydieresis WindowsLatin1Encoding 128 32 getinterval astore pop}
{/WindowsLatin1Encoding StandardEncoding bdef} ifelse
/reencode {exch dup where {pop load} {pop StandardEncoding} ifelse
  exch dup 3 1 roll findfont dup length dict begin
  { 1 index /FID ne {def}{pop pop} ifelse } forall
  /Encoding exch def currentdict end definefont pop} bdef
/isroman {findfont /CharStrings get /Agrave known} bdef
/FMSR {3 1 roll 1 index dup isroman {reencode} {pop pop} ifelse
  exch FMS} bdef
/csm {1 dpi2point div -1 dpi2point div scale neg translate
 dup landscapeMode eq {pop -90 rotate}
  {rotateMode eq {90 rotate} if} ifelse} bdef
% line types: solid, dotted, dashed, dotdash
/SO { [] 0 setdash } bdef
/DO { [.5 dpi2point mul 4 dpi2point mul] 0 setdash } bdef
/DA { [6 dpi2point mul] 0 setdash } bdef
/DD { [.5 dpi2point mul 4 dpi2point mul 6 dpi2point mul 4
  dpi2point mul] 0 setdash } bdef
% macros for lines and objects
/L {lineto stroke} bdef
/MP {3 1 roll moveto 1 sub {rlineto} repeat} bdef
/AP {{rlineto} repeat} bdef
/PDlw -1 def
/W {/PDlw currentlinewidth def setlinewidth} def
/PP {closepath eofill} bdef
/DP {closepath stroke} bdef
/MR {4 -2 roll moveto dup  0 exch rlineto exch 0 rlineto
  neg 0 exch rlineto closepath} bdef
/FR {MR stroke} bdef
/PR {MR fill} bdef
/L1i {{currentfile picstr readhexstring pop} image} bdef
/tMatrix matrix def
/MakeOval {newpath tMatrix currentmatrix pop translate scale
0 0 1 0 360 arc tMatrix setmatrix} bdef
/FO {MakeOval stroke} bdef
/PO {MakeOval fill} bdef
/PD {currentlinewidth 2 div 0 360 arc fill
   PDlw -1 eq not {PDlw w /PDlw -1 def} if} def
/FA {newpath tMatrix currentmatrix pop translate scale
  0 0 1 5 -2 roll arc tMatrix setmatrix stroke} bdef
/PA {newpath tMatrix currentmatrix pop	translate 0 0 moveto scale
  0 0 1 5 -2 roll arc closepath tMatrix setmatrix fill} bdef
/FAn {newpath tMatrix currentmatrix pop translate scale
  0 0 1 5 -2 roll arcn tMatrix setmatrix stroke} bdef
/PAn {newpath tMatrix currentmatrix pop translate 0 0 moveto scale
  0 0 1 5 -2 roll arcn closepath tMatrix setmatrix fill} bdef
/vradius 0 def /hradius 0 def /lry 0 def
/lrx 0 def /uly 0 def /ulx 0 def /rad 0 def
/MRR {/vradius xdef /hradius xdef /lry xdef /lrx xdef /uly xdef
  /ulx xdef newpath tMatrix currentmatrix pop ulx hradius add uly
  vradius add translate hradius vradius scale 0 0 1 180 270 arc 
  tMatrix setmatrix lrx hradius sub uly vradius add translate
  hradius vradius scale 0 0 1 270 360 arc tMatrix setmatrix
  lrx hradius sub lry vradius sub translate hradius vradius scale
  0 0 1 0 90 arc tMatrix setmatrix ulx hradius add lry vradius sub
  translate hradius vradius scale 0 0 1 90 180 arc tMatrix setmatrix
  closepath} bdef
/FRR {MRR stroke } bdef
/PRR {MRR fill } bdef
/MlrRR {/lry xdef /lrx xdef /uly xdef /ulx xdef /rad lry uly sub 2 div def
  newpath tMatrix currentmatrix pop ulx rad add uly rad add translate
  rad rad scale 0 0 1 90 270 arc tMatrix setmatrix lrx rad sub lry rad
  sub translate rad rad scale 0 0 1 270 90 arc tMatrix setmatrix
  closepath} bdef
/FlrRR {MlrRR stroke } bdef
/PlrRR {MlrRR fill } bdef
/MtbRR {/lry xdef /lrx xdef /uly xdef /ulx xdef /rad lrx ulx sub 2 div def
  newpath tMatrix currentmatrix pop ulx rad add uly rad add translate
  rad rad scale 0 0 1 180 360 arc tMatrix setmatrix lrx rad sub lry rad
  sub translate rad rad scale 0 0 1 0 180 arc tMatrix setmatrix
  closepath} bdef
/FtbRR {MtbRR stroke } bdef
/PtbRR {MtbRR fill } bdef
/stri 6 array def /dtri 6 array def
/smat 6 array def /dmat 6 array def
/tmat1 6 array def /tmat2 6 array def /dif 3 array def
/asub {/ind2 exch def /ind1 exch def dup dup
  ind1 get exch ind2 get sub exch } bdef
/tri_to_matrix {
  2 0 asub 3 1 asub 4 0 asub 5 1 asub
  dup 0 get exch 1 get 7 -1 roll astore } bdef
/compute_transform {
  dmat dtri tri_to_matrix tmat1 invertmatrix 
  smat stri tri_to_matrix tmat2 concatmatrix } bdef
/ds {stri astore pop} bdef
/dt {dtri astore pop} bdef
/db {2 copy /cols xdef /rows xdef mul dup 3 mul string
  currentfile 
  3 index 0 eq {/ASCIIHexDecode filter}
  {/ASCII85Decode filter 3 index 2 eq {/RunLengthDecode filter} if }
  ifelse exch readstring pop
  dup 0 3 index getinterval /rbmap xdef
  dup 2 index dup getinterval /gbmap xdef
  1 index dup 2 mul exch getinterval /bbmap xdef pop pop}bdef
/it {gs np dtri aload pop moveto lineto lineto cp c
  cols rows 8 compute_transform 
  rbmap gbmap bbmap true 3 colorimage gr}bdef
/il {newpath moveto lineto stroke}bdef
currentdict end def
%%EndProlog

%%BeginSetup
MathWorks begin

0 cap

end
%%EndSetup

%%Page: 1 1
%%BeginPageSetup
%%PageBoundingBox:    21   180   546   616
MathWorks begin
bpage
%%EndPageSetup

%%BeginObject: obj1
bplot

/dpi2point 12 def
portraitMode 0216 7344 csm

   40   -48  6307  5231 rc
85 dict begin %Colortable dictionary
/c0 { 0.000000 0.000000 0.000000 sr} bdef
/c1 { 1.000000 1.000000 1.000000 sr} bdef
/c2 { 0.900000 0.000000 0.000000 sr} bdef
/c3 { 0.000000 0.820000 0.000000 sr} bdef
/c4 { 0.000000 0.000000 0.800000 sr} bdef
/c5 { 0.910000 0.820000 0.320000 sr} bdef
/c6 { 1.000000 0.260000 0.820000 sr} bdef
/c7 { 0.000000 0.820000 0.820000 sr} bdef
c0
1 j
1 sg
   0    0 6919 5187 rf
6 w
0 4202 5362 0 0 -4202 899 4616 4 MP
PP
-5362 0 0 4202 5362 0 0 -4202 899 4616 5 MP stroke
4 w
DO
SO
6 w
0 sg
 899  414 mt 6261  414 L
 899 4616 mt 6261 4616 L
6261 4616 mt 6261  414 L
 899 4616 mt  899  414 L
 899 4616 mt 6261 4616 L
 899 4616 mt  899  414 L
1592 4616 mt 1592 4562 L
1592  414 mt 1592  467 L
%%IncludeResource: font Helvetica
/Helvetica /WindowsLatin1Encoding 240 FMSR

1426 4873 mt 
(0.1) s
2286 4616 mt 2286 4562 L
2286  414 mt 2286  467 L
2120 4873 mt 
(0.2) s
2980 4616 mt 2980 4562 L
2980  414 mt 2980  467 L
2814 4873 mt 
(0.3) s
3674 4616 mt 3674 4562 L
3674  414 mt 3674  467 L
3508 4873 mt 
(0.4) s
4368 4616 mt 4368 4562 L
4368  414 mt 4368  467 L
4202 4873 mt 
(0.5) s
5062 4616 mt 5062 4562 L
5062  414 mt 5062  467 L
4896 4873 mt 
(0.6) s
5756 4616 mt 5756 4562 L
5756  414 mt 5756  467 L
5590 4873 mt 
(0.7) s
 899 4002 mt  952 4002 L
6261 4002 mt 6207 4002 L
 397 4091 mt 
(0.05) s
 899 3389 mt  952 3389 L
6261 3389 mt 6207 3389 L
 531 3478 mt 
(0.1) s
 899 2775 mt  952 2775 L
6261 2775 mt 6207 2775 L
 397 2864 mt 
(0.15) s
 899 2162 mt  952 2162 L
6261 2162 mt 6207 2162 L
 531 2251 mt 
(0.2) s
 899 1549 mt  952 1549 L
6261 1549 mt 6207 1549 L
 397 1638 mt 
(0.25) s
 899  935 mt  952  935 L
6261  935 mt 6207  935 L
 531 1024 mt 
(0.3) s
 899  414 mt 6261  414 L
 899 4616 mt 6261 4616 L
6261 4616 mt 6261  414 L
 899 4616 mt  899  414 L
gs 899 414 5363 4203 rc
gr

/c8 { 0.000000 0.000000 1.000000 sr} bdef
c8
2370 3074 mt 2442 3074 L
2406 3038 mt 2406 3110 L
 895 4422 mt  967 4422 L
 931 4386 mt  931 4458 L
2187 4611 mt 2259 4611 L
2223 4575 mt 2223 4647 L
1596 4241 mt 1668 4241 L
1632 4205 mt 1632 4277 L
1644 4038 mt 1716 4038 L
1680 4002 mt 1680 4074 L
 865 4479 mt  937 4479 L
 901 4443 mt  901 4515 L
 863 4012 mt  935 4012 L
 899 3976 mt  899 4048 L
1502 4155 mt 1574 4155 L
1538 4119 mt 1538 4191 L
1617 4589 mt 1689 4589 L
1653 4553 mt 1653 4625 L
4338 4487 mt 4410 4487 L
4374 4451 mt 4374 4523 L
 955 3208 mt 1027 3208 L
 991 3172 mt  991 3244 L
 930 4022 mt 1002 4022 L
 966 3986 mt  966 4058 L
 947 4127 mt 1019 4127 L
 983 4091 mt  983 4163 L
1421 4302 mt 1493 4302 L
1457 4266 mt 1457 4338 L
2245 3715 mt 2317 3715 L
2281 3679 mt 2281 3751 L
2873 4155 mt 2945 4155 L
2909 4119 mt 2909 4191 L
 863 4596 mt  935 4596 L
 899 4560 mt  899 4632 L
1427 4332 mt 1499 4332 L
1463 4296 mt 1463 4368 L
 879 4615 mt  951 4615 L
 915 4579 mt  915 4651 L
3392 4616 mt 3464 4616 L
3428 4580 mt 3428 4652 L
 979 4551 mt 1051 4551 L
1015 4515 mt 1015 4587 L
 866 3372 mt  938 3372 L
 902 3336 mt  902 3408 L
2086 3839 mt 2158 3839 L
2122 3803 mt 2122 3875 L
1079 2062 mt 1151 2062 L
1115 2026 mt 1115 2098 L
4052 3586 mt 4124 3586 L
4088 3550 mt 4088 3622 L
1941 4612 mt 2013 4612 L
1977 4576 mt 1977 4648 L
 937 3769 mt 1009 3769 L
 973 3733 mt  973 3805 L
2243 4567 mt 2315 4567 L
2279 4531 mt 2279 4603 L
1198 4220 mt 1270 4220 L
1234 4184 mt 1234 4256 L
3402 4562 mt 3474 4562 L
3438 4526 mt 3438 4598 L
1242 4431 mt 1314 4431 L
1278 4395 mt 1278 4467 L
1194 4501 mt 1266 4501 L
1230 4465 mt 1230 4537 L
1966 4614 mt 2038 4614 L
2002 4578 mt 2002 4650 L
3707 4559 mt 3779 4559 L
3743 4523 mt 3743 4595 L
 864 4555 mt  936 4555 L
 900 4519 mt  900 4591 L
1260 4597 mt 1332 4597 L
1296 4561 mt 1296 4633 L
2963 4528 mt 3035 4528 L
2999 4492 mt 2999 4564 L
2464 4575 mt 2536 4575 L
2500 4539 mt 2500 4611 L
 864 4249 mt  936 4249 L
 900 4213 mt  900 4285 L
 872 4566 mt  944 4566 L
 908 4530 mt  908 4602 L
 866 4606 mt  938 4606 L
 902 4570 mt  902 4642 L
1611 4521 mt 1683 4521 L
1647 4485 mt 1647 4557 L
1434 4615 mt 1506 4615 L
1470 4579 mt 1470 4651 L
1763  414 mt 1835  414 L
1799  378 mt 1799  450 L
5832 4604 mt 5904 4604 L
5868 4568 mt 5868 4640 L
1763 4615 mt 1835 4615 L
1799 4579 mt 1799 4651 L
1116 4479 mt 1188 4479 L
1152 4443 mt 1152 4515 L
2972 4513 mt 3044 4513 L
3008 4477 mt 3008 4549 L
1130 4566 mt 1202 4566 L
1166 4530 mt 1166 4602 L
 874 4592 mt  946 4592 L
 910 4556 mt  910 4628 L
2031 1945 mt 2103 1945 L
2067 1909 mt 2067 1981 L
2323 4230 mt 2395 4230 L
2359 4194 mt 2359 4266 L
2221 3735 mt 2293 3735 L
2257 3699 mt 2257 3771 L
1179 4369 mt 1251 4369 L
1215 4333 mt 1215 4405 L
2409 2821 mt 2481 2821 L
2445 2785 mt 2445 2857 L
1220 4555 mt 1292 4555 L
1256 4519 mt 1256 4591 L
1488 3866 mt 1560 3866 L
1524 3830 mt 1524 3902 L
1030 4499 mt 1102 4499 L
1066 4463 mt 1066 4535 L
2810 4473 mt 2882 4473 L
2846 4437 mt 2846 4509 L
2037 4417 mt 2109 4417 L
2073 4381 mt 2073 4453 L
1695 4117 mt 1767 4117 L
1731 4081 mt 1731 4153 L
2781 4579 mt 2853 4579 L
2817 4543 mt 2817 4615 L
3344 1960 mt 3416 1960 L
3380 1924 mt 3380 1996 L
3171 4559 mt 3243 4559 L
3207 4523 mt 3207 4595 L
2395 4596 mt 2467 4596 L
2431 4560 mt 2431 4632 L
1233 4248 mt 1305 4248 L
1269 4212 mt 1269 4284 L
2481 4355 mt 2553 4355 L
2517 4319 mt 2517 4391 L
2408 4608 mt 2480 4608 L
2444 4572 mt 2444 4644 L
1304 4195 mt 1376 4195 L
1340 4159 mt 1340 4231 L
1305 4614 mt 1377 4614 L
1341 4578 mt 1341 4650 L
2529 4520 mt 2601 4520 L
2565 4484 mt 2565 4556 L
1467 4031 mt 1539 4031 L
1503 3995 mt 1503 4067 L
1475 4285 mt 1547 4285 L
1511 4249 mt 1511 4321 L
 923 4408 mt  995 4408 L
 959 4372 mt  959 4444 L
 890 3645 mt  962 3645 L
 926 3609 mt  926 3681 L
 972 4597 mt 1044 4597 L
1008 4561 mt 1008 4633 L
4944 4306 mt 5016 4306 L
4980 4270 mt 4980 4342 L
 887 4599 mt  959 4599 L
 923 4563 mt  923 4635 L
 943 4009 mt 1015 4009 L
 979 3973 mt  979 4045 L
3114 4314 mt 3186 4314 L
3150 4278 mt 3150 4350 L
2276 3523 mt 2348 3523 L
2312 3487 mt 2312 3559 L
 895 4463 mt  967 4463 L
 931 4427 mt  931 4499 L
1942 4608 mt 2014 4608 L
1978 4572 mt 1978 4644 L
2001 4601 mt 2073 4601 L
2037 4565 mt 2037 4637 L
4991 4288 mt 5063 4288 L
5027 4252 mt 5027 4324 L
1101 4469 mt 1173 4469 L
1137 4433 mt 1137 4505 L
1107 3477 mt 1179 3477 L
1143 3441 mt 1143 3513 L
3966 3899 mt 4038 3899 L
4002 3863 mt 4002 3935 L
1491 4608 mt 1563 4608 L
1527 4572 mt 1527 4644 L
1111 2921 mt 1183 2921 L
1147 2885 mt 1147 2957 L
3369 4613 mt 3441 4613 L
3405 4577 mt 3405 4649 L
3047 3905 mt 3119 3905 L
3083 3869 mt 3083 3941 L
 944 3595 mt 1016 3595 L
 980 3559 mt  980 3631 L
2991 4440 mt 3063 4440 L
3027 4404 mt 3027 4476 L
1175 4508 mt 1247 4508 L
1211 4472 mt 1211 4544 L
 909 4524 mt  981 4524 L
 945 4488 mt  945 4560 L
2250 3918 mt 2322 3918 L
2286 3882 mt 2286 3954 L
3503 4603 mt 3575 4603 L
3539 4567 mt 3539 4639 L
4218 4553 mt 4290 4553 L
4254 4517 mt 4254 4589 L
1652 4200 mt 1724 4200 L
1688 4164 mt 1688 4236 L
1057 3554 mt 1129 3554 L
1093 3518 mt 1093 3590 L
 904 3271 mt  976 3271 L
 940 3235 mt  940 3307 L
1236 2925 mt 1308 2925 L
1272 2889 mt 1272 2961 L
1283 4456 mt 1355 4456 L
1319 4420 mt 1319 4492 L
2054 3831 mt 2126 3831 L
2090 3795 mt 2090 3867 L
1046 3898 mt 1118 3898 L
1082 3862 mt 1082 3934 L
1104 4615 mt 1176 4615 L
1140 4579 mt 1140 4651 L
3333 4310 mt 3405 4310 L
3369 4274 mt 3369 4346 L
 875 4614 mt  947 4614 L
 911 4578 mt  911 4650 L
 863 4607 mt  935 4607 L
 899 4571 mt  899 4643 L
5436 4615 mt 5508 4615 L
5472 4579 mt 5472 4651 L
1240 4576 mt 1312 4576 L
1276 4540 mt 1276 4612 L
 904 4558 mt  976 4558 L
 940 4522 mt  940 4594 L
2144 4397 mt 2216 4397 L
2180 4361 mt 2180 4433 L
2155 3949 mt 2227 3949 L
2191 3913 mt 2191 3985 L
 864 3863 mt  936 3863 L
 900 3827 mt  900 3899 L
1191 4514 mt 1263 4514 L
1227 4478 mt 1227 4550 L
 863 4488 mt  935 4488 L
 899 4452 mt  899 4524 L
1758 4603 mt 1830 4603 L
1794 4567 mt 1794 4639 L
1805 4615 mt 1877 4615 L
1841 4579 mt 1841 4651 L
1443 4540 mt 1515 4540 L
1479 4504 mt 1479 4576 L
1014 4131 mt 1086 4131 L
1050 4095 mt 1050 4167 L
1166 4613 mt 1238 4613 L
1202 4577 mt 1202 4649 L
 999 4014 mt 1071 4014 L
1035 3978 mt 1035 4050 L
1201 4444 mt 1273 4444 L
1237 4408 mt 1237 4480 L
 901 4243 mt  973 4243 L
 937 4207 mt  937 4279 L
1474 4517 mt 1546 4517 L
1510 4481 mt 1510 4553 L
1446 4615 mt 1518 4615 L
1482 4579 mt 1482 4651 L
1863 4585 mt 1935 4585 L
1899 4549 mt 1899 4621 L
2846 1972 mt 2918 1972 L
2882 1936 mt 2882 2008 L
3514 3412 mt 3586 3412 L
3550 3376 mt 3550 3448 L
2952 4059 mt 3024 4059 L
2988 4023 mt 2988 4095 L
1351 3795 mt 1423 3795 L
1387 3759 mt 1387 3831 L
1130 4137 mt 1202 4137 L
1166 4101 mt 1166 4173 L
2665 4471 mt 2737 4471 L
2701 4435 mt 2701 4507 L
1163 4591 mt 1235 4591 L
1199 4555 mt 1199 4627 L
1259 4562 mt 1331 4562 L
1295 4526 mt 1295 4598 L
2357 4607 mt 2429 4607 L
2393 4571 mt 2393 4643 L
 863 4283 mt  935 4283 L
 899 4247 mt  899 4319 L
 863 3378 mt  935 3378 L
 899 3342 mt  899 3414 L
1229 4605 mt 1301 4605 L
1265 4569 mt 1265 4641 L
3035 4198 mt 3107 4198 L
3071 4162 mt 3071 4234 L
4394 4581 mt 4466 4581 L
4430 4545 mt 4430 4617 L
2394 3332 mt 2466 3332 L
2430 3296 mt 2430 3368 L
2011 4607 mt 2083 4607 L
2047 4571 mt 2047 4643 L
3389 4612 mt 3461 4612 L
3425 4576 mt 3425 4648 L
1192 3727 mt 1264 3727 L
1228 3691 mt 1228 3763 L
3461 4049 mt 3533 4049 L
3497 4013 mt 3497 4085 L
4542 4236 mt 4614 4236 L
4578 4200 mt 4578 4272 L
2363 4612 mt 2435 4612 L
2399 4576 mt 2399 4648 L
4645 4290 mt 4717 4290 L
4681 4254 mt 4681 4326 L
1215 4136 mt 1287 4136 L
1251 4100 mt 1251 4172 L
1124 4615 mt 1196 4615 L
1160 4579 mt 1160 4651 L
2604 3781 mt 2676 3781 L
2640 3745 mt 2640 3817 L
3533 4614 mt 3605 4614 L
3569 4578 mt 3569 4650 L
3397 4415 mt 3469 4415 L
3433 4379 mt 3433 4451 L
1004 4509 mt 1076 4509 L
1040 4473 mt 1040 4545 L
 913 4445 mt  985 4445 L
 949 4409 mt  949 4481 L
1217 3924 mt 1289 3924 L
1253 3888 mt 1253 3960 L
2778 4095 mt 2850 4095 L
2814 4059 mt 2814 4131 L
1693 4615 mt 1765 4615 L
1729 4579 mt 1729 4651 L
 911 4412 mt  983 4412 L
 947 4376 mt  947 4448 L
 874 1604 mt  946 1604 L
 910 1568 mt  910 1640 L
1297 4606 mt 1369 4606 L
1333 4570 mt 1333 4642 L
1594 3771 mt 1666 3771 L
1630 3735 mt 1630 3807 L
 977 4525 mt 1049 4525 L
1013 4489 mt 1013 4561 L
3263 4313 mt 3335 4313 L
3299 4277 mt 3299 4349 L
 893 4312 mt  965 4312 L
 929 4276 mt  929 4348 L
 875 4300 mt  947 4300 L
 911 4264 mt  911 4336 L
 998 4615 mt 1070 4615 L
1034 4579 mt 1034 4651 L
 937 1839 mt 1009 1839 L
 973 1803 mt  973 1875 L
1438 3570 mt 1510 3570 L
1474 3534 mt 1474 3606 L
1974 4495 mt 2046 4495 L
2010 4459 mt 2010 4531 L
1999 3962 mt 2071 3962 L
2035 3926 mt 2035 3998 L
1348 3470 mt 1420 3470 L
1384 3434 mt 1384 3506 L
 863 4036 mt  935 4036 L
 899 4000 mt  899 4072 L
1261 4318 mt 1333 4318 L
1297 4282 mt 1297 4354 L
3078 4544 mt 3150 4544 L
3114 4508 mt 3114 4580 L
1399 3601 mt 1471 3601 L
1435 3565 mt 1435 3637 L
1433 4376 mt 1505 4376 L
1469 4340 mt 1469 4412 L
1887 4552 mt 1959 4552 L
1923 4516 mt 1923 4588 L
4600 4586 mt 4672 4586 L
4636 4550 mt 4636 4622 L
3055 1180 mt 3127 1180 L
3091 1144 mt 3091 1216 L
 909 4527 mt  981 4527 L
 945 4491 mt  945 4563 L
3431 4411 mt 3503 4411 L
3467 4375 mt 3467 4447 L
2312 2821 mt 2384 2821 L
2348 2785 mt 2348 2857 L
1599 3433 mt 1671 3433 L
1635 3397 mt 1635 3469 L
 903 3966 mt  975 3966 L
 939 3930 mt  939 4002 L
3728 4174 mt 3800 4174 L
3764 4138 mt 3764 4210 L
 916  916 mt  988  916 L
 952  880 mt  952  952 L
1542 4041 mt 1614 4041 L
1578 4005 mt 1578 4077 L
3528 2228 mt 3600 2228 L
3564 2192 mt 3564 2264 L
1596 4569 mt 1668 4569 L
1632 4533 mt 1632 4605 L
1027 3946 mt 1099 3946 L
1063 3910 mt 1063 3982 L
1202 3803 mt 1274 3803 L
1238 3767 mt 1238 3839 L
2295 3665 mt 2367 3665 L
2331 3629 mt 2331 3701 L
 881 3254 mt  953 3254 L
 917 3218 mt  917 3290 L
1885 3503 mt 1957 3503 L
1921 3467 mt 1921 3539 L
 865 4135 mt  937 4135 L
 901 4099 mt  901 4171 L
 935 4022 mt 1007 4022 L
 971 3986 mt  971 4058 L
2069 2828 mt 2141 2828 L
2105 2792 mt 2105 2864 L
 951 2748 mt 1023 2748 L
 987 2712 mt  987 2784 L
3808 4447 mt 3880 4447 L
3844 4411 mt 3844 4483 L
1424 3552 mt 1496 3552 L
1460 3516 mt 1460 3588 L
2115 4391 mt 2187 4391 L
2151 4355 mt 2151 4427 L
 912 4073 mt  984 4073 L
 948 4037 mt  948 4109 L
 931 4071 mt 1003 4071 L
 967 4035 mt  967 4107 L
2487 4595 mt 2559 4595 L
2523 4559 mt 2523 4631 L
1915 4572 mt 1987 4572 L
1951 4536 mt 1951 4608 L
3800 4612 mt 3872 4612 L
3836 4576 mt 3836 4648 L
 985 4016 mt 1057 4016 L
1021 3980 mt 1021 4052 L
 866 4606 mt  938 4606 L
 902 4570 mt  902 4642 L
1156 4412 mt 1228 4412 L
1192 4376 mt 1192 4448 L
1726 2158 mt 1798 2158 L
1762 2122 mt 1762 2194 L
1407 3468 mt 1479 3468 L
1443 3432 mt 1443 3504 L
3696 2993 mt 3768 2993 L
3732 2957 mt 3732 3029 L
 869 4614 mt  941 4614 L
 905 4578 mt  905 4650 L
 920 4540 mt  992 4540 L
 956 4504 mt  956 4576 L
 868 4307 mt  940 4307 L
 904 4271 mt  904 4343 L
2706 4428 mt 2778 4428 L
2742 4392 mt 2742 4464 L
1323 4600 mt 1395 4600 L
1359 4564 mt 1359 4636 L
 984 2558 mt 1056 2558 L
1020 2522 mt 1020 2594 L
2376 4404 mt 2448 4404 L
2412 4368 mt 2412 4440 L
1442 2982 mt 1514 2982 L
1478 2946 mt 1478 3018 L
1904 3947 mt 1976 3947 L
1940 3911 mt 1940 3983 L
1213 4612 mt 1285 4612 L
1249 4576 mt 1249 4648 L
 972 4615 mt 1044 4615 L
1008 4579 mt 1008 4651 L
1683 4198 mt 1755 4198 L
1719 4162 mt 1719 4234 L
 947 3550 mt 1019 3550 L
 983 3514 mt  983 3586 L
2202 3482 mt 2274 3482 L
2238 3446 mt 2238 3518 L
 876 4432 mt  948 4432 L
 912 4396 mt  912 4468 L
1397 4544 mt 1469 4544 L
1433 4508 mt 1433 4580 L
2725 4597 mt 2797 4597 L
2761 4561 mt 2761 4633 L
4464 4457 mt 4536 4457 L
4500 4421 mt 4500 4493 L
1548 4614 mt 1620 4614 L
1584 4578 mt 1584 4650 L
 863 4179 mt  935 4179 L
 899 4143 mt  899 4215 L
2946 4613 mt 3018 4613 L
2982 4577 mt 2982 4649 L
3594 3397 mt 3666 3397 L
3630 3361 mt 3630 3433 L
 872 3907 mt  944 3907 L
 908 3871 mt  908 3943 L
 983 4613 mt 1055 4613 L
1019 4577 mt 1019 4649 L
 957 4591 mt 1029 4591 L
 993 4555 mt  993 4627 L
2212 4446 mt 2284 4446 L
2248 4410 mt 2248 4482 L
2213 4579 mt 2285 4579 L
2249 4543 mt 2249 4615 L
3059  866 mt 3131  866 L
3095  830 mt 3095  902 L
6225 4346 mt 6297 4346 L
6261 4310 mt 6261 4382 L
1279 4434 mt 1351 4434 L
1315 4398 mt 1315 4470 L
1855 4382 mt 1927 4382 L
1891 4346 mt 1891 4418 L
3645 4603 mt 3717 4603 L
3681 4567 mt 3681 4639 L
2261 4596 mt 2333 4596 L
2297 4560 mt 2297 4632 L
1705 4549 mt 1777 4549 L
1741 4513 mt 1741 4585 L
1842 3151 mt 1914 3151 L
1878 3115 mt 1878 3187 L
2657 4201 mt 2729 4201 L
2693 4165 mt 2693 4237 L
3113 3992 mt 3185 3992 L
3149 3956 mt 3149 4028 L
 892 4359 mt  964 4359 L
 928 4323 mt  928 4395 L
2006 3491 mt 2078 3491 L
2042 3455 mt 2042 3527 L
2008 4392 mt 2080 4392 L
2044 4356 mt 2044 4428 L
1100 4427 mt 1172 4427 L
1136 4391 mt 1136 4463 L
 913 4608 mt  985 4608 L
 949 4572 mt  949 4644 L
2850 3388 mt 2922 3388 L
2886 3352 mt 2886 3424 L
1770 3833 mt 1842 3833 L
1806 3797 mt 1806 3869 L
1447 4179 mt 1519 4179 L
1483 4143 mt 1483 4215 L
3415 4422 mt 3487 4422 L
3451 4386 mt 3451 4458 L
2760 2711 mt 2832 2711 L
2796 2675 mt 2796 2747 L
4314 4539 mt 4386 4539 L
4350 4503 mt 4350 4575 L
 863 4508 mt  935 4508 L
 899 4472 mt  899 4544 L
1015 3600 mt 1087 3600 L
1051 3564 mt 1051 3636 L
1321 4550 mt 1393 4550 L
1357 4514 mt 1357 4586 L
3145 4230 mt 3217 4230 L
3181 4194 mt 3181 4266 L
1510 4605 mt 1582 4605 L
1546 4569 mt 1546 4641 L
2647 3915 mt 2719 3915 L
2683 3879 mt 2683 3951 L
3648 4283 mt 3720 4283 L
3684 4247 mt 3684 4319 L
 865 4566 mt  937 4566 L
 901 4530 mt  901 4602 L
3308 4595 mt 3380 4595 L
3344 4559 mt 3344 4631 L
1098 4613 mt 1170 4613 L
1134 4577 mt 1134 4649 L
 908 4152 mt  980 4152 L
 944 4116 mt  944 4188 L
 964 4577 mt 1036 4577 L
1000 4541 mt 1000 4613 L
5337 3969 mt 5409 3969 L
5373 3933 mt 5373 4005 L
1163 4197 mt 1235 4197 L
1199 4161 mt 1199 4233 L
1236 4568 mt 1308 4568 L
1272 4532 mt 1272 4604 L
3214 4428 mt 3286 4428 L
3250 4392 mt 3250 4464 L
2916 3651 mt 2988 3651 L
2952 3615 mt 2952 3687 L
 886 4313 mt  958 4313 L
 922 4277 mt  922 4349 L
1983 4178 mt 2055 4178 L
2019 4142 mt 2019 4214 L
3270 4083 mt 3342 4083 L
3306 4047 mt 3306 4119 L
4653 2506 mt 4725 2506 L
4689 2470 mt 4689 2542 L
1493 4558 mt 1565 4558 L
1529 4522 mt 1529 4594 L
1466 4401 mt 1538 4401 L
1502 4365 mt 1502 4437 L
4458 3867 mt 4530 3867 L
4494 3831 mt 4494 3903 L
 949 4581 mt 1021 4581 L
 985 4545 mt  985 4617 L
1720 4293 mt 1792 4293 L
1756 4257 mt 1756 4329 L
4139 4205 mt 4211 4205 L
4175 4169 mt 4175 4241 L
2372 4497 mt 2444 4497 L
2408 4461 mt 2408 4533 L
 894 4004 mt  966 4004 L
 930 3968 mt  930 4040 L
3566 3742 mt 3638 3742 L
3602 3706 mt 3602 3778 L
1080 4611 mt 1152 4611 L
1116 4575 mt 1116 4647 L
 868 4487 mt  940 4487 L
 904 4451 mt  904 4523 L
2775 4612 mt 2847 4612 L
2811 4576 mt 2811 4648 L
4051 4077 mt 4123 4077 L
4087 4041 mt 4087 4113 L
3904 4530 mt 3976 4530 L
3940 4494 mt 3940 4566 L
1435 4040 mt 1507 4040 L
1471 4004 mt 1471 4076 L
 922 3550 mt  994 3550 L
 958 3514 mt  958 3586 L
1070 3980 mt 1142 3980 L
1106 3944 mt 1106 4016 L
1974 1268 mt 2046 1268 L
2010 1232 mt 2010 1304 L
1794 4605 mt 1866 4605 L
1830 4569 mt 1830 4641 L
1831 4038 mt 1903 4038 L
1867 4002 mt 1867 4074 L
 865 3441 mt  937 3441 L
 901 3405 mt  901 3477 L
1875 4195 mt 1947 4195 L
1911 4159 mt 1911 4231 L
2887 4006 mt 2959 4006 L
2923 3970 mt 2923 4042 L
 886 4564 mt  958 4564 L
 922 4528 mt  922 4600 L
1401 4410 mt 1473 4410 L
1437 4374 mt 1437 4446 L
6076 3875 mt 6148 3875 L
6112 3839 mt 6112 3911 L
 895 4508 mt  967 4508 L
 931 4472 mt  931 4544 L
 866 4531 mt  938 4531 L
 902 4495 mt  902 4567 L
1352 4474 mt 1424 4474 L
1388 4438 mt 1388 4510 L
2240 4523 mt 2312 4523 L
2276 4487 mt 2276 4559 L
 931 3774 mt 1003 3774 L
 967 3738 mt  967 3810 L
1262 4118 mt 1334 4118 L
1298 4082 mt 1298 4154 L
1709 3873 mt 1781 3873 L
1745 3837 mt 1745 3909 L
1759 4491 mt 1831 4491 L
1795 4455 mt 1795 4527 L
1242 4610 mt 1314 4610 L
1278 4574 mt 1278 4646 L
1265 4567 mt 1337 4567 L
1301 4531 mt 1301 4603 L
1119 4605 mt 1191 4605 L
1155 4569 mt 1155 4641 L
1646 4430 mt 1718 4430 L
1682 4394 mt 1682 4466 L
 873 4161 mt  945 4161 L
 909 4125 mt  909 4197 L
1236 4552 mt 1308 4552 L
1272 4516 mt 1272 4588 L
1321 4614 mt 1393 4614 L
1357 4578 mt 1357 4650 L
2822 4073 mt 2894 4073 L
2858 4037 mt 2858 4109 L
1889 4171 mt 1961 4171 L
1925 4135 mt 1925 4207 L
1595 4355 mt 1667 4355 L
1631 4319 mt 1631 4391 L
2395 3530 mt 2467 3530 L
2431 3494 mt 2431 3566 L
4514 4197 mt 4586 4197 L
4550 4161 mt 4550 4233 L
2836 3839 mt 2908 3839 L
2872 3803 mt 2872 3875 L
2097 4154 mt 2169 4154 L
2133 4118 mt 2133 4190 L
1385 4145 mt 1457 4145 L
1421 4109 mt 1421 4181 L
3291 4199 mt 3363 4199 L
3327 4163 mt 3327 4235 L
 863 4548 mt  935 4548 L
 899 4512 mt  899 4584 L
1986 4615 mt 2058 4615 L
2022 4579 mt 2022 4651 L
1602 4163 mt 1674 4163 L
1638 4127 mt 1638 4199 L
 869 4325 mt  941 4325 L
 905 4289 mt  905 4361 L
 887 3936 mt  959 3936 L
 923 3900 mt  923 3972 L
 863 4407 mt  935 4407 L
 899 4371 mt  899 4443 L
2474 4581 mt 2546 4581 L
2510 4545 mt 2510 4617 L
4669 4611 mt 4741 4611 L
4705 4575 mt 4705 4647 L
2267 3170 mt 2339 3170 L
2303 3134 mt 2303 3206 L
2119 4353 mt 2191 4353 L
2155 4317 mt 2155 4389 L
1875 4370 mt 1947 4370 L
1911 4334 mt 1911 4406 L
2035 3932 mt 2107 3932 L
2071 3896 mt 2071 3968 L
3234 4614 mt 3306 4614 L
3270 4578 mt 3270 4650 L
3873 2852 mt 3945 2852 L
3909 2816 mt 3909 2888 L
2231 4602 mt 2303 4602 L
2267 4566 mt 2267 4638 L
5558 4383 mt 5630 4383 L
5594 4347 mt 5594 4419 L
1170 4606 mt 1242 4606 L
1206 4570 mt 1206 4642 L
 884 3610 mt  956 3610 L
 920 3574 mt  920 3646 L
 983 4554 mt 1055 4554 L
1019 4518 mt 1019 4590 L
2977 4561 mt 3049 4561 L
3013 4525 mt 3013 4597 L
2461 4604 mt 2533 4604 L
2497 4568 mt 2497 4640 L
2181 3968 mt 2253 3968 L
2217 3932 mt 2217 4004 L
1381 4257 mt 1453 4257 L
1417 4221 mt 1417 4293 L
1032 4460 mt 1104 4460 L
1068 4424 mt 1068 4496 L
3157 4273 mt 3229 4273 L
3193 4237 mt 3193 4309 L
1185 4555 mt 1257 4555 L
1221 4519 mt 1221 4591 L
 901 4594 mt  973 4594 L
 937 4558 mt  937 4630 L
1204 2663 mt 1276 2663 L
1240 2627 mt 1240 2699 L
1119 4144 mt 1191 4144 L
1155 4108 mt 1155 4180 L
1002 4390 mt 1074 4390 L
1038 4354 mt 1038 4426 L
 972 4556 mt 1044 4556 L
1008 4520 mt 1008 4592 L
3534 4566 mt 3606 4566 L
3570 4530 mt 3570 4602 L
 865 4613 mt  937 4613 L
 901 4577 mt  901 4649 L
 891 4530 mt  963 4530 L
 927 4494 mt  927 4566 L
1354 4235 mt 1426 4235 L
1390 4199 mt 1390 4271 L
1349 2705 mt 1421 2705 L
1385 2669 mt 1385 2741 L
2442 4578 mt 2514 4578 L
2478 4542 mt 2478 4614 L
2214 4564 mt 2286 4564 L
2250 4528 mt 2250 4600 L
2789 4405 mt 2861 4405 L
2825 4369 mt 2825 4441 L
2224 2484 mt 2296 2484 L
2260 2448 mt 2260 2520 L
1335 4552 mt 1407 4552 L
1371 4516 mt 1371 4588 L
 908 3257 mt  980 3257 L
 944 3221 mt  944 3293 L
3730 4059 mt 3802 4059 L
3766 4023 mt 3766 4095 L
2324 4171 mt 2396 4171 L
2360 4135 mt 2360 4207 L
 863 4615 mt  935 4615 L
 899 4579 mt  899 4651 L
1976 4254 mt 2048 4254 L
2012 4218 mt 2012 4290 L
4273 3766 mt 4345 3766 L
4309 3730 mt 4309 3802 L
4503 2015 mt 4575 2015 L
4539 1979 mt 4539 2051 L
 916 4034 mt  988 4034 L
 952 3998 mt  952 4070 L
4662 4576 mt 4734 4576 L
4698 4540 mt 4698 4612 L
2662 4208 mt 2734 4208 L
2698 4172 mt 2698 4244 L
3409 4250 mt 3481 4250 L
3445 4214 mt 3445 4286 L
 905 4432 mt  977 4432 L
 941 4396 mt  941 4468 L
2398 3799 mt 2470 3799 L
2434 3763 mt 2434 3835 L
1296 1599 mt 1368 1599 L
1332 1563 mt 1332 1635 L
3077 4339 mt 3149 4339 L
3113 4303 mt 3113 4375 L
3852 3061 mt 3924 3061 L
3888 3025 mt 3888 3097 L
1047 4615 mt 1119 4615 L
1083 4579 mt 1083 4651 L
 935 3839 mt 1007 3839 L
 971 3803 mt  971 3875 L
1460 4268 mt 1532 4268 L
1496 4232 mt 1496 4304 L
2160 3627 mt 2232 3627 L
2196 3591 mt 2196 3663 L
 923 3694 mt  995 3694 L
 959 3658 mt  959 3730 L
1004 4183 mt 1076 4183 L
1040 4147 mt 1040 4219 L
 982 4312 mt 1054 4312 L
1018 4276 mt 1018 4348 L
 952 4429 mt 1024 4429 L
 988 4393 mt  988 4465 L
gs 899 414 5363 4203 rc
gr

0 sg
2775 5104 mt 
(\(F,DCTb,GMM\)) s
 288 3277 mt  -90 rotate
(\(S,SSC,GMM\)) s
90 rotate
2975  223 mt 
(Corr = 0.04) s

end %%Color Dict

eplot
%%EndObject

epage
end

showpage

%%Trailer
%%EOF
