%!PS-Adobe-3.0 EPSF-3.0
%%Creator: MATLAB, The Mathworks, Inc. Version 7.7.0.471 (R2008b). Operating System: Microsoft Windows XP.
%%Title: Pictures\main_zoo_mvar_analysis_data_BMI_xcorr_bmig_p1_k2_4_7.eps
%%CreationDate: 10/26/2009  05:45:27
%%DocumentNeededFonts: Helvetica
%%DocumentProcessColors: Cyan Magenta Yellow Black
%%LanguageLevel: 2
%%Pages: 1
%%BoundingBox:    37   180   549   616
%%EndComments

%%BeginProlog
% MathWorks dictionary
/MathWorks 160 dict begin
% definition operators
/bdef {bind def} bind def
/ldef {load def} bind def
/xdef {exch def} bdef
/xstore {exch store} bdef
% operator abbreviations
/c  /clip ldef
/cc /concat ldef
/cp /closepath ldef
/gr /grestore ldef
/gs /gsave ldef
/mt /moveto ldef
/np /newpath ldef
/cm /currentmatrix ldef
/sm /setmatrix ldef
/rm /rmoveto ldef
/rl /rlineto ldef
/s {show newpath} bdef
/sc {setcmykcolor} bdef
/sr /setrgbcolor ldef
/sg /setgray ldef
/w /setlinewidth ldef
/j /setlinejoin ldef
/cap /setlinecap ldef
/rc {rectclip} bdef
/rf {rectfill} bdef
% page state control
/pgsv () def
/bpage {/pgsv save def} bdef
/epage {pgsv restore} bdef
/bplot /gsave ldef
/eplot {stroke grestore} bdef
% orientation switch
/portraitMode 0 def /landscapeMode 1 def /rotateMode 2 def
% coordinate system mappings
/dpi2point 0 def
% font control
/FontSize 0 def
/FMS {/FontSize xstore findfont [FontSize 0 0 FontSize neg 0 0]
  makefont setfont} bdef
/ISOLatin1Encoding where {pop /WindowsLatin1Encoding 256 array bdef
ISOLatin1Encoding WindowsLatin1Encoding copy pop
/.notdef/.notdef/quotesinglbase/florin/quotedblbase/ellipsis/dagger
/daggerdbl/circumflex/perthousand/Scaron/guilsinglleft/OE/.notdef/.notdef
/.notdef/.notdef/quoteleft/quoteright/quotedblleft/quotedblright/bullet
/endash/emdash/tilde/trademark/scaron/guilsinglright/oe/.notdef/.notdef
/Ydieresis WindowsLatin1Encoding 128 32 getinterval astore pop}
{/WindowsLatin1Encoding StandardEncoding bdef} ifelse
/reencode {exch dup where {pop load} {pop StandardEncoding} ifelse
  exch dup 3 1 roll findfont dup length dict begin
  { 1 index /FID ne {def}{pop pop} ifelse } forall
  /Encoding exch def currentdict end definefont pop} bdef
/isroman {findfont /CharStrings get /Agrave known} bdef
/FMSR {3 1 roll 1 index dup isroman {reencode} {pop pop} ifelse
  exch FMS} bdef
/csm {1 dpi2point div -1 dpi2point div scale neg translate
 dup landscapeMode eq {pop -90 rotate}
  {rotateMode eq {90 rotate} if} ifelse} bdef
% line types: solid, dotted, dashed, dotdash
/SO { [] 0 setdash } bdef
/DO { [.5 dpi2point mul 4 dpi2point mul] 0 setdash } bdef
/DA { [6 dpi2point mul] 0 setdash } bdef
/DD { [.5 dpi2point mul 4 dpi2point mul 6 dpi2point mul 4
  dpi2point mul] 0 setdash } bdef
% macros for lines and objects
/L {lineto stroke} bdef
/MP {3 1 roll moveto 1 sub {rlineto} repeat} bdef
/AP {{rlineto} repeat} bdef
/PDlw -1 def
/W {/PDlw currentlinewidth def setlinewidth} def
/PP {closepath eofill} bdef
/DP {closepath stroke} bdef
/MR {4 -2 roll moveto dup  0 exch rlineto exch 0 rlineto
  neg 0 exch rlineto closepath} bdef
/FR {MR stroke} bdef
/PR {MR fill} bdef
/L1i {{currentfile picstr readhexstring pop} image} bdef
/tMatrix matrix def
/MakeOval {newpath tMatrix currentmatrix pop translate scale
0 0 1 0 360 arc tMatrix setmatrix} bdef
/FO {MakeOval stroke} bdef
/PO {MakeOval fill} bdef
/PD {currentlinewidth 2 div 0 360 arc fill
   PDlw -1 eq not {PDlw w /PDlw -1 def} if} def
/FA {newpath tMatrix currentmatrix pop translate scale
  0 0 1 5 -2 roll arc tMatrix setmatrix stroke} bdef
/PA {newpath tMatrix currentmatrix pop	translate 0 0 moveto scale
  0 0 1 5 -2 roll arc closepath tMatrix setmatrix fill} bdef
/FAn {newpath tMatrix currentmatrix pop translate scale
  0 0 1 5 -2 roll arcn tMatrix setmatrix stroke} bdef
/PAn {newpath tMatrix currentmatrix pop translate 0 0 moveto scale
  0 0 1 5 -2 roll arcn closepath tMatrix setmatrix fill} bdef
/vradius 0 def /hradius 0 def /lry 0 def
/lrx 0 def /uly 0 def /ulx 0 def /rad 0 def
/MRR {/vradius xdef /hradius xdef /lry xdef /lrx xdef /uly xdef
  /ulx xdef newpath tMatrix currentmatrix pop ulx hradius add uly
  vradius add translate hradius vradius scale 0 0 1 180 270 arc 
  tMatrix setmatrix lrx hradius sub uly vradius add translate
  hradius vradius scale 0 0 1 270 360 arc tMatrix setmatrix
  lrx hradius sub lry vradius sub translate hradius vradius scale
  0 0 1 0 90 arc tMatrix setmatrix ulx hradius add lry vradius sub
  translate hradius vradius scale 0 0 1 90 180 arc tMatrix setmatrix
  closepath} bdef
/FRR {MRR stroke } bdef
/PRR {MRR fill } bdef
/MlrRR {/lry xdef /lrx xdef /uly xdef /ulx xdef /rad lry uly sub 2 div def
  newpath tMatrix currentmatrix pop ulx rad add uly rad add translate
  rad rad scale 0 0 1 90 270 arc tMatrix setmatrix lrx rad sub lry rad
  sub translate rad rad scale 0 0 1 270 90 arc tMatrix setmatrix
  closepath} bdef
/FlrRR {MlrRR stroke } bdef
/PlrRR {MlrRR fill } bdef
/MtbRR {/lry xdef /lrx xdef /uly xdef /ulx xdef /rad lrx ulx sub 2 div def
  newpath tMatrix currentmatrix pop ulx rad add uly rad add translate
  rad rad scale 0 0 1 180 360 arc tMatrix setmatrix lrx rad sub lry rad
  sub translate rad rad scale 0 0 1 0 180 arc tMatrix setmatrix
  closepath} bdef
/FtbRR {MtbRR stroke } bdef
/PtbRR {MtbRR fill } bdef
/stri 6 array def /dtri 6 array def
/smat 6 array def /dmat 6 array def
/tmat1 6 array def /tmat2 6 array def /dif 3 array def
/asub {/ind2 exch def /ind1 exch def dup dup
  ind1 get exch ind2 get sub exch } bdef
/tri_to_matrix {
  2 0 asub 3 1 asub 4 0 asub 5 1 asub
  dup 0 get exch 1 get 7 -1 roll astore } bdef
/compute_transform {
  dmat dtri tri_to_matrix tmat1 invertmatrix 
  smat stri tri_to_matrix tmat2 concatmatrix } bdef
/ds {stri astore pop} bdef
/dt {dtri astore pop} bdef
/db {2 copy /cols xdef /rows xdef mul dup 3 mul string
  currentfile 
  3 index 0 eq {/ASCIIHexDecode filter}
  {/ASCII85Decode filter 3 index 2 eq {/RunLengthDecode filter} if }
  ifelse exch readstring pop
  dup 0 3 index getinterval /rbmap xdef
  dup 2 index dup getinterval /gbmap xdef
  1 index dup 2 mul exch getinterval /bbmap xdef pop pop}bdef
/it {gs np dtri aload pop moveto lineto lineto cp c
  cols rows 8 compute_transform 
  rbmap gbmap bbmap true 3 colorimage gr}bdef
/il {newpath moveto lineto stroke}bdef
currentdict end def
%%EndProlog

%%BeginSetup
MathWorks begin

0 cap

end
%%EndSetup

%%Page: 1 1
%%BeginPageSetup
%%PageBoundingBox:    37   180   549   616
MathWorks begin
bpage
%%EndPageSetup

%%BeginObject: obj1
bplot

/dpi2point 12 def
portraitMode 0216 7344 csm

  234   -48  6149  5231 rc
85 dict begin %Colortable dictionary
/c0 { 0.000000 0.000000 0.000000 sr} bdef
/c1 { 1.000000 1.000000 1.000000 sr} bdef
/c2 { 0.900000 0.000000 0.000000 sr} bdef
/c3 { 0.000000 0.820000 0.000000 sr} bdef
/c4 { 0.000000 0.000000 0.800000 sr} bdef
/c5 { 0.910000 0.820000 0.320000 sr} bdef
/c6 { 1.000000 0.260000 0.820000 sr} bdef
/c7 { 0.000000 0.820000 0.820000 sr} bdef
c0
1 j
1 sg
   0    0 6919 5187 rf
6 w
0 4202 5362 0 0 -4202 899 4616 4 MP
PP
-5362 0 0 4202 5362 0 0 -4202 899 4616 5 MP stroke
4 w
DO
SO
6 w
0 sg
 899  414 mt 6261  414 L
 899 4616 mt 6261 4616 L
6261 4616 mt 6261  414 L
 899 4616 mt  899  414 L
 899 4616 mt 6261 4616 L
 899 4616 mt  899  414 L
 919 4616 mt  919 4562 L
 919  414 mt  919  467 L
%%IncludeResource: font Helvetica
/Helvetica /WindowsLatin1Encoding 240 FMSR

 713 4873 mt 
(-3) s
1806 4616 mt 1806 4562 L
1806  414 mt 1806  467 L
1600 4873 mt 
(-2) s
2693 4616 mt 2693 4562 L
2693  414 mt 2693  467 L
2487 4873 mt 
(-1) s
3580 4616 mt 3580 4562 L
3580  414 mt 3580  467 L
3514 4873 mt 
(0) s
4466 4616 mt 4466 4562 L
4466  414 mt 4466  467 L
4400 4873 mt 
(1) s
5353 4616 mt 5353 4562 L
5353  414 mt 5353  467 L
5287 4873 mt 
(2) s
6240 4616 mt 6240 4562 L
6240  414 mt 6240  467 L
6174 4873 mt 
(3) s
 899 4599 mt  952 4599 L
6261 4599 mt 6207 4599 L
 591 4688 mt 
(-3) s
 899 3904 mt  952 3904 L
6261 3904 mt 6207 3904 L
 591 3993 mt 
(-2) s
 899 3209 mt  952 3209 L
6261 3209 mt 6207 3209 L
 591 3298 mt 
(-1) s
 899 2514 mt  952 2514 L
6261 2514 mt 6207 2514 L
 731 2603 mt 
(0) s
 899 1820 mt  952 1820 L
6261 1820 mt 6207 1820 L
 731 1909 mt 
(1) s
 899 1125 mt  952 1125 L
6261 1125 mt 6207 1125 L
 731 1214 mt 
(2) s
 899  430 mt  952  430 L
6261  430 mt 6207  430 L
 731  519 mt 
(3) s
 899  414 mt 6261  414 L
 899 4616 mt 6261 4616 L
6261 4616 mt 6261  414 L
 899 4616 mt  899  414 L
gs 899 414 5363 4203 rc
gr

/c8 { 0.000000 0.000000 1.000000 sr} bdef
c8
3946 1653 mt 4018 1653 L
3982 1617 mt 3982 1689 L
4149 2293 mt 4221 2293 L
4185 2257 mt 4185 2329 L
2490 3022 mt 2562 3022 L
2526 2986 mt 2526 3058 L
2805 2057 mt 2877 2057 L
2841 2021 mt 2841 2093 L
4372 1689 mt 4444 1689 L
4408 1653 mt 4408 1725 L
3072 2558 mt 3144 2558 L
3108 2522 mt 3108 2594 L
2456 1898 mt 2528 1898 L
2492 1862 mt 2492 1934 L
2851 2673 mt 2923 2673 L
2887 2637 mt 2887 2709 L
3644 1948 mt 3716 1948 L
3680 1912 mt 3680 1984 L
3454 2414 mt 3526 2414 L
3490 2378 mt 3490 2450 L
2040 2338 mt 2112 2338 L
2076 2302 mt 2076 2374 L
3711 2889 mt 3783 2889 L
3747 2853 mt 3747 2925 L
4236 1978 mt 4308 1978 L
4272 1942 mt 4272 2014 L
3621 2379 mt 3693 2379 L
3657 2343 mt 3657 2415 L
4789 1960 mt 4861 1960 L
4825 1924 mt 4825 1996 L
3443 2155 mt 3515 2155 L
3479 2119 mt 3479 2191 L
3214 2920 mt 3286 2920 L
3250 2884 mt 3250 2956 L
3432 3848 mt 3504 3848 L
3468 3812 mt 3468 3884 L
3123 2233 mt 3195 2233 L
3159 2197 mt 3159 2269 L
4021 2549 mt 4093 2549 L
4057 2513 mt 4057 2585 L
1876 2242 mt 1948 2242 L
1912 2206 mt 1912 2278 L
3521 3797 mt 3593 3797 L
3557 3761 mt 3557 3833 L
2605 1764 mt 2677 1764 L
2641 1728 mt 2641 1800 L
3359 2370 mt 3431 2370 L
3395 2334 mt 3395 2406 L
3723 2140 mt 3795 2140 L
3759 2104 mt 3759 2176 L
1722 2480 mt 1794 2480 L
1758 2444 mt 1758 2516 L
2836 2528 mt 2908 2528 L
2872 2492 mt 2872 2564 L
3855 2237 mt 3927 2237 L
3891 2201 mt 3891 2273 L
3404 1794 mt 3476 1794 L
3440 1758 mt 3440 1830 L
3532 2251 mt 3604 2251 L
3568 2215 mt 3568 2287 L
2312 2646 mt 2384 2646 L
2348 2610 mt 2348 2682 L
1674 2209 mt 1746 2209 L
1710 2173 mt 1710 2245 L
2085 2700 mt 2157 2700 L
2121 2664 mt 2121 2736 L
3544 2840 mt 3616 2840 L
3580 2804 mt 3580 2876 L
4135 1707 mt 4207 1707 L
4171 1671 mt 4171 1743 L
3336 2835 mt 3408 2835 L
3372 2799 mt 3372 2871 L
3110 2580 mt 3182 2580 L
3146 2544 mt 3146 2616 L
2545 1984 mt 2617 1984 L
2581 1948 mt 2581 2020 L
2615 1388 mt 2687 1388 L
2651 1352 mt 2651 1424 L
3147 1858 mt 3219 1858 L
3183 1822 mt 3183 1894 L
3891 2909 mt 3963 2909 L
3927 2873 mt 3927 2945 L
4381 1298 mt 4453 1298 L
4417 1262 mt 4417 1334 L
3370 2334 mt 3442 2334 L
3406 2298 mt 3406 2370 L
2973 3349 mt 3045 3349 L
3009 3313 mt 3009 3385 L
4886 3017 mt 4958 3017 L
4922 2981 mt 4922 3053 L
2016 2396 mt 2088 2396 L
2052 2360 mt 2052 2432 L
3538 1802 mt 3610 1802 L
3574 1766 mt 3574 1838 L
3007 2519 mt 3079 2519 L
3043 2483 mt 3043 2555 L
2917 3045 mt 2989 3045 L
2953 3009 mt 2953 3081 L
3689 2611 mt 3761 2611 L
3725 2575 mt 3725 2647 L
4820 2298 mt 4892 2298 L
4856 2262 mt 4856 2334 L
3903 2361 mt 3975 2361 L
3939 2325 mt 3939 2397 L
3797 2864 mt 3869 2864 L
3833 2828 mt 3833 2900 L
4034 2619 mt 4106 2619 L
4070 2583 mt 4070 2655 L
3757 2628 mt 3829 2628 L
3793 2592 mt 3793 2664 L
3319 2972 mt 3391 2972 L
3355 2936 mt 3355 3008 L
3516 2423 mt 3588 2423 L
3552 2387 mt 3552 2459 L
4746 2682 mt 4818 2682 L
4782 2646 mt 4782 2718 L
2251 1954 mt 2323 1954 L
2287 1918 mt 2287 1990 L
3059 2347 mt 3131 2347 L
3095 2311 mt 3095 2383 L
4009 3395 mt 4081 3395 L
4045 3359 mt 4045 3431 L
1259 2223 mt 1331 2223 L
1295 2187 mt 1295 2259 L
3178 3468 mt 3250 3468 L
3214 3432 mt 3214 3504 L
4836 1816 mt 4908 1816 L
4872 1780 mt 4872 1852 L
3633 2754 mt 3705 2754 L
3669 2718 mt 3669 2790 L
4775 2633 mt 4847 2633 L
4811 2597 mt 4811 2669 L
4585 2284 mt 4657 2284 L
4621 2248 mt 4621 2320 L
3172 2185 mt 3244 2185 L
3208 2149 mt 3208 2221 L
2697 1851 mt 2769 1851 L
2733 1815 mt 2733 1887 L
3977 1181 mt 4049 1181 L
4013 1145 mt 4013 1217 L
2797 1892 mt 2869 1892 L
2833 1856 mt 2833 1928 L
4163 2951 mt 4235 2951 L
4199 2915 mt 4199 2987 L
3706 2602 mt 3778 2602 L
3742 2566 mt 3742 2638 L
3505 1336 mt 3577 1336 L
3541 1300 mt 3541 1372 L
2643 2356 mt 2715 2356 L
2679 2320 mt 2679 2392 L
4306 4072 mt 4378 4072 L
4342 4036 mt 4342 4108 L
4322 3178 mt 4394 3178 L
4358 3142 mt 4358 3214 L
1991 1354 mt 2063 1354 L
2027 1318 mt 2027 1390 L
2355 2040 mt 2427 2040 L
2391 2004 mt 2391 2076 L
2420 2029 mt 2492 2029 L
2456 1993 mt 2456 2065 L
4080 1809 mt 4152 1809 L
4116 1773 mt 4116 1845 L
3116 3540 mt 3188 3540 L
3152 3504 mt 3152 3576 L
3964 2709 mt 4036 2709 L
4000 2673 mt 4000 2745 L
3873 1087 mt 3945 1087 L
3909 1051 mt 3909 1123 L
3762 1972 mt 3834 1972 L
3798 1936 mt 3798 2008 L
2952 3567 mt 3024 3567 L
2988 3531 mt 2988 3603 L
4199 1448 mt 4271 1448 L
4235 1412 mt 4235 1484 L
3376 2659 mt 3448 2659 L
3412 2623 mt 3412 2695 L
3989 3425 mt 4061 3425 L
4025 3389 mt 4025 3461 L
4869 1207 mt 4941 1207 L
4905 1171 mt 4905 1243 L
3033 1502 mt 3105 1502 L
3069 1466 mt 3069 1538 L
5024 1838 mt 5096 1838 L
5060 1802 mt 5060 1874 L
2813 2160 mt 2885 2160 L
2849 2124 mt 2849 2196 L
3672 2554 mt 3744 2554 L
3708 2518 mt 3708 2590 L
3387 2820 mt 3459 2820 L
3423 2784 mt 3423 2856 L
2896 2589 mt 2968 2589 L
2932 2553 mt 2932 2625 L
4107 2501 mt 4179 2501 L
4143 2465 mt 4143 2537 L
4472 1671 mt 4544 1671 L
4508 1635 mt 4508 1707 L
3261 3877 mt 3333 3877 L
3297 3841 mt 3297 3913 L
4170 1514 mt 4242 1514 L
4206 1478 mt 4206 1550 L
6225 2099 mt 6297 2099 L
6261 2063 mt 6261 2135 L
3040 2506 mt 3112 2506 L
3076 2470 mt 3076 2542 L
3243 3405 mt 3315 3405 L
3279 3369 mt 3279 3441 L
4177 4131 mt 4249 4131 L
4213 4095 mt 4213 4167 L
2652 2844 mt 2724 2844 L
2688 2808 mt 2688 2880 L
2789 1878 mt 2861 1878 L
2825 1842 mt 2825 1914 L
3571 1872 mt 3643 1872 L
3607 1836 mt 3607 1908 L
2586 2145 mt 2658 2145 L
2622 2109 mt 2622 2181 L
2821 2759 mt 2893 2759 L
2857 2723 mt 2857 2795 L
2757 2475 mt 2829 2475 L
2793 2439 mt 2793 2511 L
3728 3131 mt 3800 3131 L
3764 3095 mt 3764 3167 L
2534 2768 mt 2606 2768 L
2570 2732 mt 2570 2804 L
3616 3376 mt 3688 3376 L
3652 3340 mt 3652 3412 L
4631 1917 mt 4703 1917 L
4667 1881 mt 4667 1953 L
2945 3503 mt 3017 3503 L
2981 3467 mt 2981 3539 L
2773 3051 mt 2845 3051 L
2809 3015 mt 2809 3087 L
3915 1593 mt 3987 1593 L
3951 1557 mt 3951 1629 L
4228 2316 mt 4300 2316 L
4264 2280 mt 4264 2352 L
1387 2894 mt 1459 2894 L
1423 2858 mt 1423 2930 L
3273 2383 mt 3345 2383 L
3309 2347 mt 3309 2419 L
3838 2288 mt 3910 2288 L
3874 2252 mt 3874 2324 L
3364 2307 mt 3436 2307 L
3400 2271 mt 3400 2343 L
3566 2125 mt 3638 2125 L
3602 2089 mt 3602 2161 L
3153 2035 mt 3225 2035 L
3189 1999 mt 3189 2071 L
3879 3415 mt 3951 3415 L
3915 3379 mt 3915 3451 L
5282 2467 mt 5354 2467 L
5318 2431 mt 5318 2503 L
3952 2445 mt 4024 2445 L
3988 2409 mt 3988 2481 L
3694 2745 mt 3766 2745 L
3730 2709 mt 3730 2781 L
2749 2150 mt 2821 2150 L
2785 2114 mt 2785 2186 L
2327 3595 mt 2399 3595 L
2363 3559 mt 2363 3631 L
4259 2199 mt 4331 2199 L
4295 2163 mt 4295 2235 L
3832 3137 mt 3904 3137 L
3868 3101 mt 3868 3173 L
2966 2637 mt 3038 2637 L
3002 2601 mt 3002 2673 L
3649 3081 mt 3721 3081 L
3685 3045 mt 3685 3117 L
2407 2497 mt 2479 2497 L
2443 2461 mt 2443 2533 L
3921 3625 mt 3993 3625 L
3957 3589 mt 3957 3661 L
1907 3553 mt 1979 3553 L
1943 3517 mt 1943 3589 L
3460 2302 mt 3532 2302 L
3496 2266 mt 3496 2338 L
3661 2830 mt 3733 2830 L
3697 2794 mt 3697 2866 L
4087 2051 mt 4159 2051 L
4123 2015 mt 4123 2087 L
3237 2329 mt 3309 2329 L
3273 2293 mt 3273 2365 L
4364 1634 mt 4436 1634 L
4400 1598 mt 4400 1670 L
2298 2440 mt 2370 2440 L
2334 2404 mt 2334 2476 L
3296 2256 mt 3368 2256 L
3332 2220 mt 3332 2292 L
4407 1748 mt 4479 1748 L
4443 1712 mt 4443 1784 L
3449 2571 mt 3521 2571 L
3485 2535 mt 3485 2607 L
3220 2778 mt 3292 2778 L
3256 2742 mt 3256 2814 L
4114 1462 mt 4186 1462 L
4150 1426 mt 4150 1498 L
3190 1845 mt 3262 1845 L
3226 1809 mt 3226 1881 L
3325 1538 mt 3397 1538 L
3361 1502 mt 3361 1574 L
2432 2194 mt 2504 2194 L
2468 2158 mt 2468 2230 L
3085 3446 mt 3157 3446 L
3121 3410 mt 3121 3482 L
2980 2018 mt 3052 2018 L
3016 1982 mt 3016 2054 L
2341 2567 mt 2413 2567 L
2377 2531 mt 2377 2603 L
2903 2024 mt 2975 2024 L
2939 1988 mt 2939 2060 L
2924 1779 mt 2996 1779 L
2960 1743 mt 2960 1815 L
1619 3479 mt 1691 3479 L
1655 3443 mt 1655 3515 L
2394 3039 mt 2466 3039 L
2430 3003 mt 2430 3075 L
2063 2704 mt 2135 2704 L
2099 2668 mt 2099 2740 L
4015 2736 mt 4087 2736 L
4051 2700 mt 4051 2772 L
3353 3000 mt 3425 3000 L
3389 2964 mt 3389 3036 L
3347 3731 mt 3419 3731 L
3383 3695 mt 3383 3767 L
2938 2365 mt 3010 2365 L
2974 2329 mt 2974 2401 L
4142 2722 mt 4214 2722 L
4178 2686 mt 4178 2758 L
2662 1756 mt 2734 1756 L
2698 1720 mt 2698 1792 L
 863 2170 mt  935 2170 L
 899 2134 mt  899 2206 L
2183 3157 mt 2255 3157 L
2219 3121 mt 2219 3193 L
3774 2536 mt 3846 2536 L
3810 2500 mt 3810 2572 L
2502 1006 mt 2574 1006 L
2538  970 mt 2538 1042 L
4542 1885 mt 4614 1885 L
4578 1849 mt 4578 1921 L
2740 1865 mt 2812 1865 L
2776 1829 mt 2776 1901 L
4074 1698 mt 4146 1698 L
4110 1662 mt 4110 1734 L
1842 2214 mt 1914 2214 L
1878 2178 mt 1878 2250 L
3599 2228 mt 3671 2228 L
3635 2192 mt 3635 2264 L
3226 2859 mt 3298 2859 L
3262 2823 mt 3262 2895 L
4047 2388 mt 4119 2388 L
4083 2352 mt 4083 2424 L
3426 2204 mt 3498 2204 L
3462 2168 mt 3462 2240 L
5531 2792 mt 5603 2792 L
5567 2756 mt 5567 2828 L
4121 2279 mt 4193 2279 L
4157 2243 mt 4157 2315 L
2479 1643 mt 2551 1643 L
2515 1607 mt 2515 1679 L
2523 2731 mt 2595 2731 L
2559 2695 mt 2559 2767 L
3745 3164 mt 3817 3164 L
3781 3128 mt 3781 3200 L
3421 2089 mt 3493 2089 L
3457 2053 mt 3457 2125 L
4390 3069 mt 4462 3069 L
4426 3033 mt 4426 3105 L
3780 2078 mt 3852 2078 L
3816 2042 mt 3816 2114 L
2634 2967 mt 2706 2967 L
2670 2931 mt 2670 3003 L
4416 2453 mt 4488 2453 L
4452 2417 mt 4452 2489 L
3751 2801 mt 3823 2801 L
3787 2765 mt 3787 2837 L
4041 1732 mt 4113 1732 L
4077 1696 mt 4077 1768 L
2888 3075 mt 2960 3075 L
2924 3039 mt 2924 3111 L
2267 3527 mt 2339 3527 L
2303 3491 mt 2303 3563 L
3638 3112 mt 3710 3112 L
3674 3076 mt 3674 3148 L
4482 1723 mt 4554 1723 L
4518 1687 mt 4518 1759 L
4054 2115 mt 4126 2115 L
4090 2079 mt 4090 2151 L
3809 1550 mt 3881 1550 L
3845 1514 mt 3845 1586 L
3398 1614 mt 3470 1614 L
3434 1578 mt 3434 1650 L
2781 2615 mt 2853 2615 L
2817 2579 mt 2817 2651 L
3958 1604 mt 4030 1604 L
3994 1568 mt 3994 1640 L
3046 2493 mt 3118 2493 L
3082 2457 mt 3082 2529 L
3683 2764 mt 3755 2764 L
3719 2728 mt 3719 2800 L
4852 1787 mt 4924 1787 L
4888 1751 mt 4888 1823 L
4522 1583 mt 4594 1583 L
4558 1547 mt 4558 1619 L
4330 2165 mt 4402 2165 L
4366 2129 mt 4366 2201 L
1965 2854 mt 2037 2854 L
2001 2818 mt 2001 2890 L
2444 1823 mt 2516 1823 L
2480 1787 mt 2480 1859 L
4067 2695 mt 4139 2695 L
4103 2659 mt 4103 2731 L
3499 2787 mt 3571 2787 L
3535 2751 mt 3535 2823 L
3510 3322 mt 3582 3322 L
3546 3286 mt 3546 3358 L
4444  414 mt 4516  414 L
4480  378 mt 4480  450 L
2723 3457 mt 2795 3457 L
2759 3421 mt 2759 3493 L
2235 1419 mt 2307 1419 L
2271 1383 mt 2271 1455 L
4941 2664 mt 5013 2664 L
4977 2628 mt 4977 2700 L
4094 1715 mt 4166 1715 L
4130 1679 mt 4130 1751 L
3393 2541 mt 3465 2541 L
3429 2505 mt 3429 2577 L
4512 1561 mt 4584 1561 L
4548 1525 mt 4548 1597 L
4435 3227 mt 4507 3227 L
4471 3191 mt 4471 3263 L
4314 1049 mt 4386 1049 L
4350 1013 mt 4350 1085 L
3410 3099 mt 3482 3099 L
3446 3063 mt 3446 3135 L
2706 3980 mt 2778 3980 L
2742 3944 mt 2742 4016 L
3740 2741 mt 3812 2741 L
3776 2705 mt 3776 2777 L
2987 2874 mt 3059 2874 L
3023 2838 mt 3023 2910 L
3000 1966 mt 3072 1966 L
3036 1930 mt 3036 2002 L
4251 2488 mt 4323 2488 L
4287 2452 mt 4287 2524 L
2165 3774 mt 2237 3774 L
2201 3738 mt 2201 3810 L
4184 2946 mt 4256 2946 L
4220 2910 mt 4220 2982 L
2689 2311 mt 2761 2311 L
2725 2275 mt 2725 2347 L
1766 2135 mt 1838 2135 L
1802 2099 mt 1802 2171 L
3814 2083 mt 3886 2083 L
3850 2047 mt 3850 2119 L
2715 2275 mt 2787 2275 L
2751 2239 mt 2751 2311 L
2146 2668 mt 2218 2668 L
2182 2632 mt 2182 2704 L
3844 3942 mt 3916 3942 L
3880 3906 mt 3880 3978 L
3381 2899 mt 3453 2899 L
3417 2863 mt 3417 2935 L
2565 2930 mt 2637 2930 L
2601 2894 mt 2601 2966 L
2931 2401 mt 3003 2401 L
2967 2365 mt 2967 2437 L
2218  957 mt 2290  957 L
2254  921 mt 2254  993 L
4243 2462 mt 4315 2462 L
4279 2426 mt 4279 2498 L
4574 3151 mt 4646 3151 L
4610 3115 mt 4610 3187 L
3897 2935 mt 3969 2935 L
3933 2899 mt 3933 2971 L
2106 1936 mt 2178 1936 L
2142 1900 mt 2142 1972 L
5002 2062 mt 5074 2062 L
5038 2026 mt 5038 2098 L
5180 3087 mt 5252 3087 L
5216 3051 mt 5216 3123 L
4643 2750 mt 4715 2750 L
4679 2714 mt 4679 2786 L
5365 2265 mt 5437 2265 L
5401 2229 mt 5401 2301 L
5245 1121 mt 5317 1121 L
5281 1085 mt 5281 1157 L
4981 4205 mt 5053 4205 L
5017 4169 mt 5017 4241 L
4961 2189 mt 5033 2189 L
4997 2153 mt 4997 2225 L
3493 2606 mt 3565 2606 L
3529 2570 mt 3529 2642 L
2959 1942 mt 3031 1942 L
2995 1906 mt 2995 1978 L
4282  898 mt 4354  898 L
4318  862 mt 4318  934 L
2595 3297 mt 2667 3297 L
2631 3261 mt 2631 3333 L
4553 3752 mt 4625 3752 L
4589 3716 mt 4589 3788 L
3330 2218 mt 3402 2218 L
3366 2182 mt 3366 2254 L
3278 2374 mt 3350 2374 L
3314 2338 mt 3314 2410 L
5047 2884 mt 5119 2884 L
5083 2848 mt 5083 2920 L
3267 2624 mt 3339 2624 L
3303 2588 mt 3303 2660 L
4002 3711 mt 4074 3711 L
4038 3675 mt 4038 3747 L
4463 1831 mt 4535 1831 L
4499 1795 mt 4499 1867 L
3129 2994 mt 3201 2994 L
3165 2958 mt 3165 3030 L
4290 2067 mt 4362 2067 L
4326 2031 mt 4326 2103 L
3284 2427 mt 3356 2427 L
3320 2391 mt 3320 2463 L
5211 3206 mt 5283 3206 L
5247 3170 mt 5247 3242 L
4680 2012 mt 4752 2012 L
4716 1976 mt 4716 2048 L
3996 2418 mt 4068 2418 L
4032 2382 mt 4032 2454 L
4532 3306 mt 4604 3306 L
4568 3270 mt 4568 3342 L
3885 1572 mt 3957 1572 L
3921 1536 mt 3921 1608 L
3027 3250 mt 3099 3250 L
3063 3214 mt 3063 3286 L
4760 3235 mt 4832 3235 L
4796 3199 mt 4796 3271 L
3488 1930 mt 3560 1930 L
3524 1894 mt 3524 1966 L
3166 1371 mt 3238 1371 L
3202 1335 mt 3202 1407 L
3934 2650 mt 4006 2650 L
3970 2614 mt 3970 2686 L
5700 1740 mt 5772 1740 L
5736 1704 mt 5736 1776 L
4206 3436 mt 4278 3436 L
4242 3400 mt 4242 3472 L
4904 3358 mt 4976 3358 L
4940 3322 mt 4940 3394 L
3141 1476 mt 3213 1476 L
3177 1440 mt 3177 1512 L
3655 2532 mt 3727 2532 L
3691 2496 mt 3691 2568 L
2881 4616 mt 2953 4616 L
2917 4580 mt 2917 4652 L
4805 2727 mt 4877 2727 L
4841 2691 mt 4841 2763 L
4667 2001 mt 4739 2001 L
4703 1965 mt 4703 2037 L
2844 2484 mt 2916 2484 L
2880 2448 mt 2880 2520 L
4732 1152 mt 4804 1152 L
4768 1116 mt 4768 1188 L
3971 2782 mt 4043 2782 L
4007 2746 mt 4007 2818 L
3850 2691 mt 3922 2691 L
3886 2655 mt 3886 2727 L
4922 3093 mt 4994 3093 L
4958 3057 mt 4958 3129 L
3826 2320 mt 3898 2320 L
3862 2284 mt 3862 2356 L
3940 2545 mt 4012 2545 L
3976 2509 mt 3976 2581 L
2555 1526 mt 2627 1526 L
2591 1490 mt 2591 1562 L
4398 1404 mt 4470 1404 L
4434 1368 mt 4434 1440 L
3717 2677 mt 3789 2677 L
3753 2641 mt 3753 2713 L
3078 3340 mt 3150 3340 L
3114 3304 mt 3114 3376 L
4355 2597 mt 4427 2597 L
4391 2561 mt 4391 2633 L
4608 2458 mt 4680 2458 L
4644 2422 mt 4644 2494 L
4060 1911 mt 4132 1911 L
4096 1875 mt 4096 1947 L
2866 2343 mt 2938 2343 L
2902 2307 mt 2902 2379 L
3196 3273 mt 3268 3273 L
3232 3237 mt 3232 3309 L
3415 2261 mt 3487 2261 L
3451 2225 mt 3451 2297 L
2993 3191 mt 3065 3191 L
3029 3155 mt 3029 3227 L
3700 3491 mt 3772 3491 L
3736 3455 mt 3736 3527 L
2765  724 mt 2837  724 L
2801  688 mt 2801  760 L
3091 3658 mt 3163 3658 L
3127 3622 mt 3127 3694 L
4706 2094 mt 4778 2094 L
4742 2058 mt 4742 2130 L
4028 2247 mt 4100 2247 L
4064 2211 mt 4064 2283 L
4156 3213 mt 4228 3213 L
4192 3177 mt 4192 3249 L
3342 2815 mt 3414 2815 L
3378 2779 mt 3378 2851 L
4425 3386 mt 4497 3386 L
4461 3350 mt 4461 3422 L
2910 2584 mt 2982 2584 L
2946 2548 mt 2946 2620 L
5606 2956 mt 5678 2956 L
5642 2920 mt 5642 2992 L
5828 2046 mt 5900 2046 L
5864 2010 mt 5864 2082 L
4221 2471 mt 4293 2471 L
4257 2435 mt 4257 2507 L
4213 3220 mt 4285 3220 L
4249 3184 mt 4249 3256 L
2671 2978 mt 2743 2978 L
2707 2942 mt 2707 3014 L
3820 1995 mt 3892 1995 L
3856 1959 mt 3856 2031 L
3255 3693 mt 3327 3693 L
3291 3657 mt 3291 3729 L
2680 3265 mt 2752 3265 L
2716 3229 mt 2716 3301 L
3053 2718 mt 3125 2718 L
3089 2682 mt 3089 2754 L
3202 3034 mt 3274 3034 L
3238 2998 mt 3238 3070 L
2468 2914 mt 2540 2914 L
2504 2878 mt 2504 2950 L
5096 2449 mt 5168 2449 L
5132 2413 mt 5132 2485 L
4298 2641 mt 4370 2641 L
4334 2605 mt 4334 2677 L
3232 2576 mt 3304 2576 L
3268 2540 mt 3268 2612 L
4453  824 mt 4525  824 L
4489  788 mt 4489  860 L
5071 2405 mt 5143 2405 L
5107 2369 mt 5107 2441 L
3627 2879 mt 3699 2879 L
3663 2843 mt 3663 2915 L
3013 2436 mt 3085 2436 L
3049 2400 mt 3049 2472 L
2859 2432 mt 2931 2432 L
2895 2396 mt 2895 2468 L
3803 1662 mt 3875 1662 L
3839 1626 mt 3839 1698 L
3471 2523 mt 3543 2523 L
3507 2487 mt 3507 2559 L
4338 4305 mt 4410 4305 L
4374 4269 mt 4374 4341 L
4719 3118 mt 4791 3118 L
4755 3082 mt 4755 3154 L
5122 3515 mt 5194 3515 L
5158 3479 mt 5158 3551 L
2732 2352 mt 2804 2352 L
2768 2316 mt 2768 2388 L
4128 1904 mt 4200 1904 L
4164 1868 mt 4164 1940 L
3249 3289 mt 3321 3289 L
3285 3253 mt 3285 3325 L
4693 2514 mt 4765 2514 L
4729 2478 mt 4729 2550 L
3438 2983 mt 3510 2983 L
3474 2947 mt 3474 3019 L
3160 2510 mt 3232 2510 L
3196 2474 mt 3196 2546 L
3290 3106 mt 3362 3106 L
3326 3070 mt 3326 3142 L
3555 2562 mt 3627 2562 L
3591 2526 mt 3591 2598 L
4274 1434 mt 4346 1434 L
4310 1398 mt 4310 1470 L
3477 3057 mt 3549 3057 L
3513 3021 mt 3513 3093 L
3734 2410 mt 3806 2410 L
3770 2374 mt 3770 2446 L
3927 1255 mt 3999 1255 L
3963 1219 mt 3963 1291 L
6033 2007 mt 6105 2007 L
6069 1971 mt 6069 2043 L
3582 3242 mt 3654 3242 L
3618 3206 mt 3618 3278 L
2126 2109 mt 2198 2109 L
2162 2073 mt 2162 2145 L
3791 1680 mt 3863 1680 L
3827 1644 mt 3827 1716 L
3560 2904 mt 3632 2904 L
3596 2868 mt 3596 2940 L
3768 3610 mt 3840 3610 L
3804 3574 mt 3804 3646 L
3677 2989 mt 3749 2989 L
3713 2953 mt 3713 3025 L
3527 2104 mt 3599 2104 L
3563 2068 mt 3563 2140 L
3313 3908 mt 3385 3908 L
3349 3872 mt 3349 3944 L
1556 2270 mt 1628 2270 L
1592 2234 mt 1592 2306 L
3020 3314 mt 3092 3314 L
3056 3278 mt 3056 3350 L
3588 3028 mt 3660 3028 L
3624 2992 mt 3624 3064 L
3549 2686 mt 3621 2686 L
3585 2650 mt 3585 2722 L
3302 1624 mt 3374 1624 L
3338 1588 mt 3338 1660 L
3861 1232 mt 3933 1232 L
3897 1196 mt 3897 1268 L
2368 3198 mt 2440 3198 L
2404 3162 mt 2404 3234 L
3135 3331 mt 3207 3331 L
3171 3295 mt 3171 3367 L
2575 2869 mt 2647 2869 L
2611 2833 mt 2611 2905 L
2874 2773 mt 2946 2773 L
2910 2737 mt 2910 2809 L
4100 4023 mt 4172 4023 L
4136 3987 mt 4136 4059 L
2624 2325 mt 2696 2325 L
2660 2289 mt 2660 2361 L
3867  564 mt 3939  564 L
3903  528 mt 3903  600 L
4501 2811 mt 4573 2811 L
4537 2775 mt 4537 2847 L
2381 2940 mt 2453 2940 L
2417 2904 mt 2417 2976 L
3104 3005 mt 3176 3005 L
3140 2969 mt 3140 3041 L
4191 3171 mt 4263 3171 L
4227 3135 mt 4227 3207 L
3482 3675 mt 3554 3675 L
3518 3639 mt 3518 3711 L
4619 3822 mt 4691 3822 L
4655 3786 mt 4655 3858 L
4564 2175 mt 4636 2175 L
4600 2139 mt 4600 2211 L
3594 3367 mt 3666 3367 L
3630 3331 mt 3630 3403 L
4492 2796 mt 4564 2796 L
4528 2760 mt 4528 2832 L
5150 2593 mt 5222 2593 L
5186 2557 mt 5186 2629 L
3098 2962 mt 3170 2962 L
3134 2926 mt 3134 2998 L
4655 3281 mt 4727 3281 L
4691 3245 mt 4691 3317 L
1937 2180 mt 2009 2180 L
1973 2144 mt 1973 2216 L
2201 2806 mt 2273 2806 L
2237 2770 mt 2237 2842 L
3066 3011 mt 3138 3011 L
3102 2975 mt 3102 3047 L
3307 2713 mt 3379 2713 L
3343 2677 mt 3343 2749 L
1805 3184 mt 1877 3184 L
1841 3148 mt 1841 3220 L
3208 3641 mt 3280 3641 L
3244 3605 mt 3244 3677 L
2282 2130 mt 2354 2130 L
2318 2094 mt 2318 2166 L
5468 2120 mt 5540 2120 L
5504 2084 mt 5504 2156 L
4266 2073 mt 4338 2073 L
4302 2037 mt 4302 2109 L
1481 2392 mt 1553 2392 L
1517 2356 mt 1517 2428 L
5413 3144 mt 5485 3144 L
5449 3108 mt 5449 3180 L
3666 3581 mt 3738 3581 L
3702 3545 mt 3702 3617 L
3909 2825 mt 3981 2825 L
3945 2789 mt 3945 2861 L
3184 3063 mt 3256 3063 L
3220 3027 mt 3220 3099 L
3610 1318 mt 3682 1318 L
3646 1282 mt 3646 1354 L
2513 3257 mt 2585 3257 L
2549 3221 mt 2549 3293 L
3466 2849 mt 3538 2849 L
3502 2813 mt 3502 2885 L
4347 2655 mt 4419 2655 L
4383 2619 mt 4383 2691 L
3983 1990 mt 4055 1990 L
4019 1954 mt 4019 2026 L
5321 1923 mt 5393 1923 L
5357 1887 mt 5357 1959 L
3605 1277 mt 3677 1277 L
3641 1241 mt 3641 1313 L
3577 3125 mt 3649 3125 L
3613 3089 mt 3613 3161 L
3785 1489 mt 3857 1489 L
3821 1453 mt 3821 1525 L
2828 2925 mt 2900 2925 L
2864 2889 mt 2864 2961 L
4597 1772 mt 4669 1772 L
4633 1736 mt 4633 1808 L
gs 899 414 5363 4203 rc
gr

0 sg
2799 5104 mt 
(\(F,DCTs,iMLP\)) s
 482 3343 mt  -90 rotate
(\(S,LFCC,GMM\)) s
90 rotate
2975  223 mt 
(Corr = 0.07) s

end %%Color Dict

eplot
%%EndObject

epage
end

showpage

%%Trailer
%%EOF
