%!PS-Adobe-3.0 EPSF-3.0
%%Creator: MATLAB, The Mathworks, Inc. Version 7.7.0.471 (R2008b). Operating System: Microsoft Windows XP.
%%Title: Pictures\main_zoo_mvar_analysis_data_BMI_xcorr_bmig_p1_k1_1_6.eps
%%CreationDate: 10/26/2009  05:44:47
%%DocumentNeededFonts: Helvetica
%%DocumentProcessColors: Cyan Magenta Yellow Black
%%LanguageLevel: 2
%%Pages: 1
%%BoundingBox:    37   180   549   616
%%EndComments

%%BeginProlog
% MathWorks dictionary
/MathWorks 160 dict begin
% definition operators
/bdef {bind def} bind def
/ldef {load def} bind def
/xdef {exch def} bdef
/xstore {exch store} bdef
% operator abbreviations
/c  /clip ldef
/cc /concat ldef
/cp /closepath ldef
/gr /grestore ldef
/gs /gsave ldef
/mt /moveto ldef
/np /newpath ldef
/cm /currentmatrix ldef
/sm /setmatrix ldef
/rm /rmoveto ldef
/rl /rlineto ldef
/s {show newpath} bdef
/sc {setcmykcolor} bdef
/sr /setrgbcolor ldef
/sg /setgray ldef
/w /setlinewidth ldef
/j /setlinejoin ldef
/cap /setlinecap ldef
/rc {rectclip} bdef
/rf {rectfill} bdef
% page state control
/pgsv () def
/bpage {/pgsv save def} bdef
/epage {pgsv restore} bdef
/bplot /gsave ldef
/eplot {stroke grestore} bdef
% orientation switch
/portraitMode 0 def /landscapeMode 1 def /rotateMode 2 def
% coordinate system mappings
/dpi2point 0 def
% font control
/FontSize 0 def
/FMS {/FontSize xstore findfont [FontSize 0 0 FontSize neg 0 0]
  makefont setfont} bdef
/ISOLatin1Encoding where {pop /WindowsLatin1Encoding 256 array bdef
ISOLatin1Encoding WindowsLatin1Encoding copy pop
/.notdef/.notdef/quotesinglbase/florin/quotedblbase/ellipsis/dagger
/daggerdbl/circumflex/perthousand/Scaron/guilsinglleft/OE/.notdef/.notdef
/.notdef/.notdef/quoteleft/quoteright/quotedblleft/quotedblright/bullet
/endash/emdash/tilde/trademark/scaron/guilsinglright/oe/.notdef/.notdef
/Ydieresis WindowsLatin1Encoding 128 32 getinterval astore pop}
{/WindowsLatin1Encoding StandardEncoding bdef} ifelse
/reencode {exch dup where {pop load} {pop StandardEncoding} ifelse
  exch dup 3 1 roll findfont dup length dict begin
  { 1 index /FID ne {def}{pop pop} ifelse } forall
  /Encoding exch def currentdict end definefont pop} bdef
/isroman {findfont /CharStrings get /Agrave known} bdef
/FMSR {3 1 roll 1 index dup isroman {reencode} {pop pop} ifelse
  exch FMS} bdef
/csm {1 dpi2point div -1 dpi2point div scale neg translate
 dup landscapeMode eq {pop -90 rotate}
  {rotateMode eq {90 rotate} if} ifelse} bdef
% line types: solid, dotted, dashed, dotdash
/SO { [] 0 setdash } bdef
/DO { [.5 dpi2point mul 4 dpi2point mul] 0 setdash } bdef
/DA { [6 dpi2point mul] 0 setdash } bdef
/DD { [.5 dpi2point mul 4 dpi2point mul 6 dpi2point mul 4
  dpi2point mul] 0 setdash } bdef
% macros for lines and objects
/L {lineto stroke} bdef
/MP {3 1 roll moveto 1 sub {rlineto} repeat} bdef
/AP {{rlineto} repeat} bdef
/PDlw -1 def
/W {/PDlw currentlinewidth def setlinewidth} def
/PP {closepath eofill} bdef
/DP {closepath stroke} bdef
/MR {4 -2 roll moveto dup  0 exch rlineto exch 0 rlineto
  neg 0 exch rlineto closepath} bdef
/FR {MR stroke} bdef
/PR {MR fill} bdef
/L1i {{currentfile picstr readhexstring pop} image} bdef
/tMatrix matrix def
/MakeOval {newpath tMatrix currentmatrix pop translate scale
0 0 1 0 360 arc tMatrix setmatrix} bdef
/FO {MakeOval stroke} bdef
/PO {MakeOval fill} bdef
/PD {currentlinewidth 2 div 0 360 arc fill
   PDlw -1 eq not {PDlw w /PDlw -1 def} if} def
/FA {newpath tMatrix currentmatrix pop translate scale
  0 0 1 5 -2 roll arc tMatrix setmatrix stroke} bdef
/PA {newpath tMatrix currentmatrix pop	translate 0 0 moveto scale
  0 0 1 5 -2 roll arc closepath tMatrix setmatrix fill} bdef
/FAn {newpath tMatrix currentmatrix pop translate scale
  0 0 1 5 -2 roll arcn tMatrix setmatrix stroke} bdef
/PAn {newpath tMatrix currentmatrix pop translate 0 0 moveto scale
  0 0 1 5 -2 roll arcn closepath tMatrix setmatrix fill} bdef
/vradius 0 def /hradius 0 def /lry 0 def
/lrx 0 def /uly 0 def /ulx 0 def /rad 0 def
/MRR {/vradius xdef /hradius xdef /lry xdef /lrx xdef /uly xdef
  /ulx xdef newpath tMatrix currentmatrix pop ulx hradius add uly
  vradius add translate hradius vradius scale 0 0 1 180 270 arc 
  tMatrix setmatrix lrx hradius sub uly vradius add translate
  hradius vradius scale 0 0 1 270 360 arc tMatrix setmatrix
  lrx hradius sub lry vradius sub translate hradius vradius scale
  0 0 1 0 90 arc tMatrix setmatrix ulx hradius add lry vradius sub
  translate hradius vradius scale 0 0 1 90 180 arc tMatrix setmatrix
  closepath} bdef
/FRR {MRR stroke } bdef
/PRR {MRR fill } bdef
/MlrRR {/lry xdef /lrx xdef /uly xdef /ulx xdef /rad lry uly sub 2 div def
  newpath tMatrix currentmatrix pop ulx rad add uly rad add translate
  rad rad scale 0 0 1 90 270 arc tMatrix setmatrix lrx rad sub lry rad
  sub translate rad rad scale 0 0 1 270 90 arc tMatrix setmatrix
  closepath} bdef
/FlrRR {MlrRR stroke } bdef
/PlrRR {MlrRR fill } bdef
/MtbRR {/lry xdef /lrx xdef /uly xdef /ulx xdef /rad lrx ulx sub 2 div def
  newpath tMatrix currentmatrix pop ulx rad add uly rad add translate
  rad rad scale 0 0 1 180 360 arc tMatrix setmatrix lrx rad sub lry rad
  sub translate rad rad scale 0 0 1 0 180 arc tMatrix setmatrix
  closepath} bdef
/FtbRR {MtbRR stroke } bdef
/PtbRR {MtbRR fill } bdef
/stri 6 array def /dtri 6 array def
/smat 6 array def /dmat 6 array def
/tmat1 6 array def /tmat2 6 array def /dif 3 array def
/asub {/ind2 exch def /ind1 exch def dup dup
  ind1 get exch ind2 get sub exch } bdef
/tri_to_matrix {
  2 0 asub 3 1 asub 4 0 asub 5 1 asub
  dup 0 get exch 1 get 7 -1 roll astore } bdef
/compute_transform {
  dmat dtri tri_to_matrix tmat1 invertmatrix 
  smat stri tri_to_matrix tmat2 concatmatrix } bdef
/ds {stri astore pop} bdef
/dt {dtri astore pop} bdef
/db {2 copy /cols xdef /rows xdef mul dup 3 mul string
  currentfile 
  3 index 0 eq {/ASCIIHexDecode filter}
  {/ASCII85Decode filter 3 index 2 eq {/RunLengthDecode filter} if }
  ifelse exch readstring pop
  dup 0 3 index getinterval /rbmap xdef
  dup 2 index dup getinterval /gbmap xdef
  1 index dup 2 mul exch getinterval /bbmap xdef pop pop}bdef
/it {gs np dtri aload pop moveto lineto lineto cp c
  cols rows 8 compute_transform 
  rbmap gbmap bbmap true 3 colorimage gr}bdef
/il {newpath moveto lineto stroke}bdef
currentdict end def
%%EndProlog

%%BeginSetup
MathWorks begin

0 cap

end
%%EndSetup

%%Page: 1 1
%%BeginPageSetup
%%PageBoundingBox:    37   180   549   616
MathWorks begin
bpage
%%EndPageSetup

%%BeginObject: obj1
bplot

/dpi2point 12 def
portraitMode 0216 7344 csm

  234   -48  6149  5231 rc
85 dict begin %Colortable dictionary
/c0 { 0.000000 0.000000 0.000000 sr} bdef
/c1 { 1.000000 1.000000 1.000000 sr} bdef
/c2 { 0.900000 0.000000 0.000000 sr} bdef
/c3 { 0.000000 0.820000 0.000000 sr} bdef
/c4 { 0.000000 0.000000 0.800000 sr} bdef
/c5 { 0.910000 0.820000 0.320000 sr} bdef
/c6 { 1.000000 0.260000 0.820000 sr} bdef
/c7 { 0.000000 0.820000 0.820000 sr} bdef
c0
1 j
1 sg
   0    0 6919 5187 rf
6 w
0 4202 5362 0 0 -4202 899 4616 4 MP
PP
-5362 0 0 4202 5362 0 0 -4202 899 4616 5 MP stroke
4 w
DO
SO
6 w
0 sg
 899  414 mt 6261  414 L
 899 4616 mt 6261 4616 L
6261 4616 mt 6261  414 L
 899 4616 mt  899  414 L
 899 4616 mt 6261 4616 L
 899 4616 mt  899  414 L
 919 4616 mt  919 4562 L
 919  414 mt  919  467 L
%%IncludeResource: font Helvetica
/Helvetica /WindowsLatin1Encoding 240 FMSR

 713 4873 mt 
(-3) s
1806 4616 mt 1806 4562 L
1806  414 mt 1806  467 L
1600 4873 mt 
(-2) s
2693 4616 mt 2693 4562 L
2693  414 mt 2693  467 L
2487 4873 mt 
(-1) s
3580 4616 mt 3580 4562 L
3580  414 mt 3580  467 L
3514 4873 mt 
(0) s
4466 4616 mt 4466 4562 L
4466  414 mt 4466  467 L
4400 4873 mt 
(1) s
5353 4616 mt 5353 4562 L
5353  414 mt 5353  467 L
5287 4873 mt 
(2) s
6240 4616 mt 6240 4562 L
6240  414 mt 6240  467 L
6174 4873 mt 
(3) s
 899 4599 mt  952 4599 L
6261 4599 mt 6207 4599 L
 591 4688 mt 
(-3) s
 899 3904 mt  952 3904 L
6261 3904 mt 6207 3904 L
 591 3993 mt 
(-2) s
 899 3209 mt  952 3209 L
6261 3209 mt 6207 3209 L
 591 3298 mt 
(-1) s
 899 2514 mt  952 2514 L
6261 2514 mt 6207 2514 L
 731 2603 mt 
(0) s
 899 1820 mt  952 1820 L
6261 1820 mt 6207 1820 L
 731 1909 mt 
(1) s
 899 1125 mt  952 1125 L
6261 1125 mt 6207 1125 L
 731 1214 mt 
(2) s
 899  430 mt  952  430 L
6261  430 mt 6207  430 L
 731  519 mt 
(3) s
 899  414 mt 6261  414 L
 899 4616 mt 6261 4616 L
6261 4616 mt 6261  414 L
 899 4616 mt  899  414 L
gs 899 414 5363 4203 rc
gr

/c8 { 0.000000 0.000000 1.000000 sr} bdef
c8
4453 3081 mt 4525 3081 L
4489 3045 mt 4489 3117 L
2749 1816 mt 2821 1816 L
2785 1780 mt 2785 1852 L
4067 2233 mt 4139 2233 L
4103 2197 mt 4103 2269 L
3582 1732 mt 3654 1732 L
3618 1696 mt 3618 1768 L
1805 2194 mt 1877 2194 L
1841 2158 mt 1841 2230 L
4163 2347 mt 4235 2347 L
4199 2311 mt 4199 2383 L
3267 3063 mt 3339 3063 L
3303 3027 mt 3303 3099 L
3202 2773 mt 3274 2773 L
3238 2737 mt 3238 2809 L
4585 2467 mt 4657 2467 L
4621 2431 mt 4621 2503 L
4981 2759 mt 5053 2759 L
5017 2723 mt 5017 2795 L
3085  414 mt 3157  414 L
3121  378 mt 3121  450 L
1766 2275 mt 1838 2275 L
1802 2239 mt 1802 2311 L
3330 2024 mt 3402 2024 L
3366 1988 mt 3366 2060 L
3046 2189 mt 3118 2189 L
3082 2153 mt 3082 2225 L
4243 3425 mt 4315 3425 L
4279 3389 mt 4279 3461 L
4416 1152 mt 4488 1152 L
4452 1116 mt 4452 1188 L
3135 1787 mt 3207 1787 L
3171 1751 mt 3171 1823 L
3307 2909 mt 3379 2909 L
3343 2873 mt 3343 2945 L
2634 2165 mt 2706 2165 L
2670 2129 mt 2670 2201 L
4028 1823 mt 4100 1823 L
4064 1787 mt 4064 1859 L
4398 2510 mt 4470 2510 L
4434 2474 mt 4434 2546 L
3325 2935 mt 3397 2935 L
3361 2899 mt 3361 2971 L
2723 1371 mt 2795 1371 L
2759 1335 mt 2759 1407 L
3290 2214 mt 3362 2214 L
3326 2178 mt 3326 2250 L
5468 2840 mt 5540 2840 L
5504 2804 mt 5504 2876 L
3700 2920 mt 3772 2920 L
3736 2884 mt 3736 2956 L
3426 2668 mt 3498 2668 L
3462 2632 mt 3462 2704 L
4338 3022 mt 4410 3022 L
4374 2986 mt 4374 3058 L
1556 3051 mt 1628 3051 L
1592 3015 mt 1592 3087 L
3751 3711 mt 3823 3711 L
3787 3675 mt 3787 3747 L
2355 2374 mt 2427 2374 L
2391 2338 mt 2391 2410 L
3694 1561 mt 3766 1561 L
3730 1525 mt 3730 1597 L
3538 1923 mt 3610 1923 L
3574 1887 mt 3574 1959 L
1842 2637 mt 1914 2637 L
1878 2601 mt 1878 2673 L
3785 2576 mt 3857 2576 L
3821 2540 mt 3821 2612 L
2781 1604 mt 2853 1604 L
2817 1568 mt 2817 1640 L
4149 2338 mt 4221 2338 L
4185 2302 mt 4185 2374 L
3723 1643 mt 3795 1643 L
3759 1607 mt 3759 1679 L
3190  824 mt 3262  824 L
3226  788 mt 3226  860 L
3493 2180 mt 3565 2180 L
3529 2144 mt 3529 2216 L
2063 2445 mt 2135 2445 L
2099 2409 mt 2099 2481 L
2987  898 mt 3059  898 L
3023  862 mt 3023  934 L
3098 1858 mt 3170 1858 L
3134 1822 mt 3134 1894 L
4444 2584 mt 4516 2584 L
4480 2548 mt 4480 2620 L
5606 2051 mt 5678 2051 L
5642 2015 mt 5642 2087 L
2765 2279 mt 2837 2279 L
2801 2243 mt 2801 2315 L
3091 3553 mt 3163 3553 L
3127 3517 mt 3127 3589 L
3466 3908 mt 3538 3908 L
3502 3872 mt 3502 3944 L
4512 2035 mt 4584 2035 L
4548 1999 mt 4548 2071 L
2534 1794 mt 2606 1794 L
2570 1758 mt 2570 1830 L
4236 3331 mt 4308 3331 L
4272 3295 mt 4272 3367 L
3172 2062 mt 3244 2062 L
3208 2026 mt 3208 2098 L
3566 1298 mt 3638 1298 L
3602 1262 mt 3602 1334 L
3381 1526 mt 3453 1526 L
3417 1490 mt 3417 1562 L
4372 2994 mt 4444 2994 L
4408 2958 mt 4408 3030 L
2394 2223 mt 2466 2223 L
2430 2187 mt 2430 2259 L
2298 1538 mt 2370 1538 L
2334 1502 mt 2334 1574 L
3655 2140 mt 3727 2140 L
3691 2104 mt 3691 2176 L
4680 1845 mt 4752 1845 L
4716 1809 mt 4716 1881 L
2917 2396 mt 2989 2396 L
2953 2360 mt 2953 2432 L
4015 4023 mt 4087 4023 L
4051 3987 mt 4051 4059 L
4435 3731 mt 4507 3731 L
4471 3695 mt 4471 3767 L
2085 3306 mt 2157 3306 L
2121 3270 mt 2121 3342 L
4390 2801 mt 4462 2801 L
4426 2765 mt 4426 2837 L
4251 1948 mt 4323 1948 L
4287 1912 mt 4287 1984 L
1481 2325 mt 1553 2325 L
1517 2289 mt 1517 2361 L
4259 3527 mt 4331 3527 L
4295 3491 mt 4295 3563 L
2757 1878 mt 2829 1878 L
2793 1842 mt 2793 1914 L
2680 2820 mt 2752 2820 L
2716 2784 mt 2716 2856 L
3588 3151 mt 3660 3151 L
3624 3115 mt 3624 3187 L
4501 2073 mt 4573 2073 L
4537 2037 mt 4537 2109 L
4191 2334 mt 4263 2334 L
4227 2298 mt 4227 2370 L
5245 2849 mt 5317 2849 L
5281 2813 mt 5281 2885 L
3214 2480 mt 3286 2480 L
3250 2444 mt 3250 2516 L
4047 2242 mt 4119 2242 L
4083 2206 mt 4083 2278 L
1876 1984 mt 1948 1984 L
1912 1948 mt 1912 2020 L
4564 1885 mt 4636 1885 L
4600 1849 mt 4600 1921 L
3116 2659 mt 3188 2659 L
3152 2623 mt 3152 2695 L
3072 1809 mt 3144 1809 L
3108 1773 mt 3108 1845 L
4836 2686 mt 4908 2686 L
4872 2650 mt 4872 2722 L
4094 1614 mt 4166 1614 L
4130 1578 mt 4130 1650 L
3594 2204 mt 3666 2204 L
3630 2168 mt 3630 2240 L
3855 1707 mt 3927 1707 L
3891 1671 mt 3891 1743 L
2165 1872 mt 2237 1872 L
2201 1836 mt 2201 1908 L
5180 3515 mt 5252 3515 L
5216 3479 mt 5216 3551 L
3415 3658 mt 3487 3658 L
3451 3622 mt 3451 3694 L
3921 1049 mt 3993 1049 L
3957 1013 mt 3957 1085 L
5096 3118 mt 5168 3118 L
5132 3082 mt 5132 3154 L
2828 2682 mt 2900 2682 L
2864 2646 mt 2864 2718 L
5150 2904 mt 5222 2904 L
5186 2868 mt 5186 2940 L
3757 2109 mt 3829 2109 L
3793 2073 mt 3793 2145 L
3599 2956 mt 3671 2956 L
3635 2920 mt 3635 2992 L
1965 1960 mt 2037 1960 L
2001 1924 mt 2001 1996 L
2959 1232 mt 3031 1232 L
2995 1196 mt 2995 1268 L
4142 2484 mt 4214 2484 L
4178 2448 mt 4178 2520 L
3927 2493 mt 3999 2493 L
3963 2457 mt 3963 2529 L
4805 2040 mt 4877 2040 L
4841 2004 mt 4841 2076 L
4608 1181 mt 4680 1181 L
4644 1145 mt 4644 1217 L
4719 4305 mt 4791 4305 L
4755 4269 mt 4755 4341 L
4597 3693 mt 4669 3693 L
4633 3657 mt 4633 3729 L
3488 1624 mt 3560 1624 L
3524 1588 mt 3524 1660 L
2444 1764 mt 2516 1764 L
2480 1728 mt 2480 1800 L
4643 2361 mt 4715 2361 L
4679 2325 mt 4679 2397 L
3940 3358 mt 4012 3358 L
3976 3322 mt 3976 3394 L
6033 2967 mt 6105 2967 L
6069 2931 mt 6069 3003 L
2773 2978 mt 2845 2978 L
2809 2942 mt 2809 3014 L
3897 2825 mt 3969 2825 L
3933 2789 mt 3933 2861 L
3141  724 mt 3213  724 L
3177  688 mt 3177  760 L
2040 3848 mt 2112 3848 L
2076 3812 mt 2076 3884 L
4199 1572 mt 4271 1572 L
4235 1536 mt 4235 1608 L
5321 1354 mt 5393 1354 L
5357 1318 mt 5357 1390 L
3505 2475 mt 3577 2475 L
3541 2439 mt 3541 2511 L
3410 2815 mt 3482 2815 L
3446 2779 mt 3446 2851 L
1907 2754 mt 1979 2754 L
1943 2718 mt 1943 2790 L
3232 2302 mt 3304 2302 L
3268 2266 mt 3268 2338 L
2468 2316 mt 2540 2316 L
2504 2280 mt 2504 2352 L
3059 1087 mt 3131 1087 L
3095 1051 mt 3095 1123 L
3033 3250 mt 3105 3250 L
3069 3214 mt 3069 3286 L
3891 2265 mt 3963 2265 L
3927 2229 mt 3927 2301 L
2938 1865 mt 3010 1865 L
2974 1829 mt 2974 1901 L
4904 2972 mt 4976 2972 L
4940 2936 mt 4940 3008 L
3838 3376 mt 3910 3376 L
3874 3340 mt 3874 3412 L
2662 1489 mt 2734 1489 L
2698 1453 mt 2698 1525 L
3364 1653 mt 3436 1653 L
3400 1617 mt 3400 1689 L
2740 1404 mt 2812 1404 L
2776 1368 mt 2776 1440 L
4330 3017 mt 4402 3017 L
4366 2981 mt 4366 3053 L
3013 2750 mt 3085 2750 L
3049 2714 mt 3049 2786 L
3404 1756 mt 3476 1756 L
3440 1720 mt 3440 1792 L
3605 2571 mt 3677 2571 L
3641 2535 mt 3641 2607 L
3903 2170 mt 3975 2170 L
3939 2134 mt 3939 2206 L
4655 2633 mt 4727 2633 L
4691 2597 mt 4691 2669 L
 863 2247 mt  935 2247 L
 899 2211 mt  899 2283 L
3166 1715 mt 3238 1715 L
3202 1679 mt 3202 1751 L
2282 2218 mt 2354 2218 L
2318 2182 mt 2318 2254 L
2595 3257 mt 2667 3257 L
2631 3221 mt 2631 3293 L
3284 2356 mt 3356 2356 L
3320 2320 mt 3320 2392 L
2697 3457 mt 2769 3457 L
2733 3421 mt 2733 3493 L
2327 2787 mt 2399 2787 L
2363 2751 mt 2363 2823 L
1387 1255 mt 1459 1255 L
1423 1219 mt 1423 1291 L
2980 1662 mt 3052 1662 L
3016 1626 mt 3016 1698 L
2523 2889 mt 2595 2889 L
2559 2853 mt 2559 2925 L
3359 2237 mt 3431 2237 L
3395 2201 mt 3395 2273 L
4314 2946 mt 4386 2946 L
4350 2910 mt 4350 2982 L
2924 2562 mt 2996 2562 L
2960 2526 mt 2960 2598 L
3768 2256 mt 3840 2256 L
3804 2220 mt 3804 2292 L
4306 1978 mt 4378 1978 L
4342 1942 mt 4342 2014 L
2218 3099 mt 2290 3099 L
2254 3063 mt 2254 3135 L
4087 3595 mt 4159 3595 L
4123 3559 mt 4123 3631 L
4922 2859 mt 4994 2859 L
4958 2823 mt 4958 2895 L
1619 1698 mt 1691 1698 L
1655 1662 mt 1655 1734 L
4492 1966 mt 4564 1966 L
4528 1930 mt 4528 2002 L
3255 2914 mt 3327 2914 L
3291 2878 mt 3291 2950 L
2201 1772 mt 2273 1772 L
2237 1736 mt 2237 1808 L
3438 2029 mt 3510 2029 L
3474 1993 mt 3474 2065 L
2490 2782 mt 2562 2782 L
2526 2746 mt 2526 2818 L
3571 3075 mt 3643 3075 L
3607 3039 mt 3607 3111 L
3728 2879 mt 3800 2879 L
3764 2843 mt 3764 2915 L
3983 2519 mt 4055 2519 L
4019 2483 mt 4019 2555 L
2859  957 mt 2931  957 L
2895  921 mt 2895  993 L
4553 2528 mt 4625 2528 L
4589 2492 mt 4589 2564 L
4184 2418 mt 4256 2418 L
4220 2382 mt 4220 2454 L
3780 2835 mt 3852 2835 L
3816 2799 mt 3816 2871 L
4228 2677 mt 4300 2677 L
4264 2641 mt 4264 2713 L
2888 2115 mt 2960 2115 L
2924 2079 mt 2924 2151 L
4746 3106 mt 4818 3106 L
4782 3070 mt 4782 3142 L
3178 2764 mt 3250 2764 L
3214 2728 mt 3214 2800 L
4021 3314 mt 4093 3314 L
4057 3278 mt 4057 3350 L
4522 2497 mt 4594 2497 L
4558 2461 mt 4558 2533 L
2555 3164 mt 2627 3164 L
2591 3128 mt 2591 3200 L
2715 2727 mt 2787 2727 L
2751 2691 mt 2751 2763 L
3208 2343 mt 3280 2343 L
3244 2307 mt 3244 2379 L
4156 2619 mt 4228 2619 L
4192 2583 mt 4192 2655 L
2836 2099 mt 2908 2099 L
2872 2063 mt 2872 2135 L
3319 3641 mt 3391 3641 L
3355 3605 mt 3355 3677 L
3666 2536 mt 3738 2536 L
3702 2500 mt 3702 2572 L
2432 2150 mt 2504 2150 L
2468 2114 mt 2468 2186 L
2789 1740 mt 2861 1740 L
2825 1704 mt 2825 1776 L
5531 3468 mt 5603 3468 L
5567 3432 mt 5567 3504 L
3627 2722 mt 3699 2722 L
3663 2686 mt 3663 2758 L
3826 3242 mt 3898 3242 L
3862 3206 mt 3862 3278 L
3510 3265 mt 3582 3265 L
3546 3229 mt 3546 3301 L
3989 1462 mt 4061 1462 L
4025 1426 mt 4025 1498 L
2106 2899 mt 2178 2899 L
2142 2863 mt 2142 2935 L
3421 1476 mt 3493 1476 L
3457 1440 mt 3457 1512 L
2502 2130 mt 2574 2130 L
2538 2094 mt 2538 2166 L
2183 3191 mt 2255 3191 L
2219 3155 mt 2219 3227 L
3689 3322 mt 3761 3322 L
3725 3286 mt 3725 3358 L
3336 3797 mt 3408 3797 L
3372 3761 mt 3372 3833 L
2513 1972 mt 2585 1972 L
2549 1936 mt 2549 2008 L
3832 4616 mt 3904 4616 L
3868 4580 mt 3868 4652 L
2267 3415 mt 2339 3415 L
2303 3379 mt 2303 3451 L
2126 2067 mt 2198 2067 L
2162 2031 mt 2162 2103 L
2235 2745 mt 2307 2745 L
2271 2709 mt 2271 2781 L
4760 2185 mt 4832 2185 L
4796 2149 mt 4796 2221 L
3946 1207 mt 4018 1207 L
3982 1171 mt 3982 1243 L
3885 2951 mt 3957 2951 L
3921 2915 mt 3921 2987 L
2575 2089 mt 2647 2089 L
2611 2053 mt 2611 2125 L
3053 3011 mt 3125 3011 L
3089 2975 mt 3089 3047 L
2671 3349 mt 2743 3349 L
2707 3313 mt 2707 3385 L
4213 2453 mt 4285 2453 L
4249 2417 mt 4249 2489 L
4100 2811 mt 4172 2811 L
4136 2775 mt 4136 2847 L
3621 3942 mt 3693 3942 L
3657 3906 mt 3657 3978 L
4820 3625 mt 4892 3625 L
4856 3589 mt 4856 3661 L
2993 1502 mt 3065 1502 L
3029 1466 mt 3029 1538 L
1722 2440 mt 1794 2440 L
1758 2404 mt 1758 2476 L
3915 1851 mt 3987 1851 L
3951 1815 mt 3951 1887 L
3549 2293 mt 3621 2293 L
3585 2257 mt 3585 2329 L
3460 2718 mt 3532 2718 L
3496 2682 mt 3496 2754 L
5282 2589 mt 5354 2589 L
5318 2553 mt 5318 2625 L
4706 3213 mt 4778 3213 L
4742 3177 mt 4742 3249 L
3820 2175 mt 3892 2175 L
3856 2139 mt 3856 2211 L
2381 2383 mt 2453 2383 L
2417 2347 mt 2417 2419 L
3971 2597 mt 4043 2597 L
4007 2561 mt 4007 2633 L
3007 3567 mt 3079 3567 L
3043 3531 mt 3043 3603 L
4128 3774 mt 4200 3774 L
4164 3738 mt 4164 3810 L
5047 1550 mt 5119 1550 L
5083 1514 mt 5083 1586 L
3814 2602 mt 3886 2602 L
3850 2566 mt 3850 2638 L
2706 2541 mt 2778 2541 L
2742 2505 mt 2742 2577 L
2797 1936 mt 2869 1936 L
2833 1900 mt 2833 1972 L
4009 1779 mt 4081 1779 L
4045 1743 mt 4045 1815 L
4266 4072 mt 4338 4072 L
4302 4036 mt 4302 4108 L
3717 2405 mt 3789 2405 L
3753 2369 mt 3753 2441 L
2732 1831 mt 2804 1831 L
2768 1795 mt 2768 1867 L
3803 2558 mt 3875 2558 L
3839 2522 mt 3839 2594 L
3797 2427 mt 3869 2427 L
3833 2391 mt 3833 2463 L
3683 2741 mt 3755 2741 L
3719 2705 mt 3719 2777 L
3850 2320 mt 3922 2320 L
3886 2284 mt 3886 2356 L
4135 2709 mt 4207 2709 L
4171 2673 mt 4171 2745 L
3577 2352 mt 3649 2352 L
3613 2316 mt 3613 2388 L
2881 3184 mt 2953 3184 L
2917 3148 mt 2917 3220 L
2456 2078 mt 2528 2078 L
2492 2042 mt 2492 2114 L
3532 1723 mt 3604 1723 L
3568 1687 mt 3568 1759 L
3844 1388 mt 3916 1388 L
3880 1352 mt 3880 1424 L
3160 3005 mt 3232 3005 L
3196 2969 mt 3196 3041 L
3237 2983 mt 3309 2983 L
3273 2947 mt 3273 3019 L
3398 1434 mt 3470 1434 L
3434 1398 mt 3434 1470 L
4041 2615 mt 4113 2615 L
4077 2579 mt 4077 2651 L
4463 2379 mt 4535 2379 L
4499 2343 mt 4499 2415 L
3499 1583 mt 3571 1583 L
3535 1547 mt 3535 1619 L
2146 3131 mt 2218 3131 L
2182 3095 mt 2182 3167 L
3184 1930 mt 3256 1930 L
3220 1894 mt 3220 1966 L
3249 1448 mt 3321 1448 L
3285 1412 mt 3285 1484 L
3471 2796 mt 3543 2796 L
3507 2760 mt 3507 2832 L
4886 2940 mt 4958 2940 L
4922 2904 mt 4922 2976 L
6225 1419 mt 6297 1419 L
6261 1383 mt 6261 1455 L
3644 2057 mt 3716 2057 L
3680 2021 mt 3680 2093 L
3123 2580 mt 3195 2580 L
3159 2544 mt 3159 2616 L
3964 2695 mt 4036 2695 L
4000 2659 mt 4000 2731 L
4532 2869 mt 4604 2869 L
4568 2833 mt 4568 2905 L
2931 2593 mt 3003 2593 L
2967 2557 mt 2967 2629 L
4355 2925 mt 4427 2925 L
4391 2889 mt 4391 2961 L
3353 2155 mt 3425 2155 L
3389 2119 mt 3389 2191 L
3000 1318 mt 3072 1318 L
3036 1282 mt 3036 1354 L
3633 2251 mt 3705 2251 L
3669 2215 mt 3669 2287 L
4177 2854 mt 4249 2854 L
4213 2818 mt 4213 2890 L
2874 2135 mt 2946 2135 L
2910 2099 mt 2910 2171 L
2896 2930 mt 2968 2930 L
2932 2894 mt 2932 2966 L
3861 2392 mt 3933 2392 L
3897 2356 mt 3897 2428 L
4693 1990 mt 4765 1990 L
4729 1954 mt 4729 2026 L
3027 2462 mt 3099 2462 L
3063 2426 mt 3063 2498 L
3909 2012 mt 3981 2012 L
3945 1976 mt 3945 2048 L
4290 4131 mt 4362 4131 L
4326 4095 mt 4326 4167 L
3296 3877 mt 3368 3877 L
3332 3841 mt 3332 3913 L
5071 2414 mt 5143 2414 L
5107 2378 mt 5107 2450 L
1259 3281 mt 1331 3281 L
1295 3245 mt 1295 3317 L
2605 2209 mt 2677 2209 L
2641 2173 mt 2641 2245 L
3560 3675 mt 3632 3675 L
3596 3639 mt 3596 3711 L
2479 2844 mt 2551 2844 L
2515 2808 mt 2515 2880 L
3153 2874 mt 3225 2874 L
3189 2838 mt 3189 2910 L
2341 3178 mt 2413 3178 L
2377 3142 mt 2377 3214 L
4631 2449 mt 4703 2449 L
4667 2413 mt 4667 2485 L
4054 3752 mt 4126 3752 L
4090 3716 mt 4090 3788 L
5365 2713 mt 5437 2713 L
5401 2677 mt 5401 2749 L
2652 2523 mt 2724 2523 L
2688 2487 mt 2688 2559 L
4114 2410 mt 4186 2410 L
4150 2374 mt 4150 2446 L
3649 2018 mt 3721 2018 L
3685 1982 mt 3685 2054 L
4789 1671 mt 4861 1671 L
4825 1635 mt 4825 1707 L
2586 3198 mt 2658 3198 L
2622 3162 mt 2622 3234 L
3638 2545 mt 3710 2545 L
3674 2509 mt 3674 2581 L
5211 3405 mt 5283 3405 L
5247 3369 mt 5247 3441 L
4347  564 mt 4419  564 L
4383  528 mt 4383  600 L
3791 2736 mt 3863 2736 L
3827 2700 mt 3827 2772 L
3873 1689 mt 3945 1689 L
3909 1653 mt 3909 1725 L
3273 2673 mt 3345 2673 L
3309 2637 mt 3309 2709 L
4574 3045 mt 4646 3045 L
4610 3009 mt 4610 3081 L
3740 3220 mt 3812 3220 L
3776 3184 mt 3776 3256 L
4274 1336 mt 4346 1336 L
4310 1300 mt 4310 1372 L
4732 3069 mt 4804 3069 L
4768 3033 mt 4768 3105 L
2407 2864 mt 2479 2864 L
2443 2828 mt 2443 2900 L
4667 3491 mt 4739 3491 L
4703 3455 mt 4703 3527 L
3934 3297 mt 4006 3297 L
3970 3261 mt 3970 3333 L
3879 2792 mt 3951 2792 L
3915 2756 mt 3915 2828 L
2624 2288 mt 2696 2288 L
2660 2252 mt 2660 2324 L
4364 1942 mt 4436 1942 L
4400 1906 mt 4400 1978 L
3977 2606 mt 4049 2606 L
4013 2570 mt 4013 2642 L
3482 2261 mt 3554 2261 L
3518 2225 mt 3518 2297 L
4381 2650 mt 4453 2650 L
4417 2614 mt 4417 2686 L
4869 2514 mt 4941 2514 L
4905 2478 mt 4905 2550 L
5002 3235 mt 5074 3235 L
5038 3199 mt 5038 3271 L
4472 3386 mt 4544 3386 L
4508 3350 mt 4508 3422 L
3661 2423 mt 3733 2423 L
3697 2387 mt 3697 2459 L
3347 3581 mt 3419 3581 L
3383 3545 mt 3383 3617 L
5024 1917 mt 5096 1917 L
5060 1881 mt 5060 1953 L
3745 3367 mt 3817 3367 L
3781 3331 mt 3781 3403 L
4775 2884 mt 4847 2884 L
4811 2848 mt 4811 2920 L
3516 3125 mt 3588 3125 L
3552 3089 mt 3552 3161 L
4002 2298 mt 4074 2298 L
4038 2262 mt 4038 2334 L
3261 1514 mt 3333 1514 L
3297 1478 mt 3297 1550 L
3432 2145 mt 3504 2145 L
3468 2109 mt 3468 2181 L
4206 2083 mt 4278 2083 L
4242 2047 mt 4242 2119 L
5828 1277 mt 5900 1277 L
5864 1241 mt 5864 1313 L
2689 3057 mt 2761 3057 L
2725 3021 mt 2725 3093 L
2615 2628 mt 2687 2628 L
2651 2592 mt 2651 2664 L
3278 3395 mt 3350 3395 L
3314 3359 mt 3314 3431 L
3387 3436 mt 3459 3436 L
3423 3400 mt 3423 3472 L
3104 2228 mt 3176 2228 L
3140 2192 mt 3140 2264 L
3196 3112 mt 3268 3112 L
3232 3076 mt 3232 3148 L
4060 1898 mt 4132 1898 L
4096 1862 mt 4096 1934 L
3809 2768 mt 3881 2768 L
3845 2732 mt 3845 2804 L
3110 2046 mt 3182 2046 L
3146 2010 mt 3146 2082 L
5122 2641 mt 5194 2641 L
5158 2605 mt 5158 2677 L
4074 2370 mt 4146 2370 L
4110 2334 mt 4110 2406 L
3078 1593 mt 3150 1593 L
3114 1557 mt 3114 1629 L
3867 2436 mt 3939 2436 L
3903 2400 mt 3903 2472 L
1991 2549 mt 2063 2549 L
2027 2513 mt 2027 2585 L
4961 2731 mt 5033 2731 L
4997 2695 mt 4997 2767 L
3342 3034 mt 3414 3034 L
3378 2998 mt 3378 3070 L
3220 1904 mt 3292 1904 L
3256 1868 mt 3256 1940 L
3762 3206 mt 3834 3206 L
3798 3170 mt 3798 3242 L
3952 2624 mt 4024 2624 L
3988 2588 mt 3988 2660 L
4941 3540 mt 5013 3540 L
4977 3504 mt 4977 3576 L
3226 2554 mt 3298 2554 L
3262 2518 mt 3262 2590 L
3454 1634 mt 3526 1634 L
3490 1598 mt 3490 1670 L
2565 2001 mt 2637 2001 L
2601 1965 mt 2601 2037 L
3129 2388 mt 3201 2388 L
3165 2352 mt 3165 2424 L
2821 2506 mt 2893 2506 L
2857 2470 mt 2857 2542 L
3147 2611 mt 3219 2611 L
3183 2575 mt 3183 2647 L
2420 2567 mt 2492 2567 L
2456 2531 mt 2456 2603 L
3370 1006 mt 3442 1006 L
3406  970 mt 3406 1042 L
3711 4205 mt 3783 4205 L
3747 4169 mt 3747 4241 L
2545 2270 mt 2617 2270 L
2581 2234 mt 2581 2306 L
3020 2962 mt 3092 2962 L
3056 2926 mt 3056 2998 L
4542 2989 mt 4614 2989 L
4578 2953 mt 4578 3025 L
2312 3028 mt 2384 3028 L
2348 2992 mt 2348 3064 L
3040 3479 mt 3112 3479 L
3076 3443 mt 3076 3515 L
4407 2806 mt 4479 2806 L
4443 2770 mt 4443 2842 L
2844 3980 mt 2916 3980 L
2880 3944 mt 2880 4016 L
4221 3144 mt 4293 3144 L
4257 3108 mt 4257 3180 L
4425 3273 mt 4497 3273 L
4461 3237 mt 4461 3309 L
3243 1121 mt 3315 1121 L
3279 1085 mt 3279 1157 L
5413 1954 mt 5485 1954 L
5449 1918 mt 5449 1990 L
3443 1911 mt 3515 1911 L
3479 1875 mt 3479 1947 L
2016 1892 mt 2088 1892 L
2052 1856 mt 2052 1928 L
2851 2307 mt 2923 2307 L
2887 2271 mt 2887 2343 L
1674 2120 mt 1746 2120 L
1710 2084 mt 1710 2156 L
3774 3087 mt 3846 3087 L
3810 3051 mt 3810 3123 L
4034 3000 mt 4106 3000 L
4070 2964 mt 4070 3036 L
4121 2284 mt 4193 2284 L
4157 2248 mt 4157 2320 L
2813 2401 mt 2885 2401 L
2849 2365 mt 2849 2437 L
4619 3227 mt 4691 3227 L
4655 3191 mt 4655 3263 L
3477 3093 mt 3549 3093 L
3513 3057 mt 3513 3129 L
3706 2104 mt 3778 2104 L
3742 2068 mt 3742 2140 L
3672 2704 mt 3744 2704 L
3708 2668 mt 3708 2740 L
2866 3340 mt 2938 3340 L
2902 3304 mt 2902 3376 L
4852 1680 mt 4924 1680 L
4888 1644 mt 4888 1716 L
3302 1995 mt 3374 1995 L
3338 1959 mt 3338 2031 L
4170 3289 mt 4242 3289 L
4206 3253 mt 4206 3325 L
4482 1838 mt 4554 1838 L
4518 1802 mt 4518 1874 L
2368 2329 mt 2440 2329 L
2404 2293 mt 2404 2365 L
2251 2125 mt 2323 2125 L
2287 2089 mt 2287 2161 L
3616 2655 mt 3688 2655 L
3652 2619 mt 3652 2691 L
4282 2094 mt 4354 2094 L
4318 2058 mt 4318 2130 L
2805 3446 mt 2877 3446 L
2841 3410 mt 2841 3482 L
3996 3137 mt 4068 3137 L
4032 3101 mt 4032 3173 L
4107 2646 mt 4179 2646 L
4143 2610 mt 4143 2682 L
3313 1748 mt 3385 1748 L
3349 1712 mt 3349 1784 L
3610 2365 mt 3682 2365 L
3646 2329 mt 3646 2401 L
5700 2471 mt 5772 2471 L
5736 2435 mt 5736 2507 L
3066 3039 mt 3138 3039 L
3102 3003 mt 3102 3075 L
4298 3822 mt 4370 3822 L
4334 3786 mt 4334 3858 L
3449 2311 mt 3521 2311 L
3485 2275 mt 3485 2347 L
3734 1802 mt 3806 1802 L
3770 1766 mt 3770 1838 L
2910 2894 mt 2982 2894 L
2946 2858 mt 2946 2930 L
2973 2007 mt 3045 2007 L
3009 1971 mt 3009 2043 L
2903 2199 mt 2975 2199 L
2939 2163 mt 2939 2235 L
1937 2532 mt 2009 2532 L
1973 2496 mt 1973 2568 L
4080 2691 mt 4152 2691 L
4116 2655 mt 4116 2727 L
3527 2488 mt 3599 2488 L
3563 2452 mt 3563 2524 L
3521 3171 mt 3593 3171 L
3557 3135 mt 3557 3207 L
3677 3610 mt 3749 3610 L
3713 3574 mt 3713 3646 L
3544 2160 mt 3616 2160 L
3580 2124 mt 3580 2196 L
2966 2778 mt 3038 2778 L
3002 2742 mt 3002 2814 L
2952 3157 mt 3024 3157 L
2988 3121 mt 2988 3193 L
4322 3503 mt 4394 3503 L
4358 3467 mt 4358 3539 L
3958 2830 mt 4030 2830 L
3994 2794 mt 3994 2866 L
3376 2664 mt 3448 2664 L
3412 2628 mt 3412 2700 L
2643 2501 mt 2715 2501 L
2679 2465 mt 2679 2537 L
3393 2700 mt 3465 2700 L
3429 2664 mt 3429 2736 L
2945 2458 mt 3017 2458 L
2981 2422 mt 2981 2494 L
3555 2432 mt 3627 2432 L
3591 2396 mt 3591 2468 L
gs 899 414 5363 4203 rc
gr

0 sg
2779 5104 mt 
(\(F,DCTs,GMM\)) s
 482 3300 mt  -90 rotate
(\(F,DCTb,iMLP\)) s
90 rotate
2905  223 mt 
(Corr = -0.10) s

end %%Color Dict

eplot
%%EndObject

epage
end

showpage

%%Trailer
%%EOF
