%!PS-Adobe-3.0 EPSF-3.0
%%Creator: MATLAB, The Mathworks, Inc. Version 7.7.0.471 (R2008b). Operating System: Microsoft Windows XP.
%%Title: Pictures\main_zoo_mvar_analysis_data_BMI_xcorr_bmi_p1_k1_1_4.eps
%%CreationDate: 10/26/2009  05:43:50
%%DocumentNeededFonts: Helvetica
%%DocumentProcessColors: Cyan Magenta Yellow Black
%%LanguageLevel: 2
%%Pages: 1
%%BoundingBox:    32   180   551   616
%%EndComments

%%BeginProlog
% MathWorks dictionary
/MathWorks 160 dict begin
% definition operators
/bdef {bind def} bind def
/ldef {load def} bind def
/xdef {exch def} bdef
/xstore {exch store} bdef
% operator abbreviations
/c  /clip ldef
/cc /concat ldef
/cp /closepath ldef
/gr /grestore ldef
/gs /gsave ldef
/mt /moveto ldef
/np /newpath ldef
/cm /currentmatrix ldef
/sm /setmatrix ldef
/rm /rmoveto ldef
/rl /rlineto ldef
/s {show newpath} bdef
/sc {setcmykcolor} bdef
/sr /setrgbcolor ldef
/sg /setgray ldef
/w /setlinewidth ldef
/j /setlinejoin ldef
/cap /setlinecap ldef
/rc {rectclip} bdef
/rf {rectfill} bdef
% page state control
/pgsv () def
/bpage {/pgsv save def} bdef
/epage {pgsv restore} bdef
/bplot /gsave ldef
/eplot {stroke grestore} bdef
% orientation switch
/portraitMode 0 def /landscapeMode 1 def /rotateMode 2 def
% coordinate system mappings
/dpi2point 0 def
% font control
/FontSize 0 def
/FMS {/FontSize xstore findfont [FontSize 0 0 FontSize neg 0 0]
  makefont setfont} bdef
/ISOLatin1Encoding where {pop /WindowsLatin1Encoding 256 array bdef
ISOLatin1Encoding WindowsLatin1Encoding copy pop
/.notdef/.notdef/quotesinglbase/florin/quotedblbase/ellipsis/dagger
/daggerdbl/circumflex/perthousand/Scaron/guilsinglleft/OE/.notdef/.notdef
/.notdef/.notdef/quoteleft/quoteright/quotedblleft/quotedblright/bullet
/endash/emdash/tilde/trademark/scaron/guilsinglright/oe/.notdef/.notdef
/Ydieresis WindowsLatin1Encoding 128 32 getinterval astore pop}
{/WindowsLatin1Encoding StandardEncoding bdef} ifelse
/reencode {exch dup where {pop load} {pop StandardEncoding} ifelse
  exch dup 3 1 roll findfont dup length dict begin
  { 1 index /FID ne {def}{pop pop} ifelse } forall
  /Encoding exch def currentdict end definefont pop} bdef
/isroman {findfont /CharStrings get /Agrave known} bdef
/FMSR {3 1 roll 1 index dup isroman {reencode} {pop pop} ifelse
  exch FMS} bdef
/csm {1 dpi2point div -1 dpi2point div scale neg translate
 dup landscapeMode eq {pop -90 rotate}
  {rotateMode eq {90 rotate} if} ifelse} bdef
% line types: solid, dotted, dashed, dotdash
/SO { [] 0 setdash } bdef
/DO { [.5 dpi2point mul 4 dpi2point mul] 0 setdash } bdef
/DA { [6 dpi2point mul] 0 setdash } bdef
/DD { [.5 dpi2point mul 4 dpi2point mul 6 dpi2point mul 4
  dpi2point mul] 0 setdash } bdef
% macros for lines and objects
/L {lineto stroke} bdef
/MP {3 1 roll moveto 1 sub {rlineto} repeat} bdef
/AP {{rlineto} repeat} bdef
/PDlw -1 def
/W {/PDlw currentlinewidth def setlinewidth} def
/PP {closepath eofill} bdef
/DP {closepath stroke} bdef
/MR {4 -2 roll moveto dup  0 exch rlineto exch 0 rlineto
  neg 0 exch rlineto closepath} bdef
/FR {MR stroke} bdef
/PR {MR fill} bdef
/L1i {{currentfile picstr readhexstring pop} image} bdef
/tMatrix matrix def
/MakeOval {newpath tMatrix currentmatrix pop translate scale
0 0 1 0 360 arc tMatrix setmatrix} bdef
/FO {MakeOval stroke} bdef
/PO {MakeOval fill} bdef
/PD {currentlinewidth 2 div 0 360 arc fill
   PDlw -1 eq not {PDlw w /PDlw -1 def} if} def
/FA {newpath tMatrix currentmatrix pop translate scale
  0 0 1 5 -2 roll arc tMatrix setmatrix stroke} bdef
/PA {newpath tMatrix currentmatrix pop	translate 0 0 moveto scale
  0 0 1 5 -2 roll arc closepath tMatrix setmatrix fill} bdef
/FAn {newpath tMatrix currentmatrix pop translate scale
  0 0 1 5 -2 roll arcn tMatrix setmatrix stroke} bdef
/PAn {newpath tMatrix currentmatrix pop translate 0 0 moveto scale
  0 0 1 5 -2 roll arcn closepath tMatrix setmatrix fill} bdef
/vradius 0 def /hradius 0 def /lry 0 def
/lrx 0 def /uly 0 def /ulx 0 def /rad 0 def
/MRR {/vradius xdef /hradius xdef /lry xdef /lrx xdef /uly xdef
  /ulx xdef newpath tMatrix currentmatrix pop ulx hradius add uly
  vradius add translate hradius vradius scale 0 0 1 180 270 arc 
  tMatrix setmatrix lrx hradius sub uly vradius add translate
  hradius vradius scale 0 0 1 270 360 arc tMatrix setmatrix
  lrx hradius sub lry vradius sub translate hradius vradius scale
  0 0 1 0 90 arc tMatrix setmatrix ulx hradius add lry vradius sub
  translate hradius vradius scale 0 0 1 90 180 arc tMatrix setmatrix
  closepath} bdef
/FRR {MRR stroke } bdef
/PRR {MRR fill } bdef
/MlrRR {/lry xdef /lrx xdef /uly xdef /ulx xdef /rad lry uly sub 2 div def
  newpath tMatrix currentmatrix pop ulx rad add uly rad add translate
  rad rad scale 0 0 1 90 270 arc tMatrix setmatrix lrx rad sub lry rad
  sub translate rad rad scale 0 0 1 270 90 arc tMatrix setmatrix
  closepath} bdef
/FlrRR {MlrRR stroke } bdef
/PlrRR {MlrRR fill } bdef
/MtbRR {/lry xdef /lrx xdef /uly xdef /ulx xdef /rad lrx ulx sub 2 div def
  newpath tMatrix currentmatrix pop ulx rad add uly rad add translate
  rad rad scale 0 0 1 180 360 arc tMatrix setmatrix lrx rad sub lry rad
  sub translate rad rad scale 0 0 1 0 180 arc tMatrix setmatrix
  closepath} bdef
/FtbRR {MtbRR stroke } bdef
/PtbRR {MtbRR fill } bdef
/stri 6 array def /dtri 6 array def
/smat 6 array def /dmat 6 array def
/tmat1 6 array def /tmat2 6 array def /dif 3 array def
/asub {/ind2 exch def /ind1 exch def dup dup
  ind1 get exch ind2 get sub exch } bdef
/tri_to_matrix {
  2 0 asub 3 1 asub 4 0 asub 5 1 asub
  dup 0 get exch 1 get 7 -1 roll astore } bdef
/compute_transform {
  dmat dtri tri_to_matrix tmat1 invertmatrix 
  smat stri tri_to_matrix tmat2 concatmatrix } bdef
/ds {stri astore pop} bdef
/dt {dtri astore pop} bdef
/db {2 copy /cols xdef /rows xdef mul dup 3 mul string
  currentfile 
  3 index 0 eq {/ASCIIHexDecode filter}
  {/ASCII85Decode filter 3 index 2 eq {/RunLengthDecode filter} if }
  ifelse exch readstring pop
  dup 0 3 index getinterval /rbmap xdef
  dup 2 index dup getinterval /gbmap xdef
  1 index dup 2 mul exch getinterval /bbmap xdef pop pop}bdef
/it {gs np dtri aload pop moveto lineto lineto cp c
  cols rows 8 compute_transform 
  rbmap gbmap bbmap true 3 colorimage gr}bdef
/il {newpath moveto lineto stroke}bdef
currentdict end def
%%EndProlog

%%BeginSetup
MathWorks begin

0 cap

end
%%EndSetup

%%Page: 1 1
%%BeginPageSetup
%%PageBoundingBox:    32   180   551   616
MathWorks begin
bpage
%%EndPageSetup

%%BeginObject: obj1
bplot

/dpi2point 12 def
portraitMode 0216 7344 csm

  174   -48  6229  5231 rc
85 dict begin %Colortable dictionary
/c0 { 0.000000 0.000000 0.000000 sr} bdef
/c1 { 1.000000 1.000000 1.000000 sr} bdef
/c2 { 0.900000 0.000000 0.000000 sr} bdef
/c3 { 0.000000 0.820000 0.000000 sr} bdef
/c4 { 0.000000 0.000000 0.800000 sr} bdef
/c5 { 0.910000 0.820000 0.320000 sr} bdef
/c6 { 1.000000 0.260000 0.820000 sr} bdef
/c7 { 0.000000 0.820000 0.820000 sr} bdef
c0
1 j
1 sg
   0    0 6919 5187 rf
6 w
0 4202 5362 0 0 -4202 899 4616 4 MP
PP
-5362 0 0 4202 5362 0 0 -4202 899 4616 5 MP stroke
4 w
DO
SO
6 w
0 sg
 899  414 mt 6261  414 L
 899 4616 mt 6261 4616 L
6261 4616 mt 6261  414 L
 899 4616 mt  899  414 L
 899 4616 mt 6261 4616 L
 899 4616 mt  899  414 L
1780 4616 mt 1780 4562 L
1780  414 mt 1780  467 L
%%IncludeResource: font Helvetica
/Helvetica /WindowsLatin1Encoding 240 FMSR

1614 4873 mt 
(0.1) s
2661 4616 mt 2661 4562 L
2661  414 mt 2661  467 L
2495 4873 mt 
(0.2) s
3543 4616 mt 3543 4562 L
3543  414 mt 3543  467 L
3377 4873 mt 
(0.3) s
4424 4616 mt 4424 4562 L
4424  414 mt 4424  467 L
4258 4873 mt 
(0.4) s
5305 4616 mt 5305 4562 L
5305  414 mt 5305  467 L
5139 4873 mt 
(0.5) s
6187 4616 mt 6187 4562 L
6187  414 mt 6187  467 L
6021 4873 mt 
(0.6) s
 899 3888 mt  952 3888 L
6261 3888 mt 6207 3888 L
 531 3977 mt 
(0.1) s
 899 3160 mt  952 3160 L
6261 3160 mt 6207 3160 L
 531 3249 mt 
(0.2) s
 899 2432 mt  952 2432 L
6261 2432 mt 6207 2432 L
 531 2521 mt 
(0.3) s
 899 1705 mt  952 1705 L
6261 1705 mt 6207 1705 L
 531 1794 mt 
(0.4) s
 899  977 mt  952  977 L
6261  977 mt 6207  977 L
 531 1066 mt 
(0.5) s
 899  414 mt 6261  414 L
 899 4616 mt 6261 4616 L
6261 4616 mt 6261  414 L
 899 4616 mt  899  414 L
gs 899 414 5363 4203 rc
gr

/c8 { 0.000000 0.000000 1.000000 sr} bdef
c8
3752 4560 mt 3824 4560 L
3788 4524 mt 3788 4596 L
 957 4104 mt 1029 4104 L
 993 4068 mt  993 4140 L
2642 3227 mt 2714 3227 L
2678 3191 mt 2678 3263 L
1600 4279 mt 1672 4279 L
1636 4243 mt 1636 4315 L
 865 4584 mt  937 4584 L
 901 4548 mt  901 4620 L
2972 4443 mt 3044 4443 L
3008 4407 mt 3008 4479 L
1286 3753 mt 1358 3753 L
1322 3717 mt 1322 3789 L
1206 4586 mt 1278 4586 L
1242 4550 mt 1242 4622 L
4075 4453 mt 4147 4453 L
4111 4417 mt 4111 4489 L
4851 4139 mt 4923 4139 L
4887 4103 mt 4887 4175 L
1125 4373 mt 1197 4373 L
1161 4337 mt 1161 4409 L
 865 3702 mt  937 3702 L
 901 3666 mt  901 3738 L
1333 3398 mt 1405 3398 L
1369 3362 mt 1369 3434 L
1109 3988 mt 1181 3988 L
1145 3952 mt 1145 4024 L
3199 4204 mt 3271 4204 L
3235 4168 mt 3235 4240 L
3649 3760 mt 3721 3760 L
3685 3724 mt 3685 3796 L
1154 4512 mt 1226 4512 L
1190 4476 mt 1190 4548 L
1315 4577 mt 1387 4577 L
1351 4541 mt 1351 4613 L
 928 2645 mt 1000 2645 L
 964 2609 mt  964 2681 L
2519 4377 mt 2591 4377 L
2555 4341 mt 2555 4413 L
3599 4420 mt 3671 4420 L
3635 4384 mt 3635 4456 L
1332 4609 mt 1404 4609 L
1368 4573 mt 1368 4645 L
 954 4281 mt 1026 4281 L
 990 4245 mt  990 4317 L
1295 3046 mt 1367 3046 L
1331 3010 mt 1331 3082 L
5473 4574 mt 5545 4574 L
5509 4538 mt 5509 4610 L
1820 4229 mt 1892 4229 L
1856 4193 mt 1856 4265 L
1429 4323 mt 1501 4323 L
1465 4287 mt 1465 4359 L
3458 4208 mt 3530 4208 L
3494 4172 mt 3494 4244 L
 863 4305 mt  935 4305 L
 899 4269 mt  899 4341 L
1905 4468 mt 1977 4468 L
1941 4432 mt 1941 4504 L
 883 4587 mt  955 4587 L
 919 4551 mt  919 4623 L
1810 4334 mt 1882 4334 L
1846 4298 mt 1846 4370 L
1565 3584 mt 1637 3584 L
1601 3548 mt 1601 3620 L
 866 4597 mt  938 4597 L
 902 4561 mt  902 4633 L
1974 3678 mt 2046 3678 L
2010 3642 mt 2010 3714 L
 973 4611 mt 1045 4611 L
1009 4575 mt 1009 4647 L
2959 4606 mt 3031 4606 L
2995 4570 mt 2995 4642 L
1845 4333 mt 1917 4333 L
1881 4297 mt 1881 4369 L
1190 4176 mt 1262 4176 L
1226 4140 mt 1226 4212 L
1522 3867 mt 1594 3867 L
1558 3831 mt 1558 3903 L
 868 4460 mt  940 4460 L
 904 4424 mt  904 4496 L
1076 3099 mt 1148 3099 L
1112 3063 mt 1112 3135 L
1134 4610 mt 1206 4610 L
1170 4574 mt 1170 4646 L
3748 2385 mt 3820 2385 L
3784 2349 mt 3784 2421 L
5783 1554 mt 5855 1554 L
5819 1518 mt 5819 1590 L
 961 4226 mt 1033 4226 L
 997 4190 mt  997 4262 L
1131 4607 mt 1203 4607 L
1167 4571 mt 1167 4643 L
1480 3698 mt 1552 3698 L
1516 3662 mt 1516 3734 L
3989 3359 mt 4061 3359 L
4025 3323 mt 4025 3395 L
 907 3325 mt  979 3325 L
 943 3289 mt  943 3361 L
3190 4609 mt 3262 4609 L
3226 4573 mt 3226 4645 L
1169 4615 mt 1241 4615 L
1205 4579 mt 1205 4651 L
1586 2098 mt 1658 2098 L
1622 2062 mt 1622 2134 L
1387 4540 mt 1459 4540 L
1423 4504 mt 1423 4576 L
3538 4498 mt 3610 4498 L
3574 4462 mt 3574 4534 L
 888 4500 mt  960 4500 L
 924 4464 mt  924 4536 L
 876 4223 mt  948 4223 L
 912 4187 mt  912 4259 L
1748 4502 mt 1820 4502 L
1784 4466 mt 1784 4538 L
4388 3705 mt 4460 3705 L
4424 3669 mt 4424 3741 L
1035 3576 mt 1107 3576 L
1071 3540 mt 1071 3612 L
2500 4590 mt 2572 4590 L
2536 4554 mt 2536 4626 L
3723 4615 mt 3795 4615 L
3759 4579 mt 3759 4651 L
 868 3207 mt  940 3207 L
 904 3171 mt  904 3243 L
3553 2519 mt 3625 2519 L
3589 2483 mt 3589 2555 L
3201 3083 mt 3273 3083 L
3237 3047 mt 3237 3119 L
 863 4581 mt  935 4581 L
 899 4545 mt  899 4617 L
3218 2468 mt 3290 2468 L
3254 2432 mt 3254 2504 L
 960 4598 mt 1032 4598 L
 996 4562 mt  996 4634 L
 944 4393 mt 1016 4393 L
 980 4357 mt  980 4429 L
1609 4478 mt 1681 4478 L
1645 4442 mt 1645 4514 L
3962 4309 mt 4034 4309 L
3998 4273 mt 3998 4345 L
3025 3885 mt 3097 3885 L
3061 3849 mt 3061 3921 L
5255 4263 mt 5327 4263 L
5291 4227 mt 5291 4299 L
1221 4497 mt 1293 4497 L
1257 4461 mt 1257 4533 L
2596 4552 mt 2668 4552 L
2632 4516 mt 2632 4588 L
 866 3043 mt  938 3043 L
 902 3007 mt  902 3079 L
4067 3449 mt 4139 3449 L
4103 3413 mt 4103 3485 L
1138 4157 mt 1210 4157 L
1174 4121 mt 1174 4193 L
1113 3344 mt 1185 3344 L
1149 3308 mt 1149 3380 L
4545 4423 mt 4617 4423 L
4581 4387 mt 4581 4459 L
2705 2959 mt 2777 2959 L
2741 2923 mt 2741 2995 L
1609 2591 mt 1681 2591 L
1645 2555 mt 1645 2627 L
2137 4605 mt 2209 4605 L
2173 4569 mt 2173 4641 L
 869 4392 mt  941 4392 L
 905 4356 mt  905 4428 L
5209 4418 mt 5281 4418 L
5245 4382 mt 5245 4454 L
1421 4025 mt 1493 4025 L
1457 3989 mt 1457 4061 L
2269 4549 mt 2341 4549 L
2305 4513 mt 2305 4585 L
4996 2346 mt 5068 2346 L
5032 2310 mt 5032 2382 L
 995 4609 mt 1067 4609 L
1031 4573 mt 1031 4645 L
5078 4613 mt 5150 4613 L
5114 4577 mt 5114 4649 L
1928 3383 mt 2000 3383 L
1964 3347 mt 1964 3419 L
1616 2866 mt 1688 2866 L
1652 2830 mt 1652 2902 L
 867 3931 mt  939 3931 L
 903 3895 mt  903 3967 L
1058 4188 mt 1130 4188 L
1094 4152 mt 1094 4224 L
2892 4615 mt 2964 4615 L
2928 4579 mt 2928 4651 L
2279 4089 mt 2351 4089 L
2315 4053 mt 2315 4125 L
4504 4503 mt 4576 4503 L
4540 4467 mt 4540 4539 L
4166 4494 mt 4238 4494 L
4202 4458 mt 4202 4530 L
4425 3309 mt 4497 3309 L
4461 3273 mt 4461 3345 L
4146 4576 mt 4218 4576 L
4182 4540 mt 4182 4612 L
1521 4571 mt 1593 4571 L
1557 4535 mt 1557 4607 L
 898 4466 mt  970 4466 L
 934 4430 mt  934 4502 L
4313 3672 mt 4385 3672 L
4349 3636 mt 4349 3708 L
2295 4572 mt 2367 4572 L
2331 4536 mt 2331 4608 L
6056 4213 mt 6128 4213 L
6092 4177 mt 6092 4249 L
 963 4081 mt 1035 4081 L
 999 4045 mt  999 4117 L
2224 3828 mt 2296 3828 L
2260 3792 mt 2260 3864 L
1159 4520 mt 1231 4520 L
1195 4484 mt 1195 4556 L
 868 4448 mt  940 4448 L
 904 4412 mt  904 4484 L
3102 4588 mt 3174 4588 L
3138 4552 mt 3138 4624 L
5354 1721 mt 5426 1721 L
5390 1685 mt 5390 1757 L
1533 4444 mt 1605 4444 L
1569 4408 mt 1569 4480 L
1414 4594 mt 1486 4594 L
1450 4558 mt 1450 4630 L
 866 4585 mt  938 4585 L
 902 4549 mt  902 4621 L
1240 3808 mt 1312 3808 L
1276 3772 mt 1276 3844 L
 900 4141 mt  972 4141 L
 936 4105 mt  936 4177 L
1112 3959 mt 1184 3959 L
1148 3923 mt 1148 3995 L
1099 4306 mt 1171 4306 L
1135 4270 mt 1135 4342 L
2221 3151 mt 2293 3151 L
2257 3115 mt 2257 3187 L
1040 4607 mt 1112 4607 L
1076 4571 mt 1076 4643 L
4678 4554 mt 4750 4554 L
4714 4518 mt 4714 4590 L
2111 3837 mt 2183 3837 L
2147 3801 mt 2147 3873 L
 943 4593 mt 1015 4593 L
 979 4557 mt  979 4629 L
1378 3045 mt 1450 3045 L
1414 3009 mt 1414 3081 L
 956 4384 mt 1028 4384 L
 992 4348 mt  992 4420 L
3381 2614 mt 3453 2614 L
3417 2578 mt 3417 2650 L
1088 4537 mt 1160 4537 L
1124 4501 mt 1124 4573 L
1410 4406 mt 1482 4406 L
1446 4370 mt 1446 4442 L
1618 4494 mt 1690 4494 L
1654 4458 mt 1654 4530 L
2229 4614 mt 2301 4614 L
2265 4578 mt 2265 4650 L
4322 3553 mt 4394 3553 L
4358 3517 mt 4358 3589 L
 863 4479 mt  935 4479 L
 899 4443 mt  899 4515 L
1169 4567 mt 1241 4567 L
1205 4531 mt 1205 4603 L
 876 4615 mt  948 4615 L
 912 4579 mt  912 4651 L
 919 4615 mt  991 4615 L
 955 4579 mt  955 4651 L
1291 4609 mt 1363 4609 L
1327 4573 mt 1327 4645 L
 949 4484 mt 1021 4484 L
 985 4448 mt  985 4520 L
 881 4504 mt  953 4504 L
 917 4468 mt  917 4540 L
 863 3718 mt  935 3718 L
 899 3682 mt  899 3754 L
1072 4561 mt 1144 4561 L
1108 4525 mt 1108 4597 L
 907 4040 mt  979 4040 L
 943 4004 mt  943 4076 L
1365 4179 mt 1437 4179 L
1401 4143 mt 1401 4215 L
3283 3355 mt 3355 3355 L
3319 3319 mt 3319 3391 L
1038 4611 mt 1110 4611 L
1074 4575 mt 1074 4647 L
1935 4427 mt 2007 4427 L
1971 4391 mt 1971 4463 L
3282 4461 mt 3354 4461 L
3318 4425 mt 3318 4497 L
 871 4039 mt  943 4039 L
 907 4003 mt  907 4075 L
2691 3413 mt 2763 3413 L
2727 3377 mt 2727 3449 L
4725 3384 mt 4797 3384 L
4761 3348 mt 4761 3420 L
 863 4612 mt  935 4612 L
 899 4576 mt  899 4648 L
3889  414 mt 3961  414 L
3925  378 mt 3925  450 L
1255 4593 mt 1327 4593 L
1291 4557 mt 1291 4629 L
 871 4439 mt  943 4439 L
 907 4403 mt  907 4475 L
1435 3844 mt 1507 3844 L
1471 3808 mt 1471 3880 L
 903 4615 mt  975 4615 L
 939 4579 mt  939 4651 L
1587 4470 mt 1659 4470 L
1623 4434 mt 1623 4506 L
1856 3669 mt 1928 3669 L
1892 3633 mt 1892 3705 L
2451 4438 mt 2523 4438 L
2487 4402 mt 2487 4474 L
1016 4614 mt 1088 4614 L
1052 4578 mt 1052 4650 L
4008 3854 mt 4080 3854 L
4044 3818 mt 4044 3890 L
3021 3284 mt 3093 3284 L
3057 3248 mt 3057 3320 L
1966 4533 mt 2038 4533 L
2002 4497 mt 2002 4569 L
3174 4586 mt 3246 4586 L
3210 4550 mt 3210 4622 L
1021 4252 mt 1093 4252 L
1057 4216 mt 1057 4288 L
4459 4348 mt 4531 4348 L
4495 4312 mt 4495 4384 L
1177 3866 mt 1249 3866 L
1213 3830 mt 1213 3902 L
2507 1947 mt 2579 1947 L
2543 1911 mt 2543 1983 L
3995 4268 mt 4067 4268 L
4031 4232 mt 4031 4304 L
 910 4427 mt  982 4427 L
 946 4391 mt  946 4463 L
 953 3673 mt 1025 3673 L
 989 3637 mt  989 3709 L
1217 4573 mt 1289 4573 L
1253 4537 mt 1253 4609 L
2961 4584 mt 3033 4584 L
2997 4548 mt 2997 4620 L
 996 4613 mt 1068 4613 L
1032 4577 mt 1032 4649 L
1322 4304 mt 1394 4304 L
1358 4268 mt 1358 4340 L
1783 4445 mt 1855 4445 L
1819 4409 mt 1819 4481 L
 894 4315 mt  966 4315 L
 930 4279 mt  930 4351 L
 975 4127 mt 1047 4127 L
1011 4091 mt 1011 4163 L
5720 4421 mt 5792 4421 L
5756 4385 mt 5756 4457 L
1658 3889 mt 1730 3889 L
1694 3853 mt 1694 3925 L
2043 4371 mt 2115 4371 L
2079 4335 mt 2079 4407 L
1536 4584 mt 1608 4584 L
1572 4548 mt 1572 4620 L
2452 4605 mt 2524 4605 L
2488 4569 mt 2488 4641 L
 868 4095 mt  940 4095 L
 904 4059 mt  904 4131 L
1428 2498 mt 1500 2498 L
1464 2462 mt 1464 2534 L
 905 3911 mt  977 3911 L
 941 3875 mt  941 3947 L
 869 4335 mt  941 4335 L
 905 4299 mt  905 4371 L
1801 4528 mt 1873 4528 L
1837 4492 mt 1837 4564 L
1333 4360 mt 1405 4360 L
1369 4324 mt 1369 4396 L
 906 4552 mt  978 4552 L
 942 4516 mt  942 4588 L
2101 4514 mt 2173 4514 L
2137 4478 mt 2137 4550 L
 874 4549 mt  946 4549 L
 910 4513 mt  910 4585 L
 868 3950 mt  940 3950 L
 904 3914 mt  904 3986 L
 872 4552 mt  944 4552 L
 908 4516 mt  908 4588 L
4463 4602 mt 4535 4602 L
4499 4566 mt 4499 4638 L
2323 4615 mt 2395 4615 L
2359 4579 mt 2359 4651 L
2217 2507 mt 2289 2507 L
2253 2471 mt 2253 2543 L
 911 4375 mt  983 4375 L
 947 4339 mt  947 4411 L
1110 4468 mt 1182 4468 L
1146 4432 mt 1146 4504 L
 943 4280 mt 1015 4280 L
 979 4244 mt  979 4316 L
3124 4470 mt 3196 4470 L
3160 4434 mt 3160 4506 L
2742 4475 mt 2814 4475 L
2778 4439 mt 2778 4511 L
1637 4400 mt 1709 4400 L
1673 4364 mt 1673 4436 L
4537 4579 mt 4609 4579 L
4573 4543 mt 4573 4615 L
1076 4612 mt 1148 4612 L
1112 4576 mt 1112 4648 L
 864 4606 mt  936 4606 L
 900 4570 mt  900 4642 L
2266 4550 mt 2338 4550 L
2302 4514 mt 2302 4586 L
1578 3580 mt 1650 3580 L
1614 3544 mt 1614 3616 L
1478 4615 mt 1550 4615 L
1514 4579 mt 1514 4651 L
5353 3892 mt 5425 3892 L
5389 3856 mt 5389 3928 L
4400 3531 mt 4472 3531 L
4436 3495 mt 4436 3567 L
2033 4615 mt 2105 4615 L
2069 4579 mt 2069 4651 L
 888 4151 mt  960 4151 L
 924 4115 mt  924 4187 L
2385 4040 mt 2457 4040 L
2421 4004 mt 2421 4076 L
1085 4577 mt 1157 4577 L
1121 4541 mt 1121 4613 L
2875 4605 mt 2947 4605 L
2911 4569 mt 2911 4641 L
4956 2798 mt 5028 2798 L
4992 2762 mt 4992 2834 L
2027 4597 mt 2099 4597 L
2063 4561 mt 2063 4633 L
 951 4555 mt 1023 4555 L
 987 4519 mt  987 4591 L
 975 4017 mt 1047 4017 L
1011 3981 mt 1011 4053 L
2487 3827 mt 2559 3827 L
2523 3791 mt 2523 3863 L
3251 4611 mt 3323 4611 L
3287 4575 mt 3287 4647 L
1842 4558 mt 1914 4558 L
1878 4522 mt 1878 4594 L
 956 3769 mt 1028 3769 L
 992 3733 mt  992 3805 L
2006 4098 mt 2078 4098 L
2042 4062 mt 2042 4134 L
1985 3310 mt 2057 3310 L
2021 3274 mt 2021 3346 L
1798 4214 mt 1870 4214 L
1834 4178 mt 1834 4250 L
2126 4251 mt 2198 4251 L
2162 4215 mt 2162 4287 L
2882 4172 mt 2954 4172 L
2918 4136 mt 2918 4208 L
1595 4362 mt 1667 4362 L
1631 4326 mt 1631 4398 L
1020 4484 mt 1092 4484 L
1056 4448 mt 1056 4520 L
 900 4614 mt  972 4614 L
 936 4578 mt  936 4650 L
1555 3876 mt 1627 3876 L
1591 3840 mt 1591 3912 L
2118 4366 mt 2190 4366 L
2154 4330 mt 2154 4402 L
1165 4575 mt 1237 4575 L
1201 4539 mt 1201 4611 L
1248 4583 mt 1320 4583 L
1284 4547 mt 1284 4619 L
1410 4595 mt 1482 4595 L
1446 4559 mt 1446 4631 L
2593 4433 mt 2665 4433 L
2629 4397 mt 2629 4469 L
3758 4616 mt 3830 4616 L
3794 4580 mt 3794 4652 L
1530 4541 mt 1602 4541 L
1566 4505 mt 1566 4577 L
 869 4295 mt  941 4295 L
 905 4259 mt  905 4331 L
1178 4514 mt 1250 4514 L
1214 4478 mt 1214 4550 L
1253 3412 mt 1325 3412 L
1289 3376 mt 1289 3448 L
1486 4609 mt 1558 4609 L
1522 4573 mt 1522 4645 L
4673 3864 mt 4745 3864 L
4709 3828 mt 4709 3900 L
6225 1956 mt 6297 1956 L
6261 1920 mt 6261 1992 L
1707 4423 mt 1779 4423 L
1743 4387 mt 1743 4459 L
1148 4502 mt 1220 4502 L
1184 4466 mt 1184 4538 L
2347 3669 mt 2419 3669 L
2383 3633 mt 2383 3705 L
4001 4523 mt 4073 4523 L
4037 4487 mt 4037 4559 L
1039 4380 mt 1111 4380 L
1075 4344 mt 1075 4416 L
3478 4574 mt 3550 4574 L
3514 4538 mt 3514 4610 L
1352 4562 mt 1424 4562 L
1388 4526 mt 1388 4598 L
1080 3121 mt 1152 3121 L
1116 3085 mt 1116 3157 L
1701 4591 mt 1773 4591 L
1737 4555 mt 1737 4627 L
2998 4247 mt 3070 4247 L
3034 4211 mt 3034 4283 L
1019 4447 mt 1091 4447 L
1055 4411 mt 1055 4483 L
1027 4117 mt 1099 4117 L
1063 4081 mt 1063 4153 L
2140 4615 mt 2212 4615 L
2176 4579 mt 2176 4651 L
4395 3817 mt 4467 3817 L
4431 3781 mt 4431 3853 L
1092 4349 mt 1164 4349 L
1128 4313 mt 1128 4385 L
2239 4596 mt 2311 4596 L
2275 4560 mt 2275 4632 L
3274 4477 mt 3346 4477 L
3310 4441 mt 3310 4513 L
1313 3778 mt 1385 3778 L
1349 3742 mt 1349 3814 L
4984 1888 mt 5056 1888 L
5020 1852 mt 5020 1924 L
 863 4614 mt  935 4614 L
 899 4578 mt  899 4650 L
 922 4512 mt  994 4512 L
 958 4476 mt  958 4548 L
1583 4529 mt 1655 4529 L
1619 4493 mt 1619 4565 L
 901 4611 mt  973 4611 L
 937 4575 mt  937 4647 L
1164 3961 mt 1236 3961 L
1200 3925 mt 1200 3997 L
 882 4443 mt  954 4443 L
 918 4407 mt  918 4479 L
4257 3909 mt 4329 3909 L
4293 3873 mt 4293 3945 L
2607 4600 mt 2679 4600 L
2643 4564 mt 2643 4636 L
5354 4040 mt 5426 4040 L
5390 4004 mt 5390 4076 L
 931 4109 mt 1003 4109 L
 967 4073 mt  967 4145 L
2831 4529 mt 2903 4529 L
2867 4493 mt 2867 4565 L
1725 4093 mt 1797 4093 L
1761 4057 mt 1761 4129 L
4496 3584 mt 4568 3584 L
4532 3548 mt 4532 3620 L
 917 4615 mt  989 4615 L
 953 4579 mt  953 4651 L
1702 4139 mt 1774 4139 L
1738 4103 mt 1738 4175 L
5247 4589 mt 5319 4589 L
5283 4553 mt 5283 4625 L
3458 2397 mt 3530 2397 L
3494 2361 mt 3494 2433 L
1974 3557 mt 2046 3557 L
2010 3521 mt 2010 3593 L
2182 4315 mt 2254 4315 L
2218 4279 mt 2218 4351 L
1286 4597 mt 1358 4597 L
1322 4561 mt 1322 4633 L
4071 3819 mt 4143 3819 L
4107 3783 mt 4107 3855 L
1885 4411 mt 1957 4411 L
1921 4375 mt 1921 4447 L
3256 4280 mt 3328 4280 L
3292 4244 mt 3292 4316 L
4450 2429 mt 4522 2429 L
4486 2393 mt 4486 2465 L
 891 4466 mt  963 4466 L
 927 4430 mt  927 4502 L
4364 4609 mt 4436 4609 L
4400 4573 mt 4400 4645 L
2288 4100 mt 2360 4100 L
2324 4064 mt 2324 4136 L
2192 4031 mt 2264 4031 L
2228 3995 mt 2228 4067 L
 926 4489 mt  998 4489 L
 962 4453 mt  962 4525 L
3509 4330 mt 3581 4330 L
3545 4294 mt 3545 4366 L
2428 4609 mt 2500 4609 L
2464 4573 mt 2464 4645 L
1510 4298 mt 1582 4298 L
1546 4262 mt 1546 4334 L
3550 3550 mt 3622 3550 L
3586 3514 mt 3586 3586 L
4625 4589 mt 4697 4589 L
4661 4553 mt 4661 4625 L
4936 3176 mt 5008 3176 L
4972 3140 mt 4972 3212 L
3793 4221 mt 3865 4221 L
3829 4185 mt 3829 4257 L
1752 4608 mt 1824 4608 L
1788 4572 mt 1788 4644 L
1344 4600 mt 1416 4600 L
1380 4564 mt 1380 4636 L
4946 3224 mt 5018 3224 L
4982 3188 mt 4982 3260 L
1887 4610 mt 1959 4610 L
1923 4574 mt 1923 4646 L
4490 3084 mt 4562 3084 L
4526 3048 mt 4526 3120 L
1540 4175 mt 1612 4175 L
1576 4139 mt 1576 4211 L
2476 3555 mt 2548 3555 L
2512 3519 mt 2512 3591 L
1279 4615 mt 1351 4615 L
1315 4579 mt 1315 4651 L
1430 4523 mt 1502 4523 L
1466 4487 mt 1466 4559 L
3108 4566 mt 3180 4566 L
3144 4530 mt 3144 4602 L
5973 1824 mt 6045 1824 L
6009 1788 mt 6009 1860 L
 944 4353 mt 1016 4353 L
 980 4317 mt  980 4389 L
 925 3983 mt  997 3983 L
 961 3947 mt  961 4019 L
1291 4610 mt 1363 4610 L
1327 4574 mt 1327 4646 L
1389 4346 mt 1461 4346 L
1425 4310 mt 1425 4382 L
1136 4610 mt 1208 4610 L
1172 4574 mt 1172 4646 L
1205 4428 mt 1277 4428 L
1241 4392 mt 1241 4464 L
2626 4615 mt 2698 4615 L
2662 4579 mt 2662 4651 L
2027 3298 mt 2099 3298 L
2063 3262 mt 2063 3334 L
1136 4429 mt 1208 4429 L
1172 4393 mt 1172 4465 L
5073 4389 mt 5145 4389 L
5109 4353 mt 5109 4425 L
2673 4533 mt 2745 4533 L
2709 4497 mt 2709 4569 L
1120 4570 mt 1192 4570 L
1156 4534 mt 1156 4606 L
2172 3456 mt 2244 3456 L
2208 3420 mt 2208 3492 L
 867 4612 mt  939 4612 L
 903 4576 mt  903 4648 L
4807 4360 mt 4879 4360 L
4843 4324 mt 4843 4396 L
1334 4498 mt 1406 4498 L
1370 4462 mt 1370 4534 L
1233 4571 mt 1305 4571 L
1269 4535 mt 1269 4607 L
1935 4407 mt 2007 4407 L
1971 4371 mt 1971 4443 L
2329 4613 mt 2401 4613 L
2365 4577 mt 2365 4649 L
4785 3267 mt 4857 3267 L
4821 3231 mt 4821 3303 L
1236 4615 mt 1308 4615 L
1272 4579 mt 1272 4651 L
1474 4306 mt 1546 4306 L
1510 4270 mt 1510 4342 L
 911 4586 mt  983 4586 L
 947 4550 mt  947 4622 L
1151 4597 mt 1223 4597 L
1187 4561 mt 1187 4633 L
 987 4427 mt 1059 4427 L
1023 4391 mt 1023 4463 L
1162 4548 mt 1234 4548 L
1198 4512 mt 1198 4584 L
 891 4604 mt  963 4604 L
 927 4568 mt  927 4640 L
1382 4614 mt 1454 4614 L
1418 4578 mt 1418 4650 L
1838 4615 mt 1910 4615 L
1874 4579 mt 1874 4651 L
 908 3708 mt  980 3708 L
 944 3672 mt  944 3744 L
1090 4113 mt 1162 4113 L
1126 4077 mt 1126 4149 L
4006 2760 mt 4078 2760 L
4042 2724 mt 4042 2796 L
 880 4614 mt  952 4614 L
 916 4578 mt  916 4650 L
1105 3892 mt 1177 3892 L
1141 3856 mt 1141 3928 L
3606 4529 mt 3678 4529 L
3642 4493 mt 3642 4565 L
 998 4518 mt 1070 4518 L
1034 4482 mt 1034 4554 L
3165 3609 mt 3237 3609 L
3201 3573 mt 3201 3645 L
3706 3681 mt 3778 3681 L
3742 3645 mt 3742 3717 L
1249 4217 mt 1321 4217 L
1285 4181 mt 1285 4253 L
5370 1741 mt 5442 1741 L
5406 1705 mt 5406 1777 L
1451 3920 mt 1523 3920 L
1487 3884 mt 1487 3956 L
 868 4571 mt  940 4571 L
 904 4535 mt  904 4607 L
1014 4614 mt 1086 4614 L
1050 4578 mt 1050 4650 L
 864 4580 mt  936 4580 L
 900 4544 mt  900 4616 L
1937 4615 mt 2009 4615 L
1973 4579 mt 1973 4651 L
2581 4534 mt 2653 4534 L
2617 4498 mt 2617 4570 L
2832 4608 mt 2904 4608 L
2868 4572 mt 2868 4644 L
 986 4450 mt 1058 4450 L
1022 4414 mt 1022 4486 L
4243 4393 mt 4315 4393 L
4279 4357 mt 4279 4429 L
1488 4485 mt 1560 4485 L
1524 4449 mt 1524 4521 L
1837 4612 mt 1909 4612 L
1873 4576 mt 1873 4648 L
1791 4572 mt 1863 4572 L
1827 4536 mt 1827 4608 L
1016 4550 mt 1088 4550 L
1052 4514 mt 1052 4586 L
4548 4105 mt 4620 4105 L
4584 4069 mt 4584 4141 L
1315 4453 mt 1387 4453 L
1351 4417 mt 1351 4489 L
2974 2432 mt 3046 2432 L
3010 2396 mt 3010 2468 L
3839 4556 mt 3911 4556 L
3875 4520 mt 3875 4592 L
 887 4571 mt  959 4571 L
 923 4535 mt  923 4607 L
 872 4615 mt  944 4615 L
 908 4579 mt  908 4651 L
1636 4588 mt 1708 4588 L
1672 4552 mt 1672 4624 L
3264 4615 mt 3336 4615 L
3300 4579 mt 3300 4651 L
 979 4596 mt 1051 4596 L
1015 4560 mt 1015 4632 L
2467 4592 mt 2539 4592 L
2503 4556 mt 2503 4628 L
2789 4594 mt 2861 4594 L
2825 4558 mt 2825 4630 L
1316 3574 mt 1388 3574 L
1352 3538 mt 1352 3610 L
1619 4238 mt 1691 4238 L
1655 4202 mt 1655 4274 L
5924 4030 mt 5996 4030 L
5960 3994 mt 5960 4066 L
1112 3841 mt 1184 3841 L
1148 3805 mt 1148 3877 L
3282 4375 mt 3354 4375 L
3318 4339 mt 3318 4411 L
1455 4390 mt 1527 4390 L
1491 4354 mt 1491 4426 L
1879 4316 mt 1951 4316 L
1915 4280 mt 1915 4352 L
1035 3396 mt 1107 3396 L
1071 3360 mt 1071 3432 L
1067 3370 mt 1139 3370 L
1103 3334 mt 1103 3406 L
1029 4455 mt 1101 4455 L
1065 4419 mt 1065 4491 L
 866 4559 mt  938 4559 L
 902 4523 mt  902 4595 L
2689 4501 mt 2761 4501 L
2725 4465 mt 2725 4537 L
1545 4369 mt 1617 4369 L
1581 4333 mt 1581 4405 L
1544 3489 mt 1616 3489 L
1580 3453 mt 1580 3525 L
1793 4567 mt 1865 4567 L
1829 4531 mt 1829 4603 L
1573 4514 mt 1645 4514 L
1609 4478 mt 1609 4550 L
1062 4068 mt 1134 4068 L
1098 4032 mt 1098 4104 L
1053 4613 mt 1125 4613 L
1089 4577 mt 1089 4649 L
3293 4328 mt 3365 4328 L
3329 4292 mt 3329 4364 L
2333 4574 mt 2405 4574 L
2369 4538 mt 2369 4610 L
1384 2664 mt 1456 2664 L
1420 2628 mt 1420 2700 L
 929 4205 mt 1001 4205 L
 965 4169 mt  965 4241 L
1390 4602 mt 1462 4602 L
1426 4566 mt 1426 4638 L
1051 4612 mt 1123 4612 L
1087 4576 mt 1087 4648 L
1580 4511 mt 1652 4511 L
1616 4475 mt 1616 4547 L
gs 899 414 5363 4203 rc
gr

0 sg
2779 5104 mt 
(\(F,DCTs,GMM\)) s
 422 3296 mt  -90 rotate
(\(F,DCTs,iMLP\)) s
90 rotate
2975  223 mt 
(Corr = 0.25) s

end %%Color Dict

eplot
%%EndObject

epage
end

showpage

%%Trailer
%%EOF
