%!PS-Adobe-3.0 EPSF-3.0
%%Creator: MATLAB, The Mathworks, Inc. Version 7.7.0.471 (R2008b). Operating System: Microsoft Windows XP.
%%Title: Pictures\main_zoo_mvar_analysis_data_BMI_xcorr_bmig_p1_k1_7_8.eps
%%CreationDate: 10/26/2009  05:45:07
%%DocumentNeededFonts: Helvetica
%%DocumentProcessColors: Cyan Magenta Yellow Black
%%LanguageLevel: 2
%%Pages: 1
%%BoundingBox:    37   180   549   616
%%EndComments

%%BeginProlog
% MathWorks dictionary
/MathWorks 160 dict begin
% definition operators
/bdef {bind def} bind def
/ldef {load def} bind def
/xdef {exch def} bdef
/xstore {exch store} bdef
% operator abbreviations
/c  /clip ldef
/cc /concat ldef
/cp /closepath ldef
/gr /grestore ldef
/gs /gsave ldef
/mt /moveto ldef
/np /newpath ldef
/cm /currentmatrix ldef
/sm /setmatrix ldef
/rm /rmoveto ldef
/rl /rlineto ldef
/s {show newpath} bdef
/sc {setcmykcolor} bdef
/sr /setrgbcolor ldef
/sg /setgray ldef
/w /setlinewidth ldef
/j /setlinejoin ldef
/cap /setlinecap ldef
/rc {rectclip} bdef
/rf {rectfill} bdef
% page state control
/pgsv () def
/bpage {/pgsv save def} bdef
/epage {pgsv restore} bdef
/bplot /gsave ldef
/eplot {stroke grestore} bdef
% orientation switch
/portraitMode 0 def /landscapeMode 1 def /rotateMode 2 def
% coordinate system mappings
/dpi2point 0 def
% font control
/FontSize 0 def
/FMS {/FontSize xstore findfont [FontSize 0 0 FontSize neg 0 0]
  makefont setfont} bdef
/ISOLatin1Encoding where {pop /WindowsLatin1Encoding 256 array bdef
ISOLatin1Encoding WindowsLatin1Encoding copy pop
/.notdef/.notdef/quotesinglbase/florin/quotedblbase/ellipsis/dagger
/daggerdbl/circumflex/perthousand/Scaron/guilsinglleft/OE/.notdef/.notdef
/.notdef/.notdef/quoteleft/quoteright/quotedblleft/quotedblright/bullet
/endash/emdash/tilde/trademark/scaron/guilsinglright/oe/.notdef/.notdef
/Ydieresis WindowsLatin1Encoding 128 32 getinterval astore pop}
{/WindowsLatin1Encoding StandardEncoding bdef} ifelse
/reencode {exch dup where {pop load} {pop StandardEncoding} ifelse
  exch dup 3 1 roll findfont dup length dict begin
  { 1 index /FID ne {def}{pop pop} ifelse } forall
  /Encoding exch def currentdict end definefont pop} bdef
/isroman {findfont /CharStrings get /Agrave known} bdef
/FMSR {3 1 roll 1 index dup isroman {reencode} {pop pop} ifelse
  exch FMS} bdef
/csm {1 dpi2point div -1 dpi2point div scale neg translate
 dup landscapeMode eq {pop -90 rotate}
  {rotateMode eq {90 rotate} if} ifelse} bdef
% line types: solid, dotted, dashed, dotdash
/SO { [] 0 setdash } bdef
/DO { [.5 dpi2point mul 4 dpi2point mul] 0 setdash } bdef
/DA { [6 dpi2point mul] 0 setdash } bdef
/DD { [.5 dpi2point mul 4 dpi2point mul 6 dpi2point mul 4
  dpi2point mul] 0 setdash } bdef
% macros for lines and objects
/L {lineto stroke} bdef
/MP {3 1 roll moveto 1 sub {rlineto} repeat} bdef
/AP {{rlineto} repeat} bdef
/PDlw -1 def
/W {/PDlw currentlinewidth def setlinewidth} def
/PP {closepath eofill} bdef
/DP {closepath stroke} bdef
/MR {4 -2 roll moveto dup  0 exch rlineto exch 0 rlineto
  neg 0 exch rlineto closepath} bdef
/FR {MR stroke} bdef
/PR {MR fill} bdef
/L1i {{currentfile picstr readhexstring pop} image} bdef
/tMatrix matrix def
/MakeOval {newpath tMatrix currentmatrix pop translate scale
0 0 1 0 360 arc tMatrix setmatrix} bdef
/FO {MakeOval stroke} bdef
/PO {MakeOval fill} bdef
/PD {currentlinewidth 2 div 0 360 arc fill
   PDlw -1 eq not {PDlw w /PDlw -1 def} if} def
/FA {newpath tMatrix currentmatrix pop translate scale
  0 0 1 5 -2 roll arc tMatrix setmatrix stroke} bdef
/PA {newpath tMatrix currentmatrix pop	translate 0 0 moveto scale
  0 0 1 5 -2 roll arc closepath tMatrix setmatrix fill} bdef
/FAn {newpath tMatrix currentmatrix pop translate scale
  0 0 1 5 -2 roll arcn tMatrix setmatrix stroke} bdef
/PAn {newpath tMatrix currentmatrix pop translate 0 0 moveto scale
  0 0 1 5 -2 roll arcn closepath tMatrix setmatrix fill} bdef
/vradius 0 def /hradius 0 def /lry 0 def
/lrx 0 def /uly 0 def /ulx 0 def /rad 0 def
/MRR {/vradius xdef /hradius xdef /lry xdef /lrx xdef /uly xdef
  /ulx xdef newpath tMatrix currentmatrix pop ulx hradius add uly
  vradius add translate hradius vradius scale 0 0 1 180 270 arc 
  tMatrix setmatrix lrx hradius sub uly vradius add translate
  hradius vradius scale 0 0 1 270 360 arc tMatrix setmatrix
  lrx hradius sub lry vradius sub translate hradius vradius scale
  0 0 1 0 90 arc tMatrix setmatrix ulx hradius add lry vradius sub
  translate hradius vradius scale 0 0 1 90 180 arc tMatrix setmatrix
  closepath} bdef
/FRR {MRR stroke } bdef
/PRR {MRR fill } bdef
/MlrRR {/lry xdef /lrx xdef /uly xdef /ulx xdef /rad lry uly sub 2 div def
  newpath tMatrix currentmatrix pop ulx rad add uly rad add translate
  rad rad scale 0 0 1 90 270 arc tMatrix setmatrix lrx rad sub lry rad
  sub translate rad rad scale 0 0 1 270 90 arc tMatrix setmatrix
  closepath} bdef
/FlrRR {MlrRR stroke } bdef
/PlrRR {MlrRR fill } bdef
/MtbRR {/lry xdef /lrx xdef /uly xdef /ulx xdef /rad lrx ulx sub 2 div def
  newpath tMatrix currentmatrix pop ulx rad add uly rad add translate
  rad rad scale 0 0 1 180 360 arc tMatrix setmatrix lrx rad sub lry rad
  sub translate rad rad scale 0 0 1 0 180 arc tMatrix setmatrix
  closepath} bdef
/FtbRR {MtbRR stroke } bdef
/PtbRR {MtbRR fill } bdef
/stri 6 array def /dtri 6 array def
/smat 6 array def /dmat 6 array def
/tmat1 6 array def /tmat2 6 array def /dif 3 array def
/asub {/ind2 exch def /ind1 exch def dup dup
  ind1 get exch ind2 get sub exch } bdef
/tri_to_matrix {
  2 0 asub 3 1 asub 4 0 asub 5 1 asub
  dup 0 get exch 1 get 7 -1 roll astore } bdef
/compute_transform {
  dmat dtri tri_to_matrix tmat1 invertmatrix 
  smat stri tri_to_matrix tmat2 concatmatrix } bdef
/ds {stri astore pop} bdef
/dt {dtri astore pop} bdef
/db {2 copy /cols xdef /rows xdef mul dup 3 mul string
  currentfile 
  3 index 0 eq {/ASCIIHexDecode filter}
  {/ASCII85Decode filter 3 index 2 eq {/RunLengthDecode filter} if }
  ifelse exch readstring pop
  dup 0 3 index getinterval /rbmap xdef
  dup 2 index dup getinterval /gbmap xdef
  1 index dup 2 mul exch getinterval /bbmap xdef pop pop}bdef
/it {gs np dtri aload pop moveto lineto lineto cp c
  cols rows 8 compute_transform 
  rbmap gbmap bbmap true 3 colorimage gr}bdef
/il {newpath moveto lineto stroke}bdef
currentdict end def
%%EndProlog

%%BeginSetup
MathWorks begin

0 cap

end
%%EndSetup

%%Page: 1 1
%%BeginPageSetup
%%PageBoundingBox:    37   180   549   616
MathWorks begin
bpage
%%EndPageSetup

%%BeginObject: obj1
bplot

/dpi2point 12 def
portraitMode 0216 7344 csm

  234   -48  6149  5231 rc
85 dict begin %Colortable dictionary
/c0 { 0.000000 0.000000 0.000000 sr} bdef
/c1 { 1.000000 1.000000 1.000000 sr} bdef
/c2 { 0.900000 0.000000 0.000000 sr} bdef
/c3 { 0.000000 0.820000 0.000000 sr} bdef
/c4 { 0.000000 0.000000 0.800000 sr} bdef
/c5 { 0.910000 0.820000 0.320000 sr} bdef
/c6 { 1.000000 0.260000 0.820000 sr} bdef
/c7 { 0.000000 0.820000 0.820000 sr} bdef
c0
1 j
1 sg
   0    0 6919 5187 rf
6 w
0 4202 5362 0 0 -4202 899 4616 4 MP
PP
-5362 0 0 4202 5362 0 0 -4202 899 4616 5 MP stroke
4 w
DO
SO
6 w
0 sg
 899  414 mt 6261  414 L
 899 4616 mt 6261 4616 L
6261 4616 mt 6261  414 L
 899 4616 mt  899  414 L
 899 4616 mt 6261 4616 L
 899 4616 mt  899  414 L
 919 4616 mt  919 4562 L
 919  414 mt  919  467 L
%%IncludeResource: font Helvetica
/Helvetica /WindowsLatin1Encoding 240 FMSR

 713 4873 mt 
(-3) s
1806 4616 mt 1806 4562 L
1806  414 mt 1806  467 L
1600 4873 mt 
(-2) s
2693 4616 mt 2693 4562 L
2693  414 mt 2693  467 L
2487 4873 mt 
(-1) s
3580 4616 mt 3580 4562 L
3580  414 mt 3580  467 L
3514 4873 mt 
(0) s
4466 4616 mt 4466 4562 L
4466  414 mt 4466  467 L
4400 4873 mt 
(1) s
5353 4616 mt 5353 4562 L
5353  414 mt 5353  467 L
5287 4873 mt 
(2) s
6240 4616 mt 6240 4562 L
6240  414 mt 6240  467 L
6174 4873 mt 
(3) s
 899 4599 mt  952 4599 L
6261 4599 mt 6207 4599 L
 591 4688 mt 
(-3) s
 899 3904 mt  952 3904 L
6261 3904 mt 6207 3904 L
 591 3993 mt 
(-2) s
 899 3209 mt  952 3209 L
6261 3209 mt 6207 3209 L
 591 3298 mt 
(-1) s
 899 2514 mt  952 2514 L
6261 2514 mt 6207 2514 L
 731 2603 mt 
(0) s
 899 1820 mt  952 1820 L
6261 1820 mt 6207 1820 L
 731 1909 mt 
(1) s
 899 1125 mt  952 1125 L
6261 1125 mt 6207 1125 L
 731 1214 mt 
(2) s
 899  430 mt  952  430 L
6261  430 mt 6207  430 L
 731  519 mt 
(3) s
 899  414 mt 6261  414 L
 899 4616 mt 6261 4616 L
6261 4616 mt 6261  414 L
 899 4616 mt  899  414 L
gs 899 414 5363 4203 rc
gr

/c8 { 0.000000 0.000000 1.000000 sr} bdef
c8
5531  414 mt 5603  414 L
5567  378 mt 5567  450 L
3325 2602 mt 3397 2602 L
3361 2566 mt 3361 2638 L
2575 3034 mt 2647 3034 L
2611 2998 mt 2611 3070 L
1556 2293 mt 1628 2293 L
1592 2257 mt 1592 2329 L
3838 2410 mt 3910 2410 L
3874 2374 mt 3874 2446 L
2874 2840 mt 2946 2840 L
2910 2804 mt 2910 2876 L
3410 1604 mt 3482 1604 L
3446 1568 mt 3446 1640 L
3085 2655 mt 3157 2655 L
3121 2619 mt 3121 2691 L
2218 4205 mt 2290 4205 L
2254 4169 mt 2254 4241 L
3644 2040 mt 3716 2040 L
3680 2004 mt 3680 2076 L
3267 2536 mt 3339 2536 L
3303 2500 mt 3303 2572 L
3734 4616 mt 3806 4616 L
3770 4580 mt 3770 4652 L
3867 3503 mt 3939 3503 L
3903 3467 mt 3903 3539 L
4532 3322 mt 4604 3322 L
4568 3286 mt 4568 3358 L
2312 2401 mt 2384 2401 L
2348 2365 mt 2348 2437 L
5096 1831 mt 5168 1831 L
5132 1795 mt 5132 1867 L
5700 1583 mt 5772 1583 L
5736 1547 mt 5736 1619 L
3208 2423 mt 3280 2423 L
3244 2387 mt 3244 2459 L
3347 2722 mt 3419 2722 L
3383 2686 mt 3383 2758 L
4170 2001 mt 4242 2001 L
4206 1965 mt 4206 2037 L
3202 2361 mt 3274 2361 L
3238 2325 mt 3238 2397 L
2938 2646 mt 3010 2646 L
2974 2610 mt 2974 2682 L
3091 2436 mt 3163 2436 L
3127 2400 mt 3127 2472 L
3153 2484 mt 3225 2484 L
3189 2448 mt 3189 2520 L
4789 1885 mt 4861 1885 L
4825 1849 mt 4825 1921 L
3683 2806 mt 3755 2806 L
3719 2770 mt 3719 2842 L
3855 2199 mt 3927 2199 L
3891 2163 mt 3891 2235 L
2789 2825 mt 2861 2825 L
2825 2789 mt 2825 2861 L
1876 2972 mt 1948 2972 L
1912 2936 mt 1912 3008 L
3237 2589 mt 3309 2589 L
3273 2553 mt 3273 2625 L
3066 1572 mt 3138 1572 L
3102 1536 mt 3102 1608 L
3638 2467 mt 3710 2467 L
3674 2431 mt 3674 2503 L
3007 2558 mt 3079 2558 L
3043 2522 mt 3043 2594 L
3672 1787 mt 3744 1787 L
3708 1751 mt 3708 1823 L
3027 3297 mt 3099 3297 L
3063 3261 mt 3063 3333 L
3319 2576 mt 3391 2576 L
3355 2540 mt 3355 2612 L
3582 3118 mt 3654 3118 L
3618 3082 mt 3618 3154 L
4054 2844 mt 4126 2844 L
4090 2808 mt 4090 2880 L
4852 2445 mt 4924 2445 L
4888 2409 mt 4888 2481 L
4407 1255 mt 4479 1255 L
4443 1219 mt 4443 1291 L
3220 2619 mt 3292 2619 L
3256 2583 mt 3256 2655 L
3046 2506 mt 3118 2506 L
3082 2470 mt 3082 2542 L
4314 1740 mt 4386 1740 L
4350 1704 mt 4350 1776 L
4021 1809 mt 4093 1809 L
4057 1773 mt 4057 1845 L
3330 1816 mt 3402 1816 L
3366 1780 mt 3366 1852 L
2040 3039 mt 2112 3039 L
2076 3003 mt 2076 3075 L
5047  898 mt 5119  898 L
5083  862 mt 5083  934 L
3426 2811 mt 3498 2811 L
3462 2775 mt 3462 2847 L
4047 3658 mt 4119 3658 L
4083 3622 mt 4083 3694 L
2327 2352 mt 2399 2352 L
2363 2316 mt 2363 2388 L
4156 2279 mt 4228 2279 L
4192 2243 mt 4192 2315 L
3610 2270 mt 3682 2270 L
3646 2234 mt 3646 2306 L
3488 2864 mt 3560 2864 L
3524 2828 mt 3524 2900 L
2407 2514 mt 2479 2514 L
2443 2478 mt 2443 2550 L
4512 2835 mt 4584 2835 L
4548 2799 mt 4548 2871 L
3072 1954 mt 3144 1954 L
3108 1918 mt 3108 1990 L
3844 2261 mt 3916 2261 L
3880 2225 mt 3880 2297 L
2586 3675 mt 2658 3675 L
2622 3639 mt 2622 3711 L
3723 2664 mt 3795 2664 L
3759 2628 mt 3759 2700 L
3370 2523 mt 3442 2523 L
3406 2487 mt 3406 2559 L
4191 2204 mt 4263 2204 L
4227 2168 mt 4227 2240 L
4981 2709 mt 5053 2709 L
5017 2673 mt 5017 2745 L
3393  824 mt 3465  824 L
3429  788 mt 3429  860 L
3353 1917 mt 3425 1917 L
3389 1881 mt 3389 1953 L
2689 4023 mt 2761 4023 L
2725 3987 mt 2725 4059 L
3774 2078 mt 3846 2078 L
3810 2042 mt 3810 2114 L
3033 3527 mt 3105 3527 L
3069 3491 mt 3069 3563 L
3940 3641 mt 4012 3641 L
3976 3605 mt 3976 3677 L
3255 3515 mt 3327 3515 L
3291 3479 mt 3291 3551 L
2368 2624 mt 2440 2624 L
2404 2588 mt 2404 2660 L
2146 2018 mt 2218 2018 L
2182 1982 mt 2182 2054 L
3359 3171 mt 3431 3171 L
3395 3135 mt 3395 3207 L
2444 2414 mt 2516 2414 L
2480 2378 mt 2480 2450 L
3249 3731 mt 3321 3731 L
3285 3695 mt 3285 3767 L
4028 3093 mt 4100 3093 L
4064 3057 mt 4064 3129 L
4080 2396 mt 4152 2396 L
4116 2360 mt 4116 2432 L
3020 2792 mt 3092 2792 L
3056 2756 mt 3056 2828 L
3296 3191 mt 3368 3191 L
3332 3155 mt 3332 3227 L
3989 2062 mt 4061 2062 L
4025 2026 mt 4025 2098 L
4149 3144 mt 4221 3144 L
4185 3108 mt 4185 3180 L
3493 2325 mt 3565 2325 L
3529 2289 mt 3529 2361 L
2282 1794 mt 2354 1794 L
2318 1758 mt 2318 1830 L
4067 1419 mt 4139 1419 L
4103 1383 mt 4103 1455 L
1991 2379 mt 2063 2379 L
2027 2343 mt 2027 2415 L
4522 1434 mt 4594 1434 L
4558 1398 mt 4558 1470 L
2267 2302 mt 2339 2302 L
2303 2266 mt 2303 2338 L
1387 3491 mt 1459 3491 L
1423 3455 mt 1423 3527 L
3040 3075 mt 3112 3075 L
3076 3039 mt 3076 3111 L
1674 3457 mt 1746 3457 L
1710 3421 mt 1710 3493 L
4177 1942 mt 4249 1942 L
4213 1906 mt 4213 1978 L
3438 2962 mt 3510 2962 L
3474 2926 mt 3474 2998 L
2781 2453 mt 2853 2453 L
2817 2417 mt 2817 2489 L
2016 2458 mt 2088 2458 L
2052 2422 mt 2052 2494 L
4501 3386 mt 4573 3386 L
4537 3350 mt 4537 3422 L
3243 2925 mt 3315 2925 L
3279 2889 mt 3279 2961 L
4228 2083 mt 4300 2083 L
4264 2047 mt 4264 2119 L
3505 2094 mt 3577 2094 L
3541 2058 mt 3541 2130 L
3166 2869 mt 3238 2869 L
3202 2833 mt 3202 2905 L
3661 2256 mt 3733 2256 L
3697 2220 mt 3697 2292 L
2643 2320 mt 2715 2320 L
2679 2284 mt 2679 2356 L
6225  724 mt 6297  724 L
6261  688 mt 6261  760 L
3443 2849 mt 3515 2849 L
3479 2813 mt 3479 2885 L
3826 1121 mt 3898 1121 L
3862 1085 mt 3862 1157 L
2502 2237 mt 2574 2237 L
2538 2201 mt 2538 2273 L
4306 2668 mt 4378 2668 L
4342 2632 mt 4342 2704 L
3666 2682 mt 3738 2682 L
3702 2646 mt 3702 2718 L
2298 4131 mt 2370 4131 L
2334 4095 mt 2334 4167 L
4492 2759 mt 4564 2759 L
4528 2723 mt 4528 2795 L
3791 3011 mt 3863 3011 L
3827 2975 mt 3827 3047 L
1481 2155 mt 1553 2155 L
1517 2119 mt 1517 2191 L
3190 3610 mt 3262 3610 L
3226 3574 mt 3226 3646 L
2534 2899 mt 2606 2899 L
2570 2863 mt 2570 2935 L
4114 3213 mt 4186 3213 L
4150 3177 mt 4150 3249 L
3482 2659 mt 3554 2659 L
3518 2623 mt 3518 2695 L
2765 2528 mt 2837 2528 L
2801 2492 mt 2801 2564 L
3820 2686 mt 3892 2686 L
3856 2650 mt 3856 2722 L
2859 3415 mt 2931 3415 L
2895 3379 mt 2895 3451 L
3711 3848 mt 3783 3848 L
3747 3812 mt 3747 3884 L
3302 1960 mt 3374 1960 L
3338 1924 mt 3338 1996 L
2959 1502 mt 3031 1502 L
2995 1466 mt 2995 1538 L
3342 2247 mt 3414 2247 L
3378 2211 mt 3378 2283 L
2813 2214 mt 2885 2214 L
2849 2178 mt 2849 2250 L
3013 3567 mt 3085 3567 L
3049 3531 mt 3049 3603 L
4282 1550 mt 4354 1550 L
4318 1514 mt 4318 1586 L
4355 2104 mt 4427 2104 L
4391 2068 mt 4391 2140 L
4087 1978 mt 4159 1978 L
4123 1942 mt 4123 2014 L
3184 2307 mt 3256 2307 L
3220 2271 mt 3220 2343 L
3053 2584 mt 3125 2584 L
3089 2548 mt 3089 2620 L
2126 2597 mt 2198 2597 L
2162 2561 mt 2162 2633 L
3958 2497 mt 4030 2497 L
3994 2461 mt 3994 2533 L
2394 2311 mt 2466 2311 L
2430 2275 mt 2430 2347 L
4922 1878 mt 4994 1878 L
4958 1842 mt 4958 1914 L
2479 3184 mt 2551 3184 L
2515 3148 mt 2515 3220 L
1259 3273 mt 1331 3273 L
1295 3237 mt 1295 3309 L
2662 2035 mt 2734 2035 L
2698 1999 mt 2698 2071 L
3694 3242 mt 3766 3242 L
3730 3206 mt 3730 3278 L
2634 2946 mt 2706 2946 L
2670 2910 mt 2670 2982 L
3677 1538 mt 3749 1538 L
3713 1502 mt 3713 1574 L
4338 2637 mt 4410 2637 L
4374 2601 mt 4374 2673 L
3577 2099 mt 3649 2099 L
3613 2063 mt 3613 2135 L
2555 4072 mt 2627 4072 L
2591 4036 mt 2591 4108 L
3785 3908 mt 3857 3908 L
3821 3872 mt 3821 3944 L
3809 1892 mt 3881 1892 L
3845 1856 mt 3845 1928 L
3762 2427 mt 3834 2427 L
3798 2391 mt 3798 2463 L
3135 2242 mt 3207 2242 L
3171 2206 mt 3171 2278 L
2468 2125 mt 2540 2125 L
2504 2089 mt 2504 2161 L
4597 3405 mt 4669 3405 L
4633 3369 mt 4633 3441 L
4746 1845 mt 4818 1845 L
4782 1809 mt 4782 1881 L
4128 3306 mt 4200 3306 L
4164 3270 mt 4164 3342 L
4381 2218 mt 4453 2218 L
4417 2182 mt 4417 2254 L
2924 2930 mt 2996 2930 L
2960 2894 mt 2960 2966 L
3336 2334 mt 3408 2334 L
3372 2298 mt 3372 2370 L
3104 1526 mt 3176 1526 L
3140 1490 mt 3140 1562 L
3891 2741 mt 3963 2741 L
3927 2705 mt 3927 2777 L
4667 2135 mt 4739 2135 L
4703 2099 mt 4703 2171 L
1805 2736 mt 1877 2736 L
1841 2700 mt 1841 2772 L
3566 3051 mt 3638 3051 L
3602 3015 mt 3602 3087 L
4719 2480 mt 4791 2480 L
4755 2444 mt 4755 2516 L
3510 2764 mt 3582 2764 L
3546 2728 mt 3546 2800 L
2513 2713 mt 2585 2713 L
2549 2677 mt 2549 2749 L
3745 2057 mt 3817 2057 L
3781 2021 mt 3781 2093 L
3532 2488 mt 3604 2488 L
3568 2452 mt 3568 2524 L
3466 1732 mt 3538 1732 L
3502 1696 mt 3502 1768 L
3803 3468 mt 3875 3468 L
3839 3432 mt 3839 3504 L
3214 2773 mt 3286 2773 L
3250 2737 mt 3250 2809 L
3544 2046 mt 3616 2046 L
3580 2010 mt 3580 2082 L
4444 1872 mt 4516 1872 L
4480 1836 mt 4480 1908 L
4060 2989 mt 4132 2989 L
4096 2953 mt 4096 3025 L
3141 3367 mt 3213 3367 L
3177 3331 mt 3177 3403 L
3196 2519 mt 3268 2519 L
3232 2483 mt 3232 2555 L
4760 1671 mt 4832 1671 L
4796 1635 mt 4796 1707 L
3850 1898 mt 3922 1898 L
3886 1862 mt 3886 1934 L
3560 2007 mt 3632 2007 L
3596 1971 mt 3596 2043 L
2980 2120 mt 3052 2120 L
3016 2084 mt 3016 2156 L
4259 1936 mt 4331 1936 L
4295 1900 mt 4295 1972 L
2201 3081 mt 2273 3081 L
2237 3045 mt 2237 3117 L
3946 2541 mt 4018 2541 L
3982 2505 mt 3982 2577 L
3364 2914 mt 3436 2914 L
3400 2878 mt 3400 2950 L
3706 1514 mt 3778 1514 L
3742 1478 mt 3742 1550 L
2456 3358 mt 2528 3358 L
2492 3322 mt 2492 3394 L
3655 3693 mt 3727 3693 L
3691 3657 mt 3691 3729 L
3728 1371 mt 3800 1371 L
3764 1335 mt 3764 1407 L
4655 1277 mt 4727 1277 L
4691 1241 mt 4691 1313 L
2836 3331 mt 2908 3331 L
2872 3295 mt 2872 3367 L
2605 2370 mt 2677 2370 L
2641 2334 mt 2641 2406 L
2183 1593 mt 2255 1593 L
2219 1557 mt 2219 1629 L
2565 1715 mt 2637 1715 L
2601 1679 mt 2601 1751 L
2106 1858 mt 2178 1858 L
2142 1822 mt 2142 1894 L
5211 3063 mt 5283 3063 L
5247 3027 mt 5247 3099 L
4364 1662 mt 4436 1662 L
4400 1626 mt 4400 1698 L
4619 3235 mt 4691 3235 L
4655 3199 mt 4655 3271 L
3116 2288 mt 3188 2288 L
3152 2252 mt 3152 2324 L
3909 2365 mt 3981 2365 L
3945 2329 mt 3945 2401 L
2851 2727 mt 2923 2727 L
2887 2691 mt 2887 2763 L
2680 2718 mt 2752 2718 L
2716 2682 mt 2716 2754 L
5468  957 mt 5540  957 L
5504  921 mt 5504  993 L
4236 1634 mt 4308 1634 L
4272 1598 mt 4272 1670 L
4941 1388 mt 5013 1388 L
4977 1352 mt 4977 1424 L
2966 2731 mt 3038 2731 L
3002 2695 mt 3002 2767 L
3633 2904 mt 3705 2904 L
3669 2868 mt 3669 2940 L
5606  564 mt 5678  564 L
5642  528 mt 5642  600 L
4820 1748 mt 4892 1748 L
4856 1712 mt 4856 1784 L
2945 2920 mt 3017 2920 L
2981 2884 mt 2981 2956 L
3538 2815 mt 3610 2815 L
3574 2779 mt 3574 2851 L
2805 3125 mt 2877 3125 L
2841 3089 mt 2841 3161 L
4274 2859 mt 4346 2859 L
4310 2823 mt 4310 2895 L
3885 1838 mt 3957 1838 L
3921 1802 mt 3921 1874 L
3861 2909 mt 3933 2909 L
3897 2873 mt 3897 2945 L
3110 3376 mt 3182 3376 L
3146 3340 mt 3146 3412 L
4585 1990 mt 4657 1990 L
4621 1954 mt 4621 2026 L
2993 3099 mt 3065 3099 L
3029 3063 mt 3029 3135 L
3376 2392 mt 3448 2392 L
3412 2356 mt 3412 2428 L
3284 2978 mt 3356 2978 L
3320 2942 mt 3320 3014 L
5321 2150 mt 5393 2150 L
5357 2114 mt 5357 2186 L
3454 2418 mt 3526 2418 L
3490 2382 mt 3490 2454 L
5413 1561 mt 5485 1561 L
5449 1525 mt 5449 1597 L
5828 1643 mt 5900 1643 L
5864 1607 mt 5864 1679 L
3717 2830 mt 3789 2830 L
3753 2794 mt 3753 2866 L
4142 2170 mt 4214 2170 L
4178 2134 mt 4178 2206 L
4425 1764 mt 4497 1764 L
4461 1728 mt 4461 1800 L
1619 3131 mt 1691 3131 L
1655 3095 mt 1655 3167 L
4015 3479 mt 4087 3479 L
4051 3443 mt 4051 3515 L
3616 1802 mt 3688 1802 L
3652 1766 mt 3652 1838 L
2723 3164 mt 2795 3164 L
2759 3128 mt 2759 3200 L
4574 1823 mt 4646 1823 L
4610 1787 mt 4610 1859 L
3971 4305 mt 4043 4305 L
4007 4269 mt 4007 4341 L
3605 3069 mt 3677 3069 L
3641 3033 mt 3641 3105 L
4199 2801 mt 4271 2801 L
4235 2765 mt 4235 2837 L
3261 2140 mt 3333 2140 L
3297 2104 mt 3297 2176 L
3700 3265 mt 3772 3265 L
3736 3229 mt 3736 3301 L
4163 2051 mt 4235 2051 L
4199 2015 mt 4199 2087 L
 863 1865 mt  935 1865 L
 899 1829 mt  899 1901 L
3059 3112 mt 3131 3112 L
3095 3076 mt 3095 3148 L
4482 1462 mt 4554 1462 L
4518 1426 mt 4518 1498 L
2420 3395 mt 2492 3395 L
2456 3359 mt 2456 3431 L
1722 3797 mt 1794 3797 L
1758 3761 mt 1758 3833 L
2844 3281 mt 2916 3281 L
2880 3245 mt 2880 3317 L
5180 3022 mt 5252 3022 L
5216 2986 mt 5216 3058 L
4904 2567 mt 4976 2567 L
4940 2531 mt 4940 2603 L
3897 1448 mt 3969 1448 L
3933 1412 mt 3933 1484 L
3996 2405 mt 4068 2405 L
4032 2369 mt 4032 2441 L
4107 1972 mt 4179 1972 L
4143 1936 mt 4143 2008 L
3757 2194 mt 3829 2194 L
3793 2158 mt 3793 2230 L
2732 2228 mt 2804 2228 L
2768 2192 mt 2768 2264 L
2432 2298 mt 2504 2298 L
2468 2262 mt 2468 2334 L
3278 2475 mt 3350 2475 L
3314 2439 mt 3314 2511 L
5282 1152 mt 5354 1152 L
5318 1116 mt 5318 1188 L
2903 3822 mt 2975 3822 L
2939 3786 mt 2939 3858 L
4542 3227 mt 4614 3227 L
4578 3191 mt 4578 3263 L
2952 2673 mt 3024 2673 L
2988 2637 mt 2988 2709 L
4074 2967 mt 4146 2967 L
4110 2931 mt 4110 3003 L
3921 2704 mt 3993 2704 L
3957 2668 mt 3957 2740 L
2715 3340 mt 2787 3340 L
2751 3304 mt 2751 3376 L
2381 3206 mt 2453 3206 L
2417 3170 mt 2417 3242 L
4009 3595 mt 4081 3595 L
4045 3559 mt 4045 3631 L
3879 2067 mt 3951 2067 L
3915 2031 mt 3915 2103 L
2740 2894 mt 2812 2894 L
2776 2858 mt 2776 2930 L
3098 2951 mt 3170 2951 L
3134 2915 mt 3134 2987 L
4372 1930 mt 4444 1930 L
4408 1894 mt 4408 1966 L
3927 2029 mt 3999 2029 L
3963 1993 mt 3963 2065 L
4213 2189 mt 4285 2189 L
4249 2153 mt 4249 2225 L
4347 2691 mt 4419 2691 L
4383 2655 mt 4383 2727 L
2931 1087 mt 3003 1087 L
2967 1051 mt 2967 1123 L
3387 1995 mt 3459 1995 L
3423 1959 mt 3423 2031 L
3307 2338 mt 3379 2338 L
3343 2302 mt 3343 2374 L
2821 2750 mt 2893 2750 L
2857 2714 mt 2857 2786 L
2697 3752 mt 2769 3752 L
2733 3716 mt 2733 3788 L
4680 2854 mt 4752 2854 L
4716 2818 mt 4716 2890 L
2490 2545 mt 2562 2545 L
2526 2509 mt 2526 2581 L
3273 1756 mt 3345 1756 L
3309 1720 mt 3309 1792 L
3521 2549 mt 3593 2549 L
3557 2513 mt 3557 2585 L
4435 2388 mt 4507 2388 L
4471 2352 mt 4471 2424 L
2896 3106 mt 2968 3106 L
2932 3070 mt 2932 3142 L
3000 2650 mt 3072 2650 L
3036 2614 mt 3036 2686 L
2881 2615 mt 2953 2615 L
2917 2579 mt 2917 2651 L
4002 2160 mt 4074 2160 L
4038 2124 mt 4038 2196 L
3964 3198 mt 4036 3198 L
4000 3162 mt 4000 3234 L
1907 2677 mt 1979 2677 L
1943 2641 mt 1943 2713 L
2251 2782 mt 2323 2782 L
2287 2746 mt 2287 2818 L
3797 2935 mt 3869 2935 L
3833 2899 mt 3833 2971 L
3689 2700 mt 3761 2700 L
3725 2664 mt 3725 2736 L
2235 1923 mt 2307 1923 L
2271 1887 mt 2271 1959 L
4631 1336 mt 4703 1336 L
4667 1300 mt 4667 1372 L
3415 1772 mt 3487 1772 L
3451 1736 mt 3451 1808 L
5024 1049 mt 5096 1049 L
5060 1013 mt 5060 1085 L
2749 3017 mt 2821 3017 L
2785 2981 mt 2785 3053 L
3226 2223 mt 3298 2223 L
3262 2187 mt 3262 2259 L
3471 3137 mt 3543 3137 L
3507 3101 mt 3507 3173 L
3421 2879 mt 3493 2879 L
3457 2843 mt 3457 2915 L
3555 2493 mt 3627 2493 L
3591 2457 mt 3591 2529 L
4094 2145 mt 4166 2145 L
4130 2109 mt 4130 2181 L
3649 3942 mt 3721 3942 L
3685 3906 mt 3685 3978 L
2987 2115 mt 3059 2115 L
3023 2079 mt 3023 2151 L
5071 2209 mt 5143 2209 L
5107 2173 mt 5107 2245 L
2910 2956 mt 2982 2956 L
2946 2920 mt 2946 2992 L
3129 2889 mt 3201 2889 L
3165 2853 mt 3165 2925 L
2341 2532 mt 2413 2532 L
2377 2496 mt 2377 2568 L
2615 3087 mt 2687 3087 L
2651 3051 mt 2651 3123 L
1766 2695 mt 1838 2695 L
1802 2659 mt 1802 2731 L
2595 2073 mt 2667 2073 L
2631 2037 mt 2631 2109 L
6033 1298 mt 6105 1298 L
6069 1262 mt 6069 1334 L
2757 3877 mt 2829 3877 L
2793 3841 mt 2793 3913 L
4732 1006 mt 4804 1006 L
4768  970 mt 4768 1042 L
3381 2628 mt 3453 2628 L
3417 2592 mt 3417 2664 L
3627 3250 mt 3699 3250 L
3663 3214 mt 3663 3286 L
3873 2275 mt 3945 2275 L
3909 2239 mt 3909 2311 L
3460 2611 mt 3532 2611 L
3496 2575 mt 3496 2647 L
4961 2940 mt 5033 2940 L
4997 2904 mt 4997 2976 L
3594 3711 mt 3666 3711 L
3630 3675 mt 3630 3747 L
3160 2251 mt 3232 2251 L
3196 2215 mt 3196 2287 L
4805 2284 mt 4877 2284 L
4841 2248 mt 4841 2320 L
4290 3057 mt 4362 3057 L
4326 3021 mt 4326 3093 L
4135 3625 mt 4207 3625 L
4171 3589 mt 4171 3661 L
4100 2884 mt 4172 2884 L
4136 2848 mt 4136 2920 L
2797 1966 mt 2869 1966 L
2833 1930 mt 2833 2002 L
3915 2316 mt 3987 2316 L
3951 2280 mt 3951 2352 L
3178 2432 mt 3250 2432 L
3214 2396 mt 3214 2468 L
4472 2745 mt 4544 2745 L
4508 2709 mt 4508 2781 L
2973 2347 mt 3045 2347 L
3009 2311 mt 3009 2383 L
3147 1723 mt 3219 1723 L
3183 1687 mt 3183 1759 L
2828 2778 mt 2900 2778 L
2864 2742 mt 2864 2814 L
3588 2501 mt 3660 2501 L
3624 2465 mt 3624 2537 L
3952 2383 mt 4024 2383 L
3988 2347 mt 3988 2419 L
4251 1181 mt 4323 1181 L
4287 1145 mt 4287 1217 L
4886 1680 mt 4958 1680 L
4922 1644 mt 4922 1716 L
2545 2787 mt 2617 2787 L
2581 2751 mt 2581 2823 L
3903 1698 mt 3975 1698 L
3939 1662 mt 3939 1734 L
2652 3314 mt 2724 3314 L
2688 3278 mt 2688 3350 L
3571 1851 mt 3643 1851 L
3607 1815 mt 3607 1887 L
4453 3000 mt 4525 3000 L
4489 2964 mt 4489 3036 L
3516 3257 mt 3588 3257 L
3552 3221 mt 3552 3293 L
4693 2165 mt 4765 2165 L
4729 2129 mt 4729 2201 L
3232 2440 mt 3304 2440 L
3268 2404 mt 3268 2476 L
1937 3436 mt 2009 3436 L
1973 3400 mt 1973 3472 L
3780 1614 mt 3852 1614 L
3816 1578 mt 3816 1650 L
4608 2633 mt 4680 2633 L
4644 2597 mt 4644 2669 L
3172 3774 mt 3244 3774 L
3208 3738 mt 3208 3810 L
4643 1911 mt 4715 1911 L
4679 1875 mt 4679 1947 L
4041 2983 mt 4113 2983 L
4077 2947 mt 4077 3019 L
2085 2329 mt 2157 2329 L
2121 2293 mt 2121 2365 L
3814 3220 mt 3886 3220 L
3850 3184 mt 3850 3256 L
4390 3581 mt 4462 3581 L
4426 3545 mt 4426 3617 L
3404 2265 mt 3476 2265 L
3440 2229 mt 3440 2301 L
3477 2374 mt 3549 2374 L
3513 2338 mt 3513 2410 L
3977 2606 mt 4049 2606 L
4013 2570 mt 4013 2642 L
3768 3425 mt 3840 3425 L
3804 3389 mt 3804 3461 L
3751 3289 mt 3823 3289 L
3787 3253 mt 3787 3325 L
4298 3045 mt 4370 3045 L
4334 3009 mt 4334 3081 L
5002 2471 mt 5074 2471 L
5038 2435 mt 5038 2507 L
4553 2180 mt 4625 2180 L
4589 2144 mt 4589 2216 L
2706 2641 mt 2778 2641 L
2742 2605 mt 2742 2677 L
3432 3178 mt 3504 3178 L
3468 3142 mt 3468 3214 L
4221 1318 mt 4293 1318 L
4257 1282 mt 4257 1354 L
2355 3446 mt 2427 3446 L
2391 3410 mt 2391 3482 L
4836 2571 mt 4908 2571 L
4872 2535 mt 4872 2607 L
4184 3980 mt 4256 3980 L
4220 3944 mt 4220 4016 L
3983 2012 mt 4055 2012 L
4019 1976 mt 4019 2048 L
5122 1779 mt 5194 1779 L
5158 1743 mt 5158 1815 L
1965 2874 mt 2037 2874 L
2001 2838 mt 2001 2910 L
2063 2554 mt 2135 2554 L
2099 2518 mt 2099 2590 L
3449 2130 mt 3521 2130 L
3485 2094 mt 3485 2166 L
1842 3540 mt 1914 3540 L
1878 3504 mt 1878 3576 L
3934 2024 mt 4006 2024 L
3970 1988 mt 3970 2060 L
4398 2580 mt 4470 2580 L
4434 2544 mt 4434 2616 L
4121 2089 mt 4193 2089 L
4157 2053 mt 4157 2125 L
4266 1653 mt 4338 1653 L
4302 1617 mt 4302 1689 L
2888 2356 mt 2960 2356 L
2924 2320 mt 2924 2392 L
3832 2593 mt 3904 2593 L
3868 2557 mt 3868 2629 L
2523 2449 mt 2595 2449 L
2559 2413 mt 2559 2485 L
4243 1948 mt 4315 1948 L
4279 1912 mt 4279 1984 L
4775 1689 mt 4847 1689 L
4811 1653 mt 4811 1725 L
2917 2343 mt 2989 2343 L
2953 2307 mt 2953 2379 L
2773 2233 mt 2845 2233 L
2809 2197 mt 2809 2269 L
3527 2185 mt 3599 2185 L
3563 2149 mt 3563 2221 L
4706 1476 mt 4778 1476 L
4742 1440 mt 4742 1512 L
3740 2796 mt 3812 2796 L
3776 2760 mt 3776 2832 L
4416 1984 mt 4488 1984 L
4452 1948 mt 4452 2020 L
4206 3553 mt 4278 3553 L
4242 3517 mt 4242 3589 L
3313 1624 mt 3385 1624 L
3349 1588 mt 3349 1660 L
3499 3005 mt 3571 3005 L
3535 2969 mt 3535 3041 L
4322 2754 mt 4394 2754 L
4358 2718 mt 4358 2790 L
4463 1232 mt 4535 1232 L
4499 1196 mt 4499 1268 L
4564 1354 mt 4636 1354 L
4600 1318 mt 4600 1390 L
2624 2994 mt 2696 2994 L
2660 2958 mt 2660 3030 L
3123 2820 mt 3195 2820 L
3159 2784 mt 3159 2856 L
3599 1404 mt 3671 1404 L
3635 1368 mt 3635 1440 L
3290 2175 mt 3362 2175 L
3326 2139 mt 3326 2211 L
3549 2562 mt 3621 2562 L
3585 2526 mt 3585 2598 L
5245 3028 mt 5317 3028 L
5281 2992 mt 5281 3064 L
4034 1707 mt 4106 1707 L
4070 1671 mt 4070 1743 L
5150 3157 mt 5222 3157 L
5186 3121 mt 5186 3193 L
2671 3349 mt 2743 3349 L
2707 3313 mt 2707 3385 L
4330 2109 mt 4402 2109 L
4366 2073 mt 4366 2145 L
3398 2768 mt 3470 2768 L
3434 2732 mt 3434 2804 L
3078 2510 mt 3150 2510 L
3114 2474 mt 3114 2546 L
5365 1207 mt 5437 1207 L
5401 1171 mt 5401 1243 L
3621 1904 mt 3693 1904 L
3657 1868 mt 3657 1940 L
4869 1489 mt 4941 1489 L
4905 1453 mt 4905 1525 L
2866 2462 mt 2938 2462 L
2902 2426 mt 2902 2498 L
2165 3151 mt 2237 3151 L
2201 3115 mt 2201 3187 L
gs 899 414 5363 4203 rc
gr

0 sg
2752 5104 mt 
(\(S,LFCC,GMM\)) s
 482 3259 mt  -90 rotate
(\(S,PAC,GMM\)) s
90 rotate
2975  223 mt 
(Corr = 0.35) s

end %%Color Dict

eplot
%%EndObject

epage
end

showpage

%%Trailer
%%EOF
