%!PS-Adobe-3.0 EPSF-3.0
%%Creator: MATLAB, The Mathworks, Inc. Version 7.7.0.471 (R2008b). Operating System: Microsoft Windows XP.
%%Title: Pictures\main_zoo_mvar_analysis_data_BMI_xcorr_bmi_p1_k1_5_9.eps
%%CreationDate: 10/26/2009  05:44:08
%%DocumentNeededFonts: Helvetica
%%DocumentProcessColors: Cyan Magenta Yellow Black
%%LanguageLevel: 2
%%Pages: 1
%%BoundingBox:    21   180   549   616
%%EndComments

%%BeginProlog
% MathWorks dictionary
/MathWorks 160 dict begin
% definition operators
/bdef {bind def} bind def
/ldef {load def} bind def
/xdef {exch def} bdef
/xstore {exch store} bdef
% operator abbreviations
/c  /clip ldef
/cc /concat ldef
/cp /closepath ldef
/gr /grestore ldef
/gs /gsave ldef
/mt /moveto ldef
/np /newpath ldef
/cm /currentmatrix ldef
/sm /setmatrix ldef
/rm /rmoveto ldef
/rl /rlineto ldef
/s {show newpath} bdef
/sc {setcmykcolor} bdef
/sr /setrgbcolor ldef
/sg /setgray ldef
/w /setlinewidth ldef
/j /setlinejoin ldef
/cap /setlinecap ldef
/rc {rectclip} bdef
/rf {rectfill} bdef
% page state control
/pgsv () def
/bpage {/pgsv save def} bdef
/epage {pgsv restore} bdef
/bplot /gsave ldef
/eplot {stroke grestore} bdef
% orientation switch
/portraitMode 0 def /landscapeMode 1 def /rotateMode 2 def
% coordinate system mappings
/dpi2point 0 def
% font control
/FontSize 0 def
/FMS {/FontSize xstore findfont [FontSize 0 0 FontSize neg 0 0]
  makefont setfont} bdef
/ISOLatin1Encoding where {pop /WindowsLatin1Encoding 256 array bdef
ISOLatin1Encoding WindowsLatin1Encoding copy pop
/.notdef/.notdef/quotesinglbase/florin/quotedblbase/ellipsis/dagger
/daggerdbl/circumflex/perthousand/Scaron/guilsinglleft/OE/.notdef/.notdef
/.notdef/.notdef/quoteleft/quoteright/quotedblleft/quotedblright/bullet
/endash/emdash/tilde/trademark/scaron/guilsinglright/oe/.notdef/.notdef
/Ydieresis WindowsLatin1Encoding 128 32 getinterval astore pop}
{/WindowsLatin1Encoding StandardEncoding bdef} ifelse
/reencode {exch dup where {pop load} {pop StandardEncoding} ifelse
  exch dup 3 1 roll findfont dup length dict begin
  { 1 index /FID ne {def}{pop pop} ifelse } forall
  /Encoding exch def currentdict end definefont pop} bdef
/isroman {findfont /CharStrings get /Agrave known} bdef
/FMSR {3 1 roll 1 index dup isroman {reencode} {pop pop} ifelse
  exch FMS} bdef
/csm {1 dpi2point div -1 dpi2point div scale neg translate
 dup landscapeMode eq {pop -90 rotate}
  {rotateMode eq {90 rotate} if} ifelse} bdef
% line types: solid, dotted, dashed, dotdash
/SO { [] 0 setdash } bdef
/DO { [.5 dpi2point mul 4 dpi2point mul] 0 setdash } bdef
/DA { [6 dpi2point mul] 0 setdash } bdef
/DD { [.5 dpi2point mul 4 dpi2point mul 6 dpi2point mul 4
  dpi2point mul] 0 setdash } bdef
% macros for lines and objects
/L {lineto stroke} bdef
/MP {3 1 roll moveto 1 sub {rlineto} repeat} bdef
/AP {{rlineto} repeat} bdef
/PDlw -1 def
/W {/PDlw currentlinewidth def setlinewidth} def
/PP {closepath eofill} bdef
/DP {closepath stroke} bdef
/MR {4 -2 roll moveto dup  0 exch rlineto exch 0 rlineto
  neg 0 exch rlineto closepath} bdef
/FR {MR stroke} bdef
/PR {MR fill} bdef
/L1i {{currentfile picstr readhexstring pop} image} bdef
/tMatrix matrix def
/MakeOval {newpath tMatrix currentmatrix pop translate scale
0 0 1 0 360 arc tMatrix setmatrix} bdef
/FO {MakeOval stroke} bdef
/PO {MakeOval fill} bdef
/PD {currentlinewidth 2 div 0 360 arc fill
   PDlw -1 eq not {PDlw w /PDlw -1 def} if} def
/FA {newpath tMatrix currentmatrix pop translate scale
  0 0 1 5 -2 roll arc tMatrix setmatrix stroke} bdef
/PA {newpath tMatrix currentmatrix pop	translate 0 0 moveto scale
  0 0 1 5 -2 roll arc closepath tMatrix setmatrix fill} bdef
/FAn {newpath tMatrix currentmatrix pop translate scale
  0 0 1 5 -2 roll arcn tMatrix setmatrix stroke} bdef
/PAn {newpath tMatrix currentmatrix pop translate 0 0 moveto scale
  0 0 1 5 -2 roll arcn closepath tMatrix setmatrix fill} bdef
/vradius 0 def /hradius 0 def /lry 0 def
/lrx 0 def /uly 0 def /ulx 0 def /rad 0 def
/MRR {/vradius xdef /hradius xdef /lry xdef /lrx xdef /uly xdef
  /ulx xdef newpath tMatrix currentmatrix pop ulx hradius add uly
  vradius add translate hradius vradius scale 0 0 1 180 270 arc 
  tMatrix setmatrix lrx hradius sub uly vradius add translate
  hradius vradius scale 0 0 1 270 360 arc tMatrix setmatrix
  lrx hradius sub lry vradius sub translate hradius vradius scale
  0 0 1 0 90 arc tMatrix setmatrix ulx hradius add lry vradius sub
  translate hradius vradius scale 0 0 1 90 180 arc tMatrix setmatrix
  closepath} bdef
/FRR {MRR stroke } bdef
/PRR {MRR fill } bdef
/MlrRR {/lry xdef /lrx xdef /uly xdef /ulx xdef /rad lry uly sub 2 div def
  newpath tMatrix currentmatrix pop ulx rad add uly rad add translate
  rad rad scale 0 0 1 90 270 arc tMatrix setmatrix lrx rad sub lry rad
  sub translate rad rad scale 0 0 1 270 90 arc tMatrix setmatrix
  closepath} bdef
/FlrRR {MlrRR stroke } bdef
/PlrRR {MlrRR fill } bdef
/MtbRR {/lry xdef /lrx xdef /uly xdef /ulx xdef /rad lrx ulx sub 2 div def
  newpath tMatrix currentmatrix pop ulx rad add uly rad add translate
  rad rad scale 0 0 1 180 360 arc tMatrix setmatrix lrx rad sub lry rad
  sub translate rad rad scale 0 0 1 0 180 arc tMatrix setmatrix
  closepath} bdef
/FtbRR {MtbRR stroke } bdef
/PtbRR {MtbRR fill } bdef
/stri 6 array def /dtri 6 array def
/smat 6 array def /dmat 6 array def
/tmat1 6 array def /tmat2 6 array def /dif 3 array def
/asub {/ind2 exch def /ind1 exch def dup dup
  ind1 get exch ind2 get sub exch } bdef
/tri_to_matrix {
  2 0 asub 3 1 asub 4 0 asub 5 1 asub
  dup 0 get exch 1 get 7 -1 roll astore } bdef
/compute_transform {
  dmat dtri tri_to_matrix tmat1 invertmatrix 
  smat stri tri_to_matrix tmat2 concatmatrix } bdef
/ds {stri astore pop} bdef
/dt {dtri astore pop} bdef
/db {2 copy /cols xdef /rows xdef mul dup 3 mul string
  currentfile 
  3 index 0 eq {/ASCIIHexDecode filter}
  {/ASCII85Decode filter 3 index 2 eq {/RunLengthDecode filter} if }
  ifelse exch readstring pop
  dup 0 3 index getinterval /rbmap xdef
  dup 2 index dup getinterval /gbmap xdef
  1 index dup 2 mul exch getinterval /bbmap xdef pop pop}bdef
/it {gs np dtri aload pop moveto lineto lineto cp c
  cols rows 8 compute_transform 
  rbmap gbmap bbmap true 3 colorimage gr}bdef
/il {newpath moveto lineto stroke}bdef
currentdict end def
%%EndProlog

%%BeginSetup
MathWorks begin

0 cap

end
%%EndSetup

%%Page: 1 1
%%BeginPageSetup
%%PageBoundingBox:    21   180   549   616
MathWorks begin
bpage
%%EndPageSetup

%%BeginObject: obj1
bplot

/dpi2point 12 def
portraitMode 0216 7344 csm

   40   -48  6343  5231 rc
85 dict begin %Colortable dictionary
/c0 { 0.000000 0.000000 0.000000 sr} bdef
/c1 { 1.000000 1.000000 1.000000 sr} bdef
/c2 { 0.900000 0.000000 0.000000 sr} bdef
/c3 { 0.000000 0.820000 0.000000 sr} bdef
/c4 { 0.000000 0.000000 0.800000 sr} bdef
/c5 { 0.910000 0.820000 0.320000 sr} bdef
/c6 { 1.000000 0.260000 0.820000 sr} bdef
/c7 { 0.000000 0.820000 0.820000 sr} bdef
c0
1 j
1 sg
   0    0 6919 5187 rf
6 w
0 4202 5362 0 0 -4202 899 4616 4 MP
PP
-5362 0 0 4202 5362 0 0 -4202 899 4616 5 MP stroke
4 w
DO
SO
6 w
0 sg
 899  414 mt 6261  414 L
 899 4616 mt 6261 4616 L
6261 4616 mt 6261  414 L
 899 4616 mt  899  414 L
 899 4616 mt 6261 4616 L
 899 4616 mt  899  414 L
1776 4616 mt 1776 4562 L
1776  414 mt 1776  467 L
%%IncludeResource: font Helvetica
/Helvetica /WindowsLatin1Encoding 240 FMSR

1610 4873 mt 
(0.1) s
2653 4616 mt 2653 4562 L
2653  414 mt 2653  467 L
2487 4873 mt 
(0.2) s
3530 4616 mt 3530 4562 L
3530  414 mt 3530  467 L
3364 4873 mt 
(0.3) s
4408 4616 mt 4408 4562 L
4408  414 mt 4408  467 L
4242 4873 mt 
(0.4) s
5285 4616 mt 5285 4562 L
5285  414 mt 5285  467 L
5119 4873 mt 
(0.5) s
6162 4616 mt 6162 4562 L
6162  414 mt 6162  467 L
5996 4873 mt 
(0.6) s
 899 3934 mt  952 3934 L
6261 3934 mt 6207 3934 L
 397 4023 mt 
(0.05) s
 899 3253 mt  952 3253 L
6261 3253 mt 6207 3253 L
 531 3342 mt 
(0.1) s
 899 2572 mt  952 2572 L
6261 2572 mt 6207 2572 L
 397 2661 mt 
(0.15) s
 899 1891 mt  952 1891 L
6261 1891 mt 6207 1891 L
 531 1980 mt 
(0.2) s
 899 1209 mt  952 1209 L
6261 1209 mt 6207 1209 L
 397 1298 mt 
(0.25) s
 899  528 mt  952  528 L
6261  528 mt 6207  528 L
 531  617 mt 
(0.3) s
 899  414 mt 6261  414 L
 899 4616 mt 6261 4616 L
6261 4616 mt 6261  414 L
 899 4616 mt  899  414 L
gs 899 414 5363 4203 rc
gr

/c8 { 0.000000 0.000000 1.000000 sr} bdef
c8
2459 3194 mt 2531 3194 L
2495 3158 mt 2495 3230 L
1534 4484 mt 1606 4484 L
1570 4448 mt 1570 4520 L
1108 4615 mt 1180 4615 L
1144 4579 mt 1144 4651 L
1068 4536 mt 1140 4536 L
1104 4500 mt 1104 4572 L
 979 3542 mt 1051 3542 L
1015 3506 mt 1015 3578 L
 866 4494 mt  938 4494 L
 902 4458 mt  902 4530 L
 863 4316 mt  935 4316 L
 899 4280 mt  899 4352 L
 966 3896 mt 1038 3896 L
1002 3860 mt 1002 3932 L
 866 4160 mt  938 4160 L
 902 4124 mt  902 4196 L
2623 3785 mt 2695 3785 L
2659 3749 mt 2659 3821 L
4349 3233 mt 4421 3233 L
4385 3197 mt 4385 3269 L
 930 3995 mt 1002 3995 L
 966 3959 mt  966 4031 L
1298 3987 mt 1370 3987 L
1334 3951 mt 1334 4023 L
1158 4088 mt 1230 4088 L
1194 4052 mt 1194 4124 L
1159 3719 mt 1231 3719 L
1195 3683 mt 1195 3755 L
1463 4130 mt 1535 4130 L
1499 4094 mt 1499 4166 L
1014 4590 mt 1086 4590 L
1050 4554 mt 1050 4626 L
 864 3930 mt  936 3930 L
 900 3894 mt  900 3966 L
 991 4358 mt 1063 4358 L
1027 4322 mt 1027 4394 L
 877 4609 mt  949 4609 L
 913 4573 mt  913 4645 L
 896 4572 mt  968 4572 L
 932 4536 mt  932 4608 L
2839 1537 mt 2911 1537 L
2875 1501 mt 2875 1573 L
 916 2348 mt  988 2348 L
 952 2312 mt  952 2384 L
 886  598 mt  958  598 L
 922  562 mt  922  634 L
 864 3722 mt  936 3722 L
 900 3686 mt  900 3758 L
 928 4583 mt 1000 4583 L
 964 4547 mt  964 4619 L
 879 4348 mt  951 4348 L
 915 4312 mt  915 4384 L
2029 4266 mt 2101 4266 L
2065 4230 mt 2065 4302 L
 993 4466 mt 1065 4466 L
1029 4430 mt 1029 4502 L
 870 4601 mt  942 4601 L
 906 4565 mt  906 4637 L
1262 4612 mt 1334 4612 L
1298 4576 mt 1298 4648 L
1152 3800 mt 1224 3800 L
1188 3764 mt 1188 3836 L
 996 4609 mt 1068 4609 L
1032 4573 mt 1032 4645 L
 951 4406 mt 1023 4406 L
 987 4370 mt  987 4442 L
1047 4565 mt 1119 4565 L
1083 4529 mt 1083 4601 L
1104 4507 mt 1176 4507 L
1140 4471 mt 1140 4543 L
 863 4408 mt  935 4408 L
 899 4372 mt  899 4444 L
1495 4400 mt 1567 4400 L
1531 4364 mt 1531 4436 L
1236 3603 mt 1308 3603 L
1272 3567 mt 1272 3639 L
1521 4615 mt 1593 4615 L
1557 4579 mt 1557 4651 L
1909 4592 mt 1981 4592 L
1945 4556 mt 1945 4628 L
1012 4143 mt 1084 4143 L
1048 4107 mt 1048 4179 L
 881 4611 mt  953 4611 L
 917 4575 mt  917 4647 L
 890 1497 mt  962 1497 L
 926 1461 mt  926 1533 L
3141 4572 mt 3213 4572 L
3177 4536 mt 3177 4608 L
 863 4559 mt  935 4559 L
 899 4523 mt  899 4595 L
1087 4166 mt 1159 4166 L
1123 4130 mt 1123 4202 L
 887 4600 mt  959 4600 L
 923 4564 mt  923 4636 L
 869 4568 mt  941 4568 L
 905 4532 mt  905 4604 L
1951 4479 mt 2023 4479 L
1987 4443 mt 1987 4515 L
 890 2008 mt  962 2008 L
 926 1972 mt  926 2044 L
 996 3888 mt 1068 3888 L
1032 3852 mt 1032 3924 L
 916 3099 mt  988 3099 L
 952 3063 mt  952 3135 L
1226 4439 mt 1298 4439 L
1262 4403 mt 1262 4475 L
 900 2910 mt  972 2910 L
 936 2874 mt  936 2946 L
 882 4256 mt  954 4256 L
 918 4220 mt  918 4292 L
5067 3647 mt 5139 3647 L
5103 3611 mt 5103 3683 L
3845 3761 mt 3917 3761 L
3881 3725 mt 3881 3797 L
2485 4384 mt 2557 4384 L
2521 4348 mt 2521 4420 L
 870 4612 mt  942 4612 L
 906 4576 mt  906 4648 L
1251 3277 mt 1323 3277 L
1287 3241 mt 1287 3313 L
1331 4542 mt 1403 4542 L
1367 4506 mt 1367 4578 L
 863 3896 mt  935 3896 L
 899 3860 mt  899 3932 L
 867 4485 mt  939 4485 L
 903 4449 mt  903 4521 L
 897 4504 mt  969 4504 L
 933 4468 mt  933 4540 L
1002 4027 mt 1074 4027 L
1038 3991 mt 1038 4063 L
 950 4611 mt 1022 4611 L
 986 4575 mt  986 4647 L
1545 4615 mt 1617 4615 L
1581 4579 mt 1581 4651 L
1160 4063 mt 1232 4063 L
1196 4027 mt 1196 4099 L
 867 4392 mt  939 4392 L
 903 4356 mt  903 4428 L
1331 4612 mt 1403 4612 L
1367 4576 mt 1367 4648 L
1039 4502 mt 1111 4502 L
1075 4466 mt 1075 4538 L
 889 3852 mt  961 3852 L
 925 3816 mt  925 3888 L
 866 4198 mt  938 4198 L
 902 4162 mt  902 4234 L
 917 2721 mt  989 2721 L
 953 2685 mt  953 2757 L
1030 4615 mt 1102 4615 L
1066 4579 mt 1066 4651 L
1535 4125 mt 1607 4125 L
1571 4089 mt 1571 4161 L
 945 4601 mt 1017 4601 L
 981 4565 mt  981 4637 L
 863 4065 mt  935 4065 L
 899 4029 mt  899 4101 L
1232 4041 mt 1304 4041 L
1268 4005 mt 1268 4077 L
6225 3194 mt 6297 3194 L
6261 3158 mt 6261 3230 L
 898 4454 mt  970 4454 L
 934 4418 mt  934 4490 L
1074 4574 mt 1146 4574 L
1110 4538 mt 1110 4610 L
 874 4600 mt  946 4600 L
 910 4564 mt  910 4636 L
 892 4589 mt  964 4589 L
 928 4553 mt  928 4625 L
1022 3830 mt 1094 3830 L
1058 3794 mt 1058 3866 L
1427  671 mt 1499  671 L
1463  635 mt 1463  707 L
1014 4153 mt 1086 4153 L
1050 4117 mt 1050 4189 L
 863 4601 mt  935 4601 L
 899 4565 mt  899 4637 L
1107 3545 mt 1179 3545 L
1143 3509 mt 1143 3581 L
1408 4606 mt 1480 4606 L
1444 4570 mt 1444 4642 L
1173 2150 mt 1245 2150 L
1209 2114 mt 1209 2186 L
 875 4000 mt  947 4000 L
 911 3964 mt  911 4036 L
1034 4465 mt 1106 4465 L
1070 4429 mt 1070 4501 L
 877 4374 mt  949 4374 L
 913 4338 mt  913 4410 L
 937 4490 mt 1009 4490 L
 973 4454 mt  973 4526 L
 866 4562 mt  938 4562 L
 902 4526 mt  902 4598 L
2077 4606 mt 2149 4606 L
2113 4570 mt 2113 4642 L
 863 4562 mt  935 4562 L
 899 4526 mt  899 4598 L
 866 3602 mt  938 3602 L
 902 3566 mt  902 3638 L
1602 4037 mt 1674 4037 L
1638 4001 mt 1638 4073 L
1003 3028 mt 1075 3028 L
1039 2992 mt 1039 3064 L
1585 2356 mt 1657 2356 L
1621 2320 mt 1621 2392 L
 966 4321 mt 1038 4321 L
1002 4285 mt 1002 4357 L
1078 3829 mt 1150 3829 L
1114 3793 mt 1114 3865 L
 926 4040 mt  998 4040 L
 962 4004 mt  962 4076 L
 948 4522 mt 1020 4522 L
 984 4486 mt  984 4558 L
1303 4239 mt 1375 4239 L
1339 4203 mt 1339 4275 L
1745 3641 mt 1817 3641 L
1781 3605 mt 1781 3677 L
1166 4613 mt 1238 4613 L
1202 4577 mt 1202 4649 L
 864 4459 mt  936 4459 L
 900 4423 mt  900 4495 L
1077 4549 mt 1149 4549 L
1113 4513 mt 1113 4585 L
 873 4142 mt  945 4142 L
 909 4106 mt  909 4178 L
 917 3913 mt  989 3913 L
 953 3877 mt  953 3949 L
1149 3328 mt 1221 3328 L
1185 3292 mt 1185 3364 L
1465 2068 mt 1537 2068 L
1501 2032 mt 1501 2104 L
 968 4537 mt 1040 4537 L
1004 4501 mt 1004 4573 L
 864 4500 mt  936 4500 L
 900 4464 mt  900 4536 L
 984 4542 mt 1056 4542 L
1020 4506 mt 1020 4578 L
1413 3762 mt 1485 3762 L
1449 3726 mt 1449 3798 L
 979 4486 mt 1051 4486 L
1015 4450 mt 1015 4522 L
1060 1892 mt 1132 1892 L
1096 1856 mt 1096 1928 L
 942 4510 mt 1014 4510 L
 978 4474 mt  978 4546 L
 892 3481 mt  964 3481 L
 928 3445 mt  928 3517 L
2126 4087 mt 2198 4087 L
2162 4051 mt 2162 4123 L
1391 3894 mt 1463 3894 L
1427 3858 mt 1427 3930 L
 879 4591 mt  951 4591 L
 915 4555 mt  915 4627 L
 863 3990 mt  935 3990 L
 899 3954 mt  899 4026 L
 903 4404 mt  975 4404 L
 939 4368 mt  939 4440 L
 867 2611 mt  939 2611 L
 903 2575 mt  903 2647 L
 922 3732 mt  994 3732 L
 958 3696 mt  958 3768 L
 881 3242 mt  953 3242 L
 917 3206 mt  917 3278 L
1085 3854 mt 1157 3854 L
1121 3818 mt 1121 3890 L
 863 3809 mt  935 3809 L
 899 3773 mt  899 3845 L
1225 4502 mt 1297 4502 L
1261 4466 mt 1261 4538 L
 863 4419 mt  935 4419 L
 899 4383 mt  899 4455 L
 919 4498 mt  991 4498 L
 955 4462 mt  955 4534 L
 864 4568 mt  936 4568 L
 900 4532 mt  900 4604 L
1735 4270 mt 1807 4270 L
1771 4234 mt 1771 4306 L
2012 4218 mt 2084 4218 L
2048 4182 mt 2048 4254 L
 883 4372 mt  955 4372 L
 919 4336 mt  919 4408 L
 871 4004 mt  943 4004 L
 907 3968 mt  907 4040 L
 968 4170 mt 1040 4170 L
1004 4134 mt 1004 4206 L
 962 3905 mt 1034 3905 L
 998 3869 mt  998 3941 L
1213 4211 mt 1285 4211 L
1249 4175 mt 1249 4247 L
1172 4535 mt 1244 4535 L
1208 4499 mt 1208 4571 L
 920 3751 mt  992 3751 L
 956 3715 mt  956 3787 L
 866 2202 mt  938 2202 L
 902 2166 mt  902 2238 L
1879 4139 mt 1951 4139 L
1915 4103 mt 1915 4175 L
1028 4452 mt 1100 4452 L
1064 4416 mt 1064 4488 L
2679 3773 mt 2751 3773 L
2715 3737 mt 2715 3809 L
 863 4278 mt  935 4278 L
 899 4242 mt  899 4314 L
1121 4615 mt 1193 4615 L
1157 4579 mt 1157 4651 L
 863 3475 mt  935 3475 L
 899 3439 mt  899 3511 L
1191 4462 mt 1263 4462 L
1227 4426 mt 1227 4498 L
 863 4484 mt  935 4484 L
 899 4448 mt  899 4520 L
 863 4606 mt  935 4606 L
 899 4570 mt  899 4642 L
 910 3826 mt  982 3826 L
 946 3790 mt  946 3862 L
1136 3268 mt 1208 3268 L
1172 3232 mt 1172 3304 L
 890 3797 mt  962 3797 L
 926 3761 mt  926 3833 L
 879 4604 mt  951 4604 L
 915 4568 mt  915 4640 L
1344 4310 mt 1416 4310 L
1380 4274 mt 1380 4346 L
1001 2031 mt 1073 2031 L
1037 1995 mt 1037 2067 L
1204 4588 mt 1276 4588 L
1240 4552 mt 1240 4624 L
1054 3816 mt 1126 3816 L
1090 3780 mt 1090 3852 L
 982 4586 mt 1054 4586 L
1018 4550 mt 1018 4622 L
1249 4456 mt 1321 4456 L
1285 4420 mt 1285 4492 L
1386 3425 mt 1458 3425 L
1422 3389 mt 1422 3461 L
1103 3305 mt 1175 3305 L
1139 3269 mt 1139 3341 L
 910 4498 mt  982 4498 L
 946 4462 mt  946 4534 L
 888 1973 mt  960 1973 L
 924 1937 mt  924 2009 L
 869 3599 mt  941 3599 L
 905 3563 mt  905 3635 L
1116 4579 mt 1188 4579 L
1152 4543 mt 1152 4615 L
 863 4128 mt  935 4128 L
 899 4092 mt  899 4164 L
 961 3911 mt 1033 3911 L
 997 3875 mt  997 3947 L
1322 3998 mt 1394 3998 L
1358 3962 mt 1358 4034 L
1146 4264 mt 1218 4264 L
1182 4228 mt 1182 4300 L
1113 4611 mt 1185 4611 L
1149 4575 mt 1149 4647 L
 936 4427 mt 1008 4427 L
 972 4391 mt  972 4463 L
 988 4472 mt 1060 4472 L
1024 4436 mt 1024 4508 L
1561 3298 mt 1633 3298 L
1597 3262 mt 1597 3334 L
1454 4613 mt 1526 4613 L
1490 4577 mt 1490 4649 L
 863  813 mt  935  813 L
 899  777 mt  899  849 L
2830 4336 mt 2902 4336 L
2866 4300 mt 2866 4372 L
1278 4349 mt 1350 4349 L
1314 4313 mt 1314 4385 L
 979 4387 mt 1051 4387 L
1015 4351 mt 1015 4423 L
1195 2808 mt 1267 2808 L
1231 2772 mt 1231 2844 L
 961 4507 mt 1033 4507 L
 997 4471 mt  997 4543 L
 899 4610 mt  971 4610 L
 935 4574 mt  935 4646 L
 939 2103 mt 1011 2103 L
 975 2067 mt  975 2139 L
1284 4138 mt 1356 4138 L
1320 4102 mt 1320 4174 L
1269  414 mt 1341  414 L
1305  378 mt 1305  450 L
 975 4556 mt 1047 4556 L
1011 4520 mt 1011 4592 L
 895 3262 mt  967 3262 L
 931 3226 mt  931 3298 L
1745 3641 mt 1817 3641 L
1781 3605 mt 1781 3677 L
1387 4196 mt 1459 4196 L
1423 4160 mt 1423 4232 L
 906 2991 mt  978 2991 L
 942 2955 mt  942 3027 L
 883 3588 mt  955 3588 L
 919 3552 mt  919 3624 L
 978 4094 mt 1050 4094 L
1014 4058 mt 1014 4130 L
1211 3826 mt 1283 3826 L
1247 3790 mt 1247 3862 L
 942 3159 mt 1014 3159 L
 978 3123 mt  978 3195 L
 878 2927 mt  950 2927 L
 914 2891 mt  914 2963 L
 927 4406 mt  999 4406 L
 963 4370 mt  963 4442 L
 908 4172 mt  980 4172 L
 944 4136 mt  944 4208 L
1079 4204 mt 1151 4204 L
1115 4168 mt 1115 4240 L
 865 4168 mt  937 4168 L
 901 4132 mt  901 4204 L
1004 4406 mt 1076 4406 L
1040 4370 mt 1040 4442 L
 961 4614 mt 1033 4614 L
 997 4578 mt  997 4650 L
 978 4054 mt 1050 4054 L
1014 4018 mt 1014 4090 L
1944 4301 mt 2016 4301 L
1980 4265 mt 1980 4337 L
1296 4008 mt 1368 4008 L
1332 3972 mt 1332 4044 L
 906 4558 mt  978 4558 L
 942 4522 mt  942 4594 L
 867 4308 mt  939 4308 L
 903 4272 mt  903 4344 L
 885 2166 mt  957 2166 L
 921 2130 mt  921 2202 L
1065 3349 mt 1137 3349 L
1101 3313 mt 1101 3385 L
 889 3254 mt  961 3254 L
 925 3218 mt  925 3290 L
 885 4613 mt  957 4613 L
 921 4577 mt  921 4649 L
 863 4295 mt  935 4295 L
 899 4259 mt  899 4331 L
 899 4609 mt  971 4609 L
 935 4573 mt  935 4645 L
 863 4389 mt  935 4389 L
 899 4353 mt  899 4425 L
1011 4572 mt 1083 4572 L
1047 4536 mt 1047 4608 L
 942  623 mt 1014  623 L
 978  587 mt  978  659 L
 870 3570 mt  942 3570 L
 906 3534 mt  906 3606 L
1014 1512 mt 1086 1512 L
1050 1476 mt 1050 1548 L
1069 4125 mt 1141 4125 L
1105 4089 mt 1105 4161 L
 967 4615 mt 1039 4615 L
1003 4579 mt 1003 4651 L
1144 4372 mt 1216 4372 L
1180 4336 mt 1180 4408 L
1095 4530 mt 1167 4530 L
1131 4494 mt 1131 4566 L
1010 4030 mt 1082 4030 L
1046 3994 mt 1046 4066 L
 902 3984 mt  974 3984 L
 938 3948 mt  938 4020 L
 863 3523 mt  935 3523 L
 899 3487 mt  899 3559 L
 911 4421 mt  983 4421 L
 947 4385 mt  947 4457 L
 885 4593 mt  957 4593 L
 921 4557 mt  921 4629 L
 888 4607 mt  960 4607 L
 924 4571 mt  924 4643 L
 887 4449 mt  959 4449 L
 923 4413 mt  923 4485 L
1010 4478 mt 1082 4478 L
1046 4442 mt 1046 4514 L
 865 4592 mt  937 4592 L
 901 4556 mt  901 4628 L
 864 2473 mt  936 2473 L
 900 2437 mt  900 2509 L
1170 3140 mt 1242 3140 L
1206 3104 mt 1206 3176 L
 887 4568 mt  959 4568 L
 923 4532 mt  923 4604 L
 868 4567 mt  940 4567 L
 904 4531 mt  904 4603 L
 883 4607 mt  955 4607 L
 919 4571 mt  919 4643 L
 878 4602 mt  950 4602 L
 914 4566 mt  914 4638 L
 869 2701 mt  941 2701 L
 905 2665 mt  905 2737 L
1475 4216 mt 1547 4216 L
1511 4180 mt 1511 4252 L
 898 4567 mt  970 4567 L
 934 4531 mt  934 4603 L
 884 3559 mt  956 3559 L
 920 3523 mt  920 3595 L
 929 4403 mt 1001 4403 L
 965 4367 mt  965 4439 L
1190 4517 mt 1262 4517 L
1226 4481 mt 1226 4553 L
 945 4588 mt 1017 4588 L
 981 4552 mt  981 4624 L
 863 3226 mt  935 3226 L
 899 3190 mt  899 3262 L
 971 3941 mt 1043 3941 L
1007 3905 mt 1007 3977 L
1289 3007 mt 1361 3007 L
1325 2971 mt 1325 3043 L
1045 4505 mt 1117 4505 L
1081 4469 mt 1081 4541 L
 869 3220 mt  941 3220 L
 905 3184 mt  905 3256 L
1007 4173 mt 1079 4173 L
1043 4137 mt 1043 4209 L
1145 4295 mt 1217 4295 L
1181 4259 mt 1181 4331 L
 997 4179 mt 1069 4179 L
1033 4143 mt 1033 4215 L
1882 3265 mt 1954 3265 L
1918 3229 mt 1918 3301 L
 997 4402 mt 1069 4402 L
1033 4366 mt 1033 4438 L
 899 3152 mt  971 3152 L
 935 3116 mt  935 3188 L
1089 4576 mt 1161 4576 L
1125 4540 mt 1125 4612 L
 880 4412 mt  952 4412 L
 916 4376 mt  916 4448 L
 977 4416 mt 1049 4416 L
1013 4380 mt 1013 4452 L
1118 4545 mt 1190 4545 L
1154 4509 mt 1154 4581 L
1328 3490 mt 1400 3490 L
1364 3454 mt 1364 3526 L
 893 4562 mt  965 4562 L
 929 4526 mt  929 4598 L
 902 4254 mt  974 4254 L
 938 4218 mt  938 4290 L
1310 4486 mt 1382 4486 L
1346 4450 mt 1346 4522 L
 929 4455 mt 1001 4455 L
 965 4419 mt  965 4491 L
1427 4427 mt 1499 4427 L
1463 4391 mt 1463 4463 L
 961 4605 mt 1033 4605 L
 997 4569 mt  997 4641 L
 889 4481 mt  961 4481 L
 925 4445 mt  925 4517 L
 863 4580 mt  935 4580 L
 899 4544 mt  899 4616 L
 901 3547 mt  973 3547 L
 937 3511 mt  937 3583 L
 892 4588 mt  964 4588 L
 928 4552 mt  928 4624 L
1636 3380 mt 1708 3380 L
1672 3344 mt 1672 3416 L
 885 4395 mt  957 4395 L
 921 4359 mt  921 4431 L
 952 4576 mt 1024 4576 L
 988 4540 mt  988 4612 L
 863 4156 mt  935 4156 L
 899 4120 mt  899 4192 L
3032 3302 mt 3104 3302 L
3068 3266 mt 3068 3338 L
1152 4365 mt 1224 4365 L
1188 4329 mt 1188 4401 L
 863 3682 mt  935 3682 L
 899 3646 mt  899 3718 L
 970 4250 mt 1042 4250 L
1006 4214 mt 1006 4286 L
1239 3922 mt 1311 3922 L
1275 3886 mt 1275 3958 L
 879 4512 mt  951 4512 L
 915 4476 mt  915 4548 L
1277 1965 mt 1349 1965 L
1313 1929 mt 1313 2001 L
 918 3993 mt  990 3993 L
 954 3957 mt  954 4029 L
 901 4398 mt  973 4398 L
 937 4362 mt  937 4434 L
1374 4527 mt 1446 4527 L
1410 4491 mt 1410 4563 L
 912 4026 mt  984 4026 L
 948 3990 mt  948 4062 L
 961 3578 mt 1033 3578 L
 997 3542 mt  997 3614 L
 973 4376 mt 1045 4376 L
1009 4340 mt 1009 4412 L
 864 3494 mt  936 3494 L
 900 3458 mt  900 3530 L
 893 4605 mt  965 4605 L
 929 4569 mt  929 4641 L
1208 4594 mt 1280 4594 L
1244 4558 mt 1244 4630 L
 944 4303 mt 1016 4303 L
 980 4267 mt  980 4339 L
 863 4150 mt  935 4150 L
 899 4114 mt  899 4186 L
 877 4542 mt  949 4542 L
 913 4506 mt  913 4578 L
 948 2674 mt 1020 2674 L
 984 2638 mt  984 2710 L
 965 4170 mt 1037 4170 L
1001 4134 mt 1001 4206 L
 871 3748 mt  943 3748 L
 907 3712 mt  907 3784 L
 916  940 mt  988  940 L
 952  904 mt  952  976 L
 881 4601 mt  953 4601 L
 917 4565 mt  917 4637 L
1036 4147 mt 1108 4147 L
1072 4111 mt 1072 4183 L
 886 3769 mt  958 3769 L
 922 3733 mt  922 3805 L
 864 4578 mt  936 4578 L
 900 4542 mt  900 4614 L
1015 3928 mt 1087 3928 L
1051 3892 mt 1051 3964 L
 944 3777 mt 1016 3777 L
 980 3741 mt  980 3813 L
 921 4575 mt  993 4575 L
 957 4539 mt  957 4611 L
 863 4402 mt  935 4402 L
 899 4366 mt  899 4438 L
 879 4517 mt  951 4517 L
 915 4481 mt  915 4553 L
 863 4164 mt  935 4164 L
 899 4128 mt  899 4200 L
 889 4489 mt  961 4489 L
 925 4453 mt  925 4525 L
1047 3855 mt 1119 3855 L
1083 3819 mt 1083 3891 L
 906 2099 mt  978 2099 L
 942 2063 mt  942 2135 L
1243 4579 mt 1315 4579 L
1279 4543 mt 1279 4615 L
 863 3656 mt  935 3656 L
 899 3620 mt  899 3692 L
 877 4570 mt  949 4570 L
 913 4534 mt  913 4606 L
1005 3457 mt 1077 3457 L
1041 3421 mt 1041 3493 L
1071 4544 mt 1143 4544 L
1107 4508 mt 1107 4580 L
1083 2968 mt 1155 2968 L
1119 2932 mt 1119 3004 L
1087 4609 mt 1159 4609 L
1123 4573 mt 1123 4645 L
1684 3231 mt 1756 3231 L
1720 3195 mt 1720 3267 L
1021 4587 mt 1093 4587 L
1057 4551 mt 1057 4623 L
 892 4551 mt  964 4551 L
 928 4515 mt  928 4587 L
 909 3971 mt  981 3971 L
 945 3935 mt  945 4007 L
 920 3008 mt  992 3008 L
 956 2972 mt  956 3044 L
1018 4534 mt 1090 4534 L
1054 4498 mt 1054 4570 L
1042 4020 mt 1114 4020 L
1078 3984 mt 1078 4056 L
1425 4310 mt 1497 4310 L
1461 4274 mt 1461 4346 L
 863 3224 mt  935 3224 L
 899 3188 mt  899 3260 L
1004 4209 mt 1076 4209 L
1040 4173 mt 1040 4245 L
1367 3830 mt 1439 3830 L
1403 3794 mt 1403 3866 L
 867 4583 mt  939 4583 L
 903 4547 mt  903 4619 L
 863 4615 mt  935 4615 L
 899 4579 mt  899 4651 L
1165 4594 mt 1237 4594 L
1201 4558 mt 1201 4630 L
 986 4542 mt 1058 4542 L
1022 4506 mt 1022 4578 L
1761 4340 mt 1833 4340 L
1797 4304 mt 1797 4376 L
1299 4536 mt 1371 4536 L
1335 4500 mt 1335 4572 L
1126 4603 mt 1198 4603 L
1162 4567 mt 1162 4639 L
 925 4431 mt  997 4431 L
 961 4395 mt  961 4467 L
 890 4250 mt  962 4250 L
 926 4214 mt  926 4286 L
 923 3911 mt  995 3911 L
 959 3875 mt  959 3947 L
 893 4614 mt  965 4614 L
 929 4578 mt  929 4650 L
 977 4489 mt 1049 4489 L
1013 4453 mt 1013 4525 L
 865 3854 mt  937 3854 L
 901 3818 mt  901 3890 L
 881 3607 mt  953 3607 L
 917 3571 mt  917 3643 L
1383 2409 mt 1455 2409 L
1419 2373 mt 1419 2445 L
1319 4507 mt 1391 4507 L
1355 4471 mt 1355 4543 L
1672 3776 mt 1744 3776 L
1708 3740 mt 1708 3812 L
 959 4604 mt 1031 4604 L
 995 4568 mt  995 4640 L
2859 4030 mt 2931 4030 L
2895 3994 mt 2895 4066 L
 923 4360 mt  995 4360 L
 959 4324 mt  959 4396 L
 868 4257 mt  940 4257 L
 904 4221 mt  904 4293 L
 878 4493 mt  950 4493 L
 914 4457 mt  914 4529 L
1089 4255 mt 1161 4255 L
1125 4219 mt 1125 4291 L
 969 4596 mt 1041 4596 L
1005 4560 mt 1005 4632 L
 867 3908 mt  939 3908 L
 903 3872 mt  903 3944 L
 933 4116 mt 1005 4116 L
 969 4080 mt  969 4152 L
 887 4615 mt  959 4615 L
 923 4579 mt  923 4651 L
1386 4607 mt 1458 4607 L
1422 4571 mt 1422 4643 L
1255 3544 mt 1327 3544 L
1291 3508 mt 1291 3580 L
 896 3893 mt  968 3893 L
 932 3857 mt  932 3929 L
 864 4523 mt  936 4523 L
 900 4487 mt  900 4559 L
1354 4582 mt 1426 4582 L
1390 4546 mt 1390 4618 L
 920 4418 mt  992 4418 L
 956 4382 mt  956 4454 L
 908 4039 mt  980 4039 L
 944 4003 mt  944 4075 L
 866 3783 mt  938 3783 L
 902 3747 mt  902 3819 L
1090 4399 mt 1162 4399 L
1126 4363 mt 1126 4435 L
 863 2637 mt  935 2637 L
 899 2601 mt  899 2673 L
 979 4572 mt 1051 4572 L
1015 4536 mt 1015 4608 L
 985 4486 mt 1057 4486 L
1021 4450 mt 1021 4522 L
 865 4444 mt  937 4444 L
 901 4408 mt  901 4480 L
 869 2652 mt  941 2652 L
 905 2616 mt  905 2688 L
2324 4605 mt 2396 4605 L
2360 4569 mt 2360 4641 L
 972 3076 mt 1044 3076 L
1008 3040 mt 1008 3112 L
 885 4451 mt  957 4451 L
 921 4415 mt  921 4487 L
 864 4613 mt  936 4613 L
 900 4577 mt  900 4649 L
1021 4588 mt 1093 4588 L
1057 4552 mt 1057 4624 L
 863 4483 mt  935 4483 L
 899 4447 mt  899 4519 L
1045 4186 mt 1117 4186 L
1081 4150 mt 1081 4222 L
 943 1841 mt 1015 1841 L
 979 1805 mt  979 1877 L
1231 3558 mt 1303 3558 L
1267 3522 mt 1267 3594 L
1074 4608 mt 1146 4608 L
1110 4572 mt 1110 4644 L
 966 4519 mt 1038 4519 L
1002 4483 mt 1002 4555 L
 877 3923 mt  949 3923 L
 913 3887 mt  913 3959 L
 915 4603 mt  987 4603 L
 951 4567 mt  951 4639 L
 960 4577 mt 1032 4577 L
 996 4541 mt  996 4613 L
 865 2646 mt  937 2646 L
 901 2610 mt  901 2682 L
 923 4355 mt  995 4355 L
 959 4319 mt  959 4391 L
 914 2257 mt  986 2257 L
 950 2221 mt  950 2293 L
1267 4616 mt 1339 4616 L
1303 4580 mt 1303 4652 L
1020 3076 mt 1092 3076 L
1056 3040 mt 1056 3112 L
 971 4163 mt 1043 4163 L
1007 4127 mt 1007 4199 L
1314 4196 mt 1386 4196 L
1350 4160 mt 1350 4232 L
 887 3538 mt  959 3538 L
 923 3502 mt  923 3574 L
 870 4437 mt  942 4437 L
 906 4401 mt  906 4473 L
 863 4341 mt  935 4341 L
 899 4305 mt  899 4377 L
1483 4344 mt 1555 4344 L
1519 4308 mt 1519 4380 L
gs 899 414 5363 4203 rc
gr

0 sg
2822 5104 mt 
(\(F,DCTb,MLP\)) s
 288 3277 mt  -90 rotate
(\(S,SSC,GMM\)) s
90 rotate
2975  223 mt 
(Corr = 0.03) s

end %%Color Dict

eplot
%%EndObject

epage
end

showpage

%%Trailer
%%EOF
