%!PS-Adobe-3.0 EPSF-3.0
%%Creator: MATLAB, The Mathworks, Inc.
%%Title: Pictures\main_arun_global_transform_density_2.eps
%%CreationDate: 01/26/2009  17:57:04
%%DocumentNeededFonts: Helvetica
%%DocumentProcessColors: Cyan Magenta Yellow Black
%%LanguageLevel: 2
%%Pages: 1
%%BoundingBox:    52   199   550   602
%%EndComments

%%BeginProlog
% MathWorks dictionary
/MathWorks 160 dict begin
% definition operators
/bdef {bind def} bind def
/ldef {load def} bind def
/xdef {exch def} bdef
/xstore {exch store} bdef
% operator abbreviations
/c  /clip ldef
/cc /concat ldef
/cp /closepath ldef
/gr /grestore ldef
/gs /gsave ldef
/mt /moveto ldef
/np /newpath ldef
/cm /currentmatrix ldef
/sm /setmatrix ldef
/rm /rmoveto ldef
/rl /rlineto ldef
/s {show newpath} bdef
/sc {setcmykcolor} bdef
/sr /setrgbcolor ldef
/sg /setgray ldef
/w /setlinewidth ldef
/j /setlinejoin ldef
/cap /setlinecap ldef
/rc {rectclip} bdef
/rf {rectfill} bdef
% page state control
/pgsv () def
/bpage {/pgsv save def} bdef
/epage {pgsv restore} bdef
/bplot /gsave ldef
/eplot {stroke grestore} bdef
% orientation switch
/portraitMode 0 def /landscapeMode 1 def /rotateMode 2 def
% coordinate system mappings
/dpi2point 0 def
% font control
/FontSize 0 def
/FMS {/FontSize xstore findfont [FontSize 0 0 FontSize neg 0 0]
  makefont setfont} bdef
/ISOLatin1Encoding where {pop /WindowsLatin1Encoding 256 array bdef
ISOLatin1Encoding WindowsLatin1Encoding copy pop
/.notdef/.notdef/quotesinglbase/florin/quotedblbase/ellipsis/dagger
/daggerdbl/circumflex/perthousand/Scaron/guilsinglleft/OE/.notdef/.notdef
/.notdef/.notdef/quoteleft/quoteright/quotedblleft/quotedblright/bullet
/endash/emdash/tilde/trademark/scaron/guilsinglright/oe/.notdef/.notdef
/Ydieresis WindowsLatin1Encoding 128 32 getinterval astore pop}
{/WindowsLatin1Encoding StandardEncoding bdef} ifelse
/reencode {exch dup where {pop load} {pop StandardEncoding} ifelse
  exch dup 3 1 roll findfont dup length dict begin
  { 1 index /FID ne {def}{pop pop} ifelse } forall
  /Encoding exch def currentdict end definefont pop} bdef
/isroman {findfont /CharStrings get /Agrave known} bdef
/FMSR {3 1 roll 1 index dup isroman {reencode} {pop pop} ifelse
  exch FMS} bdef
/csm {1 dpi2point div -1 dpi2point div scale neg translate
 dup landscapeMode eq {pop -90 rotate}
  {rotateMode eq {90 rotate} if} ifelse} bdef
% line types: solid, dotted, dashed, dotdash
/SO { [] 0 setdash } bdef
/DO { [.5 dpi2point mul 4 dpi2point mul] 0 setdash } bdef
/DA { [6 dpi2point mul] 0 setdash } bdef
/DD { [.5 dpi2point mul 4 dpi2point mul 6 dpi2point mul 4
  dpi2point mul] 0 setdash } bdef
% macros for lines and objects
/L {lineto stroke} bdef
/MP {3 1 roll moveto 1 sub {rlineto} repeat} bdef
/AP {{rlineto} repeat} bdef
/PDlw -1 def
/W {/PDlw currentlinewidth def setlinewidth} def
/PP {closepath eofill} bdef
/DP {closepath stroke} bdef
/MR {4 -2 roll moveto dup  0 exch rlineto exch 0 rlineto
  neg 0 exch rlineto closepath} bdef
/FR {MR stroke} bdef
/PR {MR fill} bdef
/L1i {{currentfile picstr readhexstring pop} image} bdef
/tMatrix matrix def
/MakeOval {newpath tMatrix currentmatrix pop translate scale
0 0 1 0 360 arc tMatrix setmatrix} bdef
/FO {MakeOval stroke} bdef
/PO {MakeOval fill} bdef
/PD {currentlinewidth 2 div 0 360 arc fill
   PDlw -1 eq not {PDlw w /PDlw -1 def} if} def
/FA {newpath tMatrix currentmatrix pop translate scale
  0 0 1 5 -2 roll arc tMatrix setmatrix stroke} bdef
/PA {newpath tMatrix currentmatrix pop	translate 0 0 moveto scale
  0 0 1 5 -2 roll arc closepath tMatrix setmatrix fill} bdef
/FAn {newpath tMatrix currentmatrix pop translate scale
  0 0 1 5 -2 roll arcn tMatrix setmatrix stroke} bdef
/PAn {newpath tMatrix currentmatrix pop translate 0 0 moveto scale
  0 0 1 5 -2 roll arcn closepath tMatrix setmatrix fill} bdef
/vradius 0 def /hradius 0 def /lry 0 def
/lrx 0 def /uly 0 def /ulx 0 def /rad 0 def
/MRR {/vradius xdef /hradius xdef /lry xdef /lrx xdef /uly xdef
  /ulx xdef newpath tMatrix currentmatrix pop ulx hradius add uly
  vradius add translate hradius vradius scale 0 0 1 180 270 arc 
  tMatrix setmatrix lrx hradius sub uly vradius add translate
  hradius vradius scale 0 0 1 270 360 arc tMatrix setmatrix
  lrx hradius sub lry vradius sub translate hradius vradius scale
  0 0 1 0 90 arc tMatrix setmatrix ulx hradius add lry vradius sub
  translate hradius vradius scale 0 0 1 90 180 arc tMatrix setmatrix
  closepath} bdef
/FRR {MRR stroke } bdef
/PRR {MRR fill } bdef
/MlrRR {/lry xdef /lrx xdef /uly xdef /ulx xdef /rad lry uly sub 2 div def
  newpath tMatrix currentmatrix pop ulx rad add uly rad add translate
  rad rad scale 0 0 1 90 270 arc tMatrix setmatrix lrx rad sub lry rad
  sub translate rad rad scale 0 0 1 270 90 arc tMatrix setmatrix
  closepath} bdef
/FlrRR {MlrRR stroke } bdef
/PlrRR {MlrRR fill } bdef
/MtbRR {/lry xdef /lrx xdef /uly xdef /ulx xdef /rad lrx ulx sub 2 div def
  newpath tMatrix currentmatrix pop ulx rad add uly rad add translate
  rad rad scale 0 0 1 180 360 arc tMatrix setmatrix lrx rad sub lry rad
  sub translate rad rad scale 0 0 1 0 180 arc tMatrix setmatrix
  closepath} bdef
/FtbRR {MtbRR stroke } bdef
/PtbRR {MtbRR fill } bdef
/stri 6 array def /dtri 6 array def
/smat 6 array def /dmat 6 array def
/tmat1 6 array def /tmat2 6 array def /dif 3 array def
/asub {/ind2 exch def /ind1 exch def dup dup
  ind1 get exch ind2 get sub exch } bdef
/tri_to_matrix {
  2 0 asub 3 1 asub 4 0 asub 5 1 asub
  dup 0 get exch 1 get 7 -1 roll astore } bdef
/compute_transform {
  dmat dtri tri_to_matrix tmat1 invertmatrix 
  smat stri tri_to_matrix tmat2 concatmatrix } bdef
/ds {stri astore pop} bdef
/dt {dtri astore pop} bdef
/db {2 copy /cols xdef /rows xdef mul dup 3 mul string
  currentfile 
  3 index 0 eq {/ASCIIHexDecode filter}
  {/ASCII85Decode filter 3 index 2 eq {/RunLengthDecode filter} if }
  ifelse exch readstring pop
  dup 0 3 index getinterval /rbmap xdef
  dup 2 index dup getinterval /gbmap xdef
  1 index dup 2 mul exch getinterval /bbmap xdef pop pop}bdef
/it {gs np dtri aload pop moveto lineto lineto cp c
  cols rows 8 compute_transform 
  rbmap gbmap bbmap true 3 colorimage gr}bdef
/il {newpath moveto lineto stroke}bdef
currentdict end def
%%EndProlog

%%BeginSetup
MathWorks begin

0 cap

end
%%EndSetup

%%Page: 1 1
%%BeginPageSetup
%%PageBoundingBox:    52   199   550   602
MathWorks begin
bpage
%%EndPageSetup

%%BeginObject: obj1
bplot

/dpi2point 12 def
portraitMode 0216 7344 csm

  413   110  5980  4846 rc
85 dict begin %Colortable dictionary
/c0 { 0.000000 0.000000 0.000000 sr} bdef
/c1 { 1.000000 1.000000 1.000000 sr} bdef
/c2 { 0.900000 0.000000 0.000000 sr} bdef
/c3 { 0.000000 0.820000 0.000000 sr} bdef
/c4 { 0.000000 0.000000 0.800000 sr} bdef
/c5 { 0.910000 0.820000 0.320000 sr} bdef
/c6 { 1.000000 0.260000 0.820000 sr} bdef
/c7 { 0.000000 0.820000 0.820000 sr} bdef
c0
1 j
1 sg
   0    0 6919 5187 rf
6 w
0 1769 5362 0 0 -1769 899 2158 4 MP
PP
-5362 0 0 1769 5362 0 0 -1769 899 2158 5 MP stroke
4 w
DO
SO
6 w
0 sg
 899  389 mt 6261  389 L
 899 2158 mt 6261 2158 L
6261 2158 mt 6261  389 L
 899 2158 mt  899  389 L
 899 2158 mt 6261 2158 L
 899 2158 mt  899  389 L
 899 2158 mt  899 2104 L
 899  389 mt  899  442 L
%%IncludeResource: font Helvetica
/Helvetica /WindowsLatin1Encoding 120 FMSR

 746 2303 mt 
(-1.5) s
1792 2158 mt 1792 2104 L
1792  389 mt 1792  442 L
1689 2303 mt 
(-1) s
2686 2158 mt 2686 2104 L
2686  389 mt 2686  442 L
2533 2303 mt 
(-0.5) s
3580 2158 mt 3580 2104 L
3580  389 mt 3580  442 L
3547 2303 mt 
(0) s
4473 2158 mt 4473 2104 L
4473  389 mt 4473  442 L
4390 2303 mt 
(0.5) s
5367 2158 mt 5367 2104 L
5367  389 mt 5367  442 L
5334 2303 mt 
(1) s
6261 2158 mt 6261 2104 L
6261  389 mt 6261  442 L
6178 2303 mt 
(1.5) s
 899 2158 mt  952 2158 L
6261 2158 mt 6207 2158 L
 798 2202 mt 
(0) s
 899 1804 mt  952 1804 L
6261 1804 mt 6207 1804 L
 798 1848 mt 
(2) s
 899 1450 mt  952 1450 L
6261 1450 mt 6207 1450 L
 798 1494 mt 
(4) s
 899 1096 mt  952 1096 L
6261 1096 mt 6207 1096 L
 798 1140 mt 
(6) s
 899  742 mt  952  742 L
6261  742 mt 6207  742 L
 798  786 mt 
(8) s
 899  389 mt  952  389 L
6261  389 mt 6207  389 L
 731  433 mt 
(10) s
 899  389 mt 6261  389 L
 899 2158 mt 6261 2158 L
6261 2158 mt 6261  389 L
 899 2158 mt  899  389 L
gs 899 389 5363 1770 rc
/c8 { 0.000000 0.000000 1.000000 sr} bdef
c8
45 0 44 2 45 2 44 6 44 10 45 15 44 24 45 33 
44 41 45 47 44 48 45 44 44 34 45 21 44 8 45 -5 
44 -16 44 -23 45 -26 44 -28 45 -26 44 -24 45 -22 44 -17 
45 -15 44 -11 45 -9 44 -8 45 -7 44 -7 44 -7 45 -7 
44 -6 45 -6 44 -4 45 -3 44 -3 45 -2 44 -2 45 -2 
44 -3 45 -3 44 -4 44 -3 45 -2 44 -1 45 -1 44 1 
45 0 44 1 45 1 44 1 45 1 44 1 45 2 44 1 
44 2 45 3 44 2 45 1 44 0 45 -1 44 -2 45 -4 
44 -4 45 -4 44 -4 44 -3 45 -2 44 -1 45 -1 44 0 
45 0 44 0 45 1 44 0 45 0 44 1 45 0 44 1 
44 2 45 1 44 1 45 -1 44 -1 45 -3 44 -3 45 -4 
44 -4 45 -4 44 -3 45 -3 44 -2 44 -1 45 -1 44 0 
45 0 44 0 45 0 1362 2157 100 MP stroke
DA
37 0 36 0 37 0 37 0 36 0 37 0 37 0 36 0 
37 0 37 0 36 1 37 0 37 -1 36 0 37 1 37 0 
36 0 37 0 37 0 37 0 36 0 37 0 37 0 36 0 
37 0 37 0 36 1 37 0 37 0 36 0 37 0 37 0 
36 0 37 1 37 0 36 -1 37 1 37 0 36 0 37 0 
37 1 37 0 36 1 37 0 37 0 36 0 37 -1 37 2 
36 0 37 0 37 1 36 -1 37 3 37 -1 36 0 37 0 
37 2 36 1 37 -1 37 1 36 0 37 1 37 0 37 2 
36 1 37 1 37 1 36 1 37 3 37 2 36 0 37 5 
37 -1 36 4 37 0 37 5 36 6 37 3 37 7 36 6 
37 5 37 7 36 8 37 10 37 14 37 21 36 22 37 28 
37 35 36 44 37 68 37 99 36 126 37 192 37 254 36 317 
37 282 37 -974 36 -615 1755 2156 100 MP stroke
gr

c8
DA
0 sg
 649 1474 mt  -90 rotate
(Density) s
90 rotate
3392 2446 mt 
(Scores) s
3411  294 mt 
(before) s
SO
1 sg
0 1770 5362 0 0 -1770 899 4616 4 MP
PP
-5362 0 0 1770 5362 0 0 -1770 899 4616 5 MP stroke
4 w
DO
SO
6 w
0 sg
 899 2846 mt 6261 2846 L
 899 4616 mt 6261 4616 L
6261 4616 mt 6261 2846 L
 899 4616 mt  899 2846 L
 899 4616 mt 6261 4616 L
 899 4616 mt  899 2846 L
 899 4616 mt  899 4562 L
 899 2846 mt  899 2899 L
 763 4761 mt 
(-14) s
1435 4616 mt 1435 4562 L
1435 2846 mt 1435 2899 L
1299 4761 mt 
(-12) s
1971 4616 mt 1971 4562 L
1971 2846 mt 1971 2899 L
1835 4761 mt 
(-10) s
2507 4616 mt 2507 4562 L
2507 2846 mt 2507 2899 L
2404 4761 mt 
(-8) s
3043 4616 mt 3043 4562 L
3043 2846 mt 3043 2899 L
2940 4761 mt 
(-6) s
3580 4616 mt 3580 4562 L
3580 2846 mt 3580 2899 L
3477 4761 mt 
(-4) s
4116 4616 mt 4116 4562 L
4116 2846 mt 4116 2899 L
4013 4761 mt 
(-2) s
4652 4616 mt 4652 4562 L
4652 2846 mt 4652 2899 L
4619 4761 mt 
(0) s
5188 4616 mt 5188 4562 L
5188 2846 mt 5188 2899 L
5155 4761 mt 
(2) s
5724 4616 mt 5724 4562 L
5724 2846 mt 5724 2899 L
5691 4761 mt 
(4) s
6261 4616 mt 6261 4562 L
6261 2846 mt 6261 2899 L
6228 4761 mt 
(6) s
 899 4616 mt  952 4616 L
6261 4616 mt 6207 4616 L
 798 4660 mt 
(0) s
 899 4363 mt  952 4363 L
6261 4363 mt 6207 4363 L
 631 4407 mt 
(0.05) s
 899 4110 mt  952 4110 L
6261 4110 mt 6207 4110 L
 698 4154 mt 
(0.1) s
 899 3857 mt  952 3857 L
6261 3857 mt 6207 3857 L
 631 3901 mt 
(0.15) s
 899 3604 mt  952 3604 L
6261 3604 mt 6207 3604 L
 698 3648 mt 
(0.2) s
 899 3351 mt  952 3351 L
6261 3351 mt 6207 3351 L
 631 3395 mt 
(0.25) s
 899 3098 mt  952 3098 L
6261 3098 mt 6207 3098 L
 698 3142 mt 
(0.3) s
 899 2846 mt  952 2846 L
6261 2846 mt 6207 2846 L
 631 2890 mt 
(0.35) s
 899 2846 mt 6261 2846 L
 899 4616 mt 6261 4616 L
6261 4616 mt 6261 2846 L
 899 4616 mt  899 2846 L
gs 899 2846 5363 1771 rc
c8
32 0 32 1 32 2 32 2 32 5 32 7 32 11 32 16 
32 22 32 30 32 41 32 54 32 71 32 91 32 109 32 127 
32 138 32 143 32 139 33 128 32 113 32 94 32 76 32 58 
32 40 32 21 32 2 32 -17 32 -36 32 -52 32 -63 32 -70 
32 -73 32 -73 32 -72 32 -69 32 -67 32 -65 32 -63 32 -59 
32 -55 32 -47 32 -40 32 -30 32 -21 32 -13 32 -7 32 -5 
32 -9 32 -15 32 -24 32 -33 32 -41 32 -44 32 -44 32 -41 
32 -35 32 -29 32 -23 32 -19 32 -14 32 -11 32 -7 32 -4 
32 -4 32 -3 32 -5 32 -8 32 -10 32 -12 32 -14 32 -13 
32 -12 32 -11 33 -10 32 -9 32 -7 32 -7 32 -5 32 -5 
32 -3 32 -3 32 -1 32 0 32 1 32 0 32 1 32 0 
32 0 32 -1 32 -2 32 -2 32 -2 32 -1 32 -2 32 0 
32 -1 32 0 32 0 2945 4615 100 MP stroke
DA
48 0 48 0 48 0 48 0 48 0 48 0 48 0 48 0 
48 0 48 0 48 0 48 0 48 0 48 0 48 0 48 1 
48 1 48 1 48 0 48 2 48 1 48 2 48 2 48 2 
48 4 48 7 48 8 48 8 48 12 48 15 48 16 48 20 
48 25 48 27 48 31 48 45 48 52 48 54 48 78 48 85 
48 78 48 103 48 131 48 130 48 135 48 153 48 150 48 126 
48 102 48 50 48 -1 48 -47 48 -97 48 -129 48 -137 48 -138 
48 -136 48 -142 48 -137 48 -112 48 -99 48 -82 47 -74 48 -60 
48 -47 48 -49 48 -39 48 -23 48 -27 48 -18 48 -13 48 -11 
48 -8 48 -5 48 -6 48 -4 48 -4 48 -3 48 -3 48 -1 
48 -1 48 -2 48 -1 48 0 48 0 48 -1 48 0 48 0 
48 0 48 0 48 0 48 0 48 0 48 0 48 0 48 0 
48 0 48 0 48 0 1418 4615 100 MP stroke
gr

c8
DA
0 sg
 549 3932 mt  -90 rotate
(Density) s
90 rotate
3392 4904 mt 
(Scores) s
3459 2751 mt 
(after) s
SO

end %%Color Dict

eplot
%%EndObject

epage
end

showpage

%%Trailer
%%EOF
