%!PS-Adobe-3.0 EPSF-3.0
%%Creator: MATLAB, The Mathworks, Inc. Version 7.7.0.471 (R2008b). Operating System: Microsoft Windows XP.
%%Title: Pictures\main_zoo_mvar_analysis_data_BMI_xcorr_bmig_p1_k1_4_5.eps
%%CreationDate: 10/26/2009  05:44:58
%%DocumentNeededFonts: Helvetica
%%DocumentProcessColors: Cyan Magenta Yellow Black
%%LanguageLevel: 2
%%Pages: 1
%%BoundingBox:    37   180   549   616
%%EndComments

%%BeginProlog
% MathWorks dictionary
/MathWorks 160 dict begin
% definition operators
/bdef {bind def} bind def
/ldef {load def} bind def
/xdef {exch def} bdef
/xstore {exch store} bdef
% operator abbreviations
/c  /clip ldef
/cc /concat ldef
/cp /closepath ldef
/gr /grestore ldef
/gs /gsave ldef
/mt /moveto ldef
/np /newpath ldef
/cm /currentmatrix ldef
/sm /setmatrix ldef
/rm /rmoveto ldef
/rl /rlineto ldef
/s {show newpath} bdef
/sc {setcmykcolor} bdef
/sr /setrgbcolor ldef
/sg /setgray ldef
/w /setlinewidth ldef
/j /setlinejoin ldef
/cap /setlinecap ldef
/rc {rectclip} bdef
/rf {rectfill} bdef
% page state control
/pgsv () def
/bpage {/pgsv save def} bdef
/epage {pgsv restore} bdef
/bplot /gsave ldef
/eplot {stroke grestore} bdef
% orientation switch
/portraitMode 0 def /landscapeMode 1 def /rotateMode 2 def
% coordinate system mappings
/dpi2point 0 def
% font control
/FontSize 0 def
/FMS {/FontSize xstore findfont [FontSize 0 0 FontSize neg 0 0]
  makefont setfont} bdef
/ISOLatin1Encoding where {pop /WindowsLatin1Encoding 256 array bdef
ISOLatin1Encoding WindowsLatin1Encoding copy pop
/.notdef/.notdef/quotesinglbase/florin/quotedblbase/ellipsis/dagger
/daggerdbl/circumflex/perthousand/Scaron/guilsinglleft/OE/.notdef/.notdef
/.notdef/.notdef/quoteleft/quoteright/quotedblleft/quotedblright/bullet
/endash/emdash/tilde/trademark/scaron/guilsinglright/oe/.notdef/.notdef
/Ydieresis WindowsLatin1Encoding 128 32 getinterval astore pop}
{/WindowsLatin1Encoding StandardEncoding bdef} ifelse
/reencode {exch dup where {pop load} {pop StandardEncoding} ifelse
  exch dup 3 1 roll findfont dup length dict begin
  { 1 index /FID ne {def}{pop pop} ifelse } forall
  /Encoding exch def currentdict end definefont pop} bdef
/isroman {findfont /CharStrings get /Agrave known} bdef
/FMSR {3 1 roll 1 index dup isroman {reencode} {pop pop} ifelse
  exch FMS} bdef
/csm {1 dpi2point div -1 dpi2point div scale neg translate
 dup landscapeMode eq {pop -90 rotate}
  {rotateMode eq {90 rotate} if} ifelse} bdef
% line types: solid, dotted, dashed, dotdash
/SO { [] 0 setdash } bdef
/DO { [.5 dpi2point mul 4 dpi2point mul] 0 setdash } bdef
/DA { [6 dpi2point mul] 0 setdash } bdef
/DD { [.5 dpi2point mul 4 dpi2point mul 6 dpi2point mul 4
  dpi2point mul] 0 setdash } bdef
% macros for lines and objects
/L {lineto stroke} bdef
/MP {3 1 roll moveto 1 sub {rlineto} repeat} bdef
/AP {{rlineto} repeat} bdef
/PDlw -1 def
/W {/PDlw currentlinewidth def setlinewidth} def
/PP {closepath eofill} bdef
/DP {closepath stroke} bdef
/MR {4 -2 roll moveto dup  0 exch rlineto exch 0 rlineto
  neg 0 exch rlineto closepath} bdef
/FR {MR stroke} bdef
/PR {MR fill} bdef
/L1i {{currentfile picstr readhexstring pop} image} bdef
/tMatrix matrix def
/MakeOval {newpath tMatrix currentmatrix pop translate scale
0 0 1 0 360 arc tMatrix setmatrix} bdef
/FO {MakeOval stroke} bdef
/PO {MakeOval fill} bdef
/PD {currentlinewidth 2 div 0 360 arc fill
   PDlw -1 eq not {PDlw w /PDlw -1 def} if} def
/FA {newpath tMatrix currentmatrix pop translate scale
  0 0 1 5 -2 roll arc tMatrix setmatrix stroke} bdef
/PA {newpath tMatrix currentmatrix pop	translate 0 0 moveto scale
  0 0 1 5 -2 roll arc closepath tMatrix setmatrix fill} bdef
/FAn {newpath tMatrix currentmatrix pop translate scale
  0 0 1 5 -2 roll arcn tMatrix setmatrix stroke} bdef
/PAn {newpath tMatrix currentmatrix pop translate 0 0 moveto scale
  0 0 1 5 -2 roll arcn closepath tMatrix setmatrix fill} bdef
/vradius 0 def /hradius 0 def /lry 0 def
/lrx 0 def /uly 0 def /ulx 0 def /rad 0 def
/MRR {/vradius xdef /hradius xdef /lry xdef /lrx xdef /uly xdef
  /ulx xdef newpath tMatrix currentmatrix pop ulx hradius add uly
  vradius add translate hradius vradius scale 0 0 1 180 270 arc 
  tMatrix setmatrix lrx hradius sub uly vradius add translate
  hradius vradius scale 0 0 1 270 360 arc tMatrix setmatrix
  lrx hradius sub lry vradius sub translate hradius vradius scale
  0 0 1 0 90 arc tMatrix setmatrix ulx hradius add lry vradius sub
  translate hradius vradius scale 0 0 1 90 180 arc tMatrix setmatrix
  closepath} bdef
/FRR {MRR stroke } bdef
/PRR {MRR fill } bdef
/MlrRR {/lry xdef /lrx xdef /uly xdef /ulx xdef /rad lry uly sub 2 div def
  newpath tMatrix currentmatrix pop ulx rad add uly rad add translate
  rad rad scale 0 0 1 90 270 arc tMatrix setmatrix lrx rad sub lry rad
  sub translate rad rad scale 0 0 1 270 90 arc tMatrix setmatrix
  closepath} bdef
/FlrRR {MlrRR stroke } bdef
/PlrRR {MlrRR fill } bdef
/MtbRR {/lry xdef /lrx xdef /uly xdef /ulx xdef /rad lrx ulx sub 2 div def
  newpath tMatrix currentmatrix pop ulx rad add uly rad add translate
  rad rad scale 0 0 1 180 360 arc tMatrix setmatrix lrx rad sub lry rad
  sub translate rad rad scale 0 0 1 0 180 arc tMatrix setmatrix
  closepath} bdef
/FtbRR {MtbRR stroke } bdef
/PtbRR {MtbRR fill } bdef
/stri 6 array def /dtri 6 array def
/smat 6 array def /dmat 6 array def
/tmat1 6 array def /tmat2 6 array def /dif 3 array def
/asub {/ind2 exch def /ind1 exch def dup dup
  ind1 get exch ind2 get sub exch } bdef
/tri_to_matrix {
  2 0 asub 3 1 asub 4 0 asub 5 1 asub
  dup 0 get exch 1 get 7 -1 roll astore } bdef
/compute_transform {
  dmat dtri tri_to_matrix tmat1 invertmatrix 
  smat stri tri_to_matrix tmat2 concatmatrix } bdef
/ds {stri astore pop} bdef
/dt {dtri astore pop} bdef
/db {2 copy /cols xdef /rows xdef mul dup 3 mul string
  currentfile 
  3 index 0 eq {/ASCIIHexDecode filter}
  {/ASCII85Decode filter 3 index 2 eq {/RunLengthDecode filter} if }
  ifelse exch readstring pop
  dup 0 3 index getinterval /rbmap xdef
  dup 2 index dup getinterval /gbmap xdef
  1 index dup 2 mul exch getinterval /bbmap xdef pop pop}bdef
/it {gs np dtri aload pop moveto lineto lineto cp c
  cols rows 8 compute_transform 
  rbmap gbmap bbmap true 3 colorimage gr}bdef
/il {newpath moveto lineto stroke}bdef
currentdict end def
%%EndProlog

%%BeginSetup
MathWorks begin

0 cap

end
%%EndSetup

%%Page: 1 1
%%BeginPageSetup
%%PageBoundingBox:    37   180   549   616
MathWorks begin
bpage
%%EndPageSetup

%%BeginObject: obj1
bplot

/dpi2point 12 def
portraitMode 0216 7344 csm

  234   -48  6149  5231 rc
85 dict begin %Colortable dictionary
/c0 { 0.000000 0.000000 0.000000 sr} bdef
/c1 { 1.000000 1.000000 1.000000 sr} bdef
/c2 { 0.900000 0.000000 0.000000 sr} bdef
/c3 { 0.000000 0.820000 0.000000 sr} bdef
/c4 { 0.000000 0.000000 0.800000 sr} bdef
/c5 { 0.910000 0.820000 0.320000 sr} bdef
/c6 { 1.000000 0.260000 0.820000 sr} bdef
/c7 { 0.000000 0.820000 0.820000 sr} bdef
c0
1 j
1 sg
   0    0 6919 5187 rf
6 w
0 4202 5362 0 0 -4202 899 4616 4 MP
PP
-5362 0 0 4202 5362 0 0 -4202 899 4616 5 MP stroke
4 w
DO
SO
6 w
0 sg
 899  414 mt 6261  414 L
 899 4616 mt 6261 4616 L
6261 4616 mt 6261  414 L
 899 4616 mt  899  414 L
 899 4616 mt 6261 4616 L
 899 4616 mt  899  414 L
 919 4616 mt  919 4562 L
 919  414 mt  919  467 L
%%IncludeResource: font Helvetica
/Helvetica /WindowsLatin1Encoding 240 FMSR

 713 4873 mt 
(-3) s
1806 4616 mt 1806 4562 L
1806  414 mt 1806  467 L
1600 4873 mt 
(-2) s
2693 4616 mt 2693 4562 L
2693  414 mt 2693  467 L
2487 4873 mt 
(-1) s
3580 4616 mt 3580 4562 L
3580  414 mt 3580  467 L
3514 4873 mt 
(0) s
4466 4616 mt 4466 4562 L
4466  414 mt 4466  467 L
4400 4873 mt 
(1) s
5353 4616 mt 5353 4562 L
5353  414 mt 5353  467 L
5287 4873 mt 
(2) s
6240 4616 mt 6240 4562 L
6240  414 mt 6240  467 L
6174 4873 mt 
(3) s
 899 4599 mt  952 4599 L
6261 4599 mt 6207 4599 L
 591 4688 mt 
(-3) s
 899 3904 mt  952 3904 L
6261 3904 mt 6207 3904 L
 591 3993 mt 
(-2) s
 899 3209 mt  952 3209 L
6261 3209 mt 6207 3209 L
 591 3298 mt 
(-1) s
 899 2514 mt  952 2514 L
6261 2514 mt 6207 2514 L
 731 2603 mt 
(0) s
 899 1820 mt  952 1820 L
6261 1820 mt 6207 1820 L
 731 1909 mt 
(1) s
 899 1125 mt  952 1125 L
6261 1125 mt 6207 1125 L
 731 1214 mt 
(2) s
 899  430 mt  952  430 L
6261  430 mt 6207  430 L
 731  519 mt 
(3) s
 899  414 mt 6261  414 L
 899 4616 mt 6261 4616 L
6261 4616 mt 6261  414 L
 899 4616 mt  899  414 L
gs 899 414 5363 4203 rc
gr

/c8 { 0.000000 0.000000 1.000000 sr} bdef
c8
3053 1207 mt 3125 1207 L
3089 1171 mt 3089 1243 L
3983 1572 mt 4055 1572 L
4019 1536 mt 4019 1608 L
4719 2109 mt 4791 2109 L
4755 2073 mt 4755 2145 L
3791 2204 mt 3863 2204 L
3827 2168 mt 3827 2240 L
2866 2414 mt 2938 2414 L
2902 2378 mt 2902 2450 L
3460 3306 mt 3532 3306 L
3496 3270 mt 3496 3342 L
4298 3540 mt 4370 3540 L
4334 3504 mt 4334 3576 L
2851 2493 mt 2923 2493 L
2887 2457 mt 2887 2529 L
3421 3322 mt 3493 3322 L
3457 3286 mt 3457 3358 L
3940 1152 mt 4012 1152 L
3976 1116 mt 3976 1188 L
3621  724 mt 3693  724 L
3657  688 mt 3657  760 L
4330 2615 mt 4402 2615 L
4366 2579 mt 4366 2651 L
4553 1838 mt 4625 1838 L
4589 1802 mt 4589 1874 L
4087 2040 mt 4159 2040 L
4123 2004 mt 4123 2076 L
3885 2035 mt 3957 2035 L
3921 1999 mt 3921 2071 L
4290 1634 mt 4362 1634 L
4326 1598 mt 4326 1670 L
3243 2302 mt 3315 2302 L
3279 2266 mt 3279 2338 L
2917 3415 mt 2989 3415 L
2953 3379 mt 2953 3451 L
5002 2383 mt 5074 2383 L
5038 2347 mt 5038 2419 L
3605 3106 mt 3677 3106 L
3641 3070 mt 3641 3142 L
3532 2825 mt 3604 2825 L
3568 2789 mt 3568 2861 L
2468 1049 mt 2540 1049 L
2504 1013 mt 2504 1085 L
3774 2709 mt 3846 2709 L
3810 2673 mt 3810 2745 L
4852 2956 mt 4924 2956 L
4888 2920 mt 4888 2992 L
2945 3395 mt 3017 3395 L
2981 3359 mt 2981 3431 L
3832 2628 mt 3904 2628 L
3868 2592 mt 3868 2664 L
3711 3069 mt 3783 3069 L
3747 3033 mt 3747 3105 L
3873 1298 mt 3945 1298 L
3909 1262 mt 3909 1334 L
3751 2379 mt 3823 2379 L
3787 2343 mt 3787 2415 L
3387 3171 mt 3459 3171 L
3423 3135 mt 3423 3207 L
2828 1892 mt 2900 1892 L
2864 1856 mt 2864 1928 L
3689 2046 mt 3761 2046 L
3725 2010 mt 3725 2082 L
4407 2370 mt 4479 2370 L
4443 2334 mt 4443 2406 L
2697 2545 mt 2769 2545 L
2733 2509 mt 2733 2581 L
4355 2223 mt 4427 2223 L
4391 2187 mt 4391 2259 L
2394 2120 mt 2466 2120 L
2430 2084 mt 2430 2156 L
2575 3567 mt 2647 3567 L
2611 3531 mt 2611 3603 L
3694 1593 mt 3766 1593 L
3730 1557 mt 3730 1629 L
3903 1930 mt 3975 1930 L
3939 1894 mt 3939 1966 L
4184 1583 mt 4256 1583 L
4220 1547 mt 4220 1619 L
3410 1371 mt 3482 1371 L
3446 1335 mt 3446 1407 L
4805 2311 mt 4877 2311 L
4841 2275 mt 4841 2347 L
2420 3022 mt 2492 3022 L
2456 2986 mt 2456 3058 L
5282 2874 mt 5354 2874 L
5318 2838 mt 5318 2910 L
6033  898 mt 6105  898 L
6069  862 mt 6069  934 L
3838 3797 mt 3910 3797 L
3874 3761 mt 3874 3833 L
2555 2155 mt 2627 2155 L
2591 2119 mt 2591 2191 L
4338 2925 mt 4410 2925 L
4374 2889 mt 4374 2961 L
4608 3198 mt 4680 3198 L
4644 3162 mt 4644 3234 L
4643 1336 mt 4715 1336 L
4679 1300 mt 4679 1372 L
2456 2884 mt 2528 2884 L
2492 2848 mt 2492 2920 L
1876 2374 mt 1948 2374 L
1912 2338 mt 1912 2410 L
5365 2704 mt 5437 2704 L
5401 2668 mt 5401 2740 L
3147 1948 mt 3219 1948 L
3183 1912 mt 3183 1984 L
3296 2792 mt 3368 2792 L
3332 2756 mt 3332 2828 L
3290 3011 mt 3362 3011 L
3326 2975 mt 3326 3047 L
3844  564 mt 3916  564 L
3880  528 mt 3880  600 L
3278  824 mt 3350  824 L
3314  788 mt 3314  860 L
4322 1181 mt 4394 1181 L
4358 1145 mt 4358 1217 L
4435 3164 mt 4507 3164 L
4471 3128 mt 4471 3200 L
2789 1904 mt 2861 1904 L
2825 1868 mt 2825 1940 L
2016 1779 mt 2088 1779 L
2052 1743 mt 2052 1815 L
4746 3515 mt 4818 3515 L
4782 3479 mt 4782 3551 L
5071 3242 mt 5143 3242 L
5107 3206 mt 5107 3278 L
4836 2820 mt 4908 2820 L
4872 2784 mt 4872 2856 L
2896 2352 mt 2968 2352 L
2932 2316 mt 2932 2388 L
5150 2549 mt 5222 2549 L
5186 2513 mt 5186 2585 L
2671 1550 mt 2743 1550 L
2707 1514 mt 2707 1586 L
3566 2029 mt 3638 2029 L
3602 1993 mt 3602 2065 L
3353 3250 mt 3425 3250 L
3389 3214 mt 3389 3286 L
3734 1772 mt 3806 1772 L
3770 1736 mt 3770 1808 L
4170 2247 mt 4242 2247 L
4206 2211 mt 4206 2283 L
3803 2899 mt 3875 2899 L
3839 2863 mt 3839 2935 L
3307 3314 mt 3379 3314 L
3343 3278 mt 3343 3350 L
3098 2691 mt 3170 2691 L
3134 2655 mt 3134 2727 L
4886 2261 mt 4958 2261 L
4922 2225 mt 4922 2297 L
4522 1561 mt 4594 1561 L
4558 1525 mt 4558 1597 L
3921 2562 mt 3993 2562 L
3957 2526 mt 3957 2598 L
4631 3595 mt 4703 3595 L
4667 3559 mt 4667 3631 L
3521 1936 mt 3593 1936 L
3557 1900 mt 3557 1972 L
4904  414 mt 4976  414 L
4940  378 mt 4940  450 L
5047 2815 mt 5119 2815 L
5083 2779 mt 5083 2851 L
2595 2189 mt 2667 2189 L
2631 2153 mt 2631 2225 L
3577 3131 mt 3649 3131 L
3613 3095 mt 3613 3167 L
3538 2869 mt 3610 2869 L
3574 2833 mt 3574 2905 L
4074 2270 mt 4146 2270 L
4110 2234 mt 4110 2306 L
3123 1662 mt 3195 1662 L
3159 1626 mt 3159 1698 L
5321 2298 mt 5393 2298 L
5357 2262 mt 5357 2334 L
2479 3675 mt 2551 3675 L
2515 3639 mt 2515 3711 L
2218 2115 mt 2290 2115 L
2254 2079 mt 2254 2151 L
4585 1689 mt 4657 1689 L
4621 1653 mt 4621 1725 L
4922 2001 mt 4994 2001 L
4958 1965 mt 4958 2037 L
4121 3125 mt 4193 3125 L
4157 3089 mt 4157 3161 L
3891 2256 mt 3963 2256 L
3927 2220 mt 3927 2292 L
1481 3093 mt 1553 3093 L
1517 3057 mt 1517 3129 L
4015 2602 mt 4087 2602 L
4051 2566 mt 4051 2638 L
3267 3331 mt 3339 3331 L
3303 3295 mt 3303 3367 L
3319 1277 mt 3391 1277 L
3355 1241 mt 3355 1313 L
4667 3527 mt 4739 3527 L
4703 3491 mt 4703 3563 L
2931 3281 mt 3003 3281 L
2967 3245 mt 2967 3317 L
3000 1514 mt 3072 1514 L
3036 1478 mt 3036 1550 L
3393 2347 mt 3465 2347 L
3429 2311 mt 3429 2383 L
4372 1526 mt 4444 1526 L
4408 1490 mt 4408 1562 L
2980 2488 mt 3052 2488 L
3016 2452 mt 3016 2524 L
3867 2175 mt 3939 2175 L
3903 2139 mt 3903 2211 L
4021 2637 mt 4093 2637 L
4057 2601 mt 4057 2673 L
4236 2554 mt 4308 2554 L
4272 2518 mt 4272 2590 L
3214 1823 mt 3286 1823 L
3250 1787 mt 3250 1859 L
3438 1434 mt 3510 1434 L
3474 1398 mt 3474 1470 L
2821 2018 mt 2893 2018 L
2857 1982 mt 2857 2054 L
5828 3425 mt 5900 3425 L
5864 3389 mt 5864 3461 L
3454 2180 mt 3526 2180 L
3490 2144 mt 3490 2216 L
2749 3137 mt 2821 3137 L
2785 3101 mt 2785 3173 L
2859 2695 mt 2931 2695 L
2895 2659 mt 2895 2731 L
4266 2057 mt 4338 2057 L
4302 2021 mt 4302 2093 L
3934 1624 mt 4006 1624 L
3970 1588 mt 3970 1660 L
4107 2475 mt 4179 2475 L
4143 2439 mt 4143 2511 L
3740 3457 mt 3812 3457 L
3776 3421 mt 3776 3493 L
4775 2401 mt 4847 2401 L
4811 2365 mt 4811 2437 L
2565 1680 mt 2637 1680 L
2601 1644 mt 2601 1716 L
3085 2423 mt 3157 2423 L
3121 2387 mt 3121 2459 L
4228 2214 mt 4300 2214 L
4264 2178 mt 4264 2250 L
2757 2589 mt 2829 2589 L
2793 2553 mt 2793 2625 L
4869 2859 mt 4941 2859 L
4905 2823 mt 4905 2895 L
3594 1255 mt 3666 1255 L
3630 1219 mt 3630 1291 L
5024 1698 mt 5096 1698 L
5060 1662 mt 5060 1734 L
3153 3063 mt 3225 3063 L
3189 3027 mt 3189 3099 L
3555 3503 mt 3627 3503 L
3591 3467 mt 3591 3539 L
3313 2768 mt 3385 2768 L
3349 2732 mt 3349 2804 L
2085 3265 mt 2157 3265 L
2121 3229 mt 2121 3301 L
4472 2659 mt 4544 2659 L
4508 2623 mt 4508 2695 L
3347 3028 mt 3419 3028 L
3383 2992 mt 3383 3064 L
3027 2160 mt 3099 2160 L
3063 2124 mt 3063 2196 L
1259 4072 mt 1331 4072 L
1295 4036 mt 1295 4108 L
1387 1954 mt 1459 1954 L
1423 1918 mt 1423 1990 L
2523 3610 mt 2595 3610 L
2559 3574 mt 2559 3646 L
3342 2682 mt 3414 2682 L
3378 2646 mt 3378 2718 L
3261 3436 mt 3333 3436 L
3297 3400 mt 3297 3472 L
4306 1462 mt 4378 1462 L
4342 1426 mt 4342 1498 L
3046 1318 mt 3118 1318 L
3082 1282 mt 3082 1354 L
4041 2994 mt 4113 2994 L
4077 2958 mt 4077 3030 L
3897 3144 mt 3969 3144 L
3933 3108 mt 3933 3180 L
4619 2480 mt 4691 2480 L
4655 2444 mt 4655 2516 L
2368 2506 mt 2440 2506 L
2404 2470 mt 2404 2542 L
3505 1960 mt 3577 1960 L
3541 1924 mt 3541 1996 L
3404 2007 mt 3476 2007 L
3440 1971 mt 3440 2043 L
4054 2677 mt 4126 2677 L
4090 2641 mt 4090 2713 L
4532 3289 mt 4604 3289 L
4568 3253 mt 4568 3325 L
4574 1404 mt 4646 1404 L
4610 1368 mt 4610 1440 L
2327 2265 mt 2399 2265 L
2363 2229 mt 2363 2301 L
6225 1121 mt 6297 1121 L
6261 1085 mt 6261 1157 L
2765 4616 mt 2837 4616 L
2801 4580 mt 2801 4652 L
3471 2089 mt 3543 2089 L
3507 2053 mt 3507 2125 L
4213 3731 mt 4285 3731 L
4249 3695 mt 4249 3767 L
1937 1990 mt 2009 1990 L
1973 1954 mt 1973 2026 L
3376 3553 mt 3448 3553 L
3412 3517 mt 3412 3589 L
4390 3752 mt 4462 3752 L
4426 3716 mt 4426 3788 L
3477 2736 mt 3549 2736 L
3513 2700 mt 3513 2772 L
2201 2078 mt 2273 2078 L
2237 2042 mt 2237 2114 L
4206 2879 mt 4278 2879 L
4242 2843 mt 4242 2915 L
4693 3057 mt 4765 3057 L
4729 3021 mt 4729 3093 L
3172 1764 mt 3244 1764 L
3208 1728 mt 3208 1800 L
2836 2356 mt 2908 2356 L
2872 2320 mt 2872 2392 L
3809 1978 mt 3881 1978 L
3845 1942 mt 3845 2014 L
3672 2218 mt 3744 2218 L
3708 2182 mt 3708 2254 L
4191 2405 mt 4263 2405 L
4227 2369 mt 4227 2441 L
5468 1911 mt 5540 1911 L
5504 1875 mt 5504 1947 L
3797 1715 mt 3869 1715 L
3833 1679 mt 3833 1751 L
3510 2125 mt 3582 2125 L
3546 2089 mt 3546 2161 L
4364 2731 mt 4436 2731 L
4400 2695 mt 4400 2767 L
2966 2920 mt 3038 2920 L
3002 2884 mt 3002 2956 L
2874 3191 mt 2946 3191 L
2910 3155 mt 2910 3227 L
2235 2099 mt 2307 2099 L
2271 2063 mt 2271 2135 L
3757 3693 mt 3829 3693 L
3793 3657 mt 3793 3729 L
3449 2510 mt 3521 2510 L
3485 2474 mt 3485 2546 L
3728 1794 mt 3800 1794 L
3764 1758 mt 3764 1830 L
3952 2062 mt 4024 2062 L
3988 2026 mt 3988 2098 L
3527 2104 mt 3599 2104 L
3563 2068 mt 3563 2140 L
4163 2606 mt 4235 2606 L
4199 2570 mt 4199 2642 L
3627 2388 mt 3699 2388 L
3663 2352 mt 3663 2424 L
2881 1538 mt 2953 1538 L
2917 1502 mt 2917 1574 L
2605 1643 mt 2677 1643 L
2641 1607 mt 2641 1679 L
4002 3942 mt 4074 3942 L
4038 3906 mt 4038 3978 L
5122 1087 mt 5194 1087 L
5158 1051 mt 5158 1123 L
4135 1865 mt 4207 1865 L
4171 1829 mt 4171 1901 L
3683 2410 mt 3755 2410 L
3719 2374 mt 3719 2446 L
3196 1984 mt 3268 1984 L
3232 1948 mt 3232 2020 L
3655 2519 mt 3727 2519 L
3691 2483 mt 3691 2555 L
3091 2796 mt 3163 2796 L
3127 2760 mt 3127 2832 L
3226 2597 mt 3298 2597 L
3262 2561 mt 3262 2633 L
3129 1858 mt 3201 1858 L
3165 1822 mt 3165 1894 L
4114 1878 mt 4186 1878 L
4150 1842 mt 4150 1914 L
3104 2445 mt 3176 2445 L
3140 2409 mt 3140 2481 L
2643 2835 mt 2715 2835 L
2679 2799 mt 2679 2871 L
1722 1448 mt 1794 1448 L
1758 1412 mt 1758 1484 L
5096 1707 mt 5168 1707 L
5132 1671 mt 5132 1743 L
3616 2759 mt 3688 2759 L
3652 2723 mt 3652 2795 L
3381 3005 mt 3453 3005 L
3417 2969 mt 3417 3041 L
3780 2432 mt 3852 2432 L
3816 2396 mt 3816 2468 L
3370 1966 mt 3442 1966 L
3406 1930 mt 3406 2002 L
3364 2584 mt 3436 2584 L
3400 2548 mt 3400 2620 L
3560 3075 mt 3632 3075 L
3596 3039 mt 3596 3111 L
2910 2633 mt 2982 2633 L
2946 2597 mt 2946 2669 L
2282 2750 mt 2354 2750 L
2318 2714 mt 2318 2786 L
2586 2170 mt 2658 2170 L
2622 2134 mt 2622 2206 L
3116 3349 mt 3188 3349 L
3152 3313 mt 3152 3385 L
4425 2343 mt 4497 2343 L
4461 2307 mt 4461 2379 L
1766 2514 mt 1838 2514 L
1802 2478 mt 1802 2550 L
4149 2427 mt 4221 2427 L
4185 2391 mt 4185 2463 L
4492 1354 mt 4564 1354 L
4528 1318 mt 4528 1390 L
1674 1845 mt 1746 1845 L
1710 1809 mt 1710 1881 L
3927 2754 mt 3999 2754 L
3963 2718 mt 3963 2790 L
4047 3257 mt 4119 3257 L
4083 3221 mt 4083 3293 L
2924 2967 mt 2996 2967 L
2960 2931 mt 2960 3003 L
2615 2209 mt 2687 2209 L
2651 2173 mt 2651 2245 L
4941 2894 mt 5013 2894 L
4977 2858 mt 4977 2930 L
2706 2972 mt 2778 2972 L
2742 2936 mt 2742 3008 L
3078 4305 mt 3150 4305 L
3114 4269 mt 3114 4341 L
4080 2806 mt 4152 2806 L
4116 2770 mt 4116 2842 L
4243 3581 mt 4315 3581 L
4279 3545 mt 4279 3617 L
2355 2316 mt 2427 2316 L
2391 2280 mt 2391 2352 L
3066 2593 mt 3138 2593 L
3102 2557 mt 3102 2629 L
4282 3178 mt 4354 3178 L
4318 3142 mt 4318 3214 L
3996 2307 mt 4068 2307 L
4032 2271 mt 4032 2343 L
4655 2199 mt 4727 2199 L
4691 2163 mt 4691 2235 L
3861 2484 mt 3933 2484 L
3897 2448 mt 3897 2520 L
3814 2073 mt 3886 2073 L
3850 2037 mt 3850 2109 L
3915 2130 mt 3987 2130 L
3951 2094 mt 3951 2166 L
3644 2320 mt 3716 2320 L
3680 2284 mt 3680 2356 L
3336 2773 mt 3408 2773 L
3372 2737 mt 3372 2809 L
2126 3908 mt 2198 3908 L
2162 3872 mt 2162 3944 L
4177 2727 mt 4249 2727 L
4213 2691 mt 4213 2763 L
3638 2983 mt 3710 2983 L
3674 2947 mt 3674 3019 L
2938 2914 mt 3010 2914 L
2974 2878 mt 2974 2950 L
2888 2940 mt 2960 2940 L
2924 2904 mt 2924 2976 L
2732 2325 mt 2804 2325 L
2768 2289 mt 2768 2361 L
3482 3340 mt 3554 3340 L
3518 3304 mt 3518 3376 L
 863 3479 mt  935 3479 L
 899 3443 mt  899 3515 L
3141 2012 mt 3213 2012 L
3177 1976 mt 3177 2048 L
3768 2930 mt 3840 2930 L
3804 2894 mt 3804 2966 L
3232 3227 mt 3304 3227 L
3268 3191 mt 3268 3263 L
4542 3000 mt 4614 3000 L
4578 2964 mt 4578 3036 L
2513 3081 mt 2585 3081 L
2549 3045 mt 2549 3117 L
4199 3213 mt 4271 3213 L
4235 3177 mt 4235 3249 L
5413 1614 mt 5485 1614 L
5449 1578 mt 5449 1650 L
3516 2811 mt 3588 2811 L
3552 2775 mt 3552 2847 L
3273 2989 mt 3345 2989 L
3309 2953 mt 3309 3025 L
4381 2619 mt 4453 2619 L
4417 2583 mt 4417 2655 L
3202 1995 mt 3274 1995 L
3238 1959 mt 3238 2031 L
3599 2567 mt 3671 2567 L
3635 2531 mt 3635 2603 L
2959 3848 mt 3031 3848 L
2995 3812 mt 2995 3884 L
3040 2462 mt 3112 2462 L
3076 2426 mt 3076 2498 L
4789 1851 mt 4861 1851 L
4825 1815 mt 4825 1887 L
2781 2233 mt 2853 2233 L
2817 2197 mt 2817 2269 L
3820 3206 mt 3892 3206 L
3856 3170 mt 3856 3242 L
3443 2329 mt 3515 2329 L
3479 2293 mt 3479 2365 L
3958 2067 mt 4030 2067 L
3994 2031 mt 3994 2103 L
1991 2365 mt 2063 2365 L
2027 2329 mt 2027 2401 L
4259 1388 mt 4331 1388 L
4295 1352 mt 4295 1424 L
3666 2361 mt 3738 2361 L
3702 2325 mt 3702 2397 L
2715 2801 mt 2787 2801 L
2751 2765 mt 2751 2837 L
3359 2145 mt 3431 2145 L
3395 2109 mt 3395 2181 L
4274 3039 mt 4346 3039 L
4310 3003 mt 4310 3075 L
5531 2436 mt 5603 2436 L
5567 2400 mt 5567 2472 L
2146 2094 mt 2218 2094 L
2182 2058 mt 2182 2130 L
3249 1787 mt 3321 1787 L
3285 1751 mt 3285 1823 L
3178 2840 mt 3250 2840 L
3214 2804 mt 3214 2876 L
2381 2778 mt 2453 2778 L
2417 2742 mt 2417 2814 L
4100 1816 mt 4172 1816 L
4136 1780 mt 4136 1852 L
3466 2624 mt 3538 2624 L
3502 2588 mt 3502 2660 L
4142 1653 mt 4214 1653 L
4178 1617 mt 4178 1689 L
2652 2528 mt 2724 2528 L
2688 2492 mt 2688 2564 L
4034 2904 mt 4106 2904 L
4070 2868 mt 4070 2940 L
3971 3774 mt 4043 3774 L
4007 3738 mt 4007 3810 L
3190 2782 mt 3262 2782 L
3226 2746 mt 3226 2818 L
4009 2854 mt 4081 2854 L
4045 2818 mt 4045 2890 L
4416 1502 mt 4488 1502 L
4452 1466 mt 4452 1538 L
1965 2962 mt 2037 2962 L
2001 2926 mt 2001 2998 L
3946 2541 mt 4018 2541 L
3982 2505 mt 3982 2577 L
2805 4131 mt 2877 4131 L
2841 4095 mt 2841 4167 L
5245  957 mt 5317  957 L
5281  921 mt 5281  993 L
4453 2051 mt 4525 2051 L
4489 2015 mt 4489 2087 L
3723 3711 mt 3795 3711 L
3759 3675 mt 3759 3747 L
2689 2467 mt 2761 2467 L
2725 2431 mt 2725 2503 L
4251 1923 mt 4323 1923 L
4287 1887 mt 4287 1959 L
3544 3045 mt 3616 3045 L
3580 3009 mt 3580 3081 L
3785 1872 mt 3857 1872 L
3821 1836 mt 3821 1908 L
5211 2686 mt 5283 2686 L
5247 2650 mt 5247 2722 L
3398 2787 mt 3470 2787 L
3434 2751 mt 3434 2823 L
2502 1740 mt 2574 1740 L
2538 1704 mt 2538 1776 L
3989 2722 mt 4061 2722 L
4025 2686 mt 4025 2758 L
4060 2523 mt 4132 2523 L
4096 2487 mt 4096 2559 L
3325 2449 mt 3397 2449 L
3361 2413 mt 3361 2485 L
3700 3446 mt 3772 3446 L
3736 3410 mt 3736 3482 L
2490 2849 mt 2562 2849 L
2526 2813 mt 2526 2885 L
3762 1972 mt 3834 1972 L
3798 1936 mt 3798 2008 L
4482 2571 mt 4554 2571 L
4518 2535 mt 4518 2607 L
2797 3877 mt 2869 3877 L
2833 3841 mt 2833 3913 L
4760 3118 mt 4832 3118 L
4796 3082 mt 4796 3154 L
3850 2558 mt 3922 2558 L
3886 2522 mt 3886 2594 L
2545 2501 mt 2617 2501 L
2581 2465 mt 2581 2537 L
2662 3151 mt 2734 3151 L
2698 3115 mt 2698 3187 L
4732 2700 mt 4804 2700 L
4768 2664 mt 4768 2736 L
2432 3017 mt 2504 3017 L
2468 2981 mt 2468 3053 L
4820 2251 mt 4892 2251 L
4856 2215 mt 4856 2287 L
3909 2951 mt 3981 2951 L
3945 2915 mt 3945 2987 L
4463 3468 mt 4535 3468 L
4499 3432 mt 4499 3504 L
1907 2293 mt 1979 2293 L
1943 2257 mt 1943 2329 L
3208 2576 mt 3280 2576 L
3244 2540 mt 3244 2612 L
3033 2664 mt 3105 2664 L
3069 2628 mt 3069 2700 L
5606 3625 mt 5678 3625 L
5642 3589 mt 5642 3661 L
3661 3051 mt 3733 3051 L
3697 3015 mt 3697 3087 L
4094 3491 mt 4166 3491 L
4130 3455 mt 4130 3527 L
2407 2909 mt 2479 2909 L
2443 2873 mt 2443 2945 L
3677 2228 mt 3749 2228 L
3713 2192 mt 3713 2264 L
2444 2764 mt 2516 2764 L
2480 2728 mt 2480 2800 L
3493 1917 mt 3565 1917 L
3529 1881 mt 3529 1953 L
1619 3822 mt 1691 3822 L
1655 3786 mt 1655 3858 L
4680 3112 mt 4752 3112 L
4716 3076 mt 4716 3148 L
3488 2334 mt 3560 2334 L
3524 2298 mt 3524 2370 L
3588 2194 mt 3660 2194 L
3624 2158 mt 3624 2230 L
3166 2165 mt 3238 2165 L
3202 2129 mt 3202 2201 L
3013 2150 mt 3085 2150 L
3049 2114 mt 3049 2186 L
4512 1476 mt 4584 1476 L
4548 1440 mt 4548 1512 L
2298 2275 mt 2370 2275 L
2334 2239 mt 2334 2311 L
3649 2864 mt 3721 2864 L
3685 2828 mt 3685 2900 L
3302 2741 mt 3374 2741 L
3338 2705 mt 3338 2777 L
2993 2668 mt 3065 2668 L
3029 2632 mt 3029 2704 L
3549 2288 mt 3621 2288 L
3585 2252 mt 3585 2324 L
2267 2242 mt 2339 2242 L
2303 2206 mt 2303 2278 L
4706 1671 mt 4778 1671 L
4742 1635 mt 4742 1707 L
1556 4205 mt 1628 4205 L
1592 4169 mt 1592 4241 L
3745 2338 mt 3817 2338 L
3781 2302 mt 3781 2374 L
2844 1748 mt 2916 1748 L
2880 1712 mt 2880 1784 L
2680 3235 mt 2752 3235 L
2716 3199 mt 2716 3271 L
3499 3980 mt 3571 3980 L
3535 3944 mt 3535 4016 L
3135 2024 mt 3207 2024 L
3171 1988 mt 3171 2060 L
2624 2392 mt 2696 2392 L
2660 2356 mt 2660 2428 L
2165 1419 mt 2237 1419 L
2201 1383 mt 2201 1455 L
2040 1831 mt 2112 1831 L
2076 1795 mt 2076 1867 L
4314 2083 mt 4386 2083 L
4350 2047 mt 4350 2119 L
3964 2641 mt 4036 2641 L
4000 2605 mt 4000 2677 L
4961 2889 mt 5033 2889 L
4997 2853 mt 4997 2925 L
2106 2646 mt 2178 2646 L
2142 2610 mt 2142 2682 L
4156 2844 mt 4228 2844 L
4192 2808 mt 4192 2880 L
3184 2440 mt 3256 2440 L
3220 2404 mt 3220 2476 L
3220 3376 mt 3292 3376 L
3256 3340 mt 3256 3412 L
4398 3034 mt 4470 3034 L
4434 2998 mt 4434 3070 L
4347 1732 mt 4419 1732 L
4383 1696 mt 4383 1768 L
3855 1802 mt 3927 1802 L
3891 1766 mt 3891 1838 L
5700 1489 mt 5772 1489 L
5736 1453 mt 5736 1525 L
4128 2536 mt 4200 2536 L
4164 2500 mt 4164 2572 L
2987 1006 mt 3059 1006 L
3023  970 mt 3023 1042 L
2183 2655 mt 2255 2655 L
2219 2619 mt 2219 2691 L
2903 3220 mt 2975 3220 L
2939 3184 mt 2939 3256 L
2063 3087 mt 2135 3087 L
2099 3051 mt 2099 3123 L
3160 2140 mt 3232 2140 L
3196 2104 mt 3196 2176 L
2534 2471 mt 2606 2471 L
2570 2435 mt 2570 2507 L
3432 3273 mt 3504 3273 L
3468 3237 mt 3468 3309 L
3571 2611 mt 3643 2611 L
3607 2575 mt 3607 2647 L
3330 2935 mt 3402 2935 L
3366 2899 mt 3366 2971 L
2341 1723 mt 2413 1723 L
2377 1687 mt 2377 1759 L
2973 1898 mt 3045 1898 L
3009 1862 mt 3009 1934 L
3110 2830 mt 3182 2830 L
3146 2794 mt 3146 2866 L
3977 3405 mt 4049 3405 L
4013 3369 mt 4013 3441 L
3426 1756 mt 3498 1756 L
3462 1720 mt 3462 1792 L
5180 2673 mt 5252 2673 L
5216 2637 mt 5216 2709 L
3072 2745 mt 3144 2745 L
3108 2709 mt 3108 2781 L
3007 3297 mt 3079 3297 L
3043 3261 mt 3043 3333 L
1842 2135 mt 1914 2135 L
1878 2099 mt 1878 2171 L
2813 3658 mt 2885 3658 L
2849 3622 mt 2849 3694 L
1805 2418 mt 1877 2418 L
1841 2382 mt 1841 2454 L
2723 2396 mt 2795 2396 L
2759 2360 mt 2759 2432 L
2773 3358 mt 2845 3358 L
2809 3322 mt 2809 3394 L
2740 3184 mt 2812 3184 L
2776 3148 mt 2776 3220 L
4444 1232 mt 4516 1232 L
4480 1196 mt 4480 1268 L
3826 2453 mt 3898 2453 L
3862 2417 mt 3862 2489 L
4067 2978 mt 4139 2978 L
4103 2942 mt 4103 3014 L
4221 3386 mt 4293 3386 L
4257 3350 mt 4257 3422 L
3610 2279 mt 3682 2279 L
3646 2243 mt 3646 2315 L
3582 3641 mt 3654 3641 L
3618 3605 mt 3618 3677 L
3717 2237 mt 3789 2237 L
3753 2201 mt 3753 2273 L
4564 2580 mt 4636 2580 L
4600 2544 mt 4600 2616 L
4597 1942 mt 4669 1942 L
4633 1906 mt 4633 1978 L
3415 2185 mt 3487 2185 L
3451 2149 mt 3451 2221 L
3059 2497 mt 3131 2497 L
3095 2461 mt 3095 2533 L
3284 3099 mt 3356 3099 L
3320 3063 mt 3320 3135 L
3633 2713 mt 3705 2713 L
3669 2677 mt 3669 2749 L
4501 2532 mt 4573 2532 L
4537 2496 mt 4537 2568 L
3020 3367 mt 3092 3367 L
3056 3331 mt 3056 3403 L
3237 2650 mt 3309 2650 L
3273 2614 mt 3273 2686 L
4028 2718 mt 4100 2718 L
4064 2682 mt 4064 2754 L
2251 1885 mt 2323 1885 L
2287 1849 mt 2287 1921 L
3706 2284 mt 3778 2284 L
3742 2248 mt 3742 2320 L
2952 2458 mt 3024 2458 L
2988 2422 mt 2988 2494 L
4981 1809 mt 5053 1809 L
5017 1773 mt 5017 1845 L
3879 2946 mt 3951 2946 L
3915 2910 mt 3915 2982 L
2634 3157 mt 2706 3157 L
2670 3121 mt 2670 3193 L
2312 4023 mt 2384 4023 L
2348 3987 mt 2348 4059 L
3255 1604 mt 3327 1604 L
3291 1568 mt 3291 1640 L
gs 899 414 5363 4203 rc
gr

0 sg
2799 5104 mt 
(\(F,DCTs,iMLP\)) s
 482 3273 mt  -90 rotate
(\(F,DCTb,MLP\)) s
90 rotate
2975  223 mt 
(Corr = 0.14) s

end %%Color Dict

eplot
%%EndObject

epage
end

showpage

%%Trailer
%%EOF
