%!PS-Adobe-3.0 EPSF-3.0
%%Creator: MATLAB, The Mathworks, Inc. Version 7.7.0.471 (R2008b). Operating System: Microsoft Windows XP.
%%Title: Pictures\main_zoo_mvar_analysis_data_BMI_xcorr_bmig_p1_k2_1_9.eps
%%CreationDate: 10/26/2009  05:45:15
%%DocumentNeededFonts: Helvetica
%%DocumentProcessColors: Cyan Magenta Yellow Black
%%LanguageLevel: 2
%%Pages: 1
%%BoundingBox:    37   180   549   616
%%EndComments

%%BeginProlog
% MathWorks dictionary
/MathWorks 160 dict begin
% definition operators
/bdef {bind def} bind def
/ldef {load def} bind def
/xdef {exch def} bdef
/xstore {exch store} bdef
% operator abbreviations
/c  /clip ldef
/cc /concat ldef
/cp /closepath ldef
/gr /grestore ldef
/gs /gsave ldef
/mt /moveto ldef
/np /newpath ldef
/cm /currentmatrix ldef
/sm /setmatrix ldef
/rm /rmoveto ldef
/rl /rlineto ldef
/s {show newpath} bdef
/sc {setcmykcolor} bdef
/sr /setrgbcolor ldef
/sg /setgray ldef
/w /setlinewidth ldef
/j /setlinejoin ldef
/cap /setlinecap ldef
/rc {rectclip} bdef
/rf {rectfill} bdef
% page state control
/pgsv () def
/bpage {/pgsv save def} bdef
/epage {pgsv restore} bdef
/bplot /gsave ldef
/eplot {stroke grestore} bdef
% orientation switch
/portraitMode 0 def /landscapeMode 1 def /rotateMode 2 def
% coordinate system mappings
/dpi2point 0 def
% font control
/FontSize 0 def
/FMS {/FontSize xstore findfont [FontSize 0 0 FontSize neg 0 0]
  makefont setfont} bdef
/ISOLatin1Encoding where {pop /WindowsLatin1Encoding 256 array bdef
ISOLatin1Encoding WindowsLatin1Encoding copy pop
/.notdef/.notdef/quotesinglbase/florin/quotedblbase/ellipsis/dagger
/daggerdbl/circumflex/perthousand/Scaron/guilsinglleft/OE/.notdef/.notdef
/.notdef/.notdef/quoteleft/quoteright/quotedblleft/quotedblright/bullet
/endash/emdash/tilde/trademark/scaron/guilsinglright/oe/.notdef/.notdef
/Ydieresis WindowsLatin1Encoding 128 32 getinterval astore pop}
{/WindowsLatin1Encoding StandardEncoding bdef} ifelse
/reencode {exch dup where {pop load} {pop StandardEncoding} ifelse
  exch dup 3 1 roll findfont dup length dict begin
  { 1 index /FID ne {def}{pop pop} ifelse } forall
  /Encoding exch def currentdict end definefont pop} bdef
/isroman {findfont /CharStrings get /Agrave known} bdef
/FMSR {3 1 roll 1 index dup isroman {reencode} {pop pop} ifelse
  exch FMS} bdef
/csm {1 dpi2point div -1 dpi2point div scale neg translate
 dup landscapeMode eq {pop -90 rotate}
  {rotateMode eq {90 rotate} if} ifelse} bdef
% line types: solid, dotted, dashed, dotdash
/SO { [] 0 setdash } bdef
/DO { [.5 dpi2point mul 4 dpi2point mul] 0 setdash } bdef
/DA { [6 dpi2point mul] 0 setdash } bdef
/DD { [.5 dpi2point mul 4 dpi2point mul 6 dpi2point mul 4
  dpi2point mul] 0 setdash } bdef
% macros for lines and objects
/L {lineto stroke} bdef
/MP {3 1 roll moveto 1 sub {rlineto} repeat} bdef
/AP {{rlineto} repeat} bdef
/PDlw -1 def
/W {/PDlw currentlinewidth def setlinewidth} def
/PP {closepath eofill} bdef
/DP {closepath stroke} bdef
/MR {4 -2 roll moveto dup  0 exch rlineto exch 0 rlineto
  neg 0 exch rlineto closepath} bdef
/FR {MR stroke} bdef
/PR {MR fill} bdef
/L1i {{currentfile picstr readhexstring pop} image} bdef
/tMatrix matrix def
/MakeOval {newpath tMatrix currentmatrix pop translate scale
0 0 1 0 360 arc tMatrix setmatrix} bdef
/FO {MakeOval stroke} bdef
/PO {MakeOval fill} bdef
/PD {currentlinewidth 2 div 0 360 arc fill
   PDlw -1 eq not {PDlw w /PDlw -1 def} if} def
/FA {newpath tMatrix currentmatrix pop translate scale
  0 0 1 5 -2 roll arc tMatrix setmatrix stroke} bdef
/PA {newpath tMatrix currentmatrix pop	translate 0 0 moveto scale
  0 0 1 5 -2 roll arc closepath tMatrix setmatrix fill} bdef
/FAn {newpath tMatrix currentmatrix pop translate scale
  0 0 1 5 -2 roll arcn tMatrix setmatrix stroke} bdef
/PAn {newpath tMatrix currentmatrix pop translate 0 0 moveto scale
  0 0 1 5 -2 roll arcn closepath tMatrix setmatrix fill} bdef
/vradius 0 def /hradius 0 def /lry 0 def
/lrx 0 def /uly 0 def /ulx 0 def /rad 0 def
/MRR {/vradius xdef /hradius xdef /lry xdef /lrx xdef /uly xdef
  /ulx xdef newpath tMatrix currentmatrix pop ulx hradius add uly
  vradius add translate hradius vradius scale 0 0 1 180 270 arc 
  tMatrix setmatrix lrx hradius sub uly vradius add translate
  hradius vradius scale 0 0 1 270 360 arc tMatrix setmatrix
  lrx hradius sub lry vradius sub translate hradius vradius scale
  0 0 1 0 90 arc tMatrix setmatrix ulx hradius add lry vradius sub
  translate hradius vradius scale 0 0 1 90 180 arc tMatrix setmatrix
  closepath} bdef
/FRR {MRR stroke } bdef
/PRR {MRR fill } bdef
/MlrRR {/lry xdef /lrx xdef /uly xdef /ulx xdef /rad lry uly sub 2 div def
  newpath tMatrix currentmatrix pop ulx rad add uly rad add translate
  rad rad scale 0 0 1 90 270 arc tMatrix setmatrix lrx rad sub lry rad
  sub translate rad rad scale 0 0 1 270 90 arc tMatrix setmatrix
  closepath} bdef
/FlrRR {MlrRR stroke } bdef
/PlrRR {MlrRR fill } bdef
/MtbRR {/lry xdef /lrx xdef /uly xdef /ulx xdef /rad lrx ulx sub 2 div def
  newpath tMatrix currentmatrix pop ulx rad add uly rad add translate
  rad rad scale 0 0 1 180 360 arc tMatrix setmatrix lrx rad sub lry rad
  sub translate rad rad scale 0 0 1 0 180 arc tMatrix setmatrix
  closepath} bdef
/FtbRR {MtbRR stroke } bdef
/PtbRR {MtbRR fill } bdef
/stri 6 array def /dtri 6 array def
/smat 6 array def /dmat 6 array def
/tmat1 6 array def /tmat2 6 array def /dif 3 array def
/asub {/ind2 exch def /ind1 exch def dup dup
  ind1 get exch ind2 get sub exch } bdef
/tri_to_matrix {
  2 0 asub 3 1 asub 4 0 asub 5 1 asub
  dup 0 get exch 1 get 7 -1 roll astore } bdef
/compute_transform {
  dmat dtri tri_to_matrix tmat1 invertmatrix 
  smat stri tri_to_matrix tmat2 concatmatrix } bdef
/ds {stri astore pop} bdef
/dt {dtri astore pop} bdef
/db {2 copy /cols xdef /rows xdef mul dup 3 mul string
  currentfile 
  3 index 0 eq {/ASCIIHexDecode filter}
  {/ASCII85Decode filter 3 index 2 eq {/RunLengthDecode filter} if }
  ifelse exch readstring pop
  dup 0 3 index getinterval /rbmap xdef
  dup 2 index dup getinterval /gbmap xdef
  1 index dup 2 mul exch getinterval /bbmap xdef pop pop}bdef
/it {gs np dtri aload pop moveto lineto lineto cp c
  cols rows 8 compute_transform 
  rbmap gbmap bbmap true 3 colorimage gr}bdef
/il {newpath moveto lineto stroke}bdef
currentdict end def
%%EndProlog

%%BeginSetup
MathWorks begin

0 cap

end
%%EndSetup

%%Page: 1 1
%%BeginPageSetup
%%PageBoundingBox:    37   180   549   616
MathWorks begin
bpage
%%EndPageSetup

%%BeginObject: obj1
bplot

/dpi2point 12 def
portraitMode 0216 7344 csm

  234   -48  6149  5231 rc
85 dict begin %Colortable dictionary
/c0 { 0.000000 0.000000 0.000000 sr} bdef
/c1 { 1.000000 1.000000 1.000000 sr} bdef
/c2 { 0.900000 0.000000 0.000000 sr} bdef
/c3 { 0.000000 0.820000 0.000000 sr} bdef
/c4 { 0.000000 0.000000 0.800000 sr} bdef
/c5 { 0.910000 0.820000 0.320000 sr} bdef
/c6 { 1.000000 0.260000 0.820000 sr} bdef
/c7 { 0.000000 0.820000 0.820000 sr} bdef
c0
1 j
1 sg
   0    0 6919 5187 rf
6 w
0 4202 5362 0 0 -4202 899 4616 4 MP
PP
-5362 0 0 4202 5362 0 0 -4202 899 4616 5 MP stroke
4 w
DO
SO
6 w
0 sg
 899  414 mt 6261  414 L
 899 4616 mt 6261 4616 L
6261 4616 mt 6261  414 L
 899 4616 mt  899  414 L
 899 4616 mt 6261 4616 L
 899 4616 mt  899  414 L
 919 4616 mt  919 4562 L
 919  414 mt  919  467 L
%%IncludeResource: font Helvetica
/Helvetica /WindowsLatin1Encoding 240 FMSR

 713 4873 mt 
(-3) s
1806 4616 mt 1806 4562 L
1806  414 mt 1806  467 L
1600 4873 mt 
(-2) s
2693 4616 mt 2693 4562 L
2693  414 mt 2693  467 L
2487 4873 mt 
(-1) s
3580 4616 mt 3580 4562 L
3580  414 mt 3580  467 L
3514 4873 mt 
(0) s
4466 4616 mt 4466 4562 L
4466  414 mt 4466  467 L
4400 4873 mt 
(1) s
5353 4616 mt 5353 4562 L
5353  414 mt 5353  467 L
5287 4873 mt 
(2) s
6240 4616 mt 6240 4562 L
6240  414 mt 6240  467 L
6174 4873 mt 
(3) s
 899 4599 mt  952 4599 L
6261 4599 mt 6207 4599 L
 591 4688 mt 
(-3) s
 899 3904 mt  952 3904 L
6261 3904 mt 6207 3904 L
 591 3993 mt 
(-2) s
 899 3209 mt  952 3209 L
6261 3209 mt 6207 3209 L
 591 3298 mt 
(-1) s
 899 2514 mt  952 2514 L
6261 2514 mt 6207 2514 L
 731 2603 mt 
(0) s
 899 1820 mt  952 1820 L
6261 1820 mt 6207 1820 L
 731 1909 mt 
(1) s
 899 1125 mt  952 1125 L
6261 1125 mt 6207 1125 L
 731 1214 mt 
(2) s
 899  430 mt  952  430 L
6261  430 mt 6207  430 L
 731  519 mt 
(3) s
 899  414 mt 6261  414 L
 899 4616 mt 6261 4616 L
6261 4616 mt 6261  414 L
 899 4616 mt  899  414 L
gs 899 414 5363 4203 rc
gr

/c8 { 0.000000 0.000000 1.000000 sr} bdef
c8
4213 1756 mt 4285 1756 L
4249 1720 mt 4249 1792 L
4719 1930 mt 4791 1930 L
4755 1894 mt 4755 1966 L
2866 2584 mt 2938 2584 L
2902 2548 mt 2902 2620 L
2545 3081 mt 2617 3081 L
2581 3045 mt 2581 3117 L
3940 1816 mt 4012 1816 L
3976 1780 mt 3976 1852 L
2605 2067 mt 2677 2067 L
2641 2031 mt 2641 2103 L
1556 3797 mt 1628 3797 L
1592 3761 mt 1592 3833 L
3958 2405 mt 4030 2405 L
3994 2369 mt 3994 2441 L
3897 1831 mt 3969 1831 L
3933 1795 mt 3933 1867 L
4760 2204 mt 4832 2204 L
4796 2168 mt 4796 2240 L
2575 2180 mt 2647 2180 L
2611 2144 mt 2611 2216 L
3627 2150 mt 3699 2150 L
3663 2114 mt 3663 2186 L
4805 2480 mt 4877 2480 L
4841 2444 mt 4841 2516 L
3370 2467 mt 3442 2467 L
3406 2431 mt 3406 2503 L
4564 2125 mt 4636 2125 L
4600 2089 mt 4600 2161 L
3532 2401 mt 3604 2401 L
3568 2365 mt 3568 2437 L
3683 3625 mt 3755 3625 L
3719 3589 mt 3719 3661 L
4034 2519 mt 4106 2519 L
4070 2483 mt 4070 2555 L
4492 2554 mt 4564 2554 L
4528 2518 mt 4528 2590 L
3757 2624 mt 3829 2624 L
3793 2588 mt 3793 2660 L
2765 3118 mt 2837 3118 L
2801 3082 mt 2801 3154 L
3873 3908 mt 3945 3908 L
3909 3872 mt 3909 3944 L
2513 2275 mt 2585 2275 L
2549 2239 mt 2549 2311 L
2987 2462 mt 3059 2462 L
3023 2426 mt 3023 2498 L
4228 2884 mt 4300 2884 L
4264 2848 mt 4264 2920 L
3493 2145 mt 3565 2145 L
3529 2109 mt 3529 2181 L
2624 2967 mt 2696 2967 L
2660 2931 mt 2660 3003 L
3803 3322 mt 3875 3322 L
3839 3286 mt 3839 3358 L
3655 1680 mt 3727 1680 L
3691 1644 mt 3691 1716 L
3934 1990 mt 4006 1990 L
3970 1954 mt 3970 2026 L
2146 2619 mt 2218 2619 L
2182 2583 mt 2182 2655 L
3290 1748 mt 3362 1748 L
3326 1712 mt 3326 1784 L
2381 2214 mt 2453 2214 L
2417 2178 mt 2417 2250 L
3410 3112 mt 3482 3112 L
3446 3076 mt 3446 3148 L
3415 1995 mt 3487 1995 L
3451 1959 mt 3451 2031 L
3555 2104 mt 3627 2104 L
3591 2068 mt 3591 2140 L
3768 2637 mt 3840 2637 L
3804 2601 mt 3804 2673 L
2298 2493 mt 2370 2493 L
2334 2457 mt 2334 2529 L
3202 2536 mt 3274 2536 L
3238 2500 mt 3238 2572 L
3249 2655 mt 3321 2655 L
3285 2619 mt 3285 2691 L
3588 2279 mt 3660 2279 L
3624 2243 mt 3624 2315 L
4236 1462 mt 4308 1462 L
4272 1426 mt 4272 1498 L
5606 2199 mt 5678 2199 L
5642 2163 mt 5642 2235 L
3649 3297 mt 3721 3297 L
3685 3261 mt 3685 3333 L
4463 3540 mt 4535 3540 L
4499 3504 mt 4499 3576 L
3477 3848 mt 3549 3848 L
3513 3812 mt 3513 3884 L
3347 2165 mt 3419 2165 L
3383 2129 mt 3383 2201 L
4107 3386 mt 4179 3386 L
4143 3350 mt 4143 3422 L
2565 2849 mt 2637 2849 L
2601 2813 mt 2601 2885 L
4142 2951 mt 4214 2951 L
4178 2915 mt 4178 2987 L
2903 3553 mt 2975 3553 L
2939 3517 mt 2939 3589 L
3728 1538 mt 3800 1538 L
3764 1502 mt 3764 1574 L
3826 2347 mt 3898 2347 L
3862 2311 mt 3862 2383 L
4028 2782 mt 4100 2782 L
4064 2746 mt 4064 2818 L
3711 1049 mt 3783 1049 L
3747 1013 mt 3747 1085 L
3661 2545 mt 3733 2545 L
3697 2509 mt 3697 2581 L
3166 1966 mt 3238 1966 L
3202 1930 mt 3202 2002 L
4381 1723 mt 4453 1723 L
4417 1687 mt 4417 1759 L
2993 2293 mt 3065 2293 L
3029 2257 mt 3029 2329 L
4184 2423 mt 4256 2423 L
4220 2387 mt 4220 2459 L
3342 3877 mt 3414 3877 L
3378 3841 mt 3378 3913 L
2251 1787 mt 2323 1787 L
2287 1751 mt 2287 1823 L
3426 3515 mt 3498 3515 L
3462 3479 mt 3462 3551 L
4836 2488 mt 4908 2488 L
4872 2452 mt 4872 2524 L
4015 1936 mt 4087 1936 L
4051 1900 mt 4051 1972 L
3921 2361 mt 3993 2361 L
3957 2325 mt 3957 2397 L
3605 1858 mt 3677 1858 L
3641 1822 mt 3641 1894 L
3085 2611 mt 3157 2611 L
3121 2575 mt 3121 2647 L
4054 2012 mt 4126 2012 L
4090 1976 mt 4090 2048 L
2407 2218 mt 2479 2218 L
2443 2182 mt 2443 2254 L
2805 3213 mt 2877 3213 L
2841 3177 mt 2841 3249 L
4693 2874 mt 4765 2874 L
4729 2838 mt 4729 2910 L
4251 3273 mt 4323 3273 L
4287 3237 mt 4287 3309 L
2732 1624 mt 2804 1624 L
2768 1588 mt 2768 1660 L
 863 2029 mt  935 2029 L
 899 1993 mt  899 2065 L
3273 3479 mt 3345 3479 L
3309 3443 mt 3309 3515 L
4425 2709 mt 4497 2709 L
4461 2673 mt 4461 2745 L
2680 2379 mt 2752 2379 L
2716 2343 mt 2716 2415 L
2749 1978 mt 2821 1978 L
2785 1942 mt 2785 2014 L
4243 2956 mt 4315 2956 L
4279 2920 mt 4279 2992 L
3571 1593 mt 3643 1593 L
3607 1557 mt 3607 1629 L
3104 2549 mt 3176 2549 L
3140 2513 mt 3140 2585 L
4074 3011 mt 4146 3011 L
4110 2975 mt 4110 3047 L
3734 1152 mt 3806 1152 L
3770 1116 mt 3770 1188 L
4266 2325 mt 4338 2325 L
4302 2289 mt 4302 2361 L
4094 2677 mt 4166 2677 L
4130 2641 mt 4130 2713 L
3381 1972 mt 3453 1972 L
3417 1936 mt 3417 2008 L
3284 2135 mt 3356 2135 L
3320 2099 mt 3320 2171 L
3964 3595 mt 4036 3595 L
4000 3559 mt 4000 3631 L
2479 2668 mt 2551 2668 L
2515 2632 mt 2515 2704 L
3302 2343 mt 3374 2343 L
3338 2307 mt 3338 2379 L
4501 1845 mt 4573 1845 L
4537 1809 mt 4537 1881 L
3007 2209 mt 3079 2209 L
3043 2173 mt 3043 2245 L
2444 2830 mt 2516 2830 L
2480 2794 mt 2480 2866 L
3237 3157 mt 3309 3157 L
3273 3121 mt 3273 3193 L
2394 3752 mt 2466 3752 L
2430 3716 mt 2430 3788 L
3909 3075 mt 3981 3075 L
3945 3039 mt 3945 3111 L
3791 1489 mt 3863 1489 L
3827 1453 mt 3827 1525 L
3053 2745 mt 3125 2745 L
3089 2709 mt 3089 2781 L
2312 1604 mt 2384 1604 L
2348 1568 mt 2348 1640 L
4298 2185 mt 4370 2185 L
4334 2149 mt 4334 2221 L
2910 2475 mt 2982 2475 L
2946 2439 mt 2946 2511 L
3243 2899 mt 3315 2899 L
3279 2863 mt 3279 2935 L
2085 3641 mt 2157 3641 L
2121 3605 mt 2121 3677 L
2235 2704 mt 2307 2704 L
2271 2668 mt 2271 2740 L
2874 1643 mt 2946 1643 L
2910 1607 mt 2910 1679 L
3616 2307 mt 3688 2307 L
3652 2271 mt 3652 2343 L
2952 2194 mt 3024 2194 L
2988 2158 mt 2988 2230 L
2218 2736 mt 2290 2736 L
2254 2700 mt 2254 2772 L
3538 2170 mt 3610 2170 L
3574 2134 mt 3574 2206 L
3832 2288 mt 3904 2288 L
3868 2252 mt 3868 2324 L
3135 1277 mt 3207 1277 L
3171 1241 mt 3171 1313 L
2327 2713 mt 2399 2713 L
2363 2677 mt 2363 2749 L
5002 2265 mt 5074 2265 L
5038 2229 mt 5038 2301 L
2555 3022 mt 2627 3022 L
2591 2986 mt 2591 3058 L
3952 2962 mt 4024 2962 L
3988 2926 mt 3988 2998 L
3510 1794 mt 3582 1794 L
3546 1758 mt 3546 1830 L
2586 3250 mt 2658 3250 L
2622 3214 mt 2622 3286 L
3129 2458 mt 3201 2458 L
3165 2422 mt 3165 2494 L
1481 2682 mt 1553 2682 L
1517 2646 mt 1517 2718 L
3694 2374 mt 3766 2374 L
3730 2338 mt 3730 2410 L
4372 1448 mt 4444 1448 L
4408 1412 mt 4408 1484 L
3946 2040 mt 4018 2040 L
3982 2004 mt 3982 2076 L
3745 2338 mt 3817 2338 L
3781 2302 mt 3781 2374 L
1965 1838 mt 2037 1838 L
2001 1802 mt 2001 1874 L
4206 2449 mt 4278 2449 L
4242 2413 mt 4242 2485 L
2040 3039 mt 2112 3039 L
2076 3003 mt 2076 3075 L
2821 2396 mt 2893 2396 L
2857 2360 mt 2857 2432 L
3255 2298 mt 3327 2298 L
3291 2262 mt 3291 2334 L
2980 2115 mt 3052 2115 L
3016 2079 mt 3016 2151 L
4444 2365 mt 4516 2365 L
4480 2329 mt 4480 2401 L
4364 2778 mt 4436 2778 L
4400 2742 mt 4400 2814 L
3566 3125 mt 3638 3125 L
3602 3089 mt 3602 3161 L
3330 2510 mt 3402 2510 L
3366 2474 mt 3366 2546 L
3040 2392 mt 3112 2392 L
3076 2356 mt 3076 2428 L
3544 1917 mt 3616 1917 L
3580 1881 mt 3580 1953 L
2917 4072 mt 2989 4072 L
2953 4036 mt 2953 4108 L
4680 1872 mt 4752 1872 L
4716 1836 mt 4716 1908 L
3020 1911 mt 3092 1911 L
3056 1875 mt 3056 1947 L
3814 2869 mt 3886 2869 L
3850 2833 mt 3850 2905 L
4009 2741 mt 4081 2741 L
4045 2705 mt 4045 2777 L
4398 1802 mt 4470 1802 L
4434 1766 mt 4434 1838 L
2813 3227 mt 2885 3227 L
2849 3191 mt 2849 3263 L
3123 2130 mt 3195 2130 L
3159 2094 mt 3159 2166 L
3915 2633 mt 3987 2633 L
3951 2597 mt 3951 2669 L
4191 2414 mt 4263 2414 L
4227 2378 mt 4227 2450 L
2016 2320 mt 2088 2320 L
2052 2284 mt 2052 2356 L
1387 1698 mt 1459 1698 L
1423 1662 mt 1423 1734 L
3196 1942 mt 3268 1942 L
3232 1906 mt 3232 1978 L
3454 2018 mt 3526 2018 L
3490 1982 mt 3490 2054 L
2165 2311 mt 2237 2311 L
2201 2275 mt 2201 2347 L
4100 2062 mt 4172 2062 L
4136 2026 mt 4136 2098 L
2634 2001 mt 2706 2001 L
2670 1965 mt 2670 2037 L
2797 2571 mt 2869 2571 L
2833 2535 mt 2833 2607 L
3717 2700 mt 3789 2700 L
3753 2664 mt 3753 2736 L
2432 2764 mt 2504 2764 L
2468 2728 mt 2468 2800 L
3488 2695 mt 3560 2695 L
3524 2659 mt 3524 2731 L
4585 3057 mt 4657 3057 L
4621 3021 mt 4621 3093 L
2671 2864 mt 2743 2864 L
2707 2828 mt 2707 2900 L
4472 2994 mt 4544 2994 L
4508 2958 mt 4508 3030 L
3638 2792 mt 3710 2792 L
3674 2756 mt 3674 2828 L
2781 2806 mt 2853 2806 L
2817 2770 mt 2817 2842 L
2931 2256 mt 3003 2256 L
2967 2220 mt 2967 2292 L
4199 2242 mt 4271 2242 L
4235 2206 mt 4235 2278 L
3521 1662 mt 3593 1662 L
3557 1626 mt 3557 1698 L
2468 1878 mt 2540 1878 L
2504 1842 mt 2504 1914 L
2723 2811 mt 2795 2811 L
2759 2775 mt 2759 2847 L
4820 2593 mt 4892 2593 L
4856 2557 mt 4856 2629 L
2789 1572 mt 2861 1572 L
2825 1536 mt 2825 1608 L
4282 2261 mt 4354 2261 L
4318 2225 mt 4318 2297 L
3153  957 mt 3225  957 L
3189  921 mt 3189  993 L
3527 1583 mt 3599 1583 L
3563 1547 mt 3563 1619 L
2662 2237 mt 2734 2237 L
2698 2201 mt 2698 2273 L
3516 2051 mt 3588 2051 L
3552 2015 mt 3552 2087 L
3927 3610 mt 3999 3610 L
3963 3574 mt 3963 3646 L
3160 1671 mt 3232 1671 L
3196 1635 mt 3196 1707 L
3861 1740 mt 3933 1740 L
3897 1704 mt 3897 1776 L
4170 1948 mt 4242 1948 L
4206 1912 mt 4206 1984 L
3078 2659 mt 3150 2659 L
3114 2623 mt 3114 2695 L
3313 1614 mt 3385 1614 L
3349 1578 mt 3349 1650 L
2828 2506 mt 2900 2506 L
2864 2470 mt 2864 2542 L
4121 2889 mt 4193 2889 L
4157 2853 mt 4157 2925 L
3214 1419 mt 3286 1419 L
3250 1383 mt 3250 1455 L
2706 3087 mt 2778 3087 L
2742 3051 mt 2742 3123 L
4512 3164 mt 4584 3164 L
4548 3128 mt 4548 3200 L
2523 1318 mt 2595 1318 L
2559 1282 mt 2559 1354 L
4655 2514 mt 4727 2514 L
4691 2478 mt 4691 2550 L
3336 2370 mt 3408 2370 L
3372 2334 mt 3372 2406 L
4597 1561 mt 4669 1561 L
4633 1525 mt 4633 1597 L
4060 2284 mt 4132 2284 L
4096 2248 mt 4096 2320 L
3141 2615 mt 3213 2615 L
3177 2579 mt 3177 2651 L
3903 2840 mt 3975 2840 L
3939 2804 mt 3939 2876 L
5180 2189 mt 5252 2189 L
5216 2153 mt 5216 2225 L
5096 1689 mt 5168 1689 L
5132 1653 mt 5132 1725 L
3577 1087 mt 3649 1087 L
3613 1051 mt 3613 1123 L
1722 2007 mt 1794 2007 L
1758 1971 mt 1758 2043 L
4041 3567 mt 4113 3567 L
4077 3531 mt 4077 3603 L
3855 1779 mt 3927 1779 L
3891 1743 mt 3891 1815 L
3785 2801 mt 3857 2801 L
3821 2765 mt 3821 2837 L
3774 2083 mt 3846 2083 L
3810 2047 mt 3810 2119 L
4852 1885 mt 4924 1885 L
4888 1849 mt 4888 1921 L
3706 1764 mt 3778 1764 L
3742 1728 mt 3742 1800 L
5282 2935 mt 5354 2935 L
5318 2899 mt 5318 2971 L
3443 2691 mt 3515 2691 L
3479 2655 mt 3479 2727 L
3482 1904 mt 3554 1904 L
3518 1868 mt 3518 1940 L
4732 2562 mt 4804 2562 L
4768 2526 mt 4768 2598 L
5413 3503 mt 5485 3503 L
5449 3467 mt 5449 3539 L
4156 2731 mt 4228 2731 L
4192 2695 mt 4192 2767 L
2836  414 mt 2908  414 L
2872  378 mt 2872  450 L
2881 3349 mt 2953 3349 L
2917 3313 mt 2917 3385 L
3190 1121 mt 3262 1121 L
3226 1085 mt 3226 1157 L
5365 2727 mt 5437 2727 L
5401 2691 mt 5401 2763 L
4149 1851 mt 4221 1851 L
4185 1815 mt 4185 1887 L
3364 3774 mt 3436 3774 L
3400 3738 mt 3400 3810 L
1766 1232 mt 1838 1232 L
1802 1196 mt 1802 1268 L
4435 2247 mt 4507 2247 L
4471 2211 mt 4471 2283 L
3977 2946 mt 4049 2946 L
4013 2910 mt 4013 2982 L
4922 3491 mt 4994 3491 L
4958 3455 mt 4958 3527 L
5245 1434 mt 5317 1434 L
5281 1398 mt 5281 1470 L
3844 2879 mt 3916 2879 L
3880 2843 mt 3880 2915 L
3046 1388 mt 3118 1388 L
3082 1352 mt 3082 1424 L
2888 2453 mt 2960 2453 L
2924 2417 mt 2924 2489 L
3891 2484 mt 3963 2484 L
3927 2448 mt 3927 2520 L
2063 3151 mt 2135 3151 L
2099 3115 mt 2099 3187 L
5211 3281 mt 5283 3281 L
5247 3245 mt 5247 3317 L
3359 2418 mt 3431 2418 L
3395 2382 mt 3395 2454 L
3110 2035 mt 3182 2035 L
3146 1999 mt 3146 2071 L
3267 2445 mt 3339 2445 L
3303 2409 mt 3303 2481 L
4087 1865 mt 4159 1865 L
4123 1829 mt 4123 1901 L
5531 2471 mt 5603 2471 L
5567 2435 mt 5567 2507 L
3393 3206 mt 3465 3206 L
3429 3170 mt 3429 3242 L
3261 3184 mt 3333 3184 L
3297 3148 mt 3297 3220 L
3797 2650 mt 3869 2650 L
3833 2614 mt 3833 2686 L
3809 2302 mt 3881 2302 L
3845 2266 mt 3845 2338 L
1805 1404 mt 1877 1404 L
1841 1368 mt 1841 1440 L
4002 3257 mt 4074 3257 L
4038 3221 mt 4038 3293 L
3838 3178 mt 3910 3178 L
3874 3142 mt 3874 3214 L
2773 2920 mt 2845 2920 L
2809 2884 mt 2809 2956 L
4631 2641 mt 4703 2641 L
4667 2605 mt 4667 2677 L
3599 2094 mt 3671 2094 L
3635 2058 mt 3635 2130 L
5047 3942 mt 5119 3942 L
5083 3906 mt 5083 3978 L
4941 2155 mt 5013 2155 L
4977 2119 mt 4977 2191 L
6033 2602 mt 6105 2602 L
6069 2566 mt 6069 2638 L
4330 2909 mt 4402 2909 L
4366 2873 mt 4366 2945 L
4869 2754 mt 4941 2754 L
4905 2718 mt 4905 2790 L
3751 3028 mt 3823 3028 L
3787 2992 mt 3787 3064 L
3404 1653 mt 3476 1653 L
3440 1617 mt 3440 1689 L
3000 2787 mt 3072 2787 L
3036 2751 mt 3036 2823 L
1674 2773 mt 1746 2773 L
1710 2737 mt 1710 2809 L
2615 3468 mt 2687 3468 L
2651 3432 mt 2651 3504 L
2851 3581 mt 2923 3581 L
2887 3545 mt 2887 3617 L
2490 2228 mt 2562 2228 L
2526 2192 mt 2526 2264 L
3027 2497 mt 3099 2497 L
3063 2461 mt 3063 2533 L
4553 3137 mt 4625 3137 L
4589 3101 mt 4589 3173 L
3307 1898 mt 3379 1898 L
3343 1862 mt 3343 1934 L
4667 3340 mt 4739 3340 L
4703 3304 mt 4703 3376 L
4274 2835 mt 4346 2835 L
4310 2799 mt 4310 2871 L
3850 1476 mt 3922 1476 L
3886 1440 mt 3886 1512 L
4021 1298 mt 4093 1298 L
4057 1262 mt 4057 1334 L
3376 2334 mt 3448 2334 L
3412 2298 mt 3412 2370 L
3700 2750 mt 3772 2750 L
3736 2714 mt 3736 2786 L
4619 2523 mt 4691 2523 L
4655 2487 mt 4655 2559 L
1842 2628 mt 1914 2628 L
1878 2592 mt 1878 2664 L
4163 3144 mt 4235 3144 L
4199 3108 mt 4199 3180 L
1876 2646 mt 1948 2646 L
1912 2610 mt 1912 2682 L
3432 2432 mt 3504 2432 L
3468 2396 mt 3468 2468 L
4259 2664 mt 4331 2664 L
4295 2628 mt 4295 2700 L
3184 1336 mt 3256 1336 L
3220 1300 mt 3220 1372 L
2282 1634 mt 2354 1634 L
2318 1598 mt 2318 1670 L
3013 2844 mt 3085 2844 L
3049 2808 mt 3049 2880 L
4221 2120 mt 4293 2120 L
4257 2084 mt 4257 2156 L
3879 2356 mt 3951 2356 L
3915 2320 mt 3915 2392 L
5150 3367 mt 5222 3367 L
5186 3331 mt 5186 3403 L
2896 1707 mt 2968 1707 L
2932 1671 mt 2932 1743 L
3172 1371 mt 3244 1371 L
3208 1335 mt 3208 1407 L
2973 3675 mt 3045 3675 L
3009 3639 mt 3009 3711 L
4482 2436 mt 4554 2436 L
4518 2400 mt 4518 2472 L
2368 2427 mt 2440 2427 L
2404 2391 mt 2404 2463 L
3059 2078 mt 3131 2078 L
3095 2042 mt 3095 2114 L
3740 1006 mt 3812 1006 L
3776  970 mt 3776 1042 L
5321 2972 mt 5393 2972 L
5357 2936 mt 5357 3008 L
2126 2073 mt 2198 2073 L
2162 2037 mt 2162 2109 L
5468 4023 mt 5540 4023 L
5504 3987 mt 5504 4059 L
3621 2352 mt 3693 2352 L
3657 2316 mt 3657 2388 L
5024 3415 mt 5096 3415 L
5060 3379 mt 5060 3451 L
2420  724 mt 2492  724 L
2456  688 mt 2456  760 L
2740 2089 mt 2812 2089 L
2776 2053 mt 2776 2125 L
4306 2722 mt 4378 2722 L
4342 2686 mt 4342 2758 L
3387 3242 mt 3459 3242 L
3423 3206 mt 3423 3278 L
3582 3425 mt 3654 3425 L
3618 3389 mt 3618 3461 L
3672 3000 mt 3744 3000 L
3708 2964 mt 3708 3036 L
4643 2501 mt 4715 2501 L
4679 2465 mt 4679 2537 L
2267 2099 mt 2339 2099 L
2303 2063 mt 2303 2135 L
1619 3822 mt 1691 3822 L
1655 3786 mt 1655 3858 L
3319 2270 mt 3391 2270 L
3355 2234 mt 3355 2306 L
3989 3980 mt 4061 3980 L
4025 3944 mt 4025 4016 L
6225 3034 mt 6297 3034 L
6261 2998 mt 6261 3070 L
3499 1550 mt 3571 1550 L
3535 1514 mt 3535 1586 L
2534 2718 mt 2606 2718 L
2570 2682 mt 2570 2754 L
3677 2576 mt 3749 2576 L
3713 2540 mt 3713 2612 L
3996 1984 mt 4068 1984 L
4032 1948 mt 4032 2020 L
4886 2940 mt 4958 2940 L
4922 2904 mt 4922 2976 L
4114 2233 mt 4186 2233 L
4150 2197 mt 4150 2269 L
3466 3099 mt 3538 3099 L
3502 3063 mt 3502 3135 L
3398 2580 mt 3470 2580 L
3434 2544 mt 3434 2616 L
1937 4616 mt 2009 4616 L
1973 4580 mt 1973 4652 L
4322 1255 mt 4394 1255 L
4358 1219 mt 4358 1291 L
5071 3051 mt 5143 3051 L
5107 3015 mt 5107 3087 L
4128 3376 mt 4200 3376 L
4164 3340 mt 4164 3412 L
4290 2930 mt 4362 2930 L
4326 2894 mt 4326 2966 L
4390 2160 mt 4462 2160 L
4426 2124 mt 4426 2196 L
2595 3191 mt 2667 3191 L
2631 3155 mt 2631 3227 L
3208 1732 mt 3280 1732 L
3244 1696 mt 3244 1768 L
2959 3405 mt 3031 3405 L
2995 3369 mt 2995 3441 L
2757 4131 mt 2829 4131 L
2793 4095 mt 2793 4167 L
2456 2983 mt 2528 2983 L
2492 2947 mt 2492 3019 L
4338 2606 mt 4410 2606 L
4374 2570 mt 4374 2642 L
3644 3265 mt 3716 3265 L
3680 3229 mt 3680 3301 L
4532 2383 mt 4604 2383 L
4568 2347 mt 4568 2419 L
3220 1514 mt 3292 1514 L
3256 1478 mt 3256 1550 L
4453 2046 mt 4525 2046 L
4489 2010 mt 4489 2082 L
3421 3131 mt 3493 3131 L
3457 3095 mt 3457 3167 L
3325 2024 mt 3397 2024 L
3361 1988 mt 3361 2060 L
4416 2978 mt 4488 2978 L
4452 2942 mt 4452 3014 L
2938  564 mt 3010  564 L
2974  528 mt 2974  600 L
3178 1823 mt 3250 1823 L
3214 1787 mt 3214 1859 L
3971 3235 mt 4043 3235 L
4007 3199 mt 4007 3271 L
4522 2989 mt 4594 2989 L
4558 2953 mt 4558 3025 L
3610 2316 mt 3682 2316 L
3646 2280 mt 3646 2352 L
2924 3436 mt 2996 3436 L
2960 3400 mt 2960 3472 L
4608 1207 mt 4680 1207 L
4644 1171 mt 4644 1243 L
2945 2854 mt 3017 2854 L
2981 2818 mt 2981 2890 L
5828 2567 mt 5900 2567 L
5864 2531 mt 5864 2603 L
2355 2440 mt 2427 2440 L
2391 2404 mt 2391 2476 L
3689 1715 mt 3761 1715 L
3725 1679 mt 3725 1751 L
3885 2558 mt 3957 2558 L
3921 2522 mt 3921 2594 L
3505 3017 mt 3577 3017 L
3541 2981 mt 3541 3053 L
4981 2759 mt 5053 2759 L
5017 2723 mt 5017 2795 L
3666 2768 mt 3738 2768 L
3702 2732 mt 3702 2804 L
3594 3063 mt 3666 3063 L
3630 3027 mt 3630 3099 L
5122 2329 mt 5194 2329 L
5158 2293 mt 5158 2365 L
4789 2796 mt 4861 2796 L
4825 2760 mt 4825 2832 L
3762 3289 mt 3834 3289 L
3798 3253 mt 3798 3325 L
2697 3198 mt 2769 3198 L
2733 3162 mt 2733 3234 L
4135 3106 mt 4207 3106 L
4171 3070 mt 4171 3142 L
4080 2589 mt 4152 2589 L
4116 2553 mt 4116 2625 L
2183 1772 mt 2255 1772 L
2219 1736 mt 2219 1808 L
2715 1502 mt 2787 1502 L
2751 1466 mt 2751 1538 L
3438 2140 mt 3510 2140 L
3474 2104 mt 3474 2176 L
3147 2925 mt 3219 2925 L
3183 2889 mt 3183 2961 L
1991 2109 mt 2063 2109 L
2027 2073 mt 2027 2145 L
3449 3457 mt 3521 3457 L
3485 3421 mt 3485 3493 L
1259 1526 mt 1331 1526 L
1295 1490 mt 1295 1562 L
2689 4205 mt 2761 4205 L
2725 4169 mt 2725 4241 L
3066  824 mt 3138  824 L
3102  788 mt 3102  860 L
3983  898 mt 4055  898 L
4019  862 mt 4019  934 L
3560 2251 mt 3632 2251 L
3596 2215 mt 3596 2287 L
3471 3711 mt 3543 3711 L
3507 3675 mt 3507 3747 L
3091 3306 mt 3163 3306 L
3127 3270 mt 3127 3342 L
3226 3171 mt 3298 3171 L
3262 3135 mt 3262 3207 L
4347 3731 mt 4419 3731 L
4383 3695 mt 4383 3767 L
4542 2410 mt 4614 2410 L
4578 2374 mt 4578 2446 L
1907 2914 mt 1979 2914 L
1943 2878 mt 1943 2950 L
4407 1354 mt 4479 1354 L
4443 1318 mt 4443 1390 L
4706 2820 mt 4778 2820 L
4742 2784 mt 4742 2856 L
4177 4305 mt 4249 4305 L
4213 4269 mt 4213 4341 L
3820 3658 mt 3892 3658 L
3856 3622 mt 3856 3694 L
3353 2825 mt 3425 2825 L
3389 2789 mt 3389 2861 L
3867 1954 mt 3939 1954 L
3903 1918 mt 3903 1990 L
2652 2686 mt 2724 2686 L
2688 2650 mt 2688 2722 L
3780 3220 mt 3852 3220 L
3816 3184 mt 3816 3256 L
4574 2532 mt 4646 2532 L
4610 2496 mt 4610 2568 L
3116 3005 mt 3188 3005 L
3152 2969 mt 3152 3041 L
3549 2057 mt 3621 2057 L
3585 2021 mt 3585 2093 L
2502 3331 mt 2574 3331 L
2538 3295 mt 2538 3367 L
2966 1892 mt 3038 1892 L
3002 1856 mt 3002 1928 L
2643 3527 mt 2715 3527 L
2679 3491 mt 2679 3563 L
4067 3314 mt 4139 3314 L
4103 3278 mt 4103 3350 L
3278 3693 mt 3350 3693 L
3314 3657 mt 3314 3729 L
2844 3395 mt 2916 3395 L
2880 3359 mt 2880 3431 L
2106 3358 mt 2178 3358 L
2142 3322 mt 2142 3394 L
3232 2894 mt 3304 2894 L
3268 2858 mt 3268 2930 L
3033 2597 mt 3105 2597 L
3069 2561 mt 3069 2633 L
4775 1923 mt 4847 1923 L
4811 1887 mt 4811 1959 L
2859 3045 mt 2931 3045 L
2895 3009 mt 2895 3081 L
4355 2541 mt 4427 2541 L
4391 2505 mt 4391 2577 L
3633 2904 mt 3705 2904 L
3669 2868 mt 3669 2940 L
2341 3093 mt 2413 3093 L
2377 3057 mt 2377 3129 L
3460 3069 mt 3532 3069 L
3496 3033 mt 3496 3105 L
3098 2223 mt 3170 2223 L
3134 2187 mt 3134 2259 L
3296 2528 mt 3368 2528 L
3332 2492 mt 3332 2564 L
4961 2673 mt 5033 2673 L
4997 2637 mt 4997 2709 L
3723 2815 mt 3795 2815 L
3759 2779 mt 3759 2851 L
4047 2175 mt 4119 2175 L
4083 2139 mt 4083 2211 L
4904 1960 mt 4976 1960 L
4940 1924 mt 4940 1996 L
3072 1809 mt 3144 1809 L
3108 1773 mt 3108 1845 L
4314 3446 mt 4386 3446 L
4350 3410 mt 4350 3482 L
2201 1181 mt 2273 1181 L
2237 1145 mt 2237 1217 L
5700 2859 mt 5772 2859 L
5736 2823 mt 5736 2895 L
4746 2388 mt 4818 2388 L
4782 2352 mt 4782 2424 L
gs 899 414 5363 4203 rc
gr

0 sg
2779 5104 mt 
(\(F,DCTs,GMM\)) s
 482 3277 mt  -90 rotate
(\(S,SSC,GMM\)) s
90 rotate
2905  223 mt 
(Corr = -0.05) s

end %%Color Dict

eplot
%%EndObject

epage
end

showpage

%%Trailer
%%EOF
