%!PS-Adobe-3.0 EPSF-3.0
%%Creator: MATLAB, The Mathworks, Inc. Version 7.7.0.471 (R2008b). Operating System: Microsoft Windows XP.
%%Title: Pictures\main_zoo_mvar_analysis_data_BMI_xcorr_bmi_p2_k1_2_4.eps
%%CreationDate: 10/26/2009  05:44:39
%%DocumentNeededFonts: Helvetica
%%DocumentProcessColors: Cyan Magenta Yellow Black
%%LanguageLevel: 2
%%Pages: 1
%%BoundingBox:    21   180   546   616
%%EndComments

%%BeginProlog
% MathWorks dictionary
/MathWorks 160 dict begin
% definition operators
/bdef {bind def} bind def
/ldef {load def} bind def
/xdef {exch def} bdef
/xstore {exch store} bdef
% operator abbreviations
/c  /clip ldef
/cc /concat ldef
/cp /closepath ldef
/gr /grestore ldef
/gs /gsave ldef
/mt /moveto ldef
/np /newpath ldef
/cm /currentmatrix ldef
/sm /setmatrix ldef
/rm /rmoveto ldef
/rl /rlineto ldef
/s {show newpath} bdef
/sc {setcmykcolor} bdef
/sr /setrgbcolor ldef
/sg /setgray ldef
/w /setlinewidth ldef
/j /setlinejoin ldef
/cap /setlinecap ldef
/rc {rectclip} bdef
/rf {rectfill} bdef
% page state control
/pgsv () def
/bpage {/pgsv save def} bdef
/epage {pgsv restore} bdef
/bplot /gsave ldef
/eplot {stroke grestore} bdef
% orientation switch
/portraitMode 0 def /landscapeMode 1 def /rotateMode 2 def
% coordinate system mappings
/dpi2point 0 def
% font control
/FontSize 0 def
/FMS {/FontSize xstore findfont [FontSize 0 0 FontSize neg 0 0]
  makefont setfont} bdef
/ISOLatin1Encoding where {pop /WindowsLatin1Encoding 256 array bdef
ISOLatin1Encoding WindowsLatin1Encoding copy pop
/.notdef/.notdef/quotesinglbase/florin/quotedblbase/ellipsis/dagger
/daggerdbl/circumflex/perthousand/Scaron/guilsinglleft/OE/.notdef/.notdef
/.notdef/.notdef/quoteleft/quoteright/quotedblleft/quotedblright/bullet
/endash/emdash/tilde/trademark/scaron/guilsinglright/oe/.notdef/.notdef
/Ydieresis WindowsLatin1Encoding 128 32 getinterval astore pop}
{/WindowsLatin1Encoding StandardEncoding bdef} ifelse
/reencode {exch dup where {pop load} {pop StandardEncoding} ifelse
  exch dup 3 1 roll findfont dup length dict begin
  { 1 index /FID ne {def}{pop pop} ifelse } forall
  /Encoding exch def currentdict end definefont pop} bdef
/isroman {findfont /CharStrings get /Agrave known} bdef
/FMSR {3 1 roll 1 index dup isroman {reencode} {pop pop} ifelse
  exch FMS} bdef
/csm {1 dpi2point div -1 dpi2point div scale neg translate
 dup landscapeMode eq {pop -90 rotate}
  {rotateMode eq {90 rotate} if} ifelse} bdef
% line types: solid, dotted, dashed, dotdash
/SO { [] 0 setdash } bdef
/DO { [.5 dpi2point mul 4 dpi2point mul] 0 setdash } bdef
/DA { [6 dpi2point mul] 0 setdash } bdef
/DD { [.5 dpi2point mul 4 dpi2point mul 6 dpi2point mul 4
  dpi2point mul] 0 setdash } bdef
% macros for lines and objects
/L {lineto stroke} bdef
/MP {3 1 roll moveto 1 sub {rlineto} repeat} bdef
/AP {{rlineto} repeat} bdef
/PDlw -1 def
/W {/PDlw currentlinewidth def setlinewidth} def
/PP {closepath eofill} bdef
/DP {closepath stroke} bdef
/MR {4 -2 roll moveto dup  0 exch rlineto exch 0 rlineto
  neg 0 exch rlineto closepath} bdef
/FR {MR stroke} bdef
/PR {MR fill} bdef
/L1i {{currentfile picstr readhexstring pop} image} bdef
/tMatrix matrix def
/MakeOval {newpath tMatrix currentmatrix pop translate scale
0 0 1 0 360 arc tMatrix setmatrix} bdef
/FO {MakeOval stroke} bdef
/PO {MakeOval fill} bdef
/PD {currentlinewidth 2 div 0 360 arc fill
   PDlw -1 eq not {PDlw w /PDlw -1 def} if} def
/FA {newpath tMatrix currentmatrix pop translate scale
  0 0 1 5 -2 roll arc tMatrix setmatrix stroke} bdef
/PA {newpath tMatrix currentmatrix pop	translate 0 0 moveto scale
  0 0 1 5 -2 roll arc closepath tMatrix setmatrix fill} bdef
/FAn {newpath tMatrix currentmatrix pop translate scale
  0 0 1 5 -2 roll arcn tMatrix setmatrix stroke} bdef
/PAn {newpath tMatrix currentmatrix pop translate 0 0 moveto scale
  0 0 1 5 -2 roll arcn closepath tMatrix setmatrix fill} bdef
/vradius 0 def /hradius 0 def /lry 0 def
/lrx 0 def /uly 0 def /ulx 0 def /rad 0 def
/MRR {/vradius xdef /hradius xdef /lry xdef /lrx xdef /uly xdef
  /ulx xdef newpath tMatrix currentmatrix pop ulx hradius add uly
  vradius add translate hradius vradius scale 0 0 1 180 270 arc 
  tMatrix setmatrix lrx hradius sub uly vradius add translate
  hradius vradius scale 0 0 1 270 360 arc tMatrix setmatrix
  lrx hradius sub lry vradius sub translate hradius vradius scale
  0 0 1 0 90 arc tMatrix setmatrix ulx hradius add lry vradius sub
  translate hradius vradius scale 0 0 1 90 180 arc tMatrix setmatrix
  closepath} bdef
/FRR {MRR stroke } bdef
/PRR {MRR fill } bdef
/MlrRR {/lry xdef /lrx xdef /uly xdef /ulx xdef /rad lry uly sub 2 div def
  newpath tMatrix currentmatrix pop ulx rad add uly rad add translate
  rad rad scale 0 0 1 90 270 arc tMatrix setmatrix lrx rad sub lry rad
  sub translate rad rad scale 0 0 1 270 90 arc tMatrix setmatrix
  closepath} bdef
/FlrRR {MlrRR stroke } bdef
/PlrRR {MlrRR fill } bdef
/MtbRR {/lry xdef /lrx xdef /uly xdef /ulx xdef /rad lrx ulx sub 2 div def
  newpath tMatrix currentmatrix pop ulx rad add uly rad add translate
  rad rad scale 0 0 1 180 360 arc tMatrix setmatrix lrx rad sub lry rad
  sub translate rad rad scale 0 0 1 0 180 arc tMatrix setmatrix
  closepath} bdef
/FtbRR {MtbRR stroke } bdef
/PtbRR {MtbRR fill } bdef
/stri 6 array def /dtri 6 array def
/smat 6 array def /dmat 6 array def
/tmat1 6 array def /tmat2 6 array def /dif 3 array def
/asub {/ind2 exch def /ind1 exch def dup dup
  ind1 get exch ind2 get sub exch } bdef
/tri_to_matrix {
  2 0 asub 3 1 asub 4 0 asub 5 1 asub
  dup 0 get exch 1 get 7 -1 roll astore } bdef
/compute_transform {
  dmat dtri tri_to_matrix tmat1 invertmatrix 
  smat stri tri_to_matrix tmat2 concatmatrix } bdef
/ds {stri astore pop} bdef
/dt {dtri astore pop} bdef
/db {2 copy /cols xdef /rows xdef mul dup 3 mul string
  currentfile 
  3 index 0 eq {/ASCIIHexDecode filter}
  {/ASCII85Decode filter 3 index 2 eq {/RunLengthDecode filter} if }
  ifelse exch readstring pop
  dup 0 3 index getinterval /rbmap xdef
  dup 2 index dup getinterval /gbmap xdef
  1 index dup 2 mul exch getinterval /bbmap xdef pop pop}bdef
/it {gs np dtri aload pop moveto lineto lineto cp c
  cols rows 8 compute_transform 
  rbmap gbmap bbmap true 3 colorimage gr}bdef
/il {newpath moveto lineto stroke}bdef
currentdict end def
%%EndProlog

%%BeginSetup
MathWorks begin

0 cap

end
%%EndSetup

%%Page: 1 1
%%BeginPageSetup
%%PageBoundingBox:    21   180   546   616
MathWorks begin
bpage
%%EndPageSetup

%%BeginObject: obj1
bplot

/dpi2point 12 def
portraitMode 0216 7344 csm

   40   -48  6307  5231 rc
85 dict begin %Colortable dictionary
/c0 { 0.000000 0.000000 0.000000 sr} bdef
/c1 { 1.000000 1.000000 1.000000 sr} bdef
/c2 { 0.900000 0.000000 0.000000 sr} bdef
/c3 { 0.000000 0.820000 0.000000 sr} bdef
/c4 { 0.000000 0.000000 0.800000 sr} bdef
/c5 { 0.910000 0.820000 0.320000 sr} bdef
/c6 { 1.000000 0.260000 0.820000 sr} bdef
/c7 { 0.000000 0.820000 0.820000 sr} bdef
c0
1 j
1 sg
   0    0 6919 5187 rf
6 w
0 4202 5362 0 0 -4202 899 4616 4 MP
PP
-5362 0 0 4202 5362 0 0 -4202 899 4616 5 MP stroke
4 w
DO
SO
6 w
0 sg
 899  414 mt 6261  414 L
 899 4616 mt 6261 4616 L
6261 4616 mt 6261  414 L
 899 4616 mt  899  414 L
 899 4616 mt 6261 4616 L
 899 4616 mt  899  414 L
2183 4616 mt 2183 4562 L
2183  414 mt 2183  467 L
%%IncludeResource: font Helvetica
/Helvetica /WindowsLatin1Encoding 240 FMSR

2017 4873 mt 
(0.2) s
3467 4616 mt 3467 4562 L
3467  414 mt 3467  467 L
3301 4873 mt 
(0.4) s
4752 4616 mt 4752 4562 L
4752  414 mt 4752  467 L
4586 4873 mt 
(0.6) s
6036 4616 mt 6036 4562 L
6036  414 mt 6036  467 L
5870 4873 mt 
(0.8) s
 899 4002 mt  952 4002 L
6261 4002 mt 6207 4002 L
 397 4091 mt 
(0.05) s
 899 3389 mt  952 3389 L
6261 3389 mt 6207 3389 L
 531 3478 mt 
(0.1) s
 899 2775 mt  952 2775 L
6261 2775 mt 6207 2775 L
 397 2864 mt 
(0.15) s
 899 2162 mt  952 2162 L
6261 2162 mt 6207 2162 L
 531 2251 mt 
(0.2) s
 899 1549 mt  952 1549 L
6261 1549 mt 6207 1549 L
 397 1638 mt 
(0.25) s
 899  935 mt  952  935 L
6261  935 mt 6207  935 L
 531 1024 mt 
(0.3) s
 899  414 mt 6261  414 L
 899 4616 mt 6261 4616 L
6261 4616 mt 6261  414 L
 899 4616 mt  899  414 L
gs 899 414 5363 4203 rc
gr

/c8 { 0.000000 0.000000 1.000000 sr} bdef
c8
5358 3074 mt 5430 3074 L
5394 3038 mt 5394 3110 L
 962 4422 mt 1034 4422 L
 998 4386 mt  998 4458 L
 867 4611 mt  939 4611 L
 903 4575 mt  903 4647 L
 868 4241 mt  940 4241 L
 904 4205 mt  904 4277 L
 912 4038 mt  984 4038 L
 948 4002 mt  948 4074 L
 877 4479 mt  949 4479 L
 913 4443 mt  913 4515 L
 863 4012 mt  935 4012 L
 899 3976 mt  899 4048 L
 865 4155 mt  937 4155 L
 901 4119 mt  901 4191 L
 863 4589 mt  935 4589 L
 899 4553 mt  899 4625 L
1418 4487 mt 1490 4487 L
1454 4451 mt 1454 4523 L
 951 3208 mt 1023 3208 L
 987 3172 mt  987 3244 L
1379 4022 mt 1451 4022 L
1415 3986 mt 1415 4058 L
1243 4127 mt 1315 4127 L
1279 4091 mt 1279 4163 L
1922 4302 mt 1994 4302 L
1958 4266 mt 1958 4338 L
 991 3715 mt 1063 3715 L
1027 3679 mt 1027 3751 L
2505 4155 mt 2577 4155 L
2541 4119 mt 2541 4191 L
5443 4596 mt 5515 4596 L
5479 4560 mt 5479 4632 L
 931 4332 mt 1003 4332 L
 967 4296 mt  967 4368 L
 875 4615 mt  947 4615 L
 911 4579 mt  911 4651 L
1280 4616 mt 1352 4616 L
1316 4580 mt 1316 4652 L
 863 4551 mt  935 4551 L
 899 4515 mt  899 4587 L
 937 3372 mt 1009 3372 L
 973 3336 mt  973 3408 L
 994 3839 mt 1066 3839 L
1030 3803 mt 1030 3875 L
 989 2062 mt 1061 2062 L
1025 2026 mt 1025 2098 L
1903 3586 mt 1975 3586 L
1939 3550 mt 1939 3622 L
1020 4612 mt 1092 4612 L
1056 4576 mt 1056 4648 L
1420 3769 mt 1492 3769 L
1456 3733 mt 1456 3805 L
 868 4567 mt  940 4567 L
 904 4531 mt  904 4603 L
 878 4220 mt  950 4220 L
 914 4184 mt  914 4256 L
 921 4562 mt  993 4562 L
 957 4526 mt  957 4598 L
 883 4431 mt  955 4431 L
 919 4395 mt  919 4467 L
 947 4501 mt 1019 4501 L
 983 4465 mt  983 4537 L
1062 4614 mt 1134 4614 L
1098 4578 mt 1098 4650 L
1179 4559 mt 1251 4559 L
1215 4523 mt 1215 4595 L
1054 4555 mt 1126 4555 L
1090 4519 mt 1090 4591 L
1067 4597 mt 1139 4597 L
1103 4561 mt 1103 4633 L
 872 4528 mt  944 4528 L
 908 4492 mt  908 4564 L
 930 4575 mt 1002 4575 L
 966 4539 mt  966 4611 L
1832 4249 mt 1904 4249 L
1868 4213 mt 1868 4285 L
1627 4566 mt 1699 4566 L
1663 4530 mt 1663 4602 L
1069 4606 mt 1141 4606 L
1105 4570 mt 1105 4642 L
 976 4521 mt 1048 4521 L
1012 4485 mt 1012 4557 L
1627 4615 mt 1699 4615 L
1663 4579 mt 1663 4651 L
1587  414 mt 1659  414 L
1623  378 mt 1623  450 L
 950 4604 mt 1022 4604 L
 986 4568 mt  986 4640 L
 867 4615 mt  939 4615 L
 903 4579 mt  903 4651 L
2087 4479 mt 2159 4479 L
2123 4443 mt 2123 4515 L
1001 4513 mt 1073 4513 L
1037 4477 mt 1037 4549 L
1295 4566 mt 1367 4566 L
1331 4530 mt 1331 4602 L
 891 4592 mt  963 4592 L
 927 4556 mt  927 4628 L
1791 1945 mt 1863 1945 L
1827 1909 mt 1827 1981 L
1410 4230 mt 1482 4230 L
1446 4194 mt 1446 4266 L
 899 3735 mt  971 3735 L
 935 3699 mt  935 3771 L
1089 4369 mt 1161 4369 L
1125 4333 mt 1125 4405 L
2424 2821 mt 2496 2821 L
2460 2785 mt 2460 2857 L
1161 4555 mt 1233 4555 L
1197 4519 mt 1197 4591 L
1360 3866 mt 1432 3866 L
1396 3830 mt 1396 3902 L
 896 4499 mt  968 4499 L
 932 4463 mt  932 4535 L
1220 4473 mt 1292 4473 L
1256 4437 mt 1256 4509 L
 908 4417 mt  980 4417 L
 944 4381 mt  944 4453 L
1154 4117 mt 1226 4117 L
1190 4081 mt 1190 4153 L
2932 4579 mt 3004 4579 L
2968 4543 mt 2968 4615 L
 983 1960 mt 1055 1960 L
1019 1924 mt 1019 1996 L
1019 4559 mt 1091 4559 L
1055 4523 mt 1055 4595 L
 879 4596 mt  951 4596 L
 915 4560 mt  915 4632 L
 987 4248 mt 1059 4248 L
1023 4212 mt 1023 4284 L
2613 4355 mt 2685 4355 L
2649 4319 mt 2649 4391 L
 958 4608 mt 1030 4608 L
 994 4572 mt  994 4644 L
 960 4195 mt 1032 4195 L
 996 4159 mt  996 4231 L
 869 4614 mt  941 4614 L
 905 4578 mt  905 4650 L
 937 4520 mt 1009 4520 L
 973 4484 mt  973 4556 L
 872 4031 mt  944 4031 L
 908 3995 mt  908 4067 L
 872 4285 mt  944 4285 L
 908 4249 mt  908 4321 L
1230 4408 mt 1302 4408 L
1266 4372 mt 1266 4444 L
 931 3645 mt 1003 3645 L
 967 3609 mt  967 3681 L
1467 4597 mt 1539 4597 L
1503 4561 mt 1503 4633 L
 864 4306 mt  936 4306 L
 900 4270 mt  900 4342 L
 863 4599 mt  935 4599 L
 899 4563 mt  899 4635 L
1153 4009 mt 1225 4009 L
1189 3973 mt 1189 4045 L
 967 4314 mt 1039 4314 L
1003 4278 mt 1003 4350 L
1730 3523 mt 1802 3523 L
1766 3487 mt 1766 3559 L
 863 4463 mt  935 4463 L
 899 4427 mt  899 4499 L
1273 4608 mt 1345 4608 L
1309 4572 mt 1309 4644 L
 864 4601 mt  936 4601 L
 900 4565 mt  900 4637 L
2497 4288 mt 2569 4288 L
2533 4252 mt 2533 4324 L
 897 4469 mt  969 4469 L
 933 4433 mt  933 4505 L
 884 3477 mt  956 3477 L
 920 3441 mt  920 3513 L
1485 3899 mt 1557 3899 L
1521 3863 mt 1521 3935 L
 886 4608 mt  958 4608 L
 922 4572 mt  922 4644 L
1791 2921 mt 1863 2921 L
1827 2885 mt 1827 2957 L
1079 4613 mt 1151 4613 L
1115 4577 mt 1115 4649 L
 879 3905 mt  951 3905 L
 915 3869 mt  915 3941 L
1266 3595 mt 1338 3595 L
1302 3559 mt 1302 3631 L
2244 4440 mt 2316 4440 L
2280 4404 mt 2280 4476 L
 983 4508 mt 1055 4508 L
1019 4472 mt 1019 4544 L
1224 4524 mt 1296 4524 L
1260 4488 mt 1260 4560 L
 913 3918 mt  985 3918 L
 949 3882 mt  949 3954 L
 893 4603 mt  965 4603 L
 929 4567 mt  929 4639 L
1388 4553 mt 1460 4553 L
1424 4517 mt 1424 4589 L
 867 4200 mt  939 4200 L
 903 4164 mt  903 4236 L
6225 3554 mt 6297 3554 L
6261 3518 mt 6261 3590 L
1139 3271 mt 1211 3271 L
1175 3235 mt 1175 3307 L
1505 2925 mt 1577 2925 L
1541 2889 mt 1541 2961 L
 894 4456 mt  966 4456 L
 930 4420 mt  930 4492 L
1870 3831 mt 1942 3831 L
1906 3795 mt 1906 3867 L
1007 3898 mt 1079 3898 L
1043 3862 mt 1043 3934 L
1069 4615 mt 1141 4615 L
1105 4579 mt 1105 4651 L
1588 4310 mt 1660 4310 L
1624 4274 mt 1624 4346 L
1016 4614 mt 1088 4614 L
1052 4578 mt 1052 4650 L
 863 4607 mt  935 4607 L
 899 4571 mt  899 4643 L
1091 4615 mt 1163 4615 L
1127 4579 mt 1127 4651 L
 864 4576 mt  936 4576 L
 900 4540 mt  900 4612 L
2375 4558 mt 2447 4558 L
2411 4522 mt 2411 4594 L
1361 4397 mt 1433 4397 L
1397 4361 mt 1397 4433 L
 898 3949 mt  970 3949 L
 934 3913 mt  934 3985 L
1028 3863 mt 1100 3863 L
1064 3827 mt 1064 3899 L
 915 4514 mt  987 4514 L
 951 4478 mt  951 4550 L
1246 4488 mt 1318 4488 L
1282 4452 mt 1282 4524 L
 879 4603 mt  951 4603 L
 915 4567 mt  915 4639 L
1322 4615 mt 1394 4615 L
1358 4579 mt 1358 4651 L
 908 4540 mt  980 4540 L
 944 4504 mt  944 4576 L
1140 4131 mt 1212 4131 L
1176 4095 mt 1176 4167 L
 955 4613 mt 1027 4613 L
 991 4577 mt  991 4649 L
1725 4014 mt 1797 4014 L
1761 3978 mt 1761 4050 L
2145 4444 mt 2217 4444 L
2181 4408 mt 2181 4480 L
 966 4243 mt 1038 4243 L
1002 4207 mt 1002 4279 L
 924 4517 mt  996 4517 L
 960 4481 mt  960 4553 L
 964 4615 mt 1036 4615 L
1000 4579 mt 1000 4651 L
 956 4585 mt 1028 4585 L
 992 4549 mt  992 4621 L
 964 1972 mt 1036 1972 L
1000 1936 mt 1000 2008 L
 902 3412 mt  974 3412 L
 938 3376 mt  938 3448 L
2746 4059 mt 2818 4059 L
2782 4023 mt 2782 4095 L
 938 3795 mt 1010 3795 L
 974 3759 mt  974 3831 L
1167 4137 mt 1239 4137 L
1203 4101 mt 1203 4173 L
 950 4471 mt 1022 4471 L
 986 4435 mt  986 4507 L
1075 4591 mt 1147 4591 L
1111 4555 mt 1111 4627 L
 979 4562 mt 1051 4562 L
1015 4526 mt 1015 4598 L
1054 4607 mt 1126 4607 L
1090 4571 mt 1090 4643 L
3007 4283 mt 3079 4283 L
3043 4247 mt 3043 4319 L
 978 3378 mt 1050 3378 L
1014 3342 mt 1014 3414 L
 870 4605 mt  942 4605 L
 906 4569 mt  906 4641 L
1428 4198 mt 1500 4198 L
1464 4162 mt 1464 4234 L
 863 4581 mt  935 4581 L
 899 4545 mt  899 4617 L
1131 3332 mt 1203 3332 L
1167 3296 mt 1167 3368 L
 985 4607 mt 1057 4607 L
1021 4571 mt 1021 4643 L
 988 4612 mt 1060 4612 L
1024 4576 mt 1024 4648 L
2971 3727 mt 3043 3727 L
3007 3691 mt 3007 3763 L
2804 4049 mt 2876 4049 L
2840 4013 mt 2840 4085 L
1351 4236 mt 1423 4236 L
1387 4200 mt 1387 4272 L
2458 4612 mt 2530 4612 L
2494 4576 mt 2494 4648 L
 869 4290 mt  941 4290 L
 905 4254 mt  905 4326 L
1089 4136 mt 1161 4136 L
1125 4100 mt 1125 4172 L
 864 4615 mt  936 4615 L
 900 4579 mt  900 4651 L
1384 3781 mt 1456 3781 L
1420 3745 mt 1420 3817 L
3384 4614 mt 3456 4614 L
3420 4578 mt 3420 4650 L
1022 4415 mt 1094 4415 L
1058 4379 mt 1058 4451 L
 954 4509 mt 1026 4509 L
 990 4473 mt  990 4545 L
2293 4445 mt 2365 4445 L
2329 4409 mt 2329 4481 L
1206 3924 mt 1278 3924 L
1242 3888 mt 1242 3960 L
 863 4095 mt  935 4095 L
 899 4059 mt  899 4131 L
 863 4615 mt  935 4615 L
 899 4579 mt  899 4651 L
1156 4412 mt 1228 4412 L
1192 4376 mt 1192 4448 L
 982 1604 mt 1054 1604 L
1018 1568 mt 1018 1640 L
1234 4606 mt 1306 4606 L
1270 4570 mt 1270 4642 L
 915 3771 mt  987 3771 L
 951 3735 mt  951 3807 L
1283 4525 mt 1355 4525 L
1319 4489 mt 1319 4561 L
2198 4313 mt 2270 4313 L
2234 4277 mt 2234 4349 L
1161 4312 mt 1233 4312 L
1197 4276 mt 1197 4348 L
 889 4300 mt  961 4300 L
 925 4264 mt  925 4336 L
1139 4615 mt 1211 4615 L
1175 4579 mt 1175 4651 L
3268 1839 mt 3340 1839 L
3304 1803 mt 3304 1875 L
1490 3570 mt 1562 3570 L
1526 3534 mt 1526 3606 L
1253 4495 mt 1325 4495 L
1289 4459 mt 1289 4531 L
 864 3962 mt  936 3962 L
 900 3926 mt  900 3998 L
1457 3470 mt 1529 3470 L
1493 3434 mt 1493 3506 L
 887 4036 mt  959 4036 L
 923 4000 mt  923 4072 L
1322 4318 mt 1394 4318 L
1358 4282 mt 1358 4354 L
 953 4544 mt 1025 4544 L
 989 4508 mt  989 4580 L
1329 3601 mt 1401 3601 L
1365 3565 mt 1365 3637 L
 871 4376 mt  943 4376 L
 907 4340 mt  907 4412 L
1643 4552 mt 1715 4552 L
1679 4516 mt 1679 4588 L
1437 4586 mt 1509 4586 L
1473 4550 mt 1473 4622 L
2428 1180 mt 2500 1180 L
2464 1144 mt 2464 1216 L
1015 4527 mt 1087 4527 L
1051 4491 mt 1051 4563 L
 991 4411 mt 1063 4411 L
1027 4375 mt 1027 4447 L
 886 2821 mt  958 2821 L
 922 2785 mt  922 2857 L
 868 3433 mt  940 3433 L
 904 3397 mt  904 3469 L
 957 3966 mt 1029 3966 L
 993 3930 mt  993 4002 L
2874 4174 mt 2946 4174 L
2910 4138 mt 2910 4210 L
1951  916 mt 2023  916 L
1987  880 mt 1987  952 L
1970 4041 mt 2042 4041 L
2006 4005 mt 2006 4077 L
 883 2228 mt  955 2228 L
 919 2192 mt  919 2264 L
1080 4569 mt 1152 4569 L
1116 4533 mt 1116 4605 L
 896 3946 mt  968 3946 L
 932 3910 mt  932 3982 L
 879 3803 mt  951 3803 L
 915 3767 mt  915 3839 L
3617 3665 mt 3689 3665 L
3653 3629 mt 3653 3701 L
1577 3254 mt 1649 3254 L
1613 3218 mt 1613 3290 L
2828 3503 mt 2900 3503 L
2864 3467 mt 2864 3539 L
 911 4135 mt  983 4135 L
 947 4099 mt  947 4171 L
1191 4022 mt 1263 4022 L
1227 3986 mt 1227 4058 L
5666 2828 mt 5738 2828 L
5702 2792 mt 5702 2864 L
2420 2748 mt 2492 2748 L
2456 2712 mt 2456 2784 L
 931 4447 mt 1003 4447 L
 967 4411 mt  967 4483 L
1218 3552 mt 1290 3552 L
1254 3516 mt 1254 3588 L
 906 4391 mt  978 4391 L
 942 4355 mt  942 4427 L
1948 4073 mt 2020 4073 L
1984 4037 mt 1984 4109 L
1009 4071 mt 1081 4071 L
1045 4035 mt 1045 4107 L
1880 4595 mt 1952 4595 L
1916 4559 mt 1916 4631 L
 903 4572 mt  975 4572 L
 939 4536 mt  939 4608 L
2390 4612 mt 2462 4612 L
2426 4576 mt 2426 4648 L
 917 4016 mt  989 4016 L
 953 3980 mt  953 4052 L
1046 4606 mt 1118 4606 L
1082 4570 mt 1082 4642 L
 964 4412 mt 1036 4412 L
1000 4376 mt 1000 4448 L
4337 2158 mt 4409 2158 L
4373 2122 mt 4373 2194 L
 868 3468 mt  940 3468 L
 904 3432 mt  904 3504 L
3542 2993 mt 3614 2993 L
3578 2957 mt 3578 3029 L
5223 4614 mt 5295 4614 L
5259 4578 mt 5259 4650 L
1163 4540 mt 1235 4540 L
1199 4504 mt 1199 4576 L
1147 4307 mt 1219 4307 L
1183 4271 mt 1183 4343 L
1502 4428 mt 1574 4428 L
1538 4392 mt 1538 4464 L
 920 4600 mt  992 4600 L
 956 4564 mt  956 4636 L
1564 2558 mt 1636 2558 L
1600 2522 mt 1600 2594 L
1220 4404 mt 1292 4404 L
1256 4368 mt 1256 4440 L
 898 2982 mt  970 2982 L
 934 2946 mt  934 3018 L
1585 3947 mt 1657 3947 L
1621 3911 mt 1621 3983 L
1222 4612 mt 1294 4612 L
1258 4576 mt 1258 4648 L
 961 4615 mt 1033 4615 L
 997 4579 mt  997 4651 L
1898 4198 mt 1970 4198 L
1934 4162 mt 1934 4234 L
 916 3550 mt  988 3550 L
 952 3514 mt  952 3586 L
1250 3482 mt 1322 3482 L
1286 3446 mt 1286 3518 L
1615 4432 mt 1687 4432 L
1651 4396 mt 1651 4468 L
 950 4544 mt 1022 4544 L
 986 4508 mt  986 4580 L
 882 4597 mt  954 4597 L
 918 4561 mt  918 4633 L
1935 4457 mt 2007 4457 L
1971 4421 mt 1971 4493 L
 897 4614 mt  969 4614 L
 933 4578 mt  933 4650 L
 864 4179 mt  936 4179 L
 900 4143 mt  900 4215 L
1019 4613 mt 1091 4613 L
1055 4577 mt 1055 4649 L
2435 3397 mt 2507 3397 L
2471 3361 mt 2471 3433 L
2117 3907 mt 2189 3907 L
2153 3871 mt 2153 3943 L
1125 4613 mt 1197 4613 L
1161 4577 mt 1161 4649 L
1611 4591 mt 1683 4591 L
1647 4555 mt 1647 4627 L
1592 4446 mt 1664 4446 L
1628 4410 mt 1628 4482 L
1033 4579 mt 1105 4579 L
1069 4543 mt 1069 4615 L
 878  866 mt  950  866 L
 914  830 mt  914  902 L
 983 4346 mt 1055 4346 L
1019 4310 mt 1019 4382 L
 936 4434 mt 1008 4434 L
 972 4398 mt  972 4470 L
3119 4382 mt 3191 4382 L
3155 4346 mt 3155 4418 L
 884 4603 mt  956 4603 L
 920 4567 mt  920 4639 L
1894 4596 mt 1966 4596 L
1930 4560 mt 1930 4632 L
 877 4549 mt  949 4549 L
 913 4513 mt  913 4585 L
1531 3151 mt 1603 3151 L
1567 3115 mt 1567 3187 L
1727 4201 mt 1799 4201 L
1763 4165 mt 1763 4237 L
 915 3992 mt  987 3992 L
 951 3956 mt  951 4028 L
 966 4359 mt 1038 4359 L
1002 4323 mt 1002 4395 L
1450 3491 mt 1522 3491 L
1486 3455 mt 1486 3527 L
1652 4392 mt 1724 4392 L
1688 4356 mt 1688 4428 L
 865 4427 mt  937 4427 L
 901 4391 mt  901 4463 L
1036 4608 mt 1108 4608 L
1072 4572 mt 1072 4644 L
1966 3388 mt 2038 3388 L
2002 3352 mt 2002 3424 L
1244 3833 mt 1316 3833 L
1280 3797 mt 1280 3869 L
1122 4179 mt 1194 4179 L
1158 4143 mt 1158 4215 L
2106 4422 mt 2178 4422 L
2142 4386 mt 2142 4458 L
 894 2711 mt  966 2711 L
 930 2675 mt  930 2747 L
1014 4539 mt 1086 4539 L
1050 4503 mt 1050 4575 L
 971 4508 mt 1043 4508 L
1007 4472 mt 1007 4544 L
 899 3600 mt  971 3600 L
 935 3564 mt  935 3636 L
1448 4550 mt 1520 4550 L
1484 4514 mt 1484 4586 L
1778 4230 mt 1850 4230 L
1814 4194 mt 1814 4266 L
 863 4605 mt  935 4605 L
 899 4569 mt  899 4641 L
1014 3915 mt 1086 3915 L
1050 3879 mt 1050 3951 L
1345 4283 mt 1417 4283 L
1381 4247 mt 1381 4319 L
1371 4566 mt 1443 4566 L
1407 4530 mt 1407 4602 L
1030 4595 mt 1102 4595 L
1066 4559 mt 1066 4631 L
 863 4613 mt  935 4613 L
 899 4577 mt  899 4649 L
 927 4152 mt  999 4152 L
 963 4116 mt  963 4188 L
1261 4577 mt 1333 4577 L
1297 4541 mt 1297 4613 L
1129 3969 mt 1201 3969 L
1165 3933 mt 1165 4005 L
1041 4197 mt 1113 4197 L
1077 4161 mt 1077 4233 L
 873 4568 mt  945 4568 L
 909 4532 mt  909 4604 L
 878 4428 mt  950 4428 L
 914 4392 mt  914 4464 L
1789 3651 mt 1861 3651 L
1825 3615 mt 1825 3687 L
 865 4313 mt  937 4313 L
 901 4277 mt  901 4349 L
2088 4178 mt 2160 4178 L
2124 4142 mt 2124 4214 L
1079 4083 mt 1151 4083 L
1115 4047 mt 1115 4119 L
3320 2506 mt 3392 2506 L
3356 2470 mt 3356 2542 L
 894 4558 mt  966 4558 L
 930 4522 mt  930 4594 L
1101 4401 mt 1173 4401 L
1137 4365 mt 1137 4437 L
1781 3867 mt 1853 3867 L
1817 3831 mt 1817 3903 L
 934 4581 mt 1006 4581 L
 970 4545 mt  970 4617 L
1172 4293 mt 1244 4293 L
1208 4257 mt 1208 4329 L
1531 4205 mt 1603 4205 L
1567 4169 mt 1567 4241 L
 932 4497 mt 1004 4497 L
 968 4461 mt  968 4533 L
1012 4004 mt 1084 4004 L
1048 3968 mt 1048 4040 L
3165 3742 mt 3237 3742 L
3201 3706 mt 3201 3778 L
 950 4611 mt 1022 4611 L
 986 4575 mt  986 4647 L
 869 4487 mt  941 4487 L
 905 4451 mt  905 4523 L
 934 4612 mt 1006 4612 L
 970 4576 mt  970 4648 L
1194 4077 mt 1266 4077 L
1230 4041 mt 1230 4113 L
 869 4530 mt  941 4530 L
 905 4494 mt  905 4566 L
 964 4040 mt 1036 4040 L
1000 4004 mt 1000 4076 L
6193 3550 mt 6265 3550 L
6229 3514 mt 6229 3586 L
 898 3980 mt  970 3980 L
 934 3944 mt  934 4016 L
2676 1268 mt 2748 1268 L
2712 1232 mt 2712 1304 L
1187 4605 mt 1259 4605 L
1223 4569 mt 1223 4641 L
1176 4038 mt 1248 4038 L
1212 4002 mt 1212 4074 L
1257 3441 mt 1329 3441 L
1293 3405 mt 1293 3477 L
1588 4195 mt 1660 4195 L
1624 4159 mt 1624 4231 L
2522 4006 mt 2594 4006 L
2558 3970 mt 2558 4042 L
 891 4564 mt  963 4564 L
 927 4528 mt  927 4600 L
1015 4410 mt 1087 4410 L
1051 4374 mt 1051 4446 L
2998 3875 mt 3070 3875 L
3034 3839 mt 3034 3911 L
1613 4508 mt 1685 4508 L
1649 4472 mt 1649 4544 L
2284 4531 mt 2356 4531 L
2320 4495 mt 2320 4567 L
1875 4474 mt 1947 4474 L
1911 4438 mt 1911 4510 L
 942 4523 mt 1014 4523 L
 978 4487 mt  978 4559 L
1109 3774 mt 1181 3774 L
1145 3738 mt 1145 3810 L
1427 4118 mt 1499 4118 L
1463 4082 mt 1463 4154 L
2008 3873 mt 2080 3873 L
2044 3837 mt 2044 3909 L
1031 4491 mt 1103 4491 L
1067 4455 mt 1067 4527 L
 974 4610 mt 1046 4610 L
1010 4574 mt 1010 4646 L
 873 4567 mt  945 4567 L
 909 4531 mt  909 4603 L
1719 4605 mt 1791 4605 L
1755 4569 mt 1755 4641 L
1431 4430 mt 1503 4430 L
1467 4394 mt 1467 4466 L
1751 4161 mt 1823 4161 L
1787 4125 mt 1787 4197 L
3011 4552 mt 3083 4552 L
3047 4516 mt 3047 4588 L
1134 4614 mt 1206 4614 L
1170 4578 mt 1170 4650 L
1153 4073 mt 1225 4073 L
1189 4037 mt 1189 4109 L
 873 4171 mt  945 4171 L
 909 4135 mt  909 4207 L
1361 4355 mt 1433 4355 L
1397 4319 mt 1397 4391 L
1498 3530 mt 1570 3530 L
1534 3494 mt 1534 3566 L
1344 4197 mt 1416 4197 L
1380 4161 mt 1380 4233 L
2541 3839 mt 2613 3839 L
2577 3803 mt 2577 3875 L
 927 4154 mt  999 4154 L
 963 4118 mt  963 4190 L
1085 4145 mt 1157 4145 L
1121 4109 mt 1121 4181 L
1554 4199 mt 1626 4199 L
1590 4163 mt 1590 4235 L
2044 4548 mt 2116 4548 L
2080 4512 mt 2080 4584 L
 863 4615 mt  935 4615 L
 899 4579 mt  899 4651 L
2206 4163 mt 2278 4163 L
2242 4127 mt 2242 4199 L
2253 4325 mt 2325 4325 L
2289 4289 mt 2289 4361 L
 908 3936 mt  980 3936 L
 944 3900 mt  944 3972 L
1383 4407 mt 1455 4407 L
1419 4371 mt 1419 4443 L
2201 4581 mt 2273 4581 L
2237 4545 mt 2237 4617 L
 875 4611 mt  947 4611 L
 911 4575 mt  911 4647 L
 981 3170 mt 1053 3170 L
1017 3134 mt 1017 3206 L
1573 4353 mt 1645 4353 L
1609 4317 mt 1609 4389 L
 883 4370 mt  955 4370 L
 919 4334 mt  919 4406 L
1920 3932 mt 1992 3932 L
1956 3896 mt 1956 3968 L
1865 4614 mt 1937 4614 L
1901 4578 mt 1901 4650 L
2573 2852 mt 2645 2852 L
2609 2816 mt 2609 2888 L
2391 4602 mt 2463 4602 L
2427 4566 mt 2427 4638 L
 870 4383 mt  942 4383 L
 906 4347 mt  906 4419 L
 960 4606 mt 1032 4606 L
 996 4570 mt  996 4642 L
1325 3610 mt 1397 3610 L
1361 3574 mt 1361 3646 L
 865 4554 mt  937 4554 L
 901 4518 mt  901 4590 L
3438 4561 mt 3510 4561 L
3474 4525 mt 3474 4597 L
1137 4604 mt 1209 4604 L
1173 4568 mt 1173 4640 L
1214 3968 mt 1286 3968 L
1250 3932 mt 1250 4004 L
3092 4257 mt 3164 4257 L
3128 4221 mt 3128 4293 L
 880 4460 mt  952 4460 L
 916 4424 mt  916 4496 L
 872 4273 mt  944 4273 L
 908 4237 mt  908 4309 L
 892 4555 mt  964 4555 L
 928 4519 mt  928 4591 L
 879 4594 mt  951 4594 L
 915 4558 mt  915 4630 L
1285 2663 mt 1357 2663 L
1321 2627 mt 1321 2699 L
2085 4144 mt 2157 4144 L
2121 4108 mt 2121 4180 L
1300 4390 mt 1372 4390 L
1336 4354 mt 1336 4426 L
1973 4556 mt 2045 4556 L
2009 4520 mt 2009 4592 L
 985 4566 mt 1057 4566 L
1021 4530 mt 1021 4602 L
 991 4613 mt 1063 4613 L
1027 4577 mt 1027 4649 L
 942 4530 mt 1014 4530 L
 978 4494 mt  978 4566 L
1700 4235 mt 1772 4235 L
1736 4199 mt 1736 4271 L
3481 2705 mt 3553 2705 L
3517 2669 mt 3517 2741 L
 963 4578 mt 1035 4578 L
 999 4542 mt  999 4614 L
 940 4564 mt 1012 4564 L
 976 4528 mt  976 4600 L
 996 4405 mt 1068 4405 L
1032 4369 mt 1032 4441 L
2225 2484 mt 2297 2484 L
2261 2448 mt 2261 2520 L
1031 4552 mt 1103 4552 L
1067 4516 mt 1067 4588 L
1952 3257 mt 2024 3257 L
1988 3221 mt 1988 3293 L
1576 4059 mt 1648 4059 L
1612 4023 mt 1612 4095 L
1116 4171 mt 1188 4171 L
1152 4135 mt 1152 4207 L
 942 4615 mt 1014 4615 L
 978 4579 mt  978 4651 L
2547 4254 mt 2619 4254 L
2583 4218 mt 2583 4290 L
2445 3766 mt 2517 3766 L
2481 3730 mt 2481 3802 L
2238 2015 mt 2310 2015 L
2274 1979 mt 2274 2051 L
 879 4034 mt  951 4034 L
 915 3998 mt  915 4070 L
1407 4576 mt 1479 4576 L
1443 4540 mt 1443 4612 L
 904 4208 mt  976 4208 L
 940 4172 mt  940 4244 L
1112 4250 mt 1184 4250 L
1148 4214 mt 1148 4286 L
 980 4432 mt 1052 4432 L
1016 4396 mt 1016 4468 L
2948 3799 mt 3020 3799 L
2984 3763 mt 2984 3835 L
1460 1599 mt 1532 1599 L
1496 1563 mt 1496 1635 L
3047 4339 mt 3119 4339 L
3083 4303 mt 3083 4375 L
 901 3061 mt  973 3061 L
 937 3025 mt  937 3097 L
1585 4615 mt 1657 4615 L
1621 4579 mt 1621 4651 L
 900 3839 mt  972 3839 L
 936 3803 mt  936 3875 L
 863 4268 mt  935 4268 L
 899 4232 mt  899 4304 L
3535 3627 mt 3607 3627 L
3571 3591 mt 3571 3663 L
 978 3694 mt 1050 3694 L
1014 3658 mt 1014 3730 L
2779 4183 mt 2851 4183 L
2815 4147 mt 2815 4219 L
 867 4312 mt  939 4312 L
 903 4276 mt  903 4348 L
 863 4429 mt  935 4429 L
 899 4393 mt  899 4465 L
gs 899 414 5363 4203 rc
gr

0 sg
2752 5104 mt 
(\(S,LFCC,GMM\)) s
 288 3277 mt  -90 rotate
(\(S,SSC,GMM\)) s
90 rotate
2975  223 mt 
(Corr = 0.26) s

end %%Color Dict

eplot
%%EndObject

epage
end

showpage

%%Trailer
%%EOF
