%!PS-Adobe-3.0 EPSF-3.0
%%Creator: MATLAB, The Mathworks, Inc. Version 7.7.0.471 (R2008b). Operating System: Microsoft Windows XP.
%%Title: Pictures\main_zoo_mvar_analysis_data_BMI_xcorr_bmi_p1_k2_2_3.eps
%%CreationDate: 10/26/2009  05:44:18
%%DocumentNeededFonts: Helvetica
%%DocumentProcessColors: Cyan Magenta Yellow Black
%%LanguageLevel: 2
%%Pages: 1
%%BoundingBox:    32   180   546   616
%%EndComments

%%BeginProlog
% MathWorks dictionary
/MathWorks 160 dict begin
% definition operators
/bdef {bind def} bind def
/ldef {load def} bind def
/xdef {exch def} bdef
/xstore {exch store} bdef
% operator abbreviations
/c  /clip ldef
/cc /concat ldef
/cp /closepath ldef
/gr /grestore ldef
/gs /gsave ldef
/mt /moveto ldef
/np /newpath ldef
/cm /currentmatrix ldef
/sm /setmatrix ldef
/rm /rmoveto ldef
/rl /rlineto ldef
/s {show newpath} bdef
/sc {setcmykcolor} bdef
/sr /setrgbcolor ldef
/sg /setgray ldef
/w /setlinewidth ldef
/j /setlinejoin ldef
/cap /setlinecap ldef
/rc {rectclip} bdef
/rf {rectfill} bdef
% page state control
/pgsv () def
/bpage {/pgsv save def} bdef
/epage {pgsv restore} bdef
/bplot /gsave ldef
/eplot {stroke grestore} bdef
% orientation switch
/portraitMode 0 def /landscapeMode 1 def /rotateMode 2 def
% coordinate system mappings
/dpi2point 0 def
% font control
/FontSize 0 def
/FMS {/FontSize xstore findfont [FontSize 0 0 FontSize neg 0 0]
  makefont setfont} bdef
/ISOLatin1Encoding where {pop /WindowsLatin1Encoding 256 array bdef
ISOLatin1Encoding WindowsLatin1Encoding copy pop
/.notdef/.notdef/quotesinglbase/florin/quotedblbase/ellipsis/dagger
/daggerdbl/circumflex/perthousand/Scaron/guilsinglleft/OE/.notdef/.notdef
/.notdef/.notdef/quoteleft/quoteright/quotedblleft/quotedblright/bullet
/endash/emdash/tilde/trademark/scaron/guilsinglright/oe/.notdef/.notdef
/Ydieresis WindowsLatin1Encoding 128 32 getinterval astore pop}
{/WindowsLatin1Encoding StandardEncoding bdef} ifelse
/reencode {exch dup where {pop load} {pop StandardEncoding} ifelse
  exch dup 3 1 roll findfont dup length dict begin
  { 1 index /FID ne {def}{pop pop} ifelse } forall
  /Encoding exch def currentdict end definefont pop} bdef
/isroman {findfont /CharStrings get /Agrave known} bdef
/FMSR {3 1 roll 1 index dup isroman {reencode} {pop pop} ifelse
  exch FMS} bdef
/csm {1 dpi2point div -1 dpi2point div scale neg translate
 dup landscapeMode eq {pop -90 rotate}
  {rotateMode eq {90 rotate} if} ifelse} bdef
% line types: solid, dotted, dashed, dotdash
/SO { [] 0 setdash } bdef
/DO { [.5 dpi2point mul 4 dpi2point mul] 0 setdash } bdef
/DA { [6 dpi2point mul] 0 setdash } bdef
/DD { [.5 dpi2point mul 4 dpi2point mul 6 dpi2point mul 4
  dpi2point mul] 0 setdash } bdef
% macros for lines and objects
/L {lineto stroke} bdef
/MP {3 1 roll moveto 1 sub {rlineto} repeat} bdef
/AP {{rlineto} repeat} bdef
/PDlw -1 def
/W {/PDlw currentlinewidth def setlinewidth} def
/PP {closepath eofill} bdef
/DP {closepath stroke} bdef
/MR {4 -2 roll moveto dup  0 exch rlineto exch 0 rlineto
  neg 0 exch rlineto closepath} bdef
/FR {MR stroke} bdef
/PR {MR fill} bdef
/L1i {{currentfile picstr readhexstring pop} image} bdef
/tMatrix matrix def
/MakeOval {newpath tMatrix currentmatrix pop translate scale
0 0 1 0 360 arc tMatrix setmatrix} bdef
/FO {MakeOval stroke} bdef
/PO {MakeOval fill} bdef
/PD {currentlinewidth 2 div 0 360 arc fill
   PDlw -1 eq not {PDlw w /PDlw -1 def} if} def
/FA {newpath tMatrix currentmatrix pop translate scale
  0 0 1 5 -2 roll arc tMatrix setmatrix stroke} bdef
/PA {newpath tMatrix currentmatrix pop	translate 0 0 moveto scale
  0 0 1 5 -2 roll arc closepath tMatrix setmatrix fill} bdef
/FAn {newpath tMatrix currentmatrix pop translate scale
  0 0 1 5 -2 roll arcn tMatrix setmatrix stroke} bdef
/PAn {newpath tMatrix currentmatrix pop translate 0 0 moveto scale
  0 0 1 5 -2 roll arcn closepath tMatrix setmatrix fill} bdef
/vradius 0 def /hradius 0 def /lry 0 def
/lrx 0 def /uly 0 def /ulx 0 def /rad 0 def
/MRR {/vradius xdef /hradius xdef /lry xdef /lrx xdef /uly xdef
  /ulx xdef newpath tMatrix currentmatrix pop ulx hradius add uly
  vradius add translate hradius vradius scale 0 0 1 180 270 arc 
  tMatrix setmatrix lrx hradius sub uly vradius add translate
  hradius vradius scale 0 0 1 270 360 arc tMatrix setmatrix
  lrx hradius sub lry vradius sub translate hradius vradius scale
  0 0 1 0 90 arc tMatrix setmatrix ulx hradius add lry vradius sub
  translate hradius vradius scale 0 0 1 90 180 arc tMatrix setmatrix
  closepath} bdef
/FRR {MRR stroke } bdef
/PRR {MRR fill } bdef
/MlrRR {/lry xdef /lrx xdef /uly xdef /ulx xdef /rad lry uly sub 2 div def
  newpath tMatrix currentmatrix pop ulx rad add uly rad add translate
  rad rad scale 0 0 1 90 270 arc tMatrix setmatrix lrx rad sub lry rad
  sub translate rad rad scale 0 0 1 270 90 arc tMatrix setmatrix
  closepath} bdef
/FlrRR {MlrRR stroke } bdef
/PlrRR {MlrRR fill } bdef
/MtbRR {/lry xdef /lrx xdef /uly xdef /ulx xdef /rad lrx ulx sub 2 div def
  newpath tMatrix currentmatrix pop ulx rad add uly rad add translate
  rad rad scale 0 0 1 180 360 arc tMatrix setmatrix lrx rad sub lry rad
  sub translate rad rad scale 0 0 1 0 180 arc tMatrix setmatrix
  closepath} bdef
/FtbRR {MtbRR stroke } bdef
/PtbRR {MtbRR fill } bdef
/stri 6 array def /dtri 6 array def
/smat 6 array def /dmat 6 array def
/tmat1 6 array def /tmat2 6 array def /dif 3 array def
/asub {/ind2 exch def /ind1 exch def dup dup
  ind1 get exch ind2 get sub exch } bdef
/tri_to_matrix {
  2 0 asub 3 1 asub 4 0 asub 5 1 asub
  dup 0 get exch 1 get 7 -1 roll astore } bdef
/compute_transform {
  dmat dtri tri_to_matrix tmat1 invertmatrix 
  smat stri tri_to_matrix tmat2 concatmatrix } bdef
/ds {stri astore pop} bdef
/dt {dtri astore pop} bdef
/db {2 copy /cols xdef /rows xdef mul dup 3 mul string
  currentfile 
  3 index 0 eq {/ASCIIHexDecode filter}
  {/ASCII85Decode filter 3 index 2 eq {/RunLengthDecode filter} if }
  ifelse exch readstring pop
  dup 0 3 index getinterval /rbmap xdef
  dup 2 index dup getinterval /gbmap xdef
  1 index dup 2 mul exch getinterval /bbmap xdef pop pop}bdef
/it {gs np dtri aload pop moveto lineto lineto cp c
  cols rows 8 compute_transform 
  rbmap gbmap bbmap true 3 colorimage gr}bdef
/il {newpath moveto lineto stroke}bdef
currentdict end def
%%EndProlog

%%BeginSetup
MathWorks begin

0 cap

end
%%EndSetup

%%Page: 1 1
%%BeginPageSetup
%%PageBoundingBox:    32   180   546   616
MathWorks begin
bpage
%%EndPageSetup

%%BeginObject: obj1
bplot

/dpi2point 12 def
portraitMode 0216 7344 csm

  174   -48  6173  5231 rc
85 dict begin %Colortable dictionary
/c0 { 0.000000 0.000000 0.000000 sr} bdef
/c1 { 1.000000 1.000000 1.000000 sr} bdef
/c2 { 0.900000 0.000000 0.000000 sr} bdef
/c3 { 0.000000 0.820000 0.000000 sr} bdef
/c4 { 0.000000 0.000000 0.800000 sr} bdef
/c5 { 0.910000 0.820000 0.320000 sr} bdef
/c6 { 1.000000 0.260000 0.820000 sr} bdef
/c7 { 0.000000 0.820000 0.820000 sr} bdef
c0
1 j
1 sg
   0    0 6919 5187 rf
6 w
0 4201 5362 0 0 -4201 899 4616 4 MP
PP
-5362 0 0 4201 5362 0 0 -4201 899 4616 5 MP stroke
4 w
DO
SO
6 w
0 sg
 899  415 mt 6261  415 L
 899 4616 mt 6261 4616 L
6261 4616 mt 6261  415 L
 899 4616 mt  899  415 L
 899 4616 mt 6261 4616 L
 899 4616 mt  899  415 L
1971 4616 mt 1971 4562 L
1971  415 mt 1971  468 L
%%IncludeResource: font Helvetica
/Helvetica /WindowsLatin1Encoding 240 FMSR

1805 4873 mt 
(0.2) s
3043 4616 mt 3043 4562 L
3043  415 mt 3043  468 L
2877 4873 mt 
(0.4) s
4116 4616 mt 4116 4562 L
4116  415 mt 4116  468 L
3950 4873 mt 
(0.6) s
5188 4616 mt 5188 4562 L
5188  415 mt 5188  468 L
5022 4873 mt 
(0.8) s
 899 4195 mt  952 4195 L
6261 4195 mt 6207 4195 L
 531 4284 mt 
(0.1) s
 899 3775 mt  952 3775 L
6261 3775 mt 6207 3775 L
 531 3864 mt 
(0.2) s
 899 3355 mt  952 3355 L
6261 3355 mt 6207 3355 L
 531 3444 mt 
(0.3) s
 899 2935 mt  952 2935 L
6261 2935 mt 6207 2935 L
 531 3024 mt 
(0.4) s
 899 2515 mt  952 2515 L
6261 2515 mt 6207 2515 L
 531 2604 mt 
(0.5) s
 899 2095 mt  952 2095 L
6261 2095 mt 6207 2095 L
 531 2184 mt 
(0.6) s
 899 1675 mt  952 1675 L
6261 1675 mt 6207 1675 L
 531 1764 mt 
(0.7) s
 899 1255 mt  952 1255 L
6261 1255 mt 6207 1255 L
 531 1344 mt 
(0.8) s
 899  835 mt  952  835 L
6261  835 mt 6207  835 L
 531  924 mt 
(0.9) s
 899  415 mt 6261  415 L
 899 4616 mt 6261 4616 L
6261 4616 mt 6261  415 L
 899 4616 mt  899  415 L
gs 899 414 5363 4203 rc
gr

/c8 { 0.000000 0.000000 1.000000 sr} bdef
c8
3932  544 mt 4004  544 L
3968  508 mt 3968  580 L
3522  468 mt 3594  468 L
3558  432 mt 3558  504 L
2578 3343 mt 2650 3343 L
2614 3307 mt 2614 3379 L
 886 3951 mt  958 3951 L
 922 3915 mt  922 3987 L
2960  621 mt 3032  621 L
2996  585 mt 2996  657 L
3183 1114 mt 3255 1114 L
3219 1078 mt 3219 1150 L
2027 4200 mt 2099 4200 L
2063 4164 mt 2063 4236 L
2391 3476 mt 2463 3476 L
2427 3440 mt 2427 3512 L
 871  956 mt  943  956 L
 907  920 mt  907  992 L
6163 4302 mt 6235 4302 L
6199 4266 mt 6199 4338 L
1331 4615 mt 1403 4615 L
1367 4579 mt 1367 4651 L
1850  699 mt 1922  699 L
1886  663 mt 1886  735 L
5997  462 mt 6069  462 L
6033  426 mt 6033  498 L
2010  886 mt 2082  886 L
2046  850 mt 2046  922 L
5505  422 mt 5577  422 L
5541  386 mt 5541  458 L
4368  802 mt 4440  802 L
4404  766 mt 4404  838 L
3179 4364 mt 3251 4364 L
3215 4328 mt 3215 4400 L
5769 1317 mt 5841 1317 L
5805 1281 mt 5805 1353 L
 918 3114 mt  990 3114 L
 954 3078 mt  954 3150 L
5401 1223 mt 5473 1223 L
5437 1187 mt 5437 1259 L
4826 4281 mt 4898 4281 L
4862 4245 mt 4862 4317 L
1022 2870 mt 1094 2870 L
1058 2834 mt 1058 2906 L
3460 4086 mt 3532 4086 L
3496 4050 mt 3496 4122 L
6081 1322 mt 6153 1322 L
6117 1286 mt 6117 1358 L
5834  797 mt 5906  797 L
5870  761 mt 5870  833 L
5301 4615 mt 5373 4615 L
5337 4579 mt 5337 4651 L
 863 4258 mt  935 4258 L
 899 4222 mt  899 4294 L
3171  601 mt 3243  601 L
3207  565 mt 3207  637 L
4724 1445 mt 4796 1445 L
4760 1409 mt 4760 1481 L
6208 3923 mt 6280 3923 L
6244 3887 mt 6244 3959 L
5897 4571 mt 5969 4571 L
5933 4535 mt 5933 4607 L
1274 4607 mt 1346 4607 L
1310 4571 mt 1310 4643 L
4026 2816 mt 4098 2816 L
4062 2780 mt 4062 2852 L
5478 2221 mt 5550 2221 L
5514 2185 mt 5514 2257 L
1444  476 mt 1516  476 L
1480  440 mt 1480  512 L
2186 3760 mt 2258 3760 L
2222 3724 mt 2222 3796 L
4954 3869 mt 5026 3869 L
4990 3833 mt 4990 3905 L
2791 4262 mt 2863 4262 L
2827 4226 mt 2827 4298 L
4851 4199 mt 4923 4199 L
4887 4163 mt 4887 4235 L
1108 1805 mt 1180 1805 L
1144 1769 mt 1144 1841 L
1421  589 mt 1493  589 L
1457  553 mt 1457  625 L
5903  439 mt 5975  439 L
5939  403 mt 5939  475 L
4630 1412 mt 4702 1412 L
4666 1376 mt 4666 1448 L
4263 3814 mt 4335 3814 L
4299 3778 mt 4299 3850 L
6114  421 mt 6186  421 L
6150  385 mt 6150  457 L
1759 4371 mt 1831 4371 L
1795 4335 mt 1795 4407 L
2940 2492 mt 3012 2492 L
2976 2456 mt 2976 2528 L
5983 3917 mt 6055 3917 L
6019 3881 mt 6019 3953 L
3288 4114 mt 3360 4114 L
3324 4078 mt 3324 4150 L
5451 4340 mt 5523 4340 L
5487 4304 mt 5487 4376 L
4059  421 mt 4131  421 L
4095  385 mt 4095  457 L
5256  656 mt 5328  656 L
5292  620 mt 5292  692 L
6101 2090 mt 6173 2090 L
6137 2054 mt 6137 2126 L
2443  545 mt 2515  545 L
2479  509 mt 2479  581 L
5856 2054 mt 5928 2054 L
5892 2018 mt 5892 2090 L
5672 1522 mt 5744 1522 L
5708 1486 mt 5708 1558 L
3400 2414 mt 3472 2414 L
3436 2378 mt 3436 2450 L
4339  422 mt 4411  422 L
4375  386 mt 4375  458 L
1615 3101 mt 1687 3101 L
1651 3065 mt 1651 3137 L
1336 2654 mt 1408 2654 L
1372 2618 mt 1372 2690 L
3782  544 mt 3854  544 L
3818  508 mt 3818  580 L
3602 3876 mt 3674 3876 L
3638 3840 mt 3638 3912 L
3144 1371 mt 3216 1371 L
3180 1335 mt 3180 1407 L
5547  421 mt 5619  421 L
5583  385 mt 5583  457 L
 933  740 mt 1005  740 L
 969  704 mt  969  776 L
6070  421 mt 6142  421 L
6106  385 mt 6106  457 L
4398  425 mt 4470  425 L
4434  389 mt 4434  461 L
1055 1173 mt 1127 1173 L
1091 1137 mt 1091 1209 L
4712 3248 mt 4784 3248 L
4748 3212 mt 4748 3284 L
1063  538 mt 1135  538 L
1099  502 mt 1099  574 L
4953 4114 mt 5025 4114 L
4989 4078 mt 4989 4150 L
2257  489 mt 2329  489 L
2293  453 mt 2293  525 L
3686 4615 mt 3758 4615 L
3722 4579 mt 3722 4651 L
1983 3057 mt 2055 3057 L
2019 3021 mt 2019 3093 L
 876 4355 mt  948 4355 L
 912 4319 mt  912 4391 L
 863  450 mt  935  450 L
 899  414 mt  899  486 L
5441  447 mt 5513  447 L
5477  411 mt 5477  483 L
1926 4370 mt 1998 4370 L
1962 4334 mt 1962 4406 L
2063 4304 mt 2135 4304 L
2099 4268 mt 2099 4340 L
6145 3286 mt 6217 3286 L
6181 3250 mt 6181 3322 L
1343  495 mt 1415  495 L
1379  459 mt 1379  531 L
2447 3700 mt 2519 3700 L
2483 3664 mt 2483 3736 L
5695  540 mt 5767  540 L
5731  504 mt 5731  576 L
5791 1726 mt 5863 1726 L
5827 1690 mt 5827 1762 L
6137 4479 mt 6209 4479 L
6173 4443 mt 6173 4515 L
3655 1911 mt 3727 1911 L
3691 1875 mt 3691 1947 L
2100  467 mt 2172  467 L
2136  431 mt 2136  503 L
5436 1092 mt 5508 1092 L
5472 1056 mt 5472 1128 L
6121 1673 mt 6193 1673 L
6157 1637 mt 6157 1709 L
2460  419 mt 2532  419 L
2496  383 mt 2496  455 L
2049 2437 mt 2121 2437 L
2085 2401 mt 2085 2473 L
6170  417 mt 6242  417 L
6206  381 mt 6206  453 L
 968 4326 mt 1040 4326 L
1004 4290 mt 1004 4362 L
5093  898 mt 5165  898 L
5129  862 mt 5129  934 L
3333 4304 mt 3405 4304 L
3369 4268 mt 3369 4340 L
5593 1069 mt 5665 1069 L
5629 1033 mt 5629 1105 L
1877  499 mt 1949  499 L
1913  463 mt 1913  535 L
3190  433 mt 3262  433 L
3226  397 mt 3226  469 L
3137 3273 mt 3209 3273 L
3173 3237 mt 3173 3309 L
1072  489 mt 1144  489 L
1108  453 mt 1108  525 L
5125  415 mt 5197  415 L
5161  379 mt 5161  451 L
6129 1678 mt 6201 1678 L
6165 1642 mt 6165 1714 L
1323 4413 mt 1395 4413 L
1359 4377 mt 1359 4449 L
 977  473 mt 1049  473 L
1013  437 mt 1013  509 L
5083 3473 mt 5155 3473 L
5119 3437 mt 5119 3509 L
1121 4370 mt 1193 4370 L
1157 4334 mt 1157 4406 L
1455  843 mt 1527  843 L
1491  807 mt 1491  879 L
3490 4503 mt 3562 4503 L
3526 4467 mt 3526 4539 L
1057 3944 mt 1129 3944 L
1093 3908 mt 1093 3980 L
5407 2627 mt 5479 2627 L
5443 2591 mt 5443 2663 L
5897  827 mt 5969  827 L
5933  791 mt 5933  863 L
1024 4262 mt 1096 4262 L
1060 4226 mt 1060 4298 L
1243  694 mt 1315  694 L
1279  658 mt 1279  730 L
5775  457 mt 5847  457 L
5811  421 mt 5811  493 L
2326 4252 mt 2398 4252 L
2362 4216 mt 2362 4288 L
1393 4426 mt 1465 4426 L
1429 4390 mt 1429 4462 L
5247 2359 mt 5319 2359 L
5283 2323 mt 5283 2395 L
4238  456 mt 4310  456 L
4274  420 mt 4274  492 L
3966 4602 mt 4038 4602 L
4002 4566 mt 4002 4638 L
 863 2833 mt  935 2833 L
 899 2797 mt  899 2869 L
4219  629 mt 4291  629 L
4255  593 mt 4255  665 L
6181 3955 mt 6253 3955 L
6217 3919 mt 6217 3991 L
5332  948 mt 5404  948 L
5368  912 mt 5368  984 L
1251 4590 mt 1323 4590 L
1287 4554 mt 1287 4626 L
3903 2513 mt 3975 2513 L
3939 2477 mt 3939 2549 L
6023  416 mt 6095  416 L
6059  380 mt 6059  452 L
 986  603 mt 1058  603 L
1022  567 mt 1022  639 L
 872  744 mt  944  744 L
 908  708 mt  908  780 L
5031 4108 mt 5103 4108 L
5067 4072 mt 5067 4144 L
5352 4589 mt 5424 4589 L
5388 4553 mt 5388 4625 L
5602  460 mt 5674  460 L
5638  424 mt 5638  496 L
5220 1912 mt 5292 1912 L
5256 1876 mt 5256 1948 L
5726 3496 mt 5798 3496 L
5762 3460 mt 5762 3532 L
4768  796 mt 4840  796 L
4804  760 mt 4804  832 L
 887 4393 mt  959 4393 L
 923 4357 mt  923 4429 L
2878  512 mt 2950  512 L
2914  476 mt 2914  548 L
1388 3871 mt 1460 3871 L
1424 3835 mt 1424 3907 L
6125 1598 mt 6197 1598 L
6161 1562 mt 6161 1634 L
1261 2863 mt 1333 2863 L
1297 2827 mt 1297 2899 L
5373 1503 mt 5445 1503 L
5409 1467 mt 5409 1539 L
6059 1722 mt 6131 1722 L
6095 1686 mt 6095 1758 L
5418  436 mt 5490  436 L
5454  400 mt 5454  472 L
2816 4596 mt 2888 4596 L
2852 4560 mt 2852 4632 L
2118 3692 mt 2190 3692 L
2154 3656 mt 2154 3728 L
5333  438 mt 5405  438 L
5369  402 mt 5369  474 L
5972 1556 mt 6044 1556 L
6008 1520 mt 6008 1592 L
4571 4372 mt 4643 4372 L
4607 4336 mt 4607 4408 L
2438  480 mt 2510  480 L
2474  444 mt 2474  516 L
3565 2749 mt 3637 2749 L
3601 2713 mt 3601 2785 L
3605 3051 mt 3677 3051 L
3641 3015 mt 3641 3087 L
5475 4425 mt 5547 4425 L
5511 4389 mt 5511 4461 L
5516 3422 mt 5588 3422 L
5552 3386 mt 5552 3458 L
 895 3832 mt  967 3832 L
 931 3796 mt  931 3868 L
1316 4144 mt 1388 4144 L
1352 4108 mt 1352 4180 L
5208 4495 mt 5280 4495 L
5244 4459 mt 5244 4531 L
4162 2751 mt 4234 2751 L
4198 2715 mt 4198 2787 L
 932 4300 mt 1004 4300 L
 968 4264 mt  968 4336 L
5385 4023 mt 5457 4023 L
5421 3987 mt 5421 4059 L
 865 4615 mt  937 4615 L
 901 4579 mt  901 4651 L
6027 1613 mt 6099 1613 L
6063 1577 mt 6063 1649 L
2462 1305 mt 2534 1305 L
2498 1269 mt 2498 1341 L
2851 3253 mt 2923 3253 L
2887 3217 mt 2887 3289 L
3478 4526 mt 3550 4526 L
3514 4490 mt 3514 4562 L
6200 1131 mt 6272 1131 L
6236 1095 mt 6236 1167 L
6070 4080 mt 6142 4080 L
6106 4044 mt 6106 4116 L
2236 4548 mt 2308 4548 L
2272 4512 mt 2272 4584 L
5473 4197 mt 5545 4197 L
5509 4161 mt 5509 4233 L
2199  815 mt 2271  815 L
2235  779 mt 2235  851 L
3638 3434 mt 3710 3434 L
3674 3398 mt 3674 3470 L
5148  429 mt 5220  429 L
5184  393 mt 5184  465 L
5009 2074 mt 5081 2074 L
5045 2038 mt 5045 2110 L
5743  521 mt 5815  521 L
5779  485 mt 5779  557 L
1057 4086 mt 1129 4086 L
1093 4050 mt 1093 4122 L
3553 2483 mt 3625 2483 L
3589 2447 mt 3589 2519 L
4927 3492 mt 4999 3492 L
4963 3456 mt 4963 3528 L
1667  529 mt 1739  529 L
1703  493 mt 1703  565 L
4696 1367 mt 4768 1367 L
4732 1331 mt 4732 1403 L
4959  415 mt 5031  415 L
4995  379 mt 4995  451 L
2290  482 mt 2362  482 L
2326  446 mt 2326  518 L
1084 4491 mt 1156 4491 L
1120 4455 mt 1120 4527 L
1748 4199 mt 1820 4199 L
1784 4163 mt 1784 4235 L
6075 2121 mt 6147 2121 L
6111 2085 mt 6111 2157 L
3794 3001 mt 3866 3001 L
3830 2965 mt 3830 3037 L
 873  442 mt  945  442 L
 909  406 mt  909  478 L
6171 2487 mt 6243 2487 L
6207 2451 mt 6207 2523 L
1081 4046 mt 1153 4046 L
1117 4010 mt 1117 4082 L
6221  964 mt 6293  964 L
6257  928 mt 6257 1000 L
4277  787 mt 4349  787 L
4313  751 mt 4313  823 L
6199 1326 mt 6271 1326 L
6235 1290 mt 6235 1362 L
4394 3714 mt 4466 3714 L
4430 3678 mt 4430 3750 L
5101 4494 mt 5173 4494 L
5137 4458 mt 5137 4530 L
1772 1008 mt 1844 1008 L
1808  972 mt 1808 1044 L
6207  431 mt 6279  431 L
6243  395 mt 6243  467 L
6146  544 mt 6218  544 L
6182  508 mt 6182  580 L
2980  705 mt 3052  705 L
3016  669 mt 3016  741 L
2661 4448 mt 2733 4448 L
2697 4412 mt 2697 4484 L
5221 3047 mt 5293 3047 L
5257 3011 mt 5257 3083 L
4362  571 mt 4434  571 L
4398  535 mt 4398  607 L
1791 2491 mt 1863 2491 L
1827 2455 mt 1827 2527 L
4227  939 mt 4299  939 L
4263  903 mt 4263  975 L
5978  420 mt 6050  420 L
6014  384 mt 6014  456 L
1237  430 mt 1309  430 L
1273  394 mt 1273  466 L
6173 3542 mt 6245 3542 L
6209 3506 mt 6209 3578 L
5980 3892 mt 6052 3892 L
6016 3856 mt 6016 3928 L
4600 4432 mt 4672 4432 L
4636 4396 mt 4636 4468 L
1682  506 mt 1754  506 L
1718  470 mt 1718  542 L
5990 4529 mt 6062 4529 L
6026 4493 mt 6026 4565 L
5906  786 mt 5978  786 L
5942  750 mt 5942  822 L
5086  427 mt 5158  427 L
5122  391 mt 5122  463 L
 898 4610 mt  970 4610 L
 934 4574 mt  934 4646 L
1305 4255 mt 1377 4255 L
1341 4219 mt 1341 4291 L
5461  419 mt 5533  419 L
5497  383 mt 5497  455 L
5148  415 mt 5220  415 L
5184  379 mt 5184  451 L
3822 1495 mt 3894 1495 L
3858 1459 mt 3858 1531 L
5446  430 mt 5518  430 L
5482  394 mt 5482  466 L
6221  434 mt 6293  434 L
6257  398 mt 6257  470 L
1755  450 mt 1827  450 L
1791  414 mt 1791  486 L
1200  781 mt 1272  781 L
1236  745 mt 1236  817 L
5063 4361 mt 5135 4361 L
5099 4325 mt 5099 4397 L
5329 2329 mt 5401 2329 L
5365 2293 mt 5365 2365 L
6210 3342 mt 6282 3342 L
6246 3306 mt 6246 3378 L
 968 3350 mt 1040 3350 L
1004 3314 mt 1004 3386 L
5325  458 mt 5397  458 L
5361  422 mt 5361  494 L
 871 4608 mt  943 4608 L
 907 4572 mt  907 4644 L
6217  476 mt 6289  476 L
6253  440 mt 6253  512 L
5386 3588 mt 5458 3588 L
5422 3552 mt 5422 3624 L
 884 3958 mt  956 3958 L
 920 3922 mt  920 3994 L
4682  623 mt 4754  623 L
4718  587 mt 4718  659 L
4505 2636 mt 4577 2636 L
4541 2600 mt 4541 2672 L
6135 1218 mt 6207 1218 L
6171 1182 mt 6171 1254 L
5782  616 mt 5854  616 L
5818  580 mt 5818  652 L
2305 1753 mt 2377 1753 L
2341 1717 mt 2341 1789 L
1049 2158 mt 1121 2158 L
1085 2122 mt 1085 2194 L
6132 1880 mt 6204 1880 L
6168 1844 mt 6168 1916 L
4214 3628 mt 4286 3628 L
4250 3592 mt 4250 3664 L
4548  764 mt 4620  764 L
4584  728 mt 4584  800 L
4735  425 mt 4807  425 L
4771  389 mt 4771  461 L
1140  600 mt 1212  600 L
1176  564 mt 1176  636 L
1699 4417 mt 1771 4417 L
1735 4381 mt 1735 4453 L
3626  417 mt 3698  417 L
3662  381 mt 3662  453 L
5961  417 mt 6033  417 L
5997  381 mt 5997  453 L
6146  422 mt 6218  422 L
6182  386 mt 6182  458 L
6222  416 mt 6294  416 L
6258  380 mt 6258  452 L
6079  429 mt 6151  429 L
6115  393 mt 6115  465 L
5612  586 mt 5684  586 L
5648  550 mt 5648  622 L
5465  418 mt 5537  418 L
5501  382 mt 5501  454 L
5213 3026 mt 5285 3026 L
5249 2990 mt 5249 3062 L
3759 3883 mt 3831 3883 L
3795 3847 mt 3795 3919 L
6109  453 mt 6181  453 L
6145  417 mt 6145  489 L
 881 4604 mt  953 4604 L
 917 4568 mt  917 4640 L
5811  426 mt 5883  426 L
5847  390 mt 5847  462 L
4491 1270 mt 4563 1270 L
4527 1234 mt 4527 1306 L
1476 1661 mt 1548 1661 L
1512 1625 mt 1512 1697 L
6152  418 mt 6224  418 L
6188  382 mt 6188  454 L
1556 3197 mt 1628 3197 L
1592 3161 mt 1592 3233 L
5576 1916 mt 5648 1916 L
5612 1880 mt 5612 1952 L
6015  432 mt 6087  432 L
6051  396 mt 6051  468 L
5213 2163 mt 5285 2163 L
5249 2127 mt 5249 2199 L
3560  453 mt 3632  453 L
3596  417 mt 3596  489 L
6017 4485 mt 6089 4485 L
6053 4449 mt 6053 4521 L
 913  416 mt  985  416 L
 949  380 mt  949  452 L
5960  541 mt 6032  541 L
5996  505 mt 5996  577 L
6213  541 mt 6285  541 L
6249  505 mt 6249  577 L
2485  430 mt 2557  430 L
2521  394 mt 2521  466 L
2410 2155 mt 2482 2155 L
2446 2119 mt 2446 2191 L
3935 2072 mt 4007 2072 L
3971 2036 mt 3971 2108 L
1864  422 mt 1936  422 L
1900  386 mt 1900  458 L
4905 2773 mt 4977 2773 L
4941 2737 mt 4941 2809 L
 917 2115 mt  989 2115 L
 953 2079 mt  953 2151 L
4355  569 mt 4427  569 L
4391  533 mt 4391  605 L
5898  415 mt 5970  415 L
5934  379 mt 5934  451 L
3980  458 mt 4052  458 L
4016  422 mt 4016  494 L
6220  420 mt 6292  420 L
6256  384 mt 6256  456 L
1624 3594 mt 1696 3594 L
1660 3558 mt 1660 3630 L
4208 3009 mt 4280 3009 L
4244 2973 mt 4244 3045 L
1327 3815 mt 1399 3815 L
1363 3779 mt 1363 3851 L
5938  421 mt 6010  421 L
5974  385 mt 5974  457 L
1924  422 mt 1996  422 L
1960  386 mt 1960  458 L
4685 3950 mt 4757 3950 L
4721 3914 mt 4721 3986 L
5410  418 mt 5482  418 L
5446  382 mt 5446  454 L
5530 1593 mt 5602 1593 L
5566 1557 mt 5566 1629 L
 884 3278 mt  956 3278 L
 920 3242 mt  920 3314 L
6117  419 mt 6189  419 L
6153  383 mt 6153  455 L
5863 1327 mt 5935 1327 L
5899 1291 mt 5899 1363 L
6030  529 mt 6102  529 L
6066  493 mt 6066  565 L
2125 3565 mt 2197 3565 L
2161 3529 mt 2161 3601 L
3024  429 mt 3096  429 L
3060  393 mt 3060  465 L
4928  624 mt 5000  624 L
4964  588 mt 4964  660 L
4475 1999 mt 4547 1999 L
4511 1963 mt 4511 2035 L
 863  445 mt  935  445 L
 899  409 mt  899  481 L
4557  437 mt 4629  437 L
4593  401 mt 4593  473 L
5888  512 mt 5960  512 L
5924  476 mt 5924  548 L
1855 2509 mt 1927 2509 L
1891 2473 mt 1891 2545 L
5543 3369 mt 5615 3369 L
5579 3333 mt 5579 3405 L
2332  916 mt 2404  916 L
2368  880 mt 2368  952 L
6200 4173 mt 6272 4173 L
6236 4137 mt 6236 4209 L
2977  808 mt 3049  808 L
3013  772 mt 3013  844 L
2232 3250 mt 2304 3250 L
2268 3214 mt 2268 3286 L
1016 3281 mt 1088 3281 L
1052 3245 mt 1052 3317 L
1497  422 mt 1569  422 L
1533  386 mt 1533  458 L
5803  535 mt 5875  535 L
5839  499 mt 5839  571 L
6042 1064 mt 6114 1064 L
6078 1028 mt 6078 1100 L
4855 1408 mt 4927 1408 L
4891 1372 mt 4891 1444 L
1485  429 mt 1557  429 L
1521  393 mt 1521  465 L
6029 3389 mt 6101 3389 L
6065 3353 mt 6065 3425 L
6198 1790 mt 6270 1790 L
6234 1754 mt 6234 1826 L
 869  415 mt  941  415 L
 905  379 mt  905  451 L
5590  463 mt 5662  463 L
5626  427 mt 5626  499 L
 869  459 mt  941  459 L
 905  423 mt  905  495 L
2645 2161 mt 2717 2161 L
2681 2125 mt 2681 2197 L
6198  593 mt 6270  593 L
6234  557 mt 6234  629 L
3315 3136 mt 3387 3136 L
3351 3100 mt 3351 3172 L
3426 2388 mt 3498 2388 L
3462 2352 mt 3462 2424 L
2770 3263 mt 2842 3263 L
2806 3227 mt 2806 3299 L
 865 3600 mt  937 3600 L
 901 3564 mt  901 3636 L
1194 4611 mt 1266 4611 L
1230 4575 mt 1230 4647 L
6221  436 mt 6293  436 L
6257  400 mt 6257  472 L
1616  917 mt 1688  917 L
1652  881 mt 1652  953 L
5162  973 mt 5234  973 L
5198  937 mt 5198 1009 L
5168  434 mt 5240  434 L
5204  398 mt 5204  470 L
2035  418 mt 2107  418 L
2071  382 mt 2071  454 L
1361  892 mt 1433  892 L
1397  856 mt 1397  928 L
4164  956 mt 4236  956 L
4200  920 mt 4200  992 L
6214 4615 mt 6286 4615 L
6250 4579 mt 6250 4651 L
4152  659 mt 4224  659 L
4188  623 mt 4188  695 L
5573 1017 mt 5645 1017 L
5609  981 mt 5609 1053 L
6162  559 mt 6234  559 L
6198  523 mt 6198  595 L
4042  552 mt 4114  552 L
4078  516 mt 4078  588 L
4887  417 mt 4959  417 L
4923  381 mt 4923  453 L
2742 4205 mt 2814 4205 L
2778 4169 mt 2778 4241 L
 864  494 mt  936  494 L
 900  458 mt  900  530 L
2034 3639 mt 2106 3639 L
2070 3603 mt 2070 3675 L
6201  468 mt 6273  468 L
6237  432 mt 6237  504 L
1472 1274 mt 1544 1274 L
1508 1238 mt 1508 1310 L
4912 1823 mt 4984 1823 L
4948 1787 mt 4948 1859 L
1038  742 mt 1110  742 L
1074  706 mt 1074  778 L
2437 2827 mt 2509 2827 L
2473 2791 mt 2473 2863 L
6055  456 mt 6127  456 L
6091  420 mt 6091  492 L
4871 1187 mt 4943 1187 L
4907 1151 mt 4907 1223 L
5045 2176 mt 5117 2176 L
5081 2140 mt 5081 2212 L
6050 2386 mt 6122 2386 L
6086 2350 mt 6086 2422 L
6118  415 mt 6190  415 L
6154  379 mt 6154  451 L
5597 4083 mt 5669 4083 L
5633 4047 mt 5633 4119 L
 883 4615 mt  955 4615 L
 919 4579 mt  919 4651 L
6196 2184 mt 6268 2184 L
6232 2148 mt 6232 2220 L
5486  834 mt 5558  834 L
5522  798 mt 5522  870 L
 869  657 mt  941  657 L
 905  621 mt  905  693 L
4516  826 mt 4588  826 L
4552  790 mt 4552  862 L
1694  921 mt 1766  921 L
1730  885 mt 1730  957 L
 883 4609 mt  955 4609 L
 919 4573 mt  919 4645 L
5721 4609 mt 5793 4609 L
5757 4573 mt 5757 4645 L
4643 3612 mt 4715 3612 L
4679 3576 mt 4679 3648 L
1628  916 mt 1700  916 L
1664  880 mt 1664  952 L
6225 1052 mt 6297 1052 L
6261 1016 mt 6261 1088 L
1671 3084 mt 1743 3084 L
1707 3048 mt 1707 3120 L
6224  570 mt 6296  570 L
6260  534 mt 6260  606 L
1599 4047 mt 1671 4047 L
1635 4011 mt 1635 4083 L
4262 3213 mt 4334 3213 L
4298 3177 mt 4298 3249 L
1850 4298 mt 1922 4298 L
1886 4262 mt 1886 4334 L
3578 3892 mt 3650 3892 L
3614 3856 mt 3614 3928 L
5137  500 mt 5209  500 L
5173  464 mt 5173  536 L
5806 1563 mt 5878 1563 L
5842 1527 mt 5842 1599 L
5163 4615 mt 5235 4615 L
5199 4579 mt 5199 4651 L
6183  532 mt 6255  532 L
6219  496 mt 6219  568 L
4393 4306 mt 4465 4306 L
4429 4270 mt 4429 4342 L
4562 1317 mt 4634 1317 L
4598 1281 mt 4598 1353 L
6148  453 mt 6220  453 L
6184  417 mt 6184  489 L
 870 4463 mt  942 4463 L
 906 4427 mt  906 4499 L
3773  423 mt 3845  423 L
3809  387 mt 3809  459 L
6068  427 mt 6140  427 L
6104  391 mt 6104  463 L
6125 3024 mt 6197 3024 L
6161 2988 mt 6161 3060 L
6149  430 mt 6221  430 L
6185  394 mt 6185  466 L
4003  417 mt 4075  417 L
4039  381 mt 4039  453 L
1843 3783 mt 1915 3783 L
1879 3747 mt 1879 3819 L
3354  424 mt 3426  424 L
3390  388 mt 3390  460 L
1923 3829 mt 1995 3829 L
1959 3793 mt 1959 3865 L
2835 4614 mt 2907 4614 L
2871 4578 mt 2871 4650 L
6122 2371 mt 6194 2371 L
6158 2335 mt 6158 2407 L
3146 3265 mt 3218 3265 L
3182 3229 mt 3182 3301 L
2230 4616 mt 2302 4616 L
2266 4580 mt 2266 4652 L
3074 4513 mt 3146 4513 L
3110 4477 mt 3110 4549 L
3359 4445 mt 3431 4445 L
3395 4409 mt 3395 4481 L
6207  415 mt 6279  415 L
6243  379 mt 6243  451 L
4188  439 mt 4260  439 L
4224  403 mt 4224  475 L
 925 4533 mt  997 4533 L
 961 4497 mt  961 4569 L
6153  416 mt 6225  416 L
6189  380 mt 6189  452 L
5352 3155 mt 5424 3155 L
5388 3119 mt 5388 3191 L
1416 1897 mt 1488 1897 L
1452 1861 mt 1452 1933 L
5350 4477 mt 5422 4477 L
5386 4441 mt 5386 4513 L
3373 2682 mt 3445 2682 L
3409 2646 mt 3409 2718 L
1378 4606 mt 1450 4606 L
1414 4570 mt 1414 4642 L
 896 1015 mt  968 1015 L
 932  979 mt  932 1051 L
3223  445 mt 3295  445 L
3259  409 mt 3259  481 L
6167 1824 mt 6239 1824 L
6203 1788 mt 6203 1860 L
6205  415 mt 6277  415 L
6241  379 mt 6241  451 L
 991 3069 mt 1063 3069 L
1027 3033 mt 1027 3105 L
4299  794 mt 4371  794 L
4335  758 mt 4335  830 L
2984  806 mt 3056  806 L
3020  770 mt 3020  842 L
2150 1749 mt 2222 1749 L
2186 1713 mt 2186 1785 L
6220  423 mt 6292  423 L
6256  387 mt 6256  459 L
gs 899 414 5363 4203 rc
gr

0 sg
2775 5104 mt 
(\(F,DCTb,GMM\)) s
 422 3269 mt  -90 rotate
(\(F,DCTs,MLP\)) s
90 rotate
2975  223 mt 
(Corr = 0.26) s

end %%Color Dict

eplot
%%EndObject

epage
end

showpage

%%Trailer
%%EOF
