%!PS-Adobe-3.0 EPSF-3.0
%%Creator: MATLAB, The Mathworks, Inc. Version 7.7.0.471 (R2008b). Operating System: Microsoft Windows XP.
%%Title: Pictures\main_zoo_mvar_analysis_data_BMI_xcorr_bmi_p1_k2_7_8.eps
%%CreationDate: 10/26/2009  05:44:35
%%DocumentNeededFonts: Helvetica
%%DocumentProcessColors: Cyan Magenta Yellow Black
%%LanguageLevel: 2
%%Pages: 1
%%BoundingBox:    32   180   546   616
%%EndComments

%%BeginProlog
% MathWorks dictionary
/MathWorks 160 dict begin
% definition operators
/bdef {bind def} bind def
/ldef {load def} bind def
/xdef {exch def} bdef
/xstore {exch store} bdef
% operator abbreviations
/c  /clip ldef
/cc /concat ldef
/cp /closepath ldef
/gr /grestore ldef
/gs /gsave ldef
/mt /moveto ldef
/np /newpath ldef
/cm /currentmatrix ldef
/sm /setmatrix ldef
/rm /rmoveto ldef
/rl /rlineto ldef
/s {show newpath} bdef
/sc {setcmykcolor} bdef
/sr /setrgbcolor ldef
/sg /setgray ldef
/w /setlinewidth ldef
/j /setlinejoin ldef
/cap /setlinecap ldef
/rc {rectclip} bdef
/rf {rectfill} bdef
% page state control
/pgsv () def
/bpage {/pgsv save def} bdef
/epage {pgsv restore} bdef
/bplot /gsave ldef
/eplot {stroke grestore} bdef
% orientation switch
/portraitMode 0 def /landscapeMode 1 def /rotateMode 2 def
% coordinate system mappings
/dpi2point 0 def
% font control
/FontSize 0 def
/FMS {/FontSize xstore findfont [FontSize 0 0 FontSize neg 0 0]
  makefont setfont} bdef
/ISOLatin1Encoding where {pop /WindowsLatin1Encoding 256 array bdef
ISOLatin1Encoding WindowsLatin1Encoding copy pop
/.notdef/.notdef/quotesinglbase/florin/quotedblbase/ellipsis/dagger
/daggerdbl/circumflex/perthousand/Scaron/guilsinglleft/OE/.notdef/.notdef
/.notdef/.notdef/quoteleft/quoteright/quotedblleft/quotedblright/bullet
/endash/emdash/tilde/trademark/scaron/guilsinglright/oe/.notdef/.notdef
/Ydieresis WindowsLatin1Encoding 128 32 getinterval astore pop}
{/WindowsLatin1Encoding StandardEncoding bdef} ifelse
/reencode {exch dup where {pop load} {pop StandardEncoding} ifelse
  exch dup 3 1 roll findfont dup length dict begin
  { 1 index /FID ne {def}{pop pop} ifelse } forall
  /Encoding exch def currentdict end definefont pop} bdef
/isroman {findfont /CharStrings get /Agrave known} bdef
/FMSR {3 1 roll 1 index dup isroman {reencode} {pop pop} ifelse
  exch FMS} bdef
/csm {1 dpi2point div -1 dpi2point div scale neg translate
 dup landscapeMode eq {pop -90 rotate}
  {rotateMode eq {90 rotate} if} ifelse} bdef
% line types: solid, dotted, dashed, dotdash
/SO { [] 0 setdash } bdef
/DO { [.5 dpi2point mul 4 dpi2point mul] 0 setdash } bdef
/DA { [6 dpi2point mul] 0 setdash } bdef
/DD { [.5 dpi2point mul 4 dpi2point mul 6 dpi2point mul 4
  dpi2point mul] 0 setdash } bdef
% macros for lines and objects
/L {lineto stroke} bdef
/MP {3 1 roll moveto 1 sub {rlineto} repeat} bdef
/AP {{rlineto} repeat} bdef
/PDlw -1 def
/W {/PDlw currentlinewidth def setlinewidth} def
/PP {closepath eofill} bdef
/DP {closepath stroke} bdef
/MR {4 -2 roll moveto dup  0 exch rlineto exch 0 rlineto
  neg 0 exch rlineto closepath} bdef
/FR {MR stroke} bdef
/PR {MR fill} bdef
/L1i {{currentfile picstr readhexstring pop} image} bdef
/tMatrix matrix def
/MakeOval {newpath tMatrix currentmatrix pop translate scale
0 0 1 0 360 arc tMatrix setmatrix} bdef
/FO {MakeOval stroke} bdef
/PO {MakeOval fill} bdef
/PD {currentlinewidth 2 div 0 360 arc fill
   PDlw -1 eq not {PDlw w /PDlw -1 def} if} def
/FA {newpath tMatrix currentmatrix pop translate scale
  0 0 1 5 -2 roll arc tMatrix setmatrix stroke} bdef
/PA {newpath tMatrix currentmatrix pop	translate 0 0 moveto scale
  0 0 1 5 -2 roll arc closepath tMatrix setmatrix fill} bdef
/FAn {newpath tMatrix currentmatrix pop translate scale
  0 0 1 5 -2 roll arcn tMatrix setmatrix stroke} bdef
/PAn {newpath tMatrix currentmatrix pop translate 0 0 moveto scale
  0 0 1 5 -2 roll arcn closepath tMatrix setmatrix fill} bdef
/vradius 0 def /hradius 0 def /lry 0 def
/lrx 0 def /uly 0 def /ulx 0 def /rad 0 def
/MRR {/vradius xdef /hradius xdef /lry xdef /lrx xdef /uly xdef
  /ulx xdef newpath tMatrix currentmatrix pop ulx hradius add uly
  vradius add translate hradius vradius scale 0 0 1 180 270 arc 
  tMatrix setmatrix lrx hradius sub uly vradius add translate
  hradius vradius scale 0 0 1 270 360 arc tMatrix setmatrix
  lrx hradius sub lry vradius sub translate hradius vradius scale
  0 0 1 0 90 arc tMatrix setmatrix ulx hradius add lry vradius sub
  translate hradius vradius scale 0 0 1 90 180 arc tMatrix setmatrix
  closepath} bdef
/FRR {MRR stroke } bdef
/PRR {MRR fill } bdef
/MlrRR {/lry xdef /lrx xdef /uly xdef /ulx xdef /rad lry uly sub 2 div def
  newpath tMatrix currentmatrix pop ulx rad add uly rad add translate
  rad rad scale 0 0 1 90 270 arc tMatrix setmatrix lrx rad sub lry rad
  sub translate rad rad scale 0 0 1 270 90 arc tMatrix setmatrix
  closepath} bdef
/FlrRR {MlrRR stroke } bdef
/PlrRR {MlrRR fill } bdef
/MtbRR {/lry xdef /lrx xdef /uly xdef /ulx xdef /rad lrx ulx sub 2 div def
  newpath tMatrix currentmatrix pop ulx rad add uly rad add translate
  rad rad scale 0 0 1 180 360 arc tMatrix setmatrix lrx rad sub lry rad
  sub translate rad rad scale 0 0 1 0 180 arc tMatrix setmatrix
  closepath} bdef
/FtbRR {MtbRR stroke } bdef
/PtbRR {MtbRR fill } bdef
/stri 6 array def /dtri 6 array def
/smat 6 array def /dmat 6 array def
/tmat1 6 array def /tmat2 6 array def /dif 3 array def
/asub {/ind2 exch def /ind1 exch def dup dup
  ind1 get exch ind2 get sub exch } bdef
/tri_to_matrix {
  2 0 asub 3 1 asub 4 0 asub 5 1 asub
  dup 0 get exch 1 get 7 -1 roll astore } bdef
/compute_transform {
  dmat dtri tri_to_matrix tmat1 invertmatrix 
  smat stri tri_to_matrix tmat2 concatmatrix } bdef
/ds {stri astore pop} bdef
/dt {dtri astore pop} bdef
/db {2 copy /cols xdef /rows xdef mul dup 3 mul string
  currentfile 
  3 index 0 eq {/ASCIIHexDecode filter}
  {/ASCII85Decode filter 3 index 2 eq {/RunLengthDecode filter} if }
  ifelse exch readstring pop
  dup 0 3 index getinterval /rbmap xdef
  dup 2 index dup getinterval /gbmap xdef
  1 index dup 2 mul exch getinterval /bbmap xdef pop pop}bdef
/it {gs np dtri aload pop moveto lineto lineto cp c
  cols rows 8 compute_transform 
  rbmap gbmap bbmap true 3 colorimage gr}bdef
/il {newpath moveto lineto stroke}bdef
currentdict end def
%%EndProlog

%%BeginSetup
MathWorks begin

0 cap

end
%%EndSetup

%%Page: 1 1
%%BeginPageSetup
%%PageBoundingBox:    32   180   546   616
MathWorks begin
bpage
%%EndPageSetup

%%BeginObject: obj1
bplot

/dpi2point 12 def
portraitMode 0216 7344 csm

  174   -48  6173  5231 rc
85 dict begin %Colortable dictionary
/c0 { 0.000000 0.000000 0.000000 sr} bdef
/c1 { 1.000000 1.000000 1.000000 sr} bdef
/c2 { 0.900000 0.000000 0.000000 sr} bdef
/c3 { 0.000000 0.820000 0.000000 sr} bdef
/c4 { 0.000000 0.000000 0.800000 sr} bdef
/c5 { 0.910000 0.820000 0.320000 sr} bdef
/c6 { 1.000000 0.260000 0.820000 sr} bdef
/c7 { 0.000000 0.820000 0.820000 sr} bdef
c0
1 j
1 sg
   0    0 6919 5187 rf
6 w
0 4202 5362 0 0 -4202 899 4616 4 MP
PP
-5362 0 0 4202 5362 0 0 -4202 899 4616 5 MP stroke
4 w
DO
SO
6 w
0 sg
 899  414 mt 6261  414 L
 899 4616 mt 6261 4616 L
6261 4616 mt 6261  414 L
 899 4616 mt  899  414 L
 899 4616 mt 6261 4616 L
 899 4616 mt  899  414 L
1970 4616 mt 1970 4562 L
1970  414 mt 1970  467 L
%%IncludeResource: font Helvetica
/Helvetica /WindowsLatin1Encoding 240 FMSR

1804 4873 mt 
(0.2) s
3043 4616 mt 3043 4562 L
3043  414 mt 3043  467 L
2877 4873 mt 
(0.4) s
4115 4616 mt 4115 4562 L
4115  414 mt 4115  467 L
3949 4873 mt 
(0.6) s
5188 4616 mt 5188 4562 L
5188  414 mt 5188  467 L
5022 4873 mt 
(0.8) s
 899 4196 mt  952 4196 L
6261 4196 mt 6207 4196 L
 531 4285 mt 
(0.1) s
 899 3775 mt  952 3775 L
6261 3775 mt 6207 3775 L
 531 3864 mt 
(0.2) s
 899 3355 mt  952 3355 L
6261 3355 mt 6207 3355 L
 531 3444 mt 
(0.3) s
 899 2935 mt  952 2935 L
6261 2935 mt 6207 2935 L
 531 3024 mt 
(0.4) s
 899 2515 mt  952 2515 L
6261 2515 mt 6207 2515 L
 531 2604 mt 
(0.5) s
 899 2094 mt  952 2094 L
6261 2094 mt 6207 2094 L
 531 2183 mt 
(0.6) s
 899 1674 mt  952 1674 L
6261 1674 mt 6207 1674 L
 531 1763 mt 
(0.7) s
 899 1254 mt  952 1254 L
6261 1254 mt 6207 1254 L
 531 1343 mt 
(0.8) s
 899  834 mt  952  834 L
6261  834 mt 6207  834 L
 531  923 mt 
(0.9) s
 899  414 mt 6261  414 L
 899 4616 mt 6261 4616 L
6261 4616 mt 6261  414 L
 899 4616 mt  899  414 L
gs 899 414 5363 4203 rc
gr

/c8 { 0.000000 0.000000 1.000000 sr} bdef
c8
6109  429 mt 6181  429 L
6145  393 mt 6145  465 L
5455  739 mt 5527  739 L
5491  703 mt 5491  775 L
2453  733 mt 2525  733 L
2489  697 mt 2489  769 L
5828 2347 mt 5900 2347 L
5864 2311 mt 5864 2383 L
6100  482 mt 6172  482 L
6136  446 mt 6136  518 L
4620  491 mt 4692  491 L
4656  455 mt 4656  527 L
5985 4196 mt 6057 4196 L
6021 4160 mt 6021 4232 L
4188 1144 mt 4260 1144 L
4224 1108 mt 4224 1180 L
5967 1143 mt 6039 1143 L
6003 1107 mt 6003 1179 L
5166  441 mt 5238  441 L
5202  405 mt 5202  477 L
5332 1779 mt 5404 1779 L
5368 1743 mt 5368 1815 L
3379 1087 mt 3451 1087 L
3415 1051 mt 3415 1123 L
5945 2545 mt 6017 2545 L
5981 2509 mt 5981 2581 L
5256  491 mt 5328  491 L
5292  455 mt 5292  527 L
5959 3384 mt 6031 3384 L
5995 3348 mt 5995 3420 L
5705 2936 mt 5777 2936 L
5741 2900 mt 5741 2972 L
3082  625 mt 3154  625 L
3118  589 mt 3118  661 L
 893 4613 mt  965 4613 L
 929 4577 mt  929 4649 L
5598 1745 mt 5670 1745 L
5634 1709 mt 5634 1781 L
4649 1570 mt 4721 1570 L
4685 1534 mt 4685 1606 L
5587 1291 mt 5659 1291 L
5623 1255 mt 5623 1327 L
 899 1351 mt  971 1351 L
 935 1315 mt  935 1387 L
6068  785 mt 6140  785 L
6104  749 mt 6104  821 L
5281 2731 mt 5353 2731 L
5317 2695 mt 5317 2767 L
5719 4226 mt 5791 4226 L
5755 4190 mt 5755 4262 L
4903 1410 mt 4975 1410 L
4939 1374 mt 4939 1446 L
4745 1610 mt 4817 1610 L
4781 1574 mt 4781 1646 L
5590 1792 mt 5662 1792 L
5626 1756 mt 5626 1828 L
6045  563 mt 6117  563 L
6081  527 mt 6081  599 L
5561  958 mt 5633  958 L
5597  922 mt 5597  994 L
4269 1892 mt 4341 1892 L
4305 1856 mt 4305 1928 L
5643  803 mt 5715  803 L
5679  767 mt 5679  839 L
4035 1537 mt 4107 1537 L
4071 1501 mt 4071 1573 L
3533 4163 mt 3605 4163 L
3569 4127 mt 3569 4199 L
6088  738 mt 6160  738 L
6124  702 mt 6124  774 L
3537  494 mt 3609  494 L
3573  458 mt 3573  530 L
4533  724 mt 4605  724 L
4569  688 mt 4569  760 L
5926 4556 mt 5998 4556 L
5962 4520 mt 5962 4592 L
6177 1037 mt 6249 1037 L
6213 1001 mt 6213 1073 L
6010  776 mt 6082  776 L
6046  740 mt 6046  812 L
3252 1035 mt 3324 1035 L
3288  999 mt 3288 1071 L
6187  538 mt 6259  538 L
6223  502 mt 6223  574 L
5348 1244 mt 5420 1244 L
5384 1208 mt 5384 1280 L
1398 1453 mt 1470 1453 L
1434 1417 mt 1434 1489 L
2492 4295 mt 2564 4295 L
2528 4259 mt 2528 4331 L
5193 4404 mt 5265 4404 L
5229 4368 mt 5229 4440 L
6042 1618 mt 6114 1618 L
6078 1582 mt 6078 1654 L
4766 1782 mt 4838 1782 L
4802 1746 mt 4802 1818 L
2408 3036 mt 2480 3036 L
2444 3000 mt 2444 3072 L
4377 4489 mt 4449 4489 L
4413 4453 mt 4413 4525 L
5439 2519 mt 5511 2519 L
5475 2483 mt 5475 2555 L
5290  475 mt 5362  475 L
5326  439 mt 5326  511 L
3436 2761 mt 3508 2761 L
3472 2725 mt 3472 2797 L
4328  777 mt 4400  777 L
4364  741 mt 4364  813 L
4309 1672 mt 4381 1672 L
4345 1636 mt 4345 1708 L
2738 1778 mt 2810 1778 L
2774 1742 mt 2774 1814 L
5130 4135 mt 5202 4135 L
5166 4099 mt 5166 4171 L
4137  700 mt 4209  700 L
4173  664 mt 4173  736 L
5966 2195 mt 6038 2195 L
6002 2159 mt 6002 2231 L
5321 1677 mt 5393 1677 L
5357 1641 mt 5357 1713 L
1198 4032 mt 1270 4032 L
1234 3996 mt 1234 4068 L
5629 4348 mt 5701 4348 L
5665 4312 mt 5665 4384 L
1050  722 mt 1122  722 L
1086  686 mt 1086  758 L
6033 1793 mt 6105 1793 L
6069 1757 mt 6069 1829 L
3887  417 mt 3959  417 L
3923  381 mt 3923  453 L
4307 3606 mt 4379 3606 L
4343 3570 mt 4343 3642 L
5491 1864 mt 5563 1864 L
5527 1828 mt 5527 1900 L
5680 3180 mt 5752 3180 L
5716 3144 mt 5716 3216 L
6013  809 mt 6085  809 L
6049  773 mt 6049  845 L
6207  810 mt 6279  810 L
6243  774 mt 6243  846 L
5988  958 mt 6060  958 L
6024  922 mt 6024  994 L
2885  665 mt 2957  665 L
2921  629 mt 2921  701 L
4437 3444 mt 4509 3444 L
4473 3408 mt 4473 3480 L
6186  421 mt 6258  421 L
6222  385 mt 6222  457 L
5292  647 mt 5364  647 L
5328  611 mt 5328  683 L
 868 2699 mt  940 2699 L
 904 2663 mt  904 2735 L
1750 1019 mt 1822 1019 L
1786  983 mt 1786 1055 L
6181 1161 mt 6253 1161 L
6217 1125 mt 6217 1197 L
5843  590 mt 5915  590 L
5879  554 mt 5879  626 L
5864 1639 mt 5936 1639 L
5900 1603 mt 5900 1675 L
6038  451 mt 6110  451 L
6074  415 mt 6074  487 L
1014 1381 mt 1086 1381 L
1050 1345 mt 1050 1417 L
3996 2457 mt 4068 2457 L
4032 2421 mt 4032 2493 L
6211 1091 mt 6283 1091 L
6247 1055 mt 6247 1127 L
5955 3524 mt 6027 3524 L
5991 3488 mt 5991 3560 L
 996 3804 mt 1068 3804 L
1032 3768 mt 1032 3840 L
6159  482 mt 6231  482 L
6195  446 mt 6195  518 L
4241 4563 mt 4313 4563 L
4277 4527 mt 4277 4599 L
1139 1250 mt 1211 1250 L
1175 1214 mt 1175 1286 L
6205  415 mt 6277  415 L
6241  379 mt 6241  451 L
6145 2457 mt 6217 2457 L
6181 2421 mt 6181 2493 L
6022 3466 mt 6094 3466 L
6058 3430 mt 6058 3502 L
5703  657 mt 5775  657 L
5739  621 mt 5739  693 L
4623 2121 mt 4695 2121 L
4659 2085 mt 4659 2157 L
3626 3978 mt 3698 3978 L
3662 3942 mt 3662 4014 L
4503 4109 mt 4575 4109 L
4539 4073 mt 4539 4145 L
4805 2495 mt 4877 2495 L
4841 2459 mt 4841 2531 L
6106  502 mt 6178  502 L
6142  466 mt 6142  538 L
 887 4597 mt  959 4597 L
 923 4561 mt  923 4633 L
6142 2241 mt 6214 2241 L
6178 2205 mt 6178 2277 L
5787  748 mt 5859  748 L
5823  712 mt 5823  784 L
4779 1971 mt 4851 1971 L
4815 1935 mt 4815 2007 L
1189 3957 mt 1261 3957 L
1225 3921 mt 1225 3993 L
 867 3588 mt  939 3588 L
 903 3552 mt  903 3624 L
3520 4044 mt 3592 4044 L
3556 4008 mt 3556 4080 L
6002 1029 mt 6074 1029 L
6038  993 mt 6038 1065 L
6003 3080 mt 6075 3080 L
6039 3044 mt 6039 3116 L
5706 1977 mt 5778 1977 L
5742 1941 mt 5742 2013 L
3858 1572 mt 3930 1572 L
3894 1536 mt 3894 1608 L
4906 1024 mt 4978 1024 L
4942  988 mt 4942 1060 L
1998 1384 mt 2070 1384 L
2034 1348 mt 2034 1420 L
3807 2775 mt 3879 2775 L
3843 2739 mt 3843 2811 L
1281 3076 mt 1353 3076 L
1317 3040 mt 1317 3112 L
5979 4615 mt 6051 4615 L
6015 4579 mt 6015 4651 L
1033 2556 mt 1105 2556 L
1069 2520 mt 1069 2592 L
2399 2035 mt 2471 2035 L
2435 1999 mt 2435 2071 L
6127  555 mt 6199  555 L
6163  519 mt 6163  591 L
5382 4517 mt 5454 4517 L
5418 4481 mt 5418 4553 L
3345 4059 mt 3417 4059 L
3381 4023 mt 3381 4095 L
5230 4609 mt 5302 4609 L
5266 4573 mt 5266 4645 L
5484 1439 mt 5556 1439 L
5520 1403 mt 5520 1475 L
5416  588 mt 5488  588 L
5452  552 mt 5452  624 L
5740 1424 mt 5812 1424 L
5776 1388 mt 5776 1460 L
5855 3935 mt 5927 3935 L
5891 3899 mt 5891 3971 L
1171  618 mt 1243  618 L
1207  582 mt 1207  654 L
4972  514 mt 5044  514 L
5008  478 mt 5008  550 L
5040 4582 mt 5112 4582 L
5076 4546 mt 5076 4618 L
3917 2482 mt 3989 2482 L
3953 2446 mt 3953 2518 L
5706  590 mt 5778  590 L
5742  554 mt 5742  626 L
 952 3790 mt 1024 3790 L
 988 3754 mt  988 3826 L
5665 3690 mt 5737 3690 L
5701 3654 mt 5701 3726 L
1965 2795 mt 2037 2795 L
2001 2759 mt 2001 2831 L
4279 1933 mt 4351 1933 L
4315 1897 mt 4315 1969 L
2238 1804 mt 2310 1804 L
2274 1768 mt 2274 1840 L
4824 2363 mt 4896 2363 L
4860 2327 mt 4860 2399 L
 948 3405 mt 1020 3405 L
 984 3369 mt  984 3441 L
1004 2161 mt 1076 2161 L
1040 2125 mt 1040 2197 L
5426  651 mt 5498  651 L
5462  615 mt 5462  687 L
3537 3036 mt 3609 3036 L
3573 3000 mt 3573 3072 L
5833 3955 mt 5905 3955 L
5869 3919 mt 5869 3991 L
5350 3581 mt 5422 3581 L
5386 3545 mt 5386 3617 L
6116 1273 mt 6188 1273 L
6152 1237 mt 6152 1309 L
5071 3824 mt 5143 3824 L
5107 3788 mt 5107 3860 L
5561 2548 mt 5633 2548 L
5597 2512 mt 5597 2584 L
6082  535 mt 6154  535 L
6118  499 mt 6118  571 L
4575 1576 mt 4647 1576 L
4611 1540 mt 4611 1612 L
3783 1395 mt 3855 1395 L
3819 1359 mt 3819 1431 L
6158  445 mt 6230  445 L
6194  409 mt 6194  481 L
6022 4579 mt 6094 4579 L
6058 4543 mt 6058 4615 L
6136  659 mt 6208  659 L
6172  623 mt 6172  695 L
5665 1692 mt 5737 1692 L
5701 1656 mt 5701 1728 L
1129 4390 mt 1201 4390 L
1165 4354 mt 1165 4426 L
5883 2609 mt 5955 2609 L
5919 2573 mt 5919 2645 L
4577 1232 mt 4649 1232 L
4613 1196 mt 4613 1268 L
5879 2577 mt 5951 2577 L
5915 2541 mt 5915 2613 L
6058 4312 mt 6130 4312 L
6094 4276 mt 6094 4348 L
1048  524 mt 1120  524 L
1084  488 mt 1084  560 L
2417 3403 mt 2489 3403 L
2453 3367 mt 2453 3439 L
4033  617 mt 4105  617 L
4069  581 mt 4069  653 L
3925 4224 mt 3997 4224 L
3961 4188 mt 3961 4260 L
2617 3100 mt 2689 3100 L
2653 3064 mt 2653 3136 L
 915 4568 mt  987 4568 L
 951 4532 mt  951 4604 L
5288 1746 mt 5360 1746 L
5324 1710 mt 5324 1782 L
3933 1345 mt 4005 1345 L
3969 1309 mt 3969 1381 L
6078 2691 mt 6150 2691 L
6114 2655 mt 6114 2727 L
5690 3474 mt 5762 3474 L
5726 3438 mt 5726 3510 L
1863 2315 mt 1935 2315 L
1899 2279 mt 1899 2351 L
4739 4616 mt 4811 4616 L
4775 4580 mt 4775 4652 L
6221 2454 mt 6293 2454 L
6257 2418 mt 6257 2490 L
5996 1314 mt 6068 1314 L
6032 1278 mt 6032 1350 L
6006 1048 mt 6078 1048 L
6042 1012 mt 6042 1084 L
6092  674 mt 6164  674 L
6128  638 mt 6128  710 L
5639 4069 mt 5711 4069 L
5675 4033 mt 5675 4105 L
5604 1348 mt 5676 1348 L
5640 1312 mt 5640 1384 L
3448 4091 mt 3520 4091 L
3484 4055 mt 3484 4127 L
5214  865 mt 5286  865 L
5250  829 mt 5250  901 L
5653 1603 mt 5725 1603 L
5689 1567 mt 5689 1639 L
3690 3254 mt 3762 3254 L
3726 3218 mt 3726 3290 L
5499  924 mt 5571  924 L
5535  888 mt 5535  960 L
6113  645 mt 6185  645 L
6149  609 mt 6149  681 L
3929 3490 mt 4001 3490 L
3965 3454 mt 3965 3526 L
1818 3663 mt 1890 3663 L
1854 3627 mt 1854 3699 L
5795  509 mt 5867  509 L
5831  473 mt 5831  545 L
2324  843 mt 2396  843 L
2360  807 mt 2360  879 L
5810 4322 mt 5882 4322 L
5846 4286 mt 5846 4358 L
2755  616 mt 2827  616 L
2791  580 mt 2791  652 L
4997 1435 mt 5069 1435 L
5033 1399 mt 5033 1471 L
3674  551 mt 3746  551 L
3710  515 mt 3710  587 L
6084 4579 mt 6156 4579 L
6120 4543 mt 6120 4615 L
2275  451 mt 2347  451 L
2311  415 mt 2311  487 L
1015  473 mt 1087  473 L
1051  437 mt 1051  509 L
2084 2685 mt 2156 2685 L
2120 2649 mt 2120 2721 L
6085 1253 mt 6157 1253 L
6121 1217 mt 6121 1289 L
5760  724 mt 5832  724 L
5796  688 mt 5796  760 L
6133  486 mt 6205  486 L
6169  450 mt 6169  522 L
6120  668 mt 6192  668 L
6156  632 mt 6156  704 L
4358 3777 mt 4430 3777 L
4394 3741 mt 4394 3813 L
6125 1613 mt 6197 1613 L
6161 1577 mt 6161 1649 L
4843 4329 mt 4915 4329 L
4879 4293 mt 4879 4365 L
3820  949 mt 3892  949 L
3856  913 mt 3856  985 L
6048  418 mt 6120  418 L
6084  382 mt 6084  454 L
6128  543 mt 6200  543 L
6164  507 mt 6164  579 L
5695  879 mt 5767  879 L
5731  843 mt 5731  915 L
3465 4024 mt 3537 4024 L
3501 3988 mt 3501 4060 L
6027  743 mt 6099  743 L
6063  707 mt 6063  779 L
4089 1755 mt 4161 1755 L
4125 1719 mt 4125 1791 L
3729 3760 mt 3801 3760 L
3765 3724 mt 3765 3796 L
1437  741 mt 1509  741 L
1473  705 mt 1473  777 L
6225  671 mt 6297  671 L
6261  635 mt 6261  707 L
1105 4252 mt 1177 4252 L
1141 4216 mt 1141 4288 L
6167  422 mt 6239  422 L
6203  386 mt 6203  458 L
4237 1176 mt 4309 1176 L
4273 1140 mt 4273 1212 L
6086  661 mt 6158  661 L
6122  625 mt 6122  697 L
4684 3652 mt 4756 3652 L
4720 3616 mt 4720 3688 L
6129 1468 mt 6201 1468 L
6165 1432 mt 6165 1504 L
1630  649 mt 1702  649 L
1666  613 mt 1666  685 L
6218  600 mt 6290  600 L
6254  564 mt 6254  636 L
2128 1201 mt 2200 1201 L
2164 1165 mt 2164 1237 L
 869 1668 mt  941 1668 L
 905 1632 mt  905 1704 L
3919 2096 mt 3991 2096 L
3955 2060 mt 3955 2132 L
3417 3229 mt 3489 3229 L
3453 3193 mt 3453 3265 L
5957 3622 mt 6029 3622 L
5993 3586 mt 5993 3658 L
4863 2713 mt 4935 2713 L
4899 2677 mt 4899 2749 L
 905 4549 mt  977 4549 L
 941 4513 mt  941 4585 L
2974 2132 mt 3046 2132 L
3010 2096 mt 3010 2168 L
5405 1453 mt 5477 1453 L
5441 1417 mt 5441 1489 L
5723 4004 mt 5795 4004 L
5759 3968 mt 5759 4040 L
5803 2252 mt 5875 2252 L
5839 2216 mt 5839 2288 L
5534  423 mt 5606  423 L
5570  387 mt 5570  459 L
4234  436 mt 4306  436 L
4270  400 mt 4270  472 L
 873 4615 mt  945 4615 L
 909 4579 mt  909 4651 L
3303 4459 mt 3375 4459 L
3339 4423 mt 3339 4495 L
3064 4610 mt 3136 4610 L
3100 4574 mt 3100 4646 L
5191  914 mt 5263  914 L
5227  878 mt 5227  950 L
6222  445 mt 6294  445 L
6258  409 mt 6258  481 L
4982 4612 mt 5054 4612 L
5018 4576 mt 5018 4648 L
1898 3887 mt 1970 3887 L
1934 3851 mt 1934 3923 L
3034  905 mt 3106  905 L
3070  869 mt 3070  941 L
5972 2060 mt 6044 2060 L
6008 2024 mt 6008 2096 L
5825 1135 mt 5897 1135 L
5861 1099 mt 5861 1171 L
2207 2873 mt 2279 2873 L
2243 2837 mt 2243 2909 L
3908 2491 mt 3980 2491 L
3944 2455 mt 3944 2527 L
5538  748 mt 5610  748 L
5574  712 mt 5574  784 L
6209 2120 mt 6281 2120 L
6245 2084 mt 6245 2156 L
 865  946 mt  937  946 L
 901  910 mt  901  982 L
5667 2838 mt 5739 2838 L
5703 2802 mt 5703 2874 L
4435 1000 mt 4507 1000 L
4471  964 mt 4471 1036 L
5969  653 mt 6041  653 L
6005  617 mt 6005  689 L
6223 1187 mt 6295 1187 L
6259 1151 mt 6259 1223 L
1471 2688 mt 1543 2688 L
1507 2652 mt 1507 2724 L
 913 3493 mt  985 3493 L
 949 3457 mt  949 3529 L
5637  522 mt 5709  522 L
5673  486 mt 5673  558 L
5276  418 mt 5348  418 L
5312  382 mt 5312  454 L
3404 4613 mt 3476 4613 L
3440 4577 mt 3440 4649 L
4320 2156 mt 4392 2156 L
4356 2120 mt 4356 2192 L
 919 4434 mt  991 4434 L
 955 4398 mt  955 4470 L
6024  955 mt 6096  955 L
6060  919 mt 6060  991 L
2635 1950 mt 2707 1950 L
2671 1914 mt 2671 1986 L
5817  442 mt 5889  442 L
5853  406 mt 5853  478 L
5130  751 mt 5202  751 L
5166  715 mt 5166  787 L
1660 4074 mt 1732 4074 L
1696 4038 mt 1696 4110 L
5887 4107 mt 5959 4107 L
5923 4071 mt 5923 4143 L
5135 4587 mt 5207 4587 L
5171 4551 mt 5171 4623 L
1455 4537 mt 1527 4537 L
1491 4501 mt 1491 4573 L
6128  608 mt 6200  608 L
6164  572 mt 6164  644 L
1585 1623 mt 1657 1623 L
1621 1587 mt 1621 1659 L
1595 3882 mt 1667 3882 L
1631 3846 mt 1631 3918 L
5972  416 mt 6044  416 L
6008  380 mt 6008  452 L
6180 1129 mt 6252 1129 L
6216 1093 mt 6216 1165 L
4268 1336 mt 4340 1336 L
4304 1300 mt 4304 1372 L
6084 2299 mt 6156 2299 L
6120 2263 mt 6120 2335 L
1136  464 mt 1208  464 L
1172  428 mt 1172  500 L
1363 3707 mt 1435 3707 L
1399 3671 mt 1399 3743 L
6146 3507 mt 6218 3507 L
6182 3471 mt 6182 3543 L
4742  496 mt 4814  496 L
4778  460 mt 4778  532 L
 863  455 mt  935  455 L
 899  419 mt  899  491 L
3932  548 mt 4004  548 L
3968  512 mt 3968  584 L
5899 3035 mt 5971 3035 L
5935 2999 mt 5935 3071 L
4889 1372 mt 4961 1372 L
4925 1336 mt 4925 1408 L
6208  678 mt 6280  678 L
6244  642 mt 6244  714 L
3769 2199 mt 3841 2199 L
3805 2163 mt 3805 2235 L
4093  451 mt 4165  451 L
4129  415 mt 4129  487 L
2189 3892 mt 2261 3892 L
2225 3856 mt 2225 3928 L
5361 2268 mt 5433 2268 L
5397 2232 mt 5397 2304 L
4653 4358 mt 4725 4358 L
4689 4322 mt 4689 4394 L
6140  418 mt 6212  418 L
6176  382 mt 6176  454 L
6169 1875 mt 6241 1875 L
6205 1839 mt 6205 1911 L
4182 4604 mt 4254 4604 L
4218 4568 mt 4218 4640 L
1401 2168 mt 1473 2168 L
1437 2132 mt 1437 2204 L
4458  414 mt 4530  414 L
4494  378 mt 4494  450 L
4991 4542 mt 5063 4542 L
5027 4506 mt 5027 4578 L
5982 3933 mt 6054 3933 L
6018 3897 mt 6018 3969 L
5331  937 mt 5403  937 L
5367  901 mt 5367  973 L
1508 4300 mt 1580 4300 L
1544 4264 mt 1544 4336 L
5552 4226 mt 5624 4226 L
5588 4190 mt 5588 4262 L
1683 3662 mt 1755 3662 L
1719 3626 mt 1719 3698 L
1048 2922 mt 1120 2922 L
1084 2886 mt 1084 2958 L
6224  859 mt 6296  859 L
6260  823 mt 6260  895 L
 939  563 mt 1011  563 L
 975  527 mt  975  599 L
5794 2981 mt 5866 2981 L
5830 2945 mt 5830 3017 L
5570 1377 mt 5642 1377 L
5606 1341 mt 5606 1413 L
1641  459 mt 1713  459 L
1677  423 mt 1677  495 L
3632 2027 mt 3704 2027 L
3668 1991 mt 3668 2063 L
1266 3953 mt 1338 3953 L
1302 3917 mt 1302 3989 L
4509 1628 mt 4581 1628 L
4545 1592 mt 4545 1664 L
2879 3470 mt 2951 3470 L
2915 3434 mt 2915 3506 L
5836 4099 mt 5908 4099 L
5872 4063 mt 5872 4135 L
4961 3894 mt 5033 3894 L
4997 3858 mt 4997 3930 L
1631 3292 mt 1703 3292 L
1667 3256 mt 1667 3328 L
2700 4551 mt 2772 4551 L
2736 4515 mt 2736 4587 L
5901 1143 mt 5973 1143 L
5937 1107 mt 5937 1179 L
 924 3965 mt  996 3965 L
 960 3929 mt  960 4001 L
1531 3588 mt 1603 3588 L
1567 3552 mt 1567 3624 L
3992  953 mt 4064  953 L
4028  917 mt 4028  989 L
2430 1138 mt 2502 1138 L
2466 1102 mt 2466 1174 L
3176 4608 mt 3248 4608 L
3212 4572 mt 3212 4644 L
5035  899 mt 5107  899 L
5071  863 mt 5071  935 L
4271 3405 mt 4343 3405 L
4307 3369 mt 4307 3441 L
4561 4558 mt 4633 4558 L
4597 4522 mt 4597 4594 L
6224  900 mt 6296  900 L
6260  864 mt 6260  936 L
5189  850 mt 5261  850 L
5225  814 mt 5225  886 L
3413 4612 mt 3485 4612 L
3449 4576 mt 3449 4648 L
5095 4234 mt 5167 4234 L
5131 4198 mt 5131 4270 L
5119  456 mt 5191  456 L
5155  420 mt 5155  492 L
6107 2280 mt 6179 2280 L
6143 2244 mt 6143 2316 L
4764  629 mt 4836  629 L
4800  593 mt 4800  665 L
 863 2725 mt  935 2725 L
 899 2689 mt  899 2761 L
2071 4584 mt 2143 4584 L
2107 4548 mt 2107 4620 L
1022 4591 mt 1094 4591 L
1058 4555 mt 1058 4627 L
5319 3495 mt 5391 3495 L
5355 3459 mt 5355 3531 L
5984  791 mt 6056  791 L
6020  755 mt 6020  827 L
1482 2942 mt 1554 2942 L
1518 2906 mt 1518 2978 L
4766  471 mt 4838  471 L
4802  435 mt 4802  507 L
2672 2642 mt 2744 2642 L
2708 2606 mt 2708 2678 L
4771 4512 mt 4843 4512 L
4807 4476 mt 4807 4548 L
2106 4591 mt 2178 4591 L
2142 4555 mt 2142 4627 L
4602 4382 mt 4674 4382 L
4638 4346 mt 4638 4418 L
6165  674 mt 6237  674 L
6201  638 mt 6201  710 L
2384 3321 mt 2456 3321 L
2420 3285 mt 2420 3357 L
5188  821 mt 5260  821 L
5224  785 mt 5224  857 L
6191 3097 mt 6263 3097 L
6227 3061 mt 6227 3133 L
5890 2094 mt 5962 2094 L
5926 2058 mt 5926 2130 L
1595  432 mt 1667  432 L
1631  396 mt 1631  468 L
5772 4435 mt 5844 4435 L
5808 4399 mt 5808 4471 L
6105 1670 mt 6177 1670 L
6141 1634 mt 6141 1706 L
3286 2851 mt 3358 2851 L
3322 2815 mt 3322 2887 L
 950  615 mt 1022  615 L
 986  579 mt  986  651 L
2652  433 mt 2724  433 L
2688  397 mt 2688  469 L
5778 4525 mt 5850 4525 L
5814 4489 mt 5814 4561 L
 880 3832 mt  952 3832 L
 916 3796 mt  916 3868 L
5535  958 mt 5607  958 L
5571  922 mt 5571  994 L
1445 3877 mt 1517 3877 L
1481 3841 mt 1481 3913 L
2435 1496 mt 2507 1496 L
2471 1460 mt 2471 1532 L
4120  685 mt 4192  685 L
4156  649 mt 4156  721 L
6116  414 mt 6188  414 L
6152  378 mt 6152  450 L
6202 3590 mt 6274 3590 L
6238 3554 mt 6238 3626 L
1683 4479 mt 1755 4479 L
1719 4443 mt 1719 4515 L
1413 3094 mt 1485 3094 L
1449 3058 mt 1449 3130 L
3422 4226 mt 3494 4226 L
3458 4190 mt 3458 4262 L
3799 4529 mt 3871 4529 L
3835 4493 mt 3835 4565 L
 869  614 mt  941  614 L
 905  578 mt  905  650 L
5355 2091 mt 5427 2091 L
5391 2055 mt 5391 2127 L
6224 1313 mt 6296 1313 L
6260 1277 mt 6260 1349 L
3642  511 mt 3714  511 L
3678  475 mt 3678  547 L
3022 4215 mt 3094 4215 L
3058 4179 mt 3058 4251 L
2550 4431 mt 2622 4431 L
2586 4395 mt 2586 4467 L
1793 2165 mt 1865 2165 L
1829 2129 mt 1829 2201 L
 928 3346 mt 1000 3346 L
 964 3310 mt  964 3382 L
 896  425 mt  968  425 L
 932  389 mt  932  461 L
5689  674 mt 5761  674 L
5725  638 mt 5725  710 L
1295 4108 mt 1367 4108 L
1331 4072 mt 1331 4144 L
3682 1769 mt 3754 1769 L
3718 1733 mt 3718 1805 L
4467 2951 mt 4539 2951 L
4503 2915 mt 4503 2987 L
2871  469 mt 2943  469 L
2907  433 mt 2907  505 L
1489 1547 mt 1561 1547 L
1525 1511 mt 1525 1583 L
5681  469 mt 5753  469 L
5717  433 mt 5717  505 L
3666 3559 mt 3738 3559 L
3702 3523 mt 3702 3595 L
2501 2352 mt 2573 2352 L
2537 2316 mt 2537 2388 L
3994 2846 mt 4066 2846 L
4030 2810 mt 4030 2882 L
1725 2393 mt 1797 2393 L
1761 2357 mt 1761 2429 L
 946 2522 mt 1018 2522 L
 982 2486 mt  982 2558 L
5738 1810 mt 5810 1810 L
5774 1774 mt 5774 1846 L
5758 1641 mt 5830 1641 L
5794 1605 mt 5794 1677 L
5813 2194 mt 5885 2194 L
5849 2158 mt 5849 2230 L
5212 2220 mt 5284 2220 L
5248 2184 mt 5248 2256 L
1936 3999 mt 2008 3999 L
1972 3963 mt 1972 4035 L
 964 3925 mt 1036 3925 L
1000 3889 mt 1000 3961 L
3620 4394 mt 3692 4394 L
3656 4358 mt 3656 4430 L
2325 3142 mt 2397 3142 L
2361 3106 mt 2361 3178 L
6186  544 mt 6258  544 L
6222  508 mt 6222  580 L
1562 1710 mt 1634 1710 L
1598 1674 mt 1598 1746 L
3501 4606 mt 3573 4606 L
3537 4570 mt 3537 4642 L
4261 2675 mt 4333 2675 L
4297 2639 mt 4297 2711 L
5905  416 mt 5977  416 L
5941  380 mt 5941  452 L
5976 3628 mt 6048 3628 L
6012 3592 mt 6012 3664 L
6188  415 mt 6260  415 L
6224  379 mt 6224  451 L
2010 2362 mt 2082 2362 L
2046 2326 mt 2046 2398 L
6146  510 mt 6218  510 L
6182  474 mt 6182  546 L
3074 3085 mt 3146 3085 L
3110 3049 mt 3110 3121 L
6066  546 mt 6138  546 L
6102  510 mt 6102  582 L
gs 899 414 5363 4203 rc
gr

0 sg
2752 5104 mt 
(\(S,LFCC,GMM\)) s
 422 3259 mt  -90 rotate
(\(S,PAC,GMM\)) s
90 rotate
2975  223 mt 
(Corr = 0.29) s

end %%Color Dict

eplot
%%EndObject

epage
end

showpage

%%Trailer
%%EOF
