%!PS-Adobe-3.0 EPSF-3.0
%%Creator: MATLAB, The Mathworks, Inc.
%%Title: Pictures\main_fusion_us_logreg_face_det.eps
%%CreationDate: 02/14/2009  02:10:27
%%DocumentNeededFonts: Helvetica
%%DocumentProcessColors: Cyan Magenta Yellow Black
%%LanguageLevel: 2
%%Pages: 1
%%BoundingBox:    87   191   501   609
%%EndComments

%%BeginProlog
% MathWorks dictionary
/MathWorks 160 dict begin
% definition operators
/bdef {bind def} bind def
/ldef {load def} bind def
/xdef {exch def} bdef
/xstore {exch store} bdef
% operator abbreviations
/c  /clip ldef
/cc /concat ldef
/cp /closepath ldef
/gr /grestore ldef
/gs /gsave ldef
/mt /moveto ldef
/np /newpath ldef
/cm /currentmatrix ldef
/sm /setmatrix ldef
/rm /rmoveto ldef
/rl /rlineto ldef
/s {show newpath} bdef
/sc {setcmykcolor} bdef
/sr /setrgbcolor ldef
/sg /setgray ldef
/w /setlinewidth ldef
/j /setlinejoin ldef
/cap /setlinecap ldef
/rc {rectclip} bdef
/rf {rectfill} bdef
% page state control
/pgsv () def
/bpage {/pgsv save def} bdef
/epage {pgsv restore} bdef
/bplot /gsave ldef
/eplot {stroke grestore} bdef
% orientation switch
/portraitMode 0 def /landscapeMode 1 def /rotateMode 2 def
% coordinate system mappings
/dpi2point 0 def
% font control
/FontSize 0 def
/FMS {/FontSize xstore findfont [FontSize 0 0 FontSize neg 0 0]
  makefont setfont} bdef
/ISOLatin1Encoding where {pop /WindowsLatin1Encoding 256 array bdef
ISOLatin1Encoding WindowsLatin1Encoding copy pop
/.notdef/.notdef/quotesinglbase/florin/quotedblbase/ellipsis/dagger
/daggerdbl/circumflex/perthousand/Scaron/guilsinglleft/OE/.notdef/.notdef
/.notdef/.notdef/quoteleft/quoteright/quotedblleft/quotedblright/bullet
/endash/emdash/tilde/trademark/scaron/guilsinglright/oe/.notdef/.notdef
/Ydieresis WindowsLatin1Encoding 128 32 getinterval astore pop}
{/WindowsLatin1Encoding StandardEncoding bdef} ifelse
/reencode {exch dup where {pop load} {pop StandardEncoding} ifelse
  exch dup 3 1 roll findfont dup length dict begin
  { 1 index /FID ne {def}{pop pop} ifelse } forall
  /Encoding exch def currentdict end definefont pop} bdef
/isroman {findfont /CharStrings get /Agrave known} bdef
/FMSR {3 1 roll 1 index dup isroman {reencode} {pop pop} ifelse
  exch FMS} bdef
/csm {1 dpi2point div -1 dpi2point div scale neg translate
 dup landscapeMode eq {pop -90 rotate}
  {rotateMode eq {90 rotate} if} ifelse} bdef
% line types: solid, dotted, dashed, dotdash
/SO { [] 0 setdash } bdef
/DO { [.5 dpi2point mul 4 dpi2point mul] 0 setdash } bdef
/DA { [6 dpi2point mul] 0 setdash } bdef
/DD { [.5 dpi2point mul 4 dpi2point mul 6 dpi2point mul 4
  dpi2point mul] 0 setdash } bdef
% macros for lines and objects
/L {lineto stroke} bdef
/MP {3 1 roll moveto 1 sub {rlineto} repeat} bdef
/AP {{rlineto} repeat} bdef
/PDlw -1 def
/W {/PDlw currentlinewidth def setlinewidth} def
/PP {closepath eofill} bdef
/DP {closepath stroke} bdef
/MR {4 -2 roll moveto dup  0 exch rlineto exch 0 rlineto
  neg 0 exch rlineto closepath} bdef
/FR {MR stroke} bdef
/PR {MR fill} bdef
/L1i {{currentfile picstr readhexstring pop} image} bdef
/tMatrix matrix def
/MakeOval {newpath tMatrix currentmatrix pop translate scale
0 0 1 0 360 arc tMatrix setmatrix} bdef
/FO {MakeOval stroke} bdef
/PO {MakeOval fill} bdef
/PD {currentlinewidth 2 div 0 360 arc fill
   PDlw -1 eq not {PDlw w /PDlw -1 def} if} def
/FA {newpath tMatrix currentmatrix pop translate scale
  0 0 1 5 -2 roll arc tMatrix setmatrix stroke} bdef
/PA {newpath tMatrix currentmatrix pop	translate 0 0 moveto scale
  0 0 1 5 -2 roll arc closepath tMatrix setmatrix fill} bdef
/FAn {newpath tMatrix currentmatrix pop translate scale
  0 0 1 5 -2 roll arcn tMatrix setmatrix stroke} bdef
/PAn {newpath tMatrix currentmatrix pop translate 0 0 moveto scale
  0 0 1 5 -2 roll arcn closepath tMatrix setmatrix fill} bdef
/vradius 0 def /hradius 0 def /lry 0 def
/lrx 0 def /uly 0 def /ulx 0 def /rad 0 def
/MRR {/vradius xdef /hradius xdef /lry xdef /lrx xdef /uly xdef
  /ulx xdef newpath tMatrix currentmatrix pop ulx hradius add uly
  vradius add translate hradius vradius scale 0 0 1 180 270 arc 
  tMatrix setmatrix lrx hradius sub uly vradius add translate
  hradius vradius scale 0 0 1 270 360 arc tMatrix setmatrix
  lrx hradius sub lry vradius sub translate hradius vradius scale
  0 0 1 0 90 arc tMatrix setmatrix ulx hradius add lry vradius sub
  translate hradius vradius scale 0 0 1 90 180 arc tMatrix setmatrix
  closepath} bdef
/FRR {MRR stroke } bdef
/PRR {MRR fill } bdef
/MlrRR {/lry xdef /lrx xdef /uly xdef /ulx xdef /rad lry uly sub 2 div def
  newpath tMatrix currentmatrix pop ulx rad add uly rad add translate
  rad rad scale 0 0 1 90 270 arc tMatrix setmatrix lrx rad sub lry rad
  sub translate rad rad scale 0 0 1 270 90 arc tMatrix setmatrix
  closepath} bdef
/FlrRR {MlrRR stroke } bdef
/PlrRR {MlrRR fill } bdef
/MtbRR {/lry xdef /lrx xdef /uly xdef /ulx xdef /rad lrx ulx sub 2 div def
  newpath tMatrix currentmatrix pop ulx rad add uly rad add translate
  rad rad scale 0 0 1 180 360 arc tMatrix setmatrix lrx rad sub lry rad
  sub translate rad rad scale 0 0 1 0 180 arc tMatrix setmatrix
  closepath} bdef
/FtbRR {MtbRR stroke } bdef
/PtbRR {MtbRR fill } bdef
/stri 6 array def /dtri 6 array def
/smat 6 array def /dmat 6 array def
/tmat1 6 array def /tmat2 6 array def /dif 3 array def
/asub {/ind2 exch def /ind1 exch def dup dup
  ind1 get exch ind2 get sub exch } bdef
/tri_to_matrix {
  2 0 asub 3 1 asub 4 0 asub 5 1 asub
  dup 0 get exch 1 get 7 -1 roll astore } bdef
/compute_transform {
  dmat dtri tri_to_matrix tmat1 invertmatrix 
  smat stri tri_to_matrix tmat2 concatmatrix } bdef
/ds {stri astore pop} bdef
/dt {dtri astore pop} bdef
/db {2 copy /cols xdef /rows xdef mul dup 3 mul string
  currentfile 
  3 index 0 eq {/ASCIIHexDecode filter}
  {/ASCII85Decode filter 3 index 2 eq {/RunLengthDecode filter} if }
  ifelse exch readstring pop
  dup 0 3 index getinterval /rbmap xdef
  dup 2 index dup getinterval /gbmap xdef
  1 index dup 2 mul exch getinterval /bbmap xdef pop pop}bdef
/it {gs np dtri aload pop moveto lineto lineto cp c
  cols rows 8 compute_transform 
  rbmap gbmap bbmap true 3 colorimage gr}bdef
/il {newpath moveto lineto stroke}bdef
currentdict end def
%%EndProlog

%%BeginSetup
MathWorks begin

0 cap

end
%%EndSetup

%%Page: 1 1
%%BeginPageSetup
%%PageBoundingBox:    87   191   501   609
MathWorks begin
bpage
%%EndPageSetup

%%BeginObject: obj1
bplot

/dpi2point 12 def
portraitMode 0216 7344 csm

  832    27  4971  5019 rc
86 dict begin %Colortable dictionary
/c0 { 0.000000 0.000000 0.000000 sr} bdef
/c1 { 1.000000 1.000000 1.000000 sr} bdef
/c2 { 0.900000 0.000000 0.000000 sr} bdef
/c3 { 0.000000 0.820000 0.000000 sr} bdef
/c4 { 0.000000 0.000000 0.800000 sr} bdef
/c5 { 0.910000 0.820000 0.320000 sr} bdef
/c6 { 1.000000 0.260000 0.820000 sr} bdef
/c7 { 0.000000 0.820000 0.820000 sr} bdef
c0
1 j
1 sg
   0    0 6919 5187 rf
6 w
0 4228 4227 0 0 -4228 1466 4616 4 MP
PP
-4227 0 0 4228 4227 0 0 -4228 1466 4616 5 MP stroke
4 w
DO
0 sg
1905 4616 mt 1905  388 L
1905  388 mt 1905  388 L
2806 4616 mt 2806  388 L
2806  388 mt 2806  388 L
4157 4616 mt 4157  388 L
4157  388 mt 4157  388 L
5357 4616 mt 5357  388 L
5357  388 mt 5357  388 L
1466 4096 mt 5693 4096 L
5693 4096 mt 5693 4096 L
1466 2112 mt 5693 2112 L
5693 2112 mt 5693 2112 L
SO
6 w
1466 4616 mt 5693 4616 L
1466 4616 mt 1466  388 L
1905 4616 mt 1905 4573 L
%%IncludeResource: font Helvetica
/Helvetica /WindowsLatin1Encoding 168 FMSR

1742 4806 mt 
(   1  ) s
2806 4616 mt 2806 4573 L
2643 4806 mt 
(   2  ) s
4157 4616 mt 4157 4573 L
3994 4806 mt 
(   5  ) s
5357 4616 mt 5357 4573 L
5171 4806 mt 
(  10  ) s
1466 4096 mt 1508 4096 L
1105 4158 mt 
(     2) s
1466 2112 mt 1508 2112 L
1105 2174 mt 
(     5) s
gs 1466 388 4228 4229 rc
-557 -444 -410 -483 -309 -428 -277 -461 -275 -281 -297 -268 -312 -553 -354 -225 
-387 -312 -713 -647 5570 4571 11 MP stroke
gr

0 j
69 119 -138 0 69 -119 5570 4650 4 MP
DP
69 119 -138 0 69 -119 4857 4003 4 MP
DP
69 119 -138 0 69 -119 4470 3691 4 MP
DP
69 119 -138 0 69 -119 4116 3466 4 MP
DP
69 119 -138 0 69 -119 3804 2913 4 MP
DP
69 119 -138 0 69 -119 3507 2645 4 MP
DP
69 119 -138 0 69 -119 3232 2364 4 MP
DP
69 119 -138 0 69 -119 2955 1903 4 MP
DP
69 119 -138 0 69 -119 2646 1475 4 MP
DP
69 119 -138 0 69 -119 2236 992 4 MP
DP
69 119 -138 0 69 -119 1679 548 4 MP
DP
gs 1466 388 4228 4229 rc
/c8 { 0.000000 0.000000 1.000000 sr} bdef
c8
-486 -691 -351 -422 -282 -258 -286 -461 -297 -292 -287 -259 -323 -389 -336 -191 
-440 -366 -680 -353 5644 4244 11 MP stroke
gr

c8
5602 4202 mt 5686 4286 L
5686 4202 mt 5602 4286 L
4922 3849 mt 5006 3933 L
5006 3849 mt 4922 3933 L
4482 3483 mt 4566 3567 L
4566 3483 mt 4482 3567 L
4146 3292 mt 4230 3376 L
4230 3292 mt 4146 3376 L
3823 2903 mt 3907 2987 L
3907 2903 mt 3823 2987 L
3536 2644 mt 3620 2728 L
3620 2644 mt 3536 2728 L
3239 2352 mt 3323 2436 L
3323 2352 mt 3239 2436 L
2953 1891 mt 3037 1975 L
3037 1891 mt 2953 1975 L
2671 1633 mt 2755 1717 L
2755 1633 mt 2671 1717 L
2320 1211 mt 2404 1295 L
2404 1211 mt 2320 1295 L
1834  520 mt 1918  604 L
1918  520 mt 1834  604 L
gs 1466 388 4228 4229 rc
/c9 { 1.000000 0.000000 0.000000 sr} bdef
c9
-455 -619 -364 -497 -287 -434 -242 -310 -275 -393 -281 -332 -264 -237 -327 -357 
-381 -165 -670 -625 5670 4616 11 MP stroke
gr

c9
  60   60 5670 4616 FO
  60   60 5000 3991 FO
  60   60 4619 3826 FO
  60   60 4292 3469 FO
  60   60 4028 3232 FO
  60   60 3747 2900 FO
  60   60 3472 2507 FO
  60   60 3230 2197 FO
  60   60 2943 1763 FO
  60   60 2579 1266 FO
  60   60 2124  647 FO
gs 1466 388 4228 4229 rc
/c10 { 0.000000 1.000000 0.000000 sr} bdef
c10
-376 -430 -355 -349 -272 -361 -249 -204 -237 -187 -243 -359 -254 -307 -261 -145 
-336 -441 -488 -322 4677 3554 11 MP stroke
gr

c10
4635 3512 mt 4719 3596 L
4719 3512 mt 4635 3596 L
4147 3190 mt 4231 3274 L
4231 3190 mt 4147 3274 L
3811 2749 mt 3895 2833 L
3895 2749 mt 3811 2833 L
3550 2604 mt 3634 2688 L
3634 2604 mt 3550 2688 L
3296 2297 mt 3380 2381 L
3380 2297 mt 3296 2381 L
3053 1938 mt 3137 2022 L
3137 1938 mt 3053 2022 L
2816 1751 mt 2900 1835 L
2900 1751 mt 2816 1835 L
2567 1547 mt 2651 1631 L
2651 1547 mt 2567 1631 L
2295 1186 mt 2379 1270 L
2379 1186 mt 2295 1270 L
1940  837 mt 2024  921 L
2024  837 mt 1940  921 L
1564  407 mt 1648  491 L
1648  407 mt 1564  491 L
gs 1466 388 4228 4229 rc
c8
-440 -558 -337 -246 -290 -293 -269 -339 -259 -329 -245 -372 -280 -227 -301 -178 
-283 -423 -652 -612 5002 4026 11 MP stroke
gr

c8
4942 4026 mt 5062 4026 L
5002 3966 mt 5002 4086 L
4290 3414 mt 4410 3414 L
4350 3354 mt 4350 3474 L
4007 2991 mt 4127 2991 L
4067 2931 mt 4067 3051 L
3706 2813 mt 3826 2813 L
3766 2753 mt 3766 2873 L
3426 2586 mt 3546 2586 L
3486 2526 mt 3486 2646 L
3181 2214 mt 3301 2214 L
3241 2154 mt 3241 2274 L
2922 1885 mt 3042 1885 L
2982 1825 mt 2982 1945 L
2653 1546 mt 2773 1546 L
2713 1486 mt 2713 1606 L
2363 1253 mt 2483 1253 L
2423 1193 mt 2423 1313 L
2026 1007 mt 2146 1007 L
2086  947 mt 2086 1067 L
1586  449 mt 1706  449 L
1646  389 mt 1646  509 L
4960 3984 mt 5044 4068 L
5044 3984 mt 4960 4068 L
4308 3372 mt 4392 3456 L
4392 3372 mt 4308 3456 L
4025 2949 mt 4109 3033 L
4109 2949 mt 4025 3033 L
3724 2771 mt 3808 2855 L
3808 2771 mt 3724 2855 L
3444 2544 mt 3528 2628 L
3528 2544 mt 3444 2628 L
3199 2172 mt 3283 2256 L
3283 2172 mt 3199 2256 L
2940 1843 mt 3024 1927 L
3024 1843 mt 2940 1927 L
2671 1504 mt 2755 1588 L
2755 1504 mt 2671 1588 L
2381 1211 mt 2465 1295 L
2465 1211 mt 2381 1295 L
2044  965 mt 2128 1049 L
2128  965 mt 2044 1049 L
1604  407 mt 1688  491 L
1688  407 mt 1604  491 L
gs 1466 388 4228 4229 rc
c9
-499 -472 -400 -307 -316 -310 -275 -159 -250 -249 -296 -416 -299 -212 -335 -209 
-498 -323 -698 -455 5552 3612 11 MP stroke
gr

c9
0 -94 -94 0 0 94 94 0 5505 3565 5 MP
DP
0 -94 -94 0 0 94 94 0 4807 3110 5 MP
DP
0 -94 -94 0 0 94 94 0 4309 2787 5 MP
DP
0 -94 -94 0 0 94 94 0 3974 2578 5 MP
DP
0 -94 -94 0 0 94 94 0 3675 2366 5 MP
DP
0 -94 -94 0 0 94 94 0 3379 1950 5 MP
DP
0 -94 -94 0 0 94 94 0 3129 1701 5 MP
DP
0 -94 -94 0 0 94 94 0 2854 1542 5 MP
DP
0 -94 -94 0 0 94 94 0 2538 1232 5 MP
DP
0 -94 -94 0 0 94 94 0 2138 925 5 MP
DP
0 -94 -94 0 0 94 94 0 1639 453 5 MP
DP
gs 1466 388 4228 4229 rc
c10
-538 -476 -389 -458 -312 -306 -295 -324 -272 -381 -273 -397 -248 -270 -344 -353 
-445 -287 -706 -660 5315 4361 11 MP stroke
gr

c10
60 79 -60 79 -60 -79 60 -79 5315 4440 5 MP
DP
60 79 -60 79 -60 -79 60 -79 4609 3780 5 MP
DP
60 79 -60 79 -60 -79 60 -79 4164 3493 5 MP
DP
60 79 -60 79 -60 -79 60 -79 3820 3140 5 MP
DP
60 79 -60 79 -60 -79 60 -79 3572 2870 5 MP
DP
60 79 -60 79 -60 -79 60 -79 3299 2473 5 MP
DP
60 79 -60 79 -60 -79 60 -79 3027 2092 5 MP
DP
60 79 -60 79 -60 -79 60 -79 2732 1768 5 MP
DP
60 79 -60 79 -60 -79 60 -79 2420 1462 5 MP
DP
60 79 -60 79 -60 -79 60 -79 2031 1004 5 MP
DP
60 79 -60 79 -60 -79 60 -79 1493 528 5 MP
DP
gs 1466 388 4228 4229 rc
c8
-513 -536 -383 -365 -346 -524 -325 -310 -289 -431 -295 -291 -291 -300 -401 -280 
-496 -316 -698 -287 5693 4244 11 MP stroke
gr

c8
69 119 -138 0 69 -119 5693 4323 4 MP
DP
69 119 -138 0 69 -119 4995 4036 4 MP
DP
69 119 -138 0 69 -119 4499 3720 4 MP
DP
69 119 -138 0 69 -119 4098 3440 4 MP
DP
69 119 -138 0 69 -119 3807 3140 4 MP
DP
69 119 -138 0 69 -119 3512 2849 4 MP
DP
69 119 -138 0 69 -119 3223 2418 4 MP
DP
69 119 -138 0 69 -119 2898 2108 4 MP
DP
69 119 -138 0 69 -119 2552 1584 4 MP
DP
69 119 -138 0 69 -119 2169 1219 4 MP
DP
69 119 -138 0 69 -119 1656 683 4 MP
DP
gs 1466 388 4228 4229 rc
c10
-461 -417 -337 -435 -293 -263 -261 -239 -266 -382 -270 -221 -265 -219 -273 -238 
-348 -163 -531 -533 4906 3641 11 MP stroke
gr

c10
-69 119 -69 -119 138 0 4837 3681 4 MP
DP
-69 119 -69 -119 138 0 4306 3148 4 MP
DP
-69 119 -69 -119 138 0 3958 2985 4 MP
DP
-69 119 -69 -119 138 0 3685 2747 4 MP
DP
-69 119 -69 -119 138 0 3420 2528 4 MP
DP
-69 119 -69 -119 138 0 3150 2307 4 MP
DP
-69 119 -69 -119 138 0 2884 1925 4 MP
DP
-69 119 -69 -119 138 0 2623 1686 4 MP
DP
-69 119 -69 -119 138 0 2330 1423 4 MP
DP
-69 119 -69 -119 138 0 1993 988 4 MP
DP
-69 119 -69 -119 138 0 1532 571 4 MP
DP
gs 1466 388 4228 4229 rc
c8
-563 -584 -345 -371 -321 -303 -278 -351 -247 -397 -300 -376 -285 -338 -304 -200 
-455 -363 -672 -611 5236 4282 11 MP stroke
gr

c8
-119 69 0 -138 119 69 5157 4282 4 MP
DP
-119 69 0 -138 119 69 4485 3671 4 MP
DP
-119 69 0 -138 119 69 4030 3308 4 MP
DP
-119 69 0 -138 119 69 3726 3108 4 MP
DP
-119 69 0 -138 119 69 3441 2770 4 MP
DP
-119 69 0 -138 119 69 3141 2394 4 MP
DP
-119 69 0 -138 119 69 2894 1997 4 MP
DP
-119 69 0 -138 119 69 2616 1646 4 MP
DP
-119 69 0 -138 119 69 2295 1343 4 MP
DP
-119 69 0 -138 119 69 1950 972 4 MP
DP
-119 69 0 -138 119 69 1387 388 4 MP
DP
gs 1466 388 4228 4229 rc
gr

0 sg
3273 4984 mt 
(FAR [%]) s
1013 2820 mt  -90 rotate
(FRR [%]) s
90 rotate
3423  256 mt 
(face) s
%%IncludeResource: font Helvetica
/Helvetica /WindowsLatin1Encoding 120 FMSR

1449 4659 mt 
( ) s
5677  430 mt 
( ) s
1 sg
0 2052 1823 0 0 -2052 3810 2500 4 MP
PP
-1823 0 0 2052 1823 0 0 -2052 3810 2500 5 MP stroke
4 w
DO
SO
6 w
0 sg
3810  448 mt 5633  448 L
3810 2500 mt 5633 2500 L
5633 2500 mt 5633  448 L
3810 2500 mt 3810  448 L
3810 2500 mt 5633 2500 L
3810 2500 mt 3810  448 L
3810  448 mt 5633  448 L
3810 2500 mt 5633 2500 L
5633 2500 mt 5633  448 L
3810 2500 mt 3810  448 L
%%IncludeResource: font Helvetica
/Helvetica /WindowsLatin1Encoding 168 FMSR

4287  628 mt 
(orig) s
gs 3810 448 1824 2053 rc
366 0 3883 567 2 MP stroke
gr

gs 3945 446 243 243 rc
69 119 -138 0 69 -119 4066 646 4 MP
DP
gr

gs 3810 448 1824 2053 rc
gr

4287  829 mt 
(z-norm \(lr\)) s
gs 3810 448 1824 2053 rc
c8
366 0 3883 769 2 MP stroke
gs 3945 648 243 243 rc
4024  727 mt 4108  811 L
4108  727 mt 4024  811 L
gr

gr

c8
0 sg
4287 1031 mt 
(z-norm) s
gs 3810 448 1824 2053 rc
c9
366 0 3883 970 2 MP stroke
gs 3945 849 243 243 rc
  60   60 4066  970 FO
gr

gr

c9
0 sg
4287 1232 mt 
(z-norm, gen \(lr\)) s
gs 3810 448 1824 2053 rc
c10
366 0 3883 1171 2 MP stroke
gs 3945 1050 243 243 rc
4024 1129 mt 4108 1213 L
4108 1129 mt 4024 1213 L
gr

gr

c10
0 sg
4287 1434 mt 
(z-norm [y,p] \(lr\)) s
gs 3810 448 1824 2053 rc
c8
366 0 3883 1373 2 MP stroke
gs 3945 1252 243 243 rc
4006 1373 mt 4126 1373 L
4066 1313 mt 4066 1433 L
4024 1331 mt 4108 1415 L
4108 1331 mt 4024 1415 L
gr

gr

c8
0 sg
4287 1635 mt 
(z-norm [y,y*p] \(lr\)) s
gs 3810 448 1824 2053 rc
c9
366 0 3883 1574 2 MP stroke
gs 3945 1453 243 243 rc
0 -94 -94 0 0 94 94 0 4019 1527 5 MP
DP
gr

gr

c9
0 sg
4287 1837 mt 
(f-norm) s
gs 3810 448 1824 2053 rc
c10
366 0 3883 1776 2 MP stroke
gs 3945 1655 243 243 rc
60 79 -60 79 -60 -79 60 -79 4066 1855 5 MP
DP
gr

gr

c10
0 sg
4287 2038 mt 
(f-norm v1 \(lr\)) s
gs 3810 448 1824 2053 rc
c8
366 0 3883 1977 2 MP stroke
gs 3945 1856 243 243 rc
69 119 -138 0 69 -119 4066 2056 4 MP
DP
gr

gr

c8
0 sg
4287 2240 mt 
(f-norm v2 \(lr\)) s
gs 3810 448 1824 2053 rc
c10
366 0 3883 2178 2 MP stroke
gs 3945 2057 243 243 rc
-69 119 -69 -119 138 0 3997 2218 4 MP
DP
gr

gr

c10
0 sg
4287 2441 mt 
(f-norm-lr) s
gs 3810 448 1824 2053 rc
c8
366 0 3883 2380 2 MP stroke
gr

c8
gs 3945 2259 243 243 rc
-119 69 0 -138 119 69 3987 2380 4 MP
DP
gr

gs 3810 448 1824 2053 rc
gr


end %%Color Dict

eplot
%%EndObject

epage
end

showpage

%%Trailer
%%EOF
