%!PS-Adobe-3.0 EPSF-3.0
%%Creator: MATLAB, The Mathworks, Inc. Version 7.7.0.471 (R2008b). Operating System: Microsoft Windows XP.
%%Title: Pictures\main_zoo_mvar_analysis_data_BMI_xcorr_bmig_p1_k1_7_9.eps
%%CreationDate: 10/26/2009  05:45:08
%%DocumentNeededFonts: Helvetica
%%DocumentProcessColors: Cyan Magenta Yellow Black
%%LanguageLevel: 2
%%Pages: 1
%%BoundingBox:    37   180   549   616
%%EndComments

%%BeginProlog
% MathWorks dictionary
/MathWorks 160 dict begin
% definition operators
/bdef {bind def} bind def
/ldef {load def} bind def
/xdef {exch def} bdef
/xstore {exch store} bdef
% operator abbreviations
/c  /clip ldef
/cc /concat ldef
/cp /closepath ldef
/gr /grestore ldef
/gs /gsave ldef
/mt /moveto ldef
/np /newpath ldef
/cm /currentmatrix ldef
/sm /setmatrix ldef
/rm /rmoveto ldef
/rl /rlineto ldef
/s {show newpath} bdef
/sc {setcmykcolor} bdef
/sr /setrgbcolor ldef
/sg /setgray ldef
/w /setlinewidth ldef
/j /setlinejoin ldef
/cap /setlinecap ldef
/rc {rectclip} bdef
/rf {rectfill} bdef
% page state control
/pgsv () def
/bpage {/pgsv save def} bdef
/epage {pgsv restore} bdef
/bplot /gsave ldef
/eplot {stroke grestore} bdef
% orientation switch
/portraitMode 0 def /landscapeMode 1 def /rotateMode 2 def
% coordinate system mappings
/dpi2point 0 def
% font control
/FontSize 0 def
/FMS {/FontSize xstore findfont [FontSize 0 0 FontSize neg 0 0]
  makefont setfont} bdef
/ISOLatin1Encoding where {pop /WindowsLatin1Encoding 256 array bdef
ISOLatin1Encoding WindowsLatin1Encoding copy pop
/.notdef/.notdef/quotesinglbase/florin/quotedblbase/ellipsis/dagger
/daggerdbl/circumflex/perthousand/Scaron/guilsinglleft/OE/.notdef/.notdef
/.notdef/.notdef/quoteleft/quoteright/quotedblleft/quotedblright/bullet
/endash/emdash/tilde/trademark/scaron/guilsinglright/oe/.notdef/.notdef
/Ydieresis WindowsLatin1Encoding 128 32 getinterval astore pop}
{/WindowsLatin1Encoding StandardEncoding bdef} ifelse
/reencode {exch dup where {pop load} {pop StandardEncoding} ifelse
  exch dup 3 1 roll findfont dup length dict begin
  { 1 index /FID ne {def}{pop pop} ifelse } forall
  /Encoding exch def currentdict end definefont pop} bdef
/isroman {findfont /CharStrings get /Agrave known} bdef
/FMSR {3 1 roll 1 index dup isroman {reencode} {pop pop} ifelse
  exch FMS} bdef
/csm {1 dpi2point div -1 dpi2point div scale neg translate
 dup landscapeMode eq {pop -90 rotate}
  {rotateMode eq {90 rotate} if} ifelse} bdef
% line types: solid, dotted, dashed, dotdash
/SO { [] 0 setdash } bdef
/DO { [.5 dpi2point mul 4 dpi2point mul] 0 setdash } bdef
/DA { [6 dpi2point mul] 0 setdash } bdef
/DD { [.5 dpi2point mul 4 dpi2point mul 6 dpi2point mul 4
  dpi2point mul] 0 setdash } bdef
% macros for lines and objects
/L {lineto stroke} bdef
/MP {3 1 roll moveto 1 sub {rlineto} repeat} bdef
/AP {{rlineto} repeat} bdef
/PDlw -1 def
/W {/PDlw currentlinewidth def setlinewidth} def
/PP {closepath eofill} bdef
/DP {closepath stroke} bdef
/MR {4 -2 roll moveto dup  0 exch rlineto exch 0 rlineto
  neg 0 exch rlineto closepath} bdef
/FR {MR stroke} bdef
/PR {MR fill} bdef
/L1i {{currentfile picstr readhexstring pop} image} bdef
/tMatrix matrix def
/MakeOval {newpath tMatrix currentmatrix pop translate scale
0 0 1 0 360 arc tMatrix setmatrix} bdef
/FO {MakeOval stroke} bdef
/PO {MakeOval fill} bdef
/PD {currentlinewidth 2 div 0 360 arc fill
   PDlw -1 eq not {PDlw w /PDlw -1 def} if} def
/FA {newpath tMatrix currentmatrix pop translate scale
  0 0 1 5 -2 roll arc tMatrix setmatrix stroke} bdef
/PA {newpath tMatrix currentmatrix pop	translate 0 0 moveto scale
  0 0 1 5 -2 roll arc closepath tMatrix setmatrix fill} bdef
/FAn {newpath tMatrix currentmatrix pop translate scale
  0 0 1 5 -2 roll arcn tMatrix setmatrix stroke} bdef
/PAn {newpath tMatrix currentmatrix pop translate 0 0 moveto scale
  0 0 1 5 -2 roll arcn closepath tMatrix setmatrix fill} bdef
/vradius 0 def /hradius 0 def /lry 0 def
/lrx 0 def /uly 0 def /ulx 0 def /rad 0 def
/MRR {/vradius xdef /hradius xdef /lry xdef /lrx xdef /uly xdef
  /ulx xdef newpath tMatrix currentmatrix pop ulx hradius add uly
  vradius add translate hradius vradius scale 0 0 1 180 270 arc 
  tMatrix setmatrix lrx hradius sub uly vradius add translate
  hradius vradius scale 0 0 1 270 360 arc tMatrix setmatrix
  lrx hradius sub lry vradius sub translate hradius vradius scale
  0 0 1 0 90 arc tMatrix setmatrix ulx hradius add lry vradius sub
  translate hradius vradius scale 0 0 1 90 180 arc tMatrix setmatrix
  closepath} bdef
/FRR {MRR stroke } bdef
/PRR {MRR fill } bdef
/MlrRR {/lry xdef /lrx xdef /uly xdef /ulx xdef /rad lry uly sub 2 div def
  newpath tMatrix currentmatrix pop ulx rad add uly rad add translate
  rad rad scale 0 0 1 90 270 arc tMatrix setmatrix lrx rad sub lry rad
  sub translate rad rad scale 0 0 1 270 90 arc tMatrix setmatrix
  closepath} bdef
/FlrRR {MlrRR stroke } bdef
/PlrRR {MlrRR fill } bdef
/MtbRR {/lry xdef /lrx xdef /uly xdef /ulx xdef /rad lrx ulx sub 2 div def
  newpath tMatrix currentmatrix pop ulx rad add uly rad add translate
  rad rad scale 0 0 1 180 360 arc tMatrix setmatrix lrx rad sub lry rad
  sub translate rad rad scale 0 0 1 0 180 arc tMatrix setmatrix
  closepath} bdef
/FtbRR {MtbRR stroke } bdef
/PtbRR {MtbRR fill } bdef
/stri 6 array def /dtri 6 array def
/smat 6 array def /dmat 6 array def
/tmat1 6 array def /tmat2 6 array def /dif 3 array def
/asub {/ind2 exch def /ind1 exch def dup dup
  ind1 get exch ind2 get sub exch } bdef
/tri_to_matrix {
  2 0 asub 3 1 asub 4 0 asub 5 1 asub
  dup 0 get exch 1 get 7 -1 roll astore } bdef
/compute_transform {
  dmat dtri tri_to_matrix tmat1 invertmatrix 
  smat stri tri_to_matrix tmat2 concatmatrix } bdef
/ds {stri astore pop} bdef
/dt {dtri astore pop} bdef
/db {2 copy /cols xdef /rows xdef mul dup 3 mul string
  currentfile 
  3 index 0 eq {/ASCIIHexDecode filter}
  {/ASCII85Decode filter 3 index 2 eq {/RunLengthDecode filter} if }
  ifelse exch readstring pop
  dup 0 3 index getinterval /rbmap xdef
  dup 2 index dup getinterval /gbmap xdef
  1 index dup 2 mul exch getinterval /bbmap xdef pop pop}bdef
/it {gs np dtri aload pop moveto lineto lineto cp c
  cols rows 8 compute_transform 
  rbmap gbmap bbmap true 3 colorimage gr}bdef
/il {newpath moveto lineto stroke}bdef
currentdict end def
%%EndProlog

%%BeginSetup
MathWorks begin

0 cap

end
%%EndSetup

%%Page: 1 1
%%BeginPageSetup
%%PageBoundingBox:    37   180   549   616
MathWorks begin
bpage
%%EndPageSetup

%%BeginObject: obj1
bplot

/dpi2point 12 def
portraitMode 0216 7344 csm

  234   -48  6149  5231 rc
85 dict begin %Colortable dictionary
/c0 { 0.000000 0.000000 0.000000 sr} bdef
/c1 { 1.000000 1.000000 1.000000 sr} bdef
/c2 { 0.900000 0.000000 0.000000 sr} bdef
/c3 { 0.000000 0.820000 0.000000 sr} bdef
/c4 { 0.000000 0.000000 0.800000 sr} bdef
/c5 { 0.910000 0.820000 0.320000 sr} bdef
/c6 { 1.000000 0.260000 0.820000 sr} bdef
/c7 { 0.000000 0.820000 0.820000 sr} bdef
c0
1 j
1 sg
   0    0 6919 5187 rf
6 w
0 4202 5362 0 0 -4202 899 4616 4 MP
PP
-5362 0 0 4202 5362 0 0 -4202 899 4616 5 MP stroke
4 w
DO
SO
6 w
0 sg
 899  414 mt 6261  414 L
 899 4616 mt 6261 4616 L
6261 4616 mt 6261  414 L
 899 4616 mt  899  414 L
 899 4616 mt 6261 4616 L
 899 4616 mt  899  414 L
 919 4616 mt  919 4562 L
 919  414 mt  919  467 L
%%IncludeResource: font Helvetica
/Helvetica /WindowsLatin1Encoding 240 FMSR

 713 4873 mt 
(-3) s
1806 4616 mt 1806 4562 L
1806  414 mt 1806  467 L
1600 4873 mt 
(-2) s
2693 4616 mt 2693 4562 L
2693  414 mt 2693  467 L
2487 4873 mt 
(-1) s
3580 4616 mt 3580 4562 L
3580  414 mt 3580  467 L
3514 4873 mt 
(0) s
4466 4616 mt 4466 4562 L
4466  414 mt 4466  467 L
4400 4873 mt 
(1) s
5353 4616 mt 5353 4562 L
5353  414 mt 5353  467 L
5287 4873 mt 
(2) s
6240 4616 mt 6240 4562 L
6240  414 mt 6240  467 L
6174 4873 mt 
(3) s
 899 4599 mt  952 4599 L
6261 4599 mt 6207 4599 L
 591 4688 mt 
(-3) s
 899 3904 mt  952 3904 L
6261 3904 mt 6207 3904 L
 591 3993 mt 
(-2) s
 899 3209 mt  952 3209 L
6261 3209 mt 6207 3209 L
 591 3298 mt 
(-1) s
 899 2514 mt  952 2514 L
6261 2514 mt 6207 2514 L
 731 2603 mt 
(0) s
 899 1820 mt  952 1820 L
6261 1820 mt 6207 1820 L
 731 1909 mt 
(1) s
 899 1125 mt  952 1125 L
6261 1125 mt 6207 1125 L
 731 1214 mt 
(2) s
 899  430 mt  952  430 L
6261  430 mt 6207  430 L
 731  519 mt 
(3) s
 899  414 mt 6261  414 L
 899 4616 mt 6261 4616 L
6261 4616 mt 6261  414 L
 899 4616 mt  899  414 L
gs 899 414 5363 4203 rc
gr

/c8 { 0.000000 0.000000 1.000000 sr} bdef
c8
5531 1698 mt 5603 1698 L
5567 1662 mt 5567 1734 L
3325 2815 mt 3397 2815 L
3361 2779 mt 3361 2851 L
2575 4023 mt 2647 4023 L
2611 3987 mt 2611 4059 L
1556 2978 mt 1628 2978 L
1592 2942 mt 1592 3014 L
3838 1892 mt 3910 1892 L
3874 1856 mt 3874 1928 L
2874 2859 mt 2946 2859 L
2910 2823 mt 2910 2895 L
3410 2549 mt 3482 2549 L
3446 2513 mt 3446 2585 L
3085 2160 mt 3157 2160 L
3121 2124 mt 3121 2196 L
2218 2388 mt 2290 2388 L
2254 2352 mt 2254 2424 L
3644 2067 mt 3716 2067 L
3680 2031 mt 3680 2103 L
3267 1740 mt 3339 1740 L
3303 1704 mt 3303 1776 L
3734 2237 mt 3806 2237 L
3770 2201 mt 3770 2273 L
3867 2223 mt 3939 2223 L
3903 2187 mt 3903 2259 L
4532 2320 mt 4604 2320 L
4568 2284 mt 4568 2356 L
2312 2001 mt 2384 2001 L
2348 1965 mt 2348 2037 L
5096 2347 mt 5168 2347 L
5132 2311 mt 5132 2383 L
5700 3273 mt 5772 3273 L
5736 3237 mt 5736 3309 L
3208 2204 mt 3280 2204 L
3244 2168 mt 3244 2240 L
3347 2589 mt 3419 2589 L
3383 2553 mt 3383 2625 L
4170 3567 mt 4242 3567 L
4206 3531 mt 4206 3603 L
3202 3118 mt 3274 3118 L
3238 3082 mt 3238 3154 L
2938 1087 mt 3010 1087 L
2974 1051 mt 2974 1123 L
3091 1404 mt 3163 1404 L
3127 1368 mt 3127 1440 L
3153  564 mt 3225  564 L
3189  528 mt 3189  600 L
4789 2007 mt 4861 2007 L
4825 1971 mt 4825 2043 L
3683 3213 mt 3755 3213 L
3719 3177 mt 3719 3249 L
3855 2576 mt 3927 2576 L
3891 2540 mt 3891 2612 L
2789 2506 mt 2861 2506 L
2825 2470 mt 2825 2542 L
1876 2782 mt 1948 2782 L
1912 2746 mt 1912 2818 L
3237 3358 mt 3309 3358 L
3273 3322 mt 3273 3394 L
3066 3731 mt 3138 3731 L
3102 3695 mt 3102 3767 L
3638 2078 mt 3710 2078 L
3674 2042 mt 3674 2114 L
3007 3581 mt 3079 3581 L
3043 3545 mt 3043 3617 L
3672 2673 mt 3744 2673 L
3708 2637 mt 3708 2709 L
3027 3069 mt 3099 3069 L
3063 3033 mt 3063 3105 L
3319 2909 mt 3391 2909 L
3355 2873 mt 3355 2945 L
3582 2686 mt 3654 2686 L
3618 2650 mt 3618 2722 L
4054 2650 mt 4126 2650 L
4090 2614 mt 4090 2686 L
4852 1960 mt 4924 1960 L
4888 1924 mt 4888 1996 L
4407 4205 mt 4479 4205 L
4443 4169 mt 4443 4241 L
3220 3289 mt 3292 3289 L
3256 3253 mt 3256 3325 L
3046 2365 mt 3118 2365 L
3082 2329 mt 3082 2401 L
4314 3658 mt 4386 3658 L
4350 3622 mt 4350 3694 L
4021 1006 mt 4093 1006 L
4057  970 mt 4057 1042 L
3330 3125 mt 3402 3125 L
3366 3089 mt 3366 3161 L
2040 3045 mt 2112 3045 L
2076 3009 mt 2076 3081 L
5047 2401 mt 5119 2401 L
5083 2365 mt 5083 2437 L
3426 3349 mt 3498 3349 L
3462 3313 mt 3462 3385 L
4047 3093 mt 4119 3093 L
4083 3057 mt 4083 3129 L
2327 2796 mt 2399 2796 L
2363 2760 mt 2363 2832 L
4156 1232 mt 4228 1232 L
4192 1196 mt 4192 1268 L
3610 2140 mt 3682 2140 L
3646 2104 mt 3646 2176 L
3488 1653 mt 3560 1653 L
3524 1617 mt 3524 1689 L
2407 2731 mt 2479 2731 L
2443 2695 mt 2443 2767 L
4512 1561 mt 4584 1561 L
4548 1525 mt 4548 1597 L
3072 2493 mt 3144 2493 L
3108 2457 mt 3108 2529 L
3844 1984 mt 3916 1984 L
3880 1948 mt 3880 2020 L
2586 2029 mt 2658 2029 L
2622 1993 mt 2622 2065 L
3723 2619 mt 3795 2619 L
3759 2583 mt 3759 2655 L
3370 3711 mt 3442 3711 L
3406 3675 mt 3406 3747 L
4191 1787 mt 4263 1787 L
4227 1751 mt 4227 1823 L
4981 3005 mt 5053 3005 L
5017 2969 mt 5017 3041 L
3393 2155 mt 3465 2155 L
3429 2119 mt 3429 2191 L
3353 2820 mt 3425 2820 L
3389 2784 mt 3389 2856 L
2689 2889 mt 2761 2889 L
2725 2853 mt 2725 2925 L
3774 2270 mt 3846 2270 L
3810 2234 mt 3810 2306 L
3033 3675 mt 3105 3675 L
3069 3639 mt 3069 3711 L
3940 4305 mt 4012 4305 L
3976 4269 mt 3976 4341 L
3255 2307 mt 3327 2307 L
3291 2271 mt 3291 2343 L
2368 2633 mt 2440 2633 L
2404 2597 mt 2404 2669 L
2146 3693 mt 2218 3693 L
2182 3657 mt 2182 3729 L
3359 2884 mt 3431 2884 L
3395 2848 mt 3395 2920 L
2444 2120 mt 2516 2120 L
2480 2084 mt 2480 2156 L
3249 2445 mt 3321 2445 L
3285 2409 mt 3285 2481 L
4028 1538 mt 4100 1538 L
4064 1502 mt 4064 1574 L
4080 3942 mt 4152 3942 L
4116 3906 mt 4116 3978 L
3020 2338 mt 3092 2338 L
3056 2302 mt 3056 2374 L
3296 3386 mt 3368 3386 L
3332 3350 mt 3332 3422 L
3989 2311 mt 4061 2311 L
4025 2275 mt 4025 2347 L
4149 2298 mt 4221 2298 L
4185 2262 mt 4185 2334 L
3493 1689 mt 3565 1689 L
3529 1653 mt 3529 1725 L
2282 2754 mt 2354 2754 L
2318 2718 mt 2318 2790 L
4067 3137 mt 4139 3137 L
4103 3101 mt 4103 3173 L
1991 3340 mt 2063 3340 L
2027 3304 mt 2027 3376 L
4522 3265 mt 4594 3265 L
4558 3229 mt 4558 3301 L
2267 2109 mt 2339 2109 L
2303 2073 mt 2303 2145 L
1387  824 mt 1459  824 L
1423  788 mt 1423  860 L
3040 2379 mt 3112 2379 L
3076 2343 mt 3076 2415 L
1674 3376 mt 1746 3376 L
1710 3340 mt 1710 3412 L
4177 1904 mt 4249 1904 L
4213 1868 mt 4213 1940 L
3438 3503 mt 3510 3503 L
3474 3467 mt 3474 3539 L
2781 1336 mt 2853 1336 L
2817 1300 mt 2817 1372 L
2016 2247 mt 2088 2247 L
2052 2211 mt 2052 2283 L
4501 2778 mt 4573 2778 L
4537 2742 mt 4537 2814 L
3243 2611 mt 3315 2611 L
3279 2575 mt 3279 2647 L
4228 2849 mt 4300 2849 L
4264 2813 mt 4264 2885 L
3505 3057 mt 3577 3057 L
3541 3021 mt 3541 3093 L
3166 3491 mt 3238 3491 L
3202 3455 mt 3202 3527 L
3661 3051 mt 3733 3051 L
3697 3015 mt 3697 3087 L
2643 1954 mt 2715 1954 L
2679 1918 mt 2679 1990 L
6225 2284 mt 6297 2284 L
6261 2248 mt 6261 2320 L
3443 1624 mt 3515 1624 L
3479 1588 mt 3479 1660 L
3826 1419 mt 3898 1419 L
3862 1383 mt 3862 1455 L
2502 2554 mt 2574 2554 L
2538 2518 mt 2538 2590 L
4306 2104 mt 4378 2104 L
4342 2068 mt 4342 2140 L
3666 2293 mt 3738 2293 L
3702 2257 mt 3702 2329 L
2298 2940 mt 2370 2940 L
2334 2904 mt 2334 2976 L
4492 2471 mt 4564 2471 L
4528 2435 mt 4528 2507 L
3791 1978 mt 3863 1978 L
3827 1942 mt 3827 2014 L
1481 3822 mt 1553 3822 L
1517 3786 mt 1517 3858 L
3190 2768 mt 3262 2768 L
3226 2732 mt 3226 2804 L
2534 3022 mt 2606 3022 L
2570 2986 mt 2570 3058 L
4114 2361 mt 4186 2361 L
4150 2325 mt 4150 2397 L
3482 2185 mt 3554 2185 L
3518 2149 mt 3518 2221 L
2765 1816 mt 2837 1816 L
2801 1780 mt 2801 1852 L
3820 1277 mt 3892 1277 L
3856 1241 mt 3856 1313 L
2859 2983 mt 2931 2983 L
2895 2947 mt 2895 3019 L
3711 2874 mt 3783 2874 L
3747 2838 mt 3747 2910 L
3302 2989 mt 3374 2989 L
3338 2953 mt 3338 3025 L
2959 2035 mt 3031 2035 L
2995 1999 mt 2995 2071 L
3342 2825 mt 3414 2825 L
3378 2789 mt 3378 2861 L
2813 1152 mt 2885 1152 L
2849 1116 mt 2849 1188 L
3013 2914 mt 3085 2914 L
3049 2878 mt 3049 2950 L
4282 1858 mt 4354 1858 L
4318 1822 mt 4318 1894 L
4355 2316 mt 4427 2316 L
4391 2280 mt 4391 2352 L
4087 2150 mt 4159 2150 L
4123 2114 mt 4123 2186 L
3184 3281 mt 3256 3281 L
3220 3245 mt 3220 3317 L
3053 2228 mt 3125 2228 L
3089 2192 mt 3089 2264 L
2126 2668 mt 2198 2668 L
2162 2632 mt 2162 2704 L
3958 1462 mt 4030 1462 L
3994 1426 mt 3994 1498 L
2394 2012 mt 2466 2012 L
2430 1976 mt 2430 2048 L
4922 1748 mt 4994 1748 L
4958 1712 mt 4958 1784 L
2479 2130 mt 2551 2130 L
2515 2094 mt 2515 2166 L
1259 2083 mt 1331 2083 L
1295 2047 mt 1295 2119 L
2662 2879 mt 2734 2879 L
2698 2843 mt 2698 2915 L
3694 2704 mt 3766 2704 L
3730 2668 mt 3730 2740 L
2634 2864 mt 2706 2864 L
2670 2828 mt 2670 2900 L
3677 3087 mt 3749 3087 L
3713 3051 mt 3713 3123 L
4338 2510 mt 4410 2510 L
4374 2474 mt 4374 2546 L
3577 2467 mt 3649 2467 L
3613 2431 mt 3613 2503 L
2555 2602 mt 2627 2602 L
2591 2566 mt 2591 2638 L
3785 2251 mt 3857 2251 L
3821 2215 mt 3821 2287 L
3809 2414 mt 3881 2414 L
3845 2378 mt 3845 2450 L
3762 2165 mt 3834 2165 L
3798 2129 mt 3798 2201 L
3135 2458 mt 3207 2458 L
3171 2422 mt 3171 2494 L
2468 2967 mt 2540 2967 L
2504 2931 mt 2504 3003 L
4597 2024 mt 4669 2024 L
4633 1988 mt 4633 2060 L
4746 1371 mt 4818 1371 L
4782 1335 mt 4782 1407 L
4128 2356 mt 4200 2356 L
4164 2320 mt 4164 2392 L
4381 2750 mt 4453 2750 L
4417 2714 mt 4417 2786 L
2924 2046 mt 2996 2046 L
2960 2010 mt 2960 2082 L
3336 2514 mt 3408 2514 L
3372 2478 mt 3372 2550 L
3104 3908 mt 3176 3908 L
3140 3872 mt 3140 3944 L
3891 1851 mt 3963 1851 L
3927 1815 mt 3927 1887 L
4667 2773 mt 4739 2773 L
4703 2737 mt 4703 2809 L
1805 2811 mt 1877 2811 L
1841 2775 mt 1841 2847 L
3566 3479 mt 3638 3479 L
3602 3443 mt 3602 3515 L
4719 2099 mt 4791 2099 L
4755 2063 mt 4755 2135 L
3510 1779 mt 3582 1779 L
3546 1743 mt 3546 1815 L
2513 2073 mt 2585 2073 L
2549 2037 mt 2549 2109 L
3745 3436 mt 3817 3436 L
3781 3400 mt 3781 3472 L
3532 2541 mt 3604 2541 L
3568 2505 mt 3568 2577 L
3466 1255 mt 3538 1255 L
3502 1219 mt 3502 1291 L
3803 3250 mt 3875 3250 L
3839 3214 mt 3839 3286 L
3214 2089 mt 3286 2089 L
3250 2053 mt 3250 2125 L
3544 3220 mt 3616 3220 L
3580 3184 mt 3580 3256 L
4444 2764 mt 4516 2764 L
4480 2728 mt 4480 2800 L
4060 1838 mt 4132 1838 L
4096 1802 mt 4096 1874 L
3141 1809 mt 3213 1809 L
3177 1773 mt 3177 1845 L
3196 2869 mt 3268 2869 L
3232 2833 mt 3232 2905 L
4760 1207 mt 4832 1207 L
4796 1171 mt 4796 1243 L
3850 1948 mt 3922 1948 L
3886 1912 mt 3886 1984 L
3560 3184 mt 3632 3184 L
3596 3148 mt 3596 3220 L
2980 2343 mt 3052 2343 L
3016 2307 mt 3016 2379 L
4259 2175 mt 4331 2175 L
4295 2139 mt 4295 2211 L
2201 2242 mt 2273 2242 L
2237 2206 mt 2237 2278 L
3946 2501 mt 4018 2501 L
3982 2465 mt 3982 2537 L
3364 3641 mt 3436 3641 L
3400 3605 mt 3400 3677 L
3706 2718 mt 3778 2718 L
3742 2682 mt 3742 2754 L
2456 2787 mt 2528 2787 L
2492 2751 mt 2492 2823 L
3655 1794 mt 3727 1794 L
3691 1758 mt 3691 1830 L
3728 3797 mt 3800 3797 L
3764 3761 mt 3764 3833 L
4655  898 mt 4727  898 L
4691  862 mt 4691  934 L
2836 2558 mt 2908 2558 L
2872 2522 mt 2872 2594 L
2605 2580 mt 2677 2580 L
2641 2544 mt 2641 2616 L
2183 2624 mt 2255 2624 L
2219 2588 mt 2219 2660 L
2565 1550 mt 2637 1550 L
2601 1514 mt 2601 1586 L
2106 2899 mt 2178 2899 L
2142 2863 mt 2142 2935 L
5211 3625 mt 5283 3625 L
5247 3589 mt 5247 3661 L
4364 1318 mt 4436 1318 L
4400 1282 mt 4400 1354 L
4619 2352 mt 4691 2352 L
4655 2316 mt 4655 2388 L
3116  414 mt 3188  414 L
3152  378 mt 3152  450 L
3909 3034 mt 3981 3034 L
3945 2998 mt 3945 3070 L
2851 1764 mt 2923 1764 L
2887 1728 mt 2887 1800 L
2680 1972 mt 2752 1972 L
2716 1936 mt 2716 2008 L
5468 2436 mt 5540 2436 L
5504 2400 mt 5504 2472 L
4236 1593 mt 4308 1593 L
4272 1557 mt 4272 1629 L
4941 1942 mt 5013 1942 L
4977 1906 mt 4977 1978 L
2966 2325 mt 3038 2325 L
3002 2289 mt 3002 2361 L
3633 2094 mt 3705 2094 L
3669 2058 mt 3669 2130 L
5606 1680 mt 5678 1680 L
5642 1644 mt 5642 1716 L
4820 1572 mt 4892 1572 L
4856 1536 mt 4856 1608 L
2945 2682 mt 3017 2682 L
2981 2646 mt 2981 2718 L
3538 2418 mt 3610 2418 L
3574 2382 mt 3574 2454 L
2805 2449 mt 2877 2449 L
2841 2413 mt 2841 2485 L
4274 2405 mt 4346 2405 L
4310 2369 mt 4310 2441 L
3885 2677 mt 3957 2677 L
3921 2641 mt 3921 2713 L
3861 3848 mt 3933 3848 L
3897 3812 mt 3897 3884 L
3110 2302 mt 3182 2302 L
3146 2266 mt 3146 2338 L
4585 2528 mt 4657 2528 L
4621 2492 mt 4621 2564 L
2993 2256 mt 3065 2256 L
3029 2220 mt 3029 2292 L
3376 3039 mt 3448 3039 L
3412 3003 mt 3412 3075 L
3284 2536 mt 3356 2536 L
3320 2500 mt 3320 2572 L
5321 1354 mt 5393 1354 L
5357 1318 mt 5357 1390 L
3454 1823 mt 3526 1823 L
3490 1787 mt 3490 1859 L
5413 1756 mt 5485 1756 L
5449 1720 mt 5449 1792 L
5828 3752 mt 5900 3752 L
5864 3716 mt 5864 3788 L
3717 2523 mt 3789 2523 L
3753 2487 mt 3753 2559 L
4142 3610 mt 4214 3610 L
4178 3574 mt 4178 3646 L
4425 2628 mt 4497 2628 L
4461 2592 mt 4461 2664 L
1619 3131 mt 1691 3131 L
1655 3095 mt 1655 3167 L
4015  724 mt 4087  724 L
4051  688 mt 4051  760 L
3616 1930 mt 3688 1930 L
3652 1894 mt 3652 1966 L
2723 1049 mt 2795 1049 L
2759 1013 mt 2759 1085 L
4574 2334 mt 4646 2334 L
4610 2298 mt 4610 2370 L
3971 4072 mt 4043 4072 L
4007 4036 mt 4007 4108 L
3605 2606 mt 3677 2606 L
3641 2570 mt 3641 2642 L
4199 2956 mt 4271 2956 L
4235 2920 mt 4235 2992 L
3261 2275 mt 3333 2275 L
3297 2239 mt 3297 2311 L
3700 2218 mt 3772 2218 L
3736 2182 mt 3736 2254 L
4163 1878 mt 4235 1878 L
4199 1842 mt 4199 1914 L
 863 2709 mt  935 2709 L
 899 2673 mt  899 2745 L
3059 3306 mt 3131 3306 L
3095 3270 mt 3095 3342 L
4482 3527 mt 4554 3527 L
4518 3491 mt 4518 3563 L
2420 2741 mt 2492 2741 L
2456 2705 mt 2456 2777 L
1722 2792 mt 1794 2792 L
1758 2756 mt 1758 2828 L
2844 3297 mt 2916 3297 L
2880 3261 mt 2880 3333 L
5180 1448 mt 5252 1448 L
5216 1412 mt 5216 1484 L
4904 1662 mt 4976 1662 L
4940 1626 mt 4940 1698 L
3897 3099 mt 3969 3099 L
3933 3063 mt 3933 3135 L
3996 3075 mt 4068 3075 L
4032 3039 mt 4032 3111 L
4107 3515 mt 4179 3515 L
4143 3479 mt 4143 3551 L
3757 3395 mt 3829 3395 L
3793 3359 mt 3793 3431 L
2732 1526 mt 2804 1526 L
2768 1490 mt 2768 1562 L
2432 2462 mt 2504 2462 L
2468 2426 mt 2468 2498 L
3278 3081 mt 3350 3081 L
3314 3045 mt 3314 3117 L
5282 1923 mt 5354 1923 L
5318 1887 mt 5318 1959 L
2903 2664 mt 2975 2664 L
2939 2628 mt 2939 2700 L
4542 2925 mt 4614 2925 L
4578 2889 mt 4578 2961 L
2952 3242 mt 3024 3242 L
2988 3206 mt 2988 3278 L
4074 1723 mt 4146 1723 L
4110 1687 mt 4110 1759 L
3921 2209 mt 3993 2209 L
3957 2173 mt 3957 2245 L
2715 1604 mt 2787 1604 L
2751 1568 mt 2751 1640 L
2381 2894 mt 2453 2894 L
2417 2858 mt 2417 2930 L
4009 1707 mt 4081 1707 L
4045 1671 mt 4045 1743 L
3879 2423 mt 3951 2423 L
3915 2387 mt 3915 2459 L
2740 2519 mt 2812 2519 L
2776 2483 mt 2776 2555 L
3098 2427 mt 3170 2427 L
3134 2391 mt 3134 2463 L
4372 1772 mt 4444 1772 L
4408 1736 mt 4408 1808 L
3927 2659 mt 3999 2659 L
3963 2623 mt 3963 2695 L
4213 1671 mt 4285 1671 L
4249 1635 mt 4249 1707 L
4347 3151 mt 4419 3151 L
4383 3115 mt 4383 3187 L
2931 2691 mt 3003 2691 L
2967 2655 mt 2967 2727 L
3387 2695 mt 3459 2695 L
3423 2659 mt 3423 2731 L
3307 3017 mt 3379 3017 L
3343 2981 mt 3343 3053 L
2821 1865 mt 2893 1865 L
2857 1829 mt 2857 1901 L
2697 3063 mt 2769 3063 L
2733 3027 mt 2733 3099 L
4680 2484 mt 4752 2484 L
4716 2448 mt 4716 2520 L
2490 2835 mt 2562 2835 L
2526 2799 mt 2526 2871 L
3273 2759 mt 3345 2759 L
3309 2723 mt 3309 2795 L
3521 2713 mt 3593 2713 L
3557 2677 mt 3557 2749 L
4435 3468 mt 4507 3468 L
4471 3432 mt 4471 3504 L
2896 2801 mt 2968 2801 L
2932 2765 mt 2932 2837 L
3000 3191 mt 3072 3191 L
3036 3155 mt 3036 3227 L
2881 1911 mt 2953 1911 L
2917 1875 mt 2917 1947 L
4002 3235 mt 4074 3235 L
4038 3199 mt 4038 3271 L
3964 1831 mt 4036 1831 L
4000 1795 mt 4000 1867 L
1907 2637 mt 1979 2637 L
1943 2601 mt 1943 2673 L
2251 3157 mt 2323 3157 L
2287 3121 mt 2287 3193 L
3797 2383 mt 3869 2383 L
3833 2347 mt 3833 2419 L
3689 1802 mt 3761 1802 L
3725 1766 mt 3725 1838 L
2235 2597 mt 2307 2597 L
2271 2561 mt 2271 2633 L
4631 1995 mt 4703 1995 L
4667 1959 mt 4667 2031 L
3415 2480 mt 3487 2480 L
3451 2444 mt 3451 2516 L
5024 2189 mt 5096 2189 L
5060 2153 mt 5060 2225 L
2749 2920 mt 2821 2920 L
2785 2884 mt 2785 2956 L
3226 1181 mt 3298 1181 L
3262 1145 mt 3262 1217 L
3471 2233 mt 3543 2233 L
3507 2197 mt 3507 2269 L
3421 2641 mt 3493 2641 L
3457 2605 mt 3457 2677 L
3555 2951 mt 3627 2951 L
3591 2915 mt 3591 2987 L
4094 2265 mt 4166 2265 L
4130 2229 mt 4130 2301 L
3649 1936 mt 3721 1936 L
3685 1900 mt 3685 1972 L
2987 2615 mt 3059 2615 L
3023 2579 mt 3023 2651 L
5071 1872 mt 5143 1872 L
5107 1836 mt 5107 1908 L
2910 3457 mt 2982 3457 L
2946 3421 mt 2946 3493 L
3129 3322 mt 3201 3322 L
3165 3286 mt 3165 3358 L
2341 2532 mt 2413 2532 L
2377 2496 mt 2377 2568 L
2615 2374 mt 2687 2374 L
2651 2338 mt 2651 2410 L
1766 2994 mt 1838 2994 L
1802 2958 mt 1802 3030 L
2595 1514 mt 2667 1514 L
2631 1478 mt 2631 1550 L
6033 2410 mt 6105 2410 L
6069 2374 mt 6069 2446 L
2757 2018 mt 2829 2018 L
2793 1982 mt 2793 2054 L
4732  957 mt 4804  957 L
4768  921 mt 4768  993 L
3381 3367 mt 3453 3367 L
3417 3331 mt 3417 3403 L
3627 2370 mt 3699 2370 L
3663 2334 mt 3663 2406 L
3873 2040 mt 3945 2040 L
3909 2004 mt 3909 2076 L
3460 3171 mt 3532 3171 L
3496 3135 mt 3496 3207 L
4961 2199 mt 5033 2199 L
4997 2163 mt 4997 2235 L
3594 2057 mt 3666 2057 L
3630 2021 mt 3630 2093 L
3160 3144 mt 3232 3144 L
3196 3108 mt 3196 3180 L
4805 2655 mt 4877 2655 L
4841 2619 mt 4841 2691 L
4290 2930 mt 4362 2930 L
4326 2894 mt 4326 2966 L
4135 2396 mt 4207 2396 L
4171 2360 mt 4171 2432 L
4100 2840 mt 4172 2840 L
4136 2804 mt 4136 2876 L
2797 2135 mt 2869 2135 L
2833 2099 mt 2833 2171 L
3915 1298 mt 3987 1298 L
3951 1262 mt 3951 1334 L
3178 3178 mt 3250 3178 L
3214 3142 mt 3214 3214 L
4472 1990 mt 4544 1990 L
4508 1954 mt 4508 2026 L
2973 3106 mt 3045 3106 L
3009 3070 mt 3009 3142 L
3147 1845 mt 3219 1845 L
3183 1809 mt 3183 1881 L
2828 3011 mt 2900 3011 L
2864 2975 mt 2864 3047 L
3588 1583 mt 3660 1583 L
3624 1547 mt 3624 1619 L
3952 3595 mt 4024 3595 L
3988 3559 mt 3988 3631 L
4251 1732 mt 4323 1732 L
4287 1696 mt 4287 1768 L
4886 3227 mt 4958 3227 L
4922 3191 mt 4922 3263 L
2545 3028 mt 2617 3028 L
2581 2992 mt 2581 3064 L
3903 2214 mt 3975 2214 L
3939 2178 mt 3939 2250 L
2652 1614 mt 2724 1614 L
2688 1578 mt 2688 1650 L
3571 2962 mt 3643 2962 L
3607 2926 mt 3607 2998 L
4453 2261 mt 4525 2261 L
4489 2225 mt 4489 2297 L
3516 2545 mt 3588 2545 L
3552 2509 mt 3552 2581 L
4693 1715 mt 4765 1715 L
4729 1679 mt 4729 1751 L
3232 2453 mt 3304 2453 L
3268 2417 mt 3268 2489 L
1937 2115 mt 2009 2115 L
1973 2079 mt 1973 2151 L
3780 3206 mt 3852 3206 L
3816 3170 mt 3816 3242 L
4608 4131 mt 4680 4131 L
4644 4095 mt 4644 4167 L
3172 3314 mt 3244 3314 L
3208 3278 mt 3208 3350 L
4643 3000 mt 4715 3000 L
4679 2964 mt 4679 3036 L
4041 2562 mt 4113 2562 L
4077 2526 mt 4077 2598 L
2085 2972 mt 2157 2972 L
2121 2936 mt 2121 3008 L
3814 3405 mt 3886 3405 L
3850 3369 mt 3850 3441 L
4390 2722 mt 4462 2722 L
4426 2686 mt 4426 2758 L
3404 2475 mt 3476 2475 L
3440 2439 mt 3440 2511 L
3477 2180 mt 3549 2180 L
3513 2144 mt 3513 2216 L
3977 3877 mt 4049 3877 L
4013 3841 mt 4013 3913 L
3768 2844 mt 3840 2844 L
3804 2808 mt 3804 2880 L
3751 2125 mt 3823 2125 L
3787 2089 mt 3787 2161 L
4298 1966 mt 4370 1966 L
4334 1930 mt 4334 2002 L
5002 1434 mt 5074 1434 L
5038 1398 mt 5038 1470 L
4553 2904 mt 4625 2904 L
4589 2868 mt 4589 2940 L
2706 2051 mt 2778 2051 L
2742 2015 mt 2742 2087 L
3432 3425 mt 3504 3425 L
3468 3389 mt 3468 3461 L
4221 2279 mt 4293 2279 L
4257 2243 mt 4257 2315 L
2355 2593 mt 2427 2593 L
2391 2557 mt 2391 2629 L
4836 2497 mt 4908 2497 L
4872 2461 mt 4872 2533 L
4184 2854 mt 4256 2854 L
4220 2818 mt 4220 2890 L
3983 2488 mt 4055 2488 L
4019 2452 mt 4019 2524 L
5122 3331 mt 5194 3331 L
5158 3295 mt 5158 3367 L
1965 2170 mt 2037 2170 L
2001 2134 mt 2001 2206 L
2063 2329 mt 2135 2329 L
2099 2293 mt 2099 2365 L
3449 3980 mt 3521 3980 L
3485 3944 mt 3485 4016 L
1842 3540 mt 1914 3540 L
1878 3504 mt 1878 3576 L
3934 1898 mt 4006 1898 L
3970 1862 mt 3970 1934 L
4398 2145 mt 4470 2145 L
4434 2109 mt 4434 2181 L
4121 2946 mt 4193 2946 L
4157 2910 mt 4157 2982 L
4266 3198 mt 4338 3198 L
4302 3162 mt 4302 3234 L
2888 2700 mt 2960 2700 L
2924 2664 mt 2924 2736 L
3832 2288 mt 3904 2288 L
3868 2252 mt 3868 2324 L
2523 2062 mt 2595 2062 L
2559 2026 mt 2559 2098 L
4243 2646 mt 4315 2646 L
4279 2610 mt 4279 2682 L
4775 1476 mt 4847 1476 L
4811 1440 mt 4811 1512 L
2917 3112 mt 2989 3112 L
2953 3076 mt 2953 3148 L
2773 2830 mt 2845 2830 L
2809 2794 mt 2809 2866 L
3527 2736 mt 3599 2736 L
3563 2700 mt 3563 2772 L
4706 1502 mt 4778 1502 L
4742 1466 mt 4742 1538 L
3740 3446 mt 3812 3446 L
3776 3410 mt 3776 3482 L
4416 1634 mt 4488 1634 L
4452 1598 mt 4452 1670 L
4206 2745 mt 4278 2745 L
4242 2709 mt 4242 2781 L
3313 3774 mt 3385 3774 L
3349 3738 mt 3349 3810 L
3499 3257 mt 3571 3257 L
3535 3221 mt 3535 3293 L
4322 2806 mt 4394 2806 L
4358 2770 mt 4358 2842 L
4463 2432 mt 4535 2432 L
4499 2396 mt 4499 2468 L
4564 1121 mt 4636 1121 L
4600 1085 mt 4600 1157 L
2624 1917 mt 2696 1917 L
2660 1881 mt 2660 1953 L
3123 3553 mt 3195 3553 L
3159 3517 mt 3159 3589 L
3599 2935 mt 3671 2935 L
3635 2899 mt 3635 2971 L
3290 2194 mt 3362 2194 L
3326 2158 mt 3326 2230 L
3549 3415 mt 3621 3415 L
3585 3379 mt 3585 3451 L
5245 3164 mt 5317 3164 L
5281 3128 mt 5281 3200 L
4034 1489 mt 4106 1489 L
4070 1453 mt 4070 1525 L
5150 2584 mt 5222 2584 L
5186 2548 mt 5186 2620 L
2671 1388 mt 2743 1388 L
2707 1352 mt 2707 1424 L
4330 4616 mt 4402 4616 L
4366 4580 mt 4366 4652 L
3398 1643 mt 3470 1643 L
3434 1607 mt 3434 1679 L
3078 2392 mt 3150 2392 L
3114 2356 mt 3114 2428 L
5365 2440 mt 5437 2440 L
5401 2404 mt 5401 2476 L
3621 1885 mt 3693 1885 L
3657 1849 mt 3657 1921 L
4869 2727 mt 4941 2727 L
4905 2691 mt 4905 2763 L
2866 2567 mt 2938 2567 L
2902 2531 mt 2902 2603 L
2165 2571 mt 2237 2571 L
2201 2535 mt 2201 2607 L
gs 899 414 5363 4203 rc
gr

0 sg
2752 5104 mt 
(\(S,LFCC,GMM\)) s
 482 3277 mt  -90 rotate
(\(S,SSC,GMM\)) s
90 rotate
2975  223 mt 
(Corr = 0.11) s

end %%Color Dict

eplot
%%EndObject

epage
end

showpage

%%Trailer
%%EOF
