%!PS-Adobe-3.0 EPSF-3.0
%%Creator: MATLAB, The Mathworks, Inc.
%%Title: Pictures\main_fusion_us_logreg_all_det.eps
%%CreationDate: 02/14/2009  02:10:28
%%DocumentNeededFonts: Helvetica
%%DocumentProcessColors: Cyan Magenta Yellow Black
%%LanguageLevel: 2
%%Pages: 1
%%BoundingBox:    87   191   509   609
%%EndComments

%%BeginProlog
% MathWorks dictionary
/MathWorks 160 dict begin
% definition operators
/bdef {bind def} bind def
/ldef {load def} bind def
/xdef {exch def} bdef
/xstore {exch store} bdef
% operator abbreviations
/c  /clip ldef
/cc /concat ldef
/cp /closepath ldef
/gr /grestore ldef
/gs /gsave ldef
/mt /moveto ldef
/np /newpath ldef
/cm /currentmatrix ldef
/sm /setmatrix ldef
/rm /rmoveto ldef
/rl /rlineto ldef
/s {show newpath} bdef
/sc {setcmykcolor} bdef
/sr /setrgbcolor ldef
/sg /setgray ldef
/w /setlinewidth ldef
/j /setlinejoin ldef
/cap /setlinecap ldef
/rc {rectclip} bdef
/rf {rectfill} bdef
% page state control
/pgsv () def
/bpage {/pgsv save def} bdef
/epage {pgsv restore} bdef
/bplot /gsave ldef
/eplot {stroke grestore} bdef
% orientation switch
/portraitMode 0 def /landscapeMode 1 def /rotateMode 2 def
% coordinate system mappings
/dpi2point 0 def
% font control
/FontSize 0 def
/FMS {/FontSize xstore findfont [FontSize 0 0 FontSize neg 0 0]
  makefont setfont} bdef
/ISOLatin1Encoding where {pop /WindowsLatin1Encoding 256 array bdef
ISOLatin1Encoding WindowsLatin1Encoding copy pop
/.notdef/.notdef/quotesinglbase/florin/quotedblbase/ellipsis/dagger
/daggerdbl/circumflex/perthousand/Scaron/guilsinglleft/OE/.notdef/.notdef
/.notdef/.notdef/quoteleft/quoteright/quotedblleft/quotedblright/bullet
/endash/emdash/tilde/trademark/scaron/guilsinglright/oe/.notdef/.notdef
/Ydieresis WindowsLatin1Encoding 128 32 getinterval astore pop}
{/WindowsLatin1Encoding StandardEncoding bdef} ifelse
/reencode {exch dup where {pop load} {pop StandardEncoding} ifelse
  exch dup 3 1 roll findfont dup length dict begin
  { 1 index /FID ne {def}{pop pop} ifelse } forall
  /Encoding exch def currentdict end definefont pop} bdef
/isroman {findfont /CharStrings get /Agrave known} bdef
/FMSR {3 1 roll 1 index dup isroman {reencode} {pop pop} ifelse
  exch FMS} bdef
/csm {1 dpi2point div -1 dpi2point div scale neg translate
 dup landscapeMode eq {pop -90 rotate}
  {rotateMode eq {90 rotate} if} ifelse} bdef
% line types: solid, dotted, dashed, dotdash
/SO { [] 0 setdash } bdef
/DO { [.5 dpi2point mul 4 dpi2point mul] 0 setdash } bdef
/DA { [6 dpi2point mul] 0 setdash } bdef
/DD { [.5 dpi2point mul 4 dpi2point mul 6 dpi2point mul 4
  dpi2point mul] 0 setdash } bdef
% macros for lines and objects
/L {lineto stroke} bdef
/MP {3 1 roll moveto 1 sub {rlineto} repeat} bdef
/AP {{rlineto} repeat} bdef
/PDlw -1 def
/W {/PDlw currentlinewidth def setlinewidth} def
/PP {closepath eofill} bdef
/DP {closepath stroke} bdef
/MR {4 -2 roll moveto dup  0 exch rlineto exch 0 rlineto
  neg 0 exch rlineto closepath} bdef
/FR {MR stroke} bdef
/PR {MR fill} bdef
/L1i {{currentfile picstr readhexstring pop} image} bdef
/tMatrix matrix def
/MakeOval {newpath tMatrix currentmatrix pop translate scale
0 0 1 0 360 arc tMatrix setmatrix} bdef
/FO {MakeOval stroke} bdef
/PO {MakeOval fill} bdef
/PD {currentlinewidth 2 div 0 360 arc fill
   PDlw -1 eq not {PDlw w /PDlw -1 def} if} def
/FA {newpath tMatrix currentmatrix pop translate scale
  0 0 1 5 -2 roll arc tMatrix setmatrix stroke} bdef
/PA {newpath tMatrix currentmatrix pop	translate 0 0 moveto scale
  0 0 1 5 -2 roll arc closepath tMatrix setmatrix fill} bdef
/FAn {newpath tMatrix currentmatrix pop translate scale
  0 0 1 5 -2 roll arcn tMatrix setmatrix stroke} bdef
/PAn {newpath tMatrix currentmatrix pop translate 0 0 moveto scale
  0 0 1 5 -2 roll arcn closepath tMatrix setmatrix fill} bdef
/vradius 0 def /hradius 0 def /lry 0 def
/lrx 0 def /uly 0 def /ulx 0 def /rad 0 def
/MRR {/vradius xdef /hradius xdef /lry xdef /lrx xdef /uly xdef
  /ulx xdef newpath tMatrix currentmatrix pop ulx hradius add uly
  vradius add translate hradius vradius scale 0 0 1 180 270 arc 
  tMatrix setmatrix lrx hradius sub uly vradius add translate
  hradius vradius scale 0 0 1 270 360 arc tMatrix setmatrix
  lrx hradius sub lry vradius sub translate hradius vradius scale
  0 0 1 0 90 arc tMatrix setmatrix ulx hradius add lry vradius sub
  translate hradius vradius scale 0 0 1 90 180 arc tMatrix setmatrix
  closepath} bdef
/FRR {MRR stroke } bdef
/PRR {MRR fill } bdef
/MlrRR {/lry xdef /lrx xdef /uly xdef /ulx xdef /rad lry uly sub 2 div def
  newpath tMatrix currentmatrix pop ulx rad add uly rad add translate
  rad rad scale 0 0 1 90 270 arc tMatrix setmatrix lrx rad sub lry rad
  sub translate rad rad scale 0 0 1 270 90 arc tMatrix setmatrix
  closepath} bdef
/FlrRR {MlrRR stroke } bdef
/PlrRR {MlrRR fill } bdef
/MtbRR {/lry xdef /lrx xdef /uly xdef /ulx xdef /rad lrx ulx sub 2 div def
  newpath tMatrix currentmatrix pop ulx rad add uly rad add translate
  rad rad scale 0 0 1 180 360 arc tMatrix setmatrix lrx rad sub lry rad
  sub translate rad rad scale 0 0 1 0 180 arc tMatrix setmatrix
  closepath} bdef
/FtbRR {MtbRR stroke } bdef
/PtbRR {MtbRR fill } bdef
/stri 6 array def /dtri 6 array def
/smat 6 array def /dmat 6 array def
/tmat1 6 array def /tmat2 6 array def /dif 3 array def
/asub {/ind2 exch def /ind1 exch def dup dup
  ind1 get exch ind2 get sub exch } bdef
/tri_to_matrix {
  2 0 asub 3 1 asub 4 0 asub 5 1 asub
  dup 0 get exch 1 get 7 -1 roll astore } bdef
/compute_transform {
  dmat dtri tri_to_matrix tmat1 invertmatrix 
  smat stri tri_to_matrix tmat2 concatmatrix } bdef
/ds {stri astore pop} bdef
/dt {dtri astore pop} bdef
/db {2 copy /cols xdef /rows xdef mul dup 3 mul string
  currentfile 
  3 index 0 eq {/ASCIIHexDecode filter}
  {/ASCII85Decode filter 3 index 2 eq {/RunLengthDecode filter} if }
  ifelse exch readstring pop
  dup 0 3 index getinterval /rbmap xdef
  dup 2 index dup getinterval /gbmap xdef
  1 index dup 2 mul exch getinterval /bbmap xdef pop pop}bdef
/it {gs np dtri aload pop moveto lineto lineto cp c
  cols rows 8 compute_transform 
  rbmap gbmap bbmap true 3 colorimage gr}bdef
/il {newpath moveto lineto stroke}bdef
currentdict end def
%%EndProlog

%%BeginSetup
MathWorks begin

0 cap

end
%%EndSetup

%%Page: 1 1
%%BeginPageSetup
%%PageBoundingBox:    87   191   509   609
MathWorks begin
bpage
%%EndPageSetup

%%BeginObject: obj1
bplot

/dpi2point 12 def
portraitMode 0216 7344 csm

  832    28  5071  5018 rc
86 dict begin %Colortable dictionary
/c0 { 0.000000 0.000000 0.000000 sr} bdef
/c1 { 1.000000 1.000000 1.000000 sr} bdef
/c2 { 0.900000 0.000000 0.000000 sr} bdef
/c3 { 0.000000 0.820000 0.000000 sr} bdef
/c4 { 0.000000 0.000000 0.800000 sr} bdef
/c5 { 0.910000 0.820000 0.320000 sr} bdef
/c6 { 1.000000 0.260000 0.820000 sr} bdef
/c7 { 0.000000 0.820000 0.820000 sr} bdef
c0
1 j
1 sg
   0    0 6919 5187 rf
6 w
0 4226 4227 0 0 -4226 1466 4615 4 MP
PP
-4227 0 0 4226 4227 0 0 -4226 1466 4615 5 MP stroke
4 w
DO
0 sg
2113 4615 mt 2113  389 L
2113  389 mt 2113  389 L
3040 4615 mt 3040  389 L
3040  389 mt 3040  389 L
4431 4615 mt 4431  389 L
4431  389 mt 4431  389 L
5667 4615 mt 5667  389 L
5667  389 mt 5667  389 L
1466 3728 mt 5693 3728 L
5693 3728 mt 5693 3728 L
1466 1910 mt 5693 1910 L
5693 1910 mt 5693 1910 L
SO
6 w
1466 4615 mt 5693 4615 L
1466 4615 mt 1466  389 L
2113 4615 mt 2113 4573 L
%%IncludeResource: font Helvetica
/Helvetica /WindowsLatin1Encoding 168 FMSR

1950 4806 mt 
(   1  ) s
3040 4615 mt 3040 4573 L
2877 4806 mt 
(   2  ) s
4431 4615 mt 4431 4573 L
4268 4806 mt 
(   5  ) s
5667 4615 mt 5667 4573 L
5481 4806 mt 
(  10  ) s
1466 3728 mt 1508 3728 L
1105 3790 mt 
(     2) s
1466 1910 mt 1508 1910 L
1105 1972 mt 
(     5) s
gs 1466 389 4228 4227 rc
-536 -484 -413 -456 -328 -428 -277 -351 -272 -253 -283 -269 -291 -405 -353 -204 
-406 -335 -587 -626 5693 4200 11 MP stroke
gr

0 j
69 119 -138 0 69 -119 5693 4279 4 MP
DP
69 119 -138 0 69 -119 5106 3653 4 MP
DP
69 119 -138 0 69 -119 4700 3318 4 MP
DP
69 119 -138 0 69 -119 4347 3114 4 MP
DP
69 119 -138 0 69 -119 4056 2709 4 MP
DP
69 119 -138 0 69 -119 3773 2440 4 MP
DP
69 119 -138 0 69 -119 3501 2187 4 MP
DP
69 119 -138 0 69 -119 3224 1836 4 MP
DP
69 119 -138 0 69 -119 2896 1408 4 MP
DP
69 119 -138 0 69 -119 2483 952 4 MP
DP
69 119 -138 0 69 -119 1947 468 4 MP
DP
gs 1466 389 4228 4227 rc
/c8 { 0.000000 0.000000 1.000000 sr} bdef
c8
-460 -693 -334 -388 -275 -271 -276 -372 -292 -343 -255 -267 -274 -330 -322 -251 
-391 -360 -617 -317 5573 4268 11 MP stroke
gr

c8
5531 4226 mt 5615 4310 L
5615 4226 mt 5531 4310 L
4914 3909 mt 4998 3993 L
4998 3909 mt 4914 3993 L
4523 3549 mt 4607 3633 L
4607 3549 mt 4523 3633 L
4201 3298 mt 4285 3382 L
4285 3298 mt 4201 3382 L
3927 2968 mt 4011 3052 L
4011 2968 mt 3927 3052 L
3672 2701 mt 3756 2785 L
3756 2701 mt 3672 2785 L
3380 2358 mt 3464 2442 L
3464 2358 mt 3380 2442 L
3104 1986 mt 3188 2070 L
3188 1986 mt 3104 2070 L
2829 1715 mt 2913 1799 L
2913 1715 mt 2829 1799 L
2495 1327 mt 2579 1411 L
2579 1327 mt 2495 1411 L
2035  634 mt 2119  718 L
2119  634 mt 2035  718 L
gs 1466 389 4228 4227 rc
/c9 { 1.000000 0.000000 0.000000 sr} bdef
c9
-420 -571 -333 -383 -298 -462 -248 -354 -249 -255 -269 -326 -231 -285 -301 -345 
-376 -286 -590 -584 5592 4615 11 MP stroke
gr

c9
  60   60 5592 4615 FO
  60   60 5002 4031 FO
  60   60 4626 3745 FO
  60   60 4325 3400 FO
  60   60 4094 3115 FO
  60   60 3825 2789 FO
  60   60 3576 2534 FO
  60   60 3328 2180 FO
  60   60 3030 1718 FO
  60   60 2697 1335 FO
  60   60 2277  764 FO
gs 1466 389 4228 4227 rc
/c10 { 0.000000 1.000000 0.000000 sr} bdef
c10
-372 -415 -313 -309 -250 -307 -228 -223 -232 -216 -230 -274 -225 -232 -253 -163 
-299 -287 -423 -371 4400 3355 11 MP stroke
gr

c10
4358 3313 mt 4442 3397 L
4442 3313 mt 4358 3397 L
3935 2942 mt 4019 3026 L
4019 2942 mt 3935 3026 L
3636 2655 mt 3720 2739 L
3720 2655 mt 3636 2739 L
3383 2492 mt 3467 2576 L
3467 2492 mt 3383 2576 L
3158 2260 mt 3242 2344 L
3242 2260 mt 3158 2344 L
2928 1986 mt 3012 2070 L
3012 1986 mt 2928 2070 L
2696 1770 mt 2780 1854 L
2780 1770 mt 2696 1854 L
2468 1547 mt 2552 1631 L
2552 1547 mt 2468 1631 L
2218 1240 mt 2302 1324 L
2302 1240 mt 2218 1324 L
1905  931 mt 1989 1015 L
1989  931 mt 1905 1015 L
1533  516 mt 1617  600 L
1617  516 mt 1533  600 L
gs 1466 389 4228 4227 rc
c8
-433 -499 -311 -279 -279 -280 -239 -251 -246 -242 -238 -285 -241 -244 -277 -172 
-276 -319 -549 -503 4678 3658 11 MP stroke
gr

c8
4618 3658 mt 4738 3658 L
4678 3598 mt 4678 3718 L
4069 3155 mt 4189 3155 L
4129 3095 mt 4129 3215 L
3793 2836 mt 3913 2836 L
3853 2776 mt 3853 2896 L
3516 2664 mt 3636 2664 L
3576 2604 mt 3576 2724 L
3275 2420 mt 3395 2420 L
3335 2360 mt 3335 2480 L
3037 2135 mt 3157 2135 L
3097 2075 mt 3097 2195 L
2791 1893 mt 2911 1893 L
2851 1833 mt 2851 1953 L
2552 1642 mt 2672 1642 L
2612 1582 mt 2612 1702 L
2273 1362 mt 2393 1362 L
2333 1302 mt 2333 1422 L
1962 1083 mt 2082 1083 L
2022 1023 mt 2022 1143 L
1529  584 mt 1649  584 L
1589  524 mt 1589  644 L
4636 3616 mt 4720 3700 L
4720 3616 mt 4636 3700 L
4087 3113 mt 4171 3197 L
4171 3113 mt 4087 3197 L
3811 2794 mt 3895 2878 L
3895 2794 mt 3811 2878 L
3534 2622 mt 3618 2706 L
3618 2622 mt 3534 2706 L
3293 2378 mt 3377 2462 L
3377 2378 mt 3293 2462 L
3055 2093 mt 3139 2177 L
3139 2093 mt 3055 2177 L
2809 1851 mt 2893 1935 L
2893 1851 mt 2809 1935 L
2570 1600 mt 2654 1684 L
2654 1600 mt 2570 1684 L
2291 1320 mt 2375 1404 L
2375 1320 mt 2291 1404 L
1980 1041 mt 2064 1125 L
2064 1041 mt 1980 1125 L
1547  542 mt 1631  626 L
1631  542 mt 1547  626 L
gs 1466 389 4228 4227 rc
c9
-477 -460 -376 -360 -309 -322 -273 -189 -257 -241 -278 -329 -264 -165 -309 -165 
-445 -354 -611 -454 5274 3693 11 MP stroke
gr

c9
0 -94 -94 0 0 94 94 0 5227 3646 5 MP
DP
0 -94 -94 0 0 94 94 0 4616 3192 5 MP
DP
0 -94 -94 0 0 94 94 0 4171 2838 5 MP
DP
0 -94 -94 0 0 94 94 0 3862 2673 5 MP
DP
0 -94 -94 0 0 94 94 0 3598 2508 5 MP
DP
0 -94 -94 0 0 94 94 0 3320 2179 5 MP
DP
0 -94 -94 0 0 94 94 0 3063 1938 5 MP
DP
0 -94 -94 0 0 94 94 0 2790 1749 5 MP
DP
0 -94 -94 0 0 94 94 0 2481 1427 5 MP
DP
0 -94 -94 0 0 94 94 0 2105 1067 5 MP
DP
0 -94 -94 0 0 94 94 0 1628 607 5 MP
DP
gs 1466 389 4228 4227 rc
c10
-513 -483 -372 -423 -292 -272 -272 -301 -251 -301 -248 -254 -250 -258 -302 -331 
-413 -230 -620 -566 5039 3951 11 MP stroke
gr

c10
60 79 -60 79 -60 -79 60 -79 5039 4030 5 MP
DP
60 79 -60 79 -60 -79 60 -79 4419 3464 5 MP
DP
60 79 -60 79 -60 -79 60 -79 4006 3234 5 MP
DP
60 79 -60 79 -60 -79 60 -79 3704 2903 5 MP
DP
60 79 -60 79 -60 -79 60 -79 3454 2645 5 MP
DP
60 79 -60 79 -60 -79 60 -79 3206 2391 5 MP
DP
60 79 -60 79 -60 -79 60 -79 2955 2090 5 MP
DP
60 79 -60 79 -60 -79 60 -79 2683 1789 5 MP
DP
60 79 -60 79 -60 -79 60 -79 2391 1517 5 MP
DP
60 79 -60 79 -60 -79 60 -79 2019 1094 5 MP
DP
60 79 -60 79 -60 -79 60 -79 1506 611 5 MP
DP
gs 1466 389 4228 4227 rc
c8
-501 -535 -382 -370 -325 -436 -303 -296 -294 -346 -274 -300 -261 -256 -353 -193 
-433 -335 -632 -333 5375 4114 11 MP stroke
gr

c8
69 119 -138 0 69 -119 5375 4193 4 MP
DP
69 119 -138 0 69 -119 4743 3860 4 MP
DP
69 119 -138 0 69 -119 4310 3525 4 MP
DP
69 119 -138 0 69 -119 3957 3332 4 MP
DP
69 119 -138 0 69 -119 3696 3076 4 MP
DP
69 119 -138 0 69 -119 3422 2776 4 MP
DP
69 119 -138 0 69 -119 3128 2430 4 MP
DP
69 119 -138 0 69 -119 2825 2134 4 MP
DP
69 119 -138 0 69 -119 2500 1698 4 MP
DP
69 119 -138 0 69 -119 2118 1328 4 MP
DP
69 119 -138 0 69 -119 1617 793 4 MP
DP
gs 1466 389 4228 4227 rc
c10
-462 -467 -342 -352 -272 -224 -249 -296 -244 -275 -248 -201 -251 -184 -265 -200 
-314 -151 -512 -461 4734 3509 11 MP stroke
gr

c10
-69 119 -69 -119 138 0 4665 3549 4 MP
DP
-69 119 -69 -119 138 0 4153 3088 4 MP
DP
-69 119 -69 -119 138 0 3839 2937 4 MP
DP
-69 119 -69 -119 138 0 3574 2737 4 MP
DP
-69 119 -69 -119 138 0 3323 2553 4 MP
DP
-69 119 -69 -119 138 0 3075 2352 4 MP
DP
-69 119 -69 -119 138 0 2831 2077 4 MP
DP
-69 119 -69 -119 138 0 2582 1781 4 MP
DP
-69 119 -69 -119 138 0 2310 1557 4 MP
DP
-69 119 -69 -119 138 0 1968 1205 4 MP
DP
-69 119 -69 -119 138 0 1506 738 4 MP
DP
gs 1466 389 4228 4227 rc
c8
-528 -554 -350 -361 -301 -271 -256 -258 -242 -342 -266 -264 -260 -294 -282 -241 
-423 -254 -594 -519 4968 3874 11 MP stroke
gr

c8
-119 69 0 -138 119 69 4889 3874 4 MP
DP
-119 69 0 -138 119 69 4295 3355 4 MP
DP
-119 69 0 -138 119 69 3872 3101 4 MP
DP
-119 69 0 -138 119 69 3590 2860 4 MP
DP
-119 69 0 -138 119 69 3330 2566 4 MP
DP
-119 69 0 -138 119 69 3064 2302 4 MP
DP
-119 69 0 -138 119 69 2822 1960 4 MP
DP
-119 69 0 -138 119 69 2566 1702 4 MP
DP
-119 69 0 -138 119 69 2265 1431 4 MP
DP
-119 69 0 -138 119 69 1915 1070 4 MP
DP
-119 69 0 -138 119 69 1387 516 4 MP
DP
gs 1466 389 4228 4227 rc
gr

0 sg
3273 4984 mt 
(FAR [%]) s
1013 2820 mt  -90 rotate
(FRR [%]) s
90 rotate
3495  257 mt 
(all) s
%%IncludeResource: font Helvetica
/Helvetica /WindowsLatin1Encoding 120 FMSR

1449 4658 mt 
( ) s
5677  431 mt 
( ) s
1 sg
0 2052 1823 0 0 -2052 3810 2501 4 MP
PP
-1823 0 0 2052 1823 0 0 -2052 3810 2501 5 MP stroke
4 w
DO
SO
6 w
0 sg
3810  449 mt 5633  449 L
3810 2501 mt 5633 2501 L
5633 2501 mt 5633  449 L
3810 2501 mt 3810  449 L
3810 2501 mt 5633 2501 L
3810 2501 mt 3810  449 L
3810  449 mt 5633  449 L
3810 2501 mt 5633 2501 L
5633 2501 mt 5633  449 L
3810 2501 mt 3810  449 L
%%IncludeResource: font Helvetica
/Helvetica /WindowsLatin1Encoding 168 FMSR

4287  629 mt 
(orig) s
gs 3810 449 1824 2053 rc
366 0 3883 568 2 MP stroke
gr

gs 3945 447 243 243 rc
69 119 -138 0 69 -119 4066 647 4 MP
DP
gr

gs 3810 449 1824 2053 rc
gr

4287  830 mt 
(z-norm \(lr\)) s
gs 3810 449 1824 2053 rc
c8
366 0 3883 770 2 MP stroke
gs 3945 649 243 243 rc
4024  728 mt 4108  812 L
4108  728 mt 4024  812 L
gr

gr

c8
0 sg
4287 1032 mt 
(z-norm) s
gs 3810 449 1824 2053 rc
c9
366 0 3883 971 2 MP stroke
gs 3945 850 243 243 rc
  60   60 4066  971 FO
gr

gr

c9
0 sg
4287 1233 mt 
(z-norm, gen \(lr\)) s
gs 3810 449 1824 2053 rc
c10
366 0 3883 1172 2 MP stroke
gs 3945 1051 243 243 rc
4024 1130 mt 4108 1214 L
4108 1130 mt 4024 1214 L
gr

gr

c10
0 sg
4287 1435 mt 
(z-norm [y,p] \(lr\)) s
gs 3810 449 1824 2053 rc
c8
366 0 3883 1374 2 MP stroke
gs 3945 1253 243 243 rc
4006 1374 mt 4126 1374 L
4066 1314 mt 4066 1434 L
4024 1332 mt 4108 1416 L
4108 1332 mt 4024 1416 L
gr

gr

c8
0 sg
4287 1636 mt 
(z-norm [y,y*p] \(lr\)) s
gs 3810 449 1824 2053 rc
c9
366 0 3883 1575 2 MP stroke
gs 3945 1454 243 243 rc
0 -94 -94 0 0 94 94 0 4019 1528 5 MP
DP
gr

gr

c9
0 sg
4287 1838 mt 
(f-norm) s
gs 3810 449 1824 2053 rc
c10
366 0 3883 1777 2 MP stroke
gs 3945 1656 243 243 rc
60 79 -60 79 -60 -79 60 -79 4066 1856 5 MP
DP
gr

gr

c10
0 sg
4287 2039 mt 
(f-norm v1 \(lr\)) s
gs 3810 449 1824 2053 rc
c8
366 0 3883 1978 2 MP stroke
gs 3945 1857 243 243 rc
69 119 -138 0 69 -119 4066 2057 4 MP
DP
gr

gr

c8
0 sg
4287 2241 mt 
(f-norm v2 \(lr\)) s
gs 3810 449 1824 2053 rc
c10
366 0 3883 2179 2 MP stroke
gs 3945 2058 243 243 rc
-69 119 -69 -119 138 0 3997 2219 4 MP
DP
gr

gr

c10
0 sg
4287 2442 mt 
(f-norm-lr) s
gs 3810 449 1824 2053 rc
c8
366 0 3883 2381 2 MP stroke
gr

c8
gs 3945 2260 243 243 rc
-119 69 0 -138 119 69 3987 2381 4 MP
DP
gr

gs 3810 449 1824 2053 rc
gr


end %%Color Dict

eplot
%%EndObject

epage
end

showpage

%%Trailer
%%EOF
