%!PS-Adobe-3.0 EPSF-3.0
%%Creator: MATLAB, The Mathworks, Inc. Version 7.7.0.471 (R2008b). Operating System: Microsoft Windows XP.
%%Title: Pictures\main_zoo_mvar_analysis_data_BMI_xcorr_bmig_p1_k2_4_6.eps
%%CreationDate: 10/26/2009  05:45:26
%%DocumentNeededFonts: Helvetica
%%DocumentProcessColors: Cyan Magenta Yellow Black
%%LanguageLevel: 2
%%Pages: 1
%%BoundingBox:    37   180   549   616
%%EndComments

%%BeginProlog
% MathWorks dictionary
/MathWorks 160 dict begin
% definition operators
/bdef {bind def} bind def
/ldef {load def} bind def
/xdef {exch def} bdef
/xstore {exch store} bdef
% operator abbreviations
/c  /clip ldef
/cc /concat ldef
/cp /closepath ldef
/gr /grestore ldef
/gs /gsave ldef
/mt /moveto ldef
/np /newpath ldef
/cm /currentmatrix ldef
/sm /setmatrix ldef
/rm /rmoveto ldef
/rl /rlineto ldef
/s {show newpath} bdef
/sc {setcmykcolor} bdef
/sr /setrgbcolor ldef
/sg /setgray ldef
/w /setlinewidth ldef
/j /setlinejoin ldef
/cap /setlinecap ldef
/rc {rectclip} bdef
/rf {rectfill} bdef
% page state control
/pgsv () def
/bpage {/pgsv save def} bdef
/epage {pgsv restore} bdef
/bplot /gsave ldef
/eplot {stroke grestore} bdef
% orientation switch
/portraitMode 0 def /landscapeMode 1 def /rotateMode 2 def
% coordinate system mappings
/dpi2point 0 def
% font control
/FontSize 0 def
/FMS {/FontSize xstore findfont [FontSize 0 0 FontSize neg 0 0]
  makefont setfont} bdef
/ISOLatin1Encoding where {pop /WindowsLatin1Encoding 256 array bdef
ISOLatin1Encoding WindowsLatin1Encoding copy pop
/.notdef/.notdef/quotesinglbase/florin/quotedblbase/ellipsis/dagger
/daggerdbl/circumflex/perthousand/Scaron/guilsinglleft/OE/.notdef/.notdef
/.notdef/.notdef/quoteleft/quoteright/quotedblleft/quotedblright/bullet
/endash/emdash/tilde/trademark/scaron/guilsinglright/oe/.notdef/.notdef
/Ydieresis WindowsLatin1Encoding 128 32 getinterval astore pop}
{/WindowsLatin1Encoding StandardEncoding bdef} ifelse
/reencode {exch dup where {pop load} {pop StandardEncoding} ifelse
  exch dup 3 1 roll findfont dup length dict begin
  { 1 index /FID ne {def}{pop pop} ifelse } forall
  /Encoding exch def currentdict end definefont pop} bdef
/isroman {findfont /CharStrings get /Agrave known} bdef
/FMSR {3 1 roll 1 index dup isroman {reencode} {pop pop} ifelse
  exch FMS} bdef
/csm {1 dpi2point div -1 dpi2point div scale neg translate
 dup landscapeMode eq {pop -90 rotate}
  {rotateMode eq {90 rotate} if} ifelse} bdef
% line types: solid, dotted, dashed, dotdash
/SO { [] 0 setdash } bdef
/DO { [.5 dpi2point mul 4 dpi2point mul] 0 setdash } bdef
/DA { [6 dpi2point mul] 0 setdash } bdef
/DD { [.5 dpi2point mul 4 dpi2point mul 6 dpi2point mul 4
  dpi2point mul] 0 setdash } bdef
% macros for lines and objects
/L {lineto stroke} bdef
/MP {3 1 roll moveto 1 sub {rlineto} repeat} bdef
/AP {{rlineto} repeat} bdef
/PDlw -1 def
/W {/PDlw currentlinewidth def setlinewidth} def
/PP {closepath eofill} bdef
/DP {closepath stroke} bdef
/MR {4 -2 roll moveto dup  0 exch rlineto exch 0 rlineto
  neg 0 exch rlineto closepath} bdef
/FR {MR stroke} bdef
/PR {MR fill} bdef
/L1i {{currentfile picstr readhexstring pop} image} bdef
/tMatrix matrix def
/MakeOval {newpath tMatrix currentmatrix pop translate scale
0 0 1 0 360 arc tMatrix setmatrix} bdef
/FO {MakeOval stroke} bdef
/PO {MakeOval fill} bdef
/PD {currentlinewidth 2 div 0 360 arc fill
   PDlw -1 eq not {PDlw w /PDlw -1 def} if} def
/FA {newpath tMatrix currentmatrix pop translate scale
  0 0 1 5 -2 roll arc tMatrix setmatrix stroke} bdef
/PA {newpath tMatrix currentmatrix pop	translate 0 0 moveto scale
  0 0 1 5 -2 roll arc closepath tMatrix setmatrix fill} bdef
/FAn {newpath tMatrix currentmatrix pop translate scale
  0 0 1 5 -2 roll arcn tMatrix setmatrix stroke} bdef
/PAn {newpath tMatrix currentmatrix pop translate 0 0 moveto scale
  0 0 1 5 -2 roll arcn closepath tMatrix setmatrix fill} bdef
/vradius 0 def /hradius 0 def /lry 0 def
/lrx 0 def /uly 0 def /ulx 0 def /rad 0 def
/MRR {/vradius xdef /hradius xdef /lry xdef /lrx xdef /uly xdef
  /ulx xdef newpath tMatrix currentmatrix pop ulx hradius add uly
  vradius add translate hradius vradius scale 0 0 1 180 270 arc 
  tMatrix setmatrix lrx hradius sub uly vradius add translate
  hradius vradius scale 0 0 1 270 360 arc tMatrix setmatrix
  lrx hradius sub lry vradius sub translate hradius vradius scale
  0 0 1 0 90 arc tMatrix setmatrix ulx hradius add lry vradius sub
  translate hradius vradius scale 0 0 1 90 180 arc tMatrix setmatrix
  closepath} bdef
/FRR {MRR stroke } bdef
/PRR {MRR fill } bdef
/MlrRR {/lry xdef /lrx xdef /uly xdef /ulx xdef /rad lry uly sub 2 div def
  newpath tMatrix currentmatrix pop ulx rad add uly rad add translate
  rad rad scale 0 0 1 90 270 arc tMatrix setmatrix lrx rad sub lry rad
  sub translate rad rad scale 0 0 1 270 90 arc tMatrix setmatrix
  closepath} bdef
/FlrRR {MlrRR stroke } bdef
/PlrRR {MlrRR fill } bdef
/MtbRR {/lry xdef /lrx xdef /uly xdef /ulx xdef /rad lrx ulx sub 2 div def
  newpath tMatrix currentmatrix pop ulx rad add uly rad add translate
  rad rad scale 0 0 1 180 360 arc tMatrix setmatrix lrx rad sub lry rad
  sub translate rad rad scale 0 0 1 0 180 arc tMatrix setmatrix
  closepath} bdef
/FtbRR {MtbRR stroke } bdef
/PtbRR {MtbRR fill } bdef
/stri 6 array def /dtri 6 array def
/smat 6 array def /dmat 6 array def
/tmat1 6 array def /tmat2 6 array def /dif 3 array def
/asub {/ind2 exch def /ind1 exch def dup dup
  ind1 get exch ind2 get sub exch } bdef
/tri_to_matrix {
  2 0 asub 3 1 asub 4 0 asub 5 1 asub
  dup 0 get exch 1 get 7 -1 roll astore } bdef
/compute_transform {
  dmat dtri tri_to_matrix tmat1 invertmatrix 
  smat stri tri_to_matrix tmat2 concatmatrix } bdef
/ds {stri astore pop} bdef
/dt {dtri astore pop} bdef
/db {2 copy /cols xdef /rows xdef mul dup 3 mul string
  currentfile 
  3 index 0 eq {/ASCIIHexDecode filter}
  {/ASCII85Decode filter 3 index 2 eq {/RunLengthDecode filter} if }
  ifelse exch readstring pop
  dup 0 3 index getinterval /rbmap xdef
  dup 2 index dup getinterval /gbmap xdef
  1 index dup 2 mul exch getinterval /bbmap xdef pop pop}bdef
/it {gs np dtri aload pop moveto lineto lineto cp c
  cols rows 8 compute_transform 
  rbmap gbmap bbmap true 3 colorimage gr}bdef
/il {newpath moveto lineto stroke}bdef
currentdict end def
%%EndProlog

%%BeginSetup
MathWorks begin

0 cap

end
%%EndSetup

%%Page: 1 1
%%BeginPageSetup
%%PageBoundingBox:    37   180   549   616
MathWorks begin
bpage
%%EndPageSetup

%%BeginObject: obj1
bplot

/dpi2point 12 def
portraitMode 0216 7344 csm

  234   -48  6149  5231 rc
85 dict begin %Colortable dictionary
/c0 { 0.000000 0.000000 0.000000 sr} bdef
/c1 { 1.000000 1.000000 1.000000 sr} bdef
/c2 { 0.900000 0.000000 0.000000 sr} bdef
/c3 { 0.000000 0.820000 0.000000 sr} bdef
/c4 { 0.000000 0.000000 0.800000 sr} bdef
/c5 { 0.910000 0.820000 0.320000 sr} bdef
/c6 { 1.000000 0.260000 0.820000 sr} bdef
/c7 { 0.000000 0.820000 0.820000 sr} bdef
c0
1 j
1 sg
   0    0 6919 5187 rf
6 w
0 4202 5362 0 0 -4202 899 4616 4 MP
PP
-5362 0 0 4202 5362 0 0 -4202 899 4616 5 MP stroke
4 w
DO
SO
6 w
0 sg
 899  414 mt 6261  414 L
 899 4616 mt 6261 4616 L
6261 4616 mt 6261  414 L
 899 4616 mt  899  414 L
 899 4616 mt 6261 4616 L
 899 4616 mt  899  414 L
 919 4616 mt  919 4562 L
 919  414 mt  919  467 L
%%IncludeResource: font Helvetica
/Helvetica /WindowsLatin1Encoding 240 FMSR

 713 4873 mt 
(-3) s
1806 4616 mt 1806 4562 L
1806  414 mt 1806  467 L
1600 4873 mt 
(-2) s
2693 4616 mt 2693 4562 L
2693  414 mt 2693  467 L
2487 4873 mt 
(-1) s
3580 4616 mt 3580 4562 L
3580  414 mt 3580  467 L
3514 4873 mt 
(0) s
4466 4616 mt 4466 4562 L
4466  414 mt 4466  467 L
4400 4873 mt 
(1) s
5353 4616 mt 5353 4562 L
5353  414 mt 5353  467 L
5287 4873 mt 
(2) s
6240 4616 mt 6240 4562 L
6240  414 mt 6240  467 L
6174 4873 mt 
(3) s
 899 4599 mt  952 4599 L
6261 4599 mt 6207 4599 L
 591 4688 mt 
(-3) s
 899 3904 mt  952 3904 L
6261 3904 mt 6207 3904 L
 591 3993 mt 
(-2) s
 899 3209 mt  952 3209 L
6261 3209 mt 6207 3209 L
 591 3298 mt 
(-1) s
 899 2514 mt  952 2514 L
6261 2514 mt 6207 2514 L
 731 2603 mt 
(0) s
 899 1820 mt  952 1820 L
6261 1820 mt 6207 1820 L
 731 1909 mt 
(1) s
 899 1125 mt  952 1125 L
6261 1125 mt 6207 1125 L
 731 1214 mt 
(2) s
 899  430 mt  952  430 L
6261  430 mt 6207  430 L
 731  519 mt 
(3) s
 899  414 mt 6261  414 L
 899 4616 mt 6261 4616 L
6261 4616 mt 6261  414 L
 899 4616 mt  899  414 L
gs 899 414 5363 4203 rc
gr

/c8 { 0.000000 0.000000 1.000000 sr} bdef
c8
3946 2611 mt 4018 2611 L
3982 2575 mt 3982 2647 L
4149 2695 mt 4221 2695 L
4185 2659 mt 4185 2731 L
2490 2284 mt 2562 2284 L
2526 2248 mt 2526 2320 L
2805 2700 mt 2877 2700 L
2841 2664 mt 2841 2736 L
4372 2199 mt 4444 2199 L
4408 2163 mt 4408 2235 L
3072 2165 mt 3144 2165 L
3108 2129 mt 3108 2201 L
2456 3075 mt 2528 3075 L
2492 3039 mt 2492 3111 L
2851 3051 mt 2923 3051 L
2887 3015 mt 2887 3087 L
3644 3358 mt 3716 3358 L
3680 3322 mt 3680 3394 L
3454 1462 mt 3526 1462 L
3490 1426 mt 3490 1498 L
2040 3265 mt 2112 3265 L
2076 3229 mt 2076 3301 L
3711 2562 mt 3783 2562 L
3747 2526 mt 3747 2598 L
4236 1936 mt 4308 1936 L
4272 1900 mt 4272 1972 L
3621 2589 mt 3693 2589 L
3657 2553 mt 3657 2625 L
4789 1583 mt 4861 1583 L
4825 1547 mt 4825 1619 L
3443 3581 mt 3515 3581 L
3479 3545 mt 3479 3617 L
3214 3045 mt 3286 3045 L
3250 3009 mt 3250 3081 L
3432 2637 mt 3504 2637 L
3468 2601 mt 3468 2673 L
3123 2962 mt 3195 2962 L
3159 2926 mt 3159 2998 L
4021 2471 mt 4093 2471 L
4057 2435 mt 4057 2507 L
1876 2691 mt 1948 2691 L
1912 2655 mt 1912 2727 L
3521 2130 mt 3593 2130 L
3557 2094 mt 3557 2166 L
2605 2940 mt 2677 2940 L
2641 2904 mt 2641 2976 L
3359 2567 mt 3431 2567 L
3395 2531 mt 3395 2603 L
3723 1388 mt 3795 1388 L
3759 1352 mt 3759 1424 L
1722 1593 mt 1794 1593 L
1758 1557 mt 1758 1629 L
2836 2773 mt 2908 2773 L
2872 2737 mt 2872 2809 L
3855 1858 mt 3927 1858 L
3891 1822 mt 3891 1894 L
3404 3610 mt 3476 3610 L
3440 3574 mt 3440 3646 L
3532 3515 mt 3604 3515 L
3568 3479 mt 3568 3551 L
2312 2094 mt 2384 2094 L
2348 2058 mt 2348 2130 L
1674 2983 mt 1746 2983 L
1710 2947 mt 1710 3019 L
2085 3405 mt 2157 3405 L
2121 3369 mt 2121 3441 L
3544 2418 mt 3616 2418 L
3580 2382 mt 3580 2454 L
4135 2352 mt 4207 2352 L
4171 2316 mt 4171 2388 L
3336 2806 mt 3408 2806 L
3372 2770 mt 3372 2842 L
3110 3314 mt 3182 3314 L
3146 3278 mt 3146 3350 L
2545 2316 mt 2617 2316 L
2581 2280 mt 2581 2352 L
2615 2347 mt 2687 2347 L
2651 2311 mt 2651 2383 L
3147 3087 mt 3219 3087 L
3183 3051 mt 3183 3123 L
3891 2218 mt 3963 2218 L
3927 2182 mt 3927 2254 L
4381 1872 mt 4453 1872 L
4417 1836 mt 4417 1908 L
3370 2135 mt 3442 2135 L
3406 2099 mt 3406 2171 L
2973 2293 mt 3045 2293 L
3009 2257 mt 3009 2329 L
4886 2801 mt 4958 2801 L
4922 2765 mt 4922 2837 L
2016 2458 mt 2088 2458 L
2052 2422 mt 2052 2494 L
3538 2874 mt 3610 2874 L
3574 2838 mt 3574 2910 L
3007 2396 mt 3079 2396 L
3043 2360 mt 3043 2432 L
2917 2624 mt 2989 2624 L
2953 2588 mt 2953 2660 L
3689 1232 mt 3761 1232 L
3725 1196 mt 3725 1268 L
4820 3457 mt 4892 3457 L
4856 3421 mt 4856 3493 L
3903 3057 mt 3975 3057 L
3939 3021 mt 3939 3093 L
3797 2189 mt 3869 2189 L
3833 2153 mt 3833 2225 L
4034 3376 mt 4106 3376 L
4070 3340 mt 4070 3412 L
3757 2554 mt 3829 2554 L
3793 2518 mt 3793 2590 L
3319 2815 mt 3391 2815 L
3355 2779 mt 3355 2851 L
3516 2849 mt 3588 2849 L
3552 2813 mt 3552 2885 L
4746 1779 mt 4818 1779 L
4782 1743 mt 4782 1815 L
2251 3658 mt 2323 3658 L
2287 3622 mt 2287 3694 L
3059 1930 mt 3131 1930 L
3095 1894 mt 3095 1966 L
4009 2731 mt 4081 2731 L
4045 2695 mt 4045 2767 L
1259 3131 mt 1331 3131 L
1295 3095 mt 1295 3167 L
3178 2510 mt 3250 2510 L
3214 2474 mt 3214 2546 L
4836 2778 mt 4908 2778 L
4872 2742 mt 4872 2814 L
3633 3198 mt 3705 3198 L
3669 3162 mt 3669 3234 L
4775 2018 mt 4847 2018 L
4811 1982 mt 4811 2054 L
4585 3063 mt 4657 3063 L
4621 3027 mt 4621 3099 L
3172 2673 mt 3244 2673 L
3208 2637 mt 3208 2709 L
2697 2628 mt 2769 2628 L
2733 2592 mt 2733 2664 L
3977 2904 mt 4049 2904 L
4013 2868 mt 4013 2940 L
2797 2580 mt 2869 2580 L
2833 2544 mt 2833 2616 L
4163 1764 mt 4235 1764 L
4199 1728 mt 4199 1800 L
3706 2741 mt 3778 2741 L
3742 2705 mt 3742 2777 L
3505 2664 mt 3577 2664 L
3541 2628 mt 3541 2700 L
2643 3446 mt 2715 3446 L
2679 3410 mt 2679 3482 L
4306 2787 mt 4378 2787 L
4342 2751 mt 4342 2823 L
4322 2859 mt 4394 2859 L
4358 2823 mt 4358 2895 L
1991 2462 mt 2063 2462 L
2027 2426 mt 2027 2498 L
2355 2185 mt 2427 2185 L
2391 2149 mt 2391 2221 L
2420 3257 mt 2492 3257 L
2456 3221 mt 2456 3293 L
4080 3425 mt 4152 3425 L
4116 3389 mt 4116 3461 L
3116 2619 mt 3188 2619 L
3152 2583 mt 3152 2655 L
3964 2967 mt 4036 2967 L
4000 2931 mt 4000 3003 L
3873 2242 mt 3945 2242 L
3909 2206 mt 3909 2278 L
3762 2320 mt 3834 2320 L
3798 2284 mt 3798 2356 L
2952 2925 mt 3024 2925 L
2988 2889 mt 2988 2961 L
4199 2972 mt 4271 2972 L
4235 2936 mt 4235 3008 L
3376 2228 mt 3448 2228 L
3412 2192 mt 3412 2264 L
3989 2078 mt 4061 2078 L
4025 2042 mt 4025 2114 L
4869 2155 mt 4941 2155 L
4905 2119 mt 4905 2191 L
3033 3797 mt 3105 3797 L
3069 3761 mt 3069 3833 L
5024 2209 mt 5096 2209 L
5060 2173 mt 5060 2245 L
2813 3367 mt 2885 3367 L
2849 3331 mt 2849 3403 L
3672 3028 mt 3744 3028 L
3708 2992 mt 3708 3064 L
3387 3164 mt 3459 3164 L
3423 3128 mt 3423 3200 L
2896 1662 mt 2968 1662 L
2932 1626 mt 2932 1698 L
4107 2668 mt 4179 2668 L
4143 2632 mt 4143 2704 L
4472 3227 mt 4544 3227 L
4508 3191 mt 4508 3263 L
3261 3306 mt 3333 3306 L
3297 3270 mt 3297 3342 L
4170 2115 mt 4242 2115 L
4206 2079 mt 4206 2151 L
6225 1904 mt 6297 1904 L
6261 1868 mt 6261 1940 L
3040 1715 mt 3112 1715 L
3076 1679 mt 3076 1751 L
3243 2237 mt 3315 2237 L
3279 2201 mt 3279 2273 L
4177 3567 mt 4249 3567 L
4213 3531 mt 4213 3603 L
2652 3157 mt 2724 3157 L
2688 3121 mt 2688 3193 L
2789 1966 mt 2861 1966 L
2825 1930 mt 2825 2002 L
3571 2432 mt 3643 2432 L
3607 2396 mt 3607 2468 L
2586 2062 mt 2658 2062 L
2622 2026 mt 2622 2098 L
2821 2825 mt 2893 2825 L
2857 2789 mt 2857 2861 L
2757 2576 mt 2829 2576 L
2793 2540 mt 2793 2612 L
3728 2001 mt 3800 2001 L
3764 1965 mt 3764 2037 L
2534 2484 mt 2606 2484 L
2570 2448 mt 2570 2520 L
3616 3171 mt 3688 3171 L
3652 3135 mt 3652 3207 L
4631 2251 mt 4703 2251 L
4667 2215 mt 4667 2287 L
2945 3468 mt 3017 3468 L
2981 3432 mt 2981 3504 L
2773 2844 mt 2845 2844 L
2809 2808 mt 2809 2880 L
3915 2343 mt 3987 2343 L
3951 2307 mt 3951 2379 L
4228 1865 mt 4300 1865 L
4264 1829 mt 4264 1901 L
1387 3022 mt 1459 3022 L
1423 2986 mt 1423 3058 L
3273 2894 mt 3345 2894 L
3309 2858 mt 3309 2930 L
3838 2571 mt 3910 2571 L
3874 2535 mt 3874 2607 L
3364 2288 mt 3436 2288 L
3400 2252 mt 3400 2324 L
3566 3081 mt 3638 3081 L
3602 3045 mt 3602 3117 L
3153 3137 mt 3225 3137 L
3189 3101 mt 3189 3173 L
3879 2935 mt 3951 2935 L
3915 2899 mt 3915 2971 L
5282 1489 mt 5354 1489 L
5318 1453 mt 5318 1525 L
3952 3213 mt 4024 3213 L
3988 3177 mt 3988 3249 L
3694 2718 mt 3766 2718 L
3730 2682 mt 3730 2754 L
2749 2247 mt 2821 2247 L
2785 2211 mt 2785 2283 L
2327 3395 mt 2399 3395 L
2363 3359 mt 2363 3431 L
4259 1923 mt 4331 1923 L
4295 1887 mt 4295 1959 L
3832 2073 mt 3904 2073 L
3868 2037 mt 3868 2109 L
2966 2083 mt 3038 2083 L
3002 2047 mt 3002 2119 L
3649 2646 mt 3721 2646 L
3685 2610 mt 3685 2682 L
2407 3144 mt 2479 3144 L
2443 3108 mt 2443 3180 L
3921 2506 mt 3993 2506 L
3957 2470 mt 3957 2542 L
1907 3693 mt 1979 3693 L
1943 3657 mt 1943 3729 L
3460 1960 mt 3532 1960 L
3496 1924 mt 3496 1996 L
3661 2545 mt 3733 2545 L
3697 2509 mt 3697 2581 L
4087 3908 mt 4159 3908 L
4123 3872 mt 4123 3944 L
3237 2930 mt 3309 2930 L
3273 2894 mt 3273 2966 L
4364 2329 mt 4436 2329 L
4400 2293 mt 4400 2365 L
2298 2736 mt 2370 2736 L
2334 2700 mt 2334 2772 L
3296 2414 mt 3368 2414 L
3332 2378 mt 3332 2450 L
4407 2899 mt 4479 2899 L
4443 2863 mt 4443 2935 L
3449 1707 mt 3521 1707 L
3485 1671 mt 3485 1743 L
3220 2423 mt 3292 2423 L
3256 2387 mt 3256 2459 L
4114 3731 mt 4186 3731 L
4150 3695 mt 4150 3767 L
3190 2514 mt 3262 2514 L
3226 2478 mt 3226 2550 L
3325 2549 mt 3397 2549 L
3361 2513 mt 3361 2585 L
2432 2754 mt 2504 2754 L
2468 2718 mt 2468 2790 L
3085 2854 mt 3157 2854 L
3121 2818 mt 3121 2890 L
2980 4072 mt 3052 4072 L
3016 4036 mt 3016 4108 L
2341 3848 mt 2413 3848 L
2377 3812 mt 2377 3884 L
2903 2493 mt 2975 2493 L
2939 2457 mt 2939 2529 L
2924 3242 mt 2996 3242 L
2960 3206 mt 2960 3278 L
1619 2782 mt 1691 2782 L
1655 2746 mt 1655 2818 L
2394 2704 mt 2466 2704 L
2430 2668 mt 2430 2740 L
2063 2160 mt 2135 2160 L
2099 2124 mt 2099 2196 L
4015 1624 mt 4087 1624 L
4051 1588 mt 4051 1660 L
3353 2298 mt 3425 2298 L
3389 2262 mt 3389 2334 L
3347 3752 mt 3419 3752 L
3383 3716 mt 3383 3788 L
2938 3178 mt 3010 3178 L
2974 3142 mt 2974 3214 L
4142 2840 mt 4214 2840 L
4178 2804 mt 4178 2876 L
2662 3322 mt 2734 3322 L
2698 3286 mt 2698 3358 L
 863 2946 mt  935 2946 L
 899 2910 mt  899 2982 L
2183 2405 mt 2255 2405 L
2219 2369 mt 2219 2441 L
3774 1698 mt 3846 1698 L
3810 1662 mt 3810 1734 L
2502 2602 mt 2574 2602 L
2538 2566 mt 2538 2638 L
4542 2275 mt 4614 2275 L
4578 2239 mt 4578 2311 L
2740 2909 mt 2812 2909 L
2776 2873 mt 2776 2945 L
4074 3553 mt 4146 3553 L
4110 3517 mt 4110 3589 L
1842 2383 mt 1914 2383 L
1878 2347 mt 1878 2419 L
3599 2709 mt 3671 2709 L
3635 2673 mt 3635 2745 L
3226 3297 mt 3298 3297 L
3262 3261 mt 3262 3333 L
4047 2338 mt 4119 2338 L
4083 2302 mt 4083 2374 L
3426 2361 mt 3498 2361 L
3462 2325 mt 3462 2397 L
5531 2956 mt 5603 2956 L
5567 2920 mt 5567 2992 L
4121 3250 mt 4193 3250 L
4157 3214 mt 4157 3286 L
2479 2528 mt 2551 2528 L
2515 2492 mt 2515 2564 L
2523 2029 mt 2595 2029 L
2559 1993 mt 2559 2065 L
3745 2302 mt 3817 2302 L
3781 2266 mt 3781 2338 L
3421 3349 mt 3493 3349 L
3457 3313 mt 3457 3385 L
4390 3942 mt 4462 3942 L
4426 3906 mt 4426 3978 L
3780 2401 mt 3852 2401 L
3816 2365 mt 3816 2437 L
2634 3206 mt 2706 3206 L
2670 3170 mt 2670 3242 L
4416 3017 mt 4488 3017 L
4452 2981 mt 4452 3053 L
3751 2453 mt 3823 2453 L
3787 2417 mt 3787 2489 L
4041 2057 mt 4113 2057 L
4077 2021 mt 4077 2093 L
2888 2445 mt 2960 2445 L
2924 2409 mt 2924 2481 L
2267 2835 mt 2339 2835 L
2303 2799 mt 2303 2871 L
3638 3386 mt 3710 3386 L
3674 3350 mt 3674 3422 L
4482 1787 mt 4554 1787 L
4518 1751 mt 4518 1823 L
4054 1152 mt 4126 1152 L
4090 1116 mt 4090 1188 L
3809 2501 mt 3881 2501 L
3845 2465 mt 3845 2537 L
3398 2440 mt 3470 2440 L
3434 2404 mt 3434 2476 L
2781 3281 mt 2853 3281 L
2817 3245 mt 2817 3317 L
3958 2686 mt 4030 2686 L
3994 2650 mt 3994 2722 L
3046 2541 mt 3118 2541 L
3082 2505 mt 3082 2577 L
3683 1604 mt 3755 1604 L
3719 1568 mt 3719 1640 L
4852 1643 mt 4924 1643 L
4888 1607 mt 4888 1679 L
4522 1885 mt 4594 1885 L
4558 1849 mt 4558 1921 L
4330 2270 mt 4402 2270 L
4366 2234 mt 4366 2306 L
1965 2099 mt 2037 2099 L
2001 2063 mt 2001 2135 L
2444 2584 mt 2516 2584 L
2480 2548 mt 2480 2620 L
4067 1990 mt 4139 1990 L
4103 1954 mt 4103 2026 L
3499 1121 mt 3571 1121 L
3535 1085 mt 3535 1157 L
3510 2256 mt 3582 2256 L
3546 2220 mt 3546 2292 L
4444 1434 mt 4516 1434 L
4480 1398 mt 4480 1470 L
2723 3039 mt 2795 3039 L
2759 3003 mt 2759 3075 L
2235 3331 mt 2307 3331 L
2271 3295 mt 2271 3367 L
4941 1816 mt 5013 1816 L
4977 1780 mt 4977 1852 L
4094 3980 mt 4166 3980 L
4130 3944 mt 4130 4016 L
3393 1614 mt 3465 1614 L
3429 1578 mt 3429 1650 L
4512 2120 mt 4584 2120 L
4548 2084 mt 4548 2156 L
4435 2830 mt 4507 2830 L
4471 2794 mt 4471 2866 L
4314 2261 mt 4386 2261 L
4350 2225 mt 4350 2297 L
3410 2467 mt 3482 2467 L
3446 2431 mt 3446 2503 L
2706 1207 mt 2778 1207 L
2742 1171 mt 2742 1243 L
3740 2233 mt 3812 2233 L
3776 2197 mt 3776 2269 L
2987 4131 mt 3059 4131 L
3023 4095 mt 3023 4167 L
3000 2869 mt 3072 2869 L
3036 2833 mt 3036 2905 L
4251 1954 mt 4323 1954 L
4287 1918 mt 4287 1990 L
2165 1526 mt 2237 1526 L
2201 1490 mt 2201 1562 L
4184 1561 mt 4256 1561 L
4220 1525 mt 4220 1597 L
2689 2223 mt 2761 2223 L
2725 2187 mt 2725 2259 L
1766 3273 mt 1838 3273 L
1802 3237 mt 1802 3309 L
3814 2796 mt 3886 2796 L
3850 2760 mt 3850 2832 L
2715 2140 mt 2787 2140 L
2751 2104 mt 2751 2176 L
2146 3034 mt 2218 3034 L
2182 2998 mt 2182 3070 L
3844 3503 mt 3916 3503 L
3880 3467 mt 3880 3539 L
3381 1371 mt 3453 1371 L
3417 1335 mt 3417 1407 L
2565 1404 mt 2637 1404 L
2601 1368 mt 2601 1440 L
2931 3540 mt 3003 3540 L
2967 3504 mt 2967 3576 L
2218 2497 mt 2290 2497 L
2254 2461 mt 2254 2533 L
4243 1087 mt 4315 1087 L
4279 1051 mt 4279 1123 L
4574  898 mt 4646  898 L
4610  862 mt 4610  934 L
3897 2682 mt 3969 2682 L
3933 2646 mt 3933 2718 L
2106 2558 mt 2178 2558 L
2142 2522 mt 2142 2594 L
5002 2989 mt 5074 2989 L
5038 2953 mt 5038 3025 L
5180 2597 mt 5252 2597 L
5216 2561 mt 5216 2633 L
4643 1723 mt 4715 1723 L
4679 1687 mt 4679 1759 L
5365 1802 mt 5437 1802 L
5401 1766 mt 5401 1838 L
5245 1318 mt 5317 1318 L
5281 1282 mt 5281 1354 L
4981 1740 mt 5053 1740 L
5017 1704 mt 5017 1776 L
4961 1898 mt 5033 1898 L
4997 1862 mt 4997 1934 L
3493 2475 mt 3565 2475 L
3529 2439 mt 3529 2511 L
2959 2759 mt 3031 2759 L
2995 2723 mt 2995 2795 L
4282 3415 mt 4354 3415 L
4318 3379 mt 4318 3451 L
2595 3289 mt 2667 3289 L
2631 3253 mt 2631 3325 L
4553 2379 mt 4625 2379 L
4589 2343 mt 4589 2415 L
3330 2920 mt 3402 2920 L
3366 2884 mt 3366 2956 L
3278 2677 mt 3350 2677 L
3314 2641 mt 3314 2713 L
5047 1809 mt 5119 1809 L
5083 1773 mt 5083 1845 L
3267 3125 mt 3339 3125 L
3303 3089 mt 3303 3161 L
4002 3069 mt 4074 3069 L
4038 3033 mt 4038 3105 L
4463 1851 mt 4535 1851 L
4499 1815 mt 4499 1887 L
3129 1732 mt 3201 1732 L
3165 1696 mt 3165 1768 L
4290 1006 mt 4362 1006 L
4326  970 mt 4326 1042 L
3284 2410 mt 3356 2410 L
3320 2374 mt 3320 2446 L
5211 2523 mt 5283 2523 L
5247 2487 mt 5247 2559 L
4680 2175 mt 4752 2175 L
4716 2139 mt 4716 2211 L
3996 3641 mt 4068 3641 L
4032 3605 mt 4032 3677 L
4532 4205 mt 4604 4205 L
4568 4169 mt 4568 4241 L
3885 1794 mt 3957 1794 L
3921 1758 mt 3921 1830 L
3027 2012 mt 3099 2012 L
3063 1976 mt 3063 2048 L
4760 2480 mt 4832 2480 L
4796 2444 mt 4796 2516 L
3488 2713 mt 3560 2713 L
3524 2677 mt 3524 2749 L
3166 3527 mt 3238 3527 L
3202 3491 mt 3202 3563 L
3934 1878 mt 4006 1878 L
3970 1842 mt 3970 1914 L
5700 1572 mt 5772 1572 L
5736 1536 mt 5736 1608 L
4206 2265 mt 4278 2265 L
4242 2229 mt 4242 2301 L
4904 2051 mt 4976 2051 L
4940 2015 mt 4940 2087 L
3141 2519 mt 3213 2519 L
3177 2483 mt 3177 2555 L
3655 2145 mt 3727 2145 L
3691 2109 mt 3691 2181 L
2881 1911 mt 2953 1911 L
2917 1875 mt 2917 1947 L
4805 1917 mt 4877 1917 L
4841 1881 mt 4841 1953 L
4667 2615 mt 4739 2615 L
4703 2579 mt 4703 2651 L
2844 1514 mt 2916 1514 L
2880 1478 mt 2880 1550 L
4732 2170 mt 4804 2170 L
4768 2134 mt 4768 2206 L
3971 1689 mt 4043 1689 L
4007 1653 mt 4007 1725 L
3850 3191 mt 3922 3191 L
3886 3155 mt 3886 3227 L
4922 3774 mt 4994 3774 L
4958 3738 mt 4958 3810 L
3826 1978 mt 3898 1978 L
3862 1942 mt 3862 2014 L
3940 2641 mt 4012 2641 L
3976 2605 mt 3976 2677 L
2555 2356 mt 2627 2356 L
2591 2320 mt 2591 2392 L
4398 2109 mt 4470 2109 L
4434 2073 mt 4434 2145 L
3717 2370 mt 3789 2370 L
3753 2334 mt 3753 2406 L
3078 3235 mt 3150 3235 L
3114 3199 mt 3114 3271 L
4355 1984 mt 4427 1984 L
4391 1948 mt 4391 2020 L
4608 1823 mt 4680 1823 L
4644 1787 mt 4644 1859 L
4060 2311 mt 4132 2311 L
4096 2275 mt 4096 2347 L
2866 2046 mt 2938 2046 L
2902 2010 mt 2902 2082 L
3196 3625 mt 3268 3625 L
3232 3589 mt 3232 3661 L
3415 2536 mt 3487 2536 L
3451 2500 mt 3451 2572 L
2993  414 mt 3065  414 L
3029  378 mt 3029  450 L
3700 2436 mt 3772 2436 L
3736 2400 mt 3736 2472 L
2765 2764 mt 2837 2764 L
2801 2728 mt 2801 2800 L
3091 1634 mt 3163 1634 L
3127 1598 mt 3127 1670 L
4706 2606 mt 4778 2606 L
4742 2570 mt 4742 2642 L
4028  957 mt 4100  957 L
4064  921 mt 4064  993 L
4156 2659 mt 4228 2659 L
4192 2623 mt 4192 2695 L
3342 1049 mt 3414 1049 L
3378 1013 mt 3378 1085 L
4425 2307 mt 4497 2307 L
4461 2271 mt 4461 2343 L
2910 4023 mt 2982 4023 L
2946 3987 mt 2946 4059 L
5606  824 mt 5678  824 L
5642  788 mt 5642  860 L
5828 1502 mt 5900 1502 L
5864 1466 mt 5864 1538 L
4221 1680 mt 4293 1680 L
4257 1644 mt 4257 1716 L
4213 3011 mt 4285 3011 L
4249 2975 mt 4249 3047 L
2671 2089 mt 2743 2089 L
2707 2053 mt 2707 2125 L
3820 3822 mt 3892 3822 L
3856 3786 mt 3856 3858 L
3255 2325 mt 3327 2325 L
3291 2289 mt 3291 2361 L
2680 2024 mt 2752 2024 L
2716 1988 mt 2716 2060 L
3053 2792 mt 3125 2792 L
3089 2756 mt 3089 2828 L
3202 1948 mt 3274 1948 L
3238 1912 mt 3238 1984 L
2468 2722 mt 2540 2722 L
2504 2686 mt 2504 2758 L
5096  724 mt 5168  724 L
5132  688 mt 5132  760 L
4298 1845 mt 4370 1845 L
4334 1809 mt 4334 1881 L
3232 3093 mt 3304 3093 L
3268 3057 mt 3268 3129 L
4453 2104 mt 4525 2104 L
4489 2068 mt 4489 2140 L
5071 1298 mt 5143 1298 L
5107 1262 mt 5107 1334 L
3627 2879 mt 3699 2879 L
3663 2843 mt 3663 2915 L
3013 3005 mt 3085 3005 L
3049 2969 mt 3049 3041 L
2859 1550 mt 2931 1550 L
2895 1514 mt 2895 1586 L
3803 1419 mt 3875 1419 L
3839 1383 mt 3839 1455 L
3471 1892 mt 3543 1892 L
3507 1856 mt 3507 1928 L
4338 3184 mt 4410 3184 L
4374 3148 mt 4374 3220 L
4719 3099 mt 4791 3099 L
4755 3063 mt 4755 3135 L
5122 2978 mt 5194 2978 L
5158 2942 mt 5158 3014 L
2732 3479 mt 2804 3479 L
2768 3443 mt 2768 3515 L
4128 1772 mt 4200 1772 L
4164 1736 mt 4164 1808 L
3249 2820 mt 3321 2820 L
3285 2784 mt 3285 2856 L
4693 1476 mt 4765 1476 L
4729 1440 mt 4729 1512 L
3438 3220 mt 3510 3220 L
3474 3184 mt 3474 3256 L
3160 2388 mt 3232 2388 L
3196 2352 mt 3196 2424 L
3290 2334 mt 3362 2334 L
3326 2298 mt 3326 2370 L
3555 3106 mt 3627 3106 L
3591 3070 mt 3591 3142 L
4274 2067 mt 4346 2067 L
4310 2031 mt 4310 2103 L
3477 2040 mt 3549 2040 L
3513 2004 mt 3513 2076 L
3734 1448 mt 3806 1448 L
3770 1412 mt 3770 1484 L
3927 3675 mt 3999 3675 L
3963 3639 mt 3963 3711 L
6033 1181 mt 6105 1181 L
6069 1145 mt 6069 1217 L
3582 1653 mt 3654 1653 L
3618 1617 mt 3618 1689 L
2126 3877 mt 2198 3877 L
2162 3841 mt 2162 3913 L
3791 1972 mt 3863 1972 L
3827 1936 mt 3827 2008 L
3560 3340 mt 3632 3340 L
3596 3304 mt 3596 3376 L
3768 3112 mt 3840 3112 L
3804 3076 mt 3804 3148 L
3677 2994 mt 3749 2994 L
3713 2958 mt 3713 3030 L
3527 3118 mt 3599 3118 L
3563 3082 mt 3563 3154 L
3313 4305 mt 3385 4305 L
3349 4269 mt 3349 4341 L
1556 3151 mt 1628 3151 L
1592 3115 mt 1592 3187 L
3020 2488 mt 3092 2488 L
3056 2452 mt 3056 2524 L
3588 2914 mt 3660 2914 L
3624 2878 mt 3624 2950 L
3549 1277 mt 3621 1277 L
3585 1241 mt 3585 1313 L
3302 2727 mt 3374 2727 L
3338 2691 mt 3338 2763 L
3861 2035 mt 3933 2035 L
3897 1999 mt 3897 2071 L
2368 1336 mt 2440 1336 L
2404 1300 mt 2404 1372 L
3135 1942 mt 3207 1942 L
3171 1906 mt 3171 1978 L
2575 2884 mt 2647 2884 L
2611 2848 mt 2611 2920 L
2874 2768 mt 2946 2768 L
2910 2732 mt 2910 2804 L
4100 2365 mt 4172 2365 L
4136 2329 mt 4136 2401 L
2624 2593 mt 2696 2593 L
2660 2557 mt 2660 2629 L
3867 2150 mt 3939 2150 L
3903 2114 mt 3903 2186 L
4501 2449 mt 4573 2449 L
4537 2413 mt 4537 2485 L
2381 3711 mt 2453 3711 L
2417 3675 mt 2417 3747 L
3104 2427 mt 3176 2427 L
3140 2391 mt 3140 2463 L
4191 2864 mt 4263 2864 L
4227 2828 mt 4227 2900 L
3482 4616 mt 3554 4616 L
3518 4580 mt 3518 4652 L
4619 1538 mt 4691 1538 L
4655 1502 mt 4655 1574 L
4564 1255 mt 4636 1255 L
4600 1219 mt 4600 1291 L
3594 1838 mt 3666 1838 L
3630 1802 mt 3630 1874 L
4492 1748 mt 4564 1748 L
4528 1712 mt 4528 1784 L
5150 2374 mt 5222 2374 L
5186 2338 mt 5186 2410 L
3098 2125 mt 3170 2125 L
3134 2089 mt 3134 2161 L
4655 2889 mt 4727 2889 L
4691 2853 mt 4691 2925 L
1937 3491 mt 2009 3491 L
1973 3455 mt 1973 3527 L
2201 2532 mt 2273 2532 L
2237 2496 mt 2237 2568 L
3066 2194 mt 3138 2194 L
3102 2158 mt 3102 2230 L
3307 2745 mt 3379 2745 L
3343 2709 mt 3343 2781 L
1805 2750 mt 1877 2750 L
1841 2714 mt 1841 2786 L
3208 1354 mt 3280 1354 L
3244 1318 mt 3244 1390 L
2282 3595 mt 2354 3595 L
2318 3559 mt 2318 3631 L
5468 1671 mt 5540 1671 L
5504 1635 mt 5504 1707 L
4266 1831 mt 4338 1831 L
4302 1795 mt 4302 1867 L
1481 2655 mt 1553 2655 L
1517 2619 mt 1517 2691 L
5413 1995 mt 5485 1995 L
5449 1959 mt 5449 2031 L
3666 2650 mt 3738 2650 L
3702 2614 mt 3702 2686 L
3909 3436 mt 3981 3436 L
3945 3400 mt 3945 3472 L
3184 3000 mt 3256 3000 L
3220 2964 mt 3220 3036 L
3610 2214 mt 3682 2214 L
3646 2178 mt 3646 2250 L
2513 2392 mt 2585 2392 L
2549 2356 mt 2549 2428 L
3466 2633 mt 3538 2633 L
3502 2597 mt 3502 2669 L
4347 2279 mt 4419 2279 L
4383 2243 mt 4383 2315 L
3983  564 mt 4055  564 L
4019  528 mt 4019  600 L
5321 2204 mt 5393 2204 L
5357 2168 mt 5357 2240 L
3605 2951 mt 3677 2951 L
3641 2915 mt 3641 2987 L
3577 2811 mt 3649 2811 L
3613 2775 mt 3613 2847 L
3785 2180 mt 3857 2180 L
3821 2144 mt 3821 2216 L
2828 2007 mt 2900 2007 L
2864 1971 mt 2864 2043 L
4597 1756 mt 4669 1756 L
4633 1720 mt 4633 1792 L
gs 899 414 5363 4203 rc
gr

0 sg
2799 5104 mt 
(\(F,DCTs,iMLP\)) s
 482 3300 mt  -90 rotate
(\(F,DCTb,iMLP\)) s
90 rotate
2975  223 mt 
(Corr = 0.28) s

end %%Color Dict

eplot
%%EndObject

epage
end

showpage

%%Trailer
%%EOF
