%!PS-Adobe-3.0 EPSF-3.0
%%Creator: MATLAB, The Mathworks, Inc. Version 7.7.0.471 (R2008b). Operating System: Microsoft Windows XP.
%%Title: Pictures\main_zoo_mvar_analysis_data_BMI_xcorr_bmig_p2_k1_1_3.eps
%%CreationDate: 10/26/2009  05:45:37
%%DocumentNeededFonts: Helvetica
%%DocumentProcessColors: Cyan Magenta Yellow Black
%%LanguageLevel: 2
%%Pages: 1
%%BoundingBox:    37   180   549   616
%%EndComments

%%BeginProlog
% MathWorks dictionary
/MathWorks 160 dict begin
% definition operators
/bdef {bind def} bind def
/ldef {load def} bind def
/xdef {exch def} bdef
/xstore {exch store} bdef
% operator abbreviations
/c  /clip ldef
/cc /concat ldef
/cp /closepath ldef
/gr /grestore ldef
/gs /gsave ldef
/mt /moveto ldef
/np /newpath ldef
/cm /currentmatrix ldef
/sm /setmatrix ldef
/rm /rmoveto ldef
/rl /rlineto ldef
/s {show newpath} bdef
/sc {setcmykcolor} bdef
/sr /setrgbcolor ldef
/sg /setgray ldef
/w /setlinewidth ldef
/j /setlinejoin ldef
/cap /setlinecap ldef
/rc {rectclip} bdef
/rf {rectfill} bdef
% page state control
/pgsv () def
/bpage {/pgsv save def} bdef
/epage {pgsv restore} bdef
/bplot /gsave ldef
/eplot {stroke grestore} bdef
% orientation switch
/portraitMode 0 def /landscapeMode 1 def /rotateMode 2 def
% coordinate system mappings
/dpi2point 0 def
% font control
/FontSize 0 def
/FMS {/FontSize xstore findfont [FontSize 0 0 FontSize neg 0 0]
  makefont setfont} bdef
/ISOLatin1Encoding where {pop /WindowsLatin1Encoding 256 array bdef
ISOLatin1Encoding WindowsLatin1Encoding copy pop
/.notdef/.notdef/quotesinglbase/florin/quotedblbase/ellipsis/dagger
/daggerdbl/circumflex/perthousand/Scaron/guilsinglleft/OE/.notdef/.notdef
/.notdef/.notdef/quoteleft/quoteright/quotedblleft/quotedblright/bullet
/endash/emdash/tilde/trademark/scaron/guilsinglright/oe/.notdef/.notdef
/Ydieresis WindowsLatin1Encoding 128 32 getinterval astore pop}
{/WindowsLatin1Encoding StandardEncoding bdef} ifelse
/reencode {exch dup where {pop load} {pop StandardEncoding} ifelse
  exch dup 3 1 roll findfont dup length dict begin
  { 1 index /FID ne {def}{pop pop} ifelse } forall
  /Encoding exch def currentdict end definefont pop} bdef
/isroman {findfont /CharStrings get /Agrave known} bdef
/FMSR {3 1 roll 1 index dup isroman {reencode} {pop pop} ifelse
  exch FMS} bdef
/csm {1 dpi2point div -1 dpi2point div scale neg translate
 dup landscapeMode eq {pop -90 rotate}
  {rotateMode eq {90 rotate} if} ifelse} bdef
% line types: solid, dotted, dashed, dotdash
/SO { [] 0 setdash } bdef
/DO { [.5 dpi2point mul 4 dpi2point mul] 0 setdash } bdef
/DA { [6 dpi2point mul] 0 setdash } bdef
/DD { [.5 dpi2point mul 4 dpi2point mul 6 dpi2point mul 4
  dpi2point mul] 0 setdash } bdef
% macros for lines and objects
/L {lineto stroke} bdef
/MP {3 1 roll moveto 1 sub {rlineto} repeat} bdef
/AP {{rlineto} repeat} bdef
/PDlw -1 def
/W {/PDlw currentlinewidth def setlinewidth} def
/PP {closepath eofill} bdef
/DP {closepath stroke} bdef
/MR {4 -2 roll moveto dup  0 exch rlineto exch 0 rlineto
  neg 0 exch rlineto closepath} bdef
/FR {MR stroke} bdef
/PR {MR fill} bdef
/L1i {{currentfile picstr readhexstring pop} image} bdef
/tMatrix matrix def
/MakeOval {newpath tMatrix currentmatrix pop translate scale
0 0 1 0 360 arc tMatrix setmatrix} bdef
/FO {MakeOval stroke} bdef
/PO {MakeOval fill} bdef
/PD {currentlinewidth 2 div 0 360 arc fill
   PDlw -1 eq not {PDlw w /PDlw -1 def} if} def
/FA {newpath tMatrix currentmatrix pop translate scale
  0 0 1 5 -2 roll arc tMatrix setmatrix stroke} bdef
/PA {newpath tMatrix currentmatrix pop	translate 0 0 moveto scale
  0 0 1 5 -2 roll arc closepath tMatrix setmatrix fill} bdef
/FAn {newpath tMatrix currentmatrix pop translate scale
  0 0 1 5 -2 roll arcn tMatrix setmatrix stroke} bdef
/PAn {newpath tMatrix currentmatrix pop translate 0 0 moveto scale
  0 0 1 5 -2 roll arcn closepath tMatrix setmatrix fill} bdef
/vradius 0 def /hradius 0 def /lry 0 def
/lrx 0 def /uly 0 def /ulx 0 def /rad 0 def
/MRR {/vradius xdef /hradius xdef /lry xdef /lrx xdef /uly xdef
  /ulx xdef newpath tMatrix currentmatrix pop ulx hradius add uly
  vradius add translate hradius vradius scale 0 0 1 180 270 arc 
  tMatrix setmatrix lrx hradius sub uly vradius add translate
  hradius vradius scale 0 0 1 270 360 arc tMatrix setmatrix
  lrx hradius sub lry vradius sub translate hradius vradius scale
  0 0 1 0 90 arc tMatrix setmatrix ulx hradius add lry vradius sub
  translate hradius vradius scale 0 0 1 90 180 arc tMatrix setmatrix
  closepath} bdef
/FRR {MRR stroke } bdef
/PRR {MRR fill } bdef
/MlrRR {/lry xdef /lrx xdef /uly xdef /ulx xdef /rad lry uly sub 2 div def
  newpath tMatrix currentmatrix pop ulx rad add uly rad add translate
  rad rad scale 0 0 1 90 270 arc tMatrix setmatrix lrx rad sub lry rad
  sub translate rad rad scale 0 0 1 270 90 arc tMatrix setmatrix
  closepath} bdef
/FlrRR {MlrRR stroke } bdef
/PlrRR {MlrRR fill } bdef
/MtbRR {/lry xdef /lrx xdef /uly xdef /ulx xdef /rad lrx ulx sub 2 div def
  newpath tMatrix currentmatrix pop ulx rad add uly rad add translate
  rad rad scale 0 0 1 180 360 arc tMatrix setmatrix lrx rad sub lry rad
  sub translate rad rad scale 0 0 1 0 180 arc tMatrix setmatrix
  closepath} bdef
/FtbRR {MtbRR stroke } bdef
/PtbRR {MtbRR fill } bdef
/stri 6 array def /dtri 6 array def
/smat 6 array def /dmat 6 array def
/tmat1 6 array def /tmat2 6 array def /dif 3 array def
/asub {/ind2 exch def /ind1 exch def dup dup
  ind1 get exch ind2 get sub exch } bdef
/tri_to_matrix {
  2 0 asub 3 1 asub 4 0 asub 5 1 asub
  dup 0 get exch 1 get 7 -1 roll astore } bdef
/compute_transform {
  dmat dtri tri_to_matrix tmat1 invertmatrix 
  smat stri tri_to_matrix tmat2 concatmatrix } bdef
/ds {stri astore pop} bdef
/dt {dtri astore pop} bdef
/db {2 copy /cols xdef /rows xdef mul dup 3 mul string
  currentfile 
  3 index 0 eq {/ASCIIHexDecode filter}
  {/ASCII85Decode filter 3 index 2 eq {/RunLengthDecode filter} if }
  ifelse exch readstring pop
  dup 0 3 index getinterval /rbmap xdef
  dup 2 index dup getinterval /gbmap xdef
  1 index dup 2 mul exch getinterval /bbmap xdef pop pop}bdef
/it {gs np dtri aload pop moveto lineto lineto cp c
  cols rows 8 compute_transform 
  rbmap gbmap bbmap true 3 colorimage gr}bdef
/il {newpath moveto lineto stroke}bdef
currentdict end def
%%EndProlog

%%BeginSetup
MathWorks begin

0 cap

end
%%EndSetup

%%Page: 1 1
%%BeginPageSetup
%%PageBoundingBox:    37   180   549   616
MathWorks begin
bpage
%%EndPageSetup

%%BeginObject: obj1
bplot

/dpi2point 12 def
portraitMode 0216 7344 csm

  234   -48  6149  5231 rc
85 dict begin %Colortable dictionary
/c0 { 0.000000 0.000000 0.000000 sr} bdef
/c1 { 1.000000 1.000000 1.000000 sr} bdef
/c2 { 0.900000 0.000000 0.000000 sr} bdef
/c3 { 0.000000 0.820000 0.000000 sr} bdef
/c4 { 0.000000 0.000000 0.800000 sr} bdef
/c5 { 0.910000 0.820000 0.320000 sr} bdef
/c6 { 1.000000 0.260000 0.820000 sr} bdef
/c7 { 0.000000 0.820000 0.820000 sr} bdef
c0
1 j
1 sg
   0    0 6919 5187 rf
6 w
0 4202 5362 0 0 -4202 899 4616 4 MP
PP
-5362 0 0 4202 5362 0 0 -4202 899 4616 5 MP stroke
4 w
DO
SO
6 w
0 sg
 899  414 mt 6261  414 L
 899 4616 mt 6261 4616 L
6261 4616 mt 6261  414 L
 899 4616 mt  899  414 L
 899 4616 mt 6261 4616 L
 899 4616 mt  899  414 L
 919 4616 mt  919 4562 L
 919  414 mt  919  467 L
%%IncludeResource: font Helvetica
/Helvetica /WindowsLatin1Encoding 240 FMSR

 713 4873 mt 
(-3) s
1806 4616 mt 1806 4562 L
1806  414 mt 1806  467 L
1600 4873 mt 
(-2) s
2693 4616 mt 2693 4562 L
2693  414 mt 2693  467 L
2487 4873 mt 
(-1) s
3580 4616 mt 3580 4562 L
3580  414 mt 3580  467 L
3514 4873 mt 
(0) s
4466 4616 mt 4466 4562 L
4466  414 mt 4466  467 L
4400 4873 mt 
(1) s
5353 4616 mt 5353 4562 L
5353  414 mt 5353  467 L
5287 4873 mt 
(2) s
6240 4616 mt 6240 4562 L
6240  414 mt 6240  467 L
6174 4873 mt 
(3) s
 899 4599 mt  952 4599 L
6261 4599 mt 6207 4599 L
 591 4688 mt 
(-3) s
 899 3904 mt  952 3904 L
6261 3904 mt 6207 3904 L
 591 3993 mt 
(-2) s
 899 3209 mt  952 3209 L
6261 3209 mt 6207 3209 L
 591 3298 mt 
(-1) s
 899 2514 mt  952 2514 L
6261 2514 mt 6207 2514 L
 731 2603 mt 
(0) s
 899 1820 mt  952 1820 L
6261 1820 mt 6207 1820 L
 731 1909 mt 
(1) s
 899 1125 mt  952 1125 L
6261 1125 mt 6207 1125 L
 731 1214 mt 
(2) s
 899  430 mt  952  430 L
6261  430 mt 6207  430 L
 731  519 mt 
(3) s
 899  414 mt 6261  414 L
 899 4616 mt 6261 4616 L
6261 4616 mt 6261  414 L
 899 4616 mt  899  414 L
gs 899 414 5363 4203 rc
gr

/c8 { 0.000000 0.000000 1.000000 sr} bdef
c8
4047  414 mt 4119  414 L
4083  378 mt 4083  450 L
2523 2462 mt 2595 2462 L
2559 2426 mt 2559 2498 L
3915 2844 mt 3987 2844 L
3951 2808 mt 3951 2880 L
3571 2265 mt 3643 2265 L
3607 2229 mt 3607 2301 L
3605 3774 mt 3677 3774 L
3641 3738 mt 3641 3810 L
2085 4616 mt 2157 4616 L
2121 4580 mt 2121 4652 L
1766 1489 mt 1838 1489 L
1802 1453 mt 1802 1525 L
3538 2835 mt 3610 2835 L
3574 2799 mt 3574 2871 L
3599 2396 mt 3671 2396 L
3635 2360 mt 3635 2432 L
5024 1643 mt 5096 1643 L
5060 1607 mt 5060 1679 L
2844 2989 mt 2916 2989 L
2880 2953 mt 2880 3025 L
2732 3822 mt 2804 3822 L
2768 3786 mt 2768 3858 L
2805 2584 mt 2877 2584 L
2841 2548 mt 2841 2620 L
3432 3306 mt 3504 3306 L
3468 3270 mt 3468 3342 L
3977 2796 mt 4049 2796 L
4013 2760 mt 4013 2832 L
4282 1794 mt 4354 1794 L
4318 1758 mt 4318 1830 L
1876 1404 mt 1948 1404 L
1912 1368 mt 1912 1440 L
3443 2825 mt 3515 2825 L
3479 2789 mt 3479 2861 L
2368 2801 mt 2440 2801 L
2404 2765 mt 2404 2837 L
4553 1671 mt 4625 1671 L
4589 1635 mt 4589 1707 L
2896 2830 mt 2968 2830 L
2932 2794 mt 2932 2866 L
2126 2298 mt 2198 2298 L
2162 2262 mt 2162 2334 L
3867 2150 mt 3939 2150 L
3903 2114 mt 3903 2186 L
3033 3376 mt 3105 3376 L
3069 3340 mt 3069 3412 L
4922 2237 mt 4994 2237 L
4958 2201 mt 4958 2273 L
3762 2475 mt 3834 2475 L
3798 2439 mt 3798 2511 L
2781 1948 mt 2853 1948 L
2817 1912 mt 2817 1984 L
3971 2925 mt 4043 2925 L
4007 2889 mt 4007 2961 L
3190 3581 mt 3262 3581 L
3226 3545 mt 3226 3617 L
4574 2641 mt 4646 2641 L
4610 2605 mt 4610 2677 L
3278 1604 mt 3350 1604 L
3314 1568 mt 3314 1640 L
3184 2185 mt 3256 2185 L
3220 2149 mt 3220 2221 L
3774 2449 mt 3846 2449 L
3810 2413 mt 3810 2485 L
4760 1723 mt 4832 1723 L
4796 1687 mt 4796 1759 L
1937 3198 mt 2009 3198 L
1973 3162 mt 1973 3234 L
3290 2637 mt 3362 2637 L
3326 2601 mt 3326 2673 L
4322 2904 mt 4394 2904 L
4358 2868 mt 4358 2940 L
4121 2209 mt 4193 2209 L
4157 2173 mt 4157 2245 L
1907 2983 mt 1979 2983 L
1943 2947 mt 1943 3019 L
2251 1538 mt 2323 1538 L
2287 1502 mt 2287 1574 L
2165 3157 mt 2237 3157 L
2201 3121 mt 2201 3193 L
3594 1995 mt 3666 1995 L
3630 1959 mt 3630 2031 L
3454 2029 mt 3526 2029 L
3490 1993 mt 3490 2065 L
3677 2307 mt 3749 2307 L
3713 2271 mt 3713 2343 L
5828 1911 mt 5900 1911 L
5864 1875 mt 5864 1947 L
3672 3137 mt 3744 3137 L
3708 3101 mt 3708 3173 L
3085 1371 mt 3157 1371 L
3121 1335 mt 3121 1407 L
4330 2199 mt 4402 2199 L
4366 2163 mt 4366 2235 L
3110 2994 mt 3182 2994 L
3146 2958 mt 3146 3030 L
2298 3081 mt 2370 3081 L
2334 3045 mt 2334 3117 L
3838 3349 mt 3910 3349 L
3874 3313 mt 3874 3385 L
4021 2316 mt 4093 2316 L
4057 2280 mt 4057 2352 L
3946 3191 mt 4018 3191 L
3982 3155 mt 3982 3227 L
3160 2233 mt 3232 2233 L
3196 2197 mt 3196 2269 L
4100 2664 mt 4172 2664 L
4136 2628 mt 4136 2700 L
3232 2501 mt 3304 2501 L
3268 2465 mt 3268 2537 L
3521 3045 mt 3593 3045 L
3557 3009 mt 3557 3081 L
2993 3000 mt 3065 3000 L
3029 2964 mt 3029 3036 L
4243 2967 mt 4315 2967 L
4279 2931 mt 4279 3003 L
3850 3151 mt 3922 3151 L
3886 3115 mt 3886 3187 L
3633 2018 mt 3705 2018 L
3669 1982 mt 3669 2054 L
4228 2488 mt 4300 2488 L
4264 2452 mt 4264 2524 L
4522 1121 mt 4594 1121 L
4558 1085 mt 4558 1157 L
4444 1878 mt 4516 1878 L
4480 1842 mt 4480 1914 L
4080 1972 mt 4152 1972 L
4116 1936 mt 4116 2008 L
3243 1845 mt 3315 1845 L
3279 1809 mt 3279 1881 L
4135 2718 mt 4207 2718 L
4171 2682 mt 4171 2754 L
4094 2602 mt 4166 2602 L
4130 2566 mt 4130 2638 L
3336 2874 mt 3408 2874 L
3372 2838 mt 3372 2910 L
3342 2580 mt 3414 2580 L
3378 2544 mt 3378 2616 L
4149 2356 mt 4221 2356 L
4185 2320 mt 4185 2392 L
3505 3125 mt 3577 3125 L
3541 3089 mt 3541 3161 L
3516 2811 mt 3588 2811 L
3552 2775 mt 3552 2847 L
2723 3415 mt 2795 3415 L
2759 3379 mt 2759 3451 L
2456 2736 mt 2528 2736 L
2492 2700 mt 2492 2772 L
2874 2606 mt 2946 2606 L
2910 2570 mt 2910 2642 L
5413 3468 mt 5485 3468 L
5449 3432 mt 5449 3504 L
2444 4023 mt 2516 4023 L
2480 3987 mt 2480 4059 L
2789 1978 mt 2861 1978 L
2825 1942 mt 2825 2014 L
4416 2920 mt 4488 2920 L
4452 2884 mt 4452 2956 L
4002 2510 mt 4074 2510 L
4038 2474 mt 4038 2546 L
2513 2001 mt 2585 2001 L
2549 1965 mt 2549 2037 L
3768 1448 mt 3840 1448 L
3804 1412 mt 3804 1484 L
3814 2536 mt 3886 2536 L
3850 2500 mt 3850 2572 L
5468 1152 mt 5540 1152 L
5504 1116 mt 5504 1188 L
3059 2668 mt 3131 2668 L
3095 2632 mt 3095 2704 L
3072 3005 mt 3144 3005 L
3108 2969 mt 3108 3041 L
4886 3087 mt 4958 3087 L
4922 3051 mt 4922 3123 L
3527 2567 mt 3599 2567 L
3563 2531 mt 3563 2603 L
3078 2320 mt 3150 2320 L
3114 2284 mt 3114 2356 L
4532 2256 mt 4604 2256 L
4568 2220 mt 4568 2292 L
4364 2288 mt 4436 2288 L
4400 2252 mt 4400 2324 L
2797 3367 mt 2869 3367 L
2833 3331 mt 2833 3403 L
4347 2673 mt 4419 2673 L
4383 2637 mt 4383 2709 L
3153 2633 mt 3225 2633 L
3189 2597 mt 3189 2669 L
2634 2436 mt 2706 2436 L
2670 2400 mt 2670 2472 L
3983 2094 mt 4055 2094 L
4019 2058 mt 4019 2130 L
4631 3340 mt 4703 3340 L
4667 3304 mt 4667 3376 L
4961 2405 mt 5033 2405 L
4997 2369 mt 4997 2441 L
3616 3069 mt 3688 3069 L
3652 3033 mt 3652 3105 L
3020 1049 mt 3092 1049 L
3056 1013 mt 3056 1085 L
2575 2440 mt 2647 2440 L
2611 2404 mt 2611 2476 L
3261 1006 mt 3333 1006 L
3297  970 mt 3297 1042 L
3319 2909 mt 3391 2909 L
3355 2873 mt 3355 2945 L
3855 2773 mt 3927 2773 L
3891 2737 mt 3891 2809 L
3007 3057 mt 3079 3057 L
3043 3021 mt 3043 3093 L
3066 3540 mt 3138 3540 L
3102 3504 mt 3102 3576 L
4512 2135 mt 4584 2135 L
4548 2099 mt 4548 2171 L
2327 2700 mt 2399 2700 L
2363 2664 mt 2363 2736 L
1674 2374 mt 1746 2374 L
1710 2338 mt 1710 2410 L
5606 3395 mt 5678 3395 L
5642 3359 mt 5642 3431 L
3267 2589 mt 3339 2589 L
3303 2553 mt 3303 2625 L
2586 2554 mt 2658 2554 L
2622 2518 mt 2622 2590 L
3891 3011 mt 3963 3011 L
3927 2975 mt 3927 3047 L
3897 2646 mt 3969 2646 L
3933 2610 mt 3933 2682 L
1965 3567 mt 2037 3567 L
2001 3531 mt 2001 3603 L
3172 1851 mt 3244 1851 L
3208 1815 mt 3208 1887 L
1259 2894 mt 1331 2894 L
1295 2858 mt 1295 2930 L
3661 2576 mt 3733 2576 L
3697 2540 mt 3697 2612 L
3694 1388 mt 3766 1388 L
3730 1352 mt 3730 1424 L
3477 2655 mt 3549 2655 L
3513 2619 mt 3513 2691 L
2973 2270 mt 3045 2270 L
3009 2234 mt 3009 2306 L
3141 3093 mt 3213 3093 L
3177 3057 mt 3177 3129 L
2945 1740 mt 3017 1740 L
2981 1704 mt 2981 1776 L
3196 2189 mt 3268 2189 L
3232 2153 mt 3232 2225 L
2555 3220 mt 2627 3220 L
2591 3184 mt 2591 3256 L
3510 2759 mt 3582 2759 L
3546 2723 mt 3546 2795 L
3482 2940 mt 3554 2940 L
3518 2904 mt 3518 2976 L
3717 2750 mt 3789 2750 L
3753 2714 mt 3753 2786 L
4266 2125 mt 4338 2125 L
4302 2089 mt 4302 2161 L
4643 2067 mt 4715 2067 L
4679 2031 mt 4679 2103 L
4314 2194 mt 4386 2194 L
4350 2158 mt 4350 2230 L
3381 3358 mt 3453 3358 L
3417 3322 mt 3417 3394 L
3116 2445 mt 3188 2445 L
3152 2409 mt 3152 2481 L
4184 2062 mt 4256 2062 L
4220 2026 mt 4220 2098 L
3135 2480 mt 3207 2480 L
3171 2444 mt 3171 2516 L
3284 2727 mt 3356 2727 L
3320 2691 mt 3320 2763 L
4034 2458 mt 4106 2458 L
4070 2422 mt 4070 2494 L
1805 2571 mt 1877 2571 L
1841 2535 mt 1841 2607 L
1842 1954 mt 1914 1954 L
1878 1918 mt 1878 1990 L
3237 2951 mt 3309 2951 L
3273 2915 mt 3273 2987 L
4355 3877 mt 4427 3877 L
4391 3841 mt 4391 3913 L
5047 1680 mt 5119 1680 L
5083 1644 mt 5083 1716 L
4067 2284 mt 4139 2284 L
4103 2248 mt 4103 2320 L
3832 2815 mt 3904 2815 L
3868 2779 mt 3868 2851 L
4542 2432 mt 4614 2432 L
4578 2396 mt 4578 2468 L
3178 3711 mt 3250 3711 L
3214 3675 mt 3214 3747 L
4619 3980 mt 4691 3980 L
4655 3944 mt 4655 4016 L
5180 3265 mt 5252 3265 L
5216 3229 mt 5216 3301 L
4041 2024 mt 4113 2024 L
4077 1988 mt 4077 2060 L
5245 3099 mt 5317 3099 L
5281 3063 mt 5281 3135 L
3220 2379 mt 3292 2379 L
3256 2343 mt 3256 2415 L
3104 1756 mt 3176 1756 L
3140 1720 mt 3140 1792 L
4156 2628 mt 4228 2628 L
4192 2592 mt 4192 2664 L
4667 2078 mt 4739 2078 L
4703 2042 mt 4703 2114 L
4564 3034 mt 4636 3034 L
4600 2998 mt 4600 3070 L
2959 2471 mt 3031 2471 L
2995 2435 mt 2995 2507 L
2671 1823 mt 2743 1823 L
2707 1787 mt 2707 1859 L
3226 3942 mt 3298 3942 L
3262 3906 mt 3262 3978 L
4221 3051 mt 4293 3051 L
4257 3015 mt 4257 3087 L
3627 2792 mt 3699 2792 L
3663 2756 mt 3663 2828 L
2643 3273 mt 2715 3273 L
2679 3237 mt 2679 3309 L
2312 1614 mt 2384 1614 L
2348 1578 mt 2348 1650 L
3330 2514 mt 3402 2514 L
3366 2478 mt 3366 2550 L
3560 2722 mt 3632 2722 L
3596 2686 mt 3596 2758 L
2888 2099 mt 2960 2099 L
2924 2063 mt 2924 2135 L
4472 1936 mt 4544 1936 L
4508 1900 mt 4508 1972 L
2490 2392 mt 2562 2392 L
2526 2356 mt 2526 2428 L
2341 2325 mt 2413 2325 L
2377 2289 mt 2377 2361 L
2938 2545 mt 3010 2545 L
2974 2509 mt 2974 2581 L
2773 1715 mt 2845 1715 L
2809 1679 mt 2809 1751 L
3466 2115 mt 3538 2115 L
3502 2079 mt 3502 2151 L
3780 2051 mt 3852 2051 L
3816 2015 mt 3816 2087 L
3809 2597 mt 3881 2597 L
3845 2561 mt 3845 2633 L
3370 2214 mt 3442 2214 L
3406 2178 mt 3406 2250 L
1481 4305 mt 1553 4305 L
1517 4269 mt 1517 4341 L
3296 2160 mt 3368 2160 L
3332 2124 mt 3332 2196 L
4398 2899 mt 4470 2899 L
4434 2863 mt 4434 2935 L
3415 1232 mt 3487 1232 L
3451 1196 mt 3451 1268 L
3449 2849 mt 3521 2849 L
3485 2813 mt 3485 2885 L
3740 2120 mt 3812 2120 L
3776 2084 mt 3776 2156 L
5211 1255 mt 5283 1255 L
5247 1219 mt 5247 1291 L
4372 1462 mt 4444 1462 L
4408 1426 mt 4408 1498 L
2624 2528 mt 2696 2528 L
2660 2492 mt 2660 2564 L
4608 3106 mt 4680 3106 L
4644 3070 mt 4644 3142 L
4015 1662 mt 4087 1662 L
4051 1626 mt 4051 1698 L
3582 2145 mt 3654 2145 L
3618 2109 mt 3618 2181 L
2565 3112 mt 2637 3112 L
2601 3076 mt 2601 3148 L
4775 2754 mt 4847 2754 L
4811 2718 mt 4811 2790 L
2689 1526 mt 2761 1526 L
2725 1490 mt 2725 1562 L
3549 2347 mt 3621 2347 L
3585 2311 mt 3585 2383 L
4655 2046 mt 4727 2046 L
4691 2010 mt 4691 2082 L
3577 1885 mt 3649 1885 L
3613 1849 mt 3613 1921 L
2987 2383 mt 3059 2383 L
3023 2347 mt 3023 2419 L
3202 3446 mt 3274 3446 L
3238 3410 mt 3238 3482 L
4009  898 mt 4081  898 L
4045  862 mt 4045  934 L
2381 2180 mt 2453 2180 L
2417 2144 mt 2417 2216 L
3734 1550 mt 3806 1550 L
3770 1514 mt 3770 1586 L
2063 2562 mt 2135 2562 L
2099 2526 mt 2099 2598 L
2757 3527 mt 2829 3527 L
2793 3491 mt 2793 3563 L
3861  564 mt 3933  564 L
3897  528 mt 3897  600 L
2828 1865 mt 2900 1865 L
2864 1829 mt 2864 1901 L
4820 3331 mt 4892 3331 L
4856 3295 mt 4856 3367 L
3438 2806 mt 3510 2806 L
3474 2770 mt 3474 2842 L
3879 2930 mt 3951 2930 L
3915 2894 mt 3915 2966 L
2652 2352 mt 2724 2352 L
2688 2316 mt 2688 2388 L
2749 1772 mt 2821 1772 L
2785 1736 mt 2785 1808 L
4142 1942 mt 4214 1942 L
4178 1906 mt 4178 1978 L
3757 2484 mt 3829 2484 L
3793 2448 mt 3793 2520 L
4805 1764 mt 4877 1764 L
4841 1728 mt 4841 1800 L
2931 2820 mt 3003 2820 L
2967 2784 mt 2967 2856 L
2106 2155 mt 2178 2155 L
2142 2119 mt 2142 2191 L
3123 2523 mt 3195 2523 L
3159 2487 mt 3159 2559 L
3655 2057 mt 3727 2057 L
3691 2021 mt 3691 2093 L
3426 2972 mt 3498 2972 L
3462 2936 mt 3462 3008 L
4746 1502 mt 4818 1502 L
4782 1466 mt 4782 1538 L
2218 1476 mt 2290 1476 L
2254 1440 mt 2254 1512 L
2697 3457 mt 2769 3457 L
2733 3421 mt 2733 3493 L
2183 2302 mt 2255 2302 L
2219 2266 mt 2219 2338 L
4191 1561 mt 4263 1561 L
4227 1525 mt 4227 1597 L
3359 3675 mt 3431 3675 L
3395 3639 mt 3395 3711 L
2924 3235 mt 2996 3235 L
2960 3199 mt 2960 3271 L
4060 1858 mt 4132 1858 L
4096 1822 mt 4096 1894 L
3471 2343 mt 3543 2343 L
3507 2307 mt 3507 2379 L
3751 2410 mt 3823 2410 L
3787 2374 mt 3787 2446 L
3214 3213 mt 3286 3213 L
3250 3177 mt 3250 3249 L
2881 2558 mt 2953 2558 L
2917 2522 mt 2917 2594 L
3621 2624 mt 3693 2624 L
3657 2588 mt 3657 2660 L
2813 2334 mt 2885 2334 L
2849 2298 mt 2849 2370 L
3921 2978 mt 3993 2978 L
3957 2942 mt 3957 3014 L
2355 2007 mt 2427 2007 L
2391 1971 mt 2391 2043 L
3410 1689 mt 3482 1689 L
3446 1653 mt 3446 1725 L
4199 3028 mt 4271 3028 L
4235 2992 mt 4235 3064 L
5096 1336 mt 5168 1336 L
5132 1300 mt 5132 1372 L
3555 3405 mt 3627 3405 L
3591 3369 mt 3591 3441 L
 863 3297 mt  935 3297 L
 899 3261 mt  899 3333 L
4306 3250 mt 4378 3250 L
4342 3214 mt 4342 3286 L
4706 3425 mt 4778 3425 L
4742 3389 mt 4742 3461 L
2267 2869 mt 2339 2869 L
2303 2833 mt 2303 2905 L
2910 1816 mt 2982 1816 L
2946 1780 mt 2946 1852 L
2851 3063 mt 2923 3063 L
2887 3027 mt 2887 3099 L
3927 1653 mt 3999 1653 L
3963 1617 mt 3963 1689 L
3934 2338 mt 4006 2338 L
3970 2302 mt 3970 2374 L
4381 2962 mt 4453 2962 L
4417 2926 mt 4417 2998 L
6225 2506 mt 6297 2506 L
6261 2470 mt 6261 2542 L
3313 2311 mt 3385 2311 L
3349 2275 mt 3349 2347 L
3711 1354 mt 3783 1354 L
3747 1318 mt 3747 1390 L
4719 2840 mt 4791 2840 L
4755 2804 mt 4755 2876 L
3989 3797 mt 4061 3797 L
4025 3761 mt 4025 3833 L
3638 3479 mt 3710 3479 L
3674 3443 mt 3674 3515 L
3706 2731 mt 3778 2731 L
3742 2695 mt 3742 2767 L
4170 2787 mt 4242 2787 L
4206 2751 mt 4206 2823 L
4407 3610 mt 4479 3610 L
4443 3574 mt 4443 3646 L
2479 2650 mt 2551 2650 L
2515 2614 mt 2515 2686 L
3820 3171 mt 3892 3171 L
3856 3135 mt 3856 3207 L
3826 2083 mt 3898 2083 L
3862 2047 mt 3862 2119 L
3053 3022 mt 3125 3022 L
3089 2986 mt 3089 3058 L
2662 2611 mt 2734 2611 L
2698 2575 mt 2698 2647 L
4274 2228 mt 4346 2228 L
4310 2192 mt 4310 2264 L
3683 2275 mt 3755 2275 L
3719 2239 mt 3719 2311 L
3488 2089 mt 3560 2089 L
3524 2053 mt 3524 2125 L
4597 3017 mt 4669 3017 L
4633 2981 mt 4633 3053 L
4206 1087 mt 4278 1087 L
4242 1051 mt 4242 1123 L
5002 1872 mt 5074 1872 L
5038 1836 mt 5038 1908 L
1387 1583 mt 1459 1583 L
1423 1547 mt 1423 1619 L
2980 2223 mt 3052 2223 L
3016 2187 mt 3016 2259 L
3353 2778 mt 3425 2778 L
3389 2742 mt 3389 2814 L
4425 3553 mt 4497 3553 L
4461 3517 mt 4461 3589 L
3544 2691 mt 3616 2691 L
3580 2655 mt 3580 2727 L
4163 1892 mt 4235 1892 L
4199 1856 mt 4199 1928 L
4732 3184 mt 4804 3184 L
4768 3148 mt 4768 3220 L
1991 2764 mt 2063 2764 L
2027 2728 mt 2027 2800 L
4501 3752 mt 4573 3752 L
4537 3716 mt 4537 3788 L
3046 2361 mt 3118 2361 L
3082 2325 mt 3082 2397 L
2615 2365 mt 2687 2365 L
2651 2329 mt 2651 2401 L
2859 2170 mt 2931 2170 L
2895 2134 mt 2895 2206 L
5531 3731 mt 5603 3731 L
5567 3695 mt 5567 3767 L
3129 2519 mt 3201 2519 L
3165 2483 mt 3165 2555 L
3249 2593 mt 3321 2593 L
3285 2557 mt 3285 2629 L
4453 2709 mt 4525 2709 L
4489 2673 mt 4489 2745 L
4298 2549 mt 4370 2549 L
4334 2513 mt 4334 2585 L
2420 2140 mt 2492 2140 L
2456 2104 mt 2456 2176 L
3797 1298 mt 3869 1298 L
3833 1262 mt 3833 1334 L
4482 1960 mt 4554 1960 L
4518 1924 mt 4518 1996 L
5282  724 mt 5354  724 L
5318  688 mt 5318  760 L
3532 4205 mt 3604 4205 L
3568 4169 mt 3568 4241 L
3499 2073 mt 3571 2073 L
3535 2037 mt 3535 2109 L
5071 3039 mt 5143 3039 L
5107 3003 mt 5107 3075 L
2821 3118 mt 2893 3118 L
2857 3082 mt 2857 3154 L
3649 3131 mt 3721 3131 L
3685 3095 mt 3685 3167 L
4941 1930 mt 5013 1930 L
4977 1894 mt 4977 1966 L
4054 2956 mt 4126 2956 L
4090 2920 mt 4090 2992 L
2502 2615 mt 2574 2615 L
2538 2579 mt 2538 2651 L
4693 1984 mt 4765 1984 L
4729 1948 mt 4729 2020 L
3040 3503 mt 3112 3503 L
3076 3467 mt 3076 3539 L
2201 3693 mt 2273 3693 L
2237 3657 mt 2237 3729 L
4213 2677 mt 4285 2677 L
4249 2641 mt 4249 2713 L
4904 2453 mt 4976 2453 L
4940 2417 mt 4940 2489 L
4869 2889 mt 4941 2889 L
4905 2853 mt 4905 2925 L
3460 2713 mt 3532 2713 L
3496 2677 mt 3496 2749 L
2706 1207 mt 2778 1207 L
2742 1171 mt 2742 1243 L
3027 3164 mt 3099 3164 L
3063 3128 mt 3063 3200 L
3785  957 mt 3857  957 L
3821  921 mt 3821  993 L
3689 3908 mt 3761 3908 L
3725 3872 mt 3725 3944 L
3700 3257 mt 3772 3257 L
3736 3221 mt 3736 3293 L
2016 2532 mt 2088 2532 L
2052 2496 mt 2052 2568 L
3728 2741 mt 3800 2741 L
3764 2705 mt 3764 2777 L
4290 2279 mt 4362 2279 L
4326 2243 mt 4326 2315 L
2407 2242 mt 2479 2242 L
2443 2206 mt 2443 2278 L
3421 2782 mt 3493 2782 L
3457 2746 mt 3457 2818 L
6033 2427 mt 6105 2427 L
6069 2391 mt 6069 2463 L
2534 3314 mt 2606 3314 L
2570 3278 mt 2570 3350 L
2146 3227 mt 2218 3227 L
2182 3191 mt 2182 3263 L
3387 2884 mt 3459 2884 L
3423 2848 mt 3423 2920 L
3964 2768 mt 4036 2768 L
4000 2732 mt 4000 2804 L
2740 2879 mt 2812 2879 L
2776 2843 mt 2776 2915 L
3302 1572 mt 3374 1572 L
3338 1536 mt 3338 1608 L
3644 2218 mt 3716 2218 L
3680 2182 mt 3680 2254 L
3666 3322 mt 3738 3322 L
3702 3286 mt 3702 3358 L
3273 1732 mt 3345 1732 L
3309 1696 mt 3309 1768 L
3307 3075 mt 3379 3075 L
3343 3039 mt 3343 3111 L
3098 1707 mt 3170 1707 L
3134 1671 mt 3134 1743 L
3610 2251 mt 3682 2251 L
3646 2215 mt 3646 2287 L
2282 1419 mt 2354 1419 L
2318 1383 mt 2318 1455 L
3255 1838 mt 3327 1838 L
3291 1802 mt 3291 1874 L
3347 2745 mt 3419 2745 L
3383 2709 mt 3383 2781 L
4251 2109 mt 4323 2109 L
4287 2073 mt 4287 2145 L
3745 2175 mt 3817 2175 L
3781 2139 mt 3781 2211 L
3566 1904 mt 3638 1904 L
3602 1868 mt 3602 1940 L
4074 2401 mt 4146 2401 L
4110 2365 mt 4110 2437 L
5150 2414 mt 5222 2414 L
5186 2378 mt 5186 2450 L
4259 2423 mt 4331 2423 L
4295 2387 mt 4295 2459 L
3873 2935 mt 3945 2935 L
3909 2899 mt 3909 2971 L
3404 2493 mt 3476 2493 L
3440 2457 mt 3440 2529 L
4492 1698 mt 4564 1698 L
4528 1662 mt 4528 1734 L
1619 2165 mt 1691 2165 L
1655 2129 mt 1655 2201 L
3803 4072 mt 3875 4072 L
3839 4036 mt 3839 4108 L
3588 3289 mt 3660 3289 L
3624 3253 mt 3624 3325 L
2235 2946 mt 2307 2946 L
2271 2910 mt 2271 2982 L
2432 2130 mt 2504 2130 L
2468 2094 mt 2468 2166 L
1556 3515 mt 1628 3515 L
1592 3479 mt 1592 3551 L
4128 3144 mt 4200 3144 L
4164 3108 mt 4164 3180 L
5365 2012 mt 5437 2012 L
5401 1976 mt 5401 2048 L
3996 2329 mt 4068 2329 L
4032 2293 mt 4032 2365 L
3885 3491 mt 3957 3491 L
3921 3455 mt 3921 3527 L
3723 2914 mt 3795 2914 L
3759 2878 mt 3759 2950 L
3844 3848 mt 3916 3848 L
3880 3812 mt 3880 3884 L
4463 2247 mt 4535 2247 L
4499 2211 mt 4499 2283 L
4852 2497 mt 4924 2497 L
4888 2461 mt 4888 2533 L
3958 1990 mt 4030 1990 L
3994 1954 mt 3994 2026 L
5700 2682 mt 5772 2682 L
5736 2646 mt 5736 2718 L
3147 3436 mt 3219 3436 L
3183 3400 mt 3183 3472 L
2394 1434 mt 2466 1434 L
2430 1398 mt 2430 1470 L
2917 3595 mt 2989 3595 L
2953 3559 mt 2953 3631 L
4338 2261 mt 4410 2261 L
4374 2225 mt 4374 2297 L
4114 3281 mt 4186 3281 L
4150 3245 mt 4150 3317 L
3909 1917 mt 3981 1917 L
3945 1881 mt 3945 1953 L
3398 1277 mt 3470 1277 L
3434 1241 mt 3434 1313 L
3000 4131 mt 3072 4131 L
3036 4095 mt 3036 4167 L
4435 2695 mt 4507 2695 L
4471 2659 mt 4471 2731 L
3166 3178 mt 3238 3178 L
3202 3142 mt 3202 3214 L
2545 2864 mt 2617 2864 L
2581 2828 mt 2581 2900 L
3208 1787 mt 3280 1787 L
3244 1751 mt 3244 1823 L
3091 2040 mt 3163 2040 L
3127 2004 mt 3127 2076 L
2952 2104 mt 3024 2104 L
2988 2068 mt 2988 2140 L
2866 1809 mt 2938 1809 L
2902 1773 mt 2902 1845 L
4680 2418 mt 4752 2418 L
4716 2382 mt 4716 2454 L
2040 1966 mt 2112 1966 L
2076 1930 mt 2076 2002 L
2468 1898 mt 2540 1898 L
2504 1862 mt 2504 1934 L
3393 2035 mt 3465 2035 L
3429 1999 mt 3429 2071 L
3376 1923 mt 3448 1923 L
3412 1887 mt 3412 1959 L
4107 2854 mt 4179 2854 L
4143 2818 mt 4143 2890 L
3940 2388 mt 4012 2388 L
3976 2352 mt 3976 2424 L
4236 2859 mt 4308 2859 L
4272 2823 mt 4272 2895 L
3952 1802 mt 4024 1802 L
3988 1766 mt 3988 1838 L
3364 2467 mt 3436 2467 L
3400 2431 mt 3400 2503 L
2605 1831 mt 2677 1831 L
2641 1795 mt 2641 1867 L
4789 3641 mt 4861 3641 L
4825 3605 mt 4825 3677 L
4028 1318 mt 4100 1318 L
4064 1282 mt 4064 1354 L
1722 3625 mt 1794 3625 L
1758 3589 mt 1758 3661 L
3791 1748 mt 3863 1748 L
3827 1712 mt 3827 1784 L
4981 1181 mt 5053 1181 L
5017 1145 mt 5017 1217 L
5122 1624 mt 5194 1624 L
5158 1588 mt 5158 1660 L
2680 3658 mt 2752 3658 L
2716 3622 mt 2716 3694 L
5321 2293 mt 5393 2293 L
5357 2257 mt 5357 2329 L
4177 1514 mt 4249 1514 L
4213 1478 mt 4213 1550 L
4585 2619 mt 4657 2619 L
4621 2583 mt 4621 2655 L
2595 2686 mt 2667 2686 L
2631 2650 mt 2631 2722 L
4087 3206 mt 4159 3206 L
4123 3170 mt 4123 3242 L
3325 1593 mt 3397 1593 L
3361 1557 mt 3361 1629 L
4390 3386 mt 4462 3386 L
4426 3350 mt 4426 3422 L
4836 2659 mt 4908 2659 L
4872 2623 mt 4872 2695 L
3013 1634 mt 3085 1634 L
3049 1598 mt 3049 1670 L
2765 2370 mt 2837 2370 L
2801 2334 mt 2801 2406 L
3493 3242 mt 3565 3242 L
3529 3206 mt 3529 3278 L
3903  824 mt 3975  824 L
3939  788 mt 3939  860 L
2715 2541 mt 2787 2541 L
2751 2505 mt 2751 2577 L
2966 1779 mt 3038 1779 L
3002 1743 mt 3002 1815 L
2903 2204 mt 2975 2204 L
2939 2168 mt 2939 2240 L
2836 2704 mt 2908 2704 L
2872 2668 mt 2872 2740 L
gs 899 414 5363 4203 rc
gr

0 sg
2775 5104 mt 
(\(F,DCTb,GMM\)) s
 482 3259 mt  -90 rotate
(\(S,PAC,GMM\)) s
90 rotate
2975  223 mt 
(Corr = 0.09) s

end %%Color Dict

eplot
%%EndObject

epage
end

showpage

%%Trailer
%%EOF
