%!PS-Adobe-3.0 EPSF-3.0
%%Creator: MATLAB, The Mathworks, Inc. Version 7.7.0.471 (R2008b). Operating System: Microsoft Windows XP.
%%Title: Pictures\main_zoo_mvar_analysis_data_BMI_xcorr_bmig_p1_k2_6_8.eps
%%CreationDate: 10/26/2009  05:45:32
%%DocumentNeededFonts: Helvetica
%%DocumentProcessColors: Cyan Magenta Yellow Black
%%LanguageLevel: 2
%%Pages: 1
%%BoundingBox:    37   180   549   616
%%EndComments

%%BeginProlog
% MathWorks dictionary
/MathWorks 160 dict begin
% definition operators
/bdef {bind def} bind def
/ldef {load def} bind def
/xdef {exch def} bdef
/xstore {exch store} bdef
% operator abbreviations
/c  /clip ldef
/cc /concat ldef
/cp /closepath ldef
/gr /grestore ldef
/gs /gsave ldef
/mt /moveto ldef
/np /newpath ldef
/cm /currentmatrix ldef
/sm /setmatrix ldef
/rm /rmoveto ldef
/rl /rlineto ldef
/s {show newpath} bdef
/sc {setcmykcolor} bdef
/sr /setrgbcolor ldef
/sg /setgray ldef
/w /setlinewidth ldef
/j /setlinejoin ldef
/cap /setlinecap ldef
/rc {rectclip} bdef
/rf {rectfill} bdef
% page state control
/pgsv () def
/bpage {/pgsv save def} bdef
/epage {pgsv restore} bdef
/bplot /gsave ldef
/eplot {stroke grestore} bdef
% orientation switch
/portraitMode 0 def /landscapeMode 1 def /rotateMode 2 def
% coordinate system mappings
/dpi2point 0 def
% font control
/FontSize 0 def
/FMS {/FontSize xstore findfont [FontSize 0 0 FontSize neg 0 0]
  makefont setfont} bdef
/ISOLatin1Encoding where {pop /WindowsLatin1Encoding 256 array bdef
ISOLatin1Encoding WindowsLatin1Encoding copy pop
/.notdef/.notdef/quotesinglbase/florin/quotedblbase/ellipsis/dagger
/daggerdbl/circumflex/perthousand/Scaron/guilsinglleft/OE/.notdef/.notdef
/.notdef/.notdef/quoteleft/quoteright/quotedblleft/quotedblright/bullet
/endash/emdash/tilde/trademark/scaron/guilsinglright/oe/.notdef/.notdef
/Ydieresis WindowsLatin1Encoding 128 32 getinterval astore pop}
{/WindowsLatin1Encoding StandardEncoding bdef} ifelse
/reencode {exch dup where {pop load} {pop StandardEncoding} ifelse
  exch dup 3 1 roll findfont dup length dict begin
  { 1 index /FID ne {def}{pop pop} ifelse } forall
  /Encoding exch def currentdict end definefont pop} bdef
/isroman {findfont /CharStrings get /Agrave known} bdef
/FMSR {3 1 roll 1 index dup isroman {reencode} {pop pop} ifelse
  exch FMS} bdef
/csm {1 dpi2point div -1 dpi2point div scale neg translate
 dup landscapeMode eq {pop -90 rotate}
  {rotateMode eq {90 rotate} if} ifelse} bdef
% line types: solid, dotted, dashed, dotdash
/SO { [] 0 setdash } bdef
/DO { [.5 dpi2point mul 4 dpi2point mul] 0 setdash } bdef
/DA { [6 dpi2point mul] 0 setdash } bdef
/DD { [.5 dpi2point mul 4 dpi2point mul 6 dpi2point mul 4
  dpi2point mul] 0 setdash } bdef
% macros for lines and objects
/L {lineto stroke} bdef
/MP {3 1 roll moveto 1 sub {rlineto} repeat} bdef
/AP {{rlineto} repeat} bdef
/PDlw -1 def
/W {/PDlw currentlinewidth def setlinewidth} def
/PP {closepath eofill} bdef
/DP {closepath stroke} bdef
/MR {4 -2 roll moveto dup  0 exch rlineto exch 0 rlineto
  neg 0 exch rlineto closepath} bdef
/FR {MR stroke} bdef
/PR {MR fill} bdef
/L1i {{currentfile picstr readhexstring pop} image} bdef
/tMatrix matrix def
/MakeOval {newpath tMatrix currentmatrix pop translate scale
0 0 1 0 360 arc tMatrix setmatrix} bdef
/FO {MakeOval stroke} bdef
/PO {MakeOval fill} bdef
/PD {currentlinewidth 2 div 0 360 arc fill
   PDlw -1 eq not {PDlw w /PDlw -1 def} if} def
/FA {newpath tMatrix currentmatrix pop translate scale
  0 0 1 5 -2 roll arc tMatrix setmatrix stroke} bdef
/PA {newpath tMatrix currentmatrix pop	translate 0 0 moveto scale
  0 0 1 5 -2 roll arc closepath tMatrix setmatrix fill} bdef
/FAn {newpath tMatrix currentmatrix pop translate scale
  0 0 1 5 -2 roll arcn tMatrix setmatrix stroke} bdef
/PAn {newpath tMatrix currentmatrix pop translate 0 0 moveto scale
  0 0 1 5 -2 roll arcn closepath tMatrix setmatrix fill} bdef
/vradius 0 def /hradius 0 def /lry 0 def
/lrx 0 def /uly 0 def /ulx 0 def /rad 0 def
/MRR {/vradius xdef /hradius xdef /lry xdef /lrx xdef /uly xdef
  /ulx xdef newpath tMatrix currentmatrix pop ulx hradius add uly
  vradius add translate hradius vradius scale 0 0 1 180 270 arc 
  tMatrix setmatrix lrx hradius sub uly vradius add translate
  hradius vradius scale 0 0 1 270 360 arc tMatrix setmatrix
  lrx hradius sub lry vradius sub translate hradius vradius scale
  0 0 1 0 90 arc tMatrix setmatrix ulx hradius add lry vradius sub
  translate hradius vradius scale 0 0 1 90 180 arc tMatrix setmatrix
  closepath} bdef
/FRR {MRR stroke } bdef
/PRR {MRR fill } bdef
/MlrRR {/lry xdef /lrx xdef /uly xdef /ulx xdef /rad lry uly sub 2 div def
  newpath tMatrix currentmatrix pop ulx rad add uly rad add translate
  rad rad scale 0 0 1 90 270 arc tMatrix setmatrix lrx rad sub lry rad
  sub translate rad rad scale 0 0 1 270 90 arc tMatrix setmatrix
  closepath} bdef
/FlrRR {MlrRR stroke } bdef
/PlrRR {MlrRR fill } bdef
/MtbRR {/lry xdef /lrx xdef /uly xdef /ulx xdef /rad lrx ulx sub 2 div def
  newpath tMatrix currentmatrix pop ulx rad add uly rad add translate
  rad rad scale 0 0 1 180 360 arc tMatrix setmatrix lrx rad sub lry rad
  sub translate rad rad scale 0 0 1 0 180 arc tMatrix setmatrix
  closepath} bdef
/FtbRR {MtbRR stroke } bdef
/PtbRR {MtbRR fill } bdef
/stri 6 array def /dtri 6 array def
/smat 6 array def /dmat 6 array def
/tmat1 6 array def /tmat2 6 array def /dif 3 array def
/asub {/ind2 exch def /ind1 exch def dup dup
  ind1 get exch ind2 get sub exch } bdef
/tri_to_matrix {
  2 0 asub 3 1 asub 4 0 asub 5 1 asub
  dup 0 get exch 1 get 7 -1 roll astore } bdef
/compute_transform {
  dmat dtri tri_to_matrix tmat1 invertmatrix 
  smat stri tri_to_matrix tmat2 concatmatrix } bdef
/ds {stri astore pop} bdef
/dt {dtri astore pop} bdef
/db {2 copy /cols xdef /rows xdef mul dup 3 mul string
  currentfile 
  3 index 0 eq {/ASCIIHexDecode filter}
  {/ASCII85Decode filter 3 index 2 eq {/RunLengthDecode filter} if }
  ifelse exch readstring pop
  dup 0 3 index getinterval /rbmap xdef
  dup 2 index dup getinterval /gbmap xdef
  1 index dup 2 mul exch getinterval /bbmap xdef pop pop}bdef
/it {gs np dtri aload pop moveto lineto lineto cp c
  cols rows 8 compute_transform 
  rbmap gbmap bbmap true 3 colorimage gr}bdef
/il {newpath moveto lineto stroke}bdef
currentdict end def
%%EndProlog

%%BeginSetup
MathWorks begin

0 cap

end
%%EndSetup

%%Page: 1 1
%%BeginPageSetup
%%PageBoundingBox:    37   180   549   616
MathWorks begin
bpage
%%EndPageSetup

%%BeginObject: obj1
bplot

/dpi2point 12 def
portraitMode 0216 7344 csm

  234   -48  6149  5231 rc
85 dict begin %Colortable dictionary
/c0 { 0.000000 0.000000 0.000000 sr} bdef
/c1 { 1.000000 1.000000 1.000000 sr} bdef
/c2 { 0.900000 0.000000 0.000000 sr} bdef
/c3 { 0.000000 0.820000 0.000000 sr} bdef
/c4 { 0.000000 0.000000 0.800000 sr} bdef
/c5 { 0.910000 0.820000 0.320000 sr} bdef
/c6 { 1.000000 0.260000 0.820000 sr} bdef
/c7 { 0.000000 0.820000 0.820000 sr} bdef
c0
1 j
1 sg
   0    0 6919 5187 rf
6 w
0 4202 5362 0 0 -4202 899 4616 4 MP
PP
-5362 0 0 4202 5362 0 0 -4202 899 4616 5 MP stroke
4 w
DO
SO
6 w
0 sg
 899  414 mt 6261  414 L
 899 4616 mt 6261 4616 L
6261 4616 mt 6261  414 L
 899 4616 mt  899  414 L
 899 4616 mt 6261 4616 L
 899 4616 mt  899  414 L
 919 4616 mt  919 4562 L
 919  414 mt  919  467 L
%%IncludeResource: font Helvetica
/Helvetica /WindowsLatin1Encoding 240 FMSR

 713 4873 mt 
(-3) s
1806 4616 mt 1806 4562 L
1806  414 mt 1806  467 L
1600 4873 mt 
(-2) s
2693 4616 mt 2693 4562 L
2693  414 mt 2693  467 L
2487 4873 mt 
(-1) s
3580 4616 mt 3580 4562 L
3580  414 mt 3580  467 L
3514 4873 mt 
(0) s
4466 4616 mt 4466 4562 L
4466  414 mt 4466  467 L
4400 4873 mt 
(1) s
5353 4616 mt 5353 4562 L
5353  414 mt 5353  467 L
5287 4873 mt 
(2) s
6240 4616 mt 6240 4562 L
6240  414 mt 6240  467 L
6174 4873 mt 
(3) s
 899 4599 mt  952 4599 L
6261 4599 mt 6207 4599 L
 591 4688 mt 
(-3) s
 899 3904 mt  952 3904 L
6261 3904 mt 6207 3904 L
 591 3993 mt 
(-2) s
 899 3209 mt  952 3209 L
6261 3209 mt 6207 3209 L
 591 3298 mt 
(-1) s
 899 2514 mt  952 2514 L
6261 2514 mt 6207 2514 L
 731 2603 mt 
(0) s
 899 1820 mt  952 1820 L
6261 1820 mt 6207 1820 L
 731 1909 mt 
(1) s
 899 1125 mt  952 1125 L
6261 1125 mt 6207 1125 L
 731 1214 mt 
(2) s
 899  430 mt  952  430 L
6261  430 mt 6207  430 L
 731  519 mt 
(3) s
 899  414 mt 6261  414 L
 899 4616 mt 6261 4616 L
6261 4616 mt 6261  414 L
 899 4616 mt  899  414 L
gs 899 414 5363 4203 rc
gr

/c8 { 0.000000 0.000000 1.000000 sr} bdef
c8
3421 1255 mt 3493 1255 L
3457 1219 mt 3457 1291 L
3313 2001 mt 3385 2001 L
3349 1965 mt 3349 2037 L
3838 1990 mt 3910 1990 L
3874 1954 mt 3874 2026 L
3307 2637 mt 3379 2637 L
3343 2601 mt 3343 2673 L
3946 1572 mt 4018 1572 L
3982 1536 mt 3982 1608 L
3989 1604 mt 4061 1604 L
4025 1568 mt 4025 1640 L
2828 3257 mt 2900 3257 L
2864 3221 mt 2864 3293 L
2859 2237 mt 2931 2237 L
2895 2201 mt 2895 2273 L
2468 2228 mt 2540 2228 L
2504 2192 mt 2504 2264 L
4886 1336 mt 4958 1336 L
4922 1300 mt 4922 1372 L
2586 2480 mt 2658 2480 L
2622 2444 mt 2622 2516 L
3482 2204 mt 3554 2204 L
3518 2168 mt 3518 2240 L
4282 2695 mt 4354 2695 L
4318 2659 mt 4318 2731 L
3449 1593 mt 3521 1593 L
3485 1557 mt 3485 1629 L
4732 2894 mt 4804 2894 L
4768 2858 mt 4768 2930 L
2183 2796 mt 2255 2796 L
2219 2760 mt 2219 2832 L
2866 1851 mt 2938 1851 L
2902 1815 mt 2902 1887 L
3387 4131 mt 3459 4131 L
3423 4095 mt 3423 4167 L
2973 2458 mt 3045 2458 L
3009 2422 mt 3009 2494 L
3599 2383 mt 3671 2383 L
3635 2347 mt 3635 2419 L
3319 2284 mt 3391 2284 L
3355 2248 mt 3355 2320 L
4034 2311 mt 4106 2311 L
4070 2275 mt 4070 2347 L
3000 2046 mt 3072 2046 L
3036 2010 mt 3036 2082 L
3477 2754 mt 3549 2754 L
3513 2718 mt 3513 2790 L
4981 3289 mt 5053 3289 L
5017 3253 mt 5017 3325 L
4719 2338 mt 4791 2338 L
4755 2302 mt 4755 2374 L
3214 2401 mt 3286 2401 L
3250 2365 mt 3250 2437 L
4381 2488 mt 4453 2488 L
4417 2452 mt 4417 2524 L
2146 1772 mt 2218 1772 L
2182 1736 mt 2182 1808 L
2267 2165 mt 2339 2165 L
2303 2129 mt 2303 2201 L
4080 2514 mt 4152 2514 L
4116 2478 mt 4116 2550 L
2945 2057 mt 3017 2057 L
2981 2021 mt 2981 2093 L
2407 2374 mt 2479 2374 L
2443 2338 mt 2443 2410 L
3666 3250 mt 3738 3250 L
3702 3214 mt 3702 3286 L
3751 1995 mt 3823 1995 L
3787 1959 mt 3787 2031 L
3172 1614 mt 3244 1614 L
3208 1578 mt 3208 1650 L
2523 1978 mt 2595 1978 L
2559 1942 mt 2559 2014 L
3797 3595 mt 3869 3595 L
3833 3559 mt 3833 3631 L
3757 2194 mt 3829 2194 L
3793 2158 mt 3793 2230 L
2813 2035 mt 2885 2035 L
2849 1999 mt 2849 2071 L
3921 2189 mt 3993 2189 L
3957 2153 mt 3957 2225 L
4364 1707 mt 4436 1707 L
4400 1671 mt 4400 1743 L
4028 2265 mt 4100 2265 L
4064 2229 mt 4064 2301 L
3826 2361 mt 3898 2361 L
3862 2325 mt 3862 2397 L
3178 3322 mt 3250 3322 L
3214 3286 mt 3214 3358 L
3616 3415 mt 3688 3415 L
3652 3379 mt 3652 3451 L
3085 2410 mt 3157 2410 L
3121 2374 mt 3121 2446 L
3694 2484 mt 3766 2484 L
3730 2448 mt 3730 2520 L
3404 2825 mt 3476 2825 L
3440 2789 mt 3440 2861 L
5180 3479 mt 5252 3479 L
5216 3443 mt 5216 3515 L
2341 2686 mt 2413 2686 L
2377 2650 mt 2377 2722 L
2851 1550 mt 2923 1550 L
2887 1514 mt 2887 1586 L
3958 2759 mt 4030 2759 L
3994 2723 mt 3994 2795 L
2444 2040 mt 2516 2040 L
2480 2004 mt 2480 2076 L
3493 2440 mt 3565 2440 L
3529 2404 mt 3529 2476 L
3160 2475 mt 3232 2475 L
3196 2439 mt 3196 2511 L
3116 3242 mt 3188 3242 L
3152 3206 mt 3152 3278 L
4482 1966 mt 4554 1966 L
4518 1930 mt 4518 2002 L
2085 2597 mt 2157 2597 L
2121 2561 mt 2121 2633 L
4290 2445 mt 4362 2445 L
4326 2409 mt 4326 2481 L
3267 3171 mt 3339 3171 L
3303 3135 mt 3303 3207 L
2757 3367 mt 2829 3367 L
2793 3331 mt 2793 3403 L
3549 1972 mt 3621 1972 L
3585 1936 mt 3585 2008 L
3208 2493 mt 3280 2493 L
3244 2457 mt 3244 2529 L
2671 1006 mt 2743 1006 L
2707  970 mt 2707 1042 L
4177 2989 mt 4249 2989 L
4213 2953 mt 4213 3025 L
2844 2506 mt 2916 2506 L
2880 2470 mt 2880 2542 L
3342 2864 mt 3414 2864 L
3378 2828 mt 3378 2900 L
3398 2062 mt 3470 2062 L
3434 2026 mt 3434 2098 L
3046 2067 mt 3118 2067 L
3082 2031 mt 3082 2103 L
3460 2160 mt 3532 2160 L
3496 2124 mt 3496 2196 L
4501 1917 mt 4573 1917 L
4537 1881 mt 4537 1953 L
3255 2914 mt 3327 2914 L
3291 2878 mt 3291 2950 L
3353 1152 mt 3425 1152 L
3389 1116 mt 3389 1188 L
2355 1872 mt 2427 1872 L
2391 1836 mt 2391 1908 L
3196 2741 mt 3268 2741 L
3232 2705 mt 3232 2777 L
3104 2175 mt 3176 2175 L
3140 2139 mt 3140 2211 L
3610 2242 mt 3682 2242 L
3646 2206 mt 3646 2278 L
3964 1787 mt 4036 1787 L
4000 1751 mt 4000 1823 L
2595 2423 mt 2667 2423 L
2631 2387 mt 2631 2459 L
2381 1404 mt 2453 1404 L
2417 1368 mt 2417 1440 L
3410 2325 mt 3482 2325 L
3446 2289 mt 3446 2361 L
2966 2664 mt 3038 2664 L
3002 2628 mt 3002 2700 L
3891 2209 mt 3963 2209 L
3927 2173 mt 3927 2245 L
3791 2956 mt 3863 2956 L
3827 2920 mt 3827 2992 L
3020 3051 mt 3092 3051 L
3056 3015 mt 3056 3087 L
2959 1561 mt 3031 1561 L
2995 1525 mt 2995 1597 L
3909 3625 mt 3981 3625 L
3945 3589 mt 3945 3661 L
4100 2270 mt 4172 2270 L
4136 2234 mt 4136 2306 L
4002  824 mt 4074  824 L
4038  788 mt 4038  860 L
1907 2668 mt 1979 2668 L
1943 2632 mt 1943 2704 L
3934 2920 mt 4006 2920 L
3970 2884 mt 3970 2956 L
2456 1898 mt 2528 1898 L
2492 1862 mt 2492 1934 L
2888 2567 mt 2960 2567 L
2924 2531 mt 2924 2603 L
2715 3144 mt 2787 3144 L
2751 3108 mt 2751 3180 L
4631 3235 mt 4703 3235 L
4667 3199 mt 4667 3271 L
3347 2682 mt 3419 2682 L
3383 2646 mt 3383 2718 L
2634 1634 mt 2706 1634 L
2670 1598 mt 2670 1670 L
2534 3797 mt 2606 3797 L
2570 3761 mt 2570 3833 L
4054 2611 mt 4126 2611 L
4090 2575 mt 4090 2647 L
4322 2018 mt 4394 2018 L
4358 1982 mt 4358 2054 L
4564 2528 mt 4636 2528 L
4600 2492 mt 4600 2564 L
3897 3131 mt 3969 3131 L
3933 3095 mt 3933 3167 L
2201 2972 mt 2273 2972 L
2237 2936 mt 2237 3008 L
2723 3178 mt 2795 3178 L
2759 3142 mt 2759 3214 L
4243 2185 mt 4315 2185 L
4279 2149 mt 4279 2221 L
3649 2835 mt 3721 2835 L
3685 2799 mt 3685 2871 L
4121 2532 mt 4193 2532 L
4157 2496 mt 4157 2568 L
3147 2388 mt 3219 2388 L
3183 2352 mt 3183 2424 L
3466 2180 mt 3538 2180 L
3502 2144 mt 3502 2216 L
4199 2329 mt 4271 2329 L
4235 2293 mt 4235 2365 L
3582 2764 mt 3654 2764 L
3618 2728 mt 3618 2800 L
2706 2830 mt 2778 2830 L
2742 2794 mt 2742 2866 L
3879 4205 mt 3951 4205 L
3915 4169 mt 3915 4241 L
2327 2704 mt 2399 2704 L
2363 2668 mt 2363 2740 L
3123 2541 mt 3195 2541 L
3159 2505 mt 3159 2577 L
3762 1756 mt 3834 1756 L
3798 1720 mt 3798 1792 L
4372 3503 mt 4444 3503 L
4408 3467 mt 4408 3539 L
2896 3184 mt 2968 3184 L
2932 3148 mt 2932 3220 L
3059 3908 mt 3131 3908 L
3095 3872 mt 3095 3944 L
3471 2352 mt 3543 2352 L
3507 2316 mt 3507 2388 L
3832 1779 mt 3904 1779 L
3868 1743 mt 3868 1815 L
2821 2343 mt 2893 2343 L
2857 2307 mt 2857 2379 L
2749 3112 mt 2821 3112 L
2785 3076 mt 2785 3148 L
3007 1845 mt 3079 1845 L
3043 1809 mt 3043 1881 L
4852 1671 mt 4924 1671 L
4888 1635 mt 4888 1707 L
2652 3693 mt 2724 3693 L
2688 3657 mt 2688 3729 L
3284 2673 mt 3356 2673 L
3320 2637 mt 3320 2709 L
3885 1794 mt 3957 1794 L
3921 1758 mt 3921 1830 L
2420 3045 mt 2492 3045 L
2456 3009 mt 2456 3081 L
4298 3022 mt 4370 3022 L
4334 2986 mt 4334 3058 L
4107 2768 mt 4179 2768 L
4143 2732 mt 4143 2804 L
4094 2519 mt 4166 2519 L
4130 2483 mt 4130 2555 L
3376 2497 mt 3448 2497 L
3412 2461 mt 3412 2533 L
2740 2650 mt 2812 2650 L
2776 2614 mt 2776 2686 L
3555 2909 mt 3627 2909 L
3591 2873 mt 3591 2945 L
2040 2580 mt 2112 2580 L
2076 2544 mt 2076 2616 L
4251 1885 mt 4323 1885 L
4287 1849 mt 4287 1921 L
3505 2820 mt 3577 2820 L
3541 2784 mt 3541 2856 L
1766 3125 mt 1838 3125 L
1802 3089 mt 1802 3161 L
3013 2967 mt 3085 2967 L
3049 2931 mt 3049 3003 L
3780 2279 mt 3852 2279 L
3816 2243 mt 3816 2315 L
3261 3057 mt 3333 3057 L
3297 3021 mt 3297 3093 L
3672 2700 mt 3744 2700 L
3708 2664 mt 3708 2736 L
3053 1698 mt 3125 1698 L
3089 1662 mt 3089 1734 L
4574 2392 mt 4646 2392 L
4610 2356 mt 4610 2428 L
3661 2334 mt 3733 2334 L
3697 2298 mt 3697 2370 L
1991 1388 mt 2063 1388 L
2027 1352 mt 2027 1424 L
3544 3675 mt 3616 3675 L
3580 3639 mt 3580 3711 L
3499 1904 mt 3571 1904 L
3535 1868 mt 3535 1940 L
3237 2449 mt 3309 2449 L
3273 2413 mt 3273 2485 L
3110 3395 mt 3182 3395 L
3146 3359 mt 3146 3431 L
1556 2713 mt 1628 2713 L
1592 2677 mt 1592 2749 L
1842 2261 mt 1914 2261 L
1878 2225 mt 1878 2297 L
3571 2709 mt 3643 2709 L
3607 2673 mt 3607 2745 L
2615 3340 mt 2687 3340 L
2651 3304 mt 2651 3376 L
3202 1689 mt 3274 1689 L
3238 1653 mt 3238 1725 L
3302 2899 mt 3374 2899 L
3338 2863 mt 3338 2935 L
3996 1838 mt 4068 1838 L
4032 1802 mt 4032 1874 L
4680 3273 mt 4752 3273 L
4716 3237 mt 4716 3309 L
3820 2854 mt 3892 2854 L
3856 2818 mt 3856 2890 L
1965 3641 mt 2037 3641 L
2001 3605 mt 2001 3677 L
2697 2462 mt 2769 2462 L
2733 2426 mt 2733 2498 L
3129 2302 mt 3201 2302 L
3165 2266 mt 3165 2338 L
2513 2736 mt 2585 2736 L
2549 2700 mt 2549 2772 L
2993 2930 mt 3065 2930 L
3029 2894 mt 3029 2966 L
3683 2633 mt 3755 2633 L
3719 2597 mt 3719 2669 L
4585 4616 mt 4657 4616 L
4621 4580 mt 4621 4652 L
3432 2659 mt 3504 2659 L
3468 2623 mt 3468 2695 L
3850 2293 mt 3922 2293 L
3886 2257 mt 3886 2329 L
3040 2199 mt 3112 2199 L
3076 2163 mt 3076 2235 L
2218 1948 mt 2290 1948 L
2254 1912 mt 2254 1984 L
3711 3191 mt 3783 3191 L
3747 3155 mt 3747 3227 L
3296 2307 mt 3368 2307 L
3332 2271 mt 3332 2343 L
2545 3206 mt 2617 3206 L
2581 3170 mt 2581 3242 L
3768 2094 mt 3840 2094 L
3804 2058 mt 3804 2130 L
3740 2396 mt 3812 2396 L
3776 2360 mt 3776 2432 L
2980 2874 mt 3052 2874 L
3016 2838 mt 3016 2910 L
2605 2125 mt 2677 2125 L
2641 2089 mt 2641 2161 L
3527 1865 mt 3599 1865 L
3563 1829 mt 3563 1901 L
4163 2935 mt 4235 2935 L
4199 2899 mt 4199 2971 L
3814 3017 mt 3886 3017 L
3850 2981 mt 3850 3053 L
2479 1643 mt 2551 1643 L
2515 1607 mt 2515 1679 L
1722 2078 mt 1794 2078 L
1758 2042 mt 1758 2114 L
3689 3349 mt 3761 3349 L
3725 3313 mt 3725 3385 L
2662 1831 mt 2734 1831 L
2698 1795 mt 2698 1867 L
2903 2347 mt 2975 2347 L
2939 2311 mt 2939 2383 L
3621 1748 mt 3693 1748 L
3657 1712 mt 3657 1784 L
4128 3658 mt 4200 3658 L
4164 3622 mt 4164 3694 L
3633 1419 mt 3705 1419 L
3669 1383 mt 3669 1455 L
3135 1538 mt 3207 1538 L
3171 1502 mt 3171 1574 L
2432 2727 mt 2504 2727 L
2468 2691 mt 2468 2763 L
4472 2275 mt 4544 2275 L
4508 2239 mt 4508 2311 L
5282 1984 mt 5354 1984 L
5318 1948 mt 5318 2020 L
3560 1583 mt 3632 1583 L
3596 1547 mt 3596 1619 L
3638 1923 mt 3710 1923 L
3674 1887 mt 3674 1959 L
2565 3039 mt 2637 3039 L
2601 3003 mt 2601 3075 L
3325 2405 mt 3397 2405 L
3361 2369 mt 3361 2441 L
3510 3358 mt 3582 3358 L
3546 3322 mt 3546 3394 L
4706 2140 mt 4778 2140 L
4742 2104 mt 4742 2176 L
4655 1087 mt 4727 1087 L
4691 1051 mt 4691 1123 L
4347 1715 mt 4419 1715 L
4383 1679 mt 4383 1751 L
3855 2099 mt 3927 2099 L
3891 2063 mt 3891 2135 L
4074 3164 mt 4146 3164 L
4110 3128 mt 4110 3200 L
3454 2012 mt 3526 2012 L
3490 1976 mt 3490 2048 L
4213 2467 mt 4285 2467 L
4249 2431 mt 4249 2503 L
5321 3034 mt 5393 3034 L
5357 2998 mt 5357 3070 L
3873 2007 mt 3945 2007 L
3909 1971 mt 3909 2043 L
4922 1930 mt 4994 1930 L
4958 1894 mt 4958 1966 L
2874 3314 mt 2946 3314 L
2910 3278 mt 2910 3350 L
2502 1181 mt 2574 1181 L
2538 1145 mt 2538 1217 L
4435 2247 mt 4507 2247 L
4471 2211 mt 4471 2283 L
1674 1911 mt 1746 1911 L
1710 1875 mt 1710 1947 L
4693 3005 mt 4765 3005 L
4729 2969 mt 4729 3041 L
4047 2365 mt 4119 2365 L
4083 2329 mt 4083 2401 L
3141 1878 mt 3213 1878 L
3177 1842 mt 3177 1914 L
3867 1802 mt 3939 1802 L
3903 1766 mt 3903 1838 L
3605 2256 mt 3677 2256 L
3641 2220 mt 3641 2292 L
5211 2432 mt 5283 2432 L
5247 2396 mt 5247 2468 L
3903 2558 mt 3975 2558 L
3939 2522 mt 3939 2594 L
1481 2869 mt 1553 2869 L
1517 2833 mt 1517 2905 L
3091 2994 mt 3163 2994 L
3127 2958 mt 3127 3030 L
4259 2745 mt 4331 2745 L
4295 2709 mt 4295 2781 L
4805 3567 mt 4877 3567 L
4841 3531 mt 4841 3603 L
4760 2571 mt 4832 2571 L
4796 2535 mt 4796 2607 L
3915 2356 mt 3987 2356 L
3951 2320 mt 3951 2392 L
2575 3157 mt 2647 3157 L
2611 3121 mt 2611 3193 L
3184 2615 mt 3256 2615 L
3220 2579 mt 3220 2651 L
4021 1207 mt 4093 1207 L
4057 1171 mt 4057 1243 L
2881 1318 mt 2953 1318 L
2917 1282 mt 2917 1354 L
2282 4305 mt 2354 4305 L
2318 4269 mt 2318 4341 L
5002 3457 mt 5074 3457 L
5038 3421 mt 5038 3493 L
4961 3942 mt 5033 3942 L
4997 3906 mt 4997 3978 L
2235 2120 mt 2307 2120 L
2271 2084 mt 2271 2156 L
3566 1371 mt 3638 1371 L
3602 1335 mt 3602 1407 L
5365 4023 mt 5437 4023 L
5401 3987 mt 5401 4059 L
5606 3081 mt 5678 3081 L
5642 3045 mt 5642 3117 L
3330 2115 mt 3402 2115 L
3366 2079 mt 3366 2151 L
3488 2545 mt 3560 2545 L
3524 2509 mt 3524 2581 L
2938 2218 mt 3010 2218 L
2974 2182 mt 2974 2254 L
3438 2787 mt 3510 2787 L
3474 2751 mt 3474 2823 L
4553 2677 mt 4625 2677 L
4589 2641 mt 4589 2713 L
4453 2024 mt 4525 2024 L
4489 1988 mt 4489 2060 L
5071 2562 mt 5143 2562 L
5107 2526 mt 5107 2598 L
4532 2135 mt 4604 2135 L
4568 2099 mt 4568 2171 L
4330 2773 mt 4402 2773 L
4366 2737 mt 4366 2809 L
3594 2170 mt 3666 2170 L
3630 2134 mt 3630 2206 L
3232 1892 mt 3304 1892 L
3268 1856 mt 3268 1928 L
2394 2251 mt 2466 2251 L
2430 2215 mt 2430 2287 L
2555 2731 mt 2627 2731 L
2591 2695 mt 2591 2767 L
3717 2940 mt 3789 2940 L
3753 2904 mt 3753 2976 L
3027 1680 mt 3099 1680 L
3063 1644 mt 3063 1716 L
3336 1049 mt 3408 1049 L
3372 1013 mt 3372 1085 L
4444 4072 mt 4516 4072 L
4480 4036 mt 4480 4108 L
2765 2576 mt 2837 2576 L
2801 2540 mt 2801 2612 L
2836 3436 mt 2908 3436 L
2872 3400 mt 2872 3472 L
4390 2150 mt 4462 2150 L
4426 2114 mt 4426 2186 L
4542 2523 mt 4614 2523 L
4578 2487 mt 4578 2559 L
5468 1354 mt 5540 1354 L
5504 1318 mt 5504 1390 L
3677 2029 mt 3749 2029 L
3713 1993 mt 3713 2065 L
3532 3198 mt 3604 3198 L
3568 3162 mt 3568 3234 L
3977 3220 mt 4049 3220 L
4013 3184 mt 4013 3256 L
2106 3731 mt 2178 3731 L
2142 3695 mt 2142 3767 L
1387 3540 mt 1459 3540 L
1423 3504 mt 1423 3576 L
4463 1809 mt 4535 1809 L
4499 1773 mt 4499 1845 L
4184 2414 mt 4256 2414 L
4220 2378 mt 4220 2450 L
3588 3075 mt 3660 3075 L
3624 3039 mt 3624 3111 L
3290  898 mt 3362  898 L
3326  862 mt 3326  934 L
2251 2214 mt 2323 2214 L
2287 2178 mt 2287 2250 L
4355 2298 mt 4427 2298 L
4391 2262 mt 4391 2334 L
4746 2628 mt 4818 2628 L
4782 2592 mt 4782 2664 L
3861 1489 mt 3933 1489 L
3897 1453 mt 3897 1525 L
4135 3028 mt 4207 3028 L
4171 2992 mt 4171 3064 L
3538 2951 mt 3610 2951 L
3574 2915 mt 3574 2987 L
4015 1624 mt 4087 1624 L
4051 1588 mt 4051 1660 L
4314 1448 mt 4386 1448 L
4350 1412 mt 4350 1484 L
4306 1740 mt 4378 1740 L
4342 1704 mt 4342 1776 L
3415 2815 mt 3487 2815 L
3451 2779 mt 3451 2851 L
4820 2316 mt 4892 2316 L
4856 2280 mt 4856 2352 L
3983 1954 mt 4055 1954 L
4019 1918 mt 4019 1990 L
4597 2602 mt 4669 2602 L
4633 2566 mt 4633 2638 L
2680 1434 mt 2752 1434 L
2716 1398 mt 2716 1470 L
1937 3087 mt 2009 3087 L
1973 3051 mt 1973 3123 L
4228 2619 mt 4300 2619 L
4264 2583 mt 4264 2655 L
3381 3376 mt 3453 3376 L
3417 3340 mt 3417 3412 L
3745 1121 mt 3817 1121 L
3781 1085 mt 3781 1157 L
4060 2510 mt 4132 2510 L
4096 2474 mt 4096 2546 L
3728 3822 mt 3800 3822 L
3764 3786 mt 3764 3858 L
2624 2589 mt 2696 2589 L
2660 2553 mt 2660 2625 L
4221  414 mt 4293  414 L
4257  378 mt 4257  450 L
4425 3553 mt 4497 3553 L
4461 3517 mt 4461 3589 L
3803 3106 mt 3875 3106 L
3839 3070 mt 3839 3142 L
4142 2130 mt 4214 2130 L
4178 2094 mt 4178 2166 L
2126 3331 mt 2198 3331 L
2162 3295 mt 2162 3367 L
3516 3297 mt 3588 3297 L
3552 3261 mt 3552 3333 L
6225 3011 mt 6297 3011 L
6261 2975 mt 6261 3047 L
3644 2792 mt 3716 2792 L
3680 2756 mt 3680 2828 L
3226 2089 mt 3298 2089 L
3262 2053 mt 3262 2125 L
4667 1764 mt 4739 1764 L
4703 1728 mt 4703 1800 L
3426 2811 mt 3498 2811 L
3462 2775 mt 3462 2847 L
5531 2320 mt 5603 2320 L
5567 2284 mt 5567 2356 L
3359 1476 mt 3431 1476 L
3395 1440 mt 3395 1512 L
5413 2536 mt 5485 2536 L
5449 2500 mt 5449 2572 L
3809 3118 mt 3881 3118 L
3845 3082 mt 3845 3154 L
1619 2418 mt 1691 2418 L
1655 2382 mt 1655 2454 L
5700 2925 mt 5772 2925 L
5736 2889 mt 5736 2961 L
4836 3213 mt 4908 3213 L
4872 3177 mt 4872 3249 L
4608 3093 mt 4680 3093 L
4644 3057 mt 4644 3129 L
2910 2879 mt 2982 2879 L
2946 2843 mt 2946 2915 L
4087 3581 mt 4159 3581 L
4123 3545 mt 4123 3617 L
1876 2233 mt 1948 2233 L
1912 2197 mt 1912 2269 L
3785 3137 mt 3857 3137 L
3821 3101 mt 3821 3173 L
4170 2978 mt 4242 2978 L
4206 2942 mt 4206 3014 L
3190 2145 mt 3262 2145 L
3226 2109 mt 3226 2181 L
4266 2223 mt 4338 2223 L
4302 2187 mt 4302 2259 L
3278 3877 mt 3350 3877 L
3314 3841 mt 3314 3913 L
5828 2104 mt 5900 2104 L
5864 2068 mt 5864 2140 L
4398 2904 mt 4470 2904 L
4434 2868 mt 4434 2940 L
2805 3610 mt 2877 3610 L
2841 3574 mt 2841 3646 L
4067 2109 mt 4139 2109 L
4103 2073 mt 4103 2145 L
5096 2083 mt 5168 2083 L
5132 2047 mt 5132 2119 L
3078 3980 mt 3150 3980 L
3114 3944 mt 3114 4016 L
2917 3306 mt 2989 3306 L
2953 3270 mt 2953 3342 L
4775 1462 mt 4847 1462 L
4811 1426 mt 4811 1498 L
4941 2624 mt 5013 2624 L
4977 2588 mt 4977 2660 L
4338 1858 mt 4410 1858 L
4374 1822 mt 4374 1894 L
2689 2750 mt 2761 2750 L
2725 2714 mt 2725 2786 L
2797 3711 mt 2869 3711 L
2833 3675 mt 2833 3747 L
2952 3752 mt 3024 3752 L
2988 3716 mt 2988 3788 L
2312 2946 mt 2384 2946 L
2348 2910 mt 2348 2982 L
4492 2051 mt 4564 2051 L
4528 2015 mt 4528 2087 L
3153 2801 mt 3225 2801 L
3189 2765 mt 3189 2837 L
4869 1526 mt 4941 1526 L
4905 1490 mt 4905 1562 L
2643 2718 mt 2715 2718 L
2679 2682 mt 2679 2754 L
3706 3491 mt 3778 3491 L
3742 3455 mt 3742 3527 L
3774 3774 mt 3846 3774 L
3810 3738 mt 3810 3810 L
2789 3386 mt 2861 3386 L
2825 3350 mt 2825 3422 L
4114 1936 mt 4186 1936 L
4150 1900 mt 4150 1972 L
4149 2884 mt 4221 2884 L
4185 2848 mt 4185 2920 L
4904 2073 mt 4976 2073 L
4940 2037 mt 4940 2109 L
2063 2849 mt 2135 2849 L
2099 2813 mt 2099 2885 L
5245 2554 mt 5317 2554 L
5281 2518 mt 5281 2590 L
4643 1277 mt 4715 1277 L
4679 1241 mt 4679 1313 L
1805 3446 mt 1877 3446 L
1841 3410 mt 1841 3482 L
4236 2436 mt 4308 2436 L
4272 2400 mt 4272 2472 L
2490 2782 mt 2562 2782 L
2526 2746 mt 2526 2818 L
2781 1823 mt 2853 1823 L
2817 1787 mt 2817 1859 L
2931 1298 mt 3003 1298 L
2967 1262 mt 2967 1334 L
2773 3515 mt 2845 3515 L
2809 3479 mt 2809 3551 L
1259 3063 mt 1331 3063 L
1295 3027 mt 1295 3099 L
2732 2155 mt 2804 2155 L
2768 2119 mt 2768 2191 L
3577 3069 mt 3649 3069 L
3613 3033 mt 3613 3105 L
3033 2370 mt 3105 2370 L
3069 2334 mt 3069 2406 L
5122 1960 mt 5194 1960 L
5158 1924 mt 5158 1996 L
3273  564 mt 3345  564 L
3309  528 mt 3309  600 L
4156 2983 mt 4228 2983 L
4192 2947 mt 4192 3019 L
5047 3468 mt 5119 3468 L
5083 3432 mt 5083 3504 L
4274 2844 mt 4346 2844 L
4310 2808 mt 4310 2880 L
3072 3281 mt 3144 3281 L
3108 3245 mt 3108 3317 L
3220 3527 mt 3292 3527 L
3256 3491 mt 3256 3563 L
3734 1816 mt 3806 1816 L
3770 1780 mt 3770 1852 L
3443 2549 mt 3515 2549 L
3479 2513 mt 3479 2585 L
4009 2288 mt 4081 2288 L
4045 2252 mt 4045 2324 L
3627 1662 mt 3699 1662 L
3663 1626 mt 3663 1698 L
2016 3265 mt 2088 3265 L
2052 3229 mt 2052 3301 L
3655 3425 mt 3727 3425 L
3691 3389 mt 3691 3461 L
3098 2584 mt 3170 2584 L
3134 2548 mt 3134 2620 L
 863 2889 mt  935 2889 L
 899 2853 mt  899 2925 L
4789 1232 mt 4861 1232 L
4825 1196 mt 4825 1268 L
5150 1942 mt 5222 1942 L
5186 1906 mt 5186 1978 L
4407 3227 mt 4479 3227 L
4443 3191 mt 4443 3263 L
4522 2471 mt 4594 2471 L
4558 2435 mt 4558 2507 L
3723 2806 mt 3795 2806 L
3759 2770 mt 3759 2842 L
4041 1514 mt 4113 1514 L
4077 1478 mt 4077 1550 L
3066 2379 mt 3138 2379 L
3102 2343 mt 3102 2415 L
2298 1502 mt 2370 1502 L
2334 1466 mt 2334 1538 L
3521 2962 mt 3593 2962 L
3557 2926 mt 3557 2998 L
3952 2641 mt 4024 2641 L
3988 2605 mt 3988 2677 L
3249 2778 mt 3321 2778 L
3285 2742 mt 3285 2814 L
3243 2655 mt 3315 2655 L
3279 2619 mt 3279 2691 L
5024 2691 mt 5096 2691 L
5060 2655 mt 5060 2727 L
2165 2501 mt 2237 2501 L
2201 2465 mt 2201 2537 L
4619 2427 mt 4691 2427 L
4655 2391 mt 4655 2463 L
4416 2593 mt 4488 2593 L
4452 2557 mt 4452 2629 L
3364 2606 mt 3436 2606 L
3400 2570 mt 3400 2642 L
4206 3151 mt 4278 3151 L
4242 3115 mt 4242 3187 L
3370 3099 mt 3442 3099 L
3406 3063 mt 3406 3135 L
2368 3405 mt 2440 3405 L
2404 3369 mt 2404 3441 L
2924 2859 mt 2996 2859 L
2960 2823 mt 2960 2895 L
3927 1723 mt 3999 1723 L
3963 1687 mt 3963 1759 L
3700 2453 mt 3772 2453 L
3736 2417 mt 3736 2489 L
3393 3848 mt 3465 3848 L
3429 3812 mt 3429 3884 L
3844 2722 mt 3916 2722 L
3880 2686 mt 3880 2758 L
6033  957 mt 6105  957 L
6069  921 mt 6069  993 L
3940 3000 mt 4012 3000 L
3976 2964 mt 3976 3036 L
2987  724 mt 3059  724 L
3023  688 mt 3023  760 L
3166 2646 mt 3238 2646 L
3202 2610 mt 3202 2682 L
3971 1653 mt 4043 1653 L
4007 1617 mt 4007 1689 L
4191 2840 mt 4263 2840 L
4227 2804 mt 4227 2876 L
4512 1732 mt 4584 1732 L
4548 1696 mt 4548 1768 L
gs 899 414 5363 4203 rc
gr

0 sg
2795 5104 mt 
(\(F,DCTb,iMLP\)) s
 482 3259 mt  -90 rotate
(\(S,PAC,GMM\)) s
90 rotate
2975  223 mt 
(Corr = 0.07) s

end %%Color Dict

eplot
%%EndObject

epage
end

showpage

%%Trailer
%%EOF
