%!PS-Adobe-3.0 EPSF-3.0
%%Creator: MATLAB, The Mathworks, Inc. Version 7.7.0.471 (R2008b). Operating System: Microsoft Windows XP.
%%Title: Pictures\main_zoo_mvar_analysis_data_BMI_xcorr_bmig_p1_k1_1_4.eps
%%CreationDate: 10/26/2009  05:44:46
%%DocumentNeededFonts: Helvetica
%%DocumentProcessColors: Cyan Magenta Yellow Black
%%LanguageLevel: 2
%%Pages: 1
%%BoundingBox:    37   180   549   616
%%EndComments

%%BeginProlog
% MathWorks dictionary
/MathWorks 160 dict begin
% definition operators
/bdef {bind def} bind def
/ldef {load def} bind def
/xdef {exch def} bdef
/xstore {exch store} bdef
% operator abbreviations
/c  /clip ldef
/cc /concat ldef
/cp /closepath ldef
/gr /grestore ldef
/gs /gsave ldef
/mt /moveto ldef
/np /newpath ldef
/cm /currentmatrix ldef
/sm /setmatrix ldef
/rm /rmoveto ldef
/rl /rlineto ldef
/s {show newpath} bdef
/sc {setcmykcolor} bdef
/sr /setrgbcolor ldef
/sg /setgray ldef
/w /setlinewidth ldef
/j /setlinejoin ldef
/cap /setlinecap ldef
/rc {rectclip} bdef
/rf {rectfill} bdef
% page state control
/pgsv () def
/bpage {/pgsv save def} bdef
/epage {pgsv restore} bdef
/bplot /gsave ldef
/eplot {stroke grestore} bdef
% orientation switch
/portraitMode 0 def /landscapeMode 1 def /rotateMode 2 def
% coordinate system mappings
/dpi2point 0 def
% font control
/FontSize 0 def
/FMS {/FontSize xstore findfont [FontSize 0 0 FontSize neg 0 0]
  makefont setfont} bdef
/ISOLatin1Encoding where {pop /WindowsLatin1Encoding 256 array bdef
ISOLatin1Encoding WindowsLatin1Encoding copy pop
/.notdef/.notdef/quotesinglbase/florin/quotedblbase/ellipsis/dagger
/daggerdbl/circumflex/perthousand/Scaron/guilsinglleft/OE/.notdef/.notdef
/.notdef/.notdef/quoteleft/quoteright/quotedblleft/quotedblright/bullet
/endash/emdash/tilde/trademark/scaron/guilsinglright/oe/.notdef/.notdef
/Ydieresis WindowsLatin1Encoding 128 32 getinterval astore pop}
{/WindowsLatin1Encoding StandardEncoding bdef} ifelse
/reencode {exch dup where {pop load} {pop StandardEncoding} ifelse
  exch dup 3 1 roll findfont dup length dict begin
  { 1 index /FID ne {def}{pop pop} ifelse } forall
  /Encoding exch def currentdict end definefont pop} bdef
/isroman {findfont /CharStrings get /Agrave known} bdef
/FMSR {3 1 roll 1 index dup isroman {reencode} {pop pop} ifelse
  exch FMS} bdef
/csm {1 dpi2point div -1 dpi2point div scale neg translate
 dup landscapeMode eq {pop -90 rotate}
  {rotateMode eq {90 rotate} if} ifelse} bdef
% line types: solid, dotted, dashed, dotdash
/SO { [] 0 setdash } bdef
/DO { [.5 dpi2point mul 4 dpi2point mul] 0 setdash } bdef
/DA { [6 dpi2point mul] 0 setdash } bdef
/DD { [.5 dpi2point mul 4 dpi2point mul 6 dpi2point mul 4
  dpi2point mul] 0 setdash } bdef
% macros for lines and objects
/L {lineto stroke} bdef
/MP {3 1 roll moveto 1 sub {rlineto} repeat} bdef
/AP {{rlineto} repeat} bdef
/PDlw -1 def
/W {/PDlw currentlinewidth def setlinewidth} def
/PP {closepath eofill} bdef
/DP {closepath stroke} bdef
/MR {4 -2 roll moveto dup  0 exch rlineto exch 0 rlineto
  neg 0 exch rlineto closepath} bdef
/FR {MR stroke} bdef
/PR {MR fill} bdef
/L1i {{currentfile picstr readhexstring pop} image} bdef
/tMatrix matrix def
/MakeOval {newpath tMatrix currentmatrix pop translate scale
0 0 1 0 360 arc tMatrix setmatrix} bdef
/FO {MakeOval stroke} bdef
/PO {MakeOval fill} bdef
/PD {currentlinewidth 2 div 0 360 arc fill
   PDlw -1 eq not {PDlw w /PDlw -1 def} if} def
/FA {newpath tMatrix currentmatrix pop translate scale
  0 0 1 5 -2 roll arc tMatrix setmatrix stroke} bdef
/PA {newpath tMatrix currentmatrix pop	translate 0 0 moveto scale
  0 0 1 5 -2 roll arc closepath tMatrix setmatrix fill} bdef
/FAn {newpath tMatrix currentmatrix pop translate scale
  0 0 1 5 -2 roll arcn tMatrix setmatrix stroke} bdef
/PAn {newpath tMatrix currentmatrix pop translate 0 0 moveto scale
  0 0 1 5 -2 roll arcn closepath tMatrix setmatrix fill} bdef
/vradius 0 def /hradius 0 def /lry 0 def
/lrx 0 def /uly 0 def /ulx 0 def /rad 0 def
/MRR {/vradius xdef /hradius xdef /lry xdef /lrx xdef /uly xdef
  /ulx xdef newpath tMatrix currentmatrix pop ulx hradius add uly
  vradius add translate hradius vradius scale 0 0 1 180 270 arc 
  tMatrix setmatrix lrx hradius sub uly vradius add translate
  hradius vradius scale 0 0 1 270 360 arc tMatrix setmatrix
  lrx hradius sub lry vradius sub translate hradius vradius scale
  0 0 1 0 90 arc tMatrix setmatrix ulx hradius add lry vradius sub
  translate hradius vradius scale 0 0 1 90 180 arc tMatrix setmatrix
  closepath} bdef
/FRR {MRR stroke } bdef
/PRR {MRR fill } bdef
/MlrRR {/lry xdef /lrx xdef /uly xdef /ulx xdef /rad lry uly sub 2 div def
  newpath tMatrix currentmatrix pop ulx rad add uly rad add translate
  rad rad scale 0 0 1 90 270 arc tMatrix setmatrix lrx rad sub lry rad
  sub translate rad rad scale 0 0 1 270 90 arc tMatrix setmatrix
  closepath} bdef
/FlrRR {MlrRR stroke } bdef
/PlrRR {MlrRR fill } bdef
/MtbRR {/lry xdef /lrx xdef /uly xdef /ulx xdef /rad lrx ulx sub 2 div def
  newpath tMatrix currentmatrix pop ulx rad add uly rad add translate
  rad rad scale 0 0 1 180 360 arc tMatrix setmatrix lrx rad sub lry rad
  sub translate rad rad scale 0 0 1 0 180 arc tMatrix setmatrix
  closepath} bdef
/FtbRR {MtbRR stroke } bdef
/PtbRR {MtbRR fill } bdef
/stri 6 array def /dtri 6 array def
/smat 6 array def /dmat 6 array def
/tmat1 6 array def /tmat2 6 array def /dif 3 array def
/asub {/ind2 exch def /ind1 exch def dup dup
  ind1 get exch ind2 get sub exch } bdef
/tri_to_matrix {
  2 0 asub 3 1 asub 4 0 asub 5 1 asub
  dup 0 get exch 1 get 7 -1 roll astore } bdef
/compute_transform {
  dmat dtri tri_to_matrix tmat1 invertmatrix 
  smat stri tri_to_matrix tmat2 concatmatrix } bdef
/ds {stri astore pop} bdef
/dt {dtri astore pop} bdef
/db {2 copy /cols xdef /rows xdef mul dup 3 mul string
  currentfile 
  3 index 0 eq {/ASCIIHexDecode filter}
  {/ASCII85Decode filter 3 index 2 eq {/RunLengthDecode filter} if }
  ifelse exch readstring pop
  dup 0 3 index getinterval /rbmap xdef
  dup 2 index dup getinterval /gbmap xdef
  1 index dup 2 mul exch getinterval /bbmap xdef pop pop}bdef
/it {gs np dtri aload pop moveto lineto lineto cp c
  cols rows 8 compute_transform 
  rbmap gbmap bbmap true 3 colorimage gr}bdef
/il {newpath moveto lineto stroke}bdef
currentdict end def
%%EndProlog

%%BeginSetup
MathWorks begin

0 cap

end
%%EndSetup

%%Page: 1 1
%%BeginPageSetup
%%PageBoundingBox:    37   180   549   616
MathWorks begin
bpage
%%EndPageSetup

%%BeginObject: obj1
bplot

/dpi2point 12 def
portraitMode 0216 7344 csm

  234   -48  6149  5231 rc
85 dict begin %Colortable dictionary
/c0 { 0.000000 0.000000 0.000000 sr} bdef
/c1 { 1.000000 1.000000 1.000000 sr} bdef
/c2 { 0.900000 0.000000 0.000000 sr} bdef
/c3 { 0.000000 0.820000 0.000000 sr} bdef
/c4 { 0.000000 0.000000 0.800000 sr} bdef
/c5 { 0.910000 0.820000 0.320000 sr} bdef
/c6 { 1.000000 0.260000 0.820000 sr} bdef
/c7 { 0.000000 0.820000 0.820000 sr} bdef
c0
1 j
1 sg
   0    0 6919 5187 rf
6 w
0 4202 5362 0 0 -4202 899 4616 4 MP
PP
-5362 0 0 4202 5362 0 0 -4202 899 4616 5 MP stroke
4 w
DO
SO
6 w
0 sg
 899  414 mt 6261  414 L
 899 4616 mt 6261 4616 L
6261 4616 mt 6261  414 L
 899 4616 mt  899  414 L
 899 4616 mt 6261 4616 L
 899 4616 mt  899  414 L
 919 4616 mt  919 4562 L
 919  414 mt  919  467 L
%%IncludeResource: font Helvetica
/Helvetica /WindowsLatin1Encoding 240 FMSR

 713 4873 mt 
(-3) s
1806 4616 mt 1806 4562 L
1806  414 mt 1806  467 L
1600 4873 mt 
(-2) s
2693 4616 mt 2693 4562 L
2693  414 mt 2693  467 L
2487 4873 mt 
(-1) s
3580 4616 mt 3580 4562 L
3580  414 mt 3580  467 L
3514 4873 mt 
(0) s
4466 4616 mt 4466 4562 L
4466  414 mt 4466  467 L
4400 4873 mt 
(1) s
5353 4616 mt 5353 4562 L
5353  414 mt 5353  467 L
5287 4873 mt 
(2) s
6240 4616 mt 6240 4562 L
6240  414 mt 6240  467 L
6174 4873 mt 
(3) s
 899 4599 mt  952 4599 L
6261 4599 mt 6207 4599 L
 591 4688 mt 
(-3) s
 899 3904 mt  952 3904 L
6261 3904 mt 6207 3904 L
 591 3993 mt 
(-2) s
 899 3209 mt  952 3209 L
6261 3209 mt 6207 3209 L
 591 3298 mt 
(-1) s
 899 2514 mt  952 2514 L
6261 2514 mt 6207 2514 L
 731 2603 mt 
(0) s
 899 1820 mt  952 1820 L
6261 1820 mt 6207 1820 L
 731 1909 mt 
(1) s
 899 1125 mt  952 1125 L
6261 1125 mt 6207 1125 L
 731 1214 mt 
(2) s
 899  430 mt  952  430 L
6261  430 mt 6207  430 L
 731  519 mt 
(3) s
 899  414 mt 6261  414 L
 899 4616 mt 6261 4616 L
6261 4616 mt 6261  414 L
 899 4616 mt  899  414 L
gs 899 414 5363 4203 rc
gr

/c8 { 0.000000 0.000000 1.000000 sr} bdef
c8
4453 2899 mt 4525 2899 L
4489 2863 mt 4489 2935 L
2749 2170 mt 2821 2170 L
2785 2134 mt 2785 2206 L
4067 1593 mt 4139 1593 L
4103 1557 mt 4103 1629 L
3582 2320 mt 3654 2320 L
3618 2284 mt 3618 2356 L
1805 3045 mt 1877 3045 L
1841 3009 mt 1841 3081 L
4163 2580 mt 4235 2580 L
4199 2544 mt 4199 2616 L
3267 1923 mt 3339 1923 L
3303 1887 mt 3303 1959 L
3202 3057 mt 3274 3057 L
3238 3021 mt 3238 3093 L
4585 2611 mt 4657 2611 L
4621 2575 mt 4621 2647 L
4981 2204 mt 5053 2204 L
5017 2168 mt 5017 2240 L
3085 2453 mt 3157 2453 L
3121 2417 mt 3121 2489 L
1766 1898 mt 1838 1898 L
1802 1862 mt 1802 1934 L
3330 1723 mt 3402 1723 L
3366 1687 mt 3366 1759 L
3046 2089 mt 3118 2089 L
3082 2053 mt 3082 2125 L
4243 2247 mt 4315 2247 L
4279 2211 mt 4279 2283 L
4416 1930 mt 4488 1930 L
4452 1894 mt 4452 1966 L
3135 2750 mt 3207 2750 L
3171 2714 mt 3171 2786 L
3307 3005 mt 3379 3005 L
3343 2969 mt 3343 3041 L
2634 1371 mt 2706 1371 L
2670 1335 mt 2670 1407 L
4028 2467 mt 4100 2467 L
4064 2431 mt 4064 2503 L
4398 2523 mt 4470 2523 L
4434 2487 mt 4434 2559 L
3325 3358 mt 3397 3358 L
3361 3322 mt 3361 3394 L
2723 2334 mt 2795 2334 L
2759 2298 mt 2759 2370 L
3290 1489 mt 3362 1489 L
3326 1453 mt 3326 1525 L
5468 2983 mt 5540 2983 L
5504 2947 mt 5504 3019 L
3700 2288 mt 3772 2288 L
3736 2252 mt 3736 2324 L
3426 2383 mt 3498 2383 L
3462 2347 mt 3462 2419 L
4338 2256 mt 4410 2256 L
4374 2220 mt 4374 2292 L
1556 2352 mt 1628 2352 L
1592 2316 mt 1592 2388 L
3751 2637 mt 3823 2637 L
3787 2601 mt 3787 2673 L
2355 3075 mt 2427 3075 L
2391 3039 mt 2391 3111 L
3694 2401 mt 3766 2401 L
3730 2365 mt 3730 2437 L
3538 1838 mt 3610 1838 L
3574 1802 mt 3574 1874 L
1842 3178 mt 1914 3178 L
1878 3142 mt 1878 3214 L
3785 1878 mt 3857 1878 L
3821 1842 mt 3821 1914 L
2781 3415 mt 2853 3415 L
2817 3379 mt 2817 3451 L
4149 3273 mt 4221 3273 L
4185 3237 mt 4185 3309 L
3723 2396 mt 3795 2396 L
3759 2360 mt 3759 2432 L
3190 2233 mt 3262 2233 L
3226 2197 mt 3226 2269 L
3493 2012 mt 3565 2012 L
3529 1976 mt 3529 2048 L
2063 2619 mt 2135 2619 L
2099 2583 mt 2099 2655 L
2987 1526 mt 3059 1526 L
3023 1490 mt 3023 1562 L
3098 3395 mt 3170 3395 L
3134 3359 mt 3134 3431 L
4444 1152 mt 4516 1152 L
4480 1116 mt 4480 1188 L
5606  564 mt 5678  564 L
5642  528 mt 5642  600 L
2765 2284 mt 2837 2284 L
2801 2248 mt 2801 2320 L
3091 3289 mt 3163 3289 L
3127 3253 mt 3127 3325 L
3466 1892 mt 3538 1892 L
3502 1856 mt 3502 1928 L
4512 1680 mt 4584 1680 L
4548 1644 mt 4548 1716 L
2534 1653 mt 2606 1653 L
2570 1617 mt 2570 1689 L
4236 3367 mt 4308 3367 L
4272 3331 mt 4272 3403 L
3172 3822 mt 3244 3822 L
3208 3786 mt 3208 3858 L
3566 1087 mt 3638 1087 L
3602 1051 mt 3602 1123 L
3381 2825 mt 3453 2825 L
3417 2789 mt 3417 2861 L
4372 2709 mt 4444 2709 L
4408 2673 mt 4408 2745 L
2394 2713 mt 2466 2713 L
2430 2677 mt 2430 2749 L
2298 2279 mt 2370 2279 L
2334 2243 mt 2334 2315 L
3655 2722 mt 3727 2722 L
3691 2686 mt 3691 2758 L
4680 1904 mt 4752 1904 L
4716 1868 mt 4716 1940 L
2917 1816 mt 2989 1816 L
2953 1780 mt 2953 1852 L
4015 3106 mt 4087 3106 L
4051 3070 mt 4051 3142 L
4435 3711 mt 4507 3711 L
4471 3675 mt 4471 3747 L
2085 1572 mt 2157 1572 L
2121 1536 mt 2121 1608 L
4390 1318 mt 4462 1318 L
4426 1282 mt 4426 1354 L
4251 1502 mt 4323 1502 L
4287 1466 mt 4287 1538 L
1481 3022 mt 1553 3022 L
1517 2986 mt 1517 3058 L
4259 1255 mt 4331 1255 L
4295 1219 mt 4295 1291 L
2757 3198 mt 2829 3198 L
2793 3162 mt 2793 3234 L
2680 2497 mt 2752 2497 L
2716 2461 mt 2716 2533 L
3588 2664 mt 3660 2664 L
3624 2628 mt 3624 2700 L
4501 2365 mt 4573 2365 L
4537 2329 mt 4537 2401 L
4191 2024 mt 4263 2024 L
4227 1988 mt 4227 2060 L
5245 2311 mt 5317 2311 L
5281 2275 mt 5281 2347 L
3214 2700 mt 3286 2700 L
3250 2664 mt 3250 2736 L
4047 2864 mt 4119 2864 L
4083 2828 mt 4083 2900 L
1876 1462 mt 1948 1462 L
1912 1426 mt 1912 1498 L
4564 1748 mt 4636 1748 L
4600 1712 mt 4600 1784 L
3116 2218 mt 3188 2218 L
3152 2182 mt 3152 2254 L
3072 1662 mt 3144 1662 L
3108 1626 mt 3108 1698 L
4836 2532 mt 4908 2532 L
4872 2496 mt 4872 2568 L
4094 1448 mt 4166 1448 L
4130 1412 mt 4130 1484 L
3594 1336 mt 3666 1336 L
3630 1300 mt 3630 1372 L
3855 3257 mt 3927 3257 L
3891 3221 mt 3891 3293 L
2165 2488 mt 2237 2488 L
2201 2452 mt 2201 2524 L
5180 2519 mt 5252 2519 L
5216 2483 mt 5216 2555 L
3415 2099 mt 3487 2099 L
3451 2063 mt 3451 2135 L
3921 2844 mt 3993 2844 L
3957 2808 mt 3957 2880 L
5096 1121 mt 5168 1121 L
5132 1085 mt 5132 1157 L
2828 3349 mt 2900 3349 L
2864 3313 mt 2864 3385 L
5150 3553 mt 5222 3553 L
5186 3517 mt 5186 3589 L
3757 1698 mt 3829 1698 L
3793 1662 mt 3793 1734 L
3599 1434 mt 3671 1434 L
3635 1398 mt 3635 1470 L
1965 2062 mt 2037 2062 L
2001 2026 mt 2001 2098 L
2959 2242 mt 3031 2242 L
2995 2206 mt 2995 2278 L
4142 4131 mt 4214 4131 L
4178 4095 mt 4178 4167 L
3927 2145 mt 3999 2145 L
3963 2109 mt 3963 2181 L
4805 2731 mt 4877 2731 L
4841 2695 mt 4841 2767 L
4608 2691 mt 4680 2691 L
4644 2655 mt 4644 2727 L
4719 1634 mt 4791 1634 L
4755 1598 mt 4755 1670 L
4597 2994 mt 4669 2994 L
4633 2958 mt 4633 3030 L
3488 2940 mt 3560 2940 L
3524 2904 mt 3524 2976 L
2444 2633 mt 2516 2633 L
2480 2597 mt 2480 2669 L
4643 1865 mt 4715 1865 L
4679 1829 mt 4679 1901 L
3940 2956 mt 4012 2956 L
3976 2920 mt 3976 2992 L
6033 2261 mt 6105 2261 L
6069 2225 mt 6069 2297 L
2773 2140 mt 2845 2140 L
2809 2104 mt 2809 2176 L
3897 1972 mt 3969 1972 L
3933 1936 mt 3933 2008 L
3141 2773 mt 3213 2773 L
3177 2737 mt 3177 2809 L
2040 2597 mt 2112 2597 L
2076 2561 mt 2076 2633 L
4199 3081 mt 4271 3081 L
4235 3045 mt 4235 3117 L
5321  724 mt 5393  724 L
5357  688 mt 5357  760 L
3505 2584 mt 3577 2584 L
3541 2548 mt 3541 2620 L
3410 3137 mt 3482 3137 L
3446 3101 mt 3446 3173 L
1907 3051 mt 1979 3051 L
1943 3015 mt 1943 3087 L
3232 1948 mt 3304 1948 L
3268 1912 mt 3268 1984 L
2468 2209 mt 2540 2209 L
2504 2173 mt 2504 2245 L
3059 2073 mt 3131 2073 L
3095 2037 mt 3095 2109 L
3033 2361 mt 3105 2361 L
3069 2325 mt 3069 2397 L
3891 1550 mt 3963 1550 L
3927 1514 mt 3927 1586 L
2938 3281 mt 3010 3281 L
2974 3245 mt 2974 3317 L
4904 2874 mt 4976 2874 L
4940 2838 mt 4940 2910 L
3838 1978 mt 3910 1978 L
3874 1942 mt 3874 2014 L
2662 3131 mt 2734 3131 L
2698 3095 mt 2698 3167 L
3364 1476 mt 3436 1476 L
3400 1440 mt 3400 1512 L
2740 2475 mt 2812 2475 L
2776 2439 mt 2776 2511 L
4330 1354 mt 4402 1354 L
4366 1318 mt 4366 1390 L
3013 2820 mt 3085 2820 L
3049 2784 mt 3049 2856 L
3404 2506 mt 3476 2506 L
3440 2470 mt 3440 2542 L
3605 2695 mt 3677 2695 L
3641 2659 mt 3641 2731 L
3903 3658 mt 3975 3658 L
3939 3622 mt 3939 3694 L
4655 1787 mt 4727 1787 L
4691 1751 mt 4691 1823 L
 863 2668 mt  935 2668 L
 899 2632 mt  899 2704 L
3166 2920 mt 3238 2920 L
3202 2884 mt 3202 2956 L
2282 4305 mt 2354 4305 L
2318 4269 mt 2318 4341 L
2595 4205 mt 2667 4205 L
2631 4169 mt 2631 4241 L
3284 3314 mt 3356 3314 L
3320 3278 mt 3320 3350 L
2697 2673 mt 2769 2673 L
2733 2637 mt 2733 2709 L
2327 2736 mt 2399 2736 L
2363 2700 mt 2363 2772 L
1387 1917 mt 1459 1917 L
1423 1881 mt 1423 1953 L
2980 2904 mt 3052 2904 L
3016 2868 mt 3016 2940 L
2523 2125 mt 2595 2125 L
2559 2089 mt 2559 2161 L
3359 2237 mt 3431 2237 L
3395 2201 mt 3395 2273 L
4314 1671 mt 4386 1671 L
4350 1635 mt 4350 1707 L
2924 3436 mt 2996 3436 L
2960 3400 mt 2960 3472 L
3768 2545 mt 3840 2545 L
3804 2509 mt 3804 2581 L
4306 2624 mt 4378 2624 L
4342 2588 mt 4342 2660 L
2218 2115 mt 2290 2115 L
2254 2079 mt 2254 2151 L
4087 1740 mt 4159 1740 L
4123 1704 mt 4123 1776 L
4922 1707 mt 4994 1707 L
4958 1671 mt 4958 1743 L
1619 3468 mt 1691 3468 L
1655 3432 mt 1655 3504 L
4492  414 mt 4564  414 L
4528  378 mt 4528  450 L
3255 3125 mt 3327 3125 L
3291 3089 mt 3291 3161 L
2201 2571 mt 2273 2571 L
2237 2535 mt 2237 2607 L
3438 1990 mt 3510 1990 L
3474 1954 mt 3474 2026 L
2490 3774 mt 2562 3774 L
2526 3738 mt 2526 3810 L
3571 2646 mt 3643 2646 L
3607 2610 mt 3607 2682 L
3728 1851 mt 3800 1851 L
3764 1815 mt 3764 1887 L
3983 2567 mt 4055 2567 L
4019 2531 mt 4019 2603 L
2859 3567 mt 2931 3567 L
2895 3531 mt 2895 3603 L
4553 1995 mt 4625 1995 L
4589 1959 mt 4589 2031 L
4184 1614 mt 4256 1614 L
4220 1578 mt 4220 1650 L
3780 2806 mt 3852 2806 L
3816 2770 mt 3816 2842 L
4228 3069 mt 4300 3069 L
4264 3033 mt 4264 3105 L
2888 2307 mt 2960 2307 L
2924 2271 mt 2924 2343 L
4746 2414 mt 4818 2414 L
4782 2378 mt 4782 2450 L
3178 2007 mt 3250 2007 L
3214 1971 mt 3214 2043 L
4021 1006 mt 4093 1006 L
4057  970 mt 4057 1042 L
4522 2316 mt 4594 2316 L
4558 2280 mt 4558 2352 L
2555 2541 mt 2627 2541 L
2591 2505 mt 2591 2577 L
2715 1872 mt 2787 1872 L
2751 1836 mt 2751 1908 L
3208 2967 mt 3280 2967 L
3244 2931 mt 3244 3003 L
4156 3039 mt 4228 3039 L
4192 3003 mt 4192 3075 L
2836 3540 mt 2908 3540 L
2872 3504 mt 2872 3576 L
3319 2347 mt 3391 2347 L
3355 2311 mt 3355 2383 L
3666 2589 mt 3738 2589 L
3702 2553 mt 3702 2625 L
2432 2370 mt 2504 2370 L
2468 2334 mt 2468 2406 L
2789 2194 mt 2861 2194 L
2825 2158 mt 2825 2230 L
5531 2528 mt 5603 2528 L
5567 2492 mt 5567 2564 L
3627 2029 mt 3699 2029 L
3663 1993 mt 3663 2065 L
3826 2449 mt 3898 2449 L
3862 2413 mt 3862 2485 L
3510 3034 mt 3582 3034 L
3546 2998 mt 3546 3070 L
3989 3250 mt 4061 3250 L
4025 3214 mt 4025 3286 L
2106 2155 mt 2178 2155 L
2142 2119 mt 2142 2191 L
3421 1277 mt 3493 1277 L
3457 1241 mt 3457 1313 L
2502 2051 mt 2574 2051 L
2538 2015 mt 2538 2087 L
2183 2405 mt 2255 2405 L
2219 2369 mt 2219 2441 L
3689 2787 mt 3761 2787 L
3725 2751 mt 3725 2823 L
3336 2427 mt 3408 2427 L
3372 2391 mt 3372 2463 L
2513 2869 mt 2585 2869 L
2549 2833 mt 2549 2905 L
3832 2764 mt 3904 2764 L
3868 2728 mt 3868 2800 L
2267 2840 mt 2339 2840 L
2303 2804 mt 2303 2876 L
2126 2067 mt 2198 2067 L
2162 2031 mt 2162 2103 L
2235 2859 mt 2307 2859 L
2271 2823 mt 2271 2895 L
4760 3220 mt 4832 3220 L
4796 3184 mt 4796 3256 L
3946 3942 mt 4018 3942 L
3982 3906 mt 3982 3978 L
3885 1298 mt 3957 1298 L
3921 1262 mt 3921 1334 L
2575 2458 mt 2647 2458 L
2611 2422 mt 2611 2494 L
3053 2641 mt 3125 2641 L
3089 2605 mt 3089 2677 L
2671 2329 mt 2743 2329 L
2707 2293 mt 2707 2365 L
4213 2650 mt 4285 2650 L
4249 2614 mt 4249 2686 L
4100 2655 mt 4172 2655 L
4136 2619 mt 4136 2691 L
3621 2501 mt 3693 2501 L
3657 2465 mt 3657 2537 L
4820 3011 mt 4892 3011 L
4856 2975 mt 4856 3047 L
2993 3503 mt 3065 3503 L
3029 3467 mt 3029 3539 L
1722 3265 mt 1794 3265 L
1758 3229 mt 1758 3301 L
3915 2849 mt 3987 2849 L
3951 2813 mt 3951 2885 L
3549 1823 mt 3621 1823 L
3585 1787 mt 3585 1859 L
3460 3908 mt 3532 3908 L
3496 3872 mt 3496 3944 L
5282 2040 mt 5354 2040 L
5318 2004 mt 5318 2076 L
4706 1772 mt 4778 1772 L
4742 1736 mt 4742 1808 L
3820 3980 mt 3892 3980 L
3856 3944 mt 3856 4016 L
2381 2214 mt 2453 2214 L
2417 2178 mt 2417 2250 L
3971 2120 mt 4043 2120 L
4007 2084 mt 4007 2156 L
3007 3000 mt 3079 3000 L
3043 2964 mt 3043 3036 L
4128 3242 mt 4200 3242 L
4164 3206 mt 4164 3278 L
5047 1419 mt 5119 1419 L
5083 1383 mt 5083 1455 L
3814 3171 mt 3886 3171 L
3850 3135 mt 3850 3207 L
2706 2879 mt 2778 2879 L
2742 2843 mt 2742 2915 L
2797 2094 mt 2869 2094 L
2833 2058 mt 2833 2130 L
4009 1966 mt 4081 1966 L
4045 1930 mt 4045 2002 L
4266 3446 mt 4338 3446 L
4302 3410 mt 4302 3482 L
3717 2889 mt 3789 2889 L
3753 2853 mt 3753 2925 L
2732 1936 mt 2804 1936 L
2768 1900 mt 2768 1972 L
3803 2160 mt 3875 2160 L
3839 2124 mt 3839 2196 L
3797 1643 mt 3869 1643 L
3833 1607 mt 3833 1679 L
3683 2265 mt 3755 2265 L
3719 2229 mt 3719 2301 L
3850 2302 mt 3922 2302 L
3886 2266 mt 3886 2338 L
4135 2223 mt 4207 2223 L
4171 2187 mt 4171 2259 L
3577 2436 mt 3649 2436 L
3613 2400 mt 3613 2472 L
2881 2677 mt 2953 2677 L
2917 2641 mt 2917 2713 L
2456 3625 mt 2528 3625 L
2492 3589 mt 2492 3661 L
3532 2018 mt 3604 2018 L
3568 1982 mt 3568 2054 L
3844 2440 mt 3916 2440 L
3880 2404 mt 3880 2476 L
3160 2989 mt 3232 2989 L
3196 2953 mt 3196 3025 L
3237 3028 mt 3309 3028 L
3273 2992 mt 3273 3064 L
3398 3151 mt 3470 3151 L
3434 3115 mt 3434 3187 L
4041 2562 mt 4113 2562 L
4077 2526 mt 4077 2598 L
4463 4616 mt 4535 4616 L
4499 4580 mt 4499 4652 L
3499 2830 mt 3571 2830 L
3535 2794 mt 3535 2866 L
2146 2338 mt 2218 2338 L
2182 2302 mt 2182 2374 L
3184 2759 mt 3256 2759 L
3220 2723 mt 3220 2795 L
3249 1732 mt 3321 1732 L
3285 1696 mt 3285 1768 L
3471 3322 mt 3543 3322 L
3507 3286 mt 3507 3358 L
4886 2001 mt 4958 2001 L
4922 1965 mt 4922 2037 L
6225 1049 mt 6297 1049 L
6261 1013 mt 6261 1085 L
3644 2536 mt 3716 2536 L
3680 2500 mt 3680 2572 L
3123 2727 mt 3195 2727 L
3159 2691 mt 3159 2763 L
3964 1858 mt 4036 1858 L
4000 1822 mt 4000 1894 L
4532 2782 mt 4604 2782 L
4568 2746 mt 4568 2818 L
2931 2471 mt 3003 2471 L
2967 2435 mt 2967 2507 L
4355 2972 mt 4427 2972 L
4391 2936 mt 4391 3008 L
3353 2909 mt 3425 2909 L
3389 2873 mt 3389 2945 L
3000 1538 mt 3072 1538 L
3036 1502 mt 3036 1574 L
3633 3112 mt 3705 3112 L
3669 3076 mt 3669 3148 L
4177 2298 mt 4249 2298 L
4213 2262 mt 4213 2334 L
2874 2593 mt 2946 2593 L
2910 2557 mt 2910 2629 L
2896 2189 mt 2968 2189 L
2932 2153 mt 2932 2225 L
3861 3731 mt 3933 3731 L
3897 3695 mt 3897 3767 L
4693 1954 mt 4765 1954 L
4729 1918 mt 4729 1990 L
3027 2418 mt 3099 2418 L
3063 2382 mt 3063 2454 L
3909 3164 mt 3981 3164 L
3945 3128 mt 3945 3200 L
4290 2659 mt 4362 2659 L
4326 2623 mt 4326 2695 L
3296 1942 mt 3368 1942 L
3332 1906 mt 3332 1978 L
5071  957 mt 5143  957 L
5107  921 mt 5107  993 L
1259 3610 mt 1331 3610 L
1295 3574 mt 1295 3646 L
2605 2745 mt 2677 2745 L
2641 2709 mt 2641 2781 L
3560 2801 mt 3632 2801 L
3596 2765 mt 3596 2837 L
2479 3425 mt 2551 3425 L
2515 3389 mt 2515 3461 L
3153 2078 mt 3225 2078 L
3189 2042 mt 3189 2114 L
2341 2576 mt 2413 2576 L
2377 2540 mt 2377 2612 L
4631 2046 mt 4703 2046 L
4667 2010 mt 4667 2082 L
4054 3213 mt 4126 3213 L
4090 3177 mt 4090 3249 L
5365 2130 mt 5437 2130 L
5401 2094 mt 5401 2166 L
2652 2180 mt 2724 2180 L
2688 2144 mt 2688 2216 L
4114 2792 mt 4186 2792 L
4150 2756 mt 4150 2828 L
3649 2150 mt 3721 2150 L
3685 2114 mt 3685 2186 L
4789 1831 mt 4861 1831 L
4825 1795 mt 4825 1867 L
2586 3752 mt 2658 3752 L
2622 3716 mt 2622 3788 L
3638 2199 mt 3710 2199 L
3674 2163 mt 3674 2235 L
5211 3093 mt 5283 3093 L
5247 3057 mt 5247 3129 L
4347 1181 mt 4419 1181 L
4383 1145 mt 4383 1217 L
3791 1802 mt 3863 1802 L
3827 1766 mt 3827 1838 L
3873 2374 mt 3945 2374 L
3909 2338 mt 3909 2410 L
3273 3184 mt 3345 3184 L
3309 3148 mt 3309 3220 L
4574 1960 mt 4646 1960 L
4610 1924 mt 4610 1996 L
3740 2514 mt 3812 2514 L
3776 2478 mt 3776 2550 L
4274 2325 mt 4346 2325 L
4310 2289 mt 4310 2361 L
4732 1207 mt 4804 1207 L
4768 1171 mt 4768 1243 L
2407 2628 mt 2479 2628 L
2443 2592 mt 2443 2664 L
4667 3331 mt 4739 3331 L
4703 3295 mt 4703 3367 L
3934 2165 mt 4006 2165 L
3970 2129 mt 3970 2201 L
3879 2109 mt 3951 2109 L
3915 2073 mt 3915 2145 L
2624 2686 mt 2696 2686 L
2660 2650 mt 2660 2722 L
4364 2392 mt 4436 2392 L
4400 2356 mt 4400 2428 L
3977 3340 mt 4049 3340 L
4013 3304 mt 4013 3376 L
3482 2343 mt 3554 2343 L
3518 2307 mt 3518 2379 L
4381 1779 mt 4453 1779 L
4417 1743 mt 4417 1815 L
4869 3099 mt 4941 3099 L
4905 3063 mt 4905 3135 L
5002 1561 mt 5074 1561 L
5038 1525 mt 5038 1597 L
4472 2275 mt 4544 2275 L
4508 2239 mt 4508 2311 L
3661 3297 mt 3733 3297 L
3697 3261 mt 3697 3333 L
3347 3206 mt 3419 3206 L
3383 3170 mt 3383 3242 L
5024 1583 mt 5096 1583 L
5060 1547 mt 5060 1619 L
3745 3386 mt 3817 3386 L
3781 3350 mt 3781 3422 L
4775 1514 mt 4847 1514 L
4811 1478 mt 4811 1550 L
3516 2228 mt 3588 2228 L
3552 2192 mt 3552 2264 L
4002 1794 mt 4074 1794 L
4038 1758 mt 4038 1830 L
3261 3797 mt 3333 3797 L
3297 3761 mt 3297 3833 L
3432 2778 mt 3504 2778 L
3468 2742 mt 3468 2814 L
4206 2914 mt 4278 2914 L
4242 2878 mt 4242 2950 L
5828  898 mt 5900  898 L
5864  862 mt 5864  934 L
2689 2423 mt 2761 2423 L
2725 2387 mt 2725 2459 L
2615 2083 mt 2687 2083 L
2651 2047 mt 2651 2119 L
3278 3405 mt 3350 3405 L
3314 3369 mt 3314 3441 L
3387 2410 mt 3459 2410 L
3423 2374 mt 3423 2446 L
3104 3376 mt 3176 3376 L
3140 3340 mt 3140 3412 L
3196 2554 mt 3268 2554 L
3232 2518 mt 3232 2590 L
4060 4023 mt 4132 4023 L
4096 3987 mt 4096 4059 L
3809 1624 mt 3881 1624 L
3845 1588 mt 3845 1660 L
3110 2558 mt 3182 2558 L
3146 2522 mt 3146 2594 L
5122 2480 mt 5194 2480 L
5158 2444 mt 5158 2516 L
4074 2811 mt 4146 2811 L
4110 2775 mt 4110 2847 L
3078 2930 mt 3150 2930 L
3114 2894 mt 3114 2966 L
3867 1756 mt 3939 1756 L
3903 1720 mt 3903 1792 L
1991 3491 mt 2063 3491 L
2027 3455 mt 2027 3527 L
4961 2432 mt 5033 2432 L
4997 2396 mt 4997 2468 L
3342 2704 mt 3414 2704 L
3378 2668 mt 3378 2740 L
3220 2946 mt 3292 2946 L
3256 2910 mt 3256 2982 L
3762 2510 mt 3834 2510 L
3798 2474 mt 3798 2546 L
3952 3515 mt 4024 3515 L
3988 3479 mt 3988 3551 L
4941 1604 mt 5013 1604 L
4977 1568 mt 4977 1640 L
3226 4072 mt 3298 4072 L
3262 4036 mt 3262 4108 L
3454 2356 mt 3526 2356 L
3490 2320 mt 3490 2392 L
2565 3063 mt 2637 3063 L
2601 3027 mt 2601 3099 L
3129 3191 mt 3201 3191 L
3165 3155 mt 3165 3227 L
2821 2549 mt 2893 2549 L
2857 2513 mt 2857 2585 L
3147 2835 mt 3219 2835 L
3183 2799 mt 3183 2871 L
2420 3235 mt 2492 3235 L
2456 3199 mt 2456 3271 L
3370 3595 mt 3442 3595 L
3406 3559 mt 3406 3631 L
3711 3693 mt 3783 3693 L
3747 3657 mt 3747 3729 L
2545 1911 mt 2617 1911 L
2581 1875 mt 2581 1947 L
3020 2185 mt 3092 2185 L
3056 2149 mt 3056 2221 L
4542 1404 mt 4614 1404 L
4578 1368 mt 4578 1440 L
2312 3641 mt 2384 3641 L
2348 3605 mt 2348 3677 L
3040 2035 mt 3112 2035 L
3076 1999 mt 3076 2071 L
4407 2796 mt 4479 2796 L
4443 2760 mt 4443 2832 L
2844 2768 mt 2916 2768 L
2880 2732 mt 2880 2804 L
4221 1845 mt 4293 1845 L
4257 1809 mt 4257 1881 L
4425 1885 mt 4497 1885 L
4461 1849 mt 4461 1921 L
3243 2270 mt 3315 2270 L
3279 2234 mt 3279 2306 L
5413  824 mt 5485  824 L
5449  788 mt 5449  860 L
3443 2057 mt 3515 2057 L
3479 2021 mt 3479 2093 L
2016 2951 mt 2088 2951 L
2052 2915 mt 2052 2987 L
2851 3581 mt 2923 3581 L
2887 3545 mt 2887 3617 L
1674 3017 mt 1746 3017 L
1710 2981 mt 1710 3053 L
3774 3675 mt 3846 3675 L
3810 3639 mt 3810 3711 L
4034 2815 mt 4106 2815 L
4070 2779 mt 4070 2851 L
4121 3306 mt 4193 3306 L
4157 3270 mt 4157 3342 L
2813 2602 mt 2885 2602 L
2849 2566 mt 2849 2638 L
4619 2493 mt 4691 2493 L
4655 2457 mt 4655 2529 L
3477 2682 mt 3549 2682 L
3513 2646 mt 3513 2718 L
3706 3457 mt 3778 3457 L
3742 3421 mt 3742 3493 L
3672 2962 mt 3744 2962 L
3708 2926 mt 3708 2998 L
2866 2854 mt 2938 2854 L
2902 2818 mt 2902 2890 L
4852 2175 mt 4924 2175 L
4888 2139 mt 4888 2211 L
3302 2606 mt 3374 2606 L
3338 2570 mt 3338 2642 L
4170 1232 mt 4242 1232 L
4206 1196 mt 4206 1268 L
4482 2884 mt 4554 2884 L
4518 2848 mt 4518 2920 L
2368 2935 mt 2440 2935 L
2404 2899 mt 2404 2971 L
2251 3848 mt 2323 3848 L
2287 3812 mt 2287 3884 L
3616 3087 mt 3688 3087 L
3652 3051 mt 3652 3123 L
4282 3877 mt 4354 3877 L
4318 3841 mt 4318 3913 L
2805 3157 mt 2877 3157 L
2841 3121 mt 2841 3193 L
3996 3118 mt 4068 3118 L
4032 3082 mt 4032 3154 L
4107 3144 mt 4179 3144 L
4143 3108 mt 4143 3180 L
3313 1809 mt 3385 1809 L
3349 1773 mt 3349 1845 L
3610 2293 mt 3682 2293 L
3646 2257 mt 3646 2329 L
5700 2104 mt 5772 2104 L
5736 2068 mt 5736 2140 L
3066 1984 mt 3138 1984 L
3102 1948 mt 3102 2020 L
4298 2462 mt 4370 2462 L
4334 2426 mt 4334 2498 L
3449 2484 mt 3521 2484 L
3485 2448 mt 3485 2520 L
3734 2379 mt 3806 2379 L
3770 2343 mt 3770 2415 L
2910 1715 mt 2982 1715 L
2946 1679 mt 2946 1751 L
2973 1689 mt 3045 1689 L
3009 1653 mt 3009 1725 L
2903 2615 mt 2975 2615 L
2939 2579 mt 2939 2651 L
1937 2894 mt 2009 2894 L
1973 2858 mt 1973 2930 L
4080 2718 mt 4152 2718 L
4116 2682 mt 4116 2754 L
3527 2445 mt 3599 2445 L
3563 2409 mt 3563 2481 L
3521 1764 mt 3593 1764 L
3557 1728 mt 3557 1800 L
3677 2925 mt 3749 2925 L
3713 2889 mt 3713 2961 L
3544 2754 mt 3616 2754 L
3580 2718 mt 3580 2790 L
2966 2135 mt 3038 2135 L
3002 2099 mt 3002 2171 L
2952 3527 mt 3024 3527 L
2988 3491 mt 2988 3563 L
4322 2388 mt 4394 2388 L
4358 2352 mt 4358 2424 L
3958 2978 mt 4030 2978 L
3994 2942 mt 3994 3014 L
3376 1388 mt 3448 1388 L
3412 1352 mt 3412 1424 L
2643 2251 mt 2715 2251 L
2679 2215 mt 2679 2287 L
3393 3227 mt 3465 3227 L
3429 3191 mt 3429 3263 L
2945 3479 mt 3017 3479 L
2981 3443 mt 2981 3515 L
3555 2741 mt 3627 2741 L
3591 2705 mt 3591 2777 L
gs 899 414 5363 4203 rc
gr

0 sg
2779 5104 mt 
(\(F,DCTs,GMM\)) s
 482 3296 mt  -90 rotate
(\(F,DCTs,iMLP\)) s
90 rotate
2975  223 mt 
(Corr = 0.25) s

end %%Color Dict

eplot
%%EndObject

epage
end

showpage

%%Trailer
%%EOF
