%!PS-Adobe-3.0 EPSF-3.0
%%Creator: MATLAB, The Mathworks, Inc. Version 7.7.0.471 (R2008b). Operating System: Microsoft Windows XP.
%%Title: Pictures\main_zoo_mvar_analysis_data_BMI_xcorr_bmig_p1_k2_3_7.eps
%%CreationDate: 10/26/2009  05:45:23
%%DocumentNeededFonts: Helvetica
%%DocumentProcessColors: Cyan Magenta Yellow Black
%%LanguageLevel: 2
%%Pages: 1
%%BoundingBox:    37   180   549   616
%%EndComments

%%BeginProlog
% MathWorks dictionary
/MathWorks 160 dict begin
% definition operators
/bdef {bind def} bind def
/ldef {load def} bind def
/xdef {exch def} bdef
/xstore {exch store} bdef
% operator abbreviations
/c  /clip ldef
/cc /concat ldef
/cp /closepath ldef
/gr /grestore ldef
/gs /gsave ldef
/mt /moveto ldef
/np /newpath ldef
/cm /currentmatrix ldef
/sm /setmatrix ldef
/rm /rmoveto ldef
/rl /rlineto ldef
/s {show newpath} bdef
/sc {setcmykcolor} bdef
/sr /setrgbcolor ldef
/sg /setgray ldef
/w /setlinewidth ldef
/j /setlinejoin ldef
/cap /setlinecap ldef
/rc {rectclip} bdef
/rf {rectfill} bdef
% page state control
/pgsv () def
/bpage {/pgsv save def} bdef
/epage {pgsv restore} bdef
/bplot /gsave ldef
/eplot {stroke grestore} bdef
% orientation switch
/portraitMode 0 def /landscapeMode 1 def /rotateMode 2 def
% coordinate system mappings
/dpi2point 0 def
% font control
/FontSize 0 def
/FMS {/FontSize xstore findfont [FontSize 0 0 FontSize neg 0 0]
  makefont setfont} bdef
/ISOLatin1Encoding where {pop /WindowsLatin1Encoding 256 array bdef
ISOLatin1Encoding WindowsLatin1Encoding copy pop
/.notdef/.notdef/quotesinglbase/florin/quotedblbase/ellipsis/dagger
/daggerdbl/circumflex/perthousand/Scaron/guilsinglleft/OE/.notdef/.notdef
/.notdef/.notdef/quoteleft/quoteright/quotedblleft/quotedblright/bullet
/endash/emdash/tilde/trademark/scaron/guilsinglright/oe/.notdef/.notdef
/Ydieresis WindowsLatin1Encoding 128 32 getinterval astore pop}
{/WindowsLatin1Encoding StandardEncoding bdef} ifelse
/reencode {exch dup where {pop load} {pop StandardEncoding} ifelse
  exch dup 3 1 roll findfont dup length dict begin
  { 1 index /FID ne {def}{pop pop} ifelse } forall
  /Encoding exch def currentdict end definefont pop} bdef
/isroman {findfont /CharStrings get /Agrave known} bdef
/FMSR {3 1 roll 1 index dup isroman {reencode} {pop pop} ifelse
  exch FMS} bdef
/csm {1 dpi2point div -1 dpi2point div scale neg translate
 dup landscapeMode eq {pop -90 rotate}
  {rotateMode eq {90 rotate} if} ifelse} bdef
% line types: solid, dotted, dashed, dotdash
/SO { [] 0 setdash } bdef
/DO { [.5 dpi2point mul 4 dpi2point mul] 0 setdash } bdef
/DA { [6 dpi2point mul] 0 setdash } bdef
/DD { [.5 dpi2point mul 4 dpi2point mul 6 dpi2point mul 4
  dpi2point mul] 0 setdash } bdef
% macros for lines and objects
/L {lineto stroke} bdef
/MP {3 1 roll moveto 1 sub {rlineto} repeat} bdef
/AP {{rlineto} repeat} bdef
/PDlw -1 def
/W {/PDlw currentlinewidth def setlinewidth} def
/PP {closepath eofill} bdef
/DP {closepath stroke} bdef
/MR {4 -2 roll moveto dup  0 exch rlineto exch 0 rlineto
  neg 0 exch rlineto closepath} bdef
/FR {MR stroke} bdef
/PR {MR fill} bdef
/L1i {{currentfile picstr readhexstring pop} image} bdef
/tMatrix matrix def
/MakeOval {newpath tMatrix currentmatrix pop translate scale
0 0 1 0 360 arc tMatrix setmatrix} bdef
/FO {MakeOval stroke} bdef
/PO {MakeOval fill} bdef
/PD {currentlinewidth 2 div 0 360 arc fill
   PDlw -1 eq not {PDlw w /PDlw -1 def} if} def
/FA {newpath tMatrix currentmatrix pop translate scale
  0 0 1 5 -2 roll arc tMatrix setmatrix stroke} bdef
/PA {newpath tMatrix currentmatrix pop	translate 0 0 moveto scale
  0 0 1 5 -2 roll arc closepath tMatrix setmatrix fill} bdef
/FAn {newpath tMatrix currentmatrix pop translate scale
  0 0 1 5 -2 roll arcn tMatrix setmatrix stroke} bdef
/PAn {newpath tMatrix currentmatrix pop translate 0 0 moveto scale
  0 0 1 5 -2 roll arcn closepath tMatrix setmatrix fill} bdef
/vradius 0 def /hradius 0 def /lry 0 def
/lrx 0 def /uly 0 def /ulx 0 def /rad 0 def
/MRR {/vradius xdef /hradius xdef /lry xdef /lrx xdef /uly xdef
  /ulx xdef newpath tMatrix currentmatrix pop ulx hradius add uly
  vradius add translate hradius vradius scale 0 0 1 180 270 arc 
  tMatrix setmatrix lrx hradius sub uly vradius add translate
  hradius vradius scale 0 0 1 270 360 arc tMatrix setmatrix
  lrx hradius sub lry vradius sub translate hradius vradius scale
  0 0 1 0 90 arc tMatrix setmatrix ulx hradius add lry vradius sub
  translate hradius vradius scale 0 0 1 90 180 arc tMatrix setmatrix
  closepath} bdef
/FRR {MRR stroke } bdef
/PRR {MRR fill } bdef
/MlrRR {/lry xdef /lrx xdef /uly xdef /ulx xdef /rad lry uly sub 2 div def
  newpath tMatrix currentmatrix pop ulx rad add uly rad add translate
  rad rad scale 0 0 1 90 270 arc tMatrix setmatrix lrx rad sub lry rad
  sub translate rad rad scale 0 0 1 270 90 arc tMatrix setmatrix
  closepath} bdef
/FlrRR {MlrRR stroke } bdef
/PlrRR {MlrRR fill } bdef
/MtbRR {/lry xdef /lrx xdef /uly xdef /ulx xdef /rad lrx ulx sub 2 div def
  newpath tMatrix currentmatrix pop ulx rad add uly rad add translate
  rad rad scale 0 0 1 180 360 arc tMatrix setmatrix lrx rad sub lry rad
  sub translate rad rad scale 0 0 1 0 180 arc tMatrix setmatrix
  closepath} bdef
/FtbRR {MtbRR stroke } bdef
/PtbRR {MtbRR fill } bdef
/stri 6 array def /dtri 6 array def
/smat 6 array def /dmat 6 array def
/tmat1 6 array def /tmat2 6 array def /dif 3 array def
/asub {/ind2 exch def /ind1 exch def dup dup
  ind1 get exch ind2 get sub exch } bdef
/tri_to_matrix {
  2 0 asub 3 1 asub 4 0 asub 5 1 asub
  dup 0 get exch 1 get 7 -1 roll astore } bdef
/compute_transform {
  dmat dtri tri_to_matrix tmat1 invertmatrix 
  smat stri tri_to_matrix tmat2 concatmatrix } bdef
/ds {stri astore pop} bdef
/dt {dtri astore pop} bdef
/db {2 copy /cols xdef /rows xdef mul dup 3 mul string
  currentfile 
  3 index 0 eq {/ASCIIHexDecode filter}
  {/ASCII85Decode filter 3 index 2 eq {/RunLengthDecode filter} if }
  ifelse exch readstring pop
  dup 0 3 index getinterval /rbmap xdef
  dup 2 index dup getinterval /gbmap xdef
  1 index dup 2 mul exch getinterval /bbmap xdef pop pop}bdef
/it {gs np dtri aload pop moveto lineto lineto cp c
  cols rows 8 compute_transform 
  rbmap gbmap bbmap true 3 colorimage gr}bdef
/il {newpath moveto lineto stroke}bdef
currentdict end def
%%EndProlog

%%BeginSetup
MathWorks begin

0 cap

end
%%EndSetup

%%Page: 1 1
%%BeginPageSetup
%%PageBoundingBox:    37   180   549   616
MathWorks begin
bpage
%%EndPageSetup

%%BeginObject: obj1
bplot

/dpi2point 12 def
portraitMode 0216 7344 csm

  234   -48  6149  5231 rc
85 dict begin %Colortable dictionary
/c0 { 0.000000 0.000000 0.000000 sr} bdef
/c1 { 1.000000 1.000000 1.000000 sr} bdef
/c2 { 0.900000 0.000000 0.000000 sr} bdef
/c3 { 0.000000 0.820000 0.000000 sr} bdef
/c4 { 0.000000 0.000000 0.800000 sr} bdef
/c5 { 0.910000 0.820000 0.320000 sr} bdef
/c6 { 1.000000 0.260000 0.820000 sr} bdef
/c7 { 0.000000 0.820000 0.820000 sr} bdef
c0
1 j
1 sg
   0    0 6919 5187 rf
6 w
0 4202 5362 0 0 -4202 899 4616 4 MP
PP
-5362 0 0 4202 5362 0 0 -4202 899 4616 5 MP stroke
4 w
DO
SO
6 w
0 sg
 899  414 mt 6261  414 L
 899 4616 mt 6261 4616 L
6261 4616 mt 6261  414 L
 899 4616 mt  899  414 L
 899 4616 mt 6261 4616 L
 899 4616 mt  899  414 L
 919 4616 mt  919 4562 L
 919  414 mt  919  467 L
%%IncludeResource: font Helvetica
/Helvetica /WindowsLatin1Encoding 240 FMSR

 713 4873 mt 
(-3) s
1806 4616 mt 1806 4562 L
1806  414 mt 1806  467 L
1600 4873 mt 
(-2) s
2693 4616 mt 2693 4562 L
2693  414 mt 2693  467 L
2487 4873 mt 
(-1) s
3580 4616 mt 3580 4562 L
3580  414 mt 3580  467 L
3514 4873 mt 
(0) s
4466 4616 mt 4466 4562 L
4466  414 mt 4466  467 L
4400 4873 mt 
(1) s
5353 4616 mt 5353 4562 L
5353  414 mt 5353  467 L
5287 4873 mt 
(2) s
6240 4616 mt 6240 4562 L
6240  414 mt 6240  467 L
6174 4873 mt 
(3) s
 899 4599 mt  952 4599 L
6261 4599 mt 6207 4599 L
 591 4688 mt 
(-3) s
 899 3904 mt  952 3904 L
6261 3904 mt 6207 3904 L
 591 3993 mt 
(-2) s
 899 3209 mt  952 3209 L
6261 3209 mt 6207 3209 L
 591 3298 mt 
(-1) s
 899 2514 mt  952 2514 L
6261 2514 mt 6207 2514 L
 731 2603 mt 
(0) s
 899 1820 mt  952 1820 L
6261 1820 mt 6207 1820 L
 731 1909 mt 
(1) s
 899 1125 mt  952 1125 L
6261 1125 mt 6207 1125 L
 731 1214 mt 
(2) s
 899  430 mt  952  430 L
6261  430 mt 6207  430 L
 731  519 mt 
(3) s
 899  414 mt 6261  414 L
 899 4616 mt 6261 4616 L
6261 4616 mt 6261  414 L
 899 4616 mt  899  414 L
gs 899 414 5363 4203 rc
gr

/c8 { 0.000000 0.000000 1.000000 sr} bdef
c8
4080 1653 mt 4152 1653 L
4116 1617 mt 4116 1689 L
4266 2293 mt 4338 2293 L
4302 2257 mt 4302 2329 L
3085 3022 mt 3157 3022 L
3121 2986 mt 3121 3058 L
2828 2057 mt 2900 2057 L
2864 2021 mt 2864 2093 L
3983 1689 mt 4055 1689 L
4019 1653 mt 4019 1725 L
3700 2558 mt 3772 2558 L
3736 2522 mt 3736 2594 L
2680 1898 mt 2752 1898 L
2716 1862 mt 2716 1934 L
3040 2673 mt 3112 2673 L
3076 2637 mt 3076 2709 L
3762 1948 mt 3834 1948 L
3798 1912 mt 3798 1984 L
2586 2414 mt 2658 2414 L
2622 2378 mt 2622 2450 L
1674 2338 mt 1746 2338 L
1710 2302 mt 1710 2374 L
3934 2889 mt 4006 2889 L
3970 2853 mt 3970 2925 L
4290 1978 mt 4362 1978 L
4326 1942 mt 4326 2014 L
3814 2379 mt 3886 2379 L
3850 2343 mt 3850 2415 L
4805 1960 mt 4877 1960 L
4841 1924 mt 4841 1996 L
3861 2155 mt 3933 2155 L
3897 2119 mt 3897 2191 L
2502 2920 mt 2574 2920 L
2538 2884 mt 2538 2956 L
3644 3848 mt 3716 3848 L
3680 3812 mt 3680 3884 L
3178 2233 mt 3250 2233 L
3214 2197 mt 3214 2269 L
3672 2549 mt 3744 2549 L
3708 2513 mt 3708 2585 L
2615 2242 mt 2687 2242 L
2651 2206 mt 2651 2278 L
3243 3797 mt 3315 3797 L
3279 3761 mt 3279 3833 L
2765 1764 mt 2837 1764 L
2801 1728 mt 2801 1800 L
3638 2370 mt 3710 2370 L
3674 2334 mt 3674 2406 L
3867 2140 mt 3939 2140 L
3903 2104 mt 3903 2176 L
1722 2480 mt 1794 2480 L
1758 2444 mt 1758 2516 L
2643 2528 mt 2715 2528 L
2679 2492 mt 2679 2564 L
4002 2237 mt 4074 2237 L
4038 2201 mt 4038 2273 L
3599 1794 mt 3671 1794 L
3635 1758 mt 3635 1830 L
2851 2251 mt 2923 2251 L
2887 2215 mt 2887 2287 L
2126 2646 mt 2198 2646 L
2162 2610 mt 2162 2682 L
1965 2209 mt 2037 2209 L
2001 2173 mt 2001 2245 L
3267 2700 mt 3339 2700 L
3303 2664 mt 3303 2736 L
3387 2840 mt 3459 2840 L
3423 2804 mt 3423 2876 L
4243 1707 mt 4315 1707 L
4279 1671 mt 4279 1743 L
2945 2835 mt 3017 2835 L
2981 2799 mt 2981 2871 L
2903 2580 mt 2975 2580 L
2939 2544 mt 2939 2616 L
2624 1984 mt 2696 1984 L
2660 1948 mt 2660 2020 L
2697 1388 mt 2769 1388 L
2733 1352 mt 2733 1424 L
3505 1858 mt 3577 1858 L
3541 1822 mt 3541 1894 L
4021 2909 mt 4093 2909 L
4057 2873 mt 4057 2945 L
4444 1298 mt 4516 1298 L
4480 1262 mt 4480 1334 L
3605 2334 mt 3677 2334 L
3641 2298 mt 3641 2370 L
2931 3349 mt 3003 3349 L
2967 3313 mt 2967 3385 L
4852 3017 mt 4924 3017 L
4888 2981 mt 4888 3053 L
2468 2396 mt 2540 2396 L
2504 2360 mt 2504 2432 L
3325 1802 mt 3397 1802 L
3361 1766 mt 3361 1838 L
2859 2519 mt 2931 2519 L
2895 2483 mt 2895 2555 L
2740 3045 mt 2812 3045 L
2776 3009 mt 2776 3081 L
2534 2611 mt 2606 2611 L
2570 2575 mt 2570 2647 L
4886 2298 mt 4958 2298 L
4922 2262 mt 4922 2334 L
3958 2361 mt 4030 2361 L
3994 2325 mt 3994 2397 L
3438 2864 mt 3510 2864 L
3474 2828 mt 3474 2900 L
4067 2619 mt 4139 2619 L
4103 2583 mt 4103 2655 L
3454 2628 mt 3526 2628 L
3490 2592 mt 3490 2664 L
3582 2972 mt 3654 2972 L
3618 2936 mt 3618 3008 L
3353 2423 mt 3425 2423 L
3389 2387 mt 3389 2459 L
4732 2682 mt 4804 2682 L
4768 2646 mt 4768 2718 L
3184 1954 mt 3256 1954 L
3220 1918 mt 3220 1990 L
3296 2347 mt 3368 2347 L
3332 2311 mt 3332 2383 L
4074 3395 mt 4146 3395 L
4110 3359 mt 4110 3431 L
2888 2223 mt 2960 2223 L
2924 2187 mt 2924 2259 L
3616 3468 mt 3688 3468 L
3652 3432 mt 3652 3504 L
4869 1816 mt 4941 1816 L
4905 1780 mt 4905 1852 L
3921 2754 mt 3993 2754 L
3957 2718 mt 3957 2790 L
4820 2633 mt 4892 2633 L
4856 2597 mt 4856 2669 L
4667 2284 mt 4739 2284 L
4703 2248 mt 4703 2320 L
3689 2185 mt 3761 2185 L
3725 2149 mt 3725 2221 L
3147 1851 mt 3219 1851 L
3183 1815 mt 3183 1887 L
4114 1181 mt 4186 1181 L
4150 1145 mt 4150 1217 L
2732 1892 mt 2804 1892 L
2768 1856 mt 2768 1928 L
4213 2951 mt 4285 2951 L
4249 2915 mt 4249 2987 L
1556 2602 mt 1628 2602 L
1592 2566 mt 1592 2638 L
3202 1336 mt 3274 1336 L
3238 1300 mt 3238 1372 L
2523 2356 mt 2595 2356 L
2559 2320 mt 2559 2392 L
4381 4072 mt 4453 4072 L
4417 4036 mt 4417 4108 L
4398 3178 mt 4470 3178 L
4434 3142 mt 4434 3214 L
2490 1354 mt 2562 1354 L
2526 1318 mt 2526 1390 L
2565 2040 mt 2637 2040 L
2601 2004 mt 2601 2076 L
3098 2029 mt 3170 2029 L
3134 1993 mt 3134 2065 L
4191 1809 mt 4263 1809 L
4227 1773 mt 4227 1845 L
2959 3540 mt 3031 3540 L
2995 3504 mt 2995 3576 L
4107 2709 mt 4179 2709 L
4143 2673 mt 4143 2745 L
3527 1087 mt 3599 1087 L
3563 1051 mt 3563 1123 L
2312 1972 mt 2384 1972 L
2348 1936 mt 2348 2008 L
3477 3567 mt 3549 3567 L
3513 3531 mt 3513 3603 L
4274 1448 mt 4346 1448 L
4310 1412 mt 4310 1484 L
3706 2659 mt 3778 2659 L
3742 2623 mt 3742 2695 L
3544 3425 mt 3616 3425 L
3580 3389 mt 3580 3461 L
4941 1207 mt 5013 1207 L
4977 1171 mt 4977 1243 L
3347 1502 mt 3419 1502 L
3383 1466 mt 3383 1538 L
5122 1838 mt 5194 1838 L
5158 1802 mt 5158 1874 L
2545 2160 mt 2617 2160 L
2581 2124 mt 2581 2196 L
3803 2554 mt 3875 2554 L
3839 2518 mt 3839 2590 L
2575 2820 mt 2647 2820 L
2611 2784 mt 2611 2856 L
3711 2589 mt 3783 2589 L
3747 2553 mt 3747 2625 L
4184 2501 mt 4256 2501 L
4220 2465 mt 4220 2537 L
4512 1671 mt 4584 1671 L
4548 1635 mt 4548 1707 L
3116 3877 mt 3188 3877 L
3152 3841 mt 3152 3913 L
4206 1514 mt 4278 1514 L
4242 1478 mt 4242 1550 L
6225 2099 mt 6297 2099 L
6261 2063 mt 6261 2135 L
3538 2506 mt 3610 2506 L
3574 2470 mt 3574 2542 L
2432 3405 mt 2504 3405 L
2468 3369 mt 2468 3441 L
4251 4131 mt 4323 4131 L
4287 4095 mt 4287 4167 L
3046 2844 mt 3118 2844 L
3082 2808 mt 3082 2880 L
2479 1878 mt 2551 1878 L
2515 1842 mt 2515 1914 L
3820 1872 mt 3892 1872 L
3856 1836 mt 3856 1908 L
2235 2145 mt 2307 2145 L
2271 2109 mt 2271 2181 L
2844 2759 mt 2916 2759 L
2880 2723 mt 2880 2795 L
3307 2475 mt 3379 2475 L
3343 2439 mt 3343 2511 L
3832 3131 mt 3904 3131 L
3868 3095 mt 3868 3167 L
2634 2768 mt 2706 2768 L
2670 2732 mt 2670 2804 L
3940 3376 mt 4012 3376 L
3976 3340 mt 3976 3412 L
4330 1917 mt 4402 1917 L
4366 1881 mt 4366 1953 L
2662 3503 mt 2734 3503 L
2698 3467 mt 2698 3539 L
2394 3051 mt 2466 3051 L
2430 3015 mt 2430 3087 L
3376 1593 mt 3448 1593 L
3412 1557 mt 3412 1629 L
4338 2316 mt 4410 2316 L
4374 2280 mt 4374 2352 L
2040 2894 mt 2112 2894 L
2076 2858 mt 2076 2930 L
3255 2383 mt 3327 2383 L
3291 2347 mt 3291 2419 L
3964 2288 mt 4036 2288 L
4000 2252 mt 4000 2324 L
2821 2307 mt 2893 2307 L
2857 2271 mt 2857 2343 L
3768 2125 mt 3840 2125 L
3804 2089 mt 3804 2161 L
2085 2035 mt 2157 2035 L
2121 1999 mt 2121 2071 L
3313 3415 mt 3385 3415 L
3349 3379 mt 3349 3451 L
5282 2467 mt 5354 2467 L
5318 2431 mt 5318 2503 L
3996 2445 mt 4068 2445 L
4032 2409 mt 4032 2481 L
3909 2745 mt 3981 2745 L
3945 2709 mt 3945 2781 L
2749 2150 mt 2821 2150 L
2785 2114 mt 2785 2186 L
2106 3595 mt 2178 3595 L
2142 3559 mt 2142 3631 L
4298 2199 mt 4370 2199 L
4334 2163 mt 4334 2235 L
3471 3137 mt 3543 3137 L
3507 3101 mt 3507 3173 L
3027 2637 mt 3099 2637 L
3063 2601 mt 3063 2673 L
3873 3081 mt 3945 3081 L
3909 3045 mt 3909 3117 L
2444 2497 mt 2516 2497 L
2480 2461 mt 2480 2533 L
4163 3625 mt 4235 3625 L
4199 3589 mt 4199 3661 L
2896 3553 mt 2968 3553 L
2932 3517 mt 2932 3589 L
3560 2302 mt 3632 2302 L
3596 2266 mt 3596 2338 L
3249 2830 mt 3321 2830 L
3285 2794 mt 3285 2866 L
3588 2051 mt 3660 2051 L
3624 2015 mt 3624 2087 L
3532 2329 mt 3604 2329 L
3568 2293 mt 3568 2365 L
4472 1634 mt 4544 1634 L
4508 1598 mt 4508 1670 L
2063 2440 mt 2135 2440 L
2099 2404 mt 2099 2476 L
2966 2256 mt 3038 2256 L
3002 2220 mt 3002 2292 L
4453 1748 mt 4525 1748 L
4489 1712 mt 4489 1784 L
3577 2571 mt 3649 2571 L
3613 2535 mt 3613 2607 L
2456 2778 mt 2528 2778 L
2492 2742 mt 2492 2814 L
4228 1462 mt 4300 1462 L
4264 1426 mt 4264 1498 L
3284 1845 mt 3356 1845 L
3320 1809 mt 3320 1881 L
3208 1538 mt 3280 1538 L
3244 1502 mt 3244 1574 L
2407 2194 mt 2479 2194 L
2443 2158 mt 2443 2230 L
3059 3446 mt 3131 3446 L
3095 3410 mt 3095 3482 L
2910 2018 mt 2982 2018 L
2946 1982 mt 2946 2054 L
2723 2567 mt 2795 2567 L
2759 2531 mt 2759 2603 L
2251 2024 mt 2323 2024 L
2287 1988 mt 2287 2060 L
3278 1779 mt 3350 1779 L
3314 1743 mt 3314 1815 L
2595 3479 mt 2667 3479 L
2631 3443 mt 2631 3515 L
2805 3039 mt 2877 3039 L
2841 3003 mt 2841 3075 L
1387 2704 mt 1459 2704 L
1423 2668 mt 1423 2740 L
3555 2736 mt 3627 2736 L
3591 2700 mt 3591 2772 L
3655 3000 mt 3727 3000 L
3691 2964 mt 3691 3036 L
3135 3731 mt 3207 3731 L
3171 3695 mt 3171 3767 L
2201 2365 mt 2273 2365 L
2237 2329 mt 2237 2401 L
3694 2722 mt 3766 2722 L
3730 2686 mt 3730 2758 L
2781 1756 mt 2853 1756 L
2817 1720 mt 2817 1792 L
2146 2170 mt 2218 2170 L
2182 2134 mt 2182 2206 L
2706 3157 mt 2778 3157 L
2742 3121 mt 2742 3193 L
3844 2536 mt 3916 2536 L
3880 2500 mt 3880 2572 L
3053 1006 mt 3125 1006 L
3089  970 mt 3089 1042 L
4597 1885 mt 4669 1885 L
4633 1849 mt 4633 1921 L
3443 1865 mt 3515 1865 L
3479 1829 mt 3479 1901 L
4149 1698 mt 4221 1698 L
4185 1662 mt 4185 1734 L
2757 2214 mt 2829 2214 L
2793 2178 mt 2793 2250 L
3342 2228 mt 3414 2228 L
3378 2192 mt 3378 2264 L
3033 2859 mt 3105 2859 L
3069 2823 mt 3069 2895 L
4135 2388 mt 4207 2388 L
4171 2352 mt 4171 2424 L
3621 2204 mt 3693 2204 L
3657 2168 mt 3657 2240 L
5531 2792 mt 5603 2792 L
5567 2756 mt 5567 2828 L
4221 2279 mt 4293 2279 L
4257 2243 mt 4257 2315 L
2282 1643 mt 2354 1643 L
2318 1607 mt 2318 1679 L
2689 2731 mt 2761 2731 L
2725 2695 mt 2725 2767 L
3426 3164 mt 3498 3164 L
3462 3128 mt 3462 3200 L
3237 2089 mt 3309 2089 L
3273 2053 mt 3273 2125 L
4425 3069 mt 4497 3069 L
4461 3033 mt 4461 3105 L
3336 2078 mt 3408 2078 L
3372 2042 mt 3372 2114 L
2797 2967 mt 2869 2967 L
2833 2931 mt 2833 3003 L
3751 2453 mt 3823 2453 L
3787 2417 mt 3787 2489 L
3885 2801 mt 3957 2801 L
3921 2765 mt 3921 2837 L
3633 1732 mt 3705 1732 L
3669 1696 mt 3669 1768 L
2952 3075 mt 3024 3075 L
2988 3039 mt 2988 3111 L
2267 3527 mt 2339 3527 L
2303 3491 mt 2303 3563 L
3740 3112 mt 3812 3112 L
3776 3076 mt 3776 3148 L
4532 1723 mt 4604 1723 L
4568 1687 mt 4568 1759 L
4087 2115 mt 4159 2115 L
4123 2079 mt 4123 2151 L
3927 1550 mt 3999 1550 L
3963 1514 mt 3963 1586 L
2355 1614 mt 2427 1614 L
2391 1578 mt 2391 1650 L
3214 2615 mt 3286 2615 L
3250 2579 mt 3250 2651 L
4034 1604 mt 4106 1604 L
4070 1568 mt 4070 1640 L
3330 2493 mt 3402 2493 L
3366 2457 mt 3366 2529 L
3774 2764 mt 3846 2764 L
3810 2728 mt 3810 2800 L
4904 1787 mt 4976 1787 L
4940 1751 mt 4940 1823 L
4542 1583 mt 4614 1583 L
4578 1547 mt 4578 1619 L
3020 2165 mt 3092 2165 L
3056 2129 mt 3056 2201 L
2874 2854 mt 2946 2854 L
2910 2818 mt 2910 2890 L
2381 1823 mt 2453 1823 L
2417 1787 mt 2417 1859 L
4170 2695 mt 4242 2695 L
4206 2659 mt 4206 2731 L
2183 2787 mt 2255 2787 L
2219 2751 mt 2219 2823 L
3891 3322 mt 3963 3322 L
3927 3286 mt 3927 3358 L
4643  414 mt 4715  414 L
4679  378 mt 4679  450 L
1842 3457 mt 1914 3457 L
1878 3421 mt 1878 3493 L
2652 1419 mt 2724 1419 L
2688 1383 mt 2688 1455 L
4961 2664 mt 5033 2664 L
4997 2628 mt 4997 2700 L
5413 1715 mt 5485 1715 L
5449 1679 mt 5449 1751 L
3594 2541 mt 3666 2541 L
3630 2505 mt 3630 2577 L
4564 1561 mt 4636 1561 L
4600 1525 mt 4600 1597 L
4492 3227 mt 4564 3227 L
4528 3191 mt 4528 3263 L
4390 1049 mt 4462 1049 L
4426 1013 mt 4426 1085 L
3897 3099 mt 3969 3099 L
3933 3063 mt 3933 3135 L
2513 3980 mt 2585 3980 L
2549 3944 mt 2549 4016 L
3381 2741 mt 3453 2741 L
3417 2705 mt 3417 2777 L
3091 2874 mt 3163 2874 L
3127 2838 mt 3127 2910 L
3078 1966 mt 3150 1966 L
3114 1930 mt 3114 2002 L
4322 2488 mt 4394 2488 L
4358 2452 mt 4358 2524 L
1937 3774 mt 2009 3774 L
1973 3738 mt 1973 3810 L
4236 2946 mt 4308 2946 L
4272 2910 mt 4272 2982 L
3007 2311 mt 3079 2311 L
3043 2275 mt 3043 2347 L
2813 2135 mt 2885 2135 L
2849 2099 mt 2849 2171 L
3977 2083 mt 4049 2083 L
4013 2047 mt 4013 2119 L
3302 2275 mt 3374 2275 L
3338 2239 mt 3338 2311 L
3677 2668 mt 3749 2668 L
3713 2632 mt 3713 2704 L
3989 3942 mt 4061 3942 L
4025 3906 mt 4025 3978 L
3516 2899 mt 3588 2899 L
3552 2863 mt 3552 2935 L
3415 2930 mt 3487 2930 L
3451 2894 mt 3451 2966 L
3488 2401 mt 3560 2401 L
3524 2365 mt 3524 2437 L
2980  957 mt 3052  957 L
3016  921 mt 3016  993 L
3903 2462 mt 3975 2462 L
3939 2426 mt 3939 2498 L
4680 3151 mt 4752 3151 L
4716 3115 mt 4716 3187 L
4009 2935 mt 4081 2935 L
4045 2899 mt 4045 2971 L
2420 1936 mt 2492 1936 L
2456 1900 mt 2456 1972 L
5096 2062 mt 5168 2062 L
5132 2026 mt 5132 2098 L
5180 3087 mt 5252 3087 L
5216 3051 mt 5216 3123 L
4775 2750 mt 4847 2750 L
4811 2714 mt 4811 2786 L
5321 2265 mt 5393 2265 L
5357 2229 mt 5357 2301 L
4619 1121 mt 4691 1121 L
4655 1085 mt 4655 1157 L
4028 4205 mt 4100 4205 L
4064 4169 mt 4064 4241 L
5024 2189 mt 5096 2189 L
5060 2153 mt 5060 2225 L
3220 2606 mt 3292 2606 L
3256 2570 mt 3256 2642 L
2881 1942 mt 2953 1942 L
2917 1906 mt 2917 1978 L
4364  898 mt 4436  898 L
4400  862 mt 4400  934 L
2016 3297 mt 2088 3297 L
2052 3261 mt 2052 3333 L
4655 3752 mt 4727 3752 L
4691 3716 mt 4691 3788 L
3666 2218 mt 3738 2218 L
3702 2182 mt 3702 2254 L
3549 2374 mt 3621 2374 L
3585 2338 mt 3585 2410 L
5047 2884 mt 5119 2884 L
5083 2848 mt 5083 2920 L
3160 2624 mt 3232 2624 L
3196 2588 mt 3196 2660 L
3466 3711 mt 3538 3711 L
3502 3675 mt 3502 3747 L
4522 1831 mt 4594 1831 L
4558 1795 mt 4558 1867 L
3404 2994 mt 3476 2994 L
3440 2958 mt 3440 3030 L
4372 2067 mt 4444 2067 L
4408 2031 mt 4408 2103 L
2298 2427 mt 2370 2427 L
2334 2391 mt 2334 2463 L
5245 3206 mt 5317 3206 L
5281 3170 mt 5281 3242 L
4094 2012 mt 4166 2012 L
4130 1976 mt 4130 2048 L
4100 2418 mt 4172 2418 L
4136 2382 mt 4136 2454 L
4553 3306 mt 4625 3306 L
4589 3270 mt 4589 3342 L
3421 1572 mt 3493 1572 L
3457 1536 mt 3457 1608 L
3449 3250 mt 3521 3250 L
3485 3214 mt 3485 3286 L
4789 3235 mt 4861 3235 L
4825 3199 mt 4825 3271 L
3273 1930 mt 3345 1930 L
3309 1894 mt 3309 1966 L
3432 1371 mt 3504 1371 L
3468 1335 mt 3468 1407 L
4047 2650 mt 4119 2650 L
4083 2614 mt 4083 2686 L
5700 1740 mt 5772 1740 L
5736 1704 mt 5736 1776 L
4314 3436 mt 4386 3436 L
4350 3400 mt 4350 3472 L
4922 3358 mt 4994 3358 L
4958 3322 mt 4958 3394 L
3000 1476 mt 3072 1476 L
3036 1440 mt 3036 1512 L
3232 2532 mt 3304 2532 L
3268 2496 mt 3268 2568 L
2924 4616 mt 2996 4616 L
2960 4580 mt 2960 4652 L
4836 2727 mt 4908 2727 L
4872 2691 mt 4872 2763 L
4760 2001 mt 4832 2001 L
4796 1965 mt 4796 2037 L
2836 2484 mt 2908 2484 L
2872 2448 mt 2872 2520 L
5002 1152 mt 5074 1152 L
5038 1116 mt 5038 1188 L
3566 2782 mt 3638 2782 L
3602 2746 mt 3602 2818 L
3110 2691 mt 3182 2691 L
3146 2655 mt 3146 2727 L
4981 3093 mt 5053 3093 L
5017 3057 mt 5017 3129 L
3627 2320 mt 3699 2320 L
3663 2284 mt 3663 2356 L
4142 2545 mt 4214 2545 L
4178 2509 mt 4178 2581 L
3013 1526 mt 3085 1526 L
3049 1490 mt 3049 1562 L
4585 1404 mt 4657 1404 L
4621 1368 mt 4621 1440 L
3971 2677 mt 4043 2677 L
4007 2641 mt 4007 2713 L
3460 3340 mt 3532 3340 L
3496 3304 mt 3496 3376 L
4407 2597 mt 4479 2597 L
4443 2561 mt 4443 2633 L
4463 2458 mt 4535 2458 L
4499 2422 mt 4499 2494 L
4156 1911 mt 4228 1911 L
4192 1875 mt 4192 1947 L
3319 2343 mt 3391 2343 L
3355 2307 mt 3355 2379 L
3072 3273 mt 3144 3273 L
3108 3237 mt 3108 3309 L
3791 2261 mt 3863 2261 L
3827 2225 mt 3827 2297 L
2715 3191 mt 2787 3191 L
2751 3155 mt 2751 3227 L
3850 3491 mt 3922 3491 L
3886 3455 mt 3886 3527 L
3141  724 mt 3213  724 L
3177  688 mt 3177  760 L
3104 3658 mt 3176 3658 L
3140 3622 mt 3140 3694 L
4746 2094 mt 4818 2094 L
4782 2058 mt 4782 2130 L
4121 2247 mt 4193 2247 L
4157 2211 mt 4157 2283 L
3717 3213 mt 3789 3213 L
3753 3177 mt 3753 3249 L
3610 2815 mt 3682 2815 L
3646 2779 mt 3646 2851 L
4608 3386 mt 4680 3386 L
4644 3350 mt 4644 3422 L
3066 2584 mt 3138 2584 L
3102 2548 mt 3102 2620 L
3510 2956 mt 3582 2956 L
3546 2920 mt 3546 2992 L
5828 2046 mt 5900 2046 L
5864 2010 mt 5864 2082 L
4282 2471 mt 4354 2471 L
4318 2435 mt 4318 2507 L
4306 3220 mt 4378 3220 L
4342 3184 mt 4342 3256 L
3410 2978 mt 3482 2978 L
3446 2942 mt 3446 3014 L
4015 1995 mt 4087 1995 L
4051 1959 mt 4051 2031 L
3172 3693 mt 3244 3693 L
3208 3657 mt 3208 3729 L
3359 3265 mt 3431 3265 L
3395 3229 mt 3395 3301 L
3129 2718 mt 3201 2718 L
3165 2682 mt 3165 2754 L
2993 3034 mt 3065 3034 L
3029 2998 mt 3029 3070 L
1805 2914 mt 1877 2914 L
1841 2878 mt 1841 2950 L
4482 2449 mt 4554 2449 L
4518 2413 mt 4518 2485 L
3785 2641 mt 3857 2641 L
3821 2605 mt 3821 2677 L
3745 2576 mt 3817 2576 L
3781 2540 mt 3781 2612 L
4501  824 mt 4573  824 L
4537  788 mt 4537  860 L
5071 2405 mt 5143 2405 L
5107 2369 mt 5107 2441 L
3809 2879 mt 3881 2879 L
3845 2843 mt 3845 2915 L
3757 2436 mt 3829 2436 L
3793 2400 mt 3793 2472 L
1619 2432 mt 1691 2432 L
1655 2396 mt 1655 2468 L
3946 1662 mt 4018 1662 L
3982 1626 mt 3982 1698 L
3728 2523 mt 3800 2523 L
3764 2487 mt 3764 2559 L
4054 4305 mt 4126 4305 L
4090 4269 mt 4090 4341 L
4060 3118 mt 4132 3118 L
4096 3082 mt 4096 3154 L
5150 3515 mt 5222 3515 L
5186 3479 mt 5186 3551 L
2671 2352 mt 2743 2352 L
2707 2316 mt 2707 2388 L
4199 1904 mt 4271 1904 L
4235 1868 mt 4235 1940 L
2973 3289 mt 3045 3289 L
3009 3253 mt 3009 3325 L
4259 2514 mt 4331 2514 L
4295 2478 mt 4295 2550 L
3661 2983 mt 3733 2983 L
3697 2947 mt 3697 3019 L
3499 2510 mt 3571 2510 L
3535 2474 mt 3535 2546 L
3915 3106 mt 3987 3106 L
3951 3070 mt 3951 3142 L
3261 2562 mt 3333 2562 L
3297 2526 mt 3297 2598 L
4347 1434 mt 4419 1434 L
4383 1398 mt 4383 1470 L
3683 3057 mt 3755 3057 L
3719 3021 mt 3719 3093 L
3398 2410 mt 3470 2410 L
3434 2374 mt 3434 2446 L
3364 1255 mt 3436 1255 L
3400 1219 mt 3400 1291 L
6033 2007 mt 6105 2007 L
6069 1971 mt 6069 2043 L
2773 3242 mt 2845 3242 L
2809 3206 mt 2809 3278 L
1481 2109 mt 1553 2109 L
1517 2073 mt 1517 2145 L
3393 1680 mt 3465 1680 L
3429 1644 mt 3429 1716 L
3826 2904 mt 3898 2904 L
3862 2868 mt 3862 2940 L
3952 3610 mt 4024 3610 L
3988 3574 mt 3988 3646 L
3838 2989 mt 3910 2989 L
3874 2953 mt 3874 3025 L
3780 2104 mt 3852 2104 L
3816 2068 mt 3816 2140 L
1876 3908 mt 1948 3908 L
1912 3872 mt 1912 3944 L
1907 2270 mt 1979 2270 L
1943 2234 mt 1943 2306 L
2987 3314 mt 3059 3314 L
3023 3278 mt 3023 3350 L
3797 3028 mt 3869 3028 L
3833 2992 mt 3833 3064 L
3723 2686 mt 3795 2686 L
3759 2650 mt 3759 2722 L
3190 1624 mt 3262 1624 L
3226 1588 mt 3226 1660 L
4041 1232 mt 4113 1232 L
4077 1196 mt 4077 1268 L
2789 3198 mt 2861 3198 L
2825 3162 mt 2825 3234 L
3153 3331 mt 3225 3331 L
3189 3295 mt 3189 3367 L
2605 2869 mt 2677 2869 L
2641 2833 mt 2641 2905 L
2866 2773 mt 2938 2773 L
2902 2737 mt 2902 2809 L
4177 4023 mt 4249 4023 L
4213 3987 mt 4213 4059 L
3571 2325 mt 3643 2325 L
3607 2289 mt 3607 2361 L
1259  564 mt 1331  564 L
1295  528 mt 1295  600 L
4128 2811 mt 4200 2811 L
4164 2775 mt 4164 2847 L
2555 2940 mt 2627 2940 L
2591 2904 mt 2591 2976 L
3649 3005 mt 3721 3005 L
3685 2969 mt 3685 3041 L
4355 3171 mt 4427 3171 L
4391 3135 mt 4391 3207 L
2341 3675 mt 2413 3675 L
2377 3639 mt 2377 3711 L
4719 3822 mt 4791 3822 L
4755 3786 mt 4755 3858 L
4631 2175 mt 4703 2175 L
4667 2139 mt 4667 2211 L
3226 3367 mt 3298 3367 L
3262 3331 mt 3262 3403 L
4574 2796 mt 4646 2796 L
4610 2760 mt 4610 2832 L
5211 2593 mt 5283 2593 L
5247 2557 mt 5247 2629 L
2938 2962 mt 3010 2962 L
2974 2926 mt 2974 2998 L
4693 3281 mt 4765 3281 L
4729 3245 mt 4729 3317 L
2917 2180 mt 2989 2180 L
2953 2144 mt 2953 2216 L
1766 2806 mt 1838 2806 L
1802 2770 mt 1802 2842 L
3370 3011 mt 3442 3011 L
3406 2975 mt 3406 3047 L
3123 2713 mt 3195 2713 L
3159 2677 mt 3159 2749 L
 863 3184 mt  935 3184 L
 899 3148 mt  899 3220 L
2218 3641 mt 2290 3641 L
2254 3605 mt 2254 3677 L
2368 2130 mt 2440 2130 L
2404 2094 mt 2404 2166 L
5606 2120 mt 5678 2120 L
5642 2084 mt 5642 2156 L
4435 2073 mt 4507 2073 L
4471 2037 mt 4471 2109 L
2165 2392 mt 2237 2392 L
2201 2356 mt 2201 2428 L
5365 3144 mt 5437 3144 L
5401 3108 mt 5401 3180 L
3166 3581 mt 3238 3581 L
3202 3545 mt 3202 3617 L
3482 2825 mt 3554 2825 L
3518 2789 mt 3518 2861 L
2327 3063 mt 2399 3063 L
2363 3027 mt 2363 3099 L
3290 1318 mt 3362 1318 L
3326 1282 mt 3326 1354 L
1991 3257 mt 2063 3257 L
2027 3221 mt 2027 3293 L
3734 2849 mt 3806 2849 L
3770 2813 mt 3770 2885 L
4416 2655 mt 4488 2655 L
4452 2619 mt 4452 2691 L
3493 1990 mt 3565 1990 L
3529 1954 mt 3529 2026 L
5468 1923 mt 5540 1923 L
5504 1887 mt 5504 1959 L
3196 1277 mt 3268 1277 L
3232 1241 mt 3232 1313 L
3879 3125 mt 3951 3125 L
3915 3089 mt 3915 3161 L
3855 1489 mt 3927 1489 L
3891 1453 mt 3891 1525 L
3521 2925 mt 3593 2925 L
3557 2889 mt 3557 2961 L
4706 1772 mt 4778 1772 L
4742 1736 mt 4742 1808 L
gs 899 414 5363 4203 rc
gr

0 sg
2826 5104 mt 
(\(F,DCTs,MLP\)) s
 482 3343 mt  -90 rotate
(\(S,LFCC,GMM\)) s
90 rotate
2975  223 mt 
(Corr = 0.10) s

end %%Color Dict

eplot
%%EndObject

epage
end

showpage

%%Trailer
%%EOF
