%!PS-Adobe-3.0 EPSF-3.0
%%Creator: MATLAB, The Mathworks, Inc.
%%Title: .\main_fusion_us_logreg_all_beta2.eps
%%CreationDate: 02/14/2009  01:51:39
%%DocumentNeededFonts: Helvetica
%%DocumentProcessColors: Cyan Magenta Yellow Black
%%LanguageLevel: 2
%%Pages: 1
%%BoundingBox:    18   187   551   615
%%EndComments

%%BeginProlog
% MathWorks dictionary
/MathWorks 160 dict begin
% definition operators
/bdef {bind def} bind def
/ldef {load def} bind def
/xdef {exch def} bdef
/xstore {exch store} bdef
% operator abbreviations
/c  /clip ldef
/cc /concat ldef
/cp /closepath ldef
/gr /grestore ldef
/gs /gsave ldef
/mt /moveto ldef
/np /newpath ldef
/cm /currentmatrix ldef
/sm /setmatrix ldef
/rm /rmoveto ldef
/rl /rlineto ldef
/s {show newpath} bdef
/sc {setcmykcolor} bdef
/sr /setrgbcolor ldef
/sg /setgray ldef
/w /setlinewidth ldef
/j /setlinejoin ldef
/cap /setlinecap ldef
/rc {rectclip} bdef
/rf {rectfill} bdef
% page state control
/pgsv () def
/bpage {/pgsv save def} bdef
/epage {pgsv restore} bdef
/bplot /gsave ldef
/eplot {stroke grestore} bdef
% orientation switch
/portraitMode 0 def /landscapeMode 1 def /rotateMode 2 def
% coordinate system mappings
/dpi2point 0 def
% font control
/FontSize 0 def
/FMS {/FontSize xstore findfont [FontSize 0 0 FontSize neg 0 0]
  makefont setfont} bdef
/ISOLatin1Encoding where {pop /WindowsLatin1Encoding 256 array bdef
ISOLatin1Encoding WindowsLatin1Encoding copy pop
/.notdef/.notdef/quotesinglbase/florin/quotedblbase/ellipsis/dagger
/daggerdbl/circumflex/perthousand/Scaron/guilsinglleft/OE/.notdef/.notdef
/.notdef/.notdef/quoteleft/quoteright/quotedblleft/quotedblright/bullet
/endash/emdash/tilde/trademark/scaron/guilsinglright/oe/.notdef/.notdef
/Ydieresis WindowsLatin1Encoding 128 32 getinterval astore pop}
{/WindowsLatin1Encoding StandardEncoding bdef} ifelse
/reencode {exch dup where {pop load} {pop StandardEncoding} ifelse
  exch dup 3 1 roll findfont dup length dict begin
  { 1 index /FID ne {def}{pop pop} ifelse } forall
  /Encoding exch def currentdict end definefont pop} bdef
/isroman {findfont /CharStrings get /Agrave known} bdef
/FMSR {3 1 roll 1 index dup isroman {reencode} {pop pop} ifelse
  exch FMS} bdef
/csm {1 dpi2point div -1 dpi2point div scale neg translate
 dup landscapeMode eq {pop -90 rotate}
  {rotateMode eq {90 rotate} if} ifelse} bdef
% line types: solid, dotted, dashed, dotdash
/SO { [] 0 setdash } bdef
/DO { [.5 dpi2point mul 4 dpi2point mul] 0 setdash } bdef
/DA { [6 dpi2point mul] 0 setdash } bdef
/DD { [.5 dpi2point mul 4 dpi2point mul 6 dpi2point mul 4
  dpi2point mul] 0 setdash } bdef
% macros for lines and objects
/L {lineto stroke} bdef
/MP {3 1 roll moveto 1 sub {rlineto} repeat} bdef
/AP {{rlineto} repeat} bdef
/PDlw -1 def
/W {/PDlw currentlinewidth def setlinewidth} def
/PP {closepath eofill} bdef
/DP {closepath stroke} bdef
/MR {4 -2 roll moveto dup  0 exch rlineto exch 0 rlineto
  neg 0 exch rlineto closepath} bdef
/FR {MR stroke} bdef
/PR {MR fill} bdef
/L1i {{currentfile picstr readhexstring pop} image} bdef
/tMatrix matrix def
/MakeOval {newpath tMatrix currentmatrix pop translate scale
0 0 1 0 360 arc tMatrix setmatrix} bdef
/FO {MakeOval stroke} bdef
/PO {MakeOval fill} bdef
/PD {currentlinewidth 2 div 0 360 arc fill
   PDlw -1 eq not {PDlw w /PDlw -1 def} if} def
/FA {newpath tMatrix currentmatrix pop translate scale
  0 0 1 5 -2 roll arc tMatrix setmatrix stroke} bdef
/PA {newpath tMatrix currentmatrix pop	translate 0 0 moveto scale
  0 0 1 5 -2 roll arc closepath tMatrix setmatrix fill} bdef
/FAn {newpath tMatrix currentmatrix pop translate scale
  0 0 1 5 -2 roll arcn tMatrix setmatrix stroke} bdef
/PAn {newpath tMatrix currentmatrix pop translate 0 0 moveto scale
  0 0 1 5 -2 roll arcn closepath tMatrix setmatrix fill} bdef
/vradius 0 def /hradius 0 def /lry 0 def
/lrx 0 def /uly 0 def /ulx 0 def /rad 0 def
/MRR {/vradius xdef /hradius xdef /lry xdef /lrx xdef /uly xdef
  /ulx xdef newpath tMatrix currentmatrix pop ulx hradius add uly
  vradius add translate hradius vradius scale 0 0 1 180 270 arc 
  tMatrix setmatrix lrx hradius sub uly vradius add translate
  hradius vradius scale 0 0 1 270 360 arc tMatrix setmatrix
  lrx hradius sub lry vradius sub translate hradius vradius scale
  0 0 1 0 90 arc tMatrix setmatrix ulx hradius add lry vradius sub
  translate hradius vradius scale 0 0 1 90 180 arc tMatrix setmatrix
  closepath} bdef
/FRR {MRR stroke } bdef
/PRR {MRR fill } bdef
/MlrRR {/lry xdef /lrx xdef /uly xdef /ulx xdef /rad lry uly sub 2 div def
  newpath tMatrix currentmatrix pop ulx rad add uly rad add translate
  rad rad scale 0 0 1 90 270 arc tMatrix setmatrix lrx rad sub lry rad
  sub translate rad rad scale 0 0 1 270 90 arc tMatrix setmatrix
  closepath} bdef
/FlrRR {MlrRR stroke } bdef
/PlrRR {MlrRR fill } bdef
/MtbRR {/lry xdef /lrx xdef /uly xdef /ulx xdef /rad lrx ulx sub 2 div def
  newpath tMatrix currentmatrix pop ulx rad add uly rad add translate
  rad rad scale 0 0 1 180 360 arc tMatrix setmatrix lrx rad sub lry rad
  sub translate rad rad scale 0 0 1 0 180 arc tMatrix setmatrix
  closepath} bdef
/FtbRR {MtbRR stroke } bdef
/PtbRR {MtbRR fill } bdef
/stri 6 array def /dtri 6 array def
/smat 6 array def /dmat 6 array def
/tmat1 6 array def /tmat2 6 array def /dif 3 array def
/asub {/ind2 exch def /ind1 exch def dup dup
  ind1 get exch ind2 get sub exch } bdef
/tri_to_matrix {
  2 0 asub 3 1 asub 4 0 asub 5 1 asub
  dup 0 get exch 1 get 7 -1 roll astore } bdef
/compute_transform {
  dmat dtri tri_to_matrix tmat1 invertmatrix 
  smat stri tri_to_matrix tmat2 concatmatrix } bdef
/ds {stri astore pop} bdef
/dt {dtri astore pop} bdef
/db {2 copy /cols xdef /rows xdef mul dup 3 mul string
  currentfile 
  3 index 0 eq {/ASCIIHexDecode filter}
  {/ASCII85Decode filter 3 index 2 eq {/RunLengthDecode filter} if }
  ifelse exch readstring pop
  dup 0 3 index getinterval /rbmap xdef
  dup 2 index dup getinterval /gbmap xdef
  1 index dup 2 mul exch getinterval /bbmap xdef pop pop}bdef
/it {gs np dtri aload pop moveto lineto lineto cp c
  cols rows 8 compute_transform 
  rbmap gbmap bbmap true 3 colorimage gr}bdef
/il {newpath moveto lineto stroke}bdef
currentdict end def
%%EndProlog

%%BeginSetup
MathWorks begin

0 cap

end
%%EndSetup

%%Page: 1 1
%%BeginPageSetup
%%PageBoundingBox:    18   187   551   615
MathWorks begin
bpage
%%EndPageSetup

%%BeginObject: obj1
bplot

/dpi2point 12 def
portraitMode 0216 7344 csm

    0   -42  6407  5134 rc
86 dict begin %Colortable dictionary
/c0 { 0.000000 0.000000 0.000000 sr} bdef
/c1 { 1.000000 1.000000 1.000000 sr} bdef
/c2 { 0.900000 0.000000 0.000000 sr} bdef
/c3 { 0.000000 0.820000 0.000000 sr} bdef
/c4 { 0.000000 0.000000 0.800000 sr} bdef
/c5 { 0.910000 0.820000 0.320000 sr} bdef
/c6 { 1.000000 0.260000 0.820000 sr} bdef
/c7 { 0.000000 0.820000 0.820000 sr} bdef
c0
1 j
1 sg
   0    0 6919 5187 rf
6 w
0 4227 4721 0 0 -4227 1540 4616 4 MP
PP
-4721 0 0 4227 4721 0 0 -4227 1540 4616 5 MP stroke
4 w
DO
SO
6 w
0 sg
1540  389 mt 6261  389 L
1540 4616 mt 6261 4616 L
6261 4616 mt 6261  389 L
1540 4616 mt 1540  389 L
1540 4616 mt 6261 4616 L
1540 4616 mt 1540  389 L
1900 4616 mt 1900 4568 L
1900  389 mt 1900  436 L
%%IncludeResource: font Helvetica
/Helvetica /WindowsLatin1Encoding 192 FMSR

1682 4828 mt 
(-80) s
2522 4616 mt 2522 4568 L
2522  389 mt 2522  436 L
2304 4828 mt 
(-60) s
3143 4616 mt 3143 4568 L
3143  389 mt 3143  436 L
2925 4828 mt 
(-40) s
3765 4616 mt 3765 4568 L
3765  389 mt 3765  436 L
3547 4828 mt 
(-20) s
4387 4616 mt 4387 4568 L
4387  389 mt 4387  436 L
4334 4828 mt 
(0) s
5008 4616 mt 5008 4568 L
5008  389 mt 5008  436 L
4902 4828 mt 
(20) s
5630 4616 mt 5630 4568 L
5630  389 mt 5630  436 L
5524 4828 mt 
(40) s
6251 4616 mt 6251 4568 L
6251  389 mt 6251  436 L
6145 4828 mt 
(60) s
1540 4404 mt 1587 4404 L
6261 4404 mt 6213 4404 L
1183 4475 mt 
(orig) s
1540 3981 mt 1587 3981 L
6261 3981 mt 6213 3981 L
 567 4052 mt 
(z-norm \(lr\)) s
1540 3559 mt 1587 3559 L
6261 3559 mt 6213 3559 L
 855 3630 mt 
(z-norm) s
1540 3136 mt 1587 3136 L
6261 3136 mt 6213 3136 L
 140 3207 mt 
(z-norm, gen \(lr\)) s
1540 2713 mt 1587 2713 L
6261 2713 mt 6213 2713 L
 170 2784 mt 
(z-norm [y,p] \(lr\)) s
1540 2291 mt 1587 2291 L
6261 2291 mt 6213 2291 L
   0 2362 mt 
(z-norm [y,y*p] \(lr\)) s
1540 1868 mt 1587 1868 L
6261 1868 mt 6213 1868 L
 898 1939 mt 
(f-norm) s
1540 1445 mt 1587 1445 L
6261 1445 mt 6213 1445 L
 354 1516 mt 
(f-norm v1 \(lr\)) s
1540 1023 mt 1587 1023 L
6261 1023 mt 6213 1023 L
 354 1094 mt 
(f-norm v2 \(lr\)) s
1540  600 mt 1587  600 L
6261  600 mt 6213  600 L
 679  671 mt 
(f-norm-lr) s
1540  389 mt 6261  389 L
1540 4616 mt 6261 4616 L
6261 4616 mt 6261  389 L
1540 4616 mt 1540  389 L
2680 5024 mt 
(relative change of HTER \(%\)) s
3511  224 mt 
(all, ) s
%%IncludeResource: font Symbol
/Symbol /WindowsLatin1Encoding 192 FMSR

3809  224 mt 
(b) s
%%IncludeResource: font Helvetica
/Helvetica /WindowsLatin1Encoding 192 FMSR

3914  224 mt 
(=0.5) s
gs 1540 389 4722 4228 rc
DA
4387 4404 PD
4387 4404 PD
SO
0 -106 4387 4457 2 MP stroke
0 -106 4387 4457 2 MP stroke
/c8 { 0.000000 0.000000 1.000000 sr} bdef
c8
0 -212 4387 4510 2 MP stroke
/c9 { 1.000000 0.000000 0.000000 sr} bdef
c9
0 -212 4387 4510 2 MP stroke
DA
0 sg
285 0 4357 3981 2 MP stroke
591 0 3064 3981 2 MP stroke
SO
0 -105 4642 4034 2 MP stroke
0 -105 3064 4034 2 MP stroke
c8
702 0 0 211 -702 0 0 -211 4357 4087 5 MP stroke
c9
0 -211 4313 4087 2 MP stroke
DA
0 sg
27 0 4365 3559 2 MP stroke
134 0 3895 3559 2 MP stroke
SO
0 -106 4392 3612 2 MP stroke
0 -106 3895 3612 2 MP stroke
c8
336 0 0 211 -336 0 0 -211 4365 3664 5 MP stroke
c9
0 -211 4153 3664 2 MP stroke
gr

c9
5122 3559 mt 5194 3559 L
5158 3523 mt 5158 3595 L
3065 3559 mt 3137 3559 L
3101 3523 mt 3101 3595 L
5238 3559 mt 5310 3559 L
5274 3523 mt 5274 3595 L
3234 3559 mt 3306 3559 L
3270 3523 mt 3270 3595 L
gs 1540 389 4722 4228 rc
DA
0 sg
817 0 4756 3136 2 MP stroke
772 0 2568 3136 2 MP stroke
SO
0 -106 5573 3189 2 MP stroke
0 -106 2568 3189 2 MP stroke
c8
1416 0 0 212 -1416 0 0 -212 4756 3242 5 MP stroke
c9
0 -212 4256 3242 2 MP stroke
DA
0 sg
1329 0 4717 2713 2 MP stroke
971 0 2532 2713 2 MP stroke
SO
0 -105 6046 2766 2 MP stroke
0 -105 2532 2766 2 MP stroke
c8
1214 0 0 211 -1214 0 0 -211 4717 2819 5 MP stroke
c9
0 -211 4240 2819 2 MP stroke
DA
0 sg
633 0 4572 2291 2 MP stroke
1464 0 1754 2291 2 MP stroke
SO
0 -105 5205 2343 2 MP stroke
0 -105 1754 2343 2 MP stroke
c8
1354 0 0 211 -1354 0 0 -211 4572 2396 5 MP stroke
c9
0 -211 4288 2396 2 MP stroke
DA
0 sg
683 0 4182 1868 2 MP stroke
206 0 3440 1868 2 MP stroke
SO
0 -106 4865 1921 2 MP stroke
0 -106 3440 1921 2 MP stroke
c8
536 0 0 212 -536 0 0 -212 4182 1974 5 MP stroke
c9
0 -212 4022 1974 2 MP stroke
gr

2760 1868 mt 2832 1868 L
2796 1832 mt 2796 1904 L
2536 1868 mt 2608 1868 L
2572 1832 mt 2572 1904 L
gs 1540 389 4722 4228 rc
DA
0 sg
614 0 4256 1445 2 MP stroke
938 0 2378 1445 2 MP stroke
SO
0 -106 4870 1498 2 MP stroke
0 -106 2378 1498 2 MP stroke
c8
940 0 0 211 -940 0 0 -211 4256 1551 5 MP stroke
c9
0 -211 3959 1551 2 MP stroke
DA
0 sg
825 0 4249 1023 2 MP stroke
987 0 2335 1023 2 MP stroke
SO
0 -105 5074 1075 2 MP stroke
0 -105 2335 1075 2 MP stroke
c8
927 0 0 211 -927 0 0 -211 4249 1128 5 MP stroke
c9
0 -211 3971 1128 2 MP stroke
DA
0 sg
375 0 4265 600 2 MP stroke
106 0 3694 600 2 MP stroke
SO
0 -106 4640 653 2 MP stroke
0 -106 3694 653 2 MP stroke
c8
465 0 0 212 -465 0 0 -212 4265 706 5 MP stroke
c9
0 -212 4017 706 2 MP stroke
gr

2762  600 mt 2834  600 L
2798  564 mt 2798  636 L
4991  600 mt 5063  600 L
5027  564 mt 5027  636 L
2490  600 mt 2562  600 L
2526  564 mt 2526  636 L
gs 1540 389 4722 4228 rc
/c10 { 0.000000 1.000000 0.000000 sr} bdef
c10
0 4228 4387 389 2 MP stroke
gr

c10

end %%Color Dict

eplot
%%EndObject

epage
end

showpage

%%Trailer
%%EOF
