%!PS-Adobe-3.0 EPSF-3.0
%%Creator: MATLAB, The Mathworks, Inc. Version 7.7.0.471 (R2008b). Operating System: Microsoft Windows XP.
%%Title: Pictures\main_zoo_mvar_analysis_data_BMI_xcorr_bmi_p1_k1_3_5.eps
%%CreationDate: 10/26/2009  05:44:00
%%DocumentNeededFonts: Helvetica
%%DocumentProcessColors: Cyan Magenta Yellow Black
%%LanguageLevel: 2
%%Pages: 1
%%BoundingBox:    32   180   546   616
%%EndComments

%%BeginProlog
% MathWorks dictionary
/MathWorks 160 dict begin
% definition operators
/bdef {bind def} bind def
/ldef {load def} bind def
/xdef {exch def} bdef
/xstore {exch store} bdef
% operator abbreviations
/c  /clip ldef
/cc /concat ldef
/cp /closepath ldef
/gr /grestore ldef
/gs /gsave ldef
/mt /moveto ldef
/np /newpath ldef
/cm /currentmatrix ldef
/sm /setmatrix ldef
/rm /rmoveto ldef
/rl /rlineto ldef
/s {show newpath} bdef
/sc {setcmykcolor} bdef
/sr /setrgbcolor ldef
/sg /setgray ldef
/w /setlinewidth ldef
/j /setlinejoin ldef
/cap /setlinecap ldef
/rc {rectclip} bdef
/rf {rectfill} bdef
% page state control
/pgsv () def
/bpage {/pgsv save def} bdef
/epage {pgsv restore} bdef
/bplot /gsave ldef
/eplot {stroke grestore} bdef
% orientation switch
/portraitMode 0 def /landscapeMode 1 def /rotateMode 2 def
% coordinate system mappings
/dpi2point 0 def
% font control
/FontSize 0 def
/FMS {/FontSize xstore findfont [FontSize 0 0 FontSize neg 0 0]
  makefont setfont} bdef
/ISOLatin1Encoding where {pop /WindowsLatin1Encoding 256 array bdef
ISOLatin1Encoding WindowsLatin1Encoding copy pop
/.notdef/.notdef/quotesinglbase/florin/quotedblbase/ellipsis/dagger
/daggerdbl/circumflex/perthousand/Scaron/guilsinglleft/OE/.notdef/.notdef
/.notdef/.notdef/quoteleft/quoteright/quotedblleft/quotedblright/bullet
/endash/emdash/tilde/trademark/scaron/guilsinglright/oe/.notdef/.notdef
/Ydieresis WindowsLatin1Encoding 128 32 getinterval astore pop}
{/WindowsLatin1Encoding StandardEncoding bdef} ifelse
/reencode {exch dup where {pop load} {pop StandardEncoding} ifelse
  exch dup 3 1 roll findfont dup length dict begin
  { 1 index /FID ne {def}{pop pop} ifelse } forall
  /Encoding exch def currentdict end definefont pop} bdef
/isroman {findfont /CharStrings get /Agrave known} bdef
/FMSR {3 1 roll 1 index dup isroman {reencode} {pop pop} ifelse
  exch FMS} bdef
/csm {1 dpi2point div -1 dpi2point div scale neg translate
 dup landscapeMode eq {pop -90 rotate}
  {rotateMode eq {90 rotate} if} ifelse} bdef
% line types: solid, dotted, dashed, dotdash
/SO { [] 0 setdash } bdef
/DO { [.5 dpi2point mul 4 dpi2point mul] 0 setdash } bdef
/DA { [6 dpi2point mul] 0 setdash } bdef
/DD { [.5 dpi2point mul 4 dpi2point mul 6 dpi2point mul 4
  dpi2point mul] 0 setdash } bdef
% macros for lines and objects
/L {lineto stroke} bdef
/MP {3 1 roll moveto 1 sub {rlineto} repeat} bdef
/AP {{rlineto} repeat} bdef
/PDlw -1 def
/W {/PDlw currentlinewidth def setlinewidth} def
/PP {closepath eofill} bdef
/DP {closepath stroke} bdef
/MR {4 -2 roll moveto dup  0 exch rlineto exch 0 rlineto
  neg 0 exch rlineto closepath} bdef
/FR {MR stroke} bdef
/PR {MR fill} bdef
/L1i {{currentfile picstr readhexstring pop} image} bdef
/tMatrix matrix def
/MakeOval {newpath tMatrix currentmatrix pop translate scale
0 0 1 0 360 arc tMatrix setmatrix} bdef
/FO {MakeOval stroke} bdef
/PO {MakeOval fill} bdef
/PD {currentlinewidth 2 div 0 360 arc fill
   PDlw -1 eq not {PDlw w /PDlw -1 def} if} def
/FA {newpath tMatrix currentmatrix pop translate scale
  0 0 1 5 -2 roll arc tMatrix setmatrix stroke} bdef
/PA {newpath tMatrix currentmatrix pop	translate 0 0 moveto scale
  0 0 1 5 -2 roll arc closepath tMatrix setmatrix fill} bdef
/FAn {newpath tMatrix currentmatrix pop translate scale
  0 0 1 5 -2 roll arcn tMatrix setmatrix stroke} bdef
/PAn {newpath tMatrix currentmatrix pop translate 0 0 moveto scale
  0 0 1 5 -2 roll arcn closepath tMatrix setmatrix fill} bdef
/vradius 0 def /hradius 0 def /lry 0 def
/lrx 0 def /uly 0 def /ulx 0 def /rad 0 def
/MRR {/vradius xdef /hradius xdef /lry xdef /lrx xdef /uly xdef
  /ulx xdef newpath tMatrix currentmatrix pop ulx hradius add uly
  vradius add translate hradius vradius scale 0 0 1 180 270 arc 
  tMatrix setmatrix lrx hradius sub uly vradius add translate
  hradius vradius scale 0 0 1 270 360 arc tMatrix setmatrix
  lrx hradius sub lry vradius sub translate hradius vradius scale
  0 0 1 0 90 arc tMatrix setmatrix ulx hradius add lry vradius sub
  translate hradius vradius scale 0 0 1 90 180 arc tMatrix setmatrix
  closepath} bdef
/FRR {MRR stroke } bdef
/PRR {MRR fill } bdef
/MlrRR {/lry xdef /lrx xdef /uly xdef /ulx xdef /rad lry uly sub 2 div def
  newpath tMatrix currentmatrix pop ulx rad add uly rad add translate
  rad rad scale 0 0 1 90 270 arc tMatrix setmatrix lrx rad sub lry rad
  sub translate rad rad scale 0 0 1 270 90 arc tMatrix setmatrix
  closepath} bdef
/FlrRR {MlrRR stroke } bdef
/PlrRR {MlrRR fill } bdef
/MtbRR {/lry xdef /lrx xdef /uly xdef /ulx xdef /rad lrx ulx sub 2 div def
  newpath tMatrix currentmatrix pop ulx rad add uly rad add translate
  rad rad scale 0 0 1 180 360 arc tMatrix setmatrix lrx rad sub lry rad
  sub translate rad rad scale 0 0 1 0 180 arc tMatrix setmatrix
  closepath} bdef
/FtbRR {MtbRR stroke } bdef
/PtbRR {MtbRR fill } bdef
/stri 6 array def /dtri 6 array def
/smat 6 array def /dmat 6 array def
/tmat1 6 array def /tmat2 6 array def /dif 3 array def
/asub {/ind2 exch def /ind1 exch def dup dup
  ind1 get exch ind2 get sub exch } bdef
/tri_to_matrix {
  2 0 asub 3 1 asub 4 0 asub 5 1 asub
  dup 0 get exch 1 get 7 -1 roll astore } bdef
/compute_transform {
  dmat dtri tri_to_matrix tmat1 invertmatrix 
  smat stri tri_to_matrix tmat2 concatmatrix } bdef
/ds {stri astore pop} bdef
/dt {dtri astore pop} bdef
/db {2 copy /cols xdef /rows xdef mul dup 3 mul string
  currentfile 
  3 index 0 eq {/ASCIIHexDecode filter}
  {/ASCII85Decode filter 3 index 2 eq {/RunLengthDecode filter} if }
  ifelse exch readstring pop
  dup 0 3 index getinterval /rbmap xdef
  dup 2 index dup getinterval /gbmap xdef
  1 index dup 2 mul exch getinterval /bbmap xdef pop pop}bdef
/it {gs np dtri aload pop moveto lineto lineto cp c
  cols rows 8 compute_transform 
  rbmap gbmap bbmap true 3 colorimage gr}bdef
/il {newpath moveto lineto stroke}bdef
currentdict end def
%%EndProlog

%%BeginSetup
MathWorks begin

0 cap

end
%%EndSetup

%%Page: 1 1
%%BeginPageSetup
%%PageBoundingBox:    32   180   546   616
MathWorks begin
bpage
%%EndPageSetup

%%BeginObject: obj1
bplot

/dpi2point 12 def
portraitMode 0216 7344 csm

  174   -48  6173  5231 rc
85 dict begin %Colortable dictionary
/c0 { 0.000000 0.000000 0.000000 sr} bdef
/c1 { 1.000000 1.000000 1.000000 sr} bdef
/c2 { 0.900000 0.000000 0.000000 sr} bdef
/c3 { 0.000000 0.820000 0.000000 sr} bdef
/c4 { 0.000000 0.000000 0.800000 sr} bdef
/c5 { 0.910000 0.820000 0.320000 sr} bdef
/c6 { 1.000000 0.260000 0.820000 sr} bdef
/c7 { 0.000000 0.820000 0.820000 sr} bdef
c0
1 j
1 sg
   0    0 6919 5187 rf
6 w
0 4202 5362 0 0 -4202 899 4616 4 MP
PP
-5362 0 0 4202 5362 0 0 -4202 899 4616 5 MP stroke
4 w
DO
SO
6 w
0 sg
 899  414 mt 6261  414 L
 899 4616 mt 6261 4616 L
6261 4616 mt 6261  414 L
 899 4616 mt  899  414 L
 899 4616 mt 6261 4616 L
 899 4616 mt  899  414 L
1877 4616 mt 1877 4562 L
1877  414 mt 1877  467 L
%%IncludeResource: font Helvetica
/Helvetica /WindowsLatin1Encoding 240 FMSR

1711 4873 mt 
(0.1) s
2855 4616 mt 2855 4562 L
2855  414 mt 2855  467 L
2689 4873 mt 
(0.2) s
3834 4616 mt 3834 4562 L
3834  414 mt 3834  467 L
3668 4873 mt 
(0.3) s
4812 4616 mt 4812 4562 L
4812  414 mt 4812  467 L
4646 4873 mt 
(0.4) s
5791 4616 mt 5791 4562 L
5791  414 mt 5791  467 L
5625 4873 mt 
(0.5) s
 899 3928 mt  952 3928 L
6261 3928 mt 6207 3928 L
 531 4017 mt 
(0.1) s
 899 3240 mt  952 3240 L
6261 3240 mt 6207 3240 L
 531 3329 mt 
(0.2) s
 899 2553 mt  952 2553 L
6261 2553 mt 6207 2553 L
 531 2642 mt 
(0.3) s
 899 1865 mt  952 1865 L
6261 1865 mt 6207 1865 L
 531 1954 mt 
(0.4) s
 899 1178 mt  952 1178 L
6261 1178 mt 6207 1178 L
 531 1267 mt 
(0.5) s
 899  490 mt  952  490 L
6261  490 mt 6207  490 L
 531  579 mt 
(0.6) s
 899  414 mt 6261  414 L
 899 4616 mt 6261 4616 L
6261 4616 mt 6261  414 L
 899 4616 mt  899  414 L
gs 899 414 5363 4203 rc
gr

/c8 { 0.000000 0.000000 1.000000 sr} bdef
c8
1505 3364 mt 1577 3364 L
1541 3328 mt 1541 3400 L
 925 4089 mt  997 4089 L
 961 4053 mt  961 4125 L
2984 4423 mt 3056 4423 L
3020 4387 mt 3020 4459 L
 967 4454 mt 1039 4454 L
1003 4418 mt 1003 4490 L
 978 4524 mt 1050 4524 L
1014 4488 mt 1014 4560 L
1174 4613 mt 1246 4613 L
1210 4577 mt 1210 4649 L
 867 4615 mt  939 4615 L
 903 4579 mt  903 4651 L
 869 4534 mt  941 4534 L
 905 4498 mt  905 4570 L
 897 4613 mt  969 4613 L
 933 4577 mt  933 4649 L
1394 3236 mt 1466 3236 L
1430 3200 mt 1430 3272 L
1762 1884 mt 1834 1884 L
1798 1848 mt 1798 1920 L
1444 4563 mt 1516 4563 L
1480 4527 mt 1480 4599 L
1451 4275 mt 1523 4275 L
1487 4239 mt 1487 4311 L
1990 4384 mt 2062 4384 L
2026 4348 mt 2026 4420 L
1043 4383 mt 1115 4383 L
1079 4347 mt 1079 4419 L
 956 4145 mt 1028 4145 L
 992 4109 mt  992 4181 L
1977 4497 mt 2049 4497 L
2013 4461 mt 2013 4533 L
 873 4614 mt  945 4614 L
 909 4578 mt  909 4650 L
 905 4514 mt  977 4514 L
 941 4478 mt  941 4550 L
 881 4604 mt  953 4604 L
 917 4568 mt  917 4640 L
1323 4589 mt 1395 4589 L
1359 4553 mt 1359 4625 L
1210 3066 mt 1282 3066 L
1246 3030 mt 1246 3102 L
 947 4574 mt 1019 4574 L
 983 4538 mt  983 4610 L
 996 4597 mt 1068 4597 L
1032 4561 mt 1032 4633 L
1256 4614 mt 1328 4614 L
1292 4578 mt 1292 4650 L
1149 4564 mt 1221 4564 L
1185 4528 mt 1185 4600 L
 887 4603 mt  959 4603 L
 923 4567 mt  923 4639 L
1095 3702 mt 1167 3702 L
1131 3666 mt 1131 3738 L
1006 4513 mt 1078 4513 L
1042 4477 mt 1042 4549 L
 877 4610 mt  949 4610 L
 913 4574 mt  913 4646 L
1293 4303 mt 1365 4303 L
1329 4267 mt 1329 4339 L
 912 4388 mt  984 4388 L
 948 4352 mt  948 4424 L
 870 4511 mt  942 4511 L
 906 4475 mt  906 4547 L
 863 4546 mt  935 4546 L
 899 4510 mt  899 4582 L
1493 4471 mt 1565 4471 L
1529 4435 mt 1529 4507 L
1221 4426 mt 1293 4426 L
1257 4390 mt 1257 4462 L
 870 4615 mt  942 4615 L
 906 4579 mt  906 4651 L
1299 4120 mt 1371 4120 L
1335 4084 mt 1335 4156 L
1279 4323 mt 1351 4323 L
1315 4287 mt 1315 4359 L
1683 4099 mt 1755 4099 L
1719 4063 mt 1719 4135 L
 879 3795 mt  951 3795 L
 915 3759 mt  915 3831 L
 933 4498 mt 1005 4498 L
 969 4462 mt  969 4534 L
1013 4601 mt 1085 4601 L
1049 4565 mt 1049 4637 L
3481 4594 mt 3553 4594 L
3517 4558 mt 3517 4630 L
 874 2830 mt  946 2830 L
 910 2794 mt  910 2866 L
 928 4615 mt 1000 4615 L
 964 4579 mt  964 4651 L
1255 4440 mt 1327 4440 L
1291 4404 mt 1291 4476 L
 885 4596 mt  957 4596 L
 921 4560 mt  921 4632 L
1394 4610 mt 1466 4610 L
1430 4574 mt 1430 4646 L
2224 3762 mt 2296 3762 L
2260 3726 mt 2260 3798 L
1032 4594 mt 1104 4594 L
1068 4558 mt 1068 4630 L
 863 4511 mt  935 4511 L
 899 4475 mt  899 4547 L
4295 4574 mt 4367 4574 L
4331 4538 mt 4331 4610 L
 886 4331 mt  958 4331 L
 922 4295 mt  922 4367 L
 866 4586 mt  938 4586 L
 902 4550 mt  902 4622 L
 925 4600 mt  997 4600 L
 961 4564 mt  961 4636 L
 878 1321 mt  950 1321 L
 914 1285 mt  914 1357 L
 930 2278 mt 1002 2278 L
 966 2242 mt  966 2314 L
2636 3344 mt 2708 3344 L
2672 3308 mt 2672 3380 L
2988 4610 mt 3060 4610 L
3024 4574 mt 3024 4646 L
1319 4311 mt 1391 4311 L
1355 4275 mt 1355 4347 L
1073 4248 mt 1145 4248 L
1109 4212 mt 1109 4284 L
 901 4615 mt  973 4615 L
 937 4579 mt  937 4651 L
1207 4612 mt 1279 4612 L
1243 4576 mt 1243 4648 L
5296 4588 mt 5368 4588 L
5332 4552 mt 5332 4624 L
 892 4506 mt  964 4506 L
 928 4470 mt  928 4542 L
3861 4547 mt 3933 4547 L
3897 4511 mt 3897 4583 L
1090 4081 mt 1162 4081 L
1126 4045 mt 1126 4117 L
2394 4383 mt 2466 4383 L
2430 4347 mt 2430 4419 L
2199 4612 mt 2271 4612 L
2235 4576 mt 2235 4648 L
1495 4248 mt 1567 4248 L
1531 4212 mt 1531 4284 L
1093 4477 mt 1165 4477 L
1129 4441 mt 1129 4513 L
 950 4595 mt 1022 4595 L
 986 4559 mt  986 4631 L
 995 4613 mt 1067 4613 L
1031 4577 mt 1031 4649 L
1766 4572 mt 1838 4572 L
1802 4536 mt 1802 4608 L
1389 4485 mt 1461 4485 L
1425 4449 mt 1425 4521 L
 863 4088 mt  935 4088 L
 899 4052 mt  899 4124 L
2715 4551 mt 2787 4551 L
2751 4515 mt 2751 4587 L
 870 4615 mt  942 4615 L
 906 4579 mt  906 4651 L
1290 4326 mt 1362 4326 L
1326 4290 mt 1326 4362 L
 872  414 mt  944  414 L
 908  378 mt  908  450 L
1080 4588 mt 1152 4588 L
1116 4552 mt 1116 4624 L
2888 4450 mt 2960 4450 L
2924 4414 mt 2924 4486 L
1120 4606 mt 1192 4606 L
1156 4570 mt 1156 4642 L
1081 4592 mt 1153 4592 L
1117 4556 mt 1117 4628 L
1145 4490 mt 1217 4490 L
1181 4454 mt 1181 4526 L
 864 4173 mt  936 4173 L
 900 4137 mt  900 4209 L
 891 4497 mt  963 4497 L
 927 4461 mt  927 4533 L
1066 4615 mt 1138 4615 L
1102 4579 mt 1102 4651 L
1021 4424 mt 1093 4424 L
1057 4388 mt 1057 4460 L
1482 4188 mt 1554 4188 L
1518 4152 mt 1518 4224 L
1008 4372 mt 1080 4372 L
1044 4336 mt 1044 4408 L
1014 4606 mt 1086 4606 L
1050 4570 mt 1050 4642 L
 919 4481 mt  991 4481 L
 955 4445 mt  955 4517 L
 905 4604 mt  977 4604 L
 941 4568 mt  941 4640 L
1126 4557 mt 1198 4557 L
1162 4521 mt 1162 4593 L
1221 4613 mt 1293 4613 L
1257 4577 mt 1257 4649 L
1183 3664 mt 1255 3664 L
1219 3628 mt 1219 3700 L
 872 4615 mt  944 4615 L
 908 4579 mt  908 4651 L
 909 4612 mt  981 4612 L
 945 4576 mt  945 4648 L
 945 4036 mt 1017 4036 L
 981 4000 mt  981 4072 L
1022 4505 mt 1094 4505 L
1058 4469 mt 1058 4541 L
1304 4050 mt 1376 4050 L
1340 4014 mt 1340 4086 L
1082 4534 mt 1154 4534 L
1118 4498 mt 1118 4570 L
 910 4447 mt  982 4447 L
 946 4411 mt  946 4483 L
 990 4565 mt 1062 4565 L
1026 4529 mt 1026 4601 L
1653 4548 mt 1725 4548 L
1689 4512 mt 1689 4584 L
1194 4270 mt 1266 4270 L
1230 4234 mt 1230 4306 L
 989 3924 mt 1061 3924 L
1025 3888 mt 1025 3960 L
1071 4378 mt 1143 4378 L
1107 4342 mt 1107 4414 L
1008 4614 mt 1080 4614 L
1044 4578 mt 1044 4650 L
 940 4447 mt 1012 4447 L
 976 4411 mt  976 4483 L
 866 4607 mt  938 4607 L
 902 4571 mt  902 4643 L
1610 4573 mt 1682 4573 L
1646 4537 mt 1646 4609 L
1059 4391 mt 1131 4391 L
1095 4355 mt 1095 4427 L
 997 4143 mt 1069 4143 L
1033 4107 mt 1033 4179 L
 879 4533 mt  951 4533 L
 915 4497 mt  915 4569 L
1244 4615 mt 1316 4615 L
1280 4579 mt 1280 4651 L
 863 4520 mt  935 4520 L
 899 4484 mt  899 4556 L
 900 4184 mt  972 4184 L
 936 4148 mt  936 4220 L
1031 4525 mt 1103 4525 L
1067 4489 mt 1067 4561 L
4075 4460 mt 4147 4460 L
4111 4424 mt 4111 4496 L
 872 4553 mt  944 4553 L
 908 4517 mt  908 4589 L
1520 4592 mt 1592 4592 L
1556 4556 mt 1556 4628 L
2424 3625 mt 2496 3625 L
2460 3589 mt 2460 3661 L
2934 4202 mt 3006 4202 L
2970 4166 mt 2970 4238 L
 919 4603 mt  991 4603 L
 955 4567 mt  955 4639 L
1673 4615 mt 1745 4615 L
1709 4579 mt 1709 4651 L
1553 4584 mt 1625 4584 L
1589 4548 mt 1589 4620 L
1014 4612 mt 1086 4612 L
1050 4576 mt 1050 4648 L
 867 4569 mt  939 4569 L
 903 4533 mt  903 4605 L
1246 4601 mt 1318 4601 L
1282 4565 mt 1282 4637 L
 894 4441 mt  966 4441 L
 930 4405 mt  930 4477 L
 962 4615 mt 1034 4615 L
 998 4579 mt  998 4651 L
1041 4332 mt 1113 4332 L
1077 4296 mt 1077 4368 L
 868 4615 mt  940 4615 L
 904 4579 mt  904 4651 L
 922 4572 mt  994 4572 L
 958 4536 mt  958 4608 L
1124 4614 mt 1196 4614 L
1160 4578 mt 1160 4650 L
2234 3932 mt 2306 3932 L
2270 3896 mt 2270 3968 L
1904 3714 mt 1976 3714 L
1940 3678 mt 1940 3750 L
1032 4599 mt 1104 4599 L
1068 4563 mt 1068 4635 L
 893 4609 mt  965 4609 L
 929 4573 mt  929 4645 L
 971 4533 mt 1043 4533 L
1007 4497 mt 1007 4569 L
 891 4537 mt  963 4537 L
 927 4501 mt  927 4573 L
 918 4341 mt  990 4341 L
 954 4305 mt  954 4377 L
 928 4373 mt 1000 4373 L
 964 4337 mt  964 4409 L
 888 4571 mt  960 4571 L
 924 4535 mt  924 4607 L
1336 4612 mt 1408 4612 L
1372 4576 mt 1372 4648 L
1268 3819 mt 1340 3819 L
1304 3783 mt 1304 3855 L
1370 4486 mt 1442 4486 L
1406 4450 mt 1406 4522 L
 969 3192 mt 1041 3192 L
1005 3156 mt 1005 3228 L
 990 4616 mt 1062 4616 L
1026 4580 mt 1026 4652 L
 969 4413 mt 1041 4413 L
1005 4377 mt 1005 4449 L
1054 4615 mt 1126 4615 L
1090 4579 mt 1090 4651 L
3092 4358 mt 3164 4358 L
3128 4322 mt 3128 4394 L
 871 4615 mt  943 4615 L
 907 4579 mt  907 4651 L
3845 4615 mt 3917 4615 L
3881 4579 mt 3881 4651 L
 869 4578 mt  941 4578 L
 905 4542 mt  905 4614 L
 926 4401 mt  998 4401 L
 962 4365 mt  962 4437 L
 864 4594 mt  936 4594 L
 900 4558 mt  900 4630 L
1956 4603 mt 2028 4603 L
1992 4567 mt 1992 4639 L
2003 4238 mt 2075 4238 L
2039 4202 mt 2039 4274 L
2036 4507 mt 2108 4507 L
2072 4471 mt 2072 4543 L
 911 4348 mt  983 4348 L
 947 4312 mt  947 4384 L
 883 4466 mt  955 4466 L
 919 4430 mt  919 4502 L
 863 4522 mt  935 4522 L
 899 4486 mt  899 4558 L
1385 4313 mt 1457 4313 L
1421 4277 mt 1421 4349 L
 863 4205 mt  935 4205 L
 899 4169 mt  899 4241 L
1228 4427 mt 1300 4427 L
1264 4391 mt 1264 4463 L
1407 4578 mt 1479 4578 L
1443 4542 mt 1443 4614 L
 919 4596 mt  991 4596 L
 955 4560 mt  955 4632 L
1098 4610 mt 1170 4610 L
1134 4574 mt 1134 4646 L
 873 4417 mt  945 4417 L
 909 4381 mt  909 4453 L
 968 4615 mt 1040 4615 L
1004 4579 mt 1004 4651 L
1206 4538 mt 1278 4538 L
1242 4502 mt 1242 4574 L
1275 4256 mt 1347 4256 L
1311 4220 mt 1311 4292 L
 880 4393 mt  952 4393 L
 916 4357 mt  916 4429 L
1236 4419 mt 1308 4419 L
1272 4383 mt 1272 4455 L
1048 4558 mt 1120 4558 L
1084 4522 mt 1084 4594 L
 981 4517 mt 1053 4517 L
1017 4481 mt 1017 4553 L
 994 4068 mt 1066 4068 L
1030 4032 mt 1030 4104 L
 908 4152 mt  980 4152 L
 944 4116 mt  944 4188 L
1928 4615 mt 2000 4615 L
1964 4579 mt 1964 4651 L
6225 3074 mt 6297 3074 L
6261 3038 mt 6261 3110 L
1054 4290 mt 1126 4290 L
1090 4254 mt 1090 4326 L
 866 4524 mt  938 4524 L
 902 4488 mt  902 4560 L
 932 4355 mt 1004 4355 L
 968 4319 mt  968 4391 L
1014 4538 mt 1086 4538 L
1050 4502 mt 1050 4574 L
 972 4587 mt 1044 4587 L
1008 4551 mt 1008 4623 L
 865 4555 mt  937 4555 L
 901 4519 mt  901 4591 L
 949 4285 mt 1021 4285 L
 985 4249 mt  985 4321 L
1204 4297 mt 1276 4297 L
1240 4261 mt 1240 4333 L
 865 4527 mt  937 4527 L
 901 4491 mt  901 4563 L
1132 4590 mt 1204 4590 L
1168 4554 mt 1168 4626 L
 997 3924 mt 1069 3924 L
1033 3888 mt 1033 3960 L
1255 4205 mt 1327 4205 L
1291 4169 mt 1291 4241 L
1039 4582 mt 1111 4582 L
1075 4546 mt 1075 4618 L
 869 4600 mt  941 4600 L
 905 4564 mt  905 4636 L
1854 4525 mt 1926 4525 L
1890 4489 mt 1890 4561 L
1076 4342 mt 1148 4342 L
1112 4306 mt 1112 4378 L
 910 4553 mt  982 4553 L
 946 4517 mt  946 4589 L
1128 4603 mt 1200 4603 L
1164 4567 mt 1164 4639 L
 896 4565 mt  968 4565 L
 932 4529 mt  932 4601 L
 873 4580 mt  945 4580 L
 909 4544 mt  909 4616 L
 926 4446 mt  998 4446 L
 962 4410 mt  962 4482 L
 872 4613 mt  944 4613 L
 908 4577 mt  908 4649 L
 953 4505 mt 1025 4505 L
 989 4469 mt  989 4541 L
 984 4538 mt 1056 4538 L
1020 4502 mt 1020 4574 L
1065 4525 mt 1137 4525 L
1101 4489 mt 1101 4561 L
 880 3768 mt  952 3768 L
 916 3732 mt  916 3804 L
 960 4276 mt 1032 4276 L
 996 4240 mt  996 4312 L
 989 4581 mt 1061 4581 L
1025 4545 mt 1025 4617 L
 957 4612 mt 1029 4612 L
 993 4576 mt  993 4648 L
 880 4598 mt  952 4598 L
 916 4562 mt  916 4634 L
 869 4457 mt  941 4457 L
 905 4421 mt  905 4493 L
 869 4594 mt  941 4594 L
 905 4558 mt  905 4630 L
1016 4598 mt 1088 4598 L
1052 4562 mt 1052 4634 L
1067 4615 mt 1139 4615 L
1103 4579 mt 1103 4651 L
 880 4587 mt  952 4587 L
 916 4551 mt  916 4623 L
1180 4615 mt 1252 4615 L
1216 4579 mt 1216 4651 L
1026 4499 mt 1098 4499 L
1062 4463 mt 1062 4535 L
1332 4554 mt 1404 4554 L
1368 4518 mt 1368 4590 L
1150 4610 mt 1222 4610 L
1186 4574 mt 1186 4646 L
 898 4497 mt  970 4497 L
 934 4461 mt  934 4533 L
1124 4454 mt 1196 4454 L
1160 4418 mt 1160 4490 L
 892 4534 mt  964 4534 L
 928 4498 mt  928 4570 L
 922 4395 mt  994 4395 L
 958 4359 mt  958 4431 L
 918 4433 mt  990 4433 L
 954 4397 mt  954 4469 L
1044 4500 mt 1116 4500 L
1080 4464 mt 1080 4536 L
 941 4585 mt 1013 4585 L
 977 4549 mt  977 4621 L
 864 4615 mt  936 4615 L
 900 4579 mt  900 4651 L
 907 4577 mt  979 4577 L
 943 4541 mt  943 4613 L
 879 4598 mt  951 4598 L
 915 4562 mt  915 4634 L
 985 4596 mt 1057 4596 L
1021 4560 mt 1021 4632 L
 936 4597 mt 1008 4597 L
 972 4561 mt  972 4633 L
1004 4500 mt 1076 4500 L
1040 4464 mt 1040 4536 L
 959 4613 mt 1031 4613 L
 995 4577 mt  995 4649 L
 868 4615 mt  940 4615 L
 904 4579 mt  904 4651 L
 983 4375 mt 1055 4375 L
1019 4339 mt 1019 4411 L
 984 4596 mt 1056 4596 L
1020 4560 mt 1020 4632 L
 871 4611 mt  943 4611 L
 907 4575 mt  907 4647 L
 927 4599 mt  999 4599 L
 963 4563 mt  963 4635 L
 960 4603 mt 1032 4603 L
 996 4567 mt  996 4639 L
 888 4611 mt  960 4611 L
 924 4575 mt  924 4647 L
1111 4135 mt 1183 4135 L
1147 4099 mt 1147 4171 L
 901 4588 mt  973 4588 L
 937 4552 mt  937 4624 L
 892 4599 mt  964 4599 L
 928 4563 mt  928 4635 L
 970 4564 mt 1042 4564 L
1006 4528 mt 1006 4600 L
 863 4359 mt  935 4359 L
 899 4323 mt  899 4395 L
 873 4551 mt  945 4551 L
 909 4515 mt  909 4587 L
 914 4615 mt  986 4615 L
 950 4579 mt  950 4651 L
 872 4531 mt  944 4531 L
 908 4495 mt  908 4567 L
2157 4281 mt 2229 4281 L
2193 4245 mt 2193 4317 L
 865 4473 mt  937 4473 L
 901 4437 mt  901 4509 L
 878 4611 mt  950 4611 L
 914 4575 mt  914 4647 L
 924 4502 mt  996 4502 L
 960 4466 mt  960 4538 L
 922 4394 mt  994 4394 L
 958 4358 mt  958 4430 L
 868 4510 mt  940 4510 L
 904 4474 mt  904 4546 L
1595 3816 mt 1667 3816 L
1631 3780 mt 1631 3852 L
1015 4510 mt 1087 4510 L
1051 4474 mt 1051 4546 L
1080 4587 mt 1152 4587 L
1116 4551 mt 1116 4623 L
 863 4438 mt  935 4438 L
 899 4402 mt  899 4474 L
 871 4602 mt  943 4602 L
 907 4566 mt  907 4638 L
 979 4526 mt 1051 4526 L
1015 4490 mt 1015 4562 L
 864 4415 mt  936 4415 L
 900 4379 mt  900 4451 L
 863 4251 mt  935 4251 L
 899 4215 mt  899 4287 L
 883 4591 mt  955 4591 L
 919 4555 mt  919 4627 L
 863 4585 mt  935 4585 L
 899 4549 mt  899 4621 L
2032 4265 mt 2104 4265 L
2068 4229 mt 2068 4301 L
 893 4564 mt  965 4564 L
 929 4528 mt  929 4600 L
2585 4173 mt 2657 4173 L
2621 4137 mt 2621 4209 L
 989 4539 mt 1061 4539 L
1025 4503 mt 1025 4575 L
 877 4595 mt  949 4595 L
 913 4559 mt  913 4631 L
 906 4615 mt  978 4615 L
 942 4579 mt  942 4651 L
 863 4585 mt  935 4585 L
 899 4549 mt  899 4621 L
 955 4592 mt 1027 4592 L
 991 4556 mt  991 4628 L
1191 4010 mt 1263 4010 L
1227 3974 mt 1227 4046 L
 886 4598 mt  958 4598 L
 922 4562 mt  922 4634 L
1433 4545 mt 1505 4545 L
1469 4509 mt 1469 4581 L
 940 4615 mt 1012 4615 L
 976 4579 mt  976 4651 L
 932 2916 mt 1004 2916 L
 968 2880 mt  968 2952 L
 891 4389 mt  963 4389 L
 927 4353 mt  927 4425 L
1094 4615 mt 1166 4615 L
1130 4579 mt 1130 4651 L
 864 4532 mt  936 4532 L
 900 4496 mt  900 4568 L
 864 4321 mt  936 4321 L
 900 4285 mt  900 4357 L
 941 4602 mt 1013 4602 L
 977 4566 mt  977 4638 L
1146 4291 mt 1218 4291 L
1182 4255 mt 1182 4327 L
1004 4572 mt 1076 4572 L
1040 4536 mt 1040 4608 L
 986 4585 mt 1058 4585 L
1022 4549 mt 1022 4621 L
1008 4215 mt 1080 4215 L
1044 4179 mt 1044 4251 L
 906 4577 mt  978 4577 L
 942 4541 mt  942 4613 L
1048 4538 mt 1120 4538 L
1084 4502 mt 1084 4574 L
 873 4529 mt  945 4529 L
 909 4493 mt  909 4565 L
 886 4615 mt  958 4615 L
 922 4579 mt  922 4651 L
 863 4592 mt  935 4592 L
 899 4556 mt  899 4628 L
 863 4345 mt  935 4345 L
 899 4309 mt  899 4381 L
 863 4551 mt  935 4551 L
 899 4515 mt  899 4587 L
 863 4615 mt  935 4615 L
 899 4579 mt  899 4651 L
 867 4604 mt  939 4604 L
 903 4568 mt  903 4640 L
1159 4549 mt 1231 4549 L
1195 4513 mt 1195 4585 L
 864 4535 mt  936 4535 L
 900 4499 mt  900 4571 L
 877 4609 mt  949 4609 L
 913 4573 mt  913 4645 L
 869 4573 mt  941 4573 L
 905 4537 mt  905 4609 L
 893 4601 mt  965 4601 L
 929 4565 mt  929 4637 L
1171 4480 mt 1243 4480 L
1207 4444 mt 1207 4516 L
 942 4597 mt 1014 4597 L
 978 4561 mt  978 4633 L
2602 4615 mt 2674 4615 L
2638 4579 mt 2638 4651 L
 898 4496 mt  970 4496 L
 934 4460 mt  934 4532 L
 924 4552 mt  996 4552 L
 960 4516 mt  960 4588 L
 947 4570 mt 1019 4570 L
 983 4534 mt  983 4606 L
1181 4615 mt 1253 4615 L
1217 4579 mt 1217 4651 L
 889 4602 mt  961 4602 L
 925 4566 mt  925 4638 L
1615 4615 mt 1687 4615 L
1651 4579 mt 1651 4651 L
1041 4595 mt 1113 4595 L
1077 4559 mt 1077 4631 L
 942 4471 mt 1014 4471 L
 978 4435 mt  978 4507 L
1070 4582 mt 1142 4582 L
1106 4546 mt 1106 4618 L
1001 4317 mt 1073 4317 L
1037 4281 mt 1037 4353 L
 865 4615 mt  937 4615 L
 901 4579 mt  901 4651 L
 877 4604 mt  949 4604 L
 913 4568 mt  913 4640 L
 878 4504 mt  950 4504 L
 914 4468 mt  914 4540 L
 863 4452 mt  935 4452 L
 899 4416 mt  899 4488 L
1459 4443 mt 1531 4443 L
1495 4407 mt 1495 4479 L
 877 4440 mt  949 4440 L
 913 4404 mt  913 4476 L
1234 3972 mt 1306 3972 L
1270 3936 mt 1270 4008 L
 934 4491 mt 1006 4491 L
 970 4455 mt  970 4527 L
 863 4592 mt  935 4592 L
 899 4556 mt  899 4628 L
 912 4579 mt  984 4579 L
 948 4543 mt  948 4615 L
 916 4570 mt  988 4570 L
 952 4534 mt  952 4606 L
 951 4494 mt 1023 4494 L
 987 4458 mt  987 4530 L
 883 4475 mt  955 4475 L
 919 4439 mt  919 4511 L
 867 4175 mt  939 4175 L
 903 4139 mt  903 4211 L
 864 4615 mt  936 4615 L
 900 4579 mt  900 4651 L
 911 4504 mt  983 4504 L
 947 4468 mt  947 4540 L
 874 4220 mt  946 4220 L
 910 4184 mt  910 4256 L
1068 4612 mt 1140 4612 L
1104 4576 mt 1104 4648 L
1635 4615 mt 1707 4615 L
1671 4579 mt 1671 4651 L
 867 4379 mt  939 4379 L
 903 4343 mt  903 4415 L
 863 4518 mt  935 4518 L
 899 4482 mt  899 4554 L
 865 3912 mt  937 3912 L
 901 3876 mt  901 3948 L
1473 4274 mt 1545 4274 L
1509 4238 mt 1509 4310 L
 967 4409 mt 1039 4409 L
1003 4373 mt 1003 4445 L
 937 4567 mt 1009 4567 L
 973 4531 mt  973 4603 L
1116 4594 mt 1188 4594 L
1152 4558 mt 1152 4630 L
 880 4568 mt  952 4568 L
 916 4532 mt  916 4604 L
 999 4591 mt 1071 4591 L
1035 4555 mt 1035 4627 L
1034 4526 mt 1106 4526 L
1070 4490 mt 1070 4562 L
1124 4614 mt 1196 4614 L
1160 4578 mt 1160 4650 L
1459 4601 mt 1531 4601 L
1495 4565 mt 1495 4637 L
 868 4208 mt  940 4208 L
 904 4172 mt  904 4244 L
1001 4258 mt 1073 4258 L
1037 4222 mt 1037 4294 L
 872 3981 mt  944 3981 L
 908 3945 mt  908 4017 L
 885 4540 mt  957 4540 L
 921 4504 mt  921 4576 L
1377 3051 mt 1449 3051 L
1413 3015 mt 1413 3087 L
1030 4568 mt 1102 4568 L
1066 4532 mt 1066 4604 L
 863 4611 mt  935 4611 L
 899 4575 mt  899 4647 L
 880 4603 mt  952 4603 L
 916 4567 mt  916 4639 L
 926 4438 mt  998 4438 L
 962 4402 mt  962 4474 L
 901 4532 mt  973 4532 L
 937 4496 mt  937 4568 L
 878 4612 mt  950 4612 L
 914 4576 mt  914 4648 L
 887 4560 mt  959 4560 L
 923 4524 mt  923 4596 L
1079 4596 mt 1151 4596 L
1115 4560 mt 1115 4632 L
1015 4205 mt 1087 4205 L
1051 4169 mt 1051 4241 L
1271 4308 mt 1343 4308 L
1307 4272 mt 1307 4344 L
 869 4589 mt  941 4589 L
 905 4553 mt  905 4625 L
 913 4614 mt  985 4614 L
 949 4578 mt  949 4650 L
 905 4230 mt  977 4230 L
 941 4194 mt  941 4266 L
 875 4570 mt  947 4570 L
 911 4534 mt  911 4606 L
 873 4579 mt  945 4579 L
 909 4543 mt  909 4615 L
 903 4612 mt  975 4612 L
 939 4576 mt  939 4648 L
 891 4438 mt  963 4438 L
 927 4402 mt  927 4474 L
 867 4615 mt  939 4615 L
 903 4579 mt  903 4651 L
 908 4524 mt  980 4524 L
 944 4488 mt  944 4560 L
 863 4519 mt  935 4519 L
 899 4483 mt  899 4555 L
 869 4613 mt  941 4613 L
 905 4577 mt  905 4649 L
 886 4610 mt  958 4610 L
 922 4574 mt  922 4646 L
 868 3470 mt  940 3470 L
 904 3434 mt  904 3506 L
 946 4530 mt 1018 4530 L
 982 4494 mt  982 4566 L
 904 4598 mt  976 4598 L
 940 4562 mt  940 4634 L
 939 4614 mt 1011 4614 L
 975 4578 mt  975 4650 L
 876 4492 mt  948 4492 L
 912 4456 mt  912 4528 L
 883 4615 mt  955 4615 L
 919 4579 mt  919 4651 L
 865 4473 mt  937 4473 L
 901 4437 mt  901 4509 L
2360 4552 mt 2432 4552 L
2396 4516 mt 2396 4588 L
3633 4327 mt 3705 4327 L
3669 4291 mt 3669 4363 L
 969 4450 mt 1041 4450 L
1005 4414 mt 1005 4486 L
1433 4535 mt 1505 4535 L
1469 4499 mt 1469 4571 L
 920 4604 mt  992 4604 L
 956 4568 mt  956 4640 L
 953 4574 mt 1025 4574 L
 989 4538 mt  989 4610 L
1953 4539 mt 2025 4539 L
1989 4503 mt 1989 4575 L
1070 4614 mt 1142 4614 L
1106 4578 mt 1106 4650 L
 963 4568 mt 1035 4568 L
 999 4532 mt  999 4604 L
 993 4575 mt 1065 4575 L
1029 4539 mt 1029 4611 L
 875 4299 mt  947 4299 L
 911 4263 mt  911 4335 L
 867 4492 mt  939 4492 L
 903 4456 mt  903 4528 L
1063 4531 mt 1135 4531 L
1099 4495 mt 1099 4567 L
1093 4261 mt 1165 4261 L
1129 4225 mt 1129 4297 L
1191 4597 mt 1263 4597 L
1227 4561 mt 1227 4633 L
 864 4609 mt  936 4609 L
 900 4573 mt  900 4645 L
 893 4615 mt  965 4615 L
 929 4579 mt  929 4651 L
1027 4130 mt 1099 4130 L
1063 4094 mt 1063 4166 L
gs 899 414 5363 4203 rc
gr

0 sg
2826 5104 mt 
(\(F,DCTs,MLP\)) s
 422 3273 mt  -90 rotate
(\(F,DCTb,MLP\)) s
90 rotate
2975  223 mt 
(Corr = 0.14) s

end %%Color Dict

eplot
%%EndObject

epage
end

showpage

%%Trailer
%%EOF
