%!PS-Adobe-3.0 EPSF-3.0
%%Creator: MATLAB, The Mathworks, Inc. Version 7.7.0.471 (R2008b). Operating System: Microsoft Windows XP.
%%Title: Pictures\main_zoo_mvar_analysis_data_BMI_xcorr_bmig_p2_k2_1_3.eps
%%CreationDate: 10/26/2009  05:45:41
%%DocumentNeededFonts: Helvetica
%%DocumentProcessColors: Cyan Magenta Yellow Black
%%LanguageLevel: 2
%%Pages: 1
%%BoundingBox:    37   180   549   616
%%EndComments

%%BeginProlog
% MathWorks dictionary
/MathWorks 160 dict begin
% definition operators
/bdef {bind def} bind def
/ldef {load def} bind def
/xdef {exch def} bdef
/xstore {exch store} bdef
% operator abbreviations
/c  /clip ldef
/cc /concat ldef
/cp /closepath ldef
/gr /grestore ldef
/gs /gsave ldef
/mt /moveto ldef
/np /newpath ldef
/cm /currentmatrix ldef
/sm /setmatrix ldef
/rm /rmoveto ldef
/rl /rlineto ldef
/s {show newpath} bdef
/sc {setcmykcolor} bdef
/sr /setrgbcolor ldef
/sg /setgray ldef
/w /setlinewidth ldef
/j /setlinejoin ldef
/cap /setlinecap ldef
/rc {rectclip} bdef
/rf {rectfill} bdef
% page state control
/pgsv () def
/bpage {/pgsv save def} bdef
/epage {pgsv restore} bdef
/bplot /gsave ldef
/eplot {stroke grestore} bdef
% orientation switch
/portraitMode 0 def /landscapeMode 1 def /rotateMode 2 def
% coordinate system mappings
/dpi2point 0 def
% font control
/FontSize 0 def
/FMS {/FontSize xstore findfont [FontSize 0 0 FontSize neg 0 0]
  makefont setfont} bdef
/ISOLatin1Encoding where {pop /WindowsLatin1Encoding 256 array bdef
ISOLatin1Encoding WindowsLatin1Encoding copy pop
/.notdef/.notdef/quotesinglbase/florin/quotedblbase/ellipsis/dagger
/daggerdbl/circumflex/perthousand/Scaron/guilsinglleft/OE/.notdef/.notdef
/.notdef/.notdef/quoteleft/quoteright/quotedblleft/quotedblright/bullet
/endash/emdash/tilde/trademark/scaron/guilsinglright/oe/.notdef/.notdef
/Ydieresis WindowsLatin1Encoding 128 32 getinterval astore pop}
{/WindowsLatin1Encoding StandardEncoding bdef} ifelse
/reencode {exch dup where {pop load} {pop StandardEncoding} ifelse
  exch dup 3 1 roll findfont dup length dict begin
  { 1 index /FID ne {def}{pop pop} ifelse } forall
  /Encoding exch def currentdict end definefont pop} bdef
/isroman {findfont /CharStrings get /Agrave known} bdef
/FMSR {3 1 roll 1 index dup isroman {reencode} {pop pop} ifelse
  exch FMS} bdef
/csm {1 dpi2point div -1 dpi2point div scale neg translate
 dup landscapeMode eq {pop -90 rotate}
  {rotateMode eq {90 rotate} if} ifelse} bdef
% line types: solid, dotted, dashed, dotdash
/SO { [] 0 setdash } bdef
/DO { [.5 dpi2point mul 4 dpi2point mul] 0 setdash } bdef
/DA { [6 dpi2point mul] 0 setdash } bdef
/DD { [.5 dpi2point mul 4 dpi2point mul 6 dpi2point mul 4
  dpi2point mul] 0 setdash } bdef
% macros for lines and objects
/L {lineto stroke} bdef
/MP {3 1 roll moveto 1 sub {rlineto} repeat} bdef
/AP {{rlineto} repeat} bdef
/PDlw -1 def
/W {/PDlw currentlinewidth def setlinewidth} def
/PP {closepath eofill} bdef
/DP {closepath stroke} bdef
/MR {4 -2 roll moveto dup  0 exch rlineto exch 0 rlineto
  neg 0 exch rlineto closepath} bdef
/FR {MR stroke} bdef
/PR {MR fill} bdef
/L1i {{currentfile picstr readhexstring pop} image} bdef
/tMatrix matrix def
/MakeOval {newpath tMatrix currentmatrix pop translate scale
0 0 1 0 360 arc tMatrix setmatrix} bdef
/FO {MakeOval stroke} bdef
/PO {MakeOval fill} bdef
/PD {currentlinewidth 2 div 0 360 arc fill
   PDlw -1 eq not {PDlw w /PDlw -1 def} if} def
/FA {newpath tMatrix currentmatrix pop translate scale
  0 0 1 5 -2 roll arc tMatrix setmatrix stroke} bdef
/PA {newpath tMatrix currentmatrix pop	translate 0 0 moveto scale
  0 0 1 5 -2 roll arc closepath tMatrix setmatrix fill} bdef
/FAn {newpath tMatrix currentmatrix pop translate scale
  0 0 1 5 -2 roll arcn tMatrix setmatrix stroke} bdef
/PAn {newpath tMatrix currentmatrix pop translate 0 0 moveto scale
  0 0 1 5 -2 roll arcn closepath tMatrix setmatrix fill} bdef
/vradius 0 def /hradius 0 def /lry 0 def
/lrx 0 def /uly 0 def /ulx 0 def /rad 0 def
/MRR {/vradius xdef /hradius xdef /lry xdef /lrx xdef /uly xdef
  /ulx xdef newpath tMatrix currentmatrix pop ulx hradius add uly
  vradius add translate hradius vradius scale 0 0 1 180 270 arc 
  tMatrix setmatrix lrx hradius sub uly vradius add translate
  hradius vradius scale 0 0 1 270 360 arc tMatrix setmatrix
  lrx hradius sub lry vradius sub translate hradius vradius scale
  0 0 1 0 90 arc tMatrix setmatrix ulx hradius add lry vradius sub
  translate hradius vradius scale 0 0 1 90 180 arc tMatrix setmatrix
  closepath} bdef
/FRR {MRR stroke } bdef
/PRR {MRR fill } bdef
/MlrRR {/lry xdef /lrx xdef /uly xdef /ulx xdef /rad lry uly sub 2 div def
  newpath tMatrix currentmatrix pop ulx rad add uly rad add translate
  rad rad scale 0 0 1 90 270 arc tMatrix setmatrix lrx rad sub lry rad
  sub translate rad rad scale 0 0 1 270 90 arc tMatrix setmatrix
  closepath} bdef
/FlrRR {MlrRR stroke } bdef
/PlrRR {MlrRR fill } bdef
/MtbRR {/lry xdef /lrx xdef /uly xdef /ulx xdef /rad lrx ulx sub 2 div def
  newpath tMatrix currentmatrix pop ulx rad add uly rad add translate
  rad rad scale 0 0 1 180 360 arc tMatrix setmatrix lrx rad sub lry rad
  sub translate rad rad scale 0 0 1 0 180 arc tMatrix setmatrix
  closepath} bdef
/FtbRR {MtbRR stroke } bdef
/PtbRR {MtbRR fill } bdef
/stri 6 array def /dtri 6 array def
/smat 6 array def /dmat 6 array def
/tmat1 6 array def /tmat2 6 array def /dif 3 array def
/asub {/ind2 exch def /ind1 exch def dup dup
  ind1 get exch ind2 get sub exch } bdef
/tri_to_matrix {
  2 0 asub 3 1 asub 4 0 asub 5 1 asub
  dup 0 get exch 1 get 7 -1 roll astore } bdef
/compute_transform {
  dmat dtri tri_to_matrix tmat1 invertmatrix 
  smat stri tri_to_matrix tmat2 concatmatrix } bdef
/ds {stri astore pop} bdef
/dt {dtri astore pop} bdef
/db {2 copy /cols xdef /rows xdef mul dup 3 mul string
  currentfile 
  3 index 0 eq {/ASCIIHexDecode filter}
  {/ASCII85Decode filter 3 index 2 eq {/RunLengthDecode filter} if }
  ifelse exch readstring pop
  dup 0 3 index getinterval /rbmap xdef
  dup 2 index dup getinterval /gbmap xdef
  1 index dup 2 mul exch getinterval /bbmap xdef pop pop}bdef
/it {gs np dtri aload pop moveto lineto lineto cp c
  cols rows 8 compute_transform 
  rbmap gbmap bbmap true 3 colorimage gr}bdef
/il {newpath moveto lineto stroke}bdef
currentdict end def
%%EndProlog

%%BeginSetup
MathWorks begin

0 cap

end
%%EndSetup

%%Page: 1 1
%%BeginPageSetup
%%PageBoundingBox:    37   180   549   616
MathWorks begin
bpage
%%EndPageSetup

%%BeginObject: obj1
bplot

/dpi2point 12 def
portraitMode 0216 7344 csm

  234   -48  6149  5231 rc
85 dict begin %Colortable dictionary
/c0 { 0.000000 0.000000 0.000000 sr} bdef
/c1 { 1.000000 1.000000 1.000000 sr} bdef
/c2 { 0.900000 0.000000 0.000000 sr} bdef
/c3 { 0.000000 0.820000 0.000000 sr} bdef
/c4 { 0.000000 0.000000 0.800000 sr} bdef
/c5 { 0.910000 0.820000 0.320000 sr} bdef
/c6 { 1.000000 0.260000 0.820000 sr} bdef
/c7 { 0.000000 0.820000 0.820000 sr} bdef
c0
1 j
1 sg
   0    0 6919 5187 rf
6 w
0 4202 5362 0 0 -4202 899 4616 4 MP
PP
-5362 0 0 4202 5362 0 0 -4202 899 4616 5 MP stroke
4 w
DO
SO
6 w
0 sg
 899  414 mt 6261  414 L
 899 4616 mt 6261 4616 L
6261 4616 mt 6261  414 L
 899 4616 mt  899  414 L
 899 4616 mt 6261 4616 L
 899 4616 mt  899  414 L
 919 4616 mt  919 4562 L
 919  414 mt  919  467 L
%%IncludeResource: font Helvetica
/Helvetica /WindowsLatin1Encoding 240 FMSR

 713 4873 mt 
(-3) s
1806 4616 mt 1806 4562 L
1806  414 mt 1806  467 L
1600 4873 mt 
(-2) s
2693 4616 mt 2693 4562 L
2693  414 mt 2693  467 L
2487 4873 mt 
(-1) s
3580 4616 mt 3580 4562 L
3580  414 mt 3580  467 L
3514 4873 mt 
(0) s
4466 4616 mt 4466 4562 L
4466  414 mt 4466  467 L
4400 4873 mt 
(1) s
5353 4616 mt 5353 4562 L
5353  414 mt 5353  467 L
5287 4873 mt 
(2) s
6240 4616 mt 6240 4562 L
6240  414 mt 6240  467 L
6174 4873 mt 
(3) s
 899 4599 mt  952 4599 L
6261 4599 mt 6207 4599 L
 591 4688 mt 
(-3) s
 899 3904 mt  952 3904 L
6261 3904 mt 6207 3904 L
 591 3993 mt 
(-2) s
 899 3209 mt  952 3209 L
6261 3209 mt 6207 3209 L
 591 3298 mt 
(-1) s
 899 2514 mt  952 2514 L
6261 2514 mt 6207 2514 L
 731 2603 mt 
(0) s
 899 1820 mt  952 1820 L
6261 1820 mt 6207 1820 L
 731 1909 mt 
(1) s
 899 1125 mt  952 1125 L
6261 1125 mt 6207 1125 L
 731 1214 mt 
(2) s
 899  430 mt  952  430 L
6261  430 mt 6207  430 L
 731  519 mt 
(3) s
 899  414 mt 6261  414 L
 899 4616 mt 6261 4616 L
6261 4616 mt 6261  414 L
 899 4616 mt  899  414 L
gs 899 414 5363 4203 rc
gr

/c8 { 0.000000 0.000000 1.000000 sr} bdef
c8
3610 1255 mt 3682 1255 L
3646 1219 mt 3646 1291 L
2993 1764 mt 3065 1764 L
3029 1728 mt 3029 1800 L
3762 3415 mt 3834 3415 L
3798 3379 mt 3798 3451 L
4322 1006 mt 4394 1006 L
4358  970 mt 4358 1042 L
3085 1772 mt 3157 1772 L
3121 1736 mt 3121 1808 L
1991 2736 mt 2063 2736 L
2027 2700 mt 2027 2772 L
3404 1087 mt 3476 1087 L
3440 1051 mt 3440 1123 L
3797 2423 mt 3869 2423 L
3833 2387 mt 3833 2459 L
2420 2247 mt 2492 2247 L
2456 2211 mt 2456 2283 L
3717 3527 mt 3789 3527 L
3753 3491 mt 3753 3563 L
2723 2083 mt 2795 2083 L
2759 2047 mt 2759 2119 L
3649 1388 mt 3721 1388 L
3685 1352 mt 3685 1424 L
4444 3358 mt 4516 3358 L
4480 3322 mt 4480 3394 L
2634  957 mt 2706  957 L
2670  921 mt 2670  993 L
4886 2484 mt 4958 2484 L
4922 2448 mt 4922 2520 L
3147 2782 mt 3219 2782 L
3183 2746 mt 3183 2818 L
2146 1318 mt 2218 1318 L
2182 1282 mt 2182 1354 L
4191 2185 mt 4263 2185 L
4227 2149 mt 4227 2221 L
4805 3118 mt 4877 3118 L
4841 3082 mt 4841 3154 L
3555 2062 mt 3627 2062 L
3591 2026 mt 3591 2098 L
3633 2646 mt 3705 2646 L
3669 2610 mt 3669 2682 L
1481 1984 mt 1553 1984 L
1517 1948 mt 1517 2020 L
5150 2307 mt 5222 2307 L
5186 2271 mt 5186 2343 L
2575 2410 mt 2647 2410 L
2611 2374 mt 2611 2446 L
3313 2792 mt 3385 2792 L
3349 2756 mt 3349 2828 L
3129 2664 mt 3201 2664 L
3165 2628 mt 3165 2700 L
2959 3822 mt 3031 3822 L
2995 3786 mt 2995 3858 L
3952 3164 mt 4024 3164 L
3988 3128 mt 3988 3200 L
4114 1960 mt 4186 1960 L
4150 1924 mt 4150 1996 L
4170 2209 mt 4242 2209 L
4206 2173 mt 4206 2245 L
3820 1550 mt 3892 1550 L
3856 1514 mt 3856 1586 L
4655 2558 mt 4727 2558 L
4691 2522 mt 4691 2594 L
3208 3289 mt 3280 3289 L
3244 3253 mt 3244 3325 L
4381 4023 mt 4453 4023 L
4417 3987 mt 4417 4059 L
3728 1371 mt 3800 1371 L
3764 1335 mt 3764 1407 L
4416 3711 mt 4488 3711 L
4452 3675 mt 4452 3747 L
4177 2293 mt 4249 2293 L
4213 2257 mt 4213 2329 L
1907 1715 mt 1979 1715 L
1943 1679 mt 1943 1751 L
4355 2840 mt 4427 2840 L
4391 2804 mt 4391 2876 L
3046 1794 mt 3118 1794 L
3082 1758 mt 3082 1830 L
2595 3553 mt 2667 3553 L
2631 3517 mt 2631 3589 L
3477 1680 mt 3549 1680 L
3513 1644 mt 3513 1716 L
4732 3028 mt 4804 3028 L
4768 2992 mt 4768 3064 L
2282 2140 mt 2354 2140 L
2318 2104 mt 2318 2176 L
4347 2731 mt 4419 2731 L
4383 2695 mt 4383 2767 L
4282 3081 mt 4354 3081 L
4318 3045 mt 4318 3117 L
2444 2338 mt 2516 2338 L
2480 2302 mt 2480 2374 L
3342 2962 mt 3414 2962 L
3378 2926 mt 3378 2998 L
3261 3848 mt 3333 3848 L
3297 3812 mt 3297 3884 L
3655 2764 mt 3727 2764 L
3691 2728 mt 3691 2800 L
3319 1872 mt 3391 1872 L
3355 1836 mt 3355 1908 L
3677 1858 mt 3749 1858 L
3713 1822 mt 3713 1894 L
3532 1756 mt 3604 1756 L
3568 1720 mt 3568 1792 L
2534 3376 mt 2606 3376 L
2570 3340 mt 2570 3412 L
3757 2175 mt 3829 2175 L
3793 2139 mt 3793 2211 L
3393 3386 mt 3465 3386 L
3429 3350 mt 3429 3422 L
2016 2251 mt 2088 2251 L
2052 2215 mt 2052 2287 L
3330 2864 mt 3402 2864 L
3366 2828 mt 3366 2900 L
2126 2501 mt 2198 2501 L
2162 2465 mt 2162 2537 L
3921 3306 mt 3993 3306 L
3957 3270 mt 3957 3342 L
5321 3503 mt 5393 3503 L
5357 3467 mt 5357 3539 L
3638 2830 mt 3710 2830 L
3674 2794 mt 3674 2866 L
4719 2580 mt 4791 2580 L
4755 2544 mt 4755 2616 L
3785 3011 mt 3857 3011 L
3821 2975 mt 3821 3047 L
2917 1298 mt 2989 1298 L
2953 1262 mt 2953 1334 L
3302 2641 mt 3374 2641 L
3338 2605 mt 3338 2677 L
4693 2029 mt 4765 2029 L
4729 1993 mt 4729 2065 L
4981 2401 mt 5053 2401 L
5017 2365 mt 5017 2437 L
3745 2356 mt 3817 2356 L
3781 2320 mt 3781 2392 L
3098 2467 mt 3170 2467 L
3134 2431 mt 3134 2503 L
1876 2270 mt 1948 2270 L
1912 2234 mt 1912 2306 L
3190 3675 mt 3262 3675 L
3226 3639 mt 3226 3711 L
2828 3063 mt 2900 3063 L
2864 3027 mt 2864 3099 L
3443 2815 mt 3515 2815 L
3479 2779 mt 3479 2851 L
2662 2194 mt 2734 2194 L
2698 2158 mt 2698 2230 L
3284 2453 mt 3356 2453 L
3320 2417 mt 3320 2489 L
4228 3908 mt 4300 3908 L
4264 3872 mt 4264 3944 L
3398 3137 mt 3470 3137 L
3434 3101 mt 3434 3173 L
4820 1698 mt 4892 1698 L
4856 1662 mt 4856 1734 L
3927 2700 mt 3999 2700 L
3963 2664 mt 3963 2736 L
3706 2624 mt 3778 2624 L
3742 2588 mt 3742 2660 L
2267 2778 mt 2339 2778 L
2303 2742 mt 2303 2814 L
3661 2951 mt 3733 2951 L
3697 2915 mt 3697 2987 L
3166 2189 mt 3238 2189 L
3202 2153 mt 3202 2225 L
3946 2497 mt 4018 2497 L
3982 2461 mt 3982 2533 L
4060 2057 mt 4132 2057 L
4096 2021 mt 4096 2093 L
5211  824 mt 5283  824 L
5247  788 mt 5247  860 L
3666 2606 mt 3738 2606 L
3702 2570 mt 3702 2642 L
4553 2204 mt 4625 2204 L
4589 2168 mt 4589 2240 L
2931 1748 mt 3003 1748 L
2967 1712 mt 2967 1784 L
3850 1779 mt 3922 1779 L
3886 1743 mt 3886 1815 L
5700 2519 mt 5772 2519 L
5736 2483 mt 5736 2555 L
3027 1898 mt 3099 1898 L
3063 1862 mt 3063 1934 L
2165 3034 mt 2237 3034 L
2201 2998 mt 2201 3070 L
1937 2650 mt 2009 2650 L
1973 2614 mt 1973 2686 L
2298 2659 mt 2370 2659 L
2334 2623 mt 2334 2695 L
1387 2532 mt 1459 2532 L
1423 2496 mt 1423 2568 L
5531 1845 mt 5603 1845 L
5567 1809 mt 5567 1881 L
1842 1232 mt 1914 1232 L
1878 1196 mt 1878 1268 L
2680 3106 mt 2752 3106 L
2716 3070 mt 2716 3142 L
3627 2940 mt 3699 2940 L
3663 2904 mt 3663 2976 L
3325 2673 mt 3397 2673 L
3361 2637 mt 3361 2709 L
3104 3446 mt 3176 3446 L
3140 3410 mt 3140 3482 L
3466 3184 mt 3538 3184 L
3502 3148 mt 3502 3220 L
2765 2874 mt 2837 2874 L
2801 2838 mt 2801 2910 L
4643 1643 mt 4715 1643 L
4679 1607 mt 4679 1679 L
4922 1462 mt 4994 1462 L
4958 1426 mt 4958 1498 L
3885 2593 mt 3957 2593 L
3921 2557 mt 3921 2629 L
2924 1978 mt 2996 1978 L
2960 1942 mt 2960 2014 L
4869 1152 mt 4941 1152 L
4905 1116 mt 4905 1188 L
3791 1851 mt 3863 1851 L
3827 1815 mt 3827 1887 L
3178 2825 mt 3250 2825 L
3214 2789 mt 3214 2861 L
2715 1448 mt 2787 1448 L
2751 1412 mt 2751 1484 L
3571 2012 mt 3643 2012 L
3607 1976 mt 3607 2048 L
3135 2859 mt 3207 2859 L
3171 2823 mt 3171 2895 L
3110 1923 mt 3182 1923 L
3146 1887 mt 3146 1959 L
3290 1917 mt 3362 1917 L
3326 1881 mt 3326 1953 L
2697 2361 mt 2769 2361 L
2733 2325 mt 2733 2397 L
2394 1948 mt 2466 1948 L
2430 1912 mt 2430 1984 L
4789 1336 mt 4861 1336 L
4825 1300 mt 4825 1372 L
3873 2436 mt 3945 2436 L
3909 2400 mt 3909 2472 L
2235 3877 mt 2307 3877 L
2271 3841 mt 2271 3913 L
2523 1930 mt 2595 1930 L
2559 1894 mt 2559 1966 L
4492 3227 mt 4564 3227 L
4528 3191 mt 4528 3263 L
2490 2396 mt 2562 2396 L
2526 2360 mt 2526 2432 L
2980 1538 mt 3052 1538 L
3016 1502 mt 3016 1574 L
4290 2682 mt 4362 2682 L
4326 2646 mt 4326 2718 L
3516 1831 mt 3588 1831 L
3552 1795 mt 3552 1867 L
1805 3457 mt 1877 3457 L
1841 3421 mt 1841 3493 L
3493 3131 mt 3565 3131 L
3529 3095 mt 3529 3167 L
2555 1207 mt 2627 1207 L
2591 1171 mt 2591 1243 L
4852 1561 mt 4924 1561 L
4888 1525 mt 4888 1597 L
3594 2089 mt 3666 2089 L
3630 2053 mt 3630 2125 L
4002 1049 mt 4074 1049 L
4038 1013 mt 4038 1085 L
3582 3641 mt 3654 3641 L
3618 3605 mt 3618 3677 L
5180 3980 mt 5252 3980 L
5216 3944 mt 5216 4016 L
3296 2383 mt 3368 2383 L
3332 2347 mt 3332 2419 L
3964 2493 mt 4036 2493 L
4000 2457 mt 4000 2529 L
3510 3257 mt 3582 3257 L
3546 3221 mt 3546 3293 L
3803 2914 mt 3875 2914 L
3839 2878 mt 3839 2950 L
3909 2668 mt 3981 2668 L
3945 2632 mt 3945 2704 L
4009 2989 mt 4081 2989 L
4045 2953 mt 4045 3025 L
3605 3658 mt 3677 3658 L
3641 3622 mt 3641 3694 L
 863 3144 mt  935 3144 L
 899 3108 mt  899 3180 L
3588 2796 mt 3660 2796 L
3624 2760 mt 3624 2832 L
3861 2414 mt 3933 2414 L
3897 2378 mt 3897 2450 L
2706 2214 mt 2778 2214 L
2742 2178 mt 2742 2250 L
3544 2329 mt 3616 2329 L
3580 2293 mt 3580 2365 L
3983 3297 mt 4055 3297 L
4019 3261 mt 4019 3333 L
3040 3198 mt 3112 3198 L
3076 3162 mt 3076 3234 L
4597 2135 mt 4669 2135 L
4633 2099 mt 4633 2171 L
4243 2242 mt 4315 2242 L
4279 2206 mt 4279 2278 L
2910 2343 mt 2982 2343 L
2946 2307 mt 2946 2379 L
5606 2768 mt 5678 2768 L
5642 2732 mt 5642 2804 L
1259 2536 mt 1331 2536 L
1295 2500 mt 1295 2572 L
4435 1816 mt 4507 1816 L
4471 1780 mt 4471 1852 L
4274 2925 mt 4346 2925 L
4310 2889 mt 4310 2961 L
2781 1662 mt 2853 1662 L
2817 1626 mt 2817 1698 L
4149 2462 mt 4221 2462 L
4185 2426 mt 4185 2498 L
2740 1624 mt 2812 1624 L
2776 1588 mt 2776 1660 L
4760 3340 mt 4832 3340 L
4796 3304 mt 4796 3376 L
3488 2104 mt 3560 2104 L
3524 2068 mt 3524 2140 L
3053 2316 mt 3125 2316 L
3089 2280 mt 3089 2352 L
4407 2150 mt 4479 2150 L
4443 2114 mt 4443 2186 L
4338 1583 mt 4410 1583 L
4374 1547 mt 4374 1619 L
3066 3273 mt 3138 3273 L
3102 3237 mt 3102 3309 L
4522 2374 mt 4594 2374 L
4558 2338 mt 4558 2410 L
3711 2935 mt 3783 2935 L
3747 2899 mt 3747 2971 L
2987 3468 mt 3059 3468 L
3023 3432 mt 3023 3504 L
3226 2218 mt 3298 2218 L
3262 2182 mt 3262 2254 L
3449 1740 mt 3521 1740 L
3485 1704 mt 3485 1776 L
4512 2320 mt 4584 2320 L
4548 2284 mt 4548 2356 L
3376 2347 mt 3448 2347 L
3412 2311 mt 3412 2383 L
4041 1723 mt 4113 1723 L
4077 1687 mt 4077 1759 L
3202 1995 mt 3274 1995 L
3238 1959 mt 3238 2031 L
3007 1707 mt 3079 1707 L
3043 1671 mt 3043 1743 L
3838 2440 mt 3910 2440 L
3874 2404 mt 3874 2476 L
3940 1954 mt 4012 1954 L
3976 1918 mt 3976 1990 L
3694 2545 mt 3766 2545 L
3730 2509 mt 3730 2581 L
4121 2067 mt 4193 2067 L
4157 2031 mt 4157 2103 L
1674 2920 mt 1746 2920 L
1710 2884 mt 1710 2956 L
4206 1526 mt 4278 1526 L
4242 1490 mt 4242 1562 L
4034 2722 mt 4106 2722 L
4070 2686 mt 4070 2758 L
3267 2510 mt 3339 2510 L
3303 2474 mt 3303 2546 L
4746 1277 mt 4818 1277 L
4782 1241 mt 4782 1313 L
3336 3331 mt 3408 3331 L
3372 3295 mt 3372 3367 L
5282 1614 mt 5354 1614 L
5318 1578 mt 5318 1650 L
3977 3774 mt 4049 3774 L
4013 3738 mt 4013 3810 L
4463 3250 mt 4535 3250 L
4499 3214 mt 4499 3286 L
5828 1354 mt 5900 1354 L
5864 1318 mt 5864 1390 L
2859 4072 mt 2931 4072 L
2895 4036 mt 2895 4108 L
4199 3051 mt 4271 3051 L
4235 3015 mt 4235 3087 L
5096 2994 mt 5168 2994 L
5132 2958 mt 5132 3030 L
2888 2835 mt 2960 2835 L
2924 2799 mt 2924 2871 L
4221 2379 mt 4293 2379 L
4257 2343 mt 4257 2415 L
3421 2180 mt 3493 2180 L
3457 2144 mt 3457 2216 L
2973 2844 mt 3045 2844 L
3009 2808 mt 3009 2880 L
4047 2576 mt 4119 2576 L
4083 2540 mt 4083 2612 L
2615 2523 mt 2687 2523 L
2651 2487 mt 2651 2559 L
4364 1838 mt 4436 1838 L
4400 1802 mt 4400 1874 L
2866 1689 mt 2938 1689 L
2902 1653 mt 2902 1725 L
5047 2256 mt 5119 2256 L
5083 2220 mt 5083 2292 L
2468 3235 mt 2540 3235 L
2504 3199 mt 2504 3271 L
3734 3017 mt 3806 3017 L
3770 2981 mt 3770 3053 L
3700 1489 mt 3772 1489 L
3736 1453 mt 3736 1525 L
3958 2956 mt 4030 2956 L
3994 2920 mt 3994 2992 L
4087 2388 mt 4159 2388 L
4123 2352 mt 4123 2424 L
3237 2869 mt 3309 2869 L
3273 2833 mt 3273 2905 L
3560 1904 mt 3632 1904 L
3596 1868 mt 3596 1940 L
5245 3625 mt 5317 3625 L
5281 3589 mt 5281 3661 L
2813 2475 mt 2885 2475 L
2849 2439 mt 2849 2511 L
4074 2035 mt 4146 2035 L
4110 1999 mt 4110 2071 L
4236 2930 mt 4308 2930 L
4272 2894 mt 4272 2966 L
2749 3093 mt 2821 3093 L
2785 3057 mt 2785 3129 L
3891 2854 mt 3963 2854 L
3927 2818 mt 3927 2890 L
4251 2155 mt 4323 2155 L
4287 2119 mt 4287 2191 L
5024 2589 mt 5096 2589 L
5060 2553 mt 5060 2625 L
3214 1787 mt 3286 1787 L
3250 1751 mt 3250 1823 L
3059 3151 mt 3131 3151 L
3095 3115 mt 3095 3187 L
3566 2302 mt 3638 2302 L
3602 2266 mt 3602 2338 L
4213 3039 mt 4285 3039 L
4249 3003 mt 4249 3075 L
2218 2611 mt 2290 2611 L
2254 2575 mt 2254 2647 L
2513 3087 mt 2585 3087 L
2549 3051 mt 2549 3123 L
2757 3213 mt 2829 3213 L
2793 3177 mt 2793 3249 L
3832 1653 mt 3904 1653 L
3868 1617 mt 3868 1689 L
3141 2884 mt 3213 2884 L
3177 2848 mt 3177 2920 L
3996  724 mt 4068  724 L
4032  688 mt 4032  760 L
3616 2130 mt 3688 2130 L
3652 2094 mt 3652 2166 L
2565 2365 mt 2637 2365 L
2601 2329 mt 2601 2401 L
3347 2562 mt 3419 2562 L
3383 2526 mt 3383 2598 L
4156 2754 mt 4228 2754 L
4192 2718 mt 4192 2790 L
4775 3540 mt 4847 3540 L
4811 3504 mt 4811 3576 L
2183 2298 mt 2255 2298 L
2219 2262 mt 2219 2334 L
4941 3314 mt 5013 3314 L
4977 3278 mt 4977 3350 L
2874 2288 mt 2946 2288 L
2910 2252 mt 2910 2324 L
3809 3405 mt 3881 3405 L
3845 3369 mt 3845 3441 L
1766 2279 mt 1838 2279 L
1802 2243 mt 1802 2315 L
2805 1434 mt 2877 1434 L
2841 1398 mt 2841 1470 L
2407 1990 mt 2479 1990 L
2443 1954 mt 2443 2026 L
2251  564 mt 2323  564 L
2287  528 mt 2287  600 L
3381 2554 mt 3453 2554 L
3417 2518 mt 3417 2590 L
3672 2904 mt 3744 2904 L
3708 2868 mt 3708 2940 L
3521 1972 mt 3593 1972 L
3557 1936 mt 3557 2008 L
4453 3265 mt 4525 3265 L
4489 3229 mt 4489 3301 L
4163 2528 mt 4235 2528 L
4199 2492 mt 4199 2564 L
2106 2628 mt 2178 2628 L
2142 2592 mt 2142 2664 L
4542 2471 mt 4614 2471 L
4578 2435 mt 4578 2507 L
2881 2584 mt 2953 2584 L
2917 2548 mt 2917 2620 L
2432 2713 mt 2504 2713 L
2468 2677 mt 2468 2749 L
2966 3112 mt 3038 3112 L
3002 3076 mt 3002 3148 L
5365 2145 mt 5437 2145 L
5401 2109 mt 5401 2181 L
4142 2750 mt 4214 2750 L
4178 2714 mt 4178 2786 L
3020 3797 mt 3092 3797 L
3056 3761 mt 3056 3833 L
4021 3281 mt 4093 3281 L
4057 3245 mt 4057 3317 L
3903 2571 mt 3975 2571 L
3939 2535 mt 3939 2607 L
4306 3322 mt 4378 3322 L
4342 3286 mt 4342 3358 L
3078 1476 mt 3150 1476 L
3114 1440 mt 3114 1512 L
3364 2449 mt 3436 2449 L
3400 2413 mt 3400 2485 L
2456 1809 mt 2528 1809 L
2492 1773 mt 2492 1845 L
4390 2549 mt 4462 2549 L
4426 2513 mt 4426 2585 L
4107 1802 mt 4179 1802 L
4143 1766 mt 4143 1838 L
6225 3178 mt 6297 3178 L
6261 3142 mt 6261 3214 L
4574 3206 mt 4646 3206 L
4610 3170 mt 4610 3242 L
3220 2972 mt 3292 2972 L
3256 2936 mt 3256 3008 L
2502 2334 mt 2574 2334 L
2538 2298 mt 2538 2370 L
3644 2541 mt 3716 2541 L
3680 2505 mt 3680 2577 L
3499 1892 mt 3571 1892 L
3535 1856 mt 3535 1928 L
4398 2637 mt 4470 2637 L
4434 2601 mt 4434 2673 L
3278 1502 mt 3350 1502 L
3314 1466 mt 3314 1538 L
3538 2677 mt 3610 2677 L
3574 2641 mt 3574 2713 L
3599 3191 mt 3671 3191 L
3635 3155 mt 3635 3227 L
2085 2633 mt 2157 2633 L
2121 2597 mt 2121 2669 L
3255 1936 mt 3327 1936 L
3291 1900 mt 3291 1972 L
5413 1885 mt 5485 1885 L
5449 1849 mt 5449 1921 L
2643 2024 mt 2715 2024 L
2679 1988 mt 2679 2060 L
2789 2718 mt 2861 2718 L
2825 2682 mt 2825 2754 L
4680 1572 mt 4752 1572 L
4716 1536 mt 4716 1608 L
4961 2488 mt 5033 2488 L
4997 2452 mt 4997 2524 L
3460 2275 mt 3532 2275 L
3496 2239 mt 3496 2311 L
4619 1593 mt 4691 1593 L
4655 1557 mt 4655 1629 L
3774 2745 mt 3846 2745 L
3810 2709 mt 3810 2781 L
4585 2741 mt 4657 2741 L
4621 2705 mt 4621 2777 L
5071 3693 mt 5143 3693 L
5107 3657 mt 5107 3729 L
4080 3242 mt 4152 3242 L
4116 3206 mt 4116 3278 L
3768 1732 mt 3840 1732 L
3804 1696 mt 3804 1768 L
2851 2727 mt 2923 2727 L
2887 2691 mt 2887 2763 L
3232 2233 mt 3304 2233 L
3268 2197 mt 3268 2269 L
3621  898 mt 3693  898 L
3657  862 mt 3657  934 L
3072 1942 mt 3144 1942 L
3108 1906 mt 3108 1978 L
2624 2889 mt 2696 2889 L
2660 2853 mt 2660 2925 L
3934 2265 mt 4006 2265 L
3970 2229 mt 3970 2301 L
4100 2046 mt 4172 2046 L
4136 2010 mt 4136 2082 L
2586 3045 mt 2658 3045 L
2622 3009 mt 2622 3081 L
3577 2514 mt 3649 2514 L
3613 2478 mt 3613 2550 L
3387 3349 mt 3459 3349 L
3423 3313 mt 3423 3385 L
3740 2615 mt 3812 2615 L
3776 2579 mt 3776 2651 L
2945 2619 mt 3017 2619 L
2981 2583 mt 2981 2655 L
2938 2567 mt 3010 2567 L
2974 2531 mt 2974 2603 L
1556 3099 mt 1628 3099 L
1592 3063 mt 1592 3135 L
3432 4305 mt 3504 4305 L
3468 4269 mt 3468 4341 L
4608 1823 mt 4680 1823 L
4644 1787 mt 4644 1859 L
3751 2909 mt 3823 2909 L
3787 2873 mt 3787 2945 L
3160 2806 mt 3232 2806 L
3196 2770 mt 3196 2842 L
2689 3171 mt 2761 3171 L
2725 3135 mt 2725 3207 L
3116 1514 mt 3188 1514 L
3152 1478 mt 3152 1550 L
2368 3610 mt 2440 3610 L
2404 3574 mt 2404 3646 L
1965 2759 mt 2037 2759 L
2001 2723 mt 2001 2795 L
4330 3491 mt 4402 3491 L
4366 3455 mt 4366 3527 L
3689 2040 mt 3761 2040 L
3725 2004 mt 3725 2076 L
2896 3000 mt 2968 3000 L
2932 2964 mt 2932 3036 L
4259 2820 mt 4331 2820 L
4295 2784 mt 4295 2856 L
3527 1121 mt 3599 1121 L
3563 1085 mt 3563 1157 L
3482 2894 mt 3554 2894 L
3518 2858 mt 3518 2930 L
3123 1865 mt 3195 1865 L
3159 1829 mt 3159 1901 L
2479 3005 mt 2551 3005 L
2515 2969 mt 2515 3041 L
3249 3057 mt 3321 3057 L
3285 3021 mt 3285 3093 L
5002 1404 mt 5074 1404 L
5038 1368 mt 5038 1440 L
2201 1419 mt 2273 1419 L
2237 1383 mt 2237 1455 L
3683 2073 mt 3755 2073 L
3719 2037 mt 3719 2109 L
3410 3479 mt 3482 3479 L
3446 3443 mt 3446 3515 L
4298 1878 mt 4370 1878 L
4334 1842 mt 4334 1914 L
2355 4131 mt 2427 4131 L
2391 4095 mt 2391 4167 L
3273 2125 mt 3345 2125 L
3309 2089 mt 3309 2161 L
4054 2001 mt 4126 2001 L
4090 1965 mt 4090 2037 L
3723 2849 mt 3795 2849 L
3759 2813 mt 3759 2885 L
3971 2078 mt 4043 2078 L
4007 2042 mt 4007 2114 L
3359 2978 mt 3431 2978 L
3395 2942 mt 3395 3014 L
2545 2899 mt 2617 2899 L
2581 2863 mt 2581 2935 L
3426 3157 mt 3498 3157 L
3462 3121 mt 3462 3193 L
3505 2352 mt 3577 2352 L
3541 2316 mt 3541 2388 L
2797 2655 mt 2869 2655 L
2833 2619 mt 2833 2691 L
2652 3125 mt 2724 3125 L
2688 3089 mt 2688 3161 L
4314 2261 mt 4386 2261 L
4350 2225 mt 4350 2297 L
2381 3581 mt 2453 3581 L
2417 3545 mt 2417 3617 L
3471 2946 mt 3543 2946 L
3507 2910 mt 3507 2982 L
4501 3942 mt 4573 3942 L
4537 3906 mt 4537 3978 L
2040 3367 mt 2112 3367 L
2076 3331 mt 2076 3403 L
5468 3069 mt 5540 3069 L
5504 3033 mt 5504 3105 L
2952 1604 mt 3024 1604 L
2988 1568 mt 2988 1640 L
4706 3436 mt 4778 3436 L
4742 3400 mt 4742 3472 L
4372 3515 mt 4444 3515 L
4408 3479 mt 4408 3551 L
3844 2445 mt 3916 2445 L
3880 2409 mt 3880 2481 L
4015 2602 mt 4087 2602 L
4051 2566 mt 4051 2638 L
2327 3752 mt 2399 3752 L
2363 3716 mt 2363 3788 L
4184 2691 mt 4256 2691 L
4220 2655 mt 4220 2727 L
3353 2787 mt 3425 2787 L
3389 2751 mt 3389 2823 L
1619 2801 mt 1691 2801 L
1655 2765 mt 1655 2837 L
3454 2392 mt 3526 2392 L
3490 2356 mt 3490 2428 L
6033 2709 mt 6105 2709 L
6069 2673 mt 6069 2745 L
3013 2506 mt 3085 2506 L
3049 2470 mt 3049 2542 L
4904 2223 mt 4976 2223 L
4940 2187 mt 4940 2259 L
3438 3731 mt 3510 3731 L
3474 3695 mt 3474 3767 L
4564 2695 mt 4636 2695 L
4600 2659 mt 4600 2731 L
3196 2007 mt 3268 2007 L
3232 1971 mt 3232 2043 L
3243 2967 mt 3315 2967 L
3279 2931 mt 3279 3003 L
3855 3022 mt 3927 3022 L
3891 2986 mt 3891 3058 L
5122 3595 mt 5194 3595 L
5158 3559 mt 5158 3631 L
3307 2427 mt 3379 2427 L
3343 2391 mt 3343 2463 L
4128 2099 mt 4200 2099 L
4164 2063 mt 4164 2135 L
3826 3220 mt 3898 3220 L
3862 3184 mt 3862 3256 L
3091 2597 mt 3163 2597 L
3127 2561 mt 3127 2633 L
4266 2432 mt 4338 2432 L
4302 2396 mt 4302 2468 L
4067 1181 mt 4139 1181 L
4103 1145 mt 4103 1217 L
4836 2115 mt 4908 2115 L
4872 2079 mt 4872 2151 L
3415 2237 mt 3487 2237 L
3451 2201 mt 3451 2273 L
3897 2686 mt 3969 2686 L
3933 2650 mt 3933 2722 L
2773 2370 mt 2845 2370 L
2809 2334 mt 2809 2406 L
3184 3075 mt 3256 3075 L
3220 3039 mt 3220 3111 L
3879 2480 mt 3951 2480 L
3915 2444 mt 3915 2516 L
4667 2458 mt 4739 2458 L
4703 2422 mt 4703 2494 L
3153 2325 mt 3225 2325 L
3189 2289 mt 3189 2361 L
3780 2051 mt 3852 2051 L
3816 2015 mt 3816 2087 L
2605 2170 mt 2677 2170 L
2641 2134 mt 2641 2206 L
3814 2405 mt 3886 2405 L
3850 2369 mt 3850 2441 L
2312 2018 mt 2384 2018 L
2348 1982 mt 2348 2054 L
3000 2284 mt 3072 2284 L
3036 2248 mt 3036 2320 L
2821  414 mt 2893  414 L
2857  378 mt 2857  450 L
4631 2228 mt 4703 2228 L
4667 2192 mt 4667 2264 L
2836 3567 mt 2908 3567 L
2872 3531 mt 2872 3603 L
2063 2199 mt 2135 2199 L
2099 2163 mt 2099 2235 L
2671 2160 mt 2743 2160 L
2707 2124 mt 2707 2196 L
3989 2165 mt 4061 2165 L
4025 2129 mt 4025 2201 L
4425 1966 mt 4497 1966 L
4461 1930 mt 4461 2002 L
3370 3395 mt 3442 3395 L
3406 3359 mt 3406 3431 L
3915 1634 mt 3987 1634 L
3951 1598 mt 3951 1670 L
3172 2120 mt 3244 2120 L
3208 2084 mt 3208 2156 L
4094 4205 mt 4166 4205 L
4130 4169 mt 4130 4241 L
3549 4616 mt 3621 4616 L
3585 4580 mt 3585 4652 L
4135 2983 mt 4207 2983 L
4171 2947 mt 4171 3019 L
3867 1911 mt 3939 1911 L
3903 1875 mt 3903 1947 L
2732 2773 mt 2804 2773 L
2768 2737 mt 2768 2809 L
2844 2811 mt 2916 2811 L
2880 2775 mt 2880 2847 L
2903 3425 mt 2975 3425 L
2939 3389 mt 2939 3461 L
4482 2418 mt 4554 2418 L
4518 2382 mt 4518 2454 L
4472 2704 mt 4544 2704 L
4508 2668 mt 4508 2740 L
4532 2109 mt 4604 2109 L
4568 2073 mt 4568 2145 L
1722 2879 mt 1794 2879 L
1758 2843 mt 1758 2915 L
2341 1671 mt 2413 1671 L
2377 1635 mt 2377 1707 L
3033 2094 mt 3105 2094 L
3069 2058 mt 3069 2130 L
4028 2311 mt 4100 2311 L
4064 2275 mt 4064 2347 L
gs 899 414 5363 4203 rc
gr

0 sg
2775 5104 mt 
(\(F,DCTb,GMM\)) s
 482 3259 mt  -90 rotate
(\(S,PAC,GMM\)) s
90 rotate
2975  223 mt 
(Corr = 0.02) s

end %%Color Dict

eplot
%%EndObject

epage
end

showpage

%%Trailer
%%EOF
