%!PS-Adobe-3.0 EPSF-3.0
%%Creator: MATLAB, The Mathworks, Inc. Version 7.7.0.471 (R2008b). Operating System: Microsoft Windows XP.
%%Title: Pictures\main_zoo_mvar_analysis_data_BMI_xcorr_bmig_p2_k1_3_4.eps
%%CreationDate: 10/26/2009  05:45:40
%%DocumentNeededFonts: Helvetica
%%DocumentProcessColors: Cyan Magenta Yellow Black
%%LanguageLevel: 2
%%Pages: 1
%%BoundingBox:    37   180   549   616
%%EndComments

%%BeginProlog
% MathWorks dictionary
/MathWorks 160 dict begin
% definition operators
/bdef {bind def} bind def
/ldef {load def} bind def
/xdef {exch def} bdef
/xstore {exch store} bdef
% operator abbreviations
/c  /clip ldef
/cc /concat ldef
/cp /closepath ldef
/gr /grestore ldef
/gs /gsave ldef
/mt /moveto ldef
/np /newpath ldef
/cm /currentmatrix ldef
/sm /setmatrix ldef
/rm /rmoveto ldef
/rl /rlineto ldef
/s {show newpath} bdef
/sc {setcmykcolor} bdef
/sr /setrgbcolor ldef
/sg /setgray ldef
/w /setlinewidth ldef
/j /setlinejoin ldef
/cap /setlinecap ldef
/rc {rectclip} bdef
/rf {rectfill} bdef
% page state control
/pgsv () def
/bpage {/pgsv save def} bdef
/epage {pgsv restore} bdef
/bplot /gsave ldef
/eplot {stroke grestore} bdef
% orientation switch
/portraitMode 0 def /landscapeMode 1 def /rotateMode 2 def
% coordinate system mappings
/dpi2point 0 def
% font control
/FontSize 0 def
/FMS {/FontSize xstore findfont [FontSize 0 0 FontSize neg 0 0]
  makefont setfont} bdef
/ISOLatin1Encoding where {pop /WindowsLatin1Encoding 256 array bdef
ISOLatin1Encoding WindowsLatin1Encoding copy pop
/.notdef/.notdef/quotesinglbase/florin/quotedblbase/ellipsis/dagger
/daggerdbl/circumflex/perthousand/Scaron/guilsinglleft/OE/.notdef/.notdef
/.notdef/.notdef/quoteleft/quoteright/quotedblleft/quotedblright/bullet
/endash/emdash/tilde/trademark/scaron/guilsinglright/oe/.notdef/.notdef
/Ydieresis WindowsLatin1Encoding 128 32 getinterval astore pop}
{/WindowsLatin1Encoding StandardEncoding bdef} ifelse
/reencode {exch dup where {pop load} {pop StandardEncoding} ifelse
  exch dup 3 1 roll findfont dup length dict begin
  { 1 index /FID ne {def}{pop pop} ifelse } forall
  /Encoding exch def currentdict end definefont pop} bdef
/isroman {findfont /CharStrings get /Agrave known} bdef
/FMSR {3 1 roll 1 index dup isroman {reencode} {pop pop} ifelse
  exch FMS} bdef
/csm {1 dpi2point div -1 dpi2point div scale neg translate
 dup landscapeMode eq {pop -90 rotate}
  {rotateMode eq {90 rotate} if} ifelse} bdef
% line types: solid, dotted, dashed, dotdash
/SO { [] 0 setdash } bdef
/DO { [.5 dpi2point mul 4 dpi2point mul] 0 setdash } bdef
/DA { [6 dpi2point mul] 0 setdash } bdef
/DD { [.5 dpi2point mul 4 dpi2point mul 6 dpi2point mul 4
  dpi2point mul] 0 setdash } bdef
% macros for lines and objects
/L {lineto stroke} bdef
/MP {3 1 roll moveto 1 sub {rlineto} repeat} bdef
/AP {{rlineto} repeat} bdef
/PDlw -1 def
/W {/PDlw currentlinewidth def setlinewidth} def
/PP {closepath eofill} bdef
/DP {closepath stroke} bdef
/MR {4 -2 roll moveto dup  0 exch rlineto exch 0 rlineto
  neg 0 exch rlineto closepath} bdef
/FR {MR stroke} bdef
/PR {MR fill} bdef
/L1i {{currentfile picstr readhexstring pop} image} bdef
/tMatrix matrix def
/MakeOval {newpath tMatrix currentmatrix pop translate scale
0 0 1 0 360 arc tMatrix setmatrix} bdef
/FO {MakeOval stroke} bdef
/PO {MakeOval fill} bdef
/PD {currentlinewidth 2 div 0 360 arc fill
   PDlw -1 eq not {PDlw w /PDlw -1 def} if} def
/FA {newpath tMatrix currentmatrix pop translate scale
  0 0 1 5 -2 roll arc tMatrix setmatrix stroke} bdef
/PA {newpath tMatrix currentmatrix pop	translate 0 0 moveto scale
  0 0 1 5 -2 roll arc closepath tMatrix setmatrix fill} bdef
/FAn {newpath tMatrix currentmatrix pop translate scale
  0 0 1 5 -2 roll arcn tMatrix setmatrix stroke} bdef
/PAn {newpath tMatrix currentmatrix pop translate 0 0 moveto scale
  0 0 1 5 -2 roll arcn closepath tMatrix setmatrix fill} bdef
/vradius 0 def /hradius 0 def /lry 0 def
/lrx 0 def /uly 0 def /ulx 0 def /rad 0 def
/MRR {/vradius xdef /hradius xdef /lry xdef /lrx xdef /uly xdef
  /ulx xdef newpath tMatrix currentmatrix pop ulx hradius add uly
  vradius add translate hradius vradius scale 0 0 1 180 270 arc 
  tMatrix setmatrix lrx hradius sub uly vradius add translate
  hradius vradius scale 0 0 1 270 360 arc tMatrix setmatrix
  lrx hradius sub lry vradius sub translate hradius vradius scale
  0 0 1 0 90 arc tMatrix setmatrix ulx hradius add lry vradius sub
  translate hradius vradius scale 0 0 1 90 180 arc tMatrix setmatrix
  closepath} bdef
/FRR {MRR stroke } bdef
/PRR {MRR fill } bdef
/MlrRR {/lry xdef /lrx xdef /uly xdef /ulx xdef /rad lry uly sub 2 div def
  newpath tMatrix currentmatrix pop ulx rad add uly rad add translate
  rad rad scale 0 0 1 90 270 arc tMatrix setmatrix lrx rad sub lry rad
  sub translate rad rad scale 0 0 1 270 90 arc tMatrix setmatrix
  closepath} bdef
/FlrRR {MlrRR stroke } bdef
/PlrRR {MlrRR fill } bdef
/MtbRR {/lry xdef /lrx xdef /uly xdef /ulx xdef /rad lrx ulx sub 2 div def
  newpath tMatrix currentmatrix pop ulx rad add uly rad add translate
  rad rad scale 0 0 1 180 360 arc tMatrix setmatrix lrx rad sub lry rad
  sub translate rad rad scale 0 0 1 0 180 arc tMatrix setmatrix
  closepath} bdef
/FtbRR {MtbRR stroke } bdef
/PtbRR {MtbRR fill } bdef
/stri 6 array def /dtri 6 array def
/smat 6 array def /dmat 6 array def
/tmat1 6 array def /tmat2 6 array def /dif 3 array def
/asub {/ind2 exch def /ind1 exch def dup dup
  ind1 get exch ind2 get sub exch } bdef
/tri_to_matrix {
  2 0 asub 3 1 asub 4 0 asub 5 1 asub
  dup 0 get exch 1 get 7 -1 roll astore } bdef
/compute_transform {
  dmat dtri tri_to_matrix tmat1 invertmatrix 
  smat stri tri_to_matrix tmat2 concatmatrix } bdef
/ds {stri astore pop} bdef
/dt {dtri astore pop} bdef
/db {2 copy /cols xdef /rows xdef mul dup 3 mul string
  currentfile 
  3 index 0 eq {/ASCIIHexDecode filter}
  {/ASCII85Decode filter 3 index 2 eq {/RunLengthDecode filter} if }
  ifelse exch readstring pop
  dup 0 3 index getinterval /rbmap xdef
  dup 2 index dup getinterval /gbmap xdef
  1 index dup 2 mul exch getinterval /bbmap xdef pop pop}bdef
/it {gs np dtri aload pop moveto lineto lineto cp c
  cols rows 8 compute_transform 
  rbmap gbmap bbmap true 3 colorimage gr}bdef
/il {newpath moveto lineto stroke}bdef
currentdict end def
%%EndProlog

%%BeginSetup
MathWorks begin

0 cap

end
%%EndSetup

%%Page: 1 1
%%BeginPageSetup
%%PageBoundingBox:    37   180   549   616
MathWorks begin
bpage
%%EndPageSetup

%%BeginObject: obj1
bplot

/dpi2point 12 def
portraitMode 0216 7344 csm

  234   -48  6149  5231 rc
85 dict begin %Colortable dictionary
/c0 { 0.000000 0.000000 0.000000 sr} bdef
/c1 { 1.000000 1.000000 1.000000 sr} bdef
/c2 { 0.900000 0.000000 0.000000 sr} bdef
/c3 { 0.000000 0.820000 0.000000 sr} bdef
/c4 { 0.000000 0.000000 0.800000 sr} bdef
/c5 { 0.910000 0.820000 0.320000 sr} bdef
/c6 { 1.000000 0.260000 0.820000 sr} bdef
/c7 { 0.000000 0.820000 0.820000 sr} bdef
c0
1 j
1 sg
   0    0 6919 5187 rf
6 w
0 4202 5362 0 0 -4202 899 4616 4 MP
PP
-5362 0 0 4202 5362 0 0 -4202 899 4616 5 MP stroke
4 w
DO
SO
6 w
0 sg
 899  414 mt 6261  414 L
 899 4616 mt 6261 4616 L
6261 4616 mt 6261  414 L
 899 4616 mt  899  414 L
 899 4616 mt 6261 4616 L
 899 4616 mt  899  414 L
 919 4616 mt  919 4562 L
 919  414 mt  919  467 L
%%IncludeResource: font Helvetica
/Helvetica /WindowsLatin1Encoding 240 FMSR

 713 4873 mt 
(-3) s
1806 4616 mt 1806 4562 L
1806  414 mt 1806  467 L
1600 4873 mt 
(-2) s
2693 4616 mt 2693 4562 L
2693  414 mt 2693  467 L
2487 4873 mt 
(-1) s
3580 4616 mt 3580 4562 L
3580  414 mt 3580  467 L
3514 4873 mt 
(0) s
4466 4616 mt 4466 4562 L
4466  414 mt 4466  467 L
4400 4873 mt 
(1) s
5353 4616 mt 5353 4562 L
5353  414 mt 5353  467 L
5287 4873 mt 
(2) s
6240 4616 mt 6240 4562 L
6240  414 mt 6240  467 L
6174 4873 mt 
(3) s
 899 4599 mt  952 4599 L
6261 4599 mt 6207 4599 L
 591 4688 mt 
(-3) s
 899 3904 mt  952 3904 L
6261 3904 mt 6207 3904 L
 591 3993 mt 
(-2) s
 899 3209 mt  952 3209 L
6261 3209 mt 6207 3209 L
 591 3298 mt 
(-1) s
 899 2514 mt  952 2514 L
6261 2514 mt 6207 2514 L
 731 2603 mt 
(0) s
 899 1820 mt  952 1820 L
6261 1820 mt 6207 1820 L
 731 1909 mt 
(1) s
 899 1125 mt  952 1125 L
6261 1125 mt 6207 1125 L
 731 1214 mt 
(2) s
 899  430 mt  952  430 L
6261  430 mt 6207  430 L
 731  519 mt 
(3) s
 899  414 mt 6261  414 L
 899 4616 mt 6261 4616 L
6261 4616 mt 6261  414 L
 899 4616 mt  899  414 L
gs 899 414 5363 4203 rc
gr

/c8 { 0.000000 0.000000 1.000000 sr} bdef
c8
6225 1526 mt 6297 1526 L
6261 1490 mt 6261 1562 L
3610 2628 mt 3682 2628 L
3646 2592 mt 3646 2664 L
3123 3436 mt 3195 3436 L
3159 3400 mt 3159 3472 L
3861 2388 mt 3933 2388 L
3897 2352 mt 3897 2424 L
1937 2155 mt 2009 2155 L
1973 2119 mt 1973 2191 L
 863 2736 mt  935 2736 L
 899 2700 mt  899 2772 L
4852 2109 mt 4924 2109 L
4888 2073 mt 4888 2145 L
3135 2265 mt 3207 2265 L
3171 2229 mt 3171 2301 L
3694 3125 mt 3766 3125 L
3730 3089 mt 3730 3161 L
4655 2741 mt 4727 2741 L
4691 2705 mt 4691 2777 L
2938 1561 mt 3010 1561 L
2974 1525 mt 2974 1597 L
1876 2125 mt 1948 2125 L
1912 2089 mt 1912 2161 L
3454 2223 mt 3526 2223 L
3490 2187 mt 3490 2259 L
2534 2458 mt 2606 2458 L
2570 2422 mt 2570 2494 L
3184 1858 mt 3256 1858 L
3220 1822 mt 3220 1894 L
4463 2270 mt 4535 2270 L
4499 2234 mt 4499 2306 L
4961 3171 mt 5033 3171 L
4997 3135 mt 4997 3207 L
3147 2506 mt 3219 2506 L
3183 2470 mt 3183 2542 L
3178 3908 mt 3250 3908 L
3214 3872 mt 3214 3944 L
4619 4616 mt 4691 4616 L
4655 4580 mt 4655 4652 L
3141 2899 mt 3213 2899 L
3177 2863 mt 3177 2935 L
3820 1614 mt 3892 1614 L
3856 1578 mt 3856 1650 L
4009 1954 mt 4081 1954 L
4045 1918 mt 4045 1990 L
2444 1207 mt 2516 1207 L
2480 1171 mt 2480 1243 L
3897 1787 mt 3969 1787 L
3933 1751 mt 3933 1823 L
3594 3468 mt 3666 3468 L
3630 3432 mt 3630 3504 L
4266 1892 mt 4338 1892 L
4302 1856 mt 4302 1928 L
3020 3022 mt 3092 3022 L
3056 2986 mt 3056 3058 L
2183 2365 mt 2255 2365 L
2219 2329 mt 2219 2401 L
3381 2983 mt 3453 2983 L
3417 2947 mt 3417 3019 L
4706 2655 mt 4778 2655 L
4742 2619 mt 4742 2691 L
3964 2773 mt 4036 2773 L
4000 2737 mt 4000 2809 L
3627 3675 mt 3699 3675 L
3663 3639 mt 3663 3711 L
4553 2967 mt 4625 2967 L
4589 2931 mt 4589 3003 L
2671 2935 mt 2743 2935 L
2707 2899 mt 2707 2971 L
3387 3206 mt 3459 3206 L
3423 3170 mt 3423 3242 L
3046 2840 mt 3118 2840 L
3082 2804 mt 3082 2876 L
3934 3051 mt 4006 3051 L
3970 3015 mt 3970 3087 L
2945 2401 mt 3017 2401 L
2981 2365 mt 2981 2437 L
4789 3017 mt 4861 3017 L
4825 2981 mt 4825 3053 L
2723 3331 mt 2795 3331 L
2759 3295 mt 2759 3367 L
4206 2815 mt 4278 2815 L
4242 2779 mt 4242 2851 L
4163 3980 mt 4235 3980 L
4199 3944 mt 4199 4016 L
3809  414 mt 3881  414 L
3845  378 mt 3845  450 L
4314 3273 mt 4386 3273 L
4350 3237 mt 4350 3309 L
2749 4205 mt 2821 4205 L
2785 4169 mt 2785 4241 L
5002 2731 mt 5074 2731 L
5038 2695 mt 5038 2767 L
3946 2796 mt 4018 2796 L
3982 2760 mt 3982 2832 L
2931 3011 mt 3003 3011 L
2967 2975 mt 2967 3047 L
2821 3144 mt 2893 3144 L
2857 3108 mt 2857 3180 L
2479 1087 mt 2551 1087 L
2515 1051 mt 2515 1123 L
3797 2374 mt 3869 2374 L
3833 2338 mt 3833 2410 L
2680 1872 mt 2752 1872 L
2716 1836 mt 2716 1908 L
3903 2536 mt 3975 2536 L
3939 2500 mt 3939 2572 L
3353 1419 mt 3425 1419 L
3389 1383 mt 3389 1455 L
3560 2930 mt 3632 2930 L
3596 2894 mt 3596 2966 L
2866 1972 mt 2938 1972 L
2902 1936 mt 2902 2008 L
2924 2768 mt 2996 2768 L
2960 2732 mt 2960 2804 L
2966 2722 mt 3038 2722 L
3002 2686 mt 3002 2758 L
2732 2619 mt 2804 2619 L
2768 2583 mt 2768 2655 L
4177 2214 mt 4249 2214 L
4213 2178 mt 4213 2250 L
3577 3087 mt 3649 3087 L
3613 3051 mt 3613 3123 L
5321 1121 mt 5393 1121 L
5357 1085 mt 5357 1157 L
4355 2962 mt 4427 2962 L
4391 2926 mt 4391 2998 L
4236 3184 mt 4308 3184 L
4272 3148 mt 4272 3220 L
4398 2396 mt 4470 2396 L
4434 2360 mt 4434 2432 L
3284 2528 mt 3356 2528 L
3320 2492 mt 3320 2564 L
3432 3376 mt 3504 3376 L
3468 3340 mt 3468 3412 L
3085 2320 mt 3157 2320 L
3121 2284 mt 3121 2356 L
3460 3658 mt 3532 3658 L
3496 3622 mt 3496 3694 L
3745 2811 mt 3817 2811 L
3781 2775 mt 3781 2847 L
2765 2135 mt 2837 2135 L
2801 2099 mt 2801 2171 L
3166 2436 mt 3238 2436 L
3202 2400 mt 3202 2472 L
2394 2593 mt 2466 2593 L
2430 2557 mt 2430 2629 L
3261 1831 mt 3333 1831 L
3297 1795 mt 3297 1867 L
3426 3191 mt 3498 3191 L
3462 3155 mt 3462 3227 L
2327 2462 mt 2399 2462 L
2363 2426 mt 2363 2498 L
1619 3213 mt 1691 3213 L
1655 3177 mt 1655 3249 L
4228 2104 mt 4300 2104 L
4264 2068 mt 4264 2140 L
3027 2493 mt 3099 2493 L
3063 2457 mt 3063 2529 L
3549 1732 mt 3621 1732 L
3585 1696 mt 3585 1768 L
4199 2709 mt 4271 2709 L
4235 2673 mt 4235 2745 L
4904 3386 mt 4976 3386 L
4940 3350 mt 4940 3422 L
3516 3227 mt 3588 3227 L
3552 3191 mt 3552 3263 L
5282 2440 mt 5354 2440 L
5318 2404 mt 5318 2476 L
3347 2713 mt 3419 2713 L
3383 2677 mt 3383 2749 L
2917 1698 mt 2989 1698 L
2953 1662 mt 2953 1734 L
2813 2001 mt 2885 2001 L
2849 1965 mt 2849 2037 L
3477 3405 mt 3549 3405 L
3513 3369 mt 3513 3441 L
3791 1462 mt 3863 1462 L
3827 1426 mt 3827 1498 L
3873 3567 mt 3945 3567 L
3909 3531 mt 3909 3603 L
3832 2007 mt 3904 2007 L
3868 1971 mt 3868 2043 L
2456 1794 mt 2528 1794 L
2492 1758 mt 2492 1830 L
3342 2673 mt 3414 2673 L
3378 2637 mt 3378 2709 L
3393 2787 mt 3465 2787 L
3429 2751 mt 3429 2823 L
3644 2825 mt 3716 2825 L
3680 2789 mt 3680 2861 L
4080 2024 mt 4152 2024 L
4116 1988 mt 4116 2060 L
2490 3242 mt 2562 3242 L
2526 3206 mt 2526 3278 L
3683 2920 mt 3755 2920 L
3719 2884 mt 3719 2956 L
2836 2347 mt 2908 2347 L
2872 2311 mt 2872 2383 L
5413 1772 mt 5485 1772 L
5449 1736 mt 5449 1808 L
3638 1593 mt 3710 1593 L
3674 1557 mt 3674 1629 L
5468 1476 mt 5540 1476 L
5504 1440 mt 5504 1512 L
3040 2695 mt 3112 2695 L
3076 2659 mt 3076 2731 L
3214 1936 mt 3286 1936 L
3250 1900 mt 3250 1972 L
2851 1995 mt 2923 1995 L
2887 1959 mt 2887 2031 L
2235 4305 mt 2307 4305 L
2271 4269 mt 2271 4341 L
4028 2471 mt 4100 2471 L
4064 2435 mt 4064 2507 L
3307 3610 mt 3379 3610 L
3343 3574 mt 3343 3646 L
3723 3349 mt 3795 3349 L
3759 3313 mt 3759 3385 L
2420 4131 mt 2492 4131 L
2456 4095 mt 2456 4167 L
3449 3057 mt 3521 3057 L
3485 3021 mt 3485 3093 L
3493 2951 mt 3565 2951 L
3529 2915 mt 3529 2987 L
2910 2571 mt 2982 2571 L
2946 2535 mt 2946 2607 L
3376 2057 mt 3448 2057 L
3412 2021 mt 3412 2093 L
2201 1966 mt 2273 1966 L
2237 1930 mt 2237 2002 L
4390 2801 mt 4462 2801 L
4426 2765 mt 4426 2837 L
3059 2750 mt 3131 2750 L
3095 2714 mt 3095 2786 L
3466 3250 mt 3538 3250 L
3502 3214 mt 3502 3286 L
4981 3752 mt 5053 3752 L
5017 3716 mt 5017 3788 L
3364 2869 mt 3436 2869 L
3400 2833 mt 3400 2905 L
3855 2228 mt 3927 2228 L
3891 2192 mt 3891 2264 L
2805 3581 mt 2877 3581 L
2841 3545 mt 2841 3617 L
4532 2115 mt 4604 2115 L
4568 2079 mt 4568 2151 L
3958 2677 mt 4030 2677 L
3994 2641 mt 3994 2713 L
2643 2392 mt 2715 2392 L
2679 2356 mt 2679 2428 L
3232 2806 mt 3304 2806 L
3268 2770 mt 3268 2842 L
3000 3774 mt 3072 3774 L
3036 3738 mt 3036 3810 L
3243 3112 mt 3315 3112 L
3279 3076 mt 3279 3148 L
4041 1152 mt 4113 1152 L
4077 1116 mt 4077 1188 L
4114 1653 mt 4186 1653 L
4150 1617 mt 4150 1689 L
3952 2180 mt 4024 2180 L
3988 2144 mt 3988 2216 L
2468 1917 mt 2540 1917 L
2504 1881 mt 2504 1953 L
3633 2242 mt 3705 2242 L
3669 2206 mt 3669 2278 L
4121 2718 mt 4193 2718 L
4157 2682 mt 4157 2754 L
3588 3137 mt 3660 3137 L
3624 3101 mt 3624 3173 L
3273 2978 mt 3345 2978 L
3309 2942 mt 3309 3014 L
3616 3358 mt 3688 3358 L
3652 3322 mt 3652 3394 L
3471 2432 mt 3543 2432 L
3507 2396 mt 3507 2468 L
4259 1624 mt 4331 1624 L
4295 1588 mt 4295 1660 L
2987 3297 mt 3059 3297 L
3023 3261 mt 3023 3333 L
1805 2334 mt 1877 2334 L
1841 2298 mt 1841 2370 L
4608 3106 mt 4680 3106 L
4644 3070 mt 4644 3142 L
3838 1604 mt 3910 1604 L
3874 1568 mt 3874 1640 L
3160 3367 mt 3232 3367 L
3196 3331 mt 3196 3403 L
3649 3479 mt 3721 3479 L
3685 3443 mt 3685 3515 L
2016 1865 mt 2088 1865 L
2052 1829 mt 2052 1901 L
1674 2170 mt 1746 2170 L
1710 2134 mt 1710 2206 L
2586 2383 mt 2658 2383 L
2622 2347 mt 2622 2419 L
4170 3503 mt 4242 3503 L
4206 3467 mt 4206 3539 L
2797 2445 mt 2869 2445 L
2833 2409 mt 2833 2481 L
3717 2237 mt 3789 2237 L
3753 2201 mt 3753 2273 L
4512 3848 mt 4584 3848 L
4548 3812 mt 4548 3884 L
3398 1911 mt 3470 1911 L
3434 1875 mt 3434 1947 L
4100 3731 mt 4172 3731 L
4136 3695 mt 4136 3767 L
2881 2615 mt 2953 2615 L
2917 2579 mt 2917 2651 L
3599 2792 mt 3671 2792 L
3635 2756 mt 3635 2828 L
4425 2682 mt 4497 2682 L
4461 2646 mt 4461 2718 L
1722 2029 mt 1794 2029 L
1758 1993 mt 1758 2065 L
2859 2209 mt 2931 2209 L
2895 2173 mt 2895 2245 L
3190 3877 mt 3262 3877 L
3226 3841 mt 3226 3913 L
2575 2611 mt 2647 2611 L
2611 2575 mt 2611 2647 L
4693 1006 mt 4765 1006 L
4729  970 mt 4729 1042 L
3544 3314 mt 3616 3314 L
3580 3278 mt 3580 3350 L
3278 1898 mt 3350 1898 L
3314 1862 mt 3314 1934 L
4074 2830 mt 4146 2830 L
4110 2794 mt 4110 2866 L
4282 2488 mt 4354 2488 L
4318 2452 mt 4318 2524 L
3700 2480 mt 3772 2480 L
3736 2444 mt 3736 2516 L
3785 2453 mt 3857 2453 L
3821 2417 mt 3821 2489 L
3505 3822 mt 3577 3822 L
3541 3786 mt 3541 3858 L
4564 1049 mt 4636 1049 L
4600 1013 mt 4600 1085 L
4054 1779 mt 4126 1779 L
4090 1743 mt 4090 1815 L
4135 2759 mt 4207 2759 L
4171 2723 mt 4171 2795 L
3438 2062 mt 3510 2062 L
3474 2026 mt 3474 2098 L
3927 1689 mt 3999 1689 L
3963 1653 mt 3963 1725 L
1259 2145 mt 1331 2145 L
1295 2109 mt 1295 2181 L
3996 2497 mt 4068 2497 L
4032 2461 mt 4032 2533 L
3053 2879 mt 3125 2879 L
3089 2843 mt 3089 2915 L
5180 1809 mt 5252 1809 L
5216 1773 mt 5216 1845 L
3116 2545 mt 3188 2545 L
3152 2509 mt 3152 2581 L
4047 2914 mt 4119 2914 L
4083 2878 mt 4083 2950 L
5150 3118 mt 5222 3118 L
5186 3082 mt 5186 3154 L
4886  824 mt 4958  824 L
4922  788 mt 4922  860 L
3527 2835 mt 3599 2835 L
3563 2799 mt 3563 2871 L
2789 2602 mt 2861 2602 L
2825 2566 mt 2825 2638 L
4631 1404 mt 4703 1404 L
4667 1368 mt 4667 1440 L
4015 1662 mt 4087 1662 L
4051 1626 mt 4051 1698 L
2781 2067 mt 2853 2067 L
2817 2031 mt 2817 2103 L
3237 2293 mt 3309 2293 L
3273 2257 mt 3273 2329 L
4805  724 mt 4877  724 L
4841  688 mt 4841  760 L
3757 2165 mt 3829 2165 L
3793 2129 mt 3793 2201 L
4142 1255 mt 4214 1255 L
4178 1219 mt 4178 1291 L
4347 3039 mt 4419 3039 L
4383 3003 mt 4383 3075 L
3711 2046 mt 3783 2046 L
3747 2010 mt 3747 2082 L
2355 1930 mt 2427 1930 L
2391 1894 mt 2391 1966 L
5606 1845 mt 5678 1845 L
5642 1809 mt 5642 1881 L
3971 1572 mt 4043 1572 L
4007 1536 mt 4007 1608 L
4775 1723 mt 4847 1723 L
4811 1687 mt 4811 1759 L
3482 2233 mt 3554 2233 L
3518 2197 mt 3518 2269 L
2251 2130 mt 2323 2130 L
2287 2094 mt 2287 2166 L
6033 1434 mt 6105 1434 L
6069 1398 mt 6069 1470 L
4372 1388 mt 4444 1388 L
4408 1352 mt 4408 1424 L
2502 2691 mt 2574 2691 L
2538 2655 mt 2538 2727 L
3172 1764 mt 3244 1764 L
3208 1728 mt 3208 1800 L
3013 2562 mt 3085 2562 L
3049 2526 mt 3049 2598 L
3751 2189 mt 3823 2189 L
3787 2153 mt 3787 2225 L
4492 2185 mt 4564 2185 L
4528 2149 mt 4528 2221 L
4274 3157 mt 4346 3157 L
4310 3121 mt 4310 3193 L
3582 3045 mt 3654 3045 L
3618 3009 mt 3618 3081 L
4501 3515 mt 4573 3515 L
4537 3479 mt 4537 3551 L
3153 2120 mt 3225 2120 L
3189 2084 mt 3189 2156 L
4002 3322 mt 4074 3322 L
4038 3286 mt 4038 3358 L
3532 2606 mt 3604 2606 L
3568 2570 mt 3568 2642 L
4128 1232 mt 4200 1232 L
4164 1196 mt 4164 1268 L
2959 1680 mt 3031 1680 L
2995 1644 mt 2995 1716 L
4836 1502 mt 4908 1502 L
4872 1466 mt 4872 1538 L
4869 3641 mt 4941 3641 L
4905 3605 mt 4905 3677 L
2341 2864 mt 2413 2864 L
2377 2828 mt 2377 2900 L
3814 2467 mt 3886 2467 L
3850 2431 mt 3850 2503 L
4760 2641 mt 4832 2641 L
4796 2605 mt 4796 2677 L
2063 3220 mt 2135 3220 L
2099 3184 mt 2099 3256 L
2624 1318 mt 2696 1318 L
2660 1282 mt 2660 1354 L
4381 2580 mt 4453 2580 L
4417 2544 mt 4417 2616 L
3762 1489 mt 3834 1489 L
3798 1453 mt 3798 1525 L
3677 2051 mt 3749 2051 L
3713 2015 mt 3713 2087 L
2652 3491 mt 2724 3491 L
2688 3455 mt 2688 3527 L
3488 4072 mt 3560 4072 L
3524 4036 mt 3524 4108 L
3404 2338 mt 3476 2338 L
3440 2302 mt 3440 2374 L
3774 1756 mt 3846 1756 L
3810 1720 mt 3810 1792 L
2952 1707 mt 3024 1707 L
2988 1671 mt 2988 1743 L
4191 2659 mt 4263 2659 L
4227 2623 mt 4227 2695 L
4597 2874 mt 4669 2874 L
4633 2838 mt 4633 2910 L
2888 3198 mt 2960 3198 L
2924 3162 mt 2924 3234 L
5047 2700 mt 5119 2700 L
5083 2664 mt 5083 2736 L
2407 3693 mt 2479 3693 L
2443 3657 mt 2443 3729 L
2545 2307 mt 2617 2307 L
2581 2271 mt 2581 2343 L
2605 3553 mt 2677 3553 L
2641 3517 mt 2641 3589 L
2381 1643 mt 2453 1643 L
2417 1607 mt 2417 1679 L
3091 2012 mt 3163 2012 L
3127 1976 mt 3127 2048 L
4435 3540 mt 4507 3540 L
4471 3504 mt 4471 3576 L
2844 3131 mt 2916 3131 L
2880 3095 mt 2880 3167 L
4643 2686 mt 4715 2686 L
4679 2650 mt 4679 2722 L
3768 3081 mt 3840 3081 L
3804 3045 mt 3804 3117 L
2973  564 mt 3045  564 L
3009  528 mt 3009  600 L
3555 2514 mt 3627 2514 L
3591 2478 mt 3591 2550 L
3803 2668 mt 3875 2668 L
3839 2632 mt 3839 2704 L
5024 2549 mt 5096 2549 L
5060 2513 mt 5060 2585 L
3129 3257 mt 3201 3257 L
3165 3221 mt 3165 3293 L
1907 3178 mt 1979 3178 L
1943 3142 mt 1943 3214 L
2312 2889 mt 2384 2889 L
2348 2853 mt 2348 2925 L
3267 1538 mt 3339 1538 L
3303 1502 mt 3303 1574 L
3196 2352 mt 3268 2352 L
3232 2316 mt 3232 2388 L
2146 2089 mt 2218 2089 L
2182 2053 mt 2182 2125 L
3370 2532 mt 3442 2532 L
3406 2496 mt 3406 2568 L
2706 1715 mt 2778 1715 L
2742 1679 mt 2742 1751 L
4094 2567 mt 4166 2567 L
4130 2531 mt 4130 2603 L
2896 2633 mt 2968 2633 L
2932 2597 mt 2932 2669 L
3421 3395 mt 3493 3395 L
3457 3359 mt 3457 3431 L
3909 1634 mt 3981 1634 L
3945 1598 mt 3945 1670 L
3850 1942 mt 3922 1942 L
3886 1906 mt 3886 1978 L
4087 2302 mt 4159 2302 L
4123 2266 mt 4123 2338 L
2903 2624 mt 2975 2624 L
2939 2588 mt 2939 2660 L
5365 1371 mt 5437 1371 L
5401 1335 mt 5401 1407 L
4364 2859 mt 4436 2859 L
4400 2823 mt 4400 2895 L
4732 2778 mt 4804 2778 L
4768 2742 mt 4768 2814 L
3915 1802 mt 3987 1802 L
3951 1766 mt 3951 1838 L
3208 2894 mt 3280 2894 L
3244 2858 mt 3244 2930 L
2218 2370 mt 2290 2370 L
2254 2334 mt 2254 2406 L
3319 3281 mt 3391 3281 L
3355 3245 mt 3355 3317 L
4338 2018 mt 4410 2018 L
4374 1982 mt 4374 2054 L
2689 2427 mt 2761 2427 L
2725 2391 mt 2725 2463 L
3226 3000 mt 3298 3000 L
3262 2964 mt 3262 3036 L
1965 3164 mt 2037 3164 L
2001 3128 mt 2001 3200 L
3740 3527 mt 3812 3527 L
3776 3491 mt 3776 3563 L
3734 2256 mt 3806 2256 L
3770 2220 mt 3770 2292 L
3983 3069 mt 4055 3069 L
4019 3033 mt 4019 3105 L
1991 2078 mt 2063 2078 L
2027 2042 mt 2027 2114 L
3538 2325 mt 3610 2325 L
3574 2289 mt 3574 2361 L
3443 3034 mt 3515 3034 L
3479 2998 mt 3479 3070 L
3296 2637 mt 3368 2637 L
3332 2601 mt 3332 2673 L
3499 1838 mt 3571 1838 L
3535 1802 mt 3535 1874 L
4021 2484 mt 4093 2484 L
4057 2448 mt 4057 2520 L
5096 2298 mt 5168 2298 L
5132 2262 mt 5132 2334 L
4251 2204 mt 4323 2204 L
4287 2168 mt 4287 2240 L
5828 1298 mt 5900 1298 L
5864 1262 mt 5864 1334 L
1387 2956 mt 1459 2956 L
1423 2920 mt 1423 2992 L
4107 2576 mt 4179 2576 L
4143 2540 mt 4143 2612 L
2874 1978 mt 2946 1978 L
2910 1942 mt 2910 2014 L
2773 3099 mt 2845 3099 L
2809 3063 mt 2809 3135 L
2757 2449 mt 2829 2449 L
2793 2413 mt 2793 2485 L
4290 2356 mt 4362 2356 L
4326 2320 mt 4326 2392 L
2980 2764 mt 3052 2764 L
3016 2728 mt 3016 2800 L
3415 2094 mt 3487 2094 L
3451 2058 mt 3451 2130 L
4221 1878 mt 4293 1878 L
4257 1842 mt 4257 1914 L
2282 3446 mt 2354 3446 L
2318 3410 mt 2318 3482 L
2040 2745 mt 2112 2745 L
2076 2709 mt 2076 2781 L
3336 3457 mt 3408 3457 L
3372 3421 mt 3372 3493 L
3621 2199 mt 3693 2199 L
3657 2163 mt 3657 2235 L
3066 2849 mt 3138 2849 L
3102 2813 mt 3102 2885 L
3290 2160 mt 3362 2160 L
3326 2124 mt 3326 2196 L
5211 1748 mt 5283 1748 L
5247 1712 mt 5247 1784 L
2715 2083 mt 2787 2083 L
2751 2047 mt 2751 2119 L
5531  898 mt 5603  898 L
5567  862 mt 5567  934 L
1766 3306 mt 1838 3306 L
1802 3270 mt 1802 3342 L
2595 2150 mt 2667 2150 L
2631 2114 mt 2631 2186 L
3521 1671 mt 3593 1671 L
3557 1635 mt 3557 1707 L
3255 2316 mt 3327 2316 L
3291 2280 mt 3291 2352 L
3844 2099 mt 3916 2099 L
3880 2063 mt 3880 2135 L
3891 2994 mt 3963 2994 L
3927 2958 mt 3927 3030 L
3202 2597 mt 3274 2597 L
3238 2561 mt 3238 2633 L
3655 1990 mt 3727 1990 L
3691 1954 mt 3691 2026 L
2523 2782 mt 2595 2782 L
2559 2746 mt 2559 2818 L
2634 2854 mt 2706 2854 L
2670 2818 mt 2670 2890 L
3072 2727 mt 3144 2727 L
3108 2691 mt 3108 2763 L
3220 2820 mt 3292 2820 L
3256 2784 mt 3256 2856 L
3078 1904 mt 3150 1904 L
3114 1868 mt 3114 1940 L
4746 2218 mt 4818 2218 L
4782 2182 mt 4782 2254 L
3921 1984 mt 3993 1984 L
3957 1948 mt 3957 2020 L
2513 2754 mt 2585 2754 L
2549 2718 mt 2549 2790 L
4542 3415 mt 4614 3415 L
4578 3379 mt 4578 3451 L
2828 3028 mt 2900 3028 L
2864 2992 mt 2864 3064 L
4574 3289 mt 4646 3289 L
4610 3253 mt 4610 3325 L
3879 2650 mt 3951 2650 L
3915 2614 mt 3915 2686 L
4941 2275 mt 5013 2275 L
4977 2239 mt 4977 2311 L
4407 2909 mt 4479 2909 L
4443 2873 mt 4443 2945 L
3249 3711 mt 3321 3711 L
3285 3675 mt 3285 3747 L
4060 2194 mt 4132 2194 L
4096 2158 mt 4096 2230 L
3977 2288 mt 4049 2288 L
4013 2252 mt 4013 2324 L
4322 2523 mt 4394 2523 L
4358 2487 mt 4358 2559 L
3689 1740 mt 3761 1740 L
3725 1704 mt 3725 1776 L
3672 2329 mt 3744 2329 L
3708 2293 mt 3708 2365 L
3661 1948 mt 3733 1948 L
3697 1912 mt 3697 1984 L
3007 2261 mt 3079 2261 L
3043 2225 mt 3043 2297 L
3571 2251 mt 3643 2251 L
3607 2215 mt 3607 2287 L
4585 2343 mt 4657 2343 L
4621 2307 mt 4621 2379 L
3989 2884 mt 4061 2884 L
4025 2848 mt 4025 2920 L
1556 3942 mt 1628 3942 L
1592 3906 mt 1592 3978 L
2555 2279 mt 2627 2279 L
2591 2243 mt 2591 2315 L
2993 2501 mt 3065 2501 L
3029 2465 mt 3029 2537 L
4034 2040 mt 4106 2040 L
4070 2004 mt 4070 2076 L
2267 2589 mt 2339 2589 L
2303 2553 mt 2303 2625 L
2740 3093 mt 2812 3093 L
2776 3057 mt 2776 3129 L
4184 3425 mt 4256 3425 L
4220 3389 mt 4220 3461 L
3780 1550 mt 3852 1550 L
3816 1514 mt 3816 1586 L
2298 2519 mt 2370 2519 L
2334 2483 mt 2334 2555 L
3033 2541 mt 3105 2541 L
3069 2505 mt 3069 2577 L
1842 2035 mt 1914 2035 L
1878 1999 mt 1878 2071 L
3885 3625 mt 3957 3625 L
3921 3589 mt 3921 3661 L
3566 1448 mt 3638 1448 L
3602 1412 mt 3602 1484 L
4213 3235 mt 4285 3235 L
4249 3199 mt 4249 3271 L
3330 2554 mt 3402 2554 L
3366 2518 mt 3366 2590 L
2368 3340 mt 2440 3340 L
2404 3304 mt 2404 3376 L
4922 1816 mt 4994 1816 L
4958 1780 mt 4958 1852 L
2165 2925 mt 2237 2925 L
2201 2889 mt 2201 2961 L
3867 2972 mt 3939 2972 L
3903 2936 mt 3903 3008 L
2565 3265 mt 2637 3265 L
2601 3229 mt 2601 3301 L
4306 2073 mt 4378 2073 L
4342 2037 mt 4342 2109 L
5122 2414 mt 5194 2414 L
5158 2378 mt 5158 2450 L
1481 2704 mt 1553 2704 L
1517 2668 mt 1517 2740 L
3313 2423 mt 3385 2423 L
3349 2387 mt 3349 2459 L
2697 2940 mt 2769 2940 L
2733 2904 mt 2733 2976 L
3098 3151 mt 3170 3151 L
3134 3115 mt 3134 3187 L
4472 1336 mt 4544 1336 L
4508 1300 mt 4508 1372 L
4149 2247 mt 4221 2247 L
4185 2211 mt 4185 2283 L
4067 2558 mt 4139 2558 L
4103 2522 mt 4103 2594 L
4444 2946 mt 4516 2946 L
4480 2910 mt 4480 2982 L
3666 3005 mt 3738 3005 L
3702 2969 mt 3702 3041 L
4243 3595 mt 4315 3595 L
4279 3559 mt 4279 3631 L
4330 2844 mt 4402 2844 L
4366 2808 mt 4366 2880 L
4156 2379 mt 4228 2379 L
4192 2343 mt 4192 2415 L
4298 1354 mt 4370 1354 L
4334 1318 mt 4334 1390 L
3110 3075 mt 3182 3075 L
3146 3039 mt 3146 3111 L
3706 2989 mt 3778 2989 L
3742 2953 mt 3742 3025 L
3104 2584 mt 3176 2584 L
3140 2548 mt 3140 2620 L
4453 1277 mt 4525 1277 L
4489 1241 mt 4489 1313 L
3605 2904 mt 3677 2904 L
3641 2868 mt 3641 2940 L
4416 1583 mt 4488 1583 L
4452 1547 mt 4452 1619 L
2106 2175 mt 2178 2175 L
2142 2139 mt 2142 2211 L
5071 2284 mt 5143 2284 L
5107 2248 mt 5107 2320 L
2126 4023 mt 2198 4023 L
2162 3987 mt 2162 4059 L
4522 2410 mt 4594 2410 L
4558 2374 mt 4558 2446 L
5245 1885 mt 5317 1885 L
5281 1849 mt 5281 1921 L
4680 1181 mt 4752 1181 L
4716 1145 mt 4716 1217 L
2085 2140 mt 2157 2140 L
2121 2104 mt 2121 2176 L
3826 3063 mt 3898 3063 L
3862 3027 mt 3862 3099 L
4820 2361 mt 4892 2361 L
4856 2325 mt 4856 2397 L
3410 2405 mt 3482 2405 L
3446 2369 mt 3446 2441 L
3325 2664 mt 3397 2664 L
3361 2628 mt 3361 2700 L
2662 1923 mt 2734 1923 L
2698 1887 mt 2698 1959 L
4719  957 mt 4791  957 L
4755  921 mt 4755  993 L
2432 2510 mt 2504 2510 L
2468 2474 mt 2468 2546 L
3359 1514 mt 3431 1514 L
3395 1478 mt 3395 1550 L
4667 3797 mt 4739 3797 L
4703 3761 mt 4703 3833 L
3728 1960 mt 3800 1960 L
3764 1924 mt 3764 1996 L
2615 2418 mt 2687 2418 L
2651 2382 mt 2651 2454 L
5700 1823 mt 5772 1823 L
5736 1787 mt 5736 1859 L
3510 1851 mt 3582 1851 L
3546 1815 mt 3546 1887 L
4482 2311 mt 4554 2311 L
4518 2275 mt 4518 2347 L
3940 2475 mt 4012 2475 L
3976 2439 mt 3976 2511 L
3302 2646 mt 3374 2646 L
3338 2610 mt 3338 2682 L
gs 899 414 5363 4203 rc
gr

0 sg
2836 5104 mt 
(\(S,PAC,GMM\)) s
 482 3277 mt  -90 rotate
(\(S,SSC,GMM\)) s
90 rotate
2975  223 mt 
(Corr = 0.18) s

end %%Color Dict

eplot
%%EndObject

epage
end

showpage

%%Trailer
%%EOF
