%!PS-Adobe-3.0 EPSF-3.0
%%Creator: MATLAB, The Mathworks, Inc. Version 7.7.0.471 (R2008b). Operating System: Microsoft Windows XP.
%%Title: Pictures\main_zoo_mvar_analysis_data_BMI_xcorr_bmig_p2_k1_1_2.eps
%%CreationDate: 10/26/2009  05:45:36
%%DocumentNeededFonts: Helvetica
%%DocumentProcessColors: Cyan Magenta Yellow Black
%%LanguageLevel: 2
%%Pages: 1
%%BoundingBox:    37   180   549   616
%%EndComments

%%BeginProlog
% MathWorks dictionary
/MathWorks 160 dict begin
% definition operators
/bdef {bind def} bind def
/ldef {load def} bind def
/xdef {exch def} bdef
/xstore {exch store} bdef
% operator abbreviations
/c  /clip ldef
/cc /concat ldef
/cp /closepath ldef
/gr /grestore ldef
/gs /gsave ldef
/mt /moveto ldef
/np /newpath ldef
/cm /currentmatrix ldef
/sm /setmatrix ldef
/rm /rmoveto ldef
/rl /rlineto ldef
/s {show newpath} bdef
/sc {setcmykcolor} bdef
/sr /setrgbcolor ldef
/sg /setgray ldef
/w /setlinewidth ldef
/j /setlinejoin ldef
/cap /setlinecap ldef
/rc {rectclip} bdef
/rf {rectfill} bdef
% page state control
/pgsv () def
/bpage {/pgsv save def} bdef
/epage {pgsv restore} bdef
/bplot /gsave ldef
/eplot {stroke grestore} bdef
% orientation switch
/portraitMode 0 def /landscapeMode 1 def /rotateMode 2 def
% coordinate system mappings
/dpi2point 0 def
% font control
/FontSize 0 def
/FMS {/FontSize xstore findfont [FontSize 0 0 FontSize neg 0 0]
  makefont setfont} bdef
/ISOLatin1Encoding where {pop /WindowsLatin1Encoding 256 array bdef
ISOLatin1Encoding WindowsLatin1Encoding copy pop
/.notdef/.notdef/quotesinglbase/florin/quotedblbase/ellipsis/dagger
/daggerdbl/circumflex/perthousand/Scaron/guilsinglleft/OE/.notdef/.notdef
/.notdef/.notdef/quoteleft/quoteright/quotedblleft/quotedblright/bullet
/endash/emdash/tilde/trademark/scaron/guilsinglright/oe/.notdef/.notdef
/Ydieresis WindowsLatin1Encoding 128 32 getinterval astore pop}
{/WindowsLatin1Encoding StandardEncoding bdef} ifelse
/reencode {exch dup where {pop load} {pop StandardEncoding} ifelse
  exch dup 3 1 roll findfont dup length dict begin
  { 1 index /FID ne {def}{pop pop} ifelse } forall
  /Encoding exch def currentdict end definefont pop} bdef
/isroman {findfont /CharStrings get /Agrave known} bdef
/FMSR {3 1 roll 1 index dup isroman {reencode} {pop pop} ifelse
  exch FMS} bdef
/csm {1 dpi2point div -1 dpi2point div scale neg translate
 dup landscapeMode eq {pop -90 rotate}
  {rotateMode eq {90 rotate} if} ifelse} bdef
% line types: solid, dotted, dashed, dotdash
/SO { [] 0 setdash } bdef
/DO { [.5 dpi2point mul 4 dpi2point mul] 0 setdash } bdef
/DA { [6 dpi2point mul] 0 setdash } bdef
/DD { [.5 dpi2point mul 4 dpi2point mul 6 dpi2point mul 4
  dpi2point mul] 0 setdash } bdef
% macros for lines and objects
/L {lineto stroke} bdef
/MP {3 1 roll moveto 1 sub {rlineto} repeat} bdef
/AP {{rlineto} repeat} bdef
/PDlw -1 def
/W {/PDlw currentlinewidth def setlinewidth} def
/PP {closepath eofill} bdef
/DP {closepath stroke} bdef
/MR {4 -2 roll moveto dup  0 exch rlineto exch 0 rlineto
  neg 0 exch rlineto closepath} bdef
/FR {MR stroke} bdef
/PR {MR fill} bdef
/L1i {{currentfile picstr readhexstring pop} image} bdef
/tMatrix matrix def
/MakeOval {newpath tMatrix currentmatrix pop translate scale
0 0 1 0 360 arc tMatrix setmatrix} bdef
/FO {MakeOval stroke} bdef
/PO {MakeOval fill} bdef
/PD {currentlinewidth 2 div 0 360 arc fill
   PDlw -1 eq not {PDlw w /PDlw -1 def} if} def
/FA {newpath tMatrix currentmatrix pop translate scale
  0 0 1 5 -2 roll arc tMatrix setmatrix stroke} bdef
/PA {newpath tMatrix currentmatrix pop	translate 0 0 moveto scale
  0 0 1 5 -2 roll arc closepath tMatrix setmatrix fill} bdef
/FAn {newpath tMatrix currentmatrix pop translate scale
  0 0 1 5 -2 roll arcn tMatrix setmatrix stroke} bdef
/PAn {newpath tMatrix currentmatrix pop translate 0 0 moveto scale
  0 0 1 5 -2 roll arcn closepath tMatrix setmatrix fill} bdef
/vradius 0 def /hradius 0 def /lry 0 def
/lrx 0 def /uly 0 def /ulx 0 def /rad 0 def
/MRR {/vradius xdef /hradius xdef /lry xdef /lrx xdef /uly xdef
  /ulx xdef newpath tMatrix currentmatrix pop ulx hradius add uly
  vradius add translate hradius vradius scale 0 0 1 180 270 arc 
  tMatrix setmatrix lrx hradius sub uly vradius add translate
  hradius vradius scale 0 0 1 270 360 arc tMatrix setmatrix
  lrx hradius sub lry vradius sub translate hradius vradius scale
  0 0 1 0 90 arc tMatrix setmatrix ulx hradius add lry vradius sub
  translate hradius vradius scale 0 0 1 90 180 arc tMatrix setmatrix
  closepath} bdef
/FRR {MRR stroke } bdef
/PRR {MRR fill } bdef
/MlrRR {/lry xdef /lrx xdef /uly xdef /ulx xdef /rad lry uly sub 2 div def
  newpath tMatrix currentmatrix pop ulx rad add uly rad add translate
  rad rad scale 0 0 1 90 270 arc tMatrix setmatrix lrx rad sub lry rad
  sub translate rad rad scale 0 0 1 270 90 arc tMatrix setmatrix
  closepath} bdef
/FlrRR {MlrRR stroke } bdef
/PlrRR {MlrRR fill } bdef
/MtbRR {/lry xdef /lrx xdef /uly xdef /ulx xdef /rad lrx ulx sub 2 div def
  newpath tMatrix currentmatrix pop ulx rad add uly rad add translate
  rad rad scale 0 0 1 180 360 arc tMatrix setmatrix lrx rad sub lry rad
  sub translate rad rad scale 0 0 1 0 180 arc tMatrix setmatrix
  closepath} bdef
/FtbRR {MtbRR stroke } bdef
/PtbRR {MtbRR fill } bdef
/stri 6 array def /dtri 6 array def
/smat 6 array def /dmat 6 array def
/tmat1 6 array def /tmat2 6 array def /dif 3 array def
/asub {/ind2 exch def /ind1 exch def dup dup
  ind1 get exch ind2 get sub exch } bdef
/tri_to_matrix {
  2 0 asub 3 1 asub 4 0 asub 5 1 asub
  dup 0 get exch 1 get 7 -1 roll astore } bdef
/compute_transform {
  dmat dtri tri_to_matrix tmat1 invertmatrix 
  smat stri tri_to_matrix tmat2 concatmatrix } bdef
/ds {stri astore pop} bdef
/dt {dtri astore pop} bdef
/db {2 copy /cols xdef /rows xdef mul dup 3 mul string
  currentfile 
  3 index 0 eq {/ASCIIHexDecode filter}
  {/ASCII85Decode filter 3 index 2 eq {/RunLengthDecode filter} if }
  ifelse exch readstring pop
  dup 0 3 index getinterval /rbmap xdef
  dup 2 index dup getinterval /gbmap xdef
  1 index dup 2 mul exch getinterval /bbmap xdef pop pop}bdef
/it {gs np dtri aload pop moveto lineto lineto cp c
  cols rows 8 compute_transform 
  rbmap gbmap bbmap true 3 colorimage gr}bdef
/il {newpath moveto lineto stroke}bdef
currentdict end def
%%EndProlog

%%BeginSetup
MathWorks begin

0 cap

end
%%EndSetup

%%Page: 1 1
%%BeginPageSetup
%%PageBoundingBox:    37   180   549   616
MathWorks begin
bpage
%%EndPageSetup

%%BeginObject: obj1
bplot

/dpi2point 12 def
portraitMode 0216 7344 csm

  234   -48  6149  5231 rc
85 dict begin %Colortable dictionary
/c0 { 0.000000 0.000000 0.000000 sr} bdef
/c1 { 1.000000 1.000000 1.000000 sr} bdef
/c2 { 0.900000 0.000000 0.000000 sr} bdef
/c3 { 0.000000 0.820000 0.000000 sr} bdef
/c4 { 0.000000 0.000000 0.800000 sr} bdef
/c5 { 0.910000 0.820000 0.320000 sr} bdef
/c6 { 1.000000 0.260000 0.820000 sr} bdef
/c7 { 0.000000 0.820000 0.820000 sr} bdef
c0
1 j
1 sg
   0    0 6919 5187 rf
6 w
0 4202 5362 0 0 -4202 899 4616 4 MP
PP
-5362 0 0 4202 5362 0 0 -4202 899 4616 5 MP stroke
4 w
DO
SO
6 w
0 sg
 899  414 mt 6261  414 L
 899 4616 mt 6261 4616 L
6261 4616 mt 6261  414 L
 899 4616 mt  899  414 L
 899 4616 mt 6261 4616 L
 899 4616 mt  899  414 L
 919 4616 mt  919 4562 L
 919  414 mt  919  467 L
%%IncludeResource: font Helvetica
/Helvetica /WindowsLatin1Encoding 240 FMSR

 713 4873 mt 
(-3) s
1806 4616 mt 1806 4562 L
1806  414 mt 1806  467 L
1600 4873 mt 
(-2) s
2693 4616 mt 2693 4562 L
2693  414 mt 2693  467 L
2487 4873 mt 
(-1) s
3580 4616 mt 3580 4562 L
3580  414 mt 3580  467 L
3514 4873 mt 
(0) s
4466 4616 mt 4466 4562 L
4466  414 mt 4466  467 L
4400 4873 mt 
(1) s
5353 4616 mt 5353 4562 L
5353  414 mt 5353  467 L
5287 4873 mt 
(2) s
6240 4616 mt 6240 4562 L
6240  414 mt 6240  467 L
6174 4873 mt 
(3) s
 899 4599 mt  952 4599 L
6261 4599 mt 6207 4599 L
 591 4688 mt 
(-3) s
 899 3904 mt  952 3904 L
6261 3904 mt 6207 3904 L
 591 3993 mt 
(-2) s
 899 3209 mt  952 3209 L
6261 3209 mt 6207 3209 L
 591 3298 mt 
(-1) s
 899 2514 mt  952 2514 L
6261 2514 mt 6207 2514 L
 731 2603 mt 
(0) s
 899 1820 mt  952 1820 L
6261 1820 mt 6207 1820 L
 731 1909 mt 
(1) s
 899 1125 mt  952 1125 L
6261 1125 mt 6207 1125 L
 731 1214 mt 
(2) s
 899  430 mt  952  430 L
6261  430 mt 6207  430 L
 731  519 mt 
(3) s
 899  414 mt 6261  414 L
 899 4616 mt 6261 4616 L
6261 4616 mt 6261  414 L
 899 4616 mt  899  414 L
gs 899 414 5363 4203 rc
gr

/c8 { 0.000000 0.000000 1.000000 sr} bdef
c8
4047  898 mt 4119  898 L
4083  862 mt 4083  934 L
2523 2787 mt 2595 2787 L
2559 2751 mt 2559 2823 L
3915 3553 mt 3987 3553 L
3951 3517 mt 3951 3589 L
3571 3503 mt 3643 3503 L
3607 3467 mt 3607 3539 L
3605 3000 mt 3677 3000 L
3641 2964 mt 3641 3036 L
2085 3322 mt 2157 3322 L
2121 3286 mt 2121 3358 L
1766 4131 mt 1838 4131 L
1802 4095 mt 1802 4167 L
3538 3625 mt 3610 3625 L
3574 3589 mt 3574 3661 L
3599 3942 mt 3671 3942 L
3635 3906 mt 3635 3978 L
5024 2185 mt 5096 2185 L
5060 2149 mt 5060 2221 L
2844 2835 mt 2916 2835 L
2880 2799 mt 2880 2871 L
2732 2214 mt 2804 2214 L
2768 2178 mt 2768 2250 L
2805 2329 mt 2877 2329 L
2841 2293 mt 2841 2365 L
3432 1872 mt 3504 1872 L
3468 1836 mt 3468 1908 L
3977 2668 mt 4049 2668 L
4013 2632 mt 4013 2704 L
4282 1583 mt 4354 1583 L
4318 1547 mt 4318 1619 L
1876  824 mt 1948  824 L
1912  788 mt 1912  860 L
3443 2920 mt 3515 2920 L
3479 2884 mt 3479 2956 L
2368 3331 mt 2440 3331 L
2404 3295 mt 2404 3367 L
4553 2288 mt 4625 2288 L
4589 2252 mt 4589 2324 L
2896 3908 mt 2968 3908 L
2932 3872 mt 2932 3944 L
2126 2894 mt 2198 2894 L
2162 2858 mt 2162 2930 L
3867 2655 mt 3939 2655 L
3903 2619 mt 3903 2691 L
3033 2673 mt 3105 2673 L
3069 2637 mt 3069 2709 L
4922 1885 mt 4994 1885 L
4958 1849 mt 4958 1921 L
3762 2597 mt 3834 2597 L
3798 2561 mt 3798 2633 L
2781 2180 mt 2853 2180 L
2817 2144 mt 2817 2216 L
3971 3491 mt 4043 3491 L
4007 3455 mt 4007 3527 L
3190 3306 mt 3262 3306 L
3226 3270 mt 3226 3342 L
4574 2956 mt 4646 2956 L
4610 2920 mt 4610 2992 L
3278 3206 mt 3350 3206 L
3314 3170 mt 3314 3242 L
3184 2859 mt 3256 2859 L
3220 2823 mt 3220 2895 L
3774 2545 mt 3846 2545 L
3810 2509 mt 3810 2581 L
4760 2388 mt 4832 2388 L
4796 2352 mt 4796 2424 L
1937 2554 mt 2009 2554 L
1973 2518 mt 1973 2590 L
3290 2541 mt 3362 2541 L
3326 2505 mt 3326 2577 L
4322 3376 mt 4394 3376 L
4358 3340 mt 4358 3412 L
4121 2935 mt 4193 2935 L
4157 2899 mt 4157 2971 L
1907 1930 mt 1979 1930 L
1943 1894 mt 1943 1966 L
2251 2018 mt 2323 2018 L
2287 1982 mt 2287 2054 L
2165 2532 mt 2237 2532 L
2201 2496 mt 2201 2568 L
3594 2736 mt 3666 2736 L
3630 2700 mt 3630 2772 L
3454 2012 mt 3526 2012 L
3490 1976 mt 3490 2048 L
3677 2057 mt 3749 2057 L
3713 2021 mt 3713 2093 L
5828 2849 mt 5900 2849 L
5864 2813 mt 5864 2885 L
3672 3567 mt 3744 3567 L
3708 3531 mt 3708 3603 L
3085 1794 mt 3157 1794 L
3121 1758 mt 3121 1830 L
4330 2646 mt 4402 2646 L
4366 2610 mt 4366 2682 L
3110 2275 mt 3182 2275 L
3146 2239 mt 3146 2311 L
2298 3151 mt 2370 3151 L
2334 3115 mt 2334 3187 L
3838 1936 mt 3910 1936 L
3874 1900 mt 3874 1972 L
4021 2189 mt 4093 2189 L
4057 2153 mt 4057 2225 L
3946 3069 mt 4018 3069 L
3982 3033 mt 3982 3105 L
3160 2501 mt 3232 2501 L
3196 2465 mt 3196 2537 L
4100 1643 mt 4172 1643 L
4136 1607 mt 4136 1679 L
3232 2410 mt 3304 2410 L
3268 2374 mt 3268 2446 L
3521 2233 mt 3593 2233 L
3557 2197 mt 3557 2269 L
2993 3106 mt 3065 3106 L
3029 3070 mt 3029 3142 L
4243 2356 mt 4315 2356 L
4279 2320 mt 4279 2392 L
3850 3022 mt 3922 3022 L
3886 2986 mt 3886 3058 L
3633 2423 mt 3705 2423 L
3669 2387 mt 3669 2459 L
4228 1434 mt 4300 1434 L
4264 1398 mt 4264 1470 L
4522 2695 mt 4594 2695 L
4558 2659 mt 4558 2731 L
4444 2606 mt 4516 2606 L
4480 2570 mt 4480 2642 L
4080 3281 mt 4152 3281 L
4116 3245 mt 4116 3317 L
3243 2682 mt 3315 2682 L
3279 2646 mt 3279 2718 L
4135 1526 mt 4207 1526 L
4171 1490 mt 4171 1562 L
4094 2806 mt 4166 2806 L
4130 2770 mt 4130 2842 L
3336 2796 mt 3408 2796 L
3372 2760 mt 3372 2832 L
3342 3446 mt 3414 3446 L
3378 3410 mt 3378 3482 L
4149 2889 mt 4221 2889 L
4185 2853 mt 4185 2925 L
3505 3386 mt 3577 3386 L
3541 3350 mt 3541 3422 L
3516 3395 mt 3588 3395 L
3552 3359 mt 3552 3431 L
2723 2338 mt 2795 2338 L
2759 2302 mt 2759 2374 L
2456 2930 mt 2528 2930 L
2492 2894 mt 2492 2966 L
2874 2135 mt 2946 2135 L
2910 2099 mt 2910 2171 L
5413 3731 mt 5485 3731 L
5449 3695 mt 5449 3767 L
2444 3797 mt 2516 3797 L
2480 3761 mt 2480 3833 L
2789 2432 mt 2861 2432 L
2825 2396 mt 2825 2468 L
4416 2750 mt 4488 2750 L
4452 2714 mt 4452 2786 L
4002 1972 mt 4074 1972 L
4038 1936 mt 4038 2008 L
2513 3980 mt 2585 3980 L
2549 3944 mt 2549 4016 L
3768 2293 mt 3840 2293 L
3804 2257 mt 3804 2329 L
3814 3711 mt 3886 3711 L
3850 3675 mt 3850 3747 L
5468 1593 mt 5540 1593 L
5504 1557 mt 5504 1629 L
3059 3093 mt 3131 3093 L
3095 3057 mt 3095 3129 L
3072 3191 mt 3144 3191 L
3108 3155 mt 3108 3227 L
4886 2130 mt 4958 2130 L
4922 2094 mt 4922 2166 L
3527 3178 mt 3599 3178 L
3563 3142 mt 3563 3214 L
3078 1942 mt 3150 1942 L
3114 1906 mt 3114 1978 L
4532 2519 mt 4604 2519 L
4568 2483 mt 4568 2555 L
4364 3273 mt 4436 3273 L
4400 3237 mt 4400 3309 L
2797 2298 mt 2869 2298 L
2833 2262 mt 2833 2334 L
4347 1715 mt 4419 1715 L
4383 1679 mt 4383 1751 L
3153 2700 mt 3225 2700 L
3189 2664 mt 3189 2736 L
2634 2343 mt 2706 2343 L
2670 2307 mt 2670 2379 L
3983 2994 mt 4055 2994 L
4019 2958 mt 4019 3030 L
4631 3137 mt 4703 3137 L
4667 3101 mt 4667 3173 L
4961 2199 mt 5033 2199 L
4997 2163 mt 4997 2235 L
3616 3581 mt 3688 3581 L
3652 3545 mt 3652 3617 L
3020  414 mt 3092  414 L
3056  378 mt 3056  450 L
2575 2445 mt 2647 2445 L
2611 2409 mt 2611 2481 L
3261 2109 mt 3333 2109 L
3297 2073 mt 3297 2145 L
3319 3118 mt 3391 3118 L
3355 3082 mt 3355 3154 L
3855 1917 mt 3927 1917 L
3891 1881 mt 3891 1953 L
3007 2641 mt 3079 2641 L
3043 2605 mt 3043 2677 L
3066 2536 mt 3138 2536 L
3102 2500 mt 3102 2572 L
4512 2046 mt 4584 2046 L
4548 2010 mt 4548 2082 L
2327 2611 mt 2399 2611 L
2363 2575 mt 2363 2647 L
1674 3774 mt 1746 3774 L
1710 3738 mt 1710 3810 L
5606 2497 mt 5678 2497 L
5642 2461 mt 5642 2533 L
3267 3752 mt 3339 3752 L
3303 3716 mt 3303 3788 L
2586 1680 mt 2658 1680 L
2622 1644 mt 2622 1716 L
3891 2223 mt 3963 2223 L
3927 2187 mt 3927 2259 L
3897 3087 mt 3969 3087 L
3933 3051 mt 3933 3123 L
1965 2589 mt 2037 2589 L
2001 2553 mt 2001 2625 L
3172 2983 mt 3244 2983 L
3208 2947 mt 3208 3019 L
1259 2320 mt 1331 2320 L
1295 2284 mt 1295 2356 L
3661 3250 mt 3733 3250 L
3697 3214 mt 3697 3286 L
3694 2265 mt 3766 2265 L
3730 2229 mt 3730 2301 L
3477 3017 mt 3549 3017 L
3513 2981 mt 3513 3053 L
2973 2440 mt 3045 2440 L
3009 2404 mt 3009 2476 L
3141 2820 mt 3213 2820 L
3177 2784 mt 3177 2856 L
2945 1984 mt 3017 1984 L
2981 1948 mt 2981 2020 L
3196 1764 mt 3268 1764 L
3232 1728 mt 3232 1800 L
2555 2754 mt 2627 2754 L
2591 2718 mt 2591 2790 L
3510 2951 mt 3582 2951 L
3546 2915 mt 3546 2987 L
3482 2778 mt 3554 2778 L
3518 2742 mt 3518 2814 L
3717 2815 mt 3789 2815 L
3753 2779 mt 3753 2851 L
4266 2768 mt 4338 2768 L
4302 2732 mt 4302 2804 L
4643 3045 mt 4715 3045 L
4679 3009 mt 4679 3081 L
4314 1502 mt 4386 1502 L
4350 1466 mt 4350 1538 L
3381 2884 mt 3453 2884 L
3417 2848 mt 3417 2920 L
3116 2401 mt 3188 2401 L
3152 2365 mt 3152 2437 L
4184 2844 mt 4256 2844 L
4220 2808 mt 4220 2880 L
3135 2528 mt 3207 2528 L
3171 2492 mt 3171 2564 L
3284 2722 mt 3356 2722 L
3320 2686 mt 3320 2758 L
4034 2549 mt 4106 2549 L
4070 2513 mt 4070 2585 L
1805 1371 mt 1877 1371 L
1841 1335 mt 1841 1407 L
1842 2727 mt 1914 2727 L
1878 2691 mt 1878 2763 L
3237 3425 mt 3309 3425 L
3273 3389 mt 3273 3461 L
4355 2170 mt 4427 2170 L
4391 2134 mt 4391 2206 L
5047 3848 mt 5119 3848 L
5083 3812 mt 5083 3884 L
4067 2462 mt 4139 2462 L
4103 2426 mt 4103 2498 L
3832 2686 mt 3904 2686 L
3868 2650 mt 3868 2722 L
4542 2677 mt 4614 2677 L
4578 2641 mt 4578 2713 L
3178 1404 mt 3250 1404 L
3214 1368 mt 3214 1440 L
4619 1476 mt 4691 1476 L
4655 1440 mt 4655 1512 L
5180 2237 mt 5252 2237 L
5216 2201 mt 5216 2273 L
4041 1604 mt 4113 1604 L
4077 1568 mt 4077 1640 L
5245 3468 mt 5317 3468 L
5281 3432 mt 5281 3504 L
3220 2506 mt 3292 2506 L
3256 2470 mt 3256 2542 L
3104 3658 mt 3176 3658 L
3140 3622 mt 3140 3694 L
4156 2204 mt 4228 2204 L
4192 2168 mt 4192 2240 L
4667 1207 mt 4739 1207 L
4703 1171 mt 4703 1243 L
4564 2593 mt 4636 2593 L
4600 2557 mt 4600 2629 L
2959 2825 mt 3031 2825 L
2995 2789 mt 2995 2861 L
2671 1689 mt 2743 1689 L
2707 1653 mt 2707 1725 L
3226 2370 mt 3298 2370 L
3262 2334 mt 3262 2406 L
4221 4205 mt 4293 4205 L
4257 4169 mt 4257 4241 L
3627 4305 mt 3699 4305 L
3663 4269 mt 3663 4341 L
2643 2418 mt 2715 2418 L
2679 2382 mt 2679 2454 L
2312 2709 mt 2384 2709 L
2348 2673 mt 2348 2745 L
3330 2334 mt 3402 2334 L
3366 2298 mt 3366 2370 L
3560 2989 mt 3632 2989 L
3596 2953 mt 3596 3025 L
2888 2284 mt 2960 2284 L
2924 2248 mt 2924 2320 L
4472 1756 mt 4544 1756 L
4508 1720 mt 4508 1792 L
2490 2414 mt 2562 2414 L
2526 2378 mt 2526 2450 L
2341 3164 mt 2413 3164 L
2377 3128 mt 2377 3200 L
2938 2449 mt 3010 2449 L
2974 2413 mt 2974 2485 L
2773 1255 mt 2845 1255 L
2809 1219 mt 2809 1291 L
3466 2125 mt 3538 2125 L
3502 2089 mt 3502 2161 L
3780 2311 mt 3852 2311 L
3816 2275 mt 3816 2347 L
3809 3693 mt 3881 3693 L
3845 3657 mt 3845 3729 L
3370 2145 mt 3442 2145 L
3406 2109 mt 3406 2181 L
1481 3171 mt 1553 3171 L
1517 3135 mt 1517 3207 L
3296 2261 mt 3368 2261 L
3332 2225 mt 3332 2297 L
4398 2830 mt 4470 2830 L
4434 2794 mt 4434 2866 L
3415 2251 mt 3487 2251 L
3451 2215 mt 3451 2287 L
3449 3415 mt 3521 3415 L
3485 3379 mt 3485 3451 L
3740 2007 mt 3812 2007 L
3776 1971 mt 3776 2043 L
5211 2160 mt 5283 2160 L
5247 2124 mt 5247 2196 L
4372 1634 mt 4444 1634 L
4408 1598 mt 4408 1670 L
2624 2615 mt 2696 2615 L
2660 2579 mt 2660 2651 L
4608 2664 mt 4680 2664 L
4644 2628 mt 4644 2700 L
4015 3184 mt 4087 3184 L
4051 3148 mt 4051 3220 L
3582 3515 mt 3654 3515 L
3618 3479 mt 3618 3551 L
2565 2811 mt 2637 2811 L
2601 2775 mt 2601 2847 L
4775 1448 mt 4847 1448 L
4811 1412 mt 4811 1484 L
2689 1851 mt 2761 1851 L
2725 1815 mt 2725 1887 L
3549 1831 mt 3621 1831 L
3585 1795 mt 3585 1867 L
4655 3220 mt 4727 3220 L
4691 3184 mt 4691 3256 L
3577 2514 mt 3649 2514 L
3613 2478 mt 3613 2550 L
2987 3112 mt 3059 3112 L
3023 3076 mt 3023 3148 L
3202 3257 mt 3274 3257 L
3238 3221 mt 3238 3293 L
4009 1049 mt 4081 1049 L
4045 1013 mt 4045 1085 L
2381 2073 mt 2453 2073 L
2417 2037 mt 2417 2109 L
3734 1462 mt 3806 1462 L
3770 1426 mt 3770 1498 L
2063 3005 mt 2135 3005 L
2099 2969 mt 2099 3041 L
2757 2379 mt 2829 2379 L
2793 2343 mt 2793 2415 L
3861  724 mt 3933  724 L
3897  688 mt 3897  760 L
2828 1653 mt 2900 1653 L
2864 1617 mt 2864 1689 L
4820 2925 mt 4892 2925 L
4856 2889 mt 4856 2961 L
3438 2361 mt 3510 2361 L
3474 2325 mt 3474 2397 L
3879 3028 mt 3951 3028 L
3915 2992 mt 3915 3064 L
2652 1858 mt 2724 1858 L
2688 1822 mt 2688 1894 L
2749 2637 mt 2821 2637 L
2785 2601 mt 2785 2673 L
4142 1904 mt 4214 1904 L
4178 1868 mt 4178 1940 L
3757 3039 mt 3829 3039 L
3793 3003 mt 3793 3075 L
4805 1671 mt 4877 1671 L
4841 1635 mt 4841 1707 L
2931 2967 mt 3003 2967 L
2967 2931 mt 2967 3003 L
2106 2558 mt 2178 2558 L
2142 2522 mt 2142 2594 L
3123 2773 mt 3195 2773 L
3159 2737 mt 3159 2809 L
3655 1006 mt 3727 1006 L
3691  970 mt 3691 1042 L
3426 3527 mt 3498 3527 L
3462 3491 mt 3462 3563 L
4746 1087 mt 4818 1087 L
4782 1051 mt 4782 1123 L
2218  957 mt 2290  957 L
2254  921 mt 2254  993 L
2697 2405 mt 2769 2405 L
2733 2369 mt 2733 2441 L
2183 2436 mt 2255 2436 L
2219 2400 mt 2219 2472 L
4191 2115 mt 4263 2115 L
4227 2079 mt 4227 2151 L
3359 2962 mt 3431 2962 L
3395 2926 mt 3395 2998 L
2924 2089 mt 2996 2089 L
2960 2053 mt 2960 2125 L
4060 2352 mt 4132 2352 L
4096 2316 mt 4096 2388 L
3471 3081 mt 3543 3081 L
3507 3045 mt 3507 3117 L
3751 2062 mt 3823 2062 L
3787 2026 mt 3787 2098 L
3214 2347 mt 3286 2347 L
3250 2311 mt 3250 2383 L
2881 2792 mt 2953 2792 L
2917 2756 mt 2917 2828 L
3621 1892 mt 3693 1892 L
3657 1856 mt 3657 1928 L
2813 2972 mt 2885 2972 L
2849 2936 mt 2849 3008 L
3921 2316 mt 3993 2316 L
3957 2280 mt 3957 2352 L
2355 2024 mt 2427 2024 L
2391 1988 mt 2391 2060 L
3410 2840 mt 3482 2840 L
3446 2804 mt 3446 2876 L
4199 3227 mt 4271 3227 L
4235 3191 mt 4235 3263 L
5096 1865 mt 5168 1865 L
5132 1829 mt 5132 1901 L
3555 3099 mt 3627 3099 L
3591 3063 mt 3591 3135 L
 863 3675 mt  935 3675 L
 899 3639 mt  899 3711 L
4306 2602 mt 4378 2602 L
4342 2566 mt 4342 2638 L
4706 1624 mt 4778 1624 L
4742 1588 mt 4742 1660 L
2267 1772 mt 2339 1772 L
2303 1736 mt 2303 1808 L
2910 2471 mt 2982 2471 L
2946 2435 mt 2946 2507 L
2851 2035 mt 2923 2035 L
2887 1999 mt 2887 2071 L
3927 2040 mt 3999 2040 L
3963 2004 mt 3963 2076 L
3934 2571 mt 4006 2571 L
3970 2535 mt 3970 2607 L
4381 3289 mt 4453 3289 L
4417 3253 mt 4417 3325 L
6225 2704 mt 6297 2704 L
6261 2668 mt 6261 2740 L
3313 2899 mt 3385 2899 L
3349 2863 mt 3349 2935 L
3711 1298 mt 3783 1298 L
3747 1262 mt 3747 1334 L
4719 3198 mt 4791 3198 L
4755 3162 mt 4755 3234 L
3989 1898 mt 4061 1898 L
4025 1862 mt 4025 1934 L
3638 3314 mt 3710 3314 L
3674 3278 mt 3674 3350 L
3706 2104 mt 3778 2104 L
3742 2068 mt 3742 2140 L
4170 1978 mt 4242 1978 L
4206 1942 mt 4206 2014 L
4407 2978 mt 4479 2978 L
4443 2942 mt 4443 3014 L
2479 2759 mt 2551 2759 L
2515 2723 mt 2515 2795 L
3820 2150 mt 3892 2150 L
3856 2114 mt 3856 2186 L
3826 2001 mt 3898 2001 L
3862 1965 mt 3862 2037 L
3053 3641 mt 3125 3641 L
3089 3605 mt 3089 3677 L
2662 2567 mt 2734 2567 L
2698 2531 mt 2698 2603 L
4274 1838 mt 4346 1838 L
4310 1802 mt 4310 1874 L
3683 2325 mt 3755 2325 L
3719 2289 mt 3719 2361 L
3488 2475 mt 3560 2475 L
3524 2439 mt 3524 2511 L
4597 1779 mt 4669 1779 L
4633 1743 mt 4633 1815 L
4206 3125 mt 4278 3125 L
4242 3089 mt 4242 3161 L
5002 2628 mt 5074 2628 L
5038 2592 mt 5038 2664 L
1387 2745 mt 1459 2745 L
1423 2709 mt 1423 2781 L
2980 3063 mt 3052 3063 L
3016 3027 mt 3016 3099 L
3353 2155 mt 3425 2155 L
3389 2119 mt 3389 2191 L
4425 1960 mt 4497 1960 L
4461 1924 mt 4461 1996 L
3544 4023 mt 3616 4023 L
3580 3987 mt 3580 4059 L
4163 2624 mt 4235 2624 L
4199 2588 mt 4199 2660 L
4732 2242 mt 4804 2242 L
4768 2206 mt 4768 2278 L
1991 2218 mt 2063 2218 L
2027 2182 mt 2027 2254 L
4501 2584 mt 4573 2584 L
4537 2548 mt 4537 2620 L
3046 4616 mt 3118 4616 L
3082 4580 mt 3082 4652 L
2615 2946 mt 2687 2946 L
2651 2910 mt 2651 2982 L
2859 2302 mt 2931 2302 L
2895 2266 mt 2895 2338 L
5531 2467 mt 5603 2467 L
5567 2431 mt 5567 2503 L
3129 2562 mt 3201 2562 L
3165 2526 mt 3165 2598 L
3249 3349 mt 3321 3349 L
3285 3313 mt 3285 3385 L
4453 3297 mt 4525 3297 L
4489 3261 mt 4489 3333 L
4298 1948 mt 4370 1948 L
4334 1912 mt 4334 1984 L
2420 3595 mt 2492 3595 L
2456 3559 mt 2456 3631 L
3797 1787 mt 3869 1787 L
3833 1751 mt 3833 1823 L
4482 2523 mt 4554 2523 L
4518 2487 mt 4518 2559 L
5282 1232 mt 5354 1232 L
5318 1196 mt 5318 1268 L
3532 3131 mt 3604 3131 L
3568 3095 mt 3568 3167 L
3499 2493 mt 3571 2493 L
3535 2457 mt 3535 2529 L
5071 1954 mt 5143 1954 L
5107 1918 mt 5107 1990 L
2821 2909 mt 2893 2909 L
2857 2873 mt 2857 2945 L
3649 2396 mt 3721 2396 L
3685 2360 mt 3685 2432 L
4941 2099 mt 5013 2099 L
4977 2063 mt 4977 2135 L
4054 2914 mt 4126 2914 L
4090 2878 mt 4090 2950 L
2502 2633 mt 2574 2633 L
2538 2597 mt 2538 2669 L
4693 1277 mt 4765 1277 L
4729 1241 mt 4729 1313 L
3040 2854 mt 3112 2854 L
3076 2818 mt 3076 2890 L
2201 3457 mt 2273 3457 L
2237 3421 mt 2237 3493 L
4213 2904 mt 4285 2904 L
4249 2868 mt 4249 2940 L
4904 2374 mt 4976 2374 L
4940 2338 mt 4940 2410 L
4869 3479 mt 4941 3479 L
4905 3443 mt 4905 3515 L
3460 2764 mt 3532 2764 L
3496 2728 mt 3496 2800 L
2706  564 mt 2778  564 L
2742  528 mt 2742  600 L
3027 3075 mt 3099 3075 L
3063 3039 mt 3063 3111 L
3785 1514 mt 3857 1514 L
3821 1478 mt 3821 1550 L
3689 2383 mt 3761 2383 L
3725 2347 mt 3725 2419 L
3700 2392 mt 3772 2392 L
3736 2356 mt 3736 2428 L
2016 2307 mt 2088 2307 L
2052 2271 mt 2052 2343 L
3728 2051 mt 3800 2051 L
3764 2015 mt 3764 2087 L
4290 1572 mt 4362 1572 L
4326 1536 mt 4326 1608 L
2407 3157 mt 2479 3157 L
2443 3121 mt 2443 3193 L
3421 2619 mt 3493 2619 L
3457 2583 mt 3457 2655 L
6033 1388 mt 6105 1388 L
6069 1352 mt 6069 1424 L
2534 2029 mt 2606 2029 L
2570 1993 mt 2570 2065 L
2146 1698 mt 2218 1698 L
2182 1662 mt 2182 1734 L
3387 1911 mt 3459 1911 L
3423 1875 mt 3423 1947 L
3964 2874 mt 4036 2874 L
4000 2838 mt 4000 2910 L
2740 2488 mt 2812 2488 L
2776 2452 mt 2776 2524 L
3302 2175 mt 3374 2175 L
3338 2139 mt 3338 2211 L
3644 1816 mt 3716 1816 L
3680 1780 mt 3680 1852 L
3666 2580 mt 3738 2580 L
3702 2544 mt 3702 2616 L
3273 2741 mt 3345 2741 L
3309 2705 mt 3309 2777 L
3307 3358 mt 3379 3358 L
3343 3322 mt 3343 3394 L
3098 1990 mt 3170 1990 L
3134 1954 mt 3134 2026 L
3610 2165 mt 3682 2165 L
3646 2129 mt 3646 2201 L
2282 1966 mt 2354 1966 L
2318 1930 mt 2318 2002 L
3255 1354 mt 3327 1354 L
3291 1318 mt 3291 1390 L
3347 2458 mt 3419 2458 L
3383 2422 mt 3383 2494 L
4251 2427 mt 4323 2427 L
4287 2391 mt 4287 2463 L
3745 3367 mt 3817 3367 L
3781 3331 mt 3781 3403 L
3566 2228 mt 3638 2228 L
3602 2192 mt 3602 2264 L
4074 2120 mt 4146 2120 L
4110 2084 mt 4110 2156 L
5150 2247 mt 5222 2247 L
5186 2211 mt 5186 2283 L
4259 1561 mt 4331 1561 L
4295 1525 mt 4295 1597 L
3873 2940 mt 3945 2940 L
3909 2904 mt 3909 2976 L
3404 2510 mt 3476 2510 L
3440 2474 mt 3440 2546 L
4492 2094 mt 4564 2094 L
4528 2058 mt 4528 2130 L
1619 1809 mt 1691 1809 L
1655 1773 mt 1655 1845 L
3803 3877 mt 3875 3877 L
3839 3841 mt 3839 3913 L
3588 1740 mt 3660 1740 L
3624 1704 mt 3624 1776 L
2235 1707 mt 2307 1707 L
2271 1671 mt 2271 1743 L
2432 3011 mt 2504 3011 L
2468 2975 mt 2468 3047 L
1556 2209 mt 1628 2209 L
1592 2173 mt 1592 2245 L
4128 1748 mt 4200 1748 L
4164 1712 mt 4164 1784 L
5365 3340 mt 5437 3340 L
5401 3304 mt 5401 3376 L
3996 2713 mt 4068 2713 L
4032 2677 mt 4032 2749 L
3885 2083 mt 3957 2083 L
3921 2047 mt 3921 2119 L
3723 3213 mt 3795 3213 L
3759 3177 mt 3759 3249 L
3844 1878 mt 3916 1878 L
3880 1842 mt 3880 1914 L
4463 1923 mt 4535 1923 L
4499 1887 mt 4499 1959 L
4852 1538 mt 4924 1538 L
4888 1502 mt 4888 1574 L
3958 1662 mt 4030 1662 L
3994 1626 mt 3994 1698 L
5700 3436 mt 5772 3436 L
5736 3400 mt 5736 3472 L
3147 2801 mt 3219 2801 L
3183 2765 mt 3183 2837 L
2394 2256 mt 2466 2256 L
2430 2220 mt 2430 2292 L
2917 3610 mt 2989 3610 L
2953 3574 mt 2953 3646 L
4338 1181 mt 4410 1181 L
4374 1145 mt 4374 1217 L
4114 2453 mt 4186 2453 L
4150 2417 mt 4150 2489 L
3909 2365 mt 3981 2365 L
3945 2329 mt 3945 2401 L
3398 1318 mt 3470 1318 L
3434 1282 mt 3434 1354 L
3000 3235 mt 3072 3235 L
3036 3199 mt 3036 3271 L
4435 3405 mt 4507 3405 L
4471 3369 mt 4471 3441 L
3166 3144 mt 3238 3144 L
3202 3108 mt 3202 3180 L
2545 3242 mt 2617 3242 L
2581 3206 mt 2581 3278 L
3208 2279 mt 3280 2279 L
3244 2243 mt 3244 2315 L
3091 1802 mt 3163 1802 L
3127 1766 mt 3127 1838 L
2952 2270 mt 3024 2270 L
2988 2234 mt 2988 2306 L
2866 1823 mt 2938 1823 L
2902 1787 mt 2902 1859 L
4680 2691 mt 4752 2691 L
4716 2655 mt 4716 2727 L
2040 2659 mt 2112 2659 L
2076 2623 mt 2076 2695 L
2468 2864 mt 2540 2864 L
2504 2828 mt 2504 2900 L
3393 1995 mt 3465 1995 L
3429 1959 mt 3429 2031 L
3376 1152 mt 3448 1152 L
3412 1116 mt 3412 1188 L
4107 2782 mt 4179 2782 L
4143 2746 mt 4143 2818 L
3940 2879 mt 4012 2879 L
3976 2843 mt 3976 2915 L
4236 2650 mt 4308 2650 L
4272 2614 mt 4272 2686 L
3952 1732 mt 4024 1732 L
3988 1696 mt 3988 1768 L
3364 2576 mt 3436 2576 L
3400 2540 mt 3400 2612 L
2605 1845 mt 2677 1845 L
2641 1809 mt 2641 1881 L
4789 2078 mt 4861 2078 L
4825 2042 mt 4825 2114 L
4028 2480 mt 4100 2480 L
4064 2444 mt 4064 2516 L
1722 2869 mt 1794 2869 L
1758 2833 mt 1758 2905 L
3791 1550 mt 3863 1550 L
3827 1514 mt 3827 1586 L
4981 1614 mt 5053 1614 L
5017 1578 mt 5017 1650 L
5122 1723 mt 5194 1723 L
5158 1687 mt 5158 1759 L
2680 3265 mt 2752 3265 L
2716 3229 mt 2716 3301 L
5321 2194 mt 5393 2194 L
5357 2158 mt 5357 2230 L
4177 3034 mt 4249 3034 L
4213 2998 mt 4213 3070 L
4585 2484 mt 4657 2484 L
4621 2448 mt 4621 2520 L
2595 2718 mt 2667 2718 L
2631 2682 mt 2631 2754 L
4087 1419 mt 4159 1419 L
4123 1383 mt 4123 1455 L
3325 2140 mt 3397 2140 L
3361 2104 mt 3361 2176 L
4390 1336 mt 4462 1336 L
4426 1300 mt 4426 1372 L
4836 3051 mt 4908 3051 L
4872 3015 mt 4872 3087 L
3013 2067 mt 3085 2067 L
3049 2031 mt 3049 2103 L
2765 3057 mt 2837 3057 L
2801 3021 mt 2801 3093 L
3493 4072 mt 3565 4072 L
3529 4036 mt 3529 4108 L
3903 1121 mt 3975 1121 L
3939 1085 mt 3939 1157 L
2715 2731 mt 2787 2731 L
2751 2695 mt 2751 2767 L
2966 1489 mt 3038 1489 L
3002 1453 mt 3002 1525 L
2903 3540 mt 2975 3540 L
2939 3504 mt 2939 3576 L
2836 3822 mt 2908 3822 L
2872 3786 mt 2872 3858 L
gs 899 414 5363 4203 rc
gr

0 sg
2775 5104 mt 
(\(F,DCTb,GMM\)) s
 482 3343 mt  -90 rotate
(\(S,LFCC,GMM\)) s
90 rotate
2975  223 mt 
(Corr = 0.11) s

end %%Color Dict

eplot
%%EndObject

epage
end

showpage

%%Trailer
%%EOF
