%!PS-Adobe-3.0 EPSF-3.0
%%Creator: MATLAB, The Mathworks, Inc. Version 7.7.0.471 (R2008b). Operating System: Microsoft Windows XP.
%%Title: Pictures\main_zoo_mvar_analysis_data_BMI_xcorr_bmi_p1_k1_2_3.eps
%%CreationDate: 10/26/2009  05:43:54
%%DocumentNeededFonts: Helvetica
%%DocumentProcessColors: Cyan Magenta Yellow Black
%%LanguageLevel: 2
%%Pages: 1
%%BoundingBox:    32   180   549   616
%%EndComments

%%BeginProlog
% MathWorks dictionary
/MathWorks 160 dict begin
% definition operators
/bdef {bind def} bind def
/ldef {load def} bind def
/xdef {exch def} bdef
/xstore {exch store} bdef
% operator abbreviations
/c  /clip ldef
/cc /concat ldef
/cp /closepath ldef
/gr /grestore ldef
/gs /gsave ldef
/mt /moveto ldef
/np /newpath ldef
/cm /currentmatrix ldef
/sm /setmatrix ldef
/rm /rmoveto ldef
/rl /rlineto ldef
/s {show newpath} bdef
/sc {setcmykcolor} bdef
/sr /setrgbcolor ldef
/sg /setgray ldef
/w /setlinewidth ldef
/j /setlinejoin ldef
/cap /setlinecap ldef
/rc {rectclip} bdef
/rf {rectfill} bdef
% page state control
/pgsv () def
/bpage {/pgsv save def} bdef
/epage {pgsv restore} bdef
/bplot /gsave ldef
/eplot {stroke grestore} bdef
% orientation switch
/portraitMode 0 def /landscapeMode 1 def /rotateMode 2 def
% coordinate system mappings
/dpi2point 0 def
% font control
/FontSize 0 def
/FMS {/FontSize xstore findfont [FontSize 0 0 FontSize neg 0 0]
  makefont setfont} bdef
/ISOLatin1Encoding where {pop /WindowsLatin1Encoding 256 array bdef
ISOLatin1Encoding WindowsLatin1Encoding copy pop
/.notdef/.notdef/quotesinglbase/florin/quotedblbase/ellipsis/dagger
/daggerdbl/circumflex/perthousand/Scaron/guilsinglleft/OE/.notdef/.notdef
/.notdef/.notdef/quoteleft/quoteright/quotedblleft/quotedblright/bullet
/endash/emdash/tilde/trademark/scaron/guilsinglright/oe/.notdef/.notdef
/Ydieresis WindowsLatin1Encoding 128 32 getinterval astore pop}
{/WindowsLatin1Encoding StandardEncoding bdef} ifelse
/reencode {exch dup where {pop load} {pop StandardEncoding} ifelse
  exch dup 3 1 roll findfont dup length dict begin
  { 1 index /FID ne {def}{pop pop} ifelse } forall
  /Encoding exch def currentdict end definefont pop} bdef
/isroman {findfont /CharStrings get /Agrave known} bdef
/FMSR {3 1 roll 1 index dup isroman {reencode} {pop pop} ifelse
  exch FMS} bdef
/csm {1 dpi2point div -1 dpi2point div scale neg translate
 dup landscapeMode eq {pop -90 rotate}
  {rotateMode eq {90 rotate} if} ifelse} bdef
% line types: solid, dotted, dashed, dotdash
/SO { [] 0 setdash } bdef
/DO { [.5 dpi2point mul 4 dpi2point mul] 0 setdash } bdef
/DA { [6 dpi2point mul] 0 setdash } bdef
/DD { [.5 dpi2point mul 4 dpi2point mul 6 dpi2point mul 4
  dpi2point mul] 0 setdash } bdef
% macros for lines and objects
/L {lineto stroke} bdef
/MP {3 1 roll moveto 1 sub {rlineto} repeat} bdef
/AP {{rlineto} repeat} bdef
/PDlw -1 def
/W {/PDlw currentlinewidth def setlinewidth} def
/PP {closepath eofill} bdef
/DP {closepath stroke} bdef
/MR {4 -2 roll moveto dup  0 exch rlineto exch 0 rlineto
  neg 0 exch rlineto closepath} bdef
/FR {MR stroke} bdef
/PR {MR fill} bdef
/L1i {{currentfile picstr readhexstring pop} image} bdef
/tMatrix matrix def
/MakeOval {newpath tMatrix currentmatrix pop translate scale
0 0 1 0 360 arc tMatrix setmatrix} bdef
/FO {MakeOval stroke} bdef
/PO {MakeOval fill} bdef
/PD {currentlinewidth 2 div 0 360 arc fill
   PDlw -1 eq not {PDlw w /PDlw -1 def} if} def
/FA {newpath tMatrix currentmatrix pop translate scale
  0 0 1 5 -2 roll arc tMatrix setmatrix stroke} bdef
/PA {newpath tMatrix currentmatrix pop	translate 0 0 moveto scale
  0 0 1 5 -2 roll arc closepath tMatrix setmatrix fill} bdef
/FAn {newpath tMatrix currentmatrix pop translate scale
  0 0 1 5 -2 roll arcn tMatrix setmatrix stroke} bdef
/PAn {newpath tMatrix currentmatrix pop translate 0 0 moveto scale
  0 0 1 5 -2 roll arcn closepath tMatrix setmatrix fill} bdef
/vradius 0 def /hradius 0 def /lry 0 def
/lrx 0 def /uly 0 def /ulx 0 def /rad 0 def
/MRR {/vradius xdef /hradius xdef /lry xdef /lrx xdef /uly xdef
  /ulx xdef newpath tMatrix currentmatrix pop ulx hradius add uly
  vradius add translate hradius vradius scale 0 0 1 180 270 arc 
  tMatrix setmatrix lrx hradius sub uly vradius add translate
  hradius vradius scale 0 0 1 270 360 arc tMatrix setmatrix
  lrx hradius sub lry vradius sub translate hradius vradius scale
  0 0 1 0 90 arc tMatrix setmatrix ulx hradius add lry vradius sub
  translate hradius vradius scale 0 0 1 90 180 arc tMatrix setmatrix
  closepath} bdef
/FRR {MRR stroke } bdef
/PRR {MRR fill } bdef
/MlrRR {/lry xdef /lrx xdef /uly xdef /ulx xdef /rad lry uly sub 2 div def
  newpath tMatrix currentmatrix pop ulx rad add uly rad add translate
  rad rad scale 0 0 1 90 270 arc tMatrix setmatrix lrx rad sub lry rad
  sub translate rad rad scale 0 0 1 270 90 arc tMatrix setmatrix
  closepath} bdef
/FlrRR {MlrRR stroke } bdef
/PlrRR {MlrRR fill } bdef
/MtbRR {/lry xdef /lrx xdef /uly xdef /ulx xdef /rad lrx ulx sub 2 div def
  newpath tMatrix currentmatrix pop ulx rad add uly rad add translate
  rad rad scale 0 0 1 180 360 arc tMatrix setmatrix lrx rad sub lry rad
  sub translate rad rad scale 0 0 1 0 180 arc tMatrix setmatrix
  closepath} bdef
/FtbRR {MtbRR stroke } bdef
/PtbRR {MtbRR fill } bdef
/stri 6 array def /dtri 6 array def
/smat 6 array def /dmat 6 array def
/tmat1 6 array def /tmat2 6 array def /dif 3 array def
/asub {/ind2 exch def /ind1 exch def dup dup
  ind1 get exch ind2 get sub exch } bdef
/tri_to_matrix {
  2 0 asub 3 1 asub 4 0 asub 5 1 asub
  dup 0 get exch 1 get 7 -1 roll astore } bdef
/compute_transform {
  dmat dtri tri_to_matrix tmat1 invertmatrix 
  smat stri tri_to_matrix tmat2 concatmatrix } bdef
/ds {stri astore pop} bdef
/dt {dtri astore pop} bdef
/db {2 copy /cols xdef /rows xdef mul dup 3 mul string
  currentfile 
  3 index 0 eq {/ASCIIHexDecode filter}
  {/ASCII85Decode filter 3 index 2 eq {/RunLengthDecode filter} if }
  ifelse exch readstring pop
  dup 0 3 index getinterval /rbmap xdef
  dup 2 index dup getinterval /gbmap xdef
  1 index dup 2 mul exch getinterval /bbmap xdef pop pop}bdef
/it {gs np dtri aload pop moveto lineto lineto cp c
  cols rows 8 compute_transform 
  rbmap gbmap bbmap true 3 colorimage gr}bdef
/il {newpath moveto lineto stroke}bdef
currentdict end def
%%EndProlog

%%BeginSetup
MathWorks begin

0 cap

end
%%EndSetup

%%Page: 1 1
%%BeginPageSetup
%%PageBoundingBox:    32   180   549   616
MathWorks begin
bpage
%%EndPageSetup

%%BeginObject: obj1
bplot

/dpi2point 12 def
portraitMode 0216 7344 csm

  174   -48  6209  5231 rc
85 dict begin %Colortable dictionary
/c0 { 0.000000 0.000000 0.000000 sr} bdef
/c1 { 1.000000 1.000000 1.000000 sr} bdef
/c2 { 0.900000 0.000000 0.000000 sr} bdef
/c3 { 0.000000 0.820000 0.000000 sr} bdef
/c4 { 0.000000 0.000000 0.800000 sr} bdef
/c5 { 0.910000 0.820000 0.320000 sr} bdef
/c6 { 1.000000 0.260000 0.820000 sr} bdef
/c7 { 0.000000 0.820000 0.820000 sr} bdef
c0
1 j
1 sg
   0    0 6919 5187 rf
6 w
0 4202 5362 0 0 -4202 899 4616 4 MP
PP
-5362 0 0 4202 5362 0 0 -4202 899 4616 5 MP stroke
4 w
DO
SO
6 w
0 sg
 899  414 mt 6261  414 L
 899 4616 mt 6261 4616 L
6261 4616 mt 6261  414 L
 899 4616 mt  899  414 L
 899 4616 mt 6261 4616 L
 899 4616 mt  899  414 L
1648 4616 mt 1648 4562 L
1648  414 mt 1648  467 L
%%IncludeResource: font Helvetica
/Helvetica /WindowsLatin1Encoding 240 FMSR

1482 4873 mt 
(0.1) s
2398 4616 mt 2398 4562 L
2398  414 mt 2398  467 L
2232 4873 mt 
(0.2) s
3148 4616 mt 3148 4562 L
3148  414 mt 3148  467 L
2982 4873 mt 
(0.3) s
3898 4616 mt 3898 4562 L
3898  414 mt 3898  467 L
3732 4873 mt 
(0.4) s
4648 4616 mt 4648 4562 L
4648  414 mt 4648  467 L
4482 4873 mt 
(0.5) s
5398 4616 mt 5398 4562 L
5398  414 mt 5398  467 L
5232 4873 mt 
(0.6) s
6148 4616 mt 6148 4562 L
6148  414 mt 6148  467 L
5982 4873 mt 
(0.7) s
 899 3849 mt  952 3849 L
6261 3849 mt 6207 3849 L
 531 3938 mt 
(0.1) s
 899 3082 mt  952 3082 L
6261 3082 mt 6207 3082 L
 531 3171 mt 
(0.2) s
 899 2315 mt  952 2315 L
6261 2315 mt 6207 2315 L
 531 2404 mt 
(0.3) s
 899 1548 mt  952 1548 L
6261 1548 mt 6207 1548 L
 531 1637 mt 
(0.4) s
 899  782 mt  952  782 L
6261  782 mt 6207  782 L
 531  871 mt 
(0.5) s
 899  414 mt 6261  414 L
 899 4616 mt 6261 4616 L
6261 4616 mt 6261  414 L
 899 4616 mt  899  414 L
gs 899 414 5363 4203 rc
gr

/c8 { 0.000000 0.000000 1.000000 sr} bdef
c8
1653 4112 mt 1725 4112 L
1689 4076 mt 1689 4148 L
 866 4567 mt  938 4567 L
 902 4531 mt  902 4603 L
2139 2953 mt 2211 2953 L
2175 2917 mt 2175 2989 L
2372 4534 mt 2444 4534 L
2408 4498 mt 2408 4570 L
 874 4525 mt  946 4525 L
 910 4489 mt  910 4561 L
 965 4372 mt 1037 4372 L
1001 4336 mt 1001 4408 L
1200 4612 mt 1272 4612 L
1236 4576 mt 1236 4648 L
 863 4610 mt  935 4610 L
 899 4574 mt  899 4646 L
1287 4588 mt 1359 4588 L
1323 4552 mt 1323 4624 L
5731 4199 mt 5803 4199 L
5767 4163 mt 5767 4235 L
 863 3910 mt  935 3910 L
 899 3874 mt  899 3946 L
 929 4160 mt 1001 4160 L
 965 4124 mt  965 4196 L
 900 4154 mt  972 4154 L
 936 4118 mt  936 4190 L
 920 3732 mt  992 3732 L
 956 3696 mt  956 3768 L
2061 4474 mt 2133 4474 L
2097 4438 mt 2097 4510 L
1562 4542 mt 1634 4542 L
1598 4506 mt 1598 4578 L
 929 3742 mt 1001 3742 L
 965 3706 mt  965 3778 L
1371 4607 mt 1443 4607 L
1407 4571 mt 1407 4643 L
2100 4582 mt 2172 4582 L
2136 4546 mt 2136 4618 L
2546 4601 mt 2618 4601 L
2582 4565 mt 2582 4637 L
 901 4255 mt  973 4255 L
 937 4219 mt  937 4291 L
1293 4343 mt 1365 4343 L
1329 4307 mt 1329 4379 L
1595 4549 mt 1667 4549 L
1631 4513 mt 1631 4585 L
 935 4511 mt 1007 4511 L
 971 4475 mt  971 4547 L
3781 4307 mt 3853 4307 L
3817 4271 mt 3817 4343 L
2945 4391 mt 3017 4391 L
2981 4355 mt 2981 4427 L
1031 4596 mt 1103 4596 L
1067 4560 mt 1067 4632 L
2144 4433 mt 2216 4433 L
2180 4397 mt 2180 4469 L
2202 4503 mt 2274 4503 L
2238 4467 mt 2238 4539 L
4485 4604 mt 4557 4604 L
4521 4568 mt 4521 4640 L
1041 4278 mt 1113 4278 L
1077 4242 mt 1077 4314 L
1901 4577 mt 1973 4577 L
1937 4541 mt 1937 4613 L
2021 4610 mt 2093 4610 L
2057 4574 mt 2057 4646 L
4336 4615 mt 4408 4615 L
4372 4579 mt 4372 4651 L
2649 4122 mt 2721 4122 L
2685 4086 mt 2685 4158 L
1830 4335 mt 1902 4335 L
1866 4299 mt 1866 4371 L
1769 4609 mt 1841 4609 L
1805 4573 mt 1805 4645 L
1066 4274 mt 1138 4274 L
1102 4238 mt 1102 4310 L
1068 4289 mt 1140 4289 L
1104 4253 mt 1104 4325 L
 937 3973 mt 1009 3973 L
 973 3937 mt  973 4009 L
2627 4603 mt 2699 4603 L
2663 4567 mt 2663 4639 L
1072 4561 mt 1144 4561 L
1108 4525 mt 1108 4597 L
 879 4497 mt  951 4497 L
 915 4461 mt  915 4533 L
2354 2563 mt 2426 2563 L
2390 2527 mt 2390 2599 L
6015 4606 mt 6087 4606 L
6051 4570 mt 6051 4642 L
1824 4564 mt 1896 4564 L
1860 4528 mt 1860 4600 L
1023 4308 mt 1095 4308 L
1059 4272 mt 1059 4344 L
 868 4598 mt  940 4598 L
 904 4562 mt  904 4634 L
2675 4199 mt 2747 4199 L
2711 4163 mt 2711 4235 L
 866 3549 mt  938 3549 L
 902 3513 mt  902 3585 L
1795 4483 mt 1867 4483 L
1831 4447 mt 1831 4519 L
2463 4616 mt 2535 4616 L
2499 4580 mt 2499 4652 L
 926 1925 mt  998 1925 L
 962 1889 mt  962 1961 L
 956 4597 mt 1028 4597 L
 992 4561 mt  992 4633 L
1534 4613 mt 1606 4613 L
1570 4577 mt 1570 4649 L
2409 4567 mt 2481 4567 L
2445 4531 mt 2445 4603 L
1689 4603 mt 1761 4603 L
1725 4567 mt 1725 4639 L
2385 4562 mt 2457 4562 L
2421 4526 mt 2421 4598 L
3521 3226 mt 3593 3226 L
3557 3190 mt 3557 3262 L
1010 2949 mt 1082 2949 L
1046 2913 mt 1046 2985 L
2774 4258 mt 2846 4258 L
2810 4222 mt 2810 4294 L
1703 4450 mt 1775 4450 L
1739 4414 mt 1739 4486 L
2243 4585 mt 2315 4585 L
2279 4549 mt 2279 4621 L
3083 4345 mt 3155 4345 L
3119 4309 mt 3119 4381 L
1297 1141 mt 1369 1141 L
1333 1105 mt 1333 1177 L
1329 4592 mt 1401 4592 L
1365 4556 mt 1365 4628 L
3285 2266 mt 3357 2266 L
3321 2230 mt 3321 2302 L
 864 4437 mt  936 4437 L
 900 4401 mt  900 4473 L
1502 3415 mt 1574 3415 L
1538 3379 mt 1538 3451 L
 867 3568 mt  939 3568 L
 903 3532 mt  903 3604 L
1575 4120 mt 1647 4120 L
1611 4084 mt 1611 4156 L
1731 4435 mt 1803 4435 L
1767 4399 mt 1767 4471 L
 906 4547 mt  978 4547 L
 942 4511 mt  942 4583 L
1089 4512 mt 1161 4512 L
1125 4476 mt 1125 4548 L
 863 3907 mt  935 3907 L
 899 3871 mt  899 3943 L
 864 4203 mt  936 4203 L
 900 4167 mt  900 4239 L
4778 4615 mt 4850 4615 L
4814 4579 mt 4814 4651 L
1032 3164 mt 1104 3164 L
1068 3128 mt 1068 3200 L
1114 4610 mt 1186 4610 L
1150 4574 mt 1150 4646 L
1412 4281 mt 1484 4281 L
1448 4245 mt 1448 4317 L
1705 4608 mt 1777 4608 L
1741 4572 mt 1741 4644 L
 920 4445 mt  992 4445 L
 956 4409 mt  956 4481 L
 895 3028 mt  967 3028 L
 931 2992 mt  931 3064 L
1118 4414 mt 1190 4414 L
1154 4378 mt 1154 4450 L
3818 4444 mt 3890 4444 L
3854 4408 mt 3854 4480 L
1124 4394 mt 1196 4394 L
1160 4358 mt 1160 4430 L
1442 4614 mt 1514 4614 L
1478 4578 mt 1478 4650 L
4103 4593 mt 4175 4593 L
4139 4557 mt 4139 4629 L
3933 4456 mt 4005 4456 L
3969 4420 mt 3969 4492 L
1235 4491 mt 1307 4491 L
1271 4455 mt 1271 4527 L
1589 4130 mt 1661 4130 L
1625 4094 mt 1625 4166 L
1171 4501 mt 1243 4501 L
1207 4465 mt 1207 4537 L
 864 4497 mt  936 4497 L
 900 4461 mt  900 4533 L
1444 4572 mt 1516 4572 L
1480 4536 mt 1480 4608 L
 936 4583 mt 1008 4583 L
 972 4547 mt  972 4619 L
 925 4409 mt  997 4409 L
 961 4373 mt  961 4445 L
1523 4334 mt 1595 4334 L
1559 4298 mt 1559 4370 L
1415 4364 mt 1487 4364 L
1451 4328 mt 1451 4400 L
4971 4608 mt 5043 4608 L
5007 4572 mt 5007 4644 L
2371 4579 mt 2443 4579 L
2407 4543 mt 2407 4615 L
 863 4551 mt  935 4551 L
 899 4515 mt  899 4587 L
1871 4490 mt 1943 4490 L
1907 4454 mt 1907 4526 L
1596 4269 mt 1668 4269 L
1632 4233 mt 1632 4305 L
 863 4444 mt  935 4444 L
 899 4408 mt  899 4480 L
1977 4579 mt 2049 4579 L
2013 4543 mt 2013 4615 L
1693 4515 mt 1765 4515 L
1729 4479 mt 1729 4551 L
1354 3996 mt 1426 3996 L
1390 3960 mt 1390 4032 L
3461 4355 mt 3533 4355 L
3497 4319 mt 3497 4391 L
1010 4517 mt 1082 4517 L
1046 4481 mt 1046 4553 L
 870 4452 mt  942 4452 L
 906 4416 mt  906 4488 L
5427 4501 mt 5499 4501 L
5463 4465 mt 5463 4537 L
1794 4555 mt 1866 4555 L
1830 4519 mt 1830 4591 L
1015 4613 mt 1087 4613 L
1051 4577 mt 1051 4649 L
1700 4030 mt 1772 4030 L
1736 3994 mt 1736 4066 L
2138 4462 mt 2210 4462 L
2174 4426 mt 2174 4498 L
 990 4510 mt 1062 4510 L
1026 4474 mt 1026 4546 L
 882 4602 mt  954 4602 L
 918 4566 mt  918 4638 L
 863 4316 mt  935 4316 L
 899 4280 mt  899 4352 L
1231 4615 mt 1303 4615 L
1267 4579 mt 1267 4651 L
2164 4586 mt 2236 4586 L
2200 4550 mt 2200 4622 L
1365 4483 mt 1437 4483 L
1401 4447 mt 1401 4519 L
1397 2098 mt 1469 2098 L
1433 2062 mt 1433 2134 L
 864 4608 mt  936 4608 L
 900 4572 mt  900 4644 L
 908 4100 mt  980 4100 L
 944 4064 mt  944 4136 L
1148 3392 mt 1220 3392 L
1184 3356 mt 1184 3428 L
 863 2992 mt  935 2992 L
 899 2956 mt  899 3028 L
1075 4571 mt 1147 4571 L
1111 4535 mt 1111 4607 L
1482 3981 mt 1554 3981 L
1518 3945 mt 1518 4017 L
1384 4074 mt 1456 4074 L
1420 4038 mt 1420 4110 L
3356 4497 mt 3428 4497 L
3392 4461 mt 3392 4533 L
1535 4612 mt 1607 4612 L
1571 4576 mt 1571 4648 L
2242 4315 mt 2314 4315 L
2278 4279 mt 2278 4351 L
 959 4591 mt 1031 4591 L
 995 4555 mt  995 4627 L
 972 4537 mt 1044 4537 L
1008 4501 mt 1008 4573 L
 864 4475 mt  936 4475 L
 900 4439 mt  900 4511 L
1071 4611 mt 1143 4611 L
1107 4575 mt 1107 4647 L
1318 4569 mt 1390 4569 L
1354 4533 mt 1354 4605 L
1480 4411 mt 1552 4411 L
1516 4375 mt 1516 4447 L
1511 3541 mt 1583 3541 L
1547 3505 mt 1547 3577 L
1417 3799 mt 1489 3799 L
1453 3763 mt 1453 3835 L
1174 4482 mt 1246 4482 L
1210 4446 mt 1210 4518 L
3036 4592 mt 3108 4592 L
3072 4556 mt 3072 4628 L
3268 4531 mt 3340 4531 L
3304 4495 mt 3304 4567 L
1547 4593 mt 1619 4593 L
1583 4557 mt 1583 4629 L
3112 4572 mt 3184 4572 L
3148 4536 mt 3148 4608 L
4554 4564 mt 4626 4564 L
4590 4528 mt 4590 4600 L
1051 4596 mt 1123 4596 L
1087 4560 mt 1087 4632 L
3704 4245 mt 3776 4245 L
3740 4209 mt 3740 4281 L
3467 4297 mt 3539 4297 L
3503 4261 mt 3503 4333 L
 906 4218 mt  978 4218 L
 942 4182 mt  942 4254 L
4463 4532 mt 4535 4532 L
4499 4496 mt 4499 4568 L
1638 4515 mt 1710 4515 L
1674 4479 mt 1674 4551 L
1016 4532 mt 1088 4532 L
1052 4496 mt 1052 4568 L
2048 4465 mt 2120 4465 L
2084 4429 mt 2084 4501 L
1026 2869 mt 1098 2869 L
1062 2833 mt 1062 2905 L
2732 4609 mt 2804 4609 L
2768 4573 mt 2768 4645 L
 945 2278 mt 1017 2278 L
 981 2242 mt  981 2314 L
 868 4611 mt  940 4611 L
 904 4575 mt  904 4647 L
1735 4566 mt 1807 4566 L
1771 4530 mt 1771 4602 L
1977 4614 mt 2049 4614 L
2013 4578 mt 2013 4650 L
1310 3759 mt 1382 3759 L
1346 3723 mt 1346 3795 L
 880 3722 mt  952 3722 L
 916 3686 mt  916 3758 L
2182 3696 mt 2254 3696 L
2218 3660 mt 2218 3732 L
2520 4578 mt 2592 4578 L
2556 4542 mt 2556 4614 L
4165 4600 mt 4237 4600 L
4201 4564 mt 4201 4636 L
1139 4615 mt 1211 4615 L
1175 4579 mt 1175 4651 L
3404 4206 mt 3476 4206 L
3440 4170 mt 3440 4242 L
2040 4615 mt 2112 4615 L
2076 4579 mt 2076 4651 L
 954 4329 mt 1026 4329 L
 990 4293 mt  990 4365 L
 984 4189 mt 1056 4189 L
1020 4153 mt 1020 4225 L
1433 4571 mt 1505 4571 L
1469 4535 mt 1469 4607 L
1160 4431 mt 1232 4431 L
1196 4395 mt 1196 4467 L
1476 4607 mt 1548 4607 L
1512 4571 mt 1512 4643 L
 863 4533 mt  935 4533 L
 899 4497 mt  899 4569 L
1014 4347 mt 1086 4347 L
1050 4311 mt 1050 4383 L
 912 4292 mt  984 4292 L
 948 4256 mt  948 4328 L
1392 4602 mt 1464 4602 L
1428 4566 mt 1428 4638 L
2663 4323 mt 2735 4323 L
2699 4287 mt 2699 4359 L
 926 4470 mt  998 4470 L
 962 4434 mt  962 4506 L
 876 4523 mt  948 4523 L
 912 4487 mt  912 4559 L
1174 4512 mt 1246 4512 L
1210 4476 mt 1210 4548 L
3172 4580 mt 3244 4580 L
3208 4544 mt 3208 4616 L
 878 3780 mt  950 3780 L
 914 3744 mt  914 3816 L
1143  414 mt 1215  414 L
1179  378 mt 1179  450 L
4120 4466 mt 4192 4466 L
4156 4430 mt 4156 4502 L
1008 4613 mt 1080 4613 L
1044 4577 mt 1044 4649 L
1095 4561 mt 1167 4561 L
1131 4525 mt 1131 4597 L
 908 4497 mt  980 4497 L
 944 4461 mt  944 4533 L
3198 4530 mt 3270 4530 L
3234 4494 mt 3234 4566 L
 876 4614 mt  948 4614 L
 912 4578 mt  912 4650 L
 890 4547 mt  962 4547 L
 926 4511 mt  926 4583 L
1817 4348 mt 1889 4348 L
1853 4312 mt 1853 4384 L
1216 4614 mt 1288 4614 L
1252 4578 mt 1252 4650 L
 878 4404 mt  950 4404 L
 914 4368 mt  914 4440 L
 874 4510 mt  946 4510 L
 910 4474 mt  910 4546 L
2801 4308 mt 2873 4308 L
2837 4272 mt 2837 4344 L
1184 4477 mt 1256 4477 L
1220 4441 mt 1220 4513 L
1467 4610 mt 1539 4610 L
1503 4574 mt 1503 4646 L
 898 3838 mt  970 3838 L
 934 3802 mt  934 3874 L
 941 4448 mt 1013 4448 L
 977 4412 mt  977 4484 L
1248 4579 mt 1320 4579 L
1284 4543 mt 1284 4615 L
 897 4407 mt  969 4407 L
 933 4371 mt  933 4443 L
3819 4590 mt 3891 4590 L
3855 4554 mt 3855 4626 L
1939 4607 mt 2011 4607 L
1975 4571 mt 1975 4643 L
 932 4566 mt 1004 4566 L
 968 4530 mt  968 4602 L
 869 4608 mt  941 4608 L
 905 4572 mt  905 4644 L
1059 4545 mt 1131 4545 L
1095 4509 mt 1095 4581 L
1593 4520 mt 1665 4520 L
1629 4484 mt 1629 4556 L
1682 4457 mt 1754 4457 L
1718 4421 mt 1718 4493 L
4916 4602 mt 4988 4602 L
4952 4566 mt 4952 4638 L
 991 4539 mt 1063 4539 L
1027 4503 mt 1027 4575 L
 877 4517 mt  949 4517 L
 913 4481 mt  913 4553 L
1118 4542 mt 1190 4542 L
1154 4506 mt 1154 4578 L
1014 4601 mt 1086 4601 L
1050 4565 mt 1050 4637 L
1305 4610 mt 1377 4610 L
1341 4574 mt 1341 4646 L
2198 4610 mt 2270 4610 L
2234 4574 mt 2234 4646 L
 870 4495 mt  942 4495 L
 906 4459 mt  906 4531 L
1025 4455 mt 1097 4455 L
1061 4419 mt 1061 4491 L
1426 4602 mt 1498 4602 L
1462 4566 mt 1462 4638 L
2252 4367 mt 2324 4367 L
2288 4331 mt 2288 4403 L
1126 4487 mt 1198 4487 L
1162 4451 mt 1162 4523 L
1494 4247 mt 1566 4247 L
1530 4211 mt 1530 4283 L
1185 4390 mt 1257 4390 L
1221 4354 mt 1221 4426 L
 955 4588 mt 1027 4588 L
 991 4552 mt  991 4624 L
1676 4410 mt 1748 4410 L
1712 4374 mt 1712 4446 L
2914 4592 mt 2986 4592 L
2950 4556 mt 2950 4628 L
1111 4569 mt 1183 4569 L
1147 4533 mt 1147 4605 L
1832 4572 mt 1904 4572 L
1868 4536 mt 1868 4608 L
 963 4473 mt 1035 4473 L
 999 4437 mt  999 4509 L
3352 4554 mt 3424 4554 L
3388 4518 mt 3388 4590 L
 868 4614 mt  940 4614 L
 904 4578 mt  904 4650 L
1711 4581 mt 1783 4581 L
1747 4545 mt 1747 4617 L
2586 4602 mt 2658 4602 L
2622 4566 mt 2622 4638 L
4700 4519 mt 4772 4519 L
4736 4483 mt 4736 4555 L
1470 4558 mt 1542 4558 L
1506 4522 mt 1506 4594 L
 904 4504 mt  976 4504 L
 940 4468 mt  940 4540 L
1509 4540 mt 1581 4540 L
1545 4504 mt 1545 4576 L
1567 4611 mt 1639 4611 L
1603 4575 mt 1603 4647 L
1283 4521 mt 1355 4521 L
1319 4485 mt 1319 4557 L
 863 4520 mt  935 4520 L
 899 4484 mt  899 4556 L
2019 4609 mt 2091 4609 L
2055 4573 mt 2055 4645 L
1648 4565 mt 1720 4565 L
1684 4529 mt 1684 4601 L
1254 4539 mt 1326 4539 L
1290 4503 mt 1290 4575 L
3298 4595 mt 3370 4595 L
3334 4559 mt 3334 4631 L
6225 4421 mt 6297 4421 L
6261 4385 mt 6261 4457 L
1486 4585 mt 1558 4585 L
1522 4549 mt 1522 4621 L
 973 4592 mt 1045 4592 L
1009 4556 mt 1009 4628 L
1377 4531 mt 1449 4531 L
1413 4495 mt 1413 4567 L
4160 4615 mt 4232 4615 L
4196 4579 mt 4196 4651 L
1357 4607 mt 1429 4607 L
1393 4571 mt 1393 4643 L
1788 4575 mt 1860 4575 L
1824 4539 mt 1824 4611 L
2874 4608 mt 2946 4608 L
2910 4572 mt 2910 4644 L
1666 3601 mt 1738 3601 L
1702 3565 mt 1702 3637 L
 892 4614 mt  964 4614 L
 928 4578 mt  928 4650 L
1102 4604 mt 1174 4604 L
1138 4568 mt 1138 4640 L
3277 4567 mt 3349 4567 L
3313 4531 mt 3313 4603 L
2583 4569 mt 2655 4569 L
2619 4533 mt 2619 4605 L
2704 4611 mt 2776 4611 L
2740 4575 mt 2740 4647 L
3655 4042 mt 3727 4042 L
3691 4006 mt 3691 4078 L
1016 4496 mt 1088 4496 L
1052 4460 mt 1052 4532 L
2862 4445 mt 2934 4445 L
2898 4409 mt 2898 4481 L
2527 4615 mt 2599 4615 L
2563 4579 mt 2563 4651 L
2757 4609 mt 2829 4609 L
2793 4573 mt 2793 4645 L
4830 4524 mt 4902 4524 L
4866 4488 mt 4866 4560 L
1046 4614 mt 1118 4614 L
1082 4578 mt 1082 4650 L
1046 4615 mt 1118 4615 L
1082 4579 mt 1082 4651 L
1648 4600 mt 1720 4600 L
1684 4564 mt 1684 4636 L
 985 4615 mt 1057 4615 L
1021 4579 mt 1021 4651 L
1898 3699 mt 1970 3699 L
1934 3663 mt 1934 3735 L
2248 4592 mt 2320 4592 L
2284 4556 mt 2284 4628 L
2889 3265 mt 2961 3265 L
2925 3229 mt 2925 3301 L
 866 4516 mt  938 4516 L
 902 4480 mt  902 4552 L
1393 4605 mt 1465 4605 L
1429 4569 mt 1429 4641 L
1067 4581 mt 1139 4581 L
1103 4545 mt 1103 4617 L
1056 4615 mt 1128 4615 L
1092 4579 mt 1092 4651 L
1123 4543 mt 1195 4543 L
1159 4507 mt 1159 4579 L
4973 4358 mt 5045 4358 L
5009 4322 mt 5009 4394 L
 890 4597 mt  962 4597 L
 926 4561 mt  926 4633 L
1804 4169 mt 1876 4169 L
1840 4133 mt 1840 4205 L
1166 4554 mt 1238 4554 L
1202 4518 mt 1202 4590 L
2239 4561 mt 2311 4561 L
2275 4525 mt 2275 4597 L
 934 4593 mt 1006 4593 L
 970 4557 mt  970 4629 L
 922 4434 mt  994 4434 L
 958 4398 mt  958 4470 L
2530 4614 mt 2602 4614 L
2566 4578 mt 2566 4650 L
3810 4614 mt 3882 4614 L
3846 4578 mt 3846 4650 L
1776 4554 mt 1848 4554 L
1812 4518 mt 1812 4590 L
1648 4394 mt 1720 4394 L
1684 4358 mt 1684 4430 L
4579 4505 mt 4651 4505 L
4615 4469 mt 4615 4541 L
3060 4519 mt 3132 4519 L
3096 4483 mt 3096 4555 L
2124 4501 mt 2196 4501 L
2160 4465 mt 2160 4537 L
2666 4581 mt 2738 4581 L
2702 4545 mt 2702 4617 L
1003 4470 mt 1075 4470 L
1039 4434 mt 1039 4506 L
 870 4607 mt  942 4607 L
 906 4571 mt  906 4643 L
2692 4597 mt 2764 4597 L
2728 4561 mt 2728 4633 L
 863 4615 mt  935 4615 L
 899 4579 mt  899 4651 L
 872 4615 mt  944 4615 L
 908 4579 mt  908 4651 L
2383 4615 mt 2455 4615 L
2419 4579 mt 2419 4651 L
2743 4615 mt 2815 4615 L
2779 4579 mt 2779 4651 L
4906 4612 mt 4978 4612 L
4942 4576 mt 4942 4648 L
2627 4383 mt 2699 4383 L
2663 4347 mt 2663 4419 L
 872 4614 mt  944 4614 L
 908 4578 mt  908 4650 L
 863 4604 mt  935 4604 L
 899 4568 mt  899 4640 L
2467 4611 mt 2539 4611 L
2503 4575 mt 2503 4647 L
 900 4592 mt  972 4592 L
 936 4556 mt  936 4628 L
1773 4374 mt 1845 4374 L
1809 4338 mt 1809 4410 L
 991 4553 mt 1063 4553 L
1027 4517 mt 1027 4589 L
2084 3253 mt 2156 3253 L
2120 3217 mt 2120 3289 L
3489 4588 mt 3561 4588 L
3525 4552 mt 3525 4624 L
 873 4568 mt  945 4568 L
 909 4532 mt  909 4604 L
1282 4549 mt 1354 4549 L
1318 4513 mt 1318 4585 L
6204 4366 mt 6276 4366 L
6240 4330 mt 6240 4402 L
1174 4595 mt 1246 4595 L
1210 4559 mt 1210 4631 L
 903 4026 mt  975 4026 L
 939 3990 mt  939 4062 L
1410 4475 mt 1482 4475 L
1446 4439 mt 1446 4511 L
1567 4554 mt 1639 4554 L
1603 4518 mt 1603 4590 L
 939 4453 mt 1011 4453 L
 975 4417 mt  975 4489 L
 873 4507 mt  945 4507 L
 909 4471 mt  909 4543 L
1939 4614 mt 2011 4614 L
1975 4578 mt 1975 4650 L
1253 4604 mt 1325 4604 L
1289 4568 mt 1289 4640 L
2081 4603 mt 2153 4603 L
2117 4567 mt 2117 4639 L
1206 4615 mt 1278 4615 L
1242 4579 mt 1242 4651 L
2043 4148 mt 2115 4148 L
2079 4112 mt 2079 4184 L
1473 4604 mt 1545 4604 L
1509 4568 mt 1509 4640 L
 911 4325 mt  983 4325 L
 947 4289 mt  947 4361 L
1244 4560 mt 1316 4560 L
1280 4524 mt 1280 4596 L
1320 4615 mt 1392 4615 L
1356 4579 mt 1356 4651 L
1058 4577 mt 1130 4577 L
1094 4541 mt 1094 4613 L
2323 4574 mt 2395 4574 L
2359 4538 mt 2359 4610 L
1003 4546 mt 1075 4546 L
1039 4510 mt 1039 4582 L
2860 4599 mt 2932 4599 L
2896 4563 mt 2896 4635 L
2492 4612 mt 2564 4612 L
2528 4576 mt 2528 4648 L
1938 4614 mt 2010 4614 L
1974 4578 mt 1974 4650 L
1520 4578 mt 1592 4578 L
1556 4542 mt 1556 4614 L
1115 4606 mt 1187 4606 L
1151 4570 mt 1151 4642 L
 997 4454 mt 1069 4454 L
1033 4418 mt 1033 4490 L
 874 4010 mt  946 4010 L
 910 3974 mt  910 4046 L
 972 4612 mt 1044 4612 L
1008 4576 mt 1008 4648 L
1792 4615 mt 1864 4615 L
1828 4579 mt 1828 4651 L
 946 4614 mt 1018 4614 L
 982 4578 mt  982 4650 L
3096 4137 mt 3168 4137 L
3132 4101 mt 3132 4173 L
 878 4533 mt  950 4533 L
 914 4497 mt  914 4569 L
2505 4557 mt 2577 4557 L
2541 4521 mt 2541 4593 L
3729 4417 mt 3801 4417 L
3765 4381 mt 3765 4453 L
1278 4602 mt 1350 4602 L
1314 4566 mt 1314 4638 L
2797 4509 mt 2869 4509 L
2833 4473 mt 2833 4545 L
3271 4481 mt 3343 4481 L
3307 4445 mt 3307 4517 L
2103 4411 mt 2175 4411 L
2139 4375 mt 2139 4447 L
3744 4148 mt 3816 4148 L
3780 4112 mt 3780 4184 L
3342 4611 mt 3414 4611 L
3378 4575 mt 3378 4647 L
 881 4507 mt  953 4507 L
 917 4471 mt  917 4543 L
5659 4608 mt 5731 4608 L
5695 4572 mt 5695 4644 L
1593 4598 mt 1665 4598 L
1629 4562 mt 1629 4634 L
 949 4213 mt 1021 4213 L
 985 4177 mt  985 4249 L
 871 4484 mt  943 4484 L
 907 4448 mt  907 4520 L
1143 4615 mt 1215 4615 L
1179 4579 mt 1179 4651 L
1510 4601 mt 1582 4601 L
1546 4565 mt 1546 4637 L
1498 4566 mt 1570 4566 L
1534 4530 mt 1534 4602 L
1068 4585 mt 1140 4585 L
1104 4549 mt 1104 4621 L
1637 4604 mt 1709 4604 L
1673 4568 mt 1673 4640 L
3235 4596 mt 3307 4596 L
3271 4560 mt 3271 4632 L
 863 4446 mt  935 4446 L
 899 4410 mt  899 4482 L
 869 4496 mt  941 4496 L
 905 4460 mt  905 4532 L
1488 4295 mt 1560 4295 L
1524 4259 mt 1524 4331 L
1943 4610 mt 2015 4610 L
1979 4574 mt 1979 4646 L
4556 4576 mt 4628 4576 L
4592 4540 mt 4592 4612 L
1035 4582 mt 1107 4582 L
1071 4546 mt 1071 4618 L
3974 4606 mt 4046 4606 L
4010 4570 mt 4010 4642 L
2255 4607 mt 2327 4607 L
2291 4571 mt 2291 4643 L
1098 4583 mt 1170 4583 L
1134 4547 mt 1134 4619 L
 990 4593 mt 1062 4593 L
1026 4557 mt 1026 4629 L
2573 4612 mt 2645 4612 L
2609 4576 mt 2609 4648 L
1570 4580 mt 1642 4580 L
1606 4544 mt 1606 4616 L
1376 4615 mt 1448 4615 L
1412 4579 mt 1412 4651 L
1498 4611 mt 1570 4611 L
1534 4575 mt 1534 4647 L
1873 4597 mt 1945 4597 L
1909 4561 mt 1909 4633 L
1701 4611 mt 1773 4611 L
1737 4575 mt 1737 4647 L
 910 4550 mt  982 4550 L
 946 4514 mt  946 4586 L
3072 4583 mt 3144 4583 L
3108 4547 mt 3108 4619 L
1199 4556 mt 1271 4556 L
1235 4520 mt 1235 4592 L
1579 4605 mt 1651 4605 L
1615 4569 mt 1615 4641 L
1172 4599 mt 1244 4599 L
1208 4563 mt 1208 4635 L
2988 4614 mt 3060 4614 L
3024 4578 mt 3024 4650 L
1361 3442 mt 1433 3442 L
1397 3406 mt 1397 3478 L
 868 2444 mt  940 2444 L
 904 2408 mt  904 2480 L
4570 4532 mt 4642 4532 L
4606 4496 mt 4606 4568 L
1425 4169 mt 1497 4169 L
1461 4133 mt 1461 4205 L
2569 4570 mt 2641 4570 L
2605 4534 mt 2605 4606 L
 940 4544 mt 1012 4544 L
 976 4508 mt  976 4580 L
1323 3761 mt 1395 3761 L
1359 3725 mt 1359 3797 L
1211 4453 mt 1283 4453 L
1247 4417 mt 1247 4489 L
1418 4537 mt 1490 4537 L
1454 4501 mt 1454 4573 L
2254 4513 mt 2326 4513 L
2290 4477 mt 2290 4549 L
 988 4606 mt 1060 4606 L
1024 4570 mt 1024 4642 L
 880 4612 mt  952 4612 L
 916 4576 mt  916 4648 L
 977 4458 mt 1049 4458 L
1013 4422 mt 1013 4494 L
3026 4435 mt 3098 4435 L
3062 4399 mt 3062 4471 L
1775 4358 mt 1847 4358 L
1811 4322 mt 1811 4394 L
 909 4615 mt  981 4615 L
 945 4579 mt  945 4651 L
1011 4592 mt 1083 4592 L
1047 4556 mt 1047 4628 L
 951 4486 mt 1023 4486 L
 987 4450 mt  987 4522 L
gs 899 414 5363 4203 rc
gr

0 sg
2775 5104 mt 
(\(F,DCTb,GMM\)) s
 422 3269 mt  -90 rotate
(\(F,DCTs,MLP\)) s
90 rotate
2905  223 mt 
(Corr = -0.10) s

end %%Color Dict

eplot
%%EndObject

epage
end

showpage

%%Trailer
%%EOF
