%!PS-Adobe-3.0 EPSF-3.0
%%Creator: MATLAB, The Mathworks, Inc. Version 7.7.0.471 (R2008b). Operating System: Microsoft Windows XP.
%%Title: Pictures\main_zoo_mvar_analysis_data_BMI_xcorr_bmig_p2_k1_2_4.eps
%%CreationDate: 10/26/2009  05:45:39
%%DocumentNeededFonts: Helvetica
%%DocumentProcessColors: Cyan Magenta Yellow Black
%%LanguageLevel: 2
%%Pages: 1
%%BoundingBox:    37   180   549   616
%%EndComments

%%BeginProlog
% MathWorks dictionary
/MathWorks 160 dict begin
% definition operators
/bdef {bind def} bind def
/ldef {load def} bind def
/xdef {exch def} bdef
/xstore {exch store} bdef
% operator abbreviations
/c  /clip ldef
/cc /concat ldef
/cp /closepath ldef
/gr /grestore ldef
/gs /gsave ldef
/mt /moveto ldef
/np /newpath ldef
/cm /currentmatrix ldef
/sm /setmatrix ldef
/rm /rmoveto ldef
/rl /rlineto ldef
/s {show newpath} bdef
/sc {setcmykcolor} bdef
/sr /setrgbcolor ldef
/sg /setgray ldef
/w /setlinewidth ldef
/j /setlinejoin ldef
/cap /setlinecap ldef
/rc {rectclip} bdef
/rf {rectfill} bdef
% page state control
/pgsv () def
/bpage {/pgsv save def} bdef
/epage {pgsv restore} bdef
/bplot /gsave ldef
/eplot {stroke grestore} bdef
% orientation switch
/portraitMode 0 def /landscapeMode 1 def /rotateMode 2 def
% coordinate system mappings
/dpi2point 0 def
% font control
/FontSize 0 def
/FMS {/FontSize xstore findfont [FontSize 0 0 FontSize neg 0 0]
  makefont setfont} bdef
/ISOLatin1Encoding where {pop /WindowsLatin1Encoding 256 array bdef
ISOLatin1Encoding WindowsLatin1Encoding copy pop
/.notdef/.notdef/quotesinglbase/florin/quotedblbase/ellipsis/dagger
/daggerdbl/circumflex/perthousand/Scaron/guilsinglleft/OE/.notdef/.notdef
/.notdef/.notdef/quoteleft/quoteright/quotedblleft/quotedblright/bullet
/endash/emdash/tilde/trademark/scaron/guilsinglright/oe/.notdef/.notdef
/Ydieresis WindowsLatin1Encoding 128 32 getinterval astore pop}
{/WindowsLatin1Encoding StandardEncoding bdef} ifelse
/reencode {exch dup where {pop load} {pop StandardEncoding} ifelse
  exch dup 3 1 roll findfont dup length dict begin
  { 1 index /FID ne {def}{pop pop} ifelse } forall
  /Encoding exch def currentdict end definefont pop} bdef
/isroman {findfont /CharStrings get /Agrave known} bdef
/FMSR {3 1 roll 1 index dup isroman {reencode} {pop pop} ifelse
  exch FMS} bdef
/csm {1 dpi2point div -1 dpi2point div scale neg translate
 dup landscapeMode eq {pop -90 rotate}
  {rotateMode eq {90 rotate} if} ifelse} bdef
% line types: solid, dotted, dashed, dotdash
/SO { [] 0 setdash } bdef
/DO { [.5 dpi2point mul 4 dpi2point mul] 0 setdash } bdef
/DA { [6 dpi2point mul] 0 setdash } bdef
/DD { [.5 dpi2point mul 4 dpi2point mul 6 dpi2point mul 4
  dpi2point mul] 0 setdash } bdef
% macros for lines and objects
/L {lineto stroke} bdef
/MP {3 1 roll moveto 1 sub {rlineto} repeat} bdef
/AP {{rlineto} repeat} bdef
/PDlw -1 def
/W {/PDlw currentlinewidth def setlinewidth} def
/PP {closepath eofill} bdef
/DP {closepath stroke} bdef
/MR {4 -2 roll moveto dup  0 exch rlineto exch 0 rlineto
  neg 0 exch rlineto closepath} bdef
/FR {MR stroke} bdef
/PR {MR fill} bdef
/L1i {{currentfile picstr readhexstring pop} image} bdef
/tMatrix matrix def
/MakeOval {newpath tMatrix currentmatrix pop translate scale
0 0 1 0 360 arc tMatrix setmatrix} bdef
/FO {MakeOval stroke} bdef
/PO {MakeOval fill} bdef
/PD {currentlinewidth 2 div 0 360 arc fill
   PDlw -1 eq not {PDlw w /PDlw -1 def} if} def
/FA {newpath tMatrix currentmatrix pop translate scale
  0 0 1 5 -2 roll arc tMatrix setmatrix stroke} bdef
/PA {newpath tMatrix currentmatrix pop	translate 0 0 moveto scale
  0 0 1 5 -2 roll arc closepath tMatrix setmatrix fill} bdef
/FAn {newpath tMatrix currentmatrix pop translate scale
  0 0 1 5 -2 roll arcn tMatrix setmatrix stroke} bdef
/PAn {newpath tMatrix currentmatrix pop translate 0 0 moveto scale
  0 0 1 5 -2 roll arcn closepath tMatrix setmatrix fill} bdef
/vradius 0 def /hradius 0 def /lry 0 def
/lrx 0 def /uly 0 def /ulx 0 def /rad 0 def
/MRR {/vradius xdef /hradius xdef /lry xdef /lrx xdef /uly xdef
  /ulx xdef newpath tMatrix currentmatrix pop ulx hradius add uly
  vradius add translate hradius vradius scale 0 0 1 180 270 arc 
  tMatrix setmatrix lrx hradius sub uly vradius add translate
  hradius vradius scale 0 0 1 270 360 arc tMatrix setmatrix
  lrx hradius sub lry vradius sub translate hradius vradius scale
  0 0 1 0 90 arc tMatrix setmatrix ulx hradius add lry vradius sub
  translate hradius vradius scale 0 0 1 90 180 arc tMatrix setmatrix
  closepath} bdef
/FRR {MRR stroke } bdef
/PRR {MRR fill } bdef
/MlrRR {/lry xdef /lrx xdef /uly xdef /ulx xdef /rad lry uly sub 2 div def
  newpath tMatrix currentmatrix pop ulx rad add uly rad add translate
  rad rad scale 0 0 1 90 270 arc tMatrix setmatrix lrx rad sub lry rad
  sub translate rad rad scale 0 0 1 270 90 arc tMatrix setmatrix
  closepath} bdef
/FlrRR {MlrRR stroke } bdef
/PlrRR {MlrRR fill } bdef
/MtbRR {/lry xdef /lrx xdef /uly xdef /ulx xdef /rad lrx ulx sub 2 div def
  newpath tMatrix currentmatrix pop ulx rad add uly rad add translate
  rad rad scale 0 0 1 180 360 arc tMatrix setmatrix lrx rad sub lry rad
  sub translate rad rad scale 0 0 1 0 180 arc tMatrix setmatrix
  closepath} bdef
/FtbRR {MtbRR stroke } bdef
/PtbRR {MtbRR fill } bdef
/stri 6 array def /dtri 6 array def
/smat 6 array def /dmat 6 array def
/tmat1 6 array def /tmat2 6 array def /dif 3 array def
/asub {/ind2 exch def /ind1 exch def dup dup
  ind1 get exch ind2 get sub exch } bdef
/tri_to_matrix {
  2 0 asub 3 1 asub 4 0 asub 5 1 asub
  dup 0 get exch 1 get 7 -1 roll astore } bdef
/compute_transform {
  dmat dtri tri_to_matrix tmat1 invertmatrix 
  smat stri tri_to_matrix tmat2 concatmatrix } bdef
/ds {stri astore pop} bdef
/dt {dtri astore pop} bdef
/db {2 copy /cols xdef /rows xdef mul dup 3 mul string
  currentfile 
  3 index 0 eq {/ASCIIHexDecode filter}
  {/ASCII85Decode filter 3 index 2 eq {/RunLengthDecode filter} if }
  ifelse exch readstring pop
  dup 0 3 index getinterval /rbmap xdef
  dup 2 index dup getinterval /gbmap xdef
  1 index dup 2 mul exch getinterval /bbmap xdef pop pop}bdef
/it {gs np dtri aload pop moveto lineto lineto cp c
  cols rows 8 compute_transform 
  rbmap gbmap bbmap true 3 colorimage gr}bdef
/il {newpath moveto lineto stroke}bdef
currentdict end def
%%EndProlog

%%BeginSetup
MathWorks begin

0 cap

end
%%EndSetup

%%Page: 1 1
%%BeginPageSetup
%%PageBoundingBox:    37   180   549   616
MathWorks begin
bpage
%%EndPageSetup

%%BeginObject: obj1
bplot

/dpi2point 12 def
portraitMode 0216 7344 csm

  234   -48  6149  5231 rc
85 dict begin %Colortable dictionary
/c0 { 0.000000 0.000000 0.000000 sr} bdef
/c1 { 1.000000 1.000000 1.000000 sr} bdef
/c2 { 0.900000 0.000000 0.000000 sr} bdef
/c3 { 0.000000 0.820000 0.000000 sr} bdef
/c4 { 0.000000 0.000000 0.800000 sr} bdef
/c5 { 0.910000 0.820000 0.320000 sr} bdef
/c6 { 1.000000 0.260000 0.820000 sr} bdef
/c7 { 0.000000 0.820000 0.820000 sr} bdef
c0
1 j
1 sg
   0    0 6919 5187 rf
6 w
0 4202 5362 0 0 -4202 899 4616 4 MP
PP
-5362 0 0 4202 5362 0 0 -4202 899 4616 5 MP stroke
4 w
DO
SO
6 w
0 sg
 899  414 mt 6261  414 L
 899 4616 mt 6261 4616 L
6261 4616 mt 6261  414 L
 899 4616 mt  899  414 L
 899 4616 mt 6261 4616 L
 899 4616 mt  899  414 L
 919 4616 mt  919 4562 L
 919  414 mt  919  467 L
%%IncludeResource: font Helvetica
/Helvetica /WindowsLatin1Encoding 240 FMSR

 713 4873 mt 
(-3) s
1806 4616 mt 1806 4562 L
1806  414 mt 1806  467 L
1600 4873 mt 
(-2) s
2693 4616 mt 2693 4562 L
2693  414 mt 2693  467 L
2487 4873 mt 
(-1) s
3580 4616 mt 3580 4562 L
3580  414 mt 3580  467 L
3514 4873 mt 
(0) s
4466 4616 mt 4466 4562 L
4466  414 mt 4466  467 L
4400 4873 mt 
(1) s
5353 4616 mt 5353 4562 L
5353  414 mt 5353  467 L
5287 4873 mt 
(2) s
6240 4616 mt 6240 4562 L
6240  414 mt 6240  467 L
6174 4873 mt 
(3) s
 899 4599 mt  952 4599 L
6261 4599 mt 6207 4599 L
 591 4688 mt 
(-3) s
 899 3904 mt  952 3904 L
6261 3904 mt 6207 3904 L
 591 3993 mt 
(-2) s
 899 3209 mt  952 3209 L
6261 3209 mt 6207 3209 L
 591 3298 mt 
(-1) s
 899 2514 mt  952 2514 L
6261 2514 mt 6207 2514 L
 731 2603 mt 
(0) s
 899 1820 mt  952 1820 L
6261 1820 mt 6207 1820 L
 731 1909 mt 
(1) s
 899 1125 mt  952 1125 L
6261 1125 mt 6207 1125 L
 731 1214 mt 
(2) s
 899  430 mt  952  430 L
6261  430 mt 6207  430 L
 731  519 mt 
(3) s
 899  414 mt 6261  414 L
 899 4616 mt 6261 4616 L
6261 4616 mt 6261  414 L
 899 4616 mt  899  414 L
gs 899 414 5363 4203 rc
gr

/c8 { 0.000000 0.000000 1.000000 sr} bdef
c8
5606 1526 mt 5678 1526 L
5642 1490 mt 5642 1562 L
3196 2628 mt 3268 2628 L
3232 2592 mt 3232 2664 L
2218 3436 mt 2290 3436 L
2254 3400 mt 2254 3472 L
2282 2388 mt 2354 2388 L
2318 2352 mt 2318 2424 L
2924 2155 mt 2996 2155 L
2960 2119 mt 2960 2191 L
2513 2736 mt 2585 2736 L
2549 2700 mt 2549 2772 L
1481 2109 mt 1553 2109 L
1517 2073 mt 1517 2145 L
2126 2265 mt 2198 2265 L
2162 2229 mt 2162 2301 L
1722 3125 mt 1794 3125 L
1758 3089 mt 1758 3161 L
3964 2741 mt 4036 2741 L
4000 2705 mt 4000 2777 L
3135 1561 mt 3207 1561 L
3171 1525 mt 3171 1597 L
3927 2125 mt 3999 2125 L
3963 2089 mt 3963 2161 L
3780 2223 mt 3852 2223 L
3816 2187 mt 3816 2259 L
4364 2458 mt 4436 2458 L
4400 2422 mt 4400 2494 L
3347 1858 mt 3419 1858 L
3383 1822 mt 3383 1894 L
4732 2270 mt 4804 2270 L
4768 2234 mt 4768 2306 L
5700 3171 mt 5772 3171 L
5736 3135 mt 5736 3207 L
3027 2506 mt 3099 2506 L
3063 2470 mt 3063 2542 L
2502 3908 mt 2574 3908 L
2538 3872 mt 2538 3944 L
3832 4616 mt 3904 4616 L
3868 4580 mt 3868 4652 L
1766 2899 mt 1838 2899 L
1802 2863 mt 1802 2935 L
3059 1614 mt 3131 1614 L
3095 1578 mt 3095 1650 L
3364 1954 mt 3436 1954 L
3400 1918 mt 3400 1990 L
3342 1207 mt 3414 1207 L
3378 1171 mt 3378 1243 L
4347 1787 mt 4419 1787 L
4383 1751 mt 4383 1823 L
3438 3468 mt 3510 3468 L
3474 3432 mt 3474 3504 L
3971 1892 mt 4043 1892 L
4007 1856 mt 4007 1928 L
2298 3022 mt 2370 3022 L
2334 2986 mt 2334 3058 L
2534 2365 mt 2606 2365 L
2570 2329 mt 2570 2401 L
2980 2983 mt 3052 2983 L
3016 2947 mt 3016 3019 L
2662 2655 mt 2734 2655 L
2698 2619 mt 2698 2691 L
3104 2773 mt 3176 2773 L
3140 2737 mt 3140 2809 L
3505 3675 mt 3577 3675 L
3541 3639 mt 3541 3711 L
3706 2967 mt 3778 2967 L
3742 2931 mt 3742 3003 L
3493 2935 mt 3565 2935 L
3529 2899 mt 3529 2971 L
3510 3206 mt 3582 3206 L
3546 3170 mt 3546 3242 L
2444 2840 mt 2516 2840 L
2480 2804 mt 2480 2876 L
3007 3051 mt 3079 3051 L
3043 3015 mt 3043 3087 L
4290 2401 mt 4362 2401 L
4326 2365 mt 4326 2437 L
4177 3017 mt 4249 3017 L
4213 2981 mt 4213 3053 L
3521 3331 mt 3593 3331 L
3557 3295 mt 3557 3367 L
3261 2815 mt 3333 2815 L
3297 2779 mt 3297 2851 L
4184 3980 mt 4256 3980 L
4220 3944 mt 4220 4016 L
4128  414 mt 4200  414 L
4164  378 mt 4164  450 L
3116 3273 mt 3188 3273 L
3152 3237 mt 3152 3309 L
2201 4205 mt 2273 4205 L
2237 4169 mt 2237 4241 L
4463 2731 mt 4535 2731 L
4499 2695 mt 4499 2767 L
3376 2796 mt 3448 2796 L
3412 2760 mt 3412 2832 L
3850 3011 mt 3922 3011 L
3886 2975 mt 3886 3047 L
2732 3144 mt 2804 3144 L
2768 3108 mt 2768 3180 L
4282 1087 mt 4354 1087 L
4318 1051 mt 4318 1123 L
3958 2374 mt 4030 2374 L
3994 2338 mt 3994 2410 L
2836 1872 mt 2908 1872 L
2872 1836 mt 2872 1908 L
3560 2536 mt 3632 2536 L
3596 2500 mt 3596 2572 L
4655 1419 mt 4727 1419 L
4691 1383 mt 4691 1455 L
3677 2930 mt 3749 2930 L
3713 2894 mt 3713 2966 L
3903 1972 mt 3975 1972 L
3939 1936 mt 3939 2008 L
2789 2768 mt 2861 2768 L
2825 2732 mt 2825 2804 L
3745 2722 mt 3817 2722 L
3781 2686 mt 3781 2758 L
2896 2619 mt 2968 2619 L
2932 2583 mt 2932 2655 L
3661 2214 mt 3733 2214 L
3697 2178 mt 3697 2250 L
4922 3087 mt 4994 3087 L
4958 3051 mt 4958 3123 L
3313 1121 mt 3385 1121 L
3349 1085 mt 3349 1157 L
3426 2962 mt 3498 2962 L
3462 2926 mt 3462 2998 L
2565 3184 mt 2637 3184 L
2601 3148 mt 2601 3220 L
3330 2396 mt 3402 2396 L
3366 2360 mt 3366 2432 L
4805 2528 mt 4877 2528 L
4841 2492 mt 4841 2564 L
3172 3376 mt 3244 3376 L
3208 3340 mt 3208 3412 L
3184 2320 mt 3256 2320 L
3220 2284 mt 3220 2356 L
2355 3658 mt 2427 3658 L
2391 3622 mt 2391 3694 L
3066 2811 mt 3138 2811 L
3102 2775 mt 3102 2847 L
2432 2135 mt 2504 2135 L
2468 2099 mt 2468 2171 L
2420 2436 mt 2492 2436 L
2456 2400 mt 2456 2472 L
3768 2593 mt 3840 2593 L
3804 2557 mt 3804 2629 L
3013 1831 mt 3085 1831 L
3049 1795 mt 3049 1867 L
4028 3191 mt 4100 3191 L
4064 3155 mt 4064 3227 L
1991 2462 mt 2063 2462 L
2027 2426 mt 2027 2498 L
1907 3213 mt 1979 3213 L
1943 3177 mt 1943 3249 L
3649 2104 mt 3721 2104 L
3685 2068 mt 3685 2140 L
3243 2493 mt 3315 2493 L
3279 2457 mt 3279 2529 L
4236 1732 mt 4308 1732 L
4272 1696 mt 4272 1768 L
1674 2709 mt 1746 2709 L
1710 2673 mt 1710 2745 L
3826 3386 mt 3898 3386 L
3862 3350 mt 3862 3422 L
2016 3227 mt 2088 3227 L
2052 3191 mt 2052 3263 L
4719 2440 mt 4791 2440 L
4755 2404 mt 4755 2476 L
2805 2713 mt 2877 2713 L
2841 2677 mt 2841 2749 L
2680 1698 mt 2752 1698 L
2716 1662 mt 2716 1734 L
4034 2001 mt 4106 2001 L
4070 1965 mt 4070 2037 L
2697 3405 mt 2769 3405 L
2733 3369 mt 2733 3441 L
4274 1462 mt 4346 1462 L
4310 1426 mt 4310 1498 L
3538 3567 mt 3610 3567 L
3574 3531 mt 3574 3603 L
2575 2007 mt 2647 2007 L
2611 1971 mt 2611 2043 L
3820 1794 mt 3892 1794 L
3856 1758 mt 3856 1830 L
4564 2673 mt 4636 2673 L
4600 2637 mt 4600 2709 L
3307 2787 mt 3379 2787 L
3343 2751 mt 3343 2823 L
3762 2825 mt 3834 2825 L
3798 2789 mt 3798 2861 L
2931 2024 mt 3003 2024 L
2967 1988 mt 2967 2060 L
2749 3242 mt 2821 3242 L
2785 3206 mt 2785 3278 L
3946 2920 mt 4018 2920 L
3982 2884 mt 3982 2956 L
2183 2347 mt 2255 2347 L
2219 2311 mt 2219 2383 L
6225 1772 mt 6297 1772 L
6261 1736 mt 6261 1808 L
3633 1593 mt 3705 1593 L
3669 1557 mt 3669 1629 L
4060 1476 mt 4132 1476 L
4096 1440 mt 4096 1512 L
2773 2695 mt 2845 2695 L
2809 2659 mt 2809 2731 L
4306 1936 mt 4378 1936 L
4342 1900 mt 4342 1972 L
3381 1995 mt 3453 1995 L
3417 1959 mt 3417 2031 L
3516 4305 mt 3588 4305 L
3552 4269 mt 3552 4341 L
4142 2471 mt 4214 2471 L
4178 2435 mt 4178 2507 L
3421 3610 mt 3493 3610 L
3457 3574 mt 3457 3646 L
1937 3349 mt 2009 3349 L
1973 3313 mt 1973 3385 L
3566 4131 mt 3638 4131 L
3602 4095 mt 3602 4167 L
1965 3057 mt 2037 3057 L
2001 3021 mt 2001 3093 L
4608 2951 mt 4680 2951 L
4644 2915 mt 4644 2987 L
3915 2571 mt 3987 2571 L
3951 2535 mt 3951 2607 L
2813 2057 mt 2885 2057 L
2849 2021 mt 2849 2093 L
3449 1966 mt 3521 1966 L
3485 1930 mt 3485 2002 L
2945 2801 mt 3017 2801 L
2981 2765 mt 2981 2837 L
3791 2750 mt 3863 2750 L
3827 2714 mt 3827 2786 L
2605 3250 mt 2677 3250 L
2641 3214 mt 2641 3286 L
3861 3752 mt 3933 3752 L
3897 3716 mt 3897 3788 L
2903 2869 mt 2975 2869 L
2939 2833 mt 2939 2905 L
3638 2228 mt 3710 2228 L
3674 2192 mt 3674 2264 L
3153 3581 mt 3225 3581 L
3189 3545 mt 3189 3617 L
4221 2115 mt 4293 2115 L
4257 2079 mt 4257 2151 L
4501 2677 mt 4573 2677 L
4537 2641 mt 4537 2713 L
3237 2392 mt 3309 2392 L
3273 2356 mt 3273 2428 L
2987 2806 mt 3059 2806 L
3023 2770 mt 3023 2842 L
3208 3774 mt 3280 3774 L
3244 3738 mt 3244 3810 L
3160 3112 mt 3232 3112 L
3196 3076 mt 3196 3148 L
3220 1152 mt 3292 1152 L
3256 1116 mt 3256 1188 L
2866 1653 mt 2938 1653 L
2902 1617 mt 2902 1689 L
4836 2180 mt 4908 2180 L
4872 2144 mt 4872 2216 L
3072 1917 mt 3144 1917 L
3108 1881 mt 3108 1953 L
3689 2242 mt 3761 2242 L
3725 2206 mt 3725 2278 L
3123 2718 mt 3195 2718 L
3159 2682 mt 3159 2754 L
3527 3137 mt 3599 3137 L
3563 3101 mt 3563 3173 L
3278 2978 mt 3350 2978 L
3314 2942 mt 3314 3014 L
3499 3358 mt 3571 3358 L
3535 3322 mt 3535 3394 L
5002 2432 mt 5074 2432 L
5038 2396 mt 5038 2468 L
3273 1624 mt 3345 1624 L
3309 1588 mt 3309 1660 L
2381 3297 mt 2453 3297 L
2417 3261 mt 2417 3333 L
3983 2334 mt 4055 2334 L
4019 2298 mt 4019 2370 L
1842 3106 mt 1914 3106 L
1878 3070 mt 1878 3142 L
3610 1604 mt 3682 1604 L
3646 1568 mt 3646 1640 L
3325 3367 mt 3397 3367 L
3361 3331 mt 3361 3403 L
3336 3479 mt 3408 3479 L
3372 3443 mt 3372 3515 L
4961 1865 mt 5033 1865 L
4997 1829 mt 4997 1901 L
4869 2170 mt 4941 2170 L
4905 2134 mt 4905 2206 L
3897 2383 mt 3969 2383 L
3933 2347 mt 3933 2419 L
4706 3503 mt 4778 3503 L
4742 3467 mt 4742 3539 L
2327 2445 mt 2399 2445 L
2363 2409 mt 2363 2481 L
3555 2237 mt 3627 2237 L
3591 2201 mt 3591 2273 L
2085 3848 mt 2157 3848 L
2121 3812 mt 2121 3884 L
3940 1911 mt 4012 1911 L
3976 1875 mt 3976 1947 L
5211 3731 mt 5283 3731 L
5247 3695 mt 5247 3767 L
3443 2615 mt 3515 2615 L
3479 2579 mt 3479 2651 L
3147 2792 mt 3219 2792 L
3183 2756 mt 3183 2828 L
4597 2682 mt 4669 2682 L
4633 2646 mt 4633 2718 L
3728 2029 mt 3800 2029 L
3764 1993 mt 3764 2065 L
1387 2209 mt 1459 2209 L
1423 2173 mt 1423 2245 L
1259 3877 mt 1331 3877 L
1295 3841 mt 1295 3913 L
3666 2611 mt 3738 2611 L
3702 2575 mt 3702 2647 L
3296 1006 mt 3368 1006 L
3332  970 mt 3332 1042 L
3774 3314 mt 3846 3314 L
3810 3278 mt 3810 3350 L
2938 1898 mt 3010 1898 L
2974 1862 mt 2974 1934 L
3838 2830 mt 3910 2830 L
3874 2794 mt 3874 2866 L
4512 2488 mt 4584 2488 L
4548 2452 mt 4548 2524 L
3672 2480 mt 3744 2480 L
3708 2444 mt 3708 2516 L
2715 2453 mt 2787 2453 L
2751 2417 mt 2751 2489 L
3627 3822 mt 3699 3822 L
3663 3786 mt 3663 3858 L
5150 1049 mt 5222 1049 L
5186 1013 mt 5186 1085 L
4041 1779 mt 4113 1779 L
4077 1743 mt 4077 1815 L
3803 2759 mt 3875 2759 L
3839 2723 mt 3839 2795 L
2040 2062 mt 2112 2062 L
2076 2026 mt 2076 2098 L
4015 1689 mt 4087 1689 L
4051 1653 mt 4051 1725 L
2706 2145 mt 2778 2145 L
2742 2109 mt 2742 2181 L
3867 2497 mt 3939 2497 L
3903 2461 mt 3903 2533 L
3141 2879 mt 3213 2879 L
3177 2843 mt 3177 2915 L
3879 1809 mt 3951 1809 L
3915 1773 mt 3915 1845 L
2394 2545 mt 2466 2545 L
2430 2509 mt 2430 2581 L
4191 2914 mt 4263 2914 L
4227 2878 mt 4227 2950 L
3996 3118 mt 4068 3118 L
4032 3082 mt 4032 3154 L
4667  824 mt 4739  824 L
4703  788 mt 4703  860 L
3415 2835 mt 3487 2835 L
3451 2799 mt 3451 2871 L
3353 2602 mt 3425 2602 L
3389 2566 mt 3389 2638 L
2689 1404 mt 2761 1404 L
2725 1368 mt 2725 1440 L
2267 1662 mt 2339 1662 L
2303 1626 mt 2303 1698 L
3166 2067 mt 3238 2067 L
3202 2031 mt 3202 2103 L
4904 2293 mt 4976 2293 L
4940 2257 mt 4940 2329 L
4390  724 mt 4462  724 L
4426  688 mt 4426  760 L
4416 2165 mt 4488 2165 L
4452 2129 mt 4452 2201 L
2643 1255 mt 2715 1255 L
2679 1219 mt 2679 1291 L
3544 3039 mt 3616 3039 L
3580 3003 mt 3580 3075 L
2781 2046 mt 2853 2046 L
2817 2010 mt 2817 2082 L
2595 1930 mt 2667 1930 L
2631 1894 mt 2631 1966 L
5413 1845 mt 5485 1845 L
5449 1809 mt 5449 1881 L
4107 1572 mt 4179 1572 L
4143 1536 mt 4143 1608 L
4886 1723 mt 4958 1723 L
4922 1687 mt 4922 1759 L
2917 2233 mt 2989 2233 L
2953 2197 mt 2953 2269 L
3717 2130 mt 3789 2130 L
3753 2094 mt 3753 2166 L
5828 1434 mt 5900 1434 L
5864 1398 mt 5864 1470 L
4643 1388 mt 4715 1388 L
4679 1352 mt 4679 1424 L
3020 2691 mt 3092 2691 L
3056 2655 mt 3056 2727 L
3740 1764 mt 3812 1764 L
3776 1728 mt 3776 1800 L
2888 2562 mt 2960 2562 L
2924 2526 mt 2924 2598 L
4381 2189 mt 4453 2189 L
4417 2153 mt 4417 2225 L
3387 2185 mt 3459 2185 L
3423 2149 mt 3423 2221 L
4322 3157 mt 4394 3157 L
4358 3121 mt 4358 3193 L
2874 3045 mt 2946 3045 L
2910 3009 mt 2910 3081 L
4619 3515 mt 4691 3515 L
4655 3479 mt 4655 3551 L
2966 2120 mt 3038 2120 L
3002 2084 mt 3002 2156 L
3488 3322 mt 3560 3322 L
3524 3286 mt 3524 3358 L
3214 2606 mt 3286 2606 L
3250 2570 mt 3250 2642 L
5468 1232 mt 5540 1232 L
5504 1196 mt 5504 1268 L
2251 1680 mt 2323 1680 L
2287 1644 mt 2287 1716 L
5365 1502 mt 5437 1502 L
5401 1466 mt 5401 1538 L
5531 3641 mt 5603 3641 L
5567 3605 mt 5567 3677 L
3683 2864 mt 3755 2864 L
3719 2828 mt 3719 2900 L
3644 2467 mt 3716 2467 L
3680 2431 mt 3680 2503 L
4054 2641 mt 4126 2641 L
4090 2605 mt 4090 2677 L
2973 3220 mt 3045 3220 L
3009 3184 mt 3009 3256 L
4087 1318 mt 4159 1318 L
4123 1282 mt 4123 1354 L
3751 2580 mt 3823 2580 L
3787 2544 mt 3787 2616 L
2821 1489 mt 2893 1489 L
2857 1453 mt 2857 1525 L
4121 2051 mt 4193 2051 L
4157 2015 mt 4157 2087 L
3757 3491 mt 3829 3491 L
3793 3455 mt 3793 3527 L
3190 4072 mt 3262 4072 L
3226 4036 mt 3226 4108 L
4338 2338 mt 4410 2338 L
4374 2302 mt 4374 2374 L
2959 1756 mt 3031 1756 L
2995 1720 mt 2995 1792 L
3797 1707 mt 3869 1707 L
3833 1671 mt 3833 1743 L
4170 2659 mt 4242 2659 L
4206 2623 mt 4206 2695 L
3129 2874 mt 3201 2874 L
3165 2838 mt 3165 2910 L
2634 3198 mt 2706 3198 L
2670 3162 mt 2670 3234 L
4372 2700 mt 4444 2700 L
4408 2664 mt 4408 2736 L
2797 3693 mt 2869 3693 L
2833 3657 mt 2833 3729 L
2063 2307 mt 2135 2307 L
2099 2271 mt 2099 2343 L
3432 3553 mt 3504 3553 L
3468 3517 mt 3468 3589 L
4680 1643 mt 4752 1643 L
4716 1607 mt 4716 1679 L
4492 2012 mt 4564 2012 L
4528 1976 mt 4528 2048 L
3599 3540 mt 3671 3540 L
3635 3504 mt 3635 3576 L
4156 3131 mt 4228 3131 L
4192 3095 mt 4192 3167 L
4149 2686 mt 4221 2686 L
4185 2650 mt 4185 2722 L
3471 3081 mt 3543 3081 L
3507 3045 mt 3507 3117 L
2555  564 mt 2627  564 L
2591  528 mt 2591  600 L
3302 2514 mt 3374 2514 L
3338 2478 mt 3338 2550 L
3053 2668 mt 3125 2668 L
3089 2632 mt 3089 2704 L
5096 2549 mt 5168 2549 L
5132 2513 mt 5132 2585 L
2671 3257 mt 2743 3257 L
2707 3221 mt 2707 3293 L
4330 3178 mt 4402 3178 L
4366 3142 mt 4366 3214 L
2523 2889 mt 2595 2889 L
2559 2853 mt 2559 2925 L
4067 1538 mt 4139 1538 L
4103 1502 mt 4103 1574 L
4228 2352 mt 4300 2352 L
4264 2316 mt 4264 2388 L
2952 2089 mt 3024 2089 L
2988 2053 mt 2988 2125 L
3232 2532 mt 3304 2532 L
3268 2496 mt 3268 2568 L
4009 1715 mt 4081 1715 L
4045 1679 mt 4045 1751 L
4199 2567 mt 4271 2567 L
4235 2531 mt 4235 2603 L
2106 2633 mt 2178 2633 L
2142 2597 mt 2142 2669 L
3477 3395 mt 3549 3395 L
3513 3359 mt 3513 3431 L
4407 1634 mt 4479 1634 L
4443 1598 mt 4443 1670 L
3785 1942 mt 3857 1942 L
3821 1906 mt 3821 1978 L
3594 2302 mt 3666 2302 L
3630 2266 mt 3630 2338 L
4482 2624 mt 4554 2624 L
4518 2588 mt 4518 2660 L
2765 1371 mt 2837 1371 L
2801 1335 mt 2801 1407 L
3398 2859 mt 3470 2859 L
3434 2823 mt 3434 2895 L
3249 2778 mt 3321 2778 L
3285 2742 mt 3285 2814 L
2844 1802 mt 2916 1802 L
2880 1766 mt 2880 1838 L
4002 2894 mt 4074 2894 L
4038 2858 mt 4038 2930 L
4251 2370 mt 4323 2370 L
4287 2334 mt 4287 2406 L
1619 3281 mt 1691 3281 L
1655 3245 mt 1655 3317 L
3404 2018 mt 3476 2018 L
3440 1982 mt 3440 2054 L
3891 2427 mt 3963 2427 L
3927 2391 mt 3927 2463 L
3921 3000 mt 3993 3000 L
3957 2964 mt 3957 3036 L
3454 3164 mt 3526 3164 L
3490 3128 mt 3490 3200 L
 863 3527 mt  935 3527 L
 899 3491 mt  899 3563 L
2993 2256 mt 3065 2256 L
3029 2220 mt 3029 2292 L
3814 3069 mt 3886 3069 L
3850 3033 mt 3850 3105 L
3605 2078 mt 3677 2078 L
3641 2042 mt 3641 2114 L
3482 2325 mt 3554 2325 L
3518 2289 mt 3518 2361 L
2479 3034 mt 2551 3034 L
2515 2998 mt 2515 3070 L
2545 2637 mt 2617 2637 L
2581 2601 mt 2581 2673 L
4266 1838 mt 4338 1838 L
4302 1802 mt 4302 1874 L
2165 2484 mt 2237 2484 L
2201 2448 mt 2201 2520 L
4472 2298 mt 4544 2298 L
4508 2262 mt 4508 2334 L
3532 2204 mt 3604 2204 L
3568 2168 mt 3568 2240 L
5180 1298 mt 5252 1298 L
5216 1262 mt 5216 1334 L
2757 2956 mt 2829 2956 L
2793 2920 mt 2793 2992 L
3571 2576 mt 3643 2576 L
3607 2540 mt 3607 2612 L
4259 1978 mt 4331 1978 L
4295 1942 mt 4295 2014 L
3040 3099 mt 3112 3099 L
3076 3063 mt 3076 3135 L
3694 2449 mt 3766 2449 L
3730 2413 mt 3730 2485 L
4074 2356 mt 4146 2356 L
4110 2320 mt 4110 2392 L
3033 2764 mt 3105 2764 L
3069 2728 mt 3069 2800 L
3393 2094 mt 3465 2094 L
3429 2058 mt 3429 2130 L
5122 1878 mt 5194 1878 L
5158 1842 mt 5158 1914 L
3110 3446 mt 3182 3446 L
3146 3410 mt 3146 3482 L
2341 2745 mt 2413 2745 L
2377 2709 mt 2377 2781 L
3046 3457 mt 3118 3457 L
3082 3421 mt 3082 3493 L
3723 2199 mt 3795 2199 L
3759 2163 mt 3759 2235 L
2312 2849 mt 2384 2849 L
2348 2813 mt 2348 2885 L
3226 2160 mt 3298 2160 L
3262 2124 mt 3262 2196 L
6033 1748 mt 6105 1748 L
6069 1712 mt 6069 1784 L
2828 2083 mt 2900 2083 L
2864 2047 mt 2864 2119 L
4820  898 mt 4892  898 L
4856  862 mt 4856  934 L
3711 3306 mt 3783 3306 L
3747 3270 mt 3747 3342 L
3700 2150 mt 3772 2150 L
3736 2114 mt 3736 2186 L
3809 1671 mt 3881 1671 L
3845 1635 mt 3845 1707 L
4135 2316 mt 4207 2316 L
4171 2280 mt 4171 2352 L
4746 2099 mt 4818 2099 L
4782 2063 mt 4782 2135 L
2723 2994 mt 2795 2994 L
2759 2958 mt 2759 3030 L
3410 2597 mt 3482 2597 L
3446 2561 mt 3446 2633 L
4981 1990 mt 5053 1990 L
5017 1954 mt 5017 2026 L
4163 2782 mt 4235 2782 L
4199 2746 mt 4199 2818 L
4585 2854 mt 4657 2854 L
4621 2818 mt 4621 2890 L
4314 2727 mt 4386 2727 L
4350 2691 mt 4350 2763 L
3085 2820 mt 3157 2820 L
3121 2784 mt 3121 2856 L
3577 1904 mt 3649 1904 L
3613 1868 mt 3613 1940 L
3977 2218 mt 4049 2218 L
4013 2182 mt 4013 2254 L
4435 1984 mt 4507 1984 L
4471 1948 mt 4471 2020 L
3460 2754 mt 3532 2754 L
3496 2718 mt 3496 2790 L
3255 3415 mt 3327 3415 L
3291 3379 mt 3291 3451 L
2468 3028 mt 2540 3028 L
2504 2992 mt 2504 3064 L
4213 3289 mt 4285 3289 L
4249 3253 mt 4249 3325 L
3989 2650 mt 4061 2650 L
4025 2614 mt 4025 2686 L
4243 2275 mt 4315 2275 L
4279 2239 mt 4279 2311 L
5024 2909 mt 5096 2909 L
5060 2873 mt 5060 2945 L
3616 3711 mt 3688 3711 L
3652 3675 mt 3652 3747 L
3655 2194 mt 3727 2194 L
3691 2158 mt 3691 2230 L
2456 2288 mt 2528 2288 L
2492 2252 mt 2492 2324 L
3909 2523 mt 3981 2523 L
3945 2487 mt 3945 2559 L
4047 1740 mt 4119 1740 L
4083 1704 mt 4083 1776 L
3885 2329 mt 3957 2329 L
3921 2293 mt 3921 2365 L
4760 1948 mt 4832 1948 L
4796 1912 mt 4796 1984 L
3000 2261 mt 3072 2261 L
3036 2225 mt 3036 2297 L
3549 2251 mt 3621 2251 L
3585 2215 mt 3585 2287 L
4080 2343 mt 4152 2343 L
4116 2307 mt 4116 2379 L
4444 2884 mt 4516 2884 L
4480 2848 mt 4480 2920 L
1805 3942 mt 1877 3942 L
1841 3906 mt 1841 3978 L
4532 2279 mt 4604 2279 L
4568 2243 mt 4568 2315 L
4574 2501 mt 4646 2501 L
4610 2465 mt 4610 2537 L
2910 2040 mt 2982 2040 L
2946 2004 mt 2946 2076 L
3934 2589 mt 4006 2589 L
3970 2553 mt 3970 2625 L
4522 3093 mt 4594 3093 L
4558 3057 mt 4558 3129 L
2490 3425 mt 2562 3425 L
2526 3389 mt 2526 3461 L
3290 1550 mt 3362 1550 L
3326 1514 mt 3326 1586 L
4094 2519 mt 4166 2519 L
4130 2483 mt 4130 2555 L
2652 2541 mt 2724 2541 L
2688 2505 mt 2688 2577 L
4355 2035 mt 4427 2035 L
4391 1999 mt 4391 2071 L
4298 3625 mt 4370 3625 L
4334 3589 mt 4334 3661 L
4789 1448 mt 4861 1448 L
4825 1412 mt 4825 1484 L
4631 3235 mt 4703 3235 L
4667 3199 mt 4667 3271 L
2368 2554 mt 2440 2554 L
2404 2518 mt 2404 2590 L
3178 3340 mt 3250 3340 L
3214 3304 mt 3214 3376 L
3873 1816 mt 3945 1816 L
3909 1780 mt 3909 1852 L
2146 2925 mt 2218 2925 L
2182 2889 mt 2182 2961 L
5245 2972 mt 5317 2972 L
5281 2936 mt 5281 3008 L
3621 3265 mt 3693 3265 L
3657 3229 mt 3657 3301 L
3734 2073 mt 3806 2073 L
3770 2037 mt 3770 2109 L
5071 2414 mt 5143 2414 L
5107 2378 mt 5107 2450 L
2624 2704 mt 2696 2704 L
2660 2668 mt 2660 2740 L
2407 2423 mt 2479 2423 L
2443 2387 mt 2443 2459 L
2740 2940 mt 2812 2940 L
2776 2904 mt 2776 2976 L
2615 3151 mt 2687 3151 L
2651 3115 mt 2651 3187 L
3844 1336 mt 3916 1336 L
3880 1300 mt 3880 1372 L
4453 2247 mt 4525 2247 L
4489 2211 mt 4489 2283 L
3855 2558 mt 3927 2558 L
3891 2522 mt 3891 2594 L
4425 2946 mt 4497 2946 L
4461 2910 mt 4461 2982 L
3319 3005 mt 3391 3005 L
3355 2969 mt 3355 3041 L
3359 3595 mt 3431 3595 L
3395 3559 mt 3395 3631 L
3098 2844 mt 3170 2844 L
3134 2808 mt 3134 2880 L
4206 2379 mt 4278 2379 L
4242 2343 mt 4242 2415 L
5282 1354 mt 5354 1354 L
5318 1318 mt 5318 1390 L
3202 3075 mt 3274 3075 L
3238 3039 mt 3238 3111 L
3078 2989 mt 3150 2989 L
3114 2953 mt 3114 3025 L
3370 2584 mt 3442 2584 L
3406 2548 mt 3406 2620 L
4542 1277 mt 4614 1277 L
4578 1241 mt 4578 1313 L
3466 2904 mt 3538 2904 L
3502 2868 mt 3502 2940 L
4398 1583 mt 4470 1583 L
4434 1547 mt 4434 1619 L
4100 2175 mt 4172 2175 L
4136 2139 mt 4136 2211 L
3588 2284 mt 3660 2284 L
3624 2248 mt 3624 2320 L
3091 4023 mt 3163 4023 L
3127 3987 mt 3127 4059 L
4775 2410 mt 4847 2410 L
4811 2374 mt 4811 2446 L
4693 1885 mt 4765 1885 L
4729 1849 mt 4729 1921 L
4553 1181 mt 4625 1181 L
4589 1145 mt 4589 1217 L
2586 2140 mt 2658 2140 L
2622 2104 mt 2622 2176 L
3952 3063 mt 4024 3063 L
3988 3027 mt 3988 3099 L
2881 2361 mt 2953 2361 L
2917 2325 mt 2917 2397 L
3582 2405 mt 3654 2405 L
3618 2369 mt 3618 2441 L
3284 2664 mt 3356 2664 L
3320 2628 mt 3320 2700 L
4941 1923 mt 5013 1923 L
4977 1887 mt 4977 1959 L
4021  957 mt 4093  957 L
4057  921 mt 4057  993 L
5047 2510 mt 5119 2510 L
5083 2474 mt 5083 2546 L
2859 1514 mt 2931 1514 L
2895 1478 mt 2895 1550 L
4114 3797 mt 4186 3797 L
4150 3761 mt 4150 3833 L
2851 1960 mt 2923 1960 L
2887 1924 mt 2887 1996 L
1556 2418 mt 1628 2418 L
1592 2382 mt 1592 2454 L
5321 1823 mt 5393 1823 L
5357 1787 mt 5357 1859 L
3267 1851 mt 3339 1851 L
3303 1815 mt 3303 1887 L
4852 2311 mt 4924 2311 L
4888 2275 mt 4888 2347 L
2235 2475 mt 2307 2475 L
2271 2439 mt 2271 2511 L
1876 2646 mt 1948 2646 L
1912 2610 mt 1912 2682 L
gs 899 414 5363 4203 rc
gr

0 sg
2752 5104 mt 
(\(S,LFCC,GMM\)) s
 482 3277 mt  -90 rotate
(\(S,SSC,GMM\)) s
90 rotate
2975  223 mt 
(Corr = 0.26) s

end %%Color Dict

eplot
%%EndObject

epage
end

showpage

%%Trailer
%%EOF
