%!PS-Adobe-3.0 EPSF-3.0
%%Creator: MATLAB, The Mathworks, Inc. Version 7.7.0.471 (R2008b). Operating System: Microsoft Windows XP.
%%Title: Pictures\main_zoo_mvar_analysis_data_BMI_xcorr_bmi_p1_k2_4_7.eps
%%CreationDate: 10/26/2009  05:44:28
%%DocumentNeededFonts: Helvetica
%%DocumentProcessColors: Cyan Magenta Yellow Black
%%LanguageLevel: 2
%%Pages: 1
%%BoundingBox:    32   180   546   616
%%EndComments

%%BeginProlog
% MathWorks dictionary
/MathWorks 160 dict begin
% definition operators
/bdef {bind def} bind def
/ldef {load def} bind def
/xdef {exch def} bdef
/xstore {exch store} bdef
% operator abbreviations
/c  /clip ldef
/cc /concat ldef
/cp /closepath ldef
/gr /grestore ldef
/gs /gsave ldef
/mt /moveto ldef
/np /newpath ldef
/cm /currentmatrix ldef
/sm /setmatrix ldef
/rm /rmoveto ldef
/rl /rlineto ldef
/s {show newpath} bdef
/sc {setcmykcolor} bdef
/sr /setrgbcolor ldef
/sg /setgray ldef
/w /setlinewidth ldef
/j /setlinejoin ldef
/cap /setlinecap ldef
/rc {rectclip} bdef
/rf {rectfill} bdef
% page state control
/pgsv () def
/bpage {/pgsv save def} bdef
/epage {pgsv restore} bdef
/bplot /gsave ldef
/eplot {stroke grestore} bdef
% orientation switch
/portraitMode 0 def /landscapeMode 1 def /rotateMode 2 def
% coordinate system mappings
/dpi2point 0 def
% font control
/FontSize 0 def
/FMS {/FontSize xstore findfont [FontSize 0 0 FontSize neg 0 0]
  makefont setfont} bdef
/ISOLatin1Encoding where {pop /WindowsLatin1Encoding 256 array bdef
ISOLatin1Encoding WindowsLatin1Encoding copy pop
/.notdef/.notdef/quotesinglbase/florin/quotedblbase/ellipsis/dagger
/daggerdbl/circumflex/perthousand/Scaron/guilsinglleft/OE/.notdef/.notdef
/.notdef/.notdef/quoteleft/quoteright/quotedblleft/quotedblright/bullet
/endash/emdash/tilde/trademark/scaron/guilsinglright/oe/.notdef/.notdef
/Ydieresis WindowsLatin1Encoding 128 32 getinterval astore pop}
{/WindowsLatin1Encoding StandardEncoding bdef} ifelse
/reencode {exch dup where {pop load} {pop StandardEncoding} ifelse
  exch dup 3 1 roll findfont dup length dict begin
  { 1 index /FID ne {def}{pop pop} ifelse } forall
  /Encoding exch def currentdict end definefont pop} bdef
/isroman {findfont /CharStrings get /Agrave known} bdef
/FMSR {3 1 roll 1 index dup isroman {reencode} {pop pop} ifelse
  exch FMS} bdef
/csm {1 dpi2point div -1 dpi2point div scale neg translate
 dup landscapeMode eq {pop -90 rotate}
  {rotateMode eq {90 rotate} if} ifelse} bdef
% line types: solid, dotted, dashed, dotdash
/SO { [] 0 setdash } bdef
/DO { [.5 dpi2point mul 4 dpi2point mul] 0 setdash } bdef
/DA { [6 dpi2point mul] 0 setdash } bdef
/DD { [.5 dpi2point mul 4 dpi2point mul 6 dpi2point mul 4
  dpi2point mul] 0 setdash } bdef
% macros for lines and objects
/L {lineto stroke} bdef
/MP {3 1 roll moveto 1 sub {rlineto} repeat} bdef
/AP {{rlineto} repeat} bdef
/PDlw -1 def
/W {/PDlw currentlinewidth def setlinewidth} def
/PP {closepath eofill} bdef
/DP {closepath stroke} bdef
/MR {4 -2 roll moveto dup  0 exch rlineto exch 0 rlineto
  neg 0 exch rlineto closepath} bdef
/FR {MR stroke} bdef
/PR {MR fill} bdef
/L1i {{currentfile picstr readhexstring pop} image} bdef
/tMatrix matrix def
/MakeOval {newpath tMatrix currentmatrix pop translate scale
0 0 1 0 360 arc tMatrix setmatrix} bdef
/FO {MakeOval stroke} bdef
/PO {MakeOval fill} bdef
/PD {currentlinewidth 2 div 0 360 arc fill
   PDlw -1 eq not {PDlw w /PDlw -1 def} if} def
/FA {newpath tMatrix currentmatrix pop translate scale
  0 0 1 5 -2 roll arc tMatrix setmatrix stroke} bdef
/PA {newpath tMatrix currentmatrix pop	translate 0 0 moveto scale
  0 0 1 5 -2 roll arc closepath tMatrix setmatrix fill} bdef
/FAn {newpath tMatrix currentmatrix pop translate scale
  0 0 1 5 -2 roll arcn tMatrix setmatrix stroke} bdef
/PAn {newpath tMatrix currentmatrix pop translate 0 0 moveto scale
  0 0 1 5 -2 roll arcn closepath tMatrix setmatrix fill} bdef
/vradius 0 def /hradius 0 def /lry 0 def
/lrx 0 def /uly 0 def /ulx 0 def /rad 0 def
/MRR {/vradius xdef /hradius xdef /lry xdef /lrx xdef /uly xdef
  /ulx xdef newpath tMatrix currentmatrix pop ulx hradius add uly
  vradius add translate hradius vradius scale 0 0 1 180 270 arc 
  tMatrix setmatrix lrx hradius sub uly vradius add translate
  hradius vradius scale 0 0 1 270 360 arc tMatrix setmatrix
  lrx hradius sub lry vradius sub translate hradius vradius scale
  0 0 1 0 90 arc tMatrix setmatrix ulx hradius add lry vradius sub
  translate hradius vradius scale 0 0 1 90 180 arc tMatrix setmatrix
  closepath} bdef
/FRR {MRR stroke } bdef
/PRR {MRR fill } bdef
/MlrRR {/lry xdef /lrx xdef /uly xdef /ulx xdef /rad lry uly sub 2 div def
  newpath tMatrix currentmatrix pop ulx rad add uly rad add translate
  rad rad scale 0 0 1 90 270 arc tMatrix setmatrix lrx rad sub lry rad
  sub translate rad rad scale 0 0 1 270 90 arc tMatrix setmatrix
  closepath} bdef
/FlrRR {MlrRR stroke } bdef
/PlrRR {MlrRR fill } bdef
/MtbRR {/lry xdef /lrx xdef /uly xdef /ulx xdef /rad lrx ulx sub 2 div def
  newpath tMatrix currentmatrix pop ulx rad add uly rad add translate
  rad rad scale 0 0 1 180 360 arc tMatrix setmatrix lrx rad sub lry rad
  sub translate rad rad scale 0 0 1 0 180 arc tMatrix setmatrix
  closepath} bdef
/FtbRR {MtbRR stroke } bdef
/PtbRR {MtbRR fill } bdef
/stri 6 array def /dtri 6 array def
/smat 6 array def /dmat 6 array def
/tmat1 6 array def /tmat2 6 array def /dif 3 array def
/asub {/ind2 exch def /ind1 exch def dup dup
  ind1 get exch ind2 get sub exch } bdef
/tri_to_matrix {
  2 0 asub 3 1 asub 4 0 asub 5 1 asub
  dup 0 get exch 1 get 7 -1 roll astore } bdef
/compute_transform {
  dmat dtri tri_to_matrix tmat1 invertmatrix 
  smat stri tri_to_matrix tmat2 concatmatrix } bdef
/ds {stri astore pop} bdef
/dt {dtri astore pop} bdef
/db {2 copy /cols xdef /rows xdef mul dup 3 mul string
  currentfile 
  3 index 0 eq {/ASCIIHexDecode filter}
  {/ASCII85Decode filter 3 index 2 eq {/RunLengthDecode filter} if }
  ifelse exch readstring pop
  dup 0 3 index getinterval /rbmap xdef
  dup 2 index dup getinterval /gbmap xdef
  1 index dup 2 mul exch getinterval /bbmap xdef pop pop}bdef
/it {gs np dtri aload pop moveto lineto lineto cp c
  cols rows 8 compute_transform 
  rbmap gbmap bbmap true 3 colorimage gr}bdef
/il {newpath moveto lineto stroke}bdef
currentdict end def
%%EndProlog

%%BeginSetup
MathWorks begin

0 cap

end
%%EndSetup

%%Page: 1 1
%%BeginPageSetup
%%PageBoundingBox:    32   180   546   616
MathWorks begin
bpage
%%EndPageSetup

%%BeginObject: obj1
bplot

/dpi2point 12 def
portraitMode 0216 7344 csm

  174   -48  6173  5231 rc
85 dict begin %Colortable dictionary
/c0 { 0.000000 0.000000 0.000000 sr} bdef
/c1 { 1.000000 1.000000 1.000000 sr} bdef
/c2 { 0.900000 0.000000 0.000000 sr} bdef
/c3 { 0.000000 0.820000 0.000000 sr} bdef
/c4 { 0.000000 0.000000 0.800000 sr} bdef
/c5 { 0.910000 0.820000 0.320000 sr} bdef
/c6 { 1.000000 0.260000 0.820000 sr} bdef
/c7 { 0.000000 0.820000 0.820000 sr} bdef
c0
1 j
1 sg
   0    0 6919 5187 rf
6 w
0 4201 5363 0 0 -4201 898 4616 4 MP
PP
-5363 0 0 4201 5363 0 0 -4201 898 4616 5 MP stroke
4 w
DO
SO
6 w
0 sg
 898  415 mt 6261  415 L
 898 4616 mt 6261 4616 L
6261 4616 mt 6261  415 L
 898 4616 mt  898  415 L
 898 4616 mt 6261 4616 L
 898 4616 mt  898  415 L
1970 4616 mt 1970 4562 L
1970  415 mt 1970  468 L
%%IncludeResource: font Helvetica
/Helvetica /WindowsLatin1Encoding 240 FMSR

1804 4873 mt 
(0.2) s
3043 4616 mt 3043 4562 L
3043  415 mt 3043  468 L
2877 4873 mt 
(0.4) s
4116 4616 mt 4116 4562 L
4116  415 mt 4116  468 L
3950 4873 mt 
(0.6) s
5188 4616 mt 5188 4562 L
5188  415 mt 5188  468 L
5022 4873 mt 
(0.8) s
 898 4196 mt  952 4196 L
6261 4196 mt 6207 4196 L
 531 4285 mt 
(0.1) s
 898 3776 mt  952 3776 L
6261 3776 mt 6207 3776 L
 531 3865 mt 
(0.2) s
 898 3356 mt  952 3356 L
6261 3356 mt 6207 3356 L
 531 3445 mt 
(0.3) s
 898 2935 mt  952 2935 L
6261 2935 mt 6207 2935 L
 531 3024 mt 
(0.4) s
 898 2515 mt  952 2515 L
6261 2515 mt 6207 2515 L
 531 2604 mt 
(0.5) s
 898 2095 mt  952 2095 L
6261 2095 mt 6207 2095 L
 531 2184 mt 
(0.6) s
 898 1675 mt  952 1675 L
6261 1675 mt 6207 1675 L
 531 1764 mt 
(0.7) s
 898 1255 mt  952 1255 L
6261 1255 mt 6207 1255 L
 531 1344 mt 
(0.8) s
 898  835 mt  952  835 L
6261  835 mt 6207  835 L
 531  924 mt 
(0.9) s
 898  415 mt 6261  415 L
 898 4616 mt 6261 4616 L
6261 4616 mt 6261  415 L
 898 4616 mt  898  415 L
gs 898 414 5364 4203 rc
gr

/c8 { 0.000000 0.000000 1.000000 sr} bdef
c8
5284  505 mt 5356  505 L
5320  469 mt 5320  541 L
5738 1018 mt 5810 1018 L
5774  982 mt 5774 1054 L
1082 3370 mt 1154 3370 L
1118 3334 mt 1118 3406 L
1527  725 mt 1599  725 L
1563  689 mt 1563  761 L
6021  512 mt 6093  512 L
6057  476 mt 6057  548 L
2122 1672 mt 2194 1672 L
2158 1636 mt 2158 1708 L
1044  602 mt 1116  602 L
1080  566 mt 1080  638 L
1637 2010 mt 1709 2010 L
1673 1974 mt 1673 2046 L
4249  616 mt 4321  616 L
4285  580 mt 4285  652 L
3369 1244 mt 3441 1244 L
3405 1208 mt 3405 1280 L
 885 1113 mt  957 1113 L
 921 1077 mt  921 1149 L
4471 2644 mt 4543 2644 L
4507 2608 mt 4507 2680 L
5900  634 mt 5972  634 L
5936  598 mt 5936  670 L
4149 1173 mt 4221 1173 L
4185 1137 mt 4185 1209 L
6169  623 mt 6241  623 L
6205  587 mt 6205  659 L
3297  821 mt 3369  821 L
3333  785 mt 3333  857 L
2574 2877 mt 2646 2877 L
2610 2841 mt 2610 2913 L
3279 4591 mt 3351 4591 L
3315 4555 mt 3315 4627 L
2258  905 mt 2330  905 L
2294  869 mt 2294  941 L
5429 1649 mt 5501 1649 L
5465 1613 mt 5465 1685 L
 875  914 mt  947  914 L
 911  878 mt  911  950 L
3653 4587 mt 3725 4587 L
3689 4551 mt 3689 4623 L
1240  537 mt 1312  537 L
1276  501 mt 1276  573 L
3117 1154 mt 3189 1154 L
3153 1118 mt 3153 1190 L
4624  811 mt 4696  811 L
4660  775 mt 4660  847 L
 870 1450 mt  942 1450 L
 906 1414 mt  906 1486 L
1574 1574 mt 1646 1574 L
1610 1538 mt 1610 1610 L
5032  912 mt 5104  912 L
5068  876 mt 5068  948 L
3188  555 mt 3260  555 L
3224  519 mt 3224  591 L
3711  934 mt 3783  934 L
3747  898 mt 3747  970 L
 998 1947 mt 1070 1947 L
1034 1911 mt 1034 1983 L
 869  870 mt  941  870 L
 905  834 mt  905  906 L
 897 2130 mt  969 2130 L
 933 2094 mt  933 2166 L
3765 2523 mt 3837 2523 L
3801 2487 mt 3801 2559 L
5726  522 mt 5798  522 L
5762  486 mt 5762  558 L
3018 2520 mt 3090 2520 L
3054 2484 mt 3054 2556 L
2219 1740 mt 2291 1740 L
2255 1704 mt 2255 1776 L
1185  649 mt 1257  649 L
1221  613 mt 1221  685 L
1250  452 mt 1322  452 L
1286  416 mt 1286  488 L
2414  582 mt 2486  582 L
2450  546 mt 2450  618 L
5100 2743 mt 5172 2743 L
5136 2707 mt 5136 2779 L
6026  444 mt 6098  444 L
6062  408 mt 6062  480 L
3128 1101 mt 3200 1101 L
3164 1065 mt 3164 1137 L
1907 4196 mt 1979 4196 L
1943 4160 mt 1943 4232 L
6179 3339 mt 6251 3339 L
6215 3303 mt 6215 3375 L
 885 1223 mt  957 1223 L
 921 1187 mt  921 1259 L
3749  557 mt 3821  557 L
3785  521 mt 3785  593 L
1985 1557 mt 2057 1557 L
2021 1521 mt 2021 1593 L
1745 3405 mt 1817 3405 L
1781 3369 mt 1781 3441 L
4371 1862 mt 4443 1862 L
4407 1826 mt 4407 1898 L
6177 1030 mt 6249 1030 L
6213  994 mt 6213 1066 L
5119 1147 mt 5191 1147 L
5155 1111 mt 5155 1183 L
4823 2599 mt 4895 2599 L
4859 2563 mt 4859 2635 L
5439 1900 mt 5511 1900 L
5475 1864 mt 5475 1936 L
4689 1916 mt 4761 1916 L
4725 1880 mt 4725 1952 L
2949 3146 mt 3021 3146 L
2985 3110 mt 2985 3182 L
3652 1272 mt 3724 1272 L
3688 1236 mt 3688 1308 L
6165 2050 mt 6237 2050 L
6201 2014 mt 6201 2086 L
 939  617 mt 1011  617 L
 975  581 mt  975  653 L
2103 1123 mt 2175 1123 L
2139 1087 mt 2139 1159 L
5413 4353 mt 5485 4353 L
5449 4317 mt 5449 4389 L
 863  881 mt  935  881 L
 899  845 mt  899  917 L
2464 4469 mt 2536 4469 L
2500 4433 mt 2500 4505 L
6177  565 mt 6249  565 L
6213  529 mt 6213  601 L
4215 2246 mt 4287 2246 L
4251 2210 mt 4251 2282 L
6166 1917 mt 6238 1917 L
6202 1881 mt 6202 1953 L
6138  989 mt 6210  989 L
6174  953 mt 6174 1025 L
2452  841 mt 2524  841 L
2488  805 mt 2488  877 L
1350  580 mt 1422  580 L
1386  544 mt 1386  616 L
5339  428 mt 5411  428 L
5375  392 mt 5375  464 L
1523  600 mt 1595  600 L
1559  564 mt 1559  636 L
5749 3031 mt 5821 3031 L
5785 2995 mt 5785 3067 L
4434 1815 mt 4506 1815 L
4470 1779 mt 4470 1851 L
3611  445 mt 3683  445 L
3647  409 mt 3647  481 L
1268 1145 mt 1340 1145 L
1304 1109 mt 1304 1181 L
5950 4612 mt 6022 4612 L
5986 4576 mt 5986 4648 L
5966 3920 mt 6038 3920 L
6002 3884 mt 6002 3956 L
 879  449 mt  951  449 L
 915  413 mt  915  485 L
1005  714 mt 1077  714 L
1041  678 mt 1041  750 L
1030  697 mt 1102  697 L
1066  661 mt 1066  733 L
5583  561 mt 5655  561 L
5619  525 mt 5619  597 L
2246 4497 mt 2318 4497 L
2282 4461 mt 2282 4533 L
5296 2161 mt 5368 2161 L
5332 2125 mt 5332 2197 L
5056  425 mt 5128  425 L
5092  389 mt 5092  461 L
4707  626 mt 4779  626 L
4743  590 mt 4743  662 L
1843 4511 mt 1915 4511 L
1879 4475 mt 1879 4547 L
5841  466 mt 5913  466 L
5877  430 mt 5877  502 L
3157 1969 mt 3229 1969 L
3193 1933 mt 3193 2005 L
5383 4399 mt 5455 4399 L
5419 4363 mt 5419 4435 L
6179  430 mt 6251  430 L
6215  394 mt 6215  466 L
2055  477 mt 2127  477 L
2091  441 mt 2091  513 L
6199  573 mt 6271  573 L
6235  537 mt 6235  609 L
1540  823 mt 1612  823 L
1576  787 mt 1576  859 L
4291 1669 mt 4363 1669 L
4327 1633 mt 4327 1705 L
3158 2450 mt 3230 2450 L
3194 2414 mt 3194 2486 L
1728 1763 mt 1800 1763 L
1764 1727 mt 1764 1799 L
5640 1527 mt 5712 1527 L
5676 1491 mt 5676 1563 L
6082  508 mt 6154  508 L
6118  472 mt 6118  544 L
2747 4596 mt 2819 4596 L
2783 4560 mt 2783 4632 L
5778  479 mt 5850  479 L
5814  443 mt 5814  515 L
6225  757 mt 6297  757 L
6261  721 mt 6261  793 L
2078 1547 mt 2150 1547 L
2114 1511 mt 2114 1583 L
2683 4360 mt 2755 4360 L
2719 4324 mt 2719 4396 L
5778 4612 mt 5850 4612 L
5814 4576 mt 5814 4648 L
1274 2533 mt 1346 2533 L
1310 2497 mt 1310 2569 L
1518  589 mt 1590  589 L
1554  553 mt 1554  625 L
3937  588 mt 4009  588 L
3973  552 mt 3973  624 L
1235  820 mt 1307  820 L
1271  784 mt 1271  856 L
1559 2269 mt 1631 2269 L
1595 2233 mt 1595 2305 L
1447 1448 mt 1519 1448 L
1483 1412 mt 1483 1484 L
4637 3726 mt 4709 3726 L
4673 3690 mt 4673 3762 L
1183 2309 mt 1255 2309 L
1219 2273 mt 1219 2345 L
4144 4287 mt 4216 4287 L
4180 4251 mt 4180 4323 L
6147  607 mt 6219  607 L
6183  571 mt 6183  643 L
1842 4482 mt 1914 4482 L
1878 4446 mt 1878 4518 L
1471 3412 mt 1543 3412 L
1507 3376 mt 1507 3448 L
5218  491 mt 5290  491 L
5254  455 mt 5254  527 L
5881 1074 mt 5953 1074 L
5917 1038 mt 5917 1110 L
 863 2671 mt  935 2671 L
 899 2635 mt  899 2707 L
2788 1194 mt 2860 1194 L
2824 1158 mt 2824 1230 L
5003  995 mt 5075  995 L
5039  959 mt 5039 1031 L
3118 1048 mt 3190 1048 L
3154 1012 mt 3154 1084 L
3919  794 mt 3991  794 L
3955  758 mt 3955  830 L
2423  704 mt 2495  704 L
2459  668 mt 2459  740 L
5072 4374 mt 5144 4374 L
5108 4338 mt 5108 4410 L
6212 1395 mt 6284 1395 L
6248 1359 mt 6248 1431 L
5287 1343 mt 5359 1343 L
5323 1307 mt 5323 1379 L
4381 2222 mt 4453 2222 L
4417 2186 mt 4417 2258 L
1424  821 mt 1496  821 L
1460  785 mt 1460  857 L
1000 4545 mt 1072 4545 L
1036 4509 mt 1036 4581 L
5907  853 mt 5979  853 L
5943  817 mt 5943  889 L
4985 3752 mt 5057 3752 L
5021 3716 mt 5021 3788 L
1851 1939 mt 1923 1939 L
1887 1903 mt 1887 1975 L
4266 3538 mt 4338 3538 L
4302 3502 mt 4302 3574 L
1028 1511 mt 1100 1511 L
1064 1475 mt 1064 1547 L
5247 4548 mt 5319 4548 L
5283 4512 mt 5283 4584 L
 875 4505 mt  947 4505 L
 911 4469 mt  911 4541 L
3467 1040 mt 3539 1040 L
3503 1004 mt 3503 1076 L
4283 2520 mt 4355 2520 L
4319 2484 mt 4319 2556 L
5608  722 mt 5680  722 L
5644  686 mt 5644  758 L
2649 1099 mt 2721 1099 L
2685 1063 mt 2685 1135 L
6014  499 mt 6086  499 L
6050  463 mt 6050  535 L
 987 1318 mt 1059 1318 L
1023 1282 mt 1023 1354 L
2865  934 mt 2937  934 L
2901  898 mt 2901  970 L
6056  526 mt 6128  526 L
6092  490 mt 6092  562 L
3354 1707 mt 3426 1707 L
3390 1671 mt 3390 1743 L
2578 2327 mt 2650 2327 L
2614 2291 mt 2614 2363 L
5676  467 mt 5748  467 L
5712  431 mt 5712  503 L
2520  573 mt 2592  573 L
2556  537 mt 2556  609 L
2950  484 mt 3022  484 L
2986  448 mt 2986  520 L
1037  853 mt 1109  853 L
1073  817 mt 1073  889 L
2147 4406 mt 2219 4406 L
2183 4370 mt 2183 4442 L
1916  682 mt 1988  682 L
1952  646 mt 1952  718 L
1002 1706 mt 1074 1706 L
1038 1670 mt 1038 1742 L
1737  685 mt 1809  685 L
1773  649 mt 1773  721 L
1748  545 mt 1820  545 L
1784  509 mt 1784  581 L
 865 4470 mt  937 4470 L
 901 4434 mt  901 4506 L
1022 3397 mt 1094 3397 L
1058 3361 mt 1058 3433 L
 887 2131 mt  959 2131 L
 923 2095 mt  923 2167 L
5415 2216 mt 5487 2216 L
5451 2180 mt 5451 2252 L
3079 3241 mt 3151 3241 L
3115 3205 mt 3115 3277 L
3044 4574 mt 3116 4574 L
3080 4538 mt 3080 4610 L
1801 1148 mt 1873 1148 L
1837 1112 mt 1837 1184 L
5735 2209 mt 5807 2209 L
5771 2173 mt 5771 2245 L
1290  529 mt 1362  529 L
1326  493 mt 1326  565 L
 862  833 mt  934  833 L
 898  797 mt  898  869 L
 917 3831 mt  989 3831 L
 953 3795 mt  953 3867 L
4731 1578 mt 4803 1578 L
4767 1542 mt 4767 1614 L
1104  417 mt 1176  417 L
1140  381 mt 1140  453 L
6109  594 mt 6181  594 L
6145  558 mt 6145  630 L
1408  586 mt 1480  586 L
1444  550 mt 1444  622 L
5577  519 mt 5649  519 L
5613  483 mt 5613  555 L
 871  873 mt  943  873 L
 907  837 mt  907  909 L
4077  901 mt 4149  901 L
4113  865 mt 4113  937 L
2600 2590 mt 2672 2590 L
2636 2554 mt 2636 2626 L
5478 1206 mt 5550 1206 L
5514 1170 mt 5514 1242 L
3276  862 mt 3348  862 L
3312  826 mt 3312  898 L
6219 2400 mt 6291 2400 L
6255 2364 mt 6255 2436 L
5689  983 mt 5761  983 L
5725  947 mt 5725 1019 L
1061  502 mt 1133  502 L
1097  466 mt 1097  538 L
1164 2213 mt 1236 2213 L
1200 2177 mt 1200 2249 L
4659 3867 mt 4731 3867 L
4695 3831 mt 4695 3903 L
3272  751 mt 3344  751 L
3308  715 mt 3308  787 L
6035 3470 mt 6107 3470 L
6071 3434 mt 6071 3506 L
4749  739 mt 4821  739 L
4785  703 mt 4785  775 L
1265 3133 mt 1337 3133 L
1301 3097 mt 1301 3169 L
6065 1376 mt 6137 1376 L
6101 1340 mt 6101 1412 L
4684 2412 mt 4756 2412 L
4720 2376 mt 4720 2448 L
5474  525 mt 5546  525 L
5510  489 mt 5510  561 L
1721 3509 mt 1793 3509 L
1757 3473 mt 1757 3545 L
 943 4496 mt 1015 4496 L
 979 4460 mt  979 4532 L
4239 3659 mt 4311 3659 L
4275 3623 mt 4275 3695 L
6089  524 mt 6161  524 L
6125  488 mt 6125  560 L
5522  779 mt 5594  779 L
5558  743 mt 5558  815 L
4894  486 mt 4966  486 L
4930  450 mt 4930  522 L
3172  496 mt 3244  496 L
3208  460 mt 3208  532 L
1490 1877 mt 1562 1877 L
1526 1841 mt 1526 1913 L
5291  493 mt 5363  493 L
5327  457 mt 5327  529 L
2083 1497 mt 2155 1497 L
2119 1461 mt 2119 1533 L
4361 2298 mt 4433 2298 L
4397 2262 mt 4397 2334 L
6178  553 mt 6250  553 L
6214  517 mt 6214  589 L
6102  490 mt 6174  490 L
6138  454 mt 6138  526 L
5973  830 mt 6045  830 L
6009  794 mt 6009  866 L
 877 2577 mt  949 2577 L
 913 2541 mt  913 2613 L
1043  569 mt 1115  569 L
1079  533 mt 1079  605 L
5577 2088 mt 5649 2088 L
5613 2052 mt 5613 2124 L
3584 2370 mt 3656 2370 L
3620 2334 mt 3620 2406 L
3648 4166 mt 3720 4166 L
3684 4130 mt 3684 4202 L
6072  415 mt 6144  415 L
6108  379 mt 6108  451 L
1385 4425 mt 1457 4425 L
1421 4389 mt 1421 4461 L
 937  459 mt 1009  459 L
 973  423 mt  973  495 L
6188 1972 mt 6260 1972 L
6224 1936 mt 6224 2008 L
5627  523 mt 5699  523 L
5663  487 mt 5663  559 L
3159 1621 mt 3231 1621 L
3195 1585 mt 3195 1657 L
6100  489 mt 6172  489 L
6136  453 mt 6136  525 L
6067 4014 mt 6139 4014 L
6103 3978 mt 6103 4050 L
5962  420 mt 6034  420 L
5998  384 mt 5998  456 L
3228 3624 mt 3300 3624 L
3264 3588 mt 3264 3660 L
1356 4610 mt 1428 4610 L
1392 4574 mt 1392 4646 L
4659 2221 mt 4731 2221 L
4695 2185 mt 4695 2257 L
1951 2614 mt 2023 2614 L
1987 2578 mt 1987 2650 L
1975  624 mt 2047  624 L
2011  588 mt 2011  660 L
5903 1481 mt 5975 1481 L
5939 1445 mt 5939 1517 L
 916 4582 mt  988 4582 L
 952 4546 mt  952 4618 L
5784 2961 mt 5856 2961 L
5820 2925 mt 5820 2997 L
1324 1057 mt 1396 1057 L
1360 1021 mt 1360 1093 L
 870  808 mt  942  808 L
 906  772 mt  906  844 L
4942  745 mt 5014  745 L
4978  709 mt 4978  781 L
1361  956 mt 1433  956 L
1397  920 mt 1397  992 L
 916 1974 mt  988 1974 L
 952 1938 mt  952 2010 L
5018 4607 mt 5090 4607 L
5054 4571 mt 5054 4643 L
3157 2704 mt 3229 2704 L
3193 2668 mt 3193 2740 L
1200 2890 mt 1272 2890 L
1236 2854 mt 1236 2926 L
1750 1224 mt 1822 1224 L
1786 1188 mt 1786 1260 L
 931  417 mt 1003  417 L
 967  381 mt  967  453 L
5901 1388 mt 5973 1388 L
5937 1352 mt 5937 1424 L
6138 3804 mt 6210 3804 L
6174 3768 mt 6174 3840 L
5100 2914 mt 5172 2914 L
5136 2878 mt 5136 2950 L
 898  612 mt  970  612 L
 934  576 mt  934  648 L
6199  728 mt 6271  728 L
6235  692 mt 6235  764 L
6206 3562 mt 6278 3562 L
6242 3526 mt 6242 3598 L
6147 2230 mt 6219 2230 L
6183 2194 mt 6183 2266 L
6216  952 mt 6288  952 L
6252  916 mt 6252  988 L
6211  427 mt 6283  427 L
6247  391 mt 6247  463 L
6198 4613 mt 6270 4613 L
6234 4577 mt 6234 4649 L
6195  852 mt 6267  852 L
6231  816 mt 6231  888 L
3552 1816 mt 3624 1816 L
3588 1780 mt 3588 1852 L
1845  615 mt 1917  615 L
1881  579 mt 1881  651 L
5930  416 mt 6002  416 L
5966  380 mt 5966  452 L
1237 4139 mt 1309 4139 L
1273 4103 mt 1273 4175 L
6126 4576 mt 6198 4576 L
6162 4540 mt 6162 4612 L
3002  875 mt 3074  875 L
3038  839 mt 3038  911 L
2827 1157 mt 2899 1157 L
2863 1121 mt 2863 1193 L
6200 2624 mt 6272 2624 L
6236 2588 mt 6236 2660 L
2771 1907 mt 2843 1907 L
2807 1871 mt 2807 1943 L
5403 4571 mt 5475 4571 L
5439 4535 mt 5439 4607 L
6075  572 mt 6147  572 L
6111  536 mt 6111  608 L
2268 3227 mt 2340 3227 L
2304 3191 mt 2304 3263 L
5935  734 mt 6007  734 L
5971  698 mt 5971  770 L
2828 1272 mt 2900 1272 L
2864 1236 mt 2864 1308 L
6207 3991 mt 6279 3991 L
6243 3955 mt 6243 4027 L
6152  679 mt 6224  679 L
6188  643 mt 6188  715 L
5390 1268 mt 5462 1268 L
5426 1232 mt 5426 1304 L
6106 4151 mt 6178 4151 L
6142 4115 mt 6142 4187 L
5087  490 mt 5159  490 L
5123  454 mt 5123  526 L
2049 4050 mt 2121 4050 L
2085 4014 mt 2085 4086 L
6166 4041 mt 6238 4041 L
6202 4005 mt 6202 4077 L
3550  612 mt 3622  612 L
3586  576 mt 3586  648 L
2445  449 mt 2517  449 L
2481  413 mt 2481  485 L
5261 1947 mt 5333 1947 L
5297 1911 mt 5297 1983 L
6220  525 mt 6292  525 L
6256  489 mt 6256  561 L
5856 4401 mt 5928 4401 L
5892 4365 mt 5892 4437 L
6180 4223 mt 6252 4223 L
6216 4187 mt 6216 4259 L
2409  476 mt 2481  476 L
2445  440 mt 2445  512 L
4273 1576 mt 4345 1576 L
4309 1540 mt 4309 1612 L
1689 4616 mt 1761 4616 L
1725 4580 mt 1725 4652 L
6170 2211 mt 6242 2211 L
6206 2175 mt 6206 2247 L
6151  670 mt 6223  670 L
6187  634 mt 6187  706 L
1616 1461 mt 1688 1461 L
1652 1425 mt 1652 1497 L
6164  427 mt 6236  427 L
6200  391 mt 6200  463 L
5324 2339 mt 5396 2339 L
5360 2303 mt 5360 2375 L
5024 2084 mt 5096 2084 L
5060 2048 mt 5060 2120 L
6181 3576 mt 6253 3576 L
6217 3540 mt 6217 3612 L
4977 1091 mt 5049 1091 L
5013 1055 mt 5013 1127 L
5278 1645 mt 5350 1645 L
5314 1609 mt 5314 1681 L
1194  481 mt 1266  481 L
1230  445 mt 1230  517 L
6053  458 mt 6125  458 L
6089  422 mt 6089  494 L
4526 2015 mt 4598 2015 L
4562 1979 mt 4562 2051 L
2136 4194 mt 2208 4194 L
2172 4158 mt 2172 4230 L
5994 1798 mt 6066 1798 L
6030 1762 mt 6030 1834 L
6144 1381 mt 6216 1381 L
6180 1345 mt 6180 1417 L
5565  604 mt 5637  604 L
5601  568 mt 5601  640 L
1666 1114 mt 1738 1114 L
1702 1078 mt 1702 1150 L
2545 4110 mt 2617 4110 L
2581 4074 mt 2581 4146 L
3253  941 mt 3325  941 L
3289  905 mt 3289  977 L
1965 3972 mt 2037 3972 L
2001 3936 mt 2001 4008 L
4390 4471 mt 4462 4471 L
4426 4435 mt 4426 4507 L
1458  415 mt 1530  415 L
1494  379 mt 1494  451 L
2177 4556 mt 2249 4556 L
2213 4520 mt 2213 4592 L
6157  752 mt 6229  752 L
6193  716 mt 6193  788 L
5432  927 mt 5504  927 L
5468  891 mt 5468  963 L
5741 4006 mt 5813 4006 L
5777 3970 mt 5777 4042 L
3036 2446 mt 3108 2446 L
3072 2410 mt 3072 2482 L
6066 4299 mt 6138 4299 L
6102 4263 mt 6102 4335 L
1739 1758 mt 1811 1758 L
1775 1722 mt 1775 1794 L
6220 3036 mt 6292 3036 L
6256 3000 mt 6256 3072 L
6224  719 mt 6296  719 L
6260  683 mt 6260  755 L
5873 1404 mt 5945 1404 L
5909 1368 mt 5909 1440 L
5872 4014 mt 5944 4014 L
5908 3978 mt 5908 4050 L
1304 3176 mt 1376 3176 L
1340 3140 mt 1340 3212 L
4947  668 mt 5019  668 L
4983  632 mt 4983  704 L
2732 4567 mt 2804 4567 L
2768 4531 mt 2768 4603 L
1322 4092 mt 1394 4092 L
1358 4056 mt 1358 4128 L
2101 2164 mt 2173 2164 L
2137 2128 mt 2137 2200 L
2554 3387 mt 2626 3387 L
2590 3351 mt 2590 3423 L
1058 2803 mt 1130 2803 L
1094 2767 mt 1094 2839 L
6202 1346 mt 6274 1346 L
6238 1310 mt 6238 1382 L
5944 1945 mt 6016 1945 L
5980 1909 mt 5980 1981 L
2612 1718 mt 2684 1718 L
2648 1682 mt 2648 1754 L
6074  415 mt 6146  415 L
6110  379 mt 6110  451 L
6200 1226 mt 6272 1226 L
6236 1190 mt 6236 1262 L
4152 2617 mt 4224 2617 L
4188 2581 mt 4188 2653 L
2000 1299 mt 2072 1299 L
2036 1263 mt 2036 1335 L
1646 1280 mt 1718 1280 L
1682 1244 mt 1682 1316 L
4873  506 mt 4945  506 L
4909  470 mt 4909  542 L
3520 1559 mt 3592 1559 L
3556 1523 mt 3556 1595 L
5984 4615 mt 6056 4615 L
6020 4579 mt 6020 4651 L
6159 3669 mt 6231 3669 L
6195 3633 mt 6195 3705 L
6202 4491 mt 6274 4491 L
6238 4455 mt 6238 4527 L
1403 1124 mt 1475 1124 L
1439 1088 mt 1439 1160 L
5694  603 mt 5766  603 L
5730  567 mt 5730  639 L
2722 4130 mt 2794 4130 L
2758 4094 mt 2758 4166 L
6154 1557 mt 6226 1557 L
6190 1521 mt 6190 1593 L
3281 3198 mt 3353 3198 L
3317 3162 mt 3317 3234 L
2432 1553 mt 2504 1553 L
2468 1517 mt 2468 1589 L
2829 3641 mt 2901 3641 L
2865 3605 mt 2865 3677 L
3834 1686 mt 3906 1686 L
3870 1650 mt 3870 1722 L
5920  461 mt 5992  461 L
5956  425 mt 5956  497 L
3522 3424 mt 3594 3424 L
3558 3388 mt 3558 3460 L
4639 1226 mt 4711 1226 L
4675 1190 mt 4675 1262 L
5257  441 mt 5329  441 L
5293  405 mt 5293  477 L
6224  677 mt 6296  677 L
6260  641 mt 6260  713 L
3998 4042 mt 4070 4042 L
4034 4006 mt 4034 4078 L
 906  769 mt  978  769 L
 942  733 mt  942  805 L
4811  508 mt 4883  508 L
4847  472 mt 4847  544 L
3910 2717 mt 3982 2717 L
3946 2681 mt 3946 2753 L
4726 4547 mt 4798 4547 L
4762 4511 mt 4762 4583 L
4349 3213 mt 4421 3213 L
4385 3177 mt 4385 3249 L
3702  764 mt 3774  764 L
3738  728 mt 3738  800 L
2949 4602 mt 3021 4602 L
2985 4566 mt 2985 4638 L
 865  955 mt  937  955 L
 901  919 mt  901  991 L
2044 4159 mt 2116 4159 L
2080 4123 mt 2080 4195 L
4043 3383 mt 4115 3383 L
4079 3347 mt 4079 3419 L
3799 2064 mt 3871 2064 L
3835 2028 mt 3835 2100 L
2909  499 mt 2981  499 L
2945  463 mt 2945  535 L
5054  432 mt 5126  432 L
5090  396 mt 5090  468 L
1012 3973 mt 1084 3973 L
1048 3937 mt 1048 4009 L
2388 4184 mt 2460 4184 L
2424 4148 mt 2424 4220 L
1218 2610 mt 1290 2610 L
1254 2574 mt 1254 2646 L
1677 2315 mt 1749 2315 L
1713 2279 mt 1713 2351 L
5637 4611 mt 5709 4611 L
5673 4575 mt 5673 4647 L
1255 1096 mt 1327 1096 L
1291 1060 mt 1291 1132 L
5056  415 mt 5128  415 L
5092  379 mt 5092  451 L
6099 2438 mt 6171 2438 L
6135 2402 mt 6135 2474 L
1019 2923 mt 1091 2923 L
1055 2887 mt 1055 2959 L
2210 3293 mt 2282 3293 L
2246 3257 mt 2246 3329 L
5786 3887 mt 5858 3887 L
5822 3851 mt 5822 3923 L
3548 4564 mt 3620 4564 L
3584 4528 mt 3584 4600 L
6145 4589 mt 6217 4589 L
6181 4553 mt 6181 4625 L
6127  834 mt 6199  834 L
6163  798 mt 6163  870 L
4049 4277 mt 4121 4277 L
4085 4241 mt 4085 4313 L
6091 2406 mt 6163 2406 L
6127 2370 mt 6127 2442 L
6206 1791 mt 6278 1791 L
6242 1755 mt 6242 1827 L
2206 3042 mt 2278 3042 L
2242 3006 mt 2242 3078 L
6150 4125 mt 6222 4125 L
6186 4089 mt 6186 4161 L
 875  841 mt  947  841 L
 911  805 mt  911  877 L
 917 2419 mt  989 2419 L
 953 2383 mt  953 2455 L
2110 3332 mt 2182 3332 L
2146 3296 mt 2146 3368 L
2943 2162 mt 3015 2162 L
2979 2126 mt 2979 2198 L
 870 3940 mt  942 3940 L
 906 3904 mt  906 3976 L
2568 4550 mt 2640 4550 L
2604 4514 mt 2604 4586 L
 986  795 mt 1058  795 L
1022  759 mt 1022  831 L
6218  780 mt 6290  780 L
6254  744 mt 6254  816 L
5919  737 mt 5991  737 L
5955  701 mt 5955  773 L
 863 1208 mt  935 1208 L
 899 1172 mt  899 1244 L
6216 3775 mt 6288 3775 L
6252 3739 mt 6252 3811 L
4283 4536 mt 4355 4536 L
4319 4500 mt 4319 4572 L
5138 2455 mt 5210 2455 L
5174 2419 mt 5174 2491 L
2470 3469 mt 2542 3469 L
2506 3433 mt 2506 3505 L
4115  444 mt 4187  444 L
4151  408 mt 4151  480 L
1133 4068 mt 1205 4068 L
1169 4032 mt 1169 4104 L
3490 2548 mt 3562 2548 L
3526 2512 mt 3526 2584 L
5990 1953 mt 6062 1953 L
6026 1917 mt 6026 1989 L
5382  665 mt 5454  665 L
5418  629 mt 5418  701 L
6216  609 mt 6288  609 L
6252  573 mt 6252  645 L
4114  443 mt 4186  443 L
4150  407 mt 4150  479 L
3941 3716 mt 4013 3716 L
3977 3680 mt 3977 3752 L
4755  476 mt 4827  476 L
4791  440 mt 4791  512 L
1565 2883 mt 1637 2883 L
1601 2847 mt 1601 2919 L
6141  538 mt 6213  538 L
6177  502 mt 6177  574 L
gs 898 414 5364 4203 rc
gr

0 sg
2798 5104 mt 
(\(F,DCTs,iMLP\)) s
 422 3343 mt  -90 rotate
(\(S,LFCC,GMM\)) s
90 rotate
2975  223 mt 
(Corr = 0.07) s

end %%Color Dict

eplot
%%EndObject

epage
end

showpage

%%Trailer
%%EOF
