%!PS-Adobe-3.0 EPSF-3.0
%%Creator: MATLAB, The Mathworks, Inc. Version 7.7.0.471 (R2008b). Operating System: Microsoft Windows XP.
%%Title: Pictures\main_zoo_mvar_analysis_data_BMI_xcorr_bmi_p1_k2_3_6.eps
%%CreationDate: 10/26/2009  05:44:24
%%DocumentNeededFonts: Helvetica
%%DocumentProcessColors: Cyan Magenta Yellow Black
%%LanguageLevel: 2
%%Pages: 1
%%BoundingBox:    32   180   546   616
%%EndComments

%%BeginProlog
% MathWorks dictionary
/MathWorks 160 dict begin
% definition operators
/bdef {bind def} bind def
/ldef {load def} bind def
/xdef {exch def} bdef
/xstore {exch store} bdef
% operator abbreviations
/c  /clip ldef
/cc /concat ldef
/cp /closepath ldef
/gr /grestore ldef
/gs /gsave ldef
/mt /moveto ldef
/np /newpath ldef
/cm /currentmatrix ldef
/sm /setmatrix ldef
/rm /rmoveto ldef
/rl /rlineto ldef
/s {show newpath} bdef
/sc {setcmykcolor} bdef
/sr /setrgbcolor ldef
/sg /setgray ldef
/w /setlinewidth ldef
/j /setlinejoin ldef
/cap /setlinecap ldef
/rc {rectclip} bdef
/rf {rectfill} bdef
% page state control
/pgsv () def
/bpage {/pgsv save def} bdef
/epage {pgsv restore} bdef
/bplot /gsave ldef
/eplot {stroke grestore} bdef
% orientation switch
/portraitMode 0 def /landscapeMode 1 def /rotateMode 2 def
% coordinate system mappings
/dpi2point 0 def
% font control
/FontSize 0 def
/FMS {/FontSize xstore findfont [FontSize 0 0 FontSize neg 0 0]
  makefont setfont} bdef
/ISOLatin1Encoding where {pop /WindowsLatin1Encoding 256 array bdef
ISOLatin1Encoding WindowsLatin1Encoding copy pop
/.notdef/.notdef/quotesinglbase/florin/quotedblbase/ellipsis/dagger
/daggerdbl/circumflex/perthousand/Scaron/guilsinglleft/OE/.notdef/.notdef
/.notdef/.notdef/quoteleft/quoteright/quotedblleft/quotedblright/bullet
/endash/emdash/tilde/trademark/scaron/guilsinglright/oe/.notdef/.notdef
/Ydieresis WindowsLatin1Encoding 128 32 getinterval astore pop}
{/WindowsLatin1Encoding StandardEncoding bdef} ifelse
/reencode {exch dup where {pop load} {pop StandardEncoding} ifelse
  exch dup 3 1 roll findfont dup length dict begin
  { 1 index /FID ne {def}{pop pop} ifelse } forall
  /Encoding exch def currentdict end definefont pop} bdef
/isroman {findfont /CharStrings get /Agrave known} bdef
/FMSR {3 1 roll 1 index dup isroman {reencode} {pop pop} ifelse
  exch FMS} bdef
/csm {1 dpi2point div -1 dpi2point div scale neg translate
 dup landscapeMode eq {pop -90 rotate}
  {rotateMode eq {90 rotate} if} ifelse} bdef
% line types: solid, dotted, dashed, dotdash
/SO { [] 0 setdash } bdef
/DO { [.5 dpi2point mul 4 dpi2point mul] 0 setdash } bdef
/DA { [6 dpi2point mul] 0 setdash } bdef
/DD { [.5 dpi2point mul 4 dpi2point mul 6 dpi2point mul 4
  dpi2point mul] 0 setdash } bdef
% macros for lines and objects
/L {lineto stroke} bdef
/MP {3 1 roll moveto 1 sub {rlineto} repeat} bdef
/AP {{rlineto} repeat} bdef
/PDlw -1 def
/W {/PDlw currentlinewidth def setlinewidth} def
/PP {closepath eofill} bdef
/DP {closepath stroke} bdef
/MR {4 -2 roll moveto dup  0 exch rlineto exch 0 rlineto
  neg 0 exch rlineto closepath} bdef
/FR {MR stroke} bdef
/PR {MR fill} bdef
/L1i {{currentfile picstr readhexstring pop} image} bdef
/tMatrix matrix def
/MakeOval {newpath tMatrix currentmatrix pop translate scale
0 0 1 0 360 arc tMatrix setmatrix} bdef
/FO {MakeOval stroke} bdef
/PO {MakeOval fill} bdef
/PD {currentlinewidth 2 div 0 360 arc fill
   PDlw -1 eq not {PDlw w /PDlw -1 def} if} def
/FA {newpath tMatrix currentmatrix pop translate scale
  0 0 1 5 -2 roll arc tMatrix setmatrix stroke} bdef
/PA {newpath tMatrix currentmatrix pop	translate 0 0 moveto scale
  0 0 1 5 -2 roll arc closepath tMatrix setmatrix fill} bdef
/FAn {newpath tMatrix currentmatrix pop translate scale
  0 0 1 5 -2 roll arcn tMatrix setmatrix stroke} bdef
/PAn {newpath tMatrix currentmatrix pop translate 0 0 moveto scale
  0 0 1 5 -2 roll arcn closepath tMatrix setmatrix fill} bdef
/vradius 0 def /hradius 0 def /lry 0 def
/lrx 0 def /uly 0 def /ulx 0 def /rad 0 def
/MRR {/vradius xdef /hradius xdef /lry xdef /lrx xdef /uly xdef
  /ulx xdef newpath tMatrix currentmatrix pop ulx hradius add uly
  vradius add translate hradius vradius scale 0 0 1 180 270 arc 
  tMatrix setmatrix lrx hradius sub uly vradius add translate
  hradius vradius scale 0 0 1 270 360 arc tMatrix setmatrix
  lrx hradius sub lry vradius sub translate hradius vradius scale
  0 0 1 0 90 arc tMatrix setmatrix ulx hradius add lry vradius sub
  translate hradius vradius scale 0 0 1 90 180 arc tMatrix setmatrix
  closepath} bdef
/FRR {MRR stroke } bdef
/PRR {MRR fill } bdef
/MlrRR {/lry xdef /lrx xdef /uly xdef /ulx xdef /rad lry uly sub 2 div def
  newpath tMatrix currentmatrix pop ulx rad add uly rad add translate
  rad rad scale 0 0 1 90 270 arc tMatrix setmatrix lrx rad sub lry rad
  sub translate rad rad scale 0 0 1 270 90 arc tMatrix setmatrix
  closepath} bdef
/FlrRR {MlrRR stroke } bdef
/PlrRR {MlrRR fill } bdef
/MtbRR {/lry xdef /lrx xdef /uly xdef /ulx xdef /rad lrx ulx sub 2 div def
  newpath tMatrix currentmatrix pop ulx rad add uly rad add translate
  rad rad scale 0 0 1 180 360 arc tMatrix setmatrix lrx rad sub lry rad
  sub translate rad rad scale 0 0 1 0 180 arc tMatrix setmatrix
  closepath} bdef
/FtbRR {MtbRR stroke } bdef
/PtbRR {MtbRR fill } bdef
/stri 6 array def /dtri 6 array def
/smat 6 array def /dmat 6 array def
/tmat1 6 array def /tmat2 6 array def /dif 3 array def
/asub {/ind2 exch def /ind1 exch def dup dup
  ind1 get exch ind2 get sub exch } bdef
/tri_to_matrix {
  2 0 asub 3 1 asub 4 0 asub 5 1 asub
  dup 0 get exch 1 get 7 -1 roll astore } bdef
/compute_transform {
  dmat dtri tri_to_matrix tmat1 invertmatrix 
  smat stri tri_to_matrix tmat2 concatmatrix } bdef
/ds {stri astore pop} bdef
/dt {dtri astore pop} bdef
/db {2 copy /cols xdef /rows xdef mul dup 3 mul string
  currentfile 
  3 index 0 eq {/ASCIIHexDecode filter}
  {/ASCII85Decode filter 3 index 2 eq {/RunLengthDecode filter} if }
  ifelse exch readstring pop
  dup 0 3 index getinterval /rbmap xdef
  dup 2 index dup getinterval /gbmap xdef
  1 index dup 2 mul exch getinterval /bbmap xdef pop pop}bdef
/it {gs np dtri aload pop moveto lineto lineto cp c
  cols rows 8 compute_transform 
  rbmap gbmap bbmap true 3 colorimage gr}bdef
/il {newpath moveto lineto stroke}bdef
currentdict end def
%%EndProlog

%%BeginSetup
MathWorks begin

0 cap

end
%%EndSetup

%%Page: 1 1
%%BeginPageSetup
%%PageBoundingBox:    32   180   546   616
MathWorks begin
bpage
%%EndPageSetup

%%BeginObject: obj1
bplot

/dpi2point 12 def
portraitMode 0216 7344 csm

  174   -48  6173  5231 rc
85 dict begin %Colortable dictionary
/c0 { 0.000000 0.000000 0.000000 sr} bdef
/c1 { 1.000000 1.000000 1.000000 sr} bdef
/c2 { 0.900000 0.000000 0.000000 sr} bdef
/c3 { 0.000000 0.820000 0.000000 sr} bdef
/c4 { 0.000000 0.000000 0.800000 sr} bdef
/c5 { 0.910000 0.820000 0.320000 sr} bdef
/c6 { 1.000000 0.260000 0.820000 sr} bdef
/c7 { 0.000000 0.820000 0.820000 sr} bdef
c0
1 j
1 sg
   0    0 6919 5187 rf
6 w
0 4203 5362 0 0 -4203 899 4616 4 MP
PP
-5362 0 0 4203 5362 0 0 -4203 899 4616 5 MP stroke
4 w
DO
SO
6 w
0 sg
 899  413 mt 6261  413 L
 899 4616 mt 6261 4616 L
6261 4616 mt 6261  413 L
 899 4616 mt  899  413 L
 899 4616 mt 6261 4616 L
 899 4616 mt  899  413 L
1971 4616 mt 1971 4562 L
1971  414 mt 1971  467 L
%%IncludeResource: font Helvetica
/Helvetica /WindowsLatin1Encoding 240 FMSR

1805 4873 mt 
(0.2) s
3043 4616 mt 3043 4562 L
3043  414 mt 3043  467 L
2877 4873 mt 
(0.4) s
4116 4616 mt 4116 4562 L
4116  414 mt 4116  467 L
3950 4873 mt 
(0.6) s
5188 4616 mt 5188 4562 L
5188  414 mt 5188  467 L
5022 4873 mt 
(0.8) s
 899 4195 mt  952 4195 L
6261 4195 mt 6207 4195 L
 531 4284 mt 
(0.1) s
 899 3775 mt  952 3775 L
6261 3775 mt 6207 3775 L
 531 3864 mt 
(0.2) s
 899 3355 mt  952 3355 L
6261 3355 mt 6207 3355 L
 531 3444 mt 
(0.3) s
 899 2935 mt  952 2935 L
6261 2935 mt 6207 2935 L
 531 3024 mt 
(0.4) s
 899 2514 mt  952 2514 L
6261 2514 mt 6207 2514 L
 531 2603 mt 
(0.5) s
 899 2094 mt  952 2094 L
6261 2094 mt 6207 2094 L
 531 2183 mt 
(0.6) s
 899 1674 mt  952 1674 L
6261 1674 mt 6207 1674 L
 531 1763 mt 
(0.7) s
 899 1254 mt  952 1254 L
6261 1254 mt 6207 1254 L
 531 1343 mt 
(0.8) s
 899  834 mt  952  834 L
6261  834 mt 6207  834 L
 531  923 mt 
(0.9) s
 899  413 mt 6261  413 L
 899 4616 mt 6261 4616 L
6261 4616 mt 6261  413 L
 899 4616 mt  899  413 L
gs 899 414 5363 4203 rc
gr

/c8 { 0.000000 0.000000 1.000000 sr} bdef
c8
6059 2424 mt 6131 2424 L
6095 2388 mt 6095 2460 L
6157 2741 mt 6229 2741 L
6193 2705 mt 6193 2777 L
2487 1245 mt 2559 1245 L
2523 1209 mt 2523 1281 L
1711 2758 mt 1783 2758 L
1747 2722 mt 1747 2794 L
5961 1027 mt 6033 1027 L
5997  991 mt 5997 1063 L
5332  975 mt 5404  975 L
5368  939 mt 5368 1011 L
1393 4000 mt 1465 4000 L
1429 3964 mt 1429 4036 L
2316 3958 mt 2388 3958 L
2352 3922 mt 2352 3994 L
5533 4500 mt 5605 4500 L
5569 4464 mt 5569 4536 L
1262  446 mt 1334  446 L
1298  410 mt 1298  482 L
 863 4382 mt  935 4382 L
 899 4346 mt  899 4418 L
5861 2118 mt 5933 2118 L
5897 2082 mt 5897 2154 L
6164  637 mt 6236  637 L
6200  601 mt 6200  673 L
5622 2248 mt 5694 2248 L
5658 2212 mt 5658 2284 L
6216  470 mt 6288  470 L
6252  434 mt 6252  506 L
5730 4570 mt 5802 4570 L
5766 4534 mt 5766 4606 L
1183 3955 mt 1255 3955 L
1219 3919 mt 1219 3991 L
5072 2512 mt 5144 2512 L
5108 2476 mt 5108 2548 L
2779 3773 mt 2851 3773 L
2815 3737 mt 2815 3809 L
5193 1864 mt 5265 1864 L
5229 1828 mt 5229 1900 L
1290 2734 mt 1362 2734 L
1326 2698 mt 1326 2770 L
3090  886 mt 3162  886 L
3126  850 mt 3126  922 L
1538 3611 mt 1610 3611 L
1574 3575 mt 1574 3647 L
5066 2120 mt 5138 2120 L
5102 2084 mt 5102 2156 L
5736  437 mt 5808  437 L
5772  401 mt 5772  473 L
 864  471 mt  936  471 L
 900  435 mt  900  507 L
1319 2997 mt 1391 2997 L
1355 2961 mt 1355 3033 L
5987  581 mt 6059  581 L
6023  545 mt 6023  617 L
4909 4576 mt 4981 4576 L
4945 4540 mt 4945 4612 L
1747 4551 mt 1819 4551 L
1783 4515 mt 1783 4587 L
 919  852 mt  991  852 L
 955  816 mt  955  888 L
 873 3814 mt  945 3814 L
 909 3778 mt  909 3850 L
3159 4524 mt 3231 4524 L
3195 4488 mt 3195 4560 L
3919 1588 mt 3991 1588 L
3955 1552 mt 3955 1624 L
6146 1374 mt 6218 1374 L
6182 1338 mt 6182 1410 L
1954 3091 mt 2026 3091 L
1990 3055 mt 1990 3127 L
1815 4465 mt 1887 4465 L
1851 4429 mt 1851 4501 L
1314 1305 mt 1386 1305 L
1350 1269 mt 1350 1341 L
1395 1373 mt 1467 1373 L
1431 1337 mt 1431 1409 L
4450 4005 mt 4522 4005 L
4486 3969 mt 4486 4041 L
6001 1050 mt 6073 1050 L
6037 1014 mt 6037 1086 L
6193  597 mt 6265  597 L
6229  561 mt 6229  633 L
4951  893 mt 5023  893 L
4987  857 mt 4987  929 L
1885 1261 mt 1957 1261 L
1921 1225 mt 1921 1297 L
6216 3080 mt 6288 3080 L
6252 3044 mt 6252 3116 L
1175 1754 mt 1247 1754 L
1211 1718 mt 1211 1790 L
3572 3381 mt 3644 3381 L
3608 3345 mt 3608 3417 L
1754 1538 mt 1826 1538 L
1790 1502 mt 1790 1574 L
1503 2469 mt 1575 2469 L
1539 2433 mt 1539 2505 L
1214  428 mt 1286  428 L
1250  392 mt 1250  464 L
6217 4536 mt 6289 4536 L
6253 4500 mt 6253 4572 L
5916 3959 mt 5988 3959 L
5952 3923 mt 5952 3995 L
4086  998 mt 4158  998 L
4122  962 mt 4122 1034 L
6058 4503 mt 6130 4503 L
6094 4467 mt 6094 4539 L
4132 2095 mt 4204 2095 L
4168 2059 mt 4168 2131 L
4810 3109 mt 4882 3109 L
4846 3073 mt 4846 3145 L
3673 3291 mt 3745 3291 L
3709 3255 mt 3709 3327 L
6215  542 mt 6287  542 L
6251  506 mt 6251  578 L
2796 4583 mt 2868 4583 L
2832 4547 mt 2832 4619 L
3366  636 mt 3438  636 L
3402  600 mt 3402  672 L
6059 2866 mt 6131 2866 L
6095 2830 mt 6095 2902 L
1806 4149 mt 1878 4149 L
1842 4113 mt 1842 4185 L
5003 1974 mt 5075 1974 L
5039 1938 mt 5039 2010 L
6217 3012 mt 6289 3012 L
6253 2976 mt 6253 3048 L
5809 4217 mt 5881 4217 L
5845 4181 mt 5845 4253 L
6216  747 mt 6288  747 L
6252  711 mt 6252  783 L
6211 3965 mt 6283 3965 L
6247 3929 mt 6247 4001 L
5257 2648 mt 5329 2648 L
5293 2612 mt 5293 2684 L
2607 2497 mt 2679 2497 L
2643 2461 mt 2643 2533 L
6067 3461 mt 6139 3461 L
6103 3425 mt 6103 3497 L
1502 2223 mt 1574 2223 L
1538 2187 mt 1538 2259 L
6130  536 mt 6202  536 L
6166  500 mt 6166  572 L
 863 2914 mt  935 2914 L
 899 2878 mt  899 2950 L
2852 2602 mt 2924 2602 L
2888 2566 mt 2888 2638 L
1195 4534 mt 1267 4534 L
1231 4498 mt 1231 4570 L
6179 3062 mt 6251 3062 L
6215 3026 mt 6215 3098 L
6184 3358 mt 6256 3358 L
6220 3322 mt 6220 3394 L
1176 1806 mt 1248 1806 L
1212 1770 mt 1212 1842 L
1259  985 mt 1331  985 L
1295  949 mt 1295 1021 L
2559 4379 mt 2631 4379 L
2595 4343 mt 2595 4415 L
6122 4531 mt 6194 4531 L
6158 4495 mt 6158 4567 L
2031 2463 mt 2103 2463 L
2067 2427 mt 2067 2499 L
6064 3774 mt 6136 3774 L
6100 3738 mt 6100 3810 L
4550 1091 mt 4622 1091 L
4586 1055 mt 4586 1127 L
1037 1317 mt 1109 1317 L
1073 1281 mt 1073 1353 L
4315 3575 mt 4387 3575 L
4351 3539 mt 4351 3611 L
6157 3791 mt 6229 3791 L
6193 3755 mt 6193 3827 L
5360 1062 mt 5432 1062 L
5396 1026 mt 5396 1098 L
4619  828 mt 4691  828 L
4655  792 mt 4655  864 L
6219  956 mt 6291  956 L
6255  920 mt 6255  992 L
3643 4610 mt 3715 4610 L
3679 4574 mt 3679 4646 L
6221 1036 mt 6293 1036 L
6257 1000 mt 6257 1072 L
1232 4503 mt 1304 4503 L
1268 4467 mt 1268 4539 L
5607 3910 mt 5679 3910 L
5643 3874 mt 5643 3946 L
1260 4179 mt 1332 4179 L
1296 4143 mt 1296 4215 L
5389  480 mt 5461  480 L
5425  444 mt 5425  516 L
6117 2609 mt 6189 2609 L
6153 2573 mt 6153 2645 L
6201 4262 mt 6273 4262 L
6237 4226 mt 6237 4298 L
2577 4427 mt 2649 4427 L
2613 4391 mt 2613 4463 L
6129  877 mt 6201  877 L
6165  841 mt 6165  913 L
6225  614 mt 6297  614 L
6261  578 mt 6261  650 L
4612  503 mt 4684  503 L
4648  467 mt 4648  539 L
1121 1088 mt 1193 1088 L
1157 1052 mt 1157 1124 L
6150 4570 mt 6222 4570 L
6186 4534 mt 6186 4606 L
2321 4172 mt 2393 4172 L
2357 4136 mt 2357 4208 L
1176  691 mt 1248  691 L
1212  655 mt 1212  727 L
5677 1632 mt 5749 1632 L
5713 1596 mt 5713 1668 L
1006  780 mt 1078  780 L
1042  744 mt 1042  816 L
1720 3183 mt 1792 3183 L
1756 3147 mt 1756 3219 L
3401 2220 mt 3473 2220 L
3437 2184 mt 3437 2256 L
5698  730 mt 5770  730 L
5734  694 mt 5734  766 L
1314 1920 mt 1386 1920 L
1350 1884 mt 1350 1956 L
5868 4190 mt 5940 4190 L
5904 4154 mt 5904 4226 L
6170 1164 mt 6242 1164 L
6206 1128 mt 6206 1200 L
1326 4539 mt 1398 4539 L
1362 4503 mt 1362 4575 L
1104 3276 mt 1176 3276 L
1140 3240 mt 1140 3312 L
3742 1369 mt 3814 1369 L
3778 1333 mt 3778 1405 L
6171  588 mt 6243  588 L
6207  552 mt 6207  624 L
 879 3899 mt  951 3899 L
 915 3863 mt  915 3935 L
3138 3443 mt 3210 3443 L
3174 3407 mt 3174 3479 L
5951 2155 mt 6023 2155 L
5987 2119 mt 5987 2191 L
1705 1256 mt 1777 1256 L
1741 1220 mt 1741 1292 L
5544 4005 mt 5616 4005 L
5580 3969 mt 5580 4041 L
 894 4158 mt  966 4158 L
 930 4122 mt  930 4194 L
3546 3589 mt 3618 3589 L
3582 3553 mt 3582 3625 L
6223  450 mt 6295  450 L
6259  414 mt 6259  486 L
5984 4255 mt 6056 4255 L
6020 4219 mt 6020 4291 L
5804 2807 mt 5876 2807 L
5840 2771 mt 5840 2843 L
1510 1111 mt 1582 1111 L
1546 1075 mt 1546 1147 L
 896 4523 mt  968 4523 L
 932 4487 mt  932 4559 L
6166  622 mt 6238  622 L
6202  586 mt 6202  658 L
4313  789 mt 4385  789 L
4349  753 mt 4349  825 L
2291  830 mt 2363  830 L
2327  794 mt 2327  866 L
5737 2538 mt 5809 2538 L
5773 2502 mt 5773 2574 L
1147 4164 mt 1219 4164 L
1183 4128 mt 1183 4200 L
6100 1961 mt 6172 1961 L
6136 1925 mt 6136 1997 L
1812 4594 mt 1884 4594 L
1848 4558 mt 1848 4630 L
4714  677 mt 4786  677 L
4750  641 mt 4750  713 L
3100 2089 mt 3172 2089 L
3136 2053 mt 3136 2125 L
4835 4615 mt 4907 4615 L
4871 4579 mt 4871 4651 L
4556 3586 mt 4628 3586 L
4592 3550 mt 4592 3622 L
6197 1336 mt 6269 1336 L
6233 1300 mt 6233 1372 L
 888 2881 mt  960 2881 L
 924 2845 mt  924 2917 L
2041 1585 mt 2113 1585 L
2077 1549 mt 2077 1621 L
6194 3455 mt 6266 3455 L
6230 3419 mt 6230 3491 L
4767  502 mt 4839  502 L
4803  466 mt 4803  538 L
1173 1588 mt 1245 1588 L
1209 1552 mt 1209 1624 L
6141 4605 mt 6213 4605 L
6177 4569 mt 6177 4641 L
3245 1994 mt 3317 1994 L
3281 1958 mt 3281 2030 L
2860 2090 mt 2932 2090 L
2896 2054 mt 2896 2126 L
1106 2971 mt 1178 2971 L
1142 2935 mt 1142 3007 L
2386 3309 mt 2458 3309 L
2422 3273 mt 2422 3345 L
1863 4615 mt 1935 4615 L
1899 4579 mt 1899 4651 L
1465 4612 mt 1537 4612 L
1501 4576 mt 1501 4648 L
1016 1946 mt 1088 1946 L
1052 1910 mt 1052 1982 L
3242 4346 mt 3314 4346 L
3278 4310 mt 3278 4382 L
1265 3043 mt 1337 3043 L
1301 3007 mt 1301 3079 L
1619 2777 mt 1691 2777 L
1655 2741 mt 1655 2813 L
 863  973 mt  935  973 L
 899  937 mt  899 1009 L
4695  473 mt 4767  473 L
4731  437 mt 4731  509 L
5087 1272 mt 5159 1272 L
5123 1236 mt 5123 1308 L
2601 4608 mt 2673 4608 L
2637 4572 mt 2637 4644 L
 977 4191 mt 1049 4191 L
1013 4155 mt 1013 4227 L
5311 3273 mt 5383 3273 L
5347 3237 mt 5347 3309 L
1546 4472 mt 1618 4472 L
1582 4436 mt 1582 4508 L
 948 3635 mt 1020 3635 L
 984 3599 mt  984 3671 L
1397 1569 mt 1469 1569 L
1433 1533 mt 1433 1605 L
5713  502 mt 5785  502 L
5749  466 mt 5749  538 L
2370 2366 mt 2442 2366 L
2406 2330 mt 2406 2402 L
6206 1188 mt 6278 1188 L
6242 1152 mt 6242 1224 L
4106 3525 mt 4178 3525 L
4142 3489 mt 4142 3561 L
6088 4568 mt 6160 4568 L
6124 4532 mt 6124 4604 L
1538 1478 mt 1610 1478 L
1574 1442 mt 1574 1514 L
3584 2785 mt 3656 2785 L
3620 2749 mt 3620 2821 L
2296 4424 mt 2368 4424 L
2332 4388 mt 2332 4460 L
6078 1355 mt 6150 1355 L
6114 1319 mt 6114 1391 L
5009 1412 mt 5081 1412 L
5045 1376 mt 5045 1448 L
6223 3697 mt 6295 3697 L
6259 3661 mt 6259 3733 L
6139 4378 mt 6211 4378 L
6175 4342 mt 6175 4414 L
1021 2051 mt 1093 2051 L
1057 2015 mt 1057 2087 L
1394  753 mt 1466  753 L
1430  717 mt 1430  789 L
4046 1290 mt 4118 1290 L
4082 1254 mt 4082 1326 L
2924 4493 mt 2996 4493 L
2960 4457 mt 2960 4529 L
6189 4615 mt 6261 4615 L
6225 4579 mt 6225 4651 L
3579 1540 mt 3651 1540 L
3615 1504 mt 3615 1576 L
1590 4252 mt 1662 4252 L
1626 4216 mt 1626 4288 L
5523 3892 mt 5595 3892 L
5559 3856 mt 5559 3928 L
5748 1721 mt 5820 1721 L
5784 1685 mt 5784 1757 L
5061  779 mt 5133  779 L
5097  743 mt 5097  815 L
2013 1692 mt 2085 1692 L
2049 1656 mt 2049 1728 L
1018 3269 mt 1090 3269 L
1054 3233 mt 1054 3305 L
5467 4522 mt 5539 4522 L
5503 4486 mt 5503 4558 L
6203  544 mt 6275  544 L
6239  508 mt 6239  580 L
6059  427 mt 6131  427 L
6095  391 mt 6095  463 L
5853 1953 mt 5925 1953 L
5889 1917 mt 5889 1989 L
1077 1666 mt 1149 1666 L
1113 1630 mt 1113 1702 L
2865 4411 mt 2937 4411 L
2901 4375 mt 2901 4447 L
6025 2734 mt 6097 2734 L
6061 2698 mt 6061 2770 L
3575 2070 mt 3647 2070 L
3611 2034 mt 3611 2106 L
5555  471 mt 5627  471 L
5591  435 mt 5591  507 L
6217  477 mt 6289  477 L
6253  441 mt 6253  513 L
6205  603 mt 6277  603 L
6241  567 mt 6241  639 L
2233 1180 mt 2305 1180 L
2269 1144 mt 2269 1216 L
1787  855 mt 1859  855 L
1823  819 mt 1823  891 L
1097 2230 mt 1169 2230 L
1133 2194 mt 1133 2266 L
6108  727 mt 6180  727 L
6144  691 mt 6144  763 L
 973  422 mt 1045  422 L
1009  386 mt 1009  458 L
5751 1165 mt 5823 1165 L
5787 1129 mt 5787 1201 L
6209  443 mt 6281  443 L
6245  407 mt 6245  479 L
 870 3936 mt  942 3936 L
 906 3900 mt  906 3972 L
1323 4485 mt 1395 4485 L
1359 4449 mt 1359 4521 L
6219  552 mt 6291  552 L
6255  516 mt 6255  588 L
6223 4615 mt 6295 4615 L
6259 4579 mt 6259 4651 L
4845  472 mt 4917  472 L
4881  436 mt 4881  508 L
6205  877 mt 6277  877 L
6241  841 mt 6241  913 L
6199 3267 mt 6271 3267 L
6235 3231 mt 6235 3303 L
6179 1169 mt 6251 1169 L
6215 1133 mt 6215 1205 L
5757 1840 mt 5829 1840 L
5793 1804 mt 5793 1876 L
1188  428 mt 1260  428 L
1224  392 mt 1224  464 L
3781 1068 mt 3853 1068 L
3817 1032 mt 3817 1104 L
2488 4615 mt 2560 4615 L
2524 4579 mt 2524 4651 L
2478 3374 mt 2550 3374 L
2514 3338 mt 2514 3410 L
6169  676 mt 6241  676 L
6205  640 mt 6205  712 L
 873  459 mt  945  459 L
 909  423 mt  909  495 L
6146  468 mt 6218  468 L
6182  432 mt 6182  504 L
2174 1058 mt 2246 1058 L
2210 1022 mt 2210 1094 L
1702 4406 mt 1774 4406 L
1738 4370 mt 1738 4442 L
5959 3079 mt 6031 3079 L
5995 3043 mt 5995 3115 L
3389  907 mt 3461  907 L
3425  871 mt 3425  943 L
5199 3921 mt 5271 3921 L
5235 3885 mt 5235 3957 L
5967 4549 mt 6039 4549 L
6003 4513 mt 6003 4585 L
4515  437 mt 4587  437 L
4551  401 mt 4551  473 L
3999  440 mt 4071  440 L
4035  404 mt 4035  476 L
4353 4567 mt 4425 4567 L
4389 4531 mt 4389 4603 L
2123 1948 mt 2195 1948 L
2159 1912 mt 2159 1984 L
5778  421 mt 5850  421 L
5814  385 mt 5814  457 L
6211  417 mt 6283  417 L
6247  381 mt 6247  453 L
5987 2724 mt 6059 2724 L
6023 2688 mt 6023 2760 L
1116 2114 mt 1188 2114 L
1152 2078 mt 1152 2150 L
6221 3818 mt 6293 3818 L
6257 3782 mt 6257 3854 L
6222 2366 mt 6294 2366 L
6258 2330 mt 6258 2402 L
6215  509 mt 6287  509 L
6251  473 mt 6251  545 L
6223  550 mt 6295  550 L
6259  514 mt 6259  586 L
6207  432 mt 6279  432 L
6243  396 mt 6243  468 L
6005  513 mt 6077  513 L
6041  477 mt 6041  549 L
6220  606 mt 6292  606 L
6256  570 mt 6256  642 L
2892 1865 mt 2964 1865 L
2928 1829 mt 2928 1901 L
1798 2971 mt 1870 2971 L
1834 2935 mt 1834 3007 L
6175 4526 mt 6247 4526 L
6211 4490 mt 6211 4562 L
 877 4420 mt  949 4420 L
 913 4384 mt  913 4456 L
6210 1468 mt 6282 1468 L
6246 1432 mt 6246 1504 L
5133 3565 mt 5205 3565 L
5169 3529 mt 5169 3601 L
4634 2682 mt 4706 2682 L
4670 2646 mt 4670 2718 L
6220  550 mt 6292  550 L
6256  514 mt 6256  586 L
2673 4132 mt 2745 4132 L
2709 4096 mt 2709 4168 L
4308 3994 mt 4380 3994 L
4344 3958 mt 4344 4030 L
6202  579 mt 6274  579 L
6238  543 mt 6238  615 L
3993  509 mt 4065  509 L
4029  473 mt 4029  545 L
6175  417 mt 6247  417 L
6211  381 mt 6211  453 L
1028 1581 mt 1100 1581 L
1064 1545 mt 1064 1617 L
6222 2024 mt 6294 2024 L
6258 1988 mt 6258 2060 L
6063  985 mt 6135  985 L
6099  949 mt 6099 1021 L
6064 4580 mt 6136 4580 L
6100 4544 mt 6100 4616 L
6205 4615 mt 6277 4615 L
6241 4579 mt 6241 4651 L
4002  547 mt 4074  547 L
4038  511 mt 4038  583 L
4109  746 mt 4181  746 L
4145  710 mt 4145  782 L
6215 1871 mt 6287 1871 L
6251 1835 mt 6251 1907 L
3214 2805 mt 3286 2805 L
3250 2769 mt 3250 2841 L
4054 4556 mt 4126 4556 L
4090 4520 mt 4090 4592 L
6028  602 mt 6100  602 L
6064  566 mt 6064  638 L
6224  469 mt 6296  469 L
6260  433 mt 6260  505 L
6168 1179 mt 6240 1179 L
6204 1143 mt 6204 1215 L
6217  779 mt 6289  779 L
6253  743 mt 6253  815 L
2166 2015 mt 2238 2015 L
2202 1979 mt 2202 2051 L
2913  926 mt 2985  926 L
2949  890 mt 2949  962 L
1885  615 mt 1957  615 L
1921  579 mt 1921  651 L
6216  620 mt 6288  620 L
6252  584 mt 6252  656 L
6215 2452 mt 6287 2452 L
6251 2416 mt 6251 2488 L
1711  459 mt 1783  459 L
1747  423 mt 1747  495 L
6220  978 mt 6292  978 L
6256  942 mt 6256 1014 L
4720  492 mt 4792  492 L
4756  456 mt 4756  528 L
2569 4212 mt 2641 4212 L
2605 4176 mt 2605 4248 L
6219 4608 mt 6291 4608 L
6255 4572 mt 6255 4644 L
5060  714 mt 5132  714 L
5096  678 mt 5096  750 L
6078 2533 mt 6150 2533 L
6114 2497 mt 6114 2569 L
2203 1404 mt 2275 1404 L
2239 1368 mt 2239 1440 L
6205  871 mt 6277  871 L
6241  835 mt 6241  907 L
5958 1456 mt 6030 1456 L
5994 1420 mt 5994 1492 L
4202 4313 mt 4274 4313 L
4238 4277 mt 4238 4349 L
6186  725 mt 6258  725 L
6222  689 mt 6222  761 L
6195  556 mt 6267  556 L
6231  520 mt 6231  592 L
6100 1296 mt 6172 1296 L
6136 1260 mt 6136 1332 L
3551  769 mt 3623  769 L
3587  733 mt 3587  805 L
2454 4578 mt 2526 4578 L
2490 4542 mt 2490 4614 L
5584 2065 mt 5656 2065 L
5620 2029 mt 5620 2101 L
gs 899 414 5363 4203 rc
gr

5722 1652 mt 5794 1652 L
5758 1616 mt 5758 1688 L
2605 2982 mt 2677 2982 L
2641 2946 mt 2641 3018 L
2566  475 mt 2638  475 L
2602  439 mt 2602  511 L
6215 2381 mt 6287 2381 L
6251 2345 mt 6251 2417 L
6070  417 mt 6142  417 L
6106  381 mt 6106  453 L
5396 2592 mt 5468 2592 L
5432 2556 mt 5432 2628 L
4956  420 mt 5028  420 L
4992  384 mt 4992  456 L
6206 1294 mt 6278 1294 L
6242 1258 mt 6242 1330 L
2428 4615 mt 2500 4615 L
2464 4579 mt 2464 4651 L
4469  416 mt 4541  416 L
4505  380 mt 4505  452 L
6224  459 mt 6296  459 L
6260  423 mt 6260  495 L
6163  490 mt 6235  490 L
6199  454 mt 6199  526 L
6168 3891 mt 6240 3891 L
6204 3855 mt 6204 3927 L
3995  844 mt 4067  844 L
4031  808 mt 4031  880 L
5996 4610 mt 6068 4610 L
6032 4574 mt 6032 4646 L
2751 1321 mt 2823 1321 L
2787 1285 mt 2787 1357 L
3705  749 mt 3777  749 L
3741  713 mt 3741  785 L
2589 3069 mt 2661 3069 L
2625 3033 mt 2625 3105 L
2158  668 mt 2230  668 L
2194  632 mt 2194  704 L
 869 2819 mt  941 2819 L
 905 2783 mt  905 2855 L
6197  415 mt 6269  415 L
6233  379 mt 6233  451 L
5583  575 mt 5655  575 L
5619  539 mt 5619  611 L
5512 4051 mt 5584 4051 L
5548 4015 mt 5548 4087 L
6200  870 mt 6272  870 L
6236  834 mt 6236  906 L
6221  432 mt 6293  432 L
6257  396 mt 6257  468 L
5616 3413 mt 5688 3413 L
5652 3377 mt 5652 3449 L
5533 3859 mt 5605 3859 L
5569 3823 mt 5569 3895 L
 863  464 mt  935  464 L
 899  428 mt  899  500 L
5913  443 mt 5985  443 L
5949  407 mt 5949  479 L
5455  605 mt 5527  605 L
5491  569 mt 5491  641 L
6040 4195 mt 6112 4195 L
6076 4159 mt 6076 4231 L
6049 4065 mt 6121 4065 L
6085 4029 mt 6085 4101 L
6221 3806 mt 6293 3806 L
6257 3770 mt 6257 3842 L
1386 4544 mt 1458 4544 L
1422 4508 mt 1422 4580 L
6123  538 mt 6195  538 L
6159  502 mt 6159  574 L
2109 3125 mt 2181 3125 L
2145 3089 mt 2145 3161 L
6156  448 mt 6228  448 L
6192  412 mt 6192  484 L
5127 4261 mt 5199 4261 L
5163 4225 mt 5163 4297 L
4427 1478 mt 4499 1478 L
4463 1442 mt 4463 1514 L
5807 1338 mt 5879 1338 L
5843 1302 mt 5843 1374 L
3146 4066 mt 3218 4066 L
3182 4030 mt 3182 4102 L
6172  784 mt 6244  784 L
6208  748 mt 6208  820 L
5239  763 mt 5311  763 L
5275  727 mt 5275  799 L
3977  445 mt 4049  445 L
4013  409 mt 4013  481 L
3708 4594 mt 3780 4594 L
3744 4558 mt 3744 4630 L
6224  427 mt 6296  427 L
6260  391 mt 6260  463 L
1542  477 mt 1614  477 L
1578  441 mt 1578  513 L
 863 4614 mt  935 4614 L
 899 4578 mt  899 4650 L
3966  709 mt 4038  709 L
4002  673 mt 4002  745 L
5690 4493 mt 5762 4493 L
5726 4457 mt 5726 4529 L
5915 4115 mt 5987 4115 L
5951 4079 mt 5951 4151 L
5699 3845 mt 5771 3845 L
5735 3809 mt 5735 3881 L
5578 4118 mt 5650 4118 L
5614 4082 mt 5614 4154 L
 870 4615 mt  942 4615 L
 906 4579 mt  906 4651 L
 870 4169 mt  942 4169 L
 906 4133 mt  906 4205 L
2143 1941 mt 2215 1941 L
2179 1905 mt 2179 1977 L
5585 3535 mt 5657 3535 L
5621 3499 mt 5621 3571 L
5411  432 mt 5483  432 L
5447  396 mt 5447  468 L
2817 2831 mt 2889 2831 L
2853 2795 mt 2853 2867 L
6026  762 mt 6098  762 L
6062  726 mt 6062  798 L
1588  433 mt 1660  433 L
1624  397 mt 1624  469 L
2653  655 mt 2725  655 L
2689  619 mt 2689  691 L
1268 3422 mt 1340 3422 L
1304 3386 mt 1304 3458 L
1786 2994 mt 1858 2994 L
1822 2958 mt 1822 3030 L
6115 1445 mt 6187 1445 L
6151 1409 mt 6151 1481 L
4758 2312 mt 4830 2312 L
4794 2276 mt 4794 2348 L
 863  930 mt  935  930 L
 899  894 mt  899  966 L
6075 1699 mt 6147 1699 L
6111 1663 mt 6111 1735 L
1258 4601 mt 1330 4601 L
1294 4565 mt 1294 4637 L
5073 1608 mt 5145 1608 L
5109 1572 mt 5109 1644 L
6175 3372 mt 6247 3372 L
6211 3336 mt 6211 3408 L
1057 4616 mt 1129 4616 L
1093 4580 mt 1093 4652 L
6213  460 mt 6285  460 L
6249  424 mt 6249  496 L
6209  430 mt 6281  430 L
6245  394 mt 6245  466 L
2894  568 mt 2966  568 L
2930  532 mt 2930  604 L
6205  517 mt 6277  517 L
6241  481 mt 6241  553 L
6222 1460 mt 6294 1460 L
6258 1424 mt 6258 1496 L
1926  883 mt 1998  883 L
1962  847 mt 1962  919 L
6213 3424 mt 6285 3424 L
6249 3388 mt 6249 3460 L
1866 4547 mt 1938 4547 L
1902 4511 mt 1902 4583 L
 864 2059 mt  936 2059 L
 900 2023 mt  900 2095 L
3728 1005 mt 3800 1005 L
3764  969 mt 3764 1041 L
2586 2935 mt 2658 2935 L
2622 2899 mt 2622 2971 L
 863 2963 mt  935 2963 L
 899 2927 mt  899 2999 L
 994  436 mt 1066  436 L
1030  400 mt 1030  472 L
1080 4573 mt 1152 4573 L
1116 4537 mt 1116 4609 L
6223  489 mt 6295  489 L
6259  453 mt 6259  525 L
6193  564 mt 6265  564 L
6229  528 mt 6229  600 L
 968 2580 mt 1040 2580 L
1004 2544 mt 1004 2616 L
6223  730 mt 6295  730 L
6259  694 mt 6259  766 L
2726 2573 mt 2798 2573 L
2762 2537 mt 2762 2609 L
4333 4532 mt 4405 4532 L
4369 4496 mt 4369 4568 L
1039 3846 mt 1111 3846 L
1075 3810 mt 1075 3882 L
3331 1036 mt 3403 1036 L
3367 1000 mt 3367 1072 L
 874 1501 mt  946 1501 L
 910 1465 mt  910 1537 L
5458 2510 mt 5530 2510 L
5494 2474 mt 5494 2546 L
6186 1219 mt 6258 1219 L
6222 1183 mt 6222 1255 L
4426  414 mt 4498  414 L
4462  378 mt 4462  450 L
6223 1031 mt 6295 1031 L
6259  995 mt 6259 1067 L
2837 3677 mt 2909 3677 L
2873 3641 mt 2873 3713 L
5740 3106 mt 5812 3106 L
5776 3070 mt 5776 3142 L
5725  985 mt 5797  985 L
5761  949 mt 5761 1021 L
4521  736 mt 4593  736 L
4557  700 mt 4557  772 L
6213  519 mt 6285  519 L
6249  483 mt 6249  555 L
gs 899 414 5363 4203 rc
gr

0 sg
2826 5104 mt 
(\(F,DCTs,MLP\)) s
 422 3300 mt  -90 rotate
(\(F,DCTb,iMLP\)) s
90 rotate
2975  223 mt 
(Corr = 0.22) s

end %%Color Dict

eplot
%%EndObject

epage
end

showpage

%%Trailer
%%EOF
