%!PS-Adobe-3.0 EPSF-3.0
%%Creator: MATLAB, The Mathworks, Inc. Version 7.7.0.471 (R2008b). Operating System: Microsoft Windows XP.
%%Title: Pictures\main_zoo_mvar_analysis_data_BMI_xcorr_bmig_p2_k1_1_4.eps
%%CreationDate: 10/26/2009  05:45:38
%%DocumentNeededFonts: Helvetica
%%DocumentProcessColors: Cyan Magenta Yellow Black
%%LanguageLevel: 2
%%Pages: 1
%%BoundingBox:    37   180   549   616
%%EndComments

%%BeginProlog
% MathWorks dictionary
/MathWorks 160 dict begin
% definition operators
/bdef {bind def} bind def
/ldef {load def} bind def
/xdef {exch def} bdef
/xstore {exch store} bdef
% operator abbreviations
/c  /clip ldef
/cc /concat ldef
/cp /closepath ldef
/gr /grestore ldef
/gs /gsave ldef
/mt /moveto ldef
/np /newpath ldef
/cm /currentmatrix ldef
/sm /setmatrix ldef
/rm /rmoveto ldef
/rl /rlineto ldef
/s {show newpath} bdef
/sc {setcmykcolor} bdef
/sr /setrgbcolor ldef
/sg /setgray ldef
/w /setlinewidth ldef
/j /setlinejoin ldef
/cap /setlinecap ldef
/rc {rectclip} bdef
/rf {rectfill} bdef
% page state control
/pgsv () def
/bpage {/pgsv save def} bdef
/epage {pgsv restore} bdef
/bplot /gsave ldef
/eplot {stroke grestore} bdef
% orientation switch
/portraitMode 0 def /landscapeMode 1 def /rotateMode 2 def
% coordinate system mappings
/dpi2point 0 def
% font control
/FontSize 0 def
/FMS {/FontSize xstore findfont [FontSize 0 0 FontSize neg 0 0]
  makefont setfont} bdef
/ISOLatin1Encoding where {pop /WindowsLatin1Encoding 256 array bdef
ISOLatin1Encoding WindowsLatin1Encoding copy pop
/.notdef/.notdef/quotesinglbase/florin/quotedblbase/ellipsis/dagger
/daggerdbl/circumflex/perthousand/Scaron/guilsinglleft/OE/.notdef/.notdef
/.notdef/.notdef/quoteleft/quoteright/quotedblleft/quotedblright/bullet
/endash/emdash/tilde/trademark/scaron/guilsinglright/oe/.notdef/.notdef
/Ydieresis WindowsLatin1Encoding 128 32 getinterval astore pop}
{/WindowsLatin1Encoding StandardEncoding bdef} ifelse
/reencode {exch dup where {pop load} {pop StandardEncoding} ifelse
  exch dup 3 1 roll findfont dup length dict begin
  { 1 index /FID ne {def}{pop pop} ifelse } forall
  /Encoding exch def currentdict end definefont pop} bdef
/isroman {findfont /CharStrings get /Agrave known} bdef
/FMSR {3 1 roll 1 index dup isroman {reencode} {pop pop} ifelse
  exch FMS} bdef
/csm {1 dpi2point div -1 dpi2point div scale neg translate
 dup landscapeMode eq {pop -90 rotate}
  {rotateMode eq {90 rotate} if} ifelse} bdef
% line types: solid, dotted, dashed, dotdash
/SO { [] 0 setdash } bdef
/DO { [.5 dpi2point mul 4 dpi2point mul] 0 setdash } bdef
/DA { [6 dpi2point mul] 0 setdash } bdef
/DD { [.5 dpi2point mul 4 dpi2point mul 6 dpi2point mul 4
  dpi2point mul] 0 setdash } bdef
% macros for lines and objects
/L {lineto stroke} bdef
/MP {3 1 roll moveto 1 sub {rlineto} repeat} bdef
/AP {{rlineto} repeat} bdef
/PDlw -1 def
/W {/PDlw currentlinewidth def setlinewidth} def
/PP {closepath eofill} bdef
/DP {closepath stroke} bdef
/MR {4 -2 roll moveto dup  0 exch rlineto exch 0 rlineto
  neg 0 exch rlineto closepath} bdef
/FR {MR stroke} bdef
/PR {MR fill} bdef
/L1i {{currentfile picstr readhexstring pop} image} bdef
/tMatrix matrix def
/MakeOval {newpath tMatrix currentmatrix pop translate scale
0 0 1 0 360 arc tMatrix setmatrix} bdef
/FO {MakeOval stroke} bdef
/PO {MakeOval fill} bdef
/PD {currentlinewidth 2 div 0 360 arc fill
   PDlw -1 eq not {PDlw w /PDlw -1 def} if} def
/FA {newpath tMatrix currentmatrix pop translate scale
  0 0 1 5 -2 roll arc tMatrix setmatrix stroke} bdef
/PA {newpath tMatrix currentmatrix pop	translate 0 0 moveto scale
  0 0 1 5 -2 roll arc closepath tMatrix setmatrix fill} bdef
/FAn {newpath tMatrix currentmatrix pop translate scale
  0 0 1 5 -2 roll arcn tMatrix setmatrix stroke} bdef
/PAn {newpath tMatrix currentmatrix pop translate 0 0 moveto scale
  0 0 1 5 -2 roll arcn closepath tMatrix setmatrix fill} bdef
/vradius 0 def /hradius 0 def /lry 0 def
/lrx 0 def /uly 0 def /ulx 0 def /rad 0 def
/MRR {/vradius xdef /hradius xdef /lry xdef /lrx xdef /uly xdef
  /ulx xdef newpath tMatrix currentmatrix pop ulx hradius add uly
  vradius add translate hradius vradius scale 0 0 1 180 270 arc 
  tMatrix setmatrix lrx hradius sub uly vradius add translate
  hradius vradius scale 0 0 1 270 360 arc tMatrix setmatrix
  lrx hradius sub lry vradius sub translate hradius vradius scale
  0 0 1 0 90 arc tMatrix setmatrix ulx hradius add lry vradius sub
  translate hradius vradius scale 0 0 1 90 180 arc tMatrix setmatrix
  closepath} bdef
/FRR {MRR stroke } bdef
/PRR {MRR fill } bdef
/MlrRR {/lry xdef /lrx xdef /uly xdef /ulx xdef /rad lry uly sub 2 div def
  newpath tMatrix currentmatrix pop ulx rad add uly rad add translate
  rad rad scale 0 0 1 90 270 arc tMatrix setmatrix lrx rad sub lry rad
  sub translate rad rad scale 0 0 1 270 90 arc tMatrix setmatrix
  closepath} bdef
/FlrRR {MlrRR stroke } bdef
/PlrRR {MlrRR fill } bdef
/MtbRR {/lry xdef /lrx xdef /uly xdef /ulx xdef /rad lrx ulx sub 2 div def
  newpath tMatrix currentmatrix pop ulx rad add uly rad add translate
  rad rad scale 0 0 1 180 360 arc tMatrix setmatrix lrx rad sub lry rad
  sub translate rad rad scale 0 0 1 0 180 arc tMatrix setmatrix
  closepath} bdef
/FtbRR {MtbRR stroke } bdef
/PtbRR {MtbRR fill } bdef
/stri 6 array def /dtri 6 array def
/smat 6 array def /dmat 6 array def
/tmat1 6 array def /tmat2 6 array def /dif 3 array def
/asub {/ind2 exch def /ind1 exch def dup dup
  ind1 get exch ind2 get sub exch } bdef
/tri_to_matrix {
  2 0 asub 3 1 asub 4 0 asub 5 1 asub
  dup 0 get exch 1 get 7 -1 roll astore } bdef
/compute_transform {
  dmat dtri tri_to_matrix tmat1 invertmatrix 
  smat stri tri_to_matrix tmat2 concatmatrix } bdef
/ds {stri astore pop} bdef
/dt {dtri astore pop} bdef
/db {2 copy /cols xdef /rows xdef mul dup 3 mul string
  currentfile 
  3 index 0 eq {/ASCIIHexDecode filter}
  {/ASCII85Decode filter 3 index 2 eq {/RunLengthDecode filter} if }
  ifelse exch readstring pop
  dup 0 3 index getinterval /rbmap xdef
  dup 2 index dup getinterval /gbmap xdef
  1 index dup 2 mul exch getinterval /bbmap xdef pop pop}bdef
/it {gs np dtri aload pop moveto lineto lineto cp c
  cols rows 8 compute_transform 
  rbmap gbmap bbmap true 3 colorimage gr}bdef
/il {newpath moveto lineto stroke}bdef
currentdict end def
%%EndProlog

%%BeginSetup
MathWorks begin

0 cap

end
%%EndSetup

%%Page: 1 1
%%BeginPageSetup
%%PageBoundingBox:    37   180   549   616
MathWorks begin
bpage
%%EndPageSetup

%%BeginObject: obj1
bplot

/dpi2point 12 def
portraitMode 0216 7344 csm

  234   -48  6149  5231 rc
85 dict begin %Colortable dictionary
/c0 { 0.000000 0.000000 0.000000 sr} bdef
/c1 { 1.000000 1.000000 1.000000 sr} bdef
/c2 { 0.900000 0.000000 0.000000 sr} bdef
/c3 { 0.000000 0.820000 0.000000 sr} bdef
/c4 { 0.000000 0.000000 0.800000 sr} bdef
/c5 { 0.910000 0.820000 0.320000 sr} bdef
/c6 { 1.000000 0.260000 0.820000 sr} bdef
/c7 { 0.000000 0.820000 0.820000 sr} bdef
c0
1 j
1 sg
   0    0 6919 5187 rf
6 w
0 4202 5362 0 0 -4202 899 4616 4 MP
PP
-5362 0 0 4202 5362 0 0 -4202 899 4616 5 MP stroke
4 w
DO
SO
6 w
0 sg
 899  414 mt 6261  414 L
 899 4616 mt 6261 4616 L
6261 4616 mt 6261  414 L
 899 4616 mt  899  414 L
 899 4616 mt 6261 4616 L
 899 4616 mt  899  414 L
 919 4616 mt  919 4562 L
 919  414 mt  919  467 L
%%IncludeResource: font Helvetica
/Helvetica /WindowsLatin1Encoding 240 FMSR

 713 4873 mt 
(-3) s
1806 4616 mt 1806 4562 L
1806  414 mt 1806  467 L
1600 4873 mt 
(-2) s
2693 4616 mt 2693 4562 L
2693  414 mt 2693  467 L
2487 4873 mt 
(-1) s
3580 4616 mt 3580 4562 L
3580  414 mt 3580  467 L
3514 4873 mt 
(0) s
4466 4616 mt 4466 4562 L
4466  414 mt 4466  467 L
4400 4873 mt 
(1) s
5353 4616 mt 5353 4562 L
5353  414 mt 5353  467 L
5287 4873 mt 
(2) s
6240 4616 mt 6240 4562 L
6240  414 mt 6240  467 L
6174 4873 mt 
(3) s
 899 4599 mt  952 4599 L
6261 4599 mt 6207 4599 L
 591 4688 mt 
(-3) s
 899 3904 mt  952 3904 L
6261 3904 mt 6207 3904 L
 591 3993 mt 
(-2) s
 899 3209 mt  952 3209 L
6261 3209 mt 6207 3209 L
 591 3298 mt 
(-1) s
 899 2514 mt  952 2514 L
6261 2514 mt 6207 2514 L
 731 2603 mt 
(0) s
 899 1820 mt  952 1820 L
6261 1820 mt 6207 1820 L
 731 1909 mt 
(1) s
 899 1125 mt  952 1125 L
6261 1125 mt 6207 1125 L
 731 1214 mt 
(2) s
 899  430 mt  952  430 L
6261  430 mt 6207  430 L
 731  519 mt 
(3) s
 899  414 mt 6261  414 L
 899 4616 mt 6261 4616 L
6261 4616 mt 6261  414 L
 899 4616 mt  899  414 L
gs 899 414 5363 4203 rc
gr

/c8 { 0.000000 0.000000 1.000000 sr} bdef
c8
4047 1526 mt 4119 1526 L
4083 1490 mt 4083 1562 L
2523 2628 mt 2595 2628 L
2559 2592 mt 2559 2664 L
3915 3436 mt 3987 3436 L
3951 3400 mt 3951 3472 L
3571 2388 mt 3643 2388 L
3607 2352 mt 3607 2424 L
3605 2155 mt 3677 2155 L
3641 2119 mt 3641 2191 L
2085 2736 mt 2157 2736 L
2121 2700 mt 2121 2772 L
1766 2109 mt 1838 2109 L
1802 2073 mt 1802 2145 L
3538 2265 mt 3610 2265 L
3574 2229 mt 3574 2301 L
3599 3125 mt 3671 3125 L
3635 3089 mt 3635 3161 L
5024 2741 mt 5096 2741 L
5060 2705 mt 5060 2777 L
2844 1561 mt 2916 1561 L
2880 1525 mt 2880 1597 L
2732 2125 mt 2804 2125 L
2768 2089 mt 2768 2161 L
2805 2223 mt 2877 2223 L
2841 2187 mt 2841 2259 L
3432 2458 mt 3504 2458 L
3468 2422 mt 3468 2494 L
3977 1858 mt 4049 1858 L
4013 1822 mt 4013 1894 L
4282 2270 mt 4354 2270 L
4318 2234 mt 4318 2306 L
1876 3171 mt 1948 3171 L
1912 3135 mt 1912 3207 L
3443 2506 mt 3515 2506 L
3479 2470 mt 3479 2542 L
2368 3908 mt 2440 3908 L
2404 3872 mt 2404 3944 L
4553 4616 mt 4625 4616 L
4589 4580 mt 4589 4652 L
2896 2899 mt 2968 2899 L
2932 2863 mt 2932 2935 L
2126 1614 mt 2198 1614 L
2162 1578 mt 2162 1650 L
3867 1954 mt 3939 1954 L
3903 1918 mt 3903 1990 L
3033 1207 mt 3105 1207 L
3069 1171 mt 3069 1243 L
4922 1787 mt 4994 1787 L
4958 1751 mt 4958 1823 L
3762 3468 mt 3834 3468 L
3798 3432 mt 3798 3504 L
2781 1892 mt 2853 1892 L
2817 1856 mt 2817 1928 L
3971 3022 mt 4043 3022 L
4007 2986 mt 4007 3058 L
3190 2365 mt 3262 2365 L
3226 2329 mt 3226 2401 L
4574 2983 mt 4646 2983 L
4610 2947 mt 4610 3019 L
3278 2655 mt 3350 2655 L
3314 2619 mt 3314 2691 L
3184 2773 mt 3256 2773 L
3220 2737 mt 3220 2809 L
3774 3675 mt 3846 3675 L
3810 3639 mt 3810 3711 L
4760 2967 mt 4832 2967 L
4796 2931 mt 4796 3003 L
1937 2935 mt 2009 2935 L
1973 2899 mt 1973 2971 L
3290 3206 mt 3362 3206 L
3326 3170 mt 3326 3242 L
4322 2840 mt 4394 2840 L
4358 2804 mt 4358 2876 L
4121 3051 mt 4193 3051 L
4157 3015 mt 4157 3087 L
1907 2401 mt 1979 2401 L
1943 2365 mt 1943 2437 L
2251 3017 mt 2323 3017 L
2287 2981 mt 2287 3053 L
2165 3331 mt 2237 3331 L
2201 3295 mt 2201 3367 L
3594 2815 mt 3666 2815 L
3630 2779 mt 3630 2851 L
3454 3980 mt 3526 3980 L
3490 3944 mt 3490 4016 L
3677  414 mt 3749  414 L
3713  378 mt 3713  450 L
5828 3273 mt 5900 3273 L
5864 3237 mt 5864 3309 L
3672 4205 mt 3744 4205 L
3708 4169 mt 3708 4241 L
3085 2731 mt 3157 2731 L
3121 2695 mt 3121 2767 L
4330 2796 mt 4402 2796 L
4366 2760 mt 4366 2832 L
3110 3011 mt 3182 3011 L
3146 2975 mt 3146 3047 L
2298 3144 mt 2370 3144 L
2334 3108 mt 2334 3180 L
3838 1087 mt 3910 1087 L
3874 1051 mt 3874 1123 L
4021 2374 mt 4093 2374 L
4057 2338 mt 4057 2410 L
3946 1872 mt 4018 1872 L
3982 1836 mt 3982 1908 L
3160 2536 mt 3232 2536 L
3196 2500 mt 3196 2572 L
4100 1419 mt 4172 1419 L
4136 1383 mt 4136 1455 L
3232 2930 mt 3304 2930 L
3268 2894 mt 3268 2966 L
3521 1972 mt 3593 1972 L
3557 1936 mt 3557 2008 L
2993 2768 mt 3065 2768 L
3029 2732 mt 3029 2804 L
4243 2722 mt 4315 2722 L
4279 2686 mt 4279 2758 L
3850 2619 mt 3922 2619 L
3886 2583 mt 3886 2655 L
3633 2214 mt 3705 2214 L
3669 2178 mt 3669 2250 L
4228 3087 mt 4300 3087 L
4264 3051 mt 4264 3123 L
4522 1121 mt 4594 1121 L
4558 1085 mt 4558 1157 L
4444 2962 mt 4516 2962 L
4480 2926 mt 4480 2998 L
4080 3184 mt 4152 3184 L
4116 3148 mt 4116 3220 L
3243 2396 mt 3315 2396 L
3279 2360 mt 3279 2432 L
4135 2528 mt 4207 2528 L
4171 2492 mt 4171 2564 L
4094 3376 mt 4166 3376 L
4130 3340 mt 4130 3412 L
3336 2320 mt 3408 2320 L
3372 2284 mt 3372 2356 L
3342 3658 mt 3414 3658 L
3378 3622 mt 3378 3694 L
4149 2811 mt 4221 2811 L
4185 2775 mt 4185 2847 L
3505 2135 mt 3577 2135 L
3541 2099 mt 3541 2171 L
3516 2436 mt 3588 2436 L
3552 2400 mt 3552 2472 L
2723 2593 mt 2795 2593 L
2759 2557 mt 2759 2629 L
2456 1831 mt 2528 1831 L
2492 1795 mt 2492 1867 L
2874 3191 mt 2946 3191 L
2910 3155 mt 2910 3227 L
5413 2462 mt 5485 2462 L
5449 2426 mt 5449 2498 L
2444 3213 mt 2516 3213 L
2480 3177 mt 2480 3249 L
2789 2104 mt 2861 2104 L
2825 2068 mt 2825 2140 L
4416 2493 mt 4488 2493 L
4452 2457 mt 4452 2529 L
4002 1732 mt 4074 1732 L
4038 1696 mt 4038 1768 L
2513 2709 mt 2585 2709 L
2549 2673 mt 2549 2745 L
3768 3386 mt 3840 3386 L
3804 3350 mt 3804 3422 L
3814 3227 mt 3886 3227 L
3850 3191 mt 3850 3263 L
5468 2440 mt 5540 2440 L
5504 2404 mt 5504 2476 L
3059 2713 mt 3131 2713 L
3095 2677 mt 3095 2749 L
3072 1698 mt 3144 1698 L
3108 1662 mt 3108 1734 L
4886 2001 mt 4958 2001 L
4922 1965 mt 4922 2037 L
3527 3405 mt 3599 3405 L
3563 3369 mt 3563 3441 L
3078 1462 mt 3150 1462 L
3114 1426 mt 3114 1498 L
4532 3567 mt 4604 3567 L
4568 3531 mt 4568 3603 L
4364 2007 mt 4436 2007 L
4400 1971 mt 4400 2043 L
2797 1794 mt 2869 1794 L
2833 1758 mt 2833 1830 L
4347 2673 mt 4419 2673 L
4383 2637 mt 4383 2709 L
3153 2787 mt 3225 2787 L
3189 2751 mt 3189 2823 L
2634 2825 mt 2706 2825 L
2670 2789 mt 2670 2861 L
3983 2024 mt 4055 2024 L
4019 1988 mt 4019 2060 L
4631 3242 mt 4703 3242 L
4667 3206 mt 4667 3278 L
4961 2920 mt 5033 2920 L
4997 2884 mt 4997 2956 L
3616 2347 mt 3688 2347 L
3652 2311 mt 3652 2383 L
3020 1772 mt 3092 1772 L
3056 1736 mt 3056 1808 L
2575 1593 mt 2647 1593 L
2611 1557 mt 2611 1629 L
3261 1476 mt 3333 1476 L
3297 1440 mt 3297 1512 L
3319 2695 mt 3391 2695 L
3355 2659 mt 3355 2731 L
3855 1936 mt 3927 1936 L
3891 1900 mt 3891 1972 L
3007 1995 mt 3079 1995 L
3043 1959 mt 3043 2031 L
3066 4305 mt 3138 4305 L
3102 4269 mt 3102 4341 L
4512 2471 mt 4584 2471 L
4548 2435 mt 4548 2507 L
2327 3610 mt 2399 3610 L
2363 3574 mt 2363 3646 L
1674 3349 mt 1746 3349 L
1710 3313 mt 1710 3385 L
5606 4131 mt 5678 4131 L
5642 4095 mt 5642 4167 L
3267 3057 mt 3339 3057 L
3303 3021 mt 3303 3093 L
2586 2951 mt 2658 2951 L
2622 2915 mt 2622 2987 L
3891 2571 mt 3963 2571 L
3927 2535 mt 3927 2607 L
3897 2057 mt 3969 2057 L
3933 2021 mt 3933 2093 L
1965 1966 mt 2037 1966 L
2001 1930 mt 2001 2002 L
3172 2801 mt 3244 2801 L
3208 2765 mt 3208 2837 L
1259 2750 mt 1331 2750 L
1295 2714 mt 1295 2786 L
3661 3250 mt 3733 3250 L
3697 3214 mt 3697 3286 L
3694 3752 mt 3766 3752 L
3730 3716 mt 3730 3788 L
3477 2869 mt 3549 2869 L
3513 2833 mt 3513 2905 L
2973 2228 mt 3045 2228 L
3009 2192 mt 3009 2264 L
3141 3581 mt 3213 3581 L
3177 3545 mt 3177 3617 L
2945 2115 mt 3017 2115 L
2981 2079 mt 2981 2151 L
3196 2677 mt 3268 2677 L
3232 2641 mt 3232 2713 L
2555 2392 mt 2627 2392 L
2591 2356 mt 2591 2428 L
3510 2806 mt 3582 2806 L
3546 2770 mt 3546 2842 L
3482 3774 mt 3554 3774 L
3518 3738 mt 3518 3810 L
3717 3112 mt 3789 3112 L
3753 3076 mt 3753 3148 L
4266 1152 mt 4338 1152 L
4302 1116 mt 4302 1188 L
4643 1653 mt 4715 1653 L
4679 1617 mt 4679 1689 L
4314 2180 mt 4386 2180 L
4350 2144 mt 4350 2216 L
3381 1917 mt 3453 1917 L
3417 1881 mt 3417 1953 L
3116 2242 mt 3188 2242 L
3152 2206 mt 3152 2278 L
4184 2718 mt 4256 2718 L
4220 2682 mt 4220 2754 L
3135 3137 mt 3207 3137 L
3171 3101 mt 3171 3173 L
3284 2978 mt 3356 2978 L
3320 2942 mt 3320 3014 L
4034 3358 mt 4106 3358 L
4070 3322 mt 4070 3394 L
1805 2432 mt 1877 2432 L
1841 2396 mt 1841 2468 L
1842 1624 mt 1914 1624 L
1878 1588 mt 1878 1660 L
3237 3297 mt 3309 3297 L
3273 3261 mt 3273 3333 L
4355 2334 mt 4427 2334 L
4391 2298 mt 4391 2370 L
5047 3106 mt 5119 3106 L
5083 3070 mt 5083 3142 L
4067 1604 mt 4139 1604 L
4103 1568 mt 4103 1640 L
3832 3367 mt 3904 3367 L
3868 3331 mt 3868 3403 L
4542 3479 mt 4614 3479 L
4578 3443 mt 4578 3515 L
3178 1865 mt 3250 1865 L
3214 1829 mt 3214 1901 L
4619 2170 mt 4691 2170 L
4655 2134 mt 4655 2206 L
5180 2383 mt 5252 2383 L
5216 2347 mt 5216 2419 L
4041 3503 mt 4113 3503 L
4077 3467 mt 4077 3539 L
5245 2445 mt 5317 2445 L
5281 2409 mt 5281 2481 L
3220 2237 mt 3292 2237 L
3256 2201 mt 3256 2273 L
3104 3848 mt 3176 3848 L
3140 3812 mt 3140 3884 L
4156 1911 mt 4228 1911 L
4192 1875 mt 4192 1947 L
4667 3731 mt 4739 3731 L
4703 3695 mt 4703 3767 L
4564 2615 mt 4636 2615 L
4600 2579 mt 4600 2651 L
2959 2792 mt 3031 2792 L
2995 2756 mt 2995 2828 L
2671 2682 mt 2743 2682 L
2707 2646 mt 2707 2718 L
3226 2029 mt 3298 2029 L
3262 1993 mt 3262 2065 L
4221 2209 mt 4293 2209 L
4257 2173 mt 4257 2245 L
3627 3877 mt 3699 3877 L
3663 3841 mt 3663 3913 L
2643 2611 mt 2715 2611 L
2679 2575 mt 2679 2647 L
2312 1006 mt 2384 1006 L
2348  970 mt 2348 1042 L
3330 3314 mt 3402 3314 L
3366 3278 mt 3366 3350 L
3560 1898 mt 3632 1898 L
3596 1862 mt 3596 1934 L
2888 2830 mt 2960 2830 L
2924 2794 mt 2924 2866 L
4472 2488 mt 4544 2488 L
4508 2452 mt 4508 2524 L
2490 2480 mt 2562 2480 L
2526 2444 mt 2526 2516 L
2341 2453 mt 2413 2453 L
2377 2417 mt 2377 2489 L
2938 3822 mt 3010 3822 L
2974 3786 mt 2974 3858 L
2773 1049 mt 2845 1049 L
2809 1013 mt 2809 1085 L
3466 1779 mt 3538 1779 L
3502 1743 mt 3502 1815 L
3780 2759 mt 3852 2759 L
3816 2723 mt 3816 2795 L
3809 2062 mt 3881 2062 L
3845 2026 mt 3845 2098 L
3370 1689 mt 3442 1689 L
3406 1653 mt 3406 1725 L
1481 2145 mt 1553 2145 L
1517 2109 mt 1517 2181 L
3296 2497 mt 3368 2497 L
3332 2461 mt 3332 2533 L
4398 2879 mt 4470 2879 L
4434 2843 mt 4434 2915 L
3415 1809 mt 3487 1809 L
3451 1773 mt 3451 1845 L
3449 2545 mt 3521 2545 L
3485 2509 mt 3485 2581 L
3740 2914 mt 3812 2914 L
3776 2878 mt 3776 2950 L
5211 3118 mt 5283 3118 L
5247 3082 mt 5247 3154 L
4372  824 mt 4444  824 L
4408  788 mt 4408  860 L
2624 2835 mt 2696 2835 L
2660 2799 mt 2660 2871 L
4608 2602 mt 4680 2602 L
4644 2566 mt 4644 2638 L
4015 1404 mt 4087 1404 L
4051 1368 mt 4051 1440 L
3582 1662 mt 3654 1662 L
3618 1626 mt 3618 1698 L
2565 2067 mt 2637 2067 L
2601 2031 mt 2601 2103 L
4775 2293 mt 4847 2293 L
4811 2257 mt 4811 2329 L
2689  724 mt 2761  724 L
2725  688 mt 2725  760 L
3549 2165 mt 3621 2165 L
3585 2129 mt 3585 2201 L
4655 1255 mt 4727 1255 L
4691 1219 mt 4691 1291 L
3577 3039 mt 3649 3039 L
3613 3003 mt 3613 3075 L
2987 2046 mt 3059 2046 L
3023 2010 mt 3023 2082 L
3202 1930 mt 3274 1930 L
3238 1894 mt 3238 1966 L
4009 1845 mt 4081 1845 L
4045 1809 mt 4045 1881 L
2381 1572 mt 2453 1572 L
2417 1536 mt 2417 1608 L
3734 1723 mt 3806 1723 L
3770 1687 mt 3770 1759 L
2063 2233 mt 2135 2233 L
2099 2197 mt 2099 2269 L
2757 2130 mt 2829 2130 L
2793 2094 mt 2793 2166 L
3861 1434 mt 3933 1434 L
3897 1398 mt 3897 1470 L
2828 1388 mt 2900 1388 L
2864 1352 mt 2864 1424 L
4820 2691 mt 4892 2691 L
4856 2655 mt 4856 2727 L
3438 1764 mt 3510 1764 L
3474 1728 mt 3474 1800 L
3879 2562 mt 3951 2562 L
3915 2526 mt 3915 2598 L
2652 2189 mt 2724 2189 L
2688 2153 mt 2688 2225 L
2749 2185 mt 2821 2185 L
2785 2149 mt 2785 2221 L
4142 3157 mt 4214 3157 L
4178 3121 mt 4178 3193 L
3757 3045 mt 3829 3045 L
3793 3009 mt 3793 3081 L
4805 3515 mt 4877 3515 L
4841 3479 mt 4841 3551 L
2931 2120 mt 3003 2120 L
2967 2084 mt 2967 2156 L
2106 3322 mt 2178 3322 L
2142 3286 mt 2142 3358 L
3123 2606 mt 3195 2606 L
3159 2570 mt 3159 2642 L
3655 1232 mt 3727 1232 L
3691 1196 mt 3691 1268 L
3426 1680 mt 3498 1680 L
3462 1644 mt 3462 1716 L
4746 1502 mt 4818 1502 L
4782 1466 mt 4782 1538 L
2218 3641 mt 2290 3641 L
2254 3605 mt 2254 3677 L
2697 2864 mt 2769 2864 L
2733 2828 mt 2733 2900 L
2183 2467 mt 2255 2467 L
2219 2431 mt 2219 2503 L
4191 2641 mt 4263 2641 L
4227 2605 mt 4227 2677 L
3359 3220 mt 3431 3220 L
3395 3184 mt 3395 3256 L
2924 1318 mt 2996 1318 L
2960 1282 mt 2960 1354 L
4060 2580 mt 4132 2580 L
4096 2544 mt 4096 2616 L
3471 1489 mt 3543 1489 L
3507 1453 mt 3507 1525 L
3751 2051 mt 3823 2051 L
3787 2015 mt 3787 2087 L
3214 3491 mt 3286 3491 L
3250 3455 mt 3250 3527 L
2881 4072 mt 2953 4072 L
2917 4036 mt 2917 4108 L
3621 2338 mt 3693 2338 L
3657 2302 mt 3657 2374 L
2813 1756 mt 2885 1756 L
2849 1720 mt 2849 1792 L
3921 1707 mt 3993 1707 L
3957 1671 mt 3957 1743 L
2355 2659 mt 2427 2659 L
2391 2623 mt 2391 2695 L
3410 2874 mt 3482 2874 L
3446 2838 mt 3446 2910 L
4199 3198 mt 4271 3198 L
4235 3162 mt 4235 3234 L
5096 2700 mt 5168 2700 L
5132 2664 mt 5132 2736 L
3555 3693 mt 3627 3693 L
3591 3657 mt 3591 3729 L
 863 2307 mt  935 2307 L
 899 2271 mt  899 2343 L
4306 3553 mt 4378 3553 L
4342 3517 mt 4342 3589 L
4706 1643 mt 4778 1643 L
4742 1607 mt 4742 1679 L
2267 2012 mt 2339 2012 L
2303 1976 mt 2303 2048 L
2910 3540 mt 2982 3540 L
2946 3504 mt 2946 3576 L
2851 3131 mt 2923 3131 L
2887 3095 mt 2887 3167 L
3927 2686 mt 3999 2686 L
3963 2650 mt 3963 2722 L
3934 3081 mt 4006 3081 L
3970 3045 mt 3970 3117 L
4381  564 mt 4453  564 L
4417  528 mt 4417  600 L
6225 2514 mt 6297 2514 L
6261 2478 mt 6261 2550 L
3313 2668 mt 3385 2668 L
3349 2632 mt 3349 2704 L
3711 2549 mt 3783 2549 L
3747 2513 mt 3747 2585 L
4719 3257 mt 4791 3257 L
4755 3221 mt 4755 3293 L
3989 3178 mt 4061 3178 L
4025 3142 mt 4025 3214 L
3638 2889 mt 3710 2889 L
3674 2853 mt 3674 2925 L
3706 1538 mt 3778 1538 L
3742 1502 mt 3742 1574 L
4170 2352 mt 4242 2352 L
4206 2316 mt 4206 2388 L
4407 2089 mt 4479 2089 L
4443 2053 mt 4443 2125 L
2479 2532 mt 2551 2532 L
2515 2496 mt 2515 2568 L
3820 1715 mt 3892 1715 L
3856 1679 mt 3856 1751 L
3826 2567 mt 3898 2567 L
3862 2531 mt 3862 2603 L
3053 2633 mt 3125 2633 L
3089 2597 mt 3089 2669 L
2662 3395 mt 2734 3395 L
2698 3359 mt 2698 3431 L
4274 1634 mt 4346 1634 L
4310 1598 mt 4310 1670 L
3683 1942 mt 3755 1942 L
3719 1906 mt 3719 1978 L
3488 2302 mt 3560 2302 L
3524 2266 mt 3524 2338 L
4597 2624 mt 4669 2624 L
4633 2588 mt 4633 2660 L
4206 1371 mt 4278 1371 L
4242 1335 mt 4242 1407 L
5002 2859 mt 5074 2859 L
5038 2823 mt 5038 2895 L
1387 2778 mt 1459 2778 L
1423 2742 mt 1423 2814 L
2980 1802 mt 3052 1802 L
3016 1766 mt 3016 1838 L
3353 2894 mt 3425 2894 L
3389 2858 mt 3389 2930 L
4425 2370 mt 4497 2370 L
4461 2334 mt 4461 2406 L
3544 3281 mt 3616 3281 L
3580 3245 mt 3580 3317 L
4163 2018 mt 4235 2018 L
4199 1982 mt 4199 2054 L
4732 2427 mt 4804 2427 L
4768 2391 mt 4768 2463 L
1991 3000 mt 2063 3000 L
2027 2964 mt 2027 3036 L
4501 3164 mt 4573 3164 L
4537 3128 mt 4537 3200 L
3046 3527 mt 3118 3527 L
3082 3491 mt 3082 3563 L
2615 2256 mt 2687 2256 L
2651 2220 mt 2651 2292 L
2859 3069 mt 2931 3069 L
2895 3033 mt 2895 3105 L
5531 2078 mt 5603 2078 L
5567 2042 mt 5567 2114 L
3129 2325 mt 3201 2325 L
3165 2289 mt 3165 2361 L
3249 3034 mt 3321 3034 L
3285 2998 mt 3285 3070 L
4453 2637 mt 4525 2637 L
4489 2601 mt 4489 2673 L
4298 1838 mt 4370 1838 L
4334 1802 mt 4334 1874 L
2420 2484 mt 2492 2484 L
2456 2448 mt 2456 2520 L
3797 2298 mt 3869 2298 L
3833 2262 mt 3833 2334 L
4482 2204 mt 4554 2204 L
4518 2168 mt 4518 2240 L
5282 1298 mt 5354 1298 L
5318 1262 mt 5318 1334 L
3532 2956 mt 3604 2956 L
3568 2920 mt 3568 2992 L
3499 2576 mt 3571 2576 L
3535 2540 mt 3535 2612 L
5071 1978 mt 5143 1978 L
5107 1942 mt 5107 2014 L
2821 3099 mt 2893 3099 L
2857 3063 mt 2857 3135 L
3649 2449 mt 3721 2449 L
3685 2413 mt 3685 2485 L
4941 2356 mt 5013 2356 L
4977 2320 mt 4977 2392 L
4054 2764 mt 4126 2764 L
4090 2728 mt 4090 2800 L
2502 2094 mt 2574 2094 L
2538 2058 mt 2538 2130 L
4693 1878 mt 4765 1878 L
4729 1842 mt 4729 1914 L
3040 3446 mt 3112 3446 L
3076 3410 mt 3076 3482 L
2201 2745 mt 2273 2745 L
2237 2709 mt 2237 2781 L
4213 3457 mt 4285 3457 L
4249 3421 mt 4249 3493 L
4904 2199 mt 4976 2199 L
4940 2163 mt 4940 2235 L
4869 2849 mt 4941 2849 L
4905 2813 mt 4905 2885 L
3460 2160 mt 3532 2160 L
3496 2124 mt 3496 2196 L
2706 1748 mt 2778 1748 L
2742 1712 mt 2742 1784 L
3027 2083 mt 3099 2083 L
3063 2047 mt 3063 2119 L
3785  898 mt 3857  898 L
3821  862 mt 3821  934 L
3689 3306 mt 3761 3306 L
3725 3270 mt 3725 3342 L
3700 2150 mt 3772 2150 L
3736 2114 mt 3736 2186 L
2016 1671 mt 2088 1671 L
2052 1635 mt 2052 1707 L
3728 2316 mt 3800 2316 L
3764 2280 mt 3764 2352 L
4290 2099 mt 4362 2099 L
4326 2063 mt 4326 2135 L
2407 2994 mt 2479 2994 L
2443 2958 mt 2443 3030 L
3421 2597 mt 3493 2597 L
3457 2561 mt 3457 2633 L
6033 1990 mt 6105 1990 L
6069 1954 mt 6069 2026 L
2534 2782 mt 2606 2782 L
2570 2746 mt 2570 2818 L
2146 2854 mt 2218 2854 L
2182 2818 mt 2182 2890 L
3387 2727 mt 3459 2727 L
3423 2691 mt 3423 2763 L
3964 2820 mt 4036 2820 L
4000 2784 mt 4000 2856 L
2740 1904 mt 2812 1904 L
2776 1868 mt 2776 1940 L
3302 2218 mt 3374 2218 L
3338 2182 mt 3338 2254 L
3644 1984 mt 3716 1984 L
3680 1948 mt 3680 2020 L
3666 2754 mt 3738 2754 L
3702 2718 mt 3702 2790 L
3273 3415 mt 3345 3415 L
3309 3379 mt 3309 3451 L
3307 3028 mt 3379 3028 L
3343 2992 mt 3343 3064 L
3098 3289 mt 3170 3289 L
3134 3253 mt 3134 3325 L
3610 2650 mt 3682 2650 L
3646 2614 mt 3646 2686 L
2282 2275 mt 2354 2275 L
2318 2239 mt 2318 2311 L
3255 2909 mt 3327 2909 L
3291 2873 mt 3291 2945 L
3347 3711 mt 3419 3711 L
3383 3675 mt 3383 3747 L
4251 2194 mt 4323 2194 L
4287 2158 mt 4287 2230 L
3745 2288 mt 3817 2288 L
3781 2252 mt 3781 2324 L
3566 2523 mt 3638 2523 L
3602 2487 mt 3602 2559 L
4074 1740 mt 4146 1740 L
4110 1704 mt 4110 1776 L
5150 2329 mt 5222 2329 L
5186 2293 mt 5186 2365 L
4259 1948 mt 4331 1948 L
4295 1912 mt 4295 1984 L
3873 2261 mt 3945 2261 L
3909 2225 mt 3909 2297 L
3404 2251 mt 3476 2251 L
3440 2215 mt 3440 2287 L
4492 2343 mt 4564 2343 L
4528 2307 mt 4528 2379 L
1619 2884 mt 1691 2884 L
1655 2848 mt 1655 2920 L
3803 3942 mt 3875 3942 L
3839 3906 mt 3839 3978 L
3588 2279 mt 3660 2279 L
3624 2243 mt 3624 2315 L
2235 2501 mt 2307 2501 L
2271 2465 mt 2271 2537 L
2432 2040 mt 2504 2040 L
2468 2004 mt 2468 2076 L
1556 2589 mt 1628 2589 L
1592 2553 mt 1592 2625 L
4128 3093 mt 4200 3093 L
4164 3057 mt 4164 3129 L
5365 3425 mt 5437 3425 L
5401 3389 mt 5401 3461 L
3996 1550 mt 4068 1550 L
4032 1514 mt 4032 1586 L
3885 2519 mt 3957 2519 L
3921 2483 mt 3921 2555 L
3723 2541 mt 3795 2541 L
3759 2505 mt 3759 2577 L
3844 2035 mt 3916 2035 L
3880 1999 mt 3880 2071 L
4463 3625 mt 4535 3625 L
4499 3589 mt 4499 3661 L
4852 1448 mt 4924 1448 L
4888 1412 mt 4888 1484 L
3958 3235 mt 4030 3235 L
3994 3199 mt 3994 3271 L
5700 2554 mt 5772 2554 L
5736 2518 mt 5736 2590 L
3147 3340 mt 3219 3340 L
3183 3304 mt 3183 3376 L
2394 1816 mt 2466 1816 L
2430 1780 mt 2430 1852 L
2917 2925 mt 2989 2925 L
2953 2889 mt 2953 2961 L
4338 2972 mt 4410 2972 L
4374 2936 mt 4374 3008 L
4114 3265 mt 4186 3265 L
4150 3229 mt 4150 3301 L
3909 2073 mt 3981 2073 L
3945 2037 mt 3945 2109 L
3398 2414 mt 3470 2414 L
3434 2378 mt 3434 2450 L
3000 2704 mt 3072 2704 L
3036 2668 mt 3036 2740 L
4435 2423 mt 4507 2423 L
4471 2387 mt 4471 2459 L
3166 2940 mt 3238 2940 L
3202 2904 mt 3202 2976 L
2545 3151 mt 2617 3151 L
2581 3115 mt 2581 3187 L
3208 1336 mt 3280 1336 L
3244 1300 mt 3244 1372 L
3091 2247 mt 3163 2247 L
3127 2211 mt 3127 2283 L
2952 2558 mt 3024 2558 L
2988 2522 mt 2988 2594 L
2866 2946 mt 2938 2946 L
2902 2910 mt 2902 2982 L
4680 3005 mt 4752 3005 L
4716 2969 mt 4716 3041 L
2040 3595 mt 2112 3595 L
2076 3559 mt 2076 3631 L
2468 2844 mt 2540 2844 L
2504 2808 mt 2504 2880 L
3393 2379 mt 3465 2379 L
3429 2343 mt 3429 2415 L
3376 1354 mt 3448 1354 L
3412 1318 mt 3412 1390 L
4107 3075 mt 4179 3075 L
4143 3039 mt 4143 3111 L
3940 2989 mt 4012 2989 L
3976 2953 mt 3976 3025 L
4236 2584 mt 4308 2584 L
4272 2548 mt 4272 2620 L
3952 1277 mt 4024 1277 L
3988 1241 mt 3988 1313 L
3364 2904 mt 3436 2904 L
3400 2868 mt 3400 2940 L
2605 1583 mt 2677 1583 L
2641 1547 mt 2641 1619 L
4789 2175 mt 4861 2175 L
4825 2139 mt 4825 2211 L
4028 2284 mt 4100 2284 L
4064 2248 mt 4064 2320 L
1722 4023 mt 1794 4023 L
1758 3987 mt 1758 4059 L
3791 2410 mt 3863 2410 L
3827 2374 mt 3827 2446 L
4981 1885 mt 5053 1885 L
5017 1849 mt 5017 1921 L
5122 1181 mt 5194 1181 L
5158 1145 mt 5158 1217 L
2680 2140 mt 2752 2140 L
2716 2104 mt 2716 2176 L
5321 3063 mt 5393 3063 L
5357 3027 mt 5357 3099 L
4177 2361 mt 4249 2361 L
4213 2325 mt 4213 2397 L
4585 2405 mt 4657 2405 L
4621 2369 mt 4621 2441 L
2595 2664 mt 2667 2664 L
2631 2628 mt 2631 2700 L
4087 1923 mt 4159 1923 L
4123 1887 mt 4123 1959 L
3325  957 mt 3397  957 L
3361  921 mt 3361  993 L
4390 2510 mt 4462 2510 L
4426 2474 mt 4426 2546 L
4836 1514 mt 4908 1514 L
4872 1478 mt 4872 1550 L
3013 3797 mt 3085 3797 L
3049 3761 mt 3049 3833 L
2765 1960 mt 2837 1960 L
2801 1924 mt 2801 1996 L
3493 2418 mt 3565 2418 L
3529 2382 mt 3529 2454 L
3903 1823 mt 3975 1823 L
3939 1787 mt 3939 1859 L
2715 1851 mt 2787 1851 L
2751 1815 mt 2751 1887 L
2966 2311 mt 3038 2311 L
3002 2275 mt 3002 2347 L
2903 2475 mt 2975 2475 L
2939 2439 mt 2939 2511 L
2836 2646 mt 2908 2646 L
2872 2610 mt 2872 2682 L
gs 899 414 5363 4203 rc
gr

0 sg
2775 5104 mt 
(\(F,DCTb,GMM\)) s
 482 3277 mt  -90 rotate
(\(S,SSC,GMM\)) s
90 rotate
2975  223 mt 
(Corr = 0.04) s

end %%Color Dict

eplot
%%EndObject

epage
end

showpage

%%Trailer
%%EOF
