%!PS-Adobe-3.0 EPSF-3.0
%%Creator: MATLAB, The Mathworks, Inc. Version 7.7.0.471 (R2008b). Operating System: Microsoft Windows XP.
%%Title: Pictures\main_zoo_mvar_analysis_data_BMI_xcorr_bmig_p1_k1_2_6.eps
%%CreationDate: 10/26/2009  05:44:52
%%DocumentNeededFonts: Helvetica
%%DocumentProcessColors: Cyan Magenta Yellow Black
%%LanguageLevel: 2
%%Pages: 1
%%BoundingBox:    37   180   549   616
%%EndComments

%%BeginProlog
% MathWorks dictionary
/MathWorks 160 dict begin
% definition operators
/bdef {bind def} bind def
/ldef {load def} bind def
/xdef {exch def} bdef
/xstore {exch store} bdef
% operator abbreviations
/c  /clip ldef
/cc /concat ldef
/cp /closepath ldef
/gr /grestore ldef
/gs /gsave ldef
/mt /moveto ldef
/np /newpath ldef
/cm /currentmatrix ldef
/sm /setmatrix ldef
/rm /rmoveto ldef
/rl /rlineto ldef
/s {show newpath} bdef
/sc {setcmykcolor} bdef
/sr /setrgbcolor ldef
/sg /setgray ldef
/w /setlinewidth ldef
/j /setlinejoin ldef
/cap /setlinecap ldef
/rc {rectclip} bdef
/rf {rectfill} bdef
% page state control
/pgsv () def
/bpage {/pgsv save def} bdef
/epage {pgsv restore} bdef
/bplot /gsave ldef
/eplot {stroke grestore} bdef
% orientation switch
/portraitMode 0 def /landscapeMode 1 def /rotateMode 2 def
% coordinate system mappings
/dpi2point 0 def
% font control
/FontSize 0 def
/FMS {/FontSize xstore findfont [FontSize 0 0 FontSize neg 0 0]
  makefont setfont} bdef
/ISOLatin1Encoding where {pop /WindowsLatin1Encoding 256 array bdef
ISOLatin1Encoding WindowsLatin1Encoding copy pop
/.notdef/.notdef/quotesinglbase/florin/quotedblbase/ellipsis/dagger
/daggerdbl/circumflex/perthousand/Scaron/guilsinglleft/OE/.notdef/.notdef
/.notdef/.notdef/quoteleft/quoteright/quotedblleft/quotedblright/bullet
/endash/emdash/tilde/trademark/scaron/guilsinglright/oe/.notdef/.notdef
/Ydieresis WindowsLatin1Encoding 128 32 getinterval astore pop}
{/WindowsLatin1Encoding StandardEncoding bdef} ifelse
/reencode {exch dup where {pop load} {pop StandardEncoding} ifelse
  exch dup 3 1 roll findfont dup length dict begin
  { 1 index /FID ne {def}{pop pop} ifelse } forall
  /Encoding exch def currentdict end definefont pop} bdef
/isroman {findfont /CharStrings get /Agrave known} bdef
/FMSR {3 1 roll 1 index dup isroman {reencode} {pop pop} ifelse
  exch FMS} bdef
/csm {1 dpi2point div -1 dpi2point div scale neg translate
 dup landscapeMode eq {pop -90 rotate}
  {rotateMode eq {90 rotate} if} ifelse} bdef
% line types: solid, dotted, dashed, dotdash
/SO { [] 0 setdash } bdef
/DO { [.5 dpi2point mul 4 dpi2point mul] 0 setdash } bdef
/DA { [6 dpi2point mul] 0 setdash } bdef
/DD { [.5 dpi2point mul 4 dpi2point mul 6 dpi2point mul 4
  dpi2point mul] 0 setdash } bdef
% macros for lines and objects
/L {lineto stroke} bdef
/MP {3 1 roll moveto 1 sub {rlineto} repeat} bdef
/AP {{rlineto} repeat} bdef
/PDlw -1 def
/W {/PDlw currentlinewidth def setlinewidth} def
/PP {closepath eofill} bdef
/DP {closepath stroke} bdef
/MR {4 -2 roll moveto dup  0 exch rlineto exch 0 rlineto
  neg 0 exch rlineto closepath} bdef
/FR {MR stroke} bdef
/PR {MR fill} bdef
/L1i {{currentfile picstr readhexstring pop} image} bdef
/tMatrix matrix def
/MakeOval {newpath tMatrix currentmatrix pop translate scale
0 0 1 0 360 arc tMatrix setmatrix} bdef
/FO {MakeOval stroke} bdef
/PO {MakeOval fill} bdef
/PD {currentlinewidth 2 div 0 360 arc fill
   PDlw -1 eq not {PDlw w /PDlw -1 def} if} def
/FA {newpath tMatrix currentmatrix pop translate scale
  0 0 1 5 -2 roll arc tMatrix setmatrix stroke} bdef
/PA {newpath tMatrix currentmatrix pop	translate 0 0 moveto scale
  0 0 1 5 -2 roll arc closepath tMatrix setmatrix fill} bdef
/FAn {newpath tMatrix currentmatrix pop translate scale
  0 0 1 5 -2 roll arcn tMatrix setmatrix stroke} bdef
/PAn {newpath tMatrix currentmatrix pop translate 0 0 moveto scale
  0 0 1 5 -2 roll arcn closepath tMatrix setmatrix fill} bdef
/vradius 0 def /hradius 0 def /lry 0 def
/lrx 0 def /uly 0 def /ulx 0 def /rad 0 def
/MRR {/vradius xdef /hradius xdef /lry xdef /lrx xdef /uly xdef
  /ulx xdef newpath tMatrix currentmatrix pop ulx hradius add uly
  vradius add translate hradius vradius scale 0 0 1 180 270 arc 
  tMatrix setmatrix lrx hradius sub uly vradius add translate
  hradius vradius scale 0 0 1 270 360 arc tMatrix setmatrix
  lrx hradius sub lry vradius sub translate hradius vradius scale
  0 0 1 0 90 arc tMatrix setmatrix ulx hradius add lry vradius sub
  translate hradius vradius scale 0 0 1 90 180 arc tMatrix setmatrix
  closepath} bdef
/FRR {MRR stroke } bdef
/PRR {MRR fill } bdef
/MlrRR {/lry xdef /lrx xdef /uly xdef /ulx xdef /rad lry uly sub 2 div def
  newpath tMatrix currentmatrix pop ulx rad add uly rad add translate
  rad rad scale 0 0 1 90 270 arc tMatrix setmatrix lrx rad sub lry rad
  sub translate rad rad scale 0 0 1 270 90 arc tMatrix setmatrix
  closepath} bdef
/FlrRR {MlrRR stroke } bdef
/PlrRR {MlrRR fill } bdef
/MtbRR {/lry xdef /lrx xdef /uly xdef /ulx xdef /rad lrx ulx sub 2 div def
  newpath tMatrix currentmatrix pop ulx rad add uly rad add translate
  rad rad scale 0 0 1 180 360 arc tMatrix setmatrix lrx rad sub lry rad
  sub translate rad rad scale 0 0 1 0 180 arc tMatrix setmatrix
  closepath} bdef
/FtbRR {MtbRR stroke } bdef
/PtbRR {MtbRR fill } bdef
/stri 6 array def /dtri 6 array def
/smat 6 array def /dmat 6 array def
/tmat1 6 array def /tmat2 6 array def /dif 3 array def
/asub {/ind2 exch def /ind1 exch def dup dup
  ind1 get exch ind2 get sub exch } bdef
/tri_to_matrix {
  2 0 asub 3 1 asub 4 0 asub 5 1 asub
  dup 0 get exch 1 get 7 -1 roll astore } bdef
/compute_transform {
  dmat dtri tri_to_matrix tmat1 invertmatrix 
  smat stri tri_to_matrix tmat2 concatmatrix } bdef
/ds {stri astore pop} bdef
/dt {dtri astore pop} bdef
/db {2 copy /cols xdef /rows xdef mul dup 3 mul string
  currentfile 
  3 index 0 eq {/ASCIIHexDecode filter}
  {/ASCII85Decode filter 3 index 2 eq {/RunLengthDecode filter} if }
  ifelse exch readstring pop
  dup 0 3 index getinterval /rbmap xdef
  dup 2 index dup getinterval /gbmap xdef
  1 index dup 2 mul exch getinterval /bbmap xdef pop pop}bdef
/it {gs np dtri aload pop moveto lineto lineto cp c
  cols rows 8 compute_transform 
  rbmap gbmap bbmap true 3 colorimage gr}bdef
/il {newpath moveto lineto stroke}bdef
currentdict end def
%%EndProlog

%%BeginSetup
MathWorks begin

0 cap

end
%%EndSetup

%%Page: 1 1
%%BeginPageSetup
%%PageBoundingBox:    37   180   549   616
MathWorks begin
bpage
%%EndPageSetup

%%BeginObject: obj1
bplot

/dpi2point 12 def
portraitMode 0216 7344 csm

  234   -48  6149  5231 rc
85 dict begin %Colortable dictionary
/c0 { 0.000000 0.000000 0.000000 sr} bdef
/c1 { 1.000000 1.000000 1.000000 sr} bdef
/c2 { 0.900000 0.000000 0.000000 sr} bdef
/c3 { 0.000000 0.820000 0.000000 sr} bdef
/c4 { 0.000000 0.000000 0.800000 sr} bdef
/c5 { 0.910000 0.820000 0.320000 sr} bdef
/c6 { 1.000000 0.260000 0.820000 sr} bdef
/c7 { 0.000000 0.820000 0.820000 sr} bdef
c0
1 j
1 sg
   0    0 6919 5187 rf
6 w
0 4202 5362 0 0 -4202 899 4616 4 MP
PP
-5362 0 0 4202 5362 0 0 -4202 899 4616 5 MP stroke
4 w
DO
SO
6 w
0 sg
 899  414 mt 6261  414 L
 899 4616 mt 6261 4616 L
6261 4616 mt 6261  414 L
 899 4616 mt  899  414 L
 899 4616 mt 6261 4616 L
 899 4616 mt  899  414 L
 919 4616 mt  919 4562 L
 919  414 mt  919  467 L
%%IncludeResource: font Helvetica
/Helvetica /WindowsLatin1Encoding 240 FMSR

 713 4873 mt 
(-3) s
1806 4616 mt 1806 4562 L
1806  414 mt 1806  467 L
1600 4873 mt 
(-2) s
2693 4616 mt 2693 4562 L
2693  414 mt 2693  467 L
2487 4873 mt 
(-1) s
3580 4616 mt 3580 4562 L
3580  414 mt 3580  467 L
3514 4873 mt 
(0) s
4466 4616 mt 4466 4562 L
4466  414 mt 4466  467 L
4400 4873 mt 
(1) s
5353 4616 mt 5353 4562 L
5353  414 mt 5353  467 L
5287 4873 mt 
(2) s
6240 4616 mt 6240 4562 L
6240  414 mt 6240  467 L
6174 4873 mt 
(3) s
 899 4599 mt  952 4599 L
6261 4599 mt 6207 4599 L
 591 4688 mt 
(-3) s
 899 3904 mt  952 3904 L
6261 3904 mt 6207 3904 L
 591 3993 mt 
(-2) s
 899 3209 mt  952 3209 L
6261 3209 mt 6207 3209 L
 591 3298 mt 
(-1) s
 899 2514 mt  952 2514 L
6261 2514 mt 6207 2514 L
 731 2603 mt 
(0) s
 899 1820 mt  952 1820 L
6261 1820 mt 6207 1820 L
 731 1909 mt 
(1) s
 899 1125 mt  952 1125 L
6261 1125 mt 6207 1125 L
 731 1214 mt 
(2) s
 899  430 mt  952  430 L
6261  430 mt 6207  430 L
 731  519 mt 
(3) s
 899  414 mt 6261  414 L
 899 4616 mt 6261 4616 L
6261 4616 mt 6261  414 L
 899 4616 mt  899  414 L
gs 899 414 5363 4203 rc
gr

/c8 { 0.000000 0.000000 1.000000 sr} bdef
c8
3785 3081 mt 3857 3081 L
3821 3045 mt 3821 3117 L
2063 1816 mt 2135 1816 L
2099 1780 mt 2099 1852 L
4080 2233 mt 4152 2233 L
4116 2197 mt 4116 2269 L
4191 1732 mt 4263 1732 L
4227 1696 mt 4227 1768 L
2381 2194 mt 2453 2194 L
2417 2158 mt 2417 2230 L
2903 2347 mt 2975 2347 L
2939 2311 mt 2939 2383 L
3342 3063 mt 3414 3063 L
3378 3027 mt 3378 3099 L
1674 2773 mt 1746 2773 L
1710 2737 mt 1710 2809 L
3415 2467 mt 3487 2467 L
3451 2431 mt 3451 2503 L
5700 2759 mt 5772 2759 L
5736 2723 mt 5736 2795 L
1259  414 mt 1331  414 L
1295  378 mt 1295  450 L
2757 2275 mt 2829 2275 L
2793 2239 mt 2793 2311 L
2595 2024 mt 2667 2024 L
2631 1988 mt 2631 2060 L
2706 2189 mt 2778 2189 L
2742 2153 mt 2742 2225 L
4034 3425 mt 4106 3425 L
4070 3389 mt 4070 3461 L
3694 1152 mt 3766 1152 L
3730 1116 mt 3730 1188 L
2765 1787 mt 2837 1787 L
2801 1751 mt 2801 1823 L
3488 2909 mt 3560 2909 L
3524 2873 mt 3524 2945 L
4054 2165 mt 4126 2165 L
4090 2129 mt 4090 2201 L
4274 1823 mt 4346 1823 L
4310 1787 mt 4310 1859 L
2605 2510 mt 2677 2510 L
2641 2474 mt 2641 2546 L
3421 2935 mt 3493 2935 L
3457 2899 mt 3457 2971 L
3745 1371 mt 3817 1371 L
3781 1335 mt 3781 1407 L
2789 2214 mt 2861 2214 L
2825 2178 mt 2825 2250 L
4836 2840 mt 4908 2840 L
4872 2804 mt 4872 2876 L
4482 2920 mt 4554 2920 L
4518 2884 mt 4518 2956 L
3085 2668 mt 3157 2668 L
3121 2632 mt 3121 2704 L
4087 3022 mt 4159 3022 L
4123 2986 mt 4123 3058 L
4114 3051 mt 4186 3051 L
4150 3015 mt 4150 3087 L
5071 3711 mt 5143 3711 L
5107 3675 mt 5107 3747 L
3104 2374 mt 3176 2374 L
3140 2338 mt 3140 2410 L
3958 1561 mt 4030 1561 L
3994 1525 mt 3994 1597 L
4009 1923 mt 4081 1923 L
4045 1887 mt 4045 1959 L
5024 2637 mt 5096 2637 L
5060 2601 mt 5060 2673 L
4330 2576 mt 4402 2576 L
4366 2540 mt 4366 2612 L
3927 1604 mt 3999 1604 L
3963 1568 mt 3963 1640 L
3861 2338 mt 3933 2338 L
3897 2302 mt 3897 2374 L
3147 1643 mt 3219 1643 L
3183 1607 mt 3183 1679 L
3166  824 mt 3238  824 L
3202  788 mt 3202  860 L
2805 2180 mt 2877 2180 L
2841 2144 mt 2841 2216 L
4322 2445 mt 4394 2445 L
4358 2409 mt 4358 2481 L
3178  898 mt 3250  898 L
3214  862 mt 3214  934 L
2468 1858 mt 2540 1858 L
2504 1822 mt 2504 1894 L
4177 2584 mt 4249 2584 L
4213 2548 mt 4213 2620 L
5828 2051 mt 5900 2051 L
5864 2015 mt 5864 2087 L
3921 2279 mt 3993 2279 L
3957 2243 mt 3957 2315 L
3066 3553 mt 3138 3553 L
3102 3517 mt 3102 3589 L
2146 3908 mt 2218 3908 L
2182 3872 mt 2182 3944 L
4355 2035 mt 4427 2035 L
4391 1999 mt 4391 2071 L
2040 1794 mt 2112 1794 L
2076 1758 mt 2076 1830 L
3903 3331 mt 3975 3331 L
3939 3295 mt 3939 3367 L
4221 2062 mt 4293 2062 L
4257 2026 mt 4257 2098 L
2740 1298 mt 2812 1298 L
2776 1262 mt 2776 1334 L
2881 1526 mt 2953 1526 L
2917 1490 mt 2917 1562 L
3677 2994 mt 3749 2994 L
3713 2958 mt 3713 3030 L
4213 2223 mt 4285 2223 L
4249 2187 mt 4249 2259 L
3809 1538 mt 3881 1538 L
3845 1502 mt 3845 1574 L
4206 2140 mt 4278 2140 L
4242 2104 mt 4242 2176 L
4760 1845 mt 4832 1845 L
4796 1809 mt 4796 1881 L
3020 2396 mt 3092 2396 L
3056 2360 mt 3056 2432 L
4407 4023 mt 4479 4023 L
4443 3987 mt 4443 4059 L
3832 3731 mt 3904 3731 L
3868 3695 mt 3868 3767 L
4135 3306 mt 4207 3306 L
4171 3270 mt 4171 3342 L
4542 2801 mt 4614 2801 L
4578 2765 mt 4578 2837 L
3426 1948 mt 3498 1948 L
3462 1912 mt 3462 1984 L
3460 2325 mt 3532 2325 L
3496 2289 mt 3496 2361 L
4643 3527 mt 4715 3527 L
4679 3491 mt 4679 3563 L
2016 1878 mt 2088 1878 L
2052 1842 mt 2052 1914 L
3644 2820 mt 3716 2820 L
3680 2784 mt 3680 2856 L
2106 3151 mt 2178 3151 L
2142 3115 mt 2142 3187 L
3717 2073 mt 3789 2073 L
3753 2037 mt 3753 2109 L
3850 2334 mt 3922 2334 L
3886 2298 mt 3886 2370 L
2634 2849 mt 2706 2849 L
2670 2813 mt 2670 2885 L
3190 2480 mt 3262 2480 L
3226 2444 mt 3226 2516 L
1842 2242 mt 1914 2242 L
1878 2206 mt 1878 2278 L
1937 1984 mt 2009 1984 L
1973 1948 mt 1973 2020 L
5245 1885 mt 5317 1885 L
5281 1849 mt 5281 1921 L
3091 2659 mt 3163 2659 L
3127 2623 mt 3127 2695 L
3220 1809 mt 3292 1809 L
3256 1773 mt 3256 1845 L
3532 2686 mt 3604 2686 L
3568 2650 mt 3568 2722 L
3838 1614 mt 3910 1614 L
3874 1578 mt 3874 1650 L
2715 2204 mt 2787 2204 L
2751 2168 mt 2751 2240 L
2555 1707 mt 2627 1707 L
2591 1671 mt 2591 1743 L
3232 1872 mt 3304 1872 L
3268 1836 mt 3268 1908 L
4869 3515 mt 4941 3515 L
4905 3479 mt 4905 3551 L
3249 3658 mt 3321 3658 L
3285 3622 mt 3285 3694 L
3571 1049 mt 3643 1049 L
3607 1013 mt 3607 1085 L
4941 3118 mt 5013 3118 L
4977 3082 mt 4977 3154 L
4904 2682 mt 4976 2682 L
4940 2646 mt 4940 2718 L
3370 2904 mt 3442 2904 L
3406 2868 mt 3406 2940 L
3728 2109 mt 3800 2109 L
3764 2073 mt 3764 2145 L
3296 2956 mt 3368 2956 L
3332 2920 mt 3332 2992 L
1907 1960 mt 1979 1960 L
1943 1924 mt 1943 1996 L
3577 1232 mt 3649 1232 L
3613 1196 mt 3613 1268 L
2797 2484 mt 2869 2484 L
2833 2448 mt 2833 2520 L
2732 2493 mt 2804 2493 L
2768 2457 mt 2768 2529 L
3672 2040 mt 3744 2040 L
3708 2004 mt 3708 2076 L
3538 1181 mt 3610 1181 L
3574 1145 mt 3574 1217 L
5413 4305 mt 5485 4305 L
5449 4269 mt 5449 4341 L
4184 3693 mt 4256 3693 L
4220 3657 mt 4220 3729 L
 863 1624 mt  935 1624 L
 899 1588 mt  899 1660 L
3940 1764 mt 4012 1764 L
3976 1728 mt 3976 1800 L
3751 2361 mt 3823 2361 L
3787 2325 mt 3787 2397 L
1481 3358 mt 1553 3358 L
1517 3322 mt 1517 3394 L
3996 2967 mt 4068 2967 L
4032 2931 mt 4032 3003 L
3814 2978 mt 3886 2978 L
3850 2942 mt 3850 3014 L
3466 2825 mt 3538 2825 L
3502 2789 mt 3502 2861 L
4719  724 mt 4791  724 L
4755  688 mt 4755  760 L
3013 3848 mt 3085 3848 L
3049 3812 mt 3049 3884 L
2251 1572 mt 2323 1572 L
2287 1536 mt 2287 1608 L
5531 1354 mt 5603 1354 L
5567 1318 mt 5567 1390 L
3897 2475 mt 3969 2475 L
3933 2439 mt 3933 2511 L
3046 2815 mt 3118 2815 L
3082 2779 mt 3082 2851 L
3820 2754 mt 3892 2754 L
3856 2718 mt 3856 2790 L
4074 2302 mt 4146 2302 L
4110 2266 mt 4110 2338 L
2966 2316 mt 3038 2316 L
3002 2280 mt 3002 2352 L
2513 1087 mt 2585 1087 L
2549 1051 mt 2549 1123 L
1619 3250 mt 1691 3250 L
1655 3214 mt 1655 3286 L
3364 2265 mt 3436 2265 L
3400 2229 mt 3400 2301 L
4094 1865 mt 4166 1865 L
4130 1829 mt 4130 1901 L
3482 2972 mt 3554 2972 L
3518 2936 mt 3518 3008 L
3521 3376 mt 3593 3376 L
3557 3340 mt 3557 3412 L
1965 1489 mt 2037 1489 L
2001 1453 mt 2001 1525 L
2652 1653 mt 2724 1653 L
2688 1617 mt 2688 1689 L
3278 1404 mt 3350 1404 L
3314 1368 mt 3314 1440 L
1556 3017 mt 1628 3017 L
1592 2981 mt 1592 3053 L
3184 2750 mt 3256 2750 L
3220 2714 mt 3220 2786 L
3610 1756 mt 3682 1756 L
3646 1720 mt 3646 1792 L
3505 2571 mt 3577 2571 L
3541 2535 mt 3541 2607 L
4693 2170 mt 4765 2170 L
4729 2134 mt 4729 2206 L
3683 2633 mt 3755 2633 L
3719 2597 mt 3719 2669 L
4128 2247 mt 4200 2247 L
4164 2211 mt 4164 2283 L
2888 1715 mt 2960 1715 L
2924 1679 mt 2924 1751 L
2910 2218 mt 2982 2218 L
2946 2182 mt 2946 2254 L
1991 3257 mt 2063 3257 L
2027 3221 mt 2027 3293 L
3172 2356 mt 3244 2356 L
3208 2320 mt 3208 2392 L
3443 3457 mt 3515 3457 L
3479 3421 mt 3479 3493 L
3605 2787 mt 3677 2787 L
3641 2751 mt 3641 2823 L
3661 1255 mt 3733 1255 L
3697 1219 mt 3697 1291 L
3544 1662 mt 3616 1662 L
3580 1626 mt 3580 1698 L
3319 2889 mt 3391 2889 L
3355 2853 mt 3355 2925 L
4512 2237 mt 4584 2237 L
4548 2201 mt 4548 2273 L
4608 2946 mt 4680 2946 L
4644 2910 mt 4644 2982 L
3689 2562 mt 3761 2562 L
3725 2526 mt 3725 2598 L
4564 2256 mt 4636 2256 L
4600 2220 mt 4600 2292 L
5096 1978 mt 5168 1978 L
5132 1942 mt 5132 2014 L
3123 3099 mt 3195 3099 L
3159 3063 mt 3159 3135 L
4789 3595 mt 4861 3595 L
4825 3559 mt 4825 3631 L
4732 2859 mt 4804 2859 L
4768 2823 mt 4768 2895 L
2643 1698 mt 2715 1698 L
2679 1662 mt 2679 1734 L
5047 1966 mt 5119 1966 L
5083 1930 mt 5083 2002 L
3762 2914 mt 3834 2914 L
3798 2878 mt 3798 2950 L
3053 1772 mt 3125 1772 L
3089 1736 mt 3089 1808 L
4028 2029 mt 4100 2029 L
4064 1993 mt 4064 2065 L
3078 2782 mt 3150 2782 L
3114 2746 mt 3114 2818 L
4381 3075 mt 4453 3075 L
4417 3039 mt 4417 3111 L
2836 2879 mt 2908 2879 L
2872 2843 mt 2872 2915 L
2126 2519 mt 2198 2519 L
2162 2483 mt 2162 2555 L
3855  957 mt 3927  957 L
3891  921 mt 3891  993 L
3989 2528 mt 4061 2528 L
4025 2492 mt 4025 2564 L
3438 2418 mt 3510 2418 L
3474 2382 mt 3474 2454 L
2490 2835 mt 2562 2835 L
2526 2799 mt 2526 2871 L
4100 2677 mt 4172 2677 L
4136 2641 mt 4136 2713 L
4251 2115 mt 4323 2115 L
4287 2079 mt 4287 2151 L
5002 3106 mt 5074 3106 L
5038 3070 mt 5038 3142 L
3261 2764 mt 3333 2764 L
3297 2728 mt 3297 2800 L
4706 3314 mt 4778 3314 L
4742 3278 mt 4742 3350 L
4015 2497 mt 4087 2497 L
4051 2461 mt 4051 2533 L
2866 3164 mt 2938 3164 L
2902 3128 mt 2902 3200 L
2938 2727 mt 3010 2727 L
2974 2691 mt 2974 2763 L
3566 2343 mt 3638 2343 L
3602 2307 mt 3602 2379 L
3284 2619 mt 3356 2619 L
3320 2583 mt 3320 2655 L
3599 2099 mt 3671 2099 L
3635 2063 mt 3635 2135 L
1387 3641 mt 1459 3641 L
1423 3605 mt 1423 3677 L
3040 2536 mt 3112 2536 L
3076 2500 mt 3076 2572 L
2697 2150 mt 2769 2150 L
2733 2114 mt 2733 2186 L
3510 1740 mt 3582 1740 L
3546 1704 mt 3546 1776 L
4338 3468 mt 4410 3468 L
4374 3432 mt 4374 3504 L
2749 2722 mt 2821 2722 L
2785 2686 mt 2785 2758 L
2407 3242 mt 2479 3242 L
2443 3206 mt 2443 3278 L
3307 3265 mt 3379 3265 L
3343 3229 mt 3343 3301 L
4574 1462 mt 4646 1462 L
4610 1426 mt 4610 1498 L
2432 2899 mt 2504 2899 L
2468 2863 mt 2468 2935 L
3267 1476 mt 3339 1476 L
3303 1440 mt 3303 1512 L
4961 2130 mt 5033 2130 L
4997 2094 mt 4997 2166 L
3007 3191 mt 3079 3191 L
3043 3155 mt 3043 3227 L
3196 3322 mt 3268 3322 L
3232 3286 mt 3232 3358 L
2662 3797 mt 2734 3797 L
2698 3761 mt 2698 3833 L
4585 1972 mt 4657 1972 L
4621 1936 mt 4621 2008 L
2394 4616 mt 2466 4616 L
2430 4580 mt 2430 4652 L
2523 3415 mt 2595 3415 L
2559 3379 mt 2559 3451 L
3915 2067 mt 3987 2067 L
3951 2031 mt 3951 2103 L
3359 2745 mt 3431 2745 L
3395 2709 mt 3395 2781 L
2444 2185 mt 2516 2185 L
2480 2149 mt 2480 2221 L
2355 1207 mt 2427 1207 L
2391 1171 mt 2391 1243 L
4425 2951 mt 4497 2951 L
4461 2915 mt 4461 2987 L
3325 2089 mt 3397 2089 L
3361 2053 mt 3361 2125 L
3582 3011 mt 3654 3011 L
3618 2975 mt 3618 3047 L
2575 3349 mt 2647 3349 L
2611 3313 mt 2611 3385 L
2828 2453 mt 2900 2453 L
2864 2417 mt 2864 2489 L
3381 2811 mt 3453 2811 L
3417 2775 mt 3417 2847 L
2565 3942 mt 2637 3942 L
2601 3906 mt 2601 3978 L
4886 3625 mt 4958 3625 L
4922 3589 mt 4922 3661 L
3977 1502 mt 4049 1502 L
4013 1466 mt 4013 1538 L
2773 2440 mt 2845 2440 L
2809 2404 mt 2809 2476 L
2201 1851 mt 2273 1851 L
2237 1815 mt 2237 1887 L
3141 2293 mt 3213 2293 L
3177 2257 mt 3177 2329 L
3734 2718 mt 3806 2718 L
3770 2682 mt 3770 2754 L
3803 2589 mt 3875 2589 L
3839 2553 mt 3839 2625 L
5365 3213 mt 5437 3213 L
5401 3177 mt 5401 3249 L
2980 2175 mt 3052 2175 L
3016 2139 mt 3016 2211 L
2420 2383 mt 2492 2383 L
2456 2347 mt 2456 2419 L
3237 2597 mt 3309 2597 L
3273 2561 mt 3273 2633 L
3033 3567 mt 3105 3567 L
3069 3531 mt 3069 3603 L
3432 3774 mt 3504 3774 L
3468 3738 mt 3468 3810 L
4107 1550 mt 4179 1550 L
4143 1514 mt 4143 1586 L
2267 2602 mt 2339 2602 L
2303 2566 mt 2303 2638 L
3072 2541 mt 3144 2541 L
3108 2505 mt 3108 2577 L
3560 1936 mt 3632 1936 L
3596 1900 mt 3596 1972 L
4149 1779 mt 4221 1779 L
4185 1743 mt 4185 1815 L
3255 4072 mt 3327 4072 L
3291 4036 mt 3291 4108 L
3627 2405 mt 3699 2405 L
3663 2369 mt 3663 2441 L
3330 1831 mt 3402 1831 L
3366 1795 mt 3366 1867 L
2874 2558 mt 2946 2558 L
2910 2522 mt 2910 2594 L
3797 2427 mt 3869 2427 L
3833 2391 mt 3833 2463 L
4472 2741 mt 4544 2741 L
4508 2705 mt 4508 2777 L
3214 2320 mt 3286 2320 L
3250 2284 mt 3250 2356 L
3934 2709 mt 4006 2709 L
3970 2673 mt 3970 2745 L
2896 2352 mt 2968 2352 L
2932 2316 mt 2932 2388 L
4680 3184 mt 4752 3184 L
4716 3148 mt 4716 3220 L
2183 2078 mt 2255 2078 L
2219 2042 mt 2219 2114 L
3844 1723 mt 3916 1723 L
3880 1687 mt 3880 1759 L
4306 1388 mt 4378 1388 L
4342 1352 mt 4342 1424 L
5211 3005 mt 5283 3005 L
5247 2969 mt 5247 3041 L
3588 2983 mt 3660 2983 L
3624 2947 mt 3624 3019 L
2624 1434 mt 2696 1434 L
2660 1398 mt 2660 1470 L
3649 2615 mt 3721 2615 L
3685 2579 mt 3685 2651 L
3700 2379 mt 3772 2379 L
3736 2343 mt 3736 2415 L
3410 1583 mt 3482 1583 L
3446 1547 mt 3446 1619 L
1876 3131 mt 1948 3131 L
1912 3095 mt 1912 3167 L
4002 1930 mt 4074 1930 L
4038 1894 mt 4038 1966 L
3774 1448 mt 3846 1448 L
3810 1412 mt 3810 1484 L
3393 2796 mt 3465 2796 L
3429 2760 mt 3429 2832 L
4655 2940 mt 4727 2940 L
4691 2904 mt 4691 2976 L
6225 1419 mt 6297 1419 L
6261 1383 mt 6261 1455 L
3616 2057 mt 3688 2057 L
3652 2021 mt 3652 2093 L
2924 2580 mt 2996 2580 L
2960 2544 mt 2960 2616 L
3499 2695 mt 3571 2695 L
3535 2659 mt 3535 2731 L
4981 2869 mt 5053 2869 L
5017 2833 mt 5017 2905 L
3471 2593 mt 3543 2593 L
3507 2557 mt 3507 2629 L
3885 2925 mt 3957 2925 L
3921 2889 mt 3921 2961 L
4453 2155 mt 4525 2155 L
4489 2119 mt 4489 2191 L
3791 1318 mt 3863 1318 L
3827 1282 mt 3827 1354 L
2545 2251 mt 2617 2251 L
2581 2215 mt 2581 2287 L
3208 2854 mt 3280 2854 L
3244 2818 mt 3244 2890 L
4631 2135 mt 4703 2135 L
4667 2099 mt 4667 2171 L
4298 2930 mt 4370 2930 L
4334 2894 mt 4334 2966 L
4372 2392 mt 4444 2392 L
4408 2356 mt 4408 2428 L
4775 1990 mt 4847 1990 L
4811 1954 mt 4811 2026 L
3059 2462 mt 3131 2462 L
3095 2426 mt 3095 2498 L
4444 2012 mt 4516 2012 L
4480 1976 mt 4480 2048 L
4259 4131 mt 4331 4131 L
4295 4095 mt 4295 4167 L
4398 3877 mt 4470 3877 L
4434 3841 mt 4434 3913 L
5282 2414 mt 5354 2414 L
5318 2378 mt 5318 2450 L
3116 3281 mt 3188 3281 L
3152 3245 mt 3152 3317 L
3110 2209 mt 3182 2209 L
3146 2173 mt 3146 2245 L
3780 3675 mt 3852 3675 L
3816 3639 mt 3816 3711 L
2945 2844 mt 3017 2844 L
2981 2808 mt 2981 2880 L
3952 2874 mt 4024 2874 L
3988 2838 mt 3988 2910 L
4142 3178 mt 4214 3178 L
4178 3142 mt 4178 3214 L
4463 2449 mt 4535 2449 L
4499 2413 mt 4499 2485 L
2085 3752 mt 2157 3752 L
2121 3716 mt 2121 3788 L
3516 2713 mt 3588 2713 L
3552 2677 mt 3552 2749 L
3153 2523 mt 3225 2523 L
3189 2487 mt 3189 2559 L
3129 2410 mt 3201 2410 L
3165 2374 mt 3165 2446 L
3243 2018 mt 3315 2018 L
3279 1982 mt 3279 2054 L
5468 1671 mt 5540 1671 L
5504 1635 mt 5504 1707 L
2534 3198 mt 2606 3198 L
2570 3162 mt 2570 3234 L
3909 2545 mt 3981 2545 L
3945 2509 mt 3945 2581 L
3290 3405 mt 3362 3405 L
3326 3369 mt 3326 3441 L
4121  564 mt 4193  564 L
4157  528 mt 4157  600 L
2781 2736 mt 2853 2736 L
2817 2700 mt 2817 2772 L
2723 1689 mt 2795 1689 L
2759 1653 mt 2759 1725 L
4266 2673 mt 4338 2673 L
4302 2637 mt 4302 2709 L
4852 3045 mt 4924 3045 L
4888 3009 mt 4888 3081 L
3879 3220 mt 3951 3220 L
3915 3184 mt 3915 3256 L
3768 1336 mt 3840 1336 L
3804 1300 mt 3804 1372 L
5180 3069 mt 5252 3069 L
5216 3033 mt 5216 3105 L
4522 2864 mt 4594 2864 L
4558 2828 mt 4558 2900 L
4067 3491 mt 4139 3491 L
4103 3455 mt 4103 3527 L
4347 3297 mt 4419 3297 L
4383 3261 mt 4383 3333 L
2993 2792 mt 3065 2792 L
3029 2756 mt 3029 2828 L
2235 2288 mt 2307 2288 L
2271 2252 mt 2271 2324 L
4364 1942 mt 4436 1942 L
4400 1906 mt 4400 1978 L
1766 2606 mt 1838 2606 L
1802 2570 mt 1802 2642 L
2312 2261 mt 2384 2261 L
2348 2225 mt 2348 2297 L
4199 2650 mt 4271 2650 L
4235 2614 mt 4235 2686 L
4390 2514 mt 4462 2514 L
4426 2478 mt 4426 2550 L
5321 3235 mt 5393 3235 L
5357 3199 mt 5357 3271 L
4314 3386 mt 4386 3386 L
4350 3350 mt 4350 3422 L
2298 2423 mt 2370 2423 L
2334 2387 mt 2334 2459 L
1805 3581 mt 1877 3581 L
1841 3545 mt 1841 3617 L
4228 1917 mt 4300 1917 L
4264 1881 mt 4264 1953 L
2586 3367 mt 2658 3367 L
2622 3331 mt 2622 3403 L
3867 2884 mt 3939 2884 L
3903 2848 mt 3903 2920 L
2973 3125 mt 3045 3125 L
3009 3089 mt 3009 3161 L
4047 2298 mt 4119 2298 L
4083 2262 mt 4083 2334 L
4746 1514 mt 4818 1514 L
4782 1478 mt 4782 1550 L
2327 2145 mt 2399 2145 L
2363 2109 mt 2363 2181 L
3404 2083 mt 3476 2083 L
3440 2047 mt 3440 2119 L
6033 1277 mt 6105 1277 L
6069 1241 mt 6069 1313 L
3313 3057 mt 3385 3057 L
3349 3021 mt 3349 3093 L
2615 2628 mt 2687 2628 L
2651 2592 mt 2651 2664 L
3527 3395 mt 3599 3395 L
3563 3359 mt 3563 3431 L
3706 3436 mt 3778 3436 L
3742 3400 mt 3742 3472 L
2813 2228 mt 2885 2228 L
2849 2192 mt 2849 2264 L
2341 3112 mt 2413 3112 L
2377 3076 mt 2377 3148 L
3971 1898 mt 4043 1898 L
4007 1862 mt 4007 1934 L
3387 2768 mt 3459 2768 L
3423 2732 mt 3423 2804 L
4041 2046 mt 4113 2046 L
4077 2010 mt 4077 2082 L
3347 2641 mt 3419 2641 L
3383 2605 mt 3383 2677 L
4021 2370 mt 4093 2370 L
4057 2334 mt 4057 2406 L
3594 1593 mt 3666 1593 L
3630 1557 mt 3630 1629 L
2689 2436 mt 2761 2436 L
2725 2400 mt 2725 2472 L
3376 2549 mt 3448 2549 L
3412 2513 mt 3412 2585 L
3449 2731 mt 3521 2731 L
3485 2695 mt 3485 2767 L
3135 3034 mt 3207 3034 L
3171 2998 mt 3171 3070 L
4170 1904 mt 4242 1904 L
4206 1868 mt 4206 1940 L
3000 3206 mt 3072 3206 L
3036 3170 mt 3036 3242 L
4435 2624 mt 4507 2624 L
4471 2588 mt 4471 2660 L
4236 3540 mt 4308 3540 L
4272 3504 mt 4272 3576 L
3964 2554 mt 4036 2554 L
4000 2518 mt 4000 2590 L
3666 1634 mt 3738 1634 L
3702 1598 mt 3702 1670 L
3226 2001 mt 3298 2001 L
3262 1965 mt 3262 2037 L
2987 2388 mt 3059 2388 L
3023 2352 mt 3023 2424 L
2368 2506 mt 2440 2506 L
2404 2470 mt 2404 2542 L
2917 2611 mt 2989 2611 L
2953 2575 mt 2953 2647 L
3891 2567 mt 3963 2567 L
3927 2531 mt 3927 2603 L
2844 1006 mt 2916 1006 L
2880  970 mt 2880 1042 L
4553 4205 mt 4625 4205 L
4589 4169 mt 4589 4241 L
2456 2270 mt 2528 2270 L
2492 2234 mt 2492 2306 L
4243 2962 mt 4315 2962 L
4279 2926 mt 4279 2998 L
4805 2989 mt 4877 2989 L
4841 2953 mt 4841 3025 L
3398 3028 mt 3470 3028 L
3434 2992 mt 3434 3064 L
4416 3479 mt 4488 3479 L
4452 3443 mt 4452 3515 L
4619 2806 mt 4691 2806 L
4655 2770 mt 4655 2842 L
4060 3980 mt 4132 3980 L
4096 3944 mt 4096 4016 L
4820 3144 mt 4892 3144 L
4856 3108 mt 4856 3180 L
4667 3273 mt 4739 3273 L
4703 3237 mt 4703 3309 L
2502 1121 mt 2574 1121 L
2538 1085 mt 2538 1157 L
5606 1954 mt 5678 1954 L
5642 1918 mt 5642 1990 L
3740 1911 mt 3812 1911 L
3776 1875 mt 3776 1947 L
2851 1892 mt 2923 1892 L
2887 1856 mt 2887 1928 L
2282 2307 mt 2354 2307 L
2318 2271 mt 2318 2343 L
3273 2120 mt 3345 2120 L
3309 2084 mt 3309 2156 L
3655 3087 mt 3727 3087 L
3691 3051 mt 3691 3123 L
3638 3000 mt 3710 3000 L
3674 2964 mt 3674 3036 L
3160 2284 mt 3232 2284 L
3196 2248 mt 3196 2320 L
3757 2401 mt 3829 2401 L
3793 2365 mt 3793 2437 L
4597 3227 mt 4669 3227 L
4633 3191 mt 4633 3263 L
1722 3093 mt 1794 3093 L
1758 3057 mt 1758 3129 L
2218 2104 mt 2290 2104 L
2254 2068 mt 2254 2140 L
3621 2704 mt 3693 2704 L
3657 2668 mt 3657 2740 L
3983 3340 mt 4055 3340 L
4019 3304 mt 4019 3376 L
5122 1680 mt 5194 1680 L
5158 1644 mt 5158 1716 L
3098 1995 mt 3170 1995 L
3134 1959 mt 3134 2031 L
4922 3289 mt 4994 3289 L
4958 3253 mt 4958 3325 L
4163 1838 mt 4235 1838 L
4199 1802 mt 4199 1874 L
3202 2329 mt 3274 2329 L
3238 2293 mt 3238 2365 L
2959 2125 mt 3031 2125 L
2995 2089 mt 2995 2161 L
4290 2655 mt 4362 2655 L
4326 2619 mt 4326 2691 L
3711 2094 mt 3783 2094 L
3747 2058 mt 3747 2130 L
3493 3446 mt 3565 3446 L
3529 3410 mt 3529 3482 L
3633 3137 mt 3705 3137 L
3669 3101 mt 3669 3173 L
3946 2646 mt 4018 2646 L
3982 2610 mt 3982 2682 L
3826 1748 mt 3898 1748 L
3862 1712 mt 3862 1784 L
2680 2365 mt 2752 2365 L
2716 2329 mt 2716 2401 L
4532 2471 mt 4604 2471 L
4568 2435 mt 4568 2507 L
3336 3039 mt 3408 3039 L
3372 3003 mt 3372 3075 L
3723 3822 mt 3795 3822 L
3759 3786 mt 3759 3858 L
3302 2311 mt 3374 2311 L
3338 2275 mt 3338 2347 L
4492 1802 mt 4564 1802 L
4528 1766 mt 4528 1838 L
3477 2894 mt 3549 2894 L
3513 2858 mt 3513 2930 L
2165 2007 mt 2237 2007 L
2201 1971 mt 2201 2043 L
5150 2199 mt 5222 2199 L
5186 2163 mt 5186 2235 L
3555 2532 mt 3627 2532 L
3591 2496 mt 3591 2568 L
4282 2691 mt 4354 2691 L
4318 2655 mt 4318 2727 L
2821 2488 mt 2893 2488 L
2857 2452 mt 2857 2524 L
3454 3171 mt 3526 3171 L
3490 3135 mt 3490 3207 L
3353 3610 mt 3425 3610 L
3389 3574 mt 3389 3646 L
3549 2160 mt 3621 2160 L
3585 2124 mt 3585 2196 L
4156 2778 mt 4228 2778 L
4192 2742 mt 4192 2814 L
2952 3157 mt 3024 3157 L
2988 3121 mt 2988 3193 L
2479 3503 mt 2551 3503 L
2515 3467 mt 2515 3539 L
2931 2830 mt 3003 2830 L
2967 2794 mt 2967 2866 L
4501 2664 mt 4573 2664 L
4537 2628 mt 4537 2700 L
3873 2501 mt 3945 2501 L
3909 2465 mt 3909 2537 L
2671 2700 mt 2743 2700 L
2707 2664 mt 2707 2736 L
3027 2458 mt 3099 2458 L
3063 2422 mt 3063 2494 L
2859 2432 mt 2931 2432 L
2895 2396 mt 2895 2468 L
gs 899 414 5363 4203 rc
gr

0 sg
2775 5104 mt 
(\(F,DCTb,GMM\)) s
 482 3300 mt  -90 rotate
(\(F,DCTb,iMLP\)) s
90 rotate
2905  223 mt 
(Corr = -0.03) s

end %%Color Dict

eplot
%%EndObject

epage
end

showpage

%%Trailer
%%EOF
