%!PS-Adobe-3.0 EPSF-3.0
%%Creator: MATLAB, The Mathworks, Inc. Version 7.7.0.471 (R2008b). Operating System: Microsoft Windows XP.
%%Title: Pictures\main_zoo_mvar_analysis_data_BMI_xcorr_bmi_p1_k1_6_7.eps
%%CreationDate: 10/26/2009  05:44:09
%%DocumentNeededFonts: Helvetica
%%DocumentProcessColors: Cyan Magenta Yellow Black
%%LanguageLevel: 2
%%Pages: 1
%%BoundingBox:    32   180   546   616
%%EndComments

%%BeginProlog
% MathWorks dictionary
/MathWorks 160 dict begin
% definition operators
/bdef {bind def} bind def
/ldef {load def} bind def
/xdef {exch def} bdef
/xstore {exch store} bdef
% operator abbreviations
/c  /clip ldef
/cc /concat ldef
/cp /closepath ldef
/gr /grestore ldef
/gs /gsave ldef
/mt /moveto ldef
/np /newpath ldef
/cm /currentmatrix ldef
/sm /setmatrix ldef
/rm /rmoveto ldef
/rl /rlineto ldef
/s {show newpath} bdef
/sc {setcmykcolor} bdef
/sr /setrgbcolor ldef
/sg /setgray ldef
/w /setlinewidth ldef
/j /setlinejoin ldef
/cap /setlinecap ldef
/rc {rectclip} bdef
/rf {rectfill} bdef
% page state control
/pgsv () def
/bpage {/pgsv save def} bdef
/epage {pgsv restore} bdef
/bplot /gsave ldef
/eplot {stroke grestore} bdef
% orientation switch
/portraitMode 0 def /landscapeMode 1 def /rotateMode 2 def
% coordinate system mappings
/dpi2point 0 def
% font control
/FontSize 0 def
/FMS {/FontSize xstore findfont [FontSize 0 0 FontSize neg 0 0]
  makefont setfont} bdef
/ISOLatin1Encoding where {pop /WindowsLatin1Encoding 256 array bdef
ISOLatin1Encoding WindowsLatin1Encoding copy pop
/.notdef/.notdef/quotesinglbase/florin/quotedblbase/ellipsis/dagger
/daggerdbl/circumflex/perthousand/Scaron/guilsinglleft/OE/.notdef/.notdef
/.notdef/.notdef/quoteleft/quoteright/quotedblleft/quotedblright/bullet
/endash/emdash/tilde/trademark/scaron/guilsinglright/oe/.notdef/.notdef
/Ydieresis WindowsLatin1Encoding 128 32 getinterval astore pop}
{/WindowsLatin1Encoding StandardEncoding bdef} ifelse
/reencode {exch dup where {pop load} {pop StandardEncoding} ifelse
  exch dup 3 1 roll findfont dup length dict begin
  { 1 index /FID ne {def}{pop pop} ifelse } forall
  /Encoding exch def currentdict end definefont pop} bdef
/isroman {findfont /CharStrings get /Agrave known} bdef
/FMSR {3 1 roll 1 index dup isroman {reencode} {pop pop} ifelse
  exch FMS} bdef
/csm {1 dpi2point div -1 dpi2point div scale neg translate
 dup landscapeMode eq {pop -90 rotate}
  {rotateMode eq {90 rotate} if} ifelse} bdef
% line types: solid, dotted, dashed, dotdash
/SO { [] 0 setdash } bdef
/DO { [.5 dpi2point mul 4 dpi2point mul] 0 setdash } bdef
/DA { [6 dpi2point mul] 0 setdash } bdef
/DD { [.5 dpi2point mul 4 dpi2point mul 6 dpi2point mul 4
  dpi2point mul] 0 setdash } bdef
% macros for lines and objects
/L {lineto stroke} bdef
/MP {3 1 roll moveto 1 sub {rlineto} repeat} bdef
/AP {{rlineto} repeat} bdef
/PDlw -1 def
/W {/PDlw currentlinewidth def setlinewidth} def
/PP {closepath eofill} bdef
/DP {closepath stroke} bdef
/MR {4 -2 roll moveto dup  0 exch rlineto exch 0 rlineto
  neg 0 exch rlineto closepath} bdef
/FR {MR stroke} bdef
/PR {MR fill} bdef
/L1i {{currentfile picstr readhexstring pop} image} bdef
/tMatrix matrix def
/MakeOval {newpath tMatrix currentmatrix pop translate scale
0 0 1 0 360 arc tMatrix setmatrix} bdef
/FO {MakeOval stroke} bdef
/PO {MakeOval fill} bdef
/PD {currentlinewidth 2 div 0 360 arc fill
   PDlw -1 eq not {PDlw w /PDlw -1 def} if} def
/FA {newpath tMatrix currentmatrix pop translate scale
  0 0 1 5 -2 roll arc tMatrix setmatrix stroke} bdef
/PA {newpath tMatrix currentmatrix pop	translate 0 0 moveto scale
  0 0 1 5 -2 roll arc closepath tMatrix setmatrix fill} bdef
/FAn {newpath tMatrix currentmatrix pop translate scale
  0 0 1 5 -2 roll arcn tMatrix setmatrix stroke} bdef
/PAn {newpath tMatrix currentmatrix pop translate 0 0 moveto scale
  0 0 1 5 -2 roll arcn closepath tMatrix setmatrix fill} bdef
/vradius 0 def /hradius 0 def /lry 0 def
/lrx 0 def /uly 0 def /ulx 0 def /rad 0 def
/MRR {/vradius xdef /hradius xdef /lry xdef /lrx xdef /uly xdef
  /ulx xdef newpath tMatrix currentmatrix pop ulx hradius add uly
  vradius add translate hradius vradius scale 0 0 1 180 270 arc 
  tMatrix setmatrix lrx hradius sub uly vradius add translate
  hradius vradius scale 0 0 1 270 360 arc tMatrix setmatrix
  lrx hradius sub lry vradius sub translate hradius vradius scale
  0 0 1 0 90 arc tMatrix setmatrix ulx hradius add lry vradius sub
  translate hradius vradius scale 0 0 1 90 180 arc tMatrix setmatrix
  closepath} bdef
/FRR {MRR stroke } bdef
/PRR {MRR fill } bdef
/MlrRR {/lry xdef /lrx xdef /uly xdef /ulx xdef /rad lry uly sub 2 div def
  newpath tMatrix currentmatrix pop ulx rad add uly rad add translate
  rad rad scale 0 0 1 90 270 arc tMatrix setmatrix lrx rad sub lry rad
  sub translate rad rad scale 0 0 1 270 90 arc tMatrix setmatrix
  closepath} bdef
/FlrRR {MlrRR stroke } bdef
/PlrRR {MlrRR fill } bdef
/MtbRR {/lry xdef /lrx xdef /uly xdef /ulx xdef /rad lrx ulx sub 2 div def
  newpath tMatrix currentmatrix pop ulx rad add uly rad add translate
  rad rad scale 0 0 1 180 360 arc tMatrix setmatrix lrx rad sub lry rad
  sub translate rad rad scale 0 0 1 0 180 arc tMatrix setmatrix
  closepath} bdef
/FtbRR {MtbRR stroke } bdef
/PtbRR {MtbRR fill } bdef
/stri 6 array def /dtri 6 array def
/smat 6 array def /dmat 6 array def
/tmat1 6 array def /tmat2 6 array def /dif 3 array def
/asub {/ind2 exch def /ind1 exch def dup dup
  ind1 get exch ind2 get sub exch } bdef
/tri_to_matrix {
  2 0 asub 3 1 asub 4 0 asub 5 1 asub
  dup 0 get exch 1 get 7 -1 roll astore } bdef
/compute_transform {
  dmat dtri tri_to_matrix tmat1 invertmatrix 
  smat stri tri_to_matrix tmat2 concatmatrix } bdef
/ds {stri astore pop} bdef
/dt {dtri astore pop} bdef
/db {2 copy /cols xdef /rows xdef mul dup 3 mul string
  currentfile 
  3 index 0 eq {/ASCIIHexDecode filter}
  {/ASCII85Decode filter 3 index 2 eq {/RunLengthDecode filter} if }
  ifelse exch readstring pop
  dup 0 3 index getinterval /rbmap xdef
  dup 2 index dup getinterval /gbmap xdef
  1 index dup 2 mul exch getinterval /bbmap xdef pop pop}bdef
/it {gs np dtri aload pop moveto lineto lineto cp c
  cols rows 8 compute_transform 
  rbmap gbmap bbmap true 3 colorimage gr}bdef
/il {newpath moveto lineto stroke}bdef
currentdict end def
%%EndProlog

%%BeginSetup
MathWorks begin

0 cap

end
%%EndSetup

%%Page: 1 1
%%BeginPageSetup
%%PageBoundingBox:    32   180   546   616
MathWorks begin
bpage
%%EndPageSetup

%%BeginObject: obj1
bplot

/dpi2point 12 def
portraitMode 0216 7344 csm

  174   -48  6173  5231 rc
85 dict begin %Colortable dictionary
/c0 { 0.000000 0.000000 0.000000 sr} bdef
/c1 { 1.000000 1.000000 1.000000 sr} bdef
/c2 { 0.900000 0.000000 0.000000 sr} bdef
/c3 { 0.000000 0.820000 0.000000 sr} bdef
/c4 { 0.000000 0.000000 0.800000 sr} bdef
/c5 { 0.910000 0.820000 0.320000 sr} bdef
/c6 { 1.000000 0.260000 0.820000 sr} bdef
/c7 { 0.000000 0.820000 0.820000 sr} bdef
c0
1 j
1 sg
   0    0 6919 5187 rf
6 w
0 4202 5361 0 0 -4202 899 4616 4 MP
PP
-5361 0 0 4202 5361 0 0 -4202 899 4616 5 MP stroke
4 w
DO
SO
6 w
0 sg
 899  414 mt 6260  414 L
 899 4616 mt 6260 4616 L
6260 4616 mt 6260  414 L
 899 4616 mt  899  414 L
 899 4616 mt 6260 4616 L
 899 4616 mt  899  414 L
1699 4616 mt 1699 4562 L
1699  414 mt 1699  467 L
%%IncludeResource: font Helvetica
/Helvetica /WindowsLatin1Encoding 240 FMSR

1466 4873 mt 
(0.05) s
2500 4616 mt 2500 4562 L
2500  414 mt 2500  467 L
2334 4873 mt 
(0.1) s
3301 4616 mt 3301 4562 L
3301  414 mt 3301  467 L
3068 4873 mt 
(0.15) s
4102 4616 mt 4102 4562 L
4102  414 mt 4102  467 L
3936 4873 mt 
(0.2) s
4902 4616 mt 4902 4562 L
4902  414 mt 4902  467 L
4669 4873 mt 
(0.25) s
5703 4616 mt 5703 4562 L
5703  414 mt 5703  467 L
5537 4873 mt 
(0.3) s
 899 4104 mt  952 4104 L
6261 4104 mt 6207 4104 L
 531 4193 mt 
(0.1) s
 899 3593 mt  952 3593 L
6261 3593 mt 6207 3593 L
 531 3682 mt 
(0.2) s
 899 3081 mt  952 3081 L
6261 3081 mt 6207 3081 L
 531 3170 mt 
(0.3) s
 899 2570 mt  952 2570 L
6261 2570 mt 6207 2570 L
 531 2659 mt 
(0.4) s
 899 2058 mt  952 2058 L
6261 2058 mt 6207 2058 L
 531 2147 mt 
(0.5) s
 899 1547 mt  952 1547 L
6261 1547 mt 6207 1547 L
 531 1636 mt 
(0.6) s
 899 1036 mt  952 1036 L
6261 1036 mt 6207 1036 L
 531 1125 mt 
(0.7) s
 899  524 mt  952  524 L
6261  524 mt 6207  524 L
 531  613 mt 
(0.8) s
 899  414 mt 6260  414 L
 899 4616 mt 6260 4616 L
6260 4616 mt 6260  414 L
 899 4616 mt  899  414 L
gs 899 414 5363 4203 rc
gr

/c8 { 0.000000 0.000000 1.000000 sr} bdef
c8
 936 1576 mt 1008 1576 L
 972 1540 mt  972 1612 L
2338 4500 mt 2410 4500 L
2374 4464 mt 2374 4536 L
1490 4605 mt 1562 4605 L
1526 4569 mt 1526 4641 L
2507 4615 mt 2579 4615 L
2543 4579 mt 2543 4651 L
1526 4261 mt 1598 4261 L
1562 4225 mt 1562 4297 L
1347 4589 mt 1419 4589 L
1383 4553 mt 1383 4625 L
 940 4469 mt 1012 4469 L
 976 4433 mt  976 4505 L
1048 4561 mt 1120 4561 L
1084 4525 mt 1084 4597 L
1270 4612 mt 1342 4612 L
1306 4576 mt 1306 4648 L
1056 4357 mt 1128 4357 L
1092 4321 mt 1092 4393 L
6224 4511 mt 6296 4511 L
6260 4475 mt 6260 4547 L
1446 4314 mt 1518 4314 L
1482 4278 mt 1482 4350 L
1910 4251 mt 1982 4251 L
1946 4215 mt 1946 4287 L
1526 3581 mt 1598 3581 L
1562 3545 mt 1562 3617 L
 875 4610 mt  947 4610 L
 911 4574 mt  911 4646 L
3793 2836 mt 3865 2836 L
3829 2800 mt 3829 2872 L
2408 1225 mt 2480 1225 L
2444 1189 mt 2444 1261 L
 989 4524 mt 1061 4524 L
1025 4488 mt 1025 4560 L
1552 4493 mt 1624 4493 L
1588 4457 mt 1588 4529 L
2334 3968 mt 2406 3968 L
2370 3932 mt 2370 4004 L
1235 4525 mt 1307 4525 L
1271 4489 mt 1271 4561 L
 978 4582 mt 1050 4582 L
1014 4546 mt 1014 4618 L
3242 4561 mt 3314 4561 L
3278 4525 mt 3278 4597 L
1503 4543 mt 1575 4543 L
1539 4507 mt 1539 4579 L
1017 3206 mt 1089 3206 L
1053 3170 mt 1053 3242 L
 987 4338 mt 1059 4338 L
1023 4302 mt 1023 4374 L
1124 4255 mt 1196 4255 L
1160 4219 mt 1160 4291 L
 951 4595 mt 1023 4595 L
 987 4559 mt  987 4631 L
 943 4615 mt 1015 4615 L
 979 4579 mt  979 4651 L
 865 4514 mt  937 4514 L
 901 4478 mt  901 4550 L
1329 4564 mt 1401 4564 L
1365 4528 mt 1365 4600 L
2864 4371 mt 2936 4371 L
2900 4335 mt 2900 4407 L
2107 4575 mt 2179 4575 L
2143 4539 mt 2143 4611 L
1143 4341 mt 1215 4341 L
1179 4305 mt 1179 4377 L
1184 4571 mt 1256 4571 L
1220 4535 mt 1220 4607 L
2828 4501 mt 2900 4501 L
2864 4465 mt 2864 4537 L
1365 4404 mt 1437 4404 L
1401 4368 mt 1401 4440 L
2713 4118 mt 2785 4118 L
2749 4082 mt 2749 4154 L
4181 3158 mt 4253 3158 L
4217 3122 mt 4217 3194 L
1544 3753 mt 1616 3753 L
1580 3717 mt 1580 3789 L
1278 4521 mt 1350 4521 L
1314 4485 mt 1314 4557 L
4082 4568 mt 4154 4568 L
4118 4532 mt 4118 4604 L
2292 3851 mt 2364 3851 L
2328 3815 mt 2328 3887 L
1178 4155 mt 1250 4155 L
1214 4119 mt 1214 4191 L
1795 4496 mt 1867 4496 L
1831 4460 mt 1831 4532 L
1441 4614 mt 1513 4614 L
1477 4578 mt 1477 4650 L
 869 2852 mt  941 2852 L
 905 2816 mt  905 2888 L
 863 4457 mt  935 4457 L
 899 4421 mt  899 4493 L
1904 4124 mt 1976 4124 L
1940 4088 mt 1940 4160 L
2405 4610 mt 2477 4610 L
2441 4574 mt 2441 4646 L
 886 4003 mt  958 4003 L
 922 3967 mt  922 4039 L
1774 4396 mt 1846 4396 L
1810 4360 mt 1810 4432 L
3479 4435 mt 3551 4435 L
3515 4399 mt 3515 4471 L
3010 4609 mt 3082 4609 L
3046 4573 mt 3046 4645 L
 956 3611 mt 1028 3611 L
 992 3575 mt  992 3647 L
1496 4564 mt 1568 4564 L
1532 4528 mt 1532 4600 L
3009 4259 mt 3081 4259 L
3045 4223 mt 3045 4295 L
1582 4605 mt 1654 4605 L
1618 4569 mt 1618 4641 L
2312 4320 mt 2384 4320 L
2348 4284 mt 2348 4356 L
1306 4489 mt 1378 4489 L
1342 4453 mt 1342 4525 L
 863 3952 mt  935 3952 L
 899 3916 mt  899 3988 L
 865 2926 mt  937 2926 L
 901 2890 mt  901 2962 L
 887 4484 mt  959 4484 L
 923 4448 mt  923 4520 L
1035 4492 mt 1107 4492 L
1071 4456 mt 1071 4528 L
2071 4599 mt 2143 4599 L
2107 4563 mt 2107 4635 L
1375 4303 mt 1447 4303 L
1411 4267 mt 1411 4339 L
 870 4569 mt  942 4569 L
 906 4533 mt  906 4605 L
2174 4213 mt 2246 4213 L
2210 4177 mt 2210 4249 L
1020 4512 mt 1092 4512 L
1056 4476 mt 1056 4548 L
 917 4609 mt  989 4609 L
 953 4573 mt  953 4645 L
1732 4612 mt 1804 4612 L
1768 4576 mt 1768 4648 L
1367 4491 mt 1439 4491 L
1403 4455 mt 1403 4527 L
1014 4609 mt 1086 4609 L
1050 4573 mt 1050 4645 L
1263 4513 mt 1335 4513 L
1299 4477 mt 1299 4549 L
1479 4155 mt 1551 4155 L
1515 4119 mt 1515 4191 L
1954 4100 mt 2026 4100 L
1990 4064 mt 1990 4136 L
2154 4573 mt 2226 4573 L
2190 4537 mt 2190 4609 L
1129 4506 mt 1201 4506 L
1165 4470 mt 1165 4542 L
2355 4180 mt 2427 4180 L
2391 4144 mt 2391 4216 L
1106 4008 mt 1178 4008 L
1142 3972 mt 1142 4044 L
2804 4434 mt 2876 4434 L
2840 4398 mt 2840 4470 L
1507 4610 mt 1579 4610 L
1543 4574 mt 1543 4646 L
2526 4110 mt 2598 4110 L
2562 4074 mt 2562 4146 L
2194 4614 mt 2266 4614 L
2230 4578 mt 2230 4650 L
 870 3584 mt  942 3584 L
 906 3548 mt  906 3620 L
 867 4611 mt  939 4611 L
 903 4575 mt  903 4647 L
3920 4615 mt 3992 4615 L
3956 4579 mt 3956 4651 L
 924 4569 mt  996 4569 L
 960 4533 mt  960 4605 L
1111 4615 mt 1183 4615 L
1147 4579 mt 1147 4651 L
 991 3966 mt 1063 3966 L
1027 3930 mt 1027 4002 L
1653 4450 mt 1725 4450 L
1689 4414 mt 1689 4486 L
 965 4596 mt 1037 4596 L
1001 4560 mt 1001 4632 L
2032 4614 mt 2104 4614 L
2068 4578 mt 2068 4650 L
3664 3639 mt 3736 3639 L
3700 3603 mt 3700 3675 L
1256 4513 mt 1328 4513 L
1292 4477 mt 1292 4549 L
1255 3944 mt 1327 3944 L
1291 3908 mt 1291 3980 L
1838 4432 mt 1910 4432 L
1874 4396 mt 1874 4468 L
3715 4539 mt 3787 4539 L
3751 4503 mt 3751 4575 L
 863 4354 mt  935 4354 L
 899 4318 mt  899 4390 L
 866 4602 mt  938 4602 L
 902 4566 mt  902 4638 L
2785  414 mt 2857  414 L
2821  378 mt 2821  450 L
2452 4450 mt 2524 4450 L
2488 4414 mt 2488 4486 L
1345 4262 mt 1417 4262 L
1381 4226 mt 1381 4298 L
 884 4607 mt  956 4607 L
 920 4571 mt  920 4643 L
 963 3854 mt 1035 3854 L
 999 3818 mt  999 3890 L
 961 4353 mt 1033 4353 L
 997 4317 mt  997 4389 L
1020 4610 mt 1092 4610 L
1056 4574 mt 1056 4646 L
4700 3641 mt 4772 3641 L
4736 3605 mt 4736 3677 L
 864 4284 mt  936 4284 L
 900 4248 mt  900 4320 L
2853 4615 mt 2925 4615 L
2889 4579 mt 2889 4651 L
3333 4527 mt 3405 4527 L
3369 4491 mt 3369 4563 L
1265 4606 mt 1337 4606 L
1301 4570 mt 1301 4642 L
1024 4074 mt 1096 4074 L
1060 4038 mt 1060 4110 L
1057 4436 mt 1129 4436 L
1093 4400 mt 1093 4472 L
1409 4597 mt 1481 4597 L
1445 4561 mt 1445 4633 L
1386 4264 mt 1458 4264 L
1422 4228 mt 1422 4300 L
3908 4589 mt 3980 4589 L
3944 4553 mt 3944 4625 L
 897 4321 mt  969 4321 L
 933 4285 mt  933 4357 L
1449 4505 mt 1521 4505 L
1485 4469 mt 1485 4541 L
2247 4580 mt 2319 4580 L
2283 4544 mt 2283 4616 L
 962 4494 mt 1034 4494 L
 998 4458 mt  998 4530 L
 880 4593 mt  952 4593 L
 916 4557 mt  916 4629 L
3102 4575 mt 3174 4575 L
3138 4539 mt 3138 4611 L
2647 3911 mt 2719 3911 L
2683 3875 mt 2683 3947 L
3193 3803 mt 3265 3803 L
3229 3767 mt 3229 3839 L
 952 4095 mt 1024 4095 L
 988 4059 mt  988 4131 L
1062 4531 mt 1134 4531 L
1098 4495 mt 1098 4567 L
2459 4568 mt 2531 4568 L
2495 4532 mt 2495 4604 L
1184 4612 mt 1256 4612 L
1220 4576 mt 1220 4648 L
1552 4196 mt 1624 4196 L
1588 4160 mt 1588 4232 L
1143 4609 mt 1215 4609 L
1179 4573 mt 1179 4645 L
1479 3026 mt 1551 3026 L
1515 2990 mt 1515 3062 L
2523 4608 mt 2595 4608 L
2559 4572 mt 2559 4644 L
1502 4615 mt 1574 4615 L
1538 4579 mt 1538 4651 L
 892 4600 mt  964 4600 L
 928 4564 mt  928 4636 L
1345 4335 mt 1417 4335 L
1381 4299 mt 1381 4371 L
 873 4602 mt  945 4602 L
 909 4566 mt  909 4638 L
1045 4341 mt 1117 4341 L
1081 4305 mt 1081 4377 L
3588 3811 mt 3660 3811 L
3624 3775 mt 3624 3847 L
2639 4407 mt 2711 4407 L
2675 4371 mt 2675 4443 L
 996 4605 mt 1068 4605 L
1032 4569 mt 1032 4641 L
1479 4286 mt 1551 4286 L
1515 4250 mt 1515 4322 L
 968 4274 mt 1040 4274 L
1004 4238 mt 1004 4310 L
1189 4307 mt 1261 4307 L
1225 4271 mt 1225 4343 L
1469 4550 mt 1541 4550 L
1505 4514 mt 1505 4586 L
1978 4608 mt 2050 4608 L
2014 4572 mt 2014 4644 L
 932 3437 mt 1004 3437 L
 968 3401 mt  968 3473 L
 868 3228 mt  940 3228 L
 904 3192 mt  904 3264 L
1010 4061 mt 1082 4061 L
1046 4025 mt 1046 4097 L
2555 3783 mt 2627 3783 L
2591 3747 mt 2591 3819 L
2024 4583 mt 2096 4583 L
2060 4547 mt 2060 4619 L
 989 4495 mt 1061 4495 L
1025 4459 mt 1025 4531 L
2425 4556 mt 2497 4556 L
2461 4520 mt 2461 4592 L
1906 4244 mt 1978 4244 L
1942 4208 mt 1942 4280 L
1048 3309 mt 1120 3309 L
1084 3273 mt 1084 3345 L
 937 4615 mt 1009 4615 L
 973 4579 mt  973 4651 L
1002 4414 mt 1074 4414 L
1038 4378 mt 1038 4450 L
1231 3283 mt 1303 3283 L
1267 3247 mt 1267 3319 L
4078 4431 mt 4150 4431 L
4114 4395 mt 4114 4467 L
1226 4606 mt 1298 4606 L
1262 4570 mt 1262 4642 L
1284 4311 mt 1356 4311 L
1320 4275 mt 1320 4347 L
1017 4425 mt 1089 4425 L
1053 4389 mt 1053 4461 L
1112 4443 mt 1184 4443 L
1148 4407 mt 1148 4479 L
1631 4274 mt 1703 4274 L
1667 4238 mt 1667 4310 L
 925 4523 mt  997 4523 L
 961 4487 mt  961 4559 L
1052 4421 mt 1124 4421 L
1088 4385 mt 1088 4457 L
 887 3710 mt  959 3710 L
 923 3674 mt  923 3746 L
1248 4117 mt 1320 4117 L
1284 4081 mt 1284 4153 L
 915 4550 mt  987 4550 L
 951 4514 mt  951 4586 L
1076 4526 mt 1148 4526 L
1112 4490 mt 1112 4562 L
1357 3215 mt 1429 3215 L
1393 3179 mt 1393 3251 L
1151 4255 mt 1223 4255 L
1187 4219 mt 1187 4291 L
1679 4414 mt 1751 4414 L
1715 4378 mt 1715 4450 L
 867 4578 mt  939 4578 L
 903 4542 mt  903 4614 L
1226 3923 mt 1298 3923 L
1262 3887 mt 1262 3959 L
1566 4612 mt 1638 4612 L
1602 4576 mt 1602 4648 L
2503 4208 mt 2575 4208 L
2539 4172 mt 2539 4244 L
 873 4489 mt  945 4489 L
 909 4453 mt  909 4525 L
1078 4326 mt 1150 4326 L
1114 4290 mt 1114 4362 L
 897 4608 mt  969 4608 L
 933 4572 mt  933 4644 L
 892 4356 mt  964 4356 L
 928 4320 mt  928 4392 L
3153 4316 mt 3225 4316 L
3189 4280 mt 3189 4352 L
 993 3331 mt 1065 3331 L
1029 3295 mt 1029 3367 L
3146 4591 mt 3218 4591 L
3182 4555 mt 3182 4627 L
1584 4604 mt 1656 4604 L
1620 4568 mt 1620 4640 L
 906 4612 mt  978 4612 L
 942 4576 mt  942 4648 L
 886 4605 mt  958 4605 L
 922 4569 mt  922 4641 L
 864 4613 mt  936 4613 L
 900 4577 mt  900 4649 L
2005 2454 mt 2077 2454 L
2041 2418 mt 2041 2490 L
 863 3801 mt  935 3801 L
 899 3765 mt  899 3837 L
 878 3371 mt  950 3371 L
 914 3335 mt  914 3407 L
1739 4552 mt 1811 4552 L
1775 4516 mt 1775 4588 L
1064 4222 mt 1136 4222 L
1100 4186 mt 1100 4258 L
1540 4590 mt 1612 4590 L
1576 4554 mt 1576 4626 L
3672 4600 mt 3744 4600 L
3708 4564 mt 3708 4636 L
 967 1998 mt 1039 1998 L
1003 1962 mt 1003 2034 L
1692 3937 mt 1764 3937 L
1728 3901 mt 1728 3973 L
 952 2992 mt 1024 2992 L
 988 2956 mt  988 3028 L
 885 4579 mt  957 4579 L
 921 4543 mt  921 4615 L
1277 4376 mt 1349 4376 L
1313 4340 mt 1313 4412 L
1025 1362 mt 1097 1362 L
1061 1326 mt 1061 1398 L
 863 3192 mt  935 3192 L
 899 3156 mt  899 3228 L
 868 4582 mt  940 4582 L
 904 4546 mt  904 4618 L
3065 4423 mt 3137 4423 L
3101 4387 mt 3101 4459 L
1280 4593 mt 1352 4593 L
1316 4557 mt 1316 4629 L
2292 3915 mt 2364 3915 L
2328 3879 mt 2328 3951 L
1427 4245 mt 1499 4245 L
1463 4209 mt 1463 4281 L
1080 4253 mt 1152 4253 L
1116 4217 mt 1116 4289 L
1174 4555 mt 1246 4555 L
1210 4519 mt 1210 4591 L
 901 3492 mt  973 3492 L
 937 3456 mt  937 3528 L
1547 4577 mt 1619 4577 L
1583 4541 mt 1583 4613 L
1328 4487 mt 1400 4487 L
1364 4451 mt 1364 4523 L
1172 4508 mt 1244 4508 L
1208 4472 mt 1208 4544 L
 869 2110 mt  941 2110 L
 905 2074 mt  905 2146 L
 864 4446 mt  936 4446 L
 900 4410 mt  900 4482 L
2906 2097 mt 2978 2097 L
2942 2061 mt 2942 2133 L
1168 1218 mt 1240 1218 L
1204 1182 mt 1204 1254 L
1217 4320 mt 1289 4320 L
1253 4284 mt 1253 4356 L
2080 4027 mt 2152 4027 L
2116 3991 mt 2116 4063 L
2409 3743 mt 2481 3743 L
2445 3707 mt 2445 3779 L
 863 4615 mt  935 4615 L
 899 4579 mt  899 4651 L
1297 4161 mt 1369 4161 L
1333 4125 mt 1333 4197 L
2332 4394 mt 2404 4394 L
2368 4358 mt 2368 4430 L
1199 4598 mt 1271 4598 L
1235 4562 mt 1235 4634 L
1283 3498 mt 1355 3498 L
1319 3462 mt 1319 3534 L
1067 4188 mt 1139 4188 L
1103 4152 mt 1103 4224 L
1380 4397 mt 1452 4397 L
1416 4361 mt 1416 4433 L
1081 3949 mt 1153 3949 L
1117 3913 mt 1117 3985 L
1346 4511 mt 1418 4511 L
1382 4475 mt 1382 4547 L
 913 4332 mt  985 4332 L
 949 4296 mt  949 4368 L
1724 3994 mt 1796 3994 L
1760 3958 mt 1760 4030 L
2522 4616 mt 2594 4616 L
2558 4580 mt 2558 4652 L
3220 4567 mt 3292 4567 L
3256 4531 mt 3256 4603 L
 953 3661 mt 1025 3661 L
 989 3625 mt  989 3697 L
 960 4609 mt 1032 4609 L
 996 4573 mt  996 4645 L
3180 4615 mt 3252 4615 L
3216 4579 mt 3216 4651 L
1156 4590 mt 1228 4590 L
1192 4554 mt 1192 4626 L
1329 2622 mt 1401 2622 L
1365 2586 mt 1365 2658 L
2850 3093 mt 2922 3093 L
2886 3057 mt 2886 3129 L
 923 4229 mt  995 4229 L
 959 4193 mt  959 4265 L
2091 4179 mt 2163 4179 L
2127 4143 mt 2127 4215 L
3165 4079 mt 3237 4079 L
3201 4043 mt 3201 4115 L
1036 4308 mt 1108 4308 L
1072 4272 mt 1072 4344 L
 971 4598 mt 1043 4598 L
1007 4562 mt 1007 4634 L
3190 4609 mt 3262 4609 L
3226 4573 mt 3226 4645 L
1791 4508 mt 1863 4508 L
1827 4472 mt 1827 4544 L
1180 2419 mt 1252 2419 L
1216 2383 mt 1216 2455 L
1093 4586 mt 1165 4586 L
1129 4550 mt 1129 4622 L
1006 3559 mt 1078 3559 L
1042 3523 mt 1042 3595 L
1173 4581 mt 1245 4581 L
1209 4545 mt 1209 4617 L
 980 4106 mt 1052 4106 L
1016 4070 mt 1016 4142 L
1562 4220 mt 1634 4220 L
1598 4184 mt 1598 4256 L
3445 4599 mt 3517 4599 L
3481 4563 mt 3481 4635 L
1478 4609 mt 1550 4609 L
1514 4573 mt 1514 4645 L
1013 4165 mt 1085 4165 L
1049 4129 mt 1049 4201 L
1584 4246 mt 1656 4246 L
1620 4210 mt 1620 4282 L
 979 4598 mt 1051 4598 L
1015 4562 mt 1015 4634 L
1307 4557 mt 1379 4557 L
1343 4521 mt 1343 4593 L
1939 3791 mt 2011 3791 L
1975 3755 mt 1975 3827 L
1275 4215 mt 1347 4215 L
1311 4179 mt 1311 4251 L
1917 3948 mt 1989 3948 L
1953 3912 mt 1953 3984 L
 863 3811 mt  935 3811 L
 899 3775 mt  899 3847 L
 863 4582 mt  935 4582 L
 899 4546 mt  899 4618 L
1289 4484 mt 1361 4484 L
1325 4448 mt 1325 4520 L
 890 4505 mt  962 4505 L
 926 4469 mt  926 4541 L
1505 4592 mt 1577 4592 L
1541 4556 mt 1541 4628 L
 866 4599 mt  938 4599 L
 902 4563 mt  902 4635 L
1016 3299 mt 1088 3299 L
1052 3263 mt 1052 3335 L
1004 4607 mt 1076 4607 L
1040 4571 mt 1040 4643 L
 914 4510 mt  986 4510 L
 950 4474 mt  950 4546 L
1277 4426 mt 1349 4426 L
1313 4390 mt 1313 4462 L
 865 3726 mt  937 3726 L
 901 3690 mt  901 3762 L
1080 4587 mt 1152 4587 L
1116 4551 mt 1116 4623 L
1228 4576 mt 1300 4576 L
1264 4540 mt 1264 4612 L
1295 4588 mt 1367 4588 L
1331 4552 mt 1331 4624 L
1911 4168 mt 1983 4168 L
1947 4132 mt 1947 4204 L
2629 4191 mt 2701 4191 L
2665 4155 mt 2665 4227 L
 902 4614 mt  974 4614 L
 938 4578 mt  938 4650 L
1209 4611 mt 1281 4611 L
1245 4575 mt 1245 4647 L
 879 4275 mt  951 4275 L
 915 4239 mt  915 4311 L
6090 4336 mt 6162 4336 L
6126 4300 mt 6126 4372 L
1073 4611 mt 1145 4611 L
1109 4575 mt 1109 4647 L
2568 3369 mt 2640 3369 L
2604 3333 mt 2604 3405 L
1123 4468 mt 1195 4468 L
1159 4432 mt 1159 4504 L
 944 2859 mt 1016 2859 L
 980 2823 mt  980 2895 L
 899 4598 mt  971 4598 L
 935 4562 mt  935 4634 L
3351 4519 mt 3423 4519 L
3387 4483 mt 3387 4555 L
 937 4442 mt 1009 4442 L
 973 4406 mt  973 4478 L
1009 4457 mt 1081 4457 L
1045 4421 mt 1045 4493 L
 871 4414 mt  943 4414 L
 907 4378 mt  907 4450 L
 888 4086 mt  960 4086 L
 924 4050 mt  924 4122 L
1043 4356 mt 1115 4356 L
1079 4320 mt 1079 4392 L
1428 4578 mt 1500 4578 L
1464 4542 mt 1464 4614 L
2072 2849 mt 2144 2849 L
2108 2813 mt 2108 2885 L
1163 4586 mt 1235 4586 L
1199 4550 mt 1199 4622 L
1449 4552 mt 1521 4552 L
1485 4516 mt 1485 4588 L
1131 4610 mt 1203 4610 L
1167 4574 mt 1167 4646 L
1232 4603 mt 1304 4603 L
1268 4567 mt 1268 4639 L
 899 4615 mt  971 4615 L
 935 4579 mt  935 4651 L
 880 4604 mt  952 4604 L
 916 4568 mt  916 4640 L
1283  578 mt 1355  578 L
1319  542 mt 1319  614 L
 868 4597 mt  940 4597 L
 904 4561 mt  904 4633 L
2112 3278 mt 2184 3278 L
2148 3242 mt 2148 3314 L
 881 4486 mt  953 4486 L
 917 4450 mt  917 4522 L
 997 4382 mt 1069 4382 L
1033 4346 mt 1033 4418 L
 923 4250 mt  995 4250 L
 959 4214 mt  959 4286 L
1421 4446 mt 1493 4446 L
1457 4410 mt 1457 4482 L
3050 2979 mt 3122 2979 L
3086 2943 mt 3086 3015 L
1571 4402 mt 1643 4402 L
1607 4366 mt 1607 4438 L
1703 4541 mt 1775 4541 L
1739 4505 mt 1739 4577 L
3484 3193 mt 3556 3193 L
3520 3157 mt 3520 3229 L
 941 3874 mt 1013 3874 L
 977 3838 mt  977 3910 L
1144 4059 mt 1216 4059 L
1180 4023 mt 1180 4095 L
 880 4084 mt  952 4084 L
 916 4048 mt  916 4120 L
 875 4594 mt  947 4594 L
 911 4558 mt  911 4630 L
1495 4220 mt 1567 4220 L
1531 4184 mt 1531 4256 L
 925 4531 mt  997 4531 L
 961 4495 mt  961 4567 L
2135 3661 mt 2207 3661 L
2171 3625 mt 2171 3697 L
1050 4579 mt 1122 4579 L
1086 4543 mt 1086 4615 L
1803 4549 mt 1875 4549 L
1839 4513 mt 1839 4585 L
1138 4592 mt 1210 4592 L
1174 4556 mt 1174 4628 L
1329 4403 mt 1401 4403 L
1365 4367 mt 1365 4439 L
2845 4207 mt 2917 4207 L
2881 4171 mt 2881 4243 L
1280 3933 mt 1352 3933 L
1316 3897 mt 1316 3969 L
1208 3110 mt 1280 3110 L
1244 3074 mt 1244 3146 L
1075 4605 mt 1147 4605 L
1111 4569 mt 1111 4641 L
 946 4224 mt 1018 4224 L
 982 4188 mt  982 4260 L
2134 4601 mt 2206 4601 L
2170 4565 mt 2170 4637 L
 901 4408 mt  973 4408 L
 937 4372 mt  937 4444 L
1146 3683 mt 1218 3683 L
1182 3647 mt 1182 3719 L
 869 4429 mt  941 4429 L
 905 4393 mt  905 4465 L
1205 3294 mt 1277 3294 L
1241 3258 mt 1241 3330 L
2746 4517 mt 2818 4517 L
2782 4481 mt 2782 4553 L
1934 4614 mt 2006 4614 L
1970 4578 mt 1970 4650 L
1311 4298 mt 1383 4298 L
1347 4262 mt 1347 4334 L
1244 3415 mt 1316 3415 L
1280 3379 mt 1280 3451 L
1161 4532 mt 1233 4532 L
1197 4496 mt 1197 4568 L
1187 3363 mt 1259 3363 L
1223 3327 mt 1223 3399 L
3958 4128 mt 4030 4128 L
3994 4092 mt 3994 4164 L
 863 4613 mt  935 4613 L
 899 4577 mt  899 4649 L
1447 4265 mt 1519 4265 L
1483 4229 mt 1483 4301 L
 964 3766 mt 1036 3766 L
1000 3730 mt 1000 3802 L
 956 4475 mt 1028 4475 L
 992 4439 mt  992 4511 L
 951 4441 mt 1023 4441 L
 987 4405 mt  987 4477 L
 872 4182 mt  944 4182 L
 908 4146 mt  908 4218 L
1028 4304 mt 1100 4304 L
1064 4268 mt 1064 4340 L
 863 4310 mt  935 4310 L
 899 4274 mt  899 4346 L
 919 3870 mt  991 3870 L
 955 3834 mt  955 3906 L
 890 2918 mt  962 2918 L
 926 2882 mt  926 2954 L
3903 3525 mt 3975 3525 L
3939 3489 mt 3939 3561 L
2049 4599 mt 2121 4599 L
2085 4563 mt 2085 4635 L
2132 4456 mt 2204 4456 L
2168 4420 mt 2168 4492 L
2140 3945 mt 2212 3945 L
2176 3909 mt 2176 3981 L
1390 4609 mt 1462 4609 L
1426 4573 mt 1426 4645 L
1601 3176 mt 1673 3176 L
1637 3140 mt 1637 3212 L
 933 3963 mt 1005 3963 L
 969 3927 mt  969 3999 L
 954 4180 mt 1026 4180 L
 990 4144 mt  990 4216 L
1433 2819 mt 1505 2819 L
1469 2783 mt 1469 2855 L
1300 4614 mt 1372 4614 L
1336 4578 mt 1336 4650 L
 899 4614 mt  971 4614 L
 935 4578 mt  935 4650 L
 932 4450 mt 1004 4450 L
 968 4414 mt  968 4486 L
1664 4615 mt 1736 4615 L
1700 4579 mt 1700 4651 L
1086 4215 mt 1158 4215 L
1122 4179 mt 1122 4251 L
 885 3764 mt  957 3764 L
 921 3728 mt  921 3800 L
2581 4063 mt 2653 4063 L
2617 4027 mt 2617 4099 L
1937 3917 mt 2009 3917 L
1973 3881 mt 1973 3953 L
 889 4587 mt  961 4587 L
 925 4551 mt  925 4623 L
2320 4262 mt 2392 4262 L
2356 4226 mt 2356 4298 L
1372 4606 mt 1444 4606 L
1408 4570 mt 1408 4642 L
1601 3934 mt 1673 3934 L
1637 3898 mt 1637 3970 L
1130 3214 mt 1202 3214 L
1166 3178 mt 1166 3250 L
1691 4583 mt 1763 4583 L
1727 4547 mt 1727 4619 L
 874 4596 mt  946 4596 L
 910 4560 mt  910 4632 L
 919 4426 mt  991 4426 L
 955 4390 mt  955 4462 L
1134 3291 mt 1206 3291 L
1170 3255 mt 1170 3327 L
2481 4313 mt 2553 4313 L
2517 4277 mt 2517 4349 L
1339 3751 mt 1411 3751 L
1375 3715 mt 1375 3787 L
1267 3949 mt 1339 3949 L
1303 3913 mt 1303 3985 L
 944 4504 mt 1016 4504 L
 980 4468 mt  980 4540 L
 864 4432 mt  936 4432 L
 900 4396 mt  900 4468 L
1387 3812 mt 1459 3812 L
1423 3776 mt 1423 3848 L
2385 3665 mt 2457 3665 L
2421 3629 mt 2421 3701 L
 996 3514 mt 1068 3514 L
1032 3478 mt 1032 3550 L
1925 4603 mt 1997 4603 L
1961 4567 mt 1961 4639 L
1518 4552 mt 1590 4552 L
1554 4516 mt 1554 4588 L
1226 4401 mt 1298 4401 L
1262 4365 mt 1262 4437 L
1102 4507 mt 1174 4507 L
1138 4471 mt 1138 4543 L
1255 4420 mt 1327 4420 L
1291 4384 mt 1291 4456 L
 915 2430 mt  987 2430 L
 951 2394 mt  951 2466 L
 868 4147 mt  940 4147 L
 904 4111 mt  904 4183 L
1562 2630 mt 1634 2630 L
1598 2594 mt 1598 2666 L
1048 4600 mt 1120 4600 L
1084 4564 mt 1084 4636 L
 916 3812 mt  988 3812 L
 952 3776 mt  952 3848 L
 871 4478 mt  943 4478 L
 907 4442 mt  907 4514 L
1017 4562 mt 1089 4562 L
1053 4526 mt 1053 4598 L
1127 2110 mt 1199 2110 L
1163 2074 mt 1163 2146 L
1247 4392 mt 1319 4392 L
1283 4356 mt 1283 4428 L
1089 3123 mt 1161 3123 L
1125 3087 mt 1125 3159 L
1275 4589 mt 1347 4589 L
1311 4553 mt 1311 4625 L
1282 4612 mt 1354 4612 L
1318 4576 mt 1318 4648 L
gs 899 414 5363 4203 rc
gr

0 sg
2795 5104 mt 
(\(F,DCTb,iMLP\)) s
 422 3343 mt  -90 rotate
(\(S,LFCC,GMM\)) s
90 rotate
2975  223 mt 
(Corr = 0.02) s

end %%Color Dict

eplot
%%EndObject

epage
end

showpage

%%Trailer
%%EOF
