%!PS-Adobe-3.0 EPSF-3.0
%%Creator: MATLAB, The Mathworks, Inc. Version 7.7.0.471 (R2008b). Operating System: Microsoft Windows XP.
%%Title: Pictures\main_zoo_mvar_analysis_data_BMI_xcorr_bmi_p1_k2_8_9.eps
%%CreationDate: 10/26/2009  05:44:36
%%DocumentNeededFonts: Helvetica
%%DocumentProcessColors: Cyan Magenta Yellow Black
%%LanguageLevel: 2
%%Pages: 1
%%BoundingBox:    32   180   546   616
%%EndComments

%%BeginProlog
% MathWorks dictionary
/MathWorks 160 dict begin
% definition operators
/bdef {bind def} bind def
/ldef {load def} bind def
/xdef {exch def} bdef
/xstore {exch store} bdef
% operator abbreviations
/c  /clip ldef
/cc /concat ldef
/cp /closepath ldef
/gr /grestore ldef
/gs /gsave ldef
/mt /moveto ldef
/np /newpath ldef
/cm /currentmatrix ldef
/sm /setmatrix ldef
/rm /rmoveto ldef
/rl /rlineto ldef
/s {show newpath} bdef
/sc {setcmykcolor} bdef
/sr /setrgbcolor ldef
/sg /setgray ldef
/w /setlinewidth ldef
/j /setlinejoin ldef
/cap /setlinecap ldef
/rc {rectclip} bdef
/rf {rectfill} bdef
% page state control
/pgsv () def
/bpage {/pgsv save def} bdef
/epage {pgsv restore} bdef
/bplot /gsave ldef
/eplot {stroke grestore} bdef
% orientation switch
/portraitMode 0 def /landscapeMode 1 def /rotateMode 2 def
% coordinate system mappings
/dpi2point 0 def
% font control
/FontSize 0 def
/FMS {/FontSize xstore findfont [FontSize 0 0 FontSize neg 0 0]
  makefont setfont} bdef
/ISOLatin1Encoding where {pop /WindowsLatin1Encoding 256 array bdef
ISOLatin1Encoding WindowsLatin1Encoding copy pop
/.notdef/.notdef/quotesinglbase/florin/quotedblbase/ellipsis/dagger
/daggerdbl/circumflex/perthousand/Scaron/guilsinglleft/OE/.notdef/.notdef
/.notdef/.notdef/quoteleft/quoteright/quotedblleft/quotedblright/bullet
/endash/emdash/tilde/trademark/scaron/guilsinglright/oe/.notdef/.notdef
/Ydieresis WindowsLatin1Encoding 128 32 getinterval astore pop}
{/WindowsLatin1Encoding StandardEncoding bdef} ifelse
/reencode {exch dup where {pop load} {pop StandardEncoding} ifelse
  exch dup 3 1 roll findfont dup length dict begin
  { 1 index /FID ne {def}{pop pop} ifelse } forall
  /Encoding exch def currentdict end definefont pop} bdef
/isroman {findfont /CharStrings get /Agrave known} bdef
/FMSR {3 1 roll 1 index dup isroman {reencode} {pop pop} ifelse
  exch FMS} bdef
/csm {1 dpi2point div -1 dpi2point div scale neg translate
 dup landscapeMode eq {pop -90 rotate}
  {rotateMode eq {90 rotate} if} ifelse} bdef
% line types: solid, dotted, dashed, dotdash
/SO { [] 0 setdash } bdef
/DO { [.5 dpi2point mul 4 dpi2point mul] 0 setdash } bdef
/DA { [6 dpi2point mul] 0 setdash } bdef
/DD { [.5 dpi2point mul 4 dpi2point mul 6 dpi2point mul 4
  dpi2point mul] 0 setdash } bdef
% macros for lines and objects
/L {lineto stroke} bdef
/MP {3 1 roll moveto 1 sub {rlineto} repeat} bdef
/AP {{rlineto} repeat} bdef
/PDlw -1 def
/W {/PDlw currentlinewidth def setlinewidth} def
/PP {closepath eofill} bdef
/DP {closepath stroke} bdef
/MR {4 -2 roll moveto dup  0 exch rlineto exch 0 rlineto
  neg 0 exch rlineto closepath} bdef
/FR {MR stroke} bdef
/PR {MR fill} bdef
/L1i {{currentfile picstr readhexstring pop} image} bdef
/tMatrix matrix def
/MakeOval {newpath tMatrix currentmatrix pop translate scale
0 0 1 0 360 arc tMatrix setmatrix} bdef
/FO {MakeOval stroke} bdef
/PO {MakeOval fill} bdef
/PD {currentlinewidth 2 div 0 360 arc fill
   PDlw -1 eq not {PDlw w /PDlw -1 def} if} def
/FA {newpath tMatrix currentmatrix pop translate scale
  0 0 1 5 -2 roll arc tMatrix setmatrix stroke} bdef
/PA {newpath tMatrix currentmatrix pop	translate 0 0 moveto scale
  0 0 1 5 -2 roll arc closepath tMatrix setmatrix fill} bdef
/FAn {newpath tMatrix currentmatrix pop translate scale
  0 0 1 5 -2 roll arcn tMatrix setmatrix stroke} bdef
/PAn {newpath tMatrix currentmatrix pop translate 0 0 moveto scale
  0 0 1 5 -2 roll arcn closepath tMatrix setmatrix fill} bdef
/vradius 0 def /hradius 0 def /lry 0 def
/lrx 0 def /uly 0 def /ulx 0 def /rad 0 def
/MRR {/vradius xdef /hradius xdef /lry xdef /lrx xdef /uly xdef
  /ulx xdef newpath tMatrix currentmatrix pop ulx hradius add uly
  vradius add translate hradius vradius scale 0 0 1 180 270 arc 
  tMatrix setmatrix lrx hradius sub uly vradius add translate
  hradius vradius scale 0 0 1 270 360 arc tMatrix setmatrix
  lrx hradius sub lry vradius sub translate hradius vradius scale
  0 0 1 0 90 arc tMatrix setmatrix ulx hradius add lry vradius sub
  translate hradius vradius scale 0 0 1 90 180 arc tMatrix setmatrix
  closepath} bdef
/FRR {MRR stroke } bdef
/PRR {MRR fill } bdef
/MlrRR {/lry xdef /lrx xdef /uly xdef /ulx xdef /rad lry uly sub 2 div def
  newpath tMatrix currentmatrix pop ulx rad add uly rad add translate
  rad rad scale 0 0 1 90 270 arc tMatrix setmatrix lrx rad sub lry rad
  sub translate rad rad scale 0 0 1 270 90 arc tMatrix setmatrix
  closepath} bdef
/FlrRR {MlrRR stroke } bdef
/PlrRR {MlrRR fill } bdef
/MtbRR {/lry xdef /lrx xdef /uly xdef /ulx xdef /rad lrx ulx sub 2 div def
  newpath tMatrix currentmatrix pop ulx rad add uly rad add translate
  rad rad scale 0 0 1 180 360 arc tMatrix setmatrix lrx rad sub lry rad
  sub translate rad rad scale 0 0 1 0 180 arc tMatrix setmatrix
  closepath} bdef
/FtbRR {MtbRR stroke } bdef
/PtbRR {MtbRR fill } bdef
/stri 6 array def /dtri 6 array def
/smat 6 array def /dmat 6 array def
/tmat1 6 array def /tmat2 6 array def /dif 3 array def
/asub {/ind2 exch def /ind1 exch def dup dup
  ind1 get exch ind2 get sub exch } bdef
/tri_to_matrix {
  2 0 asub 3 1 asub 4 0 asub 5 1 asub
  dup 0 get exch 1 get 7 -1 roll astore } bdef
/compute_transform {
  dmat dtri tri_to_matrix tmat1 invertmatrix 
  smat stri tri_to_matrix tmat2 concatmatrix } bdef
/ds {stri astore pop} bdef
/dt {dtri astore pop} bdef
/db {2 copy /cols xdef /rows xdef mul dup 3 mul string
  currentfile 
  3 index 0 eq {/ASCIIHexDecode filter}
  {/ASCII85Decode filter 3 index 2 eq {/RunLengthDecode filter} if }
  ifelse exch readstring pop
  dup 0 3 index getinterval /rbmap xdef
  dup 2 index dup getinterval /gbmap xdef
  1 index dup 2 mul exch getinterval /bbmap xdef pop pop}bdef
/it {gs np dtri aload pop moveto lineto lineto cp c
  cols rows 8 compute_transform 
  rbmap gbmap bbmap true 3 colorimage gr}bdef
/il {newpath moveto lineto stroke}bdef
currentdict end def
%%EndProlog

%%BeginSetup
MathWorks begin

0 cap

end
%%EndSetup

%%Page: 1 1
%%BeginPageSetup
%%PageBoundingBox:    32   180   546   616
MathWorks begin
bpage
%%EndPageSetup

%%BeginObject: obj1
bplot

/dpi2point 12 def
portraitMode 0216 7344 csm

  174   -48  6173  5231 rc
85 dict begin %Colortable dictionary
/c0 { 0.000000 0.000000 0.000000 sr} bdef
/c1 { 1.000000 1.000000 1.000000 sr} bdef
/c2 { 0.900000 0.000000 0.000000 sr} bdef
/c3 { 0.000000 0.820000 0.000000 sr} bdef
/c4 { 0.000000 0.000000 0.800000 sr} bdef
/c5 { 0.910000 0.820000 0.320000 sr} bdef
/c6 { 1.000000 0.260000 0.820000 sr} bdef
/c7 { 0.000000 0.820000 0.820000 sr} bdef
c0
1 j
1 sg
   0    0 6919 5187 rf
6 w
0 4202 5362 0 0 -4202 899 4616 4 MP
PP
-5362 0 0 4202 5362 0 0 -4202 899 4616 5 MP stroke
4 w
DO
SO
6 w
0 sg
 899  414 mt 6261  414 L
 899 4616 mt 6261 4616 L
6261 4616 mt 6261  414 L
 899 4616 mt  899  414 L
 899 4616 mt 6261 4616 L
 899 4616 mt  899  414 L
1971 4616 mt 1971 4562 L
1971  415 mt 1971  468 L
%%IncludeResource: font Helvetica
/Helvetica /WindowsLatin1Encoding 240 FMSR

1805 4873 mt 
(0.2) s
3043 4616 mt 3043 4562 L
3043  415 mt 3043  468 L
2877 4873 mt 
(0.4) s
4116 4616 mt 4116 4562 L
4116  415 mt 4116  468 L
3950 4873 mt 
(0.6) s
5188 4616 mt 5188 4562 L
5188  415 mt 5188  468 L
5022 4873 mt 
(0.8) s
 899 4195 mt  952 4195 L
6261 4195 mt 6207 4195 L
 531 4284 mt 
(0.1) s
 899 3775 mt  952 3775 L
6261 3775 mt 6207 3775 L
 531 3864 mt 
(0.2) s
 899 3355 mt  952 3355 L
6261 3355 mt 6207 3355 L
 531 3444 mt 
(0.3) s
 899 2935 mt  952 2935 L
6261 2935 mt 6207 2935 L
 531 3024 mt 
(0.4) s
 899 2515 mt  952 2515 L
6261 2515 mt 6207 2515 L
 531 2604 mt 
(0.5) s
 899 2095 mt  952 2095 L
6261 2095 mt 6207 2095 L
 531 2184 mt 
(0.6) s
 899 1675 mt  952 1675 L
6261 1675 mt 6207 1675 L
 531 1764 mt 
(0.7) s
 899 1255 mt  952 1255 L
6261 1255 mt 6207 1255 L
 531 1344 mt 
(0.8) s
 899  834 mt  952  834 L
6261  834 mt 6207  834 L
 531  923 mt 
(0.9) s
 899  414 mt 6261  414 L
 899 4616 mt 6261 4616 L
6261 4616 mt 6261  414 L
 899 4616 mt  899  414 L
gs 899 414 5363 4203 rc
gr

/c8 { 0.000000 0.000000 1.000000 sr} bdef
c8
6205  523 mt 6277  523 L
6241  487 mt 6241  559 L
5809  606 mt 5881  606 L
5845  570 mt 5845  642 L
5817 1448 mt 5889 1448 L
5853 1412 mt 5853 1484 L
3757 3345 mt 3829 3345 L
3793 3309 mt 3793 3381 L
6137  556 mt 6209  556 L
6173  520 mt 6173  592 L
6126  675 mt 6198  675 L
6162  639 mt 6162  711 L
1398 4574 mt 1470 4574 L
1434 4538 mt 1434 4610 L
5292 1083 mt 5364 1083 L
5328 1047 mt 5328 1119 L
5294  558 mt 5366  558 L
5330  522 mt 5330  594 L
6189  781 mt 6261  781 L
6225  745 mt 6225  817 L
4482  765 mt 4554  765 L
4518  729 mt 4518  801 L
5365  740 mt 5437  740 L
5401  704 mt 5401  776 L
3505 1212 mt 3577 1212 L
3541 1176 mt 3541 1248 L
6126 1194 mt 6198 1194 L
6162 1158 mt 6162 1230 L
2434  719 mt 2506  719 L
2470  683 mt 2470  755 L
3005 1081 mt 3077 1081 L
3041 1045 mt 3041 1117 L
5954 4465 mt 6026 4465 L
5990 4429 mt 5990 4501 L
 865 1328 mt  937 1328 L
 901 1292 mt  901 1364 L
4526 1385 mt 4598 1385 L
4562 1349 mt 4562 1421 L
4749 1593 mt 4821 1593 L
4785 1557 mt 4785 1629 L
5105 3608 mt 5177 3608 L
5141 3572 mt 5141 3644 L
5028 4589 mt 5100 4589 L
5064 4553 mt 5064 4625 L
5750  880 mt 5822  880 L
5786  844 mt 5786  916 L
3267 1193 mt 3339 1193 L
3303 1157 mt 3303 1229 L
1360 2547 mt 1432 2547 L
1396 2511 mt 1396 2583 L
4953  736 mt 5025  736 L
4989  700 mt 4989  772 L
4698 2887 mt 4770 2887 L
4734 2851 mt 4734 2923 L
4466 4081 mt 4538 4081 L
4502 4045 mt 4502 4117 L
6034  487 mt 6106  487 L
6070  451 mt 6070  523 L
5530  635 mt 5602  635 L
5566  599 mt 5566  671 L
4337 1585 mt 4409 1585 L
4373 1549 mt 4373 1621 L
5728  519 mt 5800  519 L
5764  483 mt 5764  555 L
4790  792 mt 4862  792 L
4826  756 mt 4826  828 L
1440 3518 mt 1512 3518 L
1476 3482 mt 1476 3554 L
5810  638 mt 5882  638 L
5846  602 mt 5846  674 L
6121  699 mt 6193  699 L
6157  663 mt 6157  735 L
5828 1623 mt 5900 1623 L
5864 1587 mt 5864 1659 L
 939 1263 mt 1011 1263 L
 975 1227 mt  975 1299 L
5429 1354 mt 5501 1354 L
5465 1318 mt 5465 1390 L
5762 1667 mt 5834 1667 L
5798 1631 mt 5798 1703 L
5432  881 mt 5504  881 L
5468  845 mt 5468  917 L
6066  452 mt 6138  452 L
6102  416 mt 6102  488 L
5165  776 mt 5237  776 L
5201  740 mt 5201  812 L
4898 4054 mt 4970 4054 L
4934 4018 mt 4934 4090 L
1271 4410 mt 1343 4410 L
1307 4374 mt 1307 4446 L
1133 4584 mt 1205 4584 L
1169 4548 mt 1169 4620 L
4687  746 mt 4759  746 L
4723  710 mt 4723  782 L
4478 4212 mt 4550 4212 L
4514 4176 mt 4514 4248 L
2878 2356 mt 2950 2356 L
2914 2320 mt 2914 2392 L
1023 2807 mt 1095 2807 L
1059 2771 mt 1059 2843 L
3538 4424 mt 3610 4424 L
3574 4388 mt 3574 4460 L
6146  459 mt 6218  459 L
6182  423 mt 6182  495 L
3230 1020 mt 3302 1020 L
3266  984 mt 3266 1056 L
5760 2100 mt 5832 2100 L
5796 2064 mt 5796 2136 L
4618  420 mt 4690  420 L
4654  384 mt 4654  456 L
4484 1363 mt 4556 1363 L
4520 1327 mt 4520 1399 L
1476  618 mt 1548  618 L
1512  582 mt 1512  654 L
5859  511 mt 5931  511 L
5895  475 mt 5895  547 L
3951  893 mt 4023  893 L
3987  857 mt 3987  929 L
4612 1115 mt 4684 1115 L
4648 1079 mt 4648 1151 L
1608 4588 mt 1680 4588 L
1644 4552 mt 1644 4624 L
1203  545 mt 1275  545 L
1239  509 mt 1239  581 L
5831 4380 mt 5903 4380 L
5867 4344 mt 5867 4416 L
4464 1255 mt 4536 1255 L
4500 1219 mt 4500 1291 L
6220  612 mt 6292  612 L
6256  576 mt 6256  648 L
2150 1038 mt 2222 1038 L
2186 1002 mt 2186 1074 L
4373  565 mt 4445  565 L
4409  529 mt 4409  601 L
2694 1553 mt 2766 1553 L
2730 1517 mt 2730 1589 L
5720  642 mt 5792  642 L
5756  606 mt 5756  678 L
5718  807 mt 5790  807 L
5754  771 mt 5754  843 L
5530 3861 mt 5602 3861 L
5566 3825 mt 5566 3897 L
5904 2490 mt 5976 2490 L
5940 2454 mt 5940 2526 L
2358 3983 mt 2430 3983 L
2394 3947 mt 2394 4019 L
6214  474 mt 6286  474 L
6250  438 mt 6250  510 L
5927  647 mt 5999  647 L
5963  611 mt 5963  683 L
3308 4348 mt 3380 4348 L
3344 4312 mt 3344 4384 L
5452 1820 mt 5524 1820 L
5488 1784 mt 5488 1856 L
5270 1075 mt 5342 1075 L
5306 1039 mt 5306 1111 L
5999  629 mt 6071  629 L
6035  593 mt 6035  665 L
4661 2837 mt 4733 2837 L
4697 2801 mt 4697 2873 L
6177  468 mt 6249  468 L
6213  432 mt 6213  504 L
4990 1382 mt 5062 1382 L
5026 1346 mt 5026 1418 L
3617 3072 mt 3689 3072 L
3653 3036 mt 3653 3108 L
5360  423 mt 5432  423 L
5396  387 mt 5396  459 L
2255  954 mt 2327  954 L
2291  918 mt 2291  990 L
1898 1705 mt 1970 1705 L
1934 1669 mt 1934 1741 L
6137  622 mt 6209  622 L
6173  586 mt 6173  658 L
 930  727 mt 1002  727 L
 966  691 mt  966  763 L
5157 4464 mt 5229 4464 L
5193 4428 mt 5193 4500 L
6222 1701 mt 6294 1701 L
6258 1665 mt 6258 1737 L
3617 1019 mt 3689 1019 L
3653  983 mt 3653 1055 L
2330  564 mt 2402  564 L
2366  528 mt 2366  600 L
5913  787 mt 5985  787 L
5949  751 mt 5949  823 L
4046 2283 mt 4118 2283 L
4082 2247 mt 4082 2319 L
1676 3702 mt 1748 3702 L
1712 3666 mt 1712 3738 L
1509 4574 mt 1581 4574 L
1545 4538 mt 1545 4610 L
3569 3343 mt 3641 3343 L
3605 3307 mt 3605 3379 L
6112  457 mt 6184  457 L
6148  421 mt 6148  493 L
 887 1962 mt  959 1962 L
 923 1926 mt  923 1998 L
3893  468 mt 3965  468 L
3929  432 mt 3929  504 L
5798  767 mt 5870  767 L
5834  731 mt 5834  803 L
4237 1206 mt 4309 1206 L
4273 1170 mt 4273 1242 L
1703 2575 mt 1775 2575 L
1739 2539 mt 1739 2611 L
2174 4466 mt 2246 4466 L
2210 4430 mt 2210 4502 L
1592 1809 mt 1664 1809 L
1628 1773 mt 1628 1845 L
5439  482 mt 5511  482 L
5475  446 mt 5475  518 L
2822  926 mt 2894  926 L
2858  890 mt 2858  962 L
4230  772 mt 4302  772 L
4266  736 mt 4266  808 L
4746 1911 mt 4818 1911 L
4782 1875 mt 4782 1947 L
5445  760 mt 5517  760 L
5481  724 mt 5481  796 L
4986  885 mt 5058  885 L
5022  849 mt 5022  921 L
3211  430 mt 3283  430 L
3247  394 mt 3247  466 L
2827 1822 mt 2899 1822 L
2863 1786 mt 2863 1858 L
 863  864 mt  935  864 L
 899  828 mt  899  900 L
3490 3089 mt 3562 3089 L
3526 3053 mt 3526 3125 L
4156 2853 mt 4228 2853 L
4192 2817 mt 4192 2889 L
6043  545 mt 6115  545 L
6079  509 mt 6079  581 L
 988 3947 mt 1060 3947 L
1024 3911 mt 1024 3983 L
1572 1176 mt 1644 1176 L
1608 1140 mt 1608 1212 L
 871 1707 mt  943 1707 L
 907 1671 mt  907 1743 L
4916 1062 mt 4988 1062 L
4952 1026 mt 4952 1098 L
6002  452 mt 6074  452 L
6038  416 mt 6038  488 L
4935  660 mt 5007  660 L
4971  624 mt 4971  696 L
1731 1017 mt 1803 1017 L
1767  981 mt 1767 1053 L
5964  560 mt 6036  560 L
6000  524 mt 6000  596 L
6097 1143 mt 6169 1143 L
6133 1107 mt 6133 1179 L
 906 3151 mt  978 3151 L
 942 3115 mt  942 3187 L
3585 1077 mt 3657 1077 L
3621 1041 mt 3621 1113 L
5999  894 mt 6071  894 L
6035  858 mt 6035  930 L
1916  705 mt 1988  705 L
1952  669 mt 1952  741 L
2044 1038 mt 2116 1038 L
2080 1002 mt 2080 1074 L
3185 2084 mt 3257 2084 L
3221 2048 mt 3221 2120 L
4285 3609 mt 4357 3609 L
4321 3573 mt 4321 3645 L
4450 1312 mt 4522 1312 L
4486 1276 mt 4486 1348 L
3736 1076 mt 3808 1076 L
3772 1040 mt 3772 1112 L
2407  600 mt 2479  600 L
2443  564 mt 2443  636 L
3994 4610 mt 4066 4610 L
4030 4574 mt 4030 4646 L
5921  569 mt 5993  569 L
5957  533 mt 5957  605 L
2878  591 mt 2950  591 L
2914  555 mt 2914  627 L
1705 2452 mt 1777 2452 L
1741 2416 mt 1741 2488 L
2182 1915 mt 2254 1915 L
2218 1879 mt 2218 1951 L
5128  547 mt 5200  547 L
5164  511 mt 5164  583 L
1872 3880 mt 1944 3880 L
1908 3844 mt 1908 3916 L
3501  720 mt 3573  720 L
3537  684 mt 3537  756 L
6069 1602 mt 6141 1602 L
6105 1566 mt 6105 1638 L
4742 1104 mt 4814 1104 L
4778 1068 mt 4778 1140 L
4973  938 mt 5045  938 L
5009  902 mt 5009  974 L
6184  490 mt 6256  490 L
6220  454 mt 6220  526 L
 909  612 mt  981  612 L
 945  576 mt  945  648 L
5911  645 mt 5983  645 L
5947  609 mt 5947  681 L
4593  931 mt 4665  931 L
4629  895 mt 4629  967 L
1150  672 mt 1222  672 L
1186  636 mt 1186  708 L
3423  639 mt 3495  639 L
3459  603 mt 3459  675 L
5180 1428 mt 5252 1428 L
5216 1392 mt 5216 1464 L
3464 1776 mt 3536 1776 L
3500 1740 mt 3500 1812 L
1250 1999 mt 1322 1999 L
1286 1963 mt 1286 2035 L
6083 1763 mt 6155 1763 L
6119 1727 mt 6119 1799 L
2409 3297 mt 2481 3297 L
2445 3261 mt 2445 3333 L
5965 2445 mt 6037 2445 L
6001 2409 mt 6001 2481 L
1362 3001 mt 1434 3001 L
1398 2965 mt 1398 3037 L
2796 2108 mt 2868 2108 L
2832 2072 mt 2832 2144 L
 923 2145 mt  995 2145 L
 959 2109 mt  959 2181 L
4524  857 mt 4596  857 L
4560  821 mt 4560  893 L
5036  825 mt 5108  825 L
5072  789 mt 5072  861 L
3318  485 mt 3390  485 L
3354  449 mt 3354  521 L
2319  569 mt 2391  569 L
2355  533 mt 2355  605 L
3798 2147 mt 3870 2147 L
3834 2111 mt 3834 2183 L
 863 1507 mt  935 1507 L
 899 1471 mt  899 1543 L
3620  463 mt 3692  463 L
3656  427 mt 3656  499 L
5076  864 mt 5148  864 L
5112  828 mt 5112  900 L
5415  417 mt 5487  417 L
5451  381 mt 5451  453 L
5892  468 mt 5964  468 L
5928  432 mt 5928  504 L
1560  823 mt 1632  823 L
1596  787 mt 1596  859 L
5032  670 mt 5104  670 L
5068  634 mt 5068  706 L
1532 4464 mt 1604 4464 L
1568 4428 mt 1568 4500 L
5648  486 mt 5720  486 L
5684  450 mt 5684  522 L
4707  516 mt 4779  516 L
4743  480 mt 4743  552 L
2600  614 mt 2672  614 L
2636  578 mt 2636  650 L
5573 1692 mt 5645 1692 L
5609 1656 mt 5609 1728 L
5928  473 mt 6000  473 L
5964  437 mt 5964  509 L
2298 1287 mt 2370 1287 L
2334 1251 mt 2334 1323 L
2078 2560 mt 2150 2560 L
2114 2524 mt 2114 2596 L
6103  444 mt 6175  444 L
6139  408 mt 6139  480 L
5677 3377 mt 5749 3377 L
5713 3341 mt 5713 3413 L
1238 3732 mt 1310 3732 L
1274 3696 mt 1274 3768 L
5966  433 mt 6038  433 L
6002  397 mt 6002  469 L
4921 1325 mt 4993 1325 L
4957 1289 mt 4957 1361 L
6049 1042 mt 6121 1042 L
6085 1006 mt 6085 1078 L
 910  461 mt  982  461 L
 946  425 mt  946  497 L
6177  884 mt 6249  884 L
6213  848 mt 6213  920 L
6148 1579 mt 6220 1579 L
6184 1543 mt 6184 1615 L
3326 2342 mt 3398 2342 L
3362 2306 mt 3362 2378 L
5153  772 mt 5225  772 L
5189  736 mt 5189  808 L
5828  490 mt 5900  490 L
5864  454 mt 5864  526 L
6133  420 mt 6205  420 L
6169  384 mt 6169  456 L
5900  640 mt 5972  640 L
5936  604 mt 5936  676 L
1932 4436 mt 2004 4436 L
1968 4400 mt 1968 4472 L
4693  532 mt 4765  532 L
4729  496 mt 4729  568 L
1229 2123 mt 1301 2123 L
1265 2087 mt 1265 2159 L
5541  685 mt 5613  685 L
5577  649 mt 5577  721 L
6219  576 mt 6291  576 L
6255  540 mt 6255  612 L
6060  524 mt 6132  524 L
6096  488 mt 6096  560 L
5631 2739 mt 5703 2739 L
5667 2703 mt 5667 2775 L
1618 1737 mt 1690 1737 L
1654 1701 mt 1654 1773 L
5804  591 mt 5876  591 L
5840  555 mt 5840  627 L
4513 1413 mt 4585 1413 L
4549 1377 mt 4549 1449 L
1954 4374 mt 2026 4374 L
1990 4338 mt 1990 4410 L
5806 1908 mt 5878 1908 L
5842 1872 mt 5842 1944 L
5896  414 mt 5968  414 L
5932  378 mt 5932  450 L
1326 4108 mt 1398 4108 L
1362 4072 mt 1362 4144 L
6214  420 mt 6286  420 L
6250  384 mt 6250  456 L
5251 1887 mt 5323 1887 L
5287 1851 mt 5287 1923 L
5909  565 mt 5981  565 L
5945  529 mt 5945  601 L
2092 4574 mt 2164 4574 L
2128 4538 mt 2128 4610 L
4879  428 mt 4951  428 L
4915  392 mt 4915  464 L
5924  845 mt 5996  845 L
5960  809 mt 5960  881 L
5987 2805 mt 6059 2805 L
6023 2769 mt 6023 2841 L
5219 4355 mt 5291 4355 L
5255 4319 mt 5255 4391 L
4624  448 mt 4696  448 L
4660  412 mt 4660  484 L
4078 2491 mt 4150 2491 L
4114 2455 mt 4114 2527 L
2632  439 mt 2704  439 L
2668  403 mt 2668  475 L
2131 1156 mt 2203 1156 L
2167 1120 mt 2167 1192 L
3290 1231 mt 3362 1231 L
3326 1195 mt 3326 1267 L
 947 3690 mt 1019 3690 L
 983 3654 mt  983 3726 L
4031 3998 mt 4103 3998 L
4067 3962 mt 4067 4034 L
4899 1108 mt 4971 1108 L
4935 1072 mt 4935 1144 L
1643  648 mt 1715  648 L
1679  612 mt 1679  684 L
3878 1133 mt 3950 1133 L
3914 1097 mt 3914 1169 L
6212  567 mt 6284  567 L
6248  531 mt 6248  603 L
6196 1196 mt 6268 1196 L
6232 1160 mt 6232 1232 L
 863 3858 mt  935 3858 L
 899 3822 mt  899 3894 L
1062 3740 mt 1134 3740 L
1098 3704 mt 1098 3776 L
 869 1661 mt  941 1661 L
 905 1625 mt  905 1697 L
5586  920 mt 5658  920 L
5622  884 mt 5622  956 L
6185  440 mt 6257  440 L
6221  404 mt 6221  476 L
 867 3972 mt  939 3972 L
 903 3936 mt  903 4008 L
1792 3737 mt 1864 3737 L
1828 3701 mt 1828 3773 L
5597 2672 mt 5669 2672 L
5633 2636 mt 5633 2708 L
4123 1651 mt 4195 1651 L
4159 1615 mt 4159 1687 L
5304  691 mt 5376  691 L
5340  655 mt 5340  727 L
3087 4599 mt 3159 4599 L
3123 4563 mt 3123 4635 L
3573  744 mt 3645  744 L
3609  708 mt 3609  780 L
5798 1531 mt 5870 1531 L
5834 1495 mt 5834 1567 L
4047 2629 mt 4119 2629 L
4083 2593 mt 4083 2665 L
5546 1989 mt 5618 1989 L
5582 1953 mt 5582 2025 L
3131 3116 mt 3203 3116 L
3167 3080 mt 3167 3152 L
5476  484 mt 5548  484 L
5512  448 mt 5512  520 L
5919 2102 mt 5991 2102 L
5955 2066 mt 5955 2138 L
5238 2081 mt 5310 2081 L
5274 2045 mt 5274 2117 L
3322 4347 mt 3394 4347 L
3358 4311 mt 3358 4383 L
2295 4449 mt 2367 4449 L
2331 4413 mt 2331 4485 L
6085  819 mt 6157  819 L
6121  783 mt 6121  855 L
6219 1269 mt 6291 1269 L
6255 1233 mt 6255 1305 L
 866 3663 mt  938 3663 L
 902 3627 mt  902 3699 L
4002  588 mt 4074  588 L
4038  552 mt 4038  624 L
1094 4086 mt 1166 4086 L
1130 4050 mt 1130 4122 L
5534 2336 mt 5606 2336 L
5570 2300 mt 5570 2372 L
4264  453 mt 4336  453 L
4300  417 mt 4300  489 L
6189  430 mt 6261  430 L
6225  394 mt 6225  466 L
5794 1006 mt 5866 1006 L
5830  970 mt 5830 1042 L
1554 1973 mt 1626 1973 L
1590 1937 mt 1590 2009 L
1511 1336 mt 1583 1336 L
1547 1300 mt 1547 1372 L
 899 1600 mt  971 1600 L
 935 1564 mt  935 1636 L
 963 3684 mt 1035 3684 L
 999 3648 mt  999 3720 L
5976 1652 mt 6048 1652 L
6012 1616 mt 6012 1688 L
4680 1120 mt 4752 1120 L
4716 1084 mt 4716 1156 L
1799 1693 mt 1871 1693 L
1835 1657 mt 1835 1729 L
6221  433 mt 6293  433 L
6257  397 mt 6257  469 L
5312  480 mt 5384  480 L
5348  444 mt 5348  516 L
5047 2347 mt 5119 2347 L
5083 2311 mt 5083 2383 L
3819  711 mt 3891  711 L
3855  675 mt 3855  747 L
6161 1029 mt 6233 1029 L
6197  993 mt 6197 1065 L
2021 4152 mt 2093 4152 L
2057 4116 mt 2057 4188 L
2277  495 mt 2349  495 L
2313  459 mt 2313  531 L
6120  438 mt 6192  438 L
6156  402 mt 6156  474 L
6172 4534 mt 6244 4534 L
6208 4498 mt 6208 4570 L
6052 1120 mt 6124 1120 L
6088 1084 mt 6088 1156 L
2880 1118 mt 2952 1118 L
2916 1082 mt 2916 1154 L
5002  683 mt 5074  683 L
5038  647 mt 5038  719 L
5887  417 mt 5959  417 L
5923  381 mt 5923  453 L
3946 2915 mt 4018 2915 L
3982 2879 mt 3982 2951 L
6177  681 mt 6249  681 L
6213  645 mt 6213  717 L
1786 4606 mt 1858 4606 L
1822 4570 mt 1822 4642 L
3858 1022 mt 3930 1022 L
3894  986 mt 3894 1058 L
1191 4230 mt 1263 4230 L
1227 4194 mt 1227 4266 L
6219  415 mt 6291  415 L
6255  379 mt 6255  451 L
4360  686 mt 4432  686 L
4396  650 mt 4396  722 L
 877 1885 mt  949 1885 L
 913 1849 mt  913 1921 L
3986 3919 mt 4058 3919 L
4022 3883 mt 4022 3955 L
6225 4299 mt 6297 4299 L
6261 4263 mt 6261 4335 L
 956 3021 mt 1028 3021 L
 992 2985 mt  992 3057 L
1733 1278 mt 1805 1278 L
1769 1242 mt 1769 1314 L
5557  695 mt 5629  695 L
5593  659 mt 5593  731 L
1265 4580 mt 1337 4580 L
1301 4544 mt 1301 4616 L
1359  866 mt 1431  866 L
1395  830 mt 1395  902 L
2079 4603 mt 2151 4603 L
2115 4567 mt 2115 4639 L
3024 3131 mt 3096 3131 L
3060 3095 mt 3060 3167 L
5656  460 mt 5728  460 L
5692  424 mt 5692  496 L
6034 1878 mt 6106 1878 L
6070 1842 mt 6070 1914 L
2948 1428 mt 3020 1428 L
2984 1392 mt 2984 1464 L
4995  629 mt 5067  629 L
5031  593 mt 5031  665 L
6167 2749 mt 6239 2749 L
6203 2713 mt 6203 2785 L
4165  820 mt 4237  820 L
4201  784 mt 4201  856 L
1708 3397 mt 1780 3397 L
1744 3361 mt 1744 3433 L
4675 1432 mt 4747 1432 L
4711 1396 mt 4711 1468 L
2324 4616 mt 2396 4616 L
2360 4580 mt 2360 4652 L
1522  430 mt 1594  430 L
1558  394 mt 1558  466 L
1784 3264 mt 1856 3264 L
1820 3228 mt 1820 3300 L
2552 4182 mt 2624 4182 L
2588 4146 mt 2588 4218 L
 945 2737 mt 1017 2737 L
 981 2701 mt  981 2773 L
5294  745 mt 5366  745 L
5330  709 mt 5330  781 L
1693 3745 mt 1765 3745 L
1729 3709 mt 1729 3781 L
2173  514 mt 2245  514 L
2209  478 mt 2209  550 L
5536 4229 mt 5608 4229 L
5572 4193 mt 5572 4265 L
5300 4614 mt 5372 4614 L
5336 4578 mt 5336 4650 L
 872 2935 mt  944 2935 L
 908 2899 mt  908 2971 L
5604 1547 mt 5676 1547 L
5640 1511 mt 5640 1583 L
2407 3977 mt 2479 3977 L
2443 3941 mt 2443 4013 L
 936 1076 mt 1008 1076 L
 972 1040 mt  972 1112 L
5604  458 mt 5676  458 L
5640  422 mt 5640  494 L
5667  670 mt 5739  670 L
5703  634 mt 5703  706 L
 867 3632 mt  939 3632 L
 903 3596 mt  903 3668 L
1349  646 mt 1421  646 L
1385  610 mt 1385  682 L
6171 2921 mt 6243 2921 L
6207 2885 mt 6207 2957 L
3843  415 mt 3915  415 L
3879  379 mt 3879  451 L
5949  556 mt 6021  556 L
5985  520 mt 5985  592 L
3275 3911 mt 3347 3911 L
3311 3875 mt 3311 3947 L
 902 2960 mt  974 2960 L
 938 2924 mt  938 2996 L
 894  936 mt  966  936 L
 930  900 mt  930  972 L
2293 4308 mt 2365 4308 L
2329 4272 mt 2329 4344 L
5742  427 mt 5814  427 L
5778  391 mt 5778  463 L
2998 2409 mt 3070 2409 L
3034 2373 mt 3034 2445 L
6152 1421 mt 6224 1421 L
6188 1385 mt 6188 1457 L
3381 1130 mt 3453 1130 L
3417 1094 mt 3417 1166 L
 995  503 mt 1067  503 L
1031  467 mt 1031  539 L
 893 1400 mt  965 1400 L
 929 1364 mt  929 1436 L
1160 3081 mt 1232 3081 L
1196 3045 mt 1196 3117 L
5892 1993 mt 5964 1993 L
5928 1957 mt 5928 2029 L
2515 2046 mt 2587 2046 L
2551 2010 mt 2551 2082 L
5704 3301 mt 5776 3301 L
5740 3265 mt 5740 3337 L
2800  977 mt 2872  977 L
2836  941 mt 2836 1013 L
4081 2122 mt 4153 2122 L
4117 2086 mt 4117 2158 L
6201 4035 mt 6273 4035 L
6237 3999 mt 6237 4071 L
1093 3778 mt 1165 3778 L
1129 3742 mt 1129 3814 L
4622 3426 mt 4694 3426 L
4658 3390 mt 4658 3462 L
3114 1493 mt 3186 1493 L
3150 1457 mt 3150 1529 L
5968  526 mt 6040  526 L
6004  490 mt 6004  562 L
6199  458 mt 6271  458 L
6235  422 mt 6235  494 L
 978  731 mt 1050  731 L
1014  695 mt 1014  767 L
1862 2720 mt 1934 2720 L
1898 2684 mt 1898 2756 L
5530  705 mt 5602  705 L
5566  669 mt 5566  741 L
1805 4316 mt 1877 4316 L
1841 4280 mt 1841 4352 L
4843  459 mt 4915  459 L
4879  423 mt 4879  495 L
5878 4615 mt 5950 4615 L
5914 4579 mt 5914 4651 L
6224  415 mt 6296  415 L
6260  379 mt 6260  451 L
2171  416 mt 2243  416 L
2207  380 mt 2207  452 L
1037  848 mt 1109  848 L
1073  812 mt 1073  884 L
2804 4564 mt 2876 4564 L
2840 4528 mt 2840 4600 L
1360 4061 mt 1432 4061 L
1396 4025 mt 1396 4097 L
 973 3733 mt 1045 3733 L
1009 3697 mt 1009 3769 L
5968 4568 mt 6040 4568 L
6004 4532 mt 6004 4604 L
4084 1092 mt 4156 1092 L
4120 1056 mt 4120 1128 L
5077 2645 mt 5149 2645 L
5113 2609 mt 5113 2681 L
6100  434 mt 6172  434 L
6136  398 mt 6136  470 L
1374 2241 mt 1446 2241 L
1410 2205 mt 1410 2277 L
1098 4615 mt 1170 4615 L
1134 4579 mt 1134 4651 L
3989 4497 mt 4061 4497 L
4025 4461 mt 4025 4533 L
2482 2252 mt 2554 2252 L
2518 2216 mt 2518 2288 L
6210  615 mt 6282  615 L
6246  579 mt 6246  651 L
5892 1722 mt 5964 1722 L
5928 1686 mt 5928 1758 L
1510 3872 mt 1582 3872 L
1546 3836 mt 1546 3908 L
4495 1348 mt 4567 1348 L
4531 1312 mt 4531 1384 L
2987 3058 mt 3059 3058 L
3023 3022 mt 3023 3094 L
6153  671 mt 6225  671 L
6189  635 mt 6189  707 L
4778 4084 mt 4850 4084 L
4814 4048 mt 4814 4120 L
6153  579 mt 6225  579 L
6189  543 mt 6189  615 L
2210 4389 mt 2282 4389 L
2246 4353 mt 2246 4425 L
3751 4076 mt 3823 4076 L
3787 4040 mt 3787 4112 L
3120 4557 mt 3192 4557 L
3156 4521 mt 3156 4593 L
3699 4214 mt 3771 4214 L
3735 4178 mt 3735 4250 L
3534 4146 mt 3606 4146 L
3570 4110 mt 3570 4182 L
4443 2571 mt 4515 2571 L
4479 2535 mt 4479 2607 L
4658 1512 mt 4730 1512 L
4694 1476 mt 4694 1548 L
3952  601 mt 4024  601 L
3988  565 mt 3988  637 L
3919 3195 mt 3991 3195 L
3955 3159 mt 3955 3231 L
1649 1359 mt 1721 1359 L
1685 1323 mt 1685 1395 L
1743 2592 mt 1815 2592 L
1779 2556 mt 1779 2628 L
1145 3395 mt 1217 3395 L
1181 3359 mt 1181 3431 L
2743 3340 mt 2815 3340 L
2779 3304 mt 2779 3376 L
6059  818 mt 6131  818 L
6095  782 mt 6095  854 L
4570 1342 mt 4642 1342 L
4606 1306 mt 4606 1378 L
 875 1701 mt  947 1701 L
 911 1665 mt  911 1737 L
3339 2186 mt 3411 2186 L
3375 2150 mt 3375 2222 L
6221  760 mt 6293  760 L
6257  724 mt 6257  796 L
2123  617 mt 2195  617 L
2159  581 mt 2159  653 L
6223  555 mt 6295  555 L
6259  519 mt 6259  591 L
3738 4309 mt 3810 4309 L
3774 4273 mt 3774 4345 L
6101  423 mt 6173  423 L
6137  387 mt 6137  459 L
2815 2429 mt 2887 2429 L
2851 2393 mt 2851 2465 L
6055 1076 mt 6127 1076 L
6091 1040 mt 6091 1112 L
gs 899 414 5363 4203 rc
gr

0 sg
2836 5104 mt 
(\(S,PAC,GMM\)) s
 422 3277 mt  -90 rotate
(\(S,SSC,GMM\)) s
90 rotate
2975  223 mt 
(Corr = 0.38) s

end %%Color Dict

eplot
%%EndObject

epage
end

showpage

%%Trailer
%%EOF
