%!PS-Adobe-3.0 EPSF-3.0
%%Creator: MATLAB, The Mathworks, Inc.
%%Title: Pictures\main_arun_global_transform_stat.eps
%%CreationDate: 01/26/2009  17:07:33
%%DocumentNeededFonts: Helvetica
%%DocumentProcessColors: Cyan Magenta Yellow Black
%%LanguageLevel: 2
%%Pages: 1
%%BoundingBox:    60   403   548   591
%%EndComments

%%BeginProlog
% MathWorks dictionary
/MathWorks 160 dict begin
% definition operators
/bdef {bind def} bind def
/ldef {load def} bind def
/xdef {exch def} bdef
/xstore {exch store} bdef
% operator abbreviations
/c  /clip ldef
/cc /concat ldef
/cp /closepath ldef
/gr /grestore ldef
/gs /gsave ldef
/mt /moveto ldef
/np /newpath ldef
/cm /currentmatrix ldef
/sm /setmatrix ldef
/rm /rmoveto ldef
/rl /rlineto ldef
/s {show newpath} bdef
/sc {setcmykcolor} bdef
/sr /setrgbcolor ldef
/sg /setgray ldef
/w /setlinewidth ldef
/j /setlinejoin ldef
/cap /setlinecap ldef
/rc {rectclip} bdef
/rf {rectfill} bdef
% page state control
/pgsv () def
/bpage {/pgsv save def} bdef
/epage {pgsv restore} bdef
/bplot /gsave ldef
/eplot {stroke grestore} bdef
% orientation switch
/portraitMode 0 def /landscapeMode 1 def /rotateMode 2 def
% coordinate system mappings
/dpi2point 0 def
% font control
/FontSize 0 def
/FMS {/FontSize xstore findfont [FontSize 0 0 FontSize neg 0 0]
  makefont setfont} bdef
/ISOLatin1Encoding where {pop /WindowsLatin1Encoding 256 array bdef
ISOLatin1Encoding WindowsLatin1Encoding copy pop
/.notdef/.notdef/quotesinglbase/florin/quotedblbase/ellipsis/dagger
/daggerdbl/circumflex/perthousand/Scaron/guilsinglleft/OE/.notdef/.notdef
/.notdef/.notdef/quoteleft/quoteright/quotedblleft/quotedblright/bullet
/endash/emdash/tilde/trademark/scaron/guilsinglright/oe/.notdef/.notdef
/Ydieresis WindowsLatin1Encoding 128 32 getinterval astore pop}
{/WindowsLatin1Encoding StandardEncoding bdef} ifelse
/reencode {exch dup where {pop load} {pop StandardEncoding} ifelse
  exch dup 3 1 roll findfont dup length dict begin
  { 1 index /FID ne {def}{pop pop} ifelse } forall
  /Encoding exch def currentdict end definefont pop} bdef
/isroman {findfont /CharStrings get /Agrave known} bdef
/FMSR {3 1 roll 1 index dup isroman {reencode} {pop pop} ifelse
  exch FMS} bdef
/csm {1 dpi2point div -1 dpi2point div scale neg translate
 dup landscapeMode eq {pop -90 rotate}
  {rotateMode eq {90 rotate} if} ifelse} bdef
% line types: solid, dotted, dashed, dotdash
/SO { [] 0 setdash } bdef
/DO { [.5 dpi2point mul 4 dpi2point mul] 0 setdash } bdef
/DA { [6 dpi2point mul] 0 setdash } bdef
/DD { [.5 dpi2point mul 4 dpi2point mul 6 dpi2point mul 4
  dpi2point mul] 0 setdash } bdef
% macros for lines and objects
/L {lineto stroke} bdef
/MP {3 1 roll moveto 1 sub {rlineto} repeat} bdef
/AP {{rlineto} repeat} bdef
/PDlw -1 def
/W {/PDlw currentlinewidth def setlinewidth} def
/PP {closepath eofill} bdef
/DP {closepath stroke} bdef
/MR {4 -2 roll moveto dup  0 exch rlineto exch 0 rlineto
  neg 0 exch rlineto closepath} bdef
/FR {MR stroke} bdef
/PR {MR fill} bdef
/L1i {{currentfile picstr readhexstring pop} image} bdef
/tMatrix matrix def
/MakeOval {newpath tMatrix currentmatrix pop translate scale
0 0 1 0 360 arc tMatrix setmatrix} bdef
/FO {MakeOval stroke} bdef
/PO {MakeOval fill} bdef
/PD {currentlinewidth 2 div 0 360 arc fill
   PDlw -1 eq not {PDlw w /PDlw -1 def} if} def
/FA {newpath tMatrix currentmatrix pop translate scale
  0 0 1 5 -2 roll arc tMatrix setmatrix stroke} bdef
/PA {newpath tMatrix currentmatrix pop	translate 0 0 moveto scale
  0 0 1 5 -2 roll arc closepath tMatrix setmatrix fill} bdef
/FAn {newpath tMatrix currentmatrix pop translate scale
  0 0 1 5 -2 roll arcn tMatrix setmatrix stroke} bdef
/PAn {newpath tMatrix currentmatrix pop translate 0 0 moveto scale
  0 0 1 5 -2 roll arcn closepath tMatrix setmatrix fill} bdef
/vradius 0 def /hradius 0 def /lry 0 def
/lrx 0 def /uly 0 def /ulx 0 def /rad 0 def
/MRR {/vradius xdef /hradius xdef /lry xdef /lrx xdef /uly xdef
  /ulx xdef newpath tMatrix currentmatrix pop ulx hradius add uly
  vradius add translate hradius vradius scale 0 0 1 180 270 arc 
  tMatrix setmatrix lrx hradius sub uly vradius add translate
  hradius vradius scale 0 0 1 270 360 arc tMatrix setmatrix
  lrx hradius sub lry vradius sub translate hradius vradius scale
  0 0 1 0 90 arc tMatrix setmatrix ulx hradius add lry vradius sub
  translate hradius vradius scale 0 0 1 90 180 arc tMatrix setmatrix
  closepath} bdef
/FRR {MRR stroke } bdef
/PRR {MRR fill } bdef
/MlrRR {/lry xdef /lrx xdef /uly xdef /ulx xdef /rad lry uly sub 2 div def
  newpath tMatrix currentmatrix pop ulx rad add uly rad add translate
  rad rad scale 0 0 1 90 270 arc tMatrix setmatrix lrx rad sub lry rad
  sub translate rad rad scale 0 0 1 270 90 arc tMatrix setmatrix
  closepath} bdef
/FlrRR {MlrRR stroke } bdef
/PlrRR {MlrRR fill } bdef
/MtbRR {/lry xdef /lrx xdef /uly xdef /ulx xdef /rad lrx ulx sub 2 div def
  newpath tMatrix currentmatrix pop ulx rad add uly rad add translate
  rad rad scale 0 0 1 180 360 arc tMatrix setmatrix lrx rad sub lry rad
  sub translate rad rad scale 0 0 1 0 180 arc tMatrix setmatrix
  closepath} bdef
/FtbRR {MtbRR stroke } bdef
/PtbRR {MtbRR fill } bdef
/stri 6 array def /dtri 6 array def
/smat 6 array def /dmat 6 array def
/tmat1 6 array def /tmat2 6 array def /dif 3 array def
/asub {/ind2 exch def /ind1 exch def dup dup
  ind1 get exch ind2 get sub exch } bdef
/tri_to_matrix {
  2 0 asub 3 1 asub 4 0 asub 5 1 asub
  dup 0 get exch 1 get 7 -1 roll astore } bdef
/compute_transform {
  dmat dtri tri_to_matrix tmat1 invertmatrix 
  smat stri tri_to_matrix tmat2 concatmatrix } bdef
/ds {stri astore pop} bdef
/dt {dtri astore pop} bdef
/db {2 copy /cols xdef /rows xdef mul dup 3 mul string
  currentfile 
  3 index 0 eq {/ASCIIHexDecode filter}
  {/ASCII85Decode filter 3 index 2 eq {/RunLengthDecode filter} if }
  ifelse exch readstring pop
  dup 0 3 index getinterval /rbmap xdef
  dup 2 index dup getinterval /gbmap xdef
  1 index dup 2 mul exch getinterval /bbmap xdef pop pop}bdef
/it {gs np dtri aload pop moveto lineto lineto cp c
  cols rows 8 compute_transform 
  rbmap gbmap bbmap true 3 colorimage gr}bdef
/il {newpath moveto lineto stroke}bdef
currentdict end def
%%EndProlog

%%BeginSetup
MathWorks begin

0 cap

end
%%EndSetup

%%Page: 1 1
%%BeginPageSetup
%%PageBoundingBox:    60   403   548   591
MathWorks begin
bpage
%%EndPageSetup

%%BeginObject: obj1
bplot

/dpi2point 12 def
portraitMode 0216 7344 csm

  511   247  5859  2251 rc
85 dict begin %Colortable dictionary
/c0 { 0.000000 0.000000 0.000000 sr} bdef
/c1 { 1.000000 1.000000 1.000000 sr} bdef
/c2 { 0.900000 0.000000 0.000000 sr} bdef
/c3 { 0.000000 0.820000 0.000000 sr} bdef
/c4 { 0.000000 0.000000 0.800000 sr} bdef
/c5 { 0.910000 0.820000 0.320000 sr} bdef
/c6 { 1.000000 0.260000 0.820000 sr} bdef
/c7 { 0.000000 0.820000 0.820000 sr} bdef
c0
1 j
1 sg
   0    0 6919 5187 rf
6 w
0 1769 1420 0 0 -1769 949 2158 4 MP
PP
-1420 0 0 1769 1420 0 0 -1769 949 2158 5 MP stroke
4 w
DO
SO
6 w
0 sg
 949  389 mt 2369  389 L
 949 2158 mt 2369 2158 L
2369 2158 mt 2369  389 L
 949 2158 mt  949  389 L
 949 2158 mt 2369 2158 L
 949 2158 mt  949  389 L
 949 2158 mt  949 2140 L
 949  389 mt  949  406 L
%%IncludeResource: font Helvetica
/Helvetica /WindowsLatin1Encoding 120 FMSR

 916 2303 mt 
(0) s
1659 2158 mt 1659 2140 L
1659  389 mt 1659  406 L
1576 2303 mt 
(0.2) s
2369 2158 mt 2369 2140 L
2369  389 mt 2369  406 L
2286 2303 mt 
(0.4) s
 949 1997 mt  966 1997 L
2369 1997 mt 2351 1997 L
 567 2041 mt 
(dev,I,1) s
 949 1836 mt  966 1836 L
2369 1836 mt 2351 1836 L
 518 1880 mt 
(dev,C,1) s
 949 1675 mt  966 1675 L
2369 1675 mt 2351 1675 L
 561 1719 mt 
(eva,I,1) s
 949 1514 mt  966 1514 L
2369 1514 mt 2351 1514 L
 511 1558 mt 
(eva,C,1) s
 949 1353 mt  966 1353 L
2369 1353 mt 2351 1353 L
 567 1397 mt 
(dev,I,2) s
 949 1193 mt  966 1193 L
2369 1193 mt 2351 1193 L
 518 1237 mt 
(dev,C,2) s
 949 1032 mt  966 1032 L
2369 1032 mt 2351 1032 L
 561 1076 mt 
(eva,I,2) s
 949  871 mt  966  871 L
2369  871 mt 2351  871 L
 511  915 mt 
(eva,C,2) s
 949  389 mt 2369  389 L
 949 2158 mt 2369 2158 L
2369 2158 mt 2369  389 L
 949 2158 mt  949  389 L
gs 949 389 1421 1770 rc
/c8 { 0.000000 0.000000 0.562500 sr} bdef
c8
-875 0 0 -37 875 0 949 2038 4 MP
PP
0 sg
0 37 -875 0 0 -37 875 0 949 2038 5 MP stroke
c8
-809 0 0 -37 809 0 949 1877 4 MP
PP
0 sg
0 37 -809 0 0 -37 809 0 949 1877 5 MP stroke
c8
-904 0 0 -36 904 0 949 1716 4 MP
PP
0 sg
0 36 -904 0 0 -36 904 0 949 1716 5 MP stroke
c8
-849 0 0 -37 849 0 949 1556 4 MP
PP
0 sg
0 37 -849 0 0 -37 849 0 949 1556 5 MP stroke
c8
-892 0 0 -37 892 0 949 1395 4 MP
PP
0 sg
0 37 -892 0 0 -37 892 0 949 1395 5 MP stroke
c8
-687 0 0 -37 687 0 949 1234 4 MP
PP
0 sg
0 37 -687 0 0 -37 687 0 949 1234 5 MP stroke
c8
-904 0 0 -37 904 0 949 1073 4 MP
PP
0 sg
0 37 -904 0 0 -37 904 0 949 1073 5 MP stroke
c8
-705 0 0 -36 705 0 949 912 4 MP
PP
0 sg
0 36 -705 0 0 -36 705 0 949 912 5 MP stroke
0 -1769 949 2158 2 MP stroke
/c9 { 0.500000 0.000000 0.000000 sr} bdef
c9
-133 0 0 -37 133 0 949 1992 4 MP
PP
0 sg
0 37 -133 0 0 -37 133 0 949 1992 5 MP stroke
c9
-429 0 0 -36 429 0 949 1831 4 MP
PP
0 sg
0 36 -429 0 0 -36 429 0 949 1831 5 MP stroke
c9
-172 0 0 -36 172 0 949 1670 4 MP
PP
0 sg
0 36 -172 0 0 -36 172 0 949 1670 5 MP stroke
c9
-458 0 0 -37 458 0 949 1510 4 MP
PP
0 sg
0 37 -458 0 0 -37 458 0 949 1510 5 MP stroke
c9
-112 0 0 -37 112 0 949 1349 4 MP
PP
0 sg
0 37 -112 0 0 -37 112 0 949 1349 5 MP stroke
c9
-355 0 0 -37 355 0 949 1188 4 MP
PP
0 sg
0 37 -355 0 0 -37 355 0 949 1188 5 MP stroke
c9
-93 0 0 -37 93 0 949 1027 4 MP
PP
0 sg
0 37 -93 0 0 -37 93 0 949 1027 5 MP stroke
c9
-389 0 0 -36 389 0 949 866 4 MP
PP
0 sg
0 36 -389 0 0 -36 389 0 949 866 5 MP stroke
gr

1578 2446 mt 
(KS) s
 932 2201 mt 
( ) s
2353  431 mt 
( ) s
1 sg
0 1769 1421 0 0 -1769 2891 2158 4 MP
PP
-1421 0 0 1769 1421 0 0 -1769 2891 2158 5 MP stroke
4 w
DO
SO
6 w
0 sg
2891  389 mt 4312  389 L
2891 2158 mt 4312 2158 L
4312 2158 mt 4312  389 L
2891 2158 mt 2891  389 L
2891 2158 mt 4312 2158 L
2891 2158 mt 2891  389 L
2891 2158 mt 2891 2140 L
2891  389 mt 2891  406 L
2788 2303 mt 
(-4) s
3175 2158 mt 3175 2140 L
3175  389 mt 3175  406 L
3072 2303 mt 
(-2) s
3459 2158 mt 3459 2140 L
3459  389 mt 3459  406 L
3426 2303 mt 
(0) s
3743 2158 mt 3743 2140 L
3743  389 mt 3743  406 L
3710 2303 mt 
(2) s
4027 2158 mt 4027 2140 L
4027  389 mt 4027  406 L
3994 2303 mt 
(4) s
4312 2158 mt 4312 2140 L
4312  389 mt 4312  406 L
4279 2303 mt 
(6) s
2891 1997 mt 2908 1997 L
4312 1997 mt 4294 1997 L
2509 2041 mt 
(dev,I,1) s
2891 1836 mt 2908 1836 L
4312 1836 mt 4294 1836 L
2460 1880 mt 
(dev,C,1) s
2891 1675 mt 2908 1675 L
4312 1675 mt 4294 1675 L
2503 1719 mt 
(eva,I,1) s
2891 1514 mt 2908 1514 L
4312 1514 mt 4294 1514 L
2453 1558 mt 
(eva,C,1) s
2891 1353 mt 2908 1353 L
4312 1353 mt 4294 1353 L
2509 1397 mt 
(dev,I,2) s
2891 1193 mt 2908 1193 L
4312 1193 mt 4294 1193 L
2460 1237 mt 
(dev,C,2) s
2891 1032 mt 2908 1032 L
4312 1032 mt 4294 1032 L
2503 1076 mt 
(eva,I,2) s
2891  871 mt 2908  871 L
4312  871 mt 4294  871 L
2453  915 mt 
(eva,C,2) s
2891  389 mt 4312  389 L
2891 2158 mt 4312 2158 L
4312 2158 mt 4312  389 L
2891 2158 mt 2891  389 L
gs 2891 389 1422 1770 rc
c8
-682 0 0 -37 682 0 3459 2038 4 MP
PP
0 sg
0 37 -682 0 0 -37 682 0 3459 2038 5 MP stroke
c8
326 0 0 -37 -326 0 3459 1877 4 MP
PP
0 sg
0 37 326 0 0 -37 -326 0 3459 1877 5 MP stroke
c8
-693 0 0 -36 693 0 3459 1716 4 MP
PP
0 sg
0 36 -693 0 0 -36 693 0 3459 1716 5 MP stroke
c8
297 0 0 -37 -297 0 3459 1556 4 MP
PP
0 sg
0 37 297 0 0 -37 -297 0 3459 1556 5 MP stroke
c8
-516 0 0 -37 516 0 3459 1395 4 MP
PP
0 sg
0 37 -516 0 0 -37 516 0 3459 1395 5 MP stroke
c8
225 0 0 -37 -225 0 3459 1234 4 MP
PP
0 sg
0 37 225 0 0 -37 -225 0 3459 1234 5 MP stroke
c8
-517 0 0 -37 517 0 3459 1073 4 MP
PP
0 sg
0 37 -517 0 0 -37 517 0 3459 1073 5 MP stroke
c8
187 0 0 -36 -187 0 3459 912 4 MP
PP
0 sg
0 36 187 0 0 -36 -187 0 3459 912 5 MP stroke
0 -1769 3459 2158 2 MP stroke
c9
-55 0 0 -37 55 0 3459 1992 4 MP
PP
0 sg
0 37 -55 0 0 -37 55 0 3459 1992 5 MP stroke
c9
202 0 0 -36 -202 0 3459 1831 4 MP
PP
0 sg
0 36 202 0 0 -36 -202 0 3459 1831 5 MP stroke
c9
-82 0 0 -36 82 0 3459 1670 4 MP
PP
0 sg
0 36 -82 0 0 -36 82 0 3459 1670 5 MP stroke
c9
202 0 0 -37 -202 0 3459 1510 4 MP
PP
0 sg
0 37 202 0 0 -37 -202 0 3459 1510 5 MP stroke
c9
-16 0 0 -37 16 0 3459 1349 4 MP
PP
0 sg
0 37 -16 0 0 -37 16 0 3459 1349 5 MP stroke
c9
137 0 0 -37 -137 0 3459 1188 4 MP
PP
0 sg
0 37 137 0 0 -37 -137 0 3459 1188 5 MP stroke
c9
-9 0 0 -37 9 0 3459 1027 4 MP
PP
0 sg
0 37 -9 0 0 -37 9 0 3459 1027 5 MP stroke
c9
145 0 0 -36 -145 0 3459 866 4 MP
PP
0 sg
0 36 145 0 0 -36 -145 0 3459 866 5 MP stroke
gr

3339 2446 mt 
(skewness) s
2874 2201 mt 
( ) s
4296  431 mt 
( ) s
1 sg
0 1769 1420 0 0 -1769 4834 2158 4 MP
PP
-1420 0 0 1769 1420 0 0 -1769 4834 2158 5 MP stroke
4 w
DO
SO
6 w
0 sg
4834  389 mt 6254  389 L
4834 2158 mt 6254 2158 L
6254 2158 mt 6254  389 L
4834 2158 mt 4834  389 L
4834 2158 mt 6254 2158 L
4834 2158 mt 4834  389 L
4834 2158 mt 4834 2140 L
4834  389 mt 4834  406 L
4801 2303 mt 
(0) s
5544 2158 mt 5544 2140 L
5544  389 mt 5544  406 L
5478 2303 mt 
(20) s
6254 2158 mt 6254 2140 L
6254  389 mt 6254  406 L
6188 2303 mt 
(40) s
4834 1997 mt 4851 1997 L
6254 1997 mt 6236 1997 L
4452 2041 mt 
(dev,I,1) s
4834 1836 mt 4851 1836 L
6254 1836 mt 6236 1836 L
4403 1880 mt 
(dev,C,1) s
4834 1675 mt 4851 1675 L
6254 1675 mt 6236 1675 L
4446 1719 mt 
(eva,I,1) s
4834 1514 mt 4851 1514 L
6254 1514 mt 6236 1514 L
4396 1558 mt 
(eva,C,1) s
4834 1353 mt 4851 1353 L
6254 1353 mt 6236 1353 L
4452 1397 mt 
(dev,I,2) s
4834 1193 mt 4851 1193 L
6254 1193 mt 6236 1193 L
4403 1237 mt 
(dev,C,2) s
4834 1032 mt 4851 1032 L
6254 1032 mt 6236 1032 L
4446 1076 mt 
(eva,I,2) s
4834  871 mt 4851  871 L
6254  871 mt 6236  871 L
4396  915 mt 
(eva,C,2) s
4834  389 mt 6254  389 L
4834 2158 mt 6254 2158 L
6254 2158 mt 6254  389 L
4834 2158 mt 4834  389 L
gs 4834 389 1421 1770 rc
c8
-1249 0 0 -37 1249 0 4834 2038 4 MP
PP
0 sg
0 37 -1249 0 0 -37 1249 0 4834 2038 5 MP stroke
c8
-288 0 0 -37 288 0 4834 1877 4 MP
PP
0 sg
0 37 -288 0 0 -37 288 0 4834 1877 5 MP stroke
c8
-1262 0 0 -36 1262 0 4834 1716 4 MP
PP
0 sg
0 36 -1262 0 0 -36 1262 0 4834 1716 5 MP stroke
c8
-238 0 0 -37 238 0 4834 1556 4 MP
PP
0 sg
0 37 -238 0 0 -37 238 0 4834 1556 5 MP stroke
c8
-703 0 0 -37 703 0 4834 1395 4 MP
PP
0 sg
0 37 -703 0 0 -37 703 0 4834 1395 5 MP stroke
c8
-170 0 0 -37 170 0 4834 1234 4 MP
PP
0 sg
0 37 -170 0 0 -37 170 0 4834 1234 5 MP stroke
c8
-711 0 0 -37 711 0 4834 1073 4 MP
PP
0 sg
0 37 -711 0 0 -37 711 0 4834 1073 5 MP stroke
c8
-128 0 0 -36 128 0 4834 912 4 MP
PP
0 sg
0 36 -128 0 0 -36 128 0 4834 912 5 MP stroke
0 -1769 4834 2158 2 MP stroke
c9
-150 0 0 -37 150 0 4834 1992 4 MP
PP
0 sg
0 37 -150 0 0 -37 150 0 4834 1992 5 MP stroke
c9
-186 0 0 -36 186 0 4834 1831 4 MP
PP
0 sg
0 36 -186 0 0 -36 186 0 4834 1831 5 MP stroke
c9
-165 0 0 -36 165 0 4834 1670 4 MP
PP
0 sg
0 36 -165 0 0 -36 165 0 4834 1670 5 MP stroke
c9
-181 0 0 -37 181 0 4834 1510 4 MP
PP
0 sg
0 37 -181 0 0 -37 181 0 4834 1510 5 MP stroke
c9
-147 0 0 -37 147 0 4834 1349 4 MP
PP
0 sg
0 37 -147 0 0 -37 147 0 4834 1349 5 MP stroke
c9
-136 0 0 -37 136 0 4834 1188 4 MP
PP
0 sg
0 37 -136 0 0 -37 136 0 4834 1188 5 MP stroke
c9
-138 0 0 -37 138 0 4834 1027 4 MP
PP
0 sg
0 37 -138 0 0 -37 138 0 4834 1027 5 MP stroke
c9
-137 0 0 -36 137 0 4834 866 4 MP
PP
0 sg
0 36 -137 0 0 -36 137 0 4834 866 5 MP stroke
gr

5334 2446 mt 
(kurtosis) s
4817 2201 mt 
( ) s
6238  431 mt 
( ) s
1 sg
0 334 842 0 0 -334 1467 783 4 MP
PP
-842 0 0 334 842 0 0 -334 1467 783 5 MP stroke
4 w
DO
SO
6 w
0 sg
1467  449 mt 2309  449 L
1467  783 mt 2309  783 L
2309  783 mt 2309  449 L
1467  783 mt 1467  449 L
1467  783 mt 2309  783 L
1467  783 mt 1467  449 L
1467  449 mt 2309  449 L
1467  783 mt 2309  783 L
2309  783 mt 2309  449 L
1467  783 mt 1467  449 L
1938  584 mt 
(before) s
gs 1467 449 843 335 rc
c8
-362 0 0 109 362 0 0 -109 1539 596 5 MP
PP
0 sg
0 0 -362 0 0 109 362 0 0 -109 1539 596 6 MP stroke
gr

1938  733 mt 
(after) s
gs 1467 449 843 335 rc
c9
-362 0 0 109 362 0 0 -109 1539 744 5 MP
PP
0 sg
0 0 -362 0 0 109 362 0 0 -109 1539 744 6 MP stroke
gr

1 sg
0 334 842 0 0 -334 3411 783 4 MP
PP
-842 0 0 334 842 0 0 -334 3411 783 5 MP stroke
4 w
DO
SO
6 w
0 sg
3411  449 mt 4253  449 L
3411  783 mt 4253  783 L
4253  783 mt 4253  449 L
3411  783 mt 3411  449 L
3411  783 mt 4253  783 L
3411  783 mt 3411  449 L
3411  449 mt 4253  449 L
3411  783 mt 4253  783 L
4253  783 mt 4253  449 L
3411  783 mt 3411  449 L
3882  584 mt 
(before) s
gs 3411 449 843 335 rc
c8
-362 0 0 109 362 0 0 -109 3483 596 5 MP
PP
0 sg
0 0 -362 0 0 109 362 0 0 -109 3483 596 6 MP stroke
gr

3882  733 mt 
(after) s
gs 3411 449 843 335 rc
c9
-362 0 0 109 362 0 0 -109 3483 744 5 MP
PP
0 sg
0 0 -362 0 0 109 362 0 0 -109 3483 744 6 MP stroke
gr

1 sg
0 334 842 0 0 -334 5352 783 4 MP
PP
-842 0 0 334 842 0 0 -334 5352 783 5 MP stroke
4 w
DO
SO
6 w
0 sg
5352  449 mt 6194  449 L
5352  783 mt 6194  783 L
6194  783 mt 6194  449 L
5352  783 mt 5352  449 L
5352  783 mt 6194  783 L
5352  783 mt 5352  449 L
5352  449 mt 6194  449 L
5352  783 mt 6194  783 L
6194  783 mt 6194  449 L
5352  783 mt 5352  449 L
5823  584 mt 
(before) s
gs 5352 449 843 335 rc
c8
-362 0 0 109 362 0 0 -109 5424 596 5 MP
PP
0 sg
0 0 -362 0 0 109 362 0 0 -109 5424 596 6 MP stroke
gr

5823  733 mt 
(after) s
gs 5352 449 843 335 rc
c9
-362 0 0 109 362 0 0 -109 5424 744 5 MP
PP
0 sg
0 0 -362 0 0 109 362 0 0 -109 5424 744 6 MP stroke
gr


end %%Color Dict

eplot
%%EndObject

epage
end

showpage

%%Trailer
%%EOF
