%!PS-Adobe-3.0 EPSF-3.0
%%Creator: MATLAB, The Mathworks, Inc. Version 7.7.0.471 (R2008b). Operating System: Microsoft Windows XP.
%%Title: Pictures\main_zoo_mvar_analysis_data_BMI_xcorr_bmi_p1_k1_3_4.eps
%%CreationDate: 10/26/2009  05:43:59
%%DocumentNeededFonts: Helvetica
%%DocumentProcessColors: Cyan Magenta Yellow Black
%%LanguageLevel: 2
%%Pages: 1
%%BoundingBox:    32   180   546   616
%%EndComments

%%BeginProlog
% MathWorks dictionary
/MathWorks 160 dict begin
% definition operators
/bdef {bind def} bind def
/ldef {load def} bind def
/xdef {exch def} bdef
/xstore {exch store} bdef
% operator abbreviations
/c  /clip ldef
/cc /concat ldef
/cp /closepath ldef
/gr /grestore ldef
/gs /gsave ldef
/mt /moveto ldef
/np /newpath ldef
/cm /currentmatrix ldef
/sm /setmatrix ldef
/rm /rmoveto ldef
/rl /rlineto ldef
/s {show newpath} bdef
/sc {setcmykcolor} bdef
/sr /setrgbcolor ldef
/sg /setgray ldef
/w /setlinewidth ldef
/j /setlinejoin ldef
/cap /setlinecap ldef
/rc {rectclip} bdef
/rf {rectfill} bdef
% page state control
/pgsv () def
/bpage {/pgsv save def} bdef
/epage {pgsv restore} bdef
/bplot /gsave ldef
/eplot {stroke grestore} bdef
% orientation switch
/portraitMode 0 def /landscapeMode 1 def /rotateMode 2 def
% coordinate system mappings
/dpi2point 0 def
% font control
/FontSize 0 def
/FMS {/FontSize xstore findfont [FontSize 0 0 FontSize neg 0 0]
  makefont setfont} bdef
/ISOLatin1Encoding where {pop /WindowsLatin1Encoding 256 array bdef
ISOLatin1Encoding WindowsLatin1Encoding copy pop
/.notdef/.notdef/quotesinglbase/florin/quotedblbase/ellipsis/dagger
/daggerdbl/circumflex/perthousand/Scaron/guilsinglleft/OE/.notdef/.notdef
/.notdef/.notdef/quoteleft/quoteright/quotedblleft/quotedblright/bullet
/endash/emdash/tilde/trademark/scaron/guilsinglright/oe/.notdef/.notdef
/Ydieresis WindowsLatin1Encoding 128 32 getinterval astore pop}
{/WindowsLatin1Encoding StandardEncoding bdef} ifelse
/reencode {exch dup where {pop load} {pop StandardEncoding} ifelse
  exch dup 3 1 roll findfont dup length dict begin
  { 1 index /FID ne {def}{pop pop} ifelse } forall
  /Encoding exch def currentdict end definefont pop} bdef
/isroman {findfont /CharStrings get /Agrave known} bdef
/FMSR {3 1 roll 1 index dup isroman {reencode} {pop pop} ifelse
  exch FMS} bdef
/csm {1 dpi2point div -1 dpi2point div scale neg translate
 dup landscapeMode eq {pop -90 rotate}
  {rotateMode eq {90 rotate} if} ifelse} bdef
% line types: solid, dotted, dashed, dotdash
/SO { [] 0 setdash } bdef
/DO { [.5 dpi2point mul 4 dpi2point mul] 0 setdash } bdef
/DA { [6 dpi2point mul] 0 setdash } bdef
/DD { [.5 dpi2point mul 4 dpi2point mul 6 dpi2point mul 4
  dpi2point mul] 0 setdash } bdef
% macros for lines and objects
/L {lineto stroke} bdef
/MP {3 1 roll moveto 1 sub {rlineto} repeat} bdef
/AP {{rlineto} repeat} bdef
/PDlw -1 def
/W {/PDlw currentlinewidth def setlinewidth} def
/PP {closepath eofill} bdef
/DP {closepath stroke} bdef
/MR {4 -2 roll moveto dup  0 exch rlineto exch 0 rlineto
  neg 0 exch rlineto closepath} bdef
/FR {MR stroke} bdef
/PR {MR fill} bdef
/L1i {{currentfile picstr readhexstring pop} image} bdef
/tMatrix matrix def
/MakeOval {newpath tMatrix currentmatrix pop translate scale
0 0 1 0 360 arc tMatrix setmatrix} bdef
/FO {MakeOval stroke} bdef
/PO {MakeOval fill} bdef
/PD {currentlinewidth 2 div 0 360 arc fill
   PDlw -1 eq not {PDlw w /PDlw -1 def} if} def
/FA {newpath tMatrix currentmatrix pop translate scale
  0 0 1 5 -2 roll arc tMatrix setmatrix stroke} bdef
/PA {newpath tMatrix currentmatrix pop	translate 0 0 moveto scale
  0 0 1 5 -2 roll arc closepath tMatrix setmatrix fill} bdef
/FAn {newpath tMatrix currentmatrix pop translate scale
  0 0 1 5 -2 roll arcn tMatrix setmatrix stroke} bdef
/PAn {newpath tMatrix currentmatrix pop translate 0 0 moveto scale
  0 0 1 5 -2 roll arcn closepath tMatrix setmatrix fill} bdef
/vradius 0 def /hradius 0 def /lry 0 def
/lrx 0 def /uly 0 def /ulx 0 def /rad 0 def
/MRR {/vradius xdef /hradius xdef /lry xdef /lrx xdef /uly xdef
  /ulx xdef newpath tMatrix currentmatrix pop ulx hradius add uly
  vradius add translate hradius vradius scale 0 0 1 180 270 arc 
  tMatrix setmatrix lrx hradius sub uly vradius add translate
  hradius vradius scale 0 0 1 270 360 arc tMatrix setmatrix
  lrx hradius sub lry vradius sub translate hradius vradius scale
  0 0 1 0 90 arc tMatrix setmatrix ulx hradius add lry vradius sub
  translate hradius vradius scale 0 0 1 90 180 arc tMatrix setmatrix
  closepath} bdef
/FRR {MRR stroke } bdef
/PRR {MRR fill } bdef
/MlrRR {/lry xdef /lrx xdef /uly xdef /ulx xdef /rad lry uly sub 2 div def
  newpath tMatrix currentmatrix pop ulx rad add uly rad add translate
  rad rad scale 0 0 1 90 270 arc tMatrix setmatrix lrx rad sub lry rad
  sub translate rad rad scale 0 0 1 270 90 arc tMatrix setmatrix
  closepath} bdef
/FlrRR {MlrRR stroke } bdef
/PlrRR {MlrRR fill } bdef
/MtbRR {/lry xdef /lrx xdef /uly xdef /ulx xdef /rad lrx ulx sub 2 div def
  newpath tMatrix currentmatrix pop ulx rad add uly rad add translate
  rad rad scale 0 0 1 180 360 arc tMatrix setmatrix lrx rad sub lry rad
  sub translate rad rad scale 0 0 1 0 180 arc tMatrix setmatrix
  closepath} bdef
/FtbRR {MtbRR stroke } bdef
/PtbRR {MtbRR fill } bdef
/stri 6 array def /dtri 6 array def
/smat 6 array def /dmat 6 array def
/tmat1 6 array def /tmat2 6 array def /dif 3 array def
/asub {/ind2 exch def /ind1 exch def dup dup
  ind1 get exch ind2 get sub exch } bdef
/tri_to_matrix {
  2 0 asub 3 1 asub 4 0 asub 5 1 asub
  dup 0 get exch 1 get 7 -1 roll astore } bdef
/compute_transform {
  dmat dtri tri_to_matrix tmat1 invertmatrix 
  smat stri tri_to_matrix tmat2 concatmatrix } bdef
/ds {stri astore pop} bdef
/dt {dtri astore pop} bdef
/db {2 copy /cols xdef /rows xdef mul dup 3 mul string
  currentfile 
  3 index 0 eq {/ASCIIHexDecode filter}
  {/ASCII85Decode filter 3 index 2 eq {/RunLengthDecode filter} if }
  ifelse exch readstring pop
  dup 0 3 index getinterval /rbmap xdef
  dup 2 index dup getinterval /gbmap xdef
  1 index dup 2 mul exch getinterval /bbmap xdef pop pop}bdef
/it {gs np dtri aload pop moveto lineto lineto cp c
  cols rows 8 compute_transform 
  rbmap gbmap bbmap true 3 colorimage gr}bdef
/il {newpath moveto lineto stroke}bdef
currentdict end def
%%EndProlog

%%BeginSetup
MathWorks begin

0 cap

end
%%EndSetup

%%Page: 1 1
%%BeginPageSetup
%%PageBoundingBox:    32   180   546   616
MathWorks begin
bpage
%%EndPageSetup

%%BeginObject: obj1
bplot

/dpi2point 12 def
portraitMode 0216 7344 csm

  174   -48  6173  5231 rc
85 dict begin %Colortable dictionary
/c0 { 0.000000 0.000000 0.000000 sr} bdef
/c1 { 1.000000 1.000000 1.000000 sr} bdef
/c2 { 0.900000 0.000000 0.000000 sr} bdef
/c3 { 0.000000 0.820000 0.000000 sr} bdef
/c4 { 0.000000 0.000000 0.800000 sr} bdef
/c5 { 0.910000 0.820000 0.320000 sr} bdef
/c6 { 1.000000 0.260000 0.820000 sr} bdef
/c7 { 0.000000 0.820000 0.820000 sr} bdef
c0
1 j
1 sg
   0    0 6919 5187 rf
6 w
0 4202 5362 0 0 -4202 899 4616 4 MP
PP
-5362 0 0 4202 5362 0 0 -4202 899 4616 5 MP stroke
4 w
DO
SO
6 w
0 sg
 899  414 mt 6261  414 L
 899 4616 mt 6261 4616 L
6261 4616 mt 6261  414 L
 899 4616 mt  899  414 L
 899 4616 mt 6261 4616 L
 899 4616 mt  899  414 L
1877 4616 mt 1877 4562 L
1877  414 mt 1877  467 L
%%IncludeResource: font Helvetica
/Helvetica /WindowsLatin1Encoding 240 FMSR

1711 4873 mt 
(0.1) s
2855 4616 mt 2855 4562 L
2855  414 mt 2855  467 L
2689 4873 mt 
(0.2) s
3834 4616 mt 3834 4562 L
3834  414 mt 3834  467 L
3668 4873 mt 
(0.3) s
4812 4616 mt 4812 4562 L
4812  414 mt 4812  467 L
4646 4873 mt 
(0.4) s
5791 4616 mt 5791 4562 L
5791  414 mt 5791  467 L
5625 4873 mt 
(0.5) s
 899 3888 mt  952 3888 L
6261 3888 mt 6207 3888 L
 531 3977 mt 
(0.1) s
 899 3160 mt  952 3160 L
6261 3160 mt 6207 3160 L
 531 3249 mt 
(0.2) s
 899 2432 mt  952 2432 L
6261 2432 mt 6207 2432 L
 531 2521 mt 
(0.3) s
 899 1705 mt  952 1705 L
6261 1705 mt 6207 1705 L
 531 1794 mt 
(0.4) s
 899  977 mt  952  977 L
6261  977 mt 6207  977 L
 531 1066 mt 
(0.5) s
 899  414 mt 6261  414 L
 899 4616 mt 6261 4616 L
6261 4616 mt 6261  414 L
 899 4616 mt  899  414 L
gs 899 414 5363 4203 rc
gr

/c8 { 0.000000 0.000000 1.000000 sr} bdef
c8
1505 4560 mt 1577 4560 L
1541 4524 mt 1541 4596 L
 925 4104 mt  997 4104 L
 961 4068 mt  961 4140 L
2984 3227 mt 3056 3227 L
3020 3191 mt 3020 3263 L
 967 4279 mt 1039 4279 L
1003 4243 mt 1003 4315 L
 978 4584 mt 1050 4584 L
1014 4548 mt 1014 4620 L
1174 4443 mt 1246 4443 L
1210 4407 mt 1210 4479 L
 867 3753 mt  939 3753 L
 903 3717 mt  903 3789 L
 869 4586 mt  941 4586 L
 905 4550 mt  905 4622 L
 897 4453 mt  969 4453 L
 933 4417 mt  933 4489 L
1394 4139 mt 1466 4139 L
1430 4103 mt 1430 4175 L
1762 4373 mt 1834 4373 L
1798 4337 mt 1798 4409 L
1444 3702 mt 1516 3702 L
1480 3666 mt 1480 3738 L
1451 3398 mt 1523 3398 L
1487 3362 mt 1487 3434 L
1990 3988 mt 2062 3988 L
2026 3952 mt 2026 4024 L
1043 4204 mt 1115 4204 L
1079 4168 mt 1079 4240 L
 956 3760 mt 1028 3760 L
 992 3724 mt  992 3796 L
1977 4512 mt 2049 4512 L
2013 4476 mt 2013 4548 L
 873 4577 mt  945 4577 L
 909 4541 mt  909 4613 L
 905 2645 mt  977 2645 L
 941 2609 mt  941 2681 L
 881 4377 mt  953 4377 L
 917 4341 mt  917 4413 L
1323 4420 mt 1395 4420 L
1359 4384 mt 1359 4456 L
1210 4609 mt 1282 4609 L
1246 4573 mt 1246 4645 L
 947 4281 mt 1019 4281 L
 983 4245 mt  983 4317 L
 996 3046 mt 1068 3046 L
1032 3010 mt 1032 3082 L
1256 4574 mt 1328 4574 L
1292 4538 mt 1292 4610 L
1149 4229 mt 1221 4229 L
1185 4193 mt 1185 4265 L
 887 4323 mt  959 4323 L
 923 4287 mt  923 4359 L
1095 4208 mt 1167 4208 L
1131 4172 mt 1131 4244 L
1006 4305 mt 1078 4305 L
1042 4269 mt 1042 4341 L
 877 4468 mt  949 4468 L
 913 4432 mt  913 4504 L
1293 4587 mt 1365 4587 L
1329 4551 mt 1329 4623 L
 912 4334 mt  984 4334 L
 948 4298 mt  948 4370 L
 870 3584 mt  942 3584 L
 906 3548 mt  906 3620 L
 863 4597 mt  935 4597 L
 899 4561 mt  899 4633 L
1493 3678 mt 1565 3678 L
1529 3642 mt 1529 3714 L
1221 4611 mt 1293 4611 L
1257 4575 mt 1257 4647 L
 870 4606 mt  942 4606 L
 906 4570 mt  906 4642 L
1299 4333 mt 1371 4333 L
1335 4297 mt 1335 4369 L
1279 4176 mt 1351 4176 L
1315 4140 mt 1315 4212 L
1683 3867 mt 1755 3867 L
1719 3831 mt 1719 3903 L
 879 4460 mt  951 4460 L
 915 4424 mt  915 4496 L
 933 3099 mt 1005 3099 L
 969 3063 mt  969 3135 L
1013 4610 mt 1085 4610 L
1049 4574 mt 1049 4646 L
3481 2385 mt 3553 2385 L
3517 2349 mt 3517 2421 L
 874 1554 mt  946 1554 L
 910 1518 mt  910 1590 L
 928 4226 mt 1000 4226 L
 964 4190 mt  964 4262 L
1255 4607 mt 1327 4607 L
1291 4571 mt 1291 4643 L
 885 3698 mt  957 3698 L
 921 3662 mt  921 3734 L
1394 3359 mt 1466 3359 L
1430 3323 mt 1430 3395 L
2224 3325 mt 2296 3325 L
2260 3289 mt 2260 3361 L
1032 4609 mt 1104 4609 L
1068 4573 mt 1068 4645 L
 863 4615 mt  935 4615 L
 899 4579 mt  899 4651 L
4295 2098 mt 4367 2098 L
4331 2062 mt 4331 2134 L
 886 4540 mt  958 4540 L
 922 4504 mt  922 4576 L
 866 4498 mt  938 4498 L
 902 4462 mt  902 4534 L
 925 4500 mt  997 4500 L
 961 4464 mt  961 4536 L
 878 4223 mt  950 4223 L
 914 4187 mt  914 4259 L
 930 4502 mt 1002 4502 L
 966 4466 mt  966 4538 L
2636 3705 mt 2708 3705 L
2672 3669 mt 2672 3741 L
2988 3576 mt 3060 3576 L
3024 3540 mt 3024 3612 L
1319 4590 mt 1391 4590 L
1355 4554 mt 1355 4626 L
1073 4615 mt 1145 4615 L
1109 4579 mt 1109 4651 L
 901 3207 mt  973 3207 L
 937 3171 mt  937 3243 L
1207 2519 mt 1279 2519 L
1243 2483 mt 1243 2555 L
5296 3083 mt 5368 3083 L
5332 3047 mt 5332 3119 L
 892 4581 mt  964 4581 L
 928 4545 mt  928 4617 L
3861 2468 mt 3933 2468 L
3897 2432 mt 3897 2504 L
1090 4598 mt 1162 4598 L
1126 4562 mt 1126 4634 L
2394 4393 mt 2466 4393 L
2430 4357 mt 2430 4429 L
2199 4478 mt 2271 4478 L
2235 4442 mt 2235 4514 L
1495 4309 mt 1567 4309 L
1531 4273 mt 1531 4345 L
1093 3885 mt 1165 3885 L
1129 3849 mt 1129 3921 L
 950 4263 mt 1022 4263 L
 986 4227 mt  986 4299 L
 995 4497 mt 1067 4497 L
1031 4461 mt 1031 4533 L
1766 4552 mt 1838 4552 L
1802 4516 mt 1802 4588 L
1389 3043 mt 1461 3043 L
1425 3007 mt 1425 3079 L
 863 3449 mt  935 3449 L
 899 3413 mt  899 3485 L
2715 4157 mt 2787 4157 L
2751 4121 mt 2751 4193 L
 870 3344 mt  942 3344 L
 906 3308 mt  906 3380 L
1290 4423 mt 1362 4423 L
1326 4387 mt 1326 4459 L
 872 2959 mt  944 2959 L
 908 2923 mt  908 2995 L
1080 2591 mt 1152 2591 L
1116 2555 mt 1116 2627 L
2888 4605 mt 2960 4605 L
2924 4569 mt 2924 4641 L
1120 4392 mt 1192 4392 L
1156 4356 mt 1156 4428 L
1081 4418 mt 1153 4418 L
1117 4382 mt 1117 4454 L
1145 4025 mt 1217 4025 L
1181 3989 mt 1181 4061 L
 864 4549 mt  936 4549 L
 900 4513 mt  900 4585 L
 891 2346 mt  963 2346 L
 927 2310 mt  927 2382 L
1066 4609 mt 1138 4609 L
1102 4573 mt 1102 4645 L
1021 4613 mt 1093 4613 L
1057 4577 mt 1057 4649 L
1482 3383 mt 1554 3383 L
1518 3347 mt 1518 3419 L
1008 2866 mt 1080 2866 L
1044 2830 mt 1044 2902 L
1014 3931 mt 1086 3931 L
1050 3895 mt 1050 3967 L
 919 4188 mt  991 4188 L
 955 4152 mt  955 4224 L
 905 4615 mt  977 4615 L
 941 4579 mt  941 4651 L
1126 4089 mt 1198 4089 L
1162 4053 mt 1162 4125 L
1221 4503 mt 1293 4503 L
1257 4467 mt 1257 4539 L
1183 4494 mt 1255 4494 L
1219 4458 mt 1219 4530 L
 872 3309 mt  944 3309 L
 908 3273 mt  908 3345 L
 909 4576 mt  981 4576 L
 945 4540 mt  945 4612 L
 945 4571 mt 1017 4571 L
 981 4535 mt  981 4607 L
1022 4466 mt 1094 4466 L
1058 4430 mt 1058 4502 L
1304 3672 mt 1376 3672 L
1340 3636 mt 1340 3708 L
1082 4572 mt 1154 4572 L
1118 4536 mt 1118 4608 L
 910 4213 mt  982 4213 L
 946 4177 mt  946 4249 L
 990 4081 mt 1062 4081 L
1026 4045 mt 1026 4117 L
1653 3828 mt 1725 3828 L
1689 3792 mt 1689 3864 L
1194 4520 mt 1266 4520 L
1230 4484 mt 1230 4556 L
 989 4448 mt 1061 4448 L
1025 4412 mt 1025 4484 L
1071 4588 mt 1143 4588 L
1107 4552 mt 1107 4624 L
1008 1721 mt 1080 1721 L
1044 1685 mt 1044 1757 L
 940 4444 mt 1012 4444 L
 976 4408 mt  976 4480 L
 866 4594 mt  938 4594 L
 902 4558 mt  902 4630 L
1610 4585 mt 1682 4585 L
1646 4549 mt 1646 4621 L
1059 3808 mt 1131 3808 L
1095 3772 mt 1095 3844 L
 997 4141 mt 1069 4141 L
1033 4105 mt 1033 4177 L
 879 3959 mt  951 3959 L
 915 3923 mt  915 3995 L
1244 4306 mt 1316 4306 L
1280 4270 mt 1280 4342 L
 863 3151 mt  935 3151 L
 899 3115 mt  899 3187 L
 900 4607 mt  972 4607 L
 936 4571 mt  936 4643 L
1031 4554 mt 1103 4554 L
1067 4518 mt 1067 4590 L
4075 3837 mt 4147 3837 L
4111 3801 mt 4111 3873 L
 872 4593 mt  944 4593 L
 908 4557 mt  908 4629 L
1520 3045 mt 1592 3045 L
1556 3009 mt 1556 3081 L
2424 4384 mt 2496 4384 L
2460 4348 mt 2460 4420 L
2934 2614 mt 3006 2614 L
2970 2578 mt 2970 2650 L
 919 4537 mt  991 4537 L
 955 4501 mt  955 4573 L
1673 4406 mt 1745 4406 L
1709 4370 mt 1709 4442 L
1553 4494 mt 1625 4494 L
1589 4458 mt 1589 4530 L
1014 4614 mt 1086 4614 L
1050 4578 mt 1050 4650 L
 867 3553 mt  939 3553 L
 903 3517 mt  903 3589 L
1246 4479 mt 1318 4479 L
1282 4443 mt 1282 4515 L
 894 4567 mt  966 4567 L
 930 4531 mt  930 4603 L
 962 4615 mt 1034 4615 L
 998 4579 mt  998 4651 L
1041 4615 mt 1113 4615 L
1077 4579 mt 1077 4651 L
 868 4609 mt  940 4609 L
 904 4573 mt  904 4645 L
 922 4484 mt  994 4484 L
 958 4448 mt  958 4520 L
1124 4504 mt 1196 4504 L
1160 4468 mt 1160 4540 L
2234 3718 mt 2306 3718 L
2270 3682 mt 2270 3754 L
1904 4561 mt 1976 4561 L
1940 4525 mt 1940 4597 L
1032 4040 mt 1104 4040 L
1068 4004 mt 1068 4076 L
 893 4179 mt  965 4179 L
 929 4143 mt  929 4215 L
 971 3355 mt 1043 3355 L
1007 3319 mt 1007 3391 L
 891 4611 mt  963 4611 L
 927 4575 mt  927 4647 L
 918 4427 mt  990 4427 L
 954 4391 mt  954 4463 L
 928 4461 mt 1000 4461 L
 964 4425 mt  964 4497 L
 888 4039 mt  960 4039 L
 924 4003 mt  924 4075 L
1336 3413 mt 1408 3413 L
1372 3377 mt 1372 3449 L
1268 3384 mt 1340 3384 L
1304 3348 mt 1304 3420 L
1370 4612 mt 1442 4612 L
1406 4576 mt 1406 4648 L
 969  414 mt 1041  414 L
1005  378 mt 1005  450 L
 990 4593 mt 1062 4593 L
1026 4557 mt 1026 4629 L
 969 4439 mt 1041 4439 L
1005 4403 mt 1005 4475 L
1054 3844 mt 1126 3844 L
1090 3808 mt 1090 3880 L
3092 4615 mt 3164 4615 L
3128 4579 mt 3128 4651 L
 871 4470 mt  943 4470 L
 907 4434 mt  907 4506 L
3845 3669 mt 3917 3669 L
3881 3633 mt 3881 3705 L
 869 4438 mt  941 4438 L
 905 4402 mt  905 4474 L
 926 4614 mt  998 4614 L
 962 4578 mt  962 4650 L
 864 3854 mt  936 3854 L
 900 3818 mt  900 3890 L
1956 3284 mt 2028 3284 L
1992 3248 mt 1992 3320 L
2003 4533 mt 2075 4533 L
2039 4497 mt 2039 4569 L
2036 4586 mt 2108 4586 L
2072 4550 mt 2072 4622 L
 911 4252 mt  983 4252 L
 947 4216 mt  947 4288 L
 883 4348 mt  955 4348 L
 919 4312 mt  919 4384 L
 863 3866 mt  935 3866 L
 899 3830 mt  899 3902 L
1385 1947 mt 1457 1947 L
1421 1911 mt 1421 1983 L
 863 4268 mt  935 4268 L
 899 4232 mt  899 4304 L
1228 4427 mt 1300 4427 L
1264 4391 mt 1264 4463 L
1407 3673 mt 1479 3673 L
1443 3637 mt 1443 3709 L
 919 4573 mt  991 4573 L
 955 4537 mt  955 4609 L
1098 4584 mt 1170 4584 L
1134 4548 mt 1134 4620 L
 873 4613 mt  945 4613 L
 909 4577 mt  909 4649 L
 968 4304 mt 1040 4304 L
1004 4268 mt 1004 4340 L
1206 4445 mt 1278 4445 L
1242 4409 mt 1242 4481 L
1275 4315 mt 1347 4315 L
1311 4279 mt 1311 4351 L
 880 4127 mt  952 4127 L
 916 4091 mt  916 4163 L
1236 4421 mt 1308 4421 L
1272 4385 mt 1272 4457 L
1048 3889 mt 1120 3889 L
1084 3853 mt 1084 3925 L
 981 4371 mt 1053 4371 L
1017 4335 mt 1017 4407 L
 994 4584 mt 1066 4584 L
1030 4548 mt 1030 4620 L
 908 4605 mt  980 4605 L
 944 4569 mt  944 4641 L
1928 4095 mt 2000 4095 L
1964 4059 mt 1964 4131 L
6225 2498 mt 6297 2498 L
6261 2462 mt 6261 2534 L
1054 3911 mt 1126 3911 L
1090 3875 mt 1090 3947 L
 866 4335 mt  938 4335 L
 902 4299 mt  902 4371 L
 932 4528 mt 1004 4528 L
 968 4492 mt  968 4564 L
1014 4360 mt 1086 4360 L
1050 4324 mt 1050 4396 L
 972 4552 mt 1044 4552 L
1008 4516 mt 1008 4588 L
 865 4514 mt  937 4514 L
 901 4478 mt  901 4550 L
 949 4549 mt 1021 4549 L
 985 4513 mt  985 4585 L
1204 3950 mt 1276 3950 L
1240 3914 mt 1240 3986 L
 865 4552 mt  937 4552 L
 901 4516 mt  901 4588 L
1132 4602 mt 1204 4602 L
1168 4566 mt 1168 4638 L
 997 4615 mt 1069 4615 L
1033 4579 mt 1033 4651 L
1255 2507 mt 1327 2507 L
1291 2471 mt 1291 2543 L
1039 4375 mt 1111 4375 L
1075 4339 mt 1075 4411 L
 869 4468 mt  941 4468 L
 905 4432 mt  905 4504 L
1854 4280 mt 1926 4280 L
1890 4244 mt 1890 4316 L
1076 4470 mt 1148 4470 L
1112 4434 mt 1112 4506 L
 910 4475 mt  982 4475 L
 946 4439 mt  946 4511 L
1128 4400 mt 1200 4400 L
1164 4364 mt 1164 4436 L
 896 4579 mt  968 4579 L
 932 4543 mt  932 4615 L
 873 4612 mt  945 4612 L
 909 4576 mt  909 4648 L
 926 4606 mt  998 4606 L
 962 4570 mt  962 4642 L
 872 4550 mt  944 4550 L
 908 4514 mt  908 4586 L
 953 3580 mt 1025 3580 L
 989 3544 mt  989 3616 L
 984 4615 mt 1056 4615 L
1020 4579 mt 1020 4651 L
1065 3892 mt 1137 3892 L
1101 3856 mt 1101 3928 L
 880 3531 mt  952 3531 L
 916 3495 mt  916 3567 L
 960 4615 mt 1032 4615 L
 996 4579 mt  996 4651 L
 989 4151 mt 1061 4151 L
1025 4115 mt 1025 4187 L
 957 4040 mt 1029 4040 L
 993 4004 mt  993 4076 L
 880 4577 mt  952 4577 L
 916 4541 mt  916 4613 L
 869 4605 mt  941 4605 L
 905 4569 mt  905 4641 L
 869 2798 mt  941 2798 L
 905 2762 mt  905 2834 L
1016 4597 mt 1088 4597 L
1052 4561 mt 1052 4633 L
1067 4555 mt 1139 4555 L
1103 4519 mt 1103 4591 L
 880 4017 mt  952 4017 L
 916 3981 mt  916 4053 L
1180 3827 mt 1252 3827 L
1216 3791 mt 1216 3863 L
1026 4611 mt 1098 4611 L
1062 4575 mt 1062 4647 L
1332 4558 mt 1404 4558 L
1368 4522 mt 1368 4594 L
1150 3769 mt 1222 3769 L
1186 3733 mt 1186 3805 L
 898 4098 mt  970 4098 L
 934 4062 mt  934 4134 L
1124 3310 mt 1196 3310 L
1160 3274 mt 1160 3346 L
 892 4214 mt  964 4214 L
 928 4178 mt  928 4250 L
 922 4251 mt  994 4251 L
 958 4215 mt  958 4287 L
 918 4172 mt  990 4172 L
 954 4136 mt  954 4208 L
1044 4362 mt 1116 4362 L
1080 4326 mt 1080 4398 L
 941 4484 mt 1013 4484 L
 977 4448 mt  977 4520 L
 864 4614 mt  936 4614 L
 900 4578 mt  900 4650 L
 907 3876 mt  979 3876 L
 943 3840 mt  943 3912 L
 879 4366 mt  951 4366 L
 915 4330 mt  915 4402 L
 985 4575 mt 1057 4575 L
1021 4539 mt 1021 4611 L
 936 4583 mt 1008 4583 L
 972 4547 mt  972 4619 L
1004 4595 mt 1076 4595 L
1040 4559 mt 1040 4631 L
 959 4433 mt 1031 4433 L
 995 4397 mt  995 4469 L
 868 4616 mt  940 4616 L
 904 4580 mt  904 4652 L
 983 4541 mt 1055 4541 L
1019 4505 mt 1019 4577 L
 984 4295 mt 1056 4295 L
1020 4259 mt 1020 4331 L
 871 4514 mt  943 4514 L
 907 4478 mt  907 4550 L
 927 3412 mt  999 3412 L
 963 3376 mt  963 3448 L
 960 4609 mt 1032 4609 L
 996 4573 mt  996 4645 L
 888 3864 mt  960 3864 L
 924 3828 mt  924 3900 L
1111 1956 mt 1183 1956 L
1147 1920 mt 1147 1992 L
 901 4423 mt  973 4423 L
 937 4387 mt  937 4459 L
 892 4502 mt  964 4502 L
 928 4466 mt  928 4538 L
 970 3669 mt 1042 3669 L
1006 3633 mt 1006 3705 L
 863 4523 mt  935 4523 L
 899 4487 mt  899 4559 L
 873 4380 mt  945 4380 L
 909 4344 mt  909 4416 L
 914 4574 mt  986 4574 L
 950 4538 mt  950 4610 L
 872 4562 mt  944 4562 L
 908 4526 mt  908 4598 L
2157 3121 mt 2229 3121 L
2193 3085 mt 2193 3157 L
 865 4591 mt  937 4591 L
 901 4555 mt  901 4627 L
 878 4247 mt  950 4247 L
 914 4211 mt  914 4283 L
 924 4447 mt  996 4447 L
 960 4411 mt  960 4483 L
 922 4117 mt  994 4117 L
 958 4081 mt  958 4153 L
 868 4615 mt  940 4615 L
 904 4579 mt  904 4651 L
1595 3817 mt 1667 3817 L
1631 3781 mt 1631 3853 L
1015 4349 mt 1087 4349 L
1051 4313 mt 1051 4385 L
1080 4596 mt 1152 4596 L
1116 4560 mt 1116 4632 L
 863 4477 mt  935 4477 L
 899 4441 mt  899 4513 L
 871 3778 mt  943 3778 L
 907 3742 mt  907 3814 L
 979 1888 mt 1051 1888 L
1015 1852 mt 1015 1924 L
 864 4614 mt  936 4614 L
 900 4578 mt  900 4650 L
 863 4512 mt  935 4512 L
 899 4476 mt  899 4548 L
 883 4529 mt  955 4529 L
 919 4493 mt  919 4565 L
 863 4611 mt  935 4611 L
 899 4575 mt  899 4647 L
2032 3961 mt 2104 3961 L
2068 3925 mt 2068 3997 L
 893 4443 mt  965 4443 L
 929 4407 mt  929 4479 L
2585 3909 mt 2657 3909 L
2621 3873 mt 2621 3945 L
 989 4600 mt 1061 4600 L
1025 4564 mt 1025 4636 L
 877 4040 mt  949 4040 L
 913 4004 mt  913 4076 L
 906 4109 mt  978 4109 L
 942 4073 mt  942 4145 L
 863 4529 mt  935 4529 L
 899 4493 mt  899 4565 L
 955 4093 mt 1027 4093 L
 991 4057 mt  991 4129 L
1191 3584 mt 1263 3584 L
1227 3548 mt 1227 3620 L
 886 4615 mt  958 4615 L
 922 4579 mt  922 4651 L
1433 4139 mt 1505 4139 L
1469 4103 mt 1469 4175 L
 940 4589 mt 1012 4589 L
 976 4553 mt  976 4625 L
 932 2397 mt 1004 2397 L
 968 2361 mt  968 2433 L
 891 3557 mt  963 3557 L
 927 3521 mt  927 3593 L
1094 4315 mt 1166 4315 L
1130 4279 mt 1130 4351 L
 864 4597 mt  936 4597 L
 900 4561 mt  900 4633 L
 864 3819 mt  936 3819 L
 900 3783 mt  900 3855 L
 941 4411 mt 1013 4411 L
 977 4375 mt  977 4447 L
1146 4280 mt 1218 4280 L
1182 4244 mt 1182 4316 L
1004 2429 mt 1076 2429 L
1040 2393 mt 1040 2465 L
 986 4466 mt 1058 4466 L
1022 4430 mt 1022 4502 L
1008 4609 mt 1080 4609 L
1044 4573 mt 1044 4645 L
 906 4100 mt  978 4100 L
 942 4064 mt  942 4136 L
1048 4031 mt 1120 4031 L
1084 3995 mt 1084 4067 L
 873 4489 mt  945 4489 L
 909 4453 mt  909 4525 L
 886 4330 mt  958 4330 L
 922 4294 mt  922 4366 L
 863 4609 mt  935 4609 L
 899 4573 mt  899 4645 L
 863 4298 mt  935 4298 L
 899 4262 mt  899 4334 L
 863 3550 mt  935 3550 L
 899 3514 mt  899 3586 L
 863 4589 mt  935 4589 L
 899 4553 mt  899 4625 L
 867 3176 mt  939 3176 L
 903 3140 mt  903 3212 L
1159 4221 mt 1231 4221 L
1195 4185 mt 1195 4257 L
 864 4608 mt  936 4608 L
 900 4572 mt  900 4644 L
 877 4600 mt  949 4600 L
 913 4564 mt  913 4636 L
 869 3224 mt  941 3224 L
 905 3188 mt  905 3260 L
 893 4610 mt  965 4610 L
 929 4574 mt  929 4646 L
1171 3084 mt 1243 3084 L
1207 3048 mt 1207 3120 L
 942 4175 mt 1014 4175 L
 978 4139 mt  978 4211 L
2602 3555 mt 2674 3555 L
2638 3519 mt 2638 3591 L
 898 4615 mt  970 4615 L
 934 4579 mt  934 4651 L
 924 4523 mt  996 4523 L
 960 4487 mt  960 4559 L
 947 4566 mt 1019 4566 L
 983 4530 mt  983 4602 L
1181 1824 mt 1253 1824 L
1217 1788 mt 1217 1860 L
 889 4353 mt  961 4353 L
 925 4317 mt  925 4389 L
1615 3983 mt 1687 3983 L
1651 3947 mt 1651 4019 L
1041 4610 mt 1113 4610 L
1077 4574 mt 1077 4646 L
 942 4346 mt 1014 4346 L
 978 4310 mt  978 4382 L
1070 4610 mt 1142 4610 L
1106 4574 mt 1106 4646 L
1001 4428 mt 1073 4428 L
1037 4392 mt 1037 4464 L
 865 4615 mt  937 4615 L
 901 4579 mt  901 4651 L
 877 3298 mt  949 3298 L
 913 3262 mt  913 3334 L
 878 4429 mt  950 4429 L
 914 4393 mt  914 4465 L
 863 4389 mt  935 4389 L
 899 4353 mt  899 4425 L
1459 4533 mt 1531 4533 L
1495 4497 mt 1495 4569 L
 877 4570 mt  949 4570 L
 913 4534 mt  913 4606 L
1234 3456 mt 1306 3456 L
1270 3420 mt 1270 3492 L
 934 4612 mt 1006 4612 L
 970 4576 mt  970 4648 L
 863 4360 mt  935 4360 L
 899 4324 mt  899 4396 L
 912 4498 mt  984 4498 L
 948 4462 mt  948 4534 L
 916 4571 mt  988 4571 L
 952 4535 mt  952 4607 L
 951 4407 mt 1023 4407 L
 987 4371 mt  987 4443 L
 883 4613 mt  955 4613 L
 919 4577 mt  919 4649 L
 867 3267 mt  939 3267 L
 903 3231 mt  903 3303 L
 864 4615 mt  936 4615 L
 900 4579 mt  900 4651 L
 911 4306 mt  983 4306 L
 947 4270 mt  947 4342 L
 874 4586 mt  946 4586 L
 910 4550 mt  910 4622 L
1068 4597 mt 1140 4597 L
1104 4561 mt 1104 4633 L
1635 4427 mt 1707 4427 L
1671 4391 mt 1671 4463 L
 867 4548 mt  939 4548 L
 903 4512 mt  903 4584 L
 863 4604 mt  935 4604 L
 899 4568 mt  899 4640 L
 865 4614 mt  937 4614 L
 901 4578 mt  901 4650 L
1473 4615 mt 1545 4615 L
1509 4579 mt 1509 4651 L
 967 3708 mt 1039 3708 L
1003 3672 mt 1003 3744 L
 937 4113 mt 1009 4113 L
 973 4077 mt  973 4149 L
1116 2760 mt 1188 2760 L
1152 2724 mt 1152 2796 L
 880 4614 mt  952 4614 L
 916 4578 mt  916 4650 L
 999 3892 mt 1071 3892 L
1035 3856 mt 1035 3928 L
1034 4529 mt 1106 4529 L
1070 4493 mt 1070 4565 L
1124 4518 mt 1196 4518 L
1160 4482 mt 1160 4554 L
1459 3609 mt 1531 3609 L
1495 3573 mt 1495 3645 L
 868 3681 mt  940 3681 L
 904 3645 mt  904 3717 L
1001 4217 mt 1073 4217 L
1037 4181 mt 1037 4253 L
 872 1741 mt  944 1741 L
 908 1705 mt  908 1777 L
 885 3920 mt  957 3920 L
 921 3884 mt  921 3956 L
1377 4571 mt 1449 4571 L
1413 4535 mt 1413 4607 L
1030 4614 mt 1102 4614 L
1066 4578 mt 1066 4650 L
 863 4580 mt  935 4580 L
 899 4544 mt  899 4616 L
 880 4615 mt  952 4615 L
 916 4579 mt  916 4651 L
 926 4534 mt  998 4534 L
 962 4498 mt  962 4570 L
 901 4608 mt  973 4608 L
 937 4572 mt  937 4644 L
 878 4450 mt  950 4450 L
 914 4414 mt  914 4486 L
 887 4393 mt  959 4393 L
 923 4357 mt  923 4429 L
1079 4485 mt 1151 4485 L
1115 4449 mt 1115 4521 L
1015 4612 mt 1087 4612 L
1051 4576 mt 1051 4648 L
1271 4572 mt 1343 4572 L
1307 4536 mt 1307 4608 L
 869 4550 mt  941 4550 L
 905 4514 mt  905 4586 L
 913 4105 mt  985 4105 L
 949 4069 mt  949 4141 L
 905 4453 mt  977 4453 L
 941 4417 mt  941 4489 L
 875 2432 mt  947 2432 L
 911 2396 mt  911 2468 L
 873 4556 mt  945 4556 L
 909 4520 mt  909 4592 L
 903 4571 mt  975 4571 L
 939 4535 mt  939 4607 L
 891 4615 mt  963 4615 L
 927 4579 mt  927 4651 L
 867 4588 mt  939 4588 L
 903 4552 mt  903 4624 L
 908 4615 mt  980 4615 L
 944 4579 mt  944 4651 L
 863 4596 mt  935 4596 L
 899 4560 mt  899 4632 L
 869 4592 mt  941 4592 L
 905 4556 mt  905 4628 L
 886 4594 mt  958 4594 L
 922 4558 mt  922 4630 L
 868 3574 mt  940 3574 L
 904 3538 mt  904 3610 L
 946 4238 mt 1018 4238 L
 982 4202 mt  982 4274 L
 904 4030 mt  976 4030 L
 940 3994 mt  940 4066 L
 939 3841 mt 1011 3841 L
 975 3805 mt  975 3877 L
 876 4375 mt  948 4375 L
 912 4339 mt  912 4411 L
 883 4390 mt  955 4390 L
 919 4354 mt  919 4426 L
 865 4316 mt  937 4316 L
 901 4280 mt  901 4352 L
2360 3396 mt 2432 3396 L
2396 3360 mt 2396 3432 L
3633 3370 mt 3705 3370 L
3669 3334 mt 3669 3406 L
 969 4455 mt 1041 4455 L
1005 4419 mt 1005 4491 L
1433 4559 mt 1505 4559 L
1469 4523 mt 1469 4595 L
 920 4501 mt  992 4501 L
 956 4465 mt  956 4537 L
 953 4369 mt 1025 4369 L
 989 4333 mt  989 4405 L
1953 3489 mt 2025 3489 L
1989 3453 mt 1989 3525 L
1070 4567 mt 1142 4567 L
1106 4531 mt 1106 4603 L
 963 4514 mt 1035 4514 L
 999 4478 mt  999 4550 L
 993 4068 mt 1065 4068 L
1029 4032 mt 1029 4104 L
 875 4613 mt  947 4613 L
 911 4577 mt  911 4649 L
 867 4328 mt  939 4328 L
 903 4292 mt  903 4364 L
1063 4574 mt 1135 4574 L
1099 4538 mt 1099 4610 L
1093 2664 mt 1165 2664 L
1129 2628 mt 1129 2700 L
1191 4205 mt 1263 4205 L
1227 4169 mt 1227 4241 L
 864 4602 mt  936 4602 L
 900 4566 mt  900 4638 L
 893 4612 mt  965 4612 L
 929 4576 mt  929 4648 L
1027 4511 mt 1099 4511 L
1063 4475 mt 1063 4547 L
gs 899 414 5363 4203 rc
gr

0 sg
2826 5104 mt 
(\(F,DCTs,MLP\)) s
 422 3296 mt  -90 rotate
(\(F,DCTs,iMLP\)) s
90 rotate
2975  223 mt 
(Corr = 0.25) s

end %%Color Dict

eplot
%%EndObject

epage
end

showpage

%%Trailer
%%EOF
