%!PS-Adobe-3.0 EPSF-3.0
%%Creator: MATLAB, The Mathworks, Inc. Version 7.7.0.471 (R2008b). Operating System: Microsoft Windows XP.
%%Title: Pictures\main_zoo_mvar_analysis_data_BMI_xcorr_bmi_p1_k1_2_6.eps
%%CreationDate: 10/26/2009  05:43:56
%%DocumentNeededFonts: Helvetica
%%DocumentProcessColors: Cyan Magenta Yellow Black
%%LanguageLevel: 2
%%Pages: 1
%%BoundingBox:    21   180   549   616
%%EndComments

%%BeginProlog
% MathWorks dictionary
/MathWorks 160 dict begin
% definition operators
/bdef {bind def} bind def
/ldef {load def} bind def
/xdef {exch def} bdef
/xstore {exch store} bdef
% operator abbreviations
/c  /clip ldef
/cc /concat ldef
/cp /closepath ldef
/gr /grestore ldef
/gs /gsave ldef
/mt /moveto ldef
/np /newpath ldef
/cm /currentmatrix ldef
/sm /setmatrix ldef
/rm /rmoveto ldef
/rl /rlineto ldef
/s {show newpath} bdef
/sc {setcmykcolor} bdef
/sr /setrgbcolor ldef
/sg /setgray ldef
/w /setlinewidth ldef
/j /setlinejoin ldef
/cap /setlinecap ldef
/rc {rectclip} bdef
/rf {rectfill} bdef
% page state control
/pgsv () def
/bpage {/pgsv save def} bdef
/epage {pgsv restore} bdef
/bplot /gsave ldef
/eplot {stroke grestore} bdef
% orientation switch
/portraitMode 0 def /landscapeMode 1 def /rotateMode 2 def
% coordinate system mappings
/dpi2point 0 def
% font control
/FontSize 0 def
/FMS {/FontSize xstore findfont [FontSize 0 0 FontSize neg 0 0]
  makefont setfont} bdef
/ISOLatin1Encoding where {pop /WindowsLatin1Encoding 256 array bdef
ISOLatin1Encoding WindowsLatin1Encoding copy pop
/.notdef/.notdef/quotesinglbase/florin/quotedblbase/ellipsis/dagger
/daggerdbl/circumflex/perthousand/Scaron/guilsinglleft/OE/.notdef/.notdef
/.notdef/.notdef/quoteleft/quoteright/quotedblleft/quotedblright/bullet
/endash/emdash/tilde/trademark/scaron/guilsinglright/oe/.notdef/.notdef
/Ydieresis WindowsLatin1Encoding 128 32 getinterval astore pop}
{/WindowsLatin1Encoding StandardEncoding bdef} ifelse
/reencode {exch dup where {pop load} {pop StandardEncoding} ifelse
  exch dup 3 1 roll findfont dup length dict begin
  { 1 index /FID ne {def}{pop pop} ifelse } forall
  /Encoding exch def currentdict end definefont pop} bdef
/isroman {findfont /CharStrings get /Agrave known} bdef
/FMSR {3 1 roll 1 index dup isroman {reencode} {pop pop} ifelse
  exch FMS} bdef
/csm {1 dpi2point div -1 dpi2point div scale neg translate
 dup landscapeMode eq {pop -90 rotate}
  {rotateMode eq {90 rotate} if} ifelse} bdef
% line types: solid, dotted, dashed, dotdash
/SO { [] 0 setdash } bdef
/DO { [.5 dpi2point mul 4 dpi2point mul] 0 setdash } bdef
/DA { [6 dpi2point mul] 0 setdash } bdef
/DD { [.5 dpi2point mul 4 dpi2point mul 6 dpi2point mul 4
  dpi2point mul] 0 setdash } bdef
% macros for lines and objects
/L {lineto stroke} bdef
/MP {3 1 roll moveto 1 sub {rlineto} repeat} bdef
/AP {{rlineto} repeat} bdef
/PDlw -1 def
/W {/PDlw currentlinewidth def setlinewidth} def
/PP {closepath eofill} bdef
/DP {closepath stroke} bdef
/MR {4 -2 roll moveto dup  0 exch rlineto exch 0 rlineto
  neg 0 exch rlineto closepath} bdef
/FR {MR stroke} bdef
/PR {MR fill} bdef
/L1i {{currentfile picstr readhexstring pop} image} bdef
/tMatrix matrix def
/MakeOval {newpath tMatrix currentmatrix pop translate scale
0 0 1 0 360 arc tMatrix setmatrix} bdef
/FO {MakeOval stroke} bdef
/PO {MakeOval fill} bdef
/PD {currentlinewidth 2 div 0 360 arc fill
   PDlw -1 eq not {PDlw w /PDlw -1 def} if} def
/FA {newpath tMatrix currentmatrix pop translate scale
  0 0 1 5 -2 roll arc tMatrix setmatrix stroke} bdef
/PA {newpath tMatrix currentmatrix pop	translate 0 0 moveto scale
  0 0 1 5 -2 roll arc closepath tMatrix setmatrix fill} bdef
/FAn {newpath tMatrix currentmatrix pop translate scale
  0 0 1 5 -2 roll arcn tMatrix setmatrix stroke} bdef
/PAn {newpath tMatrix currentmatrix pop translate 0 0 moveto scale
  0 0 1 5 -2 roll arcn closepath tMatrix setmatrix fill} bdef
/vradius 0 def /hradius 0 def /lry 0 def
/lrx 0 def /uly 0 def /ulx 0 def /rad 0 def
/MRR {/vradius xdef /hradius xdef /lry xdef /lrx xdef /uly xdef
  /ulx xdef newpath tMatrix currentmatrix pop ulx hradius add uly
  vradius add translate hradius vradius scale 0 0 1 180 270 arc 
  tMatrix setmatrix lrx hradius sub uly vradius add translate
  hradius vradius scale 0 0 1 270 360 arc tMatrix setmatrix
  lrx hradius sub lry vradius sub translate hradius vradius scale
  0 0 1 0 90 arc tMatrix setmatrix ulx hradius add lry vradius sub
  translate hradius vradius scale 0 0 1 90 180 arc tMatrix setmatrix
  closepath} bdef
/FRR {MRR stroke } bdef
/PRR {MRR fill } bdef
/MlrRR {/lry xdef /lrx xdef /uly xdef /ulx xdef /rad lry uly sub 2 div def
  newpath tMatrix currentmatrix pop ulx rad add uly rad add translate
  rad rad scale 0 0 1 90 270 arc tMatrix setmatrix lrx rad sub lry rad
  sub translate rad rad scale 0 0 1 270 90 arc tMatrix setmatrix
  closepath} bdef
/FlrRR {MlrRR stroke } bdef
/PlrRR {MlrRR fill } bdef
/MtbRR {/lry xdef /lrx xdef /uly xdef /ulx xdef /rad lrx ulx sub 2 div def
  newpath tMatrix currentmatrix pop ulx rad add uly rad add translate
  rad rad scale 0 0 1 180 360 arc tMatrix setmatrix lrx rad sub lry rad
  sub translate rad rad scale 0 0 1 0 180 arc tMatrix setmatrix
  closepath} bdef
/FtbRR {MtbRR stroke } bdef
/PtbRR {MtbRR fill } bdef
/stri 6 array def /dtri 6 array def
/smat 6 array def /dmat 6 array def
/tmat1 6 array def /tmat2 6 array def /dif 3 array def
/asub {/ind2 exch def /ind1 exch def dup dup
  ind1 get exch ind2 get sub exch } bdef
/tri_to_matrix {
  2 0 asub 3 1 asub 4 0 asub 5 1 asub
  dup 0 get exch 1 get 7 -1 roll astore } bdef
/compute_transform {
  dmat dtri tri_to_matrix tmat1 invertmatrix 
  smat stri tri_to_matrix tmat2 concatmatrix } bdef
/ds {stri astore pop} bdef
/dt {dtri astore pop} bdef
/db {2 copy /cols xdef /rows xdef mul dup 3 mul string
  currentfile 
  3 index 0 eq {/ASCIIHexDecode filter}
  {/ASCII85Decode filter 3 index 2 eq {/RunLengthDecode filter} if }
  ifelse exch readstring pop
  dup 0 3 index getinterval /rbmap xdef
  dup 2 index dup getinterval /gbmap xdef
  1 index dup 2 mul exch getinterval /bbmap xdef pop pop}bdef
/it {gs np dtri aload pop moveto lineto lineto cp c
  cols rows 8 compute_transform 
  rbmap gbmap bbmap true 3 colorimage gr}bdef
/il {newpath moveto lineto stroke}bdef
currentdict end def
%%EndProlog

%%BeginSetup
MathWorks begin

0 cap

end
%%EndSetup

%%Page: 1 1
%%BeginPageSetup
%%PageBoundingBox:    21   180   549   616
MathWorks begin
bpage
%%EndPageSetup

%%BeginObject: obj1
bplot

/dpi2point 12 def
portraitMode 0216 7344 csm

   40   -48  6343  5231 rc
85 dict begin %Colortable dictionary
/c0 { 0.000000 0.000000 0.000000 sr} bdef
/c1 { 1.000000 1.000000 1.000000 sr} bdef
/c2 { 0.900000 0.000000 0.000000 sr} bdef
/c3 { 0.000000 0.820000 0.000000 sr} bdef
/c4 { 0.000000 0.000000 0.800000 sr} bdef
/c5 { 0.910000 0.820000 0.320000 sr} bdef
/c6 { 1.000000 0.260000 0.820000 sr} bdef
/c7 { 0.000000 0.820000 0.820000 sr} bdef
c0
1 j
1 sg
   0    0 6919 5187 rf
6 w
0 4202 5362 0 0 -4202 899 4616 4 MP
PP
-5362 0 0 4202 5362 0 0 -4202 899 4616 5 MP stroke
4 w
DO
SO
6 w
0 sg
 899  414 mt 6261  414 L
 899 4616 mt 6261 4616 L
6261 4616 mt 6261  414 L
 899 4616 mt  899  414 L
 899 4616 mt 6261 4616 L
 899 4616 mt  899  414 L
1648 4616 mt 1648 4562 L
1648  414 mt 1648  467 L
%%IncludeResource: font Helvetica
/Helvetica /WindowsLatin1Encoding 240 FMSR

1482 4873 mt 
(0.1) s
2398 4616 mt 2398 4562 L
2398  414 mt 2398  467 L
2232 4873 mt 
(0.2) s
3148 4616 mt 3148 4562 L
3148  414 mt 3148  467 L
2982 4873 mt 
(0.3) s
3898 4616 mt 3898 4562 L
3898  414 mt 3898  467 L
3732 4873 mt 
(0.4) s
4648 4616 mt 4648 4562 L
4648  414 mt 4648  467 L
4482 4873 mt 
(0.5) s
5398 4616 mt 5398 4562 L
5398  414 mt 5398  467 L
5232 4873 mt 
(0.6) s
6148 4616 mt 6148 4562 L
6148  414 mt 6148  467 L
5982 4873 mt 
(0.7) s
 899 3988 mt  952 3988 L
6261 3988 mt 6207 3988 L
 397 4077 mt 
(0.05) s
 899 3360 mt  952 3360 L
6261 3360 mt 6207 3360 L
 531 3449 mt 
(0.1) s
 899 2733 mt  952 2733 L
6261 2733 mt 6207 2733 L
 397 2822 mt 
(0.15) s
 899 2105 mt  952 2105 L
6261 2105 mt 6207 2105 L
 531 2194 mt 
(0.2) s
 899 1478 mt  952 1478 L
6261 1478 mt 6207 1478 L
 397 1567 mt 
(0.25) s
 899  850 mt  952  850 L
6261  850 mt 6207  850 L
 531  939 mt 
(0.3) s
 899  414 mt 6261  414 L
 899 4616 mt 6261 4616 L
6261 4616 mt 6261  414 L
 899 4616 mt  899  414 L
gs 899 414 5363 4203 rc
gr

/c8 { 0.000000 0.000000 1.000000 sr} bdef
c8
1653 4558 mt 1725 4558 L
1689 4522 mt 1689 4594 L
 866 3459 mt  938 3459 L
 902 3423 mt  902 3495 L
2139 4124 mt 2211 4124 L
2175 4088 mt 2175 4160 L
2372 3327 mt 2444 3327 L
2408 3291 mt 2408 3363 L
 874 4096 mt  946 4096 L
 910 4060 mt  910 4132 L
 965 4236 mt 1037 4236 L
1001 4200 mt 1001 4272 L
1200 4555 mt 1272 4555 L
1236 4519 mt 1236 4591 L
 863 4470 mt  935 4470 L
 899 4434 mt  899 4506 L
1287 4296 mt 1359 4296 L
1323 4260 mt 1323 4332 L
5731 4464 mt 5803 4464 L
5767 4428 mt 5767 4500 L
 863  414 mt  935  414 L
 899  378 mt  899  450 L
 929 4158 mt 1001 4158 L
 965 4122 mt  965 4194 L
 900 3795 mt  972 3795 L
 936 3759 mt  936 3831 L
 920 4095 mt  992 4095 L
 956 4059 mt  956 4131 L
2061 4605 mt 2133 4605 L
2097 4569 mt 2097 4641 L
1562 2319 mt 1634 2319 L
1598 2283 mt 1598 2355 L
 929 3405 mt 1001 3405 L
 965 3369 mt  965 3441 L
1371 4516 mt 1443 4516 L
1407 4480 mt 1407 4552 L
2100 4075 mt 2172 4075 L
2136 4039 mt 2136 4111 L
2546 3463 mt 2618 3463 L
2582 3427 mt 2582 3499 L
 901 4323 mt  973 4323 L
 937 4287 mt  937 4359 L
1293 4525 mt 1365 4525 L
1329 4489 mt 1329 4561 L
1595 2751 mt 1667 2751 L
1631 2715 mt 1631 2787 L
 935 4114 mt 1007 4114 L
 971 4078 mt  971 4150 L
3781 4495 mt 3853 4495 L
3817 4459 mt 3817 4531 L
2945 4518 mt 3017 4518 L
2981 4482 mt 2981 4554 L
1031 4411 mt 1103 4411 L
1067 4375 mt 1067 4447 L
2144 4546 mt 2216 4546 L
2180 4510 mt 2180 4582 L
2202 4553 mt 2274 4553 L
2238 4517 mt 2238 4589 L
4485 4613 mt 4557 4613 L
4521 4577 mt 4521 4649 L
1041 4250 mt 1113 4250 L
1077 4214 mt 1077 4286 L
1901 3047 mt 1973 3047 L
1937 3011 mt 1937 3083 L
2021 3640 mt 2093 3640 L
2057 3604 mt 2057 3676 L
4336 4396 mt 4408 4396 L
4372 4360 mt 4372 4432 L
2649 4363 mt 2721 4363 L
2685 4327 mt 2685 4399 L
1830 3075 mt 1902 3075 L
1866 3039 mt 1866 3111 L
1769 4222 mt 1841 4222 L
1805 4186 mt 1805 4258 L
1066 3165 mt 1138 3165 L
1102 3129 mt 1102 3201 L
1068 2015 mt 1140 2015 L
1104 1979 mt 1104 2051 L
 937 4082 mt 1009 4082 L
 973 4046 mt  973 4118 L
2627 4290 mt 2699 4290 L
2663 4254 mt 2663 4326 L
1072 2092 mt 1144 2092 L
1108 2056 mt 1108 2128 L
 879 3496 mt  951 3496 L
 915 3460 mt  915 3532 L
2354 4368 mt 2426 4368 L
2390 4332 mt 2390 4404 L
6015 3885 mt 6087 3885 L
6051 3849 mt 6051 3921 L
1824 4162 mt 1896 4162 L
1860 4126 mt 1860 4198 L
1023 4610 mt 1095 4610 L
1059 4574 mt 1059 4646 L
 868 4615 mt  940 4615 L
 904 4579 mt  904 4651 L
2675 3800 mt 2747 3800 L
2711 3764 mt 2711 3836 L
 866 3407 mt  938 3407 L
 902 3371 mt  902 3443 L
1795 4597 mt 1867 4597 L
1831 4561 mt 1831 4633 L
2463 3901 mt 2535 3901 L
2499 3865 mt 2499 3937 L
 926 2565 mt  998 2565 L
 962 2529 mt  962 2601 L
 956 2932 mt 1028 2932 L
 992 2896 mt  992 2968 L
1534 4542 mt 1606 4542 L
1570 4506 mt 1570 4578 L
2409 4119 mt 2481 4119 L
2445 4083 mt 2445 4155 L
1689 2934 mt 1761 2934 L
1725 2898 mt 1725 2970 L
2385 4051 mt 2457 4051 L
2421 4015 mt 2421 4087 L
3521 3479 mt 3593 3479 L
3557 3443 mt 3557 3515 L
1010 4268 mt 1082 4268 L
1046 4232 mt 1046 4304 L
2774 4615 mt 2846 4615 L
2810 4579 mt 2810 4651 L
1703 4613 mt 1775 4613 L
1739 4577 mt 1739 4649 L
2243 4596 mt 2315 4596 L
2279 4560 mt 2279 4632 L
3083 4480 mt 3155 4480 L
3119 4444 mt 3119 4516 L
1297 3668 mt 1369 3668 L
1333 3632 mt 1333 3704 L
1329 4214 mt 1401 4214 L
1365 4178 mt 1365 4250 L
3285 4610 mt 3357 4610 L
3321 4574 mt 3321 4646 L
 864 3588 mt  936 3588 L
 900 3552 mt  900 3624 L
1502 4492 mt 1574 4492 L
1538 4456 mt 1538 4528 L
 867 4573 mt  939 4573 L
 903 4537 mt  903 4609 L
1575 3934 mt 1647 3934 L
1611 3898 mt 1611 3970 L
1731 4220 mt 1803 4220 L
1767 4184 mt 1767 4256 L
 906 4497 mt  978 4497 L
 942 4461 mt  942 4533 L
1089 4302 mt 1161 4302 L
1125 4266 mt 1125 4338 L
 863 4132 mt  935 4132 L
 899 4096 mt  899 4168 L
 864 3760 mt  936 3760 L
 900 3724 mt  900 3796 L
4778 3603 mt 4850 3603 L
4814 3567 mt 4814 3639 L
1032 4407 mt 1104 4407 L
1068 4371 mt 1068 4443 L
1114 3446 mt 1186 3446 L
1150 3410 mt 1150 3482 L
1412 4424 mt 1484 4424 L
1448 4388 mt 1448 4460 L
1705 3094 mt 1777 3094 L
1741 3058 mt 1741 3130 L
 920 4110 mt  992 4110 L
 956 4074 mt  956 4146 L
 895 3312 mt  967 3312 L
 931 3276 mt  931 3348 L
1118 3572 mt 1190 3572 L
1154 3536 mt 1154 3608 L
3818 4609 mt 3890 4609 L
3854 4573 mt 3854 4645 L
1124 4612 mt 1196 4612 L
1160 4576 mt 1160 4648 L
1442 2219 mt 1514 2219 L
1478 2183 mt 1478 2255 L
4103 4567 mt 4175 4567 L
4139 4531 mt 4139 4603 L
3933 4421 mt 4005 4421 L
3969 4385 mt 3969 4457 L
1235 4515 mt 1307 4515 L
1271 4479 mt 1271 4551 L
1589 3996 mt 1661 3996 L
1625 3960 mt 1625 4032 L
1171 4536 mt 1243 4536 L
1207 4500 mt 1207 4572 L
 864 3699 mt  936 3699 L
 900 3663 mt  900 3735 L
1444 2420 mt 1516 2420 L
1480 2384 mt 1480 2456 L
 936 4307 mt 1008 4307 L
 972 4271 mt  972 4343 L
 925 4308 mt  997 4308 L
 961 4272 mt  961 4344 L
1523 3851 mt 1595 3851 L
1559 3815 mt 1559 3887 L
1415 2380 mt 1487 2380 L
1451 2344 mt 1451 2416 L
4971 4615 mt 5043 4615 L
5007 4579 mt 5007 4651 L
2371 4613 mt 2443 4613 L
2407 4577 mt 2407 4649 L
 863 3109 mt  935 3109 L
 899 3073 mt  899 3145 L
1871 3370 mt 1943 3370 L
1907 3334 mt 1907 3406 L
1596 4237 mt 1668 4237 L
1632 4201 mt 1632 4273 L
 863 4598 mt  935 4598 L
 899 4562 mt  899 4634 L
1977 4537 mt 2049 4537 L
2013 4501 mt 2013 4573 L
1693 4539 mt 1765 4539 L
1729 4503 mt 1729 4575 L
1354 4492 mt 1426 4492 L
1390 4456 mt 1390 4528 L
3461 1608 mt 3533 1608 L
3497 1572 mt 3497 1644 L
1010 4614 mt 1082 4614 L
1046 4578 mt 1046 4650 L
 870 3056 mt  942 3056 L
 906 3020 mt  906 3092 L
5427 2679 mt 5499 2679 L
5463 2643 mt 5463 2715 L
1794 4300 mt 1866 4300 L
1830 4264 mt 1830 4336 L
1015 4489 mt 1087 4489 L
1051 4453 mt 1051 4525 L
1700 4463 mt 1772 4463 L
1736 4427 mt 1736 4499 L
2138 4187 mt 2210 4187 L
2174 4151 mt 2174 4223 L
 990 4205 mt 1062 4205 L
1026 4169 mt 1026 4241 L
 882 2229 mt  954 2229 L
 918 2193 mt  918 2265 L
 863 4588 mt  935 4588 L
 899 4552 mt  899 4624 L
1231 4156 mt 1303 4156 L
1267 4120 mt 1267 4192 L
2164 3531 mt 2236 3531 L
2200 3495 mt 2200 3567 L
1365 4538 mt 1437 4538 L
1401 4502 mt 1401 4574 L
1397 4602 mt 1469 4602 L
1433 4566 mt 1433 4638 L
 864 2861 mt  936 2861 L
 900 2825 mt  900 2897 L
 908 3217 mt  980 3217 L
 944 3181 mt  944 3253 L
1148 2789 mt 1220 2789 L
1184 2753 mt 1184 2825 L
 863 4545 mt  935 4545 L
 899 4509 mt  899 4581 L
1075 4459 mt 1147 4459 L
1111 4423 mt 1111 4495 L
1482 3364 mt 1554 3364 L
1518 3328 mt 1518 3400 L
1384 4363 mt 1456 4363 L
1420 4327 mt 1420 4399 L
3356 4076 mt 3428 4076 L
3392 4040 mt 3392 4112 L
1535 4396 mt 1607 4396 L
1571 4360 mt 1571 4432 L
2242 4132 mt 2314 4132 L
2278 4096 mt 2278 4168 L
 959 3314 mt 1031 3314 L
 995 3278 mt  995 3350 L
 972 4115 mt 1044 4115 L
1008 4079 mt 1008 4151 L
 864 4593 mt  936 4593 L
 900 4557 mt  900 4629 L
1071 4237 mt 1143 4237 L
1107 4201 mt 1107 4273 L
1318 4607 mt 1390 4607 L
1354 4571 mt 1354 4643 L
1480 4473 mt 1552 4473 L
1516 4437 mt 1516 4509 L
1511 2480 mt 1583 2480 L
1547 2444 mt 1547 2516 L
1417 3223 mt 1489 3223 L
1453 3187 mt 1453 3259 L
1174 4511 mt 1246 4511 L
1210 4475 mt 1210 4547 L
3036 4132 mt 3108 4132 L
3072 4096 mt 3072 4168 L
3268 4533 mt 3340 4533 L
3304 4497 mt 3304 4569 L
1547 4359 mt 1619 4359 L
1583 4323 mt 1583 4395 L
3112 4140 mt 3184 4140 L
3148 4104 mt 3148 4176 L
4554 3742 mt 4626 3742 L
4590 3706 mt 4590 3778 L
1051 4561 mt 1123 4561 L
1087 4525 mt 1087 4597 L
3704 4611 mt 3776 4611 L
3740 4575 mt 3740 4647 L
3467 4500 mt 3539 4500 L
3503 4464 mt 3503 4536 L
 906 3289 mt  978 3289 L
 942 3253 mt  942 3325 L
4463 3705 mt 4535 3705 L
4499 3669 mt 4499 3741 L
1638 4516 mt 1710 4516 L
1674 4480 mt 1674 4552 L
1016 3391 mt 1088 3391 L
1052 3355 mt 1052 3427 L
2048 3798 mt 2120 3798 L
2084 3762 mt 2084 3834 L
1026 4470 mt 1098 4470 L
1062 4434 mt 1062 4506 L
2732 4557 mt 2804 4557 L
2768 4521 mt 2768 4593 L
 945 4506 mt 1017 4506 L
 981 4470 mt  981 4542 L
 868 4327 mt  940 4327 L
 904 4291 mt  904 4363 L
1735 2095 mt 1807 2095 L
1771 2059 mt 1771 2131 L
1977 4330 mt 2049 4330 L
2013 4294 mt 2013 4366 L
1310 4285 mt 1382 4285 L
1346 4249 mt 1346 4321 L
 880 4494 mt  952 4494 L
 916 4458 mt  916 4530 L
2182 4420 mt 2254 4420 L
2218 4384 mt 2218 4456 L
2520 4014 mt 2592 4014 L
2556 3978 mt 2556 4050 L
4165 4566 mt 4237 4566 L
4201 4530 mt 4201 4602 L
1139 4467 mt 1211 4467 L
1175 4431 mt 1175 4503 L
3404 4596 mt 3476 4596 L
3440 4560 mt 3440 4632 L
2040 4313 mt 2112 4313 L
2076 4277 mt 2076 4349 L
 954 4575 mt 1026 4575 L
 990 4539 mt  990 4611 L
 984 4448 mt 1056 4448 L
1020 4412 mt 1020 4484 L
1433 4228 mt 1505 4228 L
1469 4192 mt 1469 4264 L
1160 4389 mt 1232 4389 L
1196 4353 mt 1196 4425 L
1476 3976 mt 1548 3976 L
1512 3940 mt 1512 4012 L
 863 4612 mt  935 4612 L
 899 4576 mt  899 4648 L
1014 4331 mt 1086 4331 L
1050 4295 mt 1050 4367 L
 912 4064 mt  984 4064 L
 948 4028 mt  948 4100 L
1392 3330 mt 1464 3330 L
1428 3294 mt 1428 3366 L
2663 4607 mt 2735 4607 L
2699 4571 mt 2699 4643 L
 926 4447 mt  998 4447 L
 962 4411 mt  962 4483 L
 876 4588 mt  948 4588 L
 912 4552 mt  912 4624 L
1174 4593 mt 1246 4593 L
1210 4557 mt 1210 4629 L
3172 2821 mt 3244 2821 L
3208 2785 mt 3208 2857 L
 878 4513 mt  950 4513 L
 914 4477 mt  914 4549 L
1143 2826 mt 1215 2826 L
1179 2790 mt 1179 2862 L
4120 4050 mt 4192 4050 L
4156 4014 mt 4156 4086 L
1008 4581 mt 1080 4581 L
1044 4545 mt 1044 4617 L
1095 4597 mt 1167 4597 L
1131 4561 mt 1131 4633 L
 908 4614 mt  980 4614 L
 944 4578 mt  944 4650 L
3198 3721 mt 3270 3721 L
3234 3685 mt 3234 3757 L
 876 4616 mt  948 4616 L
 912 4580 mt  912 4652 L
 890 4604 mt  962 4604 L
 926 4568 mt  926 4640 L
1817 3929 mt 1889 3929 L
1853 3893 mt 1853 3965 L
1216 4458 mt 1288 4458 L
1252 4422 mt 1252 4494 L
 878 4084 mt  950 4084 L
 914 4048 mt  914 4120 L
 874 2414 mt  946 2414 L
 910 2378 mt  910 2450 L
2801 4533 mt 2873 4533 L
2837 4497 mt 2837 4569 L
1184 3966 mt 1256 3966 L
1220 3930 mt 1220 4002 L
1467 4545 mt 1539 4545 L
1503 4509 mt 1503 4581 L
 898 4598 mt  970 4598 L
 934 4562 mt  934 4634 L
 941 4291 mt 1013 4291 L
 977 4255 mt  977 4327 L
1248 4488 mt 1320 4488 L
1284 4452 mt 1284 4524 L
 897 4615 mt  969 4615 L
 933 4579 mt  933 4651 L
3819 4612 mt 3891 4612 L
3855 4576 mt 3855 4648 L
1939 2890 mt 2011 2890 L
1975 2854 mt 1975 2926 L
 932 4288 mt 1004 4288 L
 968 4252 mt  968 4324 L
 869 3495 mt  941 3495 L
 905 3459 mt  905 3531 L
1059 4173 mt 1131 4173 L
1095 4137 mt 1095 4209 L
1593 4445 mt 1665 4445 L
1629 4409 mt 1629 4481 L
1682 4371 mt 1754 4371 L
1718 4335 mt 1718 4407 L
4916 4585 mt 4988 4585 L
4952 4549 mt 4952 4621 L
 991 4079 mt 1063 4079 L
1027 4043 mt 1027 4115 L
 877 4250 mt  949 4250 L
 913 4214 mt  913 4286 L
1118 4373 mt 1190 4373 L
1154 4337 mt 1154 4409 L
1014 4611 mt 1086 4611 L
1050 4575 mt 1050 4647 L
1305 4614 mt 1377 4614 L
1341 4578 mt 1341 4650 L
2198 3014 mt 2270 3014 L
2234 2978 mt 2234 3050 L
 870 4376 mt  942 4376 L
 906 4340 mt  906 4412 L
1025 4337 mt 1097 4337 L
1061 4301 mt 1061 4373 L
1426 3661 mt 1498 3661 L
1462 3625 mt 1462 3697 L
2252 3403 mt 2324 3403 L
2288 3367 mt 2288 3439 L
1126 4615 mt 1198 4615 L
1162 4579 mt 1162 4651 L
1494 4275 mt 1566 4275 L
1530 4239 mt 1530 4311 L
1185 3464 mt 1257 3464 L
1221 3428 mt 1221 3500 L
 955 4352 mt 1027 4352 L
 991 4316 mt  991 4388 L
1676 4286 mt 1748 4286 L
1712 4250 mt 1712 4322 L
2914 4455 mt 2986 4455 L
2950 4419 mt 2950 4491 L
1111 4210 mt 1183 4210 L
1147 4174 mt 1147 4246 L
1832 4445 mt 1904 4445 L
1868 4409 mt 1868 4481 L
 963 4236 mt 1035 4236 L
 999 4200 mt  999 4272 L
3352 4576 mt 3424 4576 L
3388 4540 mt 3388 4612 L
 868 3940 mt  940 3940 L
 904 3904 mt  904 3976 L
1711 3315 mt 1783 3315 L
1747 3279 mt 1747 3351 L
2586 2768 mt 2658 2768 L
2622 2732 mt 2622 2804 L
4700 4545 mt 4772 4545 L
4736 4509 mt 4736 4581 L
1470 4539 mt 1542 4539 L
1506 4503 mt 1506 4575 L
 904 2800 mt  976 2800 L
 940 2764 mt  940 2836 L
1509 4385 mt 1581 4385 L
1545 4349 mt 1545 4421 L
1567 4250 mt 1639 4250 L
1603 4214 mt 1603 4286 L
1283 3058 mt 1355 3058 L
1319 3022 mt 1319 3094 L
 863 4568 mt  935 4568 L
 899 4532 mt  899 4604 L
2019 3653 mt 2091 3653 L
2055 3617 mt 2055 3689 L
1648 2811 mt 1720 2811 L
1684 2775 mt 1684 2847 L
1254 4480 mt 1326 4480 L
1290 4444 mt 1290 4516 L
3298 4531 mt 3370 4531 L
3334 4495 mt 3334 4567 L
6225 2791 mt 6297 2791 L
6261 2755 mt 6261 2827 L
1486 3888 mt 1558 3888 L
1522 3852 mt 1522 3924 L
 973 4366 mt 1045 4366 L
1009 4330 mt 1009 4402 L
1377 4435 mt 1449 4435 L
1413 4399 mt 1413 4471 L
4160 4503 mt 4232 4503 L
4196 4467 mt 4196 4539 L
1357 4373 mt 1429 4373 L
1393 4337 mt 1393 4409 L
1788 4524 mt 1860 4524 L
1824 4488 mt 1824 4560 L
2874 4067 mt 2946 4067 L
2910 4031 mt 2910 4103 L
1666 2592 mt 1738 2592 L
1702 2556 mt 1702 2628 L
 892 4133 mt  964 4133 L
 928 4097 mt  928 4169 L
1102 4498 mt 1174 4498 L
1138 4462 mt 1138 4534 L
3277 4050 mt 3349 4050 L
3313 4014 mt 3313 4086 L
2583 4525 mt 2655 4525 L
2619 4489 mt 2619 4561 L
2704 4267 mt 2776 4267 L
2740 4231 mt 2740 4303 L
3655 3772 mt 3727 3772 L
3691 3736 mt 3691 3808 L
1016 4292 mt 1088 4292 L
1052 4256 mt 1052 4328 L
2862 3789 mt 2934 3789 L
2898 3753 mt 2898 3825 L
2527 4615 mt 2599 4615 L
2563 4579 mt 2563 4651 L
2757 4615 mt 2829 4615 L
2793 4579 mt 2793 4651 L
4830 4281 mt 4902 4281 L
4866 4245 mt 4866 4317 L
1046 4594 mt 1118 4594 L
1082 4558 mt 1082 4630 L
1046 4112 mt 1118 4112 L
1082 4076 mt 1082 4148 L
1648 4613 mt 1720 4613 L
1684 4577 mt 1684 4649 L
 985 4495 mt 1057 4495 L
1021 4459 mt 1021 4531 L
1898 4505 mt 1970 4505 L
1934 4469 mt 1934 4541 L
2248 4575 mt 2320 4575 L
2284 4539 mt 2284 4611 L
2889 4290 mt 2961 4290 L
2925 4254 mt 2925 4326 L
 866 4614 mt  938 4614 L
 902 4578 mt  902 4650 L
1393 4445 mt 1465 4445 L
1429 4409 mt 1429 4481 L
1067 4329 mt 1139 4329 L
1103 4293 mt 1103 4365 L
1056 4276 mt 1128 4276 L
1092 4240 mt 1092 4312 L
1123 3794 mt 1195 3794 L
1159 3758 mt 1159 3830 L
4973 3231 mt 5045 3231 L
5009 3195 mt 5009 3267 L
 890 4585 mt  962 4585 L
 926 4549 mt  926 4621 L
1804 4344 mt 1876 4344 L
1840 4308 mt 1840 4380 L
1166 4603 mt 1238 4603 L
1202 4567 mt 1202 4639 L
2239  519 mt 2311  519 L
2275  483 mt 2275  555 L
 934 4450 mt 1006 4450 L
 970 4414 mt  970 4486 L
 922 3279 mt  994 3279 L
 958 3243 mt  958 3315 L
2530 4411 mt 2602 4411 L
2566 4375 mt 2566 4447 L
3810 4552 mt 3882 4552 L
3846 4516 mt 3846 4588 L
1776 4587 mt 1848 4587 L
1812 4551 mt 1812 4623 L
1648 2665 mt 1720 2665 L
1684 2629 mt 1684 2701 L
4579 4557 mt 4651 4557 L
4615 4521 mt 4615 4593 L
3060 4501 mt 3132 4501 L
3096 4465 mt 3096 4537 L
2124 4609 mt 2196 4609 L
2160 4573 mt 2160 4645 L
2666 4596 mt 2738 4596 L
2702 4560 mt 2702 4632 L
1003 4474 mt 1075 4474 L
1039 4438 mt 1039 4510 L
 870 4173 mt  942 4173 L
 906 4137 mt  906 4209 L
2692 3667 mt 2764 3667 L
2728 3631 mt 2728 3703 L
 863 4380 mt  935 4380 L
 899 4344 mt  899 4416 L
 872 4156 mt  944 4156 L
 908 4120 mt  908 4192 L
2383 4405 mt 2455 4405 L
2419 4369 mt 2419 4441 L
2743 4326 mt 2815 4326 L
2779 4290 mt 2779 4362 L
4906 4587 mt 4978 4587 L
4942 4551 mt 4942 4623 L
2627 4602 mt 2699 4602 L
2663 4566 mt 2663 4638 L
 872 4286 mt  944 4286 L
 908 4250 mt  908 4322 L
 863 4611 mt  935 4611 L
 899 4575 mt  899 4647 L
2467 3637 mt 2539 3637 L
2503 3601 mt 2503 3673 L
 900 4601 mt  972 4601 L
 936 4565 mt  936 4637 L
1773 4510 mt 1845 4510 L
1809 4474 mt 1809 4546 L
 991 4568 mt 1063 4568 L
1027 4532 mt 1027 4604 L
2084 4178 mt 2156 4178 L
2120 4142 mt 2120 4214 L
3489 2901 mt 3561 2901 L
3525 2865 mt 3525 2937 L
 873 4060 mt  945 4060 L
 909 4024 mt  909 4096 L
1282 3957 mt 1354 3957 L
1318 3921 mt 1318 3993 L
6204 2561 mt 6276 2561 L
6240 2525 mt 6240 2597 L
1174 4554 mt 1246 4554 L
1210 4518 mt 1210 4590 L
 903 4395 mt  975 4395 L
 939 4359 mt  939 4431 L
1410 4602 mt 1482 4602 L
1446 4566 mt 1446 4638 L
1567 4606 mt 1639 4606 L
1603 4570 mt 1603 4642 L
 939 4120 mt 1011 4120 L
 975 4084 mt  975 4156 L
 873 4567 mt  945 4567 L
 909 4531 mt  909 4603 L
1939 3618 mt 2011 3618 L
1975 3582 mt 1975 3654 L
1253 4469 mt 1325 4469 L
1289 4433 mt 1289 4505 L
2081 3878 mt 2153 3878 L
2117 3842 mt 2117 3914 L
1206 4399 mt 1278 4399 L
1242 4363 mt 1242 4435 L
2043 4250 mt 2115 4250 L
2079 4214 mt 2079 4286 L
1473 3062 mt 1545 3062 L
1509 3026 mt 1509 3098 L
 911 4288 mt  983 4288 L
 947 4252 mt  947 4324 L
1244 4345 mt 1316 4345 L
1280 4309 mt 1280 4381 L
1320 4449 mt 1392 4449 L
1356 4413 mt 1356 4485 L
1058 4550 mt 1130 4550 L
1094 4514 mt 1094 4586 L
2323 3619 mt 2395 3619 L
2359 3583 mt 2359 3655 L
1003 4585 mt 1075 4585 L
1039 4549 mt 1039 4621 L
2860 4393 mt 2932 4393 L
2896 4357 mt 2896 4429 L
2492 4610 mt 2564 4610 L
2528 4574 mt 2528 4646 L
1938 4347 mt 2010 4347 L
1974 4311 mt 1974 4383 L
1520 3140 mt 1592 3140 L
1556 3104 mt 1556 3176 L
1115 3776 mt 1187 3776 L
1151 3740 mt 1151 3812 L
 997 4264 mt 1069 4264 L
1033 4228 mt 1033 4300 L
 874 4316 mt  946 4316 L
 910 4280 mt  910 4352 L
 972 4381 mt 1044 4381 L
1008 4345 mt 1008 4417 L
1792 4361 mt 1864 4361 L
1828 4325 mt 1828 4397 L
 946 2189 mt 1018 2189 L
 982 2153 mt  982 2225 L
3096 4615 mt 3168 4615 L
3132 4579 mt 3132 4651 L
 878 4158 mt  950 4158 L
 914 4122 mt  914 4194 L
2505 4536 mt 2577 4536 L
2541 4500 mt 2541 4572 L
3729 4542 mt 3801 4542 L
3765 4506 mt 3765 4578 L
1278 4546 mt 1350 4546 L
1314 4510 mt 1314 4582 L
2797 4608 mt 2869 4608 L
2833 4572 mt 2833 4644 L
3271 4486 mt 3343 4486 L
3307 4450 mt 3307 4522 L
2103 4615 mt 2175 4615 L
2139 4579 mt 2139 4651 L
3744 4571 mt 3816 4571 L
3780 4535 mt 3780 4607 L
3342 4594 mt 3414 4594 L
3378 4558 mt 3378 4630 L
 881 2233 mt  953 2233 L
 917 2197 mt  917 2269 L
5659 3686 mt 5731 3686 L
5695 3650 mt 5695 3722 L
1593 3621 mt 1665 3621 L
1629 3585 mt 1629 3657 L
 949 3614 mt 1021 3614 L
 985 3578 mt  985 3650 L
 871 4202 mt  943 4202 L
 907 4166 mt  907 4238 L
1143 4037 mt 1215 4037 L
1179 4001 mt 1179 4073 L
1510 4560 mt 1582 4560 L
1546 4524 mt 1546 4596 L
1498 4544 mt 1570 4544 L
1534 4508 mt 1534 4580 L
1068 4169 mt 1140 4169 L
1104 4133 mt 1104 4205 L
1637 4273 mt 1709 4273 L
1673 4237 mt 1673 4309 L
3235 4587 mt 3307 4587 L
3271 4551 mt 3271 4623 L
 863 4561 mt  935 4561 L
 899 4525 mt  899 4597 L
 869 3988 mt  941 3988 L
 905 3952 mt  905 4024 L
1488 4440 mt 1560 4440 L
1524 4404 mt 1524 4476 L
1943 4598 mt 2015 4598 L
1979 4562 mt 1979 4634 L
4556 3269 mt 4628 3269 L
4592 3233 mt 4592 3305 L
1035 3773 mt 1107 3773 L
1071 3737 mt 1071 3809 L
3974 4595 mt 4046 4595 L
4010 4559 mt 4010 4631 L
2255 3474 mt 2327 3474 L
2291 3438 mt 2291 3510 L
1098 4216 mt 1170 4216 L
1134 4180 mt 1134 4252 L
 990 4037 mt 1062 4037 L
1026 4001 mt 1026 4073 L
2573 4406 mt 2645 4406 L
2609 4370 mt 2609 4442 L
1570 3966 mt 1642 3966 L
1606 3930 mt 1606 4002 L
1376 4607 mt 1448 4607 L
1412 4571 mt 1412 4643 L
1498 4571 mt 1570 4571 L
1534 4535 mt 1534 4607 L
1873 4403 mt 1945 4403 L
1909 4367 mt 1909 4439 L
1701 3347 mt 1773 3347 L
1737 3311 mt 1737 3383 L
 910 4242 mt  982 4242 L
 946 4206 mt  946 4278 L
3072 4298 mt 3144 4298 L
3108 4262 mt 3108 4334 L
1199 4551 mt 1271 4551 L
1235 4515 mt 1235 4587 L
1579 4614 mt 1651 4614 L
1615 4578 mt 1615 4650 L
1172 4204 mt 1244 4204 L
1208 4168 mt 1208 4240 L
2988 3423 mt 3060 3423 L
3024 3387 mt 3024 3459 L
1361 4511 mt 1433 4511 L
1397 4475 mt 1397 4547 L
 868 3783 mt  940 3783 L
 904 3747 mt  904 3819 L
4570 4102 mt 4642 4102 L
4606 4066 mt 4606 4138 L
1425 4330 mt 1497 4330 L
1461 4294 mt 1461 4366 L
2569 4428 mt 2641 4428 L
2605 4392 mt 2605 4464 L
 940 4308 mt 1012 4308 L
 976 4272 mt  976 4344 L
1323 4575 mt 1395 4575 L
1359 4539 mt 1359 4611 L
1211 4611 mt 1283 4611 L
1247 4575 mt 1247 4647 L
1418 4067 mt 1490 4067 L
1454 4031 mt 1454 4103 L
2254 4470 mt 2326 4470 L
2290 4434 mt 2290 4506 L
 988 4574 mt 1060 4574 L
1024 4538 mt 1024 4610 L
 880 4609 mt  952 4609 L
 916 4573 mt  916 4645 L
 977 4494 mt 1049 4494 L
1013 4458 mt 1013 4530 L
3026 4408 mt 3098 4408 L
3062 4372 mt 3062 4444 L
1775 4314 mt 1847 4314 L
1811 4278 mt 1811 4350 L
 909 4438 mt  981 4438 L
 945 4402 mt  945 4474 L
1011 4292 mt 1083 4292 L
1047 4256 mt 1047 4328 L
 951 4287 mt 1023 4287 L
 987 4251 mt  987 4323 L
gs 899 414 5363 4203 rc
gr

0 sg
2775 5104 mt 
(\(F,DCTb,GMM\)) s
 288 3300 mt  -90 rotate
(\(F,DCTb,iMLP\)) s
90 rotate
2905  223 mt 
(Corr = -0.03) s

end %%Color Dict

eplot
%%EndObject

epage
end

showpage

%%Trailer
%%EOF
