%!PS-Adobe-3.0 EPSF-3.0
%%Creator: MATLAB, The Mathworks, Inc. Version 7.7.0.471 (R2008b). Operating System: Microsoft Windows XP.
%%Title: Pictures\main_zoo_mvar_analysis_data_BMI_xcorr_bmi_p1_k2_1_5.eps
%%CreationDate: 10/26/2009  05:44:15
%%DocumentNeededFonts: Helvetica
%%DocumentProcessColors: Cyan Magenta Yellow Black
%%LanguageLevel: 2
%%Pages: 1
%%BoundingBox:    32   180   546   616
%%EndComments

%%BeginProlog
% MathWorks dictionary
/MathWorks 160 dict begin
% definition operators
/bdef {bind def} bind def
/ldef {load def} bind def
/xdef {exch def} bdef
/xstore {exch store} bdef
% operator abbreviations
/c  /clip ldef
/cc /concat ldef
/cp /closepath ldef
/gr /grestore ldef
/gs /gsave ldef
/mt /moveto ldef
/np /newpath ldef
/cm /currentmatrix ldef
/sm /setmatrix ldef
/rm /rmoveto ldef
/rl /rlineto ldef
/s {show newpath} bdef
/sc {setcmykcolor} bdef
/sr /setrgbcolor ldef
/sg /setgray ldef
/w /setlinewidth ldef
/j /setlinejoin ldef
/cap /setlinecap ldef
/rc {rectclip} bdef
/rf {rectfill} bdef
% page state control
/pgsv () def
/bpage {/pgsv save def} bdef
/epage {pgsv restore} bdef
/bplot /gsave ldef
/eplot {stroke grestore} bdef
% orientation switch
/portraitMode 0 def /landscapeMode 1 def /rotateMode 2 def
% coordinate system mappings
/dpi2point 0 def
% font control
/FontSize 0 def
/FMS {/FontSize xstore findfont [FontSize 0 0 FontSize neg 0 0]
  makefont setfont} bdef
/ISOLatin1Encoding where {pop /WindowsLatin1Encoding 256 array bdef
ISOLatin1Encoding WindowsLatin1Encoding copy pop
/.notdef/.notdef/quotesinglbase/florin/quotedblbase/ellipsis/dagger
/daggerdbl/circumflex/perthousand/Scaron/guilsinglleft/OE/.notdef/.notdef
/.notdef/.notdef/quoteleft/quoteright/quotedblleft/quotedblright/bullet
/endash/emdash/tilde/trademark/scaron/guilsinglright/oe/.notdef/.notdef
/Ydieresis WindowsLatin1Encoding 128 32 getinterval astore pop}
{/WindowsLatin1Encoding StandardEncoding bdef} ifelse
/reencode {exch dup where {pop load} {pop StandardEncoding} ifelse
  exch dup 3 1 roll findfont dup length dict begin
  { 1 index /FID ne {def}{pop pop} ifelse } forall
  /Encoding exch def currentdict end definefont pop} bdef
/isroman {findfont /CharStrings get /Agrave known} bdef
/FMSR {3 1 roll 1 index dup isroman {reencode} {pop pop} ifelse
  exch FMS} bdef
/csm {1 dpi2point div -1 dpi2point div scale neg translate
 dup landscapeMode eq {pop -90 rotate}
  {rotateMode eq {90 rotate} if} ifelse} bdef
% line types: solid, dotted, dashed, dotdash
/SO { [] 0 setdash } bdef
/DO { [.5 dpi2point mul 4 dpi2point mul] 0 setdash } bdef
/DA { [6 dpi2point mul] 0 setdash } bdef
/DD { [.5 dpi2point mul 4 dpi2point mul 6 dpi2point mul 4
  dpi2point mul] 0 setdash } bdef
% macros for lines and objects
/L {lineto stroke} bdef
/MP {3 1 roll moveto 1 sub {rlineto} repeat} bdef
/AP {{rlineto} repeat} bdef
/PDlw -1 def
/W {/PDlw currentlinewidth def setlinewidth} def
/PP {closepath eofill} bdef
/DP {closepath stroke} bdef
/MR {4 -2 roll moveto dup  0 exch rlineto exch 0 rlineto
  neg 0 exch rlineto closepath} bdef
/FR {MR stroke} bdef
/PR {MR fill} bdef
/L1i {{currentfile picstr readhexstring pop} image} bdef
/tMatrix matrix def
/MakeOval {newpath tMatrix currentmatrix pop translate scale
0 0 1 0 360 arc tMatrix setmatrix} bdef
/FO {MakeOval stroke} bdef
/PO {MakeOval fill} bdef
/PD {currentlinewidth 2 div 0 360 arc fill
   PDlw -1 eq not {PDlw w /PDlw -1 def} if} def
/FA {newpath tMatrix currentmatrix pop translate scale
  0 0 1 5 -2 roll arc tMatrix setmatrix stroke} bdef
/PA {newpath tMatrix currentmatrix pop	translate 0 0 moveto scale
  0 0 1 5 -2 roll arc closepath tMatrix setmatrix fill} bdef
/FAn {newpath tMatrix currentmatrix pop translate scale
  0 0 1 5 -2 roll arcn tMatrix setmatrix stroke} bdef
/PAn {newpath tMatrix currentmatrix pop translate 0 0 moveto scale
  0 0 1 5 -2 roll arcn closepath tMatrix setmatrix fill} bdef
/vradius 0 def /hradius 0 def /lry 0 def
/lrx 0 def /uly 0 def /ulx 0 def /rad 0 def
/MRR {/vradius xdef /hradius xdef /lry xdef /lrx xdef /uly xdef
  /ulx xdef newpath tMatrix currentmatrix pop ulx hradius add uly
  vradius add translate hradius vradius scale 0 0 1 180 270 arc 
  tMatrix setmatrix lrx hradius sub uly vradius add translate
  hradius vradius scale 0 0 1 270 360 arc tMatrix setmatrix
  lrx hradius sub lry vradius sub translate hradius vradius scale
  0 0 1 0 90 arc tMatrix setmatrix ulx hradius add lry vradius sub
  translate hradius vradius scale 0 0 1 90 180 arc tMatrix setmatrix
  closepath} bdef
/FRR {MRR stroke } bdef
/PRR {MRR fill } bdef
/MlrRR {/lry xdef /lrx xdef /uly xdef /ulx xdef /rad lry uly sub 2 div def
  newpath tMatrix currentmatrix pop ulx rad add uly rad add translate
  rad rad scale 0 0 1 90 270 arc tMatrix setmatrix lrx rad sub lry rad
  sub translate rad rad scale 0 0 1 270 90 arc tMatrix setmatrix
  closepath} bdef
/FlrRR {MlrRR stroke } bdef
/PlrRR {MlrRR fill } bdef
/MtbRR {/lry xdef /lrx xdef /uly xdef /ulx xdef /rad lrx ulx sub 2 div def
  newpath tMatrix currentmatrix pop ulx rad add uly rad add translate
  rad rad scale 0 0 1 180 360 arc tMatrix setmatrix lrx rad sub lry rad
  sub translate rad rad scale 0 0 1 0 180 arc tMatrix setmatrix
  closepath} bdef
/FtbRR {MtbRR stroke } bdef
/PtbRR {MtbRR fill } bdef
/stri 6 array def /dtri 6 array def
/smat 6 array def /dmat 6 array def
/tmat1 6 array def /tmat2 6 array def /dif 3 array def
/asub {/ind2 exch def /ind1 exch def dup dup
  ind1 get exch ind2 get sub exch } bdef
/tri_to_matrix {
  2 0 asub 3 1 asub 4 0 asub 5 1 asub
  dup 0 get exch 1 get 7 -1 roll astore } bdef
/compute_transform {
  dmat dtri tri_to_matrix tmat1 invertmatrix 
  smat stri tri_to_matrix tmat2 concatmatrix } bdef
/ds {stri astore pop} bdef
/dt {dtri astore pop} bdef
/db {2 copy /cols xdef /rows xdef mul dup 3 mul string
  currentfile 
  3 index 0 eq {/ASCIIHexDecode filter}
  {/ASCII85Decode filter 3 index 2 eq {/RunLengthDecode filter} if }
  ifelse exch readstring pop
  dup 0 3 index getinterval /rbmap xdef
  dup 2 index dup getinterval /gbmap xdef
  1 index dup 2 mul exch getinterval /bbmap xdef pop pop}bdef
/it {gs np dtri aload pop moveto lineto lineto cp c
  cols rows 8 compute_transform 
  rbmap gbmap bbmap true 3 colorimage gr}bdef
/il {newpath moveto lineto stroke}bdef
currentdict end def
%%EndProlog

%%BeginSetup
MathWorks begin

0 cap

end
%%EndSetup

%%Page: 1 1
%%BeginPageSetup
%%PageBoundingBox:    32   180   546   616
MathWorks begin
bpage
%%EndPageSetup

%%BeginObject: obj1
bplot

/dpi2point 12 def
portraitMode 0216 7344 csm

  174   -48  6173  5231 rc
85 dict begin %Colortable dictionary
/c0 { 0.000000 0.000000 0.000000 sr} bdef
/c1 { 1.000000 1.000000 1.000000 sr} bdef
/c2 { 0.900000 0.000000 0.000000 sr} bdef
/c3 { 0.000000 0.820000 0.000000 sr} bdef
/c4 { 0.000000 0.000000 0.800000 sr} bdef
/c5 { 0.910000 0.820000 0.320000 sr} bdef
/c6 { 1.000000 0.260000 0.820000 sr} bdef
/c7 { 0.000000 0.820000 0.820000 sr} bdef
c0
1 j
1 sg
   0    0 6919 5187 rf
6 w
0 4202 5362 0 0 -4202 899 4616 4 MP
PP
-5362 0 0 4202 5362 0 0 -4202 899 4616 5 MP stroke
4 w
DO
SO
6 w
0 sg
 899  414 mt 6261  414 L
 899 4616 mt 6261 4616 L
6261 4616 mt 6261  414 L
 899 4616 mt  899  414 L
 899 4616 mt 6261 4616 L
 899 4616 mt  899  414 L
1971 4616 mt 1971 4562 L
1971  414 mt 1971  467 L
%%IncludeResource: font Helvetica
/Helvetica /WindowsLatin1Encoding 240 FMSR

1805 4873 mt 
(0.2) s
3043 4616 mt 3043 4562 L
3043  414 mt 3043  467 L
2877 4873 mt 
(0.4) s
4116 4616 mt 4116 4562 L
4116  414 mt 4116  467 L
3950 4873 mt 
(0.6) s
5188 4616 mt 5188 4562 L
5188  414 mt 5188  467 L
5022 4873 mt 
(0.8) s
 899 4195 mt  952 4195 L
6261 4195 mt 6207 4195 L
 531 4284 mt 
(0.1) s
 899 3775 mt  952 3775 L
6261 3775 mt 6207 3775 L
 531 3864 mt 
(0.2) s
 899 3355 mt  952 3355 L
6261 3355 mt 6207 3355 L
 531 3444 mt 
(0.3) s
 899 2935 mt  952 2935 L
6261 2935 mt 6207 2935 L
 531 3024 mt 
(0.4) s
 899 2515 mt  952 2515 L
6261 2515 mt 6207 2515 L
 531 2604 mt 
(0.5) s
 899 2094 mt  952 2094 L
6261 2094 mt 6207 2094 L
 531 2183 mt 
(0.6) s
 899 1674 mt  952 1674 L
6261 1674 mt 6207 1674 L
 531 1763 mt 
(0.7) s
 899 1254 mt  952 1254 L
6261 1254 mt 6207 1254 L
 531 1343 mt 
(0.8) s
 899  834 mt  952  834 L
6261  834 mt 6207  834 L
 531  923 mt 
(0.9) s
 899  414 mt 6261  414 L
 899 4616 mt 6261 4616 L
6261 4616 mt 6261  414 L
 899 4616 mt  899  414 L
gs 899 414 5363 4203 rc
gr

/c8 { 0.000000 0.000000 1.000000 sr} bdef
c8
5711  969 mt 5783  969 L
5747  933 mt 5747 1005 L
6170 2020 mt 6242 2020 L
6206 1984 mt 6206 2056 L
1538  662 mt 1610  662 L
1574  626 mt 1574  698 L
1040 1720 mt 1112 1720 L
1076 1684 mt 1076 1756 L
5197 1474 mt 5269 1474 L
5233 1438 mt 5233 1510 L
1063  517 mt 1135  517 L
1099  481 mt 1099  553 L
 864 4302 mt  936 4302 L
 900 4266 mt  900 4338 L
5223 3838 mt 5295 3838 L
5259 3802 mt 5259 3874 L
5098 4261 mt 5170 4261 L
5134 4225 mt 5134 4297 L
6173  419 mt 6245  419 L
6209  383 mt 6209  455 L
1044 4502 mt 1116 4502 L
1080 4466 mt 1080 4538 L
4160 1122 mt 4232 1122 L
4196 1086 mt 4196 1158 L
6191  454 mt 6263  454 L
6227  418 mt 6227  490 L
3007 1246 mt 3079 1246 L
3043 1210 mt 3043 1282 L
6104  420 mt 6176  420 L
6140  384 mt 6140  456 L
3711 3117 mt 3783 3117 L
3747 3081 mt 3747 3153 L
4390 2335 mt 4462 2335 L
4426 2299 mt 4426 2371 L
5397 1617 mt 5469 1617 L
5433 1581 mt 5433 1653 L
6060 2334 mt 6132 2334 L
6096 2298 mt 6096 2370 L
4636 2078 mt 4708 2078 L
4672 2042 mt 4672 2114 L
1303 1491 mt 1375 1491 L
1339 1455 mt 1339 1527 L
5038 1074 mt 5110 1074 L
5074 1038 mt 5074 1110 L
1035 3849 mt 1107 3849 L
1071 3813 mt 1071 3885 L
1800 1293 mt 1872 1293 L
1836 1257 mt 1836 1329 L
5740  417 mt 5812  417 L
5776  381 mt 5776  453 L
3523  520 mt 3595  520 L
3559  484 mt 3559  556 L
1092 1819 mt 1164 1819 L
1128 1783 mt 1128 1855 L
4803  448 mt 4875  448 L
4839  412 mt 4839  484 L
4217 4197 mt 4289 4197 L
4253 4161 mt 4253 4233 L
5194 4090 mt 5266 4090 L
5230 4054 mt 5230 4126 L
 907 1317 mt  979 1317 L
 943 1281 mt  943 1353 L
2766 4328 mt 2838 4328 L
2802 4292 mt 2802 4364 L
 961 4450 mt 1033 4450 L
 997 4414 mt  997 4486 L
3180 2043 mt 3252 2043 L
3216 2007 mt 3216 2079 L
3180  715 mt 3252  715 L
3216  679 mt 3216  751 L
3852 3727 mt 3924 3727 L
3888 3691 mt 3888 3763 L
4663 3995 mt 4735 3995 L
4699 3959 mt 4699 4031 L
 940 1926 mt 1012 1926 L
 976 1890 mt  976 1962 L
2473  615 mt 2545  615 L
2509  579 mt 2509  651 L
2619 3876 mt 2691 3876 L
2655 3840 mt 2655 3912 L
3905  534 mt 3977  534 L
3941  498 mt 3941  570 L
5778  435 mt 5850  435 L
5814  399 mt 5814  471 L
6222  523 mt 6294  523 L
6258  487 mt 6258  559 L
4214 1993 mt 4286 1993 L
4250 1957 mt 4250 2029 L
6050 1168 mt 6122 1168 L
6086 1132 mt 6086 1204 L
3498  695 mt 3570  695 L
3534  659 mt 3534  731 L
2940 3636 mt 3012 3636 L
2976 3600 mt 2976 3672 L
5549 2124 mt 5621 2124 L
5585 2088 mt 5585 2160 L
1041 1145 mt 1113 1145 L
1077 1109 mt 1077 1181 L
5607  453 mt 5679  453 L
5643  417 mt 5643  489 L
1610 2545 mt 1682 2545 L
1646 2509 mt 1646 2581 L
4620 3542 mt 4692 3542 L
4656 3506 mt 4656 3578 L
4842 1377 mt 4914 1377 L
4878 1341 mt 4878 1413 L
5380 2864 mt 5452 2864 L
5416 2828 mt 5416 2900 L
4579 3133 mt 4651 3133 L
4615 3097 mt 4615 3169 L
4239 1798 mt 4311 1798 L
4275 1762 mt 4275 1834 L
2372 4332 mt 2444 4332 L
2408 4296 mt 2408 4368 L
5971  433 mt 6043  433 L
6007  397 mt 6007  469 L
1830 4615 mt 1902 4615 L
1866 4579 mt 1866 4651 L
5677  452 mt 5749  452 L
5713  416 mt 5713  488 L
2918 1618 mt 2990 1618 L
2954 1582 mt 2954 1654 L
 927 4568 mt  999 4568 L
 963 4532 mt  963 4604 L
3256  816 mt 3328  816 L
3292  780 mt 3292  852 L
6194 2280 mt 6266 2280 L
6230 2244 mt 6230 2316 L
5370 4338 mt 5442 4338 L
5406 4302 mt 5406 4374 L
5131  456 mt 5203  456 L
5167  420 mt 5167  492 L
3962 2225 mt 4034 2225 L
3998 2189 mt 3998 2261 L
2036 1080 mt 2108 1080 L
2072 1044 mt 2072 1116 L
5446 4085 mt 5518 4085 L
5482 4049 mt 5482 4121 L
 971 3035 mt 1043 3035 L
1007 2999 mt 1007 3071 L
1359 1454 mt 1431 1454 L
1395 1418 mt 1395 1490 L
6163  438 mt 6235  438 L
6199  402 mt 6199  474 L
5817 4444 mt 5889 4444 L
5853 4408 mt 5853 4480 L
1293 3286 mt 1365 3286 L
1329 3250 mt 1329 3322 L
 863 4500 mt  935 4500 L
 899 4464 mt  899 4536 L
2723 4046 mt 2795 4046 L
2759 4010 mt 2759 4082 L
6008 2418 mt 6080 2418 L
6044 2382 mt 6044 2454 L
1168  771 mt 1240  771 L
1204  735 mt 1204  807 L
1296  501 mt 1368  501 L
1332  465 mt 1332  537 L
5794 4616 mt 5866 4616 L
5830 4580 mt 5830 4652 L
3873 4608 mt 3945 4608 L
3909 4572 mt 3909 4644 L
2098 3227 mt 2170 3227 L
2134 3191 mt 2134 3263 L
5464 3147 mt 5536 3147 L
5500 3111 mt 5500 3183 L
4624 1108 mt 4696 1108 L
4660 1072 mt 4660 1144 L
5846 2260 mt 5918 2260 L
5882 2224 mt 5882 2296 L
5544 3917 mt 5616 3917 L
5580 3881 mt 5580 3953 L
3068 1894 mt 3140 1894 L
3104 1858 mt 3104 1930 L
2757  534 mt 2829  534 L
2793  498 mt 2793  570 L
5227  805 mt 5299  805 L
5263  769 mt 5263  841 L
1016  531 mt 1088  531 L
1052  495 mt 1052  567 L
2792 4577 mt 2864 4577 L
2828 4541 mt 2828 4613 L
6062  530 mt 6134  530 L
6098  494 mt 6098  566 L
1838 3679 mt 1910 3679 L
1874 3643 mt 1874 3715 L
 993 3497 mt 1065 3497 L
1029 3461 mt 1029 3533 L
2582 4027 mt 2654 4027 L
2618 3991 mt 2618 4063 L
 963  426 mt 1035  426 L
 999  390 mt  999  462 L
5110 1755 mt 5182 1755 L
5146 1719 mt 5146 1791 L
4747 4610 mt 4819 4610 L
4783 4574 mt 4783 4646 L
1945 4388 mt 2017 4388 L
1981 4352 mt 1981 4424 L
 945  505 mt 1017  505 L
 981  469 mt  981  541 L
5880  443 mt 5952  443 L
5916  407 mt 5916  479 L
1619  429 mt 1691  429 L
1655  393 mt 1655  465 L
2589 2281 mt 2661 2281 L
2625 2245 mt 2625 2317 L
 894 4409 mt  966 4409 L
 930 4373 mt  930 4445 L
 927 3152 mt  999 3152 L
 963 3116 mt  963 3188 L
1550  461 mt 1622  461 L
1586  425 mt 1586  497 L
4091  666 mt 4163  666 L
4127  630 mt 4127  702 L
1660  470 mt 1732  470 L
1696  434 mt 1696  506 L
 925 2967 mt  997 2967 L
 961 2931 mt  961 3003 L
3721  993 mt 3793  993 L
3757  957 mt 3757 1029 L
4849  470 mt 4921  470 L
4885  434 mt 4885  506 L
2299  815 mt 2371  815 L
2335  779 mt 2335  851 L
 950 4088 mt 1022 4088 L
 986 4052 mt  986 4124 L
6207 1473 mt 6279 1473 L
6243 1437 mt 6243 1509 L
1040 3956 mt 1112 3956 L
1076 3920 mt 1076 3992 L
5206 2510 mt 5278 2510 L
5242 2474 mt 5242 2546 L
3564  644 mt 3636  644 L
3600  608 mt 3600  680 L
1046  440 mt 1118  440 L
1082  404 mt 1082  476 L
2161 2888 mt 2233 2888 L
2197 2852 mt 2197 2924 L
 864 4360 mt  936 4360 L
 900 4324 mt  900 4396 L
4474 1210 mt 4546 1210 L
4510 1174 mt 4510 1246 L
5970 1783 mt 6042 1783 L
6006 1747 mt 6006 1819 L
5201 2976 mt 5273 2976 L
5237 2940 mt 5237 3012 L
4632 1970 mt 4704 1970 L
4668 1934 mt 4668 2006 L
 880 4031 mt  952 4031 L
 916 3995 mt  916 4067 L
5709  417 mt 5781  417 L
5745  381 mt 5745  453 L
 886 4038 mt  958 4038 L
 922 4002 mt  922 4074 L
1401 1699 mt 1473 1699 L
1437 1663 mt 1437 1735 L
2622  549 mt 2694  549 L
2658  513 mt 2658  585 L
1799 4371 mt 1871 4371 L
1835 4335 mt 1835 4407 L
6022  448 mt 6094  448 L
6058  412 mt 6058  484 L
5965 1013 mt 6037 1013 L
6001  977 mt 6001 1049 L
3854  479 mt 3926  479 L
3890  443 mt 3890  515 L
2904 1431 mt 2976 1431 L
2940 1395 mt 2940 1467 L
1900 3660 mt 1972 3660 L
1936 3624 mt 1936 3696 L
3761 1035 mt 3833 1035 L
3797  999 mt 3797 1071 L
1620 4433 mt 1692 4433 L
1656 4397 mt 1656 4469 L
6163  468 mt 6235  468 L
6199  432 mt 6199  504 L
1867 3079 mt 1939 3079 L
1903 3043 mt 1903 3115 L
4826 3281 mt 4898 3281 L
4862 3245 mt 4862 3317 L
5360 3919 mt 5432 3919 L
5396 3883 mt 5396 3955 L
5983  687 mt 6055  687 L
6019  651 mt 6019  723 L
1376 1406 mt 1448 1406 L
1412 1370 mt 1412 1442 L
2127 1821 mt 2199 1821 L
2163 1785 mt 2163 1857 L
5120 2928 mt 5192 2928 L
5156 2892 mt 5156 2964 L
5697  423 mt 5769  423 L
5733  387 mt 5733  459 L
 884 2156 mt  956 2156 L
 920 2120 mt  920 2192 L
 863 4362 mt  935 4362 L
 899 4326 mt  899 4398 L
2436 2364 mt 2508 2364 L
2472 2328 mt 2472 2400 L
3379 2495 mt 3451 2495 L
3415 2459 mt 3415 2531 L
 908 3816 mt  980 3816 L
 944 3780 mt  944 3852 L
5547 3669 mt 5619 3669 L
5583 3633 mt 5583 3705 L
1101 4586 mt 1173 4586 L
1137 4550 mt 1137 4622 L
1354 4513 mt 1426 4513 L
1390 4477 mt 1390 4549 L
4585 2301 mt 4657 2301 L
4621 2265 mt 4621 2337 L
 990 2476 mt 1062 2476 L
1026 2440 mt 1026 2512 L
3519 1507 mt 3591 1507 L
3555 1471 mt 3555 1543 L
6111 3177 mt 6183 3177 L
6147 3141 mt 6147 3213 L
1164  539 mt 1236  539 L
1200  503 mt 1200  575 L
6060  531 mt 6132  531 L
6096  495 mt 6096  567 L
4165  642 mt 4237  642 L
4201  606 mt 4201  678 L
1343 4606 mt 1415 4606 L
1379 4570 mt 1379 4642 L
1653 4394 mt 1725 4394 L
1689 4358 mt 1689 4430 L
5704 3782 mt 5776 3782 L
5740 3746 mt 5740 3818 L
3663 4306 mt 3735 4306 L
3699 4270 mt 3699 4342 L
1001 3778 mt 1073 3778 L
1037 3742 mt 1037 3814 L
1288 2343 mt 1360 2343 L
1324 2307 mt 1324 2379 L
6194  429 mt 6266  429 L
6230  393 mt 6230  465 L
1350 1048 mt 1422 1048 L
1386 1012 mt 1386 1084 L
5870  570 mt 5942  570 L
5906  534 mt 5906  606 L
2321 1945 mt 2393 1945 L
2357 1909 mt 2357 1981 L
3693 4596 mt 3765 4596 L
3729 4560 mt 3729 4632 L
1161  746 mt 1233  746 L
1197  710 mt 1197  782 L
3572 3981 mt 3644 3981 L
3608 3945 mt 3608 4017 L
5169 4291 mt 5241 4291 L
5205 4255 mt 5205 4327 L
2340  656 mt 2412  656 L
2376  620 mt 2376  692 L
4999  698 mt 5071  698 L
5035  662 mt 5035  734 L
5649 4007 mt 5721 4007 L
5685 3971 mt 5685 4043 L
2013 4611 mt 2085 4611 L
2049 4575 mt 2049 4647 L
2820 1179 mt 2892 1179 L
2856 1143 mt 2856 1215 L
1411  482 mt 1483  482 L
1447  446 mt 1447  518 L
5571 1607 mt 5643 1607 L
5607 1571 mt 5607 1643 L
2520 3301 mt 2592 3301 L
2556 3265 mt 2556 3337 L
1254 4504 mt 1326 4504 L
1290 4468 mt 1290 4540 L
6065 1768 mt 6137 1768 L
6101 1732 mt 6101 1804 L
1035 3796 mt 1107 3796 L
1071 3760 mt 1071 3832 L
6154 1420 mt 6226 1420 L
6190 1384 mt 6190 1456 L
2914 1982 mt 2986 1982 L
2950 1946 mt 2950 2018 L
6111  933 mt 6183  933 L
6147  897 mt 6147  969 L
5448  873 mt 5520  873 L
5484  837 mt 5484  909 L
2307 3631 mt 2379 3631 L
2343 3595 mt 2343 3667 L
5109 4505 mt 5181 4505 L
5145 4469 mt 5145 4541 L
6215  436 mt 6287  436 L
6251  400 mt 6251  472 L
6211  415 mt 6283  415 L
6247  379 mt 6247  451 L
3874  927 mt 3946  927 L
3910  891 mt 3910  963 L
 868  668 mt  940  668 L
 904  632 mt  904  704 L
5426 3879 mt 5498 3879 L
5462 3843 mt 5462 3915 L
4968 3448 mt 5040 3448 L
5004 3412 mt 5004 3484 L
4738 3447 mt 4810 3447 L
4774 3411 mt 4774 3483 L
4677  419 mt 4749  419 L
4713  383 mt 4713  455 L
6199  426 mt 6271  426 L
6235  390 mt 6235  462 L
4534  452 mt 4606  452 L
4570  416 mt 4570  488 L
6218  606 mt 6290  606 L
6254  570 mt 6254  642 L
3364 1209 mt 3436 1209 L
3400 1173 mt 3400 1245 L
3515 1150 mt 3587 1150 L
3551 1114 mt 3551 1186 L
6171  480 mt 6243  480 L
6207  444 mt 6207  516 L
6219  424 mt 6291  424 L
6255  388 mt 6255  460 L
5635 1142 mt 5707 1142 L
5671 1106 mt 5671 1178 L
1420  419 mt 1492  419 L
1456  383 mt 1456  455 L
1553 3697 mt 1625 3697 L
1589 3661 mt 1589 3733 L
2432 4201 mt 2504 4201 L
2468 4165 mt 2468 4237 L
6219  426 mt 6291  426 L
6255  390 mt 6255  462 L
5620 1687 mt 5692 1687 L
5656 1651 mt 5656 1723 L
3007  421 mt 3079  421 L
3043  385 mt 3043  457 L
 868  507 mt  940  507 L
 904  471 mt  904  543 L
6010 2255 mt 6082 2255 L
6046 2219 mt 6046 2291 L
5291  519 mt 5363  519 L
5327  483 mt 5327  555 L
6203  878 mt 6275  878 L
6239  842 mt 6239  914 L
6217  415 mt 6289  415 L
6253  379 mt 6253  451 L
4887  956 mt 4959  956 L
4923  920 mt 4923  992 L
1903 4472 mt 1975 4472 L
1939 4436 mt 1939 4508 L
1555 3572 mt 1627 3572 L
1591 3536 mt 1591 3608 L
5063  469 mt 5135  469 L
5099  433 mt 5099  505 L
 886  422 mt  958  422 L
 922  386 mt  922  458 L
6216  419 mt 6288  419 L
6252  383 mt 6252  455 L
2994 1487 mt 3066 1487 L
3030 1451 mt 3030 1523 L
2114 3679 mt 2186 3679 L
2150 3643 mt 2150 3715 L
2705 3694 mt 2777 3694 L
2741 3658 mt 2741 3730 L
5541  502 mt 5613  502 L
5577  466 mt 5577  538 L
6220 4090 mt 6292 4090 L
6256 4054 mt 6256 4126 L
3137 4615 mt 3209 4615 L
3173 4579 mt 3173 4651 L
2672  439 mt 2744  439 L
2708  403 mt 2708  475 L
4751  419 mt 4823  419 L
4787  383 mt 4787  455 L
4823 4543 mt 4895 4543 L
4859 4507 mt 4859 4579 L
 868 2844 mt  940 2844 L
 904 2808 mt  904 2880 L
5351  414 mt 5423  414 L
5387  378 mt 5387  450 L
4878  414 mt 4950  414 L
4914  378 mt 4914  450 L
1311 1580 mt 1383 1580 L
1347 1544 mt 1347 1616 L
6144 2793 mt 6216 2793 L
6180 2757 mt 6180 2829 L
3948 2575 mt 4020 2575 L
3984 2539 mt 3984 2611 L
6209  942 mt 6281  942 L
6245  906 mt 6245  978 L
6203  425 mt 6275  425 L
6239  389 mt 6239  461 L
6224  439 mt 6296  439 L
6260  403 mt 6260  475 L
5930  473 mt 6002  473 L
5966  437 mt 5966  509 L
6200  502 mt 6272  502 L
6236  466 mt 6236  538 L
4633  454 mt 4705  454 L
4669  418 mt 4669  490 L
3165 2652 mt 3237 2652 L
3201 2616 mt 3201 2688 L
1836 4438 mt 1908 4438 L
1872 4402 mt 1872 4474 L
 865 3189 mt  937 3189 L
 901 3153 mt  901 3225 L
1071 4277 mt 1143 4277 L
1107 4241 mt 1107 4313 L
1432  697 mt 1504  697 L
1468  661 mt 1468  733 L
1019 3765 mt 1091 3765 L
1055 3729 mt 1055 3801 L
1868 1541 mt 1940 1541 L
1904 1505 mt 1904 1577 L
6095  439 mt 6167  439 L
6131  403 mt 6131  475 L
2806 3763 mt 2878 3763 L
2842 3727 mt 2842 3799 L
6162 2630 mt 6234 2630 L
6198 2594 mt 6198 2666 L
5857  444 mt 5929  444 L
5893  408 mt 5893  480 L
4893  477 mt 4965  477 L
4929  441 mt 4929  513 L
5374  420 mt 5446  420 L
5410  384 mt 5410  456 L
3029  740 mt 3101  740 L
3065  704 mt 3065  776 L
4505  887 mt 4577  887 L
4541  851 mt 4541  923 L
6133  548 mt 6205  548 L
6169  512 mt 6169  584 L
 871 4601 mt  943 4601 L
 907 4565 mt  907 4637 L
5645 4587 mt 5717 4587 L
5681 4551 mt 5681 4623 L
 872  442 mt  944  442 L
 908  406 mt  908  478 L
3303  466 mt 3375  466 L
3339  430 mt 3339  502 L
5829 2371 mt 5901 2371 L
5865 2335 mt 5865 2407 L
2408 3156 mt 2480 3156 L
2444 3120 mt 2444 3192 L
 937 4132 mt 1009 4132 L
 973 4096 mt  973 4168 L
1857  902 mt 1929  902 L
1893  866 mt 1893  938 L
5713  417 mt 5785  417 L
5749  381 mt 5749  453 L
5058  594 mt 5130  594 L
5094  558 mt 5094  630 L
6215  493 mt 6287  493 L
6251  457 mt 6251  529 L
1590 3415 mt 1662 3415 L
1626 3379 mt 1626 3451 L
2387 1309 mt 2459 1309 L
2423 1273 mt 2423 1345 L
1694  448 mt 1766  448 L
1730  412 mt 1730  484 L
6060  446 mt 6132  446 L
6096  410 mt 6096  482 L
 958 3366 mt 1030 3366 L
 994 3330 mt  994 3402 L
1972  537 mt 2044  537 L
2008  501 mt 2008  573 L
4628  506 mt 4700  506 L
4664  470 mt 4664  542 L
6219  440 mt 6291  440 L
6255  404 mt 6255  476 L
 905 4323 mt  977 4323 L
 941 4287 mt  941 4359 L
6220 2013 mt 6292 2013 L
6256 1977 mt 6256 2049 L
4119  588 mt 4191  588 L
4155  552 mt 4155  624 L
6208 4424 mt 6280 4424 L
6244 4388 mt 6244 4460 L
 983  551 mt 1055  551 L
1019  515 mt 1019  587 L
1296  516 mt 1368  516 L
1332  480 mt 1332  552 L
5900  690 mt 5972  690 L
5936  654 mt 5936  726 L
3116 3929 mt 3188 3929 L
3152 3893 mt 3152 3965 L
3875  480 mt 3947  480 L
3911  444 mt 3911  516 L
4310  557 mt 4382  557 L
4346  521 mt 4346  593 L
6154  642 mt 6226  642 L
6190  606 mt 6190  678 L
 934  473 mt 1006  473 L
 970  437 mt  970  509 L
 864 4290 mt  936 4290 L
 900 4254 mt  900 4326 L
2890 1022 mt 2962 1022 L
2926  986 mt 2926 1058 L
5334  414 mt 5406  414 L
5370  378 mt 5370  450 L
6225  745 mt 6297  745 L
6261  709 mt 6261  781 L
3531 3467 mt 3603 3467 L
3567 3431 mt 3567 3503 L
1039 1607 mt 1111 1607 L
1075 1571 mt 1075 1643 L
4377  442 mt 4449  442 L
4413  406 mt 4413  478 L
5340  414 mt 5412  414 L
5376  378 mt 5376  450 L
6201 2971 mt 6273 2971 L
6237 2935 mt 6237 3007 L
5565  414 mt 5637  414 L
5601  378 mt 5601  450 L
3411 3895 mt 3483 3895 L
3447 3859 mt 3447 3931 L
3161 3405 mt 3233 3405 L
3197 3369 mt 3197 3441 L
 878  414 mt  950  414 L
 914  378 mt  914  450 L
5914  423 mt 5986  423 L
5950  387 mt 5950  459 L
6210 3795 mt 6282 3795 L
6246 3759 mt 6246 3831 L
5595 3952 mt 5667 3952 L
5631 3916 mt 5631 3988 L
5872  494 mt 5944  494 L
5908  458 mt 5908  530 L
5977 3359 mt 6049 3359 L
6013 3323 mt 6013 3395 L
1058  601 mt 1130  601 L
1094  565 mt 1094  637 L
2517  465 mt 2589  465 L
2553  429 mt 2553  501 L
1669 3696 mt 1741 3696 L
1705 3660 mt 1705 3732 L
1300  450 mt 1372  450 L
1336  414 mt 1336  486 L
 994 1732 mt 1066 1732 L
1030 1696 mt 1030 1768 L
5951  416 mt 6023  416 L
5987  380 mt 5987  452 L
4182  781 mt 4254  781 L
4218  745 mt 4218  817 L
6087 2423 mt 6159 2423 L
6123 2387 mt 6123 2459 L
2531 2913 mt 2603 2913 L
2567 2877 mt 2567 2949 L
6028  417 mt 6100  417 L
6064  381 mt 6064  453 L
3230 2940 mt 3302 2940 L
3266 2904 mt 3266 2976 L
2897 2965 mt 2969 2965 L
2933 2929 mt 2933 3001 L
5995  424 mt 6067  424 L
6031  388 mt 6031  460 L
1654  417 mt 1726  417 L
1690  381 mt 1690  453 L
2390  448 mt 2462  448 L
2426  412 mt 2426  484 L
5265 4159 mt 5337 4159 L
5301 4123 mt 5301 4195 L
6085 2225 mt 6157 2225 L
6121 2189 mt 6121 2261 L
4089  808 mt 4161  808 L
4125  772 mt 4125  844 L
1640 4583 mt 1712 4583 L
1676 4547 mt 1676 4619 L
6126  431 mt 6198  431 L
6162  395 mt 6162  467 L
1656 3346 mt 1728 3346 L
1692 3310 mt 1692 3382 L
6223  438 mt 6295  438 L
6259  402 mt 6259  474 L
 958 3073 mt 1030 3073 L
 994 3037 mt  994 3109 L
4403  687 mt 4475  687 L
4439  651 mt 4439  723 L
5060  659 mt 5132  659 L
5096  623 mt 5096  695 L
3554 2815 mt 3626 2815 L
3590 2779 mt 3590 2851 L
6207  495 mt 6279  495 L
6243  459 mt 6243  531 L
4275  472 mt 4347  472 L
4311  436 mt 4311  508 L
3907  424 mt 3979  424 L
3943  388 mt 3943  460 L
6212 4602 mt 6284 4602 L
6248 4566 mt 6248 4638 L
6184  415 mt 6256  415 L
6220  379 mt 6220  451 L
4648  425 mt 4720  425 L
4684  389 mt 4684  461 L
1181 4275 mt 1253 4275 L
1217 4239 mt 1217 4311 L
5602  824 mt 5674  824 L
5638  788 mt 5638  860 L
5478 4491 mt 5550 4491 L
5514 4455 mt 5514 4527 L
 912 4061 mt  984 4061 L
 948 4025 mt  948 4097 L
1285 3557 mt 1357 3557 L
1321 3521 mt 1321 3593 L
3357 3961 mt 3429 3961 L
3393 3925 mt 3393 3997 L
2314 4583 mt 2386 4583 L
2350 4547 mt 2350 4619 L
 883 4271 mt  955 4271 L
 919 4235 mt  919 4307 L
3368 2670 mt 3440 2670 L
3404 2634 mt 3404 2706 L
 863 4450 mt  935 4450 L
 899 4414 mt  899 4486 L
1180  416 mt 1252  416 L
1216  380 mt 1216  452 L
1996 3426 mt 2068 3426 L
2032 3390 mt 2032 3462 L
5320  443 mt 5392  443 L
5356  407 mt 5356  479 L
3854  417 mt 3926  417 L
3890  381 mt 3890  453 L
3447  658 mt 3519  658 L
3483  622 mt 3483  694 L
2063 2315 mt 2135 2315 L
2099 2279 mt 2099 2351 L
2549 1972 mt 2621 1972 L
2585 1936 mt 2585 2008 L
5963 1224 mt 6035 1224 L
5999 1188 mt 5999 1260 L
6088 1188 mt 6160 1188 L
6124 1152 mt 6124 1224 L
 874 1243 mt  946 1243 L
 910 1207 mt  910 1279 L
5992 1745 mt 6064 1745 L
6028 1709 mt 6028 1781 L
6165 4466 mt 6237 4466 L
6201 4430 mt 6201 4502 L
5655 2376 mt 5727 2376 L
5691 2340 mt 5691 2412 L
4838 1731 mt 4910 1731 L
4874 1695 mt 4874 1767 L
2987 4193 mt 3059 4193 L
3023 4157 mt 3023 4229 L
5000  416 mt 5072  416 L
5036  380 mt 5036  452 L
1158  489 mt 1230  489 L
1194  453 mt 1194  525 L
4696  605 mt 4768  605 L
4732  569 mt 4732  641 L
6111  430 mt 6183  430 L
6147  394 mt 6147  466 L
2117  692 mt 2189  692 L
2153  656 mt 2153  728 L
3816  495 mt 3888  495 L
3852  459 mt 3852  531 L
1031 1389 mt 1103 1389 L
1067 1353 mt 1067 1425 L
1678 4407 mt 1750 4407 L
1714 4371 mt 1714 4443 L
1109 4614 mt 1181 4614 L
1145 4578 mt 1145 4650 L
5449  464 mt 5521  464 L
5485  428 mt 5485  500 L
2743 3310 mt 2815 3310 L
2779 3274 mt 2779 3346 L
1423 1722 mt 1495 1722 L
1459 1686 mt 1459 1758 L
 895  417 mt  967  417 L
 931  381 mt  931  453 L
2558 4612 mt 2630 4612 L
2594 4576 mt 2594 4648 L
1890  428 mt 1962  428 L
1926  392 mt 1926  464 L
6181  443 mt 6253  443 L
6217  407 mt 6217  479 L
1517 4415 mt 1589 4415 L
1553 4379 mt 1553 4451 L
5965  457 mt 6037  457 L
6001  421 mt 6001  493 L
4160 1483 mt 4232 1483 L
4196 1447 mt 4196 1519 L
 950 4575 mt 1022 4575 L
 986 4539 mt  986 4611 L
3380 3337 mt 3452 3337 L
3416 3301 mt 3416 3373 L
2078  561 mt 2150  561 L
2114  525 mt 2114  597 L
2784 1747 mt 2856 1747 L
2820 1711 mt 2820 1783 L
6204 1065 mt 6276 1065 L
6240 1029 mt 6240 1101 L
4614  613 mt 4686  613 L
4650  577 mt 4650  649 L
5439  414 mt 5511  414 L
5475  378 mt 5475  450 L
6202  561 mt 6274  561 L
6238  525 mt 6238  597 L
2007 2262 mt 2079 2262 L
2043 2226 mt 2043 2298 L
5910 1772 mt 5982 1772 L
5946 1736 mt 5946 1808 L
 912  536 mt  984  536 L
 948  500 mt  948  572 L
6223  483 mt 6295  483 L
6259  447 mt 6259  519 L
6171  428 mt 6243  428 L
6207  392 mt 6207  464 L
gs 899 414 5363 4203 rc
gr

0 sg
2779 5104 mt 
(\(F,DCTs,GMM\)) s
 422 3273 mt  -90 rotate
(\(F,DCTb,MLP\)) s
90 rotate
2975  223 mt 
(Corr = 0.31) s

end %%Color Dict

eplot
%%EndObject

epage
end

showpage

%%Trailer
%%EOF
