%!PS-Adobe-3.0 EPSF-3.0
%%Creator: MATLAB, The Mathworks, Inc. Version 7.7.0.471 (R2008b). Operating System: Microsoft Windows XP.
%%Title: Pictures\main_zoo_mvar_analysis_data_BMI_xcorr_bmi_p1_k1_6_8.eps
%%CreationDate: 10/26/2009  05:44:10
%%DocumentNeededFonts: Helvetica
%%DocumentProcessColors: Cyan Magenta Yellow Black
%%LanguageLevel: 2
%%Pages: 1
%%BoundingBox:    32   180   546   616
%%EndComments

%%BeginProlog
% MathWorks dictionary
/MathWorks 160 dict begin
% definition operators
/bdef {bind def} bind def
/ldef {load def} bind def
/xdef {exch def} bdef
/xstore {exch store} bdef
% operator abbreviations
/c  /clip ldef
/cc /concat ldef
/cp /closepath ldef
/gr /grestore ldef
/gs /gsave ldef
/mt /moveto ldef
/np /newpath ldef
/cm /currentmatrix ldef
/sm /setmatrix ldef
/rm /rmoveto ldef
/rl /rlineto ldef
/s {show newpath} bdef
/sc {setcmykcolor} bdef
/sr /setrgbcolor ldef
/sg /setgray ldef
/w /setlinewidth ldef
/j /setlinejoin ldef
/cap /setlinecap ldef
/rc {rectclip} bdef
/rf {rectfill} bdef
% page state control
/pgsv () def
/bpage {/pgsv save def} bdef
/epage {pgsv restore} bdef
/bplot /gsave ldef
/eplot {stroke grestore} bdef
% orientation switch
/portraitMode 0 def /landscapeMode 1 def /rotateMode 2 def
% coordinate system mappings
/dpi2point 0 def
% font control
/FontSize 0 def
/FMS {/FontSize xstore findfont [FontSize 0 0 FontSize neg 0 0]
  makefont setfont} bdef
/ISOLatin1Encoding where {pop /WindowsLatin1Encoding 256 array bdef
ISOLatin1Encoding WindowsLatin1Encoding copy pop
/.notdef/.notdef/quotesinglbase/florin/quotedblbase/ellipsis/dagger
/daggerdbl/circumflex/perthousand/Scaron/guilsinglleft/OE/.notdef/.notdef
/.notdef/.notdef/quoteleft/quoteright/quotedblleft/quotedblright/bullet
/endash/emdash/tilde/trademark/scaron/guilsinglright/oe/.notdef/.notdef
/Ydieresis WindowsLatin1Encoding 128 32 getinterval astore pop}
{/WindowsLatin1Encoding StandardEncoding bdef} ifelse
/reencode {exch dup where {pop load} {pop StandardEncoding} ifelse
  exch dup 3 1 roll findfont dup length dict begin
  { 1 index /FID ne {def}{pop pop} ifelse } forall
  /Encoding exch def currentdict end definefont pop} bdef
/isroman {findfont /CharStrings get /Agrave known} bdef
/FMSR {3 1 roll 1 index dup isroman {reencode} {pop pop} ifelse
  exch FMS} bdef
/csm {1 dpi2point div -1 dpi2point div scale neg translate
 dup landscapeMode eq {pop -90 rotate}
  {rotateMode eq {90 rotate} if} ifelse} bdef
% line types: solid, dotted, dashed, dotdash
/SO { [] 0 setdash } bdef
/DO { [.5 dpi2point mul 4 dpi2point mul] 0 setdash } bdef
/DA { [6 dpi2point mul] 0 setdash } bdef
/DD { [.5 dpi2point mul 4 dpi2point mul 6 dpi2point mul 4
  dpi2point mul] 0 setdash } bdef
% macros for lines and objects
/L {lineto stroke} bdef
/MP {3 1 roll moveto 1 sub {rlineto} repeat} bdef
/AP {{rlineto} repeat} bdef
/PDlw -1 def
/W {/PDlw currentlinewidth def setlinewidth} def
/PP {closepath eofill} bdef
/DP {closepath stroke} bdef
/MR {4 -2 roll moveto dup  0 exch rlineto exch 0 rlineto
  neg 0 exch rlineto closepath} bdef
/FR {MR stroke} bdef
/PR {MR fill} bdef
/L1i {{currentfile picstr readhexstring pop} image} bdef
/tMatrix matrix def
/MakeOval {newpath tMatrix currentmatrix pop translate scale
0 0 1 0 360 arc tMatrix setmatrix} bdef
/FO {MakeOval stroke} bdef
/PO {MakeOval fill} bdef
/PD {currentlinewidth 2 div 0 360 arc fill
   PDlw -1 eq not {PDlw w /PDlw -1 def} if} def
/FA {newpath tMatrix currentmatrix pop translate scale
  0 0 1 5 -2 roll arc tMatrix setmatrix stroke} bdef
/PA {newpath tMatrix currentmatrix pop	translate 0 0 moveto scale
  0 0 1 5 -2 roll arc closepath tMatrix setmatrix fill} bdef
/FAn {newpath tMatrix currentmatrix pop translate scale
  0 0 1 5 -2 roll arcn tMatrix setmatrix stroke} bdef
/PAn {newpath tMatrix currentmatrix pop translate 0 0 moveto scale
  0 0 1 5 -2 roll arcn closepath tMatrix setmatrix fill} bdef
/vradius 0 def /hradius 0 def /lry 0 def
/lrx 0 def /uly 0 def /ulx 0 def /rad 0 def
/MRR {/vradius xdef /hradius xdef /lry xdef /lrx xdef /uly xdef
  /ulx xdef newpath tMatrix currentmatrix pop ulx hradius add uly
  vradius add translate hradius vradius scale 0 0 1 180 270 arc 
  tMatrix setmatrix lrx hradius sub uly vradius add translate
  hradius vradius scale 0 0 1 270 360 arc tMatrix setmatrix
  lrx hradius sub lry vradius sub translate hradius vradius scale
  0 0 1 0 90 arc tMatrix setmatrix ulx hradius add lry vradius sub
  translate hradius vradius scale 0 0 1 90 180 arc tMatrix setmatrix
  closepath} bdef
/FRR {MRR stroke } bdef
/PRR {MRR fill } bdef
/MlrRR {/lry xdef /lrx xdef /uly xdef /ulx xdef /rad lry uly sub 2 div def
  newpath tMatrix currentmatrix pop ulx rad add uly rad add translate
  rad rad scale 0 0 1 90 270 arc tMatrix setmatrix lrx rad sub lry rad
  sub translate rad rad scale 0 0 1 270 90 arc tMatrix setmatrix
  closepath} bdef
/FlrRR {MlrRR stroke } bdef
/PlrRR {MlrRR fill } bdef
/MtbRR {/lry xdef /lrx xdef /uly xdef /ulx xdef /rad lrx ulx sub 2 div def
  newpath tMatrix currentmatrix pop ulx rad add uly rad add translate
  rad rad scale 0 0 1 180 360 arc tMatrix setmatrix lrx rad sub lry rad
  sub translate rad rad scale 0 0 1 0 180 arc tMatrix setmatrix
  closepath} bdef
/FtbRR {MtbRR stroke } bdef
/PtbRR {MtbRR fill } bdef
/stri 6 array def /dtri 6 array def
/smat 6 array def /dmat 6 array def
/tmat1 6 array def /tmat2 6 array def /dif 3 array def
/asub {/ind2 exch def /ind1 exch def dup dup
  ind1 get exch ind2 get sub exch } bdef
/tri_to_matrix {
  2 0 asub 3 1 asub 4 0 asub 5 1 asub
  dup 0 get exch 1 get 7 -1 roll astore } bdef
/compute_transform {
  dmat dtri tri_to_matrix tmat1 invertmatrix 
  smat stri tri_to_matrix tmat2 concatmatrix } bdef
/ds {stri astore pop} bdef
/dt {dtri astore pop} bdef
/db {2 copy /cols xdef /rows xdef mul dup 3 mul string
  currentfile 
  3 index 0 eq {/ASCIIHexDecode filter}
  {/ASCII85Decode filter 3 index 2 eq {/RunLengthDecode filter} if }
  ifelse exch readstring pop
  dup 0 3 index getinterval /rbmap xdef
  dup 2 index dup getinterval /gbmap xdef
  1 index dup 2 mul exch getinterval /bbmap xdef pop pop}bdef
/it {gs np dtri aload pop moveto lineto lineto cp c
  cols rows 8 compute_transform 
  rbmap gbmap bbmap true 3 colorimage gr}bdef
/il {newpath moveto lineto stroke}bdef
currentdict end def
%%EndProlog

%%BeginSetup
MathWorks begin

0 cap

end
%%EndSetup

%%Page: 1 1
%%BeginPageSetup
%%PageBoundingBox:    32   180   546   616
MathWorks begin
bpage
%%EndPageSetup

%%BeginObject: obj1
bplot

/dpi2point 12 def
portraitMode 0216 7344 csm

  174   -48  6173  5231 rc
85 dict begin %Colortable dictionary
/c0 { 0.000000 0.000000 0.000000 sr} bdef
/c1 { 1.000000 1.000000 1.000000 sr} bdef
/c2 { 0.900000 0.000000 0.000000 sr} bdef
/c3 { 0.000000 0.820000 0.000000 sr} bdef
/c4 { 0.000000 0.000000 0.800000 sr} bdef
/c5 { 0.910000 0.820000 0.320000 sr} bdef
/c6 { 1.000000 0.260000 0.820000 sr} bdef
/c7 { 0.000000 0.820000 0.820000 sr} bdef
c0
1 j
1 sg
   0    0 6919 5187 rf
6 w
0 4202 5361 0 0 -4202 899 4616 4 MP
PP
-5361 0 0 4202 5361 0 0 -4202 899 4616 5 MP stroke
4 w
DO
SO
6 w
0 sg
 899  414 mt 6260  414 L
 899 4616 mt 6260 4616 L
6260 4616 mt 6260  414 L
 899 4616 mt  899  414 L
 899 4616 mt 6260 4616 L
 899 4616 mt  899  414 L
1699 4616 mt 1699 4562 L
1699  414 mt 1699  467 L
%%IncludeResource: font Helvetica
/Helvetica /WindowsLatin1Encoding 240 FMSR

1466 4873 mt 
(0.05) s
2500 4616 mt 2500 4562 L
2500  414 mt 2500  467 L
2334 4873 mt 
(0.1) s
3301 4616 mt 3301 4562 L
3301  414 mt 3301  467 L
3068 4873 mt 
(0.15) s
4102 4616 mt 4102 4562 L
4102  414 mt 4102  467 L
3936 4873 mt 
(0.2) s
4902 4616 mt 4902 4562 L
4902  414 mt 4902  467 L
4669 4873 mt 
(0.25) s
5703 4616 mt 5703 4562 L
5703  414 mt 5703  467 L
5537 4873 mt 
(0.3) s
 899 3780 mt  952 3780 L
6261 3780 mt 6207 3780 L
 531 3869 mt 
(0.1) s
 899 2945 mt  952 2945 L
6261 2945 mt 6207 2945 L
 531 3034 mt 
(0.2) s
 899 2109 mt  952 2109 L
6261 2109 mt 6207 2109 L
 531 2198 mt 
(0.3) s
 899 1274 mt  952 1274 L
6261 1274 mt 6207 1274 L
 531 1363 mt 
(0.4) s
 899  439 mt  952  439 L
6261  439 mt 6207  439 L
 531  528 mt 
(0.5) s
 899  414 mt 6260  414 L
 899 4616 mt 6260 4616 L
6260 4616 mt 6260  414 L
 899 4616 mt  899  414 L
gs 899 414 5363 4203 rc
gr

/c8 { 0.000000 0.000000 1.000000 sr} bdef
c8
 936  414 mt 1008  414 L
 972  378 mt  972  450 L
2338 4410 mt 2410 4410 L
2374 4374 mt 2374 4446 L
1490 4556 mt 1562 4556 L
1526 4520 mt 1526 4592 L
2507 4214 mt 2579 4214 L
2543 4178 mt 2543 4250 L
1526 4305 mt 1598 4305 L
1562 4269 mt 1562 4341 L
1347 4518 mt 1419 4518 L
1383 4482 mt 1383 4554 L
 940 3006 mt 1012 3006 L
 976 2970 mt  976 3042 L
1048 4431 mt 1120 4431 L
1084 4395 mt 1084 4467 L
1270 4615 mt 1342 4615 L
1306 4579 mt 1306 4651 L
1056 3867 mt 1128 3867 L
1092 3831 mt 1092 3903 L
6224 4369 mt 6296 4369 L
6260 4333 mt 6260 4405 L
1446 4616 mt 1518 4616 L
1482 4580 mt 1482 4652 L
1910 4608 mt 1982 4608 L
1946 4572 mt 1946 4644 L
1526 4596 mt 1598 4596 L
1562 4560 mt 1562 4632 L
 875 4298 mt  947 4298 L
 911 4262 mt  911 4334 L
3793 3582 mt 3865 3582 L
3829 3546 mt 3829 3618 L
2408 2973 mt 2480 2973 L
2444 2937 mt 2444 3009 L
 989 4312 mt 1061 4312 L
1025 4276 mt 1025 4348 L
1552 4467 mt 1624 4467 L
1588 4431 mt 1588 4503 L
2334 3806 mt 2406 3806 L
2370 3770 mt 2370 3842 L
1235 4280 mt 1307 4280 L
1271 4244 mt 1271 4316 L
 978 4421 mt 1050 4421 L
1014 4385 mt 1014 4457 L
3242 4313 mt 3314 4313 L
3278 4277 mt 3278 4349 L
1503 4341 mt 1575 4341 L
1539 4305 mt 1539 4377 L
1017 3642 mt 1089 3642 L
1053 3606 mt 1053 3678 L
 987 4507 mt 1059 4507 L
1023 4471 mt 1023 4543 L
1124 4049 mt 1196 4049 L
1160 4013 mt 1160 4085 L
 951 4514 mt 1023 4514 L
 987 4478 mt  987 4550 L
 943 4550 mt 1015 4550 L
 979 4514 mt  979 4586 L
 865 4400 mt  937 4400 L
 901 4364 mt  901 4436 L
1329 2943 mt 1401 2943 L
1365 2907 mt 1365 2979 L
2864 4327 mt 2936 4327 L
2900 4291 mt 2900 4363 L
2107 4387 mt 2179 4387 L
2143 4351 mt 2143 4423 L
1143 3514 mt 1215 3514 L
1179 3478 mt 1179 3550 L
1184 4594 mt 1256 4594 L
1220 4558 mt 1220 4630 L
2828 4393 mt 2900 4393 L
2864 4357 mt 2864 4429 L
1365 4576 mt 1437 4576 L
1401 4540 mt 1401 4612 L
2713 4519 mt 2785 4519 L
2749 4483 mt 2749 4555 L
4181 4315 mt 4253 4315 L
4217 4279 mt 4217 4351 L
1544 1753 mt 1616 1753 L
1580 1717 mt 1580 1789 L
1278 4415 mt 1350 4415 L
1314 4379 mt 1314 4451 L
4082 4355 mt 4154 4355 L
4118 4319 mt 4118 4391 L
2292 3432 mt 2364 3432 L
2328 3396 mt 2328 3468 L
1178 3531 mt 1250 3531 L
1214 3495 mt 1214 3567 L
1795 3533 mt 1867 3533 L
1831 3497 mt 1831 3569 L
1441 4558 mt 1513 4558 L
1477 4522 mt 1477 4594 L
 869 1182 mt  941 1182 L
 905 1146 mt  905 1218 L
 863 4507 mt  935 4507 L
 899 4471 mt  899 4543 L
1904 4613 mt 1976 4613 L
1940 4577 mt 1940 4649 L
2405 4277 mt 2477 4277 L
2441 4241 mt 2441 4313 L
 886 4187 mt  958 4187 L
 922 4151 mt  922 4223 L
1774 4180 mt 1846 4180 L
1810 4144 mt 1810 4216 L
3479 4525 mt 3551 4525 L
3515 4489 mt 3515 4561 L
3010 4355 mt 3082 4355 L
3046 4319 mt 3046 4391 L
 956 4518 mt 1028 4518 L
 992 4482 mt  992 4554 L
1496 3754 mt 1568 3754 L
1532 3718 mt 1532 3790 L
3009 4178 mt 3081 4178 L
3045 4142 mt 3045 4214 L
1582 4613 mt 1654 4613 L
1618 4577 mt 1618 4649 L
2312 4432 mt 2384 4432 L
2348 4396 mt 2348 4468 L
1306 4357 mt 1378 4357 L
1342 4321 mt 1342 4393 L
 863 4074 mt  935 4074 L
 899 4038 mt  899 4110 L
 865 4462 mt  937 4462 L
 901 4426 mt  901 4498 L
 887 1148 mt  959 1148 L
 923 1112 mt  923 1184 L
1035 3682 mt 1107 3682 L
1071 3646 mt 1071 3718 L
2071 4615 mt 2143 4615 L
2107 4579 mt 2107 4651 L
1375 3890 mt 1447 3890 L
1411 3854 mt 1411 3926 L
 870 4609 mt  942 4609 L
 906 4573 mt  906 4645 L
2174 4612 mt 2246 4612 L
2210 4576 mt 2210 4648 L
1020 4608 mt 1092 4608 L
1056 4572 mt 1056 4644 L
 917 4416 mt  989 4416 L
 953 4380 mt  953 4452 L
1732 3838 mt 1804 3838 L
1768 3802 mt 1768 3874 L
1367 4580 mt 1439 4580 L
1403 4544 mt 1403 4616 L
1014 4307 mt 1086 4307 L
1050 4271 mt 1050 4343 L
1263 4614 mt 1335 4614 L
1299 4578 mt 1299 4650 L
1479 4572 mt 1551 4572 L
1515 4536 mt 1515 4608 L
1954 4295 mt 2026 4295 L
1990 4259 mt 1990 4331 L
2154 4503 mt 2226 4503 L
2190 4467 mt 2190 4539 L
1129 4584 mt 1201 4584 L
1165 4548 mt 1165 4620 L
2355 3873 mt 2427 3873 L
2391 3837 mt 2391 3909 L
1106 4578 mt 1178 4578 L
1142 4542 mt 1142 4614 L
2804 4253 mt 2876 4253 L
2840 4217 mt 2840 4289 L
1507 3521 mt 1579 3521 L
1543 3485 mt 1543 3557 L
2526 2277 mt 2598 2277 L
2562 2241 mt 2562 2313 L
2194 4290 mt 2266 4290 L
2230 4254 mt 2230 4326 L
 870 2343 mt  942 2343 L
 906 2307 mt  906 2379 L
 867 4223 mt  939 4223 L
 903 4187 mt  903 4259 L
3920 4608 mt 3992 4608 L
3956 4572 mt 3956 4644 L
 924 4570 mt  996 4570 L
 960 4534 mt  960 4606 L
1111 4607 mt 1183 4607 L
1147 4571 mt 1147 4643 L
 991 3733 mt 1063 3733 L
1027 3697 mt 1027 3769 L
1653 4549 mt 1725 4549 L
1689 4513 mt 1689 4585 L
 965 4321 mt 1037 4321 L
1001 4285 mt 1001 4357 L
2032 4325 mt 2104 4325 L
2068 4289 mt 2068 4361 L
3664 4604 mt 3736 4604 L
3700 4568 mt 3700 4640 L
1256 4543 mt 1328 4543 L
1292 4507 mt 1292 4579 L
1255 3892 mt 1327 3892 L
1291 3856 mt 1291 3928 L
1838 3903 mt 1910 3903 L
1874 3867 mt 1874 3939 L
3715 4527 mt 3787 4527 L
3751 4491 mt 3751 4563 L
 863 4172 mt  935 4172 L
 899 4136 mt  899 4208 L
 866 4245 mt  938 4245 L
 902 4209 mt  902 4281 L
2785 1071 mt 2857 1071 L
2821 1035 mt 2821 1107 L
2452 4519 mt 2524 4519 L
2488 4483 mt 2488 4555 L
1345 1426 mt 1417 1426 L
1381 1390 mt 1381 1462 L
 884 4152 mt  956 4152 L
 920 4116 mt  920 4188 L
 963 4435 mt 1035 4435 L
 999 4399 mt  999 4471 L
 961 4441 mt 1033 4441 L
 997 4405 mt  997 4477 L
1020 4615 mt 1092 4615 L
1056 4579 mt 1056 4651 L
4700 4488 mt 4772 4488 L
4736 4452 mt 4736 4524 L
 864 4554 mt  936 4554 L
 900 4518 mt  900 4590 L
2853 4009 mt 2925 4009 L
2889 3973 mt 2889 4045 L
3333 4610 mt 3405 4610 L
3369 4574 mt 3369 4646 L
1265 4539 mt 1337 4539 L
1301 4503 mt 1301 4575 L
1024 4586 mt 1096 4586 L
1060 4550 mt 1060 4622 L
1057 4431 mt 1129 4431 L
1093 4395 mt 1093 4467 L
1409 4361 mt 1481 4361 L
1445 4325 mt 1445 4397 L
1386 4448 mt 1458 4448 L
1422 4412 mt 1422 4484 L
3908 4606 mt 3980 4606 L
3944 4570 mt 3944 4642 L
 897 4615 mt  969 4615 L
 933 4579 mt  933 4651 L
1449 3759 mt 1521 3759 L
1485 3723 mt 1485 3795 L
2247 2684 mt 2319 2684 L
2283 2648 mt 2283 2720 L
 962 4163 mt 1034 4163 L
 998 4127 mt  998 4199 L
 880 4082 mt  952 4082 L
 916 4046 mt  916 4118 L
3102 4610 mt 3174 4610 L
3138 4574 mt 3138 4646 L
2647 2846 mt 2719 2846 L
2683 2810 mt 2683 2882 L
3193 3928 mt 3265 3928 L
3229 3892 mt 3229 3964 L
 952 3780 mt 1024 3780 L
 988 3744 mt  988 3816 L
1062 4233 mt 1134 4233 L
1098 4197 mt 1098 4269 L
2459 4395 mt 2531 4395 L
2495 4359 mt 2495 4431 L
1184 4409 mt 1256 4409 L
1220 4373 mt 1220 4445 L
1552 4348 mt 1624 4348 L
1588 4312 mt 1588 4384 L
1143 4240 mt 1215 4240 L
1179 4204 mt 1179 4276 L
1479 3640 mt 1551 3640 L
1515 3604 mt 1515 3676 L
2523 4583 mt 2595 4583 L
2559 4547 mt 2559 4619 L
1502 4592 mt 1574 4592 L
1538 4556 mt 1538 4628 L
 892 3865 mt  964 3865 L
 928 3829 mt  928 3901 L
1345 4590 mt 1417 4590 L
1381 4554 mt 1381 4626 L
 873 4545 mt  945 4545 L
 909 4509 mt  909 4581 L
1045 2843 mt 1117 2843 L
1081 2807 mt 1081 2879 L
3588 4419 mt 3660 4419 L
3624 4383 mt 3624 4455 L
2639 3905 mt 2711 3905 L
2675 3869 mt 2675 3941 L
 996 4615 mt 1068 4615 L
1032 4579 mt 1032 4651 L
1479 4615 mt 1551 4615 L
1515 4579 mt 1515 4651 L
 968 3649 mt 1040 3649 L
1004 3613 mt 1004 3685 L
1189 4312 mt 1261 4312 L
1225 4276 mt 1225 4348 L
1469 4155 mt 1541 4155 L
1505 4119 mt 1505 4191 L
1978 3962 mt 2050 3962 L
2014 3926 mt 2014 3998 L
 932 4606 mt 1004 4606 L
 968 4570 mt  968 4642 L
 868 3601 mt  940 3601 L
 904 3565 mt  904 3637 L
1010 4596 mt 1082 4596 L
1046 4560 mt 1046 4632 L
2555 4093 mt 2627 4093 L
2591 4057 mt 2591 4129 L
2024 4544 mt 2096 4544 L
2060 4508 mt 2060 4580 L
 989 4257 mt 1061 4257 L
1025 4221 mt 1025 4293 L
2425 2838 mt 2497 2838 L
2461 2802 mt 2461 2874 L
1906 4483 mt 1978 4483 L
1942 4447 mt 1942 4519 L
1048 3980 mt 1120 3980 L
1084 3944 mt 1084 4016 L
 937 4482 mt 1009 4482 L
 973 4446 mt  973 4518 L
1002 4563 mt 1074 4563 L
1038 4527 mt 1038 4599 L
1231 4338 mt 1303 4338 L
1267 4302 mt 1267 4374 L
4078 4492 mt 4150 4492 L
4114 4456 mt 4114 4528 L
1226 4465 mt 1298 4465 L
1262 4429 mt 1262 4501 L
1284 3872 mt 1356 3872 L
1320 3836 mt 1320 3908 L
1017 4342 mt 1089 4342 L
1053 4306 mt 1053 4378 L
1112 3426 mt 1184 3426 L
1148 3390 mt 1148 3462 L
1631 4608 mt 1703 4608 L
1667 4572 mt 1667 4644 L
 925 4493 mt  997 4493 L
 961 4457 mt  961 4529 L
1052 3868 mt 1124 3868 L
1088 3832 mt 1088 3904 L
 887 3628 mt  959 3628 L
 923 3592 mt  923 3664 L
1248 4551 mt 1320 4551 L
1284 4515 mt 1284 4587 L
 915 4603 mt  987 4603 L
 951 4567 mt  951 4639 L
1076 4356 mt 1148 4356 L
1112 4320 mt 1112 4392 L
1357 3217 mt 1429 3217 L
1393 3181 mt 1393 3253 L
1151 3658 mt 1223 3658 L
1187 3622 mt 1187 3694 L
1679 3828 mt 1751 3828 L
1715 3792 mt 1715 3864 L
 867 3960 mt  939 3960 L
 903 3924 mt  903 3996 L
1226 3727 mt 1298 3727 L
1262 3691 mt 1262 3763 L
1566 4571 mt 1638 4571 L
1602 4535 mt 1602 4607 L
2503 4370 mt 2575 4370 L
2539 4334 mt 2539 4406 L
 873 4539 mt  945 4539 L
 909 4503 mt  909 4575 L
1078 2746 mt 1150 2746 L
1114 2710 mt 1114 2782 L
 897 4602 mt  969 4602 L
 933 4566 mt  933 4638 L
 892 4613 mt  964 4613 L
 928 4577 mt  928 4649 L
3153 2097 mt 3225 2097 L
3189 2061 mt 3189 2133 L
 993 1790 mt 1065 1790 L
1029 1754 mt 1029 1826 L
3146 4597 mt 3218 4597 L
3182 4561 mt 3182 4633 L
1584 4282 mt 1656 4282 L
1620 4246 mt 1620 4318 L
 906 3002 mt  978 3002 L
 942 2966 mt  942 3038 L
 886 3389 mt  958 3389 L
 922 3353 mt  922 3425 L
 864 3618 mt  936 3618 L
 900 3582 mt  900 3654 L
2005 4566 mt 2077 4566 L
2041 4530 mt 2041 4602 L
 863 3182 mt  935 3182 L
 899 3146 mt  899 3218 L
 878 4589 mt  950 4589 L
 914 4553 mt  914 4625 L
1739 4200 mt 1811 4200 L
1775 4164 mt 1775 4236 L
1064 4282 mt 1136 4282 L
1100 4246 mt 1100 4318 L
1540 4467 mt 1612 4467 L
1576 4431 mt 1576 4503 L
3672 4466 mt 3744 4466 L
3708 4430 mt 3708 4502 L
 967 1210 mt 1039 1210 L
1003 1174 mt 1003 1246 L
1692 3086 mt 1764 3086 L
1728 3050 mt 1728 3122 L
 952 2178 mt 1024 2178 L
 988 2142 mt  988 2214 L
 885 4473 mt  957 4473 L
 921 4437 mt  921 4509 L
1277 4539 mt 1349 4539 L
1313 4503 mt 1313 4575 L
1025  693 mt 1097  693 L
1061  657 mt 1061  729 L
 863 3443 mt  935 3443 L
 899 3407 mt  899 3479 L
 868 4540 mt  940 4540 L
 904 4504 mt  904 4576 L
3065 4509 mt 3137 4509 L
3101 4473 mt 3101 4545 L
1280 4576 mt 1352 4576 L
1316 4540 mt 1316 4612 L
2292 4523 mt 2364 4523 L
2328 4487 mt 2328 4559 L
1427 3590 mt 1499 3590 L
1463 3554 mt 1463 3626 L
1080 4539 mt 1152 4539 L
1116 4503 mt 1116 4575 L
1174 4604 mt 1246 4604 L
1210 4568 mt 1210 4640 L
 901 3794 mt  973 3794 L
 937 3758 mt  937 3830 L
1547 4573 mt 1619 4573 L
1583 4537 mt 1583 4609 L
1328 4294 mt 1400 4294 L
1364 4258 mt 1364 4330 L
1172 4550 mt 1244 4550 L
1208 4514 mt 1208 4586 L
 869 4007 mt  941 4007 L
 905 3971 mt  905 4043 L
 864 4308 mt  936 4308 L
 900 4272 mt  900 4344 L
2906 2857 mt 2978 2857 L
2942 2821 mt 2942 2893 L
1168 3127 mt 1240 3127 L
1204 3091 mt 1204 3163 L
1217 4515 mt 1289 4515 L
1253 4479 mt 1253 4551 L
2080 4029 mt 2152 4029 L
2116 3993 mt 2116 4065 L
2409 3455 mt 2481 3455 L
2445 3419 mt 2445 3491 L
 863 4577 mt  935 4577 L
 899 4541 mt  899 4613 L
1297 4608 mt 1369 4608 L
1333 4572 mt 1333 4644 L
2332 3529 mt 2404 3529 L
2368 3493 mt 2368 3565 L
1199 4580 mt 1271 4580 L
1235 4544 mt 1235 4616 L
1283 3573 mt 1355 3573 L
1319 3537 mt 1319 3609 L
1067 4615 mt 1139 4615 L
1103 4579 mt 1103 4651 L
1380 4567 mt 1452 4567 L
1416 4531 mt 1416 4603 L
1081 4506 mt 1153 4506 L
1117 4470 mt 1117 4542 L
1346 3997 mt 1418 3997 L
1382 3961 mt 1382 4033 L
 913 4591 mt  985 4591 L
 949 4555 mt  949 4627 L
1724 3872 mt 1796 3872 L
1760 3836 mt 1760 3908 L
2522 3628 mt 2594 3628 L
2558 3592 mt 2558 3664 L
3220 4575 mt 3292 4575 L
3256 4539 mt 3256 4611 L
 953 2459 mt 1025 2459 L
 989 2423 mt  989 2495 L
 960 4604 mt 1032 4604 L
 996 4568 mt  996 4640 L
3180 4614 mt 3252 4614 L
3216 4578 mt 3216 4650 L
1156 4592 mt 1228 4592 L
1192 4556 mt 1192 4628 L
1329 4554 mt 1401 4554 L
1365 4518 mt 1365 4590 L
2850 4392 mt 2922 4392 L
2886 4356 mt 2886 4428 L
 923 2405 mt  995 2405 L
 959 2369 mt  959 2441 L
2091 4302 mt 2163 4302 L
2127 4266 mt 2127 4338 L
3165 3775 mt 3237 3775 L
3201 3739 mt 3201 3811 L
1036 4041 mt 1108 4041 L
1072 4005 mt 1072 4077 L
 971 4106 mt 1043 4106 L
1007 4070 mt 1007 4142 L
3190 4221 mt 3262 4221 L
3226 4185 mt 3226 4257 L
1791 4335 mt 1863 4335 L
1827 4299 mt 1827 4371 L
1180 1465 mt 1252 1465 L
1216 1429 mt 1216 1501 L
1093 4614 mt 1165 4614 L
1129 4578 mt 1129 4650 L
1006 4589 mt 1078 4589 L
1042 4553 mt 1042 4625 L
1173 4436 mt 1245 4436 L
1209 4400 mt 1209 4472 L
 980 4549 mt 1052 4549 L
1016 4513 mt 1016 4585 L
1562 4461 mt 1634 4461 L
1598 4425 mt 1598 4497 L
3445 4598 mt 3517 4598 L
3481 4562 mt 3481 4634 L
1478 4585 mt 1550 4585 L
1514 4549 mt 1514 4621 L
1013 4610 mt 1085 4610 L
1049 4574 mt 1049 4646 L
1584 3887 mt 1656 3887 L
1620 3851 mt 1620 3923 L
 979 4538 mt 1051 4538 L
1015 4502 mt 1015 4574 L
1307 4545 mt 1379 4545 L
1343 4509 mt 1343 4581 L
1939 3722 mt 2011 3722 L
1975 3686 mt 1975 3758 L
1275 3855 mt 1347 3855 L
1311 3819 mt 1311 3891 L
1917 4040 mt 1989 4040 L
1953 4004 mt 1953 4076 L
 863 4449 mt  935 4449 L
 899 4413 mt  899 4485 L
 863 1364 mt  935 1364 L
 899 1328 mt  899 1400 L
1289 3799 mt 1361 3799 L
1325 3763 mt 1325 3835 L
 890 4258 mt  962 4258 L
 926 4222 mt  926 4294 L
1505 4487 mt 1577 4487 L
1541 4451 mt 1541 4523 L
 866 4614 mt  938 4614 L
 902 4578 mt  902 4650 L
1016 4522 mt 1088 4522 L
1052 4486 mt 1052 4558 L
1004 4377 mt 1076 4377 L
1040 4341 mt 1040 4413 L
 914 3445 mt  986 3445 L
 950 3409 mt  950 3481 L
1277 4381 mt 1349 4381 L
1313 4345 mt 1313 4417 L
 865 4293 mt  937 4293 L
 901 4257 mt  901 4329 L
1080 4573 mt 1152 4573 L
1116 4537 mt 1116 4609 L
1228 4426 mt 1300 4426 L
1264 4390 mt 1264 4462 L
1295 4411 mt 1367 4411 L
1331 4375 mt 1331 4447 L
1911 4014 mt 1983 4014 L
1947 3978 mt 1947 4050 L
2629 4585 mt 2701 4585 L
2665 4549 mt 2665 4621 L
 902 4437 mt  974 4437 L
 938 4401 mt  938 4473 L
1209 4498 mt 1281 4498 L
1245 4462 mt 1245 4534 L
 879 4544 mt  951 4544 L
 915 4508 mt  915 4580 L
6090 4453 mt 6162 4453 L
6126 4417 mt 6126 4489 L
1073 3721 mt 1145 3721 L
1109 3685 mt 1109 3757 L
2568 1843 mt 2640 1843 L
2604 1807 mt 2604 1879 L
1123 3500 mt 1195 3500 L
1159 3464 mt 1159 3536 L
 944 1292 mt 1016 1292 L
 980 1256 mt  980 1328 L
 899 4554 mt  971 4554 L
 935 4518 mt  935 4590 L
3351 4094 mt 3423 4094 L
3387 4058 mt 3387 4130 L
 937 4578 mt 1009 4578 L
 973 4542 mt  973 4614 L
1009 4530 mt 1081 4530 L
1045 4494 mt 1045 4566 L
 871 4343 mt  943 4343 L
 907 4307 mt  907 4379 L
 888 3998 mt  960 3998 L
 924 3962 mt  924 4034 L
1043 4615 mt 1115 4615 L
1079 4579 mt 1079 4651 L
1428 3946 mt 1500 3946 L
1464 3910 mt 1464 3982 L
2072 4078 mt 2144 4078 L
2108 4042 mt 2108 4114 L
1163 4548 mt 1235 4548 L
1199 4512 mt 1199 4584 L
1449 4537 mt 1521 4537 L
1485 4501 mt 1485 4573 L
1131 4364 mt 1203 4364 L
1167 4328 mt 1167 4400 L
1232 4572 mt 1304 4572 L
1268 4536 mt 1268 4608 L
 899 4453 mt  971 4453 L
 935 4417 mt  935 4489 L
 880 3888 mt  952 3888 L
 916 3852 mt  916 3924 L
1283 1791 mt 1355 1791 L
1319 1755 mt 1319 1827 L
 868 4615 mt  940 4615 L
 904 4579 mt  904 4651 L
2112 1264 mt 2184 1264 L
2148 1228 mt 2148 1300 L
 881 4417 mt  953 4417 L
 917 4381 mt  917 4453 L
 997 4590 mt 1069 4590 L
1033 4554 mt 1033 4626 L
 923 4185 mt  995 4185 L
 959 4149 mt  959 4221 L
1421 4411 mt 1493 4411 L
1457 4375 mt 1457 4447 L
3050 4544 mt 3122 4544 L
3086 4508 mt 3086 4580 L
1571 4613 mt 1643 4613 L
1607 4577 mt 1607 4649 L
1703 4167 mt 1775 4167 L
1739 4131 mt 1739 4203 L
3484 4190 mt 3556 4190 L
3520 4154 mt 3520 4226 L
 941 4564 mt 1013 4564 L
 977 4528 mt  977 4600 L
1144 4611 mt 1216 4611 L
1180 4575 mt 1180 4647 L
 880 4533 mt  952 4533 L
 916 4497 mt  916 4569 L
 875 3767 mt  947 3767 L
 911 3731 mt  911 3803 L
1495 4241 mt 1567 4241 L
1531 4205 mt 1531 4277 L
 925 4312 mt  997 4312 L
 961 4276 mt  961 4348 L
2135 4486 mt 2207 4486 L
2171 4450 mt 2171 4522 L
1050 4277 mt 1122 4277 L
1086 4241 mt 1086 4313 L
1803 3419 mt 1875 3419 L
1839 3383 mt 1839 3455 L
1138 4494 mt 1210 4494 L
1174 4458 mt 1174 4530 L
1329 4354 mt 1401 4354 L
1365 4318 mt 1365 4390 L
2845 4290 mt 2917 4290 L
2881 4254 mt 2881 4326 L
1280 1520 mt 1352 1520 L
1316 1484 mt 1316 1556 L
1208 3251 mt 1280 3251 L
1244 3215 mt 1244 3287 L
1075 4501 mt 1147 4501 L
1111 4465 mt 1111 4537 L
 946 3342 mt 1018 3342 L
 982 3306 mt  982 3378 L
2134 4596 mt 2206 4596 L
2170 4560 mt 2170 4632 L
 901 3608 mt  973 3608 L
 937 3572 mt  937 3644 L
1146 4553 mt 1218 4553 L
1182 4517 mt 1182 4589 L
 869 4591 mt  941 4591 L
 905 4555 mt  905 4627 L
1205 4022 mt 1277 4022 L
1241 3986 mt 1241 4058 L
2746 4313 mt 2818 4313 L
2782 4277 mt 2782 4349 L
1934 4607 mt 2006 4607 L
1970 4571 mt 1970 4643 L
1311 3020 mt 1383 3020 L
1347 2984 mt 1347 3056 L
1244 4417 mt 1316 4417 L
1280 4381 mt 1280 4453 L
1161 4614 mt 1233 4614 L
1197 4578 mt 1197 4650 L
1187 3677 mt 1259 3677 L
1223 3641 mt 1223 3713 L
3958 4550 mt 4030 4550 L
3994 4514 mt 3994 4586 L
 863 4256 mt  935 4256 L
 899 4220 mt  899 4292 L
1447 4588 mt 1519 4588 L
1483 4552 mt 1483 4624 L
 964 4610 mt 1036 4610 L
1000 4574 mt 1000 4646 L
 956 4179 mt 1028 4179 L
 992 4143 mt  992 4215 L
 951 4287 mt 1023 4287 L
 987 4251 mt  987 4323 L
 872 4411 mt  944 4411 L
 908 4375 mt  908 4447 L
1028 4606 mt 1100 4606 L
1064 4570 mt 1064 4642 L
 863 4593 mt  935 4593 L
 899 4557 mt  899 4629 L
 919 4561 mt  991 4561 L
 955 4525 mt  955 4597 L
 890 4335 mt  962 4335 L
 926 4299 mt  926 4371 L
3903 4038 mt 3975 4038 L
3939 4002 mt 3939 4074 L
2049 4419 mt 2121 4419 L
2085 4383 mt 2085 4455 L
2132 4582 mt 2204 4582 L
2168 4546 mt 2168 4618 L
2140 1839 mt 2212 1839 L
2176 1803 mt 2176 1875 L
1390 4607 mt 1462 4607 L
1426 4571 mt 1426 4643 L
1601 4392 mt 1673 4392 L
1637 4356 mt 1637 4428 L
 933 4615 mt 1005 4615 L
 969 4579 mt  969 4651 L
 954 3830 mt 1026 3830 L
 990 3794 mt  990 3866 L
1433 3508 mt 1505 3508 L
1469 3472 mt 1469 3544 L
1300 4527 mt 1372 4527 L
1336 4491 mt 1336 4563 L
 899 4385 mt  971 4385 L
 935 4349 mt  935 4421 L
 932 3970 mt 1004 3970 L
 968 3934 mt  968 4006 L
1664 4609 mt 1736 4609 L
1700 4573 mt 1700 4645 L
1086 3843 mt 1158 3843 L
1122 3807 mt 1122 3879 L
 885 4393 mt  957 4393 L
 921 4357 mt  921 4429 L
2581 3901 mt 2653 3901 L
2617 3865 mt 2617 3937 L
1937 3165 mt 2009 3165 L
1973 3129 mt 1973 3201 L
 889 4279 mt  961 4279 L
 925 4243 mt  925 4315 L
2320 4400 mt 2392 4400 L
2356 4364 mt 2356 4436 L
1372 4315 mt 1444 4315 L
1408 4279 mt 1408 4351 L
1601 3739 mt 1673 3739 L
1637 3703 mt 1637 3775 L
1130 3326 mt 1202 3326 L
1166 3290 mt 1166 3362 L
1691 4267 mt 1763 4267 L
1727 4231 mt 1727 4303 L
 874 4116 mt  946 4116 L
 910 4080 mt  910 4152 L
 919 4040 mt  991 4040 L
 955 4004 mt  955 4076 L
1134 2565 mt 1206 2565 L
1170 2529 mt 1170 2601 L
2481 4504 mt 2553 4504 L
2517 4468 mt 2517 4540 L
1339 3792 mt 1411 3792 L
1375 3756 mt 1375 3828 L
1267 4609 mt 1339 4609 L
1303 4573 mt 1303 4645 L
 944 3060 mt 1016 3060 L
 980 3024 mt  980 3096 L
 864 4554 mt  936 4554 L
 900 4518 mt  900 4590 L
1387 4487 mt 1459 4487 L
1423 4451 mt 1423 4523 L
2385 1725 mt 2457 1725 L
2421 1689 mt 2421 1761 L
 996 1895 mt 1068 1895 L
1032 1859 mt 1032 1931 L
1925 4553 mt 1997 4553 L
1961 4517 mt 1961 4589 L
1518 4513 mt 1590 4513 L
1554 4477 mt 1554 4549 L
1226 2272 mt 1298 2272 L
1262 2236 mt 1262 2308 L
1102 4036 mt 1174 4036 L
1138 4000 mt 1138 4072 L
1255 4387 mt 1327 4387 L
1291 4351 mt 1291 4423 L
 915 4555 mt  987 4555 L
 951 4519 mt  951 4591 L
 868 3356 mt  940 3356 L
 904 3320 mt  904 3392 L
1562 4579 mt 1634 4579 L
1598 4543 mt 1598 4615 L
1048 4598 mt 1120 4598 L
1084 4562 mt 1084 4634 L
 916 3940 mt  988 3940 L
 952 3904 mt  952 3976 L
 871 4493 mt  943 4493 L
 907 4457 mt  907 4529 L
1017 4355 mt 1089 4355 L
1053 4319 mt 1053 4391 L
1127 1603 mt 1199 1603 L
1163 1567 mt 1163 1639 L
1247 3661 mt 1319 3661 L
1283 3625 mt 1283 3697 L
1089 2623 mt 1161 2623 L
1125 2587 mt 1125 2659 L
1275 4327 mt 1347 4327 L
1311 4291 mt 1311 4363 L
1282 4578 mt 1354 4578 L
1318 4542 mt 1318 4614 L
gs 899 414 5363 4203 rc
gr

0 sg
2795 5104 mt 
(\(F,DCTb,iMLP\)) s
 422 3259 mt  -90 rotate
(\(S,PAC,GMM\)) s
90 rotate
2905  223 mt 
(Corr = -0.03) s

end %%Color Dict

eplot
%%EndObject

epage
end

showpage

%%Trailer
%%EOF
