%!PS-Adobe-3.0 EPSF-3.0
%%Creator: MATLAB, The Mathworks, Inc. Version 7.7.0.471 (R2008b). Operating System: Microsoft Windows XP.
%%Title: Pictures\main_zoo_mvar_analysis_data_BMI_xcorr_bmig_p1_k1_1_2.eps
%%CreationDate: 10/26/2009  05:44:45
%%DocumentNeededFonts: Helvetica
%%DocumentProcessColors: Cyan Magenta Yellow Black
%%LanguageLevel: 2
%%Pages: 1
%%BoundingBox:    37   180   549   616
%%EndComments

%%BeginProlog
% MathWorks dictionary
/MathWorks 160 dict begin
% definition operators
/bdef {bind def} bind def
/ldef {load def} bind def
/xdef {exch def} bdef
/xstore {exch store} bdef
% operator abbreviations
/c  /clip ldef
/cc /concat ldef
/cp /closepath ldef
/gr /grestore ldef
/gs /gsave ldef
/mt /moveto ldef
/np /newpath ldef
/cm /currentmatrix ldef
/sm /setmatrix ldef
/rm /rmoveto ldef
/rl /rlineto ldef
/s {show newpath} bdef
/sc {setcmykcolor} bdef
/sr /setrgbcolor ldef
/sg /setgray ldef
/w /setlinewidth ldef
/j /setlinejoin ldef
/cap /setlinecap ldef
/rc {rectclip} bdef
/rf {rectfill} bdef
% page state control
/pgsv () def
/bpage {/pgsv save def} bdef
/epage {pgsv restore} bdef
/bplot /gsave ldef
/eplot {stroke grestore} bdef
% orientation switch
/portraitMode 0 def /landscapeMode 1 def /rotateMode 2 def
% coordinate system mappings
/dpi2point 0 def
% font control
/FontSize 0 def
/FMS {/FontSize xstore findfont [FontSize 0 0 FontSize neg 0 0]
  makefont setfont} bdef
/ISOLatin1Encoding where {pop /WindowsLatin1Encoding 256 array bdef
ISOLatin1Encoding WindowsLatin1Encoding copy pop
/.notdef/.notdef/quotesinglbase/florin/quotedblbase/ellipsis/dagger
/daggerdbl/circumflex/perthousand/Scaron/guilsinglleft/OE/.notdef/.notdef
/.notdef/.notdef/quoteleft/quoteright/quotedblleft/quotedblright/bullet
/endash/emdash/tilde/trademark/scaron/guilsinglright/oe/.notdef/.notdef
/Ydieresis WindowsLatin1Encoding 128 32 getinterval astore pop}
{/WindowsLatin1Encoding StandardEncoding bdef} ifelse
/reencode {exch dup where {pop load} {pop StandardEncoding} ifelse
  exch dup 3 1 roll findfont dup length dict begin
  { 1 index /FID ne {def}{pop pop} ifelse } forall
  /Encoding exch def currentdict end definefont pop} bdef
/isroman {findfont /CharStrings get /Agrave known} bdef
/FMSR {3 1 roll 1 index dup isroman {reencode} {pop pop} ifelse
  exch FMS} bdef
/csm {1 dpi2point div -1 dpi2point div scale neg translate
 dup landscapeMode eq {pop -90 rotate}
  {rotateMode eq {90 rotate} if} ifelse} bdef
% line types: solid, dotted, dashed, dotdash
/SO { [] 0 setdash } bdef
/DO { [.5 dpi2point mul 4 dpi2point mul] 0 setdash } bdef
/DA { [6 dpi2point mul] 0 setdash } bdef
/DD { [.5 dpi2point mul 4 dpi2point mul 6 dpi2point mul 4
  dpi2point mul] 0 setdash } bdef
% macros for lines and objects
/L {lineto stroke} bdef
/MP {3 1 roll moveto 1 sub {rlineto} repeat} bdef
/AP {{rlineto} repeat} bdef
/PDlw -1 def
/W {/PDlw currentlinewidth def setlinewidth} def
/PP {closepath eofill} bdef
/DP {closepath stroke} bdef
/MR {4 -2 roll moveto dup  0 exch rlineto exch 0 rlineto
  neg 0 exch rlineto closepath} bdef
/FR {MR stroke} bdef
/PR {MR fill} bdef
/L1i {{currentfile picstr readhexstring pop} image} bdef
/tMatrix matrix def
/MakeOval {newpath tMatrix currentmatrix pop translate scale
0 0 1 0 360 arc tMatrix setmatrix} bdef
/FO {MakeOval stroke} bdef
/PO {MakeOval fill} bdef
/PD {currentlinewidth 2 div 0 360 arc fill
   PDlw -1 eq not {PDlw w /PDlw -1 def} if} def
/FA {newpath tMatrix currentmatrix pop translate scale
  0 0 1 5 -2 roll arc tMatrix setmatrix stroke} bdef
/PA {newpath tMatrix currentmatrix pop	translate 0 0 moveto scale
  0 0 1 5 -2 roll arc closepath tMatrix setmatrix fill} bdef
/FAn {newpath tMatrix currentmatrix pop translate scale
  0 0 1 5 -2 roll arcn tMatrix setmatrix stroke} bdef
/PAn {newpath tMatrix currentmatrix pop translate 0 0 moveto scale
  0 0 1 5 -2 roll arcn closepath tMatrix setmatrix fill} bdef
/vradius 0 def /hradius 0 def /lry 0 def
/lrx 0 def /uly 0 def /ulx 0 def /rad 0 def
/MRR {/vradius xdef /hradius xdef /lry xdef /lrx xdef /uly xdef
  /ulx xdef newpath tMatrix currentmatrix pop ulx hradius add uly
  vradius add translate hradius vradius scale 0 0 1 180 270 arc 
  tMatrix setmatrix lrx hradius sub uly vradius add translate
  hradius vradius scale 0 0 1 270 360 arc tMatrix setmatrix
  lrx hradius sub lry vradius sub translate hradius vradius scale
  0 0 1 0 90 arc tMatrix setmatrix ulx hradius add lry vradius sub
  translate hradius vradius scale 0 0 1 90 180 arc tMatrix setmatrix
  closepath} bdef
/FRR {MRR stroke } bdef
/PRR {MRR fill } bdef
/MlrRR {/lry xdef /lrx xdef /uly xdef /ulx xdef /rad lry uly sub 2 div def
  newpath tMatrix currentmatrix pop ulx rad add uly rad add translate
  rad rad scale 0 0 1 90 270 arc tMatrix setmatrix lrx rad sub lry rad
  sub translate rad rad scale 0 0 1 270 90 arc tMatrix setmatrix
  closepath} bdef
/FlrRR {MlrRR stroke } bdef
/PlrRR {MlrRR fill } bdef
/MtbRR {/lry xdef /lrx xdef /uly xdef /ulx xdef /rad lrx ulx sub 2 div def
  newpath tMatrix currentmatrix pop ulx rad add uly rad add translate
  rad rad scale 0 0 1 180 360 arc tMatrix setmatrix lrx rad sub lry rad
  sub translate rad rad scale 0 0 1 0 180 arc tMatrix setmatrix
  closepath} bdef
/FtbRR {MtbRR stroke } bdef
/PtbRR {MtbRR fill } bdef
/stri 6 array def /dtri 6 array def
/smat 6 array def /dmat 6 array def
/tmat1 6 array def /tmat2 6 array def /dif 3 array def
/asub {/ind2 exch def /ind1 exch def dup dup
  ind1 get exch ind2 get sub exch } bdef
/tri_to_matrix {
  2 0 asub 3 1 asub 4 0 asub 5 1 asub
  dup 0 get exch 1 get 7 -1 roll astore } bdef
/compute_transform {
  dmat dtri tri_to_matrix tmat1 invertmatrix 
  smat stri tri_to_matrix tmat2 concatmatrix } bdef
/ds {stri astore pop} bdef
/dt {dtri astore pop} bdef
/db {2 copy /cols xdef /rows xdef mul dup 3 mul string
  currentfile 
  3 index 0 eq {/ASCIIHexDecode filter}
  {/ASCII85Decode filter 3 index 2 eq {/RunLengthDecode filter} if }
  ifelse exch readstring pop
  dup 0 3 index getinterval /rbmap xdef
  dup 2 index dup getinterval /gbmap xdef
  1 index dup 2 mul exch getinterval /bbmap xdef pop pop}bdef
/it {gs np dtri aload pop moveto lineto lineto cp c
  cols rows 8 compute_transform 
  rbmap gbmap bbmap true 3 colorimage gr}bdef
/il {newpath moveto lineto stroke}bdef
currentdict end def
%%EndProlog

%%BeginSetup
MathWorks begin

0 cap

end
%%EndSetup

%%Page: 1 1
%%BeginPageSetup
%%PageBoundingBox:    37   180   549   616
MathWorks begin
bpage
%%EndPageSetup

%%BeginObject: obj1
bplot

/dpi2point 12 def
portraitMode 0216 7344 csm

  234   -48  6149  5231 rc
85 dict begin %Colortable dictionary
/c0 { 0.000000 0.000000 0.000000 sr} bdef
/c1 { 1.000000 1.000000 1.000000 sr} bdef
/c2 { 0.900000 0.000000 0.000000 sr} bdef
/c3 { 0.000000 0.820000 0.000000 sr} bdef
/c4 { 0.000000 0.000000 0.800000 sr} bdef
/c5 { 0.910000 0.820000 0.320000 sr} bdef
/c6 { 1.000000 0.260000 0.820000 sr} bdef
/c7 { 0.000000 0.820000 0.820000 sr} bdef
c0
1 j
1 sg
   0    0 6919 5187 rf
6 w
0 4202 5362 0 0 -4202 899 4616 4 MP
PP
-5362 0 0 4202 5362 0 0 -4202 899 4616 5 MP stroke
4 w
DO
SO
6 w
0 sg
 899  414 mt 6261  414 L
 899 4616 mt 6261 4616 L
6261 4616 mt 6261  414 L
 899 4616 mt  899  414 L
 899 4616 mt 6261 4616 L
 899 4616 mt  899  414 L
 919 4616 mt  919 4562 L
 919  414 mt  919  467 L
%%IncludeResource: font Helvetica
/Helvetica /WindowsLatin1Encoding 240 FMSR

 713 4873 mt 
(-3) s
1806 4616 mt 1806 4562 L
1806  414 mt 1806  467 L
1600 4873 mt 
(-2) s
2693 4616 mt 2693 4562 L
2693  414 mt 2693  467 L
2487 4873 mt 
(-1) s
3580 4616 mt 3580 4562 L
3580  414 mt 3580  467 L
3514 4873 mt 
(0) s
4466 4616 mt 4466 4562 L
4466  414 mt 4466  467 L
4400 4873 mt 
(1) s
5353 4616 mt 5353 4562 L
5353  414 mt 5353  467 L
5287 4873 mt 
(2) s
6240 4616 mt 6240 4562 L
6240  414 mt 6240  467 L
6174 4873 mt 
(3) s
 899 4599 mt  952 4599 L
6261 4599 mt 6207 4599 L
 591 4688 mt 
(-3) s
 899 3904 mt  952 3904 L
6261 3904 mt 6207 3904 L
 591 3993 mt 
(-2) s
 899 3209 mt  952 3209 L
6261 3209 mt 6207 3209 L
 591 3298 mt 
(-1) s
 899 2514 mt  952 2514 L
6261 2514 mt 6207 2514 L
 731 2603 mt 
(0) s
 899 1820 mt  952 1820 L
6261 1820 mt 6207 1820 L
 731 1909 mt 
(1) s
 899 1125 mt  952 1125 L
6261 1125 mt 6207 1125 L
 731 1214 mt 
(2) s
 899  430 mt  952  430 L
6261  430 mt 6207  430 L
 731  519 mt 
(3) s
 899  414 mt 6261  414 L
 899 4616 mt 6261 4616 L
6261 4616 mt 6261  414 L
 899 4616 mt  899  414 L
gs 899 414 5363 4203 rc
gr

/c8 { 0.000000 0.000000 1.000000 sr} bdef
c8
4453 2325 mt 4525 2325 L
4489 2289 mt 4489 2361 L
2749 3675 mt 2821 3675 L
2785 3639 mt 2785 3711 L
4067 2094 mt 4139 2094 L
4103 2058 mt 4103 2130 L
3582 2007 mt 3654 2007 L
3618 1971 mt 3618 2043 L
1805 3425 mt 1877 3425 L
1841 3389 mt 1841 3461 L
4163 3017 mt 4235 3017 L
4199 2981 mt 4199 3053 L
3267 2673 mt 3339 2673 L
3303 2637 mt 3303 2709 L
3202 3980 mt 3274 3980 L
3238 3944 mt 3238 4016 L
4585 2615 mt 4657 2615 L
4621 2579 mt 4621 2651 L
4981  824 mt 5053  824 L
5017  788 mt 5017  860 L
3085 4305 mt 3157 4305 L
3121 4269 mt 3121 4341 L
1766 3131 mt 1838 3131 L
1802 3095 mt 1802 3167 L
3330 3257 mt 3402 3257 L
3366 3221 mt 3366 3293 L
3046 3171 mt 3118 3171 L
3082 3135 mt 3082 3207 L
4243 2130 mt 4315 2130 L
4279 2094 mt 4279 2166 L
4416 2396 mt 4488 2396 L
4452 2360 mt 4452 2432 L
3135 3125 mt 3207 3125 L
3171 3089 mt 3171 3161 L
3307 2558 mt 3379 2558 L
3343 2522 mt 3343 2594 L
2634 2115 mt 2706 2115 L
2670 2079 mt 2670 2151 L
4028 1942 mt 4100 1942 L
4064 1906 mt 4064 1978 L
4398 3250 mt 4470 3250 L
4434 3214 mt 4434 3286 L
3325 2611 mt 3397 2611 L
3361 2575 mt 3361 2647 L
2723 2356 mt 2795 2356 L
2759 2320 mt 2759 2392 L
3290 3106 mt 3362 3106 L
3326 3070 mt 3326 3142 L
5468 1502 mt 5540 1502 L
5504 1466 mt 5504 1538 L
3700 1779 mt 3772 1779 L
3736 1743 mt 3736 1815 L
3426 2874 mt 3498 2874 L
3462 2838 mt 3462 2910 L
4338 2089 mt 4410 2089 L
4374 2053 mt 4374 2125 L
1556 2067 mt 1628 2067 L
1592 2031 mt 1592 2103 L
3751 1318 mt 3823 1318 L
3787 1282 mt 3787 1354 L
2355 2859 mt 2427 2859 L
2391 2823 mt 2391 2895 L
3694 2189 mt 3766 2189 L
3730 2153 mt 3730 2225 L
3538 2150 mt 3610 2150 L
3574 2114 mt 3574 2186 L
1842 1354 mt 1914 1354 L
1878 1318 mt 1878 1390 L
3785 1898 mt 3857 1898 L
3821 1862 mt 3821 1934 L
2781 2214 mt 2853 2214 L
2817 2178 mt 2817 2250 L
4149 2265 mt 4221 2265 L
4185 2229 mt 4185 2301 L
3723 2825 mt 3795 2825 L
3759 2789 mt 3759 2861 L
3190 2811 mt 3262 2811 L
3226 2775 mt 3226 2847 L
3493 3093 mt 3565 3093 L
3529 3057 mt 3529 3129 L
2063 1904 mt 2135 1904 L
2099 1868 mt 2099 1940 L
2987 2801 mt 3059 2801 L
3023 2765 mt 3023 2837 L
3098 3358 mt 3170 3358 L
3134 3322 mt 3134 3394 L
4444 2018 mt 4516 2018 L
4480 1982 mt 4480 2054 L
5606  724 mt 5678  724 L
5642  688 mt 5642  760 L
2765 2218 mt 2837 2218 L
2801 2182 mt 2801 2254 L
3091 2889 mt 3163 2889 L
3127 2853 mt 3127 2925 L
3466 3610 mt 3538 3610 L
3502 3574 mt 3502 3646 L
4512 1878 mt 4584 1878 L
4548 1842 mt 4548 1914 L
2534 3693 mt 2606 3693 L
2570 3657 mt 2570 3729 L
4236 2233 mt 4308 2233 L
4272 2197 mt 4272 2269 L
3172 1984 mt 3244 1984 L
3208 1948 mt 3208 2020 L
3566 3144 mt 3638 3144 L
3602 3108 mt 3602 3180 L
3381 3034 mt 3453 3034 L
3417 2998 mt 3417 3070 L
4372 2410 mt 4444 2410 L
4408 2374 mt 4408 2446 L
2394 1990 mt 2466 1990 L
2430 1954 mt 2430 2026 L
2298 2307 mt 2370 2307 L
2334 2271 mt 2334 2343 L
3655 1995 mt 3727 1995 L
3691 1959 mt 3691 2031 L
4680 1561 mt 4752 1561 L
4716 1525 mt 4716 1597 L
2917 2925 mt 2989 2925 L
2953 2889 mt 2953 2961 L
4015 1838 mt 4087 1838 L
4051 1802 mt 4051 1874 L
4435 2288 mt 4507 2288 L
4471 2252 mt 4471 2324 L
2085 2051 mt 2157 2051 L
2121 2015 mt 2121 2087 L
4390 1732 mt 4462 1732 L
4426 1696 mt 4426 1768 L
4251 2606 mt 4323 2606 L
4287 2570 mt 4287 2642 L
1481 2580 mt 1553 2580 L
1517 2544 mt 1517 2616 L
4259 1653 mt 4331 1653 L
4295 1617 mt 4295 1689 L
2757 3711 mt 2829 3711 L
2793 3675 mt 2793 3747 L
2680 2436 mt 2752 2436 L
2716 2400 mt 2716 2472 L
3588 3641 mt 3660 3641 L
3624 3605 mt 3624 3677 L
4501 2379 mt 4573 2379 L
4537 2343 mt 4537 2415 L
4191 2275 mt 4263 2275 L
4227 2239 mt 4227 2311 L
5245 3227 mt 5317 3227 L
5281 3191 mt 5281 3263 L
3214 2792 mt 3286 2792 L
3250 2756 mt 3250 2828 L
4047 3848 mt 4119 3848 L
4083 3812 mt 4083 3884 L
1876 3774 mt 1948 3774 L
1912 3738 mt 1912 3810 L
4564 1181 mt 4636 1181 L
4600 1145 mt 4600 1217 L
3116 2869 mt 3188 2869 L
3152 2833 mt 3152 2905 L
3072 2768 mt 3144 2768 L
3108 2732 mt 3108 2804 L
4836 2523 mt 4908 2523 L
4872 2487 mt 4872 2559 L
4094 2284 mt 4166 2284 L
4130 2248 mt 4130 2320 L
3594 3164 mt 3666 3164 L
3630 3128 mt 3630 3200 L
3855 3289 mt 3927 3289 L
3891 3253 mt 3891 3325 L
2165 2759 mt 2237 2759 L
2201 2723 mt 2201 2795 L
5180 1476 mt 5252 1476 L
5216 1440 mt 5216 1512 L
3415 2745 mt 3487 2745 L
3451 2709 mt 3451 2781 L
3921 2493 mt 3993 2493 L
3957 2457 mt 3957 2529 L
5096 1419 mt 5168 1419 L
5132 1383 mt 5132 1455 L
2828 1448 mt 2900 1448 L
2864 1412 mt 2864 1484 L
5150 2650 mt 5222 2650 L
5186 2614 mt 5186 2686 L
3757 2370 mt 3829 2370 L
3793 2334 mt 3793 2406 L
3599 2709 mt 3671 2709 L
3635 2673 mt 3635 2745 L
1965 3797 mt 2037 3797 L
2001 3761 mt 2001 3833 L
2959 2488 mt 3031 2488 L
2995 2452 mt 2995 2524 L
4142 3099 mt 4214 3099 L
4178 3063 mt 4178 3135 L
3927 3151 mt 3999 3151 L
3963 3115 mt 3963 3187 L
4805 2414 mt 4877 2414 L
4841 2378 mt 4841 2450 L
4608 2519 mt 4680 2519 L
4644 2483 mt 4644 2555 L
4719 1049 mt 4791 1049 L
4755 1013 mt 4755 1085 L
4597 2012 mt 4669 2012 L
4633 1976 mt 4633 2048 L
3488 4616 mt 3560 4616 L
3524 4580 mt 3524 4652 L
2444 2204 mt 2516 2204 L
2480 2168 mt 2480 2240 L
4643 2352 mt 4715 2352 L
4679 2316 mt 4679 2388 L
3940 4131 mt 4012 4131 L
3976 4095 mt 3976 4167 L
6033 2160 mt 6105 2160 L
6069 2124 mt 6069 2196 L
2773 2302 mt 2845 2302 L
2809 2266 mt 2809 2338 L
3897 2576 mt 3969 2576 L
3933 2540 mt 3933 2612 L
3141 1593 mt 3213 1593 L
3177 1557 mt 3177 1629 L
2040 2930 mt 2112 2930 L
2076 2894 mt 2076 2966 L
4199 3527 mt 4271 3527 L
4235 3491 mt 4235 3563 L
5321  957 mt 5393  957 L
5357  921 mt 5357  993 L
3505 2237 mt 3577 2237 L
3541 2201 mt 3541 2273 L
3410 2904 mt 3482 2904 L
3446 2868 mt 3446 2940 L
1907 2298 mt 1979 2298 L
1943 2262 mt 1943 2334 L
3232 2099 mt 3304 2099 L
3268 2063 mt 3268 2135 L
2468 2967 mt 2540 2967 L
2504 2931 mt 2504 3003 L
3059 3322 mt 3131 3322 L
3095 3286 mt 3095 3358 L
3033 4023 mt 3105 4023 L
3069 3987 mt 3069 4059 L
3891 2655 mt 3963 2655 L
3927 2619 mt 3927 2691 L
2938 2083 mt 3010 2083 L
2974 2047 mt 2974 2119 L
4904 2562 mt 4976 2562 L
4940 2526 mt 4940 2598 L
3838 2532 mt 3910 2532 L
3874 2496 mt 3874 2568 L
2662 3752 mt 2734 3752 L
2698 3716 mt 2698 3788 L
3364 3213 mt 3436 3213 L
3400 3177 mt 3400 3249 L
2740 2722 mt 2812 2722 L
2776 2686 mt 2776 2758 L
4330 4072 mt 4402 4072 L
4366 4036 mt 4366 4108 L
3013 2796 mt 3085 2796 L
3049 2760 mt 3049 2832 L
3404 2462 mt 3476 2462 L
3440 2426 mt 3440 2498 L
3605 2545 mt 3677 2545 L
3641 2509 mt 3641 2581 L
3903 1614 mt 3975 1614 L
3939 1578 mt 3939 1650 L
4655 2405 mt 4727 2405 L
4691 2369 mt 4691 2441 L
 863 2057 mt  935 2057 L
 899 2021 mt  899 2093 L
3166 3028 mt 3238 3028 L
3202 2992 mt 3202 3064 L
2282 3011 mt 2354 3011 L
2318 2975 mt 2318 3047 L
2595 3731 mt 2667 3731 L
2631 3695 mt 2631 3767 L
3284 2806 mt 3356 2806 L
3320 2770 mt 3320 2842 L
2697 2593 mt 2769 2593 L
2733 2557 mt 2733 2629 L
2327 2467 mt 2399 2467 L
2363 2431 mt 2363 2503 L
1387 2423 mt 1459 2423 L
1423 2387 mt 1423 2459 L
2980 2514 mt 3052 2514 L
3016 2478 mt 3016 2550 L
2523 2691 mt 2595 2691 L
2559 2655 mt 2559 2727 L
3359 1756 mt 3431 1756 L
3395 1720 mt 3395 1792 L
4314 1680 mt 4386 1680 L
4350 1644 mt 4350 1716 L
2924 2401 mt 2996 2401 L
2960 2365 mt 2960 2437 L
3768 1715 mt 3840 1715 L
3804 1679 mt 3804 1751 L
4306 1298 mt 4378 1298 L
4342 1262 mt 4342 1334 L
2218 2844 mt 2290 2844 L
2254 2808 mt 2254 2880 L
4087 1538 mt 4159 1538 L
4123 1502 mt 4123 1574 L
4922 1583 mt 4994 1583 L
4958 1547 mt 4958 1619 L
1619 3220 mt 1691 3220 L
1655 3184 mt 1655 3256 L
4492 1336 mt 4564 1336 L
4528 1300 mt 4528 1372 L
3255 2343 mt 3327 2343 L
3291 2307 mt 3291 2379 L
2201 2899 mt 2273 2899 L
2237 2863 mt 2237 2935 L
3438 2135 mt 3510 2135 L
3474 2099 mt 3474 2171 L
2490 2879 mt 2562 2879 L
2526 2843 mt 2526 2915 L
3571 1858 mt 3643 1858 L
3607 1822 mt 3607 1894 L
3728 3069 mt 3800 3069 L
3764 3033 mt 3764 3105 L
3983 3625 mt 4055 3625 L
4019 3589 mt 4019 3661 L
2859 2270 mt 2931 2270 L
2895 2234 mt 2895 2306 L
4553 2165 mt 4625 2165 L
4589 2129 mt 4589 2201 L
4184 2597 mt 4256 2597 L
4220 2561 mt 4220 2633 L
3780 3340 mt 3852 3340 L
3816 3304 mt 3816 3376 L
4228 2078 mt 4300 2078 L
4264 2042 mt 4264 2114 L
2888 1960 mt 2960 1960 L
2924 1924 mt 2924 1996 L
4746 1371 mt 4818 1371 L
4782 1335 mt 4782 1407 L
3178 2736 mt 3250 2736 L
3214 2700 mt 3214 2772 L
4021 1604 mt 4093 1604 L
4057 1568 mt 4057 1640 L
4522 2145 mt 4594 2145 L
4558 2109 mt 4558 2181 L
2555 3045 mt 2627 3045 L
2591 3009 mt 2591 3081 L
2715 2989 mt 2787 2989 L
2751 2953 mt 2751 3025 L
3208 2497 mt 3280 2497 L
3244 2461 mt 3244 2533 L
4156 2718 mt 4228 2718 L
4192 2682 mt 4192 2754 L
2836 2471 mt 2908 2471 L
2872 2435 mt 2872 2507 L
3319 4205 mt 3391 4205 L
3355 4169 mt 3355 4241 L
3666 2909 mt 3738 2909 L
3702 2873 mt 3702 2945 L
2432 3178 mt 2504 3178 L
2468 3142 mt 2468 3214 L
2789 2541 mt 2861 2541 L
2825 2505 mt 2825 2577 L
5531 1892 mt 5603 1892 L
5567 1856 mt 5567 1928 L
3627 3137 mt 3699 3137 L
3663 3101 mt 3663 3173 L
3826 3405 mt 3898 3405 L
3862 3369 mt 3862 3441 L
3510 2700 mt 3582 2700 L
3546 2664 mt 3546 2736 L
3989 1707 mt 4061 1707 L
4025 1671 mt 4025 1743 L
2106 3386 mt 2178 3386 L
2142 3350 mt 2142 3422 L
3421 2731 mt 3493 2731 L
3457 2695 mt 3457 2767 L
2502 1404 mt 2574 1404 L
2538 1368 mt 2538 1440 L
2183 2935 mt 2255 2935 L
2219 2899 mt 2219 2971 L
3689 2787 mt 3761 2787 L
3725 2751 mt 3725 2823 L
3336 3206 mt 3408 3206 L
3372 3170 mt 3372 3242 L
2513 1698 mt 2585 1698 L
2549 1662 mt 2549 1734 L
3832 3415 mt 3904 3415 L
3868 3379 mt 3868 3451 L
2267 3314 mt 2339 3314 L
2303 3278 mt 2303 3350 L
2126 2223 mt 2198 2223 L
2162 2187 mt 2162 2259 L
2235 2659 mt 2307 2659 L
2271 2623 mt 2271 2695 L
4760 3376 mt 4832 3376 L
4796 3340 mt 4796 3412 L
3946 3446 mt 4018 3446 L
3982 3410 mt 3982 3482 L
3885 1823 mt 3957 1823 L
3921 1787 mt 3921 1859 L
2575 2686 mt 2647 2686 L
2611 2650 mt 2611 2722 L
3053 2484 mt 3125 2484 L
3089 2448 mt 3089 2520 L
2671 3273 mt 2743 3273 L
2707 3237 mt 2707 3309 L
4213 3075 mt 4285 3075 L
4249 3039 mt 4249 3111 L
4100 2641 mt 4172 2641 L
4136 2605 mt 4136 2677 L
3621 3281 mt 3693 3281 L
3657 3245 mt 3657 3317 L
4820 1462 mt 4892 1462 L
4856 1426 mt 4856 1498 L
2993 2175 mt 3065 2175 L
3029 2139 mt 3029 2211 L
1722 3118 mt 1794 3118 L
1758 3082 mt 1758 3154 L
3915 3567 mt 3987 3567 L
3951 3531 mt 3951 3603 L
3549 2830 mt 3621 2830 L
3585 2794 mt 3585 2866 L
3460 2365 mt 3532 2365 L
3496 2329 mt 3496 2401 L
5282 2311 mt 5354 2311 L
5318 2275 mt 5318 2347 L
4706 1087 mt 4778 1087 L
4742 1051 mt 4742 1123 L
3820 2956 mt 3892 2956 L
3856 2920 mt 3856 2992 L
2381 3395 mt 2453 3395 L
2417 3359 mt 2417 3431 L
3971 2754 mt 4043 2754 L
4007 2718 mt 4007 2790 L
3007 2914 mt 3079 2914 L
3043 2878 mt 3043 2950 L
4128 2602 mt 4200 2602 L
4164 2566 mt 4164 2638 L
5047 2073 mt 5119 2073 L
5083 2037 mt 5083 2109 L
3814 3515 mt 3886 3515 L
3850 3479 mt 3850 3551 L
2706 2884 mt 2778 2884 L
2742 2848 mt 2742 2920 L
2797 2501 mt 2869 2501 L
2833 2465 mt 2833 2537 L
4009 2040 mt 4081 2040 L
4045 2004 mt 4045 2076 L
4266 2741 mt 4338 2741 L
4302 2705 mt 4302 2777 L
3717 2449 mt 3789 2449 L
3753 2413 mt 3753 2485 L
2732 2682 mt 2804 2682 L
2768 2646 mt 2768 2718 L
3803 3039 mt 3875 3039 L
3839 3003 mt 3839 3075 L
3797 2316 mt 3869 2316 L
3833 2280 mt 3833 2352 L
3683 1787 mt 3755 1787 L
3719 1751 mt 3719 1823 L
3850 2773 mt 3922 2773 L
3886 2737 mt 3886 2809 L
4135 2209 mt 4207 2209 L
4171 2173 mt 4171 2245 L
3577 3022 mt 3649 3022 L
3613 2986 mt 3613 3058 L
2881 1624 mt 2953 1624 L
2917 1588 mt 2917 1660 L
2456 3581 mt 2528 3581 L
2492 3545 mt 2492 3617 L
3532 2279 mt 3604 2279 L
3568 2243 mt 3568 2315 L
3844 1917 mt 3916 1917 L
3880 1881 mt 3880 1953 L
3160 1207 mt 3232 1207 L
3196 1171 mt 3196 1243 L
3237 2480 mt 3309 2480 L
3273 2444 mt 3273 2516 L
3398 3235 mt 3470 3235 L
3434 3199 mt 3434 3271 L
4041 2432 mt 4113 2432 L
4077 2396 mt 4077 2468 L
4463 2392 mt 4535 2392 L
4499 2356 mt 4499 2428 L
3499 2619 mt 3571 2619 L
3535 2583 mt 3535 2655 L
2146 3822 mt 2218 3822 L
2182 3786 mt 2182 3858 L
3184 2155 mt 3256 2155 L
3220 2119 mt 3220 2191 L
3249 2334 mt 3321 2334 L
3285 2298 mt 3285 2370 L
3471 2633 mt 3543 2633 L
3507 2597 mt 3507 2669 L
4886 1643 mt 4958 1643 L
4922 1607 mt 4922 1679 L
6225  414 mt 6297  414 L
6261  378 mt 6261  450 L
3644 2458 mt 3716 2458 L
3680 2422 mt 3680 2494 L
3123 3000 mt 3195 3000 L
3159 2964 mt 3159 3036 L
3964 2549 mt 4036 2549 L
4000 2513 mt 4000 2585 L
4532 1388 mt 4604 1388 L
4568 1352 mt 4568 1424 L
2931 2571 mt 3003 2571 L
2967 2535 mt 2967 2607 L
4355 2247 mt 4427 2247 L
4391 2211 mt 4391 2283 L
3353 1802 mt 3425 1802 L
3389 1766 mt 3389 1838 L
3000 2320 mt 3072 2320 L
3036 2284 mt 3036 2356 L
3633 3297 mt 3705 3297 L
3669 3261 mt 3669 3333 L
4177 2778 mt 4249 2778 L
4213 2742 mt 4213 2814 L
2874 1662 mt 2946 1662 L
2910 1626 mt 2910 1698 L
2896 1923 mt 2968 1923 L
2932 1887 mt 2932 1959 L
3861 1865 mt 3933 1865 L
3897 1829 mt 3897 1901 L
4693 1550 mt 4765 1550 L
4729 1514 mt 4729 1586 L
3027 2894 mt 3099 2894 L
3063 2858 mt 3063 2930 L
3909 1809 mt 3981 1809 L
3945 1773 mt 3945 1845 L
4290 1954 mt 4362 1954 L
4326 1918 mt 4326 1990 L
3296 1845 mt 3368 1845 L
3332 1809 mt 3332 1881 L
5071 1152 mt 5143 1152 L
5107 1116 mt 5107 1188 L
1259 2849 mt 1331 2849 L
1295 2813 mt 1295 2885 L
2605 2854 mt 2677 2854 L
2641 2818 mt 2641 2890 L
3560 2329 mt 3632 2329 L
3596 2293 mt 3596 2365 L
2479 2983 mt 2551 2983 L
2515 2947 mt 2515 3019 L
3153 2194 mt 3225 2194 L
3189 2158 mt 3189 2230 L
2341 2046 mt 2413 2046 L
2377 2010 mt 2377 2082 L
4631 1794 mt 4703 1794 L
4667 1758 mt 4667 1830 L
4054 3658 mt 4126 3658 L
4090 3622 mt 4090 3694 L
5365 2536 mt 5437 2536 L
5401 2500 mt 5401 2572 L
2652 2820 mt 2724 2820 L
2688 2784 mt 2688 2856 L
4114 2840 mt 4186 2840 L
4150 2804 mt 4150 2876 L
3649 2750 mt 3721 2750 L
3685 2714 mt 3685 2786 L
4789 1006 mt 4861 1006 L
4825  970 mt 4825 1042 L
2586 3306 mt 2658 3306 L
2622 3270 mt 2622 3342 L
3638 2228 mt 3710 2228 L
3674 2192 mt 3674 2264 L
5211 2713 mt 5283 2713 L
5247 2677 mt 5247 2749 L
4347 2062 mt 4419 2062 L
4383 2026 mt 4383 2098 L
3791 3112 mt 3863 3112 L
3827 3076 mt 3827 3148 L
3873 3157 mt 3945 3157 L
3909 3121 mt 3909 3193 L
3273 1948 mt 3345 1948 L
3309 1912 mt 3309 1984 L
4574 1489 mt 4646 1489 L
4610 1453 mt 4610 1525 L
3740 2251 mt 3812 2251 L
3776 2215 mt 3776 2287 L
4274 2338 mt 4346 2338 L
4310 2302 mt 4310 2374 L
4732 1232 mt 4804 1232 L
4768 1196 mt 4768 1268 L
2407 1748 mt 2479 1748 L
2443 1712 mt 2443 1784 L
4667 2104 mt 4739 2104 L
4703 2068 mt 4703 2140 L
3934 1885 mt 4006 1885 L
3970 1849 mt 3970 1921 L
3879 2946 mt 3951 2946 L
3915 2910 mt 3915 2982 L
2624 3540 mt 2696 3540 L
2660 3504 mt 2660 3576 L
4364 1872 mt 4436 1872 L
4400 1836 mt 4400 1908 L
3977 3908 mt 4049 3908 L
4013 3872 mt 4013 3944 L
3482 3479 mt 3554 3479 L
3518 3443 mt 3518 3515 L
4381 2001 mt 4453 2001 L
4417 1965 mt 4417 2037 L
4869 1851 mt 4941 1851 L
4905 1815 mt 4905 1887 L
5002 1121 mt 5074 1121 L
5038 1085 mt 5038 1157 L
4472 1911 mt 4544 1911 L
4508 1875 mt 4508 1947 L
3661 3491 mt 3733 3491 L
3697 3455 mt 3697 3527 L
3347 3877 mt 3419 3877 L
3383 3841 mt 3383 3913 L
5024 1978 mt 5096 1978 L
5060 1942 mt 5060 2014 L
3745 3265 mt 3817 3265 L
3781 3229 mt 3781 3301 L
4775 2261 mt 4847 2261 L
4811 2225 mt 4811 2297 L
3516 2962 mt 3588 2962 L
3552 2926 mt 3552 2998 L
4002 2120 mt 4074 2120 L
4038 2084 mt 4038 2156 L
3261 1572 mt 3333 1572 L
3297 1536 mt 3297 1608 L
3432 3468 mt 3504 3468 L
3468 3432 mt 3468 3504 L
4206 2624 mt 4278 2624 L
4242 2588 mt 4242 2660 L
5828  564 mt 5900  564 L
5864  528 mt 5864  600 L
2689 2695 mt 2761 2695 L
2725 2659 mt 2725 2731 L
2615 3242 mt 2687 3242 L
2651 3206 mt 2651 3278 L
3278 2528 mt 3350 2528 L
3314 2492 mt 3314 2564 L
3387 2388 mt 3459 2388 L
3423 2352 mt 3423 2424 L
3104 3087 mt 3176 3087 L
3140 3051 mt 3140 3123 L
3196 3457 mt 3268 3457 L
3232 3421 mt 3232 3493 L
4060 2180 mt 4132 2180 L
4096 2144 mt 4096 2216 L
3809 2637 mt 3881 2637 L
3845 2601 mt 3845 2673 L
3110 2125 mt 3182 2125 L
3146 2089 mt 3146 2161 L
5122 2668 mt 5194 2668 L
5158 2632 mt 5158 2704 L
4074 2140 mt 4146 2140 L
4110 2104 mt 4110 2176 L
3078 2475 mt 3150 2475 L
3114 2439 mt 3114 2511 L
3867 3184 mt 3939 3184 L
3903 3148 mt 3903 3220 L
1991 2646 mt 2063 2646 L
2027 2610 mt 2027 2682 L
4961 2589 mt 5033 2589 L
4997 2553 mt 4997 2625 L
3342 2835 mt 3414 2835 L
3378 2799 mt 3378 2871 L
3220 2024 mt 3292 2024 L
3256 1988 mt 3256 2060 L
3762 2940 mt 3834 2940 L
3798 2904 mt 3798 2976 L
3952 1816 mt 4024 1816 L
3988 1780 mt 3988 1852 L
4941 1972 mt 5013 1972 L
4977 1936 mt 4977 2008 L
3226 2185 mt 3298 2185 L
3262 2149 mt 3262 2221 L
3454 2418 mt 3526 2418 L
3490 2382 mt 3490 2454 L
2565 2764 mt 2637 2764 L
2601 2728 mt 2601 2800 L
3129 2951 mt 3201 2951 L
3165 2915 mt 3165 2987 L
2821 3436 mt 2893 3436 L
2857 3400 mt 2857 3472 L
3147 3005 mt 3219 3005 L
3183 2969 mt 3183 3041 L
2420 2242 mt 2492 2242 L
2456 2206 mt 2456 2278 L
3370 3063 mt 3442 3063 L
3406 3027 mt 3406 3099 L
3711 1723 mt 3783 1723 L
3747 1687 mt 3747 1759 L
2545 3367 mt 2617 3367 L
2581 3331 mt 2581 3403 L
3020 1966 mt 3092 1966 L
3056 1930 mt 3056 2002 L
4542 1526 mt 4614 1526 L
4578 1490 mt 4578 1562 L
2312 2628 mt 2384 2628 L
2348 2592 mt 2348 2664 L
3040 1831 mt 3112 1831 L
3076 1795 mt 3076 1867 L
4407 1671 mt 4479 1671 L
4443 1635 mt 4443 1707 L
2844 2109 mt 2916 2109 L
2880 2073 mt 2880 2145 L
4221 1514 mt 4293 1514 L
4257 1478 mt 4257 1550 L
4425 1634 mt 4497 1634 L
4461 1598 mt 4461 1670 L
3243 3331 mt 3315 3331 L
3279 3295 mt 3279 3367 L
5413  898 mt 5485  898 L
5449  862 mt 5449  934 L
3443 2361 mt 3515 2361 L
3479 2325 mt 3479 2397 L
2016 3057 mt 2088 3057 L
2052 3021 mt 2052 3093 L
2851 3503 mt 2923 3503 L
2887 3467 mt 2887 3539 L
1674 2727 mt 1746 2727 L
1710 2691 mt 1710 2763 L
3774 2427 mt 3846 2427 L
3810 2391 mt 3810 2463 L
4034 2440 mt 4106 2440 L
4070 2404 mt 4070 2476 L
4121 2815 mt 4193 2815 L
4157 2779 mt 4157 2851 L
2813 2347 mt 2885 2347 L
2849 2311 mt 2849 2383 L
4619 1689 mt 4691 1689 L
4655 1653 mt 4655 1725 L
3477 3942 mt 3549 3942 L
3513 3906 mt 3513 3978 L
3706 3553 mt 3778 3553 L
3742 3517 mt 3742 3589 L
3672 2453 mt 3744 2453 L
3708 2417 mt 3708 2489 L
2866 2170 mt 2938 2170 L
2902 2134 mt 2902 2206 L
4852 1277 mt 4924 1277 L
4888 1241 mt 4888 1313 L
3302 2864 mt 3374 2864 L
3338 2828 mt 3338 2900 L
4170 1434 mt 4242 1434 L
4206 1398 mt 4206 1470 L
4482 2029 mt 4554 2029 L
4518 1993 mt 4518 2065 L
2368 2782 mt 2440 2782 L
2404 2746 mt 2404 2818 L
2251 2972 mt 2323 2972 L
2287 2936 mt 2287 3008 L
3616 1930 mt 3688 1930 L
3652 1894 mt 3652 1966 L
4282 2383 mt 4354 2383 L
4318 2347 mt 4318 2419 L
2805 2554 mt 2877 2554 L
2841 2518 mt 2841 2590 L
3996 2445 mt 4068 2445 L
4032 2409 mt 4032 2481 L
4107 2199 mt 4179 2199 L
4143 2163 mt 4143 2235 L
3313 2293 mt 3385 2293 L
3349 2257 mt 3349 2329 L
3610 3191 mt 3682 3191 L
3646 3155 mt 3646 3227 L
5700 1740 mt 5772 1740 L
5736 1704 mt 5736 1776 L
3066 2677 mt 3138 2677 L
3102 2641 mt 3102 2713 L
4298 2374 mt 4370 2374 L
4334 2338 mt 4334 2410 L
3449 2704 mt 3521 2704 L
3485 2668 mt 3485 2740 L
3734 1772 mt 3806 1772 L
3770 1736 mt 3770 1808 L
2910 2567 mt 2982 2567 L
2946 2531 mt 2946 2603 L
2973 3595 mt 3045 3595 L
3009 3559 mt 3009 3631 L
2903 1255 mt 2975 1255 L
2939 1219 mt 2939 1291 L
1937 2506 mt 2009 2506 L
1973 2470 mt 1973 2542 L
4080 1936 mt 4152 1936 L
4116 1900 mt 4116 1972 L
3527 3081 mt 3599 3081 L
3563 3045 mt 3563 3117 L
3521 2584 mt 3593 2584 L
3557 2548 mt 3557 2620 L
3677 2664 mt 3749 2664 L
3713 2628 mt 3713 2700 L
3544 2510 mt 3616 2510 L
3580 2474 mt 3580 2546 L
2966 2035 mt 3038 2035 L
3002 1999 mt 3002 2071 L
2952 2978 mt 3024 2978 L
2988 2942 mt 2988 3014 L
4322 3349 mt 4394 3349 L
4358 3313 mt 4358 3385 L
3958 2994 mt 4030 2994 L
3994 2958 mt 3994 3030 L
3376 1764 mt 3448 1764 L
3412 1728 mt 3412 1800 L
2643 2256 mt 2715 2256 L
2679 2220 mt 2679 2292 L
3393 3198 mt 3465 3198 L
3429 3162 mt 3429 3234 L
2945 2920 mt 3017 2920 L
2981 2884 mt 2981 2956 L
3555 3051 mt 3627 3051 L
3591 3015 mt 3591 3087 L
gs 899 414 5363 4203 rc
gr

0 sg
2779 5104 mt 
(\(F,DCTs,GMM\)) s
 482 3320 mt  -90 rotate
(\(F,DCTb,GMM\)) s
90 rotate
2975  223 mt 
(Corr = 0.38) s

end %%Color Dict

eplot
%%EndObject

epage
end

showpage

%%Trailer
%%EOF
