%!PS-Adobe-3.0 EPSF-3.0
%%Creator: MATLAB, The Mathworks, Inc. Version 7.7.0.471 (R2008b). Operating System: Microsoft Windows XP.
%%Title: Pictures\main_zoo_mvar_analysis_data_BMI_xcorr_bmig_p1_k1_3_6.eps
%%CreationDate: 10/26/2009  05:44:56
%%DocumentNeededFonts: Helvetica
%%DocumentProcessColors: Cyan Magenta Yellow Black
%%LanguageLevel: 2
%%Pages: 1
%%BoundingBox:    37   180   549   616
%%EndComments

%%BeginProlog
% MathWorks dictionary
/MathWorks 160 dict begin
% definition operators
/bdef {bind def} bind def
/ldef {load def} bind def
/xdef {exch def} bdef
/xstore {exch store} bdef
% operator abbreviations
/c  /clip ldef
/cc /concat ldef
/cp /closepath ldef
/gr /grestore ldef
/gs /gsave ldef
/mt /moveto ldef
/np /newpath ldef
/cm /currentmatrix ldef
/sm /setmatrix ldef
/rm /rmoveto ldef
/rl /rlineto ldef
/s {show newpath} bdef
/sc {setcmykcolor} bdef
/sr /setrgbcolor ldef
/sg /setgray ldef
/w /setlinewidth ldef
/j /setlinejoin ldef
/cap /setlinecap ldef
/rc {rectclip} bdef
/rf {rectfill} bdef
% page state control
/pgsv () def
/bpage {/pgsv save def} bdef
/epage {pgsv restore} bdef
/bplot /gsave ldef
/eplot {stroke grestore} bdef
% orientation switch
/portraitMode 0 def /landscapeMode 1 def /rotateMode 2 def
% coordinate system mappings
/dpi2point 0 def
% font control
/FontSize 0 def
/FMS {/FontSize xstore findfont [FontSize 0 0 FontSize neg 0 0]
  makefont setfont} bdef
/ISOLatin1Encoding where {pop /WindowsLatin1Encoding 256 array bdef
ISOLatin1Encoding WindowsLatin1Encoding copy pop
/.notdef/.notdef/quotesinglbase/florin/quotedblbase/ellipsis/dagger
/daggerdbl/circumflex/perthousand/Scaron/guilsinglleft/OE/.notdef/.notdef
/.notdef/.notdef/quoteleft/quoteright/quotedblleft/quotedblright/bullet
/endash/emdash/tilde/trademark/scaron/guilsinglright/oe/.notdef/.notdef
/Ydieresis WindowsLatin1Encoding 128 32 getinterval astore pop}
{/WindowsLatin1Encoding StandardEncoding bdef} ifelse
/reencode {exch dup where {pop load} {pop StandardEncoding} ifelse
  exch dup 3 1 roll findfont dup length dict begin
  { 1 index /FID ne {def}{pop pop} ifelse } forall
  /Encoding exch def currentdict end definefont pop} bdef
/isroman {findfont /CharStrings get /Agrave known} bdef
/FMSR {3 1 roll 1 index dup isroman {reencode} {pop pop} ifelse
  exch FMS} bdef
/csm {1 dpi2point div -1 dpi2point div scale neg translate
 dup landscapeMode eq {pop -90 rotate}
  {rotateMode eq {90 rotate} if} ifelse} bdef
% line types: solid, dotted, dashed, dotdash
/SO { [] 0 setdash } bdef
/DO { [.5 dpi2point mul 4 dpi2point mul] 0 setdash } bdef
/DA { [6 dpi2point mul] 0 setdash } bdef
/DD { [.5 dpi2point mul 4 dpi2point mul 6 dpi2point mul 4
  dpi2point mul] 0 setdash } bdef
% macros for lines and objects
/L {lineto stroke} bdef
/MP {3 1 roll moveto 1 sub {rlineto} repeat} bdef
/AP {{rlineto} repeat} bdef
/PDlw -1 def
/W {/PDlw currentlinewidth def setlinewidth} def
/PP {closepath eofill} bdef
/DP {closepath stroke} bdef
/MR {4 -2 roll moveto dup  0 exch rlineto exch 0 rlineto
  neg 0 exch rlineto closepath} bdef
/FR {MR stroke} bdef
/PR {MR fill} bdef
/L1i {{currentfile picstr readhexstring pop} image} bdef
/tMatrix matrix def
/MakeOval {newpath tMatrix currentmatrix pop translate scale
0 0 1 0 360 arc tMatrix setmatrix} bdef
/FO {MakeOval stroke} bdef
/PO {MakeOval fill} bdef
/PD {currentlinewidth 2 div 0 360 arc fill
   PDlw -1 eq not {PDlw w /PDlw -1 def} if} def
/FA {newpath tMatrix currentmatrix pop translate scale
  0 0 1 5 -2 roll arc tMatrix setmatrix stroke} bdef
/PA {newpath tMatrix currentmatrix pop	translate 0 0 moveto scale
  0 0 1 5 -2 roll arc closepath tMatrix setmatrix fill} bdef
/FAn {newpath tMatrix currentmatrix pop translate scale
  0 0 1 5 -2 roll arcn tMatrix setmatrix stroke} bdef
/PAn {newpath tMatrix currentmatrix pop translate 0 0 moveto scale
  0 0 1 5 -2 roll arcn closepath tMatrix setmatrix fill} bdef
/vradius 0 def /hradius 0 def /lry 0 def
/lrx 0 def /uly 0 def /ulx 0 def /rad 0 def
/MRR {/vradius xdef /hradius xdef /lry xdef /lrx xdef /uly xdef
  /ulx xdef newpath tMatrix currentmatrix pop ulx hradius add uly
  vradius add translate hradius vradius scale 0 0 1 180 270 arc 
  tMatrix setmatrix lrx hradius sub uly vradius add translate
  hradius vradius scale 0 0 1 270 360 arc tMatrix setmatrix
  lrx hradius sub lry vradius sub translate hradius vradius scale
  0 0 1 0 90 arc tMatrix setmatrix ulx hradius add lry vradius sub
  translate hradius vradius scale 0 0 1 90 180 arc tMatrix setmatrix
  closepath} bdef
/FRR {MRR stroke } bdef
/PRR {MRR fill } bdef
/MlrRR {/lry xdef /lrx xdef /uly xdef /ulx xdef /rad lry uly sub 2 div def
  newpath tMatrix currentmatrix pop ulx rad add uly rad add translate
  rad rad scale 0 0 1 90 270 arc tMatrix setmatrix lrx rad sub lry rad
  sub translate rad rad scale 0 0 1 270 90 arc tMatrix setmatrix
  closepath} bdef
/FlrRR {MlrRR stroke } bdef
/PlrRR {MlrRR fill } bdef
/MtbRR {/lry xdef /lrx xdef /uly xdef /ulx xdef /rad lrx ulx sub 2 div def
  newpath tMatrix currentmatrix pop ulx rad add uly rad add translate
  rad rad scale 0 0 1 180 360 arc tMatrix setmatrix lrx rad sub lry rad
  sub translate rad rad scale 0 0 1 0 180 arc tMatrix setmatrix
  closepath} bdef
/FtbRR {MtbRR stroke } bdef
/PtbRR {MtbRR fill } bdef
/stri 6 array def /dtri 6 array def
/smat 6 array def /dmat 6 array def
/tmat1 6 array def /tmat2 6 array def /dif 3 array def
/asub {/ind2 exch def /ind1 exch def dup dup
  ind1 get exch ind2 get sub exch } bdef
/tri_to_matrix {
  2 0 asub 3 1 asub 4 0 asub 5 1 asub
  dup 0 get exch 1 get 7 -1 roll astore } bdef
/compute_transform {
  dmat dtri tri_to_matrix tmat1 invertmatrix 
  smat stri tri_to_matrix tmat2 concatmatrix } bdef
/ds {stri astore pop} bdef
/dt {dtri astore pop} bdef
/db {2 copy /cols xdef /rows xdef mul dup 3 mul string
  currentfile 
  3 index 0 eq {/ASCIIHexDecode filter}
  {/ASCII85Decode filter 3 index 2 eq {/RunLengthDecode filter} if }
  ifelse exch readstring pop
  dup 0 3 index getinterval /rbmap xdef
  dup 2 index dup getinterval /gbmap xdef
  1 index dup 2 mul exch getinterval /bbmap xdef pop pop}bdef
/it {gs np dtri aload pop moveto lineto lineto cp c
  cols rows 8 compute_transform 
  rbmap gbmap bbmap true 3 colorimage gr}bdef
/il {newpath moveto lineto stroke}bdef
currentdict end def
%%EndProlog

%%BeginSetup
MathWorks begin

0 cap

end
%%EndSetup

%%Page: 1 1
%%BeginPageSetup
%%PageBoundingBox:    37   180   549   616
MathWorks begin
bpage
%%EndPageSetup

%%BeginObject: obj1
bplot

/dpi2point 12 def
portraitMode 0216 7344 csm

  234   -48  6149  5231 rc
85 dict begin %Colortable dictionary
/c0 { 0.000000 0.000000 0.000000 sr} bdef
/c1 { 1.000000 1.000000 1.000000 sr} bdef
/c2 { 0.900000 0.000000 0.000000 sr} bdef
/c3 { 0.000000 0.820000 0.000000 sr} bdef
/c4 { 0.000000 0.000000 0.800000 sr} bdef
/c5 { 0.910000 0.820000 0.320000 sr} bdef
/c6 { 1.000000 0.260000 0.820000 sr} bdef
/c7 { 0.000000 0.820000 0.820000 sr} bdef
c0
1 j
1 sg
   0    0 6919 5187 rf
6 w
0 4202 5362 0 0 -4202 899 4616 4 MP
PP
-5362 0 0 4202 5362 0 0 -4202 899 4616 5 MP stroke
4 w
DO
SO
6 w
0 sg
 899  414 mt 6261  414 L
 899 4616 mt 6261 4616 L
6261 4616 mt 6261  414 L
 899 4616 mt  899  414 L
 899 4616 mt 6261 4616 L
 899 4616 mt  899  414 L
 919 4616 mt  919 4562 L
 919  414 mt  919  467 L
%%IncludeResource: font Helvetica
/Helvetica /WindowsLatin1Encoding 240 FMSR

 713 4873 mt 
(-3) s
1806 4616 mt 1806 4562 L
1806  414 mt 1806  467 L
1600 4873 mt 
(-2) s
2693 4616 mt 2693 4562 L
2693  414 mt 2693  467 L
2487 4873 mt 
(-1) s
3580 4616 mt 3580 4562 L
3580  414 mt 3580  467 L
3514 4873 mt 
(0) s
4466 4616 mt 4466 4562 L
4466  414 mt 4466  467 L
4400 4873 mt 
(1) s
5353 4616 mt 5353 4562 L
5353  414 mt 5353  467 L
5287 4873 mt 
(2) s
6240 4616 mt 6240 4562 L
6240  414 mt 6240  467 L
6174 4873 mt 
(3) s
 899 4599 mt  952 4599 L
6261 4599 mt 6207 4599 L
 591 4688 mt 
(-3) s
 899 3904 mt  952 3904 L
6261 3904 mt 6207 3904 L
 591 3993 mt 
(-2) s
 899 3209 mt  952 3209 L
6261 3209 mt 6207 3209 L
 591 3298 mt 
(-1) s
 899 2514 mt  952 2514 L
6261 2514 mt 6207 2514 L
 731 2603 mt 
(0) s
 899 1820 mt  952 1820 L
6261 1820 mt 6207 1820 L
 731 1909 mt 
(1) s
 899 1125 mt  952 1125 L
6261 1125 mt 6207 1125 L
 731 1214 mt 
(2) s
 899  430 mt  952  430 L
6261  430 mt 6207  430 L
 731  519 mt 
(3) s
 899  414 mt 6261  414 L
 899 4616 mt 6261 4616 L
6261 4616 mt 6261  414 L
 899 4616 mt  899  414 L
gs 899 414 5363 4203 rc
gr

/c8 { 0.000000 0.000000 1.000000 sr} bdef
c8
4619 3081 mt 4691 3081 L
4655 3045 mt 4655 3117 L
3364 1816 mt 3436 1816 L
3400 1780 mt 3400 1852 L
5282 2233 mt 5354 2233 L
5318 2197 mt 5318 2269 L
3577 1732 mt 3649 1732 L
3613 1696 mt 3613 1768 L
3627 2194 mt 3699 2194 L
3663 2158 mt 3663 2230 L
4177 2347 mt 4249 2347 L
4213 2311 mt 4213 2383 L
2394 3063 mt 2466 3063 L
2430 3027 mt 2430 3099 L
2605 2773 mt 2677 2773 L
2641 2737 mt 2641 2809 L
3135 2467 mt 3207 2467 L
3171 2431 mt 3171 2503 L
4482 2759 mt 4554 2759 L
4518 2723 mt 4518 2795 L
4746  414 mt 4818  414 L
4782  378 mt 4782  450 L
4532 2275 mt 4604 2275 L
4568 2239 mt 4568 2311 L
4542 2024 mt 4614 2024 L
4578 1988 mt 4578 2060 L
4869 2189 mt 4941 2189 L
4905 2153 mt 4905 2225 L
3897 3425 mt 3969 3425 L
3933 3389 mt 3933 3461 L
3538 1152 mt 3610 1152 L
3574 1116 mt 3574 1188 L
4852 1787 mt 4924 1787 L
4888 1751 mt 4888 1823 L
2723 2909 mt 2795 2909 L
2759 2873 mt 2759 2945 L
3202 2165 mt 3274 2165 L
3238 2129 mt 3238 2201 L
2945 1823 mt 3017 1823 L
2981 1787 mt 2981 1859 L
4416 2510 mt 4488 2510 L
4452 2474 mt 4452 2546 L
4251 2935 mt 4323 2935 L
4287 2899 mt 4287 2971 L
3499 1371 mt 3571 1371 L
3535 1335 mt 3535 1407 L
3717 2214 mt 3789 2214 L
3753 2178 mt 3753 2250 L
4330 2840 mt 4402 2840 L
4366 2804 mt 4366 2876 L
4149 2920 mt 4221 2920 L
4185 2884 mt 4185 2956 L
3020 2668 mt 3092 2668 L
3056 2632 mt 3056 2704 L
4060 3022 mt 4132 3022 L
4096 2986 mt 4096 3058 L
3762 3051 mt 3834 3051 L
3798 3015 mt 3798 3087 L
2844 3711 mt 2916 3711 L
2880 3675 mt 2880 3747 L
4381 2374 mt 4453 2374 L
4417 2338 mt 4417 2410 L
3273 1561 mt 3345 1561 L
3309 1525 mt 3309 1597 L
2615 1923 mt 2687 1923 L
2651 1887 mt 2651 1959 L
1674 2637 mt 1746 2637 L
1710 2601 mt 1710 2673 L
4597 2576 mt 4669 2576 L
4633 2540 mt 4633 2612 L
4259 1604 mt 4331 1604 L
4295 1568 mt 4295 1640 L
2634 2338 mt 2706 2338 L
2670 2302 mt 2670 2374 L
4390 1643 mt 4462 1643 L
4426 1607 mt 4426 1679 L
4364  824 mt 4436  824 L
4400  788 mt 4400  860 L
4732 2180 mt 4804 2180 L
4768 2144 mt 4768 2216 L
2881 2445 mt 2953 2445 L
2917 2409 mt 2917 2481 L
3421  898 mt 3493  898 L
3457  862 mt 3457  934 L
3785 1858 mt 3857 1858 L
3821 1822 mt 3821 1894 L
5413 2584 mt 5485 2584 L
5449 2548 mt 5449 2620 L
2773 2051 mt 2845 2051 L
2809 2015 mt 2809 2087 L
3393 2279 mt 3465 2279 L
3429 2243 mt 3429 2315 L
4322 3553 mt 4394 3553 L
4358 3517 mt 4358 3589 L
2987 3908 mt 3059 3908 L
3023 3872 mt 3023 3944 L
4492 2035 mt 4564 2035 L
4528 1999 mt 4528 2071 L
4981 1794 mt 5053 1794 L
5017 1758 mt 5017 1830 L
3861 3331 mt 3933 3331 L
3897 3295 mt 3897 3367 L
 863 2062 mt  935 2062 L
 899 2026 mt  899 2098 L
5828 1298 mt 5900 1298 L
5864 1262 mt 5864 1334 L
3000 1526 mt 3072 1526 L
3036 1490 mt 3036 1562 L
2368 2994 mt 2440 2994 L
2404 2958 mt 2404 3030 L
3359 2223 mt 3431 2223 L
3395 2187 mt 3395 2259 L
2874 1538 mt 2946 1538 L
2910 1502 mt 2910 1574 L
3404 2140 mt 3476 2140 L
3440 2104 mt 3440 2176 L
5150 1845 mt 5222 1845 L
5186 1809 mt 5186 1881 L
5321 2396 mt 5393 2396 L
5357 2360 mt 5357 2432 L
4407 4023 mt 4479 4023 L
4443 3987 mt 4443 4059 L
3989 3731 mt 4061 3731 L
4025 3695 mt 4025 3767 L
3172 3306 mt 3244 3306 L
3208 3270 mt 3208 3342 L
4243 2801 mt 4315 2801 L
4279 2765 mt 4279 2837 L
6033 1948 mt 6105 1948 L
6069 1912 mt 6069 1984 L
3091 2325 mt 3163 2325 L
3127 2289 mt 3127 2361 L
5606 3527 mt 5678 3527 L
5642 3491 mt 5642 3563 L
4034 1878 mt 4106 1878 L
4070 1842 mt 4070 1914 L
5047 2820 mt 5119 2820 L
5083 2784 mt 5083 2856 L
4961 3151 mt 5033 3151 L
4997 3115 mt 4997 3187 L
4608 2073 mt 4680 2073 L
4644 2037 mt 4644 2109 L
4041 2334 mt 4113 2334 L
4077 2298 mt 4077 2370 L
3510 2849 mt 3582 2849 L
3546 2813 mt 3546 2885 L
3711 2480 mt 3783 2480 L
3747 2444 mt 3747 2516 L
4760 2242 mt 4832 2242 L
4796 2206 mt 4796 2278 L
4472 1984 mt 4544 1984 L
4508 1948 mt 4508 2020 L
2040 1885 mt 2112 1885 L
2076 1849 mt 2076 1921 L
5180 2659 mt 5252 2659 L
5216 2623 mt 5216 2695 L
2624 1809 mt 2696 1809 L
2660 1773 mt 2660 1845 L
4372 2686 mt 4444 2686 L
4408 2650 mt 4408 2722 L
2671 1614 mt 2743 1614 L
2707 1578 mt 2707 1650 L
4015 2204 mt 4087 2204 L
4051 2168 mt 4051 2240 L
5211 1707 mt 5283 1707 L
5247 1671 mt 5247 1743 L
4087 1872 mt 4159 1872 L
4123 1836 mt 4123 1908 L
4021 3515 mt 4093 3515 L
4057 3479 mt 4057 3551 L
4135 3658 mt 4207 3658 L
4171 3622 mt 4171 3694 L
2235 1049 mt 2307 1049 L
2271 1013 mt 2271 1085 L
3059 3118 mt 3131 3118 L
3095 3082 mt 3095 3154 L
3952 2682 mt 4024 2682 L
3988 2646 mt 3988 2718 L
3826 2904 mt 3898 2904 L
3862 2868 mt 3862 2940 L
4585 2109 mt 4657 2109 L
4621 2073 mt 4621 2145 L
3774 2956 mt 3846 2956 L
3810 2920 mt 3810 2992 L
3803 1960 mt 3875 1960 L
3839 1924 mt 3839 1996 L
3307 1232 mt 3379 1232 L
3343 1196 mt 3343 1268 L
3190 2484 mt 3262 2484 L
3226 2448 mt 3226 2520 L
4114 2493 mt 4186 2493 L
4150 2457 mt 4150 2529 L
4266 2040 mt 4338 2040 L
4302 2004 mt 4302 2076 L
4199 1181 mt 4271 1181 L
4235 1145 mt 4235 1217 L
2689 4305 mt 2761 4305 L
2725 4269 mt 2725 4341 L
3237 3693 mt 3309 3693 L
3273 3657 mt 3273 3729 L
3482 1624 mt 3554 1624 L
3518 1588 mt 3518 1660 L
3832 1764 mt 3904 1764 L
3868 1728 mt 3868 1800 L
4398 2361 mt 4470 2361 L
4434 2325 mt 4434 2397 L
4028 3358 mt 4100 3358 L
4064 3322 mt 4064 3394 L
3249 2967 mt 3321 2967 L
3285 2931 mt 3285 3003 L
3689 2978 mt 3761 2978 L
3725 2942 mt 3725 3014 L
4706 2825 mt 4778 2825 L
4742 2789 mt 4742 2861 L
4221  724 mt 4293  724 L
4257  688 mt 4257  760 L
3677 3848 mt 3749 3848 L
3713 3812 mt 3713 3884 L
3983 1572 mt 4055 1572 L
4019 1536 mt 4019 1608 L
3780 1354 mt 3852 1354 L
3816 1318 mt 3816 1390 L
3449 2475 mt 3521 2475 L
3485 2439 mt 3485 2511 L
2381 2815 mt 2453 2815 L
2417 2779 mt 2417 2851 L
4667 2754 mt 4739 2754 L
4703 2718 mt 4703 2790 L
3934 2302 mt 4006 2302 L
3970 2266 mt 3970 2338 L
3728 2316 mt 3800 2316 L
3764 2280 mt 3764 2352 L
2888 1087 mt 2960 1087 L
2924 1051 mt 2924 1123 L
4298 3250 mt 4370 3250 L
4334 3214 mt 4334 3286 L
1991 2265 mt 2063 2265 L
2027 2229 mt 2027 2301 L
3153 1865 mt 3225 1865 L
3189 1829 mt 3189 1901 L
3855 2972 mt 3927 2972 L
3891 2936 mt 3891 3008 L
5700 3376 mt 5772 3376 L
5736 3340 mt 5736 3412 L
2680 1489 mt 2752 1489 L
2716 1453 mt 2716 1525 L
4631 1653 mt 4703 1653 L
4667 1617 mt 4667 1689 L
5071 1404 mt 5143 1404 L
5107 1368 mt 5107 1440 L
5245 3017 mt 5317 3017 L
5281 2981 mt 5281 3053 L
3313 2750 mt 3385 2750 L
3349 2714 mt 3349 2786 L
4719 1756 mt 4791 1756 L
4755 1720 mt 4755 1792 L
4643 2571 mt 4715 2571 L
4679 2535 mt 4679 2607 L
3791 2170 mt 3863 2170 L
3827 2134 mt 3827 2206 L
2432 2633 mt 2504 2633 L
2468 2597 mt 2468 2669 L
4306 2247 mt 4378 2247 L
4342 2211 mt 4342 2283 L
3123 1715 mt 3195 1715 L
3159 1679 mt 3159 1751 L
3566 2218 mt 3638 2218 L
3602 2182 mt 3602 2254 L
3885 3257 mt 3957 3257 L
3921 3221 mt 3921 3293 L
2502 2356 mt 2574 2356 L
2538 2320 mt 2538 2392 L
3330 3457 mt 3402 3457 L
3366 3421 mt 3366 3493 L
4094 2787 mt 4166 2787 L
4130 2751 mt 4130 2823 L
5002 1255 mt 5074 1255 L
5038 1219 mt 5038 1291 L
4789 1662 mt 4861 1662 L
4825 1626 mt 4825 1698 L
3867 2889 mt 3939 2889 L
3903 2853 mt 3903 2925 L
3116 2237 mt 3188 2237 L
3152 2201 mt 3152 2273 L
3616 2946 mt 3688 2946 L
3652 2910 mt 3652 2982 L
3066 2562 mt 3138 2562 L
3102 2526 mt 3102 2598 L
3302 2256 mt 3374 2256 L
3338 2220 mt 3338 2292 L
3398 1978 mt 3470 1978 L
3434 1942 mt 3434 2014 L
3033 3099 mt 3105 3099 L
3069 3063 mt 3069 3135 L
4435 3595 mt 4507 3595 L
4471 3559 mt 4471 3631 L
4338 2859 mt 4410 2859 L
4374 2823 mt 4374 2895 L
4444 1698 mt 4516 1698 L
4480 1662 mt 4480 1734 L
3599 1966 mt 3671 1966 L
3635 1930 mt 3635 2002 L
3694 2914 mt 3766 2914 L
3730 2878 mt 3730 2950 L
3605 1772 mt 3677 1772 L
3641 1736 mt 3641 1808 L
3927 2029 mt 3999 2029 L
3963 1993 mt 3963 2065 L
5365 2782 mt 5437 2782 L
5401 2746 mt 5401 2818 L
2662 3075 mt 2734 3075 L
2698 3039 mt 2698 3111 L
5531 2879 mt 5603 2879 L
5567 2843 mt 5567 2915 L
2545 2519 mt 2617 2519 L
2581 2483 mt 2581 2555 L
3370  957 mt 3442  957 L
3406  921 mt 3406  993 L
2146 2528 mt 2218 2528 L
2182 2492 mt 2182 2564 L
4836 2418 mt 4908 2418 L
4872 2382 mt 4872 2454 L
4886 2835 mt 4958 2835 L
4922 2799 mt 4922 2871 L
4922 2677 mt 4994 2677 L
4958 2641 mt 4958 2713 L
3255 2115 mt 3327 2115 L
3291 2079 mt 3291 2151 L
2959 3106 mt 3031 3106 L
2995 3070 mt 2995 3142 L
1619 2764 mt 1691 2764 L
1655 2728 mt 1655 2800 L
4463 3314 mt 4535 3314 L
4499 3278 mt 4499 3350 L
1907 2497 mt 1979 2497 L
1943 2461 mt 1943 2533 L
4274 3164 mt 4346 3164 L
4310 3128 mt 4310 3200 L
4501 2727 mt 4573 2727 L
4537 2691 mt 4537 2763 L
3319 2343 mt 3391 2343 L
3355 2307 mt 3355 2379 L
4067 2619 mt 4139 2619 L
4103 2583 mt 4103 2655 L
2732 2099 mt 2804 2099 L
2768 2063 mt 2768 2135 L
3588 3641 mt 3660 3641 L
3624 3605 mt 3624 3677 L
4236 2536 mt 4308 2536 L
4272 2500 mt 4272 2572 L
4355 2150 mt 4427 2150 L
4391 2114 mt 4391 2186 L
2903 1740 mt 2975 1740 L
2939 1704 mt 2939 1776 L
4290 3468 mt 4362 3468 L
4326 3432 mt 4326 3504 L
3915 2722 mt 3987 2722 L
3951 2686 mt 3951 2758 L
3638 3242 mt 3710 3242 L
3674 3206 mt 3674 3278 L
3706 3265 mt 3778 3265 L
3742 3229 mt 3742 3301 L
3226 1462 mt 3298 1462 L
3262 1426 mt 3262 1498 L
4805 2899 mt 4877 2899 L
4841 2863 mt 4841 2935 L
6225 1476 mt 6297 1476 L
6261 1440 mt 6261 1512 L
3921 2130 mt 3993 2130 L
3957 2094 mt 3957 2166 L
2355 3191 mt 2427 3191 L
2391 3155 mt 2391 3227 L
3410 3322 mt 3482 3322 L
3446 3286 mt 3446 3358 L
3797 3797 mt 3869 3797 L
3833 3761 mt 3833 3833 L
3621 1972 mt 3693 1972 L
3657 1936 mt 3657 2008 L
2267 4616 mt 2339 4616 L
2303 4580 mt 2303 4652 L
3505 3415 mt 3577 3415 L
3541 3379 mt 3541 3451 L
4228 2067 mt 4300 2067 L
4264 2031 mt 4264 2103 L
2341 2745 mt 2413 2745 L
2377 2709 mt 2377 2781 L
4128 2185 mt 4200 2185 L
4164 2149 mt 4164 2221 L
3723 1207 mt 3795 1207 L
3759 1171 mt 3759 1243 L
4314 2951 mt 4386 2951 L
4350 2915 mt 4350 2987 L
3879 2089 mt 3951 2089 L
3915 2053 mt 3915 2125 L
2575 3011 mt 2647 3011 L
2611 2975 mt 2611 3047 L
4775 3349 mt 4847 3349 L
4811 3313 mt 4811 3385 L
3996 2453 mt 4068 2453 L
4032 2417 mt 4032 2489 L
3243 2811 mt 3315 2811 L
3279 2775 mt 3279 2847 L
4121 3942 mt 4193 3942 L
4157 3906 mt 4157 3978 L
3129 3625 mt 3201 3625 L
3165 3589 mt 3165 3661 L
2757 1502 mt 2829 1502 L
2793 1466 mt 2793 1538 L
3376 2440 mt 3448 2440 L
3412 2404 mt 3412 2476 L
2706 1851 mt 2778 1851 L
2742 1815 mt 2742 1887 L
3521 2293 mt 3593 2293 L
3557 2257 mt 3557 2329 L
3649 2718 mt 3721 2718 L
3685 2682 mt 3685 2754 L
3946 2589 mt 4018 2589 L
3982 2553 mt 3982 2625 L
2924 3213 mt 2996 3213 L
2960 3177 mt 2960 3249 L
3555 2175 mt 3627 2175 L
3591 2139 mt 3591 2211 L
3672 2383 mt 3744 2383 L
3708 2347 mt 3708 2419 L
3544 2597 mt 3616 2597 L
3580 2561 mt 3580 2633 L
2938 3567 mt 3010 3567 L
2974 3531 mt 2974 3603 L
2586 3774 mt 2658 3774 L
2622 3738 mt 2622 3810 L
2595 1550 mt 2667 1550 L
2631 1514 mt 2631 1586 L
3820 2602 mt 3892 2602 L
3856 2566 mt 3856 2638 L
3958 2541 mt 4030 2541 L
3994 2505 mt 3994 2577 L
2910 1936 mt 2982 1936 L
2946 1900 mt 2946 1972 L
4184 1779 mt 4256 1779 L
4220 1743 mt 4220 1815 L
3838 4072 mt 3910 4072 L
3874 4036 mt 3874 4108 L
4425 2405 mt 4497 2405 L
4461 2369 mt 4461 2441 L
4156 1831 mt 4228 1831 L
4192 1795 mt 4192 1867 L
3147 2558 mt 3219 2558 L
3183 2522 mt 3183 2594 L
4107 2427 mt 4179 2427 L
4143 2391 mt 4143 2463 L
3078 2741 mt 3150 2741 L
3114 2705 mt 3114 2777 L
3342 2320 mt 3414 2320 L
3378 2284 mt 3378 2356 L
3296 2709 mt 3368 2709 L
3332 2673 mt 3332 2745 L
3903 2352 mt 3975 2352 L
3939 2316 mt 3939 2388 L
3460 3184 mt 3532 3184 L
3496 3148 mt 3496 3220 L
2218 2078 mt 2290 2078 L
2254 2042 mt 2254 2114 L
3220 1723 mt 3292 1723 L
3256 1687 mt 3256 1759 L
2896 1388 mt 2968 1388 L
2932 1352 mt 2932 1424 L
3661 3005 mt 3733 3005 L
3697 2969 mt 3697 3041 L
3432 2983 mt 3504 2983 L
3468 2947 mt 3468 3019 L
3757 1434 mt 3829 1434 L
3793 1398 mt 3793 1470 L
3549 2615 mt 3621 2615 L
3585 2579 mt 3585 2651 L
2513 2379 mt 2585 2379 L
2549 2343 mt 2549 2415 L
3644 1583 mt 3716 1583 L
3680 1547 mt 3680 1619 L
3655 3131 mt 3727 3131 L
3691 3095 mt 3691 3167 L
2652 1930 mt 2724 1930 L
2688 1894 mt 2688 1966 L
3387 1448 mt 3459 1448 L
3423 1412 mt 3423 1484 L
3560 2796 mt 3632 2796 L
3596 2760 mt 3596 2832 L
3040 2940 mt 3112 2940 L
3076 2904 mt 3076 2976 L
4074 1419 mt 4146 1419 L
4110 1383 mt 4110 1455 L
3166 2057 mt 3238 2057 L
3202 2021 mt 3202 2093 L
3085 2580 mt 3157 2580 L
3121 2544 mt 3121 2616 L
3610 2695 mt 3682 2695 L
3646 2659 mt 3646 2731 L
1805 2869 mt 1877 2869 L
1841 2833 mt 1841 2905 L
2740 2593 mt 2812 2593 L
2776 2557 mt 2776 2629 L
3284 2925 mt 3356 2925 L
3320 2889 mt 3320 2961 L
2715 2155 mt 2787 2155 L
2751 2119 mt 2751 2191 L
4941 1318 mt 5013 1318 L
4977 1282 mt 4977 1354 L
2282 2251 mt 2354 2251 L
2318 2215 mt 2318 2287 L
2859 2854 mt 2931 2854 L
2895 2818 mt 2895 2890 L
3353 2135 mt 3425 2135 L
3389 2099 mt 3389 2171 L
3336 2930 mt 3408 2930 L
3372 2894 mt 3372 2966 L
2479 2392 mt 2551 2392 L
2515 2356 mt 2515 2428 L
4655 1990 mt 4727 1990 L
4691 1954 mt 4691 2026 L
3814 2462 mt 3886 2462 L
3850 2426 mt 3850 2498 L
4009 2012 mt 4081 2012 L
4045 1976 mt 4045 2048 L
1965 4131 mt 2037 4131 L
2001 4095 mt 2001 4167 L
2643 3877 mt 2715 3877 L
2679 3841 mt 2679 3913 L
3633 2414 mt 3705 2414 L
3669 2378 mt 3669 2450 L
2126 3281 mt 2198 3281 L
2162 3245 mt 2162 3317 L
1259 2209 mt 1331 2209 L
1295 2173 mt 1295 2245 L
2952 3675 mt 3024 3675 L
2988 3639 mt 2988 3711 L
1937 2844 mt 2009 2844 L
1973 2808 mt 1973 2880 L
4904 2874 mt 4976 2874 L
4940 2838 mt 4940 2910 L
3104 3178 mt 3176 3178 L
3140 3142 mt 3140 3214 L
5096 2449 mt 5168 2449 L
5132 2413 mt 5132 2485 L
3683 3752 mt 3755 3752 L
3719 3716 mt 3719 3788 L
2813 2713 mt 2885 2713 L
2849 2677 mt 2849 2749 L
3208 2523 mt 3280 2523 L
3244 2487 mt 3244 2559 L
2016 2410 mt 2088 2410 L
2052 2374 mt 2052 2446 L
3532 2018 mt 3604 2018 L
3568 1982 mt 3568 2054 L
4213 1671 mt 4285 1671 L
4249 1635 mt 4249 1707 L
2993 3198 mt 3065 3198 L
3029 3162 mt 3029 3234 L
4522 2545 mt 4594 2545 L
4558 2509 mt 4558 2581 L
3454 3405 mt 3526 3405 L
3490 3369 mt 3490 3441 L
3415  564 mt 3487  564 L
3451  528 mt 3451  600 L
3072 2736 mt 3144 2736 L
3108 2700 mt 3108 2772 L
4054 1689 mt 4126 1689 L
4090 1653 mt 4090 1725 L
2183 2673 mt 2255 2673 L
2219 2637 mt 2219 2709 L
2201 3045 mt 2273 3045 L
2237 3009 mt 2237 3081 L
3466 3220 mt 3538 3220 L
3502 3184 mt 3502 3256 L
4142 1336 mt 4214 1336 L
4178 1300 mt 4178 1372 L
3751 3069 mt 3823 3069 L
3787 3033 mt 3787 3105 L
3666 2864 mt 3738 2864 L
3702 2828 mt 3702 2900 L
3768 3491 mt 3840 3491 L
3804 3455 mt 3804 3527 L
3214 3297 mt 3286 3297 L
3250 3261 mt 3250 3333 L
3909 2792 mt 3981 2792 L
3945 2756 mt 3945 2828 L
2765 2288 mt 2837 2288 L
2801 2252 mt 2801 2324 L
3007 1942 mt 3079 1942 L
3043 1906 mt 3043 1978 L
1766 2606 mt 1838 2606 L
1802 2570 mt 1802 2642 L
1387 2261 mt 1459 2261 L
1423 2225 mt 1423 2297 L
1556 2650 mt 1628 2650 L
1592 2614 mt 1592 2686 L
2085 2514 mt 2157 2514 L
2121 2478 mt 2121 2550 L
2468 3235 mt 2540 3235 L
2504 3199 mt 2504 3271 L
4163 3386 mt 4235 3386 L
4199 3350 mt 4199 3422 L
2251 2423 mt 2323 2423 L
2287 2387 mt 2287 2459 L
2821 3581 mt 2893 3581 L
2857 3545 mt 2857 3617 L
2534 1917 mt 2606 1917 L
2570 1881 mt 2570 1953 L
3098 3367 mt 3170 3367 L
3134 3331 mt 3134 3403 L
4170 2884 mt 4242 2884 L
4206 2848 mt 4206 2920 L
3477 3125 mt 3549 3125 L
3513 3089 mt 3513 3161 L
5122 2298 mt 5194 2298 L
5158 2262 mt 5158 2334 L
3141 1514 mt 3213 1514 L
3177 1478 mt 3177 1550 L
3347 2145 mt 3419 2145 L
3383 2109 mt 3383 2181 L
3493 2083 mt 3565 2083 L
3529 2047 mt 3529 2119 L
4191 1277 mt 4263 1277 L
4227 1241 mt 4227 1313 L
3046 3057 mt 3118 3057 L
3082 3021 mt 3082 3093 L
4680 2628 mt 4752 2628 L
4716 2592 mt 4716 2664 L
3891 3395 mt 3963 3395 L
3927 3359 mt 3927 3431 L
3471 3436 mt 3543 3436 L
3507 3400 mt 3507 3472 L
3977 2228 mt 4049 2228 L
4013 2192 mt 4013 2264 L
3740 3112 mt 3812 3112 L
3776 3076 mt 3776 3148 L
2327 1898 mt 2399 1898 L
2363 1862 mt 2363 1934 L
2828 2768 mt 2900 2768 L
2864 2732 mt 2864 2804 L
2866 2046 mt 2938 2046 L
2902 2010 mt 2902 2082 L
2063 2641 mt 2135 2641 L
2099 2605 mt 2099 2677 L
4553 2370 mt 4625 2370 L
4589 2334 mt 4589 2406 L
2836 1593 mt 2908 1593 L
2872 1557 mt 2872 1629 L
4282 2436 mt 4354 2436 L
4318 2400 mt 4318 2472 L
3426 2549 mt 3498 2549 L
3462 2513 mt 3462 2585 L
1842 2731 mt 1914 2731 L
1878 2695 mt 1878 2767 L
3267 3034 mt 3339 3034 L
3303 2998 mt 3303 3070 L
3290 1904 mt 3362 1904 L
3326 1868 mt 3326 1940 L
3516 3206 mt 3588 3206 L
3552 3170 mt 3552 3242 L
2966 2624 mt 3038 2624 L
3002 2588 mt 3002 2660 L
2444 3540 mt 2516 3540 L
2480 3504 mt 2480 3576 L
2165 2554 mt 2237 2554 L
2201 2518 mt 2201 2590 L
3261 1634 mt 3333 1634 L
3297 1598 mt 3297 1670 L
2781 2001 mt 2853 2001 L
2817 1965 mt 2817 2037 L
3964 2388 mt 4036 2388 L
4000 2352 mt 4000 2424 L
4693 2506 mt 4765 2506 L
4729 2470 mt 4729 2542 L
2456 2611 mt 2528 2611 L
2492 2575 mt 2492 2647 L
1876 2567 mt 1948 2567 L
1912 2531 mt 1912 2603 L
2312 1006 mt 2384 1006 L
2348  970 mt 2348 1042 L
4574 4205 mt 4646 4205 L
4610 4169 mt 4610 4241 L
3582 2270 mt 3654 2270 L
3618 2234 mt 3618 2306 L
3438 2962 mt 3510 2962 L
3474 2926 mt 3474 2998 L
4080 2989 mt 4152 2989 L
4116 2953 mt 4116 3025 L
2917 3028 mt 2989 3028 L
2953 2992 mt 2953 3064 L
3734 3479 mt 3806 3479 L
3770 3443 mt 3770 3515 L
3873 2806 mt 3945 2806 L
3909 2770 mt 3909 2842 L
4100 3980 mt 4172 3980 L
4136 3944 mt 4136 4016 L
4564 3144 mt 4636 3144 L
4600 3108 mt 4600 3180 L
2523 3273 mt 2595 3273 L
2559 3237 mt 2559 3309 L
3745 1121 mt 3817 1121 L
3781 1085 mt 3781 1157 L
2697 1954 mt 2769 1954 L
2733 1918 mt 2733 1990 L
2980 1911 mt 3052 1911 L
3016 1875 mt 3016 1947 L
4453 1892 mt 4525 1892 L
4489 1856 mt 4489 1928 L
3850 2307 mt 3922 2307 L
3886 2271 mt 3886 2343 L
1481 2120 mt 1553 2120 L
1517 2084 mt 1517 2156 L
2931 3087 mt 3003 3087 L
2967 3051 mt 2967 3123 L
3381 3000 mt 3453 3000 L
3417 2964 mt 3417 3036 L
3160 2284 mt 3232 2284 L
3196 2248 mt 3196 2320 L
2851 2401 mt 2923 2401 L
2887 2365 mt 2887 2437 L
3027 3227 mt 3099 3227 L
3063 3191 mt 3063 3263 L
4002 3093 mt 4074 3093 L
4038 3057 mt 4038 3129 L
3809 2104 mt 3881 2104 L
3845 2068 mt 3845 2140 L
4347 2704 mt 4419 2704 L
4383 2668 mt 4383 2740 L
2565 3340 mt 2637 3340 L
2601 3304 mt 2601 3376 L
3278 1680 mt 3350 1680 L
3314 1644 mt 3314 1716 L
3196 1995 mt 3268 1995 L
3232 1959 mt 3232 2031 L
2797 3289 mt 2869 3289 L
2833 3253 mt 2833 3325 L
2749 1838 mt 2821 1838 L
2785 1802 mt 2785 1874 L
3178 2329 mt 3250 2329 L
3214 2293 mt 3214 2365 L
3053 2125 mt 3125 2125 L
3089 2089 mt 3089 2161 L
2407 2655 mt 2479 2655 L
2443 2619 mt 2443 2691 L
3232 2094 mt 3304 2094 L
3268 2058 mt 3268 2130 L
1722 3446 mt 1794 3446 L
1758 3410 mt 1758 3482 L
2555 3137 mt 2627 3137 L
2591 3101 mt 2591 3173 L
3013 2646 mt 3085 2646 L
3049 2610 mt 3049 2682 L
2490 1748 mt 2562 1748 L
2526 1712 mt 2526 1784 L
3488 2365 mt 3560 2365 L
3524 2329 mt 3524 2401 L
3184 2471 mt 3256 2471 L
3220 2435 mt 3220 2507 L
3443 3039 mt 3515 3039 L
3479 3003 mt 3479 3075 L
2805 3822 mt 2877 3822 L
2841 3786 mt 2841 3858 L
2973 2311 mt 3045 2311 L
3009 2275 mt 3009 2347 L
2298 1802 mt 2370 1802 L
2334 1766 mt 2334 1838 L
5024 2894 mt 5096 2894 L
5060 2858 mt 5060 2930 L
5468 2007 mt 5540 2007 L
5504 1971 mt 5504 2043 L
3594 2199 mt 3666 2199 L
3630 2163 mt 3630 2235 L
4512 2532 mt 4584 2532 L
4548 2496 mt 4548 2568 L
3325 2691 mt 3397 2691 L
3361 2655 mt 3361 2727 L
3527 2488 mt 3599 2488 L
3563 2452 mt 3563 2524 L
4820 3171 mt 4892 3171 L
4856 3135 mt 4856 3207 L
3971 3610 mt 4043 3610 L
4007 3574 mt 4007 3646 L
3571 2160 mt 3643 2160 L
3607 2124 mt 3607 2196 L
3700 2778 mt 3772 2778 L
3736 2742 mt 3736 2814 L
2789 3157 mt 2861 3157 L
2825 3121 mt 2825 3193 L
2420 3503 mt 2492 3503 L
2456 3467 mt 2456 3539 L
3940 2830 mt 4012 2830 L
3976 2794 mt 3976 2866 L
4047 2664 mt 4119 2664 L
4083 2628 mt 4083 2700 L
4206 2501 mt 4278 2501 L
4242 2465 mt 4242 2537 L
2106 2700 mt 2178 2700 L
2142 2664 mt 2142 2736 L
3110 2458 mt 3182 2458 L
3146 2422 mt 3146 2494 L
3844 2432 mt 3916 2432 L
3880 2396 mt 3880 2468 L
gs 899 414 5363 4203 rc
gr

0 sg
2826 5104 mt 
(\(F,DCTs,MLP\)) s
 482 3300 mt  -90 rotate
(\(F,DCTb,iMLP\)) s
90 rotate
2975  223 mt 
(Corr = 0.07) s

end %%Color Dict

eplot
%%EndObject

epage
end

showpage

%%Trailer
%%EOF
