%!PS-Adobe-3.0 EPSF-3.0
%%Creator: MATLAB, The Mathworks, Inc. Version 7.7.0.471 (R2008b). Operating System: Microsoft Windows XP.
%%Title: Pictures\main_zoo_mvar_analysis_data_BMI_xcorr_bmig_p1_k1_2_9.eps
%%CreationDate: 10/26/2009  05:44:54
%%DocumentNeededFonts: Helvetica
%%DocumentProcessColors: Cyan Magenta Yellow Black
%%LanguageLevel: 2
%%Pages: 1
%%BoundingBox:    37   180   549   616
%%EndComments

%%BeginProlog
% MathWorks dictionary
/MathWorks 160 dict begin
% definition operators
/bdef {bind def} bind def
/ldef {load def} bind def
/xdef {exch def} bdef
/xstore {exch store} bdef
% operator abbreviations
/c  /clip ldef
/cc /concat ldef
/cp /closepath ldef
/gr /grestore ldef
/gs /gsave ldef
/mt /moveto ldef
/np /newpath ldef
/cm /currentmatrix ldef
/sm /setmatrix ldef
/rm /rmoveto ldef
/rl /rlineto ldef
/s {show newpath} bdef
/sc {setcmykcolor} bdef
/sr /setrgbcolor ldef
/sg /setgray ldef
/w /setlinewidth ldef
/j /setlinejoin ldef
/cap /setlinecap ldef
/rc {rectclip} bdef
/rf {rectfill} bdef
% page state control
/pgsv () def
/bpage {/pgsv save def} bdef
/epage {pgsv restore} bdef
/bplot /gsave ldef
/eplot {stroke grestore} bdef
% orientation switch
/portraitMode 0 def /landscapeMode 1 def /rotateMode 2 def
% coordinate system mappings
/dpi2point 0 def
% font control
/FontSize 0 def
/FMS {/FontSize xstore findfont [FontSize 0 0 FontSize neg 0 0]
  makefont setfont} bdef
/ISOLatin1Encoding where {pop /WindowsLatin1Encoding 256 array bdef
ISOLatin1Encoding WindowsLatin1Encoding copy pop
/.notdef/.notdef/quotesinglbase/florin/quotedblbase/ellipsis/dagger
/daggerdbl/circumflex/perthousand/Scaron/guilsinglleft/OE/.notdef/.notdef
/.notdef/.notdef/quoteleft/quoteright/quotedblleft/quotedblright/bullet
/endash/emdash/tilde/trademark/scaron/guilsinglright/oe/.notdef/.notdef
/Ydieresis WindowsLatin1Encoding 128 32 getinterval astore pop}
{/WindowsLatin1Encoding StandardEncoding bdef} ifelse
/reencode {exch dup where {pop load} {pop StandardEncoding} ifelse
  exch dup 3 1 roll findfont dup length dict begin
  { 1 index /FID ne {def}{pop pop} ifelse } forall
  /Encoding exch def currentdict end definefont pop} bdef
/isroman {findfont /CharStrings get /Agrave known} bdef
/FMSR {3 1 roll 1 index dup isroman {reencode} {pop pop} ifelse
  exch FMS} bdef
/csm {1 dpi2point div -1 dpi2point div scale neg translate
 dup landscapeMode eq {pop -90 rotate}
  {rotateMode eq {90 rotate} if} ifelse} bdef
% line types: solid, dotted, dashed, dotdash
/SO { [] 0 setdash } bdef
/DO { [.5 dpi2point mul 4 dpi2point mul] 0 setdash } bdef
/DA { [6 dpi2point mul] 0 setdash } bdef
/DD { [.5 dpi2point mul 4 dpi2point mul 6 dpi2point mul 4
  dpi2point mul] 0 setdash } bdef
% macros for lines and objects
/L {lineto stroke} bdef
/MP {3 1 roll moveto 1 sub {rlineto} repeat} bdef
/AP {{rlineto} repeat} bdef
/PDlw -1 def
/W {/PDlw currentlinewidth def setlinewidth} def
/PP {closepath eofill} bdef
/DP {closepath stroke} bdef
/MR {4 -2 roll moveto dup  0 exch rlineto exch 0 rlineto
  neg 0 exch rlineto closepath} bdef
/FR {MR stroke} bdef
/PR {MR fill} bdef
/L1i {{currentfile picstr readhexstring pop} image} bdef
/tMatrix matrix def
/MakeOval {newpath tMatrix currentmatrix pop translate scale
0 0 1 0 360 arc tMatrix setmatrix} bdef
/FO {MakeOval stroke} bdef
/PO {MakeOval fill} bdef
/PD {currentlinewidth 2 div 0 360 arc fill
   PDlw -1 eq not {PDlw w /PDlw -1 def} if} def
/FA {newpath tMatrix currentmatrix pop translate scale
  0 0 1 5 -2 roll arc tMatrix setmatrix stroke} bdef
/PA {newpath tMatrix currentmatrix pop	translate 0 0 moveto scale
  0 0 1 5 -2 roll arc closepath tMatrix setmatrix fill} bdef
/FAn {newpath tMatrix currentmatrix pop translate scale
  0 0 1 5 -2 roll arcn tMatrix setmatrix stroke} bdef
/PAn {newpath tMatrix currentmatrix pop translate 0 0 moveto scale
  0 0 1 5 -2 roll arcn closepath tMatrix setmatrix fill} bdef
/vradius 0 def /hradius 0 def /lry 0 def
/lrx 0 def /uly 0 def /ulx 0 def /rad 0 def
/MRR {/vradius xdef /hradius xdef /lry xdef /lrx xdef /uly xdef
  /ulx xdef newpath tMatrix currentmatrix pop ulx hradius add uly
  vradius add translate hradius vradius scale 0 0 1 180 270 arc 
  tMatrix setmatrix lrx hradius sub uly vradius add translate
  hradius vradius scale 0 0 1 270 360 arc tMatrix setmatrix
  lrx hradius sub lry vradius sub translate hradius vradius scale
  0 0 1 0 90 arc tMatrix setmatrix ulx hradius add lry vradius sub
  translate hradius vradius scale 0 0 1 90 180 arc tMatrix setmatrix
  closepath} bdef
/FRR {MRR stroke } bdef
/PRR {MRR fill } bdef
/MlrRR {/lry xdef /lrx xdef /uly xdef /ulx xdef /rad lry uly sub 2 div def
  newpath tMatrix currentmatrix pop ulx rad add uly rad add translate
  rad rad scale 0 0 1 90 270 arc tMatrix setmatrix lrx rad sub lry rad
  sub translate rad rad scale 0 0 1 270 90 arc tMatrix setmatrix
  closepath} bdef
/FlrRR {MlrRR stroke } bdef
/PlrRR {MlrRR fill } bdef
/MtbRR {/lry xdef /lrx xdef /uly xdef /ulx xdef /rad lrx ulx sub 2 div def
  newpath tMatrix currentmatrix pop ulx rad add uly rad add translate
  rad rad scale 0 0 1 180 360 arc tMatrix setmatrix lrx rad sub lry rad
  sub translate rad rad scale 0 0 1 0 180 arc tMatrix setmatrix
  closepath} bdef
/FtbRR {MtbRR stroke } bdef
/PtbRR {MtbRR fill } bdef
/stri 6 array def /dtri 6 array def
/smat 6 array def /dmat 6 array def
/tmat1 6 array def /tmat2 6 array def /dif 3 array def
/asub {/ind2 exch def /ind1 exch def dup dup
  ind1 get exch ind2 get sub exch } bdef
/tri_to_matrix {
  2 0 asub 3 1 asub 4 0 asub 5 1 asub
  dup 0 get exch 1 get 7 -1 roll astore } bdef
/compute_transform {
  dmat dtri tri_to_matrix tmat1 invertmatrix 
  smat stri tri_to_matrix tmat2 concatmatrix } bdef
/ds {stri astore pop} bdef
/dt {dtri astore pop} bdef
/db {2 copy /cols xdef /rows xdef mul dup 3 mul string
  currentfile 
  3 index 0 eq {/ASCIIHexDecode filter}
  {/ASCII85Decode filter 3 index 2 eq {/RunLengthDecode filter} if }
  ifelse exch readstring pop
  dup 0 3 index getinterval /rbmap xdef
  dup 2 index dup getinterval /gbmap xdef
  1 index dup 2 mul exch getinterval /bbmap xdef pop pop}bdef
/it {gs np dtri aload pop moveto lineto lineto cp c
  cols rows 8 compute_transform 
  rbmap gbmap bbmap true 3 colorimage gr}bdef
/il {newpath moveto lineto stroke}bdef
currentdict end def
%%EndProlog

%%BeginSetup
MathWorks begin

0 cap

end
%%EndSetup

%%Page: 1 1
%%BeginPageSetup
%%PageBoundingBox:    37   180   549   616
MathWorks begin
bpage
%%EndPageSetup

%%BeginObject: obj1
bplot

/dpi2point 12 def
portraitMode 0216 7344 csm

  234   -48  6149  5231 rc
85 dict begin %Colortable dictionary
/c0 { 0.000000 0.000000 0.000000 sr} bdef
/c1 { 1.000000 1.000000 1.000000 sr} bdef
/c2 { 0.900000 0.000000 0.000000 sr} bdef
/c3 { 0.000000 0.820000 0.000000 sr} bdef
/c4 { 0.000000 0.000000 0.800000 sr} bdef
/c5 { 0.910000 0.820000 0.320000 sr} bdef
/c6 { 1.000000 0.260000 0.820000 sr} bdef
/c7 { 0.000000 0.820000 0.820000 sr} bdef
c0
1 j
1 sg
   0    0 6919 5187 rf
6 w
0 4202 5362 0 0 -4202 899 4616 4 MP
PP
-5362 0 0 4202 5362 0 0 -4202 899 4616 5 MP stroke
4 w
DO
SO
6 w
0 sg
 899  414 mt 6261  414 L
 899 4616 mt 6261 4616 L
6261 4616 mt 6261  414 L
 899 4616 mt  899  414 L
 899 4616 mt 6261 4616 L
 899 4616 mt  899  414 L
 919 4616 mt  919 4562 L
 919  414 mt  919  467 L
%%IncludeResource: font Helvetica
/Helvetica /WindowsLatin1Encoding 240 FMSR

 713 4873 mt 
(-3) s
1806 4616 mt 1806 4562 L
1806  414 mt 1806  467 L
1600 4873 mt 
(-2) s
2693 4616 mt 2693 4562 L
2693  414 mt 2693  467 L
2487 4873 mt 
(-1) s
3580 4616 mt 3580 4562 L
3580  414 mt 3580  467 L
3514 4873 mt 
(0) s
4466 4616 mt 4466 4562 L
4466  414 mt 4466  467 L
4400 4873 mt 
(1) s
5353 4616 mt 5353 4562 L
5353  414 mt 5353  467 L
5287 4873 mt 
(2) s
6240 4616 mt 6240 4562 L
6240  414 mt 6240  467 L
6174 4873 mt 
(3) s
 899 4599 mt  952 4599 L
6261 4599 mt 6207 4599 L
 591 4688 mt 
(-3) s
 899 3904 mt  952 3904 L
6261 3904 mt 6207 3904 L
 591 3993 mt 
(-2) s
 899 3209 mt  952 3209 L
6261 3209 mt 6207 3209 L
 591 3298 mt 
(-1) s
 899 2514 mt  952 2514 L
6261 2514 mt 6207 2514 L
 731 2603 mt 
(0) s
 899 1820 mt  952 1820 L
6261 1820 mt 6207 1820 L
 731 1909 mt 
(1) s
 899 1125 mt  952 1125 L
6261 1125 mt 6207 1125 L
 731 1214 mt 
(2) s
 899  430 mt  952  430 L
6261  430 mt 6207  430 L
 731  519 mt 
(3) s
 899  414 mt 6261  414 L
 899 4616 mt 6261 4616 L
6261 4616 mt 6261  414 L
 899 4616 mt  899  414 L
gs 899 414 5363 4203 rc
gr

/c8 { 0.000000 0.000000 1.000000 sr} bdef
c8
3785 1698 mt 3857 1698 L
3821 1662 mt 3821 1734 L
2063 2815 mt 2135 2815 L
2099 2779 mt 2099 2851 L
4080 4023 mt 4152 4023 L
4116 3987 mt 4116 4059 L
4191 2978 mt 4263 2978 L
4227 2942 mt 4227 3014 L
2381 1892 mt 2453 1892 L
2417 1856 mt 2417 1928 L
2903 2859 mt 2975 2859 L
2939 2823 mt 2939 2895 L
3342 2549 mt 3414 2549 L
3378 2513 mt 3378 2585 L
1674 2160 mt 1746 2160 L
1710 2124 mt 1710 2196 L
3415 2388 mt 3487 2388 L
3451 2352 mt 3451 2424 L
5700 2067 mt 5772 2067 L
5736 2031 mt 5736 2103 L
1259 1740 mt 1331 1740 L
1295 1704 mt 1295 1776 L
2757 2237 mt 2829 2237 L
2793 2201 mt 2793 2273 L
2595 2223 mt 2667 2223 L
2631 2187 mt 2631 2259 L
2706 2320 mt 2778 2320 L
2742 2284 mt 2742 2356 L
4034 2001 mt 4106 2001 L
4070 1965 mt 4070 2037 L
3694 2347 mt 3766 2347 L
3730 2311 mt 3730 2383 L
2765 3273 mt 2837 3273 L
2801 3237 mt 2801 3309 L
3488 2204 mt 3560 2204 L
3524 2168 mt 3524 2240 L
4054 2589 mt 4126 2589 L
4090 2553 mt 4090 2625 L
4274 3567 mt 4346 3567 L
4310 3531 mt 4310 3603 L
2605 3118 mt 2677 3118 L
2641 3082 mt 2641 3154 L
3421 1087 mt 3493 1087 L
3457 1051 mt 3457 1123 L
3745 1404 mt 3817 1404 L
3781 1368 mt 3781 1440 L
2789  564 mt 2861  564 L
2825  528 mt 2825  600 L
4836 2007 mt 4908 2007 L
4872 1971 mt 4872 2043 L
4482 3213 mt 4554 3213 L
4518 3177 mt 4518 3249 L
3085 2576 mt 3157 2576 L
3121 2540 mt 3121 2612 L
4087 2506 mt 4159 2506 L
4123 2470 mt 4123 2542 L
4114 2782 mt 4186 2782 L
4150 2746 mt 4150 2818 L
5071 3358 mt 5143 3358 L
5107 3322 mt 5107 3394 L
3104 3731 mt 3176 3731 L
3140 3695 mt 3140 3767 L
3958 2078 mt 4030 2078 L
3994 2042 mt 3994 2114 L
4009 3581 mt 4081 3581 L
4045 3545 mt 4045 3617 L
5024 2673 mt 5096 2673 L
5060 2637 mt 5060 2709 L
4330 3069 mt 4402 3069 L
4366 3033 mt 4366 3105 L
3927 2909 mt 3999 2909 L
3963 2873 mt 3963 2945 L
3861 2686 mt 3933 2686 L
3897 2650 mt 3897 2722 L
3147 2650 mt 3219 2650 L
3183 2614 mt 3183 2686 L
3166 1960 mt 3238 1960 L
3202 1924 mt 3202 1996 L
2805 4205 mt 2877 4205 L
2841 4169 mt 2841 4241 L
4322 3289 mt 4394 3289 L
4358 3253 mt 4358 3325 L
3178 2365 mt 3250 2365 L
3214 2329 mt 3214 2401 L
2468 3658 mt 2540 3658 L
2504 3622 mt 2504 3694 L
4177 1006 mt 4249 1006 L
4213  970 mt 4213 1042 L
5828 3125 mt 5900 3125 L
5864 3089 mt 5864 3161 L
3921 3045 mt 3993 3045 L
3957 3009 mt 3957 3081 L
3066 2401 mt 3138 2401 L
3102 2365 mt 3102 2437 L
2146 3349 mt 2218 3349 L
2182 3313 mt 2182 3385 L
4355 3093 mt 4427 3093 L
4391 3057 mt 4391 3129 L
2040 2796 mt 2112 2796 L
2076 2760 mt 2076 2832 L
3903 1232 mt 3975 1232 L
3939 1196 mt 3939 1268 L
4221 2140 mt 4293 2140 L
4257 2104 mt 4257 2176 L
2740 1653 mt 2812 1653 L
2776 1617 mt 2776 1689 L
2881 2731 mt 2953 2731 L
2917 2695 mt 2917 2767 L
3677 1561 mt 3749 1561 L
3713 1525 mt 3713 1597 L
4213 2493 mt 4285 2493 L
4249 2457 mt 4249 2529 L
3809 1984 mt 3881 1984 L
3845 1948 mt 3845 2020 L
4206 2029 mt 4278 2029 L
4242 1993 mt 4242 2065 L
4760 2619 mt 4832 2619 L
4796 2583 mt 4796 2655 L
3020 3711 mt 3092 3711 L
3056 3675 mt 3056 3747 L
4407 1787 mt 4479 1787 L
4443 1751 mt 4443 1823 L
3832 3005 mt 3904 3005 L
3868 2969 mt 3868 3041 L
4135 2155 mt 4207 2155 L
4171 2119 mt 4171 2191 L
4542 2820 mt 4614 2820 L
4578 2784 mt 4578 2856 L
3426 2889 mt 3498 2889 L
3462 2853 mt 3462 2925 L
3460 2270 mt 3532 2270 L
3496 2234 mt 3496 2306 L
4643 3675 mt 4715 3675 L
4679 3639 mt 4679 3711 L
2016 4305 mt 2088 4305 L
2052 4269 mt 2052 4341 L
3644 2307 mt 3716 2307 L
3680 2271 mt 3680 2343 L
2106 2633 mt 2178 2633 L
2142 2597 mt 2142 2669 L
3717 3693 mt 3789 3693 L
3753 3657 mt 3753 3729 L
3850 2884 mt 3922 2884 L
3886 2848 mt 3886 2920 L
2634 2120 mt 2706 2120 L
2670 2084 mt 2670 2156 L
3190 2445 mt 3262 2445 L
3226 2409 mt 3226 2481 L
1842 1538 mt 1914 1538 L
1878 1502 mt 1878 1574 L
1937 3942 mt 2009 3942 L
1973 3906 mt 1973 3978 L
5245 2338 mt 5317 2338 L
5281 2302 mt 5281 2374 L
3091 3386 mt 3163 3386 L
3127 3350 mt 3127 3422 L
3220 2311 mt 3292 2311 L
3256 2275 mt 3256 2347 L
3532 2298 mt 3604 2298 L
3568 2262 mt 3568 2334 L
3838 1689 mt 3910 1689 L
3874 1653 mt 3874 1725 L
2715 2754 mt 2787 2754 L
2751 2718 mt 2751 2790 L
2555 3137 mt 2627 3137 L
2591 3101 mt 2591 3173 L
3232 3340 mt 3304 3340 L
3268 3304 mt 3268 3376 L
4869 3265 mt 4941 3265 L
4905 3229 mt 4905 3301 L
3249 2109 mt 3321 2109 L
3285 2073 mt 3285 2145 L
3571  824 mt 3643  824 L
3607  788 mt 3607  860 L
4941 2379 mt 5013 2379 L
4977 2343 mt 4977 2415 L
4904 3376 mt 4976 3376 L
4940 3340 mt 4940 3412 L
3370 1904 mt 3442 1904 L
3406 1868 mt 3406 1940 L
3728 3503 mt 3800 3503 L
3764 3467 mt 3764 3539 L
3296 1336 mt 3368 1336 L
3332 1300 mt 3332 1372 L
1907 2247 mt 1979 2247 L
1943 2211 mt 1943 2283 L
3577 2778 mt 3649 2778 L
3613 2742 mt 3613 2814 L
2797 2611 mt 2869 2611 L
2833 2575 mt 2833 2647 L
2732 2849 mt 2804 2849 L
2768 2813 mt 2768 2885 L
3672 3057 mt 3744 3057 L
3708 3021 mt 3708 3093 L
3538 3491 mt 3610 3491 L
3574 3455 mt 3574 3527 L
5413 3051 mt 5485 3051 L
5449 3015 mt 5449 3087 L
4184 1954 mt 4256 1954 L
4220 1918 mt 4220 1990 L
 863 2284 mt  935 2284 L
 899 2248 mt  899 2320 L
3940 1624 mt 4012 1624 L
3976 1588 mt 3976 1660 L
3751 1419 mt 3823 1419 L
3787 1383 mt 3787 1455 L
1481 2554 mt 1553 2554 L
1517 2518 mt 1517 2590 L
3996 2104 mt 4068 2104 L
4032 2068 mt 4032 2140 L
3814 2293 mt 3886 2293 L
3850 2257 mt 3850 2329 L
3466 2940 mt 3538 2940 L
3502 2904 mt 3502 2976 L
4719 2471 mt 4791 2471 L
4755 2435 mt 4755 2507 L
3013 1978 mt 3085 1978 L
3049 1942 mt 3049 2014 L
2251 3822 mt 2323 3822 L
2287 3786 mt 2287 3858 L
5531 2768 mt 5603 2768 L
5567 2732 mt 5567 2804 L
3897 3022 mt 3969 3022 L
3933 2986 mt 3933 3058 L
3046 2361 mt 3118 2361 L
3082 2325 mt 3082 2397 L
3820 2185 mt 3892 2185 L
3856 2149 mt 3856 2221 L
4074 1816 mt 4146 1816 L
4110 1780 mt 4110 1852 L
2966 1277 mt 3038 1277 L
3002 1241 mt 3002 1313 L
2513 2983 mt 2585 2983 L
2549 2947 mt 2549 3019 L
1619 2874 mt 1691 2874 L
1655 2838 mt 1655 2910 L
3364 2989 mt 3436 2989 L
3400 2953 mt 3400 3025 L
4094 2035 mt 4166 2035 L
4130 1999 mt 4130 2071 L
3482 2825 mt 3554 2825 L
3518 2789 mt 3518 2861 L
3521 1152 mt 3593 1152 L
3557 1116 mt 3557 1188 L
1965 2914 mt 2037 2914 L
2001 2878 mt 2001 2950 L
2652 1858 mt 2724 1858 L
2688 1822 mt 2688 1894 L
3278 2316 mt 3350 2316 L
3314 2280 mt 3314 2352 L
1556 2150 mt 1628 2150 L
1592 2114 mt 1592 2186 L
3184 3281 mt 3256 3281 L
3220 3245 mt 3220 3317 L
3610 2228 mt 3682 2228 L
3646 2192 mt 3646 2264 L
3505 2668 mt 3577 2668 L
3541 2632 mt 3541 2704 L
4693 1462 mt 4765 1462 L
4729 1426 mt 4729 1498 L
3683 2012 mt 3755 2012 L
3719 1976 mt 3719 2048 L
4128 1748 mt 4200 1748 L
4164 1712 mt 4164 1784 L
2888 2130 mt 2960 2130 L
2924 2094 mt 2924 2166 L
2910 2083 mt 2982 2083 L
2946 2047 mt 2946 2119 L
1991 2879 mt 2063 2879 L
2027 2843 mt 2027 2915 L
3172 2704 mt 3244 2704 L
3208 2668 mt 3208 2740 L
3443 2864 mt 3515 2864 L
3479 2828 mt 3479 2900 L
3605 3087 mt 3677 3087 L
3641 3051 mt 3641 3123 L
3661 2510 mt 3733 2510 L
3697 2474 mt 3697 2546 L
3544 2467 mt 3616 2467 L
3580 2431 mt 3580 2503 L
3319 2602 mt 3391 2602 L
3355 2566 mt 3355 2638 L
4512 2251 mt 4584 2251 L
4548 2215 mt 4548 2287 L
4608 2414 mt 4680 2414 L
4644 2378 mt 4644 2450 L
3689 2165 mt 3761 2165 L
3725 2129 mt 3725 2201 L
4564 2458 mt 4636 2458 L
4600 2422 mt 4600 2494 L
5096 2967 mt 5168 2967 L
5132 2931 mt 5132 3003 L
3123 2024 mt 3195 2024 L
3159 1988 mt 3159 2060 L
4789 1371 mt 4861 1371 L
4825 1335 mt 4825 1407 L
4732 2356 mt 4804 2356 L
4768 2320 mt 4768 2392 L
2643 2750 mt 2715 2750 L
2679 2714 mt 2679 2786 L
5047 2046 mt 5119 2046 L
5083 2010 mt 5083 2082 L
3762 2514 mt 3834 2514 L
3798 2478 mt 3798 2550 L
3053 3908 mt 3125 3908 L
3089 3872 mt 3089 3944 L
4028 1851 mt 4100 1851 L
4064 1815 mt 4064 1887 L
3078 2773 mt 3150 2773 L
3114 2737 mt 3114 2809 L
4381 2811 mt 4453 2811 L
4417 2775 mt 4417 2847 L
2836 3479 mt 2908 3479 L
2872 3443 mt 2872 3515 L
2126 2099 mt 2198 2099 L
2162 2063 mt 2162 2135 L
3855 1779 mt 3927 1779 L
3891 1743 mt 3891 1815 L
3989 2073 mt 4061 2073 L
4025 2037 mt 4025 2109 L
3438 3436 mt 3510 3436 L
3474 3400 mt 3474 3472 L
2490 2541 mt 2562 2541 L
2526 2505 mt 2526 2577 L
4100 1255 mt 4172 1255 L
4136 1219 mt 4136 1291 L
4251 3250 mt 4323 3250 L
4287 3214 mt 4287 3286 L
5002 2089 mt 5074 2089 L
5038 2053 mt 5038 2125 L
3261 3220 mt 3333 3220 L
3297 3184 mt 3297 3256 L
4706 2764 mt 4778 2764 L
4742 2728 mt 4742 2800 L
4015 1838 mt 4087 1838 L
4051 1802 mt 4051 1874 L
2866 1809 mt 2938 1809 L
2902 1773 mt 2902 1845 L
2938 2869 mt 3010 2869 L
2974 2833 mt 2974 2905 L
3566 1207 mt 3638 1207 L
3602 1171 mt 3602 1243 L
3284 1948 mt 3356 1948 L
3320 1912 mt 3320 1984 L
3599 3184 mt 3671 3184 L
3635 3148 mt 3635 3220 L
1387 2343 mt 1459 2343 L
1423 2307 mt 1423 2379 L
3040 2175 mt 3112 2175 L
3076 2139 mt 3076 2211 L
2697 2242 mt 2769 2242 L
2733 2206 mt 2733 2278 L
3510 2501 mt 3582 2501 L
3546 2465 mt 3546 2537 L
4338 3641 mt 4410 3641 L
4374 3605 mt 4374 3677 L
2749 2718 mt 2821 2718 L
2785 2682 mt 2785 2754 L
2407 2787 mt 2479 2787 L
2443 2751 mt 2443 2823 L
3307 1794 mt 3379 1794 L
3343 1758 mt 3343 1830 L
4574 3797 mt 4646 3797 L
4610 3761 mt 4610 3833 L
2432  898 mt 2504  898 L
2468  862 mt 2468  934 L
3267 2558 mt 3339 2558 L
3303 2522 mt 3303 2594 L
4961 2580 mt 5033 2580 L
4997 2544 mt 4997 2616 L
3007 2624 mt 3079 2624 L
3043 2588 mt 3043 2660 L
3196 1550 mt 3268 1550 L
3232 1514 mt 3232 1586 L
2662 2899 mt 2734 2899 L
2698 2863 mt 2698 2935 L
4585 3625 mt 4657 3625 L
4621 3589 mt 4621 3661 L
2394 1318 mt 2466 1318 L
2430 1282 mt 2430 1354 L
2523 2352 mt 2595 2352 L
2559 2316 mt 2559 2388 L
3915  414 mt 3987  414 L
3951  378 mt 3951  450 L
3359 3034 mt 3431 3034 L
3395 2998 mt 3395 3070 L
2444 1764 mt 2516 1764 L
2480 1728 mt 2480 1800 L
2355 1972 mt 2427 1972 L
2391 1936 mt 2391 2008 L
4425 2436 mt 4497 2436 L
4461 2400 mt 4461 2472 L
3325 1593 mt 3397 1593 L
3361 1557 mt 3361 1629 L
3582 1942 mt 3654 1942 L
3618 1906 mt 3618 1978 L
2575 2325 mt 2647 2325 L
2611 2289 mt 2611 2361 L
2828 2094 mt 2900 2094 L
2864 2058 mt 2864 2130 L
3381 1680 mt 3453 1680 L
3417 1644 mt 3417 1716 L
2565 1572 mt 2637 1572 L
2601 1536 mt 2601 1608 L
4886 2682 mt 4958 2682 L
4922 2646 mt 4922 2718 L
3977 2418 mt 4049 2418 L
4013 2382 mt 4013 2454 L
2773 2449 mt 2845 2449 L
2809 2413 mt 2809 2485 L
2201 2405 mt 2273 2405 L
2237 2369 mt 2237 2441 L
3141 2677 mt 3213 2677 L
3177 2641 mt 3177 2713 L
3734 3848 mt 3806 3848 L
3770 3812 mt 3770 3884 L
3803 2302 mt 3875 2302 L
3839 2266 mt 3839 2338 L
5365 2528 mt 5437 2528 L
5401 2492 mt 5401 2564 L
2980 2256 mt 3052 2256 L
3016 2220 mt 3016 2292 L
2420 3039 mt 2492 3039 L
2456 3003 mt 2456 3075 L
3237 2536 mt 3309 2536 L
3273 2500 mt 3273 2572 L
3033 1354 mt 3105 1354 L
3069 1318 mt 3069 1390 L
3432 1823 mt 3504 1823 L
3468 1787 mt 3468 1859 L
4107 1756 mt 4179 1756 L
4143 1720 mt 4143 1792 L
2267 3752 mt 2339 3752 L
2303 3716 mt 2303 3788 L
3072 2523 mt 3144 2523 L
3108 2487 mt 3108 2559 L
3560 3610 mt 3632 3610 L
3596 3574 mt 3596 3646 L
4149 2628 mt 4221 2628 L
4185 2592 mt 4185 2664 L
3255 3131 mt 3327 3131 L
3291 3095 mt 3291 3167 L
3627  724 mt 3699  724 L
3663  688 mt 3663  760 L
3330 1930 mt 3402 1930 L
3366 1894 mt 3366 1966 L
2874 1049 mt 2946 1049 L
2910 1013 mt 2910 1085 L
3797 2334 mt 3869 2334 L
3833 2298 mt 3833 2370 L
4472 4072 mt 4544 4072 L
4508 4036 mt 4508 4108 L
3214 2606 mt 3286 2606 L
3250 2570 mt 3250 2642 L
3934 2956 mt 4006 2956 L
3970 2920 mt 3970 2992 L
2896 2275 mt 2968 2275 L
2932 2239 mt 2932 2311 L
4680 2218 mt 4752 2218 L
4716 2182 mt 4716 2254 L
2183 1878 mt 2255 1878 L
2219 1842 mt 2219 1914 L
3844 2709 mt 3916 2709 L
3880 2673 mt 3880 2745 L
4306 3306 mt 4378 3306 L
4342 3270 mt 4342 3342 L
5211 3527 mt 5283 3527 L
5247 3491 mt 5247 3563 L
3588 2741 mt 3660 2741 L
3624 2705 mt 3624 2777 L
2624 2792 mt 2696 2792 L
2660 2756 mt 2660 2828 L
3649 3297 mt 3721 3297 L
3685 3261 mt 3685 3333 L
3700 1448 mt 3772 1448 L
3736 1412 mt 3736 1484 L
3410 1662 mt 3482 1662 L
3446 1626 mt 3446 1698 L
1876 3099 mt 1948 3099 L
1912 3063 mt 1912 3135 L
4002 3075 mt 4074 3075 L
4038 3039 mt 4038 3111 L
3774 3515 mt 3846 3515 L
3810 3479 mt 3810 3551 L
3393 3395 mt 3465 3395 L
3429 3359 mt 3429 3431 L
4655 1526 mt 4727 1526 L
4691 1490 mt 4691 1562 L
6225 2462 mt 6297 2462 L
6261 2426 mt 6261 2498 L
3616 3081 mt 3688 3081 L
3652 3045 mt 3652 3117 L
2924 1923 mt 2996 1923 L
2960 1887 mt 2960 1959 L
3499 2664 mt 3571 2664 L
3535 2628 mt 3535 2700 L
4981 2925 mt 5053 2925 L
5017 2889 mt 5017 2961 L
3471 3242 mt 3543 3242 L
3507 3206 mt 3507 3278 L
3885 1723 mt 3957 1723 L
3921 1687 mt 3921 1759 L
4453 2209 mt 4525 2209 L
4489 2173 mt 4489 2245 L
3791 1604 mt 3863 1604 L
3827 1568 mt 3827 1640 L
2545 2894 mt 2617 2894 L
2581 2858 mt 2581 2930 L
3208 1707 mt 3280 1707 L
3244 1671 mt 3244 1743 L
4631 2423 mt 4703 2423 L
4667 2387 mt 4667 2459 L
4298 2519 mt 4370 2519 L
4334 2483 mt 4334 2555 L
4372 2427 mt 4444 2427 L
4408 2391 mt 4408 2463 L
4775 1772 mt 4847 1772 L
4811 1736 mt 4811 1808 L
3059 2659 mt 3131 2659 L
3095 2623 mt 3095 2695 L
4444 1671 mt 4516 1671 L
4480 1635 mt 4480 1707 L
4259 3151 mt 4331 3151 L
4295 3115 mt 4295 3187 L
4398 2691 mt 4470 2691 L
4434 2655 mt 4434 2727 L
5282 2695 mt 5354 2695 L
5318 2659 mt 5318 2731 L
3116 3017 mt 3188 3017 L
3152 2981 mt 3152 3053 L
3110 1865 mt 3182 1865 L
3146 1829 mt 3146 1901 L
3780 3063 mt 3852 3063 L
3816 3027 mt 3816 3099 L
2945 2484 mt 3017 2484 L
2981 2448 mt 2981 2520 L
3952 2835 mt 4024 2835 L
3988 2799 mt 3988 2871 L
4142 2759 mt 4214 2759 L
4178 2723 mt 4178 2795 L
4463 2713 mt 4535 2713 L
4499 2677 mt 4499 2749 L
2085 3468 mt 2157 3468 L
2121 3432 mt 2121 3504 L
3516 2801 mt 3588 2801 L
3552 2765 mt 3552 2837 L
3153 3191 mt 3225 3191 L
3189 3155 mt 3189 3227 L
3129 1911 mt 3201 1911 L
3165 1875 mt 3165 1947 L
3243 3235 mt 3315 3235 L
3279 3199 mt 3279 3271 L
5468 1831 mt 5540 1831 L
5504 1795 mt 5504 1867 L
2534 2637 mt 2606 2637 L
2570 2601 mt 2570 2673 L
3909 3157 mt 3981 3157 L
3945 3121 mt 3945 3193 L
3290 2383 mt 3362 2383 L
3326 2347 mt 3326 2419 L
4121 1802 mt 4193 1802 L
4157 1766 mt 4157 1838 L
2781 2597 mt 2853 2597 L
2817 2561 mt 2817 2633 L
2723 1995 mt 2795 1995 L
2759 1959 mt 2759 2031 L
4266 2480 mt 4338 2480 L
4302 2444 mt 4302 2516 L
4852 2189 mt 4924 2189 L
4888 2153 mt 4888 2225 L
3879 2920 mt 3951 2920 L
3915 2884 mt 3915 2956 L
3768 1181 mt 3840 1181 L
3804 1145 mt 3804 1217 L
5180 2233 mt 5252 2233 L
5216 2197 mt 5216 2269 L
4522 2641 mt 4594 2641 L
4558 2605 mt 4558 2677 L
4067 2951 mt 4139 2951 L
4103 2915 mt 4103 2987 L
4347 2265 mt 4419 2265 L
4383 2229 mt 4383 2301 L
2993 1936 mt 3065 1936 L
3029 1900 mt 3029 1972 L
2235 2615 mt 2307 2615 L
2271 2579 mt 2271 2651 L
4364 1872 mt 4436 1872 L
4400 1836 mt 4400 1908 L
1766 3457 mt 1838 3457 L
1802 3421 mt 1802 3493 L
2312 3322 mt 2384 3322 L
2348 3286 mt 2348 3358 L
4199 2532 mt 4271 2532 L
4235 2496 mt 4235 2568 L
4390 2374 mt 4462 2374 L
4426 2338 mt 4426 2410 L
5321 2994 mt 5393 2994 L
5357 2958 mt 5357 3030 L
4314 1514 mt 4386 1514 L
4350 1478 mt 4350 1550 L
2298 2410 mt 2370 2410 L
2334 2374 mt 2334 2446 L
1805 2018 mt 1877 2018 L
1841 1982 mt 1841 2054 L
4228  957 mt 4300  957 L
4264  921 mt 4264  993 L
2586 3367 mt 2658 3367 L
2622 3331 mt 2622 3403 L
3867 2370 mt 3939 2370 L
3903 2334 mt 3903 2406 L
2973 2040 mt 3045 2040 L
3009 2004 mt 3009 2076 L
4047 3171 mt 4119 3171 L
4083 3135 mt 4083 3207 L
4746 2199 mt 4818 2199 L
4782 2163 mt 4782 2235 L
2327 2057 mt 2399 2057 L
2363 2021 mt 2363 2093 L
3404 3144 mt 3476 3144 L
3440 3108 mt 3440 3180 L
6033 2655 mt 6105 2655 L
6069 2619 mt 6069 2691 L
3313 2930 mt 3385 2930 L
3349 2894 mt 3349 2966 L
2615 2396 mt 2687 2396 L
2651 2360 mt 2651 2432 L
3527 2840 mt 3599 2840 L
3563 2804 mt 3563 2876 L
3706 2135 mt 3778 2135 L
3742 2099 mt 3742 2171 L
2813 1298 mt 2885 1298 L
2849 1262 mt 2849 1334 L
2341 3178 mt 2413 3178 L
2377 3142 mt 2377 3214 L
3971 1990 mt 4043 1990 L
4007 1954 mt 4007 2026 L
3387 3106 mt 3459 3106 L
3423 3070 mt 3423 3142 L
4041 1845 mt 4113 1845 L
4077 1809 mt 4077 1881 L
3347 3011 mt 3419 3011 L
3383 2975 mt 3383 3047 L
4021 1583 mt 4093 1583 L
4057 1547 mt 4057 1619 L
3594 3595 mt 3666 3595 L
3630 3559 mt 3630 3631 L
2689 1732 mt 2761 1732 L
2725 1696 mt 2725 1768 L
3376 3227 mt 3448 3227 L
3412 3191 mt 3412 3263 L
3449 3028 mt 3521 3028 L
3485 2992 mt 3485 3064 L
3135 2214 mt 3207 2214 L
3171 2178 mt 3171 2250 L
4170 1614 mt 4242 1614 L
4206 1578 mt 4206 1650 L
3000 2962 mt 3072 2962 L
3036 2926 mt 3036 2998 L
4435 2261 mt 4507 2261 L
4471 2225 mt 4471 2297 L
4236 2545 mt 4308 2545 L
4272 2509 mt 4272 2581 L
3964 1715 mt 4036 1715 L
4000 1679 mt 4000 1751 L
3666 2453 mt 3738 2453 L
3702 2417 mt 3702 2489 L
3226 2115 mt 3298 2115 L
3262 2079 mt 3262 2151 L
2987 3206 mt 3059 3206 L
3023 3170 mt 3023 3242 L
2368 4131 mt 2440 4131 L
2404 4095 mt 2404 4167 L
2917 3314 mt 2989 3314 L
2953 3278 mt 2953 3350 L
3891 3000 mt 3963 3000 L
3927 2964 mt 3927 3036 L
2844 2562 mt 2916 2562 L
2880 2526 mt 2880 2598 L
4553 2972 mt 4625 2972 L
4589 2936 mt 4589 3008 L
2456 3405 mt 2528 3405 L
2492 3369 mt 2492 3441 L
4243 2722 mt 4315 2722 L
4279 2686 mt 4279 2758 L
4805 2475 mt 4877 2475 L
4841 2439 mt 4841 2511 L
3398 2180 mt 3470 2180 L
3434 2144 mt 3434 2216 L
4416 3877 mt 4488 3877 L
4452 3841 mt 4452 3913 L
4619 2844 mt 4691 2844 L
4655 2808 mt 4655 2880 L
4060 2125 mt 4132 2125 L
4096 2089 mt 4096 2161 L
4820 1966 mt 4892 1966 L
4856 1930 mt 4856 2002 L
4667 1434 mt 4739 1434 L
4703 1398 mt 4703 1470 L
2502 2904 mt 2574 2904 L
2538 2868 mt 2538 2940 L
5606 2051 mt 5678 2051 L
5642 2015 mt 5642 2087 L
3740 3425 mt 3812 3425 L
3776 3389 mt 3776 3461 L
2851 2279 mt 2923 2279 L
2887 2243 mt 2887 2315 L
2282 2593 mt 2354 2593 L
2318 2557 mt 2318 2629 L
3273 2497 mt 3345 2497 L
3309 2461 mt 3309 2533 L
3655 2854 mt 3727 2854 L
3691 2818 mt 3691 2890 L
3638 2488 mt 3710 2488 L
3674 2452 mt 3674 2524 L
3160 3331 mt 3232 3331 L
3196 3295 mt 3196 3367 L
3757 2170 mt 3829 2170 L
3793 2134 mt 3793 2206 L
4597 2329 mt 4669 2329 L
4633 2293 mt 4633 2365 L
1722 3980 mt 1794 3980 L
1758 3944 mt 1758 4016 L
2218 3540 mt 2290 3540 L
2254 3504 mt 2254 3576 L
3621 1898 mt 3693 1898 L
3657 1862 mt 3657 1934 L
3983 2145 mt 4055 2145 L
4019 2109 mt 4019 2181 L
5122 2946 mt 5194 2946 L
5158 2910 mt 5158 2982 L
3098 3198 mt 3170 3198 L
3134 3162 mt 3134 3234 L
4922 2700 mt 4994 2700 L
4958 2664 mt 4958 2736 L
4163 2288 mt 4235 2288 L
4199 2252 mt 4199 2324 L
3202 2062 mt 3274 2062 L
3238 2026 mt 3238 2098 L
2959 2646 mt 3031 2646 L
2995 2610 mt 2995 2682 L
4290 1476 mt 4362 1476 L
4326 1440 mt 4326 1512 L
3711 3112 mt 3783 3112 L
3747 3076 mt 3747 3148 L
3493 2830 mt 3565 2830 L
3529 2794 mt 3529 2866 L
3633 2736 mt 3705 2736 L
3669 2700 mt 3669 2772 L
3946 1502 mt 4018 1502 L
3982 1466 mt 3982 1538 L
3826 3446 mt 3898 3446 L
3862 3410 mt 3862 3482 L
2680 1634 mt 2752 1634 L
2716 1598 mt 2716 1670 L
4532 2745 mt 4604 2745 L
4568 2709 mt 4568 2781 L
3336 3774 mt 3408 3774 L
3372 3738 mt 3372 3810 L
3723 3257 mt 3795 3257 L
3759 3221 mt 3759 3293 L
3302 2806 mt 3374 2806 L
3338 2770 mt 3338 2842 L
4492 2432 mt 4564 2432 L
4528 2396 mt 4528 2468 L
3477 1121 mt 3549 1121 L
3513 1085 mt 3513 1157 L
2165 1917 mt 2237 1917 L
2201 1881 mt 2201 1953 L
5150 3553 mt 5222 3553 L
5186 3517 mt 5186 3589 L
3555 2935 mt 3627 2935 L
3591 2899 mt 3591 2971 L
4282 2194 mt 4354 2194 L
4318 2158 mt 4318 2230 L
2821 3415 mt 2893 3415 L
2857 3379 mt 2857 3451 L
3454 3164 mt 3526 3164 L
3490 3128 mt 3490 3200 L
3353 1489 mt 3425 1489 L
3389 1453 mt 3389 1525 L
3549 2584 mt 3621 2584 L
3585 2548 mt 3585 2620 L
4156 1388 mt 4228 1388 L
4192 1352 mt 4192 1424 L
2952 4616 mt 3024 4616 L
2988 4580 mt 2988 4652 L
2479 1643 mt 2551 1643 L
2515 1607 mt 2515 1679 L
2931 2392 mt 3003 2392 L
2967 2356 mt 2967 2428 L
4501 2440 mt 4573 2440 L
4537 2404 mt 4537 2476 L
3873 1885 mt 3945 1885 L
3909 1849 mt 3909 1921 L
2671 2727 mt 2743 2727 L
2707 2691 mt 2707 2763 L
3027 2567 mt 3099 2567 L
3063 2531 mt 3063 2603 L
2859 2571 mt 2931 2571 L
2895 2535 mt 2895 2607 L
gs 899 414 5363 4203 rc
gr

0 sg
2775 5104 mt 
(\(F,DCTb,GMM\)) s
 482 3277 mt  -90 rotate
(\(S,SSC,GMM\)) s
90 rotate
2975  223 mt 
(Corr = 0.05) s

end %%Color Dict

eplot
%%EndObject

epage
end

showpage

%%Trailer
%%EOF
