%!PS-Adobe-3.0 EPSF-3.0
%%Creator: MATLAB, The Mathworks, Inc. Version 7.7.0.471 (R2008b). Operating System: Microsoft Windows XP.
%%Title: Pictures\main_zoo_mvar_analysis_data_BMI_xcorr_bmig_p1_k2_1_4.eps
%%CreationDate: 10/26/2009  05:45:11
%%DocumentNeededFonts: Helvetica
%%DocumentProcessColors: Cyan Magenta Yellow Black
%%LanguageLevel: 2
%%Pages: 1
%%BoundingBox:    37   180   549   616
%%EndComments

%%BeginProlog
% MathWorks dictionary
/MathWorks 160 dict begin
% definition operators
/bdef {bind def} bind def
/ldef {load def} bind def
/xdef {exch def} bdef
/xstore {exch store} bdef
% operator abbreviations
/c  /clip ldef
/cc /concat ldef
/cp /closepath ldef
/gr /grestore ldef
/gs /gsave ldef
/mt /moveto ldef
/np /newpath ldef
/cm /currentmatrix ldef
/sm /setmatrix ldef
/rm /rmoveto ldef
/rl /rlineto ldef
/s {show newpath} bdef
/sc {setcmykcolor} bdef
/sr /setrgbcolor ldef
/sg /setgray ldef
/w /setlinewidth ldef
/j /setlinejoin ldef
/cap /setlinecap ldef
/rc {rectclip} bdef
/rf {rectfill} bdef
% page state control
/pgsv () def
/bpage {/pgsv save def} bdef
/epage {pgsv restore} bdef
/bplot /gsave ldef
/eplot {stroke grestore} bdef
% orientation switch
/portraitMode 0 def /landscapeMode 1 def /rotateMode 2 def
% coordinate system mappings
/dpi2point 0 def
% font control
/FontSize 0 def
/FMS {/FontSize xstore findfont [FontSize 0 0 FontSize neg 0 0]
  makefont setfont} bdef
/ISOLatin1Encoding where {pop /WindowsLatin1Encoding 256 array bdef
ISOLatin1Encoding WindowsLatin1Encoding copy pop
/.notdef/.notdef/quotesinglbase/florin/quotedblbase/ellipsis/dagger
/daggerdbl/circumflex/perthousand/Scaron/guilsinglleft/OE/.notdef/.notdef
/.notdef/.notdef/quoteleft/quoteright/quotedblleft/quotedblright/bullet
/endash/emdash/tilde/trademark/scaron/guilsinglright/oe/.notdef/.notdef
/Ydieresis WindowsLatin1Encoding 128 32 getinterval astore pop}
{/WindowsLatin1Encoding StandardEncoding bdef} ifelse
/reencode {exch dup where {pop load} {pop StandardEncoding} ifelse
  exch dup 3 1 roll findfont dup length dict begin
  { 1 index /FID ne {def}{pop pop} ifelse } forall
  /Encoding exch def currentdict end definefont pop} bdef
/isroman {findfont /CharStrings get /Agrave known} bdef
/FMSR {3 1 roll 1 index dup isroman {reencode} {pop pop} ifelse
  exch FMS} bdef
/csm {1 dpi2point div -1 dpi2point div scale neg translate
 dup landscapeMode eq {pop -90 rotate}
  {rotateMode eq {90 rotate} if} ifelse} bdef
% line types: solid, dotted, dashed, dotdash
/SO { [] 0 setdash } bdef
/DO { [.5 dpi2point mul 4 dpi2point mul] 0 setdash } bdef
/DA { [6 dpi2point mul] 0 setdash } bdef
/DD { [.5 dpi2point mul 4 dpi2point mul 6 dpi2point mul 4
  dpi2point mul] 0 setdash } bdef
% macros for lines and objects
/L {lineto stroke} bdef
/MP {3 1 roll moveto 1 sub {rlineto} repeat} bdef
/AP {{rlineto} repeat} bdef
/PDlw -1 def
/W {/PDlw currentlinewidth def setlinewidth} def
/PP {closepath eofill} bdef
/DP {closepath stroke} bdef
/MR {4 -2 roll moveto dup  0 exch rlineto exch 0 rlineto
  neg 0 exch rlineto closepath} bdef
/FR {MR stroke} bdef
/PR {MR fill} bdef
/L1i {{currentfile picstr readhexstring pop} image} bdef
/tMatrix matrix def
/MakeOval {newpath tMatrix currentmatrix pop translate scale
0 0 1 0 360 arc tMatrix setmatrix} bdef
/FO {MakeOval stroke} bdef
/PO {MakeOval fill} bdef
/PD {currentlinewidth 2 div 0 360 arc fill
   PDlw -1 eq not {PDlw w /PDlw -1 def} if} def
/FA {newpath tMatrix currentmatrix pop translate scale
  0 0 1 5 -2 roll arc tMatrix setmatrix stroke} bdef
/PA {newpath tMatrix currentmatrix pop	translate 0 0 moveto scale
  0 0 1 5 -2 roll arc closepath tMatrix setmatrix fill} bdef
/FAn {newpath tMatrix currentmatrix pop translate scale
  0 0 1 5 -2 roll arcn tMatrix setmatrix stroke} bdef
/PAn {newpath tMatrix currentmatrix pop translate 0 0 moveto scale
  0 0 1 5 -2 roll arcn closepath tMatrix setmatrix fill} bdef
/vradius 0 def /hradius 0 def /lry 0 def
/lrx 0 def /uly 0 def /ulx 0 def /rad 0 def
/MRR {/vradius xdef /hradius xdef /lry xdef /lrx xdef /uly xdef
  /ulx xdef newpath tMatrix currentmatrix pop ulx hradius add uly
  vradius add translate hradius vradius scale 0 0 1 180 270 arc 
  tMatrix setmatrix lrx hradius sub uly vradius add translate
  hradius vradius scale 0 0 1 270 360 arc tMatrix setmatrix
  lrx hradius sub lry vradius sub translate hradius vradius scale
  0 0 1 0 90 arc tMatrix setmatrix ulx hradius add lry vradius sub
  translate hradius vradius scale 0 0 1 90 180 arc tMatrix setmatrix
  closepath} bdef
/FRR {MRR stroke } bdef
/PRR {MRR fill } bdef
/MlrRR {/lry xdef /lrx xdef /uly xdef /ulx xdef /rad lry uly sub 2 div def
  newpath tMatrix currentmatrix pop ulx rad add uly rad add translate
  rad rad scale 0 0 1 90 270 arc tMatrix setmatrix lrx rad sub lry rad
  sub translate rad rad scale 0 0 1 270 90 arc tMatrix setmatrix
  closepath} bdef
/FlrRR {MlrRR stroke } bdef
/PlrRR {MlrRR fill } bdef
/MtbRR {/lry xdef /lrx xdef /uly xdef /ulx xdef /rad lrx ulx sub 2 div def
  newpath tMatrix currentmatrix pop ulx rad add uly rad add translate
  rad rad scale 0 0 1 180 360 arc tMatrix setmatrix lrx rad sub lry rad
  sub translate rad rad scale 0 0 1 0 180 arc tMatrix setmatrix
  closepath} bdef
/FtbRR {MtbRR stroke } bdef
/PtbRR {MtbRR fill } bdef
/stri 6 array def /dtri 6 array def
/smat 6 array def /dmat 6 array def
/tmat1 6 array def /tmat2 6 array def /dif 3 array def
/asub {/ind2 exch def /ind1 exch def dup dup
  ind1 get exch ind2 get sub exch } bdef
/tri_to_matrix {
  2 0 asub 3 1 asub 4 0 asub 5 1 asub
  dup 0 get exch 1 get 7 -1 roll astore } bdef
/compute_transform {
  dmat dtri tri_to_matrix tmat1 invertmatrix 
  smat stri tri_to_matrix tmat2 concatmatrix } bdef
/ds {stri astore pop} bdef
/dt {dtri astore pop} bdef
/db {2 copy /cols xdef /rows xdef mul dup 3 mul string
  currentfile 
  3 index 0 eq {/ASCIIHexDecode filter}
  {/ASCII85Decode filter 3 index 2 eq {/RunLengthDecode filter} if }
  ifelse exch readstring pop
  dup 0 3 index getinterval /rbmap xdef
  dup 2 index dup getinterval /gbmap xdef
  1 index dup 2 mul exch getinterval /bbmap xdef pop pop}bdef
/it {gs np dtri aload pop moveto lineto lineto cp c
  cols rows 8 compute_transform 
  rbmap gbmap bbmap true 3 colorimage gr}bdef
/il {newpath moveto lineto stroke}bdef
currentdict end def
%%EndProlog

%%BeginSetup
MathWorks begin

0 cap

end
%%EndSetup

%%Page: 1 1
%%BeginPageSetup
%%PageBoundingBox:    37   180   549   616
MathWorks begin
bpage
%%EndPageSetup

%%BeginObject: obj1
bplot

/dpi2point 12 def
portraitMode 0216 7344 csm

  234   -48  6149  5231 rc
85 dict begin %Colortable dictionary
/c0 { 0.000000 0.000000 0.000000 sr} bdef
/c1 { 1.000000 1.000000 1.000000 sr} bdef
/c2 { 0.900000 0.000000 0.000000 sr} bdef
/c3 { 0.000000 0.820000 0.000000 sr} bdef
/c4 { 0.000000 0.000000 0.800000 sr} bdef
/c5 { 0.910000 0.820000 0.320000 sr} bdef
/c6 { 1.000000 0.260000 0.820000 sr} bdef
/c7 { 0.000000 0.820000 0.820000 sr} bdef
c0
1 j
1 sg
   0    0 6919 5187 rf
6 w
0 4202 5362 0 0 -4202 899 4616 4 MP
PP
-5362 0 0 4202 5362 0 0 -4202 899 4616 5 MP stroke
4 w
DO
SO
6 w
0 sg
 899  414 mt 6261  414 L
 899 4616 mt 6261 4616 L
6261 4616 mt 6261  414 L
 899 4616 mt  899  414 L
 899 4616 mt 6261 4616 L
 899 4616 mt  899  414 L
 919 4616 mt  919 4562 L
 919  414 mt  919  467 L
%%IncludeResource: font Helvetica
/Helvetica /WindowsLatin1Encoding 240 FMSR

 713 4873 mt 
(-3) s
1806 4616 mt 1806 4562 L
1806  414 mt 1806  467 L
1600 4873 mt 
(-2) s
2693 4616 mt 2693 4562 L
2693  414 mt 2693  467 L
2487 4873 mt 
(-1) s
3580 4616 mt 3580 4562 L
3580  414 mt 3580  467 L
3514 4873 mt 
(0) s
4466 4616 mt 4466 4562 L
4466  414 mt 4466  467 L
4400 4873 mt 
(1) s
5353 4616 mt 5353 4562 L
5353  414 mt 5353  467 L
5287 4873 mt 
(2) s
6240 4616 mt 6240 4562 L
6240  414 mt 6240  467 L
6174 4873 mt 
(3) s
 899 4599 mt  952 4599 L
6261 4599 mt 6207 4599 L
 591 4688 mt 
(-3) s
 899 3904 mt  952 3904 L
6261 3904 mt 6207 3904 L
 591 3993 mt 
(-2) s
 899 3209 mt  952 3209 L
6261 3209 mt 6207 3209 L
 591 3298 mt 
(-1) s
 899 2514 mt  952 2514 L
6261 2514 mt 6207 2514 L
 731 2603 mt 
(0) s
 899 1820 mt  952 1820 L
6261 1820 mt 6207 1820 L
 731 1909 mt 
(1) s
 899 1125 mt  952 1125 L
6261 1125 mt 6207 1125 L
 731 1214 mt 
(2) s
 899  430 mt  952  430 L
6261  430 mt 6207  430 L
 731  519 mt 
(3) s
 899  414 mt 6261  414 L
 899 4616 mt 6261 4616 L
6261 4616 mt 6261  414 L
 899 4616 mt  899  414 L
gs 899 414 5363 4203 rc
gr

/c8 { 0.000000 0.000000 1.000000 sr} bdef
c8
4213 2199 mt 4285 2199 L
4249 2163 mt 4249 2235 L
4719 2040 mt 4791 2040 L
4755 2004 mt 4755 2076 L
2866 3340 mt 2938 3340 L
2902 3304 mt 2902 3376 L
2545 3093 mt 2617 3093 L
2581 3057 mt 2581 3129 L
3940 1865 mt 4012 1865 L
3976 1829 mt 3976 1901 L
2605 2884 mt 2677 2884 L
2641 2848 mt 2641 2920 L
1556 3367 mt 1628 3367 L
1592 3331 mt 1592 3403 L
3958 3057 mt 4030 3057 L
3994 3021 mt 3994 3093 L
3897 2436 mt 3969 2436 L
3933 2400 mt 3933 2472 L
4760 2584 mt 4832 2584 L
4796 2548 mt 4796 2620 L
2575 3693 mt 2647 3693 L
2611 3657 mt 2611 3729 L
3627 2383 mt 3699 2383 L
3663 2347 mt 3663 2419 L
4805 1972 mt 4877 1972 L
4841 1936 mt 4841 2008 L
3370 2453 mt 3442 2453 L
3406 2417 mt 3406 2489 L
4564 1538 mt 4636 1538 L
4600 1502 mt 4600 1574 L
3532 2593 mt 3604 2593 L
3568 2557 mt 3568 2629 L
3683 2773 mt 3755 2773 L
3719 2737 mt 3719 2809 L
4034 2602 mt 4106 2602 L
4070 2566 mt 4070 2638 L
4492 2844 mt 4564 2844 L
4528 2808 mt 4528 2880 L
3757 2140 mt 3829 2140 L
3793 2104 mt 3793 2176 L
2765 3822 mt 2837 3822 L
2801 3786 mt 2801 3858 L
3873 2532 mt 3945 2532 L
3909 2496 mt 3909 2568 L
2513 3250 mt 2585 3250 L
2549 3214 mt 2549 3286 L
2987 2659 mt 3059 2659 L
3023 2623 mt 3023 2695 L
4228 2374 mt 4300 2374 L
4264 2338 mt 4264 2410 L
3493 3942 mt 3565 3942 L
3529 3906 mt 3529 3978 L
2624 3069 mt 2696 3069 L
2660 3033 mt 2660 3105 L
3803 2270 mt 3875 2270 L
3839 2234 mt 3839 2306 L
3655 2624 mt 3727 2624 L
3691 2588 mt 3691 2660 L
3934 2523 mt 4006 2523 L
3970 2487 mt 3970 2559 L
2146 3479 mt 2218 3479 L
2182 3443 mt 2182 3515 L
3290 3980 mt 3362 3980 L
3326 3944 mt 3326 4016 L
2381 3658 mt 2453 3658 L
2417 3622 mt 2417 3694 L
3410 2514 mt 3482 2514 L
3446 2478 mt 3446 2550 L
3415 2051 mt 3487 2051 L
3451 2015 mt 3451 2087 L
3555 2677 mt 3627 2677 L
3591 2641 mt 3591 2713 L
3768 2854 mt 3840 2854 L
3804 2818 mt 3804 2890 L
2298 3297 mt 2370 3297 L
2334 3261 mt 2334 3333 L
3202 3242 mt 3274 3242 L
3238 3206 mt 3238 3278 L
3249 2825 mt 3321 2825 L
3285 2789 mt 3285 2861 L
3588 2242 mt 3660 2242 L
3624 2206 mt 3624 2278 L
4236 1858 mt 4308 1858 L
4272 1822 mt 4272 1894 L
5606 2650 mt 5678 2650 L
5642 2614 mt 5642 2686 L
3649 2962 mt 3721 2962 L
3685 2926 mt 3685 2998 L
4463 1462 mt 4535 1462 L
4499 1426 mt 4499 1498 L
3477 3711 mt 3549 3711 L
3513 3675 mt 3513 3747 L
3347 2519 mt 3419 2519 L
3383 2483 mt 3383 2555 L
4107 2935 mt 4179 2935 L
4143 2899 mt 4143 2971 L
2565 3005 mt 2637 3005 L
2601 2969 mt 2601 3041 L
4142 2401 mt 4214 2401 L
4178 2365 mt 4178 2437 L
2903 1514 mt 2975 1514 L
2939 1478 mt 2939 1550 L
3728 2233 mt 3800 2233 L
3764 2197 mt 3764 2269 L
3826 2316 mt 3898 2316 L
3862 2280 mt 3862 2352 L
4028 2130 mt 4100 2130 L
4064 2094 mt 4064 2166 L
3711 2347 mt 3783 2347 L
3747 2311 mt 3747 2383 L
3661 2691 mt 3733 2691 L
3697 2655 mt 3697 2727 L
3166 2536 mt 3238 2536 L
3202 2500 mt 3202 2572 L
4381 1572 mt 4453 1572 L
4417 1536 mt 4417 1608 L
2993 3527 mt 3065 3527 L
3029 3491 mt 3029 3563 L
4184 2894 mt 4256 2894 L
4220 2858 mt 4220 2930 L
3342 2150 mt 3414 2150 L
3378 2114 mt 3378 2186 L
2251 4305 mt 2323 4305 L
2287 4269 mt 2287 4341 L
3426 2801 mt 3498 2801 L
3462 2765 mt 3462 2837 L
4836 1502 mt 4908 1502 L
4872 1466 mt 4872 1538 L
4015 2445 mt 4087 2445 L
4051 2409 mt 4051 2481 L
3921 1550 mt 3993 1550 L
3957 1514 mt 3957 1586 L
3605 1698 mt 3677 1698 L
3641 1662 mt 3641 1734 L
3085 2806 mt 3157 2806 L
3121 2770 mt 3121 2842 L
4054 3178 mt 4126 3178 L
4090 3142 mt 4090 3214 L
2407 2175 mt 2479 2175 L
2443 2139 mt 2443 2211 L
2805 3099 mt 2877 3099 L
2841 3063 mt 2841 3135 L
4693 2029 mt 4765 2029 L
4729 1993 mt 4729 2065 L
4251 2388 mt 4323 2388 L
4287 2352 mt 4287 2424 L
2732 2545 mt 2804 2545 L
2768 2509 mt 2768 2581 L
 863 3220 mt  935 3220 L
 899 3184 mt  899 3256 L
3273 1917 mt 3345 1917 L
3309 1881 mt 3309 1953 L
4425 1904 mt 4497 1904 L
4461 1868 mt 4461 1940 L
2680 3731 mt 2752 3731 L
2716 3695 mt 2716 3767 L
2749 3446 mt 2821 3446 L
2785 3410 mt 2785 3482 L
4243 3395 mt 4315 3395 L
4279 3359 mt 4279 3431 L
3571 2094 mt 3643 2094 L
3607 2058 mt 3607 2130 L
3104 2849 mt 3176 2849 L
3140 2813 mt 3140 2885 L
4074 2185 mt 4146 2185 L
4110 2149 mt 4110 2221 L
3734 2256 mt 3806 2256 L
3770 2220 mt 3770 2292 L
4266 2343 mt 4338 2343 L
4302 2307 mt 4302 2379 L
4094 2978 mt 4166 2978 L
4130 2942 mt 4130 3014 L
3381 2001 mt 3453 2001 L
3417 1965 mt 3417 2037 L
3284 2646 mt 3356 2646 L
3320 2610 mt 3320 2682 L
3964 2165 mt 4036 2165 L
4000 2129 mt 4000 2201 L
2479 1476 mt 2551 1476 L
2515 1440 mt 2515 1512 L
3302 2914 mt 3374 2914 L
3338 2878 mt 3338 2950 L
4501 1354 mt 4573 1354 L
4537 1318 mt 4537 1390 L
3007 3087 mt 3079 3087 L
3043 3051 mt 3043 3123 L
2444 2414 mt 2516 2414 L
2480 2378 mt 2480 2450 L
3237 2637 mt 3309 2637 L
3273 2601 mt 3273 2673 L
2394 3022 mt 2466 3022 L
2430 2986 mt 2430 3058 L
3909 2073 mt 3981 2073 L
3945 2037 mt 3945 2109 L
3791 1787 mt 3863 1787 L
3827 1751 mt 3827 1823 L
3053 2736 mt 3125 2736 L
3089 2700 mt 3089 2772 L
2312 2024 mt 2384 2024 L
2348 1988 mt 2348 2060 L
4298  414 mt 4370  414 L
4334  378 mt 4334  450 L
2910 2909 mt 2982 2909 L
2946 2873 mt 2946 2945 L
3243 2750 mt 3315 2750 L
3279 2714 mt 3279 2786 L
2085 2018 mt 2157 2018 L
2121 1982 mt 2121 2054 L
2235 3213 mt 2307 3213 L
2271 3177 mt 2271 3249 L
2874 3106 mt 2946 3106 L
2910 3070 mt 2910 3142 L
3616 2493 mt 3688 2493 L
3652 2457 mt 3652 2529 L
2952 3265 mt 3024 3265 L
2988 3229 mt 2988 3301 L
2218 3081 mt 2290 3081 L
2254 3045 mt 2254 3117 L
3538 3131 mt 3610 3131 L
3574 3095 mt 3574 3167 L
3832 2370 mt 3904 2370 L
3868 2334 mt 3868 2406 L
3135 3306 mt 3207 3306 L
3171 3270 mt 3171 3342 L
2327 2458 mt 2399 2458 L
2363 2422 mt 2363 2494 L
5002 1662 mt 5074 1662 L
5038 1626 mt 5038 1698 L
2555 2983 mt 2627 2983 L
2591 2947 mt 2591 3019 L
3952 3118 mt 4024 3118 L
3988 3082 mt 3988 3154 L
3510 2223 mt 3582 2223 L
3546 2187 mt 3546 2259 L
2586 1978 mt 2658 1978 L
2622 1942 mt 2622 2014 L
3129 4205 mt 3201 4205 L
3165 4169 mt 3165 4241 L
1481 2727 mt 1553 2727 L
1517 2691 mt 1517 2763 L
3694 2284 mt 3766 2284 L
3730 2248 mt 3730 2320 L
4372 2655 mt 4444 2655 L
4408 2619 mt 4408 2691 L
3946 2497 mt 4018 2497 L
3982 2461 mt 3982 2533 L
3745 2820 mt 3817 2820 L
3781 2784 mt 3781 2856 L
1965 2251 mt 2037 2251 L
2001 2215 mt 2001 2287 L
4206 1152 mt 4278 1152 L
4242 1116 mt 4242 1188 L
2040 2194 mt 2112 2194 L
2076 2158 mt 2076 2230 L
2821 2396 mt 2893 2396 L
2857 2360 mt 2857 2432 L
3255 3137 mt 3327 3137 L
3291 3101 mt 3291 3173 L
2980 3468 mt 3052 3468 L
3016 3432 mt 3016 3504 L
4444 1954 mt 4516 1954 L
4480 1918 mt 4480 1990 L
4364 2288 mt 4436 2288 L
4400 2252 mt 4400 2324 L
3566 2967 mt 3638 2967 L
3602 2931 mt 3602 3003 L
3330 2432 mt 3402 2432 L
3366 2396 mt 3366 2468 L
3040 3405 mt 3112 3405 L
3076 3369 mt 3076 3441 L
3544 2218 mt 3616 2218 L
3580 2182 mt 3580 2254 L
2917 3797 mt 2989 3797 L
2953 3761 mt 2953 3833 L
4680 2580 mt 4752 2580 L
4716 2544 mt 4716 2616 L
3020 2423 mt 3092 2423 L
3056 2387 mt 3056 2459 L
3814 2089 mt 3886 2089 L
3850 2053 mt 3850 2125 L
4009 2754 mt 4081 2754 L
4045 2718 mt 4045 2790 L
4398 1872 mt 4470 1872 L
4434 1836 mt 4434 1908 L
2813 3491 mt 2885 3491 L
2849 3455 mt 2849 3527 L
3123 2709 mt 3195 2709 L
3159 2673 mt 3159 2745 L
3915 1838 mt 3987 1838 L
3951 1802 mt 3951 1874 L
4191 2589 mt 4263 2589 L
4227 2553 mt 4227 2625 L
2016 2768 mt 2088 2768 L
2052 2732 mt 2052 2804 L
1387 2067 mt 1459 2067 L
1423 2031 mt 1423 2103 L
3196 2792 mt 3268 2792 L
3232 2756 mt 3232 2828 L
3454 2686 mt 3526 2686 L
3490 2650 mt 3490 2722 L
2165 3386 mt 2237 3386 L
2201 3350 mt 2201 3422 L
4100 2874 mt 4172 2874 L
4136 2838 mt 4136 2910 L
2634 2956 mt 2706 2956 L
2670 2920 mt 2670 2992 L
2797 3457 mt 2869 3457 L
2833 3421 mt 2833 3493 L
3717 3017 mt 3789 3017 L
3753 2981 mt 3753 3053 L
2432 3000 mt 2504 3000 L
2468 2964 mt 2468 3036 L
3488 4023 mt 3560 4023 L
3524 3987 mt 3524 4059 L
4585 3415 mt 4657 3415 L
4621 3379 mt 4621 3451 L
2671 3675 mt 2743 3675 L
2707 3639 mt 2707 3711 L
4472 2145 mt 4544 2145 L
4508 2109 mt 4508 2181 L
3638 2664 mt 3710 2664 L
3674 2628 mt 3674 2700 L
2781 2668 mt 2853 2668 L
2817 2632 mt 2817 2704 L
2931 2989 mt 3003 2989 L
2967 2953 mt 2967 3025 L
4199 2046 mt 4271 2046 L
4235 2010 mt 4235 2082 L
3521 3206 mt 3593 3206 L
3557 3170 mt 3557 3242 L
2468 4616 mt 2540 4616 L
2504 4580 mt 2504 4652 L
2723 3581 mt 2795 3581 L
2759 3545 mt 2759 3617 L
4820 2334 mt 4892 2334 L
4856 2298 mt 4856 2370 L
2789 3331 mt 2861 3331 L
2825 3295 mt 2825 3367 L
4282 1732 mt 4354 1732 L
4318 1696 mt 4318 1768 L
3153 3144 mt 3225 3144 L
3189 3108 mt 3189 3180 L
3527 2099 mt 3599 2099 L
3563 2063 mt 3563 2135 L
2662 3848 mt 2734 3848 L
2698 3812 mt 2698 3884 L
3516 2471 mt 3588 2471 L
3552 2435 mt 3552 2507 L
3927 2764 mt 3999 2764 L
3963 2728 mt 3963 2800 L
3160 2120 mt 3232 2120 L
3196 2084 mt 3196 2156 L
3861 2606 mt 3933 2606 L
3897 2570 mt 3897 2642 L
4170  957 mt 4242  957 L
4206  921 mt 4206  993 L
3078 2062 mt 3150 2062 L
3114 2026 mt 3114 2098 L
3313 3349 mt 3385 3349 L
3349 3313 mt 3349 3385 L
2828 3314 mt 2900 3314 L
2864 3278 mt 2864 3350 L
4121 2356 mt 4193 2356 L
4157 2320 mt 4157 2392 L
3214 2611 mt 3286 2611 L
3250 2575 mt 3250 2647 L
2706 1851 mt 2778 1851 L
2742 1815 mt 2742 1887 L
4512 2329 mt 4584 2329 L
4548 2293 mt 4548 2365 L
2523 3227 mt 2595 3227 L
2559 3191 mt 2559 3263 L
4655 1831 mt 4727 1831 L
4691 1795 mt 4691 1867 L
3336 2352 mt 3408 2352 L
3372 2316 mt 3372 2388 L
4597 2125 mt 4669 2125 L
4633 2089 mt 4633 2161 L
4060 3028 mt 4132 3028 L
4096 2992 mt 4096 3064 L
3141 3515 mt 3213 3515 L
3177 3479 mt 3177 3551 L
3903 2440 mt 3975 2440 L
3939 2404 mt 3939 2476 L
5180 1779 mt 5252 1779 L
5216 1743 mt 5216 1815 L
5096 2115 mt 5168 2115 L
5132 2079 mt 5132 2151 L
3577 2307 mt 3649 2307 L
3613 2271 mt 3613 2343 L
1722 2628 mt 1794 2628 L
1758 2592 mt 1758 2664 L
4041 3112 mt 4113 3112 L
4077 3076 mt 4077 3148 L
3855 2189 mt 3927 2189 L
3891 2153 mt 3891 2225 L
3785 2904 mt 3857 2904 L
3821 2868 mt 3821 2940 L
3774 2405 mt 3846 2405 L
3810 2369 mt 3810 2441 L
4852 1489 mt 4924 1489 L
4888 1453 mt 4888 1525 L
3706 1748 mt 3778 1748 L
3742 1712 mt 3742 1784 L
5282 1898 mt 5354 1898 L
5318 1862 mt 5318 1934 L
3443 3752 mt 3515 3752 L
3479 3716 mt 3479 3788 L
3482 3376 mt 3554 3376 L
3518 3340 mt 3518 3412 L
4732 2104 mt 4804 2104 L
4768 2068 mt 4768 2140 L
5413 2549 mt 5485 2549 L
5449 2513 mt 5449 2585 L
4156 2541 mt 4228 2541 L
4192 2505 mt 4192 2577 L
2836 1809 mt 2908 1809 L
2872 1773 mt 2872 1845 L
2881 3157 mt 2953 3157 L
2917 3121 mt 2917 3193 L
3190 3540 mt 3262 3540 L
3226 3504 mt 3226 3576 L
5365 1419 mt 5437 1419 L
5401 1383 mt 5401 1455 L
4149 2083 mt 4221 2083 L
4185 2047 mt 4185 2119 L
3364 2633 mt 3436 2633 L
3400 2597 mt 3400 2669 L
1766 1756 mt 1838 1756 L
1802 1720 mt 1802 1792 L
4435 1816 mt 4507 1816 L
4471 1780 mt 4471 1852 L
3977 1911 mt 4049 1911 L
4013 1875 mt 4013 1947 L
4922 2619 mt 4994 2619 L
4958 2583 mt 4958 2655 L
5245 3171 mt 5317 3171 L
5281 3135 mt 5281 3207 L
3844 2361 mt 3916 2361 L
3880 2325 mt 3880 2397 L
3046 2951 mt 3118 2951 L
3082 2915 mt 3082 2987 L
2888 2940 mt 2960 2940 L
2924 2904 mt 2924 2976 L
3891 1960 mt 3963 1960 L
3927 1924 mt 3927 1996 L
2063 3595 mt 2135 3595 L
2099 3559 mt 2099 3631 L
5211 2012 mt 5283 2012 L
5247 1976 mt 5247 2048 L
3359 3184 mt 3431 3184 L
3395 3148 mt 3395 3220 L
3110 3908 mt 3182 3908 L
3146 3872 mt 3146 3944 L
3267 2302 mt 3339 2302 L
3303 2266 mt 3303 2338 L
4087 3164 mt 4159 3164 L
4123 3128 mt 4123 3200 L
5531 3610 mt 5603 3610 L
5567 3574 mt 5567 3646 L
3393 2279 mt 3465 2279 L
3429 2243 mt 3429 2315 L
3261 2641 mt 3333 2641 L
3297 2605 mt 3297 2677 L
3797 3281 mt 3869 3281 L
3833 3245 mt 3833 3317 L
3809 2994 mt 3881 2994 L
3845 2958 mt 3845 3030 L
1805 3553 mt 1877 3553 L
1841 3517 mt 1841 3589 L
4002 1966 mt 4074 1966 L
4038 1930 mt 4038 2002 L
3838 1707 mt 3910 1707 L
3874 1671 mt 3874 1743 L
2773 2237 mt 2845 2237 L
2809 2201 mt 2809 2273 L
4631 3641 mt 4703 3641 L
4667 3605 mt 4667 3677 L
3599 1371 mt 3671 1371 L
3635 1335 mt 3635 1407 L
5047 1232 mt 5119 1232 L
5083 1196 mt 5083 1268 L
4941 1653 mt 5013 1653 L
4977 1617 mt 4977 1689 L
6033 1087 mt 6105 1087 L
6069 1051 mt 6069 1123 L
4330 1181 mt 4402 1181 L
4366 1145 mt 4366 1217 L
4869 1388 mt 4941 1388 L
4905 1352 mt 4905 1424 L
3751 1404 mt 3823 1404 L
3787 1368 mt 3787 1440 L
3404 2554 mt 3476 2554 L
3440 2518 mt 3440 2590 L
3000 2972 mt 3072 2972 L
3036 2936 mt 3036 3008 L
1674 1936 mt 1746 1936 L
1710 1900 mt 1710 1972 L
2615 3257 mt 2687 3257 L
2651 3221 mt 2651 3293 L
2851 1723 mt 2923 1723 L
2887 1687 mt 2887 1759 L
2490 2682 mt 2562 2682 L
2526 2646 mt 2526 2718 L
3027 2722 mt 3099 2722 L
3063 2686 mt 3063 2758 L
4553 1336 mt 4625 1336 L
4589 1300 mt 4589 1372 L
3307 2731 mt 3379 2731 L
3343 2695 mt 3343 2767 L
4667 2155 mt 4739 2155 L
4703 2119 mt 4703 2191 L
4274 1794 mt 4346 1794 L
4310 1758 mt 4310 1830 L
3850 2840 mt 3922 2840 L
3886 2804 mt 3886 2876 L
4021 1930 mt 4093 1930 L
4057 1894 mt 4057 1966 L
3376 2718 mt 3448 2718 L
3412 2682 mt 3412 2754 L
3700 1207 mt 3772 1207 L
3736 1171 mt 3736 1243 L
4619 1624 mt 4691 1624 L
4655 1588 mt 4655 1660 L
1842 2160 mt 1914 2160 L
1878 2124 mt 1878 2196 L
4163 1740 mt 4235 1740 L
4199 1704 mt 4199 1776 L
1876 2247 mt 1948 2247 L
1912 2211 mt 1912 2283 L
3432 2920 mt 3504 2920 L
3468 2884 mt 3468 2956 L
4259 1561 mt 4331 1561 L
4295 1525 mt 4295 1597 L
3184 2558 mt 3256 2558 L
3220 2522 mt 3220 2594 L
2282 2811 mt 2354 2811 L
2318 2775 mt 2318 2847 L
3013 2209 mt 3085 2209 L
3049 2173 mt 3049 2245 L
4221  824 mt 4293  824 L
4257  788 mt 4257  860 L
3879 1995 mt 3951 1995 L
3915 1959 mt 3915 2031 L
5150 1448 mt 5222 1448 L
5186 1412 mt 5186 1484 L
2896 2830 mt 2968 2830 L
2932 2794 mt 2932 2866 L
3172 2427 mt 3244 2427 L
3208 2391 mt 3208 2463 L
2973 3034 mt 3045 3034 L
3009 2998 mt 3009 3070 L
4482 1526 mt 4554 1526 L
4518 1490 mt 4518 1562 L
2368 1634 mt 2440 1634 L
2404 1598 mt 2404 1670 L
3059 3063 mt 3131 3063 L
3095 3027 mt 3095 3099 L
3740 1583 mt 3812 1583 L
3776 1547 mt 3776 1619 L
5321 2180 mt 5393 2180 L
5357 2144 mt 5357 2216 L
2126 2275 mt 2198 2275 L
2162 2239 mt 2162 2311 L
5468 1434 mt 5540 1434 L
5504 1398 mt 5504 1470 L
3621 2293 mt 3693 2293 L
3657 2257 mt 3657 2329 L
5024 2204 mt 5096 2204 L
5060 2168 mt 5060 2240 L
2420 3289 mt 2492 3289 L
2456 3253 mt 2456 3325 L
2740 1845 mt 2812 1845 L
2776 1809 mt 2776 1881 L
4306 2379 mt 4378 2379 L
4342 2343 mt 4342 2415 L
3387 2879 mt 3459 2879 L
3423 2843 mt 3423 2915 L
3582 1878 mt 3654 1878 L
3618 1842 mt 3618 1914 L
3672 1680 mt 3744 1680 L
3708 1644 mt 3708 1716 L
4643 2109 mt 4715 2109 L
4679 2073 mt 4679 2145 L
2267 3045 mt 2339 3045 L
2303 3009 mt 2303 3081 L
1619 2787 mt 1691 2787 L
1655 2751 mt 1655 2823 L
3319 2615 mt 3391 2615 L
3355 2579 mt 3355 2651 L
3989 2946 mt 4061 2946 L
4025 2910 mt 4025 2982 L
6225 2392 mt 6297 2392 L
6261 2356 mt 6261 2428 L
3499 3125 mt 3571 3125 L
3535 3089 mt 3535 3161 L
2534 2869 mt 2606 2869 L
2570 2833 mt 2570 2905 L
3677 1604 mt 3749 1604 L
3713 1568 mt 3713 1640 L
3996 2135 mt 4068 2135 L
4032 2099 mt 4032 2171 L
4886 2035 mt 4958 2035 L
4922 1999 mt 4922 2071 L
4114 2673 mt 4186 2673 L
4150 2637 mt 4150 2709 L
3466 1823 mt 3538 1823 L
3502 1787 mt 3502 1859 L
3398 3011 mt 3470 3011 L
3434 2975 mt 3434 3047 L
1937  898 mt 2009  898 L
1973  862 mt 1973  934 L
4322  724 mt 4394  724 L
4358  688 mt 4358  760 L
5071 1984 mt 5143 1984 L
5107 1948 mt 5107 2020 L
4128 1990 mt 4200 1990 L
4164 1954 mt 4164 2026 L
4290 3198 mt 4362 3198 L
4326 3162 mt 4326 3234 L
4390 2298 mt 4462 2298 L
4426 2262 mt 4426 2334 L
2595 2741 mt 2667 2741 L
2631 2705 mt 2631 2777 L
3208 3191 mt 3280 3191 L
3244 3155 mt 3244 3227 L
2959 2899 mt 3031 2899 L
2995 2863 mt 2995 2935 L
2757 2782 mt 2829 2782 L
2793 2746 mt 2793 2818 L
2456 3358 mt 2528 3358 L
2492 3322 mt 2492 3394 L
4338 1298 mt 4410 1298 L
4374 1262 mt 4374 1334 L
3644 1923 mt 3716 1923 L
3680 1887 mt 3680 1959 L
4532 2759 mt 4604 2759 L
4568 2723 mt 4568 2795 L
3220 1802 mt 3292 1802 L
3256 1766 mt 3256 1838 L
4453 1318 mt 4525 1318 L
4489 1282 mt 4489 1354 L
3421 2449 mt 3493 2449 L
3457 2413 mt 3457 2485 L
3325 2930 mt 3397 2930 L
3361 2894 mt 3361 2966 L
4416 3051 mt 4488 3051 L
4452 3015 mt 4452 3087 L
2938 2311 mt 3010 2311 L
2974 2275 mt 2974 2347 L
3178 2571 mt 3250 2571 L
3214 2535 mt 3214 2607 L
3971 1892 mt 4043 1892 L
4007 1856 mt 4007 1928 L
4522 1593 mt 4594 1593 L
4558 1557 mt 4558 1629 L
3610 1277 mt 3682 1277 L
3646 1241 mt 3646 1313 L
2924 3151 mt 2996 3151 L
2960 3115 mt 2960 3187 L
4608 2057 mt 4680 2057 L
4644 2021 mt 4644 2093 L
2945 2745 mt 3017 2745 L
2981 2709 mt 2981 2781 L
5828 1614 mt 5900 1614 L
5864 1578 mt 5864 1650 L
2355 2597 mt 2427 2597 L
2391 2561 mt 2391 2633 L
3689 2815 mt 3761 2815 L
3725 2779 mt 3725 2851 L
3885 2713 mt 3957 2713 L
3921 2677 mt 3921 2749 L
3505 2506 mt 3577 2506 L
3541 2470 mt 3541 2542 L
4981 1942 mt 5053 1942 L
5017 1906 mt 5017 1978 L
3666 2567 mt 3738 2567 L
3702 2531 mt 3702 2603 L
3594 2365 mt 3666 2365 L
3630 2329 mt 3630 2401 L
5122 2214 mt 5194 2214 L
5158 2178 mt 5158 2250 L
4789  564 mt 4861  564 L
4825  528 mt 4825  600 L
3762 2484 mt 3834 2484 L
3798 2448 mt 3798 2520 L
2697 3625 mt 2769 3625 L
2733 3589 mt 2733 3661 L
4135 2320 mt 4207 2320 L
4171 2284 mt 4171 2356 L
4080 2501 mt 4152 2501 L
4116 2465 mt 4116 2537 L
2183 2338 mt 2255 2338 L
2219 2302 mt 2219 2374 L
2715 2410 mt 2787 2410 L
2751 2374 mt 2751 2446 L
3438 2528 mt 3510 2528 L
3474 2492 mt 3474 2564 L
3147 2695 mt 3219 2695 L
3183 2659 mt 3183 2731 L
1991 4072 mt 2063 4072 L
2027 4036 mt 2027 4108 L
3449 2925 mt 3521 2925 L
3485 2889 mt 3485 2961 L
1259 2480 mt 1331 2480 L
1295 2444 mt 1295 2516 L
2689 2510 mt 2761 2510 L
2725 2474 mt 2725 2546 L
3066 2704 mt 3138 2704 L
3102 2668 mt 3102 2740 L
3983 2265 mt 4055 2265 L
4019 2229 mt 4019 2301 L
3560 3436 mt 3632 3436 L
3596 3400 mt 3596 3472 L
3471 2835 mt 3543 2835 L
3507 2799 mt 3507 2871 L
3091 3273 mt 3163 3273 L
3127 3237 mt 3127 3309 L
3226 3039 mt 3298 3039 L
3262 3003 mt 3262 3075 L
4347 2078 mt 4419 2078 L
4383 2042 mt 4383 2114 L
4542 3235 mt 4614 3235 L
4578 3199 mt 4578 3271 L
1907 2261 mt 1979 2261 L
1943 2225 mt 1943 2297 L
4407 1764 mt 4479 1764 L
4443 1728 mt 4443 1800 L
4706 3425 mt 4778 3425 L
4742 3389 mt 4742 3461 L
4177 2859 mt 4249 2859 L
4213 2823 mt 4213 2895 L
3820 2007 mt 3892 2007 L
3856 1971 mt 3856 2043 L
3353 2562 mt 3425 2562 L
3389 2526 mt 3389 2598 L
3867 1671 mt 3939 1671 L
3903 1635 mt 3903 1707 L
2652 1715 mt 2724 1715 L
2688 1679 mt 2688 1751 L
3780 2475 mt 3852 2475 L
3816 2439 mt 3816 2511 L
4574 1772 mt 4646 1772 L
4610 1736 mt 4610 1808 L
3116 1255 mt 3188 1255 L
3152 1219 mt 3152 1291 L
3549 2864 mt 3621 2864 L
3585 2828 mt 3585 2900 L
2502 1643 mt 2574 1643 L
2538 1607 mt 2538 1679 L
2966 3774 mt 3038 3774 L
3002 3738 mt 3002 3810 L
2643 3567 mt 2715 3567 L
2679 3531 mt 2679 3603 L
4067 2889 mt 4139 2889 L
4103 2853 mt 4103 2925 L
3278 2700 mt 3350 2700 L
3314 2664 mt 3314 2736 L
2844 3877 mt 2916 3877 L
2880 3841 mt 2880 3913 L
2106 2778 mt 2178 2778 L
2142 2742 mt 2142 2814 L
3232 3503 mt 3304 3503 L
3268 3467 mt 3268 3539 L
3033 1006 mt 3105 1006 L
3069  970 mt 3069 1042 L
4775 1948 mt 4847 1948 L
4811 1912 mt 4811 1984 L
2859 4131 mt 2931 4131 L
2895 4095 mt 2895 4167 L
4355 1049 mt 4427 1049 L
4391 1013 mt 4391 1085 L
3633 2418 mt 3705 2418 L
3669 2382 mt 3669 2454 L
2341 2228 mt 2413 2228 L
2377 2192 mt 2377 2264 L
3460 2796 mt 3532 2796 L
3496 2760 mt 3496 2832 L
3098 2462 mt 3170 2462 L
3134 2426 mt 3134 2498 L
3296 3322 mt 3368 3322 L
3332 3286 mt 3332 3358 L
4961 2576 mt 5033 2576 L
4997 2540 mt 4997 2612 L
3723 1885 mt 3795 1885 L
3759 1849 mt 3759 1921 L
4047 2170 mt 4119 2170 L
4083 2134 mt 4083 2206 L
4904 1121 mt 4976 1121 L
4940 1085 mt 4940 1157 L
3072 2467 mt 3144 2467 L
3108 2431 mt 3108 2503 L
4314 2488 mt 4386 2488 L
4350 2452 mt 4350 2524 L
2201 2325 mt 2273 2325 L
2237 2289 mt 2237 2361 L
5700 3075 mt 5772 3075 L
5736 3039 mt 5736 3111 L
4746 1689 mt 4818 1689 L
4782 1653 mt 4782 1725 L
gs 899 414 5363 4203 rc
gr

0 sg
2779 5104 mt 
(\(F,DCTs,GMM\)) s
 482 3296 mt  -90 rotate
(\(F,DCTs,iMLP\)) s
90 rotate
2975  223 mt 
(Corr = 0.39) s

end %%Color Dict

eplot
%%EndObject

epage
end

showpage

%%Trailer
%%EOF
