%!PS-Adobe-3.0 EPSF-3.0
%%Creator: MATLAB, The Mathworks, Inc. Version 7.7.0.471 (R2008b). Operating System: Microsoft Windows XP.
%%Title: Pictures\main_zoo_mvar_analysis_data_BMI_xcorr_bmig_p1_k1_2_3.eps
%%CreationDate: 10/26/2009  05:44:50
%%DocumentNeededFonts: Helvetica
%%DocumentProcessColors: Cyan Magenta Yellow Black
%%LanguageLevel: 2
%%Pages: 1
%%BoundingBox:    37   180   549   616
%%EndComments

%%BeginProlog
% MathWorks dictionary
/MathWorks 160 dict begin
% definition operators
/bdef {bind def} bind def
/ldef {load def} bind def
/xdef {exch def} bdef
/xstore {exch store} bdef
% operator abbreviations
/c  /clip ldef
/cc /concat ldef
/cp /closepath ldef
/gr /grestore ldef
/gs /gsave ldef
/mt /moveto ldef
/np /newpath ldef
/cm /currentmatrix ldef
/sm /setmatrix ldef
/rm /rmoveto ldef
/rl /rlineto ldef
/s {show newpath} bdef
/sc {setcmykcolor} bdef
/sr /setrgbcolor ldef
/sg /setgray ldef
/w /setlinewidth ldef
/j /setlinejoin ldef
/cap /setlinecap ldef
/rc {rectclip} bdef
/rf {rectfill} bdef
% page state control
/pgsv () def
/bpage {/pgsv save def} bdef
/epage {pgsv restore} bdef
/bplot /gsave ldef
/eplot {stroke grestore} bdef
% orientation switch
/portraitMode 0 def /landscapeMode 1 def /rotateMode 2 def
% coordinate system mappings
/dpi2point 0 def
% font control
/FontSize 0 def
/FMS {/FontSize xstore findfont [FontSize 0 0 FontSize neg 0 0]
  makefont setfont} bdef
/ISOLatin1Encoding where {pop /WindowsLatin1Encoding 256 array bdef
ISOLatin1Encoding WindowsLatin1Encoding copy pop
/.notdef/.notdef/quotesinglbase/florin/quotedblbase/ellipsis/dagger
/daggerdbl/circumflex/perthousand/Scaron/guilsinglleft/OE/.notdef/.notdef
/.notdef/.notdef/quoteleft/quoteright/quotedblleft/quotedblright/bullet
/endash/emdash/tilde/trademark/scaron/guilsinglright/oe/.notdef/.notdef
/Ydieresis WindowsLatin1Encoding 128 32 getinterval astore pop}
{/WindowsLatin1Encoding StandardEncoding bdef} ifelse
/reencode {exch dup where {pop load} {pop StandardEncoding} ifelse
  exch dup 3 1 roll findfont dup length dict begin
  { 1 index /FID ne {def}{pop pop} ifelse } forall
  /Encoding exch def currentdict end definefont pop} bdef
/isroman {findfont /CharStrings get /Agrave known} bdef
/FMSR {3 1 roll 1 index dup isroman {reencode} {pop pop} ifelse
  exch FMS} bdef
/csm {1 dpi2point div -1 dpi2point div scale neg translate
 dup landscapeMode eq {pop -90 rotate}
  {rotateMode eq {90 rotate} if} ifelse} bdef
% line types: solid, dotted, dashed, dotdash
/SO { [] 0 setdash } bdef
/DO { [.5 dpi2point mul 4 dpi2point mul] 0 setdash } bdef
/DA { [6 dpi2point mul] 0 setdash } bdef
/DD { [.5 dpi2point mul 4 dpi2point mul 6 dpi2point mul 4
  dpi2point mul] 0 setdash } bdef
% macros for lines and objects
/L {lineto stroke} bdef
/MP {3 1 roll moveto 1 sub {rlineto} repeat} bdef
/AP {{rlineto} repeat} bdef
/PDlw -1 def
/W {/PDlw currentlinewidth def setlinewidth} def
/PP {closepath eofill} bdef
/DP {closepath stroke} bdef
/MR {4 -2 roll moveto dup  0 exch rlineto exch 0 rlineto
  neg 0 exch rlineto closepath} bdef
/FR {MR stroke} bdef
/PR {MR fill} bdef
/L1i {{currentfile picstr readhexstring pop} image} bdef
/tMatrix matrix def
/MakeOval {newpath tMatrix currentmatrix pop translate scale
0 0 1 0 360 arc tMatrix setmatrix} bdef
/FO {MakeOval stroke} bdef
/PO {MakeOval fill} bdef
/PD {currentlinewidth 2 div 0 360 arc fill
   PDlw -1 eq not {PDlw w /PDlw -1 def} if} def
/FA {newpath tMatrix currentmatrix pop translate scale
  0 0 1 5 -2 roll arc tMatrix setmatrix stroke} bdef
/PA {newpath tMatrix currentmatrix pop	translate 0 0 moveto scale
  0 0 1 5 -2 roll arc closepath tMatrix setmatrix fill} bdef
/FAn {newpath tMatrix currentmatrix pop translate scale
  0 0 1 5 -2 roll arcn tMatrix setmatrix stroke} bdef
/PAn {newpath tMatrix currentmatrix pop translate 0 0 moveto scale
  0 0 1 5 -2 roll arcn closepath tMatrix setmatrix fill} bdef
/vradius 0 def /hradius 0 def /lry 0 def
/lrx 0 def /uly 0 def /ulx 0 def /rad 0 def
/MRR {/vradius xdef /hradius xdef /lry xdef /lrx xdef /uly xdef
  /ulx xdef newpath tMatrix currentmatrix pop ulx hradius add uly
  vradius add translate hradius vradius scale 0 0 1 180 270 arc 
  tMatrix setmatrix lrx hradius sub uly vradius add translate
  hradius vradius scale 0 0 1 270 360 arc tMatrix setmatrix
  lrx hradius sub lry vradius sub translate hradius vradius scale
  0 0 1 0 90 arc tMatrix setmatrix ulx hradius add lry vradius sub
  translate hradius vradius scale 0 0 1 90 180 arc tMatrix setmatrix
  closepath} bdef
/FRR {MRR stroke } bdef
/PRR {MRR fill } bdef
/MlrRR {/lry xdef /lrx xdef /uly xdef /ulx xdef /rad lry uly sub 2 div def
  newpath tMatrix currentmatrix pop ulx rad add uly rad add translate
  rad rad scale 0 0 1 90 270 arc tMatrix setmatrix lrx rad sub lry rad
  sub translate rad rad scale 0 0 1 270 90 arc tMatrix setmatrix
  closepath} bdef
/FlrRR {MlrRR stroke } bdef
/PlrRR {MlrRR fill } bdef
/MtbRR {/lry xdef /lrx xdef /uly xdef /ulx xdef /rad lrx ulx sub 2 div def
  newpath tMatrix currentmatrix pop ulx rad add uly rad add translate
  rad rad scale 0 0 1 180 360 arc tMatrix setmatrix lrx rad sub lry rad
  sub translate rad rad scale 0 0 1 0 180 arc tMatrix setmatrix
  closepath} bdef
/FtbRR {MtbRR stroke } bdef
/PtbRR {MtbRR fill } bdef
/stri 6 array def /dtri 6 array def
/smat 6 array def /dmat 6 array def
/tmat1 6 array def /tmat2 6 array def /dif 3 array def
/asub {/ind2 exch def /ind1 exch def dup dup
  ind1 get exch ind2 get sub exch } bdef
/tri_to_matrix {
  2 0 asub 3 1 asub 4 0 asub 5 1 asub
  dup 0 get exch 1 get 7 -1 roll astore } bdef
/compute_transform {
  dmat dtri tri_to_matrix tmat1 invertmatrix 
  smat stri tri_to_matrix tmat2 concatmatrix } bdef
/ds {stri astore pop} bdef
/dt {dtri astore pop} bdef
/db {2 copy /cols xdef /rows xdef mul dup 3 mul string
  currentfile 
  3 index 0 eq {/ASCIIHexDecode filter}
  {/ASCII85Decode filter 3 index 2 eq {/RunLengthDecode filter} if }
  ifelse exch readstring pop
  dup 0 3 index getinterval /rbmap xdef
  dup 2 index dup getinterval /gbmap xdef
  1 index dup 2 mul exch getinterval /bbmap xdef pop pop}bdef
/it {gs np dtri aload pop moveto lineto lineto cp c
  cols rows 8 compute_transform 
  rbmap gbmap bbmap true 3 colorimage gr}bdef
/il {newpath moveto lineto stroke}bdef
currentdict end def
%%EndProlog

%%BeginSetup
MathWorks begin

0 cap

end
%%EndSetup

%%Page: 1 1
%%BeginPageSetup
%%PageBoundingBox:    37   180   549   616
MathWorks begin
bpage
%%EndPageSetup

%%BeginObject: obj1
bplot

/dpi2point 12 def
portraitMode 0216 7344 csm

  234   -48  6149  5231 rc
85 dict begin %Colortable dictionary
/c0 { 0.000000 0.000000 0.000000 sr} bdef
/c1 { 1.000000 1.000000 1.000000 sr} bdef
/c2 { 0.900000 0.000000 0.000000 sr} bdef
/c3 { 0.000000 0.820000 0.000000 sr} bdef
/c4 { 0.000000 0.000000 0.800000 sr} bdef
/c5 { 0.910000 0.820000 0.320000 sr} bdef
/c6 { 1.000000 0.260000 0.820000 sr} bdef
/c7 { 0.000000 0.820000 0.820000 sr} bdef
c0
1 j
1 sg
   0    0 6919 5187 rf
6 w
0 4202 5362 0 0 -4202 899 4616 4 MP
PP
-5362 0 0 4202 5362 0 0 -4202 899 4616 5 MP stroke
4 w
DO
SO
6 w
0 sg
 899  414 mt 6261  414 L
 899 4616 mt 6261 4616 L
6261 4616 mt 6261  414 L
 899 4616 mt  899  414 L
 899 4616 mt 6261 4616 L
 899 4616 mt  899  414 L
 919 4616 mt  919 4562 L
 919  414 mt  919  467 L
%%IncludeResource: font Helvetica
/Helvetica /WindowsLatin1Encoding 240 FMSR

 713 4873 mt 
(-3) s
1806 4616 mt 1806 4562 L
1806  414 mt 1806  467 L
1600 4873 mt 
(-2) s
2693 4616 mt 2693 4562 L
2693  414 mt 2693  467 L
2487 4873 mt 
(-1) s
3580 4616 mt 3580 4562 L
3580  414 mt 3580  467 L
3514 4873 mt 
(0) s
4466 4616 mt 4466 4562 L
4466  414 mt 4466  467 L
4400 4873 mt 
(1) s
5353 4616 mt 5353 4562 L
5353  414 mt 5353  467 L
5287 4873 mt 
(2) s
6240 4616 mt 6240 4562 L
6240  414 mt 6240  467 L
6174 4873 mt 
(3) s
 899 4599 mt  952 4599 L
6261 4599 mt 6207 4599 L
 591 4688 mt 
(-3) s
 899 3904 mt  952 3904 L
6261 3904 mt 6207 3904 L
 591 3993 mt 
(-2) s
 899 3209 mt  952 3209 L
6261 3209 mt 6207 3209 L
 591 3298 mt 
(-1) s
 899 2514 mt  952 2514 L
6261 2514 mt 6207 2514 L
 731 2603 mt 
(0) s
 899 1820 mt  952 1820 L
6261 1820 mt 6207 1820 L
 731 1909 mt 
(1) s
 899 1125 mt  952 1125 L
6261 1125 mt 6207 1125 L
 731 1214 mt 
(2) s
 899  430 mt  952  430 L
6261  430 mt 6207  430 L
 731  519 mt 
(3) s
 899  414 mt 6261  414 L
 899 4616 mt 6261 4616 L
6261 4616 mt 6261  414 L
 899 4616 mt  899  414 L
gs 899 414 5363 4203 rc
gr

/c8 { 0.000000 0.000000 1.000000 sr} bdef
c8
3785 1671 mt 3857 1671 L
3821 1635 mt 3821 1707 L
2063 2655 mt 2135 2655 L
2099 2619 mt 2099 2691 L
4080 1152 mt 4152 1152 L
4116 1116 mt 4116 1188 L
4191 2488 mt 4263 2488 L
4227 2452 mt 4227 2524 L
2381 2449 mt 2453 2449 L
2417 2413 mt 2417 2485 L
2903 2018 mt 2975 2018 L
2939 1982 mt 2939 2054 L
3342 3415 mt 3414 3415 L
3378 3379 mt 3378 3451 L
1674 3250 mt 1746 3250 L
1710 3214 mt 1710 3286 L
3415 2835 mt 3487 2835 L
3451 2799 mt 3451 2871 L
5700 1779 mt 5772 1779 L
5736 1743 mt 5736 1815 L
1259 1572 mt 1331 1572 L
1295 1536 mt 1295 1608 L
2757 1740 mt 2829 1740 L
2793 1704 mt 2793 1776 L
2595 1732 mt 2667 1732 L
2631 1696 mt 2631 1768 L
2706 1476 mt 2778 1476 L
2742 1440 mt 2742 1512 L
4034 2237 mt 4106 2237 L
4070 2201 mt 4070 2273 L
3694 2519 mt 3766 2519 L
3730 2483 mt 3730 2555 L
2765 1489 mt 2837 1489 L
2801 1453 mt 2801 1525 L
3488 3157 mt 3560 3157 L
3524 3121 mt 3524 3193 L
4054 2782 mt 4126 2782 L
4090 2746 mt 4090 2818 L
4274 2983 mt 4346 2983 L
4310 2947 mt 4310 3019 L
2605 1831 mt 2677 1831 L
2641 1795 mt 2641 1867 L
3421 1960 mt 3493 1960 L
3457 1924 mt 3457 1996 L
3745 2549 mt 3817 2549 L
3781 2513 mt 3781 2585 L
2789 2379 mt 2861 2379 L
2825 2343 mt 2825 2415 L
4836 1898 mt 4908 1898 L
4872 1862 mt 4872 1934 L
4482 2040 mt 4554 2040 L
4518 2004 mt 4518 2076 L
3085 2925 mt 3157 2925 L
3121 2889 mt 3121 2961 L
4087 2109 mt 4159 2109 L
4123 2073 mt 4123 2145 L
4114 2343 mt 4186 2343 L
4150 2307 mt 4150 2379 L
5071 3063 mt 5143 3063 L
5107 3027 mt 5107 3099 L
3104 1858 mt 3176 1858 L
3140 1822 mt 3140 1894 L
3958 2727 mt 4030 2727 L
3994 2691 mt 3994 2763 L
4009 3242 mt 4081 3242 L
4045 3206 mt 4045 3278 L
5024 3980 mt 5096 3980 L
5060 3944 mt 5060 4016 L
4330 1689 mt 4402 1689 L
4366 1653 mt 4366 1725 L
3927 1954 mt 3999 1954 L
3963 1918 mt 3963 1990 L
3861 3227 mt 3933 3227 L
3897 3191 mt 3897 3263 L
3147 1851 mt 3219 1851 L
3183 1815 mt 3183 1887 L
3166 1872 mt 3238 1872 L
3202 1836 mt 3202 1908 L
2805 1583 mt 2877 1583 L
2841 1547 mt 2841 1619 L
4322 3034 mt 4394 3034 L
4358 2998 mt 4358 3070 L
3178 2611 mt 3250 2611 L
3214 2575 mt 3214 2647 L
2468 2325 mt 2540 2325 L
2504 2289 mt 2504 2361 L
4177 1049 mt 4249 1049 L
4213 1013 mt 4213 1085 L
5828 3118 mt 5900 3118 L
5864 3082 mt 5864 3154 L
3921 2633 mt 3993 2633 L
3957 2597 mt 3957 2669 L
3066 1904 mt 3138 1904 L
3102 1868 mt 3102 1940 L
2146 2951 mt 2218 2951 L
2182 2915 mt 2182 2987 L
4355 1772 mt 4427 1772 L
4391 1736 mt 4391 1808 L
2040 1388 mt 2112 1388 L
2076 1352 mt 2076 1424 L
3903 2265 mt 3975 2265 L
3939 2229 mt 3939 2301 L
4221 4616 mt 4293 4616 L
4257 4580 mt 4257 4652 L
2740  724 mt 2812  724 L
2776  688 mt 2776  760 L
2881 2940 mt 2953 2940 L
2917 2904 mt 2917 2976 L
3677 3436 mt 3749 3436 L
3713 3400 mt 3713 3472 L
4213 2659 mt 4285 2659 L
4249 2623 mt 4249 2695 L
3809 3039 mt 3881 3039 L
3845 3003 mt 3845 3075 L
4206 2624 mt 4278 2624 L
4242 2588 mt 4242 2660 L
4760 1255 mt 4832 1255 L
4796 1219 mt 4796 1291 L
3020 1121 mt 3092 1121 L
3056 1085 mt 3056 1157 L
4407 1838 mt 4479 1838 L
4443 1802 mt 4443 1874 L
3832 2165 mt 3904 2165 L
3868 2129 mt 3868 2201 L
4135 2806 mt 4207 2806 L
4171 2770 mt 4171 2842 L
4542 1966 mt 4614 1966 L
4578 1930 mt 4578 2002 L
3426  564 mt 3498  564 L
3462  528 mt 3462  600 L
3460 2869 mt 3532 2869 L
3496 2833 mt 3496 2905 L
4643  898 mt 4715  898 L
4679  862 mt 4679  934 L
2016 2130 mt 2088 2130 L
2052 2094 mt 2052 2166 L
3644 1336 mt 3716 1336 L
3680 1300 mt 3680 1372 L
2106 1404 mt 2178 1404 L
2142 1368 mt 2142 1440 L
3717 1680 mt 3789 1680 L
3753 1644 mt 3753 1716 L
3850 2125 mt 3922 2125 L
3886 2089 mt 3886 2161 L
2634 2541 mt 2706 2541 L
2670 2505 mt 2670 2577 L
3190 2383 mt 3262 2383 L
3226 2347 mt 3226 2419 L
1842 1561 mt 1914 1561 L
1878 1525 mt 1878 1597 L
1937 1787 mt 2009 1787 L
1973 1751 mt 1973 1823 L
5245 3693 mt 5317 3693 L
5281 3657 mt 5281 3729 L
3091 1232 mt 3163 1232 L
3127 1196 mt 3127 1268 L
3220 3235 mt 3292 3235 L
3256 3199 mt 3256 3271 L
3532 1865 mt 3604 1865 L
3568 1829 mt 3568 1901 L
3838 3198 mt 3910 3198 L
3874 3162 mt 3874 3234 L
2715 2145 mt 2787 2145 L
2751 2109 mt 2751 2181 L
2555 1207 mt 2627 1207 L
2591 1171 mt 2591 1243 L
3232 2089 mt 3304 2089 L
3268 2053 mt 3268 2125 L
4869 2140 mt 4941 2140 L
4905 2104 mt 4905 2176 L
3249 2051 mt 3321 2051 L
3285 2015 mt 3285 2087 L
3571 3540 mt 3643 3540 L
3607 3504 mt 3607 3576 L
4941 2894 mt 5013 2894 L
4977 2858 mt 4977 2930 L
4904 2194 mt 4976 2194 L
4940 2158 mt 4940 2230 L
3370 2293 mt 3442 2293 L
3406 2257 mt 3406 2329 L
3728 1698 mt 3800 1698 L
3764 1662 mt 3764 1734 L
3296 2334 mt 3368 2334 L
3332 2298 mt 3332 2370 L
1907 2311 mt 1979 2311 L
1943 2275 mt 1943 2347 L
3577 2700 mt 3649 2700 L
3613 2664 mt 3613 2736 L
2797 2792 mt 2869 2792 L
2833 2756 mt 2833 2828 L
2732 2067 mt 2804 2067 L
2768 2031 mt 2768 2103 L
3672 1948 mt 3744 1948 L
3708 1912 mt 3708 1984 L
3538 2001 mt 3610 2001 L
3574 1965 mt 3574 2037 L
5413 3184 mt 5485 3184 L
5449 3148 mt 5449 3220 L
4184 2754 mt 4256 2754 L
4220 2718 mt 4220 2790 L
 863 2562 mt  935 2562 L
 899 2526 mt  899 2598 L
3940 2288 mt 4012 2288 L
3976 2252 mt 3976 2324 L
3751 1845 mt 3823 1845 L
3787 1809 mt 3787 1881 L
1481 2135 mt 1553 2135 L
1517 2099 mt 1517 2171 L
3996 2745 mt 4068 2745 L
4032 2709 mt 4032 2781 L
3814 2401 mt 3886 2401 L
3850 2365 mt 3850 2437 L
3466 1604 mt 3538 1604 L
3502 1568 mt 3502 1640 L
4719 1984 mt 4791 1984 L
4755 1948 mt 4755 2020 L
3013 2410 mt 3085 2410 L
3049 2374 mt 3049 2446 L
2251 2170 mt 2323 2170 L
2287 2134 mt 2287 2206 L
5531 2329 mt 5603 2329 L
5567 2293 mt 5567 2365 L
3897 2589 mt 3969 2589 L
3933 2553 mt 3933 2625 L
3046 3425 mt 3118 3425 L
3082 3389 mt 3082 3461 L
3820 1634 mt 3892 1634 L
3856 1598 mt 3856 1670 L
4074 2209 mt 4146 2209 L
4110 2173 mt 4110 2245 L
2966 2370 mt 3038 2370 L
3002 2334 mt 3002 2406 L
2513 3028 mt 2585 3028 L
2549 2992 mt 2549 3064 L
1619 1923 mt 1691 1923 L
1655 1887 mt 1655 1959 L
3364 3731 mt 3436 3731 L
3400 3695 mt 3400 3767 L
4094 2820 mt 4166 2820 L
4130 2784 mt 4130 2856 L
3482 2270 mt 3554 2270 L
3518 2234 mt 3518 2306 L
3521  824 mt 3593  824 L
3557  788 mt 3557  860 L
1965 3191 mt 2037 3191 L
2001 3155 mt 2001 3227 L
2652 1662 mt 2724 1662 L
2688 1626 mt 2688 1698 L
3278 1318 mt 3350 1318 L
3314 1282 mt 3314 1354 L
1556 1181 mt 1628 1181 L
1592 1145 mt 1592 1217 L
3184 2695 mt 3256 2695 L
3220 2659 mt 3220 2731 L
3610 1593 mt 3682 1593 L
3646 1557 mt 3646 1629 L
3505 1653 mt 3577 1653 L
3541 1617 mt 3541 1689 L
4693 2320 mt 4765 2320 L
4729 2284 mt 4729 2356 L
3683 3386 mt 3755 3386 L
3719 3350 mt 3719 3422 L
4128 1917 mt 4200 1917 L
4164 1881 mt 4164 1953 L
2888 2844 mt 2960 2844 L
2924 2808 mt 2924 2880 L
2910 2497 mt 2982 2497 L
2946 2461 mt 2946 2533 L
1991 2247 mt 2063 2247 L
2027 2211 mt 2027 2283 L
3172 3331 mt 3244 3331 L
3208 3295 mt 3208 3367 L
3443 2682 mt 3515 2682 L
3479 2646 mt 3479 2718 L
3605 2083 mt 3677 2083 L
3641 2047 mt 3641 2119 L
3661 1371 mt 3733 1371 L
3697 1335 mt 3697 1407 L
3544 1538 mt 3616 1538 L
3580 1502 mt 3580 1574 L
3319 2261 mt 3391 2261 L
3355 2225 mt 3355 2297 L
4512 2849 mt 4584 2849 L
4548 2813 mt 4548 2885 L
4608 2458 mt 4680 2458 L
4644 2422 mt 4644 2494 L
3689 2889 mt 3761 2889 L
3725 2853 mt 3725 2925 L
4564 2704 mt 4636 2704 L
4600 2668 mt 4600 2740 L
5096 2628 mt 5168 2628 L
5132 2592 mt 5132 2664 L
3123 2914 mt 3195 2914 L
3159 2878 mt 3159 2950 L
4789 1816 mt 4861 1816 L
4825 1780 mt 4825 1852 L
4732 1892 mt 4804 1892 L
4768 1856 mt 4768 1928 L
2643 1809 mt 2715 1809 L
2679 1773 mt 2679 1845 L
5047 2471 mt 5119 2471 L
5083 2435 mt 5083 2507 L
3762 2396 mt 3834 2396 L
3798 2360 mt 3798 2432 L
3053 2467 mt 3125 2467 L
3089 2431 mt 3089 2503 L
4028 2214 mt 4100 2214 L
4064 2178 mt 4064 2250 L
3078 1087 mt 3150 1087 L
3114 1051 mt 3114 1123 L
4381 3206 mt 4453 3206 L
4417 3170 mt 4417 3242 L
2836  957 mt 2908  957 L
2872  921 mt 2872  993 L
2126 3297 mt 2198 3297 L
2162 3261 mt 2162 3333 L
3855 2650 mt 3927 2650 L
3891 2614 mt 3891 2686 L
3989 3610 mt 4061 3610 L
4025 3574 mt 4025 3646 L
3438 1502 mt 3510 1502 L
3474 1466 mt 3474 1538 L
2490 1462 mt 2562 1462 L
2526 1426 mt 2526 1498 L
4100 1434 mt 4172 1434 L
4136 1398 mt 4136 1470 L
4251 2741 mt 4323 2741 L
4287 2705 mt 4287 2777 L
5002 2972 mt 5074 2972 L
5038 2936 mt 5038 3008 L
3261 4023 mt 3333 4023 L
3297 3987 mt 3297 4059 L
4706 1794 mt 4778 1794 L
4742 1758 mt 4742 1830 L
4015 3797 mt 4087 3797 L
4051 3761 mt 4051 3833 L
2866 1942 mt 2938 1942 L
2902 1906 mt 2902 1978 L
2938 1764 mt 3010 1764 L
2974 1728 mt 2974 1800 L
3566 2691 mt 3638 2691 L
3602 2655 mt 3602 2727 L
3284 2104 mt 3356 2104 L
3320 2068 mt 3320 2140 L
3599 3151 mt 3671 3151 L
3635 3115 mt 3635 3187 L
1387 2480 mt 1459 2480 L
1423 2444 mt 1423 2516 L
3040 1972 mt 3112 1972 L
3076 1936 mt 3076 2008 L
2697 1878 mt 2769 1878 L
2733 1842 mt 2733 1914 L
3510 3017 mt 3582 3017 L
3546 2981 mt 3546 3053 L
4338 1930 mt 4410 1930 L
4374 1894 mt 4374 1966 L
2749 2223 mt 2821 2223 L
2785 2187 mt 2785 2259 L
2407 2440 mt 2479 2440 L
2443 2404 mt 2443 2476 L
3307 2388 mt 3379 2388 L
3343 2352 mt 3343 2424 L
4574 2764 mt 4646 2764 L
4610 2728 mt 4610 2800 L
2432 1526 mt 2504 1526 L
2468 1490 mt 2468 1562 L
3267  414 mt 3339  414 L
3303  378 mt 3303  450 L
4961 2218 mt 5033 2218 L
4997 2182 mt 4997 2254 L
3007 3446 mt 3079 3446 L
3043 3410 mt 3043 3482 L
3196 2619 mt 3268 2619 L
3232 2583 mt 3232 2655 L
2662 2316 mt 2734 2316 L
2698 2280 mt 2698 2352 L
4585 2453 mt 4657 2453 L
4621 2417 mt 4621 2489 L
2394 3515 mt 2466 3515 L
2430 3479 mt 2430 3551 L
2523 2545 mt 2595 2545 L
2559 2509 mt 2559 2581 L
3915 1978 mt 3987 1978 L
3951 1942 mt 3951 2014 L
3359 3457 mt 3431 3457 L
3395 3421 mt 3395 3493 L
2444 2057 mt 2516 2057 L
2480 2021 mt 2480 2093 L
2355 2374 mt 2427 2374 L
2391 2338 mt 2391 2410 L
4425 1911 mt 4497 1911 L
4461 1875 mt 4461 1947 L
3325 2251 mt 3397 2251 L
3361 2215 mt 3361 2287 L
3582 3273 mt 3654 3273 L
3618 3237 mt 3618 3309 L
2575 1550 mt 2647 1550 L
2611 1514 mt 2611 1586 L
2828 2160 mt 2900 2160 L
2864 2124 mt 2864 2196 L
3381 2750 mt 3453 2750 L
3417 2714 mt 3417 2786 L
2565 2062 mt 2637 2062 L
2601 2026 mt 2601 2098 L
4886 2840 mt 4958 2840 L
4922 2804 mt 4922 2876 L
3977 3131 mt 4049 3131 L
4013 3095 mt 4013 3167 L
2773 2646 mt 2845 2646 L
2809 2610 mt 2809 2682 L
2201 3171 mt 2273 3171 L
2237 3135 mt 2237 3207 L
3141 2532 mt 3213 2532 L
3177 2496 mt 3177 2568 L
3734 2432 mt 3806 2432 L
3770 2396 mt 3770 2468 L
3803 2199 mt 3875 2199 L
3839 2163 mt 3839 2235 L
5365 3000 mt 5437 3000 L
5401 2964 mt 5401 3036 L
2980 2506 mt 3052 2506 L
3016 2470 mt 3016 2542 L
2420 2414 mt 2492 2414 L
2456 2378 mt 2456 2450 L
3237 2514 mt 3309 2514 L
3273 2478 mt 3273 2550 L
3033 2989 mt 3105 2989 L
3069 2953 mt 3069 3025 L
3432 3265 mt 3504 3265 L
3468 3229 mt 3468 3301 L
4107 3257 mt 4179 3257 L
4143 3221 mt 4143 3293 L
2267 2298 mt 2339 2298 L
2303 2262 mt 2303 2334 L
3072 2189 mt 3144 2189 L
3108 2153 mt 3108 2225 L
3560 3011 mt 3632 3011 L
3596 2975 mt 3596 3047 L
4149 2012 mt 4221 2012 L
4185 1976 mt 4185 2048 L
3255 2284 mt 3327 2284 L
3291 2248 mt 3291 2320 L
3627 1823 mt 3699 1823 L
3663 1787 mt 3663 1859 L
3330 2035 mt 3402 2035 L
3366 1999 mt 3366 2071 L
2874 2825 mt 2946 2825 L
2910 2789 mt 2910 2861 L
3797 2073 mt 3869 2073 L
3833 2037 mt 3833 2109 L
4472 2879 mt 4544 2879 L
4508 2843 mt 4508 2915 L
3214 2673 mt 3286 2673 L
3250 2637 mt 3250 2709 L
3934 2709 mt 4006 2709 L
3970 2673 mt 3970 2745 L
2896 2233 mt 2968 2233 L
2932 2197 mt 2932 2269 L
4680 2580 mt 4752 2580 L
4716 2544 mt 4716 2616 L
2183 3553 mt 2255 3553 L
2219 3517 mt 2219 3589 L
3844 2768 mt 3916 2768 L
3880 2732 mt 3880 2804 L
4306 3022 mt 4378 3022 L
4342 2986 mt 4342 3058 L
5211 2423 mt 5283 2423 L
5247 2387 mt 5247 2459 L
3588 2602 mt 3660 2602 L
3624 2566 mt 3624 2638 L
2624 2347 mt 2696 2347 L
2660 2311 mt 2660 2383 L
3649 2510 mt 3721 2510 L
3685 2474 mt 3685 2546 L
3700 3322 mt 3772 3322 L
3736 3286 mt 3736 3358 L
3410 2436 mt 3482 2436 L
3446 2400 mt 3446 2472 L
1876 2427 mt 1948 2427 L
1912 2391 mt 1912 2463 L
4002 3213 mt 4074 3213 L
4038 3177 mt 4038 3249 L
3774 2637 mt 3846 2637 L
3810 2601 mt 3810 2673 L
3393 2501 mt 3465 2501 L
3429 2465 mt 3429 2537 L
4655 2909 mt 4727 2909 L
4691 2873 mt 4691 2945 L
6225 2099 mt 6297 2099 L
6261 2063 mt 6261 2135 L
3616 2811 mt 3688 2811 L
3652 2775 mt 3652 2847 L
2924 2874 mt 2996 2874 L
2960 2838 mt 2960 2910 L
3499 2462 mt 3571 2462 L
3535 2426 mt 3535 2498 L
4981 3877 mt 5053 3877 L
5017 3841 mt 5017 3913 L
3471 3144 mt 3543 3144 L
3507 3108 mt 3507 3180 L
3885 2718 mt 3957 2718 L
3921 2682 mt 3921 2754 L
4453 3164 mt 4525 3164 L
4489 3128 mt 4489 3200 L
3791 1419 mt 3863 1419 L
3827 1383 mt 3827 1455 L
2545 3503 mt 2617 3503 L
2581 3467 mt 2581 3539 L
3208 3051 mt 3280 3051 L
3244 3015 mt 3244 3087 L
4631 2664 mt 4703 2664 L
4667 2628 mt 4667 2700 L
4298 2677 mt 4370 2677 L
4334 2641 mt 4334 2713 L
4372 3349 mt 4444 3349 L
4408 3313 mt 4408 3385 L
4775 1643 mt 4847 1643 L
4811 1607 mt 4811 1679 L
3059 2302 mt 3131 2302 L
3095 2266 mt 3095 2338 L
4444 2150 mt 4516 2150 L
4480 2114 mt 4480 2186 L
4259 3752 mt 4331 3752 L
4295 3716 mt 4295 3788 L
4398 3220 mt 4470 3220 L
4434 3184 mt 4434 3256 L
5282 2445 mt 5354 2445 L
5318 2409 mt 5318 2481 L
3116 3625 mt 3188 3625 L
3152 3589 mt 3152 3661 L
3110 4305 mt 3182 4305 L
3146 4269 mt 3146 4341 L
3780 2978 mt 3852 2978 L
3816 2942 mt 3816 3014 L
2945 3774 mt 3017 3774 L
2981 3738 mt 2981 3810 L
3952 1448 mt 4024 1448 L
3988 1412 mt 3988 1484 L
4142 2859 mt 4214 2859 L
4178 2823 mt 4178 2895 L
4463 1298 mt 4535 1298 L
4499 1262 mt 4499 1334 L
2085 2405 mt 2157 2405 L
2121 2369 mt 2121 2441 L
3516 3087 mt 3588 3087 L
3552 3051 mt 3552 3123 L
3153 2778 mt 3225 2778 L
3189 2742 mt 3189 2814 L
3129 3711 mt 3201 3711 L
3165 3675 mt 3165 3747 L
3243 2523 mt 3315 2523 L
3279 2487 mt 3279 2559 L
5468 1990 mt 5540 1990 L
5504 1954 mt 5504 2026 L
2534 2946 mt 2606 2946 L
2570 2910 mt 2570 2982 L
3909 1748 mt 3981 1748 L
3945 1712 mt 3945 1784 L
3290 2584 mt 3362 2584 L
3326 2548 mt 3326 2620 L
4121 2615 mt 4193 2615 L
4157 2579 mt 4157 2651 L
2781 2884 mt 2853 2884 L
2817 2848 mt 2817 2920 L
2723 2115 mt 2795 2115 L
2759 2079 mt 2759 2151 L
4266 3581 mt 4338 3581 L
4302 3545 mt 4302 3617 L
4852 3567 mt 4924 3567 L
4888 3531 mt 4888 3603 L
3879 2576 mt 3951 2576 L
3915 2540 mt 3915 2612 L
3768 2046 mt 3840 2046 L
3804 2010 mt 3804 2082 L
5180 2352 mt 5252 2352 L
5216 2316 mt 5216 2388 L
4522 2418 mt 4594 2418 L
4558 2382 mt 4558 2454 L
4067 2338 mt 4139 2338 L
4103 2302 mt 4103 2374 L
4347 2773 mt 4419 2773 L
4383 2737 mt 4383 2809 L
2993 2228 mt 3065 2228 L
3029 2192 mt 3029 2264 L
2235 3125 mt 2307 3125 L
2271 3089 mt 2271 3161 L
4364 2935 mt 4436 2935 L
4400 2899 mt 4400 2971 L
1766 3908 mt 1838 3908 L
1802 3872 mt 1802 3944 L
2312 4205 mt 2384 4205 L
2348 4169 mt 2348 4241 L
4199 4072 mt 4271 4072 L
4235 4036 mt 4235 4108 L
4390 3658 mt 4462 3658 L
4426 3622 mt 4426 3694 L
5321 3358 mt 5393 3358 L
5357 3322 mt 5357 3394 L
4314 2029 mt 4386 2029 L
4350 1993 mt 4350 2065 L
2298 3527 mt 2370 3527 L
2334 3491 mt 2334 3563 L
1805 3081 mt 1877 3081 L
1841 3045 mt 1841 3117 L
4228 3306 mt 4300 3306 L
4264 3270 mt 4264 3342 L
2586 2864 mt 2658 2864 L
2622 2828 mt 2622 2900 L
3867 2024 mt 3939 2024 L
3903 1988 mt 3903 2060 L
2973 2567 mt 3045 2567 L
3009 2531 mt 3009 2603 L
4047 1277 mt 4119 1277 L
4083 1241 mt 4083 1313 L
4746 2830 mt 4818 2830 L
4782 2794 mt 4782 2866 L
2327 2668 mt 2399 2668 L
2363 2632 mt 2363 2704 L
3404 2554 mt 3476 2554 L
3440 2518 mt 3440 2590 L
6033 2007 mt 6105 2007 L
6069 1971 mt 6069 2043 L
3313 2904 mt 3385 2904 L
3349 2868 mt 3349 2940 L
2615 1624 mt 2687 1624 L
2651 1588 mt 2651 1660 L
3527 2242 mt 3599 2242 L
3563 2206 mt 3563 2278 L
3706 2571 mt 3778 2571 L
3742 2535 mt 3742 2607 L
2813 2175 mt 2885 2175 L
2849 2139 mt 2849 2211 L
2341 2361 mt 2413 2361 L
2377 2325 mt 2377 2397 L
3971 3468 mt 4043 3468 L
4007 3432 mt 4007 3504 L
3387 3075 mt 3459 3075 L
3423 3039 mt 3423 3111 L
4041 3045 mt 4113 3045 L
4077 3009 mt 4077 3081 L
3347 3675 mt 3419 3675 L
3383 3639 mt 3383 3711 L
4021 1723 mt 4093 1723 L
4057 1687 mt 4057 1759 L
3594 3069 mt 3666 3069 L
3630 3033 mt 3630 3105 L
2689 1936 mt 2761 1936 L
2725 1900 mt 2725 1972 L
3376 2606 mt 3448 2606 L
3412 2570 mt 3412 2642 L
3449 3848 mt 3521 3848 L
3485 3812 mt 3485 3884 L
3135 2731 mt 3207 2731 L
3171 2695 mt 3171 2767 L
4170 2713 mt 4242 2713 L
4206 2677 mt 4206 2749 L
3000 2536 mt 3072 2536 L
3036 2500 mt 3036 2572 L
4435 2967 mt 4507 2967 L
4471 2931 mt 4471 3003 L
4236 3376 mt 4308 3376 L
4272 3340 mt 4272 3412 L
3964 3595 mt 4036 3595 L
4000 3559 mt 4000 3631 L
3666 2736 mt 3738 2736 L
3702 2700 mt 3702 2772 L
3226 3112 mt 3298 3112 L
3262 3076 mt 3262 3148 L
2987 2185 mt 3059 2185 L
3023 2149 mt 3023 2221 L
2368 1614 mt 2440 1614 L
2404 1578 mt 2404 1650 L
2917 3367 mt 2989 3367 L
2953 3331 mt 2953 3403 L
3891 3822 mt 3963 3822 L
3927 3786 mt 3927 3858 L
2844 3479 mt 2916 3479 L
2880 3443 mt 2880 3515 L
4553 1707 mt 4625 1707 L
4589 1671 mt 4589 1743 L
2456 2484 mt 2528 2484 L
2492 2448 mt 2492 2520 L
4243 2597 mt 4315 2597 L
4279 2561 mt 4279 2633 L
4805 2094 mt 4877 2094 L
4841 2058 mt 4841 2130 L
3398 3005 mt 3470 3005 L
3434 2969 mt 3434 3041 L
4416 2365 mt 4488 2365 L
4452 2329 mt 4452 2401 L
4619 2256 mt 4691 2256 L
4655 2220 mt 4655 2292 L
4060 2078 mt 4132 2078 L
4096 2042 mt 4096 2114 L
4820 1715 mt 4892 1715 L
4856 1679 mt 4856 1751 L
4667 3314 mt 4739 3314 L
4703 3278 mt 4703 3350 L
2502 2356 mt 2574 2356 L
2538 2320 mt 2538 2392 L
5606 3178 mt 5678 3178 L
5642 3142 mt 5642 3214 L
3740 2956 mt 3812 2956 L
3776 2920 mt 3776 2992 L
2851 1802 mt 2923 1802 L
2887 1766 mt 2887 1838 L
2282 2275 mt 2354 2275 L
2318 2239 mt 2318 2311 L
3273 4131 mt 3345 4131 L
3309 4095 mt 3309 4167 L
3655 2994 mt 3727 2994 L
3691 2958 mt 3691 3030 L
3638 2641 mt 3710 2641 L
3674 2605 mt 3674 2677 L
3160 2815 mt 3232 2815 L
3196 2779 mt 3196 2851 L
3757 3057 mt 3829 3057 L
3793 3021 mt 3793 3093 L
4597 2920 mt 4669 2920 L
4633 2884 mt 4633 2956 L
1722 2155 mt 1794 2155 L
1758 2119 mt 1758 2191 L
2218 2307 mt 2290 2307 L
2254 2271 mt 2254 2343 L
3621 1885 mt 3693 1885 L
3657 1849 mt 3657 1921 L
3983 3281 mt 4055 3281 L
4019 3245 mt 4019 3317 L
5122 2722 mt 5194 2722 L
5158 2686 mt 5158 2758 L
3098 2787 mt 3170 2787 L
3134 2751 mt 3134 2823 L
4922 3099 mt 4994 3099 L
4958 3063 mt 4958 3135 L
4163 3137 mt 4235 3137 L
4199 3101 mt 4199 3173 L
3202 2801 mt 3274 2801 L
3238 2765 mt 3238 2837 L
2959 2899 mt 3031 2899 L
2995 2863 mt 2995 2935 L
4290 3405 mt 4362 3405 L
4326 3369 mt 4326 3441 L
3711 2759 mt 3783 2759 L
3747 2723 mt 3747 2795 L
3493 3942 mt 3565 3942 L
3529 3906 mt 3529 3978 L
3633 3289 mt 3705 3289 L
3669 3253 mt 3669 3325 L
3946 2930 mt 4018 2930 L
3982 2894 mt 3982 2966 L
3826 3340 mt 3898 3340 L
3862 3304 mt 3862 3376 L
2680 2558 mt 2752 2558 L
2716 2522 mt 2716 2594 L
4532 2796 mt 4604 2796 L
4568 2760 mt 4568 2832 L
3336 2593 mt 3408 2593 L
3372 2557 mt 3372 2629 L
3723 3093 mt 3795 3093 L
3759 3057 mt 3759 3129 L
3302 2962 mt 3374 2962 L
3338 2926 mt 3338 2998 L
4492 3491 mt 4564 3491 L
4528 3455 mt 4528 3527 L
3477 1354 mt 3549 1354 L
3513 1318 mt 3513 1390 L
2165 1006 mt 2237 1006 L
2201  970 mt 2201 1042 L
5150 2475 mt 5222 2475 L
5186 2439 mt 5186 2511 L
3555 1756 mt 3627 1756 L
3591 1720 mt 3591 1792 L
4282 2686 mt 4354 2686 L
4318 2650 mt 4318 2722 L
2821 2528 mt 2893 2528 L
2857 2492 mt 2857 2564 L
3454 1514 mt 3526 1514 L
3490 1478 mt 3490 1550 L
3353 2180 mt 3425 2180 L
3389 2144 mt 3389 2216 L
3549 2493 mt 3621 2493 L
3585 2457 mt 3585 2529 L
4156 2392 mt 4228 2392 L
4192 2356 mt 4192 2428 L
2952 3106 mt 3024 3106 L
2988 3070 mt 2988 3142 L
2479 3395 mt 2551 3395 L
2515 3359 mt 2515 3431 L
2931 2204 mt 3003 2204 L
2967 2168 mt 2967 2240 L
4501 2120 mt 4573 2120 L
4537 2084 mt 4537 2156 L
3873 1995 mt 3945 1995 L
3909 1959 mt 3909 2031 L
2671 3641 mt 2743 3641 L
2707 3605 mt 2707 3677 L
3027 2854 mt 3099 2854 L
3063 2818 mt 3063 2890 L
2859 2279 mt 2931 2279 L
2895 2243 mt 2895 2315 L
gs 899 414 5363 4203 rc
gr

0 sg
2775 5104 mt 
(\(F,DCTb,GMM\)) s
 482 3269 mt  -90 rotate
(\(F,DCTs,MLP\)) s
90 rotate
2905  223 mt 
(Corr = -0.10) s

end %%Color Dict

eplot
%%EndObject

epage
end

showpage

%%Trailer
%%EOF
