%!PS-Adobe-3.0 EPSF-3.0
%%Creator: MATLAB, The Mathworks, Inc. Version 7.7.0.471 (R2008b). Operating System: Microsoft Windows XP.
%%Title: Pictures\main_zoo_mvar_analysis_data_BMI_xcorr_bmi_p1_k2_7_9.eps
%%CreationDate: 10/26/2009  05:44:35
%%DocumentNeededFonts: Helvetica
%%DocumentProcessColors: Cyan Magenta Yellow Black
%%LanguageLevel: 2
%%Pages: 1
%%BoundingBox:    32   180   546   616
%%EndComments

%%BeginProlog
% MathWorks dictionary
/MathWorks 160 dict begin
% definition operators
/bdef {bind def} bind def
/ldef {load def} bind def
/xdef {exch def} bdef
/xstore {exch store} bdef
% operator abbreviations
/c  /clip ldef
/cc /concat ldef
/cp /closepath ldef
/gr /grestore ldef
/gs /gsave ldef
/mt /moveto ldef
/np /newpath ldef
/cm /currentmatrix ldef
/sm /setmatrix ldef
/rm /rmoveto ldef
/rl /rlineto ldef
/s {show newpath} bdef
/sc {setcmykcolor} bdef
/sr /setrgbcolor ldef
/sg /setgray ldef
/w /setlinewidth ldef
/j /setlinejoin ldef
/cap /setlinecap ldef
/rc {rectclip} bdef
/rf {rectfill} bdef
% page state control
/pgsv () def
/bpage {/pgsv save def} bdef
/epage {pgsv restore} bdef
/bplot /gsave ldef
/eplot {stroke grestore} bdef
% orientation switch
/portraitMode 0 def /landscapeMode 1 def /rotateMode 2 def
% coordinate system mappings
/dpi2point 0 def
% font control
/FontSize 0 def
/FMS {/FontSize xstore findfont [FontSize 0 0 FontSize neg 0 0]
  makefont setfont} bdef
/ISOLatin1Encoding where {pop /WindowsLatin1Encoding 256 array bdef
ISOLatin1Encoding WindowsLatin1Encoding copy pop
/.notdef/.notdef/quotesinglbase/florin/quotedblbase/ellipsis/dagger
/daggerdbl/circumflex/perthousand/Scaron/guilsinglleft/OE/.notdef/.notdef
/.notdef/.notdef/quoteleft/quoteright/quotedblleft/quotedblright/bullet
/endash/emdash/tilde/trademark/scaron/guilsinglright/oe/.notdef/.notdef
/Ydieresis WindowsLatin1Encoding 128 32 getinterval astore pop}
{/WindowsLatin1Encoding StandardEncoding bdef} ifelse
/reencode {exch dup where {pop load} {pop StandardEncoding} ifelse
  exch dup 3 1 roll findfont dup length dict begin
  { 1 index /FID ne {def}{pop pop} ifelse } forall
  /Encoding exch def currentdict end definefont pop} bdef
/isroman {findfont /CharStrings get /Agrave known} bdef
/FMSR {3 1 roll 1 index dup isroman {reencode} {pop pop} ifelse
  exch FMS} bdef
/csm {1 dpi2point div -1 dpi2point div scale neg translate
 dup landscapeMode eq {pop -90 rotate}
  {rotateMode eq {90 rotate} if} ifelse} bdef
% line types: solid, dotted, dashed, dotdash
/SO { [] 0 setdash } bdef
/DO { [.5 dpi2point mul 4 dpi2point mul] 0 setdash } bdef
/DA { [6 dpi2point mul] 0 setdash } bdef
/DD { [.5 dpi2point mul 4 dpi2point mul 6 dpi2point mul 4
  dpi2point mul] 0 setdash } bdef
% macros for lines and objects
/L {lineto stroke} bdef
/MP {3 1 roll moveto 1 sub {rlineto} repeat} bdef
/AP {{rlineto} repeat} bdef
/PDlw -1 def
/W {/PDlw currentlinewidth def setlinewidth} def
/PP {closepath eofill} bdef
/DP {closepath stroke} bdef
/MR {4 -2 roll moveto dup  0 exch rlineto exch 0 rlineto
  neg 0 exch rlineto closepath} bdef
/FR {MR stroke} bdef
/PR {MR fill} bdef
/L1i {{currentfile picstr readhexstring pop} image} bdef
/tMatrix matrix def
/MakeOval {newpath tMatrix currentmatrix pop translate scale
0 0 1 0 360 arc tMatrix setmatrix} bdef
/FO {MakeOval stroke} bdef
/PO {MakeOval fill} bdef
/PD {currentlinewidth 2 div 0 360 arc fill
   PDlw -1 eq not {PDlw w /PDlw -1 def} if} def
/FA {newpath tMatrix currentmatrix pop translate scale
  0 0 1 5 -2 roll arc tMatrix setmatrix stroke} bdef
/PA {newpath tMatrix currentmatrix pop	translate 0 0 moveto scale
  0 0 1 5 -2 roll arc closepath tMatrix setmatrix fill} bdef
/FAn {newpath tMatrix currentmatrix pop translate scale
  0 0 1 5 -2 roll arcn tMatrix setmatrix stroke} bdef
/PAn {newpath tMatrix currentmatrix pop translate 0 0 moveto scale
  0 0 1 5 -2 roll arcn closepath tMatrix setmatrix fill} bdef
/vradius 0 def /hradius 0 def /lry 0 def
/lrx 0 def /uly 0 def /ulx 0 def /rad 0 def
/MRR {/vradius xdef /hradius xdef /lry xdef /lrx xdef /uly xdef
  /ulx xdef newpath tMatrix currentmatrix pop ulx hradius add uly
  vradius add translate hradius vradius scale 0 0 1 180 270 arc 
  tMatrix setmatrix lrx hradius sub uly vradius add translate
  hradius vradius scale 0 0 1 270 360 arc tMatrix setmatrix
  lrx hradius sub lry vradius sub translate hradius vradius scale
  0 0 1 0 90 arc tMatrix setmatrix ulx hradius add lry vradius sub
  translate hradius vradius scale 0 0 1 90 180 arc tMatrix setmatrix
  closepath} bdef
/FRR {MRR stroke } bdef
/PRR {MRR fill } bdef
/MlrRR {/lry xdef /lrx xdef /uly xdef /ulx xdef /rad lry uly sub 2 div def
  newpath tMatrix currentmatrix pop ulx rad add uly rad add translate
  rad rad scale 0 0 1 90 270 arc tMatrix setmatrix lrx rad sub lry rad
  sub translate rad rad scale 0 0 1 270 90 arc tMatrix setmatrix
  closepath} bdef
/FlrRR {MlrRR stroke } bdef
/PlrRR {MlrRR fill } bdef
/MtbRR {/lry xdef /lrx xdef /uly xdef /ulx xdef /rad lrx ulx sub 2 div def
  newpath tMatrix currentmatrix pop ulx rad add uly rad add translate
  rad rad scale 0 0 1 180 360 arc tMatrix setmatrix lrx rad sub lry rad
  sub translate rad rad scale 0 0 1 0 180 arc tMatrix setmatrix
  closepath} bdef
/FtbRR {MtbRR stroke } bdef
/PtbRR {MtbRR fill } bdef
/stri 6 array def /dtri 6 array def
/smat 6 array def /dmat 6 array def
/tmat1 6 array def /tmat2 6 array def /dif 3 array def
/asub {/ind2 exch def /ind1 exch def dup dup
  ind1 get exch ind2 get sub exch } bdef
/tri_to_matrix {
  2 0 asub 3 1 asub 4 0 asub 5 1 asub
  dup 0 get exch 1 get 7 -1 roll astore } bdef
/compute_transform {
  dmat dtri tri_to_matrix tmat1 invertmatrix 
  smat stri tri_to_matrix tmat2 concatmatrix } bdef
/ds {stri astore pop} bdef
/dt {dtri astore pop} bdef
/db {2 copy /cols xdef /rows xdef mul dup 3 mul string
  currentfile 
  3 index 0 eq {/ASCIIHexDecode filter}
  {/ASCII85Decode filter 3 index 2 eq {/RunLengthDecode filter} if }
  ifelse exch readstring pop
  dup 0 3 index getinterval /rbmap xdef
  dup 2 index dup getinterval /gbmap xdef
  1 index dup 2 mul exch getinterval /bbmap xdef pop pop}bdef
/it {gs np dtri aload pop moveto lineto lineto cp c
  cols rows 8 compute_transform 
  rbmap gbmap bbmap true 3 colorimage gr}bdef
/il {newpath moveto lineto stroke}bdef
currentdict end def
%%EndProlog

%%BeginSetup
MathWorks begin

0 cap

end
%%EndSetup

%%Page: 1 1
%%BeginPageSetup
%%PageBoundingBox:    32   180   546   616
MathWorks begin
bpage
%%EndPageSetup

%%BeginObject: obj1
bplot

/dpi2point 12 def
portraitMode 0216 7344 csm

  174   -48  6173  5231 rc
85 dict begin %Colortable dictionary
/c0 { 0.000000 0.000000 0.000000 sr} bdef
/c1 { 1.000000 1.000000 1.000000 sr} bdef
/c2 { 0.900000 0.000000 0.000000 sr} bdef
/c3 { 0.000000 0.820000 0.000000 sr} bdef
/c4 { 0.000000 0.000000 0.800000 sr} bdef
/c5 { 0.910000 0.820000 0.320000 sr} bdef
/c6 { 1.000000 0.260000 0.820000 sr} bdef
/c7 { 0.000000 0.820000 0.820000 sr} bdef
c0
1 j
1 sg
   0    0 6919 5187 rf
6 w
0 4202 5362 0 0 -4202 899 4616 4 MP
PP
-5362 0 0 4202 5362 0 0 -4202 899 4616 5 MP stroke
4 w
DO
SO
6 w
0 sg
 899  414 mt 6261  414 L
 899 4616 mt 6261 4616 L
6261 4616 mt 6261  414 L
 899 4616 mt  899  414 L
 899 4616 mt 6261 4616 L
 899 4616 mt  899  414 L
1970 4616 mt 1970 4562 L
1970  415 mt 1970  468 L
%%IncludeResource: font Helvetica
/Helvetica /WindowsLatin1Encoding 240 FMSR

1804 4873 mt 
(0.2) s
3043 4616 mt 3043 4562 L
3043  415 mt 3043  468 L
2877 4873 mt 
(0.4) s
4115 4616 mt 4115 4562 L
4115  415 mt 4115  468 L
3949 4873 mt 
(0.6) s
5188 4616 mt 5188 4562 L
5188  415 mt 5188  468 L
5022 4873 mt 
(0.8) s
 899 4195 mt  952 4195 L
6261 4195 mt 6207 4195 L
 531 4284 mt 
(0.1) s
 899 3775 mt  952 3775 L
6261 3775 mt 6207 3775 L
 531 3864 mt 
(0.2) s
 899 3355 mt  952 3355 L
6261 3355 mt 6207 3355 L
 531 3444 mt 
(0.3) s
 899 2935 mt  952 2935 L
6261 2935 mt 6207 2935 L
 531 3024 mt 
(0.4) s
 899 2515 mt  952 2515 L
6261 2515 mt 6207 2515 L
 531 2604 mt 
(0.5) s
 899 2095 mt  952 2095 L
6261 2095 mt 6207 2095 L
 531 2184 mt 
(0.6) s
 899 1675 mt  952 1675 L
6261 1675 mt 6207 1675 L
 531 1764 mt 
(0.7) s
 899 1255 mt  952 1255 L
6261 1255 mt 6207 1255 L
 531 1344 mt 
(0.8) s
 899  834 mt  952  834 L
6261  834 mt 6207  834 L
 531  923 mt 
(0.9) s
 899  414 mt 6261  414 L
 899 4616 mt 6261 4616 L
6261 4616 mt 6261  414 L
 899 4616 mt  899  414 L
gs 899 414 5363 4203 rc
gr

/c8 { 0.000000 0.000000 1.000000 sr} bdef
c8
6109  523 mt 6181  523 L
6145  487 mt 6145  559 L
5455  606 mt 5527  606 L
5491  570 mt 5491  642 L
2453 1448 mt 2525 1448 L
2489 1412 mt 2489 1484 L
5828 3345 mt 5900 3345 L
5864 3309 mt 5864 3381 L
6100  556 mt 6172  556 L
6136  520 mt 6136  592 L
4620  675 mt 4692  675 L
4656  639 mt 4656  711 L
5985 4574 mt 6057 4574 L
6021 4538 mt 6021 4610 L
4188 1083 mt 4260 1083 L
4224 1047 mt 4224 1119 L
5967  558 mt 6039  558 L
6003  522 mt 6003  594 L
5166  781 mt 5238  781 L
5202  745 mt 5202  817 L
5332  765 mt 5404  765 L
5368  729 mt 5368  801 L
3379  740 mt 3451  740 L
3415  704 mt 3415  776 L
5945 1212 mt 6017 1212 L
5981 1176 mt 5981 1248 L
5256 1194 mt 5328 1194 L
5292 1158 mt 5292 1230 L
5959  719 mt 6031  719 L
5995  683 mt 5995  755 L
5705 1081 mt 5777 1081 L
5741 1045 mt 5741 1117 L
3082 4465 mt 3154 4465 L
3118 4429 mt 3118 4501 L
 893 1328 mt  965 1328 L
 929 1292 mt  929 1364 L
5598 1385 mt 5670 1385 L
5634 1349 mt 5634 1421 L
4649 1593 mt 4721 1593 L
4685 1557 mt 4685 1629 L
5587 3608 mt 5659 3608 L
5623 3572 mt 5623 3644 L
 899 4589 mt  971 4589 L
 935 4553 mt  935 4625 L
6068  880 mt 6140  880 L
6104  844 mt 6104  916 L
5281 1193 mt 5353 1193 L
5317 1157 mt 5317 1229 L
5719 2547 mt 5791 2547 L
5755 2511 mt 5755 2583 L
4903  736 mt 4975  736 L
4939  700 mt 4939  772 L
4745 2887 mt 4817 2887 L
4781 2851 mt 4781 2923 L
5590 4081 mt 5662 4081 L
5626 4045 mt 5626 4117 L
6045  487 mt 6117  487 L
6081  451 mt 6081  523 L
5561  635 mt 5633  635 L
5597  599 mt 5597  671 L
4269 1585 mt 4341 1585 L
4305 1549 mt 4305 1621 L
5643  519 mt 5715  519 L
5679  483 mt 5679  555 L
4035  792 mt 4107  792 L
4071  756 mt 4071  828 L
3533 3518 mt 3605 3518 L
3569 3482 mt 3569 3554 L
6088  638 mt 6160  638 L
6124  602 mt 6124  674 L
3537  699 mt 3609  699 L
3573  663 mt 3573  735 L
4533 1623 mt 4605 1623 L
4569 1587 mt 4569 1659 L
5926 1263 mt 5998 1263 L
5962 1227 mt 5962 1299 L
6177 1354 mt 6249 1354 L
6213 1318 mt 6213 1390 L
6010 1667 mt 6082 1667 L
6046 1631 mt 6046 1703 L
3252  881 mt 3324  881 L
3288  845 mt 3288  917 L
6187  452 mt 6259  452 L
6223  416 mt 6223  488 L
5348  776 mt 5420  776 L
5384  740 mt 5384  812 L
1398 4054 mt 1470 4054 L
1434 4018 mt 1434 4090 L
2492 4410 mt 2564 4410 L
2528 4374 mt 2528 4446 L
5193 4584 mt 5265 4584 L
5229 4548 mt 5229 4620 L
6042  746 mt 6114  746 L
6078  710 mt 6078  782 L
4766 4212 mt 4838 4212 L
4802 4176 mt 4802 4248 L
2408 2356 mt 2480 2356 L
2444 2320 mt 2444 2392 L
4377 2807 mt 4449 2807 L
4413 2771 mt 4413 2843 L
5439 4424 mt 5511 4424 L
5475 4388 mt 5475 4460 L
5290  459 mt 5362  459 L
5326  423 mt 5326  495 L
3436 1020 mt 3508 1020 L
3472  984 mt 3472 1056 L
4328 2100 mt 4400 2100 L
4364 2064 mt 4364 2136 L
4309  420 mt 4381  420 L
4345  384 mt 4345  456 L
2738 1363 mt 2810 1363 L
2774 1327 mt 2774 1399 L
5130  618 mt 5202  618 L
5166  582 mt 5166  654 L
4137  511 mt 4209  511 L
4173  475 mt 4173  547 L
5966  893 mt 6038  893 L
6002  857 mt 6002  929 L
5321 1115 mt 5393 1115 L
5357 1079 mt 5357 1151 L
1198 4588 mt 1270 4588 L
1234 4552 mt 1234 4624 L
5629  545 mt 5701  545 L
5665  509 mt 5665  581 L
1050 4380 mt 1122 4380 L
1086 4344 mt 1086 4416 L
6033 1255 mt 6105 1255 L
6069 1219 mt 6069 1291 L
3887  612 mt 3959  612 L
3923  576 mt 3923  648 L
4307 1038 mt 4379 1038 L
4343 1002 mt 4343 1074 L
5491  565 mt 5563  565 L
5527  529 mt 5527  601 L
5680 1553 mt 5752 1553 L
5716 1517 mt 5716 1589 L
6013  642 mt 6085  642 L
6049  606 mt 6049  678 L
6207  807 mt 6279  807 L
6243  771 mt 6243  843 L
5988 3861 mt 6060 3861 L
6024 3825 mt 6024 3897 L
2885 2490 mt 2957 2490 L
2921 2454 mt 2921 2526 L
4437 3983 mt 4509 3983 L
4473 3947 mt 4473 4019 L
6186  474 mt 6258  474 L
6222  438 mt 6222  510 L
5292  647 mt 5364  647 L
5328  611 mt 5328  683 L
 868 4348 mt  940 4348 L
 904 4312 mt  904 4384 L
1750 1820 mt 1822 1820 L
1786 1784 mt 1786 1856 L
6181 1075 mt 6253 1075 L
6217 1039 mt 6217 1111 L
5843  629 mt 5915  629 L
5879  593 mt 5879  665 L
5864 2837 mt 5936 2837 L
5900 2801 mt 5900 2873 L
6038  468 mt 6110  468 L
6074  432 mt 6074  504 L
1014 1382 mt 1086 1382 L
1050 1346 mt 1050 1418 L
3996 3072 mt 4068 3072 L
4032 3036 mt 4032 3108 L
6211  423 mt 6283  423 L
6247  387 mt 6247  459 L
5955  954 mt 6027  954 L
5991  918 mt 5991  990 L
 996 1705 mt 1068 1705 L
1032 1669 mt 1032 1741 L
6159  622 mt 6231  622 L
6195  586 mt 6195  658 L
4241  727 mt 4313  727 L
4277  691 mt 4277  763 L
1139 4464 mt 1211 4464 L
1175 4428 mt 1175 4500 L
6205 1701 mt 6277 1701 L
6241 1665 mt 6241 1737 L
6145 1019 mt 6217 1019 L
6181  983 mt 6181 1055 L
6022  564 mt 6094  564 L
6058  528 mt 6058  600 L
5703  787 mt 5775  787 L
5739  751 mt 5739  823 L
4623 2283 mt 4695 2283 L
4659 2247 mt 4659 2319 L
3626 3702 mt 3698 3702 L
3662 3666 mt 3662 3738 L
4503 4574 mt 4575 4574 L
4539 4538 mt 4539 4610 L
4805 3343 mt 4877 3343 L
4841 3307 mt 4841 3379 L
6106  457 mt 6178  457 L
6142  421 mt 6142  493 L
 887 1962 mt  959 1962 L
 923 1926 mt  923 1998 L
6142  468 mt 6214  468 L
6178  432 mt 6178  504 L
5787  767 mt 5859  767 L
5823  731 mt 5823  803 L
4779 1206 mt 4851 1206 L
4815 1170 mt 4815 1242 L
1189 2575 mt 1261 2575 L
1225 2539 mt 1225 2611 L
 867 4466 mt  939 4466 L
 903 4430 mt  903 4502 L
3520 1809 mt 3592 1809 L
3556 1773 mt 3556 1845 L
6002  482 mt 6074  482 L
6038  446 mt 6038  518 L
6003  926 mt 6075  926 L
6039  890 mt 6039  962 L
5706  772 mt 5778  772 L
5742  736 mt 5742  808 L
3858 1911 mt 3930 1911 L
3894 1875 mt 3894 1947 L
4906  760 mt 4978  760 L
4942  724 mt 4942  796 L
1998  885 mt 2070  885 L
2034  849 mt 2034  921 L
3807  430 mt 3879  430 L
3843  394 mt 3843  466 L
1281 1822 mt 1353 1822 L
1317 1786 mt 1317 1858 L
5979  864 mt 6051  864 L
6015  828 mt 6015  900 L
1033 3089 mt 1105 3089 L
1069 3053 mt 1069 3125 L
2399 2853 mt 2471 2853 L
2435 2817 mt 2435 2889 L
6127  545 mt 6199  545 L
6163  509 mt 6163  581 L
5382 3947 mt 5454 3947 L
5418 3911 mt 5418 3983 L
3345 1176 mt 3417 1176 L
3381 1140 mt 3381 1212 L
5230 1707 mt 5302 1707 L
5266 1671 mt 5266 1743 L
5484 1062 mt 5556 1062 L
5520 1026 mt 5520 1098 L
5416  452 mt 5488  452 L
5452  416 mt 5452  488 L
5740  660 mt 5812  660 L
5776  624 mt 5776  696 L
5855 1017 mt 5927 1017 L
5891  981 mt 5891 1053 L
1171  560 mt 1243  560 L
1207  524 mt 1207  596 L
4972 1143 mt 5044 1143 L
5008 1107 mt 5008 1179 L
5040 3151 mt 5112 3151 L
5076 3115 mt 5076 3187 L
3917 1077 mt 3989 1077 L
3953 1041 mt 3953 1113 L
5706  894 mt 5778  894 L
5742  858 mt 5742  930 L
 952  705 mt 1024  705 L
 988  669 mt  988  741 L
5665 1038 mt 5737 1038 L
5701 1002 mt 5701 1074 L
1965 2084 mt 2037 2084 L
2001 2048 mt 2001 2120 L
4279 3609 mt 4351 3609 L
4315 3573 mt 4315 3645 L
2238 1312 mt 2310 1312 L
2274 1276 mt 2274 1348 L
4824 1076 mt 4896 1076 L
4860 1040 mt 4860 1112 L
 948  600 mt 1020  600 L
 984  564 mt  984  636 L
1004 4610 mt 1076 4610 L
1040 4574 mt 1040 4646 L
5426  569 mt 5498  569 L
5462  533 mt 5462  605 L
3537  591 mt 3609  591 L
3573  555 mt 3573  627 L
5833 2452 mt 5905 2452 L
5869 2416 mt 5869 2488 L
5350 1915 mt 5422 1915 L
5386 1879 mt 5386 1951 L
6116  547 mt 6188  547 L
6152  511 mt 6152  583 L
5071 3880 mt 5143 3880 L
5107 3844 mt 5107 3916 L
5561  720 mt 5633  720 L
5597  684 mt 5597  756 L
6082 1602 mt 6154 1602 L
6118 1566 mt 6118 1638 L
4575 1104 mt 4647 1104 L
4611 1068 mt 4611 1140 L
3783  938 mt 3855  938 L
3819  902 mt 3819  974 L
6158  490 mt 6230  490 L
6194  454 mt 6194  526 L
6022  612 mt 6094  612 L
6058  576 mt 6058  648 L
6136  645 mt 6208  645 L
6172  609 mt 6172  681 L
5665  931 mt 5737  931 L
5701  895 mt 5701  967 L
1129  672 mt 1201  672 L
1165  636 mt 1165  708 L
5883  639 mt 5955  639 L
5919  603 mt 5919  675 L
4577 1428 mt 4649 1428 L
4613 1392 mt 4613 1464 L
5879 1776 mt 5951 1776 L
5915 1740 mt 5915 1812 L
6058 1999 mt 6130 1999 L
6094 1963 mt 6094 2035 L
1048 1763 mt 1120 1763 L
1084 1727 mt 1084 1799 L
2417 3297 mt 2489 3297 L
2453 3261 mt 2453 3333 L
4033 2445 mt 4105 2445 L
4069 2409 mt 4069 2481 L
3925 3001 mt 3997 3001 L
3961 2965 mt 3961 3037 L
2617 2108 mt 2689 2108 L
2653 2072 mt 2653 2144 L
 915 2145 mt  987 2145 L
 951 2109 mt  951 2181 L
5288  857 mt 5360  857 L
5324  821 mt 5324  893 L
3933  825 mt 4005  825 L
3969  789 mt 3969  861 L
6078  485 mt 6150  485 L
6114  449 mt 6114  521 L
5690  569 mt 5762  569 L
5726  533 mt 5726  605 L
1863 2147 mt 1935 2147 L
1899 2111 mt 1899 2183 L
4739 1507 mt 4811 1507 L
4775 1471 mt 4775 1543 L
6221  463 mt 6293  463 L
6257  427 mt 6257  499 L
5996  864 mt 6068  864 L
6032  828 mt 6032  900 L
6006  417 mt 6078  417 L
6042  381 mt 6042  453 L
6092  468 mt 6164  468 L
6128  432 mt 6128  504 L
5639  823 mt 5711  823 L
5675  787 mt 5675  859 L
5604  670 mt 5676  670 L
5640  634 mt 5640  706 L
3448 4464 mt 3520 4464 L
3484 4428 mt 3484 4500 L
5214  486 mt 5286  486 L
5250  450 mt 5250  522 L
5653  516 mt 5725  516 L
5689  480 mt 5689  552 L
3690  614 mt 3762  614 L
3726  578 mt 3726  650 L
5499 1692 mt 5571 1692 L
5535 1656 mt 5535 1728 L
6113  473 mt 6185  473 L
6149  437 mt 6149  509 L
3929 1287 mt 4001 1287 L
3965 1251 mt 3965 1323 L
1818 2560 mt 1890 2560 L
1854 2524 mt 1854 2596 L
5795  444 mt 5867  444 L
5831  408 mt 5831  480 L
2324 3377 mt 2396 3377 L
2360 3341 mt 2360 3413 L
5810 3732 mt 5882 3732 L
5846 3696 mt 5846 3768 L
2755  433 mt 2827  433 L
2791  397 mt 2791  469 L
4997 1325 mt 5069 1325 L
5033 1289 mt 5033 1361 L
3674 1042 mt 3746 1042 L
3710 1006 mt 3710 1078 L
6084  461 mt 6156  461 L
6120  425 mt 6120  497 L
2275  884 mt 2347  884 L
2311  848 mt 2311  920 L
1015 1579 mt 1087 1579 L
1051 1543 mt 1051 1615 L
2084 2342 mt 2156 2342 L
2120 2306 mt 2120 2378 L
6085  772 mt 6157  772 L
6121  736 mt 6121  808 L
5760  490 mt 5832  490 L
5796  454 mt 5796  526 L
6133  420 mt 6205  420 L
6169  384 mt 6169  456 L
6120  640 mt 6192  640 L
6156  604 mt 6156  676 L
4358 4436 mt 4430 4436 L
4394 4400 mt 4394 4472 L
6125  532 mt 6197  532 L
6161  496 mt 6161  568 L
4843 2123 mt 4915 2123 L
4879 2087 mt 4879 2159 L
3820  685 mt 3892  685 L
3856  649 mt 3856  721 L
6048  576 mt 6120  576 L
6084  540 mt 6084  612 L
6128  524 mt 6200  524 L
6164  488 mt 6164  560 L
5695 2739 mt 5767 2739 L
5731 2703 mt 5731 2775 L
3465 1737 mt 3537 1737 L
3501 1701 mt 3501 1773 L
6027  591 mt 6099  591 L
6063  555 mt 6063  627 L
4089 1413 mt 4161 1413 L
4125 1377 mt 4125 1449 L
3729 4374 mt 3801 4374 L
3765 4338 mt 3765 4410 L
1437 1908 mt 1509 1908 L
1473 1872 mt 1473 1944 L
6225  414 mt 6297  414 L
6261  378 mt 6261  450 L
1105 4108 mt 1177 4108 L
1141 4072 mt 1141 4144 L
6167  420 mt 6239  420 L
6203  384 mt 6203  456 L
4237 1887 mt 4309 1887 L
4273 1851 mt 4273 1923 L
6086  565 mt 6158  565 L
6122  529 mt 6122  601 L
4684 4574 mt 4756 4574 L
4720 4538 mt 4720 4610 L
6129  428 mt 6201  428 L
6165  392 mt 6165  464 L
1630  845 mt 1702  845 L
1666  809 mt 1666  881 L
6218 2805 mt 6290 2805 L
6254 2769 mt 6254 2841 L
2128 4355 mt 2200 4355 L
2164 4319 mt 2164 4391 L
 869  448 mt  941  448 L
 905  412 mt  905  484 L
3919 2491 mt 3991 2491 L
3955 2455 mt 3955 2527 L
3417  439 mt 3489  439 L
3453  403 mt 3453  475 L
5957 1156 mt 6029 1156 L
5993 1120 mt 5993 1192 L
4863 1231 mt 4935 1231 L
4899 1195 mt 4899 1267 L
 905 3690 mt  977 3690 L
 941 3654 mt  941 3726 L
2974 3998 mt 3046 3998 L
3010 3962 mt 3010 4034 L
5405 1108 mt 5477 1108 L
5441 1072 mt 5441 1144 L
5723  648 mt 5795  648 L
5759  612 mt 5759  684 L
5803 1133 mt 5875 1133 L
5839 1097 mt 5839 1169 L
5534  567 mt 5606  567 L
5570  531 mt 5570  603 L
4234 1196 mt 4306 1196 L
4270 1160 mt 4270 1232 L
 873 3858 mt  945 3858 L
 909 3822 mt  909 3894 L
3303 3740 mt 3375 3740 L
3339 3704 mt 3339 3776 L
3064 1661 mt 3136 1661 L
3100 1625 mt 3100 1697 L
5191  920 mt 5263  920 L
5227  884 mt 5227  956 L
6222  440 mt 6294  440 L
6258  404 mt 6258  476 L
4982 3972 mt 5054 3972 L
5018 3936 mt 5018 4008 L
1898 3737 mt 1970 3737 L
1934 3701 mt 1934 3773 L
3034 2672 mt 3106 2672 L
3070 2636 mt 3070 2708 L
5972 1651 mt 6044 1651 L
6008 1615 mt 6008 1687 L
5825  691 mt 5897  691 L
5861  655 mt 5861  727 L
2207 4599 mt 2279 4599 L
2243 4563 mt 2243 4635 L
3908  744 mt 3980  744 L
3944  708 mt 3944  780 L
5538 1531 mt 5610 1531 L
5574 1495 mt 5574 1567 L
6209 2629 mt 6281 2629 L
6245 2593 mt 6245 2665 L
 865 1989 mt  937 1989 L
 901 1953 mt  901 2025 L
5667 3116 mt 5739 3116 L
5703 3080 mt 5703 3152 L
4435  484 mt 4507  484 L
4471  448 mt 4471  520 L
5969 2102 mt 6041 2102 L
6005 2066 mt 6005 2138 L
6223 2081 mt 6295 2081 L
6259 2045 mt 6259 2117 L
1471 4347 mt 1543 4347 L
1507 4311 mt 1507 4383 L
 913 4449 mt  985 4449 L
 949 4413 mt  949 4485 L
5637  819 mt 5709  819 L
5673  783 mt 5673  855 L
5276 1269 mt 5348 1269 L
5312 1233 mt 5312 1305 L
3404 3663 mt 3476 3663 L
3440 3627 mt 3440 3699 L
4320  588 mt 4392  588 L
4356  552 mt 4356  624 L
 919 4086 mt  991 4086 L
 955 4050 mt  955 4122 L
6024 2336 mt 6096 2336 L
6060 2300 mt 6060 2372 L
2635  453 mt 2707  453 L
2671  417 mt 2671  489 L
5817  430 mt 5889  430 L
5853  394 mt 5853  466 L
5130 1006 mt 5202 1006 L
5166  970 mt 5166 1042 L
1660 1973 mt 1732 1973 L
1696 1937 mt 1696 2009 L
5887 1336 mt 5959 1336 L
5923 1300 mt 5923 1372 L
5135 1600 mt 5207 1600 L
5171 1564 mt 5171 1636 L
1455 3684 mt 1527 3684 L
1491 3648 mt 1491 3720 L
6128 1652 mt 6200 1652 L
6164 1616 mt 6164 1688 L
1585 1120 mt 1657 1120 L
1621 1084 mt 1621 1156 L
1595 1693 mt 1667 1693 L
1631 1657 mt 1631 1729 L
5972  433 mt 6044  433 L
6008  397 mt 6008  469 L
6180  480 mt 6252  480 L
6216  444 mt 6216  516 L
4268 2347 mt 4340 2347 L
4304 2311 mt 4304 2383 L
6084  711 mt 6156  711 L
6120  675 mt 6120  747 L
1136 1029 mt 1208 1029 L
1172  993 mt 1172 1065 L
1363 4152 mt 1435 4152 L
1399 4116 mt 1399 4188 L
6146  495 mt 6218  495 L
6182  459 mt 6182  531 L
4742  438 mt 4814  438 L
4778  402 mt 4778  474 L
 863 4534 mt  935 4534 L
 899 4498 mt  899 4570 L
3932 1120 mt 4004 1120 L
3968 1084 mt 3968 1156 L
5899 1118 mt 5971 1118 L
5935 1082 mt 5935 1154 L
4889  683 mt 4961  683 L
4925  647 mt 4925  719 L
6208  417 mt 6280  417 L
6244  381 mt 6244  453 L
3769 2915 mt 3841 2915 L
3805 2879 mt 3805 2951 L
4093  681 mt 4165  681 L
4129  645 mt 4129  717 L
2189 4606 mt 2261 4606 L
2225 4570 mt 2225 4642 L
5361 1022 mt 5433 1022 L
5397  986 mt 5397 1058 L
4653 4230 mt 4725 4230 L
4689 4194 mt 4689 4266 L
6140  415 mt 6212  415 L
6176  379 mt 6176  451 L
6169  686 mt 6241  686 L
6205  650 mt 6205  722 L
4182 1885 mt 4254 1885 L
4218 1849 mt 4218 1921 L
1401 3919 mt 1473 3919 L
1437 3883 mt 1437 3955 L
4458 4299 mt 4530 4299 L
4494 4263 mt 4494 4335 L
4991 3021 mt 5063 3021 L
5027 2985 mt 5027 3057 L
5982 1278 mt 6054 1278 L
6018 1242 mt 6018 1314 L
5331  695 mt 5403  695 L
5367  659 mt 5367  731 L
1508 4580 mt 1580 4580 L
1544 4544 mt 1544 4616 L
5552  866 mt 5624  866 L
5588  830 mt 5588  902 L
1683 4603 mt 1755 4603 L
1719 4567 mt 1719 4639 L
1048 3131 mt 1120 3131 L
1084 3095 mt 1084 3167 L
6224  460 mt 6296  460 L
6260  424 mt 6260  496 L
 939 1878 mt 1011 1878 L
 975 1842 mt  975 1914 L
5794 1428 mt 5866 1428 L
5830 1392 mt 5830 1464 L
5570  629 mt 5642  629 L
5606  593 mt 5606  665 L
1641 2749 mt 1713 2749 L
1677 2713 mt 1677 2785 L
3632  820 mt 3704  820 L
3668  784 mt 3668  856 L
1266 3397 mt 1338 3397 L
1302 3361 mt 1302 3433 L
4509 1432 mt 4581 1432 L
4545 1396 mt 4545 1468 L
2879 4616 mt 2951 4616 L
2915 4580 mt 2915 4652 L
5836  430 mt 5908  430 L
5872  394 mt 5872  466 L
4961 3264 mt 5033 3264 L
4997 3228 mt 4997 3300 L
1631 4182 mt 1703 4182 L
1667 4146 mt 1667 4218 L
2700 2737 mt 2772 2737 L
2736 2701 mt 2736 2773 L
5901  745 mt 5973  745 L
5937  709 mt 5937  781 L
 924 3745 mt  996 3745 L
 960 3709 mt  960 3781 L
1531  514 mt 1603  514 L
1567  478 mt 1567  550 L
3992 4229 mt 4064 4229 L
4028 4193 mt 4028 4265 L
2430 4614 mt 2502 4614 L
2466 4578 mt 2466 4650 L
3176 2935 mt 3248 2935 L
3212 2899 mt 3212 2971 L
5035 1547 mt 5107 1547 L
5071 1511 mt 5071 1583 L
4271 3977 mt 4343 3977 L
4307 3941 mt 4307 4013 L
4561 1076 mt 4633 1076 L
4597 1040 mt 4597 1112 L
6224  458 mt 6296  458 L
6260  422 mt 6260  494 L
5189  670 mt 5261  670 L
5225  634 mt 5225  706 L
3413 3632 mt 3485 3632 L
3449 3596 mt 3449 3668 L
5095  646 mt 5167  646 L
5131  610 mt 5131  682 L
5119 2921 mt 5191 2921 L
5155 2885 mt 5155 2957 L
6107  415 mt 6179  415 L
6143  379 mt 6143  451 L
4764  556 mt 4836  556 L
4800  520 mt 4800  592 L
 863 3911 mt  935 3911 L
 899 3875 mt  899 3947 L
2071 2960 mt 2143 2960 L
2107 2924 mt 2107 2996 L
1022  936 mt 1094  936 L
1058  900 mt 1058  972 L
5319 4308 mt 5391 4308 L
5355 4272 mt 5355 4344 L
5984  427 mt 6056  427 L
6020  391 mt 6020  463 L
1482 2409 mt 1554 2409 L
1518 2373 mt 1518 2445 L
4766 1421 mt 4838 1421 L
4802 1385 mt 4802 1457 L
2672 1130 mt 2744 1130 L
2708 1094 mt 2708 1166 L
4771  503 mt 4843  503 L
4807  467 mt 4807  539 L
2106 1400 mt 2178 1400 L
2142 1364 mt 2142 1436 L
4602 3081 mt 4674 3081 L
4638 3045 mt 4638 3117 L
6165 1993 mt 6237 1993 L
6201 1957 mt 6201 2029 L
2384 2046 mt 2456 2046 L
2420 2010 mt 2420 2082 L
5188 3301 mt 5260 3301 L
5224 3265 mt 5224 3337 L
6191  977 mt 6263  977 L
6227  941 mt 6227 1013 L
5890 2122 mt 5962 2122 L
5926 2086 mt 5926 2158 L
1595 4035 mt 1667 4035 L
1631 3999 mt 1631 4071 L
5772 3778 mt 5844 3778 L
5808 3742 mt 5808 3814 L
6105 3426 mt 6177 3426 L
6141 3390 mt 6141 3462 L
3286 1493 mt 3358 1493 L
3322 1457 mt 3322 1529 L
 950  526 mt 1022  526 L
 986  490 mt  986  562 L
2652  458 mt 2724  458 L
2688  422 mt 2688  494 L
5778  731 mt 5850  731 L
5814  695 mt 5814  767 L
 880 2720 mt  952 2720 L
 916 2684 mt  916 2756 L
5535  705 mt 5607  705 L
5571  669 mt 5571  741 L
1445 4316 mt 1517 4316 L
1481 4280 mt 1481 4352 L
2435  459 mt 2507  459 L
2471  423 mt 2471  495 L
4120 4615 mt 4192 4615 L
4156 4579 mt 4156 4651 L
6116  415 mt 6188  415 L
6152  379 mt 6152  451 L
6202  416 mt 6274  416 L
6238  380 mt 6238  452 L
1683  848 mt 1755  848 L
1719  812 mt 1719  884 L
1413 4564 mt 1485 4564 L
1449 4528 mt 1449 4600 L
3422 4061 mt 3494 4061 L
3458 4025 mt 3458 4097 L
3799 3733 mt 3871 3733 L
3835 3697 mt 3835 3769 L
 869 4568 mt  941 4568 L
 905 4532 mt  905 4604 L
5355 1092 mt 5427 1092 L
5391 1056 mt 5391 1128 L
6224 2645 mt 6296 2645 L
6260 2609 mt 6260 2681 L
3642  434 mt 3714  434 L
3678  398 mt 3678  470 L
3022 2241 mt 3094 2241 L
3058 2205 mt 3058 2277 L
2550 4615 mt 2622 4615 L
2586 4579 mt 2586 4651 L
1793 4497 mt 1865 4497 L
1829 4461 mt 1829 4533 L
 928 2252 mt 1000 2252 L
 964 2216 mt  964 2288 L
 896  615 mt  968  615 L
 932  579 mt  932  651 L
5689 1722 mt 5761 1722 L
5725 1686 mt 5725 1758 L
1295 3872 mt 1367 3872 L
1331 3836 mt 1331 3908 L
3682 1348 mt 3754 1348 L
3718 1312 mt 3718 1384 L
4467 3058 mt 4539 3058 L
4503 3022 mt 4503 3094 L
2871  671 mt 2943  671 L
2907  635 mt 2907  707 L
1489 4084 mt 1561 4084 L
1525 4048 mt 1525 4120 L
5681  579 mt 5753  579 L
5717  543 mt 5717  615 L
3666 4389 mt 3738 4389 L
3702 4353 mt 3702 4425 L
2501 4076 mt 2573 4076 L
2537 4040 mt 2537 4112 L
3994 4557 mt 4066 4557 L
4030 4521 mt 4030 4593 L
1725 4214 mt 1797 4214 L
1761 4178 mt 1761 4250 L
 946 4146 mt 1018 4146 L
 982 4110 mt  982 4182 L
5738 2571 mt 5810 2571 L
5774 2535 mt 5774 2607 L
5758 1512 mt 5830 1512 L
5794 1476 mt 5794 1548 L
5813  601 mt 5885  601 L
5849  565 mt 5849  637 L
5212 3195 mt 5284 3195 L
5248 3159 mt 5248 3231 L
1936 1359 mt 2008 1359 L
1972 1323 mt 1972 1395 L
 964 2592 mt 1036 2592 L
1000 2556 mt 1000 2628 L
3620 3395 mt 3692 3395 L
3656 3359 mt 3656 3431 L
2325 3340 mt 2397 3340 L
2361 3304 mt 2361 3376 L
6186  818 mt 6258  818 L
6222  782 mt 6222  854 L
1562 1342 mt 1634 1342 L
1598 1306 mt 1598 1378 L
3501 1701 mt 3573 1701 L
3537 1665 mt 3537 1737 L
4261 2186 mt 4333 2186 L
4297 2150 mt 4297 2222 L
5905  760 mt 5977  760 L
5941  724 mt 5941  796 L
5976  617 mt 6048  617 L
6012  581 mt 6012  653 L
6188  555 mt 6260  555 L
6224  519 mt 6224  591 L
2010 4309 mt 2082 4309 L
2046 4273 mt 2046 4345 L
6146  423 mt 6218  423 L
6182  387 mt 6182  459 L
3074 2429 mt 3146 2429 L
3110 2393 mt 3110 2465 L
6066 1076 mt 6138 1076 L
6102 1040 mt 6102 1112 L
gs 899 414 5363 4203 rc
gr

0 sg
2752 5104 mt 
(\(S,LFCC,GMM\)) s
 422 3277 mt  -90 rotate
(\(S,SSC,GMM\)) s
90 rotate
2975  223 mt 
(Corr = 0.51) s

end %%Color Dict

eplot
%%EndObject

epage
end

showpage

%%Trailer
%%EOF
