%!PS-Adobe-3.0 EPSF-3.0
%%Creator: MATLAB, The Mathworks, Inc. Version 7.7.0.471 (R2008b). Operating System: Microsoft Windows XP.
%%Title: Pictures\main_zoo_mvar_analysis_data_BMI_xcorr_bmig_p1_k1_2_8.eps
%%CreationDate: 10/26/2009  05:44:53
%%DocumentNeededFonts: Helvetica
%%DocumentProcessColors: Cyan Magenta Yellow Black
%%LanguageLevel: 2
%%Pages: 1
%%BoundingBox:    37   180   549   616
%%EndComments

%%BeginProlog
% MathWorks dictionary
/MathWorks 160 dict begin
% definition operators
/bdef {bind def} bind def
/ldef {load def} bind def
/xdef {exch def} bdef
/xstore {exch store} bdef
% operator abbreviations
/c  /clip ldef
/cc /concat ldef
/cp /closepath ldef
/gr /grestore ldef
/gs /gsave ldef
/mt /moveto ldef
/np /newpath ldef
/cm /currentmatrix ldef
/sm /setmatrix ldef
/rm /rmoveto ldef
/rl /rlineto ldef
/s {show newpath} bdef
/sc {setcmykcolor} bdef
/sr /setrgbcolor ldef
/sg /setgray ldef
/w /setlinewidth ldef
/j /setlinejoin ldef
/cap /setlinecap ldef
/rc {rectclip} bdef
/rf {rectfill} bdef
% page state control
/pgsv () def
/bpage {/pgsv save def} bdef
/epage {pgsv restore} bdef
/bplot /gsave ldef
/eplot {stroke grestore} bdef
% orientation switch
/portraitMode 0 def /landscapeMode 1 def /rotateMode 2 def
% coordinate system mappings
/dpi2point 0 def
% font control
/FontSize 0 def
/FMS {/FontSize xstore findfont [FontSize 0 0 FontSize neg 0 0]
  makefont setfont} bdef
/ISOLatin1Encoding where {pop /WindowsLatin1Encoding 256 array bdef
ISOLatin1Encoding WindowsLatin1Encoding copy pop
/.notdef/.notdef/quotesinglbase/florin/quotedblbase/ellipsis/dagger
/daggerdbl/circumflex/perthousand/Scaron/guilsinglleft/OE/.notdef/.notdef
/.notdef/.notdef/quoteleft/quoteright/quotedblleft/quotedblright/bullet
/endash/emdash/tilde/trademark/scaron/guilsinglright/oe/.notdef/.notdef
/Ydieresis WindowsLatin1Encoding 128 32 getinterval astore pop}
{/WindowsLatin1Encoding StandardEncoding bdef} ifelse
/reencode {exch dup where {pop load} {pop StandardEncoding} ifelse
  exch dup 3 1 roll findfont dup length dict begin
  { 1 index /FID ne {def}{pop pop} ifelse } forall
  /Encoding exch def currentdict end definefont pop} bdef
/isroman {findfont /CharStrings get /Agrave known} bdef
/FMSR {3 1 roll 1 index dup isroman {reencode} {pop pop} ifelse
  exch FMS} bdef
/csm {1 dpi2point div -1 dpi2point div scale neg translate
 dup landscapeMode eq {pop -90 rotate}
  {rotateMode eq {90 rotate} if} ifelse} bdef
% line types: solid, dotted, dashed, dotdash
/SO { [] 0 setdash } bdef
/DO { [.5 dpi2point mul 4 dpi2point mul] 0 setdash } bdef
/DA { [6 dpi2point mul] 0 setdash } bdef
/DD { [.5 dpi2point mul 4 dpi2point mul 6 dpi2point mul 4
  dpi2point mul] 0 setdash } bdef
% macros for lines and objects
/L {lineto stroke} bdef
/MP {3 1 roll moveto 1 sub {rlineto} repeat} bdef
/AP {{rlineto} repeat} bdef
/PDlw -1 def
/W {/PDlw currentlinewidth def setlinewidth} def
/PP {closepath eofill} bdef
/DP {closepath stroke} bdef
/MR {4 -2 roll moveto dup  0 exch rlineto exch 0 rlineto
  neg 0 exch rlineto closepath} bdef
/FR {MR stroke} bdef
/PR {MR fill} bdef
/L1i {{currentfile picstr readhexstring pop} image} bdef
/tMatrix matrix def
/MakeOval {newpath tMatrix currentmatrix pop translate scale
0 0 1 0 360 arc tMatrix setmatrix} bdef
/FO {MakeOval stroke} bdef
/PO {MakeOval fill} bdef
/PD {currentlinewidth 2 div 0 360 arc fill
   PDlw -1 eq not {PDlw w /PDlw -1 def} if} def
/FA {newpath tMatrix currentmatrix pop translate scale
  0 0 1 5 -2 roll arc tMatrix setmatrix stroke} bdef
/PA {newpath tMatrix currentmatrix pop	translate 0 0 moveto scale
  0 0 1 5 -2 roll arc closepath tMatrix setmatrix fill} bdef
/FAn {newpath tMatrix currentmatrix pop translate scale
  0 0 1 5 -2 roll arcn tMatrix setmatrix stroke} bdef
/PAn {newpath tMatrix currentmatrix pop translate 0 0 moveto scale
  0 0 1 5 -2 roll arcn closepath tMatrix setmatrix fill} bdef
/vradius 0 def /hradius 0 def /lry 0 def
/lrx 0 def /uly 0 def /ulx 0 def /rad 0 def
/MRR {/vradius xdef /hradius xdef /lry xdef /lrx xdef /uly xdef
  /ulx xdef newpath tMatrix currentmatrix pop ulx hradius add uly
  vradius add translate hradius vradius scale 0 0 1 180 270 arc 
  tMatrix setmatrix lrx hradius sub uly vradius add translate
  hradius vradius scale 0 0 1 270 360 arc tMatrix setmatrix
  lrx hradius sub lry vradius sub translate hradius vradius scale
  0 0 1 0 90 arc tMatrix setmatrix ulx hradius add lry vradius sub
  translate hradius vradius scale 0 0 1 90 180 arc tMatrix setmatrix
  closepath} bdef
/FRR {MRR stroke } bdef
/PRR {MRR fill } bdef
/MlrRR {/lry xdef /lrx xdef /uly xdef /ulx xdef /rad lry uly sub 2 div def
  newpath tMatrix currentmatrix pop ulx rad add uly rad add translate
  rad rad scale 0 0 1 90 270 arc tMatrix setmatrix lrx rad sub lry rad
  sub translate rad rad scale 0 0 1 270 90 arc tMatrix setmatrix
  closepath} bdef
/FlrRR {MlrRR stroke } bdef
/PlrRR {MlrRR fill } bdef
/MtbRR {/lry xdef /lrx xdef /uly xdef /ulx xdef /rad lrx ulx sub 2 div def
  newpath tMatrix currentmatrix pop ulx rad add uly rad add translate
  rad rad scale 0 0 1 180 360 arc tMatrix setmatrix lrx rad sub lry rad
  sub translate rad rad scale 0 0 1 0 180 arc tMatrix setmatrix
  closepath} bdef
/FtbRR {MtbRR stroke } bdef
/PtbRR {MtbRR fill } bdef
/stri 6 array def /dtri 6 array def
/smat 6 array def /dmat 6 array def
/tmat1 6 array def /tmat2 6 array def /dif 3 array def
/asub {/ind2 exch def /ind1 exch def dup dup
  ind1 get exch ind2 get sub exch } bdef
/tri_to_matrix {
  2 0 asub 3 1 asub 4 0 asub 5 1 asub
  dup 0 get exch 1 get 7 -1 roll astore } bdef
/compute_transform {
  dmat dtri tri_to_matrix tmat1 invertmatrix 
  smat stri tri_to_matrix tmat2 concatmatrix } bdef
/ds {stri astore pop} bdef
/dt {dtri astore pop} bdef
/db {2 copy /cols xdef /rows xdef mul dup 3 mul string
  currentfile 
  3 index 0 eq {/ASCIIHexDecode filter}
  {/ASCII85Decode filter 3 index 2 eq {/RunLengthDecode filter} if }
  ifelse exch readstring pop
  dup 0 3 index getinterval /rbmap xdef
  dup 2 index dup getinterval /gbmap xdef
  1 index dup 2 mul exch getinterval /bbmap xdef pop pop}bdef
/it {gs np dtri aload pop moveto lineto lineto cp c
  cols rows 8 compute_transform 
  rbmap gbmap bbmap true 3 colorimage gr}bdef
/il {newpath moveto lineto stroke}bdef
currentdict end def
%%EndProlog

%%BeginSetup
MathWorks begin

0 cap

end
%%EndSetup

%%Page: 1 1
%%BeginPageSetup
%%PageBoundingBox:    37   180   549   616
MathWorks begin
bpage
%%EndPageSetup

%%BeginObject: obj1
bplot

/dpi2point 12 def
portraitMode 0216 7344 csm

  234   -48  6149  5231 rc
85 dict begin %Colortable dictionary
/c0 { 0.000000 0.000000 0.000000 sr} bdef
/c1 { 1.000000 1.000000 1.000000 sr} bdef
/c2 { 0.900000 0.000000 0.000000 sr} bdef
/c3 { 0.000000 0.820000 0.000000 sr} bdef
/c4 { 0.000000 0.000000 0.800000 sr} bdef
/c5 { 0.910000 0.820000 0.320000 sr} bdef
/c6 { 1.000000 0.260000 0.820000 sr} bdef
/c7 { 0.000000 0.820000 0.820000 sr} bdef
c0
1 j
1 sg
   0    0 6919 5187 rf
6 w
0 4202 5362 0 0 -4202 899 4616 4 MP
PP
-5362 0 0 4202 5362 0 0 -4202 899 4616 5 MP stroke
4 w
DO
SO
6 w
0 sg
 899  414 mt 6261  414 L
 899 4616 mt 6261 4616 L
6261 4616 mt 6261  414 L
 899 4616 mt  899  414 L
 899 4616 mt 6261 4616 L
 899 4616 mt  899  414 L
 919 4616 mt  919 4562 L
 919  414 mt  919  467 L
%%IncludeResource: font Helvetica
/Helvetica /WindowsLatin1Encoding 240 FMSR

 713 4873 mt 
(-3) s
1806 4616 mt 1806 4562 L
1806  414 mt 1806  467 L
1600 4873 mt 
(-2) s
2693 4616 mt 2693 4562 L
2693  414 mt 2693  467 L
2487 4873 mt 
(-1) s
3580 4616 mt 3580 4562 L
3580  414 mt 3580  467 L
3514 4873 mt 
(0) s
4466 4616 mt 4466 4562 L
4466  414 mt 4466  467 L
4400 4873 mt 
(1) s
5353 4616 mt 5353 4562 L
5353  414 mt 5353  467 L
5287 4873 mt 
(2) s
6240 4616 mt 6240 4562 L
6240  414 mt 6240  467 L
6174 4873 mt 
(3) s
 899 4599 mt  952 4599 L
6261 4599 mt 6207 4599 L
 591 4688 mt 
(-3) s
 899 3904 mt  952 3904 L
6261 3904 mt 6207 3904 L
 591 3993 mt 
(-2) s
 899 3209 mt  952 3209 L
6261 3209 mt 6207 3209 L
 591 3298 mt 
(-1) s
 899 2514 mt  952 2514 L
6261 2514 mt 6207 2514 L
 731 2603 mt 
(0) s
 899 1820 mt  952 1820 L
6261 1820 mt 6207 1820 L
 731 1909 mt 
(1) s
 899 1125 mt  952 1125 L
6261 1125 mt 6207 1125 L
 731 1214 mt 
(2) s
 899  430 mt  952  430 L
6261  430 mt 6207  430 L
 731  519 mt 
(3) s
 899  414 mt 6261  414 L
 899 4616 mt 6261 4616 L
6261 4616 mt 6261  414 L
 899 4616 mt  899  414 L
gs 899 414 5363 4203 rc
gr

/c8 { 0.000000 0.000000 1.000000 sr} bdef
c8
3785  414 mt 3857  414 L
3821  378 mt 3821  450 L
2063 2602 mt 2135 2602 L
2099 2566 mt 2099 2638 L
4080 3034 mt 4152 3034 L
4116 2998 mt 4116 3070 L
4191 2293 mt 4263 2293 L
4227 2257 mt 4227 2329 L
2381 2410 mt 2453 2410 L
2417 2374 mt 2417 2446 L
2903 2840 mt 2975 2840 L
2939 2804 mt 2939 2876 L
3342 1604 mt 3414 1604 L
3378 1568 mt 3378 1640 L
1674 2655 mt 1746 2655 L
1710 2619 mt 1710 2691 L
3415 4205 mt 3487 4205 L
3451 4169 mt 3451 4241 L
5700 2040 mt 5772 2040 L
5736 2004 mt 5736 2076 L
1259 2536 mt 1331 2536 L
1295 2500 mt 1295 2572 L
2757 4616 mt 2829 4616 L
2793 4580 mt 2793 4652 L
2595 3503 mt 2667 3503 L
2631 3467 mt 2631 3539 L
2706 3322 mt 2778 3322 L
2742 3286 mt 2742 3358 L
4034 2401 mt 4106 2401 L
4070 2365 mt 4070 2437 L
3694 1831 mt 3766 1831 L
3730 1795 mt 3730 1867 L
2765 1583 mt 2837 1583 L
2801 1547 mt 2801 1619 L
3488 2423 mt 3560 2423 L
3524 2387 mt 3524 2459 L
4054 2722 mt 4126 2722 L
4090 2686 mt 4090 2758 L
4274 2001 mt 4346 2001 L
4310 1965 mt 4310 2037 L
2605 2361 mt 2677 2361 L
2641 2325 mt 2641 2397 L
3421 2646 mt 3493 2646 L
3457 2610 mt 3457 2682 L
3745 2436 mt 3817 2436 L
3781 2400 mt 3781 2472 L
2789 2484 mt 2861 2484 L
2825 2448 mt 2825 2520 L
4836 1885 mt 4908 1885 L
4872 1849 mt 4872 1921 L
4482 2806 mt 4554 2806 L
4518 2770 mt 4518 2842 L
3085 2199 mt 3157 2199 L
3121 2163 mt 3121 2235 L
4087 2825 mt 4159 2825 L
4123 2789 mt 4123 2861 L
4114 2972 mt 4186 2972 L
4150 2936 mt 4150 3008 L
5071 2589 mt 5143 2589 L
5107 2553 mt 5107 2625 L
3104 1572 mt 3176 1572 L
3140 1536 mt 3140 1608 L
3958 2467 mt 4030 2467 L
3994 2431 mt 3994 2503 L
4009 2558 mt 4081 2558 L
4045 2522 mt 4045 2594 L
5024 1787 mt 5096 1787 L
5060 1751 mt 5060 1823 L
4330 3297 mt 4402 3297 L
4366 3261 mt 4366 3333 L
3927 2576 mt 3999 2576 L
3963 2540 mt 3963 2612 L
3861 3118 mt 3933 3118 L
3897 3082 mt 3897 3154 L
3147 2844 mt 3219 2844 L
3183 2808 mt 3183 2880 L
3166 2445 mt 3238 2445 L
3202 2409 mt 3202 2481 L
2805 1255 mt 2877 1255 L
2841 1219 mt 2841 1291 L
4322 2619 mt 4394 2619 L
4358 2583 mt 4358 2655 L
3178 2506 mt 3250 2506 L
3214 2470 mt 3214 2542 L
2468 1740 mt 2540 1740 L
2504 1704 mt 2504 1776 L
4177 1809 mt 4249 1809 L
4213 1773 mt 4213 1845 L
5828 1816 mt 5900 1816 L
5864 1780 mt 5864 1852 L
3921 3039 mt 3993 3039 L
3957 3003 mt 3957 3075 L
3066  898 mt 3138  898 L
3102  862 mt 3102  934 L
2146 2811 mt 2218 2811 L
2182 2775 mt 2182 2847 L
4355 3658 mt 4427 3658 L
4391 3622 mt 4391 3694 L
2040 2352 mt 2112 2352 L
2076 2316 mt 2076 2388 L
3903 2279 mt 3975 2279 L
3939 2243 mt 3939 2315 L
4221 2270 mt 4293 2270 L
4257 2234 mt 4257 2306 L
2740 2864 mt 2812 2864 L
2776 2828 mt 2776 2900 L
2881 2514 mt 2953 2514 L
2917 2478 mt 2917 2550 L
3677 2835 mt 3749 2835 L
3713 2799 mt 3713 2871 L
4213 1954 mt 4285 1954 L
4249 1918 mt 4249 1990 L
3809 2261 mt 3881 2261 L
3845 2225 mt 3845 2297 L
4206 3675 mt 4278 3675 L
4242 3639 mt 4242 3711 L
4760 2664 mt 4832 2664 L
4796 2628 mt 4796 2700 L
3020 2523 mt 3092 2523 L
3056 2487 mt 3056 2559 L
4407 2204 mt 4479 2204 L
4443 2168 mt 4443 2240 L
3832 2709 mt 3904 2709 L
3868 2673 mt 3868 2745 L
4135  824 mt 4207  824 L
4171  788 mt 4171  860 L
4542 1917 mt 4614 1917 L
4578 1881 mt 4578 1953 L
3426 4023 mt 3498 4023 L
3462 3987 mt 3462 4059 L
3460 2078 mt 3532 2078 L
3496 2042 mt 3496 2114 L
4643 3527 mt 4715 3527 L
4679 3491 mt 4679 3563 L
2016 3641 mt 2088 3641 L
2052 3605 mt 2052 3677 L
3644 3515 mt 3716 3515 L
3680 3479 mt 3680 3551 L
2106 2624 mt 2178 2624 L
2142 2588 mt 2142 2660 L
3717 2018 mt 3789 2018 L
3753 1982 mt 3753 2054 L
3850 3171 mt 3922 3171 L
3886 3135 mt 3886 3207 L
2634 2414 mt 2706 2414 L
2670 2378 mt 2670 2450 L
3190 3731 mt 3262 3731 L
3226 3695 mt 3226 3767 L
1842 3093 mt 1914 3093 L
1878 3057 mt 1878 3129 L
1937 2396 mt 2009 2396 L
1973 2360 mt 1973 2432 L
5245 2792 mt 5317 2792 L
5281 2756 mt 5281 2828 L
3091 3191 mt 3163 3191 L
3127 3155 mt 3127 3227 L
3220 2062 mt 3292 2062 L
3256 2026 mt 3256 2098 L
3532 3144 mt 3604 3144 L
3568 3108 mt 3568 3180 L
3838 2325 mt 3910 2325 L
3874 2289 mt 3874 2361 L
2715 1794 mt 2787 1794 L
2751 1758 mt 2751 1830 L
2555 1419 mt 2627 1419 L
2591 1383 mt 2591 1455 L
3232 2379 mt 3304 2379 L
3268 2343 mt 3268 2415 L
4869 1434 mt 4941 1434 L
4905 1398 mt 4905 1470 L
3249 2302 mt 3321 2302 L
3285 2266 mt 3285 2338 L
3571 3491 mt 3643 3491 L
3607 3455 mt 3607 3527 L
4941 3075 mt 5013 3075 L
4977 3039 mt 4977 3111 L
4904 3457 mt 4976 3457 L
4940 3421 mt 4940 3493 L
3370 1942 mt 3442 1942 L
3406 1906 mt 3406 1978 L
3728 2962 mt 3800 2962 L
3764 2926 mt 3764 2998 L
3296 2453 mt 3368 2453 L
3332 2417 mt 3332 2489 L
1907 2458 mt 1979 2458 L
1943 2422 mt 1943 2494 L
3577 3386 mt 3649 3386 L
3613 3350 mt 3613 3422 L
2797 2925 mt 2869 2925 L
2833 2889 mt 2833 2961 L
2732 2083 mt 2804 2083 L
2768 2047 mt 2768 2119 L
3672 2094 mt 3744 2094 L
3708 2058 mt 3708 2130 L
3538 2869 mt 3610 2869 L
3574 2833 mt 3574 2905 L
5413 2256 mt 5485 2256 L
5449 2220 mt 5449 2292 L
4184 2320 mt 4256 2320 L
4220 2284 mt 4220 2356 L
 863  724 mt  935  724 L
 899  688 mt  899  760 L
3940 2849 mt 4012 2849 L
3976 2813 mt 3976 2885 L
3751 1121 mt 3823 1121 L
3787 1085 mt 3787 1157 L
1481 2237 mt 1553 2237 L
1517 2201 mt 1517 2273 L
3996 2668 mt 4068 2668 L
4032 2632 mt 4032 2704 L
3814 2682 mt 3886 2682 L
3850 2646 mt 3850 2718 L
3466 4131 mt 3538 4131 L
3502 4095 mt 3502 4167 L
4719 2759 mt 4791 2759 L
4755 2723 mt 4755 2795 L
3013 3011 mt 3085 3011 L
3049 2975 mt 3049 3047 L
2251 2155 mt 2323 2155 L
2287 2119 mt 2287 2191 L
5531 3610 mt 5603 3610 L
5567 3574 mt 5567 3646 L
3897 2899 mt 3969 2899 L
3933 2863 mt 3933 2935 L
3046 3213 mt 3118 3213 L
3082 3177 mt 3082 3249 L
3820 2659 mt 3892 2659 L
3856 2623 mt 3856 2695 L
4074 2528 mt 4146 2528 L
4110 2492 mt 4110 2564 L
2966 2686 mt 3038 2686 L
3002 2650 mt 3002 2722 L
2513 3415 mt 2585 3415 L
2549 3379 mt 2549 3451 L
1619 3848 mt 1691 3848 L
1655 3812 mt 1655 3884 L
3364 1960 mt 3436 1960 L
3400 1924 mt 3400 1996 L
4094 1502 mt 4166 1502 L
4130 1466 mt 4130 1538 L
3482 2247 mt 3554 2247 L
3518 2211 mt 3518 2283 L
3521 2214 mt 3593 2214 L
3557 2178 mt 3557 2250 L
1965 3567 mt 2037 3567 L
2001 3531 mt 2001 3603 L
2652 1550 mt 2724 1550 L
2688 1514 mt 2688 1586 L
3278 2104 mt 3350 2104 L
3314 2068 mt 3314 2140 L
1556 1978 mt 1628 1978 L
1592 1942 mt 1592 2014 L
3184 2307 mt 3256 2307 L
3220 2271 mt 3220 2343 L
3610 2584 mt 3682 2584 L
3646 2548 mt 3646 2620 L
3505 2597 mt 3577 2597 L
3541 2561 mt 3541 2633 L
4693 2497 mt 4765 2497 L
4729 2461 mt 4729 2533 L
3683 2311 mt 3755 2311 L
3719 2275 mt 3719 2347 L
4128 1878 mt 4200 1878 L
4164 1842 mt 4164 1914 L
2888 3184 mt 2960 3184 L
2924 3148 mt 2924 3220 L
2910 3273 mt 2982 3273 L
2946 3237 mt 2946 3309 L
1991 2035 mt 2063 2035 L
2027 1999 mt 2027 2071 L
3172 3242 mt 3244 3242 L
3208 3206 mt 3208 3278 L
3443 2946 mt 3515 2946 L
3479 2910 mt 3479 2982 L
3605 1538 mt 3677 1538 L
3641 1502 mt 3641 1574 L
3661 2637 mt 3733 2637 L
3697 2601 mt 3697 2673 L
3544 2099 mt 3616 2099 L
3580 2063 mt 3580 2135 L
3319 4072 mt 3391 4072 L
3355 4036 mt 3355 4108 L
4512 3908 mt 4584 3908 L
4548 3872 mt 4548 3944 L
4608 1892 mt 4680 1892 L
4644 1856 mt 4644 1928 L
3689 2427 mt 3761 2427 L
3725 2391 mt 3725 2463 L
4564 2242 mt 4636 2242 L
4600 2206 mt 4600 2278 L
5096 2125 mt 5168 2125 L
5132 2089 mt 5132 2161 L
3123 3405 mt 3195 3405 L
3159 3369 mt 3159 3441 L
4789 1845 mt 4861 1845 L
4825 1809 mt 4825 1881 L
4732 3306 mt 4804 3306 L
4768 3270 mt 4768 3342 L
2643 2218 mt 2715 2218 L
2679 2182 mt 2679 2254 L
5047 2930 mt 5119 2930 L
5083 2894 mt 5083 2966 L
3762 2334 mt 3834 2334 L
3798 2298 mt 3798 2370 L
3053 1526 mt 3125 1526 L
3089 1490 mt 3089 1562 L
4028 2741 mt 4100 2741 L
4064 2705 mt 4064 2777 L
3078 2135 mt 3150 2135 L
3114 2099 mt 3114 2171 L
4381 2736 mt 4453 2736 L
4417 2700 mt 4417 2772 L
2836 3051 mt 2908 3051 L
2872 3015 mt 2872 3087 L
2126 2480 mt 2198 2480 L
2162 2444 mt 2162 2516 L
3855 2764 mt 3927 2764 L
3891 2728 mt 3891 2800 L
3989 2713 mt 4061 2713 L
4025 2677 mt 4025 2749 L
3438 2057 mt 3510 2057 L
3474 2021 mt 3474 2093 L
2490 2488 mt 2562 2488 L
2526 2452 mt 2526 2524 L
4100 1732 mt 4172 1732 L
4136 1696 mt 4136 1768 L
4251 3468 mt 4323 3468 L
4287 3432 mt 4287 3504 L
5002 2773 mt 5074 2773 L
5038 2737 mt 5038 2809 L
3261 2046 mt 3333 2046 L
3297 2010 mt 3297 2082 L
4706 1872 mt 4778 1872 L
4742 1836 mt 4742 1908 L
4015 2989 mt 4087 2989 L
4051 2953 mt 4051 3025 L
2866 3367 mt 2938 3367 L
2902 3331 mt 2902 3403 L
2938 2519 mt 3010 2519 L
2974 2483 mt 2974 2555 L
3566 1671 mt 3638 1671 L
3602 1635 mt 3602 1707 L
3284 1898 mt 3356 1898 L
3320 1862 mt 3320 1934 L
3599 2007 mt 3671 2007 L
3635 1971 mt 3635 2043 L
1387 2120 mt 1459 2120 L
1423 2084 mt 1423 2156 L
3040 1936 mt 3112 1936 L
3076 1900 mt 3076 1972 L
2697 3081 mt 2769 3081 L
2733 3045 mt 2733 3117 L
3510 2541 mt 3582 2541 L
3546 2505 mt 3546 2577 L
4338 2914 mt 4410 2914 L
4374 2878 mt 4374 2950 L
2749 1514 mt 2821 1514 L
2785 1478 mt 2785 1550 L
2407 3358 mt 2479 3358 L
2443 3322 mt 2443 3394 L
3307 3693 mt 3379 3693 L
3343 3657 mt 3343 3729 L
4574 1371 mt 4646 1371 L
4610 1335 mt 4610 1407 L
2432 1277 mt 2504 1277 L
2468 1241 mt 2468 1313 L
3267 3331 mt 3339 3331 L
3303 3295 mt 3303 3367 L
4961 2370 mt 5033 2370 L
4997 2334 mt 4997 2406 L
3007 1593 mt 3079 1593 L
3043 1557 mt 3043 1629 L
3196 1715 mt 3268 1715 L
3232 1679 mt 3232 1751 L
2662 1858 mt 2734 1858 L
2698 1822 mt 2698 1894 L
4585 3063 mt 4657 3063 L
4621 3027 mt 4621 3099 L
2394 1662 mt 2466 1662 L
2430 1626 mt 2430 1698 L
2523 3235 mt 2595 3235 L
2559 3199 mt 2559 3271 L
3915 2288 mt 3987 2288 L
3951 2252 mt 3951 2324 L
3359 2365 mt 3431 2365 L
3395 2329 mt 3395 2401 L
2444 2727 mt 2516 2727 L
2480 2691 mt 2480 2763 L
2355 2718 mt 2427 2718 L
2391 2682 mt 2391 2754 L
4425  957 mt 4497  957 L
4461  921 mt 4461  993 L
3325 1634 mt 3397 1634 L
3361 1598 mt 3361 1670 L
3582 1388 mt 3654 1388 L
3618 1352 mt 3618 1424 L
2575 2731 mt 2647 2731 L
2611 2695 mt 2611 2767 L
2828 2904 mt 2900 2904 L
2864 2868 mt 2864 2940 L
3381  564 mt 3453  564 L
3417  528 mt 3417  600 L
2565 1748 mt 2637 1748 L
2601 1712 mt 2601 1784 L
4886 2920 mt 4958 2920 L
4922 2884 mt 4922 2956 L
3977 2815 mt 4049 2815 L
4013 2779 mt 4013 2851 L
2773 3125 mt 2845 3125 L
2809 3089 mt 2809 3161 L
2201 2859 mt 2273 2859 L
2237 2823 mt 2237 2895 L
3141 1838 mt 3213 1838 L
3177 1802 mt 3177 1874 L
3734 2909 mt 3806 2909 L
3770 2873 mt 3770 2945 L
3803 3376 mt 3875 3376 L
3839 3340 mt 3839 3412 L
5365 1990 mt 5437 1990 L
5401 1954 mt 5401 2026 L
2980 3099 mt 3052 3099 L
3016 3063 mt 3016 3135 L
2420 2392 mt 2492 2392 L
2456 2356 mt 2456 2428 L
3237 2978 mt 3309 2978 L
3273 2942 mt 3273 3014 L
3033 2150 mt 3105 2150 L
3069 2114 mt 3069 2186 L
3432 2418 mt 3504 2418 L
3468 2382 mt 3468 2454 L
4107 1561 mt 4179 1561 L
4143 1525 mt 4143 1597 L
2267 1643 mt 2339 1643 L
2303 1607 mt 2303 1679 L
3072 2830 mt 3144 2830 L
3108 2794 mt 3108 2866 L
3560 2170 mt 3632 2170 L
3596 2134 mt 3596 2206 L
4149 1764 mt 4221 1764 L
4185 1728 mt 4185 1800 L
3255 3131 mt 3327 3131 L
3291 3095 mt 3291 3167 L
3627 3479 mt 3699 3479 L
3663 3443 mt 3663 3515 L
3330 1802 mt 3402 1802 L
3366 1766 mt 3366 1838 L
2874 3164 mt 2946 3164 L
2910 3128 mt 2910 3200 L
3797 1823 mt 3869 1823 L
3833 1787 mt 3833 1859 L
4472 4305 mt 4544 4305 L
4508 4269 mt 4508 4341 L
3214 3069 mt 3286 3069 L
3250 3033 mt 3250 3105 L
3934 2801 mt 4006 2801 L
3970 2765 mt 3970 2837 L
2896 2140 mt 2968 2140 L
2932 2104 mt 2932 2176 L
4680 3265 mt 4752 3265 L
4716 3229 mt 4716 3301 L
2183 2051 mt 2255 2051 L
2219 2015 mt 2219 2087 L
3844 1865 mt 3916 1865 L
3880 1829 mt 3880 1901 L
4306 3112 mt 4378 3112 L
4342 3076 mt 4342 3148 L
5211 1462 mt 5283 1462 L
5247 1426 mt 5247 1498 L
3588 3395 mt 3660 3395 L
3624 3359 mt 3624 3431 L
2624 3797 mt 2696 3797 L
2660 3761 mt 2660 3833 L
3649 3281 mt 3721 3281 L
3685 3245 mt 3685 3317 L
3700 3022 mt 3772 3022 L
3736 2986 mt 3736 3058 L
3410 2567 mt 3482 2567 L
3446 2531 mt 3446 2603 L
1876 1448 mt 1948 1448 L
1912 1412 mt 1912 1484 L
4002 2405 mt 4074 2405 L
4038 2369 mt 4038 2441 L
3774 1972 mt 3846 1972 L
3810 1936 mt 3810 2008 L
3393 2194 mt 3465 2194 L
3429 2158 mt 3429 2230 L
4655 2228 mt 4727 2228 L
4691 2192 mt 4691 2264 L
6225 2298 mt 6297 2298 L
6261 2262 mt 6261 2334 L
3616 2475 mt 3688 2475 L
3652 2439 mt 3652 2511 L
2924 1152 mt 2996 1152 L
2960 1116 mt 2960 1188 L
3499 3822 mt 3571 3822 L
3535 3786 mt 3535 3858 L
4981 3227 mt 5053 3227 L
5017 3191 mt 5017 3263 L
3471 2673 mt 3543 2673 L
3507 2637 mt 3507 2709 L
3885 2967 mt 3957 2967 L
3921 2931 mt 3921 3003 L
4453 2704 mt 4525 2704 L
4489 2668 mt 4489 2740 L
3791 3340 mt 3863 3340 L
3827 3304 mt 3827 3376 L
2545 3206 mt 2617 3206 L
2581 3170 mt 2581 3242 L
3208 3595 mt 3280 3595 L
3244 3559 mt 3244 3631 L
4631 2067 mt 4703 2067 L
4667 2031 mt 4667 2103 L
4298 2894 mt 4370 2894 L
4334 2858 mt 4334 2930 L
4372 2951 mt 4444 2951 L
4408 2915 mt 4408 2987 L
4775 1930 mt 4847 1930 L
4811 1894 mt 4811 1966 L
3059 2029 mt 3131 2029 L
3095 1993 mt 3095 2065 L
4444 2189 mt 4516 2189 L
4480 2153 mt 4480 2225 L
4259 2691 mt 4331 2691 L
4295 2655 mt 4295 2727 L
4398 1087 mt 4470 1087 L
4434 1051 mt 4434 1123 L
5282 1995 mt 5354 1995 L
5318 1959 mt 5318 2031 L
3116 2338 mt 3188 2338 L
3152 2302 mt 3152 2374 L
3110 2750 mt 3182 2750 L
3146 2714 mt 3146 2786 L
3780 3752 mt 3852 3752 L
3816 3716 mt 3816 3788 L
2945 2854 mt 3017 2854 L
2981 2818 mt 2981 2890 L
3952 2545 mt 4024 2545 L
3988 2509 mt 3988 2581 L
4142 1756 mt 4214 1756 L
4178 1720 mt 4178 1792 L
4463 2549 mt 4535 2549 L
4499 2513 mt 4499 2585 L
2085 2388 mt 2157 2388 L
2121 2352 mt 2121 2424 L
3516 3106 mt 3588 3106 L
3552 3070 mt 3552 3142 L
3153 2650 mt 3225 2650 L
3189 2614 mt 3189 2686 L
3129 2615 mt 3201 2615 L
3165 2579 mt 3165 2651 L
3243 2160 mt 3315 2160 L
3279 2124 mt 3279 2196 L
5468 3198 mt 5540 3198 L
5504 3162 mt 5504 3234 L
2534 2677 mt 2606 2677 L
2570 2641 mt 2570 2713 L
3909 2782 mt 3981 2782 L
3945 2746 mt 3945 2818 L
3290 2935 mt 3362 2935 L
3326 2899 mt 3326 2971 L
4121 2700 mt 4193 2700 L
4157 2664 mt 4157 2736 L
2781 1923 mt 2853 1923 L
2817 1887 mt 2817 1959 L
2723 1336 mt 2795 1336 L
2759 1300 mt 2759 1372 L
4266 1772 mt 4338 1772 L
4302 1736 mt 4302 1808 L
4852 1049 mt 4924 1049 L
4888 1013 mt 4888 1085 L
3879 3017 mt 3951 3017 L
3915 2981 mt 3915 3053 L
3768 2223 mt 3840 2223 L
3804 2187 mt 3804 2259 L
5180 3137 mt 5252 3137 L
5216 3101 mt 5216 3173 L
4522 2879 mt 4594 2879 L
4558 2843 mt 4558 2915 L
4067 2493 mt 4139 2493 L
4103 2457 mt 4103 2529 L
4347 2145 mt 4419 2145 L
4383 2109 mt 4383 2181 L
2993 3942 mt 3065 3942 L
3029 3906 mt 3029 3978 L
2235 2115 mt 2307 2115 L
2271 2079 mt 2271 2151 L
4364 2209 mt 4436 2209 L
4400 2173 mt 4400 2245 L
1766 2956 mt 1838 2956 L
1802 2920 mt 1802 2992 L
2312 2889 mt 2384 2889 L
2348 2853 mt 2348 2925 L
4199 2532 mt 4271 2532 L
4235 2496 mt 4235 2568 L
4390 3087 mt 4462 3087 L
4426 3051 mt 4426 3123 L
5321 2695 mt 5393 2695 L
5357 2659 mt 5357 2731 L
4314 2073 mt 4386 2073 L
4350 2037 mt 4350 2109 L
2298 1298 mt 2370 1298 L
2334 1262 mt 2334 1334 L
1805 3877 mt 1877 3877 L
1841 3841 mt 1841 3913 L
4228 1006 mt 4300 1006 L
4264  970 mt 4264 1042 L
2586 2628 mt 2658 2628 L
2622 2592 mt 2622 2664 L
3867 3250 mt 3939 3250 L
3903 3214 mt 3903 3286 L
2973 2275 mt 3045 2275 L
3009 2239 mt 3009 2311 L
4047 2611 mt 4119 2611 L
4083 2575 mt 4083 2647 L
4746 2940 mt 4818 2940 L
4782 2904 mt 4782 2976 L
2327 3711 mt 2399 3711 L
2363 3675 mt 2363 3747 L
3404 2251 mt 3476 2251 L
3440 2215 mt 3440 2287 L
6033 2284 mt 6105 2284 L
6069 2248 mt 6069 2320 L
3313 3057 mt 3385 3057 L
3349 3021 mt 3349 3093 L
2615 3625 mt 2687 3625 L
2651 3589 mt 2651 3661 L
3527 2884 mt 3599 2884 L
3563 2848 mt 3563 2920 L
3706 1966 mt 3778 1966 L
3742 1930 mt 3742 2002 L
2813 2316 mt 2885 2316 L
2849 2280 mt 2849 2352 L
2341 2432 mt 2413 2432 L
2377 2396 mt 2377 2468 L
3971 2745 mt 4043 2745 L
4007 2709 mt 4007 2781 L
3387 2347 mt 3459 2347 L
3423 2311 mt 3423 2383 L
4041 1723 mt 4113 1723 L
4077 1687 mt 4077 1759 L
3347 2778 mt 3419 2778 L
3383 2742 mt 3383 2814 L
4021 2501 mt 4093 2501 L
4057 2465 mt 4057 2537 L
3594 2383 mt 3666 2383 L
3630 2347 mt 3630 2419 L
2689 1181 mt 2761 1181 L
2725 1145 mt 2725 1217 L
3376 1680 mt 3448 1680 L
3412 1644 mt 3412 1716 L
3449 2787 mt 3521 2787 L
3485 2751 mt 3485 2823 L
3135 1698 mt 3207 1698 L
3171 1662 mt 3171 1734 L
4170 3314 mt 4242 3314 L
4206 3278 mt 4206 3350 L
3000 1851 mt 3072 1851 L
3036 1815 mt 3036 1887 L
4435 3000 mt 4507 3000 L
4471 2964 mt 4471 3036 L
4236 3257 mt 4308 3257 L
4272 3221 mt 4272 3293 L
3964 2165 mt 4036 2165 L
4000 2129 mt 4000 2201 L
3666 2440 mt 3738 2440 L
3702 2404 mt 3702 2476 L
3226 3436 mt 3298 3436 L
3262 3400 mt 3262 3472 L
2987 1614 mt 3059 1614 L
3023 1578 mt 3023 1650 L
2368 2633 mt 2440 2633 L
2404 2597 mt 2404 2669 L
2917 3774 mt 2989 3774 L
2953 3738 mt 2953 3810 L
3891 1911 mt 3963 1911 L
3927 1875 mt 3927 1947 L
2844 2983 mt 2916 2983 L
2880 2947 mt 2880 3019 L
4553 2329 mt 4625 2329 L
4589 2293 mt 4589 2365 L
2456 3220 mt 2528 3220 L
2492 3184 mt 2492 3256 L
4243 3581 mt 4315 3581 L
4279 3545 mt 4279 3617 L
4805 2265 mt 4877 2265 L
4841 2229 mt 4841 2301 L
3398 2374 mt 3470 2374 L
3434 2338 mt 3434 2410 L
4416 2606 mt 4488 2606 L
4452 2570 mt 4452 2642 L
4619 3425 mt 4691 3425 L
4655 3389 mt 4655 3461 L
4060 3289 mt 4132 3289 L
4096 3253 mt 4096 3325 L
4820 3045 mt 4892 3045 L
4856 3009 mt 4856 3081 L
4667 2471 mt 4739 2471 L
4703 2435 mt 4703 2507 L
2502 2180 mt 2574 2180 L
2538 2144 mt 2538 2216 L
5606 2641 mt 5678 2641 L
5642 2605 mt 5642 2677 L
3740 3178 mt 3812 3178 L
3776 3142 mt 3776 3214 L
2851 1318 mt 2923 1318 L
2887 1282 mt 2887 1354 L
2282 3446 mt 2354 3446 L
2318 3410 mt 2318 3482 L
3273 2571 mt 3345 2571 L
3309 2535 mt 3309 2607 L
3655 3980 mt 3727 3980 L
3691 3944 mt 3691 4016 L
3638 2012 mt 3710 2012 L
3674 1976 mt 3674 2048 L
3160 1779 mt 3232 1779 L
3196 1743 mt 3196 1815 L
3757 2874 mt 3829 2874 L
3793 2838 mt 3793 2910 L
4597 2554 mt 4669 2554 L
4633 2518 mt 4633 2590 L
1722 2130 mt 1794 2130 L
1758 2094 mt 1758 2166 L
2218 3540 mt 2290 3540 L
2254 3504 mt 2254 3576 L
3621 2024 mt 3693 2024 L
3657 1988 mt 3657 2060 L
3983 2580 mt 4055 2580 L
4019 2544 mt 4019 2616 L
5122 2089 mt 5194 2089 L
5158 2053 mt 5158 2125 L
3098 1653 mt 3170 1653 L
3134 1617 mt 3134 1689 L
4922 2356 mt 4994 2356 L
4958 2320 mt 4958 2392 L
4163 2593 mt 4235 2593 L
4199 2557 mt 4199 2629 L
3202 2449 mt 3274 2449 L
3238 2413 mt 3238 2485 L
2959 1948 mt 3031 1948 L
2995 1912 mt 2995 1984 L
4290 1689 mt 4362 1689 L
4326 1653 mt 4326 1725 L
3711 2343 mt 3783 2343 L
3747 2307 mt 3747 2379 L
3493 2233 mt 3565 2233 L
3529 2197 mt 3529 2269 L
3633 2185 mt 3705 2185 L
3669 2149 mt 3669 2221 L
3946 1476 mt 4018 1476 L
3982 1440 mt 3982 1512 L
3826 2796 mt 3898 2796 L
3862 2760 mt 3862 2832 L
2680 1984 mt 2752 1984 L
2716 1948 mt 2716 2020 L
4532 3553 mt 4604 3553 L
4568 3517 mt 4568 3589 L
3336 1624 mt 3408 1624 L
3372 1588 mt 3372 1660 L
3723 3005 mt 3795 3005 L
3759 2969 mt 3759 3041 L
3302 2754 mt 3374 2754 L
3338 2718 mt 3338 2790 L
4492 1232 mt 4564 1232 L
4528 1196 mt 4528 1268 L
3477 1354 mt 3549 1354 L
3513 1318 mt 3513 1390 L
2165 2994 mt 2237 2994 L
2201 2958 mt 2201 3030 L
5150 2820 mt 5222 2820 L
5186 2784 mt 5186 2856 L
3555 1404 mt 3627 1404 L
3591 1368 mt 3591 1440 L
4282 2175 mt 4354 2175 L
4318 2139 mt 4318 2211 L
2821 2562 mt 2893 2562 L
2857 2526 mt 2857 2598 L
3454 3028 mt 3526 3028 L
3490 2992 mt 3490 3064 L
3353 1707 mt 3425 1707 L
3389 1671 mt 3389 1743 L
3549 3157 mt 3621 3157 L
3585 3121 mt 3585 3193 L
4156 3349 mt 4228 3349 L
4192 3313 mt 4192 3385 L
2952 2109 mt 3024 2109 L
2988 2073 mt 2988 2145 L
2479 2768 mt 2551 2768 L
2515 2732 mt 2515 2804 L
2931 2510 mt 3003 2510 L
2967 2474 mt 2967 2546 L
4501 1207 mt 4573 1207 L
4537 1171 mt 4537 1243 L
3873 1904 mt 3945 1904 L
3909 1868 mt 3909 1940 L
2671 1489 mt 2743 1489 L
2707 1453 mt 2707 1525 L
3027 2462 mt 3099 2462 L
3063 2426 mt 3063 2498 L
2859 3151 mt 2931 3151 L
2895 3115 mt 2895 3187 L
gs 899 414 5363 4203 rc
gr

0 sg
2775 5104 mt 
(\(F,DCTb,GMM\)) s
 482 3259 mt  -90 rotate
(\(S,PAC,GMM\)) s
90 rotate
2975  223 mt 
(Corr = 0.01) s

end %%Color Dict

eplot
%%EndObject

epage
end

showpage

%%Trailer
%%EOF
