%!PS-Adobe-3.0 EPSF-3.0
%%Creator: MATLAB, The Mathworks, Inc. Version 7.7.0.471 (R2008b). Operating System: Microsoft Windows XP.
%%Title: Pictures\main_zoo_mvar_analysis_data_BMI_xcorr_bmig_p2_k2_2_4.eps
%%CreationDate: 10/26/2009  05:45:44
%%DocumentNeededFonts: Helvetica
%%DocumentProcessColors: Cyan Magenta Yellow Black
%%LanguageLevel: 2
%%Pages: 1
%%BoundingBox:    37   180   549   616
%%EndComments

%%BeginProlog
% MathWorks dictionary
/MathWorks 160 dict begin
% definition operators
/bdef {bind def} bind def
/ldef {load def} bind def
/xdef {exch def} bdef
/xstore {exch store} bdef
% operator abbreviations
/c  /clip ldef
/cc /concat ldef
/cp /closepath ldef
/gr /grestore ldef
/gs /gsave ldef
/mt /moveto ldef
/np /newpath ldef
/cm /currentmatrix ldef
/sm /setmatrix ldef
/rm /rmoveto ldef
/rl /rlineto ldef
/s {show newpath} bdef
/sc {setcmykcolor} bdef
/sr /setrgbcolor ldef
/sg /setgray ldef
/w /setlinewidth ldef
/j /setlinejoin ldef
/cap /setlinecap ldef
/rc {rectclip} bdef
/rf {rectfill} bdef
% page state control
/pgsv () def
/bpage {/pgsv save def} bdef
/epage {pgsv restore} bdef
/bplot /gsave ldef
/eplot {stroke grestore} bdef
% orientation switch
/portraitMode 0 def /landscapeMode 1 def /rotateMode 2 def
% coordinate system mappings
/dpi2point 0 def
% font control
/FontSize 0 def
/FMS {/FontSize xstore findfont [FontSize 0 0 FontSize neg 0 0]
  makefont setfont} bdef
/ISOLatin1Encoding where {pop /WindowsLatin1Encoding 256 array bdef
ISOLatin1Encoding WindowsLatin1Encoding copy pop
/.notdef/.notdef/quotesinglbase/florin/quotedblbase/ellipsis/dagger
/daggerdbl/circumflex/perthousand/Scaron/guilsinglleft/OE/.notdef/.notdef
/.notdef/.notdef/quoteleft/quoteright/quotedblleft/quotedblright/bullet
/endash/emdash/tilde/trademark/scaron/guilsinglright/oe/.notdef/.notdef
/Ydieresis WindowsLatin1Encoding 128 32 getinterval astore pop}
{/WindowsLatin1Encoding StandardEncoding bdef} ifelse
/reencode {exch dup where {pop load} {pop StandardEncoding} ifelse
  exch dup 3 1 roll findfont dup length dict begin
  { 1 index /FID ne {def}{pop pop} ifelse } forall
  /Encoding exch def currentdict end definefont pop} bdef
/isroman {findfont /CharStrings get /Agrave known} bdef
/FMSR {3 1 roll 1 index dup isroman {reencode} {pop pop} ifelse
  exch FMS} bdef
/csm {1 dpi2point div -1 dpi2point div scale neg translate
 dup landscapeMode eq {pop -90 rotate}
  {rotateMode eq {90 rotate} if} ifelse} bdef
% line types: solid, dotted, dashed, dotdash
/SO { [] 0 setdash } bdef
/DO { [.5 dpi2point mul 4 dpi2point mul] 0 setdash } bdef
/DA { [6 dpi2point mul] 0 setdash } bdef
/DD { [.5 dpi2point mul 4 dpi2point mul 6 dpi2point mul 4
  dpi2point mul] 0 setdash } bdef
% macros for lines and objects
/L {lineto stroke} bdef
/MP {3 1 roll moveto 1 sub {rlineto} repeat} bdef
/AP {{rlineto} repeat} bdef
/PDlw -1 def
/W {/PDlw currentlinewidth def setlinewidth} def
/PP {closepath eofill} bdef
/DP {closepath stroke} bdef
/MR {4 -2 roll moveto dup  0 exch rlineto exch 0 rlineto
  neg 0 exch rlineto closepath} bdef
/FR {MR stroke} bdef
/PR {MR fill} bdef
/L1i {{currentfile picstr readhexstring pop} image} bdef
/tMatrix matrix def
/MakeOval {newpath tMatrix currentmatrix pop translate scale
0 0 1 0 360 arc tMatrix setmatrix} bdef
/FO {MakeOval stroke} bdef
/PO {MakeOval fill} bdef
/PD {currentlinewidth 2 div 0 360 arc fill
   PDlw -1 eq not {PDlw w /PDlw -1 def} if} def
/FA {newpath tMatrix currentmatrix pop translate scale
  0 0 1 5 -2 roll arc tMatrix setmatrix stroke} bdef
/PA {newpath tMatrix currentmatrix pop	translate 0 0 moveto scale
  0 0 1 5 -2 roll arc closepath tMatrix setmatrix fill} bdef
/FAn {newpath tMatrix currentmatrix pop translate scale
  0 0 1 5 -2 roll arcn tMatrix setmatrix stroke} bdef
/PAn {newpath tMatrix currentmatrix pop translate 0 0 moveto scale
  0 0 1 5 -2 roll arcn closepath tMatrix setmatrix fill} bdef
/vradius 0 def /hradius 0 def /lry 0 def
/lrx 0 def /uly 0 def /ulx 0 def /rad 0 def
/MRR {/vradius xdef /hradius xdef /lry xdef /lrx xdef /uly xdef
  /ulx xdef newpath tMatrix currentmatrix pop ulx hradius add uly
  vradius add translate hradius vradius scale 0 0 1 180 270 arc 
  tMatrix setmatrix lrx hradius sub uly vradius add translate
  hradius vradius scale 0 0 1 270 360 arc tMatrix setmatrix
  lrx hradius sub lry vradius sub translate hradius vradius scale
  0 0 1 0 90 arc tMatrix setmatrix ulx hradius add lry vradius sub
  translate hradius vradius scale 0 0 1 90 180 arc tMatrix setmatrix
  closepath} bdef
/FRR {MRR stroke } bdef
/PRR {MRR fill } bdef
/MlrRR {/lry xdef /lrx xdef /uly xdef /ulx xdef /rad lry uly sub 2 div def
  newpath tMatrix currentmatrix pop ulx rad add uly rad add translate
  rad rad scale 0 0 1 90 270 arc tMatrix setmatrix lrx rad sub lry rad
  sub translate rad rad scale 0 0 1 270 90 arc tMatrix setmatrix
  closepath} bdef
/FlrRR {MlrRR stroke } bdef
/PlrRR {MlrRR fill } bdef
/MtbRR {/lry xdef /lrx xdef /uly xdef /ulx xdef /rad lrx ulx sub 2 div def
  newpath tMatrix currentmatrix pop ulx rad add uly rad add translate
  rad rad scale 0 0 1 180 360 arc tMatrix setmatrix lrx rad sub lry rad
  sub translate rad rad scale 0 0 1 0 180 arc tMatrix setmatrix
  closepath} bdef
/FtbRR {MtbRR stroke } bdef
/PtbRR {MtbRR fill } bdef
/stri 6 array def /dtri 6 array def
/smat 6 array def /dmat 6 array def
/tmat1 6 array def /tmat2 6 array def /dif 3 array def
/asub {/ind2 exch def /ind1 exch def dup dup
  ind1 get exch ind2 get sub exch } bdef
/tri_to_matrix {
  2 0 asub 3 1 asub 4 0 asub 5 1 asub
  dup 0 get exch 1 get 7 -1 roll astore } bdef
/compute_transform {
  dmat dtri tri_to_matrix tmat1 invertmatrix 
  smat stri tri_to_matrix tmat2 concatmatrix } bdef
/ds {stri astore pop} bdef
/dt {dtri astore pop} bdef
/db {2 copy /cols xdef /rows xdef mul dup 3 mul string
  currentfile 
  3 index 0 eq {/ASCIIHexDecode filter}
  {/ASCII85Decode filter 3 index 2 eq {/RunLengthDecode filter} if }
  ifelse exch readstring pop
  dup 0 3 index getinterval /rbmap xdef
  dup 2 index dup getinterval /gbmap xdef
  1 index dup 2 mul exch getinterval /bbmap xdef pop pop}bdef
/it {gs np dtri aload pop moveto lineto lineto cp c
  cols rows 8 compute_transform 
  rbmap gbmap bbmap true 3 colorimage gr}bdef
/il {newpath moveto lineto stroke}bdef
currentdict end def
%%EndProlog

%%BeginSetup
MathWorks begin

0 cap

end
%%EndSetup

%%Page: 1 1
%%BeginPageSetup
%%PageBoundingBox:    37   180   549   616
MathWorks begin
bpage
%%EndPageSetup

%%BeginObject: obj1
bplot

/dpi2point 12 def
portraitMode 0216 7344 csm

  234   -48  6149  5231 rc
85 dict begin %Colortable dictionary
/c0 { 0.000000 0.000000 0.000000 sr} bdef
/c1 { 1.000000 1.000000 1.000000 sr} bdef
/c2 { 0.900000 0.000000 0.000000 sr} bdef
/c3 { 0.000000 0.820000 0.000000 sr} bdef
/c4 { 0.000000 0.000000 0.800000 sr} bdef
/c5 { 0.910000 0.820000 0.320000 sr} bdef
/c6 { 1.000000 0.260000 0.820000 sr} bdef
/c7 { 0.000000 0.820000 0.820000 sr} bdef
c0
1 j
1 sg
   0    0 6919 5187 rf
6 w
0 4202 5362 0 0 -4202 899 4616 4 MP
PP
-5362 0 0 4202 5362 0 0 -4202 899 4616 5 MP stroke
4 w
DO
SO
6 w
0 sg
 899  414 mt 6261  414 L
 899 4616 mt 6261 4616 L
6261 4616 mt 6261  414 L
 899 4616 mt  899  414 L
 899 4616 mt 6261 4616 L
 899 4616 mt  899  414 L
 919 4616 mt  919 4562 L
 919  414 mt  919  467 L
%%IncludeResource: font Helvetica
/Helvetica /WindowsLatin1Encoding 240 FMSR

 713 4873 mt 
(-3) s
1806 4616 mt 1806 4562 L
1806  414 mt 1806  467 L
1600 4873 mt 
(-2) s
2693 4616 mt 2693 4562 L
2693  414 mt 2693  467 L
2487 4873 mt 
(-1) s
3580 4616 mt 3580 4562 L
3580  414 mt 3580  467 L
3514 4873 mt 
(0) s
4466 4616 mt 4466 4562 L
4466  414 mt 4466  467 L
4400 4873 mt 
(1) s
5353 4616 mt 5353 4562 L
5353  414 mt 5353  467 L
5287 4873 mt 
(2) s
6240 4616 mt 6240 4562 L
6240  414 mt 6240  467 L
6174 4873 mt 
(3) s
 899 4599 mt  952 4599 L
6261 4599 mt 6207 4599 L
 591 4688 mt 
(-3) s
 899 3904 mt  952 3904 L
6261 3904 mt 6207 3904 L
 591 3993 mt 
(-2) s
 899 3209 mt  952 3209 L
6261 3209 mt 6207 3209 L
 591 3298 mt 
(-1) s
 899 2514 mt  952 2514 L
6261 2514 mt 6207 2514 L
 731 2603 mt 
(0) s
 899 1820 mt  952 1820 L
6261 1820 mt 6207 1820 L
 731 1909 mt 
(1) s
 899 1125 mt  952 1125 L
6261 1125 mt 6207 1125 L
 731 1214 mt 
(2) s
 899  430 mt  952  430 L
6261  430 mt 6207  430 L
 731  519 mt 
(3) s
 899  414 mt 6261  414 L
 899 4616 mt 6261 4616 L
6261 4616 mt 6261  414 L
 899 4616 mt  899  414 L
gs 899 414 5363 4203 rc
gr

/c8 { 0.000000 0.000000 1.000000 sr} bdef
c8
4453 1538 mt 4525 1538 L
4489 1502 mt 4489 1574 L
4732 1680 mt 4804 1680 L
4768 1644 mt 4768 1716 L
2218 3908 mt 2290 3908 L
2254 3872 mt 2254 3944 L
4789 2007 mt 4861 2007 L
4825 1971 mt 4825 2043 L
4492 1207 mt 4564 1207 L
4528 1171 mt 4528 1243 L
3104 2673 mt 3176 2673 L
3140 2637 mt 3140 2709 L
3196 3515 mt 3268 3515 L
3232 3479 mt 3232 3551 L
3085 3980 mt 3157 3980 L
3121 3944 mt 3121 4016 L
4107 1740 mt 4179 1740 L
4143 1704 mt 4143 1776 L
2479 3848 mt 2551 3848 L
2515 3812 mt 2515 3884 L
4355 1972 mt 4427 1972 L
4391 1936 mt 4391 2008 L
3190 2365 mt 3262 2365 L
3226 2329 mt 3226 2401 L
3013 2695 mt 3085 2695 L
3049 2659 mt 3049 2731 L
4585 1404 mt 4657 1404 L
4621 1368 mt 4621 1440 L
4128 1643 mt 4200 1643 L
4164 1607 mt 4164 1679 L
2456 2736 mt 2528 2736 L
2492 2700 mt 2492 2772 L
4719 2051 mt 4791 2051 L
4755 2015 mt 4755 2087 L
2652 2370 mt 2724 2370 L
2688 2334 mt 2688 2406 L
3728 3331 mt 3800 3331 L
3764 3295 mt 3764 3367 L
2432 2889 mt 2504 2889 L
2468 2853 mt 2468 2925 L
3072 2633 mt 3144 2633 L
3108 2597 mt 3108 2669 L
2959 3436 mt 3031 3436 L
2995 3400 mt 2995 3472 L
3689 1930 mt 3761 1930 L
3725 1894 mt 3725 1966 L
3325 3306 mt 3397 3306 L
3361 3270 mt 3361 3342 L
3700 3376 mt 3772 3376 L
3736 3340 mt 3736 3412 L
3342 1698 mt 3414 1698 L
3378 1662 mt 3378 1734 L
3202 2545 mt 3274 2545 L
3238 2509 mt 3238 2581 L
3443 2458 mt 3515 2458 L
3479 2422 mt 3479 2494 L
4631 2242 mt 4703 2242 L
4667 2206 mt 4667 2278 L
4564 1354 mt 4636 1354 L
4600 1318 mt 4600 1390 L
4372 2388 mt 4444 2388 L
4408 2352 mt 4408 2424 L
2828 4616 mt 2900 4616 L
2864 4580 mt 2864 4652 L
4114 2094 mt 4186 2094 L
4150 2058 mt 4150 2130 L
4667 2713 mt 4739 2713 L
4703 2677 mt 4703 2749 L
3661 2209 mt 3733 2209 L
3697 2173 mt 3697 2245 L
3330 2914 mt 3402 2914 L
3366 2878 mt 3366 2950 L
5606 2745 mt 5678 2745 L
5642 2709 mt 5642 2781 L
3605 2180 mt 3677 2180 L
3641 2144 mt 3641 2216 L
3359 3797 mt 3431 3797 L
3395 3761 mt 3395 3833 L
4390 2024 mt 4462 2024 L
4426 1988 mt 4426 2060 L
2312 3658 mt 2384 3658 L
2348 3622 mt 2348 3694 L
6033 1561 mt 6105 1561 L
6069 1525 mt 6069 1597 L
5828 3877 mt 5900 3877 L
5864 3841 mt 5864 3913 L
3915 4205 mt 3987 4205 L
3951 4169 mt 3951 4241 L
4177 2519 mt 4249 2519 L
4213 2483 mt 4213 2555 L
3267 3022 mt 3339 3022 L
3303 2986 mt 3303 3058 L
4121  414 mt 4193  414 L
4157  378 mt 4157  450 L
3672 3405 mt 3744 3405 L
3708 3369 mt 3708 3441 L
4381 2214 mt 4453 2214 L
4417 2178 mt 4417 2250 L
2781 1232 mt 2853 1232 L
2817 1196 mt 2817 1268 L
3040 2423 mt 3112 2423 L
3076 2387 mt 3076 2459 L
3577 2160 mt 3649 2160 L
3613 2124 mt 3613 2196 L
5180 2806 mt 5252 2806 L
5216 2770 mt 5216 2842 L
2565 3322 mt 2637 3322 L
2601 3286 mt 2601 3358 L
3178 1851 mt 3250 1851 L
3214 1815 mt 3214 1887 L
3588 3281 mt 3660 3281 L
3624 3245 mt 3624 3317 L
3958 2185 mt 4030 2185 L
3994 2149 mt 3994 2221 L
2980 3198 mt 3052 3198 L
3016 3162 mt 3016 3234 L
3471 2125 mt 3543 2125 L
3507 2089 mt 3507 2161 L
3785 1838 mt 3857 1838 L
3821 1802 mt 3821 1874 L
3353 2165 mt 3425 2165 L
3389 2129 mt 3389 2201 L
3734 2298 mt 3806 2298 L
3770 2262 mt 3770 2334 L
1991 3553 mt 2063 3553 L
2027 3517 mt 2027 3589 L
4028 2628 mt 4100 2628 L
4064 2592 mt 4064 2664 L
2624 2418 mt 2696 2418 L
2660 2382 mt 2660 2454 L
1556 2189 mt 1628 2189 L
1592 2153 mt 1592 2225 L
4034 2062 mt 4106 2062 L
4070 2026 mt 4070 2098 L
4852 1872 mt 4924 1872 L
4888 1836 mt 4888 1908 L
3532 2307 mt 3604 2307 L
3568 2271 mt 3568 2343 L
4680 2602 mt 4752 2602 L
4716 2566 mt 4716 2638 L
3376 2445 mt 3448 2445 L
3412 2409 mt 3412 2481 L
2706 3250 mt 2778 3250 L
2742 3214 mt 2742 3286 L
4643 2083 mt 4715 2083 L
4679 2047 mt 4679 2119 L
4463 2223 mt 4535 2223 L
4499 2187 mt 4499 2259 L
3774 2237 mt 3846 2237 L
3810 2201 mt 3810 2273 L
2866 1489 mt 2938 1489 L
2902 1453 mt 2902 1525 L
3644 2567 mt 3716 2567 L
3680 2531 mt 3680 2603 L
5150 3011 mt 5222 3011 L
5186 2975 mt 5186 3047 L
3449 1181 mt 3521 1181 L
3485 1145 mt 3485 1217 L
4080 1723 mt 4152 1723 L
4116 1687 mt 4116 1759 L
3059 2293 mt 3131 2293 L
3095 2257 mt 3095 2329 L
4228 2709 mt 4300 2709 L
4264 2673 mt 4264 2745 L
3410 2930 mt 3482 2930 L
3446 2894 mt 3446 2966 L
4199 2329 mt 4271 2329 L
4235 2293 mt 4235 2365 L
2715 3045 mt 2787 3045 L
2751 3009 mt 2751 3081 L
2420 3081 mt 2492 3081 L
2456 3045 mt 2456 3117 L
5071 2104 mt 5143 2104 L
5107 2068 mt 5107 2140 L
4364 2145 mt 4436 2145 L
4400 2109 mt 4400 2181 L
2987 3641 mt 3059 3641 L
3023 3605 mt 3023 3677 L
4002 2825 mt 4074 2825 L
4038 2789 mt 4038 2861 L
4444 2664 mt 4516 2664 L
4480 2628 mt 4480 2700 L
4693  957 mt 4765  957 L
4729  921 mt 4729  993 L
3477 2325 mt 3549 2325 L
3513 2289 mt 3513 2361 L
2749 3220 mt 2821 3220 L
2785 3184 mt 2785 3256 L
3627 2615 mt 3699 2615 L
3663 2579 mt 3663 2651 L
4206 3171 mt 4278 3171 L
4242 3135 mt 4242 3207 L
3499 3289 mt 3571 3289 L
3535 3253 mt 3535 3325 L
3516 2256 mt 3588 2256 L
3552 2220 mt 3552 2292 L
3393 2801 mt 3465 2801 L
3429 2765 mt 3429 2837 L
3560 1049 mt 3632 1049 L
3596 1013 mt 3596 1085 L
3214 2854 mt 3286 2854 L
3250 2818 mt 3250 2890 L
4836 1936 mt 4908 1936 L
4872 1900 mt 4872 1972 L
2502 2414 mt 2574 2414 L
2538 2378 mt 2538 2450 L
3220 2899 mt 3292 2899 L
3256 2863 mt 3256 2935 L
2341 2940 mt 2413 2940 L
2377 2904 mt 2377 2976 L
2355 1434 mt 2427 1434 L
2391 1398 mt 2391 1470 L
3243 2251 mt 3315 2251 L
3279 2215 mt 3279 2287 L
4512 3039 mt 4584 3039 L
4548 3003 mt 4548 3075 L
3897 2764 mt 3969 2764 L
3933 2728 mt 3933 2800 L
2924 2773 mt 2996 2773 L
2960 2737 mt 2960 2809 L
2523 2554 mt 2595 2554 L
2559 2518 mt 2559 2590 L
1876 3075 mt 1948 3075 L
1912 3039 mt 1912 3111 L
3172 3069 mt 3244 3069 L
3208 3033 mt 3208 3105 L
3510 2962 mt 3582 2962 L
3546 2926 mt 3546 2998 L
2740 2754 mt 2812 2754 L
2776 2718 mt 2776 2790 L
3745 2972 mt 3817 2972 L
3781 2936 mt 3781 3008 L
4553 2288 mt 4625 2288 L
4589 2252 mt 4589 2324 L
3116 3491 mt 3188 3491 L
3152 3455 mt 3152 3527 L
2671 2989 mt 2743 2989 L
2707 2953 mt 2707 3025 L
4706 1831 mt 4778 1831 L
4742 1795 mt 4742 1867 L
3909 2462 mt 3981 2462 L
3945 2426 mt 3945 2498 L
2381 2338 mt 2453 2338 L
2417 2302 mt 2417 2374 L
3844 2686 mt 3916 2686 L
3880 2650 mt 3880 2722 L
4347 1748 mt 4419 1748 L
4383 1712 mt 4383 1784 L
3415  898 mt 3487  898 L
3451  862 mt 3451  934 L
5002 1526 mt 5074 1526 L
5038 1490 mt 5038 1562 L
4213 2247 mt 4285 2247 L
4249 2211 mt 4249 2283 L
3249 1794 mt 3321 1794 L
3285 1758 mt 3285 1830 L
1965 2884 mt 2037 2884 L
2001 2848 mt 2001 2920 L
2106 3446 mt 2178 3446 L
2142 3410 mt 2142 3482 L
3677  824 mt 3749  824 L
3713  788 mt 3713  860 L
3078 2432 mt 3150 2432 L
3114 2396 mt 3114 2468 L
1937 2951 mt 2009 2951 L
1973 2915 mt 1973 2987 L
4060 1787 mt 4132 1787 L
4096 1751 mt 4096 1823 L
4009 2946 mt 4081 2946 L
4045 2910 mt 4045 2982 L
3147 2480 mt 3219 2480 L
3183 2444 mt 3183 2516 L
2805 3595 mt 2877 3595 L
2841 3559 mt 2841 3631 L
3261 2320 mt 3333 2320 L
3297 2284 mt 3297 2356 L
4251 2120 mt 4323 2120 L
4287 2084 mt 4287 2156 L
3432 2580 mt 3504 2580 L
3468 2544 mt 3468 2616 L
3599 2606 mt 3671 2606 L
3635 2570 mt 3635 2642 L
4290 2099 mt 4362 2099 L
4326 2063 mt 4326 2135 L
3284 1764 mt 3356 1764 L
3320 1728 mt 3320 1800 L
4655 3235 mt 4727 3235 L
4691 3199 mt 4691 3271 L
3098 2471 mt 3170 2471 L
3134 2435 mt 3134 2507 L
2689 2909 mt 2761 2909 L
2725 2873 mt 2725 2945 L
3033 2849 mt 3105 2849 L
3069 2813 mt 3069 2885 L
3123 3125 mt 3195 3125 L
3159 3089 mt 3159 3161 L
4306 2571 mt 4378 2571 L
4342 2535 mt 4342 2607 L
4047 2475 mt 4119 2475 L
4083 2439 mt 4083 2511 L
3952 2109 mt 4024 2109 L
3988 2073 mt 3988 2145 L
3934 2334 mt 4006 2334 L
3970 2298 mt 3970 2370 L
3838 2352 mt 3910 2352 L
3874 2316 mt 3874 2388 L
1481 2659 mt 1553 2659 L
1517 2623 mt 1517 2695 L
4314 1671 mt 4386 1671 L
4350 1635 mt 4350 1707 L
5282 2140 mt 5354 2140 L
5318 2104 mt 5318 2176 L
1842 3184 mt 1914 3184 L
1878 3148 mt 1878 3220 L
4015 2646 mt 4087 2646 L
4051 2610 mt 4051 2682 L
2945 3340 mt 3017 3340 L
2981 3304 mt 2981 3376 L
 863 2718 mt  935 2718 L
 899 2682 mt  899 2754 L
3879 2722 mt 3951 2722 L
3915 2686 mt 3915 2758 L
2282 3057 mt 2354 3057 L
2318 3021 mt 2318 3093 L
4170 3144 mt 4242 3144 L
4206 3108 mt 4206 3180 L
2859 2467 mt 2931 2467 L
2895 2431 mt 2895 2503 L
5024 1448 mt 5096 1448 L
5060 1412 mt 5060 1484 L
3135 3297 mt 3207 3297 L
3171 3261 mt 3171 3333 L
2896 2787 mt 2968 2787 L
2932 2751 mt 2932 2823 L
3237 2593 mt 3309 2593 L
3273 2557 mt 3273 2629 L
4619 1006 mt 4691 1006 L
4655  970 mt 4655 1042 L
6225 1911 mt 6297 1911 L
6261 1875 mt 6261 1947 L
2874 1634 mt 2946 1634 L
2910 1598 mt 2910 1670 L
4135 1550 mt 4207 1550 L
4171 1514 mt 4171 1586 L
4398 1419 mt 4470 1419 L
4434 1383 mt 4434 1455 L
4597 2194 mt 4669 2194 L
4633 2158 mt 4633 2230 L
2146 2558 mt 2218 2558 L
2182 2522 mt 2182 2594 L
3571 1917 mt 3643 1917 L
3607 1881 mt 3607 1953 L
3655 1898 mt 3727 1898 L
3691 1862 mt 3691 1934 L
2016 3151 mt 2088 3151 L
2052 3115 mt 2052 3187 L
3364 2155 mt 3436 2155 L
3400 2119 mt 3400 2191 L
2789 2731 mt 2861 2731 L
2825 2695 mt 2825 2767 L
3454 3164 mt 3526 3164 L
3490 3128 mt 3490 3200 L
2165  564 mt 2237  564 L
2201  528 mt 2201  600 L
3381 2012 mt 3453 2012 L
3417 1976 mt 3417 2048 L
3460 2356 mt 3532 2356 L
3496 2320 mt 3496 2392 L
2534 3731 mt 2606 3731 L
2570 3695 mt 2570 3767 L
2085 3118 mt 2157 3118 L
2121 3082 mt 2121 3154 L
2662 2040 mt 2734 2040 L
2698 2004 mt 2698 2076 L
3290 3131 mt 3362 3131 L
3326 3095 mt 3326 3167 L
4775 2453 mt 4847 2453 L
4811 2417 mt 4811 2489 L
2643 2279 mt 2715 2279 L
2679 2243 mt 2679 2315 L
2235 2778 mt 2307 2778 L
2271 2742 mt 2271 2814 L
2973 3137 mt 3045 3137 L
3009 3101 mt 3009 3173 L
2732 3028 mt 2804 3028 L
2768 2992 mt 2768 3064 L
3426 2361 mt 3498 2361 L
3462 2325 mt 3462 2397 L
4904 2046 mt 4976 2046 L
4940 2010 mt 4940 2082 L
5365 1514 mt 5437 1514 L
5401 1478 mt 5401 1550 L
3832 3625 mt 3904 3625 L
3868 3589 mt 3868 3661 L
3757 3527 mt 3829 3527 L
3793 3491 mt 3793 3563 L
2298 2704 mt 2370 2704 L
2334 2668 mt 2334 2740 L
3971 3005 mt 4043 3005 L
4007 2969 mt 4007 3041 L
3493 2396 mt 3565 2396 L
3529 2360 mt 3529 2432 L
5122 1845 mt 5194 1845 L
5158 1809 mt 5158 1881 L
3927 3752 mt 3999 3752 L
3963 3716 mt 3963 3788 L
3649 3358 mt 3721 3358 L
3685 3322 mt 3685 3394 L
4041 1954 mt 4113 1954 L
4077 1918 mt 4077 1990 L
2931 2956 mt 3003 2956 L
2967 2920 mt 2967 2992 L
3141 3273 mt 3213 3273 L
3177 3237 mt 3177 3309 L
4266 2741 mt 4338 2741 L
4302 2705 mt 4302 2777 L
4074 1707 mt 4146 1707 L
4110 1671 mt 4110 1743 L
2615 3822 mt 2687 3822 L
2651 3786 mt 2651 3858 L
4922 1756 mt 4994 1756 L
4958 1720 mt 4958 1792 L
3903 2067 mt 3975 2067 L
3939 2031 mt 3939 2103 L
4163 2782 mt 4235 2782 L
4199 2746 mt 4199 2818 L
3566 3395 mt 3638 3395 L
3602 3359 mt 3602 3431 L
3466 1715 mt 3538 1715 L
3502 1679 mt 3502 1751 L
1387 2501 mt 1459 2501 L
1423 2465 mt 1423 2537 L
2952 2904 mt 3024 2904 L
2988 2868 mt 2988 2940 L
4149 2584 mt 4221 2584 L
4185 2548 mt 4185 2620 L
1722 3034 mt 1794 3034 L
1758 2998 mt 1758 3070 L
3398 2436 mt 3470 2436 L
3434 2400 mt 3434 2472 L
3582 2869 mt 3654 2869 L
3618 2833 mt 3618 2905 L
3160 2410 mt 3232 2410 L
3196 2374 mt 3196 2446 L
4501 2536 mt 4573 2536 L
4537 2500 mt 4537 2572 L
3621 4072 mt 3693 4072 L
3657 4036 mt 3657 4108 L
4746 3479 mt 4818 3479 L
4782 3443 mt 4782 3515 L
3404 2261 mt 3476 2261 L
3440 2225 mt 3440 2297 L
2605 2811 mt 2677 2811 L
2641 2775 mt 2641 2847 L
5700 3675 mt 5772 3675 L
5736 3639 mt 5736 3711 L
4482 1892 mt 4554 1892 L
4518 1856 mt 4518 1928 L
2844 2576 mt 2916 2576 L
2880 2540 mt 2880 2612 L
3803 3386 mt 3875 3386 L
3839 3350 mt 3839 3422 L
3797 2677 mt 3869 2677 L
3833 2641 mt 3833 2713 L
3814 2270 mt 3886 2270 L
3850 2234 mt 3850 2306 L
3989 2700 mt 4061 2700 L
4025 2664 mt 4025 2736 L
4221 2562 mt 4293 2562 L
4257 2526 mt 4257 2598 L
3488 3415 mt 3560 3415 L
3524 3379 mt 3524 3451 L
3046 2978 mt 3118 2978 L
3082 2942 mt 3082 3014 L
2757 2820 mt 2829 2820 L
2793 2784 mt 2793 2856 L
2595 3112 mt 2667 3112 L
2631 3076 mt 2631 3148 L
3826 3017 mt 3898 3017 L
3862 2981 mt 3862 3053 L
2938 3265 mt 3010 3265 L
2974 3229 mt 2974 3301 L
3538 2265 mt 3610 2265 L
3574 2229 mt 3574 2301 L
3885 1689 mt 3957 1689 L
3921 1653 mt 3921 1725 L
2966 3051 mt 3038 3051 L
3002 3015 mt 3002 3087 L
4820 2874 mt 4892 2874 L
4856 2838 mt 4856 2910 L
3505 1823 mt 3577 1823 L
3541 1787 mt 3541 1859 L
3370 2835 mt 3442 2835 L
3406 2799 mt 3406 2871 L
3110 3178 mt 3182 3178 L
3146 3142 mt 3146 3214 L
3855 2815 mt 3927 2815 L
3891 2779 mt 3891 2851 L
3129 2768 mt 3201 2768 L
3165 2732 mt 3165 2804 L
2407 2514 mt 2479 2514 L
2443 2478 mt 2443 2550 L
4156 1885 mt 4228 1885 L
4192 1849 mt 4192 1921 L
3387 3093 mt 3459 3093 L
3423 3057 mt 3423 3129 L
3921 2792 mt 3993 2792 L
3957 2756 mt 3957 2828 L
3208 1990 mt 3280 1990 L
3244 1954 mt 3244 2026 L
2368 4131 mt 2440 4131 L
2404 4095 mt 2404 4167 L
3940 2840 mt 4012 2840 L
3976 2804 mt 3976 2876 L
2680 2894 mt 2752 2894 L
2716 2858 mt 2716 2930 L
3762 2150 mt 3834 2150 L
3798 2114 mt 3798 2186 L
3711 2228 mt 3783 2228 L
3747 2192 mt 3747 2264 L
3027 2727 mt 3099 2727 L
3063 2691 mt 3063 2763 L
4961 1816 mt 5033 1816 L
4997 1780 mt 4997 1852 L
2917 2001 mt 2989 2001 L
2953 1965 mt 2953 2037 L
3521 3087 mt 3593 3087 L
3557 3051 mt 3557 3123 L
3638 1255 mt 3710 1255 L
3674 1219 mt 3674 1291 L
3255 2233 mt 3327 2233 L
3291 2197 mt 3291 2269 L
3278 2844 mt 3350 2844 L
3314 2808 mt 3314 2880 L
3053 1318 mt 3125 1318 L
3089 1282 mt 3089 1354 L
3184 2379 mt 3256 2379 L
3220 2343 mt 3220 2415 L
4532 2089 mt 4604 2089 L
4568 2053 mt 4568 2125 L
3594 2204 mt 3666 2204 L
3630 2168 mt 3630 2240 L
3421 1502 mt 3493 1502 L
3457 1466 mt 3457 1538 L
2468 1858 mt 2540 1858 L
2504 1822 mt 2504 1894 L
3226 3942 mt 3298 3942 L
3262 3906 mt 3262 3978 L
3740 1087 mt 3812 1087 L
3776 1051 mt 3776 1123 L
2821 3567 mt 2893 3567 L
2857 3531 mt 2857 3603 L
3153 2018 mt 3225 2018 L
3189 1982 mt 3189 2054 L
5413 2493 mt 5485 2493 L
5449 2457 mt 5449 2529 L
3983 1942 mt 4055 1942 L
4019 1906 mt 4019 1978 L
4407 2170 mt 4479 2170 L
4443 2134 mt 4443 2206 L
3273 1984 mt 3345 1984 L
3309 1948 mt 3309 2020 L
4435 1604 mt 4507 1604 L
4471 1568 mt 4471 1640 L
3555 4023 mt 3627 4023 L
3591 3987 mt 3591 4059 L
4425 2311 mt 4497 2311 L
4461 2275 mt 4461 2347 L
4067 2218 mt 4139 2218 L
4103 2182 mt 4103 2254 L
3319 3468 mt 3391 3468 L
3355 3432 mt 3355 3504 L
4021 2347 mt 4093 2347 L
4057 2311 mt 4057 2383 L
5245 2405 mt 5317 2405 L
5281 2369 mt 5281 2441 L
3347 1732 mt 3419 1732 L
3383 1696 mt 3383 1768 L
3768 2597 mt 3840 2597 L
3804 2561 mt 3804 2633 L
4941 2383 mt 5013 2383 L
4977 2347 mt 4977 2419 L
5321 1476 mt 5393 1476 L
5357 1440 mt 5357 1512 L
3007 1298 mt 3079 1298 L
3043 1262 mt 3043 1334 L
2251 1662 mt 2323 1662 L
2287 1626 mt 2287 1698 L
3820 2532 mt 3892 2532 L
3856 2496 mt 3856 2568 L
2040 2994 mt 2112 2994 L
2076 2958 mt 2076 3030 L
2851 2655 mt 2923 2655 L
2887 2619 mt 2887 2691 L
3717  724 mt 3789  724 L
3753  688 mt 3753  760 L
3066 2284 mt 3138 2284 L
3102 2248 mt 3102 2320 L
3313 1653 mt 3385 1653 L
3349 1617 mt 3349 1689 L
3946 2057 mt 4018 2057 L
3982 2021 mt 3982 2093 L
3166 2691 mt 3238 2691 L
3202 2655 mt 3202 2727 L
4522 1779 mt 4594 1779 L
4558 1743 mt 4558 1815 L
3091 2830 mt 3163 2830 L
3127 2794 mt 3127 2866 L
3791 2624 mt 3863 2624 L
3827 2588 mt 3827 2660 L
3020 3581 mt 3092 3581 L
3056 3545 mt 3056 3617 L
2394 3693 mt 2466 3693 L
2430 3657 mt 2430 3729 L
4416 2650 mt 4488 2650 L
4452 2614 mt 4452 2686 L
2126 3503 mt 2198 3503 L
2162 3467 mt 2162 3539 L
2888 2302 mt 2960 2302 L
2924 2266 mt 2924 2338 L
3307 3457 mt 3379 3457 L
3343 3421 mt 3343 3493 L
2545 1948 mt 2617 1948 L
2581 1912 mt 2581 1984 L
2327 2967 mt 2399 2967 L
2363 2931 mt 2363 3003 L
3723 2983 mt 3795 2983 L
3759 2947 mt 3759 3019 L
3809 2175 mt 3881 2175 L
3845 2139 mt 3845 2211 L
4054 2920 mt 4126 2920 L
4090 2884 mt 4090 2956 L
5211 2497 mt 5283 2497 L
5247 2461 mt 5247 2533 L
3302 2130 mt 3374 2130 L
3338 2094 mt 3338 2166 L
3633 2343 mt 3705 2343 L
3669 2307 mt 3669 2379 L
4298 2859 mt 4370 2859 L
4334 2823 mt 4334 2895 L
4869 2401 mt 4941 2401 L
4905 2365 mt 4905 2437 L
4087 2668 mt 4159 2668 L
4123 2632 mt 4123 2704 L
3482 2374 mt 3554 2374 L
3518 2338 mt 3518 2410 L
4981 2316 mt 5053 2316 L
5017 2280 mt 5017 2352 L
3549 1152 mt 3621 1152 L
3585 1116 mt 3585 1188 L
5047 1978 mt 5119 1978 L
5083 1942 mt 5083 2014 L
1907 4305 mt 1979 4305 L
1943 4269 mt 1943 4341 L
1259 2440 mt 1331 2440 L
1295 2404 mt 1295 2476 L
1805 3106 mt 1877 3106 L
1841 3070 mt 1841 3142 L
2765 3000 mt 2837 3000 L
2801 2964 mt 2801 3036 L
3891 2682 mt 3963 2682 L
3927 2646 mt 3927 2718 L
3000 1336 mt 3072 1336 L
3036 1300 mt 3036 1372 L
3694 2641 mt 3766 2641 L
3730 2605 mt 3730 2677 L
2063 2073 mt 2135 2073 L
2099 2037 mt 2099 2109 L
3666 2275 mt 3738 2275 L
3702 2239 mt 3702 2311 L
2993 2523 mt 3065 2523 L
3029 2487 mt 3029 2559 L
4282 1772 mt 4354 1772 L
4318 1736 mt 4318 1808 L
3610 1865 mt 3682 1865 L
3646 1829 mt 3646 1901 L
4100 1802 mt 4172 1802 L
4136 1766 mt 4136 1838 L
4472 2549 mt 4544 2549 L
4508 2513 mt 4508 2585 L
3706 1624 mt 3778 1624 L
3742 1588 mt 3742 1660 L
4094 2449 mt 4166 2449 L
4130 2413 mt 4130 2485 L
1766 2925 mt 1838 2925 L
1802 2889 mt 1802 2961 L
4542 3206 mt 4614 3206 L
4578 3170 mt 4578 3242 L
3296 3774 mt 3368 3774 L
3332 3738 mt 3332 3810 L
3867 2611 mt 3939 2611 L
3903 2575 mt 3903 2647 L
2903 2427 mt 2975 2427 L
2939 2391 mt 2939 2463 L
5531 2759 mt 5603 2759 L
5567 2723 mt 5567 2795 L
2513 2750 mt 2585 2750 L
2549 2714 mt 2549 2786 L
2490 1960 mt 2562 1960 L
2526 1924 mt 2526 1996 L
3780 2135 mt 3852 2135 L
3816 2099 mt 3816 2171 L
2773 3367 mt 2845 3367 L
2809 3331 mt 2809 3403 L
1619 3314 mt 1691 3314 L
1655 3278 mt 1655 3350 L
4236 2589 mt 4308 2589 L
4272 2553 mt 4272 2625 L
4338 1371 mt 4410 1371 L
4374 1335 mt 4374 1407 L
2881 2935 mt 2953 2935 L
2917 2899 mt 2917 2971 L
2555 3425 mt 2627 3425 L
2591 3389 mt 2591 3461 L
3544 3227 mt 3616 3227 L
3580 3191 mt 3580 3263 L
3751 3099 mt 3823 3099 L
3787 3063 mt 3787 3135 L
3873 3610 mt 3945 3610 L
3909 3574 mt 3909 3646 L
2697 3349 mt 2769 3349 L
2733 3313 mt 2733 3385 L
3996 1966 mt 4068 1966 L
4032 1930 mt 4032 2002 L
3336 1614 mt 3408 1614 L
3372 1578 mt 3372 1650 L
4184 2029 mt 4256 2029 L
4220 1993 mt 4220 2065 L
2723 2199 mt 2795 2199 L
2759 2163 mt 2759 2235 L
2183 3711 mt 2255 3711 L
2219 3675 mt 2219 3747 L
2910 3213 mt 2982 3213 L
2946 3177 mt 2946 3249 L
2813 1388 mt 2885 1388 L
2849 1352 mt 2849 1424 L
2586 2078 mt 2658 2078 L
2622 2042 mt 2622 2114 L
4608 1995 mt 4680 1995 L
4644 1959 mt 4644 2031 L
3527 2392 mt 3599 2392 L
3563 2356 mt 3563 2428 L
4330 1572 mt 4402 1572 L
4366 1536 mt 4366 1608 L
3850 2619 mt 3922 2619 L
3886 2583 mt 3886 2655 L
3232 2115 mt 3304 2115 L
3268 2079 mt 3268 2151 L
4274 2879 mt 4346 2879 L
4310 2843 mt 4310 2915 L
4805 1121 mt 4877 1121 L
4841 1085 mt 4841 1157 L
3861 3242 mt 3933 3242 L
3897 3206 mt 3897 3278 L
3683 2864 mt 3755 2864 L
3719 2828 mt 3719 2900 L
3616 3157 mt 3688 3157 L
3652 3121 mt 3652 3193 L
4760 3540 mt 4832 3540 L
4796 3504 mt 4796 3576 L
2267 2528 mt 2339 2528 L
2303 2492 mt 2303 2564 L
2797 1904 mt 2869 1904 L
2833 1868 mt 2833 1940 L
4142 1593 mt 4214 1593 L
4178 1557 mt 4178 1629 L
4243 1923 mt 4315 1923 L
4279 1887 mt 4279 1959 L
4191 2541 mt 4263 2541 L
4227 2505 mt 4227 2577 L
2444 3191 mt 2516 3191 L
2480 3155 mt 2480 3227 L
2201 2637 mt 2273 2637 L
2237 2601 mt 2237 2673 L
3964 2506 mt 4036 2506 L
4000 2470 mt 4000 2542 L
2634 3063 mt 2706 3063 L
2670 3027 mt 2670 3099 L
5096 1878 mt 5168 1878 L
5132 1842 mt 5132 1914 L
2836 2510 mt 2908 2510 L
2872 2474 mt 2872 2546 L
4886 2488 mt 4958 2488 L
4922 2452 mt 4922 2524 L
2575 2796 mt 2647 2796 L
2611 2760 mt 2611 2832 L
4322 1809 mt 4394 1809 L
4358 1773 mt 4358 1845 L
4574 2035 mt 4646 2035 L
4610 1999 mt 4610 2071 L
5468 1277 mt 5540 1277 L
5504 1241 mt 5504 1313 L
1674 3257 mt 1746 3257 L
1710 3221 mt 1710 3293 L
4259 1583 mt 4331 1583 L
4295 1547 mt 4295 1619 L
3977 1462 mt 4049 1462 L
4013 1426 mt 4013 1498 L
3438 2484 mt 3510 2484 L
3474 2448 mt 3474 2520 L
gs 899 414 5363 4203 rc
gr

0 sg
2752 5104 mt 
(\(S,LFCC,GMM\)) s
 482 3277 mt  -90 rotate
(\(S,SSC,GMM\)) s
90 rotate
2975  223 mt 
(Corr = 0.32) s

end %%Color Dict

eplot
%%EndObject

epage
end

showpage

%%Trailer
%%EOF
