%!PS-Adobe-3.0 EPSF-3.0
%%Creator: MATLAB, The Mathworks, Inc. Version 7.7.0.471 (R2008b). Operating System: Microsoft Windows XP.
%%Title: Pictures\main_zoo_mvar_analysis_data_BMI_xcorr_bmi_p1_k2_5_9.eps
%%CreationDate: 10/26/2009  05:44:32
%%DocumentNeededFonts: Helvetica
%%DocumentProcessColors: Cyan Magenta Yellow Black
%%LanguageLevel: 2
%%Pages: 1
%%BoundingBox:    32   180   546   616
%%EndComments

%%BeginProlog
% MathWorks dictionary
/MathWorks 160 dict begin
% definition operators
/bdef {bind def} bind def
/ldef {load def} bind def
/xdef {exch def} bdef
/xstore {exch store} bdef
% operator abbreviations
/c  /clip ldef
/cc /concat ldef
/cp /closepath ldef
/gr /grestore ldef
/gs /gsave ldef
/mt /moveto ldef
/np /newpath ldef
/cm /currentmatrix ldef
/sm /setmatrix ldef
/rm /rmoveto ldef
/rl /rlineto ldef
/s {show newpath} bdef
/sc {setcmykcolor} bdef
/sr /setrgbcolor ldef
/sg /setgray ldef
/w /setlinewidth ldef
/j /setlinejoin ldef
/cap /setlinecap ldef
/rc {rectclip} bdef
/rf {rectfill} bdef
% page state control
/pgsv () def
/bpage {/pgsv save def} bdef
/epage {pgsv restore} bdef
/bplot /gsave ldef
/eplot {stroke grestore} bdef
% orientation switch
/portraitMode 0 def /landscapeMode 1 def /rotateMode 2 def
% coordinate system mappings
/dpi2point 0 def
% font control
/FontSize 0 def
/FMS {/FontSize xstore findfont [FontSize 0 0 FontSize neg 0 0]
  makefont setfont} bdef
/ISOLatin1Encoding where {pop /WindowsLatin1Encoding 256 array bdef
ISOLatin1Encoding WindowsLatin1Encoding copy pop
/.notdef/.notdef/quotesinglbase/florin/quotedblbase/ellipsis/dagger
/daggerdbl/circumflex/perthousand/Scaron/guilsinglleft/OE/.notdef/.notdef
/.notdef/.notdef/quoteleft/quoteright/quotedblleft/quotedblright/bullet
/endash/emdash/tilde/trademark/scaron/guilsinglright/oe/.notdef/.notdef
/Ydieresis WindowsLatin1Encoding 128 32 getinterval astore pop}
{/WindowsLatin1Encoding StandardEncoding bdef} ifelse
/reencode {exch dup where {pop load} {pop StandardEncoding} ifelse
  exch dup 3 1 roll findfont dup length dict begin
  { 1 index /FID ne {def}{pop pop} ifelse } forall
  /Encoding exch def currentdict end definefont pop} bdef
/isroman {findfont /CharStrings get /Agrave known} bdef
/FMSR {3 1 roll 1 index dup isroman {reencode} {pop pop} ifelse
  exch FMS} bdef
/csm {1 dpi2point div -1 dpi2point div scale neg translate
 dup landscapeMode eq {pop -90 rotate}
  {rotateMode eq {90 rotate} if} ifelse} bdef
% line types: solid, dotted, dashed, dotdash
/SO { [] 0 setdash } bdef
/DO { [.5 dpi2point mul 4 dpi2point mul] 0 setdash } bdef
/DA { [6 dpi2point mul] 0 setdash } bdef
/DD { [.5 dpi2point mul 4 dpi2point mul 6 dpi2point mul 4
  dpi2point mul] 0 setdash } bdef
% macros for lines and objects
/L {lineto stroke} bdef
/MP {3 1 roll moveto 1 sub {rlineto} repeat} bdef
/AP {{rlineto} repeat} bdef
/PDlw -1 def
/W {/PDlw currentlinewidth def setlinewidth} def
/PP {closepath eofill} bdef
/DP {closepath stroke} bdef
/MR {4 -2 roll moveto dup  0 exch rlineto exch 0 rlineto
  neg 0 exch rlineto closepath} bdef
/FR {MR stroke} bdef
/PR {MR fill} bdef
/L1i {{currentfile picstr readhexstring pop} image} bdef
/tMatrix matrix def
/MakeOval {newpath tMatrix currentmatrix pop translate scale
0 0 1 0 360 arc tMatrix setmatrix} bdef
/FO {MakeOval stroke} bdef
/PO {MakeOval fill} bdef
/PD {currentlinewidth 2 div 0 360 arc fill
   PDlw -1 eq not {PDlw w /PDlw -1 def} if} def
/FA {newpath tMatrix currentmatrix pop translate scale
  0 0 1 5 -2 roll arc tMatrix setmatrix stroke} bdef
/PA {newpath tMatrix currentmatrix pop	translate 0 0 moveto scale
  0 0 1 5 -2 roll arc closepath tMatrix setmatrix fill} bdef
/FAn {newpath tMatrix currentmatrix pop translate scale
  0 0 1 5 -2 roll arcn tMatrix setmatrix stroke} bdef
/PAn {newpath tMatrix currentmatrix pop translate 0 0 moveto scale
  0 0 1 5 -2 roll arcn closepath tMatrix setmatrix fill} bdef
/vradius 0 def /hradius 0 def /lry 0 def
/lrx 0 def /uly 0 def /ulx 0 def /rad 0 def
/MRR {/vradius xdef /hradius xdef /lry xdef /lrx xdef /uly xdef
  /ulx xdef newpath tMatrix currentmatrix pop ulx hradius add uly
  vradius add translate hradius vradius scale 0 0 1 180 270 arc 
  tMatrix setmatrix lrx hradius sub uly vradius add translate
  hradius vradius scale 0 0 1 270 360 arc tMatrix setmatrix
  lrx hradius sub lry vradius sub translate hradius vradius scale
  0 0 1 0 90 arc tMatrix setmatrix ulx hradius add lry vradius sub
  translate hradius vradius scale 0 0 1 90 180 arc tMatrix setmatrix
  closepath} bdef
/FRR {MRR stroke } bdef
/PRR {MRR fill } bdef
/MlrRR {/lry xdef /lrx xdef /uly xdef /ulx xdef /rad lry uly sub 2 div def
  newpath tMatrix currentmatrix pop ulx rad add uly rad add translate
  rad rad scale 0 0 1 90 270 arc tMatrix setmatrix lrx rad sub lry rad
  sub translate rad rad scale 0 0 1 270 90 arc tMatrix setmatrix
  closepath} bdef
/FlrRR {MlrRR stroke } bdef
/PlrRR {MlrRR fill } bdef
/MtbRR {/lry xdef /lrx xdef /uly xdef /ulx xdef /rad lrx ulx sub 2 div def
  newpath tMatrix currentmatrix pop ulx rad add uly rad add translate
  rad rad scale 0 0 1 180 360 arc tMatrix setmatrix lrx rad sub lry rad
  sub translate rad rad scale 0 0 1 0 180 arc tMatrix setmatrix
  closepath} bdef
/FtbRR {MtbRR stroke } bdef
/PtbRR {MtbRR fill } bdef
/stri 6 array def /dtri 6 array def
/smat 6 array def /dmat 6 array def
/tmat1 6 array def /tmat2 6 array def /dif 3 array def
/asub {/ind2 exch def /ind1 exch def dup dup
  ind1 get exch ind2 get sub exch } bdef
/tri_to_matrix {
  2 0 asub 3 1 asub 4 0 asub 5 1 asub
  dup 0 get exch 1 get 7 -1 roll astore } bdef
/compute_transform {
  dmat dtri tri_to_matrix tmat1 invertmatrix 
  smat stri tri_to_matrix tmat2 concatmatrix } bdef
/ds {stri astore pop} bdef
/dt {dtri astore pop} bdef
/db {2 copy /cols xdef /rows xdef mul dup 3 mul string
  currentfile 
  3 index 0 eq {/ASCIIHexDecode filter}
  {/ASCII85Decode filter 3 index 2 eq {/RunLengthDecode filter} if }
  ifelse exch readstring pop
  dup 0 3 index getinterval /rbmap xdef
  dup 2 index dup getinterval /gbmap xdef
  1 index dup 2 mul exch getinterval /bbmap xdef pop pop}bdef
/it {gs np dtri aload pop moveto lineto lineto cp c
  cols rows 8 compute_transform 
  rbmap gbmap bbmap true 3 colorimage gr}bdef
/il {newpath moveto lineto stroke}bdef
currentdict end def
%%EndProlog

%%BeginSetup
MathWorks begin

0 cap

end
%%EndSetup

%%Page: 1 1
%%BeginPageSetup
%%PageBoundingBox:    32   180   546   616
MathWorks begin
bpage
%%EndPageSetup

%%BeginObject: obj1
bplot

/dpi2point 12 def
portraitMode 0216 7344 csm

  174   -48  6173  5231 rc
85 dict begin %Colortable dictionary
/c0 { 0.000000 0.000000 0.000000 sr} bdef
/c1 { 1.000000 1.000000 1.000000 sr} bdef
/c2 { 0.900000 0.000000 0.000000 sr} bdef
/c3 { 0.000000 0.820000 0.000000 sr} bdef
/c4 { 0.000000 0.000000 0.800000 sr} bdef
/c5 { 0.910000 0.820000 0.320000 sr} bdef
/c6 { 1.000000 0.260000 0.820000 sr} bdef
/c7 { 0.000000 0.820000 0.820000 sr} bdef
c0
1 j
1 sg
   0    0 6919 5187 rf
6 w
0 4202 5362 0 0 -4202 899 4616 4 MP
PP
-5362 0 0 4202 5362 0 0 -4202 899 4616 5 MP stroke
4 w
DO
SO
6 w
0 sg
 899  414 mt 6261  414 L
 899 4616 mt 6261 4616 L
6261 4616 mt 6261  414 L
 899 4616 mt  899  414 L
 899 4616 mt 6261 4616 L
 899 4616 mt  899  414 L
1971 4616 mt 1971 4562 L
1971  415 mt 1971  468 L
%%IncludeResource: font Helvetica
/Helvetica /WindowsLatin1Encoding 240 FMSR

1805 4873 mt 
(0.2) s
3043 4616 mt 3043 4562 L
3043  415 mt 3043  468 L
2877 4873 mt 
(0.4) s
4116 4616 mt 4116 4562 L
4116  415 mt 4116  468 L
3950 4873 mt 
(0.6) s
5188 4616 mt 5188 4562 L
5188  415 mt 5188  468 L
5022 4873 mt 
(0.8) s
 899 4195 mt  952 4195 L
6261 4195 mt 6207 4195 L
 531 4284 mt 
(0.1) s
 899 3775 mt  952 3775 L
6261 3775 mt 6207 3775 L
 531 3864 mt 
(0.2) s
 899 3355 mt  952 3355 L
6261 3355 mt 6207 3355 L
 531 3444 mt 
(0.3) s
 899 2935 mt  952 2935 L
6261 2935 mt 6207 2935 L
 531 3024 mt 
(0.4) s
 899 2515 mt  952 2515 L
6261 2515 mt 6207 2515 L
 531 2604 mt 
(0.5) s
 899 2095 mt  952 2095 L
6261 2095 mt 6207 2095 L
 531 2184 mt 
(0.6) s
 899 1675 mt  952 1675 L
6261 1675 mt 6207 1675 L
 531 1764 mt 
(0.7) s
 899 1255 mt  952 1255 L
6261 1255 mt 6207 1255 L
 531 1344 mt 
(0.8) s
 899  834 mt  952  834 L
6261  834 mt 6207  834 L
 531  923 mt 
(0.9) s
 899  414 mt 6261  414 L
 899 4616 mt 6261 4616 L
6261 4616 mt 6261  414 L
 899 4616 mt  899  414 L
gs 899 414 5363 4203 rc
gr

/c8 { 0.000000 0.000000 1.000000 sr} bdef
c8
5516  523 mt 5588  523 L
5552  487 mt 5552  559 L
4175  606 mt 4247  606 L
4211  570 mt 4211  642 L
5908 1448 mt 5980 1448 L
5944 1412 mt 5944 1484 L
4558 3345 mt 4630 3345 L
4594 3309 mt 4594 3381 L
4872  556 mt 4944  556 L
4908  520 mt 4908  592 L
6093  675 mt 6165  675 L
6129  639 mt 6129  711 L
1262 4574 mt 1334 4574 L
1298 4538 mt 1298 4610 L
1855 1083 mt 1927 1083 L
1891 1047 mt 1891 1119 L
1315  558 mt 1387  558 L
1351  522 mt 1351  594 L
6218  781 mt 6290  781 L
6254  745 mt 6254  817 L
1008  765 mt 1080  765 L
1044  729 mt 1044  801 L
5320  740 mt 5392  740 L
5356  704 mt 5356  776 L
6172 1212 mt 6244 1212 L
6208 1176 mt 6208 1248 L
5163 1194 mt 5235 1194 L
5199 1158 mt 5199 1230 L
6216  719 mt 6288  719 L
6252  683 mt 6252  755 L
2774 1081 mt 2846 1081 L
2810 1045 mt 2810 1117 L
3773 4465 mt 3845 4465 L
3809 4429 mt 3809 4501 L
4689 1328 mt 4761 1328 L
4725 1292 mt 4725 1364 L
3774 1385 mt 3846 1385 L
3810 1349 mt 3810 1421 L
4101 1593 mt 4173 1593 L
4137 1557 mt 4137 1629 L
4849 3608 mt 4921 3608 L
4885 3572 mt 4885 3644 L
5381 4589 mt 5453 4589 L
5417 4553 mt 5417 4625 L
1840  880 mt 1912  880 L
1876  844 mt 1876  916 L
5103 1193 mt 5175 1193 L
5139 1157 mt 5139 1229 L
6220 2547 mt 6292 2547 L
6256 2511 mt 6256 2583 L
6089  736 mt 6161  736 L
6125  700 mt 6125  772 L
4432 2887 mt 4504 2887 L
4468 2851 mt 4468 2923 L
6180 4081 mt 6252 4081 L
6216 4045 mt 6216 4117 L
1396  487 mt 1468  487 L
1432  451 mt 1432  523 L
1533  635 mt 1605  635 L
1569  599 mt 1569  671 L
5072 1585 mt 5144 1585 L
5108 1549 mt 5108 1621 L
1230  519 mt 1302  519 L
1266  483 mt 1266  555 L
1073  792 mt 1145  792 L
1109  756 mt 1109  828 L
4145 3518 mt 4217 3518 L
4181 3482 mt 4181 3554 L
5840  638 mt 5912  638 L
5876  602 mt 5876  674 L
1996  699 mt 2068  699 L
2032  663 mt 2032  735 L
1655 1623 mt 1727 1623 L
1691 1587 mt 1691 1659 L
4295 1263 mt 4367 1263 L
4331 1227 mt 4331 1299 L
5967 1354 mt 6039 1354 L
6003 1318 mt 6003 1390 L
1807 1667 mt 1879 1667 L
1843 1631 mt 1843 1703 L
6070  881 mt 6142  881 L
6106  845 mt 6106  917 L
6197  452 mt 6269  452 L
6233  416 mt 6233  488 L
6084  776 mt 6156  776 L
6120  740 mt 6120  812 L
4209 4054 mt 4281 4054 L
4245 4018 mt 4245 4090 L
5262 4410 mt 5334 4410 L
5298 4374 mt 5298 4446 L
5866 4584 mt 5938 4584 L
5902 4548 mt 5902 4620 L
2112  746 mt 2184  746 L
2148  710 mt 2148  782 L
4042 4212 mt 4114 4212 L
4078 4176 mt 4078 4248 L
5291 2356 mt 5363 2356 L
5327 2320 mt 5327 2392 L
6174 2807 mt 6246 2807 L
6210 2771 mt 6210 2843 L
3505 4424 mt 3577 4424 L
3541 4388 mt 3541 4460 L
2232  459 mt 2304  459 L
2268  423 mt 2268  495 L
4995 1020 mt 5067 1020 L
5031  984 mt 5031 1056 L
3098 2100 mt 3170 2100 L
3134 2064 mt 3134 2136 L
2754  420 mt 2826  420 L
2790  384 mt 2790  456 L
4457 1363 mt 4529 1363 L
4493 1327 mt 4493 1399 L
1225  618 mt 1297  618 L
1261  582 mt 1261  654 L
6199  511 mt 6271  511 L
6235  475 mt 6235  547 L
 863  893 mt  935  893 L
 899  857 mt  899  929 L
6175 1115 mt 6247 1115 L
6211 1079 mt 6211 1151 L
4688 4588 mt 4760 4588 L
4724 4552 mt 4724 4624 L
 924  545 mt  996  545 L
 960  509 mt  960  581 L
5711 4380 mt 5783 4380 L
5747 4344 mt 5747 4416 L
3843 1255 mt 3915 1255 L
3879 1219 mt 3879 1291 L
1217  612 mt 1289  612 L
1253  576 mt 1253  648 L
6170 1038 mt 6242 1038 L
6206 1002 mt 6206 1074 L
3913  565 mt 3985  565 L
3949  529 mt 3949  601 L
5374 1553 mt 5446 1553 L
5410 1517 mt 5410 1589 L
1539  642 mt 1611  642 L
1575  606 mt 1575  678 L
2880  807 mt 2952  807 L
2916  771 mt 2916  843 L
4897 3861 mt 4969 3861 L
4933 3825 mt 4933 3897 L
6193 2490 mt 6265 2490 L
6229 2454 mt 6229 2526 L
1081 3983 mt 1153 3983 L
1117 3947 mt 1117 4019 L
2559  474 mt 2631  474 L
2595  438 mt 2595  510 L
1009  647 mt 1081  647 L
1045  611 mt 1045  683 L
1589 4348 mt 1661 4348 L
1625 4312 mt 1625 4384 L
3667 1820 mt 3739 1820 L
3703 1784 mt 3703 1856 L
5768 1075 mt 5840 1075 L
5804 1039 mt 5804 1111 L
6113  629 mt 6185  629 L
6149  593 mt 6149  665 L
 863 2837 mt  935 2837 L
 899 2801 mt  899 2873 L
 872  468 mt  944  468 L
 908  432 mt  908  504 L
2634 1382 mt 2706 1382 L
2670 1346 mt 2670 1418 L
2737 3072 mt 2809 3072 L
2773 3036 mt 2773 3108 L
5338  423 mt 5410  423 L
5374  387 mt 5374  459 L
3868  954 mt 3940  954 L
3904  918 mt 3904  990 L
1754 1705 mt 1826 1705 L
1790 1669 mt 1790 1741 L
4336  622 mt 4408  622 L
4372  586 mt 4372  658 L
6071  727 mt 6143  727 L
6107  691 mt 6107  763 L
5725 4464 mt 5797 4464 L
5761 4428 mt 5761 4500 L
6075 1701 mt 6147 1701 L
6111 1665 mt 6111 1737 L
 911 1019 mt  983 1019 L
 947  983 mt  947 1055 L
6076  564 mt 6148  564 L
6112  528 mt 6112  600 L
2058  787 mt 2130  787 L
2094  751 mt 2094  823 L
2290 2283 mt 2362 2283 L
2326 2247 mt 2326 2319 L
1613 3702 mt 1685 3702 L
1649 3666 mt 1649 3738 L
6209 4574 mt 6281 4574 L
6245 4538 mt 6245 4610 L
4512 3343 mt 4584 3343 L
4548 3307 mt 4548 3379 L
 869  457 mt  941  457 L
 905  421 mt  905  493 L
1153 1962 mt 1225 1962 L
1189 1926 mt 1189 1998 L
6107  468 mt 6179  468 L
6143  432 mt 6143  504 L
6187  767 mt 6259  767 L
6223  731 mt 6223  803 L
6204 1206 mt 6276 1206 L
6240 1170 mt 6240 1242 L
3841 2575 mt 3913 2575 L
3877 2539 mt 3877 2611 L
1126 4466 mt 1198 4466 L
1162 4430 mt 1162 4502 L
2730 1809 mt 2802 1809 L
2766 1773 mt 2766 1845 L
6164  482 mt 6236  482 L
6200  446 mt 6200  518 L
5903  926 mt 5975  926 L
5939  890 mt 5939  962 L
6153  772 mt 6225  772 L
6189  736 mt 6189  808 L
2966 1911 mt 3038 1911 L
3002 1875 mt 3002 1947 L
5485  760 mt 5557  760 L
5521  724 mt 5521  796 L
6153  885 mt 6225  885 L
6189  849 mt 6189  921 L
5713  430 mt 5785  430 L
5749  394 mt 5749  466 L
1535 1822 mt 1607 1822 L
1571 1786 mt 1571 1858 L
4873  864 mt 4945  864 L
4909  828 mt 4909  900 L
1703 3089 mt 1775 3089 L
1739 3053 mt 1739 3125 L
3549 2853 mt 3621 2853 L
3585 2817 mt 3585 2889 L
5931  545 mt 6003  545 L
5967  509 mt 5967  581 L
6191 3947 mt 6263 3947 L
6227 3911 mt 6227 3983 L
3066 1176 mt 3138 1176 L
3102 1140 mt 3102 1212 L
1188 1707 mt 1260 1707 L
1224 1671 mt 1224 1743 L
5208 1062 mt 5280 1062 L
5244 1026 mt 5244 1098 L
4477  452 mt 4549  452 L
4513  416 mt 4513  488 L
2954  660 mt 3026  660 L
2990  624 mt 2990  696 L
4238 1017 mt 4310 1017 L
4274  981 mt 4274 1053 L
1608  560 mt 1680  560 L
1644  524 mt 1644  596 L
6220 1143 mt 6292 1143 L
6256 1107 mt 6256 1179 L
1599 3151 mt 1671 3151 L
1635 3115 mt 1635 3187 L
4584 1077 mt 4656 1077 L
4620 1041 mt 4620 1113 L
6052  894 mt 6124  894 L
6088  858 mt 6088  930 L
1175  705 mt 1247  705 L
1211  669 mt 1211  741 L
6181 1038 mt 6253 1038 L
6217 1002 mt 6217 1074 L
5459 2084 mt 5531 2084 L
5495 2048 mt 5495 2120 L
6140 3609 mt 6212 3609 L
6176 3573 mt 6176 3645 L
4926 1312 mt 4998 1312 L
4962 1276 mt 4962 1348 L
2082 1076 mt 2154 1076 L
2118 1040 mt 2118 1112 L
5431  600 mt 5503  600 L
5467  564 mt 5467  636 L
1096 4610 mt 1168 4610 L
1132 4574 mt 1132 4646 L
6156  569 mt 6228  569 L
6192  533 mt 6192  605 L
2823  591 mt 2895  591 L
2859  555 mt 2859  627 L
2565 2452 mt 2637 2452 L
2601 2416 mt 2601 2488 L
1751 1915 mt 1823 1915 L
1787 1879 mt 1787 1951 L
5876  547 mt 5948  547 L
5912  511 mt 5912  583 L
4958 3880 mt 5030 3880 L
4994 3844 mt 4994 3916 L
4428  720 mt 4500  720 L
4464  684 mt 4464  756 L
3016 1602 mt 3088 1602 L
3052 1566 mt 3052 1638 L
6213 1104 mt 6285 1104 L
6249 1068 mt 6249 1140 L
4001  938 mt 4073  938 L
4037  902 mt 4037  974 L
1186  490 mt 1258  490 L
1222  454 mt 1222  526 L
3735  612 mt 3807  612 L
3771  576 mt 3771  648 L
3569  645 mt 3641  645 L
3605  609 mt 3605  681 L
1882  931 mt 1954  931 L
1918  895 mt 1918  967 L
2070  672 mt 2142  672 L
2106  636 mt 2106  708 L
 900  639 mt  972  639 L
 936  603 mt  936  675 L
 993 1428 mt 1065 1428 L
1029 1392 mt 1029 1464 L
3816 1776 mt 3888 1776 L
3852 1740 mt 3852 1812 L
3593 1999 mt 3665 1999 L
3629 1963 mt 3629 2035 L
4830 1763 mt 4902 1763 L
4866 1727 mt 4866 1799 L
2698 3297 mt 2770 3297 L
2734 3261 mt 2734 3333 L
6065 2445 mt 6137 2445 L
6101 2409 mt 6101 2481 L
6074 3001 mt 6146 3001 L
6110 2965 mt 6110 3037 L
5933 2108 mt 6005 2108 L
5969 2072 mt 5969 2144 L
 874 2145 mt  946 2145 L
 910 2109 mt  910 2181 L
1146  857 mt 1218  857 L
1182  821 mt 1182  893 L
1927  825 mt 1999  825 L
1963  789 mt 1963  861 L
1257  485 mt 1329  485 L
1293  449 mt 1293  521 L
1931  569 mt 2003  569 L
1967  533 mt 1967  605 L
3763 2147 mt 3835 2147 L
3799 2111 mt 3799 2183 L
6204 1507 mt 6276 1507 L
6240 1471 mt 6240 1543 L
5415  463 mt 5487  463 L
5451  427 mt 5451  499 L
6025  864 mt 6097  864 L
6061  828 mt 6061  900 L
4271  417 mt 4343  417 L
4307  381 mt 4307  453 L
 888  468 mt  960  468 L
 924  432 mt  924  504 L
5801  823 mt 5873  823 L
5837  787 mt 5837  859 L
1672  670 mt 1744  670 L
1708  634 mt 1708  706 L
1276 4464 mt 1348 4464 L
1312 4428 mt 1312 4500 L
5915  486 mt 5987  486 L
5951  450 mt 5951  522 L
5862  516 mt 5934  516 L
5898  480 mt 5898  552 L
1638  614 mt 1710  614 L
1674  578 mt 1674  650 L
 868 1692 mt  940 1692 L
 904 1656 mt  904 1728 L
5248  473 mt 5320  473 L
5284  437 mt 5284  509 L
6138 1287 mt 6210 1287 L
6174 1251 mt 6174 1323 L
4701 2560 mt 4773 2560 L
4737 2524 mt 4737 2596 L
2540  444 mt 2612  444 L
2576  408 mt 2576  480 L
1005 3377 mt 1077 3377 L
1041 3341 mt 1041 3413 L
4496 3732 mt 4568 3732 L
4532 3696 mt 4532 3768 L
1908  433 mt 1980  433 L
1944  397 mt 1944  469 L
4940 1325 mt 5012 1325 L
4976 1289 mt 4976 1361 L
4223 1042 mt 4295 1042 L
4259 1006 mt 4259 1078 L
5561  461 mt 5633  461 L
5597  425 mt 5597  497 L
5638  884 mt 5710  884 L
5674  848 mt 5674  920 L
2118 1579 mt 2190 1579 L
2154 1543 mt 2154 1615 L
1004 2342 mt 1076 2342 L
1040 2306 mt 1040 2378 L
6195  772 mt 6267  772 L
6231  736 mt 6231  808 L
6222  490 mt 6294  490 L
6258  454 mt 6258  526 L
5569  420 mt 5641  420 L
5605  384 mt 5605  456 L
5900  640 mt 5972  640 L
5936  604 mt 5936  676 L
1802 4436 mt 1874 4436 L
1838 4400 mt 1838 4472 L
2353  532 mt 2425  532 L
2389  496 mt 2389  568 L
2353 2123 mt 2425 2123 L
2389 2087 mt 2389 2159 L
6217  685 mt 6289  685 L
6253  649 mt 6253  721 L
6208  576 mt 6280  576 L
6244  540 mt 6244  612 L
6175  524 mt 6247  524 L
6211  488 mt 6211  560 L
5979 2739 mt 6051 2739 L
6015 2703 mt 6015 2775 L
5210 1737 mt 5282 1737 L
5246 1701 mt 5246 1773 L
5284  591 mt 5356  591 L
5320  555 mt 5320  627 L
6140 1413 mt 6212 1413 L
6176 1377 mt 6176 1449 L
6211 4374 mt 6283 4374 L
6247 4338 mt 6247 4410 L
5294 1908 mt 5366 1908 L
5330 1872 mt 5330 1944 L
6217  414 mt 6289  414 L
6253  378 mt 6253  450 L
2034 4108 mt 2106 4108 L
2070 4072 mt 2070 4144 L
1391  420 mt 1463  420 L
1427  384 mt 1427  456 L
6209 1887 mt 6281 1887 L
6245 1851 mt 6245 1923 L
4599  565 mt 4671  565 L
4635  529 mt 4635  601 L
6215 4574 mt 6287 4574 L
6251 4538 mt 6251 4610 L
6105  428 mt 6177  428 L
6141  392 mt 6141  464 L
3874  845 mt 3946  845 L
3910  809 mt 3910  881 L
6090 2805 mt 6162 2805 L
6126 2769 mt 6126 2841 L
5632 4355 mt 5704 4355 L
5668 4319 mt 5668 4391 L
6222  448 mt 6294  448 L
6258  412 mt 6258  484 L
5533 2491 mt 5605 2491 L
5569 2455 mt 5569 2527 L
1046  439 mt 1118  439 L
1082  403 mt 1082  475 L
2194 1156 mt 2266 1156 L
2230 1120 mt 2230 1192 L
6154 1231 mt 6226 1231 L
6190 1195 mt 6190 1267 L
6213 3690 mt 6285 3690 L
6249 3654 mt 6249 3726 L
6218 3998 mt 6290 3998 L
6254 3962 mt 6254 4034 L
4855 1108 mt 4927 1108 L
4891 1072 mt 4891 1144 L
2057  648 mt 2129  648 L
2093  612 mt 2093  684 L
2039 1133 mt 2111 1133 L
2075 1097 mt 2075 1169 L
6111  567 mt 6183  567 L
6147  531 mt 6147  603 L
1533 1196 mt 1605 1196 L
1569 1160 mt 1569 1232 L
 863 3858 mt  935 3858 L
 899 3822 mt  899 3894 L
6192 3740 mt 6264 3740 L
6228 3704 mt 6228 3776 L
6218 1661 mt 6290 1661 L
6254 1625 mt 6254 1697 L
 955  920 mt 1027  920 L
 991  884 mt  991  956 L
3123  440 mt 3195  440 L
3159  404 mt 3159  476 L
6224 3972 mt 6296 3972 L
6260 3936 mt 6260 4008 L
6224 3737 mt 6296 3737 L
6260 3701 mt 6260 3773 L
4736 2672 mt 4808 2672 L
4772 2636 mt 4772 2708 L
3188 1651 mt 3260 1651 L
3224 1615 mt 3224 1687 L
3467  691 mt 3539  691 L
3503  655 mt 3503  727 L
5550 4599 mt 5622 4599 L
5586 4563 mt 5586 4635 L
6210  744 mt 6282  744 L
6246  708 mt 6246  780 L
6192 1531 mt 6264 1531 L
6228 1495 mt 6228 1567 L
6149 2629 mt 6221 2629 L
6185 2593 mt 6185 2665 L
6111 1989 mt 6183 1989 L
6147 1953 mt 6147 2025 L
6173 3116 mt 6245 3116 L
6209 3080 mt 6209 3152 L
3368  484 mt 3440  484 L
3404  448 mt 3404  520 L
1089 2102 mt 1161 2102 L
1125 2066 mt 1125 2138 L
2683 2081 mt 2755 2081 L
2719 2045 mt 2719 2117 L
1294 4347 mt 1366 4347 L
1330 4311 mt 1330 4383 L
5862 4449 mt 5934 4449 L
5898 4413 mt 5898 4485 L
1948  819 mt 2020  819 L
1984  783 mt 1984  855 L
4785 1269 mt 4857 1269 L
4821 1233 mt 4821 1305 L
6192 3663 mt 6264 3663 L
6228 3627 mt 6228 3699 L
1950  588 mt 2022  588 L
1986  552 mt 1986  624 L
3397 4086 mt 3469 4086 L
3433 4050 mt 3433 4122 L
6185 2336 mt 6257 2336 L
6221 2300 mt 6221 2372 L
6144  453 mt 6216  453 L
6180  417 mt 6180  489 L
6216  430 mt 6288  430 L
6252  394 mt 6252  466 L
5808 1006 mt 5880 1006 L
5844  970 mt 5844 1042 L
5620 1973 mt 5692 1973 L
5656 1937 mt 5656 2009 L
6053 1336 mt 6125 1336 L
6089 1300 mt 6089 1372 L
 881 1600 mt  953 1600 L
 917 1564 mt  917 1636 L
 899 3684 mt  971 3684 L
 935 3648 mt  935 3720 L
6189 1652 mt 6261 1652 L
6225 1616 mt 6225 1688 L
6158 1120 mt 6230 1120 L
6194 1084 mt 6194 1156 L
3727 1693 mt 3799 1693 L
3763 1657 mt 3763 1729 L
2725  433 mt 2797  433 L
2761  397 mt 2761  469 L
1479  480 mt 1551  480 L
1515  444 mt 1515  516 L
5602 2347 mt 5674 2347 L
5638 2311 mt 5638 2383 L
6220  711 mt 6292  711 L
6256  675 mt 6256  747 L
5995 1029 mt 6067 1029 L
6031  993 mt 6031 1065 L
6122 4152 mt 6194 4152 L
6158 4116 mt 6158 4188 L
2395  495 mt 2467  495 L
2431  459 mt 2431  531 L
5082  438 mt 5154  438 L
5118  402 mt 5118  474 L
6181 4534 mt 6253 4534 L
6217 4498 mt 6217 4570 L
6183 1120 mt 6255 1120 L
6219 1084 mt 6219 1156 L
2456 1118 mt 2528 1118 L
2492 1082 mt 2492 1154 L
6067  683 mt 6139  683 L
6103  647 mt 6103  719 L
6107  417 mt 6179  417 L
6143  381 mt 6143  453 L
6191 2915 mt 6263 2915 L
6227 2879 mt 6227 2951 L
1236  681 mt 1308  681 L
1272  645 mt 1272  717 L
4184 4606 mt 4256 4606 L
4220 4570 mt 4220 4642 L
6002 1022 mt 6074 1022 L
6038  986 mt 6038 1058 L
1107 4230 mt 1179 4230 L
1143 4194 mt 1143 4266 L
6050  415 mt 6122  415 L
6086  379 mt 6086  451 L
6094  686 mt 6166  686 L
6130  650 mt 6130  722 L
5872 1885 mt 5944 1885 L
5908 1849 mt 5908 1921 L
1739 3919 mt 1811 3919 L
1775 3883 mt 1775 3955 L
6139 4299 mt 6211 4299 L
6175 4263 mt 6175 4335 L
6041 3021 mt 6113 3021 L
6077 2985 mt 6077 3057 L
5932 1278 mt 6004 1278 L
5968 1242 mt 5968 1314 L
6149  695 mt 6221  695 L
6185  659 mt 6185  731 L
1278 4580 mt 1350 4580 L
1314 4544 mt 1314 4616 L
5448  866 mt 5520  866 L
5484  830 mt 5484  902 L
6225 4603 mt 6297 4603 L
6261 4567 mt 6261 4639 L
5801 3131 mt 5873 3131 L
5837 3095 mt 5837 3167 L
2328  460 mt 2400  460 L
2364  424 mt 2364  496 L
4701 1878 mt 4773 1878 L
4737 1842 mt 4737 1914 L
6188 1428 mt 6260 1428 L
6224 1392 mt 6224 1464 L
6224  629 mt 6296  629 L
6260  593 mt 6260  665 L
2961 2749 mt 3033 2749 L
2997 2713 mt 2997 2785 L
6223  820 mt 6295  820 L
6259  784 mt 6259  856 L
1782 3397 mt 1854 3397 L
1818 3361 mt 1818 3433 L
2408 1432 mt 2480 1432 L
2444 1396 mt 2444 1468 L
6224 4616 mt 6296 4616 L
6260 4580 mt 6260 4652 L
6213  430 mt 6285  430 L
6249  394 mt 6249  466 L
1909 3264 mt 1981 3264 L
1945 3228 mt 1945 3300 L
1710 4182 mt 1782 4182 L
1746 4146 mt 1746 4218 L
6122 2737 mt 6194 2737 L
6158 2701 mt 6158 2773 L
2466  745 mt 2538  745 L
2502  709 mt 2502  781 L
5985 3745 mt 6057 3745 L
6021 3709 mt 6021 3781 L
6159  514 mt 6231  514 L
6195  478 mt 6195  550 L
2035 4229 mt 2107 4229 L
2071 4193 mt 2071 4265 L
6178 4614 mt 6250 4614 L
6214 4578 mt 6214 4650 L
4542 2935 mt 4614 2935 L
4578 2899 mt 4578 2971 L
6222 1547 mt 6294 1547 L
6258 1511 mt 6258 1583 L
5756 3977 mt 5828 3977 L
5792 3941 mt 5792 4013 L
3660 1076 mt 3732 1076 L
3696 1040 mt 3696 1112 L
3035  458 mt 3107  458 L
3071  422 mt 3071  494 L
6220  670 mt 6292  670 L
6256  634 mt 6256  706 L
3001 3632 mt 3073 3632 L
3037 3596 mt 3037 3668 L
2969  646 mt 3041  646 L
3005  610 mt 3005  682 L
6211 2921 mt 6283 2921 L
6247 2885 mt 6247 2957 L
6220  415 mt 6292  415 L
6256  379 mt 6256  451 L
6180  556 mt 6252  556 L
6216  520 mt 6216  592 L
1445 3911 mt 1517 3911 L
1481 3875 mt 1481 3947 L
3912 2960 mt 3984 2960 L
3948 2924 mt 3948 2996 L
5721  936 mt 5793  936 L
5757  900 mt 5757  972 L
 904 4308 mt  976 4308 L
 940 4272 mt  940 4344 L
6202  427 mt 6274  427 L
6238  391 mt 6238  463 L
2482 2409 mt 2554 2409 L
2518 2373 mt 2518 2445 L
6194 1421 mt 6266 1421 L
6230 1385 mt 6230 1457 L
2831 1130 mt 2903 1130 L
2867 1094 mt 2867 1166 L
5875  503 mt 5947  503 L
5911  467 mt 5911  539 L
5911 1400 mt 5983 1400 L
5947 1364 mt 5947 1436 L
3160 3081 mt 3232 3081 L
3196 3045 mt 3196 3117 L
6120 1993 mt 6192 1993 L
6156 1957 mt 6156 2029 L
6150 2046 mt 6222 2046 L
6186 2010 mt 6186 2082 L
6211 3301 mt 6283 3301 L
6247 3265 mt 6247 3337 L
 880  977 mt  952  977 L
 916  941 mt  916 1013 L
6222 2122 mt 6294 2122 L
6258 2086 mt 6258 2158 L
6209 4035 mt 6281 4035 L
6245 3999 mt 6245 4071 L
1296 3778 mt 1368 3778 L
1332 3742 mt 1332 3814 L
5700 3426 mt 5772 3426 L
5736 3390 mt 5736 3462 L
1022 1493 mt 1094 1493 L
1058 1457 mt 1058 1529 L
1570  526 mt 1642  526 L
1606  490 mt 1606  562 L
2213  458 mt 2285  458 L
2249  422 mt 2249  494 L
1698  731 mt 1770  731 L
1734  695 mt 1734  767 L
 904 2720 mt  976 2720 L
 940 2684 mt  940 2756 L
1302  705 mt 1374  705 L
1338  669 mt 1338  741 L
3345 4316 mt 3417 4316 L
3381 4280 mt 3381 4352 L
1074  459 mt 1146  459 L
1110  423 mt 1110  495 L
6221 4615 mt 6293 4615 L
6257 4579 mt 6257 4651 L
2381  415 mt 2453  415 L
2417  379 mt 2417  451 L
6187  416 mt 6259  416 L
6223  380 mt 6223  452 L
6220  848 mt 6292  848 L
6256  812 mt 6256  884 L
5913 4564 mt 5985 4564 L
5949 4528 mt 5949 4600 L
3798 4061 mt 3870 4061 L
3834 4025 mt 3834 4097 L
4236 3733 mt 4308 3733 L
4272 3697 mt 4272 3769 L
5190 4568 mt 5262 4568 L
5226 4532 mt 5226 4604 L
5236 1092 mt 5308 1092 L
5272 1056 mt 5272 1128 L
5165 2645 mt 5237 2645 L
5201 2609 mt 5201 2681 L
4526  434 mt 4598  434 L
4562  398 mt 4562  470 L
1053 2241 mt 1125 2241 L
1089 2205 mt 1089 2277 L
3721 4615 mt 3793 4615 L
3757 4579 mt 3757 4651 L
4543 4497 mt 4615 4497 L
4579 4461 mt 4579 4533 L
1401 2252 mt 1473 2252 L
1437 2216 mt 1437 2288 L
6222  615 mt 6294  615 L
6258  579 mt 6258  651 L
6129 1722 mt 6201 1722 L
6165 1686 mt 6165 1758 L
5980 3872 mt 6052 3872 L
6016 3836 mt 6016 3908 L
6204 1348 mt 6276 1348 L
6240 1312 mt 6240 1384 L
5869 3058 mt 5941 3058 L
5905 3022 mt 5905 3094 L
6120  671 mt 6192  671 L
6156  635 mt 6156  707 L
4980 4084 mt 5052 4084 L
5016 4048 mt 5016 4120 L
1128  579 mt 1200  579 L
1164  543 mt 1164  615 L
 865 4389 mt  937 4389 L
 901 4353 mt  901 4425 L
6160 4076 mt 6232 4076 L
6196 4040 mt 6196 4112 L
2529 4557 mt 2601 4557 L
2565 4521 mt 2565 4593 L
4555 4214 mt 4627 4214 L
4591 4178 mt 4591 4250 L
6220 4146 mt 6292 4146 L
6256 4110 mt 6256 4182 L
 867 2571 mt  939 2571 L
 903 2535 mt  903 2607 L
6207 1512 mt 6279 1512 L
6243 1476 mt 6243 1548 L
6187  601 mt 6259  601 L
6223  565 mt 6223  637 L
1119 3195 mt 1191 3195 L
1155 3159 mt 1155 3231 L
6170 1359 mt 6242 1359 L
6206 1323 mt 6206 1395 L
4860 2592 mt 4932 2592 L
4896 2556 mt 4896 2628 L
 914 3395 mt  986 3395 L
 950 3359 mt  950 3431 L
2494 3340 mt 2566 3340 L
2530 3304 mt 2530 3376 L
6036  818 mt 6108  818 L
6072  782 mt 6072  854 L
4523 1342 mt 4595 1342 L
4559 1306 mt 4559 1378 L
5393 1701 mt 5465 1701 L
5429 1665 mt 5429 1737 L
5970 2186 mt 6042 2186 L
6006 2150 mt 6006 2222 L
6224  760 mt 6296  760 L
6260  724 mt 6260  796 L
6036  617 mt 6108  617 L
6072  581 mt 6072  653 L
3866  555 mt 3938  555 L
3902  519 mt 3902  591 L
4492 4309 mt 4564 4309 L
4528 4273 mt 4528 4345 L
6068  423 mt 6140  423 L
6104  387 mt 6104  459 L
6136 2429 mt 6208 2429 L
6172 2393 mt 6172 2465 L
6206 1076 mt 6278 1076 L
6242 1040 mt 6242 1112 L
gs 899 414 5363 4203 rc
gr

0 sg
2822 5104 mt 
(\(F,DCTb,MLP\)) s
 422 3277 mt  -90 rotate
(\(S,SSC,GMM\)) s
90 rotate
2975  223 mt 
(Corr = 0.00) s

end %%Color Dict

eplot
%%EndObject

epage
end

showpage

%%Trailer
%%EOF
