%!PS-Adobe-3.0 EPSF-3.0
%%Creator: MATLAB, The Mathworks, Inc. Version 7.7.0.471 (R2008b). Operating System: Microsoft Windows XP.
%%Title: Pictures\main_zoo_mvar_analysis_data_BMI_xcorr_bmi_p1_k2_4_6.eps
%%CreationDate: 10/26/2009  05:44:27
%%DocumentNeededFonts: Helvetica
%%DocumentProcessColors: Cyan Magenta Yellow Black
%%LanguageLevel: 2
%%Pages: 1
%%BoundingBox:    32   180   546   616
%%EndComments

%%BeginProlog
% MathWorks dictionary
/MathWorks 160 dict begin
% definition operators
/bdef {bind def} bind def
/ldef {load def} bind def
/xdef {exch def} bdef
/xstore {exch store} bdef
% operator abbreviations
/c  /clip ldef
/cc /concat ldef
/cp /closepath ldef
/gr /grestore ldef
/gs /gsave ldef
/mt /moveto ldef
/np /newpath ldef
/cm /currentmatrix ldef
/sm /setmatrix ldef
/rm /rmoveto ldef
/rl /rlineto ldef
/s {show newpath} bdef
/sc {setcmykcolor} bdef
/sr /setrgbcolor ldef
/sg /setgray ldef
/w /setlinewidth ldef
/j /setlinejoin ldef
/cap /setlinecap ldef
/rc {rectclip} bdef
/rf {rectfill} bdef
% page state control
/pgsv () def
/bpage {/pgsv save def} bdef
/epage {pgsv restore} bdef
/bplot /gsave ldef
/eplot {stroke grestore} bdef
% orientation switch
/portraitMode 0 def /landscapeMode 1 def /rotateMode 2 def
% coordinate system mappings
/dpi2point 0 def
% font control
/FontSize 0 def
/FMS {/FontSize xstore findfont [FontSize 0 0 FontSize neg 0 0]
  makefont setfont} bdef
/ISOLatin1Encoding where {pop /WindowsLatin1Encoding 256 array bdef
ISOLatin1Encoding WindowsLatin1Encoding copy pop
/.notdef/.notdef/quotesinglbase/florin/quotedblbase/ellipsis/dagger
/daggerdbl/circumflex/perthousand/Scaron/guilsinglleft/OE/.notdef/.notdef
/.notdef/.notdef/quoteleft/quoteright/quotedblleft/quotedblright/bullet
/endash/emdash/tilde/trademark/scaron/guilsinglright/oe/.notdef/.notdef
/Ydieresis WindowsLatin1Encoding 128 32 getinterval astore pop}
{/WindowsLatin1Encoding StandardEncoding bdef} ifelse
/reencode {exch dup where {pop load} {pop StandardEncoding} ifelse
  exch dup 3 1 roll findfont dup length dict begin
  { 1 index /FID ne {def}{pop pop} ifelse } forall
  /Encoding exch def currentdict end definefont pop} bdef
/isroman {findfont /CharStrings get /Agrave known} bdef
/FMSR {3 1 roll 1 index dup isroman {reencode} {pop pop} ifelse
  exch FMS} bdef
/csm {1 dpi2point div -1 dpi2point div scale neg translate
 dup landscapeMode eq {pop -90 rotate}
  {rotateMode eq {90 rotate} if} ifelse} bdef
% line types: solid, dotted, dashed, dotdash
/SO { [] 0 setdash } bdef
/DO { [.5 dpi2point mul 4 dpi2point mul] 0 setdash } bdef
/DA { [6 dpi2point mul] 0 setdash } bdef
/DD { [.5 dpi2point mul 4 dpi2point mul 6 dpi2point mul 4
  dpi2point mul] 0 setdash } bdef
% macros for lines and objects
/L {lineto stroke} bdef
/MP {3 1 roll moveto 1 sub {rlineto} repeat} bdef
/AP {{rlineto} repeat} bdef
/PDlw -1 def
/W {/PDlw currentlinewidth def setlinewidth} def
/PP {closepath eofill} bdef
/DP {closepath stroke} bdef
/MR {4 -2 roll moveto dup  0 exch rlineto exch 0 rlineto
  neg 0 exch rlineto closepath} bdef
/FR {MR stroke} bdef
/PR {MR fill} bdef
/L1i {{currentfile picstr readhexstring pop} image} bdef
/tMatrix matrix def
/MakeOval {newpath tMatrix currentmatrix pop translate scale
0 0 1 0 360 arc tMatrix setmatrix} bdef
/FO {MakeOval stroke} bdef
/PO {MakeOval fill} bdef
/PD {currentlinewidth 2 div 0 360 arc fill
   PDlw -1 eq not {PDlw w /PDlw -1 def} if} def
/FA {newpath tMatrix currentmatrix pop translate scale
  0 0 1 5 -2 roll arc tMatrix setmatrix stroke} bdef
/PA {newpath tMatrix currentmatrix pop	translate 0 0 moveto scale
  0 0 1 5 -2 roll arc closepath tMatrix setmatrix fill} bdef
/FAn {newpath tMatrix currentmatrix pop translate scale
  0 0 1 5 -2 roll arcn tMatrix setmatrix stroke} bdef
/PAn {newpath tMatrix currentmatrix pop translate 0 0 moveto scale
  0 0 1 5 -2 roll arcn closepath tMatrix setmatrix fill} bdef
/vradius 0 def /hradius 0 def /lry 0 def
/lrx 0 def /uly 0 def /ulx 0 def /rad 0 def
/MRR {/vradius xdef /hradius xdef /lry xdef /lrx xdef /uly xdef
  /ulx xdef newpath tMatrix currentmatrix pop ulx hradius add uly
  vradius add translate hradius vradius scale 0 0 1 180 270 arc 
  tMatrix setmatrix lrx hradius sub uly vradius add translate
  hradius vradius scale 0 0 1 270 360 arc tMatrix setmatrix
  lrx hradius sub lry vradius sub translate hradius vradius scale
  0 0 1 0 90 arc tMatrix setmatrix ulx hradius add lry vradius sub
  translate hradius vradius scale 0 0 1 90 180 arc tMatrix setmatrix
  closepath} bdef
/FRR {MRR stroke } bdef
/PRR {MRR fill } bdef
/MlrRR {/lry xdef /lrx xdef /uly xdef /ulx xdef /rad lry uly sub 2 div def
  newpath tMatrix currentmatrix pop ulx rad add uly rad add translate
  rad rad scale 0 0 1 90 270 arc tMatrix setmatrix lrx rad sub lry rad
  sub translate rad rad scale 0 0 1 270 90 arc tMatrix setmatrix
  closepath} bdef
/FlrRR {MlrRR stroke } bdef
/PlrRR {MlrRR fill } bdef
/MtbRR {/lry xdef /lrx xdef /uly xdef /ulx xdef /rad lrx ulx sub 2 div def
  newpath tMatrix currentmatrix pop ulx rad add uly rad add translate
  rad rad scale 0 0 1 180 360 arc tMatrix setmatrix lrx rad sub lry rad
  sub translate rad rad scale 0 0 1 0 180 arc tMatrix setmatrix
  closepath} bdef
/FtbRR {MtbRR stroke } bdef
/PtbRR {MtbRR fill } bdef
/stri 6 array def /dtri 6 array def
/smat 6 array def /dmat 6 array def
/tmat1 6 array def /tmat2 6 array def /dif 3 array def
/asub {/ind2 exch def /ind1 exch def dup dup
  ind1 get exch ind2 get sub exch } bdef
/tri_to_matrix {
  2 0 asub 3 1 asub 4 0 asub 5 1 asub
  dup 0 get exch 1 get 7 -1 roll astore } bdef
/compute_transform {
  dmat dtri tri_to_matrix tmat1 invertmatrix 
  smat stri tri_to_matrix tmat2 concatmatrix } bdef
/ds {stri astore pop} bdef
/dt {dtri astore pop} bdef
/db {2 copy /cols xdef /rows xdef mul dup 3 mul string
  currentfile 
  3 index 0 eq {/ASCIIHexDecode filter}
  {/ASCII85Decode filter 3 index 2 eq {/RunLengthDecode filter} if }
  ifelse exch readstring pop
  dup 0 3 index getinterval /rbmap xdef
  dup 2 index dup getinterval /gbmap xdef
  1 index dup 2 mul exch getinterval /bbmap xdef pop pop}bdef
/it {gs np dtri aload pop moveto lineto lineto cp c
  cols rows 8 compute_transform 
  rbmap gbmap bbmap true 3 colorimage gr}bdef
/il {newpath moveto lineto stroke}bdef
currentdict end def
%%EndProlog

%%BeginSetup
MathWorks begin

0 cap

end
%%EndSetup

%%Page: 1 1
%%BeginPageSetup
%%PageBoundingBox:    32   180   546   616
MathWorks begin
bpage
%%EndPageSetup

%%BeginObject: obj1
bplot

/dpi2point 12 def
portraitMode 0216 7344 csm

  174   -48  6173  5231 rc
85 dict begin %Colortable dictionary
/c0 { 0.000000 0.000000 0.000000 sr} bdef
/c1 { 1.000000 1.000000 1.000000 sr} bdef
/c2 { 0.900000 0.000000 0.000000 sr} bdef
/c3 { 0.000000 0.820000 0.000000 sr} bdef
/c4 { 0.000000 0.000000 0.800000 sr} bdef
/c5 { 0.910000 0.820000 0.320000 sr} bdef
/c6 { 1.000000 0.260000 0.820000 sr} bdef
/c7 { 0.000000 0.820000 0.820000 sr} bdef
c0
1 j
1 sg
   0    0 6919 5187 rf
6 w
0 4203 5363 0 0 -4203 898 4616 4 MP
PP
-5363 0 0 4203 5363 0 0 -4203 898 4616 5 MP stroke
4 w
DO
SO
6 w
0 sg
 898  413 mt 6261  413 L
 898 4616 mt 6261 4616 L
6261 4616 mt 6261  413 L
 898 4616 mt  898  413 L
 898 4616 mt 6261 4616 L
 898 4616 mt  898  413 L
1970 4616 mt 1970 4562 L
1970  414 mt 1970  467 L
%%IncludeResource: font Helvetica
/Helvetica /WindowsLatin1Encoding 240 FMSR

1804 4873 mt 
(0.2) s
3043 4616 mt 3043 4562 L
3043  414 mt 3043  467 L
2877 4873 mt 
(0.4) s
4116 4616 mt 4116 4562 L
4116  414 mt 4116  467 L
3950 4873 mt 
(0.6) s
5188 4616 mt 5188 4562 L
5188  414 mt 5188  467 L
5022 4873 mt 
(0.8) s
 898 4195 mt  952 4195 L
6261 4195 mt 6207 4195 L
 531 4284 mt 
(0.1) s
 898 3775 mt  952 3775 L
6261 3775 mt 6207 3775 L
 531 3864 mt 
(0.2) s
 898 3355 mt  952 3355 L
6261 3355 mt 6207 3355 L
 531 3444 mt 
(0.3) s
 898 2935 mt  952 2935 L
6261 2935 mt 6207 2935 L
 531 3024 mt 
(0.4) s
 898 2514 mt  952 2514 L
6261 2514 mt 6207 2514 L
 531 2603 mt 
(0.5) s
 898 2094 mt  952 2094 L
6261 2094 mt 6207 2094 L
 531 2183 mt 
(0.6) s
 898 1674 mt  952 1674 L
6261 1674 mt 6207 1674 L
 531 1763 mt 
(0.7) s
 898 1254 mt  952 1254 L
6261 1254 mt 6207 1254 L
 531 1343 mt 
(0.8) s
 898  834 mt  952  834 L
6261  834 mt 6207  834 L
 531  923 mt 
(0.9) s
 898  413 mt 6261  413 L
 898 4616 mt 6261 4616 L
6261 4616 mt 6261  413 L
 898 4616 mt  898  413 L
gs 898 414 5364 4203 rc
gr

/c8 { 0.000000 0.000000 1.000000 sr} bdef
c8
5284 2424 mt 5356 2424 L
5320 2388 mt 5320 2460 L
5738 2741 mt 5810 2741 L
5774 2705 mt 5774 2777 L
1082 1245 mt 1154 1245 L
1118 1209 mt 1118 1281 L
1527 2758 mt 1599 2758 L
1563 2722 mt 1563 2794 L
6021 1027 mt 6093 1027 L
6057  991 mt 6057 1063 L
2122  975 mt 2194  975 L
2158  939 mt 2158 1011 L
1044 4000 mt 1116 4000 L
1080 3964 mt 1080 4036 L
1637 3958 mt 1709 3958 L
1673 3922 mt 1673 3994 L
4249 4500 mt 4321 4500 L
4285 4464 mt 4285 4536 L
3369  446 mt 3441  446 L
3405  410 mt 3405  482 L
 885 4382 mt  957 4382 L
 921 4346 mt  921 4418 L
4471 2118 mt 4543 2118 L
4507 2082 mt 4507 2154 L
5900  637 mt 5972  637 L
5936  601 mt 5936  673 L
4149 2248 mt 4221 2248 L
4185 2212 mt 4185 2284 L
6169  470 mt 6241  470 L
6205  434 mt 6205  506 L
3297 4570 mt 3369 4570 L
3333 4534 mt 3333 4606 L
2574 3955 mt 2646 3955 L
2610 3919 mt 2610 3991 L
3279 2512 mt 3351 2512 L
3315 2476 mt 3315 2548 L
2258 3773 mt 2330 3773 L
2294 3737 mt 2294 3809 L
5429 1864 mt 5501 1864 L
5465 1828 mt 5465 1900 L
 875 2734 mt  947 2734 L
 911 2698 mt  911 2770 L
3653  886 mt 3725  886 L
3689  850 mt 3689  922 L
1240 3611 mt 1312 3611 L
1276 3575 mt 1276 3647 L
3117 2120 mt 3189 2120 L
3153 2084 mt 3153 2156 L
4624  437 mt 4696  437 L
4660  401 mt 4660  473 L
 870  471 mt  942  471 L
 906  435 mt  906  507 L
1574 2997 mt 1646 2997 L
1610 2961 mt 1610 3033 L
5032  581 mt 5104  581 L
5068  545 mt 5068  617 L
3188 4576 mt 3260 4576 L
3224 4540 mt 3224 4612 L
3711 4551 mt 3783 4551 L
3747 4515 mt 3747 4587 L
 998  852 mt 1070  852 L
1034  816 mt 1034  888 L
 869 3814 mt  941 3814 L
 905 3778 mt  905 3850 L
 897 4524 mt  969 4524 L
 933 4488 mt  933 4560 L
3765 1588 mt 3837 1588 L
3801 1552 mt 3801 1624 L
5726 1374 mt 5798 1374 L
5762 1338 mt 5762 1410 L
3018 3091 mt 3090 3091 L
3054 3055 mt 3054 3127 L
2219 4465 mt 2291 4465 L
2255 4429 mt 2255 4501 L
1185 1305 mt 1257 1305 L
1221 1269 mt 1221 1341 L
1250 1373 mt 1322 1373 L
1286 1337 mt 1286 1409 L
2414 4005 mt 2486 4005 L
2450 3969 mt 2450 4041 L
5100 1050 mt 5172 1050 L
5136 1014 mt 5136 1086 L
6026  597 mt 6098  597 L
6062  561 mt 6062  633 L
3128  893 mt 3200  893 L
3164  857 mt 3164  929 L
1907 1261 mt 1979 1261 L
1943 1225 mt 1943 1297 L
6179 3080 mt 6251 3080 L
6215 3044 mt 6215 3116 L
 885 1754 mt  957 1754 L
 921 1718 mt  921 1790 L
3749 3381 mt 3821 3381 L
3785 3345 mt 3785 3417 L
1985 1538 mt 2057 1538 L
2021 1502 mt 2021 1574 L
1745 2469 mt 1817 2469 L
1781 2433 mt 1781 2505 L
4371  428 mt 4443  428 L
4407  392 mt 4407  464 L
6177 4536 mt 6249 4536 L
6213 4500 mt 6213 4572 L
5119 3959 mt 5191 3959 L
5155 3923 mt 5155 3995 L
4823  998 mt 4895  998 L
4859  962 mt 4859 1034 L
5439 4503 mt 5511 4503 L
5475 4467 mt 5475 4539 L
4689 2095 mt 4761 2095 L
4725 2059 mt 4725 2131 L
2949 3109 mt 3021 3109 L
2985 3073 mt 2985 3145 L
3652 3291 mt 3724 3291 L
3688 3255 mt 3688 3327 L
6165  542 mt 6237  542 L
6201  506 mt 6201  578 L
 939 4583 mt 1011 4583 L
 975 4547 mt  975 4619 L
2103  636 mt 2175  636 L
2139  600 mt 2139  672 L
5413 2866 mt 5485 2866 L
5449 2830 mt 5449 2902 L
 863 4149 mt  935 4149 L
 899 4113 mt  899 4185 L
2464 1974 mt 2536 1974 L
2500 1938 mt 2500 2010 L
6177 3012 mt 6249 3012 L
6213 2976 mt 6213 3048 L
4215 4217 mt 4287 4217 L
4251 4181 mt 4251 4253 L
6166  747 mt 6238  747 L
6202  711 mt 6202  783 L
6138 3965 mt 6210 3965 L
6174 3929 mt 6174 4001 L
2452 2648 mt 2524 2648 L
2488 2612 mt 2488 2684 L
1350 2497 mt 1422 2497 L
1386 2461 mt 1386 2533 L
5339 3461 mt 5411 3461 L
5375 3425 mt 5375 3497 L
1523 2223 mt 1595 2223 L
1559 2187 mt 1559 2259 L
5749  536 mt 5821  536 L
5785  500 mt 5785  572 L
4434 2914 mt 4506 2914 L
4470 2878 mt 4470 2950 L
3611 2602 mt 3683 2602 L
3647 2566 mt 3647 2638 L
1268 4534 mt 1340 4534 L
1304 4498 mt 1304 4570 L
5950 3062 mt 6022 3062 L
5986 3026 mt 5986 3098 L
5966 3358 mt 6038 3358 L
6002 3322 mt 6002 3394 L
 879 1806 mt  951 1806 L
 915 1770 mt  915 1842 L
1005  985 mt 1077  985 L
1041  949 mt 1041 1021 L
1030 4379 mt 1102 4379 L
1066 4343 mt 1066 4415 L
5583 4531 mt 5655 4531 L
5619 4495 mt 5619 4567 L
2246 2463 mt 2318 2463 L
2282 2427 mt 2282 2499 L
5296 3774 mt 5368 3774 L
5332 3738 mt 5332 3810 L
5056 1091 mt 5128 1091 L
5092 1055 mt 5092 1127 L
4707 1317 mt 4779 1317 L
4743 1281 mt 4743 1353 L
1843 3575 mt 1915 3575 L
1879 3539 mt 1879 3611 L
5841 3791 mt 5913 3791 L
5877 3755 mt 5877 3827 L
3157 1062 mt 3229 1062 L
3193 1026 mt 3193 1098 L
5383  828 mt 5455  828 L
5419  792 mt 5419  864 L
6179  956 mt 6251  956 L
6215  920 mt 6215  992 L
2055 4610 mt 2127 4610 L
2091 4574 mt 2091 4646 L
6199 1036 mt 6271 1036 L
6235 1000 mt 6235 1072 L
1540 4503 mt 1612 4503 L
1576 4467 mt 1576 4539 L
4291 3910 mt 4363 3910 L
4327 3874 mt 4327 3946 L
3158 4179 mt 3230 4179 L
3194 4143 mt 3194 4215 L
1728  480 mt 1800  480 L
1764  444 mt 1764  516 L
5640 2609 mt 5712 2609 L
5676 2573 mt 5676 2645 L
6082 4262 mt 6154 4262 L
6118 4226 mt 6118 4298 L
2747 4427 mt 2819 4427 L
2783 4391 mt 2783 4463 L
5778  877 mt 5850  877 L
5814  841 mt 5814  913 L
6225  614 mt 6297  614 L
6261  578 mt 6261  650 L
2078  503 mt 2150  503 L
2114  467 mt 2114  539 L
2683 1088 mt 2755 1088 L
2719 1052 mt 2719 1124 L
5778 4570 mt 5850 4570 L
5814 4534 mt 5814 4606 L
1274 4172 mt 1346 4172 L
1310 4136 mt 1310 4208 L
1518  691 mt 1590  691 L
1554  655 mt 1554  727 L
3937 1632 mt 4009 1632 L
3973 1596 mt 3973 1668 L
1235  780 mt 1307  780 L
1271  744 mt 1271  816 L
1559 3183 mt 1631 3183 L
1595 3147 mt 1595 3219 L
1447 2220 mt 1519 2220 L
1483 2184 mt 1483 2256 L
4637  730 mt 4709  730 L
4673  694 mt 4673  766 L
1183 1920 mt 1255 1920 L
1219 1884 mt 1219 1956 L
4144 4190 mt 4216 4190 L
4180 4154 mt 4180 4226 L
6147 1164 mt 6219 1164 L
6183 1128 mt 6183 1200 L
1842 4539 mt 1914 4539 L
1878 4503 mt 1878 4575 L
1471 3276 mt 1543 3276 L
1507 3240 mt 1507 3312 L
5218 1369 mt 5290 1369 L
5254 1333 mt 5254 1405 L
5881  588 mt 5953  588 L
5917  552 mt 5917  624 L
 863 3899 mt  935 3899 L
 899 3863 mt  899 3935 L
2788 3443 mt 2860 3443 L
2824 3407 mt 2824 3479 L
5003 2155 mt 5075 2155 L
5039 2119 mt 5039 2191 L
3118 1256 mt 3190 1256 L
3154 1220 mt 3154 1292 L
3919 4005 mt 3991 4005 L
3955 3969 mt 3955 4041 L
2423 4158 mt 2495 4158 L
2459 4122 mt 2459 4194 L
5072 3589 mt 5144 3589 L
5108 3553 mt 5108 3625 L
6212  450 mt 6284  450 L
6248  414 mt 6248  486 L
5287 4255 mt 5359 4255 L
5323 4219 mt 5323 4291 L
4381 2807 mt 4453 2807 L
4417 2771 mt 4417 2843 L
1424 1111 mt 1496 1111 L
1460 1075 mt 1460 1147 L
1000 4523 mt 1072 4523 L
1036 4487 mt 1036 4559 L
5907  622 mt 5979  622 L
5943  586 mt 5943  658 L
4985  789 mt 5057  789 L
5021  753 mt 5021  825 L
1851  830 mt 1923  830 L
1887  794 mt 1887  866 L
4266 2538 mt 4338 2538 L
4302 2502 mt 4302 2574 L
1028 4164 mt 1100 4164 L
1064 4128 mt 1064 4200 L
5247 1961 mt 5319 1961 L
5283 1925 mt 5283 1997 L
 875 4594 mt  947 4594 L
 911 4558 mt  911 4630 L
3467  677 mt 3539  677 L
3503  641 mt 3503  713 L
4283 2089 mt 4355 2089 L
4319 2053 mt 4319 2125 L
5608 4615 mt 5680 4615 L
5644 4579 mt 5644 4651 L
2649 3586 mt 2721 3586 L
2685 3550 mt 2685 3622 L
6014 1336 mt 6086 1336 L
6050 1300 mt 6050 1372 L
 987 2881 mt 1059 2881 L
1023 2845 mt 1023 2917 L
2865 1585 mt 2937 1585 L
2901 1549 mt 2901 1621 L
6056 3455 mt 6128 3455 L
6092 3419 mt 6092 3491 L
3354  502 mt 3426  502 L
3390  466 mt 3390  538 L
2578 1588 mt 2650 1588 L
2614 1552 mt 2614 1624 L
5676 4605 mt 5748 4605 L
5712 4569 mt 5712 4641 L
2520 1994 mt 2592 1994 L
2556 1958 mt 2556 2030 L
2950 2090 mt 3022 2090 L
2986 2054 mt 2986 2126 L
1037 2971 mt 1109 2971 L
1073 2935 mt 1073 3007 L
2147 3309 mt 2219 3309 L
2183 3273 mt 2183 3345 L
1916 4615 mt 1988 4615 L
1952 4579 mt 1952 4651 L
1002 4612 mt 1074 4612 L
1038 4576 mt 1038 4648 L
1737 1946 mt 1809 1946 L
1773 1910 mt 1773 1982 L
1748 4346 mt 1820 4346 L
1784 4310 mt 1784 4382 L
 865 3043 mt  937 3043 L
 901 3007 mt  901 3079 L
1022 2777 mt 1094 2777 L
1058 2741 mt 1058 2813 L
 887  973 mt  959  973 L
 923  937 mt  923 1009 L
5415  473 mt 5487  473 L
5451  437 mt 5451  509 L
3079 1272 mt 3151 1272 L
3115 1236 mt 3115 1308 L
3044 4608 mt 3116 4608 L
3080 4572 mt 3080 4644 L
1801 4191 mt 1873 4191 L
1837 4155 mt 1837 4227 L
5735 3273 mt 5807 3273 L
5771 3237 mt 5771 3309 L
1290 4472 mt 1362 4472 L
1326 4436 mt 1326 4508 L
 862 3635 mt  934 3635 L
 898 3599 mt  898 3671 L
 917 1569 mt  989 1569 L
 953 1533 mt  953 1605 L
4731  502 mt 4803  502 L
4767  466 mt 4767  538 L
1104 2366 mt 1176 2366 L
1140 2330 mt 1140 2402 L
6109 1188 mt 6181 1188 L
6145 1152 mt 6145 1224 L
1408 3525 mt 1480 3525 L
1444 3489 mt 1444 3561 L
5577 4568 mt 5649 4568 L
5613 4532 mt 5613 4604 L
 871 1478 mt  943 1478 L
 907 1442 mt  907 1514 L
4077 2785 mt 4149 2785 L
4113 2749 mt 4113 2821 L
2600 4424 mt 2672 4424 L
2636 4388 mt 2636 4460 L
5478 1355 mt 5550 1355 L
5514 1319 mt 5514 1391 L
3276 1412 mt 3348 1412 L
3312 1376 mt 3312 1448 L
6219 3697 mt 6291 3697 L
6255 3661 mt 6255 3733 L
5689 4378 mt 5761 4378 L
5725 4342 mt 5725 4414 L
1061 2051 mt 1133 2051 L
1097 2015 mt 1097 2087 L
1164  753 mt 1236  753 L
1200  717 mt 1200  789 L
4659 1290 mt 4731 1290 L
4695 1254 mt 4695 1326 L
3272 4493 mt 3344 4493 L
3308 4457 mt 3308 4529 L
6035 4615 mt 6107 4615 L
6071 4579 mt 6071 4651 L
4749 1540 mt 4821 1540 L
4785 1504 mt 4785 1576 L
1265 4252 mt 1337 4252 L
1301 4216 mt 1301 4288 L
6065 3892 mt 6137 3892 L
6101 3856 mt 6101 3928 L
4684 1721 mt 4756 1721 L
4720 1685 mt 4720 1757 L
5474  779 mt 5546  779 L
5510  743 mt 5510  815 L
1721 1692 mt 1793 1692 L
1757 1656 mt 1757 1728 L
 943 3269 mt 1015 3269 L
 979 3233 mt  979 3305 L
4239 4522 mt 4311 4522 L
4275 4486 mt 4275 4558 L
6089  544 mt 6161  544 L
6125  508 mt 6125  580 L
5522  427 mt 5594  427 L
5558  391 mt 5558  463 L
4894 1953 mt 4966 1953 L
4930 1917 mt 4930 1989 L
3172 1666 mt 3244 1666 L
3208 1630 mt 3208 1702 L
1490 4411 mt 1562 4411 L
1526 4375 mt 1526 4447 L
5291 2734 mt 5363 2734 L
5327 2698 mt 5327 2770 L
2083 2070 mt 2155 2070 L
2119 2034 mt 2119 2106 L
4361  471 mt 4433  471 L
4397  435 mt 4397  507 L
6178  477 mt 6250  477 L
6214  441 mt 6214  513 L
6102  603 mt 6174  603 L
6138  567 mt 6138  639 L
5973 1180 mt 6045 1180 L
6009 1144 mt 6009 1216 L
 877  855 mt  949  855 L
 913  819 mt  913  891 L
1043 2230 mt 1115 2230 L
1079 2194 mt 1079 2266 L
5577  727 mt 5649  727 L
5613  691 mt 5613  763 L
3584  422 mt 3656  422 L
3620  386 mt 3620  458 L
3648 1165 mt 3720 1165 L
3684 1129 mt 3684 1201 L
6072  443 mt 6144  443 L
6108  407 mt 6108  479 L
1385 3936 mt 1457 3936 L
1421 3900 mt 1421 3972 L
 937 4485 mt 1009 4485 L
 973 4449 mt  973 4521 L
6188  552 mt 6260  552 L
6224  516 mt 6224  588 L
5627 4615 mt 5699 4615 L
5663 4579 mt 5663 4651 L
3159  472 mt 3231  472 L
3195  436 mt 3195  508 L
6100  877 mt 6172  877 L
6136  841 mt 6136  913 L
6067 3267 mt 6139 3267 L
6103 3231 mt 6103 3303 L
5962 1169 mt 6034 1169 L
5998 1133 mt 5998 1205 L
3228 1840 mt 3300 1840 L
3264 1804 mt 3264 1876 L
1356  428 mt 1428  428 L
1392  392 mt 1392  464 L
4659 1068 mt 4731 1068 L
4695 1032 mt 4695 1104 L
1951 4615 mt 2023 4615 L
1987 4579 mt 1987 4651 L
1975 3374 mt 2047 3374 L
2011 3338 mt 2011 3410 L
5903  676 mt 5975  676 L
5939  640 mt 5939  712 L
 916  459 mt  988  459 L
 952  423 mt  952  495 L
5784  468 mt 5856  468 L
5820  432 mt 5820  504 L
1324 1058 mt 1396 1058 L
1360 1022 mt 1360 1094 L
 870 4406 mt  942 4406 L
 906 4370 mt  906 4442 L
4942 3079 mt 5014 3079 L
4978 3043 mt 4978 3115 L
1361  907 mt 1433  907 L
1397  871 mt 1397  943 L
 916 3921 mt  988 3921 L
 952 3885 mt  952 3957 L
5018 4549 mt 5090 4549 L
5054 4513 mt 5054 4585 L
3157  437 mt 3229  437 L
3193  401 mt 3193  473 L
1200  440 mt 1272  440 L
1236  404 mt 1236  476 L
1750 4567 mt 1822 4567 L
1786 4531 mt 1786 4603 L
 931 1948 mt 1003 1948 L
 967 1912 mt  967 1984 L
5901  421 mt 5973  421 L
5937  385 mt 5937  457 L
6138  417 mt 6210  417 L
6174  381 mt 6174  453 L
5100 2724 mt 5172 2724 L
5136 2688 mt 5136 2760 L
 898 2114 mt  970 2114 L
 934 2078 mt  934 2150 L
6199 3818 mt 6271 3818 L
6235 3782 mt 6235 3854 L
6206 2366 mt 6278 2366 L
6242 2330 mt 6242 2402 L
6147  509 mt 6219  509 L
6183  473 mt 6183  545 L
6216  550 mt 6288  550 L
6252  514 mt 6252  586 L
6211  432 mt 6283  432 L
6247  396 mt 6247  468 L
6198  513 mt 6270  513 L
6234  477 mt 6234  549 L
6195  606 mt 6267  606 L
6231  570 mt 6231  642 L
3552 1865 mt 3624 1865 L
3588 1829 mt 3588 1901 L
1845 2971 mt 1917 2971 L
1881 2935 mt 1881 3007 L
5930 4526 mt 6002 4526 L
5966 4490 mt 5966 4562 L
1237 4420 mt 1309 4420 L
1273 4384 mt 1273 4456 L
6126 1468 mt 6198 1468 L
6162 1432 mt 6162 1504 L
3002 3565 mt 3074 3565 L
3038 3529 mt 3038 3601 L
2827 2682 mt 2899 2682 L
2863 2646 mt 2863 2718 L
6200  550 mt 6272  550 L
6236  514 mt 6236  586 L
2771 4132 mt 2843 4132 L
2807 4096 mt 2807 4168 L
5403 3994 mt 5475 3994 L
5439 3958 mt 5439 4030 L
6075  579 mt 6147  579 L
6111  543 mt 6111  615 L
2268  509 mt 2340  509 L
2304  473 mt 2304  545 L
5935  417 mt 6007  417 L
5971  381 mt 5971  453 L
2828 1581 mt 2900 1581 L
2864 1545 mt 2864 1617 L
6207 2024 mt 6279 2024 L
6243 1988 mt 6243 2060 L
6152  985 mt 6224  985 L
6188  949 mt 6188 1021 L
5390 4580 mt 5462 4580 L
5426 4544 mt 5426 4616 L
6106 4615 mt 6178 4615 L
6142 4579 mt 6142 4651 L
5087  547 mt 5159  547 L
5123  511 mt 5123  583 L
2049  746 mt 2121  746 L
2085  710 mt 2085  782 L
6166 1871 mt 6238 1871 L
6202 1835 mt 6202 1907 L
3550 2805 mt 3622 2805 L
3586 2769 mt 3586 2841 L
2445 4556 mt 2517 4556 L
2481 4520 mt 2481 4592 L
5261  602 mt 5333  602 L
5297  566 mt 5297  638 L
6220  469 mt 6292  469 L
6256  433 mt 6256  505 L
5856 1179 mt 5928 1179 L
5892 1143 mt 5892 1215 L
6180  779 mt 6252  779 L
6216  743 mt 6216  815 L
2409 2015 mt 2481 2015 L
2445 1979 mt 2445 2051 L
4273  926 mt 4345  926 L
4309  890 mt 4309  962 L
1689  615 mt 1761  615 L
1725  579 mt 1725  651 L
6170  620 mt 6242  620 L
6206  584 mt 6206  656 L
6151 2452 mt 6223 2452 L
6187 2416 mt 6187 2488 L
1616  459 mt 1688  459 L
1652  423 mt 1652  495 L
6164  978 mt 6236  978 L
6200  942 mt 6200 1014 L
5324  492 mt 5396  492 L
5360  456 mt 5360  528 L
5024 4212 mt 5096 4212 L
5060 4176 mt 5060 4248 L
6181 4608 mt 6253 4608 L
6217 4572 mt 6217 4644 L
4977  714 mt 5049  714 L
5013  678 mt 5013  750 L
5278 2533 mt 5350 2533 L
5314 2497 mt 5314 2569 L
1194 1404 mt 1266 1404 L
1230 1368 mt 1230 1440 L
6053  871 mt 6125  871 L
6089  835 mt 6089  907 L
4526 1456 mt 4598 1456 L
4562 1420 mt 4562 1492 L
2136 4313 mt 2208 4313 L
2172 4277 mt 2172 4349 L
5994  725 mt 6066  725 L
6030  689 mt 6030  761 L
6144  556 mt 6216  556 L
6180  520 mt 6180  592 L
5565 1296 mt 5637 1296 L
5601 1260 mt 5601 1332 L
1666  769 mt 1738  769 L
1702  733 mt 1702  805 L
2545 4578 mt 2617 4578 L
2581 4542 mt 2581 4614 L
3253 2065 mt 3325 2065 L
3289 2029 mt 3289 2101 L
gs 898 414 5364 4203 rc
gr

4390 1652 mt 4462 1652 L
4426 1616 mt 4426 1688 L
1458 2982 mt 1530 2982 L
1494 2946 mt 1494 3018 L
2177  475 mt 2249  475 L
2213  439 mt 2213  511 L
6157 2381 mt 6229 2381 L
6193 2345 mt 6193 2417 L
5432  417 mt 5504  417 L
5468  381 mt 5468  453 L
5741 2592 mt 5813 2592 L
5777 2556 mt 5777 2628 L
3036  420 mt 3108  420 L
3072  384 mt 3072  456 L
6066 1294 mt 6138 1294 L
6102 1258 mt 6102 1330 L
1739 4615 mt 1811 4615 L
1775 4579 mt 1775 4651 L
6220  416 mt 6292  416 L
6256  380 mt 6256  452 L
6224  459 mt 6296  459 L
6260  423 mt 6260  495 L
5873  490 mt 5945  490 L
5909  454 mt 5909  526 L
5872 3891 mt 5944 3891 L
5908 3855 mt 5908 3927 L
1304  844 mt 1376  844 L
1340  808 mt 1340  880 L
4947 4610 mt 5019 4610 L
4983 4574 mt 4983 4646 L
2732 1321 mt 2804 1321 L
2768 1285 mt 2768 1357 L
1322  749 mt 1394  749 L
1358  713 mt 1358  785 L
2101 3069 mt 2173 3069 L
2137 3033 mt 2137 3105 L
2554  668 mt 2626  668 L
2590  632 mt 2590  704 L
1058 2819 mt 1130 2819 L
1094 2783 mt 1094 2855 L
6202  415 mt 6274  415 L
6238  379 mt 6238  451 L
5944  575 mt 6016  575 L
5980  539 mt 5980  611 L
2612 4051 mt 2684 4051 L
2648 4015 mt 2648 4087 L
6074  870 mt 6146  870 L
6110  834 mt 6110  906 L
6200  432 mt 6272  432 L
6236  396 mt 6236  468 L
4152 3413 mt 4224 3413 L
4188 3377 mt 4188 3449 L
2000 3859 mt 2072 3859 L
2036 3823 mt 2036 3895 L
1646  464 mt 1718  464 L
1682  428 mt 1682  500 L
4873  443 mt 4945  443 L
4909  407 mt 4909  479 L
3520  605 mt 3592  605 L
3556  569 mt 3556  641 L
5984 4195 mt 6056 4195 L
6020 4159 mt 6020 4231 L
6159 4065 mt 6231 4065 L
6195 4029 mt 6195 4101 L
6202 3806 mt 6274 3806 L
6238 3770 mt 6238 3842 L
1403 4544 mt 1475 4544 L
1439 4508 mt 1439 4580 L
5694  538 mt 5766  538 L
5730  502 mt 5730  574 L
2722 3125 mt 2794 3125 L
2758 3089 mt 2758 3161 L
6154  448 mt 6226  448 L
6190  412 mt 6190  484 L
3281 4261 mt 3353 4261 L
3317 4225 mt 3317 4297 L
2432 1478 mt 2504 1478 L
2468 1442 mt 2468 1514 L
2829 1338 mt 2901 1338 L
2865 1302 mt 2865 1374 L
3834 4066 mt 3906 4066 L
3870 4030 mt 3870 4102 L
5920  784 mt 5992  784 L
5956  748 mt 5956  820 L
3522  763 mt 3594  763 L
3558  727 mt 3558  799 L
4639  445 mt 4711  445 L
4675  409 mt 4675  481 L
5257 4594 mt 5329 4594 L
5293 4558 mt 5293 4630 L
6224  427 mt 6296  427 L
6260  391 mt 6260  463 L
3998  477 mt 4070  477 L
4034  441 mt 4034  513 L
 906 4614 mt  978 4614 L
 942 4578 mt  942 4650 L
4811  709 mt 4883  709 L
4847  673 mt 4847  745 L
3910 4493 mt 3982 4493 L
3946 4457 mt 3946 4529 L
4726 4115 mt 4798 4115 L
4762 4079 mt 4762 4151 L
4349 3845 mt 4421 3845 L
4385 3809 mt 4385 3881 L
3702 4118 mt 3774 4118 L
3738 4082 mt 3738 4154 L
2949 4615 mt 3021 4615 L
2985 4579 mt 2985 4651 L
 865 4169 mt  937 4169 L
 901 4133 mt  901 4205 L
2044 1941 mt 2116 1941 L
2080 1905 mt 2080 1977 L
4043 3535 mt 4115 3535 L
4079 3499 mt 4079 3571 L
3799  432 mt 3871  432 L
3835  396 mt 3835  468 L
2909 2831 mt 2981 2831 L
2945 2795 mt 2945 2867 L
5054  762 mt 5126  762 L
5090  726 mt 5090  798 L
1012  433 mt 1084  433 L
1048  397 mt 1048  469 L
2388  655 mt 2460  655 L
2424  619 mt 2424  691 L
1218 3422 mt 1290 3422 L
1254 3386 mt 1254 3458 L
1677 2994 mt 1749 2994 L
1713 2958 mt 1713 3030 L
5637 1445 mt 5709 1445 L
5673 1409 mt 5673 1481 L
1255 2312 mt 1327 2312 L
1291 2276 mt 1291 2348 L
5056  930 mt 5128  930 L
5092  894 mt 5092  966 L
6099 1699 mt 6171 1699 L
6135 1663 mt 6135 1735 L
1019 4601 mt 1091 4601 L
1055 4565 mt 1055 4637 L
2210 1608 mt 2282 1608 L
2246 1572 mt 2246 1644 L
5786 3372 mt 5858 3372 L
5822 3336 mt 5822 3408 L
3548 4616 mt 3620 4616 L
3584 4580 mt 3584 4652 L
6145  460 mt 6217  460 L
6181  424 mt 6181  496 L
6127  430 mt 6199  430 L
6163  394 mt 6163  466 L
4049  568 mt 4121  568 L
4085  532 mt 4085  604 L
6091  517 mt 6163  517 L
6127  481 mt 6127  553 L
6206 1460 mt 6278 1460 L
6242 1424 mt 6242 1496 L
2206  883 mt 2278  883 L
2242  847 mt 2242  919 L
6150 3424 mt 6222 3424 L
6186 3388 mt 6186 3460 L
 875 4547 mt  947 4547 L
 911 4511 mt  911 4583 L
 917 2059 mt  989 2059 L
 953 2023 mt  953 2095 L
2110 1005 mt 2182 1005 L
2146  969 mt 2146 1041 L
2943 2935 mt 3015 2935 L
2979 2899 mt 2979 2971 L
 870 2963 mt  942 2963 L
 906 2927 mt  906 2999 L
2568  436 mt 2640  436 L
2604  400 mt 2604  472 L
 986 4573 mt 1058 4573 L
1022 4537 mt 1022 4609 L
6218  489 mt 6290  489 L
6254  453 mt 6254  525 L
5919  564 mt 5991  564 L
5955  528 mt 5955  600 L
 863 2580 mt  935 2580 L
 899 2544 mt  899 2616 L
6216  730 mt 6288  730 L
6252  694 mt 6252  766 L
4283 2573 mt 4355 2573 L
4319 2537 mt 4319 2609 L
5138 4532 mt 5210 4532 L
5174 4496 mt 5174 4568 L
2470 3846 mt 2542 3846 L
2506 3810 mt 2506 3882 L
4115 1036 mt 4187 1036 L
4151 1000 mt 4151 1072 L
1133 1501 mt 1205 1501 L
1169 1465 mt 1169 1537 L
3490 2510 mt 3562 2510 L
3526 2474 mt 3526 2546 L
5990 1219 mt 6062 1219 L
6026 1183 mt 6026 1255 L
5382  414 mt 5454  414 L
5418  378 mt 5418  450 L
6216 1031 mt 6288 1031 L
6252  995 mt 6252 1067 L
4114 3677 mt 4186 3677 L
4150 3641 mt 4150 3713 L
3941 3106 mt 4013 3106 L
3977 3070 mt 3977 3142 L
4755  985 mt 4827  985 L
4791  949 mt 4791 1021 L
1565  736 mt 1637  736 L
1601  700 mt 1601  772 L
6141  519 mt 6213  519 L
6177  483 mt 6177  555 L
gs 898 414 5364 4203 rc
gr

0 sg
2798 5104 mt 
(\(F,DCTs,iMLP\)) s
 422 3300 mt  -90 rotate
(\(F,DCTb,iMLP\)) s
90 rotate
2975  223 mt 
(Corr = 0.28) s

end %%Color Dict

eplot
%%EndObject

epage
end

showpage

%%Trailer
%%EOF
