%!PS-Adobe-3.0 EPSF-3.0
%%Creator: MATLAB, The Mathworks, Inc. Version 7.7.0.471 (R2008b). Operating System: Microsoft Windows XP.
%%Title: Pictures\main_zoo_mvar_analysis_data_BMI_xcorr_bmig_p1_k1_2_7.eps
%%CreationDate: 10/26/2009  05:44:52
%%DocumentNeededFonts: Helvetica
%%DocumentProcessColors: Cyan Magenta Yellow Black
%%LanguageLevel: 2
%%Pages: 1
%%BoundingBox:    37   180   549   616
%%EndComments

%%BeginProlog
% MathWorks dictionary
/MathWorks 160 dict begin
% definition operators
/bdef {bind def} bind def
/ldef {load def} bind def
/xdef {exch def} bdef
/xstore {exch store} bdef
% operator abbreviations
/c  /clip ldef
/cc /concat ldef
/cp /closepath ldef
/gr /grestore ldef
/gs /gsave ldef
/mt /moveto ldef
/np /newpath ldef
/cm /currentmatrix ldef
/sm /setmatrix ldef
/rm /rmoveto ldef
/rl /rlineto ldef
/s {show newpath} bdef
/sc {setcmykcolor} bdef
/sr /setrgbcolor ldef
/sg /setgray ldef
/w /setlinewidth ldef
/j /setlinejoin ldef
/cap /setlinecap ldef
/rc {rectclip} bdef
/rf {rectfill} bdef
% page state control
/pgsv () def
/bpage {/pgsv save def} bdef
/epage {pgsv restore} bdef
/bplot /gsave ldef
/eplot {stroke grestore} bdef
% orientation switch
/portraitMode 0 def /landscapeMode 1 def /rotateMode 2 def
% coordinate system mappings
/dpi2point 0 def
% font control
/FontSize 0 def
/FMS {/FontSize xstore findfont [FontSize 0 0 FontSize neg 0 0]
  makefont setfont} bdef
/ISOLatin1Encoding where {pop /WindowsLatin1Encoding 256 array bdef
ISOLatin1Encoding WindowsLatin1Encoding copy pop
/.notdef/.notdef/quotesinglbase/florin/quotedblbase/ellipsis/dagger
/daggerdbl/circumflex/perthousand/Scaron/guilsinglleft/OE/.notdef/.notdef
/.notdef/.notdef/quoteleft/quoteright/quotedblleft/quotedblright/bullet
/endash/emdash/tilde/trademark/scaron/guilsinglright/oe/.notdef/.notdef
/Ydieresis WindowsLatin1Encoding 128 32 getinterval astore pop}
{/WindowsLatin1Encoding StandardEncoding bdef} ifelse
/reencode {exch dup where {pop load} {pop StandardEncoding} ifelse
  exch dup 3 1 roll findfont dup length dict begin
  { 1 index /FID ne {def}{pop pop} ifelse } forall
  /Encoding exch def currentdict end definefont pop} bdef
/isroman {findfont /CharStrings get /Agrave known} bdef
/FMSR {3 1 roll 1 index dup isroman {reencode} {pop pop} ifelse
  exch FMS} bdef
/csm {1 dpi2point div -1 dpi2point div scale neg translate
 dup landscapeMode eq {pop -90 rotate}
  {rotateMode eq {90 rotate} if} ifelse} bdef
% line types: solid, dotted, dashed, dotdash
/SO { [] 0 setdash } bdef
/DO { [.5 dpi2point mul 4 dpi2point mul] 0 setdash } bdef
/DA { [6 dpi2point mul] 0 setdash } bdef
/DD { [.5 dpi2point mul 4 dpi2point mul 6 dpi2point mul 4
  dpi2point mul] 0 setdash } bdef
% macros for lines and objects
/L {lineto stroke} bdef
/MP {3 1 roll moveto 1 sub {rlineto} repeat} bdef
/AP {{rlineto} repeat} bdef
/PDlw -1 def
/W {/PDlw currentlinewidth def setlinewidth} def
/PP {closepath eofill} bdef
/DP {closepath stroke} bdef
/MR {4 -2 roll moveto dup  0 exch rlineto exch 0 rlineto
  neg 0 exch rlineto closepath} bdef
/FR {MR stroke} bdef
/PR {MR fill} bdef
/L1i {{currentfile picstr readhexstring pop} image} bdef
/tMatrix matrix def
/MakeOval {newpath tMatrix currentmatrix pop translate scale
0 0 1 0 360 arc tMatrix setmatrix} bdef
/FO {MakeOval stroke} bdef
/PO {MakeOval fill} bdef
/PD {currentlinewidth 2 div 0 360 arc fill
   PDlw -1 eq not {PDlw w /PDlw -1 def} if} def
/FA {newpath tMatrix currentmatrix pop translate scale
  0 0 1 5 -2 roll arc tMatrix setmatrix stroke} bdef
/PA {newpath tMatrix currentmatrix pop	translate 0 0 moveto scale
  0 0 1 5 -2 roll arc closepath tMatrix setmatrix fill} bdef
/FAn {newpath tMatrix currentmatrix pop translate scale
  0 0 1 5 -2 roll arcn tMatrix setmatrix stroke} bdef
/PAn {newpath tMatrix currentmatrix pop translate 0 0 moveto scale
  0 0 1 5 -2 roll arcn closepath tMatrix setmatrix fill} bdef
/vradius 0 def /hradius 0 def /lry 0 def
/lrx 0 def /uly 0 def /ulx 0 def /rad 0 def
/MRR {/vradius xdef /hradius xdef /lry xdef /lrx xdef /uly xdef
  /ulx xdef newpath tMatrix currentmatrix pop ulx hradius add uly
  vradius add translate hradius vradius scale 0 0 1 180 270 arc 
  tMatrix setmatrix lrx hradius sub uly vradius add translate
  hradius vradius scale 0 0 1 270 360 arc tMatrix setmatrix
  lrx hradius sub lry vradius sub translate hradius vradius scale
  0 0 1 0 90 arc tMatrix setmatrix ulx hradius add lry vradius sub
  translate hradius vradius scale 0 0 1 90 180 arc tMatrix setmatrix
  closepath} bdef
/FRR {MRR stroke } bdef
/PRR {MRR fill } bdef
/MlrRR {/lry xdef /lrx xdef /uly xdef /ulx xdef /rad lry uly sub 2 div def
  newpath tMatrix currentmatrix pop ulx rad add uly rad add translate
  rad rad scale 0 0 1 90 270 arc tMatrix setmatrix lrx rad sub lry rad
  sub translate rad rad scale 0 0 1 270 90 arc tMatrix setmatrix
  closepath} bdef
/FlrRR {MlrRR stroke } bdef
/PlrRR {MlrRR fill } bdef
/MtbRR {/lry xdef /lrx xdef /uly xdef /ulx xdef /rad lrx ulx sub 2 div def
  newpath tMatrix currentmatrix pop ulx rad add uly rad add translate
  rad rad scale 0 0 1 180 360 arc tMatrix setmatrix lrx rad sub lry rad
  sub translate rad rad scale 0 0 1 0 180 arc tMatrix setmatrix
  closepath} bdef
/FtbRR {MtbRR stroke } bdef
/PtbRR {MtbRR fill } bdef
/stri 6 array def /dtri 6 array def
/smat 6 array def /dmat 6 array def
/tmat1 6 array def /tmat2 6 array def /dif 3 array def
/asub {/ind2 exch def /ind1 exch def dup dup
  ind1 get exch ind2 get sub exch } bdef
/tri_to_matrix {
  2 0 asub 3 1 asub 4 0 asub 5 1 asub
  dup 0 get exch 1 get 7 -1 roll astore } bdef
/compute_transform {
  dmat dtri tri_to_matrix tmat1 invertmatrix 
  smat stri tri_to_matrix tmat2 concatmatrix } bdef
/ds {stri astore pop} bdef
/dt {dtri astore pop} bdef
/db {2 copy /cols xdef /rows xdef mul dup 3 mul string
  currentfile 
  3 index 0 eq {/ASCIIHexDecode filter}
  {/ASCII85Decode filter 3 index 2 eq {/RunLengthDecode filter} if }
  ifelse exch readstring pop
  dup 0 3 index getinterval /rbmap xdef
  dup 2 index dup getinterval /gbmap xdef
  1 index dup 2 mul exch getinterval /bbmap xdef pop pop}bdef
/it {gs np dtri aload pop moveto lineto lineto cp c
  cols rows 8 compute_transform 
  rbmap gbmap bbmap true 3 colorimage gr}bdef
/il {newpath moveto lineto stroke}bdef
currentdict end def
%%EndProlog

%%BeginSetup
MathWorks begin

0 cap

end
%%EndSetup

%%Page: 1 1
%%BeginPageSetup
%%PageBoundingBox:    37   180   549   616
MathWorks begin
bpage
%%EndPageSetup

%%BeginObject: obj1
bplot

/dpi2point 12 def
portraitMode 0216 7344 csm

  234   -48  6149  5231 rc
85 dict begin %Colortable dictionary
/c0 { 0.000000 0.000000 0.000000 sr} bdef
/c1 { 1.000000 1.000000 1.000000 sr} bdef
/c2 { 0.900000 0.000000 0.000000 sr} bdef
/c3 { 0.000000 0.820000 0.000000 sr} bdef
/c4 { 0.000000 0.000000 0.800000 sr} bdef
/c5 { 0.910000 0.820000 0.320000 sr} bdef
/c6 { 1.000000 0.260000 0.820000 sr} bdef
/c7 { 0.000000 0.820000 0.820000 sr} bdef
c0
1 j
1 sg
   0    0 6919 5187 rf
6 w
0 4202 5362 0 0 -4202 899 4616 4 MP
PP
-5362 0 0 4202 5362 0 0 -4202 899 4616 5 MP stroke
4 w
DO
SO
6 w
0 sg
 899  414 mt 6261  414 L
 899 4616 mt 6261 4616 L
6261 4616 mt 6261  414 L
 899 4616 mt  899  414 L
 899 4616 mt 6261 4616 L
 899 4616 mt  899  414 L
 919 4616 mt  919 4562 L
 919  414 mt  919  467 L
%%IncludeResource: font Helvetica
/Helvetica /WindowsLatin1Encoding 240 FMSR

 713 4873 mt 
(-3) s
1806 4616 mt 1806 4562 L
1806  414 mt 1806  467 L
1600 4873 mt 
(-2) s
2693 4616 mt 2693 4562 L
2693  414 mt 2693  467 L
2487 4873 mt 
(-1) s
3580 4616 mt 3580 4562 L
3580  414 mt 3580  467 L
3514 4873 mt 
(0) s
4466 4616 mt 4466 4562 L
4466  414 mt 4466  467 L
4400 4873 mt 
(1) s
5353 4616 mt 5353 4562 L
5353  414 mt 5353  467 L
5287 4873 mt 
(2) s
6240 4616 mt 6240 4562 L
6240  414 mt 6240  467 L
6174 4873 mt 
(3) s
 899 4599 mt  952 4599 L
6261 4599 mt 6207 4599 L
 591 4688 mt 
(-3) s
 899 3904 mt  952 3904 L
6261 3904 mt 6207 3904 L
 591 3993 mt 
(-2) s
 899 3209 mt  952 3209 L
6261 3209 mt 6207 3209 L
 591 3298 mt 
(-1) s
 899 2514 mt  952 2514 L
6261 2514 mt 6207 2514 L
 731 2603 mt 
(0) s
 899 1820 mt  952 1820 L
6261 1820 mt 6207 1820 L
 731 1909 mt 
(1) s
 899 1125 mt  952 1125 L
6261 1125 mt 6207 1125 L
 731 1214 mt 
(2) s
 899  430 mt  952  430 L
6261  430 mt 6207  430 L
 731  519 mt 
(3) s
 899  414 mt 6261  414 L
 899 4616 mt 6261 4616 L
6261 4616 mt 6261  414 L
 899 4616 mt  899  414 L
gs 899 414 5363 4203 rc
gr

/c8 { 0.000000 0.000000 1.000000 sr} bdef
c8
3785  957 mt 3857  957 L
3821  921 mt 3821  993 L
2063 2686 mt 2135 2686 L
2099 2650 mt 2099 2722 L
4080 3273 mt 4152 3273 L
4116 3237 mt 4116 3309 L
4191 4072 mt 4263 4072 L
4227 4036 mt 4227 4108 L
2381 2284 mt 2453 2284 L
2417 2248 mt 2417 2320 L
2903 3039 mt 2975 3039 L
2939 3003 mt 2939 3075 L
3342 2619 mt 3414 2619 L
3378 2583 mt 3378 2655 L
1674 2874 mt 1746 2874 L
1710 2838 mt 1710 2910 L
3415 3553 mt 3487 3553 L
3451 3517 mt 3451 3589 L
5700 2436 mt 5772 2436 L
5736 2400 mt 5736 2472 L
1259 2731 mt 1331 2731 L
1295 2695 mt 1295 2767 L
2757 2365 mt 2829 2365 L
2793 2329 mt 2793 2401 L
2595 2261 mt 2667 2261 L
2631 2225 mt 2631 2297 L
2706 1740 mt 2778 1740 L
2742 1704 mt 2742 1776 L
4034 3479 mt 4106 3479 L
4070 3443 mt 4070 3515 L
3694 1298 mt 3766 1298 L
3730 1262 mt 3730 1334 L
2765  824 mt 2837  824 L
2801  788 mt 2801  860 L
3488 2778 mt 3560 2778 L
3524 2742 mt 3524 2814 L
4054 2668 mt 4126 2668 L
4090 2632 mt 4090 2704 L
4274 2024 mt 4346 2024 L
4310 1988 mt 4310 2060 L
2605 2782 mt 2677 2782 L
2641 2746 mt 2641 2818 L
3421 2989 mt 3493 2989 L
3457 2953 mt 3457 3025 L
3745 2869 mt 3817 2869 L
3781 2833 mt 3781 2905 L
2789 2820 mt 2861 2820 L
2825 2784 mt 2825 2856 L
4836 1538 mt 4908 1538 L
4872 1502 mt 4872 1574 L
4482 2405 mt 4554 2405 L
4518 2369 mt 4518 2441 L
3085 2270 mt 3157 2270 L
3121 2234 mt 3121 2306 L
4087 3106 mt 4159 3106 L
4123 3070 mt 4123 3142 L
4114 3822 mt 4186 3822 L
4150 3786 mt 4150 3858 L
5071 2754 mt 5143 2754 L
5107 2718 mt 5107 2790 L
3104 2889 mt 3176 2889 L
3140 2853 mt 3140 2925 L
3958 2440 mt 4030 2440 L
3994 2404 mt 3994 2476 L
4009 2935 mt 4081 2935 L
4045 2899 mt 4045 2971 L
5024 2414 mt 5096 2414 L
5060 2378 mt 5060 2450 L
4330 2920 mt 4402 2920 L
4366 2884 mt 4366 2956 L
3927 2691 mt 3999 2691 L
3963 2655 mt 3963 2727 L
3861 2484 mt 3933 2484 L
3897 2448 mt 3897 2520 L
3147 2115 mt 3219 2115 L
3183 2079 mt 3183 2151 L
3166 1489 mt 3238 1489 L
3202 1453 mt 3202 1525 L
2805 1838 mt 2877 1838 L
2841 1802 mt 2841 1874 L
4322 2768 mt 4394 2768 L
4358 2732 mt 4358 2804 L
3178 2904 mt 3250 2904 L
3214 2868 mt 3214 2940 L
2468 1911 mt 2540 1911 L
2504 1875 mt 2504 1947 L
4177 2140 mt 4249 2140 L
4213 2104 mt 4213 2176 L
5828 2682 mt 5900 2682 L
5864 2646 mt 5864 2718 L
3921 3693 mt 3993 3693 L
3957 3657 mt 3957 3729 L
3066 1336 mt 3138 1336 L
3102 1300 mt 3102 1372 L
2146 2606 mt 2218 2606 L
2182 2570 mt 2182 2642 L
4355 2120 mt 4427 2120 L
4391 2084 mt 4391 2156 L
2040 3468 mt 2112 3468 L
2076 3432 mt 2076 3504 L
3903 2035 mt 3975 2035 L
3939 1999 mt 3939 2071 L
4221 2462 mt 4293 2462 L
4257 2426 mt 4257 2498 L
2740 2558 mt 2812 2558 L
2776 2522 mt 2776 2594 L
2881 3405 mt 2953 3405 L
2917 3369 mt 2917 3441 L
3677 1756 mt 3749 1756 L
3713 1720 mt 3713 1792 L
4213 2884 mt 4285 2884 L
4249 2848 mt 4249 2920 L
3809 2279 mt 3881 2279 L
3845 2243 mt 3845 2315 L
4206 3265 mt 4278 3265 L
4242 3229 mt 4242 3301 L
4760 2374 mt 4832 2374 L
4796 2338 mt 4796 2410 L
3020 2650 mt 3092 2650 L
3056 2614 mt 3056 2686 L
4407 2007 mt 4479 2007 L
4443 1971 mt 4443 2043 L
3832 1388 mt 3904 1388 L
3868 1352 mt 3868 1424 L
4135 2633 mt 4207 2633 L
4171 2597 mt 4171 2669 L
4542 2664 mt 4614 2664 L
4578 2628 mt 4578 2700 L
3426 3184 mt 3498 3184 L
3462 3148 mt 3462 3220 L
3460 2334 mt 3532 2334 L
3496 2298 mt 3496 2370 L
4643 2914 mt 4715 2914 L
4679 2878 mt 4679 2950 L
2016 2204 mt 2088 2204 L
2052 2168 mt 2052 2240 L
3644 2741 mt 3716 2741 L
3680 2705 mt 3680 2777 L
2106 3436 mt 2178 3436 L
2142 3400 mt 2142 3472 L
3717 3610 mt 3789 3610 L
3753 3574 mt 3753 3646 L
3850 2659 mt 3922 2659 L
3886 2623 mt 3886 2695 L
2634 3376 mt 2706 3376 L
2670 3340 mt 2670 3412 L
3190 2745 mt 3262 2745 L
3226 2709 mt 3226 2781 L
1842 2135 mt 1914 2135 L
1878 2099 mt 1878 2171 L
1937 2094 mt 2009 2094 L
1973 2058 mt 1973 2130 L
5245 2925 mt 5317 2925 L
5281 2889 mt 5281 2961 L
3091 2709 mt 3163 2709 L
3127 2673 mt 3127 2745 L
3220 2165 mt 3292 2165 L
3256 2129 mt 3256 2201 L
3532 2040 mt 3604 2040 L
3568 2004 mt 3568 2076 L
3838 2554 mt 3910 2554 L
3874 2518 mt 3874 2590 L
2715 3503 mt 2787 3503 L
2751 3467 mt 2751 3539 L
2555 2104 mt 2627 2104 L
2591 2068 mt 2591 2140 L
3232 3731 mt 3304 3731 L
3268 3695 mt 3268 3767 L
4869 1748 mt 4941 1748 L
4905 1712 mt 4905 1784 L
3249 3515 mt 3321 3515 L
3285 3479 mt 3285 3551 L
3571 4205 mt 3643 4205 L
3607 4169 mt 3607 4241 L
4941 2909 mt 5013 2909 L
4977 2873 mt 4977 2945 L
4904 3980 mt 4976 3980 L
4940 3944 mt 4940 4016 L
3370 2018 mt 3442 2018 L
3406 1982 mt 3406 2054 L
3728 2597 mt 3800 2597 L
3764 2561 mt 3764 2633 L
3296 3112 mt 3368 3112 L
3332 3076 mt 3332 3148 L
1907 3711 mt 1979 3711 L
1943 3675 mt 1943 3747 L
3577 1764 mt 3649 1764 L
3613 1728 mt 3613 1800 L
2797 2750 mt 2869 2750 L
2833 2714 mt 2833 2786 L
2732 1978 mt 2804 1978 L
2768 1942 mt 2768 2014 L
3672 2545 mt 3744 2545 L
3708 2509 mt 3708 2581 L
3538 2811 mt 3610 2811 L
3574 2775 mt 3574 2847 L
5413 2423 mt 5485 2423 L
5449 2387 mt 5449 2459 L
4184 3220 mt 4256 3220 L
4220 3184 mt 4220 3256 L
 863  414 mt  935  414 L
 899  378 mt  899  450 L
3940 2593 mt 4012 2593 L
3976 2557 mt 3976 2629 L
3751 2293 mt 3823 2293 L
3787 2257 mt 3787 2329 L
1481 3331 mt 1553 3331 L
1517 3295 mt 1517 3367 L
3996 1917 mt 4068 1917 L
4032 1881 mt 4032 1953 L
3814 2418 mt 3886 2418 L
3850 2382 mt 3850 2454 L
3466 3491 mt 3538 3491 L
3502 3455 mt 3502 3527 L
4719 1772 mt 4791 1772 L
4755 1736 mt 4755 1808 L
3013 2320 mt 3085 2320 L
3049 2284 mt 3049 2356 L
2251 4131 mt 2323 4131 L
2287 4095 mt 2287 4167 L
5531 2792 mt 5603 2792 L
5567 2756 mt 5567 2828 L
3897 3306 mt 3969 3306 L
3933 3270 mt 3933 3342 L
3046 2067 mt 3118 2067 L
3082 2031 mt 3082 2103 L
3820 2562 mt 3892 2562 L
3856 2526 mt 3856 2598 L
4074 3125 mt 4146 3125 L
4110 3089 mt 4110 3161 L
2966 2298 mt 3038 2298 L
3002 2262 mt 3002 2334 L
2513 3051 mt 2585 3051 L
2549 3015 mt 2549 3087 L
1619 2383 mt 1691 2383 L
1655 2347 mt 1655 2419 L
3364 2704 mt 3436 2704 L
3400 2668 mt 3400 2740 L
4094 2972 mt 4166 2972 L
4130 2936 mt 4130 3008 L
3482 2673 mt 3554 2673 L
3518 2637 mt 3518 2709 L
3521 3087 mt 3593 3087 L
3557 3051 mt 3557 3123 L
1965 2930 mt 2037 2930 L
2001 2894 mt 2001 2966 L
2652 1936 mt 2724 1936 L
2688 1900 mt 2688 1972 L
3278 1878 mt 3350 1878 L
3314 1842 mt 3314 1914 L
1556 2089 mt 1628 2089 L
1592 2053 mt 1592 2125 L
3184 2796 mt 3256 2796 L
3220 2760 mt 3220 2832 L
3610 2899 mt 3682 2899 L
3646 2863 mt 3646 2935 L
3505 3625 mt 3577 3625 L
3541 3589 mt 3541 3661 L
4693 2189 mt 4765 2189 L
4729 2153 mt 4729 2225 L
3683 3415 mt 3755 3415 L
3719 3379 mt 3719 3451 L
4128 1434 mt 4200 1434 L
4164 1398 mt 4164 1470 L
2888 3349 mt 2960 3349 L
2924 3313 mt 2924 3385 L
2910 4305 mt 2982 4305 L
2946 4269 mt 2946 4341 L
1991 3206 mt 2063 3206 L
2027 3170 mt 2027 3242 L
3172 2396 mt 3244 2396 L
3208 2360 mt 3208 2432 L
3443 3227 mt 3515 3227 L
3479 3191 mt 3479 3263 L
3605 2410 mt 3677 2410 L
3641 2374 mt 3641 2446 L
3661 1892 mt 3733 1892 L
3697 1856 mt 3697 1928 L
3544 2488 mt 3616 2488 L
3580 2452 mt 3580 2524 L
3319 3289 mt 3391 3289 L
3355 3253 mt 3355 3325 L
4512 2325 mt 4584 2325 L
4548 2289 mt 4548 2361 L
4608 2307 mt 4680 2307 L
4644 2271 mt 4644 2343 L
3689 2343 mt 3761 2343 L
3725 2307 mt 3725 2379 L
4564 2835 mt 4636 2835 L
4600 2799 mt 4600 2871 L
5096 3358 mt 5168 3358 L
5132 3322 mt 5132 3394 L
3123 1689 mt 3195 1689 L
3159 1653 mt 3159 1725 L
4789 1572 mt 4861 1572 L
4825 1536 mt 4825 1608 L
4732 2057 mt 4804 2057 L
4768 2021 mt 4768 2093 L
2643 1858 mt 2715 1858 L
2679 1822 mt 2679 1894 L
5047 3000 mt 5119 3000 L
5083 2964 mt 5083 3036 L
3762 2677 mt 3834 2677 L
3798 2641 mt 3798 2713 L
3053 2859 mt 3125 2859 L
3089 2823 mt 3089 2895 L
4028 2242 mt 4100 2242 L
4064 2206 mt 4064 2278 L
3078 1634 mt 3150 1634 L
3114 1598 mt 3114 1670 L
4381 3877 mt 4453 3877 L
4417 3841 mt 4417 3913 L
2836 2497 mt 2908 2497 L
2872 2461 mt 2872 2533 L
2126 1593 mt 2198 1593 L
2162 1557 mt 2162 1629 L
3855 2541 mt 3927 2541 L
3891 2505 mt 3891 2577 L
3989 3322 mt 4061 3322 L
4025 3286 mt 4025 3358 L
3438 2356 mt 3510 2356 L
3474 2320 mt 3474 2392 L
2490 2523 mt 2562 2523 L
2526 2487 mt 2526 2559 L
4100 2576 mt 4172 2576 L
4136 2540 mt 4136 2612 L
4251 2311 mt 4323 2311 L
4287 2275 mt 4287 2347 L
5002 2773 mt 5074 2773 L
5038 2737 mt 5038 2809 L
3261 2514 mt 3333 2514 L
3297 2478 mt 3297 2550 L
4706 1809 mt 4778 1809 L
4742 1773 mt 4742 1845 L
4015 2109 mt 4087 2109 L
4051 2073 mt 4051 2145 L
2866 2830 mt 2938 2830 L
2902 2794 mt 2902 2866 L
2938 2787 mt 3010 2787 L
2974 2751 mt 2974 2823 L
3566 1561 mt 3638 1561 L
3602 1525 mt 3602 1597 L
3284 2275 mt 3356 2275 L
3320 2239 mt 3320 2311 L
3599 2501 mt 3671 2501 L
3635 2465 mt 3635 2537 L
1387 2956 mt 1459 2956 L
1423 2920 mt 1423 2992 L
3040 1954 mt 3112 1954 L
3076 1918 mt 3076 1990 L
2697 3567 mt 2769 3567 L
2733 3531 mt 2733 3603 L
3510 2199 mt 3582 2199 L
3546 2163 mt 3546 2235 L
4338 2655 mt 4410 2655 L
4374 2619 mt 4374 2691 L
2749 2388 mt 2821 2388 L
2785 2352 mt 2785 2424 L
2407 3367 mt 2479 3367 L
2443 3331 mt 2443 3403 L
3307 2427 mt 3379 2427 L
3343 2391 mt 3343 2463 L
4574 2370 mt 4646 2370 L
4610 2334 mt 4610 2406 L
2432 1643 mt 2504 1643 L
2468 1607 mt 2468 1679 L
3267 3069 mt 3339 3069 L
3303 3033 mt 3303 3105 L
4961 3250 mt 5033 3250 L
4997 3214 mt 4997 3286 L
3007 3581 mt 3079 3581 L
3043 3545 mt 3043 3617 L
3196 3281 mt 3268 3281 L
3232 3245 mt 3232 3317 L
2662 3641 mt 2734 3641 L
2698 3605 mt 2698 3677 L
4585 1207 mt 4657 1207 L
4621 1171 mt 4621 1243 L
2394 1872 mt 2466 1872 L
2430 1836 mt 2430 1908 L
2523 1671 mt 2595 1671 L
2559 1635 mt 2559 1707 L
3915 2849 mt 3987 2849 L
3951 2813 mt 3951 2885 L
3359 2228 mt 3431 2228 L
3395 2192 mt 3395 2264 L
2444 3057 mt 2516 3057 L
2480 3021 mt 2480 3093 L
2355 3191 mt 2427 3191 L
2391 3155 mt 2391 3227 L
4425 1006 mt 4497 1006 L
4461  970 mt 4461 1042 L
3325 1972 mt 3397 1972 L
3361 1936 mt 3361 2008 L
3582 1419 mt 3654 1419 L
3618 1383 mt 3618 1455 L
2575 2967 mt 2647 2967 L
2611 2931 mt 2611 3003 L
2828 2445 mt 2900 2445 L
2864 2409 mt 2864 2481 L
3381  898 mt 3453  898 L
3417  862 mt 3417  934 L
2565 1514 mt 2637 1514 L
2601 1478 mt 2601 1550 L
4886 2983 mt 4958 2983 L
4922 2947 mt 4922 3019 L
3977 2519 mt 4049 2519 L
4013 2483 mt 4013 2555 L
2773 3093 mt 2845 3093 L
2809 3057 mt 2809 3129 L
2201 1942 mt 2273 1942 L
2237 1906 mt 2237 1978 L
3141 2247 mt 3213 2247 L
3177 2211 mt 3177 2283 L
3734 2265 mt 3806 2265 L
3770 2229 mt 3770 2301 L
3803 2854 mt 3875 2854 L
3839 2818 mt 3839 2890 L
5365 1698 mt 5437 1698 L
5401 1662 mt 5401 1734 L
2980 2946 mt 3052 2946 L
3016 2910 mt 3016 2982 L
2420 2646 mt 2492 2646 L
2456 2610 mt 2456 2682 L
3237 2718 mt 3309 2718 L
3273 2682 mt 3273 2754 L
3033 1121 mt 3105 1121 L
3069 1085 mt 3069 1157 L
3432 2584 mt 3504 2584 L
3468 2548 mt 3468 2620 L
4107 1049 mt 4179 1049 L
4143 1013 mt 4143 1085 L
2267  724 mt 2339  724 L
2303  688 mt 2303  760 L
3072 2379 mt 3144 2379 L
3108 2343 mt 3108 2415 L
3560 2046 mt 3632 2046 L
3596 2010 mt 3596 2082 L
4149 1823 mt 4221 1823 L
4185 1787 mt 4185 1859 L
3255 4023 mt 3327 4023 L
3291 3987 mt 3291 4059 L
3627 2145 mt 3699 2145 L
3663 2109 mt 3663 2181 L
3330 2458 mt 3402 2458 L
3366 2422 mt 3366 2494 L
2874 3157 mt 2946 3157 L
2910 3121 mt 2910 3193 L
3797 1707 mt 3869 1707 L
3833 1671 mt 3833 1743 L
4472 2180 mt 4544 2180 L
4508 2144 mt 4508 2216 L
3214 2467 mt 3286 2467 L
3250 2431 mt 3250 2503 L
3934 2001 mt 4006 2001 L
3970 1965 mt 3970 2037 L
2896 2736 mt 2968 2736 L
2932 2700 mt 2932 2772 L
4680 2392 mt 4752 2392 L
4716 2356 mt 4716 2428 L
2183 2029 mt 2255 2029 L
2219 1993 mt 2219 2065 L
3844 4616 mt 3916 4616 L
3880 4580 mt 3880 4652 L
4306 2894 mt 4378 2894 L
4342 2858 mt 4342 2930 L
5211 1779 mt 5283 1779 L
5247 1743 mt 5247 1815 L
3588 3395 mt 3660 3395 L
3624 3359 mt 3624 3431 L
2624 3942 mt 2696 3942 L
2660 3906 mt 2660 3978 L
3649 3063 mt 3721 3063 L
3685 3027 mt 3685 3099 L
3700 1232 mt 3772 1232 L
3736 1196 mt 3736 1268 L
3410 1448 mt 3482 1448 L
3446 1412 mt 3446 1484 L
1876 2237 mt 1948 2237 L
1912 2201 mt 1912 2273 L
4002 2160 mt 4074 2160 L
4038 2124 mt 4038 2196 L
3774 2073 mt 3846 2073 L
3810 2037 mt 3810 2109 L
3393 2347 mt 3465 2347 L
3429 2311 mt 3429 2383 L
4655 3151 mt 4727 3151 L
4691 3115 mt 4691 3187 L
6225 3386 mt 6297 3386 L
6261 3350 mt 6261 3422 L
3616 2722 mt 3688 2722 L
3652 2686 mt 3652 2758 L
2924 1152 mt 2996 1152 L
2960 1116 mt 2960 1188 L
3499 3017 mt 3571 3017 L
3535 2981 mt 3535 3053 L
4981 1732 mt 5053 1732 L
5017 1696 mt 5017 1768 L
3471 2978 mt 3543 2978 L
3507 2942 mt 3507 3014 L
3885 2099 mt 3957 2099 L
3921 2063 mt 3921 2135 L
4453 2218 mt 4525 2218 L
4489 2182 mt 4489 2254 L
3791 3164 mt 3863 3164 L
3827 3128 mt 3827 3200 L
2545 3425 mt 2617 3425 L
2581 3389 mt 2581 3461 L
3208 2150 mt 3280 2150 L
3244 2114 mt 3244 2186 L
4631 2251 mt 4703 2251 L
4667 2215 mt 4667 2287 L
4298 3144 mt 4370 3144 L
4334 3108 mt 4334 3180 L
4372 2864 mt 4444 2864 L
4408 2828 mt 4408 2900 L
4775 1865 mt 4847 1865 L
4811 1829 mt 4811 1901 L
3059 2214 mt 3131 2214 L
3095 2178 mt 3095 2250 L
4444 1990 mt 4516 1990 L
4480 1954 mt 4480 2026 L
4259 1885 mt 4331 1885 L
4295 1849 mt 4295 1921 L
4398 2994 mt 4470 2994 L
4434 2958 mt 4434 3030 L
5282 2637 mt 5354 2637 L
5318 2601 mt 5318 2673 L
3116 2700 mt 3188 2700 L
3152 2664 mt 3152 2736 L
3110 3081 mt 3182 3081 L
3146 3045 mt 3146 3117 L
3780 3178 mt 3852 3178 L
3816 3142 mt 3816 3214 L
2945 1624 mt 3017 1624 L
2981 1588 mt 2981 1660 L
3952 3340 mt 4024 3340 L
3988 3304 mt 3988 3376 L
4142 2727 mt 4214 2727 L
4178 2691 mt 4178 2763 L
4463 2532 mt 4535 2532 L
4499 2496 mt 4499 2568 L
2085 1816 mt 2157 1816 L
2121 1780 mt 2121 1852 L
3516 3022 mt 3588 3022 L
3552 2986 mt 3552 3058 L
3153 2940 mt 3225 2940 L
3189 2904 mt 3189 2976 L
3129 3034 mt 3201 3034 L
3165 2998 mt 3165 3070 L
3243 2155 mt 3315 2155 L
3279 2119 mt 3279 2191 L
5468 2185 mt 5540 2185 L
5504 2149 mt 5504 2221 L
2534 3797 mt 2606 3797 L
2570 3761 mt 2570 3833 L
3909 3527 mt 3981 3527 L
3945 3491 mt 3945 3563 L
3290 2316 mt 3362 2316 L
3326 2280 mt 3326 2352 L
4121 2401 mt 4193 2401 L
4157 2365 mt 4157 2437 L
2781 3540 mt 2853 3540 L
2817 3504 mt 2817 3576 L
2723 1662 mt 2795 1662 L
2759 1626 mt 2759 1698 L
4266 2615 mt 4338 2615 L
4302 2579 mt 4302 2651 L
4852 1354 mt 4924 1354 L
4888 1318 mt 4888 1390 L
3879 3137 mt 3951 3137 L
3915 3101 mt 3915 3173 L
3768 2764 mt 3840 2764 L
3804 2728 mt 3804 2800 L
5180 2571 mt 5252 2571 L
5216 2535 mt 5216 2607 L
4522 2611 mt 4594 2611 L
4558 2575 mt 4558 2647 L
4067 2506 mt 4139 2506 L
4103 2470 mt 4103 2542 L
4347 2083 mt 4419 2083 L
4383 2047 mt 4383 2119 L
2993 2432 mt 3065 2432 L
3029 2396 mt 3029 2468 L
2235 2951 mt 2307 2951 L
2271 2915 mt 2271 2987 L
4364 1318 mt 4436 1318 L
4400 1282 mt 4400 1354 L
1766 3011 mt 1838 3011 L
1802 2975 mt 1802 3047 L
2312 2840 mt 2384 2840 L
2348 2804 mt 2348 2876 L
4199 3457 mt 4271 3457 L
4235 3421 mt 4235 3493 L
4390 3242 mt 4462 3242 L
4426 3206 mt 4426 3278 L
5321 3908 mt 5393 3908 L
5357 3872 mt 5357 3944 L
4314 3257 mt 4386 3257 L
4350 3221 mt 4350 3293 L
2298  564 mt 2370  564 L
2334  528 mt 2334  600 L
1805 3131 mt 1877 3131 L
1841 3095 mt 1841 3167 L
4228 1583 mt 4300 1583 L
4264 1547 mt 4264 1619 L
2586 2641 mt 2658 2641 L
2622 2605 mt 2622 2677 L
3867 2449 mt 3939 2449 L
3903 2413 mt 3903 2485 L
2973 2256 mt 3045 2256 L
3009 2220 mt 3009 2292 L
4047 2580 mt 4119 2580 L
4083 2544 mt 4083 2616 L
4746 1404 mt 4818 1404 L
4782 1368 mt 4782 1440 L
2327 2475 mt 2399 2475 L
2363 2439 mt 2363 2511 L
3404 2815 mt 3476 2815 L
3440 2779 mt 3440 2851 L
6033 1526 mt 6105 1526 L
6069 1490 mt 6069 1562 L
3313 1930 mt 3385 1930 L
3349 1894 mt 3349 1966 L
2615 2051 mt 2687 2051 L
2651 2015 mt 2651 2087 L
3527 2078 mt 3599 2078 L
3563 2042 mt 3563 2114 L
3706 3099 mt 3778 3099 L
3742 3063 mt 3742 3135 L
2813 2223 mt 2885 2223 L
2849 2187 mt 2849 2259 L
2341 2801 mt 2413 2801 L
2377 2765 mt 2377 2837 L
3971 1787 mt 4043 1787 L
4007 1751 mt 4007 1823 L
3387 2962 mt 3459 2962 L
3423 2926 mt 3423 2998 L
4041 2825 mt 4113 2825 L
4077 2789 mt 4077 2861 L
3347 3075 mt 3419 3075 L
3383 3039 mt 3383 3111 L
4021 2480 mt 4093 2480 L
4057 2444 mt 4057 2516 L
3594 2194 mt 3666 2194 L
3630 2158 mt 3630 2230 L
2689 1960 mt 2761 1960 L
2725 1924 mt 2725 1996 L
3376 1462 mt 3448 1462 L
3412 1426 mt 3412 1498 L
3449 3297 mt 3521 3297 L
3485 3261 mt 3485 3333 L
3135 2233 mt 3207 2233 L
3171 2197 mt 3171 2269 L
4170 3213 mt 4242 3213 L
4206 3177 mt 4206 3249 L
3000 2493 mt 3072 2493 L
3036 2457 mt 3036 2529 L
4435 1802 mt 4507 1802 L
4471 1766 mt 4471 1838 L
4236 2536 mt 4308 2536 L
4272 2500 mt 4272 2572 L
3964 1614 mt 4036 1614 L
4000 1578 mt 4000 1650 L
3666 2759 mt 3738 2759 L
3702 2723 mt 3702 2795 L
3226 3774 mt 3298 3774 L
3262 3738 mt 3262 3810 L
2987 2329 mt 3059 2329 L
3023 2293 mt 3023 2365 L
2368 1680 mt 2440 1680 L
2404 1644 mt 2404 1716 L
2917 2806 mt 2989 2806 L
2953 2770 mt 2953 2842 L
3891 1653 mt 3963 1653 L
3927 1617 mt 3927 1689 L
2844 2125 mt 2916 2125 L
2880 2089 mt 2880 2161 L
4553 3658 mt 4625 3658 L
4589 3622 mt 4589 3694 L
2456 2302 mt 2528 2302 L
2492 2266 mt 2492 2338 L
4243 1851 mt 4315 1851 L
4279 1815 mt 4279 1887 L
4805 2624 mt 4877 2624 L
4841 2588 mt 4841 2660 L
3398 2567 mt 3470 2567 L
3434 2531 mt 3434 2603 L
4416 2175 mt 4488 2175 L
4452 2139 mt 4452 2211 L
4619 2338 mt 4691 2338 L
4655 2302 mt 4655 2374 L
4060 2352 mt 4132 2352 L
4096 2316 mt 4096 2388 L
4820 1923 mt 4892 1923 L
4856 1887 mt 4856 1959 L
4667 1371 mt 4739 1371 L
4703 1335 mt 4703 1407 L
2502 1723 mt 2574 1723 L
2538 1687 mt 2538 1759 L
5606 3171 mt 5678 3171 L
5642 3135 mt 5642 3207 L
3740 2602 mt 3812 2602 L
3776 2566 mt 3776 2638 L
2851 1984 mt 2923 1984 L
2887 1948 mt 2887 2020 L
2282 3446 mt 2354 3446 L
2318 3410 mt 2318 3482 L
3273 1502 mt 3345 1502 L
3309 1466 mt 3309 1538 L
3655 2012 mt 3727 2012 L
3691 1976 mt 3691 2048 L
3638 2170 mt 3710 2170 L
3674 2134 mt 3674 2206 L
3160 1277 mt 3232 1277 L
3196 1241 mt 3196 1313 L
3757 3752 mt 3829 3752 L
3793 3716 mt 3793 3788 L
4597 3675 mt 4669 3675 L
4633 3639 mt 4633 3711 L
1722 2589 mt 1794 2589 L
1758 2553 mt 1758 2625 L
2218 3848 mt 2290 3848 L
2254 3812 mt 2254 3884 L
3621 2209 mt 3693 2209 L
3657 2173 mt 3657 2245 L
3983 1845 mt 4055 1845 L
4019 1809 mt 4019 1881 L
5122 2062 mt 5194 2062 L
5158 2026 mt 5158 2098 L
3098 1948 mt 3170 1948 L
3134 1912 mt 3134 1984 L
4922 3028 mt 4994 3028 L
4958 2992 mt 4958 3064 L
4163 2288 mt 4235 2288 L
4199 2252 mt 4199 2324 L
3202 3314 mt 3274 3314 L
3238 3278 mt 3238 3350 L
2959 1966 mt 3031 1966 L
2995 1930 mt 2995 2002 L
4290 1550 mt 4362 1550 L
4326 1514 mt 4326 1586 L
3711 3005 mt 3783 3005 L
3747 2969 mt 3747 3041 L
3493 3118 mt 3565 3118 L
3529 3082 mt 3529 3154 L
3633 2528 mt 3705 2528 L
3669 2492 mt 3669 2564 L
3946 1604 mt 4018 1604 L
3982 1568 mt 3982 1640 L
3826 2361 mt 3898 2361 L
3862 2325 mt 3862 2397 L
2680 1831 mt 2752 1831 L
2716 1795 mt 2716 1867 L
4532 1995 mt 4604 1995 L
4568 1959 mt 4568 2031 L
3336 2695 mt 3408 2695 L
3372 2659 mt 3372 2731 L
3723 2549 mt 3795 2549 L
3759 2513 mt 3759 2585 L
3302 1904 mt 3374 1904 L
3338 1868 mt 3338 1940 L
4492 1794 mt 4564 1794 L
4528 1758 mt 4528 1830 L
3477 1715 mt 3549 1715 L
3513 1679 mt 3513 1751 L
2165 3235 mt 2237 3235 L
2201 3199 mt 2201 3271 L
5150 2844 mt 5222 2844 L
5186 2808 mt 5186 2880 L
3555 2471 mt 3627 2471 L
3591 2435 mt 3591 2507 L
4282 2713 mt 4354 2713 L
4318 2677 mt 4318 2749 L
2821 2510 mt 2893 2510 L
2857 2474 mt 2857 2546 L
3454 1181 mt 3526 1181 L
3490 1145 mt 3490 1217 L
3353 2130 mt 3425 2130 L
3389 2094 mt 3389 2166 L
3549 1255 mt 3621 1255 L
3585 1219 mt 3585 1291 L
4156 3198 mt 4228 3198 L
4192 3162 mt 4192 3234 L
2952 1898 mt 3024 1898 L
2988 1862 mt 2988 1934 L
2479 2628 mt 2551 2628 L
2515 2592 mt 2515 2664 L
2931 2879 mt 3003 2879 L
2967 2843 mt 2967 2915 L
4501 1087 mt 4573 1087 L
4537 1051 mt 4537 1123 L
3873 2453 mt 3945 2453 L
3909 2417 mt 3909 2489 L
2671 1476 mt 2743 1476 L
2707 1440 mt 2707 1512 L
3027 3045 mt 3099 3045 L
3063 3009 mt 3063 3081 L
2859 3595 mt 2931 3595 L
2895 3559 mt 2895 3631 L
gs 899 414 5363 4203 rc
gr

0 sg
2775 5104 mt 
(\(F,DCTb,GMM\)) s
 482 3343 mt  -90 rotate
(\(S,LFCC,GMM\)) s
90 rotate
2975  223 mt 
(Corr = 0.02) s

end %%Color Dict

eplot
%%EndObject

epage
end

showpage

%%Trailer
%%EOF
