%!PS-Adobe-3.0 EPSF-3.0
%%Creator: MATLAB, The Mathworks, Inc. Version 7.7.0.471 (R2008b). Operating System: Microsoft Windows XP.
%%Title: Pictures\main_zoo_mvar_analysis_data_BMI_xcorr_bmi_p1_k2_6_9.eps
%%CreationDate: 10/26/2009  05:44:34
%%DocumentNeededFonts: Helvetica
%%DocumentProcessColors: Cyan Magenta Yellow Black
%%LanguageLevel: 2
%%Pages: 1
%%BoundingBox:    32   180   546   616
%%EndComments

%%BeginProlog
% MathWorks dictionary
/MathWorks 160 dict begin
% definition operators
/bdef {bind def} bind def
/ldef {load def} bind def
/xdef {exch def} bdef
/xstore {exch store} bdef
% operator abbreviations
/c  /clip ldef
/cc /concat ldef
/cp /closepath ldef
/gr /grestore ldef
/gs /gsave ldef
/mt /moveto ldef
/np /newpath ldef
/cm /currentmatrix ldef
/sm /setmatrix ldef
/rm /rmoveto ldef
/rl /rlineto ldef
/s {show newpath} bdef
/sc {setcmykcolor} bdef
/sr /setrgbcolor ldef
/sg /setgray ldef
/w /setlinewidth ldef
/j /setlinejoin ldef
/cap /setlinecap ldef
/rc {rectclip} bdef
/rf {rectfill} bdef
% page state control
/pgsv () def
/bpage {/pgsv save def} bdef
/epage {pgsv restore} bdef
/bplot /gsave ldef
/eplot {stroke grestore} bdef
% orientation switch
/portraitMode 0 def /landscapeMode 1 def /rotateMode 2 def
% coordinate system mappings
/dpi2point 0 def
% font control
/FontSize 0 def
/FMS {/FontSize xstore findfont [FontSize 0 0 FontSize neg 0 0]
  makefont setfont} bdef
/ISOLatin1Encoding where {pop /WindowsLatin1Encoding 256 array bdef
ISOLatin1Encoding WindowsLatin1Encoding copy pop
/.notdef/.notdef/quotesinglbase/florin/quotedblbase/ellipsis/dagger
/daggerdbl/circumflex/perthousand/Scaron/guilsinglleft/OE/.notdef/.notdef
/.notdef/.notdef/quoteleft/quoteright/quotedblleft/quotedblright/bullet
/endash/emdash/tilde/trademark/scaron/guilsinglright/oe/.notdef/.notdef
/Ydieresis WindowsLatin1Encoding 128 32 getinterval astore pop}
{/WindowsLatin1Encoding StandardEncoding bdef} ifelse
/reencode {exch dup where {pop load} {pop StandardEncoding} ifelse
  exch dup 3 1 roll findfont dup length dict begin
  { 1 index /FID ne {def}{pop pop} ifelse } forall
  /Encoding exch def currentdict end definefont pop} bdef
/isroman {findfont /CharStrings get /Agrave known} bdef
/FMSR {3 1 roll 1 index dup isroman {reencode} {pop pop} ifelse
  exch FMS} bdef
/csm {1 dpi2point div -1 dpi2point div scale neg translate
 dup landscapeMode eq {pop -90 rotate}
  {rotateMode eq {90 rotate} if} ifelse} bdef
% line types: solid, dotted, dashed, dotdash
/SO { [] 0 setdash } bdef
/DO { [.5 dpi2point mul 4 dpi2point mul] 0 setdash } bdef
/DA { [6 dpi2point mul] 0 setdash } bdef
/DD { [.5 dpi2point mul 4 dpi2point mul 6 dpi2point mul 4
  dpi2point mul] 0 setdash } bdef
% macros for lines and objects
/L {lineto stroke} bdef
/MP {3 1 roll moveto 1 sub {rlineto} repeat} bdef
/AP {{rlineto} repeat} bdef
/PDlw -1 def
/W {/PDlw currentlinewidth def setlinewidth} def
/PP {closepath eofill} bdef
/DP {closepath stroke} bdef
/MR {4 -2 roll moveto dup  0 exch rlineto exch 0 rlineto
  neg 0 exch rlineto closepath} bdef
/FR {MR stroke} bdef
/PR {MR fill} bdef
/L1i {{currentfile picstr readhexstring pop} image} bdef
/tMatrix matrix def
/MakeOval {newpath tMatrix currentmatrix pop translate scale
0 0 1 0 360 arc tMatrix setmatrix} bdef
/FO {MakeOval stroke} bdef
/PO {MakeOval fill} bdef
/PD {currentlinewidth 2 div 0 360 arc fill
   PDlw -1 eq not {PDlw w /PDlw -1 def} if} def
/FA {newpath tMatrix currentmatrix pop translate scale
  0 0 1 5 -2 roll arc tMatrix setmatrix stroke} bdef
/PA {newpath tMatrix currentmatrix pop	translate 0 0 moveto scale
  0 0 1 5 -2 roll arc closepath tMatrix setmatrix fill} bdef
/FAn {newpath tMatrix currentmatrix pop translate scale
  0 0 1 5 -2 roll arcn tMatrix setmatrix stroke} bdef
/PAn {newpath tMatrix currentmatrix pop translate 0 0 moveto scale
  0 0 1 5 -2 roll arcn closepath tMatrix setmatrix fill} bdef
/vradius 0 def /hradius 0 def /lry 0 def
/lrx 0 def /uly 0 def /ulx 0 def /rad 0 def
/MRR {/vradius xdef /hradius xdef /lry xdef /lrx xdef /uly xdef
  /ulx xdef newpath tMatrix currentmatrix pop ulx hradius add uly
  vradius add translate hradius vradius scale 0 0 1 180 270 arc 
  tMatrix setmatrix lrx hradius sub uly vradius add translate
  hradius vradius scale 0 0 1 270 360 arc tMatrix setmatrix
  lrx hradius sub lry vradius sub translate hradius vradius scale
  0 0 1 0 90 arc tMatrix setmatrix ulx hradius add lry vradius sub
  translate hradius vradius scale 0 0 1 90 180 arc tMatrix setmatrix
  closepath} bdef
/FRR {MRR stroke } bdef
/PRR {MRR fill } bdef
/MlrRR {/lry xdef /lrx xdef /uly xdef /ulx xdef /rad lry uly sub 2 div def
  newpath tMatrix currentmatrix pop ulx rad add uly rad add translate
  rad rad scale 0 0 1 90 270 arc tMatrix setmatrix lrx rad sub lry rad
  sub translate rad rad scale 0 0 1 270 90 arc tMatrix setmatrix
  closepath} bdef
/FlrRR {MlrRR stroke } bdef
/PlrRR {MlrRR fill } bdef
/MtbRR {/lry xdef /lrx xdef /uly xdef /ulx xdef /rad lrx ulx sub 2 div def
  newpath tMatrix currentmatrix pop ulx rad add uly rad add translate
  rad rad scale 0 0 1 180 360 arc tMatrix setmatrix lrx rad sub lry rad
  sub translate rad rad scale 0 0 1 0 180 arc tMatrix setmatrix
  closepath} bdef
/FtbRR {MtbRR stroke } bdef
/PtbRR {MtbRR fill } bdef
/stri 6 array def /dtri 6 array def
/smat 6 array def /dmat 6 array def
/tmat1 6 array def /tmat2 6 array def /dif 3 array def
/asub {/ind2 exch def /ind1 exch def dup dup
  ind1 get exch ind2 get sub exch } bdef
/tri_to_matrix {
  2 0 asub 3 1 asub 4 0 asub 5 1 asub
  dup 0 get exch 1 get 7 -1 roll astore } bdef
/compute_transform {
  dmat dtri tri_to_matrix tmat1 invertmatrix 
  smat stri tri_to_matrix tmat2 concatmatrix } bdef
/ds {stri astore pop} bdef
/dt {dtri astore pop} bdef
/db {2 copy /cols xdef /rows xdef mul dup 3 mul string
  currentfile 
  3 index 0 eq {/ASCIIHexDecode filter}
  {/ASCII85Decode filter 3 index 2 eq {/RunLengthDecode filter} if }
  ifelse exch readstring pop
  dup 0 3 index getinterval /rbmap xdef
  dup 2 index dup getinterval /gbmap xdef
  1 index dup 2 mul exch getinterval /bbmap xdef pop pop}bdef
/it {gs np dtri aload pop moveto lineto lineto cp c
  cols rows 8 compute_transform 
  rbmap gbmap bbmap true 3 colorimage gr}bdef
/il {newpath moveto lineto stroke}bdef
currentdict end def
%%EndProlog

%%BeginSetup
MathWorks begin

0 cap

end
%%EndSetup

%%Page: 1 1
%%BeginPageSetup
%%PageBoundingBox:    32   180   546   616
MathWorks begin
bpage
%%EndPageSetup

%%BeginObject: obj1
bplot

/dpi2point 12 def
portraitMode 0216 7344 csm

  174   -48  6173  5231 rc
85 dict begin %Colortable dictionary
/c0 { 0.000000 0.000000 0.000000 sr} bdef
/c1 { 1.000000 1.000000 1.000000 sr} bdef
/c2 { 0.900000 0.000000 0.000000 sr} bdef
/c3 { 0.000000 0.820000 0.000000 sr} bdef
/c4 { 0.000000 0.000000 0.800000 sr} bdef
/c5 { 0.910000 0.820000 0.320000 sr} bdef
/c6 { 1.000000 0.260000 0.820000 sr} bdef
/c7 { 0.000000 0.820000 0.820000 sr} bdef
c0
1 j
1 sg
   0    0 6919 5187 rf
6 w
0 4202 5362 0 0 -4202 899 4616 4 MP
PP
-5362 0 0 4202 5362 0 0 -4202 899 4616 5 MP stroke
4 w
DO
SO
6 w
0 sg
 899  414 mt 6261  414 L
 899 4616 mt 6261 4616 L
6261 4616 mt 6261  414 L
 899 4616 mt  899  414 L
 899 4616 mt 6261 4616 L
 899 4616 mt  899  414 L
1971 4616 mt 1971 4562 L
1971  415 mt 1971  468 L
%%IncludeResource: font Helvetica
/Helvetica /WindowsLatin1Encoding 240 FMSR

1805 4873 mt 
(0.2) s
3043 4616 mt 3043 4562 L
3043  415 mt 3043  468 L
2877 4873 mt 
(0.4) s
4116 4616 mt 4116 4562 L
4116  415 mt 4116  468 L
3950 4873 mt 
(0.6) s
5188 4616 mt 5188 4562 L
5188  415 mt 5188  468 L
5022 4873 mt 
(0.8) s
 899 4195 mt  952 4195 L
6261 4195 mt 6207 4195 L
 531 4284 mt 
(0.1) s
 899 3775 mt  952 3775 L
6261 3775 mt 6207 3775 L
 531 3864 mt 
(0.2) s
 899 3355 mt  952 3355 L
6261 3355 mt 6207 3355 L
 531 3444 mt 
(0.3) s
 899 2935 mt  952 2935 L
6261 2935 mt 6207 2935 L
 531 3024 mt 
(0.4) s
 899 2515 mt  952 2515 L
6261 2515 mt 6207 2515 L
 531 2604 mt 
(0.5) s
 899 2095 mt  952 2095 L
6261 2095 mt 6207 2095 L
 531 2184 mt 
(0.6) s
 899 1675 mt  952 1675 L
6261 1675 mt 6207 1675 L
 531 1764 mt 
(0.7) s
 899 1255 mt  952 1255 L
6261 1255 mt 6207 1255 L
 531 1344 mt 
(0.8) s
 899  834 mt  952  834 L
6261  834 mt 6207  834 L
 531  923 mt 
(0.9) s
 899  414 mt 6261  414 L
 899 4616 mt 6261 4616 L
6261 4616 mt 6261  414 L
 899 4616 mt  899  414 L
gs 899 414 5363 4203 rc
gr

/c8 { 0.000000 0.000000 1.000000 sr} bdef
c8
3659  523 mt 3731  523 L
3695  487 mt 3695  559 L
3255  606 mt 3327  606 L
3291  570 mt 3291  642 L
5163 1448 mt 5235 1448 L
5199 1412 mt 5199 1484 L
3233 3345 mt 3305 3345 L
3269 3309 mt 3269 3381 L
5442  556 mt 5514  556 L
5478  520 mt 5478  592 L
5508  675 mt 5580  675 L
5544  639 mt 5544  711 L
1647 4574 mt 1719 4574 L
1683 4538 mt 1683 4610 L
1701 1083 mt 1773 1083 L
1737 1047 mt 1737 1119 L
1010  558 mt 1082  558 L
1046  522 mt 1046  594 L
6183  781 mt 6255  781 L
6219  745 mt 6219  817 L
1160  765 mt 1232  765 L
1196  729 mt 1196  801 L
4050  740 mt 4122  740 L
4086  704 mt 4086  776 L
5939 1212 mt 6011 1212 L
5975 1176 mt 5975 1248 L
3883 1194 mt 3955 1194 L
3919 1158 mt 3919 1230 L
6153  719 mt 6225  719 L
6189  683 mt 6189  755 L
 920 1081 mt  992 1081 L
 956 1045 mt  956 1117 L
1706 4465 mt 1778 4465 L
1742 4429 mt 1742 4501 L
3547 1328 mt 3619 1328 L
3583 1292 mt 3583 1364 L
1937 1385 mt 2009 1385 L
1973 1349 mt 1973 1421 L
4373 1593 mt 4445 1593 L
4409 1557 mt 4409 1629 L
3264 3608 mt 3336 3608 L
3300 3572 mt 3300 3644 L
5622 4589 mt 5694 4589 L
5658 4553 mt 5658 4625 L
2145  880 mt 2217  880 L
2181  844 mt 2181  916 L
4046 1193 mt 4118 1193 L
4082 1157 mt 4082 1229 L
6195 2547 mt 6267 2547 L
6231 2511 mt 6231 2583 L
6152  736 mt 6224  736 L
6188  700 mt 6188  772 L
2928 2887 mt 3000 2887 L
2964 2851 mt 2964 2923 L
6010 4081 mt 6082 4081 L
6046 4045 mt 6046 4117 L
 913  487 mt  985  487 L
 949  451 mt  949  523 L
 945  635 mt 1017  635 L
 981  599 mt  981  671 L
5665 1585 mt 5737 1585 L
5701 1549 mt 5701 1621 L
1886  519 mt 1958  519 L
1922  483 mt 1922  555 L
 979  792 mt 1051  792 L
1015  756 mt 1015  828 L
4726 3518 mt 4798 3518 L
4762 3482 mt 4762 3554 L
4999  638 mt 5071  638 L
5035  602 mt 5035  674 L
2808  699 mt 2880  699 L
2844  663 mt 2844  735 L
1054 1623 mt 1126 1623 L
1090 1587 mt 1090 1659 L
5087 1263 mt 5159 1263 L
5123 1227 mt 5123 1299 L
5000 1354 mt 5072 1354 L
5036 1318 mt 5036 1390 L
1641 1667 mt 1713 1667 L
1677 1631 mt 1677 1703 L
5412  881 mt 5484  881 L
5448  845 mt 5448  917 L
5991  452 mt 6063  452 L
6027  416 mt 6027  488 L
5613  776 mt 5685  776 L
5649  740 mt 5649  812 L
5143 4054 mt 5215 4054 L
5179 4018 mt 5179 4090 L
2822 4410 mt 2894 4410 L
2858 4374 mt 2858 4446 L
4514 4584 mt 4586 4584 L
4550 4548 mt 4550 4620 L
2438  746 mt 2510  746 L
2474  710 mt 2474  782 L
4790 4212 mt 4862 4212 L
4826 4176 mt 4826 4248 L
3602 2356 mt 3674 2356 L
3638 2320 mt 3638 2392 L
6206 2807 mt 6278 2807 L
6242 2771 mt 6242 2843 L
 964 4424 mt 1036 4424 L
1000 4388 mt 1000 4460 L
1700  459 mt 1772  459 L
1736  423 mt 1736  495 L
5478 1020 mt 5550 1020 L
5514  984 mt 5514 1056 L
1006 2100 mt 1078 2100 L
1042 2064 mt 1042 2136 L
4078  420 mt 4150  420 L
4114  384 mt 4114  456 L
2785 1363 mt 2857 1363 L
2821 1327 mt 2821 1399 L
2553  618 mt 2625  618 L
2589  582 mt 2589  654 L
6060  511 mt 6132  511 L
6096  475 mt 6096  547 L
 904  893 mt  976  893 L
 940  857 mt  940  929 L
5940 1115 mt 6012 1115 L
5976 1079 mt 5976 1151 L
3095 4588 mt 3167 4588 L
3131 4552 mt 3131 4624 L
1458  545 mt 1530  545 L
1494  509 mt 1494  581 L
4234 4380 mt 4306 4380 L
4270 4344 mt 4270 4416 L
2909 1255 mt 2981 1255 L
2945 1219 mt 2945 1291 L
1371  612 mt 1443  612 L
1407  576 mt 1407  648 L
5799 1038 mt 5871 1038 L
5835 1002 mt 5835 1074 L
1693  565 mt 1765  565 L
1729  529 mt 1729  601 L
3373 1553 mt 3445 1553 L
3409 1517 mt 3409 1589 L
3566  642 mt 3638  642 L
3602  606 mt 3602  678 L
2336  807 mt 2408  807 L
2372  771 mt 2372  843 L
3915 3861 mt 3987 3861 L
3951 3825 mt 3951 3897 L
6068 2490 mt 6140 2490 L
6104 2454 mt 6104 2526 L
3034 3983 mt 3106 3983 L
3070 3947 mt 3070 4019 L
3431  474 mt 3503  474 L
3467  438 mt 3467  510 L
 967  647 mt 1039  647 L
1003  611 mt 1003  683 L
2845 4348 mt 2917 4348 L
2881 4312 mt 2881 4384 L
2467 1820 mt 2539 1820 L
2503 1784 mt 2503 1856 L
4447 1075 mt 4519 1075 L
4483 1039 mt 4483 1111 L
5495  629 mt 5567  629 L
5531  593 mt 5531  665 L
1165 2837 mt 1237 2837 L
1201 2801 mt 1201 2873 L
 970  468 mt 1042  468 L
1006  432 mt 1006  504 L
3609 1382 mt 3681 1382 L
3645 1346 mt 3645 1418 L
1937 3072 mt 2009 3072 L
1973 3036 mt 1973 3108 L
5360  423 mt 5432  423 L
5396  387 mt 5396  459 L
5072  954 mt 5144  954 L
5108  918 mt 5108  990 L
2191 1705 mt 2263 1705 L
2227 1669 mt 2227 1741 L
1914  622 mt 1986  622 L
1950  586 mt 1950  658 L
5397  727 mt 5469  727 L
5433  691 mt 5433  763 L
5695 4464 mt 5767 4464 L
5731 4428 mt 5731 4500 L
5533 1701 mt 5605 1701 L
5569 1665 mt 5569 1737 L
 869 1019 mt  941 1019 L
 905  983 mt  905 1055 L
5431  564 mt 5503  564 L
5467  528 mt 5467  600 L
1006  787 mt 1078  787 L
1042  751 mt 1042  823 L
1763 2283 mt 1835 2283 L
1799 2247 mt 1799 2319 L
1419 3702 mt 1491 3702 L
1455 3666 mt 1455 3738 L
6139 4574 mt 6211 4574 L
6175 4538 mt 6175 4610 L
3423 3343 mt 3495 3343 L
3459 3307 mt 3459 3379 L
1314  457 mt 1386  457 L
1350  421 mt 1350  493 L
1103 1962 mt 1175 1962 L
1139 1926 mt 1139 1998 L
5633  468 mt 5705  468 L
5669  432 mt 5669  504 L
5969  767 mt 6041  767 L
6005  731 mt 6005  803 L
6110 1206 mt 6182 1206 L
6146 1170 mt 6146 1242 L
5364 2575 mt 5436 2575 L
5400 2539 mt 5400 2611 L
 921 4466 mt  993 4466 L
 957 4430 mt  957 4502 L
1429 1809 mt 1501 1809 L
1465 1773 mt 1465 1845 L
5871  482 mt 5943  482 L
5907  446 mt 5907  518 L
4669  926 mt 4741  926 L
4705  890 mt 4705  962 L
5757  772 mt 5829  772 L
5793  736 mt 5793  808 L
2691 1911 mt 2763 1911 L
2727 1875 mt 2727 1947 L
3920  760 mt 3992  760 L
3956  724 mt 3956  796 L
5821  885 mt 5893  885 L
5857  849 mt 5857  921 L
4302  430 mt 4374  430 L
4338  394 mt 4338  466 L
1406 1822 mt 1478 1822 L
1442 1786 mt 1442 1858 L
5267  864 mt 5339  864 L
5303  828 mt 5303  900 L
 960 3089 mt 1032 3089 L
 996 3053 mt  996 3125 L
2572 2853 mt 2644 2853 L
2608 2817 mt 2608 2889 L
5006  545 mt 5078  545 L
5042  509 mt 5042  581 L
6002 3947 mt 6074 3947 L
6038 3911 mt 6038 3983 L
1777 1176 mt 1849 1176 L
1813 1140 mt 1813 1212 L
2358 1707 mt 2430 1707 L
2394 1671 mt 2394 1743 L
4002 1062 mt 4074 1062 L
4038 1026 mt 4038 1098 L
5150  452 mt 5222  452 L
5186  416 mt 5186  488 L
1642  660 mt 1714  660 L
1678  624 mt 1678  696 L
1447 1017 mt 1519 1017 L
1483  981 mt 1483 1053 L
2172  560 mt 2244  560 L
2208  524 mt 2208  596 L
6178 1143 mt 6250 1143 L
6214 1107 mt 6214 1179 L
1322 3151 mt 1394 3151 L
1358 3115 mt 1358 3187 L
3170 1077 mt 3242 1077 L
3206 1041 mt 3206 1113 L
5334  894 mt 5406  894 L
5370  858 mt 5370  930 L
 981  705 mt 1053  705 L
1017  669 mt 1017  741 L
5958 1038 mt 6030 1038 L
5994 1002 mt 5994 1074 L
5746 2084 mt 5818 2084 L
5782 2048 mt 5782 2120 L
5693 3609 mt 5765 3609 L
5729 3573 mt 5729 3645 L
3513 1312 mt 3585 1312 L
3549 1276 mt 3549 1348 L
1438 1076 mt 1510 1076 L
1474 1040 mt 1474 1112 L
4250  600 mt 4322  600 L
4286  564 mt 4286  636 L
 889 4610 mt  961 4610 L
 925 4574 mt  925 4646 L
5889  569 mt 5961  569 L
5925  533 mt 5925  605 L
4087  591 mt 4159  591 L
4123  555 mt 4123  627 L
 864 2452 mt  936 2452 L
 900 2416 mt  900 2488 L
2177 1915 mt 2249 1915 L
2213 1879 mt 2213 1951 L
5047  547 mt 5119  547 L
5083  511 mt 5083  583 L
3076 3880 mt 3148 3880 L
3112 3844 mt 3112 3916 L
4730  720 mt 4802  720 L
4766  684 mt 4766  756 L
2343 1602 mt 2415 1602 L
2379 1566 mt 2379 1638 L
6112 1104 mt 6184 1104 L
6148 1068 mt 6148 1140 L
4726  938 mt 4798  938 L
4762  902 mt 4762  974 L
 876  490 mt  948  490 L
 912  454 mt  912  526 L
4207  612 mt 4279  612 L
4243  576 mt 4243  648 L
4085  645 mt 4157  645 L
4121  609 mt 4121  681 L
2961  931 mt 3033  931 L
2997  895 mt 2997  967 L
2530  672 mt 2602  672 L
2566  636 mt 2566  708 L
 863  639 mt  935  639 L
 899  603 mt  899  675 L
 866 1428 mt  938 1428 L
 902 1392 mt  902 1464 L
4268 1776 mt 4340 1776 L
4304 1740 mt 4304 1812 L
1207 1999 mt 1279 1999 L
1243 1963 mt 1243 2035 L
2869 1763 mt 2941 1763 L
2905 1727 mt 2905 1799 L
3208 3297 mt 3280 3297 L
3244 3261 mt 3244 3333 L
5510 2445 mt 5582 2445 L
5546 2409 mt 5546 2481 L
6148 3001 mt 6220 3001 L
6184 2965 mt 6184 3037 L
5129 2108 mt 5201 2108 L
5165 2072 mt 5165 2144 L
 872 2145 mt  944 2145 L
 908 2109 mt  908 2181 L
1404  857 mt 1476  857 L
1440  821 mt 1440  893 L
2576  825 mt 2648  825 L
2612  789 mt 2612  861 L
1046  485 mt 1118  485 L
1082  449 mt 1082  521 L
2114  569 mt 2186  569 L
2150  533 mt 2150  605 L
4749 2147 mt 4821 2147 L
4785 2111 mt 4785 2183 L
6112 1507 mt 6184 1507 L
6148 1471 mt 6148 1543 L
3733  463 mt 3805  463 L
3769  427 mt 3769  499 L
5236  864 mt 5308  864 L
5272  828 mt 5272  900 L
2254  417 mt 2326  417 L
2290  381 mt 2290  453 L
 923  468 mt  995  468 L
 959  432 mt  959  504 L
4866  823 mt 4938  823 L
4902  787 mt 4902  859 L
3199  670 mt 3271  670 L
3235  634 mt 3235  706 L
1107 4464 mt 1179 4464 L
1143 4428 mt 1143 4500 L
5024  486 mt 5096  486 L
5060  450 mt 5060  522 L
4950  516 mt 5022  516 L
4986  480 mt 4986  552 L
2035  614 mt 2107  614 L
2071  578 mt 2071  650 L
1166 1692 mt 1238 1692 L
1202 1656 mt 1202 1728 L
4135  473 mt 4207  473 L
4171  437 mt 4171  509 L
5791 1287 mt 5863 1287 L
5827 1251 mt 5827 1323 L
5106 2560 mt 5178 2560 L
5142 2524 mt 5142 2596 L
1018  444 mt 1090  444 L
1054  408 mt 1054  480 L
 864 3377 mt  936 3377 L
 900 3341 mt  900 3413 L
4786 3732 mt 4858 3732 L
4822 3696 mt 4822 3768 L
1326  433 mt 1398  433 L
1362  397 mt 1362  469 L
1785 1325 mt 1857 1325 L
1821 1289 mt 1821 1361 L
4556 1042 mt 4628 1042 L
4592 1006 mt 4592 1078 L
5758  461 mt 5830  461 L
5794  425 mt 5794  497 L
4593  884 mt 4665  884 L
4629  848 mt 4629  920 L
2581 1579 mt 2653 1579 L
2617 1543 mt 2617 1615 L
 982 2342 mt 1054 2342 L
1018 2306 mt 1018 2378 L
6059  772 mt 6131  772 L
6095  736 mt 6095  808 L
6208  490 mt 6280  490 L
6244  454 mt 6244  526 L
4260  420 mt 4332  420 L
4296  384 mt 4296  456 L
4626  640 mt 4698  640 L
4662  604 mt 4662  676 L
1123 4436 mt 1195 4436 L
1159 4400 mt 1159 4472 L
3264  532 mt 3336  532 L
3300  496 mt 3300  568 L
4111 2123 mt 4183 2123 L
4147 2087 mt 4147 2159 L
6151  685 mt 6223  685 L
6187  649 mt 6187  721 L
6144  576 mt 6216  576 L
6180  540 mt 6180  612 L
5982  524 mt 6054  524 L
6018  488 mt 6018  560 L
5246 2739 mt 5318 2739 L
5282 2703 mt 5282 2775 L
5661 1737 mt 5733 1737 L
5697 1701 mt 5697 1773 L
3906  591 mt 3978  591 L
3942  555 mt 3942  627 L
5824 1413 mt 5896 1413 L
5860 1377 mt 5860 1449 L
6213 4374 mt 6285 4374 L
6249 4338 mt 6249 4410 L
5266 1908 mt 5338 1908 L
5302 1872 mt 5302 1944 L
6186  414 mt 6258  414 L
6222  378 mt 6222  450 L
1729 4108 mt 1801 4108 L
1765 4072 mt 1765 4144 L
1028  420 mt 1100  420 L
1064  384 mt 1064  456 L
6048 1887 mt 6120 1887 L
6084 1851 mt 6084 1923 L
 863  565 mt  935  565 L
 899  529 mt  899  601 L
6150 4574 mt 6222 4574 L
6186 4538 mt 6186 4610 L
5633  428 mt 5705  428 L
5669  392 mt 5669  464 L
2584  845 mt 2656  845 L
2620  809 mt 2620  881 L
5261 2805 mt 5333 2805 L
5297 2769 mt 5297 2841 L
4404 4355 mt 4476 4355 L
4440 4319 mt 4440 4391 L
6206  448 mt 6278  448 L
6242  412 mt 6242  484 L
5390 2491 mt 5462 2491 L
5426 2455 mt 5426 2527 L
 863  439 mt  935  439 L
 899  403 mt  899  475 L
2446 1156 mt 2518 1156 L
2482 1120 mt 2482 1192 L
5890 1231 mt 5962 1231 L
5926 1195 mt 5926 1267 L
6166 3690 mt 6238 3690 L
6202 3654 mt 6202 3726 L
6154 3998 mt 6226 3998 L
6190 3962 mt 6190 4034 L
5402 1108 mt 5474 1108 L
5438 1072 mt 5438 1144 L
1130  648 mt 1202  648 L
1166  612 mt 1166  684 L
2824 1133 mt 2896 1133 L
2860 1097 mt 2860 1169 L
5595  567 mt 5667  567 L
5631  531 mt 5631  603 L
1749 1196 mt 1821 1196 L
1785 1160 mt 1785 1232 L
 948 3858 mt 1020 3858 L
 984 3822 mt  984 3894 L
6195 3740 mt 6267 3740 L
6231 3704 mt 6231 3776 L
6191 1661 mt 6263 1661 L
6227 1625 mt 6227 1697 L
 924  920 mt  996  920 L
 960  884 mt  960  956 L
4266  440 mt 4338  440 L
4302  404 mt 4302  476 L
6215 3972 mt 6287 3972 L
6251 3936 mt 6251 4008 L
6220 3737 mt 6292 3737 L
6256 3701 mt 6256 3773 L
3276 2672 mt 3348 2672 L
3312 2636 mt 3312 2708 L
4054 1651 mt 4126 1651 L
4090 1615 mt 4090 1687 L
1880  691 mt 1952  691 L
1916  655 mt 1916  727 L
3734 4599 mt 3806 4599 L
3770 4563 mt 3770 4635 L
6103  744 mt 6175  744 L
6139  708 mt 6139  780 L
6050 1531 mt 6122 1531 L
6086 1495 mt 6086 1567 L
6200 2629 mt 6272 2629 L
6236 2593 mt 6236 2665 L
6098 1989 mt 6170 1989 L
6134 1953 mt 6134 2025 L
5978 3116 mt 6050 3116 L
6014 3080 mt 6014 3152 L
4372  484 mt 4444  484 L
4408  448 mt 4408  520 L
2961 2102 mt 3033 2102 L
2997 2066 mt 2997 2138 L
 977 2081 mt 1049 2081 L
1013 2045 mt 1013 2117 L
1113 4347 mt 1185 4347 L
1149 4311 mt 1149 4383 L
4879 4449 mt 4951 4449 L
4915 4413 mt 4915 4485 L
2203  819 mt 2275  819 L
2239  783 mt 2239  855 L
3330 1269 mt 3402 1269 L
3366 1233 mt 3366 1305 L
6050 3663 mt 6122 3663 L
6086 3627 mt 6086 3699 L
1479  588 mt 1551  588 L
1515  552 mt 1515  624 L
1655 4086 mt 1727 4086 L
1691 4050 mt 1691 4122 L
6013 2336 mt 6085 2336 L
6049 2300 mt 6049 2372 L
6102  453 mt 6174  453 L
6138  417 mt 6138  489 L
6220  430 mt 6292  430 L
6256  394 mt 6256  466 L
4734 1006 mt 4806 1006 L
4770  970 mt 4770 1042 L
4170 1973 mt 4242 1973 L
4206 1937 mt 4206 2009 L
5495 1336 mt 5567 1336 L
5531 1300 mt 5531 1372 L
 908 1600 mt  980 1600 L
 944 1564 mt  944 1636 L
 863 3684 mt  935 3684 L
 899 3648 mt  899 3720 L
6054 1652 mt 6126 1652 L
6090 1616 mt 6090 1688 L
5800 1120 mt 5872 1120 L
5836 1084 mt 5836 1156 L
4365 1693 mt 4437 1693 L
4401 1657 mt 4401 1729 L
3173  433 mt 3245  433 L
3209  397 mt 3209  469 L
 939  480 mt 1011  480 L
 975  444 mt  975  516 L
5984 2347 mt 6056 2347 L
6020 2311 mt 6020 2383 L
6154  711 mt 6226  711 L
6190  675 mt 6190  747 L
5248 1029 mt 5320 1029 L
5284  993 mt 5284 1065 L
5759 4152 mt 5831 4152 L
5795 4116 mt 5795 4188 L
4181  495 mt 4253  495 L
4217  459 mt 4217  531 L
5571  438 mt 5643  438 L
5607  402 mt 5607  474 L
5967 4534 mt 6039 4534 L
6003 4498 mt 6003 4570 L
5961 1120 mt 6033 1120 L
5997 1084 mt 5997 1156 L
3624 1118 mt 3696 1118 L
3660 1082 mt 3660 1154 L
6166  683 mt 6238  683 L
6202  647 mt 6202  719 L
5504  417 mt 5576  417 L
5540  381 mt 5540  453 L
6124 2915 mt 6196 2915 L
6160 2879 mt 6160 2951 L
1378  681 mt 1450  681 L
1414  645 mt 1414  717 L
 871 4606 mt  943 4606 L
 907 4570 mt  907 4642 L
5842 1022 mt 5914 1022 L
5878  986 mt 5878 1058 L
3520 4230 mt 3592 4230 L
3556 4194 mt 3556 4266 L
4960  415 mt 5032  415 L
4996  379 mt 4996  451 L
5641  686 mt 5713  686 L
5677  650 mt 5677  722 L
4895 1885 mt 4967 1885 L
4931 1849 mt 4931 1921 L
1249 3919 mt 1321 3919 L
1285 3883 mt 1285 3955 L
5827 4299 mt 5899 4299 L
5863 4263 mt 5863 4335 L
6043 3021 mt 6115 3021 L
6079 2985 mt 6079 3057 L
5099 1278 mt 5171 1278 L
5135 1242 mt 5135 1314 L
5770  695 mt 5842  695 L
5806  659 mt 5806  731 L
 910 4580 mt  982 4580 L
 946 4544 mt  946 4616 L
4117  866 mt 4189  866 L
4153  830 mt 4153  902 L
6225 4603 mt 6297 4603 L
6261 4567 mt 6261 4639 L
4644 3131 mt 4716 3131 L
4680 3095 mt 4680 3167 L
2947  460 mt 3019  460 L
2983  424 mt 2983  496 L
6146 1878 mt 6218 1878 L
6182 1842 mt 6182 1914 L
3714 1428 mt 3786 1428 L
3750 1392 mt 3750 1464 L
6220  629 mt 6292  629 L
6256  593 mt 6256  665 L
3445 2749 mt 3517 2749 L
3481 2713 mt 3481 2785 L
6216  820 mt 6288  820 L
6252  784 mt 6252  856 L
5101 3397 mt 5173 3397 L
5137 3361 mt 5137 3433 L
 863 1432 mt  935 1432 L
 899 1396 mt  899 1468 L
6221 4616 mt 6293 4616 L
6257 4580 mt 6257 4652 L
6166  430 mt 6238  430 L
6202  394 mt 6202  466 L
6127 3264 mt 6199 3264 L
6163 3228 mt 6163 3300 L
1787 4182 mt 1859 4182 L
1823 4146 mt 1823 4218 L
5676 2737 mt 5748 2737 L
5712 2701 mt 5712 2773 L
 869  745 mt  941  745 L
 905  709 mt  905  781 L
5066 3745 mt 5138 3745 L
5102 3709 mt 5102 3781 L
5796  514 mt 5868  514 L
5832  478 mt 5832  550 L
2836 4229 mt 2908 4229 L
2872 4193 mt 2872 4265 L
5899 4614 mt 5971 4614 L
5935 4578 mt 5935 4650 L
3154 2935 mt 3226 2935 L
3190 2899 mt 3190 2971 L
6223 1547 mt 6295 1547 L
6259 1511 mt 6259 1583 L
6018 3977 mt 6090 3977 L
6054 3941 mt 6054 4013 L
1583 1076 mt 1655 1076 L
1619 1040 mt 1619 1112 L
5642  458 mt 5714  458 L
5678  422 mt 5678  494 L
6201  670 mt 6273  670 L
6237  634 mt 6237  706 L
2397 3632 mt 2469 3632 L
2433 3596 mt 2433 3668 L
1828  646 mt 1900  646 L
1864  610 mt 1864  682 L
6160 2921 mt 6232 2921 L
6196 2885 mt 6196 2957 L
6187  415 mt 6259  415 L
6223  379 mt 6223  451 L
5980  556 mt 6052  556 L
6016  520 mt 6016  592 L
1399 3911 mt 1471 3911 L
1435 3875 mt 1435 3947 L
1565 2960 mt 1637 2960 L
1601 2924 mt 1601 2996 L
1895  936 mt 1967  936 L
1931  900 mt 1931  972 L
 954 4308 mt 1026 4308 L
 990 4272 mt  990 4344 L
6065  427 mt 6137  427 L
6101  391 mt 6101  463 L
2764 2409 mt 2836 2409 L
2800 2373 mt 2800 2445 L
6180 1421 mt 6252 1421 L
6216 1385 mt 6216 1457 L
1314 1130 mt 1386 1130 L
1350 1094 mt 1350 1166 L
4866  503 mt 4938  503 L
4902  467 mt 4902  539 L
5045 1400 mt 5117 1400 L
5081 1364 mt 5081 1436 L
1564 3081 mt 1636 3081 L
1600 3045 mt 1600 3117 L
5752 1993 mt 5824 1993 L
5788 1957 mt 5788 2029 L
5778 2046 mt 5850 2046 L
5814 2010 mt 5814 2082 L
6185 3301 mt 6257 3301 L
6221 3265 mt 6221 3337 L
 890  977 mt  962  977 L
 926  941 mt  926 1013 L
6208 2122 mt 6280 2122 L
6244 2086 mt 6244 2158 L
6143 4035 mt 6215 4035 L
6179 3999 mt 6179 4071 L
 864 3778 mt  936 3778 L
 900 3742 mt  900 3814 L
5848 3426 mt 5920 3426 L
5884 3390 mt 5884 3462 L
1019 1493 mt 1091 1493 L
1055 1457 mt 1055 1529 L
1501  526 mt 1573  526 L
1537  490 mt 1537  562 L
1846  458 mt 1918  458 L
1882  422 mt 1882  494 L
1497  731 mt 1569  731 L
1533  695 mt 1533  767 L
 863 2720 mt  935 2720 L
 899 2684 mt  899 2756 L
1432  705 mt 1504  705 L
1468  669 mt 1468  741 L
4275 4316 mt 4347 4316 L
4311 4280 mt 4311 4352 L
2241  459 mt 2313  459 L
2277  423 mt 2277  495 L
6202 4615 mt 6274 4615 L
6238 4579 mt 6238 4651 L
3139  415 mt 3211  415 L
3175  379 mt 3175  451 L
5780  416 mt 5852  416 L
5816  380 mt 5816  452 L
6199  848 mt 6271  848 L
6235  812 mt 6235  884 L
5916 4564 mt 5988 4564 L
5952 4528 mt 5952 4600 L
2386 4061 mt 2458 4061 L
2422 4025 mt 2422 4097 L
2932 3733 mt 3004 3733 L
2968 3697 mt 2968 3769 L
4908 4568 mt 4980 4568 L
4944 4532 mt 4944 4604 L
3802 1092 mt 3874 1092 L
3838 1056 mt 3838 1128 L
5565 2645 mt 5637 2645 L
5601 2609 mt 5601 2681 L
4585  434 mt 4657  434 L
4621  398 mt 4621  470 L
 881 2241 mt  953 2241 L
 917 2205 mt  917 2277 L
4701 4615 mt 4773 4615 L
4737 4579 mt 4737 4651 L
2450 4497 mt 2522 4497 L
2486 4461 mt 2486 4533 L
 863 2252 mt  935 2252 L
 899 2216 mt  899 2288 L
6165  615 mt 6237  615 L
6201  579 mt 6201  651 L
6204 1722 mt 6276 1722 L
6240 1686 mt 6240 1758 L
6027 3872 mt 6099 3872 L
6063 3836 mt 6063 3908 L
6093 1348 mt 6165 1348 L
6129 1312 mt 6129 1384 L
4889 3058 mt 4961 3058 L
4925 3022 mt 4925 3094 L
5625  671 mt 5697  671 L
5661  635 mt 5661  707 L
2383 4084 mt 2455 4084 L
2419 4048 mt 2419 4120 L
 950  579 mt 1022  579 L
 986  543 mt  986  615 L
4125 4389 mt 4197 4389 L
4161 4353 mt 4161 4425 L
5470 4076 mt 5542 4076 L
5506 4040 mt 5506 4112 L
3007 4557 mt 3079 4557 L
3043 4521 mt 3043 4593 L
2971 4214 mt 3043 4214 L
3007 4178 mt 3007 4250 L
6195 4146 mt 6267 4146 L
6231 4110 mt 6231 4182 L
 917 2571 mt  989 2571 L
 953 2535 mt  953 2607 L
6128 1512 mt 6200 1512 L
6164 1476 mt 6164 1548 L
6032  601 mt 6104  601 L
6068  565 mt 6068  637 L
3460 3195 mt 3532 3195 L
3496 3159 mt 3496 3231 L
5821 1359 mt 5893 1359 L
5857 1323 mt 5857 1395 L
3469 2592 mt 3541 2592 L
3505 2556 mt 3505 2628 L
 969 3395 mt 1041 3395 L
1005 3359 mt 1005 3431 L
1844 3340 mt 1916 3340 L
1880 3304 mt 1880 3376 L
5430  818 mt 5502  818 L
5466  782 mt 5466  854 L
4837 1342 mt 4909 1342 L
4873 1306 mt 4873 1378 L
3550 1701 mt 3622 1701 L
3586 1665 mt 3586 1737 L
5197 2186 mt 5269 2186 L
5233 2150 mt 5233 2222 L
6224  760 mt 6296  760 L
6260  724 mt 6260  796 L
5437  617 mt 5509  617 L
5473  581 mt 5473  653 L
2060  555 mt 2132  555 L
2096  519 mt 2096  591 L
2789 4309 mt 2861 4309 L
2825 4273 mt 2825 4345 L
5495  423 mt 5567  423 L
5531  387 mt 5531  459 L
5813 2429 mt 5885 2429 L
5849 2393 mt 5849 2465 L
6090 1076 mt 6162 1076 L
6126 1040 mt 6126 1112 L
gs 899 414 5363 4203 rc
gr

0 sg
2795 5104 mt 
(\(F,DCTb,iMLP\)) s
 422 3277 mt  -90 rotate
(\(S,SSC,GMM\)) s
90 rotate
2905  223 mt 
(Corr = -0.00) s

end %%Color Dict

eplot
%%EndObject

epage
end

showpage

%%Trailer
%%EOF
