%!PS-Adobe-3.0 EPSF-3.0
%%Creator: MATLAB, The Mathworks, Inc. Version 7.7.0.471 (R2008b). Operating System: Microsoft Windows XP.
%%Title: Pictures\main_zoo_mvar_analysis_data_BMI_xcorr_bmi_p1_k2_1_9.eps
%%CreationDate: 10/26/2009  05:44:18
%%DocumentNeededFonts: Helvetica
%%DocumentProcessColors: Cyan Magenta Yellow Black
%%LanguageLevel: 2
%%Pages: 1
%%BoundingBox:    32   180   546   616
%%EndComments

%%BeginProlog
% MathWorks dictionary
/MathWorks 160 dict begin
% definition operators
/bdef {bind def} bind def
/ldef {load def} bind def
/xdef {exch def} bdef
/xstore {exch store} bdef
% operator abbreviations
/c  /clip ldef
/cc /concat ldef
/cp /closepath ldef
/gr /grestore ldef
/gs /gsave ldef
/mt /moveto ldef
/np /newpath ldef
/cm /currentmatrix ldef
/sm /setmatrix ldef
/rm /rmoveto ldef
/rl /rlineto ldef
/s {show newpath} bdef
/sc {setcmykcolor} bdef
/sr /setrgbcolor ldef
/sg /setgray ldef
/w /setlinewidth ldef
/j /setlinejoin ldef
/cap /setlinecap ldef
/rc {rectclip} bdef
/rf {rectfill} bdef
% page state control
/pgsv () def
/bpage {/pgsv save def} bdef
/epage {pgsv restore} bdef
/bplot /gsave ldef
/eplot {stroke grestore} bdef
% orientation switch
/portraitMode 0 def /landscapeMode 1 def /rotateMode 2 def
% coordinate system mappings
/dpi2point 0 def
% font control
/FontSize 0 def
/FMS {/FontSize xstore findfont [FontSize 0 0 FontSize neg 0 0]
  makefont setfont} bdef
/ISOLatin1Encoding where {pop /WindowsLatin1Encoding 256 array bdef
ISOLatin1Encoding WindowsLatin1Encoding copy pop
/.notdef/.notdef/quotesinglbase/florin/quotedblbase/ellipsis/dagger
/daggerdbl/circumflex/perthousand/Scaron/guilsinglleft/OE/.notdef/.notdef
/.notdef/.notdef/quoteleft/quoteright/quotedblleft/quotedblright/bullet
/endash/emdash/tilde/trademark/scaron/guilsinglright/oe/.notdef/.notdef
/Ydieresis WindowsLatin1Encoding 128 32 getinterval astore pop}
{/WindowsLatin1Encoding StandardEncoding bdef} ifelse
/reencode {exch dup where {pop load} {pop StandardEncoding} ifelse
  exch dup 3 1 roll findfont dup length dict begin
  { 1 index /FID ne {def}{pop pop} ifelse } forall
  /Encoding exch def currentdict end definefont pop} bdef
/isroman {findfont /CharStrings get /Agrave known} bdef
/FMSR {3 1 roll 1 index dup isroman {reencode} {pop pop} ifelse
  exch FMS} bdef
/csm {1 dpi2point div -1 dpi2point div scale neg translate
 dup landscapeMode eq {pop -90 rotate}
  {rotateMode eq {90 rotate} if} ifelse} bdef
% line types: solid, dotted, dashed, dotdash
/SO { [] 0 setdash } bdef
/DO { [.5 dpi2point mul 4 dpi2point mul] 0 setdash } bdef
/DA { [6 dpi2point mul] 0 setdash } bdef
/DD { [.5 dpi2point mul 4 dpi2point mul 6 dpi2point mul 4
  dpi2point mul] 0 setdash } bdef
% macros for lines and objects
/L {lineto stroke} bdef
/MP {3 1 roll moveto 1 sub {rlineto} repeat} bdef
/AP {{rlineto} repeat} bdef
/PDlw -1 def
/W {/PDlw currentlinewidth def setlinewidth} def
/PP {closepath eofill} bdef
/DP {closepath stroke} bdef
/MR {4 -2 roll moveto dup  0 exch rlineto exch 0 rlineto
  neg 0 exch rlineto closepath} bdef
/FR {MR stroke} bdef
/PR {MR fill} bdef
/L1i {{currentfile picstr readhexstring pop} image} bdef
/tMatrix matrix def
/MakeOval {newpath tMatrix currentmatrix pop translate scale
0 0 1 0 360 arc tMatrix setmatrix} bdef
/FO {MakeOval stroke} bdef
/PO {MakeOval fill} bdef
/PD {currentlinewidth 2 div 0 360 arc fill
   PDlw -1 eq not {PDlw w /PDlw -1 def} if} def
/FA {newpath tMatrix currentmatrix pop translate scale
  0 0 1 5 -2 roll arc tMatrix setmatrix stroke} bdef
/PA {newpath tMatrix currentmatrix pop	translate 0 0 moveto scale
  0 0 1 5 -2 roll arc closepath tMatrix setmatrix fill} bdef
/FAn {newpath tMatrix currentmatrix pop translate scale
  0 0 1 5 -2 roll arcn tMatrix setmatrix stroke} bdef
/PAn {newpath tMatrix currentmatrix pop translate 0 0 moveto scale
  0 0 1 5 -2 roll arcn closepath tMatrix setmatrix fill} bdef
/vradius 0 def /hradius 0 def /lry 0 def
/lrx 0 def /uly 0 def /ulx 0 def /rad 0 def
/MRR {/vradius xdef /hradius xdef /lry xdef /lrx xdef /uly xdef
  /ulx xdef newpath tMatrix currentmatrix pop ulx hradius add uly
  vradius add translate hradius vradius scale 0 0 1 180 270 arc 
  tMatrix setmatrix lrx hradius sub uly vradius add translate
  hradius vradius scale 0 0 1 270 360 arc tMatrix setmatrix
  lrx hradius sub lry vradius sub translate hradius vradius scale
  0 0 1 0 90 arc tMatrix setmatrix ulx hradius add lry vradius sub
  translate hradius vradius scale 0 0 1 90 180 arc tMatrix setmatrix
  closepath} bdef
/FRR {MRR stroke } bdef
/PRR {MRR fill } bdef
/MlrRR {/lry xdef /lrx xdef /uly xdef /ulx xdef /rad lry uly sub 2 div def
  newpath tMatrix currentmatrix pop ulx rad add uly rad add translate
  rad rad scale 0 0 1 90 270 arc tMatrix setmatrix lrx rad sub lry rad
  sub translate rad rad scale 0 0 1 270 90 arc tMatrix setmatrix
  closepath} bdef
/FlrRR {MlrRR stroke } bdef
/PlrRR {MlrRR fill } bdef
/MtbRR {/lry xdef /lrx xdef /uly xdef /ulx xdef /rad lrx ulx sub 2 div def
  newpath tMatrix currentmatrix pop ulx rad add uly rad add translate
  rad rad scale 0 0 1 180 360 arc tMatrix setmatrix lrx rad sub lry rad
  sub translate rad rad scale 0 0 1 0 180 arc tMatrix setmatrix
  closepath} bdef
/FtbRR {MtbRR stroke } bdef
/PtbRR {MtbRR fill } bdef
/stri 6 array def /dtri 6 array def
/smat 6 array def /dmat 6 array def
/tmat1 6 array def /tmat2 6 array def /dif 3 array def
/asub {/ind2 exch def /ind1 exch def dup dup
  ind1 get exch ind2 get sub exch } bdef
/tri_to_matrix {
  2 0 asub 3 1 asub 4 0 asub 5 1 asub
  dup 0 get exch 1 get 7 -1 roll astore } bdef
/compute_transform {
  dmat dtri tri_to_matrix tmat1 invertmatrix 
  smat stri tri_to_matrix tmat2 concatmatrix } bdef
/ds {stri astore pop} bdef
/dt {dtri astore pop} bdef
/db {2 copy /cols xdef /rows xdef mul dup 3 mul string
  currentfile 
  3 index 0 eq {/ASCIIHexDecode filter}
  {/ASCII85Decode filter 3 index 2 eq {/RunLengthDecode filter} if }
  ifelse exch readstring pop
  dup 0 3 index getinterval /rbmap xdef
  dup 2 index dup getinterval /gbmap xdef
  1 index dup 2 mul exch getinterval /bbmap xdef pop pop}bdef
/it {gs np dtri aload pop moveto lineto lineto cp c
  cols rows 8 compute_transform 
  rbmap gbmap bbmap true 3 colorimage gr}bdef
/il {newpath moveto lineto stroke}bdef
currentdict end def
%%EndProlog

%%BeginSetup
MathWorks begin

0 cap

end
%%EndSetup

%%Page: 1 1
%%BeginPageSetup
%%PageBoundingBox:    32   180   546   616
MathWorks begin
bpage
%%EndPageSetup

%%BeginObject: obj1
bplot

/dpi2point 12 def
portraitMode 0216 7344 csm

  174   -48  6173  5231 rc
85 dict begin %Colortable dictionary
/c0 { 0.000000 0.000000 0.000000 sr} bdef
/c1 { 1.000000 1.000000 1.000000 sr} bdef
/c2 { 0.900000 0.000000 0.000000 sr} bdef
/c3 { 0.000000 0.820000 0.000000 sr} bdef
/c4 { 0.000000 0.000000 0.800000 sr} bdef
/c5 { 0.910000 0.820000 0.320000 sr} bdef
/c6 { 1.000000 0.260000 0.820000 sr} bdef
/c7 { 0.000000 0.820000 0.820000 sr} bdef
c0
1 j
1 sg
   0    0 6919 5187 rf
6 w
0 4202 5362 0 0 -4202 899 4616 4 MP
PP
-5362 0 0 4202 5362 0 0 -4202 899 4616 5 MP stroke
4 w
DO
SO
6 w
0 sg
 899  414 mt 6261  414 L
 899 4616 mt 6261 4616 L
6261 4616 mt 6261  414 L
 899 4616 mt  899  414 L
 899 4616 mt 6261 4616 L
 899 4616 mt  899  414 L
1971 4616 mt 1971 4562 L
1971  415 mt 1971  468 L
%%IncludeResource: font Helvetica
/Helvetica /WindowsLatin1Encoding 240 FMSR

1805 4873 mt 
(0.2) s
3043 4616 mt 3043 4562 L
3043  415 mt 3043  468 L
2877 4873 mt 
(0.4) s
4116 4616 mt 4116 4562 L
4116  415 mt 4116  468 L
3950 4873 mt 
(0.6) s
5188 4616 mt 5188 4562 L
5188  415 mt 5188  468 L
5022 4873 mt 
(0.8) s
 899 4195 mt  952 4195 L
6261 4195 mt 6207 4195 L
 531 4284 mt 
(0.1) s
 899 3775 mt  952 3775 L
6261 3775 mt 6207 3775 L
 531 3864 mt 
(0.2) s
 899 3355 mt  952 3355 L
6261 3355 mt 6207 3355 L
 531 3444 mt 
(0.3) s
 899 2935 mt  952 2935 L
6261 2935 mt 6207 2935 L
 531 3024 mt 
(0.4) s
 899 2515 mt  952 2515 L
6261 2515 mt 6207 2515 L
 531 2604 mt 
(0.5) s
 899 2095 mt  952 2095 L
6261 2095 mt 6207 2095 L
 531 2184 mt 
(0.6) s
 899 1675 mt  952 1675 L
6261 1675 mt 6207 1675 L
 531 1764 mt 
(0.7) s
 899 1255 mt  952 1255 L
6261 1255 mt 6207 1255 L
 531 1344 mt 
(0.8) s
 899  834 mt  952  834 L
6261  834 mt 6207  834 L
 531  923 mt 
(0.9) s
 899  414 mt 6261  414 L
 899 4616 mt 6261 4616 L
6261 4616 mt 6261  414 L
 899 4616 mt  899  414 L
gs 899 414 5363 4203 rc
gr

/c8 { 0.000000 0.000000 1.000000 sr} bdef
c8
5711  523 mt 5783  523 L
5747  487 mt 5747  559 L
6170  606 mt 6242  606 L
6206  570 mt 6206  642 L
1538 1448 mt 1610 1448 L
1574 1412 mt 1574 1484 L
1040 3345 mt 1112 3345 L
1076 3309 mt 1076 3381 L
5197  556 mt 5269  556 L
5233  520 mt 5233  592 L
1063  675 mt 1135  675 L
1099  639 mt 1099  711 L
 864 4574 mt  936 4574 L
 900 4538 mt  900 4610 L
5223 1083 mt 5295 1083 L
5259 1047 mt 5259 1119 L
5098  558 mt 5170  558 L
5134  522 mt 5134  594 L
6173  781 mt 6245  781 L
6209  745 mt 6209  817 L
1044  765 mt 1116  765 L
1080  729 mt 1080  801 L
4160  740 mt 4232  740 L
4196  704 mt 4196  776 L
6191 1212 mt 6263 1212 L
6227 1176 mt 6227 1248 L
3007 1194 mt 3079 1194 L
3043 1158 mt 3043 1230 L
6104  719 mt 6176  719 L
6140  683 mt 6140  755 L
3711 1081 mt 3783 1081 L
3747 1045 mt 3747 1117 L
4390 4465 mt 4462 4465 L
4426 4429 mt 4426 4501 L
5397 1328 mt 5469 1328 L
5433 1292 mt 5433 1364 L
6060 1385 mt 6132 1385 L
6096 1349 mt 6096 1421 L
4636 1593 mt 4708 1593 L
4672 1557 mt 4672 1629 L
1303 3608 mt 1375 3608 L
1339 3572 mt 1339 3644 L
5038 4589 mt 5110 4589 L
5074 4553 mt 5074 4625 L
1035  880 mt 1107  880 L
1071  844 mt 1071  916 L
1800 1193 mt 1872 1193 L
1836 1157 mt 1836 1229 L
5740 2547 mt 5812 2547 L
5776 2511 mt 5776 2583 L
3523  736 mt 3595  736 L
3559  700 mt 3559  772 L
1092 2887 mt 1164 2887 L
1128 2851 mt 1128 2923 L
4803 4081 mt 4875 4081 L
4839 4045 mt 4839 4117 L
4217  487 mt 4289  487 L
4253  451 mt 4253  523 L
5194  635 mt 5266  635 L
5230  599 mt 5230  671 L
 907 1585 mt  979 1585 L
 943 1549 mt  943 1621 L
2766  519 mt 2838  519 L
2802  483 mt 2802  555 L
 961  792 mt 1033  792 L
 997  756 mt  997  828 L
3180 3518 mt 3252 3518 L
3216 3482 mt 3216 3554 L
3180  638 mt 3252  638 L
3216  602 mt 3216  674 L
3852  699 mt 3924  699 L
3888  663 mt 3888  735 L
4663 1623 mt 4735 1623 L
4699 1587 mt 4699 1659 L
 940 1263 mt 1012 1263 L
 976 1227 mt  976 1299 L
2473 1354 mt 2545 1354 L
2509 1318 mt 2509 1390 L
2619 1667 mt 2691 1667 L
2655 1631 mt 2655 1703 L
3905  881 mt 3977  881 L
3941  845 mt 3941  917 L
5778  452 mt 5850  452 L
5814  416 mt 5814  488 L
6222  776 mt 6294  776 L
6258  740 mt 6258  812 L
4214 4054 mt 4286 4054 L
4250 4018 mt 4250 4090 L
6050 4410 mt 6122 4410 L
6086 4374 mt 6086 4446 L
3498 4584 mt 3570 4584 L
3534 4548 mt 3534 4620 L
2940  746 mt 3012  746 L
2976  710 mt 2976  782 L
5549 4212 mt 5621 4212 L
5585 4176 mt 5585 4248 L
1041 2356 mt 1113 2356 L
1077 2320 mt 1077 2392 L
5607 2807 mt 5679 2807 L
5643 2771 mt 5643 2843 L
1610 4424 mt 1682 4424 L
1646 4388 mt 1646 4460 L
4620  459 mt 4692  459 L
4656  423 mt 4656  495 L
4842 1020 mt 4914 1020 L
4878  984 mt 4878 1056 L
5380 2100 mt 5452 2100 L
5416 2064 mt 5416 2136 L
4579  420 mt 4651  420 L
4615  384 mt 4615  456 L
4239 1363 mt 4311 1363 L
4275 1327 mt 4275 1399 L
2372  618 mt 2444  618 L
2408  582 mt 2408  654 L
5971  511 mt 6043  511 L
6007  475 mt 6007  547 L
1830  893 mt 1902  893 L
1866  857 mt 1866  929 L
5677 1115 mt 5749 1115 L
5713 1079 mt 5713 1151 L
2918 4588 mt 2990 4588 L
2954 4552 mt 2954 4624 L
 927  545 mt  999  545 L
 963  509 mt  963  581 L
3256 4380 mt 3328 4380 L
3292 4344 mt 3292 4416 L
6194 1255 mt 6266 1255 L
6230 1219 mt 6230 1291 L
5370  612 mt 5442  612 L
5406  576 mt 5406  648 L
5131 1038 mt 5203 1038 L
5167 1002 mt 5167 1074 L
3962  565 mt 4034  565 L
3998  529 mt 3998  601 L
2036 1553 mt 2108 1553 L
2072 1517 mt 2072 1589 L
5446  642 mt 5518  642 L
5482  606 mt 5482  678 L
 971  807 mt 1043  807 L
1007  771 mt 1007  843 L
1359 3861 mt 1431 3861 L
1395 3825 mt 1395 3897 L
6163 2490 mt 6235 2490 L
6199 2454 mt 6199 2526 L
5817 3983 mt 5889 3983 L
5853 3947 mt 5853 4019 L
1293  474 mt 1365  474 L
1329  438 mt 1329  510 L
 863  647 mt  935  647 L
 899  611 mt  899  683 L
2723 4348 mt 2795 4348 L
2759 4312 mt 2759 4384 L
6008 1820 mt 6080 1820 L
6044 1784 mt 6044 1856 L
1168 1075 mt 1240 1075 L
1204 1039 mt 1204 1111 L
1296  629 mt 1368  629 L
1332  593 mt 1332  665 L
5794 2837 mt 5866 2837 L
5830 2801 mt 5830 2873 L
3873  468 mt 3945  468 L
3909  432 mt 3909  504 L
2098 1382 mt 2170 1382 L
2134 1346 mt 2134 1418 L
5464 3072 mt 5536 3072 L
5500 3036 mt 5500 3108 L
4624  423 mt 4696  423 L
4660  387 mt 4660  459 L
5846  954 mt 5918  954 L
5882  918 mt 5882  990 L
5544 1705 mt 5616 1705 L
5580 1669 mt 5580 1741 L
3068  622 mt 3140  622 L
3104  586 mt 3104  658 L
2757  727 mt 2829  727 L
2793  691 mt 2793  763 L
5227 4464 mt 5299 4464 L
5263 4428 mt 5263 4500 L
1016 1701 mt 1088 1701 L
1052 1665 mt 1052 1737 L
2792 1019 mt 2864 1019 L
2828  983 mt 2828 1055 L
6062  564 mt 6134  564 L
6098  528 mt 6098  600 L
1838  787 mt 1910  787 L
1874  751 mt 1874  823 L
 993 2283 mt 1065 2283 L
1029 2247 mt 1029 2319 L
2582 3702 mt 2654 3702 L
2618 3666 mt 2618 3738 L
 963 4574 mt 1035 4574 L
 999 4538 mt  999 4610 L
5110 3343 mt 5182 3343 L
5146 3307 mt 5146 3379 L
4747  457 mt 4819  457 L
4783  421 mt 4783  493 L
1945 1962 mt 2017 1962 L
1981 1926 mt 1981 1998 L
 945  468 mt 1017  468 L
 981  432 mt  981  504 L
5880  767 mt 5952  767 L
5916  731 mt 5916  803 L
1619 1206 mt 1691 1206 L
1655 1170 mt 1655 1242 L
2589 2575 mt 2661 2575 L
2625 2539 mt 2625 2611 L
 894 4466 mt  966 4466 L
 930 4430 mt  930 4502 L
 927 1809 mt  999 1809 L
 963 1773 mt  963 1845 L
1550  482 mt 1622  482 L
1586  446 mt 1586  518 L
4091  926 mt 4163  926 L
4127  890 mt 4127  962 L
1660  772 mt 1732  772 L
1696  736 mt 1696  808 L
 925 1911 mt  997 1911 L
 961 1875 mt  961 1947 L
3721  760 mt 3793  760 L
3757  724 mt 3757  796 L
4849  885 mt 4921  885 L
4885  849 mt 4885  921 L
2299  430 mt 2371  430 L
2335  394 mt 2335  466 L
 950 1822 mt 1022 1822 L
 986 1786 mt  986 1858 L
6207  864 mt 6279  864 L
6243  828 mt 6243  900 L
1040 3089 mt 1112 3089 L
1076 3053 mt 1076 3125 L
5206 2853 mt 5278 2853 L
5242 2817 mt 5242 2889 L
3564  545 mt 3636  545 L
3600  509 mt 3600  581 L
1046 3947 mt 1118 3947 L
1082 3911 mt 1082 3983 L
2161 1176 mt 2233 1176 L
2197 1140 mt 2197 1212 L
 864 1707 mt  936 1707 L
 900 1671 mt  900 1743 L
4474 1062 mt 4546 1062 L
4510 1026 mt 4510 1098 L
5970  452 mt 6042  452 L
6006  416 mt 6006  488 L
5201  660 mt 5273  660 L
5237  624 mt 5237  696 L
4632 1017 mt 4704 1017 L
4668  981 mt 4668 1053 L
 880  560 mt  952  560 L
 916  524 mt  916  596 L
5709 1143 mt 5781 1143 L
5745 1107 mt 5745 1179 L
 886 3151 mt  958 3151 L
 922 3115 mt  922 3187 L
1401 1077 mt 1473 1077 L
1437 1041 mt 1437 1113 L
2622  894 mt 2694  894 L
2658  858 mt 2658  930 L
1799  705 mt 1871  705 L
1835  669 mt 1835  741 L
6022 1038 mt 6094 1038 L
6058 1002 mt 6058 1074 L
5965 2084 mt 6037 2084 L
6001 2048 mt 6001 2120 L
3854 3609 mt 3926 3609 L
3890 3573 mt 3890 3645 L
2904 1312 mt 2976 1312 L
2940 1276 mt 2940 1348 L
1900 1076 mt 1972 1076 L
1936 1040 mt 1936 1112 L
3761  600 mt 3833  600 L
3797  564 mt 3797  636 L
1620 4610 mt 1692 4610 L
1656 4574 mt 1656 4646 L
6163  569 mt 6235  569 L
6199  533 mt 6199  605 L
1867  591 mt 1939  591 L
1903  555 mt 1903  627 L
4826 2452 mt 4898 2452 L
4862 2416 mt 4862 2488 L
5360 1915 mt 5432 1915 L
5396 1879 mt 5396 1951 L
5983  547 mt 6055  547 L
6019  511 mt 6019  583 L
1376 3880 mt 1448 3880 L
1412 3844 mt 1412 3916 L
2127  720 mt 2199  720 L
2163  684 mt 2163  756 L
5120 1602 mt 5192 1602 L
5156 1566 mt 5156 1638 L
5697 1104 mt 5769 1104 L
5733 1068 mt 5733 1140 L
 884  938 mt  956  938 L
 920  902 mt  920  974 L
 863  490 mt  935  490 L
 899  454 mt  899  526 L
2436  612 mt 2508  612 L
2472  576 mt 2472  648 L
3379  645 mt 3451  645 L
3415  609 mt 3415  681 L
 908  931 mt  980  931 L
 944  895 mt  944  967 L
5547  672 mt 5619  672 L
5583  636 mt 5583  708 L
1101  639 mt 1173  639 L
1137  603 mt 1137  675 L
1354 1428 mt 1426 1428 L
1390 1392 mt 1390 1464 L
4585 1776 mt 4657 1776 L
4621 1740 mt 4621 1812 L
 990 1999 mt 1062 1999 L
1026 1963 mt 1026 2035 L
3519 1763 mt 3591 1763 L
3555 1727 mt 3555 1799 L
6111 3297 mt 6183 3297 L
6147 3261 mt 6147 3333 L
1164 2445 mt 1236 2445 L
1200 2409 mt 1200 2481 L
6060 3001 mt 6132 3001 L
6096 2965 mt 6096 3037 L
4165 2108 mt 4237 2108 L
4201 2072 mt 4201 2144 L
1343 2145 mt 1415 2145 L
1379 2109 mt 1379 2181 L
1653  857 mt 1725  857 L
1689  821 mt 1689  893 L
5704  825 mt 5776  825 L
5740  789 mt 5740  861 L
3663  485 mt 3735  485 L
3699  449 mt 3699  521 L
1001  569 mt 1073  569 L
1037  533 mt 1037  605 L
1288 2147 mt 1360 2147 L
1324 2111 mt 1324 2183 L
6194 1507 mt 6266 1507 L
6230 1471 mt 6230 1543 L
1350  463 mt 1422  463 L
1386  427 mt 1386  499 L
5870  864 mt 5942  864 L
5906  828 mt 5906  900 L
2321  417 mt 2393  417 L
2357  381 mt 2357  453 L
3693  468 mt 3765  468 L
3729  432 mt 3729  504 L
1161  823 mt 1233  823 L
1197  787 mt 1197  859 L
3572  670 mt 3644  670 L
3608  634 mt 3608  706 L
5169 4464 mt 5241 4464 L
5205 4428 mt 5205 4500 L
2340  486 mt 2412  486 L
2376  450 mt 2376  522 L
4999  516 mt 5071  516 L
5035  480 mt 5035  552 L
5649  614 mt 5721  614 L
5685  578 mt 5685  650 L
2013 1692 mt 2085 1692 L
2049 1656 mt 2049 1728 L
2820  473 mt 2892  473 L
2856  437 mt 2856  509 L
1411 1287 mt 1483 1287 L
1447 1251 mt 1447 1323 L
5571 2560 mt 5643 2560 L
5607 2524 mt 5607 2596 L
2520  444 mt 2592  444 L
2556  408 mt 2556  480 L
1254 3377 mt 1326 3377 L
1290 3341 mt 1290 3413 L
6065 3732 mt 6137 3732 L
6101 3696 mt 6101 3768 L
1035  433 mt 1107  433 L
1071  397 mt 1071  469 L
6154 1325 mt 6226 1325 L
6190 1289 mt 6190 1361 L
2914 1042 mt 2986 1042 L
2950 1006 mt 2950 1078 L
6111  461 mt 6183  461 L
6147  425 mt 6147  497 L
5448  884 mt 5520  884 L
5484  848 mt 5484  920 L
2307 1579 mt 2379 1579 L
2343 1543 mt 2343 1615 L
5109 2342 mt 5181 2342 L
5145 2306 mt 5145 2378 L
6215  772 mt 6287  772 L
6251  736 mt 6251  808 L
6211  490 mt 6283  490 L
6247  454 mt 6247  526 L
3874  420 mt 3946  420 L
3910  384 mt 3910  456 L
 868  640 mt  940  640 L
 904  604 mt  904  676 L
5426 4436 mt 5498 4436 L
5462 4400 mt 5462 4472 L
4968  532 mt 5040  532 L
5004  496 mt 5004  568 L
4738 2123 mt 4810 2123 L
4774 2087 mt 4774 2159 L
4677  685 mt 4749  685 L
4713  649 mt 4713  721 L
6199  576 mt 6271  576 L
6235  540 mt 6235  612 L
4534  524 mt 4606  524 L
4570  488 mt 4570  560 L
6218 2739 mt 6290 2739 L
6254 2703 mt 6254 2775 L
3364 1737 mt 3436 1737 L
3400 1701 mt 3400 1773 L
3515  591 mt 3587  591 L
3551  555 mt 3551  627 L
6171 1413 mt 6243 1413 L
6207 1377 mt 6207 1449 L
6219 4374 mt 6291 4374 L
6255 4338 mt 6255 4410 L
5635 1908 mt 5707 1908 L
5671 1872 mt 5671 1944 L
1420  414 mt 1492  414 L
1456  378 mt 1456  450 L
1553 4108 mt 1625 4108 L
1589 4072 mt 1589 4144 L
2432  420 mt 2504  420 L
2468  384 mt 2468  456 L
6219 1887 mt 6291 1887 L
6255 1851 mt 6255 1923 L
5620  565 mt 5692  565 L
5656  529 mt 5656  601 L
3007 4574 mt 3079 4574 L
3043 4538 mt 3043 4610 L
 868  428 mt  940  428 L
 904  392 mt  904  464 L
6010  845 mt 6082  845 L
6046  809 mt 6046  881 L
5291 2805 mt 5363 2805 L
5327 2769 mt 5327 2841 L
6203 4355 mt 6275 4355 L
6239 4319 mt 6239 4391 L
6217  448 mt 6289  448 L
6253  412 mt 6253  484 L
4887 2491 mt 4959 2491 L
4923 2455 mt 4923 2527 L
1903  439 mt 1975  439 L
1939  403 mt 1939  475 L
1555 1156 mt 1627 1156 L
1591 1120 mt 1591 1192 L
5063 1231 mt 5135 1231 L
5099 1195 mt 5099 1267 L
 886 3690 mt  958 3690 L
 922 3654 mt  922 3726 L
6216 3998 mt 6288 3998 L
6252 3962 mt 6252 4034 L
2994 1108 mt 3066 1108 L
3030 1072 mt 3030 1144 L
2114  648 mt 2186  648 L
2150  612 mt 2150  684 L
2705 1133 mt 2777 1133 L
2741 1097 mt 2741 1169 L
5541  567 mt 5613  567 L
5577  531 mt 5577  603 L
6220 1196 mt 6292 1196 L
6256 1160 mt 6256 1232 L
3137 3858 mt 3209 3858 L
3173 3822 mt 3173 3894 L
2672 3740 mt 2744 3740 L
2708 3704 mt 2708 3776 L
4751 1661 mt 4823 1661 L
4787 1625 mt 4787 1697 L
4823  920 mt 4895  920 L
4859  884 mt 4859  956 L
 868  440 mt  940  440 L
 904  404 mt  904  476 L
5351 3972 mt 5423 3972 L
5387 3936 mt 5387 4008 L
4878 3737 mt 4950 3737 L
4914 3701 mt 4914 3773 L
1311 2672 mt 1383 2672 L
1347 2636 mt 1347 2708 L
6144 1651 mt 6216 1651 L
6180 1615 mt 6180 1687 L
3948  691 mt 4020  691 L
3984  655 mt 3984  727 L
6209 4599 mt 6281 4599 L
6245 4563 mt 6245 4635 L
6203  744 mt 6275  744 L
6239  708 mt 6239  780 L
6224 1531 mt 6296 1531 L
6260 1495 mt 6260 1567 L
5930 2629 mt 6002 2629 L
5966 2593 mt 5966 2665 L
6200 1989 mt 6272 1989 L
6236 1953 mt 6236 2025 L
4633 3116 mt 4705 3116 L
4669 3080 mt 4669 3152 L
3165  484 mt 3237  484 L
3201  448 mt 3201  520 L
1836 2102 mt 1908 2102 L
1872 2066 mt 1872 2138 L
 865 2081 mt  937 2081 L
 901 2045 mt  901 2117 L
1071 4347 mt 1143 4347 L
1107 4311 mt 1107 4383 L
1432 4449 mt 1504 4449 L
1468 4413 mt 1468 4485 L
1019  819 mt 1091  819 L
1055  783 mt 1055  855 L
1868 1269 mt 1940 1269 L
1904 1233 mt 1904 1305 L
6095 3663 mt 6167 3663 L
6131 3627 mt 6131 3699 L
2806  588 mt 2878  588 L
2842  552 mt 2842  624 L
6162 4086 mt 6234 4086 L
6198 4050 mt 6198 4122 L
5857 2336 mt 5929 2336 L
5893 2300 mt 5893 2372 L
4893  453 mt 4965  453 L
4929  417 mt 4929  489 L
5374  430 mt 5446  430 L
5410  394 mt 5410  466 L
3029 1006 mt 3101 1006 L
3065  970 mt 3065 1042 L
4505 1973 mt 4577 1973 L
4541 1937 mt 4541 2009 L
6133 1336 mt 6205 1336 L
6169 1300 mt 6169 1372 L
 871 1600 mt  943 1600 L
 907 1564 mt  907 1636 L
5645 3684 mt 5717 3684 L
5681 3648 mt 5681 3720 L
 872 1652 mt  944 1652 L
 908 1616 mt  908 1688 L
3303 1120 mt 3375 1120 L
3339 1084 mt 3339 1156 L
5829 1693 mt 5901 1693 L
5865 1657 mt 5865 1729 L
2408  433 mt 2480  433 L
2444  397 mt 2444  469 L
 937  480 mt 1009  480 L
 973  444 mt  973  516 L
1857 2347 mt 1929 2347 L
1893 2311 mt 1893 2383 L
5713  711 mt 5785  711 L
5749  675 mt 5749  747 L
5058 1029 mt 5130 1029 L
5094  993 mt 5094 1065 L
6215 4152 mt 6287 4152 L
6251 4116 mt 6251 4188 L
1590  495 mt 1662  495 L
1626  459 mt 1626  531 L
2387  438 mt 2459  438 L
2423  402 mt 2423  474 L
1694 4534 mt 1766 4534 L
1730 4498 mt 1730 4570 L
6060 1120 mt 6132 1120 L
6096 1084 mt 6096 1156 L
 958 1118 mt 1030 1118 L
 994 1082 mt  994 1154 L
1972  683 mt 2044  683 L
2008  647 mt 2008  719 L
4628  417 mt 4700  417 L
4664  381 mt 4664  453 L
6219 2915 mt 6291 2915 L
6255 2879 mt 6255 2951 L
 905  681 mt  977  681 L
 941  645 mt  941  717 L
6220 4606 mt 6292 4606 L
6256 4570 mt 6256 4642 L
4119 1022 mt 4191 1022 L
4155  986 mt 4155 1058 L
6208 4230 mt 6280 4230 L
6244 4194 mt 6244 4266 L
 983  415 mt 1055  415 L
1019  379 mt 1019  451 L
1296  686 mt 1368  686 L
1332  650 mt 1332  722 L
5900 1885 mt 5972 1885 L
5936 1849 mt 5936 1921 L
3116 3919 mt 3188 3919 L
3152 3883 mt 3152 3955 L
3875 4299 mt 3947 4299 L
3911 4263 mt 3911 4335 L
4310 3021 mt 4382 3021 L
4346 2985 mt 4346 3057 L
6154 1278 mt 6226 1278 L
6190 1242 mt 6190 1314 L
 934  695 mt 1006  695 L
 970  659 mt  970  731 L
 864 4580 mt  936 4580 L
 900 4544 mt  900 4616 L
2890  866 mt 2962  866 L
2926  830 mt 2926  902 L
5334 4603 mt 5406 4603 L
5370 4567 mt 5370 4639 L
6225 3131 mt 6297 3131 L
6261 3095 mt 6261 3167 L
3531  460 mt 3603  460 L
3567  424 mt 3567  496 L
1039 1878 mt 1111 1878 L
1075 1842 mt 1075 1914 L
4377 1428 mt 4449 1428 L
4413 1392 mt 4413 1464 L
5340  629 mt 5412  629 L
5376  593 mt 5376  665 L
6201 2749 mt 6273 2749 L
6237 2713 mt 6237 2785 L
5565  820 mt 5637  820 L
5601  784 mt 5601  856 L
3411 3397 mt 3483 3397 L
3447 3361 mt 3447 3433 L
3161 1432 mt 3233 1432 L
3197 1396 mt 3197 1468 L
 878 4616 mt  950 4616 L
 914 4580 mt  914 4652 L
5914  430 mt 5986  430 L
5950  394 mt 5950  466 L
6210 3264 mt 6282 3264 L
6246 3228 mt 6246 3300 L
5595 4182 mt 5667 4182 L
5631 4146 mt 5631 4218 L
5872 2737 mt 5944 2737 L
5908 2701 mt 5908 2773 L
5977  745 mt 6049  745 L
6013  709 mt 6013  781 L
1058 3745 mt 1130 3745 L
1094 3709 mt 1094 3781 L
2517  514 mt 2589  514 L
2553  478 mt 2553  550 L
1669 4229 mt 1741 4229 L
1705 4193 mt 1705 4265 L
1300 4614 mt 1372 4614 L
1336 4578 mt 1336 4650 L
 994 2935 mt 1066 2935 L
1030 2899 mt 1030 2971 L
5951 1547 mt 6023 1547 L
5987 1511 mt 5987 1583 L
4182 3977 mt 4254 3977 L
4218 3941 mt 4218 4013 L
6087 1076 mt 6159 1076 L
6123 1040 mt 6123 1112 L
2531  458 mt 2603  458 L
2567  422 mt 2567  494 L
6028  670 mt 6100  670 L
6064  634 mt 6064  706 L
3230 3632 mt 3302 3632 L
3266 3596 mt 3266 3668 L
2897  646 mt 2969  646 L
2933  610 mt 2933  682 L
5995 2921 mt 6067 2921 L
6031 2885 mt 6031 2957 L
1654  415 mt 1726  415 L
1690  379 mt 1690  451 L
2390  556 mt 2462  556 L
2426  520 mt 2426  592 L
5265 3911 mt 5337 3911 L
5301 3875 mt 5301 3947 L
6085 2960 mt 6157 2960 L
6121 2924 mt 6121 2996 L
4089  936 mt 4161  936 L
4125  900 mt 4125  972 L
1640 4308 mt 1712 4308 L
1676 4272 mt 1676 4344 L
6126  427 mt 6198  427 L
6162  391 mt 6162  463 L
1656 2409 mt 1728 2409 L
1692 2373 mt 1692 2445 L
6223 1421 mt 6295 1421 L
6259 1385 mt 6259 1457 L
 958 1130 mt 1030 1130 L
 994 1094 mt  994 1166 L
4403  503 mt 4475  503 L
4439  467 mt 4439  539 L
5060 1400 mt 5132 1400 L
5096 1364 mt 5096 1436 L
3554 3081 mt 3626 3081 L
3590 3045 mt 3590 3117 L
6207 1993 mt 6279 1993 L
6243 1957 mt 6243 2029 L
4275 2046 mt 4347 2046 L
4311 2010 mt 4311 2082 L
3907 3301 mt 3979 3301 L
3943 3265 mt 3943 3337 L
6212  977 mt 6284  977 L
6248  941 mt 6248 1013 L
6184 2122 mt 6256 2122 L
6220 2086 mt 6220 2158 L
4648 4035 mt 4720 4035 L
4684 3999 mt 4684 4071 L
1181 3778 mt 1253 3778 L
1217 3742 mt 1217 3814 L
5602 3426 mt 5674 3426 L
5638 3390 mt 5638 3462 L
5478 1493 mt 5550 1493 L
5514 1457 mt 5514 1529 L
 912  526 mt  984  526 L
 948  490 mt  948  562 L
1285  458 mt 1357  458 L
1321  422 mt 1321  494 L
3357  731 mt 3429  731 L
3393  695 mt 3393  767 L
2314 2720 mt 2386 2720 L
2350 2684 mt 2350 2756 L
 883  705 mt  955  705 L
 919  669 mt  919  741 L
3368 4316 mt 3440 4316 L
3404 4280 mt 3404 4352 L
 863  459 mt  935  459 L
 899  423 mt  899  495 L
1180 4615 mt 1252 4615 L
1216 4579 mt 1216 4651 L
1996  415 mt 2068  415 L
2032  379 mt 2032  451 L
5320  416 mt 5392  416 L
5356  380 mt 5356  452 L
3854  848 mt 3926  848 L
3890  812 mt 3890  884 L
3447 4564 mt 3519 4564 L
3483 4528 mt 3483 4600 L
2063 4061 mt 2135 4061 L
2099 4025 mt 2099 4097 L
2549 3733 mt 2621 3733 L
2585 3697 mt 2585 3769 L
5963 4568 mt 6035 4568 L
5999 4532 mt 5999 4604 L
6088 1092 mt 6160 1092 L
6124 1056 mt 6124 1128 L
 874 2645 mt  946 2645 L
 910 2609 mt  910 2681 L
5992  434 mt 6064  434 L
6028  398 mt 6028  470 L
6165 2241 mt 6237 2241 L
6201 2205 mt 6201 2277 L
5655 4615 mt 5727 4615 L
5691 4579 mt 5691 4651 L
4838 4497 mt 4910 4497 L
4874 4461 mt 4874 4533 L
2987 2252 mt 3059 2252 L
3023 2216 mt 3023 2288 L
5000  615 mt 5072  615 L
5036  579 mt 5036  651 L
1158 1722 mt 1230 1722 L
1194 1686 mt 1194 1758 L
4696 3872 mt 4768 3872 L
4732 3836 mt 4732 3908 L
6111 1348 mt 6183 1348 L
6147 1312 mt 6147 1384 L
2117 3058 mt 2189 3058 L
2153 3022 mt 2153 3094 L
3816  671 mt 3888  671 L
3852  635 mt 3852  707 L
1031 4084 mt 1103 4084 L
1067 4048 mt 1067 4120 L
1678  579 mt 1750  579 L
1714  543 mt 1714  615 L
1109 4389 mt 1181 4389 L
1145 4353 mt 1145 4425 L
5449 4076 mt 5521 4076 L
5485 4040 mt 5485 4112 L
2743 4557 mt 2815 4557 L
2779 4521 mt 2779 4593 L
1423 4214 mt 1495 4214 L
1459 4178 mt 1459 4250 L
 895 4146 mt  967 4146 L
 931 4110 mt  931 4182 L
2558 2571 mt 2630 2571 L
2594 2535 mt 2594 2607 L
1890 1512 mt 1962 1512 L
1926 1476 mt 1926 1548 L
6181  601 mt 6253  601 L
6217  565 mt 6217  637 L
1517 3195 mt 1589 3195 L
1553 3159 mt 1553 3231 L
5965 1359 mt 6037 1359 L
6001 1323 mt 6001 1395 L
4160 2592 mt 4232 2592 L
4196 2556 mt 4196 2628 L
 950 3395 mt 1022 3395 L
 986 3359 mt  986 3431 L
3380 3340 mt 3452 3340 L
3416 3304 mt 3416 3376 L
2078  818 mt 2150  818 L
2114  782 mt 2114  854 L
2784 1342 mt 2856 1342 L
2820 1306 mt 2820 1378 L
6204 1701 mt 6276 1701 L
6240 1665 mt 6240 1737 L
4614 2186 mt 4686 2186 L
4650 2150 mt 4650 2222 L
5439  760 mt 5511  760 L
5475  724 mt 5475  796 L
6202  617 mt 6274  617 L
6238  581 mt 6238  653 L
2007  555 mt 2079  555 L
2043  519 mt 2043  591 L
5910 4309 mt 5982 4309 L
5946 4273 mt 5946 4345 L
 912  423 mt  984  423 L
 948  387 mt  948  459 L
6223 2429 mt 6295 2429 L
6259 2393 mt 6259 2465 L
6171 1076 mt 6243 1076 L
6207 1040 mt 6207 1112 L
gs 899 414 5363 4203 rc
gr

0 sg
2779 5104 mt 
(\(F,DCTs,GMM\)) s
 422 3277 mt  -90 rotate
(\(S,SSC,GMM\)) s
90 rotate
2905  223 mt 
(Corr = -0.05) s

end %%Color Dict

eplot
%%EndObject

epage
end

showpage

%%Trailer
%%EOF
