%!PS-Adobe-3.0 EPSF-3.0
%%Creator: MATLAB, The Mathworks, Inc. Version 7.7.0.471 (R2008b). Operating System: Microsoft Windows XP.
%%Title: Pictures\main_zoo_mvar_analysis_data_BMI_xcorr_bmi_p2_k1_1_3.eps
%%CreationDate: 10/26/2009  05:44:37
%%DocumentNeededFonts: Helvetica
%%DocumentProcessColors: Cyan Magenta Yellow Black
%%LanguageLevel: 2
%%Pages: 1
%%BoundingBox:    32   180   546   616
%%EndComments

%%BeginProlog
% MathWorks dictionary
/MathWorks 160 dict begin
% definition operators
/bdef {bind def} bind def
/ldef {load def} bind def
/xdef {exch def} bdef
/xstore {exch store} bdef
% operator abbreviations
/c  /clip ldef
/cc /concat ldef
/cp /closepath ldef
/gr /grestore ldef
/gs /gsave ldef
/mt /moveto ldef
/np /newpath ldef
/cm /currentmatrix ldef
/sm /setmatrix ldef
/rm /rmoveto ldef
/rl /rlineto ldef
/s {show newpath} bdef
/sc {setcmykcolor} bdef
/sr /setrgbcolor ldef
/sg /setgray ldef
/w /setlinewidth ldef
/j /setlinejoin ldef
/cap /setlinecap ldef
/rc {rectclip} bdef
/rf {rectfill} bdef
% page state control
/pgsv () def
/bpage {/pgsv save def} bdef
/epage {pgsv restore} bdef
/bplot /gsave ldef
/eplot {stroke grestore} bdef
% orientation switch
/portraitMode 0 def /landscapeMode 1 def /rotateMode 2 def
% coordinate system mappings
/dpi2point 0 def
% font control
/FontSize 0 def
/FMS {/FontSize xstore findfont [FontSize 0 0 FontSize neg 0 0]
  makefont setfont} bdef
/ISOLatin1Encoding where {pop /WindowsLatin1Encoding 256 array bdef
ISOLatin1Encoding WindowsLatin1Encoding copy pop
/.notdef/.notdef/quotesinglbase/florin/quotedblbase/ellipsis/dagger
/daggerdbl/circumflex/perthousand/Scaron/guilsinglleft/OE/.notdef/.notdef
/.notdef/.notdef/quoteleft/quoteright/quotedblleft/quotedblright/bullet
/endash/emdash/tilde/trademark/scaron/guilsinglright/oe/.notdef/.notdef
/Ydieresis WindowsLatin1Encoding 128 32 getinterval astore pop}
{/WindowsLatin1Encoding StandardEncoding bdef} ifelse
/reencode {exch dup where {pop load} {pop StandardEncoding} ifelse
  exch dup 3 1 roll findfont dup length dict begin
  { 1 index /FID ne {def}{pop pop} ifelse } forall
  /Encoding exch def currentdict end definefont pop} bdef
/isroman {findfont /CharStrings get /Agrave known} bdef
/FMSR {3 1 roll 1 index dup isroman {reencode} {pop pop} ifelse
  exch FMS} bdef
/csm {1 dpi2point div -1 dpi2point div scale neg translate
 dup landscapeMode eq {pop -90 rotate}
  {rotateMode eq {90 rotate} if} ifelse} bdef
% line types: solid, dotted, dashed, dotdash
/SO { [] 0 setdash } bdef
/DO { [.5 dpi2point mul 4 dpi2point mul] 0 setdash } bdef
/DA { [6 dpi2point mul] 0 setdash } bdef
/DD { [.5 dpi2point mul 4 dpi2point mul 6 dpi2point mul 4
  dpi2point mul] 0 setdash } bdef
% macros for lines and objects
/L {lineto stroke} bdef
/MP {3 1 roll moveto 1 sub {rlineto} repeat} bdef
/AP {{rlineto} repeat} bdef
/PDlw -1 def
/W {/PDlw currentlinewidth def setlinewidth} def
/PP {closepath eofill} bdef
/DP {closepath stroke} bdef
/MR {4 -2 roll moveto dup  0 exch rlineto exch 0 rlineto
  neg 0 exch rlineto closepath} bdef
/FR {MR stroke} bdef
/PR {MR fill} bdef
/L1i {{currentfile picstr readhexstring pop} image} bdef
/tMatrix matrix def
/MakeOval {newpath tMatrix currentmatrix pop translate scale
0 0 1 0 360 arc tMatrix setmatrix} bdef
/FO {MakeOval stroke} bdef
/PO {MakeOval fill} bdef
/PD {currentlinewidth 2 div 0 360 arc fill
   PDlw -1 eq not {PDlw w /PDlw -1 def} if} def
/FA {newpath tMatrix currentmatrix pop translate scale
  0 0 1 5 -2 roll arc tMatrix setmatrix stroke} bdef
/PA {newpath tMatrix currentmatrix pop	translate 0 0 moveto scale
  0 0 1 5 -2 roll arc closepath tMatrix setmatrix fill} bdef
/FAn {newpath tMatrix currentmatrix pop translate scale
  0 0 1 5 -2 roll arcn tMatrix setmatrix stroke} bdef
/PAn {newpath tMatrix currentmatrix pop translate 0 0 moveto scale
  0 0 1 5 -2 roll arcn closepath tMatrix setmatrix fill} bdef
/vradius 0 def /hradius 0 def /lry 0 def
/lrx 0 def /uly 0 def /ulx 0 def /rad 0 def
/MRR {/vradius xdef /hradius xdef /lry xdef /lrx xdef /uly xdef
  /ulx xdef newpath tMatrix currentmatrix pop ulx hradius add uly
  vradius add translate hradius vradius scale 0 0 1 180 270 arc 
  tMatrix setmatrix lrx hradius sub uly vradius add translate
  hradius vradius scale 0 0 1 270 360 arc tMatrix setmatrix
  lrx hradius sub lry vradius sub translate hradius vradius scale
  0 0 1 0 90 arc tMatrix setmatrix ulx hradius add lry vradius sub
  translate hradius vradius scale 0 0 1 90 180 arc tMatrix setmatrix
  closepath} bdef
/FRR {MRR stroke } bdef
/PRR {MRR fill } bdef
/MlrRR {/lry xdef /lrx xdef /uly xdef /ulx xdef /rad lry uly sub 2 div def
  newpath tMatrix currentmatrix pop ulx rad add uly rad add translate
  rad rad scale 0 0 1 90 270 arc tMatrix setmatrix lrx rad sub lry rad
  sub translate rad rad scale 0 0 1 270 90 arc tMatrix setmatrix
  closepath} bdef
/FlrRR {MlrRR stroke } bdef
/PlrRR {MlrRR fill } bdef
/MtbRR {/lry xdef /lrx xdef /uly xdef /ulx xdef /rad lrx ulx sub 2 div def
  newpath tMatrix currentmatrix pop ulx rad add uly rad add translate
  rad rad scale 0 0 1 180 360 arc tMatrix setmatrix lrx rad sub lry rad
  sub translate rad rad scale 0 0 1 0 180 arc tMatrix setmatrix
  closepath} bdef
/FtbRR {MtbRR stroke } bdef
/PtbRR {MtbRR fill } bdef
/stri 6 array def /dtri 6 array def
/smat 6 array def /dmat 6 array def
/tmat1 6 array def /tmat2 6 array def /dif 3 array def
/asub {/ind2 exch def /ind1 exch def dup dup
  ind1 get exch ind2 get sub exch } bdef
/tri_to_matrix {
  2 0 asub 3 1 asub 4 0 asub 5 1 asub
  dup 0 get exch 1 get 7 -1 roll astore } bdef
/compute_transform {
  dmat dtri tri_to_matrix tmat1 invertmatrix 
  smat stri tri_to_matrix tmat2 concatmatrix } bdef
/ds {stri astore pop} bdef
/dt {dtri astore pop} bdef
/db {2 copy /cols xdef /rows xdef mul dup 3 mul string
  currentfile 
  3 index 0 eq {/ASCIIHexDecode filter}
  {/ASCII85Decode filter 3 index 2 eq {/RunLengthDecode filter} if }
  ifelse exch readstring pop
  dup 0 3 index getinterval /rbmap xdef
  dup 2 index dup getinterval /gbmap xdef
  1 index dup 2 mul exch getinterval /bbmap xdef pop pop}bdef
/it {gs np dtri aload pop moveto lineto lineto cp c
  cols rows 8 compute_transform 
  rbmap gbmap bbmap true 3 colorimage gr}bdef
/il {newpath moveto lineto stroke}bdef
currentdict end def
%%EndProlog

%%BeginSetup
MathWorks begin

0 cap

end
%%EndSetup

%%Page: 1 1
%%BeginPageSetup
%%PageBoundingBox:    32   180   546   616
MathWorks begin
bpage
%%EndPageSetup

%%BeginObject: obj1
bplot

/dpi2point 12 def
portraitMode 0216 7344 csm

  174   -48  6173  5231 rc
85 dict begin %Colortable dictionary
/c0 { 0.000000 0.000000 0.000000 sr} bdef
/c1 { 1.000000 1.000000 1.000000 sr} bdef
/c2 { 0.900000 0.000000 0.000000 sr} bdef
/c3 { 0.000000 0.820000 0.000000 sr} bdef
/c4 { 0.000000 0.000000 0.800000 sr} bdef
/c5 { 0.910000 0.820000 0.320000 sr} bdef
/c6 { 1.000000 0.260000 0.820000 sr} bdef
/c7 { 0.000000 0.820000 0.820000 sr} bdef
c0
1 j
1 sg
   0    0 6919 5187 rf
6 w
0 4201 5362 0 0 -4201 899 4616 4 MP
PP
-5362 0 0 4201 5362 0 0 -4201 899 4616 5 MP stroke
4 w
DO
SO
6 w
0 sg
 899  415 mt 6261  415 L
 899 4616 mt 6261 4616 L
6261 4616 mt 6261  415 L
 899 4616 mt  899  415 L
 899 4616 mt 6261 4616 L
 899 4616 mt  899  415 L
1592 4616 mt 1592 4562 L
1592  415 mt 1592  468 L
%%IncludeResource: font Helvetica
/Helvetica /WindowsLatin1Encoding 240 FMSR

1426 4873 mt 
(0.1) s
2286 4616 mt 2286 4562 L
2286  415 mt 2286  468 L
2120 4873 mt 
(0.2) s
2980 4616 mt 2980 4562 L
2980  415 mt 2980  468 L
2814 4873 mt 
(0.3) s
3674 4616 mt 3674 4562 L
3674  415 mt 3674  468 L
3508 4873 mt 
(0.4) s
4368 4616 mt 4368 4562 L
4368  415 mt 4368  468 L
4202 4873 mt 
(0.5) s
5062 4616 mt 5062 4562 L
5062  415 mt 5062  468 L
4896 4873 mt 
(0.6) s
5756 4616 mt 5756 4562 L
5756  415 mt 5756  468 L
5590 4873 mt 
(0.7) s
 899 3915 mt  952 3915 L
6261 3915 mt 6207 3915 L
 531 4004 mt 
(0.1) s
 899 3214 mt  952 3214 L
6261 3214 mt 6207 3214 L
 531 3303 mt 
(0.2) s
 899 2514 mt  952 2514 L
6261 2514 mt 6207 2514 L
 531 2603 mt 
(0.3) s
 899 1813 mt  952 1813 L
6261 1813 mt 6207 1813 L
 531 1902 mt 
(0.4) s
 899 1113 mt  952 1113 L
6261 1113 mt 6207 1113 L
 531 1202 mt 
(0.5) s
 899  415 mt 6261  415 L
 899 4616 mt 6261 4616 L
6261 4616 mt 6261  415 L
 899 4616 mt  899  415 L
gs 899 414 5363 4203 rc
gr

/c8 { 0.000000 0.000000 1.000000 sr} bdef
c8
2370  415 mt 2442  415 L
2406  379 mt 2406  451 L
 895 4390 mt  967 4390 L
 931 4354 mt  931 4426 L
2187 4533 mt 2259 4533 L
2223 4497 mt 2223 4569 L
1596 4256 mt 1668 4256 L
1632 4220 mt 1632 4292 L
1644 4615 mt 1716 4615 L
1680 4579 mt 1680 4651 L
 865 4616 mt  937 4616 L
 901 4580 mt  901 4652 L
 863 3018 mt  935 3018 L
 899 2982 mt  899 3054 L
1502 4529 mt 1574 4529 L
1538 4493 mt 1538 4565 L
1617 4359 mt 1689 4359 L
1653 4323 mt 1653 4395 L
4338 3254 mt 4410 3254 L
4374 3218 mt 4374 3290 L
 955 4566 mt 1027 4566 L
 991 4530 mt  991 4602 L
 930 4615 mt 1002 4615 L
 966 4579 mt  966 4651 L
 947 4446 mt 1019 4446 L
 983 4410 mt  983 4482 L
1421 4605 mt 1493 4605 L
1457 4569 mt 1457 4641 L
2245 4522 mt 2317 4522 L
2281 4486 mt 2281 4558 L
2873 3497 mt 2945 3497 L
2909 3461 mt 2909 3533 L
 863 2818 mt  935 2818 L
 899 2782 mt  899 2854 L
1427 4528 mt 1499 4528 L
1463 4492 mt 1463 4564 L
 879 4524 mt  951 4524 L
 915 4488 mt  915 4560 L
3392 3299 mt 3464 3299 L
3428 3263 mt 3428 3335 L
 979 4529 mt 1051 4529 L
1015 4493 mt 1015 4565 L
 866 4287 mt  938 4287 L
 902 4251 mt  902 4323 L
2086 4146 mt 2158 4146 L
2122 4110 mt 2122 4182 L
1079 4607 mt 1151 4607 L
1115 4571 mt 1115 4643 L
4052 4230 mt 4124 4230 L
4088 4194 mt 4088 4266 L
1941 4405 mt 2013 4405 L
1977 4369 mt 1977 4441 L
 937 3833 mt 1009 3833 L
 973 3797 mt  973 3869 L
2243 4553 mt 2315 4553 L
2279 4517 mt 2279 4589 L
1198 4613 mt 1270 4613 L
1234 4577 mt 1234 4649 L
3402 4465 mt 3474 4465 L
3438 4429 mt 3438 4501 L
1242 3180 mt 1314 3180 L
1278 3144 mt 1278 3216 L
1194 4192 mt 1266 4192 L
1230 4156 mt 1230 4228 L
1966 4381 mt 2038 4381 L
2002 4345 mt 2002 4417 L
3707 3348 mt 3779 3348 L
3743 3312 mt 3743 3384 L
 864 4594 mt  936 4594 L
 900 4558 mt  900 4630 L
1260 4464 mt 1332 4464 L
1296 4428 mt 1296 4500 L
2963 4551 mt 3035 4551 L
2999 4515 mt 2999 4587 L
2464 4204 mt 2536 4204 L
2500 4168 mt 2500 4240 L
 864 4565 mt  936 4565 L
 900 4529 mt  900 4601 L
 872 3072 mt  944 3072 L
 908 3036 mt  908 3108 L
 866 4589 mt  938 4589 L
 902 4553 mt  902 4625 L
1611 3893 mt 1683 3893 L
1647 3857 mt 1647 3929 L
1434 3953 mt 1506 3953 L
1470 3917 mt 1470 3989 L
1763 4302 mt 1835 4302 L
1799 4266 mt 1799 4338 L
5832 3752 mt 5904 3752 L
5868 3716 mt 5868 3788 L
1763 4587 mt 1835 4587 L
1799 4551 mt 1799 4623 L
1116 2769 mt 1188 2769 L
1152 2733 mt 1152 2805 L
2972 4193 mt 3044 4193 L
3008 4157 mt 3008 4229 L
1130 4567 mt 1202 4567 L
1166 4531 mt 1166 4603 L
 874 4581 mt  946 4581 L
 910 4545 mt  910 4617 L
2031 4607 mt 2103 4607 L
2067 4571 mt 2067 4643 L
2323 4316 mt 2395 4316 L
2359 4280 mt 2359 4352 L
2221 4593 mt 2293 4593 L
2257 4557 mt 2257 4629 L
1179 4229 mt 1251 4229 L
1215 4193 mt 1215 4265 L
2409 4473 mt 2481 4473 L
2445 4437 mt 2445 4509 L
1220 4414 mt 1292 4414 L
1256 4378 mt 1256 4450 L
1488 4576 mt 1560 4576 L
1524 4540 mt 1524 4612 L
1030 4567 mt 1102 4567 L
1066 4531 mt 1066 4603 L
2810 4563 mt 2882 4563 L
2846 4527 mt 2846 4599 L
2037 4588 mt 2109 4588 L
2073 4552 mt 2073 4624 L
1695 3936 mt 1767 3936 L
1731 3900 mt 1731 3972 L
2781 4406 mt 2853 4406 L
2817 4370 mt 2817 4442 L
3344 1623 mt 3416 1623 L
3380 1587 mt 3380 1659 L
3171 3713 mt 3243 3713 L
3207 3677 mt 3207 3749 L
2395 3853 mt 2467 3853 L
2431 3817 mt 2431 3889 L
1233 3583 mt 1305 3583 L
1269 3547 mt 1269 3619 L
2481 4495 mt 2553 4495 L
2517 4459 mt 2517 4531 L
2408 4451 mt 2480 4451 L
2444 4415 mt 2444 4487 L
1304 4547 mt 1376 4547 L
1340 4511 mt 1340 4583 L
1305 4446 mt 1377 4446 L
1341 4410 mt 1341 4482 L
2529 4335 mt 2601 4335 L
2565 4299 mt 2565 4371 L
1467 4587 mt 1539 4587 L
1503 4551 mt 1503 4623 L
1475 4526 mt 1547 4526 L
1511 4490 mt 1511 4562 L
 923 4609 mt  995 4609 L
 959 4573 mt  959 4645 L
 890 4504 mt  962 4504 L
 926 4468 mt  926 4540 L
 972 4452 mt 1044 4452 L
1008 4416 mt 1008 4488 L
4944 4611 mt 5016 4611 L
4980 4575 mt 4980 4647 L
 887 4615 mt  959 4615 L
 923 4579 mt  923 4651 L
 943 3861 mt 1015 3861 L
 979 3825 mt  979 3897 L
3114 4552 mt 3186 4552 L
3150 4516 mt 3150 4588 L
2276 4419 mt 2348 4419 L
2312 4383 mt 2312 4455 L
 895 3893 mt  967 3893 L
 931 3857 mt  931 3929 L
1942 2893 mt 2014 2893 L
1978 2857 mt 1978 2929 L
2001 4428 mt 2073 4428 L
2037 4392 mt 2037 4464 L
4991 1702 mt 5063 1702 L
5027 1666 mt 5027 1738 L
1101 4479 mt 1173 4479 L
1137 4443 mt 1137 4515 L
1107 4568 mt 1179 4568 L
1143 4532 mt 1143 4604 L
3966 4582 mt 4038 4582 L
4002 4546 mt 4002 4618 L
1491 4441 mt 1563 4441 L
1527 4405 mt 1527 4477 L
1111 4317 mt 1183 4317 L
1147 4281 mt 1147 4353 L
3369 4255 mt 3441 4255 L
3405 4219 mt 3405 4291 L
3047 4279 mt 3119 4279 L
3083 4243 mt 3083 4315 L
 944 4607 mt 1016 4607 L
 980 4571 mt  980 4643 L
2991 4480 mt 3063 4480 L
3027 4444 mt 3027 4516 L
1175 4462 mt 1247 4462 L
1211 4426 mt 1211 4498 L
 909 4377 mt  981 4377 L
 945 4341 mt  945 4413 L
2250 4058 mt 2322 4058 L
2286 4022 mt 2286 4094 L
3503 4606 mt 3575 4606 L
3539 4570 mt 3539 4642 L
4218 4361 mt 4290 4361 L
4254 4325 mt 4254 4397 L
1652 4579 mt 1724 4579 L
1688 4543 mt 1688 4615 L
1057 1524 mt 1129 1524 L
1093 1488 mt 1093 1560 L
 904 4379 mt  976 4379 L
 940 4343 mt  940 4415 L
1236 1364 mt 1308 1364 L
1272 1328 mt 1272 1400 L
1283 4552 mt 1355 4552 L
1319 4516 mt 1319 4588 L
2054 4517 mt 2126 4517 L
2090 4481 mt 2090 4553 L
1046 4576 mt 1118 4576 L
1082 4540 mt 1082 4612 L
1104 4612 mt 1176 4612 L
1140 4576 mt 1140 4648 L
3333 4131 mt 3405 4131 L
3369 4095 mt 3369 4167 L
 875 4491 mt  947 4491 L
 911 4455 mt  911 4527 L
 863 4353 mt  935 4353 L
 899 4317 mt  899 4389 L
5436 4608 mt 5508 4608 L
5472 4572 mt 5472 4644 L
1240 4450 mt 1312 4450 L
1276 4414 mt 1276 4486 L
 904 4438 mt  976 4438 L
 940 4402 mt  940 4474 L
2144 4568 mt 2216 4568 L
2180 4532 mt 2180 4604 L
2155 4465 mt 2227 4465 L
2191 4429 mt 2191 4501 L
 864 4613 mt  936 4613 L
 900 4577 mt  900 4649 L
1191 3603 mt 1263 3603 L
1227 3567 mt 1227 3639 L
 863 4550 mt  935 4550 L
 899 4514 mt  899 4586 L
1758 4444 mt 1830 4444 L
1794 4408 mt 1794 4480 L
1805 2790 mt 1877 2790 L
1841 2754 mt 1841 2826 L
1443 4468 mt 1515 4468 L
1479 4432 mt 1479 4504 L
1014 4257 mt 1086 4257 L
1050 4221 mt 1050 4293 L
1166 4582 mt 1238 4582 L
1202 4546 mt 1202 4618 L
 999 3371 mt 1071 3371 L
1035 3335 mt 1035 3407 L
1201 4192 mt 1273 4192 L
1237 4156 mt 1237 4228 L
 901 4597 mt  973 4597 L
 937 4561 mt  937 4633 L
1474 4513 mt 1546 4513 L
1510 4477 mt 1510 4549 L
1446 4555 mt 1518 4555 L
1482 4519 mt 1482 4591 L
1863 4510 mt 1935 4510 L
1899 4474 mt 1899 4546 L
2846 4110 mt 2918 4110 L
2882 4074 mt 2882 4146 L
3514 4019 mt 3586 4019 L
3550 3983 mt 3550 4055 L
2952 4193 mt 3024 4193 L
2988 4157 mt 2988 4229 L
1351 4607 mt 1423 4607 L
1387 4571 mt 1387 4643 L
1130 4380 mt 1202 4380 L
1166 4344 mt 1166 4416 L
2665 3990 mt 2737 3990 L
2701 3954 mt 2701 4026 L
1163 4405 mt 1235 4405 L
1199 4369 mt 1199 4441 L
1259 4497 mt 1331 4497 L
1295 4461 mt 1295 4533 L
2357 4390 mt 2429 4390 L
2393 4354 mt 2393 4426 L
 863 4443 mt  935 4443 L
 899 4407 mt  899 4479 L
 863 3842 mt  935 3842 L
 899 3806 mt  899 3878 L
1229 4557 mt 1301 4557 L
1265 4521 mt 1265 4593 L
3035 4615 mt 3107 4615 L
3071 4579 mt 3071 4651 L
4394 3304 mt 4466 3304 L
4430 3268 mt 4430 3340 L
2394 4274 mt 2466 4274 L
2430 4238 mt 2430 4310 L
2011 4526 mt 2083 4526 L
2047 4490 mt 2047 4562 L
3389 4377 mt 3461 4377 L
3425 4341 mt 3425 4413 L
1192 4615 mt 1264 4615 L
1228 4579 mt 1228 4651 L
3461 4615 mt 3533 4615 L
3497 4579 mt 3497 4651 L
4542 4600 mt 4614 4600 L
4578 4564 mt 4578 4636 L
2363 3941 mt 2435 3941 L
2399 3905 mt 2399 3977 L
4645 4582 mt 4717 4582 L
4681 4546 mt 4681 4618 L
1215 4355 mt 1287 4355 L
1251 4319 mt 1251 4391 L
1124 3396 mt 1196 3396 L
1160 3360 mt 1160 3432 L
2604 4461 mt 2676 4461 L
2640 4425 mt 2640 4497 L
3533 4039 mt 3605 4039 L
3569 4003 mt 3569 4075 L
3397 4573 mt 3469 4573 L
3433 4537 mt 3433 4609 L
1004 4400 mt 1076 4400 L
1040 4364 mt 1040 4436 L
 913 3531 mt  985 3531 L
 949 3495 mt  949 3567 L
1217 4615 mt 1289 4615 L
1253 4579 mt 1253 4651 L
2778 4576 mt 2850 4576 L
2814 4540 mt 2814 4612 L
1693 4521 mt 1765 4521 L
1729 4485 mt 1729 4557 L
 911 4602 mt  983 4602 L
 947 4566 mt  947 4638 L
 874 3182 mt  946 3182 L
 910 3146 mt  910 3218 L
1297 4420 mt 1369 4420 L
1333 4384 mt 1333 4456 L
1594 4497 mt 1666 4497 L
1630 4461 mt 1630 4533 L
 977 4060 mt 1049 4060 L
1013 4024 mt 1013 4096 L
3263 3814 mt 3335 3814 L
3299 3778 mt 3299 3850 L
 893 4358 mt  965 4358 L
 929 4322 mt  929 4394 L
 875 4319 mt  947 4319 L
 911 4283 mt  911 4355 L
 998 4433 mt 1070 4433 L
1034 4397 mt 1034 4469 L
 937 3339 mt 1009 3339 L
 973 3303 mt  973 3375 L
1438 4093 mt 1510 4093 L
1474 4057 mt 1474 4129 L
1974 3976 mt 2046 3976 L
2010 3940 mt 2010 4012 L
1999 4451 mt 2071 4451 L
2035 4415 mt 2035 4487 L
1348 4209 mt 1420 4209 L
1384 4173 mt 1384 4245 L
 863 4615 mt  935 4615 L
 899 4579 mt  899 4651 L
1261 4159 mt 1333 4159 L
1297 4123 mt 1297 4195 L
3078 4550 mt 3150 4550 L
3114 4514 mt 3114 4586 L
1399 2378 mt 1471 2378 L
1435 2342 mt 1435 2414 L
1433 4533 mt 1505 4533 L
1469 4497 mt 1469 4569 L
1887 4100 mt 1959 4100 L
1923 4064 mt 1923 4136 L
4600 2399 mt 4672 2399 L
4636 2363 mt 4636 2435 L
3055 2953 mt 3127 2953 L
3091 2917 mt 3091 2989 L
 909 4427 mt  981 4427 L
 945 4391 mt  945 4463 L
3431 4583 mt 3503 4583 L
3467 4547 mt 3467 4619 L
2312 3292 mt 2384 3292 L
2348 3256 mt 2348 3328 L
1599 4137 mt 1671 4137 L
1635 4101 mt 1635 4173 L
 903 4583 mt  975 4583 L
 939 4547 mt  939 4619 L
3728 4513 mt 3800 4513 L
3764 4477 mt 3764 4549 L
 916 3044 mt  988 3044 L
 952 3008 mt  952 3080 L
1542 4328 mt 1614 4328 L
1578 4292 mt 1578 4364 L
3528 3968 mt 3600 3968 L
3564 3932 mt 3564 4004 L
1596 3717 mt 1668 3717 L
1632 3681 mt 1632 3753 L
1027 4355 mt 1099 4355 L
1063 4319 mt 1063 4391 L
1202 4610 mt 1274 4610 L
1238 4574 mt 1238 4646 L
2295 1185 mt 2367 1185 L
2331 1149 mt 2331 1221 L
 881 4192 mt  953 4192 L
 917 4156 mt  917 4228 L
1885 3073 mt 1957 3073 L
1921 3037 mt 1921 3109 L
 865 4439 mt  937 4439 L
 901 4403 mt  901 4475 L
 935 4612 mt 1007 4612 L
 971 4576 mt  971 4648 L
2069  438 mt 2141  438 L
2105  402 mt 2105  474 L
 951 3679 mt 1023 3679 L
 987 3643 mt  987 3715 L
3808 4606 mt 3880 4606 L
3844 4570 mt 3844 4642 L
1424 4525 mt 1496 4525 L
1460 4489 mt 1460 4561 L
2115 4553 mt 2187 4553 L
2151 4517 mt 2151 4589 L
 912 4332 mt  984 4332 L
 948 4296 mt  948 4368 L
 931 3429 mt 1003 3429 L
 967 3393 mt  967 3465 L
2487 3828 mt 2559 3828 L
2523 3792 mt 2523 3864 L
1915 4406 mt 1987 4406 L
1951 4370 mt 1951 4442 L
3800 3412 mt 3872 3412 L
3836 3376 mt 3836 3448 L
 985 4527 mt 1057 4527 L
1021 4491 mt 1021 4563 L
 866 4158 mt  938 4158 L
 902 4122 mt  902 4194 L
1156 4426 mt 1228 4426 L
1192 4390 mt 1192 4462 L
1726 3987 mt 1798 3987 L
1762 3951 mt 1762 4023 L
1407 4563 mt 1479 4563 L
1443 4527 mt 1443 4599 L
3696 3025 mt 3768 3025 L
3732 2989 mt 3732 3061 L
 869 2976 mt  941 2976 L
 905 2940 mt  905 3012 L
 920 4611 mt  992 4611 L
 956 4575 mt  956 4647 L
 868 4302 mt  940 4302 L
 904 4266 mt  904 4338 L
2706 3093 mt 2778 3093 L
2742 3057 mt 2742 3129 L
1323 4614 mt 1395 4614 L
1359 4578 mt 1359 4650 L
 984 4598 mt 1056 4598 L
1020 4562 mt 1020 4634 L
2376 3620 mt 2448 3620 L
2412 3584 mt 2412 3656 L
1442 4324 mt 1514 4324 L
1478 4288 mt 1478 4360 L
1904 4362 mt 1976 4362 L
1940 4326 mt 1940 4398 L
1213 4595 mt 1285 4595 L
1249 4559 mt 1249 4631 L
 972 4438 mt 1044 4438 L
1008 4402 mt 1008 4474 L
1683 4461 mt 1755 4461 L
1719 4425 mt 1719 4497 L
 947 4323 mt 1019 4323 L
 983 4287 mt  983 4359 L
2202 4564 mt 2274 4564 L
2238 4528 mt 2238 4600 L
 876 3902 mt  948 3902 L
 912 3866 mt  912 3938 L
1397 3305 mt 1469 3305 L
1433 3269 mt 1433 3341 L
2725 4570 mt 2797 4570 L
2761 4534 mt 2761 4606 L
4464 2626 mt 4536 2626 L
4500 2590 mt 4500 2662 L
1548 4608 mt 1620 4608 L
1584 4572 mt 1584 4644 L
 863 4603 mt  935 4603 L
 899 4567 mt  899 4639 L
2946 4599 mt 3018 4599 L
2982 4563 mt 2982 4635 L
3594 4610 mt 3666 4610 L
3630 4574 mt 3630 4646 L
 872 4547 mt  944 4547 L
 908 4511 mt  908 4583 L
 983 3517 mt 1055 3517 L
1019 3481 mt 1019 3553 L
 957 4579 mt 1029 4579 L
 993 4543 mt  993 4615 L
2212 3283 mt 2284 3283 L
2248 3247 mt 2248 3319 L
2213 4323 mt 2285 4323 L
2249 4287 mt 2249 4359 L
3059 4561 mt 3131 4561 L
3095 4525 mt 3095 4597 L
6225 4415 mt 6297 4415 L
6261 4379 mt 6261 4451 L
1279 4313 mt 1351 4313 L
1315 4277 mt 1315 4349 L
1855 2699 mt 1927 2699 L
1891 2663 mt 1891 2735 L
3645 4531 mt 3717 4531 L
3681 4495 mt 3681 4567 L
2261 4615 mt 2333 4615 L
2297 4579 mt 2297 4651 L
1705 4611 mt 1777 4611 L
1741 4575 mt 1741 4647 L
1842 4500 mt 1914 4500 L
1878 4464 mt 1878 4536 L
2657 4520 mt 2729 4520 L
2693 4484 mt 2693 4556 L
3113 4613 mt 3185 4613 L
3149 4577 mt 3149 4649 L
 892 4466 mt  964 4466 L
 928 4430 mt  928 4502 L
2006 4590 mt 2078 4590 L
2042 4554 mt 2042 4626 L
2008 4048 mt 2080 4048 L
2044 4012 mt 2044 4084 L
1100 4570 mt 1172 4570 L
1136 4534 mt 1136 4606 L
 913 4453 mt  985 4453 L
 949 4417 mt  949 4489 L
2850 4221 mt 2922 4221 L
2886 4185 mt 2886 4257 L
1770 4263 mt 1842 4263 L
1806 4227 mt 1806 4299 L
1447 4055 mt 1519 4055 L
1483 4019 mt 1483 4091 L
3415 4569 mt 3487 4569 L
3451 4533 mt 3451 4605 L
2760 1526 mt 2832 1526 L
2796 1490 mt 2796 1562 L
4314 3707 mt 4386 3707 L
4350 3671 mt 4350 3743 L
 863 3126 mt  935 3126 L
 899 3090 mt  899 3162 L
1015 4215 mt 1087 4215 L
1051 4179 mt 1051 4251 L
1321 4519 mt 1393 4519 L
1357 4483 mt 1357 4555 L
3145 4613 mt 3217 4613 L
3181 4577 mt 3181 4649 L
1510 4488 mt 1582 4488 L
1546 4452 mt 1546 4524 L
2647 3740 mt 2719 3740 L
2683 3704 mt 2683 3776 L
3648 4591 mt 3720 4591 L
3684 4555 mt 3684 4627 L
 865 4517 mt  937 4517 L
 901 4481 mt  901 4553 L
3308 4615 mt 3380 4615 L
3344 4579 mt 3344 4651 L
1098 4347 mt 1170 4347 L
1134 4311 mt 1134 4383 L
 908 4351 mt  980 4351 L
 944 4315 mt  944 4387 L
 964 4173 mt 1036 4173 L
1000 4137 mt 1000 4209 L
5337 4615 mt 5409 4615 L
5373 4579 mt 5373 4651 L
1163 4426 mt 1235 4426 L
1199 4390 mt 1199 4462 L
1236 4451 mt 1308 4451 L
1272 4415 mt 1272 4487 L
3214 4494 mt 3286 4494 L
3250 4458 mt 3250 4530 L
2916 4437 mt 2988 4437 L
2952 4401 mt 2952 4473 L
 886 4132 mt  958 4132 L
 922 4096 mt  922 4168 L
1983 2519 mt 2055 2519 L
2019 2483 mt 2019 2555 L
3270 3849 mt 3342 3849 L
3306 3813 mt 3306 3885 L
4653 1067 mt 4725 1067 L
4689 1031 mt 4689 1103 L
1493 4615 mt 1565 4615 L
1529 4579 mt 1529 4651 L
1466 4030 mt 1538 4030 L
1502 3994 mt 1502 4066 L
4458 4574 mt 4530 4574 L
4494 4538 mt 4494 4610 L
 949 4585 mt 1021 4585 L
 985 4549 mt  985 4621 L
1720 4587 mt 1792 4587 L
1756 4551 mt 1756 4623 L
4139 3786 mt 4211 3786 L
4175 3750 mt 4175 3822 L
2372 4559 mt 2444 4559 L
2408 4523 mt 2408 4595 L
 894 4454 mt  966 4454 L
 930 4418 mt  930 4490 L
3566 3871 mt 3638 3871 L
3602 3835 mt 3602 3907 L
1080 4612 mt 1152 4612 L
1116 4576 mt 1116 4648 L
 868 4614 mt  940 4614 L
 904 4578 mt  904 4650 L
2775 4482 mt 2847 4482 L
2811 4446 mt 2811 4518 L
4051 4389 mt 4123 4389 L
4087 4353 mt 4087 4425 L
3904 4549 mt 3976 4549 L
3940 4513 mt 3940 4585 L
1435 4495 mt 1507 4495 L
1471 4459 mt 1471 4531 L
 922 2234 mt  994 2234 L
 958 2198 mt  958 2270 L
1070 4589 mt 1142 4589 L
1106 4553 mt 1106 4625 L
1974 1280 mt 2046 1280 L
2010 1244 mt 2010 1316 L
1794 4615 mt 1866 4615 L
1830 4579 mt 1830 4651 L
1831 4600 mt 1903 4600 L
1867 4564 mt 1867 4636 L
 865 4427 mt  937 4427 L
 901 4391 mt  901 4463 L
1875 4508 mt 1947 4508 L
1911 4472 mt 1911 4544 L
2887 4271 mt 2959 4271 L
2923 4235 mt 2923 4307 L
 886 4251 mt  958 4251 L
 922 4215 mt  922 4287 L
1401 4520 mt 1473 4520 L
1437 4484 mt 1437 4556 L
6076 4375 mt 6148 4375 L
6112 4339 mt 6112 4411 L
 895 4605 mt  967 4605 L
 931 4569 mt  931 4641 L
 866 4598 mt  938 4598 L
 902 4562 mt  902 4634 L
1352 4549 mt 1424 4549 L
1388 4513 mt 1388 4585 L
2240 4517 mt 2312 4517 L
2276 4481 mt 2276 4553 L
 931 4548 mt 1003 4548 L
 967 4512 mt  967 4584 L
1262 3115 mt 1334 3115 L
1298 3079 mt 1298 3151 L
1709 4211 mt 1781 4211 L
1745 4175 mt 1745 4247 L
1759 4605 mt 1831 4605 L
1795 4569 mt 1795 4641 L
1242 3363 mt 1314 3363 L
1278 3327 mt 1278 3399 L
1265 4581 mt 1337 4581 L
1301 4545 mt 1301 4617 L
1119 3325 mt 1191 3325 L
1155 3289 mt 1155 3361 L
1646 4254 mt 1718 4254 L
1682 4218 mt 1682 4290 L
 873 2834 mt  945 2834 L
 909 2798 mt  909 2870 L
1236 3561 mt 1308 3561 L
1272 3525 mt 1272 3597 L
1321 4509 mt 1393 4509 L
1357 4473 mt 1357 4545 L
2822 4073 mt 2894 4073 L
2858 4037 mt 2858 4109 L
1889 4187 mt 1961 4187 L
1925 4151 mt 1925 4223 L
1595 3748 mt 1667 3748 L
1631 3712 mt 1631 3784 L
2395 4360 mt 2467 4360 L
2431 4324 mt 2431 4396 L
4514 4363 mt 4586 4363 L
4550 4327 mt 4550 4399 L
2836 4373 mt 2908 4373 L
2872 4337 mt 2872 4409 L
2097 4555 mt 2169 4555 L
2133 4519 mt 2133 4591 L
1385 4409 mt 1457 4409 L
1421 4373 mt 1421 4445 L
3291 3306 mt 3363 3306 L
3327 3270 mt 3327 3342 L
 863 4165 mt  935 4165 L
 899 4129 mt  899 4201 L
1986 4615 mt 2058 4615 L
2022 4579 mt 2022 4651 L
1602 4603 mt 1674 4603 L
1638 4567 mt 1638 4639 L
 869 4555 mt  941 4555 L
 905 4519 mt  905 4591 L
 887 4112 mt  959 4112 L
 923 4076 mt  923 4148 L
 863 4612 mt  935 4612 L
 899 4576 mt  899 4648 L
2474 4588 mt 2546 4588 L
2510 4552 mt 2510 4624 L
4669 3934 mt 4741 3934 L
4705 3898 mt 4705 3970 L
2267 4320 mt 2339 4320 L
2303 4284 mt 2303 4356 L
2119 4612 mt 2191 4612 L
2155 4576 mt 2155 4648 L
1875 4552 mt 1947 4552 L
1911 4516 mt 1911 4588 L
2035 4615 mt 2107 4615 L
2071 4579 mt 2071 4651 L
3234 4252 mt 3306 4252 L
3270 4216 mt 3270 4288 L
3873 4412 mt 3945 4412 L
3909 4376 mt 3909 4448 L
2231 3887 mt 2303 3887 L
2267 3851 mt 2267 3923 L
5558 4483 mt 5630 4483 L
5594 4447 mt 5594 4519 L
1170 4610 mt 1242 4610 L
1206 4574 mt 1206 4646 L
 884 2847 mt  956 2847 L
 920 2811 mt  920 2883 L
 983 4613 mt 1055 4613 L
1019 4577 mt 1019 4649 L
2977 4256 mt 3049 4256 L
3013 4220 mt 3013 4292 L
2461 4603 mt 2533 4603 L
2497 4567 mt 2497 4639 L
2181 3756 mt 2253 3756 L
2217 3720 mt 2217 3792 L
1381 2481 mt 1453 2481 L
1417 2445 mt 1417 2517 L
1032 4615 mt 1104 4615 L
1068 4579 mt 1068 4651 L
3157 4488 mt 3229 4488 L
3193 4452 mt 3193 4524 L
1185 4590 mt 1257 4590 L
1221 4554 mt 1221 4626 L
 901 4545 mt  973 4545 L
 937 4509 mt  937 4581 L
1204 3492 mt 1276 3492 L
1240 3456 mt 1240 3528 L
1119 3966 mt 1191 3966 L
1155 3930 mt 1155 4002 L
1002 4068 mt 1074 4068 L
1038 4032 mt 1038 4104 L
 972 3511 mt 1044 3511 L
1008 3475 mt 1008 3547 L
3534 4363 mt 3606 4363 L
3570 4327 mt 3570 4399 L
 865 3853 mt  937 3853 L
 901 3817 mt  901 3889 L
 891 3747 mt  963 3747 L
 927 3711 mt  927 3783 L
1354 3959 mt 1426 3959 L
1390 3923 mt 1390 3995 L
1349 3771 mt 1421 3771 L
1385 3735 mt 1385 3807 L
2442 4544 mt 2514 4544 L
2478 4508 mt 2478 4580 L
2214 4356 mt 2286 4356 L
2250 4320 mt 2250 4392 L
2789 4544 mt 2861 4544 L
2825 4508 mt 2825 4580 L
2224 3505 mt 2296 3505 L
2260 3469 mt 2260 3541 L
1335 4400 mt 1407 4400 L
1371 4364 mt 1371 4436 L
 908 3539 mt  980 3539 L
 944 3503 mt  944 3575 L
3730 4614 mt 3802 4614 L
3766 4578 mt 3766 4650 L
2324 2592 mt 2396 2592 L
2360 2556 mt 2360 2628 L
 863 4614 mt  935 4614 L
 899 4578 mt  899 4650 L
1976 3384 mt 2048 3384 L
2012 3348 mt 2012 3420 L
4273 1943 mt 4345 1943 L
4309 1907 mt 4309 1979 L
4503 3240 mt 4575 3240 L
4539 3204 mt 4539 3276 L
 916 4614 mt  988 4614 L
 952 4578 mt  952 4650 L
4662 4286 mt 4734 4286 L
4698 4250 mt 4698 4322 L
2662 3026 mt 2734 3026 L
2698 2990 mt 2698 3062 L
3409 4458 mt 3481 4458 L
3445 4422 mt 3445 4494 L
 905 4485 mt  977 4485 L
 941 4449 mt  941 4521 L
2398 4594 mt 2470 4594 L
2434 4558 mt 2434 4630 L
1296 3138 mt 1368 3138 L
1332 3102 mt 1332 3174 L
3077 4608 mt 3149 4608 L
3113 4572 mt 3113 4644 L
3852 4471 mt 3924 4471 L
3888 4435 mt 3888 4507 L
1047 3246 mt 1119 3246 L
1083 3210 mt 1083 3282 L
 935 4353 mt 1007 4353 L
 971 4317 mt  971 4389 L
1460 4598 mt 1532 4598 L
1496 4562 mt 1496 4634 L
2160 1182 mt 2232 1182 L
2196 1146 mt 2196 1218 L
 923 4431 mt  995 4431 L
 959 4395 mt  959 4467 L
1004 3469 mt 1076 3469 L
1040 3433 mt 1040 3505 L
 982 4196 mt 1054 4196 L
1018 4160 mt 1018 4232 L
 952 4494 mt 1024 4494 L
 988 4458 mt  988 4530 L
gs 899 414 5363 4203 rc
gr

0 sg
2775 5104 mt 
(\(F,DCTb,GMM\)) s
 422 3259 mt  -90 rotate
(\(S,PAC,GMM\)) s
90 rotate
2975  223 mt 
(Corr = 0.09) s

end %%Color Dict

eplot
%%EndObject

epage
end

showpage

%%Trailer
%%EOF
