%!PS-Adobe-3.0 EPSF-3.0
%%Creator: MATLAB, The Mathworks, Inc. Version 7.7.0.471 (R2008b). Operating System: Microsoft Windows XP.
%%Title: Pictures\main_zoo_mvar_analysis_data_BMI_xcorr_bmi_p1_k2_2_4.eps
%%CreationDate: 10/26/2009  05:44:19
%%DocumentNeededFonts: Helvetica
%%DocumentProcessColors: Cyan Magenta Yellow Black
%%LanguageLevel: 2
%%Pages: 1
%%BoundingBox:    32   180   546   616
%%EndComments

%%BeginProlog
% MathWorks dictionary
/MathWorks 160 dict begin
% definition operators
/bdef {bind def} bind def
/ldef {load def} bind def
/xdef {exch def} bdef
/xstore {exch store} bdef
% operator abbreviations
/c  /clip ldef
/cc /concat ldef
/cp /closepath ldef
/gr /grestore ldef
/gs /gsave ldef
/mt /moveto ldef
/np /newpath ldef
/cm /currentmatrix ldef
/sm /setmatrix ldef
/rm /rmoveto ldef
/rl /rlineto ldef
/s {show newpath} bdef
/sc {setcmykcolor} bdef
/sr /setrgbcolor ldef
/sg /setgray ldef
/w /setlinewidth ldef
/j /setlinejoin ldef
/cap /setlinecap ldef
/rc {rectclip} bdef
/rf {rectfill} bdef
% page state control
/pgsv () def
/bpage {/pgsv save def} bdef
/epage {pgsv restore} bdef
/bplot /gsave ldef
/eplot {stroke grestore} bdef
% orientation switch
/portraitMode 0 def /landscapeMode 1 def /rotateMode 2 def
% coordinate system mappings
/dpi2point 0 def
% font control
/FontSize 0 def
/FMS {/FontSize xstore findfont [FontSize 0 0 FontSize neg 0 0]
  makefont setfont} bdef
/ISOLatin1Encoding where {pop /WindowsLatin1Encoding 256 array bdef
ISOLatin1Encoding WindowsLatin1Encoding copy pop
/.notdef/.notdef/quotesinglbase/florin/quotedblbase/ellipsis/dagger
/daggerdbl/circumflex/perthousand/Scaron/guilsinglleft/OE/.notdef/.notdef
/.notdef/.notdef/quoteleft/quoteright/quotedblleft/quotedblright/bullet
/endash/emdash/tilde/trademark/scaron/guilsinglright/oe/.notdef/.notdef
/Ydieresis WindowsLatin1Encoding 128 32 getinterval astore pop}
{/WindowsLatin1Encoding StandardEncoding bdef} ifelse
/reencode {exch dup where {pop load} {pop StandardEncoding} ifelse
  exch dup 3 1 roll findfont dup length dict begin
  { 1 index /FID ne {def}{pop pop} ifelse } forall
  /Encoding exch def currentdict end definefont pop} bdef
/isroman {findfont /CharStrings get /Agrave known} bdef
/FMSR {3 1 roll 1 index dup isroman {reencode} {pop pop} ifelse
  exch FMS} bdef
/csm {1 dpi2point div -1 dpi2point div scale neg translate
 dup landscapeMode eq {pop -90 rotate}
  {rotateMode eq {90 rotate} if} ifelse} bdef
% line types: solid, dotted, dashed, dotdash
/SO { [] 0 setdash } bdef
/DO { [.5 dpi2point mul 4 dpi2point mul] 0 setdash } bdef
/DA { [6 dpi2point mul] 0 setdash } bdef
/DD { [.5 dpi2point mul 4 dpi2point mul 6 dpi2point mul 4
  dpi2point mul] 0 setdash } bdef
% macros for lines and objects
/L {lineto stroke} bdef
/MP {3 1 roll moveto 1 sub {rlineto} repeat} bdef
/AP {{rlineto} repeat} bdef
/PDlw -1 def
/W {/PDlw currentlinewidth def setlinewidth} def
/PP {closepath eofill} bdef
/DP {closepath stroke} bdef
/MR {4 -2 roll moveto dup  0 exch rlineto exch 0 rlineto
  neg 0 exch rlineto closepath} bdef
/FR {MR stroke} bdef
/PR {MR fill} bdef
/L1i {{currentfile picstr readhexstring pop} image} bdef
/tMatrix matrix def
/MakeOval {newpath tMatrix currentmatrix pop translate scale
0 0 1 0 360 arc tMatrix setmatrix} bdef
/FO {MakeOval stroke} bdef
/PO {MakeOval fill} bdef
/PD {currentlinewidth 2 div 0 360 arc fill
   PDlw -1 eq not {PDlw w /PDlw -1 def} if} def
/FA {newpath tMatrix currentmatrix pop translate scale
  0 0 1 5 -2 roll arc tMatrix setmatrix stroke} bdef
/PA {newpath tMatrix currentmatrix pop	translate 0 0 moveto scale
  0 0 1 5 -2 roll arc closepath tMatrix setmatrix fill} bdef
/FAn {newpath tMatrix currentmatrix pop translate scale
  0 0 1 5 -2 roll arcn tMatrix setmatrix stroke} bdef
/PAn {newpath tMatrix currentmatrix pop translate 0 0 moveto scale
  0 0 1 5 -2 roll arcn closepath tMatrix setmatrix fill} bdef
/vradius 0 def /hradius 0 def /lry 0 def
/lrx 0 def /uly 0 def /ulx 0 def /rad 0 def
/MRR {/vradius xdef /hradius xdef /lry xdef /lrx xdef /uly xdef
  /ulx xdef newpath tMatrix currentmatrix pop ulx hradius add uly
  vradius add translate hradius vradius scale 0 0 1 180 270 arc 
  tMatrix setmatrix lrx hradius sub uly vradius add translate
  hradius vradius scale 0 0 1 270 360 arc tMatrix setmatrix
  lrx hradius sub lry vradius sub translate hradius vradius scale
  0 0 1 0 90 arc tMatrix setmatrix ulx hradius add lry vradius sub
  translate hradius vradius scale 0 0 1 90 180 arc tMatrix setmatrix
  closepath} bdef
/FRR {MRR stroke } bdef
/PRR {MRR fill } bdef
/MlrRR {/lry xdef /lrx xdef /uly xdef /ulx xdef /rad lry uly sub 2 div def
  newpath tMatrix currentmatrix pop ulx rad add uly rad add translate
  rad rad scale 0 0 1 90 270 arc tMatrix setmatrix lrx rad sub lry rad
  sub translate rad rad scale 0 0 1 270 90 arc tMatrix setmatrix
  closepath} bdef
/FlrRR {MlrRR stroke } bdef
/PlrRR {MlrRR fill } bdef
/MtbRR {/lry xdef /lrx xdef /uly xdef /ulx xdef /rad lrx ulx sub 2 div def
  newpath tMatrix currentmatrix pop ulx rad add uly rad add translate
  rad rad scale 0 0 1 180 360 arc tMatrix setmatrix lrx rad sub lry rad
  sub translate rad rad scale 0 0 1 0 180 arc tMatrix setmatrix
  closepath} bdef
/FtbRR {MtbRR stroke } bdef
/PtbRR {MtbRR fill } bdef
/stri 6 array def /dtri 6 array def
/smat 6 array def /dmat 6 array def
/tmat1 6 array def /tmat2 6 array def /dif 3 array def
/asub {/ind2 exch def /ind1 exch def dup dup
  ind1 get exch ind2 get sub exch } bdef
/tri_to_matrix {
  2 0 asub 3 1 asub 4 0 asub 5 1 asub
  dup 0 get exch 1 get 7 -1 roll astore } bdef
/compute_transform {
  dmat dtri tri_to_matrix tmat1 invertmatrix 
  smat stri tri_to_matrix tmat2 concatmatrix } bdef
/ds {stri astore pop} bdef
/dt {dtri astore pop} bdef
/db {2 copy /cols xdef /rows xdef mul dup 3 mul string
  currentfile 
  3 index 0 eq {/ASCIIHexDecode filter}
  {/ASCII85Decode filter 3 index 2 eq {/RunLengthDecode filter} if }
  ifelse exch readstring pop
  dup 0 3 index getinterval /rbmap xdef
  dup 2 index dup getinterval /gbmap xdef
  1 index dup 2 mul exch getinterval /bbmap xdef pop pop}bdef
/it {gs np dtri aload pop moveto lineto lineto cp c
  cols rows 8 compute_transform 
  rbmap gbmap bbmap true 3 colorimage gr}bdef
/il {newpath moveto lineto stroke}bdef
currentdict end def
%%EndProlog

%%BeginSetup
MathWorks begin

0 cap

end
%%EndSetup

%%Page: 1 1
%%BeginPageSetup
%%PageBoundingBox:    32   180   546   616
MathWorks begin
bpage
%%EndPageSetup

%%BeginObject: obj1
bplot

/dpi2point 12 def
portraitMode 0216 7344 csm

  174   -48  6173  5231 rc
85 dict begin %Colortable dictionary
/c0 { 0.000000 0.000000 0.000000 sr} bdef
/c1 { 1.000000 1.000000 1.000000 sr} bdef
/c2 { 0.900000 0.000000 0.000000 sr} bdef
/c3 { 0.000000 0.820000 0.000000 sr} bdef
/c4 { 0.000000 0.000000 0.800000 sr} bdef
/c5 { 0.910000 0.820000 0.320000 sr} bdef
/c6 { 1.000000 0.260000 0.820000 sr} bdef
/c7 { 0.000000 0.820000 0.820000 sr} bdef
c0
1 j
1 sg
   0    0 6919 5187 rf
6 w
0 4202 5362 0 0 -4202 899 4616 4 MP
PP
-5362 0 0 4202 5362 0 0 -4202 899 4616 5 MP stroke
4 w
DO
SO
6 w
0 sg
 899  414 mt 6261  414 L
 899 4616 mt 6261 4616 L
6261 4616 mt 6261  414 L
 899 4616 mt  899  414 L
 899 4616 mt 6261 4616 L
 899 4616 mt  899  414 L
1971 4616 mt 1971 4562 L
1971  414 mt 1971  467 L
%%IncludeResource: font Helvetica
/Helvetica /WindowsLatin1Encoding 240 FMSR

1805 4873 mt 
(0.2) s
3043 4616 mt 3043 4562 L
3043  414 mt 3043  467 L
2877 4873 mt 
(0.4) s
4116 4616 mt 4116 4562 L
4116  414 mt 4116  467 L
3950 4873 mt 
(0.6) s
5188 4616 mt 5188 4562 L
5188  414 mt 5188  467 L
5022 4873 mt 
(0.8) s
 899 4196 mt  952 4196 L
6261 4196 mt 6207 4196 L
 531 4285 mt 
(0.1) s
 899 3776 mt  952 3776 L
6261 3776 mt 6207 3776 L
 531 3865 mt 
(0.2) s
 899 3355 mt  952 3355 L
6261 3355 mt 6207 3355 L
 531 3444 mt 
(0.3) s
 899 2935 mt  952 2935 L
6261 2935 mt 6207 2935 L
 531 3024 mt 
(0.4) s
 899 2515 mt  952 2515 L
6261 2515 mt 6207 2515 L
 531 2604 mt 
(0.5) s
 899 2094 mt  952 2094 L
6261 2094 mt 6207 2094 L
 531 2183 mt 
(0.6) s
 899 1674 mt  952 1674 L
6261 1674 mt 6207 1674 L
 531 1763 mt 
(0.7) s
 899 1254 mt  952 1254 L
6261 1254 mt 6207 1254 L
 531 1343 mt 
(0.8) s
 899  833 mt  952  833 L
6261  833 mt 6207  833 L
 531  922 mt 
(0.9) s
 899  414 mt 6261  414 L
 899 4616 mt 6261 4616 L
6261 4616 mt 6261  414 L
 899 4616 mt  899  414 L
gs 899 414 5363 4203 rc
gr

/c8 { 0.000000 0.000000 1.000000 sr} bdef
c8
3932 1151 mt 4004 1151 L
3968 1115 mt 3968 1187 L
3522  795 mt 3594  795 L
3558  759 mt 3558  831 L
2578 4443 mt 2650 4443 L
2614 4407 mt 2614 4479 L
 886 4095 mt  958 4095 L
 922 4059 mt  922 4131 L
2960  573 mt 3032  573 L
2996  537 mt 2996  609 L
3183 3628 mt 3255 3628 L
3219 3592 mt 3219 3664 L
2027 4473 mt 2099 4473 L
2063 4437 mt 2063 4509 L
2391 4009 mt 2463 4009 L
2427 3973 mt 2427 4045 L
 871 1962 mt  943 1962 L
 907 1926 mt  907 1998 L
6163 2651 mt 6235 2651 L
6199 2615 mt 6199 2687 L
1331 4598 mt 1403 4598 L
1367 4562 mt 1367 4634 L
1850 1788 mt 1922 1788 L
1886 1752 mt 1886 1824 L
5997  668 mt 6069  668 L
6033  632 mt 6033  704 L
2010 2040 mt 2082 2040 L
2046 2004 mt 2046 2076 L
5505  457 mt 5577  457 L
5541  421 mt 5541  493 L
4368 2708 mt 4440 2708 L
4404 2672 mt 4404 2744 L
3179 3274 mt 3251 3274 L
3215 3238 mt 3215 3310 L
5769 2721 mt 5841 2721 L
5805 2685 mt 5805 2757 L
 918 3522 mt  990 3522 L
 954 3486 mt  954 3558 L
5401 1037 mt 5473 1037 L
5437 1001 mt 5437 1073 L
4826 4606 mt 4898 4606 L
4862 4570 mt 4862 4642 L
1022 2429 mt 1094 2429 L
1058 2393 mt 1058 2465 L
3460 4319 mt 3532 4319 L
3496 4283 mt 3496 4355 L
6081 2849 mt 6153 2849 L
6117 2813 mt 6117 2885 L
5834 1667 mt 5906 1667 L
5870 1631 mt 5870 1703 L
5301 4610 mt 5373 4610 L
5337 4574 mt 5337 4646 L
 863 4058 mt  935 4058 L
 899 4022 mt  899 4094 L
3171 1348 mt 3243 1348 L
3207 1312 mt 3207 1384 L
4724 2793 mt 4796 2793 L
4760 2757 mt 4760 2829 L
6208 2383 mt 6280 2383 L
6244 2347 mt 6244 2419 L
5897 4509 mt 5969 4509 L
5933 4473 mt 5933 4545 L
1274 4610 mt 1346 4610 L
1310 4574 mt 1310 4646 L
4026 4588 mt 4098 4588 L
4062 4552 mt 4062 4624 L
5478 2341 mt 5550 2341 L
5514 2305 mt 5514 2377 L
1444  804 mt 1516  804 L
1480  768 mt 1480  840 L
2186 2926 mt 2258 2926 L
2222 2890 mt 2222 2962 L
4954 3552 mt 5026 3552 L
4990 3516 mt 4990 3588 L
2791 4363 mt 2863 4363 L
2827 4327 mt 2827 4399 L
4851 4312 mt 4923 4312 L
4887 4276 mt 4887 4348 L
1108 3399 mt 1180 3399 L
1144 3363 mt 1144 3435 L
1421 1295 mt 1493 1295 L
1457 1259 mt 1457 1331 L
5903  569 mt 5975  569 L
5939  533 mt 5939  605 L
4630 2840 mt 4702 2840 L
4666 2804 mt 4666 2876 L
4263 3797 mt 4335 3797 L
4299 3761 mt 4299 3833 L
6114  449 mt 6186  449 L
6150  413 mt 6150  485 L
1759 4598 mt 1831 4598 L
1795 4562 mt 1795 4634 L
2940 2353 mt 3012 2353 L
2976 2317 mt 2976 2389 L
5983 3736 mt 6055 3736 L
6019 3700 mt 6019 3772 L
3288 3924 mt 3360 3924 L
3324 3888 mt 3324 3960 L
5451 1866 mt 5523 1866 L
5487 1830 mt 5487 1902 L
4059  451 mt 4131  451 L
4095  415 mt 4095  487 L
5256 1280 mt 5328 1280 L
5292 1244 mt 5292 1316 L
6101 1512 mt 6173 1512 L
6137 1476 mt 6137 1548 L
2443 1029 mt 2515 1029 L
2479  993 mt 2479 1065 L
5856 1617 mt 5928 1617 L
5892 1581 mt 5892 1653 L
5672 2980 mt 5744 2980 L
5708 2944 mt 5708 3016 L
3400 2430 mt 3472 2430 L
3436 2394 mt 3436 2466 L
4339  460 mt 4411  460 L
4375  424 mt 4375  496 L
1615 4556 mt 1687 4556 L
1651 4520 mt 1651 4592 L
1336 3643 mt 1408 3643 L
1372 3607 mt 1372 3679 L
3782 1049 mt 3854 1049 L
3818 1013 mt 3818 1085 L
3602 4615 mt 3674 4615 L
3638 4579 mt 3638 4651 L
3144 3361 mt 3216 3361 L
3180 3325 mt 3180 3397 L
5547  451 mt 5619  451 L
5583  415 mt 5583  487 L
 933 1988 mt 1005 1988 L
 969 1952 mt  969 2024 L
6070  459 mt 6142  459 L
6106  423 mt 6106  495 L
4398  481 mt 4470  481 L
4434  445 mt 4434  517 L
1055 3370 mt 1127 3370 L
1091 3334 mt 1091 3406 L
4712 4233 mt 4784 4233 L
4748 4197 mt 4748 4269 L
1063 1107 mt 1135 1107 L
1099 1071 mt 1099 1143 L
4953 4098 mt 5025 4098 L
4989 4062 mt 4989 4134 L
2257  786 mt 2329  786 L
2293  750 mt 2293  822 L
3686 1817 mt 3758 1817 L
3722 1781 mt 3722 1853 L
1983 2461 mt 2055 2461 L
2019 2425 mt 2019 2497 L
 876 4298 mt  948 4298 L
 912 4262 mt  912 4334 L
 863  629 mt  935  629 L
 899  593 mt  899  665 L
5441  616 mt 5513  616 L
5477  580 mt 5477  652 L
1926 4603 mt 1998 4603 L
1962 4567 mt 1962 4639 L
2063 4504 mt 2135 4504 L
2099 4468 mt 2099 4540 L
6145 4485 mt 6217 4485 L
6181 4449 mt 6181 4521 L
1343  916 mt 1415  916 L
1379  880 mt 1379  952 L
2447 3531 mt 2519 3531 L
2483 3495 mt 2483 3567 L
5695 1141 mt 5767 1141 L
5731 1105 mt 5731 1177 L
5791 1329 mt 5863 1329 L
5827 1293 mt 5827 1365 L
6137 1603 mt 6209 1603 L
6173 1567 mt 6173 1639 L
3655 3847 mt 3727 3847 L
3691 3811 mt 3691 3883 L
2100  714 mt 2172  714 L
2136  678 mt 2136  750 L
5436 2818 mt 5508 2818 L
5472 2782 mt 5472 2854 L
6121 1073 mt 6193 1073 L
6157 1037 mt 6157 1109 L
2460  449 mt 2532  449 L
2496  413 mt 2496  485 L
2049 3681 mt 2121 3681 L
2085 3645 mt 2085 3717 L
6170  433 mt 6242  433 L
6206  397 mt 6206  469 L
 968 4085 mt 1040 4085 L
1004 4049 mt 1004 4121 L
5093 1928 mt 5165 1928 L
5129 1892 mt 5129 1964 L
3333 2816 mt 3405 2816 L
3369 2780 mt 3369 2852 L
5593 3938 mt 5665 3938 L
5629 3902 mt 5629 3974 L
1877  871 mt 1949  871 L
1913  835 mt 1913  907 L
3190  525 mt 3262  525 L
3226  489 mt 3226  561 L
3137 3139 mt 3209 3139 L
3173 3103 mt 3173 3175 L
1072  763 mt 1144  763 L
1108  727 mt 1108  799 L
5125  414 mt 5197  414 L
5161  378 mt 5161  450 L
6129 3663 mt 6201 3663 L
6165 3627 mt 6165 3699 L
1323 3189 mt 1395 3189 L
1359 3153 mt 1359 3225 L
 977  763 mt 1049  763 L
1013  727 mt 1013  799 L
5083 4293 mt 5155 4293 L
5119 4257 mt 5119 4329 L
1121 4102 mt 1193 4102 L
1157 4066 mt 1157 4138 L
1455 2206 mt 1527 2206 L
1491 2170 mt 1491 2242 L
3490 4323 mt 3562 4323 L
3526 4287 mt 3526 4359 L
1057 4070 mt 1129 4070 L
1093 4034 mt 1093 4106 L
5407 4157 mt 5479 4157 L
5443 4121 mt 5443 4193 L
5897 1658 mt 5969 1658 L
5933 1622 mt 5933 1694 L
1024 4365 mt 1096 4365 L
1060 4329 mt 1060 4401 L
1243 2044 mt 1315 2044 L
1279 2008 mt 1279 2080 L
5775  474 mt 5847  474 L
5811  438 mt 5811  510 L
2326 3848 mt 2398 3848 L
2362 3812 mt 2362 3884 L
1393 4139 mt 1465 4139 L
1429 4103 mt 1429 4175 L
5247 1202 mt 5319 1202 L
5283 1166 mt 5283 1238 L
4238  683 mt 4310  683 L
4274  647 mt 4274  719 L
3966 4615 mt 4038 4615 L
4002 4579 mt 4002 4651 L
 863 3106 mt  935 3106 L
 899 3070 mt  899 3142 L
4219 1371 mt 4291 1371 L
4255 1335 mt 4255 1407 L
6181 2848 mt 6253 2848 L
6217 2812 mt 6217 2884 L
5332 2220 mt 5404 2220 L
5368 2184 mt 5368 2256 L
1251 3392 mt 1323 3392 L
1287 3356 mt 1287 3428 L
3903 1317 mt 3975 1317 L
3939 1281 mt 3939 1353 L
6023  423 mt 6095  423 L
6059  387 mt 6059  459 L
 986 1148 mt 1058 1148 L
1022 1112 mt 1022 1184 L
 872 1858 mt  944 1858 L
 908 1822 mt  908 1894 L
5031 4175 mt 5103 4175 L
5067 4139 mt 5067 4211 L
5352 4507 mt 5424 4507 L
5388 4471 mt 5388 4543 L
5602  663 mt 5674  663 L
5638  627 mt 5638  699 L
5220 1385 mt 5292 1385 L
5256 1349 mt 5256 1421 L
5726 3841 mt 5798 3841 L
5762 3805 mt 5762 3877 L
4768 1948 mt 4840 1948 L
4804 1912 mt 4804 1984 L
 887 4486 mt  959 4486 L
 923 4450 mt  923 4522 L
2878 1180 mt 2950 1180 L
2914 1144 mt 2914 1216 L
1388 4606 mt 1460 4606 L
1424 4570 mt 1424 4642 L
6125 2575 mt 6197 2575 L
6161 2539 mt 6161 2611 L
1261 1935 mt 1333 1935 L
1297 1899 mt 1297 1971 L
5373  897 mt 5445  897 L
5409  861 mt 5409  933 L
6059 3215 mt 6131 3215 L
6095 3179 mt 6095 3251 L
5418  579 mt 5490  579 L
5454  543 mt 5454  615 L
2816 4518 mt 2888 4518 L
2852 4482 mt 2852 4554 L
2118 3046 mt 2190 3046 L
2154 3010 mt 2154 3082 L
5333  545 mt 5405  545 L
5369  509 mt 5369  581 L
5972 2663 mt 6044 2663 L
6008 2627 mt 6008 2699 L
4571 3271 mt 4643 3271 L
4607 3235 mt 4607 3307 L
2438  844 mt 2510  844 L
2474  808 mt 2474  880 L
3565 3317 mt 3637 3317 L
3601 3281 mt 3601 3353 L
3605 2980 mt 3677 2980 L
3641 2944 mt 3641 3016 L
5475 4479 mt 5547 4479 L
5511 4443 mt 5511 4515 L
5516 3609 mt 5588 3609 L
5552 3573 mt 5552 3645 L
 895 3790 mt  967 3790 L
 931 3754 mt  931 3826 L
1316 4506 mt 1388 4506 L
1352 4470 mt 1352 4542 L
5208 3930 mt 5280 3930 L
5244 3894 mt 5244 3966 L
4162 3921 mt 4234 3921 L
4198 3885 mt 4198 3957 L
 932 4613 mt 1004 4613 L
 968 4577 mt  968 4649 L
5385 4491 mt 5457 4491 L
5421 4455 mt 5421 4527 L
 865 4596 mt  937 4596 L
 901 4560 mt  901 4632 L
6027 1048 mt 6099 1048 L
6063 1012 mt 6063 1084 L
2462 2879 mt 2534 2879 L
2498 2843 mt 2498 2915 L
2851 2906 mt 2923 2906 L
2887 2870 mt 2887 2942 L
3478 3880 mt 3550 3880 L
3514 3844 mt 3514 3916 L
6200  797 mt 6272  797 L
6236  761 mt 6236  833 L
6070 4280 mt 6142 4280 L
6106 4244 mt 6106 4316 L
2236 4616 mt 2308 4616 L
2272 4580 mt 2272 4652 L
5473 4573 mt 5545 4573 L
5509 4537 mt 5509 4609 L
2199 1584 mt 2271 1584 L
2235 1548 mt 2235 1620 L
3638 4426 mt 3710 4426 L
3674 4390 mt 3674 4462 L
5148  504 mt 5220  504 L
5184  468 mt 5184  540 L
5009 4188 mt 5081 4188 L
5045 4152 mt 5045 4224 L
5743  921 mt 5815  921 L
5779  885 mt 5779  957 L
1057 4609 mt 1129 4609 L
1093 4573 mt 1093 4645 L
3553 2096 mt 3625 2096 L
3589 2060 mt 3589 2132 L
4927 3254 mt 4999 3254 L
4963 3218 mt 4963 3290 L
1667  999 mt 1739  999 L
1703  963 mt 1703 1035 L
4696 2724 mt 4768 2724 L
4732 2688 mt 4732 2760 L
4959  418 mt 5031  418 L
4995  382 mt 4995  454 L
2290  834 mt 2362  834 L
2326  798 mt 2326  870 L
1084 4460 mt 1156 4460 L
1120 4424 mt 1120 4496 L
1748 4379 mt 1820 4379 L
1784 4343 mt 1784 4415 L
6075 1641 mt 6147 1641 L
6111 1605 mt 6111 1677 L
3794 2728 mt 3866 2728 L
3830 2692 mt 3830 2764 L
 873  562 mt  945  562 L
 909  526 mt  909  598 L
6171 1570 mt 6243 1570 L
6207 1534 mt 6207 1606 L
1081 4300 mt 1153 4300 L
1117 4264 mt 1117 4336 L
6221  539 mt 6293  539 L
6257  503 mt 6257  575 L
4277 1620 mt 4349 1620 L
4313 1584 mt 4313 1656 L
6199 1002 mt 6271 1002 L
6235  966 mt 6235 1038 L
4394 3942 mt 4466 3942 L
4430 3906 mt 4430 3978 L
5101 4553 mt 5173 4553 L
5137 4517 mt 5137 4589 L
1772 1969 mt 1844 1969 L
1808 1933 mt 1808 2005 L
6207  519 mt 6279  519 L
6243  483 mt 6243  555 L
6146  964 mt 6218  964 L
6182  928 mt 6182 1000 L
2980 1456 mt 3052 1456 L
3016 1420 mt 3016 1492 L
2661 2806 mt 2733 2806 L
2697 2770 mt 2697 2842 L
5221 4124 mt 5293 4124 L
5257 4088 mt 5257 4160 L
4362 1145 mt 4434 1145 L
4398 1109 mt 4398 1181 L
1791 3659 mt 1863 3659 L
1827 3623 mt 1827 3695 L
4227 1874 mt 4299 1874 L
4263 1838 mt 4263 1910 L
5978  450 mt 6050  450 L
6014  414 mt 6014  486 L
1237  509 mt 1309  509 L
1273  473 mt 1273  545 L
6173  611 mt 6245  611 L
6209  575 mt 6209  647 L
5980 4604 mt 6052 4604 L
6016 4568 mt 6016 4640 L
4600 4474 mt 4672 4474 L
4636 4438 mt 4636 4510 L
1682  921 mt 1754  921 L
1718  885 mt 1718  957 L
5990 2483 mt 6062 2483 L
6026 2447 mt 6026 2519 L
5906 2433 mt 5978 2433 L
5942 2397 mt 5942 2469 L
5086  533 mt 5158  533 L
5122  497 mt 5122  569 L
 898 4206 mt  970 4206 L
 934 4170 mt  934 4242 L
1305 4557 mt 1377 4557 L
1341 4521 mt 1341 4593 L
5461  442 mt 5533  442 L
5497  406 mt 5497  478 L
5148  881 mt 5220  881 L
5184  845 mt 5184  917 L
3822 2816 mt 3894 2816 L
3858 2780 mt 3858 2852 L
5446  511 mt 5518  511 L
5482  475 mt 5482  547 L
6221  537 mt 6293  537 L
6257  501 mt 6257  573 L
1755  619 mt 1827  619 L
1791  583 mt 1791  655 L
1200 2762 mt 1272 2762 L
1236 2726 mt 1236 2798 L
5063 4229 mt 5135 4229 L
5099 4193 mt 5099 4265 L
5329 1641 mt 5401 1641 L
5365 1605 mt 5365 1677 L
6210 3763 mt 6282 3763 L
6246 3727 mt 6246 3799 L
 968 3744 mt 1040 3744 L
1004 3708 mt 1004 3780 L
5325  665 mt 5397  665 L
5361  629 mt 5361  701 L
 871 4573 mt  943 4573 L
 907 4537 mt  907 4609 L
6217  759 mt 6289  759 L
6253  723 mt 6253  795 L
5386 4254 mt 5458 4254 L
5422 4218 mt 5422 4290 L
 884 4610 mt  956 4610 L
 920 4574 mt  920 4646 L
4682 1419 mt 4754 1419 L
4718 1383 mt 4718 1455 L
4505 4225 mt 4577 4225 L
4541 4189 mt 4541 4261 L
6135 4573 mt 6207 4573 L
6171 4537 mt 6171 4609 L
5782 1359 mt 5854 1359 L
5818 1323 mt 5818 1395 L
2305 2817 mt 2377 2817 L
2341 2781 mt 2341 2853 L
1049 4351 mt 1121 4351 L
1085 4315 mt 1085 4387 L
6132 3920 mt 6204 3920 L
6168 3884 mt 6168 3956 L
4214 4561 mt 4286 4561 L
4250 4525 mt 4250 4597 L
4548  667 mt 4620  667 L
4584  631 mt 4584  703 L
4735  481 mt 4807  481 L
4771  445 mt 4771  517 L
1140 1295 mt 1212 1295 L
1176 1259 mt 1176 1331 L
1699 4588 mt 1771 4588 L
1735 4552 mt 1735 4624 L
3626  434 mt 3698  434 L
3662  398 mt 3662  470 L
5961  428 mt 6033  428 L
5997  392 mt 5997  464 L
6146  474 mt 6218  474 L
6182  438 mt 6182  510 L
6222  420 mt 6294  420 L
6258  384 mt 6258  456 L
6079  424 mt 6151  424 L
6115  388 mt 6115  460 L
5612  434 mt 5684  434 L
5648  398 mt 5648  470 L
5465  437 mt 5537  437 L
5501  401 mt 5501  473 L
5213 2508 mt 5285 2508 L
5249 2472 mt 5249 2544 L
3759 3846 mt 3831 3846 L
3795 3810 mt 3795 3882 L
6109  644 mt 6181  644 L
6145  608 mt 6145  680 L
 881 4322 mt  953 4322 L
 917 4286 mt  917 4358 L
5811  491 mt 5883  491 L
5847  455 mt 5847  527 L
4491 2939 mt 4563 2939 L
4527 2903 mt 4527 2975 L
1476 3076 mt 1548 3076 L
1512 3040 mt 1512 3112 L
6152  433 mt 6224  433 L
6188  397 mt 6188  469 L
1556 3120 mt 1628 3120 L
1592 3084 mt 1592 3156 L
5576 1058 mt 5648 1058 L
5612 1022 mt 5612 1094 L
6015  531 mt 6087  531 L
6051  495 mt 6051  567 L
5213 3514 mt 5285 3514 L
5249 3478 mt 5249 3550 L
3560  641 mt 3632  641 L
3596  605 mt 3596  677 L
6017 3075 mt 6089 3075 L
6053 3039 mt 6053 3111 L
 913  427 mt  985  427 L
 949  391 mt  949  463 L
5960  470 mt 6032  470 L
5996  434 mt 5996  506 L
6213 1067 mt 6285 1067 L
6249 1031 mt 6249 1103 L
2485  507 mt 2557  507 L
2521  471 mt 2521  543 L
2410 1305 mt 2482 1305 L
2446 1269 mt 2446 1341 L
3935 3686 mt 4007 3686 L
3971 3650 mt 3971 3722 L
1864  460 mt 1936  460 L
1900  424 mt 1900  496 L
4905 2509 mt 4977 2509 L
4941 2473 mt 4941 2545 L
 917 3376 mt  989 3376 L
 953 3340 mt  953 3412 L
4355 1168 mt 4427 1168 L
4391 1132 mt 4391 1204 L
5898  417 mt 5970  417 L
5934  381 mt 5934  453 L
3980  702 mt 4052  702 L
4016  666 mt 4016  738 L
6220  449 mt 6292  449 L
6256  413 mt 6256  485 L
1624 3403 mt 1696 3403 L
1660 3367 mt 1660 3439 L
4208 1943 mt 4280 1943 L
4244 1907 mt 4244 1979 L
1327 3968 mt 1399 3968 L
1363 3932 mt 1363 4004 L
5938  456 mt 6010  456 L
5974  420 mt 5974  492 L
1924  471 mt 1996  471 L
1960  435 mt 1960  507 L
4685 4025 mt 4757 4025 L
4721 3989 mt 4721 4061 L
5410  461 mt 5482  461 L
5446  425 mt 5446  497 L
5530 1119 mt 5602 1119 L
5566 1083 mt 5566 1155 L
 884 1355 mt  956 1355 L
 920 1319 mt  920 1391 L
6117  448 mt 6189  448 L
6153  412 mt 6153  484 L
5863 1391 mt 5935 1391 L
5899 1355 mt 5899 1427 L
6030 1155 mt 6102 1155 L
6066 1119 mt 6066 1191 L
2125 4356 mt 2197 4356 L
2161 4320 mt 2161 4392 L
3024  548 mt 3096  548 L
3060  512 mt 3060  584 L
4928 1745 mt 5000 1745 L
4964 1709 mt 4964 1781 L
4475 3618 mt 4547 3618 L
4511 3582 mt 4511 3654 L
 863  594 mt  935  594 L
 899  558 mt  899  630 L
4557  476 mt 4629  476 L
4593  440 mt 4593  512 L
5888  931 mt 5960  931 L
5924  895 mt 5924  967 L
1855 3986 mt 1927 3986 L
1891 3950 mt 1891 4022 L
5543 3297 mt 5615 3297 L
5579 3261 mt 5579 3333 L
2332 2742 mt 2404 2742 L
2368 2706 mt 2368 2778 L
6200 3752 mt 6272 3752 L
6236 3716 mt 6236 3788 L
2977 1851 mt 3049 1851 L
3013 1815 mt 3013 1887 L
2232 4149 mt 2304 4149 L
2268 4113 mt 2268 4185 L
1016 3585 mt 1088 3585 L
1052 3549 mt 1052 3621 L
1497  467 mt 1569  467 L
1533  431 mt 1533  503 L
5803 1035 mt 5875 1035 L
5839  999 mt 5839 1071 L
6042  793 mt 6114  793 L
6078  757 mt 6078  829 L
4855 2912 mt 4927 2912 L
4891 2876 mt 4891 2948 L
1485  537 mt 1557  537 L
1521  501 mt 1521  573 L
6029 3929 mt 6101 3929 L
6065 3893 mt 6065 3965 L
6198  417 mt 6270  417 L
6234  381 mt 6234  453 L
 869  414 mt  941  414 L
 905  378 mt  905  450 L
5590  689 mt 5662  689 L
5626  653 mt 5626  725 L
 869  690 mt  941  690 L
 905  654 mt  905  726 L
2645 4270 mt 2717 4270 L
2681 4234 mt 2681 4306 L
6198 1415 mt 6270 1415 L
6234 1379 mt 6234 1451 L
3315 3151 mt 3387 3151 L
3351 3115 mt 3351 3187 L
3426 4256 mt 3498 4256 L
3462 4220 mt 3462 4292 L
2770 3645 mt 2842 3645 L
2806 3609 mt 2806 3681 L
 865 3290 mt  937 3290 L
 901 3254 mt  901 3326 L
1194 4462 mt 1266 4462 L
1230 4426 mt 1230 4498 L
6221  431 mt 6293  431 L
6257  395 mt 6257  467 L
1616  633 mt 1688  633 L
1652  597 mt 1652  669 L
5162 3245 mt 5234 3245 L
5198 3209 mt 5198 3281 L
5168  531 mt 5240  531 L
5204  495 mt 5204  567 L
2035  433 mt 2107  433 L
2071  397 mt 2071  469 L
1361 2037 mt 1433 2037 L
1397 2001 mt 1397 2073 L
4164 3724 mt 4236 3724 L
4200 3688 mt 4200 3760 L
6214 4002 mt 6286 4002 L
6250 3966 mt 6250 4038 L
4152 1472 mt 4224 1472 L
4188 1436 mt 4188 1508 L
5573 2533 mt 5645 2533 L
5609 2497 mt 5609 2569 L
6162  602 mt 6234  602 L
6198  566 mt 6198  638 L
4042  465 mt 4114  465 L
4078  429 mt 4078  501 L
4887  431 mt 4959  431 L
4923  395 mt 4923  467 L
2742 4192 mt 2814 4192 L
2778 4156 mt 2778 4228 L
 864  829 mt  936  829 L
 900  793 mt  900  865 L
2034 3158 mt 2106 3158 L
2070 3122 mt 2070 3194 L
6201  469 mt 6273  469 L
6237  433 mt 6237  505 L
1472 2720 mt 1544 2720 L
1508 2684 mt 1508 2756 L
4912 3385 mt 4984 3385 L
4948 3349 mt 4948 3421 L
1038 3075 mt 1110 3075 L
1074 3039 mt 1074 3111 L
2437 2287 mt 2509 2287 L
2473 2251 mt 2473 2323 L
6055  652 mt 6127  652 L
6091  616 mt 6091  688 L
4871 2532 mt 4943 2532 L
4907 2496 mt 4907 2568 L
5045 1656 mt 5117 1656 L
5081 1620 mt 5081 1692 L
6050 1172 mt 6122 1172 L
6086 1136 mt 6086 1208 L
6118  414 mt 6190  414 L
6154  378 mt 6154  450 L
5597 2159 mt 5669 2159 L
5633 2123 mt 5633 2195 L
 883 4582 mt  955 4582 L
 919 4546 mt  919 4618 L
6196 1521 mt 6268 1521 L
6232 1485 mt 6232 1557 L
5486 2227 mt 5558 2227 L
5522 2191 mt 5522 2263 L
 869 1588 mt  941 1588 L
 905 1552 mt  905 1624 L
4516 1884 mt 4588 1884 L
4552 1848 mt 4552 1920 L
1694 2390 mt 1766 2390 L
1730 2354 mt 1730 2426 L
 883 2981 mt  955 2981 L
 919 2945 mt  919 3017 L
5721 4614 mt 5793 4614 L
5757 4578 mt 5757 4650 L
4643 3689 mt 4715 3689 L
4679 3653 mt 4679 3725 L
1628 2123 mt 1700 2123 L
1664 2087 mt 1664 2159 L
6225 2314 mt 6297 2314 L
6261 2278 mt 6261 2350 L
1671 3012 mt 1743 3012 L
1707 2976 mt 1707 3048 L
6224 1331 mt 6296 1331 L
6260 1295 mt 6260 1367 L
1599 4498 mt 1671 4498 L
1635 4462 mt 1635 4534 L
4262 3420 mt 4334 3420 L
4298 3384 mt 4298 3456 L
1850 4337 mt 1922 4337 L
1886 4301 mt 1886 4373 L
3578 3977 mt 3650 3977 L
3614 3941 mt 3614 4013 L
5137  874 mt 5209  874 L
5173  838 mt 5173  910 L
5806 4308 mt 5878 4308 L
5842 4272 mt 5842 4344 L
5163 1330 mt 5235 1330 L
5199 1294 mt 5199 1366 L
6183  512 mt 6255  512 L
6219  476 mt 6219  548 L
4393 4493 mt 4465 4493 L
4429 4457 mt 4429 4529 L
4562 3560 mt 4634 3560 L
4598 3524 mt 4598 3596 L
6148  757 mt 6220  757 L
6184  721 mt 6184  793 L
 870 2511 mt  942 2511 L
 906 2475 mt  906 2547 L
3773  476 mt 3845  476 L
3809  440 mt 3809  512 L
6068  490 mt 6140  490 L
6104  454 mt 6104  526 L
6125 2119 mt 6197 2119 L
6161 2083 mt 6161 2155 L
6149  518 mt 6221  518 L
6185  482 mt 6185  554 L
4003  428 mt 4075  428 L
4039  392 mt 4039  464 L
1843 3563 mt 1915 3563 L
1879 3527 mt 1879 3599 L
3354  472 mt 3426  472 L
3390  436 mt 3390  508 L
1923 4606 mt 1995 4606 L
1959 4570 mt 1959 4642 L
2835 4572 mt 2907 4572 L
2871 4536 mt 2871 4608 L
6122 3638 mt 6194 3638 L
6158 3602 mt 6158 3674 L
3146 2985 mt 3218 2985 L
3182 2949 mt 3182 3021 L
2230 4609 mt 2302 4609 L
2266 4573 mt 2266 4645 L
3074 3279 mt 3146 3279 L
3110 3243 mt 3110 3315 L
3359 4519 mt 3431 4519 L
3395 4483 mt 3395 4555 L
6207  418 mt 6279  418 L
6243  382 mt 6243  454 L
4188  653 mt 4260  653 L
4224  617 mt 4224  689 L
 925 4615 mt  997 4615 L
 961 4579 mt  961 4651 L
6153  420 mt 6225  420 L
6189  384 mt 6189  456 L
5352 1935 mt 5424 1935 L
5388 1899 mt 5388 1971 L
1416 1265 mt 1488 1265 L
1452 1229 mt 1452 1301 L
5350 3356 mt 5422 3356 L
5386 3320 mt 5386 3392 L
3373 2067 mt 3445 2067 L
3409 2031 mt 3409 2103 L
1378 4403 mt 1450 4403 L
1414 4367 mt 1414 4439 L
 896 2557 mt  968 2557 L
 932 2521 mt  932 2593 L
3223  597 mt 3295  597 L
3259  561 mt 3259  633 L
6167 1074 mt 6239 1074 L
6203 1038 mt 6203 1110 L
6205  420 mt 6277  420 L
6241  384 mt 6241  456 L
 991 2068 mt 1063 2068 L
1027 2032 mt 1027 2104 L
4299 2203 mt 4371 2203 L
4335 2167 mt 4335 2239 L
2984 1565 mt 3056 1565 L
3020 1529 mt 3020 1601 L
2150 4065 mt 2222 4065 L
2186 4029 mt 2186 4101 L
6220  479 mt 6292  479 L
6256  443 mt 6256  515 L
gs 899 414 5363 4203 rc
gr

0 sg
2775 5104 mt 
(\(F,DCTb,GMM\)) s
 422 3296 mt  -90 rotate
(\(F,DCTs,iMLP\)) s
90 rotate
2975  223 mt 
(Corr = 0.32) s

end %%Color Dict

eplot
%%EndObject

epage
end

showpage

%%Trailer
%%EOF
