%!PS-Adobe-3.0 EPSF-3.0
%%Creator: MATLAB, The Mathworks, Inc. Version 7.7.0.471 (R2008b). Operating System: Microsoft Windows XP.
%%Title: Pictures\main_zoo_mvar_analysis_data_BMI_xcorr_bmig_p1_k2_1_7.eps
%%CreationDate: 10/26/2009  05:45:13
%%DocumentNeededFonts: Helvetica
%%DocumentProcessColors: Cyan Magenta Yellow Black
%%LanguageLevel: 2
%%Pages: 1
%%BoundingBox:    37   180   549   616
%%EndComments

%%BeginProlog
% MathWorks dictionary
/MathWorks 160 dict begin
% definition operators
/bdef {bind def} bind def
/ldef {load def} bind def
/xdef {exch def} bdef
/xstore {exch store} bdef
% operator abbreviations
/c  /clip ldef
/cc /concat ldef
/cp /closepath ldef
/gr /grestore ldef
/gs /gsave ldef
/mt /moveto ldef
/np /newpath ldef
/cm /currentmatrix ldef
/sm /setmatrix ldef
/rm /rmoveto ldef
/rl /rlineto ldef
/s {show newpath} bdef
/sc {setcmykcolor} bdef
/sr /setrgbcolor ldef
/sg /setgray ldef
/w /setlinewidth ldef
/j /setlinejoin ldef
/cap /setlinecap ldef
/rc {rectclip} bdef
/rf {rectfill} bdef
% page state control
/pgsv () def
/bpage {/pgsv save def} bdef
/epage {pgsv restore} bdef
/bplot /gsave ldef
/eplot {stroke grestore} bdef
% orientation switch
/portraitMode 0 def /landscapeMode 1 def /rotateMode 2 def
% coordinate system mappings
/dpi2point 0 def
% font control
/FontSize 0 def
/FMS {/FontSize xstore findfont [FontSize 0 0 FontSize neg 0 0]
  makefont setfont} bdef
/ISOLatin1Encoding where {pop /WindowsLatin1Encoding 256 array bdef
ISOLatin1Encoding WindowsLatin1Encoding copy pop
/.notdef/.notdef/quotesinglbase/florin/quotedblbase/ellipsis/dagger
/daggerdbl/circumflex/perthousand/Scaron/guilsinglleft/OE/.notdef/.notdef
/.notdef/.notdef/quoteleft/quoteright/quotedblleft/quotedblright/bullet
/endash/emdash/tilde/trademark/scaron/guilsinglright/oe/.notdef/.notdef
/Ydieresis WindowsLatin1Encoding 128 32 getinterval astore pop}
{/WindowsLatin1Encoding StandardEncoding bdef} ifelse
/reencode {exch dup where {pop load} {pop StandardEncoding} ifelse
  exch dup 3 1 roll findfont dup length dict begin
  { 1 index /FID ne {def}{pop pop} ifelse } forall
  /Encoding exch def currentdict end definefont pop} bdef
/isroman {findfont /CharStrings get /Agrave known} bdef
/FMSR {3 1 roll 1 index dup isroman {reencode} {pop pop} ifelse
  exch FMS} bdef
/csm {1 dpi2point div -1 dpi2point div scale neg translate
 dup landscapeMode eq {pop -90 rotate}
  {rotateMode eq {90 rotate} if} ifelse} bdef
% line types: solid, dotted, dashed, dotdash
/SO { [] 0 setdash } bdef
/DO { [.5 dpi2point mul 4 dpi2point mul] 0 setdash } bdef
/DA { [6 dpi2point mul] 0 setdash } bdef
/DD { [.5 dpi2point mul 4 dpi2point mul 6 dpi2point mul 4
  dpi2point mul] 0 setdash } bdef
% macros for lines and objects
/L {lineto stroke} bdef
/MP {3 1 roll moveto 1 sub {rlineto} repeat} bdef
/AP {{rlineto} repeat} bdef
/PDlw -1 def
/W {/PDlw currentlinewidth def setlinewidth} def
/PP {closepath eofill} bdef
/DP {closepath stroke} bdef
/MR {4 -2 roll moveto dup  0 exch rlineto exch 0 rlineto
  neg 0 exch rlineto closepath} bdef
/FR {MR stroke} bdef
/PR {MR fill} bdef
/L1i {{currentfile picstr readhexstring pop} image} bdef
/tMatrix matrix def
/MakeOval {newpath tMatrix currentmatrix pop translate scale
0 0 1 0 360 arc tMatrix setmatrix} bdef
/FO {MakeOval stroke} bdef
/PO {MakeOval fill} bdef
/PD {currentlinewidth 2 div 0 360 arc fill
   PDlw -1 eq not {PDlw w /PDlw -1 def} if} def
/FA {newpath tMatrix currentmatrix pop translate scale
  0 0 1 5 -2 roll arc tMatrix setmatrix stroke} bdef
/PA {newpath tMatrix currentmatrix pop	translate 0 0 moveto scale
  0 0 1 5 -2 roll arc closepath tMatrix setmatrix fill} bdef
/FAn {newpath tMatrix currentmatrix pop translate scale
  0 0 1 5 -2 roll arcn tMatrix setmatrix stroke} bdef
/PAn {newpath tMatrix currentmatrix pop translate 0 0 moveto scale
  0 0 1 5 -2 roll arcn closepath tMatrix setmatrix fill} bdef
/vradius 0 def /hradius 0 def /lry 0 def
/lrx 0 def /uly 0 def /ulx 0 def /rad 0 def
/MRR {/vradius xdef /hradius xdef /lry xdef /lrx xdef /uly xdef
  /ulx xdef newpath tMatrix currentmatrix pop ulx hradius add uly
  vradius add translate hradius vradius scale 0 0 1 180 270 arc 
  tMatrix setmatrix lrx hradius sub uly vradius add translate
  hradius vradius scale 0 0 1 270 360 arc tMatrix setmatrix
  lrx hradius sub lry vradius sub translate hradius vradius scale
  0 0 1 0 90 arc tMatrix setmatrix ulx hradius add lry vradius sub
  translate hradius vradius scale 0 0 1 90 180 arc tMatrix setmatrix
  closepath} bdef
/FRR {MRR stroke } bdef
/PRR {MRR fill } bdef
/MlrRR {/lry xdef /lrx xdef /uly xdef /ulx xdef /rad lry uly sub 2 div def
  newpath tMatrix currentmatrix pop ulx rad add uly rad add translate
  rad rad scale 0 0 1 90 270 arc tMatrix setmatrix lrx rad sub lry rad
  sub translate rad rad scale 0 0 1 270 90 arc tMatrix setmatrix
  closepath} bdef
/FlrRR {MlrRR stroke } bdef
/PlrRR {MlrRR fill } bdef
/MtbRR {/lry xdef /lrx xdef /uly xdef /ulx xdef /rad lrx ulx sub 2 div def
  newpath tMatrix currentmatrix pop ulx rad add uly rad add translate
  rad rad scale 0 0 1 180 360 arc tMatrix setmatrix lrx rad sub lry rad
  sub translate rad rad scale 0 0 1 0 180 arc tMatrix setmatrix
  closepath} bdef
/FtbRR {MtbRR stroke } bdef
/PtbRR {MtbRR fill } bdef
/stri 6 array def /dtri 6 array def
/smat 6 array def /dmat 6 array def
/tmat1 6 array def /tmat2 6 array def /dif 3 array def
/asub {/ind2 exch def /ind1 exch def dup dup
  ind1 get exch ind2 get sub exch } bdef
/tri_to_matrix {
  2 0 asub 3 1 asub 4 0 asub 5 1 asub
  dup 0 get exch 1 get 7 -1 roll astore } bdef
/compute_transform {
  dmat dtri tri_to_matrix tmat1 invertmatrix 
  smat stri tri_to_matrix tmat2 concatmatrix } bdef
/ds {stri astore pop} bdef
/dt {dtri astore pop} bdef
/db {2 copy /cols xdef /rows xdef mul dup 3 mul string
  currentfile 
  3 index 0 eq {/ASCIIHexDecode filter}
  {/ASCII85Decode filter 3 index 2 eq {/RunLengthDecode filter} if }
  ifelse exch readstring pop
  dup 0 3 index getinterval /rbmap xdef
  dup 2 index dup getinterval /gbmap xdef
  1 index dup 2 mul exch getinterval /bbmap xdef pop pop}bdef
/it {gs np dtri aload pop moveto lineto lineto cp c
  cols rows 8 compute_transform 
  rbmap gbmap bbmap true 3 colorimage gr}bdef
/il {newpath moveto lineto stroke}bdef
currentdict end def
%%EndProlog

%%BeginSetup
MathWorks begin

0 cap

end
%%EndSetup

%%Page: 1 1
%%BeginPageSetup
%%PageBoundingBox:    37   180   549   616
MathWorks begin
bpage
%%EndPageSetup

%%BeginObject: obj1
bplot

/dpi2point 12 def
portraitMode 0216 7344 csm

  234   -48  6149  5231 rc
85 dict begin %Colortable dictionary
/c0 { 0.000000 0.000000 0.000000 sr} bdef
/c1 { 1.000000 1.000000 1.000000 sr} bdef
/c2 { 0.900000 0.000000 0.000000 sr} bdef
/c3 { 0.000000 0.820000 0.000000 sr} bdef
/c4 { 0.000000 0.000000 0.800000 sr} bdef
/c5 { 0.910000 0.820000 0.320000 sr} bdef
/c6 { 1.000000 0.260000 0.820000 sr} bdef
/c7 { 0.000000 0.820000 0.820000 sr} bdef
c0
1 j
1 sg
   0    0 6919 5187 rf
6 w
0 4202 5362 0 0 -4202 899 4616 4 MP
PP
-5362 0 0 4202 5362 0 0 -4202 899 4616 5 MP stroke
4 w
DO
SO
6 w
0 sg
 899  414 mt 6261  414 L
 899 4616 mt 6261 4616 L
6261 4616 mt 6261  414 L
 899 4616 mt  899  414 L
 899 4616 mt 6261 4616 L
 899 4616 mt  899  414 L
 919 4616 mt  919 4562 L
 919  414 mt  919  467 L
%%IncludeResource: font Helvetica
/Helvetica /WindowsLatin1Encoding 240 FMSR

 713 4873 mt 
(-3) s
1806 4616 mt 1806 4562 L
1806  414 mt 1806  467 L
1600 4873 mt 
(-2) s
2693 4616 mt 2693 4562 L
2693  414 mt 2693  467 L
2487 4873 mt 
(-1) s
3580 4616 mt 3580 4562 L
3580  414 mt 3580  467 L
3514 4873 mt 
(0) s
4466 4616 mt 4466 4562 L
4466  414 mt 4466  467 L
4400 4873 mt 
(1) s
5353 4616 mt 5353 4562 L
5353  414 mt 5353  467 L
5287 4873 mt 
(2) s
6240 4616 mt 6240 4562 L
6240  414 mt 6240  467 L
6174 4873 mt 
(3) s
 899 4599 mt  952 4599 L
6261 4599 mt 6207 4599 L
 591 4688 mt 
(-3) s
 899 3904 mt  952 3904 L
6261 3904 mt 6207 3904 L
 591 3993 mt 
(-2) s
 899 3209 mt  952 3209 L
6261 3209 mt 6207 3209 L
 591 3298 mt 
(-1) s
 899 2514 mt  952 2514 L
6261 2514 mt 6207 2514 L
 731 2603 mt 
(0) s
 899 1820 mt  952 1820 L
6261 1820 mt 6207 1820 L
 731 1909 mt 
(1) s
 899 1125 mt  952 1125 L
6261 1125 mt 6207 1125 L
 731 1214 mt 
(2) s
 899  430 mt  952  430 L
6261  430 mt 6207  430 L
 731  519 mt 
(3) s
 899  414 mt 6261  414 L
 899 4616 mt 6261 4616 L
6261 4616 mt 6261  414 L
 899 4616 mt  899  414 L
gs 899 414 5363 4203 rc
gr

/c8 { 0.000000 0.000000 1.000000 sr} bdef
c8
4213 1653 mt 4285 1653 L
4249 1617 mt 4249 1689 L
4719 2293 mt 4791 2293 L
4755 2257 mt 4755 2329 L
2866 3022 mt 2938 3022 L
2902 2986 mt 2902 3058 L
2545 2057 mt 2617 2057 L
2581 2021 mt 2581 2093 L
3940 1689 mt 4012 1689 L
3976 1653 mt 3976 1725 L
2605 2558 mt 2677 2558 L
2641 2522 mt 2641 2594 L
1556 1898 mt 1628 1898 L
1592 1862 mt 1592 1934 L
3958 2673 mt 4030 2673 L
3994 2637 mt 3994 2709 L
3897 1948 mt 3969 1948 L
3933 1912 mt 3933 1984 L
4760 2414 mt 4832 2414 L
4796 2378 mt 4796 2450 L
2575 2338 mt 2647 2338 L
2611 2302 mt 2611 2374 L
3627 2889 mt 3699 2889 L
3663 2853 mt 3663 2925 L
4805 1978 mt 4877 1978 L
4841 1942 mt 4841 2014 L
3370 2379 mt 3442 2379 L
3406 2343 mt 3406 2415 L
4564 1960 mt 4636 1960 L
4600 1924 mt 4600 1996 L
3532 2155 mt 3604 2155 L
3568 2119 mt 3568 2191 L
3683 2920 mt 3755 2920 L
3719 2884 mt 3719 2956 L
4034 3848 mt 4106 3848 L
4070 3812 mt 4070 3884 L
4492 2233 mt 4564 2233 L
4528 2197 mt 4528 2269 L
3757 2549 mt 3829 2549 L
3793 2513 mt 3793 2585 L
2765 2242 mt 2837 2242 L
2801 2206 mt 2801 2278 L
3873 3797 mt 3945 3797 L
3909 3761 mt 3909 3833 L
2513 1764 mt 2585 1764 L
2549 1728 mt 2549 1800 L
2987 2370 mt 3059 2370 L
3023 2334 mt 3023 2406 L
4228 2140 mt 4300 2140 L
4264 2104 mt 4264 2176 L
3493 2480 mt 3565 2480 L
3529 2444 mt 3529 2516 L
2624 2528 mt 2696 2528 L
2660 2492 mt 2660 2564 L
3803 2237 mt 3875 2237 L
3839 2201 mt 3839 2273 L
3655 1794 mt 3727 1794 L
3691 1758 mt 3691 1830 L
3934 2251 mt 4006 2251 L
3970 2215 mt 3970 2287 L
2146 2646 mt 2218 2646 L
2182 2610 mt 2182 2682 L
3290 2209 mt 3362 2209 L
3326 2173 mt 3326 2245 L
2381 2700 mt 2453 2700 L
2417 2664 mt 2417 2736 L
3410 2840 mt 3482 2840 L
3446 2804 mt 3446 2876 L
3415 1707 mt 3487 1707 L
3451 1671 mt 3451 1743 L
3555 2835 mt 3627 2835 L
3591 2799 mt 3591 2871 L
3768 2580 mt 3840 2580 L
3804 2544 mt 3804 2616 L
2298 1984 mt 2370 1984 L
2334 1948 mt 2334 2020 L
3202 1388 mt 3274 1388 L
3238 1352 mt 3238 1424 L
3249 1858 mt 3321 1858 L
3285 1822 mt 3285 1894 L
3588 2909 mt 3660 2909 L
3624 2873 mt 3624 2945 L
4236 1298 mt 4308 1298 L
4272 1262 mt 4272 1334 L
5606 2334 mt 5678 2334 L
5642 2298 mt 5642 2370 L
3649 3349 mt 3721 3349 L
3685 3313 mt 3685 3385 L
4463 3017 mt 4535 3017 L
4499 2981 mt 4499 3053 L
3477 2396 mt 3549 2396 L
3513 2360 mt 3513 2432 L
3347 1802 mt 3419 1802 L
3383 1766 mt 3383 1838 L
4107 2519 mt 4179 2519 L
4143 2483 mt 4143 2555 L
2565 3045 mt 2637 3045 L
2601 3009 mt 2601 3081 L
4142 2611 mt 4214 2611 L
4178 2575 mt 4178 2647 L
2903 2298 mt 2975 2298 L
2939 2262 mt 2939 2334 L
3728 2361 mt 3800 2361 L
3764 2325 mt 3764 2397 L
3826 2864 mt 3898 2864 L
3862 2828 mt 3862 2900 L
4028 2619 mt 4100 2619 L
4064 2583 mt 4064 2655 L
3711 2628 mt 3783 2628 L
3747 2592 mt 3747 2664 L
3661 2972 mt 3733 2972 L
3697 2936 mt 3697 3008 L
3166 2423 mt 3238 2423 L
3202 2387 mt 3202 2459 L
4381 2682 mt 4453 2682 L
4417 2646 mt 4417 2718 L
2993 1954 mt 3065 1954 L
3029 1918 mt 3029 1990 L
4184 2347 mt 4256 2347 L
4220 2311 mt 4220 2383 L
3342 3395 mt 3414 3395 L
3378 3359 mt 3378 3431 L
2251 2223 mt 2323 2223 L
2287 2187 mt 2287 2259 L
3426 3468 mt 3498 3468 L
3462 3432 mt 3462 3504 L
4836 1816 mt 4908 1816 L
4872 1780 mt 4872 1852 L
4015 2754 mt 4087 2754 L
4051 2718 mt 4051 2790 L
3921 2633 mt 3993 2633 L
3957 2597 mt 3957 2669 L
3605 2284 mt 3677 2284 L
3641 2248 mt 3641 2320 L
3085 2185 mt 3157 2185 L
3121 2149 mt 3121 2221 L
4054 1851 mt 4126 1851 L
4090 1815 mt 4090 1887 L
2407 1181 mt 2479 1181 L
2443 1145 mt 2443 1217 L
2805 1892 mt 2877 1892 L
2841 1856 mt 2841 1928 L
4693 2951 mt 4765 2951 L
4729 2915 mt 4729 2987 L
4251 2602 mt 4323 2602 L
4287 2566 mt 4287 2638 L
2732 1336 mt 2804 1336 L
2768 1300 mt 2768 1372 L
 863 2356 mt  935 2356 L
 899 2320 mt  899 2392 L
3273 4072 mt 3345 4072 L
3309 4036 mt 3309 4108 L
4425 3178 mt 4497 3178 L
4461 3142 mt 4461 3214 L
2680 1354 mt 2752 1354 L
2716 1318 mt 2716 1390 L
2749 2040 mt 2821 2040 L
2785 2004 mt 2785 2076 L
4243 2029 mt 4315 2029 L
4279 1993 mt 4279 2065 L
3571 1809 mt 3643 1809 L
3607 1773 mt 3607 1845 L
3104 3540 mt 3176 3540 L
3140 3504 mt 3140 3576 L
4074 2709 mt 4146 2709 L
4110 2673 mt 4110 2745 L
3734 1087 mt 3806 1087 L
3770 1051 mt 3770 1123 L
4266 1972 mt 4338 1972 L
4302 1936 mt 4302 2008 L
4094 3567 mt 4166 3567 L
4130 3531 mt 4130 3603 L
3381 1448 mt 3453 1448 L
3417 1412 mt 3417 1484 L
3284 2659 mt 3356 2659 L
3320 2623 mt 3320 2695 L
3964 3425 mt 4036 3425 L
4000 3389 mt 4000 3461 L
2479 1207 mt 2551 1207 L
2515 1171 mt 2515 1243 L
3302 1502 mt 3374 1502 L
3338 1466 mt 3338 1538 L
4501 1838 mt 4573 1838 L
4537 1802 mt 4537 1874 L
3007 2160 mt 3079 2160 L
3043 2124 mt 3043 2196 L
2444 2554 mt 2516 2554 L
2480 2518 mt 2480 2590 L
3237 2820 mt 3309 2820 L
3273 2784 mt 3273 2856 L
2394 2589 mt 2466 2589 L
2430 2553 mt 2430 2625 L
3909 2501 mt 3981 2501 L
3945 2465 mt 3945 2537 L
3791 1671 mt 3863 1671 L
3827 1635 mt 3827 1707 L
3053 3877 mt 3125 3877 L
3089 3841 mt 3089 3913 L
2312 1514 mt 2384 1514 L
2348 1478 mt 2348 1550 L
4298 2099 mt 4370 2099 L
4334 2063 mt 4334 2135 L
2910 2506 mt 2982 2506 L
2946 2470 mt 2946 2542 L
3243 3405 mt 3315 3405 L
3279 3369 mt 3279 3441 L
2085 4131 mt 2157 4131 L
2121 4095 mt 2121 4167 L
2235 2844 mt 2307 2844 L
2271 2808 mt 2271 2880 L
2874 1878 mt 2946 1878 L
2910 1842 mt 2910 1914 L
3616 1872 mt 3688 1872 L
3652 1836 mt 3652 1908 L
2952 2145 mt 3024 2145 L
2988 2109 mt 2988 2181 L
2218 2759 mt 2290 2759 L
2254 2723 mt 2254 2795 L
3538 2475 mt 3610 2475 L
3574 2439 mt 3574 2511 L
3832 3131 mt 3904 3131 L
3868 3095 mt 3868 3167 L
3135 2768 mt 3207 2768 L
3171 2732 mt 3171 2804 L
2327 3376 mt 2399 3376 L
2363 3340 mt 2363 3412 L
5002 1917 mt 5074 1917 L
5038 1881 mt 5038 1953 L
2555 3503 mt 2627 3503 L
2591 3467 mt 2591 3539 L
3952 3051 mt 4024 3051 L
3988 3015 mt 3988 3087 L
3510 1593 mt 3582 1593 L
3546 1557 mt 3546 1629 L
2586 2316 mt 2658 2316 L
2622 2280 mt 2622 2352 L
3129 2894 mt 3201 2894 L
3165 2858 mt 3165 2930 L
1481 2383 mt 1553 2383 L
1517 2347 mt 1517 2419 L
3694 2288 mt 3766 2288 L
3730 2252 mt 3730 2324 L
4372 2307 mt 4444 2307 L
4408 2271 mt 4408 2343 L
3946 2125 mt 4018 2125 L
3982 2089 mt 3982 2161 L
3745 2035 mt 3817 2035 L
3781 1999 mt 3781 2071 L
1965 3415 mt 2037 3415 L
2001 3379 mt 2001 3451 L
4206 2467 mt 4278 2467 L
4242 2431 mt 4242 2503 L
2040 2445 mt 2112 2445 L
2076 2409 mt 2076 2481 L
2821 2745 mt 2893 2745 L
2857 2709 mt 2857 2781 L
3255 2150 mt 3327 2150 L
3291 2114 mt 3291 2186 L
2980 3595 mt 3052 3595 L
3016 3559 mt 3016 3631 L
4444 2199 mt 4516 2199 L
4480 2163 mt 4480 2235 L
4364 3137 mt 4436 3137 L
4400 3101 mt 4400 3173 L
3566 2637 mt 3638 2637 L
3602 2601 mt 3602 2673 L
3330 3081 mt 3402 3081 L
3366 3045 mt 3366 3117 L
3040 2497 mt 3112 2497 L
3076 2461 mt 3076 2533 L
3544 3625 mt 3616 3625 L
3580 3589 mt 3580 3661 L
2917 3553 mt 2989 3553 L
2953 3517 mt 2953 3589 L
4680 2302 mt 4752 2302 L
4716 2266 mt 4716 2338 L
3020 2830 mt 3092 2830 L
3056 2794 mt 3056 2866 L
3814 2051 mt 3886 2051 L
3850 2015 mt 3850 2087 L
4009 2329 mt 4081 2329 L
4045 2293 mt 4045 2365 L
4398 1634 mt 4470 1634 L
4434 1598 mt 4434 1670 L
2813 2440 mt 2885 2440 L
2849 2404 mt 2849 2476 L
3123 2256 mt 3195 2256 L
3159 2220 mt 3159 2292 L
3915 1748 mt 3987 1748 L
3951 1712 mt 3951 1784 L
4191 2571 mt 4263 2571 L
4227 2535 mt 4227 2607 L
2016 2778 mt 2088 2778 L
2052 2742 mt 2052 2814 L
1387 1462 mt 1459 1462 L
1423 1426 mt 1423 1498 L
3196 1845 mt 3268 1845 L
3232 1809 mt 3232 1881 L
3454 1538 mt 3526 1538 L
3490 1502 mt 3490 1574 L
2165 2194 mt 2237 2194 L
2201 2158 mt 2201 2230 L
4100 3446 mt 4172 3446 L
4136 3410 mt 4136 3482 L
2634 2018 mt 2706 2018 L
2670 1982 mt 2670 2054 L
2797 2567 mt 2869 2567 L
2833 2531 mt 2833 2603 L
3717 2024 mt 3789 2024 L
3753 1988 mt 3753 2060 L
2432 1779 mt 2504 1779 L
2468 1743 mt 2468 1815 L
3488 3479 mt 3560 3479 L
3524 3443 mt 3524 3515 L
4585 3039 mt 4657 3039 L
4621 3003 mt 4621 3075 L
2671 2704 mt 2743 2704 L
2707 2668 mt 2707 2740 L
4472 2736 mt 4544 2736 L
4508 2700 mt 4508 2772 L
3638 3000 mt 3710 3000 L
3674 2964 mt 3674 3036 L
2781 3731 mt 2853 3731 L
2817 3695 mt 2817 3767 L
2931 2365 mt 3003 2365 L
2967 2329 mt 2967 2401 L
4199 2722 mt 4271 2722 L
4235 2686 mt 4235 2758 L
3521 1756 mt 3593 1756 L
3557 1720 mt 3557 1792 L
2468 2170 mt 2540 2170 L
2504 2134 mt 2504 2206 L
2723 3157 mt 2795 3157 L
2759 3121 mt 2759 3193 L
4820 2536 mt 4892 2536 L
4856 2500 mt 4856 2572 L
2789 1006 mt 2861 1006 L
2825  970 mt 2825 1042 L
4282 1885 mt 4354 1885 L
4318 1849 mt 4318 1921 L
3153 1865 mt 3225 1865 L
3189 1829 mt 3189 1901 L
3527 1698 mt 3599 1698 L
3563 1662 mt 3563 1734 L
2662 2214 mt 2734 2214 L
2698 2178 mt 2698 2250 L
3516 2228 mt 3588 2228 L
3552 2192 mt 3552 2264 L
3927 2859 mt 3999 2859 L
3963 2823 mt 3963 2895 L
3160 2388 mt 3232 2388 L
3196 2352 mt 3196 2424 L
3861 2204 mt 3933 2204 L
3897 2168 mt 3897 2240 L
4170 2792 mt 4242 2792 L
4206 2756 mt 4206 2828 L
3078 2279 mt 3150 2279 L
3114 2243 mt 3114 2315 L
3313 1643 mt 3385 1643 L
3349 1607 mt 3349 1679 L
2828 2731 mt 2900 2731 L
2864 2695 mt 2864 2767 L
4121 3164 mt 4193 3164 L
4157 3128 mt 4157 3200 L
3214 2089 mt 3286 2089 L
3250 2053 mt 3250 2125 L
2706 3069 mt 2778 3069 L
2742 3033 mt 2742 3105 L
4512 2078 mt 4584 2078 L
4548 2042 mt 4548 2114 L
2523 2967 mt 2595 2967 L
2559 2931 mt 2559 3003 L
4655 2453 mt 4727 2453 L
4691 2417 mt 4691 2489 L
3336 2801 mt 3408 2801 L
3372 2765 mt 3372 2837 L
4597 1732 mt 4669 1732 L
4633 1696 mt 4633 1768 L
4060 3075 mt 4132 3075 L
4096 3039 mt 4096 3111 L
3141 3527 mt 3213 3527 L
3177 3491 mt 3177 3563 L
3903 3112 mt 3975 3112 L
3939 3076 mt 3939 3148 L
5180 1723 mt 5252 1723 L
5216 1687 mt 5216 1759 L
5096 2115 mt 5168 2115 L
5132 2079 mt 5132 2151 L
3577 1550 mt 3649 1550 L
3613 1514 mt 3613 1586 L
1722 1614 mt 1794 1614 L
1758 1578 mt 1758 1650 L
4041 2615 mt 4113 2615 L
4077 2579 mt 4077 2651 L
3855 1604 mt 3927 1604 L
3891 1568 mt 3891 1640 L
3785 2493 mt 3857 2493 L
3821 2457 mt 3821 2529 L
3774 2764 mt 3846 2764 L
3810 2728 mt 3810 2800 L
4852 1787 mt 4924 1787 L
4888 1751 mt 4888 1823 L
3706 1583 mt 3778 1583 L
3742 1547 mt 3742 1619 L
5282 2165 mt 5354 2165 L
5318 2129 mt 5318 2201 L
3443 2854 mt 3515 2854 L
3479 2818 mt 3479 2890 L
3482 1823 mt 3554 1823 L
3518 1787 mt 3518 1859 L
4732 2695 mt 4804 2695 L
4768 2659 mt 4768 2731 L
5413 2787 mt 5485 2787 L
5449 2751 mt 5449 2823 L
4156 3322 mt 4228 3322 L
4192 3286 mt 4192 3358 L
2836  414 mt 2908  414 L
2872  378 mt 2872  450 L
2881 3457 mt 2953 3457 L
2917 3421 mt 2917 3493 L
3190 1419 mt 3262 1419 L
3226 1383 mt 3226 1455 L
5365 2664 mt 5437 2664 L
5401 2628 mt 5401 2700 L
4149 1715 mt 4221 1715 L
4185 1679 mt 4185 1751 L
3364 2541 mt 3436 2541 L
3400 2505 mt 3400 2577 L
1766 1561 mt 1838 1561 L
1802 1525 mt 1802 1597 L
4435 3227 mt 4507 3227 L
4471 3191 mt 4471 3263 L
3977 1049 mt 4049 1049 L
4013 1013 mt 4013 1085 L
4922 3099 mt 4994 3099 L
4958 3063 mt 4958 3135 L
5245 3980 mt 5317 3980 L
5281 3944 mt 5281 4016 L
3844 2741 mt 3916 2741 L
3880 2705 mt 3880 2777 L
3046 2874 mt 3118 2874 L
3082 2838 mt 3082 2910 L
2888 1966 mt 2960 1966 L
2924 1930 mt 2924 2002 L
3891 2488 mt 3963 2488 L
3927 2452 mt 3927 2524 L
2063 3774 mt 2135 3774 L
2099 3738 mt 2099 3810 L
5211 2946 mt 5283 2946 L
5247 2910 mt 5247 2982 L
3359 2311 mt 3431 2311 L
3395 2275 mt 3395 2347 L
3110 2135 mt 3182 2135 L
3146 2099 mt 3146 2171 L
3267 2083 mt 3339 2083 L
3303 2047 mt 3303 2119 L
4087 2275 mt 4159 2275 L
4123 2239 mt 4123 2311 L
5531 2668 mt 5603 2668 L
5567 2632 mt 5567 2704 L
3393 3942 mt 3465 3942 L
3429 3906 mt 3429 3978 L
3261 2899 mt 3333 2899 L
3297 2863 mt 3297 2935 L
3797 2930 mt 3869 2930 L
3833 2894 mt 3833 2966 L
3809 2401 mt 3881 2401 L
3845 2365 mt 3845 2437 L
1805  957 mt 1877  957 L
1841  921 mt 1841  993 L
4002 2462 mt 4074 2462 L
4038 2426 mt 4038 2498 L
3838 3151 mt 3910 3151 L
3874 3115 mt 3874 3187 L
2773 2935 mt 2845 2935 L
2809 2899 mt 2809 2971 L
4631 1936 mt 4703 1936 L
4667 1900 mt 4667 1972 L
3599 2062 mt 3671 2062 L
3635 2026 mt 3635 2098 L
5047 3087 mt 5119 3087 L
5083 3051 mt 5083 3123 L
4941 2750 mt 5013 2750 L
4977 2714 mt 4977 2786 L
6033 2265 mt 6105 2265 L
6069 2229 mt 6069 2301 L
4330 1121 mt 4402 1121 L
4366 1085 mt 4366 1157 L
4869 4205 mt 4941 4205 L
4905 4169 mt 4905 4241 L
3751 2189 mt 3823 2189 L
3787 2153 mt 3787 2225 L
3404 2606 mt 3476 2606 L
3440 2570 mt 3440 2642 L
3000 1942 mt 3072 1942 L
3036 1906 mt 3036 1978 L
1674  898 mt 1746  898 L
1710  862 mt 1710  934 L
2615 3297 mt 2687 3297 L
2651 3261 mt 2651 3333 L
2851 3752 mt 2923 3752 L
2887 3716 mt 2887 3788 L
2490 2218 mt 2562 2218 L
2526 2182 mt 2526 2254 L
3027 2374 mt 3099 2374 L
3063 2338 mt 3063 2410 L
4553 2884 mt 4625 2884 L
4589 2848 mt 4589 2920 L
3307 2624 mt 3379 2624 L
3343 2588 mt 3343 2660 L
4667 3711 mt 4739 3711 L
4703 3675 mt 4703 3747 L
4274 1831 mt 4346 1831 L
4310 1795 mt 4310 1867 L
3850 2994 mt 3922 2994 L
3886 2958 mt 3886 3030 L
4021 2067 mt 4093 2067 L
4057 2031 mt 4057 2103 L
3376 2427 mt 3448 2427 L
3412 2391 mt 3412 2463 L
3700 3206 mt 3772 3206 L
3736 3170 mt 3736 3242 L
4619 2012 mt 4691 2012 L
4655 1976 mt 4655 2048 L
1842 2418 mt 1914 2418 L
1878 2382 mt 1878 2454 L
4163 3306 mt 4235 3306 L
4199 3270 mt 4199 3342 L
1876 1572 mt 1948 1572 L
1912 1536 mt 1912 1608 L
3432 3250 mt 3504 3250 L
3468 3214 mt 3468 3286 L
4259 3235 mt 4331 3235 L
4295 3199 mt 4295 3271 L
3184 1930 mt 3256 1930 L
3220 1894 mt 3220 1966 L
2282 1371 mt 2354 1371 L
2318 1335 mt 2318 1407 L
3013 2650 mt 3085 2650 L
3049 2614 mt 3049 2686 L
4221 1740 mt 4293 1740 L
4257 1704 mt 4257 1776 L
3879 3436 mt 3951 3436 L
3915 3400 mt 3915 3472 L
5150 3358 mt 5222 3358 L
5186 3322 mt 5186 3394 L
2896 1476 mt 2968 1476 L
2932 1440 mt 2932 1512 L
3172 2532 mt 3244 2532 L
3208 2496 mt 3208 2568 L
2973 4616 mt 3045 4616 L
3009 4580 mt 3009 4652 L
4482 2727 mt 4554 2727 L
4518 2691 mt 4518 2763 L
2368 2001 mt 2440 2001 L
2404 1965 mt 2404 2037 L
3059 2484 mt 3131 2484 L
3095 2448 mt 3095 2520 L
3740 1152 mt 3812 1152 L
3776 1116 mt 3776 1188 L
5321 2782 mt 5393 2782 L
5357 2746 mt 5357 2818 L
2126 2691 mt 2198 2691 L
2162 2655 mt 2162 2727 L
5468 3093 mt 5540 3093 L
5504 3057 mt 5504 3129 L
3621 2320 mt 3693 2320 L
3657 2284 mt 3657 2356 L
5024 2545 mt 5096 2545 L
5060 2509 mt 5060 2581 L
2420 1526 mt 2492 1526 L
2456 1490 mt 2456 1562 L
2740 1404 mt 2812 1404 L
2776 1368 mt 2776 1440 L
4306 2677 mt 4378 2677 L
4342 2641 mt 4342 2713 L
3387 3340 mt 3459 3340 L
3423 3304 mt 3423 3376 L
3582 2597 mt 3654 2597 L
3618 2561 mt 3618 2633 L
3672 2458 mt 3744 2458 L
3708 2422 mt 3708 2494 L
4643 1911 mt 4715 1911 L
4679 1875 mt 4679 1947 L
2267 2343 mt 2339 2343 L
2303 2307 mt 2303 2379 L
1619 3273 mt 1691 3273 L
1655 3237 mt 1655 3309 L
3319 2261 mt 3391 2261 L
3355 2225 mt 3355 2297 L
3989 3191 mt 4061 3191 L
4025 3155 mt 4025 3227 L
6225 3491 mt 6297 3491 L
6261 3455 mt 6261 3527 L
3499  724 mt 3571  724 L
3535  688 mt 3535  760 L
2534 3658 mt 2606 3658 L
2570 3622 mt 2570 3694 L
3677 2094 mt 3749 2094 L
3713 2058 mt 3713 2130 L
3996 2247 mt 4068 2247 L
4032 2211 mt 4032 2283 L
4886 3213 mt 4958 3213 L
4922 3177 mt 4922 3249 L
4114 2815 mt 4186 2815 L
4150 2779 mt 4150 2851 L
3466 3386 mt 3538 3386 L
3502 3350 mt 3502 3422 L
3398 2584 mt 3470 2584 L
3434 2548 mt 3434 2620 L
1937 2956 mt 2009 2956 L
1973 2920 mt 1973 2992 L
4322 2046 mt 4394 2046 L
4358 2010 mt 4358 2082 L
5071 2471 mt 5143 2471 L
5107 2435 mt 5107 2507 L
4128 3220 mt 4200 3220 L
4164 3184 mt 4164 3256 L
4290 2978 mt 4362 2978 L
4326 2942 mt 4326 3014 L
4390 1995 mt 4462 1995 L
4426 1959 mt 4426 2031 L
2595 3693 mt 2667 3693 L
2631 3657 mt 2631 3729 L
3208 3265 mt 3280 3265 L
3244 3229 mt 3244 3301 L
2959 2718 mt 3031 2718 L
2995 2682 mt 2995 2754 L
2757 3034 mt 2829 3034 L
2793 2998 mt 2793 3070 L
2456 2914 mt 2528 2914 L
2492 2878 mt 2492 2950 L
4338 2449 mt 4410 2449 L
4374 2413 mt 4374 2485 L
3644 2641 mt 3716 2641 L
3680 2605 mt 3680 2677 L
4532 2576 mt 4604 2576 L
4568 2540 mt 4568 2612 L
3220  824 mt 3292  824 L
3256  788 mt 3256  860 L
4453 2405 mt 4525 2405 L
4489 2369 mt 4489 2441 L
3421 2879 mt 3493 2879 L
3457 2843 mt 3457 2915 L
3325 2436 mt 3397 2436 L
3361 2400 mt 3361 2472 L
4416 2432 mt 4488 2432 L
4452 2396 mt 4452 2468 L
2938 1662 mt 3010 1662 L
2974 1626 mt 2974 1698 L
3178 2523 mt 3250 2523 L
3214 2487 mt 3214 2559 L
3971 4305 mt 4043 4305 L
4007 4269 mt 4007 4341 L
4522 3118 mt 4594 3118 L
4558 3082 mt 4558 3154 L
3610 3515 mt 3682 3515 L
3646 3479 mt 3646 3551 L
2924 2352 mt 2996 2352 L
2960 2316 mt 2960 2388 L
4608 1904 mt 4680 1904 L
4644 1868 mt 4644 1940 L
2945 3289 mt 3017 3289 L
2981 3253 mt 2981 3325 L
5828 2514 mt 5900 2514 L
5864 2478 mt 5864 2550 L
2355 2983 mt 2427 2983 L
2391 2947 mt 2391 3019 L
3689 2510 mt 3761 2510 L
3725 2474 mt 3725 2546 L
3885 3106 mt 3957 3106 L
3921 3070 mt 3921 3142 L
3505 2562 mt 3577 2562 L
3541 2526 mt 3541 2598 L
4981 1434 mt 5053 1434 L
5017 1398 mt 5017 1470 L
3666 3057 mt 3738 3057 L
3702 3021 mt 3702 3093 L
3594 2410 mt 3666 2410 L
3630 2374 mt 3630 2446 L
5122 1255 mt 5194 1255 L
5158 1219 mt 5158 1291 L
4789 2007 mt 4861 2007 L
4825 1971 mt 4825 2043 L
3762 3242 mt 3834 3242 L
3798 3206 mt 3798 3278 L
2697 2109 mt 2769 2109 L
2733 2073 mt 2733 2145 L
4135 1680 mt 4207 1680 L
4171 1644 mt 4171 1716 L
4080 2904 mt 4152 2904 L
4116 2868 mt 4116 2940 L
2183 3610 mt 2255 3610 L
2219 3574 mt 2219 3646 L
2715 2989 mt 2787 2989 L
2751 2953 mt 2751 3025 L
3438 2104 mt 3510 2104 L
3474 2068 mt 3474 2140 L
3147 3908 mt 3219 3908 L
3183 3872 mt 3183 3944 L
1991 2270 mt 2063 2270 L
2027 2234 mt 2027 2306 L
3449 3314 mt 3521 3314 L
3485 3278 mt 3485 3350 L
1259 3028 mt 1331 3028 L
1295 2992 mt 1295 3064 L
2689 2686 mt 2761 2686 L
2725 2650 mt 2725 2722 L
3066 1624 mt 3138 1624 L
3102 1588 mt 3102 1660 L
3983 1232 mt 4055 1232 L
4019 1196 mt 4019 1268 L
3560 3198 mt 3632 3198 L
3596 3162 mt 3596 3234 L
3471 3331 mt 3543 3331 L
3507 3295 mt 3507 3367 L
3091 2869 mt 3163 2869 L
3127 2833 mt 3127 2905 L
3226 2773 mt 3298 2773 L
3262 2737 mt 3262 2809 L
4347 4023 mt 4419 4023 L
4383 3987 mt 4383 4059 L
4542 2325 mt 4614 2325 L
4578 2289 mt 4578 2361 L
1907  564 mt 1979  564 L
1943  528 mt 1943  600 L
4407 2811 mt 4479 2811 L
4443 2775 mt 4443 2847 L
4706 2940 mt 4778 2940 L
4742 2904 mt 4742 2976 L
4177 3005 mt 4249 3005 L
4213 2969 mt 4213 3041 L
3820 3171 mt 3892 3171 L
3856 3135 mt 3856 3207 L
3353 3675 mt 3425 3675 L
3389 3639 mt 3389 3711 L
3867 3822 mt 3939 3822 L
3903 3786 mt 3903 3858 L
2652 2175 mt 2724 2175 L
2688 2139 mt 2688 2211 L
3780 3367 mt 3852 3367 L
3816 3331 mt 3816 3403 L
4574 2796 mt 4646 2796 L
4610 2760 mt 4610 2832 L
3116 2593 mt 3188 2593 L
3152 2557 mt 3152 2629 L
3549 2962 mt 3621 2962 L
3585 2926 mt 3585 2998 L
2502 3281 mt 2574 3281 L
2538 3245 mt 2538 3317 L
2966 2180 mt 3038 2180 L
3002 2144 mt 3002 2216 L
2643 2806 mt 2715 2806 L
2679 2770 mt 2679 2842 L
4067 3011 mt 4139 3011 L
4103 2975 mt 4103 3047 L
3278 2713 mt 3350 2713 L
3314 2677 mt 3314 2749 L
2844 3184 mt 2916 3184 L
2880 3148 mt 2880 3220 L
2106 3641 mt 2178 3641 L
2142 3605 mt 2142 3677 L
3232 2130 mt 3304 2130 L
3268 2094 mt 3268 2166 L
3033 2120 mt 3105 2120 L
3069 2084 mt 3069 2156 L
4775 2073 mt 4847 2073 L
4811 2037 mt 4811 2109 L
2859 2392 mt 2931 2392 L
2895 2356 mt 2895 2428 L
4355 3144 mt 4427 3144 L
4391 3108 mt 4391 3180 L
3633 3581 mt 3705 3581 L
3669 3545 mt 3669 3617 L
2341 2825 mt 2413 2825 L
2377 2789 mt 2377 2861 L
3460 3063 mt 3532 3063 L
3496 3027 mt 3496 3099 L
3098 1318 mt 3170 1318 L
3134 1282 mt 3134 1354 L
3296 3257 mt 3368 3257 L
3332 3221 mt 3332 3293 L
4961 2849 mt 5033 2849 L
4997 2813 mt 4997 2885 L
3723 2655 mt 3795 2655 L
3759 2619 mt 3759 2691 L
4047 1990 mt 4119 1990 L
4083 1954 mt 4083 2026 L
4904 1923 mt 4976 1923 L
4940 1887 mt 4940 1959 L
3072 1277 mt 3144 1277 L
3108 1241 mt 3108 1313 L
4314 3125 mt 4386 3125 L
4350 3089 mt 4350 3161 L
2201 1489 mt 2273 1489 L
2237 1453 mt 2237 1525 L
5700 2925 mt 5772 2925 L
5736 2889 mt 5736 2961 L
4746 1772 mt 4818 1772 L
4782 1736 mt 4782 1808 L
gs 899 414 5363 4203 rc
gr

0 sg
2779 5104 mt 
(\(F,DCTs,GMM\)) s
 482 3343 mt  -90 rotate
(\(S,LFCC,GMM\)) s
90 rotate
2905  223 mt 
(Corr = -0.07) s

end %%Color Dict

eplot
%%EndObject

epage
end

showpage

%%Trailer
%%EOF
