%!PS-Adobe-3.0 EPSF-3.0
%%Creator: MATLAB, The Mathworks, Inc. Version 7.7.0.471 (R2008b). Operating System: Microsoft Windows XP.
%%Title: Pictures\main_zoo_mvar_analysis_data_BMI_xcorr_bmi_p1_k2_6_7.eps
%%CreationDate: 10/26/2009  05:44:33
%%DocumentNeededFonts: Helvetica
%%DocumentProcessColors: Cyan Magenta Yellow Black
%%LanguageLevel: 2
%%Pages: 1
%%BoundingBox:    32   180   546   616
%%EndComments

%%BeginProlog
% MathWorks dictionary
/MathWorks 160 dict begin
% definition operators
/bdef {bind def} bind def
/ldef {load def} bind def
/xdef {exch def} bdef
/xstore {exch store} bdef
% operator abbreviations
/c  /clip ldef
/cc /concat ldef
/cp /closepath ldef
/gr /grestore ldef
/gs /gsave ldef
/mt /moveto ldef
/np /newpath ldef
/cm /currentmatrix ldef
/sm /setmatrix ldef
/rm /rmoveto ldef
/rl /rlineto ldef
/s {show newpath} bdef
/sc {setcmykcolor} bdef
/sr /setrgbcolor ldef
/sg /setgray ldef
/w /setlinewidth ldef
/j /setlinejoin ldef
/cap /setlinecap ldef
/rc {rectclip} bdef
/rf {rectfill} bdef
% page state control
/pgsv () def
/bpage {/pgsv save def} bdef
/epage {pgsv restore} bdef
/bplot /gsave ldef
/eplot {stroke grestore} bdef
% orientation switch
/portraitMode 0 def /landscapeMode 1 def /rotateMode 2 def
% coordinate system mappings
/dpi2point 0 def
% font control
/FontSize 0 def
/FMS {/FontSize xstore findfont [FontSize 0 0 FontSize neg 0 0]
  makefont setfont} bdef
/ISOLatin1Encoding where {pop /WindowsLatin1Encoding 256 array bdef
ISOLatin1Encoding WindowsLatin1Encoding copy pop
/.notdef/.notdef/quotesinglbase/florin/quotedblbase/ellipsis/dagger
/daggerdbl/circumflex/perthousand/Scaron/guilsinglleft/OE/.notdef/.notdef
/.notdef/.notdef/quoteleft/quoteright/quotedblleft/quotedblright/bullet
/endash/emdash/tilde/trademark/scaron/guilsinglright/oe/.notdef/.notdef
/Ydieresis WindowsLatin1Encoding 128 32 getinterval astore pop}
{/WindowsLatin1Encoding StandardEncoding bdef} ifelse
/reencode {exch dup where {pop load} {pop StandardEncoding} ifelse
  exch dup 3 1 roll findfont dup length dict begin
  { 1 index /FID ne {def}{pop pop} ifelse } forall
  /Encoding exch def currentdict end definefont pop} bdef
/isroman {findfont /CharStrings get /Agrave known} bdef
/FMSR {3 1 roll 1 index dup isroman {reencode} {pop pop} ifelse
  exch FMS} bdef
/csm {1 dpi2point div -1 dpi2point div scale neg translate
 dup landscapeMode eq {pop -90 rotate}
  {rotateMode eq {90 rotate} if} ifelse} bdef
% line types: solid, dotted, dashed, dotdash
/SO { [] 0 setdash } bdef
/DO { [.5 dpi2point mul 4 dpi2point mul] 0 setdash } bdef
/DA { [6 dpi2point mul] 0 setdash } bdef
/DD { [.5 dpi2point mul 4 dpi2point mul 6 dpi2point mul 4
  dpi2point mul] 0 setdash } bdef
% macros for lines and objects
/L {lineto stroke} bdef
/MP {3 1 roll moveto 1 sub {rlineto} repeat} bdef
/AP {{rlineto} repeat} bdef
/PDlw -1 def
/W {/PDlw currentlinewidth def setlinewidth} def
/PP {closepath eofill} bdef
/DP {closepath stroke} bdef
/MR {4 -2 roll moveto dup  0 exch rlineto exch 0 rlineto
  neg 0 exch rlineto closepath} bdef
/FR {MR stroke} bdef
/PR {MR fill} bdef
/L1i {{currentfile picstr readhexstring pop} image} bdef
/tMatrix matrix def
/MakeOval {newpath tMatrix currentmatrix pop translate scale
0 0 1 0 360 arc tMatrix setmatrix} bdef
/FO {MakeOval stroke} bdef
/PO {MakeOval fill} bdef
/PD {currentlinewidth 2 div 0 360 arc fill
   PDlw -1 eq not {PDlw w /PDlw -1 def} if} def
/FA {newpath tMatrix currentmatrix pop translate scale
  0 0 1 5 -2 roll arc tMatrix setmatrix stroke} bdef
/PA {newpath tMatrix currentmatrix pop	translate 0 0 moveto scale
  0 0 1 5 -2 roll arc closepath tMatrix setmatrix fill} bdef
/FAn {newpath tMatrix currentmatrix pop translate scale
  0 0 1 5 -2 roll arcn tMatrix setmatrix stroke} bdef
/PAn {newpath tMatrix currentmatrix pop translate 0 0 moveto scale
  0 0 1 5 -2 roll arcn closepath tMatrix setmatrix fill} bdef
/vradius 0 def /hradius 0 def /lry 0 def
/lrx 0 def /uly 0 def /ulx 0 def /rad 0 def
/MRR {/vradius xdef /hradius xdef /lry xdef /lrx xdef /uly xdef
  /ulx xdef newpath tMatrix currentmatrix pop ulx hradius add uly
  vradius add translate hradius vradius scale 0 0 1 180 270 arc 
  tMatrix setmatrix lrx hradius sub uly vradius add translate
  hradius vradius scale 0 0 1 270 360 arc tMatrix setmatrix
  lrx hradius sub lry vradius sub translate hradius vradius scale
  0 0 1 0 90 arc tMatrix setmatrix ulx hradius add lry vradius sub
  translate hradius vradius scale 0 0 1 90 180 arc tMatrix setmatrix
  closepath} bdef
/FRR {MRR stroke } bdef
/PRR {MRR fill } bdef
/MlrRR {/lry xdef /lrx xdef /uly xdef /ulx xdef /rad lry uly sub 2 div def
  newpath tMatrix currentmatrix pop ulx rad add uly rad add translate
  rad rad scale 0 0 1 90 270 arc tMatrix setmatrix lrx rad sub lry rad
  sub translate rad rad scale 0 0 1 270 90 arc tMatrix setmatrix
  closepath} bdef
/FlrRR {MlrRR stroke } bdef
/PlrRR {MlrRR fill } bdef
/MtbRR {/lry xdef /lrx xdef /uly xdef /ulx xdef /rad lrx ulx sub 2 div def
  newpath tMatrix currentmatrix pop ulx rad add uly rad add translate
  rad rad scale 0 0 1 180 360 arc tMatrix setmatrix lrx rad sub lry rad
  sub translate rad rad scale 0 0 1 0 180 arc tMatrix setmatrix
  closepath} bdef
/FtbRR {MtbRR stroke } bdef
/PtbRR {MtbRR fill } bdef
/stri 6 array def /dtri 6 array def
/smat 6 array def /dmat 6 array def
/tmat1 6 array def /tmat2 6 array def /dif 3 array def
/asub {/ind2 exch def /ind1 exch def dup dup
  ind1 get exch ind2 get sub exch } bdef
/tri_to_matrix {
  2 0 asub 3 1 asub 4 0 asub 5 1 asub
  dup 0 get exch 1 get 7 -1 roll astore } bdef
/compute_transform {
  dmat dtri tri_to_matrix tmat1 invertmatrix 
  smat stri tri_to_matrix tmat2 concatmatrix } bdef
/ds {stri astore pop} bdef
/dt {dtri astore pop} bdef
/db {2 copy /cols xdef /rows xdef mul dup 3 mul string
  currentfile 
  3 index 0 eq {/ASCIIHexDecode filter}
  {/ASCII85Decode filter 3 index 2 eq {/RunLengthDecode filter} if }
  ifelse exch readstring pop
  dup 0 3 index getinterval /rbmap xdef
  dup 2 index dup getinterval /gbmap xdef
  1 index dup 2 mul exch getinterval /bbmap xdef pop pop}bdef
/it {gs np dtri aload pop moveto lineto lineto cp c
  cols rows 8 compute_transform 
  rbmap gbmap bbmap true 3 colorimage gr}bdef
/il {newpath moveto lineto stroke}bdef
currentdict end def
%%EndProlog

%%BeginSetup
MathWorks begin

0 cap

end
%%EndSetup

%%Page: 1 1
%%BeginPageSetup
%%PageBoundingBox:    32   180   546   616
MathWorks begin
bpage
%%EndPageSetup

%%BeginObject: obj1
bplot

/dpi2point 12 def
portraitMode 0216 7344 csm

  174   -48  6173  5231 rc
85 dict begin %Colortable dictionary
/c0 { 0.000000 0.000000 0.000000 sr} bdef
/c1 { 1.000000 1.000000 1.000000 sr} bdef
/c2 { 0.900000 0.000000 0.000000 sr} bdef
/c3 { 0.000000 0.820000 0.000000 sr} bdef
/c4 { 0.000000 0.000000 0.800000 sr} bdef
/c5 { 0.910000 0.820000 0.320000 sr} bdef
/c6 { 1.000000 0.260000 0.820000 sr} bdef
/c7 { 0.000000 0.820000 0.820000 sr} bdef
c0
1 j
1 sg
   0    0 6919 5187 rf
6 w
0 4201 5362 0 0 -4201 899 4616 4 MP
PP
-5362 0 0 4201 5362 0 0 -4201 899 4616 5 MP stroke
4 w
DO
SO
6 w
0 sg
 899  415 mt 6261  415 L
 899 4616 mt 6261 4616 L
6261 4616 mt 6261  415 L
 899 4616 mt  899  415 L
 899 4616 mt 6261 4616 L
 899 4616 mt  899  415 L
1971 4616 mt 1971 4562 L
1971  415 mt 1971  468 L
%%IncludeResource: font Helvetica
/Helvetica /WindowsLatin1Encoding 240 FMSR

1805 4873 mt 
(0.2) s
3043 4616 mt 3043 4562 L
3043  415 mt 3043  468 L
2877 4873 mt 
(0.4) s
4116 4616 mt 4116 4562 L
4116  415 mt 4116  468 L
3950 4873 mt 
(0.6) s
5188 4616 mt 5188 4562 L
5188  415 mt 5188  468 L
5022 4873 mt 
(0.8) s
 899 4196 mt  952 4196 L
6261 4196 mt 6207 4196 L
 531 4285 mt 
(0.1) s
 899 3776 mt  952 3776 L
6261 3776 mt 6207 3776 L
 531 3865 mt 
(0.2) s
 899 3356 mt  952 3356 L
6261 3356 mt 6207 3356 L
 531 3445 mt 
(0.3) s
 899 2935 mt  952 2935 L
6261 2935 mt 6207 2935 L
 531 3024 mt 
(0.4) s
 899 2515 mt  952 2515 L
6261 2515 mt 6207 2515 L
 531 2604 mt 
(0.5) s
 899 2095 mt  952 2095 L
6261 2095 mt 6207 2095 L
 531 2184 mt 
(0.6) s
 899 1675 mt  952 1675 L
6261 1675 mt 6207 1675 L
 531 1764 mt 
(0.7) s
 899 1255 mt  952 1255 L
6261 1255 mt 6207 1255 L
 531 1344 mt 
(0.8) s
 899  835 mt  952  835 L
6261  835 mt 6207  835 L
 531  924 mt 
(0.9) s
 899  415 mt 6261  415 L
 899 4616 mt 6261 4616 L
6261 4616 mt 6261  415 L
 899 4616 mt  899  415 L
gs 899 414 5363 4203 rc
gr

/c8 { 0.000000 0.000000 1.000000 sr} bdef
c8
3659  505 mt 3731  505 L
3695  469 mt 3695  541 L
3255 1018 mt 3327 1018 L
3291  982 mt 3291 1054 L
5163 3370 mt 5235 3370 L
5199 3334 mt 5199 3406 L
3233  725 mt 3305  725 L
3269  689 mt 3269  761 L
5442  512 mt 5514  512 L
5478  476 mt 5478  548 L
5508 1672 mt 5580 1672 L
5544 1636 mt 5544 1708 L
1647  602 mt 1719  602 L
1683  566 mt 1683  638 L
1701 2010 mt 1773 2010 L
1737 1974 mt 1737 2046 L
1010  616 mt 1082  616 L
1046  580 mt 1046  652 L
6183 1244 mt 6255 1244 L
6219 1208 mt 6219 1280 L
1160 1113 mt 1232 1113 L
1196 1077 mt 1196 1149 L
4050 2644 mt 4122 2644 L
4086 2608 mt 4086 2680 L
5939  634 mt 6011  634 L
5975  598 mt 5975  670 L
3883 1173 mt 3955 1173 L
3919 1137 mt 3919 1209 L
6153  623 mt 6225  623 L
6189  587 mt 6189  659 L
 920  821 mt  992  821 L
 956  785 mt  956  857 L
1706 2877 mt 1778 2877 L
1742 2841 mt 1742 2913 L
3547 4591 mt 3619 4591 L
3583 4555 mt 3583 4627 L
1937  905 mt 2009  905 L
1973  869 mt 1973  941 L
4373 1649 mt 4445 1649 L
4409 1613 mt 4409 1685 L
3264  914 mt 3336  914 L
3300  878 mt 3300  950 L
5622 4587 mt 5694 4587 L
5658 4551 mt 5658 4623 L
2145  537 mt 2217  537 L
2181  501 mt 2181  573 L
4046 1154 mt 4118 1154 L
4082 1118 mt 4082 1190 L
6195  811 mt 6267  811 L
6231  775 mt 6231  847 L
6152 1450 mt 6224 1450 L
6188 1414 mt 6188 1486 L
2928 1574 mt 3000 1574 L
2964 1538 mt 2964 1610 L
6010  912 mt 6082  912 L
6046  876 mt 6046  948 L
 913  555 mt  985  555 L
 949  519 mt  949  591 L
 945  934 mt 1017  934 L
 981  898 mt  981  970 L
5665 1947 mt 5737 1947 L
5701 1911 mt 5701 1983 L
1886  870 mt 1958  870 L
1922  834 mt 1922  906 L
 979 2130 mt 1051 2130 L
1015 2094 mt 1015 2166 L
4726 2523 mt 4798 2523 L
4762 2487 mt 4762 2559 L
4999  522 mt 5071  522 L
5035  486 mt 5035  558 L
2808 2520 mt 2880 2520 L
2844 2484 mt 2844 2556 L
1054 1740 mt 1126 1740 L
1090 1704 mt 1090 1776 L
5087  649 mt 5159  649 L
5123  613 mt 5123  685 L
5000  452 mt 5072  452 L
5036  416 mt 5036  488 L
1641  582 mt 1713  582 L
1677  546 mt 1677  618 L
5412 2743 mt 5484 2743 L
5448 2707 mt 5448 2779 L
5991  444 mt 6063  444 L
6027  408 mt 6027  480 L
5613 1101 mt 5685 1101 L
5649 1065 mt 5649 1137 L
5143 4196 mt 5215 4196 L
5179 4160 mt 5179 4232 L
2822 3339 mt 2894 3339 L
2858 3303 mt 2858 3375 L
4514 1223 mt 4586 1223 L
4550 1187 mt 4550 1259 L
2438  557 mt 2510  557 L
2474  521 mt 2474  593 L
4790 1557 mt 4862 1557 L
4826 1521 mt 4826 1593 L
3602 3405 mt 3674 3405 L
3638 3369 mt 3638 3441 L
6206 1862 mt 6278 1862 L
6242 1826 mt 6242 1898 L
 964 1030 mt 1036 1030 L
1000  994 mt 1000 1066 L
1700 1147 mt 1772 1147 L
1736 1111 mt 1736 1183 L
5478 2599 mt 5550 2599 L
5514 2563 mt 5514 2635 L
1006 1900 mt 1078 1900 L
1042 1864 mt 1042 1936 L
4078 1916 mt 4150 1916 L
4114 1880 mt 4114 1952 L
2785 3146 mt 2857 3146 L
2821 3110 mt 2821 3182 L
2553 1272 mt 2625 1272 L
2589 1236 mt 2589 1308 L
6060 2050 mt 6132 2050 L
6096 2014 mt 6096 2086 L
 904  617 mt  976  617 L
 940  581 mt  940  653 L
5940 1123 mt 6012 1123 L
5976 1087 mt 5976 1159 L
3095 4353 mt 3167 4353 L
3131 4317 mt 3131 4389 L
1458  881 mt 1530  881 L
1494  845 mt 1494  917 L
4234 4469 mt 4306 4469 L
4270 4433 mt 4270 4505 L
2909  565 mt 2981  565 L
2945  529 mt 2945  601 L
1371 2246 mt 1443 2246 L
1407 2210 mt 1407 2282 L
5799 1917 mt 5871 1917 L
5835 1881 mt 5835 1953 L
1693  989 mt 1765  989 L
1729  953 mt 1729 1025 L
3373  841 mt 3445  841 L
3409  805 mt 3409  877 L
3566  580 mt 3638  580 L
3602  544 mt 3602  616 L
2336  428 mt 2408  428 L
2372  392 mt 2372  464 L
3915  600 mt 3987  600 L
3951  564 mt 3951  636 L
6068 3031 mt 6140 3031 L
6104 2995 mt 6104 3067 L
3034 1815 mt 3106 1815 L
3070 1779 mt 3070 1851 L
3431  445 mt 3503  445 L
3467  409 mt 3467  481 L
 967 1145 mt 1039 1145 L
1003 1109 mt 1003 1181 L
2845 4612 mt 2917 4612 L
2881 4576 mt 2881 4648 L
2467 3920 mt 2539 3920 L
2503 3884 mt 2503 3956 L
4447  449 mt 4519  449 L
4483  413 mt 4483  485 L
5495  714 mt 5567  714 L
5531  678 mt 5531  750 L
1165  697 mt 1237  697 L
1201  661 mt 1201  733 L
 970  561 mt 1042  561 L
1006  525 mt 1006  597 L
3609 4497 mt 3681 4497 L
3645 4461 mt 3645 4533 L
1937 2161 mt 2009 2161 L
1973 2125 mt 1973 2197 L
5360  425 mt 5432  425 L
5396  389 mt 5396  461 L
5072  626 mt 5144  626 L
5108  590 mt 5108  662 L
2191 4511 mt 2263 4511 L
2227 4475 mt 2227 4547 L
1914  466 mt 1986  466 L
1950  430 mt 1950  502 L
5397 1969 mt 5469 1969 L
5433 1933 mt 5433 2005 L
5695 4399 mt 5767 4399 L
5731 4363 mt 5731 4435 L
5533  430 mt 5605  430 L
5569  394 mt 5569  466 L
 869  477 mt  941  477 L
 905  441 mt  905  513 L
5431  573 mt 5503  573 L
5467  537 mt 5467  609 L
1006  823 mt 1078  823 L
1042  787 mt 1042  859 L
1763 1669 mt 1835 1669 L
1799 1633 mt 1799 1705 L
1419 2450 mt 1491 2450 L
1455 2414 mt 1455 2486 L
6139 1763 mt 6211 1763 L
6175 1727 mt 6175 1799 L
3423 1527 mt 3495 1527 L
3459 1491 mt 3459 1563 L
1314  508 mt 1386  508 L
1350  472 mt 1350  544 L
1103 4596 mt 1175 4596 L
1139 4560 mt 1139 4632 L
5633  479 mt 5705  479 L
5669  443 mt 5669  515 L
5969  757 mt 6041  757 L
6005  721 mt 6005  793 L
6110 1547 mt 6182 1547 L
6146 1511 mt 6146 1583 L
5364 4360 mt 5436 4360 L
5400 4324 mt 5400 4396 L
 921 4612 mt  993 4612 L
 957 4576 mt  957 4648 L
1429 2533 mt 1501 2533 L
1465 2497 mt 1465 2569 L
5871  589 mt 5943  589 L
5907  553 mt 5907  625 L
4669  588 mt 4741  588 L
4705  552 mt 4705  624 L
5757  820 mt 5829  820 L
5793  784 mt 5793  856 L
2691 2269 mt 2763 2269 L
2727 2233 mt 2727 2305 L
3920 1448 mt 3992 1448 L
3956 1412 mt 3956 1484 L
5821 3726 mt 5893 3726 L
5857 3690 mt 5857 3762 L
4302 2309 mt 4374 2309 L
4338 2273 mt 4338 2345 L
1406 4287 mt 1478 4287 L
1442 4251 mt 1442 4323 L
5267  607 mt 5339  607 L
5303  571 mt 5303  643 L
 960 4482 mt 1032 4482 L
 996 4446 mt  996 4518 L
2572 3412 mt 2644 3412 L
2608 3376 mt 2608 3448 L
5006  491 mt 5078  491 L
5042  455 mt 5042  527 L
6002 1074 mt 6074 1074 L
6038 1038 mt 6038 1110 L
1777 2671 mt 1849 2671 L
1813 2635 mt 1813 2707 L
2358 1194 mt 2430 1194 L
2394 1158 mt 2394 1230 L
4002  995 mt 4074  995 L
4038  959 mt 4038 1031 L
5150 1048 mt 5222 1048 L
5186 1012 mt 5186 1084 L
1642  794 mt 1714  794 L
1678  758 mt 1678  830 L
1447  704 mt 1519  704 L
1483  668 mt 1483  740 L
2172 4374 mt 2244 4374 L
2208 4338 mt 2208 4410 L
6178 1395 mt 6250 1395 L
6214 1359 mt 6214 1431 L
1322 1343 mt 1394 1343 L
1358 1307 mt 1358 1379 L
3170 2222 mt 3242 2222 L
3206 2186 mt 3206 2258 L
5334  821 mt 5406  821 L
5370  785 mt 5370  857 L
 981 4545 mt 1053 4545 L
1017 4509 mt 1017 4581 L
5958  853 mt 6030  853 L
5994  817 mt 5994  889 L
5746 3752 mt 5818 3752 L
5782 3716 mt 5782 3788 L
5693 1939 mt 5765 1939 L
5729 1903 mt 5729 1975 L
3513 3538 mt 3585 3538 L
3549 3502 mt 3549 3574 L
1438 1511 mt 1510 1511 L
1474 1475 mt 1474 1547 L
4250 4548 mt 4322 4548 L
4286 4512 mt 4286 4584 L
 889 4505 mt  961 4505 L
 925 4469 mt  925 4541 L
5889 1040 mt 5961 1040 L
5925 1004 mt 5925 1076 L
4087 2520 mt 4159 2520 L
4123 2484 mt 4123 2556 L
 864  722 mt  936  722 L
 900  686 mt  900  758 L
2177 1099 mt 2249 1099 L
2213 1063 mt 2213 1135 L
5047  499 mt 5119  499 L
5083  463 mt 5083  535 L
3076 1318 mt 3148 1318 L
3112 1282 mt 3112 1354 L
4730  934 mt 4802  934 L
4766  898 mt 4766  970 L
2343  526 mt 2415  526 L
2379  490 mt 2379  562 L
6112 1707 mt 6184 1707 L
6148 1671 mt 6148 1743 L
4726 2327 mt 4798 2327 L
4762 2291 mt 4762 2363 L
 876  467 mt  948  467 L
 912  431 mt  912  503 L
4207  573 mt 4279  573 L
4243  537 mt 4243  609 L
4085  484 mt 4157  484 L
4121  448 mt 4121  520 L
2961  853 mt 3033  853 L
2997  817 mt 2997  889 L
2530 4406 mt 2602 4406 L
2566 4370 mt 2566 4442 L
 863  682 mt  935  682 L
 899  646 mt  899  718 L
 866 1706 mt  938 1706 L
 902 1670 mt  902 1742 L
4268  685 mt 4340  685 L
4304  649 mt 4304  721 L
1207  545 mt 1279  545 L
1243  509 mt 1243  581 L
2869 4470 mt 2941 4470 L
2905 4434 mt 2905 4506 L
3208 3397 mt 3280 3397 L
3244 3361 mt 3244 3433 L
5510 2131 mt 5582 2131 L
5546 2095 mt 5546 2167 L
6148 2216 mt 6220 2216 L
6184 2180 mt 6184 2252 L
5129 3241 mt 5201 3241 L
5165 3205 mt 5165 3277 L
 872 4574 mt  944 4574 L
 908 4538 mt  908 4610 L
1404 1148 mt 1476 1148 L
1440 1112 mt 1440 1184 L
2576 2209 mt 2648 2209 L
2612 2173 mt 2612 2245 L
1046  529 mt 1118  529 L
1082  493 mt 1082  565 L
2114  833 mt 2186  833 L
2150  797 mt 2150  869 L
4749 3831 mt 4821 3831 L
4785 3795 mt 4785 3867 L
6112 1578 mt 6184 1578 L
6148 1542 mt 6148 1614 L
3733  417 mt 3805  417 L
3769  381 mt 3769  453 L
5236  594 mt 5308  594 L
5272  558 mt 5272  630 L
2254  586 mt 2326  586 L
2290  550 mt 2290  622 L
 923  519 mt  995  519 L
 959  483 mt  959  555 L
4866  873 mt 4938  873 L
4902  837 mt 4902  909 L
3199  901 mt 3271  901 L
3235  865 mt 3235  937 L
1107 2590 mt 1179 2590 L
1143 2554 mt 1143 2626 L
5024 1206 mt 5096 1206 L
5060 1170 mt 5060 1242 L
4950  862 mt 5022  862 L
4986  826 mt 4986  898 L
2035 2400 mt 2107 2400 L
2071 2364 mt 2071 2436 L
1166  983 mt 1238  983 L
1202  947 mt 1202 1019 L
4135  502 mt 4207  502 L
4171  466 mt 4171  538 L
5791 2213 mt 5863 2213 L
5827 2177 mt 5827 2249 L
5106 3867 mt 5178 3867 L
5142 3831 mt 5142 3903 L
1018  751 mt 1090  751 L
1054  715 mt 1054  787 L
 864 3470 mt  936 3470 L
 900 3434 mt  900 3506 L
4786  739 mt 4858  739 L
4822  703 mt 4822  775 L
1326 3133 mt 1398 3133 L
1362 3097 mt 1362 3169 L
1785 1376 mt 1857 1376 L
1821 1340 mt 1821 1412 L
4556 2412 mt 4628 2412 L
4592 2376 mt 4592 2448 L
5758  525 mt 5830  525 L
5794  489 mt 5794  561 L
4593 3509 mt 4665 3509 L
4629 3473 mt 4629 3545 L
2581 4496 mt 2653 4496 L
2617 4460 mt 2617 4532 L
 982 3659 mt 1054 3659 L
1018 3623 mt 1018 3695 L
6059  524 mt 6131  524 L
6095  488 mt 6095  560 L
6208  779 mt 6280  779 L
6244  743 mt 6244  815 L
4260  486 mt 4332  486 L
4296  450 mt 4296  522 L
4626  496 mt 4698  496 L
4662  460 mt 4662  532 L
1123 1877 mt 1195 1877 L
1159 1841 mt 1159 1913 L
3264  493 mt 3336  493 L
3300  457 mt 3300  529 L
4111 1497 mt 4183 1497 L
4147 1461 mt 4147 1533 L
6151 2298 mt 6223 2298 L
6187 2262 mt 6187 2334 L
6144  553 mt 6216  553 L
6180  517 mt 6180  589 L
5982  490 mt 6054  490 L
6018  454 mt 6018  526 L
5246  830 mt 5318  830 L
5282  794 mt 5282  866 L
5661 2577 mt 5733 2577 L
5697 2541 mt 5697 2613 L
3906  569 mt 3978  569 L
3942  533 mt 3942  605 L
5824 2088 mt 5896 2088 L
5860 2052 mt 5860 2124 L
6213 2370 mt 6285 2370 L
6249 2334 mt 6249 2406 L
5266 4166 mt 5338 4166 L
5302 4130 mt 5302 4202 L
6186  415 mt 6258  415 L
6222  379 mt 6222  451 L
1729 4425 mt 1801 4425 L
1765 4389 mt 1765 4461 L
1028  459 mt 1100  459 L
1064  423 mt 1064  495 L
6048 1972 mt 6120 1972 L
6084 1936 mt 6084 2008 L
 863  523 mt  935  523 L
 899  487 mt  899  559 L
6150 1621 mt 6222 1621 L
6186 1585 mt 6186 1657 L
5633  489 mt 5705  489 L
5669  453 mt 5669  525 L
2584 4014 mt 2656 4014 L
2620 3978 mt 2620 4050 L
5261  420 mt 5333  420 L
5297  384 mt 5297  456 L
4404 3624 mt 4476 3624 L
4440 3588 mt 4440 3660 L
6206 4610 mt 6278 4610 L
6242 4574 mt 6242 4646 L
5390 2221 mt 5462 2221 L
5426 2185 mt 5426 2257 L
 863 2614 mt  935 2614 L
 899 2578 mt  899 2650 L
2446  624 mt 2518  624 L
2482  588 mt 2482  660 L
5890 1481 mt 5962 1481 L
5926 1445 mt 5926 1517 L
6166 4582 mt 6238 4582 L
6202 4546 mt 6202 4618 L
6154 2961 mt 6226 2961 L
6190 2925 mt 6190 2997 L
5402 1057 mt 5474 1057 L
5438 1021 mt 5438 1093 L
1130  808 mt 1202  808 L
1166  772 mt 1166  844 L
2824  745 mt 2896  745 L
2860  709 mt 2860  781 L
5595  956 mt 5667  956 L
5631  920 mt 5631  992 L
1749 1974 mt 1821 1974 L
1785 1938 mt 1785 2010 L
 948 4607 mt 1020 4607 L
 984 4571 mt  984 4643 L
6195 2704 mt 6267 2704 L
6231 2668 mt 6231 2740 L
6191 2890 mt 6263 2890 L
6227 2854 mt 6227 2926 L
 924 1224 mt  996 1224 L
 960 1188 mt  960 1260 L
4266  417 mt 4338  417 L
4302  381 mt 4302  453 L
6215 1388 mt 6287 1388 L
6251 1352 mt 6251 1424 L
6220 3804 mt 6292 3804 L
6256 3768 mt 6256 3840 L
3276 2914 mt 3348 2914 L
3312 2878 mt 3312 2950 L
4054  612 mt 4126  612 L
4090  576 mt 4090  648 L
1880  728 mt 1952  728 L
1916  692 mt 1916  764 L
3734 3562 mt 3806 3562 L
3770 3526 mt 3770 3598 L
6103 2230 mt 6175 2230 L
6139 2194 mt 6139 2266 L
6050  952 mt 6122  952 L
6086  916 mt 6086  988 L
6200  427 mt 6272  427 L
6236  391 mt 6236  463 L
6098 4613 mt 6170 4613 L
6134 4577 mt 6134 4649 L
5978  852 mt 6050  852 L
6014  816 mt 6014  888 L
4372 1816 mt 4444 1816 L
4408 1780 mt 4408 1852 L
2961  615 mt 3033  615 L
2997  579 mt 2997  651 L
 977  416 mt 1049  416 L
1013  380 mt 1013  452 L
1113 4139 mt 1185 4139 L
1149 4103 mt 1149 4175 L
4879 4576 mt 4951 4576 L
4915 4540 mt 4915 4612 L
2203  875 mt 2275  875 L
2239  839 mt 2239  911 L
3330 1157 mt 3402 1157 L
3366 1121 mt 3366 1193 L
6050 2624 mt 6122 2624 L
6086 2588 mt 6086 2660 L
1479 1907 mt 1551 1907 L
1515 1871 mt 1515 1943 L
1655 4571 mt 1727 4571 L
1691 4535 mt 1691 4607 L
6013  572 mt 6085  572 L
6049  536 mt 6049  608 L
6102 3227 mt 6174 3227 L
6138 3191 mt 6138 3263 L
6220  734 mt 6292  734 L
6256  698 mt 6256  770 L
4734 1272 mt 4806 1272 L
4770 1236 mt 4770 1308 L
4170 3991 mt 4242 3991 L
4206 3955 mt 4206 4027 L
5495  679 mt 5567  679 L
5531  643 mt 5531  715 L
 908 1268 mt  980 1268 L
 944 1232 mt  944 1304 L
 863 4151 mt  935 4151 L
 899 4115 mt  899 4187 L
6054  490 mt 6126  490 L
6090  454 mt 6090  526 L
5800 4050 mt 5872 4050 L
5836 4014 mt 5836 4086 L
4365 4041 mt 4437 4041 L
4401 4005 mt 4401 4077 L
3173  612 mt 3245  612 L
3209  576 mt 3209  648 L
 939  449 mt 1011  449 L
 975  413 mt  975  485 L
5984 1947 mt 6056 1947 L
6020 1911 mt 6020 1983 L
6154  525 mt 6226  525 L
6190  489 mt 6190  561 L
5248 4401 mt 5320 4401 L
5284 4365 mt 5284 4437 L
5759 4223 mt 5831 4223 L
5795 4187 mt 5795 4259 L
4181  476 mt 4253  476 L
4217  440 mt 4217  512 L
5571 1576 mt 5643 1576 L
5607 1540 mt 5607 1612 L
5967 4616 mt 6039 4616 L
6003 4580 mt 6003 4652 L
5961 2211 mt 6033 2211 L
5997 2175 mt 5997 2247 L
3624  670 mt 3696  670 L
3660  634 mt 3660  706 L
6166 1461 mt 6238 1461 L
6202 1425 mt 6202 1497 L
5504  427 mt 5576  427 L
5540  391 mt 5540  463 L
6124 2339 mt 6196 2339 L
6160 2303 mt 6160 2375 L
1378 2084 mt 1450 2084 L
1414 2048 mt 1414 2120 L
 871 3576 mt  943 3576 L
 907 3540 mt  907 3612 L
5842 1091 mt 5914 1091 L
5878 1055 mt 5878 1127 L
3520 1645 mt 3592 1645 L
3556 1609 mt 3556 1681 L
4960  481 mt 5032  481 L
4996  445 mt 4996  517 L
5641  458 mt 5713  458 L
5677  422 mt 5677  494 L
4895 2015 mt 4967 2015 L
4931 1979 mt 4931 2051 L
1249 4194 mt 1321 4194 L
1285 4158 mt 1285 4230 L
5827 1798 mt 5899 1798 L
5863 1762 mt 5863 1834 L
6043 1381 mt 6115 1381 L
6079 1345 mt 6079 1417 L
5099  604 mt 5171  604 L
5135  568 mt 5135  640 L
5770 1114 mt 5842 1114 L
5806 1078 mt 5806 1150 L
 910 4110 mt  982 4110 L
 946 4074 mt  946 4146 L
4117  941 mt 4189  941 L
4153  905 mt 4153  977 L
6225 3972 mt 6297 3972 L
6261 3936 mt 6261 4008 L
4644 4471 mt 4716 4471 L
4680 4435 mt 4680 4507 L
2947  415 mt 3019  415 L
2983  379 mt 2983  451 L
6146 4556 mt 6218 4556 L
6182 4520 mt 6182 4592 L
3714  752 mt 3786  752 L
3750  716 mt 3750  788 L
6220  927 mt 6292  927 L
6256  891 mt 6256  963 L
3445 4006 mt 3517 4006 L
3481 3970 mt 3481 4042 L
6216 2446 mt 6288 2446 L
6252 2410 mt 6252 2482 L
5101 4299 mt 5173 4299 L
5137 4263 mt 5137 4335 L
 863 1758 mt  935 1758 L
 899 1722 mt  899 1794 L
6221 3036 mt 6293 3036 L
6257 3000 mt 6257 3072 L
6166  719 mt 6238  719 L
6202  683 mt 6202  755 L
6127 1404 mt 6199 1404 L
6163 1368 mt 6163 1440 L
1787 4014 mt 1859 4014 L
1823 3978 mt 1823 4050 L
5676 3176 mt 5748 3176 L
5712 3140 mt 5712 3212 L
 869  668 mt  941  668 L
 905  632 mt  905  704 L
5066 4567 mt 5138 4567 L
5102 4531 mt 5102 4603 L
5796 4092 mt 5868 4092 L
5832 4056 mt 5832 4128 L
2836 2164 mt 2908 2164 L
2872 2128 mt 2872 2200 L
5899 3387 mt 5971 3387 L
5935 3351 mt 5935 3423 L
3154 2803 mt 3226 2803 L
3190 2767 mt 3190 2839 L
6223 1346 mt 6295 1346 L
6259 1310 mt 6259 1382 L
6018 1945 mt 6090 1945 L
6054 1909 mt 6054 1981 L
1583 1718 mt 1655 1718 L
1619 1682 mt 1619 1754 L
5642  415 mt 5714  415 L
5678  379 mt 5678  451 L
6201 1226 mt 6273 1226 L
6237 1190 mt 6237 1262 L
2397 2617 mt 2469 2617 L
2433 2581 mt 2433 2653 L
1828 1299 mt 1900 1299 L
1864 1263 mt 1864 1335 L
6160 1280 mt 6232 1280 L
6196 1244 mt 6196 1316 L
6187  506 mt 6259  506 L
6223  470 mt 6223  542 L
5980 1559 mt 6052 1559 L
6016 1523 mt 6016 1595 L
1399 4615 mt 1471 4615 L
1435 4579 mt 1435 4651 L
1565 3669 mt 1637 3669 L
1601 3633 mt 1601 3705 L
1895 4491 mt 1967 4491 L
1931 4455 mt 1931 4527 L
 954 1124 mt 1026 1124 L
 990 1088 mt  990 1160 L
6065  603 mt 6137  603 L
6101  567 mt 6101  639 L
2764 4130 mt 2836 4130 L
2800 4094 mt 2800 4166 L
6180 1557 mt 6252 1557 L
6216 1521 mt 6216 1593 L
1314 3198 mt 1386 3198 L
1350 3162 mt 1350 3234 L
4866 1553 mt 4938 1553 L
4902 1517 mt 4902 1589 L
5045 3641 mt 5117 3641 L
5081 3605 mt 5081 3677 L
1564 1686 mt 1636 1686 L
1600 1650 mt 1600 1722 L
5752  461 mt 5824  461 L
5788  425 mt 5788  497 L
5778 3424 mt 5850 3424 L
5814 3388 mt 5814 3460 L
6185 1226 mt 6257 1226 L
6221 1190 mt 6221 1262 L
 890  441 mt  962  441 L
 926  405 mt  926  477 L
6208  677 mt 6280  677 L
6244  641 mt 6244  713 L
6143 4042 mt 6215 4042 L
6179 4006 mt 6179 4078 L
 864  769 mt  936  769 L
 900  733 mt  900  805 L
5848  508 mt 5920  508 L
5884  472 mt 5884  544 L
1019 2717 mt 1091 2717 L
1055 2681 mt 1055 2753 L
1501 4547 mt 1573 4547 L
1537 4511 mt 1537 4583 L
1846 3213 mt 1918 3213 L
1882 3177 mt 1882 3249 L
1497  764 mt 1569  764 L
1533  728 mt 1533  800 L
 863 4602 mt  935 4602 L
 899 4566 mt  899 4638 L
1432  955 mt 1504  955 L
1468  919 mt 1468  991 L
4275 4159 mt 4347 4159 L
4311 4123 mt 4311 4195 L
2241 3383 mt 2313 3383 L
2277 3347 mt 2277 3419 L
6202 2064 mt 6274 2064 L
6238 2028 mt 6238 2100 L
3139  499 mt 3211  499 L
3175  463 mt 3175  535 L
5780  432 mt 5852  432 L
5816  396 mt 5816  468 L
6199 3973 mt 6271 3973 L
6235 3937 mt 6235 4009 L
5916 4184 mt 5988 4184 L
5952 4148 mt 5952 4220 L
2386 2610 mt 2458 2610 L
2422 2574 mt 2422 2646 L
2932 2315 mt 3004 2315 L
2968 2279 mt 2968 2351 L
4908 4611 mt 4980 4611 L
4944 4575 mt 4944 4647 L
3802 1096 mt 3874 1096 L
3838 1060 mt 3838 1132 L
5565  415 mt 5637  415 L
5601  379 mt 5601  451 L
4585 2438 mt 4657 2438 L
4621 2402 mt 4621 2474 L
 881 2923 mt  953 2923 L
 917 2887 mt  917 2959 L
4701 3293 mt 4773 3293 L
4737 3257 mt 4737 3329 L
2450 3887 mt 2522 3887 L
2486 3851 mt 2486 3923 L
 863 4564 mt  935 4564 L
 899 4528 mt  899 4600 L
6165 4589 mt 6237 4589 L
6201 4553 mt 6201 4625 L
6204  834 mt 6276  834 L
6240  798 mt 6240  870 L
6027 4277 mt 6099 4277 L
6063 4241 mt 6063 4313 L
6093 2406 mt 6165 2406 L
6129 2370 mt 6129 2442 L
4889 1791 mt 4961 1791 L
4925 1755 mt 4925 1827 L
5625 3042 mt 5697 3042 L
5661 3006 mt 5661 3078 L
2383 4125 mt 2455 4125 L
2419 4089 mt 2419 4161 L
 950  841 mt 1022  841 L
 986  805 mt  986  877 L
4125 2419 mt 4197 2419 L
4161 2383 mt 4161 2455 L
5470 3332 mt 5542 3332 L
5506 3296 mt 5506 3368 L
3007 2162 mt 3079 2162 L
3043 2126 mt 3043 2198 L
2971 3940 mt 3043 3940 L
3007 3904 mt 3007 3976 L
6195 4550 mt 6267 4550 L
6231 4514 mt 6231 4586 L
 917  795 mt  989  795 L
 953  759 mt  953  831 L
6128  780 mt 6200  780 L
6164  744 mt 6164  816 L
6032  737 mt 6104  737 L
6068  701 mt 6068  773 L
3460 1208 mt 3532 1208 L
3496 1172 mt 3496 1244 L
5821 3775 mt 5893 3775 L
5857 3739 mt 5857 3811 L
3469 4536 mt 3541 4536 L
3505 4500 mt 3505 4572 L
 969 2455 mt 1041 2455 L
1005 2419 mt 1005 2491 L
1844 3469 mt 1916 3469 L
1880 3433 mt 1880 3505 L
5430  444 mt 5502  444 L
5466  408 mt 5466  480 L
4837 4068 mt 4909 4068 L
4873 4032 mt 4873 4104 L
3550 2548 mt 3622 2548 L
3586 2512 mt 3586 2584 L
5197 1953 mt 5269 1953 L
5233 1917 mt 5233 1989 L
6224  665 mt 6296  665 L
6260  629 mt 6260  701 L
5437  609 mt 5509  609 L
5473  573 mt 5473  645 L
2060  443 mt 2132  443 L
2096  407 mt 2096  479 L
2789 3716 mt 2861 3716 L
2825 3680 mt 2825 3752 L
5495  476 mt 5567  476 L
5531  440 mt 5531  512 L
5813 2883 mt 5885 2883 L
5849 2847 mt 5849 2919 L
6090  538 mt 6162  538 L
6126  502 mt 6126  574 L
gs 899 414 5363 4203 rc
gr

0 sg
2795 5104 mt 
(\(F,DCTb,iMLP\)) s
 422 3343 mt  -90 rotate
(\(S,LFCC,GMM\)) s
90 rotate
2975  223 mt 
(Corr = 0.04) s

end %%Color Dict

eplot
%%EndObject

epage
end

showpage

%%Trailer
%%EOF
