%!PS-Adobe-3.0 EPSF-3.0
%%Creator: MATLAB, The Mathworks, Inc. Version 7.7.0.471 (R2008b). Operating System: Microsoft Windows XP.
%%Title: Pictures\main_zoo_mvar_analysis_data_BMI_xcorr_bmi_p1_k1_2_4.eps
%%CreationDate: 10/26/2009  05:43:55
%%DocumentNeededFonts: Helvetica
%%DocumentProcessColors: Cyan Magenta Yellow Black
%%LanguageLevel: 2
%%Pages: 1
%%BoundingBox:    32   180   549   616
%%EndComments

%%BeginProlog
% MathWorks dictionary
/MathWorks 160 dict begin
% definition operators
/bdef {bind def} bind def
/ldef {load def} bind def
/xdef {exch def} bdef
/xstore {exch store} bdef
% operator abbreviations
/c  /clip ldef
/cc /concat ldef
/cp /closepath ldef
/gr /grestore ldef
/gs /gsave ldef
/mt /moveto ldef
/np /newpath ldef
/cm /currentmatrix ldef
/sm /setmatrix ldef
/rm /rmoveto ldef
/rl /rlineto ldef
/s {show newpath} bdef
/sc {setcmykcolor} bdef
/sr /setrgbcolor ldef
/sg /setgray ldef
/w /setlinewidth ldef
/j /setlinejoin ldef
/cap /setlinecap ldef
/rc {rectclip} bdef
/rf {rectfill} bdef
% page state control
/pgsv () def
/bpage {/pgsv save def} bdef
/epage {pgsv restore} bdef
/bplot /gsave ldef
/eplot {stroke grestore} bdef
% orientation switch
/portraitMode 0 def /landscapeMode 1 def /rotateMode 2 def
% coordinate system mappings
/dpi2point 0 def
% font control
/FontSize 0 def
/FMS {/FontSize xstore findfont [FontSize 0 0 FontSize neg 0 0]
  makefont setfont} bdef
/ISOLatin1Encoding where {pop /WindowsLatin1Encoding 256 array bdef
ISOLatin1Encoding WindowsLatin1Encoding copy pop
/.notdef/.notdef/quotesinglbase/florin/quotedblbase/ellipsis/dagger
/daggerdbl/circumflex/perthousand/Scaron/guilsinglleft/OE/.notdef/.notdef
/.notdef/.notdef/quoteleft/quoteright/quotedblleft/quotedblright/bullet
/endash/emdash/tilde/trademark/scaron/guilsinglright/oe/.notdef/.notdef
/Ydieresis WindowsLatin1Encoding 128 32 getinterval astore pop}
{/WindowsLatin1Encoding StandardEncoding bdef} ifelse
/reencode {exch dup where {pop load} {pop StandardEncoding} ifelse
  exch dup 3 1 roll findfont dup length dict begin
  { 1 index /FID ne {def}{pop pop} ifelse } forall
  /Encoding exch def currentdict end definefont pop} bdef
/isroman {findfont /CharStrings get /Agrave known} bdef
/FMSR {3 1 roll 1 index dup isroman {reencode} {pop pop} ifelse
  exch FMS} bdef
/csm {1 dpi2point div -1 dpi2point div scale neg translate
 dup landscapeMode eq {pop -90 rotate}
  {rotateMode eq {90 rotate} if} ifelse} bdef
% line types: solid, dotted, dashed, dotdash
/SO { [] 0 setdash } bdef
/DO { [.5 dpi2point mul 4 dpi2point mul] 0 setdash } bdef
/DA { [6 dpi2point mul] 0 setdash } bdef
/DD { [.5 dpi2point mul 4 dpi2point mul 6 dpi2point mul 4
  dpi2point mul] 0 setdash } bdef
% macros for lines and objects
/L {lineto stroke} bdef
/MP {3 1 roll moveto 1 sub {rlineto} repeat} bdef
/AP {{rlineto} repeat} bdef
/PDlw -1 def
/W {/PDlw currentlinewidth def setlinewidth} def
/PP {closepath eofill} bdef
/DP {closepath stroke} bdef
/MR {4 -2 roll moveto dup  0 exch rlineto exch 0 rlineto
  neg 0 exch rlineto closepath} bdef
/FR {MR stroke} bdef
/PR {MR fill} bdef
/L1i {{currentfile picstr readhexstring pop} image} bdef
/tMatrix matrix def
/MakeOval {newpath tMatrix currentmatrix pop translate scale
0 0 1 0 360 arc tMatrix setmatrix} bdef
/FO {MakeOval stroke} bdef
/PO {MakeOval fill} bdef
/PD {currentlinewidth 2 div 0 360 arc fill
   PDlw -1 eq not {PDlw w /PDlw -1 def} if} def
/FA {newpath tMatrix currentmatrix pop translate scale
  0 0 1 5 -2 roll arc tMatrix setmatrix stroke} bdef
/PA {newpath tMatrix currentmatrix pop	translate 0 0 moveto scale
  0 0 1 5 -2 roll arc closepath tMatrix setmatrix fill} bdef
/FAn {newpath tMatrix currentmatrix pop translate scale
  0 0 1 5 -2 roll arcn tMatrix setmatrix stroke} bdef
/PAn {newpath tMatrix currentmatrix pop translate 0 0 moveto scale
  0 0 1 5 -2 roll arcn closepath tMatrix setmatrix fill} bdef
/vradius 0 def /hradius 0 def /lry 0 def
/lrx 0 def /uly 0 def /ulx 0 def /rad 0 def
/MRR {/vradius xdef /hradius xdef /lry xdef /lrx xdef /uly xdef
  /ulx xdef newpath tMatrix currentmatrix pop ulx hradius add uly
  vradius add translate hradius vradius scale 0 0 1 180 270 arc 
  tMatrix setmatrix lrx hradius sub uly vradius add translate
  hradius vradius scale 0 0 1 270 360 arc tMatrix setmatrix
  lrx hradius sub lry vradius sub translate hradius vradius scale
  0 0 1 0 90 arc tMatrix setmatrix ulx hradius add lry vradius sub
  translate hradius vradius scale 0 0 1 90 180 arc tMatrix setmatrix
  closepath} bdef
/FRR {MRR stroke } bdef
/PRR {MRR fill } bdef
/MlrRR {/lry xdef /lrx xdef /uly xdef /ulx xdef /rad lry uly sub 2 div def
  newpath tMatrix currentmatrix pop ulx rad add uly rad add translate
  rad rad scale 0 0 1 90 270 arc tMatrix setmatrix lrx rad sub lry rad
  sub translate rad rad scale 0 0 1 270 90 arc tMatrix setmatrix
  closepath} bdef
/FlrRR {MlrRR stroke } bdef
/PlrRR {MlrRR fill } bdef
/MtbRR {/lry xdef /lrx xdef /uly xdef /ulx xdef /rad lrx ulx sub 2 div def
  newpath tMatrix currentmatrix pop ulx rad add uly rad add translate
  rad rad scale 0 0 1 180 360 arc tMatrix setmatrix lrx rad sub lry rad
  sub translate rad rad scale 0 0 1 0 180 arc tMatrix setmatrix
  closepath} bdef
/FtbRR {MtbRR stroke } bdef
/PtbRR {MtbRR fill } bdef
/stri 6 array def /dtri 6 array def
/smat 6 array def /dmat 6 array def
/tmat1 6 array def /tmat2 6 array def /dif 3 array def
/asub {/ind2 exch def /ind1 exch def dup dup
  ind1 get exch ind2 get sub exch } bdef
/tri_to_matrix {
  2 0 asub 3 1 asub 4 0 asub 5 1 asub
  dup 0 get exch 1 get 7 -1 roll astore } bdef
/compute_transform {
  dmat dtri tri_to_matrix tmat1 invertmatrix 
  smat stri tri_to_matrix tmat2 concatmatrix } bdef
/ds {stri astore pop} bdef
/dt {dtri astore pop} bdef
/db {2 copy /cols xdef /rows xdef mul dup 3 mul string
  currentfile 
  3 index 0 eq {/ASCIIHexDecode filter}
  {/ASCII85Decode filter 3 index 2 eq {/RunLengthDecode filter} if }
  ifelse exch readstring pop
  dup 0 3 index getinterval /rbmap xdef
  dup 2 index dup getinterval /gbmap xdef
  1 index dup 2 mul exch getinterval /bbmap xdef pop pop}bdef
/it {gs np dtri aload pop moveto lineto lineto cp c
  cols rows 8 compute_transform 
  rbmap gbmap bbmap true 3 colorimage gr}bdef
/il {newpath moveto lineto stroke}bdef
currentdict end def
%%EndProlog

%%BeginSetup
MathWorks begin

0 cap

end
%%EndSetup

%%Page: 1 1
%%BeginPageSetup
%%PageBoundingBox:    32   180   549   616
MathWorks begin
bpage
%%EndPageSetup

%%BeginObject: obj1
bplot

/dpi2point 12 def
portraitMode 0216 7344 csm

  174   -48  6209  5231 rc
85 dict begin %Colortable dictionary
/c0 { 0.000000 0.000000 0.000000 sr} bdef
/c1 { 1.000000 1.000000 1.000000 sr} bdef
/c2 { 0.900000 0.000000 0.000000 sr} bdef
/c3 { 0.000000 0.820000 0.000000 sr} bdef
/c4 { 0.000000 0.000000 0.800000 sr} bdef
/c5 { 0.910000 0.820000 0.320000 sr} bdef
/c6 { 1.000000 0.260000 0.820000 sr} bdef
/c7 { 0.000000 0.820000 0.820000 sr} bdef
c0
1 j
1 sg
   0    0 6919 5187 rf
6 w
0 4202 5362 0 0 -4202 899 4616 4 MP
PP
-5362 0 0 4202 5362 0 0 -4202 899 4616 5 MP stroke
4 w
DO
SO
6 w
0 sg
 899  414 mt 6261  414 L
 899 4616 mt 6261 4616 L
6261 4616 mt 6261  414 L
 899 4616 mt  899  414 L
 899 4616 mt 6261 4616 L
 899 4616 mt  899  414 L
1648 4616 mt 1648 4562 L
1648  414 mt 1648  467 L
%%IncludeResource: font Helvetica
/Helvetica /WindowsLatin1Encoding 240 FMSR

1482 4873 mt 
(0.1) s
2398 4616 mt 2398 4562 L
2398  414 mt 2398  467 L
2232 4873 mt 
(0.2) s
3148 4616 mt 3148 4562 L
3148  414 mt 3148  467 L
2982 4873 mt 
(0.3) s
3898 4616 mt 3898 4562 L
3898  414 mt 3898  467 L
3732 4873 mt 
(0.4) s
4648 4616 mt 4648 4562 L
4648  414 mt 4648  467 L
4482 4873 mt 
(0.5) s
5398 4616 mt 5398 4562 L
5398  414 mt 5398  467 L
5232 4873 mt 
(0.6) s
6148 4616 mt 6148 4562 L
6148  414 mt 6148  467 L
5982 4873 mt 
(0.7) s
 899 3888 mt  952 3888 L
6261 3888 mt 6207 3888 L
 531 3977 mt 
(0.1) s
 899 3160 mt  952 3160 L
6261 3160 mt 6207 3160 L
 531 3249 mt 
(0.2) s
 899 2432 mt  952 2432 L
6261 2432 mt 6207 2432 L
 531 2521 mt 
(0.3) s
 899 1705 mt  952 1705 L
6261 1705 mt 6207 1705 L
 531 1794 mt 
(0.4) s
 899  977 mt  952  977 L
6261  977 mt 6207  977 L
 531 1066 mt 
(0.5) s
 899  414 mt 6261  414 L
 899 4616 mt 6261 4616 L
6261 4616 mt 6261  414 L
 899 4616 mt  899  414 L
gs 899 414 5363 4203 rc
gr

/c8 { 0.000000 0.000000 1.000000 sr} bdef
c8
1653 4560 mt 1725 4560 L
1689 4524 mt 1689 4596 L
 866 4104 mt  938 4104 L
 902 4068 mt  902 4140 L
2139 3227 mt 2211 3227 L
2175 3191 mt 2175 3263 L
2372 4279 mt 2444 4279 L
2408 4243 mt 2408 4315 L
 874 4584 mt  946 4584 L
 910 4548 mt  910 4620 L
 965 4443 mt 1037 4443 L
1001 4407 mt 1001 4479 L
1200 3753 mt 1272 3753 L
1236 3717 mt 1236 3789 L
 863 4586 mt  935 4586 L
 899 4550 mt  899 4622 L
1287 4453 mt 1359 4453 L
1323 4417 mt 1323 4489 L
5731 4139 mt 5803 4139 L
5767 4103 mt 5767 4175 L
 863 4373 mt  935 4373 L
 899 4337 mt  899 4409 L
 929 3702 mt 1001 3702 L
 965 3666 mt  965 3738 L
 900 3398 mt  972 3398 L
 936 3362 mt  936 3434 L
 920 3988 mt  992 3988 L
 956 3952 mt  956 4024 L
2061 4204 mt 2133 4204 L
2097 4168 mt 2097 4240 L
1562 3760 mt 1634 3760 L
1598 3724 mt 1598 3796 L
 929 4512 mt 1001 4512 L
 965 4476 mt  965 4548 L
1371 4577 mt 1443 4577 L
1407 4541 mt 1407 4613 L
2100 2645 mt 2172 2645 L
2136 2609 mt 2136 2681 L
2546 4377 mt 2618 4377 L
2582 4341 mt 2582 4413 L
 901 4420 mt  973 4420 L
 937 4384 mt  937 4456 L
1293 4609 mt 1365 4609 L
1329 4573 mt 1329 4645 L
1595 4281 mt 1667 4281 L
1631 4245 mt 1631 4317 L
 935 3046 mt 1007 3046 L
 971 3010 mt  971 3082 L
3781 4574 mt 3853 4574 L
3817 4538 mt 3817 4610 L
2945 4229 mt 3017 4229 L
2981 4193 mt 2981 4265 L
1031 4323 mt 1103 4323 L
1067 4287 mt 1067 4359 L
2144 4208 mt 2216 4208 L
2180 4172 mt 2180 4244 L
2202 4305 mt 2274 4305 L
2238 4269 mt 2238 4341 L
4485 4468 mt 4557 4468 L
4521 4432 mt 4521 4504 L
1041 4587 mt 1113 4587 L
1077 4551 mt 1077 4623 L
1901 4334 mt 1973 4334 L
1937 4298 mt 1937 4370 L
2021 3584 mt 2093 3584 L
2057 3548 mt 2057 3620 L
4336 4597 mt 4408 4597 L
4372 4561 mt 4372 4633 L
2649 3678 mt 2721 3678 L
2685 3642 mt 2685 3714 L
1830 4611 mt 1902 4611 L
1866 4575 mt 1866 4647 L
1769 4606 mt 1841 4606 L
1805 4570 mt 1805 4642 L
1066 4333 mt 1138 4333 L
1102 4297 mt 1102 4369 L
1068 4176 mt 1140 4176 L
1104 4140 mt 1104 4212 L
 937 3867 mt 1009 3867 L
 973 3831 mt  973 3903 L
2627 4460 mt 2699 4460 L
2663 4424 mt 2663 4496 L
1072 3099 mt 1144 3099 L
1108 3063 mt 1108 3135 L
 879 4610 mt  951 4610 L
 915 4574 mt  915 4646 L
2354 2385 mt 2426 2385 L
2390 2349 mt 2390 2421 L
6015 1554 mt 6087 1554 L
6051 1518 mt 6051 1590 L
1824 4226 mt 1896 4226 L
1860 4190 mt 1860 4262 L
1023 4607 mt 1095 4607 L
1059 4571 mt 1059 4643 L
 868 3698 mt  940 3698 L
 904 3662 mt  904 3734 L
2675 3359 mt 2747 3359 L
2711 3323 mt 2711 3395 L
 866 3325 mt  938 3325 L
 902 3289 mt  902 3361 L
1795 4609 mt 1867 4609 L
1831 4573 mt 1831 4645 L
2463 4615 mt 2535 4615 L
2499 4579 mt 2499 4651 L
 926 2098 mt  998 2098 L
 962 2062 mt  962 2134 L
 956 4540 mt 1028 4540 L
 992 4504 mt  992 4576 L
1534 4498 mt 1606 4498 L
1570 4462 mt 1570 4534 L
2409 4500 mt 2481 4500 L
2445 4464 mt 2445 4536 L
1689 4223 mt 1761 4223 L
1725 4187 mt 1725 4259 L
2385 4502 mt 2457 4502 L
2421 4466 mt 2421 4538 L
3521 3705 mt 3593 3705 L
3557 3669 mt 3557 3741 L
1010 3576 mt 1082 3576 L
1046 3540 mt 1046 3612 L
2774 4590 mt 2846 4590 L
2810 4554 mt 2810 4626 L
1703 4615 mt 1775 4615 L
1739 4579 mt 1739 4651 L
2243 3207 mt 2315 3207 L
2279 3171 mt 2279 3243 L
3083 2519 mt 3155 2519 L
3119 2483 mt 3119 2555 L
1297 3083 mt 1369 3083 L
1333 3047 mt 1333 3119 L
1329 4581 mt 1401 4581 L
1365 4545 mt 1365 4617 L
3285 2468 mt 3357 2468 L
3321 2432 mt 3321 2504 L
 864 4598 mt  936 4598 L
 900 4562 mt  900 4634 L
1502 4393 mt 1574 4393 L
1538 4357 mt 1538 4429 L
 867 4478 mt  939 4478 L
 903 4442 mt  903 4514 L
1575 4309 mt 1647 4309 L
1611 4273 mt 1611 4345 L
1731 3885 mt 1803 3885 L
1767 3849 mt 1767 3921 L
 906 4263 mt  978 4263 L
 942 4227 mt  942 4299 L
1089 4497 mt 1161 4497 L
1125 4461 mt 1125 4533 L
 863 4552 mt  935 4552 L
 899 4516 mt  899 4588 L
 864 3043 mt  936 3043 L
 900 3007 mt  900 3079 L
4778 3449 mt 4850 3449 L
4814 3413 mt 4814 3485 L
1032 4157 mt 1104 4157 L
1068 4121 mt 1068 4193 L
1114 3344 mt 1186 3344 L
1150 3308 mt 1150 3380 L
1412 4423 mt 1484 4423 L
1448 4387 mt 1448 4459 L
1705 2959 mt 1777 2959 L
1741 2923 mt 1741 2995 L
 920 2591 mt  992 2591 L
 956 2555 mt  956 2627 L
 895 4605 mt  967 4605 L
 931 4569 mt  931 4641 L
1118 4392 mt 1190 4392 L
1154 4356 mt 1154 4428 L
3818 4418 mt 3890 4418 L
3854 4382 mt 3854 4454 L
1124 4025 mt 1196 4025 L
1160 3989 mt 1160 4061 L
1442 4549 mt 1514 4549 L
1478 4513 mt 1478 4585 L
4103 2346 mt 4175 2346 L
4139 2310 mt 4139 2382 L
3933 4609 mt 4005 4609 L
3969 4573 mt 3969 4645 L
1235 4613 mt 1307 4613 L
1271 4577 mt 1271 4649 L
1589 3383 mt 1661 3383 L
1625 3347 mt 1625 3419 L
1171 2866 mt 1243 2866 L
1207 2830 mt 1207 2902 L
 864 3931 mt  936 3931 L
 900 3895 mt  900 3967 L
1444 4188 mt 1516 4188 L
1480 4152 mt 1480 4224 L
 936 4615 mt 1008 4615 L
 972 4579 mt  972 4651 L
 925 4089 mt  997 4089 L
 961 4053 mt  961 4125 L
1523 4503 mt 1595 4503 L
1559 4467 mt 1559 4539 L
1415 4494 mt 1487 4494 L
1451 4458 mt 1451 4530 L
4971 3309 mt 5043 3309 L
5007 3273 mt 5007 3345 L
2371 4576 mt 2443 4576 L
2407 4540 mt 2407 4612 L
 863 4571 mt  935 4571 L
 899 4535 mt  899 4607 L
1871 4466 mt 1943 4466 L
1907 4430 mt 1907 4502 L
1596 3672 mt 1668 3672 L
1632 3636 mt 1632 3708 L
 863 4572 mt  935 4572 L
 899 4536 mt  899 4608 L
1977 4213 mt 2049 4213 L
2013 4177 mt 2013 4249 L
1693 4081 mt 1765 4081 L
1729 4045 mt 1729 4117 L
1354 3828 mt 1426 3828 L
1390 3792 mt 1390 3864 L
3461 4520 mt 3533 4520 L
3497 4484 mt 3497 4556 L
1010 4448 mt 1082 4448 L
1046 4412 mt 1046 4484 L
 870 4588 mt  942 4588 L
 906 4552 mt  906 4624 L
5427 1721 mt 5499 1721 L
5463 1685 mt 5463 1757 L
1794 4444 mt 1866 4444 L
1830 4408 mt 1830 4480 L
1015 4594 mt 1087 4594 L
1051 4558 mt 1051 4630 L
1700 4585 mt 1772 4585 L
1736 4549 mt 1736 4621 L
2138 3808 mt 2210 3808 L
2174 3772 mt 2174 3844 L
 990 4141 mt 1062 4141 L
1026 4105 mt 1026 4177 L
 882 3959 mt  954 3959 L
 918 3923 mt  918 3995 L
 863 4306 mt  935 4306 L
 899 4270 mt  899 4342 L
1231 3151 mt 1303 3151 L
1267 3115 mt 1267 3187 L
2164 4607 mt 2236 4607 L
2200 4571 mt 2200 4643 L
1365 4554 mt 1437 4554 L
1401 4518 mt 1401 4590 L
1397 3837 mt 1469 3837 L
1433 3801 mt 1433 3873 L
 864 4593 mt  936 4593 L
 900 4557 mt  900 4629 L
 908 3045 mt  980 3045 L
 944 3009 mt  944 3081 L
1148 4384 mt 1220 4384 L
1184 4348 mt 1184 4420 L
 863 2614 mt  935 2614 L
 899 2578 mt  899 2650 L
1075 4537 mt 1147 4537 L
1111 4501 mt 1111 4573 L
1482 4406 mt 1554 4406 L
1518 4370 mt 1518 4442 L
1384 4494 mt 1456 4494 L
1420 4458 mt 1420 4530 L
3356 4614 mt 3428 4614 L
3392 4578 mt 3392 4650 L
1535 3553 mt 1607 3553 L
1571 3517 mt 1571 3589 L
2242 4479 mt 2314 4479 L
2278 4443 mt 2278 4515 L
 959 4567 mt 1031 4567 L
 995 4531 mt  995 4603 L
 972 4615 mt 1044 4615 L
1008 4579 mt 1008 4651 L
 864 4615 mt  936 4615 L
 900 4579 mt  900 4651 L
1071 4609 mt 1143 4609 L
1107 4573 mt 1107 4645 L
1318 4484 mt 1390 4484 L
1354 4448 mt 1354 4520 L
1480 4504 mt 1552 4504 L
1516 4468 mt 1516 4540 L
1511 3718 mt 1583 3718 L
1547 3682 mt 1547 3754 L
1417 4561 mt 1489 4561 L
1453 4525 mt 1453 4597 L
1174 4040 mt 1246 4040 L
1210 4004 mt 1210 4076 L
3036 4179 mt 3108 4179 L
3072 4143 mt 3072 4215 L
3268 3355 mt 3340 3355 L
3304 3319 mt 3304 3391 L
1547 4611 mt 1619 4611 L
1583 4575 mt 1583 4647 L
3112 4427 mt 3184 4427 L
3148 4391 mt 3148 4463 L
4554 4461 mt 4626 4461 L
4590 4425 mt 4590 4497 L
1051 4039 mt 1123 4039 L
1087 4003 mt 1087 4075 L
3704 3413 mt 3776 3413 L
3740 3377 mt 3740 3449 L
3467 3384 mt 3539 3384 L
3503 3348 mt 3503 3420 L
 906 4612 mt  978 4612 L
 942 4576 mt  942 4648 L
4463  414 mt 4535  414 L
4499  378 mt 4499  450 L
1638 4593 mt 1710 4593 L
1674 4557 mt 1674 4629 L
1016 4439 mt 1088 4439 L
1052 4403 mt 1052 4475 L
2048 3844 mt 2120 3844 L
2084 3808 mt 2084 3880 L
1026 4615 mt 1098 4615 L
1062 4579 mt 1062 4651 L
2732 4470 mt 2804 4470 L
2768 4434 mt 2768 4506 L
 945 3669 mt 1017 3669 L
 981 3633 mt  981 3705 L
 868 4438 mt  940 4438 L
 904 4402 mt  904 4474 L
1735 4614 mt 1807 4614 L
1771 4578 mt 1771 4650 L
1977 3854 mt 2049 3854 L
2013 3818 mt 2013 3890 L
1310 3284 mt 1382 3284 L
1346 3248 mt 1346 3320 L
 880 4533 mt  952 4533 L
 916 4497 mt  916 4569 L
2182 4586 mt 2254 4586 L
2218 4550 mt 2218 4622 L
2520 4252 mt 2592 4252 L
2556 4216 mt 2556 4288 L
4165 4348 mt 4237 4348 L
4201 4312 mt 4201 4384 L
1139 3866 mt 1211 3866 L
1175 3830 mt 1175 3902 L
3404 1947 mt 3476 1947 L
3440 1911 mt 3440 1983 L
2040 4268 mt 2112 4268 L
2076 4232 mt 2076 4304 L
 954 4427 mt 1026 4427 L
 990 4391 mt  990 4463 L
 984 3673 mt 1056 3673 L
1020 3637 mt 1020 3709 L
1433 4573 mt 1505 4573 L
1469 4537 mt 1469 4609 L
1160 4584 mt 1232 4584 L
1196 4548 mt 1196 4620 L
1476 4613 mt 1548 4613 L
1512 4577 mt 1512 4649 L
 863 4304 mt  935 4304 L
 899 4268 mt  899 4340 L
1014 4445 mt 1086 4445 L
1050 4409 mt 1050 4481 L
 912 4315 mt  984 4315 L
 948 4279 mt  948 4351 L
1392 4127 mt 1464 4127 L
1428 4091 mt 1428 4163 L
2663 4421 mt 2735 4421 L
2699 4385 mt 2699 4457 L
 926 3889 mt  998 3889 L
 962 3853 mt  962 3925 L
 876 4371 mt  948 4371 L
 912 4335 mt  912 4407 L
1174 4584 mt 1246 4584 L
1210 4548 mt 1210 4620 L
3172 4605 mt 3244 4605 L
3208 4569 mt 3208 4641 L
 878 4095 mt  950 4095 L
 914 4059 mt  914 4131 L
1143 2498 mt 1215 2498 L
1179 2462 mt 1179 2534 L
4120 3911 mt 4192 3911 L
4156 3875 mt 4156 3947 L
1008 4335 mt 1080 4335 L
1044 4299 mt 1044 4371 L
1095 4528 mt 1167 4528 L
1131 4492 mt 1131 4564 L
 908 4360 mt  980 4360 L
 944 4324 mt  944 4396 L
3198 4552 mt 3270 4552 L
3234 4516 mt 3234 4588 L
 876 4514 mt  948 4514 L
 912 4478 mt  912 4550 L
 890 4549 mt  962 4549 L
 926 4513 mt  926 4585 L
1817 3950 mt 1889 3950 L
1853 3914 mt 1853 3986 L
1216 4552 mt 1288 4552 L
1252 4516 mt 1252 4588 L
 878 4602 mt  950 4602 L
 914 4566 mt  914 4638 L
 874 4615 mt  946 4615 L
 910 4579 mt  910 4651 L
2801 2507 mt 2873 2507 L
2837 2471 mt 2837 2543 L
1184 4375 mt 1256 4375 L
1220 4339 mt 1220 4411 L
1467 4468 mt 1539 4468 L
1503 4432 mt 1503 4504 L
 898 4280 mt  970 4280 L
 934 4244 mt  934 4316 L
 941 4470 mt 1013 4470 L
 977 4434 mt  977 4506 L
1248 4475 mt 1320 4475 L
1284 4439 mt 1284 4511 L
 897 4400 mt  969 4400 L
 933 4364 mt  933 4436 L
3819 4579 mt 3891 4579 L
3855 4543 mt 3855 4615 L
1939 4612 mt 2011 4612 L
1975 4576 mt 1975 4648 L
 932 4606 mt 1004 4606 L
 968 4570 mt  968 4642 L
 869 4550 mt  941 4550 L
 905 4514 mt  905 4586 L
1059 3580 mt 1131 3580 L
1095 3544 mt 1095 3616 L
1593 4615 mt 1665 4615 L
1629 4579 mt 1629 4651 L
1682 3892 mt 1754 3892 L
1718 3856 mt 1718 3928 L
4916 3531 mt 4988 3531 L
4952 3495 mt 4952 3567 L
 991 4615 mt 1063 4615 L
1027 4579 mt 1027 4651 L
 877 4151 mt  949 4151 L
 913 4115 mt  913 4187 L
1118 4040 mt 1190 4040 L
1154 4004 mt 1154 4076 L
1014 4577 mt 1086 4577 L
1050 4541 mt 1050 4613 L
1305 4605 mt 1377 4605 L
1341 4569 mt 1341 4641 L
2198 2798 mt 2270 2798 L
2234 2762 mt 2234 2834 L
 870 4597 mt  942 4597 L
 906 4561 mt  906 4633 L
1025 4555 mt 1097 4555 L
1061 4519 mt 1061 4591 L
1426 4017 mt 1498 4017 L
1462 3981 mt 1462 4053 L
2252 3827 mt 2324 3827 L
2288 3791 mt 2288 3863 L
1126 4611 mt 1198 4611 L
1162 4575 mt 1162 4647 L
1494 4558 mt 1566 4558 L
1530 4522 mt 1530 4594 L
1185 3769 mt 1257 3769 L
1221 3733 mt 1221 3805 L
 955 4098 mt 1027 4098 L
 991 4062 mt  991 4134 L
1676 3310 mt 1748 3310 L
1712 3274 mt 1712 3346 L
2914 4214 mt 2986 4214 L
2950 4178 mt 2950 4250 L
1111 4251 mt 1183 4251 L
1147 4215 mt 1147 4287 L
1832 4172 mt 1904 4172 L
1868 4136 mt 1868 4208 L
 963 4362 mt 1035 4362 L
 999 4326 mt  999 4398 L
3352 4484 mt 3424 4484 L
3388 4448 mt 3388 4520 L
 868 4614 mt  940 4614 L
 904 4578 mt  904 4650 L
1711 3876 mt 1783 3876 L
1747 3840 mt 1747 3912 L
2586 4366 mt 2658 4366 L
2622 4330 mt 2622 4402 L
4700 4575 mt 4772 4575 L
4736 4539 mt 4736 4611 L
1470 4583 mt 1542 4583 L
1506 4547 mt 1506 4619 L
 904 4595 mt  976 4595 L
 940 4559 mt  940 4631 L
1509 4433 mt 1581 4433 L
1545 4397 mt 1545 4469 L
1567 4616 mt 1639 4616 L
1603 4580 mt 1603 4652 L
1283 4541 mt 1355 4541 L
1319 4505 mt 1319 4577 L
 863 4295 mt  935 4295 L
 899 4259 mt  899 4331 L
2019 4514 mt 2091 4514 L
2055 4478 mt 2055 4550 L
1648 3412 mt 1720 3412 L
1684 3376 mt 1684 3448 L
1254 4609 mt 1326 4609 L
1290 4573 mt 1290 4645 L
3298 3864 mt 3370 3864 L
3334 3828 mt 3334 3900 L
6225 1956 mt 6297 1956 L
6261 1920 mt 6261 1992 L
1486 4423 mt 1558 4423 L
1522 4387 mt 1522 4459 L
 973 4502 mt 1045 4502 L
1009 4466 mt 1009 4538 L
1377 3669 mt 1449 3669 L
1413 3633 mt 1413 3705 L
4160 4523 mt 4232 4523 L
4196 4487 mt 4196 4559 L
1357 4380 mt 1429 4380 L
1393 4344 mt 1393 4416 L
1788 4574 mt 1860 4574 L
1824 4538 mt 1824 4610 L
2874 4562 mt 2946 4562 L
2910 4526 mt 2910 4598 L
1666 3121 mt 1738 3121 L
1702 3085 mt 1702 3157 L
 892 4591 mt  964 4591 L
 928 4555 mt  928 4627 L
1102 4247 mt 1174 4247 L
1138 4211 mt 1138 4283 L
3277 4447 mt 3349 4447 L
3313 4411 mt 3313 4483 L
2583 4117 mt 2655 4117 L
2619 4081 mt 2619 4153 L
2704 4615 mt 2776 4615 L
2740 4579 mt 2740 4651 L
3655 3817 mt 3727 3817 L
3691 3781 mt 3691 3853 L
1016 4349 mt 1088 4349 L
1052 4313 mt 1052 4385 L
2862 4596 mt 2934 4596 L
2898 4560 mt 2898 4632 L
2527 4477 mt 2599 4477 L
2563 4441 mt 2563 4513 L
2757 3778 mt 2829 3778 L
2793 3742 mt 2793 3814 L
4830 1888 mt 4902 1888 L
4866 1852 mt 4866 1924 L
1046 4614 mt 1118 4614 L
1082 4578 mt 1082 4650 L
1046 4512 mt 1118 4512 L
1082 4476 mt 1082 4548 L
1648 4529 mt 1720 4529 L
1684 4493 mt 1684 4565 L
 985 4611 mt 1057 4611 L
1021 4575 mt 1021 4647 L
1898 3961 mt 1970 3961 L
1934 3925 mt 1934 3997 L
2248 4443 mt 2320 4443 L
2284 4407 mt 2284 4479 L
2889 3909 mt 2961 3909 L
2925 3873 mt 2925 3945 L
 866 4600 mt  938 4600 L
 902 4564 mt  902 4636 L
1393 4040 mt 1465 4040 L
1429 4004 mt 1429 4076 L
1067 4109 mt 1139 4109 L
1103 4073 mt 1103 4145 L
1056 4529 mt 1128 4529 L
1092 4493 mt 1092 4565 L
1123 4093 mt 1195 4093 L
1159 4057 mt 1159 4129 L
4973 3584 mt 5045 3584 L
5009 3548 mt 5009 3620 L
 890 4615 mt  962 4615 L
 926 4579 mt  926 4651 L
1804 4139 mt 1876 4139 L
1840 4103 mt 1840 4175 L
1166 4589 mt 1238 4589 L
1202 4553 mt 1202 4625 L
2239 2397 mt 2311 2397 L
2275 2361 mt 2275 2433 L
 934 3557 mt 1006 3557 L
 970 3521 mt  970 3593 L
 922 4315 mt  994 4315 L
 958 4279 mt  958 4351 L
2530 4597 mt 2602 4597 L
2566 4561 mt 2566 4633 L
3810 3819 mt 3882 3819 L
3846 3783 mt 3846 3855 L
1776 4411 mt 1848 4411 L
1812 4375 mt 1812 4447 L
1648 4280 mt 1720 4280 L
1684 4244 mt 1684 4316 L
4579 2429 mt 4651 2429 L
4615 2393 mt 4615 2465 L
3060 4466 mt 3132 4466 L
3096 4430 mt 3096 4502 L
2124 4609 mt 2196 4609 L
2160 4573 mt 2160 4645 L
2666 4100 mt 2738 4100 L
2702 4064 mt 2702 4136 L
1003 4031 mt 1075 4031 L
1039 3995 mt 1039 4067 L
 870 4489 mt  942 4489 L
 906 4453 mt  906 4525 L
2692 4330 mt 2764 4330 L
2728 4294 mt 2728 4366 L
 863 4609 mt  935 4609 L
 899 4573 mt  899 4645 L
 872 4298 mt  944 4298 L
 908 4262 mt  908 4334 L
2383 3550 mt 2455 3550 L
2419 3514 mt 2419 3586 L
2743 4589 mt 2815 4589 L
2779 4553 mt 2779 4625 L
4906 3176 mt 4978 3176 L
4942 3140 mt 4942 3212 L
2627 4221 mt 2699 4221 L
2663 4185 mt 2663 4257 L
 872 4608 mt  944 4608 L
 908 4572 mt  908 4644 L
 863 4600 mt  935 4600 L
 899 4564 mt  899 4636 L
2467 3224 mt 2539 3224 L
2503 3188 mt 2503 3260 L
 900 4610 mt  972 4610 L
 936 4574 mt  936 4646 L
1773 3084 mt 1845 3084 L
1809 3048 mt 1809 3120 L
 991 4175 mt 1063 4175 L
1027 4139 mt 1027 4211 L
2084 3555 mt 2156 3555 L
2120 3519 mt 2120 3591 L
3489 4615 mt 3561 4615 L
3525 4579 mt 3525 4651 L
 873 4523 mt  945 4523 L
 909 4487 mt  909 4559 L
1282 4566 mt 1354 4566 L
1318 4530 mt 1318 4602 L
6204 1824 mt 6276 1824 L
6240 1788 mt 6240 1860 L
1174 4353 mt 1246 4353 L
1210 4317 mt 1210 4389 L
 903 3983 mt  975 3983 L
 939 3947 mt  939 4019 L
1410 4610 mt 1482 4610 L
1446 4574 mt 1446 4646 L
1567 4346 mt 1639 4346 L
1603 4310 mt 1603 4382 L
 939 4610 mt 1011 4610 L
 975 4574 mt  975 4646 L
 873 4428 mt  945 4428 L
 909 4392 mt  909 4464 L
1939 4615 mt 2011 4615 L
1975 4579 mt 1975 4651 L
1253 3298 mt 1325 3298 L
1289 3262 mt 1289 3334 L
2081 4429 mt 2153 4429 L
2117 4393 mt 2117 4465 L
1206 4389 mt 1278 4389 L
1242 4353 mt 1242 4425 L
2043 4533 mt 2115 4533 L
2079 4497 mt 2079 4569 L
1473 4570 mt 1545 4570 L
1509 4534 mt 1509 4606 L
 911 3456 mt  983 3456 L
 947 3420 mt  947 3492 L
1244 4612 mt 1316 4612 L
1280 4576 mt 1280 4648 L
1320 4360 mt 1392 4360 L
1356 4324 mt 1356 4396 L
1058 4498 mt 1130 4498 L
1094 4462 mt 1094 4534 L
2323 4571 mt 2395 4571 L
2359 4535 mt 2359 4607 L
1003 4407 mt 1075 4407 L
1039 4371 mt 1039 4443 L
2860 4613 mt 2932 4613 L
2896 4577 mt 2896 4649 L
2492 3267 mt 2564 3267 L
2528 3231 mt 2528 3303 L
1938 4615 mt 2010 4615 L
1974 4579 mt 1974 4651 L
1520 4306 mt 1592 4306 L
1556 4270 mt 1556 4342 L
1115 4586 mt 1187 4586 L
1151 4550 mt 1151 4622 L
 997 4597 mt 1069 4597 L
1033 4561 mt 1033 4633 L
 874 4427 mt  946 4427 L
 910 4391 mt  910 4463 L
 972 4548 mt 1044 4548 L
1008 4512 mt 1008 4584 L
1792 4604 mt 1864 4604 L
1828 4568 mt 1828 4640 L
 946 4614 mt 1018 4614 L
 982 4578 mt  982 4650 L
3096 4615 mt 3168 4615 L
3132 4579 mt 3132 4651 L
 878 3708 mt  950 3708 L
 914 3672 mt  914 3744 L
2505 4113 mt 2577 4113 L
2541 4077 mt 2541 4149 L
3729 2760 mt 3801 2760 L
3765 2724 mt 3765 2796 L
1278 4614 mt 1350 4614 L
1314 4578 mt 1314 4650 L
2797 3892 mt 2869 3892 L
2833 3856 mt 2833 3928 L
3271 4529 mt 3343 4529 L
3307 4493 mt 3307 4565 L
2103 4518 mt 2175 4518 L
2139 4482 mt 2139 4554 L
3744 3609 mt 3816 3609 L
3780 3573 mt 3780 3645 L
3342 3681 mt 3414 3681 L
3378 3645 mt 3378 3717 L
 881 4217 mt  953 4217 L
 917 4181 mt  917 4253 L
5659 1741 mt 5731 1741 L
5695 1705 mt 5695 1777 L
1593 3920 mt 1665 3920 L
1629 3884 mt 1629 3956 L
 949 4571 mt 1021 4571 L
 985 4535 mt  985 4607 L
 871 4614 mt  943 4614 L
 907 4578 mt  907 4650 L
1143 4580 mt 1215 4580 L
1179 4544 mt 1179 4616 L
1510 4615 mt 1582 4615 L
1546 4579 mt 1546 4651 L
1498 4534 mt 1570 4534 L
1534 4498 mt 1534 4570 L
1068 4608 mt 1140 4608 L
1104 4572 mt 1104 4644 L
1637 4450 mt 1709 4450 L
1673 4414 mt 1673 4486 L
3235 4393 mt 3307 4393 L
3271 4357 mt 3271 4429 L
 863 4485 mt  935 4485 L
 899 4449 mt  899 4521 L
 869 4612 mt  941 4612 L
 905 4576 mt  905 4648 L
1488 4572 mt 1560 4572 L
1524 4536 mt 1524 4608 L
1943 4550 mt 2015 4550 L
1979 4514 mt 1979 4586 L
4556 4105 mt 4628 4105 L
4592 4069 mt 4592 4141 L
1035 4453 mt 1107 4453 L
1071 4417 mt 1071 4489 L
3974 2432 mt 4046 2432 L
4010 2396 mt 4010 2468 L
2255 4556 mt 2327 4556 L
2291 4520 mt 2291 4592 L
1098 4571 mt 1170 4571 L
1134 4535 mt 1134 4607 L
 990 4615 mt 1062 4615 L
1026 4579 mt 1026 4651 L
2573 4588 mt 2645 4588 L
2609 4552 mt 2609 4624 L
1570 4615 mt 1642 4615 L
1606 4579 mt 1606 4651 L
1376 4596 mt 1448 4596 L
1412 4560 mt 1412 4632 L
1498 4592 mt 1570 4592 L
1534 4556 mt 1534 4628 L
1873 4594 mt 1945 4594 L
1909 4558 mt 1909 4630 L
1701 3574 mt 1773 3574 L
1737 3538 mt 1737 3610 L
 910 4238 mt  982 4238 L
 946 4202 mt  946 4274 L
3072 4030 mt 3144 4030 L
3108 3994 mt 3108 4066 L
1199 3841 mt 1271 3841 L
1235 3805 mt 1235 3877 L
1579 4375 mt 1651 4375 L
1615 4339 mt 1615 4411 L
1172 4390 mt 1244 4390 L
1208 4354 mt 1208 4426 L
2988 4316 mt 3060 4316 L
3024 4280 mt 3024 4352 L
1361 3396 mt 1433 3396 L
1397 3360 mt 1397 3432 L
 868 3370 mt  940 3370 L
 904 3334 mt  904 3406 L
4570 4455 mt 4642 4455 L
4606 4419 mt 4606 4491 L
1425 4559 mt 1497 4559 L
1461 4523 mt 1461 4595 L
2569 4501 mt 2641 4501 L
2605 4465 mt 2605 4537 L
 940 4369 mt 1012 4369 L
 976 4333 mt  976 4405 L
1323 3489 mt 1395 3489 L
1359 3453 mt 1359 3525 L
1211 4567 mt 1283 4567 L
1247 4531 mt 1247 4603 L
1418 4514 mt 1490 4514 L
1454 4478 mt 1454 4550 L
2254 4068 mt 2326 4068 L
2290 4032 mt 2290 4104 L
 988 4613 mt 1060 4613 L
1024 4577 mt 1024 4649 L
 880 4328 mt  952 4328 L
 916 4292 mt  916 4364 L
 977 4574 mt 1049 4574 L
1013 4538 mt 1013 4610 L
3026 2664 mt 3098 2664 L
3062 2628 mt 3062 2700 L
1775 4205 mt 1847 4205 L
1811 4169 mt 1811 4241 L
 909 4602 mt  981 4602 L
 945 4566 mt  945 4638 L
1011 4612 mt 1083 4612 L
1047 4576 mt 1047 4648 L
 951 4511 mt 1023 4511 L
 987 4475 mt  987 4547 L
gs 899 414 5363 4203 rc
gr

0 sg
2775 5104 mt 
(\(F,DCTb,GMM\)) s
 422 3296 mt  -90 rotate
(\(F,DCTs,iMLP\)) s
90 rotate
2975  223 mt 
(Corr = 0.27) s

end %%Color Dict

eplot
%%EndObject

epage
end

showpage

%%Trailer
%%EOF
