%!PS-Adobe-3.0 EPSF-3.0
%%Creator: MATLAB, The Mathworks, Inc. Version 7.7.0.471 (R2008b). Operating System: Microsoft Windows XP.
%%Title: Pictures\main_zoo_mvar_analysis_data_BMI_xcorr_bmig_p1_k2_2_6.eps
%%CreationDate: 10/26/2009  05:45:18
%%DocumentNeededFonts: Helvetica
%%DocumentProcessColors: Cyan Magenta Yellow Black
%%LanguageLevel: 2
%%Pages: 1
%%BoundingBox:    37   180   549   616
%%EndComments

%%BeginProlog
% MathWorks dictionary
/MathWorks 160 dict begin
% definition operators
/bdef {bind def} bind def
/ldef {load def} bind def
/xdef {exch def} bdef
/xstore {exch store} bdef
% operator abbreviations
/c  /clip ldef
/cc /concat ldef
/cp /closepath ldef
/gr /grestore ldef
/gs /gsave ldef
/mt /moveto ldef
/np /newpath ldef
/cm /currentmatrix ldef
/sm /setmatrix ldef
/rm /rmoveto ldef
/rl /rlineto ldef
/s {show newpath} bdef
/sc {setcmykcolor} bdef
/sr /setrgbcolor ldef
/sg /setgray ldef
/w /setlinewidth ldef
/j /setlinejoin ldef
/cap /setlinecap ldef
/rc {rectclip} bdef
/rf {rectfill} bdef
% page state control
/pgsv () def
/bpage {/pgsv save def} bdef
/epage {pgsv restore} bdef
/bplot /gsave ldef
/eplot {stroke grestore} bdef
% orientation switch
/portraitMode 0 def /landscapeMode 1 def /rotateMode 2 def
% coordinate system mappings
/dpi2point 0 def
% font control
/FontSize 0 def
/FMS {/FontSize xstore findfont [FontSize 0 0 FontSize neg 0 0]
  makefont setfont} bdef
/ISOLatin1Encoding where {pop /WindowsLatin1Encoding 256 array bdef
ISOLatin1Encoding WindowsLatin1Encoding copy pop
/.notdef/.notdef/quotesinglbase/florin/quotedblbase/ellipsis/dagger
/daggerdbl/circumflex/perthousand/Scaron/guilsinglleft/OE/.notdef/.notdef
/.notdef/.notdef/quoteleft/quoteright/quotedblleft/quotedblright/bullet
/endash/emdash/tilde/trademark/scaron/guilsinglright/oe/.notdef/.notdef
/Ydieresis WindowsLatin1Encoding 128 32 getinterval astore pop}
{/WindowsLatin1Encoding StandardEncoding bdef} ifelse
/reencode {exch dup where {pop load} {pop StandardEncoding} ifelse
  exch dup 3 1 roll findfont dup length dict begin
  { 1 index /FID ne {def}{pop pop} ifelse } forall
  /Encoding exch def currentdict end definefont pop} bdef
/isroman {findfont /CharStrings get /Agrave known} bdef
/FMSR {3 1 roll 1 index dup isroman {reencode} {pop pop} ifelse
  exch FMS} bdef
/csm {1 dpi2point div -1 dpi2point div scale neg translate
 dup landscapeMode eq {pop -90 rotate}
  {rotateMode eq {90 rotate} if} ifelse} bdef
% line types: solid, dotted, dashed, dotdash
/SO { [] 0 setdash } bdef
/DO { [.5 dpi2point mul 4 dpi2point mul] 0 setdash } bdef
/DA { [6 dpi2point mul] 0 setdash } bdef
/DD { [.5 dpi2point mul 4 dpi2point mul 6 dpi2point mul 4
  dpi2point mul] 0 setdash } bdef
% macros for lines and objects
/L {lineto stroke} bdef
/MP {3 1 roll moveto 1 sub {rlineto} repeat} bdef
/AP {{rlineto} repeat} bdef
/PDlw -1 def
/W {/PDlw currentlinewidth def setlinewidth} def
/PP {closepath eofill} bdef
/DP {closepath stroke} bdef
/MR {4 -2 roll moveto dup  0 exch rlineto exch 0 rlineto
  neg 0 exch rlineto closepath} bdef
/FR {MR stroke} bdef
/PR {MR fill} bdef
/L1i {{currentfile picstr readhexstring pop} image} bdef
/tMatrix matrix def
/MakeOval {newpath tMatrix currentmatrix pop translate scale
0 0 1 0 360 arc tMatrix setmatrix} bdef
/FO {MakeOval stroke} bdef
/PO {MakeOval fill} bdef
/PD {currentlinewidth 2 div 0 360 arc fill
   PDlw -1 eq not {PDlw w /PDlw -1 def} if} def
/FA {newpath tMatrix currentmatrix pop translate scale
  0 0 1 5 -2 roll arc tMatrix setmatrix stroke} bdef
/PA {newpath tMatrix currentmatrix pop	translate 0 0 moveto scale
  0 0 1 5 -2 roll arc closepath tMatrix setmatrix fill} bdef
/FAn {newpath tMatrix currentmatrix pop translate scale
  0 0 1 5 -2 roll arcn tMatrix setmatrix stroke} bdef
/PAn {newpath tMatrix currentmatrix pop translate 0 0 moveto scale
  0 0 1 5 -2 roll arcn closepath tMatrix setmatrix fill} bdef
/vradius 0 def /hradius 0 def /lry 0 def
/lrx 0 def /uly 0 def /ulx 0 def /rad 0 def
/MRR {/vradius xdef /hradius xdef /lry xdef /lrx xdef /uly xdef
  /ulx xdef newpath tMatrix currentmatrix pop ulx hradius add uly
  vradius add translate hradius vradius scale 0 0 1 180 270 arc 
  tMatrix setmatrix lrx hradius sub uly vradius add translate
  hradius vradius scale 0 0 1 270 360 arc tMatrix setmatrix
  lrx hradius sub lry vradius sub translate hradius vradius scale
  0 0 1 0 90 arc tMatrix setmatrix ulx hradius add lry vradius sub
  translate hradius vradius scale 0 0 1 90 180 arc tMatrix setmatrix
  closepath} bdef
/FRR {MRR stroke } bdef
/PRR {MRR fill } bdef
/MlrRR {/lry xdef /lrx xdef /uly xdef /ulx xdef /rad lry uly sub 2 div def
  newpath tMatrix currentmatrix pop ulx rad add uly rad add translate
  rad rad scale 0 0 1 90 270 arc tMatrix setmatrix lrx rad sub lry rad
  sub translate rad rad scale 0 0 1 270 90 arc tMatrix setmatrix
  closepath} bdef
/FlrRR {MlrRR stroke } bdef
/PlrRR {MlrRR fill } bdef
/MtbRR {/lry xdef /lrx xdef /uly xdef /ulx xdef /rad lrx ulx sub 2 div def
  newpath tMatrix currentmatrix pop ulx rad add uly rad add translate
  rad rad scale 0 0 1 180 360 arc tMatrix setmatrix lrx rad sub lry rad
  sub translate rad rad scale 0 0 1 0 180 arc tMatrix setmatrix
  closepath} bdef
/FtbRR {MtbRR stroke } bdef
/PtbRR {MtbRR fill } bdef
/stri 6 array def /dtri 6 array def
/smat 6 array def /dmat 6 array def
/tmat1 6 array def /tmat2 6 array def /dif 3 array def
/asub {/ind2 exch def /ind1 exch def dup dup
  ind1 get exch ind2 get sub exch } bdef
/tri_to_matrix {
  2 0 asub 3 1 asub 4 0 asub 5 1 asub
  dup 0 get exch 1 get 7 -1 roll astore } bdef
/compute_transform {
  dmat dtri tri_to_matrix tmat1 invertmatrix 
  smat stri tri_to_matrix tmat2 concatmatrix } bdef
/ds {stri astore pop} bdef
/dt {dtri astore pop} bdef
/db {2 copy /cols xdef /rows xdef mul dup 3 mul string
  currentfile 
  3 index 0 eq {/ASCIIHexDecode filter}
  {/ASCII85Decode filter 3 index 2 eq {/RunLengthDecode filter} if }
  ifelse exch readstring pop
  dup 0 3 index getinterval /rbmap xdef
  dup 2 index dup getinterval /gbmap xdef
  1 index dup 2 mul exch getinterval /bbmap xdef pop pop}bdef
/it {gs np dtri aload pop moveto lineto lineto cp c
  cols rows 8 compute_transform 
  rbmap gbmap bbmap true 3 colorimage gr}bdef
/il {newpath moveto lineto stroke}bdef
currentdict end def
%%EndProlog

%%BeginSetup
MathWorks begin

0 cap

end
%%EndSetup

%%Page: 1 1
%%BeginPageSetup
%%PageBoundingBox:    37   180   549   616
MathWorks begin
bpage
%%EndPageSetup

%%BeginObject: obj1
bplot

/dpi2point 12 def
portraitMode 0216 7344 csm

  234   -48  6149  5231 rc
85 dict begin %Colortable dictionary
/c0 { 0.000000 0.000000 0.000000 sr} bdef
/c1 { 1.000000 1.000000 1.000000 sr} bdef
/c2 { 0.900000 0.000000 0.000000 sr} bdef
/c3 { 0.000000 0.820000 0.000000 sr} bdef
/c4 { 0.000000 0.000000 0.800000 sr} bdef
/c5 { 0.910000 0.820000 0.320000 sr} bdef
/c6 { 1.000000 0.260000 0.820000 sr} bdef
/c7 { 0.000000 0.820000 0.820000 sr} bdef
c0
1 j
1 sg
   0    0 6919 5187 rf
6 w
0 4202 5362 0 0 -4202 899 4616 4 MP
PP
-5362 0 0 4202 5362 0 0 -4202 899 4616 5 MP stroke
4 w
DO
SO
6 w
0 sg
 899  414 mt 6261  414 L
 899 4616 mt 6261 4616 L
6261 4616 mt 6261  414 L
 899 4616 mt  899  414 L
 899 4616 mt 6261 4616 L
 899 4616 mt  899  414 L
 919 4616 mt  919 4562 L
 919  414 mt  919  467 L
%%IncludeResource: font Helvetica
/Helvetica /WindowsLatin1Encoding 240 FMSR

 713 4873 mt 
(-3) s
1806 4616 mt 1806 4562 L
1806  414 mt 1806  467 L
1600 4873 mt 
(-2) s
2693 4616 mt 2693 4562 L
2693  414 mt 2693  467 L
2487 4873 mt 
(-1) s
3580 4616 mt 3580 4562 L
3580  414 mt 3580  467 L
3514 4873 mt 
(0) s
4466 4616 mt 4466 4562 L
4466  414 mt 4466  467 L
4400 4873 mt 
(1) s
5353 4616 mt 5353 4562 L
5353  414 mt 5353  467 L
5287 4873 mt 
(2) s
6240 4616 mt 6240 4562 L
6240  414 mt 6240  467 L
6174 4873 mt 
(3) s
 899 4599 mt  952 4599 L
6261 4599 mt 6207 4599 L
 591 4688 mt 
(-3) s
 899 3904 mt  952 3904 L
6261 3904 mt 6207 3904 L
 591 3993 mt 
(-2) s
 899 3209 mt  952 3209 L
6261 3209 mt 6207 3209 L
 591 3298 mt 
(-1) s
 899 2514 mt  952 2514 L
6261 2514 mt 6207 2514 L
 731 2603 mt 
(0) s
 899 1820 mt  952 1820 L
6261 1820 mt 6207 1820 L
 731 1909 mt 
(1) s
 899 1125 mt  952 1125 L
6261 1125 mt 6207 1125 L
 731 1214 mt 
(2) s
 899  430 mt  952  430 L
6261  430 mt 6207  430 L
 731  519 mt 
(3) s
 899  414 mt 6261  414 L
 899 4616 mt 6261 4616 L
6261 4616 mt 6261  414 L
 899 4616 mt  899  414 L
gs 899 414 5363 4203 rc
gr

/c8 { 0.000000 0.000000 1.000000 sr} bdef
c8
3471 2611 mt 3543 2611 L
3507 2575 mt 3507 2647 L
3376 2695 mt 3448 2695 L
3412 2659 mt 3412 2731 L
3166 2284 mt 3238 2284 L
3202 2248 mt 3202 2320 L
2126 2700 mt 2198 2700 L
2162 2664 mt 2162 2736 L
3232 2199 mt 3304 2199 L
3268 2163 mt 3268 2235 L
3296 2165 mt 3368 2165 L
3332 2129 mt 3332 2201 L
2987 3075 mt 3059 3075 L
3023 3039 mt 3023 3111 L
3110 3051 mt 3182 3051 L
3146 3015 mt 3146 3087 L
1907 3358 mt 1979 3358 L
1943 3322 mt 1943 3394 L
4836 1462 mt 4908 1462 L
4872 1426 mt 4872 1498 L
2662 3265 mt 2734 3265 L
2698 3229 mt 2698 3301 L
2924 2562 mt 2996 2562 L
2960 2526 mt 2960 2598 L
4398 1936 mt 4470 1936 L
4434 1900 mt 4434 1972 L
2980 2589 mt 3052 2589 L
3016 2553 mt 3016 2625 L
4087 1583 mt 4159 1583 L
4123 1547 mt 4123 1619 L
3605 3581 mt 3677 3581 L
3641 3545 mt 3641 3617 L
3290 3045 mt 3362 3045 L
3326 3009 mt 3326 3081 L
4206 2637 mt 4278 2637 L
4242 2601 mt 4242 2673 L
2251 2962 mt 2323 2962 L
2287 2926 mt 2287 2998 L
3996 2471 mt 4068 2471 L
4032 2435 mt 4032 2507 L
3728 2691 mt 3800 2691 L
3764 2655 mt 3764 2727 L
2394 2130 mt 2466 2130 L
2430 2094 mt 2430 2166 L
3359 2940 mt 3431 2940 L
3395 2904 mt 3395 2976 L
4553 2567 mt 4625 2567 L
4589 2531 mt 4589 2603 L
4259 1388 mt 4331 1388 L
4295 1352 mt 4295 1424 L
3927 1593 mt 3999 1593 L
3963 1557 mt 3963 1629 L
 863 2773 mt  935 2773 L
 899 2737 mt  899 2809 L
3284 1858 mt 3356 1858 L
3320 1822 mt 3320 1894 L
3711 3610 mt 3783 3610 L
3747 3574 mt 3747 3646 L
5211 3515 mt 5283 3515 L
5247 3479 mt 5247 3551 L
4290 2094 mt 4362 2094 L
4326 2058 mt 4326 2130 L
2615 2983 mt 2687 2983 L
2651 2947 mt 2651 3019 L
3499 3405 mt 3571 3405 L
3535 3369 mt 3535 3441 L
4074 2418 mt 4146 2418 L
4110 2382 mt 4110 2454 L
2740 2352 mt 2812 2352 L
2776 2316 mt 2776 2388 L
3046 2806 mt 3118 2806 L
3082 2770 mt 3082 2842 L
3785 3314 mt 3857 3314 L
3821 3278 mt 3821 3350 L
3196 2316 mt 3268 2316 L
3232 2280 mt 3232 2352 L
3734 2347 mt 3806 2347 L
3770 2311 mt 3770 2383 L
2523 3087 mt 2595 3087 L
2559 3051 mt 2559 3123 L
2732 2218 mt 2804 2218 L
2768 2182 mt 2768 2254 L
4314 1872 mt 4386 1872 L
4350 1836 mt 4350 1908 L
3677 2135 mt 3749 2135 L
3713 2099 mt 3713 2171 L
3571 2293 mt 3643 2293 L
3607 2257 mt 3607 2329 L
4585 2801 mt 4657 2801 L
4621 2765 mt 4621 2837 L
2888 2458 mt 2960 2458 L
2924 2422 mt 2924 2494 L
3226 2874 mt 3298 2874 L
3262 2838 mt 3262 2910 L
4381 2396 mt 4453 2396 L
4417 2360 mt 4417 2432 L
3313 2624 mt 3385 2624 L
3349 2588 mt 3349 2660 L
4041 1232 mt 4113 1232 L
4077 1196 mt 4077 1268 L
3510 3457 mt 3582 3457 L
3546 3421 mt 3546 3493 L
3921 3057 mt 3993 3057 L
3957 3021 mt 3957 3093 L
4564 2189 mt 4636 2189 L
4600 2153 mt 4600 2225 L
3135 3376 mt 3207 3376 L
3171 3340 mt 3171 3412 L
4266 2554 mt 4338 2554 L
4302 2518 mt 4302 2590 L
4170 2815 mt 4242 2815 L
4206 2779 mt 4206 2851 L
3347 2849 mt 3419 2849 L
3383 2813 mt 3383 2885 L
3588 1779 mt 3660 1779 L
3624 1743 mt 3624 1815 L
2805 3658 mt 2877 3658 L
2841 3622 mt 2841 3694 L
2671 1930 mt 2743 1930 L
2707 1894 mt 2707 1966 L
3449 2731 mt 3521 2731 L
3485 2695 mt 3485 2767 L
3404 3131 mt 3476 3131 L
3440 3095 mt 3440 3167 L
3273 2510 mt 3345 2510 L
3309 2474 mt 3309 2546 L
4114 2778 mt 4186 2778 L
4150 2742 mt 4150 2814 L
2298 3198 mt 2370 3198 L
2334 3162 mt 2334 3234 L
4522 2018 mt 4594 2018 L
4558 1982 mt 4558 2054 L
3621 3063 mt 3693 3063 L
3657 3027 mt 3657 3099 L
2444 2673 mt 2516 2673 L
2480 2637 mt 2480 2709 L
3706 2628 mt 3778 2628 L
3742 2592 mt 3742 2664 L
2479 2904 mt 2551 2904 L
2515 2868 mt 2515 2940 L
3780 2580 mt 3852 2580 L
3816 2544 mt 3816 2616 L
3078 1764 mt 3150 1764 L
3114 1728 mt 3114 1800 L
3432 2741 mt 3504 2741 L
3468 2705 mt 3468 2777 L
2973 2664 mt 3045 2664 L
3009 2628 mt 3009 2700 L
1991 3446 mt 2063 3446 L
2027 3410 mt 2027 3482 L
1259 2787 mt 1331 2787 L
1295 2751 mt 1295 2823 L
4028 2859 mt 4100 2859 L
4064 2823 mt 4064 2895 L
2966 2462 mt 3038 2462 L
3002 2426 mt 3002 2498 L
3013 2185 mt 3085 2185 L
3049 2149 mt 3049 2221 L
4719 3257 mt 4791 3257 L
4755 3221 mt 4755 3293 L
2680 3425 mt 2752 3425 L
2716 3389 mt 2716 3461 L
3141 2619 mt 3213 2619 L
3177 2583 mt 3177 2655 L
4177 2967 mt 4249 2967 L
4213 2931 mt 4213 3003 L
4228 2242 mt 4300 2242 L
4264 2206 mt 4264 2278 L
4706 2320 mt 4778 2320 L
4742 2284 mt 4742 2356 L
3426 2925 mt 3498 2925 L
3462 2889 mt 3462 2961 L
3020 2972 mt 3092 2972 L
3056 2936 mt 3056 3008 L
4021 2228 mt 4093 2228 L
4057 2192 mt 4057 2264 L
4619 2078 mt 4691 2078 L
4655 2042 mt 4655 2114 L
3147 2155 mt 3219 2155 L
3183 2119 mt 3183 2191 L
3007 3797 mt 3079 3797 L
3043 3761 mt 3043 3833 L
4869 2209 mt 4941 2209 L
4905 2173 mt 4905 2245 L
2312 3367 mt 2384 3367 L
2348 3331 mt 2348 3403 L
3832 3028 mt 3904 3028 L
3868 2992 mt 3868 3064 L
3325 3164 mt 3397 3164 L
3361 3128 mt 3361 3200 L
4142 1662 mt 4214 1662 L
4178 1626 mt 4178 1698 L
2945 2668 mt 3017 2668 L
2981 2632 mt 2981 2704 L
3302 3227 mt 3374 3227 L
3338 3191 mt 3338 3263 L
3267 3306 mt 3339 3306 L
3303 3270 mt 3303 3342 L
2490 2115 mt 2562 2115 L
2526 2079 mt 2526 2151 L
3844 1904 mt 3916 1904 L
3880 1868 mt 3880 1940 L
4667 1715 mt 4739 1715 L
4703 1679 mt 4703 1751 L
2643 2237 mt 2715 2237 L
2679 2201 mt 2679 2273 L
2341 3567 mt 2413 3567 L
2377 3531 mt 2377 3603 L
3820 3157 mt 3892 3157 L
3856 3121 mt 3856 3193 L
2534 1966 mt 2606 1966 L
2570 1930 mt 2570 2002 L
2749 2432 mt 2821 2432 L
2785 2396 mt 2785 2468 L
3370 2062 mt 3442 2062 L
3406 2026 mt 3406 2098 L
2456 2825 mt 2528 2825 L
2492 2789 mt 2492 2861 L
4002 2576 mt 4074 2576 L
4038 2540 mt 4038 2612 L
4298 2001 mt 4370 2001 L
4334 1965 mt 4334 2037 L
2407 2484 mt 2479 2484 L
2443 2448 mt 2443 2520 L
2586 3171 mt 2658 3171 L
2622 3135 mt 2622 3207 L
4213 2251 mt 4285 2251 L
4249 2215 mt 4249 2287 L
3098 3468 mt 3170 3468 L
3134 3432 mt 3134 3504 L
2715 2844 mt 2787 2844 L
2751 2808 mt 2751 2880 L
3915 2343 mt 3987 2343 L
3951 2307 mt 3951 2379 L
3560 1865 mt 3632 1865 L
3596 1829 mt 3596 1901 L
3482 3022 mt 3554 3022 L
3518 2986 mt 3518 3058 L
1387 2894 mt 1459 2894 L
1423 2858 mt 1423 2930 L
3549 2571 mt 3621 2571 L
3585 2535 mt 3585 2607 L
4922 2288 mt 4994 2288 L
4958 2252 mt 4958 2324 L
3946 3081 mt 4018 3081 L
3982 3045 mt 3982 3117 L
2595 3137 mt 2667 3137 L
2631 3101 mt 2631 3173 L
3466 2935 mt 3538 2935 L
3502 2899 mt 3502 2971 L
4425 1489 mt 4497 1489 L
4461 1453 mt 4461 1525 L
2355 3213 mt 2427 3213 L
2391 3177 mt 2391 3249 L
1937 2718 mt 2009 2718 L
1973 2682 mt 1973 2754 L
3803 2247 mt 3875 2247 L
3839 2211 mt 3839 2283 L
3964 3395 mt 4036 3395 L
4000 3359 mt 4000 3431 L
4156 1923 mt 4228 1923 L
4192 1887 mt 4192 1959 L
3903 2073 mt 3975 2073 L
3939 2037 mt 3939 2109 L
4191 2083 mt 4263 2083 L
4227 2047 mt 4227 2119 L
3723 2646 mt 3795 2646 L
3759 2610 mt 3759 2682 L
2146 3144 mt 2218 3144 L
2182 3108 mt 2182 3180 L
3220 2506 mt 3292 2506 L
3256 2470 mt 3256 2542 L
2706 3693 mt 2778 3693 L
2742 3657 mt 2742 3729 L
4655 1960 mt 4727 1960 L
4691 1924 mt 4691 1996 L
2605 2545 mt 2677 2545 L
2641 2509 mt 2641 2581 L
3977 3908 mt 4049 3908 L
4013 3872 mt 4013 3944 L
4492 2930 mt 4564 2930 L
4528 2894 mt 4528 2966 L
4015 2329 mt 4087 2329 L
4051 2293 mt 4051 2365 L
3202 2736 mt 3274 2736 L
3238 2700 mt 3238 2772 L
3027 2414 mt 3099 2414 L
3063 2378 mt 3063 2450 L
3952 2899 mt 4024 2899 L
3988 2863 mt 3988 2935 L
4355 1707 mt 4427 1707 L
4391 1671 mt 4391 1743 L
3666 2423 mt 3738 2423 L
3702 2387 mt 3702 2459 L
3129 3731 mt 3201 3731 L
3165 3695 mt 3165 3767 L
3393 2514 mt 3465 2514 L
3429 2478 mt 3429 2550 L
3410 2549 mt 3482 2549 L
3446 2513 mt 3446 2585 L
4067 2754 mt 4139 2754 L
4103 2718 mt 4103 2790 L
4094 2854 mt 4166 2854 L
4130 2818 mt 4130 2890 L
2165 4072 mt 2237 4072 L
2201 4036 mt 2201 4108 L
2634 3848 mt 2706 3848 L
2670 3812 mt 2670 3884 L
3885 2493 mt 3957 2493 L
3921 2457 mt 3921 2529 L
3521 3242 mt 3593 3242 L
3557 3206 mt 3557 3278 L
2282 2782 mt 2354 2782 L
2318 2746 mt 2318 2818 L
3983 2704 mt 4055 2704 L
4019 2668 mt 4019 2740 L
1619 2160 mt 1691 2160 L
1655 2124 mt 1655 2196 L
4435 1624 mt 4507 1624 L
4471 1588 mt 4471 1660 L
3153 2298 mt 3225 2298 L
3189 2262 mt 3189 2334 L
3214 3752 mt 3286 3752 L
3250 3716 mt 3250 3788 L
3364 3178 mt 3436 3178 L
3400 3142 mt 3400 3214 L
5047 2840 mt 5119 2840 L
5083 2804 mt 5083 2876 L
4512 3322 mt 4584 3322 L
4548 3286 mt 4548 3358 L
3072 2946 mt 3144 2946 L
3108 2910 mt 3108 2982 L
4060 2405 mt 4132 2405 L
4096 2369 mt 4096 2441 L
3053 1698 mt 3125 1698 L
3089 1662 mt 3089 1734 L
3421 2602 mt 3493 2602 L
3457 2566 mt 3457 2638 L
3855 2275 mt 3927 2275 L
3891 2239 mt 3891 2311 L
3797 2909 mt 3869 2909 L
3833 2873 mt 3833 2945 L
4199 3553 mt 4271 3553 L
4235 3517 mt 4235 3589 L
2468 2383 mt 2540 2383 L
2504 2347 mt 2504 2419 L
3381 2709 mt 3453 2709 L
3417 2673 mt 3417 2745 L
3768 3297 mt 3840 3297 L
3804 3261 mt 3804 3333 L
2836 2338 mt 2908 2338 L
2872 2302 mt 2872 2374 L
3700 2361 mt 3772 2361 L
3736 2325 mt 3736 2397 L
3791 2956 mt 3863 2956 L
3827 2920 mt 3827 2992 L
3085 3250 mt 3157 3250 L
3121 3214 mt 3121 3286 L
2513 2528 mt 2585 2528 L
2549 2492 mt 2549 2564 L
2874 2029 mt 2946 2029 L
2910 1993 mt 2910 2065 L
4532 2302 mt 4604 2302 L
4568 2266 mt 4568 2338 L
3454 3349 mt 3526 3349 L
3490 3313 mt 3490 3385 L
1965 3942 mt 2037 3942 L
2001 3906 mt 2001 3978 L
4886 2401 mt 4958 2401 L
4922 2365 mt 4922 2437 L
2502 3206 mt 2574 3206 L
2538 3170 mt 2538 3242 L
5606 3017 mt 5678 3017 L
5642 2981 mt 5642 3053 L
3577 2453 mt 3649 2453 L
3613 2417 mt 3613 2489 L
5024 2057 mt 5096 2057 L
5060 2021 mt 5060 2093 L
3616 2445 mt 3688 2445 L
3652 2409 mt 3652 2481 L
3838 2835 mt 3910 2835 L
3874 2799 mt 3874 2871 L
2896 3386 mt 2968 3386 L
2932 3350 mt 2932 3422 L
5150 1787 mt 5222 1787 L
5186 1751 mt 5186 1823 L
4732 1152 mt 4804 1152 L
4768 1116 mt 4768 1188 L
3243 2501 mt 3315 2501 L
3279 2465 mt 3279 2537 L
3178 2440 mt 3250 2440 L
3214 2404 mt 3214 2476 L
3909 3281 mt 3981 3281 L
3945 3245 mt 3945 3317 L
3599 2686 mt 3671 2686 L
3635 2650 mt 3635 2722 L
2903 2541 mt 2975 2541 L
2939 2505 mt 2939 2577 L
3555 1604 mt 3627 1604 L
3591 1568 mt 3591 1640 L
4364 1643 mt 4436 1643 L
4400 1607 mt 4400 1679 L
2575 1885 mt 2647 1885 L
2611 1849 mt 2611 1921 L
4904 2270 mt 4976 2270 L
4940 2234 mt 4940 2306 L
4372 2099 mt 4444 2099 L
4408 2063 mt 4408 2135 L
3672 2584 mt 3744 2584 L
3708 2548 mt 3708 2620 L
2851 1990 mt 2923 1990 L
2887 1954 mt 2887 2026 L
4390 1121 mt 4462 1121 L
4426 1085 mt 4426 1157 L
4322 2256 mt 4394 2256 L
4358 2220 mt 4358 2292 L
3826 1434 mt 3898 1434 L
3862 1398 mt 3862 1470 L
2201 3039 mt 2273 3039 L
2237 3003 mt 2237 3075 L
2624 3331 mt 2696 3331 L
2660 3295 mt 2660 3367 L
4047 1816 mt 4119 1816 L
4083 1780 mt 4083 1852 L
3861 3980 mt 3933 3980 L
3897 3944 mt 3897 4016 L
3460 1614 mt 3532 1614 L
3496 1578 mt 3496 1650 L
4034 2120 mt 4106 2120 L
4070 2084 mt 4070 2156 L
5700 2830 mt 5772 2830 L
5736 2794 mt 5736 2866 L
2881 2261 mt 2953 2261 L
2917 2225 mt 2917 2297 L
2565 2467 mt 2637 2467 L
2601 2431 mt 2601 2503 L
3814 1207 mt 3886 1207 L
3850 1171 mt 3850 1243 L
3940 2233 mt 4012 2233 L
3976 2197 mt 3976 2269 L
5245 4131 mt 5317 4131 L
5281 4095 mt 5281 4167 L
2327 2869 mt 2399 2869 L
2363 2833 mt 2363 2905 L
3934 1954 mt 4006 1954 L
3970 1918 mt 3970 1990 L
1876 1526 mt 1948 1526 L
1912 1490 mt 1912 1562 L
5365 1561 mt 5437 1561 L
5401 1525 mt 5401 1597 L
3989 2223 mt 4061 2223 L
4025 2187 mt 4025 2259 L
2085 3273 mt 2157 3273 L
2121 3237 mt 2121 3309 L
3689 2796 mt 3761 2796 L
3725 2760 mt 3725 2832 L
3638 2140 mt 3710 2140 L
3674 2104 mt 3674 2176 L
4693 3034 mt 4765 3034 L
4729 2998 mt 4729 3070 L
4221 3503 mt 4293 3503 L
4257 3467 mt 4257 3539 L
3091 1371 mt 3163 1371 L
3127 1335 mt 3127 1407 L
2432 1404 mt 2504 1404 L
2468 1368 mt 2468 1440 L
4680 3540 mt 4752 3540 L
4716 3504 mt 4716 3576 L
3544 2497 mt 3616 2497 L
3580 2461 mt 3580 2533 L
3649 1087 mt 3721 1087 L
3685 1051 mt 3685 1123 L
3717  898 mt 3789  898 L
3753  862 mt 3753  934 L
2545 2682 mt 2617 2682 L
2581 2646 mt 2581 2718 L
2866 2558 mt 2938 2558 L
2902 2522 mt 2902 2594 L
3415 2989 mt 3487 2989 L
3451 2953 mt 3451 3025 L
4347 2597 mt 4419 2597 L
4383 2561 mt 4383 2633 L
4746 1723 mt 4818 1723 L
4782 1687 mt 4782 1759 L
5828 1802 mt 5900 1802 L
5864 1766 mt 5864 1838 L
4542 1318 mt 4614 1318 L
4578 1282 mt 4578 1354 L
4163 1740 mt 4235 1740 L
4199 1704 mt 4199 1776 L
4054 1898 mt 4126 1898 L
4090 1862 mt 4090 1934 L
3897 2475 mt 3969 2475 L
3933 2439 mt 3933 2511 L
3438 2759 mt 3510 2759 L
3474 2723 mt 3474 2795 L
4574 3415 mt 4646 3415 L
4610 3379 mt 4610 3451 L
2016 3289 mt 2088 3289 L
2052 3253 mt 2052 3325 L
4251 2379 mt 4323 2379 L
4287 2343 mt 4287 2415 L
3633 2920 mt 3705 2920 L
3669 2884 mt 3669 2956 L
2765 2677 mt 2837 2677 L
2801 2641 mt 2801 2713 L
4789 1809 mt 4861 1809 L
4825 1773 mt 4825 1845 L
2789 3125 mt 2861 3125 L
2825 3089 mt 2825 3161 L
4128 3069 mt 4200 3069 L
4164 3033 mt 4164 3105 L
4407 1851 mt 4479 1851 L
4443 1815 mt 4443 1887 L
3891 1732 mt 3963 1732 L
3927 1696 mt 3927 1768 L
3387 1006 mt 3459 1006 L
3423  970 mt 3423 1042 L
4416 2410 mt 4488 2410 L
4452 2374 mt 4452 2446 L
2218 2523 mt 2290 2523 L
2254 2487 mt 2254 2559 L
4338 2175 mt 4410 2175 L
4374 2139 mt 4374 2211 L
5282 3641 mt 5354 3641 L
5318 3605 mt 5318 3677 L
3160 4205 mt 3232 4205 L
3196 4169 mt 3196 4241 L
3116 1794 mt 3188 1794 L
3152 1758 mt 3152 1830 L
3477 2012 mt 3549 2012 L
3513 1976 mt 3513 2048 L
2938 2480 mt 3010 2480 L
2974 2444 mt 2974 2516 L
3757 2713 mt 3829 2713 L
3793 2677 mt 3793 2749 L
2235 3527 mt 2307 3527 L
2271 3491 mt 2271 3563 L
3594 1878 mt 3666 1878 L
3630 1842 mt 3630 1914 L
4306 1572 mt 4378 1572 L
4342 1536 mt 4342 1608 L
3488 2265 mt 3560 2265 L
3524 2229 mt 3524 2301 L
5468 2051 mt 5540 2051 L
5504 2015 mt 5504 2087 L
2821 2519 mt 2893 2519 L
2857 2483 mt 2857 2555 L
3538 2145 mt 3610 2145 L
3574 2109 mt 3574 2181 L
2652 1911 mt 2724 1911 L
2688 1875 mt 2688 1947 L
4330 1917 mt 4402 1917 L
4366 1881 mt 4366 1953 L
2959 2615 mt 3031 2615 L
2995 2579 mt 2995 2651 L
3694 1514 mt 3766 1514 L
3730 1478 mt 3730 1550 L
4009 2170 mt 4081 2170 L
4045 2134 mt 4045 2206 L
4100 1689 mt 4172 1689 L
4136 1653 mt 4136 1725 L
2106 3191 mt 2178 3191 L
2142 3155 mt 2142 3227 L
4597 3774 mt 4669 3774 L
4633 3738 mt 4633 3810 L
4274 1978 mt 4346 1978 L
4310 1942 mt 4310 2014 L
4453 2641 mt 4525 2641 L
4489 2605 mt 4489 2677 L
3033 2356 mt 3105 2356 L
3069 2320 mt 3069 2392 L
3255 2109 mt 3327 2109 L
3291 2073 mt 3291 2145 L
3774 2370 mt 3846 2370 L
3810 2334 mt 3810 2406 L
3627 3235 mt 3699 3235 L
3663 3199 mt 3663 3271 L
1481 1984 mt 1553 1984 L
1517 1948 mt 1517 2020 L
3655 1823 mt 3727 1823 L
3691 1787 mt 3691 1859 L
4282 2311 mt 4354 2311 L
4318 2275 mt 4318 2347 L
2931 2046 mt 3003 2046 L
2967 2010 mt 2967 2082 L
4107 3625 mt 4179 3625 L
4143 3589 mt 4143 3661 L
3104 2536 mt 3176 2536 L
3140 2500 mt 3140 2572 L
5071  414 mt 5143  414 L
5107  378 mt 5107  450 L
3237 2436 mt 3309 2436 L
3273 2400 mt 3273 2472 L
3066 2764 mt 3138 2764 L
3102 2728 mt 3102 2800 L
2381 1634 mt 2453 1634 L
2417 1598 mt 2417 1670 L
2781 2606 mt 2853 2606 L
2817 2570 mt 2817 2642 L
4236  957 mt 4308  957 L
4272  921 mt 4272  993 L
4463 2659 mt 4535 2659 L
4499 2623 mt 4499 2695 L
3740 1049 mt 3812 1049 L
3776 1013 mt 3776 1085 L
2773 2307 mt 2845 2307 L
2809 2271 mt 2809 2343 L
4444 4023 mt 4516 4023 L
4480 3987 mt 4480 4059 L
4981  824 mt 5053  824 L
5017  788 mt 5017  860 L
1722 1502 mt 1794 1502 L
1758 1466 mt 1758 1538 L
4135 1680 mt 4207 1680 L
4171 1644 mt 4171 1716 L
1766 3011 mt 1838 3011 L
1802 2975 mt 1802 3047 L
3172 2089 mt 3244 2089 L
3208 2053 mt 3208 2125 L
5002 3822 mt 5074 3822 L
5038 3786 mt 5038 3858 L
3319 2325 mt 3391 2325 L
3355 2289 mt 3355 2361 L
3353 2024 mt 3425 2024 L
3389 1988 mt 3389 2060 L
3190 2792 mt 3262 2792 L
3226 2756 mt 3226 2828 L
1674 1948 mt 1746 1948 L
1710 1912 mt 1710 1984 L
2555 2722 mt 2627 2722 L
2591 2686 mt 2591 2758 L
5531  724 mt 5603  724 L
5567  688 mt 5567  760 L
2813 1845 mt 2885 1845 L
2849 1809 mt 2849 1881 L
3867 3093 mt 3939 3093 L
3903 3057 mt 3903 3129 L
3879 2104 mt 3951 2104 L
3915 2068 mt 3915 2140 L
3000 1298 mt 3072 1298 L
3036 1262 mt 3036 1334 L
2689 2879 mt 2761 2879 L
2725 2843 mt 2725 2915 L
3527 3005 mt 3599 3005 L
3563 2969 mt 3563 3041 L
5321 1550 mt 5393 1550 L
5357 1514 mt 5357 1586 L
3516 1419 mt 3588 1419 L
3552 1383 mt 3552 1455 L
4121 1892 mt 4193 1892 L
4157 1856 mt 4157 1928 L
4820 3184 mt 4892 3184 L
4856 3148 mt 4856 3220 L
3505 3099 mt 3577 3099 L
3541 3063 mt 3541 3135 L
3751 2978 mt 3823 2978 L
3787 2942 mt 3787 3014 L
3184 3479 mt 3256 3479 L
3220 3443 mt 3220 3515 L
1556 1772 mt 1628 1772 L
1592 1736 mt 1592 1808 L
2993 2820 mt 3065 2820 L
3029 2784 mt 3029 2856 L
5096 1476 mt 5168 1476 L
5132 1440 mt 5132 1512 L
2757 3220 mt 2829 3220 L
2793 3184 mt 2793 3256 L
3762 2388 mt 3834 2388 L
3798 2352 mt 3798 2424 L
2420 2334 mt 2492 2334 L
2456 2298 mt 2456 2370 L
3123 3106 mt 3195 3106 L
3159 3070 mt 3159 3142 L
4482 2067 mt 4554 2067 L
4518 2031 mt 4518 2103 L
3745 2040 mt 3817 2040 L
3781 2004 mt 3781 2076 L
3809 1448 mt 3881 1448 L
3845 1412 mt 3845 1484 L
4472 3675 mt 4544 3675 L
4508 3639 mt 4508 3711 L
4608 1181 mt 4680 1181 L
4644 1145 mt 4644 1217 L
4149 1653 mt 4221 1653 L
4185 1617 mt 4185 1689 L
2063 3877 mt 2135 3877 L
2099 3841 mt 2099 3913 L
4961 1972 mt 5033 1972 L
4997 1936 mt 4997 2008 L
4080 3340 mt 4152 3340 L
4116 3304 mt 4116 3376 L
1805 3112 mt 1877 3112 L
1841 3076 mt 1841 3148 L
3644 2994 mt 3716 2994 L
3680 2958 mt 3680 3030 L
2859 3118 mt 2931 3118 L
2895 3082 mt 2895 3154 L
2040 4305 mt 2112 4305 L
2076 4269 mt 2076 4341 L
4184 3151 mt 4256 3151 L
4220 3115 mt 4220 3187 L
3683 2488 mt 3755 2488 L
3719 2452 mt 3719 2524 L
2828 2914 mt 2900 2914 L
2864 2878 mt 2864 2950 L
6225 1277 mt 6297 1277 L
6261 1241 mt 6261 1313 L
2844 2727 mt 2916 2727 L
2880 2691 mt 2880 2763 L
6033 2035 mt 6105 2035 L
6069 1999 mt 6069 2071 L
2797 1336 mt 2869 1336 L
2833 1300 mt 2833 1372 L
3566 1942 mt 3638 1942 L
3602 1906 mt 3602 1978 L
2917 2884 mt 2989 2884 L
2953 2848 mt 2953 2920 L
3398 2768 mt 3470 2768 L
3434 2732 mt 3434 2804 L
3850 2365 mt 3922 2365 L
3886 2329 mt 3886 2401 L
4243 2593 mt 4315 2593 L
4279 2557 mt 4279 2629 L
3873 2150 mt 3945 2150 L
3909 2114 mt 3909 2186 L
4941 2449 mt 5013 2449 L
4977 2413 mt 4977 2485 L
3610 3711 mt 3682 3711 L
3646 3675 mt 3646 3747 L
3661 2427 mt 3733 2427 L
3697 2391 mt 3697 2463 L
4760 2864 mt 4832 2864 L
4796 2828 mt 4796 2900 L
1842 4616 mt 1914 4616 L
1878 4580 mt 1878 4652 L
3443 1538 mt 3515 1538 L
3479 1502 mt 3479 1574 L
4501 1255 mt 4573 1255 L
4537 1219 mt 4537 1291 L
4643 1838 mt 4715 1838 L
4679 1802 mt 4679 1874 L
4775 1748 mt 4847 1748 L
4811 1712 mt 4811 1784 L
3493 2374 mt 3565 2374 L
3529 2338 mt 3529 2410 L
2910 2125 mt 2982 2125 L
2946 2089 mt 2946 2161 L
3330 2889 mt 3402 2889 L
3366 2853 mt 3366 2925 L
2952 3491 mt 3024 3491 L
2988 3455 mt 2988 3527 L
3208 2532 mt 3280 2532 L
3244 2496 mt 3244 2568 L
4631 2194 mt 4703 2194 L
4667 2158 mt 4667 2230 L
3278 2745 mt 3350 2745 L
3314 2709 mt 3314 2781 L
3059 2750 mt 3131 2750 L
3095 2714 mt 3095 2786 L
3261 1354 mt 3333 1354 L
3297 1318 mt 3297 1390 L
3336 3595 mt 3408 3595 L
3372 3559 mt 3372 3631 L
5180 1671 mt 5252 1671 L
5216 1635 mt 5216 1707 L
3532 1831 mt 3604 1831 L
3568 1795 mt 3568 1867 L
2267 2655 mt 2339 2655 L
2303 2619 mt 2303 2691 L
4805 1995 mt 4877 1995 L
4841 1959 mt 4841 2031 L
3971 2650 mt 4043 2650 L
4007 2614 mt 4007 2686 L
2723 3436 mt 2795 3436 L
2759 3400 mt 2759 3472 L
3958 3000 mt 4030 3000 L
3994 2964 mt 3994 3036 L
3342 2214 mt 3414 2214 L
3378 2178 mt 3378 2250 L
2697 2392 mt 2769 2392 L
2733 2356 mt 2733 2428 L
2183 2633 mt 2255 2633 L
2219 2597 mt 2219 2669 L
3307 2279 mt 3379 2279 L
3343 2243 mt 3343 2315 L
4852  564 mt 4924  564 L
4888  528 mt 4888  600 L
5122 2204 mt 5194 2204 L
5158 2168 mt 5158 2240 L
2368 2951 mt 2440 2951 L
2404 2915 mt 2404 2987 L
3582 2811 mt 3654 2811 L
3618 2775 mt 3618 2847 L
3249 2180 mt 3321 2180 L
3285 2144 mt 3285 2216 L
3040 2007 mt 3112 2007 L
3076 1971 mt 3076 2043 L
5413 1756 mt 5485 1756 L
5449 1720 mt 5449 1792 L
gs 899 414 5363 4203 rc
gr

0 sg
2775 5104 mt 
(\(F,DCTb,GMM\)) s
 482 3300 mt  -90 rotate
(\(F,DCTb,iMLP\)) s
90 rotate
2975  223 mt 
(Corr = 0.29) s

end %%Color Dict

eplot
%%EndObject

epage
end

showpage

%%Trailer
%%EOF
