%!PS-Adobe-3.0 EPSF-3.0
%%Creator: MATLAB, The Mathworks, Inc. Version 7.7.0.471 (R2008b). Operating System: Microsoft Windows XP.
%%Title: Pictures\main_zoo_mvar_analysis_data_BMI_xcorr_bmig_p2_k2_3_4.eps
%%CreationDate: 10/26/2009  05:45:44
%%DocumentNeededFonts: Helvetica
%%DocumentProcessColors: Cyan Magenta Yellow Black
%%LanguageLevel: 2
%%Pages: 1
%%BoundingBox:    37   180   549   616
%%EndComments

%%BeginProlog
% MathWorks dictionary
/MathWorks 160 dict begin
% definition operators
/bdef {bind def} bind def
/ldef {load def} bind def
/xdef {exch def} bdef
/xstore {exch store} bdef
% operator abbreviations
/c  /clip ldef
/cc /concat ldef
/cp /closepath ldef
/gr /grestore ldef
/gs /gsave ldef
/mt /moveto ldef
/np /newpath ldef
/cm /currentmatrix ldef
/sm /setmatrix ldef
/rm /rmoveto ldef
/rl /rlineto ldef
/s {show newpath} bdef
/sc {setcmykcolor} bdef
/sr /setrgbcolor ldef
/sg /setgray ldef
/w /setlinewidth ldef
/j /setlinejoin ldef
/cap /setlinecap ldef
/rc {rectclip} bdef
/rf {rectfill} bdef
% page state control
/pgsv () def
/bpage {/pgsv save def} bdef
/epage {pgsv restore} bdef
/bplot /gsave ldef
/eplot {stroke grestore} bdef
% orientation switch
/portraitMode 0 def /landscapeMode 1 def /rotateMode 2 def
% coordinate system mappings
/dpi2point 0 def
% font control
/FontSize 0 def
/FMS {/FontSize xstore findfont [FontSize 0 0 FontSize neg 0 0]
  makefont setfont} bdef
/ISOLatin1Encoding where {pop /WindowsLatin1Encoding 256 array bdef
ISOLatin1Encoding WindowsLatin1Encoding copy pop
/.notdef/.notdef/quotesinglbase/florin/quotedblbase/ellipsis/dagger
/daggerdbl/circumflex/perthousand/Scaron/guilsinglleft/OE/.notdef/.notdef
/.notdef/.notdef/quoteleft/quoteright/quotedblleft/quotedblright/bullet
/endash/emdash/tilde/trademark/scaron/guilsinglright/oe/.notdef/.notdef
/Ydieresis WindowsLatin1Encoding 128 32 getinterval astore pop}
{/WindowsLatin1Encoding StandardEncoding bdef} ifelse
/reencode {exch dup where {pop load} {pop StandardEncoding} ifelse
  exch dup 3 1 roll findfont dup length dict begin
  { 1 index /FID ne {def}{pop pop} ifelse } forall
  /Encoding exch def currentdict end definefont pop} bdef
/isroman {findfont /CharStrings get /Agrave known} bdef
/FMSR {3 1 roll 1 index dup isroman {reencode} {pop pop} ifelse
  exch FMS} bdef
/csm {1 dpi2point div -1 dpi2point div scale neg translate
 dup landscapeMode eq {pop -90 rotate}
  {rotateMode eq {90 rotate} if} ifelse} bdef
% line types: solid, dotted, dashed, dotdash
/SO { [] 0 setdash } bdef
/DO { [.5 dpi2point mul 4 dpi2point mul] 0 setdash } bdef
/DA { [6 dpi2point mul] 0 setdash } bdef
/DD { [.5 dpi2point mul 4 dpi2point mul 6 dpi2point mul 4
  dpi2point mul] 0 setdash } bdef
% macros for lines and objects
/L {lineto stroke} bdef
/MP {3 1 roll moveto 1 sub {rlineto} repeat} bdef
/AP {{rlineto} repeat} bdef
/PDlw -1 def
/W {/PDlw currentlinewidth def setlinewidth} def
/PP {closepath eofill} bdef
/DP {closepath stroke} bdef
/MR {4 -2 roll moveto dup  0 exch rlineto exch 0 rlineto
  neg 0 exch rlineto closepath} bdef
/FR {MR stroke} bdef
/PR {MR fill} bdef
/L1i {{currentfile picstr readhexstring pop} image} bdef
/tMatrix matrix def
/MakeOval {newpath tMatrix currentmatrix pop translate scale
0 0 1 0 360 arc tMatrix setmatrix} bdef
/FO {MakeOval stroke} bdef
/PO {MakeOval fill} bdef
/PD {currentlinewidth 2 div 0 360 arc fill
   PDlw -1 eq not {PDlw w /PDlw -1 def} if} def
/FA {newpath tMatrix currentmatrix pop translate scale
  0 0 1 5 -2 roll arc tMatrix setmatrix stroke} bdef
/PA {newpath tMatrix currentmatrix pop	translate 0 0 moveto scale
  0 0 1 5 -2 roll arc closepath tMatrix setmatrix fill} bdef
/FAn {newpath tMatrix currentmatrix pop translate scale
  0 0 1 5 -2 roll arcn tMatrix setmatrix stroke} bdef
/PAn {newpath tMatrix currentmatrix pop translate 0 0 moveto scale
  0 0 1 5 -2 roll arcn closepath tMatrix setmatrix fill} bdef
/vradius 0 def /hradius 0 def /lry 0 def
/lrx 0 def /uly 0 def /ulx 0 def /rad 0 def
/MRR {/vradius xdef /hradius xdef /lry xdef /lrx xdef /uly xdef
  /ulx xdef newpath tMatrix currentmatrix pop ulx hradius add uly
  vradius add translate hradius vradius scale 0 0 1 180 270 arc 
  tMatrix setmatrix lrx hradius sub uly vradius add translate
  hradius vradius scale 0 0 1 270 360 arc tMatrix setmatrix
  lrx hradius sub lry vradius sub translate hradius vradius scale
  0 0 1 0 90 arc tMatrix setmatrix ulx hradius add lry vradius sub
  translate hradius vradius scale 0 0 1 90 180 arc tMatrix setmatrix
  closepath} bdef
/FRR {MRR stroke } bdef
/PRR {MRR fill } bdef
/MlrRR {/lry xdef /lrx xdef /uly xdef /ulx xdef /rad lry uly sub 2 div def
  newpath tMatrix currentmatrix pop ulx rad add uly rad add translate
  rad rad scale 0 0 1 90 270 arc tMatrix setmatrix lrx rad sub lry rad
  sub translate rad rad scale 0 0 1 270 90 arc tMatrix setmatrix
  closepath} bdef
/FlrRR {MlrRR stroke } bdef
/PlrRR {MlrRR fill } bdef
/MtbRR {/lry xdef /lrx xdef /uly xdef /ulx xdef /rad lrx ulx sub 2 div def
  newpath tMatrix currentmatrix pop ulx rad add uly rad add translate
  rad rad scale 0 0 1 180 360 arc tMatrix setmatrix lrx rad sub lry rad
  sub translate rad rad scale 0 0 1 0 180 arc tMatrix setmatrix
  closepath} bdef
/FtbRR {MtbRR stroke } bdef
/PtbRR {MtbRR fill } bdef
/stri 6 array def /dtri 6 array def
/smat 6 array def /dmat 6 array def
/tmat1 6 array def /tmat2 6 array def /dif 3 array def
/asub {/ind2 exch def /ind1 exch def dup dup
  ind1 get exch ind2 get sub exch } bdef
/tri_to_matrix {
  2 0 asub 3 1 asub 4 0 asub 5 1 asub
  dup 0 get exch 1 get 7 -1 roll astore } bdef
/compute_transform {
  dmat dtri tri_to_matrix tmat1 invertmatrix 
  smat stri tri_to_matrix tmat2 concatmatrix } bdef
/ds {stri astore pop} bdef
/dt {dtri astore pop} bdef
/db {2 copy /cols xdef /rows xdef mul dup 3 mul string
  currentfile 
  3 index 0 eq {/ASCIIHexDecode filter}
  {/ASCII85Decode filter 3 index 2 eq {/RunLengthDecode filter} if }
  ifelse exch readstring pop
  dup 0 3 index getinterval /rbmap xdef
  dup 2 index dup getinterval /gbmap xdef
  1 index dup 2 mul exch getinterval /bbmap xdef pop pop}bdef
/it {gs np dtri aload pop moveto lineto lineto cp c
  cols rows 8 compute_transform 
  rbmap gbmap bbmap true 3 colorimage gr}bdef
/il {newpath moveto lineto stroke}bdef
currentdict end def
%%EndProlog

%%BeginSetup
MathWorks begin

0 cap

end
%%EndSetup

%%Page: 1 1
%%BeginPageSetup
%%PageBoundingBox:    37   180   549   616
MathWorks begin
bpage
%%EndPageSetup

%%BeginObject: obj1
bplot

/dpi2point 12 def
portraitMode 0216 7344 csm

  234   -48  6149  5231 rc
85 dict begin %Colortable dictionary
/c0 { 0.000000 0.000000 0.000000 sr} bdef
/c1 { 1.000000 1.000000 1.000000 sr} bdef
/c2 { 0.900000 0.000000 0.000000 sr} bdef
/c3 { 0.000000 0.820000 0.000000 sr} bdef
/c4 { 0.000000 0.000000 0.800000 sr} bdef
/c5 { 0.910000 0.820000 0.320000 sr} bdef
/c6 { 1.000000 0.260000 0.820000 sr} bdef
/c7 { 0.000000 0.820000 0.820000 sr} bdef
c0
1 j
1 sg
   0    0 6919 5187 rf
6 w
0 4202 5362 0 0 -4202 899 4616 4 MP
PP
-5362 0 0 4202 5362 0 0 -4202 899 4616 5 MP stroke
4 w
DO
SO
6 w
0 sg
 899  414 mt 6261  414 L
 899 4616 mt 6261 4616 L
6261 4616 mt 6261  414 L
 899 4616 mt  899  414 L
 899 4616 mt 6261 4616 L
 899 4616 mt  899  414 L
 919 4616 mt  919 4562 L
 919  414 mt  919  467 L
%%IncludeResource: font Helvetica
/Helvetica /WindowsLatin1Encoding 240 FMSR

 713 4873 mt 
(-3) s
1806 4616 mt 1806 4562 L
1806  414 mt 1806  467 L
1600 4873 mt 
(-2) s
2693 4616 mt 2693 4562 L
2693  414 mt 2693  467 L
2487 4873 mt 
(-1) s
3580 4616 mt 3580 4562 L
3580  414 mt 3580  467 L
3514 4873 mt 
(0) s
4466 4616 mt 4466 4562 L
4466  414 mt 4466  467 L
4400 4873 mt 
(1) s
5353 4616 mt 5353 4562 L
5353  414 mt 5353  467 L
5287 4873 mt 
(2) s
6240 4616 mt 6240 4562 L
6240  414 mt 6240  467 L
6174 4873 mt 
(3) s
 899 4599 mt  952 4599 L
6261 4599 mt 6207 4599 L
 591 4688 mt 
(-3) s
 899 3904 mt  952 3904 L
6261 3904 mt 6207 3904 L
 591 3993 mt 
(-2) s
 899 3209 mt  952 3209 L
6261 3209 mt 6207 3209 L
 591 3298 mt 
(-1) s
 899 2514 mt  952 2514 L
6261 2514 mt 6207 2514 L
 731 2603 mt 
(0) s
 899 1820 mt  952 1820 L
6261 1820 mt 6207 1820 L
 731 1909 mt 
(1) s
 899 1125 mt  952 1125 L
6261 1125 mt 6207 1125 L
 731 1214 mt 
(2) s
 899  430 mt  952  430 L
6261  430 mt 6207  430 L
 731  519 mt 
(3) s
 899  414 mt 6261  414 L
 899 4616 mt 6261 4616 L
6261 4616 mt 6261  414 L
 899 4616 mt  899  414 L
gs 899 414 5363 4203 rc
gr

/c8 { 0.000000 0.000000 1.000000 sr} bdef
c8
5150 1538 mt 5222 1538 L
5186 1502 mt 5186 1574 L
4501 1680 mt 4573 1680 L
4537 1644 mt 4537 1716 L
2394 3908 mt 2466 3908 L
2430 3872 mt 2430 3944 L
5468 2007 mt 5540 2007 L
5504 1971 mt 5504 2043 L
4492 1207 mt 4564 1207 L
4528 1171 mt 4528 1243 L
3261 2673 mt 3333 2673 L
3297 2637 mt 3297 2709 L
5365 3515 mt 5437 3515 L
5401 3479 mt 5401 3551 L
3661 3980 mt 3733 3980 L
3697 3944 mt 3697 4016 L
3885 1740 mt 3957 1740 L
3921 1704 mt 3921 1776 L
2251 3848 mt 2323 3848 L
2287 3812 mt 2287 3884 L
4094 1972 mt 4166 1972 L
4130 1936 mt 4130 2008 L
4981 2365 mt 5053 2365 L
5017 2329 mt 5017 2401 L
2468 2695 mt 2540 2695 L
2504 2659 mt 2504 2731 L
5531 1404 mt 5603 1404 L
5567 1368 mt 5567 1440 L
3582 1643 mt 3654 1643 L
3618 1607 mt 3618 1679 L
3202 2736 mt 3274 2736 L
3238 2700 mt 3238 2772 L
5071 2051 mt 5143 2051 L
5107 2015 mt 5107 2087 L
3964 2370 mt 4036 2370 L
4000 2334 mt 4000 2406 L
2773 3331 mt 2845 3331 L
2809 3295 mt 2809 3367 L
4121 2889 mt 4193 2889 L
4157 2853 mt 4157 2925 L
3376 2633 mt 3448 2633 L
3412 2597 mt 3412 2669 L
4221 3436 mt 4293 3436 L
4257 3400 mt 4257 3472 L
3809 1930 mt 3881 1930 L
3845 1894 mt 3845 1966 L
3677 3306 mt 3749 3306 L
3713 3270 mt 3713 3342 L
3190 3376 mt 3262 3376 L
3226 3340 mt 3226 3412 L
3353 1698 mt 3425 1698 L
3389 1662 mt 3389 1734 L
1876 2545 mt 1948 2545 L
1912 2509 mt 1912 2581 L
2715 2458 mt 2787 2458 L
2751 2422 mt 2751 2494 L
4251 2242 mt 4323 2242 L
4287 2206 mt 4287 2278 L
3934 1354 mt 4006 1354 L
3970 1318 mt 3970 1390 L
4775 2388 mt 4847 2388 L
4811 2352 mt 4811 2424 L
3488 4616 mt 3560 4616 L
3524 4580 mt 3524 4652 L
2555 2094 mt 2627 2094 L
2591 2058 mt 2591 2130 L
1619 2713 mt 1691 2713 L
1655 2677 mt 1655 2749 L
5002 2209 mt 5074 2209 L
5038 2173 mt 5038 2245 L
2016 2914 mt 2088 2914 L
2052 2878 mt 2052 2950 L
3826 2745 mt 3898 2745 L
3862 2709 mt 3862 2781 L
4564 2180 mt 4636 2180 L
4600 2144 mt 4600 2216 L
3129 3797 mt 3201 3797 L
3165 3761 mt 3165 3833 L
4463 2024 mt 4535 2024 L
4499 1988 mt 4499 2060 L
2218 3658 mt 2290 3658 L
2254 3622 mt 2254 3694 L
4608 1561 mt 4680 1561 L
4644 1525 mt 4644 1597 L
2888 3877 mt 2960 3877 L
2924 3841 mt 2924 3913 L
4021 4205 mt 4093 4205 L
4057 4169 mt 4057 4241 L
3267 2519 mt 3339 2519 L
3303 2483 mt 3303 2555 L
2821 3022 mt 2893 3022 L
2857 2986 mt 2857 3058 L
3768  414 mt 3840  414 L
3804  378 mt 3804  450 L
2973 3405 mt 3045 3405 L
3009 3369 mt 3009 3441 L
1842 2214 mt 1914 2214 L
1878 2178 mt 1878 2250 L
3226 1232 mt 3298 1232 L
3262 1196 mt 3262 1268 L
4364 2423 mt 4436 2423 L
4400 2387 mt 4400 2459 L
4381 2160 mt 4453 2160 L
4417 2124 mt 4417 2196 L
4512 2806 mt 4584 2806 L
4548 2770 mt 4548 2842 L
2444 3322 mt 2516 3322 L
2480 3286 mt 2480 3358 L
3977 1851 mt 4049 1851 L
4013 1815 mt 4013 1887 L
2432 3281 mt 2504 3281 L
2468 3245 mt 2468 3317 L
3879 2185 mt 3951 2185 L
3915 2149 mt 3915 2221 L
3098 3198 mt 3170 3198 L
3134 3162 mt 3134 3234 L
3560 2125 mt 3632 2125 L
3596 2089 mt 3596 2161 L
2534 1838 mt 2606 1838 L
2570 1802 mt 2570 1874 L
2282 2165 mt 2354 2165 L
2318 2129 mt 2318 2201 L
3141 2298 mt 3213 2298 L
3177 2262 mt 3177 2334 L
3460 3553 mt 3532 3553 L
3496 3517 mt 3496 3589 L
2910 2628 mt 2982 2628 L
2946 2592 mt 2946 2664 L
5096 2418 mt 5168 2418 L
5132 2382 mt 5132 2454 L
3381 2189 mt 3453 2189 L
3417 2153 mt 3417 2225 L
4163 2062 mt 4235 2062 L
4199 2026 mt 4199 2098 L
3689 1872 mt 3761 1872 L
3725 1836 mt 3725 1908 L
3745 2307 mt 3817 2307 L
3781 2271 mt 3781 2343 L
3605 2602 mt 3677 2602 L
3641 2566 mt 3641 2638 L
3855 2445 mt 3927 2445 L
3891 2409 mt 3891 2481 L
2063 3250 mt 2135 3250 L
2099 3214 mt 2099 3286 L
2844 2083 mt 2916 2083 L
2880 2047 mt 2880 2119 L
3160 2223 mt 3232 2223 L
3196 2187 mt 3196 2259 L
3952 2237 mt 4024 2237 L
3988 2201 mt 3988 2273 L
3621 1489 mt 3693 1489 L
3657 1453 mt 3657 1525 L
1766 2567 mt 1838 2567 L
1802 2531 mt 1802 2603 L
2749 3011 mt 2821 3011 L
2785 2975 mt 2785 3047 L
4585 1181 mt 4657 1181 L
4621 1145 mt 4621 1217 L
3307 1723 mt 3379 1723 L
3343 1687 mt 3343 1759 L
3404 2293 mt 3476 2293 L
3440 2257 mt 3440 2329 L
3208 2709 mt 3280 2709 L
3244 2673 mt 3244 2745 L
2987 2930 mt 3059 2930 L
3023 2894 mt 3023 2966 L
3958 2329 mt 4030 2329 L
3994 2293 mt 3994 2365 L
3566 3045 mt 3638 3045 L
3602 3009 mt 3602 3081 L
4128 3081 mt 4200 3081 L
4164 3045 mt 4164 3117 L
5700 2104 mt 5772 2104 L
5736 2068 mt 5736 2140 L
3426 2145 mt 3498 2145 L
3462 2109 mt 3462 2181 L
3940 3641 mt 4012 3641 L
3976 3605 mt 3976 3677 L
4522 2825 mt 4594 2825 L
4558 2789 mt 4558 2861 L
4482 2664 mt 4554 2664 L
4518 2628 mt 4518 2700 L
3538  957 mt 3610  957 L
3574  921 mt 3574  993 L
4330 2325 mt 4402 2325 L
4366 2289 mt 4366 2361 L
2881 3220 mt 2953 3220 L
2917 3184 mt 2917 3256 L
3370 2615 mt 3442 2615 L
3406 2579 mt 3406 2651 L
3359 3171 mt 3431 3171 L
3395 3135 mt 3395 3207 L
3521 3289 mt 3593 3289 L
3557 3253 mt 3557 3325 L
4398 2256 mt 4470 2256 L
4434 2220 mt 4434 2292 L
5180 2801 mt 5252 2801 L
5216 2765 mt 5216 2837 L
2789 1049 mt 2861 1049 L
2825 1013 mt 2825 1085 L
3000 2854 mt 3072 2854 L
3036 2818 mt 3036 2890 L
3342 1936 mt 3414 1936 L
3378 1900 mt 3378 1972 L
2355 2414 mt 2427 2414 L
2391 2378 mt 2391 2450 L
2689 2899 mt 2761 2899 L
2725 2863 mt 2725 2935 L
3085 2940 mt 3157 2940 L
3121 2904 mt 3121 2976 L
4655 1434 mt 4727 1434 L
4691 1398 mt 4691 1470 L
4886 2251 mt 4958 2251 L
4922 2215 mt 4922 2287 L
3443 3039 mt 3515 3039 L
3479 3003 mt 3479 3075 L
4228 2764 mt 4300 2764 L
4264 2728 mt 4264 2800 L
5282 2773 mt 5354 2773 L
5318 2737 mt 5318 2809 L
4390 2554 mt 4462 2554 L
4426 2518 mt 4426 2590 L
3147 3075 mt 3219 3075 L
3183 3039 mt 3183 3111 L
4904 3069 mt 4976 3069 L
4940 3033 mt 4940 3105 L
4184 2962 mt 4256 2962 L
4220 2926 mt 4220 2998 L
3104 2754 mt 3176 2754 L
3140 2718 mt 3140 2790 L
4298 2972 mt 4370 2972 L
4334 2936 mt 4334 3008 L
4306 2288 mt 4378 2288 L
4342 2252 mt 4342 2324 L
3740 3491 mt 3812 3491 L
3776 3455 mt 3776 3527 L
4266 2989 mt 4338 2989 L
4302 2953 mt 4302 3025 L
5047 1831 mt 5119 1831 L
5083 1795 mt 5083 1867 L
3644 2462 mt 3716 2462 L
3680 2426 mt 3680 2498 L
1805 2338 mt 1877 2338 L
1841 2302 mt 1841 2374 L
4290 2686 mt 4362 2686 L
4326 2650 mt 4326 2722 L
2634 1748 mt 2706 1748 L
2670 1712 mt 2670 1784 L
3694  898 mt 3766  898 L
3730  862 mt 3730  934 L
4789 1526 mt 4861 1526 L
4825 1490 mt 4825 1562 L
3330 2247 mt 3402 2247 L
3366 2211 mt 3366 2283 L
4416 1794 mt 4488 1794 L
4452 1758 mt 4452 1830 L
2341 2884 mt 2413 2884 L
2377 2848 mt 2377 2920 L
2757 3446 mt 2829 3446 L
2793 3410 mt 2793 3482 L
5211  824 mt 5283  824 L
5247  788 mt 5247  860 L
4760 2432 mt 4832 2432 L
4796 2396 mt 4796 2468 L
4087 2951 mt 4159 2951 L
4123 2915 mt 4123 2987 L
5413 1787 mt 5485 1787 L
5449 1751 mt 5449 1823 L
2106 2946 mt 2178 2946 L
2142 2910 mt 2142 2982 L
1674 2480 mt 1746 2480 L
1710 2444 mt 1710 2516 L
3711 3595 mt 3783 3595 L
3747 3559 mt 3747 3631 L
3571 2320 mt 3643 2320 L
3607 2284 mt 3607 2356 L
2595 2120 mt 2667 2120 L
2631 2084 mt 2631 2156 L
3033 2580 mt 3105 2580 L
3069 2544 mt 3069 2616 L
3347 2606 mt 3419 2606 L
3383 2570 mt 3383 2642 L
2938 2099 mt 3010 2099 L
2974 2063 mt 2974 2135 L
2085 1764 mt 2157 1764 L
2121 1728 mt 2121 1800 L
2740 3235 mt 2812 3235 L
2776 3199 mt 2776 3271 L
3184 2471 mt 3256 2471 L
3220 2435 mt 3220 2507 L
3672 2909 mt 3744 2909 L
3708 2873 mt 3708 2945 L
3927 2849 mt 3999 2849 L
3963 2813 mt 3963 2885 L
3780 3125 mt 3852 3125 L
3816 3089 mt 3816 3161 L
2545 2571 mt 2617 2571 L
2581 2535 mt 2581 2607 L
2671 2475 mt 2743 2475 L
2707 2439 mt 2707 2511 L
4028 2109 mt 4100 2109 L
4064 2073 mt 4064 2145 L
3891 2334 mt 3963 2334 L
3927 2298 mt 3927 2370 L
3762 2352 mt 3834 2352 L
3798 2316 mt 3798 2388 L
3220 2659 mt 3292 2659 L
3256 2623 mt 3256 2695 L
3516 1671 mt 3588 1671 L
3552 1635 mt 3552 1707 L
4435 2140 mt 4507 2140 L
4471 2104 mt 4471 2176 L
3020 3184 mt 3092 3184 L
3056 3148 mt 3056 3220 L
4631 2646 mt 4703 2646 L
4667 2610 mt 4667 2682 L
3610 3340 mt 3682 3340 L
3646 3304 mt 3646 3376 L
4680 2718 mt 4752 2718 L
4716 2682 mt 4716 2754 L
2490 2722 mt 2562 2722 L
2526 2686 mt 2526 2758 L
4067 3057 mt 4139 3057 L
4103 3021 mt 4103 3093 L
3797 3144 mt 3869 3144 L
3833 3108 mt 3833 3180 L
4009 2467 mt 4081 2467 L
4045 2431 mt 4045 2503 L
4732 1448 mt 4804 1448 L
4768 1412 mt 4768 1484 L
2575 3297 mt 2647 3297 L
2611 3261 mt 2611 3333 L
3723 2787 mt 3795 2787 L
3759 2751 mt 3759 2823 L
3007 2593 mt 3079 2593 L
3043 2557 mt 3043 2629 L
2327 1006 mt 2399 1006 L
2363  970 mt 2363 1042 L
3921 1911 mt 3993 1911 L
3957 1875 mt 3957 1947 L
4532 1634 mt 4604 1634 L
4568 1598 mt 4568 1670 L
3791 1550 mt 3863 1550 L
3827 1514 mt 3827 1586 L
3757 1419 mt 3829 1419 L
3793 1383 mt 3793 1455 L
4553 2194 mt 4625 2194 L
4589 2158 mt 4589 2230 L
4206 2558 mt 4278 2558 L
4242 2522 mt 4242 2594 L
4574 1917 mt 4646 1917 L
4610 1881 mt 4610 1953 L
3638 1898 mt 3710 1898 L
3674 1862 mt 3674 1934 L
4259 3151 mt 4331 3151 L
4295 3115 mt 4295 3187 L
3505 2155 mt 3577 2155 L
3541 2119 mt 3541 2191 L
4114 2731 mt 4186 2731 L
4150 2695 mt 4150 2767 L
3027 3164 mt 3099 3164 L
3063 3128 mt 3063 3200 L
4805  564 mt 4877  564 L
4841  528 mt 4841  600 L
3278 2012 mt 3350 2012 L
3314 1976 mt 3314 2048 L
3549 2356 mt 3621 2356 L
3585 2320 mt 3585 2392 L
5122 3731 mt 5194 3731 L
5158 3695 mt 5158 3767 L
2502 3118 mt 2574 3118 L
2538 3082 mt 2538 3154 L
4693 2040 mt 4765 2040 L
4729 2004 mt 4729 2076 L
1937 3131 mt 2009 3131 L
1973 3095 mt 1973 3167 L
2605 2453 mt 2677 2453 L
2641 2417 mt 2641 2489 L
5024 2279 mt 5096 2279 L
5060 2243 mt 5060 2315 L
1556 2778 mt 1628 2778 L
1592 2742 mt 1592 2814 L
2859 3137 mt 2931 3137 L
2895 3101 mt 2895 3173 L
2931 3028 mt 3003 3028 L
2967 2992 mt 2967 3064 L
3135 2361 mt 3207 2361 L
3171 2325 mt 3171 2397 L
3717 2046 mt 3789 2046 L
3753 2010 mt 3753 2082 L
3971 1514 mt 4043 1514 L
4007 1478 mt 4007 1550 L
3123 3625 mt 3195 3625 L
3159 3589 mt 3159 3661 L
3466 3527 mt 3538 3527 L
3502 3491 mt 3502 3563 L
3532 2704 mt 3604 2704 L
3568 2668 mt 3568 2740 L
4407 3005 mt 4479 3005 L
4443 2969 mt 4443 3041 L
4597 2396 mt 4669 2396 L
4633 2360 mt 4633 2432 L
3873 1845 mt 3945 1845 L
3909 1809 mt 3909 1881 L
2624 3752 mt 2696 3752 L
2660 3716 mt 2660 3788 L
2903 3358 mt 2975 3358 L
2939 3322 mt 2939 3394 L
4852 1954 mt 4924 1954 L
4888 1918 mt 4888 1990 L
2980 2956 mt 3052 2956 L
3016 2920 mt 3016 2992 L
3706 3273 mt 3778 3273 L
3742 3237 mt 3742 3309 L
3091 2741 mt 3163 2741 L
3127 2705 mt 3127 2777 L
4322 1707 mt 4394 1707 L
4358 1671 mt 4358 1743 L
2126 3822 mt 2198 3822 L
2162 3786 mt 2162 3858 L
3594 1756 mt 3666 1756 L
3630 1720 mt 3630 1792 L
4156 2067 mt 4228 2067 L
4192 2031 mt 4192 2103 L
3013 2782 mt 3085 2782 L
3049 2746 mt 3049 2818 L
2805 3395 mt 2877 3395 L
2841 3359 mt 2841 3431 L
3110 1715 mt 3182 1715 L
3146 1679 mt 3146 1751 L
4002 2501 mt 4074 2501 L
4038 2465 mt 4038 2537 L
3449 2904 mt 3521 2904 L
3485 2868 mt 3485 2940 L
4472 2584 mt 4544 2584 L
4508 2548 mt 4508 2620 L
2732 3034 mt 2804 3034 L
2768 2998 mt 2768 3070 L
3814 2436 mt 3886 2436 L
3850 2400 mt 3850 2472 L
2874 2869 mt 2946 2869 L
2910 2833 mt 2910 2905 L
3421 2410 mt 3493 2410 L
3457 2374 mt 3457 2446 L
2813 2536 mt 2885 2536 L
2849 2500 mt 2849 2572 L
2652 4072 mt 2724 4072 L
2688 4036 mt 2688 4108 L
4643 3479 mt 4715 3479 L
4679 3443 mt 4679 3515 L
3072 2261 mt 3144 2261 L
3108 2225 mt 3108 2297 L
5828 2811 mt 5900 2811 L
5864 2775 mt 5864 2847 L
4034 3675 mt 4106 3675 L
4070 3639 mt 4070 3711 L
3734 1892 mt 3806 1892 L
3770 1856 mt 3770 1928 L
3482 2576 mt 3554 2576 L
3518 2540 mt 3518 2612 L
3237 3386 mt 3309 3386 L
3273 3350 mt 3273 3422 L
2235 2677 mt 2307 2677 L
2271 2641 mt 2271 2713 L
3820 2270 mt 3892 2270 L
3856 2234 mt 3856 2306 L
2523 2700 mt 2595 2700 L
2559 2664 mt 2559 2736 L
3832 2562 mt 3904 2562 L
3868 2526 mt 3868 2598 L
2407 3415 mt 2479 3415 L
2443 3379 mt 2443 3451 L
3844 2978 mt 3916 2978 L
3880 2942 mt 3880 3014 L
4922 2820 mt 4994 2820 L
4958 2784 mt 4958 2856 L
4213 3112 mt 4285 3112 L
4249 3076 mt 4249 3148 L
6033 3017 mt 6105 3017 L
6069 2981 mt 6069 3053 L
3493 3265 mt 3565 3265 L
3529 3229 mt 3529 3301 L
3046 2265 mt 3118 2265 L
3082 2229 mt 3082 2301 L
4236 1689 mt 4308 1689 L
4272 1653 mt 4272 1725 L
2586 3051 mt 2658 3051 L
2622 3015 mt 2622 3087 L
3527 2874 mt 3599 2874 L
3563 2838 mt 3563 2910 L
3398 1823 mt 3470 1823 L
3434 1787 mt 3434 1859 L
3599 2835 mt 3671 2835 L
3635 2799 mt 3635 2871 L
3454 3178 mt 3526 3178 L
3490 3142 mt 3490 3214 L
3290 2815 mt 3362 2815 L
3326 2779 mt 3326 2851 L
2781 2768 mt 2853 2768 L
2817 2732 mt 2817 2804 L
4015 2514 mt 4087 2514 L
4051 2478 mt 4051 2550 L
3243 1885 mt 3315 1885 L
3279 1849 mt 3279 1921 L
1907 3093 mt 1979 3093 L
1943 3057 mt 1943 3129 L
2565 2792 mt 2637 2792 L
2601 2756 mt 2601 2828 L
3471 1990 mt 3543 1990 L
3507 1954 mt 3507 2026 L
2513 4131 mt 2585 4131 L
2549 4095 mt 2549 4167 L
4869 2840 mt 4941 2840 L
4905 2804 mt 4905 2876 L
3627 2894 mt 3699 2894 L
3663 2858 mt 3663 2930 L
4444 2150 mt 4516 2150 L
4480 2114 mt 4480 2186 L
3499 2228 mt 3571 2228 L
3535 2192 mt 3535 2264 L
4453 2727 mt 4525 2727 L
4489 2691 mt 4489 2763 L
2697 1816 mt 2769 1816 L
2733 1780 mt 2733 1852 L
2662 2001 mt 2734 2001 L
2698 1965 mt 2698 2037 L
2959 3087 mt 3031 3087 L
2995 3051 mt 2995 3123 L
3774 1255 mt 3846 1255 L
3810 1219 mt 3810 1291 L
3510 2233 mt 3582 2233 L
3546 2197 mt 3546 2269 L
4338 2844 mt 4410 2844 L
4374 2808 mt 4374 2880 L
3387 1318 mt 3459 1318 L
3423 1282 mt 3423 1354 L
4836 2379 mt 4908 2379 L
4872 2343 mt 4872 2415 L
3336 2089 mt 3408 2089 L
3372 2053 mt 3372 2125 L
2680 2204 mt 2752 2204 L
2716 2168 mt 2716 2240 L
3393 1502 mt 3465 1502 L
3429 1466 mt 3429 1538 L
4282 1858 mt 4354 1858 L
4318 1822 mt 4318 1894 L
4347 3942 mt 4419 3942 L
4383 3906 mt 4383 3978 L
4170 1087 mt 4242 1087 L
4206 1051 mt 4206 1123 L
3284 3567 mt 3356 3567 L
3320 3531 mt 3320 3603 L
4746 2018 mt 4818 2018 L
4782 1982 mt 4782 2054 L
3577 2493 mt 3649 2493 L
3613 2457 mt 3613 2529 L
3850 1942 mt 3922 1942 L
3886 1906 mt 3886 1978 L
4719 2170 mt 4791 2170 L
4755 2134 mt 4755 2206 L
3249 1984 mt 3321 1984 L
3285 1948 mt 3285 2020 L
3255 1604 mt 3327 1604 L
3291 1568 mt 3291 1640 L
2040 4023 mt 2112 4023 L
2076 3987 mt 2076 4059 L
2615 2311 mt 2687 2311 L
2651 2275 mt 2651 2347 L
4542 2218 mt 4614 2218 L
4578 2182 mt 4578 2254 L
3273 3468 mt 3345 3468 L
3309 3432 mt 3309 3504 L
3903 2347 mt 3975 2347 L
3939 2311 mt 3939 2383 L
5606 2405 mt 5678 2405 L
5642 2369 mt 5642 2441 L
4274 1732 mt 4346 1732 L
4310 1696 mt 4310 1768 L
3066 2597 mt 3138 2597 L
3102 2561 mt 3102 2633 L
3861 2383 mt 3933 2383 L
3897 2347 mt 3897 2419 L
4142 1476 mt 4214 1476 L
4178 1440 mt 4178 1512 L
2866 1298 mt 2938 1298 L
2902 1262 mt 2902 1334 L
3544 1662 mt 3616 1662 L
3580 1626 mt 3580 1698 L
2479 2532 mt 2551 2532 L
2515 2496 mt 2515 2568 L
3415 2994 mt 3487 2994 L
3451 2958 mt 3451 3030 L
3410 2655 mt 3482 2655 L
3446 2619 mt 3446 2691 L
3477  724 mt 3549  724 L
3513  688 mt 3513  760 L
2797 2284 mt 2869 2284 L
2833 2248 mt 2833 2320 L
1259 1653 mt 1331 1653 L
1295 1617 mt 1295 1689 L
4425 2057 mt 4497 2057 L
4461 2021 mt 4461 2093 L
3040 2691 mt 3112 2691 L
3076 2655 mt 3076 2727 L
3172 1779 mt 3244 1779 L
3208 1743 mt 3208 1815 L
2706 2830 mt 2778 2830 L
2742 2794 mt 2742 2866 L
4820 2624 mt 4892 2624 L
4856 2588 mt 4856 2660 L
2146 3581 mt 2218 3581 L
2182 3545 mt 2182 3617 L
3232 3693 mt 3304 3693 L
3268 3657 mt 3268 3729 L
2298 2650 mt 2370 2650 L
2334 2614 mt 2334 2686 L
4149 3503 mt 4221 3503 L
4185 3467 mt 4185 3539 L
2924 2302 mt 2996 2302 L
2960 2266 mt 2960 2338 L
3153 3457 mt 3225 3457 L
3189 3421 mt 3189 3493 L
5321 1948 mt 5393 1948 L
5357 1912 mt 5357 1984 L
3059 2967 mt 3131 2967 L
3095 2931 mt 3095 3003 L
4372 2983 mt 4444 2983 L
4408 2947 mt 4408 3019 L
2917 2175 mt 2989 2175 L
2953 2139 mt 2953 2211 L
2851 2920 mt 2923 2920 L
2887 2884 mt 2887 2956 L
4961 2497 mt 5033 2497 L
4997 2461 mt 4997 2533 L
4941 2130 mt 5013 2130 L
4977 2094 mt 4977 2166 L
4107 2343 mt 4179 2343 L
4143 2307 mt 4143 2379 L
2312 2859 mt 2384 2859 L
2348 2823 mt 2348 2895 L
4355 2401 mt 4427 2401 L
4391 2365 mt 4391 2437 L
1481 2668 mt 1553 2668 L
1517 2632 mt 1517 2704 L
4041 2374 mt 4113 2374 L
4077 2338 mt 4077 2410 L
4199 2316 mt 4271 2316 L
4235 2280 mt 4235 2352 L
3116 1152 mt 3188 1152 L
3152 1116 mt 3152 1188 L
4100 1978 mt 4172 1978 L
4136 1942 mt 4136 2014 L
2952 4305 mt 3024 4305 L
2988 4269 mt 2988 4341 L
3053 2440 mt 3125 2440 L
3089 2404 mt 3089 2476 L
2723 3106 mt 2795 3106 L
2759 3070 mt 2759 3142 L
3751 3000 mt 3823 3000 L
3787 2964 mt 3787 3036 L
3364 2682 mt 3436 2682 L
3400 2646 mt 3400 2718 L
2765 1336 mt 2837 1336 L
2801 1300 mt 2801 1372 L
3867 2641 mt 3939 2641 L
3903 2605 mt 3903 2677 L
2183 2073 mt 2255 2073 L
2219 2037 mt 2219 2109 L
2993 2275 mt 3065 2275 L
3029 2239 mt 3029 2311 L
1722 2523 mt 1794 2523 L
1758 2487 mt 1758 2559 L
2456 1772 mt 2528 1772 L
2492 1736 mt 2492 1808 L
2836 1865 mt 2908 1865 L
2872 1829 mt 2872 1901 L
4706 1802 mt 4778 1802 L
4742 1766 mt 4742 1838 L
2368 2549 mt 2440 2549 L
2404 2513 mt 2404 2585 L
2267 1624 mt 2339 1624 L
2303 1588 mt 2303 1660 L
3633 2449 mt 3705 2449 L
3669 2413 mt 3669 2485 L
3432 2925 mt 3504 2925 L
3468 2889 mt 3468 2961 L
1965 3206 mt 2037 3206 L
2001 3170 mt 2001 3242 L
3319 3774 mt 3391 3774 L
3355 3738 mt 3355 3810 L
3196 2611 mt 3268 2611 L
3232 2575 mt 3232 2647 L
3178 2427 mt 3250 2427 L
3214 2391 mt 3214 2463 L
3700 2759 mt 3772 2759 L
3736 2723 mt 3736 2795 L
3296 2750 mt 3368 2750 L
3332 2714 mt 3332 2786 L
3555 1960 mt 3627 1960 L
3591 1924 mt 3591 1996 L
3915 2135 mt 3987 2135 L
3951 2099 mt 3951 2171 L
1991 3367 mt 2063 3367 L
2027 3331 mt 2027 3403 L
3313 3314 mt 3385 3314 L
3349 3278 mt 3349 3350 L
4191 2589 mt 4263 2589 L
4227 2553 mt 4227 2625 L
2966 1371 mt 3038 1371 L
3002 1335 mt 3002 1407 L
2896 2935 mt 2968 2935 L
2932 2899 mt 2932 2971 L
2165 3425 mt 2237 3425 L
2201 3389 mt 2201 3461 L
3655 3227 mt 3727 3227 L
3691 3191 mt 3691 3263 L
4074 3099 mt 4146 3099 L
4110 3063 mt 4110 3135 L
2643 3610 mt 2715 3610 L
2679 3574 mt 2679 3646 L
3438 3349 mt 3510 3349 L
3474 3313 mt 3474 3385 L
3649 1966 mt 3721 1966 L
3685 1930 mt 3685 2002 L
5245 1614 mt 5317 1614 L
5281 1578 mt 5281 1650 L
4054 2029 mt 4126 2029 L
4090 1993 mt 4090 2065 L
3897 2199 mt 3969 2199 L
3933 2163 mt 3933 2235 L
3325 3711 mt 3397 3711 L
3361 3675 mt 3361 3747 L
3728 3213 mt 3800 3213 L
3764 3177 mt 3764 3249 L
2828 1388 mt 2900 1388 L
2864 1352 mt 2864 1424 L
3588 2078 mt 3660 2078 L
3624 2042 mt 3624 2114 L
3616 1995 mt 3688 1995 L
3652 1959 mt 3652 2031 L
3785 2392 mt 3857 2392 L
3821 2356 mt 3821 2428 L
4135 1572 mt 4207 1572 L
4171 1536 mt 4171 1608 L
3983 2619 mt 4055 2619 L
4019 2583 mt 4019 2655 L
3683 2115 mt 3755 2115 L
3719 2079 mt 3719 2151 L
4177 2879 mt 4249 2879 L
4213 2843 mt 4213 2915 L
3838 1121 mt 3910 1121 L
3874 1085 mt 3874 1157 L
6225 3242 mt 6297 3242 L
6261 3206 mt 6261 3278 L
3909 2864 mt 3981 2864 L
3945 2828 mt 3945 2900 L
2201 3157 mt 2273 3157 L
2237 3121 mt 2237 3193 L
3946 3540 mt 4018 3540 L
3982 3504 mt 3982 3576 L
3996 2528 mt 4068 2528 L
4032 2492 mt 4032 2564 L
3989 1904 mt 4061 1904 L
4025 1868 mt 4025 1940 L
4243 1593 mt 4315 1593 L
4279 1557 mt 4279 1629 L
2420 1923 mt 2492 1923 L
2456 1887 mt 2456 1959 L
4667 2541 mt 4739 2541 L
4703 2505 mt 4703 2577 L
4047 3191 mt 4119 3191 L
4083 3155 mt 4083 3227 L
1387 2637 mt 1459 2637 L
1423 2601 mt 1423 2673 L
 863 2506 mt  935 2506 L
 899 2470 mt  899 2542 L
2945 3063 mt 3017 3063 L
2981 3027 mt 2981 3099 L
4314 1878 mt 4386 1878 L
4350 1842 mt 4350 1914 L
3214 2510 mt 3286 2510 L
3250 2474 mt 3250 2546 L
3166 2488 mt 3238 2488 L
3202 2452 mt 3202 2524 L
2381 2796 mt 2453 2796 L
2417 2760 mt 2417 2832 L
3666 1809 mt 3738 1809 L
3702 1773 mt 3702 1845 L
3302 2035 mt 3374 2035 L
3338 1999 mt 3338 2071 L
4060 1277 mt 4132 1277 L
4096 1241 mt 4096 1313 L
3078 3257 mt 3150 3257 L
3114 3221 mt 3114 3293 L
4619 1583 mt 4691 1583 L
4655 1547 mt 4655 1619 L
4080 1462 mt 4152 1462 L
4116 1426 mt 4116 1498 L
3803 2484 mt 3875 2484 L
3839 2448 mt 3839 2520 L
gs 899 414 5363 4203 rc
gr

0 sg
2836 5104 mt 
(\(S,PAC,GMM\)) s
 482 3277 mt  -90 rotate
(\(S,SSC,GMM\)) s
90 rotate
2975  223 mt 
(Corr = 0.23) s

end %%Color Dict

eplot
%%EndObject

epage
end

showpage

%%Trailer
%%EOF
