%!PS-Adobe-3.0 EPSF-3.0
%%Creator: MATLAB, The Mathworks, Inc. Version 7.7.0.471 (R2008b). Operating System: Microsoft Windows XP.
%%Title: Pictures\main_zoo_mvar_analysis_data_BMI_xcorr_bmi_p1_k1_2_9.eps
%%CreationDate: 10/26/2009  05:43:58
%%DocumentNeededFonts: Helvetica
%%DocumentProcessColors: Cyan Magenta Yellow Black
%%LanguageLevel: 2
%%Pages: 1
%%BoundingBox:    21   180   549   616
%%EndComments

%%BeginProlog
% MathWorks dictionary
/MathWorks 160 dict begin
% definition operators
/bdef {bind def} bind def
/ldef {load def} bind def
/xdef {exch def} bdef
/xstore {exch store} bdef
% operator abbreviations
/c  /clip ldef
/cc /concat ldef
/cp /closepath ldef
/gr /grestore ldef
/gs /gsave ldef
/mt /moveto ldef
/np /newpath ldef
/cm /currentmatrix ldef
/sm /setmatrix ldef
/rm /rmoveto ldef
/rl /rlineto ldef
/s {show newpath} bdef
/sc {setcmykcolor} bdef
/sr /setrgbcolor ldef
/sg /setgray ldef
/w /setlinewidth ldef
/j /setlinejoin ldef
/cap /setlinecap ldef
/rc {rectclip} bdef
/rf {rectfill} bdef
% page state control
/pgsv () def
/bpage {/pgsv save def} bdef
/epage {pgsv restore} bdef
/bplot /gsave ldef
/eplot {stroke grestore} bdef
% orientation switch
/portraitMode 0 def /landscapeMode 1 def /rotateMode 2 def
% coordinate system mappings
/dpi2point 0 def
% font control
/FontSize 0 def
/FMS {/FontSize xstore findfont [FontSize 0 0 FontSize neg 0 0]
  makefont setfont} bdef
/ISOLatin1Encoding where {pop /WindowsLatin1Encoding 256 array bdef
ISOLatin1Encoding WindowsLatin1Encoding copy pop
/.notdef/.notdef/quotesinglbase/florin/quotedblbase/ellipsis/dagger
/daggerdbl/circumflex/perthousand/Scaron/guilsinglleft/OE/.notdef/.notdef
/.notdef/.notdef/quoteleft/quoteright/quotedblleft/quotedblright/bullet
/endash/emdash/tilde/trademark/scaron/guilsinglright/oe/.notdef/.notdef
/Ydieresis WindowsLatin1Encoding 128 32 getinterval astore pop}
{/WindowsLatin1Encoding StandardEncoding bdef} ifelse
/reencode {exch dup where {pop load} {pop StandardEncoding} ifelse
  exch dup 3 1 roll findfont dup length dict begin
  { 1 index /FID ne {def}{pop pop} ifelse } forall
  /Encoding exch def currentdict end definefont pop} bdef
/isroman {findfont /CharStrings get /Agrave known} bdef
/FMSR {3 1 roll 1 index dup isroman {reencode} {pop pop} ifelse
  exch FMS} bdef
/csm {1 dpi2point div -1 dpi2point div scale neg translate
 dup landscapeMode eq {pop -90 rotate}
  {rotateMode eq {90 rotate} if} ifelse} bdef
% line types: solid, dotted, dashed, dotdash
/SO { [] 0 setdash } bdef
/DO { [.5 dpi2point mul 4 dpi2point mul] 0 setdash } bdef
/DA { [6 dpi2point mul] 0 setdash } bdef
/DD { [.5 dpi2point mul 4 dpi2point mul 6 dpi2point mul 4
  dpi2point mul] 0 setdash } bdef
% macros for lines and objects
/L {lineto stroke} bdef
/MP {3 1 roll moveto 1 sub {rlineto} repeat} bdef
/AP {{rlineto} repeat} bdef
/PDlw -1 def
/W {/PDlw currentlinewidth def setlinewidth} def
/PP {closepath eofill} bdef
/DP {closepath stroke} bdef
/MR {4 -2 roll moveto dup  0 exch rlineto exch 0 rlineto
  neg 0 exch rlineto closepath} bdef
/FR {MR stroke} bdef
/PR {MR fill} bdef
/L1i {{currentfile picstr readhexstring pop} image} bdef
/tMatrix matrix def
/MakeOval {newpath tMatrix currentmatrix pop translate scale
0 0 1 0 360 arc tMatrix setmatrix} bdef
/FO {MakeOval stroke} bdef
/PO {MakeOval fill} bdef
/PD {currentlinewidth 2 div 0 360 arc fill
   PDlw -1 eq not {PDlw w /PDlw -1 def} if} def
/FA {newpath tMatrix currentmatrix pop translate scale
  0 0 1 5 -2 roll arc tMatrix setmatrix stroke} bdef
/PA {newpath tMatrix currentmatrix pop	translate 0 0 moveto scale
  0 0 1 5 -2 roll arc closepath tMatrix setmatrix fill} bdef
/FAn {newpath tMatrix currentmatrix pop translate scale
  0 0 1 5 -2 roll arcn tMatrix setmatrix stroke} bdef
/PAn {newpath tMatrix currentmatrix pop translate 0 0 moveto scale
  0 0 1 5 -2 roll arcn closepath tMatrix setmatrix fill} bdef
/vradius 0 def /hradius 0 def /lry 0 def
/lrx 0 def /uly 0 def /ulx 0 def /rad 0 def
/MRR {/vradius xdef /hradius xdef /lry xdef /lrx xdef /uly xdef
  /ulx xdef newpath tMatrix currentmatrix pop ulx hradius add uly
  vradius add translate hradius vradius scale 0 0 1 180 270 arc 
  tMatrix setmatrix lrx hradius sub uly vradius add translate
  hradius vradius scale 0 0 1 270 360 arc tMatrix setmatrix
  lrx hradius sub lry vradius sub translate hradius vradius scale
  0 0 1 0 90 arc tMatrix setmatrix ulx hradius add lry vradius sub
  translate hradius vradius scale 0 0 1 90 180 arc tMatrix setmatrix
  closepath} bdef
/FRR {MRR stroke } bdef
/PRR {MRR fill } bdef
/MlrRR {/lry xdef /lrx xdef /uly xdef /ulx xdef /rad lry uly sub 2 div def
  newpath tMatrix currentmatrix pop ulx rad add uly rad add translate
  rad rad scale 0 0 1 90 270 arc tMatrix setmatrix lrx rad sub lry rad
  sub translate rad rad scale 0 0 1 270 90 arc tMatrix setmatrix
  closepath} bdef
/FlrRR {MlrRR stroke } bdef
/PlrRR {MlrRR fill } bdef
/MtbRR {/lry xdef /lrx xdef /uly xdef /ulx xdef /rad lrx ulx sub 2 div def
  newpath tMatrix currentmatrix pop ulx rad add uly rad add translate
  rad rad scale 0 0 1 180 360 arc tMatrix setmatrix lrx rad sub lry rad
  sub translate rad rad scale 0 0 1 0 180 arc tMatrix setmatrix
  closepath} bdef
/FtbRR {MtbRR stroke } bdef
/PtbRR {MtbRR fill } bdef
/stri 6 array def /dtri 6 array def
/smat 6 array def /dmat 6 array def
/tmat1 6 array def /tmat2 6 array def /dif 3 array def
/asub {/ind2 exch def /ind1 exch def dup dup
  ind1 get exch ind2 get sub exch } bdef
/tri_to_matrix {
  2 0 asub 3 1 asub 4 0 asub 5 1 asub
  dup 0 get exch 1 get 7 -1 roll astore } bdef
/compute_transform {
  dmat dtri tri_to_matrix tmat1 invertmatrix 
  smat stri tri_to_matrix tmat2 concatmatrix } bdef
/ds {stri astore pop} bdef
/dt {dtri astore pop} bdef
/db {2 copy /cols xdef /rows xdef mul dup 3 mul string
  currentfile 
  3 index 0 eq {/ASCIIHexDecode filter}
  {/ASCII85Decode filter 3 index 2 eq {/RunLengthDecode filter} if }
  ifelse exch readstring pop
  dup 0 3 index getinterval /rbmap xdef
  dup 2 index dup getinterval /gbmap xdef
  1 index dup 2 mul exch getinterval /bbmap xdef pop pop}bdef
/it {gs np dtri aload pop moveto lineto lineto cp c
  cols rows 8 compute_transform 
  rbmap gbmap bbmap true 3 colorimage gr}bdef
/il {newpath moveto lineto stroke}bdef
currentdict end def
%%EndProlog

%%BeginSetup
MathWorks begin

0 cap

end
%%EndSetup

%%Page: 1 1
%%BeginPageSetup
%%PageBoundingBox:    21   180   549   616
MathWorks begin
bpage
%%EndPageSetup

%%BeginObject: obj1
bplot

/dpi2point 12 def
portraitMode 0216 7344 csm

   40   -48  6343  5231 rc
85 dict begin %Colortable dictionary
/c0 { 0.000000 0.000000 0.000000 sr} bdef
/c1 { 1.000000 1.000000 1.000000 sr} bdef
/c2 { 0.900000 0.000000 0.000000 sr} bdef
/c3 { 0.000000 0.820000 0.000000 sr} bdef
/c4 { 0.000000 0.000000 0.800000 sr} bdef
/c5 { 0.910000 0.820000 0.320000 sr} bdef
/c6 { 1.000000 0.260000 0.820000 sr} bdef
/c7 { 0.000000 0.820000 0.820000 sr} bdef
c0
1 j
1 sg
   0    0 6919 5187 rf
6 w
0 4202 5362 0 0 -4202 899 4616 4 MP
PP
-5362 0 0 4202 5362 0 0 -4202 899 4616 5 MP stroke
4 w
DO
SO
6 w
0 sg
 899  414 mt 6261  414 L
 899 4616 mt 6261 4616 L
6261 4616 mt 6261  414 L
 899 4616 mt  899  414 L
 899 4616 mt 6261 4616 L
 899 4616 mt  899  414 L
1648 4616 mt 1648 4562 L
1648  414 mt 1648  467 L
%%IncludeResource: font Helvetica
/Helvetica /WindowsLatin1Encoding 240 FMSR

1482 4873 mt 
(0.1) s
2398 4616 mt 2398 4562 L
2398  414 mt 2398  467 L
2232 4873 mt 
(0.2) s
3148 4616 mt 3148 4562 L
3148  414 mt 3148  467 L
2982 4873 mt 
(0.3) s
3898 4616 mt 3898 4562 L
3898  414 mt 3898  467 L
3732 4873 mt 
(0.4) s
4648 4616 mt 4648 4562 L
4648  414 mt 4648  467 L
4482 4873 mt 
(0.5) s
5398 4616 mt 5398 4562 L
5398  414 mt 5398  467 L
5232 4873 mt 
(0.6) s
6148 4616 mt 6148 4562 L
6148  414 mt 6148  467 L
5982 4873 mt 
(0.7) s
 899 3934 mt  952 3934 L
6261 3934 mt 6207 3934 L
 397 4023 mt 
(0.05) s
 899 3253 mt  952 3253 L
6261 3253 mt 6207 3253 L
 531 3342 mt 
(0.1) s
 899 2572 mt  952 2572 L
6261 2572 mt 6207 2572 L
 397 2661 mt 
(0.15) s
 899 1891 mt  952 1891 L
6261 1891 mt 6207 1891 L
 531 1980 mt 
(0.2) s
 899 1209 mt  952 1209 L
6261 1209 mt 6207 1209 L
 397 1298 mt 
(0.25) s
 899  528 mt  952  528 L
6261  528 mt 6207  528 L
 531  617 mt 
(0.3) s
 899  414 mt 6261  414 L
 899 4616 mt 6261 4616 L
6261 4616 mt 6261  414 L
 899 4616 mt  899  414 L
gs 899 414 5363 4203 rc
gr

/c8 { 0.000000 0.000000 1.000000 sr} bdef
c8
1653 3194 mt 1725 3194 L
1689 3158 mt 1689 3230 L
 866 4484 mt  938 4484 L
 902 4448 mt  902 4520 L
2139 4615 mt 2211 4615 L
2175 4579 mt 2175 4651 L
2372 4536 mt 2444 4536 L
2408 4500 mt 2408 4572 L
 874 3542 mt  946 3542 L
 910 3506 mt  910 3578 L
 965 4494 mt 1037 4494 L
1001 4458 mt 1001 4530 L
1200 4316 mt 1272 4316 L
1236 4280 mt 1236 4352 L
 863 3896 mt  935 3896 L
 899 3860 mt  899 3932 L
1287 4160 mt 1359 4160 L
1323 4124 mt 1323 4196 L
5731 3785 mt 5803 3785 L
5767 3749 mt 5767 3821 L
 863 3233 mt  935 3233 L
 899 3197 mt  899 3269 L
 929 3995 mt 1001 3995 L
 965 3959 mt  965 4031 L
 900 3987 mt  972 3987 L
 936 3951 mt  936 4023 L
 920 4088 mt  992 4088 L
 956 4052 mt  956 4124 L
2061 3719 mt 2133 3719 L
2097 3683 mt 2097 3755 L
1562 4130 mt 1634 4130 L
1598 4094 mt 1598 4166 L
 929 4590 mt 1001 4590 L
 965 4554 mt  965 4626 L
1371 3930 mt 1443 3930 L
1407 3894 mt 1407 3966 L
2100 4358 mt 2172 4358 L
2136 4322 mt 2136 4394 L
2546 4609 mt 2618 4609 L
2582 4573 mt 2582 4645 L
 901 4572 mt  973 4572 L
 937 4536 mt  937 4608 L
1293 1537 mt 1365 1537 L
1329 1501 mt 1329 1573 L
1595 2348 mt 1667 2348 L
1631 2312 mt 1631 2384 L
 935  598 mt 1007  598 L
 971  562 mt  971  634 L
3781 3722 mt 3853 3722 L
3817 3686 mt 3817 3758 L
2945 4583 mt 3017 4583 L
2981 4547 mt 2981 4619 L
1031 4348 mt 1103 4348 L
1067 4312 mt 1067 4384 L
2144 4266 mt 2216 4266 L
2180 4230 mt 2180 4302 L
2202 4466 mt 2274 4466 L
2238 4430 mt 2238 4502 L
4485 4601 mt 4557 4601 L
4521 4565 mt 4521 4637 L
1041 4612 mt 1113 4612 L
1077 4576 mt 1077 4648 L
1901 3800 mt 1973 3800 L
1937 3764 mt 1937 3836 L
2021 4609 mt 2093 4609 L
2057 4573 mt 2057 4645 L
4336 4406 mt 4408 4406 L
4372 4370 mt 4372 4442 L
2649 4565 mt 2721 4565 L
2685 4529 mt 2685 4601 L
1830 4507 mt 1902 4507 L
1866 4471 mt 1866 4543 L
1769 4408 mt 1841 4408 L
1805 4372 mt 1805 4444 L
1066 4400 mt 1138 4400 L
1102 4364 mt 1102 4436 L
1068 3603 mt 1140 3603 L
1104 3567 mt 1104 3639 L
 937 4615 mt 1009 4615 L
 973 4579 mt  973 4651 L
2627 4592 mt 2699 4592 L
2663 4556 mt 2663 4628 L
1072 4143 mt 1144 4143 L
1108 4107 mt 1108 4179 L
 879 4611 mt  951 4611 L
 915 4575 mt  915 4647 L
2354 1497 mt 2426 1497 L
2390 1461 mt 2390 1533 L
6015 4572 mt 6087 4572 L
6051 4536 mt 6051 4608 L
1824 4559 mt 1896 4559 L
1860 4523 mt 1860 4595 L
1023 4166 mt 1095 4166 L
1059 4130 mt 1059 4202 L
 868 4600 mt  940 4600 L
 904 4564 mt  904 4636 L
2675 4568 mt 2747 4568 L
2711 4532 mt 2711 4604 L
 866 4479 mt  938 4479 L
 902 4443 mt  902 4515 L
1795 2008 mt 1867 2008 L
1831 1972 mt 1831 2044 L
2463 3888 mt 2535 3888 L
2499 3852 mt 2499 3924 L
 926 3099 mt  998 3099 L
 962 3063 mt  962 3135 L
 956 4439 mt 1028 4439 L
 992 4403 mt  992 4475 L
1534 2910 mt 1606 2910 L
1570 2874 mt 1570 2946 L
2409 4256 mt 2481 4256 L
2445 4220 mt 2445 4292 L
1689 3647 mt 1761 3647 L
1725 3611 mt 1725 3683 L
2385 3761 mt 2457 3761 L
2421 3725 mt 2421 3797 L
3521 4384 mt 3593 4384 L
3557 4348 mt 3557 4420 L
1010 4612 mt 1082 4612 L
1046 4576 mt 1046 4648 L
2774 3277 mt 2846 3277 L
2810 3241 mt 2810 3313 L
1703 4542 mt 1775 4542 L
1739 4506 mt 1739 4578 L
2243 3896 mt 2315 3896 L
2279 3860 mt 2279 3932 L
3083 4485 mt 3155 4485 L
3119 4449 mt 3119 4521 L
1297 4504 mt 1369 4504 L
1333 4468 mt 1333 4540 L
1329 4027 mt 1401 4027 L
1365 3991 mt 1365 4063 L
3285 4611 mt 3357 4611 L
3321 4575 mt 3321 4647 L
 864 4615 mt  936 4615 L
 900 4579 mt  900 4651 L
1502 4063 mt 1574 4063 L
1538 4027 mt 1538 4099 L
 867 4392 mt  939 4392 L
 903 4356 mt  903 4428 L
1575 4612 mt 1647 4612 L
1611 4576 mt 1611 4648 L
1731 4502 mt 1803 4502 L
1767 4466 mt 1767 4538 L
 906 3852 mt  978 3852 L
 942 3816 mt  942 3888 L
1089 4198 mt 1161 4198 L
1125 4162 mt 1125 4234 L
 863 2721 mt  935 2721 L
 899 2685 mt  899 2757 L
 864 4615 mt  936 4615 L
 900 4579 mt  900 4651 L
4778 4125 mt 4850 4125 L
4814 4089 mt 4814 4161 L
1032 4601 mt 1104 4601 L
1068 4565 mt 1068 4637 L
1114 4065 mt 1186 4065 L
1150 4029 mt 1150 4101 L
1412 4041 mt 1484 4041 L
1448 4005 mt 1448 4077 L
1705 3194 mt 1777 3194 L
1741 3158 mt 1741 3230 L
 920 4454 mt  992 4454 L
 956 4418 mt  956 4490 L
 895 4574 mt  967 4574 L
 931 4538 mt  931 4610 L
1118 4600 mt 1190 4600 L
1154 4564 mt 1154 4636 L
3818 4589 mt 3890 4589 L
3854 4553 mt 3854 4625 L
1124 3830 mt 1196 3830 L
1160 3794 mt 1160 3866 L
1442  671 mt 1514  671 L
1478  635 mt 1478  707 L
4103 4153 mt 4175 4153 L
4139 4117 mt 4139 4189 L
3933 4601 mt 4005 4601 L
3969 4565 mt 3969 4637 L
1235 3545 mt 1307 3545 L
1271 3509 mt 1271 3581 L
1589 4606 mt 1661 4606 L
1625 4570 mt 1625 4642 L
1171 2150 mt 1243 2150 L
1207 2114 mt 1207 2186 L
 864 4000 mt  936 4000 L
 900 3964 mt  900 4036 L
1444 4465 mt 1516 4465 L
1480 4429 mt 1480 4501 L
 936 4374 mt 1008 4374 L
 972 4338 mt  972 4410 L
 925 4490 mt  997 4490 L
 961 4454 mt  961 4526 L
1523 4562 mt 1595 4562 L
1559 4526 mt 1559 4598 L
1415 4606 mt 1487 4606 L
1451 4570 mt 1451 4642 L
4971 4562 mt 5043 4562 L
5007 4526 mt 5007 4598 L
2371 3602 mt 2443 3602 L
2407 3566 mt 2407 3638 L
 863 4037 mt  935 4037 L
 899 4001 mt  899 4073 L
1871 3028 mt 1943 3028 L
1907 2992 mt 1907 3064 L
1596 2356 mt 1668 2356 L
1632 2320 mt 1632 2392 L
 863 4321 mt  935 4321 L
 899 4285 mt  899 4357 L
1977 3829 mt 2049 3829 L
2013 3793 mt 2013 3865 L
1693 4040 mt 1765 4040 L
1729 4004 mt 1729 4076 L
1354 4522 mt 1426 4522 L
1390 4486 mt 1390 4558 L
3461 4239 mt 3533 4239 L
3497 4203 mt 3497 4275 L
1010 3641 mt 1082 3641 L
1046 3605 mt 1046 3677 L
 870 4613 mt  942 4613 L
 906 4577 mt  906 4649 L
5427 4459 mt 5499 4459 L
5463 4423 mt 5463 4495 L
1794 4549 mt 1866 4549 L
1830 4513 mt 1830 4585 L
1015 4142 mt 1087 4142 L
1051 4106 mt 1051 4178 L
1700 3913 mt 1772 3913 L
1736 3877 mt 1736 3949 L
2138 3328 mt 2210 3328 L
2174 3292 mt 2174 3364 L
 990 2068 mt 1062 2068 L
1026 2032 mt 1026 2104 L
 882 4537 mt  954 4537 L
 918 4501 mt  918 4573 L
 863 4500 mt  935 4500 L
 899 4464 mt  899 4536 L
1231 4542 mt 1303 4542 L
1267 4506 mt 1267 4578 L
2164 3762 mt 2236 3762 L
2200 3726 mt 2200 3798 L
1365 4486 mt 1437 4486 L
1401 4450 mt 1401 4522 L
1397 1892 mt 1469 1892 L
1433 1856 mt 1433 1928 L
 864 4510 mt  936 4510 L
 900 4474 mt  900 4546 L
 908 3481 mt  980 3481 L
 944 3445 mt  944 3517 L
1148 4087 mt 1220 4087 L
1184 4051 mt 1184 4123 L
 863 3894 mt  935 3894 L
 899 3858 mt  899 3930 L
1075 4591 mt 1147 4591 L
1111 4555 mt 1111 4627 L
1482 3990 mt 1554 3990 L
1518 3954 mt 1518 4026 L
1384 4404 mt 1456 4404 L
1420 4368 mt 1420 4440 L
3356 2611 mt 3428 2611 L
3392 2575 mt 3392 2647 L
1535 3732 mt 1607 3732 L
1571 3696 mt 1571 3768 L
2242 3242 mt 2314 3242 L
2278 3206 mt 2278 3278 L
 959 3854 mt 1031 3854 L
 995 3818 mt  995 3890 L
 972 3809 mt 1044 3809 L
1008 3773 mt 1008 3845 L
 864 4502 mt  936 4502 L
 900 4466 mt  900 4538 L
1071 4419 mt 1143 4419 L
1107 4383 mt 1107 4455 L
1318 4498 mt 1390 4498 L
1354 4462 mt 1354 4534 L
1480 4568 mt 1552 4568 L
1516 4532 mt 1516 4604 L
1511 4270 mt 1583 4270 L
1547 4234 mt 1547 4306 L
1417 4218 mt 1489 4218 L
1453 4182 mt 1453 4254 L
1174 4372 mt 1246 4372 L
1210 4336 mt 1210 4408 L
3036 4004 mt 3108 4004 L
3072 3968 mt 3072 4040 L
3268 4170 mt 3340 4170 L
3304 4134 mt 3304 4206 L
1547 3905 mt 1619 3905 L
1583 3869 mt 1583 3941 L
3112 4211 mt 3184 4211 L
3148 4175 mt 3148 4247 L
4554 4535 mt 4626 4535 L
4590 4499 mt 4590 4571 L
1051 3751 mt 1123 3751 L
1087 3715 mt 1087 3787 L
3704 2202 mt 3776 2202 L
3740 2166 mt 3740 2238 L
3467 4139 mt 3539 4139 L
3503 4103 mt 3503 4175 L
 906 4452 mt  978 4452 L
 942 4416 mt  942 4488 L
4463 3773 mt 4535 3773 L
4499 3737 mt 4499 3809 L
1638 4278 mt 1710 4278 L
1674 4242 mt 1674 4314 L
1016 4615 mt 1088 4615 L
1052 4579 mt 1052 4651 L
2048 3475 mt 2120 3475 L
2084 3439 mt 2084 3511 L
1026 4462 mt 1098 4462 L
1062 4426 mt 1062 4498 L
2732 4484 mt 2804 4484 L
2768 4448 mt 2768 4520 L
 945 4606 mt 1017 4606 L
 981 4570 mt  981 4642 L
 868 3826 mt  940 3826 L
 904 3790 mt  904 3862 L
1735 3268 mt 1807 3268 L
1771 3232 mt 1771 3304 L
1977 3797 mt 2049 3797 L
2013 3761 mt 2013 3833 L
1310 4604 mt 1382 4604 L
1346 4568 mt 1346 4640 L
 880 4310 mt  952 4310 L
 916 4274 mt  916 4346 L
2182 2031 mt 2254 2031 L
2218 1995 mt 2218 2067 L
2520 4588 mt 2592 4588 L
2556 4552 mt 2556 4624 L
4165 3816 mt 4237 3816 L
4201 3780 mt 4201 3852 L
1139 4586 mt 1211 4586 L
1175 4550 mt 1175 4622 L
3404 4456 mt 3476 4456 L
3440 4420 mt 3440 4492 L
2040 3425 mt 2112 3425 L
2076 3389 mt 2076 3461 L
 954 3305 mt 1026 3305 L
 990 3269 mt  990 3341 L
 984 4498 mt 1056 4498 L
1020 4462 mt 1020 4534 L
1433 1973 mt 1505 1973 L
1469 1937 mt 1469 2009 L
1160 3599 mt 1232 3599 L
1196 3563 mt 1196 3635 L
1476 4579 mt 1548 4579 L
1512 4543 mt 1512 4615 L
 863 4128 mt  935 4128 L
 899 4092 mt  899 4164 L
1014 3911 mt 1086 3911 L
1050 3875 mt 1050 3947 L
 912 3998 mt  984 3998 L
 948 3962 mt  948 4034 L
1392 4264 mt 1464 4264 L
1428 4228 mt 1428 4300 L
2663 4611 mt 2735 4611 L
2699 4575 mt 2699 4647 L
 926 4427 mt  998 4427 L
 962 4391 mt  962 4463 L
 876 4472 mt  948 4472 L
 912 4436 mt  912 4508 L
1174 3298 mt 1246 3298 L
1210 3262 mt 1210 3334 L
3172 4613 mt 3244 4613 L
3208 4577 mt 3208 4649 L
 878  813 mt  950  813 L
 914  777 mt  914  849 L
1143 4336 mt 1215 4336 L
1179 4300 mt 1179 4372 L
4120 4349 mt 4192 4349 L
4156 4313 mt 4156 4385 L
1008 4387 mt 1080 4387 L
1044 4351 mt 1044 4423 L
1095 2808 mt 1167 2808 L
1131 2772 mt 1131 2844 L
 908 4507 mt  980 4507 L
 944 4471 mt  944 4543 L
3198 4610 mt 3270 4610 L
3234 4574 mt 3234 4646 L
 876 2103 mt  948 2103 L
 912 2067 mt  912 2139 L
 890 4138 mt  962 4138 L
 926 4102 mt  926 4174 L
1817  414 mt 1889  414 L
1853  378 mt 1853  450 L
1216 4556 mt 1288 4556 L
1252 4520 mt 1252 4592 L
 878 3262 mt  950 3262 L
 914 3226 mt  914 3298 L
 874 3641 mt  946 3641 L
 910 3605 mt  910 3677 L
2801 4196 mt 2873 4196 L
2837 4160 mt 2837 4232 L
1184 2991 mt 1256 2991 L
1220 2955 mt 1220 3027 L
1467 3588 mt 1539 3588 L
1503 3552 mt 1503 3624 L
 898 4094 mt  970 4094 L
 934 4058 mt  934 4130 L
 941 3826 mt 1013 3826 L
 977 3790 mt  977 3862 L
1248 3159 mt 1320 3159 L
1284 3123 mt 1284 3195 L
 897 2927 mt  969 2927 L
 933 2891 mt  933 2963 L
3819 4406 mt 3891 4406 L
3855 4370 mt 3855 4442 L
1939 4172 mt 2011 4172 L
1975 4136 mt 1975 4208 L
 932 4204 mt 1004 4204 L
 968 4168 mt  968 4240 L
 869 4168 mt  941 4168 L
 905 4132 mt  905 4204 L
1059 4406 mt 1131 4406 L
1095 4370 mt 1095 4442 L
1593 4614 mt 1665 4614 L
1629 4578 mt 1629 4650 L
1682 4054 mt 1754 4054 L
1718 4018 mt 1718 4090 L
4916 4301 mt 4988 4301 L
4952 4265 mt 4952 4337 L
 991 4008 mt 1063 4008 L
1027 3972 mt 1027 4044 L
 877 4558 mt  949 4558 L
 913 4522 mt  913 4594 L
1118 4308 mt 1190 4308 L
1154 4272 mt 1154 4344 L
1014 2166 mt 1086 2166 L
1050 2130 mt 1050 2202 L
1305 3349 mt 1377 3349 L
1341 3313 mt 1341 3385 L
2198 3254 mt 2270 3254 L
2234 3218 mt 2234 3290 L
 870 4613 mt  942 4613 L
 906 4577 mt  906 4649 L
1025 4295 mt 1097 4295 L
1061 4259 mt 1061 4331 L
1426 4609 mt 1498 4609 L
1462 4573 mt 1462 4645 L
2252 4389 mt 2324 4389 L
2288 4353 mt 2288 4425 L
1126 4572 mt 1198 4572 L
1162 4536 mt 1162 4608 L
1494  623 mt 1566  623 L
1530  587 mt 1530  659 L
1185 3570 mt 1257 3570 L
1221 3534 mt 1221 3606 L
 955 1512 mt 1027 1512 L
 991 1476 mt  991 1548 L
1676 4125 mt 1748 4125 L
1712 4089 mt 1712 4161 L
2914 4615 mt 2986 4615 L
2950 4579 mt 2950 4651 L
1111 4372 mt 1183 4372 L
1147 4336 mt 1147 4408 L
1832 4530 mt 1904 4530 L
1868 4494 mt 1868 4566 L
 963 4030 mt 1035 4030 L
 999 3994 mt  999 4066 L
3352 3984 mt 3424 3984 L
3388 3948 mt 3388 4020 L
 868 3523 mt  940 3523 L
 904 3487 mt  904 3559 L
1711 4421 mt 1783 4421 L
1747 4385 mt 1747 4457 L
2586 4593 mt 2658 4593 L
2622 4557 mt 2622 4629 L
4700 4607 mt 4772 4607 L
4736 4571 mt 4736 4643 L
1470 4449 mt 1542 4449 L
1506 4413 mt 1506 4485 L
 904 4478 mt  976 4478 L
 940 4442 mt  940 4514 L
1509 4592 mt 1581 4592 L
1545 4556 mt 1545 4628 L
1567 2473 mt 1639 2473 L
1603 2437 mt 1603 2509 L
1283 3140 mt 1355 3140 L
1319 3104 mt 1319 3176 L
 863 4568 mt  935 4568 L
 899 4532 mt  899 4604 L
2019 4567 mt 2091 4567 L
2055 4531 mt 2055 4603 L
1648 4607 mt 1720 4607 L
1684 4571 mt 1684 4643 L
1254 4602 mt 1326 4602 L
1290 4566 mt 1290 4638 L
3298 2701 mt 3370 2701 L
3334 2665 mt 3334 2737 L
6225 4216 mt 6297 4216 L
6261 4180 mt 6261 4252 L
1486 4567 mt 1558 4567 L
1522 4531 mt 1522 4603 L
 973 3559 mt 1045 3559 L
1009 3523 mt 1009 3595 L
1377 4403 mt 1449 4403 L
1413 4367 mt 1413 4439 L
4160 4517 mt 4232 4517 L
4196 4481 mt 4196 4553 L
1357 4588 mt 1429 4588 L
1393 4552 mt 1393 4624 L
1788 3226 mt 1860 3226 L
1824 3190 mt 1824 3262 L
2874 3941 mt 2946 3941 L
2910 3905 mt 2910 3977 L
1666 3007 mt 1738 3007 L
1702 2971 mt 1702 3043 L
 892 4505 mt  964 4505 L
 928 4469 mt  928 4541 L
1102 3220 mt 1174 3220 L
1138 3184 mt 1138 3256 L
3277 4173 mt 3349 4173 L
3313 4137 mt 3313 4209 L
2583 4295 mt 2655 4295 L
2619 4259 mt 2619 4331 L
2704 4179 mt 2776 4179 L
2740 4143 mt 2740 4215 L
3655 3265 mt 3727 3265 L
3691 3229 mt 3691 3301 L
1016 4402 mt 1088 4402 L
1052 4366 mt 1052 4438 L
2862 3152 mt 2934 3152 L
2898 3116 mt 2898 3188 L
2527 4576 mt 2599 4576 L
2563 4540 mt 2563 4612 L
2757 4412 mt 2829 4412 L
2793 4376 mt 2793 4448 L
4830 4416 mt 4902 4416 L
4866 4380 mt 4866 4452 L
1046 4545 mt 1118 4545 L
1082 4509 mt 1082 4581 L
1046 3490 mt 1118 3490 L
1082 3454 mt 1082 3526 L
1648 4562 mt 1720 4562 L
1684 4526 mt 1684 4598 L
 985 4254 mt 1057 4254 L
1021 4218 mt 1021 4290 L
1898 4486 mt 1970 4486 L
1934 4450 mt 1934 4522 L
2248 4455 mt 2320 4455 L
2284 4419 mt 2284 4491 L
2889 4427 mt 2961 4427 L
2925 4391 mt 2925 4463 L
 866 4605 mt  938 4605 L
 902 4569 mt  902 4641 L
1393 4481 mt 1465 4481 L
1429 4445 mt 1429 4517 L
1067 4580 mt 1139 4580 L
1103 4544 mt 1103 4616 L
1056 3547 mt 1128 3547 L
1092 3511 mt 1092 3583 L
1123 4588 mt 1195 4588 L
1159 4552 mt 1159 4624 L
4973 3380 mt 5045 3380 L
5009 3344 mt 5009 3416 L
 890 4395 mt  962 4395 L
 926 4359 mt  926 4431 L
1804 4576 mt 1876 4576 L
1840 4540 mt 1840 4612 L
1166 4156 mt 1238 4156 L
1202 4120 mt 1202 4192 L
2239 3302 mt 2311 3302 L
2275 3266 mt 2275 3338 L
 934 4365 mt 1006 4365 L
 970 4329 mt  970 4401 L
 922 3682 mt  994 3682 L
 958 3646 mt  958 3718 L
2530 4250 mt 2602 4250 L
2566 4214 mt 2566 4286 L
3810 3922 mt 3882 3922 L
3846 3886 mt 3846 3958 L
1776 4512 mt 1848 4512 L
1812 4476 mt 1812 4548 L
1648 1965 mt 1720 1965 L
1684 1929 mt 1684 2001 L
4579 3993 mt 4651 3993 L
4615 3957 mt 4615 4029 L
3060 4398 mt 3132 4398 L
3096 4362 mt 3096 4434 L
2124 4527 mt 2196 4527 L
2160 4491 mt 2160 4563 L
2666 4026 mt 2738 4026 L
2702 3990 mt 2702 4062 L
1003 3578 mt 1075 3578 L
1039 3542 mt 1039 3614 L
 870 4376 mt  942 4376 L
 906 4340 mt  906 4412 L
2692 3494 mt 2764 3494 L
2728 3458 mt 2728 3530 L
 863 4605 mt  935 4605 L
 899 4569 mt  899 4641 L
 872 4594 mt  944 4594 L
 908 4558 mt  908 4630 L
2383 4303 mt 2455 4303 L
2419 4267 mt 2419 4339 L
2743 4150 mt 2815 4150 L
2779 4114 mt 2779 4186 L
4906 4542 mt 4978 4542 L
4942 4506 mt 4942 4578 L
2627 2674 mt 2699 2674 L
2663 2638 mt 2663 2710 L
 872 4170 mt  944 4170 L
 908 4134 mt  908 4206 L
 863 3748 mt  935 3748 L
 899 3712 mt  899 3784 L
2467  940 mt 2539  940 L
2503  904 mt 2503  976 L
 900 4601 mt  972 4601 L
 936 4565 mt  936 4637 L
1773 4147 mt 1845 4147 L
1809 4111 mt 1809 4183 L
 991 3769 mt 1063 3769 L
1027 3733 mt 1027 3805 L
2084 4578 mt 2156 4578 L
2120 4542 mt 2120 4614 L
3489 3928 mt 3561 3928 L
3525 3892 mt 3525 3964 L
 873 3777 mt  945 3777 L
 909 3741 mt  909 3813 L
1282 4575 mt 1354 4575 L
1318 4539 mt 1318 4611 L
6204 4402 mt 6276 4402 L
6240 4366 mt 6240 4438 L
1174 4517 mt 1246 4517 L
1210 4481 mt 1210 4553 L
 903 4164 mt  975 4164 L
 939 4128 mt  939 4200 L
1410 4489 mt 1482 4489 L
1446 4453 mt 1446 4525 L
1567 3855 mt 1639 3855 L
1603 3819 mt 1603 3891 L
 939 2099 mt 1011 2099 L
 975 2063 mt  975 2135 L
 873 4579 mt  945 4579 L
 909 4543 mt  909 4615 L
1939 3656 mt 2011 3656 L
1975 3620 mt 1975 3692 L
1253 4570 mt 1325 4570 L
1289 4534 mt 1289 4606 L
2081 3457 mt 2153 3457 L
2117 3421 mt 2117 3493 L
1206 4544 mt 1278 4544 L
1242 4508 mt 1242 4580 L
2043 2968 mt 2115 2968 L
2079 2932 mt 2079 3004 L
1473 4609 mt 1545 4609 L
1509 4573 mt 1509 4645 L
 911 3231 mt  983 3231 L
 947 3195 mt  947 3267 L
1244 4587 mt 1316 4587 L
1280 4551 mt 1280 4623 L
1320 4551 mt 1392 4551 L
1356 4515 mt 1356 4587 L
1058 3971 mt 1130 3971 L
1094 3935 mt 1094 4007 L
2323 3008 mt 2395 3008 L
2359 2972 mt 2359 3044 L
1003 4534 mt 1075 4534 L
1039 4498 mt 1039 4570 L
2860 4020 mt 2932 4020 L
2896 3984 mt 2896 4056 L
2492 4310 mt 2564 4310 L
2528 4274 mt 2528 4346 L
1938 3224 mt 2010 3224 L
1974 3188 mt 1974 3260 L
1520 4209 mt 1592 4209 L
1556 4173 mt 1556 4245 L
1115 3830 mt 1187 3830 L
1151 3794 mt 1151 3866 L
 997 4583 mt 1069 4583 L
1033 4547 mt 1033 4619 L
 874 4615 mt  946 4615 L
 910 4579 mt  910 4651 L
 972 4594 mt 1044 4594 L
1008 4558 mt 1008 4630 L
1792 4542 mt 1864 4542 L
1828 4506 mt 1828 4578 L
 946 4340 mt 1018 4340 L
 982 4304 mt  982 4376 L
3096 4536 mt 3168 4536 L
3132 4500 mt 3132 4572 L
 878 4603 mt  950 4603 L
 914 4567 mt  914 4639 L
2505 4431 mt 2577 4431 L
2541 4395 mt 2541 4467 L
3729 4250 mt 3801 4250 L
3765 4214 mt 3765 4286 L
1278 3911 mt 1350 3911 L
1314 3875 mt 1314 3947 L
2797 4614 mt 2869 4614 L
2833 4578 mt 2833 4650 L
3271 4489 mt 3343 4489 L
3307 4453 mt 3307 4525 L
2103 3854 mt 2175 3854 L
2139 3818 mt 2139 3890 L
3744 3607 mt 3816 3607 L
3780 3571 mt 3780 3643 L
3342 2409 mt 3414 2409 L
3378 2373 mt 3378 2445 L
 881 4507 mt  953 4507 L
 917 4471 mt  917 4543 L
5659 3776 mt 5731 3776 L
5695 3740 mt 5695 3812 L
1593 4604 mt 1665 4604 L
1629 4568 mt 1629 4640 L
 949 4030 mt 1021 4030 L
 985 3994 mt  985 4066 L
 871 4360 mt  943 4360 L
 907 4324 mt  907 4396 L
1143 4257 mt 1215 4257 L
1179 4221 mt 1179 4293 L
1510 4493 mt 1582 4493 L
1546 4457 mt 1546 4529 L
1498 4255 mt 1570 4255 L
1534 4219 mt 1534 4291 L
1068 4596 mt 1140 4596 L
1104 4560 mt 1104 4632 L
1637 3908 mt 1709 3908 L
1673 3872 mt 1673 3944 L
3235 4116 mt 3307 4116 L
3271 4080 mt 3271 4152 L
 863 4615 mt  935 4615 L
 899 4579 mt  899 4651 L
 869 4607 mt  941 4607 L
 905 4571 mt  905 4643 L
1488 3544 mt 1560 3544 L
1524 3508 mt 1524 3580 L
1943 3893 mt 2015 3893 L
1979 3857 mt 1979 3929 L
4556 4523 mt 4628 4523 L
4592 4487 mt 4592 4559 L
1035 4582 mt 1107 4582 L
1071 4546 mt 1071 4618 L
3974 4418 mt 4046 4418 L
4010 4382 mt 4010 4454 L
2255 4039 mt 2327 4039 L
2291 4003 mt 2291 4075 L
1098 3783 mt 1170 3783 L
1134 3747 mt 1134 3819 L
 990 4399 mt 1062 4399 L
1026 4363 mt 1026 4435 L
2573 2637 mt 2645 2637 L
2609 2601 mt 2609 2673 L
1570 4572 mt 1642 4572 L
1606 4536 mt 1606 4608 L
1376 4486 mt 1448 4486 L
1412 4450 mt 1412 4522 L
1498 4444 mt 1570 4444 L
1534 4408 mt 1534 4480 L
1873 2652 mt 1945 2652 L
1909 2616 mt 1909 2688 L
1701 4605 mt 1773 4605 L
1737 4569 mt 1737 4641 L
 910 3076 mt  982 3076 L
 946 3040 mt  946 3112 L
3072 4451 mt 3144 4451 L
3108 4415 mt 3108 4487 L
1199 4613 mt 1271 4613 L
1235 4577 mt 1235 4649 L
1579 4588 mt 1651 4588 L
1615 4552 mt 1615 4624 L
1172 4483 mt 1244 4483 L
1208 4447 mt 1208 4519 L
2988 4186 mt 3060 4186 L
3024 4150 mt 3024 4222 L
1361 1841 mt 1433 1841 L
1397 1805 mt 1397 1877 L
 868 3558 mt  940 3558 L
 904 3522 mt  904 3594 L
4570 4608 mt 4642 4608 L
4606 4572 mt 4606 4644 L
1425 4519 mt 1497 4519 L
1461 4483 mt 1461 4555 L
2569 3923 mt 2641 3923 L
2605 3887 mt 2605 3959 L
 940 4603 mt 1012 4603 L
 976 4567 mt  976 4639 L
1323 4577 mt 1395 4577 L
1359 4541 mt 1359 4613 L
1211 2646 mt 1283 2646 L
1247 2610 mt 1247 2682 L
1418 4355 mt 1490 4355 L
1454 4319 mt 1454 4391 L
2254 2257 mt 2326 2257 L
2290 2221 mt 2290 2293 L
 988 4616 mt 1060 4616 L
1024 4580 mt 1024 4652 L
 880 3076 mt  952 3076 L
 916 3040 mt  916 3112 L
 977 4163 mt 1049 4163 L
1013 4127 mt 1013 4199 L
3026 4196 mt 3098 4196 L
3062 4160 mt 3062 4232 L
1775 3538 mt 1847 3538 L
1811 3502 mt 1811 3574 L
 909 4437 mt  981 4437 L
 945 4401 mt  945 4473 L
1011 4341 mt 1083 4341 L
1047 4305 mt 1047 4377 L
 951 4344 mt 1023 4344 L
 987 4308 mt  987 4380 L
gs 899 414 5363 4203 rc
gr

0 sg
2775 5104 mt 
(\(F,DCTb,GMM\)) s
 288 3277 mt  -90 rotate
(\(S,SSC,GMM\)) s
90 rotate
2975  223 mt 
(Corr = 0.05) s

end %%Color Dict

eplot
%%EndObject

epage
end

showpage

%%Trailer
%%EOF
