%!PS-Adobe-3.0 EPSF-3.0
%%Creator: MATLAB, The Mathworks, Inc. Version 7.7.0.471 (R2008b). Operating System: Microsoft Windows XP.
%%Title: Pictures\main_zoo_mvar_analysis_data_BMI_xcorr_bmi_p2_k2_1_3.eps
%%CreationDate: 10/26/2009  05:44:41
%%DocumentNeededFonts: Helvetica
%%DocumentProcessColors: Cyan Magenta Yellow Black
%%LanguageLevel: 2
%%Pages: 1
%%BoundingBox:    32   180   546   616
%%EndComments

%%BeginProlog
% MathWorks dictionary
/MathWorks 160 dict begin
% definition operators
/bdef {bind def} bind def
/ldef {load def} bind def
/xdef {exch def} bdef
/xstore {exch store} bdef
% operator abbreviations
/c  /clip ldef
/cc /concat ldef
/cp /closepath ldef
/gr /grestore ldef
/gs /gsave ldef
/mt /moveto ldef
/np /newpath ldef
/cm /currentmatrix ldef
/sm /setmatrix ldef
/rm /rmoveto ldef
/rl /rlineto ldef
/s {show newpath} bdef
/sc {setcmykcolor} bdef
/sr /setrgbcolor ldef
/sg /setgray ldef
/w /setlinewidth ldef
/j /setlinejoin ldef
/cap /setlinecap ldef
/rc {rectclip} bdef
/rf {rectfill} bdef
% page state control
/pgsv () def
/bpage {/pgsv save def} bdef
/epage {pgsv restore} bdef
/bplot /gsave ldef
/eplot {stroke grestore} bdef
% orientation switch
/portraitMode 0 def /landscapeMode 1 def /rotateMode 2 def
% coordinate system mappings
/dpi2point 0 def
% font control
/FontSize 0 def
/FMS {/FontSize xstore findfont [FontSize 0 0 FontSize neg 0 0]
  makefont setfont} bdef
/ISOLatin1Encoding where {pop /WindowsLatin1Encoding 256 array bdef
ISOLatin1Encoding WindowsLatin1Encoding copy pop
/.notdef/.notdef/quotesinglbase/florin/quotedblbase/ellipsis/dagger
/daggerdbl/circumflex/perthousand/Scaron/guilsinglleft/OE/.notdef/.notdef
/.notdef/.notdef/quoteleft/quoteright/quotedblleft/quotedblright/bullet
/endash/emdash/tilde/trademark/scaron/guilsinglright/oe/.notdef/.notdef
/Ydieresis WindowsLatin1Encoding 128 32 getinterval astore pop}
{/WindowsLatin1Encoding StandardEncoding bdef} ifelse
/reencode {exch dup where {pop load} {pop StandardEncoding} ifelse
  exch dup 3 1 roll findfont dup length dict begin
  { 1 index /FID ne {def}{pop pop} ifelse } forall
  /Encoding exch def currentdict end definefont pop} bdef
/isroman {findfont /CharStrings get /Agrave known} bdef
/FMSR {3 1 roll 1 index dup isroman {reencode} {pop pop} ifelse
  exch FMS} bdef
/csm {1 dpi2point div -1 dpi2point div scale neg translate
 dup landscapeMode eq {pop -90 rotate}
  {rotateMode eq {90 rotate} if} ifelse} bdef
% line types: solid, dotted, dashed, dotdash
/SO { [] 0 setdash } bdef
/DO { [.5 dpi2point mul 4 dpi2point mul] 0 setdash } bdef
/DA { [6 dpi2point mul] 0 setdash } bdef
/DD { [.5 dpi2point mul 4 dpi2point mul 6 dpi2point mul 4
  dpi2point mul] 0 setdash } bdef
% macros for lines and objects
/L {lineto stroke} bdef
/MP {3 1 roll moveto 1 sub {rlineto} repeat} bdef
/AP {{rlineto} repeat} bdef
/PDlw -1 def
/W {/PDlw currentlinewidth def setlinewidth} def
/PP {closepath eofill} bdef
/DP {closepath stroke} bdef
/MR {4 -2 roll moveto dup  0 exch rlineto exch 0 rlineto
  neg 0 exch rlineto closepath} bdef
/FR {MR stroke} bdef
/PR {MR fill} bdef
/L1i {{currentfile picstr readhexstring pop} image} bdef
/tMatrix matrix def
/MakeOval {newpath tMatrix currentmatrix pop translate scale
0 0 1 0 360 arc tMatrix setmatrix} bdef
/FO {MakeOval stroke} bdef
/PO {MakeOval fill} bdef
/PD {currentlinewidth 2 div 0 360 arc fill
   PDlw -1 eq not {PDlw w /PDlw -1 def} if} def
/FA {newpath tMatrix currentmatrix pop translate scale
  0 0 1 5 -2 roll arc tMatrix setmatrix stroke} bdef
/PA {newpath tMatrix currentmatrix pop	translate 0 0 moveto scale
  0 0 1 5 -2 roll arc closepath tMatrix setmatrix fill} bdef
/FAn {newpath tMatrix currentmatrix pop translate scale
  0 0 1 5 -2 roll arcn tMatrix setmatrix stroke} bdef
/PAn {newpath tMatrix currentmatrix pop translate 0 0 moveto scale
  0 0 1 5 -2 roll arcn closepath tMatrix setmatrix fill} bdef
/vradius 0 def /hradius 0 def /lry 0 def
/lrx 0 def /uly 0 def /ulx 0 def /rad 0 def
/MRR {/vradius xdef /hradius xdef /lry xdef /lrx xdef /uly xdef
  /ulx xdef newpath tMatrix currentmatrix pop ulx hradius add uly
  vradius add translate hradius vradius scale 0 0 1 180 270 arc 
  tMatrix setmatrix lrx hradius sub uly vradius add translate
  hradius vradius scale 0 0 1 270 360 arc tMatrix setmatrix
  lrx hradius sub lry vradius sub translate hradius vradius scale
  0 0 1 0 90 arc tMatrix setmatrix ulx hradius add lry vradius sub
  translate hradius vradius scale 0 0 1 90 180 arc tMatrix setmatrix
  closepath} bdef
/FRR {MRR stroke } bdef
/PRR {MRR fill } bdef
/MlrRR {/lry xdef /lrx xdef /uly xdef /ulx xdef /rad lry uly sub 2 div def
  newpath tMatrix currentmatrix pop ulx rad add uly rad add translate
  rad rad scale 0 0 1 90 270 arc tMatrix setmatrix lrx rad sub lry rad
  sub translate rad rad scale 0 0 1 270 90 arc tMatrix setmatrix
  closepath} bdef
/FlrRR {MlrRR stroke } bdef
/PlrRR {MlrRR fill } bdef
/MtbRR {/lry xdef /lrx xdef /uly xdef /ulx xdef /rad lrx ulx sub 2 div def
  newpath tMatrix currentmatrix pop ulx rad add uly rad add translate
  rad rad scale 0 0 1 180 360 arc tMatrix setmatrix lrx rad sub lry rad
  sub translate rad rad scale 0 0 1 0 180 arc tMatrix setmatrix
  closepath} bdef
/FtbRR {MtbRR stroke } bdef
/PtbRR {MtbRR fill } bdef
/stri 6 array def /dtri 6 array def
/smat 6 array def /dmat 6 array def
/tmat1 6 array def /tmat2 6 array def /dif 3 array def
/asub {/ind2 exch def /ind1 exch def dup dup
  ind1 get exch ind2 get sub exch } bdef
/tri_to_matrix {
  2 0 asub 3 1 asub 4 0 asub 5 1 asub
  dup 0 get exch 1 get 7 -1 roll astore } bdef
/compute_transform {
  dmat dtri tri_to_matrix tmat1 invertmatrix 
  smat stri tri_to_matrix tmat2 concatmatrix } bdef
/ds {stri astore pop} bdef
/dt {dtri astore pop} bdef
/db {2 copy /cols xdef /rows xdef mul dup 3 mul string
  currentfile 
  3 index 0 eq {/ASCIIHexDecode filter}
  {/ASCII85Decode filter 3 index 2 eq {/RunLengthDecode filter} if }
  ifelse exch readstring pop
  dup 0 3 index getinterval /rbmap xdef
  dup 2 index dup getinterval /gbmap xdef
  1 index dup 2 mul exch getinterval /bbmap xdef pop pop}bdef
/it {gs np dtri aload pop moveto lineto lineto cp c
  cols rows 8 compute_transform 
  rbmap gbmap bbmap true 3 colorimage gr}bdef
/il {newpath moveto lineto stroke}bdef
currentdict end def
%%EndProlog

%%BeginSetup
MathWorks begin

0 cap

end
%%EndSetup

%%Page: 1 1
%%BeginPageSetup
%%PageBoundingBox:    32   180   546   616
MathWorks begin
bpage
%%EndPageSetup

%%BeginObject: obj1
bplot

/dpi2point 12 def
portraitMode 0216 7344 csm

  174   -48  6173  5231 rc
85 dict begin %Colortable dictionary
/c0 { 0.000000 0.000000 0.000000 sr} bdef
/c1 { 1.000000 1.000000 1.000000 sr} bdef
/c2 { 0.900000 0.000000 0.000000 sr} bdef
/c3 { 0.000000 0.820000 0.000000 sr} bdef
/c4 { 0.000000 0.000000 0.800000 sr} bdef
/c5 { 0.910000 0.820000 0.320000 sr} bdef
/c6 { 1.000000 0.260000 0.820000 sr} bdef
/c7 { 0.000000 0.820000 0.820000 sr} bdef
c0
1 j
1 sg
   0    0 6919 5187 rf
6 w
0 4203 5363 0 0 -4203 898 4616 4 MP
PP
-5363 0 0 4203 5363 0 0 -4203 898 4616 5 MP stroke
4 w
DO
SO
6 w
0 sg
 898  413 mt 6261  413 L
 898 4616 mt 6261 4616 L
6261 4616 mt 6261  413 L
 898 4616 mt  898  413 L
 898 4616 mt 6261 4616 L
 898 4616 mt  898  413 L
1971 4616 mt 1971 4562 L
1971  414 mt 1971  467 L
%%IncludeResource: font Helvetica
/Helvetica /WindowsLatin1Encoding 240 FMSR

1805 4873 mt 
(0.2) s
3043 4616 mt 3043 4562 L
3043  414 mt 3043  467 L
2877 4873 mt 
(0.4) s
4116 4616 mt 4116 4562 L
4116  414 mt 4116  467 L
3950 4873 mt 
(0.6) s
5188 4616 mt 5188 4562 L
5188  414 mt 5188  467 L
5022 4873 mt 
(0.8) s
 898 4195 mt  952 4195 L
6261 4195 mt 6207 4195 L
 531 4284 mt 
(0.1) s
 898 3775 mt  952 3775 L
6261 3775 mt 6207 3775 L
 531 3864 mt 
(0.2) s
 898 3355 mt  952 3355 L
6261 3355 mt 6207 3355 L
 531 3444 mt 
(0.3) s
 898 2935 mt  952 2935 L
6261 2935 mt 6207 2935 L
 531 3024 mt 
(0.4) s
 898 2515 mt  952 2515 L
6261 2515 mt 6207 2515 L
 531 2604 mt 
(0.5) s
 898 2094 mt  952 2094 L
6261 2094 mt 6207 2094 L
 531 2183 mt 
(0.6) s
 898 1674 mt  952 1674 L
6261 1674 mt 6207 1674 L
 531 1763 mt 
(0.7) s
 898 1254 mt  952 1254 L
6261 1254 mt 6207 1254 L
 531 1343 mt 
(0.8) s
 898  834 mt  952  834 L
6261  834 mt 6207  834 L
 531  923 mt 
(0.9) s
 898  413 mt 6261  413 L
 898 4616 mt 6261 4616 L
6261 4616 mt 6261  413 L
 898 4616 mt  898  413 L
gs 898 414 5364 4203 rc
gr

/c8 { 0.000000 0.000000 1.000000 sr} bdef
c8
5517  416 mt 5589  416 L
5553  380 mt 5553  452 L
3289  438 mt 3361  438 L
3325  402 mt 3325  474 L
5742 4045 mt 5814 4045 L
5778 4009 mt 5778 4081 L
6149  414 mt 6221  414 L
6185  378 mt 6185  450 L
3566  440 mt 3638  440 L
3602  404 mt 3602  476 L
 894 1298 mt  966 1298 L
 930 1262 mt  930 1334 L
4989  414 mt 5061  414 L
5025  378 mt 5025  450 L
5801  740 mt 5873  740 L
5837  704 mt 5837  776 L
1296  598 mt 1368  598 L
1332  562 mt 1332  634 L
5685 4201 mt 5757 4201 L
5721 4165 mt 5721 4237 L
2351  514 mt 2423  514 L
2387  478 mt 2387  550 L
5603  419 mt 5675  419 L
5639  383 mt 5639  455 L
6177 3822 mt 6249 3822 L
6213 3786 mt 6213 3858 L
2070  414 mt 2142  414 L
2106  378 mt 2106  450 L
6213  791 mt 6285  791 L
6249  755 mt 6249  827 L
3873 1478 mt 3945 1478 L
3909 1442 mt 3909 1514 L
 936  418 mt 1008  418 L
 972  382 mt  972  454 L
6113  563 mt 6185  563 L
6149  527 mt 6149  599 L
6209 2615 mt 6281 2615 L
6245 2579 mt 6245 2651 L
5425  509 mt 5497  509 L
5461  473 mt 5461  545 L
5596 1066 mt 5668 1066 L
5632 1030 mt 5632 1102 L
 864  478 mt  936  478 L
 900  442 mt  900  514 L
6220  652 mt 6292  652 L
6256  616 mt 6256  688 L
1818  714 mt 1890  714 L
1854  678 mt 1854  750 L
4559 1524 mt 4631 1524 L
4595 1488 mt 4595 1560 L
3650 1099 mt 3722 1099 L
3686 1063 mt 3686 1135 L
3223 4481 mt 3295 4481 L
3259 4445 mt 3259 4517 L
5930 2848 mt 6002 2848 L
5966 2812 mt 5966 2884 L
6081  473 mt 6153  473 L
6117  437 mt 6117  509 L
6106  578 mt 6178  578 L
6142  542 mt 6142  614 L
5813  424 mt 5885  424 L
5849  388 mt 5849  460 L
6201  889 mt 6273  889 L
6237  853 mt 6237  925 L
4146 3523 mt 4218 3523 L
4182 3487 mt 4182 3559 L
6166 4587 mt 6238 4587 L
6202 4551 mt 6202 4623 L
5698  419 mt 5770  419 L
5734  383 mt 5734  455 L
6173 4447 mt 6245 4447 L
6209 4411 mt 6209 4483 L
6110  634 mt 6182  634 L
6146  598 mt 6146  670 L
 879  434 mt  951  434 L
 915  398 mt  915  470 L
6160 1670 mt 6232 1670 L
6196 1634 mt 6196 1706 L
3499  443 mt 3571  443 L
3535  407 mt 3535  479 L
1841 4215 mt 1913 4215 L
1877 4179 mt 1877 4251 L
5206  431 mt 5278  431 L
5242  395 mt 5242  467 L
6205 2295 mt 6277 2295 L
6241 2259 mt 6241 2331 L
1034  545 mt 1106  545 L
1070  509 mt 1070  581 L
6155 1290 mt 6227 1290 L
6191 1254 mt 6191 1326 L
6141 2463 mt 6213 2463 L
6177 2427 mt 6177 2499 L
1378  661 mt 1450  661 L
1414  625 mt 1414  697 L
4675 2028 mt 4747 2028 L
4711 1992 mt 4711 2064 L
4344 4491 mt 4416 4491 L
4380 4455 mt 4380 4527 L
5607 1428 mt 5679 1428 L
5643 1392 mt 5643 1464 L
4568  453 mt 4640  453 L
4604  417 mt 4604  489 L
5632  453 mt 5704  453 L
5668  417 mt 5668  489 L
5373  436 mt 5445  436 L
5409  400 mt 5409  472 L
1620 3975 mt 1692 3975 L
1656 3939 mt 1656 4011 L
5738  560 mt 5810  560 L
5774  524 mt 5774  596 L
4968 3990 mt 5040 3990 L
5004 3954 mt 5004 4026 L
 899  599 mt  971  599 L
 935  563 mt  935  635 L
4619 1711 mt 4691 1711 L
4655 1675 mt 4655 1747 L
 934  802 mt 1006  802 L
 970  766 mt  970  838 L
5916 3596 mt 5988 3596 L
5952 3560 mt 5952 3632 L
6222 4162 mt 6294 4162 L
6258 4126 mt 6258 4198 L
5600 1629 mt 5672 1629 L
5636 1593 mt 5636 1665 L
6204  945 mt 6276  945 L
6240  909 mt 6240  981 L
5792 2158 mt 5864 2158 L
5828 2122 mt 5828 2194 L
3096  417 mt 3168  417 L
3132  381 mt 3132  453 L
4499 1058 mt 4571 1058 L
4535 1022 mt 4535 1094 L
6204  500 mt 6276  500 L
6240  464 mt 6240  536 L
6217  711 mt 6289  711 L
6253  675 mt 6253  747 L
5729  672 mt 5801  672 L
5765  636 mt 5765  708 L
3630  788 mt 3702  788 L
3666  752 mt 3666  824 L
 875  615 mt  947  615 L
 911  579 mt  911  651 L
4107 4422 mt 4179 4422 L
4143 4386 mt 4143 4458 L
2695 2381 mt 2767 2381 L
2731 2345 mt 2731 2417 L
5084 1609 mt 5156 1609 L
5120 1573 mt 5120 1645 L
2140  566 mt 2212  566 L
2176  530 mt 2176  602 L
4416  782 mt 4488  782 L
4452  746 mt 4452  818 L
6127 4539 mt 6199 4539 L
6163 4503 mt 6163 4575 L
4970 2720 mt 5042 2720 L
5006 2684 mt 5006 2756 L
6209  432 mt 6281  432 L
6245  396 mt 6245  468 L
5918 1216 mt 5990 1216 L
5954 1180 mt 5954 1252 L
5681 1005 mt 5753 1005 L
5717  969 mt 5717 1041 L
1006 1460 mt 1078 1460 L
1042 1424 mt 1042 1496 L
5617 1995 mt 5689 1995 L
5653 1959 mt 5653 2031 L
3919  564 mt 3991  564 L
3955  528 mt 3955  600 L
5921  800 mt 5993  800 L
5957  764 mt 5957  836 L
6051  504 mt 6123  504 L
6087  468 mt 6087  540 L
6221  414 mt 6293  414 L
6257  378 mt 6257  450 L
5624  966 mt 5696  966 L
5660  930 mt 5660 1002 L
6191  578 mt 6263  578 L
6227  542 mt 6227  614 L
3177  436 mt 3249  436 L
3213  400 mt 3213  472 L
5851  442 mt 5923  442 L
5887  406 mt 5887  478 L
6224  848 mt 6296  848 L
6260  812 mt 6260  884 L
3460  455 mt 3532  455 L
3496  419 mt 3496  491 L
 943 2311 mt 1015 2311 L
 979 2275 mt  979 2347 L
 880 1074 mt  952 1074 L
 916 1038 mt  916 1110 L
1057 1087 mt 1129 1087 L
1093 1051 mt 1093 1123 L
 863  857 mt  935  857 L
 899  821 mt  899  893 L
6224  450 mt 6296  450 L
6260  414 mt 6260  486 L
 873  416 mt  945  416 L
 909  380 mt  909  452 L
2199 2587 mt 2271 2587 L
2235 2551 mt 2235 2623 L
5567 1942 mt 5639 1942 L
5603 1906 mt 5603 1978 L
4573 1118 mt 4645 1118 L
4609 1082 mt 4609 1154 L
3636 4065 mt 3708 4065 L
3672 4029 mt 3672 4101 L
5143 3045 mt 5215 3045 L
5179 3009 mt 5179 3081 L
2435 1741 mt 2507 1741 L
2471 1705 mt 2471 1777 L
6195  430 mt 6267  430 L
6231  394 mt 6231  466 L
6215  420 mt 6287  420 L
6251  384 mt 6251  456 L
5880  960 mt 5952  960 L
5916  924 mt 5916  996 L
3107  475 mt 3179  475 L
3143  439 mt 3143  511 L
6211  414 mt 6283  414 L
6247  378 mt 6247  450 L
5800  451 mt 5872  451 L
5836  415 mt 5836  487 L
3982 1628 mt 4054 1628 L
4018 1592 mt 4018 1664 L
2347  419 mt 2419  419 L
2383  383 mt 2383  455 L
5468  493 mt 5540  493 L
5504  457 mt 5504  529 L
3679 1702 mt 3751 1702 L
3715 1666 mt 3715 1738 L
3637  463 mt 3709  463 L
3673  427 mt 3673  499 L
4444  461 mt 4516  461 L
4480  425 mt 4480  497 L
2272  674 mt 2344  674 L
2308  638 mt 2308  710 L
1256  470 mt 1328  470 L
1292  434 mt 1292  506 L
6208  418 mt 6280  418 L
6244  382 mt 6244  454 L
5862  767 mt 5934  767 L
5898  731 mt 5898  803 L
 968 4539 mt 1040 4539 L
1004 4503 mt 1004 4575 L
1610  465 mt 1682  465 L
1646  429 mt 1646  501 L
6185 3335 mt 6257 3335 L
6221 3299 mt 6221 3371 L
1542  708 mt 1614  708 L
1578  672 mt 1578  744 L
3254  423 mt 3326  423 L
3290  387 mt 3290  459 L
6141 1130 mt 6213 1130 L
6177 1094 mt 6177 1166 L
5286  447 mt 5358  447 L
5322  411 mt 5322  483 L
 872 4079 mt  944 4079 L
 908 4043 mt  908 4115 L
5244 2647 mt 5316 2647 L
5280 2611 mt 5280 2683 L
1722  415 mt 1794  415 L
1758  379 mt 1758  451 L
6211  424 mt 6283  424 L
6247  388 mt 6247  460 L
5500  523 mt 5572  523 L
5536  487 mt 5536  559 L
5998  414 mt 6070  414 L
6034  378 mt 6034  450 L
5482 4386 mt 5554 4386 L
5518 4350 mt 5518 4422 L
6221 4576 mt 6293 4576 L
6257 4540 mt 6257 4612 L
4476  700 mt 4548  700 L
4512  664 mt 4512  736 L
5938  798 mt 6010  798 L
5974  762 mt 5974  834 L
5268 3425 mt 5340 3425 L
5304 3389 mt 5304 3461 L
5805 1840 mt 5877 1840 L
5841 1804 mt 5841 1876 L
5910 1115 mt 5982 1115 L
5946 1079 mt 5946 1151 L
5999 2109 mt 6071 2109 L
6035 2073 mt 6035 2145 L
5515 4421 mt 5587 4421 L
5551 4385 mt 5551 4457 L
 862 2726 mt  934 2726 L
 898 2690 mt  898 2762 L
5499 1543 mt 5571 1543 L
5535 1507 mt 5535 1579 L
5859  717 mt 5931  717 L
5895  681 mt 5895  753 L
2291  580 mt 2363  580 L
2327  544 mt 2327  616 L
5381  659 mt 5453  659 L
5417  623 mt 5417  695 L
5958 3530 mt 6030 3530 L
5994 3494 mt 5994 3566 L
3491 3073 mt 3563 3073 L
3527 3037 mt 3527 3109 L
6192  544 mt 6264  544 L
6228  508 mt 6228  580 L
6129  598 mt 6201  598 L
6165  562 mt 6165  634 L
3031  667 mt 3103  667 L
3067  631 mt 3067  703 L
6224 1442 mt 6296 1442 L
6260 1406 mt 6260 1478 L
 863  871 mt  935  871 L
 899  835 mt  899  907 L
6175  445 mt 6247  445 L
6211  409 mt 6211  481 L
6141 1907 mt 6213 1907 L
6177 1871 mt 6177 1943 L
2447  430 mt 2519  430 L
2483  394 mt 2483  466 L
6098  788 mt 6170  788 L
6134  752 mt 6134  824 L
2384  426 mt 2456  426 L
2420  390 mt 2420  462 L
6206 3730 mt 6278 3730 L
6242 3694 mt 6242 3766 L
5234  529 mt 5306  529 L
5270  493 mt 5270  565 L
3505  653 mt 3577  653 L
3541  617 mt 3541  689 L
6173  546 mt 6245  546 L
6209  510 mt 6209  582 L
6154  424 mt 6226  424 L
6190  388 mt 6190  460 L
3515 3491 mt 3587 3491 L
3551 3455 mt 3551 3527 L
6188  684 mt 6260  684 L
6224  648 mt 6224  720 L
5682 1938 mt 5754 1938 L
5718 1902 mt 5718 1974 L
3289 4092 mt 3361 4092 L
3325 4056 mt 3325 4128 L
4202  586 mt 4274  586 L
4238  550 mt 4238  622 L
5100  435 mt 5172  435 L
5136  399 mt 5136  471 L
6188  654 mt 6260  654 L
6224  618 mt 6224  690 L
4877  669 mt 4949  669 L
4913  633 mt 4913  705 L
6036  434 mt 6108  434 L
6072  398 mt 6072  470 L
4126  480 mt 4198  480 L
4162  444 mt 4162  516 L
3316  432 mt 3388  432 L
3352  396 mt 3352  468 L
5837  777 mt 5909  777 L
5873  741 mt 5873  813 L
5919  470 mt 5991  470 L
5955  434 mt 5955  506 L
5668  874 mt 5740  874 L
5704  838 mt 5704  910 L
6084  509 mt 6156  509 L
6120  473 mt 6120  545 L
 867 1875 mt  939 1875 L
 903 1839 mt  903 1911 L
6117  422 mt 6189  422 L
6153  386 mt 6153  458 L
6036 1251 mt 6108 1251 L
6072 1215 mt 6072 1287 L
4391  823 mt 4463  823 L
4427  787 mt 4427  859 L
6205  417 mt 6277  417 L
6241  381 mt 6241  453 L
4660 3709 mt 4732 3709 L
4696 3673 mt 4696 3745 L
6221  425 mt 6293  425 L
6257  389 mt 6257  461 L
5938 4477 mt 6010 4477 L
5974 4441 mt 5974 4513 L
6180 3385 mt 6252 3385 L
6216 3349 mt 6216 3421 L
6224  418 mt 6296  418 L
6260  382 mt 6260  454 L
2806 4588 mt 2878 4588 L
2842 4552 mt 2842 4624 L
6117 2336 mt 6189 2336 L
6153 2300 mt 6153 2372 L
6220 2118 mt 6292 2118 L
6256 2082 mt 6256 2154 L
2930 1630 mt 3002 1630 L
2966 1594 mt 2966 1666 L
6126  698 mt 6198  698 L
6162  662 mt 6162  734 L
5029  562 mt 5101  562 L
5065  526 mt 5065  598 L
3237 1692 mt 3309 1692 L
3273 1656 mt 3273 1728 L
6045  941 mt 6117  941 L
6081  905 mt 6081  977 L
1928  849 mt 2000  849 L
1964  813 mt 1964  885 L
6165  450 mt 6237  450 L
6201  414 mt 6201  486 L
2836  431 mt 2908  431 L
2872  395 mt 2872  467 L
6219  601 mt 6291  601 L
6255  565 mt 6255  637 L
1475 3372 mt 1547 3372 L
1511 3336 mt 1511 3408 L
5708 2274 mt 5780 2274 L
5744 2238 mt 5744 2310 L
5680  421 mt 5752  421 L
5716  385 mt 5716  457 L
5933 1997 mt 6005 1997 L
5969 1961 mt 5969 2033 L
6058  700 mt 6130  700 L
6094  664 mt 6094  736 L
4230 1718 mt 4302 1718 L
4266 1682 mt 4266 1754 L
5433  456 mt 5505  456 L
5469  420 mt 5469  492 L
6221 4333 mt 6293 4333 L
6257 4297 mt 6257 4369 L
2565  790 mt 2637  790 L
2601  754 mt 2601  826 L
6053  500 mt 6125  500 L
6089  464 mt 6089  536 L
6128 1934 mt 6200 1934 L
6164 1898 mt 6164 1970 L
2387 2482 mt 2459 2482 L
2423 2446 mt 2423 2518 L
5890 1694 mt 5962 1694 L
5926 1658 mt 5926 1730 L
6137  549 mt 6209  549 L
6173  513 mt 6173  585 L
6218  953 mt 6290  953 L
6254  917 mt 6254  989 L
4159  442 mt 4231  442 L
4195  406 mt 4195  478 L
3509 2808 mt 3581 2808 L
3545 2772 mt 3545 2844 L
5464  639 mt 5536  639 L
5500  603 mt 5500  675 L
6124 2319 mt 6196 2319 L
6160 2283 mt 6160 2355 L
 950  989 mt 1022  989 L
 986  953 mt  986 1025 L
1600 2478 mt 1672 2478 L
1636 2442 mt 1636 2514 L
2407 3170 mt 2479 3170 L
2443 3134 mt 2443 3206 L
5827  430 mt 5899  430 L
5863  394 mt 5863  466 L
3821 1754 mt 3893 1754 L
3857 1718 mt 3857 1790 L
5993  414 mt 6065  414 L
6029  378 mt 6029  450 L
5520  539 mt 5592  539 L
5556  503 mt 5556  575 L
1788  678 mt 1860  678 L
1824  642 mt 1824  714 L
4720  906 mt 4792  906 L
4756  870 mt 4756  942 L
6104 1394 mt 6176 1394 L
6140 1358 mt 6140 1430 L
6207 4205 mt 6279 4205 L
6243 4169 mt 6243 4241 L
 946  638 mt 1018  638 L
 982  602 mt  982  674 L
6216 3667 mt 6288 3667 L
6252 3631 mt 6252 3703 L
2844  624 mt 2916  624 L
2880  588 mt 2880  660 L
5808 4044 mt 5880 4044 L
5844 4008 mt 5844 4080 L
 871  622 mt  943  622 L
 907  586 mt  907  658 L
2549  419 mt 2621  419 L
2585  383 mt 2585  455 L
1261  478 mt 1333  478 L
1297  442 mt 1297  514 L
 989  414 mt 1061  414 L
1025  378 mt 1025  450 L
4887  882 mt 4959  882 L
4923  846 mt 4923  918 L
5624 1780 mt 5696 1780 L
5660 1744 mt 5660 1816 L
5306  475 mt 5378  475 L
5342  439 mt 5342  511 L
6179 3478 mt 6251 3478 L
6215 3442 mt 6215 3514 L
6105  852 mt 6177  852 L
6141  816 mt 6141  888 L
 917 1014 mt  989 1014 L
 953  978 mt  953 1050 L
6190  790 mt 6262  790 L
6226  754 mt 6226  826 L
2901  948 mt 2973  948 L
2937  912 mt 2937  984 L
1317 1224 mt 1389 1224 L
1353 1188 mt 1353 1260 L
3224 2610 mt 3296 2610 L
3260 2574 mt 3260 2646 L
6223  545 mt 6295  545 L
6259  509 mt 6259  581 L
6094 1368 mt 6166 1368 L
6130 1332 mt 6130 1404 L
3438 4478 mt 3510 4478 L
3474 4442 mt 3474 4514 L
6020 3519 mt 6092 3519 L
6056 3483 mt 6056 3555 L
5909  923 mt 5981  923 L
5945  887 mt 5945  959 L
6146 3707 mt 6218 3707 L
6182 3671 mt 6182 3743 L
3566  420 mt 3638  420 L
3602  384 mt 3602  456 L
4832  781 mt 4904  781 L
4868  745 mt 4868  817 L
1446  445 mt 1518  445 L
1482  409 mt 1482  481 L
6170  880 mt 6242  880 L
6206  844 mt 6206  916 L
6073  444 mt 6145  444 L
6109  408 mt 6109  480 L
6225 3004 mt 6297 3004 L
6261 2968 mt 6261 3040 L
6191 3142 mt 6263 3142 L
6227 3106 mt 6227 3178 L
4173 2083 mt 4245 2083 L
4209 2047 mt 4209 2119 L
1594  659 mt 1666  659 L
1630  623 mt 1630  695 L
5601  873 mt 5673  873 L
5637  837 mt 5637  909 L
5250  454 mt 5322  454 L
5286  418 mt 5286  490 L
6172 1052 mt 6244 1052 L
6208 1016 mt 6208 1088 L
4415  421 mt 4487  421 L
4451  385 mt 4451  457 L
5377 1129 mt 5449 1129 L
5413 1093 mt 5413 1165 L
5515 3063 mt 5587 3063 L
5551 3027 mt 5551 3099 L
 904 1043 mt  976 1043 L
 940 1007 mt  940 1079 L
4320  466 mt 4392  466 L
4356  430 mt 4356  502 L
6223  453 mt 6295  453 L
6259  417 mt 6259  489 L
2079  497 mt 2151  497 L
2115  461 mt 2115  533 L
2513 1235 mt 2585 1235 L
2549 1199 mt 2549 1271 L
6203  424 mt 6275  424 L
6239  388 mt 6239  460 L
6216  791 mt 6288  791 L
6252  755 mt 6252  827 L
5118  621 mt 5190  621 L
5154  585 mt 5154  657 L
6193  425 mt 6265  425 L
6229  389 mt 6229  461 L
5762 1360 mt 5834 1360 L
5798 1324 mt 5798 1396 L
6192 1300 mt 6264 1300 L
6228 1264 mt 6228 1336 L
6220 4431 mt 6292 4431 L
6256 4395 mt 6256 4467 L
6053 3378 mt 6125 3378 L
6089 3342 mt 6089 3414 L
5746  435 mt 5818  435 L
5782  399 mt 5782  471 L
2732 1271 mt 2804 1271 L
2768 1235 mt 2768 1307 L
4229  596 mt 4301  596 L
4265  560 mt 4265  632 L
5520  414 mt 5592  414 L
5556  378 mt 5556  450 L
3542  467 mt 3614  467 L
3578  431 mt 3578  503 L
2033 1760 mt 2105 1760 L
2069 1724 mt 2069 1796 L
5918  612 mt 5990  612 L
5954  576 mt 5954  648 L
6069  504 mt 6141  504 L
6105  468 mt 6105  540 L
1824 2328 mt 1896 2328 L
1860 2292 mt 1860 2364 L
5472  846 mt 5544  846 L
5508  810 mt 5508  882 L
4951 3753 mt 5023 3753 L
4987 3717 mt 4987 3789 L
5719  991 mt 5791  991 L
5755  955 mt 5755 1027 L
3198  996 mt 3270  996 L
3234  960 mt 3234 1032 L
3197  923 mt 3269  923 L
3233  887 mt 3233  959 L
 864 2544 mt  936 2544 L
 900 2508 mt  900 2580 L
5074 4602 mt 5146 4602 L
5110 4566 mt 5110 4638 L
6193  446 mt 6265  446 L
6229  410 mt 6229  482 L
5733 1785 mt 5805 1785 L
5769 1749 mt 5769 1821 L
3910 1578 mt 3982 1578 L
3946 1542 mt 3946 1614 L
2258 2921 mt 2330 2921 L
2294 2885 mt 2294 2957 L
3645  422 mt 3717  422 L
3681  386 mt 3681  458 L
1190 4261 mt 1262 4261 L
1226 4225 mt 1226 4297 L
 883 1426 mt  955 1426 L
 919 1390 mt  919 1462 L
6154 4159 mt 6226 4159 L
6190 4123 mt 6190 4195 L
5662  501 mt 5734  501 L
5698  465 mt 5698  537 L
2975 2130 mt 3047 2130 L
3011 2094 mt 3011 2166 L
6138 1626 mt 6210 1626 L
6174 1590 mt 6174 1662 L
5321  414 mt 5393  414 L
5357  378 mt 5357  450 L
5227 1770 mt 5299 1770 L
5263 1734 mt 5263 1806 L
3649  453 mt 3721  453 L
3685  417 mt 3685  489 L
1536 2131 mt 1608 2131 L
1572 2095 mt 1572 2167 L
4296 2356 mt 4368 2356 L
4332 2320 mt 4332 2392 L
6217  419 mt 6289  419 L
6253  383 mt 6253  455 L
 948  419 mt 1020  419 L
 984  383 mt  984  455 L
5638  510 mt 5710  510 L
5674  474 mt 5674  546 L
4997 4146 mt 5069 4146 L
5033 4110 mt 5033 4182 L
6144  453 mt 6216  453 L
6180  417 mt 6180  489 L
1159 4588 mt 1231 4588 L
1195 4552 mt 1195 4624 L
4414  538 mt 4486  538 L
4450  502 mt 4450  574 L
6047  489 mt 6119  489 L
6083  453 mt 6083  525 L
5692 1693 mt 5764 1693 L
5728 1657 mt 5728 1729 L
5938  512 mt 6010  512 L
5974  476 mt 5974  548 L
4793 2100 mt 4865 2100 L
4829 2064 mt 4829 2136 L
1646 1772 mt 1718 1772 L
1682 1736 mt 1682 1808 L
5063 2826 mt 5135 2826 L
5099 2790 mt 5099 2862 L
5264  670 mt 5336  670 L
5300  634 mt 5300  706 L
2519 1081 mt 2591 1081 L
2555 1045 mt 2555 1117 L
2131 2620 mt 2203 2620 L
2167 2584 mt 2167 2656 L
6148  604 mt 6220  604 L
6184  568 mt 6184  640 L
1239 4246 mt 1311 4246 L
1275 4210 mt 1275 4282 L
5170 1995 mt 5242 1995 L
5206 1959 mt 5206 2031 L
6187 4558 mt 6259 4558 L
6223 4522 mt 6223 4594 L
 900 3919 mt  972 3919 L
 936 3883 mt  936 3955 L
6224 2420 mt 6296 2420 L
6260 2384 mt 6260 2456 L
3199  425 mt 3271  425 L
3235  389 mt 3235  461 L
6204 4052 mt 6276 4052 L
6240 4016 mt 6240 4088 L
6166 4198 mt 6238 4198 L
6202 4162 mt 6202 4234 L
5848  780 mt 5920  780 L
5884  744 mt 5884  816 L
6012  963 mt 6084  963 L
6048  927 mt 6048  999 L
1083 4467 mt 1155 4467 L
1119 4431 mt 1119 4503 L
6110 1177 mt 6182 1177 L
6146 1141 mt 6146 1213 L
4754 1517 mt 4826 1517 L
4790 1481 mt 4790 1553 L
 865 1565 mt  937 1565 L
 901 1529 mt  901 1601 L
5114  707 mt 5186  707 L
5150  671 mt 5150  743 L
6224 1221 mt 6296 1221 L
6260 1185 mt 6260 1257 L
3363  813 mt 3435  813 L
3399  777 mt 3399  849 L
6215  589 mt 6287  589 L
6251  553 mt 6251  625 L
5081 4455 mt 5153 4455 L
5117 4419 mt 5117 4491 L
6191 1185 mt 6263 1185 L
6227 1149 mt 6227 1221 L
4114  492 mt 4186  492 L
4150  456 mt 4150  528 L
4235 2070 mt 4307 2070 L
4271 2034 mt 4271 2106 L
5851 2282 mt 5923 2282 L
5887 2246 mt 5887 2318 L
6220 4249 mt 6292 4249 L
6256 4213 mt 6256 4285 L
4509  750 mt 4581  750 L
4545  714 mt 4545  786 L
6087  529 mt 6159  529 L
6123  493 mt 6123  565 L
5815 3248 mt 5887 3248 L
5851 3212 mt 5851 3284 L
3597  962 mt 3669  962 L
3633  926 mt 3633  998 L
6141  767 mt 6213  767 L
6177  731 mt 6177  803 L
6052  415 mt 6124  415 L
6088  379 mt 6088  451 L
6210  531 mt 6282  531 L
6246  495 mt 6246  567 L
5010  598 mt 5082  598 L
5046  562 mt 5046  634 L
5900 1155 mt 5972 1155 L
5936 1119 mt 5936 1191 L
2442  679 mt 2514  679 L
2478  643 mt 2478  715 L
4060 2432 mt 4132 2432 L
4096 2396 mt 4096 2468 L
5869  790 mt 5941  790 L
5905  754 mt 5905  826 L
6202  785 mt 6274  785 L
6238  749 mt 6238  821 L
3880  657 mt 3952  657 L
3916  621 mt 3916  693 L
5784  504 mt 5856  504 L
5820  468 mt 5820  540 L
1845  559 mt 1917  559 L
1881  523 mt 1881  595 L
5810  711 mt 5882  711 L
5846  675 mt 5846  747 L
1076  494 mt 1148  494 L
1112  458 mt 1112  530 L
3309  623 mt 3381  623 L
3345  587 mt 3345  659 L
gs 898 414 5364 4203 rc
gr

6195  592 mt 6267  592 L
6231  556 mt 6231  628 L
2712 4235 mt 2784 4235 L
2748 4199 mt 2748 4271 L
 901  574 mt  973  574 L
 937  538 mt  937  610 L
2177  550 mt 2249  550 L
2213  514 mt 2213  586 L
5973  558 mt 6045  558 L
6009  522 mt 6009  594 L
6175  474 mt 6247  474 L
6211  438 mt 6211  510 L
4848 4027 mt 4920 4027 L
4884 3991 mt 4884 4063 L
5911  427 mt 5983  427 L
5947  391 mt 5947  463 L
3981  533 mt 4053  533 L
4017  497 mt 4017  569 L
6068 4599 mt 6140 4599 L
6104 4563 mt 6104 4635 L
5421 4616 mt 5493 4616 L
5457 4580 mt 5457 4652 L
6090 2104 mt 6162 2104 L
6126 2068 mt 6126 2140 L
5861  459 mt 5933  459 L
5897  423 mt 5897  495 L
2369 1443 mt 2441 1443 L
2405 1407 mt 2405 1479 L
2731 1579 mt 2803 1579 L
2767 1543 mt 2767 1615 L
2976 4046 mt 3048 4046 L
3012 4010 mt 3012 4082 L
6183  735 mt 6255  735 L
6219  699 mt 6219  771 L
6180 1219 mt 6252 1219 L
6216 1183 mt 6216 1255 L
6189  530 mt 6261  530 L
6225  494 mt 6225  566 L
 867 1749 mt  939 1749 L
 903 1713 mt  903 1785 L
1086  431 mt 1158  431 L
1122  395 mt 1122  467 L
3473  525 mt 3545  525 L
3509  489 mt 3509  561 L
6030  652 mt 6102  652 L
6066  616 mt 6066  688 L
gs 898 414 5364 4203 rc
gr

0 sg
2774 5104 mt 
(\(F,DCTb,GMM\)) s
 422 3259 mt  -90 rotate
(\(S,PAC,GMM\)) s
90 rotate
2975  223 mt 
(Corr = 0.02) s

end %%Color Dict

eplot
%%EndObject

epage
end

showpage

%%Trailer
%%EOF
