%!PS-Adobe-3.0 EPSF-3.0
%%Creator: MATLAB, The Mathworks, Inc. Version 7.7.0.471 (R2008b). Operating System: Microsoft Windows XP.
%%Title: Pictures\main_zoo_mvar_analysis_data_BMI_xcorr_bmig_p1_k1_5_6.eps
%%CreationDate: 10/26/2009  05:45:02
%%DocumentNeededFonts: Helvetica
%%DocumentProcessColors: Cyan Magenta Yellow Black
%%LanguageLevel: 2
%%Pages: 1
%%BoundingBox:    37   180   549   616
%%EndComments

%%BeginProlog
% MathWorks dictionary
/MathWorks 160 dict begin
% definition operators
/bdef {bind def} bind def
/ldef {load def} bind def
/xdef {exch def} bdef
/xstore {exch store} bdef
% operator abbreviations
/c  /clip ldef
/cc /concat ldef
/cp /closepath ldef
/gr /grestore ldef
/gs /gsave ldef
/mt /moveto ldef
/np /newpath ldef
/cm /currentmatrix ldef
/sm /setmatrix ldef
/rm /rmoveto ldef
/rl /rlineto ldef
/s {show newpath} bdef
/sc {setcmykcolor} bdef
/sr /setrgbcolor ldef
/sg /setgray ldef
/w /setlinewidth ldef
/j /setlinejoin ldef
/cap /setlinecap ldef
/rc {rectclip} bdef
/rf {rectfill} bdef
% page state control
/pgsv () def
/bpage {/pgsv save def} bdef
/epage {pgsv restore} bdef
/bplot /gsave ldef
/eplot {stroke grestore} bdef
% orientation switch
/portraitMode 0 def /landscapeMode 1 def /rotateMode 2 def
% coordinate system mappings
/dpi2point 0 def
% font control
/FontSize 0 def
/FMS {/FontSize xstore findfont [FontSize 0 0 FontSize neg 0 0]
  makefont setfont} bdef
/ISOLatin1Encoding where {pop /WindowsLatin1Encoding 256 array bdef
ISOLatin1Encoding WindowsLatin1Encoding copy pop
/.notdef/.notdef/quotesinglbase/florin/quotedblbase/ellipsis/dagger
/daggerdbl/circumflex/perthousand/Scaron/guilsinglleft/OE/.notdef/.notdef
/.notdef/.notdef/quoteleft/quoteright/quotedblleft/quotedblright/bullet
/endash/emdash/tilde/trademark/scaron/guilsinglright/oe/.notdef/.notdef
/Ydieresis WindowsLatin1Encoding 128 32 getinterval astore pop}
{/WindowsLatin1Encoding StandardEncoding bdef} ifelse
/reencode {exch dup where {pop load} {pop StandardEncoding} ifelse
  exch dup 3 1 roll findfont dup length dict begin
  { 1 index /FID ne {def}{pop pop} ifelse } forall
  /Encoding exch def currentdict end definefont pop} bdef
/isroman {findfont /CharStrings get /Agrave known} bdef
/FMSR {3 1 roll 1 index dup isroman {reencode} {pop pop} ifelse
  exch FMS} bdef
/csm {1 dpi2point div -1 dpi2point div scale neg translate
 dup landscapeMode eq {pop -90 rotate}
  {rotateMode eq {90 rotate} if} ifelse} bdef
% line types: solid, dotted, dashed, dotdash
/SO { [] 0 setdash } bdef
/DO { [.5 dpi2point mul 4 dpi2point mul] 0 setdash } bdef
/DA { [6 dpi2point mul] 0 setdash } bdef
/DD { [.5 dpi2point mul 4 dpi2point mul 6 dpi2point mul 4
  dpi2point mul] 0 setdash } bdef
% macros for lines and objects
/L {lineto stroke} bdef
/MP {3 1 roll moveto 1 sub {rlineto} repeat} bdef
/AP {{rlineto} repeat} bdef
/PDlw -1 def
/W {/PDlw currentlinewidth def setlinewidth} def
/PP {closepath eofill} bdef
/DP {closepath stroke} bdef
/MR {4 -2 roll moveto dup  0 exch rlineto exch 0 rlineto
  neg 0 exch rlineto closepath} bdef
/FR {MR stroke} bdef
/PR {MR fill} bdef
/L1i {{currentfile picstr readhexstring pop} image} bdef
/tMatrix matrix def
/MakeOval {newpath tMatrix currentmatrix pop translate scale
0 0 1 0 360 arc tMatrix setmatrix} bdef
/FO {MakeOval stroke} bdef
/PO {MakeOval fill} bdef
/PD {currentlinewidth 2 div 0 360 arc fill
   PDlw -1 eq not {PDlw w /PDlw -1 def} if} def
/FA {newpath tMatrix currentmatrix pop translate scale
  0 0 1 5 -2 roll arc tMatrix setmatrix stroke} bdef
/PA {newpath tMatrix currentmatrix pop	translate 0 0 moveto scale
  0 0 1 5 -2 roll arc closepath tMatrix setmatrix fill} bdef
/FAn {newpath tMatrix currentmatrix pop translate scale
  0 0 1 5 -2 roll arcn tMatrix setmatrix stroke} bdef
/PAn {newpath tMatrix currentmatrix pop translate 0 0 moveto scale
  0 0 1 5 -2 roll arcn closepath tMatrix setmatrix fill} bdef
/vradius 0 def /hradius 0 def /lry 0 def
/lrx 0 def /uly 0 def /ulx 0 def /rad 0 def
/MRR {/vradius xdef /hradius xdef /lry xdef /lrx xdef /uly xdef
  /ulx xdef newpath tMatrix currentmatrix pop ulx hradius add uly
  vradius add translate hradius vradius scale 0 0 1 180 270 arc 
  tMatrix setmatrix lrx hradius sub uly vradius add translate
  hradius vradius scale 0 0 1 270 360 arc tMatrix setmatrix
  lrx hradius sub lry vradius sub translate hradius vradius scale
  0 0 1 0 90 arc tMatrix setmatrix ulx hradius add lry vradius sub
  translate hradius vradius scale 0 0 1 90 180 arc tMatrix setmatrix
  closepath} bdef
/FRR {MRR stroke } bdef
/PRR {MRR fill } bdef
/MlrRR {/lry xdef /lrx xdef /uly xdef /ulx xdef /rad lry uly sub 2 div def
  newpath tMatrix currentmatrix pop ulx rad add uly rad add translate
  rad rad scale 0 0 1 90 270 arc tMatrix setmatrix lrx rad sub lry rad
  sub translate rad rad scale 0 0 1 270 90 arc tMatrix setmatrix
  closepath} bdef
/FlrRR {MlrRR stroke } bdef
/PlrRR {MlrRR fill } bdef
/MtbRR {/lry xdef /lrx xdef /uly xdef /ulx xdef /rad lrx ulx sub 2 div def
  newpath tMatrix currentmatrix pop ulx rad add uly rad add translate
  rad rad scale 0 0 1 180 360 arc tMatrix setmatrix lrx rad sub lry rad
  sub translate rad rad scale 0 0 1 0 180 arc tMatrix setmatrix
  closepath} bdef
/FtbRR {MtbRR stroke } bdef
/PtbRR {MtbRR fill } bdef
/stri 6 array def /dtri 6 array def
/smat 6 array def /dmat 6 array def
/tmat1 6 array def /tmat2 6 array def /dif 3 array def
/asub {/ind2 exch def /ind1 exch def dup dup
  ind1 get exch ind2 get sub exch } bdef
/tri_to_matrix {
  2 0 asub 3 1 asub 4 0 asub 5 1 asub
  dup 0 get exch 1 get 7 -1 roll astore } bdef
/compute_transform {
  dmat dtri tri_to_matrix tmat1 invertmatrix 
  smat stri tri_to_matrix tmat2 concatmatrix } bdef
/ds {stri astore pop} bdef
/dt {dtri astore pop} bdef
/db {2 copy /cols xdef /rows xdef mul dup 3 mul string
  currentfile 
  3 index 0 eq {/ASCIIHexDecode filter}
  {/ASCII85Decode filter 3 index 2 eq {/RunLengthDecode filter} if }
  ifelse exch readstring pop
  dup 0 3 index getinterval /rbmap xdef
  dup 2 index dup getinterval /gbmap xdef
  1 index dup 2 mul exch getinterval /bbmap xdef pop pop}bdef
/it {gs np dtri aload pop moveto lineto lineto cp c
  cols rows 8 compute_transform 
  rbmap gbmap bbmap true 3 colorimage gr}bdef
/il {newpath moveto lineto stroke}bdef
currentdict end def
%%EndProlog

%%BeginSetup
MathWorks begin

0 cap

end
%%EndSetup

%%Page: 1 1
%%BeginPageSetup
%%PageBoundingBox:    37   180   549   616
MathWorks begin
bpage
%%EndPageSetup

%%BeginObject: obj1
bplot

/dpi2point 12 def
portraitMode 0216 7344 csm

  234   -48  6149  5231 rc
85 dict begin %Colortable dictionary
/c0 { 0.000000 0.000000 0.000000 sr} bdef
/c1 { 1.000000 1.000000 1.000000 sr} bdef
/c2 { 0.900000 0.000000 0.000000 sr} bdef
/c3 { 0.000000 0.820000 0.000000 sr} bdef
/c4 { 0.000000 0.000000 0.800000 sr} bdef
/c5 { 0.910000 0.820000 0.320000 sr} bdef
/c6 { 1.000000 0.260000 0.820000 sr} bdef
/c7 { 0.000000 0.820000 0.820000 sr} bdef
c0
1 j
1 sg
   0    0 6919 5187 rf
6 w
0 4202 5362 0 0 -4202 899 4616 4 MP
PP
-5362 0 0 4202 5362 0 0 -4202 899 4616 5 MP stroke
4 w
DO
SO
6 w
0 sg
 899  414 mt 6261  414 L
 899 4616 mt 6261 4616 L
6261 4616 mt 6261  414 L
 899 4616 mt  899  414 L
 899 4616 mt 6261 4616 L
 899 4616 mt  899  414 L
 919 4616 mt  919 4562 L
 919  414 mt  919  467 L
%%IncludeResource: font Helvetica
/Helvetica /WindowsLatin1Encoding 240 FMSR

 713 4873 mt 
(-3) s
1806 4616 mt 1806 4562 L
1806  414 mt 1806  467 L
1600 4873 mt 
(-2) s
2693 4616 mt 2693 4562 L
2693  414 mt 2693  467 L
2487 4873 mt 
(-1) s
3580 4616 mt 3580 4562 L
3580  414 mt 3580  467 L
3514 4873 mt 
(0) s
4466 4616 mt 4466 4562 L
4466  414 mt 4466  467 L
4400 4873 mt 
(1) s
5353 4616 mt 5353 4562 L
5353  414 mt 5353  467 L
5287 4873 mt 
(2) s
6240 4616 mt 6240 4562 L
6240  414 mt 6240  467 L
6174 4873 mt 
(3) s
 899 4599 mt  952 4599 L
6261 4599 mt 6207 4599 L
 591 4688 mt 
(-3) s
 899 3904 mt  952 3904 L
6261 3904 mt 6207 3904 L
 591 3993 mt 
(-2) s
 899 3209 mt  952 3209 L
6261 3209 mt 6207 3209 L
 591 3298 mt 
(-1) s
 899 2514 mt  952 2514 L
6261 2514 mt 6207 2514 L
 731 2603 mt 
(0) s
 899 1820 mt  952 1820 L
6261 1820 mt 6207 1820 L
 731 1909 mt 
(1) s
 899 1125 mt  952 1125 L
6261 1125 mt 6207 1125 L
 731 1214 mt 
(2) s
 899  430 mt  952  430 L
6261  430 mt 6207  430 L
 731  519 mt 
(3) s
 899  414 mt 6261  414 L
 899 4616 mt 6261 4616 L
6261 4616 mt 6261  414 L
 899 4616 mt  899  414 L
gs 899 414 5363 4203 rc
gr

/c8 { 0.000000 0.000000 1.000000 sr} bdef
c8
5211 3081 mt 5283 3081 L
5247 3045 mt 5247 3117 L
4746 1816 mt 4818 1816 L
4782 1780 mt 4782 1852 L
4060 2233 mt 4132 2233 L
4096 2197 mt 4096 2269 L
3940 1732 mt 4012 1732 L
3976 1696 mt 3976 1768 L
3672 2194 mt 3744 2194 L
3708 2158 mt 3708 2230 L
2534 2347 mt 2606 2347 L
2570 2311 mt 2570 2383 L
2235 3063 mt 2307 3063 L
2271 3027 mt 2271 3099 L
3571 2773 mt 3643 2773 L
3607 2737 mt 3607 2809 L
2513 2467 mt 2585 2467 L
2549 2431 mt 2549 2503 L
5282 2759 mt 5354 2759 L
5318 2723 mt 5318 2795 L
5828  414 mt 5900  414 L
5864  378 mt 5864  450 L
3415 2275 mt 3487 2275 L
3451 2239 mt 3451 2311 L
4407 2024 mt 4479 2024 L
4443 1988 mt 4443 2060 L
4149 2189 mt 4221 2189 L
4185 2153 mt 4185 2225 L
4156 3425 mt 4228 3425 L
4192 3389 mt 4192 3461 L
4667 1152 mt 4739 1152 L
4703 1116 mt 4703 1188 L
3814 1787 mt 3886 1787 L
3850 1751 mt 3850 1823 L
2394 2909 mt 2466 2909 L
2430 2873 mt 2430 2945 L
3711 2165 mt 3783 2165 L
3747 2129 mt 3747 2201 L
2789 1823 mt 2861 1823 L
2825 1787 mt 2825 1859 L
3147 2510 mt 3219 2510 L
3183 2474 mt 3183 2546 L
5413 2935 mt 5485 2935 L
5449 2899 mt 5449 2971 L
3296 1371 mt 3368 1371 L
3332 1335 mt 3332 1407 L
2980 2214 mt 3052 2214 L
3016 2178 mt 3016 2250 L
2420 2840 mt 2492 2840 L
2456 2804 mt 2456 2876 L
3398 2920 mt 3470 2920 L
3434 2884 mt 3434 2956 L
2836 2668 mt 2908 2668 L
2872 2632 mt 2872 2704 L
5096 3022 mt 5168 3022 L
5132 2986 mt 5132 3058 L
3717 3051 mt 3789 3051 L
3753 3015 mt 3753 3087 L
2706 3711 mt 2778 3711 L
2742 3675 mt 2742 3747 L
4338 2374 mt 4410 2374 L
4374 2338 mt 4374 2410 L
4142 1561 mt 4214 1561 L
4178 1525 mt 4178 1597 L
3728 1923 mt 3800 1923 L
3764 1887 mt 3764 1959 L
3505 2637 mt 3577 2637 L
3541 2601 mt 3541 2673 L
3915 2576 mt 3987 2576 L
3951 2540 mt 3951 2612 L
4047 1604 mt 4119 1604 L
4083 1568 mt 4083 1640 L
2201 2338 mt 2273 2338 L
2237 2302 mt 2237 2374 L
4719 1643 mt 4791 1643 L
4755 1607 mt 4755 1679 L
4290  824 mt 4362  824 L
4326  788 mt 4326  860 L
4732 2180 mt 4804 2180 L
4768 2144 mt 4768 2216 L
5002 2445 mt 5074 2445 L
5038 2409 mt 5038 2481 L
3803  898 mt 3875  898 L
3839  862 mt 3839  934 L
2896 1858 mt 2968 1858 L
2932 1822 mt 2932 1894 L
3085 2584 mt 3157 2584 L
3121 2548 mt 3121 2620 L
5606 2051 mt 5678 2051 L
5642 2015 mt 5642 2087 L
1907 2279 mt 1979 2279 L
1943 2243 mt 1943 2315 L
4002 3553 mt 4074 3553 L
4038 3517 mt 4038 3589 L
3020 3908 mt 3092 3908 L
3056 3872 mt 3056 3944 L
2671 2035 mt 2743 2035 L
2707 1999 mt 2707 2071 L
5047 1794 mt 5119 1794 L
5083 1758 mt 5083 1830 L
3072 3331 mt 3144 3331 L
3108 3295 mt 3108 3367 L
3723 2062 mt 3795 2062 L
3759 2026 mt 3759 2098 L
3302 1298 mt 3374 1298 L
3338 1262 mt 3338 1334 L
4266 1526 mt 4338 1526 L
4302 1490 mt 4302 1562 L
3190 2994 mt 3262 2994 L
3226 2958 mt 3226 3030 L
2910 2223 mt 2982 2223 L
2946 2187 mt 2946 2259 L
6033 1538 mt 6105 1538 L
6069 1502 mt 6069 1574 L
5700 2140 mt 5772 2140 L
5736 2104 mt 5736 2176 L
5245 1845 mt 5317 1845 L
5281 1809 mt 5281 1881 L
2715 2396 mt 2787 2396 L
2751 2360 mt 2751 2432 L
4322 4023 mt 4394 4023 L
4358 3987 mt 4358 4059 L
4482 3731 mt 4554 3731 L
4518 3695 mt 4518 3767 L
2267 3306 mt 2339 3306 L
2303 3270 mt 2303 3342 L
2615 2801 mt 2687 2801 L
2651 2765 mt 2651 2837 L
3153 1948 mt 3225 1948 L
3189 1912 mt 3189 1984 L
3751 2325 mt 3823 2325 L
3787 2289 mt 3787 2361 L
3499 3527 mt 3571 3527 L
3535 3491 mt 3535 3563 L
4775 1878 mt 4847 1878 L
4811 1842 mt 4811 1914 L
4163 2820 mt 4235 2820 L
4199 2784 mt 4199 2856 L
2605 3151 mt 2677 3151 L
2641 3115 mt 2641 3187 L
4492 2073 mt 4564 2073 L
4528 2037 mt 4528 2109 L
3885 2334 mt 3957 2334 L
3921 2298 mt 3921 2370 L
3053 2849 mt 3125 2849 L
3089 2813 mt 3089 2885 L
2523 2480 mt 2595 2480 L
2559 2444 mt 2559 2516 L
3319 2242 mt 3391 2242 L
3355 2206 mt 3355 2278 L
3867 1984 mt 3939 1984 L
3903 1948 mt 3903 2020 L
4760 1885 mt 4832 1885 L
4796 1849 mt 4796 1921 L
3482 2659 mt 3554 2659 L
3518 2623 mt 3518 2695 L
2165 1809 mt 2237 1809 L
2201 1773 mt 2201 1845 L
4282 2686 mt 4354 2686 L
4318 2650 mt 4318 2722 L
6225 1614 mt 6297 1614 L
6261 1578 mt 6261 1650 L
3160 2204 mt 3232 2204 L
3196 2168 mt 3196 2240 L
3958 1707 mt 4030 1707 L
3994 1671 mt 3994 1743 L
2757 1872 mt 2829 1872 L
2793 1836 mt 2793 1908 L
3091 3515 mt 3163 3515 L
3127 3479 mt 3127 3551 L
3855 3658 mt 3927 3658 L
3891 3622 mt 3891 3694 L
4631 1049 mt 4703 1049 L
4667 1013 mt 4667 1085 L
3820 3118 mt 3892 3118 L
3856 3082 mt 3856 3154 L
2063 2682 mt 2135 2682 L
2099 2646 mt 2099 2718 L
4054 2904 mt 4126 2904 L
4090 2868 mt 4090 2940 L
4597 2109 mt 4669 2109 L
4633 2073 mt 4633 2145 L
4199 2956 mt 4271 2956 L
4235 2920 mt 4235 2992 L
2765 1960 mt 2837 1960 L
2801 1924 mt 2801 1996 L
3873 1232 mt 3945 1232 L
3909 1196 mt 3909 1268 L
2805 2484 mt 2877 2484 L
2841 2448 mt 2841 2520 L
3432 2493 mt 3504 2493 L
3468 2457 mt 3468 2529 L
2502 2040 mt 2574 2040 L
2538 2004 mt 2538 2076 L
5122 1181 mt 5194 1181 L
5158 1145 mt 5158 1217 L
2251 4305 mt 2323 4305 L
2287 4269 mt 2287 4341 L
2565 3693 mt 2637 3693 L
2601 3657 mt 2601 3729 L
4820 1624 mt 4892 1624 L
4856 1588 mt 4856 1660 L
3757 1764 mt 3829 1764 L
3793 1728 mt 3793 1800 L
4805 2361 mt 4877 2361 L
4841 2325 mt 4841 2397 L
3577 3358 mt 3649 3358 L
3613 3322 mt 3613 3394 L
3977 2967 mt 4049 2967 L
4013 2931 mt 4013 3003 L
3387 2978 mt 3459 2978 L
3423 2942 mt 3423 3014 L
3493 2825 mt 3565 2825 L
3529 2789 mt 3529 2861 L
4425  724 mt 4497  724 L
4461  688 mt 4461  760 L
4922 3848 mt 4994 3848 L
4958 3812 mt 4958 3884 L
4177 1572 mt 4249 1572 L
4213 1536 mt 4213 1608 L
2381 1354 mt 2453 1354 L
2417 1318 mt 2417 1390 L
3971 2475 mt 4043 2475 L
4007 2439 mt 4007 2511 L
2749 2815 mt 2821 2815 L
2785 2779 mt 2785 2851 L
3313 2754 mt 3385 2754 L
3349 2718 mt 3349 2790 L
4128 2302 mt 4200 2302 L
4164 2266 mt 4164 2338 L
4680 2316 mt 4752 2316 L
4716 2280 mt 4716 2352 L
3594 1087 mt 3666 1087 L
3630 1051 mt 3630 1123 L
2341 3250 mt 2413 3250 L
2377 3214 mt 2377 3286 L
3689 2265 mt 3761 2265 L
3725 2229 mt 3725 2301 L
4608 1865 mt 4680 1865 L
4644 1829 mt 4644 1901 L
3661 2972 mt 3733 2972 L
3697 2936 mt 3697 3008 L
3927 3376 mt 3999 3376 L
3963 3340 mt 3963 3412 L
3449 1489 mt 3521 1489 L
3485 1453 mt 3485 1525 L
3104 1653 mt 3176 1653 L
3140 1617 mt 3140 1689 L
5150 1404 mt 5222 1404 L
5186 1368 mt 5186 1440 L
4585 3017 mt 4657 3017 L
4621 2981 mt 4621 3053 L
2844 2750 mt 2916 2750 L
2880 2714 mt 2880 2786 L
2282 1756 mt 2354 1756 L
2318 1720 mt 2318 1792 L
3220 2571 mt 3292 2571 L
3256 2535 mt 3256 2607 L
2586 2170 mt 2658 2170 L
2622 2134 mt 2622 2206 L
3359 2633 mt 3431 2633 L
3395 2597 mt 3395 2669 L
2888 2247 mt 2960 2247 L
2924 2211 mt 2924 2283 L
3996 1715 mt 4068 1715 L
4032 1679 mt 4032 1751 L
1556 2218 mt 1628 2218 L
1592 2182 mt 1592 2254 L
4259 3257 mt 4331 3257 L
4295 3221 mt 4295 3293 L
2146 2356 mt 2218 2356 L
2182 2320 mt 2182 2392 L
3330 3457 mt 3402 3457 L
3366 3421 mt 3366 3493 L
2368 2787 mt 2440 2787 L
2404 2751 mt 2404 2823 L
4886 1255 mt 4958 1255 L
4922 1219 mt 4922 1291 L
5071 1662 mt 5143 1662 L
5107 1626 mt 5107 1698 L
2931 2889 mt 3003 2889 L
2967 2853 mt 2967 2925 L
2740 2237 mt 2812 2237 L
2776 2201 mt 2776 2273 L
3588 2946 mt 3660 2946 L
3624 2910 mt 3624 2982 L
3555 2562 mt 3627 2562 L
3591 2526 mt 3591 2598 L
4251 2256 mt 4323 2256 L
4287 2220 mt 4287 2292 L
4191 1978 mt 4263 1978 L
4227 1942 mt 4227 2014 L
3336 3099 mt 3408 3099 L
3372 3063 mt 3372 3135 L
2555 3595 mt 2627 3595 L
2591 3559 mt 2591 3631 L
4961 2859 mt 5033 2859 L
4997 2823 mt 4997 2895 L
3861 1698 mt 3933 1698 L
3897 1662 mt 3897 1734 L
5321 1966 mt 5393 1966 L
5357 1930 mt 5357 2002 L
 863 2914 mt  935 2914 L
 899 2878 mt  899 2950 L
4087 1772 mt 4159 1772 L
4123 1736 mt 4123 1808 L
1991 2029 mt 2063 2029 L
2027 1993 mt 2027 2065 L
4213 2782 mt 4285 2782 L
4249 2746 mt 4249 2818 L
2218 3075 mt 2290 3075 L
2254 3039 mt 2254 3111 L
1965 2879 mt 2037 2879 L
2001 2843 mt 2001 2915 L
3261 2519 mt 3333 2519 L
3297 2483 mt 3297 2555 L
4100  957 mt 4172  957 L
4136  921 mt 4136  993 L
3078 2528 mt 3150 2528 L
3114 2492 mt 3114 2564 L
2851 2418 mt 2923 2418 L
2887 2382 mt 2887 2454 L
4501 2835 mt 4573 2835 L
4537 2799 mt 4537 2871 L
3745 2677 mt 3817 2677 L
3781 2641 mt 3781 2713 L
4228 2115 mt 4300 2115 L
4264 2079 mt 4264 2151 L
3921 3106 mt 3993 3106 L
3957 3070 mt 3957 3142 L
3683 2764 mt 3755 2764 L
3719 2728 mt 3719 2800 L
4314 3314 mt 4386 3314 L
4350 3278 mt 4350 3350 L
4564 2497 mt 4636 2497 L
4600 2461 mt 4600 2533 L
4041 3164 mt 4113 3164 L
4077 3128 mt 4077 3200 L
3267 2727 mt 3339 2727 L
3303 2691 mt 3303 2763 L
3027 2343 mt 3099 2343 L
3063 2307 mt 3063 2379 L
2680 2619 mt 2752 2619 L
2716 2583 mt 2716 2655 L
4074 2099 mt 4146 2099 L
4110 2063 mt 4110 2135 L
2040 3641 mt 2112 3641 L
2076 3605 mt 2076 3677 L
3549 2536 mt 3621 2536 L
3585 2500 mt 3585 2572 L
4463 2150 mt 4535 2150 L
4499 2114 mt 4499 2186 L
4121 1740 mt 4193 1740 L
4157 1704 mt 4157 1776 L
4067 3468 mt 4139 3468 L
4103 3432 mt 4103 3504 L
3426 2722 mt 3498 2722 L
3462 2686 mt 3462 2758 L
3706 3242 mt 3778 3242 L
3742 3206 mt 3742 3278 L
4789 3265 mt 4861 3265 L
4825 3229 mt 4825 3301 L
4655 1462 mt 4727 1462 L
4691 1426 mt 4691 1498 L
1722 2899 mt 1794 2899 L
1758 2863 mt 1758 2935 L
5365 1476 mt 5437 1476 L
5401 1440 mt 5401 1512 L
4372 2130 mt 4444 2130 L
4408 2094 mt 4408 2166 L
3677 3191 mt 3749 3191 L
3713 3155 mt 3713 3227 L
4221 3322 mt 4293 3322 L
4257 3286 mt 4257 3358 L
3538 3797 mt 3610 3797 L
3574 3761 mt 3574 3833 L
3184 1972 mt 3256 1972 L
3220 1936 mt 3220 2008 L
3438 4616 mt 3510 4616 L
3474 4580 mt 3474 4652 L
4381 3415 mt 4453 3415 L
4417 3379 mt 4417 3451 L
4355 2067 mt 4427 2067 L
4391 2031 mt 4391 2103 L
3633 2745 mt 3705 2745 L
3669 2709 mt 3669 2781 L
3135 2185 mt 3207 2185 L
3171 2149 mt 3171 2221 L
4904 1207 mt 4976 1207 L
4940 1171 mt 4940 1243 L
4574 2951 mt 4646 2951 L
4610 2915 mt 4610 2987 L
3232 2089 mt 3304 2089 L
3268 2053 mt 3268 2125 L
2917 3011 mt 2989 3011 L
2953 2975 mt 2953 3047 L
3649 3349 mt 3721 3349 L
3685 3313 mt 3685 3385 L
4243 2453 mt 4315 2453 L
4279 2417 mt 4279 2489 L
3454 2811 mt 3526 2811 L
3490 2775 mt 3490 2847 L
2828 3942 mt 2900 3942 L
2864 3906 mt 2864 3978 L
3393 3625 mt 3465 3625 L
3429 3589 mt 3429 3661 L
3243 1502 mt 3315 1502 L
3279 1466 mt 3279 1538 L
3983 2440 mt 4055 2440 L
4019 2404 mt 4019 2476 L
2479 1851 mt 2551 1851 L
2515 1815 mt 2515 1887 L
3762 2293 mt 3834 2293 L
3798 2257 mt 3798 2329 L
3544 2718 mt 3616 2718 L
3580 2682 mt 3580 2754 L
3655 2589 mt 3727 2589 L
3691 2553 mt 3691 2625 L
5024 3213 mt 5096 3213 L
5060 3177 mt 5060 3249 L
4398 2175 mt 4470 2175 L
4434 2139 mt 4434 2211 L
3237 2383 mt 3309 2383 L
3273 2347 mt 3273 2419 L
2595 2597 mt 2667 2597 L
2631 2561 mt 2631 2633 L
2966 3567 mt 3038 3567 L
3002 3531 mt 3002 3603 L
3934 3774 mt 4006 3774 L
3970 3738 mt 3970 3810 L
3059 1550 mt 3131 1550 L
3095 1514 mt 3095 1586 L
2959 2602 mt 3031 2602 L
2995 2566 mt 2995 2638 L
1259 2541 mt 1331 2541 L
1295 2505 mt 1295 2577 L
3172 1936 mt 3244 1936 L
3208 1900 mt 3208 1972 L
2183 1779 mt 2255 1779 L
2219 1743 mt 2219 1815 L
3797 4072 mt 3869 4072 L
3833 4036 mt 3833 4108 L
3443 2405 mt 3515 2405 L
3479 2369 mt 3479 2441 L
2697 1831 mt 2769 1831 L
2733 1795 mt 2733 1867 L
3809 2558 mt 3881 2558 L
3845 2522 mt 3845 2594 L
3946 2427 mt 4018 2427 L
3982 2391 mt 3982 2463 L
3582 2741 mt 3654 2741 L
3618 2705 mt 3618 2777 L
4107 2320 mt 4179 2320 L
4143 2284 mt 4143 2356 L
4034 2709 mt 4106 2709 L
4070 2673 mt 4070 2745 L
3791 2352 mt 3863 2352 L
3827 2316 mt 3827 2388 L
3214 3184 mt 3286 3184 L
3250 3148 mt 3250 3220 L
1766 2078 mt 1838 2078 L
1802 2042 mt 1802 2114 L
3273 1723 mt 3345 1723 L
3309 1687 mt 3309 1759 L
2945 1388 mt 3017 1388 L
2981 1352 mt 2981 1424 L
3033 3005 mt 3105 3005 L
3069 2969 mt 3069 3041 L
3000 2983 mt 3072 2983 L
3036 2947 mt 3036 3019 L
3785 1434 mt 3857 1434 L
3821 1398 mt 3821 1470 L
2490 2615 mt 2562 2615 L
2526 2579 mt 2526 2651 L
2312 2379 mt 2384 2379 L
2348 2343 mt 2348 2415 L
4184 1583 mt 4256 1583 L
4220 1547 mt 4220 1619 L
3013 3131 mt 3085 3131 L
3049 3095 mt 3049 3167 L
2634 1930 mt 2706 1930 L
2670 1894 mt 2670 1966 L
2924 1448 mt 2996 1448 L
2960 1412 mt 2960 1484 L
2821 2796 mt 2893 2796 L
2857 2760 mt 2857 2832 L
2652 2940 mt 2724 2940 L
2688 2904 mt 2688 2976 L
4693 1419 mt 4765 1419 L
4729 1383 mt 4729 1455 L
3166 2057 mt 3238 2057 L
3202 2021 mt 3202 2093 L
2938 2580 mt 3010 2580 L
2974 2544 mt 2974 2616 L
3410 2695 mt 3482 2695 L
3446 2659 mt 3446 2731 L
4206 2869 mt 4278 2869 L
4242 2833 mt 4242 2905 L
3477 2593 mt 3549 2593 L
3513 2557 mt 3513 2629 L
1842 2925 mt 1914 2925 L
1878 2889 mt 1878 2961 L
3610 2155 mt 3682 2155 L
3646 2119 mt 3646 2191 L
4390 1318 mt 4462 1318 L
4426 1282 mt 4426 1354 L
3903 2251 mt 3975 2251 L
3939 2215 mt 3939 2287 L
2662 2854 mt 2734 2854 L
2698 2818 mt 2698 2890 L
3780 2135 mt 3852 2135 L
3816 2099 mt 3816 2171 L
4114 2930 mt 4186 2930 L
4150 2894 mt 4150 2966 L
3734 2392 mt 3806 2392 L
3770 2356 mt 3770 2428 L
4981 1990 mt 5053 1990 L
5017 1954 mt 5017 2026 L
3740 2462 mt 3812 2462 L
3776 2426 mt 3776 2498 L
3178 2012 mt 3250 2012 L
3214 1976 mt 3214 2048 L
4015 4131 mt 4087 4131 L
4051 4095 mt 4051 4167 L
2874 3877 mt 2946 3877 L
2910 3841 mt 2910 3913 L
3644 2414 mt 3716 2414 L
3680 2378 mt 3680 2450 L
4080 3281 mt 4152 3281 L
4116 3245 mt 4116 3317 L
4472 2209 mt 4544 2209 L
4508 2173 mt 4508 2245 L
3129 3675 mt 3201 3675 L
3165 3639 mt 3165 3711 L
3208 2844 mt 3280 2844 L
3244 2808 mt 3244 2880 L
4435 2874 mt 4507 2874 L
4471 2838 mt 4471 2910 L
3404 3178 mt 3476 3178 L
3440 3142 mt 3440 3214 L
4643 2449 mt 4715 2449 L
4679 2413 mt 4679 2485 L
3527 3752 mt 3599 3752 L
3563 3716 mt 3563 3788 L
3046 2713 mt 3118 2713 L
3082 2677 mt 3082 2749 L
1937 2523 mt 2009 2523 L
1973 2487 mt 1973 2559 L
3202 2410 mt 3274 2410 L
3238 2374 mt 3238 2446 L
3110 2018 mt 3182 2018 L
3146 1982 mt 3146 2054 L
4836 1671 mt 4908 1671 L
4872 1635 mt 4872 1707 L
2973 3198 mt 3045 3198 L
3009 3162 mt 3009 3234 L
3510 2545 mt 3582 2545 L
3546 2509 mt 3546 2581 L
1481 3405 mt 1553 3405 L
1517 3369 mt 1517 3441 L
5531  564 mt 5603  564 L
5567  528 mt 5567  600 L
4135 2736 mt 4207 2736 L
4171 2700 mt 4171 2772 L
2016 1689 mt 2088 1689 L
2052 1653 mt 2052 1725 L
3605 2673 mt 3677 2673 L
3641 2637 mt 3641 2709 L
4298 3045 mt 4370 3045 L
4334 3009 mt 4334 3081 L
2866 3220 mt 2938 3220 L
2902 3184 mt 2902 3256 L
4364 1336 mt 4436 1336 L
4400 1300 mt 4400 1372 L
3325 3069 mt 3397 3069 L
3361 3033 mt 3361 3105 L
3196 2864 mt 3268 2864 L
3232 2828 mt 3232 2900 L
4532 3491 mt 4604 3491 L
4568 3455 mt 4568 3527 L
3278 3297 mt 3350 3297 L
3314 3261 mt 3314 3333 L
3532 2792 mt 3604 2792 L
3568 2756 mt 3568 2828 L
3627 2288 mt 3699 2288 L
3663 2252 mt 3663 2324 L
2355 1942 mt 2427 1942 L
2391 1906 mt 2391 1978 L
3116 2606 mt 3188 2606 L
3152 2570 mt 3152 2642 L
4236 2261 mt 4308 2261 L
4272 2225 mt 4272 2297 L
3471 2650 mt 3543 2650 L
3507 2614 mt 3507 2686 L
1805 2514 mt 1877 2514 L
1841 2478 mt 1841 2550 L
2773 3235 mt 2845 3235 L
2809 3199 mt 2809 3271 L
3488 3386 mt 3560 3386 L
3524 3350 mt 3524 3422 L
3560 2423 mt 3632 2423 L
3596 2387 mt 3596 2459 L
2732 3581 mt 2804 3581 L
2768 3545 mt 2768 3617 L
3307 1917 mt 3379 1917 L
3343 1881 mt 3343 1953 L
2903 3367 mt 2975 3367 L
2939 3331 mt 2939 3403 L
3879 2884 mt 3951 2884 L
3915 2848 mt 3915 2920 L
2987 3125 mt 3059 3125 L
3023 3089 mt 3023 3161 L
2327 2298 mt 2399 2298 L
2363 2262 mt 2363 2334 L
3826 1514 mt 3898 1514 L
3862 1478 mt 3862 1550 L
3466 2145 mt 3538 2145 L
3502 2109 mt 3502 2181 L
3353 2083 mt 3425 2083 L
3389 2047 mt 3389 2119 L
2126 1277 mt 2198 1277 L
2162 1241 mt 2162 1313 L
2859 3057 mt 2931 3057 L
2895 3021 mt 2895 3093 L
2298 2628 mt 2370 2628 L
2334 2592 mt 2334 2664 L
3040 3395 mt 3112 3395 L
3076 3359 mt 3076 3431 L
3909 3436 mt 3981 3436 L
3945 3400 mt 3945 3472 L
3226 2228 mt 3298 2228 L
3262 2192 mt 3262 2264 L
4306 3112 mt 4378 3112 L
4342 3076 mt 4342 3148 L
1876 1898 mt 1948 1898 L
1912 1862 mt 1912 1934 L
2781 2768 mt 2853 2768 L
2817 2732 mt 2817 2804 L
3774 2046 mt 3846 2046 L
3810 2010 mt 3810 2082 L
3952 2641 mt 4024 2641 L
3988 2605 mt 3988 2677 L
3989 2370 mt 4061 2370 L
4025 2334 mt 4025 2406 L
4009 1593 mt 4081 1593 L
4045 1557 mt 4045 1629 L
4869 2436 mt 4941 2436 L
4905 2400 mt 4905 2472 L
3850 2549 mt 3922 2549 L
3886 2513 mt 3886 2585 L
3098 2731 mt 3170 2731 L
3134 2695 mt 3134 2767 L
3255 3034 mt 3327 3034 L
3291 2998 mt 3291 3070 L
3347 1904 mt 3419 1904 L
3383 1868 mt 3383 1940 L
3832 3206 mt 3904 3206 L
3868 3170 mt 3868 3242 L
3891 2624 mt 3963 2624 L
3927 2588 mt 3927 2660 L
4619 3540 mt 4691 3540 L
4655 3504 mt 4655 3576 L
1387 2554 mt 1459 2554 L
1423 2518 mt 1423 2590 L
3768 1634 mt 3840 1634 L
3804 1598 mt 3804 1670 L
4522 2001 mt 4594 2001 L
4558 1965 mt 4558 2037 L
2624 2388 mt 2696 2388 L
2660 2352 mt 2660 2424 L
1674 2506 mt 1746 2506 L
1710 2470 mt 1710 2542 L
4170 2611 mt 4242 2611 L
4206 2575 mt 4206 2647 L
3700 2567 mt 3772 2567 L
3736 2531 mt 3736 2603 L
4941 1006 mt 5013 1006 L
4977  970 mt 4977 1042 L
4416 4205 mt 4488 4205 L
4452 4169 mt 4452 4241 L
4094 2270 mt 4166 2270 L
4130 2234 mt 4130 2306 L
3381 2962 mt 3453 2962 L
3417 2926 mt 3417 2998 L
3066 2989 mt 3138 2989 L
3102 2953 mt 3102 3025 L
3376 3028 mt 3448 3028 L
3412 2992 mt 3412 3064 L
3123 3479 mt 3195 3479 L
3159 3443 mt 3159 3515 L
3638 2806 mt 3710 2806 L
3674 2770 mt 3674 2842 L
2444 3980 mt 2516 3980 L
2480 3944 mt 2480 4016 L
2881 3144 mt 2953 3144 L
2917 3108 mt 2917 3180 L
4542 3273 mt 4614 3273 L
4578 3237 mt 4578 3309 L
4453 1121 mt 4525 1121 L
4489 1085 mt 4489 1157 L
4852 1954 mt 4924 1954 L
4888 1918 mt 4888 1990 L
3516 1911 mt 3588 1911 L
3552 1875 mt 3552 1947 L
5468 1892 mt 5540 1892 L
5504 1856 mt 5504 1928 L
3364 2307 mt 3436 2307 L
3400 2271 mt 3400 2343 L
2643 2120 mt 2715 2120 L
2679 2084 mt 2679 2156 L
2813 3087 mt 2885 3087 L
2849 3051 mt 2849 3123 L
4021 3000 mt 4093 3000 L
4057 2964 mt 4057 3036 L
3599 2284 mt 3671 2284 L
3635 2248 mt 3635 2320 L
2575 2401 mt 2647 2401 L
2611 2365 mt 2611 2437 L
3421 3227 mt 3493 3227 L
3457 3191 mt 3457 3263 L
3007 3093 mt 3079 3093 L
3043 3057 mt 3043 3129 L
4553 2104 mt 4625 2104 L
4589 2068 mt 4589 2140 L
4330 2704 mt 4402 2704 L
4366 2668 mt 4366 2740 L
3141 3340 mt 3213 3340 L
3177 3304 mt 3177 3376 L
2407 1680 mt 2479 1680 L
2443 1644 mt 2443 1716 L
4512 1995 mt 4584 1995 L
4548 1959 mt 4548 2031 L
3342 3289 mt 3414 3289 L
3378 3253 mt 3378 3325 L
3249 1838 mt 3321 1838 L
3285 1802 mt 3285 1874 L
2545 2329 mt 2617 2329 L
2581 2293 mt 2581 2365 L
4028 2125 mt 4100 2125 L
4064 2089 mt 4064 2161 L
2085 2655 mt 2157 2655 L
2121 2619 mt 2121 2691 L
3666 2094 mt 3738 2094 L
3702 2058 mt 3702 2130 L
3694 3446 mt 3766 3446 L
3730 3410 mt 3730 3482 L
2468 3137 mt 2540 3137 L
2504 3101 mt 2504 3173 L
2689 2646 mt 2761 2646 L
2725 2610 mt 2725 2682 L
5180 1748 mt 5252 1748 L
5216 1712 mt 5216 1784 L
3621 2365 mt 3693 2365 L
3657 2329 mt 3657 2401 L
2952 2471 mt 3024 2471 L
2988 2435 mt 2988 2507 L
2432 3039 mt 2504 3039 L
2468 3003 mt 2468 3075 L
3844 3822 mt 3916 3822 L
3880 3786 mt 3880 3858 L
2106 2311 mt 2178 2311 L
2142 2275 mt 2142 2347 L
3897 1802 mt 3969 1802 L
3933 1766 mt 3933 1838 L
3460 2894 mt 3532 2894 L
3496 2858 mt 3496 2930 L
4274 2007 mt 4346 2007 L
4310 1971 mt 4310 2043 L
3964 2199 mt 4036 2199 L
4000 2163 mt 4000 2235 L
3566 2532 mt 3638 2532 L
3602 2496 mt 3602 2568 L
2797 2691 mt 2869 2691 L
2833 2655 mt 2833 2727 L
3290 2488 mt 3362 2488 L
3326 2452 mt 3326 2524 L
3521 3171 mt 3593 3171 L
3557 3135 mt 3557 3207 L
2456 3610 mt 2528 3610 L
2492 3574 mt 2492 3646 L
3370 2160 mt 3442 2160 L
3406 2124 mt 3406 2196 L
3284 2778 mt 3356 2778 L
3320 2742 mt 3320 2814 L
4347 3157 mt 4419 3157 L
4383 3121 mt 4383 3193 L
3838 3503 mt 3910 3503 L
3874 3467 mt 3874 3539 L
3616 2830 mt 3688 2830 L
3652 2794 mt 3652 2866 L
4444 2664 mt 4516 2664 L
4480 2628 mt 4480 2700 L
2993 2501 mt 3065 2501 L
3029 2465 mt 3029 2537 L
2723 2700 mt 2795 2700 L
2759 2664 mt 2759 2736 L
1619 2458 mt 1691 2458 L
1655 2422 mt 1655 2494 L
4706 2432 mt 4778 2432 L
4742 2396 mt 4742 2468 L
gs 899 414 5363 4203 rc
gr

0 sg
2822 5104 mt 
(\(F,DCTb,MLP\)) s
 482 3300 mt  -90 rotate
(\(F,DCTb,iMLP\)) s
90 rotate
2975  223 mt 
(Corr = 0.23) s

end %%Color Dict

eplot
%%EndObject

epage
end

showpage

%%Trailer
%%EOF
