%!PS-Adobe-3.0 EPSF-3.0
%%Creator: MATLAB, The Mathworks, Inc. Version 7.7.0.471 (R2008b). Operating System: Microsoft Windows XP.
%%Title: Pictures\main_zoo_mvar_analysis_data_BMI_xcorr_bmig_p1_k2_5_9.eps
%%CreationDate: 10/26/2009  05:45:31
%%DocumentNeededFonts: Helvetica
%%DocumentProcessColors: Cyan Magenta Yellow Black
%%LanguageLevel: 2
%%Pages: 1
%%BoundingBox:    37   180   549   616
%%EndComments

%%BeginProlog
% MathWorks dictionary
/MathWorks 160 dict begin
% definition operators
/bdef {bind def} bind def
/ldef {load def} bind def
/xdef {exch def} bdef
/xstore {exch store} bdef
% operator abbreviations
/c  /clip ldef
/cc /concat ldef
/cp /closepath ldef
/gr /grestore ldef
/gs /gsave ldef
/mt /moveto ldef
/np /newpath ldef
/cm /currentmatrix ldef
/sm /setmatrix ldef
/rm /rmoveto ldef
/rl /rlineto ldef
/s {show newpath} bdef
/sc {setcmykcolor} bdef
/sr /setrgbcolor ldef
/sg /setgray ldef
/w /setlinewidth ldef
/j /setlinejoin ldef
/cap /setlinecap ldef
/rc {rectclip} bdef
/rf {rectfill} bdef
% page state control
/pgsv () def
/bpage {/pgsv save def} bdef
/epage {pgsv restore} bdef
/bplot /gsave ldef
/eplot {stroke grestore} bdef
% orientation switch
/portraitMode 0 def /landscapeMode 1 def /rotateMode 2 def
% coordinate system mappings
/dpi2point 0 def
% font control
/FontSize 0 def
/FMS {/FontSize xstore findfont [FontSize 0 0 FontSize neg 0 0]
  makefont setfont} bdef
/ISOLatin1Encoding where {pop /WindowsLatin1Encoding 256 array bdef
ISOLatin1Encoding WindowsLatin1Encoding copy pop
/.notdef/.notdef/quotesinglbase/florin/quotedblbase/ellipsis/dagger
/daggerdbl/circumflex/perthousand/Scaron/guilsinglleft/OE/.notdef/.notdef
/.notdef/.notdef/quoteleft/quoteright/quotedblleft/quotedblright/bullet
/endash/emdash/tilde/trademark/scaron/guilsinglright/oe/.notdef/.notdef
/Ydieresis WindowsLatin1Encoding 128 32 getinterval astore pop}
{/WindowsLatin1Encoding StandardEncoding bdef} ifelse
/reencode {exch dup where {pop load} {pop StandardEncoding} ifelse
  exch dup 3 1 roll findfont dup length dict begin
  { 1 index /FID ne {def}{pop pop} ifelse } forall
  /Encoding exch def currentdict end definefont pop} bdef
/isroman {findfont /CharStrings get /Agrave known} bdef
/FMSR {3 1 roll 1 index dup isroman {reencode} {pop pop} ifelse
  exch FMS} bdef
/csm {1 dpi2point div -1 dpi2point div scale neg translate
 dup landscapeMode eq {pop -90 rotate}
  {rotateMode eq {90 rotate} if} ifelse} bdef
% line types: solid, dotted, dashed, dotdash
/SO { [] 0 setdash } bdef
/DO { [.5 dpi2point mul 4 dpi2point mul] 0 setdash } bdef
/DA { [6 dpi2point mul] 0 setdash } bdef
/DD { [.5 dpi2point mul 4 dpi2point mul 6 dpi2point mul 4
  dpi2point mul] 0 setdash } bdef
% macros for lines and objects
/L {lineto stroke} bdef
/MP {3 1 roll moveto 1 sub {rlineto} repeat} bdef
/AP {{rlineto} repeat} bdef
/PDlw -1 def
/W {/PDlw currentlinewidth def setlinewidth} def
/PP {closepath eofill} bdef
/DP {closepath stroke} bdef
/MR {4 -2 roll moveto dup  0 exch rlineto exch 0 rlineto
  neg 0 exch rlineto closepath} bdef
/FR {MR stroke} bdef
/PR {MR fill} bdef
/L1i {{currentfile picstr readhexstring pop} image} bdef
/tMatrix matrix def
/MakeOval {newpath tMatrix currentmatrix pop translate scale
0 0 1 0 360 arc tMatrix setmatrix} bdef
/FO {MakeOval stroke} bdef
/PO {MakeOval fill} bdef
/PD {currentlinewidth 2 div 0 360 arc fill
   PDlw -1 eq not {PDlw w /PDlw -1 def} if} def
/FA {newpath tMatrix currentmatrix pop translate scale
  0 0 1 5 -2 roll arc tMatrix setmatrix stroke} bdef
/PA {newpath tMatrix currentmatrix pop	translate 0 0 moveto scale
  0 0 1 5 -2 roll arc closepath tMatrix setmatrix fill} bdef
/FAn {newpath tMatrix currentmatrix pop translate scale
  0 0 1 5 -2 roll arcn tMatrix setmatrix stroke} bdef
/PAn {newpath tMatrix currentmatrix pop translate 0 0 moveto scale
  0 0 1 5 -2 roll arcn closepath tMatrix setmatrix fill} bdef
/vradius 0 def /hradius 0 def /lry 0 def
/lrx 0 def /uly 0 def /ulx 0 def /rad 0 def
/MRR {/vradius xdef /hradius xdef /lry xdef /lrx xdef /uly xdef
  /ulx xdef newpath tMatrix currentmatrix pop ulx hradius add uly
  vradius add translate hradius vradius scale 0 0 1 180 270 arc 
  tMatrix setmatrix lrx hradius sub uly vradius add translate
  hradius vradius scale 0 0 1 270 360 arc tMatrix setmatrix
  lrx hradius sub lry vradius sub translate hradius vradius scale
  0 0 1 0 90 arc tMatrix setmatrix ulx hradius add lry vradius sub
  translate hradius vradius scale 0 0 1 90 180 arc tMatrix setmatrix
  closepath} bdef
/FRR {MRR stroke } bdef
/PRR {MRR fill } bdef
/MlrRR {/lry xdef /lrx xdef /uly xdef /ulx xdef /rad lry uly sub 2 div def
  newpath tMatrix currentmatrix pop ulx rad add uly rad add translate
  rad rad scale 0 0 1 90 270 arc tMatrix setmatrix lrx rad sub lry rad
  sub translate rad rad scale 0 0 1 270 90 arc tMatrix setmatrix
  closepath} bdef
/FlrRR {MlrRR stroke } bdef
/PlrRR {MlrRR fill } bdef
/MtbRR {/lry xdef /lrx xdef /uly xdef /ulx xdef /rad lrx ulx sub 2 div def
  newpath tMatrix currentmatrix pop ulx rad add uly rad add translate
  rad rad scale 0 0 1 180 360 arc tMatrix setmatrix lrx rad sub lry rad
  sub translate rad rad scale 0 0 1 0 180 arc tMatrix setmatrix
  closepath} bdef
/FtbRR {MtbRR stroke } bdef
/PtbRR {MtbRR fill } bdef
/stri 6 array def /dtri 6 array def
/smat 6 array def /dmat 6 array def
/tmat1 6 array def /tmat2 6 array def /dif 3 array def
/asub {/ind2 exch def /ind1 exch def dup dup
  ind1 get exch ind2 get sub exch } bdef
/tri_to_matrix {
  2 0 asub 3 1 asub 4 0 asub 5 1 asub
  dup 0 get exch 1 get 7 -1 roll astore } bdef
/compute_transform {
  dmat dtri tri_to_matrix tmat1 invertmatrix 
  smat stri tri_to_matrix tmat2 concatmatrix } bdef
/ds {stri astore pop} bdef
/dt {dtri astore pop} bdef
/db {2 copy /cols xdef /rows xdef mul dup 3 mul string
  currentfile 
  3 index 0 eq {/ASCIIHexDecode filter}
  {/ASCII85Decode filter 3 index 2 eq {/RunLengthDecode filter} if }
  ifelse exch readstring pop
  dup 0 3 index getinterval /rbmap xdef
  dup 2 index dup getinterval /gbmap xdef
  1 index dup 2 mul exch getinterval /bbmap xdef pop pop}bdef
/it {gs np dtri aload pop moveto lineto lineto cp c
  cols rows 8 compute_transform 
  rbmap gbmap bbmap true 3 colorimage gr}bdef
/il {newpath moveto lineto stroke}bdef
currentdict end def
%%EndProlog

%%BeginSetup
MathWorks begin

0 cap

end
%%EndSetup

%%Page: 1 1
%%BeginPageSetup
%%PageBoundingBox:    37   180   549   616
MathWorks begin
bpage
%%EndPageSetup

%%BeginObject: obj1
bplot

/dpi2point 12 def
portraitMode 0216 7344 csm

  234   -48  6149  5231 rc
85 dict begin %Colortable dictionary
/c0 { 0.000000 0.000000 0.000000 sr} bdef
/c1 { 1.000000 1.000000 1.000000 sr} bdef
/c2 { 0.900000 0.000000 0.000000 sr} bdef
/c3 { 0.000000 0.820000 0.000000 sr} bdef
/c4 { 0.000000 0.000000 0.800000 sr} bdef
/c5 { 0.910000 0.820000 0.320000 sr} bdef
/c6 { 1.000000 0.260000 0.820000 sr} bdef
/c7 { 0.000000 0.820000 0.820000 sr} bdef
c0
1 j
1 sg
   0    0 6919 5187 rf
6 w
0 4202 5362 0 0 -4202 899 4616 4 MP
PP
-5362 0 0 4202 5362 0 0 -4202 899 4616 5 MP stroke
4 w
DO
SO
6 w
0 sg
 899  414 mt 6261  414 L
 899 4616 mt 6261 4616 L
6261 4616 mt 6261  414 L
 899 4616 mt  899  414 L
 899 4616 mt 6261 4616 L
 899 4616 mt  899  414 L
 919 4616 mt  919 4562 L
 919  414 mt  919  467 L
%%IncludeResource: font Helvetica
/Helvetica /WindowsLatin1Encoding 240 FMSR

 713 4873 mt 
(-3) s
1806 4616 mt 1806 4562 L
1806  414 mt 1806  467 L
1600 4873 mt 
(-2) s
2693 4616 mt 2693 4562 L
2693  414 mt 2693  467 L
2487 4873 mt 
(-1) s
3580 4616 mt 3580 4562 L
3580  414 mt 3580  467 L
3514 4873 mt 
(0) s
4466 4616 mt 4466 4562 L
4466  414 mt 4466  467 L
4400 4873 mt 
(1) s
5353 4616 mt 5353 4562 L
5353  414 mt 5353  467 L
5287 4873 mt 
(2) s
6240 4616 mt 6240 4562 L
6240  414 mt 6240  467 L
6174 4873 mt 
(3) s
 899 4599 mt  952 4599 L
6261 4599 mt 6207 4599 L
 591 4688 mt 
(-3) s
 899 3904 mt  952 3904 L
6261 3904 mt 6207 3904 L
 591 3993 mt 
(-2) s
 899 3209 mt  952 3209 L
6261 3209 mt 6207 3209 L
 591 3298 mt 
(-1) s
 899 2514 mt  952 2514 L
6261 2514 mt 6207 2514 L
 731 2603 mt 
(0) s
 899 1820 mt  952 1820 L
6261 1820 mt 6207 1820 L
 731 1909 mt 
(1) s
 899 1125 mt  952 1125 L
6261 1125 mt 6207 1125 L
 731 1214 mt 
(2) s
 899  430 mt  952  430 L
6261  430 mt 6207  430 L
 731  519 mt 
(3) s
 899  414 mt 6261  414 L
 899 4616 mt 6261 4616 L
6261 4616 mt 6261  414 L
 899 4616 mt  899  414 L
gs 899 414 5363 4203 rc
gr

/c8 { 0.000000 0.000000 1.000000 sr} bdef
c8
3745 1756 mt 3817 1756 L
3781 1720 mt 3781 1792 L
3376 1930 mt 3448 1930 L
3412 1894 mt 3412 1966 L
3915 2584 mt 3987 2584 L
3951 2548 mt 3951 2620 L
3493 3081 mt 3565 3081 L
3529 3045 mt 3529 3117 L
3566 1816 mt 3638 1816 L
3602 1780 mt 3602 1852 L
4121 2067 mt 4193 2067 L
4157 2031 mt 4157 2103 L
2502 3797 mt 2574 3797 L
2538 3761 mt 2538 3833 L
2813 2405 mt 2885 2405 L
2849 2369 mt 2849 2441 L
2565 1831 mt 2637 1831 L
2601 1795 mt 2601 1867 L
4981 2204 mt 5053 2204 L
5017 2168 mt 5017 2240 L
2165 2180 mt 2237 2180 L
2201 2144 mt 2201 2216 L
3689 2150 mt 3761 2150 L
3725 2114 mt 3725 2186 L
4364 2480 mt 4436 2480 L
4400 2444 mt 4400 2516 L
3627 2467 mt 3699 2467 L
3663 2431 mt 3663 2503 L
4904 2125 mt 4976 2125 L
4940 2089 mt 4940 2161 L
3110 2401 mt 3182 2401 L
3146 2365 mt 3146 2437 L
3290 3625 mt 3362 3625 L
3326 3589 mt 3326 3661 L
3516 2519 mt 3588 2519 L
3552 2483 mt 3552 2555 L
3296 2554 mt 3368 2554 L
3332 2518 mt 3332 2590 L
3364 2624 mt 3436 2624 L
3400 2588 mt 3400 2660 L
3549 3118 mt 3621 3118 L
3585 3082 mt 3585 3154 L
3706 3908 mt 3778 3908 L
3742 3872 mt 3742 3944 L
2805 2275 mt 2877 2275 L
2841 2239 mt 2841 2311 L
3621 2462 mt 3693 2462 L
3657 2426 mt 3657 2498 L
5047 2884 mt 5119 2884 L
5083 2848 mt 5083 2920 L
4107 2145 mt 4179 2145 L
4143 2109 mt 4143 2181 L
3432 2967 mt 3504 2967 L
3468 2931 mt 3468 3003 L
4425 3322 mt 4497 3322 L
4461 3286 mt 4461 3358 L
2586 1680 mt 2658 1680 L
2622 1644 mt 2622 1716 L
2624 1990 mt 2696 1990 L
2660 1954 mt 2660 2026 L
3610 2619 mt 3682 2619 L
3646 2583 mt 3646 2655 L
2468 1748 mt 2540 1748 L
2504 1712 mt 2504 1784 L
2251 2214 mt 2323 2214 L
2287 2178 mt 2287 2250 L
3370 3112 mt 3442 3112 L
3406 3076 mt 3406 3148 L
3855 1995 mt 3927 1995 L
3891 1959 mt 3891 2031 L
2874 2104 mt 2946 2104 L
2910 2068 mt 2910 2140 L
2715 2637 mt 2787 2637 L
2751 2601 mt 2751 2673 L
3415 2493 mt 3487 2493 L
3451 2457 mt 3451 2529 L
3958 2536 mt 4030 2536 L
3994 2500 mt 3994 2572 L
2797 2655 mt 2869 2655 L
2833 2619 mt 2833 2691 L
4067 2279 mt 4139 2279 L
4103 2243 mt 4103 2315 L
4608 1462 mt 4680 1462 L
4644 1426 mt 4644 1498 L
4100 2199 mt 4172 2199 L
4136 2163 mt 4136 2235 L
3387 3297 mt 3459 3297 L
3423 3261 mt 3423 3333 L
3666 3540 mt 3738 3540 L
3702 3504 mt 3702 3576 L
3873 3848 mt 3945 3848 L
3909 3812 mt 3909 3884 L
2931 2165 mt 3003 2165 L
2967 2129 mt 2967 2201 L
3359 3386 mt 3431 3386 L
3395 3350 mt 3395 3422 L
3677 2849 mt 3749 2849 L
3713 2813 mt 3713 2885 L
4381 2951 mt 4453 2951 L
4417 2915 mt 4417 2987 L
3232 3553 mt 3304 3553 L
3268 3517 mt 3268 3589 L
2959 1538 mt 3031 1538 L
2995 1502 mt 2995 1574 L
3605 2347 mt 3677 2347 L
3641 2311 mt 3641 2383 L
3184 2782 mt 3256 2782 L
3220 2746 mt 3220 2818 L
3104 1049 mt 3176 1049 L
3140 1013 mt 3140 1085 L
3438 2545 mt 3510 2545 L
3474 2509 mt 3474 2581 L
2456 1966 mt 2528 1966 L
2492 1930 mt 2492 2002 L
4619 1723 mt 4691 1723 L
4655 1687 mt 4655 1759 L
1387 2293 mt 1459 2293 L
1423 2257 mt 1423 2329 L
4398 2423 mt 4470 2423 L
4434 2387 mt 4434 2459 L
3510 3877 mt 3582 3877 L
3546 3841 mt 3546 3913 L
2063 1787 mt 2135 1787 L
2099 1751 mt 2099 1823 L
3803 3515 mt 3875 3515 L
3839 3479 mt 3839 3551 L
3319 2488 mt 3391 2488 L
3355 2452 mt 3355 2524 L
2444 1936 mt 2516 1936 L
2480 1900 mt 2480 1972 L
4355 2361 mt 4427 2361 L
4391 2325 mt 4391 2397 L
3347 1858 mt 3419 1858 L
3383 1822 mt 3383 1894 L
3700 2611 mt 3772 2611 L
3736 2575 mt 3736 2647 L
2652 2012 mt 2724 2012 L
2688 1976 mt 2688 2048 L
3129 2218 mt 3201 2218 L
3165 2182 mt 3165 2254 L
3577 3213 mt 3649 3213 L
3613 3177 mt 3613 3249 L
4574 2874 mt 4646 2874 L
4610 2838 mt 4610 2910 L
2282 3273 mt 2354 3273 L
2318 3237 mt 2318 3309 L
3053 1624 mt 3125 1624 L
3089 1588 mt 3089 1660 L
2183 2029 mt 2255 2029 L
2219 1993 mt 2219 2065 L
2671 3479 mt 2743 3479 L
2707 3443 mt 2707 3515 L
3261 2709 mt 3333 2709 L
3297 2673 mt 3297 2745 L
3832 2379 mt 3904 2379 L
3868 2343 mt 3868 2415 L
4170 1978 mt 4242 1978 L
4206 1942 mt 4206 2014 L
 863 2956 mt  935 2956 L
 899 2920 mt  899 2992 L
1722 1593 mt 1794 1593 L
1758 1557 mt 1758 1629 L
3066 2549 mt 3138 2549 L
3102 2513 mt 3102 2585 L
3098 3011 mt 3170 3011 L
3134 2975 mt 3134 3047 L
3694 1152 mt 3766 1152 L
3730 1116 mt 3730 1188 L
3330 2325 mt 3402 2325 L
3366 2289 mt 3366 2361 L
2773 2677 mt 2845 2677 L
2809 2641 mt 2809 2713 L
3421 1972 mt 3493 1972 L
3457 1936 mt 3457 2008 L
4074 2135 mt 4146 2135 L
4110 2099 mt 4110 2171 L
3820 3595 mt 3892 3595 L
3856 3559 mt 3856 3631 L
4087 2668 mt 4159 2668 L
4123 2632 mt 4123 2704 L
2016 2343 mt 2088 2343 L
2052 2307 mt 2052 2379 L
4094 1845 mt 4166 1845 L
4130 1809 mt 4130 1881 L
2910 2209 mt 2982 2209 L
2946 2173 mt 2946 2245 L
2966 2830 mt 3038 2830 L
3002 2794 mt 3002 2866 L
2697 3157 mt 2769 3157 L
2733 3121 mt 2733 3193 L
4732 3752 mt 4804 3752 L
4768 3716 mt 4768 3788 L
3460 3075 mt 3532 3075 L
3496 3039 mt 3496 3111 L
1674 1489 mt 1746 1489 L
1710 1453 mt 1710 1525 L
2394 2745 mt 2466 2745 L
2430 2709 mt 2430 2781 L
4149 1604 mt 4221 1604 L
4185 1568 mt 4185 1640 L
4472 2185 mt 4544 2185 L
4508 2149 mt 4508 2221 L
4655 2475 mt 4727 2475 L
4691 2439 mt 4691 2511 L
3313 2899 mt 3385 2899 L
3349 2863 mt 3349 2935 L
2355 3641 mt 2427 3641 L
2391 3605 mt 2391 3677 L
3091 2704 mt 3163 2704 L
3127 2668 mt 3127 2740 L
4338 1643 mt 4410 1643 L
4374 1607 mt 4374 1679 L
3909 2307 mt 3981 2307 L
3945 2271 mt 3945 2343 L
4282 2194 mt 4354 2194 L
4318 2158 mt 4318 2230 L
3147 2736 mt 3219 2736 L
3183 2700 mt 3183 2772 L
3740 2170 mt 3812 2170 L
3776 2134 mt 3776 2206 L
4290 2288 mt 4362 2288 L
4326 2252 mt 4326 2324 L
3809 1277 mt 3881 1277 L
3845 1241 mt 3845 1313 L
2643 2713 mt 2715 2713 L
2679 2677 mt 2679 2749 L
3571 2265 mt 3643 2265 L
3607 2229 mt 3607 2301 L
2740 3022 mt 2812 3022 L
2776 2986 mt 2776 3058 L
3237 2962 mt 3309 2962 L
3273 2926 mt 3273 2998 L
3940 1794 mt 4012 1794 L
3976 1758 mt 3976 1830 L
4522 3250 mt 4594 3250 L
4558 3214 mt 4558 3286 L
3178 2458 mt 3250 2458 L
3214 2422 mt 3214 2494 L
2432 2682 mt 2504 2682 L
2468 2646 mt 2468 2718 L
3644 2374 mt 3716 2374 L
3680 2338 mt 3680 2410 L
3443 1448 mt 3515 1448 L
3479 1412 mt 3479 1484 L
3135 2040 mt 3207 2040 L
3171 2004 mt 3171 2076 L
3404 2338 mt 3476 2338 L
3440 2302 mt 3440 2374 L
2689 1838 mt 2761 1838 L
2725 1802 mt 2725 1874 L
5122 2449 mt 5194 2449 L
5158 2413 mt 5158 2485 L
2680 3039 mt 2752 3039 L
2716 3003 mt 2716 3075 L
3499 2396 mt 3571 2396 L
3535 2360 mt 3535 2432 L
4034 2298 mt 4106 2298 L
4070 2262 mt 4070 2334 L
2407 2115 mt 2479 2115 L
2443 2079 mt 2443 2151 L
4444 2365 mt 4516 2365 L
4480 2329 mt 4480 2401 L
3734 2778 mt 3806 2778 L
3770 2742 mt 3770 2814 L
4243 3125 mt 4315 3125 L
4279 3089 mt 4279 3161 L
3582 2510 mt 3654 2510 L
3618 2474 mt 3618 2546 L
2924 2392 mt 2996 2392 L
2960 2356 mt 2960 2428 L
3723 1917 mt 3795 1917 L
3759 1881 mt 3759 1953 L
2312 4072 mt 2384 4072 L
2348 4036 mt 2348 4108 L
4306 1872 mt 4378 1872 L
4342 1836 mt 4342 1908 L
3116 1911 mt 3188 1911 L
3152 1875 mt 3152 1947 L
3059 2869 mt 3131 2869 L
3095 2833 mt 3095 2905 L
2765 2741 mt 2837 2741 L
2801 2705 mt 2801 2777 L
3897 1802 mt 3969 1802 L
3933 1766 mt 3933 1838 L
3594 3227 mt 3666 3227 L
3630 3191 mt 3630 3263 L
3426 2130 mt 3498 2130 L
3462 2094 mt 3462 2166 L
3166 2633 mt 3238 2633 L
3202 2597 mt 3202 2669 L
4836 2414 mt 4908 2414 L
4872 2378 mt 4872 2450 L
3353 2320 mt 3425 2320 L
3389 2284 mt 3389 2356 L
2420 1698 mt 2492 1698 L
2456 1662 mt 2456 1734 L
3278 1942 mt 3350 1942 L
3314 1906 mt 3314 1978 L
3243 2018 mt 3315 2018 L
3279 1982 mt 3279 2054 L
2821 2311 mt 2893 2311 L
2857 2275 mt 2857 2347 L
2917 2062 mt 2989 2062 L
2953 2026 mt 2953 2098 L
1937 2001 mt 2009 2001 L
1973 1965 mt 1973 2037 L
2106 2571 mt 2178 2571 L
2142 2535 mt 2142 2607 L
3307 2700 mt 3379 2700 L
3343 2664 mt 3343 2736 L
3249 2764 mt 3321 2764 L
3285 2728 mt 3285 2800 L
3544 2695 mt 3616 2695 L
3580 2659 mt 3580 2731 L
3078 3057 mt 3150 3057 L
3114 3021 mt 3114 3093 L
4047 2864 mt 4119 2864 L
4083 2828 mt 4083 2900 L
4080 2994 mt 4152 2994 L
4116 2958 mt 4116 3030 L
3952 2792 mt 4024 2792 L
3988 2756 mt 3988 2828 L
1766 2806 mt 1838 2806 L
1802 2770 mt 1802 2842 L
2381 2256 mt 2453 2256 L
2417 2220 mt 2417 2292 L
2844 2242 mt 2916 2242 L
2880 2206 mt 2880 2278 L
2490 1662 mt 2562 1662 L
2526 1626 mt 2526 1698 L
2851 1878 mt 2923 1878 L
2887 1842 mt 2887 1914 L
3284 2811 mt 3356 2811 L
3320 2775 mt 3320 2847 L
4667 2593 mt 4739 2593 L
4703 2557 mt 4703 2629 L
3717 1572 mt 3789 1572 L
3753 1536 mt 3753 1608 L
4002 2261 mt 4074 2261 L
4038 2225 mt 4038 2297 L
3410  957 mt 3482  957 L
3446  921 mt 3446  993 L
1876 1583 mt 1948 1583 L
1912 1547 mt 1912 1619 L
3838 2237 mt 3910 2237 L
3874 2201 mt 3874 2273 L
2723 2051 mt 2795 2051 L
2759 2015 mt 2759 2087 L
2513 3610 mt 2585 3610 L
2549 3574 mt 2549 3646 L
3934 1671 mt 4006 1671 L
3970 1635 mt 3970 1707 L
3861 1740 mt 3933 1740 L
3897 1704 mt 3897 1776 L
2706 1948 mt 2778 1948 L
2742 1912 mt 2742 1984 L
1619 2659 mt 1691 2659 L
1655 2623 mt 1655 2695 L
3661 1614 mt 3733 1614 L
3697 1578 mt 3697 1650 L
4221 2506 mt 4293 2506 L
4257 2470 mt 4257 2542 L
3527 2889 mt 3599 2889 L
3563 2853 mt 3563 2925 L
3046 1419 mt 3118 1419 L
3082 1383 mt 3082 1455 L
2146 3087 mt 2218 3087 L
2182 3051 mt 2182 3123 L
3454 3164 mt 3526 3164 L
3490 3128 mt 3490 3200 L
2828 1318 mt 2900 1318 L
2864 1282 mt 2864 1354 L
3588 2514 mt 3660 2514 L
3624 2478 mt 3624 2550 L
3393 2370 mt 3465 2370 L
3429 2334 mt 3429 2406 L
3762 1561 mt 3834 1561 L
3798 1525 mt 3798 1597 L
3791 2284 mt 3863 2284 L
3827 2248 mt 3827 2320 L
2938 2615 mt 3010 2615 L
2974 2579 mt 2974 2651 L
2126 2840 mt 2198 2840 L
2162 2804 mt 2162 2876 L
4597 2189 mt 4669 2189 L
4633 2153 mt 4633 2225 L
5321 1689 mt 5393 1689 L
5357 1653 mt 5357 1725 L
3768 1087 mt 3840 1087 L
3804 1051 mt 3804 1123 L
3903 2007 mt 3975 2007 L
3939 1971 mt 3939 2043 L
2789 3567 mt 2861 3567 L
2825 3531 mt 2825 3603 L
2980 1779 mt 3052 1779 L
3016 1743 mt 3016 1815 L
2987 2801 mt 3059 2801 L
3023 2765 mt 3023 2837 L
4941 2083 mt 5013 2083 L
4977 2047 mt 4977 2119 L
4706 1885 mt 4778 1885 L
4742 1849 mt 4742 1921 L
4390 1764 mt 4462 1764 L
4426 1728 mt 4426 1800 L
3971 2935 mt 4043 2935 L
4007 2899 mt 4007 2971 L
3649 2691 mt 3721 2691 L
3685 2655 mt 3685 2727 L
3672 1904 mt 3744 1904 L
3708 1868 mt 3708 1940 L
4236 2562 mt 4308 2562 L
4272 2526 mt 4272 2598 L
4775 3503 mt 4847 3503 L
4811 3467 mt 4811 3539 L
3683 2731 mt 3755 2731 L
3719 2695 mt 3719 2767 L
4922  414 mt 4994  414 L
4958  378 mt 4958  450 L
2881 3349 mt 2953 3349 L
2917 3313 mt 2917 3385 L
2575 1121 mt 2647 1121 L
2611 1085 mt 2611 1157 L
4719 2727 mt 4791 2727 L
4755 2691 mt 4755 2763 L
3505 1851 mt 3577 1851 L
3541 1815 mt 3541 1887 L
4869 3774 mt 4941 3774 L
4905 3738 mt 4905 3810 L
4135 1232 mt 4207 1232 L
4171 1196 mt 4171 1268 L
3336 2247 mt 3408 2247 L
3372 2211 mt 3372 2283 L
4114 2946 mt 4186 2946 L
4150 2910 mt 4150 2982 L
3785 3491 mt 3857 3491 L
3821 3455 mt 3821 3527 L
5365 1434 mt 5437 1434 L
5401 1398 mt 5401 1470 L
3751 2879 mt 3823 2879 L
3787 2843 mt 3787 2915 L
2218 1388 mt 2290 1388 L
2254 1352 mt 2254 1424 L
2945 2453 mt 3017 2453 L
2981 2417 mt 2981 2489 L
4298 2484 mt 4370 2484 L
4334 2448 mt 4334 2520 L
4852 3151 mt 4924 3151 L
4888 3115 mt 4888 3187 L
4961 3281 mt 5033 3281 L
4997 3245 mt 4997 3317 L
3555 2418 mt 3627 2418 L
3591 2382 mt 3591 2454 L
2903 2035 mt 2975 2035 L
2939 1999 mt 2939 2071 L
2896 2445 mt 2968 2445 L
2932 2409 mt 2932 2481 L
4156 1865 mt 4228 1865 L
4192 1829 mt 4192 1901 L
2634 2471 mt 2706 2471 L
2670 2435 mt 2670 2507 L
1259 3206 mt 1331 3206 L
1295 3170 mt 1295 3242 L
4553 3184 mt 4625 3184 L
4589 3148 mt 4589 3220 L
5002 2650 mt 5074 2650 L
5038 2614 mt 5038 2686 L
2085 2302 mt 2157 2302 L
2121 2266 mt 2121 2338 L
3190 1404 mt 3262 1404 L
3226 1368 mt 3226 1440 L
5531 3257 mt 5603 3257 L
5567 3221 mt 5567 3293 L
5700 3178 mt 5772 3178 L
5736 3142 mt 5736 3214 L
3532 2920 mt 3604 2920 L
3568 2884 mt 3568 2956 L
3202 2641 mt 3274 2641 L
3238 2605 mt 3238 2677 L
3226 2094 mt 3298 2094 L
3262 2058 mt 3262 2130 L
3757 3942 mt 3829 3942 L
3793 3906 mt 3793 3978 L
4760 2155 mt 4832 2155 L
4796 2119 mt 4796 2191 L
4542 2602 mt 4614 2602 L
4578 2566 mt 4578 2638 L
4266 2909 mt 4338 2909 L
4302 2873 mt 4302 2945 L
4163 2754 mt 4235 2754 L
4199 2718 mt 4199 2790 L
4372 3028 mt 4444 3028 L
4408 2992 mt 4408 3064 L
3214 1653 mt 3286 1653 L
3250 1617 mt 3250 1689 L
2298 2787 mt 2370 2787 L
2334 2751 mt 2334 2823 L
3072 2773 mt 3144 2773 L
3108 2737 mt 3108 2809 L
2534 3468 mt 2606 3468 L
2570 3432 mt 2570 3504 L
3867 3581 mt 3939 3581 L
3903 3545 mt 3903 3617 L
2859 2228 mt 2931 2228 L
2895 2192 mt 2895 2264 L
3538 2497 mt 3610 2497 L
3574 2461 mt 3574 2533 L
4564 3137 mt 4636 3137 L
4600 3101 mt 4600 3173 L
2866 1898 mt 2938 1898 L
2902 1862 mt 2902 1934 L
3220 3340 mt 3292 3340 L
3256 3304 mt 3256 3376 L
4463 2835 mt 4535 2835 L
4499 2799 mt 4499 2871 L
4251 1476 mt 4323 1476 L
4287 1440 mt 4287 1512 L
4886 1298 mt 4958 1298 L
4922 1262 mt 4922 1334 L
3850 2334 mt 3922 2334 L
3886 2298 mt 3886 2370 L
3780 2750 mt 3852 2750 L
3816 2714 mt 3816 2786 L
4041 2523 mt 4113 2523 L
4077 2487 mt 4077 2559 L
1842 2628 mt 1914 2628 L
1878 2592 mt 1878 2664 L
1907 3144 mt 1979 3144 L
1943 3108 mt 1943 3180 L
4512 2646 mt 4584 2646 L
4548 2610 mt 4548 2682 L
4314 2432 mt 4386 2432 L
4350 2396 mt 4350 2468 L
3273 2664 mt 3345 2664 L
3309 2628 mt 3309 2700 L
3085 1336 mt 3157 1336 L
3121 1300 mt 3121 1372 L
2615 1634 mt 2687 1634 L
2651 1598 mt 2651 1670 L
3774 2844 mt 3846 2844 L
3810 2808 mt 3810 2880 L
5180 2120 mt 5252 2120 L
5216 2084 mt 5216 2156 L
3989 2356 mt 4061 2356 L
4025 2320 mt 4025 2392 L
4199 3367 mt 4271 3367 L
4235 3331 mt 4235 3403 L
3000 1707 mt 3072 1707 L
3036 1671 mt 3036 1743 L
3616 1371 mt 3688 1371 L
3652 1335 mt 3652 1407 L
4435 3675 mt 4507 3675 L
4471 3639 mt 4471 3711 L
4453 2436 mt 4525 2436 L
4489 2400 mt 4489 2472 L
3013 2427 mt 3085 2427 L
3049 2391 mt 3049 2463 L
4054 2078 mt 4126 2078 L
4090 2042 mt 4090 2114 L
4142 1006 mt 4214 1006 L
4178  970 mt 4178 1042 L
4532 2972 mt 4604 2972 L
4568 2936 mt 4568 3008 L
2479 2073 mt 2551 2073 L
2515 2037 mt 2515 2109 L
3381 4023 mt 3453 4023 L
3417 3987 mt 3417 4059 L
3996 2352 mt 4068 2352 L
4032 2316 mt 4032 2388 L
2327 3415 mt 2399 3415 L
2363 3379 mt 2363 3451 L
4028  724 mt 4100  724 L
4064  688 mt 4064  760 L
4128 2089 mt 4200 2089 L
4164 2053 mt 4164 2125 L
3885 2722 mt 3957 2722 L
3921 2686 mt 3921 2758 L
2757 3242 mt 2829 3242 L
2793 3206 mt 2793 3278 L
4228 3425 mt 4300 3425 L
4264 3389 mt 4264 3461 L
4021 3000 mt 4093 3000 L
4057 2964 mt 4057 3036 L
3946 2501 mt 4018 2501 L
3982 2465 mt 3982 2537 L
4259 2099 mt 4331 2099 L
4295 2063 mt 4295 2135 L
2523 3822 mt 2595 3822 L
2559 3786 mt 2559 3858 L
3728 2270 mt 3800 2270 L
3764 2234 mt 3764 2306 L
6225 3980 mt 6297 3980 L
6261 3944 mt 6261 4016 L
3844 3034 mt 3916 3034 L
3880 2998 mt 3880 3070 L
2973 1550 mt 3045 1550 L
3009 1514 mt 3009 1586 L
3521 2718 mt 3593 2718 L
3557 2682 mt 3557 2754 L
4501 2576 mt 4573 2576 L
4537 2540 mt 4537 2612 L
6033 1984 mt 6105 1984 L
6069 1948 mt 6069 2020 L
3141 2940 mt 3213 2940 L
3177 2904 mt 3177 2976 L
5468 2233 mt 5540 2233 L
5504 2197 mt 5504 2269 L
2781 3099 mt 2853 3099 L
2817 3063 mt 2817 3135 L
3007 2580 mt 3079 2580 L
3043 2544 mt 3043 2616 L
5606 4616 mt 5678 4616 L
5642 4580 mt 5642 4652 L
4820 1255 mt 4892 1255 L
4856 1219 mt 4856 1291 L
2836 3051 mt 2908 3051 L
2872 3015 mt 2872 3087 L
2749 3376 mt 2821 3376 L
2785 3340 mt 2785 3412 L
4191 2930 mt 4263 2930 L
4227 2894 mt 4227 2966 L
3020 2160 mt 3092 2160 L
3056 2124 mt 3056 2196 L
3983 3191 mt 4055 3191 L
4019 3155 mt 4019 3227 L
4322 1732 mt 4394 1732 L
4358 1696 mt 4358 1768 L
2888 3405 mt 2960 3405 L
2924 3369 mt 2924 3441 L
4407 4131 mt 4479 4131 L
4443 4095 mt 4443 4167 L
3477 2983 mt 3549 2983 L
3513 2947 mt 3513 3019 L
5282 2606 mt 5354 2606 L
5318 2570 mt 5318 2642 L
3826 3265 mt 3898 3265 L
3862 3229 mt 3862 3301 L
3255 2383 mt 3327 2383 L
3291 2347 mt 3291 2419 L
3172 1514 mt 3244 1514 L
3208 1478 mt 3208 1550 L
5071 2046 mt 5143 2046 L
5107 2010 mt 5107 2082 L
3160 3131 mt 3232 3131 L
3196 3095 mt 3196 3167 L
3153 2024 mt 3225 2024 L
3189 1988 mt 3189 2060 L
4805 2978 mt 4877 2978 L
4841 2942 mt 4841 3014 L
5024  564 mt 5096  564 L
5060  528 mt 5060  600 L
4416 1823 mt 4488 1823 L
4452 1787 mt 4452 1859 L
2605 3235 mt 2677 3235 L
2641 3199 mt 2641 3271 L
3342 2989 mt 3414 2989 L
3378 2953 mt 3378 3025 L
3814 2316 mt 3886 2316 L
3850 2280 mt 3850 2352 L
1991 3436 mt 2063 3436 L
2027 3400 mt 2027 3472 L
4631 1207 mt 4703 1207 L
4667 1171 mt 4667 1243 L
3027 2854 mt 3099 2854 L
3063 2818 mt 3063 2890 L
4585 2567 mt 4657 2567 L
4621 2531 mt 4621 2603 L
3123 2440 mt 3195 2440 L
3159 2404 mt 3159 2476 L
3891 1715 mt 3963 1715 L
3927 1679 mt 3927 1751 L
3921 2558 mt 3993 2558 L
3957 2522 mt 3957 2594 L
3196 3017 mt 3268 3017 L
3232 2981 mt 3232 3053 L
4177 2759 mt 4249 2759 L
4213 2723 mt 4213 2795 L
4274 2768 mt 4346 2768 L
4310 2732 mt 4310 2804 L
4789 3063 mt 4861 3063 L
4825 3027 mt 4825 3099 L
1805 2329 mt 1877 2329 L
1841 2293 mt 1841 2365 L
5413 2796 mt 5485 2796 L
5449 2760 mt 5449 2832 L
4746 3289 mt 4818 3289 L
4782 3253 mt 4782 3325 L
2545 3198 mt 2617 3198 L
2581 3162 mt 2581 3234 L
3797 3106 mt 3869 3106 L
3833 3070 mt 3833 3142 L
2201 2589 mt 2273 2589 L
2237 2553 mt 2237 2625 L
2662 1772 mt 2734 1772 L
2698 1736 mt 2698 1808 L
2952 1502 mt 3024 1502 L
2988 1466 mt 2988 1538 L
2732 2140 mt 2804 2140 L
2768 2104 mt 2768 2176 L
1965 2925 mt 2037 2925 L
2001 2889 mt 2001 2961 L
2555 2109 mt 2627 2109 L
2591 2073 mt 2591 2145 L
3208 3457 mt 3280 3457 L
3244 3421 mt 3244 3493 L
2267 1526 mt 2339 1526 L
2303 1490 mt 2303 1562 L
5211 4205 mt 5283 4205 L
5247 4169 mt 5247 4241 L
2993  824 mt 3065  824 L
3029  788 mt 3029  860 L
4492  898 mt 4564  898 L
4528  862 mt 4528  934 L
5150 2251 mt 5222 2251 L
5186 2215 mt 5186 2287 L
3927 3711 mt 3999 3711 L
3963 3675 mt 3963 3747 L
3302 3306 mt 3374 3306 L
3338 3270 mt 3338 3342 L
3398 3171 mt 3470 3171 L
3434 3135 mt 3434 3207 L
3638 3731 mt 3710 3731 L
3674 3695 mt 3674 3767 L
3655 2410 mt 3727 2410 L
3691 2374 mt 3691 2446 L
3633 2914 mt 3705 2914 L
3669 2878 mt 3669 2950 L
3471 1354 mt 3543 1354 L
3507 1318 mt 3507 1390 L
2235 2820 mt 2307 2820 L
2271 2784 mt 2271 2856 L
3267 4305 mt 3339 4305 L
3303 4269 mt 3303 4341 L
3482 3658 mt 3554 3658 L
3518 3622 mt 3518 3694 L
2595 2825 mt 2667 2825 L
2631 2789 mt 2631 2861 L
5245 1954 mt 5317 1954 L
5281 1918 mt 5281 1990 L
4206 2686 mt 4278 2686 L
4242 2650 mt 4242 2722 L
3977 3220 mt 4049 3220 L
4013 3184 mt 4013 3256 L
4643 2532 mt 4715 2532 L
4679 2496 mt 4679 2568 L
3879 3005 mt 3951 3005 L
3915 2969 mt 3915 3041 L
4184 2057 mt 4256 2057 L
4220 2021 mt 4220 2093 L
3599 3331 mt 3671 3331 L
3635 3295 mt 3635 3367 L
2368 1892 mt 2440 1892 L
2404 1856 mt 2404 1928 L
1481 3527 mt 1553 3527 L
1517 3491 mt 1517 3563 L
4330 3314 mt 4402 3314 L
4366 3278 mt 4366 3350 L
3040 3693 mt 3112 3693 L
3076 3657 mt 3076 3729 L
3488 3395 mt 3560 3395 L
3524 3359 mt 3524 3431 L
5096 3358 mt 5168 3358 L
5132 3322 mt 5132 3394 L
1556 2894 mt 1628 2894 L
1592 2858 mt 1592 2930 L
4693 2597 mt 4765 2597 L
4729 2561 mt 4729 2633 L
4482 1923 mt 4554 1923 L
4518 1887 mt 4518 1959 L
2341 3045 mt 2413 3045 L
2377 3009 mt 2377 3081 L
4347 2541 mt 4419 2541 L
4383 2505 mt 4383 2577 L
3560 2904 mt 3632 2904 L
3596 2868 mt 3596 2940 L
2040 3093 mt 2112 3093 L
2076 3057 mt 2076 3129 L
3033 3069 mt 3105 3069 L
3069 3033 mt 3069 3105 L
4009 2223 mt 4081 2223 L
4045 2187 mt 4045 2259 L
3466 2528 mt 3538 2528 L
3502 2492 mt 3502 2564 L
3711 2673 mt 3783 2673 L
3747 2637 mt 3747 2709 L
3964 2815 mt 4036 2815 L
4000 2779 mt 4000 2851 L
5828 2175 mt 5900 2175 L
5864 2139 mt 5864 2211 L
4015 1960 mt 4087 1960 L
4051 1924 mt 4051 1996 L
3325 1809 mt 3397 1809 L
3361 1773 mt 3361 1845 L
3449 3446 mt 3521 3446 L
3485 3410 mt 3485 3482 L
4060 1181 mt 4132 1181 L
4096 1145 mt 4096 1217 L
4213 2859 mt 4285 2859 L
4249 2823 mt 4249 2895 L
4680 2388 mt 4752 2388 L
4716 2352 mt 4716 2424 L
gs 899 414 5363 4203 rc
gr

0 sg
2822 5104 mt 
(\(F,DCTb,MLP\)) s
 482 3277 mt  -90 rotate
(\(S,SSC,GMM\)) s
90 rotate
2975  223 mt 
(Corr = 0.00) s

end %%Color Dict

eplot
%%EndObject

epage
end

showpage

%%Trailer
%%EOF
