%!PS-Adobe-3.0 EPSF-3.0
%%Creator: MATLAB, The Mathworks, Inc. Version 7.7.0.471 (R2008b). Operating System: Microsoft Windows XP.
%%Title: Pictures\main_zoo_mvar_analysis_data_BMI_xcorr_bmig_p2_k2_1_2.eps
%%CreationDate: 10/26/2009  05:45:41
%%DocumentNeededFonts: Helvetica
%%DocumentProcessColors: Cyan Magenta Yellow Black
%%LanguageLevel: 2
%%Pages: 1
%%BoundingBox:    37   180   549   616
%%EndComments

%%BeginProlog
% MathWorks dictionary
/MathWorks 160 dict begin
% definition operators
/bdef {bind def} bind def
/ldef {load def} bind def
/xdef {exch def} bdef
/xstore {exch store} bdef
% operator abbreviations
/c  /clip ldef
/cc /concat ldef
/cp /closepath ldef
/gr /grestore ldef
/gs /gsave ldef
/mt /moveto ldef
/np /newpath ldef
/cm /currentmatrix ldef
/sm /setmatrix ldef
/rm /rmoveto ldef
/rl /rlineto ldef
/s {show newpath} bdef
/sc {setcmykcolor} bdef
/sr /setrgbcolor ldef
/sg /setgray ldef
/w /setlinewidth ldef
/j /setlinejoin ldef
/cap /setlinecap ldef
/rc {rectclip} bdef
/rf {rectfill} bdef
% page state control
/pgsv () def
/bpage {/pgsv save def} bdef
/epage {pgsv restore} bdef
/bplot /gsave ldef
/eplot {stroke grestore} bdef
% orientation switch
/portraitMode 0 def /landscapeMode 1 def /rotateMode 2 def
% coordinate system mappings
/dpi2point 0 def
% font control
/FontSize 0 def
/FMS {/FontSize xstore findfont [FontSize 0 0 FontSize neg 0 0]
  makefont setfont} bdef
/ISOLatin1Encoding where {pop /WindowsLatin1Encoding 256 array bdef
ISOLatin1Encoding WindowsLatin1Encoding copy pop
/.notdef/.notdef/quotesinglbase/florin/quotedblbase/ellipsis/dagger
/daggerdbl/circumflex/perthousand/Scaron/guilsinglleft/OE/.notdef/.notdef
/.notdef/.notdef/quoteleft/quoteright/quotedblleft/quotedblright/bullet
/endash/emdash/tilde/trademark/scaron/guilsinglright/oe/.notdef/.notdef
/Ydieresis WindowsLatin1Encoding 128 32 getinterval astore pop}
{/WindowsLatin1Encoding StandardEncoding bdef} ifelse
/reencode {exch dup where {pop load} {pop StandardEncoding} ifelse
  exch dup 3 1 roll findfont dup length dict begin
  { 1 index /FID ne {def}{pop pop} ifelse } forall
  /Encoding exch def currentdict end definefont pop} bdef
/isroman {findfont /CharStrings get /Agrave known} bdef
/FMSR {3 1 roll 1 index dup isroman {reencode} {pop pop} ifelse
  exch FMS} bdef
/csm {1 dpi2point div -1 dpi2point div scale neg translate
 dup landscapeMode eq {pop -90 rotate}
  {rotateMode eq {90 rotate} if} ifelse} bdef
% line types: solid, dotted, dashed, dotdash
/SO { [] 0 setdash } bdef
/DO { [.5 dpi2point mul 4 dpi2point mul] 0 setdash } bdef
/DA { [6 dpi2point mul] 0 setdash } bdef
/DD { [.5 dpi2point mul 4 dpi2point mul 6 dpi2point mul 4
  dpi2point mul] 0 setdash } bdef
% macros for lines and objects
/L {lineto stroke} bdef
/MP {3 1 roll moveto 1 sub {rlineto} repeat} bdef
/AP {{rlineto} repeat} bdef
/PDlw -1 def
/W {/PDlw currentlinewidth def setlinewidth} def
/PP {closepath eofill} bdef
/DP {closepath stroke} bdef
/MR {4 -2 roll moveto dup  0 exch rlineto exch 0 rlineto
  neg 0 exch rlineto closepath} bdef
/FR {MR stroke} bdef
/PR {MR fill} bdef
/L1i {{currentfile picstr readhexstring pop} image} bdef
/tMatrix matrix def
/MakeOval {newpath tMatrix currentmatrix pop translate scale
0 0 1 0 360 arc tMatrix setmatrix} bdef
/FO {MakeOval stroke} bdef
/PO {MakeOval fill} bdef
/PD {currentlinewidth 2 div 0 360 arc fill
   PDlw -1 eq not {PDlw w /PDlw -1 def} if} def
/FA {newpath tMatrix currentmatrix pop translate scale
  0 0 1 5 -2 roll arc tMatrix setmatrix stroke} bdef
/PA {newpath tMatrix currentmatrix pop	translate 0 0 moveto scale
  0 0 1 5 -2 roll arc closepath tMatrix setmatrix fill} bdef
/FAn {newpath tMatrix currentmatrix pop translate scale
  0 0 1 5 -2 roll arcn tMatrix setmatrix stroke} bdef
/PAn {newpath tMatrix currentmatrix pop translate 0 0 moveto scale
  0 0 1 5 -2 roll arcn closepath tMatrix setmatrix fill} bdef
/vradius 0 def /hradius 0 def /lry 0 def
/lrx 0 def /uly 0 def /ulx 0 def /rad 0 def
/MRR {/vradius xdef /hradius xdef /lry xdef /lrx xdef /uly xdef
  /ulx xdef newpath tMatrix currentmatrix pop ulx hradius add uly
  vradius add translate hradius vradius scale 0 0 1 180 270 arc 
  tMatrix setmatrix lrx hradius sub uly vradius add translate
  hradius vradius scale 0 0 1 270 360 arc tMatrix setmatrix
  lrx hradius sub lry vradius sub translate hradius vradius scale
  0 0 1 0 90 arc tMatrix setmatrix ulx hradius add lry vradius sub
  translate hradius vradius scale 0 0 1 90 180 arc tMatrix setmatrix
  closepath} bdef
/FRR {MRR stroke } bdef
/PRR {MRR fill } bdef
/MlrRR {/lry xdef /lrx xdef /uly xdef /ulx xdef /rad lry uly sub 2 div def
  newpath tMatrix currentmatrix pop ulx rad add uly rad add translate
  rad rad scale 0 0 1 90 270 arc tMatrix setmatrix lrx rad sub lry rad
  sub translate rad rad scale 0 0 1 270 90 arc tMatrix setmatrix
  closepath} bdef
/FlrRR {MlrRR stroke } bdef
/PlrRR {MlrRR fill } bdef
/MtbRR {/lry xdef /lrx xdef /uly xdef /ulx xdef /rad lrx ulx sub 2 div def
  newpath tMatrix currentmatrix pop ulx rad add uly rad add translate
  rad rad scale 0 0 1 180 360 arc tMatrix setmatrix lrx rad sub lry rad
  sub translate rad rad scale 0 0 1 0 180 arc tMatrix setmatrix
  closepath} bdef
/FtbRR {MtbRR stroke } bdef
/PtbRR {MtbRR fill } bdef
/stri 6 array def /dtri 6 array def
/smat 6 array def /dmat 6 array def
/tmat1 6 array def /tmat2 6 array def /dif 3 array def
/asub {/ind2 exch def /ind1 exch def dup dup
  ind1 get exch ind2 get sub exch } bdef
/tri_to_matrix {
  2 0 asub 3 1 asub 4 0 asub 5 1 asub
  dup 0 get exch 1 get 7 -1 roll astore } bdef
/compute_transform {
  dmat dtri tri_to_matrix tmat1 invertmatrix 
  smat stri tri_to_matrix tmat2 concatmatrix } bdef
/ds {stri astore pop} bdef
/dt {dtri astore pop} bdef
/db {2 copy /cols xdef /rows xdef mul dup 3 mul string
  currentfile 
  3 index 0 eq {/ASCIIHexDecode filter}
  {/ASCII85Decode filter 3 index 2 eq {/RunLengthDecode filter} if }
  ifelse exch readstring pop
  dup 0 3 index getinterval /rbmap xdef
  dup 2 index dup getinterval /gbmap xdef
  1 index dup 2 mul exch getinterval /bbmap xdef pop pop}bdef
/it {gs np dtri aload pop moveto lineto lineto cp c
  cols rows 8 compute_transform 
  rbmap gbmap bbmap true 3 colorimage gr}bdef
/il {newpath moveto lineto stroke}bdef
currentdict end def
%%EndProlog

%%BeginSetup
MathWorks begin

0 cap

end
%%EndSetup

%%Page: 1 1
%%BeginPageSetup
%%PageBoundingBox:    37   180   549   616
MathWorks begin
bpage
%%EndPageSetup

%%BeginObject: obj1
bplot

/dpi2point 12 def
portraitMode 0216 7344 csm

  234   -48  6149  5231 rc
85 dict begin %Colortable dictionary
/c0 { 0.000000 0.000000 0.000000 sr} bdef
/c1 { 1.000000 1.000000 1.000000 sr} bdef
/c2 { 0.900000 0.000000 0.000000 sr} bdef
/c3 { 0.000000 0.820000 0.000000 sr} bdef
/c4 { 0.000000 0.000000 0.800000 sr} bdef
/c5 { 0.910000 0.820000 0.320000 sr} bdef
/c6 { 1.000000 0.260000 0.820000 sr} bdef
/c7 { 0.000000 0.820000 0.820000 sr} bdef
c0
1 j
1 sg
   0    0 6919 5187 rf
6 w
0 4202 5362 0 0 -4202 899 4616 4 MP
PP
-5362 0 0 4202 5362 0 0 -4202 899 4616 5 MP stroke
4 w
DO
SO
6 w
0 sg
 899  414 mt 6261  414 L
 899 4616 mt 6261 4616 L
6261 4616 mt 6261  414 L
 899 4616 mt  899  414 L
 899 4616 mt 6261 4616 L
 899 4616 mt  899  414 L
 919 4616 mt  919 4562 L
 919  414 mt  919  467 L
%%IncludeResource: font Helvetica
/Helvetica /WindowsLatin1Encoding 240 FMSR

 713 4873 mt 
(-3) s
1806 4616 mt 1806 4562 L
1806  414 mt 1806  467 L
1600 4873 mt 
(-2) s
2693 4616 mt 2693 4562 L
2693  414 mt 2693  467 L
2487 4873 mt 
(-1) s
3580 4616 mt 3580 4562 L
3580  414 mt 3580  467 L
3514 4873 mt 
(0) s
4466 4616 mt 4466 4562 L
4466  414 mt 4466  467 L
4400 4873 mt 
(1) s
5353 4616 mt 5353 4562 L
5353  414 mt 5353  467 L
5287 4873 mt 
(2) s
6240 4616 mt 6240 4562 L
6240  414 mt 6240  467 L
6174 4873 mt 
(3) s
 899 4599 mt  952 4599 L
6261 4599 mt 6207 4599 L
 591 4688 mt 
(-3) s
 899 3904 mt  952 3904 L
6261 3904 mt 6207 3904 L
 591 3993 mt 
(-2) s
 899 3209 mt  952 3209 L
6261 3209 mt 6207 3209 L
 591 3298 mt 
(-1) s
 899 2514 mt  952 2514 L
6261 2514 mt 6207 2514 L
 731 2603 mt 
(0) s
 899 1820 mt  952 1820 L
6261 1820 mt 6207 1820 L
 731 1909 mt 
(1) s
 899 1125 mt  952 1125 L
6261 1125 mt 6207 1125 L
 731 1214 mt 
(2) s
 899  430 mt  952  430 L
6261  430 mt 6207  430 L
 731  519 mt 
(3) s
 899  414 mt 6261  414 L
 899 4616 mt 6261 4616 L
6261 4616 mt 6261  414 L
 899 4616 mt  899  414 L
gs 899 414 5363 4203 rc
gr

/c8 { 0.000000 0.000000 1.000000 sr} bdef
c8
3610 1802 mt 3682 1802 L
3646 1766 mt 3646 1838 L
2993 1583 mt 3065 1583 L
3029 1547 mt 3029 1619 L
3762 3553 mt 3834 3553 L
3798 3517 mt 3798 3589 L
4322 1538 mt 4394 1538 L
4358 1502 mt 4358 1574 L
3085 1772 mt 3157 1772 L
3121 1736 mt 3121 1808 L
1991 2859 mt 2063 2859 L
2027 2823 mt 2027 2895 L
3404 2787 mt 3476 2787 L
3440 2751 mt 3440 2823 L
3797 2874 mt 3869 2874 L
3833 2838 mt 3833 2910 L
2420 2073 mt 2492 2073 L
2456 2037 mt 2456 2109 L
3717 3349 mt 3789 3349 L
3753 3313 mt 3753 3385 L
2723 1878 mt 2795 1878 L
2759 1842 mt 2759 1914 L
3649 2792 mt 3721 2792 L
3685 2756 mt 3685 2828 L
4444 2930 mt 4516 2930 L
4480 2894 mt 4480 2966 L
2634 1698 mt 2706 1698 L
2670 1662 mt 2670 1734 L
4886 2057 mt 4958 2057 L
4922 2021 mt 4922 2093 L
3147 3367 mt 3219 3367 L
3183 3331 mt 3183 3403 L
2146 1593 mt 2218 1593 L
2182 1557 mt 2182 1629 L
4191 3213 mt 4263 3213 L
4227 3177 mt 4227 3249 L
4805 2370 mt 4877 2370 L
4841 2334 mt 4841 2406 L
3555 3386 mt 3627 3386 L
3591 3350 mt 3591 3422 L
3633 2884 mt 3705 2884 L
3669 2848 mt 3669 2920 L
1481 2972 mt 1553 2972 L
1517 2936 mt 1517 3008 L
5150 2401 mt 5222 2401 L
5186 2365 mt 5186 2437 L
2575 2686 mt 2647 2686 L
2611 2650 mt 2611 2722 L
3313 2392 mt 3385 2392 L
3349 2356 mt 3349 2428 L
3129 2673 mt 3201 2673 L
3165 2637 mt 3165 2709 L
2959 2782 mt 3031 2782 L
2995 2746 mt 2995 2818 L
3952 2593 mt 4024 2593 L
3988 2557 mt 3988 2629 L
4114 1662 mt 4186 1662 L
4150 1626 mt 4150 1698 L
4170 1715 mt 4242 1715 L
4206 1679 mt 4206 1751 L
3820 1865 mt 3892 1865 L
3856 1829 mt 3856 1901 L
4655 3075 mt 4727 3075 L
4691 3039 mt 4691 3111 L
3208 2067 mt 3280 2067 L
3244 2031 mt 3244 2103 L
4381 1634 mt 4453 1634 L
4417 1598 mt 4417 1670 L
3728 2423 mt 3800 2423 L
3764 2387 mt 3764 2459 L
4416 2682 mt 4488 2682 L
4452 2646 mt 4452 2718 L
4177  898 mt 4249  898 L
4213  862 mt 4213  934 L
1907 2467 mt 1979 2467 L
1943 2431 mt 1943 2503 L
4355 2659 mt 4427 2659 L
4391 2623 mt 4391 2695 L
3046 1851 mt 3118 1851 L
3082 1815 mt 3082 1887 L
2595 3479 mt 2667 3479 L
2631 3443 mt 2631 3515 L
3477  564 mt 3549  564 L
3513  528 mt 3513  600 L
4732  724 mt 4804  724 L
4768  688 mt 4768  760 L
2282 2223 mt 2354 2223 L
2318 2187 mt 2318 2259 L
4347 2018 mt 4419 2018 L
4383 1982 mt 4383 2054 L
4282 2731 mt 4354 2731 L
4318 2695 mt 4318 2767 L
2444 2062 mt 2516 2062 L
2480 2026 mt 2480 2098 L
3342 2414 mt 3414 2414 L
3378 2378 mt 3378 2450 L
3261 1858 mt 3333 1858 L
3297 1822 mt 3297 1894 L
3655 3112 mt 3727 3112 L
3691 3076 mt 3691 3148 L
3319 2909 mt 3391 2909 L
3355 2873 mt 3355 2945 L
3677 2488 mt 3749 2488 L
3713 2452 mt 3713 2524 L
3532 1232 mt 3604 1232 L
3568 1196 mt 3568 1268 L
2534 3281 mt 2606 3281 L
2570 3245 mt 2570 3317 L
3757 2801 mt 3829 2801 L
3793 2765 mt 3793 2837 L
3393 2480 mt 3465 2480 L
3429 2444 mt 3429 2516 L
2016 2189 mt 2088 2189 L
2052 2153 mt 2052 2225 L
3330 2956 mt 3402 2956 L
3366 2920 mt 3366 2992 L
2126 2571 mt 2198 2571 L
2162 2535 mt 2162 2607 L
3921 2325 mt 3993 2325 L
3957 2289 mt 3957 2361 L
5321 2664 mt 5393 2664 L
5357 2628 mt 5357 2700 L
3638 2365 mt 3710 2365 L
3674 2329 mt 3674 2401 L
4719 3731 mt 4791 3731 L
4755 3695 mt 4755 3767 L
3785 2135 mt 3857 2135 L
3821 2099 mt 3821 2171 L
2917 3235 mt 2989 3235 L
2953 3199 mt 2953 3271 L
3302 4072 mt 3374 4072 L
3338 4036 mt 3338 4108 L
4693 2130 mt 4765 2130 L
4729 2094 mt 4729 2166 L
4981 1489 mt 5053 1489 L
5017 1453 mt 5017 1525 L
3745 2523 mt 3817 2523 L
3781 2487 mt 3781 2559 L
3098 1624 mt 3170 1624 L
3134 1588 mt 3134 1660 L
1876 2646 mt 1948 2646 L
1912 2610 mt 1912 2682 L
3190 3171 mt 3262 3171 L
3226 3135 mt 3226 3207 L
2828 1653 mt 2900 1653 L
2864 1617 mt 2864 1689 L
3443 1794 mt 3515 1794 L
3479 1758 mt 3479 1830 L
2662 2334 mt 2734 2334 L
2698 2298 mt 2698 2370 L
3284 3045 mt 3356 3045 L
3320 3009 mt 3320 3081 L
4228 2436 mt 4300 2436 L
4264 2400 mt 4264 2472 L
3398 1255 mt 3470 1255 L
3434 1219 mt 3434 1291 L
4820 2589 mt 4892 2589 L
4856 2553 mt 4856 2625 L
3927 2094 mt 3999 2094 L
3963 2058 mt 3963 2130 L
3706 2894 mt 3778 2894 L
3742 2858 mt 3742 2930 L
2267 1978 mt 2339 1978 L
2303 1942 mt 2303 2014 L
3661 2619 mt 3733 2619 L
3697 2583 mt 3697 2655 L
3166 2001 mt 3238 2001 L
3202 1965 mt 3202 2037 L
3946 3164 mt 4018 3164 L
3982 3128 mt 3982 3200 L
4060 3395 mt 4132 3395 L
4096 3359 mt 4096 3431 L
5211 1318 mt 5283 1318 L
5247 1282 mt 5247 1354 L
3666 1872 mt 3738 1872 L
3702 1836 mt 3702 1908 L
4553 2951 mt 4625 2951 L
4589 2915 mt 4589 2987 L
2931 2155 mt 3003 2155 L
2967 2119 mt 2967 2191 L
3850 1809 mt 3922 1809 L
3886 1773 mt 3886 1845 L
5700 1614 mt 5772 1614 L
5736 1578 mt 5736 1650 L
3027 2567 mt 3099 2567 L
3063 2531 mt 3063 2603 L
2165 3137 mt 2237 3137 L
2201 3101 mt 2201 3173 L
1937 2449 mt 2009 2449 L
1973 2413 mt 1973 2485 L
2298 1995 mt 2370 1995 L
2334 1959 mt 2334 2031 L
1387 2549 mt 1459 2549 L
1423 2513 mt 1423 2585 L
5531 2536 mt 5603 2536 L
5567 2500 mt 5567 2572 L
1842 2633 mt 1914 2633 L
1878 2597 mt 1878 2669 L
2680 2501 mt 2752 2501 L
2716 2465 mt 2716 2537 L
3627 2773 mt 3699 2773 L
3663 2737 mt 3663 2809 L
3325 1502 mt 3397 1502 L
3361 1466 mt 3361 1538 L
3104 3331 mt 3176 3331 L
3140 3295 mt 3140 3367 L
3466 2768 mt 3538 2768 L
3502 2732 mt 3502 2804 L
2765 3457 mt 2837 3457 L
2801 3421 mt 2801 3493 L
4643 3446 mt 4715 3446 L
4679 3410 mt 4679 3482 L
4922 2750 mt 4994 2750 L
4958 2714 mt 4958 2786 L
3885 1756 mt 3957 1756 L
3921 1720 mt 3921 1792 L
2924 2237 mt 2996 2237 L
2960 2201 mt 2960 2273 L
4869 3000 mt 4941 3000 L
4905 2964 mt 4905 3036 L
3791 3314 mt 3863 3314 L
3827 3278 mt 3827 3350 L
3178 3822 mt 3250 3822 L
3214 3786 mt 3214 3858 L
2715 2806 mt 2787 2806 L
2751 2770 mt 2751 2842 L
3571 2541 mt 3643 2541 L
3607 2505 mt 3607 2577 L
3135 3144 mt 3207 3144 L
3171 3108 mt 3171 3180 L
3110 2356 mt 3182 2356 L
3146 2320 mt 3146 2392 L
3290 1723 mt 3362 1723 L
3326 1687 mt 3326 1759 L
2697 2849 mt 2769 2849 L
2733 2813 mt 2733 2885 L
2394 3198 mt 2466 3198 L
2430 3162 mt 2430 3234 L
4789 1604 mt 4861 1604 L
4825 1568 mt 4825 1640 L
3873 2228 mt 3945 2228 L
3909 2192 mt 3909 2264 L
2235 3425 mt 2307 3425 L
2271 3389 mt 2271 3461 L
2523 2279 mt 2595 2279 L
2559 2243 mt 2559 2315 L
4492 1885 mt 4564 1885 L
4528 1849 mt 4528 1921 L
2490 2615 mt 2562 2615 L
2526 2579 mt 2526 2651 L
2980 1371 mt 3052 1371 L
3016 1335 mt 3016 1407 L
4290 1990 mt 4362 1990 L
4326 1954 mt 4326 2026 L
3516 2745 mt 3588 2745 L
3552 2709 mt 3552 2781 L
1805 3752 mt 1877 3752 L
1841 3716 mt 1841 3788 L
3493 3641 mt 3565 3641 L
3529 3605 mt 3529 3677 L
2555 2410 mt 2627 2410 L
2591 2374 mt 2591 2446 L
4852 2879 mt 4924 2879 L
4888 2843 mt 4888 2915 L
3594 3774 mt 3666 3774 L
3630 3738 mt 3630 3810 L
4002 2109 mt 4074 2109 L
4038 2073 mt 4038 2145 L
3582 2150 mt 3654 2150 L
3618 2114 mt 3618 2186 L
5180 2825 mt 5252 2825 L
5216 2789 mt 5216 2861 L
3296 3093 mt 3368 3093 L
3332 3057 mt 3332 3129 L
3964 2736 mt 4036 2736 L
4000 2700 mt 4000 2772 L
3510 1960 mt 3582 1960 L
3546 1924 mt 3546 1996 L
3803 2602 mt 3875 2602 L
3839 2566 mt 3839 2638 L
3909 2471 mt 3981 2471 L
3945 2435 mt 3945 2507 L
4009 1930 mt 4081 1930 L
4045 1894 mt 4045 1966 L
3605 2718 mt 3677 2718 L
3641 2682 mt 3641 2754 L
 863 1643 mt  935 1643 L
 899 1607 mt  899 1679 L
3588 2864 mt 3660 2864 L
3624 2828 mt 3624 2900 L
3861 3184 mt 3933 3184 L
3897 3148 mt 3897 3220 L
2706 2914 mt 2778 2914 L
2742 2878 mt 2742 2950 L
3544 2844 mt 3616 2844 L
3580 2808 mt 3580 2880 L
3983 1917 mt 4055 1917 L
4019 1881 mt 4019 1953 L
3040 2120 mt 3112 2120 L
3076 2084 mt 3076 2156 L
4597 2194 mt 4669 2194 L
4633 2158 mt 4633 2230 L
4243 2209 mt 4315 2209 L
4279 2173 mt 4279 2245 L
2910 2284 mt 2982 2284 L
2946 2248 mt 2946 2320 L
5606 4131 mt 5678 4131 L
5642 4095 mt 5642 4167 L
1259 1911 mt 1331 1911 L
1295 1875 mt 1295 1947 L
4435 1152 mt 4507 1152 L
4471 1116 mt 4471 1188 L
4274 3848 mt 4346 3848 L
4310 3812 mt 4310 3884 L
2781 2145 mt 2853 2145 L
2817 2109 mt 2817 2181 L
4149 2983 mt 4221 2983 L
4185 2947 mt 4185 3019 L
2740 4616 mt 2812 4616 L
2776 4580 mt 2776 4652 L
4760 2251 mt 4832 2251 L
4796 2215 mt 4796 2287 L
3488 3503 mt 3560 3503 L
3524 3467 mt 3524 3539 L
3053 2024 mt 3125 2024 L
3089 1988 mt 3089 2060 L
4407 3051 mt 4479 3051 L
4443 3015 mt 4443 3087 L
4338 1354 mt 4410 1354 L
4374 1318 mt 4374 1390 L
3066 2835 mt 3138 2835 L
3102 2799 mt 3102 2871 L
4522 3022 mt 4594 3022 L
4558 2986 mt 4558 3058 L
3711 2754 mt 3783 2754 L
3747 2718 mt 3747 2790 L
2987 1671 mt 3059 1671 L
3023 1635 mt 3023 1707 L
3226  414 mt 3298  414 L
3262  378 mt 3262  450 L
3449 3039 mt 3521 3039 L
3485 3003 mt 3485 3075 L
4512 2051 mt 4584 2051 L
4548 2015 mt 4548 2087 L
3376 1845 mt 3448 1845 L
3412 1809 mt 3412 1881 L
4041 1689 mt 4113 1689 L
4077 1653 mt 4077 1725 L
3202 3610 mt 3274 3610 L
3238 3574 mt 3238 3646 L
3007 2493 mt 3079 2493 L
3043 2457 mt 3043 2529 L
3838 2427 mt 3910 2427 L
3874 2391 mt 3874 2463 L
3940 3711 mt 4012 3711 L
3976 3675 mt 3976 3747 L
3694 2655 mt 3766 2655 L
3730 2619 mt 3730 2691 L
4121 3106 mt 4193 3106 L
4157 3070 mt 4157 3142 L
1674 2584 mt 1746 2584 L
1710 2548 mt 1710 2620 L
4206 3595 mt 4278 3595 L
4242 3559 mt 4242 3631 L
4034 2641 mt 4106 2641 L
4070 2605 mt 4070 2677 L
3267 2580 mt 3339 2580 L
3303 2544 mt 3303 2616 L
4746 3306 mt 4818 3306 L
4782 3270 mt 4782 3342 L
3336 3658 mt 3408 3658 L
3372 3622 mt 3372 3694 L
5282 3206 mt 5354 3206 L
5318 3170 mt 5318 3242 L
3977 2713 mt 4049 2713 L
4013 2677 mt 4013 2749 L
4463 1550 mt 4535 1550 L
4499 1514 mt 4499 1586 L
5828 3220 mt 5900 3220 L
5864 3184 mt 5864 3256 L
2859 3540 mt 2931 3540 L
2895 3504 mt 2895 3576 L
4199 2962 mt 4271 2962 L
4235 2926 mt 4235 2998 L
5096 3151 mt 5168 3151 L
5132 3115 mt 5132 3187 L
2888 2606 mt 2960 2606 L
2924 2570 mt 2924 2642 L
4221 1448 mt 4293 1448 L
4257 1412 mt 4257 1484 L
3421 1087 mt 3493 1087 L
3457 1051 mt 3457 1123 L
2973 2288 mt 3045 2288 L
3009 2252 mt 3009 2324 L
4047 2347 mt 4119 2347 L
4083 2311 mt 4083 2383 L
2615 3491 mt 2687 3491 L
2651 3455 mt 2651 3527 L
4364 2180 mt 4436 2180 L
4400 2144 mt 4400 2216 L
2866 2554 mt 2938 2554 L
2902 2518 mt 2902 2590 L
5047 1277 mt 5119 1277 L
5083 1241 mt 5083 1313 L
2468 2214 mt 2540 2214 L
2504 2178 mt 2504 2250 L
3734 2432 mt 3806 2432 L
3770 2396 mt 3770 2468 L
3700 2125 mt 3772 2125 L
3736 2089 mt 3736 2161 L
3958 2994 mt 4030 2994 L
3994 2958 mt 3994 3030 L
4087 2830 mt 4159 2830 L
4123 2794 mt 4123 2866 L
3237 1948 mt 3309 1948 L
3273 1912 mt 3273 1984 L
3560 2099 mt 3632 2099 L
3596 2063 mt 3596 2135 L
5245 3242 mt 5317 3242 L
5281 3206 mt 5281 3278 L
2813 1434 mt 2885 1434 L
2849 1398 mt 2849 1470 L
4074 2233 mt 4146 2233 L
4110 2197 mt 4110 2269 L
4236 2029 mt 4308 2029 L
4272 1993 mt 4272 2065 L
2749 2497 mt 2821 2497 L
2785 2461 mt 2785 2533 L
3891 2576 mt 3963 2576 L
3927 2540 mt 3927 2612 L
4251 4205 mt 4323 4205 L
4287 4169 mt 4287 4241 L
5024 2978 mt 5096 2978 L
5060 2942 mt 5060 3014 L
3214 2040 mt 3286 2040 L
3250 2004 mt 3250 2076 L
3059 3942 mt 3131 3942 L
3095 3906 mt 3095 3978 L
3566 2628 mt 3638 2628 L
3602 2592 mt 3602 2664 L
4213 2484 mt 4285 2484 L
4249 2448 mt 4249 2520 L
2218 2815 mt 2290 2815 L
2254 2779 mt 2254 2851 L
2513 1764 mt 2585 1764 L
2549 1728 mt 2549 1800 L
2757 2453 mt 2829 2453 L
2793 2417 mt 2793 2489 L
3832 1572 mt 3904 1572 L
3868 1536 mt 3868 1608 L
3141 2624 mt 3213 2624 L
3177 2588 mt 3177 2660 L
3996 3250 mt 4068 3250 L
4032 3214 mt 4032 3286 L
3616  824 mt 3688  824 L
3652  788 mt 3652  860 L
2565 1779 mt 2637 1779 L
2601 1743 mt 2601 1815 L
3347 3063 mt 3419 3063 L
3383 3027 mt 3383 3099 L
4156 2311 mt 4228 2311 L
4192 2275 mt 4192 2347 L
4775 2316 mt 4847 2316 L
4811 2280 mt 4811 2352 L
2183 2302 mt 2255 2302 L
2219 2266 mt 2219 2338 L
4941 2165 mt 5013 2165 L
4977 2129 mt 4977 2201 L
2874 1984 mt 2946 1984 L
2910 1948 mt 2910 2020 L
3809 2558 mt 3881 2558 L
3845 2522 mt 3845 2594 L
1766 2904 mt 1838 2904 L
1802 2868 mt 1802 2940 L
2805 3131 mt 2877 3131 L
2841 3095 mt 2841 3167 L
2407 3257 mt 2479 3257 L
2443 3221 mt 2443 3293 L
2251 2293 mt 2323 2293 L
2287 2257 mt 2287 2329 L
3381 2989 mt 3453 2989 L
3417 2953 mt 3417 3025 L
3672 2519 mt 3744 2519 L
3708 2483 mt 3708 2555 L
3521 2247 mt 3593 2247 L
3557 2211 mt 3557 2283 L
4453 2967 mt 4525 2967 L
4489 2931 mt 4489 3003 L
4163 1514 mt 4235 1514 L
4199 1478 mt 4199 1550 L
2106 2545 mt 2178 2545 L
2142 2509 mt 2142 2581 L
4542 2650 mt 4614 2650 L
4578 2614 mt 4578 2686 L
2881 2854 mt 2953 2854 L
2917 2818 mt 2917 2890 L
2432 2270 mt 2504 2270 L
2468 2234 mt 2468 2306 L
2966 2840 mt 3038 2840 L
3002 2804 mt 3002 2876 L
5365 3405 mt 5437 3405 L
5401 3369 mt 5401 3441 L
4142 2035 mt 4214 2035 L
4178 1999 mt 4178 2071 L
3020 2637 mt 3092 2637 L
3056 2601 mt 3056 2673 L
4021 2218 mt 4093 2218 L
4057 2182 mt 4057 2254 L
3903 2778 mt 3975 2778 L
3939 2742 mt 3939 2814 L
4306 3436 mt 4378 3436 L
4342 3400 mt 4342 3472 L
3078 2204 mt 3150 2204 L
3114 2168 mt 3114 2240 L
3364 3191 mt 3436 3191 L
3400 3155 mt 3400 3227 L
2456 2343 mt 2528 2343 L
2492 2307 mt 2492 2379 L
4390 2383 mt 4462 2383 L
4426 2347 mt 4426 2419 L
4107 2920 mt 4179 2920 L
4143 2884 mt 4143 2956 L
6225 1404 mt 6297 1404 L
6261 1368 mt 6261 1440 L
4574 3005 mt 4646 3005 L
4610 2969 mt 4610 3041 L
3220 2532 mt 3292 2532 L
3256 2496 mt 3256 2568 L
2502 2440 mt 2574 2440 L
2538 2404 mt 2538 2476 L
3644 2741 mt 3716 2741 L
3680 2705 mt 3680 2777 L
3499 2722 mt 3571 2722 L
3535 2686 mt 3535 2758 L
4398 2899 mt 4470 2899 L
4434 2863 mt 4434 2935 L
3278 2796 mt 3350 2796 L
3314 2760 mt 3314 2832 L
3538 1740 mt 3610 1740 L
3574 1704 mt 3574 1776 L
3599 2475 mt 3671 2475 L
3635 2439 mt 3635 2511 L
2085 2611 mt 2157 2611 L
2121 2575 mt 2121 2647 L
3255 3358 mt 3327 3358 L
3291 3322 mt 3291 3394 L
5413 2764 mt 5485 2764 L
5449 2728 mt 5449 2800 L
2643 2361 mt 2715 2361 L
2679 2325 mt 2679 2397 L
2789 3081 mt 2861 3081 L
2825 3045 mt 2825 3117 L
4680 2820 mt 4752 2820 L
4716 2784 mt 4716 2856 L
4961 1049 mt 5033 1049 L
4997 1013 mt 4997 1085 L
3460 2170 mt 3532 2170 L
3496 2134 mt 3496 2206 L
4619 1838 mt 4691 1838 L
4655 1802 mt 4655 1874 L
3774 2727 mt 3846 2727 L
3810 2691 mt 3810 2763 L
4585 1816 mt 4657 1816 L
4621 1780 mt 4621 1852 L
5071 2506 mt 5143 2506 L
5107 2470 mt 5107 2542 L
4080 1823 mt 4152 1823 L
4116 1787 mt 4116 1859 L
3768 2104 mt 3840 2104 L
3804 2068 mt 3804 2140 L
2851 2691 mt 2923 2691 L
2887 2655 mt 2887 2727 L
3232 2140 mt 3304 2140 L
3268 2104 mt 3268 2176 L
3621 1181 mt 3693 1181 L
3657 1145 mt 3657 1217 L
3072 2668 mt 3144 2668 L
3108 2632 mt 3108 2704 L
2624 2338 mt 2696 2338 L
2660 2302 mt 2660 2374 L
3934 1419 mt 4006 1419 L
3970 1383 mt 3970 1455 L
4100 1121 mt 4172 1121 L
4136 1085 mt 4136 1157 L
2586 2935 mt 2658 2935 L
2622 2899 mt 2622 2971 L
3577 3527 mt 3649 3527 L
3613 3491 mt 3613 3563 L
3387 2298 mt 3459 2298 L
3423 2262 mt 3423 2334 L
3740 3693 mt 3812 3693 L
3776 3657 mt 3776 3729 L
2945 3057 mt 3017 3057 L
2981 3021 mt 2981 3093 L
2938 2379 mt 3010 2379 L
2974 2343 mt 2974 2415 L
1556 2889 mt 1628 2889 L
1592 2853 mt 1592 2925 L
3432 2695 mt 3504 2695 L
3468 2659 mt 3468 2731 L
4608 2199 mt 4680 2199 L
4644 2163 mt 4644 2235 L
3751 2811 mt 3823 2811 L
3787 2775 mt 3787 2847 L
3160 1748 mt 3232 1748 L
3196 1712 mt 3196 1784 L
2689 2869 mt 2761 2869 L
2725 2833 mt 2725 2905 L
3116 2320 mt 3188 2320 L
3152 2284 mt 3152 2356 L
2368 2925 mt 2440 2925 L
2404 2889 mt 2404 2961 L
1965 3415 mt 2037 3415 L
2001 3379 mt 2001 3451 L
4330 1831 mt 4402 1831 L
4366 1795 mt 4366 1867 L
3689 3625 mt 3761 3625 L
3725 3589 mt 3725 3661 L
2896 3028 mt 2968 3028 L
2932 2992 mt 2932 3064 L
4259 2700 mt 4331 2700 L
4295 2664 mt 4295 2736 L
3527 3297 mt 3599 3297 L
3563 3261 mt 3563 3333 L
3482 3468 mt 3554 3468 L
3518 3432 mt 3518 3504 L
3123 2374 mt 3195 2374 L
3159 2338 mt 3159 2410 L
2479 2307 mt 2551 2307 L
2515 2271 mt 2515 2343 L
3249 2115 mt 3321 2115 L
3285 2079 mt 3285 2151 L
5002 1207 mt 5074 1207 L
5038 1171 mt 5038 1243 L
2201 2704 mt 2273 2704 L
2237 2668 mt 2237 2740 L
3683 2445 mt 3755 2445 L
3719 2409 mt 3719 2481 L
3410 1923 mt 3482 1923 L
3446 1887 mt 3446 1959 L
4298 1476 mt 4370 1476 L
4334 1440 mt 4334 1512 L
2355 2089 mt 2427 2089 L
2391 2053 mt 2391 2125 L
3273 2562 mt 3345 2562 L
3309 2526 mt 3309 2598 L
4054 1388 mt 4126 1388 L
4090 1352 mt 4090 1424 L
3723 2510 mt 3795 2510 L
3759 2474 mt 3759 2546 L
3971 1336 mt 4043 1336 L
4007 1300 mt 4007 1372 L
3359 3797 mt 3431 3797 L
3395 3761 mt 3395 3833 L
2545 4305 mt 2617 4305 L
2581 4269 mt 2581 4341 L
3426 3877 mt 3498 3877 L
3462 3841 mt 3462 3913 L
3505 3125 mt 3577 3125 L
3541 3089 mt 3541 3161 L
2797 2242 mt 2869 2242 L
2833 2206 mt 2833 2278 L
2652 2940 mt 2724 2940 L
2688 2904 mt 2688 2976 L
4314 2396 mt 4386 2396 L
4350 2360 mt 4350 2432 L
2381 3675 mt 2453 3675 L
2417 3639 mt 2417 3711 L
3471 2418 mt 3543 2418 L
3507 2382 mt 3507 2454 L
4501 2946 mt 4573 2946 L
4537 2910 mt 4537 2982 L
2040 1936 mt 2112 1936 L
2076 1900 mt 2076 1972 L
5468 2462 mt 5540 2462 L
5504 2426 mt 5504 2498 L
2952 2078 mt 3024 2078 L
2988 2042 mt 2988 2114 L
4706 1787 mt 4778 1787 L
4742 1751 mt 4742 1823 L
4372 2388 mt 4444 2388 L
4408 2352 mt 4408 2424 L
3844 2083 mt 3916 2083 L
3880 2047 mt 3880 2119 L
4015 3908 mt 4087 3908 L
4051 3872 mt 4051 3944 L
2327 1732 mt 2399 1732 L
2363 1696 mt 2363 1768 L
4184 2709 mt 4256 2709 L
4220 2673 mt 4220 2745 L
3353 2261 mt 3425 2261 L
3389 2225 mt 3389 2297 L
1619 3017 mt 1691 3017 L
1655 2981 mt 1655 3053 L
3454  957 mt 3526  957 L
3490  921 mt 3490  993 L
6033 3322 mt 6105 3322 L
6069 3286 mt 6069 3358 L
3013 3340 mt 3085 3340 L
3049 3304 mt 3049 3376 L
4904 2329 mt 4976 2329 L
4940 2293 mt 4940 2365 L
3438 3118 mt 3510 3118 L
3474 3082 mt 3474 3154 L
4564 4023 mt 4636 4023 L
4600 3987 mt 4600 4059 L
3196 1972 mt 3268 1972 L
3232 1936 mt 3232 2008 L
3243 1892 mt 3315 1892 L
3279 1856 mt 3279 1928 L
3855 3034 mt 3927 3034 L
3891 2998 mt 3891 3070 L
5122 3289 mt 5194 3289 L
5158 3253 mt 5158 3325 L
3307 2514 mt 3379 2514 L
3343 2478 mt 3343 2550 L
4128 2352 mt 4200 2352 L
4164 2316 mt 4164 2388 L
3826 2256 mt 3898 2256 L
3862 2220 mt 3862 2292 L
3091 3178 mt 3163 3178 L
3127 3142 mt 3127 3214 L
4266 2160 mt 4338 2160 L
4302 2124 mt 4302 2196 L
4067 2677 mt 4139 2677 L
4103 2641 mt 4103 2713 L
4836 2012 mt 4908 2012 L
4872 1976 mt 4872 2048 L
3415 3157 mt 3487 3157 L
3451 3121 mt 3451 3193 L
3897 3581 mt 3969 3581 L
3933 3545 mt 3933 3617 L
2773 3011 mt 2845 3011 L
2809 2975 mt 2809 3047 L
3184 3087 mt 3256 3087 L
3220 3051 mt 3220 3123 L
3879 3265 mt 3951 3265 L
3915 3229 mt 3915 3301 L
4667 1680 mt 4739 1680 L
4703 1644 mt 4703 1716 L
3153 2528 mt 3225 2528 L
3189 2492 mt 3189 2564 L
3780 1898 mt 3852 1898 L
3816 1862 mt 3816 1934 L
2605 2275 mt 2677 2275 L
2641 2239 mt 2641 2311 L
3814 2759 mt 3886 2759 L
3850 2723 mt 3850 2795 L
2312 1942 mt 2384 1942 L
2348 1906 mt 2348 1978 L
3000 1526 mt 3072 1526 L
3036 1490 mt 3036 1562 L
2821 2265 mt 2893 2265 L
2857 2229 mt 2857 2301 L
4631 2405 mt 4703 2405 L
4667 2369 mt 4667 2441 L
2836 2458 mt 2908 2458 L
2872 2422 mt 2872 2494 L
2063 1561 mt 2135 1561 L
2099 1525 mt 2099 1597 L
2671 3515 mt 2743 3515 L
2707 3479 mt 2707 3551 L
3989 3099 mt 4061 3099 L
4025 3063 mt 4025 3135 L
4425 2046 mt 4497 2046 L
4461 2010 mt 4461 2082 L
3370 1966 mt 3442 1966 L
3406 1930 mt 3406 2002 L
3915 2007 mt 3987 2007 L
3951 1971 mt 3951 2043 L
3172 3376 mt 3244 3376 L
3208 3340 mt 3208 3412 L
4094 3567 mt 4166 3567 L
4130 3531 mt 4130 3603 L
3549 2185 mt 3621 2185 L
3585 2149 mt 3585 2221 L
4135 3227 mt 4207 3227 L
4171 3191 mt 4171 3263 L
3867 1298 mt 3939 1298 L
3903 1262 mt 3903 1334 L
2732 3069 mt 2804 3069 L
2768 3033 mt 2768 3105 L
2844 1462 mt 2916 1462 L
2880 1426 mt 2880 1498 L
2903 3273 mt 2975 3273 L
2939 3237 mt 2939 3309 L
4482 1904 mt 4554 1904 L
4518 1868 mt 4518 1940 L
4472 1707 mt 4544 1707 L
4508 1671 mt 4508 1743 L
4532 1006 mt 4604 1006 L
4568  970 mt 4568 1042 L
1722 3980 mt 1794 3980 L
1758 3944 mt 1758 4016 L
2341 1954 mt 2413 1954 L
2377 1918 mt 2377 1990 L
3033 2175 mt 3105 2175 L
3069 2139 mt 3069 2211 L
4028 2597 mt 4100 2597 L
4064 2561 mt 4064 2633 L
gs 899 414 5363 4203 rc
gr

0 sg
2775 5104 mt 
(\(F,DCTb,GMM\)) s
 482 3343 mt  -90 rotate
(\(S,LFCC,GMM\)) s
90 rotate
2975  223 mt 
(Corr = 0.07) s

end %%Color Dict

eplot
%%EndObject

epage
end

showpage

%%Trailer
%%EOF
