%!PS-Adobe-3.0 EPSF-3.0
%%Creator: MATLAB, The Mathworks, Inc.
%%Title: .\main_fusion_us_logreg_all_beta3.eps
%%CreationDate: 02/14/2009  01:51:40
%%DocumentNeededFonts: Helvetica
%%DocumentProcessColors: Cyan Magenta Yellow Black
%%LanguageLevel: 2
%%Pages: 1
%%BoundingBox:    18   187   543   615
%%EndComments

%%BeginProlog
% MathWorks dictionary
/MathWorks 160 dict begin
% definition operators
/bdef {bind def} bind def
/ldef {load def} bind def
/xdef {exch def} bdef
/xstore {exch store} bdef
% operator abbreviations
/c  /clip ldef
/cc /concat ldef
/cp /closepath ldef
/gr /grestore ldef
/gs /gsave ldef
/mt /moveto ldef
/np /newpath ldef
/cm /currentmatrix ldef
/sm /setmatrix ldef
/rm /rmoveto ldef
/rl /rlineto ldef
/s {show newpath} bdef
/sc {setcmykcolor} bdef
/sr /setrgbcolor ldef
/sg /setgray ldef
/w /setlinewidth ldef
/j /setlinejoin ldef
/cap /setlinecap ldef
/rc {rectclip} bdef
/rf {rectfill} bdef
% page state control
/pgsv () def
/bpage {/pgsv save def} bdef
/epage {pgsv restore} bdef
/bplot /gsave ldef
/eplot {stroke grestore} bdef
% orientation switch
/portraitMode 0 def /landscapeMode 1 def /rotateMode 2 def
% coordinate system mappings
/dpi2point 0 def
% font control
/FontSize 0 def
/FMS {/FontSize xstore findfont [FontSize 0 0 FontSize neg 0 0]
  makefont setfont} bdef
/ISOLatin1Encoding where {pop /WindowsLatin1Encoding 256 array bdef
ISOLatin1Encoding WindowsLatin1Encoding copy pop
/.notdef/.notdef/quotesinglbase/florin/quotedblbase/ellipsis/dagger
/daggerdbl/circumflex/perthousand/Scaron/guilsinglleft/OE/.notdef/.notdef
/.notdef/.notdef/quoteleft/quoteright/quotedblleft/quotedblright/bullet
/endash/emdash/tilde/trademark/scaron/guilsinglright/oe/.notdef/.notdef
/Ydieresis WindowsLatin1Encoding 128 32 getinterval astore pop}
{/WindowsLatin1Encoding StandardEncoding bdef} ifelse
/reencode {exch dup where {pop load} {pop StandardEncoding} ifelse
  exch dup 3 1 roll findfont dup length dict begin
  { 1 index /FID ne {def}{pop pop} ifelse } forall
  /Encoding exch def currentdict end definefont pop} bdef
/isroman {findfont /CharStrings get /Agrave known} bdef
/FMSR {3 1 roll 1 index dup isroman {reencode} {pop pop} ifelse
  exch FMS} bdef
/csm {1 dpi2point div -1 dpi2point div scale neg translate
 dup landscapeMode eq {pop -90 rotate}
  {rotateMode eq {90 rotate} if} ifelse} bdef
% line types: solid, dotted, dashed, dotdash
/SO { [] 0 setdash } bdef
/DO { [.5 dpi2point mul 4 dpi2point mul] 0 setdash } bdef
/DA { [6 dpi2point mul] 0 setdash } bdef
/DD { [.5 dpi2point mul 4 dpi2point mul 6 dpi2point mul 4
  dpi2point mul] 0 setdash } bdef
% macros for lines and objects
/L {lineto stroke} bdef
/MP {3 1 roll moveto 1 sub {rlineto} repeat} bdef
/AP {{rlineto} repeat} bdef
/PDlw -1 def
/W {/PDlw currentlinewidth def setlinewidth} def
/PP {closepath eofill} bdef
/DP {closepath stroke} bdef
/MR {4 -2 roll moveto dup  0 exch rlineto exch 0 rlineto
  neg 0 exch rlineto closepath} bdef
/FR {MR stroke} bdef
/PR {MR fill} bdef
/L1i {{currentfile picstr readhexstring pop} image} bdef
/tMatrix matrix def
/MakeOval {newpath tMatrix currentmatrix pop translate scale
0 0 1 0 360 arc tMatrix setmatrix} bdef
/FO {MakeOval stroke} bdef
/PO {MakeOval fill} bdef
/PD {currentlinewidth 2 div 0 360 arc fill
   PDlw -1 eq not {PDlw w /PDlw -1 def} if} def
/FA {newpath tMatrix currentmatrix pop translate scale
  0 0 1 5 -2 roll arc tMatrix setmatrix stroke} bdef
/PA {newpath tMatrix currentmatrix pop	translate 0 0 moveto scale
  0 0 1 5 -2 roll arc closepath tMatrix setmatrix fill} bdef
/FAn {newpath tMatrix currentmatrix pop translate scale
  0 0 1 5 -2 roll arcn tMatrix setmatrix stroke} bdef
/PAn {newpath tMatrix currentmatrix pop translate 0 0 moveto scale
  0 0 1 5 -2 roll arcn closepath tMatrix setmatrix fill} bdef
/vradius 0 def /hradius 0 def /lry 0 def
/lrx 0 def /uly 0 def /ulx 0 def /rad 0 def
/MRR {/vradius xdef /hradius xdef /lry xdef /lrx xdef /uly xdef
  /ulx xdef newpath tMatrix currentmatrix pop ulx hradius add uly
  vradius add translate hradius vradius scale 0 0 1 180 270 arc 
  tMatrix setmatrix lrx hradius sub uly vradius add translate
  hradius vradius scale 0 0 1 270 360 arc tMatrix setmatrix
  lrx hradius sub lry vradius sub translate hradius vradius scale
  0 0 1 0 90 arc tMatrix setmatrix ulx hradius add lry vradius sub
  translate hradius vradius scale 0 0 1 90 180 arc tMatrix setmatrix
  closepath} bdef
/FRR {MRR stroke } bdef
/PRR {MRR fill } bdef
/MlrRR {/lry xdef /lrx xdef /uly xdef /ulx xdef /rad lry uly sub 2 div def
  newpath tMatrix currentmatrix pop ulx rad add uly rad add translate
  rad rad scale 0 0 1 90 270 arc tMatrix setmatrix lrx rad sub lry rad
  sub translate rad rad scale 0 0 1 270 90 arc tMatrix setmatrix
  closepath} bdef
/FlrRR {MlrRR stroke } bdef
/PlrRR {MlrRR fill } bdef
/MtbRR {/lry xdef /lrx xdef /uly xdef /ulx xdef /rad lrx ulx sub 2 div def
  newpath tMatrix currentmatrix pop ulx rad add uly rad add translate
  rad rad scale 0 0 1 180 360 arc tMatrix setmatrix lrx rad sub lry rad
  sub translate rad rad scale 0 0 1 0 180 arc tMatrix setmatrix
  closepath} bdef
/FtbRR {MtbRR stroke } bdef
/PtbRR {MtbRR fill } bdef
/stri 6 array def /dtri 6 array def
/smat 6 array def /dmat 6 array def
/tmat1 6 array def /tmat2 6 array def /dif 3 array def
/asub {/ind2 exch def /ind1 exch def dup dup
  ind1 get exch ind2 get sub exch } bdef
/tri_to_matrix {
  2 0 asub 3 1 asub 4 0 asub 5 1 asub
  dup 0 get exch 1 get 7 -1 roll astore } bdef
/compute_transform {
  dmat dtri tri_to_matrix tmat1 invertmatrix 
  smat stri tri_to_matrix tmat2 concatmatrix } bdef
/ds {stri astore pop} bdef
/dt {dtri astore pop} bdef
/db {2 copy /cols xdef /rows xdef mul dup 3 mul string
  currentfile 
  3 index 0 eq {/ASCIIHexDecode filter}
  {/ASCII85Decode filter 3 index 2 eq {/RunLengthDecode filter} if }
  ifelse exch readstring pop
  dup 0 3 index getinterval /rbmap xdef
  dup 2 index dup getinterval /gbmap xdef
  1 index dup 2 mul exch getinterval /bbmap xdef pop pop}bdef
/it {gs np dtri aload pop moveto lineto lineto cp c
  cols rows 8 compute_transform 
  rbmap gbmap bbmap true 3 colorimage gr}bdef
/il {newpath moveto lineto stroke}bdef
currentdict end def
%%EndProlog

%%BeginSetup
MathWorks begin

0 cap

end
%%EndSetup

%%Page: 1 1
%%BeginPageSetup
%%PageBoundingBox:    18   187   543   615
MathWorks begin
bpage
%%EndPageSetup

%%BeginObject: obj1
bplot

/dpi2point 12 def
portraitMode 0216 7344 csm

    0   -42  6311  5134 rc
86 dict begin %Colortable dictionary
/c0 { 0.000000 0.000000 0.000000 sr} bdef
/c1 { 1.000000 1.000000 1.000000 sr} bdef
/c2 { 0.900000 0.000000 0.000000 sr} bdef
/c3 { 0.000000 0.820000 0.000000 sr} bdef
/c4 { 0.000000 0.000000 0.800000 sr} bdef
/c5 { 0.910000 0.820000 0.320000 sr} bdef
/c6 { 1.000000 0.260000 0.820000 sr} bdef
/c7 { 0.000000 0.820000 0.820000 sr} bdef
c0
1 j
1 sg
   0    0 6919 5187 rf
6 w
0 4227 4721 0 0 -4227 1540 4616 4 MP
PP
-4721 0 0 4227 4721 0 0 -4227 1540 4616 5 MP stroke
4 w
DO
SO
6 w
0 sg
1540  389 mt 6261  389 L
1540 4616 mt 6261 4616 L
6261 4616 mt 6261  389 L
1540 4616 mt 1540  389 L
1540 4616 mt 6261 4616 L
1540 4616 mt 1540  389 L
1922 4616 mt 1922 4568 L
1922  389 mt 1922  436 L
%%IncludeResource: font Helvetica
/Helvetica /WindowsLatin1Encoding 192 FMSR

1704 4828 mt 
(-60) s
2692 4616 mt 2692 4568 L
2692  389 mt 2692  436 L
2474 4828 mt 
(-40) s
3463 4616 mt 3463 4568 L
3463  389 mt 3463  436 L
3245 4828 mt 
(-20) s
4234 4616 mt 4234 4568 L
4234  389 mt 4234  436 L
4181 4828 mt 
(0) s
5004 4616 mt 5004 4568 L
5004  389 mt 5004  436 L
4898 4828 mt 
(20) s
5775 4616 mt 5775 4568 L
5775  389 mt 5775  436 L
5669 4828 mt 
(40) s
1540 4404 mt 1587 4404 L
6261 4404 mt 6213 4404 L
1183 4475 mt 
(orig) s
1540 3981 mt 1587 3981 L
6261 3981 mt 6213 3981 L
 567 4052 mt 
(z-norm \(lr\)) s
1540 3559 mt 1587 3559 L
6261 3559 mt 6213 3559 L
 855 3630 mt 
(z-norm) s
1540 3136 mt 1587 3136 L
6261 3136 mt 6213 3136 L
 140 3207 mt 
(z-norm, gen \(lr\)) s
1540 2713 mt 1587 2713 L
6261 2713 mt 6213 2713 L
 170 2784 mt 
(z-norm [y,p] \(lr\)) s
1540 2291 mt 1587 2291 L
6261 2291 mt 6213 2291 L
   0 2362 mt 
(z-norm [y,y*p] \(lr\)) s
1540 1868 mt 1587 1868 L
6261 1868 mt 6213 1868 L
 898 1939 mt 
(f-norm) s
1540 1445 mt 1587 1445 L
6261 1445 mt 6213 1445 L
 354 1516 mt 
(f-norm v1 \(lr\)) s
1540 1023 mt 1587 1023 L
6261 1023 mt 6213 1023 L
 354 1094 mt 
(f-norm v2 \(lr\)) s
1540  600 mt 1587  600 L
6261  600 mt 6213  600 L
 679  671 mt 
(f-norm-lr) s
1540  389 mt 6261  389 L
1540 4616 mt 6261 4616 L
6261 4616 mt 6261  389 L
1540 4616 mt 1540  389 L
2680 5024 mt 
(relative change of HTER \(%\)) s
3511  224 mt 
(all, ) s
%%IncludeResource: font Symbol
/Symbol /WindowsLatin1Encoding 192 FMSR

3809  224 mt 
(b) s
%%IncludeResource: font Helvetica
/Helvetica /WindowsLatin1Encoding 192 FMSR

3914  224 mt 
(=0.9) s
gs 1540 389 4722 4228 rc
DA
4234 4404 PD
4234 4404 PD
SO
0 -106 4234 4457 2 MP stroke
0 -106 4234 4457 2 MP stroke
/c8 { 0.000000 0.000000 1.000000 sr} bdef
c8
0 -212 4234 4510 2 MP stroke
/c9 { 1.000000 0.000000 0.000000 sr} bdef
c9
0 -212 4234 4510 2 MP stroke
DA
0 sg
71 0 4267 3981 2 MP stroke
826 0 2806 3981 2 MP stroke
SO
0 -105 4338 4034 2 MP stroke
0 -105 2806 4034 2 MP stroke
c8
635 0 0 211 -635 0 0 -211 4267 4087 5 MP stroke
c9
0 -211 4148 4087 2 MP stroke
gr

c9
5253 3981 mt 5325 3981 L
5289 3945 mt 5289 4017 L
2404 3981 mt 2476 3981 L
2440 3945 mt 2440 4017 L
gs 1540 389 4722 4228 rc
DA
0 sg
684 0 4458 3559 2 MP stroke
938 0 2567 3559 2 MP stroke
SO
0 -106 5142 3612 2 MP stroke
0 -106 2567 3612 2 MP stroke
c8
953 0 0 211 -953 0 0 -211 4458 3664 5 MP stroke
c9
0 -211 3974 3664 2 MP stroke
DA
0 sg
12 0 4228 3136 2 MP stroke
139 0 3606 3136 2 MP stroke
SO
0 -106 4240 3189 2 MP stroke
0 -106 3606 3189 2 MP stroke
c8
483 0 0 212 -483 0 0 -212 4228 3242 5 MP stroke
c9
0 -212 4067 3242 2 MP stroke
gr

5695 3136 mt 5767 3136 L
5731 3100 mt 5731 3172 L
2405 3136 mt 2477 3136 L
2441 3100 mt 2441 3172 L
2290 3136 mt 2362 3136 L
2326 3100 mt 2326 3172 L
5990 3136 mt 6062 3136 L
6026 3100 mt 6026 3172 L
gs 1540 389 4722 4228 rc
DA
0 sg
50 0 4222 2713 2 MP stroke
1259 0 2004 2713 2 MP stroke
SO
0 -105 4272 2766 2 MP stroke
0 -105 2004 2766 2 MP stroke
c8
959 0 0 211 -959 0 0 -211 4222 2819 5 MP stroke
c9
0 -211 4104 2819 2 MP stroke
gr

5748 2713 mt 5820 2713 L
5784 2677 mt 5784 2749 L
6010 2713 mt 6082 2713 L
6046 2677 mt 6046 2749 L
gs 1540 389 4722 4228 rc
DA
0 sg
170 0 4148 2291 2 MP stroke
825 0 2318 2291 2 MP stroke
SO
0 -105 4318 2343 2 MP stroke
0 -105 2318 2343 2 MP stroke
c8
1005 0 0 211 -1005 0 0 -211 4148 2396 5 MP stroke
c9
0 -211 4070 2396 2 MP stroke
DA
0 sg
407 0 4220 1868 2 MP stroke
739 0 2648 1868 2 MP stroke
SO
0 -106 4627 1921 2 MP stroke
0 -106 2648 1921 2 MP stroke
c8
833 0 0 212 -833 0 0 -212 4220 1974 5 MP stroke
c9
0 -212 4108 1974 2 MP stroke
DA
0 sg
578 0 4094 1445 2 MP stroke
1141 0 1755 1445 2 MP stroke
SO
0 -106 4672 1498 2 MP stroke
0 -106 1755 1498 2 MP stroke
c8
1198 0 0 211 -1198 0 0 -211 4094 1551 5 MP stroke
c9
0 -211 3972 1551 2 MP stroke
DA
0 sg
833 0 4103 1023 2 MP stroke
1204 0 1754 1023 2 MP stroke
SO
0 -105 4936 1075 2 MP stroke
0 -105 1754 1075 2 MP stroke
c8
1145 0 0 211 -1145 0 0 -211 4103 1128 5 MP stroke
c9
0 -211 4009 1128 2 MP stroke
DA
0 sg
707 0 4338 600 2 MP stroke
731 0 2473 600 2 MP stroke
SO
0 -106 5045 653 2 MP stroke
0 -106 2473 653 2 MP stroke
c8
1134 0 0 212 -1134 0 0 -212 4338 706 5 MP stroke
c9
0 -212 4194 706 2 MP stroke
/c10 { 0.000000 1.000000 0.000000 sr} bdef
c10
0 4228 4234 389 2 MP stroke
gr

c10

end %%Color Dict

eplot
%%EndObject

epage
end

showpage

%%Trailer
%%EOF
