%!PS-Adobe-3.0 EPSF-3.0
%%Creator: MATLAB, The Mathworks, Inc. Version 7.7.0.471 (R2008b). Operating System: Microsoft Windows XP.
%%Title: Pictures\main_zoo_mvar_analysis_data_BMI_xcorr_bmi_p1_k2_5_7.eps
%%CreationDate: 10/26/2009  05:44:31
%%DocumentNeededFonts: Helvetica
%%DocumentProcessColors: Cyan Magenta Yellow Black
%%LanguageLevel: 2
%%Pages: 1
%%BoundingBox:    32   180   546   616
%%EndComments

%%BeginProlog
% MathWorks dictionary
/MathWorks 160 dict begin
% definition operators
/bdef {bind def} bind def
/ldef {load def} bind def
/xdef {exch def} bdef
/xstore {exch store} bdef
% operator abbreviations
/c  /clip ldef
/cc /concat ldef
/cp /closepath ldef
/gr /grestore ldef
/gs /gsave ldef
/mt /moveto ldef
/np /newpath ldef
/cm /currentmatrix ldef
/sm /setmatrix ldef
/rm /rmoveto ldef
/rl /rlineto ldef
/s {show newpath} bdef
/sc {setcmykcolor} bdef
/sr /setrgbcolor ldef
/sg /setgray ldef
/w /setlinewidth ldef
/j /setlinejoin ldef
/cap /setlinecap ldef
/rc {rectclip} bdef
/rf {rectfill} bdef
% page state control
/pgsv () def
/bpage {/pgsv save def} bdef
/epage {pgsv restore} bdef
/bplot /gsave ldef
/eplot {stroke grestore} bdef
% orientation switch
/portraitMode 0 def /landscapeMode 1 def /rotateMode 2 def
% coordinate system mappings
/dpi2point 0 def
% font control
/FontSize 0 def
/FMS {/FontSize xstore findfont [FontSize 0 0 FontSize neg 0 0]
  makefont setfont} bdef
/ISOLatin1Encoding where {pop /WindowsLatin1Encoding 256 array bdef
ISOLatin1Encoding WindowsLatin1Encoding copy pop
/.notdef/.notdef/quotesinglbase/florin/quotedblbase/ellipsis/dagger
/daggerdbl/circumflex/perthousand/Scaron/guilsinglleft/OE/.notdef/.notdef
/.notdef/.notdef/quoteleft/quoteright/quotedblleft/quotedblright/bullet
/endash/emdash/tilde/trademark/scaron/guilsinglright/oe/.notdef/.notdef
/Ydieresis WindowsLatin1Encoding 128 32 getinterval astore pop}
{/WindowsLatin1Encoding StandardEncoding bdef} ifelse
/reencode {exch dup where {pop load} {pop StandardEncoding} ifelse
  exch dup 3 1 roll findfont dup length dict begin
  { 1 index /FID ne {def}{pop pop} ifelse } forall
  /Encoding exch def currentdict end definefont pop} bdef
/isroman {findfont /CharStrings get /Agrave known} bdef
/FMSR {3 1 roll 1 index dup isroman {reencode} {pop pop} ifelse
  exch FMS} bdef
/csm {1 dpi2point div -1 dpi2point div scale neg translate
 dup landscapeMode eq {pop -90 rotate}
  {rotateMode eq {90 rotate} if} ifelse} bdef
% line types: solid, dotted, dashed, dotdash
/SO { [] 0 setdash } bdef
/DO { [.5 dpi2point mul 4 dpi2point mul] 0 setdash } bdef
/DA { [6 dpi2point mul] 0 setdash } bdef
/DD { [.5 dpi2point mul 4 dpi2point mul 6 dpi2point mul 4
  dpi2point mul] 0 setdash } bdef
% macros for lines and objects
/L {lineto stroke} bdef
/MP {3 1 roll moveto 1 sub {rlineto} repeat} bdef
/AP {{rlineto} repeat} bdef
/PDlw -1 def
/W {/PDlw currentlinewidth def setlinewidth} def
/PP {closepath eofill} bdef
/DP {closepath stroke} bdef
/MR {4 -2 roll moveto dup  0 exch rlineto exch 0 rlineto
  neg 0 exch rlineto closepath} bdef
/FR {MR stroke} bdef
/PR {MR fill} bdef
/L1i {{currentfile picstr readhexstring pop} image} bdef
/tMatrix matrix def
/MakeOval {newpath tMatrix currentmatrix pop translate scale
0 0 1 0 360 arc tMatrix setmatrix} bdef
/FO {MakeOval stroke} bdef
/PO {MakeOval fill} bdef
/PD {currentlinewidth 2 div 0 360 arc fill
   PDlw -1 eq not {PDlw w /PDlw -1 def} if} def
/FA {newpath tMatrix currentmatrix pop translate scale
  0 0 1 5 -2 roll arc tMatrix setmatrix stroke} bdef
/PA {newpath tMatrix currentmatrix pop	translate 0 0 moveto scale
  0 0 1 5 -2 roll arc closepath tMatrix setmatrix fill} bdef
/FAn {newpath tMatrix currentmatrix pop translate scale
  0 0 1 5 -2 roll arcn tMatrix setmatrix stroke} bdef
/PAn {newpath tMatrix currentmatrix pop translate 0 0 moveto scale
  0 0 1 5 -2 roll arcn closepath tMatrix setmatrix fill} bdef
/vradius 0 def /hradius 0 def /lry 0 def
/lrx 0 def /uly 0 def /ulx 0 def /rad 0 def
/MRR {/vradius xdef /hradius xdef /lry xdef /lrx xdef /uly xdef
  /ulx xdef newpath tMatrix currentmatrix pop ulx hradius add uly
  vradius add translate hradius vradius scale 0 0 1 180 270 arc 
  tMatrix setmatrix lrx hradius sub uly vradius add translate
  hradius vradius scale 0 0 1 270 360 arc tMatrix setmatrix
  lrx hradius sub lry vradius sub translate hradius vradius scale
  0 0 1 0 90 arc tMatrix setmatrix ulx hradius add lry vradius sub
  translate hradius vradius scale 0 0 1 90 180 arc tMatrix setmatrix
  closepath} bdef
/FRR {MRR stroke } bdef
/PRR {MRR fill } bdef
/MlrRR {/lry xdef /lrx xdef /uly xdef /ulx xdef /rad lry uly sub 2 div def
  newpath tMatrix currentmatrix pop ulx rad add uly rad add translate
  rad rad scale 0 0 1 90 270 arc tMatrix setmatrix lrx rad sub lry rad
  sub translate rad rad scale 0 0 1 270 90 arc tMatrix setmatrix
  closepath} bdef
/FlrRR {MlrRR stroke } bdef
/PlrRR {MlrRR fill } bdef
/MtbRR {/lry xdef /lrx xdef /uly xdef /ulx xdef /rad lrx ulx sub 2 div def
  newpath tMatrix currentmatrix pop ulx rad add uly rad add translate
  rad rad scale 0 0 1 180 360 arc tMatrix setmatrix lrx rad sub lry rad
  sub translate rad rad scale 0 0 1 0 180 arc tMatrix setmatrix
  closepath} bdef
/FtbRR {MtbRR stroke } bdef
/PtbRR {MtbRR fill } bdef
/stri 6 array def /dtri 6 array def
/smat 6 array def /dmat 6 array def
/tmat1 6 array def /tmat2 6 array def /dif 3 array def
/asub {/ind2 exch def /ind1 exch def dup dup
  ind1 get exch ind2 get sub exch } bdef
/tri_to_matrix {
  2 0 asub 3 1 asub 4 0 asub 5 1 asub
  dup 0 get exch 1 get 7 -1 roll astore } bdef
/compute_transform {
  dmat dtri tri_to_matrix tmat1 invertmatrix 
  smat stri tri_to_matrix tmat2 concatmatrix } bdef
/ds {stri astore pop} bdef
/dt {dtri astore pop} bdef
/db {2 copy /cols xdef /rows xdef mul dup 3 mul string
  currentfile 
  3 index 0 eq {/ASCIIHexDecode filter}
  {/ASCII85Decode filter 3 index 2 eq {/RunLengthDecode filter} if }
  ifelse exch readstring pop
  dup 0 3 index getinterval /rbmap xdef
  dup 2 index dup getinterval /gbmap xdef
  1 index dup 2 mul exch getinterval /bbmap xdef pop pop}bdef
/it {gs np dtri aload pop moveto lineto lineto cp c
  cols rows 8 compute_transform 
  rbmap gbmap bbmap true 3 colorimage gr}bdef
/il {newpath moveto lineto stroke}bdef
currentdict end def
%%EndProlog

%%BeginSetup
MathWorks begin

0 cap

end
%%EndSetup

%%Page: 1 1
%%BeginPageSetup
%%PageBoundingBox:    32   180   546   616
MathWorks begin
bpage
%%EndPageSetup

%%BeginObject: obj1
bplot

/dpi2point 12 def
portraitMode 0216 7344 csm

  174   -48  6173  5231 rc
85 dict begin %Colortable dictionary
/c0 { 0.000000 0.000000 0.000000 sr} bdef
/c1 { 1.000000 1.000000 1.000000 sr} bdef
/c2 { 0.900000 0.000000 0.000000 sr} bdef
/c3 { 0.000000 0.820000 0.000000 sr} bdef
/c4 { 0.000000 0.000000 0.800000 sr} bdef
/c5 { 0.910000 0.820000 0.320000 sr} bdef
/c6 { 1.000000 0.260000 0.820000 sr} bdef
/c7 { 0.000000 0.820000 0.820000 sr} bdef
c0
1 j
1 sg
   0    0 6919 5187 rf
6 w
0 4201 5362 0 0 -4201 899 4616 4 MP
PP
-5362 0 0 4201 5362 0 0 -4201 899 4616 5 MP stroke
4 w
DO
SO
6 w
0 sg
 899  415 mt 6261  415 L
 899 4616 mt 6261 4616 L
6261 4616 mt 6261  415 L
 899 4616 mt  899  415 L
 899 4616 mt 6261 4616 L
 899 4616 mt  899  415 L
1971 4616 mt 1971 4562 L
1971  415 mt 1971  468 L
%%IncludeResource: font Helvetica
/Helvetica /WindowsLatin1Encoding 240 FMSR

1805 4873 mt 
(0.2) s
3043 4616 mt 3043 4562 L
3043  415 mt 3043  468 L
2877 4873 mt 
(0.4) s
4116 4616 mt 4116 4562 L
4116  415 mt 4116  468 L
3950 4873 mt 
(0.6) s
5188 4616 mt 5188 4562 L
5188  415 mt 5188  468 L
5022 4873 mt 
(0.8) s
 899 4196 mt  952 4196 L
6261 4196 mt 6207 4196 L
 531 4285 mt 
(0.1) s
 899 3776 mt  952 3776 L
6261 3776 mt 6207 3776 L
 531 3865 mt 
(0.2) s
 899 3356 mt  952 3356 L
6261 3356 mt 6207 3356 L
 531 3445 mt 
(0.3) s
 899 2935 mt  952 2935 L
6261 2935 mt 6207 2935 L
 531 3024 mt 
(0.4) s
 899 2515 mt  952 2515 L
6261 2515 mt 6207 2515 L
 531 2604 mt 
(0.5) s
 899 2095 mt  952 2095 L
6261 2095 mt 6207 2095 L
 531 2184 mt 
(0.6) s
 899 1675 mt  952 1675 L
6261 1675 mt 6207 1675 L
 531 1764 mt 
(0.7) s
 899 1255 mt  952 1255 L
6261 1255 mt 6207 1255 L
 531 1344 mt 
(0.8) s
 899  835 mt  952  835 L
6261  835 mt 6207  835 L
 531  924 mt 
(0.9) s
 899  415 mt 6261  415 L
 899 4616 mt 6261 4616 L
6261 4616 mt 6261  415 L
 899 4616 mt  899  415 L
gs 899 414 5363 4203 rc
gr

/c8 { 0.000000 0.000000 1.000000 sr} bdef
c8
5516  505 mt 5588  505 L
5552  469 mt 5552  541 L
4175 1018 mt 4247 1018 L
4211  982 mt 4211 1054 L
5908 3370 mt 5980 3370 L
5944 3334 mt 5944 3406 L
4558  725 mt 4630  725 L
4594  689 mt 4594  761 L
4872  512 mt 4944  512 L
4908  476 mt 4908  548 L
6093 1672 mt 6165 1672 L
6129 1636 mt 6129 1708 L
1262  602 mt 1334  602 L
1298  566 mt 1298  638 L
1855 2010 mt 1927 2010 L
1891 1974 mt 1891 2046 L
1315  616 mt 1387  616 L
1351  580 mt 1351  652 L
6218 1244 mt 6290 1244 L
6254 1208 mt 6254 1280 L
1008 1113 mt 1080 1113 L
1044 1077 mt 1044 1149 L
5320 2644 mt 5392 2644 L
5356 2608 mt 5356 2680 L
6172  634 mt 6244  634 L
6208  598 mt 6208  670 L
5163 1173 mt 5235 1173 L
5199 1137 mt 5199 1209 L
6216  623 mt 6288  623 L
6252  587 mt 6252  659 L
2774  821 mt 2846  821 L
2810  785 mt 2810  857 L
3773 2877 mt 3845 2877 L
3809 2841 mt 3809 2913 L
4689 4591 mt 4761 4591 L
4725 4555 mt 4725 4627 L
3774  905 mt 3846  905 L
3810  869 mt 3810  941 L
4101 1649 mt 4173 1649 L
4137 1613 mt 4137 1685 L
4849  914 mt 4921  914 L
4885  878 mt 4885  950 L
5381 4587 mt 5453 4587 L
5417 4551 mt 5417 4623 L
1840  537 mt 1912  537 L
1876  501 mt 1876  573 L
5103 1154 mt 5175 1154 L
5139 1118 mt 5139 1190 L
6220  811 mt 6292  811 L
6256  775 mt 6256  847 L
6089 1450 mt 6161 1450 L
6125 1414 mt 6125 1486 L
4432 1574 mt 4504 1574 L
4468 1538 mt 4468 1610 L
6180  912 mt 6252  912 L
6216  876 mt 6216  948 L
1396  555 mt 1468  555 L
1432  519 mt 1432  591 L
1533  934 mt 1605  934 L
1569  898 mt 1569  970 L
5072 1947 mt 5144 1947 L
5108 1911 mt 5108 1983 L
1230  870 mt 1302  870 L
1266  834 mt 1266  906 L
1073 2130 mt 1145 2130 L
1109 2094 mt 1109 2166 L
4145 2523 mt 4217 2523 L
4181 2487 mt 4181 2559 L
5840  522 mt 5912  522 L
5876  486 mt 5876  558 L
1996 2520 mt 2068 2520 L
2032 2484 mt 2032 2556 L
1655 1740 mt 1727 1740 L
1691 1704 mt 1691 1776 L
4295  649 mt 4367  649 L
4331  613 mt 4331  685 L
5967  452 mt 6039  452 L
6003  416 mt 6003  488 L
1807  582 mt 1879  582 L
1843  546 mt 1843  618 L
6070 2743 mt 6142 2743 L
6106 2707 mt 6106 2779 L
6197  444 mt 6269  444 L
6233  408 mt 6233  480 L
6084 1101 mt 6156 1101 L
6120 1065 mt 6120 1137 L
4209 4196 mt 4281 4196 L
4245 4160 mt 4245 4232 L
5262 3339 mt 5334 3339 L
5298 3303 mt 5298 3375 L
5866 1223 mt 5938 1223 L
5902 1187 mt 5902 1259 L
2112  557 mt 2184  557 L
2148  521 mt 2148  593 L
4042 1557 mt 4114 1557 L
4078 1521 mt 4078 1593 L
5291 3405 mt 5363 3405 L
5327 3369 mt 5327 3441 L
6174 1862 mt 6246 1862 L
6210 1826 mt 6210 1898 L
3505 1030 mt 3577 1030 L
3541  994 mt 3541 1066 L
2232 1147 mt 2304 1147 L
2268 1111 mt 2268 1183 L
4995 2599 mt 5067 2599 L
5031 2563 mt 5031 2635 L
3098 1900 mt 3170 1900 L
3134 1864 mt 3134 1936 L
2754 1916 mt 2826 1916 L
2790 1880 mt 2790 1952 L
4457 3146 mt 4529 3146 L
4493 3110 mt 4493 3182 L
1225 1272 mt 1297 1272 L
1261 1236 mt 1261 1308 L
6199 2050 mt 6271 2050 L
6235 2014 mt 6235 2086 L
 863  617 mt  935  617 L
 899  581 mt  899  653 L
6175 1123 mt 6247 1123 L
6211 1087 mt 6211 1159 L
4688 4353 mt 4760 4353 L
4724 4317 mt 4724 4389 L
 924  881 mt  996  881 L
 960  845 mt  960  917 L
5711 4469 mt 5783 4469 L
5747 4433 mt 5747 4505 L
3843  565 mt 3915  565 L
3879  529 mt 3879  601 L
1217 2246 mt 1289 2246 L
1253 2210 mt 1253 2282 L
6170 1917 mt 6242 1917 L
6206 1881 mt 6206 1953 L
3913  989 mt 3985  989 L
3949  953 mt 3949 1025 L
5374  841 mt 5446  841 L
5410  805 mt 5410  877 L
1539  580 mt 1611  580 L
1575  544 mt 1575  616 L
2880  428 mt 2952  428 L
2916  392 mt 2916  464 L
4897  600 mt 4969  600 L
4933  564 mt 4933  636 L
6193 3031 mt 6265 3031 L
6229 2995 mt 6229 3067 L
1081 1815 mt 1153 1815 L
1117 1779 mt 1117 1851 L
2559  445 mt 2631  445 L
2595  409 mt 2595  481 L
1009 1145 mt 1081 1145 L
1045 1109 mt 1045 1181 L
1589 4612 mt 1661 4612 L
1625 4576 mt 1625 4648 L
3667 3920 mt 3739 3920 L
3703 3884 mt 3703 3956 L
5768  449 mt 5840  449 L
5804  413 mt 5804  485 L
6113  714 mt 6185  714 L
6149  678 mt 6149  750 L
 863  697 mt  935  697 L
 899  661 mt  899  733 L
 872  561 mt  944  561 L
 908  525 mt  908  597 L
2634 4497 mt 2706 4497 L
2670 4461 mt 2670 4533 L
2737 2161 mt 2809 2161 L
2773 2125 mt 2773 2197 L
5338  425 mt 5410  425 L
5374  389 mt 5374  461 L
3868  626 mt 3940  626 L
3904  590 mt 3904  662 L
1754 4511 mt 1826 4511 L
1790 4475 mt 1790 4547 L
4336  466 mt 4408  466 L
4372  430 mt 4372  502 L
6071 1969 mt 6143 1969 L
6107 1933 mt 6107 2005 L
5725 4399 mt 5797 4399 L
5761 4363 mt 5761 4435 L
6075  430 mt 6147  430 L
6111  394 mt 6111  466 L
 911  477 mt  983  477 L
 947  441 mt  947  513 L
6076  573 mt 6148  573 L
6112  537 mt 6112  609 L
2058  823 mt 2130  823 L
2094  787 mt 2094  859 L
2290 1669 mt 2362 1669 L
2326 1633 mt 2326 1705 L
1613 2450 mt 1685 2450 L
1649 2414 mt 1649 2486 L
6209 1763 mt 6281 1763 L
6245 1727 mt 6245 1799 L
4512 1527 mt 4584 1527 L
4548 1491 mt 4548 1563 L
 869  508 mt  941  508 L
 905  472 mt  905  544 L
1153 4596 mt 1225 4596 L
1189 4560 mt 1189 4632 L
6107  479 mt 6179  479 L
6143  443 mt 6143  515 L
6187  757 mt 6259  757 L
6223  721 mt 6223  793 L
6204 1547 mt 6276 1547 L
6240 1511 mt 6240 1583 L
3841 4360 mt 3913 4360 L
3877 4324 mt 3877 4396 L
1126 4612 mt 1198 4612 L
1162 4576 mt 1162 4648 L
2730 2533 mt 2802 2533 L
2766 2497 mt 2766 2569 L
6164  589 mt 6236  589 L
6200  553 mt 6200  625 L
5903  588 mt 5975  588 L
5939  552 mt 5939  624 L
6153  820 mt 6225  820 L
6189  784 mt 6189  856 L
2966 2269 mt 3038 2269 L
3002 2233 mt 3002 2305 L
5485 1448 mt 5557 1448 L
5521 1412 mt 5521 1484 L
6153 3726 mt 6225 3726 L
6189 3690 mt 6189 3762 L
5713 2309 mt 5785 2309 L
5749 2273 mt 5749 2345 L
1535 4287 mt 1607 4287 L
1571 4251 mt 1571 4323 L
4873  607 mt 4945  607 L
4909  571 mt 4909  643 L
1703 4482 mt 1775 4482 L
1739 4446 mt 1739 4518 L
3549 3412 mt 3621 3412 L
3585 3376 mt 3585 3448 L
5931  491 mt 6003  491 L
5967  455 mt 5967  527 L
6191 1074 mt 6263 1074 L
6227 1038 mt 6227 1110 L
3066 2671 mt 3138 2671 L
3102 2635 mt 3102 2707 L
1188 1194 mt 1260 1194 L
1224 1158 mt 1224 1230 L
5208  995 mt 5280  995 L
5244  959 mt 5244 1031 L
4477 1048 mt 4549 1048 L
4513 1012 mt 4513 1084 L
2954  794 mt 3026  794 L
2990  758 mt 2990  830 L
4238  704 mt 4310  704 L
4274  668 mt 4274  740 L
1608 4374 mt 1680 4374 L
1644 4338 mt 1644 4410 L
6220 1395 mt 6292 1395 L
6256 1359 mt 6256 1431 L
1599 1343 mt 1671 1343 L
1635 1307 mt 1635 1379 L
4584 2222 mt 4656 2222 L
4620 2186 mt 4620 2258 L
6052  821 mt 6124  821 L
6088  785 mt 6088  857 L
1175 4545 mt 1247 4545 L
1211 4509 mt 1211 4581 L
6181  853 mt 6253  853 L
6217  817 mt 6217  889 L
5459 3752 mt 5531 3752 L
5495 3716 mt 5495 3788 L
6140 1939 mt 6212 1939 L
6176 1903 mt 6176 1975 L
4926 3538 mt 4998 3538 L
4962 3502 mt 4962 3574 L
2082 1511 mt 2154 1511 L
2118 1475 mt 2118 1547 L
5431 4548 mt 5503 4548 L
5467 4512 mt 5467 4584 L
1096 4505 mt 1168 4505 L
1132 4469 mt 1132 4541 L
6156 1040 mt 6228 1040 L
6192 1004 mt 6192 1076 L
2823 2520 mt 2895 2520 L
2859 2484 mt 2859 2556 L
2565  722 mt 2637  722 L
2601  686 mt 2601  758 L
1751 1099 mt 1823 1099 L
1787 1063 mt 1787 1135 L
5876  499 mt 5948  499 L
5912  463 mt 5912  535 L
4958 1318 mt 5030 1318 L
4994 1282 mt 4994 1354 L
4428  934 mt 4500  934 L
4464  898 mt 4464  970 L
3016  526 mt 3088  526 L
3052  490 mt 3052  562 L
6213 1707 mt 6285 1707 L
6249 1671 mt 6249 1743 L
4001 2327 mt 4073 2327 L
4037 2291 mt 4037 2363 L
1186  467 mt 1258  467 L
1222  431 mt 1222  503 L
3735  573 mt 3807  573 L
3771  537 mt 3771  609 L
3569  484 mt 3641  484 L
3605  448 mt 3605  520 L
1882  853 mt 1954  853 L
1918  817 mt 1918  889 L
2070 4406 mt 2142 4406 L
2106 4370 mt 2106 4442 L
 900  682 mt  972  682 L
 936  646 mt  936  718 L
 993 1706 mt 1065 1706 L
1029 1670 mt 1029 1742 L
3816  685 mt 3888  685 L
3852  649 mt 3852  721 L
3593  545 mt 3665  545 L
3629  509 mt 3629  581 L
4830 4470 mt 4902 4470 L
4866 4434 mt 4866 4506 L
2698 3397 mt 2770 3397 L
2734 3361 mt 2734 3433 L
6065 2131 mt 6137 2131 L
6101 2095 mt 6101 2167 L
6074 2216 mt 6146 2216 L
6110 2180 mt 6110 2252 L
5933 3241 mt 6005 3241 L
5969 3205 mt 5969 3277 L
 874 4574 mt  946 4574 L
 910 4538 mt  910 4610 L
1146 1148 mt 1218 1148 L
1182 1112 mt 1182 1184 L
1927 2209 mt 1999 2209 L
1963 2173 mt 1963 2245 L
1257  529 mt 1329  529 L
1293  493 mt 1293  565 L
1931  833 mt 2003  833 L
1967  797 mt 1967  869 L
3763 3831 mt 3835 3831 L
3799 3795 mt 3799 3867 L
6204 1578 mt 6276 1578 L
6240 1542 mt 6240 1614 L
5415  417 mt 5487  417 L
5451  381 mt 5451  453 L
6025  594 mt 6097  594 L
6061  558 mt 6061  630 L
4271  586 mt 4343  586 L
4307  550 mt 4307  622 L
 888  519 mt  960  519 L
 924  483 mt  924  555 L
5801  873 mt 5873  873 L
5837  837 mt 5837  909 L
1672  901 mt 1744  901 L
1708  865 mt 1708  937 L
1276 2590 mt 1348 2590 L
1312 2554 mt 1312 2626 L
5915 1206 mt 5987 1206 L
5951 1170 mt 5951 1242 L
5862  862 mt 5934  862 L
5898  826 mt 5898  898 L
1638 2400 mt 1710 2400 L
1674 2364 mt 1674 2436 L
 868  983 mt  940  983 L
 904  947 mt  904 1019 L
5248  502 mt 5320  502 L
5284  466 mt 5284  538 L
6138 2213 mt 6210 2213 L
6174 2177 mt 6174 2249 L
4701 3867 mt 4773 3867 L
4737 3831 mt 4737 3903 L
2540  751 mt 2612  751 L
2576  715 mt 2576  787 L
1005 3470 mt 1077 3470 L
1041 3434 mt 1041 3506 L
4496  739 mt 4568  739 L
4532  703 mt 4532  775 L
1908 3133 mt 1980 3133 L
1944 3097 mt 1944 3169 L
4940 1376 mt 5012 1376 L
4976 1340 mt 4976 1412 L
4223 2412 mt 4295 2412 L
4259 2376 mt 4259 2448 L
5561  525 mt 5633  525 L
5597  489 mt 5597  561 L
5638 3509 mt 5710 3509 L
5674 3473 mt 5674 3545 L
2118 4496 mt 2190 4496 L
2154 4460 mt 2154 4532 L
1004 3659 mt 1076 3659 L
1040 3623 mt 1040 3695 L
6195  524 mt 6267  524 L
6231  488 mt 6231  560 L
6222  779 mt 6294  779 L
6258  743 mt 6258  815 L
5569  486 mt 5641  486 L
5605  450 mt 5605  522 L
5900  496 mt 5972  496 L
5936  460 mt 5936  532 L
1802 1877 mt 1874 1877 L
1838 1841 mt 1838 1913 L
2353  493 mt 2425  493 L
2389  457 mt 2389  529 L
2353 1497 mt 2425 1497 L
2389 1461 mt 2389 1533 L
6217 2298 mt 6289 2298 L
6253 2262 mt 6253 2334 L
6208  553 mt 6280  553 L
6244  517 mt 6244  589 L
6175  490 mt 6247  490 L
6211  454 mt 6211  526 L
5979  830 mt 6051  830 L
6015  794 mt 6015  866 L
5210 2577 mt 5282 2577 L
5246 2541 mt 5246 2613 L
5284  569 mt 5356  569 L
5320  533 mt 5320  605 L
6140 2088 mt 6212 2088 L
6176 2052 mt 6176 2124 L
6211 2370 mt 6283 2370 L
6247 2334 mt 6247 2406 L
5294 4166 mt 5366 4166 L
5330 4130 mt 5330 4202 L
6217  415 mt 6289  415 L
6253  379 mt 6253  451 L
2034 4425 mt 2106 4425 L
2070 4389 mt 2070 4461 L
1391  459 mt 1463  459 L
1427  423 mt 1427  495 L
6209 1972 mt 6281 1972 L
6245 1936 mt 6245 2008 L
4599  523 mt 4671  523 L
4635  487 mt 4635  559 L
6215 1621 mt 6287 1621 L
6251 1585 mt 6251 1657 L
6105  489 mt 6177  489 L
6141  453 mt 6141  525 L
3874 4014 mt 3946 4014 L
3910 3978 mt 3910 4050 L
6090  420 mt 6162  420 L
6126  384 mt 6126  456 L
5632 3624 mt 5704 3624 L
5668 3588 mt 5668 3660 L
6222 4610 mt 6294 4610 L
6258 4574 mt 6258 4646 L
5533 2221 mt 5605 2221 L
5569 2185 mt 5569 2257 L
1046 2614 mt 1118 2614 L
1082 2578 mt 1082 2650 L
2194  624 mt 2266  624 L
2230  588 mt 2230  660 L
6154 1481 mt 6226 1481 L
6190 1445 mt 6190 1517 L
6213 4582 mt 6285 4582 L
6249 4546 mt 6249 4618 L
6218 2961 mt 6290 2961 L
6254 2925 mt 6254 2997 L
4855 1057 mt 4927 1057 L
4891 1021 mt 4891 1093 L
2057  808 mt 2129  808 L
2093  772 mt 2093  844 L
2039  745 mt 2111  745 L
2075  709 mt 2075  781 L
6111  956 mt 6183  956 L
6147  920 mt 6147  992 L
1533 1974 mt 1605 1974 L
1569 1938 mt 1569 2010 L
 863 4607 mt  935 4607 L
 899 4571 mt  899 4643 L
6192 2704 mt 6264 2704 L
6228 2668 mt 6228 2740 L
6218 2890 mt 6290 2890 L
6254 2854 mt 6254 2926 L
 955 1224 mt 1027 1224 L
 991 1188 mt  991 1260 L
3123  417 mt 3195  417 L
3159  381 mt 3159  453 L
6224 1388 mt 6296 1388 L
6260 1352 mt 6260 1424 L
6224 3804 mt 6296 3804 L
6260 3768 mt 6260 3840 L
4736 2914 mt 4808 2914 L
4772 2878 mt 4772 2950 L
3188  612 mt 3260  612 L
3224  576 mt 3224  648 L
3467  728 mt 3539  728 L
3503  692 mt 3503  764 L
5550 3562 mt 5622 3562 L
5586 3526 mt 5586 3598 L
6210 2230 mt 6282 2230 L
6246 2194 mt 6246 2266 L
6192  952 mt 6264  952 L
6228  916 mt 6228  988 L
6149  427 mt 6221  427 L
6185  391 mt 6185  463 L
6111 4613 mt 6183 4613 L
6147 4577 mt 6147 4649 L
6173  852 mt 6245  852 L
6209  816 mt 6209  888 L
3368 1816 mt 3440 1816 L
3404 1780 mt 3404 1852 L
1089  615 mt 1161  615 L
1125  579 mt 1125  651 L
2683  416 mt 2755  416 L
2719  380 mt 2719  452 L
1294 4139 mt 1366 4139 L
1330 4103 mt 1330 4175 L
5862 4576 mt 5934 4576 L
5898 4540 mt 5898 4612 L
1948  875 mt 2020  875 L
1984  839 mt 1984  911 L
4785 1157 mt 4857 1157 L
4821 1121 mt 4821 1193 L
6192 2624 mt 6264 2624 L
6228 2588 mt 6228 2660 L
1950 1907 mt 2022 1907 L
1986 1871 mt 1986 1943 L
3397 4571 mt 3469 4571 L
3433 4535 mt 3433 4607 L
6185  572 mt 6257  572 L
6221  536 mt 6221  608 L
6144 3227 mt 6216 3227 L
6180 3191 mt 6180 3263 L
6216  734 mt 6288  734 L
6252  698 mt 6252  770 L
5808 1272 mt 5880 1272 L
5844 1236 mt 5844 1308 L
5620 3991 mt 5692 3991 L
5656 3955 mt 5656 4027 L
6053  679 mt 6125  679 L
6089  643 mt 6089  715 L
 881 1268 mt  953 1268 L
 917 1232 mt  917 1304 L
 899 4151 mt  971 4151 L
 935 4115 mt  935 4187 L
6189  490 mt 6261  490 L
6225  454 mt 6225  526 L
6158 4050 mt 6230 4050 L
6194 4014 mt 6194 4086 L
3727 4041 mt 3799 4041 L
3763 4005 mt 3763 4077 L
2725  612 mt 2797  612 L
2761  576 mt 2761  648 L
1479  449 mt 1551  449 L
1515  413 mt 1515  485 L
5602 1947 mt 5674 1947 L
5638 1911 mt 5638 1983 L
6220  525 mt 6292  525 L
6256  489 mt 6256  561 L
5995 4401 mt 6067 4401 L
6031 4365 mt 6031 4437 L
6122 4223 mt 6194 4223 L
6158 4187 mt 6158 4259 L
2395  476 mt 2467  476 L
2431  440 mt 2431  512 L
5082 1576 mt 5154 1576 L
5118 1540 mt 5118 1612 L
6181 4616 mt 6253 4616 L
6217 4580 mt 6217 4652 L
6183 2211 mt 6255 2211 L
6219 2175 mt 6219 2247 L
2456  670 mt 2528  670 L
2492  634 mt 2492  706 L
6067 1461 mt 6139 1461 L
6103 1425 mt 6103 1497 L
6107  427 mt 6179  427 L
6143  391 mt 6143  463 L
6191 2339 mt 6263 2339 L
6227 2303 mt 6227 2375 L
1236 2084 mt 1308 2084 L
1272 2048 mt 1272 2120 L
4184 3576 mt 4256 3576 L
4220 3540 mt 4220 3612 L
6002 1091 mt 6074 1091 L
6038 1055 mt 6038 1127 L
1107 1645 mt 1179 1645 L
1143 1609 mt 1143 1681 L
6050  481 mt 6122  481 L
6086  445 mt 6086  517 L
6094  458 mt 6166  458 L
6130  422 mt 6130  494 L
5872 2015 mt 5944 2015 L
5908 1979 mt 5908 2051 L
1739 4194 mt 1811 4194 L
1775 4158 mt 1775 4230 L
6139 1798 mt 6211 1798 L
6175 1762 mt 6175 1834 L
6041 1381 mt 6113 1381 L
6077 1345 mt 6077 1417 L
5932  604 mt 6004  604 L
5968  568 mt 5968  640 L
6149 1114 mt 6221 1114 L
6185 1078 mt 6185 1150 L
1278 4110 mt 1350 4110 L
1314 4074 mt 1314 4146 L
5448  941 mt 5520  941 L
5484  905 mt 5484  977 L
6225 3972 mt 6297 3972 L
6261 3936 mt 6261 4008 L
5801 4471 mt 5873 4471 L
5837 4435 mt 5837 4507 L
2328  415 mt 2400  415 L
2364  379 mt 2364  451 L
4701 4556 mt 4773 4556 L
4737 4520 mt 4737 4592 L
6188  752 mt 6260  752 L
6224  716 mt 6224  788 L
6224  927 mt 6296  927 L
6260  891 mt 6260  963 L
2961 4006 mt 3033 4006 L
2997 3970 mt 2997 4042 L
6223 2446 mt 6295 2446 L
6259 2410 mt 6259 2482 L
1782 4299 mt 1854 4299 L
1818 4263 mt 1818 4335 L
2408 1758 mt 2480 1758 L
2444 1722 mt 2444 1794 L
6224 3036 mt 6296 3036 L
6260 3000 mt 6260 3072 L
6213  719 mt 6285  719 L
6249  683 mt 6249  755 L
1909 1404 mt 1981 1404 L
1945 1368 mt 1945 1440 L
1710 4014 mt 1782 4014 L
1746 3978 mt 1746 4050 L
6122 3176 mt 6194 3176 L
6158 3140 mt 6158 3212 L
2466  668 mt 2538  668 L
2502  632 mt 2502  704 L
5985 4567 mt 6057 4567 L
6021 4531 mt 6021 4603 L
6159 4092 mt 6231 4092 L
6195 4056 mt 6195 4128 L
2035 2164 mt 2107 2164 L
2071 2128 mt 2071 2200 L
6178 3387 mt 6250 3387 L
6214 3351 mt 6214 3423 L
4542 2803 mt 4614 2803 L
4578 2767 mt 4578 2839 L
6222 1346 mt 6294 1346 L
6258 1310 mt 6258 1382 L
5756 1945 mt 5828 1945 L
5792 1909 mt 5792 1981 L
3660 1718 mt 3732 1718 L
3696 1682 mt 3696 1754 L
3035  415 mt 3107  415 L
3071  379 mt 3071  451 L
6220 1226 mt 6292 1226 L
6256 1190 mt 6256 1262 L
3001 2617 mt 3073 2617 L
3037 2581 mt 3037 2653 L
2969 1299 mt 3041 1299 L
3005 1263 mt 3005 1335 L
6211 1280 mt 6283 1280 L
6247 1244 mt 6247 1316 L
6220  506 mt 6292  506 L
6256  470 mt 6256  542 L
6180 1559 mt 6252 1559 L
6216 1523 mt 6216 1595 L
1445 4615 mt 1517 4615 L
1481 4579 mt 1481 4651 L
3912 3669 mt 3984 3669 L
3948 3633 mt 3948 3705 L
5721 4491 mt 5793 4491 L
5757 4455 mt 5757 4527 L
 904 1124 mt  976 1124 L
 940 1088 mt  940 1160 L
6202  603 mt 6274  603 L
6238  567 mt 6238  639 L
2482 4130 mt 2554 4130 L
2518 4094 mt 2518 4166 L
6194 1557 mt 6266 1557 L
6230 1521 mt 6230 1593 L
2831 3198 mt 2903 3198 L
2867 3162 mt 2867 3234 L
5875 1553 mt 5947 1553 L
5911 1517 mt 5911 1589 L
5911 3641 mt 5983 3641 L
5947 3605 mt 5947 3677 L
3160 1686 mt 3232 1686 L
3196 1650 mt 3196 1722 L
6120  461 mt 6192  461 L
6156  425 mt 6156  497 L
6150 3424 mt 6222 3424 L
6186 3388 mt 6186 3460 L
6211 1226 mt 6283 1226 L
6247 1190 mt 6247 1262 L
 880  441 mt  952  441 L
 916  405 mt  916  477 L
6222  677 mt 6294  677 L
6258  641 mt 6258  713 L
6209 4042 mt 6281 4042 L
6245 4006 mt 6245 4078 L
1296  769 mt 1368  769 L
1332  733 mt 1332  805 L
5700  508 mt 5772  508 L
5736  472 mt 5736  544 L
1022 2717 mt 1094 2717 L
1058 2681 mt 1058 2753 L
1570 4547 mt 1642 4547 L
1606 4511 mt 1606 4583 L
2213 3213 mt 2285 3213 L
2249 3177 mt 2249 3249 L
1698  764 mt 1770  764 L
1734  728 mt 1734  800 L
 904 4602 mt  976 4602 L
 940 4566 mt  940 4638 L
1302  955 mt 1374  955 L
1338  919 mt 1338  991 L
3345 4159 mt 3417 4159 L
3381 4123 mt 3381 4195 L
1074 3383 mt 1146 3383 L
1110 3347 mt 1110 3419 L
6221 2064 mt 6293 2064 L
6257 2028 mt 6257 2100 L
2381  499 mt 2453  499 L
2417  463 mt 2417  535 L
6187  432 mt 6259  432 L
6223  396 mt 6223  468 L
6220 3973 mt 6292 3973 L
6256 3937 mt 6256 4009 L
5913 4184 mt 5985 4184 L
5949 4148 mt 5949 4220 L
3798 2610 mt 3870 2610 L
3834 2574 mt 3834 2646 L
4236 2315 mt 4308 2315 L
4272 2279 mt 4272 2351 L
5190 4611 mt 5262 4611 L
5226 4575 mt 5226 4647 L
5236 1096 mt 5308 1096 L
5272 1060 mt 5272 1132 L
5165  415 mt 5237  415 L
5201  379 mt 5201  451 L
4526 2438 mt 4598 2438 L
4562 2402 mt 4562 2474 L
1053 2923 mt 1125 2923 L
1089 2887 mt 1089 2959 L
3721 3293 mt 3793 3293 L
3757 3257 mt 3757 3329 L
4543 3887 mt 4615 3887 L
4579 3851 mt 4579 3923 L
1401 4564 mt 1473 4564 L
1437 4528 mt 1437 4600 L
6222 4589 mt 6294 4589 L
6258 4553 mt 6258 4625 L
6129  834 mt 6201  834 L
6165  798 mt 6165  870 L
5980 4277 mt 6052 4277 L
6016 4241 mt 6016 4313 L
6204 2406 mt 6276 2406 L
6240 2370 mt 6240 2442 L
5869 1791 mt 5941 1791 L
5905 1755 mt 5905 1827 L
6120 3042 mt 6192 3042 L
6156 3006 mt 6156 3078 L
4980 4125 mt 5052 4125 L
5016 4089 mt 5016 4161 L
1128  841 mt 1200  841 L
1164  805 mt 1164  877 L
 865 2419 mt  937 2419 L
 901 2383 mt  901 2455 L
6160 3332 mt 6232 3332 L
6196 3296 mt 6196 3368 L
2529 2162 mt 2601 2162 L
2565 2126 mt 2565 2198 L
4555 3940 mt 4627 3940 L
4591 3904 mt 4591 3976 L
6220 4550 mt 6292 4550 L
6256 4514 mt 6256 4586 L
 867  795 mt  939  795 L
 903  759 mt  903  831 L
6207  780 mt 6279  780 L
6243  744 mt 6243  816 L
6187  737 mt 6259  737 L
6223  701 mt 6223  773 L
1119 1208 mt 1191 1208 L
1155 1172 mt 1155 1244 L
6170 3775 mt 6242 3775 L
6206 3739 mt 6206 3811 L
4860 4536 mt 4932 4536 L
4896 4500 mt 4896 4572 L
 914 2455 mt  986 2455 L
 950 2419 mt  950 2491 L
2494 3469 mt 2566 3469 L
2530 3433 mt 2530 3505 L
6036  444 mt 6108  444 L
6072  408 mt 6072  480 L
4523 4068 mt 4595 4068 L
4559 4032 mt 4559 4104 L
5393 2548 mt 5465 2548 L
5429 2512 mt 5429 2584 L
5970 1953 mt 6042 1953 L
6006 1917 mt 6006 1989 L
6224  665 mt 6296  665 L
6260  629 mt 6260  701 L
6036  609 mt 6108  609 L
6072  573 mt 6072  645 L
3866  443 mt 3938  443 L
3902  407 mt 3902  479 L
4492 3716 mt 4564 3716 L
4528 3680 mt 4528 3752 L
6068  476 mt 6140  476 L
6104  440 mt 6104  512 L
6136 2883 mt 6208 2883 L
6172 2847 mt 6172 2919 L
6206  538 mt 6278  538 L
6242  502 mt 6242  574 L
gs 899 414 5363 4203 rc
gr

0 sg
2822 5104 mt 
(\(F,DCTb,MLP\)) s
 422 3343 mt  -90 rotate
(\(S,LFCC,GMM\)) s
90 rotate
2975  223 mt 
(Corr = 0.04) s

end %%Color Dict

eplot
%%EndObject

epage
end

showpage

%%Trailer
%%EOF
