%!PS-Adobe-3.0 EPSF-3.0
%%Creator: MATLAB, The Mathworks, Inc. Version 7.7.0.471 (R2008b). Operating System: Microsoft Windows XP.
%%Title: Pictures\main_zoo_mvar_analysis_data_BMI_xcorr_bmi_p1_k1_5_6.eps
%%CreationDate: 10/26/2009  05:44:06
%%DocumentNeededFonts: Helvetica
%%DocumentProcessColors: Cyan Magenta Yellow Black
%%LanguageLevel: 2
%%Pages: 1
%%BoundingBox:    21   180   549   616
%%EndComments

%%BeginProlog
% MathWorks dictionary
/MathWorks 160 dict begin
% definition operators
/bdef {bind def} bind def
/ldef {load def} bind def
/xdef {exch def} bdef
/xstore {exch store} bdef
% operator abbreviations
/c  /clip ldef
/cc /concat ldef
/cp /closepath ldef
/gr /grestore ldef
/gs /gsave ldef
/mt /moveto ldef
/np /newpath ldef
/cm /currentmatrix ldef
/sm /setmatrix ldef
/rm /rmoveto ldef
/rl /rlineto ldef
/s {show newpath} bdef
/sc {setcmykcolor} bdef
/sr /setrgbcolor ldef
/sg /setgray ldef
/w /setlinewidth ldef
/j /setlinejoin ldef
/cap /setlinecap ldef
/rc {rectclip} bdef
/rf {rectfill} bdef
% page state control
/pgsv () def
/bpage {/pgsv save def} bdef
/epage {pgsv restore} bdef
/bplot /gsave ldef
/eplot {stroke grestore} bdef
% orientation switch
/portraitMode 0 def /landscapeMode 1 def /rotateMode 2 def
% coordinate system mappings
/dpi2point 0 def
% font control
/FontSize 0 def
/FMS {/FontSize xstore findfont [FontSize 0 0 FontSize neg 0 0]
  makefont setfont} bdef
/ISOLatin1Encoding where {pop /WindowsLatin1Encoding 256 array bdef
ISOLatin1Encoding WindowsLatin1Encoding copy pop
/.notdef/.notdef/quotesinglbase/florin/quotedblbase/ellipsis/dagger
/daggerdbl/circumflex/perthousand/Scaron/guilsinglleft/OE/.notdef/.notdef
/.notdef/.notdef/quoteleft/quoteright/quotedblleft/quotedblright/bullet
/endash/emdash/tilde/trademark/scaron/guilsinglright/oe/.notdef/.notdef
/Ydieresis WindowsLatin1Encoding 128 32 getinterval astore pop}
{/WindowsLatin1Encoding StandardEncoding bdef} ifelse
/reencode {exch dup where {pop load} {pop StandardEncoding} ifelse
  exch dup 3 1 roll findfont dup length dict begin
  { 1 index /FID ne {def}{pop pop} ifelse } forall
  /Encoding exch def currentdict end definefont pop} bdef
/isroman {findfont /CharStrings get /Agrave known} bdef
/FMSR {3 1 roll 1 index dup isroman {reencode} {pop pop} ifelse
  exch FMS} bdef
/csm {1 dpi2point div -1 dpi2point div scale neg translate
 dup landscapeMode eq {pop -90 rotate}
  {rotateMode eq {90 rotate} if} ifelse} bdef
% line types: solid, dotted, dashed, dotdash
/SO { [] 0 setdash } bdef
/DO { [.5 dpi2point mul 4 dpi2point mul] 0 setdash } bdef
/DA { [6 dpi2point mul] 0 setdash } bdef
/DD { [.5 dpi2point mul 4 dpi2point mul 6 dpi2point mul 4
  dpi2point mul] 0 setdash } bdef
% macros for lines and objects
/L {lineto stroke} bdef
/MP {3 1 roll moveto 1 sub {rlineto} repeat} bdef
/AP {{rlineto} repeat} bdef
/PDlw -1 def
/W {/PDlw currentlinewidth def setlinewidth} def
/PP {closepath eofill} bdef
/DP {closepath stroke} bdef
/MR {4 -2 roll moveto dup  0 exch rlineto exch 0 rlineto
  neg 0 exch rlineto closepath} bdef
/FR {MR stroke} bdef
/PR {MR fill} bdef
/L1i {{currentfile picstr readhexstring pop} image} bdef
/tMatrix matrix def
/MakeOval {newpath tMatrix currentmatrix pop translate scale
0 0 1 0 360 arc tMatrix setmatrix} bdef
/FO {MakeOval stroke} bdef
/PO {MakeOval fill} bdef
/PD {currentlinewidth 2 div 0 360 arc fill
   PDlw -1 eq not {PDlw w /PDlw -1 def} if} def
/FA {newpath tMatrix currentmatrix pop translate scale
  0 0 1 5 -2 roll arc tMatrix setmatrix stroke} bdef
/PA {newpath tMatrix currentmatrix pop	translate 0 0 moveto scale
  0 0 1 5 -2 roll arc closepath tMatrix setmatrix fill} bdef
/FAn {newpath tMatrix currentmatrix pop translate scale
  0 0 1 5 -2 roll arcn tMatrix setmatrix stroke} bdef
/PAn {newpath tMatrix currentmatrix pop translate 0 0 moveto scale
  0 0 1 5 -2 roll arcn closepath tMatrix setmatrix fill} bdef
/vradius 0 def /hradius 0 def /lry 0 def
/lrx 0 def /uly 0 def /ulx 0 def /rad 0 def
/MRR {/vradius xdef /hradius xdef /lry xdef /lrx xdef /uly xdef
  /ulx xdef newpath tMatrix currentmatrix pop ulx hradius add uly
  vradius add translate hradius vradius scale 0 0 1 180 270 arc 
  tMatrix setmatrix lrx hradius sub uly vradius add translate
  hradius vradius scale 0 0 1 270 360 arc tMatrix setmatrix
  lrx hradius sub lry vradius sub translate hradius vradius scale
  0 0 1 0 90 arc tMatrix setmatrix ulx hradius add lry vradius sub
  translate hradius vradius scale 0 0 1 90 180 arc tMatrix setmatrix
  closepath} bdef
/FRR {MRR stroke } bdef
/PRR {MRR fill } bdef
/MlrRR {/lry xdef /lrx xdef /uly xdef /ulx xdef /rad lry uly sub 2 div def
  newpath tMatrix currentmatrix pop ulx rad add uly rad add translate
  rad rad scale 0 0 1 90 270 arc tMatrix setmatrix lrx rad sub lry rad
  sub translate rad rad scale 0 0 1 270 90 arc tMatrix setmatrix
  closepath} bdef
/FlrRR {MlrRR stroke } bdef
/PlrRR {MlrRR fill } bdef
/MtbRR {/lry xdef /lrx xdef /uly xdef /ulx xdef /rad lrx ulx sub 2 div def
  newpath tMatrix currentmatrix pop ulx rad add uly rad add translate
  rad rad scale 0 0 1 180 360 arc tMatrix setmatrix lrx rad sub lry rad
  sub translate rad rad scale 0 0 1 0 180 arc tMatrix setmatrix
  closepath} bdef
/FtbRR {MtbRR stroke } bdef
/PtbRR {MtbRR fill } bdef
/stri 6 array def /dtri 6 array def
/smat 6 array def /dmat 6 array def
/tmat1 6 array def /tmat2 6 array def /dif 3 array def
/asub {/ind2 exch def /ind1 exch def dup dup
  ind1 get exch ind2 get sub exch } bdef
/tri_to_matrix {
  2 0 asub 3 1 asub 4 0 asub 5 1 asub
  dup 0 get exch 1 get 7 -1 roll astore } bdef
/compute_transform {
  dmat dtri tri_to_matrix tmat1 invertmatrix 
  smat stri tri_to_matrix tmat2 concatmatrix } bdef
/ds {stri astore pop} bdef
/dt {dtri astore pop} bdef
/db {2 copy /cols xdef /rows xdef mul dup 3 mul string
  currentfile 
  3 index 0 eq {/ASCIIHexDecode filter}
  {/ASCII85Decode filter 3 index 2 eq {/RunLengthDecode filter} if }
  ifelse exch readstring pop
  dup 0 3 index getinterval /rbmap xdef
  dup 2 index dup getinterval /gbmap xdef
  1 index dup 2 mul exch getinterval /bbmap xdef pop pop}bdef
/it {gs np dtri aload pop moveto lineto lineto cp c
  cols rows 8 compute_transform 
  rbmap gbmap bbmap true 3 colorimage gr}bdef
/il {newpath moveto lineto stroke}bdef
currentdict end def
%%EndProlog

%%BeginSetup
MathWorks begin

0 cap

end
%%EndSetup

%%Page: 1 1
%%BeginPageSetup
%%PageBoundingBox:    21   180   549   616
MathWorks begin
bpage
%%EndPageSetup

%%BeginObject: obj1
bplot

/dpi2point 12 def
portraitMode 0216 7344 csm

   40   -48  6343  5231 rc
85 dict begin %Colortable dictionary
/c0 { 0.000000 0.000000 0.000000 sr} bdef
/c1 { 1.000000 1.000000 1.000000 sr} bdef
/c2 { 0.900000 0.000000 0.000000 sr} bdef
/c3 { 0.000000 0.820000 0.000000 sr} bdef
/c4 { 0.000000 0.000000 0.800000 sr} bdef
/c5 { 0.910000 0.820000 0.320000 sr} bdef
/c6 { 1.000000 0.260000 0.820000 sr} bdef
/c7 { 0.000000 0.820000 0.820000 sr} bdef
c0
1 j
1 sg
   0    0 6919 5187 rf
6 w
0 4202 5362 0 0 -4202 899 4616 4 MP
PP
-5362 0 0 4202 5362 0 0 -4202 899 4616 5 MP stroke
4 w
DO
SO
6 w
0 sg
 899  414 mt 6261  414 L
 899 4616 mt 6261 4616 L
6261 4616 mt 6261  414 L
 899 4616 mt  899  414 L
 899 4616 mt 6261 4616 L
 899 4616 mt  899  414 L
1776 4616 mt 1776 4562 L
1776  414 mt 1776  467 L
%%IncludeResource: font Helvetica
/Helvetica /WindowsLatin1Encoding 240 FMSR

1610 4873 mt 
(0.1) s
2653 4616 mt 2653 4562 L
2653  414 mt 2653  467 L
2487 4873 mt 
(0.2) s
3530 4616 mt 3530 4562 L
3530  414 mt 3530  467 L
3364 4873 mt 
(0.3) s
4408 4616 mt 4408 4562 L
4408  414 mt 4408  467 L
4242 4873 mt 
(0.4) s
5285 4616 mt 5285 4562 L
5285  414 mt 5285  467 L
5119 4873 mt 
(0.5) s
6162 4616 mt 6162 4562 L
6162  414 mt 6162  467 L
5996 4873 mt 
(0.6) s
 899 3988 mt  952 3988 L
6261 3988 mt 6207 3988 L
 397 4077 mt 
(0.05) s
 899 3360 mt  952 3360 L
6261 3360 mt 6207 3360 L
 531 3449 mt 
(0.1) s
 899 2733 mt  952 2733 L
6261 2733 mt 6207 2733 L
 397 2822 mt 
(0.15) s
 899 2105 mt  952 2105 L
6261 2105 mt 6207 2105 L
 531 2194 mt 
(0.2) s
 899 1478 mt  952 1478 L
6261 1478 mt 6207 1478 L
 397 1567 mt 
(0.25) s
 899  850 mt  952  850 L
6261  850 mt 6207  850 L
 531  939 mt 
(0.3) s
 899  414 mt 6261  414 L
 899 4616 mt 6261 4616 L
6261 4616 mt 6261  414 L
 899 4616 mt  899  414 L
gs 899 414 5363 4203 rc
gr

/c8 { 0.000000 0.000000 1.000000 sr} bdef
c8
2459 4558 mt 2531 4558 L
2495 4522 mt 2495 4594 L
1534 3459 mt 1606 3459 L
1570 3423 mt 1570 3495 L
1108 4124 mt 1180 4124 L
1144 4088 mt 1144 4160 L
1068 3327 mt 1140 3327 L
1104 3291 mt 1104 3363 L
 979 4096 mt 1051 4096 L
1015 4060 mt 1015 4132 L
 866 4236 mt  938 4236 L
 902 4200 mt  902 4272 L
 863 4555 mt  935 4555 L
 899 4519 mt  899 4591 L
 966 4470 mt 1038 4470 L
1002 4434 mt 1002 4506 L
 866 4296 mt  938 4296 L
 902 4260 mt  902 4332 L
2623 4464 mt 2695 4464 L
2659 4428 mt 2659 4500 L
4349  414 mt 4421  414 L
4385  378 mt 4385  450 L
 930 4158 mt 1002 4158 L
 966 4122 mt  966 4194 L
1298 3795 mt 1370 3795 L
1334 3759 mt 1334 3831 L
1158 4095 mt 1230 4095 L
1194 4059 mt 1194 4131 L
1159 4605 mt 1231 4605 L
1195 4569 mt 1195 4641 L
1463 2319 mt 1535 2319 L
1499 2283 mt 1499 2355 L
1014 3405 mt 1086 3405 L
1050 3369 mt 1050 3441 L
 864 4516 mt  936 4516 L
 900 4480 mt  900 4552 L
 991 4075 mt 1063 4075 L
1027 4039 mt 1027 4111 L
 877 3463 mt  949 3463 L
 913 3427 mt  913 3499 L
 896 4323 mt  968 4323 L
 932 4287 mt  932 4359 L
2839 4525 mt 2911 4525 L
2875 4489 mt 2875 4561 L
 916 2751 mt  988 2751 L
 952 2715 mt  952 2787 L
 886 4114 mt  958 4114 L
 922 4078 mt  922 4150 L
 864 4495 mt  936 4495 L
 900 4459 mt  900 4531 L
 928 4518 mt 1000 4518 L
 964 4482 mt  964 4554 L
 879 4411 mt  951 4411 L
 915 4375 mt  915 4447 L
2029 4546 mt 2101 4546 L
2065 4510 mt 2065 4582 L
 993 4553 mt 1065 4553 L
1029 4517 mt 1029 4589 L
 870 4613 mt  942 4613 L
 906 4577 mt  906 4649 L
1262 4250 mt 1334 4250 L
1298 4214 mt 1298 4286 L
1152 3047 mt 1224 3047 L
1188 3011 mt 1188 3083 L
 996 3640 mt 1068 3640 L
1032 3604 mt 1032 3676 L
 951 4396 mt 1023 4396 L
 987 4360 mt  987 4432 L
1047 4363 mt 1119 4363 L
1083 4327 mt 1083 4399 L
1104 3075 mt 1176 3075 L
1140 3039 mt 1140 3111 L
 863 4222 mt  935 4222 L
 899 4186 mt  899 4258 L
1495 3165 mt 1567 3165 L
1531 3129 mt 1531 3201 L
1236 2015 mt 1308 2015 L
1272 1979 mt 1272 2051 L
1521 4082 mt 1593 4082 L
1557 4046 mt 1557 4118 L
1909 4290 mt 1981 4290 L
1945 4254 mt 1945 4326 L
1012 2092 mt 1084 2092 L
1048 2056 mt 1048 2128 L
 881 3496 mt  953 3496 L
 917 3460 mt  917 3532 L
 890 4368 mt  962 4368 L
 926 4332 mt  926 4404 L
3141 3885 mt 3213 3885 L
3177 3849 mt 3177 3921 L
 863 4162 mt  935 4162 L
 899 4126 mt  899 4198 L
1087 4610 mt 1159 4610 L
1123 4574 mt 1123 4646 L
 887 4615 mt  959 4615 L
 923 4579 mt  923 4651 L
 869 3800 mt  941 3800 L
 905 3764 mt  905 3836 L
1951 3407 mt 2023 3407 L
1987 3371 mt 1987 3443 L
 890 4597 mt  962 4597 L
 926 4561 mt  926 4633 L
 996 3901 mt 1068 3901 L
1032 3865 mt 1032 3937 L
 916 2565 mt  988 2565 L
 952 2529 mt  952 2601 L
1226 2932 mt 1298 2932 L
1262 2896 mt 1262 2968 L
 900 4542 mt  972 4542 L
 936 4506 mt  936 4578 L
 882 4119 mt  954 4119 L
 918 4083 mt  918 4155 L
5067 2934 mt 5139 2934 L
5103 2898 mt 5103 2970 L
3845 4051 mt 3917 4051 L
3881 4015 mt 3881 4087 L
2485 3479 mt 2557 3479 L
2521 3443 mt 2521 3515 L
 870 4268 mt  942 4268 L
 906 4232 mt  906 4304 L
1251 4615 mt 1323 4615 L
1287 4579 mt 1287 4651 L
1331 4613 mt 1403 4613 L
1367 4577 mt 1367 4649 L
 863 4596 mt  935 4596 L
 899 4560 mt  899 4632 L
 867 4480 mt  939 4480 L
 903 4444 mt  903 4516 L
 897 3668 mt  969 3668 L
 933 3632 mt  933 3704 L
1002 4214 mt 1074 4214 L
1038 4178 mt 1038 4250 L
 950 4610 mt 1022 4610 L
 986 4574 mt  986 4646 L
1545 3588 mt 1617 3588 L
1581 3552 mt 1581 3624 L
1160 4492 mt 1232 4492 L
1196 4456 mt 1196 4528 L
 867 4573 mt  939 4573 L
 903 4537 mt  903 4609 L
1331 3934 mt 1403 3934 L
1367 3898 mt 1367 3970 L
1039 4220 mt 1111 4220 L
1075 4184 mt 1075 4256 L
 889 4497 mt  961 4497 L
 925 4461 mt  925 4533 L
 866 4302 mt  938 4302 L
 902 4266 mt  902 4338 L
 917 4132 mt  989 4132 L
 953 4096 mt  953 4168 L
1030 3760 mt 1102 3760 L
1066 3724 mt 1066 3796 L
1535 3603 mt 1607 3603 L
1571 3567 mt 1571 3639 L
 945 4407 mt 1017 4407 L
 981 4371 mt  981 4443 L
 863 3446 mt  935 3446 L
 899 3410 mt  899 3482 L
1232 4424 mt 1304 4424 L
1268 4388 mt 1268 4460 L
6225 3094 mt 6297 3094 L
6261 3058 mt 6261 3130 L
 898 4110 mt  970 4110 L
 934 4074 mt  934 4146 L
1074 3312 mt 1146 3312 L
1110 3276 mt 1110 3348 L
 874 3572 mt  946 3572 L
 910 3536 mt  910 3608 L
 892 4609 mt  964 4609 L
 928 4573 mt  928 4645 L
1022 4612 mt 1094 4612 L
1058 4576 mt 1058 4648 L
1427 2219 mt 1499 2219 L
1463 2183 mt 1463 2255 L
1014 4567 mt 1086 4567 L
1050 4531 mt 1050 4603 L
 863 4421 mt  935 4421 L
 899 4385 mt  899 4457 L
1107 4515 mt 1179 4515 L
1143 4479 mt 1143 4551 L
1408 3996 mt 1480 3996 L
1444 3960 mt 1444 4032 L
1173 4536 mt 1245 4536 L
1209 4500 mt 1209 4572 L
 875 3699 mt  947 3699 L
 911 3663 mt  911 3735 L
1034 2420 mt 1106 2420 L
1070 2384 mt 1070 2456 L
 877 4307 mt  949 4307 L
 913 4271 mt  913 4343 L
 937 4308 mt 1009 4308 L
 973 4272 mt  973 4344 L
 866 3851 mt  938 3851 L
 902 3815 mt  902 3887 L
2077 2380 mt 2149 2380 L
2113 2344 mt 2113 2416 L
 863 4615 mt  935 4615 L
 899 4579 mt  899 4651 L
 866 4613 mt  938 4613 L
 902 4577 mt  902 4649 L
1602 3109 mt 1674 3109 L
1638 3073 mt 1638 3145 L
1003 3370 mt 1075 3370 L
1039 3334 mt 1039 3406 L
1585 4237 mt 1657 4237 L
1621 4201 mt 1621 4273 L
 966 4598 mt 1038 4598 L
1002 4562 mt 1002 4634 L
1078 4537 mt 1150 4537 L
1114 4501 mt 1114 4573 L
 926 4539 mt  998 4539 L
 962 4503 mt  962 4575 L
 948 4492 mt 1020 4492 L
 984 4456 mt  984 4528 L
1303 1608 mt 1375 1608 L
1339 1572 mt 1339 1644 L
1745 4614 mt 1817 4614 L
1781 4578 mt 1781 4650 L
1166 3056 mt 1238 3056 L
1202 3020 mt 1202 3092 L
 864 2679 mt  936 2679 L
 900 2643 mt  900 2715 L
1077 4300 mt 1149 4300 L
1113 4264 mt 1113 4336 L
 873 4489 mt  945 4489 L
 909 4453 mt  909 4525 L
 917 4463 mt  989 4463 L
 953 4427 mt  953 4499 L
1149 4187 mt 1221 4187 L
1185 4151 mt 1185 4223 L
1465 4205 mt 1537 4205 L
1501 4169 mt 1501 4241 L
 968 2229 mt 1040 2229 L
1004 2193 mt 1004 2265 L
 864 4588 mt  936 4588 L
 900 4552 mt  900 4624 L
 984 4156 mt 1056 4156 L
1020 4120 mt 1020 4192 L
1413 3531 mt 1485 3531 L
1449 3495 mt 1449 3567 L
 979 4538 mt 1051 4538 L
1015 4502 mt 1015 4574 L
1060 4602 mt 1132 4602 L
1096 4566 mt 1096 4638 L
 942 2861 mt 1014 2861 L
 978 2825 mt  978 2897 L
 892 3217 mt  964 3217 L
 928 3181 mt  928 3253 L
2126 2789 mt 2198 2789 L
2162 2753 mt 2162 2825 L
1391 4545 mt 1463 4545 L
1427 4509 mt 1427 4581 L
 879 4459 mt  951 4459 L
 915 4423 mt  915 4495 L
 863 3364 mt  935 3364 L
 899 3328 mt  899 3400 L
 903 4363 mt  975 4363 L
 939 4327 mt  939 4399 L
 867 4076 mt  939 4076 L
 903 4040 mt  903 4112 L
 922 4396 mt  994 4396 L
 958 4360 mt  958 4432 L
 881 4132 mt  953 4132 L
 917 4096 mt  917 4168 L
1085 3314 mt 1157 3314 L
1121 3278 mt 1121 3350 L
 863 4115 mt  935 4115 L
 899 4079 mt  899 4151 L
1225 4593 mt 1297 4593 L
1261 4557 mt 1261 4629 L
 863 4237 mt  935 4237 L
 899 4201 mt  899 4273 L
 919 4607 mt  991 4607 L
 955 4571 mt  955 4643 L
 864 4473 mt  936 4473 L
 900 4437 mt  900 4509 L
1735 2480 mt 1807 2480 L
1771 2444 mt 1771 2516 L
2012 3223 mt 2084 3223 L
2048 3187 mt 2048 3259 L
 883 4511 mt  955 4511 L
 919 4475 mt  919 4547 L
 871 4132 mt  943 4132 L
 907 4096 mt  907 4168 L
 968 4533 mt 1040 4533 L
1004 4497 mt 1004 4569 L
 962 4359 mt 1034 4359 L
 998 4323 mt  998 4395 L
1213 4140 mt 1285 4140 L
1249 4104 mt 1249 4176 L
1172 3742 mt 1244 3742 L
1208 3706 mt 1208 3778 L
 920 4561 mt  992 4561 L
 956 4525 mt  956 4597 L
 866 4611 mt  938 4611 L
 902 4575 mt  902 4647 L
1879 4500 mt 1951 4500 L
1915 4464 mt 1915 4536 L
1028 3289 mt 1100 3289 L
1064 3253 mt 1064 3325 L
2679 3705 mt 2751 3705 L
2715 3669 mt 2715 3741 L
 863 4516 mt  935 4516 L
 899 4480 mt  899 4552 L
1121 3391 mt 1193 3391 L
1157 3355 mt 1157 3427 L
 863 3798 mt  935 3798 L
 899 3762 mt  899 3834 L
1191 4470 mt 1263 4470 L
1227 4434 mt 1227 4506 L
 863 4557 mt  935 4557 L
 899 4521 mt  899 4593 L
 863 4506 mt  935 4506 L
 899 4470 mt  899 4542 L
 910 4327 mt  982 4327 L
 946 4291 mt  946 4363 L
1136 2095 mt 1208 2095 L
1172 2059 mt 1172 2131 L
 890 4330 mt  962 4330 L
 926 4294 mt  926 4366 L
 879 4285 mt  951 4285 L
 915 4249 mt  915 4321 L
1344 4494 mt 1416 4494 L
1380 4458 mt 1380 4530 L
1001 4420 mt 1073 4420 L
1037 4384 mt 1037 4456 L
1204 4014 mt 1276 4014 L
1240 3978 mt 1240 4050 L
1054 4566 mt 1126 4566 L
1090 4530 mt 1090 4602 L
 982 4467 mt 1054 4467 L
1018 4431 mt 1018 4503 L
1249 4596 mt 1321 4596 L
1285 4560 mt 1285 4632 L
1386 4313 mt 1458 4313 L
1422 4277 mt 1422 4349 L
1103 4575 mt 1175 4575 L
1139 4539 mt 1139 4611 L
 910 4448 mt  982 4448 L
 946 4412 mt  946 4484 L
 888 4228 mt  960 4228 L
 924 4192 mt  924 4264 L
 869 4389 mt  941 4389 L
 905 4353 mt  905 4425 L
1116 3976 mt 1188 3976 L
1152 3940 mt 1152 4012 L
 863 4612 mt  935 4612 L
 899 4576 mt  899 4648 L
 961 4331 mt 1033 4331 L
 997 4295 mt  997 4367 L
1322 4064 mt 1394 4064 L
1358 4028 mt 1358 4100 L
1146 3330 mt 1218 3330 L
1182 3294 mt 1182 3366 L
1113 4607 mt 1185 4607 L
1149 4571 mt 1149 4643 L
 936 4447 mt 1008 4447 L
 972 4411 mt  972 4483 L
 988 4588 mt 1060 4588 L
1024 4552 mt 1024 4624 L
1561 4593 mt 1633 4593 L
1597 4557 mt 1597 4629 L
1454 2821 mt 1526 2821 L
1490 2785 mt 1490 2857 L
 863 4513 mt  935 4513 L
 899 4477 mt  899 4549 L
2830 2826 mt 2902 2826 L
2866 2790 mt 2866 2862 L
1278 4050 mt 1350 4050 L
1314 4014 mt 1314 4086 L
 979 4581 mt 1051 4581 L
1015 4545 mt 1015 4617 L
1195 4597 mt 1267 4597 L
1231 4561 mt 1231 4633 L
 961 4614 mt 1033 4614 L
 997 4578 mt  997 4650 L
 899 3721 mt  971 3721 L
 935 3685 mt  935 3757 L
 939 4616 mt 1011 4616 L
 975 4580 mt  975 4652 L
1284 4604 mt 1356 4604 L
1320 4568 mt 1320 4640 L
1269 3929 mt 1341 3929 L
1305 3893 mt 1305 3965 L
 975 4458 mt 1047 4458 L
1011 4422 mt 1011 4494 L
 895 4084 mt  967 4084 L
 931 4048 mt  931 4120 L
1745 2414 mt 1817 2414 L
1781 2378 mt 1781 2450 L
1387 4533 mt 1459 4533 L
1423 4497 mt 1423 4569 L
 906 3966 mt  978 3966 L
 942 3930 mt  942 4002 L
 883 4545 mt  955 4545 L
 919 4509 mt  919 4581 L
 978 4598 mt 1050 4598 L
1014 4562 mt 1014 4634 L
1211 4291 mt 1283 4291 L
1247 4255 mt 1247 4327 L
 942 4488 mt 1014 4488 L
 978 4452 mt  978 4524 L
 878 4615 mt  950 4615 L
 914 4579 mt  914 4651 L
 927 4612 mt  999 4612 L
 963 4576 mt  963 4648 L
 908 2890 mt  980 2890 L
 944 2854 mt  944 2926 L
1079 4288 mt 1151 4288 L
1115 4252 mt 1115 4324 L
 865 3495 mt  937 3495 L
 901 3459 mt  901 3531 L
1004 4173 mt 1076 4173 L
1040 4137 mt 1040 4209 L
 961 4445 mt 1033 4445 L
 997 4409 mt  997 4481 L
 978 4371 mt 1050 4371 L
1014 4335 mt 1014 4407 L
1944 4585 mt 2016 4585 L
1980 4549 mt 1980 4621 L
1296 4079 mt 1368 4079 L
1332 4043 mt 1332 4115 L
 906 4250 mt  978 4250 L
 942 4214 mt  942 4286 L
 867 4373 mt  939 4373 L
 903 4337 mt  903 4409 L
 885 4611 mt  957 4611 L
 921 4575 mt  921 4647 L
1065 4614 mt 1137 4614 L
1101 4578 mt 1101 4650 L
 889 3014 mt  961 3014 L
 925 2978 mt  925 3050 L
 885 4376 mt  957 4376 L
 921 4340 mt  921 4412 L
 863 4337 mt  935 4337 L
 899 4301 mt  899 4373 L
 899 3661 mt  971 3661 L
 935 3625 mt  935 3697 L
 863 3403 mt  935 3403 L
 899 3367 mt  899 3439 L
1011 4615 mt 1083 4615 L
1047 4579 mt 1047 4651 L
 942 4275 mt 1014 4275 L
 978 4239 mt  978 4311 L
 870 3464 mt  942 3464 L
 906 3428 mt  906 3500 L
1014 4352 mt 1086 4352 L
1050 4316 mt 1050 4388 L
1069 4286 mt 1141 4286 L
1105 4250 mt 1105 4322 L
 967 4455 mt 1039 4455 L
1003 4419 mt 1003 4491 L
1144 4210 mt 1216 4210 L
1180 4174 mt 1180 4246 L
1095 4445 mt 1167 4445 L
1131 4409 mt 1131 4481 L
1010 4236 mt 1082 4236 L
1046 4200 mt 1046 4272 L
 902 4576 mt  974 4576 L
 938 4540 mt  938 4612 L
 863 3940 mt  935 3940 L
 899 3904 mt  899 3976 L
 911 3315 mt  983 3315 L
 947 3279 mt  947 3351 L
 885 2768 mt  957 2768 L
 921 2732 mt  921 2804 L
 888 4545 mt  960 4545 L
 924 4509 mt  924 4581 L
 887 4539 mt  959 4539 L
 923 4503 mt  923 4575 L
1010 2800 mt 1082 2800 L
1046 2764 mt 1046 2836 L
 865 4385 mt  937 4385 L
 901 4349 mt  901 4421 L
 864 4250 mt  936 4250 L
 900 4214 mt  900 4286 L
1170 3058 mt 1242 3058 L
1206 3022 mt 1206 3094 L
 887 4568 mt  959 4568 L
 923 4532 mt  923 4604 L
 868 3653 mt  940 3653 L
 904 3617 mt  904 3689 L
 883 2811 mt  955 2811 L
 919 2775 mt  919 2847 L
 878 4480 mt  950 4480 L
 914 4444 mt  914 4516 L
 869 4531 mt  941 4531 L
 905 4495 mt  905 4567 L
1475 2791 mt 1547 2791 L
1511 2755 mt 1511 2827 L
 898 3888 mt  970 3888 L
 934 3852 mt  934 3924 L
 884 4366 mt  956 4366 L
 920 4330 mt  920 4402 L
 929 4435 mt 1001 4435 L
 965 4399 mt  965 4471 L
1190 4503 mt 1262 4503 L
1226 4467 mt 1226 4539 L
 945 4373 mt 1017 4373 L
 981 4337 mt  981 4409 L
 863 4524 mt  935 4524 L
 899 4488 mt  899 4560 L
 971 4067 mt 1043 4067 L
1007 4031 mt 1007 4103 L
1289 2592 mt 1361 2592 L
1325 2556 mt 1325 2628 L
1045 4133 mt 1117 4133 L
1081 4097 mt 1081 4169 L
 869 4498 mt  941 4498 L
 905 4462 mt  905 4534 L
1007 4050 mt 1079 4050 L
1043 4014 mt 1043 4086 L
1145 4525 mt 1217 4525 L
1181 4489 mt 1181 4561 L
 997 4267 mt 1069 4267 L
1033 4231 mt 1033 4303 L
1882 3772 mt 1954 3772 L
1918 3736 mt 1918 3808 L
 997 4292 mt 1069 4292 L
1033 4256 mt 1033 4328 L
 899 3789 mt  971 3789 L
 935 3753 mt  935 3825 L
1089 4615 mt 1161 4615 L
1125 4579 mt 1125 4651 L
 880 4615 mt  952 4615 L
 916 4579 mt  916 4651 L
 977 4281 mt 1049 4281 L
1013 4245 mt 1013 4317 L
1118 4594 mt 1190 4594 L
1154 4558 mt 1154 4630 L
1328 4112 mt 1400 4112 L
1364 4076 mt 1364 4148 L
 893 4613 mt  965 4613 L
 929 4577 mt  929 4649 L
 902 4495 mt  974 4495 L
 938 4459 mt  938 4531 L
1310 4505 mt 1382 4505 L
1346 4469 mt 1346 4541 L
 929 4575 mt 1001 4575 L
 965 4539 mt  965 4611 L
1427 4290 mt 1499 4290 L
1463 4254 mt 1463 4326 L
 961 4614 mt 1033 4614 L
 997 4578 mt  997 4650 L
 889 4445 mt  961 4445 L
 925 4409 mt  925 4481 L
 863 4329 mt  935 4329 L
 899 4293 mt  899 4365 L
 901 4276 mt  973 4276 L
 937 4240 mt  937 4312 L
 892 3794 mt  964 3794 L
 928 3758 mt  928 3830 L
1636 3231 mt 1708 3231 L
1672 3195 mt 1672 3267 L
 885 4585 mt  957 4585 L
 921 4549 mt  921 4621 L
 952 4344 mt 1024 4344 L
 988 4308 mt  988 4380 L
 863 4603 mt  935 4603 L
 899 4567 mt  899 4639 L
3032  519 mt 3104  519 L
3068  483 mt 3068  555 L
1152 4450 mt 1224 4450 L
1188 4414 mt 1188 4486 L
 863 3279 mt  935 3279 L
 899 3243 mt  899 3315 L
 970 4411 mt 1042 4411 L
1006 4375 mt 1006 4447 L
1239 4552 mt 1311 4552 L
1275 4516 mt 1275 4588 L
 879 4587 mt  951 4587 L
 915 4551 mt  915 4623 L
1277 2665 mt 1349 2665 L
1313 2629 mt 1313 2701 L
 918 4557 mt  990 4557 L
 954 4521 mt  954 4593 L
 901 4501 mt  973 4501 L
 937 4465 mt  937 4537 L
1374 4609 mt 1446 4609 L
1410 4573 mt 1410 4645 L
 912 4596 mt  984 4596 L
 948 4560 mt  948 4632 L
 961 4474 mt 1033 4474 L
 997 4438 mt  997 4510 L
 973 4173 mt 1045 4173 L
1009 4137 mt 1009 4209 L
 864 3667 mt  936 3667 L
 900 3631 mt  900 3703 L
 893 4380 mt  965 4380 L
 929 4344 mt  929 4416 L
1208 4156 mt 1280 4156 L
1244 4120 mt 1244 4192 L
 944 4405 mt 1016 4405 L
 980 4369 mt  980 4441 L
 863 4326 mt  935 4326 L
 899 4290 mt  899 4362 L
 877 4587 mt  949 4587 L
 913 4551 mt  913 4623 L
 948 4602 mt 1020 4602 L
 984 4566 mt  984 4638 L
 965 4286 mt 1037 4286 L
1001 4250 mt 1001 4322 L
 871 4611 mt  943 4611 L
 907 4575 mt  907 4647 L
 916 3637 mt  988 3637 L
 952 3601 mt  952 3673 L
 881 4601 mt  953 4601 L
 917 4565 mt  917 4637 L
1036 4510 mt 1108 4510 L
1072 4474 mt 1072 4546 L
 886 4568 mt  958 4568 L
 922 4532 mt  922 4604 L
 864 4178 mt  936 4178 L
 900 4142 mt  900 4214 L
1015 2901 mt 1087 2901 L
1051 2865 mt 1051 2937 L
 944 4060 mt 1016 4060 L
 980 4024 mt  980 4096 L
 921 3957 mt  993 3957 L
 957 3921 mt  957 3993 L
 863 2561 mt  935 2561 L
 899 2525 mt  899 2597 L
 879 4554 mt  951 4554 L
 915 4518 mt  915 4590 L
 863 4395 mt  935 4395 L
 899 4359 mt  899 4431 L
 889 4602 mt  961 4602 L
 925 4566 mt  925 4638 L
1047 4606 mt 1119 4606 L
1083 4570 mt 1083 4642 L
 906 4120 mt  978 4120 L
 942 4084 mt  942 4156 L
1243 4567 mt 1315 4567 L
1279 4531 mt 1279 4603 L
 863 3618 mt  935 3618 L
 899 3582 mt  899 3654 L
 877 4469 mt  949 4469 L
 913 4433 mt  913 4505 L
1005 3878 mt 1077 3878 L
1041 3842 mt 1041 3914 L
1071 4399 mt 1143 4399 L
1107 4363 mt 1107 4435 L
1083 4250 mt 1155 4250 L
1119 4214 mt 1119 4286 L
1087 3062 mt 1159 3062 L
1123 3026 mt 1123 3098 L
1684 4288 mt 1756 4288 L
1720 4252 mt 1720 4324 L
1021 4345 mt 1093 4345 L
1057 4309 mt 1057 4381 L
 892 4449 mt  964 4449 L
 928 4413 mt  928 4485 L
 909 4550 mt  981 4550 L
 945 4514 mt  945 4586 L
 920 3619 mt  992 3619 L
 956 3583 mt  956 3655 L
1018 4585 mt 1090 4585 L
1054 4549 mt 1054 4621 L
1042 4393 mt 1114 4393 L
1078 4357 mt 1078 4429 L
1425 4610 mt 1497 4610 L
1461 4574 mt 1461 4646 L
 863 4347 mt  935 4347 L
 899 4311 mt  899 4383 L
1004 3140 mt 1076 3140 L
1040 3104 mt 1040 3176 L
1367 3776 mt 1439 3776 L
1403 3740 mt 1403 3812 L
 867 4264 mt  939 4264 L
 903 4228 mt  903 4300 L
 863 4316 mt  935 4316 L
 899 4280 mt  899 4352 L
1165 4381 mt 1237 4381 L
1201 4345 mt 1201 4417 L
 986 4361 mt 1058 4361 L
1022 4325 mt 1022 4397 L
1761 2189 mt 1833 2189 L
1797 2153 mt 1797 2225 L
1299 4615 mt 1371 4615 L
1335 4579 mt 1335 4651 L
1126 4158 mt 1198 4158 L
1162 4122 mt 1162 4194 L
 925 4536 mt  997 4536 L
 961 4500 mt  961 4572 L
 890 4542 mt  962 4542 L
 926 4506 mt  926 4578 L
 923 4546 mt  995 4546 L
 959 4510 mt  959 4582 L
 893 4608 mt  965 4608 L
 929 4572 mt  929 4644 L
 977 4486 mt 1049 4486 L
1013 4450 mt 1013 4522 L
 865 4615 mt  937 4615 L
 901 4579 mt  901 4651 L
 881 4571 mt  953 4571 L
 917 4535 mt  917 4607 L
1383 4594 mt 1455 4594 L
1419 4558 mt 1419 4630 L
1319 2233 mt 1391 2233 L
1355 2197 mt 1355 2269 L
1672 3686 mt 1744 3686 L
1708 3650 mt 1708 3722 L
 959 3621 mt 1031 3621 L
 995 3585 mt  995 3657 L
2859 3614 mt 2931 3614 L
2895 3578 mt 2895 3650 L
 923 4202 mt  995 4202 L
 959 4166 mt  959 4238 L
 868 4037 mt  940 4037 L
 904 4001 mt  904 4073 L
 878 4560 mt  950 4560 L
 914 4524 mt  914 4596 L
1089 4544 mt 1161 4544 L
1125 4508 mt 1125 4580 L
 969 4169 mt 1041 4169 L
1005 4133 mt 1005 4205 L
 867 4273 mt  939 4273 L
 903 4237 mt  903 4309 L
 933 4587 mt 1005 4587 L
 969 4551 mt  969 4623 L
 887 4561 mt  959 4561 L
 923 4525 mt  923 4597 L
1386 3988 mt 1458 3988 L
1422 3952 mt 1422 4024 L
1255 4440 mt 1327 4440 L
1291 4404 mt 1291 4476 L
 896 4598 mt  968 4598 L
 932 4562 mt  932 4634 L
 864 3269 mt  936 3269 L
 900 3233 mt  900 3305 L
1354 3773 mt 1426 3773 L
1390 3737 mt 1390 3809 L
 920 4595 mt  992 4595 L
 956 4559 mt  956 4631 L
 908 3474 mt  980 3474 L
 944 3438 mt  944 3510 L
 866 4216 mt  938 4216 L
 902 4180 mt  902 4252 L
1090 4037 mt 1162 4037 L
1126 4001 mt 1126 4073 L
 863 4406 mt  935 4406 L
 899 4370 mt  899 4442 L
 979 3966 mt 1051 3966 L
1015 3930 mt 1015 4002 L
 985 4607 mt 1057 4607 L
1021 4571 mt 1021 4643 L
 865 4571 mt  937 4571 L
 901 4535 mt  901 4607 L
 869 4403 mt  941 4403 L
 905 4367 mt  905 4439 L
2324 3347 mt 2396 3347 L
2360 3311 mt 2360 3383 L
 972 4242 mt 1044 4242 L
1008 4206 mt 1008 4278 L
 885 4298 mt  957 4298 L
 921 4262 mt  921 4334 L
 864 4551 mt  936 4551 L
 900 4515 mt  900 4587 L
1021 4614 mt 1093 4614 L
1057 4578 mt 1057 4650 L
 863 4204 mt  935 4204 L
 899 4168 mt  899 4240 L
1045 3423 mt 1117 3423 L
1081 3387 mt 1081 3459 L
 943 4511 mt 1015 4511 L
 979 4475 mt  979 4547 L
1231 3783 mt 1303 3783 L
1267 3747 mt 1267 3819 L
1074 4102 mt 1146 4102 L
1110 4066 mt 1110 4138 L
 966 4330 mt 1038 4330 L
1002 4294 mt 1002 4366 L
 877 4428 mt  949 4428 L
 913 4392 mt  913 4464 L
 915 4308 mt  987 4308 L
 951 4272 mt  951 4344 L
 960 4575 mt 1032 4575 L
 996 4539 mt  996 4611 L
 865 4611 mt  937 4611 L
 901 4575 mt  901 4647 L
 923 4067 mt  995 4067 L
 959 4031 mt  959 4103 L
 914 4470 mt  986 4470 L
 950 4434 mt  950 4506 L
1267 4574 mt 1339 4574 L
1303 4538 mt 1303 4610 L
1020 4609 mt 1092 4609 L
1056 4573 mt 1056 4645 L
 971 4494 mt 1043 4494 L
1007 4458 mt 1007 4530 L
1314 4408 mt 1386 4408 L
1350 4372 mt 1350 4444 L
 887 4314 mt  959 4314 L
 923 4278 mt  923 4350 L
 870 4438 mt  942 4438 L
 906 4402 mt  906 4474 L
 863 4292 mt  935 4292 L
 899 4256 mt  899 4328 L
1483 4287 mt 1555 4287 L
1519 4251 mt 1519 4323 L
gs 899 414 5363 4203 rc
gr

0 sg
2822 5104 mt 
(\(F,DCTb,MLP\)) s
 288 3300 mt  -90 rotate
(\(F,DCTb,iMLP\)) s
90 rotate
2975  223 mt 
(Corr = 0.23) s

end %%Color Dict

eplot
%%EndObject

epage
end

showpage

%%Trailer
%%EOF
