%!PS-Adobe-3.0 EPSF-3.0
%%Creator: MATLAB, The Mathworks, Inc. Version 7.7.0.471 (R2008b). Operating System: Microsoft Windows XP.
%%Title: Pictures\main_zoo_mvar_analysis_data_BMI_xcorr_bmig_p1_k2_7_9.eps
%%CreationDate: 10/26/2009  05:45:35
%%DocumentNeededFonts: Helvetica
%%DocumentProcessColors: Cyan Magenta Yellow Black
%%LanguageLevel: 2
%%Pages: 1
%%BoundingBox:    37   180   549   616
%%EndComments

%%BeginProlog
% MathWorks dictionary
/MathWorks 160 dict begin
% definition operators
/bdef {bind def} bind def
/ldef {load def} bind def
/xdef {exch def} bdef
/xstore {exch store} bdef
% operator abbreviations
/c  /clip ldef
/cc /concat ldef
/cp /closepath ldef
/gr /grestore ldef
/gs /gsave ldef
/mt /moveto ldef
/np /newpath ldef
/cm /currentmatrix ldef
/sm /setmatrix ldef
/rm /rmoveto ldef
/rl /rlineto ldef
/s {show newpath} bdef
/sc {setcmykcolor} bdef
/sr /setrgbcolor ldef
/sg /setgray ldef
/w /setlinewidth ldef
/j /setlinejoin ldef
/cap /setlinecap ldef
/rc {rectclip} bdef
/rf {rectfill} bdef
% page state control
/pgsv () def
/bpage {/pgsv save def} bdef
/epage {pgsv restore} bdef
/bplot /gsave ldef
/eplot {stroke grestore} bdef
% orientation switch
/portraitMode 0 def /landscapeMode 1 def /rotateMode 2 def
% coordinate system mappings
/dpi2point 0 def
% font control
/FontSize 0 def
/FMS {/FontSize xstore findfont [FontSize 0 0 FontSize neg 0 0]
  makefont setfont} bdef
/ISOLatin1Encoding where {pop /WindowsLatin1Encoding 256 array bdef
ISOLatin1Encoding WindowsLatin1Encoding copy pop
/.notdef/.notdef/quotesinglbase/florin/quotedblbase/ellipsis/dagger
/daggerdbl/circumflex/perthousand/Scaron/guilsinglleft/OE/.notdef/.notdef
/.notdef/.notdef/quoteleft/quoteright/quotedblleft/quotedblright/bullet
/endash/emdash/tilde/trademark/scaron/guilsinglright/oe/.notdef/.notdef
/Ydieresis WindowsLatin1Encoding 128 32 getinterval astore pop}
{/WindowsLatin1Encoding StandardEncoding bdef} ifelse
/reencode {exch dup where {pop load} {pop StandardEncoding} ifelse
  exch dup 3 1 roll findfont dup length dict begin
  { 1 index /FID ne {def}{pop pop} ifelse } forall
  /Encoding exch def currentdict end definefont pop} bdef
/isroman {findfont /CharStrings get /Agrave known} bdef
/FMSR {3 1 roll 1 index dup isroman {reencode} {pop pop} ifelse
  exch FMS} bdef
/csm {1 dpi2point div -1 dpi2point div scale neg translate
 dup landscapeMode eq {pop -90 rotate}
  {rotateMode eq {90 rotate} if} ifelse} bdef
% line types: solid, dotted, dashed, dotdash
/SO { [] 0 setdash } bdef
/DO { [.5 dpi2point mul 4 dpi2point mul] 0 setdash } bdef
/DA { [6 dpi2point mul] 0 setdash } bdef
/DD { [.5 dpi2point mul 4 dpi2point mul 6 dpi2point mul 4
  dpi2point mul] 0 setdash } bdef
% macros for lines and objects
/L {lineto stroke} bdef
/MP {3 1 roll moveto 1 sub {rlineto} repeat} bdef
/AP {{rlineto} repeat} bdef
/PDlw -1 def
/W {/PDlw currentlinewidth def setlinewidth} def
/PP {closepath eofill} bdef
/DP {closepath stroke} bdef
/MR {4 -2 roll moveto dup  0 exch rlineto exch 0 rlineto
  neg 0 exch rlineto closepath} bdef
/FR {MR stroke} bdef
/PR {MR fill} bdef
/L1i {{currentfile picstr readhexstring pop} image} bdef
/tMatrix matrix def
/MakeOval {newpath tMatrix currentmatrix pop translate scale
0 0 1 0 360 arc tMatrix setmatrix} bdef
/FO {MakeOval stroke} bdef
/PO {MakeOval fill} bdef
/PD {currentlinewidth 2 div 0 360 arc fill
   PDlw -1 eq not {PDlw w /PDlw -1 def} if} def
/FA {newpath tMatrix currentmatrix pop translate scale
  0 0 1 5 -2 roll arc tMatrix setmatrix stroke} bdef
/PA {newpath tMatrix currentmatrix pop	translate 0 0 moveto scale
  0 0 1 5 -2 roll arc closepath tMatrix setmatrix fill} bdef
/FAn {newpath tMatrix currentmatrix pop translate scale
  0 0 1 5 -2 roll arcn tMatrix setmatrix stroke} bdef
/PAn {newpath tMatrix currentmatrix pop translate 0 0 moveto scale
  0 0 1 5 -2 roll arcn closepath tMatrix setmatrix fill} bdef
/vradius 0 def /hradius 0 def /lry 0 def
/lrx 0 def /uly 0 def /ulx 0 def /rad 0 def
/MRR {/vradius xdef /hradius xdef /lry xdef /lrx xdef /uly xdef
  /ulx xdef newpath tMatrix currentmatrix pop ulx hradius add uly
  vradius add translate hradius vradius scale 0 0 1 180 270 arc 
  tMatrix setmatrix lrx hradius sub uly vradius add translate
  hradius vradius scale 0 0 1 270 360 arc tMatrix setmatrix
  lrx hradius sub lry vradius sub translate hradius vradius scale
  0 0 1 0 90 arc tMatrix setmatrix ulx hradius add lry vradius sub
  translate hradius vradius scale 0 0 1 90 180 arc tMatrix setmatrix
  closepath} bdef
/FRR {MRR stroke } bdef
/PRR {MRR fill } bdef
/MlrRR {/lry xdef /lrx xdef /uly xdef /ulx xdef /rad lry uly sub 2 div def
  newpath tMatrix currentmatrix pop ulx rad add uly rad add translate
  rad rad scale 0 0 1 90 270 arc tMatrix setmatrix lrx rad sub lry rad
  sub translate rad rad scale 0 0 1 270 90 arc tMatrix setmatrix
  closepath} bdef
/FlrRR {MlrRR stroke } bdef
/PlrRR {MlrRR fill } bdef
/MtbRR {/lry xdef /lrx xdef /uly xdef /ulx xdef /rad lrx ulx sub 2 div def
  newpath tMatrix currentmatrix pop ulx rad add uly rad add translate
  rad rad scale 0 0 1 180 360 arc tMatrix setmatrix lrx rad sub lry rad
  sub translate rad rad scale 0 0 1 0 180 arc tMatrix setmatrix
  closepath} bdef
/FtbRR {MtbRR stroke } bdef
/PtbRR {MtbRR fill } bdef
/stri 6 array def /dtri 6 array def
/smat 6 array def /dmat 6 array def
/tmat1 6 array def /tmat2 6 array def /dif 3 array def
/asub {/ind2 exch def /ind1 exch def dup dup
  ind1 get exch ind2 get sub exch } bdef
/tri_to_matrix {
  2 0 asub 3 1 asub 4 0 asub 5 1 asub
  dup 0 get exch 1 get 7 -1 roll astore } bdef
/compute_transform {
  dmat dtri tri_to_matrix tmat1 invertmatrix 
  smat stri tri_to_matrix tmat2 concatmatrix } bdef
/ds {stri astore pop} bdef
/dt {dtri astore pop} bdef
/db {2 copy /cols xdef /rows xdef mul dup 3 mul string
  currentfile 
  3 index 0 eq {/ASCIIHexDecode filter}
  {/ASCII85Decode filter 3 index 2 eq {/RunLengthDecode filter} if }
  ifelse exch readstring pop
  dup 0 3 index getinterval /rbmap xdef
  dup 2 index dup getinterval /gbmap xdef
  1 index dup 2 mul exch getinterval /bbmap xdef pop pop}bdef
/it {gs np dtri aload pop moveto lineto lineto cp c
  cols rows 8 compute_transform 
  rbmap gbmap bbmap true 3 colorimage gr}bdef
/il {newpath moveto lineto stroke}bdef
currentdict end def
%%EndProlog

%%BeginSetup
MathWorks begin

0 cap

end
%%EndSetup

%%Page: 1 1
%%BeginPageSetup
%%PageBoundingBox:    37   180   549   616
MathWorks begin
bpage
%%EndPageSetup

%%BeginObject: obj1
bplot

/dpi2point 12 def
portraitMode 0216 7344 csm

  234   -48  6149  5231 rc
85 dict begin %Colortable dictionary
/c0 { 0.000000 0.000000 0.000000 sr} bdef
/c1 { 1.000000 1.000000 1.000000 sr} bdef
/c2 { 0.900000 0.000000 0.000000 sr} bdef
/c3 { 0.000000 0.820000 0.000000 sr} bdef
/c4 { 0.000000 0.000000 0.800000 sr} bdef
/c5 { 0.910000 0.820000 0.320000 sr} bdef
/c6 { 1.000000 0.260000 0.820000 sr} bdef
/c7 { 0.000000 0.820000 0.820000 sr} bdef
c0
1 j
1 sg
   0    0 6919 5187 rf
6 w
0 4202 5362 0 0 -4202 899 4616 4 MP
PP
-5362 0 0 4202 5362 0 0 -4202 899 4616 5 MP stroke
4 w
DO
SO
6 w
0 sg
 899  414 mt 6261  414 L
 899 4616 mt 6261 4616 L
6261 4616 mt 6261  414 L
 899 4616 mt  899  414 L
 899 4616 mt 6261 4616 L
 899 4616 mt  899  414 L
 919 4616 mt  919 4562 L
 919  414 mt  919  467 L
%%IncludeResource: font Helvetica
/Helvetica /WindowsLatin1Encoding 240 FMSR

 713 4873 mt 
(-3) s
1806 4616 mt 1806 4562 L
1806  414 mt 1806  467 L
1600 4873 mt 
(-2) s
2693 4616 mt 2693 4562 L
2693  414 mt 2693  467 L
2487 4873 mt 
(-1) s
3580 4616 mt 3580 4562 L
3580  414 mt 3580  467 L
3514 4873 mt 
(0) s
4466 4616 mt 4466 4562 L
4466  414 mt 4466  467 L
4400 4873 mt 
(1) s
5353 4616 mt 5353 4562 L
5353  414 mt 5353  467 L
5287 4873 mt 
(2) s
6240 4616 mt 6240 4562 L
6240  414 mt 6240  467 L
6174 4873 mt 
(3) s
 899 4599 mt  952 4599 L
6261 4599 mt 6207 4599 L
 591 4688 mt 
(-3) s
 899 3904 mt  952 3904 L
6261 3904 mt 6207 3904 L
 591 3993 mt 
(-2) s
 899 3209 mt  952 3209 L
6261 3209 mt 6207 3209 L
 591 3298 mt 
(-1) s
 899 2514 mt  952 2514 L
6261 2514 mt 6207 2514 L
 731 2603 mt 
(0) s
 899 1820 mt  952 1820 L
6261 1820 mt 6207 1820 L
 731 1909 mt 
(1) s
 899 1125 mt  952 1125 L
6261 1125 mt 6207 1125 L
 731 1214 mt 
(2) s
 899  430 mt  952  430 L
6261  430 mt 6207  430 L
 731  519 mt 
(3) s
 899  414 mt 6261  414 L
 899 4616 mt 6261 4616 L
6261 4616 mt 6261  414 L
 899 4616 mt  899  414 L
gs 899 414 5363 4203 rc
gr

/c8 { 0.000000 0.000000 1.000000 sr} bdef
c8
4643 1756 mt 4715 1756 L
4679 1720 mt 4679 1792 L
3826 1930 mt 3898 1930 L
3862 1894 mt 3862 1966 L
2896 2584 mt 2968 2584 L
2932 2548 mt 2932 2620 L
4128 3081 mt 4200 3081 L
4164 3045 mt 4164 3117 L
4597 1816 mt 4669 1816 L
4633 1780 mt 4633 1852 L
3488 2067 mt 3560 2067 L
3524 2031 mt 3524 2103 L
4330 3797 mt 4402 3797 L
4366 3761 mt 4366 3833 L
3342 2405 mt 3414 2405 L
3378 2369 mt 3378 2441 L
4266 1831 mt 4338 1831 L
4302 1795 mt 4302 1867 L
3672 2204 mt 3744 2204 L
3708 2168 mt 3708 2240 L
3768 2180 mt 3840 2180 L
3804 2144 mt 3804 2216 L
3066 2150 mt 3138 2150 L
3102 2114 mt 3102 2186 L
4228 2480 mt 4300 2480 L
4264 2444 mt 4264 2516 L
3717 2467 mt 3789 2467 L
3753 2431 mt 3753 2503 L
4251 2125 mt 4323 2125 L
4287 2089 mt 4287 2161 L
4002 2401 mt 4074 2401 L
4038 2365 mt 4038 2437 L
3027 3625 mt 3099 3625 L
3063 3589 mt 3063 3661 L
1842 2519 mt 1914 2519 L
1878 2483 mt 1878 2555 L
3903 2554 mt 3975 2554 L
3939 2518 mt 3939 2590 L
3499 2624 mt 3571 2624 L
3535 2588 mt 3535 2660 L
3891 3118 mt 3963 3118 L
3927 3082 mt 3927 3154 L
1907 3908 mt 1979 3908 L
1943 3872 mt 1943 3944 L
4501 2275 mt 4573 2275 L
4537 2239 mt 4537 2311 L
3728 2462 mt 3800 2462 L
3764 2426 mt 3764 2498 L
4021 2884 mt 4093 2884 L
4057 2848 mt 4057 2920 L
3588 2145 mt 3660 2145 L
3624 2109 mt 3624 2181 L
3527 2967 mt 3599 2967 L
3563 2931 mt 3563 3003 L
3897 3322 mt 3969 3322 L
3933 3286 mt 3933 3358 L
4463 1680 mt 4535 1680 L
4499 1644 mt 4499 1716 L
3879 1990 mt 3951 1990 L
3915 1954 mt 3915 2026 L
3376 2619 mt 3448 2619 L
3412 2583 mt 3412 2655 L
3934 1748 mt 4006 1748 L
3970 1712 mt 3970 1784 L
3307 2214 mt 3379 2214 L
3343 2178 mt 3343 2250 L
3129 3112 mt 3201 3112 L
3165 3076 mt 3165 3148 L
4574 1995 mt 4646 1995 L
4610 1959 mt 4610 2031 L
3135 2104 mt 3207 2104 L
3171 2068 mt 3171 2140 L
3460 2637 mt 3532 2637 L
3496 2601 mt 3496 2673 L
4221 2493 mt 4293 2493 L
4257 2457 mt 4257 2529 L
4981 2536 mt 5053 2536 L
5017 2500 mt 5017 2572 L
4381 2655 mt 4453 2655 L
4417 2619 mt 4417 2691 L
3040 2279 mt 3112 2279 L
3076 2243 mt 3076 2315 L
5096 1462 mt 5168 1462 L
5132 1426 mt 5132 1498 L
3774 2199 mt 3846 2199 L
3810 2163 mt 3810 2235 L
2479 3297 mt 2551 3297 L
2515 3261 mt 2515 3333 L
2903 3540 mt 2975 3540 L
2939 3504 mt 2939 3576 L
3694 3848 mt 3766 3848 L
3730 3812 mt 3730 3884 L
4453 2165 mt 4525 2165 L
4489 2129 mt 4489 2201 L
3538 3386 mt 3610 3386 L
3574 3350 mt 3574 3422 L
2866 2849 mt 2938 2849 L
2902 2813 mt 2902 2885 L
3421 2951 mt 3493 2951 L
3457 2915 mt 3457 2987 L
3820 3553 mt 3892 3553 L
3856 3517 mt 3856 3589 L
3740 1538 mt 3812 1538 L
3776 1502 mt 3776 1574 L
3098 2347 mt 3170 2347 L
3134 2311 mt 3134 2383 L
3410 2782 mt 3482 2782 L
3446 2746 mt 3446 2818 L
3398 1049 mt 3470 1049 L
3434 1013 mt 3434 1085 L
2959 2545 mt 3031 2545 L
2995 2509 mt 2995 2581 L
3661 1966 mt 3733 1966 L
3697 1930 mt 3697 2002 L
3330 1723 mt 3402 1723 L
3366 1687 mt 3366 1759 L
4259 2293 mt 4331 2293 L
4295 2257 mt 4295 2329 L
3757 2423 mt 3829 2423 L
3793 2387 mt 3793 2459 L
2420 3877 mt 2492 3877 L
2456 3841 mt 2456 3913 L
3915 1787 mt 3987 1787 L
3951 1751 mt 3951 1823 L
2327 3515 mt 2399 3515 L
2363 3479 mt 2363 3551 L
4435 2488 mt 4507 2488 L
4471 2452 mt 4471 2524 L
3237 1936 mt 3309 1936 L
3273 1900 mt 3273 1972 L
3393 2361 mt 3465 2361 L
3429 2325 mt 3429 2397 L
3838 1858 mt 3910 1858 L
3874 1822 mt 3874 1894 L
3964 2611 mt 4036 2611 L
4000 2575 mt 4000 2647 L
4390 2012 mt 4462 2012 L
4426 1976 mt 4426 2048 L
5245 2218 mt 5317 2218 L
5281 2182 mt 5281 2254 L
4338 3213 mt 4410 3213 L
4374 3177 mt 4374 3249 L
2987 2874 mt 3059 2874 L
3023 2838 mt 3023 2910 L
3432 3273 mt 3504 3273 L
3468 3237 mt 3468 3309 L
5047 1624 mt 5119 1624 L
5083 1588 mt 5083 1660 L
3745 2029 mt 3817 2029 L
3781 1993 mt 3781 2065 L
1556 3479 mt 1628 3479 L
1592 3443 mt 1592 3515 L
2697 2709 mt 2769 2709 L
2733 2673 mt 2733 2745 L
5024 2379 mt 5096 2379 L
5060 2343 mt 5060 2415 L
4149 1978 mt 4221 1978 L
4185 1942 mt 4185 2014 L
4163 2956 mt 4235 2956 L
4199 2920 mt 4199 2992 L
4444 1593 mt 4516 1593 L
4480 1557 mt 4480 1629 L
2235 2549 mt 2307 2549 L
2271 2513 mt 2271 2585 L
3296 3011 mt 3368 3011 L
3332 2975 mt 3332 3047 L
5365 1152 mt 5437 1152 L
5401 1116 mt 5401 1188 L
4236 2325 mt 4308 2325 L
4272 2289 mt 4272 2361 L
2201 2677 mt 2273 2677 L
2237 2641 mt 2237 2713 L
4904 1972 mt 4976 1972 L
4940 1936 mt 4940 2008 L
3359 2135 mt 3431 2135 L
3395 2099 mt 3395 2171 L
2381 3595 mt 2453 3595 L
2417 3559 mt 2417 3631 L
5211 2668 mt 5283 2668 L
5247 2632 mt 5247 2704 L
4836 2343 mt 4908 2343 L
4872 2307 mt 4872 2379 L
4407 1845 mt 4479 1845 L
4443 1809 mt 4443 1881 L
3996 2209 mt 4068 2209 L
4032 2173 mt 4032 2245 L
3493 2830 mt 3565 2830 L
3529 2794 mt 3529 2866 L
3153 3157 mt 3225 3157 L
3189 3121 mt 3189 3193 L
3449 3752 mt 3521 3752 L
3485 3716 mt 3485 3788 L
3560 3075 mt 3632 3075 L
3596 3039 mt 3596 3111 L
4619 1489 mt 4691 1489 L
4655 1453 mt 4655 1525 L
1805 2745 mt 1877 2745 L
1841 2709 mt 1841 2781 L
4820 1604 mt 4892 1604 L
4856 1568 mt 4856 1640 L
4074 2185 mt 4146 2185 L
4110 2149 mt 4110 2221 L
3555 2475 mt 3627 2475 L
3591 2439 mt 3591 2511 L
2407 2899 mt 2479 2899 L
2443 2863 mt 2443 2935 L
1481 3641 mt 1553 3641 L
1517 3605 mt 1517 3677 L
3123 2704 mt 3195 2704 L
3159 2668 mt 3159 2740 L
4355 1643 mt 4427 1643 L
4391 1607 mt 4391 1679 L
4364 2307 mt 4436 2307 L
4400 2271 mt 4400 2343 L
4015 2194 mt 4087 2194 L
4051 2158 mt 4051 2230 L
3232 2736 mt 3304 2736 L
3268 2700 mt 3268 2772 L
3594 2170 mt 3666 2170 L
3630 2134 mt 3630 2206 L
2757 2288 mt 2829 2288 L
2793 2252 mt 2793 2324 L
3220 1277 mt 3292 1277 L
3256 1241 mt 3256 1313 L
2444 2713 mt 2516 2713 L
2480 2677 mt 2480 2749 L
4306 2265 mt 4378 2265 L
4342 2229 mt 4342 2301 L
2282 3022 mt 2354 3022 L
2318 2986 mt 2318 3058 L
2859 2962 mt 2931 2962 L
2895 2926 mt 2895 2998 L
4719 1794 mt 4791 1794 L
4755 1758 mt 4755 1830 L
3797 3250 mt 3869 3250 L
3833 3214 mt 3833 3286 L
3059 2458 mt 3131 2458 L
3095 2422 mt 3095 2494 L
3711 2682 mt 3783 2682 L
3747 2646 mt 3747 2718 L
3832 2374 mt 3904 2374 L
3868 2338 mt 3868 2410 L
3809 1448 mt 3881 1448 L
3845 1412 mt 3845 1484 L
4041 2040 mt 4113 2040 L
4077 2004 mt 4077 2076 L
4156 2338 mt 4228 2338 L
4192 2302 mt 4192 2374 L
2394 1838 mt 2466 1838 L
2430 1802 mt 2430 1874 L
3605 2449 mt 3677 2449 L
3641 2413 mt 3641 2485 L
3633 3039 mt 3705 3039 L
3669 3003 mt 3669 3075 L
3249 2396 mt 3321 2396 L
3285 2360 mt 3285 2432 L
4009 2298 mt 4081 2298 L
4045 2262 mt 4045 2334 L
2165 2115 mt 2237 2115 L
2201 2079 mt 2201 2151 L
3946 2365 mt 4018 2365 L
3982 2329 mt 3982 2401 L
2749 2778 mt 2821 2778 L
2785 2742 mt 2785 2814 L
3387 3125 mt 3459 3125 L
3423 3089 mt 3423 3161 L
2821 2510 mt 2893 2510 L
2857 2474 mt 2857 2546 L
3566 2392 mt 3638 2392 L
3602 2356 mt 3602 2428 L
2126 1917 mt 2198 1917 L
2162 1881 mt 2162 1953 L
2218 4072 mt 2290 4072 L
2254 4036 mt 2254 4108 L
3814 1872 mt 3886 1872 L
3850 1836 mt 3850 1908 L
3141 1911 mt 3213 1911 L
3177 1875 mt 3177 1947 L
4135 2869 mt 4207 2869 L
4171 2833 mt 4171 2905 L
3780 2741 mt 3852 2741 L
3816 2705 mt 3816 2777 L
4667 1802 mt 4739 1802 L
4703 1766 mt 4703 1838 L
3638 3227 mt 3710 3227 L
3674 3191 mt 3674 3263 L
3873 2130 mt 3945 2130 L
3909 2094 mt 3909 2166 L
4522 2633 mt 4594 2633 L
4558 2597 mt 4558 2669 L
3471 2414 mt 3543 2414 L
3507 2378 mt 3507 2450 L
3208 2320 mt 3280 2320 L
3244 2284 mt 3244 2356 L
4886 1698 mt 4958 1698 L
4922 1662 mt 4922 1734 L
4398 1942 mt 4470 1942 L
4434 1906 mt 4434 1978 L
4789 2018 mt 4861 2018 L
4825 1982 mt 4825 2054 L
3952 2311 mt 4024 2311 L
3988 2275 mt 3988 2347 L
2355 2062 mt 2427 2062 L
2391 2026 mt 2391 2098 L
4177 2001 mt 4249 2001 L
4213 1965 mt 4213 2037 L
3477 2571 mt 3549 2571 L
3513 2535 mt 3513 2607 L
4170 2700 mt 4242 2700 L
4206 2664 mt 4206 2736 L
4482 2764 mt 4554 2764 L
4518 2728 mt 4518 2800 L
2312 2695 mt 2384 2695 L
2348 2659 mt 2348 2731 L
2874 3057 mt 2946 3057 L
2910 3021 mt 2910 3093 L
3302 2864 mt 3374 2864 L
3338 2828 mt 3338 2900 L
3261 2994 mt 3333 2994 L
3297 2958 mt 3297 3030 L
2924 2792 mt 2996 2792 L
2960 2756 mt 2960 2828 L
1991 2806 mt 2063 2806 L
2027 2770 mt 2027 2842 L
3734 2256 mt 3806 2256 L
3770 2220 mt 3770 2292 L
3278 2242 mt 3350 2242 L
3314 2206 mt 3314 2278 L
4512 1662 mt 4584 1662 L
4548 1626 mt 4548 1698 L
3983 1878 mt 4055 1878 L
4019 1842 mt 4019 1914 L
2723 2811 mt 2795 2811 L
2759 2775 mt 2759 2847 L
3516 2593 mt 3588 2593 L
3552 2557 mt 3552 2629 L
5468 1572 mt 5540 1572 L
5504 1536 mt 5504 1608 L
4347 2261 mt 4419 2261 L
4383 2225 mt 4383 2297 L
4372  957 mt 4444  957 L
4408  921 mt 4408  993 L
4585 1583 mt 4657 1583 L
4621 1547 mt 4621 1619 L
3927 2237 mt 3999 2237 L
3963 2201 mt 3963 2273 L
3909 2051 mt 3981 2051 L
3945 2015 mt 3945 2087 L
3104 3610 mt 3176 3610 L
3140 3574 mt 3140 3646 L
3706 1671 mt 3778 1671 L
3742 1635 mt 3742 1707 L
3940 1740 mt 4012 1740 L
3976 1704 mt 3976 1776 L
3190 1948 mt 3262 1948 L
3226 1912 mt 3226 1984 L
3844 2659 mt 3916 2659 L
3880 2623 mt 3880 2695 L
4655 1614 mt 4727 1614 L
4691 1578 mt 4691 1650 L
3267 2506 mt 3339 2506 L
3303 2470 mt 3303 2542 L
2715 2889 mt 2787 2889 L
2751 2853 mt 2751 2925 L
4087 1419 mt 4159 1419 L
4123 1383 mt 4123 1455 L
2836 3087 mt 2908 3087 L
2872 3051 mt 2872 3123 L
4100 3164 mt 4172 3164 L
4136 3128 mt 4136 3200 L
2966 1318 mt 3038 1318 L
3002 1282 mt 3002 1354 L
3621 2514 mt 3693 2514 L
3657 2478 mt 3657 2550 L
3178 2370 mt 3250 2370 L
3214 2334 mt 3214 2406 L
4542 1561 mt 4614 1561 L
4578 1525 mt 4578 1597 L
2828 2284 mt 2900 2284 L
2864 2248 mt 2864 2320 L
2251 2615 mt 2323 2615 L
2287 2579 mt 2287 2651 L
2781 2840 mt 2853 2840 L
2817 2804 mt 2817 2876 L
4553 2189 mt 4625 2189 L
4589 2153 mt 4589 2225 L
4054 1689 mt 4126 1689 L
4090 1653 mt 4090 1725 L
4775 1087 mt 4847 1087 L
4811 1051 mt 4811 1123 L
4693 2007 mt 4765 2007 L
4729 1971 mt 4729 2043 L
3415 3567 mt 3487 3567 L
3451 3531 mt 3451 3603 L
4706 1779 mt 4778 1779 L
4742 1743 mt 4742 1815 L
3571 2801 mt 3643 2801 L
3607 2765 mt 3607 2837 L
3226 2083 mt 3298 2083 L
3262 2047 mt 3262 2119 L
4472 1885 mt 4544 1885 L
4508 1849 mt 4508 1921 L
4732 1764 mt 4804 1764 L
4768 1728 mt 4768 1800 L
3989 2935 mt 4061 2935 L
4025 2899 mt 4025 2971 L
3110 2691 mt 3182 2691 L
3146 2655 mt 3146 2727 L
4425 1904 mt 4497 1904 L
4461 1868 mt 4461 1940 L
3313 2562 mt 3385 2562 L
3349 2526 mt 3349 2598 L
3196 3503 mt 3268 3503 L
3232 3467 mt 3232 3539 L
2513 2731 mt 2585 2731 L
2549 2695 mt 2549 2767 L
6225  414 mt 6297  414 L
6261  378 mt 6261  450 L
2341 3349 mt 2413 3349 L
2377 3313 mt 2377 3385 L
4941 1121 mt 5013 1121 L
4977 1085 mt 4977 1157 L
3353 2727 mt 3425 2727 L
3389 2691 mt 3389 2763 L
4564 1851 mt 4636 1851 L
4600 1815 mt 4600 1887 L
3510 3774 mt 3582 3774 L
3546 3738 mt 3546 3810 L
4760 1232 mt 4832 1232 L
4796 1196 mt 4796 1268 L
2634 2247 mt 2706 2247 L
2670 2211 mt 2670 2283 L
5413 2946 mt 5485 2946 L
5449 2910 mt 5449 2982 L
2797 3491 mt 2869 3491 L
2833 3455 mt 2833 3527 L
1674 1434 mt 1746 1434 L
1710 1398 mt 1710 1470 L
3255 2879 mt 3327 2879 L
3291 2843 mt 3291 2915 L
3085 1388 mt 3157 1388 L
3121 1352 mt 3121 1424 L
4243 2453 mt 4315 2453 L
4279 2417 mt 4279 2489 L
3577 2484 mt 3649 2484 L
3613 2448 mt 3613 2520 L
1937 3151 mt 2009 3151 L
1973 3115 mt 1973 3187 L
2993 3281 mt 3065 3281 L
3029 3245 mt 3029 3317 L
3803 2418 mt 3875 2418 L
3839 2382 mt 3839 2454 L
4028 2035 mt 4100 2035 L
4064 1999 mt 4064 2071 L
4094 2445 mt 4166 2445 L
4130 2409 mt 4130 2481 L
3850 1865 mt 3922 1865 L
3886 1829 mt 3886 1901 L
3347 2471 mt 3419 2471 L
3383 2435 mt 3383 2507 L
1722 3206 mt 1794 3206 L
1758 3170 mt 1758 3242 L
3053 3184 mt 3125 3184 L
3089 3148 mt 3089 3220 L
3013 2650 mt 3085 2650 L
3049 2614 mt 3049 2686 L
3689 2302 mt 3761 2302 L
3725 2266 mt 3725 2338 L
5531 1404 mt 5603 1404 L
5567 1368 mt 5567 1440 L
3610 3257 mt 3682 3257 L
3646 3221 mt 3646 3293 L
2732 3178 mt 2804 3178 L
2768 3142 mt 2768 3214 L
3007 2920 mt 3079 2920 L
3043 2884 mt 3043 2956 L
4282 2641 mt 4354 2641 L
4318 2605 mt 4318 2677 L
4121 2094 mt 4193 2094 L
4157 2058 mt 4157 2130 L
2813 3942 mt 2885 3942 L
2849 3906 mt 2849 3978 L
3243 2155 mt 3315 2155 L
3279 2119 mt 3279 2191 L
3861 2602 mt 3933 2602 L
3897 2566 mt 3897 2638 L
5321 2909 mt 5393 2909 L
5357 2873 mt 5357 2945 L
1387 2754 mt 1459 2754 L
1423 2718 mt 1423 2790 L
3958 3028 mt 4030 3028 L
3994 2992 mt 3994 3064 L
3426 1653 mt 3498 1653 L
3462 1617 mt 3462 1689 L
4274 2787 mt 4346 2787 L
4310 2751 mt 4310 2823 L
5606 2773 mt 5678 2773 L
5642 2737 mt 5642 2809 L
2545 3468 mt 2617 3468 L
2581 3432 mt 2581 3504 L
1965 3581 mt 2037 3581 L
2001 3545 mt 2001 3617 L
3921 2228 mt 3993 2228 L
3957 2192 mt 3957 2264 L
3723 2497 mt 3795 2497 L
3759 2461 mt 3759 2533 L
3072 3137 mt 3144 3137 L
3108 3101 mt 3108 3173 L
3404 1898 mt 3476 1898 L
3440 1862 mt 3440 1934 L
2016 3340 mt 2088 3340 L
2052 3304 mt 2052 3376 L
4416 2835 mt 4488 2835 L
4452 2799 mt 4452 2871 L
2931 1476 mt 3003 1476 L
2967 1440 mt 2967 1512 L
4114 1298 mt 4186 1298 L
4150 1262 mt 4150 1334 L
3655 2334 mt 3727 2334 L
3691 2298 mt 3691 2370 L
2662 2750 mt 2734 2750 L
2698 2714 mt 2698 2786 L
4184 2523 mt 4256 2523 L
4220 2487 mt 4220 2559 L
3666 2628 mt 3738 2628 L
3702 2592 mt 3702 2664 L
2534 3144 mt 2606 3144 L
2570 3108 mt 2570 3180 L
4746 2646 mt 4818 2646 L
4782 2610 mt 4782 2682 L
2605 2432 mt 2677 2432 L
2641 2396 mt 2641 2468 L
2624 2664 mt 2696 2664 L
2660 2628 mt 2660 2700 L
4290 1336 mt 4362 1336 L
4326 1300 mt 4326 1372 L
5002 1634 mt 5074 1634 L
5038 1598 mt 5038 1670 L
3370 2844 mt 3442 2844 L
3406 2808 mt 3406 2880 L
4532 2120 mt 4604 2120 L
4568 2084 mt 4568 2156 L
2368 2356 mt 2440 2356 L
2404 2320 mt 2404 2392 L
2468 3367 mt 2540 3367 L
2504 3331 mt 2504 3403 L
4869 1707 mt 4941 1707 L
4905 1671 mt 4905 1743 L
3521 1371 mt 3593 1371 L
3557 1335 mt 3557 1407 L
 863 3675 mt  935 3675 L
 899 3639 mt  899 3711 L
3273 2436 mt 3345 2436 L
3309 2400 mt 3309 2472 L
4199 2427 mt 4271 2427 L
4235 2391 mt 4235 2463 L
3582 2078 mt 3654 2078 L
3618 2042 mt 3618 2114 L
5282 1006 mt 5354 1006 L
5318  970 mt 5318 1042 L
3202 2972 mt 3274 2972 L
3238 2936 mt 3238 3008 L
3319 2073 mt 3391 2073 L
3355 2037 mt 3355 2109 L
2805 4023 mt 2877 4023 L
2841 3987 mt 2841 4059 L
3791 2352 mt 3863 2352 L
3827 2316 mt 3827 2388 L
3505 3415 mt 3577 3415 L
3541 3379 mt 3541 3451 L
4805  724 mt 4877  724 L
4841  688 mt 4841  760 L
4961 2089 mt 5033 2089 L
4997 2053 mt 4997 2125 L
3336 2722 mt 3408 2722 L
3372 2686 mt 3372 2758 L
2490 3242 mt 2562 3242 L
2526 3206 mt 2526 3278 L
3438 3425 mt 3510 3425 L
3474 3389 mt 3474 3461 L
3616 3000 mt 3688 3000 L
3652 2964 mt 3652 3036 L
4314 2501 mt 4386 2501 L
4350 2465 mt 4350 2537 L
3762 2099 mt 3834 2099 L
3798 2063 mt 3798 2135 L
2575 3822 mt 2647 3822 L
2611 3786 mt 2611 3858 L
3867 2270 mt 3939 2270 L
3903 2234 mt 3903 2306 L
2680 3980 mt 2752 3980 L
2716 3944 mt 2716 4016 L
2298 3034 mt 2370 3034 L
2334 2998 mt 2334 3070 L
5828 1550 mt 5900 1550 L
5864 1514 mt 5864 1586 L
2085 2718 mt 2157 2718 L
2121 2682 mt 2121 2754 L
4080 2576 mt 4152 2576 L
4116 2540 mt 4116 2612 L
3885 1984 mt 3957 1984 L
3921 1948 mt 3921 2020 L
2652 2940 mt 2724 2940 L
2688 2904 mt 2688 2976 L
3160 2233 mt 3232 2233 L
3196 2197 mt 3196 2269 L
2432 3099 mt 2504 3099 L
2468 3063 mt 2468 3135 L
3454 2580 mt 3526 2580 L
3490 2544 mt 3490 2616 L
2980 4616 mt 3052 4616 L
3016 4580 mt 3016 4652 L
4142 1255 mt 4214 1255 L
4178 1219 mt 4178 1291 L
3599 3051 mt 3671 3051 L
3635 3015 mt 3635 3087 L
2643 3376 mt 2715 3376 L
2679 3340 mt 2679 3412 L
2952 2930 mt 3024 2930 L
2988 2894 mt 2988 2966 L
4206 2160 mt 4278 2160 L
4242 2124 mt 4242 2196 L
2040 3191 mt 2112 3191 L
2076 3155 mt 2076 3227 L
2586 1732 mt 2658 1732 L
2622 1696 mt 2622 1768 L
3284 3405 mt 3356 3405 L
3320 3369 mt 3320 3441 L
2881 4131 mt 2953 4131 L
2917 4095 mt 2917 4167 L
3033 2983 mt 3105 2983 L
3069 2947 mt 3069 3019 L
3627 2606 mt 3699 2606 L
3663 2570 mt 3663 2642 L
3381 3265 mt 3453 3265 L
3417 3229 mt 3417 3301 L
3466 2383 mt 3538 2383 L
3502 2347 mt 3502 2419 L
5700 1514 mt 5772 1514 L
5736 1478 mt 5736 1550 L
3683 2046 mt 3755 2046 L
3719 2010 mt 3719 2082 L
3078 3131 mt 3150 3131 L
3114 3095 mt 3114 3167 L
3644 2024 mt 3716 2024 L
3680 1988 mt 3680 2060 L
3649 2978 mt 3721 2978 L
3685 2942 mt 3685 3014 L
4631  564 mt 4703  564 L
4667  528 mt 4667  600 L
3532 1823 mt 3604 1823 L
3568 1787 mt 3568 1859 L
1259 3235 mt 1331 3235 L
1295 3199 mt 1295 3271 L
2773 2989 mt 2845 2989 L
2809 2953 mt 2809 3025 L
2267 2316 mt 2339 2316 L
2303 2280 mt 2303 2352 L
3751 3436 mt 3823 3436 L
3787 3400 mt 3787 3472 L
4322 1207 mt 4394 1207 L
4358 1171 mt 4358 1243 L
2555 2854 mt 2627 2854 L
2591 2818 mt 2591 2890 L
3544 2567 mt 3616 2567 L
3580 2531 mt 3580 2603 L
2945 2440 mt 3017 2440 L
2981 2404 mt 2981 2476 L
3549 1715 mt 3621 1715 L
3585 1679 mt 3585 1751 L
2789 2558 mt 2861 2558 L
2825 2522 mt 2825 2594 L
3482 3017 mt 3554 3017 L
3518 2981 mt 3518 3053 L
4922 2759 mt 4994 2759 L
4958 2723 mt 4958 2795 L
2851 2768 mt 2923 2768 L
2887 2732 mt 2887 2804 L
3677 3063 mt 3749 3063 L
3713 3027 mt 3713 3099 L
5150 2329 mt 5222 2329 L
5186 2293 mt 5186 2365 L
4191 2796 mt 4263 2796 L
4227 2760 mt 4227 2832 L
2615 3289 mt 2687 3289 L
2651 3253 mt 2651 3325 L
4060 3198 mt 4132 3198 L
4096 3162 mt 4096 3234 L
4608 3106 mt 4680 3106 L
4644 3070 mt 4644 3142 L
3046 2589 mt 3118 2589 L
3082 2553 mt 3082 2625 L
2146 1772 mt 2218 1772 L
2182 1736 mt 2182 1808 L
2938 1502 mt 3010 1502 L
2974 1466 mt 2974 1538 L
4067 2140 mt 4139 2140 L
4103 2104 mt 4103 2176 L
1766 2925 mt 1838 2925 L
1802 2889 mt 1802 2961 L
3855 2109 mt 3927 2109 L
3891 2073 mt 3891 2145 L
2523 3457 mt 2595 3457 L
2559 3421 mt 2559 3493 L
2888 1526 mt 2960 1526 L
2924 1490 mt 2924 1562 L
3325 4205 mt 3397 4205 L
3361 4169 mt 3361 4241 L
4680  824 mt 4752  824 L
4716  788 mt 4716  860 L
5180  898 mt 5252  898 L
5216  862 mt 5216  934 L
2671 2251 mt 2743 2251 L
2707 2215 mt 2707 2287 L
2502 3711 mt 2574 3711 L
2538 3675 mt 2538 3747 L
3091 3306 mt 3163 3306 L
3127 3270 mt 3127 3342 L
3214 3171 mt 3286 3171 L
3250 3135 mt 3250 3207 L
1619 3731 mt 1691 3731 L
1655 3695 mt 1655 3767 L
3785 2410 mt 3857 2410 L
3821 2374 mt 3821 2446 L
6033 2914 mt 6105 2914 L
6069 2878 mt 6069 2950 L
3166 1354 mt 3238 1354 L
3202 1318 mt 3202 1390 L
3000 2820 mt 3072 2820 L
3036 2784 mt 3036 2856 L
2917 4305 mt 2989 4305 L
2953 4269 mt 2953 4341 L
2706 3658 mt 2778 3658 L
2742 3622 mt 2742 3694 L
2063 2825 mt 2135 2825 L
2099 2789 mt 2099 2861 L
1876 1954 mt 1948 1954 L
1912 1918 mt 1912 1990 L
3977 2686 mt 4049 2686 L
4013 2650 mt 4013 2722 L
2456 3220 mt 2528 3220 L
2492 3184 mt 2492 3256 L
3184 2532 mt 3256 2532 L
3220 2496 mt 3220 2568 L
3443 3005 mt 3515 3005 L
3479 2969 mt 3479 3041 L
2973 2057 mt 3045 2057 L
3009 2021 mt 3009 2093 L
2565 3331 mt 2637 3331 L
2601 3295 mt 2601 3367 L
3971 1892 mt 4043 1892 L
4007 1856 mt 4007 1928 L
3172 3527 mt 3244 3527 L
3208 3491 mt 3208 3563 L
2910 3314 mt 2982 3314 L
2946 3278 mt 2946 3350 L
3290 3693 mt 3362 3693 L
3326 3657 mt 3326 3729 L
2689 3395 mt 2761 3395 L
2725 3359 mt 2725 3431 L
2106 3358 mt 2178 3358 L
2142 3322 mt 2142 3394 L
4034 2894 mt 4106 2894 L
4070 2858 mt 4070 2930 L
4047 2597 mt 4119 2597 L
4083 2561 mt 4083 2633 L
4107 1923 mt 4179 1923 L
4143 1887 mt 4143 1959 L
3700 3045 mt 3772 3045 L
3736 3009 mt 3736 3081 L
2740 2541 mt 2812 2541 L
2776 2505 mt 2776 2577 L
2183 2904 mt 2255 2904 L
2219 2868 mt 2219 2940 L
3147 3093 mt 3219 3093 L
3183 3057 mt 3183 3129 L
2844 3069 mt 2916 3069 L
2880 3033 mt 2880 3105 L
5071 2223 mt 5143 2223 L
5107 2187 mt 5107 2259 L
2595 2528 mt 2667 2528 L
2631 2492 mt 2631 2564 L
3116 2673 mt 3188 2673 L
3152 2637 mt 3152 2709 L
3364 2815 mt 3436 2815 L
3400 2779 mt 3400 2851 L
4213 2175 mt 4285 2175 L
4249 2139 mt 4249 2211 L
4298 1960 mt 4370 1960 L
4334 1924 mt 4334 1996 L
5122 1809 mt 5194 1809 L
5158 1773 mt 5158 1845 L
2765 3446 mt 2837 3446 L
2801 3410 mt 2801 3482 L
4852 1181 mt 4924 1181 L
4888 1145 mt 4888 1217 L
3020 2859 mt 3092 2859 L
3056 2823 mt 3056 2895 L
4492 2388 mt 4564 2388 L
4528 2352 mt 4528 2424 L
gs 899 414 5363 4203 rc
gr

0 sg
2752 5104 mt 
(\(S,LFCC,GMM\)) s
 482 3277 mt  -90 rotate
(\(S,SSC,GMM\)) s
90 rotate
2975  223 mt 
(Corr = 0.51) s

end %%Color Dict

eplot
%%EndObject

epage
end

showpage

%%Trailer
%%EOF
