%!PS-Adobe-3.0 EPSF-3.0
%%Creator: MATLAB, The Mathworks, Inc. Version 7.7.0.471 (R2008b). Operating System: Microsoft Windows XP.
%%Title: Pictures\main_zoo_mvar_analysis_data_BMI_xcorr_bmig_p1_k2_4_9.eps
%%CreationDate: 10/26/2009  05:45:28
%%DocumentNeededFonts: Helvetica
%%DocumentProcessColors: Cyan Magenta Yellow Black
%%LanguageLevel: 2
%%Pages: 1
%%BoundingBox:    37   180   549   616
%%EndComments

%%BeginProlog
% MathWorks dictionary
/MathWorks 160 dict begin
% definition operators
/bdef {bind def} bind def
/ldef {load def} bind def
/xdef {exch def} bdef
/xstore {exch store} bdef
% operator abbreviations
/c  /clip ldef
/cc /concat ldef
/cp /closepath ldef
/gr /grestore ldef
/gs /gsave ldef
/mt /moveto ldef
/np /newpath ldef
/cm /currentmatrix ldef
/sm /setmatrix ldef
/rm /rmoveto ldef
/rl /rlineto ldef
/s {show newpath} bdef
/sc {setcmykcolor} bdef
/sr /setrgbcolor ldef
/sg /setgray ldef
/w /setlinewidth ldef
/j /setlinejoin ldef
/cap /setlinecap ldef
/rc {rectclip} bdef
/rf {rectfill} bdef
% page state control
/pgsv () def
/bpage {/pgsv save def} bdef
/epage {pgsv restore} bdef
/bplot /gsave ldef
/eplot {stroke grestore} bdef
% orientation switch
/portraitMode 0 def /landscapeMode 1 def /rotateMode 2 def
% coordinate system mappings
/dpi2point 0 def
% font control
/FontSize 0 def
/FMS {/FontSize xstore findfont [FontSize 0 0 FontSize neg 0 0]
  makefont setfont} bdef
/ISOLatin1Encoding where {pop /WindowsLatin1Encoding 256 array bdef
ISOLatin1Encoding WindowsLatin1Encoding copy pop
/.notdef/.notdef/quotesinglbase/florin/quotedblbase/ellipsis/dagger
/daggerdbl/circumflex/perthousand/Scaron/guilsinglleft/OE/.notdef/.notdef
/.notdef/.notdef/quoteleft/quoteright/quotedblleft/quotedblright/bullet
/endash/emdash/tilde/trademark/scaron/guilsinglright/oe/.notdef/.notdef
/Ydieresis WindowsLatin1Encoding 128 32 getinterval astore pop}
{/WindowsLatin1Encoding StandardEncoding bdef} ifelse
/reencode {exch dup where {pop load} {pop StandardEncoding} ifelse
  exch dup 3 1 roll findfont dup length dict begin
  { 1 index /FID ne {def}{pop pop} ifelse } forall
  /Encoding exch def currentdict end definefont pop} bdef
/isroman {findfont /CharStrings get /Agrave known} bdef
/FMSR {3 1 roll 1 index dup isroman {reencode} {pop pop} ifelse
  exch FMS} bdef
/csm {1 dpi2point div -1 dpi2point div scale neg translate
 dup landscapeMode eq {pop -90 rotate}
  {rotateMode eq {90 rotate} if} ifelse} bdef
% line types: solid, dotted, dashed, dotdash
/SO { [] 0 setdash } bdef
/DO { [.5 dpi2point mul 4 dpi2point mul] 0 setdash } bdef
/DA { [6 dpi2point mul] 0 setdash } bdef
/DD { [.5 dpi2point mul 4 dpi2point mul 6 dpi2point mul 4
  dpi2point mul] 0 setdash } bdef
% macros for lines and objects
/L {lineto stroke} bdef
/MP {3 1 roll moveto 1 sub {rlineto} repeat} bdef
/AP {{rlineto} repeat} bdef
/PDlw -1 def
/W {/PDlw currentlinewidth def setlinewidth} def
/PP {closepath eofill} bdef
/DP {closepath stroke} bdef
/MR {4 -2 roll moveto dup  0 exch rlineto exch 0 rlineto
  neg 0 exch rlineto closepath} bdef
/FR {MR stroke} bdef
/PR {MR fill} bdef
/L1i {{currentfile picstr readhexstring pop} image} bdef
/tMatrix matrix def
/MakeOval {newpath tMatrix currentmatrix pop translate scale
0 0 1 0 360 arc tMatrix setmatrix} bdef
/FO {MakeOval stroke} bdef
/PO {MakeOval fill} bdef
/PD {currentlinewidth 2 div 0 360 arc fill
   PDlw -1 eq not {PDlw w /PDlw -1 def} if} def
/FA {newpath tMatrix currentmatrix pop translate scale
  0 0 1 5 -2 roll arc tMatrix setmatrix stroke} bdef
/PA {newpath tMatrix currentmatrix pop	translate 0 0 moveto scale
  0 0 1 5 -2 roll arc closepath tMatrix setmatrix fill} bdef
/FAn {newpath tMatrix currentmatrix pop translate scale
  0 0 1 5 -2 roll arcn tMatrix setmatrix stroke} bdef
/PAn {newpath tMatrix currentmatrix pop translate 0 0 moveto scale
  0 0 1 5 -2 roll arcn closepath tMatrix setmatrix fill} bdef
/vradius 0 def /hradius 0 def /lry 0 def
/lrx 0 def /uly 0 def /ulx 0 def /rad 0 def
/MRR {/vradius xdef /hradius xdef /lry xdef /lrx xdef /uly xdef
  /ulx xdef newpath tMatrix currentmatrix pop ulx hradius add uly
  vradius add translate hradius vradius scale 0 0 1 180 270 arc 
  tMatrix setmatrix lrx hradius sub uly vradius add translate
  hradius vradius scale 0 0 1 270 360 arc tMatrix setmatrix
  lrx hradius sub lry vradius sub translate hradius vradius scale
  0 0 1 0 90 arc tMatrix setmatrix ulx hradius add lry vradius sub
  translate hradius vradius scale 0 0 1 90 180 arc tMatrix setmatrix
  closepath} bdef
/FRR {MRR stroke } bdef
/PRR {MRR fill } bdef
/MlrRR {/lry xdef /lrx xdef /uly xdef /ulx xdef /rad lry uly sub 2 div def
  newpath tMatrix currentmatrix pop ulx rad add uly rad add translate
  rad rad scale 0 0 1 90 270 arc tMatrix setmatrix lrx rad sub lry rad
  sub translate rad rad scale 0 0 1 270 90 arc tMatrix setmatrix
  closepath} bdef
/FlrRR {MlrRR stroke } bdef
/PlrRR {MlrRR fill } bdef
/MtbRR {/lry xdef /lrx xdef /uly xdef /ulx xdef /rad lrx ulx sub 2 div def
  newpath tMatrix currentmatrix pop ulx rad add uly rad add translate
  rad rad scale 0 0 1 180 360 arc tMatrix setmatrix lrx rad sub lry rad
  sub translate rad rad scale 0 0 1 0 180 arc tMatrix setmatrix
  closepath} bdef
/FtbRR {MtbRR stroke } bdef
/PtbRR {MtbRR fill } bdef
/stri 6 array def /dtri 6 array def
/smat 6 array def /dmat 6 array def
/tmat1 6 array def /tmat2 6 array def /dif 3 array def
/asub {/ind2 exch def /ind1 exch def dup dup
  ind1 get exch ind2 get sub exch } bdef
/tri_to_matrix {
  2 0 asub 3 1 asub 4 0 asub 5 1 asub
  dup 0 get exch 1 get 7 -1 roll astore } bdef
/compute_transform {
  dmat dtri tri_to_matrix tmat1 invertmatrix 
  smat stri tri_to_matrix tmat2 concatmatrix } bdef
/ds {stri astore pop} bdef
/dt {dtri astore pop} bdef
/db {2 copy /cols xdef /rows xdef mul dup 3 mul string
  currentfile 
  3 index 0 eq {/ASCIIHexDecode filter}
  {/ASCII85Decode filter 3 index 2 eq {/RunLengthDecode filter} if }
  ifelse exch readstring pop
  dup 0 3 index getinterval /rbmap xdef
  dup 2 index dup getinterval /gbmap xdef
  1 index dup 2 mul exch getinterval /bbmap xdef pop pop}bdef
/it {gs np dtri aload pop moveto lineto lineto cp c
  cols rows 8 compute_transform 
  rbmap gbmap bbmap true 3 colorimage gr}bdef
/il {newpath moveto lineto stroke}bdef
currentdict end def
%%EndProlog

%%BeginSetup
MathWorks begin

0 cap

end
%%EndSetup

%%Page: 1 1
%%BeginPageSetup
%%PageBoundingBox:    37   180   549   616
MathWorks begin
bpage
%%EndPageSetup

%%BeginObject: obj1
bplot

/dpi2point 12 def
portraitMode 0216 7344 csm

  234   -48  6149  5231 rc
85 dict begin %Colortable dictionary
/c0 { 0.000000 0.000000 0.000000 sr} bdef
/c1 { 1.000000 1.000000 1.000000 sr} bdef
/c2 { 0.900000 0.000000 0.000000 sr} bdef
/c3 { 0.000000 0.820000 0.000000 sr} bdef
/c4 { 0.000000 0.000000 0.800000 sr} bdef
/c5 { 0.910000 0.820000 0.320000 sr} bdef
/c6 { 1.000000 0.260000 0.820000 sr} bdef
/c7 { 0.000000 0.820000 0.820000 sr} bdef
c0
1 j
1 sg
   0    0 6919 5187 rf
6 w
0 4202 5362 0 0 -4202 899 4616 4 MP
PP
-5362 0 0 4202 5362 0 0 -4202 899 4616 5 MP stroke
4 w
DO
SO
6 w
0 sg
 899  414 mt 6261  414 L
 899 4616 mt 6261 4616 L
6261 4616 mt 6261  414 L
 899 4616 mt  899  414 L
 899 4616 mt 6261 4616 L
 899 4616 mt  899  414 L
 919 4616 mt  919 4562 L
 919  414 mt  919  467 L
%%IncludeResource: font Helvetica
/Helvetica /WindowsLatin1Encoding 240 FMSR

 713 4873 mt 
(-3) s
1806 4616 mt 1806 4562 L
1806  414 mt 1806  467 L
1600 4873 mt 
(-2) s
2693 4616 mt 2693 4562 L
2693  414 mt 2693  467 L
2487 4873 mt 
(-1) s
3580 4616 mt 3580 4562 L
3580  414 mt 3580  467 L
3514 4873 mt 
(0) s
4466 4616 mt 4466 4562 L
4466  414 mt 4466  467 L
4400 4873 mt 
(1) s
5353 4616 mt 5353 4562 L
5353  414 mt 5353  467 L
5287 4873 mt 
(2) s
6240 4616 mt 6240 4562 L
6240  414 mt 6240  467 L
6174 4873 mt 
(3) s
 899 4599 mt  952 4599 L
6261 4599 mt 6207 4599 L
 591 4688 mt 
(-3) s
 899 3904 mt  952 3904 L
6261 3904 mt 6207 3904 L
 591 3993 mt 
(-2) s
 899 3209 mt  952 3209 L
6261 3209 mt 6207 3209 L
 591 3298 mt 
(-1) s
 899 2514 mt  952 2514 L
6261 2514 mt 6207 2514 L
 731 2603 mt 
(0) s
 899 1820 mt  952 1820 L
6261 1820 mt 6207 1820 L
 731 1909 mt 
(1) s
 899 1125 mt  952 1125 L
6261 1125 mt 6207 1125 L
 731 1214 mt 
(2) s
 899  430 mt  952  430 L
6261  430 mt 6207  430 L
 731  519 mt 
(3) s
 899  414 mt 6261  414 L
 899 4616 mt 6261 4616 L
6261 4616 mt 6261  414 L
 899 4616 mt  899  414 L
gs 899 414 5363 4203 rc
gr

/c8 { 0.000000 0.000000 1.000000 sr} bdef
c8
3946 1756 mt 4018 1756 L
3982 1720 mt 3982 1792 L
4149 1930 mt 4221 1930 L
4185 1894 mt 4185 1966 L
2490 2584 mt 2562 2584 L
2526 2548 mt 2526 2620 L
2805 3081 mt 2877 3081 L
2841 3045 mt 2841 3117 L
4372 1816 mt 4444 1816 L
4408 1780 mt 4408 1852 L
3072 2067 mt 3144 2067 L
3108 2031 mt 3108 2103 L
2456 3797 mt 2528 3797 L
2492 3761 mt 2492 3833 L
2851 2405 mt 2923 2405 L
2887 2369 mt 2887 2441 L
3644 1831 mt 3716 1831 L
3680 1795 mt 3680 1867 L
3454 2204 mt 3526 2204 L
3490 2168 mt 3490 2240 L
2040 2180 mt 2112 2180 L
2076 2144 mt 2076 2216 L
3711 2150 mt 3783 2150 L
3747 2114 mt 3747 2186 L
4236 2480 mt 4308 2480 L
4272 2444 mt 4272 2516 L
3621 2467 mt 3693 2467 L
3657 2431 mt 3657 2503 L
4789 2125 mt 4861 2125 L
4825 2089 mt 4825 2161 L
3443 2401 mt 3515 2401 L
3479 2365 mt 3479 2437 L
3214 3625 mt 3286 3625 L
3250 3589 mt 3250 3661 L
3432 2519 mt 3504 2519 L
3468 2483 mt 3468 2555 L
3123 2554 mt 3195 2554 L
3159 2518 mt 3159 2590 L
4021 2624 mt 4093 2624 L
4057 2588 mt 4057 2660 L
1876 3118 mt 1948 3118 L
1912 3082 mt 1912 3154 L
3521 3908 mt 3593 3908 L
3557 3872 mt 3557 3944 L
2605 2275 mt 2677 2275 L
2641 2239 mt 2641 2311 L
3359 2462 mt 3431 2462 L
3395 2426 mt 3395 2498 L
3723 2884 mt 3795 2884 L
3759 2848 mt 3759 2920 L
1722 2145 mt 1794 2145 L
1758 2109 mt 1758 2181 L
2836 2967 mt 2908 2967 L
2872 2931 mt 2872 3003 L
3855 3322 mt 3927 3322 L
3891 3286 mt 3891 3358 L
3404 1680 mt 3476 1680 L
3440 1644 mt 3440 1716 L
3532 1990 mt 3604 1990 L
3568 1954 mt 3568 2026 L
2312 2619 mt 2384 2619 L
2348 2583 mt 2348 2655 L
1674 1748 mt 1746 1748 L
1710 1712 mt 1710 1784 L
2085 2214 mt 2157 2214 L
2121 2178 mt 2121 2250 L
3544 3112 mt 3616 3112 L
3580 3076 mt 3580 3148 L
4135 1995 mt 4207 1995 L
4171 1959 mt 4171 2031 L
3336 2104 mt 3408 2104 L
3372 2068 mt 3372 2140 L
3110 2637 mt 3182 2637 L
3146 2601 mt 3146 2673 L
2545 2493 mt 2617 2493 L
2581 2457 mt 2581 2529 L
2615 2536 mt 2687 2536 L
2651 2500 mt 2651 2572 L
3147 2655 mt 3219 2655 L
3183 2619 mt 3183 2691 L
3891 2279 mt 3963 2279 L
3927 2243 mt 3927 2315 L
4381 1462 mt 4453 1462 L
4417 1426 mt 4417 1498 L
3370 2199 mt 3442 2199 L
3406 2163 mt 3406 2235 L
2973 3297 mt 3045 3297 L
3009 3261 mt 3009 3333 L
4886 3540 mt 4958 3540 L
4922 3504 mt 4922 3576 L
2016 3848 mt 2088 3848 L
2052 3812 mt 2052 3884 L
3538 2165 mt 3610 2165 L
3574 2129 mt 3574 2201 L
3007 3386 mt 3079 3386 L
3043 3350 mt 3043 3422 L
2917 2849 mt 2989 2849 L
2953 2813 mt 2953 2885 L
3689 2951 mt 3761 2951 L
3725 2915 mt 3725 2987 L
4820 3553 mt 4892 3553 L
4856 3517 mt 4856 3589 L
3903 1538 mt 3975 1538 L
3939 1502 mt 3939 1574 L
3797 2347 mt 3869 2347 L
3833 2311 mt 3833 2383 L
4034 2782 mt 4106 2782 L
4070 2746 mt 4070 2818 L
3757 1049 mt 3829 1049 L
3793 1013 mt 3793 1085 L
3319 2545 mt 3391 2545 L
3355 2509 mt 3355 2581 L
3516 1966 mt 3588 1966 L
3552 1930 mt 3552 2002 L
4746 1723 mt 4818 1723 L
4782 1687 mt 4782 1759 L
2251 2293 mt 2323 2293 L
2287 2257 mt 2287 2329 L
3059 2423 mt 3131 2423 L
3095 2387 mt 3095 2459 L
4009 3877 mt 4081 3877 L
4045 3841 mt 4045 3913 L
1259 1787 mt 1331 1787 L
1295 1751 mt 1295 1823 L
3178 3515 mt 3250 3515 L
3214 3479 mt 3214 3551 L
4836 2488 mt 4908 2488 L
4872 2452 mt 4872 2524 L
3633 1936 mt 3705 1936 L
3669 1900 mt 3669 1972 L
4775 2361 mt 4847 2361 L
4811 2325 mt 4811 2397 L
4585 1858 mt 4657 1858 L
4621 1822 mt 4621 1894 L
3172 2611 mt 3244 2611 L
3208 2575 mt 3208 2647 L
2697 2012 mt 2769 2012 L
2733 1976 mt 2733 2048 L
3977 2218 mt 4049 2218 L
4013 2182 mt 4013 2254 L
2797 3213 mt 2869 3213 L
2833 3177 mt 2833 3249 L
4163 2874 mt 4235 2874 L
4199 2838 mt 4199 2910 L
3706 3273 mt 3778 3273 L
3742 3237 mt 3742 3309 L
3505 1624 mt 3577 1624 L
3541 1588 mt 3541 1660 L
2643 2029 mt 2715 2029 L
2679 1993 mt 2679 2065 L
4306 3479 mt 4378 3479 L
4342 3443 mt 4342 3515 L
4322 2709 mt 4394 2709 L
4358 2673 mt 4358 2745 L
1991 2379 mt 2063 2379 L
2027 2343 mt 2027 2415 L
2355 1978 mt 2427 1978 L
2391 1942 mt 2391 2014 L
2420 2956 mt 2492 2956 L
2456 2920 mt 2456 2992 L
4080 1593 mt 4152 1593 L
4116 1557 mt 4116 1629 L
3116 2549 mt 3188 2549 L
3152 2513 mt 3152 2585 L
3964 3011 mt 4036 3011 L
4000 2975 mt 4000 3047 L
3873 1152 mt 3945 1152 L
3909 1116 mt 3909 1188 L
3762 2325 mt 3834 2325 L
3798 2289 mt 3798 2361 L
2952 2677 mt 3024 2677 L
2988 2641 mt 2988 2713 L
4199 1972 mt 4271 1972 L
4235 1936 mt 4235 2008 L
3376 2135 mt 3448 2135 L
3412 2099 mt 3412 2171 L
3989 3595 mt 4061 3595 L
4025 3559 mt 4025 3631 L
4869 2668 mt 4941 2668 L
4905 2632 mt 4905 2704 L
3033 2343 mt 3105 2343 L
3069 2307 mt 3069 2379 L
5024 1845 mt 5096 1845 L
5060 1809 mt 5060 1881 L
2813 2209 mt 2885 2209 L
2849 2173 mt 2849 2245 L
3672 2830 mt 3744 2830 L
3708 2794 mt 3708 2866 L
3387 3157 mt 3459 3157 L
3423 3121 mt 3423 3193 L
2896 3752 mt 2968 3752 L
2932 3716 mt 2932 3788 L
4107 3075 mt 4179 3075 L
4143 3039 mt 4143 3111 L
4472 1489 mt 4544 1489 L
4508 1453 mt 4508 1525 L
3261 2745 mt 3333 2745 L
3297 2709 mt 3297 2781 L
4170 1604 mt 4242 1604 L
4206 1568 mt 4206 1640 L
6225 2185 mt 6297 2185 L
6261 2149 mt 6261 2221 L
3040 2475 mt 3112 2475 L
3076 2439 mt 3076 2511 L
3243 2899 mt 3315 2899 L
3279 2863 mt 3279 2935 L
4177 3641 mt 4249 3641 L
4213 3605 mt 4213 3677 L
2652 2704 mt 2724 2704 L
2688 2668 mt 2688 2740 L
2789 1643 mt 2861 1643 L
2825 1607 mt 2825 1679 L
3571 2307 mt 3643 2307 L
3607 2271 mt 3607 2343 L
2586 2194 mt 2658 2194 L
2622 2158 mt 2622 2230 L
2821 2736 mt 2893 2736 L
2857 2700 mt 2857 2772 L
2757 2170 mt 2829 2170 L
2793 2134 mt 2793 2206 L
3728 2288 mt 3800 2288 L
3764 2252 mt 3764 2324 L
2534 1277 mt 2606 1277 L
2570 1241 mt 2570 1313 L
3616 2713 mt 3688 2713 L
3652 2677 mt 3652 2749 L
4631 2265 mt 4703 2265 L
4667 2229 mt 4667 2301 L
2945 3022 mt 3017 3022 L
2981 2986 mt 2981 3058 L
2773 2962 mt 2845 2962 L
2809 2926 mt 2809 2998 L
3915 1794 mt 3987 1794 L
3951 1758 mt 3951 1830 L
4228 3250 mt 4300 3250 L
4264 3214 mt 4264 3286 L
1387 2458 mt 1459 2458 L
1423 2422 mt 1423 2494 L
3273 2682 mt 3345 2682 L
3309 2646 mt 3309 2718 L
3838 2374 mt 3910 2374 L
3874 2338 mt 3874 2410 L
3364 1448 mt 3436 1448 L
3400 1412 mt 3400 1484 L
3566 2040 mt 3638 2040 L
3602 2004 mt 3602 2076 L
3153 2338 mt 3225 2338 L
3189 2302 mt 3189 2374 L
3879 1838 mt 3951 1838 L
3915 1802 mt 3915 1874 L
5282 2449 mt 5354 2449 L
5318 2413 mt 5318 2485 L
3952 3039 mt 4024 3039 L
3988 3003 mt 3988 3075 L
3694 2396 mt 3766 2396 L
3730 2360 mt 3730 2432 L
2749 2298 mt 2821 2298 L
2785 2262 mt 2785 2334 L
2327 2115 mt 2399 2115 L
2363 2079 mt 2363 2151 L
4259 2365 mt 4331 2365 L
4295 2329 mt 4295 2401 L
3832 2778 mt 3904 2778 L
3868 2742 mt 3868 2814 L
2966 3125 mt 3038 3125 L
3002 3089 mt 3002 3161 L
3649 2510 mt 3721 2510 L
3685 2474 mt 3685 2546 L
2407 2392 mt 2479 2392 L
2443 2356 mt 2443 2428 L
3921 1917 mt 3993 1917 L
3957 1881 mt 3957 1953 L
1907 4072 mt 1979 4072 L
1943 4036 mt 1943 4108 L
3460 1872 mt 3532 1872 L
3496 1836 mt 3496 1908 L
3661 1911 mt 3733 1911 L
3697 1875 mt 3697 1947 L
4087 2869 mt 4159 2869 L
4123 2833 mt 4123 2905 L
3237 2741 mt 3309 2741 L
3273 2705 mt 3273 2777 L
4364 1802 mt 4436 1802 L
4400 1766 mt 4400 1838 L
2298 3227 mt 2370 3227 L
2334 3191 mt 2334 3263 L
3296 2130 mt 3368 2130 L
3332 2094 mt 3332 2166 L
4407 2633 mt 4479 2633 L
4443 2597 mt 4443 2669 L
3449 2414 mt 3521 2414 L
3485 2378 mt 3485 2450 L
3220 2320 mt 3292 2320 L
3256 2284 mt 3256 2356 L
4114 1698 mt 4186 1698 L
4150 1662 mt 4150 1734 L
3190 1942 mt 3262 1942 L
3226 1906 mt 3226 1978 L
3325 2018 mt 3397 2018 L
3361 1982 mt 3361 2054 L
2432 2311 mt 2504 2311 L
2468 2275 mt 2468 2347 L
3085 2062 mt 3157 2062 L
3121 2026 mt 3121 2098 L
2980 2001 mt 3052 2001 L
3016 1965 mt 3016 2037 L
2341 2571 mt 2413 2571 L
2377 2535 mt 2377 2607 L
2903 2700 mt 2975 2700 L
2939 2664 mt 2939 2736 L
2924 2764 mt 2996 2764 L
2960 2728 mt 2960 2800 L
1619 2695 mt 1691 2695 L
1655 2659 mt 1655 2731 L
2394 3057 mt 2466 3057 L
2430 3021 mt 2430 3093 L
2063 2864 mt 2135 2864 L
2099 2828 mt 2099 2900 L
4015 2994 mt 4087 2994 L
4051 2958 mt 4051 3030 L
3353 2792 mt 3425 2792 L
3389 2756 mt 3389 2828 L
3347 2806 mt 3419 2806 L
3383 2770 mt 3383 2842 L
2938 2256 mt 3010 2256 L
2974 2220 mt 2974 2292 L
4142 2242 mt 4214 2242 L
4178 2206 mt 4178 2278 L
2662 1662 mt 2734 1662 L
2698 1626 mt 2698 1698 L
 863 1878 mt  935 1878 L
 899 1842 mt  899 1914 L
2183 2811 mt 2255 2811 L
2219 2775 mt 2219 2847 L
3774 2593 mt 3846 2593 L
3810 2557 mt 3810 2629 L
2502 1572 mt 2574 1572 L
2538 1536 mt 2538 1608 L
4542 2261 mt 4614 2261 L
4578 2225 mt 4578 2297 L
2740  957 mt 2812  957 L
2776  921 mt 2776  993 L
4074 1583 mt 4146 1583 L
4110 1547 mt 4110 1619 L
1842 2237 mt 1914 2237 L
1878 2201 mt 1878 2273 L
3599 2051 mt 3671 2051 L
3635 2015 mt 3635 2087 L
3226 3610 mt 3298 3610 L
3262 3574 mt 3262 3646 L
4047 1671 mt 4119 1671 L
4083 1635 mt 4083 1707 L
3426 1740 mt 3498 1740 L
3462 1704 mt 3462 1776 L
5531 1948 mt 5603 1948 L
5567 1912 mt 5567 1984 L
4121 2659 mt 4193 2659 L
4157 2623 mt 4157 2695 L
2479 1614 mt 2551 1614 L
2515 1578 mt 2515 1650 L
2523 2506 mt 2595 2506 L
2559 2470 mt 2559 2542 L
3745 2889 mt 3817 2889 L
3781 2853 mt 3781 2925 L
3421 1419 mt 3493 1419 L
3457 1383 mt 3457 1455 L
4390 3087 mt 4462 3087 L
4426 3051 mt 4426 3123 L
3780 3164 mt 3852 3164 L
3816 3128 mt 3816 3200 L
2634 1318 mt 2706 1318 L
2670 1282 mt 2670 1354 L
4416 2514 mt 4488 2514 L
4452 2478 mt 4452 2550 L
3751 2370 mt 3823 2370 L
3787 2334 mt 3787 2406 L
4041 1561 mt 4113 1561 L
4077 1525 mt 4077 1597 L
2888 2284 mt 2960 2284 L
2924 2248 mt 2924 2320 L
2267 2615 mt 2339 2615 L
2303 2579 mt 2303 2651 L
3638 2840 mt 3710 2840 L
3674 2804 mt 3674 2876 L
4482 2189 mt 4554 2189 L
4518 2153 mt 4518 2225 L
4054 1689 mt 4126 1689 L
4090 1653 mt 4090 1725 L
3809 1087 mt 3881 1087 L
3845 1051 mt 3845 1123 L
3398 2007 mt 3470 2007 L
3434 1971 mt 3434 2043 L
2781 3567 mt 2853 3567 L
2817 3531 mt 2817 3603 L
3958 1779 mt 4030 1779 L
3994 1743 mt 3994 1815 L
3046 2801 mt 3118 2801 L
3082 2765 mt 3082 2837 L
3683 2083 mt 3755 2083 L
3719 2047 mt 3719 2119 L
4852 1885 mt 4924 1885 L
4888 1849 mt 4888 1921 L
4522 1764 mt 4594 1764 L
4558 1728 mt 4558 1800 L
4330 2935 mt 4402 2935 L
4366 2899 mt 4366 2971 L
1965 2691 mt 2037 2691 L
2001 2655 mt 2001 2727 L
2444 1904 mt 2516 1904 L
2480 1868 mt 2480 1940 L
4067 2562 mt 4139 2562 L
4103 2526 mt 4103 2598 L
3499 3503 mt 3571 3503 L
3535 3467 mt 3535 3539 L
3510 2731 mt 3582 2731 L
3546 2695 mt 3546 2767 L
4444  414 mt 4516  414 L
4480  378 mt 4480  450 L
2723 3349 mt 2795 3349 L
2759 3313 mt 2759 3385 L
2235 1121 mt 2307 1121 L
2271 1085 mt 2271 1157 L
4941 2727 mt 5013 2727 L
4977 2691 mt 4977 2763 L
4094 1851 mt 4166 1851 L
4130 1815 mt 4130 1887 L
3393 3774 mt 3465 3774 L
3429 3738 mt 3429 3810 L
4512 1232 mt 4584 1232 L
4548 1196 mt 4548 1268 L
4435 2247 mt 4507 2247 L
4471 2211 mt 4471 2283 L
4314 2946 mt 4386 2946 L
4350 2910 mt 4350 2982 L
3410 3491 mt 3482 3491 L
3446 3455 mt 3446 3527 L
2706 1434 mt 2778 1434 L
2742 1398 mt 2742 1470 L
3740 2879 mt 3812 2879 L
3776 2843 mt 3776 2915 L
2987 1388 mt 3059 1388 L
3023 1352 mt 3023 1424 L
3000 2453 mt 3072 2453 L
3036 2417 mt 3036 2489 L
4251 2484 mt 4323 2484 L
4287 2448 mt 4287 2520 L
2165 3151 mt 2237 3151 L
2201 3115 mt 2201 3187 L
4184 3281 mt 4256 3281 L
4220 3245 mt 4220 3317 L
2689 2418 mt 2761 2418 L
2725 2382 mt 2725 2454 L
1766 2035 mt 1838 2035 L
1802 1999 mt 1802 2071 L
3814 2445 mt 3886 2445 L
3850 2409 mt 3850 2481 L
2715 1865 mt 2787 1865 L
2751 1829 mt 2751 1901 L
2146 2471 mt 2218 2471 L
2182 2435 mt 2182 2507 L
3844 3206 mt 3916 3206 L
3880 3170 mt 3880 3242 L
3381 3184 mt 3453 3184 L
3417 3148 mt 3417 3220 L
2565 2650 mt 2637 2650 L
2601 2614 mt 2601 2686 L
2931 2302 mt 3003 2302 L
2967 2266 mt 2967 2338 L
2218 1404 mt 2290 1404 L
2254 1368 mt 2254 1440 L
4243 3257 mt 4315 3257 L
4279 3221 mt 4279 3293 L
4574 3178 mt 4646 3178 L
4610 3142 mt 4610 3214 L
3897 2920 mt 3969 2920 L
3933 2884 mt 3933 2956 L
2106 2641 mt 2178 2641 L
2142 2605 mt 2142 2677 L
5002 2094 mt 5074 2094 L
5038 2058 mt 5038 2130 L
5180 3942 mt 5252 3942 L
5216 3906 mt 5216 3978 L
4643 2155 mt 4715 2155 L
4679 2119 mt 4679 2191 L
5365 2602 mt 5437 2602 L
5401 2566 mt 5401 2638 L
5245 2909 mt 5317 2909 L
5281 2873 mt 5281 2945 L
4981 2754 mt 5053 2754 L
5017 2718 mt 5017 2790 L
4961 3028 mt 5033 3028 L
4997 2992 mt 4997 3064 L
3493 1653 mt 3565 1653 L
3529 1617 mt 3529 1689 L
2959 2787 mt 3031 2787 L
2995 2751 mt 2995 2823 L
4282 2773 mt 4354 2773 L
4318 2737 mt 4318 2809 L
2595 3468 mt 2667 3468 L
2631 3432 mt 2631 3504 L
4553 3581 mt 4625 3581 L
4589 3545 mt 4589 3617 L
3330 2228 mt 3402 2228 L
3366 2192 mt 3366 2264 L
3278 2497 mt 3350 2497 L
3314 2461 mt 3314 2533 L
5047 3137 mt 5119 3137 L
5083 3101 mt 5083 3173 L
3267 1898 mt 3339 1898 L
3303 1862 mt 3303 1934 L
4002 3340 mt 4074 3340 L
4038 3304 mt 4038 3376 L
4463 2835 mt 4535 2835 L
4499 2799 mt 4499 2871 L
3129 1476 mt 3201 1476 L
3165 1440 mt 3165 1512 L
4290 1298 mt 4362 1298 L
4326 1262 mt 4326 1334 L
3284 2334 mt 3356 2334 L
3320 2298 mt 3320 2370 L
5211 2750 mt 5283 2750 L
5247 2714 mt 5247 2786 L
4680 2523 mt 4752 2523 L
4716 2487 mt 4716 2559 L
3996 2628 mt 4068 2628 L
4032 2592 mt 4032 2664 L
4532 3144 mt 4604 3144 L
4568 3108 mt 4568 3180 L
3885 2646 mt 3957 2646 L
3921 2610 mt 3921 2682 L
3027 2432 mt 3099 2432 L
3063 2396 mt 3063 2468 L
4760 2664 mt 4832 2664 L
4796 2628 mt 4796 2700 L
3488 1336 mt 3560 1336 L
3524 1300 mt 3524 1372 L
3166 1634 mt 3238 1634 L
3202 1598 mt 3202 1670 L
3934 2844 mt 4006 2844 L
3970 2808 mt 3970 2880 L
5700 2120 mt 5772 2120 L
5736 2084 mt 5736 2156 L
4206 2356 mt 4278 2356 L
4242 2320 mt 4242 2392 L
4904 3367 mt 4976 3367 L
4940 3331 mt 4940 3403 L
3141 1707 mt 3213 1707 L
3177 1671 mt 3177 1743 L
3655 1371 mt 3727 1371 L
3691 1335 mt 3691 1407 L
2881 3675 mt 2953 3675 L
2917 3639 mt 2917 3711 L
4805 2436 mt 4877 2436 L
4841 2400 mt 4841 2472 L
4667 2427 mt 4739 2427 L
4703 2391 mt 4703 2463 L
2844 2078 mt 2916 2078 L
2880 2042 mt 2880 2114 L
4732 1006 mt 4804 1006 L
4768  970 mt 4768 1042 L
3971 2972 mt 4043 2972 L
4007 2936 mt 4007 3008 L
3850 2073 mt 3922 2073 L
3886 2037 mt 3886 2109 L
4922 4023 mt 4994 4023 L
4958 3987 mt 4958 4059 L
3826 2352 mt 3898 2352 L
3862 2316 mt 3862 2388 L
3940 3415 mt 4012 3415 L
3976 3379 mt 3976 3451 L
2555  724 mt 2627  724 L
2591  688 mt 2591  760 L
4398 2089 mt 4470 2089 L
4434 2053 mt 4434 2125 L
3717 2722 mt 3789 2722 L
3753 2686 mt 3753 2758 L
3078 3242 mt 3150 3242 L
3114 3206 mt 3114 3278 L
4355 3425 mt 4427 3425 L
4391 3389 mt 4391 3461 L
4608 3000 mt 4680 3000 L
4644 2964 mt 4644 3036 L
4060 2501 mt 4132 2501 L
4096 2465 mt 4096 2537 L
2866 2099 mt 2938 2099 L
2902 2063 mt 2902 2135 L
3196 3822 mt 3268 3822 L
3232 3786 mt 3232 3858 L
3415 2270 mt 3487 2270 L
3451 2234 mt 3451 2306 L
2993 3980 mt 3065 3980 L
3029 3944 mt 3029 4016 L
3700 3034 mt 3772 3034 L
3736 2998 mt 3736 3070 L
2765 1550 mt 2837 1550 L
2801 1514 mt 2801 1586 L
3091 2718 mt 3163 2718 L
3127 2682 mt 3127 2754 L
4706 2576 mt 4778 2576 L
4742 2540 mt 4742 2612 L
4028 1984 mt 4100 1984 L
4064 1948 mt 4064 2020 L
4156 2940 mt 4228 2940 L
4192 2904 mt 4192 2976 L
3342 2233 mt 3414 2233 L
3378 2197 mt 3378 2269 L
4425 3099 mt 4497 3099 L
4461 3063 mt 4461 3135 L
2910 2580 mt 2982 2580 L
2946 2544 mt 2946 2616 L
5606 4616 mt 5678 4616 L
5642 4580 mt 5642 4652 L
5828 1255 mt 5900 1255 L
5864 1219 mt 5864 1291 L
4221 3051 mt 4293 3051 L
4257 3015 mt 4257 3087 L
4213 3376 mt 4285 3376 L
4249 3340 mt 4249 3412 L
2671 2930 mt 2743 2930 L
2707 2894 mt 2707 2966 L
3820 2160 mt 3892 2160 L
3856 2124 mt 3856 2196 L
3255 3191 mt 3327 3191 L
3291 3155 mt 3291 3227 L
2680 1732 mt 2752 1732 L
2716 1696 mt 2716 1768 L
3053 3405 mt 3125 3405 L
3089 3369 mt 3089 3441 L
3202 4131 mt 3274 4131 L
3238 4095 mt 3238 4167 L
2468 2983 mt 2540 2983 L
2504 2947 mt 2504 3019 L
5096 2606 mt 5168 2606 L
5132 2570 mt 5132 2642 L
4298 3265 mt 4370 3265 L
4334 3229 mt 4334 3301 L
3232 2383 mt 3304 2383 L
3268 2347 mt 3268 2419 L
4453 1514 mt 4525 1514 L
4489 1478 mt 4489 1550 L
5071 2046 mt 5143 2046 L
5107 2010 mt 5107 2082 L
3627 3131 mt 3699 3131 L
3663 3095 mt 3663 3167 L
3013 2024 mt 3085 2024 L
3049 1988 mt 3049 2060 L
2859 2978 mt 2931 2978 L
2895 2942 mt 2895 3014 L
3803  564 mt 3875  564 L
3839  528 mt 3839  600 L
3471 1823 mt 3543 1823 L
3507 1787 mt 3507 1859 L
4338 3235 mt 4410 3235 L
4374 3199 mt 4374 3271 L
4719 2989 mt 4791 2989 L
4755 2953 mt 4755 3025 L
5122 2316 mt 5194 2316 L
5158 2280 mt 5158 2352 L
2732 3436 mt 2804 3436 L
2768 3400 mt 2768 3472 L
4128 1207 mt 4200 1207 L
4164 1171 mt 4164 1243 L
3249 2854 mt 3321 2854 L
3285 2818 mt 3285 2890 L
4693 2567 mt 4765 2567 L
4729 2531 mt 4729 2603 L
3438 2440 mt 3510 2440 L
3474 2404 mt 3474 2476 L
3160 1715 mt 3232 1715 L
3196 1679 mt 3196 1751 L
3290 2558 mt 3362 2558 L
3326 2522 mt 3326 2594 L
3555 3017 mt 3627 3017 L
3591 2981 mt 3591 3053 L
4274 2759 mt 4346 2759 L
4310 2723 mt 4310 2795 L
3477 2768 mt 3549 2768 L
3513 2732 mt 3513 2804 L
3734 3063 mt 3806 3063 L
3770 3027 mt 3770 3099 L
3927 2329 mt 3999 2329 L
3963 2293 mt 3963 2365 L
6033 2796 mt 6105 2796 L
6069 2760 mt 6069 2832 L
3582 3289 mt 3654 3289 L
3618 3253 mt 3618 3325 L
2126 3198 mt 2198 3198 L
2162 3162 mt 2162 3234 L
3791 3106 mt 3863 3106 L
3827 3070 mt 3827 3142 L
3560 2589 mt 3632 2589 L
3596 2553 mt 3596 2625 L
3768 1772 mt 3840 1772 L
3804 1736 mt 3804 1808 L
3677 1502 mt 3749 1502 L
3713 1466 mt 3713 1538 L
3527 2140 mt 3599 2140 L
3563 2104 mt 3563 2176 L
3313 2925 mt 3385 2925 L
3349 2889 mt 3349 2961 L
1556 2109 mt 1628 2109 L
1592 2073 mt 1592 2145 L
3020 3457 mt 3092 3457 L
3056 3421 mt 3056 3493 L
3588 1526 mt 3660 1526 L
3624 1490 mt 3624 1562 L
3549 4205 mt 3621 4205 L
3585 4169 mt 3585 4241 L
3302  824 mt 3374  824 L
3338  788 mt 3338  860 L
3861  898 mt 3933  898 L
3897  862 mt 3897  934 L
2368 2251 mt 2440 2251 L
2404 2215 mt 2404 2287 L
3135 3711 mt 3207 3711 L
3171 3675 mt 3171 3747 L
2575 3306 mt 2647 3306 L
2611 3270 mt 2611 3342 L
2874 3171 mt 2946 3171 L
2910 3135 mt 2910 3207 L
4100 3731 mt 4172 3731 L
4136 3695 mt 4136 3767 L
2624 2410 mt 2696 2410 L
2660 2374 mt 2660 2446 L
3867 2914 mt 3939 2914 L
3903 2878 mt 3903 2950 L
4501 1354 mt 4573 1354 L
4537 1318 mt 4537 1390 L
2381 2820 mt 2453 2820 L
2417 2784 mt 2417 2856 L
3104 4305 mt 3176 4305 L
3140 4269 mt 3140 4341 L
4191 3658 mt 4263 3658 L
4227 3622 mt 4227 3694 L
3482 2825 mt 3554 2825 L
3518 2789 mt 3518 2861 L
4619 1954 mt 4691 1954 L
4655 1918 mt 4655 1990 L
4564 2686 mt 4636 2686 L
4600 2650 mt 4600 2722 L
3594 3220 mt 3666 3220 L
3630 3184 mt 3630 3256 L
4492 2532 mt 4564 2532 L
4528 2496 mt 4528 2568 L
5150 3005 mt 5222 3005 L
5186 2969 mt 5186 3041 L
3098 2057 mt 3170 2057 L
3134 2021 mt 3134 2093 L
4655 3331 mt 4727 3331 L
4691 3295 mt 4691 3367 L
1937 1892 mt 2009 1892 L
1973 1856 mt 1973 1928 L
2201 3527 mt 2273 3527 L
2237 3491 mt 2237 3563 L
3066 3314 mt 3138 3314 L
3102 3278 mt 3102 3350 L
3307 3693 mt 3379 3693 L
3343 3657 mt 3343 3729 L
1805 3395 mt 1877 3395 L
1841 3359 mt 1841 3431 L
3208 3358 mt 3280 3358 L
3244 3322 mt 3244 3394 L
2282 2894 mt 2354 2894 L
2318 2858 mt 2318 2930 L
5468 2597 mt 5540 2597 L
5504 2561 mt 5504 2633 L
4266 1923 mt 4338 1923 L
4302 1887 mt 4302 1959 L
1481 3045 mt 1553 3045 L
1517 3009 mt 1517 3081 L
5413 2541 mt 5485 2541 L
5449 2505 mt 5449 2577 L
3666 2904 mt 3738 2904 L
3702 2868 mt 3702 2940 L
3909 3093 mt 3981 3093 L
3945 3057 mt 3945 3129 L
3184 3069 mt 3256 3069 L
3220 3033 mt 3220 3105 L
3610 2223 mt 3682 2223 L
3646 2187 mt 3646 2259 L
2513 2528 mt 2585 2528 L
2549 2492 mt 2549 2564 L
3466 2673 mt 3538 2673 L
3502 2637 mt 3502 2709 L
4347 2815 mt 4419 2815 L
4383 2779 mt 4383 2851 L
3983 2175 mt 4055 2175 L
4019 2139 mt 4019 2211 L
5321 1960 mt 5393 1960 L
5357 1924 mt 5357 1996 L
3605 1809 mt 3677 1809 L
3641 1773 mt 3641 1845 L
3577 3446 mt 3649 3446 L
3613 3410 mt 3613 3482 L
3785 1181 mt 3857 1181 L
3821 1145 mt 3821 1217 L
2828 2859 mt 2900 2859 L
2864 2823 mt 2864 2895 L
4597 2388 mt 4669 2388 L
4633 2352 mt 4633 2424 L
gs 899 414 5363 4203 rc
gr

0 sg
2799 5104 mt 
(\(F,DCTs,iMLP\)) s
 482 3277 mt  -90 rotate
(\(S,SSC,GMM\)) s
90 rotate
2975  223 mt 
(Corr = 0.00) s

end %%Color Dict

eplot
%%EndObject

epage
end

showpage

%%Trailer
%%EOF
