%!PS-Adobe-3.0 EPSF-3.0
%%Creator: MATLAB, The Mathworks, Inc. Version 7.7.0.471 (R2008b). Operating System: Microsoft Windows XP.
%%Title: Pictures\main_zoo_mvar_analysis_data_BMI_xcorr_bmig_p2_k1_2_3.eps
%%CreationDate: 10/26/2009  05:45:38
%%DocumentNeededFonts: Helvetica
%%DocumentProcessColors: Cyan Magenta Yellow Black
%%LanguageLevel: 2
%%Pages: 1
%%BoundingBox:    37   180   549   616
%%EndComments

%%BeginProlog
% MathWorks dictionary
/MathWorks 160 dict begin
% definition operators
/bdef {bind def} bind def
/ldef {load def} bind def
/xdef {exch def} bdef
/xstore {exch store} bdef
% operator abbreviations
/c  /clip ldef
/cc /concat ldef
/cp /closepath ldef
/gr /grestore ldef
/gs /gsave ldef
/mt /moveto ldef
/np /newpath ldef
/cm /currentmatrix ldef
/sm /setmatrix ldef
/rm /rmoveto ldef
/rl /rlineto ldef
/s {show newpath} bdef
/sc {setcmykcolor} bdef
/sr /setrgbcolor ldef
/sg /setgray ldef
/w /setlinewidth ldef
/j /setlinejoin ldef
/cap /setlinecap ldef
/rc {rectclip} bdef
/rf {rectfill} bdef
% page state control
/pgsv () def
/bpage {/pgsv save def} bdef
/epage {pgsv restore} bdef
/bplot /gsave ldef
/eplot {stroke grestore} bdef
% orientation switch
/portraitMode 0 def /landscapeMode 1 def /rotateMode 2 def
% coordinate system mappings
/dpi2point 0 def
% font control
/FontSize 0 def
/FMS {/FontSize xstore findfont [FontSize 0 0 FontSize neg 0 0]
  makefont setfont} bdef
/ISOLatin1Encoding where {pop /WindowsLatin1Encoding 256 array bdef
ISOLatin1Encoding WindowsLatin1Encoding copy pop
/.notdef/.notdef/quotesinglbase/florin/quotedblbase/ellipsis/dagger
/daggerdbl/circumflex/perthousand/Scaron/guilsinglleft/OE/.notdef/.notdef
/.notdef/.notdef/quoteleft/quoteright/quotedblleft/quotedblright/bullet
/endash/emdash/tilde/trademark/scaron/guilsinglright/oe/.notdef/.notdef
/Ydieresis WindowsLatin1Encoding 128 32 getinterval astore pop}
{/WindowsLatin1Encoding StandardEncoding bdef} ifelse
/reencode {exch dup where {pop load} {pop StandardEncoding} ifelse
  exch dup 3 1 roll findfont dup length dict begin
  { 1 index /FID ne {def}{pop pop} ifelse } forall
  /Encoding exch def currentdict end definefont pop} bdef
/isroman {findfont /CharStrings get /Agrave known} bdef
/FMSR {3 1 roll 1 index dup isroman {reencode} {pop pop} ifelse
  exch FMS} bdef
/csm {1 dpi2point div -1 dpi2point div scale neg translate
 dup landscapeMode eq {pop -90 rotate}
  {rotateMode eq {90 rotate} if} ifelse} bdef
% line types: solid, dotted, dashed, dotdash
/SO { [] 0 setdash } bdef
/DO { [.5 dpi2point mul 4 dpi2point mul] 0 setdash } bdef
/DA { [6 dpi2point mul] 0 setdash } bdef
/DD { [.5 dpi2point mul 4 dpi2point mul 6 dpi2point mul 4
  dpi2point mul] 0 setdash } bdef
% macros for lines and objects
/L {lineto stroke} bdef
/MP {3 1 roll moveto 1 sub {rlineto} repeat} bdef
/AP {{rlineto} repeat} bdef
/PDlw -1 def
/W {/PDlw currentlinewidth def setlinewidth} def
/PP {closepath eofill} bdef
/DP {closepath stroke} bdef
/MR {4 -2 roll moveto dup  0 exch rlineto exch 0 rlineto
  neg 0 exch rlineto closepath} bdef
/FR {MR stroke} bdef
/PR {MR fill} bdef
/L1i {{currentfile picstr readhexstring pop} image} bdef
/tMatrix matrix def
/MakeOval {newpath tMatrix currentmatrix pop translate scale
0 0 1 0 360 arc tMatrix setmatrix} bdef
/FO {MakeOval stroke} bdef
/PO {MakeOval fill} bdef
/PD {currentlinewidth 2 div 0 360 arc fill
   PDlw -1 eq not {PDlw w /PDlw -1 def} if} def
/FA {newpath tMatrix currentmatrix pop translate scale
  0 0 1 5 -2 roll arc tMatrix setmatrix stroke} bdef
/PA {newpath tMatrix currentmatrix pop	translate 0 0 moveto scale
  0 0 1 5 -2 roll arc closepath tMatrix setmatrix fill} bdef
/FAn {newpath tMatrix currentmatrix pop translate scale
  0 0 1 5 -2 roll arcn tMatrix setmatrix stroke} bdef
/PAn {newpath tMatrix currentmatrix pop translate 0 0 moveto scale
  0 0 1 5 -2 roll arcn closepath tMatrix setmatrix fill} bdef
/vradius 0 def /hradius 0 def /lry 0 def
/lrx 0 def /uly 0 def /ulx 0 def /rad 0 def
/MRR {/vradius xdef /hradius xdef /lry xdef /lrx xdef /uly xdef
  /ulx xdef newpath tMatrix currentmatrix pop ulx hradius add uly
  vradius add translate hradius vradius scale 0 0 1 180 270 arc 
  tMatrix setmatrix lrx hradius sub uly vradius add translate
  hradius vradius scale 0 0 1 270 360 arc tMatrix setmatrix
  lrx hradius sub lry vradius sub translate hradius vradius scale
  0 0 1 0 90 arc tMatrix setmatrix ulx hradius add lry vradius sub
  translate hradius vradius scale 0 0 1 90 180 arc tMatrix setmatrix
  closepath} bdef
/FRR {MRR stroke } bdef
/PRR {MRR fill } bdef
/MlrRR {/lry xdef /lrx xdef /uly xdef /ulx xdef /rad lry uly sub 2 div def
  newpath tMatrix currentmatrix pop ulx rad add uly rad add translate
  rad rad scale 0 0 1 90 270 arc tMatrix setmatrix lrx rad sub lry rad
  sub translate rad rad scale 0 0 1 270 90 arc tMatrix setmatrix
  closepath} bdef
/FlrRR {MlrRR stroke } bdef
/PlrRR {MlrRR fill } bdef
/MtbRR {/lry xdef /lrx xdef /uly xdef /ulx xdef /rad lrx ulx sub 2 div def
  newpath tMatrix currentmatrix pop ulx rad add uly rad add translate
  rad rad scale 0 0 1 180 360 arc tMatrix setmatrix lrx rad sub lry rad
  sub translate rad rad scale 0 0 1 0 180 arc tMatrix setmatrix
  closepath} bdef
/FtbRR {MtbRR stroke } bdef
/PtbRR {MtbRR fill } bdef
/stri 6 array def /dtri 6 array def
/smat 6 array def /dmat 6 array def
/tmat1 6 array def /tmat2 6 array def /dif 3 array def
/asub {/ind2 exch def /ind1 exch def dup dup
  ind1 get exch ind2 get sub exch } bdef
/tri_to_matrix {
  2 0 asub 3 1 asub 4 0 asub 5 1 asub
  dup 0 get exch 1 get 7 -1 roll astore } bdef
/compute_transform {
  dmat dtri tri_to_matrix tmat1 invertmatrix 
  smat stri tri_to_matrix tmat2 concatmatrix } bdef
/ds {stri astore pop} bdef
/dt {dtri astore pop} bdef
/db {2 copy /cols xdef /rows xdef mul dup 3 mul string
  currentfile 
  3 index 0 eq {/ASCIIHexDecode filter}
  {/ASCII85Decode filter 3 index 2 eq {/RunLengthDecode filter} if }
  ifelse exch readstring pop
  dup 0 3 index getinterval /rbmap xdef
  dup 2 index dup getinterval /gbmap xdef
  1 index dup 2 mul exch getinterval /bbmap xdef pop pop}bdef
/it {gs np dtri aload pop moveto lineto lineto cp c
  cols rows 8 compute_transform 
  rbmap gbmap bbmap true 3 colorimage gr}bdef
/il {newpath moveto lineto stroke}bdef
currentdict end def
%%EndProlog

%%BeginSetup
MathWorks begin

0 cap

end
%%EndSetup

%%Page: 1 1
%%BeginPageSetup
%%PageBoundingBox:    37   180   549   616
MathWorks begin
bpage
%%EndPageSetup

%%BeginObject: obj1
bplot

/dpi2point 12 def
portraitMode 0216 7344 csm

  234   -48  6149  5231 rc
85 dict begin %Colortable dictionary
/c0 { 0.000000 0.000000 0.000000 sr} bdef
/c1 { 1.000000 1.000000 1.000000 sr} bdef
/c2 { 0.900000 0.000000 0.000000 sr} bdef
/c3 { 0.000000 0.820000 0.000000 sr} bdef
/c4 { 0.000000 0.000000 0.800000 sr} bdef
/c5 { 0.910000 0.820000 0.320000 sr} bdef
/c6 { 1.000000 0.260000 0.820000 sr} bdef
/c7 { 0.000000 0.820000 0.820000 sr} bdef
c0
1 j
1 sg
   0    0 6919 5187 rf
6 w
0 4202 5362 0 0 -4202 899 4616 4 MP
PP
-5362 0 0 4202 5362 0 0 -4202 899 4616 5 MP stroke
4 w
DO
SO
6 w
0 sg
 899  414 mt 6261  414 L
 899 4616 mt 6261 4616 L
6261 4616 mt 6261  414 L
 899 4616 mt  899  414 L
 899 4616 mt 6261 4616 L
 899 4616 mt  899  414 L
 919 4616 mt  919 4562 L
 919  414 mt  919  467 L
%%IncludeResource: font Helvetica
/Helvetica /WindowsLatin1Encoding 240 FMSR

 713 4873 mt 
(-3) s
1806 4616 mt 1806 4562 L
1806  414 mt 1806  467 L
1600 4873 mt 
(-2) s
2693 4616 mt 2693 4562 L
2693  414 mt 2693  467 L
2487 4873 mt 
(-1) s
3580 4616 mt 3580 4562 L
3580  414 mt 3580  467 L
3514 4873 mt 
(0) s
4466 4616 mt 4466 4562 L
4466  414 mt 4466  467 L
4400 4873 mt 
(1) s
5353 4616 mt 5353 4562 L
5353  414 mt 5353  467 L
5287 4873 mt 
(2) s
6240 4616 mt 6240 4562 L
6240  414 mt 6240  467 L
6174 4873 mt 
(3) s
 899 4599 mt  952 4599 L
6261 4599 mt 6207 4599 L
 591 4688 mt 
(-3) s
 899 3904 mt  952 3904 L
6261 3904 mt 6207 3904 L
 591 3993 mt 
(-2) s
 899 3209 mt  952 3209 L
6261 3209 mt 6207 3209 L
 591 3298 mt 
(-1) s
 899 2514 mt  952 2514 L
6261 2514 mt 6207 2514 L
 731 2603 mt 
(0) s
 899 1820 mt  952 1820 L
6261 1820 mt 6207 1820 L
 731 1909 mt 
(1) s
 899 1125 mt  952 1125 L
6261 1125 mt 6207 1125 L
 731 1214 mt 
(2) s
 899  430 mt  952  430 L
6261  430 mt 6207  430 L
 731  519 mt 
(3) s
 899  414 mt 6261  414 L
 899 4616 mt 6261 4616 L
6261 4616 mt 6261  414 L
 899 4616 mt  899  414 L
gs 899 414 5363 4203 rc
gr

/c8 { 0.000000 0.000000 1.000000 sr} bdef
c8
5606  414 mt 5678  414 L
5642  378 mt 5642  450 L
3196 2462 mt 3268 2462 L
3232 2426 mt 3232 2498 L
2218 2844 mt 2290 2844 L
2254 2808 mt 2254 2880 L
2282 2265 mt 2354 2265 L
2318 2229 mt 2318 2301 L
2924 3774 mt 2996 3774 L
2960 3738 mt 2960 3810 L
2513 4616 mt 2585 4616 L
2549 4580 mt 2549 4652 L
1481 1489 mt 1553 1489 L
1517 1453 mt 1517 1525 L
2126 2835 mt 2198 2835 L
2162 2799 mt 2162 2871 L
1722 2396 mt 1794 2396 L
1758 2360 mt 1758 2432 L
3964 1643 mt 4036 1643 L
4000 1607 mt 4000 1679 L
3135 2989 mt 3207 2989 L
3171 2953 mt 3171 3025 L
3927 3822 mt 3999 3822 L
3963 3786 mt 3963 3858 L
3780 2584 mt 3852 2584 L
3816 2548 mt 3816 2620 L
4364 3306 mt 4436 3306 L
4400 3270 mt 4400 3342 L
3347 2796 mt 3419 2796 L
3383 2760 mt 3383 2832 L
4732 1794 mt 4804 1794 L
4768 1758 mt 4768 1830 L
5700 1404 mt 5772 1404 L
5736 1368 mt 5736 1440 L
3027 2825 mt 3099 2825 L
3063 2789 mt 3063 2861 L
2502 2801 mt 2574 2801 L
2538 2765 mt 2538 2837 L
3832 1671 mt 3904 1671 L
3868 1635 mt 3868 1707 L
1766 2830 mt 1838 2830 L
1802 2794 mt 1802 2866 L
3059 2298 mt 3131 2298 L
3095 2262 mt 3095 2334 L
3364 2150 mt 3436 2150 L
3400 2114 mt 3400 2186 L
3342 3376 mt 3414 3376 L
3378 3340 mt 3378 3412 L
4347 2237 mt 4419 2237 L
4383 2201 mt 4383 2273 L
3438 2475 mt 3510 2475 L
3474 2439 mt 3474 2511 L
3971 1948 mt 4043 1948 L
4007 1912 mt 4007 1984 L
2298 2925 mt 2370 2925 L
2334 2889 mt 2334 2961 L
2534 3581 mt 2606 3581 L
2570 3545 mt 2570 3617 L
2980 2641 mt 3052 2641 L
3016 2605 mt 3016 2677 L
2662 1604 mt 2734 1604 L
2698 1568 mt 2698 1640 L
3104 2185 mt 3176 2185 L
3140 2149 mt 3140 2221 L
3505 2449 mt 3577 2449 L
3541 2413 mt 3541 2485 L
3706 1723 mt 3778 1723 L
3742 1687 mt 3742 1759 L
3493 3198 mt 3565 3198 L
3529 3162 mt 3529 3234 L
3510 2637 mt 3582 2637 L
3546 2601 mt 3546 2673 L
2444 2904 mt 2516 2904 L
2480 2868 mt 2480 2940 L
3007 2209 mt 3079 2209 L
3043 2173 mt 3043 2245 L
4290 2983 mt 4362 2983 L
4326 2947 mt 4326 3019 L
4177 1538 mt 4249 1538 L
4213 1502 mt 4213 1574 L
3521 3157 mt 3593 3157 L
3557 3121 mt 3557 3193 L
3261 1995 mt 3333 1995 L
3297 1959 mt 3297 2031 L
4184 2029 mt 4256 2029 L
4220 1993 mt 4220 2065 L
4128 2307 mt 4200 2307 L
4164 2271 mt 4164 2343 L
3116 1911 mt 3188 1911 L
3152 1875 mt 3152 1947 L
2201 3137 mt 2273 3137 L
2237 3101 mt 2237 3173 L
4463 1371 mt 4535 1371 L
4499 1335 mt 4499 1407 L
3376 2199 mt 3448 2199 L
3412 2163 mt 3412 2235 L
3850 2994 mt 3922 2994 L
3886 2958 mt 3886 3030 L
2732 3081 mt 2804 3081 L
2768 3045 mt 2768 3117 L
4282 3349 mt 4354 3349 L
4318 3313 mt 4318 3385 L
3958 2316 mt 4030 2316 L
3994 2280 mt 3994 2352 L
2836 3191 mt 2908 3191 L
2872 3155 mt 2872 3227 L
3560 2233 mt 3632 2233 L
3596 2197 mt 3596 2269 L
4655 2664 mt 4727 2664 L
4691 2628 mt 4691 2700 L
3677 2501 mt 3749 2501 L
3713 2465 mt 3713 2537 L
3903 3045 mt 3975 3045 L
3939 3009 mt 3939 3081 L
2789 3000 mt 2861 3000 L
2825 2964 mt 2825 3036 L
3745 2967 mt 3817 2967 L
3781 2931 mt 3781 3003 L
2896 3151 mt 2968 3151 L
2932 3115 mt 2932 3187 L
3661 2018 mt 3733 2018 L
3697 1982 mt 3697 2054 L
4922 2488 mt 4994 2488 L
4958 2452 mt 4958 2524 L
3313 1121 mt 3385 1121 L
3349 1085 mt 3349 1157 L
3426 1878 mt 3498 1878 L
3462 1842 mt 3462 1914 L
2565 1972 mt 2637 1972 L
2601 1936 mt 2601 2008 L
3330 1845 mt 3402 1845 L
3366 1809 mt 3366 1881 L
4805 2718 mt 4877 2718 L
4841 2682 mt 4841 2754 L
3172 2602 mt 3244 2602 L
3208 2566 mt 3208 2638 L
3184 2874 mt 3256 2874 L
3220 2838 mt 3220 2910 L
2355 2580 mt 2427 2580 L
2391 2544 mt 2391 2616 L
3066 2356 mt 3138 2356 L
3102 2320 mt 3102 2392 L
2432 3125 mt 2504 3125 L
2468 3089 mt 2468 3161 L
2420 2811 mt 2492 2811 L
2456 2775 mt 2456 2847 L
3768 3415 mt 3840 3415 L
3804 3379 mt 3804 3451 L
3013 2736 mt 3085 2736 L
3049 2700 mt 3049 2772 L
4028 2606 mt 4100 2606 L
4064 2570 mt 4064 2642 L
1991 3468 mt 2063 3468 L
2027 3432 mt 2027 3504 L
1907 4023 mt 1979 4023 L
1943 3987 mt 1943 4059 L
3649 1978 mt 3721 1978 L
3685 1942 mt 3685 2014 L
3243 2920 mt 3315 2920 L
3279 2884 mt 3279 2956 L
4236 2510 mt 4308 2510 L
4272 2474 mt 4272 2546 L
1674 2001 mt 1746 2001 L
1710 1965 mt 1710 2037 L
3826 1448 mt 3898 1448 L
3862 1412 mt 3862 1484 L
2016 2536 mt 2088 2536 L
2052 2500 mt 2052 2572 L
4719 1152 mt 4791 1152 L
4755 1116 mt 4755 1188 L
2805 2668 mt 2877 2668 L
2841 2632 mt 2841 2704 L
2680 3005 mt 2752 3005 L
2716 2969 mt 2716 3041 L
4034 3087 mt 4106 3087 L
4070 3051 mt 4070 3123 L
2697 2567 mt 2769 2567 L
2733 2531 mt 2733 2603 L
4274 2320 mt 4346 2320 L
4310 2284 mt 4310 2356 L
3538 2256 mt 3610 2256 L
3574 2220 mt 3574 2292 L
2575 2288 mt 2647 2288 L
2611 2252 mt 2611 2324 L
3820 3367 mt 3892 3367 L
3856 3331 mt 3856 3403 L
4564 2673 mt 4636 2673 L
4600 2637 mt 4600 2709 L
3307 2633 mt 3379 2633 L
3343 2597 mt 3343 2669 L
3762 2436 mt 3834 2436 L
3798 2400 mt 3798 2472 L
2931 2094 mt 3003 2094 L
2967 2058 mt 2967 2130 L
2749 3340 mt 2821 3340 L
2785 3304 mt 2785 3376 L
3946 2405 mt 4018 2405 L
3982 2369 mt 3982 2441 L
2183 3069 mt 2255 3069 L
2219 3033 mt 2219 3105 L
6225 1049 mt 6297 1049 L
6261 1013 mt 6261 1085 L
3633 2440 mt 3705 2440 L
3669 2404 mt 3669 2476 L
4060 1006 mt 4132 1006 L
4096  970 mt 4096 1042 L
2773 2909 mt 2845 2909 L
2809 2873 mt 2809 2945 L
4306 2773 mt 4378 2773 L
4342 2737 mt 4342 2809 L
3381 3057 mt 3453 3057 L
3417 3021 mt 3417 3093 L
3516 3540 mt 3588 3540 L
3552 3504 mt 3552 3576 L
4142 2135 mt 4214 2135 L
4178 2099 mt 4178 2171 L
3421 2700 mt 3493 2700 L
3457 2664 mt 3457 2736 L
1937 2374 mt 2009 2374 L
1973 2338 mt 1973 2410 L
3566 3395 mt 3638 3395 L
3602 3359 mt 3602 3431 L
1965 2589 mt 2037 2589 L
2001 2553 mt 2001 2625 L
4608 2554 mt 4680 2554 L
4644 2518 mt 4644 2590 L
3915 3011 mt 3987 3011 L
3951 2975 mt 3951 3047 L
2813 2646 mt 2885 2646 L
2849 2610 mt 2849 2682 L
3449 3567 mt 3521 3567 L
3485 3531 mt 3485 3603 L
2945 1851 mt 3017 1851 L
2981 1815 mt 2981 1887 L
3791 2894 mt 3863 2894 L
3827 2858 mt 3827 2930 L
2605 2576 mt 2677 2576 L
2641 2540 mt 2641 2612 L
3861 1388 mt 3933 1388 L
3897 1352 mt 3897 1424 L
2903 2655 mt 2975 2655 L
2939 2619 mt 2939 2691 L
3638 2270 mt 3710 2270 L
3674 2234 mt 3674 2306 L
3153 3093 mt 3225 3093 L
3189 3057 mt 3189 3129 L
4221 1740 mt 4293 1740 L
4257 1704 mt 4257 1776 L
4501 2189 mt 4573 2189 L
4537 2153 mt 4537 2225 L
3237 3220 mt 3309 3220 L
3273 3184 mt 3273 3256 L
2987 2759 mt 3059 2759 L
3023 2723 mt 3023 2795 L
3208 2940 mt 3280 2940 L
3244 2904 mt 3244 2976 L
3160 2750 mt 3232 2750 L
3196 2714 mt 3196 2786 L
3220 2125 mt 3292 2125 L
3256 2089 mt 3256 2161 L
2866 2067 mt 2938 2067 L
2902 2031 mt 2902 2103 L
4836 2194 mt 4908 2194 L
4872 2158 mt 4872 2230 L
3072 3358 mt 3144 3358 L
3108 3322 mt 3108 3394 L
3689 2445 mt 3761 2445 L
3725 2409 mt 3725 2481 L
3123 2062 mt 3195 2062 L
3159 2026 mt 3159 2098 L
3527 2480 mt 3599 2480 L
3563 2444 mt 3563 2516 L
3278 2727 mt 3350 2727 L
3314 2691 mt 3314 2763 L
3499 2458 mt 3571 2458 L
3535 2422 mt 3535 2494 L
5002 2571 mt 5074 2571 L
5038 2535 mt 5038 2607 L
3273 1954 mt 3345 1954 L
3309 1918 mt 3309 1990 L
2381 2951 mt 2453 2951 L
2417 2915 mt 2417 2987 L
3983 3877 mt 4055 3877 L
4019 3841 mt 4019 3913 L
1842 1680 mt 1914 1680 L
1878 1644 mt 1878 1716 L
3610 2284 mt 3682 2284 L
3646 2248 mt 3646 2320 L
3325 2815 mt 3397 2815 L
3361 2779 mt 3361 2851 L
3336 2432 mt 3408 2432 L
3372 2396 mt 3372 2468 L
4961 3711 mt 5033 3711 L
4997 3675 mt 4997 3747 L
4869 3980 mt 4941 3980 L
4905 3944 mt 4905 4016 L
3897 3265 mt 3969 3265 L
3933 3229 mt 3933 3301 L
4706 2024 mt 4778 2024 L
4742 1988 mt 4742 2060 L
2327 3099 mt 2399 3099 L
2363 3063 mt 2363 3135 L
3555 2379 mt 3627 2379 L
3591 2343 mt 3591 2415 L
2085 1756 mt 2157 1756 L
2121 1720 mt 2121 1792 L
3940 2628 mt 4012 2628 L
3976 2592 mt 3976 2664 L
5211 2078 mt 5283 2078 L
5247 2042 mt 5247 2114 L
3443 3034 mt 3515 3034 L
3479 2998 mt 3479 3070 L
3147 2471 mt 3219 2471 L
3183 2435 mt 3183 2507 L
4597 1823 mt 4669 1823 L
4633 1787 mt 4633 1859 L
3728 3942 mt 3800 3942 L
3764 3906 mt 3764 3978 L
1387 3051 mt 1459 3051 L
1423 3015 mt 1423 3087 L
1259 2792 mt 1331 2792 L
1295 2756 mt 1295 2828 L
3666 3273 mt 3738 3273 L
3702 3237 mt 3702 3309 L
3296 1614 mt 3368 1614 L
3332 1578 mt 3332 1650 L
3774 2514 mt 3846 2514 L
3810 2478 mt 3810 2550 L
2938 2722 mt 3010 2722 L
2974 2686 mt 2974 2758 L
3838 2099 mt 3910 2099 L
3874 2063 mt 3874 2135 L
4512 1936 mt 4584 1936 L
4548 1900 mt 4548 1972 L
3672 2392 mt 3744 2392 L
3708 2356 mt 3708 2428 L
2715 2325 mt 2787 2325 L
2751 2289 mt 2751 2361 L
3627 2545 mt 3699 2545 L
3663 2509 mt 3663 2581 L
5150 1715 mt 5222 1715 L
5186 1679 mt 5186 1751 L
4041 2115 mt 4113 2115 L
4077 2079 mt 4077 2151 L
3803 2051 mt 3875 2051 L
3839 2015 mt 3839 2087 L
2040 2597 mt 2112 2597 L
2076 2561 mt 2076 2633 L
4015 2214 mt 4087 2214 L
4051 2178 mt 4051 2250 L
2706 4305 mt 2778 4305 L
2742 4269 mt 2742 4341 L
3867 2160 mt 3939 2160 L
3903 2124 mt 3903 2196 L
3141 2899 mt 3213 2899 L
3177 2863 mt 3177 2935 L
3879 1232 mt 3951 1232 L
3915 1196 mt 3915 1268 L
2394 2849 mt 2466 2849 L
2430 2813 mt 2430 2885 L
4191 2120 mt 4263 2120 L
4227 2084 mt 4227 2156 L
3996 1255 mt 4068 1255 L
4032 1219 mt 4032 1291 L
4667 1462 mt 4739 1462 L
4703 1426 mt 4703 1498 L
3415 2528 mt 3487 2528 L
3451 2492 mt 3451 2564 L
3353 3106 mt 3425 3106 L
3389 3070 mt 3389 3142 L
2689 1662 mt 2761 1662 L
2725 1626 mt 2725 1698 L
2267 2145 mt 2339 2145 L
2303 2109 mt 2303 2181 L
3166 3112 mt 3238 3112 L
3202 3076 mt 3202 3148 L
4904 2754 mt 4976 2754 L
4940 2718 mt 4940 2790 L
4390 1526 mt 4462 1526 L
4426 1490 mt 4426 1562 L
4416 2347 mt 4488 2347 L
4452 2311 mt 4452 2383 L
2643 2046 mt 2715 2046 L
2679 2010 mt 2679 2082 L
3544 1885 mt 3616 1885 L
3580 1849 mt 3580 1921 L
2781 2383 mt 2853 2383 L
2817 2347 mt 2817 2419 L
2595 3446 mt 2667 3446 L
2631 3410 mt 2631 3482 L
5413  898 mt 5485  898 L
5449  862 mt 5449  934 L
4107 2180 mt 4179 2180 L
4143 2144 mt 4143 2216 L
4886 1550 mt 4958 1550 L
4922 1514 mt 4922 1586 L
2917 2562 mt 2989 2562 L
2953 2526 mt 2953 2598 L
3717 3527 mt 3789 3527 L
3753 3491 mt 3753 3563 L
5828  564 mt 5900  564 L
5864  528 mt 5864  600 L
4643 1865 mt 4715 1865 L
4679 1829 mt 4679 1901 L
3020 3331 mt 3092 3331 L
3056 3295 mt 3056 3367 L
3740 2806 mt 3812 2806 L
3776 2770 mt 3776 2842 L
2888 2930 mt 2960 2930 L
2924 2894 mt 2924 2966 L
4381 2352 mt 4453 2352 L
4417 2316 mt 4417 2388 L
3387 1772 mt 3459 1772 L
3423 1736 mt 3423 1808 L
4322 1942 mt 4394 1942 L
4358 1906 mt 4358 1978 L
2874 2484 mt 2946 2484 L
2910 2448 mt 2910 2520 L
4619 1764 mt 4691 1764 L
4655 1728 mt 4655 1800 L
2966 2820 mt 3038 2820 L
3002 2784 mt 3002 2856 L
3488 2155 mt 3560 2155 L
3524 2119 mt 3524 2191 L
3214 2523 mt 3286 2523 L
3250 2487 mt 3250 2559 L
5468 2057 mt 5540 2057 L
5504 2021 mt 5504 2093 L
2251 2972 mt 2323 2972 L
2287 2936 mt 2287 3008 L
5365 1502 mt 5437 1502 L
5401 1466 mt 5401 1538 L
5531 1476 mt 5603 1476 L
5567 1440 mt 5567 1512 L
3683 3457 mt 3755 3457 L
3719 3421 mt 3719 3493 L
3644 2302 mt 3716 2302 L
3680 2266 mt 3680 2338 L
4054 1561 mt 4126 1561 L
4090 1525 mt 4090 1597 L
2973 3675 mt 3045 3675 L
3009 3639 mt 3009 3711 L
4087 3235 mt 4159 3235 L
4123 3199 mt 4123 3271 L
3751 1858 mt 3823 1858 L
3787 1822 mt 3787 1894 L
2821 2343 mt 2893 2343 L
2857 2307 mt 2857 2379 L
4121 2410 mt 4193 2410 L
4157 2374 mt 4157 2446 L
3757 3213 mt 3829 3213 L
3793 3177 mt 3793 3249 L
3190 2558 mt 3262 2558 L
3226 2522 mt 3226 2594 L
4338 2624 mt 4410 2624 L
4374 2588 mt 4374 2660 L
2959 2334 mt 3031 2334 L
2995 2298 mt 2995 2370 L
3797 2978 mt 3869 2978 L
3833 2942 mt 3833 3014 L
4170 2007 mt 4242 2007 L
4206 1971 mt 4206 2043 L
3129 1689 mt 3201 1689 L
3165 1653 mt 3165 1725 L
2634 3028 mt 2706 3028 L
2670 2992 mt 2670 3064 L
4372 1336 mt 4444 1336 L
4408 1300 mt 4408 1372 L
2797 3405 mt 2869 3405 L
2833 3369 mt 2833 3441 L
2063 3297 mt 2135 3297 L
2099 3261 mt 2099 3333 L
3432 3250 mt 3504 3250 L
3468 3214 mt 3468 3286 L
4680 3425 mt 4752 3425 L
4716 3389 mt 4716 3461 L
4492 2869 mt 4564 2869 L
4528 2833 mt 4528 2905 L
3599 1816 mt 3671 1816 L
3635 1780 mt 3635 1852 L
4156 3063 mt 4228 3063 L
4192 3027 mt 4192 3099 L
4149 1653 mt 4221 1653 L
4185 1617 mt 4185 1689 L
3471 2338 mt 3543 2338 L
3507 2302 mt 3507 2374 L
2555 2962 mt 2627 2962 L
2591 2926 mt 2591 2998 L
3302 2506 mt 3374 2506 L
3338 2470 mt 3338 2542 L
3053 2311 mt 3125 2311 L
3089 2275 mt 3089 2347 L
5096 1354 mt 5168 1354 L
5132 1318 mt 5132 1390 L
2671 2840 mt 2743 2840 L
2707 2804 mt 2707 2876 L
4330 3797 mt 4402 3797 L
4366 3761 mt 4366 3833 L
2523 3479 mt 2595 3479 L
2559 3443 mt 2559 3515 L
4067 2731 mt 4139 2731 L
4103 2695 mt 4103 2767 L
4228 2787 mt 4300 2787 L
4264 2751 mt 4264 2823 L
2952 3610 mt 3024 3610 L
2988 3574 mt 2988 3646 L
3232 2650 mt 3304 2650 L
3268 2614 mt 3268 2686 L
4009 3171 mt 4081 3171 L
4045 3135 mt 4045 3207 L
4199 2083 mt 4271 2083 L
4235 2047 mt 4235 2119 L
2106 3022 mt 2178 3022 L
2142 2986 mt 2142 3058 L
3477 2611 mt 3549 2611 L
3513 2575 mt 3513 2647 L
4407 2228 mt 4479 2228 L
4443 2192 mt 4443 2264 L
3785 2275 mt 3857 2275 L
3821 2239 mt 3821 2311 L
3594 2089 mt 3666 2089 L
3630 2053 mt 3630 2125 L
4482 3017 mt 4554 3017 L
4518 2981 mt 4518 3053 L
2765 1087 mt 2837 1087 L
2801 1051 mt 2801 1123 L
3398 1872 mt 3470 1872 L
3434 1836 mt 3434 1908 L
3249 1583 mt 3321 1583 L
3285 1547 mt 3285 1619 L
2844 2223 mt 2916 2223 L
2880 2187 mt 2880 2259 L
4002 2778 mt 4074 2778 L
4038 2742 mt 4038 2814 L
4251 3553 mt 4323 3553 L
4287 3517 mt 4287 3589 L
1619 2691 mt 1691 2691 L
1655 2655 mt 1655 2727 L
3404 1892 mt 3476 1892 L
3440 1856 mt 3440 1928 L
3891 3184 mt 3963 3184 L
3927 3148 mt 3927 3220 L
3921 2764 mt 3993 2764 L
3957 2728 mt 3957 2800 L
3454 3752 mt 3526 3752 L
3490 3716 mt 3490 3788 L
 863 2361 mt  935 2361 L
 899 2325 mt  899 2397 L
2993 2365 mt 3065 2365 L
3029 2329 mt 3029 2401 L
3814 2170 mt 3886 2170 L
3850 2134 mt 3850 2206 L
3605 3731 mt 3677 3731 L
3641 3695 mt 3641 3767 L
3482 2519 mt 3554 2519 L
3518 2483 mt 3518 2555 L
2479 2593 mt 2551 2593 L
2515 2557 mt 2515 2629 L
2545 2709 mt 2617 2709 L
2581 2673 mt 2581 2745 L
4266 2549 mt 4338 2549 L
4302 2513 mt 4302 2585 L
2165 2140 mt 2237 2140 L
2201 2104 mt 2201 2176 L
4472 1298 mt 4544 1298 L
4508 1262 mt 4508 1334 L
3532 1960 mt 3604 1960 L
3568 1924 mt 3568 1996 L
5180  724 mt 5252  724 L
5216  688 mt 5216  760 L
2757 4205 mt 2829 4205 L
2793 4169 mt 2793 4241 L
3571 2073 mt 3643 2073 L
3607 2037 mt 3607 2109 L
4259 3039 mt 4331 3039 L
4295 3003 mt 4295 3075 L
3040 3118 mt 3112 3118 L
3076 3082 mt 3076 3154 L
3694 3131 mt 3766 3131 L
3730 3095 mt 3730 3167 L
4074 1930 mt 4146 1930 L
4110 1894 mt 4110 1966 L
3033 2956 mt 3105 2956 L
3069 2920 mt 3069 2992 L
3393 2615 mt 3465 2615 L
3429 2579 mt 3429 2651 L
5122 1984 mt 5194 1984 L
5158 1948 mt 5158 2020 L
3110 3503 mt 3182 3503 L
3146 3467 mt 3146 3539 L
2341 3693 mt 2413 3693 L
2377 3657 mt 2377 3729 L
3046 2677 mt 3118 2677 L
3082 2641 mt 3082 2713 L
3723 2453 mt 3795 2453 L
3759 2417 mt 3759 2489 L
2312 2889 mt 2384 2889 L
2348 2853 mt 2348 2925 L
3226 2713 mt 3298 2713 L
3262 2677 mt 3262 2749 L
6033 1207 mt 6105 1207 L
6069 1171 mt 6069 1243 L
2828 3164 mt 2900 3164 L
2864 3128 mt 2864 3200 L
4820  957 mt 4892  957 L
4856  921 mt 4856  993 L
3711 3908 mt 3783 3908 L
3747 3872 mt 3747 3944 L
3700 3257 mt 3772 3257 L
3736 3221 mt 3736 3293 L
3809 2532 mt 3881 2532 L
3845 2496 mt 3845 2568 L
4135 2741 mt 4207 2741 L
4171 2705 mt 4171 2777 L
4746 2279 mt 4818 2279 L
4782 2243 mt 4782 2315 L
2723 2242 mt 2795 2242 L
2759 2206 mt 2759 2278 L
3410 2782 mt 3482 2782 L
3446 2746 mt 3446 2818 L
4981 2427 mt 5053 2427 L
5017 2391 mt 5017 2463 L
4163 3314 mt 4235 3314 L
4199 3278 mt 4199 3350 L
4585 3227 mt 4657 3227 L
4621 3191 mt 4621 3263 L
4314 2884 mt 4386 2884 L
4350 2848 mt 4350 2920 L
3085 2768 mt 3157 2768 L
3121 2732 mt 3121 2804 L
3577 2879 mt 3649 2879 L
3613 2843 mt 3613 2915 L
3977 1572 mt 4049 1572 L
4013 1536 mt 4013 1608 L
4435 2218 mt 4507 2218 L
4471 2182 mt 4471 2254 L
3460 3322 mt 3532 3322 L
3496 3286 mt 3496 3358 L
3255 1732 mt 3327 1732 L
3291 1696 mt 3291 1768 L
2468 3075 mt 2540 3075 L
2504 3039 mt 2504 3111 L
4213 1707 mt 4285 1707 L
4249 1671 mt 4249 1743 L
3989 2251 mt 4061 2251 L
4025 2215 mt 4025 2287 L
4243 1419 mt 4315 1419 L
4279 1383 mt 4279 1455 L
5024 1838 mt 5096 1838 L
5060 1802 mt 5060 1874 L
3616 2745 mt 3688 2745 L
3652 2709 mt 3652 2781 L
3655 2109 mt 3727 2109 L
3691 2073 mt 3691 2145 L
2456 2175 mt 2528 2175 L
2492 2139 mt 2492 2211 L
3909 1904 mt 3981 1904 L
3945 1868 mt 3945 1940 L
4047 2401 mt 4119 2401 L
4083 2365 mt 4083 2437 L
3885 2414 mt 3957 2414 L
3921 2378 mt 3921 2450 L
4760 2423 mt 4832 2423 L
4796 2387 mt 4796 2459 L
3000 2935 mt 3072 2935 L
3036 2899 mt 3036 2971 L
3549 2493 mt 3621 2493 L
3585 2457 mt 3585 2529 L
4080 1698 mt 4152 1698 L
4116 1662 mt 4116 1734 L
4444 2165 mt 4516 2165 L
4480 2129 mt 4480 2201 L
1805 4072 mt 1877 4072 L
1841 4036 mt 1841 4108 L
4532 3289 mt 4604 3289 L
4568 3253 mt 4568 3325 L
4574 2946 mt 4646 2946 L
4610 2910 mt 4610 2982 L
2910 2130 mt 2982 2130 L
2946 2094 mt 2946 2166 L
3934 3515 mt 4006 3515 L
3970 3479 mt 3970 3551 L
4522 3144 mt 4594 3144 L
4558 3108 mt 4558 3180 L
2490 2012 mt 2562 2012 L
2526 1976 mt 2526 2048 L
3290 2329 mt 3362 2329 L
3326 2293 mt 3326 2365 L
4094 3491 mt 4166 3491 L
4130 3455 mt 4130 3527 L
2652 2914 mt 2724 2914 L
2688 2878 mt 2688 2950 L
4355 3848 mt 4427 3848 L
4391 3812 mt 4391 3884 L
4298 2247 mt 4370 2247 L
4334 2211 mt 4334 2283 L
4789 2497 mt 4861 2497 L
4825 2461 mt 4825 2533 L
4631 1990 mt 4703 1990 L
4667 1954 mt 4667 2026 L
2368 2682 mt 2440 2682 L
2404 2646 mt 2404 2718 L
3178 3436 mt 3250 3436 L
3214 3400 mt 3214 3472 L
3873 1434 mt 3945 1434 L
3909 1398 mt 3909 1470 L
2146 3595 mt 2218 3595 L
2182 3559 mt 2182 3631 L
5245 2261 mt 5317 2261 L
5281 2225 mt 5281 2297 L
3621 3281 mt 3693 3281 L
3657 3245 mt 3657 3317 L
3734 1917 mt 3806 1917 L
3770 1881 mt 3770 1953 L
5071 1277 mt 5143 1277 L
5107 1241 mt 5107 1313 L
2624 4131 mt 2696 4131 L
2660 4095 mt 2660 4167 L
2407 2695 mt 2479 2695 L
2443 2659 mt 2443 2731 L
2740 3178 mt 2812 3178 L
2776 3142 mt 2776 3214 L
2615 2864 mt 2687 2864 L
2651 2828 mt 2651 2900 L
3844 1787 mt 3916 1787 L
3880 1751 mt 3880 1823 L
4453 2040 mt 4525 2040 L
4489 2004 mt 4489 2076 L
3855 2104 mt 3927 2104 L
3891 2068 mt 3891 2140 L
4425 1809 mt 4497 1809 L
4461 1773 mt 4461 1845 L
3319 2418 mt 3391 2418 L
3355 2382 mt 3355 2454 L
3359 1966 mt 3431 1966 L
3395 1930 mt 3395 2002 L
3098 1898 mt 3170 1898 L
3134 1862 mt 3134 1934 L
4206 2035 mt 4278 2035 L
4242 1999 mt 4242 2071 L
5282 1923 mt 5354 1923 L
5318 1887 mt 5318 1959 L
3202 2854 mt 3274 2854 L
3238 2818 mt 3238 2890 L
3078 2388 mt 3150 2388 L
3114 2352 mt 3114 2424 L
3370 2859 mt 3442 2859 L
3406 2823 mt 3406 2895 L
4542 1802 mt 4614 1802 L
4578 1766 mt 4578 1838 L
3466 2467 mt 3538 2467 L
3502 2431 mt 3502 2503 L
4398 1831 mt 4470 1831 L
4434 1795 mt 4434 1867 L
4100 3641 mt 4172 3641 L
4136 3605 mt 4136 3677 L
3588 1318 mt 3660 1318 L
3624 1282 mt 3624 1354 L
3091 3625 mt 3163 3625 L
3127 3589 mt 3127 3661 L
4775 1748 mt 4847 1748 L
4811 1712 mt 4811 1784 L
4693 1181 mt 4765 1181 L
4729 1145 mt 4729 1217 L
4553 1624 mt 4625 1624 L
4589 1588 mt 4589 1660 L
2586 3658 mt 2658 3658 L
2622 3622 mt 2622 3694 L
3952 2293 mt 4024 2293 L
3988 2257 mt 3988 2329 L
2881 1514 mt 2953 1514 L
2917 1478 mt 2917 1550 L
3582 2619 mt 3654 2619 L
3618 2583 mt 3618 2655 L
3284 2686 mt 3356 2686 L
3320 2650 mt 3320 2722 L
4941 3206 mt 5013 3206 L
4977 3170 mt 4977 3242 L
4021 1593 mt 4093 1593 L
4057 1557 mt 4057 1629 L
5047 3386 mt 5119 3386 L
5083 3350 mt 5083 3422 L
2859 2659 mt 2931 2659 L
2895 2623 mt 2895 2695 L
4114 1634 mt 4186 1634 L
4150 1598 mt 4150 1670 L
2851 2370 mt 2923 2370 L
2887 2334 mt 2887 2406 L
1556 3242 mt 1628 3242 L
1592 3206 mt 1592 3278 L
5321  824 mt 5393  824 L
5357  788 mt 5357  860 L
3267 2541 mt 3339 2541 L
3303 2505 mt 3303 2577 L
4852 1779 mt 4924 1779 L
4888 1743 mt 4888 1815 L
2235 2204 mt 2307 2204 L
2271 2168 mt 2271 2240 L
1876 2704 mt 1948 2704 L
1912 2668 mt 1912 2740 L
gs 899 414 5363 4203 rc
gr

0 sg
2752 5104 mt 
(\(S,LFCC,GMM\)) s
 482 3259 mt  -90 rotate
(\(S,PAC,GMM\)) s
90 rotate
2975  223 mt 
(Corr = 0.35) s

end %%Color Dict

eplot
%%EndObject

epage
end

showpage

%%Trailer
%%EOF
