%!PS-Adobe-3.0 EPSF-3.0
%%Creator: MATLAB, The Mathworks, Inc. Version 7.7.0.471 (R2008b). Operating System: Microsoft Windows XP.
%%Title: Pictures\main_zoo_mvar_analysis_data_BMI_xcorr_bmig_p1_k1_6_7.eps
%%CreationDate: 10/26/2009  05:45:05
%%DocumentNeededFonts: Helvetica
%%DocumentProcessColors: Cyan Magenta Yellow Black
%%LanguageLevel: 2
%%Pages: 1
%%BoundingBox:    37   180   549   616
%%EndComments

%%BeginProlog
% MathWorks dictionary
/MathWorks 160 dict begin
% definition operators
/bdef {bind def} bind def
/ldef {load def} bind def
/xdef {exch def} bdef
/xstore {exch store} bdef
% operator abbreviations
/c  /clip ldef
/cc /concat ldef
/cp /closepath ldef
/gr /grestore ldef
/gs /gsave ldef
/mt /moveto ldef
/np /newpath ldef
/cm /currentmatrix ldef
/sm /setmatrix ldef
/rm /rmoveto ldef
/rl /rlineto ldef
/s {show newpath} bdef
/sc {setcmykcolor} bdef
/sr /setrgbcolor ldef
/sg /setgray ldef
/w /setlinewidth ldef
/j /setlinejoin ldef
/cap /setlinecap ldef
/rc {rectclip} bdef
/rf {rectfill} bdef
% page state control
/pgsv () def
/bpage {/pgsv save def} bdef
/epage {pgsv restore} bdef
/bplot /gsave ldef
/eplot {stroke grestore} bdef
% orientation switch
/portraitMode 0 def /landscapeMode 1 def /rotateMode 2 def
% coordinate system mappings
/dpi2point 0 def
% font control
/FontSize 0 def
/FMS {/FontSize xstore findfont [FontSize 0 0 FontSize neg 0 0]
  makefont setfont} bdef
/ISOLatin1Encoding where {pop /WindowsLatin1Encoding 256 array bdef
ISOLatin1Encoding WindowsLatin1Encoding copy pop
/.notdef/.notdef/quotesinglbase/florin/quotedblbase/ellipsis/dagger
/daggerdbl/circumflex/perthousand/Scaron/guilsinglleft/OE/.notdef/.notdef
/.notdef/.notdef/quoteleft/quoteright/quotedblleft/quotedblright/bullet
/endash/emdash/tilde/trademark/scaron/guilsinglright/oe/.notdef/.notdef
/Ydieresis WindowsLatin1Encoding 128 32 getinterval astore pop}
{/WindowsLatin1Encoding StandardEncoding bdef} ifelse
/reencode {exch dup where {pop load} {pop StandardEncoding} ifelse
  exch dup 3 1 roll findfont dup length dict begin
  { 1 index /FID ne {def}{pop pop} ifelse } forall
  /Encoding exch def currentdict end definefont pop} bdef
/isroman {findfont /CharStrings get /Agrave known} bdef
/FMSR {3 1 roll 1 index dup isroman {reencode} {pop pop} ifelse
  exch FMS} bdef
/csm {1 dpi2point div -1 dpi2point div scale neg translate
 dup landscapeMode eq {pop -90 rotate}
  {rotateMode eq {90 rotate} if} ifelse} bdef
% line types: solid, dotted, dashed, dotdash
/SO { [] 0 setdash } bdef
/DO { [.5 dpi2point mul 4 dpi2point mul] 0 setdash } bdef
/DA { [6 dpi2point mul] 0 setdash } bdef
/DD { [.5 dpi2point mul 4 dpi2point mul 6 dpi2point mul 4
  dpi2point mul] 0 setdash } bdef
% macros for lines and objects
/L {lineto stroke} bdef
/MP {3 1 roll moveto 1 sub {rlineto} repeat} bdef
/AP {{rlineto} repeat} bdef
/PDlw -1 def
/W {/PDlw currentlinewidth def setlinewidth} def
/PP {closepath eofill} bdef
/DP {closepath stroke} bdef
/MR {4 -2 roll moveto dup  0 exch rlineto exch 0 rlineto
  neg 0 exch rlineto closepath} bdef
/FR {MR stroke} bdef
/PR {MR fill} bdef
/L1i {{currentfile picstr readhexstring pop} image} bdef
/tMatrix matrix def
/MakeOval {newpath tMatrix currentmatrix pop translate scale
0 0 1 0 360 arc tMatrix setmatrix} bdef
/FO {MakeOval stroke} bdef
/PO {MakeOval fill} bdef
/PD {currentlinewidth 2 div 0 360 arc fill
   PDlw -1 eq not {PDlw w /PDlw -1 def} if} def
/FA {newpath tMatrix currentmatrix pop translate scale
  0 0 1 5 -2 roll arc tMatrix setmatrix stroke} bdef
/PA {newpath tMatrix currentmatrix pop	translate 0 0 moveto scale
  0 0 1 5 -2 roll arc closepath tMatrix setmatrix fill} bdef
/FAn {newpath tMatrix currentmatrix pop translate scale
  0 0 1 5 -2 roll arcn tMatrix setmatrix stroke} bdef
/PAn {newpath tMatrix currentmatrix pop translate 0 0 moveto scale
  0 0 1 5 -2 roll arcn closepath tMatrix setmatrix fill} bdef
/vradius 0 def /hradius 0 def /lry 0 def
/lrx 0 def /uly 0 def /ulx 0 def /rad 0 def
/MRR {/vradius xdef /hradius xdef /lry xdef /lrx xdef /uly xdef
  /ulx xdef newpath tMatrix currentmatrix pop ulx hradius add uly
  vradius add translate hradius vradius scale 0 0 1 180 270 arc 
  tMatrix setmatrix lrx hradius sub uly vradius add translate
  hradius vradius scale 0 0 1 270 360 arc tMatrix setmatrix
  lrx hradius sub lry vradius sub translate hradius vradius scale
  0 0 1 0 90 arc tMatrix setmatrix ulx hradius add lry vradius sub
  translate hradius vradius scale 0 0 1 90 180 arc tMatrix setmatrix
  closepath} bdef
/FRR {MRR stroke } bdef
/PRR {MRR fill } bdef
/MlrRR {/lry xdef /lrx xdef /uly xdef /ulx xdef /rad lry uly sub 2 div def
  newpath tMatrix currentmatrix pop ulx rad add uly rad add translate
  rad rad scale 0 0 1 90 270 arc tMatrix setmatrix lrx rad sub lry rad
  sub translate rad rad scale 0 0 1 270 90 arc tMatrix setmatrix
  closepath} bdef
/FlrRR {MlrRR stroke } bdef
/PlrRR {MlrRR fill } bdef
/MtbRR {/lry xdef /lrx xdef /uly xdef /ulx xdef /rad lrx ulx sub 2 div def
  newpath tMatrix currentmatrix pop ulx rad add uly rad add translate
  rad rad scale 0 0 1 180 360 arc tMatrix setmatrix lrx rad sub lry rad
  sub translate rad rad scale 0 0 1 0 180 arc tMatrix setmatrix
  closepath} bdef
/FtbRR {MtbRR stroke } bdef
/PtbRR {MtbRR fill } bdef
/stri 6 array def /dtri 6 array def
/smat 6 array def /dmat 6 array def
/tmat1 6 array def /tmat2 6 array def /dif 3 array def
/asub {/ind2 exch def /ind1 exch def dup dup
  ind1 get exch ind2 get sub exch } bdef
/tri_to_matrix {
  2 0 asub 3 1 asub 4 0 asub 5 1 asub
  dup 0 get exch 1 get 7 -1 roll astore } bdef
/compute_transform {
  dmat dtri tri_to_matrix tmat1 invertmatrix 
  smat stri tri_to_matrix tmat2 concatmatrix } bdef
/ds {stri astore pop} bdef
/dt {dtri astore pop} bdef
/db {2 copy /cols xdef /rows xdef mul dup 3 mul string
  currentfile 
  3 index 0 eq {/ASCIIHexDecode filter}
  {/ASCII85Decode filter 3 index 2 eq {/RunLengthDecode filter} if }
  ifelse exch readstring pop
  dup 0 3 index getinterval /rbmap xdef
  dup 2 index dup getinterval /gbmap xdef
  1 index dup 2 mul exch getinterval /bbmap xdef pop pop}bdef
/it {gs np dtri aload pop moveto lineto lineto cp c
  cols rows 8 compute_transform 
  rbmap gbmap bbmap true 3 colorimage gr}bdef
/il {newpath moveto lineto stroke}bdef
currentdict end def
%%EndProlog

%%BeginSetup
MathWorks begin

0 cap

end
%%EndSetup

%%Page: 1 1
%%BeginPageSetup
%%PageBoundingBox:    37   180   549   616
MathWorks begin
bpage
%%EndPageSetup

%%BeginObject: obj1
bplot

/dpi2point 12 def
portraitMode 0216 7344 csm

  234   -48  6149  5231 rc
85 dict begin %Colortable dictionary
/c0 { 0.000000 0.000000 0.000000 sr} bdef
/c1 { 1.000000 1.000000 1.000000 sr} bdef
/c2 { 0.900000 0.000000 0.000000 sr} bdef
/c3 { 0.000000 0.820000 0.000000 sr} bdef
/c4 { 0.000000 0.000000 0.800000 sr} bdef
/c5 { 0.910000 0.820000 0.320000 sr} bdef
/c6 { 1.000000 0.260000 0.820000 sr} bdef
/c7 { 0.000000 0.820000 0.820000 sr} bdef
c0
1 j
1 sg
   0    0 6919 5187 rf
6 w
0 4202 5362 0 0 -4202 899 4616 4 MP
PP
-5362 0 0 4202 5362 0 0 -4202 899 4616 5 MP stroke
4 w
DO
SO
6 w
0 sg
 899  414 mt 6261  414 L
 899 4616 mt 6261 4616 L
6261 4616 mt 6261  414 L
 899 4616 mt  899  414 L
 899 4616 mt 6261 4616 L
 899 4616 mt  899  414 L
 919 4616 mt  919 4562 L
 919  414 mt  919  467 L
%%IncludeResource: font Helvetica
/Helvetica /WindowsLatin1Encoding 240 FMSR

 713 4873 mt 
(-3) s
1806 4616 mt 1806 4562 L
1806  414 mt 1806  467 L
1600 4873 mt 
(-2) s
2693 4616 mt 2693 4562 L
2693  414 mt 2693  467 L
2487 4873 mt 
(-1) s
3580 4616 mt 3580 4562 L
3580  414 mt 3580  467 L
3514 4873 mt 
(0) s
4466 4616 mt 4466 4562 L
4466  414 mt 4466  467 L
4400 4873 mt 
(1) s
5353 4616 mt 5353 4562 L
5353  414 mt 5353  467 L
5287 4873 mt 
(2) s
6240 4616 mt 6240 4562 L
6240  414 mt 6240  467 L
6174 4873 mt 
(3) s
 899 4599 mt  952 4599 L
6261 4599 mt 6207 4599 L
 591 4688 mt 
(-3) s
 899 3904 mt  952 3904 L
6261 3904 mt 6207 3904 L
 591 3993 mt 
(-2) s
 899 3209 mt  952 3209 L
6261 3209 mt 6207 3209 L
 591 3298 mt 
(-1) s
 899 2514 mt  952 2514 L
6261 2514 mt 6207 2514 L
 731 2603 mt 
(0) s
 899 1820 mt  952 1820 L
6261 1820 mt 6207 1820 L
 731 1909 mt 
(1) s
 899 1125 mt  952 1125 L
6261 1125 mt 6207 1125 L
 731 1214 mt 
(2) s
 899  430 mt  952  430 L
6261  430 mt 6207  430 L
 731  519 mt 
(3) s
 899  414 mt 6261  414 L
 899 4616 mt 6261 4616 L
6261 4616 mt 6261  414 L
 899 4616 mt  899  414 L
gs 899 414 5363 4203 rc
gr

/c8 { 0.000000 0.000000 1.000000 sr} bdef
c8
2821  957 mt 2893  957 L
2857  921 mt 2857  993 L
4435 2686 mt 4507 2686 L
4471 2650 mt 4471 2722 L
3903 3273 mt 3975 3273 L
3939 3237 mt 3939 3309 L
4542 4072 mt 4614 4072 L
4578 4036 mt 4578 4108 L
3952 2284 mt 4024 2284 L
3988 2248 mt 3988 2320 L
3757 3039 mt 3829 3039 L
3793 3003 mt 3793 3075 L
2844 2619 mt 2916 2619 L
2880 2583 mt 2880 2655 L
3214 2874 mt 3286 2874 L
3250 2838 mt 3250 2910 L
3605 3553 mt 3677 3553 L
3641 3517 mt 3641 3589 L
3232 2436 mt 3304 2436 L
3268 2400 mt 3268 2472 L
6225 2731 mt 6297 2731 L
6261 2695 mt 6261 2767 L
3850 2365 mt 3922 2365 L
3886 2329 mt 3886 2401 L
4170 2261 mt 4242 2261 L
4206 2225 mt 4206 2297 L
3958 1740 mt 4030 1740 L
3994 1704 mt 3994 1776 L
2381 3479 mt 2453 3479 L
2417 3443 mt 2417 3515 L
5282 1298 mt 5354 1298 L
5318 1262 mt 5318 1334 L
4472  824 mt 4544  824 L
4508  788 mt 4508  860 L
3040 2778 mt 3112 2778 L
3076 2742 mt 3076 2814 L
3989 2668 mt 4061 2668 L
4025 2632 mt 4025 2704 L
4425 2024 mt 4497 2024 L
4461 1988 mt 4461 2060 L
3549 2782 mt 3621 2782 L
3585 2746 mt 3585 2818 L
3007 2989 mt 3079 2989 L
3043 2953 mt 3043 3025 L
5002 2869 mt 5074 2869 L
5038 2833 mt 5038 2905 L
3927 2820 mt 3999 2820 L
3963 2784 mt 3963 2856 L
3129 1538 mt 3201 1538 L
3165 1502 mt 3165 1574 L
3027 2405 mt 3099 2405 L
3063 2369 mt 3063 2441 L
3347 2270 mt 3419 2270 L
3383 2234 mt 3383 2306 L
2896 3106 mt 2968 3106 L
2932 3070 mt 2932 3142 L
2859 3822 mt 2931 3822 L
2895 3786 mt 2895 3858 L
2016 2754 mt 2088 2754 L
2052 2718 mt 2052 2790 L
3723 2889 mt 3795 2889 L
3759 2853 mt 3759 2925 L
4760 2440 mt 4832 2440 L
4796 2404 mt 4796 2476 L
4298 2935 mt 4370 2935 L
4334 2899 mt 4334 2971 L
3387 2414 mt 3459 2414 L
3423 2378 mt 3423 2450 L
3466 2920 mt 3538 2920 L
3502 2884 mt 3502 2956 L
4706 2691 mt 4778 2691 L
4742 2655 mt 4742 2727 L
3768 2484 mt 3840 2484 L
3804 2448 mt 3804 2520 L
4655 2115 mt 4727 2115 L
4691 2079 mt 4691 2151 L
5700 1489 mt 5772 1489 L
5736 1453 mt 5736 1525 L
3971 1838 mt 4043 1838 L
4007 1802 mt 4007 1874 L
3633 2768 mt 3705 2768 L
3669 2732 mt 3669 2804 L
5606 2904 mt 5678 2904 L
5642 2868 mt 5642 2940 L
4381 1911 mt 4453 1911 L
4417 1875 mt 4417 1947 L
3454 2140 mt 3526 2140 L
3490 2104 mt 3490 2176 L
4135 2682 mt 4207 2682 L
4171 2646 mt 4171 2718 L
3844 3693 mt 3916 3693 L
3880 3657 mt 3880 3729 L
2218 1336 mt 2290 1336 L
2254 1300 mt 2254 1372 L
1766 2606 mt 1838 2606 L
1802 2570 mt 1802 2642 L
4156 2120 mt 4228 2120 L
4192 2084 mt 4192 2156 L
4463 3468 mt 4535 3468 L
4499 3432 mt 4499 3504 L
2502 2035 mt 2574 2035 L
2538 1999 mt 2538 2071 L
4121 2462 mt 4193 2462 L
4157 2426 mt 4157 2498 L
5096 2558 mt 5168 2558 L
5132 2522 mt 5132 2594 L
4805 3405 mt 4877 3405 L
4841 3369 mt 4841 3441 L
2931 1756 mt 3003 1756 L
2967 1720 mt 2967 1792 L
3915 2884 mt 3987 2884 L
3951 2848 mt 3951 2920 L
4789 2279 mt 4861 2279 L
4825 2243 mt 4825 2315 L
4021 3265 mt 4093 3265 L
4057 3229 mt 4057 3301 L
4398 2374 mt 4470 2374 L
4434 2338 mt 4434 2410 L
3694 2650 mt 3766 2650 L
3730 2614 mt 3730 2686 L
1619 2007 mt 1691 2007 L
1655 1971 mt 1655 2043 L
1991 1388 mt 2063 1388 L
2027 1352 mt 2027 1424 L
2534 2633 mt 2606 2633 L
2570 2597 mt 2570 2669 L
3178 2664 mt 3250 2664 L
3214 2628 mt 3214 2700 L
4266 3184 mt 4338 3184 L
4302 3148 mt 4302 3220 L
3785 2334 mt 3857 2334 L
3821 2298 mt 3821 2370 L
2251 2914 mt 2323 2914 L
2287 2878 mt 2287 2950 L
4355 2204 mt 4427 2204 L
4391 2168 mt 4391 2240 L
3153 2741 mt 3225 2741 L
3189 2705 mt 3189 2777 L
2732 3436 mt 2804 3436 L
2768 3400 mt 2768 3472 L
4107 3610 mt 4179 3610 L
4143 3574 mt 4143 3646 L
3774 2659 mt 3846 2659 L
3810 2623 mt 3810 2695 L
3116 3376 mt 3188 3376 L
3152 3340 mt 3152 3412 L
3588 2745 mt 3660 2745 L
3624 2709 mt 3624 2781 L
3891 2135 mt 3963 2135 L
3927 2099 mt 3927 2171 L
4221 2094 mt 4293 2094 L
4257 2058 mt 4257 2130 L
4347 2925 mt 4419 2925 L
4383 2889 mt 4383 2961 L
3359 2709 mt 3431 2709 L
3395 2673 mt 3395 2745 L
4444 2165 mt 4516 2165 L
4480 2129 mt 4480 2201 L
3325 2040 mt 3397 2040 L
3361 2004 mt 3361 2076 L
4693 2554 mt 4765 2554 L
4729 2518 mt 4729 2590 L
3940 3503 mt 4012 3503 L
3976 3467 mt 3976 3539 L
4574 2104 mt 4646 2104 L
4610 2068 mt 4610 2140 L
4364 3731 mt 4436 3731 L
4400 3695 mt 4400 3767 L
2267 1748 mt 2339 1748 L
2303 1712 mt 2303 1784 L
2085 3515 mt 2157 3515 L
2121 3479 mt 2121 3551 L
5413 4205 mt 5485 4205 L
5449 4169 mt 5449 4241 L
2773 2909 mt 2845 2909 L
2809 2873 mt 2809 2945 L
3330 3980 mt 3402 3980 L
3366 3944 mt 3366 4016 L
3046 2018 mt 3118 2018 L
3082 1982 mt 3082 2054 L
4060 2597 mt 4132 2597 L
4096 2561 mt 4096 2633 L
2980 3112 mt 3052 3112 L
3016 3076 mt 3016 3148 L
4251 3711 mt 4323 3711 L
4287 3675 mt 4287 3747 L
5180 1764 mt 5252 1764 L
5216 1728 mt 5216 1800 L
3582 2750 mt 3654 2750 L
3618 2714 mt 3618 2786 L
3571 1978 mt 3643 1978 L
3607 1942 mt 3607 2014 L
4149 2545 mt 4221 2545 L
4185 2509 mt 4185 2581 L
5245 2811 mt 5317 2811 L
5281 2775 mt 5281 2847 L
1259 2423 mt 1331 2423 L
1295 2387 mt 1295 2459 L
2040 3220 mt 2112 3220 L
2076 3184 mt 2076 3256 L
4680  414 mt 4752  414 L
4716  378 mt 4716  450 L
4501 2593 mt 4573 2593 L
4537 2557 mt 4537 2629 L
3740 2293 mt 3812 2293 L
3776 2257 mt 3776 2329 L
2468 3331 mt 2540 3331 L
2504 3295 mt 2504 3367 L
2966 1917 mt 3038 1917 L
3002 1881 mt 3002 1953 L
2952 2418 mt 3024 2418 L
2988 2382 mt 2988 2454 L
3147 3491 mt 3219 3491 L
3183 3455 mt 3183 3527 L
5828 1772 mt 5900 1772 L
5864 1736 mt 5864 1808 L
1842 2320 mt 1914 2320 L
1878 2284 mt 1878 2356 L
4746 4131 mt 4818 4131 L
4782 4095 mt 4782 4167 L
5024 2792 mt 5096 2792 L
5060 2756 mt 5060 2828 L
3594 3306 mt 3666 3306 L
3630 3270 mt 3630 3342 L
3160 2067 mt 3232 2067 L
3196 2031 mt 3196 2103 L
3237 2562 mt 3309 2562 L
3273 2526 mt 3273 2598 L
3814 3125 mt 3886 3125 L
3850 3089 mt 3850 3161 L
3797 2298 mt 3869 2298 L
3833 2262 mt 3833 2334 L
5365 3051 mt 5437 3051 L
5401 3015 mt 5401 3087 L
2605 2383 mt 2677 2383 L
2641 2347 mt 2641 2419 L
3861 2704 mt 3933 2704 L
3897 2668 mt 3897 2740 L
4372 2972 mt 4444 2972 L
4408 2936 mt 4408 3008 L
2959 2673 mt 3031 2673 L
2995 2637 mt 2995 2709 L
2444 3087 mt 2516 3087 L
2480 3051 mt 2480 3123 L
4852 2930 mt 4924 2930 L
4888 2894 mt 4888 2966 L
4643 1936 mt 4715 1936 L
4679 1900 mt 4679 1972 L
4961 1878 mt 5033 1878 L
4997 1842 mt 4997 1914 L
2903 2089 mt 2975 2089 L
2939 2053 mt 2939 2125 L
3243 2796 mt 3315 2796 L
3279 2760 mt 3279 2832 L
4512 2899 mt 4584 2899 L
4548 2863 mt 4548 2935 L
3471 3625 mt 3543 3625 L
3507 3589 mt 3507 3661 L
3983 2189 mt 4055 2189 L
4019 2153 mt 4019 2225 L
3393 3415 mt 3465 3415 L
3429 3379 mt 3429 3451 L
3885 1434 mt 3957 1434 L
3921 1398 mt 3921 1470 L
4564 3349 mt 4636 3349 L
4600 3313 mt 4600 3385 L
3921 4305 mt 3993 4305 L
3957 4269 mt 3957 4341 L
2595 3206 mt 2667 3206 L
2631 3170 mt 2631 3242 L
3745 2396 mt 3817 2396 L
3781 2360 mt 3781 2432 L
2341 3227 mt 2413 3227 L
2377 3191 mt 2377 3263 L
3196 2410 mt 3268 2410 L
3232 2374 mt 3232 2446 L
5150 1892 mt 5222 1892 L
5186 1856 mt 5186 1928 L
4631 2488 mt 4703 2488 L
4667 2452 mt 4667 2524 L
3066 3289 mt 3138 3289 L
3102 3253 mt 3102 3325 L
3897 2325 mt 3969 2325 L
3933 2289 mt 3933 2361 L
2993 2307 mt 3065 2307 L
3029 2271 mt 3029 2343 L
3482 2343 mt 3554 2343 L
3518 2307 mt 3518 2379 L
3873 2835 mt 3945 2835 L
3909 2799 mt 3909 2871 L
4228 3358 mt 4300 3358 L
4264 3322 mt 4264 3394 L
2797 1689 mt 2869 1689 L
2833 1653 mt 2833 1725 L
2165 1572 mt 2237 1572 L
2201 1536 mt 2201 1608 L
3104 2057 mt 3176 2057 L
3140 2021 mt 3140 2093 L
4585 1858 mt 4657 1858 L
4621 1822 mt 4621 1894 L
4243 3000 mt 4315 3000 L
4279 2964 mt 4279 3036 L
3033 2677 mt 3105 2677 L
3069 2641 mt 3069 2713 L
4492 2859 mt 4564 2859 L
4528 2823 mt 4528 2895 L
4163 2242 mt 4235 2242 L
4199 2206 mt 4199 2278 L
3202 1634 mt 3274 1634 L
3238 1598 mt 3238 1670 L
2828 3877 mt 2900 3877 L
2864 3841 mt 2864 3913 L
3078 2497 mt 3150 2497 L
3114 2461 mt 3114 2533 L
3538 1593 mt 3610 1593 L
3574 1557 mt 3574 1629 L
5531 2541 mt 5603 2541 L
5567 2505 mt 5567 2577 L
3527 3322 mt 3599 3322 L
3563 3286 mt 3563 3358 L
3666 2356 mt 3738 2356 L
3702 2320 mt 3702 2392 L
3135 2523 mt 3207 2523 L
3171 2487 mt 3171 2559 L
3336 2576 mt 3408 2576 L
3372 2540 mt 3372 2612 L
4054 2311 mt 4126 2311 L
4090 2275 mt 4090 2347 L
2789 2773 mt 2861 2773 L
2825 2737 mt 2825 2809 L
3226 2514 mt 3298 2514 L
3262 2478 mt 3262 2550 L
2523 1809 mt 2595 1809 L
2559 1773 mt 2559 1845 L
3566 2109 mt 3638 2109 L
3602 2073 mt 3602 2145 L
2715 2830 mt 2787 2830 L
2751 2794 mt 2751 2866 L
3273 2787 mt 3345 2787 L
3309 2751 mt 3309 2823 L
3762 1561 mt 3834 1561 L
3798 1525 mt 3798 1597 L
3410 2275 mt 3482 2275 L
3446 2239 mt 3446 2311 L
4074 2501 mt 4146 2501 L
4110 2465 mt 4110 2537 L
2106 2956 mt 2178 2956 L
2142 2920 mt 2142 2992 L
3516 1954 mt 3588 1954 L
3552 1918 mt 3552 1990 L
4009 3567 mt 4081 3567 L
4045 3531 mt 4045 3603 L
4532 2199 mt 4604 2199 L
4568 2163 mt 4568 2235 L
2327 2655 mt 2399 2655 L
2363 2619 mt 2363 2691 L
3278 2388 mt 3350 2388 L
3314 2352 mt 3314 2424 L
2615 3367 mt 2687 3367 L
2651 3331 mt 2651 3403 L
2586 2427 mt 2658 2427 L
2622 2391 mt 2622 2463 L
4886 2370 mt 4958 2370 L
4922 2334 mt 4922 2406 L
3053 1643 mt 3125 1643 L
3089 1607 mt 3089 1679 L
4869 3069 mt 4941 3069 L
4905 3033 mt 4905 3105 L
4034 3250 mt 4106 3250 L
4070 3214 mt 4070 3286 L
2680 3581 mt 2752 3581 L
2716 3545 mt 2716 3617 L
2513 3281 mt 2585 3281 L
2549 3245 mt 2549 3317 L
1907 3641 mt 1979 3641 L
1943 3605 mt 1943 3677 L
4236 1207 mt 4308 1207 L
4272 1171 mt 4272 1243 L
 863 1872 mt  935 1872 L
 899 1836 mt  899 1908 L
2394 1671 mt 2466 1671 L
2430 1635 mt 2430 1707 L
4114 2849 mt 4186 2849 L
4150 2813 mt 4150 2885 L
3249 2228 mt 3321 2228 L
3285 2192 mt 3285 2264 L
3964 3057 mt 4036 3057 L
4000 3021 mt 4000 3093 L
5211 3191 mt 5283 3191 L
5247 3155 mt 5247 3227 L
2987 1006 mt 3059 1006 L
3023  970 mt 3023 1042 L
4087 1972 mt 4159 1972 L
4123 1936 mt 4123 2008 L
2910 1419 mt 2982 1419 L
2946 1383 mt 2946 1455 L
2479 2967 mt 2551 2967 L
2515 2931 mt 2515 3003 L
3621 2445 mt 3693 2445 L
3657 2409 mt 3657 2481 L
3166  898 mt 3238  898 L
3202  862 mt 3202  934 L
1722 1514 mt 1794 1514 L
1758 1478 mt 1758 1550 L
2126 2983 mt 2198 2983 L
2162 2947 mt 2162 3019 L
4836 2519 mt 4908 2519 L
4872 2483 mt 4872 2555 L
3638 3093 mt 3710 3093 L
3674 3057 mt 3674 3129 L
4390 1942 mt 4462 1942 L
4426 1906 mt 4426 1978 L
3826 2247 mt 3898 2247 L
3862 2211 mt 3862 2283 L
3284 2265 mt 3356 2265 L
3320 2229 mt 3320 2301 L
3449 2854 mt 3521 2854 L
3485 2818 mt 3485 2890 L
2652 1698 mt 2724 1698 L
2688 1662 mt 2688 1734 L
3977 2946 mt 4049 2946 L
4013 2910 mt 4013 2982 L
3711 2646 mt 3783 2646 L
3747 2610 mt 3747 2682 L
3438 2718 mt 3510 2718 L
3474 2682 mt 3474 2754 L
2201 1121 mt 2273 1121 L
2237 1085 mt 2237 1157 L
1937 2584 mt 2009 2584 L
1973 2548 mt 1973 2620 L
4775 1049 mt 4847 1049 L
4811 1013 mt 4811 1085 L
3432  724 mt 3504  724 L
3468  688 mt 3468  760 L
3510 2379 mt 3582 2379 L
3546 2343 mt 3546 2415 L
4282 2046 mt 4354 2046 L
4318 2010 mt 4318 2082 L
4482 1823 mt 4554 1823 L
4518 1787 mt 4518 1859 L
1556 4023 mt 1628 4023 L
1592 3987 mt 1592 4059 L
3683 2145 mt 3755 2145 L
3719 2109 mt 3719 2181 L
4416 2458 mt 4488 2458 L
4452 2422 mt 4452 2494 L
3488 3157 mt 3560 3157 L
3524 3121 mt 3524 3193 L
3655 1707 mt 3727 1707 L
3691 1671 mt 3691 1743 L
3255 2180 mt 3327 2180 L
3291 2144 mt 3291 2216 L
3791 2467 mt 3863 2467 L
3827 2431 mt 3827 2503 L
3296 2001 mt 3368 2001 L
3332 1965 mt 3332 2037 L
3751 2736 mt 3823 2736 L
3787 2700 mt 3787 2772 L
2689 2392 mt 2761 2392 L
2725 2356 mt 2725 2428 L
4100 2029 mt 4172 2029 L
4136 1993 mt 4136 2065 L
4553 4616 mt 4625 4616 L
4589 4580 mt 4589 4652 L
4981 2894 mt 5053 2894 L
5017 2858 mt 5017 2930 L
2917 1779 mt 2989 1779 L
2953 1743 mt 2953 1815 L
2945 3395 mt 3017 3395 L
2981 3359 mt 2981 3431 L
4922 3942 mt 4994 3942 L
4958 3906 mt 4958 3978 L
3415 3063 mt 3487 3063 L
3451 3027 mt 3451 3099 L
3717 1232 mt 3789 1232 L
3753 1196 mt 3753 1268 L
4732 1448 mt 4804 1448 L
4768 1412 mt 4768 1484 L
2757 2237 mt 2829 2237 L
2793 2201 mt 2793 2273 L
4290 2160 mt 4362 2160 L
4326 2124 mt 4326 2196 L
4904 2073 mt 4976 2073 L
4940 2037 mt 4940 2109 L
3184 2347 mt 3256 2347 L
3220 2311 mt 3220 2383 L
3000 3151 mt 3072 3151 L
3036 3115 mt 3036 3187 L
4941 3386 mt 5013 3386 L
4977 3350 mt 4977 3422 L
4128 2722 mt 4200 2722 L
4164 2686 mt 4164 2758 L
3460 1152 mt 3532 1152 L
3496 1116 mt 3496 1188 L
3313 3017 mt 3385 3017 L
3349 2981 mt 3349 3053 L
3091 1732 mt 3163 1732 L
3127 1696 mt 3127 1768 L
3443 2978 mt 3515 2978 L
3479 2942 mt 3479 3014 L
3020 2099 mt 3092 2099 L
3056 2063 mt 3056 2135 L
4002 2218 mt 4074 2218 L
4038 2182 mt 4038 2254 L
5071 3164 mt 5143 3164 L
5107 3128 mt 5107 3200 L
3879 3425 mt 3951 3425 L
3915 3389 mt 3915 3461 L
3110 2150 mt 3182 2150 L
3146 2114 mt 3146 2186 L
4028 2251 mt 4100 2251 L
4064 2215 mt 4064 2287 L
3013 3144 mt 3085 3144 L
3049 3108 mt 3049 3180 L
3700 2864 mt 3772 2864 L
3736 2828 mt 3736 2900 L
4213 1865 mt 4285 1865 L
4249 1829 mt 4249 1901 L
3610 2214 mt 3682 2214 L
3646 2178 mt 3646 2250 L
4184 1990 mt 4256 1990 L
4220 1954 mt 4220 2026 L
1481 1885 mt 1553 1885 L
1517 1849 mt 1517 1921 L
1805 2994 mt 1877 2994 L
1841 2958 mt 1841 3030 L
3672 2637 mt 3744 2637 L
3708 2601 mt 3708 2673 L
2565 2700 mt 2637 2700 L
2601 2664 mt 2601 2736 L
3934 3081 mt 4006 3081 L
3970 3045 mt 3970 3117 L
2063 3178 mt 2135 3178 L
2099 3142 mt 2099 3214 L
3123 1624 mt 3195 1624 L
3159 1588 mt 3159 1660 L
3085 3340 mt 3157 3340 L
3121 3304 mt 3121 3376 L
2697 2727 mt 2769 2727 L
2733 2691 mt 2733 2763 L
3627 2532 mt 3699 2532 L
3663 2496 mt 3663 2568 L
1965 1816 mt 2037 1816 L
2001 1780 mt 2001 1852 L
3290 3022 mt 3362 3022 L
3326 2986 mt 3326 3058 L
3532 2940 mt 3604 2940 L
3568 2904 mt 3568 2976 L
3677 3034 mt 3749 3034 L
3713 2998 mt 3713 3070 L
4177 2155 mt 4249 2155 L
4213 2119 mt 4213 2191 L
4619 2185 mt 4691 2185 L
4655 2149 mt 4655 2221 L
2671 3797 mt 2743 3797 L
2707 3761 mt 2707 3833 L
3505 3527 mt 3577 3527 L
3541 3491 mt 3541 3563 L
2407 2316 mt 2479 2316 L
2443 2280 mt 2443 2352 L
6033 2401 mt 6105 2401 L
6069 2365 mt 6069 2437 L
3261 3540 mt 3333 3540 L
3297 3504 mt 3297 3576 L
4597 1662 mt 4669 1662 L
4633 1626 mt 4633 1698 L
3342 2615 mt 3414 2615 L
3378 2579 mt 3378 2651 L
2866 1354 mt 2938 1354 L
2902 1318 mt 2902 1390 L
2643 3137 mt 2715 3137 L
2679 3101 mt 2679 3173 L
5047 2764 mt 5119 2764 L
5083 2728 mt 5083 2800 L
2836 2571 mt 2908 2571 L
2872 2535 mt 2872 2607 L
3098 2611 mt 3170 2611 L
3134 2575 mt 3134 2647 L
2298 2506 mt 2370 2506 L
2334 2470 mt 2334 2542 L
2545 2083 mt 2617 2083 L
2581 2047 mt 2581 2119 L
3190 2432 mt 3262 2432 L
3226 2396 mt 3226 2468 L
3832 2951 mt 3904 2951 L
3868 2915 mt 3868 2987 L
4274 1318 mt 4346 1318 L
4310 1282 mt 4310 1354 L
3426 3011 mt 3498 3011 L
3462 2975 mt 3462 3047 L
3867 2840 mt 3939 2840 L
3903 2804 mt 3903 2876 L
3370 3457 mt 3442 3457 L
3406 3421 mt 3406 3493 L
3544 3242 mt 3616 3242 L
3580 3206 mt 3580 3278 L
2624 3908 mt 2696 3908 L
2660 3872 mt 2660 3944 L
2432 3257 mt 2504 3257 L
2468 3221 mt 2468 3293 L
3661  564 mt 3733  564 L
3697  528 mt 3697  600 L
2183 3131 mt 2255 3131 L
2219 3095 mt 2219 3167 L
4306 1583 mt 4378 1583 L
4342 1547 mt 4342 1619 L
2456 2641 mt 2528 2641 L
2492 2605 mt 2492 2677 L
3072 2449 mt 3144 2449 L
3108 2413 mt 3108 2485 L
2765 2256 mt 2837 2256 L
2801 2220 mt 2801 2292 L
3820 2580 mt 3892 2580 L
3856 2544 mt 3856 2616 L
4820 1404 mt 4892 1404 L
4856 1368 mt 4856 1440 L
4015 2475 mt 4087 2475 L
4051 2439 mt 4051 2511 L
4094 2815 mt 4166 2815 L
4130 2779 mt 4130 2851 L
5122 1526 mt 5194 1526 L
5158 1490 mt 5158 1562 L
2851 1930 mt 2923 1930 L
2887 1894 mt 2887 1966 L
3398 2051 mt 3470 2051 L
3434 2015 mt 3434 2087 L
2420 2078 mt 2492 2078 L
2456 2042 mt 2456 2114 L
2368 3099 mt 2440 3099 L
2404 3063 mt 2404 3135 L
3909 2223 mt 3981 2223 L
3945 2187 mt 3945 2259 L
2781 2801 mt 2853 2801 L
2817 2765 mt 2817 2837 L
4330 1787 mt 4402 1787 L
4366 1751 mt 4366 1823 L
3220 2962 mt 3292 2962 L
3256 2926 mt 3256 2998 L
4142 2825 mt 4214 2825 L
4178 2789 mt 4178 2861 L
3381 3075 mt 3453 3075 L
3417 3039 mt 3417 3111 L
3728 2480 mt 3800 2480 L
3764 2444 mt 3764 2516 L
4719 2194 mt 4791 2194 L
4755 2158 mt 4755 2230 L
3644 1960 mt 3716 1960 L
3680 1924 mt 3680 1996 L
3499 1462 mt 3571 1462 L
3535 1426 mt 3535 1498 L
3267 3297 mt 3339 3297 L
3303 3261 mt 3303 3333 L
2881 2233 mt 2953 2233 L
2917 2197 mt 2917 2269 L
4322 3213 mt 4394 3213 L
4358 3177 mt 4358 3249 L
2662 2493 mt 2734 2493 L
2698 2457 mt 2698 2529 L
3404 1802 mt 3476 1802 L
3440 1766 mt 3440 1838 L
2235 2536 mt 2307 2536 L
2271 2500 mt 2271 2572 L
3493 1614 mt 3565 1614 L
3529 1578 mt 3529 1650 L
4667 2759 mt 4739 2759 L
4703 2723 mt 4703 2795 L
4199 3774 mt 4271 3774 L
4235 3738 mt 4235 3810 L
3706 2329 mt 3778 2329 L
3742 2293 mt 3742 2365 L
3555 1680 mt 3627 1680 L
3591 1644 mt 3591 1716 L
3421 2806 mt 3493 2806 L
3457 2770 mt 3457 2842 L
3477 1653 mt 3549 1653 L
3513 1617 mt 3513 1689 L
5468 2125 mt 5540 2125 L
5504 2089 mt 5504 2161 L
1387 3658 mt 1459 3658 L
1423 3622 mt 1423 3694 L
3855 2302 mt 3927 2302 L
3891 2266 mt 3891 2338 L
2973 1851 mt 3045 1851 L
3009 1815 mt 3009 1887 L
2938 2624 mt 3010 2624 L
2974 2588 mt 2974 2660 L
2888 2567 mt 2960 2567 L
2924 2531 mt 2924 2603 L
2312 2175 mt 2384 2175 L
2348 2139 mt 2348 2211 L
3172 2338 mt 3244 2338 L
3208 2302 mt 3208 2374 L
1674 2352 mt 1746 2352 L
1710 2316 mt 1710 2388 L
2740 1923 mt 2812 1923 L
2776 1887 mt 2776 1959 L
2575 1371 mt 2647 1371 L
2611 1335 mt 2611 1407 L
5321 1723 mt 5393 1723 L
5357 1687 mt 5357 1759 L
4259 3171 mt 4331 3171 L
4295 3135 mt 4295 3207 L
4314 2602 mt 4386 2602 L
4350 2566 mt 4350 2638 L
4338 1984 mt 4410 1984 L
4374 1948 mt 4374 2020 L
3809 3446 mt 3881 3446 L
3845 3410 mt 3845 3482 L
4047 1502 mt 4119 1502 L
4083 1466 mt 4083 1538 L
2813 2012 mt 2885 2012 L
2849 1976 mt 2849 2048 L
2924 2170 mt 2996 2170 L
2960 2134 mt 2960 2206 L
3838 1277 mt 3910 1277 L
3874 1241 mt 3874 1313 L
3689 3752 mt 3761 3752 L
3725 3716 mt 3725 3788 L
2634 3675 mt 2706 3675 L
2670 3639 mt 2670 3711 L
2805 2589 mt 2877 2589 L
2841 2553 mt 2841 2625 L
4067 3848 mt 4139 3848 L
4103 3812 mt 4103 3884 L
3302 2209 mt 3374 2209 L
3338 2173 mt 3338 2245 L
2490 1845 mt 2562 1845 L
2526 1809 mt 2526 1881 L
4608 2062 mt 4680 2062 L
4644 2026 mt 4644 2098 L
4206 1948 mt 4278 1948 L
4242 1912 mt 4242 1984 L
2555 3028 mt 2627 3028 L
2591 2992 mt 2591 3064 L
4407 2288 mt 4479 2288 L
4443 2252 mt 4443 2324 L
3780 3314 mt 3852 3314 L
3816 3278 mt 3816 3350 L
4041 1966 mt 4113 1966 L
4077 1930 mt 4077 2002 L
3364 1550 mt 3436 1550 L
3400 1514 mt 3400 1586 L
4080 3005 mt 4152 3005 L
4116 2969 mt 4116 3041 L
2355 3118 mt 2427 3118 L
2391 3082 mt 2391 3154 L
2749 2528 mt 2821 2528 L
2785 2492 mt 2785 2564 L
3376 1604 mt 3448 1604 L
3412 1568 mt 3412 1640 L
4522 2361 mt 4594 2361 L
4558 2325 mt 4558 2397 L
3734 1831 mt 3806 1831 L
3770 1795 mt 3770 1867 L
3599 1995 mt 3671 1995 L
3635 1959 mt 3635 2031 L
2874 2695 mt 2946 2695 L
2910 2659 mt 2910 2731 L
1876 2549 mt 1948 2549 L
1912 2513 mt 1912 2585 L
3803 1904 mt 3875 1904 L
3839 1868 mt 3839 1940 L
4453 1794 mt 4525 1794 L
4489 1758 mt 4489 1830 L
3059 1715 mt 3131 1715 L
3095 1679 mt 3095 1751 L
4191 3235 mt 4263 3235 L
4227 3199 mt 4227 3271 L
3946 2844 mt 4018 2844 L
3982 2808 mt 3982 2880 L
3521 2471 mt 3593 2471 L
3557 2435 mt 3557 2507 L
3319 2713 mt 3391 2713 L
3355 2677 mt 3355 2749 L
3577 2510 mt 3649 2510 L
3613 2474 mt 3613 2546 L
2706 1181 mt 2778 1181 L
2742 1145 mt 2742 1217 L
2146 2130 mt 2218 2130 L
2182 2094 mt 2182 2166 L
3996 1255 mt 4068 1255 L
4032 1219 mt 4032 1291 L
3208 3198 mt 3280 3198 L
3244 3162 mt 3244 3234 L
2723 1898 mt 2795 1898 L
2759 1862 mt 2759 1934 L
2282 2628 mt 2354 2628 L
2318 2592 mt 2318 2664 L
3141 2879 mt 3213 2879 L
3177 2843 mt 3177 2915 L
3353 1087 mt 3425 1087 L
3389 1051 mt 3389 1123 L
3560 2453 mt 3632 2453 L
3596 2417 mt 3596 2489 L
3307 1476 mt 3379 1476 L
3343 1440 mt 3343 1512 L
3616 3045 mt 3688 3045 L
3652 3009 mt 3652 3081 L
3649 3595 mt 3721 3595 L
3685 3559 mt 3685 3631 L
gs 899 414 5363 4203 rc
gr

0 sg
2795 5104 mt 
(\(F,DCTb,iMLP\)) s
 482 3343 mt  -90 rotate
(\(S,LFCC,GMM\)) s
90 rotate
2975  223 mt 
(Corr = 0.02) s

end %%Color Dict

eplot
%%EndObject

epage
end

showpage

%%Trailer
%%EOF
