%!PS-Adobe-3.0 EPSF-3.0
%%Creator: MATLAB, The Mathworks, Inc. Version 7.7.0.471 (R2008b). Operating System: Microsoft Windows XP.
%%Title: Pictures\main_zoo_mvar_analysis_data_BMI_xcorr_bmig_p1_k1_3_4.eps
%%CreationDate: 10/26/2009  05:44:54
%%DocumentNeededFonts: Helvetica
%%DocumentProcessColors: Cyan Magenta Yellow Black
%%LanguageLevel: 2
%%Pages: 1
%%BoundingBox:    37   180   549   616
%%EndComments

%%BeginProlog
% MathWorks dictionary
/MathWorks 160 dict begin
% definition operators
/bdef {bind def} bind def
/ldef {load def} bind def
/xdef {exch def} bdef
/xstore {exch store} bdef
% operator abbreviations
/c  /clip ldef
/cc /concat ldef
/cp /closepath ldef
/gr /grestore ldef
/gs /gsave ldef
/mt /moveto ldef
/np /newpath ldef
/cm /currentmatrix ldef
/sm /setmatrix ldef
/rm /rmoveto ldef
/rl /rlineto ldef
/s {show newpath} bdef
/sc {setcmykcolor} bdef
/sr /setrgbcolor ldef
/sg /setgray ldef
/w /setlinewidth ldef
/j /setlinejoin ldef
/cap /setlinecap ldef
/rc {rectclip} bdef
/rf {rectfill} bdef
% page state control
/pgsv () def
/bpage {/pgsv save def} bdef
/epage {pgsv restore} bdef
/bplot /gsave ldef
/eplot {stroke grestore} bdef
% orientation switch
/portraitMode 0 def /landscapeMode 1 def /rotateMode 2 def
% coordinate system mappings
/dpi2point 0 def
% font control
/FontSize 0 def
/FMS {/FontSize xstore findfont [FontSize 0 0 FontSize neg 0 0]
  makefont setfont} bdef
/ISOLatin1Encoding where {pop /WindowsLatin1Encoding 256 array bdef
ISOLatin1Encoding WindowsLatin1Encoding copy pop
/.notdef/.notdef/quotesinglbase/florin/quotedblbase/ellipsis/dagger
/daggerdbl/circumflex/perthousand/Scaron/guilsinglleft/OE/.notdef/.notdef
/.notdef/.notdef/quoteleft/quoteright/quotedblleft/quotedblright/bullet
/endash/emdash/tilde/trademark/scaron/guilsinglright/oe/.notdef/.notdef
/Ydieresis WindowsLatin1Encoding 128 32 getinterval astore pop}
{/WindowsLatin1Encoding StandardEncoding bdef} ifelse
/reencode {exch dup where {pop load} {pop StandardEncoding} ifelse
  exch dup 3 1 roll findfont dup length dict begin
  { 1 index /FID ne {def}{pop pop} ifelse } forall
  /Encoding exch def currentdict end definefont pop} bdef
/isroman {findfont /CharStrings get /Agrave known} bdef
/FMSR {3 1 roll 1 index dup isroman {reencode} {pop pop} ifelse
  exch FMS} bdef
/csm {1 dpi2point div -1 dpi2point div scale neg translate
 dup landscapeMode eq {pop -90 rotate}
  {rotateMode eq {90 rotate} if} ifelse} bdef
% line types: solid, dotted, dashed, dotdash
/SO { [] 0 setdash } bdef
/DO { [.5 dpi2point mul 4 dpi2point mul] 0 setdash } bdef
/DA { [6 dpi2point mul] 0 setdash } bdef
/DD { [.5 dpi2point mul 4 dpi2point mul 6 dpi2point mul 4
  dpi2point mul] 0 setdash } bdef
% macros for lines and objects
/L {lineto stroke} bdef
/MP {3 1 roll moveto 1 sub {rlineto} repeat} bdef
/AP {{rlineto} repeat} bdef
/PDlw -1 def
/W {/PDlw currentlinewidth def setlinewidth} def
/PP {closepath eofill} bdef
/DP {closepath stroke} bdef
/MR {4 -2 roll moveto dup  0 exch rlineto exch 0 rlineto
  neg 0 exch rlineto closepath} bdef
/FR {MR stroke} bdef
/PR {MR fill} bdef
/L1i {{currentfile picstr readhexstring pop} image} bdef
/tMatrix matrix def
/MakeOval {newpath tMatrix currentmatrix pop translate scale
0 0 1 0 360 arc tMatrix setmatrix} bdef
/FO {MakeOval stroke} bdef
/PO {MakeOval fill} bdef
/PD {currentlinewidth 2 div 0 360 arc fill
   PDlw -1 eq not {PDlw w /PDlw -1 def} if} def
/FA {newpath tMatrix currentmatrix pop translate scale
  0 0 1 5 -2 roll arc tMatrix setmatrix stroke} bdef
/PA {newpath tMatrix currentmatrix pop	translate 0 0 moveto scale
  0 0 1 5 -2 roll arc closepath tMatrix setmatrix fill} bdef
/FAn {newpath tMatrix currentmatrix pop translate scale
  0 0 1 5 -2 roll arcn tMatrix setmatrix stroke} bdef
/PAn {newpath tMatrix currentmatrix pop translate 0 0 moveto scale
  0 0 1 5 -2 roll arcn closepath tMatrix setmatrix fill} bdef
/vradius 0 def /hradius 0 def /lry 0 def
/lrx 0 def /uly 0 def /ulx 0 def /rad 0 def
/MRR {/vradius xdef /hradius xdef /lry xdef /lrx xdef /uly xdef
  /ulx xdef newpath tMatrix currentmatrix pop ulx hradius add uly
  vradius add translate hradius vradius scale 0 0 1 180 270 arc 
  tMatrix setmatrix lrx hradius sub uly vradius add translate
  hradius vradius scale 0 0 1 270 360 arc tMatrix setmatrix
  lrx hradius sub lry vradius sub translate hradius vradius scale
  0 0 1 0 90 arc tMatrix setmatrix ulx hradius add lry vradius sub
  translate hradius vradius scale 0 0 1 90 180 arc tMatrix setmatrix
  closepath} bdef
/FRR {MRR stroke } bdef
/PRR {MRR fill } bdef
/MlrRR {/lry xdef /lrx xdef /uly xdef /ulx xdef /rad lry uly sub 2 div def
  newpath tMatrix currentmatrix pop ulx rad add uly rad add translate
  rad rad scale 0 0 1 90 270 arc tMatrix setmatrix lrx rad sub lry rad
  sub translate rad rad scale 0 0 1 270 90 arc tMatrix setmatrix
  closepath} bdef
/FlrRR {MlrRR stroke } bdef
/PlrRR {MlrRR fill } bdef
/MtbRR {/lry xdef /lrx xdef /uly xdef /ulx xdef /rad lrx ulx sub 2 div def
  newpath tMatrix currentmatrix pop ulx rad add uly rad add translate
  rad rad scale 0 0 1 180 360 arc tMatrix setmatrix lrx rad sub lry rad
  sub translate rad rad scale 0 0 1 0 180 arc tMatrix setmatrix
  closepath} bdef
/FtbRR {MtbRR stroke } bdef
/PtbRR {MtbRR fill } bdef
/stri 6 array def /dtri 6 array def
/smat 6 array def /dmat 6 array def
/tmat1 6 array def /tmat2 6 array def /dif 3 array def
/asub {/ind2 exch def /ind1 exch def dup dup
  ind1 get exch ind2 get sub exch } bdef
/tri_to_matrix {
  2 0 asub 3 1 asub 4 0 asub 5 1 asub
  dup 0 get exch 1 get 7 -1 roll astore } bdef
/compute_transform {
  dmat dtri tri_to_matrix tmat1 invertmatrix 
  smat stri tri_to_matrix tmat2 concatmatrix } bdef
/ds {stri astore pop} bdef
/dt {dtri astore pop} bdef
/db {2 copy /cols xdef /rows xdef mul dup 3 mul string
  currentfile 
  3 index 0 eq {/ASCIIHexDecode filter}
  {/ASCII85Decode filter 3 index 2 eq {/RunLengthDecode filter} if }
  ifelse exch readstring pop
  dup 0 3 index getinterval /rbmap xdef
  dup 2 index dup getinterval /gbmap xdef
  1 index dup 2 mul exch getinterval /bbmap xdef pop pop}bdef
/it {gs np dtri aload pop moveto lineto lineto cp c
  cols rows 8 compute_transform 
  rbmap gbmap bbmap true 3 colorimage gr}bdef
/il {newpath moveto lineto stroke}bdef
currentdict end def
%%EndProlog

%%BeginSetup
MathWorks begin

0 cap

end
%%EndSetup

%%Page: 1 1
%%BeginPageSetup
%%PageBoundingBox:    37   180   549   616
MathWorks begin
bpage
%%EndPageSetup

%%BeginObject: obj1
bplot

/dpi2point 12 def
portraitMode 0216 7344 csm

  234   -48  6149  5231 rc
85 dict begin %Colortable dictionary
/c0 { 0.000000 0.000000 0.000000 sr} bdef
/c1 { 1.000000 1.000000 1.000000 sr} bdef
/c2 { 0.900000 0.000000 0.000000 sr} bdef
/c3 { 0.000000 0.820000 0.000000 sr} bdef
/c4 { 0.000000 0.000000 0.800000 sr} bdef
/c5 { 0.910000 0.820000 0.320000 sr} bdef
/c6 { 1.000000 0.260000 0.820000 sr} bdef
/c7 { 0.000000 0.820000 0.820000 sr} bdef
c0
1 j
1 sg
   0    0 6919 5187 rf
6 w
0 4202 5362 0 0 -4202 899 4616 4 MP
PP
-5362 0 0 4202 5362 0 0 -4202 899 4616 5 MP stroke
4 w
DO
SO
6 w
0 sg
 899  414 mt 6261  414 L
 899 4616 mt 6261 4616 L
6261 4616 mt 6261  414 L
 899 4616 mt  899  414 L
 899 4616 mt 6261 4616 L
 899 4616 mt  899  414 L
 919 4616 mt  919 4562 L
 919  414 mt  919  467 L
%%IncludeResource: font Helvetica
/Helvetica /WindowsLatin1Encoding 240 FMSR

 713 4873 mt 
(-3) s
1806 4616 mt 1806 4562 L
1806  414 mt 1806  467 L
1600 4873 mt 
(-2) s
2693 4616 mt 2693 4562 L
2693  414 mt 2693  467 L
2487 4873 mt 
(-1) s
3580 4616 mt 3580 4562 L
3580  414 mt 3580  467 L
3514 4873 mt 
(0) s
4466 4616 mt 4466 4562 L
4466  414 mt 4466  467 L
4400 4873 mt 
(1) s
5353 4616 mt 5353 4562 L
5353  414 mt 5353  467 L
5287 4873 mt 
(2) s
6240 4616 mt 6240 4562 L
6240  414 mt 6240  467 L
6174 4873 mt 
(3) s
 899 4599 mt  952 4599 L
6261 4599 mt 6207 4599 L
 591 4688 mt 
(-3) s
 899 3904 mt  952 3904 L
6261 3904 mt 6207 3904 L
 591 3993 mt 
(-2) s
 899 3209 mt  952 3209 L
6261 3209 mt 6207 3209 L
 591 3298 mt 
(-1) s
 899 2514 mt  952 2514 L
6261 2514 mt 6207 2514 L
 731 2603 mt 
(0) s
 899 1820 mt  952 1820 L
6261 1820 mt 6207 1820 L
 731 1909 mt 
(1) s
 899 1125 mt  952 1125 L
6261 1125 mt 6207 1125 L
 731 1214 mt 
(2) s
 899  430 mt  952  430 L
6261  430 mt 6207  430 L
 731  519 mt 
(3) s
 899  414 mt 6261  414 L
 899 4616 mt 6261 4616 L
6261 4616 mt 6261  414 L
 899 4616 mt  899  414 L
gs 899 414 5363 4203 rc
gr

/c8 { 0.000000 0.000000 1.000000 sr} bdef
c8
4619 2899 mt 4691 2899 L
4655 2863 mt 4655 2935 L
3364 2170 mt 3436 2170 L
3400 2134 mt 3400 2206 L
5282 1593 mt 5354 1593 L
5318 1557 mt 5318 1629 L
3577 2320 mt 3649 2320 L
3613 2284 mt 3613 2356 L
3627 3045 mt 3699 3045 L
3663 3009 mt 3663 3081 L
4177 2580 mt 4249 2580 L
4213 2544 mt 4213 2616 L
2394 1923 mt 2466 1923 L
2430 1887 mt 2430 1959 L
2605 3057 mt 2677 3057 L
2641 3021 mt 2641 3093 L
3135 2611 mt 3207 2611 L
3171 2575 mt 3171 2647 L
4482 2204 mt 4554 2204 L
4518 2168 mt 4518 2240 L
4746 2453 mt 4818 2453 L
4782 2417 mt 4782 2489 L
4532 1898 mt 4604 1898 L
4568 1862 mt 4568 1934 L
4542 1723 mt 4614 1723 L
4578 1687 mt 4578 1759 L
4869 2089 mt 4941 2089 L
4905 2053 mt 4905 2125 L
3897 2247 mt 3969 2247 L
3933 2211 mt 3933 2283 L
3538 1930 mt 3610 1930 L
3574 1894 mt 3574 1966 L
4852 2750 mt 4924 2750 L
4888 2714 mt 4888 2786 L
2723 3005 mt 2795 3005 L
2759 2969 mt 2759 3041 L
3202 1371 mt 3274 1371 L
3238 1335 mt 3238 1407 L
2945 2467 mt 3017 2467 L
2981 2431 mt 2981 2503 L
4416 2523 mt 4488 2523 L
4452 2487 mt 4452 2559 L
4251 3358 mt 4323 3358 L
4287 3322 mt 4287 3394 L
3499 2334 mt 3571 2334 L
3535 2298 mt 3535 2370 L
3717 1489 mt 3789 1489 L
3753 1453 mt 3753 1525 L
4330 2983 mt 4402 2983 L
4366 2947 mt 4366 3019 L
4149 2288 mt 4221 2288 L
4185 2252 mt 4185 2324 L
3020 2383 mt 3092 2383 L
3056 2347 mt 3056 2419 L
4060 2256 mt 4132 2256 L
4096 2220 mt 4096 2292 L
3762 2352 mt 3834 2352 L
3798 2316 mt 3798 2388 L
2844 2637 mt 2916 2637 L
2880 2601 mt 2880 2673 L
4381 3075 mt 4453 3075 L
4417 3039 mt 4417 3111 L
3273 2401 mt 3345 2401 L
3309 2365 mt 3309 2437 L
2615 1838 mt 2687 1838 L
2651 1802 mt 2651 1874 L
1674 3178 mt 1746 3178 L
1710 3142 mt 1710 3214 L
4597 1878 mt 4669 1878 L
4633 1842 mt 4633 1914 L
4259 3415 mt 4331 3415 L
4295 3379 mt 4295 3451 L
2634 3273 mt 2706 3273 L
2670 3237 mt 2670 3309 L
4390 2396 mt 4462 2396 L
4426 2360 mt 4426 2432 L
4364 2233 mt 4436 2233 L
4400 2197 mt 4400 2269 L
4732 2012 mt 4804 2012 L
4768 1976 mt 4768 2048 L
2881 2619 mt 2953 2619 L
2917 2583 mt 2917 2655 L
3421 1526 mt 3493 1526 L
3457 1490 mt 3457 1562 L
3785 3395 mt 3857 3395 L
3821 3359 mt 3821 3431 L
5413 1152 mt 5485 1152 L
5449 1116 mt 5449 1188 L
2773  564 mt 2845  564 L
2809  528 mt 2809  600 L
3393 2284 mt 3465 2284 L
3429 2248 mt 3429 2320 L
4322 3289 mt 4394 3289 L
4358 3253 mt 4358 3325 L
2987 1892 mt 3059 1892 L
3023 1856 mt 3023 1928 L
4492 1680 mt 4564 1680 L
4528 1644 mt 4528 1716 L
4981 1653 mt 5053 1653 L
5017 1617 mt 5017 1689 L
3861 3367 mt 3933 3367 L
3897 3331 mt 3897 3403 L
 863 3822 mt  935 3822 L
 899 3786 mt  899 3858 L
5828 1087 mt 5900 1087 L
5864 1051 mt 5864 1123 L
3000 2825 mt 3072 2825 L
3036 2789 mt 3036 2861 L
2368 2709 mt 2440 2709 L
2404 2673 mt 2404 2745 L
3359 2713 mt 3431 2713 L
3395 2677 mt 3395 2749 L
2874 2279 mt 2946 2279 L
2910 2243 mt 2910 2315 L
3404 2722 mt 3476 2722 L
3440 2686 mt 3440 2758 L
5150 1904 mt 5222 1904 L
5186 1868 mt 5186 1940 L
5321 1816 mt 5393 1816 L
5357 1780 mt 5357 1852 L
4407 3106 mt 4479 3106 L
4443 3070 mt 4443 3142 L
3989 3711 mt 4061 3711 L
4025 3675 mt 4025 3747 L
3172 1572 mt 3244 1572 L
3208 1536 mt 3208 1608 L
4243 1318 mt 4315 1318 L
4279 1282 mt 4279 1354 L
6033 1502 mt 6105 1502 L
6069 1466 mt 6069 1538 L
3091 3022 mt 3163 3022 L
3127 2986 mt 3127 3058 L
5606 1255 mt 5678 1255 L
5642 1219 mt 5642 1291 L
4034 3198 mt 4106 3198 L
4070 3162 mt 4070 3234 L
5047 2497 mt 5119 2497 L
5083 2461 mt 5083 2533 L
4961 2664 mt 5033 2664 L
4997 2628 mt 4997 2700 L
4608 2365 mt 4680 2365 L
4644 2329 mt 4644 2401 L
4041 2024 mt 4113 2024 L
4077 1988 mt 4077 2060 L
3510 2311 mt 3582 2311 L
3546 2275 mt 3546 2347 L
3711 2700 mt 3783 2700 L
3747 2664 mt 3747 2736 L
4760 2864 mt 4832 2864 L
4796 2828 mt 4796 2900 L
4472 1462 mt 4544 1462 L
4508 1426 mt 4508 1498 L
2040 1748 mt 2112 1748 L
2076 1712 mt 2076 1784 L
5180 2218 mt 5252 2218 L
5216 2182 mt 5216 2254 L
2624 1662 mt 2696 1662 L
2660 1626 mt 2660 1698 L
4372 2532 mt 4444 2532 L
4408 2496 mt 4408 2568 L
2671 1448 mt 2743 1448 L
2707 1412 mt 2707 1484 L
4015 1336 mt 4087 1336 L
4051 1300 mt 4051 1372 L
5211 3257 mt 5283 3257 L
5247 3221 mt 5247 3293 L
4087 2488 mt 4159 2488 L
4123 2452 mt 4123 2524 L
4021 2519 mt 4093 2519 L
4057 2483 mt 4057 2555 L
4135 2099 mt 4207 2099 L
4171 2063 mt 4171 2135 L
2235 2844 mt 2307 2844 L
2271 2808 mt 2271 2880 L
3059 1121 mt 3131 1121 L
3095 1085 mt 3095 1157 L
3952 3349 mt 4024 3349 L
3988 3313 mt 3988 3385 L
3826 3553 mt 3898 3553 L
3862 3517 mt 3862 3589 L
4585 1698 mt 4657 1698 L
4621 1662 mt 4621 1734 L
3774 1434 mt 3846 1434 L
3810 1398 mt 3810 1470 L
3803 2062 mt 3875 2062 L
3839 2026 mt 3839 2098 L
3307 2242 mt 3379 2242 L
3343 2206 mt 3343 2278 L
3190 4131 mt 3262 4131 L
3226 4095 mt 3226 4167 L
4114 2145 mt 4186 2145 L
4150 2109 mt 4150 2181 L
4266 2731 mt 4338 2731 L
4302 2695 mt 4302 2767 L
4199 2691 mt 4271 2691 L
4235 2655 mt 4235 2727 L
2689 1634 mt 2761 1634 L
2725 1598 mt 2725 1670 L
3237 2994 mt 3309 2994 L
3273 2958 mt 3273 3030 L
3482 2940 mt 3554 2940 L
3518 2904 mt 3518 2976 L
3832 2633 mt 3904 2633 L
3868 2597 mt 3868 2669 L
4398 1865 mt 4470 1865 L
4434 1829 mt 4434 1901 L
4028 2956 mt 4100 2956 L
4064 2920 mt 4064 2992 L
3249 2261 mt 3321 2261 L
3285 2225 mt 3285 2297 L
3689 2140 mt 3761 2140 L
3725 2104 mt 3725 2176 L
4706 1972 mt 4778 1972 L
4742 1936 mt 4742 2008 L
4221 2773 mt 4293 2773 L
4257 2737 mt 4257 2809 L
3677 2597 mt 3749 2597 L
3713 2561 mt 3713 2633 L
3983 3081 mt 4055 3081 L
4019 3045 mt 4019 3117 L
3780  724 mt 3852  724 L
3816  688 mt 3816  760 L
3449 2584 mt 3521 2584 L
3485 2548 mt 3485 2620 L
2381 3137 mt 2453 3137 L
2417 3101 mt 2417 3173 L
4667 3051 mt 4739 3051 L
4703 3015 mt 4703 3087 L
3934 1948 mt 4006 1948 L
3970 1912 mt 3970 1984 L
3728 2209 mt 3800 2209 L
3764 2173 mt 3764 2245 L
2888 2073 mt 2960 2073 L
2924 2037 mt 2924 2109 L
4298 2361 mt 4370 2361 L
4334 2325 mt 4334 2397 L
1991 1550 mt 2063 1550 L
2027 1514 mt 2027 1586 L
3153 3281 mt 3225 3281 L
3189 3245 mt 3189 3317 L
3855 2874 mt 3927 2874 L
3891 2838 mt 3891 2910 L
5700 1978 mt 5772 1978 L
5736 1942 mt 5736 2014 L
2680 3131 mt 2752 3131 L
2716 3095 mt 2716 3167 L
4631 1476 mt 4703 1476 L
4667 1440 mt 4667 1512 L
5071 2475 mt 5143 2475 L
5107 2439 mt 5107 2511 L
5245 1354 mt 5317 1354 L
5281 1318 mt 5281 1390 L
3313 2820 mt 3385 2820 L
3349 2784 mt 3349 2856 L
4719 2506 mt 4791 2506 L
4755 2470 mt 4755 2542 L
4643 2695 mt 4715 2695 L
4679 2659 mt 4679 2731 L
3791 3658 mt 3863 3658 L
3827 3622 mt 3827 3694 L
2432 1787 mt 2504 1787 L
2468 1751 mt 2468 1823 L
4306 2668 mt 4378 2668 L
4342 2632 mt 4342 2704 L
3123 2920 mt 3195 2920 L
3159 2884 mt 3159 2956 L
3566 4305 mt 3638 4305 L
3602 4269 mt 3602 4341 L
3885 4205 mt 3957 4205 L
3921 4169 mt 3921 4241 L
2502 3314 mt 2574 3314 L
2538 3278 mt 2538 3350 L
3330 2673 mt 3402 2673 L
3366 2637 mt 3366 2709 L
4094 2736 mt 4166 2736 L
4130 2700 mt 4130 2772 L
5002 1917 mt 5074 1917 L
5038 1881 mt 5038 1953 L
4789 2904 mt 4861 2904 L
4825 2868 mt 4825 2940 L
3867 2125 mt 3939 2125 L
3903 2089 mt 3903 2161 L
3116 2237 mt 3188 2237 L
3152 2201 mt 3152 2273 L
3616 1671 mt 3688 1671 L
3652 1635 mt 3652 1707 L
3066 3436 mt 3138 3436 L
3102 3400 mt 3102 3472 L
3302 2545 mt 3374 2545 L
3338 2509 mt 3338 2581 L
3398 2624 mt 3470 2624 L
3434 2588 mt 3434 2660 L
3033 2115 mt 3105 2115 L
3069 2079 mt 3069 2151 L
4435 1740 mt 4507 1740 L
4471 1704 mt 4471 1776 L
4338 1707 mt 4410 1707 L
4374 1671 mt 4374 1743 L
4444 3468 mt 4516 3468 L
4480 3432 mt 4480 3504 L
3599  414 mt 3671  414 L
3635  378 mt 3635  450 L
3694 3125 mt 3766 3125 L
3730 3089 mt 3730 3161 L
3605 2571 mt 3677 2571 L
3641 2535 mt 3641 2607 L
3927 1990 mt 3999 1990 L
3963 1954 mt 3963 2026 L
5365 3774 mt 5437 3774 L
5401 3738 mt 5401 3810 L
2662 2646 mt 2734 2646 L
2698 2610 mt 2698 2682 L
5531 1851 mt 5603 1851 L
5567 1815 mt 5567 1887 L
2545 2567 mt 2617 2567 L
2581 2531 mt 2581 2603 L
3370 3567 mt 3442 3567 L
3406 3531 mt 3406 3603 L
2146 1995 mt 2218 1995 L
2182 1959 mt 2182 2031 L
4836 1614 mt 4908 1614 L
4872 1578 mt 4872 1650 L
4886 2806 mt 4958 2806 L
4922 2770 mt 4922 2842 L
4922 3069 mt 4994 3069 L
4958 3033 mt 4958 3105 L
3255 2307 mt 3327 2307 L
3291 2271 mt 3291 2343 L
2959 2414 mt 3031 2414 L
2995 2378 mt 2995 2450 L
1619 2007 mt 1691 2007 L
1655 1971 mt 1655 2043 L
4463 1006 mt 4535 1006 L
4499  970 mt 4499 1042 L
1907 2316 mt 1979 2316 L
1943 2280 mt 1943 2352 L
4274 2541 mt 4346 2541 L
4310 2505 mt 4310 2577 L
4501 1872 mt 4573 1872 L
4537 1836 mt 4537 1908 L
3319 2967 mt 3391 2967 L
3355 2931 mt 3355 3003 L
4067 3039 mt 4139 3039 L
4103 3003 mt 4103 3075 L
2732 3540 mt 2804 3540 L
2768 3504 mt 2768 3576 L
3588 2347 mt 3660 2347 L
3624 2311 mt 3624 2383 L
4236 2589 mt 4308 2589 L
4272 2553 mt 4272 2625 L
4355 2370 mt 4427 2370 L
4391 2334 mt 4391 2406 L
2903 2194 mt 2975 2194 L
2939 2158 mt 2939 2230 L
4290 2528 mt 4362 2528 L
4326 2492 mt 4326 2564 L
3915 2029 mt 3987 2029 L
3951 1993 mt 3951 2065 L
3638 2449 mt 3710 2449 L
3674 2413 mt 3674 2485 L
3706 3034 mt 3778 3034 L
3742 2998 mt 3742 3070 L
3226 3250 mt 3298 3250 L
3262 3214 mt 3262 3286 L
4805 2155 mt 4877 2155 L
4841 2119 mt 4841 2191 L
6225 1277 mt 6297 1277 L
6261 1241 mt 6261 1313 L
3921 2051 mt 3993 2051 L
3957 2015 mt 3957 2087 L
2355 2405 mt 2427 2405 L
2391 2369 mt 2391 2441 L
3410 2787 mt 3482 2787 L
3446 2751 mt 3446 2823 L
3797 2427 mt 3869 2427 L
3833 2391 mt 3833 2463 L
3621 2869 mt 3693 2869 L
3657 2833 mt 3657 2905 L
2267 2764 mt 2339 2764 L
2303 2728 mt 2303 2800 L
3505 2840 mt 3577 2840 L
3541 2804 mt 3541 2876 L
4228 2067 mt 4300 2067 L
4264 2031 mt 4264 2103 L
2341 2859 mt 2413 2859 L
2377 2823 mt 2377 2895 L
4128 3220 mt 4200 3220 L
4164 3184 mt 4164 3256 L
3723 3942 mt 3795 3942 L
3759 3906 mt 3759 3978 L
4314 1298 mt 4386 1298 L
4350 1262 mt 4350 1334 L
3879 2458 mt 3951 2458 L
3915 2422 mt 3915 2494 L
2575 2641 mt 2647 2641 L
2611 2605 mt 2611 2677 L
4775 2329 mt 4847 2329 L
4811 2293 mt 4811 2365 L
3996 2650 mt 4068 2650 L
4032 2614 mt 4032 2686 L
3243 2655 mt 3315 2655 L
3279 2619 mt 3279 2691 L
4121 2501 mt 4193 2501 L
4157 2465 mt 4157 2537 L
3129 3011 mt 3201 3011 L
3165 2975 mt 3165 3047 L
2757 3503 mt 2829 3503 L
2793 3467 mt 2793 3539 L
3376 3265 mt 3448 3265 L
3412 3229 mt 3412 3301 L
2706 2849 mt 2778 2849 L
2742 2813 mt 2742 2885 L
3521 1823 mt 3593 1823 L
3557 1787 mt 3557 1859 L
3649 3908 mt 3721 3908 L
3685 3872 mt 3685 3944 L
3946 2040 mt 4018 2040 L
3982 2004 mt 3982 2076 L
2924 1772 mt 2996 1772 L
2960 1736 mt 2960 1808 L
3555 3980 mt 3627 3980 L
3591 3944 mt 3591 4016 L
3672 2214 mt 3744 2214 L
3708 2178 mt 3708 2250 L
3544 2120 mt 3616 2120 L
3580 2084 mt 3580 2156 L
2938 3000 mt 3010 3000 L
2974 2964 mt 2974 3036 L
2586 3242 mt 2658 3242 L
2622 3206 mt 2622 3278 L
2595 1419 mt 2667 1419 L
2631 1383 mt 2631 1455 L
3820 3171 mt 3892 3171 L
3856 3135 mt 3856 3207 L
3958 2879 mt 4030 2879 L
3994 2843 mt 3994 2915 L
2910 2094 mt 2982 2094 L
2946 2058 mt 2946 2130 L
4184 1966 mt 4256 1966 L
4220 1930 mt 4220 2002 L
3838 3446 mt 3910 3446 L
3874 3410 mt 3874 3482 L
4425 2889 mt 4497 2889 L
4461 2853 mt 4461 2925 L
4156 1936 mt 4228 1936 L
4192 1900 mt 4192 1972 L
3147 2160 mt 3219 2160 L
3183 2124 mt 3183 2196 L
4107 1643 mt 4179 1643 L
4143 1607 mt 4143 1679 L
3078 2265 mt 3150 2265 L
3114 2229 mt 3114 2301 L
3342 2302 mt 3414 2302 L
3378 2266 mt 3378 2338 L
3296 2223 mt 3368 2223 L
3332 2187 mt 3332 2259 L
3903 2436 mt 3975 2436 L
3939 2400 mt 3939 2472 L
3460 2677 mt 3532 2677 L
3496 2641 mt 3496 2713 L
2218 3625 mt 2290 3625 L
2254 3589 mt 2254 3661 L
3220 2018 mt 3292 2018 L
3256 1982 mt 3256 2054 L
2896 2440 mt 2968 2440 L
2932 2404 mt 2932 2476 L
3661 2989 mt 3733 2989 L
3697 2953 mt 3697 3025 L
3432 3028 mt 3504 3028 L
3468 2992 mt 3468 3064 L
3757 3151 mt 3829 3151 L
3793 3115 mt 3793 3187 L
3549 2562 mt 3621 2562 L
3585 2526 mt 3585 2598 L
2513 4616 mt 2585 4616 L
2549 4580 mt 2549 4652 L
3644 2830 mt 3716 2830 L
3680 2794 mt 3680 2866 L
3655 2338 mt 3727 2338 L
3691 2302 mt 3691 2374 L
2652 2759 mt 2724 2759 L
2688 2723 mt 2688 2795 L
3387 1732 mt 3459 1732 L
3423 1696 mt 3423 1768 L
3560 3322 mt 3632 3322 L
3596 3286 mt 3596 3358 L
3040 2001 mt 3112 2001 L
3076 1965 mt 3076 2037 L
4074 1049 mt 4146 1049 L
4110 1013 mt 4110 1085 L
3166 2536 mt 3238 2536 L
3202 2500 mt 3202 2572 L
3085 2727 mt 3157 2727 L
3121 2691 mt 3121 2763 L
3610 1858 mt 3682 1858 L
3646 1822 mt 3646 1894 L
1805 2782 mt 1877 2782 L
1841 2746 mt 1841 2818 L
2740 2471 mt 2812 2471 L
2776 2435 mt 2776 2507 L
3284 2972 mt 3356 2972 L
3320 2936 mt 3320 3008 L
2715 2909 mt 2787 2909 L
2751 2873 mt 2751 2945 L
4941 1538 mt 5013 1538 L
4977 1502 mt 4977 1574 L
2282 3112 mt 2354 3112 L
2318 3076 mt 2318 3148 L
2859 2298 mt 2931 2298 L
2895 2262 mt 2895 2334 L
3353 2593 mt 3425 2593 L
3389 2557 mt 3389 2629 L
3336 2189 mt 3408 2189 L
3372 2153 mt 3372 2225 L
2479 3731 mt 2551 3731 L
2515 3695 mt 2515 3767 L
4655 1954 mt 4727 1954 L
4691 1918 mt 4691 1990 L
3814 2418 mt 3886 2418 L
3850 2382 mt 3850 2454 L
4009 3164 mt 4081 3164 L
4045 3128 mt 4045 3200 L
1965 2659 mt 2037 2659 L
2001 2623 mt 2001 2695 L
2643 1942 mt 2715 1942 L
2679 1906 mt 2679 1978 L
3633  957 mt 3705  957 L
3669  921 mt 3669  993 L
2126 3610 mt 2198 3610 L
2162 3574 mt 2162 3646 L
1259 2745 mt 1331 2745 L
1295 2709 mt 1295 2781 L
2952 2801 mt 3024 2801 L
2988 2765 mt 2988 2837 L
1937 3425 mt 2009 3425 L
1973 3389 mt 1973 3461 L
4904 2078 mt 4976 2078 L
4940 2042 mt 4940 2114 L
3104 2576 mt 3176 2576 L
3140 2540 mt 3140 2612 L
5096 2046 mt 5168 2046 L
5132 2010 mt 5132 2082 L
3683 3213 mt 3755 3213 L
3719 3177 mt 3719 3249 L
2813 2130 mt 2885 2130 L
2849 2094 mt 2849 2166 L
3208 2180 mt 3280 2180 L
3244 2144 mt 3244 2216 L
2016 2792 mt 2088 2792 L
2052 2756 mt 2052 2828 L
3532 2150 mt 3604 2150 L
3568 2114 mt 3568 2186 L
4213 1831 mt 4285 1831 L
4249 1795 mt 4249 1867 L
2993 3752 mt 3065 3752 L
3029 3716 mt 3029 3788 L
4522 2199 mt 4594 2199 L
4558 2163 mt 4558 2235 L
3454 3093 mt 3526 3093 L
3490 3057 mt 3490 3129 L
3415 1181 mt 3487 1181 L
3451 1145 mt 3451 1217 L
3072 1802 mt 3144 1802 L
3108 1766 mt 3108 1838 L
4054 2374 mt 4126 2374 L
4090 2338 mt 4090 2410 L
2183 3184 mt 2255 3184 L
2219 3148 mt 2219 3220 L
2201 1960 mt 2273 1960 L
2237 1924 mt 2237 1996 L
3466 2514 mt 3538 2514 L
3502 2478 mt 3502 2550 L
4142 2325 mt 4214 2325 L
4178 2289 mt 4178 2361 L
3751 1207 mt 3823 1207 L
3787 1171 mt 3787 1243 L
3666 2628 mt 3738 2628 L
3702 2592 mt 3702 2664 L
3768 3331 mt 3840 3331 L
3804 3295 mt 3804 3367 L
3214 2165 mt 3286 2165 L
3250 2129 mt 3250 2201 L
3909 2109 mt 3981 2109 L
3945 2073 mt 3945 2145 L
2765 2686 mt 2837 2686 L
2801 2650 mt 2801 2722 L
3007 2392 mt 3079 2392 L
3043 2356 mt 3043 2428 L
1766 3340 mt 1838 3340 L
1802 3304 mt 1802 3376 L
1387 2343 mt 1459 2343 L
1423 2307 mt 1423 2379 L
1556 1779 mt 1628 1779 L
1592 1743 mt 1592 1815 L
2085 3099 mt 2157 3099 L
2121 3063 mt 2121 3135 L
2468 1561 mt 2540 1561 L
2504 1525 mt 2504 1597 L
4163 2275 mt 4235 2275 L
4199 2239 mt 4199 2311 L
2251 3297 mt 2323 3297 L
2287 3261 mt 2287 3333 L
2821 3206 mt 2893 3206 L
2857 3170 mt 2857 3242 L
2534 1583 mt 2606 1583 L
2570 1547 mt 2570 1619 L
3098 3386 mt 3170 3386 L
3134 3350 mt 3134 3422 L
4170 1514 mt 4242 1514 L
4206 1478 mt 4206 1550 L
3477 2228 mt 3549 2228 L
3513 2192 mt 3513 2264 L
5122 1794 mt 5194 1794 L
5158 1758 mt 5158 1830 L
3141 3797 mt 3213 3797 L
3177 3761 mt 3177 3833 L
3347 2778 mt 3419 2778 L
3383 2742 mt 3383 2814 L
3493 2914 mt 3565 2914 L
3529 2878 mt 3529 2950 L
4191  898 mt 4263  898 L
4227  862 mt 4227  934 L
3046 2423 mt 3118 2423 L
3082 2387 mt 3082 2459 L
4680 2083 mt 4752 2083 L
4716 2047 mt 4716 2119 L
3891 3405 mt 3963 3405 L
3927 3369 mt 3927 3441 L
3471 2410 mt 3543 2410 L
3507 2374 mt 3507 2446 L
3977 3376 mt 4049 3376 L
4013 3340 mt 4013 3412 L
3740 2554 mt 3812 2554 L
3776 2518 mt 3776 2590 L
2327 4023 mt 2399 4023 L
2363 3987 mt 2363 4059 L
2828 1624 mt 2900 1624 L
2864 1588 mt 2864 1660 L
2866 2558 mt 2938 2558 L
2902 2522 mt 2902 2594 L
2063 2480 mt 2135 2480 L
2099 2444 mt 2099 2516 L
4553 2811 mt 4625 2811 L
4589 2775 mt 4589 2847 L
2836 2930 mt 2908 2930 L
2872 2894 mt 2872 2966 L
4282 1756 mt 4354 1756 L
4318 1720 mt 4318 1792 L
3426 3491 mt 3498 3491 L
3462 3455 mt 3462 3527 L
1842 2432 mt 1914 2432 L
1878 2396 mt 1878 2468 L
3267 2704 mt 3339 2704 L
3303 2668 mt 3303 2740 L
3290 2946 mt 3362 2946 L
3326 2910 mt 3326 2982 L
3516 2510 mt 3588 2510 L
3552 2474 mt 3552 2546 L
2966 3515 mt 3038 3515 L
3002 3479 mt 3002 3551 L
2444 1604 mt 2516 1604 L
2480 1568 mt 2480 1640 L
2165 4072 mt 2237 4072 L
2201 4036 mt 2201 4108 L
3261 2356 mt 3333 2356 L
3297 2320 mt 3297 2392 L
2781 3063 mt 2853 3063 L
2817 3027 mt 2817 3099 L
3964 3191 mt 4036 3191 L
4000 3155 mt 4000 3227 L
4693 2549 mt 4765 2549 L
4729 2513 mt 4729 2585 L
2456 2835 mt 2528 2835 L
2492 2799 mt 2492 2871 L
1876 3235 mt 1948 3235 L
1912 3199 mt 1912 3271 L
2312 3595 mt 2384 3595 L
2348 3559 mt 2348 3631 L
4574 3693 mt 4646 3693 L
4610 3657 mt 4610 3729 L
3582 1911 mt 3654 1911 L
3618 1875 mt 3618 1947 L
3438 2185 mt 3510 2185 L
3474 2149 mt 3474 2221 L
4080 1404 mt 4152 1404 L
4116 1368 mt 4116 1440 L
2917 3641 mt 2989 3641 L
2953 3605 mt 2953 3677 L
3734 2035 mt 3806 2035 L
3770 1999 mt 3770 2071 L
3873 2796 mt 3945 2796 L
3909 2760 mt 3909 2832 L
4100 2768 mt 4172 2768 L
4136 2732 mt 4136 2804 L
4564 1845 mt 4636 1845 L
4600 1809 mt 4600 1881 L
2523 1885 mt 2595 1885 L
2559 1849 mt 2559 1921 L
3745 2270 mt 3817 2270 L
3781 2234 mt 3781 2306 L
2697  824 mt 2769  824 L
2733  788 mt 2733  860 L
2980 2057 mt 3052 2057 L
3016 2021 mt 3016 2093 L
4453 2951 mt 4525 2951 L
4489 2915 mt 4489 2987 L
3850 3581 mt 3922 3581 L
3886 3545 mt 3886 3617 L
1481 3017 mt 1553 3017 L
1517 2981 mt 1517 3053 L
2931 3675 mt 3003 3675 L
2967 3639 mt 2967 3711 L
3381 2815 mt 3453 2815 L
3417 2779 mt 3417 2851 L
3160 3306 mt 3232 3306 L
3196 3270 mt 3196 3342 L
2851 2602 mt 2923 2602 L
2887 2566 mt 2887 2638 L
3027 2493 mt 3099 2493 L
3063 2457 mt 3063 2529 L
4002 2682 mt 4074 2682 L
4038 2646 mt 4038 2718 L
3809 3457 mt 3881 3457 L
3845 3421 mt 3845 3493 L
4347 2962 mt 4419 2962 L
4383 2926 mt 4383 2998 L
2565 2854 mt 2637 2854 L
2601 2818 mt 2601 2890 L
3278 2175 mt 3350 2175 L
3314 2139 mt 3314 2211 L
3196 2606 mt 3268 2606 L
3232 2570 mt 3232 2642 L
2797 1232 mt 2869 1232 L
2833 1196 mt 2833 1268 L
2749 2884 mt 2821 2884 L
2785 2848 mt 2785 2920 L
3178 2935 mt 3250 2935 L
3214 2899 mt 3214 2971 L
3053 3848 mt 3125 3848 L
3089 3812 mt 3089 3884 L
2407 3087 mt 2479 3087 L
2443 3051 mt 2443 3123 L
3232 3877 mt 3304 3877 L
3268 3841 mt 3268 3913 L
1722 3157 mt 1794 3157 L
1758 3121 mt 1758 3193 L
2555 3118 mt 2627 3118 L
2591 3082 mt 2591 3154 L
3013 3144 mt 3085 3144 L
3049 3108 mt 3049 3180 L
2490 1809 mt 2562 1809 L
2526 1773 mt 2526 1845 L
3488 2293 mt 3560 2293 L
3524 2257 mt 3524 2329 L
3184 2104 mt 3256 2104 L
3220 2068 mt 3220 2140 L
3443 1984 mt 3515 1984 L
3479 1948 mt 3479 2020 L
2805 2462 mt 2877 2462 L
2841 2426 mt 2841 2498 L
2973 2484 mt 3045 2484 L
3009 2448 mt 3009 2520 L
2298 2379 mt 2370 2379 L
2334 2343 mt 2334 2415 L
5024 1715 mt 5096 1715 L
5060 1679 mt 5060 1751 L
5468 1689 mt 5540 1689 L
5504 1653 mt 5504 1725 L
3594 2615 mt 3666 2615 L
3630 2579 mt 3630 2651 L
4512 2894 mt 4584 2894 L
4548 2858 mt 4548 2930 L
3325 2718 mt 3397 2718 L
3361 2682 mt 3361 2754 L
3527 2445 mt 3599 2445 L
3563 2409 mt 3563 2481 L
4820 1764 mt 4892 1764 L
4856 1728 mt 4856 1800 L
3971 2925 mt 4043 2925 L
4007 2889 mt 4007 2961 L
3571 2754 mt 3643 2754 L
3607 2718 mt 3607 2790 L
3700 2135 mt 3772 2135 L
3736 2099 mt 3736 2171 L
2789 3527 mt 2861 3527 L
2825 3491 mt 2825 3563 L
2420 2388 mt 2492 2388 L
2456 2352 mt 2456 2424 L
3940 2978 mt 4012 2978 L
3976 2942 mt 3976 3014 L
4047 1388 mt 4119 1388 L
4083 1352 mt 4083 1424 L
4206 2251 mt 4278 2251 L
4242 2215 mt 4242 2287 L
2106 3227 mt 2178 3227 L
2142 3191 mt 2142 3263 L
3110 3479 mt 3182 3479 L
3146 3443 mt 3146 3515 L
3844 2741 mt 3916 2741 L
3880 2705 mt 3880 2777 L
gs 899 414 5363 4203 rc
gr

0 sg
2826 5104 mt 
(\(F,DCTs,MLP\)) s
 482 3296 mt  -90 rotate
(\(F,DCTs,iMLP\)) s
90 rotate
2975  223 mt 
(Corr = 0.25) s

end %%Color Dict

eplot
%%EndObject

epage
end

showpage

%%Trailer
%%EOF
