%!PS-Adobe-3.0 EPSF-3.0
%%Creator: MATLAB, The Mathworks, Inc. Version 7.7.0.471 (R2008b). Operating System: Microsoft Windows XP.
%%Title: Pictures\main_zoo_mvar_analysis_data_BMI_xcorr_bmig_p1_k2_2_4.eps
%%CreationDate: 10/26/2009  05:45:16
%%DocumentNeededFonts: Helvetica
%%DocumentProcessColors: Cyan Magenta Yellow Black
%%LanguageLevel: 2
%%Pages: 1
%%BoundingBox:    37   180   549   616
%%EndComments

%%BeginProlog
% MathWorks dictionary
/MathWorks 160 dict begin
% definition operators
/bdef {bind def} bind def
/ldef {load def} bind def
/xdef {exch def} bdef
/xstore {exch store} bdef
% operator abbreviations
/c  /clip ldef
/cc /concat ldef
/cp /closepath ldef
/gr /grestore ldef
/gs /gsave ldef
/mt /moveto ldef
/np /newpath ldef
/cm /currentmatrix ldef
/sm /setmatrix ldef
/rm /rmoveto ldef
/rl /rlineto ldef
/s {show newpath} bdef
/sc {setcmykcolor} bdef
/sr /setrgbcolor ldef
/sg /setgray ldef
/w /setlinewidth ldef
/j /setlinejoin ldef
/cap /setlinecap ldef
/rc {rectclip} bdef
/rf {rectfill} bdef
% page state control
/pgsv () def
/bpage {/pgsv save def} bdef
/epage {pgsv restore} bdef
/bplot /gsave ldef
/eplot {stroke grestore} bdef
% orientation switch
/portraitMode 0 def /landscapeMode 1 def /rotateMode 2 def
% coordinate system mappings
/dpi2point 0 def
% font control
/FontSize 0 def
/FMS {/FontSize xstore findfont [FontSize 0 0 FontSize neg 0 0]
  makefont setfont} bdef
/ISOLatin1Encoding where {pop /WindowsLatin1Encoding 256 array bdef
ISOLatin1Encoding WindowsLatin1Encoding copy pop
/.notdef/.notdef/quotesinglbase/florin/quotedblbase/ellipsis/dagger
/daggerdbl/circumflex/perthousand/Scaron/guilsinglleft/OE/.notdef/.notdef
/.notdef/.notdef/quoteleft/quoteright/quotedblleft/quotedblright/bullet
/endash/emdash/tilde/trademark/scaron/guilsinglright/oe/.notdef/.notdef
/Ydieresis WindowsLatin1Encoding 128 32 getinterval astore pop}
{/WindowsLatin1Encoding StandardEncoding bdef} ifelse
/reencode {exch dup where {pop load} {pop StandardEncoding} ifelse
  exch dup 3 1 roll findfont dup length dict begin
  { 1 index /FID ne {def}{pop pop} ifelse } forall
  /Encoding exch def currentdict end definefont pop} bdef
/isroman {findfont /CharStrings get /Agrave known} bdef
/FMSR {3 1 roll 1 index dup isroman {reencode} {pop pop} ifelse
  exch FMS} bdef
/csm {1 dpi2point div -1 dpi2point div scale neg translate
 dup landscapeMode eq {pop -90 rotate}
  {rotateMode eq {90 rotate} if} ifelse} bdef
% line types: solid, dotted, dashed, dotdash
/SO { [] 0 setdash } bdef
/DO { [.5 dpi2point mul 4 dpi2point mul] 0 setdash } bdef
/DA { [6 dpi2point mul] 0 setdash } bdef
/DD { [.5 dpi2point mul 4 dpi2point mul 6 dpi2point mul 4
  dpi2point mul] 0 setdash } bdef
% macros for lines and objects
/L {lineto stroke} bdef
/MP {3 1 roll moveto 1 sub {rlineto} repeat} bdef
/AP {{rlineto} repeat} bdef
/PDlw -1 def
/W {/PDlw currentlinewidth def setlinewidth} def
/PP {closepath eofill} bdef
/DP {closepath stroke} bdef
/MR {4 -2 roll moveto dup  0 exch rlineto exch 0 rlineto
  neg 0 exch rlineto closepath} bdef
/FR {MR stroke} bdef
/PR {MR fill} bdef
/L1i {{currentfile picstr readhexstring pop} image} bdef
/tMatrix matrix def
/MakeOval {newpath tMatrix currentmatrix pop translate scale
0 0 1 0 360 arc tMatrix setmatrix} bdef
/FO {MakeOval stroke} bdef
/PO {MakeOval fill} bdef
/PD {currentlinewidth 2 div 0 360 arc fill
   PDlw -1 eq not {PDlw w /PDlw -1 def} if} def
/FA {newpath tMatrix currentmatrix pop translate scale
  0 0 1 5 -2 roll arc tMatrix setmatrix stroke} bdef
/PA {newpath tMatrix currentmatrix pop	translate 0 0 moveto scale
  0 0 1 5 -2 roll arc closepath tMatrix setmatrix fill} bdef
/FAn {newpath tMatrix currentmatrix pop translate scale
  0 0 1 5 -2 roll arcn tMatrix setmatrix stroke} bdef
/PAn {newpath tMatrix currentmatrix pop translate 0 0 moveto scale
  0 0 1 5 -2 roll arcn closepath tMatrix setmatrix fill} bdef
/vradius 0 def /hradius 0 def /lry 0 def
/lrx 0 def /uly 0 def /ulx 0 def /rad 0 def
/MRR {/vradius xdef /hradius xdef /lry xdef /lrx xdef /uly xdef
  /ulx xdef newpath tMatrix currentmatrix pop ulx hradius add uly
  vradius add translate hradius vradius scale 0 0 1 180 270 arc 
  tMatrix setmatrix lrx hradius sub uly vradius add translate
  hradius vradius scale 0 0 1 270 360 arc tMatrix setmatrix
  lrx hradius sub lry vradius sub translate hradius vradius scale
  0 0 1 0 90 arc tMatrix setmatrix ulx hradius add lry vradius sub
  translate hradius vradius scale 0 0 1 90 180 arc tMatrix setmatrix
  closepath} bdef
/FRR {MRR stroke } bdef
/PRR {MRR fill } bdef
/MlrRR {/lry xdef /lrx xdef /uly xdef /ulx xdef /rad lry uly sub 2 div def
  newpath tMatrix currentmatrix pop ulx rad add uly rad add translate
  rad rad scale 0 0 1 90 270 arc tMatrix setmatrix lrx rad sub lry rad
  sub translate rad rad scale 0 0 1 270 90 arc tMatrix setmatrix
  closepath} bdef
/FlrRR {MlrRR stroke } bdef
/PlrRR {MlrRR fill } bdef
/MtbRR {/lry xdef /lrx xdef /uly xdef /ulx xdef /rad lrx ulx sub 2 div def
  newpath tMatrix currentmatrix pop ulx rad add uly rad add translate
  rad rad scale 0 0 1 180 360 arc tMatrix setmatrix lrx rad sub lry rad
  sub translate rad rad scale 0 0 1 0 180 arc tMatrix setmatrix
  closepath} bdef
/FtbRR {MtbRR stroke } bdef
/PtbRR {MtbRR fill } bdef
/stri 6 array def /dtri 6 array def
/smat 6 array def /dmat 6 array def
/tmat1 6 array def /tmat2 6 array def /dif 3 array def
/asub {/ind2 exch def /ind1 exch def dup dup
  ind1 get exch ind2 get sub exch } bdef
/tri_to_matrix {
  2 0 asub 3 1 asub 4 0 asub 5 1 asub
  dup 0 get exch 1 get 7 -1 roll astore } bdef
/compute_transform {
  dmat dtri tri_to_matrix tmat1 invertmatrix 
  smat stri tri_to_matrix tmat2 concatmatrix } bdef
/ds {stri astore pop} bdef
/dt {dtri astore pop} bdef
/db {2 copy /cols xdef /rows xdef mul dup 3 mul string
  currentfile 
  3 index 0 eq {/ASCIIHexDecode filter}
  {/ASCII85Decode filter 3 index 2 eq {/RunLengthDecode filter} if }
  ifelse exch readstring pop
  dup 0 3 index getinterval /rbmap xdef
  dup 2 index dup getinterval /gbmap xdef
  1 index dup 2 mul exch getinterval /bbmap xdef pop pop}bdef
/it {gs np dtri aload pop moveto lineto lineto cp c
  cols rows 8 compute_transform 
  rbmap gbmap bbmap true 3 colorimage gr}bdef
/il {newpath moveto lineto stroke}bdef
currentdict end def
%%EndProlog

%%BeginSetup
MathWorks begin

0 cap

end
%%EndSetup

%%Page: 1 1
%%BeginPageSetup
%%PageBoundingBox:    37   180   549   616
MathWorks begin
bpage
%%EndPageSetup

%%BeginObject: obj1
bplot

/dpi2point 12 def
portraitMode 0216 7344 csm

  234   -48  6149  5231 rc
85 dict begin %Colortable dictionary
/c0 { 0.000000 0.000000 0.000000 sr} bdef
/c1 { 1.000000 1.000000 1.000000 sr} bdef
/c2 { 0.900000 0.000000 0.000000 sr} bdef
/c3 { 0.000000 0.820000 0.000000 sr} bdef
/c4 { 0.000000 0.000000 0.800000 sr} bdef
/c5 { 0.910000 0.820000 0.320000 sr} bdef
/c6 { 1.000000 0.260000 0.820000 sr} bdef
/c7 { 0.000000 0.820000 0.820000 sr} bdef
c0
1 j
1 sg
   0    0 6919 5187 rf
6 w
0 4202 5362 0 0 -4202 899 4616 4 MP
PP
-5362 0 0 4202 5362 0 0 -4202 899 4616 5 MP stroke
4 w
DO
SO
6 w
0 sg
 899  414 mt 6261  414 L
 899 4616 mt 6261 4616 L
6261 4616 mt 6261  414 L
 899 4616 mt  899  414 L
 899 4616 mt 6261 4616 L
 899 4616 mt  899  414 L
 919 4616 mt  919 4562 L
 919  414 mt  919  467 L
%%IncludeResource: font Helvetica
/Helvetica /WindowsLatin1Encoding 240 FMSR

 713 4873 mt 
(-3) s
1806 4616 mt 1806 4562 L
1806  414 mt 1806  467 L
1600 4873 mt 
(-2) s
2693 4616 mt 2693 4562 L
2693  414 mt 2693  467 L
2487 4873 mt 
(-1) s
3580 4616 mt 3580 4562 L
3580  414 mt 3580  467 L
3514 4873 mt 
(0) s
4466 4616 mt 4466 4562 L
4466  414 mt 4466  467 L
4400 4873 mt 
(1) s
5353 4616 mt 5353 4562 L
5353  414 mt 5353  467 L
5287 4873 mt 
(2) s
6240 4616 mt 6240 4562 L
6240  414 mt 6240  467 L
6174 4873 mt 
(3) s
 899 4599 mt  952 4599 L
6261 4599 mt 6207 4599 L
 591 4688 mt 
(-3) s
 899 3904 mt  952 3904 L
6261 3904 mt 6207 3904 L
 591 3993 mt 
(-2) s
 899 3209 mt  952 3209 L
6261 3209 mt 6207 3209 L
 591 3298 mt 
(-1) s
 899 2514 mt  952 2514 L
6261 2514 mt 6207 2514 L
 731 2603 mt 
(0) s
 899 1820 mt  952 1820 L
6261 1820 mt 6207 1820 L
 731 1909 mt 
(1) s
 899 1125 mt  952 1125 L
6261 1125 mt 6207 1125 L
 731 1214 mt 
(2) s
 899  430 mt  952  430 L
6261  430 mt 6207  430 L
 731  519 mt 
(3) s
 899  414 mt 6261  414 L
 899 4616 mt 6261 4616 L
6261 4616 mt 6261  414 L
 899 4616 mt  899  414 L
gs 899 414 5363 4203 rc
gr

/c8 { 0.000000 0.000000 1.000000 sr} bdef
c8
3471 2199 mt 3543 2199 L
3507 2163 mt 3507 2235 L
3376 2040 mt 3448 2040 L
3412 2004 mt 3412 2076 L
3166 3340 mt 3238 3340 L
3202 3304 mt 3202 3376 L
2126 3093 mt 2198 3093 L
2162 3057 mt 2162 3129 L
3232 1865 mt 3304 1865 L
3268 1829 mt 3268 1901 L
3296 2884 mt 3368 2884 L
3332 2848 mt 3332 2920 L
2987 3367 mt 3059 3367 L
3023 3331 mt 3023 3403 L
3110 3057 mt 3182 3057 L
3146 3021 mt 3146 3093 L
1907 2436 mt 1979 2436 L
1943 2400 mt 1943 2472 L
4836 2584 mt 4908 2584 L
4872 2548 mt 4872 2620 L
2662 3693 mt 2734 3693 L
2698 3657 mt 2698 3729 L
2924 2383 mt 2996 2383 L
2960 2347 mt 2960 2419 L
4398 1972 mt 4470 1972 L
4434 1936 mt 4434 2008 L
2980 2453 mt 3052 2453 L
3016 2417 mt 3016 2489 L
4087 1538 mt 4159 1538 L
4123 1502 mt 4123 1574 L
3605 2593 mt 3677 2593 L
3641 2557 mt 3641 2629 L
3290 2773 mt 3362 2773 L
3326 2737 mt 3326 2809 L
4206 2602 mt 4278 2602 L
4242 2566 mt 4242 2638 L
2251 2844 mt 2323 2844 L
2287 2808 mt 2287 2880 L
3996 2140 mt 4068 2140 L
4032 2104 mt 4032 2176 L
3728 3822 mt 3800 3822 L
3764 3786 mt 3764 3858 L
2394 2532 mt 2466 2532 L
2430 2496 mt 2430 2568 L
3359 3250 mt 3431 3250 L
3395 3214 mt 3395 3286 L
4553 2659 mt 4625 2659 L
4589 2623 mt 4589 2695 L
4259 2374 mt 4331 2374 L
4295 2338 mt 4295 2410 L
3927 3942 mt 3999 3942 L
3963 3906 mt 3963 3978 L
 863 3069 mt  935 3069 L
 899 3033 mt  899 3105 L
3284 2270 mt 3356 2270 L
3320 2234 mt 3320 2306 L
3711 2624 mt 3783 2624 L
3747 2588 mt 3747 2660 L
5211 2523 mt 5283 2523 L
5247 2487 mt 5247 2559 L
4290 3479 mt 4362 3479 L
4326 3443 mt 4326 3515 L
2615 3980 mt 2687 3980 L
2651 3944 mt 2651 4016 L
3499 3658 mt 3571 3658 L
3535 3622 mt 3535 3694 L
4074 2514 mt 4146 2514 L
4110 2478 mt 4110 2550 L
2740 2051 mt 2812 2051 L
2776 2015 mt 2776 2087 L
3046 2677 mt 3118 2677 L
3082 2641 mt 3082 2713 L
3785 2854 mt 3857 2854 L
3821 2818 mt 3821 2890 L
3196 3297 mt 3268 3297 L
3232 3261 mt 3232 3333 L
3734 3242 mt 3806 3242 L
3770 3206 mt 3770 3278 L
2523 2825 mt 2595 2825 L
2559 2789 mt 2559 2861 L
2732 2242 mt 2804 2242 L
2768 2206 mt 2768 2278 L
4314 1858 mt 4386 1858 L
4350 1822 mt 4350 1894 L
3677 2650 mt 3749 2650 L
3713 2614 mt 3713 2686 L
3571 2962 mt 3643 2962 L
3607 2926 mt 3607 2998 L
4585 1462 mt 4657 1462 L
4621 1426 mt 4621 1498 L
2888 3711 mt 2960 3711 L
2924 3675 mt 2924 3747 L
3226 2519 mt 3298 2519 L
3262 2483 mt 3262 2555 L
4381 2935 mt 4453 2935 L
4417 2899 mt 4417 2971 L
3313 3005 mt 3385 3005 L
3349 2969 mt 3349 3041 L
4041 2401 mt 4113 2401 L
4077 2365 mt 4077 2437 L
3510 1514 mt 3582 1514 L
3546 1478 mt 3546 1550 L
3921 2233 mt 3993 2233 L
3957 2197 mt 3957 2269 L
4564 2316 mt 4636 2316 L
4600 2280 mt 4600 2352 L
3135 2130 mt 3207 2130 L
3171 2094 mt 3171 2166 L
4266 2347 mt 4338 2347 L
4302 2311 mt 4302 2383 L
4170 2691 mt 4242 2691 L
4206 2655 mt 4206 2727 L
3347 2536 mt 3419 2536 L
3383 2500 mt 3383 2572 L
3588 1572 mt 3660 1572 L
3624 1536 mt 3624 1608 L
2805 3527 mt 2877 3527 L
2841 3491 mt 2841 3563 L
2671 2894 mt 2743 2894 L
2707 2858 mt 2707 2930 L
3449 2150 mt 3521 2150 L
3485 2114 mt 3485 2186 L
3404 4305 mt 3476 4305 L
3440 4269 mt 3440 4341 L
3273 2801 mt 3345 2801 L
3309 2765 mt 3309 2837 L
4114 1502 mt 4186 1502 L
4150 1466 mt 4150 1538 L
2298 2445 mt 2370 2445 L
2334 2409 mt 2334 2481 L
4522 1550 mt 4594 1550 L
4558 1514 mt 4558 1586 L
3621 1698 mt 3693 1698 L
3657 1662 mt 3657 1734 L
2444 2806 mt 2516 2806 L
2480 2770 mt 2480 2842 L
3706 3178 mt 3778 3178 L
3742 3142 mt 3742 3214 L
2479 2175 mt 2551 2175 L
2515 2139 mt 2515 2211 L
3780 3099 mt 3852 3099 L
3816 3063 mt 3816 3135 L
3078 2029 mt 3150 2029 L
3114 1993 mt 3114 2065 L
3432 2388 mt 3504 2388 L
3468 2352 mt 3468 2424 L
2973 2545 mt 3045 2545 L
3009 2509 mt 3009 2581 L
1991 3220 mt 2063 3220 L
2027 3184 mt 2027 3256 L
1259 1917 mt 1331 1917 L
1295 1881 mt 1295 1953 L
4028 1904 mt 4100 1904 L
4064 1868 mt 4064 1940 L
2966 3731 mt 3038 3731 L
3002 3695 mt 3002 3767 L
3013 3446 mt 3085 3446 L
3049 3410 mt 3049 3482 L
4719 3395 mt 4791 3395 L
4755 3359 mt 4755 3431 L
2680 2094 mt 2752 2094 L
2716 2058 mt 2716 2130 L
3141 2849 mt 3213 2849 L
3177 2813 mt 3177 2885 L
4177 2185 mt 4249 2185 L
4213 2149 mt 4213 2221 L
4228 2256 mt 4300 2256 L
4264 2220 mt 4264 2292 L
4706 2343 mt 4778 2343 L
4742 2307 mt 4742 2379 L
3426 2978 mt 3498 2978 L
3462 2942 mt 3462 3014 L
3020 2001 mt 3092 2001 L
3056 1965 mt 3056 2037 L
4021 2646 mt 4093 2646 L
4057 2610 mt 4057 2682 L
4619 2165 mt 4691 2165 L
4655 2129 mt 4655 2201 L
3147 1476 mt 3219 1476 L
3183 1440 mt 3183 1512 L
3007 2914 mt 3079 2914 L
3043 2878 mt 3043 2950 L
4869 1354 mt 4941 1354 L
4905 1318 mt 4905 1390 L
2312 3087 mt 2384 3087 L
2348 3051 mt 2348 3123 L
3832 2414 mt 3904 2414 L
3868 2378 mt 3868 2450 L
3325 2637 mt 3397 2637 L
3361 2601 mt 3361 2673 L
4142 3022 mt 4214 3022 L
4178 2986 mt 4178 3058 L
2945 2073 mt 3017 2073 L
2981 2037 mt 2981 2109 L
3302 1787 mt 3374 1787 L
3338 1751 mt 3338 1823 L
3267 2736 mt 3339 2736 L
3303 2700 mt 3303 2772 L
2490 2024 mt 2562 2024 L
2526 1988 mt 2526 2060 L
3844  414 mt 3916  414 L
3880  378 mt 3880  450 L
4667 2909 mt 4739 2909 L
4703 2873 mt 4703 2945 L
2643 2750 mt 2715 2750 L
2679 2714 mt 2679 2786 L
2341 2018 mt 2413 2018 L
2377 1982 mt 2377 2054 L
3820 3213 mt 3892 3213 L
3856 3177 mt 3856 3249 L
2534 3106 mt 2606 3106 L
2570 3070 mt 2570 3142 L
2749 2493 mt 2821 2493 L
2785 2457 mt 2785 2529 L
3370 3265 mt 3442 3265 L
3406 3229 mt 3406 3301 L
2456 3081 mt 2528 3081 L
2492 3045 mt 2492 3117 L
4002 3131 mt 4074 3131 L
4038 3095 mt 4038 3167 L
4298 2370 mt 4370 2370 L
4334 2334 mt 4334 2406 L
2407 3306 mt 2479 3306 L
2443 3270 mt 2443 3342 L
2586 2458 mt 2658 2458 L
2622 2422 mt 2622 2494 L
4213 1662 mt 4285 1662 L
4249 1626 mt 4249 1698 L
3098 2983 mt 3170 2983 L
3134 2947 mt 3134 3019 L
2715 3118 mt 2787 3118 L
2751 3082 mt 2751 3154 L
3915 2223 mt 3987 2223 L
3951 2187 mt 3951 2259 L
3560 1978 mt 3632 1978 L
3596 1942 mt 3596 2014 L
3482 4205 mt 3554 4205 L
3518 4169 mt 3518 4241 L
1387 2727 mt 1459 2727 L
1423 2691 mt 1423 2763 L
3549 2284 mt 3621 2284 L
3585 2248 mt 3585 2320 L
4922 2655 mt 4994 2655 L
4958 2619 mt 4958 2691 L
3946 2497 mt 4018 2497 L
3982 2461 mt 3982 2533 L
2595 2820 mt 2667 2820 L
2631 2784 mt 2631 2856 L
3466 2251 mt 3538 2251 L
3502 2215 mt 3502 2287 L
4425 1152 mt 4497 1152 L
4461 1116 mt 4461 1188 L
2355 2194 mt 2427 2194 L
2391 2158 mt 2391 2230 L
1937 2396 mt 2009 2396 L
1973 2360 mt 1973 2432 L
3803 3137 mt 3875 3137 L
3839 3101 mt 3839 3173 L
3964 3468 mt 4036 3468 L
4000 3432 mt 4000 3504 L
4156 1954 mt 4228 1954 L
4192 1918 mt 4192 1990 L
3903 2288 mt 3975 2288 L
3939 2252 mt 3939 2324 L
4191 2967 mt 4263 2967 L
4227 2931 mt 4227 3003 L
3723 2432 mt 3795 2432 L
3759 2396 mt 3759 2468 L
2146 3405 mt 2218 3405 L
2182 3369 mt 2182 3441 L
3220 2218 mt 3292 2218 L
3256 2182 mt 3256 2254 L
2706 3797 mt 2778 3797 L
2742 3761 mt 2742 3833 L
4655 2580 mt 4727 2580 L
4691 2544 mt 4691 2616 L
2605 2423 mt 2677 2423 L
2641 2387 mt 2641 2459 L
3977 2089 mt 4049 2089 L
4013 2053 mt 4013 2125 L
4492 2754 mt 4564 2754 L
4528 2718 mt 4528 2790 L
4015 1872 mt 4087 1872 L
4051 1836 mt 4051 1908 L
3202 3491 mt 3274 3491 L
3238 3455 mt 3238 3527 L
3027 2709 mt 3099 2709 L
3063 2673 mt 3063 2745 L
3952 1838 mt 4024 1838 L
3988 1802 mt 3988 1874 L
4355 2589 mt 4427 2589 L
4391 2553 mt 4391 2625 L
3666 2768 mt 3738 2768 L
3702 2732 mt 3702 2804 L
3129 2067 mt 3201 2067 L
3165 2031 mt 3165 2103 L
3393 2792 mt 3465 2792 L
3429 2756 mt 3429 2828 L
3410 2686 mt 3482 2686 L
3446 2650 mt 3446 2722 L
4067 3386 mt 4139 3386 L
4103 3350 mt 4103 3422 L
4094 2874 mt 4166 2874 L
4130 2838 mt 4130 2910 L
2165 2956 mt 2237 2956 L
2201 2920 mt 2201 2992 L
2634 3457 mt 2706 3457 L
2670 3421 mt 2670 3493 L
3885 3017 mt 3957 3017 L
3921 2981 mt 3921 3053 L
3521 3000 mt 3593 3000 L
3557 2964 mt 3557 3036 L
2282 4023 mt 2354 4023 L
2318 3987 mt 2318 4059 L
3983 3415 mt 4055 3415 L
4019 3379 mt 4019 3451 L
1619 3675 mt 1691 3675 L
1655 3639 mt 1655 3711 L
4435 2145 mt 4507 2145 L
4471 2109 mt 4471 2181 L
3153 2664 mt 3225 2664 L
3189 2628 mt 3189 2700 L
3214 2668 mt 3286 2668 L
3250 2632 mt 3250 2704 L
3364 2989 mt 3436 2989 L
3400 2953 mt 3400 3025 L
5047 2046 mt 5119 2046 L
5083 2010 mt 5083 2082 L
4512 3206 mt 4584 3206 L
4548 3170 mt 4548 3242 L
3072 4616 mt 3144 4616 L
3108 4580 mt 3108 4652 L
4060 3581 mt 4132 3581 L
4096 3545 mt 4096 3617 L
3053 2334 mt 3125 2334 L
3089 2298 mt 3089 2370 L
3421 3331 mt 3493 3331 L
3457 3295 mt 3457 3367 L
3855 1732 mt 3927 1732 L
3891 1696 mt 3891 1768 L
3797 3144 mt 3869 3144 L
3833 3108 mt 3833 3180 L
4199 2099 mt 4271 2099 L
4235 2063 mt 4235 2135 L
2468 3848 mt 2540 3848 L
2504 3812 mt 2504 3884 L
3381 2471 mt 3453 2471 L
3417 2435 mt 3417 2507 L
3768 2764 mt 3840 2764 L
3804 2728 mt 3804 2800 L
2836 2120 mt 2908 2120 L
2872 2084 mt 2872 2156 L
3700 2606 mt 3772 2606 L
3736 2570 mt 3736 2642 L
3791  957 mt 3863  957 L
3827  921 mt 3827  993 L
3085 2062 mt 3157 2062 L
3121 2026 mt 3121 2098 L
2513 3349 mt 2585 3349 L
2549 3313 mt 2549 3385 L
2874 3314 mt 2946 3314 L
2910 3278 mt 2910 3350 L
4532 2356 mt 4604 2356 L
4568 2320 mt 4568 2392 L
3454 2611 mt 3526 2611 L
3490 2575 mt 3490 2647 L
1965 1851 mt 2037 1851 L
2001 1815 mt 2001 1887 L
4886 2329 mt 4958 2329 L
4922 2293 mt 4922 2365 L
2502 3227 mt 2574 3227 L
2538 3191 mt 2538 3263 L
5606 1831 mt 5678 1831 L
5642 1795 mt 5642 1867 L
3577 2352 mt 3649 2352 L
3613 2316 mt 3613 2388 L
5024 2125 mt 5096 2125 L
5060 2089 mt 5060 2161 L
3616 3028 mt 3688 3028 L
3652 2992 mt 3652 3064 L
3838 3515 mt 3910 3515 L
3874 3479 mt 3874 3551 L
2896 2440 mt 2968 2440 L
2932 2404 mt 2932 2476 L
5150 1779 mt 5222 1779 L
5186 1743 mt 5186 1815 L
4732 2115 mt 4804 2115 L
4768 2079 mt 4768 2151 L
3243 2307 mt 3315 2307 L
3279 2271 mt 3279 2343 L
3178 2628 mt 3250 2628 L
3214 2592 mt 3214 2664 L
3909 3112 mt 3981 3112 L
3945 3076 mt 3945 3148 L
3599 2189 mt 3671 2189 L
3635 2153 mt 3635 2225 L
2903 2904 mt 2975 2904 L
2939 2868 mt 2939 2940 L
3555 2405 mt 3627 2405 L
3591 2369 mt 3591 2441 L
4364 1489 mt 4436 1489 L
4400 1453 mt 4400 1525 L
2575 1748 mt 2647 1748 L
2611 1712 mt 2611 1784 L
4904 1898 mt 4976 1898 L
4940 1862 mt 4940 1934 L
4372 3752 mt 4444 3752 L
4408 3716 mt 4408 3788 L
3672 3376 mt 3744 3376 L
3708 3340 mt 3708 3412 L
2851 2104 mt 2923 2104 L
2887 2068 mt 2887 2140 L
4390 2549 mt 4462 2549 L
4426 2513 mt 4426 2585 L
4322 2541 mt 4394 2541 L
4358 2505 mt 4358 2577 L
3826 1809 mt 3898 1809 L
3862 1773 mt 3862 1845 L
2201 3157 mt 2273 3157 L
2237 3121 mt 2237 3193 L
2624 3540 mt 2696 3540 L
2660 3504 mt 2660 3576 L
4047 1419 mt 4119 1419 L
4083 1383 mt 4083 1455 L
3861 2083 mt 3933 2083 L
3897 2047 mt 3897 2119 L
3460 2633 mt 3532 2633 L
3496 2597 mt 3496 2669 L
4034 1756 mt 4106 1756 L
4070 1720 mt 4070 1792 L
5700 1816 mt 5772 1816 L
5736 1780 mt 5736 1852 L
2881 1911 mt 2953 1911 L
2917 1875 mt 2917 1947 L
2565 2619 mt 2637 2619 L
2601 2583 mt 2601 2655 L
3814 3171 mt 3886 3171 L
3850 3135 mt 3850 3207 L
3940 2361 mt 4012 2361 L
3976 2325 mt 3976 2397 L
5245 2951 mt 5317 2951 L
5281 2915 mt 5281 2987 L
2327 2940 mt 2399 2940 L
2363 2904 mt 2363 2976 L
3934 1960 mt 4006 1960 L
3970 1924 mt 3970 1996 L
1876 3595 mt 1948 3595 L
1912 3559 mt 1912 3631 L
5365 2012 mt 5437 2012 L
5401 1976 mt 5401 2048 L
3989 3184 mt 4061 3184 L
4025 3148 mt 4025 3220 L
2085 3908 mt 2157 3908 L
2121 3872 mt 2121 3944 L
3689 2302 mt 3761 2302 L
3725 2266 mt 3725 2338 L
3638 3164 mt 3710 3164 L
3674 3128 mt 3674 3200 L
4693 3610 mt 4765 3610 L
4729 3574 mt 4729 3646 L
4221 2279 mt 4293 2279 L
4257 2243 mt 4257 2315 L
3091 2641 mt 3163 2641 L
3127 2605 mt 3127 2677 L
2432 3281 mt 2504 3281 L
2468 3245 mt 2468 3317 L
4680 2994 mt 4752 2994 L
4716 2958 mt 4716 3030 L
3544 3553 mt 3616 3553 L
3580 3517 mt 3580 3589 L
3649 1966 mt 3721 1966 L
3685 1930 mt 3685 2002 L
3717 1707 mt 3789 1707 L
3753 1671 mt 3753 1743 L
2545 2237 mt 2617 2237 L
2581 2201 mt 2581 2273 L
2866 3641 mt 2938 3641 L
2902 3605 mt 2902 3677 L
3415 1371 mt 3487 1371 L
3451 1335 mt 3451 1407 L
4347 1232 mt 4419 1232 L
4383 1196 mt 4383 1268 L
4746 1653 mt 4818 1653 L
4782 1617 mt 4782 1689 L
5828 1087 mt 5900 1087 L
5864 1051 mt 5864 1123 L
4542 1181 mt 4614 1181 L
4578 1145 mt 4578 1217 L
4163 1388 mt 4235 1388 L
4199 1352 mt 4199 1424 L
4054 1404 mt 4126 1404 L
4090 1368 mt 4090 1440 L
3897 2554 mt 3969 2554 L
3933 2518 mt 3933 2590 L
3438 2972 mt 3510 2972 L
3474 2936 mt 3474 3008 L
4574 1936 mt 4646 1936 L
4610 1900 mt 4610 1972 L
2016 3257 mt 2088 3257 L
2052 3221 mt 2052 3293 L
4251 1723 mt 4323 1723 L
4287 1687 mt 4287 1759 L
3633 2682 mt 3705 2682 L
3669 2646 mt 3669 2718 L
2765 2722 mt 2837 2722 L
2801 2686 mt 2801 2758 L
4789 1336 mt 4861 1336 L
4825 1300 mt 4825 1372 L
2789 2731 mt 2861 2731 L
2825 2695 mt 2825 2767 L
4128 2155 mt 4200 2155 L
4164 2119 mt 4164 2191 L
4407 1794 mt 4479 1794 L
4443 1758 mt 4443 1830 L
3891 2840 mt 3963 2840 L
3927 2804 mt 3927 2876 L
3387 1930 mt 3459 1930 L
3423 1894 mt 3423 1966 L
4416 2718 mt 4488 2718 L
4452 2682 mt 4452 2754 L
2218 1207 mt 2290 1207 L
2254 1171 mt 2254 1243 L
4338 1624 mt 4410 1624 L
4374 1588 mt 4374 1660 L
5282 2160 mt 5354 2160 L
5318 2124 mt 5318 2196 L
3160 1740 mt 3232 1740 L
3196 1704 mt 3196 1776 L
3116 2247 mt 3188 2247 L
3152 2211 mt 3152 2283 L
3477 2920 mt 3549 2920 L
3513 2884 mt 3513 2956 L
2938 1561 mt 3010 1561 L
2974 1525 mt 2974 1597 L
3757 2558 mt 3829 2558 L
3793 2522 mt 3793 2594 L
2235 2811 mt 2307 2811 L
2271 2775 mt 2271 2847 L
3594 2209 mt 3666 2209 L
3630 2173 mt 3630 2245 L
4306  824 mt 4378  824 L
4342  788 mt 4342  860 L
3488 1995 mt 3560 1995 L
3524 1959 mt 3524 2031 L
5468 1448 mt 5540 1448 L
5504 1412 mt 5504 1484 L
2821 2830 mt 2893 2830 L
2857 2794 mt 2857 2866 L
3538 2427 mt 3610 2427 L
3574 2391 mt 3574 2463 L
2652 3034 mt 2724 3034 L
2688 2998 mt 2688 3070 L
4330 1526 mt 4402 1526 L
4366 1490 mt 4366 1562 L
2959 1634 mt 3031 1634 L
2995 1598 mt 2995 1670 L
3694 3063 mt 3766 3063 L
3730 3027 mt 3730 3099 L
4009 1583 mt 4081 1583 L
4045 1547 mt 4045 1619 L
4100 2180 mt 4172 2180 L
4136 2144 mt 4136 2216 L
2106 2275 mt 2178 2275 L
2142 2239 mt 2142 2311 L
4597 1434 mt 4669 1434 L
4633 1398 mt 4633 1470 L
4274 2293 mt 4346 2293 L
4310 2257 mt 4310 2329 L
4453 2204 mt 4525 2204 L
4489 2168 mt 4489 2240 L
3033 3289 mt 3105 3289 L
3069 3253 mt 3069 3325 L
3255 1845 mt 3327 1845 L
3291 1809 mt 3291 1881 L
3774 2379 mt 3846 2379 L
3810 2343 mt 3810 2415 L
3627 2879 mt 3699 2879 L
3663 2843 mt 3663 2915 L
1481 1878 mt 1553 1878 L
1517 1842 mt 1517 1914 L
3655 1680 mt 3727 1680 L
3691 1644 mt 3691 1716 L
4282 2109 mt 4354 2109 L
4318 2073 mt 4318 2145 L
2931 3045 mt 3003 3045 L
2967 3009 mt 2967 3081 L
4107 2787 mt 4179 2787 L
4143 2751 mt 4143 2823 L
3104 2615 mt 3176 2615 L
3140 2579 mt 3140 2651 L
5071 2946 mt 5143 2946 L
5107 2910 mt 5107 2982 L
3237 2392 mt 3309 2392 L
3273 2356 mt 3273 2428 L
3066 3125 mt 3138 3125 L
3102 3089 mt 3102 3161 L
2381 2869 mt 2453 2869 L
2417 2833 mt 2417 2905 L
2781 1604 mt 2853 1604 L
2817 1568 mt 2817 1640 L
4236 2135 mt 4308 2135 L
4272 2099 mt 4272 2171 L
4463 2035 mt 4535 2035 L
4499 1999 mt 4499 2071 L
3740 2673 mt 3812 2673 L
3776 2637 mt 3776 2709 L
2773 1823 mt 2845 1823 L
2809 1787 mt 2809 1859 L
4444 3011 mt 4516 3011 L
4480 2975 mt 4480 3047 L
4981  898 mt 5053  898 L
5017  862 mt 5017  934 L
1722  724 mt 1794  724 L
1758  688 mt 1758  760 L
4135 1984 mt 4207 1984 L
4171 1948 mt 4171 2020 L
1766 1990 mt 1838 1990 L
1802 1954 mt 1802 2026 L
3172 3198 mt 3244 3198 L
3208 3162 mt 3208 3234 L
5002 2298 mt 5074 2298 L
5038 2262 mt 5038 2334 L
3319 2741 mt 3391 2741 L
3355 2705 mt 3355 2777 L
3353 3191 mt 3425 3191 L
3389 3155 mt 3389 3227 L
3190 2899 mt 3262 2899 L
3226 2863 mt 3226 2935 L
1674 2782 mt 1746 2782 L
1710 2746 mt 1710 2818 L
2555 3358 mt 2627 3358 L
2591 3322 mt 2591 3394 L
5531 1298 mt 5603 1298 L
5567 1262 mt 5567 1334 L
2813 1923 mt 2885 1923 L
2849 1887 mt 2849 1959 L
3867 2759 mt 3939 2759 L
3903 2723 mt 3903 2795 L
3879 1802 mt 3951 1802 L
3915 1766 mt 3915 1838 L
3000 1318 mt 3072 1318 L
3036 1282 mt 3036 1354 L
2689 2449 mt 2761 2449 L
2725 2413 mt 2725 2485 L
3527 2930 mt 3599 2930 L
3563 2894 mt 3563 2966 L
5321 3051 mt 5393 3051 L
5357 3015 mt 5357 3087 L
3516 2311 mt 3588 2311 L
3552 2275 mt 3552 2347 L
4121 2571 mt 4193 2571 L
4157 2535 mt 4157 2607 L
4820 1892 mt 4892 1892 L
4856 1856 mt 4856 1928 L
3505 1593 mt 3577 1593 L
3541 1557 mt 3541 1629 L
3751 1277 mt 3823 1277 L
3787 1241 mt 3787 1313 L
3184 3151 mt 3256 3151 L
3220 3115 mt 3220 3187 L
1556 2057 mt 1628 2057 L
1592 2021 mt 1592 2093 L
2993 2745 mt 3065 2745 L
3029 2709 mt 3029 2781 L
5096 1614 mt 5168 1614 L
5132 1578 mt 5132 1650 L
2757 2597 mt 2829 2597 L
2793 2561 mt 2793 2633 L
3762 2815 mt 3834 2815 L
3798 2779 mt 3798 2851 L
2420 2713 mt 2492 2713 L
2456 2677 mt 2456 2749 L
3123 2506 mt 3195 2506 L
3159 2470 mt 3159 2542 L
4482 1942 mt 4554 1942 L
4518 1906 mt 4518 1978 L
3745 2567 mt 3817 2567 L
3781 2531 mt 3781 2603 L
3809 2365 mt 3881 2365 L
3845 2329 mt 3845 2401 L
4472 2214 mt 4544 2214 L
4508 2178 mt 4508 2250 L
4608  564 mt 4680  564 L
4644  528 mt 4644  600 L
4149 2484 mt 4221 2484 L
4185 2448 mt 4185 2520 L
2063 3625 mt 2135 3625 L
2099 3589 mt 2099 3661 L
4961 2320 mt 5033 2320 L
4997 2284 mt 4997 2356 L
4080 2501 mt 4152 2501 L
4116 2465 mt 4116 2537 L
1805 2338 mt 1877 2338 L
1841 2302 mt 1841 2374 L
3644 2410 mt 3716 2410 L
3680 2374 mt 3680 2446 L
2859 2528 mt 2931 2528 L
2895 2492 mt 2895 2564 L
2040 2695 mt 2112 2695 L
2076 2659 mt 2076 2731 L
4184 4072 mt 4256 4072 L
4220 4036 mt 4220 4108 L
3683 2925 mt 3755 2925 L
3719 2889 mt 3719 2961 L
2828 2480 mt 2900 2480 L
2864 2444 mt 2864 2516 L
6225 2510 mt 6297 2510 L
6261 2474 mt 6261 2546 L
2844 2704 mt 2916 2704 L
2880 2668 mt 2880 2740 L
6033 2265 mt 6105 2265 L
6069 2229 mt 6069 2301 L
2797 3436 mt 2869 3436 L
2833 3400 mt 2833 3472 L
3566 2835 mt 3638 2835 L
3602 2799 mt 3602 2871 L
2917 3273 mt 2989 3273 L
2953 3237 mt 2953 3309 L
3398 3039 mt 3470 3039 L
3434 3003 mt 3434 3075 L
3850 2078 mt 3922 2078 L
3886 2042 mt 3886 2114 L
4243 3235 mt 4315 3235 L
4279 3199 mt 4279 3271 L
3873 2261 mt 3945 2261 L
3909 2225 mt 3909 2297 L
4941 1764 mt 5013 1764 L
4977 1728 mt 4977 1800 L
3610 3425 mt 3682 3425 L
3646 3389 mt 3646 3461 L
3661 2859 mt 3733 2859 L
3697 2823 mt 3697 2895 L
4760 2007 mt 4832 2007 L
4796 1971 mt 4796 2043 L
1842 2562 mt 1914 2562 L
1878 2526 mt 1878 2598 L
3443 1671 mt 3515 1671 L
3479 1635 mt 3479 1707 L
4501 1715 mt 4573 1715 L
4537 1679 mt 4537 1751 L
4643 2475 mt 4715 2475 L
4679 2439 mt 4679 2511 L
4775 1772 mt 4847 1772 L
4811 1736 mt 4811 1808 L
3493 1255 mt 3565 1255 L
3529 1219 mt 3529 1291 L
2910 2864 mt 2982 2864 L
2946 2828 mt 2946 2900 L
3330 1643 mt 3402 1643 L
3366 1607 mt 3366 1679 L
2952 3774 mt 3024 3774 L
2988 3738 mt 2988 3810 L
3208 3567 mt 3280 3567 L
3244 3531 mt 3244 3603 L
4631 2889 mt 4703 2889 L
4667 2853 mt 4667 2925 L
3278 2700 mt 3350 2700 L
3314 2664 mt 3314 2736 L
3059 3877 mt 3131 3877 L
3095 3841 mt 3095 3913 L
3261 2778 mt 3333 2778 L
3297 2742 mt 3297 2814 L
3336 3503 mt 3408 3503 L
3372 3467 mt 3372 3539 L
5180 1006 mt 5252 1006 L
5216  970 mt 5216 1042 L
3532 1948 mt 3604 1948 L
3568 1912 mt 3568 1984 L
2267 4131 mt 2339 4131 L
2303 4095 mt 2303 4167 L
4805 1049 mt 4877 1049 L
4841 1013 mt 4841 1085 L
3971 2418 mt 4043 2418 L
4007 2382 mt 4007 2454 L
2723 2228 mt 2795 2228 L
2759 2192 mt 2759 2264 L
3958 2796 mt 4030 2796 L
3994 2760 mt 3994 2832 L
3342 2462 mt 3414 2462 L
3378 2426 mt 3378 2498 L
2697 3322 mt 2769 3322 L
2733 3286 mt 2733 3358 L
2183 2576 mt 2255 2576 L
2219 2540 mt 2219 2612 L
3307 1885 mt 3379 1885 L
3343 1849 mt 3343 1921 L
4852 2170 mt 4924 2170 L
4888 2134 mt 4888 2206 L
5122 1121 mt 5194 1121 L
5158 1085 mt 5158 1157 L
2368 2467 mt 2440 2467 L
2404 2431 mt 2404 2503 L
3582 2488 mt 3654 2488 L
3618 2452 mt 3618 2524 L
3249 2325 mt 3321 2325 L
3285 2289 mt 3285 2361 L
3040 3075 mt 3112 3075 L
3076 3039 mt 3076 3111 L
5413 1689 mt 5485 1689 L
5449 1653 mt 5449 1725 L
gs 899 414 5363 4203 rc
gr

0 sg
2775 5104 mt 
(\(F,DCTb,GMM\)) s
 482 3296 mt  -90 rotate
(\(F,DCTs,iMLP\)) s
90 rotate
2975  223 mt 
(Corr = 0.32) s

end %%Color Dict

eplot
%%EndObject

epage
end

showpage

%%Trailer
%%EOF
