%!PS-Adobe-3.0 EPSF-3.0
%%Creator: MATLAB, The Mathworks, Inc.
%%Title: Pictures\main_analyse_rerun3_arun_fratio_corr_bias.eps
%%CreationDate: 02/01/2009  09:33:45
%%DocumentNeededFonts: Helvetica
%%DocumentProcessColors: Cyan Magenta Yellow Black
%%LanguageLevel: 2
%%Pages: 1
%%BoundingBox:    18   191   543   583
%%EndComments

%%BeginProlog
% MathWorks dictionary
/MathWorks 160 dict begin
% definition operators
/bdef {bind def} bind def
/ldef {load def} bind def
/xdef {exch def} bdef
/xstore {exch store} bdef
% operator abbreviations
/c  /clip ldef
/cc /concat ldef
/cp /closepath ldef
/gr /grestore ldef
/gs /gsave ldef
/mt /moveto ldef
/np /newpath ldef
/cm /currentmatrix ldef
/sm /setmatrix ldef
/rm /rmoveto ldef
/rl /rlineto ldef
/s {show newpath} bdef
/sc {setcmykcolor} bdef
/sr /setrgbcolor ldef
/sg /setgray ldef
/w /setlinewidth ldef
/j /setlinejoin ldef
/cap /setlinecap ldef
/rc {rectclip} bdef
/rf {rectfill} bdef
% page state control
/pgsv () def
/bpage {/pgsv save def} bdef
/epage {pgsv restore} bdef
/bplot /gsave ldef
/eplot {stroke grestore} bdef
% orientation switch
/portraitMode 0 def /landscapeMode 1 def /rotateMode 2 def
% coordinate system mappings
/dpi2point 0 def
% font control
/FontSize 0 def
/FMS {/FontSize xstore findfont [FontSize 0 0 FontSize neg 0 0]
  makefont setfont} bdef
/ISOLatin1Encoding where {pop /WindowsLatin1Encoding 256 array bdef
ISOLatin1Encoding WindowsLatin1Encoding copy pop
/.notdef/.notdef/quotesinglbase/florin/quotedblbase/ellipsis/dagger
/daggerdbl/circumflex/perthousand/Scaron/guilsinglleft/OE/.notdef/.notdef
/.notdef/.notdef/quoteleft/quoteright/quotedblleft/quotedblright/bullet
/endash/emdash/tilde/trademark/scaron/guilsinglright/oe/.notdef/.notdef
/Ydieresis WindowsLatin1Encoding 128 32 getinterval astore pop}
{/WindowsLatin1Encoding StandardEncoding bdef} ifelse
/reencode {exch dup where {pop load} {pop StandardEncoding} ifelse
  exch dup 3 1 roll findfont dup length dict begin
  { 1 index /FID ne {def}{pop pop} ifelse } forall
  /Encoding exch def currentdict end definefont pop} bdef
/isroman {findfont /CharStrings get /Agrave known} bdef
/FMSR {3 1 roll 1 index dup isroman {reencode} {pop pop} ifelse
  exch FMS} bdef
/csm {1 dpi2point div -1 dpi2point div scale neg translate
 dup landscapeMode eq {pop -90 rotate}
  {rotateMode eq {90 rotate} if} ifelse} bdef
% line types: solid, dotted, dashed, dotdash
/SO { [] 0 setdash } bdef
/DO { [.5 dpi2point mul 4 dpi2point mul] 0 setdash } bdef
/DA { [6 dpi2point mul] 0 setdash } bdef
/DD { [.5 dpi2point mul 4 dpi2point mul 6 dpi2point mul 4
  dpi2point mul] 0 setdash } bdef
% macros for lines and objects
/L {lineto stroke} bdef
/MP {3 1 roll moveto 1 sub {rlineto} repeat} bdef
/AP {{rlineto} repeat} bdef
/PDlw -1 def
/W {/PDlw currentlinewidth def setlinewidth} def
/PP {closepath eofill} bdef
/DP {closepath stroke} bdef
/MR {4 -2 roll moveto dup  0 exch rlineto exch 0 rlineto
  neg 0 exch rlineto closepath} bdef
/FR {MR stroke} bdef
/PR {MR fill} bdef
/L1i {{currentfile picstr readhexstring pop} image} bdef
/tMatrix matrix def
/MakeOval {newpath tMatrix currentmatrix pop translate scale
0 0 1 0 360 arc tMatrix setmatrix} bdef
/FO {MakeOval stroke} bdef
/PO {MakeOval fill} bdef
/PD {currentlinewidth 2 div 0 360 arc fill
   PDlw -1 eq not {PDlw w /PDlw -1 def} if} def
/FA {newpath tMatrix currentmatrix pop translate scale
  0 0 1 5 -2 roll arc tMatrix setmatrix stroke} bdef
/PA {newpath tMatrix currentmatrix pop	translate 0 0 moveto scale
  0 0 1 5 -2 roll arc closepath tMatrix setmatrix fill} bdef
/FAn {newpath tMatrix currentmatrix pop translate scale
  0 0 1 5 -2 roll arcn tMatrix setmatrix stroke} bdef
/PAn {newpath tMatrix currentmatrix pop translate 0 0 moveto scale
  0 0 1 5 -2 roll arcn closepath tMatrix setmatrix fill} bdef
/vradius 0 def /hradius 0 def /lry 0 def
/lrx 0 def /uly 0 def /ulx 0 def /rad 0 def
/MRR {/vradius xdef /hradius xdef /lry xdef /lrx xdef /uly xdef
  /ulx xdef newpath tMatrix currentmatrix pop ulx hradius add uly
  vradius add translate hradius vradius scale 0 0 1 180 270 arc 
  tMatrix setmatrix lrx hradius sub uly vradius add translate
  hradius vradius scale 0 0 1 270 360 arc tMatrix setmatrix
  lrx hradius sub lry vradius sub translate hradius vradius scale
  0 0 1 0 90 arc tMatrix setmatrix ulx hradius add lry vradius sub
  translate hradius vradius scale 0 0 1 90 180 arc tMatrix setmatrix
  closepath} bdef
/FRR {MRR stroke } bdef
/PRR {MRR fill } bdef
/MlrRR {/lry xdef /lrx xdef /uly xdef /ulx xdef /rad lry uly sub 2 div def
  newpath tMatrix currentmatrix pop ulx rad add uly rad add translate
  rad rad scale 0 0 1 90 270 arc tMatrix setmatrix lrx rad sub lry rad
  sub translate rad rad scale 0 0 1 270 90 arc tMatrix setmatrix
  closepath} bdef
/FlrRR {MlrRR stroke } bdef
/PlrRR {MlrRR fill } bdef
/MtbRR {/lry xdef /lrx xdef /uly xdef /ulx xdef /rad lrx ulx sub 2 div def
  newpath tMatrix currentmatrix pop ulx rad add uly rad add translate
  rad rad scale 0 0 1 180 360 arc tMatrix setmatrix lrx rad sub lry rad
  sub translate rad rad scale 0 0 1 0 180 arc tMatrix setmatrix
  closepath} bdef
/FtbRR {MtbRR stroke } bdef
/PtbRR {MtbRR fill } bdef
/stri 6 array def /dtri 6 array def
/smat 6 array def /dmat 6 array def
/tmat1 6 array def /tmat2 6 array def /dif 3 array def
/asub {/ind2 exch def /ind1 exch def dup dup
  ind1 get exch ind2 get sub exch } bdef
/tri_to_matrix {
  2 0 asub 3 1 asub 4 0 asub 5 1 asub
  dup 0 get exch 1 get 7 -1 roll astore } bdef
/compute_transform {
  dmat dtri tri_to_matrix tmat1 invertmatrix 
  smat stri tri_to_matrix tmat2 concatmatrix } bdef
/ds {stri astore pop} bdef
/dt {dtri astore pop} bdef
/db {2 copy /cols xdef /rows xdef mul dup 3 mul string
  currentfile 
  3 index 0 eq {/ASCIIHexDecode filter}
  {/ASCII85Decode filter 3 index 2 eq {/RunLengthDecode filter} if }
  ifelse exch readstring pop
  dup 0 3 index getinterval /rbmap xdef
  dup 2 index dup getinterval /gbmap xdef
  1 index dup 2 mul exch getinterval /bbmap xdef pop pop}bdef
/it {gs np dtri aload pop moveto lineto lineto cp c
  cols rows 8 compute_transform 
  rbmap gbmap bbmap true 3 colorimage gr}bdef
/il {newpath moveto lineto stroke}bdef
currentdict end def
%%EndProlog

%%BeginSetup
MathWorks begin

0 cap

end
%%EndSetup

%%Page: 1 1
%%BeginPageSetup
%%PageBoundingBox:    18   191   543   583
MathWorks begin
bpage
%%EndPageSetup

%%BeginObject: obj1
bplot

/dpi2point 12 def
portraitMode 0216 7344 csm

    0   341  6311  4705 rc
86 dict begin %Colortable dictionary
/c0 { 0.000000 0.000000 0.000000 sr} bdef
/c1 { 1.000000 1.000000 1.000000 sr} bdef
/c2 { 0.900000 0.000000 0.000000 sr} bdef
/c3 { 0.000000 0.820000 0.000000 sr} bdef
/c4 { 0.000000 0.000000 0.800000 sr} bdef
/c5 { 0.910000 0.820000 0.320000 sr} bdef
/c6 { 1.000000 0.260000 0.820000 sr} bdef
/c7 { 0.000000 0.820000 0.820000 sr} bdef
c0
1 j
1 sg
   0    0 6919 5187 rf
6 w
0 4227 4466 0 0 -4227 1795 4616 4 MP
PP
-4466 0 0 4227 4466 0 0 -4227 1795 4616 5 MP stroke
4 w
DO
SO
6 w
0 sg
1795  389 mt 6261  389 L
1795 4616 mt 6261 4616 L
6261 4616 mt 6261  389 L
1795 4616 mt 1795  389 L
1795 4616 mt 6261 4616 L
1795 4616 mt 1795  389 L
2238 4616 mt 2238 4571 L
2238  389 mt 2238  433 L
%%IncludeResource: font Helvetica
/Helvetica /WindowsLatin1Encoding 168 FMSR

2024 4806 mt 
(-0.6) s
2835 4616 mt 2835 4571 L
2835  389 mt 2835  433 L
2621 4806 mt 
(-0.4) s
3431 4616 mt 3431 4571 L
3431  389 mt 3431  433 L
3217 4806 mt 
(-0.2) s
4028 4616 mt 4028 4571 L
4028  389 mt 4028  433 L
3982 4806 mt 
(0) s
4624 4616 mt 4624 4571 L
4624  389 mt 4624  433 L
4508 4806 mt 
(0.2) s
5220 4616 mt 5220 4571 L
5220  389 mt 5220  433 L
5104 4806 mt 
(0.4) s
5817 4616 mt 5817 4571 L
5817  389 mt 5817  433 L
5701 4806 mt 
(0.6) s
1795 4263 mt 1839 4263 L
6261 4263 mt 6216 4263 L
 793 4325 mt 
(F-ratio \(orig\)) s
1795 3559 mt 1839 3559 L
6261 3559 mt 6216 3559 L
 488 3621 mt 
(F-ratio \(F-norm\)) s
1795 2854 mt 1839 2854 L
6261 2854 mt 6216 2854 L
 305 2916 mt 
(comp. F-ratio \(orig\)) s
1795 2150 mt 1839 2150 L
6261 2150 mt 6216 2150 L
   0 2212 mt 
(comp. F-ratio \(F-norm\)) s
1795 1445 mt 1839 1445 L
6261 1445 mt 6216 1445 L
 784 1507 mt 
(B-ratio \(orig\)) s
1795  741 mt 1839  741 L
6261  741 mt 6216  741 L
 479  803 mt 
(B-ratio \(F-norm\)) s
1795  389 mt 6261  389 L
1795 4616 mt 6261 4616 L
6261 4616 mt 6261  389 L
1795 4616 mt 1795  389 L
3873 4984 mt 
(bias) s
gs 1795 389 4467 4228 rc
DA
567 0 4237 4263 2 MP stroke
255 0 3019 4263 2 MP stroke
SO
0 -176 4804 4351 2 MP stroke
0 -176 3019 4351 2 MP stroke
/c8 { 0.000000 0.000000 1.000000 sr} bdef
c8
963 0 0 352 -963 0 0 -352 4237 4439 5 MP stroke
/c9 { 1.000000 0.000000 0.000000 sr} bdef
c9
0 -352 4090 4439 2 MP stroke
DA
0 sg
681 0 4312 3559 2 MP stroke
669 0 2625 3559 2 MP stroke
SO
0 -176 4993 3647 2 MP stroke
0 -176 2625 3647 2 MP stroke
c8
1018 0 0 352 -1018 0 0 -352 4312 3735 5 MP stroke
c9
0 -352 3792 3735 2 MP stroke
DA
0 sg
622 0 4523 2854 2 MP stroke
446 0 3564 2854 2 MP stroke
SO
0 -176 5145 2942 2 MP stroke
0 -176 3564 2942 2 MP stroke
c8
513 0 0 352 -513 0 0 -352 4523 3030 5 MP stroke
c9
0 -352 4160 3030 2 MP stroke
DA
0 sg
723 0 4422 2150 2 MP stroke
249 0 3593 2150 2 MP stroke
SO
0 -176 5145 2238 2 MP stroke
0 -176 3593 2238 2 MP stroke
c8
580 0 0 352 -580 0 0 -352 4422 2326 5 MP stroke
c9
0 -352 4084 2326 2 MP stroke
gr

c9
5334 2150 mt 5406 2150 L
5370 2114 mt 5370 2186 L
gs 1795 389 4467 4228 rc
DA
0 sg
668 0 5029 1445 2 MP stroke
1046 0 2899 1445 2 MP stroke
SO
0 -176 5697 1533 2 MP stroke
0 -176 2899 1533 2 MP stroke
c8
1084 0 0 352 -1084 0 0 -352 5029 1621 5 MP stroke
c9
0 -352 4332 1621 2 MP stroke
DA
0 sg
455 0 4808 741 2 MP stroke
321 0 3520 741 2 MP stroke
SO
0 -176 5263 829 2 MP stroke
0 -176 3520 829 2 MP stroke
c8
967 0 0 352 -967 0 0 -352 4808 917 5 MP stroke
c9
0 -352 4041 917 2 MP stroke
/c10 { 0.000000 1.000000 0.000000 sr} bdef
c10
0 4228 4028 389 2 MP stroke
gr

c10

end %%Color Dict

eplot
%%EndObject

epage
end

showpage

%%Trailer
%%EOF
