%!PS-Adobe-3.0 EPSF-3.0
%%Creator: MATLAB, The Mathworks, Inc. Version 7.7.0.471 (R2008b). Operating System: Microsoft Windows XP.
%%Title: Pictures\main_zoo_mvar_analysis_data_BMI_xcorr_bmi_p1_k2_5_8.eps
%%CreationDate: 10/26/2009  05:44:31
%%DocumentNeededFonts: Helvetica
%%DocumentProcessColors: Cyan Magenta Yellow Black
%%LanguageLevel: 2
%%Pages: 1
%%BoundingBox:    32   180   546   616
%%EndComments

%%BeginProlog
% MathWorks dictionary
/MathWorks 160 dict begin
% definition operators
/bdef {bind def} bind def
/ldef {load def} bind def
/xdef {exch def} bdef
/xstore {exch store} bdef
% operator abbreviations
/c  /clip ldef
/cc /concat ldef
/cp /closepath ldef
/gr /grestore ldef
/gs /gsave ldef
/mt /moveto ldef
/np /newpath ldef
/cm /currentmatrix ldef
/sm /setmatrix ldef
/rm /rmoveto ldef
/rl /rlineto ldef
/s {show newpath} bdef
/sc {setcmykcolor} bdef
/sr /setrgbcolor ldef
/sg /setgray ldef
/w /setlinewidth ldef
/j /setlinejoin ldef
/cap /setlinecap ldef
/rc {rectclip} bdef
/rf {rectfill} bdef
% page state control
/pgsv () def
/bpage {/pgsv save def} bdef
/epage {pgsv restore} bdef
/bplot /gsave ldef
/eplot {stroke grestore} bdef
% orientation switch
/portraitMode 0 def /landscapeMode 1 def /rotateMode 2 def
% coordinate system mappings
/dpi2point 0 def
% font control
/FontSize 0 def
/FMS {/FontSize xstore findfont [FontSize 0 0 FontSize neg 0 0]
  makefont setfont} bdef
/ISOLatin1Encoding where {pop /WindowsLatin1Encoding 256 array bdef
ISOLatin1Encoding WindowsLatin1Encoding copy pop
/.notdef/.notdef/quotesinglbase/florin/quotedblbase/ellipsis/dagger
/daggerdbl/circumflex/perthousand/Scaron/guilsinglleft/OE/.notdef/.notdef
/.notdef/.notdef/quoteleft/quoteright/quotedblleft/quotedblright/bullet
/endash/emdash/tilde/trademark/scaron/guilsinglright/oe/.notdef/.notdef
/Ydieresis WindowsLatin1Encoding 128 32 getinterval astore pop}
{/WindowsLatin1Encoding StandardEncoding bdef} ifelse
/reencode {exch dup where {pop load} {pop StandardEncoding} ifelse
  exch dup 3 1 roll findfont dup length dict begin
  { 1 index /FID ne {def}{pop pop} ifelse } forall
  /Encoding exch def currentdict end definefont pop} bdef
/isroman {findfont /CharStrings get /Agrave known} bdef
/FMSR {3 1 roll 1 index dup isroman {reencode} {pop pop} ifelse
  exch FMS} bdef
/csm {1 dpi2point div -1 dpi2point div scale neg translate
 dup landscapeMode eq {pop -90 rotate}
  {rotateMode eq {90 rotate} if} ifelse} bdef
% line types: solid, dotted, dashed, dotdash
/SO { [] 0 setdash } bdef
/DO { [.5 dpi2point mul 4 dpi2point mul] 0 setdash } bdef
/DA { [6 dpi2point mul] 0 setdash } bdef
/DD { [.5 dpi2point mul 4 dpi2point mul 6 dpi2point mul 4
  dpi2point mul] 0 setdash } bdef
% macros for lines and objects
/L {lineto stroke} bdef
/MP {3 1 roll moveto 1 sub {rlineto} repeat} bdef
/AP {{rlineto} repeat} bdef
/PDlw -1 def
/W {/PDlw currentlinewidth def setlinewidth} def
/PP {closepath eofill} bdef
/DP {closepath stroke} bdef
/MR {4 -2 roll moveto dup  0 exch rlineto exch 0 rlineto
  neg 0 exch rlineto closepath} bdef
/FR {MR stroke} bdef
/PR {MR fill} bdef
/L1i {{currentfile picstr readhexstring pop} image} bdef
/tMatrix matrix def
/MakeOval {newpath tMatrix currentmatrix pop translate scale
0 0 1 0 360 arc tMatrix setmatrix} bdef
/FO {MakeOval stroke} bdef
/PO {MakeOval fill} bdef
/PD {currentlinewidth 2 div 0 360 arc fill
   PDlw -1 eq not {PDlw w /PDlw -1 def} if} def
/FA {newpath tMatrix currentmatrix pop translate scale
  0 0 1 5 -2 roll arc tMatrix setmatrix stroke} bdef
/PA {newpath tMatrix currentmatrix pop	translate 0 0 moveto scale
  0 0 1 5 -2 roll arc closepath tMatrix setmatrix fill} bdef
/FAn {newpath tMatrix currentmatrix pop translate scale
  0 0 1 5 -2 roll arcn tMatrix setmatrix stroke} bdef
/PAn {newpath tMatrix currentmatrix pop translate 0 0 moveto scale
  0 0 1 5 -2 roll arcn closepath tMatrix setmatrix fill} bdef
/vradius 0 def /hradius 0 def /lry 0 def
/lrx 0 def /uly 0 def /ulx 0 def /rad 0 def
/MRR {/vradius xdef /hradius xdef /lry xdef /lrx xdef /uly xdef
  /ulx xdef newpath tMatrix currentmatrix pop ulx hradius add uly
  vradius add translate hradius vradius scale 0 0 1 180 270 arc 
  tMatrix setmatrix lrx hradius sub uly vradius add translate
  hradius vradius scale 0 0 1 270 360 arc tMatrix setmatrix
  lrx hradius sub lry vradius sub translate hradius vradius scale
  0 0 1 0 90 arc tMatrix setmatrix ulx hradius add lry vradius sub
  translate hradius vradius scale 0 0 1 90 180 arc tMatrix setmatrix
  closepath} bdef
/FRR {MRR stroke } bdef
/PRR {MRR fill } bdef
/MlrRR {/lry xdef /lrx xdef /uly xdef /ulx xdef /rad lry uly sub 2 div def
  newpath tMatrix currentmatrix pop ulx rad add uly rad add translate
  rad rad scale 0 0 1 90 270 arc tMatrix setmatrix lrx rad sub lry rad
  sub translate rad rad scale 0 0 1 270 90 arc tMatrix setmatrix
  closepath} bdef
/FlrRR {MlrRR stroke } bdef
/PlrRR {MlrRR fill } bdef
/MtbRR {/lry xdef /lrx xdef /uly xdef /ulx xdef /rad lrx ulx sub 2 div def
  newpath tMatrix currentmatrix pop ulx rad add uly rad add translate
  rad rad scale 0 0 1 180 360 arc tMatrix setmatrix lrx rad sub lry rad
  sub translate rad rad scale 0 0 1 0 180 arc tMatrix setmatrix
  closepath} bdef
/FtbRR {MtbRR stroke } bdef
/PtbRR {MtbRR fill } bdef
/stri 6 array def /dtri 6 array def
/smat 6 array def /dmat 6 array def
/tmat1 6 array def /tmat2 6 array def /dif 3 array def
/asub {/ind2 exch def /ind1 exch def dup dup
  ind1 get exch ind2 get sub exch } bdef
/tri_to_matrix {
  2 0 asub 3 1 asub 4 0 asub 5 1 asub
  dup 0 get exch 1 get 7 -1 roll astore } bdef
/compute_transform {
  dmat dtri tri_to_matrix tmat1 invertmatrix 
  smat stri tri_to_matrix tmat2 concatmatrix } bdef
/ds {stri astore pop} bdef
/dt {dtri astore pop} bdef
/db {2 copy /cols xdef /rows xdef mul dup 3 mul string
  currentfile 
  3 index 0 eq {/ASCIIHexDecode filter}
  {/ASCII85Decode filter 3 index 2 eq {/RunLengthDecode filter} if }
  ifelse exch readstring pop
  dup 0 3 index getinterval /rbmap xdef
  dup 2 index dup getinterval /gbmap xdef
  1 index dup 2 mul exch getinterval /bbmap xdef pop pop}bdef
/it {gs np dtri aload pop moveto lineto lineto cp c
  cols rows 8 compute_transform 
  rbmap gbmap bbmap true 3 colorimage gr}bdef
/il {newpath moveto lineto stroke}bdef
currentdict end def
%%EndProlog

%%BeginSetup
MathWorks begin

0 cap

end
%%EndSetup

%%Page: 1 1
%%BeginPageSetup
%%PageBoundingBox:    32   180   546   616
MathWorks begin
bpage
%%EndPageSetup

%%BeginObject: obj1
bplot

/dpi2point 12 def
portraitMode 0216 7344 csm

  174   -48  6173  5231 rc
85 dict begin %Colortable dictionary
/c0 { 0.000000 0.000000 0.000000 sr} bdef
/c1 { 1.000000 1.000000 1.000000 sr} bdef
/c2 { 0.900000 0.000000 0.000000 sr} bdef
/c3 { 0.000000 0.820000 0.000000 sr} bdef
/c4 { 0.000000 0.000000 0.800000 sr} bdef
/c5 { 0.910000 0.820000 0.320000 sr} bdef
/c6 { 1.000000 0.260000 0.820000 sr} bdef
/c7 { 0.000000 0.820000 0.820000 sr} bdef
c0
1 j
1 sg
   0    0 6919 5187 rf
6 w
0 4202 5362 0 0 -4202 899 4616 4 MP
PP
-5362 0 0 4202 5362 0 0 -4202 899 4616 5 MP stroke
4 w
DO
SO
6 w
0 sg
 899  414 mt 6261  414 L
 899 4616 mt 6261 4616 L
6261 4616 mt 6261  414 L
 899 4616 mt  899  414 L
 899 4616 mt 6261 4616 L
 899 4616 mt  899  414 L
1971 4616 mt 1971 4562 L
1971  414 mt 1971  467 L
%%IncludeResource: font Helvetica
/Helvetica /WindowsLatin1Encoding 240 FMSR

1805 4873 mt 
(0.2) s
3043 4616 mt 3043 4562 L
3043  414 mt 3043  467 L
2877 4873 mt 
(0.4) s
4116 4616 mt 4116 4562 L
4116  414 mt 4116  467 L
3950 4873 mt 
(0.6) s
5188 4616 mt 5188 4562 L
5188  414 mt 5188  467 L
5022 4873 mt 
(0.8) s
 899 4196 mt  952 4196 L
6261 4196 mt 6207 4196 L
 531 4285 mt 
(0.1) s
 899 3775 mt  952 3775 L
6261 3775 mt 6207 3775 L
 531 3864 mt 
(0.2) s
 899 3355 mt  952 3355 L
6261 3355 mt 6207 3355 L
 531 3444 mt 
(0.3) s
 899 2935 mt  952 2935 L
6261 2935 mt 6207 2935 L
 531 3024 mt 
(0.4) s
 899 2515 mt  952 2515 L
6261 2515 mt 6207 2515 L
 531 2604 mt 
(0.5) s
 899 2094 mt  952 2094 L
6261 2094 mt 6207 2094 L
 531 2183 mt 
(0.6) s
 899 1674 mt  952 1674 L
6261 1674 mt 6207 1674 L
 531 1763 mt 
(0.7) s
 899 1254 mt  952 1254 L
6261 1254 mt 6207 1254 L
 531 1343 mt 
(0.8) s
 899  834 mt  952  834 L
6261  834 mt 6207  834 L
 531  923 mt 
(0.9) s
 899  414 mt 6261  414 L
 899 4616 mt 6261 4616 L
6261 4616 mt 6261  414 L
 899 4616 mt  899  414 L
gs 899 414 5363 4203 rc
gr

/c8 { 0.000000 0.000000 1.000000 sr} bdef
c8
5516  429 mt 5588  429 L
5552  393 mt 5552  465 L
4175  739 mt 4247  739 L
4211  703 mt 4211  775 L
5908  733 mt 5980  733 L
5944  697 mt 5944  769 L
4558 2347 mt 4630 2347 L
4594 2311 mt 4594 2383 L
4872  482 mt 4944  482 L
4908  446 mt 4908  518 L
6093  491 mt 6165  491 L
6129  455 mt 6129  527 L
1262 4196 mt 1334 4196 L
1298 4160 mt 1298 4232 L
1855 1144 mt 1927 1144 L
1891 1108 mt 1891 1180 L
1315 1143 mt 1387 1143 L
1351 1107 mt 1351 1179 L
6218  441 mt 6290  441 L
6254  405 mt 6254  477 L
1008 1779 mt 1080 1779 L
1044 1743 mt 1044 1815 L
5320 1087 mt 5392 1087 L
5356 1051 mt 5356 1123 L
6172 2545 mt 6244 2545 L
6208 2509 mt 6208 2581 L
5163  491 mt 5235  491 L
5199  455 mt 5199  527 L
6216 3384 mt 6288 3384 L
6252 3348 mt 6252 3420 L
2774 2936 mt 2846 2936 L
2810 2900 mt 2810 2972 L
3773  625 mt 3845  625 L
3809  589 mt 3809  661 L
4689 4613 mt 4761 4613 L
4725 4577 mt 4725 4649 L
3774 1745 mt 3846 1745 L
3810 1709 mt 3810 1781 L
4101 1570 mt 4173 1570 L
4137 1534 mt 4137 1606 L
4849 1291 mt 4921 1291 L
4885 1255 mt 4885 1327 L
5381 1351 mt 5453 1351 L
5417 1315 mt 5417 1387 L
1840  785 mt 1912  785 L
1876  749 mt 1876  821 L
5103 2731 mt 5175 2731 L
5139 2695 mt 5139 2767 L
6220 4226 mt 6292 4226 L
6256 4190 mt 6256 4262 L
6089 1410 mt 6161 1410 L
6125 1374 mt 6125 1446 L
4432 1610 mt 4504 1610 L
4468 1574 mt 4468 1646 L
6180 1792 mt 6252 1792 L
6216 1756 mt 6216 1828 L
1396  563 mt 1468  563 L
1432  527 mt 1432  599 L
1533  958 mt 1605  958 L
1569  922 mt 1569  994 L
5072 1892 mt 5144 1892 L
5108 1856 mt 5108 1928 L
1230  803 mt 1302  803 L
1266  767 mt 1266  839 L
1073 1537 mt 1145 1537 L
1109 1501 mt 1109 1573 L
4145 4163 mt 4217 4163 L
4181 4127 mt 4181 4199 L
5840  738 mt 5912  738 L
5876  702 mt 5876  774 L
1996  494 mt 2068  494 L
2032  458 mt 2032  530 L
1655  724 mt 1727  724 L
1691  688 mt 1691  760 L
4295 4556 mt 4367 4556 L
4331 4520 mt 4331 4592 L
5967 1037 mt 6039 1037 L
6003 1001 mt 6003 1073 L
1807  776 mt 1879  776 L
1843  740 mt 1843  812 L
6070 1035 mt 6142 1035 L
6106  999 mt 6106 1071 L
6197  538 mt 6269  538 L
6233  502 mt 6233  574 L
6084 1244 mt 6156 1244 L
6120 1208 mt 6120 1280 L
4209 1453 mt 4281 1453 L
4245 1417 mt 4245 1489 L
5262 4295 mt 5334 4295 L
5298 4259 mt 5298 4331 L
5866 4404 mt 5938 4404 L
5902 4368 mt 5902 4440 L
2112 1618 mt 2184 1618 L
2148 1582 mt 2148 1654 L
4042 1782 mt 4114 1782 L
4078 1746 mt 4078 1818 L
5291 3036 mt 5363 3036 L
5327 3000 mt 5327 3072 L
6174 4489 mt 6246 4489 L
6210 4453 mt 6210 4525 L
3505 2519 mt 3577 2519 L
3541 2483 mt 3541 2555 L
2232  475 mt 2304  475 L
2268  439 mt 2268  511 L
4995 2761 mt 5067 2761 L
5031 2725 mt 5031 2797 L
3098  777 mt 3170  777 L
3134  741 mt 3134  813 L
2754 1672 mt 2826 1672 L
2790 1636 mt 2790 1708 L
4457 1778 mt 4529 1778 L
4493 1742 mt 4493 1814 L
1225 4135 mt 1297 4135 L
1261 4099 mt 1261 4171 L
6199  700 mt 6271  700 L
6235  664 mt 6235  736 L
 863 2195 mt  935 2195 L
 899 2159 mt  899 2231 L
6175 1677 mt 6247 1677 L
6211 1641 mt 6211 1713 L
4688 4032 mt 4760 4032 L
4724 3996 mt 4724 4068 L
 924 4348 mt  996 4348 L
 960 4312 mt  960 4384 L
5711  722 mt 5783  722 L
5747  686 mt 5747  758 L
3843 1793 mt 3915 1793 L
3879 1757 mt 3879 1829 L
1217  417 mt 1289  417 L
1253  381 mt 1253  453 L
6170 3606 mt 6242 3606 L
6206 3570 mt 6206 3642 L
3913 1864 mt 3985 1864 L
3949 1828 mt 3949 1900 L
5374 3180 mt 5446 3180 L
5410 3144 mt 5410 3216 L
1539  809 mt 1611  809 L
1575  773 mt 1575  845 L
2880  810 mt 2952  810 L
2916  774 mt 2916  846 L
4897  958 mt 4969  958 L
4933  922 mt 4933  994 L
6193  665 mt 6265  665 L
6229  629 mt 6229  701 L
1081 3444 mt 1153 3444 L
1117 3408 mt 1117 3480 L
2559  421 mt 2631  421 L
2595  385 mt 2595  457 L
1009  647 mt 1081  647 L
1045  611 mt 1045  683 L
1589 2699 mt 1661 2699 L
1625 2663 mt 1625 2735 L
3667 1019 mt 3739 1019 L
3703  983 mt 3703 1055 L
5768 1161 mt 5840 1161 L
5804 1125 mt 5804 1197 L
6113  590 mt 6185  590 L
6149  554 mt 6149  626 L
 863 1639 mt  935 1639 L
 899 1603 mt  899 1675 L
 872  451 mt  944  451 L
 908  415 mt  908  487 L
2634 1381 mt 2706 1381 L
2670 1345 mt 2670 1417 L
2737 2457 mt 2809 2457 L
2773 2421 mt 2773 2493 L
5338 1091 mt 5410 1091 L
5374 1055 mt 5374 1127 L
3868 3524 mt 3940 3524 L
3904 3488 mt 3904 3560 L
1754 3804 mt 1826 3804 L
1790 3768 mt 1790 3840 L
4336  482 mt 4408  482 L
4372  446 mt 4372  518 L
6071 4563 mt 6143 4563 L
6107 4527 mt 6107 4599 L
5725 1250 mt 5797 1250 L
5761 1214 mt 5761 1286 L
6075  415 mt 6147  415 L
6111  379 mt 6111  451 L
 911 2457 mt  983 2457 L
 947 2421 mt  947 2493 L
6076 3466 mt 6148 3466 L
6112 3430 mt 6112 3502 L
2058  657 mt 2130  657 L
2094  621 mt 2094  693 L
2290 2121 mt 2362 2121 L
2326 2085 mt 2326 2157 L
1613 3978 mt 1685 3978 L
1649 3942 mt 1649 4014 L
6209 4109 mt 6281 4109 L
6245 4073 mt 6245 4145 L
4512 2495 mt 4584 2495 L
4548 2459 mt 4548 2531 L
 869  502 mt  941  502 L
 905  466 mt  905  538 L
1153 4597 mt 1225 4597 L
1189 4561 mt 1189 4633 L
6107 2241 mt 6179 2241 L
6143 2205 mt 6143 2277 L
6187  748 mt 6259  748 L
6223  712 mt 6223  784 L
6204 1971 mt 6276 1971 L
6240 1935 mt 6240 2007 L
3841 3957 mt 3913 3957 L
3877 3921 mt 3877 3993 L
1126 3588 mt 1198 3588 L
1162 3552 mt 1162 3624 L
2730 4044 mt 2802 4044 L
2766 4008 mt 2766 4080 L
6164 1029 mt 6236 1029 L
6200  993 mt 6200 1065 L
5903 3080 mt 5975 3080 L
5939 3044 mt 5939 3116 L
6153 1977 mt 6225 1977 L
6189 1941 mt 6189 2013 L
2966 1572 mt 3038 1572 L
3002 1536 mt 3002 1608 L
5485 1024 mt 5557 1024 L
5521  988 mt 5521 1060 L
6153 1384 mt 6225 1384 L
6189 1348 mt 6189 1420 L
5713 2775 mt 5785 2775 L
5749 2739 mt 5749 2811 L
1535 3076 mt 1607 3076 L
1571 3040 mt 1571 3112 L
4873 4615 mt 4945 4615 L
4909 4579 mt 4909 4651 L
1703 2556 mt 1775 2556 L
1739 2520 mt 1739 2592 L
3549 2035 mt 3621 2035 L
3585 1999 mt 3585 2071 L
5931  555 mt 6003  555 L
5967  519 mt 5967  591 L
6191 4517 mt 6263 4517 L
6227 4481 mt 6227 4553 L
3066 4059 mt 3138 4059 L
3102 4023 mt 3102 4095 L
1188 4609 mt 1260 4609 L
1224 4573 mt 1224 4645 L
5208 1439 mt 5280 1439 L
5244 1403 mt 5244 1475 L
4477  588 mt 4549  588 L
4513  552 mt 4513  624 L
2954 1424 mt 3026 1424 L
2990 1388 mt 2990 1460 L
4238 3935 mt 4310 3935 L
4274 3899 mt 4274 3971 L
1608  618 mt 1680  618 L
1644  582 mt 1644  654 L
6220  514 mt 6292  514 L
6256  478 mt 6256  550 L
1599 4582 mt 1671 4582 L
1635 4546 mt 1635 4618 L
4584 2482 mt 4656 2482 L
4620 2446 mt 4620 2518 L
6052  590 mt 6124  590 L
6088  554 mt 6088  626 L
1175 3790 mt 1247 3790 L
1211 3754 mt 1211 3826 L
6181 3690 mt 6253 3690 L
6217 3654 mt 6217 3726 L
5459 2795 mt 5531 2795 L
5495 2759 mt 5495 2831 L
6140 1933 mt 6212 1933 L
6176 1897 mt 6176 1969 L
4926 1804 mt 4998 1804 L
4962 1768 mt 4962 1840 L
2082 2363 mt 2154 2363 L
2118 2327 mt 2118 2399 L
5431 3405 mt 5503 3405 L
5467 3369 mt 5467 3441 L
1096 2161 mt 1168 2161 L
1132 2125 mt 1132 2197 L
6156  651 mt 6228  651 L
6192  615 mt 6192  687 L
2823 3036 mt 2895 3036 L
2859 3000 mt 2859 3072 L
2565 3955 mt 2637 3955 L
2601 3919 mt 2601 3991 L
1751 3581 mt 1823 3581 L
1787 3545 mt 1787 3617 L
5876 1273 mt 5948 1273 L
5912 1237 mt 5912 1309 L
4958 3824 mt 5030 3824 L
4994 3788 mt 4994 3860 L
4428 2548 mt 4500 2548 L
4464 2512 mt 4464 2584 L
3016  535 mt 3088  535 L
3052  499 mt 3052  571 L
6213 1576 mt 6285 1576 L
6249 1540 mt 6249 1612 L
4001 1395 mt 4073 1395 L
4037 1359 mt 4037 1431 L
1186  445 mt 1258  445 L
1222  409 mt 1222  481 L
3735 4579 mt 3807 4579 L
3771 4543 mt 3771 4615 L
3569  659 mt 3641  659 L
3605  623 mt 3605  695 L
1882 1692 mt 1954 1692 L
1918 1656 mt 1918 1728 L
2070 4390 mt 2142 4390 L
2106 4354 mt 2106 4426 L
 900 2609 mt  972 2609 L
 936 2573 mt  936 2645 L
 993 1232 mt 1065 1232 L
1029 1196 mt 1029 1268 L
3816 2577 mt 3888 2577 L
3852 2541 mt 3852 2613 L
3593 4312 mt 3665 4312 L
3629 4276 mt 3629 4348 L
4830  524 mt 4902  524 L
4866  488 mt 4866  560 L
2698 3403 mt 2770 3403 L
2734 3367 mt 2734 3439 L
6065  617 mt 6137  617 L
6101  581 mt 6101  653 L
6074 4224 mt 6146 4224 L
6110 4188 mt 6110 4260 L
5933 3100 mt 6005 3100 L
5969 3064 mt 5969 3136 L
 874 4568 mt  946 4568 L
 910 4532 mt  910 4604 L
1146 1746 mt 1218 1746 L
1182 1710 mt 1182 1782 L
1927 1345 mt 1999 1345 L
1963 1309 mt 1963 1381 L
1257 2691 mt 1329 2691 L
1293 2655 mt 1293 2727 L
1931 3474 mt 2003 3474 L
1967 3438 mt 1967 3510 L
3763 2315 mt 3835 2315 L
3799 2279 mt 3799 2351 L
6204 4616 mt 6276 4616 L
6240 4580 mt 6240 4652 L
5415 2454 mt 5487 2454 L
5451 2418 mt 5451 2490 L
6025 1314 mt 6097 1314 L
6061 1278 mt 6061 1350 L
4271 1048 mt 4343 1048 L
4307 1012 mt 4307 1084 L
 888  674 mt  960  674 L
 924  638 mt  924  710 L
5801 4069 mt 5873 4069 L
5837 4033 mt 5837 4105 L
1672 1348 mt 1744 1348 L
1708 1312 mt 1708 1384 L
1276 4091 mt 1348 4091 L
1312 4055 mt 1312 4127 L
5915  865 mt 5987  865 L
5951  829 mt 5951  901 L
5862 1603 mt 5934 1603 L
5898 1567 mt 5898 1639 L
1638 3254 mt 1710 3254 L
1674 3218 mt 1674 3290 L
 868  924 mt  940  924 L
 904  888 mt  904  960 L
5248  645 mt 5320  645 L
5284  609 mt 5284  681 L
6138 3490 mt 6210 3490 L
6174 3454 mt 6174 3526 L
4701 3663 mt 4773 3663 L
4737 3627 mt 4737 3699 L
2540  509 mt 2612  509 L
2576  473 mt 2576  545 L
1005  843 mt 1077  843 L
1041  807 mt 1041  879 L
4496 4322 mt 4568 4322 L
4532 4286 mt 4532 4358 L
1908  616 mt 1980  616 L
1944  580 mt 1944  652 L
4940 1435 mt 5012 1435 L
4976 1399 mt 4976 1471 L
4223  551 mt 4295  551 L
4259  515 mt 4259  587 L
5561 4579 mt 5633 4579 L
5597 4543 mt 5597 4615 L
5638  451 mt 5710  451 L
5674  415 mt 5674  487 L
2118  473 mt 2190  473 L
2154  437 mt 2154  509 L
1004 2685 mt 1076 2685 L
1040 2649 mt 1040 2721 L
6195 1253 mt 6267 1253 L
6231 1217 mt 6231 1289 L
6222  724 mt 6294  724 L
6258  688 mt 6258  760 L
5569  486 mt 5641  486 L
5605  450 mt 5605  522 L
5900  668 mt 5972  668 L
5936  632 mt 5936  704 L
1802 3777 mt 1874 3777 L
1838 3741 mt 1838 3813 L
2353 1613 mt 2425 1613 L
2389 1577 mt 2389 1649 L
2353 4329 mt 2425 4329 L
2389 4293 mt 2389 4365 L
6217  949 mt 6289  949 L
6253  913 mt 6253  985 L
6208  418 mt 6280  418 L
6244  382 mt 6244  454 L
6175  543 mt 6247  543 L
6211  507 mt 6211  579 L
5979  879 mt 6051  879 L
6015  843 mt 6015  915 L
5210 4024 mt 5282 4024 L
5246 3988 mt 5246 4060 L
5284  743 mt 5356  743 L
5320  707 mt 5320  779 L
6140 1755 mt 6212 1755 L
6176 1719 mt 6176 1791 L
6211 3760 mt 6283 3760 L
6247 3724 mt 6247 3796 L
5294  741 mt 5366  741 L
5330  705 mt 5330  777 L
6217  671 mt 6289  671 L
6253  635 mt 6253  707 L
2034 4252 mt 2106 4252 L
2070 4216 mt 2070 4288 L
1391  422 mt 1463  422 L
1427  386 mt 1427  458 L
6209 1176 mt 6281 1176 L
6245 1140 mt 6245 1212 L
4599  661 mt 4671  661 L
4635  625 mt 4635  697 L
6215 3652 mt 6287 3652 L
6251 3616 mt 6251 3688 L
6105 1468 mt 6177 1468 L
6141 1432 mt 6141 1504 L
3874  649 mt 3946  649 L
3910  613 mt 3910  685 L
6090  600 mt 6162  600 L
6126  564 mt 6126  636 L
5632 1201 mt 5704 1201 L
5668 1165 mt 5668 1237 L
6222 1668 mt 6294 1668 L
6258 1632 mt 6258 1704 L
5533 2096 mt 5605 2096 L
5569 2060 mt 5569 2132 L
1046 3229 mt 1118 3229 L
1082 3193 mt 1082 3265 L
2194 3622 mt 2266 3622 L
2230 3586 mt 2230 3658 L
6154 2713 mt 6226 2713 L
6190 2677 mt 6190 2749 L
6213 4549 mt 6285 4549 L
6249 4513 mt 6249 4585 L
6218 2132 mt 6290 2132 L
6254 2096 mt 6254 2168 L
4855 1453 mt 4927 1453 L
4891 1417 mt 4891 1489 L
2057 4004 mt 2129 4004 L
2093 3968 mt 2093 4040 L
2039 2252 mt 2111 2252 L
2075 2216 mt 2075 2288 L
6111  423 mt 6183  423 L
6147  387 mt 6147  459 L
1533  436 mt 1605  436 L
1569  400 mt 1569  472 L
 863 4615 mt  935 4615 L
 899 4579 mt  899 4651 L
6192 4459 mt 6264 4459 L
6228 4423 mt 6228 4495 L
6218 4610 mt 6290 4610 L
6254 4574 mt 6254 4646 L
 955  914 mt 1027  914 L
 991  878 mt  991  950 L
3123  445 mt 3195  445 L
3159  409 mt 3159  481 L
6224 4612 mt 6296 4612 L
6260 4576 mt 6260 4648 L
6224 3887 mt 6296 3887 L
6260 3851 mt 6260 3923 L
4736  905 mt 4808  905 L
4772  869 mt 4772  941 L
3188 2060 mt 3260 2060 L
3224 2024 mt 3224 2096 L
3467 1135 mt 3539 1135 L
3503 1099 mt 3503 1171 L
5550 2873 mt 5622 2873 L
5586 2837 mt 5586 2909 L
6210 2491 mt 6282 2491 L
6246 2455 mt 6246 2527 L
6192  748 mt 6264  748 L
6228  712 mt 6228  784 L
6149 2120 mt 6221 2120 L
6185 2084 mt 6185 2156 L
6111  946 mt 6183  946 L
6147  910 mt 6147  982 L
6173 2838 mt 6245 2838 L
6209 2802 mt 6209 2874 L
3368 1000 mt 3440 1000 L
3404  964 mt 3404 1036 L
1089  653 mt 1161  653 L
1125  617 mt 1125  689 L
2683 1187 mt 2755 1187 L
2719 1151 mt 2719 1223 L
1294 2688 mt 1366 2688 L
1330 2652 mt 1330 2724 L
5862 3493 mt 5934 3493 L
5898 3457 mt 5898 3529 L
1948  522 mt 2020  522 L
1984  486 mt 1984  558 L
4785  418 mt 4857  418 L
4821  382 mt 4821  454 L
6192 4613 mt 6264 4613 L
6228 4577 mt 6228 4649 L
1950 2156 mt 2022 2156 L
1986 2120 mt 1986 2192 L
3397 4434 mt 3469 4434 L
3433 4398 mt 3433 4470 L
6185  955 mt 6257  955 L
6221  919 mt 6221  991 L
6144 1950 mt 6216 1950 L
6180 1914 mt 6180 1986 L
6216  442 mt 6288  442 L
6252  406 mt 6252  478 L
5808  751 mt 5880  751 L
5844  715 mt 5844  787 L
5620 4074 mt 5692 4074 L
5656 4038 mt 5656 4110 L
6053 4107 mt 6125 4107 L
6089 4071 mt 6089 4143 L
 881 4587 mt  953 4587 L
 917 4551 mt  917 4623 L
 899 4537 mt  971 4537 L
 935 4501 mt  935 4573 L
6189  608 mt 6261  608 L
6225  572 mt 6225  644 L
6158 1623 mt 6230 1623 L
6194 1587 mt 6194 1659 L
3727 3882 mt 3799 3882 L
3763 3846 mt 3763 3918 L
2725  416 mt 2797  416 L
2761  380 mt 2761  452 L
1479 1129 mt 1551 1129 L
1515 1093 mt 1515 1165 L
5602 1336 mt 5674 1336 L
5638 1300 mt 5638 1372 L
6220 2299 mt 6292 2299 L
6256 2263 mt 6256 2335 L
5995  464 mt 6067  464 L
6031  428 mt 6031  500 L
6122 3707 mt 6194 3707 L
6158 3671 mt 6158 3743 L
2395 3507 mt 2467 3507 L
2431 3471 mt 2431 3543 L
5082  496 mt 5154  496 L
5118  460 mt 5118  532 L
6181  455 mt 6253  455 L
6217  419 mt 6217  491 L
6183  548 mt 6255  548 L
6219  512 mt 6219  584 L
2456 3035 mt 2528 3035 L
2492 2999 mt 2492 3071 L
6067 1372 mt 6139 1372 L
6103 1336 mt 6103 1408 L
6107  678 mt 6179  678 L
6143  642 mt 6143  714 L
6191 2199 mt 6263 2199 L
6227 2163 mt 6227 2235 L
1236  451 mt 1308  451 L
1272  415 mt 1272  487 L
4184 3892 mt 4256 3892 L
4220 3856 mt 4220 3928 L
6002 2268 mt 6074 2268 L
6038 2232 mt 6038 2304 L
1107 4358 mt 1179 4358 L
1143 4322 mt 1143 4394 L
6050  418 mt 6122  418 L
6086  382 mt 6086  454 L
6094 1875 mt 6166 1875 L
6130 1839 mt 6130 1911 L
5872 4604 mt 5944 4604 L
5908 4568 mt 5908 4640 L
1739 2168 mt 1811 2168 L
1775 2132 mt 1775 2204 L
6139  414 mt 6211  414 L
6175  378 mt 6175  450 L
6041 4542 mt 6113 4542 L
6077 4506 mt 6077 4578 L
5932 3933 mt 6004 3933 L
5968 3897 mt 5968 3969 L
6149  937 mt 6221  937 L
6185  901 mt 6185  973 L
1278 4300 mt 1350 4300 L
1314 4264 mt 1314 4336 L
5448 4226 mt 5520 4226 L
5484 4190 mt 5484 4262 L
6225 3662 mt 6297 3662 L
6261 3626 mt 6261 3698 L
5801 2922 mt 5873 2922 L
5837 2886 mt 5837 2958 L
2328  859 mt 2400  859 L
2364  823 mt 2364  895 L
4701  563 mt 4773  563 L
4737  527 mt 4737  599 L
6188 2981 mt 6260 2981 L
6224 2945 mt 6224 3017 L
6224 1377 mt 6296 1377 L
6260 1341 mt 6260 1413 L
2961  459 mt 3033  459 L
2997  423 mt 2997  495 L
6223 2027 mt 6295 2027 L
6259 1991 mt 6259 2063 L
1782 3953 mt 1854 3953 L
1818 3917 mt 1818 3989 L
2408 1628 mt 2480 1628 L
2444 1592 mt 2444 1664 L
6224 3470 mt 6296 3470 L
6260 3434 mt 6260 3506 L
6213 4099 mt 6285 4099 L
6249 4063 mt 6249 4135 L
1909 3894 mt 1981 3894 L
1945 3858 mt 1945 3930 L
1710 3292 mt 1782 3292 L
1746 3256 mt 1746 3328 L
6122 4551 mt 6194 4551 L
6158 4515 mt 6158 4587 L
2466 1143 mt 2538 1143 L
2502 1107 mt 2502 1179 L
5985 3965 mt 6057 3965 L
6021 3929 mt 6021 4001 L
6159 3588 mt 6231 3588 L
6195 3552 mt 6195 3624 L
2035  953 mt 2107  953 L
2071  917 mt 2071  989 L
6178 1138 mt 6250 1138 L
6214 1102 mt 6214 1174 L
4542 4608 mt 4614 4608 L
4578 4572 mt 4578 4644 L
6222  899 mt 6294  899 L
6258  863 mt 6258  935 L
5756 3405 mt 5828 3405 L
5792 3369 mt 5792 3441 L
3660 4558 mt 3732 4558 L
3696 4522 mt 3696 4594 L
3035  900 mt 3107  900 L
3071  864 mt 3071  936 L
6220  850 mt 6292  850 L
6256  814 mt 6256  886 L
3001 4612 mt 3073 4612 L
3037 4576 mt 3037 4648 L
2969 4234 mt 3041 4234 L
3005 4198 mt 3005 4270 L
6211  456 mt 6283  456 L
6247  420 mt 6247  492 L
6220 2280 mt 6292 2280 L
6256 2244 mt 6256 2316 L
6180  629 mt 6252  629 L
6216  593 mt 6216  665 L
1445 2725 mt 1517 2725 L
1481 2689 mt 1481 2761 L
3912 4584 mt 3984 4584 L
3948 4548 mt 3948 4620 L
5721 4591 mt 5793 4591 L
5757 4555 mt 5757 4627 L
 904 3495 mt  976 3495 L
 940 3459 mt  940 3531 L
6202  791 mt 6274  791 L
6238  755 mt 6238  827 L
2482 2942 mt 2554 2942 L
2518 2906 mt 2518 2978 L
6194  471 mt 6266  471 L
6230  435 mt 6230  507 L
2831 2642 mt 2903 2642 L
2867 2606 mt 2867 2678 L
5875 4512 mt 5947 4512 L
5911 4476 mt 5911 4548 L
5911 4591 mt 5983 4591 L
5947 4555 mt 5947 4627 L
3160 4382 mt 3232 4382 L
3196 4346 mt 3196 4418 L
6120  674 mt 6192  674 L
6156  638 mt 6156  710 L
6150 3321 mt 6222 3321 L
6186 3285 mt 6186 3357 L
6211  821 mt 6283  821 L
6247  785 mt 6247  857 L
 880 3097 mt  952 3097 L
 916 3061 mt  916 3133 L
6222 2094 mt 6294 2094 L
6258 2058 mt 6258 2130 L
6209  432 mt 6281  432 L
6245  396 mt 6245  468 L
1296 4435 mt 1368 4435 L
1332 4399 mt 1332 4471 L
5700 1670 mt 5772 1670 L
5736 1634 mt 5736 1706 L
1022 2851 mt 1094 2851 L
1058 2815 mt 1058 2887 L
1570  615 mt 1642  615 L
1606  579 mt 1606  651 L
2213  433 mt 2285  433 L
2249  397 mt 2249  469 L
1698 4525 mt 1770 4525 L
1734 4489 mt 1734 4561 L
 904 3832 mt  976 3832 L
 940 3796 mt  940 3868 L
1302  958 mt 1374  958 L
1338  922 mt 1338  994 L
3345 3877 mt 3417 3877 L
3381 3841 mt 3381 3913 L
1074 1496 mt 1146 1496 L
1110 1460 mt 1110 1532 L
6221  685 mt 6293  685 L
6257  649 mt 6257  721 L
2381  414 mt 2453  414 L
2417  378 mt 2417  450 L
6187 3590 mt 6259 3590 L
6223 3554 mt 6223 3626 L
6220 4479 mt 6292 4479 L
6256 4443 mt 6256 4515 L
5913 3094 mt 5985 3094 L
5949 3058 mt 5949 3130 L
3798 4226 mt 3870 4226 L
3834 4190 mt 3834 4262 L
4236 4529 mt 4308 4529 L
4272 4493 mt 4272 4565 L
5190  614 mt 5262  614 L
5226  578 mt 5226  650 L
5236 2091 mt 5308 2091 L
5272 2055 mt 5272 2127 L
5165 1313 mt 5237 1313 L
5201 1277 mt 5201 1349 L
4526  511 mt 4598  511 L
4562  475 mt 4562  547 L
1053 4215 mt 1125 4215 L
1089 4179 mt 1089 4251 L
3721 4431 mt 3793 4431 L
3757 4395 mt 3757 4467 L
4543 2165 mt 4615 2165 L
4579 2129 mt 4579 2201 L
1401 3346 mt 1473 3346 L
1437 3310 mt 1437 3382 L
6222  425 mt 6294  425 L
6258  389 mt 6258  461 L
6129  674 mt 6201  674 L
6165  638 mt 6165  710 L
5980 4108 mt 6052 4108 L
6016 4072 mt 6016 4144 L
6204 1769 mt 6276 1769 L
6240 1733 mt 6240 1805 L
5869 2951 mt 5941 2951 L
5905 2915 mt 5905 2987 L
6120  469 mt 6192  469 L
6156  433 mt 6156  505 L
4980 1547 mt 5052 1547 L
5016 1511 mt 5016 1583 L
1128  469 mt 1200  469 L
1164  433 mt 1164  505 L
 865 3559 mt  937 3559 L
 901 3523 mt  901 3595 L
6160 2352 mt 6232 2352 L
6196 2316 mt 6196 2388 L
2529 2846 mt 2601 2846 L
2565 2810 mt 2565 2882 L
4555 2393 mt 4627 2393 L
4591 2357 mt 4591 2429 L
6220 2522 mt 6292 2522 L
6256 2486 mt 6256 2558 L
 867 1810 mt  939 1810 L
 903 1774 mt  903 1846 L
6207 1641 mt 6279 1641 L
6243 1605 mt 6243 1677 L
6187 2194 mt 6259 2194 L
6223 2158 mt 6223 2230 L
1119 2220 mt 1191 2220 L
1155 2184 mt 1155 2256 L
6170 3999 mt 6242 3999 L
6206 3963 mt 6206 4035 L
4860 3925 mt 4932 3925 L
4896 3889 mt 4896 3961 L
 914 4394 mt  986 4394 L
 950 4358 mt  950 4430 L
2494 3142 mt 2566 3142 L
2530 3106 mt 2530 3178 L
6036  544 mt 6108  544 L
6072  508 mt 6072  580 L
4523 1710 mt 4595 1710 L
4559 1674 mt 4559 1746 L
5393 4606 mt 5465 4606 L
5429 4570 mt 5429 4642 L
5970 2675 mt 6042 2675 L
6006 2639 mt 6006 2711 L
6224  416 mt 6296  416 L
6260  380 mt 6260  452 L
6036 3628 mt 6108 3628 L
6072 3592 mt 6072 3664 L
3866  415 mt 3938  415 L
3902  379 mt 3902  451 L
4492 2362 mt 4564 2362 L
4528 2326 mt 4528 2398 L
6068  510 mt 6140  510 L
6104  474 mt 6104  546 L
6136 3085 mt 6208 3085 L
6172 3049 mt 6172 3121 L
6206  546 mt 6278  546 L
6242  510 mt 6242  582 L
gs 899 414 5363 4203 rc
gr

0 sg
2822 5104 mt 
(\(F,DCTb,MLP\)) s
 422 3259 mt  -90 rotate
(\(S,PAC,GMM\)) s
90 rotate
2975  223 mt 
(Corr = 0.08) s

end %%Color Dict

eplot
%%EndObject

epage
end

showpage

%%Trailer
%%EOF
