%!PS-Adobe-3.0 EPSF-3.0
%%Creator: MATLAB, The Mathworks, Inc. Version 7.7.0.471 (R2008b). Operating System: Microsoft Windows XP.
%%Title: Pictures\main_zoo_mvar_analysis_data_BMI_xcorr_bmi_p1_k2_1_2.eps
%%CreationDate: 10/26/2009  05:44:13
%%DocumentNeededFonts: Helvetica
%%DocumentProcessColors: Cyan Magenta Yellow Black
%%LanguageLevel: 2
%%Pages: 1
%%BoundingBox:    32   180   546   616
%%EndComments

%%BeginProlog
% MathWorks dictionary
/MathWorks 160 dict begin
% definition operators
/bdef {bind def} bind def
/ldef {load def} bind def
/xdef {exch def} bdef
/xstore {exch store} bdef
% operator abbreviations
/c  /clip ldef
/cc /concat ldef
/cp /closepath ldef
/gr /grestore ldef
/gs /gsave ldef
/mt /moveto ldef
/np /newpath ldef
/cm /currentmatrix ldef
/sm /setmatrix ldef
/rm /rmoveto ldef
/rl /rlineto ldef
/s {show newpath} bdef
/sc {setcmykcolor} bdef
/sr /setrgbcolor ldef
/sg /setgray ldef
/w /setlinewidth ldef
/j /setlinejoin ldef
/cap /setlinecap ldef
/rc {rectclip} bdef
/rf {rectfill} bdef
% page state control
/pgsv () def
/bpage {/pgsv save def} bdef
/epage {pgsv restore} bdef
/bplot /gsave ldef
/eplot {stroke grestore} bdef
% orientation switch
/portraitMode 0 def /landscapeMode 1 def /rotateMode 2 def
% coordinate system mappings
/dpi2point 0 def
% font control
/FontSize 0 def
/FMS {/FontSize xstore findfont [FontSize 0 0 FontSize neg 0 0]
  makefont setfont} bdef
/ISOLatin1Encoding where {pop /WindowsLatin1Encoding 256 array bdef
ISOLatin1Encoding WindowsLatin1Encoding copy pop
/.notdef/.notdef/quotesinglbase/florin/quotedblbase/ellipsis/dagger
/daggerdbl/circumflex/perthousand/Scaron/guilsinglleft/OE/.notdef/.notdef
/.notdef/.notdef/quoteleft/quoteright/quotedblleft/quotedblright/bullet
/endash/emdash/tilde/trademark/scaron/guilsinglright/oe/.notdef/.notdef
/Ydieresis WindowsLatin1Encoding 128 32 getinterval astore pop}
{/WindowsLatin1Encoding StandardEncoding bdef} ifelse
/reencode {exch dup where {pop load} {pop StandardEncoding} ifelse
  exch dup 3 1 roll findfont dup length dict begin
  { 1 index /FID ne {def}{pop pop} ifelse } forall
  /Encoding exch def currentdict end definefont pop} bdef
/isroman {findfont /CharStrings get /Agrave known} bdef
/FMSR {3 1 roll 1 index dup isroman {reencode} {pop pop} ifelse
  exch FMS} bdef
/csm {1 dpi2point div -1 dpi2point div scale neg translate
 dup landscapeMode eq {pop -90 rotate}
  {rotateMode eq {90 rotate} if} ifelse} bdef
% line types: solid, dotted, dashed, dotdash
/SO { [] 0 setdash } bdef
/DO { [.5 dpi2point mul 4 dpi2point mul] 0 setdash } bdef
/DA { [6 dpi2point mul] 0 setdash } bdef
/DD { [.5 dpi2point mul 4 dpi2point mul 6 dpi2point mul 4
  dpi2point mul] 0 setdash } bdef
% macros for lines and objects
/L {lineto stroke} bdef
/MP {3 1 roll moveto 1 sub {rlineto} repeat} bdef
/AP {{rlineto} repeat} bdef
/PDlw -1 def
/W {/PDlw currentlinewidth def setlinewidth} def
/PP {closepath eofill} bdef
/DP {closepath stroke} bdef
/MR {4 -2 roll moveto dup  0 exch rlineto exch 0 rlineto
  neg 0 exch rlineto closepath} bdef
/FR {MR stroke} bdef
/PR {MR fill} bdef
/L1i {{currentfile picstr readhexstring pop} image} bdef
/tMatrix matrix def
/MakeOval {newpath tMatrix currentmatrix pop translate scale
0 0 1 0 360 arc tMatrix setmatrix} bdef
/FO {MakeOval stroke} bdef
/PO {MakeOval fill} bdef
/PD {currentlinewidth 2 div 0 360 arc fill
   PDlw -1 eq not {PDlw w /PDlw -1 def} if} def
/FA {newpath tMatrix currentmatrix pop translate scale
  0 0 1 5 -2 roll arc tMatrix setmatrix stroke} bdef
/PA {newpath tMatrix currentmatrix pop	translate 0 0 moveto scale
  0 0 1 5 -2 roll arc closepath tMatrix setmatrix fill} bdef
/FAn {newpath tMatrix currentmatrix pop translate scale
  0 0 1 5 -2 roll arcn tMatrix setmatrix stroke} bdef
/PAn {newpath tMatrix currentmatrix pop translate 0 0 moveto scale
  0 0 1 5 -2 roll arcn closepath tMatrix setmatrix fill} bdef
/vradius 0 def /hradius 0 def /lry 0 def
/lrx 0 def /uly 0 def /ulx 0 def /rad 0 def
/MRR {/vradius xdef /hradius xdef /lry xdef /lrx xdef /uly xdef
  /ulx xdef newpath tMatrix currentmatrix pop ulx hradius add uly
  vradius add translate hradius vradius scale 0 0 1 180 270 arc 
  tMatrix setmatrix lrx hradius sub uly vradius add translate
  hradius vradius scale 0 0 1 270 360 arc tMatrix setmatrix
  lrx hradius sub lry vradius sub translate hradius vradius scale
  0 0 1 0 90 arc tMatrix setmatrix ulx hradius add lry vradius sub
  translate hradius vradius scale 0 0 1 90 180 arc tMatrix setmatrix
  closepath} bdef
/FRR {MRR stroke } bdef
/PRR {MRR fill } bdef
/MlrRR {/lry xdef /lrx xdef /uly xdef /ulx xdef /rad lry uly sub 2 div def
  newpath tMatrix currentmatrix pop ulx rad add uly rad add translate
  rad rad scale 0 0 1 90 270 arc tMatrix setmatrix lrx rad sub lry rad
  sub translate rad rad scale 0 0 1 270 90 arc tMatrix setmatrix
  closepath} bdef
/FlrRR {MlrRR stroke } bdef
/PlrRR {MlrRR fill } bdef
/MtbRR {/lry xdef /lrx xdef /uly xdef /ulx xdef /rad lrx ulx sub 2 div def
  newpath tMatrix currentmatrix pop ulx rad add uly rad add translate
  rad rad scale 0 0 1 180 360 arc tMatrix setmatrix lrx rad sub lry rad
  sub translate rad rad scale 0 0 1 0 180 arc tMatrix setmatrix
  closepath} bdef
/FtbRR {MtbRR stroke } bdef
/PtbRR {MtbRR fill } bdef
/stri 6 array def /dtri 6 array def
/smat 6 array def /dmat 6 array def
/tmat1 6 array def /tmat2 6 array def /dif 3 array def
/asub {/ind2 exch def /ind1 exch def dup dup
  ind1 get exch ind2 get sub exch } bdef
/tri_to_matrix {
  2 0 asub 3 1 asub 4 0 asub 5 1 asub
  dup 0 get exch 1 get 7 -1 roll astore } bdef
/compute_transform {
  dmat dtri tri_to_matrix tmat1 invertmatrix 
  smat stri tri_to_matrix tmat2 concatmatrix } bdef
/ds {stri astore pop} bdef
/dt {dtri astore pop} bdef
/db {2 copy /cols xdef /rows xdef mul dup 3 mul string
  currentfile 
  3 index 0 eq {/ASCIIHexDecode filter}
  {/ASCII85Decode filter 3 index 2 eq {/RunLengthDecode filter} if }
  ifelse exch readstring pop
  dup 0 3 index getinterval /rbmap xdef
  dup 2 index dup getinterval /gbmap xdef
  1 index dup 2 mul exch getinterval /bbmap xdef pop pop}bdef
/it {gs np dtri aload pop moveto lineto lineto cp c
  cols rows 8 compute_transform 
  rbmap gbmap bbmap true 3 colorimage gr}bdef
/il {newpath moveto lineto stroke}bdef
currentdict end def
%%EndProlog

%%BeginSetup
MathWorks begin

0 cap

end
%%EndSetup

%%Page: 1 1
%%BeginPageSetup
%%PageBoundingBox:    32   180   546   616
MathWorks begin
bpage
%%EndPageSetup

%%BeginObject: obj1
bplot

/dpi2point 12 def
portraitMode 0216 7344 csm

  174   -48  6173  5231 rc
85 dict begin %Colortable dictionary
/c0 { 0.000000 0.000000 0.000000 sr} bdef
/c1 { 1.000000 1.000000 1.000000 sr} bdef
/c2 { 0.900000 0.000000 0.000000 sr} bdef
/c3 { 0.000000 0.820000 0.000000 sr} bdef
/c4 { 0.000000 0.000000 0.800000 sr} bdef
/c5 { 0.910000 0.820000 0.320000 sr} bdef
/c6 { 1.000000 0.260000 0.820000 sr} bdef
/c7 { 0.000000 0.820000 0.820000 sr} bdef
c0
1 j
1 sg
   0    0 6919 5187 rf
6 w
0 4201 5362 0 0 -4201 899 4616 4 MP
PP
-5362 0 0 4201 5362 0 0 -4201 899 4616 5 MP stroke
4 w
DO
SO
6 w
0 sg
 899  415 mt 6261  415 L
 899 4616 mt 6261 4616 L
6261 4616 mt 6261  415 L
 899 4616 mt  899  415 L
 899 4616 mt 6261 4616 L
 899 4616 mt  899  415 L
1971 4616 mt 1971 4562 L
1971  415 mt 1971  468 L
%%IncludeResource: font Helvetica
/Helvetica /WindowsLatin1Encoding 240 FMSR

1805 4873 mt 
(0.2) s
3043 4616 mt 3043 4562 L
3043  415 mt 3043  468 L
2877 4873 mt 
(0.4) s
4116 4616 mt 4116 4562 L
4116  415 mt 4116  468 L
3950 4873 mt 
(0.6) s
5188 4616 mt 5188 4562 L
5188  415 mt 5188  468 L
5022 4873 mt 
(0.8) s
 899 4195 mt  952 4195 L
6261 4195 mt 6207 4195 L
 531 4284 mt 
(0.1) s
 899 3775 mt  952 3775 L
6261 3775 mt 6207 3775 L
 531 3864 mt 
(0.2) s
 899 3355 mt  952 3355 L
6261 3355 mt 6207 3355 L
 531 3444 mt 
(0.3) s
 899 2935 mt  952 2935 L
6261 2935 mt 6207 2935 L
 531 3024 mt 
(0.4) s
 899 2515 mt  952 2515 L
6261 2515 mt 6207 2515 L
 531 2604 mt 
(0.5) s
 899 2095 mt  952 2095 L
6261 2095 mt 6207 2095 L
 531 2184 mt 
(0.6) s
 899 1675 mt  952 1675 L
6261 1675 mt 6207 1675 L
 531 1764 mt 
(0.7) s
 899 1255 mt  952 1255 L
6261 1255 mt 6207 1255 L
 531 1344 mt 
(0.8) s
 899  835 mt  952  835 L
6261  835 mt 6207  835 L
 531  924 mt 
(0.9) s
 899  415 mt 6261  415 L
 899 4616 mt 6261 4616 L
6261 4616 mt 6261  415 L
 899 4616 mt  899  415 L
gs 899 414 5363 4203 rc
gr

/c8 { 0.000000 0.000000 1.000000 sr} bdef
c8
5711 2210 mt 5783 2210 L
5747 2174 mt 5747 2246 L
6170 2532 mt 6242 2532 L
6206 2496 mt 6206 2568 L
1538 3271 mt 1610 3271 L
1574 3235 mt 1574 3307 L
1040 4597 mt 1112 4597 L
1076 4561 mt 1076 4633 L
5197 2973 mt 5269 2973 L
5233 2937 mt 5233 3009 L
1063 2797 mt 1135 2797 L
1099 2761 mt 1099 2833 L
 864 3703 mt  936 3703 L
 900 3667 mt  900 3739 L
5223 3418 mt 5295 3418 L
5259 3382 mt 5259 3454 L
5098 4608 mt 5170 4608 L
5134 4572 mt 5134 4644 L
6173  463 mt 6245  463 L
6209  427 mt 6209  499 L
1044 4248 mt 1116 4248 L
1080 4212 mt 1080 4284 L
4160 3842 mt 4232 3842 L
4196 3806 mt 4196 3878 L
6191  593 mt 6263  593 L
6227  557 mt 6227  629 L
3007 3717 mt 3079 3717 L
3043 3681 mt 3043 3753 L
6104  978 mt 6176  978 L
6140  942 mt 6140 1014 L
3711 1869 mt 3783 1869 L
3747 1833 mt 3747 1905 L
4390 2800 mt 4462 2800 L
4426 2764 mt 4426 2836 L
5397  771 mt 5469  771 L
5433  735 mt 5433  807 L
6060 4572 mt 6132 4572 L
6096 4536 mt 6096 4608 L
4636 1060 mt 4708 1060 L
4672 1024 mt 4672 1096 L
1303 1510 mt 1375 1510 L
1339 1474 mt 1339 1546 L
5038 4491 mt 5110 4491 L
5074 4455 mt 5074 4527 L
1035 2580 mt 1107 2580 L
1071 2544 mt 1071 2616 L
1800  527 mt 1872  527 L
1836  491 mt 1836  563 L
5740  721 mt 5812  721 L
5776  685 mt 5776  757 L
3523 1138 mt 3595 1138 L
3559 1102 mt 3559 1174 L
1092 4616 mt 1164 4616 L
1128 4580 mt 1128 4652 L
4803 2807 mt 4875 2807 L
4839 2771 mt 4839 2843 L
4217 1590 mt 4289 1590 L
4253 1554 mt 4253 1626 L
5194  427 mt 5266  427 L
5230  391 mt 5230  463 L
 907  671 mt  979  671 L
 943  635 mt  943  707 L
2766 4293 mt 2838 4293 L
2802 4257 mt 2802 4329 L
 961 2137 mt 1033 2137 L
 997 2101 mt  997 2173 L
3180  999 mt 3252  999 L
3216  963 mt 3216 1035 L
3180 4160 mt 3252 4160 L
3216 4124 mt 3216 4196 L
3852 3578 mt 3924 3578 L
3888 3542 mt 3888 3614 L
4663 1410 mt 4735 1410 L
4699 1374 mt 4699 1446 L
 940 3105 mt 1012 3105 L
 976 3069 mt  976 3141 L
2473 1491 mt 2545 1491 L
2509 1455 mt 2509 1527 L
2619 4423 mt 2691 4423 L
2655 4387 mt 2655 4459 L
3905 4178 mt 3977 4178 L
3941 4142 mt 3941 4214 L
5778  666 mt 5850  666 L
5814  630 mt 5814  702 L
6222 1663 mt 6294 1663 L
6258 1627 mt 6258 1699 L
4214 1951 mt 4286 1951 L
4250 1915 mt 4250 1987 L
6050  501 mt 6122  501 L
6086  465 mt 6086  537 L
3498 3913 mt 3570 3913 L
3534 3877 mt 3534 3949 L
2940 2988 mt 3012 2988 L
2976 2952 mt 2976 3024 L
5549  603 mt 5621  603 L
5585  567 mt 5585  639 L
1041 2715 mt 1113 2715 L
1077 2679 mt 1077 2751 L
5607 1021 mt 5679 1021 L
5643  985 mt 5643 1057 L
1610 2111 mt 1682 2111 L
1646 2075 mt 1646 2147 L
4620 1173 mt 4692 1173 L
4656 1137 mt 4656 1209 L
4842  511 mt 4914  511 L
4878  475 mt 4878  547 L
5380 3377 mt 5452 3377 L
5416 3341 mt 5416 3413 L
4579  704 mt 4651  704 L
4615  668 mt 4615  740 L
4239  848 mt 4311  848 L
4275  812 mt 4275  884 L
2372 2627 mt 2444 2627 L
2408 2591 mt 2408 2663 L
5971 1892 mt 6043 1892 L
6007 1856 mt 6007 1928 L
1830 4026 mt 1902 4026 L
1866 3990 mt 1866 4062 L
5677 4245 mt 5749 4245 L
5713 4209 mt 5713 4281 L
2918 2328 mt 2990 2328 L
2954 2292 mt 2954 2364 L
 927 2469 mt  999 2469 L
 963 2433 mt  963 2505 L
3256 2828 mt 3328 2828 L
3292 2792 mt 3292 2864 L
6194  945 mt 6266  945 L
6230  909 mt 6230  981 L
5370 4560 mt 5442 4560 L
5406 4524 mt 5406 4596 L
5131  536 mt 5203  536 L
5167  500 mt 5167  572 L
3962 1845 mt 4034 1845 L
3998 1809 mt 3998 1881 L
2036 4465 mt 2108 4465 L
2072 4429 mt 2072 4501 L
5446 1600 mt 5518 1600 L
5482 1564 mt 5482 1636 L
 971 4459 mt 1043 4459 L
1007 4423 mt 1007 4495 L
1359 1411 mt 1431 1411 L
1395 1375 mt 1395 1447 L
6163 3523 mt 6235 3523 L
6199 3487 mt 6199 3559 L
5817 2404 mt 5889 2404 L
5853 2368 mt 5853 2440 L
1293 3737 mt 1365 3737 L
1329 3701 mt 1329 3773 L
 863 4605 mt  935 4605 L
 899 4569 mt  899 4641 L
2723 4615 mt 2795 4615 L
2759 4579 mt 2759 4651 L
6008 1028 mt 6080 1028 L
6044  992 mt 6044 1064 L
1168 3782 mt 1240 3782 L
1204 3746 mt 1204 3818 L
1296 3675 mt 1368 3675 L
1332 3639 mt 1332 3711 L
5794  477 mt 5866  477 L
5830  441 mt 5830  513 L
3873 4239 mt 3945 4239 L
3909 4203 mt 3909 4275 L
2098 3374 mt 2170 3374 L
2134 3338 mt 2134 3410 L
5464  829 mt 5536  829 L
5500  793 mt 5500  865 L
4624  754 mt 4696  754 L
4660  718 mt 4660  790 L
5846  483 mt 5918  483 L
5882  447 mt 5882  519 L
5544 2428 mt 5616 2428 L
5580 2392 mt 5580 2464 L
3068 3646 mt 3140 3646 L
3104 3610 mt 3104 3682 L
2757 1032 mt 2829 1032 L
2793  996 mt 2793 1068 L
5227  495 mt 5299  495 L
5263  459 mt 5263  531 L
1016 3364 mt 1088 3364 L
1052 3328 mt 1052 3400 L
2792 3686 mt 2864 3686 L
2828 3650 mt 2828 3722 L
6062  457 mt 6134  457 L
6098  421 mt 6098  493 L
1838 4533 mt 1910 4533 L
1874 4497 mt 1874 4569 L
 993 1301 mt 1065 1301 L
1029 1265 mt 1029 1337 L
2582 2680 mt 2654 2680 L
2618 2644 mt 2618 2716 L
 963  909 mt 1035  909 L
 999  873 mt  999  945 L
5110 3821 mt 5182 3821 L
5146 3785 mt 5146 3857 L
4747 2792 mt 4819 2792 L
4783 2756 mt 4783 2828 L
1945 2834 mt 2017 2834 L
1981 2798 mt 1981 2870 L
 945 4452 mt 1017 4452 L
 981 4416 mt  981 4488 L
5880 1276 mt 5952 1276 L
5916 1240 mt 5916 1312 L
1619  489 mt 1691  489 L
1655  453 mt 1655  525 L
2589 4255 mt 2661 4255 L
2625 4219 mt 2625 4291 L
 894 4526 mt  966 4526 L
 930 4490 mt  930 4562 L
 927 1309 mt  999 1309 L
 963 1273 mt  963 1345 L
1550 4413 mt 1622 4413 L
1586 4377 mt 1586 4449 L
4091 4151 mt 4163 4151 L
4127 4115 mt 4127 4187 L
1660 2557 mt 1732 2557 L
1696 2521 mt 1696 2593 L
 925 4463 mt  997 4463 L
 961 4427 mt  961 4499 L
3721 1055 mt 3793 1055 L
3757 1019 mt 3757 1091 L
4849  671 mt 4921  671 L
4885  635 mt 4885  707 L
2299 4489 mt 2371 4489 L
2335 4453 mt 2335 4525 L
 950 4317 mt 1022 4317 L
 986 4281 mt  986 4353 L
6207  767 mt 6279  767 L
6243  731 mt 6243  803 L
1040 3469 mt 1112 3469 L
1076 3433 mt 1076 3505 L
5206 4200 mt 5278 4200 L
5242 4164 mt 5242 4236 L
3564 1180 mt 3636 1180 L
3600 1144 mt 3600 1216 L
1046 1971 mt 1118 1971 L
1082 1935 mt 1082 2007 L
2161 2184 mt 2233 2184 L
2197 2148 mt 2197 2220 L
 864 4615 mt  936 4615 L
 900 4579 mt  900 4651 L
4474 1986 mt 4546 1986 L
4510 1950 mt 4510 2022 L
5970  449 mt 6042  449 L
6006  413 mt 6006  485 L
5201 1114 mt 5273 1114 L
5237 1078 mt 5237 1150 L
4632 4311 mt 4704 4311 L
4668 4275 mt 4668 4347 L
 880 2233 mt  952 2233 L
 916 2197 mt  916 2269 L
5709  572 mt 5781  572 L
5745  536 mt 5745  608 L
 886 4519 mt  958 4519 L
 922 4483 mt  922 4555 L
1401 4608 mt 1473 4608 L
1437 4572 mt 1437 4644 L
2622 1350 mt 2694 1350 L
2658 1314 mt 2658 1386 L
1799 1098 mt 1871 1098 L
1835 1062 mt 1835 1134 L
6022  903 mt 6094  903 L
6058  867 mt 6058  939 L
5965 1201 mt 6037 1201 L
6001 1165 mt 6001 1237 L
3854  805 mt 3926  805 L
3890  769 mt 3890  841 L
2904 1556 mt 2976 1556 L
2940 1520 mt 2940 1592 L
1900 4596 mt 1972 4596 L
1936 4560 mt 1936 4632 L
3761 3036 mt 3833 3036 L
3797 3000 mt 3797 3072 L
1620 4204 mt 1692 4204 L
1656 4168 mt 1656 4240 L
6163  493 mt 6235  493 L
6199  457 mt 6199  529 L
1867 4303 mt 1939 4303 L
1903 4267 mt 1903 4339 L
4826 1081 mt 4898 1081 L
4862 1045 mt 4862 1117 L
5360  544 mt 5432  544 L
5396  508 mt 5396  580 L
5983 1046 mt 6055 1046 L
6019 1010 mt 6019 1082 L
1376 3085 mt 1448 3085 L
1412 3049 mt 1412 3121 L
2127 3632 mt 2199 3632 L
2163 3596 mt 2163 3668 L
5120 1113 mt 5192 1113 L
5156 1077 mt 5156 1149 L
5697  612 mt 5769  612 L
5733  576 mt 5733  648 L
 884 1710 mt  956 1710 L
 920 1674 mt  920 1746 L
 863 3381 mt  935 3381 L
 899 3345 mt  899 3417 L
2436 2499 mt 2508 2499 L
2472 2463 mt 2472 2535 L
3379 2467 mt 3451 2467 L
3415 2431 mt 3415 2503 L
 908 1002 mt  980 1002 L
 944  966 mt  944 1038 L
5547  970 mt 5619  970 L
5583  934 mt 5583 1006 L
1101 4590 mt 1173 4590 L
1137 4554 mt 1137 4626 L
1354 4260 mt 1426 4260 L
1390 4224 mt 1390 4296 L
4585 1211 mt 4657 1211 L
4621 1175 mt 4621 1247 L
 990 2030 mt 1062 2030 L
1026 1994 mt 1026 2066 L
3519 4561 mt 3591 4561 L
3555 4525 mt 3555 4597 L
6111 1072 mt 6183 1072 L
6147 1036 mt 6147 1108 L
1164 4613 mt 1236 4613 L
1200 4577 mt 1200 4649 L
6060  570 mt 6132  570 L
6096  534 mt 6096  606 L
4165 3362 mt 4237 3362 L
4201 3326 mt 4201 3398 L
1343 3057 mt 1415 3057 L
1379 3021 mt 1379 3093 L
1653 2566 mt 1725 2566 L
1689 2530 mt 1689 2602 L
5704  434 mt 5776  434 L
5740  398 mt 5740  470 L
3663  536 mt 3735  536 L
3699  500 mt 3699  572 L
1001 3540 mt 1073 3540 L
1037 3504 mt 1037 3576 L
1288 1004 mt 1360 1004 L
1324  968 mt 1324 1040 L
6194 3568 mt 6266 3568 L
6230 3532 mt 6230 3604 L
1350 2441 mt 1422 2441 L
1386 2405 mt 1386 2477 L
5870 1258 mt 5942 1258 L
5906 1222 mt 5906 1294 L
2321 1367 mt 2393 1367 L
2357 1331 mt 2357 1403 L
3693  792 mt 3765  792 L
3729  756 mt 3729  828 L
1161 4463 mt 1233 4463 L
1197 4427 mt 1197 4499 L
3572 2508 mt 3644 2508 L
3608 2472 mt 3608 2544 L
5169 1431 mt 5241 1431 L
5205 1395 mt 5205 1467 L
2340 3985 mt 2412 3985 L
2376 3949 mt 2376 4021 L
4999 1612 mt 5071 1612 L
5035 1576 mt 5035 1648 L
5649 1406 mt 5721 1406 L
5685 1370 mt 5685 1442 L
2013 3497 mt 2085 3497 L
2049 3461 mt 2049 3533 L
2820 4442 mt 2892 4442 L
2856 4406 mt 2856 4478 L
1411 3922 mt 1483 3922 L
1447 3886 mt 1447 3958 L
5571  532 mt 5643  532 L
5607  496 mt 5607  568 L
2520 2319 mt 2592 2319 L
2556 2283 mt 2556 2355 L
1254 4607 mt 1326 4607 L
1290 4571 mt 1290 4643 L
6065  456 mt 6137  456 L
6101  420 mt 6101  492 L
1035 4445 mt 1107 4445 L
1071 4409 mt 1071 4481 L
6154  417 mt 6226  417 L
6190  381 mt 6190  453 L
2914 1940 mt 2986 1940 L
2950 1904 mt 2950 1976 L
6111  434 mt 6183  434 L
6147  398 mt 6147  470 L
5448 1849 mt 5520 1849 L
5484 1813 mt 5484 1885 L
2307 1295 mt 2379 1295 L
2343 1259 mt 2343 1331 L
5109 3903 mt 5181 3903 L
5145 3867 mt 5145 3939 L
6215  428 mt 6287  428 L
6251  392 mt 6251  464 L
6211  476 mt 6283  476 L
6247  440 mt 6247  512 L
3874 2957 mt 3946 2957 L
3910 2921 mt 3910 2993 L
 868 3206 mt  940 3206 L
 904 3170 mt  904 3242 L
5426 1201 mt 5498 1201 L
5462 1165 mt 5462 1237 L
4968 1874 mt 5040 1874 L
5004 1838 mt 5004 1910 L
4738 3888 mt 4810 3888 L
4774 3852 mt 4774 3924 L
4677 1980 mt 4749 1980 L
4713 1944 mt 4713 2016 L
6199  608 mt 6271  608 L
6235  572 mt 6235  644 L
4534 4322 mt 4606 4322 L
4570 4286 mt 4570 4358 L
6218  455 mt 6290  455 L
6254  419 mt 6254  491 L
3364  606 mt 3436  606 L
3400  570 mt 3400  642 L
3515 1687 mt 3587 1687 L
3551 1651 mt 3551 1723 L
6171 3973 mt 6243 3973 L
6207 3937 mt 6207 4009 L
6219  598 mt 6291  598 L
6255  562 mt 6255  634 L
5635  664 mt 5707  664 L
5671  628 mt 5671  700 L
1420 1306 mt 1492 1306 L
1456 1270 mt 1456 1342 L
1553 4587 mt 1625 4587 L
1589 4551 mt 1589 4623 L
2432 4269 mt 2504 4269 L
2468 4233 mt 2468 4305 L
6219 1012 mt 6291 1012 L
6255  976 mt 6255 1048 L
5620 1258 mt 5692 1258 L
5656 1222 mt 5656 1294 L
3007 2297 mt 3079 2297 L
3043 2261 mt 3043 2333 L
 868 1025 mt  940 1025 L
 904  989 mt  904 1061 L
6010  417 mt 6082  417 L
6046  381 mt 6046  453 L
5291 3916 mt 5363 3916 L
5327 3880 mt 5327 3952 L
6203 4351 mt 6275 4351 L
6239 4315 mt 6239 4387 L
6217 1324 mt 6289 1324 L
6253 1288 mt 6253 1360 L
4887 1116 mt 4959 1116 L
4923 1080 mt 4923 1152 L
1903  426 mt 1975  426 L
1939  390 mt 1939  462 L
1555 4533 mt 1627 4533 L
1591 4497 mt 1591 4569 L
5063 1119 mt 5135 1119 L
5099 1083 mt 5099 1155 L
 886 4608 mt  958 4608 L
 922 4572 mt  922 4644 L
6216  420 mt 6288  420 L
6252  384 mt 6252  456 L
2994 1072 mt 3066 1072 L
3030 1036 mt 3030 1108 L
2114 4599 mt 2186 4599 L
2150 4563 mt 2150 4635 L
2705 1623 mt 2777 1623 L
2741 1587 mt 2741 1659 L
5541 1762 mt 5613 1762 L
5577 1726 mt 5577 1798 L
6220  485 mt 6292  485 L
6256  449 mt 6256  521 L
3137  761 mt 3209  761 L
3173  725 mt 3173  797 L
2672 3486 mt 2744 3486 L
2708 3450 mt 2708 3522 L
4751 4470 mt 4823 4470 L
4787 4434 mt 4787 4506 L
4823  487 mt 4895  487 L
4859  451 mt 4859  523 L
 868 1990 mt  940 1990 L
 904 1954 mt  904 2026 L
5351 1728 mt 5423 1728 L
5387 1692 mt 5387 1764 L
4878 1581 mt 4950 1581 L
4914 1545 mt 4914 1617 L
1311 4398 mt 1383 4398 L
1347 4362 mt 1347 4434 L
6144 3960 mt 6216 3960 L
6180 3924 mt 6180 3996 L
3948 2450 mt 4020 2450 L
3984 2414 mt 3984 2486 L
6209  621 mt 6281  621 L
6245  585 mt 6245  657 L
6203  476 mt 6275  476 L
6239  440 mt 6239  512 L
6224  417 mt 6296  417 L
6260  381 mt 6260  453 L
5930  529 mt 6002  529 L
5966  493 mt 5966  565 L
6200  895 mt 6272  895 L
6236  859 mt 6236  931 L
4633 1009 mt 4705 1009 L
4669  973 mt 4669 1045 L
3165 1207 mt 3237 1207 L
3201 1171 mt 3201 1243 L
1836 2346 mt 1908 2346 L
1872 2310 mt 1872 2382 L
 865  505 mt  937  505 L
 901  469 mt  901  541 L
1071 4601 mt 1143 4601 L
1107 4565 mt 1107 4637 L
1432  739 mt 1504  739 L
1468  703 mt 1468  775 L
1019 1773 mt 1091 1773 L
1055 1737 mt 1055 1809 L
1868 4135 mt 1940 4135 L
1904 4099 mt 1904 4171 L
6095  471 mt 6167  471 L
6131  435 mt 6131  507 L
2806 4072 mt 2878 4072 L
2842 4036 mt 2842 4108 L
6162  923 mt 6234  923 L
6198  887 mt 6198  959 L
5857  579 mt 5929  579 L
5893  543 mt 5893  615 L
4893 1207 mt 4965 1207 L
4929 1171 mt 4929 1243 L
5374 2502 mt 5446 2502 L
5410 2466 mt 5410 2538 L
3029  577 mt 3101  577 L
3065  541 mt 3065  613 L
4505 4576 mt 4577 4576 L
4541 4540 mt 4541 4612 L
6133  622 mt 6205  622 L
6169  586 mt 6169  658 L
 871  424 mt  943  424 L
 907  388 mt  907  460 L
5645 3344 mt 5717 3344 L
5681 3308 mt 5681 3380 L
 872 3403 mt  944 3403 L
 908 3367 mt  908 3439 L
3303 2208 mt 3375 2208 L
3339 2172 mt 3339 2244 L
5829 3831 mt 5901 3831 L
5865 3795 mt 5865 3867 L
2408 1448 mt 2480 1448 L
2444 1412 mt 2444 1484 L
 937 4573 mt 1009 4573 L
 973 4537 mt  973 4609 L
1857 1880 mt 1929 1880 L
1893 1844 mt 1893 1916 L
5713  670 mt 5785  670 L
5749  634 mt 5749  706 L
5058 2173 mt 5130 2173 L
5094 2137 mt 5094 2209 L
6215  418 mt 6287  418 L
6251  382 mt 6251  454 L
1590 4019 mt 1662 4019 L
1626 3983 mt 1626 4055 L
2387 1995 mt 2459 1995 L
2423 1959 mt 2423 2031 L
1694 4251 mt 1766 4251 L
1730 4215 mt 1730 4287 L
6060  639 mt 6132  639 L
6096  603 mt 6096  675 L
 958 3784 mt 1030 3784 L
 994 3748 mt  994 3820 L
1972 1621 mt 2044 1621 L
2008 1585 mt 2008 1657 L
4628 1053 mt 4700 1053 L
4664 1017 mt 4664 1089 L
6219  958 mt 6291  958 L
6255  922 mt 6255  994 L
 905 4599 mt  977 4599 L
 941 4563 mt  941 4635 L
6220  499 mt 6292  499 L
6256  463 mt 6256  535 L
4119  698 mt 4191  698 L
4155  662 mt 4155  734 L
6208  567 mt 6280  567 L
6244  531 mt 6244  603 L
 983 3627 mt 1055 3627 L
1019 3591 mt 1019 3663 L
1296 2922 mt 1368 2922 L
1332 2886 mt 1332 2958 L
5900 1430 mt 5972 1430 L
5936 1394 mt 5936 1466 L
3116 1785 mt 3188 1785 L
3152 1749 mt 3152 1821 L
3875 4615 mt 3947 4615 L
3911 4579 mt 3911 4651 L
4310 1721 mt 4382 1721 L
4346 1685 mt 4346 1757 L
6154  678 mt 6226  678 L
6190  642 mt 6190  714 L
 934 3838 mt 1006 3838 L
 970 3802 mt  970 3874 L
 864  948 mt  936  948 L
 900  912 mt  900  984 L
2890 3464 mt 2962 3464 L
2926 3428 mt 2926 3500 L
5334  433 mt 5406  433 L
5370  397 mt 5370  469 L
6225 2959 mt 6297 2959 L
6261 2923 mt 6261 2995 L
3531 3543 mt 3603 3543 L
3567 3507 mt 3567 3579 L
1039 4495 mt 1111 4495 L
1075 4459 mt 1075 4531 L
4377 4118 mt 4449 4118 L
4413 4082 mt 4413 4154 L
5340  745 mt 5412  745 L
5376  709 mt 5376  781 L
6201  558 mt 6273  558 L
6237  522 mt 6237  594 L
5565 1487 mt 5637 1487 L
5601 1451 mt 5601 1523 L
3411 4128 mt 3483 4128 L
3447 4092 mt 3447 4164 L
3161  568 mt 3233  568 L
3197  532 mt 3197  604 L
 878  435 mt  950  435 L
 914  399 mt  914  471 L
5914 4611 mt 5986 4611 L
5950 4575 mt 5950 4647 L
6210  912 mt 6282  912 L
6246  876 mt 6246  948 L
5595 4610 mt 5667 4610 L
5631 4574 mt 5631 4646 L
5872 3219 mt 5944 3219 L
5908 3183 mt 5908 3255 L
5977  435 mt 6049  435 L
6013  399 mt 6013  471 L
1058 2694 mt 1130 2694 L
1094 2658 mt 1094 2730 L
2517 2607 mt 2589 2607 L
2553 2571 mt 2553 2643 L
1669 3121 mt 1741 3121 L
1705 3085 mt 1705 3157 L
1300 4613 mt 1372 4613 L
1336 4577 mt 1336 4649 L
 994 4356 mt 1066 4356 L
1030 4320 mt 1030 4392 L
5951  417 mt 6023  417 L
5987  381 mt 5987  453 L
4182 4025 mt 4254 4025 L
4218 3989 mt 4218 4061 L
6087 1247 mt 6159 1247 L
6123 1211 mt 6123 1283 L
2531 1242 mt 2603 1242 L
2567 1206 mt 2567 1278 L
6028 3697 mt 6100 3697 L
6064 3661 mt 6064 3733 L
3230 4225 mt 3302 4225 L
3266 4189 mt 3266 4261 L
2897 2029 mt 2969 2029 L
2933 1993 mt 2933 2065 L
5995  423 mt 6067  423 L
6031  387 mt 6031  459 L
1654 2038 mt 1726 2038 L
1690 2002 mt 1690 2074 L
2390  925 mt 2462  925 L
2426  889 mt 2426  961 L
5265  463 mt 5337  463 L
5301  427 mt 5301  499 L
6085 2124 mt 6157 2124 L
6121 2088 mt 6121 2160 L
4089 1462 mt 4161 1462 L
4125 1426 mt 4125 1498 L
1640 3143 mt 1712 3143 L
1676 3107 mt 1676 3179 L
6126 4614 mt 6198 4614 L
6162 4578 mt 6162 4650 L
1656 3698 mt 1728 3698 L
1692 3662 mt 1692 3734 L
6223  433 mt 6295  433 L
6259  397 mt 6259  469 L
 958 4138 mt 1030 4138 L
 994 4102 mt  994 4174 L
4403 1443 mt 4475 1443 L
4439 1407 mt 4439 1479 L
5060 4478 mt 5132 4478 L
5096 4442 mt 5096 4514 L
3554 3382 mt 3626 3382 L
3590 3346 mt 3590 3418 L
6207  547 mt 6279  547 L
6243  511 mt 6243  583 L
4275 1475 mt 4347 1475 L
4311 1439 mt 4311 1511 L
3907 1339 mt 3979 1339 L
3943 1303 mt 3943 1375 L
6212  551 mt 6284  551 L
6248  515 mt 6248  587 L
6184  498 mt 6256  498 L
6220  462 mt 6220  534 L
4648  906 mt 4720  906 L
4684  870 mt 4684  942 L
1181 4600 mt 1253 4600 L
1217 4564 mt 1217 4636 L
5602  437 mt 5674  437 L
5638  401 mt 5638  473 L
5478  993 mt 5550  993 L
5514  957 mt 5514 1029 L
 912 4610 mt  984 4610 L
 948 4574 mt  948 4646 L
1285 1753 mt 1357 1753 L
1321 1717 mt 1321 1789 L
3357 3964 mt 3429 3964 L
3393 3928 mt 3393 4000 L
2314 4600 mt 2386 4600 L
2350 4564 mt 2350 4636 L
 883  809 mt  955  809 L
 919  773 mt  919  845 L
3368 1653 mt 3440 1653 L
3404 1617 mt 3404 1689 L
 863 4016 mt  935 4016 L
 899 3980 mt  899 4052 L
1180  415 mt 1252  415 L
1216  379 mt 1216  451 L
1996 3982 mt 2068 3982 L
2032 3946 mt 2032 4018 L
5320  415 mt 5392  415 L
5356  379 mt 5356  451 L
3854 4038 mt 3926 4038 L
3890 4002 mt 3890 4074 L
3447 1952 mt 3519 1952 L
3483 1916 mt 3483 1988 L
2063 3842 mt 2135 3842 L
2099 3806 mt 2099 3878 L
2549 2488 mt 2621 2488 L
2585 2452 mt 2585 2524 L
5963 1267 mt 6035 1267 L
5999 1231 mt 5999 1303 L
6088  743 mt 6160  743 L
6124  707 mt 6124  779 L
 874 1247 mt  946 1247 L
 910 1211 mt  910 1283 L
5992  447 mt 6064  447 L
6028  411 mt 6028  483 L
6165 1850 mt 6237 1850 L
6201 1814 mt 6201 1886 L
5655 1717 mt 5727 1717 L
5691 1681 mt 5691 1753 L
4838  475 mt 4910  475 L
4874  439 mt 4874  511 L
2987 4609 mt 3059 4609 L
3023 4573 mt 3023 4645 L
5000 2335 mt 5072 2335 L
5036 2299 mt 5036 2371 L
1158  537 mt 1230  537 L
1194  501 mt 1194  573 L
4696  493 mt 4768  493 L
4732  457 mt 4732  529 L
6111  474 mt 6183  474 L
6147  438 mt 6147  510 L
2117 2155 mt 2189 2155 L
2153 2119 mt 2153 2191 L
3816 3847 mt 3888 3847 L
3852 3811 mt 3852 3883 L
1031 2663 mt 1103 2663 L
1067 2627 mt 1067 2699 L
1678 3785 mt 1750 3785 L
1714 3749 mt 1714 3821 L
1109 3070 mt 1181 3070 L
1145 3034 mt 1145 3106 L
5449  495 mt 5521  495 L
5485  459 mt 5485  531 L
2743 2827 mt 2815 2827 L
2779 2791 mt 2779 2863 L
1423 3544 mt 1495 3544 L
1459 3508 mt 1459 3580 L
 895 2883 mt  967 2883 L
 931 2847 mt  931 2919 L
2558 2659 mt 2630 2659 L
2594 2623 mt 2594 2695 L
1890  428 mt 1962  428 L
1926  392 mt 1926  464 L
6181 2010 mt 6253 2010 L
6217 1974 mt 6217 2046 L
1517 4566 mt 1589 4566 L
1553 4530 mt 1553 4602 L
5965  470 mt 6037  470 L
6001  434 mt 6001  506 L
4160 1098 mt 4232 1098 L
4196 1062 mt 4196 1134 L
 950 4182 mt 1022 4182 L
 986 4146 mt  986 4218 L
3380 1099 mt 3452 1099 L
3416 1063 mt 3416 1135 L
2078 2648 mt 2150 2648 L
2114 2612 mt 2114 2684 L
2784 4212 mt 2856 4212 L
2820 4176 mt 2820 4248 L
6204 4589 mt 6276 4589 L
6240 4553 mt 6240 4625 L
4614 2766 mt 4686 2766 L
4650 2730 mt 4650 2802 L
5439  460 mt 5511  460 L
5475  424 mt 5475  496 L
6202  430 mt 6274  430 L
6238  394 mt 6238  466 L
2007 4515 mt 2079 4515 L
2043 4479 mt 2043 4551 L
5910 1923 mt 5982 1923 L
5946 1887 mt 5946 1959 L
 912 2953 mt  984 2953 L
 948 2917 mt  948 2989 L
6223 3607 mt 6295 3607 L
6259 3571 mt 6259 3643 L
6171  418 mt 6243  418 L
6207  382 mt 6207  454 L
gs 899 414 5363 4203 rc
gr

0 sg
2779 5104 mt 
(\(F,DCTs,GMM\)) s
 422 3320 mt  -90 rotate
(\(F,DCTb,GMM\)) s
90 rotate
2975  223 mt 
(Corr = 0.44) s

end %%Color Dict

eplot
%%EndObject

epage
end

showpage

%%Trailer
%%EOF
