%!PS-Adobe-3.0 EPSF-3.0
%%Creator: MATLAB, The Mathworks, Inc.
%%Title: Pictures\main_fusion_us_logreg_demo_prob3.eps
%%CreationDate: 02/14/2009  03:17:58
%%DocumentNeededFonts: Helvetica
%%DocumentProcessColors: Cyan Magenta Yellow Black
%%LanguageLevel: 2
%%Pages: 1
%%BoundingBox:    42   187   543   583
%%EndComments

%%BeginProlog
% MathWorks dictionary
/MathWorks 160 dict begin
% definition operators
/bdef {bind def} bind def
/ldef {load def} bind def
/xdef {exch def} bdef
/xstore {exch store} bdef
% operator abbreviations
/c  /clip ldef
/cc /concat ldef
/cp /closepath ldef
/gr /grestore ldef
/gs /gsave ldef
/mt /moveto ldef
/np /newpath ldef
/cm /currentmatrix ldef
/sm /setmatrix ldef
/rm /rmoveto ldef
/rl /rlineto ldef
/s {show newpath} bdef
/sc {setcmykcolor} bdef
/sr /setrgbcolor ldef
/sg /setgray ldef
/w /setlinewidth ldef
/j /setlinejoin ldef
/cap /setlinecap ldef
/rc {rectclip} bdef
/rf {rectfill} bdef
% page state control
/pgsv () def
/bpage {/pgsv save def} bdef
/epage {pgsv restore} bdef
/bplot /gsave ldef
/eplot {stroke grestore} bdef
% orientation switch
/portraitMode 0 def /landscapeMode 1 def /rotateMode 2 def
% coordinate system mappings
/dpi2point 0 def
% font control
/FontSize 0 def
/FMS {/FontSize xstore findfont [FontSize 0 0 FontSize neg 0 0]
  makefont setfont} bdef
/ISOLatin1Encoding where {pop /WindowsLatin1Encoding 256 array bdef
ISOLatin1Encoding WindowsLatin1Encoding copy pop
/.notdef/.notdef/quotesinglbase/florin/quotedblbase/ellipsis/dagger
/daggerdbl/circumflex/perthousand/Scaron/guilsinglleft/OE/.notdef/.notdef
/.notdef/.notdef/quoteleft/quoteright/quotedblleft/quotedblright/bullet
/endash/emdash/tilde/trademark/scaron/guilsinglright/oe/.notdef/.notdef
/Ydieresis WindowsLatin1Encoding 128 32 getinterval astore pop}
{/WindowsLatin1Encoding StandardEncoding bdef} ifelse
/reencode {exch dup where {pop load} {pop StandardEncoding} ifelse
  exch dup 3 1 roll findfont dup length dict begin
  { 1 index /FID ne {def}{pop pop} ifelse } forall
  /Encoding exch def currentdict end definefont pop} bdef
/isroman {findfont /CharStrings get /Agrave known} bdef
/FMSR {3 1 roll 1 index dup isroman {reencode} {pop pop} ifelse
  exch FMS} bdef
/csm {1 dpi2point div -1 dpi2point div scale neg translate
 dup landscapeMode eq {pop -90 rotate}
  {rotateMode eq {90 rotate} if} ifelse} bdef
% line types: solid, dotted, dashed, dotdash
/SO { [] 0 setdash } bdef
/DO { [.5 dpi2point mul 4 dpi2point mul] 0 setdash } bdef
/DA { [6 dpi2point mul] 0 setdash } bdef
/DD { [.5 dpi2point mul 4 dpi2point mul 6 dpi2point mul 4
  dpi2point mul] 0 setdash } bdef
% macros for lines and objects
/L {lineto stroke} bdef
/MP {3 1 roll moveto 1 sub {rlineto} repeat} bdef
/AP {{rlineto} repeat} bdef
/PDlw -1 def
/W {/PDlw currentlinewidth def setlinewidth} def
/PP {closepath eofill} bdef
/DP {closepath stroke} bdef
/MR {4 -2 roll moveto dup  0 exch rlineto exch 0 rlineto
  neg 0 exch rlineto closepath} bdef
/FR {MR stroke} bdef
/PR {MR fill} bdef
/L1i {{currentfile picstr readhexstring pop} image} bdef
/tMatrix matrix def
/MakeOval {newpath tMatrix currentmatrix pop translate scale
0 0 1 0 360 arc tMatrix setmatrix} bdef
/FO {MakeOval stroke} bdef
/PO {MakeOval fill} bdef
/PD {currentlinewidth 2 div 0 360 arc fill
   PDlw -1 eq not {PDlw w /PDlw -1 def} if} def
/FA {newpath tMatrix currentmatrix pop translate scale
  0 0 1 5 -2 roll arc tMatrix setmatrix stroke} bdef
/PA {newpath tMatrix currentmatrix pop	translate 0 0 moveto scale
  0 0 1 5 -2 roll arc closepath tMatrix setmatrix fill} bdef
/FAn {newpath tMatrix currentmatrix pop translate scale
  0 0 1 5 -2 roll arcn tMatrix setmatrix stroke} bdef
/PAn {newpath tMatrix currentmatrix pop translate 0 0 moveto scale
  0 0 1 5 -2 roll arcn closepath tMatrix setmatrix fill} bdef
/vradius 0 def /hradius 0 def /lry 0 def
/lrx 0 def /uly 0 def /ulx 0 def /rad 0 def
/MRR {/vradius xdef /hradius xdef /lry xdef /lrx xdef /uly xdef
  /ulx xdef newpath tMatrix currentmatrix pop ulx hradius add uly
  vradius add translate hradius vradius scale 0 0 1 180 270 arc 
  tMatrix setmatrix lrx hradius sub uly vradius add translate
  hradius vradius scale 0 0 1 270 360 arc tMatrix setmatrix
  lrx hradius sub lry vradius sub translate hradius vradius scale
  0 0 1 0 90 arc tMatrix setmatrix ulx hradius add lry vradius sub
  translate hradius vradius scale 0 0 1 90 180 arc tMatrix setmatrix
  closepath} bdef
/FRR {MRR stroke } bdef
/PRR {MRR fill } bdef
/MlrRR {/lry xdef /lrx xdef /uly xdef /ulx xdef /rad lry uly sub 2 div def
  newpath tMatrix currentmatrix pop ulx rad add uly rad add translate
  rad rad scale 0 0 1 90 270 arc tMatrix setmatrix lrx rad sub lry rad
  sub translate rad rad scale 0 0 1 270 90 arc tMatrix setmatrix
  closepath} bdef
/FlrRR {MlrRR stroke } bdef
/PlrRR {MlrRR fill } bdef
/MtbRR {/lry xdef /lrx xdef /uly xdef /ulx xdef /rad lrx ulx sub 2 div def
  newpath tMatrix currentmatrix pop ulx rad add uly rad add translate
  rad rad scale 0 0 1 180 360 arc tMatrix setmatrix lrx rad sub lry rad
  sub translate rad rad scale 0 0 1 0 180 arc tMatrix setmatrix
  closepath} bdef
/FtbRR {MtbRR stroke } bdef
/PtbRR {MtbRR fill } bdef
/stri 6 array def /dtri 6 array def
/smat 6 array def /dmat 6 array def
/tmat1 6 array def /tmat2 6 array def /dif 3 array def
/asub {/ind2 exch def /ind1 exch def dup dup
  ind1 get exch ind2 get sub exch } bdef
/tri_to_matrix {
  2 0 asub 3 1 asub 4 0 asub 5 1 asub
  dup 0 get exch 1 get 7 -1 roll astore } bdef
/compute_transform {
  dmat dtri tri_to_matrix tmat1 invertmatrix 
  smat stri tri_to_matrix tmat2 concatmatrix } bdef
/ds {stri astore pop} bdef
/dt {dtri astore pop} bdef
/db {2 copy /cols xdef /rows xdef mul dup 3 mul string
  currentfile 
  3 index 0 eq {/ASCIIHexDecode filter}
  {/ASCII85Decode filter 3 index 2 eq {/RunLengthDecode filter} if }
  ifelse exch readstring pop
  dup 0 3 index getinterval /rbmap xdef
  dup 2 index dup getinterval /gbmap xdef
  1 index dup 2 mul exch getinterval /bbmap xdef pop pop}bdef
/it {gs np dtri aload pop moveto lineto lineto cp c
  cols rows 8 compute_transform 
  rbmap gbmap bbmap true 3 colorimage gr}bdef
/il {newpath moveto lineto stroke}bdef
currentdict end def
%%EndProlog

%%BeginSetup
MathWorks begin

0 cap

end
%%EndSetup

%%Page: 1 1
%%BeginPageSetup
%%PageBoundingBox:    42   187   543   583
MathWorks begin
bpage
%%EndPageSetup

%%BeginObject: obj1
bplot

/dpi2point 12 def
portraitMode 0216 7344 csm

  297   341  6014  4751 rc
85 dict begin %Colortable dictionary
/c0 { 0.000000 0.000000 0.000000 sr} bdef
/c1 { 1.000000 1.000000 1.000000 sr} bdef
/c2 { 0.900000 0.000000 0.000000 sr} bdef
/c3 { 0.000000 0.820000 0.000000 sr} bdef
/c4 { 0.000000 0.000000 0.800000 sr} bdef
/c5 { 0.910000 0.820000 0.320000 sr} bdef
/c6 { 1.000000 0.260000 0.820000 sr} bdef
/c7 { 0.000000 0.820000 0.820000 sr} bdef
c0
1 j
1 sg
   0    0 6919 5187 rf
6 w
0 4227 5363 0 0 -4227 898 4616 4 MP
PP
-5363 0 0 4227 5363 0 0 -4227 898 4616 5 MP stroke
4 w
DO
SO
6 w
0 sg
 898  389 mt 6261  389 L
 898 4616 mt 6261 4616 L
6261 4616 mt 6261  389 L
 898 4616 mt  898  389 L
 898 4616 mt 6261 4616 L
 898 4616 mt  898  389 L
1165 4616 mt 1165 4562 L
1165  389 mt 1165  442 L
%%IncludeResource: font Helvetica
/Helvetica /WindowsLatin1Encoding 192 FMSR

1112 4828 mt 
(1) s
1966 4616 mt 1966 4562 L
1966  389 mt 1966  442 L
1913 4828 mt 
(2) s
2767 4616 mt 2767 4562 L
2767  389 mt 2767  442 L
2714 4828 mt 
(3) s
3567 4616 mt 3567 4562 L
3567  389 mt 3567  442 L
3514 4828 mt 
(4) s
4368 4616 mt 4368 4562 L
4368  389 mt 4368  442 L
4315 4828 mt 
(5) s
5169 4616 mt 5169 4562 L
5169  389 mt 5169  442 L
5116 4828 mt 
(6) s
5970 4616 mt 5970 4562 L
5970  389 mt 5970  442 L
5917 4828 mt 
(7) s
 898 4194 mt  952 4194 L
6261 4194 mt 6207 4194 L
 598 4265 mt 
(0.1) s
 898 3769 mt  952 3769 L
6261 3769 mt 6207 3769 L
 598 3840 mt 
(0.2) s
 898 3344 mt  952 3344 L
6261 3344 mt 6207 3344 L
 598 3415 mt 
(0.3) s
 898 2919 mt  952 2919 L
6261 2919 mt 6207 2919 L
 598 2990 mt 
(0.4) s
 898 2494 mt  952 2494 L
6261 2494 mt 6207 2494 L
 598 2565 mt 
(0.5) s
 898 2069 mt  952 2069 L
6261 2069 mt 6207 2069 L
 598 2140 mt 
(0.6) s
 898 1644 mt  952 1644 L
6261 1644 mt 6207 1644 L
 598 1715 mt 
(0.7) s
 898 1219 mt  952 1219 L
6261 1219 mt 6207 1219 L
 598 1290 mt 
(0.8) s
 898  794 mt  952  794 L
6261  794 mt 6207  794 L
 598  865 mt 
(0.9) s
 898  389 mt 6261  389 L
 898 4616 mt 6261 4616 L
6261 4616 mt 6261  389 L
 898 4616 mt  898  389 L
gs 898 389 5364 4228 rc
/c8 { 0.000000 0.000000 1.000000 sr} bdef
c8
73 -53 83 -329 83 -1236 83 -1720 83 -712 84 -149 83 -26 43 -3 
1991 4617 9 MP stroke
/c9 { 0.000000 0.500000 0.000000 sr} bdef
c9
78 -26 83 -74 83 -180 83 -405 83 -749 84 -996 83 -868 83 -520 
83 -245 83 -102 83 -40 83 -16 83 -6 28 -1 3918 4617 15 MP stroke
/c10 { 1.000000 0.000000 0.000000 sr} bdef
c10
75 -27 83 -87 83 -233 83 -547 83 -965 83 -1080 83 -734 84 -347 
83 -135 83 -49 83 -17 83 -6 9 -1 3355 4617 14 MP stroke
/c11 { 0.000000 0.750000 0.750000 sr} bdef
c11
79 -21 83 -49 83 -105 83 -215 83 -404 83 -650 83 -823 84 -777 
83 -555 83 -321 83 -165 83 -79 83 -36 83 -17 83 -7 80 -4 
3035 4617 17 MP stroke
/c12 { 0.750000 0.000000 0.750000 sr} bdef
c12
51 -16 83 -96 83 -328 83 -878 83 -1360 83 -991 83 -397 83 -120 
83 -33 84 -8 7 -1 3689 4617 12 MP stroke
/c13 { 0.750000 0.750000 0.000000 sr} bdef
c13
49 -12 83 -62 83 -173 83 -435 84 -865 83 -1122 83 -863 83 -433 
83 -171 83 -62 83 -21 83 -8 27 -1 3088 4617 14 MP stroke
0.25 sg
11 -2 83 -99 84 -480 83 -1439 83 -1522 83 -547 83 -115 83 -22 
37 -2 2496 4617 10 MP stroke
c8
39 -7 83 -35 83 -80 83 -176 83 -356 83 -624 83 -854 84 -845 
83 -607 83 -343 83 -168 83 -76 83 -34 83 -14 83 -7 55 -2 
3060 4617 17 MP stroke
c9
63 -26 83 -142 83 -502 83 -1214 83 -1380 83 -687 83 -209 83 -53 
83 -13 30 -2 3833 4617 11 MP stroke
c10
51 -21 83 -195 83 -883 83 -1791 83 -1041 84 -247 83 -44 65 -6 
2800 4617 9 MP stroke
c11
51 -16 83 -100 83 -346 83 -924 83 -1383 83 -954 83 -363 83 -106 
83 -28 80 -8 3700 4617 11 MP stroke
c12
73 -22 83 -63 84 -150 83 -333 83 -637 83 -922 83 -914 83 -621 
83 -323 83 -145 83 -60 84 -24 83 -10 74 -4 2791 4617 15 MP stroke
c13
73 -40 83 -183 83 -629 83 -1350 84 -1276 83 -547 83 -155 83 -39 
82 -9 3365 4617 10 MP stroke
0.25 sg
77 -42 83 -168 83 -535 83 -1176 84 -1302 83 -689 83 -230 83 -65 
83 -17 58 -4 3306 4617 11 MP stroke
c8
14 -2 83 -79 83 -319 83 -989 83 -1529 83 -930 83 -291 83 -71 
84 -16 37 -2 3659 4617 11 MP stroke
c9
36 -10 83 -112 83 -465 83 -1289 83 -1485 83 -654 84 -169 83 -37 
73 -7 2792 4617 10 MP stroke
c10
70 -55 84 -476 83 -1794 83 -1525 83 -330 83 -44 49 -4 2567 4617 8 MP stroke
c11
29 -6 83 -77 83 -280 83 -814 83 -1389 83 -1071 83 -426 84 -124 
83 -32 81 -9 2784 4617 11 MP stroke
c12
51 -10 83 -44 83 -103 83 -233 83 -470 83 -777 83 -936 83 -777 
84 -470 83 -233 83 -103 83 -44 83 -18 83 -7 60 -3 3221 4617 16 MP stroke
c13
57 -17 83 -83 83 -245 83 -628 84 -1120 83 -1127 83 -637 83 -251 
83 -84 83 -26 83 -9 25 -1 3173 4617 13 MP stroke
gr

c13
0 sg
3295 5024 mt 
(scores) s
 500 3342 mt  -90 rotate
(posterior probability) s
90 rotate

end %%Color Dict

eplot
%%EndObject

epage
end

showpage

%%Trailer
%%EOF
