%!PS-Adobe-3.0 EPSF-3.0
%%Creator: MATLAB, The Mathworks, Inc. Version 7.7.0.471 (R2008b). Operating System: Microsoft Windows XP.
%%Title: Pictures\main_zoo_mvar_analysis_data_BMI_xcorr_bmi_p1_k1_1_6.eps
%%CreationDate: 10/26/2009  05:43:51
%%DocumentNeededFonts: Helvetica
%%DocumentProcessColors: Cyan Magenta Yellow Black
%%LanguageLevel: 2
%%Pages: 1
%%BoundingBox:    21   180   551   616
%%EndComments

%%BeginProlog
% MathWorks dictionary
/MathWorks 160 dict begin
% definition operators
/bdef {bind def} bind def
/ldef {load def} bind def
/xdef {exch def} bdef
/xstore {exch store} bdef
% operator abbreviations
/c  /clip ldef
/cc /concat ldef
/cp /closepath ldef
/gr /grestore ldef
/gs /gsave ldef
/mt /moveto ldef
/np /newpath ldef
/cm /currentmatrix ldef
/sm /setmatrix ldef
/rm /rmoveto ldef
/rl /rlineto ldef
/s {show newpath} bdef
/sc {setcmykcolor} bdef
/sr /setrgbcolor ldef
/sg /setgray ldef
/w /setlinewidth ldef
/j /setlinejoin ldef
/cap /setlinecap ldef
/rc {rectclip} bdef
/rf {rectfill} bdef
% page state control
/pgsv () def
/bpage {/pgsv save def} bdef
/epage {pgsv restore} bdef
/bplot /gsave ldef
/eplot {stroke grestore} bdef
% orientation switch
/portraitMode 0 def /landscapeMode 1 def /rotateMode 2 def
% coordinate system mappings
/dpi2point 0 def
% font control
/FontSize 0 def
/FMS {/FontSize xstore findfont [FontSize 0 0 FontSize neg 0 0]
  makefont setfont} bdef
/ISOLatin1Encoding where {pop /WindowsLatin1Encoding 256 array bdef
ISOLatin1Encoding WindowsLatin1Encoding copy pop
/.notdef/.notdef/quotesinglbase/florin/quotedblbase/ellipsis/dagger
/daggerdbl/circumflex/perthousand/Scaron/guilsinglleft/OE/.notdef/.notdef
/.notdef/.notdef/quoteleft/quoteright/quotedblleft/quotedblright/bullet
/endash/emdash/tilde/trademark/scaron/guilsinglright/oe/.notdef/.notdef
/Ydieresis WindowsLatin1Encoding 128 32 getinterval astore pop}
{/WindowsLatin1Encoding StandardEncoding bdef} ifelse
/reencode {exch dup where {pop load} {pop StandardEncoding} ifelse
  exch dup 3 1 roll findfont dup length dict begin
  { 1 index /FID ne {def}{pop pop} ifelse } forall
  /Encoding exch def currentdict end definefont pop} bdef
/isroman {findfont /CharStrings get /Agrave known} bdef
/FMSR {3 1 roll 1 index dup isroman {reencode} {pop pop} ifelse
  exch FMS} bdef
/csm {1 dpi2point div -1 dpi2point div scale neg translate
 dup landscapeMode eq {pop -90 rotate}
  {rotateMode eq {90 rotate} if} ifelse} bdef
% line types: solid, dotted, dashed, dotdash
/SO { [] 0 setdash } bdef
/DO { [.5 dpi2point mul 4 dpi2point mul] 0 setdash } bdef
/DA { [6 dpi2point mul] 0 setdash } bdef
/DD { [.5 dpi2point mul 4 dpi2point mul 6 dpi2point mul 4
  dpi2point mul] 0 setdash } bdef
% macros for lines and objects
/L {lineto stroke} bdef
/MP {3 1 roll moveto 1 sub {rlineto} repeat} bdef
/AP {{rlineto} repeat} bdef
/PDlw -1 def
/W {/PDlw currentlinewidth def setlinewidth} def
/PP {closepath eofill} bdef
/DP {closepath stroke} bdef
/MR {4 -2 roll moveto dup  0 exch rlineto exch 0 rlineto
  neg 0 exch rlineto closepath} bdef
/FR {MR stroke} bdef
/PR {MR fill} bdef
/L1i {{currentfile picstr readhexstring pop} image} bdef
/tMatrix matrix def
/MakeOval {newpath tMatrix currentmatrix pop translate scale
0 0 1 0 360 arc tMatrix setmatrix} bdef
/FO {MakeOval stroke} bdef
/PO {MakeOval fill} bdef
/PD {currentlinewidth 2 div 0 360 arc fill
   PDlw -1 eq not {PDlw w /PDlw -1 def} if} def
/FA {newpath tMatrix currentmatrix pop translate scale
  0 0 1 5 -2 roll arc tMatrix setmatrix stroke} bdef
/PA {newpath tMatrix currentmatrix pop	translate 0 0 moveto scale
  0 0 1 5 -2 roll arc closepath tMatrix setmatrix fill} bdef
/FAn {newpath tMatrix currentmatrix pop translate scale
  0 0 1 5 -2 roll arcn tMatrix setmatrix stroke} bdef
/PAn {newpath tMatrix currentmatrix pop translate 0 0 moveto scale
  0 0 1 5 -2 roll arcn closepath tMatrix setmatrix fill} bdef
/vradius 0 def /hradius 0 def /lry 0 def
/lrx 0 def /uly 0 def /ulx 0 def /rad 0 def
/MRR {/vradius xdef /hradius xdef /lry xdef /lrx xdef /uly xdef
  /ulx xdef newpath tMatrix currentmatrix pop ulx hradius add uly
  vradius add translate hradius vradius scale 0 0 1 180 270 arc 
  tMatrix setmatrix lrx hradius sub uly vradius add translate
  hradius vradius scale 0 0 1 270 360 arc tMatrix setmatrix
  lrx hradius sub lry vradius sub translate hradius vradius scale
  0 0 1 0 90 arc tMatrix setmatrix ulx hradius add lry vradius sub
  translate hradius vradius scale 0 0 1 90 180 arc tMatrix setmatrix
  closepath} bdef
/FRR {MRR stroke } bdef
/PRR {MRR fill } bdef
/MlrRR {/lry xdef /lrx xdef /uly xdef /ulx xdef /rad lry uly sub 2 div def
  newpath tMatrix currentmatrix pop ulx rad add uly rad add translate
  rad rad scale 0 0 1 90 270 arc tMatrix setmatrix lrx rad sub lry rad
  sub translate rad rad scale 0 0 1 270 90 arc tMatrix setmatrix
  closepath} bdef
/FlrRR {MlrRR stroke } bdef
/PlrRR {MlrRR fill } bdef
/MtbRR {/lry xdef /lrx xdef /uly xdef /ulx xdef /rad lrx ulx sub 2 div def
  newpath tMatrix currentmatrix pop ulx rad add uly rad add translate
  rad rad scale 0 0 1 180 360 arc tMatrix setmatrix lrx rad sub lry rad
  sub translate rad rad scale 0 0 1 0 180 arc tMatrix setmatrix
  closepath} bdef
/FtbRR {MtbRR stroke } bdef
/PtbRR {MtbRR fill } bdef
/stri 6 array def /dtri 6 array def
/smat 6 array def /dmat 6 array def
/tmat1 6 array def /tmat2 6 array def /dif 3 array def
/asub {/ind2 exch def /ind1 exch def dup dup
  ind1 get exch ind2 get sub exch } bdef
/tri_to_matrix {
  2 0 asub 3 1 asub 4 0 asub 5 1 asub
  dup 0 get exch 1 get 7 -1 roll astore } bdef
/compute_transform {
  dmat dtri tri_to_matrix tmat1 invertmatrix 
  smat stri tri_to_matrix tmat2 concatmatrix } bdef
/ds {stri astore pop} bdef
/dt {dtri astore pop} bdef
/db {2 copy /cols xdef /rows xdef mul dup 3 mul string
  currentfile 
  3 index 0 eq {/ASCIIHexDecode filter}
  {/ASCII85Decode filter 3 index 2 eq {/RunLengthDecode filter} if }
  ifelse exch readstring pop
  dup 0 3 index getinterval /rbmap xdef
  dup 2 index dup getinterval /gbmap xdef
  1 index dup 2 mul exch getinterval /bbmap xdef pop pop}bdef
/it {gs np dtri aload pop moveto lineto lineto cp c
  cols rows 8 compute_transform 
  rbmap gbmap bbmap true 3 colorimage gr}bdef
/il {newpath moveto lineto stroke}bdef
currentdict end def
%%EndProlog

%%BeginSetup
MathWorks begin

0 cap

end
%%EndSetup

%%Page: 1 1
%%BeginPageSetup
%%PageBoundingBox:    21   180   551   616
MathWorks begin
bpage
%%EndPageSetup

%%BeginObject: obj1
bplot

/dpi2point 12 def
portraitMode 0216 7344 csm

   40   -48  6363  5231 rc
85 dict begin %Colortable dictionary
/c0 { 0.000000 0.000000 0.000000 sr} bdef
/c1 { 1.000000 1.000000 1.000000 sr} bdef
/c2 { 0.900000 0.000000 0.000000 sr} bdef
/c3 { 0.000000 0.820000 0.000000 sr} bdef
/c4 { 0.000000 0.000000 0.800000 sr} bdef
/c5 { 0.910000 0.820000 0.320000 sr} bdef
/c6 { 1.000000 0.260000 0.820000 sr} bdef
/c7 { 0.000000 0.820000 0.820000 sr} bdef
c0
1 j
1 sg
   0    0 6919 5187 rf
6 w
0 4202 5362 0 0 -4202 899 4616 4 MP
PP
-5362 0 0 4202 5362 0 0 -4202 899 4616 5 MP stroke
4 w
DO
SO
6 w
0 sg
 899  414 mt 6261  414 L
 899 4616 mt 6261 4616 L
6261 4616 mt 6261  414 L
 899 4616 mt  899  414 L
 899 4616 mt 6261 4616 L
 899 4616 mt  899  414 L
1780 4616 mt 1780 4562 L
1780  414 mt 1780  467 L
%%IncludeResource: font Helvetica
/Helvetica /WindowsLatin1Encoding 240 FMSR

1614 4873 mt 
(0.1) s
2661 4616 mt 2661 4562 L
2661  414 mt 2661  467 L
2495 4873 mt 
(0.2) s
3543 4616 mt 3543 4562 L
3543  414 mt 3543  467 L
3377 4873 mt 
(0.3) s
4424 4616 mt 4424 4562 L
4424  414 mt 4424  467 L
4258 4873 mt 
(0.4) s
5305 4616 mt 5305 4562 L
5305  414 mt 5305  467 L
5139 4873 mt 
(0.5) s
6187 4616 mt 6187 4562 L
6187  414 mt 6187  467 L
6021 4873 mt 
(0.6) s
 899 3988 mt  952 3988 L
6261 3988 mt 6207 3988 L
 397 4077 mt 
(0.05) s
 899 3360 mt  952 3360 L
6261 3360 mt 6207 3360 L
 531 3449 mt 
(0.1) s
 899 2733 mt  952 2733 L
6261 2733 mt 6207 2733 L
 397 2822 mt 
(0.15) s
 899 2105 mt  952 2105 L
6261 2105 mt 6207 2105 L
 531 2194 mt 
(0.2) s
 899 1478 mt  952 1478 L
6261 1478 mt 6207 1478 L
 397 1567 mt 
(0.25) s
 899  850 mt  952  850 L
6261  850 mt 6207  850 L
 531  939 mt 
(0.3) s
 899  414 mt 6261  414 L
 899 4616 mt 6261 4616 L
6261 4616 mt 6261  414 L
 899 4616 mt  899  414 L
gs 899 414 5363 4203 rc
gr

/c8 { 0.000000 0.000000 1.000000 sr} bdef
c8
3752 4558 mt 3824 4558 L
3788 4522 mt 3788 4594 L
 957 3459 mt 1029 3459 L
 993 3423 mt  993 3495 L
2642 4124 mt 2714 4124 L
2678 4088 mt 2678 4160 L
1600 3327 mt 1672 3327 L
1636 3291 mt 1636 3363 L
 865 4096 mt  937 4096 L
 901 4060 mt  901 4132 L
2972 4236 mt 3044 4236 L
3008 4200 mt 3008 4272 L
1286 4555 mt 1358 4555 L
1322 4519 mt 1322 4591 L
1206 4470 mt 1278 4470 L
1242 4434 mt 1242 4506 L
4075 4296 mt 4147 4296 L
4111 4260 mt 4111 4332 L
4851 4464 mt 4923 4464 L
4887 4428 mt 4887 4500 L
1125  414 mt 1197  414 L
1161  378 mt 1161  450 L
 865 4158 mt  937 4158 L
 901 4122 mt  901 4194 L
1333 3795 mt 1405 3795 L
1369 3759 mt 1369 3831 L
1109 4095 mt 1181 4095 L
1145 4059 mt 1145 4131 L
3199 4605 mt 3271 4605 L
3235 4569 mt 3235 4641 L
3649 2319 mt 3721 2319 L
3685 2283 mt 3685 2355 L
1154 3405 mt 1226 3405 L
1190 3369 mt 1190 3441 L
1315 4516 mt 1387 4516 L
1351 4480 mt 1351 4552 L
 928 4075 mt 1000 4075 L
 964 4039 mt  964 4111 L
2519 3463 mt 2591 3463 L
2555 3427 mt 2555 3499 L
3599 4323 mt 3671 4323 L
3635 4287 mt 3635 4359 L
1332 4525 mt 1404 4525 L
1368 4489 mt 1368 4561 L
 954 2751 mt 1026 2751 L
 990 2715 mt  990 2787 L
1295 4114 mt 1367 4114 L
1331 4078 mt 1331 4150 L
5473 4495 mt 5545 4495 L
5509 4459 mt 5509 4531 L
1820 4518 mt 1892 4518 L
1856 4482 mt 1856 4554 L
1429 4411 mt 1501 4411 L
1465 4375 mt 1465 4447 L
3458 4546 mt 3530 4546 L
3494 4510 mt 3494 4582 L
 863 4553 mt  935 4553 L
 899 4517 mt  899 4589 L
1905 4613 mt 1977 4613 L
1941 4577 mt 1941 4649 L
 883 4250 mt  955 4250 L
 919 4214 mt  919 4286 L
1810 3047 mt 1882 3047 L
1846 3011 mt 1846 3083 L
1565 3640 mt 1637 3640 L
1601 3604 mt 1601 3676 L
 866 4396 mt  938 4396 L
 902 4360 mt  902 4432 L
1974 4363 mt 2046 4363 L
2010 4327 mt 2010 4399 L
 973 3075 mt 1045 3075 L
1009 3039 mt 1009 3111 L
2959 4222 mt 3031 4222 L
2995 4186 mt 2995 4258 L
1845 3165 mt 1917 3165 L
1881 3129 mt 1881 3201 L
1190 2015 mt 1262 2015 L
1226 1979 mt 1226 2051 L
1522 4082 mt 1594 4082 L
1558 4046 mt 1558 4118 L
 868 4290 mt  940 4290 L
 904 4254 mt  904 4326 L
1076 2092 mt 1148 2092 L
1112 2056 mt 1112 2128 L
1134 3496 mt 1206 3496 L
1170 3460 mt 1170 3532 L
3748 4368 mt 3820 4368 L
3784 4332 mt 3784 4404 L
5783 3885 mt 5855 3885 L
5819 3849 mt 5819 3921 L
 961 4162 mt 1033 4162 L
 997 4126 mt  997 4198 L
1131 4610 mt 1203 4610 L
1167 4574 mt 1167 4646 L
1480 4615 mt 1552 4615 L
1516 4579 mt 1516 4651 L
3989 3800 mt 4061 3800 L
4025 3764 mt 4025 3836 L
 907 3407 mt  979 3407 L
 943 3371 mt  943 3443 L
3190 4597 mt 3262 4597 L
3226 4561 mt 3226 4633 L
1169 3901 mt 1241 3901 L
1205 3865 mt 1205 3937 L
1586 2565 mt 1658 2565 L
1622 2529 mt 1622 2601 L
1387 2932 mt 1459 2932 L
1423 2896 mt 1423 2968 L
3538 4542 mt 3610 4542 L
3574 4506 mt 3574 4578 L
 888 4119 mt  960 4119 L
 924 4083 mt  924 4155 L
 876 2934 mt  948 2934 L
 912 2898 mt  912 2970 L
1748 4051 mt 1820 4051 L
1784 4015 mt 1784 4087 L
4388 3479 mt 4460 3479 L
4424 3443 mt 4424 3515 L
1035 4268 mt 1107 4268 L
1071 4232 mt 1071 4304 L
2500 4615 mt 2572 4615 L
2536 4579 mt 2536 4651 L
3723 4613 mt 3795 4613 L
3759 4577 mt 3759 4649 L
 868 4596 mt  940 4596 L
 904 4560 mt  904 4632 L
3553 4480 mt 3625 4480 L
3589 4444 mt 3589 4516 L
3201 3668 mt 3273 3668 L
3237 3632 mt 3237 3704 L
 863 4214 mt  935 4214 L
 899 4178 mt  899 4250 L
3218 4610 mt 3290 4610 L
3254 4574 mt 3254 4646 L
 960 3588 mt 1032 3588 L
 996 3552 mt  996 3624 L
 944 4492 mt 1016 4492 L
 980 4456 mt  980 4528 L
1609 4573 mt 1681 4573 L
1645 4537 mt 1645 4609 L
3962 3934 mt 4034 3934 L
3998 3898 mt 3998 3970 L
3025 4220 mt 3097 4220 L
3061 4184 mt 3061 4256 L
5255 4497 mt 5327 4497 L
5291 4461 mt 5291 4533 L
1221 4302 mt 1293 4302 L
1257 4266 mt 1257 4338 L
2596 4132 mt 2668 4132 L
2632 4096 mt 2632 4168 L
 866 3760 mt  938 3760 L
 902 3724 mt  902 3796 L
4067 3603 mt 4139 3603 L
4103 3567 mt 4103 3639 L
1138 4407 mt 1210 4407 L
1174 4371 mt 1174 4443 L
1113 3446 mt 1185 3446 L
1149 3410 mt 1149 3482 L
4545 4424 mt 4617 4424 L
4581 4388 mt 4581 4460 L
2705 3094 mt 2777 3094 L
2741 3058 mt 2741 3130 L
1609 4110 mt 1681 4110 L
1645 4074 mt 1645 4146 L
2137 3312 mt 2209 3312 L
2173 3276 mt 2173 3348 L
 869 3572 mt  941 3572 L
 905 3536 mt  905 3608 L
5209 4609 mt 5281 4609 L
5245 4573 mt 5245 4645 L
1421 4612 mt 1493 4612 L
1457 4576 mt 1457 4648 L
2269 2219 mt 2341 2219 L
2305 2183 mt 2305 2255 L
4996 4567 mt 5068 4567 L
5032 4531 mt 5032 4603 L
 995 4421 mt 1067 4421 L
1031 4385 mt 1031 4457 L
5078 4515 mt 5150 4515 L
5114 4479 mt 5114 4551 L
1928 3996 mt 2000 3996 L
1964 3960 mt 1964 4032 L
1616 4536 mt 1688 4536 L
1652 4500 mt 1652 4572 L
 867 3699 mt  939 3699 L
 903 3663 mt  903 3735 L
1058 2420 mt 1130 2420 L
1094 2384 mt 1094 2456 L
2892 4307 mt 2964 4307 L
2928 4271 mt 2928 4343 L
2279 4308 mt 2351 4308 L
2315 4272 mt 2315 4344 L
4504 3851 mt 4576 3851 L
4540 3815 mt 4540 3887 L
4166 2380 mt 4238 2380 L
4202 2344 mt 4202 2416 L
4425 4615 mt 4497 4615 L
4461 4579 mt 4461 4651 L
4146 4613 mt 4218 4613 L
4182 4577 mt 4182 4649 L
1521 3109 mt 1593 3109 L
1557 3073 mt 1557 3145 L
 898 3370 mt  970 3370 L
 934 3334 mt  934 3406 L
4313 4237 mt 4385 4237 L
4349 4201 mt 4349 4273 L
2295 4598 mt 2367 4598 L
2331 4562 mt 2331 4634 L
6056 4537 mt 6128 4537 L
6092 4501 mt 6092 4573 L
 963 4539 mt 1035 4539 L
 999 4503 mt  999 4575 L
2224 4492 mt 2296 4492 L
2260 4456 mt 2260 4528 L
1159 1608 mt 1231 1608 L
1195 1572 mt 1195 1644 L
 868 4614 mt  940 4614 L
 904 4578 mt  904 4650 L
3102 3056 mt 3174 3056 L
3138 3020 mt 3138 3092 L
5354 2679 mt 5426 2679 L
5390 2643 mt 5390 2715 L
1533 4300 mt 1605 4300 L
1569 4264 mt 1569 4336 L
1414 4489 mt 1486 4489 L
1450 4453 mt 1450 4525 L
 866 4463 mt  938 4463 L
 902 4427 mt  902 4499 L
1240 4187 mt 1312 4187 L
1276 4151 mt 1276 4223 L
 900 4205 mt  972 4205 L
 936 4169 mt  936 4241 L
1112 2229 mt 1184 2229 L
1148 2193 mt 1148 2265 L
1099 4588 mt 1171 4588 L
1135 4552 mt 1135 4624 L
2221 4156 mt 2293 4156 L
2257 4120 mt 2257 4192 L
1040 3531 mt 1112 3531 L
1076 3495 mt 1076 3567 L
4678 4538 mt 4750 4538 L
4714 4502 mt 4714 4574 L
2111 4602 mt 2183 4602 L
2147 4566 mt 2147 4638 L
 943 2861 mt 1015 2861 L
 979 2825 mt  979 2897 L
1378 3217 mt 1450 3217 L
1414 3181 mt 1414 3253 L
 956 2789 mt 1028 2789 L
 992 2753 mt  992 2825 L
3381 4545 mt 3453 4545 L
3417 4509 mt 3417 4581 L
1088 4459 mt 1160 4459 L
1124 4423 mt 1124 4495 L
1410 3364 mt 1482 3364 L
1446 3328 mt 1446 3400 L
1618 4363 mt 1690 4363 L
1654 4327 mt 1654 4399 L
2229 4076 mt 2301 4076 L
2265 4040 mt 2265 4112 L
4322 4396 mt 4394 4396 L
4358 4360 mt 4358 4432 L
 863 4132 mt  935 4132 L
 899 4096 mt  899 4168 L
1169 3314 mt 1241 3314 L
1205 3278 mt 1205 3350 L
 876 4115 mt  948 4115 L
 912 4079 mt  912 4151 L
 919 4593 mt  991 4593 L
 955 4557 mt  955 4629 L
1291 4237 mt 1363 4237 L
1327 4201 mt 1327 4273 L
 949 4607 mt 1021 4607 L
 985 4571 mt  985 4643 L
 881 4473 mt  953 4473 L
 917 4437 mt  917 4509 L
 863 2480 mt  935 2480 L
 899 2444 mt  899 2516 L
1072 3223 mt 1144 3223 L
1108 3187 mt 1108 3259 L
 907 4511 mt  979 4511 L
 943 4475 mt  943 4547 L
1365 4132 mt 1437 4132 L
1401 4096 mt 1401 4168 L
3283 4533 mt 3355 4533 L
3319 4497 mt 3319 4569 L
1038 4359 mt 1110 4359 L
1074 4323 mt 1074 4395 L
1935 4140 mt 2007 4140 L
1971 4104 mt 1971 4176 L
3282 3742 mt 3354 3742 L
3318 3706 mt 3318 3778 L
 871 4561 mt  943 4561 L
 907 4525 mt  907 4597 L
2691 4611 mt 2763 4611 L
2727 4575 mt 2727 4647 L
4725 4500 mt 4797 4500 L
4761 4464 mt 4761 4536 L
 863 3289 mt  935 3289 L
 899 3253 mt  899 3325 L
3889 3705 mt 3961 3705 L
3925 3669 mt 3925 3741 L
1255 4516 mt 1327 4516 L
1291 4480 mt 1291 4552 L
 871 3391 mt  943 3391 L
 907 3355 mt  907 3427 L
1435 3798 mt 1507 3798 L
1471 3762 mt 1471 3834 L
 903 4470 mt  975 4470 L
 939 4434 mt  939 4506 L
1587 4557 mt 1659 4557 L
1623 4521 mt 1623 4593 L
1856 4506 mt 1928 4506 L
1892 4470 mt 1892 4542 L
2451 4327 mt 2523 4327 L
2487 4291 mt 2487 4363 L
1016 2095 mt 1088 2095 L
1052 2059 mt 1052 2131 L
4008 4330 mt 4080 4330 L
4044 4294 mt 4044 4366 L
3021 4285 mt 3093 4285 L
3057 4249 mt 3057 4321 L
1966 4494 mt 2038 4494 L
2002 4458 mt 2002 4530 L
3174 4420 mt 3246 4420 L
3210 4384 mt 3210 4456 L
1021 4014 mt 1093 4014 L
1057 3978 mt 1057 4050 L
4459 4566 mt 4531 4566 L
4495 4530 mt 4495 4602 L
1177 4467 mt 1249 4467 L
1213 4431 mt 1213 4503 L
2507 4596 mt 2579 4596 L
2543 4560 mt 2543 4632 L
3995 4313 mt 4067 4313 L
4031 4277 mt 4031 4349 L
 910 4575 mt  982 4575 L
 946 4539 mt  946 4611 L
 953 4448 mt 1025 4448 L
 989 4412 mt  989 4484 L
1217 4228 mt 1289 4228 L
1253 4192 mt 1253 4264 L
2961 4389 mt 3033 4389 L
2997 4353 mt 2997 4425 L
 996 3976 mt 1068 3976 L
1032 3940 mt 1032 4012 L
1322 4612 mt 1394 4612 L
1358 4576 mt 1358 4648 L
1783 4331 mt 1855 4331 L
1819 4295 mt 1819 4367 L
 894 4064 mt  966 4064 L
 930 4028 mt  930 4100 L
 975 3330 mt 1047 3330 L
1011 3294 mt 1011 3366 L
5720 4607 mt 5792 4607 L
5756 4571 mt 5756 4643 L
1658 4447 mt 1730 4447 L
1694 4411 mt 1694 4483 L
2043 4588 mt 2115 4588 L
2079 4552 mt 2079 4624 L
1536 4593 mt 1608 4593 L
1572 4557 mt 1572 4629 L
2452 2821 mt 2524 2821 L
2488 2785 mt 2488 2857 L
 868 4513 mt  940 4513 L
 904 4477 mt  904 4549 L
1428 2826 mt 1500 2826 L
1464 2790 mt 1464 2862 L
 905 4050 mt  977 4050 L
 941 4014 mt  941 4086 L
 869 4581 mt  941 4581 L
 905 4545 mt  905 4617 L
1801 4597 mt 1873 4597 L
1837 4561 mt 1837 4633 L
1333 4614 mt 1405 4614 L
1369 4578 mt 1369 4650 L
 906 3721 mt  978 3721 L
 942 3685 mt  942 3757 L
2101 4616 mt 2173 4616 L
2137 4580 mt 2137 4652 L
 874 4604 mt  946 4604 L
 910 4568 mt  910 4640 L
 868 3929 mt  940 3929 L
 904 3893 mt  904 3965 L
 872 4458 mt  944 4458 L
 908 4422 mt  908 4494 L
4463 4084 mt 4535 4084 L
4499 4048 mt 4499 4120 L
2323 2414 mt 2395 2414 L
2359 2378 mt 2359 2450 L
2217 4533 mt 2289 4533 L
2253 4497 mt 2253 4569 L
 911 3966 mt  983 3966 L
 947 3930 mt  947 4002 L
1110 4545 mt 1182 4545 L
1146 4509 mt 1146 4581 L
 943 4598 mt 1015 4598 L
 979 4562 mt  979 4634 L
3124 4291 mt 3196 4291 L
3160 4255 mt 3160 4327 L
2742 4488 mt 2814 4488 L
2778 4452 mt 2778 4524 L
1637 4615 mt 1709 4615 L
1673 4579 mt 1673 4651 L
4537 4612 mt 4609 4612 L
4573 4576 mt 4573 4648 L
1076 2890 mt 1148 2890 L
1112 2854 mt 1112 2926 L
 864 4288 mt  936 4288 L
 900 4252 mt  900 4324 L
2266 3495 mt 2338 3495 L
2302 3459 mt 2302 3531 L
1578 4173 mt 1650 4173 L
1614 4137 mt 1614 4209 L
1478 4445 mt 1550 4445 L
1514 4409 mt 1514 4481 L
5353 4371 mt 5425 4371 L
5389 4335 mt 5389 4407 L
4400 4585 mt 4472 4585 L
4436 4549 mt 4436 4621 L
2033 4079 mt 2105 4079 L
2069 4043 mt 2069 4115 L
 888 4250 mt  960 4250 L
 924 4214 mt  924 4286 L
2385 4373 mt 2457 4373 L
2421 4337 mt 2421 4409 L
1085 4611 mt 1157 4611 L
1121 4575 mt 1121 4647 L
2875 4614 mt 2947 4614 L
2911 4578 mt 2911 4650 L
4956 3014 mt 5028 3014 L
4992 2978 mt 4992 3050 L
2027 4376 mt 2099 4376 L
2063 4340 mt 2063 4412 L
 951 4337 mt 1023 4337 L
 987 4301 mt  987 4373 L
 975 3661 mt 1047 3661 L
1011 3625 mt 1011 3697 L
2487 3403 mt 2559 3403 L
2523 3367 mt 2523 3439 L
3251 4615 mt 3323 4615 L
3287 4579 mt 3287 4651 L
1842 4275 mt 1914 4275 L
1878 4239 mt 1878 4311 L
 956 3464 mt 1028 3464 L
 992 3428 mt  992 3500 L
2006 4352 mt 2078 4352 L
2042 4316 mt 2042 4388 L
1985 4286 mt 2057 4286 L
2021 4250 mt 2021 4322 L
1798 4455 mt 1870 4455 L
1834 4419 mt 1834 4491 L
2126 4210 mt 2198 4210 L
2162 4174 mt 2162 4246 L
2882 4445 mt 2954 4445 L
2918 4409 mt 2918 4481 L
1595 4236 mt 1667 4236 L
1631 4200 mt 1631 4272 L
1020 4576 mt 1092 4576 L
1056 4540 mt 1056 4612 L
 900 3940 mt  972 3940 L
 936 3904 mt  936 3976 L
1555 3315 mt 1627 3315 L
1591 3279 mt 1591 3351 L
2118 2768 mt 2190 2768 L
2154 2732 mt 2154 2804 L
1165 4545 mt 1237 4545 L
1201 4509 mt 1201 4581 L
1248 4539 mt 1320 4539 L
1284 4503 mt 1284 4575 L
1410 2800 mt 1482 2800 L
1446 2764 mt 1446 2836 L
2593 4385 mt 2665 4385 L
2629 4349 mt 2629 4421 L
3758 4250 mt 3830 4250 L
3794 4214 mt 3794 4286 L
1530 3058 mt 1602 3058 L
1566 3022 mt 1566 3094 L
 869 4568 mt  941 4568 L
 905 4532 mt  905 4604 L
1178 3653 mt 1250 3653 L
1214 3617 mt 1214 3689 L
1253 2811 mt 1325 2811 L
1289 2775 mt 1289 2847 L
1486 4480 mt 1558 4480 L
1522 4444 mt 1522 4516 L
4673 4531 mt 4745 4531 L
4709 4495 mt 4709 4567 L
6225 2791 mt 6297 2791 L
6261 2755 mt 6261 2827 L
1707 3888 mt 1779 3888 L
1743 3852 mt 1743 3924 L
1148 4366 mt 1220 4366 L
1184 4330 mt 1184 4402 L
2347 4435 mt 2419 4435 L
2383 4399 mt 2383 4471 L
4001 4503 mt 4073 4503 L
4037 4467 mt 4037 4539 L
1039 4373 mt 1111 4373 L
1075 4337 mt 1075 4409 L
3478 4524 mt 3550 4524 L
3514 4488 mt 3514 4560 L
1352 4067 mt 1424 4067 L
1388 4031 mt 1388 4103 L
1080 2592 mt 1152 2592 L
1116 2556 mt 1116 2628 L
1701 4133 mt 1773 4133 L
1737 4097 mt 1737 4169 L
2998 4498 mt 3070 4498 L
3034 4462 mt 3034 4534 L
1019 4050 mt 1091 4050 L
1055 4014 mt 1055 4086 L
1027 4525 mt 1099 4525 L
1063 4489 mt 1063 4561 L
2140 4267 mt 2212 4267 L
2176 4231 mt 2176 4303 L
4395 3772 mt 4467 3772 L
4431 3736 mt 4431 3808 L
1092 4292 mt 1164 4292 L
1128 4256 mt 1128 4328 L
2239 3789 mt 2311 3789 L
2275 3753 mt 2275 3825 L
3274 4615 mt 3346 4615 L
3310 4579 mt 3310 4651 L
1313 4615 mt 1385 4615 L
1349 4579 mt 1349 4651 L
4984 4281 mt 5056 4281 L
5020 4245 mt 5020 4317 L
 863 4594 mt  935 4594 L
 899 4558 mt  899 4630 L
 922 4112 mt  994 4112 L
 958 4076 mt  958 4148 L
1583 4613 mt 1655 4613 L
1619 4577 mt 1619 4649 L
 901 4495 mt  973 4495 L
 937 4459 mt  937 4531 L
1164 4505 mt 1236 4505 L
1200 4469 mt 1200 4541 L
 882 4575 mt  954 4575 L
 918 4539 mt  918 4611 L
4257 4290 mt 4329 4290 L
4293 4254 mt 4293 4326 L
2607 4614 mt 2679 4614 L
2643 4578 mt 2643 4650 L
5354 4445 mt 5426 4445 L
5390 4409 mt 5390 4481 L
 931 4329 mt 1003 4329 L
 967 4293 mt  967 4365 L
2831 4276 mt 2903 4276 L
2867 4240 mt 2867 4312 L
1725 3794 mt 1797 3794 L
1761 3758 mt 1761 3830 L
4496 3231 mt 4568 3231 L
4532 3195 mt 4532 3267 L
 917 4585 mt  989 4585 L
 953 4549 mt  953 4621 L
1702 4344 mt 1774 4344 L
1738 4308 mt 1738 4380 L
5247 4603 mt 5319 4603 L
5283 4567 mt 5283 4639 L
3458  519 mt 3530  519 L
3494  483 mt 3494  555 L
1974 4450 mt 2046 4450 L
2010 4414 mt 2010 4486 L
2182 3279 mt 2254 3279 L
2218 3243 mt 2218 3315 L
1286 4411 mt 1358 4411 L
1322 4375 mt 1322 4447 L
4071 4552 mt 4143 4552 L
4107 4516 mt 4107 4588 L
1885 4587 mt 1957 4587 L
1921 4551 mt 1921 4623 L
3256 2665 mt 3328 2665 L
3292 2629 mt 3292 2701 L
4450 4557 mt 4522 4557 L
4486 4521 mt 4486 4593 L
 891 4501 mt  963 4501 L
 927 4465 mt  927 4537 L
4364 4609 mt 4436 4609 L
4400 4573 mt 4400 4645 L
2288 4596 mt 2360 4596 L
2324 4560 mt 2324 4632 L
2192 4474 mt 2264 4474 L
2228 4438 mt 2228 4510 L
 926 4173 mt  998 4173 L
 962 4137 mt  962 4209 L
3509 3667 mt 3581 3667 L
3545 3631 mt 3545 3703 L
2428 4380 mt 2500 4380 L
2464 4344 mt 2464 4416 L
1510 4156 mt 1582 4156 L
1546 4120 mt 1546 4192 L
3550 4405 mt 3622 4405 L
3586 4369 mt 3586 4441 L
4625 4326 mt 4697 4326 L
4661 4290 mt 4661 4362 L
4936 4587 mt 5008 4587 L
4972 4551 mt 4972 4623 L
3793 4602 mt 3865 4602 L
3829 4566 mt 3829 4638 L
1752 4286 mt 1824 4286 L
1788 4250 mt 1788 4322 L
1344 4611 mt 1416 4611 L
1380 4575 mt 1380 4647 L
4946 3637 mt 5018 3637 L
4982 3601 mt 4982 3673 L
1887 4601 mt 1959 4601 L
1923 4565 mt 1923 4637 L
4490 4510 mt 4562 4510 L
4526 4474 mt 4526 4546 L
1540 4568 mt 1612 4568 L
1576 4532 mt 1576 4604 L
2476 4178 mt 2548 4178 L
2512 4142 mt 2512 4214 L
1279 2901 mt 1351 2901 L
1315 2865 mt 1315 2937 L
1430 4060 mt 1502 4060 L
1466 4024 mt 1466 4096 L
3108 3957 mt 3180 3957 L
3144 3921 mt 3144 3993 L
5973 2561 mt 6045 2561 L
6009 2525 mt 6009 2597 L
 944 4554 mt 1016 4554 L
 980 4518 mt  980 4590 L
 925 4395 mt  997 4395 L
 961 4359 mt  961 4431 L
1291 4602 mt 1363 4602 L
1327 4566 mt 1327 4638 L
1389 4606 mt 1461 4606 L
1425 4570 mt 1425 4642 L
1136 4120 mt 1208 4120 L
1172 4084 mt 1172 4156 L
1205 4567 mt 1277 4567 L
1241 4531 mt 1241 4603 L
2626 3618 mt 2698 3618 L
2662 3582 mt 2662 3654 L
2027 4469 mt 2099 4469 L
2063 4433 mt 2063 4505 L
1136 3878 mt 1208 3878 L
1172 3842 mt 1172 3914 L
5073 4399 mt 5145 4399 L
5109 4363 mt 5109 4435 L
2673 4250 mt 2745 4250 L
2709 4214 mt 2709 4286 L
1120 3062 mt 1192 3062 L
1156 3026 mt 1156 3098 L
2172 4288 mt 2244 4288 L
2208 4252 mt 2208 4324 L
 867 4345 mt  939 4345 L
 903 4309 mt  903 4381 L
4807 4449 mt 4879 4449 L
4843 4413 mt 4843 4485 L
1334 4550 mt 1406 4550 L
1370 4514 mt 1370 4586 L
1233 3619 mt 1305 3619 L
1269 3583 mt 1269 3655 L
1935 4585 mt 2007 4585 L
1971 4549 mt 1971 4621 L
2329 4393 mt 2401 4393 L
2365 4357 mt 2365 4429 L
4785 4610 mt 4857 4610 L
4821 4574 mt 4821 4646 L
1236 4347 mt 1308 4347 L
1272 4311 mt 1272 4383 L
1474 3140 mt 1546 3140 L
1510 3104 mt 1510 3176 L
 911 3776 mt  983 3776 L
 947 3740 mt  947 3812 L
1151 4264 mt 1223 4264 L
1187 4228 mt 1187 4300 L
 987 4316 mt 1059 4316 L
1023 4280 mt 1023 4352 L
1162 4381 mt 1234 4381 L
1198 4345 mt 1198 4417 L
 891 4361 mt  963 4361 L
 927 4325 mt  927 4397 L
1382 2189 mt 1454 2189 L
1418 2153 mt 1418 2225 L
1838 4615 mt 1910 4615 L
1874 4579 mt 1874 4651 L
 908 4158 mt  980 4158 L
 944 4122 mt  944 4194 L
1090 4536 mt 1162 4536 L
1126 4500 mt 1126 4572 L
4006 4542 mt 4078 4542 L
4042 4506 mt 4042 4578 L
 880 4546 mt  952 4546 L
 916 4510 mt  916 4582 L
1105 4608 mt 1177 4608 L
1141 4572 mt 1141 4644 L
3606 4486 mt 3678 4486 L
3642 4450 mt 3642 4522 L
 998 4615 mt 1070 4615 L
1034 4579 mt 1034 4651 L
3165 4571 mt 3237 4571 L
3201 4535 mt 3201 4607 L
3706 4594 mt 3778 4594 L
3742 4558 mt 3742 4630 L
1249 2233 mt 1321 2233 L
1285 2197 mt 1285 2269 L
5370 3686 mt 5442 3686 L
5406 3650 mt 5406 3722 L
1451 3621 mt 1523 3621 L
1487 3585 mt 1487 3657 L
 868 3614 mt  940 3614 L
 904 3578 mt  904 3650 L
1014 4202 mt 1086 4202 L
1050 4166 mt 1050 4238 L
 864 4037 mt  936 4037 L
 900 4001 mt  900 4073 L
1937 4560 mt 2009 4560 L
1973 4524 mt 1973 4596 L
2581 4544 mt 2653 4544 L
2617 4508 mt 2617 4580 L
2832 4169 mt 2904 4169 L
2868 4133 mt 2868 4205 L
 986 4273 mt 1058 4273 L
1022 4237 mt 1022 4309 L
4243 4587 mt 4315 4587 L
4279 4551 mt 4279 4623 L
1488 4561 mt 1560 4561 L
1524 4525 mt 1524 4597 L
1837 3988 mt 1909 3988 L
1873 3952 mt 1873 4024 L
1791 4440 mt 1863 4440 L
1827 4404 mt 1827 4476 L
1016 4598 mt 1088 4598 L
1052 4562 mt 1052 4634 L
4548 3269 mt 4620 3269 L
4584 3233 mt 4584 3305 L
1315 3773 mt 1387 3773 L
1351 3737 mt 1351 3809 L
2974 4595 mt 3046 4595 L
3010 4559 mt 3010 4631 L
3839 3474 mt 3911 3474 L
3875 3438 mt 3875 3510 L
 887 4216 mt  959 4216 L
 923 4180 mt  923 4252 L
 872 4037 mt  944 4037 L
 908 4001 mt  908 4073 L
1636 4406 mt 1708 4406 L
1672 4370 mt 1672 4442 L
3264 3966 mt 3336 3966 L
3300 3930 mt 3300 4002 L
 979 4607 mt 1051 4607 L
1015 4571 mt 1015 4643 L
2467 4571 mt 2539 4571 L
2503 4535 mt 2503 4607 L
2789 4403 mt 2861 4403 L
2825 4367 mt 2825 4439 L
1316 3347 mt 1388 3347 L
1352 3311 mt 1352 3383 L
1619 4242 mt 1691 4242 L
1655 4206 mt 1655 4278 L
5924 4298 mt 5996 4298 L
5960 4262 mt 5960 4334 L
1112 4551 mt 1184 4551 L
1148 4515 mt 1148 4587 L
3282 4614 mt 3354 4614 L
3318 4578 mt 3318 4650 L
1455 4204 mt 1527 4204 L
1491 4168 mt 1491 4240 L
1879 3423 mt 1951 3423 L
1915 3387 mt 1915 3459 L
1035 4511 mt 1107 4511 L
1071 4475 mt 1071 4547 L
1067 3783 mt 1139 3783 L
1103 3747 mt 1103 3819 L
1029 4102 mt 1101 4102 L
1065 4066 mt 1065 4138 L
 866 4330 mt  938 4330 L
 902 4294 mt  902 4366 L
2689 4428 mt 2761 4428 L
2725 4392 mt 2725 4464 L
1545 4308 mt 1617 4308 L
1581 4272 mt 1581 4344 L
1544 4575 mt 1616 4575 L
1580 4539 mt 1580 4611 L
1793 4611 mt 1865 4611 L
1829 4575 mt 1829 4647 L
1573 4067 mt 1645 4067 L
1609 4031 mt 1609 4103 L
1062 4470 mt 1134 4470 L
1098 4434 mt 1098 4506 L
1053 4574 mt 1125 4574 L
1089 4538 mt 1089 4610 L
3293 4609 mt 3365 4609 L
3329 4573 mt 3329 4645 L
2333 4494 mt 2405 4494 L
2369 4458 mt 2369 4530 L
1384 4408 mt 1456 4408 L
1420 4372 mt 1420 4444 L
 929 4314 mt 1001 4314 L
 965 4278 mt  965 4350 L
1390 4438 mt 1462 4438 L
1426 4402 mt 1426 4474 L
1051 4292 mt 1123 4292 L
1087 4256 mt 1087 4328 L
1580 4287 mt 1652 4287 L
1616 4251 mt 1616 4323 L
gs 899 414 5363 4203 rc
gr

0 sg
2779 5104 mt 
(\(F,DCTs,GMM\)) s
 288 3300 mt  -90 rotate
(\(F,DCTb,iMLP\)) s
90 rotate
2905  223 mt 
(Corr = -0.10) s

end %%Color Dict

eplot
%%EndObject

epage
end

showpage

%%Trailer
%%EOF
