%!PS-Adobe-3.0 EPSF-3.0
%%Creator: MATLAB, The Mathworks, Inc. Version 7.7.0.471 (R2008b). Operating System: Microsoft Windows XP.
%%Title: Pictures\main_zoo_mvar_analysis_data_BMI_xcorr_bmi_p1_k2_3_8.eps
%%CreationDate: 10/26/2009  05:44:25
%%DocumentNeededFonts: Helvetica
%%DocumentProcessColors: Cyan Magenta Yellow Black
%%LanguageLevel: 2
%%Pages: 1
%%BoundingBox:    32   180   546   616
%%EndComments

%%BeginProlog
% MathWorks dictionary
/MathWorks 160 dict begin
% definition operators
/bdef {bind def} bind def
/ldef {load def} bind def
/xdef {exch def} bdef
/xstore {exch store} bdef
% operator abbreviations
/c  /clip ldef
/cc /concat ldef
/cp /closepath ldef
/gr /grestore ldef
/gs /gsave ldef
/mt /moveto ldef
/np /newpath ldef
/cm /currentmatrix ldef
/sm /setmatrix ldef
/rm /rmoveto ldef
/rl /rlineto ldef
/s {show newpath} bdef
/sc {setcmykcolor} bdef
/sr /setrgbcolor ldef
/sg /setgray ldef
/w /setlinewidth ldef
/j /setlinejoin ldef
/cap /setlinecap ldef
/rc {rectclip} bdef
/rf {rectfill} bdef
% page state control
/pgsv () def
/bpage {/pgsv save def} bdef
/epage {pgsv restore} bdef
/bplot /gsave ldef
/eplot {stroke grestore} bdef
% orientation switch
/portraitMode 0 def /landscapeMode 1 def /rotateMode 2 def
% coordinate system mappings
/dpi2point 0 def
% font control
/FontSize 0 def
/FMS {/FontSize xstore findfont [FontSize 0 0 FontSize neg 0 0]
  makefont setfont} bdef
/ISOLatin1Encoding where {pop /WindowsLatin1Encoding 256 array bdef
ISOLatin1Encoding WindowsLatin1Encoding copy pop
/.notdef/.notdef/quotesinglbase/florin/quotedblbase/ellipsis/dagger
/daggerdbl/circumflex/perthousand/Scaron/guilsinglleft/OE/.notdef/.notdef
/.notdef/.notdef/quoteleft/quoteright/quotedblleft/quotedblright/bullet
/endash/emdash/tilde/trademark/scaron/guilsinglright/oe/.notdef/.notdef
/Ydieresis WindowsLatin1Encoding 128 32 getinterval astore pop}
{/WindowsLatin1Encoding StandardEncoding bdef} ifelse
/reencode {exch dup where {pop load} {pop StandardEncoding} ifelse
  exch dup 3 1 roll findfont dup length dict begin
  { 1 index /FID ne {def}{pop pop} ifelse } forall
  /Encoding exch def currentdict end definefont pop} bdef
/isroman {findfont /CharStrings get /Agrave known} bdef
/FMSR {3 1 roll 1 index dup isroman {reencode} {pop pop} ifelse
  exch FMS} bdef
/csm {1 dpi2point div -1 dpi2point div scale neg translate
 dup landscapeMode eq {pop -90 rotate}
  {rotateMode eq {90 rotate} if} ifelse} bdef
% line types: solid, dotted, dashed, dotdash
/SO { [] 0 setdash } bdef
/DO { [.5 dpi2point mul 4 dpi2point mul] 0 setdash } bdef
/DA { [6 dpi2point mul] 0 setdash } bdef
/DD { [.5 dpi2point mul 4 dpi2point mul 6 dpi2point mul 4
  dpi2point mul] 0 setdash } bdef
% macros for lines and objects
/L {lineto stroke} bdef
/MP {3 1 roll moveto 1 sub {rlineto} repeat} bdef
/AP {{rlineto} repeat} bdef
/PDlw -1 def
/W {/PDlw currentlinewidth def setlinewidth} def
/PP {closepath eofill} bdef
/DP {closepath stroke} bdef
/MR {4 -2 roll moveto dup  0 exch rlineto exch 0 rlineto
  neg 0 exch rlineto closepath} bdef
/FR {MR stroke} bdef
/PR {MR fill} bdef
/L1i {{currentfile picstr readhexstring pop} image} bdef
/tMatrix matrix def
/MakeOval {newpath tMatrix currentmatrix pop translate scale
0 0 1 0 360 arc tMatrix setmatrix} bdef
/FO {MakeOval stroke} bdef
/PO {MakeOval fill} bdef
/PD {currentlinewidth 2 div 0 360 arc fill
   PDlw -1 eq not {PDlw w /PDlw -1 def} if} def
/FA {newpath tMatrix currentmatrix pop translate scale
  0 0 1 5 -2 roll arc tMatrix setmatrix stroke} bdef
/PA {newpath tMatrix currentmatrix pop	translate 0 0 moveto scale
  0 0 1 5 -2 roll arc closepath tMatrix setmatrix fill} bdef
/FAn {newpath tMatrix currentmatrix pop translate scale
  0 0 1 5 -2 roll arcn tMatrix setmatrix stroke} bdef
/PAn {newpath tMatrix currentmatrix pop translate 0 0 moveto scale
  0 0 1 5 -2 roll arcn closepath tMatrix setmatrix fill} bdef
/vradius 0 def /hradius 0 def /lry 0 def
/lrx 0 def /uly 0 def /ulx 0 def /rad 0 def
/MRR {/vradius xdef /hradius xdef /lry xdef /lrx xdef /uly xdef
  /ulx xdef newpath tMatrix currentmatrix pop ulx hradius add uly
  vradius add translate hradius vradius scale 0 0 1 180 270 arc 
  tMatrix setmatrix lrx hradius sub uly vradius add translate
  hradius vradius scale 0 0 1 270 360 arc tMatrix setmatrix
  lrx hradius sub lry vradius sub translate hradius vradius scale
  0 0 1 0 90 arc tMatrix setmatrix ulx hradius add lry vradius sub
  translate hradius vradius scale 0 0 1 90 180 arc tMatrix setmatrix
  closepath} bdef
/FRR {MRR stroke } bdef
/PRR {MRR fill } bdef
/MlrRR {/lry xdef /lrx xdef /uly xdef /ulx xdef /rad lry uly sub 2 div def
  newpath tMatrix currentmatrix pop ulx rad add uly rad add translate
  rad rad scale 0 0 1 90 270 arc tMatrix setmatrix lrx rad sub lry rad
  sub translate rad rad scale 0 0 1 270 90 arc tMatrix setmatrix
  closepath} bdef
/FlrRR {MlrRR stroke } bdef
/PlrRR {MlrRR fill } bdef
/MtbRR {/lry xdef /lrx xdef /uly xdef /ulx xdef /rad lrx ulx sub 2 div def
  newpath tMatrix currentmatrix pop ulx rad add uly rad add translate
  rad rad scale 0 0 1 180 360 arc tMatrix setmatrix lrx rad sub lry rad
  sub translate rad rad scale 0 0 1 0 180 arc tMatrix setmatrix
  closepath} bdef
/FtbRR {MtbRR stroke } bdef
/PtbRR {MtbRR fill } bdef
/stri 6 array def /dtri 6 array def
/smat 6 array def /dmat 6 array def
/tmat1 6 array def /tmat2 6 array def /dif 3 array def
/asub {/ind2 exch def /ind1 exch def dup dup
  ind1 get exch ind2 get sub exch } bdef
/tri_to_matrix {
  2 0 asub 3 1 asub 4 0 asub 5 1 asub
  dup 0 get exch 1 get 7 -1 roll astore } bdef
/compute_transform {
  dmat dtri tri_to_matrix tmat1 invertmatrix 
  smat stri tri_to_matrix tmat2 concatmatrix } bdef
/ds {stri astore pop} bdef
/dt {dtri astore pop} bdef
/db {2 copy /cols xdef /rows xdef mul dup 3 mul string
  currentfile 
  3 index 0 eq {/ASCIIHexDecode filter}
  {/ASCII85Decode filter 3 index 2 eq {/RunLengthDecode filter} if }
  ifelse exch readstring pop
  dup 0 3 index getinterval /rbmap xdef
  dup 2 index dup getinterval /gbmap xdef
  1 index dup 2 mul exch getinterval /bbmap xdef pop pop}bdef
/it {gs np dtri aload pop moveto lineto lineto cp c
  cols rows 8 compute_transform 
  rbmap gbmap bbmap true 3 colorimage gr}bdef
/il {newpath moveto lineto stroke}bdef
currentdict end def
%%EndProlog

%%BeginSetup
MathWorks begin

0 cap

end
%%EndSetup

%%Page: 1 1
%%BeginPageSetup
%%PageBoundingBox:    32   180   546   616
MathWorks begin
bpage
%%EndPageSetup

%%BeginObject: obj1
bplot

/dpi2point 12 def
portraitMode 0216 7344 csm

  174   -48  6173  5231 rc
85 dict begin %Colortable dictionary
/c0 { 0.000000 0.000000 0.000000 sr} bdef
/c1 { 1.000000 1.000000 1.000000 sr} bdef
/c2 { 0.900000 0.000000 0.000000 sr} bdef
/c3 { 0.000000 0.820000 0.000000 sr} bdef
/c4 { 0.000000 0.000000 0.800000 sr} bdef
/c5 { 0.910000 0.820000 0.320000 sr} bdef
/c6 { 1.000000 0.260000 0.820000 sr} bdef
/c7 { 0.000000 0.820000 0.820000 sr} bdef
c0
1 j
1 sg
   0    0 6919 5187 rf
6 w
0 4202 5362 0 0 -4202 899 4616 4 MP
PP
-5362 0 0 4202 5362 0 0 -4202 899 4616 5 MP stroke
4 w
DO
SO
6 w
0 sg
 899  414 mt 6261  414 L
 899 4616 mt 6261 4616 L
6261 4616 mt 6261  414 L
 899 4616 mt  899  414 L
 899 4616 mt 6261 4616 L
 899 4616 mt  899  414 L
1971 4616 mt 1971 4562 L
1971  414 mt 1971  467 L
%%IncludeResource: font Helvetica
/Helvetica /WindowsLatin1Encoding 240 FMSR

1805 4873 mt 
(0.2) s
3043 4616 mt 3043 4562 L
3043  414 mt 3043  467 L
2877 4873 mt 
(0.4) s
4116 4616 mt 4116 4562 L
4116  414 mt 4116  467 L
3950 4873 mt 
(0.6) s
5188 4616 mt 5188 4562 L
5188  414 mt 5188  467 L
5022 4873 mt 
(0.8) s
 899 4196 mt  952 4196 L
6261 4196 mt 6207 4196 L
 531 4285 mt 
(0.1) s
 899 3775 mt  952 3775 L
6261 3775 mt 6207 3775 L
 531 3864 mt 
(0.2) s
 899 3355 mt  952 3355 L
6261 3355 mt 6207 3355 L
 531 3444 mt 
(0.3) s
 899 2935 mt  952 2935 L
6261 2935 mt 6207 2935 L
 531 3024 mt 
(0.4) s
 899 2515 mt  952 2515 L
6261 2515 mt 6207 2515 L
 531 2604 mt 
(0.5) s
 899 2094 mt  952 2094 L
6261 2094 mt 6207 2094 L
 531 2183 mt 
(0.6) s
 899 1674 mt  952 1674 L
6261 1674 mt 6207 1674 L
 531 1763 mt 
(0.7) s
 899 1254 mt  952 1254 L
6261 1254 mt 6207 1254 L
 531 1343 mt 
(0.8) s
 899  834 mt  952  834 L
6261  834 mt 6207  834 L
 531  923 mt 
(0.9) s
 899  414 mt 6261  414 L
 899 4616 mt 6261 4616 L
6261 4616 mt 6261  414 L
 899 4616 mt  899  414 L
gs 899 414 5363 4203 rc
gr

/c8 { 0.000000 0.000000 1.000000 sr} bdef
c8
6059  429 mt 6131  429 L
6095  393 mt 6095  465 L
6157  739 mt 6229  739 L
6193  703 mt 6193  775 L
2487  733 mt 2559  733 L
2523  697 mt 2523  769 L
1711 2347 mt 1783 2347 L
1747 2311 mt 1747 2383 L
5961  482 mt 6033  482 L
5997  446 mt 5997  518 L
5332  491 mt 5404  491 L
5368  455 mt 5368  527 L
1393 4196 mt 1465 4196 L
1429 4160 mt 1429 4232 L
2316 1144 mt 2388 1144 L
2352 1108 mt 2352 1180 L
5533 1143 mt 5605 1143 L
5569 1107 mt 5569 1179 L
1262  441 mt 1334  441 L
1298  405 mt 1298  477 L
 863 1779 mt  935 1779 L
 899 1743 mt  899 1815 L
5861 1087 mt 5933 1087 L
5897 1051 mt 5897 1123 L
6164 2545 mt 6236 2545 L
6200 2509 mt 6200 2581 L
5622  491 mt 5694  491 L
5658  455 mt 5658  527 L
6216 3384 mt 6288 3384 L
6252 3348 mt 6252 3420 L
5730 2936 mt 5802 2936 L
5766 2900 mt 5766 2972 L
1183  625 mt 1255  625 L
1219  589 mt 1219  661 L
5072 4613 mt 5144 4613 L
5108 4577 mt 5108 4649 L
2779 1745 mt 2851 1745 L
2815 1709 mt 2815 1781 L
5193 1570 mt 5265 1570 L
5229 1534 mt 5229 1606 L
1290 1291 mt 1362 1291 L
1326 1255 mt 1326 1327 L
3090 1351 mt 3162 1351 L
3126 1315 mt 3126 1387 L
1538  785 mt 1610  785 L
1574  749 mt 1574  821 L
5066 2731 mt 5138 2731 L
5102 2695 mt 5102 2767 L
5736 4226 mt 5808 4226 L
5772 4190 mt 5772 4262 L
 864 1410 mt  936 1410 L
 900 1374 mt  900 1446 L
1319 1610 mt 1391 1610 L
1355 1574 mt 1355 1646 L
5987 1792 mt 6059 1792 L
6023 1756 mt 6023 1828 L
4909  563 mt 4981  563 L
4945  527 mt 4945  599 L
1747  958 mt 1819  958 L
1783  922 mt 1783  994 L
 919 1892 mt  991 1892 L
 955 1856 mt  955 1928 L
 873  803 mt  945  803 L
 909  767 mt  909  839 L
3159 1537 mt 3231 1537 L
3195 1501 mt 3195 1573 L
3919 4163 mt 3991 4163 L
3955 4127 mt 3955 4199 L
6146  738 mt 6218  738 L
6182  702 mt 6182  774 L
1954  494 mt 2026  494 L
1990  458 mt 1990  530 L
1815  724 mt 1887  724 L
1851  688 mt 1851  760 L
1314 4556 mt 1386 4556 L
1350 4520 mt 1350 4592 L
1395 1037 mt 1467 1037 L
1431 1001 mt 1431 1073 L
4450  776 mt 4522  776 L
4486  740 mt 4486  812 L
6001 1035 mt 6073 1035 L
6037  999 mt 6037 1071 L
6193  538 mt 6265  538 L
6229  502 mt 6229  574 L
4951 1244 mt 5023 1244 L
4987 1208 mt 4987 1280 L
1885 1453 mt 1957 1453 L
1921 1417 mt 1921 1489 L
6216 4295 mt 6288 4295 L
6252 4259 mt 6252 4331 L
1175 4404 mt 1247 4404 L
1211 4368 mt 1211 4440 L
3572 1618 mt 3644 1618 L
3608 1582 mt 3608 1654 L
1754 1782 mt 1826 1782 L
1790 1746 mt 1790 1818 L
1503 3036 mt 1575 3036 L
1539 3000 mt 1539 3072 L
1214 4489 mt 1286 4489 L
1250 4453 mt 1250 4525 L
6217 2519 mt 6289 2519 L
6253 2483 mt 6253 2555 L
5916  475 mt 5988  475 L
5952  439 mt 5952  511 L
4086 2761 mt 4158 2761 L
4122 2725 mt 4122 2797 L
6058  777 mt 6130  777 L
6094  741 mt 6094  813 L
4132 1672 mt 4204 1672 L
4168 1636 mt 4168 1708 L
4810 1778 mt 4882 1778 L
4846 1742 mt 4846 1814 L
3673 4135 mt 3745 4135 L
3709 4099 mt 3709 4171 L
6215  700 mt 6287  700 L
6251  664 mt 6251  736 L
2796 2195 mt 2868 2195 L
2832 2159 mt 2832 2231 L
3366 1677 mt 3438 1677 L
3402 1641 mt 3402 1713 L
6059 4032 mt 6131 4032 L
6095 3996 mt 6095 4068 L
1806 4348 mt 1878 4348 L
1842 4312 mt 1842 4384 L
5003  722 mt 5075  722 L
5039  686 mt 5039  758 L
6217 1793 mt 6289 1793 L
6253 1757 mt 6253 1829 L
5809  417 mt 5881  417 L
5845  381 mt 5845  453 L
6216 3606 mt 6288 3606 L
6252 3570 mt 6252 3642 L
6211 1864 mt 6283 1864 L
6247 1828 mt 6247 1900 L
5257 3180 mt 5329 3180 L
5293 3144 mt 5293 3216 L
2607  809 mt 2679  809 L
2643  773 mt 2643  845 L
6067  810 mt 6139  810 L
6103  774 mt 6103  846 L
1502  958 mt 1574  958 L
1538  922 mt 1538  994 L
6130  665 mt 6202  665 L
6166  629 mt 6166  701 L
 863 3444 mt  935 3444 L
 899 3408 mt  899 3480 L
2852  421 mt 2924  421 L
2888  385 mt 2888  457 L
1195  647 mt 1267  647 L
1231  611 mt 1231  683 L
6179 2699 mt 6251 2699 L
6215 2663 mt 6215 2735 L
6184 1019 mt 6256 1019 L
6220  983 mt 6220 1055 L
1176 1161 mt 1248 1161 L
1212 1125 mt 1212 1197 L
1259  590 mt 1331  590 L
1295  554 mt 1295  626 L
2559 1639 mt 2631 1639 L
2595 1603 mt 2595 1675 L
6122  451 mt 6194  451 L
6158  415 mt 6158  487 L
2031 1381 mt 2103 1381 L
2067 1345 mt 2067 1417 L
6064 2457 mt 6136 2457 L
6100 2421 mt 6100 2493 L
4550 1091 mt 4622 1091 L
4586 1055 mt 4586 1127 L
1037 3524 mt 1109 3524 L
1073 3488 mt 1073 3560 L
4315 3804 mt 4387 3804 L
4351 3768 mt 4351 3840 L
6157  482 mt 6229  482 L
6193  446 mt 6193  518 L
5360 4563 mt 5432 4563 L
5396 4527 mt 5396 4599 L
4619 1250 mt 4691 1250 L
4655 1214 mt 4655 1286 L
6219  415 mt 6291  415 L
6255  379 mt 6255  451 L
3643 2457 mt 3715 2457 L
3679 2421 mt 3679 2493 L
6221 3466 mt 6293 3466 L
6257 3430 mt 6257 3502 L
1232  657 mt 1304  657 L
1268  621 mt 1268  693 L
5607 2121 mt 5679 2121 L
5643 2085 mt 5643 2157 L
1260 3978 mt 1332 3978 L
1296 3942 mt 1296 4014 L
5389 4109 mt 5461 4109 L
5425 4073 mt 5425 4145 L
6117 2495 mt 6189 2495 L
6153 2459 mt 6153 2531 L
6201  502 mt 6273  502 L
6237  466 mt 6237  538 L
2577 4597 mt 2649 4597 L
2613 4561 mt 2613 4633 L
6129 2241 mt 6201 2241 L
6165 2205 mt 6165 2277 L
6225  748 mt 6297  748 L
6261  712 mt 6261  784 L
4612 1971 mt 4684 1971 L
4648 1935 mt 4648 2007 L
1121 3957 mt 1193 3957 L
1157 3921 mt 1157 3993 L
6150 3588 mt 6222 3588 L
6186 3552 mt 6186 3624 L
2321 4044 mt 2393 4044 L
2357 4008 mt 2357 4080 L
1176 1029 mt 1248 1029 L
1212  993 mt 1212 1065 L
5677 3080 mt 5749 3080 L
5713 3044 mt 5713 3116 L
1006 1977 mt 1078 1977 L
1042 1941 mt 1042 2013 L
1720 1572 mt 1792 1572 L
1756 1536 mt 1756 1608 L
3401 1024 mt 3473 1024 L
3437  988 mt 3437 1060 L
5698 1384 mt 5770 1384 L
5734 1348 mt 5734 1420 L
1314 2775 mt 1386 2775 L
1350 2739 mt 1350 2811 L
5868 3076 mt 5940 3076 L
5904 3040 mt 5904 3112 L
6170 4615 mt 6242 4615 L
6206 4579 mt 6206 4651 L
1326 2556 mt 1398 2556 L
1362 2520 mt 1362 2592 L
1104 2035 mt 1176 2035 L
1140 1999 mt 1140 2071 L
3742  555 mt 3814  555 L
3778  519 mt 3778  591 L
6171 4517 mt 6243 4517 L
6207 4481 mt 6207 4553 L
 879 4059 mt  951 4059 L
 915 4023 mt  915 4095 L
3138 4609 mt 3210 4609 L
3174 4573 mt 3174 4645 L
5951 1439 mt 6023 1439 L
5987 1403 mt 5987 1475 L
1705  588 mt 1777  588 L
1741  552 mt 1741  624 L
5544 1424 mt 5616 1424 L
5580 1388 mt 5580 1460 L
 894 3935 mt  966 3935 L
 930 3899 mt  930 3971 L
3546  618 mt 3618  618 L
3582  582 mt 3582  654 L
6223  514 mt 6295  514 L
6259  478 mt 6259  550 L
5984 4582 mt 6056 4582 L
6020 4546 mt 6020 4618 L
5804 2482 mt 5876 2482 L
5840 2446 mt 5840 2518 L
1510  590 mt 1582  590 L
1546  554 mt 1546  626 L
 896 3790 mt  968 3790 L
 932 3754 mt  932 3826 L
6166 3690 mt 6238 3690 L
6202 3654 mt 6202 3726 L
4313 2795 mt 4385 2795 L
4349 2759 mt 4349 2831 L
2291 1933 mt 2363 1933 L
2327 1897 mt 2327 1969 L
5737 1804 mt 5809 1804 L
5773 1768 mt 5773 1840 L
1147 2363 mt 1219 2363 L
1183 2327 mt 1183 2399 L
6100 3405 mt 6172 3405 L
6136 3369 mt 6136 3441 L
1812 2161 mt 1884 2161 L
1848 2125 mt 1848 2197 L
4714  651 mt 4786  651 L
4750  615 mt 4750  687 L
3100 3036 mt 3172 3036 L
3136 3000 mt 3136 3072 L
4835 3955 mt 4907 3955 L
4871 3919 mt 4871 3991 L
4556 3581 mt 4628 3581 L
4592 3545 mt 4592 3617 L
6197 1273 mt 6269 1273 L
6233 1237 mt 6233 1309 L
 888 3824 mt  960 3824 L
 924 3788 mt  924 3860 L
2041 2548 mt 2113 2548 L
2077 2512 mt 2077 2584 L
6194  535 mt 6266  535 L
6230  499 mt 6230  571 L
4767 1576 mt 4839 1576 L
4803 1540 mt 4803 1612 L
1173 1395 mt 1245 1395 L
1209 1359 mt 1209 1431 L
6141  445 mt 6213  445 L
6177  409 mt 6177  481 L
3245 4579 mt 3317 4579 L
3281 4543 mt 3281 4615 L
2860  659 mt 2932  659 L
2896  623 mt 2896  695 L
1106 1692 mt 1178 1692 L
1142 1656 mt 1142 1728 L
2386 4390 mt 2458 4390 L
2422 4354 mt 2422 4426 L
1863 2609 mt 1935 2609 L
1899 2573 mt 1899 2645 L
1465 1232 mt 1537 1232 L
1501 1196 mt 1501 1268 L
1016 2577 mt 1088 2577 L
1052 2541 mt 1052 2613 L
3242 4312 mt 3314 4312 L
3278 4276 mt 3278 4348 L
1265  524 mt 1337  524 L
1301  488 mt 1301  560 L
1619 3403 mt 1691 3403 L
1655 3367 mt 1655 3439 L
 863  617 mt  935  617 L
 899  581 mt  899  653 L
4695 4224 mt 4767 4224 L
4731 4188 mt 4731 4260 L
5087 3100 mt 5159 3100 L
5123 3064 mt 5123 3136 L
2601 4568 mt 2673 4568 L
2637 4532 mt 2637 4604 L
 977 1746 mt 1049 1746 L
1013 1710 mt 1013 1782 L
5311 1345 mt 5383 1345 L
5347 1309 mt 5347 1381 L
1546 2691 mt 1618 2691 L
1582 2655 mt 1582 2727 L
 948 3474 mt 1020 3474 L
 984 3438 mt  984 3510 L
1397 2315 mt 1469 2315 L
1433 2279 mt 1433 2351 L
5713 4616 mt 5785 4616 L
5749 4580 mt 5749 4652 L
2370 2454 mt 2442 2454 L
2406 2418 mt 2406 2490 L
6206 1314 mt 6278 1314 L
6242 1278 mt 6242 1350 L
4106 1048 mt 4178 1048 L
4142 1012 mt 4142 1084 L
6088  674 mt 6160  674 L
6124  638 mt 6124  710 L
1538 4069 mt 1610 4069 L
1574 4033 mt 1574 4105 L
3584 1348 mt 3656 1348 L
3620 1312 mt 3620 1384 L
2296 4091 mt 2368 4091 L
2332 4055 mt 2332 4127 L
6078  865 mt 6150  865 L
6114  829 mt 6114  901 L
5009 1603 mt 5081 1603 L
5045 1567 mt 5045 1639 L
6223 3254 mt 6295 3254 L
6259 3218 mt 6259 3290 L
6139  924 mt 6211  924 L
6175  888 mt 6175  960 L
1021  645 mt 1093  645 L
1057  609 mt 1057  681 L
1394 3490 mt 1466 3490 L
1430 3454 mt 1430 3526 L
4046 3663 mt 4118 3663 L
4082 3627 mt 4082 3699 L
2924  509 mt 2996  509 L
2960  473 mt 2960  545 L
6189  843 mt 6261  843 L
6225  807 mt 6225  879 L
3579 4322 mt 3651 4322 L
3615 4286 mt 3615 4358 L
1590  616 mt 1662  616 L
1626  580 mt 1626  652 L
5523 1435 mt 5595 1435 L
5559 1399 mt 5559 1471 L
5748  551 mt 5820  551 L
5784  515 mt 5784  587 L
5061 4579 mt 5133 4579 L
5097 4543 mt 5097 4615 L
2013  451 mt 2085  451 L
2049  415 mt 2049  487 L
1018  473 mt 1090  473 L
1054  437 mt 1054  509 L
5467 2685 mt 5539 2685 L
5503 2649 mt 5503 2721 L
6203 1253 mt 6275 1253 L
6239 1217 mt 6239 1289 L
6059  724 mt 6131  724 L
6095  688 mt 6095  760 L
5853  486 mt 5925  486 L
5889  450 mt 5889  522 L
1077  668 mt 1149  668 L
1113  632 mt 1113  704 L
2865 3777 mt 2937 3777 L
2901 3741 mt 2901 3813 L
6025 1613 mt 6097 1613 L
6061 1577 mt 6061 1649 L
3575 4329 mt 3647 4329 L
3611 4293 mt 3611 4365 L
5555  949 mt 5627  949 L
5591  913 mt 5591  985 L
6217  418 mt 6289  418 L
6253  382 mt 6253  454 L
6205  543 mt 6277  543 L
6241  507 mt 6241  579 L
2233  879 mt 2305  879 L
2269  843 mt 2269  915 L
1787 4024 mt 1859 4024 L
1823 3988 mt 1823 4060 L
1097  743 mt 1169  743 L
1133  707 mt 1133  779 L
6108 1755 mt 6180 1755 L
6144 1719 mt 6144 1791 L
 973 3760 mt 1045 3760 L
1009 3724 mt 1009 3796 L
5751  741 mt 5823  741 L
5787  705 mt 5787  777 L
6209  671 mt 6281  671 L
6245  635 mt 6245  707 L
 870 4252 mt  942 4252 L
 906 4216 mt  906 4288 L
1323  422 mt 1395  422 L
1359  386 mt 1359  458 L
6219 1176 mt 6291 1176 L
6255 1140 mt 6255 1212 L
6223  661 mt 6295  661 L
6259  625 mt 6259  697 L
4845 3652 mt 4917 3652 L
4881 3616 mt 4881 3688 L
6205 1468 mt 6277 1468 L
6241 1432 mt 6241 1504 L
6199  649 mt 6271  649 L
6235  613 mt 6235  685 L
6179  600 mt 6251  600 L
6215  564 mt 6215  636 L
5757 1201 mt 5829 1201 L
5793 1165 mt 5793 1237 L
1188 1668 mt 1260 1668 L
1224 1632 mt 1224 1704 L
3781 2096 mt 3853 2096 L
3817 2060 mt 3817 2132 L
2488 3229 mt 2560 3229 L
2524 3193 mt 2524 3265 L
2478 3622 mt 2550 3622 L
2514 3586 mt 2514 3658 L
6169 2713 mt 6241 2713 L
6205 2677 mt 6205 2749 L
 873 4549 mt  945 4549 L
 909 4513 mt  909 4585 L
6146 2132 mt 6218 2132 L
6182 2096 mt 6182 2168 L
2174 1453 mt 2246 1453 L
2210 1417 mt 2210 1489 L
1702 4004 mt 1774 4004 L
1738 3968 mt 1738 4040 L
5959 2252 mt 6031 2252 L
5995 2216 mt 5995 2288 L
3389  423 mt 3461  423 L
3425  387 mt 3425  459 L
5199  436 mt 5271  436 L
5235  400 mt 5235  472 L
5967 4615 mt 6039 4615 L
6003 4579 mt 6003 4651 L
4515 4459 mt 4587 4459 L
4551 4423 mt 4551 4495 L
3999 4610 mt 4071 4610 L
4035 4574 mt 4035 4646 L
4353  914 mt 4425  914 L
4389  878 mt 4389  950 L
2123  445 mt 2195  445 L
2159  409 mt 2159  481 L
5778 4612 mt 5850 4612 L
5814 4576 mt 5814 4648 L
6211 3887 mt 6283 3887 L
6247 3851 mt 6247 3923 L
5987  905 mt 6059  905 L
6023  869 mt 6023  941 L
1116 2060 mt 1188 2060 L
1152 2024 mt 1152 2096 L
6221 1135 mt 6293 1135 L
6257 1099 mt 6257 1171 L
6222 2873 mt 6294 2873 L
6258 2837 mt 6258 2909 L
6215 2491 mt 6287 2491 L
6251 2455 mt 6251 2527 L
6223  748 mt 6295  748 L
6259  712 mt 6259  784 L
6207 2120 mt 6279 2120 L
6243 2084 mt 6243 2156 L
6005  946 mt 6077  946 L
6041  910 mt 6041  982 L
6220 2838 mt 6292 2838 L
6256 2802 mt 6256 2874 L
2892 1000 mt 2964 1000 L
2928  964 mt 2928 1036 L
1798  653 mt 1870  653 L
1834  617 mt 1834  689 L
6175 1187 mt 6247 1187 L
6211 1151 mt 6211 1223 L
 877 2688 mt  949 2688 L
 913 2652 mt  913 2724 L
6210 3493 mt 6282 3493 L
6246 3457 mt 6246 3529 L
5133  522 mt 5205  522 L
5169  486 mt 5169  558 L
4634  418 mt 4706  418 L
4670  382 mt 4670  454 L
6220 4613 mt 6292 4613 L
6256 4577 mt 6256 4649 L
2673 2156 mt 2745 2156 L
2709 2120 mt 2709 2192 L
4308 4434 mt 4380 4434 L
4344 4398 mt 4344 4470 L
6202  955 mt 6274  955 L
6238  919 mt 6238  991 L
3993 1950 mt 4065 1950 L
4029 1914 mt 4029 1986 L
6175  442 mt 6247  442 L
6211  406 mt 6211  478 L
1028  751 mt 1100  751 L
1064  715 mt 1064  787 L
6222 4074 mt 6294 4074 L
6258 4038 mt 6258 4110 L
6063 4107 mt 6135 4107 L
6099 4071 mt 6099 4143 L
6064 4587 mt 6136 4587 L
6100 4551 mt 6100 4623 L
6205 4537 mt 6277 4537 L
6241 4501 mt 6241 4573 L
4002  608 mt 4074  608 L
4038  572 mt 4038  644 L
4109 1623 mt 4181 1623 L
4145 1587 mt 4145 1659 L
6215 3882 mt 6287 3882 L
6251 3846 mt 6251 3918 L
3214  416 mt 3286  416 L
3250  380 mt 3250  452 L
4054 1129 mt 4126 1129 L
4090 1093 mt 4090 1165 L
6028 1336 mt 6100 1336 L
6064 1300 mt 6064 1372 L
6224 2299 mt 6296 2299 L
6260 2263 mt 6260 2335 L
6168  464 mt 6240  464 L
6204  428 mt 6204  500 L
6217 3707 mt 6289 3707 L
6253 3671 mt 6253 3743 L
2166 3507 mt 2238 3507 L
2202 3471 mt 2202 3543 L
2913  496 mt 2985  496 L
2949  460 mt 2949  532 L
1885  455 mt 1957  455 L
1921  419 mt 1921  491 L
6216  548 mt 6288  548 L
6252  512 mt 6252  584 L
6215 3035 mt 6287 3035 L
6251 2999 mt 6251 3071 L
1711 1372 mt 1783 1372 L
1747 1336 mt 1747 1408 L
6220  678 mt 6292  678 L
6256  642 mt 6256  714 L
4720 2199 mt 4792 2199 L
4756 2163 mt 4756 2235 L
2569  451 mt 2641  451 L
2605  415 mt 2605  487 L
6219 3892 mt 6291 3892 L
6255 3856 mt 6255 3928 L
5060 2268 mt 5132 2268 L
5096 2232 mt 5096 2304 L
6078 4358 mt 6150 4358 L
6114 4322 mt 6114 4394 L
2203  418 mt 2275  418 L
2239  382 mt 2239  454 L
6205 1875 mt 6277 1875 L
6241 1839 mt 6241 1911 L
5958 4604 mt 6030 4604 L
5994 4568 mt 5994 4640 L
4202 2168 mt 4274 2168 L
4238 2132 mt 4238 2204 L
6186  414 mt 6258  414 L
6222  378 mt 6222  450 L
6195 4542 mt 6267 4542 L
6231 4506 mt 6231 4578 L
6100 3933 mt 6172 3933 L
6136 3897 mt 6136 3969 L
3551  937 mt 3623  937 L
3587  901 mt 3587  973 L
2454 4300 mt 2526 4300 L
2490 4264 mt 2490 4336 L
5584 4226 mt 5656 4226 L
5620 4190 mt 5620 4262 L
1427 3662 mt 1499 3662 L
1463 3626 mt 1463 3698 L
5722 2922 mt 5794 2922 L
5758 2886 mt 5758 2958 L
2605  859 mt 2677  859 L
2641  823 mt 2641  895 L
2566  563 mt 2638  563 L
2602  527 mt 2602  599 L
6215 2981 mt 6287 2981 L
6251 2945 mt 6251 3017 L
6070 1377 mt 6142 1377 L
6106 1341 mt 6106 1413 L
5396  459 mt 5468  459 L
5432  423 mt 5432  495 L
4956 2027 mt 5028 2027 L
4992 1991 mt 4992 2063 L
6206 3953 mt 6278 3953 L
6242 3917 mt 6242 3989 L
2428 1628 mt 2500 1628 L
2464 1592 mt 2464 1664 L
4469 3470 mt 4541 3470 L
4505 3434 mt 4505 3506 L
6224 4099 mt 6296 4099 L
6260 4063 mt 6260 4135 L
6163 3894 mt 6235 3894 L
6199 3858 mt 6199 3930 L
6168 3292 mt 6240 3292 L
6204 3256 mt 6204 3328 L
3995 4551 mt 4067 4551 L
4031 4515 mt 4031 4587 L
5996 1143 mt 6068 1143 L
6032 1107 mt 6032 1179 L
2751 3965 mt 2823 3965 L
2787 3929 mt 2787 4001 L
3705 3588 mt 3777 3588 L
3741 3552 mt 3741 3624 L
2589  953 mt 2661  953 L
2625  917 mt 2625  989 L
2158 1138 mt 2230 1138 L
2194 1102 mt 2194 1174 L
 869 4608 mt  941 4608 L
 905 4572 mt  905 4644 L
6197  899 mt 6269  899 L
6233  863 mt 6233  935 L
5583 3405 mt 5655 3405 L
5619 3369 mt 5619 3441 L
5512 4558 mt 5584 4558 L
5548 4522 mt 5548 4594 L
6200  900 mt 6272  900 L
6236  864 mt 6236  936 L
6221  850 mt 6293  850 L
6257  814 mt 6257  886 L
5616 4612 mt 5688 4612 L
5652 4576 mt 5652 4648 L
5533 4234 mt 5605 4234 L
5569 4198 mt 5569 4270 L
 863  456 mt  935  456 L
 899  420 mt  899  492 L
5913 2280 mt 5985 2280 L
5949 2244 mt 5949 2316 L
5455  629 mt 5527  629 L
5491  593 mt 5491  665 L
6040 2725 mt 6112 2725 L
6076 2689 mt 6076 2761 L
6049 4584 mt 6121 4584 L
6085 4548 mt 6085 4620 L
6221 4591 mt 6293 4591 L
6257 4555 mt 6257 4627 L
1386 3495 mt 1458 3495 L
1422 3459 mt 1422 3531 L
6123  791 mt 6195  791 L
6159  755 mt 6159  827 L
2109 2942 mt 2181 2942 L
2145 2906 mt 2145 2978 L
6156  471 mt 6228  471 L
6192  435 mt 6192  507 L
5127 2642 mt 5199 2642 L
5163 2606 mt 5163 2678 L
4427 4512 mt 4499 4512 L
4463 4476 mt 4463 4548 L
5807 4591 mt 5879 4591 L
5843 4555 mt 5843 4627 L
3146 4382 mt 3218 4382 L
3182 4346 mt 3182 4418 L
6172  674 mt 6244  674 L
6208  638 mt 6208  710 L
5239 3321 mt 5311 3321 L
5275 3285 mt 5275 3357 L
3977  821 mt 4049  821 L
4013  785 mt 4013  857 L
3708 3097 mt 3780 3097 L
3744 3061 mt 3744 3133 L
6224 2094 mt 6296 2094 L
6260 2058 mt 6260 2130 L
1542  432 mt 1614  432 L
1578  396 mt 1578  468 L
 863 4435 mt  935 4435 L
 899 4399 mt  899 4471 L
3966 1670 mt 4038 1670 L
4002 1634 mt 4002 1706 L
5690 2851 mt 5762 2851 L
5726 2815 mt 5726 2887 L
5915  615 mt 5987  615 L
5951  579 mt 5951  651 L
5699  433 mt 5771  433 L
5735  397 mt 5735  469 L
5578 4525 mt 5650 4525 L
5614 4489 mt 5614 4561 L
 870 3832 mt  942 3832 L
 906 3796 mt  906 3868 L
 870  958 mt  942  958 L
 906  922 mt  906  994 L
2143 3877 mt 2215 3877 L
2179 3841 mt 2179 3913 L
5585 1496 mt 5657 1496 L
5621 1460 mt 5621 1532 L
5411  685 mt 5483  685 L
5447  649 mt 5447  721 L
2817  414 mt 2889  414 L
2853  378 mt 2853  450 L
6026 3590 mt 6098 3590 L
6062 3554 mt 6062 3626 L
1588 4479 mt 1660 4479 L
1624 4443 mt 1624 4515 L
2653 3094 mt 2725 3094 L
2689 3058 mt 2689 3130 L
1268 4226 mt 1340 4226 L
1304 4190 mt 1304 4262 L
1786 4529 mt 1858 4529 L
1822 4493 mt 1822 4565 L
6115  614 mt 6187  614 L
6151  578 mt 6151  650 L
4758 2091 mt 4830 2091 L
4794 2055 mt 4794 2127 L
 863 1313 mt  935 1313 L
 899 1277 mt  899 1349 L
6075  511 mt 6147  511 L
6111  475 mt 6111  547 L
1258 4215 mt 1330 4215 L
1294 4179 mt 1294 4251 L
5073 4431 mt 5145 4431 L
5109 4395 mt 5109 4467 L
6175 2165 mt 6247 2165 L
6211 2129 mt 6211 2201 L
1057 3346 mt 1129 3346 L
1093 3310 mt 1093 3382 L
6213  425 mt 6285  425 L
6249  389 mt 6249  461 L
6209  674 mt 6281  674 L
6245  638 mt 6245  710 L
2894 4108 mt 2966 4108 L
2930 4072 mt 2930 4144 L
6205 1769 mt 6277 1769 L
6241 1733 mt 6241 1805 L
6222 2951 mt 6294 2951 L
6258 2915 mt 6258 2987 L
1926  469 mt 1998  469 L
1962  433 mt 1962  505 L
6213 1547 mt 6285 1547 L
6249 1511 mt 6249 1583 L
1866  469 mt 1938  469 L
1902  433 mt 1902  505 L
 864 3559 mt  936 3559 L
 900 3523 mt  900 3595 L
3728 2352 mt 3800 2352 L
3764 2316 mt 3764 2388 L
2586 2846 mt 2658 2846 L
2622 2810 mt 2622 2882 L
 863 2393 mt  935 2393 L
 899 2357 mt  899 2429 L
 994 2522 mt 1066 2522 L
1030 2486 mt 1030 2558 L
1080 1810 mt 1152 1810 L
1116 1774 mt 1116 1846 L
6223 1641 mt 6295 1641 L
6259 1605 mt 6259 1677 L
6193 2194 mt 6265 2194 L
6229 2158 mt 6229 2230 L
 968 2220 mt 1040 2220 L
1004 2184 mt 1004 2256 L
6223 3999 mt 6295 3999 L
6259 3963 mt 6259 4035 L
2726 3925 mt 2798 3925 L
2762 3889 mt 2762 3961 L
4333 4394 mt 4405 4394 L
4369 4358 mt 4369 4430 L
1039 3142 mt 1111 3142 L
1075 3106 mt 1075 3178 L
3331  544 mt 3403  544 L
3367  508 mt 3367  580 L
 874 1710 mt  946 1710 L
 910 1674 mt  910 1746 L
5458 4606 mt 5530 4606 L
5494 4570 mt 5494 4642 L
6186 2675 mt 6258 2675 L
6222 2639 mt 6222 2711 L
4426  416 mt 4498  416 L
4462  380 mt 4462  452 L
6223 3628 mt 6295 3628 L
6259 3592 mt 6259 3664 L
2837  415 mt 2909  415 L
2873  379 mt 2873  451 L
5740 2362 mt 5812 2362 L
5776 2326 mt 5776 2398 L
5725  510 mt 5797  510 L
5761  474 mt 5761  546 L
4521 3085 mt 4593 3085 L
4557 3049 mt 4557 3121 L
6213  546 mt 6285  546 L
6249  510 mt 6249  582 L
gs 899 414 5363 4203 rc
gr

0 sg
2826 5104 mt 
(\(F,DCTs,MLP\)) s
 422 3259 mt  -90 rotate
(\(S,PAC,GMM\)) s
90 rotate
2975  223 mt 
(Corr = 0.04) s

end %%Color Dict

eplot
%%EndObject

epage
end

showpage

%%Trailer
%%EOF
