%!PS-Adobe-3.0 EPSF-3.0
%%Creator: MATLAB, The Mathworks, Inc. Version 7.7.0.471 (R2008b). Operating System: Microsoft Windows XP.
%%Title: Pictures\main_zoo_mvar_analysis_data_BMI_xcorr_bmig_p1_k1_4_6.eps
%%CreationDate: 10/26/2009  05:44:59
%%DocumentNeededFonts: Helvetica
%%DocumentProcessColors: Cyan Magenta Yellow Black
%%LanguageLevel: 2
%%Pages: 1
%%BoundingBox:    37   180   549   616
%%EndComments

%%BeginProlog
% MathWorks dictionary
/MathWorks 160 dict begin
% definition operators
/bdef {bind def} bind def
/ldef {load def} bind def
/xdef {exch def} bdef
/xstore {exch store} bdef
% operator abbreviations
/c  /clip ldef
/cc /concat ldef
/cp /closepath ldef
/gr /grestore ldef
/gs /gsave ldef
/mt /moveto ldef
/np /newpath ldef
/cm /currentmatrix ldef
/sm /setmatrix ldef
/rm /rmoveto ldef
/rl /rlineto ldef
/s {show newpath} bdef
/sc {setcmykcolor} bdef
/sr /setrgbcolor ldef
/sg /setgray ldef
/w /setlinewidth ldef
/j /setlinejoin ldef
/cap /setlinecap ldef
/rc {rectclip} bdef
/rf {rectfill} bdef
% page state control
/pgsv () def
/bpage {/pgsv save def} bdef
/epage {pgsv restore} bdef
/bplot /gsave ldef
/eplot {stroke grestore} bdef
% orientation switch
/portraitMode 0 def /landscapeMode 1 def /rotateMode 2 def
% coordinate system mappings
/dpi2point 0 def
% font control
/FontSize 0 def
/FMS {/FontSize xstore findfont [FontSize 0 0 FontSize neg 0 0]
  makefont setfont} bdef
/ISOLatin1Encoding where {pop /WindowsLatin1Encoding 256 array bdef
ISOLatin1Encoding WindowsLatin1Encoding copy pop
/.notdef/.notdef/quotesinglbase/florin/quotedblbase/ellipsis/dagger
/daggerdbl/circumflex/perthousand/Scaron/guilsinglleft/OE/.notdef/.notdef
/.notdef/.notdef/quoteleft/quoteright/quotedblleft/quotedblright/bullet
/endash/emdash/tilde/trademark/scaron/guilsinglright/oe/.notdef/.notdef
/Ydieresis WindowsLatin1Encoding 128 32 getinterval astore pop}
{/WindowsLatin1Encoding StandardEncoding bdef} ifelse
/reencode {exch dup where {pop load} {pop StandardEncoding} ifelse
  exch dup 3 1 roll findfont dup length dict begin
  { 1 index /FID ne {def}{pop pop} ifelse } forall
  /Encoding exch def currentdict end definefont pop} bdef
/isroman {findfont /CharStrings get /Agrave known} bdef
/FMSR {3 1 roll 1 index dup isroman {reencode} {pop pop} ifelse
  exch FMS} bdef
/csm {1 dpi2point div -1 dpi2point div scale neg translate
 dup landscapeMode eq {pop -90 rotate}
  {rotateMode eq {90 rotate} if} ifelse} bdef
% line types: solid, dotted, dashed, dotdash
/SO { [] 0 setdash } bdef
/DO { [.5 dpi2point mul 4 dpi2point mul] 0 setdash } bdef
/DA { [6 dpi2point mul] 0 setdash } bdef
/DD { [.5 dpi2point mul 4 dpi2point mul 6 dpi2point mul 4
  dpi2point mul] 0 setdash } bdef
% macros for lines and objects
/L {lineto stroke} bdef
/MP {3 1 roll moveto 1 sub {rlineto} repeat} bdef
/AP {{rlineto} repeat} bdef
/PDlw -1 def
/W {/PDlw currentlinewidth def setlinewidth} def
/PP {closepath eofill} bdef
/DP {closepath stroke} bdef
/MR {4 -2 roll moveto dup  0 exch rlineto exch 0 rlineto
  neg 0 exch rlineto closepath} bdef
/FR {MR stroke} bdef
/PR {MR fill} bdef
/L1i {{currentfile picstr readhexstring pop} image} bdef
/tMatrix matrix def
/MakeOval {newpath tMatrix currentmatrix pop translate scale
0 0 1 0 360 arc tMatrix setmatrix} bdef
/FO {MakeOval stroke} bdef
/PO {MakeOval fill} bdef
/PD {currentlinewidth 2 div 0 360 arc fill
   PDlw -1 eq not {PDlw w /PDlw -1 def} if} def
/FA {newpath tMatrix currentmatrix pop translate scale
  0 0 1 5 -2 roll arc tMatrix setmatrix stroke} bdef
/PA {newpath tMatrix currentmatrix pop	translate 0 0 moveto scale
  0 0 1 5 -2 roll arc closepath tMatrix setmatrix fill} bdef
/FAn {newpath tMatrix currentmatrix pop translate scale
  0 0 1 5 -2 roll arcn tMatrix setmatrix stroke} bdef
/PAn {newpath tMatrix currentmatrix pop translate 0 0 moveto scale
  0 0 1 5 -2 roll arcn closepath tMatrix setmatrix fill} bdef
/vradius 0 def /hradius 0 def /lry 0 def
/lrx 0 def /uly 0 def /ulx 0 def /rad 0 def
/MRR {/vradius xdef /hradius xdef /lry xdef /lrx xdef /uly xdef
  /ulx xdef newpath tMatrix currentmatrix pop ulx hradius add uly
  vradius add translate hradius vradius scale 0 0 1 180 270 arc 
  tMatrix setmatrix lrx hradius sub uly vradius add translate
  hradius vradius scale 0 0 1 270 360 arc tMatrix setmatrix
  lrx hradius sub lry vradius sub translate hradius vradius scale
  0 0 1 0 90 arc tMatrix setmatrix ulx hradius add lry vradius sub
  translate hradius vradius scale 0 0 1 90 180 arc tMatrix setmatrix
  closepath} bdef
/FRR {MRR stroke } bdef
/PRR {MRR fill } bdef
/MlrRR {/lry xdef /lrx xdef /uly xdef /ulx xdef /rad lry uly sub 2 div def
  newpath tMatrix currentmatrix pop ulx rad add uly rad add translate
  rad rad scale 0 0 1 90 270 arc tMatrix setmatrix lrx rad sub lry rad
  sub translate rad rad scale 0 0 1 270 90 arc tMatrix setmatrix
  closepath} bdef
/FlrRR {MlrRR stroke } bdef
/PlrRR {MlrRR fill } bdef
/MtbRR {/lry xdef /lrx xdef /uly xdef /ulx xdef /rad lrx ulx sub 2 div def
  newpath tMatrix currentmatrix pop ulx rad add uly rad add translate
  rad rad scale 0 0 1 180 360 arc tMatrix setmatrix lrx rad sub lry rad
  sub translate rad rad scale 0 0 1 0 180 arc tMatrix setmatrix
  closepath} bdef
/FtbRR {MtbRR stroke } bdef
/PtbRR {MtbRR fill } bdef
/stri 6 array def /dtri 6 array def
/smat 6 array def /dmat 6 array def
/tmat1 6 array def /tmat2 6 array def /dif 3 array def
/asub {/ind2 exch def /ind1 exch def dup dup
  ind1 get exch ind2 get sub exch } bdef
/tri_to_matrix {
  2 0 asub 3 1 asub 4 0 asub 5 1 asub
  dup 0 get exch 1 get 7 -1 roll astore } bdef
/compute_transform {
  dmat dtri tri_to_matrix tmat1 invertmatrix 
  smat stri tri_to_matrix tmat2 concatmatrix } bdef
/ds {stri astore pop} bdef
/dt {dtri astore pop} bdef
/db {2 copy /cols xdef /rows xdef mul dup 3 mul string
  currentfile 
  3 index 0 eq {/ASCIIHexDecode filter}
  {/ASCII85Decode filter 3 index 2 eq {/RunLengthDecode filter} if }
  ifelse exch readstring pop
  dup 0 3 index getinterval /rbmap xdef
  dup 2 index dup getinterval /gbmap xdef
  1 index dup 2 mul exch getinterval /bbmap xdef pop pop}bdef
/it {gs np dtri aload pop moveto lineto lineto cp c
  cols rows 8 compute_transform 
  rbmap gbmap bbmap true 3 colorimage gr}bdef
/il {newpath moveto lineto stroke}bdef
currentdict end def
%%EndProlog

%%BeginSetup
MathWorks begin

0 cap

end
%%EndSetup

%%Page: 1 1
%%BeginPageSetup
%%PageBoundingBox:    37   180   549   616
MathWorks begin
bpage
%%EndPageSetup

%%BeginObject: obj1
bplot

/dpi2point 12 def
portraitMode 0216 7344 csm

  234   -48  6149  5231 rc
85 dict begin %Colortable dictionary
/c0 { 0.000000 0.000000 0.000000 sr} bdef
/c1 { 1.000000 1.000000 1.000000 sr} bdef
/c2 { 0.900000 0.000000 0.000000 sr} bdef
/c3 { 0.000000 0.820000 0.000000 sr} bdef
/c4 { 0.000000 0.000000 0.800000 sr} bdef
/c5 { 0.910000 0.820000 0.320000 sr} bdef
/c6 { 1.000000 0.260000 0.820000 sr} bdef
/c7 { 0.000000 0.820000 0.820000 sr} bdef
c0
1 j
1 sg
   0    0 6919 5187 rf
6 w
0 4202 5362 0 0 -4202 899 4616 4 MP
PP
-5362 0 0 4202 5362 0 0 -4202 899 4616 5 MP stroke
4 w
DO
SO
6 w
0 sg
 899  414 mt 6261  414 L
 899 4616 mt 6261 4616 L
6261 4616 mt 6261  414 L
 899 4616 mt  899  414 L
 899 4616 mt 6261 4616 L
 899 4616 mt  899  414 L
 919 4616 mt  919 4562 L
 919  414 mt  919  467 L
%%IncludeResource: font Helvetica
/Helvetica /WindowsLatin1Encoding 240 FMSR

 713 4873 mt 
(-3) s
1806 4616 mt 1806 4562 L
1806  414 mt 1806  467 L
1600 4873 mt 
(-2) s
2693 4616 mt 2693 4562 L
2693  414 mt 2693  467 L
2487 4873 mt 
(-1) s
3580 4616 mt 3580 4562 L
3580  414 mt 3580  467 L
3514 4873 mt 
(0) s
4466 4616 mt 4466 4562 L
4466  414 mt 4466  467 L
4400 4873 mt 
(1) s
5353 4616 mt 5353 4562 L
5353  414 mt 5353  467 L
5287 4873 mt 
(2) s
6240 4616 mt 6240 4562 L
6240  414 mt 6240  467 L
6174 4873 mt 
(3) s
 899 4599 mt  952 4599 L
6261 4599 mt 6207 4599 L
 591 4688 mt 
(-3) s
 899 3904 mt  952 3904 L
6261 3904 mt 6207 3904 L
 591 3993 mt 
(-2) s
 899 3209 mt  952 3209 L
6261 3209 mt 6207 3209 L
 591 3298 mt 
(-1) s
 899 2514 mt  952 2514 L
6261 2514 mt 6207 2514 L
 731 2603 mt 
(0) s
 899 1820 mt  952 1820 L
6261 1820 mt 6207 1820 L
 731 1909 mt 
(1) s
 899 1125 mt  952 1125 L
6261 1125 mt 6207 1125 L
 731 1214 mt 
(2) s
 899  430 mt  952  430 L
6261  430 mt 6207  430 L
 731  519 mt 
(3) s
 899  414 mt 6261  414 L
 899 4616 mt 6261 4616 L
6261 4616 mt 6261  414 L
 899 4616 mt  899  414 L
gs 899 414 5363 4203 rc
gr

/c8 { 0.000000 0.000000 1.000000 sr} bdef
c8
3053 3081 mt 3125 3081 L
3089 3045 mt 3089 3117 L
3983 1816 mt 4055 1816 L
4019 1780 mt 4019 1852 L
4719 2233 mt 4791 2233 L
4755 2197 mt 4755 2269 L
3791 1732 mt 3863 1732 L
3827 1696 mt 3827 1768 L
2866 2194 mt 2938 2194 L
2902 2158 mt 2902 2230 L
3460 2347 mt 3532 2347 L
3496 2311 mt 3496 2383 L
4298 3063 mt 4370 3063 L
4334 3027 mt 4334 3099 L
2851 2773 mt 2923 2773 L
2887 2737 mt 2887 2809 L
3421 2467 mt 3493 2467 L
3457 2431 mt 3457 2503 L
3940 2759 mt 4012 2759 L
3976 2723 mt 3976 2795 L
3621  414 mt 3693  414 L
3657  378 mt 3657  450 L
4330 2275 mt 4402 2275 L
4366 2239 mt 4366 2311 L
4553 2024 mt 4625 2024 L
4589 1988 mt 4589 2060 L
4087 2189 mt 4159 2189 L
4123 2153 mt 4123 2225 L
3885 3425 mt 3957 3425 L
3921 3389 mt 3921 3461 L
4290 1152 mt 4362 1152 L
4326 1116 mt 4326 1188 L
3243 1787 mt 3315 1787 L
3279 1751 mt 3279 1823 L
2917 2909 mt 2989 2909 L
2953 2873 mt 2953 2945 L
5002 2165 mt 5074 2165 L
5038 2129 mt 5038 2201 L
3605 1823 mt 3677 1823 L
3641 1787 mt 3641 1859 L
3532 2510 mt 3604 2510 L
3568 2474 mt 3568 2546 L
2468 2935 mt 2540 2935 L
2504 2899 mt 2504 2971 L
3774 1371 mt 3846 1371 L
3810 1335 mt 3810 1407 L
4852 2214 mt 4924 2214 L
4888 2178 mt 4888 2250 L
2945 2840 mt 3017 2840 L
2981 2804 mt 2981 2876 L
3832 2920 mt 3904 2920 L
3868 2884 mt 3868 2956 L
3711 2668 mt 3783 2668 L
3747 2632 mt 3747 2704 L
3873 3022 mt 3945 3022 L
3909 2986 mt 3909 3058 L
3751 3051 mt 3823 3051 L
3787 3015 mt 3787 3087 L
3387 3711 mt 3459 3711 L
3423 3675 mt 3423 3747 L
2828 2374 mt 2900 2374 L
2864 2338 mt 2864 2410 L
3689 1561 mt 3761 1561 L
3725 1525 mt 3725 1597 L
4407 1923 mt 4479 1923 L
4443 1887 mt 4443 1959 L
2697 2637 mt 2769 2637 L
2733 2601 mt 2733 2673 L
4355 2576 mt 4427 2576 L
4391 2540 mt 4391 2612 L
2394 1604 mt 2466 1604 L
2430 1568 mt 2430 1640 L
2575 2338 mt 2647 2338 L
2611 2302 mt 2611 2374 L
3694 1643 mt 3766 1643 L
3730 1607 mt 3730 1679 L
3903  824 mt 3975  824 L
3939  788 mt 3939  860 L
4184 2180 mt 4256 2180 L
4220 2144 mt 4220 2216 L
3410 2445 mt 3482 2445 L
3446 2409 mt 3446 2481 L
4805  898 mt 4877  898 L
4841  862 mt 4841  934 L
2420 1858 mt 2492 1858 L
2456 1822 mt 2456 1894 L
5282 2584 mt 5354 2584 L
5318 2548 mt 5318 2620 L
6033 2051 mt 6105 2051 L
6069 2015 mt 6069 2087 L
3838 2279 mt 3910 2279 L
3874 2243 mt 3874 2315 L
2555 3553 mt 2627 3553 L
2591 3517 mt 2591 3589 L
4338 3908 mt 4410 3908 L
4374 3872 mt 4374 3944 L
4608 2035 mt 4680 2035 L
4644 1999 mt 4644 2071 L
4643 1794 mt 4715 1794 L
4679 1758 mt 4679 1830 L
2456 3331 mt 2528 3331 L
2492 3295 mt 2492 3367 L
1876 2062 mt 1948 2062 L
1912 2026 mt 1912 2098 L
5365 1298 mt 5437 1298 L
5401 1262 mt 5401 1334 L
3147 1526 mt 3219 1526 L
3183 1490 mt 3183 1562 L
3296 2994 mt 3368 2994 L
3332 2958 mt 3332 3030 L
3290 2223 mt 3362 2223 L
3326 2187 mt 3326 2259 L
3844 1538 mt 3916 1538 L
3880 1502 mt 3880 1574 L
3278 2140 mt 3350 2140 L
3314 2104 mt 3314 2176 L
4322 1845 mt 4394 1845 L
4358 1809 mt 4358 1881 L
4435 2396 mt 4507 2396 L
4471 2360 mt 4471 2432 L
2789 4023 mt 2861 4023 L
2825 3987 mt 2825 4059 L
2016 3731 mt 2088 3731 L
2052 3695 mt 2052 3767 L
4746 3306 mt 4818 3306 L
4782 3270 mt 4782 3342 L
5071 2801 mt 5143 2801 L
5107 2765 mt 5107 2837 L
4836 1948 mt 4908 1948 L
4872 1912 mt 4872 1984 L
2896 2325 mt 2968 2325 L
2932 2289 mt 2932 2361 L
5150 3527 mt 5222 3527 L
5186 3491 mt 5186 3563 L
2671 1878 mt 2743 1878 L
2707 1842 mt 2707 1914 L
3566 2820 mt 3638 2820 L
3602 2784 mt 3602 2856 L
3353 3151 mt 3425 3151 L
3389 3115 mt 3389 3187 L
3734 2073 mt 3806 2073 L
3770 2037 mt 3770 2109 L
4170 2334 mt 4242 2334 L
4206 2298 mt 4206 2370 L
3803 2849 mt 3875 2849 L
3839 2813 mt 3839 2885 L
3307 2480 mt 3379 2480 L
3343 2444 mt 3343 2516 L
3098 2242 mt 3170 2242 L
3134 2206 mt 3134 2278 L
4886 1984 mt 4958 1984 L
4922 1948 mt 4922 2020 L
4522 1885 mt 4594 1885 L
4558 1849 mt 4558 1921 L
3921 2659 mt 3993 2659 L
3957 2623 mt 3957 2695 L
4631 1809 mt 4703 1809 L
4667 1773 mt 4667 1845 L
3521 2686 mt 3593 2686 L
3557 2650 mt 3557 2722 L
4904 1614 mt 4976 1614 L
4940 1578 mt 4940 1650 L
5047 2204 mt 5119 2204 L
5083 2168 mt 5083 2240 L
2595 1707 mt 2667 1707 L
2631 1671 mt 2631 1743 L
3577 1872 mt 3649 1872 L
3613 1836 mt 3613 1908 L
3538 3515 mt 3610 3515 L
3574 3479 mt 3574 3551 L
4074 3658 mt 4146 3658 L
4110 3622 mt 4110 3694 L
3123 1049 mt 3195 1049 L
3159 1013 mt 3159 1085 L
5321 3118 mt 5393 3118 L
5357 3082 mt 5357 3154 L
2479 2682 mt 2551 2682 L
2515 2646 mt 2515 2718 L
2218 2904 mt 2290 2904 L
2254 2868 mt 2254 2940 L
4585 2109 mt 4657 2109 L
4621 2073 mt 4621 2145 L
4922 2956 mt 4994 2956 L
4958 2920 mt 4958 2992 L
4121 1960 mt 4193 1960 L
4157 1924 mt 4157 1996 L
3891 1232 mt 3963 1232 L
3927 1196 mt 3927 1268 L
1481 2484 mt 1553 2484 L
1517 2448 mt 1517 2520 L
4015 2493 mt 4087 2493 L
4051 2457 mt 4051 2529 L
3267 2040 mt 3339 2040 L
3303 2004 mt 3303 2076 L
3319 1181 mt 3391 1181 L
3355 1145 mt 3355 1217 L
4667 4305 mt 4739 4305 L
4703 4269 mt 4703 4341 L
2931 3693 mt 3003 3693 L
2967 3657 mt 2967 3729 L
3000 1624 mt 3072 1624 L
3036 1588 mt 3036 1660 L
3393 1764 mt 3465 1764 L
3429 1728 mt 3429 1800 L
4372 2361 mt 4444 2361 L
4408 2325 mt 4408 2397 L
2980 3358 mt 3052 3358 L
3016 3322 mt 3016 3394 L
3867 2967 mt 3939 2967 L
3903 2931 mt 3903 3003 L
4021 2978 mt 4093 2978 L
4057 2942 mt 4057 3014 L
4236 2825 mt 4308 2825 L
4272 2789 mt 4272 2861 L
3214  724 mt 3286  724 L
3250  688 mt 3250  760 L
3438 3848 mt 3510 3848 L
3474 3812 mt 3474 3884 L
2821 1572 mt 2893 1572 L
2857 1536 mt 2857 1608 L
5828 1354 mt 5900 1354 L
5864 1318 mt 5864 1390 L
3454 2475 mt 3526 2475 L
3490 2439 mt 3490 2511 L
2749 2815 mt 2821 2815 L
2785 2779 mt 2785 2851 L
2859 2754 mt 2931 2754 L
2895 2718 mt 2895 2790 L
4266 2302 mt 4338 2302 L
4302 2266 mt 4302 2338 L
3934 2316 mt 4006 2316 L
3970 2280 mt 3970 2352 L
4107 1087 mt 4179 1087 L
4143 1051 mt 4143 1123 L
3740 3250 mt 3812 3250 L
3776 3214 mt 3776 3286 L
4775 2265 mt 4847 2265 L
4811 2229 mt 4811 2301 L
2565 1865 mt 2637 1865 L
2601 1829 mt 2601 1901 L
3085 2972 mt 3157 2972 L
3121 2936 mt 3121 3008 L
4228 3376 mt 4300 3376 L
4264 3340 mt 4264 3412 L
2757 1489 mt 2829 1489 L
2793 1453 mt 2793 1525 L
4869 1653 mt 4941 1653 L
4905 1617 mt 4905 1689 L
3594 1404 mt 3666 1404 L
3630 1368 mt 3630 1440 L
5024 3017 mt 5096 3017 L
5060 2981 mt 5060 3053 L
3153 2750 mt 3225 2750 L
3189 2714 mt 3189 2786 L
3555 1756 mt 3627 1756 L
3591 1720 mt 3591 1792 L
3313 2571 mt 3385 2571 L
3349 2535 mt 3349 2607 L
2085 2170 mt 2157 2170 L
2121 2134 mt 2121 2206 L
4472 2633 mt 4544 2633 L
4508 2597 mt 4508 2669 L
3347 2247 mt 3419 2247 L
3383 2211 mt 3383 2283 L
3027 1715 mt 3099 1715 L
3063 1679 mt 3063 1751 L
1259 2218 mt 1331 2218 L
1295 2182 mt 1295 2254 L
1387 3257 mt 1459 3257 L
1423 3221 mt 1423 3293 L
2523 2356 mt 2595 2356 L
2559 2320 mt 2559 2392 L
3342 3457 mt 3414 3457 L
3378 3421 mt 3378 3493 L
3261 2787 mt 3333 2787 L
3297 2751 mt 3297 2823 L
4306 1255 mt 4378 1255 L
4342 1219 mt 4342 1291 L
3046 1662 mt 3118 1662 L
3082 1626 mt 3082 1698 L
4041 2889 mt 4113 2889 L
4077 2853 mt 4077 2925 L
3897 2237 mt 3969 2237 L
3933 2201 mt 3933 2273 L
4619 2946 mt 4691 2946 L
4655 2910 mt 4655 2982 L
2368 2562 mt 2440 2562 L
2404 2526 mt 2404 2598 L
3505 2256 mt 3577 2256 L
3541 2220 mt 3541 2292 L
3404 1978 mt 3476 1978 L
3440 1942 mt 3440 2014 L
4054 3099 mt 4126 3099 L
4090 3063 mt 4090 3135 L
4532 3595 mt 4604 3595 L
4568 3559 mt 4568 3631 L
4574 2859 mt 4646 2859 L
4610 2823 mt 4610 2895 L
2327 1698 mt 2399 1698 L
2363 1662 mt 2363 1734 L
6225 1966 mt 6297 1966 L
6261 1930 mt 6261 2002 L
2765 2914 mt 2837 2914 L
2801 2878 mt 2801 2950 L
3471 1772 mt 3543 1772 L
3507 1736 mt 3507 1808 L
4213 2029 mt 4285 2029 L
4249 1993 mt 4249 2065 L
1937 2782 mt 2009 2782 L
1973 2746 mt 1973 2818 L
3376 3075 mt 3448 3075 L
3412 3039 mt 3412 3111 L
4390 2879 mt 4462 2879 L
4426 2843 mt 4426 2915 L
3477 2519 mt 3549 2519 L
3513 2483 mt 3513 2555 L
2201  957 mt 2273  957 L
2237  921 mt 2237  993 L
4206 2528 mt 4278 2528 L
4242 2492 mt 4242 2564 L
4693 2418 mt 4765 2418 L
4729 2382 mt 4729 2454 L
3172 2835 mt 3244 2835 L
3208 2799 mt 3208 2871 L
2836 2677 mt 2908 2677 L
2872 2641 mt 2872 2713 L
3809 2115 mt 3881 2115 L
3845 2079 mt 3845 2151 L
3672 3106 mt 3744 3106 L
3708 3070 mt 3708 3142 L
4191 2764 mt 4263 2764 L
4227 2728 mt 4227 2800 L
5468 3314 mt 5540 3314 L
5504 3278 mt 5504 3350 L
3797 2497 mt 3869 2497 L
3833 2461 mt 3833 2533 L
3510 3164 mt 3582 3164 L
3546 3128 mt 3546 3200 L
4364 2727 mt 4436 2727 L
4400 2691 mt 4400 2763 L
2966 2343 mt 3038 2343 L
3002 2307 mt 3002 2379 L
2874 2619 mt 2946 2619 L
2910 2583 mt 2910 2655 L
2235 2099 mt 2307 2099 L
2271 2063 mt 2271 2135 L
3757 3641 mt 3829 3641 L
3793 3605 mt 3793 3677 L
3449 2536 mt 3521 2536 L
3485 2500 mt 3485 2572 L
3728 2150 mt 3800 2150 L
3764 2114 mt 3764 2186 L
3952 1740 mt 4024 1740 L
3988 1704 mt 3988 1776 L
3527 3468 mt 3599 3468 L
3563 3432 mt 3563 3504 L
4163 2722 mt 4235 2722 L
4199 2686 mt 4199 2758 L
3627 3242 mt 3699 3242 L
3663 3206 mt 3663 3278 L
2881 3265 mt 2953 3265 L
2917 3229 mt 2917 3301 L
2605 1462 mt 2677 1462 L
2641 1426 mt 2641 1498 L
4002 2899 mt 4074 2899 L
4038 2863 mt 4038 2935 L
5122 1476 mt 5194 1476 L
5158 1440 mt 5158 1512 L
4135 2130 mt 4207 2130 L
4171 2094 mt 4171 2166 L
3683 3191 mt 3755 3191 L
3719 3155 mt 3719 3227 L
3196 3322 mt 3268 3322 L
3232 3286 mt 3232 3358 L
3655 3797 mt 3727 3797 L
3691 3761 mt 3691 3833 L
3091 1972 mt 3163 1972 L
3127 1936 mt 3127 2008 L
3226 4616 mt 3298 4616 L
3262 4580 mt 3262 4652 L
3129 3415 mt 3201 3415 L
3165 3379 mt 3165 3451 L
4114 2067 mt 4186 2067 L
4150 2031 mt 4150 2103 L
3104 2745 mt 3176 2745 L
3140 2709 mt 3140 2781 L
2643 2185 mt 2715 2185 L
2679 2149 mt 2679 2221 L
1722 1207 mt 1794 1207 L
1758 1171 mt 1758 1243 L
5096 2951 mt 5168 2951 L
5132 2915 mt 5132 2987 L
3616 2089 mt 3688 2089 L
3652 2053 mt 3652 2125 L
3381 3011 mt 3453 3011 L
3417 2975 mt 3417 3047 L
3780 3349 mt 3852 3349 L
3816 3313 mt 3816 3385 L
3370 2453 mt 3442 2453 L
3406 2417 mt 3406 2489 L
3364 2811 mt 3436 2811 L
3400 2775 mt 3400 2847 L
3560 3942 mt 3632 3942 L
3596 3906 mt 3596 3978 L
2910 3625 mt 2982 3625 L
2946 3589 mt 2946 3661 L
2282 1502 mt 2354 1502 L
2318 1466 mt 2318 1538 L
2586 2440 mt 2658 2440 L
2622 2404 mt 2622 2476 L
3116 1851 mt 3188 1851 L
3152 1815 mt 3152 1887 L
4425 2293 mt 4497 2293 L
4461 2257 mt 4461 2329 L
1766 2718 mt 1838 2718 L
1802 2682 mt 1802 2754 L
4149 2589 mt 4221 2589 L
4185 2553 mt 4185 2625 L
4492 3213 mt 4564 3213 L
4528 3177 mt 4528 3249 L
1674 2175 mt 1746 2175 L
1710 2139 mt 1710 2211 L
3927 2383 mt 3999 2383 L
3963 2347 mt 3963 2419 L
4047 2597 mt 4119 2597 L
4083 2561 mt 4083 2633 L
2924 3567 mt 2996 3567 L
2960 3531 mt 2960 3603 L
2615 3774 mt 2687 3774 L
2651 3738 mt 2651 3810 L
4941 1550 mt 5013 1550 L
4977 1514 mt 4977 1586 L
2706 2602 mt 2778 2602 L
2742 2566 mt 2742 2638 L
3078 2541 mt 3150 2541 L
3114 2505 mt 3114 2577 L
4080 1936 mt 4152 1936 L
4116 1900 mt 4116 1972 L
4243 1779 mt 4315 1779 L
4279 1743 mt 4279 1815 L
2355 4072 mt 2427 4072 L
2391 4036 mt 2391 4108 L
3066 2405 mt 3138 2405 L
3102 2369 mt 3102 2441 L
4282 1831 mt 4354 1831 L
4318 1795 mt 4318 1867 L
3996 2558 mt 4068 2558 L
4032 2522 mt 4032 2594 L
4655 2427 mt 4727 2427 L
4691 2391 mt 4691 2463 L
3861 2741 mt 3933 2741 L
3897 2705 mt 3897 2777 L
3814 2320 mt 3886 2320 L
3850 2284 mt 3850 2356 L
3915 2709 mt 3987 2709 L
3951 2673 mt 3951 2745 L
3644 2352 mt 3716 2352 L
3680 2316 mt 3680 2388 L
3336 3184 mt 3408 3184 L
3372 3148 mt 3372 3220 L
2126 2078 mt 2198 2078 L
2162 2042 mt 2162 2114 L
4177 1723 mt 4249 1723 L
4213 1687 mt 4213 1759 L
3638 1388 mt 3710 1388 L
3674 1352 mt 3674 1424 L
2938 3005 mt 3010 3005 L
2974 2969 mt 2974 3041 L
2888 2983 mt 2960 2983 L
2924 2947 mt 2924 3019 L
2732 1434 mt 2804 1434 L
2768 1398 mt 2768 1470 L
3482 2615 mt 3554 2615 L
3518 2579 mt 3518 2651 L
 863 2379 mt  935 2379 L
 899 2343 mt  899 2415 L
3141 1583 mt 3213 1583 L
3177 1547 mt 3177 1619 L
3768 3131 mt 3840 3131 L
3804 3095 mt 3804 3167 L
3232 1930 mt 3304 1930 L
3268 1894 mt 3268 1966 L
4542 1448 mt 4614 1448 L
4578 1412 mt 4578 1484 L
2513 2796 mt 2585 2796 L
2549 2760 mt 2549 2832 L
4199 2940 mt 4271 2940 L
4235 2904 mt 4235 2976 L
5413 1419 mt 5485 1419 L
5449 1383 mt 5449 1455 L
3516 2057 mt 3588 2057 L
3552 2021 mt 3552 2093 L
3273 2580 mt 3345 2580 L
3309 2544 mt 3309 2616 L
4381 2695 mt 4453 2695 L
4417 2659 mt 4417 2731 L
3202 2869 mt 3274 2869 L
3238 2833 mt 3238 2905 L
3599 2593 mt 3671 2593 L
3635 2557 mt 3635 2629 L
2959 2925 mt 3031 2925 L
2995 2889 mt 2995 2961 L
3040 2155 mt 3112 2155 L
3076 2119 mt 3076 2191 L
4789 1318 mt 4861 1318 L
4825 1282 mt 4825 1354 L
2781 2251 mt 2853 2251 L
2817 2215 mt 2817 2287 L
3820 2854 mt 3892 2854 L
3856 2818 mt 3856 2890 L
3443 2135 mt 3515 2135 L
3479 2099 mt 3479 2171 L
3958 2930 mt 4030 2930 L
3994 2894 mt 3994 2966 L
1991 2392 mt 2063 2392 L
2027 2356 mt 2027 2428 L
4259 1990 mt 4331 1990 L
4295 1954 mt 4295 2026 L
3666 2462 mt 3738 2462 L
3702 2426 mt 3702 2498 L
2715 2012 mt 2787 2012 L
2751 1976 mt 2751 2048 L
3359 4131 mt 3431 4131 L
3395 4095 mt 3395 4167 L
4274 3877 mt 4346 3877 L
4310 3841 mt 4310 3913 L
5531 2414 mt 5603 2414 L
5567 2378 mt 5567 2450 L
2146 3281 mt 2218 3281 L
2182 3245 mt 2182 3317 L
3249 2209 mt 3321 2209 L
3285 2173 mt 3285 2245 L
3178 3675 mt 3250 3675 L
3214 3639 mt 3214 3711 L
2381 2844 mt 2453 2844 L
2417 2808 mt 2417 2880 L
4100 2874 mt 4172 2874 L
4136 2838 mt 4136 2910 L
3466 3178 mt 3538 3178 L
3502 3142 mt 3502 3214 L
4142 2449 mt 4214 2449 L
4178 2413 mt 4178 2485 L
2652 3752 mt 2724 3752 L
2688 3716 mt 2688 3788 L
4034 2713 mt 4106 2713 L
4070 2677 mt 4070 2749 L
3971 2523 mt 4043 2523 L
4007 2487 mt 4007 2559 L
3190 2410 mt 3262 2410 L
3226 2374 mt 3226 2446 L
4009 2018 mt 4081 2018 L
4045 1982 mt 4045 2054 L
4416 1671 mt 4488 1671 L
4452 1635 mt 4452 1707 L
1965 3198 mt 2037 3198 L
2001 3162 mt 2001 3234 L
3946 2545 mt 4018 2545 L
3982 2509 mt 3982 2581 L
2805 3405 mt 2877 3405 L
2841 3369 mt 2841 3441 L
5245  564 mt 5317  564 L
5281  528 mt 5281  600 L
4453 2736 mt 4525 2736 L
4489 2700 mt 4489 2772 L
3723 1689 mt 3795 1689 L
3759 1653 mt 3759 1725 L
2689 2673 mt 2761 2673 L
2725 2637 mt 2725 2709 L
4251 3045 mt 4323 3045 L
4287 3009 mt 4287 3081 L
3544 3220 mt 3616 3220 L
3580 3184 mt 3580 3256 L
3785 1336 mt 3857 1336 L
3821 1300 mt 3821 1372 L
5211 3069 mt 5283 3069 L
5247 3033 mt 5247 3105 L
3398 2864 mt 3470 2864 L
3434 2828 mt 3434 2900 L
2502 3491 mt 2574 3491 L
2538 3455 mt 2538 3527 L
3989 3297 mt 4061 3297 L
4025 3261 mt 4025 3333 L
4060 2792 mt 4132 2792 L
4096 2756 mt 4096 2828 L
3325 2288 mt 3397 2288 L
3361 2252 mt 3361 2324 L
3700 1942 mt 3772 1942 L
3736 1906 mt 3736 1978 L
2490 2606 mt 2562 2606 L
2526 2570 mt 2526 2642 L
3762 2261 mt 3834 2261 L
3798 2225 mt 3798 2297 L
4482 2650 mt 4554 2650 L
4518 2614 mt 4518 2686 L
2797 2514 mt 2869 2514 L
2833 2478 mt 2833 2550 L
4760 3235 mt 4832 3235 L
4796 3199 mt 4796 3271 L
3850 3386 mt 3922 3386 L
3886 3350 mt 3886 3422 L
2545 2423 mt 2617 2423 L
2581 2387 mt 2581 2459 L
2662 3581 mt 2734 3581 L
2698 3545 mt 2698 3617 L
4732 1917 mt 4804 1917 L
4768 1881 mt 4768 1953 L
2432 3367 mt 2504 3367 L
2468 3331 mt 2468 3403 L
4820 2884 mt 4892 2884 L
4856 2848 mt 4856 2920 L
3909 3125 mt 3981 3125 L
3945 3089 mt 3945 3161 L
4463 2298 mt 4535 2298 L
4499 2262 mt 4499 2334 L
1907 1514 mt 1979 1514 L
1943 1478 mt 1943 1550 L
3208 2145 mt 3280 2145 L
3244 2109 mt 3244 2181 L
3033 2083 mt 3105 2083 L
3069 2047 mt 3069 2119 L
5606 1277 mt 5678 1277 L
5642 1241 mt 5642 1313 L
3661 3057 mt 3733 3057 L
3697 3021 mt 3697 3093 L
4094 2628 mt 4166 2628 L
4130 2592 mt 4130 2664 L
2407 3395 mt 2479 3395 L
2443 3359 mt 2443 3431 L
3677 3436 mt 3749 3436 L
3713 3400 mt 3713 3472 L
2444 2228 mt 2516 2228 L
2480 2192 mt 2480 2264 L
3493 3112 mt 3565 3112 L
3529 3076 mt 3529 3148 L
1619 1898 mt 1691 1898 L
1655 1862 mt 1655 1934 L
4680 2768 mt 4752 2768 L
4716 2732 mt 4716 2804 L
3488 2046 mt 3560 2046 L
3524 2010 mt 3524 2082 L
3588 2641 mt 3660 2641 L
3624 2605 mt 3624 2677 L
3166 2370 mt 3238 2370 L
3202 2334 mt 3202 2406 L
3013 1593 mt 3085 1593 L
3049 1557 mt 3049 1629 L
4512 2436 mt 4584 2436 L
4548 2400 mt 4548 2472 L
2298 2549 mt 2370 2549 L
2334 2513 mt 2334 2585 L
3649 2731 mt 3721 2731 L
3685 2695 mt 3685 2767 L
3302 3034 mt 3374 3034 L
3338 2998 mt 3338 3070 L
2993 1904 mt 3065 1904 L
3029 1868 mt 3029 1940 L
3549 3206 mt 3621 3206 L
3585 3170 mt 3585 3242 L
2267 2624 mt 2339 2624 L
2303 2588 mt 2303 2660 L
4706 3540 mt 4778 3540 L
4742 3504 mt 4742 3576 L
1556 2554 mt 1628 2554 L
1592 2518 mt 1592 2590 L
3745 1634 mt 3817 1634 L
3781 1598 mt 3781 1670 L
2844 2001 mt 2916 2001 L
2880 1965 mt 2880 2037 L
2680 2388 mt 2752 2388 L
2716 2352 mt 2716 2424 L
3499 2506 mt 3571 2506 L
3535 2470 mt 3535 2542 L
3135 2611 mt 3207 2611 L
3171 2575 mt 3171 2647 L
2624 2567 mt 2696 2567 L
2660 2531 mt 2660 2603 L
2165 1006 mt 2237 1006 L
2201  970 mt 2201 1042 L
2040 4205 mt 2112 4205 L
2076 4169 mt 2076 4241 L
4314 2270 mt 4386 2270 L
4350 2234 mt 4350 2306 L
3964 2962 mt 4036 2962 L
4000 2926 mt 4000 2998 L
4961 2989 mt 5033 2989 L
4997 2953 mt 4997 3025 L
2106 3028 mt 2178 3028 L
2142 2992 mt 2142 3064 L
4156 3479 mt 4228 3479 L
4192 3443 mt 4192 3515 L
3184 2806 mt 3256 2806 L
3220 2770 mt 3220 2842 L
3220 3980 mt 3292 3980 L
3256 3944 mt 3256 4016 L
4398 3144 mt 4470 3144 L
4434 3108 mt 4434 3180 L
4347 3273 mt 4419 3273 L
4383 3237 mt 4383 3309 L
3855 1121 mt 3927 1121 L
3891 1085 mt 3891 1157 L
5700 1954 mt 5772 1954 L
5736 1918 mt 5736 1990 L
4128 1911 mt 4200 1911 L
4164 1875 mt 4164 1947 L
2987 1892 mt 3059 1892 L
3023 1856 mt 3023 1928 L
2183 2307 mt 2255 2307 L
2219 2271 mt 2219 2343 L
2903 2120 mt 2975 2120 L
2939 2084 mt 2939 2156 L
2063 3087 mt 2135 3087 L
2099 3051 mt 2099 3123 L
3160 3000 mt 3232 3000 L
3196 2964 mt 3196 3036 L
2534 2284 mt 2606 2284 L
2570 2248 mt 2570 2320 L
3432 2401 mt 3504 2401 L
3468 2365 mt 3468 2437 L
3571 3227 mt 3643 3227 L
3607 3191 mt 3607 3263 L
3330 3093 mt 3402 3093 L
3366 3057 mt 3366 3129 L
2341 2104 mt 2413 2104 L
2377 2068 mt 2377 2140 L
2973 2704 mt 3045 2704 L
3009 2668 mt 3009 2740 L
3110 3340 mt 3182 3340 L
3146 3304 mt 3146 3376 L
3977 1680 mt 4049 1680 L
4013 1644 mt 4013 1716 L
3426 1995 mt 3498 1995 L
3462 1959 mt 3462 2031 L
5180 3289 mt 5252 3289 L
5216 3253 mt 5216 3325 L
3072 1838 mt 3144 1838 L
3108 1802 mt 3108 1874 L
3007 2329 mt 3079 2329 L
3043 2293 mt 3043 2365 L
1842 2125 mt 1914 2125 L
1878 2089 mt 1878 2161 L
2813 2655 mt 2885 2655 L
2849 2619 mt 2849 2691 L
1805 2094 mt 1877 2094 L
1841 2058 mt 1841 2130 L
2723 3446 mt 2795 3446 L
2759 3410 mt 2759 3482 L
2773 3137 mt 2845 3137 L
2809 3101 mt 2809 3173 L
2740 2646 mt 2812 2646 L
2776 2610 mt 2776 2682 L
4444 1748 mt 4516 1748 L
4480 1712 mt 4480 1784 L
3826 2365 mt 3898 2365 L
3862 2329 mt 3862 2401 L
4067 2471 mt 4139 2471 L
4103 2435 mt 4103 2507 L
4221 3039 mt 4293 3039 L
4257 3003 mt 4257 3075 L
3610 3822 mt 3682 3822 L
3646 3786 mt 3646 3858 L
3582 2311 mt 3654 2311 L
3618 2275 mt 3618 2347 L
3717 1802 mt 3789 1802 L
3753 1766 mt 3753 1838 L
4564 2894 mt 4636 2894 L
4600 2858 mt 4600 2930 L
4597 2007 mt 4669 2007 L
4633 1971 mt 4633 2043 L
3415 2199 mt 3487 2199 L
3451 2163 mt 3451 2235 L
3059 2532 mt 3131 2532 L
3095 2496 mt 3095 2568 L
3284 2691 mt 3356 2691 L
3320 2655 mt 3320 2727 L
3633 2488 mt 3705 2488 L
3669 2452 mt 3669 2524 L
4501 3171 mt 4573 3171 L
4537 3135 mt 4537 3207 L
3020 3610 mt 3092 3610 L
3056 3574 mt 3056 3646 L
3237 2160 mt 3309 2160 L
3273 2124 mt 3273 2196 L
4028 2778 mt 4100 2778 L
4064 2742 mt 4064 2814 L
2251 3157 mt 2323 3157 L
2287 3121 mt 2287 3193 L
3706 3503 mt 3778 3503 L
3742 3467 mt 3742 3539 L
2952 2830 mt 3024 2830 L
2988 2794 mt 2988 2866 L
4981 2664 mt 5053 2664 L
5017 2628 mt 5017 2700 L
3879 2501 mt 3951 2501 L
3915 2465 mt 3915 2537 L
2634 2700 mt 2706 2700 L
2670 2664 mt 2670 2736 L
2312 2458 mt 2384 2458 L
2348 2422 mt 2348 2494 L
3255 2432 mt 3327 2432 L
3291 2396 mt 3291 2468 L
gs 899 414 5363 4203 rc
gr

0 sg
2799 5104 mt 
(\(F,DCTs,iMLP\)) s
 482 3300 mt  -90 rotate
(\(F,DCTb,iMLP\)) s
90 rotate
2975  223 mt 
(Corr = 0.09) s

end %%Color Dict

eplot
%%EndObject

epage
end

showpage

%%Trailer
%%EOF
