%!PS-Adobe-3.0 EPSF-3.0
%%Creator: MATLAB, The Mathworks, Inc. Version 7.7.0.471 (R2008b). Operating System: Microsoft Windows XP.
%%Title: Pictures\main_zoo_mvar_analysis_data_BMI_xcorr_bmi_p1_k1_2_7.eps
%%CreationDate: 10/26/2009  05:43:57
%%DocumentNeededFonts: Helvetica
%%DocumentProcessColors: Cyan Magenta Yellow Black
%%LanguageLevel: 2
%%Pages: 1
%%BoundingBox:    32   180   549   616
%%EndComments

%%BeginProlog
% MathWorks dictionary
/MathWorks 160 dict begin
% definition operators
/bdef {bind def} bind def
/ldef {load def} bind def
/xdef {exch def} bdef
/xstore {exch store} bdef
% operator abbreviations
/c  /clip ldef
/cc /concat ldef
/cp /closepath ldef
/gr /grestore ldef
/gs /gsave ldef
/mt /moveto ldef
/np /newpath ldef
/cm /currentmatrix ldef
/sm /setmatrix ldef
/rm /rmoveto ldef
/rl /rlineto ldef
/s {show newpath} bdef
/sc {setcmykcolor} bdef
/sr /setrgbcolor ldef
/sg /setgray ldef
/w /setlinewidth ldef
/j /setlinejoin ldef
/cap /setlinecap ldef
/rc {rectclip} bdef
/rf {rectfill} bdef
% page state control
/pgsv () def
/bpage {/pgsv save def} bdef
/epage {pgsv restore} bdef
/bplot /gsave ldef
/eplot {stroke grestore} bdef
% orientation switch
/portraitMode 0 def /landscapeMode 1 def /rotateMode 2 def
% coordinate system mappings
/dpi2point 0 def
% font control
/FontSize 0 def
/FMS {/FontSize xstore findfont [FontSize 0 0 FontSize neg 0 0]
  makefont setfont} bdef
/ISOLatin1Encoding where {pop /WindowsLatin1Encoding 256 array bdef
ISOLatin1Encoding WindowsLatin1Encoding copy pop
/.notdef/.notdef/quotesinglbase/florin/quotedblbase/ellipsis/dagger
/daggerdbl/circumflex/perthousand/Scaron/guilsinglleft/OE/.notdef/.notdef
/.notdef/.notdef/quoteleft/quoteright/quotedblleft/quotedblright/bullet
/endash/emdash/tilde/trademark/scaron/guilsinglright/oe/.notdef/.notdef
/Ydieresis WindowsLatin1Encoding 128 32 getinterval astore pop}
{/WindowsLatin1Encoding StandardEncoding bdef} ifelse
/reencode {exch dup where {pop load} {pop StandardEncoding} ifelse
  exch dup 3 1 roll findfont dup length dict begin
  { 1 index /FID ne {def}{pop pop} ifelse } forall
  /Encoding exch def currentdict end definefont pop} bdef
/isroman {findfont /CharStrings get /Agrave known} bdef
/FMSR {3 1 roll 1 index dup isroman {reencode} {pop pop} ifelse
  exch FMS} bdef
/csm {1 dpi2point div -1 dpi2point div scale neg translate
 dup landscapeMode eq {pop -90 rotate}
  {rotateMode eq {90 rotate} if} ifelse} bdef
% line types: solid, dotted, dashed, dotdash
/SO { [] 0 setdash } bdef
/DO { [.5 dpi2point mul 4 dpi2point mul] 0 setdash } bdef
/DA { [6 dpi2point mul] 0 setdash } bdef
/DD { [.5 dpi2point mul 4 dpi2point mul 6 dpi2point mul 4
  dpi2point mul] 0 setdash } bdef
% macros for lines and objects
/L {lineto stroke} bdef
/MP {3 1 roll moveto 1 sub {rlineto} repeat} bdef
/AP {{rlineto} repeat} bdef
/PDlw -1 def
/W {/PDlw currentlinewidth def setlinewidth} def
/PP {closepath eofill} bdef
/DP {closepath stroke} bdef
/MR {4 -2 roll moveto dup  0 exch rlineto exch 0 rlineto
  neg 0 exch rlineto closepath} bdef
/FR {MR stroke} bdef
/PR {MR fill} bdef
/L1i {{currentfile picstr readhexstring pop} image} bdef
/tMatrix matrix def
/MakeOval {newpath tMatrix currentmatrix pop translate scale
0 0 1 0 360 arc tMatrix setmatrix} bdef
/FO {MakeOval stroke} bdef
/PO {MakeOval fill} bdef
/PD {currentlinewidth 2 div 0 360 arc fill
   PDlw -1 eq not {PDlw w /PDlw -1 def} if} def
/FA {newpath tMatrix currentmatrix pop translate scale
  0 0 1 5 -2 roll arc tMatrix setmatrix stroke} bdef
/PA {newpath tMatrix currentmatrix pop	translate 0 0 moveto scale
  0 0 1 5 -2 roll arc closepath tMatrix setmatrix fill} bdef
/FAn {newpath tMatrix currentmatrix pop translate scale
  0 0 1 5 -2 roll arcn tMatrix setmatrix stroke} bdef
/PAn {newpath tMatrix currentmatrix pop translate 0 0 moveto scale
  0 0 1 5 -2 roll arcn closepath tMatrix setmatrix fill} bdef
/vradius 0 def /hradius 0 def /lry 0 def
/lrx 0 def /uly 0 def /ulx 0 def /rad 0 def
/MRR {/vradius xdef /hradius xdef /lry xdef /lrx xdef /uly xdef
  /ulx xdef newpath tMatrix currentmatrix pop ulx hradius add uly
  vradius add translate hradius vradius scale 0 0 1 180 270 arc 
  tMatrix setmatrix lrx hradius sub uly vradius add translate
  hradius vradius scale 0 0 1 270 360 arc tMatrix setmatrix
  lrx hradius sub lry vradius sub translate hradius vradius scale
  0 0 1 0 90 arc tMatrix setmatrix ulx hradius add lry vradius sub
  translate hradius vradius scale 0 0 1 90 180 arc tMatrix setmatrix
  closepath} bdef
/FRR {MRR stroke } bdef
/PRR {MRR fill } bdef
/MlrRR {/lry xdef /lrx xdef /uly xdef /ulx xdef /rad lry uly sub 2 div def
  newpath tMatrix currentmatrix pop ulx rad add uly rad add translate
  rad rad scale 0 0 1 90 270 arc tMatrix setmatrix lrx rad sub lry rad
  sub translate rad rad scale 0 0 1 270 90 arc tMatrix setmatrix
  closepath} bdef
/FlrRR {MlrRR stroke } bdef
/PlrRR {MlrRR fill } bdef
/MtbRR {/lry xdef /lrx xdef /uly xdef /ulx xdef /rad lrx ulx sub 2 div def
  newpath tMatrix currentmatrix pop ulx rad add uly rad add translate
  rad rad scale 0 0 1 180 360 arc tMatrix setmatrix lrx rad sub lry rad
  sub translate rad rad scale 0 0 1 0 180 arc tMatrix setmatrix
  closepath} bdef
/FtbRR {MtbRR stroke } bdef
/PtbRR {MtbRR fill } bdef
/stri 6 array def /dtri 6 array def
/smat 6 array def /dmat 6 array def
/tmat1 6 array def /tmat2 6 array def /dif 3 array def
/asub {/ind2 exch def /ind1 exch def dup dup
  ind1 get exch ind2 get sub exch } bdef
/tri_to_matrix {
  2 0 asub 3 1 asub 4 0 asub 5 1 asub
  dup 0 get exch 1 get 7 -1 roll astore } bdef
/compute_transform {
  dmat dtri tri_to_matrix tmat1 invertmatrix 
  smat stri tri_to_matrix tmat2 concatmatrix } bdef
/ds {stri astore pop} bdef
/dt {dtri astore pop} bdef
/db {2 copy /cols xdef /rows xdef mul dup 3 mul string
  currentfile 
  3 index 0 eq {/ASCIIHexDecode filter}
  {/ASCII85Decode filter 3 index 2 eq {/RunLengthDecode filter} if }
  ifelse exch readstring pop
  dup 0 3 index getinterval /rbmap xdef
  dup 2 index dup getinterval /gbmap xdef
  1 index dup 2 mul exch getinterval /bbmap xdef pop pop}bdef
/it {gs np dtri aload pop moveto lineto lineto cp c
  cols rows 8 compute_transform 
  rbmap gbmap bbmap true 3 colorimage gr}bdef
/il {newpath moveto lineto stroke}bdef
currentdict end def
%%EndProlog

%%BeginSetup
MathWorks begin

0 cap

end
%%EndSetup

%%Page: 1 1
%%BeginPageSetup
%%PageBoundingBox:    32   180   549   616
MathWorks begin
bpage
%%EndPageSetup

%%BeginObject: obj1
bplot

/dpi2point 12 def
portraitMode 0216 7344 csm

  174   -48  6209  5231 rc
85 dict begin %Colortable dictionary
/c0 { 0.000000 0.000000 0.000000 sr} bdef
/c1 { 1.000000 1.000000 1.000000 sr} bdef
/c2 { 0.900000 0.000000 0.000000 sr} bdef
/c3 { 0.000000 0.820000 0.000000 sr} bdef
/c4 { 0.000000 0.000000 0.800000 sr} bdef
/c5 { 0.910000 0.820000 0.320000 sr} bdef
/c6 { 1.000000 0.260000 0.820000 sr} bdef
/c7 { 0.000000 0.820000 0.820000 sr} bdef
c0
1 j
1 sg
   0    0 6919 5187 rf
6 w
0 4202 5362 0 0 -4202 899 4616 4 MP
PP
-5362 0 0 4202 5362 0 0 -4202 899 4616 5 MP stroke
4 w
DO
SO
6 w
0 sg
 899  414 mt 6261  414 L
 899 4616 mt 6261 4616 L
6261 4616 mt 6261  414 L
 899 4616 mt  899  414 L
 899 4616 mt 6261 4616 L
 899 4616 mt  899  414 L
1648 4616 mt 1648 4562 L
1648  414 mt 1648  467 L
%%IncludeResource: font Helvetica
/Helvetica /WindowsLatin1Encoding 240 FMSR

1482 4873 mt 
(0.1) s
2398 4616 mt 2398 4562 L
2398  414 mt 2398  467 L
2232 4873 mt 
(0.2) s
3148 4616 mt 3148 4562 L
3148  414 mt 3148  467 L
2982 4873 mt 
(0.3) s
3898 4616 mt 3898 4562 L
3898  414 mt 3898  467 L
3732 4873 mt 
(0.4) s
4648 4616 mt 4648 4562 L
4648  414 mt 4648  467 L
4482 4873 mt 
(0.5) s
5398 4616 mt 5398 4562 L
5398  414 mt 5398  467 L
5232 4873 mt 
(0.6) s
6148 4616 mt 6148 4562 L
6148  414 mt 6148  467 L
5982 4873 mt 
(0.7) s
 899 4104 mt  952 4104 L
6261 4104 mt 6207 4104 L
 531 4193 mt 
(0.1) s
 899 3593 mt  952 3593 L
6261 3593 mt 6207 3593 L
 531 3682 mt 
(0.2) s
 899 3081 mt  952 3081 L
6261 3081 mt 6207 3081 L
 531 3170 mt 
(0.3) s
 899 2570 mt  952 2570 L
6261 2570 mt 6207 2570 L
 531 2659 mt 
(0.4) s
 899 2058 mt  952 2058 L
6261 2058 mt 6207 2058 L
 531 2147 mt 
(0.5) s
 899 1547 mt  952 1547 L
6261 1547 mt 6207 1547 L
 531 1636 mt 
(0.6) s
 899 1036 mt  952 1036 L
6261 1036 mt 6207 1036 L
 531 1125 mt 
(0.7) s
 899  524 mt  952  524 L
6261  524 mt 6207  524 L
 531  613 mt 
(0.8) s
 899  414 mt 6261  414 L
 899 4616 mt 6261 4616 L
6261 4616 mt 6261  414 L
 899 4616 mt  899  414 L
gs 899 414 5363 4203 rc
gr

/c8 { 0.000000 0.000000 1.000000 sr} bdef
c8
1653 1576 mt 1725 1576 L
1689 1540 mt 1689 1612 L
 866 4500 mt  938 4500 L
 902 4464 mt  902 4536 L
2139 4605 mt 2211 4605 L
2175 4569 mt 2175 4641 L
2372 4615 mt 2444 4615 L
2408 4579 mt 2408 4651 L
 874 4261 mt  946 4261 L
 910 4225 mt  910 4297 L
 965 4589 mt 1037 4589 L
1001 4553 mt 1001 4625 L
1200 4469 mt 1272 4469 L
1236 4433 mt 1236 4505 L
 863 4561 mt  935 4561 L
 899 4525 mt  899 4597 L
1287 4612 mt 1359 4612 L
1323 4576 mt 1323 4648 L
5731 4357 mt 5803 4357 L
5767 4321 mt 5767 4393 L
 863 4511 mt  935 4511 L
 899 4475 mt  899 4547 L
 929 4314 mt 1001 4314 L
 965 4278 mt  965 4350 L
 900 4251 mt  972 4251 L
 936 4215 mt  936 4287 L
 920 3581 mt  992 3581 L
 956 3545 mt  956 3617 L
2061 4610 mt 2133 4610 L
2097 4574 mt 2097 4646 L
1562 2836 mt 1634 2836 L
1598 2800 mt 1598 2872 L
 929 1225 mt 1001 1225 L
 965 1189 mt  965 1261 L
1371 4524 mt 1443 4524 L
1407 4488 mt 1407 4560 L
2100 4493 mt 2172 4493 L
2136 4457 mt 2136 4529 L
2546 3968 mt 2618 3968 L
2582 3932 mt 2582 4004 L
 901 4525 mt  973 4525 L
 937 4489 mt  937 4561 L
1293 4582 mt 1365 4582 L
1329 4546 mt 1329 4618 L
1595 4561 mt 1667 4561 L
1631 4525 mt 1631 4597 L
 935 4543 mt 1007 4543 L
 971 4507 mt  971 4579 L
3781 3206 mt 3853 3206 L
3817 3170 mt 3817 3242 L
2945 4338 mt 3017 4338 L
2981 4302 mt 2981 4374 L
1031 4255 mt 1103 4255 L
1067 4219 mt 1067 4291 L
2144 4595 mt 2216 4595 L
2180 4559 mt 2180 4631 L
2202 4615 mt 2274 4615 L
2238 4579 mt 2238 4651 L
4485 4514 mt 4557 4514 L
4521 4478 mt 4521 4550 L
1041 4564 mt 1113 4564 L
1077 4528 mt 1077 4600 L
1901 4371 mt 1973 4371 L
1937 4335 mt 1937 4407 L
2021 4575 mt 2093 4575 L
2057 4539 mt 2057 4611 L
4336 4341 mt 4408 4341 L
4372 4305 mt 4372 4377 L
2649 4571 mt 2721 4571 L
2685 4535 mt 2685 4607 L
1830 4501 mt 1902 4501 L
1866 4465 mt 1866 4537 L
1769 4404 mt 1841 4404 L
1805 4368 mt 1805 4440 L
1066 4118 mt 1138 4118 L
1102 4082 mt 1102 4154 L
1068 3158 mt 1140 3158 L
1104 3122 mt 1104 3194 L
 937 3753 mt 1009 3753 L
 973 3717 mt  973 3789 L
2627 4521 mt 2699 4521 L
2663 4485 mt 2663 4557 L
1072 4568 mt 1144 4568 L
1108 4532 mt 1108 4604 L
 879 3851 mt  951 3851 L
 915 3815 mt  915 3887 L
2354 4155 mt 2426 4155 L
2390 4119 mt 2390 4191 L
6015 4496 mt 6087 4496 L
6051 4460 mt 6051 4532 L
1824 4614 mt 1896 4614 L
1860 4578 mt 1860 4650 L
1023 2852 mt 1095 2852 L
1059 2816 mt 1059 2888 L
 868 4457 mt  940 4457 L
 904 4421 mt  904 4493 L
2675 4124 mt 2747 4124 L
2711 4088 mt 2711 4160 L
 866 4610 mt  938 4610 L
 902 4574 mt  902 4646 L
1795 4003 mt 1867 4003 L
1831 3967 mt 1831 4039 L
2463 4396 mt 2535 4396 L
2499 4360 mt 2499 4432 L
 926 4435 mt  998 4435 L
 962 4399 mt  962 4471 L
 956 4609 mt 1028 4609 L
 992 4573 mt  992 4645 L
1534 3611 mt 1606 3611 L
1570 3575 mt 1570 3647 L
2409 4564 mt 2481 4564 L
2445 4528 mt 2445 4600 L
1689 4259 mt 1761 4259 L
1725 4223 mt 1725 4295 L
2385 4605 mt 2457 4605 L
2421 4569 mt 2421 4641 L
3521 4320 mt 3593 4320 L
3557 4284 mt 3557 4356 L
1010 4489 mt 1082 4489 L
1046 4453 mt 1046 4525 L
2774 3952 mt 2846 3952 L
2810 3916 mt 2810 3988 L
1703 2926 mt 1775 2926 L
1739 2890 mt 1739 2962 L
2243 4484 mt 2315 4484 L
2279 4448 mt 2279 4520 L
3083 4492 mt 3155 4492 L
3119 4456 mt 3119 4528 L
1297 4599 mt 1369 4599 L
1333 4563 mt 1333 4635 L
1329 4303 mt 1401 4303 L
1365 4267 mt 1365 4339 L
3285 4569 mt 3357 4569 L
3321 4533 mt 3321 4605 L
 864 4213 mt  936 4213 L
 900 4177 mt  900 4249 L
1502 4512 mt 1574 4512 L
1538 4476 mt 1538 4548 L
 867 4609 mt  939 4609 L
 903 4573 mt  903 4645 L
1575 4612 mt 1647 4612 L
1611 4576 mt 1611 4648 L
1731 4491 mt 1803 4491 L
1767 4455 mt 1767 4527 L
 906 4609 mt  978 4609 L
 942 4573 mt  942 4645 L
1089 4513 mt 1161 4513 L
1125 4477 mt 1125 4549 L
 863 4155 mt  935 4155 L
 899 4119 mt  899 4191 L
 864 4100 mt  936 4100 L
 900 4064 mt  900 4136 L
4778 4573 mt 4850 4573 L
4814 4537 mt 4814 4609 L
1032 4506 mt 1104 4506 L
1068 4470 mt 1068 4542 L
1114 4180 mt 1186 4180 L
1150 4144 mt 1150 4216 L
1412 4008 mt 1484 4008 L
1448 3972 mt 1448 4044 L
1705 4434 mt 1777 4434 L
1741 4398 mt 1741 4470 L
 920 4610 mt  992 4610 L
 956 4574 mt  956 4646 L
 895 4110 mt  967 4110 L
 931 4074 mt  931 4146 L
1118 4614 mt 1190 4614 L
1154 4578 mt 1154 4650 L
3818 3584 mt 3890 3584 L
3854 3548 mt 3854 3620 L
1124 4611 mt 1196 4611 L
1160 4575 mt 1160 4647 L
1442 4615 mt 1514 4615 L
1478 4579 mt 1478 4651 L
4103 4569 mt 4175 4569 L
4139 4533 mt 4139 4605 L
3933 4615 mt 4005 4615 L
3969 4579 mt 3969 4651 L
1235 3966 mt 1307 3966 L
1271 3930 mt 1271 4002 L
1589 4450 mt 1661 4450 L
1625 4414 mt 1625 4486 L
1171 4596 mt 1243 4596 L
1207 4560 mt 1207 4632 L
 864 4614 mt  936 4614 L
 900 4578 mt  900 4650 L
1444 3639 mt 1516 3639 L
1480 3603 mt 1480 3675 L
 936 4513 mt 1008 4513 L
 972 4477 mt  972 4549 L
 925 3944 mt  997 3944 L
 961 3908 mt  961 3980 L
1523 4432 mt 1595 4432 L
1559 4396 mt 1559 4468 L
1415 4539 mt 1487 4539 L
1451 4503 mt 1451 4575 L
4971 4354 mt 5043 4354 L
5007 4318 mt 5007 4390 L
2371 4602 mt 2443 4602 L
2407 4566 mt 2407 4638 L
 863  414 mt  935  414 L
 899  378 mt  899  450 L
1871 4450 mt 1943 4450 L
1907 4414 mt 1907 4486 L
1596 4262 mt 1668 4262 L
1632 4226 mt 1632 4298 L
 863 4607 mt  935 4607 L
 899 4571 mt  899 4643 L
1977 3854 mt 2049 3854 L
2013 3818 mt 2013 3890 L
1693 4353 mt 1765 4353 L
1729 4317 mt 1729 4389 L
1354 4610 mt 1426 4610 L
1390 4574 mt 1390 4646 L
3461 3641 mt 3533 3641 L
3497 3605 mt 3497 3677 L
1010 4284 mt 1082 4284 L
1046 4248 mt 1046 4320 L
 870 4615 mt  942 4615 L
 906 4579 mt  906 4651 L
5427 4527 mt 5499 4527 L
5463 4491 mt 5463 4563 L
1794 4606 mt 1866 4606 L
1830 4570 mt 1830 4642 L
1015 4074 mt 1087 4074 L
1051 4038 mt 1051 4110 L
1700 4436 mt 1772 4436 L
1736 4400 mt 1736 4472 L
2138 4597 mt 2210 4597 L
2174 4561 mt 2174 4633 L
 990 4264 mt 1062 4264 L
1026 4228 mt 1026 4300 L
 882 4589 mt  954 4589 L
 918 4553 mt  918 4625 L
 863 4321 mt  935 4321 L
 899 4285 mt  899 4357 L
1231 4505 mt 1303 4505 L
1267 4469 mt 1267 4541 L
2164 4580 mt 2236 4580 L
2200 4544 mt 2200 4616 L
1365 4494 mt 1437 4494 L
1401 4458 mt 1401 4530 L
1397 4593 mt 1469 4593 L
1433 4557 mt 1433 4629 L
 864 4575 mt  936 4575 L
 900 4539 mt  900 4611 L
 908 3911 mt  980 3911 L
 944 3875 mt  944 3947 L
1148 3803 mt 1220 3803 L
1184 3767 mt 1184 3839 L
 863 4095 mt  935 4095 L
 899 4059 mt  899 4131 L
1075 4531 mt 1147 4531 L
1111 4495 mt 1111 4567 L
1482 4568 mt 1554 4568 L
1518 4532 mt 1518 4604 L
1384 4612 mt 1456 4612 L
1420 4576 mt 1420 4648 L
3356 4196 mt 3428 4196 L
3392 4160 mt 3392 4232 L
1535 4609 mt 1607 4609 L
1571 4573 mt 1571 4645 L
2242 3026 mt 2314 3026 L
2278 2990 mt 2278 3062 L
 959 4608 mt 1031 4608 L
 995 4572 mt  995 4644 L
 972 4615 mt 1044 4615 L
1008 4579 mt 1008 4651 L
 864 4600 mt  936 4600 L
 900 4564 mt  900 4636 L
1071 4335 mt 1143 4335 L
1107 4299 mt 1107 4371 L
1318 4602 mt 1390 4602 L
1354 4566 mt 1354 4638 L
1480 4341 mt 1552 4341 L
1516 4305 mt 1516 4377 L
1511 3811 mt 1583 3811 L
1547 3775 mt 1547 3847 L
1417 4407 mt 1489 4407 L
1453 4371 mt 1453 4443 L
1174 4605 mt 1246 4605 L
1210 4569 mt 1210 4641 L
3036 4286 mt 3108 4286 L
3072 4250 mt 3072 4322 L
3268 4274 mt 3340 4274 L
3304 4238 mt 3304 4310 L
1547 4307 mt 1619 4307 L
1583 4271 mt 1583 4343 L
3112 4550 mt 3184 4550 L
3148 4514 mt 3148 4586 L
4554 4608 mt 4626 4608 L
4590 4572 mt 4590 4644 L
1051 3437 mt 1123 3437 L
1087 3401 mt 1087 3473 L
3704 3228 mt 3776 3228 L
3740 3192 mt 3740 3264 L
3467 4061 mt 3539 4061 L
3503 4025 mt 3503 4097 L
 906 3783 mt  978 3783 L
 942 3747 mt  942 3819 L
4463 4583 mt 4535 4583 L
4499 4547 mt 4499 4619 L
1638 4495 mt 1710 4495 L
1674 4459 mt 1674 4531 L
1016 4556 mt 1088 4556 L
1052 4520 mt 1052 4592 L
2048 4244 mt 2120 4244 L
2084 4208 mt 2084 4280 L
1026 3309 mt 1098 3309 L
1062 3273 mt 1062 3345 L
2732 4615 mt 2804 4615 L
2768 4579 mt 2768 4651 L
 945 4414 mt 1017 4414 L
 981 4378 mt  981 4450 L
 868 3283 mt  940 3283 L
 904 3247 mt  904 3319 L
1735 4431 mt 1807 4431 L
1771 4395 mt 1771 4467 L
1977 4606 mt 2049 4606 L
2013 4570 mt 2013 4642 L
1310 4311 mt 1382 4311 L
1346 4275 mt 1346 4347 L
 880 4425 mt  952 4425 L
 916 4389 mt  916 4461 L
2182 4443 mt 2254 4443 L
2218 4407 mt 2218 4479 L
2520 4274 mt 2592 4274 L
2556 4238 mt 2556 4310 L
4165 4523 mt 4237 4523 L
4201 4487 mt 4201 4559 L
1139 4421 mt 1211 4421 L
1175 4385 mt 1175 4457 L
3404 3710 mt 3476 3710 L
3440 3674 mt 3440 3746 L
2040 4117 mt 2112 4117 L
2076 4081 mt 2076 4153 L
 954 4550 mt 1026 4550 L
 990 4514 mt  990 4586 L
 984 4526 mt 1056 4526 L
1020 4490 mt 1020 4562 L
1433 3215 mt 1505 3215 L
1469 3179 mt 1469 3251 L
1160 4255 mt 1232 4255 L
1196 4219 mt 1196 4291 L
1476 4414 mt 1548 4414 L
1512 4378 mt 1512 4450 L
 863 4578 mt  935 4578 L
 899 4542 mt  899 4614 L
1014 3923 mt 1086 3923 L
1050 3887 mt 1050 3959 L
 912 4612 mt  984 4612 L
 948 4576 mt  948 4648 L
1392 4208 mt 1464 4208 L
1428 4172 mt 1428 4244 L
2663 4489 mt 2735 4489 L
2699 4453 mt 2699 4525 L
 926 4326 mt  998 4326 L
 962 4290 mt  962 4362 L
 876 4608 mt  948 4608 L
 912 4572 mt  912 4644 L
1174 4356 mt 1246 4356 L
1210 4320 mt 1210 4392 L
3172 4316 mt 3244 4316 L
3208 4280 mt 3208 4352 L
 878 3331 mt  950 3331 L
 914 3295 mt  914 3367 L
1143 4591 mt 1215 4591 L
1179 4555 mt 1179 4627 L
4120 4604 mt 4192 4604 L
4156 4568 mt 4156 4640 L
1008 4612 mt 1080 4612 L
1044 4576 mt 1044 4648 L
1095 4605 mt 1167 4605 L
1131 4569 mt 1131 4641 L
 908 4613 mt  980 4613 L
 944 4577 mt  944 4649 L
3198 2454 mt 3270 2454 L
3234 2418 mt 3234 2490 L
 876 3801 mt  948 3801 L
 912 3765 mt  912 3837 L
 890 3371 mt  962 3371 L
 926 3335 mt  926 3407 L
1817 4552 mt 1889 4552 L
1853 4516 mt 1853 4588 L
1216 4222 mt 1288 4222 L
1252 4186 mt 1252 4258 L
 878 4590 mt  950 4590 L
 914 4554 mt  914 4626 L
 874 4600 mt  946 4600 L
 910 4564 mt  910 4636 L
2801 1998 mt 2873 1998 L
2837 1962 mt 2837 2034 L
1184 3937 mt 1256 3937 L
1220 3901 mt 1220 3973 L
1467 2992 mt 1539 2992 L
1503 2956 mt 1503 3028 L
 898 4579 mt  970 4579 L
 934 4543 mt  934 4615 L
 941 4376 mt 1013 4376 L
 977 4340 mt  977 4412 L
1248 1362 mt 1320 1362 L
1284 1326 mt 1284 1398 L
 897 3192 mt  969 3192 L
 933 3156 mt  933 3228 L
3819 4582 mt 3891 4582 L
3855 4546 mt 3855 4618 L
1939 4423 mt 2011 4423 L
1975 4387 mt 1975 4459 L
 932 4593 mt 1004 4593 L
 968 4557 mt  968 4629 L
 869 3915 mt  941 3915 L
 905 3879 mt  905 3951 L
1059 4245 mt 1131 4245 L
1095 4209 mt 1095 4281 L
1593 4253 mt 1665 4253 L
1629 4217 mt 1629 4289 L
1682 4555 mt 1754 4555 L
1718 4519 mt 1718 4591 L
4916 3492 mt 4988 3492 L
4952 3456 mt 4952 3528 L
 991 4577 mt 1063 4577 L
1027 4541 mt 1027 4613 L
 877 4487 mt  949 4487 L
 913 4451 mt  913 4523 L
1118 4508 mt 1190 4508 L
1154 4472 mt 1154 4544 L
1014 2110 mt 1086 2110 L
1050 2074 mt 1050 2146 L
1305 4446 mt 1377 4446 L
1341 4410 mt 1341 4482 L
2198 2097 mt 2270 2097 L
2234 2061 mt 2234 2133 L
 870 1218 mt  942 1218 L
 906 1182 mt  906 1254 L
1025 4320 mt 1097 4320 L
1061 4284 mt 1061 4356 L
1426 4027 mt 1498 4027 L
1462 3991 mt 1462 4063 L
2252 3743 mt 2324 3743 L
2288 3707 mt 2288 3779 L
1126 4615 mt 1198 4615 L
1162 4579 mt 1162 4651 L
1494 4161 mt 1566 4161 L
1530 4125 mt 1530 4197 L
1185 4394 mt 1257 4394 L
1221 4358 mt 1221 4430 L
 955 4598 mt 1027 4598 L
 991 4562 mt  991 4634 L
1676 3498 mt 1748 3498 L
1712 3462 mt 1712 3534 L
2914 4188 mt 2986 4188 L
2950 4152 mt 2950 4224 L
1111 4397 mt 1183 4397 L
1147 4361 mt 1147 4433 L
1832 3949 mt 1904 3949 L
1868 3913 mt 1868 3985 L
 963 4511 mt 1035 4511 L
 999 4475 mt  999 4547 L
3352 4332 mt 3424 4332 L
3388 4296 mt 3388 4368 L
 868 3994 mt  940 3994 L
 904 3958 mt  904 4030 L
1711 4616 mt 1783 4616 L
1747 4580 mt 1747 4652 L
2586 4567 mt 2658 4567 L
2622 4531 mt 2622 4603 L
4700 3661 mt 4772 3661 L
4736 3625 mt 4736 3697 L
1470 4609 mt 1542 4609 L
1506 4573 mt 1506 4645 L
 904 4615 mt  976 4615 L
 940 4579 mt  940 4651 L
1509 4590 mt 1581 4590 L
1545 4554 mt 1545 4626 L
1567 2622 mt 1639 2622 L
1603 2586 mt 1603 2658 L
1283 3093 mt 1355 3093 L
1319 3057 mt 1319 3129 L
 863 4229 mt  935 4229 L
 899 4193 mt  899 4265 L
2019 4179 mt 2091 4179 L
2055 4143 mt 2055 4215 L
1648 4079 mt 1720 4079 L
1684 4043 mt 1684 4115 L
1254 4308 mt 1326 4308 L
1290 4272 mt 1290 4344 L
3298 4598 mt 3370 4598 L
3334 4562 mt 3334 4634 L
6225 4609 mt 6297 4609 L
6261 4573 mt 6261 4645 L
1486 4508 mt 1558 4508 L
1522 4472 mt 1522 4544 L
 973 2419 mt 1045 2419 L
1009 2383 mt 1009 2455 L
1377 4586 mt 1449 4586 L
1413 4550 mt 1413 4622 L
4160 3559 mt 4232 3559 L
4196 3523 mt 4196 3595 L
1357 4581 mt 1429 4581 L
1393 4545 mt 1393 4617 L
1788 4106 mt 1860 4106 L
1824 4070 mt 1824 4142 L
2874 4220 mt 2946 4220 L
2910 4184 mt 2910 4256 L
1666 4599 mt 1738 4599 L
1702 4563 mt 1702 4635 L
 892 4609 mt  964 4609 L
 928 4573 mt  928 4645 L
1102 4165 mt 1174 4165 L
1138 4129 mt 1138 4201 L
3277 4246 mt 3349 4246 L
3313 4210 mt 3313 4282 L
2583 4598 mt 2655 4598 L
2619 4562 mt 2619 4634 L
2704 4557 mt 2776 4557 L
2740 4521 mt 2740 4593 L
3655 3791 mt 3727 3791 L
3691 3755 mt 3691 3827 L
1016 4215 mt 1088 4215 L
1052 4179 mt 1052 4251 L
2862 3948 mt 2934 3948 L
2898 3912 mt 2898 3984 L
2527 3811 mt 2599 3811 L
2563 3775 mt 2563 3847 L
2757 4582 mt 2829 4582 L
2793 4546 mt 2793 4618 L
4830 4484 mt 4902 4484 L
4866 4448 mt 4866 4520 L
1046 4505 mt 1118 4505 L
1082 4469 mt 1082 4541 L
1046 4592 mt 1118 4592 L
1082 4556 mt 1082 4628 L
1648 4599 mt 1720 4599 L
1684 4563 mt 1684 4635 L
 985 3299 mt 1057 3299 L
1021 3263 mt 1021 3335 L
1898 4607 mt 1970 4607 L
1934 4571 mt 1934 4643 L
2248 4510 mt 2320 4510 L
2284 4474 mt 2284 4546 L
2889 4426 mt 2961 4426 L
2925 4390 mt 2925 4462 L
 866 3726 mt  938 3726 L
 902 3690 mt  902 3762 L
1393 4587 mt 1465 4587 L
1429 4551 mt 1429 4623 L
1067 4576 mt 1139 4576 L
1103 4540 mt 1103 4612 L
1056 4588 mt 1128 4588 L
1092 4552 mt 1092 4624 L
1123 4168 mt 1195 4168 L
1159 4132 mt 1159 4204 L
4973 4191 mt 5045 4191 L
5009 4155 mt 5009 4227 L
 890 4614 mt  962 4614 L
 926 4578 mt  926 4650 L
1804 4611 mt 1876 4611 L
1840 4575 mt 1840 4647 L
1166 4275 mt 1238 4275 L
1202 4239 mt 1202 4311 L
2239 4336 mt 2311 4336 L
2275 4300 mt 2275 4372 L
 934 4611 mt 1006 4611 L
 970 4575 mt  970 4647 L
 922 3369 mt  994 3369 L
 958 3333 mt  958 3405 L
2530 4468 mt 2602 4468 L
2566 4432 mt 2566 4504 L
3810 2859 mt 3882 2859 L
3846 2823 mt 3846 2895 L
1776 4598 mt 1848 4598 L
1812 4562 mt 1812 4634 L
1648 4519 mt 1720 4519 L
1684 4483 mt 1684 4555 L
4579 4442 mt 4651 4442 L
4615 4406 mt 4615 4478 L
3060 4457 mt 3132 4457 L
3096 4421 mt 3096 4493 L
2124 4414 mt 2196 4414 L
2160 4378 mt 2160 4450 L
2666 4086 mt 2738 4086 L
2702 4050 mt 2702 4122 L
1003 4356 mt 1075 4356 L
1039 4320 mt 1039 4392 L
 870 4578 mt  942 4578 L
 906 4542 mt  906 4614 L
2692 2849 mt 2764 2849 L
2728 2813 mt 2728 2885 L
 863 4586 mt  935 4586 L
 899 4550 mt  899 4622 L
 872 4552 mt  944 4552 L
 908 4516 mt  908 4588 L
2383 4610 mt 2455 4610 L
2419 4574 mt 2419 4646 L
2743 4603 mt 2815 4603 L
2779 4567 mt 2779 4639 L
4906 4615 mt 4978 4615 L
4942 4579 mt 4942 4651 L
2627 4604 mt 2699 4604 L
2663 4568 mt 2663 4640 L
 872  578 mt  944  578 L
 908  542 mt  908  614 L
 863 4597 mt  935 4597 L
 899 4561 mt  899 4633 L
2467 3278 mt 2539 3278 L
2503 3242 mt 2503 3314 L
 900 4486 mt  972 4486 L
 936 4450 mt  936 4522 L
1773 4382 mt 1845 4382 L
1809 4346 mt 1809 4418 L
 991 4250 mt 1063 4250 L
1027 4214 mt 1027 4286 L
2084 4446 mt 2156 4446 L
2120 4410 mt 2120 4482 L
3489 2979 mt 3561 2979 L
3525 2943 mt 3525 3015 L
 873 4402 mt  945 4402 L
 909 4366 mt  909 4438 L
1282 4541 mt 1354 4541 L
1318 4505 mt 1318 4577 L
6204 3193 mt 6276 3193 L
6240 3157 mt 6240 3229 L
1174 3874 mt 1246 3874 L
1210 3838 mt 1210 3910 L
 903 4059 mt  975 4059 L
 939 4023 mt  939 4095 L
1410 4084 mt 1482 4084 L
1446 4048 mt 1446 4120 L
1567 4594 mt 1639 4594 L
1603 4558 mt 1603 4630 L
 939 4220 mt 1011 4220 L
 975 4184 mt  975 4256 L
 873 4531 mt  945 4531 L
 909 4495 mt  909 4567 L
1939 3661 mt 2011 3661 L
1975 3625 mt 1975 3697 L
1253 4579 mt 1325 4579 L
1289 4543 mt 1289 4615 L
2081 4549 mt 2153 4549 L
2117 4513 mt 2117 4585 L
1206 4592 mt 1278 4592 L
1242 4556 mt 1242 4628 L
2043 4403 mt 2115 4403 L
2079 4367 mt 2079 4439 L
1473 4207 mt 1545 4207 L
1509 4171 mt 1509 4243 L
 911 3933 mt  983 3933 L
 947 3897 mt  947 3969 L
1244 3110 mt 1316 3110 L
1280 3074 mt 1280 3146 L
1320 4605 mt 1392 4605 L
1356 4569 mt 1356 4641 L
1058 4224 mt 1130 4224 L
1094 4188 mt 1094 4260 L
2323 4601 mt 2395 4601 L
2359 4565 mt 2359 4637 L
1003 4408 mt 1075 4408 L
1039 4372 mt 1039 4444 L
2860 3683 mt 2932 3683 L
2896 3647 mt 2896 3719 L
2492 4429 mt 2564 4429 L
2528 4393 mt 2528 4465 L
1938 3294 mt 2010 3294 L
1974 3258 mt 1974 3330 L
1520 4517 mt 1592 4517 L
1556 4481 mt 1556 4553 L
1115 4614 mt 1187 4614 L
1151 4578 mt 1151 4650 L
 997 4298 mt 1069 4298 L
1033 4262 mt 1033 4334 L
 874 3415 mt  946 3415 L
 910 3379 mt  910 3451 L
 972 4532 mt 1044 4532 L
1008 4496 mt 1008 4568 L
1792 3363 mt 1864 3363 L
1828 3327 mt 1828 3399 L
 946 4128 mt 1018 4128 L
 982 4092 mt  982 4164 L
3096 4613 mt 3168 4613 L
3132 4577 mt 3132 4649 L
 878 4265 mt  950 4265 L
 914 4229 mt  914 4301 L
2505 3766 mt 2577 3766 L
2541 3730 mt 2541 3802 L
3729 4475 mt 3801 4475 L
3765 4439 mt 3765 4511 L
1278 4441 mt 1350 4441 L
1314 4405 mt 1314 4477 L
2797 4182 mt 2869 4182 L
2833 4146 mt 2833 4218 L
3271 4304 mt 3343 4304 L
3307 4268 mt 3307 4340 L
2103 4310 mt 2175 4310 L
2139 4274 mt 2139 4346 L
3744 3870 mt 3816 3870 L
3780 3834 mt 3780 3906 L
3342 2918 mt 3414 2918 L
3378 2882 mt 3378 2954 L
 881 3525 mt  953 3525 L
 917 3489 mt  917 3561 L
5659 4599 mt 5731 4599 L
5695 4563 mt 5695 4635 L
1593 4456 mt 1665 4456 L
1629 4420 mt 1629 4492 L
 949 3945 mt 1021 3945 L
 985 3909 mt  985 3981 L
 871 4609 mt  943 4609 L
 907 4573 mt  907 4645 L
1143 3176 mt 1215 3176 L
1179 3140 mt 1179 3212 L
1510 3963 mt 1582 3963 L
1546 3927 mt 1546 3999 L
1498 4180 mt 1570 4180 L
1534 4144 mt 1534 4216 L
1068 2819 mt 1140 2819 L
1104 2783 mt 1104 2855 L
1637 4614 mt 1709 4614 L
1673 4578 mt 1673 4650 L
3235 4614 mt 3307 4614 L
3271 4578 mt 3271 4650 L
 863 4450 mt  935 4450 L
 899 4414 mt  899 4486 L
 869 4615 mt  941 4615 L
 905 4579 mt  905 4651 L
1488 4215 mt 1560 4215 L
1524 4179 mt 1524 4251 L
1943 3764 mt 2015 3764 L
1979 3728 mt 1979 3800 L
4556 4063 mt 4628 4063 L
4592 4027 mt 4592 4099 L
1035 3917 mt 1107 3917 L
1071 3881 mt 1071 3953 L
3974 4587 mt 4046 4587 L
4010 4551 mt 4010 4623 L
2255 4262 mt 2327 4262 L
2291 4226 mt 2291 4298 L
1098 4606 mt 1170 4606 L
1134 4570 mt 1134 4642 L
 990 3934 mt 1062 3934 L
1026 3898 mt 1026 3970 L
2573 3214 mt 2645 3214 L
2609 3178 mt 2609 3250 L
1570 4583 mt 1642 4583 L
1606 4547 mt 1606 4619 L
1376 4596 mt 1448 4596 L
1412 4560 mt 1412 4632 L
1498 4426 mt 1570 4426 L
1534 4390 mt 1534 4462 L
1873 3291 mt 1945 3291 L
1909 3255 mt 1909 3327 L
1701 4313 mt 1773 4313 L
1737 4277 mt 1737 4349 L
 910 3751 mt  982 3751 L
 946 3715 mt  946 3787 L
3072 3949 mt 3144 3949 L
3108 3913 mt 3108 3985 L
1199 4504 mt 1271 4504 L
1235 4468 mt 1235 4540 L
1579 4432 mt 1651 4432 L
1615 4396 mt 1615 4468 L
1172 3812 mt 1244 3812 L
1208 3776 mt 1208 3848 L
2988 3665 mt 3060 3665 L
3024 3629 mt 3024 3701 L
1361 3514 mt 1433 3514 L
1397 3478 mt 1397 3550 L
 868 4603 mt  940 4603 L
 904 4567 mt  904 4639 L
4570 4552 mt 4642 4552 L
4606 4516 mt 4606 4588 L
1425 4401 mt 1497 4401 L
1461 4365 mt 1461 4437 L
2569 4507 mt 2641 4507 L
2605 4471 mt 2605 4543 L
 940 4420 mt 1012 4420 L
 976 4384 mt  976 4456 L
1323 2430 mt 1395 2430 L
1359 2394 mt 1359 2466 L
1211 4147 mt 1283 4147 L
1247 4111 mt 1247 4183 L
1418 2630 mt 1490 2630 L
1454 2594 mt 1454 2666 L
2254 4600 mt 2326 4600 L
2290 4564 mt 2290 4636 L
 988 3812 mt 1060 3812 L
1024 3776 mt 1024 3848 L
 880 4478 mt  952 4478 L
 916 4442 mt  916 4514 L
 977 4562 mt 1049 4562 L
1013 4526 mt 1013 4598 L
3026 2110 mt 3098 2110 L
3062 2074 mt 3062 2146 L
1775 4392 mt 1847 4392 L
1811 4356 mt 1811 4428 L
 909 3123 mt  981 3123 L
 945 3087 mt  945 3159 L
1011 4589 mt 1083 4589 L
1047 4553 mt 1047 4625 L
 951 4612 mt 1023 4612 L
 987 4576 mt  987 4648 L
gs 899 414 5363 4203 rc
gr

0 sg
2775 5104 mt 
(\(F,DCTb,GMM\)) s
 422 3343 mt  -90 rotate
(\(S,LFCC,GMM\)) s
90 rotate
2975  223 mt 
(Corr = 0.02) s

end %%Color Dict

eplot
%%EndObject

epage
end

showpage

%%Trailer
%%EOF
