%!PS-Adobe-3.0 EPSF-3.0
%%Creator: MATLAB, The Mathworks, Inc. Version 7.7.0.471 (R2008b). Operating System: Microsoft Windows XP.
%%Title: Pictures\main_zoo_mvar_analysis_data_BMI_xcorr_summary_p1_k2.eps
%%CreationDate: 10/26/2009  05:08:24
%%DocumentNeededFonts: Helvetica
%%DocumentProcessColors: Cyan Magenta Yellow Black
%%LanguageLevel: 2
%%Pages: 1
%%BoundingBox:    18   219   546   591
%%EndComments

%%BeginProlog
% MathWorks dictionary
/MathWorks 160 dict begin
% definition operators
/bdef {bind def} bind def
/ldef {load def} bind def
/xdef {exch def} bdef
/xstore {exch store} bdef
% operator abbreviations
/c  /clip ldef
/cc /concat ldef
/cp /closepath ldef
/gr /grestore ldef
/gs /gsave ldef
/mt /moveto ldef
/np /newpath ldef
/cm /currentmatrix ldef
/sm /setmatrix ldef
/rm /rmoveto ldef
/rl /rlineto ldef
/s {show newpath} bdef
/sc {setcmykcolor} bdef
/sr /setrgbcolor ldef
/sg /setgray ldef
/w /setlinewidth ldef
/j /setlinejoin ldef
/cap /setlinecap ldef
/rc {rectclip} bdef
/rf {rectfill} bdef
% page state control
/pgsv () def
/bpage {/pgsv save def} bdef
/epage {pgsv restore} bdef
/bplot /gsave ldef
/eplot {stroke grestore} bdef
% orientation switch
/portraitMode 0 def /landscapeMode 1 def /rotateMode 2 def
% coordinate system mappings
/dpi2point 0 def
% font control
/FontSize 0 def
/FMS {/FontSize xstore findfont [FontSize 0 0 FontSize neg 0 0]
  makefont setfont} bdef
/ISOLatin1Encoding where {pop /WindowsLatin1Encoding 256 array bdef
ISOLatin1Encoding WindowsLatin1Encoding copy pop
/.notdef/.notdef/quotesinglbase/florin/quotedblbase/ellipsis/dagger
/daggerdbl/circumflex/perthousand/Scaron/guilsinglleft/OE/.notdef/.notdef
/.notdef/.notdef/quoteleft/quoteright/quotedblleft/quotedblright/bullet
/endash/emdash/tilde/trademark/scaron/guilsinglright/oe/.notdef/.notdef
/Ydieresis WindowsLatin1Encoding 128 32 getinterval astore pop}
{/WindowsLatin1Encoding StandardEncoding bdef} ifelse
/reencode {exch dup where {pop load} {pop StandardEncoding} ifelse
  exch dup 3 1 roll findfont dup length dict begin
  { 1 index /FID ne {def}{pop pop} ifelse } forall
  /Encoding exch def currentdict end definefont pop} bdef
/isroman {findfont /CharStrings get /Agrave known} bdef
/FMSR {3 1 roll 1 index dup isroman {reencode} {pop pop} ifelse
  exch FMS} bdef
/csm {1 dpi2point div -1 dpi2point div scale neg translate
 dup landscapeMode eq {pop -90 rotate}
  {rotateMode eq {90 rotate} if} ifelse} bdef
% line types: solid, dotted, dashed, dotdash
/SO { [] 0 setdash } bdef
/DO { [.5 dpi2point mul 4 dpi2point mul] 0 setdash } bdef
/DA { [6 dpi2point mul] 0 setdash } bdef
/DD { [.5 dpi2point mul 4 dpi2point mul 6 dpi2point mul 4
  dpi2point mul] 0 setdash } bdef
% macros for lines and objects
/L {lineto stroke} bdef
/MP {3 1 roll moveto 1 sub {rlineto} repeat} bdef
/AP {{rlineto} repeat} bdef
/PDlw -1 def
/W {/PDlw currentlinewidth def setlinewidth} def
/PP {closepath eofill} bdef
/DP {closepath stroke} bdef
/MR {4 -2 roll moveto dup  0 exch rlineto exch 0 rlineto
  neg 0 exch rlineto closepath} bdef
/FR {MR stroke} bdef
/PR {MR fill} bdef
/L1i {{currentfile picstr readhexstring pop} image} bdef
/tMatrix matrix def
/MakeOval {newpath tMatrix currentmatrix pop translate scale
0 0 1 0 360 arc tMatrix setmatrix} bdef
/FO {MakeOval stroke} bdef
/PO {MakeOval fill} bdef
/PD {currentlinewidth 2 div 0 360 arc fill
   PDlw -1 eq not {PDlw w /PDlw -1 def} if} def
/FA {newpath tMatrix currentmatrix pop translate scale
  0 0 1 5 -2 roll arc tMatrix setmatrix stroke} bdef
/PA {newpath tMatrix currentmatrix pop	translate 0 0 moveto scale
  0 0 1 5 -2 roll arc closepath tMatrix setmatrix fill} bdef
/FAn {newpath tMatrix currentmatrix pop translate scale
  0 0 1 5 -2 roll arcn tMatrix setmatrix stroke} bdef
/PAn {newpath tMatrix currentmatrix pop translate 0 0 moveto scale
  0 0 1 5 -2 roll arcn closepath tMatrix setmatrix fill} bdef
/vradius 0 def /hradius 0 def /lry 0 def
/lrx 0 def /uly 0 def /ulx 0 def /rad 0 def
/MRR {/vradius xdef /hradius xdef /lry xdef /lrx xdef /uly xdef
  /ulx xdef newpath tMatrix currentmatrix pop ulx hradius add uly
  vradius add translate hradius vradius scale 0 0 1 180 270 arc 
  tMatrix setmatrix lrx hradius sub uly vradius add translate
  hradius vradius scale 0 0 1 270 360 arc tMatrix setmatrix
  lrx hradius sub lry vradius sub translate hradius vradius scale
  0 0 1 0 90 arc tMatrix setmatrix ulx hradius add lry vradius sub
  translate hradius vradius scale 0 0 1 90 180 arc tMatrix setmatrix
  closepath} bdef
/FRR {MRR stroke } bdef
/PRR {MRR fill } bdef
/MlrRR {/lry xdef /lrx xdef /uly xdef /ulx xdef /rad lry uly sub 2 div def
  newpath tMatrix currentmatrix pop ulx rad add uly rad add translate
  rad rad scale 0 0 1 90 270 arc tMatrix setmatrix lrx rad sub lry rad
  sub translate rad rad scale 0 0 1 270 90 arc tMatrix setmatrix
  closepath} bdef
/FlrRR {MlrRR stroke } bdef
/PlrRR {MlrRR fill } bdef
/MtbRR {/lry xdef /lrx xdef /uly xdef /ulx xdef /rad lrx ulx sub 2 div def
  newpath tMatrix currentmatrix pop ulx rad add uly rad add translate
  rad rad scale 0 0 1 180 360 arc tMatrix setmatrix lrx rad sub lry rad
  sub translate rad rad scale 0 0 1 0 180 arc tMatrix setmatrix
  closepath} bdef
/FtbRR {MtbRR stroke } bdef
/PtbRR {MtbRR fill } bdef
/stri 6 array def /dtri 6 array def
/smat 6 array def /dmat 6 array def
/tmat1 6 array def /tmat2 6 array def /dif 3 array def
/asub {/ind2 exch def /ind1 exch def dup dup
  ind1 get exch ind2 get sub exch } bdef
/tri_to_matrix {
  2 0 asub 3 1 asub 4 0 asub 5 1 asub
  dup 0 get exch 1 get 7 -1 roll astore } bdef
/compute_transform {
  dmat dtri tri_to_matrix tmat1 invertmatrix 
  smat stri tri_to_matrix tmat2 concatmatrix } bdef
/ds {stri astore pop} bdef
/dt {dtri astore pop} bdef
/db {2 copy /cols xdef /rows xdef mul dup 3 mul string
  currentfile 
  3 index 0 eq {/ASCIIHexDecode filter}
  {/ASCII85Decode filter 3 index 2 eq {/RunLengthDecode filter} if }
  ifelse exch readstring pop
  dup 0 3 index getinterval /rbmap xdef
  dup 2 index dup getinterval /gbmap xdef
  1 index dup 2 mul exch getinterval /bbmap xdef pop pop}bdef
/it {gs np dtri aload pop moveto lineto lineto cp c
  cols rows 8 compute_transform 
  rbmap gbmap bbmap true 3 colorimage gr}bdef
/il {newpath moveto lineto stroke}bdef
currentdict end def
%%EndProlog

%%BeginSetup
MathWorks begin

0 cap

end
%%EndSetup

%%Page: 1 1
%%BeginPageSetup
%%PageBoundingBox:    18   219   546   591
MathWorks begin
bpage
%%EndPageSetup

%%BeginObject: obj1
bplot

/dpi2point 12 def
portraitMode 0216 7344 csm

    0   247  6340  4464 rc
85 dict begin %Colortable dictionary
/c0 { 0.000000 0.000000 0.000000 sr} bdef
/c1 { 1.000000 1.000000 1.000000 sr} bdef
/c2 { 0.900000 0.000000 0.000000 sr} bdef
/c3 { 0.000000 0.820000 0.000000 sr} bdef
/c4 { 0.000000 0.000000 0.800000 sr} bdef
/c5 { 0.910000 0.820000 0.320000 sr} bdef
/c6 { 1.000000 0.260000 0.820000 sr} bdef
/c7 { 0.000000 0.820000 0.820000 sr} bdef
c0
1 j
1 sg
   0    0 6919 5187 rf
6 w
0 -4227 3948 0 0 4227 1689 389 4 MP
PP
-3948 0 0 -4227 3948 0 0 4227 1689 389 5 MP stroke
gs 1689 389 3949 4228 rc
/mwscm { [/Indexed /DeviceRGB 63
  <
    00008f 00009f 0000af 0000bf 0000cf 0000df 0000ef 0000ff 000fff 001fff 
    002fff 003fff 004fff 005fff 006fff 007fff 008fff 009fff 00afff 00bfff 
    00cfff 00dfff 00efff 00ffff 0fffef 1fffdf 2fffcf 3fffbf 4fffaf 5fff9f 
    6fff8f 7fff7f 8fff6f 9fff5f afff4f bfff3f cfff2f dfff1f efff0f ffff00 
    ffef00 ffdf00 ffcf00 ffbf00 ffaf00 ff9f00 ff8f00 ff7f00 ff6f00 ff5f00 
    ff4f00 ff3f00 ff2f00 ff1f00 ff0f00 ff0000 ef0000 df0000 cf0000 bf0000 
    af0000 9f0000 8f0000 7f0000 
  >
] setcolorspace } bdef mwscm
gs np 1689 389 mt 0 4227 rl 3948 0 rl 0 -4227 rl cp c np
[3948 0 0 4227 1689 389] cc
<< % Image dictionary
  /ImageType 1
  /Width 9 /Height 9
  /BitsPerComponent 8
  /Decode [0 255]
  /ImageMatrix [9.000000 0 0 9.000000 0 0]
  /DataSource currentfile
  /ASCII85Decode filter
  /RunLengthDecode filter
>>
image
:d6!>)\s.g!<F6+',M>t#Qt2I'0eDj&IJ^K)](Ft(_m;\";V[d(dC"b#QtkW&J[;j"pb;2#RUhA#!WhH
!<`T2#RD/0)?BmG"9\fN)F&`
~>
gr
gr

0 sg
%%IncludeResource: font Helvetica
/Helvetica /WindowsLatin1Encoding 120 FMSR

1672 4659 mt 
( ) s
5621  431 mt 
( ) s
4 w
DO
SO
6 w
1689 4616 mt 5637 4616 L
1689  389 mt 5637  389 L
5637  389 mt 5637 4616 L
1689  389 mt 1689 4616 L
1689 4616 mt 5637 4616 L
1689  389 mt 1689 4616 L
2347 4616 mt 2347 4573 L
2347  389 mt 2347  431 L
3224 4616 mt 3224 4573 L
3224  389 mt 3224  431 L
4101 4616 mt 4101 4573 L
4101  389 mt 4101  431 L
4979 4616 mt 4979 4573 L
4979  389 mt 4979  431 L
1689  623 mt 1731  623 L
5637  623 mt 5594  623 L
%%IncludeResource: font Helvetica
/Helvetica /WindowsLatin1Encoding 240 FMSR

  54  712 mt 
(\(F,DCTs,GMM\)) s
1689 1093 mt 1731 1093 L
5637 1093 mt 5594 1093 L
  47 1182 mt 
(\(F,DCTb,GMM\)) s
1689 1563 mt 1731 1563 L
5637 1563 mt 5594 1563 L
 148 1652 mt 
(\(F,DCTs,MLP\)) s
1689 2032 mt 1731 2032 L
5637 2032 mt 5594 2032 L
  94 2121 mt 
(\(F,DCTs,iMLP\)) s
1689 2502 mt 1731 2502 L
5637 2502 mt 5594 2502 L
 140 2591 mt 
(\(F,DCTb,MLP\)) s
1689 2972 mt 1731 2972 L
5637 2972 mt 5594 2972 L
  87 3061 mt 
(\(F,DCTb,iMLP\)) s
1689 3441 mt 1731 3441 L
5637 3441 mt 5594 3441 L
   0 3530 mt 
(\(S,LFCC,GMM\)) s
1689 3911 mt 1731 3911 L
5637 3911 mt 5594 3911 L
 169 4000 mt 
(\(S,PAC,GMM\)) s
1689 4381 mt 1731 4381 L
5637 4381 mt 5594 4381 L
 133 4470 mt 
(\(S,SSC,GMM\)) s
1689 4616 mt 5637 4616 L
1689  389 mt 5637  389 L
5637  389 mt 5637 4616 L
1689  389 mt 1689 4616 L
1 sg
0 4228 240 0 0 -4228 5817 4617 4 MP
PP
-240 0 0 4228 240 0 0 -4228 5817 4617 5 MP stroke
gs 5817 389 241 4229 rc
/mwscm { [/Indexed /DeviceRGB 63
  <
    00008f 00009f 0000af 0000bf 0000cf 0000df 0000ef 0000ff 000fff 001fff 
    002fff 003fff 004fff 005fff 006fff 007fff 008fff 009fff 00afff 00bfff 
    00cfff 00dfff 00efff 00ffff 0fffef 1fffdf 2fffcf 3fffbf 4fffaf 5fff9f 
    6fff8f 7fff7f 8fff6f 9fff5f afff4f bfff3f cfff2f dfff1f efff0f ffff00 
    ffef00 ffdf00 ffcf00 ffbf00 ffaf00 ff9f00 ff8f00 ff7f00 ff6f00 ff5f00 
    ff4f00 ff3f00 ff2f00 ff1f00 ff0f00 ff0000 ef0000 df0000 cf0000 bf0000 
    af0000 9f0000 8f0000 7f0000 
  >
] setcolorspace } bdef mwscm
gs np 5817 389 mt 0 4228 rl 240 0 rl 0 -4228 rl cp c np
[240 0 0 4228 5817 389] cc
<< % Image dictionary
  /ImageType 1
  /Width 1 /Height 64
  /BitsPerComponent 8
  /Decode [0 255]
  /ImageMatrix [1.000000 0 0 64.000000 0 0]
  /DataSource currentfile
  /ASCII85Decode filter
  /RunLengthDecode filter
>>
image
5<h=p4?GSa3&``Q1c$mA0J>%1/1W2!-mp>f,U4KV+<MXF*#fe6(`*r&'GD)k&.]6[$k!CK#R:P;"9S]+
!.Y
~>
gr
gr

4 w
DO
SO
6 w
0 sg
5817  389 mt 6057  389 L
5817 4617 mt 6057 4617 L
6057 4617 mt 6057  389 L
5817 4617 mt 5817  389 L
5817 4617 mt 6057 4617 L
6057 4617 mt 6057  389 L
6057 4340 mt 6014 4340 L
5817 4340 mt 5859 4340 L
%%IncludeResource: font Helvetica
/Helvetica /WindowsLatin1Encoding 144 FMSR

6091 4393 mt 
(0) s
6057 3945 mt 6014 3945 L
5817 3945 mt 5859 3945 L
6091 3998 mt 
(0.1) s
6057 3550 mt 6014 3550 L
5817 3550 mt 5859 3550 L
6091 3603 mt 
(0.2) s
6057 3155 mt 6014 3155 L
5817 3155 mt 5859 3155 L
6091 3208 mt 
(0.3) s
6057 2760 mt 6014 2760 L
5817 2760 mt 5859 2760 L
6091 2813 mt 
(0.4) s
6057 2364 mt 6014 2364 L
5817 2364 mt 5859 2364 L
6091 2417 mt 
(0.5) s
6057 1969 mt 6014 1969 L
5817 1969 mt 5859 1969 L
6091 2022 mt 
(0.6) s
6057 1574 mt 6014 1574 L
5817 1574 mt 5859 1574 L
6091 1627 mt 
(0.7) s
6057 1179 mt 6014 1179 L
5817 1179 mt 5859 1179 L
6091 1232 mt 
(0.8) s
6057  784 mt 6014  784 L
5817  784 mt 5859  784 L
6091  837 mt 
(0.9) s
6057  389 mt 6014  389 L
5817  389 mt 5859  389 L
6091  442 mt 
(1) s
5817  389 mt 6057  389 L
5817 4617 mt 6057 4617 L
6057 4617 mt 6057  389 L
5817 4617 mt 5817  389 L

end %%Color Dict

eplot
%%EndObject

epage
end

showpage

%%Trailer
%%EOF
