%!PS-Adobe-3.0 EPSF-3.0
%%Creator: MATLAB, The Mathworks, Inc. Version 7.7.0.471 (R2008b). Operating System: Microsoft Windows XP.
%%Title: Pictures\main_zoo_mvar_analysis_data_BMI_xcorr_bmig_p1_k2_2_8.eps
%%CreationDate: 10/26/2009  05:45:20
%%DocumentNeededFonts: Helvetica
%%DocumentProcessColors: Cyan Magenta Yellow Black
%%LanguageLevel: 2
%%Pages: 1
%%BoundingBox:    37   180   549   616
%%EndComments

%%BeginProlog
% MathWorks dictionary
/MathWorks 160 dict begin
% definition operators
/bdef {bind def} bind def
/ldef {load def} bind def
/xdef {exch def} bdef
/xstore {exch store} bdef
% operator abbreviations
/c  /clip ldef
/cc /concat ldef
/cp /closepath ldef
/gr /grestore ldef
/gs /gsave ldef
/mt /moveto ldef
/np /newpath ldef
/cm /currentmatrix ldef
/sm /setmatrix ldef
/rm /rmoveto ldef
/rl /rlineto ldef
/s {show newpath} bdef
/sc {setcmykcolor} bdef
/sr /setrgbcolor ldef
/sg /setgray ldef
/w /setlinewidth ldef
/j /setlinejoin ldef
/cap /setlinecap ldef
/rc {rectclip} bdef
/rf {rectfill} bdef
% page state control
/pgsv () def
/bpage {/pgsv save def} bdef
/epage {pgsv restore} bdef
/bplot /gsave ldef
/eplot {stroke grestore} bdef
% orientation switch
/portraitMode 0 def /landscapeMode 1 def /rotateMode 2 def
% coordinate system mappings
/dpi2point 0 def
% font control
/FontSize 0 def
/FMS {/FontSize xstore findfont [FontSize 0 0 FontSize neg 0 0]
  makefont setfont} bdef
/ISOLatin1Encoding where {pop /WindowsLatin1Encoding 256 array bdef
ISOLatin1Encoding WindowsLatin1Encoding copy pop
/.notdef/.notdef/quotesinglbase/florin/quotedblbase/ellipsis/dagger
/daggerdbl/circumflex/perthousand/Scaron/guilsinglleft/OE/.notdef/.notdef
/.notdef/.notdef/quoteleft/quoteright/quotedblleft/quotedblright/bullet
/endash/emdash/tilde/trademark/scaron/guilsinglright/oe/.notdef/.notdef
/Ydieresis WindowsLatin1Encoding 128 32 getinterval astore pop}
{/WindowsLatin1Encoding StandardEncoding bdef} ifelse
/reencode {exch dup where {pop load} {pop StandardEncoding} ifelse
  exch dup 3 1 roll findfont dup length dict begin
  { 1 index /FID ne {def}{pop pop} ifelse } forall
  /Encoding exch def currentdict end definefont pop} bdef
/isroman {findfont /CharStrings get /Agrave known} bdef
/FMSR {3 1 roll 1 index dup isroman {reencode} {pop pop} ifelse
  exch FMS} bdef
/csm {1 dpi2point div -1 dpi2point div scale neg translate
 dup landscapeMode eq {pop -90 rotate}
  {rotateMode eq {90 rotate} if} ifelse} bdef
% line types: solid, dotted, dashed, dotdash
/SO { [] 0 setdash } bdef
/DO { [.5 dpi2point mul 4 dpi2point mul] 0 setdash } bdef
/DA { [6 dpi2point mul] 0 setdash } bdef
/DD { [.5 dpi2point mul 4 dpi2point mul 6 dpi2point mul 4
  dpi2point mul] 0 setdash } bdef
% macros for lines and objects
/L {lineto stroke} bdef
/MP {3 1 roll moveto 1 sub {rlineto} repeat} bdef
/AP {{rlineto} repeat} bdef
/PDlw -1 def
/W {/PDlw currentlinewidth def setlinewidth} def
/PP {closepath eofill} bdef
/DP {closepath stroke} bdef
/MR {4 -2 roll moveto dup  0 exch rlineto exch 0 rlineto
  neg 0 exch rlineto closepath} bdef
/FR {MR stroke} bdef
/PR {MR fill} bdef
/L1i {{currentfile picstr readhexstring pop} image} bdef
/tMatrix matrix def
/MakeOval {newpath tMatrix currentmatrix pop translate scale
0 0 1 0 360 arc tMatrix setmatrix} bdef
/FO {MakeOval stroke} bdef
/PO {MakeOval fill} bdef
/PD {currentlinewidth 2 div 0 360 arc fill
   PDlw -1 eq not {PDlw w /PDlw -1 def} if} def
/FA {newpath tMatrix currentmatrix pop translate scale
  0 0 1 5 -2 roll arc tMatrix setmatrix stroke} bdef
/PA {newpath tMatrix currentmatrix pop	translate 0 0 moveto scale
  0 0 1 5 -2 roll arc closepath tMatrix setmatrix fill} bdef
/FAn {newpath tMatrix currentmatrix pop translate scale
  0 0 1 5 -2 roll arcn tMatrix setmatrix stroke} bdef
/PAn {newpath tMatrix currentmatrix pop translate 0 0 moveto scale
  0 0 1 5 -2 roll arcn closepath tMatrix setmatrix fill} bdef
/vradius 0 def /hradius 0 def /lry 0 def
/lrx 0 def /uly 0 def /ulx 0 def /rad 0 def
/MRR {/vradius xdef /hradius xdef /lry xdef /lrx xdef /uly xdef
  /ulx xdef newpath tMatrix currentmatrix pop ulx hradius add uly
  vradius add translate hradius vradius scale 0 0 1 180 270 arc 
  tMatrix setmatrix lrx hradius sub uly vradius add translate
  hradius vradius scale 0 0 1 270 360 arc tMatrix setmatrix
  lrx hradius sub lry vradius sub translate hradius vradius scale
  0 0 1 0 90 arc tMatrix setmatrix ulx hradius add lry vradius sub
  translate hradius vradius scale 0 0 1 90 180 arc tMatrix setmatrix
  closepath} bdef
/FRR {MRR stroke } bdef
/PRR {MRR fill } bdef
/MlrRR {/lry xdef /lrx xdef /uly xdef /ulx xdef /rad lry uly sub 2 div def
  newpath tMatrix currentmatrix pop ulx rad add uly rad add translate
  rad rad scale 0 0 1 90 270 arc tMatrix setmatrix lrx rad sub lry rad
  sub translate rad rad scale 0 0 1 270 90 arc tMatrix setmatrix
  closepath} bdef
/FlrRR {MlrRR stroke } bdef
/PlrRR {MlrRR fill } bdef
/MtbRR {/lry xdef /lrx xdef /uly xdef /ulx xdef /rad lrx ulx sub 2 div def
  newpath tMatrix currentmatrix pop ulx rad add uly rad add translate
  rad rad scale 0 0 1 180 360 arc tMatrix setmatrix lrx rad sub lry rad
  sub translate rad rad scale 0 0 1 0 180 arc tMatrix setmatrix
  closepath} bdef
/FtbRR {MtbRR stroke } bdef
/PtbRR {MtbRR fill } bdef
/stri 6 array def /dtri 6 array def
/smat 6 array def /dmat 6 array def
/tmat1 6 array def /tmat2 6 array def /dif 3 array def
/asub {/ind2 exch def /ind1 exch def dup dup
  ind1 get exch ind2 get sub exch } bdef
/tri_to_matrix {
  2 0 asub 3 1 asub 4 0 asub 5 1 asub
  dup 0 get exch 1 get 7 -1 roll astore } bdef
/compute_transform {
  dmat dtri tri_to_matrix tmat1 invertmatrix 
  smat stri tri_to_matrix tmat2 concatmatrix } bdef
/ds {stri astore pop} bdef
/dt {dtri astore pop} bdef
/db {2 copy /cols xdef /rows xdef mul dup 3 mul string
  currentfile 
  3 index 0 eq {/ASCIIHexDecode filter}
  {/ASCII85Decode filter 3 index 2 eq {/RunLengthDecode filter} if }
  ifelse exch readstring pop
  dup 0 3 index getinterval /rbmap xdef
  dup 2 index dup getinterval /gbmap xdef
  1 index dup 2 mul exch getinterval /bbmap xdef pop pop}bdef
/it {gs np dtri aload pop moveto lineto lineto cp c
  cols rows 8 compute_transform 
  rbmap gbmap bbmap true 3 colorimage gr}bdef
/il {newpath moveto lineto stroke}bdef
currentdict end def
%%EndProlog

%%BeginSetup
MathWorks begin

0 cap

end
%%EndSetup

%%Page: 1 1
%%BeginPageSetup
%%PageBoundingBox:    37   180   549   616
MathWorks begin
bpage
%%EndPageSetup

%%BeginObject: obj1
bplot

/dpi2point 12 def
portraitMode 0216 7344 csm

  234   -48  6149  5231 rc
85 dict begin %Colortable dictionary
/c0 { 0.000000 0.000000 0.000000 sr} bdef
/c1 { 1.000000 1.000000 1.000000 sr} bdef
/c2 { 0.900000 0.000000 0.000000 sr} bdef
/c3 { 0.000000 0.820000 0.000000 sr} bdef
/c4 { 0.000000 0.000000 0.800000 sr} bdef
/c5 { 0.910000 0.820000 0.320000 sr} bdef
/c6 { 1.000000 0.260000 0.820000 sr} bdef
/c7 { 0.000000 0.820000 0.820000 sr} bdef
c0
1 j
1 sg
   0    0 6919 5187 rf
6 w
0 4202 5362 0 0 -4202 899 4616 4 MP
PP
-5362 0 0 4202 5362 0 0 -4202 899 4616 5 MP stroke
4 w
DO
SO
6 w
0 sg
 899  414 mt 6261  414 L
 899 4616 mt 6261 4616 L
6261 4616 mt 6261  414 L
 899 4616 mt  899  414 L
 899 4616 mt 6261 4616 L
 899 4616 mt  899  414 L
 919 4616 mt  919 4562 L
 919  414 mt  919  467 L
%%IncludeResource: font Helvetica
/Helvetica /WindowsLatin1Encoding 240 FMSR

 713 4873 mt 
(-3) s
1806 4616 mt 1806 4562 L
1806  414 mt 1806  467 L
1600 4873 mt 
(-2) s
2693 4616 mt 2693 4562 L
2693  414 mt 2693  467 L
2487 4873 mt 
(-1) s
3580 4616 mt 3580 4562 L
3580  414 mt 3580  467 L
3514 4873 mt 
(0) s
4466 4616 mt 4466 4562 L
4466  414 mt 4466  467 L
4400 4873 mt 
(1) s
5353 4616 mt 5353 4562 L
5353  414 mt 5353  467 L
5287 4873 mt 
(2) s
6240 4616 mt 6240 4562 L
6240  414 mt 6240  467 L
6174 4873 mt 
(3) s
 899 4599 mt  952 4599 L
6261 4599 mt 6207 4599 L
 591 4688 mt 
(-3) s
 899 3904 mt  952 3904 L
6261 3904 mt 6207 3904 L
 591 3993 mt 
(-2) s
 899 3209 mt  952 3209 L
6261 3209 mt 6207 3209 L
 591 3298 mt 
(-1) s
 899 2514 mt  952 2514 L
6261 2514 mt 6207 2514 L
 731 2603 mt 
(0) s
 899 1820 mt  952 1820 L
6261 1820 mt 6207 1820 L
 731 1909 mt 
(1) s
 899 1125 mt  952 1125 L
6261 1125 mt 6207 1125 L
 731 1214 mt 
(2) s
 899  430 mt  952  430 L
6261  430 mt 6207  430 L
 731  519 mt 
(3) s
 899  414 mt 6261  414 L
 899 4616 mt 6261 4616 L
6261 4616 mt 6261  414 L
 899 4616 mt  899  414 L
gs 899 414 5363 4203 rc
gr

/c8 { 0.000000 0.000000 1.000000 sr} bdef
c8
3471 1255 mt 3543 1255 L
3507 1219 mt 3507 1291 L
3376 2001 mt 3448 2001 L
3412 1965 mt 3412 2037 L
3166 1990 mt 3238 1990 L
3202 1954 mt 3202 2026 L
2126 2637 mt 2198 2637 L
2162 2601 mt 2162 2673 L
3232 1572 mt 3304 1572 L
3268 1536 mt 3268 1608 L
3296 1604 mt 3368 1604 L
3332 1568 mt 3332 1640 L
2987 3257 mt 3059 3257 L
3023 3221 mt 3023 3293 L
3110 2237 mt 3182 2237 L
3146 2201 mt 3146 2273 L
1907 2228 mt 1979 2228 L
1943 2192 mt 1943 2264 L
4836 1336 mt 4908 1336 L
4872 1300 mt 4872 1372 L
2662 2480 mt 2734 2480 L
2698 2444 mt 2698 2516 L
2924 2204 mt 2996 2204 L
2960 2168 mt 2960 2240 L
4398 2695 mt 4470 2695 L
4434 2659 mt 4434 2731 L
2980 1593 mt 3052 1593 L
3016 1557 mt 3016 1629 L
4087 2894 mt 4159 2894 L
4123 2858 mt 4123 2930 L
3605 2796 mt 3677 2796 L
3641 2760 mt 3641 2832 L
3290 1851 mt 3362 1851 L
3326 1815 mt 3326 1887 L
4206 4131 mt 4278 4131 L
4242 4095 mt 4242 4167 L
2251 2458 mt 2323 2458 L
2287 2422 mt 2287 2494 L
3996 2383 mt 4068 2383 L
4032 2347 mt 4032 2419 L
3728 2284 mt 3800 2284 L
3764 2248 mt 3764 2320 L
2394 2311 mt 2466 2311 L
2430 2275 mt 2430 2347 L
3359 2046 mt 3431 2046 L
3395 2010 mt 3395 2082 L
4553 2754 mt 4625 2754 L
4589 2718 mt 4589 2790 L
4259 3289 mt 4331 3289 L
4295 3253 mt 4295 3325 L
3927 2338 mt 3999 2338 L
3963 2302 mt 3963 2374 L
 863 2401 mt  935 2401 L
 899 2365 mt  899 2437 L
3284 2488 mt 3356 2488 L
3320 2452 mt 3320 2524 L
3711 1772 mt 3783 1772 L
3747 1736 mt 3747 1808 L
5211 2165 mt 5283 2165 L
5247 2129 mt 5247 2201 L
4290 2514 mt 4362 2514 L
4326 2478 mt 4326 2550 L
2615 2057 mt 2687 2057 L
2651 2021 mt 2651 2093 L
3499 2374 mt 3571 2374 L
3535 2338 mt 3535 2410 L
4074 3250 mt 4146 3250 L
4110 3214 mt 4110 3286 L
2740 1995 mt 2812 1995 L
2776 1959 mt 2776 2031 L
3046 1614 mt 3118 1614 L
3082 1578 mt 3082 1650 L
3785 1978 mt 3857 1978 L
3821 1942 mt 3821 2014 L
3196 3595 mt 3268 3595 L
3232 3559 mt 3232 3631 L
3734 2194 mt 3806 2194 L
3770 2158 mt 3770 2230 L
2523 2035 mt 2595 2035 L
2559 1999 mt 2559 2071 L
2732 2189 mt 2804 2189 L
2768 2153 mt 2768 2225 L
4314 1707 mt 4386 1707 L
4350 1671 mt 4350 1743 L
3677 2265 mt 3749 2265 L
3713 2229 mt 3713 2301 L
3571 2361 mt 3643 2361 L
3607 2325 mt 3607 2397 L
4585 3322 mt 4657 3322 L
4621 3286 mt 4621 3358 L
2888 3415 mt 2960 3415 L
2924 3379 mt 2924 3451 L
3226 2410 mt 3298 2410 L
3262 2374 mt 3262 2446 L
4381 2484 mt 4453 2484 L
4417 2448 mt 4417 2520 L
3313 2825 mt 3385 2825 L
3349 2789 mt 3349 2861 L
4041 3479 mt 4113 3479 L
4077 3443 mt 4077 3515 L
3510 2686 mt 3582 2686 L
3546 2650 mt 3546 2722 L
3921 1550 mt 3993 1550 L
3957 1514 mt 3957 1586 L
4564 2759 mt 4636 2759 L
4600 2723 mt 4600 2795 L
3135 2040 mt 3207 2040 L
3171 2004 mt 3171 2076 L
4266 2440 mt 4338 2440 L
4302 2404 mt 4302 2476 L
4170 2475 mt 4242 2475 L
4206 2439 mt 4206 2511 L
3347 3242 mt 3419 3242 L
3383 3206 mt 3383 3278 L
3588 1966 mt 3660 1966 L
3624 1930 mt 3624 2002 L
2805 2597 mt 2877 2597 L
2841 2561 mt 2841 2633 L
2671 2445 mt 2743 2445 L
2707 2409 mt 2707 2481 L
3449 3171 mt 3521 3171 L
3485 3135 mt 3485 3207 L
3404 3367 mt 3476 3367 L
3440 3331 mt 3440 3403 L
3273 1972 mt 3345 1972 L
3309 1936 mt 3309 2008 L
4114 2493 mt 4186 2493 L
4150 2457 mt 4150 2529 L
2298 1006 mt 2370 1006 L
2334  970 mt 2334 1042 L
4522 2989 mt 4594 2989 L
4558 2953 mt 4558 3025 L
3621 2506 mt 3693 2506 L
3657 2470 mt 3657 2542 L
2444 2864 mt 2516 2864 L
2480 2828 mt 2480 2900 L
3706 2062 mt 3778 2062 L
3742 2026 mt 3742 2098 L
2479 2067 mt 2551 2067 L
2515 2031 mt 2515 2103 L
3780 2160 mt 3852 2160 L
3816 2124 mt 3816 2196 L
3078 1917 mt 3150 1917 L
3114 1881 mt 3114 1953 L
3432 2914 mt 3504 2914 L
3468 2878 mt 3468 2950 L
2973 1152 mt 3045 1152 L
3009 1116 mt 3009 1188 L
1991 1872 mt 2063 1872 L
2027 1836 mt 2027 1908 L
1259 2741 mt 1331 2741 L
1295 2705 mt 1295 2777 L
4028 2175 mt 4100 2175 L
4064 2139 mt 4064 2211 L
2966 2242 mt 3038 2242 L
3002 2206 mt 3002 2278 L
3013 1787 mt 3085 1787 L
3049 1751 mt 3049 1823 L
4719 2423 mt 4791 2423 L
4755 2387 mt 4755 2459 L
2680 1404 mt 2752 1404 L
2716 1368 mt 2716 1440 L
3141 2325 mt 3213 2325 L
3177 2289 mt 3177 2361 L
4177 2664 mt 4249 2664 L
4213 2628 mt 4213 2700 L
4228 2209 mt 4300 2209 L
4264 2173 mt 4264 2245 L
4706 2956 mt 4778 2956 L
4742 2920 mt 4742 2992 L
3426 3051 mt 3498 3051 L
3462 3015 mt 3462 3087 L
3020 1561 mt 3092 1561 L
3056 1525 mt 3056 1597 L
4021 3625 mt 4093 3625 L
4057 3589 mt 4057 3661 L
4619 2270 mt 4691 2270 L
4655 2234 mt 4655 2306 L
3147  824 mt 3219  824 L
3183  788 mt 3183  860 L
3007 2668 mt 3079 2668 L
3043 2632 mt 3043 2704 L
4869 2920 mt 4941 2920 L
4905 2884 mt 4905 2956 L
2312 1898 mt 2384 1898 L
2348 1862 mt 2348 1934 L
3832 2567 mt 3904 2567 L
3868 2531 mt 3868 2603 L
3325 3144 mt 3397 3144 L
3361 3108 mt 3361 3180 L
4142 3235 mt 4214 3235 L
4178 3199 mt 4178 3271 L
2945 2682 mt 3017 2682 L
2981 2646 mt 2981 2718 L
3302 1634 mt 3374 1634 L
3338 1598 mt 3338 1670 L
3267 3797 mt 3339 3797 L
3303 3761 mt 3303 3833 L
2490 2611 mt 2562 2611 L
2526 2575 mt 2526 2647 L
3844 2018 mt 3916 2018 L
3880 1982 mt 3880 2054 L
4667 2528 mt 4739 2528 L
4703 2492 mt 4703 2564 L
2643 3131 mt 2715 3131 L
2679 3095 mt 2679 3167 L
2341 2972 mt 2413 2972 L
2377 2936 mt 2377 3008 L
3820 3178 mt 3892 3178 L
3856 3142 mt 3856 3214 L
2534 2185 mt 2606 2185 L
2570 2149 mt 2570 2221 L
2749 2835 mt 2821 2835 L
2785 2799 mt 2785 2871 L
3370 2532 mt 3442 2532 L
3406 2496 mt 3406 2568 L
2456 2388 mt 2528 2388 L
2492 2352 mt 2492 2424 L
4002 2180 mt 4074 2180 L
4038 2144 mt 4038 2216 L
4298 2329 mt 4370 2329 L
4334 2293 mt 4334 2365 L
2407 2764 mt 2479 2764 L
2443 2728 mt 2443 2800 L
2586 2830 mt 2658 2830 L
2622 2794 mt 2622 2866 L
4213 4205 mt 4285 4205 L
4249 4169 mt 4249 4241 L
3098 2704 mt 3170 2704 L
3134 2668 mt 3134 2740 L
2715 2541 mt 2787 2541 L
2751 2505 mt 2751 2577 L
3915 1756 mt 3987 1756 L
3951 1720 mt 3951 1792 L
3560 3503 mt 3632 3503 L
3596 3467 mt 3596 3539 L
3482 3184 mt 3554 3184 L
3518 3148 mt 3518 3220 L
1387 3908 mt 1459 3908 L
1423 3872 mt 1423 3944 L
3549 2352 mt 3621 2352 L
3585 2316 mt 3585 2388 L
4922 1779 mt 4994 1779 L
4958 1743 mt 4958 1815 L
3946 2343 mt 4018 2343 L
3982 2307 mt 3982 2379 L
2595 3112 mt 2667 3112 L
2631 3076 mt 2631 3148 L
3466 1845 mt 3538 1845 L
3502 1809 mt 3502 1881 L
4425 1671 mt 4497 1671 L
4461 1635 mt 4461 1707 L
2355 3693 mt 2427 3693 L
2391 3657 mt 2391 3729 L
1937 2673 mt 2009 2673 L
1973 2637 mt 1973 2709 L
3803 1794 mt 3875 1794 L
3839 1758 mt 3839 1830 L
3964 3045 mt 4036 3045 L
4000 3009 mt 4000 3081 L
4156 3022 mt 4228 3022 L
4192 2986 mt 4192 3058 L
3903 2768 mt 3975 2768 L
3939 2732 mt 3939 2804 L
4191 2519 mt 4263 2519 L
4227 2483 mt 4227 2555 L
3723 2497 mt 3795 2497 L
3759 2461 mt 3759 2533 L
2146 2650 mt 2218 2650 L
2182 2614 mt 2182 2686 L
3220 2909 mt 3292 2909 L
3256 2873 mt 3256 2945 L
2706 2580 mt 2778 2580 L
2742 2544 mt 2742 2616 L
4655 1885 mt 4727 1885 L
4691 1849 mt 4691 1921 L
2605 2820 mt 2677 2820 L
2641 2784 mt 2641 2856 L
3977 3125 mt 4049 3125 L
4013 3089 mt 4013 3161 L
4492 2967 mt 4564 2967 L
4528 2931 mt 4528 3003 L
4015 2279 mt 4087 2279 L
4051 2243 mt 4051 2315 L
3202 3057 mt 3274 3057 L
3238 3021 mt 3238 3093 L
3027 2700 mt 3099 2700 L
3063 2664 mt 3063 2736 L
3952 1698 mt 4024 1698 L
3988 1662 mt 3988 1734 L
4355 2392 mt 4427 2392 L
4391 2356 mt 4391 2428 L
3666 2334 mt 3738 2334 L
3702 2298 mt 3702 2370 L
3129 1388 mt 3201 1388 L
3165 1352 mt 3165 1424 L
3393 3675 mt 3465 3675 L
3429 3639 mt 3429 3711 L
3410 1904 mt 3482 1904 L
3446 1868 mt 3446 1940 L
4067 2449 mt 4139 2449 L
4103 2413 mt 4103 2485 L
4094 3395 mt 4166 3395 L
4130 3359 mt 4130 3431 L
2165 2713 mt 2237 2713 L
2201 2677 mt 2201 2749 L
2634 2261 mt 2706 2261 L
2670 2225 mt 2670 2297 L
3885 2709 mt 3957 2709 L
3921 2673 mt 3921 2745 L
3521 3340 mt 3593 3340 L
3557 3304 mt 3557 3376 L
2282 1689 mt 2354 1689 L
2318 1653 mt 2318 1725 L
3983 2899 mt 4055 2899 L
4019 2863 mt 4019 2935 L
1619 1838 mt 1691 1838 L
1655 1802 mt 1655 1874 L
4435 3273 mt 4507 3273 L
4471 3237 mt 4471 3309 L
3153 2854 mt 3225 2854 L
3189 2818 mt 3189 2890 L
3214 3641 mt 3286 3641 L
3250 3605 mt 3250 3677 L
3364 2462 mt 3436 2462 L
3400 2426 mt 3400 2498 L
5047 2302 mt 5119 2302 L
5083 2266 mt 5083 2338 L
4512 2736 mt 4584 2736 L
4548 2700 mt 4548 2772 L
3072 2930 mt 3144 2930 L
3108 2894 mt 3108 2966 L
4060 2633 mt 4132 2633 L
4096 2597 mt 4096 2669 L
3053 4616 mt 3125 4616 L
3089 4580 mt 3089 4652 L
3421 2659 mt 3493 2659 L
3457 2623 mt 3457 2695 L
3855 2293 mt 3927 2293 L
3891 2257 mt 3891 2329 L
3797 2199 mt 3869 2199 L
3833 2163 mt 3833 2235 L
4199 1948 mt 4271 1948 L
4235 1912 mt 4235 1984 L
2468 3191 mt 2540 3191 L
2504 3155 mt 2504 3227 L
3381 2307 mt 3453 2307 L
3417 2271 mt 3417 2343 L
3768 3206 mt 3840 3206 L
3804 3170 mt 3804 3242 L
2836 2094 mt 2908 2094 L
2872 2058 mt 2872 2130 L
3700 2396 mt 3772 2396 L
3736 2360 mt 3736 2432 L
3791 2874 mt 3863 2874 L
3827 2838 mt 3827 2910 L
3085 2125 mt 3157 2125 L
3121 2089 mt 3121 2161 L
2513 1865 mt 2585 1865 L
2549 1829 mt 2549 1901 L
2874 2935 mt 2946 2935 L
2910 2899 mt 2910 2971 L
4532 3017 mt 4604 3017 L
4568 2981 mt 4568 3053 L
3454 1643 mt 3526 1643 L
3490 1607 mt 3490 1679 L
1965 2078 mt 2037 2078 L
2001 2042 mt 2001 2114 L
4886 3349 mt 4958 3349 L
4922 3313 mt 4922 3385 L
2502 1831 mt 2574 1831 L
2538 1795 mt 2538 1867 L
5606 2347 mt 5678 2347 L
5642 2311 mt 5642 2383 L
3577 1748 mt 3649 1748 L
3613 1712 mt 3613 1784 L
5024 3658 mt 5096 3658 L
5060 3622 mt 5060 3694 L
3616 1419 mt 3688 1419 L
3652 1383 mt 3652 1455 L
3838 1538 mt 3910 1538 L
3874 1502 mt 3874 1574 L
2896 2727 mt 2968 2727 L
2932 2691 mt 2932 2763 L
5150 2275 mt 5222 2275 L
5186 2239 mt 5186 2311 L
4732 1984 mt 4804 1984 L
4768 1948 mt 4768 2020 L
3243 1583 mt 3315 1583 L
3279 1547 mt 3279 1619 L
3178 1923 mt 3250 1923 L
3214 1887 mt 3214 1959 L
3909 3039 mt 3981 3039 L
3945 3003 mt 3945 3075 L
3599 2405 mt 3671 2405 L
3635 2369 mt 3635 2441 L
2903 3358 mt 2975 3358 L
2939 3322 mt 2939 3394 L
3555 2140 mt 3627 2140 L
3591 2104 mt 3591 2176 L
4364 1087 mt 4436 1087 L
4400 1051 mt 4400 1123 L
2575 1715 mt 2647 1715 L
2611 1679 mt 2611 1751 L
4904 2099 mt 4976 2099 L
4940 2063 mt 4940 2135 L
4372 3164 mt 4444 3164 L
4408 3128 mt 4408 3200 L
3672 2012 mt 3744 2012 L
3708 1976 mt 3708 2048 L
2851 2467 mt 2923 2467 L
2887 2431 mt 2887 2503 L
4390 3034 mt 4462 3034 L
4426 2998 mt 4426 3070 L
4322 2007 mt 4394 2007 L
4358 1971 mt 4358 2043 L
3826 1930 mt 3898 1930 L
3862 1894 mt 3862 1966 L
2201 3314 mt 2273 3314 L
2237 3278 mt 2237 3350 L
2624 1181 mt 2696 1181 L
2660 1145 mt 2660 1217 L
4047 2247 mt 4119 2247 L
4083 2211 mt 4083 2283 L
3861 1911 mt 3933 1911 L
3897 1875 mt 3897 1947 L
3460 3005 mt 3532 3005 L
3496 2969 mt 3496 3041 L
4034 2365 mt 4106 2365 L
4070 2329 mt 4070 2401 L
5700 1878 mt 5772 1878 L
5736 1842 mt 5736 1914 L
2881 1802 mt 2953 1802 L
2917 1766 mt 2917 1838 L
2565 2256 mt 2637 2256 L
2601 2220 mt 2601 2292 L
3814 2432 mt 3886 2432 L
3850 2396 mt 3850 2468 L
3940 2558 mt 4012 2558 L
3976 2522 mt 3976 2594 L
5245 2869 mt 5317 2869 L
5281 2833 mt 5281 2905 L
2327 2994 mt 2399 2994 L
2363 2958 mt 2363 3030 L
3934 2745 mt 4006 2745 L
3970 2709 mt 3970 2781 L
1876 3567 mt 1948 3567 L
1912 3531 mt 1912 3603 L
5365 2571 mt 5437 2571 L
5401 2535 mt 5401 2607 L
3989 2356 mt 4061 2356 L
4025 2320 mt 4025 2392 L
2085 3157 mt 2157 3157 L
2121 3121 mt 2121 3193 L
3689 2615 mt 3761 2615 L
3725 2579 mt 3725 2651 L
3638 1207 mt 3710 1207 L
3674 1171 mt 3674 1243 L
4693 1318 mt 4765 1318 L
4729 1282 mt 4729 1354 L
4221 4305 mt 4293 4305 L
4257 4269 mt 4257 4341 L
3091 3457 mt 3163 3457 L
3127 3421 mt 3127 3493 L
2432 3942 mt 2504 3942 L
2468 3906 mt 2468 3978 L
4680 2120 mt 4752 2120 L
4716 2084 mt 4716 2156 L
3544 1371 mt 3616 1371 L
3580 1335 mt 3580 1407 L
3649 4023 mt 3721 4023 L
3685 3987 mt 3685 4059 L
3717 3081 mt 3789 3081 L
3753 3045 mt 3753 3117 L
2545 2115 mt 2617 2115 L
2581 2079 mt 2581 2151 L
2866 2545 mt 2938 2545 L
2902 2509 mt 2902 2581 L
3415 2218 mt 3487 2218 L
3451 2182 mt 3451 2254 L
4347 2787 mt 4419 2787 L
4383 2751 mt 4383 2823 L
4746 2677 mt 4818 2677 L
4782 2641 mt 4782 2713 L
5828 2024 mt 5900 2024 L
5864 1988 mt 5864 2060 L
4542 2562 mt 4614 2562 L
4578 2526 mt 4578 2598 L
4163 2135 mt 4235 2135 L
4199 2099 mt 4199 2171 L
4054 2773 mt 4126 2773 L
4090 2737 mt 4090 2809 L
3897 2170 mt 3969 2170 L
3933 2134 mt 3933 2206 L
3438 1892 mt 3510 1892 L
3474 1856 mt 3474 1928 L
4574 2251 mt 4646 2251 L
4610 2215 mt 4610 2287 L
2016 2731 mt 2088 2731 L
2052 2695 mt 2052 2767 L
4251 2940 mt 4323 2940 L
4287 2904 mt 4287 2976 L
3633 1680 mt 3705 1680 L
3669 1644 mt 3669 1716 L
2765 1049 mt 2837 1049 L
2801 1013 mt 2801 1085 L
4789 4072 mt 4861 4072 L
4825 4036 mt 4825 4108 L
2789 2576 mt 2861 2576 L
2825 2540 mt 2825 2612 L
4128 3436 mt 4200 3436 L
4164 3400 mt 4164 3472 L
4407 2150 mt 4479 2150 L
4443 2114 mt 4443 2186 L
3891 2523 mt 3963 2523 L
3927 2487 mt 3927 2559 L
3387 1354 mt 3459 1354 L
3423 1318 mt 3423 1390 L
4416 2029 mt 4488 2029 L
4452 1993 mt 4452 2065 L
2218 3198 mt 2290 3198 L
2254 3162 mt 2254 3234 L
4338 3220 mt 4410 3220 L
4374 3184 mt 4374 3256 L
5282 3731 mt 5354 3731 L
5318 3695 mt 5318 3767 L
3160 3540 mt 3232 3540 L
3196 3504 mt 3196 3576 L
3116 1809 mt 3188 1809 L
3152 1773 mt 3152 1845 L
3477 2414 mt 3549 2414 L
3513 2378 mt 3513 2450 L
2938 3075 mt 3010 3075 L
2974 3039 mt 2974 3111 L
3757  898 mt 3829  898 L
3793  862 mt 3793  934 L
2235 2214 mt 2307 2214 L
2271 2178 mt 2271 2250 L
3594 2298 mt 3666 2298 L
3630 2262 mt 3630 2334 L
4306 2628 mt 4378 2628 L
4342 2592 mt 4342 2664 L
3488 1489 mt 3560 1489 L
3524 1453 mt 3524 1525 L
5468 3028 mt 5540 3028 L
5504 2992 mt 5504 3064 L
2821 2951 mt 2893 2951 L
2857 2915 mt 2857 2987 L
3538 1624 mt 3610 1624 L
3574 1588 mt 3574 1660 L
2652 1448 mt 2724 1448 L
2688 1412 mt 2688 1484 L
4330 1740 mt 4402 1740 L
4366 1704 mt 4366 1776 L
2959 2815 mt 3031 2815 L
2995 2779 mt 2995 2851 L
3694 2316 mt 3766 2316 L
3730 2280 mt 3730 2352 L
4009 1954 mt 4081 1954 L
4045 1918 mt 4045 1990 L
4100 2602 mt 4172 2602 L
4136 2566 mt 4136 2638 L
2106 1434 mt 2178 1434 L
2142 1398 mt 2142 1470 L
4597 3087 mt 4669 3087 L
4633 3051 mt 4633 3123 L
4274 2619 mt 4346 2619 L
4310 2583 mt 4310 2655 L
4453 3376 mt 4525 3376 L
4489 3340 mt 4489 3412 L
3033 1121 mt 3105 1121 L
3069 1085 mt 3069 1157 L
3255 2510 mt 3327 2510 L
3291 2474 mt 3291 2546 L
3774 3822 mt 3846 3822 L
3810 3786 mt 3810 3858 L
3627 2589 mt 3699 2589 L
3663 2553 mt 3663 2625 L
1481  414 mt 1553  414 L
1517  378 mt 1517  450 L
3655 3553 mt 3727 3553 L
3691 3517 mt 3691 3589 L
4282 3106 mt 4354 3106 L
4318 3070 mt 4318 3142 L
2931 2130 mt 3003 2130 L
2967 2094 mt 2967 2166 L
4107 3331 mt 4179 3331 L
4143 3295 mt 4143 3367 L
3104 3297 mt 3176 3297 L
3140 3261 mt 3140 3333 L
5071 3011 mt 5143 3011 L
5107 2975 mt 5107 3047 L
3237 2792 mt 3309 2792 L
3273 2756 mt 3273 2828 L
3066 2089 mt 3138 2089 L
3102 2053 mt 3102 2125 L
2381 1764 mt 2453 1764 L
2417 1728 mt 2417 1800 L
2781 2811 mt 2853 2811 L
2817 2775 mt 2817 2847 L
4236 2320 mt 4308 2320 L
4272 2284 mt 4272 2356 L
4463 1476 mt 4535 1476 L
4499 1440 mt 4499 1512 L
3740 2536 mt 3812 2536 L
3776 2500 mt 3776 2572 L
2773 3118 mt 2845 3118 L
2809 3082 mt 2809 3154 L
4444 2418 mt 4516 2418 L
4480 2382 mt 4480 2454 L
4981 2925 mt 5053 2925 L
5017 2889 mt 5017 2961 L
1722 3213 mt 1794 3213 L
1758 3177 mt 1758 3249 L
4135 3093 mt 4207 3093 L
4171 3057 mt 4171 3129 L
1766 2879 mt 1838 2879 L
1802 2843 mt 1802 2915 L
3172 3581 mt 3244 3581 L
3208 3545 mt 3208 3617 L
5002 2233 mt 5074 2233 L
5038 2197 mt 5038 2269 L
3319 3137 mt 3391 3137 L
3355 3101 mt 3355 3173 L
3353 2978 mt 3425 2978 L
3389 2942 mt 3389 3014 L
3190 2145 mt 3262 2145 L
3226 2109 mt 3226 2181 L
1674 2223 mt 1746 2223 L
1710 2187 mt 1710 2259 L
2555 3877 mt 2627 3877 L
2591 3841 mt 2591 3913 L
5531 2104 mt 5603 2104 L
5567 2068 mt 5567 2140 L
2813 2904 mt 2885 2904 L
2849 2868 mt 2849 2940 L
3867 3610 mt 3939 3610 L
3903 3574 mt 3903 3646 L
3879 2109 mt 3951 2109 L
3915 2073 mt 3915 2145 L
3000 2083 mt 3072 2083 L
3036 2047 mt 3036 2119 L
2689 3980 mt 2761 3980 L
2725 3944 mt 2725 4016 L
3527 3306 mt 3599 3306 L
3563 3270 mt 3563 3342 L
5321 1462 mt 5393 1462 L
5357 1426 mt 5357 1498 L
3516 2624 mt 3588 2624 L
3552 2588 mt 3552 2660 L
4121 1858 mt 4193 1858 L
4157 1822 mt 4157 1894 L
4820 2750 mt 4892 2750 L
4856 2714 mt 4856 2786 L
3505 3711 mt 3577 3711 L
3541 3675 mt 3541 3747 L
3751 3752 mt 3823 3752 L
3787 3716 mt 3787 3788 L
3184 2946 mt 3256 2946 L
3220 2910 mt 3220 2982 L
1556 2051 mt 1628 2051 L
1592 2015 mt 1592 2087 L
2993 2801 mt 3065 2801 L
3029 2765 mt 3029 2837 L
5096 1526 mt 5168 1526 L
5132 1490 mt 5132 1562 L
2757 2718 mt 2829 2718 L
2793 2682 mt 2793 2754 L
3762 3491 mt 3834 3491 L
3798 3455 mt 3798 3527 L
2420 3774 mt 2492 3774 L
2456 3738 mt 2456 3810 L
3123 3386 mt 3195 3386 L
3159 3350 mt 3159 3422 L
4482 1936 mt 4554 1936 L
4518 1900 mt 4518 1972 L
3745 2884 mt 3817 2884 L
3781 2848 mt 3781 2920 L
3809 2073 mt 3881 2073 L
3845 2037 mt 3845 2109 L
4472 2849 mt 4544 2849 L
4508 2813 mt 4508 2885 L
4608 2554 mt 4680 2554 L
4644 2518 mt 4644 2590 L
4149 1277 mt 4221 1277 L
4185 1241 mt 4185 1313 L
2063 3446 mt 2135 3446 L
2099 3410 mt 2099 3482 L
4961 2436 mt 5033 2436 L
4997 2400 mt 4997 2472 L
4080 2782 mt 4152 2782 L
4116 2746 mt 4116 2818 L
1805 1823 mt 1877 1823 L
1841 1787 mt 1841 1859 L
3644 1298 mt 3716 1298 L
3680 1262 mt 3680 1334 L
2859 3515 mt 2931 3515 L
2895 3479 mt 2895 3551 L
2040 3063 mt 2112 3063 L
2076 3027 mt 2076 3099 L
4184 2155 mt 4256 2155 L
4220 2119 mt 4220 2191 L
3683 3069 mt 3755 3069 L
3719 3033 mt 3719 3105 L
2828 2370 mt 2900 2370 L
2864 2334 mt 2864 2406 L
6225 1960 mt 6297 1960 L
6261 1924 mt 6261 1996 L
2844  564 mt 2916  564 L
2880  528 mt 2880  600 L
6033 2983 mt 6105 2983 L
6069 2947 mt 6069 3019 L
2797 3468 mt 2869 3468 L
2833 3432 mt 2833 3504 L
3566 2844 mt 3638 2844 L
3602 2808 mt 3602 2880 L
2917 3281 mt 2989 3281 L
2953 3245 mt 2953 3317 L
3398 3527 mt 3470 3527 L
3434 3491 mt 3434 3563 L
3850 1816 mt 3922 1816 L
3886 1780 mt 3886 1852 L
4243 2549 mt 4315 2549 L
4279 2513 mt 4279 2585 L
3873 2288 mt 3945 2288 L
3909 2252 mt 3909 2324 L
4941 1662 mt 5013 1662 L
4977 1626 mt 4977 1698 L
3610 3265 mt 3682 3265 L
3646 3229 mt 3646 3301 L
3661 3425 mt 3733 3425 L
3697 3389 mt 3697 3461 L
4760 2584 mt 4832 2584 L
4796 2548 mt 4796 2620 L
1842 2889 mt 1914 2889 L
1878 2853 mt 1878 2925 L
3443 1232 mt 3515 1232 L
3479 1196 mt 3479 1268 L
4501 1942 mt 4573 1942 L
4537 1906 mt 4537 1978 L
4643 3227 mt 4715 3227 L
4679 3191 mt 4679 3263 L
4775 2471 mt 4847 2471 L
4811 2435 mt 4811 2507 L
3493 2806 mt 3565 2806 L
3529 2770 mt 3529 2842 L
2910 1514 mt 2982 1514 L
2946 1478 mt 2946 1550 L
3330 2379 mt 3402 2379 L
3366 2343 mt 3366 2415 L
2952 1502 mt 3024 1502 L
2988 1466 mt 2988 1538 L
3208 2962 mt 3280 2962 L
3244 2926 mt 3244 2998 L
4631 2641 mt 4703 2641 L
4667 2605 mt 4667 2677 L
3278 2778 mt 3350 2778 L
3314 2742 mt 3314 2814 L
3059 2655 mt 3131 2655 L
3095 2619 mt 3095 2691 L
3261 2691 mt 3333 2691 L
3297 2655 mt 3297 2727 L
3336 2501 mt 3408 2501 L
3372 2465 mt 3372 2537 L
5180 2427 mt 5252 2427 L
5216 2391 mt 5216 2463 L
3532 2593 mt 3604 2593 L
3568 2557 mt 3568 2629 L
2267 2606 mt 2339 2606 L
2303 2570 mt 2303 2642 L
4805 3151 mt 4877 3151 L
4841 3115 mt 4841 3187 L
3971 3099 mt 4043 3099 L
4007 3063 mt 4007 3135 L
2723 3405 mt 2795 3405 L
2759 3369 mt 2759 3441 L
3958 2859 mt 4030 2859 L
3994 2823 mt 3994 2895 L
3342 1723 mt 3414 1723 L
3378 1687 mt 3378 1759 L
2697 2453 mt 2769 2453 L
2733 2417 mt 2733 2489 L
2183 3848 mt 2255 3848 L
2219 3812 mt 2219 3884 L
3307 2722 mt 3379 2722 L
3343 2686 mt 3343 2758 L
4852  957 mt 4924  957 L
4888  921 mt 4888  993 L
5122 3000 mt 5194 3000 L
5158 2964 mt 5158 3036 L
2368  724 mt 2440  724 L
2404  688 mt 2404  760 L
3582 2646 mt 3654 2646 L
3618 2610 mt 3618 2682 L
3249 1653 mt 3321 1653 L
3285 1617 mt 3285 1689 L
3040 2840 mt 3112 2840 L
3076 2804 mt 3076 2876 L
5413 1732 mt 5485 1732 L
5449 1696 mt 5449 1768 L
gs 899 414 5363 4203 rc
gr

0 sg
2775 5104 mt 
(\(F,DCTb,GMM\)) s
 482 3259 mt  -90 rotate
(\(S,PAC,GMM\)) s
90 rotate
2905  223 mt 
(Corr = -0.00) s

end %%Color Dict

eplot
%%EndObject

epage
end

showpage

%%Trailer
%%EOF
