%!PS-Adobe-3.0 EPSF-3.0
%%Creator: MATLAB, The Mathworks, Inc. Version 7.7.0.471 (R2008b). Operating System: Microsoft Windows XP.
%%Title: Pictures\main_zoo_mvar_analysis_data_BMI_xcorr_bmi_p1_k2_4_8.eps
%%CreationDate: 10/26/2009  05:44:29
%%DocumentNeededFonts: Helvetica
%%DocumentProcessColors: Cyan Magenta Yellow Black
%%LanguageLevel: 2
%%Pages: 1
%%BoundingBox:    32   180   546   616
%%EndComments

%%BeginProlog
% MathWorks dictionary
/MathWorks 160 dict begin
% definition operators
/bdef {bind def} bind def
/ldef {load def} bind def
/xdef {exch def} bdef
/xstore {exch store} bdef
% operator abbreviations
/c  /clip ldef
/cc /concat ldef
/cp /closepath ldef
/gr /grestore ldef
/gs /gsave ldef
/mt /moveto ldef
/np /newpath ldef
/cm /currentmatrix ldef
/sm /setmatrix ldef
/rm /rmoveto ldef
/rl /rlineto ldef
/s {show newpath} bdef
/sc {setcmykcolor} bdef
/sr /setrgbcolor ldef
/sg /setgray ldef
/w /setlinewidth ldef
/j /setlinejoin ldef
/cap /setlinecap ldef
/rc {rectclip} bdef
/rf {rectfill} bdef
% page state control
/pgsv () def
/bpage {/pgsv save def} bdef
/epage {pgsv restore} bdef
/bplot /gsave ldef
/eplot {stroke grestore} bdef
% orientation switch
/portraitMode 0 def /landscapeMode 1 def /rotateMode 2 def
% coordinate system mappings
/dpi2point 0 def
% font control
/FontSize 0 def
/FMS {/FontSize xstore findfont [FontSize 0 0 FontSize neg 0 0]
  makefont setfont} bdef
/ISOLatin1Encoding where {pop /WindowsLatin1Encoding 256 array bdef
ISOLatin1Encoding WindowsLatin1Encoding copy pop
/.notdef/.notdef/quotesinglbase/florin/quotedblbase/ellipsis/dagger
/daggerdbl/circumflex/perthousand/Scaron/guilsinglleft/OE/.notdef/.notdef
/.notdef/.notdef/quoteleft/quoteright/quotedblleft/quotedblright/bullet
/endash/emdash/tilde/trademark/scaron/guilsinglright/oe/.notdef/.notdef
/Ydieresis WindowsLatin1Encoding 128 32 getinterval astore pop}
{/WindowsLatin1Encoding StandardEncoding bdef} ifelse
/reencode {exch dup where {pop load} {pop StandardEncoding} ifelse
  exch dup 3 1 roll findfont dup length dict begin
  { 1 index /FID ne {def}{pop pop} ifelse } forall
  /Encoding exch def currentdict end definefont pop} bdef
/isroman {findfont /CharStrings get /Agrave known} bdef
/FMSR {3 1 roll 1 index dup isroman {reencode} {pop pop} ifelse
  exch FMS} bdef
/csm {1 dpi2point div -1 dpi2point div scale neg translate
 dup landscapeMode eq {pop -90 rotate}
  {rotateMode eq {90 rotate} if} ifelse} bdef
% line types: solid, dotted, dashed, dotdash
/SO { [] 0 setdash } bdef
/DO { [.5 dpi2point mul 4 dpi2point mul] 0 setdash } bdef
/DA { [6 dpi2point mul] 0 setdash } bdef
/DD { [.5 dpi2point mul 4 dpi2point mul 6 dpi2point mul 4
  dpi2point mul] 0 setdash } bdef
% macros for lines and objects
/L {lineto stroke} bdef
/MP {3 1 roll moveto 1 sub {rlineto} repeat} bdef
/AP {{rlineto} repeat} bdef
/PDlw -1 def
/W {/PDlw currentlinewidth def setlinewidth} def
/PP {closepath eofill} bdef
/DP {closepath stroke} bdef
/MR {4 -2 roll moveto dup  0 exch rlineto exch 0 rlineto
  neg 0 exch rlineto closepath} bdef
/FR {MR stroke} bdef
/PR {MR fill} bdef
/L1i {{currentfile picstr readhexstring pop} image} bdef
/tMatrix matrix def
/MakeOval {newpath tMatrix currentmatrix pop translate scale
0 0 1 0 360 arc tMatrix setmatrix} bdef
/FO {MakeOval stroke} bdef
/PO {MakeOval fill} bdef
/PD {currentlinewidth 2 div 0 360 arc fill
   PDlw -1 eq not {PDlw w /PDlw -1 def} if} def
/FA {newpath tMatrix currentmatrix pop translate scale
  0 0 1 5 -2 roll arc tMatrix setmatrix stroke} bdef
/PA {newpath tMatrix currentmatrix pop	translate 0 0 moveto scale
  0 0 1 5 -2 roll arc closepath tMatrix setmatrix fill} bdef
/FAn {newpath tMatrix currentmatrix pop translate scale
  0 0 1 5 -2 roll arcn tMatrix setmatrix stroke} bdef
/PAn {newpath tMatrix currentmatrix pop translate 0 0 moveto scale
  0 0 1 5 -2 roll arcn closepath tMatrix setmatrix fill} bdef
/vradius 0 def /hradius 0 def /lry 0 def
/lrx 0 def /uly 0 def /ulx 0 def /rad 0 def
/MRR {/vradius xdef /hradius xdef /lry xdef /lrx xdef /uly xdef
  /ulx xdef newpath tMatrix currentmatrix pop ulx hradius add uly
  vradius add translate hradius vradius scale 0 0 1 180 270 arc 
  tMatrix setmatrix lrx hradius sub uly vradius add translate
  hradius vradius scale 0 0 1 270 360 arc tMatrix setmatrix
  lrx hradius sub lry vradius sub translate hradius vradius scale
  0 0 1 0 90 arc tMatrix setmatrix ulx hradius add lry vradius sub
  translate hradius vradius scale 0 0 1 90 180 arc tMatrix setmatrix
  closepath} bdef
/FRR {MRR stroke } bdef
/PRR {MRR fill } bdef
/MlrRR {/lry xdef /lrx xdef /uly xdef /ulx xdef /rad lry uly sub 2 div def
  newpath tMatrix currentmatrix pop ulx rad add uly rad add translate
  rad rad scale 0 0 1 90 270 arc tMatrix setmatrix lrx rad sub lry rad
  sub translate rad rad scale 0 0 1 270 90 arc tMatrix setmatrix
  closepath} bdef
/FlrRR {MlrRR stroke } bdef
/PlrRR {MlrRR fill } bdef
/MtbRR {/lry xdef /lrx xdef /uly xdef /ulx xdef /rad lrx ulx sub 2 div def
  newpath tMatrix currentmatrix pop ulx rad add uly rad add translate
  rad rad scale 0 0 1 180 360 arc tMatrix setmatrix lrx rad sub lry rad
  sub translate rad rad scale 0 0 1 0 180 arc tMatrix setmatrix
  closepath} bdef
/FtbRR {MtbRR stroke } bdef
/PtbRR {MtbRR fill } bdef
/stri 6 array def /dtri 6 array def
/smat 6 array def /dmat 6 array def
/tmat1 6 array def /tmat2 6 array def /dif 3 array def
/asub {/ind2 exch def /ind1 exch def dup dup
  ind1 get exch ind2 get sub exch } bdef
/tri_to_matrix {
  2 0 asub 3 1 asub 4 0 asub 5 1 asub
  dup 0 get exch 1 get 7 -1 roll astore } bdef
/compute_transform {
  dmat dtri tri_to_matrix tmat1 invertmatrix 
  smat stri tri_to_matrix tmat2 concatmatrix } bdef
/ds {stri astore pop} bdef
/dt {dtri astore pop} bdef
/db {2 copy /cols xdef /rows xdef mul dup 3 mul string
  currentfile 
  3 index 0 eq {/ASCIIHexDecode filter}
  {/ASCII85Decode filter 3 index 2 eq {/RunLengthDecode filter} if }
  ifelse exch readstring pop
  dup 0 3 index getinterval /rbmap xdef
  dup 2 index dup getinterval /gbmap xdef
  1 index dup 2 mul exch getinterval /bbmap xdef pop pop}bdef
/it {gs np dtri aload pop moveto lineto lineto cp c
  cols rows 8 compute_transform 
  rbmap gbmap bbmap true 3 colorimage gr}bdef
/il {newpath moveto lineto stroke}bdef
currentdict end def
%%EndProlog

%%BeginSetup
MathWorks begin

0 cap

end
%%EndSetup

%%Page: 1 1
%%BeginPageSetup
%%PageBoundingBox:    32   180   546   616
MathWorks begin
bpage
%%EndPageSetup

%%BeginObject: obj1
bplot

/dpi2point 12 def
portraitMode 0216 7344 csm

  174   -48  6173  5231 rc
85 dict begin %Colortable dictionary
/c0 { 0.000000 0.000000 0.000000 sr} bdef
/c1 { 1.000000 1.000000 1.000000 sr} bdef
/c2 { 0.900000 0.000000 0.000000 sr} bdef
/c3 { 0.000000 0.820000 0.000000 sr} bdef
/c4 { 0.000000 0.000000 0.800000 sr} bdef
/c5 { 0.910000 0.820000 0.320000 sr} bdef
/c6 { 1.000000 0.260000 0.820000 sr} bdef
/c7 { 0.000000 0.820000 0.820000 sr} bdef
c0
1 j
1 sg
   0    0 6919 5187 rf
6 w
0 4202 5363 0 0 -4202 898 4616 4 MP
PP
-5363 0 0 4202 5363 0 0 -4202 898 4616 5 MP stroke
4 w
DO
SO
6 w
0 sg
 898  414 mt 6261  414 L
 898 4616 mt 6261 4616 L
6261 4616 mt 6261  414 L
 898 4616 mt  898  414 L
 898 4616 mt 6261 4616 L
 898 4616 mt  898  414 L
1970 4616 mt 1970 4562 L
1970  414 mt 1970  467 L
%%IncludeResource: font Helvetica
/Helvetica /WindowsLatin1Encoding 240 FMSR

1804 4873 mt 
(0.2) s
3043 4616 mt 3043 4562 L
3043  414 mt 3043  467 L
2877 4873 mt 
(0.4) s
4116 4616 mt 4116 4562 L
4116  414 mt 4116  467 L
3950 4873 mt 
(0.6) s
5188 4616 mt 5188 4562 L
5188  414 mt 5188  467 L
5022 4873 mt 
(0.8) s
 898 4196 mt  952 4196 L
6261 4196 mt 6207 4196 L
 531 4285 mt 
(0.1) s
 898 3775 mt  952 3775 L
6261 3775 mt 6207 3775 L
 531 3864 mt 
(0.2) s
 898 3355 mt  952 3355 L
6261 3355 mt 6207 3355 L
 531 3444 mt 
(0.3) s
 898 2935 mt  952 2935 L
6261 2935 mt 6207 2935 L
 531 3024 mt 
(0.4) s
 898 2515 mt  952 2515 L
6261 2515 mt 6207 2515 L
 531 2604 mt 
(0.5) s
 898 2094 mt  952 2094 L
6261 2094 mt 6207 2094 L
 531 2183 mt 
(0.6) s
 898 1674 mt  952 1674 L
6261 1674 mt 6207 1674 L
 531 1763 mt 
(0.7) s
 898 1254 mt  952 1254 L
6261 1254 mt 6207 1254 L
 531 1343 mt 
(0.8) s
 898  834 mt  952  834 L
6261  834 mt 6207  834 L
 531  923 mt 
(0.9) s
 898  414 mt 6261  414 L
 898 4616 mt 6261 4616 L
6261 4616 mt 6261  414 L
 898 4616 mt  898  414 L
gs 898 414 5364 4203 rc
gr

/c8 { 0.000000 0.000000 1.000000 sr} bdef
c8
5284  429 mt 5356  429 L
5320  393 mt 5320  465 L
5738  739 mt 5810  739 L
5774  703 mt 5774  775 L
1082  733 mt 1154  733 L
1118  697 mt 1118  769 L
1527 2347 mt 1599 2347 L
1563 2311 mt 1563 2383 L
6021  482 mt 6093  482 L
6057  446 mt 6057  518 L
2122  491 mt 2194  491 L
2158  455 mt 2158  527 L
1044 4196 mt 1116 4196 L
1080 4160 mt 1080 4232 L
1637 1144 mt 1709 1144 L
1673 1108 mt 1673 1180 L
4249 1143 mt 4321 1143 L
4285 1107 mt 4285 1179 L
3369  441 mt 3441  441 L
3405  405 mt 3405  477 L
 885 1779 mt  957 1779 L
 921 1743 mt  921 1815 L
4471 1087 mt 4543 1087 L
4507 1051 mt 4507 1123 L
5900 2545 mt 5972 2545 L
5936 2509 mt 5936 2581 L
4149  491 mt 4221  491 L
4185  455 mt 4185  527 L
6169 3384 mt 6241 3384 L
6205 3348 mt 6205 3420 L
3297 2936 mt 3369 2936 L
3333 2900 mt 3333 2972 L
2574  625 mt 2646  625 L
2610  589 mt 2610  661 L
3279 4613 mt 3351 4613 L
3315 4577 mt 3315 4649 L
2258 1745 mt 2330 1745 L
2294 1709 mt 2294 1781 L
5429 1570 mt 5501 1570 L
5465 1534 mt 5465 1606 L
 875 1291 mt  947 1291 L
 911 1255 mt  911 1327 L
3653 1351 mt 3725 1351 L
3689 1315 mt 3689 1387 L
1240  785 mt 1312  785 L
1276  749 mt 1276  821 L
3117 2731 mt 3189 2731 L
3153 2695 mt 3153 2767 L
4624 4226 mt 4696 4226 L
4660 4190 mt 4660 4262 L
 870 1410 mt  942 1410 L
 906 1374 mt  906 1446 L
1574 1610 mt 1646 1610 L
1610 1574 mt 1610 1646 L
5032 1792 mt 5104 1792 L
5068 1756 mt 5068 1828 L
3188  563 mt 3260  563 L
3224  527 mt 3224  599 L
3711  958 mt 3783  958 L
3747  922 mt 3747  994 L
 998 1892 mt 1070 1892 L
1034 1856 mt 1034 1928 L
 869  803 mt  941  803 L
 905  767 mt  905  839 L
 897 1537 mt  969 1537 L
 933 1501 mt  933 1573 L
3765 4163 mt 3837 4163 L
3801 4127 mt 3801 4199 L
5726  738 mt 5798  738 L
5762  702 mt 5762  774 L
3018  494 mt 3090  494 L
3054  458 mt 3054  530 L
2219  724 mt 2291  724 L
2255  688 mt 2255  760 L
1185 4556 mt 1257 4556 L
1221 4520 mt 1221 4592 L
1250 1037 mt 1322 1037 L
1286 1001 mt 1286 1073 L
2414  776 mt 2486  776 L
2450  740 mt 2450  812 L
5100 1035 mt 5172 1035 L
5136  999 mt 5136 1071 L
6026  538 mt 6098  538 L
6062  502 mt 6062  574 L
3128 1244 mt 3200 1244 L
3164 1208 mt 3164 1280 L
1907 1453 mt 1979 1453 L
1943 1417 mt 1943 1489 L
6179 4295 mt 6251 4295 L
6215 4259 mt 6215 4331 L
 885 4404 mt  957 4404 L
 921 4368 mt  921 4440 L
3749 1618 mt 3821 1618 L
3785 1582 mt 3785 1654 L
1985 1782 mt 2057 1782 L
2021 1746 mt 2021 1818 L
1745 3036 mt 1817 3036 L
1781 3000 mt 1781 3072 L
4371 4489 mt 4443 4489 L
4407 4453 mt 4407 4525 L
6177 2519 mt 6249 2519 L
6213 2483 mt 6213 2555 L
5119  475 mt 5191  475 L
5155  439 mt 5155  511 L
4823 2761 mt 4895 2761 L
4859 2725 mt 4859 2797 L
5439  777 mt 5511  777 L
5475  741 mt 5475  813 L
4689 1672 mt 4761 1672 L
4725 1636 mt 4725 1708 L
2949 1778 mt 3021 1778 L
2985 1742 mt 2985 1814 L
3652 4135 mt 3724 4135 L
3688 4099 mt 3688 4171 L
6165  700 mt 6237  700 L
6201  664 mt 6201  736 L
 939 2195 mt 1011 2195 L
 975 2159 mt  975 2231 L
2103 1677 mt 2175 1677 L
2139 1641 mt 2139 1713 L
5413 4032 mt 5485 4032 L
5449 3996 mt 5449 4068 L
 863 4348 mt  935 4348 L
 899 4312 mt  899 4384 L
2464  722 mt 2536  722 L
2500  686 mt 2500  758 L
6177 1793 mt 6249 1793 L
6213 1757 mt 6213 1829 L
4215  417 mt 4287  417 L
4251  381 mt 4251  453 L
6166 3606 mt 6238 3606 L
6202 3570 mt 6202 3642 L
6138 1864 mt 6210 1864 L
6174 1828 mt 6174 1900 L
2452 3180 mt 2524 3180 L
2488 3144 mt 2488 3216 L
1350  809 mt 1422  809 L
1386  773 mt 1386  845 L
5339  810 mt 5411  810 L
5375  774 mt 5375  846 L
1523  958 mt 1595  958 L
1559  922 mt 1559  994 L
5749  665 mt 5821  665 L
5785  629 mt 5785  701 L
4434 3444 mt 4506 3444 L
4470 3408 mt 4470 3480 L
3611  421 mt 3683  421 L
3647  385 mt 3647  457 L
1268  647 mt 1340  647 L
1304  611 mt 1304  683 L
5950 2699 mt 6022 2699 L
5986 2663 mt 5986 2735 L
5966 1019 mt 6038 1019 L
6002  983 mt 6002 1055 L
 879 1161 mt  951 1161 L
 915 1125 mt  915 1197 L
1005  590 mt 1077  590 L
1041  554 mt 1041  626 L
1030 1639 mt 1102 1639 L
1066 1603 mt 1066 1675 L
5583  451 mt 5655  451 L
5619  415 mt 5619  487 L
2246 1381 mt 2318 1381 L
2282 1345 mt 2282 1417 L
5296 2457 mt 5368 2457 L
5332 2421 mt 5332 2493 L
5056 1091 mt 5128 1091 L
5092 1055 mt 5092 1127 L
4707 3524 mt 4779 3524 L
4743 3488 mt 4743 3560 L
1843 3804 mt 1915 3804 L
1879 3768 mt 1879 3840 L
5841  482 mt 5913  482 L
5877  446 mt 5877  518 L
3157 4563 mt 3229 4563 L
3193 4527 mt 3193 4599 L
5383 1250 mt 5455 1250 L
5419 1214 mt 5419 1286 L
6179  415 mt 6251  415 L
6215  379 mt 6215  451 L
2055 2457 mt 2127 2457 L
2091 2421 mt 2091 2493 L
6199 3466 mt 6271 3466 L
6235 3430 mt 6235 3502 L
1540  657 mt 1612  657 L
1576  621 mt 1576  693 L
4291 2121 mt 4363 2121 L
4327 2085 mt 4327 2157 L
3158 3978 mt 3230 3978 L
3194 3942 mt 3194 4014 L
1728 4109 mt 1800 4109 L
1764 4073 mt 1764 4145 L
5640 2495 mt 5712 2495 L
5676 2459 mt 5676 2531 L
6082  502 mt 6154  502 L
6118  466 mt 6118  538 L
2747 4597 mt 2819 4597 L
2783 4561 mt 2783 4633 L
5778 2241 mt 5850 2241 L
5814 2205 mt 5814 2277 L
6225  748 mt 6297  748 L
6261  712 mt 6261  784 L
2078 1971 mt 2150 1971 L
2114 1935 mt 2114 2007 L
2683 3957 mt 2755 3957 L
2719 3921 mt 2719 3993 L
5778 3588 mt 5850 3588 L
5814 3552 mt 5814 3624 L
1274 4044 mt 1346 4044 L
1310 4008 mt 1310 4080 L
1518 1029 mt 1590 1029 L
1554  993 mt 1554 1065 L
3937 3080 mt 4009 3080 L
3973 3044 mt 3973 3116 L
1235 1977 mt 1307 1977 L
1271 1941 mt 1271 2013 L
1559 1572 mt 1631 1572 L
1595 1536 mt 1595 1608 L
1447 1024 mt 1519 1024 L
1483  988 mt 1483 1060 L
4637 1384 mt 4709 1384 L
4673 1348 mt 4673 1420 L
1183 2775 mt 1255 2775 L
1219 2739 mt 1219 2811 L
4144 3076 mt 4216 3076 L
4180 3040 mt 4180 3112 L
6147 4615 mt 6219 4615 L
6183 4579 mt 6183 4651 L
1842 2556 mt 1914 2556 L
1878 2520 mt 1878 2592 L
1471 2035 mt 1543 2035 L
1507 1999 mt 1507 2071 L
5218  555 mt 5290  555 L
5254  519 mt 5254  591 L
5881 4517 mt 5953 4517 L
5917 4481 mt 5917 4553 L
 863 4059 mt  935 4059 L
 899 4023 mt  899 4095 L
2788 4609 mt 2860 4609 L
2824 4573 mt 2824 4645 L
5003 1439 mt 5075 1439 L
5039 1403 mt 5039 1475 L
3118  588 mt 3190  588 L
3154  552 mt 3154  624 L
3919 1424 mt 3991 1424 L
3955 1388 mt 3955 1460 L
2423 3935 mt 2495 3935 L
2459 3899 mt 2459 3971 L
5072  618 mt 5144  618 L
5108  582 mt 5108  654 L
6212  514 mt 6284  514 L
6248  478 mt 6248  550 L
5287 4582 mt 5359 4582 L
5323 4546 mt 5323 4618 L
4381 2482 mt 4453 2482 L
4417 2446 mt 4417 2518 L
1424  590 mt 1496  590 L
1460  554 mt 1460  626 L
1000 3790 mt 1072 3790 L
1036 3754 mt 1036 3826 L
5907 3690 mt 5979 3690 L
5943 3654 mt 5943 3726 L
4985 2795 mt 5057 2795 L
5021 2759 mt 5021 2831 L
1851 1933 mt 1923 1933 L
1887 1897 mt 1887 1969 L
4266 1804 mt 4338 1804 L
4302 1768 mt 4302 1840 L
1028 2363 mt 1100 2363 L
1064 2327 mt 1064 2399 L
5247 3405 mt 5319 3405 L
5283 3369 mt 5283 3441 L
 875 2161 mt  947 2161 L
 911 2125 mt  911 2197 L
3467  651 mt 3539  651 L
3503  615 mt 3503  687 L
4283 3036 mt 4355 3036 L
4319 3000 mt 4319 3072 L
5608 3955 mt 5680 3955 L
5644 3919 mt 5644 3991 L
2649 3581 mt 2721 3581 L
2685 3545 mt 2685 3617 L
6014 1273 mt 6086 1273 L
6050 1237 mt 6050 1309 L
 987 3824 mt 1059 3824 L
1023 3788 mt 1023 3860 L
2865 2548 mt 2937 2548 L
2901 2512 mt 2901 2584 L
6056  535 mt 6128  535 L
6092  499 mt 6092  571 L
3354 1576 mt 3426 1576 L
3390 1540 mt 3390 1612 L
2578 1395 mt 2650 1395 L
2614 1359 mt 2614 1431 L
5676  445 mt 5748  445 L
5712  409 mt 5712  481 L
2520 4579 mt 2592 4579 L
2556 4543 mt 2556 4615 L
2950  659 mt 3022  659 L
2986  623 mt 2986  695 L
1037 1692 mt 1109 1692 L
1073 1656 mt 1073 1728 L
2147 4390 mt 2219 4390 L
2183 4354 mt 2183 4426 L
1916 2609 mt 1988 2609 L
1952 2573 mt 1952 2645 L
1002 1232 mt 1074 1232 L
1038 1196 mt 1038 1268 L
1737 2577 mt 1809 2577 L
1773 2541 mt 1773 2613 L
1748 4312 mt 1820 4312 L
1784 4276 mt 1784 4348 L
 865  524 mt  937  524 L
 901  488 mt  901  560 L
1022 3403 mt 1094 3403 L
1058 3367 mt 1058 3439 L
 887  617 mt  959  617 L
 923  581 mt  923  653 L
5415 4224 mt 5487 4224 L
5451 4188 mt 5451 4260 L
3079 3100 mt 3151 3100 L
3115 3064 mt 3115 3136 L
3044 4568 mt 3116 4568 L
3080 4532 mt 3080 4604 L
1801 1746 mt 1873 1746 L
1837 1710 mt 1837 1782 L
5735 1345 mt 5807 1345 L
5771 1309 mt 5771 1381 L
1290 2691 mt 1362 2691 L
1326 2655 mt 1326 2727 L
 862 3474 mt  934 3474 L
 898 3438 mt  898 3510 L
 917 2315 mt  989 2315 L
 953 2279 mt  953 2351 L
4731 4616 mt 4803 4616 L
4767 4580 mt 4767 4652 L
1104 2454 mt 1176 2454 L
1140 2418 mt 1140 2490 L
6109 1314 mt 6181 1314 L
6145 1278 mt 6145 1350 L
1408 1048 mt 1480 1048 L
1444 1012 mt 1444 1084 L
5577  674 mt 5649  674 L
5613  638 mt 5613  710 L
 871 4069 mt  943 4069 L
 907 4033 mt  907 4105 L
4077 1348 mt 4149 1348 L
4113 1312 mt 4113 1384 L
2600 4091 mt 2672 4091 L
2636 4055 mt 2636 4127 L
5478  865 mt 5550  865 L
5514  829 mt 5514  901 L
3276 1603 mt 3348 1603 L
3312 1567 mt 3312 1639 L
6219 3254 mt 6291 3254 L
6255 3218 mt 6255 3290 L
5689  924 mt 5761  924 L
5725  888 mt 5725  960 L
1061  645 mt 1133  645 L
1097  609 mt 1097  681 L
1164 3490 mt 1236 3490 L
1200 3454 mt 1200 3526 L
4659 3663 mt 4731 3663 L
4695 3627 mt 4695 3699 L
3272  509 mt 3344  509 L
3308  473 mt 3308  545 L
6035  843 mt 6107  843 L
6071  807 mt 6071  879 L
4749 4322 mt 4821 4322 L
4785 4286 mt 4785 4358 L
1265  616 mt 1337  616 L
1301  580 mt 1301  652 L
6065 1435 mt 6137 1435 L
6101 1399 mt 6101 1471 L
4684  551 mt 4756  551 L
4720  515 mt 4720  587 L
5474 4579 mt 5546 4579 L
5510 4543 mt 5510 4615 L
1721  451 mt 1793  451 L
1757  415 mt 1757  487 L
 943  473 mt 1015  473 L
 979  437 mt  979  509 L
4239 2685 mt 4311 2685 L
4275 2649 mt 4275 2721 L
6089 1253 mt 6161 1253 L
6125 1217 mt 6125 1289 L
5522  724 mt 5594  724 L
5558  688 mt 5558  760 L
4894  486 mt 4966  486 L
4930  450 mt 4930  522 L
3172  668 mt 3244  668 L
3208  632 mt 3208  704 L
1490 3777 mt 1562 3777 L
1526 3741 mt 1526 3813 L
5291 1613 mt 5363 1613 L
5327 1577 mt 5327 1649 L
2083 4329 mt 2155 4329 L
2119 4293 mt 2119 4365 L
4361  949 mt 4433  949 L
4397  913 mt 4397  985 L
6178  418 mt 6250  418 L
6214  382 mt 6214  454 L
6102  543 mt 6174  543 L
6138  507 mt 6138  579 L
5973  879 mt 6045  879 L
6009  843 mt 6009  915 L
 877 4024 mt  949 4024 L
 913 3988 mt  913 4060 L
1043  743 mt 1115  743 L
1079  707 mt 1079  779 L
5577 1755 mt 5649 1755 L
5613 1719 mt 5613 1791 L
3584 3760 mt 3656 3760 L
3620 3724 mt 3620 3796 L
3648  741 mt 3720  741 L
3684  705 mt 3684  777 L
6072  671 mt 6144  671 L
6108  635 mt 6108  707 L
1385 4252 mt 1457 4252 L
1421 4216 mt 1421 4288 L
 937  422 mt 1009  422 L
 973  386 mt  973  458 L
6188 1176 mt 6260 1176 L
6224 1140 mt 6224 1212 L
5627  661 mt 5699  661 L
5663  625 mt 5663  697 L
3159 3652 mt 3231 3652 L
3195 3616 mt 3195 3688 L
6100 1468 mt 6172 1468 L
6136 1432 mt 6136 1504 L
6067  649 mt 6139  649 L
6103  613 mt 6103  685 L
5962  600 mt 6034  600 L
5998  564 mt 5998  636 L
3228 1201 mt 3300 1201 L
3264 1165 mt 3264 1237 L
1356 1668 mt 1428 1668 L
1392 1632 mt 1392 1704 L
4659 2096 mt 4731 2096 L
4695 2060 mt 4695 2132 L
1951 3229 mt 2023 3229 L
1987 3193 mt 1987 3265 L
1975 3622 mt 2047 3622 L
2011 3586 mt 2011 3658 L
5903 2713 mt 5975 2713 L
5939 2677 mt 5939 2749 L
 916 4549 mt  988 4549 L
 952 4513 mt  952 4585 L
5784 2132 mt 5856 2132 L
5820 2096 mt 5820 2168 L
1324 1453 mt 1396 1453 L
1360 1417 mt 1360 1489 L
 870 4004 mt  942 4004 L
 906 3968 mt  906 4040 L
4942 2252 mt 5014 2252 L
4978 2216 mt 4978 2288 L
1361  423 mt 1433  423 L
1397  387 mt 1397  459 L
 916  436 mt  988  436 L
 952  400 mt  952  472 L
5018 4615 mt 5090 4615 L
5054 4579 mt 5054 4651 L
3157 4459 mt 3229 4459 L
3193 4423 mt 3193 4495 L
1200 4610 mt 1272 4610 L
1236 4574 mt 1236 4646 L
1750  914 mt 1822  914 L
1786  878 mt 1786  950 L
 931  445 mt 1003  445 L
 967  409 mt  967  481 L
5901 4612 mt 5973 4612 L
5937 4576 mt 5937 4648 L
6138 3887 mt 6210 3887 L
6174 3851 mt 6174 3923 L
5100  905 mt 5172  905 L
5136  869 mt 5136  941 L
 898 2060 mt  970 2060 L
 934 2024 mt  934 2096 L
6199 1135 mt 6271 1135 L
6235 1099 mt 6235 1171 L
6206 2873 mt 6278 2873 L
6242 2837 mt 6242 2909 L
6147 2491 mt 6219 2491 L
6183 2455 mt 6183 2527 L
6216  748 mt 6288  748 L
6252  712 mt 6252  784 L
6211 2120 mt 6283 2120 L
6247 2084 mt 6247 2156 L
6198  946 mt 6270  946 L
6234  910 mt 6234  982 L
6195 2838 mt 6267 2838 L
6231 2802 mt 6231 2874 L
3552 1000 mt 3624 1000 L
3588  964 mt 3588 1036 L
1845  653 mt 1917  653 L
1881  617 mt 1881  689 L
5930 1187 mt 6002 1187 L
5966 1151 mt 5966 1223 L
1237 2688 mt 1309 2688 L
1273 2652 mt 1273 2724 L
6126 3493 mt 6198 3493 L
6162 3457 mt 6162 3529 L
3002  522 mt 3074  522 L
3038  486 mt 3038  558 L
2827  418 mt 2899  418 L
2863  382 mt 2863  454 L
6200 4613 mt 6272 4613 L
6236 4577 mt 6236 4649 L
2771 2156 mt 2843 2156 L
2807 2120 mt 2807 2192 L
5403 4434 mt 5475 4434 L
5439 4398 mt 5439 4470 L
6075  955 mt 6147  955 L
6111  919 mt 6111  991 L
2268 1950 mt 2340 1950 L
2304 1914 mt 2304 1986 L
5935  442 mt 6007  442 L
5971  406 mt 5971  478 L
2828  751 mt 2900  751 L
2864  715 mt 2864  787 L
6207 4074 mt 6279 4074 L
6243 4038 mt 6243 4110 L
6152 4107 mt 6224 4107 L
6188 4071 mt 6188 4143 L
5390 4587 mt 5462 4587 L
5426 4551 mt 5426 4623 L
6106 4537 mt 6178 4537 L
6142 4501 mt 6142 4573 L
5087  608 mt 5159  608 L
5123  572 mt 5123  644 L
2049 1623 mt 2121 1623 L
2085 1587 mt 2085 1659 L
6166 3882 mt 6238 3882 L
6202 3846 mt 6202 3918 L
3550  416 mt 3622  416 L
3586  380 mt 3586  452 L
2445 1129 mt 2517 1129 L
2481 1093 mt 2481 1165 L
5261 1336 mt 5333 1336 L
5297 1300 mt 5297 1372 L
6220 2299 mt 6292 2299 L
6256 2263 mt 6256 2335 L
5856  464 mt 5928  464 L
5892  428 mt 5892  500 L
6180 3707 mt 6252 3707 L
6216 3671 mt 6216 3743 L
2409 3507 mt 2481 3507 L
2445 3471 mt 2445 3543 L
4273  496 mt 4345  496 L
4309  460 mt 4309  532 L
1689  455 mt 1761  455 L
1725  419 mt 1725  491 L
6170  548 mt 6242  548 L
6206  512 mt 6206  584 L
6151 3035 mt 6223 3035 L
6187 2999 mt 6187 3071 L
1616 1372 mt 1688 1372 L
1652 1336 mt 1652 1408 L
6164  678 mt 6236  678 L
6200  642 mt 6200  714 L
5324 2199 mt 5396 2199 L
5360 2163 mt 5360 2235 L
5024  451 mt 5096  451 L
5060  415 mt 5060  487 L
6181 3892 mt 6253 3892 L
6217 3856 mt 6217 3928 L
4977 2268 mt 5049 2268 L
5013 2232 mt 5013 2304 L
5278 4358 mt 5350 4358 L
5314 4322 mt 5314 4394 L
1194  418 mt 1266  418 L
1230  382 mt 1230  454 L
6053 1875 mt 6125 1875 L
6089 1839 mt 6089 1911 L
4526 4604 mt 4598 4604 L
4562 4568 mt 4562 4640 L
2136 2168 mt 2208 2168 L
2172 2132 mt 2172 2204 L
5994  414 mt 6066  414 L
6030  378 mt 6030  450 L
6144 4542 mt 6216 4542 L
6180 4506 mt 6180 4578 L
5565 3933 mt 5637 3933 L
5601 3897 mt 5601 3969 L
1666  937 mt 1738  937 L
1702  901 mt 1702  973 L
2545 4300 mt 2617 4300 L
2581 4264 mt 2581 4336 L
3253 4226 mt 3325 4226 L
3289 4190 mt 3289 4262 L
1965 3662 mt 2037 3662 L
2001 3626 mt 2001 3698 L
4390 2922 mt 4462 2922 L
4426 2886 mt 4426 2958 L
1458  859 mt 1530  859 L
1494  823 mt 1494  895 L
2177  563 mt 2249  563 L
2213  527 mt 2213  599 L
6157 2981 mt 6229 2981 L
6193 2945 mt 6193 3017 L
5432 1377 mt 5504 1377 L
5468 1341 mt 5468 1413 L
5741  459 mt 5813  459 L
5777  423 mt 5777  495 L
3036 2027 mt 3108 2027 L
3072 1991 mt 3072 2063 L
6066 3953 mt 6138 3953 L
6102 3917 mt 6102 3989 L
1739 1628 mt 1811 1628 L
1775 1592 mt 1775 1664 L
6220 3470 mt 6292 3470 L
6256 3434 mt 6256 3506 L
6224 4099 mt 6296 4099 L
6260 4063 mt 6260 4135 L
5873 3894 mt 5945 3894 L
5909 3858 mt 5909 3930 L
5872 3292 mt 5944 3292 L
5908 3256 mt 5908 3328 L
1304 4551 mt 1376 4551 L
1340 4515 mt 1340 4587 L
4947 1143 mt 5019 1143 L
4983 1107 mt 4983 1179 L
2732 3965 mt 2804 3965 L
2768 3929 mt 2768 4001 L
1322 3588 mt 1394 3588 L
1358 3552 mt 1358 3624 L
2101  953 mt 2173  953 L
2137  917 mt 2137  989 L
2554 1138 mt 2626 1138 L
2590 1102 mt 2590 1174 L
1058 4608 mt 1130 4608 L
1094 4572 mt 1094 4644 L
6202  899 mt 6274  899 L
6238  863 mt 6238  935 L
5944 3405 mt 6016 3405 L
5980 3369 mt 5980 3441 L
2612 4558 mt 2684 4558 L
2648 4522 mt 2648 4594 L
6074  900 mt 6146  900 L
6110  864 mt 6110  936 L
6200  850 mt 6272  850 L
6236  814 mt 6236  886 L
4152 4612 mt 4224 4612 L
4188 4576 mt 4188 4648 L
2000 4234 mt 2072 4234 L
2036 4198 mt 2036 4270 L
1646  456 mt 1718  456 L
1682  420 mt 1682  492 L
4873 2280 mt 4945 2280 L
4909 2244 mt 4909 2316 L
3520  629 mt 3592  629 L
3556  593 mt 3556  665 L
5984 2725 mt 6056 2725 L
6020 2689 mt 6020 2761 L
6159 4584 mt 6231 4584 L
6195 4548 mt 6195 4620 L
6202 4591 mt 6274 4591 L
6238 4555 mt 6238 4627 L
1403 3495 mt 1475 3495 L
1439 3459 mt 1439 3531 L
5694  791 mt 5766  791 L
5730  755 mt 5730  827 L
2722 2942 mt 2794 2942 L
2758 2906 mt 2758 2978 L
6154  471 mt 6226  471 L
6190  435 mt 6190  507 L
3281 2642 mt 3353 2642 L
3317 2606 mt 3317 2678 L
2432 4512 mt 2504 4512 L
2468 4476 mt 2468 4548 L
2829 4591 mt 2901 4591 L
2865 4555 mt 2865 4627 L
3834 4382 mt 3906 4382 L
3870 4346 mt 3870 4418 L
5920  674 mt 5992  674 L
5956  638 mt 5956  710 L
3522 3321 mt 3594 3321 L
3558 3285 mt 3558 3357 L
4639  821 mt 4711  821 L
4675  785 mt 4675  857 L
5257 3097 mt 5329 3097 L
5293 3061 mt 5293 3133 L
6224 2094 mt 6296 2094 L
6260 2058 mt 6260 2130 L
3998  432 mt 4070  432 L
4034  396 mt 4034  468 L
 906 4435 mt  978 4435 L
 942 4399 mt  942 4471 L
4811 1670 mt 4883 1670 L
4847 1634 mt 4847 1706 L
3910 2851 mt 3982 2851 L
3946 2815 mt 3946 2887 L
4726  615 mt 4798  615 L
4762  579 mt 4762  651 L
4349  433 mt 4421  433 L
4385  397 mt 4385  469 L
3702 4525 mt 3774 4525 L
3738 4489 mt 3738 4561 L
2949 3832 mt 3021 3832 L
2985 3796 mt 2985 3868 L
 865  958 mt  937  958 L
 901  922 mt  901  994 L
2044 3877 mt 2116 3877 L
2080 3841 mt 2080 3913 L
4043 1496 mt 4115 1496 L
4079 1460 mt 4079 1532 L
3799  685 mt 3871  685 L
3835  649 mt 3835  721 L
2909  414 mt 2981  414 L
2945  378 mt 2945  450 L
5054 3590 mt 5126 3590 L
5090 3554 mt 5090 3626 L
1012 4479 mt 1084 4479 L
1048 4443 mt 1048 4515 L
2388 3094 mt 2460 3094 L
2424 3058 mt 2424 3130 L
1218 4226 mt 1290 4226 L
1254 4190 mt 1254 4262 L
1677 4529 mt 1749 4529 L
1713 4493 mt 1713 4565 L
5637  614 mt 5709  614 L
5673  578 mt 5673  650 L
1255 2091 mt 1327 2091 L
1291 2055 mt 1291 2127 L
5056 1313 mt 5128 1313 L
5092 1277 mt 5092 1349 L
6099  511 mt 6171  511 L
6135  475 mt 6135  547 L
1019 4215 mt 1091 4215 L
1055 4179 mt 1055 4251 L
2210 4431 mt 2282 4431 L
2246 4395 mt 2246 4467 L
5786 2165 mt 5858 2165 L
5822 2129 mt 5822 2201 L
3548 3346 mt 3620 3346 L
3584 3310 mt 3584 3382 L
6145  425 mt 6217  425 L
6181  389 mt 6181  461 L
6127  674 mt 6199  674 L
6163  638 mt 6163  710 L
4049 4108 mt 4121 4108 L
4085 4072 mt 4085 4144 L
6091 1769 mt 6163 1769 L
6127 1733 mt 6127 1805 L
6206 2951 mt 6278 2951 L
6242 2915 mt 6242 2987 L
2206  469 mt 2278  469 L
2242  433 mt 2242  505 L
6150 1547 mt 6222 1547 L
6186 1511 mt 6186 1583 L
 875  469 mt  947  469 L
 911  433 mt  911  505 L
 917 3559 mt  989 3559 L
 953 3523 mt  953 3595 L
2110 2352 mt 2182 2352 L
2146 2316 mt 2146 2388 L
2943 2846 mt 3015 2846 L
2979 2810 mt 2979 2882 L
 870 2393 mt  942 2393 L
 906 2357 mt  906 2429 L
2568 2522 mt 2640 2522 L
2604 2486 mt 2604 2558 L
 986 1810 mt 1058 1810 L
1022 1774 mt 1022 1846 L
6218 1641 mt 6290 1641 L
6254 1605 mt 6254 1677 L
5919 2194 mt 5991 2194 L
5955 2158 mt 5955 2230 L
 863 2220 mt  935 2220 L
 899 2184 mt  899 2256 L
6216 3999 mt 6288 3999 L
6252 3963 mt 6252 4035 L
4283 3925 mt 4355 3925 L
4319 3889 mt 4319 3961 L
5138 4394 mt 5210 4394 L
5174 4358 mt 5174 4430 L
2470 3142 mt 2542 3142 L
2506 3106 mt 2506 3178 L
4115  544 mt 4187  544 L
4151  508 mt 4151  580 L
1133 1710 mt 1205 1710 L
1169 1674 mt 1169 1746 L
3490 4606 mt 3562 4606 L
3526 4570 mt 3526 4642 L
5990 2675 mt 6062 2675 L
6026 2639 mt 6026 2711 L
5382  416 mt 5454  416 L
5418  380 mt 5418  452 L
6216 3628 mt 6288 3628 L
6252 3592 mt 6252 3664 L
4114  415 mt 4186  415 L
4150  379 mt 4150  451 L
3941 2362 mt 4013 2362 L
3977 2326 mt 3977 2398 L
4755  510 mt 4827  510 L
4791  474 mt 4791  546 L
1565 3085 mt 1637 3085 L
1601 3049 mt 1601 3121 L
6141  546 mt 6213  546 L
6177  510 mt 6177  582 L
gs 898 414 5364 4203 rc
gr

0 sg
2798 5104 mt 
(\(F,DCTs,iMLP\)) s
 422 3259 mt  -90 rotate
(\(S,PAC,GMM\)) s
90 rotate
2975  223 mt 
(Corr = 0.04) s

end %%Color Dict

eplot
%%EndObject

epage
end

showpage

%%Trailer
%%EOF
