%!PS-Adobe-3.0 EPSF-3.0
%%Creator: MATLAB, The Mathworks, Inc.
%%Title: Pictures\main_arun_global_transform_us_skew.eps
%%CreationDate: 01/26/2009  17:38:19
%%DocumentNeededFonts: Helvetica
%%DocumentProcessColors: Cyan Magenta Yellow Black
%%LanguageLevel: 2
%%Pages: 1
%%BoundingBox:    49   201   543   591
%%EndComments

%%BeginProlog
% MathWorks dictionary
/MathWorks 160 dict begin
% definition operators
/bdef {bind def} bind def
/ldef {load def} bind def
/xdef {exch def} bdef
/xstore {exch store} bdef
% operator abbreviations
/c  /clip ldef
/cc /concat ldef
/cp /closepath ldef
/gr /grestore ldef
/gs /gsave ldef
/mt /moveto ldef
/np /newpath ldef
/cm /currentmatrix ldef
/sm /setmatrix ldef
/rm /rmoveto ldef
/rl /rlineto ldef
/s {show newpath} bdef
/sc {setcmykcolor} bdef
/sr /setrgbcolor ldef
/sg /setgray ldef
/w /setlinewidth ldef
/j /setlinejoin ldef
/cap /setlinecap ldef
/rc {rectclip} bdef
/rf {rectfill} bdef
% page state control
/pgsv () def
/bpage {/pgsv save def} bdef
/epage {pgsv restore} bdef
/bplot /gsave ldef
/eplot {stroke grestore} bdef
% orientation switch
/portraitMode 0 def /landscapeMode 1 def /rotateMode 2 def
% coordinate system mappings
/dpi2point 0 def
% font control
/FontSize 0 def
/FMS {/FontSize xstore findfont [FontSize 0 0 FontSize neg 0 0]
  makefont setfont} bdef
/ISOLatin1Encoding where {pop /WindowsLatin1Encoding 256 array bdef
ISOLatin1Encoding WindowsLatin1Encoding copy pop
/.notdef/.notdef/quotesinglbase/florin/quotedblbase/ellipsis/dagger
/daggerdbl/circumflex/perthousand/Scaron/guilsinglleft/OE/.notdef/.notdef
/.notdef/.notdef/quoteleft/quoteright/quotedblleft/quotedblright/bullet
/endash/emdash/tilde/trademark/scaron/guilsinglright/oe/.notdef/.notdef
/Ydieresis WindowsLatin1Encoding 128 32 getinterval astore pop}
{/WindowsLatin1Encoding StandardEncoding bdef} ifelse
/reencode {exch dup where {pop load} {pop StandardEncoding} ifelse
  exch dup 3 1 roll findfont dup length dict begin
  { 1 index /FID ne {def}{pop pop} ifelse } forall
  /Encoding exch def currentdict end definefont pop} bdef
/isroman {findfont /CharStrings get /Agrave known} bdef
/FMSR {3 1 roll 1 index dup isroman {reencode} {pop pop} ifelse
  exch FMS} bdef
/csm {1 dpi2point div -1 dpi2point div scale neg translate
 dup landscapeMode eq {pop -90 rotate}
  {rotateMode eq {90 rotate} if} ifelse} bdef
% line types: solid, dotted, dashed, dotdash
/SO { [] 0 setdash } bdef
/DO { [.5 dpi2point mul 4 dpi2point mul] 0 setdash } bdef
/DA { [6 dpi2point mul] 0 setdash } bdef
/DD { [.5 dpi2point mul 4 dpi2point mul 6 dpi2point mul 4
  dpi2point mul] 0 setdash } bdef
% macros for lines and objects
/L {lineto stroke} bdef
/MP {3 1 roll moveto 1 sub {rlineto} repeat} bdef
/AP {{rlineto} repeat} bdef
/PDlw -1 def
/W {/PDlw currentlinewidth def setlinewidth} def
/PP {closepath eofill} bdef
/DP {closepath stroke} bdef
/MR {4 -2 roll moveto dup  0 exch rlineto exch 0 rlineto
  neg 0 exch rlineto closepath} bdef
/FR {MR stroke} bdef
/PR {MR fill} bdef
/L1i {{currentfile picstr readhexstring pop} image} bdef
/tMatrix matrix def
/MakeOval {newpath tMatrix currentmatrix pop translate scale
0 0 1 0 360 arc tMatrix setmatrix} bdef
/FO {MakeOval stroke} bdef
/PO {MakeOval fill} bdef
/PD {currentlinewidth 2 div 0 360 arc fill
   PDlw -1 eq not {PDlw w /PDlw -1 def} if} def
/FA {newpath tMatrix currentmatrix pop translate scale
  0 0 1 5 -2 roll arc tMatrix setmatrix stroke} bdef
/PA {newpath tMatrix currentmatrix pop	translate 0 0 moveto scale
  0 0 1 5 -2 roll arc closepath tMatrix setmatrix fill} bdef
/FAn {newpath tMatrix currentmatrix pop translate scale
  0 0 1 5 -2 roll arcn tMatrix setmatrix stroke} bdef
/PAn {newpath tMatrix currentmatrix pop translate 0 0 moveto scale
  0 0 1 5 -2 roll arcn closepath tMatrix setmatrix fill} bdef
/vradius 0 def /hradius 0 def /lry 0 def
/lrx 0 def /uly 0 def /ulx 0 def /rad 0 def
/MRR {/vradius xdef /hradius xdef /lry xdef /lrx xdef /uly xdef
  /ulx xdef newpath tMatrix currentmatrix pop ulx hradius add uly
  vradius add translate hradius vradius scale 0 0 1 180 270 arc 
  tMatrix setmatrix lrx hradius sub uly vradius add translate
  hradius vradius scale 0 0 1 270 360 arc tMatrix setmatrix
  lrx hradius sub lry vradius sub translate hradius vradius scale
  0 0 1 0 90 arc tMatrix setmatrix ulx hradius add lry vradius sub
  translate hradius vradius scale 0 0 1 90 180 arc tMatrix setmatrix
  closepath} bdef
/FRR {MRR stroke } bdef
/PRR {MRR fill } bdef
/MlrRR {/lry xdef /lrx xdef /uly xdef /ulx xdef /rad lry uly sub 2 div def
  newpath tMatrix currentmatrix pop ulx rad add uly rad add translate
  rad rad scale 0 0 1 90 270 arc tMatrix setmatrix lrx rad sub lry rad
  sub translate rad rad scale 0 0 1 270 90 arc tMatrix setmatrix
  closepath} bdef
/FlrRR {MlrRR stroke } bdef
/PlrRR {MlrRR fill } bdef
/MtbRR {/lry xdef /lrx xdef /uly xdef /ulx xdef /rad lrx ulx sub 2 div def
  newpath tMatrix currentmatrix pop ulx rad add uly rad add translate
  rad rad scale 0 0 1 180 360 arc tMatrix setmatrix lrx rad sub lry rad
  sub translate rad rad scale 0 0 1 0 180 arc tMatrix setmatrix
  closepath} bdef
/FtbRR {MtbRR stroke } bdef
/PtbRR {MtbRR fill } bdef
/stri 6 array def /dtri 6 array def
/smat 6 array def /dmat 6 array def
/tmat1 6 array def /tmat2 6 array def /dif 3 array def
/asub {/ind2 exch def /ind1 exch def dup dup
  ind1 get exch ind2 get sub exch } bdef
/tri_to_matrix {
  2 0 asub 3 1 asub 4 0 asub 5 1 asub
  dup 0 get exch 1 get 7 -1 roll astore } bdef
/compute_transform {
  dmat dtri tri_to_matrix tmat1 invertmatrix 
  smat stri tri_to_matrix tmat2 concatmatrix } bdef
/ds {stri astore pop} bdef
/dt {dtri astore pop} bdef
/db {2 copy /cols xdef /rows xdef mul dup 3 mul string
  currentfile 
  3 index 0 eq {/ASCIIHexDecode filter}
  {/ASCII85Decode filter 3 index 2 eq {/RunLengthDecode filter} if }
  ifelse exch readstring pop
  dup 0 3 index getinterval /rbmap xdef
  dup 2 index dup getinterval /gbmap xdef
  1 index dup 2 mul exch getinterval /bbmap xdef pop pop}bdef
/it {gs np dtri aload pop moveto lineto lineto cp c
  cols rows 8 compute_transform 
  rbmap gbmap bbmap true 3 colorimage gr}bdef
/il {newpath moveto lineto stroke}bdef
currentdict end def
%%EndProlog

%%BeginSetup
MathWorks begin

0 cap

end
%%EndSetup

%%Page: 1 1
%%BeginPageSetup
%%PageBoundingBox:    49   201   543   591
MathWorks begin
bpage
%%EndPageSetup

%%BeginObject: obj1
bplot

/dpi2point 12 def
portraitMode 0216 7344 csm

  374   246  5937  4682 rc
85 dict begin %Colortable dictionary
/c0 { 0.000000 0.000000 0.000000 sr} bdef
/c1 { 1.000000 1.000000 1.000000 sr} bdef
/c2 { 0.900000 0.000000 0.000000 sr} bdef
/c3 { 0.000000 0.820000 0.000000 sr} bdef
/c4 { 0.000000 0.000000 0.800000 sr} bdef
/c5 { 0.910000 0.820000 0.320000 sr} bdef
/c6 { 1.000000 0.260000 0.820000 sr} bdef
/c7 { 0.000000 0.820000 0.820000 sr} bdef
c0
1 j
1 sg
   0    0 6919 5187 rf
6 w
0 4227 5362 0 0 -4227 899 4616 4 MP
PP
-5362 0 0 4227 5362 0 0 -4227 899 4616 5 MP stroke
4 w
DO
SO
6 w
0 sg
 899  389 mt 6261  389 L
 899 4616 mt 6261 4616 L
6261 4616 mt 6261  389 L
 899 4616 mt  899  389 L
 899 4616 mt 6261 4616 L
 899 4616 mt  899  389 L
1569 4616 mt 1569 4562 L
1569  389 mt 1569  442 L
%%IncludeResource: font Helvetica
/Helvetica /WindowsLatin1Encoding 240 FMSR

1066 4873 mt 
(before [1]) s
2909 4616 mt 2909 4562 L
2909  389 mt 2909  442 L
2503 4873 mt 
(after [1]) s
4250 4616 mt 4250 4562 L
4250  389 mt 4250  442 L
3747 4873 mt 
(before [2]) s
5590 4616 mt 5590 4562 L
5590  389 mt 5590  442 L
5184 4873 mt 
(after [2]) s
 899 4243 mt  952 4243 L
6261 4243 mt 6207 4243 L
 731 4332 mt 
(0) s
 899 3766 mt  952 3766 L
6261 3766 mt 6207 3766 L
 731 3855 mt 
(1) s
 899 3289 mt  952 3289 L
6261 3289 mt 6207 3289 L
 731 3378 mt 
(2) s
 899 2812 mt  952 2812 L
6261 2812 mt 6207 2812 L
 731 2901 mt 
(3) s
 899 2335 mt  952 2335 L
6261 2335 mt 6207 2335 L
 731 2424 mt 
(4) s
 899 1859 mt  952 1859 L
6261 1859 mt 6207 1859 L
 731 1948 mt 
(5) s
 899 1382 mt  952 1382 L
6261 1382 mt 6207 1382 L
 731 1471 mt 
(6) s
 899  905 mt  952  905 L
6261  905 mt 6207  905 L
 731  994 mt 
(7) s
 899  428 mt  952  428 L
6261  428 mt 6207  428 L
 731  517 mt 
(8) s
 899  389 mt 6261  389 L
 899 4616 mt 6261 4616 L
6261 4616 mt 6261  389 L
 899 4616 mt  899  389 L
 622 3762 mt  -90 rotate
(user-specific skewness) s
90 rotate
gs 899 389 5363 4228 rc
DA
0 -800 1569 1923 2 MP stroke
0 -639 1569 3192 2 MP stroke
SO
335 0 1401 1123 2 MP stroke
335 0 1401 3192 2 MP stroke
/c8 { 0.000000 0.000000 1.000000 sr} bdef
c8
0 -630 -670 0 0 630 670 0 1234 1923 5 MP stroke
/c9 { 1.000000 0.000000 0.000000 sr} bdef
c9
670 0 1234 2291 2 MP stroke
gr

c9
1533  944 mt 1605  944 L
1569  908 mt 1569  980 L
1533  790 mt 1605  790 L
1569  754 mt 1569  826 L
1533  581 mt 1605  581 L
1569  545 mt 1569  617 L
gs 899 389 5363 4228 rc
DA
0 sg
0 -306 2909 3762 2 MP stroke
0 -181 2909 4148 2 MP stroke
SO
335 0 2742 3456 2 MP stroke
335 0 2742 4148 2 MP stroke
c8
0 -205 -670 0 0 205 670 0 2574 3762 5 MP stroke
c9
670 0 2574 3851 2 MP stroke
gr

2873 3094 mt 2945 3094 L
2909 3058 mt 2909 3130 L
2873 3442 mt 2945 3442 L
2909 3406 mt 2909 3478 L
2873 3360 mt 2945 3360 L
2909 3324 mt 2909 3396 L
2873 3034 mt 2945 3034 L
2909 2998 mt 2909 3070 L
2873 3092 mt 2945 3092 L
2909 3056 mt 2909 3128 L
2873 3323 mt 2945 3323 L
2909 3287 mt 2909 3359 L
2873 3281 mt 2945 3281 L
2909 3245 mt 2909 3317 L
2873 3379 mt 2945 3379 L
2909 3343 mt 2909 3415 L
2873 3424 mt 2945 3424 L
2909 3388 mt 2909 3460 L
gs 899 389 5363 4228 rc
DA
0 sg
0 -541 4250 2483 2 MP stroke
0 -389 4250 3234 2 MP stroke
SO
335 0 4082 1942 2 MP stroke
335 0 4082 3234 2 MP stroke
c8
0 -362 -670 0 0 362 670 0 3915 2483 5 MP stroke
c9
670 0 3915 2669 2 MP stroke
gr

4214 1658 mt 4286 1658 L
4250 1622 mt 4250 1694 L
4214 1847 mt 4286 1847 L
4250 1811 mt 4250 1883 L
4214 1890 mt 4286 1890 L
4250 1854 mt 4250 1926 L
4214 1026 mt 4286 1026 L
4250  990 mt 4250 1062 L
4214 1755 mt 4286 1755 L
4250 1719 mt 4250 1791 L
4214 1276 mt 4286 1276 L
4250 1240 mt 4250 1312 L
4214 1880 mt 4286 1880 L
4250 1844 mt 4250 1916 L
4214 1865 mt 4286 1865 L
4250 1829 mt 4250 1901 L
gs 899 389 5363 4228 rc
DA
0 sg
0 -295 5590 4004 2 MP stroke
0 -220 5590 4423 2 MP stroke
SO
335 0 5423 3709 2 MP stroke
335 0 5423 4423 2 MP stroke
c8
0 -199 -670 0 0 199 670 0 5255 4004 5 MP stroke
c9
670 0 5255 4122 2 MP stroke
gr

5554 3705 mt 5626 3705 L
5590 3669 mt 5590 3741 L
5554 3694 mt 5626 3694 L
5590 3658 mt 5590 3730 L
gs 899 389 5363 4228 rc
gr


end %%Color Dict

eplot
%%EndObject

epage
end

showpage

%%Trailer
%%EOF
