%!PS-Adobe-3.0 EPSF-3.0
%%Creator: MATLAB, The Mathworks, Inc.
%%Title: Pictures\main_fusion_us_logreg_demo_err3.eps
%%CreationDate: 02/14/2009  03:17:33
%%DocumentNeededFonts: Helvetica
%%DocumentProcessColors: Cyan Magenta Yellow Black
%%LanguageLevel: 2
%%Pages: 1
%%BoundingBox:    33   187   547   583
%%EndComments

%%BeginProlog
% MathWorks dictionary
/MathWorks 160 dict begin
% definition operators
/bdef {bind def} bind def
/ldef {load def} bind def
/xdef {exch def} bdef
/xstore {exch store} bdef
% operator abbreviations
/c  /clip ldef
/cc /concat ldef
/cp /closepath ldef
/gr /grestore ldef
/gs /gsave ldef
/mt /moveto ldef
/np /newpath ldef
/cm /currentmatrix ldef
/sm /setmatrix ldef
/rm /rmoveto ldef
/rl /rlineto ldef
/s {show newpath} bdef
/sc {setcmykcolor} bdef
/sr /setrgbcolor ldef
/sg /setgray ldef
/w /setlinewidth ldef
/j /setlinejoin ldef
/cap /setlinecap ldef
/rc {rectclip} bdef
/rf {rectfill} bdef
% page state control
/pgsv () def
/bpage {/pgsv save def} bdef
/epage {pgsv restore} bdef
/bplot /gsave ldef
/eplot {stroke grestore} bdef
% orientation switch
/portraitMode 0 def /landscapeMode 1 def /rotateMode 2 def
% coordinate system mappings
/dpi2point 0 def
% font control
/FontSize 0 def
/FMS {/FontSize xstore findfont [FontSize 0 0 FontSize neg 0 0]
  makefont setfont} bdef
/ISOLatin1Encoding where {pop /WindowsLatin1Encoding 256 array bdef
ISOLatin1Encoding WindowsLatin1Encoding copy pop
/.notdef/.notdef/quotesinglbase/florin/quotedblbase/ellipsis/dagger
/daggerdbl/circumflex/perthousand/Scaron/guilsinglleft/OE/.notdef/.notdef
/.notdef/.notdef/quoteleft/quoteright/quotedblleft/quotedblright/bullet
/endash/emdash/tilde/trademark/scaron/guilsinglright/oe/.notdef/.notdef
/Ydieresis WindowsLatin1Encoding 128 32 getinterval astore pop}
{/WindowsLatin1Encoding StandardEncoding bdef} ifelse
/reencode {exch dup where {pop load} {pop StandardEncoding} ifelse
  exch dup 3 1 roll findfont dup length dict begin
  { 1 index /FID ne {def}{pop pop} ifelse } forall
  /Encoding exch def currentdict end definefont pop} bdef
/isroman {findfont /CharStrings get /Agrave known} bdef
/FMSR {3 1 roll 1 index dup isroman {reencode} {pop pop} ifelse
  exch FMS} bdef
/csm {1 dpi2point div -1 dpi2point div scale neg translate
 dup landscapeMode eq {pop -90 rotate}
  {rotateMode eq {90 rotate} if} ifelse} bdef
% line types: solid, dotted, dashed, dotdash
/SO { [] 0 setdash } bdef
/DO { [.5 dpi2point mul 4 dpi2point mul] 0 setdash } bdef
/DA { [6 dpi2point mul] 0 setdash } bdef
/DD { [.5 dpi2point mul 4 dpi2point mul 6 dpi2point mul 4
  dpi2point mul] 0 setdash } bdef
% macros for lines and objects
/L {lineto stroke} bdef
/MP {3 1 roll moveto 1 sub {rlineto} repeat} bdef
/AP {{rlineto} repeat} bdef
/PDlw -1 def
/W {/PDlw currentlinewidth def setlinewidth} def
/PP {closepath eofill} bdef
/DP {closepath stroke} bdef
/MR {4 -2 roll moveto dup  0 exch rlineto exch 0 rlineto
  neg 0 exch rlineto closepath} bdef
/FR {MR stroke} bdef
/PR {MR fill} bdef
/L1i {{currentfile picstr readhexstring pop} image} bdef
/tMatrix matrix def
/MakeOval {newpath tMatrix currentmatrix pop translate scale
0 0 1 0 360 arc tMatrix setmatrix} bdef
/FO {MakeOval stroke} bdef
/PO {MakeOval fill} bdef
/PD {currentlinewidth 2 div 0 360 arc fill
   PDlw -1 eq not {PDlw w /PDlw -1 def} if} def
/FA {newpath tMatrix currentmatrix pop translate scale
  0 0 1 5 -2 roll arc tMatrix setmatrix stroke} bdef
/PA {newpath tMatrix currentmatrix pop	translate 0 0 moveto scale
  0 0 1 5 -2 roll arc closepath tMatrix setmatrix fill} bdef
/FAn {newpath tMatrix currentmatrix pop translate scale
  0 0 1 5 -2 roll arcn tMatrix setmatrix stroke} bdef
/PAn {newpath tMatrix currentmatrix pop translate 0 0 moveto scale
  0 0 1 5 -2 roll arcn closepath tMatrix setmatrix fill} bdef
/vradius 0 def /hradius 0 def /lry 0 def
/lrx 0 def /uly 0 def /ulx 0 def /rad 0 def
/MRR {/vradius xdef /hradius xdef /lry xdef /lrx xdef /uly xdef
  /ulx xdef newpath tMatrix currentmatrix pop ulx hradius add uly
  vradius add translate hradius vradius scale 0 0 1 180 270 arc 
  tMatrix setmatrix lrx hradius sub uly vradius add translate
  hradius vradius scale 0 0 1 270 360 arc tMatrix setmatrix
  lrx hradius sub lry vradius sub translate hradius vradius scale
  0 0 1 0 90 arc tMatrix setmatrix ulx hradius add lry vradius sub
  translate hradius vradius scale 0 0 1 90 180 arc tMatrix setmatrix
  closepath} bdef
/FRR {MRR stroke } bdef
/PRR {MRR fill } bdef
/MlrRR {/lry xdef /lrx xdef /uly xdef /ulx xdef /rad lry uly sub 2 div def
  newpath tMatrix currentmatrix pop ulx rad add uly rad add translate
  rad rad scale 0 0 1 90 270 arc tMatrix setmatrix lrx rad sub lry rad
  sub translate rad rad scale 0 0 1 270 90 arc tMatrix setmatrix
  closepath} bdef
/FlrRR {MlrRR stroke } bdef
/PlrRR {MlrRR fill } bdef
/MtbRR {/lry xdef /lrx xdef /uly xdef /ulx xdef /rad lrx ulx sub 2 div def
  newpath tMatrix currentmatrix pop ulx rad add uly rad add translate
  rad rad scale 0 0 1 180 360 arc tMatrix setmatrix lrx rad sub lry rad
  sub translate rad rad scale 0 0 1 0 180 arc tMatrix setmatrix
  closepath} bdef
/FtbRR {MtbRR stroke } bdef
/PtbRR {MtbRR fill } bdef
/stri 6 array def /dtri 6 array def
/smat 6 array def /dmat 6 array def
/tmat1 6 array def /tmat2 6 array def /dif 3 array def
/asub {/ind2 exch def /ind1 exch def dup dup
  ind1 get exch ind2 get sub exch } bdef
/tri_to_matrix {
  2 0 asub 3 1 asub 4 0 asub 5 1 asub
  dup 0 get exch 1 get 7 -1 roll astore } bdef
/compute_transform {
  dmat dtri tri_to_matrix tmat1 invertmatrix 
  smat stri tri_to_matrix tmat2 concatmatrix } bdef
/ds {stri astore pop} bdef
/dt {dtri astore pop} bdef
/db {2 copy /cols xdef /rows xdef mul dup 3 mul string
  currentfile 
  3 index 0 eq {/ASCIIHexDecode filter}
  {/ASCII85Decode filter 3 index 2 eq {/RunLengthDecode filter} if }
  ifelse exch readstring pop
  dup 0 3 index getinterval /rbmap xdef
  dup 2 index dup getinterval /gbmap xdef
  1 index dup 2 mul exch getinterval /bbmap xdef pop pop}bdef
/it {gs np dtri aload pop moveto lineto lineto cp c
  cols rows 8 compute_transform 
  rbmap gbmap bbmap true 3 colorimage gr}bdef
/il {newpath moveto lineto stroke}bdef
currentdict end def
%%EndProlog

%%BeginSetup
MathWorks begin

0 cap

end
%%EndSetup

%%Page: 1 1
%%BeginPageSetup
%%PageBoundingBox:    33   187   547   583
MathWorks begin
bpage
%%EndPageSetup

%%BeginObject: obj1
bplot

/dpi2point 12 def
portraitMode 0216 7344 csm

  190   340  6159  4752 rc
85 dict begin %Colortable dictionary
/c0 { 0.000000 0.000000 0.000000 sr} bdef
/c1 { 1.000000 1.000000 1.000000 sr} bdef
/c2 { 0.900000 0.000000 0.000000 sr} bdef
/c3 { 0.000000 0.820000 0.000000 sr} bdef
/c4 { 0.000000 0.000000 0.800000 sr} bdef
/c5 { 0.910000 0.820000 0.320000 sr} bdef
/c6 { 1.000000 0.260000 0.820000 sr} bdef
/c7 { 0.000000 0.820000 0.820000 sr} bdef
c0
1 j
1 sg
   0    0 6919 5187 rf
6 w
0 4228 5362 0 0 -4228 899 4616 4 MP
PP
-5362 0 0 4228 5362 0 0 -4228 899 4616 5 MP stroke
4 w
DO
SO
6 w
0 sg
 899  388 mt 6261  388 L
 899 4616 mt 6261 4616 L
6261 4616 mt 6261  388 L
 899 4616 mt  899  388 L
 899 4616 mt 6261 4616 L
 899 4616 mt  899  388 L
1210 4616 mt 1210 4562 L
1210  389 mt 1210  442 L
%%IncludeResource: font Helvetica
/Helvetica /WindowsLatin1Encoding 192 FMSR

1157 4828 mt 
(1) s
2050 4616 mt 2050 4562 L
2050  389 mt 2050  442 L
1997 4828 mt 
(2) s
2889 4616 mt 2889 4562 L
2889  389 mt 2889  442 L
2836 4828 mt 
(3) s
3729 4616 mt 3729 4562 L
3729  389 mt 3729  442 L
3676 4828 mt 
(4) s
4568 4616 mt 4568 4562 L
4568  389 mt 4568  442 L
4515 4828 mt 
(5) s
5407 4616 mt 5407 4562 L
5407  389 mt 5407  442 L
5354 4828 mt 
(6) s
6247 4616 mt 6247 4562 L
6247  389 mt 6247  442 L
6194 4828 mt 
(7) s
 899 4604 mt  952 4604 L
6261 4604 mt 6207 4604 L
 758 4675 mt 
(0) s
 899 4182 mt  952 4182 L
6261 4182 mt 6207 4182 L
 491 4253 mt 
(0.05) s
 899 3760 mt  952 3760 L
6261 3760 mt 6207 3760 L
 598 3831 mt 
(0.1) s
 899 3338 mt  952 3338 L
6261 3338 mt 6207 3338 L
 491 3409 mt 
(0.15) s
 899 2916 mt  952 2916 L
6261 2916 mt 6207 2916 L
 598 2987 mt 
(0.2) s
 899 2494 mt  952 2494 L
6261 2494 mt 6207 2494 L
 491 2565 mt 
(0.25) s
 899 2072 mt  952 2072 L
6261 2072 mt 6207 2072 L
 598 2143 mt 
(0.3) s
 899 1650 mt  952 1650 L
6261 1650 mt 6207 1650 L
 491 1721 mt 
(0.35) s
 899 1228 mt  952 1228 L
6261 1228 mt 6207 1228 L
 598 1299 mt 
(0.4) s
 899  806 mt  952  806 L
6261  806 mt 6207  806 L
 491  877 mt 
(0.45) s
 899  388 mt 6261  388 L
 899 4616 mt 6261 4616 L
6261 4616 mt 6261  388 L
 899 4616 mt  899  388 L
gs 899 389 5363 4228 rc
/c8 { 0.000000 0.000000 1.000000 sr} bdef
c8
47 0 87 0 87 0 87 0 87 0 87 0 87 0 87 0 
87 0 87 0 88 0 87 0 87 0 87 0 87 0 87 0 
87 0 87 0 87 0 87 0 88 0 87 0 87 0 87 0 
87 0 87 0 87 0 87 0 87 0 87 0 88 0 87 0 
87 0 87 0 87 0 87 0 87 0 87 0 87 1 87 3 
88 21 87 120 87 654 87 2454 87 -1482 87 -1413 87 -296 87 -51 
87 -9 87 -1 88 -1 87 0 87 0 87 0 87 0 87 0 
87 0 87 0 87 0 87 0 88 0 87 0 3 0 899 4604 64 MP stroke
/c9 { 0.000000 0.500000 0.000000 sr} bdef
c9
47 0 87 0 87 0 87 0 87 0 87 0 87 1 87 0 
87 1 87 3 88 9 87 22 87 57 87 146 87 357 87 804 
87 1487 87 688 87 -1724 87 -1032 88 -486 87 -202 87 -80 87 -31 
87 -12 87 -5 87 -2 87 0 87 -1 87 0 88 0 87 0 
87 0 87 0 87 0 87 0 87 0 87 0 87 0 87 0 
88 0 87 0 87 0 87 0 87 0 87 0 87 0 87 0 
87 0 87 0 88 0 87 0 87 0 87 0 87 0 87 0 
87 0 87 0 87 0 87 0 88 0 87 0 3 0 899 4604 64 MP stroke
/c10 { 1.000000 0.000000 0.000000 sr} bdef
c10
47 0 87 0 87 0 87 0 87 0 87 0 87 0 87 0 
87 0 87 0 88 0 87 0 87 0 87 0 87 0 87 1 
87 1 87 2 87 8 87 21 88 62 87 173 87 462 87 1084 
87 1916 87 -1166 87 -1457 87 -688 87 -269 87 -97 88 -35 87 -11 
87 -5 87 -1 87 0 87 -1 87 0 87 0 87 0 87 0 
88 0 87 0 87 0 87 0 87 0 87 0 87 0 87 0 
87 0 87 0 88 0 87 0 87 0 87 0 87 0 87 0 
87 0 87 0 87 0 87 0 88 0 87 0 3 0 899 4604 64 MP stroke
/c11 { 0.000000 0.750000 0.750000 sr} bdef
c11
47 0 87 0 87 0 87 0 87 0 87 0 87 0 87 0 
87 0 87 0 88 0 87 0 87 0 87 1 87 0 87 1 
87 2 87 4 87 9 87 20 88 45 87 97 87 209 87 426 
87 802 87 1290 87 992 87 -1543 87 -1101 87 -638 88 -327 87 -156 
87 -72 87 -33 87 -15 87 -7 87 -3 87 -2 87 0 87 -1 
88 0 87 0 87 0 87 0 87 0 87 0 87 0 87 0 
87 0 87 0 88 0 87 0 87 0 87 0 87 0 87 0 
87 0 87 0 87 0 87 0 88 0 87 0 3 0 899 4604 64 MP stroke
/c12 { 0.750000 0.000000 0.750000 sr} bdef
c12
47 0 87 0 87 0 87 0 87 0 87 0 87 0 87 0 
87 0 87 0 88 0 87 0 87 0 87 0 87 1 87 1 
87 3 87 14 87 52 87 192 88 652 87 1742 87 425 87 -1967 
87 -788 87 -238 87 -65 87 -17 87 -5 87 -1 88 -1 87 0 
87 0 87 0 87 0 87 0 87 0 87 0 87 0 87 0 
88 0 87 0 87 0 87 0 87 0 87 0 87 0 87 0 
87 0 87 0 88 0 87 0 87 0 87 0 87 0 87 0 
87 0 87 0 87 0 87 0 88 0 87 0 3 0 899 4604 64 MP stroke
/c13 { 0.750000 0.750000 0.000000 sr} bdef
c13
47 0 87 0 87 0 87 0 87 0 87 0 87 0 87 0 
87 0 87 0 88 0 87 0 87 0 87 0 87 0 87 0 
87 0 87 0 87 1 87 0 88 2 87 5 87 14 87 43 
87 123 87 343 87 863 87 1717 87 -11 87 -1712 88 -860 87 -341 
87 -123 87 -42 87 -14 87 -5 87 -2 87 0 87 -1 87 0 
88 0 87 0 87 0 87 0 87 0 87 0 87 0 87 0 
87 0 87 0 88 0 87 0 87 0 87 0 87 0 87 0 
87 0 87 0 87 0 87 0 88 0 87 0 3 0 899 4604 64 MP stroke
0.25 sg
47 0 87 0 87 0 87 0 87 0 87 0 87 0 87 0 
87 0 87 0 88 0 87 0 87 0 87 0 87 0 87 0 
87 0 87 0 87 0 87 0 88 0 87 0 87 0 87 0 
87 0 87 0 87 0 87 0 87 0 87 0 88 0 87 1 
87 1 87 6 87 36 87 198 87 953 87 2856 87 -2683 87 -1086 
88 -230 87 -42 87 -8 87 -1 87 -1 87 0 87 0 87 0 
87 0 87 0 88 0 87 0 87 0 87 0 87 0 87 0 
87 0 87 0 87 0 87 0 88 0 87 0 3 0 899 4604 64 MP stroke
c8
47 0 87 0 87 0 87 0 87 0 87 0 87 0 87 0 
87 0 87 0 88 0 87 0 87 0 87 0 87 1 87 0 
87 1 87 2 87 6 87 13 88 31 87 70 87 159 87 348 
87 707 87 1239 87 1590 87 -1678 87 -1206 87 -680 88 -333 87 -152 
87 -67 87 -29 87 -12 87 -6 87 -2 87 -1 87 0 87 -1 
88 0 87 0 87 0 87 0 87 0 87 0 87 0 87 0 
87 0 87 0 88 0 87 0 87 0 87 0 87 0 87 0 
87 0 87 0 87 0 87 0 88 0 87 0 3 0 899 4604 64 MP stroke
c9
47 0 87 0 87 0 87 0 87 0 87 0 87 0 87 0 
87 0 87 0 88 0 87 0 87 0 87 1 87 1 87 4 
87 16 87 71 87 281 87 996 88 2410 87 -1861 87 -1364 87 -415 
87 -106 87 -26 87 -6 87 -1 87 -1 87 0 88 0 87 0 
87 0 87 0 87 0 87 0 87 0 87 0 87 0 87 0 
88 0 87 0 87 0 87 0 87 0 87 0 87 0 87 0 
87 0 87 0 88 0 87 0 87 0 87 0 87 0 87 0 
87 0 87 0 87 0 87 0 88 0 87 0 3 0 899 4604 64 MP stroke
c10
47 0 87 0 87 0 87 0 87 0 87 0 87 0 87 0 
87 0 87 0 88 0 87 0 87 0 87 0 87 0 87 0 
87 0 87 0 87 0 87 0 88 0 87 0 87 0 87 0 
87 0 87 0 87 0 87 0 87 1 87 1 88 12 87 67 
87 388 87 1754 87 438 87 -2066 87 -491 87 -86 87 -15 87 -2 
88 -1 87 0 87 0 87 0 87 0 87 0 87 0 87 0 
87 0 87 0 88 0 87 0 87 0 87 0 87 0 87 0 
87 0 87 0 87 0 87 0 88 0 87 0 3 0 899 4604 64 MP stroke
c11
47 0 87 0 87 0 87 0 87 0 87 0 87 0 87 0 
87 0 87 0 88 0 87 0 87 0 87 0 87 1 87 1 
87 3 87 14 87 53 87 199 88 687 87 1834 87 109 87 -1893 
87 -721 87 -211 87 -56 87 -15 87 -3 87 -1 88 -1 87 0 
87 0 87 0 87 0 87 0 87 0 87 0 87 0 87 0 
88 0 87 0 87 0 87 0 87 0 87 0 87 0 87 0 
87 0 87 0 88 0 87 0 87 0 87 0 87 0 87 0 
87 0 87 0 87 0 87 0 88 0 87 0 3 0 899 4604 64 MP stroke
c12
47 0 87 0 87 0 87 0 87 0 87 0 87 0 87 0 
87 0 87 0 88 0 87 0 87 0 87 0 87 0 87 0 
87 0 87 0 87 0 87 1 88 0 87 1 87 4 87 8 
87 20 87 50 87 125 87 297 87 663 87 1264 88 1743 87 -1814 
87 -1234 87 -641 87 -287 87 -119 87 -49 87 -19 87 -8 87 -3 
88 -1 87 0 87 -1 87 0 87 0 87 0 87 0 87 0 
87 0 87 0 88 0 87 0 87 0 87 0 87 0 87 0 
87 0 87 0 87 0 87 0 88 0 87 0 3 0 899 4604 64 MP stroke
c13
47 0 87 0 87 0 87 0 87 0 87 0 87 0 87 0 
87 0 87 0 88 0 87 0 87 0 87 0 87 0 87 0 
87 0 87 0 87 0 87 1 88 1 87 5 87 22 87 90 
87 365 87 1248 87 2295 87 -2533 87 -1087 87 -307 88 -76 87 -18 
87 -4 87 -1 87 -1 87 0 87 0 87 0 87 0 87 0 
88 0 87 0 87 0 87 0 87 0 87 0 87 0 87 0 
87 0 87 0 88 0 87 0 87 0 87 0 87 0 87 0 
87 0 87 0 87 0 87 0 88 0 87 0 3 0 899 4604 64 MP stroke
0.25 sg
47 0 87 0 87 0 87 0 87 0 87 0 87 0 87 0 
87 0 87 0 88 0 87 0 87 0 87 0 87 0 87 0 
87 0 87 0 87 0 87 1 88 2 87 6 87 24 87 92 
87 333 87 1061 87 2335 87 -1854 87 -1367 87 -458 88 -128 87 -35 
87 -9 87 -2 87 -1 87 0 87 0 87 0 87 0 87 0 
88 0 87 0 87 0 87 0 87 0 87 0 87 0 87 0 
87 0 87 0 88 0 87 0 87 0 87 0 87 0 87 0 
87 0 87 0 87 0 87 0 88 0 87 0 3 0 899 4604 64 MP stroke
c8
47 0 87 0 87 0 87 0 87 0 87 0 87 0 87 0 
87 0 87 0 88 0 87 0 87 0 87 0 87 0 87 0 
87 1 87 1 87 8 87 35 88 155 87 635 87 1962 87 -192 
87 -1846 87 -578 87 -140 87 -32 87 -7 87 -1 88 -1 87 0 
87 0 87 0 87 0 87 0 87 0 87 0 87 0 87 0 
88 0 87 0 87 0 87 0 87 0 87 0 87 0 87 0 
87 0 87 0 88 0 87 0 87 0 87 0 87 0 87 0 
87 0 87 0 87 0 87 0 88 0 87 0 3 0 899 4604 64 MP stroke
c9
47 0 87 0 87 0 87 0 87 0 87 0 87 0 87 0 
87 0 87 0 88 0 87 0 87 0 87 0 87 0 87 0 
87 0 87 0 87 0 87 0 88 0 87 0 87 0 87 0 
87 0 87 0 87 0 87 1 87 2 87 10 88 47 87 222 
87 925 87 2557 87 -2037 87 -1300 87 -335 87 -72 87 -16 87 -3 
88 -1 87 0 87 0 87 0 87 0 87 0 87 0 87 0 
87 0 87 0 88 0 87 0 87 0 87 0 87 0 87 0 
87 0 87 0 87 0 87 0 88 0 87 0 3 0 899 4604 64 MP stroke
c10
47 0 87 0 87 0 87 0 87 0 87 0 87 0 87 0 
87 0 87 0 88 0 87 0 87 0 87 0 87 0 87 0 
87 0 87 0 87 0 87 0 88 0 87 0 87 0 87 0 
87 0 87 0 87 0 87 0 87 0 87 0 88 0 87 0 
87 1 87 1 87 17 87 131 87 945 87 2687 87 -3026 87 -656 
88 -88 87 -10 87 -2 87 0 87 0 87 0 87 0 87 0 
87 0 87 0 88 0 87 0 87 0 87 0 87 0 87 0 
87 0 87 0 87 0 87 0 88 0 87 0 3 0 899 4604 64 MP stroke
c11
47 0 87 0 87 0 87 0 87 0 87 0 87 0 87 0 
87 0 87 0 88 0 87 0 87 0 87 0 87 0 87 0 
87 0 87 0 87 0 87 0 88 0 87 0 87 0 87 0 
87 0 87 0 87 1 87 3 87 10 87 39 88 153 87 554 
87 1617 87 927 87 -2125 87 -847 87 -245 87 -65 87 -16 87 -4 
88 -1 87 -1 87 0 87 0 87 0 87 0 87 0 87 0 
87 0 87 0 88 0 87 0 87 0 87 0 87 0 87 0 
87 0 87 0 87 0 87 0 88 0 87 0 3 0 899 4604 64 MP stroke
c12
47 0 87 0 87 0 87 0 87 0 87 0 87 0 87 0 
87 0 87 0 88 0 87 0 87 0 87 1 87 0 87 1 
87 2 87 7 87 14 87 36 88 87 87 205 87 461 87 934 
87 1543 87 1 87 -1543 87 -934 87 -462 87 -205 88 -87 87 -36 
87 -14 87 -7 87 -2 87 -1 87 0 87 -1 87 0 87 0 
88 0 87 0 87 0 87 0 87 0 87 0 87 0 87 0 
87 0 87 0 88 0 87 0 87 0 87 0 87 0 87 0 
87 0 87 0 87 0 87 0 88 0 87 0 3 0 899 4604 64 MP stroke
c13
47 0 87 0 87 0 87 0 87 0 87 0 87 0 87 0 
87 0 87 0 88 0 87 0 87 0 87 0 87 0 87 0 
87 0 87 0 87 0 87 1 88 1 87 5 87 17 87 51 
87 163 87 488 87 1247 87 2223 87 -2190 87 -1265 88 -498 87 -166 
87 -53 87 -16 87 -5 87 -2 87 -1 87 0 87 0 87 0 
88 0 87 0 87 0 87 0 87 0 87 0 87 0 87 0 
87 0 87 0 88 0 87 0 87 0 87 0 87 0 87 0 
87 0 87 0 87 0 87 0 88 0 87 0 3 0 899 4604 64 MP stroke
gr

c13
0 sg
3296 5024 mt 
(scores) s
 393 3277 mt  -90 rotate
(probability of error) s
90 rotate

end %%Color Dict

eplot
%%EndObject

epage
end

showpage

%%Trailer
%%EOF
