%!PS-Adobe-3.0 EPSF-3.0
%%Creator: MATLAB, The Mathworks, Inc. Version 7.7.0.471 (R2008b). Operating System: Microsoft Windows XP.
%%Title: Pictures\main_zoo_mvar_analysis_data_BMI_xcorr_bmig_p1_k2_1_8.eps
%%CreationDate: 10/26/2009  05:45:14
%%DocumentNeededFonts: Helvetica
%%DocumentProcessColors: Cyan Magenta Yellow Black
%%LanguageLevel: 2
%%Pages: 1
%%BoundingBox:    37   180   549   616
%%EndComments

%%BeginProlog
% MathWorks dictionary
/MathWorks 160 dict begin
% definition operators
/bdef {bind def} bind def
/ldef {load def} bind def
/xdef {exch def} bdef
/xstore {exch store} bdef
% operator abbreviations
/c  /clip ldef
/cc /concat ldef
/cp /closepath ldef
/gr /grestore ldef
/gs /gsave ldef
/mt /moveto ldef
/np /newpath ldef
/cm /currentmatrix ldef
/sm /setmatrix ldef
/rm /rmoveto ldef
/rl /rlineto ldef
/s {show newpath} bdef
/sc {setcmykcolor} bdef
/sr /setrgbcolor ldef
/sg /setgray ldef
/w /setlinewidth ldef
/j /setlinejoin ldef
/cap /setlinecap ldef
/rc {rectclip} bdef
/rf {rectfill} bdef
% page state control
/pgsv () def
/bpage {/pgsv save def} bdef
/epage {pgsv restore} bdef
/bplot /gsave ldef
/eplot {stroke grestore} bdef
% orientation switch
/portraitMode 0 def /landscapeMode 1 def /rotateMode 2 def
% coordinate system mappings
/dpi2point 0 def
% font control
/FontSize 0 def
/FMS {/FontSize xstore findfont [FontSize 0 0 FontSize neg 0 0]
  makefont setfont} bdef
/ISOLatin1Encoding where {pop /WindowsLatin1Encoding 256 array bdef
ISOLatin1Encoding WindowsLatin1Encoding copy pop
/.notdef/.notdef/quotesinglbase/florin/quotedblbase/ellipsis/dagger
/daggerdbl/circumflex/perthousand/Scaron/guilsinglleft/OE/.notdef/.notdef
/.notdef/.notdef/quoteleft/quoteright/quotedblleft/quotedblright/bullet
/endash/emdash/tilde/trademark/scaron/guilsinglright/oe/.notdef/.notdef
/Ydieresis WindowsLatin1Encoding 128 32 getinterval astore pop}
{/WindowsLatin1Encoding StandardEncoding bdef} ifelse
/reencode {exch dup where {pop load} {pop StandardEncoding} ifelse
  exch dup 3 1 roll findfont dup length dict begin
  { 1 index /FID ne {def}{pop pop} ifelse } forall
  /Encoding exch def currentdict end definefont pop} bdef
/isroman {findfont /CharStrings get /Agrave known} bdef
/FMSR {3 1 roll 1 index dup isroman {reencode} {pop pop} ifelse
  exch FMS} bdef
/csm {1 dpi2point div -1 dpi2point div scale neg translate
 dup landscapeMode eq {pop -90 rotate}
  {rotateMode eq {90 rotate} if} ifelse} bdef
% line types: solid, dotted, dashed, dotdash
/SO { [] 0 setdash } bdef
/DO { [.5 dpi2point mul 4 dpi2point mul] 0 setdash } bdef
/DA { [6 dpi2point mul] 0 setdash } bdef
/DD { [.5 dpi2point mul 4 dpi2point mul 6 dpi2point mul 4
  dpi2point mul] 0 setdash } bdef
% macros for lines and objects
/L {lineto stroke} bdef
/MP {3 1 roll moveto 1 sub {rlineto} repeat} bdef
/AP {{rlineto} repeat} bdef
/PDlw -1 def
/W {/PDlw currentlinewidth def setlinewidth} def
/PP {closepath eofill} bdef
/DP {closepath stroke} bdef
/MR {4 -2 roll moveto dup  0 exch rlineto exch 0 rlineto
  neg 0 exch rlineto closepath} bdef
/FR {MR stroke} bdef
/PR {MR fill} bdef
/L1i {{currentfile picstr readhexstring pop} image} bdef
/tMatrix matrix def
/MakeOval {newpath tMatrix currentmatrix pop translate scale
0 0 1 0 360 arc tMatrix setmatrix} bdef
/FO {MakeOval stroke} bdef
/PO {MakeOval fill} bdef
/PD {currentlinewidth 2 div 0 360 arc fill
   PDlw -1 eq not {PDlw w /PDlw -1 def} if} def
/FA {newpath tMatrix currentmatrix pop translate scale
  0 0 1 5 -2 roll arc tMatrix setmatrix stroke} bdef
/PA {newpath tMatrix currentmatrix pop	translate 0 0 moveto scale
  0 0 1 5 -2 roll arc closepath tMatrix setmatrix fill} bdef
/FAn {newpath tMatrix currentmatrix pop translate scale
  0 0 1 5 -2 roll arcn tMatrix setmatrix stroke} bdef
/PAn {newpath tMatrix currentmatrix pop translate 0 0 moveto scale
  0 0 1 5 -2 roll arcn closepath tMatrix setmatrix fill} bdef
/vradius 0 def /hradius 0 def /lry 0 def
/lrx 0 def /uly 0 def /ulx 0 def /rad 0 def
/MRR {/vradius xdef /hradius xdef /lry xdef /lrx xdef /uly xdef
  /ulx xdef newpath tMatrix currentmatrix pop ulx hradius add uly
  vradius add translate hradius vradius scale 0 0 1 180 270 arc 
  tMatrix setmatrix lrx hradius sub uly vradius add translate
  hradius vradius scale 0 0 1 270 360 arc tMatrix setmatrix
  lrx hradius sub lry vradius sub translate hradius vradius scale
  0 0 1 0 90 arc tMatrix setmatrix ulx hradius add lry vradius sub
  translate hradius vradius scale 0 0 1 90 180 arc tMatrix setmatrix
  closepath} bdef
/FRR {MRR stroke } bdef
/PRR {MRR fill } bdef
/MlrRR {/lry xdef /lrx xdef /uly xdef /ulx xdef /rad lry uly sub 2 div def
  newpath tMatrix currentmatrix pop ulx rad add uly rad add translate
  rad rad scale 0 0 1 90 270 arc tMatrix setmatrix lrx rad sub lry rad
  sub translate rad rad scale 0 0 1 270 90 arc tMatrix setmatrix
  closepath} bdef
/FlrRR {MlrRR stroke } bdef
/PlrRR {MlrRR fill } bdef
/MtbRR {/lry xdef /lrx xdef /uly xdef /ulx xdef /rad lrx ulx sub 2 div def
  newpath tMatrix currentmatrix pop ulx rad add uly rad add translate
  rad rad scale 0 0 1 180 360 arc tMatrix setmatrix lrx rad sub lry rad
  sub translate rad rad scale 0 0 1 0 180 arc tMatrix setmatrix
  closepath} bdef
/FtbRR {MtbRR stroke } bdef
/PtbRR {MtbRR fill } bdef
/stri 6 array def /dtri 6 array def
/smat 6 array def /dmat 6 array def
/tmat1 6 array def /tmat2 6 array def /dif 3 array def
/asub {/ind2 exch def /ind1 exch def dup dup
  ind1 get exch ind2 get sub exch } bdef
/tri_to_matrix {
  2 0 asub 3 1 asub 4 0 asub 5 1 asub
  dup 0 get exch 1 get 7 -1 roll astore } bdef
/compute_transform {
  dmat dtri tri_to_matrix tmat1 invertmatrix 
  smat stri tri_to_matrix tmat2 concatmatrix } bdef
/ds {stri astore pop} bdef
/dt {dtri astore pop} bdef
/db {2 copy /cols xdef /rows xdef mul dup 3 mul string
  currentfile 
  3 index 0 eq {/ASCIIHexDecode filter}
  {/ASCII85Decode filter 3 index 2 eq {/RunLengthDecode filter} if }
  ifelse exch readstring pop
  dup 0 3 index getinterval /rbmap xdef
  dup 2 index dup getinterval /gbmap xdef
  1 index dup 2 mul exch getinterval /bbmap xdef pop pop}bdef
/it {gs np dtri aload pop moveto lineto lineto cp c
  cols rows 8 compute_transform 
  rbmap gbmap bbmap true 3 colorimage gr}bdef
/il {newpath moveto lineto stroke}bdef
currentdict end def
%%EndProlog

%%BeginSetup
MathWorks begin

0 cap

end
%%EndSetup

%%Page: 1 1
%%BeginPageSetup
%%PageBoundingBox:    37   180   549   616
MathWorks begin
bpage
%%EndPageSetup

%%BeginObject: obj1
bplot

/dpi2point 12 def
portraitMode 0216 7344 csm

  234   -48  6149  5231 rc
85 dict begin %Colortable dictionary
/c0 { 0.000000 0.000000 0.000000 sr} bdef
/c1 { 1.000000 1.000000 1.000000 sr} bdef
/c2 { 0.900000 0.000000 0.000000 sr} bdef
/c3 { 0.000000 0.820000 0.000000 sr} bdef
/c4 { 0.000000 0.000000 0.800000 sr} bdef
/c5 { 0.910000 0.820000 0.320000 sr} bdef
/c6 { 1.000000 0.260000 0.820000 sr} bdef
/c7 { 0.000000 0.820000 0.820000 sr} bdef
c0
1 j
1 sg
   0    0 6919 5187 rf
6 w
0 4202 5362 0 0 -4202 899 4616 4 MP
PP
-5362 0 0 4202 5362 0 0 -4202 899 4616 5 MP stroke
4 w
DO
SO
6 w
0 sg
 899  414 mt 6261  414 L
 899 4616 mt 6261 4616 L
6261 4616 mt 6261  414 L
 899 4616 mt  899  414 L
 899 4616 mt 6261 4616 L
 899 4616 mt  899  414 L
 919 4616 mt  919 4562 L
 919  414 mt  919  467 L
%%IncludeResource: font Helvetica
/Helvetica /WindowsLatin1Encoding 240 FMSR

 713 4873 mt 
(-3) s
1806 4616 mt 1806 4562 L
1806  414 mt 1806  467 L
1600 4873 mt 
(-2) s
2693 4616 mt 2693 4562 L
2693  414 mt 2693  467 L
2487 4873 mt 
(-1) s
3580 4616 mt 3580 4562 L
3580  414 mt 3580  467 L
3514 4873 mt 
(0) s
4466 4616 mt 4466 4562 L
4466  414 mt 4466  467 L
4400 4873 mt 
(1) s
5353 4616 mt 5353 4562 L
5353  414 mt 5353  467 L
5287 4873 mt 
(2) s
6240 4616 mt 6240 4562 L
6240  414 mt 6240  467 L
6174 4873 mt 
(3) s
 899 4599 mt  952 4599 L
6261 4599 mt 6207 4599 L
 591 4688 mt 
(-3) s
 899 3904 mt  952 3904 L
6261 3904 mt 6207 3904 L
 591 3993 mt 
(-2) s
 899 3209 mt  952 3209 L
6261 3209 mt 6207 3209 L
 591 3298 mt 
(-1) s
 899 2514 mt  952 2514 L
6261 2514 mt 6207 2514 L
 731 2603 mt 
(0) s
 899 1820 mt  952 1820 L
6261 1820 mt 6207 1820 L
 731 1909 mt 
(1) s
 899 1125 mt  952 1125 L
6261 1125 mt 6207 1125 L
 731 1214 mt 
(2) s
 899  430 mt  952  430 L
6261  430 mt 6207  430 L
 731  519 mt 
(3) s
 899  414 mt 6261  414 L
 899 4616 mt 6261 4616 L
6261 4616 mt 6261  414 L
 899 4616 mt  899  414 L
gs 899 414 5363 4203 rc
gr

/c8 { 0.000000 0.000000 1.000000 sr} bdef
c8
4213 1255 mt 4285 1255 L
4249 1219 mt 4249 1291 L
4719 2001 mt 4791 2001 L
4755 1965 mt 4755 2037 L
2866 1990 mt 2938 1990 L
2902 1954 mt 2902 2026 L
2545 2637 mt 2617 2637 L
2581 2601 mt 2581 2673 L
3940 1572 mt 4012 1572 L
3976 1536 mt 3976 1608 L
2605 1604 mt 2677 1604 L
2641 1568 mt 2641 1640 L
1556 3257 mt 1628 3257 L
1592 3221 mt 1592 3293 L
3958 2237 mt 4030 2237 L
3994 2201 mt 3994 2273 L
3897 2228 mt 3969 2228 L
3933 2192 mt 3933 2264 L
4760 1336 mt 4832 1336 L
4796 1300 mt 4796 1372 L
2575 2480 mt 2647 2480 L
2611 2444 mt 2611 2516 L
3627 2204 mt 3699 2204 L
3663 2168 mt 3663 2240 L
4805 2695 mt 4877 2695 L
4841 2659 mt 4841 2731 L
3370 1593 mt 3442 1593 L
3406 1557 mt 3406 1629 L
4564 2894 mt 4636 2894 L
4600 2858 mt 4600 2930 L
3532 2796 mt 3604 2796 L
3568 2760 mt 3568 2832 L
3683 1851 mt 3755 1851 L
3719 1815 mt 3719 1887 L
4034 4131 mt 4106 4131 L
4070 4095 mt 4070 4167 L
4492 2458 mt 4564 2458 L
4528 2422 mt 4528 2494 L
3757 2383 mt 3829 2383 L
3793 2347 mt 3793 2419 L
2765 2284 mt 2837 2284 L
2801 2248 mt 2801 2320 L
3873 2311 mt 3945 2311 L
3909 2275 mt 3909 2347 L
2513 2046 mt 2585 2046 L
2549 2010 mt 2549 2082 L
2987 2754 mt 3059 2754 L
3023 2718 mt 3023 2790 L
4228 3289 mt 4300 3289 L
4264 3253 mt 4264 3325 L
3493 2338 mt 3565 2338 L
3529 2302 mt 3529 2374 L
2624 2401 mt 2696 2401 L
2660 2365 mt 2660 2437 L
3803 2488 mt 3875 2488 L
3839 2452 mt 3839 2524 L
3655 1772 mt 3727 1772 L
3691 1736 mt 3691 1808 L
3934 2165 mt 4006 2165 L
3970 2129 mt 3970 2201 L
2146 2514 mt 2218 2514 L
2182 2478 mt 2182 2550 L
3290 2057 mt 3362 2057 L
3326 2021 mt 3326 2093 L
2381 2374 mt 2453 2374 L
2417 2338 mt 2417 2410 L
3410 3250 mt 3482 3250 L
3446 3214 mt 3446 3286 L
3415 1995 mt 3487 1995 L
3451 1959 mt 3451 2031 L
3555 1614 mt 3627 1614 L
3591 1578 mt 3591 1650 L
3768 1978 mt 3840 1978 L
3804 1942 mt 3804 2014 L
2298 3595 mt 2370 3595 L
2334 3559 mt 2334 3631 L
3202 2194 mt 3274 2194 L
3238 2158 mt 3238 2230 L
3249 2035 mt 3321 2035 L
3285 1999 mt 3285 2071 L
3588 2189 mt 3660 2189 L
3624 2153 mt 3624 2225 L
4236 1707 mt 4308 1707 L
4272 1671 mt 4272 1743 L
5606 2265 mt 5678 2265 L
5642 2229 mt 5642 2301 L
3649 2361 mt 3721 2361 L
3685 2325 mt 3685 2397 L
4463 3322 mt 4535 3322 L
4499 3286 mt 4499 3358 L
3477 3415 mt 3549 3415 L
3513 3379 mt 3513 3451 L
3347 2410 mt 3419 2410 L
3383 2374 mt 3383 2446 L
4107 2484 mt 4179 2484 L
4143 2448 mt 4143 2520 L
2565 2825 mt 2637 2825 L
2601 2789 mt 2601 2861 L
4142 3479 mt 4214 3479 L
4178 3443 mt 4178 3515 L
2903 2686 mt 2975 2686 L
2939 2650 mt 2939 2722 L
3728 1550 mt 3800 1550 L
3764 1514 mt 3764 1586 L
3826 2759 mt 3898 2759 L
3862 2723 mt 3862 2795 L
4028 2040 mt 4100 2040 L
4064 2004 mt 4064 2076 L
3711 2440 mt 3783 2440 L
3747 2404 mt 3747 2476 L
3661 2475 mt 3733 2475 L
3697 2439 mt 3697 2511 L
3166 3242 mt 3238 3242 L
3202 3206 mt 3202 3278 L
4381 1966 mt 4453 1966 L
4417 1930 mt 4417 2002 L
2993 2597 mt 3065 2597 L
3029 2561 mt 3029 2633 L
4184 2445 mt 4256 2445 L
4220 2409 mt 4220 2481 L
3342 3171 mt 3414 3171 L
3378 3135 mt 3378 3207 L
2251 3367 mt 2323 3367 L
2287 3331 mt 2287 3403 L
3426 1972 mt 3498 1972 L
3462 1936 mt 3462 2008 L
4836 2493 mt 4908 2493 L
4872 2457 mt 4872 2529 L
4015 1006 mt 4087 1006 L
4051  970 mt 4051 1042 L
3921 2989 mt 3993 2989 L
3957 2953 mt 3957 3025 L
3605 2506 mt 3677 2506 L
3641 2470 mt 3641 2542 L
3085 2864 mt 3157 2864 L
3121 2828 mt 3121 2900 L
4054 2062 mt 4126 2062 L
4090 2026 mt 4090 2098 L
2407 2067 mt 2479 2067 L
2443 2031 mt 2443 2103 L
2805 2160 mt 2877 2160 L
2841 2124 mt 2841 2196 L
4693 1917 mt 4765 1917 L
4729 1881 mt 4729 1953 L
4251 2914 mt 4323 2914 L
4287 2878 mt 4287 2950 L
2732 1152 mt 2804 1152 L
2768 1116 mt 2768 1188 L
 863 1872 mt  935 1872 L
 899 1836 mt  899 1908 L
3273 2741 mt 3345 2741 L
3309 2705 mt 3309 2777 L
4425 2175 mt 4497 2175 L
4461 2139 mt 4461 2211 L
2680 2242 mt 2752 2242 L
2716 2206 mt 2716 2278 L
2749 1787 mt 2821 1787 L
2785 1751 mt 2785 1823 L
4243 2423 mt 4315 2423 L
4279 2387 mt 4279 2459 L
3571 1404 mt 3643 1404 L
3607 1368 mt 3607 1440 L
3104 2325 mt 3176 2325 L
3140 2289 mt 3140 2361 L
4074 2664 mt 4146 2664 L
4110 2628 mt 4110 2700 L
3734 2209 mt 3806 2209 L
3770 2173 mt 3770 2245 L
4266 2956 mt 4338 2956 L
4302 2920 mt 4302 2992 L
4094 3051 mt 4166 3051 L
4130 3015 mt 4130 3087 L
3381 1561 mt 3453 1561 L
3417 1525 mt 3417 1597 L
3284 3625 mt 3356 3625 L
3320 3589 mt 3320 3661 L
3964 2270 mt 4036 2270 L
4000 2234 mt 4000 2306 L
2479  824 mt 2551  824 L
2515  788 mt 2515  860 L
3302 2668 mt 3374 2668 L
3338 2632 mt 3338 2704 L
4501 2920 mt 4573 2920 L
4537 2884 mt 4537 2956 L
3007 1898 mt 3079 1898 L
3043 1862 mt 3043 1934 L
2444 2567 mt 2516 2567 L
2480 2531 mt 2480 2603 L
3237 3144 mt 3309 3144 L
3273 3108 mt 3273 3180 L
2394 3235 mt 2466 3235 L
2430 3199 mt 2430 3271 L
3909 2682 mt 3981 2682 L
3945 2646 mt 3945 2718 L
3791 1634 mt 3863 1634 L
3827 1598 mt 3827 1670 L
3053 3797 mt 3125 3797 L
3089 3761 mt 3089 3833 L
2312 2611 mt 2384 2611 L
2348 2575 mt 2348 2647 L
4298 2018 mt 4370 2018 L
4334 1982 mt 4334 2054 L
2910 2528 mt 2982 2528 L
2946 2492 mt 2946 2564 L
3243 3131 mt 3315 3131 L
3279 3095 mt 3279 3167 L
2085 2972 mt 2157 2972 L
2121 2936 mt 2121 3008 L
2235 3178 mt 2307 3178 L
2271 3142 mt 2271 3214 L
2874 2185 mt 2946 2185 L
2910 2149 mt 2910 2221 L
3616 2835 mt 3688 2835 L
3652 2799 mt 3652 2871 L
2952 2532 mt 3024 2532 L
2988 2496 mt 2988 2568 L
2218 2388 mt 2290 2388 L
2254 2352 mt 2254 2424 L
3538 2180 mt 3610 2180 L
3574 2144 mt 3574 2216 L
3832 2329 mt 3904 2329 L
3868 2293 mt 3868 2365 L
3135 2764 mt 3207 2764 L
3171 2728 mt 3171 2800 L
2327 2830 mt 2399 2830 L
2363 2794 mt 2363 2866 L
5002 4205 mt 5074 4205 L
5038 4169 mt 5038 4241 L
2555 2704 mt 2627 2704 L
2591 2668 mt 2591 2740 L
3952 2541 mt 4024 2541 L
3988 2505 mt 3988 2577 L
3510 1756 mt 3582 1756 L
3546 1720 mt 3546 1792 L
2586 3503 mt 2658 3503 L
2622 3467 mt 2622 3539 L
3129 3184 mt 3201 3184 L
3165 3148 mt 3165 3220 L
1481 3908 mt 1553 3908 L
1517 3872 mt 1517 3944 L
3694 2352 mt 3766 2352 L
3730 2316 mt 3730 2388 L
4372 1779 mt 4444 1779 L
4408 1743 mt 4408 1815 L
3946 2343 mt 4018 2343 L
3982 2307 mt 3982 2379 L
3745 3112 mt 3817 3112 L
3781 3076 mt 3781 3148 L
1965 1845 mt 2037 1845 L
2001 1809 mt 2001 1881 L
4206 1671 mt 4278 1671 L
4242 1635 mt 4242 1707 L
2040 3693 mt 2112 3693 L
2076 3657 mt 2076 3729 L
2821 2673 mt 2893 2673 L
2857 2637 mt 2857 2709 L
3255 1794 mt 3327 1794 L
3291 1758 mt 3291 1830 L
2980 3045 mt 3052 3045 L
3016 3009 mt 3016 3081 L
4444 3022 mt 4516 3022 L
4480 2986 mt 4480 3058 L
4364 2768 mt 4436 2768 L
4400 2732 mt 4400 2804 L
3566 2519 mt 3638 2519 L
3602 2483 mt 3602 2555 L
3330 2497 mt 3402 2497 L
3366 2461 mt 3366 2533 L
3040 2650 mt 3112 2650 L
3076 2614 mt 3076 2686 L
3544 2909 mt 3616 2909 L
3580 2873 mt 3580 2945 L
2917 2580 mt 2989 2580 L
2953 2544 mt 2953 2616 L
4680 1885 mt 4752 1885 L
4716 1849 mt 4716 1921 L
3020 2820 mt 3092 2820 L
3056 2784 mt 3056 2856 L
3814 3125 mt 3886 3125 L
3850 3089 mt 3850 3161 L
4009 2967 mt 4081 2967 L
4045 2931 mt 4045 3003 L
4398 2279 mt 4470 2279 L
4434 2243 mt 4434 2315 L
2813 3057 mt 2885 3057 L
2849 3021 mt 2849 3093 L
3123 2700 mt 3195 2700 L
3159 2664 mt 3159 2736 L
3915 1698 mt 3987 1698 L
3951 1662 mt 3951 1734 L
4191 2392 mt 4263 2392 L
4227 2356 mt 4227 2428 L
2016 2334 mt 2088 2334 L
2052 2298 mt 2052 2370 L
1387 1388 mt 1459 1388 L
1423 1352 mt 1423 1424 L
3196 3675 mt 3268 3675 L
3232 3639 mt 3232 3711 L
3454 1904 mt 3526 1904 L
3490 1868 mt 3490 1940 L
2165 2449 mt 2237 2449 L
2201 2413 mt 2201 2485 L
4100 3395 mt 4172 3395 L
4136 3359 mt 4136 3431 L
2634 2713 mt 2706 2713 L
2670 2677 mt 2670 2749 L
2797 2261 mt 2869 2261 L
2833 2225 mt 2833 2297 L
3717 2709 mt 3789 2709 L
3753 2673 mt 3753 2745 L
2432 3340 mt 2504 3340 L
2468 3304 mt 2468 3376 L
3488 1689 mt 3560 1689 L
3524 1653 mt 3524 1725 L
4585 2899 mt 4657 2899 L
4621 2863 mt 4621 2935 L
2671 1838 mt 2743 1838 L
2707 1802 mt 2707 1874 L
4472 3273 mt 4544 3273 L
4508 3237 mt 4508 3309 L
3638 2854 mt 3710 2854 L
3674 2818 mt 3674 2890 L
2781 3641 mt 2853 3641 L
2817 3605 mt 2817 3677 L
2931 2462 mt 3003 2462 L
2967 2426 mt 2967 2498 L
4199 2302 mt 4271 2302 L
4235 2266 mt 4235 2338 L
3521 2736 mt 3593 2736 L
3557 2700 mt 3557 2772 L
2468 2930 mt 2540 2930 L
2504 2894 mt 2504 2966 L
2723 2633 mt 2795 2633 L
2759 2597 mt 2759 2669 L
4820 4616 mt 4892 4616 L
4856 4580 mt 4856 4652 L
2789 2659 mt 2861 2659 L
2825 2623 mt 2825 2695 L
4282 2293 mt 4354 2293 L
4318 2257 mt 4318 2329 L
3153 2199 mt 3225 2199 L
3189 2163 mt 3189 2235 L
3527 1948 mt 3599 1948 L
3563 1912 mt 3563 1984 L
2662 3191 mt 2734 3191 L
2698 3155 mt 2698 3227 L
3516 2307 mt 3588 2307 L
3552 2271 mt 3552 2343 L
3927 3206 mt 3999 3206 L
3963 3170 mt 3963 3242 L
3160 2094 mt 3232 2094 L
3196 2058 mt 3196 2130 L
3861 2396 mt 3933 2396 L
3897 2360 mt 3897 2432 L
4170 2874 mt 4242 2874 L
4206 2838 mt 4206 2910 L
3078 2125 mt 3150 2125 L
3114 2089 mt 3114 2161 L
3313 1865 mt 3385 1865 L
3349 1829 mt 3349 1901 L
2828 2935 mt 2900 2935 L
2864 2899 mt 2864 2971 L
4121 3017 mt 4193 3017 L
4157 2981 mt 4157 3053 L
3214 1643 mt 3286 1643 L
3250 1607 mt 3250 1679 L
2706 2078 mt 2778 2078 L
2742 2042 mt 2742 2114 L
4512 3349 mt 4584 3349 L
4548 3313 mt 4548 3385 L
2523 1831 mt 2595 1831 L
2559 1795 mt 2559 1867 L
4655 2347 mt 4727 2347 L
4691 2311 mt 4691 2383 L
3336 1748 mt 3408 1748 L
3372 1712 mt 3372 1784 L
4597 3658 mt 4669 3658 L
4633 3622 mt 4633 3694 L
4060 1419 mt 4132 1419 L
4096 1383 mt 4096 1455 L
3141 1538 mt 3213 1538 L
3177 1502 mt 3177 1574 L
3903 2727 mt 3975 2727 L
3939 2691 mt 3939 2763 L
5180 2275 mt 5252 2275 L
5216 2239 mt 5216 2311 L
5096 1984 mt 5168 1984 L
5132 1948 mt 5132 2020 L
3577 1583 mt 3649 1583 L
3613 1547 mt 3613 1619 L
1722 1923 mt 1794 1923 L
1758 1887 mt 1758 1959 L
4041 3039 mt 4113 3039 L
4077 3003 mt 4077 3075 L
3855 2405 mt 3927 2405 L
3891 2369 mt 3891 2441 L
3785 3358 mt 3857 3358 L
3821 3322 mt 3821 3394 L
3774 2140 mt 3846 2140 L
3810 2104 mt 3810 2176 L
4852 1087 mt 4924 1087 L
4888 1051 mt 4888 1123 L
3706 1715 mt 3778 1715 L
3742 1679 mt 3742 1751 L
5282 2099 mt 5354 2099 L
5318 2063 mt 5318 2135 L
3443 3164 mt 3515 3164 L
3479 3128 mt 3479 3200 L
3482 2012 mt 3554 2012 L
3518 1976 mt 3518 2048 L
4732 2467 mt 4804 2467 L
4768 2431 mt 4768 2503 L
5413 3034 mt 5485 3034 L
5449 2998 mt 5449 3070 L
4156 2007 mt 4228 2007 L
4192 1971 mt 4192 2043 L
2836 1930 mt 2908 1930 L
2872 1894 mt 2872 1966 L
2881 3314 mt 2953 3314 L
2917 3278 mt 2917 3350 L
3190 1181 mt 3262 1181 L
3226 1145 mt 3226 1217 L
5365 2247 mt 5437 2247 L
5401 2211 mt 5401 2283 L
4149 1911 mt 4221 1911 L
4185 1875 mt 4185 1947 L
3364 3005 mt 3436 3005 L
3400 2969 mt 3400 3041 L
1766 2365 mt 1838 2365 L
1802 2329 mt 1802 2401 L
4435 1878 mt 4507 1878 L
4471 1842 mt 4471 1914 L
3977 1802 mt 4049 1802 L
4013 1766 mt 4013 1838 L
4922 2256 mt 4994 2256 L
4958 2220 mt 4958 2292 L
5245 2432 mt 5317 2432 L
5281 2396 mt 5281 2468 L
3844 2558 mt 3916 2558 L
3880 2522 mt 3880 2594 L
3046 2869 mt 3118 2869 L
3082 2833 mt 3082 2905 L
2888 2994 mt 2960 2994 L
2924 2958 mt 2924 3030 L
3891 2745 mt 3963 2745 L
3927 2709 mt 3927 2781 L
2063 3567 mt 2135 3567 L
2099 3531 mt 2099 3603 L
5211 2571 mt 5283 2571 L
5247 2535 mt 5247 2607 L
3359 2356 mt 3431 2356 L
3395 2320 mt 3395 2392 L
3110 3157 mt 3182 3157 L
3146 3121 mt 3146 3193 L
3267 2615 mt 3339 2615 L
3303 2579 mt 3303 2651 L
4087 1207 mt 4159 1207 L
4123 1171 mt 4123 1243 L
5531 1318 mt 5603 1318 L
5567 1282 mt 5567 1354 L
3393 4305 mt 3465 4305 L
3429 4269 mt 3429 4341 L
3261 3457 mt 3333 3457 L
3297 3421 mt 3297 3493 L
3797 3942 mt 3869 3942 L
3833 3906 mt 3833 3978 L
3809 2120 mt 3881 2120 L
3845 2084 mt 3845 2156 L
1805 1371 mt 1877 1371 L
1841 1335 mt 1841 1407 L
4002 4023 mt 4074 4023 L
4038 3987 mt 4038 4059 L
3838 3081 mt 3910 3081 L
3874 3045 mt 3874 3117 L
2773 2115 mt 2845 2115 L
2809 2079 mt 2809 2151 L
4631 2545 mt 4703 2545 L
4667 2509 mt 4667 2581 L
3599 2218 mt 3671 2218 L
3635 2182 mt 3635 2254 L
5047 2787 mt 5119 2787 L
5083 2751 mt 5083 2823 L
4941 2677 mt 5013 2677 L
4977 2641 mt 4977 2713 L
6033 2024 mt 6105 2024 L
6069 1988 mt 6069 2060 L
4330 2562 mt 4402 2562 L
4366 2526 mt 4366 2598 L
4869 2135 mt 4941 2135 L
4905 2099 mt 4905 2171 L
3751 2773 mt 3823 2773 L
3787 2737 mt 3787 2809 L
3404 2170 mt 3476 2170 L
3440 2134 mt 3440 2206 L
3000 1892 mt 3072 1892 L
3036 1856 mt 3036 1928 L
1674 2251 mt 1746 2251 L
1710 2215 mt 1710 2287 L
2615 2731 mt 2687 2731 L
2651 2695 mt 2651 2767 L
2851 2940 mt 2923 2940 L
2887 2904 mt 2887 2976 L
2490 1680 mt 2562 1680 L
2526 1644 mt 2526 1716 L
3027 1049 mt 3099 1049 L
3063 1013 mt 3063 1085 L
4553 4072 mt 4625 4072 L
4589 4036 mt 4589 4108 L
3307 2576 mt 3379 2576 L
3343 2540 mt 3343 2612 L
4667 3436 mt 4739 3436 L
4703 3400 mt 4703 3472 L
4274 2150 mt 4346 2150 L
4310 2114 mt 4310 2186 L
3850 2523 mt 3922 2523 L
3886 2487 mt 3886 2559 L
4021 1354 mt 4093 1354 L
4057 1318 mt 4057 1390 L
3376 2029 mt 3448 2029 L
3412 1993 mt 3412 2065 L
3700 3198 mt 3772 3198 L
3736 3162 mt 3736 3234 L
4619 3220 mt 4691 3220 L
4655 3184 mt 4655 3256 L
1842 3731 mt 1914 3731 L
1878 3695 mt 1878 3767 L
4163 3540 mt 4235 3540 L
4199 3504 mt 4199 3576 L
1876 1809 mt 1948 1809 L
1912 1773 mt 1912 1845 L
3432 2414 mt 3504 2414 L
3468 2378 mt 3468 2450 L
4259 3075 mt 4331 3075 L
4295 3039 mt 4295 3111 L
3184  898 mt 3256  898 L
3220  862 mt 3220  934 L
2282 2214 mt 2354 2214 L
2318 2178 mt 2318 2250 L
3013 2298 mt 3085 2298 L
3049 2262 mt 3049 2334 L
4221 2628 mt 4293 2628 L
4257 2592 mt 4257 2664 L
3879 1489 mt 3951 1489 L
3915 1453 mt 3915 1525 L
5150 3028 mt 5222 3028 L
5186 2992 mt 5186 3064 L
2896 2951 mt 2968 2951 L
2932 2915 mt 2932 2987 L
3172 1624 mt 3244 1624 L
3208 1588 mt 3208 1660 L
2973 1448 mt 3045 1448 L
3009 1412 mt 3009 1484 L
4482 1740 mt 4554 1740 L
4518 1704 mt 4518 1776 L
2368 2815 mt 2440 2815 L
2404 2779 mt 2404 2851 L
3059 2316 mt 3131 2316 L
3095 2280 mt 3095 2352 L
3740 1954 mt 3812 1954 L
3776 1918 mt 3776 1990 L
5321 2602 mt 5393 2602 L
5357 2566 mt 5357 2638 L
2126 1434 mt 2198 1434 L
2162 1398 mt 2162 1470 L
5468 3087 mt 5540 3087 L
5504 3051 mt 5504 3123 L
3621 2619 mt 3693 2619 L
3657 2583 mt 3657 2655 L
5024 3376 mt 5096 3376 L
5060 3340 mt 5060 3412 L
2420 1121 mt 2492 1121 L
2456 1085 mt 2456 1157 L
2740 2510 mt 2812 2510 L
2776 2474 mt 2776 2546 L
4306 3822 mt 4378 3822 L
4342 3786 mt 4342 3858 L
3387 2589 mt 3459 2589 L
3423 2553 mt 3423 2625 L
3582  414 mt 3654  414 L
3618  378 mt 3618  450 L
3672 3553 mt 3744 3553 L
3708 3517 mt 3708 3589 L
4643 3106 mt 4715 3106 L
4679 3070 mt 4679 3142 L
2267 2130 mt 2339 2130 L
2303 2094 mt 2303 2166 L
1619 3331 mt 1691 3331 L
1655 3295 mt 1655 3367 L
3319 3297 mt 3391 3297 L
3355 3261 mt 3355 3333 L
3989 3011 mt 4061 3011 L
4025 2975 mt 4025 3047 L
6225 2792 mt 6297 2792 L
6261 2756 mt 6261 2828 L
3499 2089 mt 3571 2089 L
3535 2053 mt 3535 2125 L
2534 1764 mt 2606 1764 L
2570 1728 mt 2570 1800 L
3677 2811 mt 3749 2811 L
3713 2775 mt 3713 2847 L
3996 2320 mt 4068 2320 L
4032 2284 mt 4032 2356 L
4886 1476 mt 4958 1476 L
4922 1440 mt 4922 1512 L
4114 2536 mt 4186 2536 L
4150 2500 mt 4150 2572 L
3466 3118 mt 3538 3118 L
3502 3082 mt 3502 3154 L
3398 2418 mt 3470 2418 L
3434 2382 mt 3434 2454 L
1937 2925 mt 2009 2925 L
1973 2889 mt 1973 2961 L
4322 3213 mt 4394 3213 L
4358 3177 mt 4358 3249 L
5071 3093 mt 5143 3093 L
5107 3057 mt 5107 3129 L
4128 2879 mt 4200 2879 L
4164 2843 mt 4164 2915 L
4290 3581 mt 4362 3581 L
4326 3545 mt 4326 3617 L
4390 2233 mt 4462 2233 L
4426 2197 mt 4426 2269 L
2595 3137 mt 2667 3137 L
2631 3101 mt 2631 3173 L
3208 2978 mt 3280 2978 L
3244 2942 mt 3244 3014 L
2959 2145 mt 3031 2145 L
2995 2109 mt 2995 2181 L
2757 2223 mt 2829 2223 L
2793 2187 mt 2793 2259 L
2456 3877 mt 2528 3877 L
2492 3841 mt 2492 3913 L
4338 2104 mt 4410 2104 L
4374 2068 mt 4374 2140 L
3644 2904 mt 3716 2904 L
3680 2868 mt 3680 2940 L
4532 3610 mt 4604 3610 L
4568 3574 mt 4568 3646 L
3220 2109 mt 3292 2109 L
3256 2073 mt 3256 2145 L
4453 2083 mt 4525 2083 L
4489 2047 mt 4489 2119 L
3421 3980 mt 3493 3980 L
3457 3944 mt 3457 4016 L
3325 3306 mt 3397 3306 L
3361 3270 mt 3361 3342 L
4416 1462 mt 4488 1462 L
4452 1426 mt 4452 1498 L
2938 2624 mt 3010 2624 L
2974 2588 mt 2974 2660 L
3178 1858 mt 3250 1858 L
3214 1822 mt 3214 1894 L
3971 2750 mt 4043 2750 L
4007 2714 mt 4007 2786 L
4522 3711 mt 4594 3711 L
4558 3675 mt 4558 3747 L
3610 3752 mt 3682 3752 L
3646 3716 mt 3646 3788 L
2924 2946 mt 2996 2946 L
2960 2910 mt 2960 2982 L
4608 2051 mt 4680 2051 L
4644 2015 mt 4644 2087 L
2945 2801 mt 3017 2801 L
2981 2765 mt 2981 2837 L
5828 1526 mt 5900 1526 L
5864 1490 mt 5864 1562 L
2355 2718 mt 2427 2718 L
2391 2682 mt 2391 2754 L
3689 3491 mt 3761 3491 L
3725 3455 mt 3725 3527 L
3885 3774 mt 3957 3774 L
3921 3738 mt 3921 3810 L
3505 3386 mt 3577 3386 L
3541 3350 mt 3541 3422 L
4981 1936 mt 5053 1936 L
5017 1900 mt 5017 1972 L
3666 2884 mt 3738 2884 L
3702 2848 mt 3702 2920 L
3594 2073 mt 3666 2073 L
3630 2037 mt 3630 2109 L
5122 2849 mt 5194 2849 L
5158 2813 mt 5158 2885 L
4789 2554 mt 4861 2554 L
4825 2518 mt 4825 2590 L
3762 1277 mt 3834 1277 L
3798 1241 mt 3798 1313 L
2697 3446 mt 2769 3446 L
2733 3410 mt 2733 3482 L
4135 2436 mt 4207 2436 L
4171 2400 mt 4171 2472 L
4080 2782 mt 4152 2782 L
4116 2746 mt 4116 2818 L
2183 1823 mt 2255 1823 L
2219 1787 mt 2219 1859 L
2715 1298 mt 2787 1298 L
2751 1262 mt 2751 1334 L
3438 3515 mt 3510 3515 L
3474 3479 mt 3474 3551 L
3147 3063 mt 3219 3063 L
3183 3027 mt 3183 3099 L
1991 2155 mt 2063 2155 L
2027 2119 mt 2027 2191 L
3449 3069 mt 3521 3069 L
3485 3033 mt 3485 3105 L
1259 2370 mt 1331 2370 L
1295 2334 mt 1295 2406 L
2689 1960 mt 2761 1960 L
2725 1924 mt 2725 1996 L
3066  564 mt 3138  564 L
3102  528 mt 3102  600 L
3983 2983 mt 4055 2983 L
4019 2947 mt 4019 3019 L
3560 3468 mt 3632 3468 L
3596 3432 mt 3596 3504 L
3471 2844 mt 3543 2844 L
3507 2808 mt 3507 2880 L
3091 3281 mt 3163 3281 L
3127 3245 mt 3127 3317 L
3226 3527 mt 3298 3527 L
3262 3491 mt 3262 3563 L
4347 1816 mt 4419 1816 L
4383 1780 mt 4383 1852 L
4542 2549 mt 4614 2549 L
4578 2513 mt 4578 2585 L
1907 2288 mt 1979 2288 L
1943 2252 mt 1943 2324 L
4407 1662 mt 4479 1662 L
4443 1626 mt 4443 1698 L
4706 3265 mt 4778 3265 L
4742 3229 mt 4742 3301 L
4177 3425 mt 4249 3425 L
4213 3389 mt 4213 3461 L
3820 2584 mt 3892 2584 L
3856 2548 mt 3856 2620 L
3353 2889 mt 3425 2889 L
3389 2853 mt 3389 2925 L
3867 1232 mt 3939 1232 L
3903 1196 mt 3903 1268 L
2652 1942 mt 2724 1942 L
2688 1906 mt 2688 1978 L
3780 3227 mt 3852 3227 L
3816 3191 mt 3816 3263 L
4574 2471 mt 4646 2471 L
4610 2435 mt 4610 2507 L
3116 2806 mt 3188 2806 L
3152 2770 mt 3152 2842 L
3549 1514 mt 3621 1514 L
3585 1478 mt 3585 1550 L
2502 2379 mt 2574 2379 L
2538 2343 mt 2538 2415 L
2966 1502 mt 3038 1502 L
3002 1466 mt 3002 1538 L
2643 2962 mt 2715 2962 L
2679 2926 mt 2679 2998 L
4067 2641 mt 4139 2641 L
4103 2605 mt 4103 2677 L
3278 2778 mt 3350 2778 L
3314 2742 mt 3314 2814 L
2844 2655 mt 2916 2655 L
2880 2619 mt 2880 2691 L
2106 2691 mt 2178 2691 L
2142 2655 mt 2142 2727 L
3232 2501 mt 3304 2501 L
3268 2465 mt 3268 2537 L
3033 2427 mt 3105 2427 L
3069 2391 mt 3069 2463 L
4775 2593 mt 4847 2593 L
4811 2557 mt 4811 2629 L
2859 2606 mt 2931 2606 L
2895 2570 mt 2895 2642 L
4355 3151 mt 4427 3151 L
4391 3115 mt 4391 3187 L
3633 3099 mt 3705 3099 L
3669 3063 mt 3669 3135 L
2341 3405 mt 2413 3405 L
2377 3369 mt 2377 3441 L
3460 2859 mt 3532 2859 L
3496 2823 mt 3496 2895 L
3098 1723 mt 3170 1723 L
3134 1687 mt 3134 1759 L
3296 2453 mt 3368 2453 L
3332 2417 mt 3332 2489 L
4961 3848 mt 5033 3848 L
4997 3812 mt 4997 3884 L
3723 2722 mt 3795 2722 L
3759 2686 mt 3759 2758 L
4047  957 mt 4119  957 L
4083  921 mt 4083  993 L
4904 3000 mt 4976 3000 L
4940 2964 mt 4940 3036 L
3072  724 mt 3144  724 L
3108  688 mt 3108  760 L
4314 2646 mt 4386 2646 L
4350 2610 mt 4350 2682 L
2201 1653 mt 2273 1653 L
2237 1617 mt 2237 1689 L
5700 2840 mt 5772 2840 L
5736 2804 mt 5736 2876 L
4746 1732 mt 4818 1732 L
4782 1696 mt 4782 1768 L
gs 899 414 5363 4203 rc
gr

0 sg
2779 5104 mt 
(\(F,DCTs,GMM\)) s
 482 3259 mt  -90 rotate
(\(S,PAC,GMM\)) s
90 rotate
2905  223 mt 
(Corr = -0.04) s

end %%Color Dict

eplot
%%EndObject

epage
end

showpage

%%Trailer
%%EOF
