%!PS-Adobe-3.0 EPSF-3.0
%%Creator: MATLAB, The Mathworks, Inc. Version 7.7.0.471 (R2008b). Operating System: Microsoft Windows XP.
%%Title: Pictures\main_zoo_mvar_analysis_data_BMI_xcorr_bmi_p1_k1_4_9.eps
%%CreationDate: 10/26/2009  05:44:06
%%DocumentNeededFonts: Helvetica
%%DocumentProcessColors: Cyan Magenta Yellow Black
%%LanguageLevel: 2
%%Pages: 1
%%BoundingBox:    21   180   546   616
%%EndComments

%%BeginProlog
% MathWorks dictionary
/MathWorks 160 dict begin
% definition operators
/bdef {bind def} bind def
/ldef {load def} bind def
/xdef {exch def} bdef
/xstore {exch store} bdef
% operator abbreviations
/c  /clip ldef
/cc /concat ldef
/cp /closepath ldef
/gr /grestore ldef
/gs /gsave ldef
/mt /moveto ldef
/np /newpath ldef
/cm /currentmatrix ldef
/sm /setmatrix ldef
/rm /rmoveto ldef
/rl /rlineto ldef
/s {show newpath} bdef
/sc {setcmykcolor} bdef
/sr /setrgbcolor ldef
/sg /setgray ldef
/w /setlinewidth ldef
/j /setlinejoin ldef
/cap /setlinecap ldef
/rc {rectclip} bdef
/rf {rectfill} bdef
% page state control
/pgsv () def
/bpage {/pgsv save def} bdef
/epage {pgsv restore} bdef
/bplot /gsave ldef
/eplot {stroke grestore} bdef
% orientation switch
/portraitMode 0 def /landscapeMode 1 def /rotateMode 2 def
% coordinate system mappings
/dpi2point 0 def
% font control
/FontSize 0 def
/FMS {/FontSize xstore findfont [FontSize 0 0 FontSize neg 0 0]
  makefont setfont} bdef
/ISOLatin1Encoding where {pop /WindowsLatin1Encoding 256 array bdef
ISOLatin1Encoding WindowsLatin1Encoding copy pop
/.notdef/.notdef/quotesinglbase/florin/quotedblbase/ellipsis/dagger
/daggerdbl/circumflex/perthousand/Scaron/guilsinglleft/OE/.notdef/.notdef
/.notdef/.notdef/quoteleft/quoteright/quotedblleft/quotedblright/bullet
/endash/emdash/tilde/trademark/scaron/guilsinglright/oe/.notdef/.notdef
/Ydieresis WindowsLatin1Encoding 128 32 getinterval astore pop}
{/WindowsLatin1Encoding StandardEncoding bdef} ifelse
/reencode {exch dup where {pop load} {pop StandardEncoding} ifelse
  exch dup 3 1 roll findfont dup length dict begin
  { 1 index /FID ne {def}{pop pop} ifelse } forall
  /Encoding exch def currentdict end definefont pop} bdef
/isroman {findfont /CharStrings get /Agrave known} bdef
/FMSR {3 1 roll 1 index dup isroman {reencode} {pop pop} ifelse
  exch FMS} bdef
/csm {1 dpi2point div -1 dpi2point div scale neg translate
 dup landscapeMode eq {pop -90 rotate}
  {rotateMode eq {90 rotate} if} ifelse} bdef
% line types: solid, dotted, dashed, dotdash
/SO { [] 0 setdash } bdef
/DO { [.5 dpi2point mul 4 dpi2point mul] 0 setdash } bdef
/DA { [6 dpi2point mul] 0 setdash } bdef
/DD { [.5 dpi2point mul 4 dpi2point mul 6 dpi2point mul 4
  dpi2point mul] 0 setdash } bdef
% macros for lines and objects
/L {lineto stroke} bdef
/MP {3 1 roll moveto 1 sub {rlineto} repeat} bdef
/AP {{rlineto} repeat} bdef
/PDlw -1 def
/W {/PDlw currentlinewidth def setlinewidth} def
/PP {closepath eofill} bdef
/DP {closepath stroke} bdef
/MR {4 -2 roll moveto dup  0 exch rlineto exch 0 rlineto
  neg 0 exch rlineto closepath} bdef
/FR {MR stroke} bdef
/PR {MR fill} bdef
/L1i {{currentfile picstr readhexstring pop} image} bdef
/tMatrix matrix def
/MakeOval {newpath tMatrix currentmatrix pop translate scale
0 0 1 0 360 arc tMatrix setmatrix} bdef
/FO {MakeOval stroke} bdef
/PO {MakeOval fill} bdef
/PD {currentlinewidth 2 div 0 360 arc fill
   PDlw -1 eq not {PDlw w /PDlw -1 def} if} def
/FA {newpath tMatrix currentmatrix pop translate scale
  0 0 1 5 -2 roll arc tMatrix setmatrix stroke} bdef
/PA {newpath tMatrix currentmatrix pop	translate 0 0 moveto scale
  0 0 1 5 -2 roll arc closepath tMatrix setmatrix fill} bdef
/FAn {newpath tMatrix currentmatrix pop translate scale
  0 0 1 5 -2 roll arcn tMatrix setmatrix stroke} bdef
/PAn {newpath tMatrix currentmatrix pop translate 0 0 moveto scale
  0 0 1 5 -2 roll arcn closepath tMatrix setmatrix fill} bdef
/vradius 0 def /hradius 0 def /lry 0 def
/lrx 0 def /uly 0 def /ulx 0 def /rad 0 def
/MRR {/vradius xdef /hradius xdef /lry xdef /lrx xdef /uly xdef
  /ulx xdef newpath tMatrix currentmatrix pop ulx hradius add uly
  vradius add translate hradius vradius scale 0 0 1 180 270 arc 
  tMatrix setmatrix lrx hradius sub uly vradius add translate
  hradius vradius scale 0 0 1 270 360 arc tMatrix setmatrix
  lrx hradius sub lry vradius sub translate hradius vradius scale
  0 0 1 0 90 arc tMatrix setmatrix ulx hradius add lry vradius sub
  translate hradius vradius scale 0 0 1 90 180 arc tMatrix setmatrix
  closepath} bdef
/FRR {MRR stroke } bdef
/PRR {MRR fill } bdef
/MlrRR {/lry xdef /lrx xdef /uly xdef /ulx xdef /rad lry uly sub 2 div def
  newpath tMatrix currentmatrix pop ulx rad add uly rad add translate
  rad rad scale 0 0 1 90 270 arc tMatrix setmatrix lrx rad sub lry rad
  sub translate rad rad scale 0 0 1 270 90 arc tMatrix setmatrix
  closepath} bdef
/FlrRR {MlrRR stroke } bdef
/PlrRR {MlrRR fill } bdef
/MtbRR {/lry xdef /lrx xdef /uly xdef /ulx xdef /rad lrx ulx sub 2 div def
  newpath tMatrix currentmatrix pop ulx rad add uly rad add translate
  rad rad scale 0 0 1 180 360 arc tMatrix setmatrix lrx rad sub lry rad
  sub translate rad rad scale 0 0 1 0 180 arc tMatrix setmatrix
  closepath} bdef
/FtbRR {MtbRR stroke } bdef
/PtbRR {MtbRR fill } bdef
/stri 6 array def /dtri 6 array def
/smat 6 array def /dmat 6 array def
/tmat1 6 array def /tmat2 6 array def /dif 3 array def
/asub {/ind2 exch def /ind1 exch def dup dup
  ind1 get exch ind2 get sub exch } bdef
/tri_to_matrix {
  2 0 asub 3 1 asub 4 0 asub 5 1 asub
  dup 0 get exch 1 get 7 -1 roll astore } bdef
/compute_transform {
  dmat dtri tri_to_matrix tmat1 invertmatrix 
  smat stri tri_to_matrix tmat2 concatmatrix } bdef
/ds {stri astore pop} bdef
/dt {dtri astore pop} bdef
/db {2 copy /cols xdef /rows xdef mul dup 3 mul string
  currentfile 
  3 index 0 eq {/ASCIIHexDecode filter}
  {/ASCII85Decode filter 3 index 2 eq {/RunLengthDecode filter} if }
  ifelse exch readstring pop
  dup 0 3 index getinterval /rbmap xdef
  dup 2 index dup getinterval /gbmap xdef
  1 index dup 2 mul exch getinterval /bbmap xdef pop pop}bdef
/it {gs np dtri aload pop moveto lineto lineto cp c
  cols rows 8 compute_transform 
  rbmap gbmap bbmap true 3 colorimage gr}bdef
/il {newpath moveto lineto stroke}bdef
currentdict end def
%%EndProlog

%%BeginSetup
MathWorks begin

0 cap

end
%%EndSetup

%%Page: 1 1
%%BeginPageSetup
%%PageBoundingBox:    21   180   546   616
MathWorks begin
bpage
%%EndPageSetup

%%BeginObject: obj1
bplot

/dpi2point 12 def
portraitMode 0216 7344 csm

   40   -48  6306  5231 rc
85 dict begin %Colortable dictionary
/c0 { 0.000000 0.000000 0.000000 sr} bdef
/c1 { 1.000000 1.000000 1.000000 sr} bdef
/c2 { 0.900000 0.000000 0.000000 sr} bdef
/c3 { 0.000000 0.820000 0.000000 sr} bdef
/c4 { 0.000000 0.000000 0.800000 sr} bdef
/c5 { 0.910000 0.820000 0.320000 sr} bdef
/c6 { 1.000000 0.260000 0.820000 sr} bdef
/c7 { 0.000000 0.820000 0.820000 sr} bdef
c0
1 j
1 sg
   0    0 6919 5187 rf
6 w
0 4202 5363 0 0 -4202 898 4616 4 MP
PP
-5363 0 0 4202 5363 0 0 -4202 898 4616 5 MP stroke
4 w
DO
SO
6 w
0 sg
 898  414 mt 6261  414 L
 898 4616 mt 6261 4616 L
6261 4616 mt 6261  414 L
 898 4616 mt  898  414 L
 898 4616 mt 6261 4616 L
 898 4616 mt  898  414 L
1827 4616 mt 1827 4562 L
1827  414 mt 1827  467 L
%%IncludeResource: font Helvetica
/Helvetica /WindowsLatin1Encoding 240 FMSR

1661 4873 mt 
(0.1) s
2756 4616 mt 2756 4562 L
2756  414 mt 2756  467 L
2590 4873 mt 
(0.2) s
3684 4616 mt 3684 4562 L
3684  414 mt 3684  467 L
3518 4873 mt 
(0.3) s
4613 4616 mt 4613 4562 L
4613  414 mt 4613  467 L
4447 4873 mt 
(0.4) s
5542 4616 mt 5542 4562 L
5542  414 mt 5542  467 L
5376 4873 mt 
(0.5) s
 898 3934 mt  952 3934 L
6261 3934 mt 6207 3934 L
 397 4023 mt 
(0.05) s
 898 3253 mt  952 3253 L
6261 3253 mt 6207 3253 L
 531 3342 mt 
(0.1) s
 898 2572 mt  952 2572 L
6261 2572 mt 6207 2572 L
 397 2661 mt 
(0.15) s
 898 1891 mt  952 1891 L
6261 1891 mt 6207 1891 L
 531 1980 mt 
(0.2) s
 898 1209 mt  952 1209 L
6261 1209 mt 6207 1209 L
 397 1298 mt 
(0.25) s
 898  528 mt  952  528 L
6261  528 mt 6207  528 L
 531  617 mt 
(0.3) s
 898  414 mt 6261  414 L
 898 4616 mt 6261 4616 L
6261 4616 mt 6261  414 L
 898 4616 mt  898  414 L
gs 898 414 5363 4203 rc
gr

/c8 { 0.000000 0.000000 1.000000 sr} bdef
c8
 933 3194 mt 1005 3194 L
 969 3158 mt  969 3230 L
1516 4484 mt 1588 4484 L
1552 4448 mt 1552 4520 L
2634 4615 mt 2706 4615 L
2670 4579 mt 2670 4651 L
1292 4536 mt 1364 4536 L
1328 4500 mt 1328 4572 L
 902 3542 mt  974 3542 L
 938 3506 mt  938 3578 L
1082 4494 mt 1154 4494 L
1118 4458 mt 1118 4530 L
1963 4316 mt 2035 4316 L
1999 4280 mt 1999 4352 L
 901 3896 mt  973 3896 L
 937 3860 mt  937 3932 L
1069 4160 mt 1141 4160 L
1105 4124 mt 1105 4196 L
1470 3785 mt 1542 3785 L
1506 3749 mt 1506 3821 L
1173 3233 mt 1245 3233 L
1209 3197 mt 1209 3269 L
2029 3995 mt 2101 3995 L
2065 3959 mt 2065 4031 L
2416 3987 mt 2488 3987 L
2452 3951 mt 2452 4023 L
1664 4088 mt 1736 4088 L
1700 4052 mt 1700 4124 L
1387 3719 mt 1459 3719 L
1423 3683 mt 1423 3755 L
1954 4130 mt 2026 4130 L
1990 4094 mt 1990 4166 L
 995 4590 mt 1067 4590 L
1031 4554 mt 1031 4626 L
 912 3930 mt  984 3930 L
 948 3894 mt  948 3966 L
3377 4358 mt 3449 4358 L
3413 4322 mt 3413 4394 L
1167 4609 mt 1239 4609 L
1203 4573 mt 1203 4645 L
1112 4572 mt 1184 4572 L
1148 4536 mt 1148 4608 L
 870 1537 mt  942 1537 L
 906 1501 mt  906 1573 L
1290 2348 mt 1362 2348 L
1326 2312 mt 1326 2384 L
2865  598 mt 2937  598 L
2901  562 mt 2901  634 L
 915 3722 mt  987 3722 L
 951 3686 mt  951 3758 L
1356 4583 mt 1428 4583 L
1392 4547 mt 1392 4619 L
1235 4348 mt 1307 4348 L
1271 4312 mt 1271 4384 L
1382 4266 mt 1454 4266 L
1418 4230 mt 1418 4302 L
1259 4466 mt 1331 4466 L
1295 4430 mt 1295 4502 L
1051 4601 mt 1123 4601 L
1087 4565 mt 1087 4637 L
 899 4612 mt  971 4612 L
 935 4576 mt  935 4648 L
1221 3800 mt 1293 3800 L
1257 3764 mt 1257 3836 L
2178 4609 mt 2250 4609 L
2214 4573 mt 2214 4645 L
 887 4406 mt  959 4406 L
 923 4370 mt  923 4442 L
2059 4565 mt 2131 4565 L
2095 4529 mt 2095 4601 L
 869 4507 mt  941 4507 L
 905 4471 mt  905 4543 L
 874 4408 mt  946 4408 L
 910 4372 mt  910 4444 L
1223 4400 mt 1295 4400 L
1259 4364 mt 1259 4436 L
1424 3603 mt 1496 3603 L
1460 3567 mt 1460 3639 L
1818 4615 mt 1890 4615 L
1854 4579 mt 1854 4651 L
1060 4592 mt 1132 4592 L
1096 4556 mt 1096 4628 L
2798 4143 mt 2870 4143 L
2834 4107 mt 2834 4179 L
 869 4611 mt  941 4611 L
 905 4575 mt  905 4647 L
3708 1497 mt 3780 1497 L
3744 1461 mt 3744 1533 L
4769 4572 mt 4841 4572 L
4805 4536 mt 4805 4608 L
1360 4559 mt 1432 4559 L
1396 4523 mt 1396 4595 L
 873 4166 mt  945 4166 L
 909 4130 mt  909 4202 L
2033 4600 mt 2105 4600 L
2069 4564 mt 2069 4636 L
2466 4568 mt 2538 4568 L
2502 4532 mt 2502 4604 L
2510 4479 mt 2582 4479 L
2546 4443 mt 2546 4515 L
 870 2008 mt  942 2008 L
 906 1972 mt  906 2044 L
 863 3888 mt  935 3888 L
 899 3852 mt  899 3924 L
4075 3099 mt 4147 3099 L
4111 3063 mt 4111 3135 L
 959 4439 mt 1031 4439 L
 995 4403 mt  995 4475 L
1012 2910 mt 1084 2910 L
1048 2874 mt 1048 2946 L
1010 4256 mt 1082 4256 L
1046 4220 mt 1046 4292 L
1363 3647 mt 1435 3647 L
1399 3611 mt 1399 3683 L
1007 3761 mt 1079 3761 L
1043 3725 mt 1043 3797 L
2024 4384 mt 2096 4384 L
2060 4348 mt 2060 4420 L
2189 4612 mt 2261 4612 L
2225 4576 mt 2225 4648 L
 895 3277 mt  967 3277 L
 931 3241 mt  931 3313 L
 864 4542 mt  936 4542 L
 900 4506 mt  900 4578 L
2659 3896 mt 2731 3896 L
2695 3860 mt 2695 3932 L
3538 4485 mt 3610 4485 L
3574 4449 mt 3574 4521 L
2818 4504 mt 2890 4504 L
2854 4468 mt 2854 4540 L
 907 4027 mt  979 4027 L
 943 3991 mt  943 4063 L
3603 4611 mt 3675 4611 L
3639 4575 mt 3639 4647 L
 885 4615 mt  957 4615 L
 921 4579 mt  921 4651 L
1146 4063 mt 1218 4063 L
1182 4027 mt 1182 4099 L
1037 4392 mt 1109 4392 L
1073 4356 mt 1073 4428 L
1254 4612 mt 1326 4612 L
1290 4576 mt 1290 4648 L
1795 4502 mt 1867 4502 L
1831 4466 mt 1831 4538 L
1313 3852 mt 1385 3852 L
1349 3816 mt 1349 3888 L
1014 4198 mt 1086 4198 L
1050 4162 mt 1050 4234 L
 943 2721 mt 1015 2721 L
 979 2685 mt  979 2757 L
2869 4615 mt 2941 4615 L
2905 4579 mt 2905 4651 L
2351 4125 mt 2423 4125 L
2387 4089 mt 2387 4161 L
1447 4601 mt 1519 4601 L
1483 4565 mt 1483 4637 L
2485 4065 mt 2557 4065 L
2521 4029 mt 2521 4101 L
1108 4041 mt 1180 4041 L
1144 4005 mt 1144 4077 L
2977 3194 mt 3049 3194 L
3013 3158 mt 3013 3230 L
3446 4454 mt 3518 4454 L
3482 4418 mt 3482 4490 L
 876 4574 mt  948 4574 L
 912 4538 mt  912 4610 L
1147 4600 mt 1219 4600 L
1183 4564 mt 1183 4636 L
1114 4589 mt 1186 4589 L
1150 4553 mt 1150 4625 L
1616 3830 mt 1688 3830 L
1652 3794 mt 1652 3866 L
 947  671 mt 1019  671 L
 983  635 mt  983  707 L
3758 4153 mt 3830 4153 L
3794 4117 mt 3794 4189 L
 871 4601 mt  943 4601 L
 907 4565 mt  907 4637 L
 865 3545 mt  937 3545 L
 901 3509 mt  901 3581 L
2435 4606 mt 2507 4606 L
2471 4570 mt 2471 4642 L
3094 2150 mt 3166 2150 L
3130 2114 mt 3130 2186 L
1736 4000 mt 1808 4000 L
1772 3964 mt 1772 4036 L
1408 4465 mt 1480 4465 L
1444 4429 mt 1444 4501 L
 863 4374 mt  935 4374 L
 899 4338 mt  899 4410 L
1534 4490 mt 1606 4490 L
1570 4454 mt 1570 4526 L
1006 4562 mt 1078 4562 L
1042 4526 mt 1042 4598 L
1018 4606 mt 1090 4606 L
1054 4570 mt 1054 4642 L
2530 4562 mt 2602 4562 L
2566 4526 mt 2566 4598 L
 913 3602 mt  985 3602 L
 949 3566 mt  949 3638 L
 919 4037 mt  991 4037 L
 955 4001 mt  955 4073 L
1053 3028 mt 1125 3028 L
1089 2992 mt 1089 3064 L
2066 2356 mt 2138 2356 L
2102 2320 mt 2102 2392 L
 919 4321 mt  991 4321 L
 955 4285 mt  955 4357 L
1376 3829 mt 1448 3829 L
1412 3793 mt 1412 3865 L
1544 4040 mt 1616 4040 L
1580 4004 mt 1580 4076 L
1867 4522 mt 1939 4522 L
1903 4486 mt 1903 4558 L
 984 4239 mt 1056 4239 L
1020 4203 mt 1020 4275 L
1077 3641 mt 1149 3641 L
1113 3605 mt 1113 3677 L
 898 4613 mt  970 4613 L
 934 4577 mt  934 4649 L
4557 4459 mt 4629 4459 L
4593 4423 mt 4593 4495 L
1082 4549 mt 1154 4549 L
1118 4513 mt 1118 4585 L
 890 4142 mt  962 4142 L
 926 4106 mt  926 4178 L
 901 3913 mt  973 3913 L
 937 3877 mt  937 3949 L
1893 3328 mt 1965 3328 L
1929 3292 mt 1929 3364 L
1468 2068 mt 1540 2068 L
1504 2032 mt 1504 2104 L
1701 4537 mt 1773 4537 L
1737 4501 mt 1737 4573 L
1257 4500 mt 1329 4500 L
1293 4464 mt 1293 4536 L
2731 4542 mt 2803 4542 L
2767 4506 mt 2767 4578 L
 873 3762 mt  945 3762 L
 909 3726 mt  909 3798 L
 941 4486 mt 1013 4486 L
 977 4450 mt  977 4522 L
1856 1892 mt 1928 1892 L
1892 1856 mt 1892 1928 L
 891 4510 mt  963 4510 L
 927 4474 mt  927 4546 L
2866 3481 mt 2938 3481 L
2902 3445 mt 2902 3517 L
1158 4087 mt 1230 4087 L
1194 4051 mt 1194 4123 L
3417 3894 mt 3489 3894 L
3453 3858 mt 3453 3930 L
 962 4591 mt 1034 4591 L
 998 4555 mt  998 4627 L
1130 3990 mt 1202 3990 L
1166 3954 mt 1166 4026 L
1017 4404 mt 1089 4404 L
1053 4368 mt 1053 4440 L
 864 2611 mt  936 2611 L
 900 2575 mt  900 2647 L
2218 3732 mt 2290 3732 L
2254 3696 mt 2254 3768 L
1036 3242 mt 1108 3242 L
1072 3206 mt 1072 3278 L
 925 3854 mt  997 3854 L
 961 3818 mt  961 3890 L
 863 3809 mt  935 3809 L
 899 3773 mt  899 3845 L
 863 4502 mt  935 4502 L
 899 4466 mt  899 4538 L
 871 4419 mt  943 4419 L
 907 4383 mt  907 4455 L
1030 4498 mt 1102 4498 L
1066 4462 mt 1066 4534 L
1004 4568 mt 1076 4568 L
1040 4532 mt 1040 4604 L
2008 4270 mt 2080 4270 L
2044 4234 mt 2044 4306 L
 932 4218 mt 1004 4218 L
 968 4182 mt  968 4254 L
1597 4372 mt 1669 4372 L
1633 4336 mt 1633 4408 L
1419 4004 mt 1491 4004 L
1455 3968 mt 1455 4040 L
2471 4170 mt 2543 4170 L
2507 4134 mt 2507 4206 L
 868 3905 mt  940 3905 L
 904 3869 mt  904 3941 L
1103 4211 mt 1175 4211 L
1139 4175 mt 1139 4247 L
1060 4535 mt 1132 4535 L
1096 4499 mt 1096 4571 L
1598 3751 mt 1670 3751 L
1634 3715 mt 1634 3787 L
2397 2202 mt 2469 2202 L
2433 2166 mt 2433 2238 L
2434 4139 mt 2506 4139 L
2470 4103 mt 2470 4175 L
 867 4452 mt  939 4452 L
 903 4416 mt  903 4488 L
6225 3773 mt 6297 3773 L
6261 3737 mt 6261 3809 L
 892 4278 mt  964 4278 L
 928 4242 mt  928 4314 L
1088 4615 mt 1160 4615 L
1124 4579 mt 1124 4651 L
1847 3475 mt 1919 3475 L
1883 3439 mt 1883 3511 L
 863 4462 mt  935 4462 L
 899 4426 mt  899 4498 L
1049 4484 mt 1121 4484 L
1085 4448 mt 1085 4520 L
2070 4606 mt 2142 4606 L
2106 4570 mt 2106 4642 L
1089 3826 mt 1161 3826 L
1125 3790 mt 1125 3862 L
 865 3268 mt  937 3268 L
 901 3232 mt  901 3304 L
1834 3797 mt 1906 3797 L
1870 3761 mt 1870 3833 L
2561 4604 mt 2633 4604 L
2597 4568 mt 2597 4640 L
 967 4310 mt 1039 4310 L
1003 4274 mt 1003 4346 L
 900 2031 mt  972 2031 L
 936 1995 mt  936 2067 L
1327 4588 mt 1399 4588 L
1363 4552 mt 1363 4624 L
1204 3816 mt 1276 3816 L
1240 3780 mt 1240 3852 L
1819 4586 mt 1891 4586 L
1855 4550 mt 1855 4622 L
4267 4456 mt 4339 4456 L
4303 4420 mt 4303 4492 L
1306 3425 mt 1378 3425 L
1342 3389 mt 1342 3461 L
1104 3305 mt 1176 3305 L
1140 3269 mt 1140 3341 L
2065 4498 mt 2137 4498 L
2101 4462 mt 2101 4534 L
 917 1973 mt  989 1973 L
 953 1937 mt  953 2009 L
 903 3599 mt  975 3599 L
 939 3563 mt  939 3635 L
 865 4579 mt  937 4579 L
 901 4543 mt  901 4615 L
1260 4128 mt 1332 4128 L
1296 4092 mt 1296 4164 L
1080 3911 mt 1152 3911 L
1116 3875 mt 1116 3947 L
1246 3998 mt 1318 3998 L
1282 3962 mt 1282 4034 L
1485 4264 mt 1557 4264 L
1521 4228 mt 1521 4300 L
1111 4611 mt 1183 4611 L
1147 4575 mt 1147 4647 L
1790 4427 mt 1862 4427 L
1826 4391 mt 1826 4463 L
1175 4472 mt 1247 4472 L
1211 4436 mt 1211 4508 L
 903 3298 mt  975 3298 L
 939 3262 mt  939 3334 L
 876 4613 mt  948 4613 L
 912 4577 mt  912 4649 L
1527  813 mt 1599  813 L
1563  777 mt 1563  849 L
3564 4336 mt 3636 4336 L
3600 4300 mt 3600 4372 L
1762 4349 mt 1834 4349 L
1798 4313 mt 1798 4385 L
1220 4387 mt 1292 4387 L
1256 4351 mt 1256 4423 L
 975 2808 mt 1047 2808 L
1011 2772 mt 1011 2844 L
1189 4507 mt 1261 4507 L
1225 4471 mt 1225 4543 L
 943 4610 mt 1015 4610 L
 979 4574 mt  979 4646 L
 992 2103 mt 1064 2103 L
1028 2067 mt 1028 2139 L
 948 4138 mt 1020 4138 L
 984 4102 mt  984 4174 L
1711  414 mt 1783  414 L
1747  378 mt 1747  450 L
 944 4556 mt 1016 4556 L
 980 4520 mt  980 4592 L
 880 3262 mt  952 3262 L
 916 3226 mt  916 3298 L
 863 3641 mt  935 3641 L
 899 3605 mt  899 3677 L
3553 4196 mt 3625 4196 L
3589 4160 mt 3589 4232 L
1170 2991 mt 1242 2991 L
1206 2955 mt 1206 3027 L
1050 3588 mt 1122 3588 L
1086 3552 mt 1086 3624 L
1291 4094 mt 1363 4094 L
1327 4058 mt 1327 4130 L
1048 3826 mt 1120 3826 L
1084 3790 mt 1084 3862 L
1042 3159 mt 1114 3159 L
1078 3123 mt 1078 3195 L
1138 2927 mt 1210 2927 L
1174 2891 mt 1174 2963 L
 909 4406 mt  981 4406 L
 945 4370 mt  945 4442 L
 867 4172 mt  939 4172 L
 903 4136 mt  903 4208 L
 875 4204 mt  947 4204 L
 911 4168 mt  911 4240 L
 947 4168 mt 1019 4168 L
 983 4132 mt  983 4204 L
2184 4406 mt 2256 4406 L
2220 4370 mt 2220 4442 L
 863 4614 mt  935 4614 L
 899 4578 mt  899 4650 L
1785 4054 mt 1857 4054 L
1821 4018 mt 1821 4090 L
2246 4301 mt 2318 4301 L
2282 4265 mt 2282 4337 L
 863 4008 mt  935 4008 L
 899 3972 mt  899 4044 L
1455 4558 mt 1527 4558 L
1491 4522 mt 1491 4594 L
1597 4308 mt 1669 4308 L
1633 4272 mt 1633 4344 L
 912 2166 mt  984 2166 L
 948 2130 mt  948 2202 L
 876 3349 mt  948 3349 L
 912 3313 mt  912 3385 L
3181 3254 mt 3253 3254 L
3217 3218 mt 3217 3290 L
 887 4613 mt  959 4613 L
 923 4577 mt  923 4649 L
 940 4295 mt 1012 4295 L
 976 4259 mt  976 4331 L
1627 4609 mt 1699 4609 L
1663 4573 mt 1663 4645 L
1869 4389 mt 1941 4389 L
1905 4353 mt 1905 4425 L
 868 4572 mt  940 4572 L
 904 4536 mt  904 4608 L
 935  623 mt 1007  623 L
 971  587 mt  971  659 L
1943 3570 mt 2015 3570 L
1979 3534 mt 1979 3606 L
1523 1512 mt 1595 1512 L
1559 1476 mt 1559 1548 L
2529 4125 mt 2601 4125 L
2565 4089 mt 2565 4161 L
1375 4615 mt 1447 4615 L
1411 4579 mt 1411 4651 L
1328 4372 mt 1400 4372 L
1364 4336 mt 1364 4408 L
1428 4530 mt 1500 4530 L
1464 4494 mt 1464 4566 L
1186 4030 mt 1258 4030 L
1222 3994 mt 1222 4066 L
1030 3984 mt 1102 3984 L
1066 3948 mt 1066 4020 L
 864 3523 mt  936 3523 L
 900 3487 mt  900 3559 L
1806 4421 mt 1878 4421 L
1842 4385 mt 1842 4457 L
1180 4593 mt 1252 4593 L
1216 4557 mt 1216 4629 L
 914 4607 mt  986 4607 L
 950 4571 mt  950 4643 L
 904 4449 mt  976 4449 L
 940 4413 mt  940 4485 L
 889 4478 mt  961 4478 L
 925 4442 mt  925 4514 L
1095 4592 mt 1167 4592 L
1131 4556 mt 1131 4628 L
 862 2473 mt  934 2473 L
 898 2437 mt  898 2509 L
 957 3140 mt 1029 3140 L
 993 3104 mt  993 3176 L
1271 4568 mt 1343 4568 L
1307 4532 mt 1307 4604 L
 992 4567 mt 1064 4567 L
1028 4531 mt 1028 4603 L
2399 4607 mt 2471 4607 L
2435 4571 mt 2435 4643 L
 871 4602 mt  943 4602 L
 907 4566 mt  907 4638 L
1822 2701 mt 1894 2701 L
1858 2665 mt 1858 2737 L
4257 4216 mt 4329 4216 L
4293 4180 mt 4293 4252 L
1108 4567 mt 1180 4567 L
1144 4531 mt 1144 4603 L
1007 3559 mt 1079 3559 L
1043 3523 mt 1043 3595 L
2070 4403 mt 2142 4403 L
2106 4367 mt 2106 4439 L
 981 4517 mt 1053 4517 L
1017 4481 mt 1017 4553 L
1164 4588 mt 1236 4588 L
1200 4552 mt 1200 4624 L
 916 3226 mt  988 3226 L
 952 3190 mt  952 3262 L
 930 3941 mt 1002 3941 L
 966 3905 mt  966 3977 L
2770 3007 mt 2842 3007 L
2806 2971 mt 2806 3043 L
 893 4505 mt  965 4505 L
 929 4469 mt  929 4541 L
1332 3220 mt 1404 3220 L
1368 3184 mt 1368 3256 L
1077 4173 mt 1149 4173 L
1113 4137 mt 1113 4209 L
1498 4295 mt 1570 4295 L
1534 4259 mt 1534 4331 L
 863 4179 mt  935 4179 L
 899 4143 mt  899 4215 L
1881 3265 mt 1953 3265 L
1917 3229 mt 1917 3301 L
1202 4402 mt 1274 4402 L
1238 4366 mt 1238 4438 L
 888 3152 mt  960 3152 L
 924 3116 mt  924 3188 L
1040 4576 mt 1112 4576 L
1076 4540 mt 1076 4612 L
1931 4412 mt 2003 4412 L
1967 4376 mt 1967 4448 L
4343 4416 mt 4415 4416 L
4379 4380 mt 4379 4452 L
 864 4545 mt  936 4545 L
 900 4509 mt  900 4581 L
 995 3490 mt 1067 3490 L
1031 3454 mt 1031 3526 L
 973 4562 mt 1045 4562 L
1009 4526 mt 1009 4598 L
 868 4254 mt  940 4254 L
 904 4218 mt  904 4290 L
1697 4486 mt 1769 4486 L
1733 4450 mt 1733 4522 L
1083 4455 mt 1155 4455 L
1119 4419 mt 1119 4491 L
1765 4427 mt 1837 4427 L
1801 4391 mt 1801 4463 L
 882 4605 mt  954 4605 L
 918 4569 mt  918 4641 L
1597 4481 mt 1669 4481 L
1633 4445 mt 1633 4517 L
1508 4580 mt 1580 4580 L
1544 4544 mt 1544 4616 L
 973 3547 mt 1045 3547 L
1009 3511 mt 1009 3583 L
1529 4588 mt 1601 4588 L
1565 4552 mt 1565 4624 L
2179 3380 mt 2251 3380 L
2215 3344 mt 2215 3416 L
 863 4395 mt  935 4395 L
 899 4359 mt  899 4431 L
1471 4576 mt 1543 4576 L
1507 4540 mt 1507 4612 L
 897 4156 mt  969 4156 L
 933 4120 mt  933 4192 L
3694 3302 mt 3766 3302 L
3730 3266 mt 3730 3338 L
2214 4365 mt 2286 4365 L
2250 4329 mt 2250 4401 L
1246 3682 mt 1318 3682 L
1282 3646 mt 1282 3718 L
 886 4250 mt  958 4250 L
 922 4214 mt  922 4286 L
1879 3922 mt 1951 3922 L
1915 3886 mt 1915 3958 L
1124 4512 mt 1196 4512 L
1160 4476 mt 1160 4548 L
1291 1965 mt 1363 1965 L
1327 1929 mt 1327 2001 L
3653 3993 mt 3725 3993 L
3689 3957 mt 3689 4029 L
1054 4398 mt 1126 4398 L
1090 4362 mt 1090 4434 L
 871 4527 mt  943 4527 L
 907 4491 mt  907 4563 L
1520 4026 mt 1592 4026 L
1556 3990 mt 1556 4062 L
1609 3578 mt 1681 3578 L
1645 3542 mt 1645 3614 L
1023 4376 mt 1095 4376 L
1059 4340 mt 1059 4412 L
1227 3494 mt 1299 3494 L
1263 3458 mt 1263 3530 L
 871 4605 mt  943 4605 L
 907 4569 mt  907 4641 L
1268 4594 mt 1340 4594 L
1304 4558 mt 1304 4630 L
2222 4303 mt 2294 4303 L
2258 4267 mt 2258 4339 L
 896 4150 mt  968 4150 L
 932 4114 mt  932 4186 L
2700 4542 mt 2772 4542 L
2736 4506 mt 2736 4578 L
1366 2674 mt 1438 2674 L
1402 2638 mt 1402 2710 L
 872 4170 mt  944 4170 L
 908 4134 mt  908 4206 L
 882 3748 mt  954 3748 L
 918 3712 mt  918 3784 L
2638  940 mt 2710  940 L
2674  904 mt 2674  976 L
 869 4601 mt  941 4601 L
 905 4565 mt  905 4637 L
2817 4147 mt 2889 4147 L
2853 4111 mt 2853 4183 L
1424 3769 mt 1496 3769 L
1460 3733 mt 1460 3805 L
2216 4578 mt 2288 4578 L
2252 4542 mt 2252 4614 L
 863 3928 mt  935 3928 L
 899 3892 mt  899 3964 L
 981 3777 mt 1053 3777 L
1017 3741 mt 1017 3813 L
 925 4575 mt  997 4575 L
 961 4539 mt  961 4611 L
4425 4402 mt 4497 4402 L
4461 4366 mt 4461 4438 L
1198 4517 mt 1270 4517 L
1234 4481 mt 1234 4553 L
1669 4164 mt 1741 4164 L
1705 4128 mt 1705 4200 L
 869 4489 mt  941 4489 L
 905 4453 mt  905 4525 L
1207 3855 mt 1279 3855 L
1243 3819 mt 1243 3891 L
 870 2099 mt  942 2099 L
 906 2063 mt  906 2135 L
1102 4579 mt 1174 4579 L
1138 4543 mt 1138 4615 L
 863 3656 mt  935 3656 L
 899 3620 mt  899 3692 L
2544 4570 mt 2616 4570 L
2580 4534 mt 2580 4606 L
1101 3457 mt 1173 3457 L
1137 3421 mt 1137 3493 L
1151 4544 mt 1223 4544 L
1187 4508 mt 1187 4580 L
 967 2968 mt 1039 2968 L
1003 2932 mt 1003 3004 L
 920 4609 mt  992 4609 L
 956 4573 mt  956 4645 L
2342 3231 mt 2414 3231 L
2378 3195 mt 2378 3267 L
 867 4587 mt  939 4587 L
 903 4551 mt  903 4623 L
1189 4551 mt 1261 4551 L
1225 4515 mt 1225 4587 L
1013 3971 mt 1085 3971 L
1049 3935 mt 1049 4007 L
 919 3008 mt  991 3008 L
 955 2972 mt  955 3044 L
1129 4534 mt 1201 4534 L
1165 4498 mt 1165 4570 L
 866 4020 mt  938 4020 L
 902 3984 mt  902 4056 L
2583 4310 mt 2655 4310 L
2619 4274 mt 2619 4346 L
 863 3224 mt  935 3224 L
 899 3188 mt  899 3260 L
1258 4209 mt 1330 4209 L
1294 4173 mt 1294 4245 L
 900 3830 mt  972 3830 L
 936 3794 mt  936 3866 L
 886 4583 mt  958 4583 L
 922 4547 mt  922 4619 L
1103 4615 mt 1175 4615 L
1139 4579 mt 1139 4651 L
 949 4594 mt 1021 4594 L
 985 4558 mt  985 4630 L
 877 4542 mt  949 4542 L
 913 4506 mt  913 4578 L
 865 4340 mt  937 4340 L
 901 4304 mt  901 4376 L
 864 4536 mt  936 4536 L
 900 4500 mt  900 4572 L
2021 4603 mt 2093 4603 L
2057 4567 mt 2057 4639 L
1503 4431 mt 1575 4431 L
1539 4395 mt 1539 4467 L
3230 4250 mt 3302 4250 L
3266 4214 mt 3266 4286 L
 864 3911 mt  936 3911 L
 900 3875 mt  900 3947 L
1785 4614 mt 1857 4614 L
1821 4578 mt 1821 4650 L
 973 4489 mt 1045 4489 L
1009 4453 mt 1009 4525 L
 987 3854 mt 1059 3854 L
1023 3818 mt 1023 3890 L
2147 3607 mt 2219 3607 L
2183 3571 mt 2183 3643 L
2055 2409 mt 2127 2409 L
2091 2373 mt 2091 2445 L
1371 4507 mt 1443 4507 L
1407 4471 mt 1407 4543 L
4531 3776 mt 4603 3776 L
4567 3740 mt 4567 3812 L
1750 4604 mt 1822 4604 L
1786 4568 mt 1786 4640 L
 919 4030 mt  991 4030 L
 955 3994 mt  955 4066 L
 865 4360 mt  937 4360 L
 901 4324 mt  901 4396 L
 908 4257 mt  980 4257 L
 944 4221 mt  944 4293 L
 864 4493 mt  936 4493 L
 900 4457 mt  900 4529 L
 967 4255 mt 1039 4255 L
1003 4219 mt 1003 4291 L
 872 4596 mt  944 4596 L
 908 4560 mt  908 4632 L
1074 3908 mt 1146 3908 L
1110 3872 mt 1110 3944 L
1147 4116 mt 1219 4116 L
1183 4080 mt 1183 4152 L
1028 4615 mt 1100 4615 L
1064 4579 mt 1064 4651 L
 868 4607 mt  940 4607 L
 904 4571 mt  904 4643 L
 918 3544 mt  990 3544 L
 954 3508 mt  954 3580 L
 946 3893 mt 1018 3893 L
 982 3857 mt  982 3929 L
1514 4523 mt 1586 4523 L
1550 4487 mt 1550 4559 L
1069 4582 mt 1141 4582 L
1105 4546 mt 1105 4618 L
3649 4418 mt 3721 4418 L
3685 4382 mt 3685 4454 L
 939 4039 mt 1011 4039 L
 975 4003 mt  975 4075 L
 920 3783 mt  992 3783 L
 956 3747 mt  956 3819 L
 863 4399 mt  935 4399 L
 899 4363 mt  899 4435 L
 897 2637 mt  969 2637 L
 933 2601 mt  933 2673 L
 863 4572 mt  935 4572 L
 899 4536 mt  899 4608 L
 888 4486 mt  960 4486 L
 924 4450 mt  924 4522 L
 892 4444 mt  964 4444 L
 928 4408 mt  928 4480 L
 890 2652 mt  962 2652 L
 926 2616 mt  926 2688 L
2192 4605 mt 2264 4605 L
2228 4569 mt 2228 4641 L
1344 3076 mt 1416 3076 L
1380 3040 mt 1380 3112 L
1610 4451 mt 1682 4451 L
1646 4415 mt 1646 4487 L
1851 4613 mt 1923 4613 L
1887 4577 mt 1887 4649 L
1169 4588 mt 1241 4588 L
1205 4552 mt 1205 4624 L
1151 4483 mt 1223 4483 L
1187 4447 mt 1187 4519 L
1244 4186 mt 1316 4186 L
1280 4150 mt 1280 4222 L
2419 1841 mt 2491 1841 L
2455 1805 mt 2455 1877 L
2452 3558 mt 2524 3558 L
2488 3522 mt 2488 3594 L
1068 4608 mt 1140 4608 L
1104 4572 mt 1104 4644 L
 935 4519 mt 1007 4519 L
 971 4483 mt  971 4555 L
1009 3923 mt 1081 3923 L
1045 3887 mt 1045 3959 L
1177 4603 mt 1249 4603 L
1213 4567 mt 1213 4639 L
2300 4577 mt 2372 4577 L
2336 4541 mt 2336 4613 L
 924 2646 mt  996 2646 L
 960 2610 mt  960 2682 L
 993 4355 mt 1065 4355 L
1029 4319 mt 1029 4391 L
1561 2257 mt 1633 2257 L
1597 2221 mt 1597 2293 L
 866 4616 mt  938 4616 L
 902 4580 mt  902 4652 L
1229 3076 mt 1301 3076 L
1265 3040 mt 1265 3112 L
 915 4163 mt  987 4163 L
 951 4127 mt  951 4199 L
3353 4196 mt 3425 4196 L
3389 4160 mt 3389 4232 L
1386 3538 mt 1458 3538 L
1422 3502 mt 1422 3574 L
 880 4437 mt  952 4437 L
 916 4401 mt  916 4473 L
 867 4341 mt  939 4341 L
 903 4305 mt  903 4377 L
 996 4344 mt 1068 4344 L
1032 4308 mt 1032 4380 L
gs 898 414 5363 4203 rc
gr

0 sg
2798 5104 mt 
(\(F,DCTs,iMLP\)) s
 288 3277 mt  -90 rotate
(\(S,SSC,GMM\)) s
90 rotate
2974  223 mt 
(Corr = 0.02) s

end %%Color Dict

eplot
%%EndObject

epage
end

showpage

%%Trailer
%%EOF
