%!PS-Adobe-3.0 EPSF-3.0
%%Creator: MATLAB, The Mathworks, Inc. Version 7.7.0.471 (R2008b). Operating System: Microsoft Windows XP.
%%Title: Pictures\main_zoo_mvar_analysis_data_BMI_xcorr_bmi_p1_k1_1_7.eps
%%CreationDate: 10/26/2009  05:43:52
%%DocumentNeededFonts: Helvetica
%%DocumentProcessColors: Cyan Magenta Yellow Black
%%LanguageLevel: 2
%%Pages: 1
%%BoundingBox:    32   180   551   616
%%EndComments

%%BeginProlog
% MathWorks dictionary
/MathWorks 160 dict begin
% definition operators
/bdef {bind def} bind def
/ldef {load def} bind def
/xdef {exch def} bdef
/xstore {exch store} bdef
% operator abbreviations
/c  /clip ldef
/cc /concat ldef
/cp /closepath ldef
/gr /grestore ldef
/gs /gsave ldef
/mt /moveto ldef
/np /newpath ldef
/cm /currentmatrix ldef
/sm /setmatrix ldef
/rm /rmoveto ldef
/rl /rlineto ldef
/s {show newpath} bdef
/sc {setcmykcolor} bdef
/sr /setrgbcolor ldef
/sg /setgray ldef
/w /setlinewidth ldef
/j /setlinejoin ldef
/cap /setlinecap ldef
/rc {rectclip} bdef
/rf {rectfill} bdef
% page state control
/pgsv () def
/bpage {/pgsv save def} bdef
/epage {pgsv restore} bdef
/bplot /gsave ldef
/eplot {stroke grestore} bdef
% orientation switch
/portraitMode 0 def /landscapeMode 1 def /rotateMode 2 def
% coordinate system mappings
/dpi2point 0 def
% font control
/FontSize 0 def
/FMS {/FontSize xstore findfont [FontSize 0 0 FontSize neg 0 0]
  makefont setfont} bdef
/ISOLatin1Encoding where {pop /WindowsLatin1Encoding 256 array bdef
ISOLatin1Encoding WindowsLatin1Encoding copy pop
/.notdef/.notdef/quotesinglbase/florin/quotedblbase/ellipsis/dagger
/daggerdbl/circumflex/perthousand/Scaron/guilsinglleft/OE/.notdef/.notdef
/.notdef/.notdef/quoteleft/quoteright/quotedblleft/quotedblright/bullet
/endash/emdash/tilde/trademark/scaron/guilsinglright/oe/.notdef/.notdef
/Ydieresis WindowsLatin1Encoding 128 32 getinterval astore pop}
{/WindowsLatin1Encoding StandardEncoding bdef} ifelse
/reencode {exch dup where {pop load} {pop StandardEncoding} ifelse
  exch dup 3 1 roll findfont dup length dict begin
  { 1 index /FID ne {def}{pop pop} ifelse } forall
  /Encoding exch def currentdict end definefont pop} bdef
/isroman {findfont /CharStrings get /Agrave known} bdef
/FMSR {3 1 roll 1 index dup isroman {reencode} {pop pop} ifelse
  exch FMS} bdef
/csm {1 dpi2point div -1 dpi2point div scale neg translate
 dup landscapeMode eq {pop -90 rotate}
  {rotateMode eq {90 rotate} if} ifelse} bdef
% line types: solid, dotted, dashed, dotdash
/SO { [] 0 setdash } bdef
/DO { [.5 dpi2point mul 4 dpi2point mul] 0 setdash } bdef
/DA { [6 dpi2point mul] 0 setdash } bdef
/DD { [.5 dpi2point mul 4 dpi2point mul 6 dpi2point mul 4
  dpi2point mul] 0 setdash } bdef
% macros for lines and objects
/L {lineto stroke} bdef
/MP {3 1 roll moveto 1 sub {rlineto} repeat} bdef
/AP {{rlineto} repeat} bdef
/PDlw -1 def
/W {/PDlw currentlinewidth def setlinewidth} def
/PP {closepath eofill} bdef
/DP {closepath stroke} bdef
/MR {4 -2 roll moveto dup  0 exch rlineto exch 0 rlineto
  neg 0 exch rlineto closepath} bdef
/FR {MR stroke} bdef
/PR {MR fill} bdef
/L1i {{currentfile picstr readhexstring pop} image} bdef
/tMatrix matrix def
/MakeOval {newpath tMatrix currentmatrix pop translate scale
0 0 1 0 360 arc tMatrix setmatrix} bdef
/FO {MakeOval stroke} bdef
/PO {MakeOval fill} bdef
/PD {currentlinewidth 2 div 0 360 arc fill
   PDlw -1 eq not {PDlw w /PDlw -1 def} if} def
/FA {newpath tMatrix currentmatrix pop translate scale
  0 0 1 5 -2 roll arc tMatrix setmatrix stroke} bdef
/PA {newpath tMatrix currentmatrix pop	translate 0 0 moveto scale
  0 0 1 5 -2 roll arc closepath tMatrix setmatrix fill} bdef
/FAn {newpath tMatrix currentmatrix pop translate scale
  0 0 1 5 -2 roll arcn tMatrix setmatrix stroke} bdef
/PAn {newpath tMatrix currentmatrix pop translate 0 0 moveto scale
  0 0 1 5 -2 roll arcn closepath tMatrix setmatrix fill} bdef
/vradius 0 def /hradius 0 def /lry 0 def
/lrx 0 def /uly 0 def /ulx 0 def /rad 0 def
/MRR {/vradius xdef /hradius xdef /lry xdef /lrx xdef /uly xdef
  /ulx xdef newpath tMatrix currentmatrix pop ulx hradius add uly
  vradius add translate hradius vradius scale 0 0 1 180 270 arc 
  tMatrix setmatrix lrx hradius sub uly vradius add translate
  hradius vradius scale 0 0 1 270 360 arc tMatrix setmatrix
  lrx hradius sub lry vradius sub translate hradius vradius scale
  0 0 1 0 90 arc tMatrix setmatrix ulx hradius add lry vradius sub
  translate hradius vradius scale 0 0 1 90 180 arc tMatrix setmatrix
  closepath} bdef
/FRR {MRR stroke } bdef
/PRR {MRR fill } bdef
/MlrRR {/lry xdef /lrx xdef /uly xdef /ulx xdef /rad lry uly sub 2 div def
  newpath tMatrix currentmatrix pop ulx rad add uly rad add translate
  rad rad scale 0 0 1 90 270 arc tMatrix setmatrix lrx rad sub lry rad
  sub translate rad rad scale 0 0 1 270 90 arc tMatrix setmatrix
  closepath} bdef
/FlrRR {MlrRR stroke } bdef
/PlrRR {MlrRR fill } bdef
/MtbRR {/lry xdef /lrx xdef /uly xdef /ulx xdef /rad lrx ulx sub 2 div def
  newpath tMatrix currentmatrix pop ulx rad add uly rad add translate
  rad rad scale 0 0 1 180 360 arc tMatrix setmatrix lrx rad sub lry rad
  sub translate rad rad scale 0 0 1 0 180 arc tMatrix setmatrix
  closepath} bdef
/FtbRR {MtbRR stroke } bdef
/PtbRR {MtbRR fill } bdef
/stri 6 array def /dtri 6 array def
/smat 6 array def /dmat 6 array def
/tmat1 6 array def /tmat2 6 array def /dif 3 array def
/asub {/ind2 exch def /ind1 exch def dup dup
  ind1 get exch ind2 get sub exch } bdef
/tri_to_matrix {
  2 0 asub 3 1 asub 4 0 asub 5 1 asub
  dup 0 get exch 1 get 7 -1 roll astore } bdef
/compute_transform {
  dmat dtri tri_to_matrix tmat1 invertmatrix 
  smat stri tri_to_matrix tmat2 concatmatrix } bdef
/ds {stri astore pop} bdef
/dt {dtri astore pop} bdef
/db {2 copy /cols xdef /rows xdef mul dup 3 mul string
  currentfile 
  3 index 0 eq {/ASCIIHexDecode filter}
  {/ASCII85Decode filter 3 index 2 eq {/RunLengthDecode filter} if }
  ifelse exch readstring pop
  dup 0 3 index getinterval /rbmap xdef
  dup 2 index dup getinterval /gbmap xdef
  1 index dup 2 mul exch getinterval /bbmap xdef pop pop}bdef
/it {gs np dtri aload pop moveto lineto lineto cp c
  cols rows 8 compute_transform 
  rbmap gbmap bbmap true 3 colorimage gr}bdef
/il {newpath moveto lineto stroke}bdef
currentdict end def
%%EndProlog

%%BeginSetup
MathWorks begin

0 cap

end
%%EndSetup

%%Page: 1 1
%%BeginPageSetup
%%PageBoundingBox:    32   180   551   616
MathWorks begin
bpage
%%EndPageSetup

%%BeginObject: obj1
bplot

/dpi2point 12 def
portraitMode 0216 7344 csm

  174   -48  6229  5231 rc
85 dict begin %Colortable dictionary
/c0 { 0.000000 0.000000 0.000000 sr} bdef
/c1 { 1.000000 1.000000 1.000000 sr} bdef
/c2 { 0.900000 0.000000 0.000000 sr} bdef
/c3 { 0.000000 0.820000 0.000000 sr} bdef
/c4 { 0.000000 0.000000 0.800000 sr} bdef
/c5 { 0.910000 0.820000 0.320000 sr} bdef
/c6 { 1.000000 0.260000 0.820000 sr} bdef
/c7 { 0.000000 0.820000 0.820000 sr} bdef
c0
1 j
1 sg
   0    0 6919 5187 rf
6 w
0 4202 5362 0 0 -4202 899 4616 4 MP
PP
-5362 0 0 4202 5362 0 0 -4202 899 4616 5 MP stroke
4 w
DO
SO
6 w
0 sg
 899  414 mt 6261  414 L
 899 4616 mt 6261 4616 L
6261 4616 mt 6261  414 L
 899 4616 mt  899  414 L
 899 4616 mt 6261 4616 L
 899 4616 mt  899  414 L
1780 4616 mt 1780 4562 L
1780  414 mt 1780  467 L
%%IncludeResource: font Helvetica
/Helvetica /WindowsLatin1Encoding 240 FMSR

1614 4873 mt 
(0.1) s
2661 4616 mt 2661 4562 L
2661  414 mt 2661  467 L
2495 4873 mt 
(0.2) s
3543 4616 mt 3543 4562 L
3543  414 mt 3543  467 L
3377 4873 mt 
(0.3) s
4424 4616 mt 4424 4562 L
4424  414 mt 4424  467 L
4258 4873 mt 
(0.4) s
5305 4616 mt 5305 4562 L
5305  414 mt 5305  467 L
5139 4873 mt 
(0.5) s
6187 4616 mt 6187 4562 L
6187  414 mt 6187  467 L
6021 4873 mt 
(0.6) s
 899 4104 mt  952 4104 L
6261 4104 mt 6207 4104 L
 531 4193 mt 
(0.1) s
 899 3593 mt  952 3593 L
6261 3593 mt 6207 3593 L
 531 3682 mt 
(0.2) s
 899 3081 mt  952 3081 L
6261 3081 mt 6207 3081 L
 531 3170 mt 
(0.3) s
 899 2570 mt  952 2570 L
6261 2570 mt 6207 2570 L
 531 2659 mt 
(0.4) s
 899 2058 mt  952 2058 L
6261 2058 mt 6207 2058 L
 531 2147 mt 
(0.5) s
 899 1547 mt  952 1547 L
6261 1547 mt 6207 1547 L
 531 1636 mt 
(0.6) s
 899 1036 mt  952 1036 L
6261 1036 mt 6207 1036 L
 531 1125 mt 
(0.7) s
 899  524 mt  952  524 L
6261  524 mt 6207  524 L
 531  613 mt 
(0.8) s
 899  414 mt 6261  414 L
 899 4616 mt 6261 4616 L
6261 4616 mt 6261  414 L
 899 4616 mt  899  414 L
gs 899 414 5363 4203 rc
gr

/c8 { 0.000000 0.000000 1.000000 sr} bdef
c8
3752 1576 mt 3824 1576 L
3788 1540 mt 3788 1612 L
 957 4500 mt 1029 4500 L
 993 4464 mt  993 4536 L
2642 4605 mt 2714 4605 L
2678 4569 mt 2678 4641 L
1600 4615 mt 1672 4615 L
1636 4579 mt 1636 4651 L
 865 4261 mt  937 4261 L
 901 4225 mt  901 4297 L
2972 4589 mt 3044 4589 L
3008 4553 mt 3008 4625 L
1286 4469 mt 1358 4469 L
1322 4433 mt 1322 4505 L
1206 4561 mt 1278 4561 L
1242 4525 mt 1242 4597 L
4075 4612 mt 4147 4612 L
4111 4576 mt 4111 4648 L
4851 4357 mt 4923 4357 L
4887 4321 mt 4887 4393 L
1125 4511 mt 1197 4511 L
1161 4475 mt 1161 4547 L
 865 4314 mt  937 4314 L
 901 4278 mt  901 4350 L
1333 4251 mt 1405 4251 L
1369 4215 mt 1369 4287 L
1109 3581 mt 1181 3581 L
1145 3545 mt 1145 3617 L
3199 4610 mt 3271 4610 L
3235 4574 mt 3235 4646 L
3649 2836 mt 3721 2836 L
3685 2800 mt 3685 2872 L
1154 1225 mt 1226 1225 L
1190 1189 mt 1190 1261 L
1315 4524 mt 1387 4524 L
1351 4488 mt 1351 4560 L
 928 4493 mt 1000 4493 L
 964 4457 mt  964 4529 L
2519 3968 mt 2591 3968 L
2555 3932 mt 2555 4004 L
3599 4525 mt 3671 4525 L
3635 4489 mt 3635 4561 L
1332 4582 mt 1404 4582 L
1368 4546 mt 1368 4618 L
 954 4561 mt 1026 4561 L
 990 4525 mt  990 4597 L
1295 4543 mt 1367 4543 L
1331 4507 mt 1331 4579 L
5473 3206 mt 5545 3206 L
5509 3170 mt 5509 3242 L
1820 4338 mt 1892 4338 L
1856 4302 mt 1856 4374 L
1429 4255 mt 1501 4255 L
1465 4219 mt 1465 4291 L
3458 4595 mt 3530 4595 L
3494 4559 mt 3494 4631 L
 863 4615 mt  935 4615 L
 899 4579 mt  899 4651 L
1905 4514 mt 1977 4514 L
1941 4478 mt 1941 4550 L
 883 4564 mt  955 4564 L
 919 4528 mt  919 4600 L
1810 4371 mt 1882 4371 L
1846 4335 mt 1846 4407 L
1565 4575 mt 1637 4575 L
1601 4539 mt 1601 4611 L
 866 4341 mt  938 4341 L
 902 4305 mt  902 4377 L
1974 4571 mt 2046 4571 L
2010 4535 mt 2010 4607 L
 973 4501 mt 1045 4501 L
1009 4465 mt 1009 4537 L
2959 4404 mt 3031 4404 L
2995 4368 mt 2995 4440 L
1845 4118 mt 1917 4118 L
1881 4082 mt 1881 4154 L
1190 3158 mt 1262 3158 L
1226 3122 mt 1226 3194 L
1522 3753 mt 1594 3753 L
1558 3717 mt 1558 3789 L
 868 4521 mt  940 4521 L
 904 4485 mt  904 4557 L
1076 4568 mt 1148 4568 L
1112 4532 mt 1112 4604 L
1134 3851 mt 1206 3851 L
1170 3815 mt 1170 3887 L
3748 4155 mt 3820 4155 L
3784 4119 mt 3784 4191 L
5783 4496 mt 5855 4496 L
5819 4460 mt 5819 4532 L
 961 4614 mt 1033 4614 L
 997 4578 mt  997 4650 L
1131 2852 mt 1203 2852 L
1167 2816 mt 1167 2888 L
1480 4457 mt 1552 4457 L
1516 4421 mt 1516 4493 L
3989 4124 mt 4061 4124 L
4025 4088 mt 4025 4160 L
 907 4610 mt  979 4610 L
 943 4574 mt  943 4646 L
3190 4003 mt 3262 4003 L
3226 3967 mt 3226 4039 L
1169 4396 mt 1241 4396 L
1205 4360 mt 1205 4432 L
1586 4435 mt 1658 4435 L
1622 4399 mt 1622 4471 L
1387 4609 mt 1459 4609 L
1423 4573 mt 1423 4645 L
3538 3611 mt 3610 3611 L
3574 3575 mt 3574 3647 L
 888 4564 mt  960 4564 L
 924 4528 mt  924 4600 L
 876 4259 mt  948 4259 L
 912 4223 mt  912 4295 L
1748 4605 mt 1820 4605 L
1784 4569 mt 1784 4641 L
4388 4320 mt 4460 4320 L
4424 4284 mt 4424 4356 L
1035 4489 mt 1107 4489 L
1071 4453 mt 1071 4525 L
2500 3952 mt 2572 3952 L
2536 3916 mt 2536 3988 L
3723 2926 mt 3795 2926 L
3759 2890 mt 3759 2962 L
 868 4484 mt  940 4484 L
 904 4448 mt  904 4520 L
3553 4492 mt 3625 4492 L
3589 4456 mt 3589 4528 L
3201 4599 mt 3273 4599 L
3237 4563 mt 3237 4635 L
 863 4303 mt  935 4303 L
 899 4267 mt  899 4339 L
3218 4569 mt 3290 4569 L
3254 4533 mt 3254 4605 L
 960 4213 mt 1032 4213 L
 996 4177 mt  996 4249 L
 944 4512 mt 1016 4512 L
 980 4476 mt  980 4548 L
1609 4609 mt 1681 4609 L
1645 4573 mt 1645 4645 L
3962 4612 mt 4034 4612 L
3998 4576 mt 3998 4648 L
3025 4491 mt 3097 4491 L
3061 4455 mt 3061 4527 L
5255 4609 mt 5327 4609 L
5291 4573 mt 5291 4645 L
1221 4513 mt 1293 4513 L
1257 4477 mt 1257 4549 L
2596 4155 mt 2668 4155 L
2632 4119 mt 2632 4191 L
 866 4100 mt  938 4100 L
 902 4064 mt  902 4136 L
4067 4573 mt 4139 4573 L
4103 4537 mt 4103 4609 L
1138 4506 mt 1210 4506 L
1174 4470 mt 1174 4542 L
1113 4180 mt 1185 4180 L
1149 4144 mt 1149 4216 L
4545 4008 mt 4617 4008 L
4581 3972 mt 4581 4044 L
2705 4434 mt 2777 4434 L
2741 4398 mt 2741 4470 L
1609 4610 mt 1681 4610 L
1645 4574 mt 1645 4646 L
2137 4110 mt 2209 4110 L
2173 4074 mt 2173 4146 L
 869 4614 mt  941 4614 L
 905 4578 mt  905 4650 L
5209 3584 mt 5281 3584 L
5245 3548 mt 5245 3620 L
1421 4611 mt 1493 4611 L
1457 4575 mt 1457 4647 L
2269 4615 mt 2341 4615 L
2305 4579 mt 2305 4651 L
4996 4569 mt 5068 4569 L
5032 4533 mt 5032 4605 L
 995 4615 mt 1067 4615 L
1031 4579 mt 1031 4651 L
5078 3966 mt 5150 3966 L
5114 3930 mt 5114 4002 L
1928 4450 mt 2000 4450 L
1964 4414 mt 1964 4486 L
1616 4596 mt 1688 4596 L
1652 4560 mt 1652 4632 L
 867 4614 mt  939 4614 L
 903 4578 mt  903 4650 L
1058 3639 mt 1130 3639 L
1094 3603 mt 1094 3675 L
2892 4513 mt 2964 4513 L
2928 4477 mt 2928 4549 L
2279 3944 mt 2351 3944 L
2315 3908 mt 2315 3980 L
4504 4432 mt 4576 4432 L
4540 4396 mt 4540 4468 L
4166 4539 mt 4238 4539 L
4202 4503 mt 4202 4575 L
4425 4354 mt 4497 4354 L
4461 4318 mt 4461 4390 L
4146 4602 mt 4218 4602 L
4182 4566 mt 4182 4638 L
1521  414 mt 1593  414 L
1557  378 mt 1557  450 L
 898 4450 mt  970 4450 L
 934 4414 mt  934 4486 L
4313 4262 mt 4385 4262 L
4349 4226 mt 4349 4298 L
2295 4607 mt 2367 4607 L
2331 4571 mt 2331 4643 L
6056 3854 mt 6128 3854 L
6092 3818 mt 6092 3890 L
 963 4353 mt 1035 4353 L
 999 4317 mt  999 4389 L
2224 4610 mt 2296 4610 L
2260 4574 mt 2260 4646 L
1159 3641 mt 1231 3641 L
1195 3605 mt 1195 3677 L
 868 4284 mt  940 4284 L
 904 4248 mt  904 4320 L
3102 4615 mt 3174 4615 L
3138 4579 mt 3138 4651 L
5354 4527 mt 5426 4527 L
5390 4491 mt 5390 4563 L
1533 4606 mt 1605 4606 L
1569 4570 mt 1569 4642 L
1414 4074 mt 1486 4074 L
1450 4038 mt 1450 4110 L
 866 4436 mt  938 4436 L
 902 4400 mt  902 4472 L
1240 4597 mt 1312 4597 L
1276 4561 mt 1276 4633 L
 900 4264 mt  972 4264 L
 936 4228 mt  936 4300 L
1112 4589 mt 1184 4589 L
1148 4553 mt 1148 4625 L
1099 4321 mt 1171 4321 L
1135 4285 mt 1135 4357 L
2221 4505 mt 2293 4505 L
2257 4469 mt 2257 4541 L
1040 4580 mt 1112 4580 L
1076 4544 mt 1076 4616 L
4678 4494 mt 4750 4494 L
4714 4458 mt 4714 4530 L
2111 4593 mt 2183 4593 L
2147 4557 mt 2147 4629 L
 943 4575 mt 1015 4575 L
 979 4539 mt  979 4611 L
1378 3911 mt 1450 3911 L
1414 3875 mt 1414 3947 L
 956 3803 mt 1028 3803 L
 992 3767 mt  992 3839 L
3381 4095 mt 3453 4095 L
3417 4059 mt 3417 4131 L
1088 4531 mt 1160 4531 L
1124 4495 mt 1124 4567 L
1410 4568 mt 1482 4568 L
1446 4532 mt 1446 4604 L
1618 4612 mt 1690 4612 L
1654 4576 mt 1654 4648 L
2229 4196 mt 2301 4196 L
2265 4160 mt 2265 4232 L
4322 4609 mt 4394 4609 L
4358 4573 mt 4358 4645 L
 863 3026 mt  935 3026 L
 899 2990 mt  899 3062 L
1169 4608 mt 1241 4608 L
1205 4572 mt 1205 4644 L
 876 4615 mt  948 4615 L
 912 4579 mt  912 4651 L
 919 4600 mt  991 4600 L
 955 4564 mt  955 4636 L
1291 4335 mt 1363 4335 L
1327 4299 mt 1327 4371 L
 949 4602 mt 1021 4602 L
 985 4566 mt  985 4638 L
 881 4341 mt  953 4341 L
 917 4305 mt  917 4377 L
 863 3811 mt  935 3811 L
 899 3775 mt  899 3847 L
1072 4407 mt 1144 4407 L
1108 4371 mt 1108 4443 L
 907 4605 mt  979 4605 L
 943 4569 mt  943 4641 L
1365 4286 mt 1437 4286 L
1401 4250 mt 1401 4322 L
3283 4274 mt 3355 4274 L
3319 4238 mt 3319 4310 L
1038 4307 mt 1110 4307 L
1074 4271 mt 1074 4343 L
1935 4550 mt 2007 4550 L
1971 4514 mt 1971 4586 L
3282 4608 mt 3354 4608 L
3318 4572 mt 3318 4644 L
 871 3437 mt  943 3437 L
 907 3401 mt  907 3473 L
2691 3228 mt 2763 3228 L
2727 3192 mt 2727 3264 L
4725 4061 mt 4797 4061 L
4761 4025 mt 4761 4097 L
 863 3783 mt  935 3783 L
 899 3747 mt  899 3819 L
3889 4583 mt 3961 4583 L
3925 4547 mt 3925 4619 L
1255 4495 mt 1327 4495 L
1291 4459 mt 1291 4531 L
 871 4556 mt  943 4556 L
 907 4520 mt  907 4592 L
1435 4244 mt 1507 4244 L
1471 4208 mt 1471 4280 L
 903 3309 mt  975 3309 L
 939 3273 mt  939 3345 L
1587 4615 mt 1659 4615 L
1623 4579 mt 1623 4651 L
1856 4414 mt 1928 4414 L
1892 4378 mt 1892 4450 L
2451 3283 mt 2523 3283 L
2487 3247 mt 2487 3319 L
1016 4431 mt 1088 4431 L
1052 4395 mt 1052 4467 L
4008 4606 mt 4080 4606 L
4044 4570 mt 4044 4642 L
3021 4311 mt 3093 4311 L
3057 4275 mt 3057 4347 L
1966 4425 mt 2038 4425 L
2002 4389 mt 2002 4461 L
3174 4443 mt 3246 4443 L
3210 4407 mt 3210 4479 L
1021 4274 mt 1093 4274 L
1057 4238 mt 1057 4310 L
4459 4523 mt 4531 4523 L
4495 4487 mt 4495 4559 L
1177 4421 mt 1249 4421 L
1213 4385 mt 1213 4457 L
2507 3710 mt 2579 3710 L
2543 3674 mt 2543 3746 L
3995 4117 mt 4067 4117 L
4031 4081 mt 4031 4153 L
 910 4550 mt  982 4550 L
 946 4514 mt  946 4586 L
 953 4526 mt 1025 4526 L
 989 4490 mt  989 4562 L
1217 3215 mt 1289 3215 L
1253 3179 mt 1253 3251 L
2961 4255 mt 3033 4255 L
2997 4219 mt 2997 4291 L
 996 4414 mt 1068 4414 L
1032 4378 mt 1032 4450 L
1322 4578 mt 1394 4578 L
1358 4542 mt 1358 4614 L
1783 3923 mt 1855 3923 L
1819 3887 mt 1819 3959 L
 894 4612 mt  966 4612 L
 930 4576 mt  930 4648 L
 975 4208 mt 1047 4208 L
1011 4172 mt 1011 4244 L
5720 4489 mt 5792 4489 L
5756 4453 mt 5756 4525 L
1658 4326 mt 1730 4326 L
1694 4290 mt 1694 4362 L
2043 4608 mt 2115 4608 L
2079 4572 mt 2079 4644 L
1536 4356 mt 1608 4356 L
1572 4320 mt 1572 4392 L
2452 4316 mt 2524 4316 L
2488 4280 mt 2488 4352 L
 868 3331 mt  940 3331 L
 904 3295 mt  904 3367 L
1428 4591 mt 1500 4591 L
1464 4555 mt 1464 4627 L
 905 4604 mt  977 4604 L
 941 4568 mt  941 4640 L
 869 4612 mt  941 4612 L
 905 4576 mt  905 4648 L
1801 4605 mt 1873 4605 L
1837 4569 mt 1837 4641 L
1333 4613 mt 1405 4613 L
1369 4577 mt 1369 4649 L
 906 2454 mt  978 2454 L
 942 2418 mt  942 2490 L
2101 3801 mt 2173 3801 L
2137 3765 mt 2137 3837 L
 874 3371 mt  946 3371 L
 910 3335 mt  910 3407 L
 868 4552 mt  940 4552 L
 904 4516 mt  904 4588 L
 872 4222 mt  944 4222 L
 908 4186 mt  908 4258 L
4463 4590 mt 4535 4590 L
4499 4554 mt 4499 4626 L
2323 4600 mt 2395 4600 L
2359 4564 mt 2359 4636 L
2217 1998 mt 2289 1998 L
2253 1962 mt 2253 2034 L
 911 3937 mt  983 3937 L
 947 3901 mt  947 3973 L
1110 2992 mt 1182 2992 L
1146 2956 mt 1146 3028 L
 943 4579 mt 1015 4579 L
 979 4543 mt  979 4615 L
3124 4376 mt 3196 4376 L
3160 4340 mt 3160 4412 L
2742 1362 mt 2814 1362 L
2778 1326 mt 2778 1398 L
1637 3192 mt 1709 3192 L
1673 3156 mt 1673 3228 L
4537 4582 mt 4609 4582 L
4573 4546 mt 4573 4618 L
1076 4423 mt 1148 4423 L
1112 4387 mt 1112 4459 L
 864 4593 mt  936 4593 L
 900 4557 mt  900 4629 L
2266 3915 mt 2338 3915 L
2302 3879 mt 2302 3951 L
1578 4245 mt 1650 4245 L
1614 4209 mt 1614 4281 L
1478 4253 mt 1550 4253 L
1514 4217 mt 1514 4289 L
5353 4555 mt 5425 4555 L
5389 4519 mt 5389 4591 L
4400 3492 mt 4472 3492 L
4436 3456 mt 4436 3528 L
2033 4577 mt 2105 4577 L
2069 4541 mt 2069 4613 L
 888 4487 mt  960 4487 L
 924 4451 mt  924 4523 L
2385 4508 mt 2457 4508 L
2421 4472 mt 2421 4544 L
1085 2110 mt 1157 2110 L
1121 2074 mt 1121 2146 L
2875 4446 mt 2947 4446 L
2911 4410 mt 2911 4482 L
4956 2097 mt 5028 2097 L
4992 2061 mt 4992 2133 L
2027 1218 mt 2099 1218 L
2063 1182 mt 2063 1254 L
 951 4320 mt 1023 4320 L
 987 4284 mt  987 4356 L
 975 4027 mt 1047 4027 L
1011 3991 mt 1011 4063 L
2487 3743 mt 2559 3743 L
2523 3707 mt 2523 3779 L
3251 4615 mt 3323 4615 L
3287 4579 mt 3287 4651 L
1842 4161 mt 1914 4161 L
1878 4125 mt 1878 4197 L
 956 4394 mt 1028 4394 L
 992 4358 mt  992 4430 L
2006 4598 mt 2078 4598 L
2042 4562 mt 2042 4634 L
1985 3498 mt 2057 3498 L
2021 3462 mt 2021 3534 L
1798 4188 mt 1870 4188 L
1834 4152 mt 1834 4224 L
2126 4397 mt 2198 4397 L
2162 4361 mt 2162 4433 L
2882 3949 mt 2954 3949 L
2918 3913 mt 2918 3985 L
1595 4511 mt 1667 4511 L
1631 4475 mt 1631 4547 L
1020 4332 mt 1092 4332 L
1056 4296 mt 1056 4368 L
 900 3994 mt  972 3994 L
 936 3958 mt  936 4030 L
1555 4616 mt 1627 4616 L
1591 4580 mt 1591 4652 L
2118 4567 mt 2190 4567 L
2154 4531 mt 2154 4603 L
1165 3661 mt 1237 3661 L
1201 3625 mt 1201 3697 L
1248 4609 mt 1320 4609 L
1284 4573 mt 1284 4645 L
1410 4615 mt 1482 4615 L
1446 4579 mt 1446 4651 L
2593 4590 mt 2665 4590 L
2629 4554 mt 2629 4626 L
3758 2622 mt 3830 2622 L
3794 2586 mt 3794 2658 L
1530 3093 mt 1602 3093 L
1566 3057 mt 1566 3129 L
 869 4229 mt  941 4229 L
 905 4193 mt  905 4265 L
1178 4179 mt 1250 4179 L
1214 4143 mt 1214 4215 L
1253 4079 mt 1325 4079 L
1289 4043 mt 1289 4115 L
1486 4308 mt 1558 4308 L
1522 4272 mt 1522 4344 L
4673 4598 mt 4745 4598 L
4709 4562 mt 4709 4634 L
6225 4609 mt 6297 4609 L
6261 4573 mt 6261 4645 L
1707 4508 mt 1779 4508 L
1743 4472 mt 1743 4544 L
1148 2419 mt 1220 2419 L
1184 2383 mt 1184 2455 L
2347 4586 mt 2419 4586 L
2383 4550 mt 2383 4622 L
4001 3559 mt 4073 3559 L
4037 3523 mt 4037 3595 L
1039 4581 mt 1111 4581 L
1075 4545 mt 1075 4617 L
3478 4106 mt 3550 4106 L
3514 4070 mt 3514 4142 L
1352 4220 mt 1424 4220 L
1388 4184 mt 1388 4256 L
1080 4599 mt 1152 4599 L
1116 4563 mt 1116 4635 L
1701 4609 mt 1773 4609 L
1737 4573 mt 1737 4645 L
2998 4165 mt 3070 4165 L
3034 4129 mt 3034 4201 L
1019 4246 mt 1091 4246 L
1055 4210 mt 1055 4282 L
1027 4598 mt 1099 4598 L
1063 4562 mt 1063 4634 L
2140 4557 mt 2212 4557 L
2176 4521 mt 2176 4593 L
4395 3791 mt 4467 3791 L
4431 3755 mt 4431 3827 L
1092 4215 mt 1164 4215 L
1128 4179 mt 1128 4251 L
2239 3948 mt 2311 3948 L
2275 3912 mt 2275 3984 L
3274 3811 mt 3346 3811 L
3310 3775 mt 3310 3847 L
1313 4582 mt 1385 4582 L
1349 4546 mt 1349 4618 L
4984 4484 mt 5056 4484 L
5020 4448 mt 5020 4520 L
 863 4505 mt  935 4505 L
 899 4469 mt  899 4541 L
 922 4592 mt  994 4592 L
 958 4556 mt  958 4628 L
1583 4599 mt 1655 4599 L
1619 4563 mt 1619 4635 L
 901 3299 mt  973 3299 L
 937 3263 mt  937 3335 L
1164 4607 mt 1236 4607 L
1200 4571 mt 1200 4643 L
 882 4510 mt  954 4510 L
 918 4474 mt  918 4546 L
4257 4426 mt 4329 4426 L
4293 4390 mt 4293 4462 L
2607 3726 mt 2679 3726 L
2643 3690 mt 2643 3762 L
5354 4587 mt 5426 4587 L
5390 4551 mt 5390 4623 L
 931 4576 mt 1003 4576 L
 967 4540 mt  967 4612 L
2831 4588 mt 2903 4588 L
2867 4552 mt 2867 4624 L
1725 4168 mt 1797 4168 L
1761 4132 mt 1761 4204 L
4496 4191 mt 4568 4191 L
4532 4155 mt 4532 4227 L
 917 4614 mt  989 4614 L
 953 4578 mt  953 4650 L
1702 4611 mt 1774 4611 L
1738 4575 mt 1738 4647 L
5247 4275 mt 5319 4275 L
5283 4239 mt 5283 4311 L
3458 4336 mt 3530 4336 L
3494 4300 mt 3494 4372 L
1974 4611 mt 2046 4611 L
2010 4575 mt 2010 4647 L
2182 3369 mt 2254 3369 L
2218 3333 mt 2218 3405 L
1286 4468 mt 1358 4468 L
1322 4432 mt 1322 4504 L
4071 2859 mt 4143 2859 L
4107 2823 mt 4107 2895 L
1885 4598 mt 1957 4598 L
1921 4562 mt 1921 4634 L
3256 4519 mt 3328 4519 L
3292 4483 mt 3292 4555 L
4450 4442 mt 4522 4442 L
4486 4406 mt 4486 4478 L
 891 4457 mt  963 4457 L
 927 4421 mt  927 4493 L
4364 4414 mt 4436 4414 L
4400 4378 mt 4400 4450 L
2288 4086 mt 2360 4086 L
2324 4050 mt 2324 4122 L
2192 4356 mt 2264 4356 L
2228 4320 mt 2228 4392 L
 926 4578 mt  998 4578 L
 962 4542 mt  962 4614 L
3509 2849 mt 3581 2849 L
3545 2813 mt 3545 2885 L
2428 4586 mt 2500 4586 L
2464 4550 mt 2464 4622 L
1510 4552 mt 1582 4552 L
1546 4516 mt 1546 4588 L
3550 4610 mt 3622 4610 L
3586 4574 mt 3586 4646 L
4625 4603 mt 4697 4603 L
4661 4567 mt 4661 4639 L
4936 4615 mt 5008 4615 L
4972 4579 mt 4972 4651 L
3793 4604 mt 3865 4604 L
3829 4568 mt 3829 4640 L
1752  578 mt 1824  578 L
1788  542 mt 1788  614 L
1344 4597 mt 1416 4597 L
1380 4561 mt 1380 4633 L
4946 3278 mt 5018 3278 L
4982 3242 mt 4982 3314 L
1887 4486 mt 1959 4486 L
1923 4450 mt 1923 4522 L
4490 4382 mt 4562 4382 L
4526 4346 mt 4526 4418 L
1540 4250 mt 1612 4250 L
1576 4214 mt 1576 4286 L
2476 4446 mt 2548 4446 L
2512 4410 mt 2512 4482 L
1279 2979 mt 1351 2979 L
1315 2943 mt 1315 3015 L
1430 4402 mt 1502 4402 L
1466 4366 mt 1466 4438 L
3108 4541 mt 3180 4541 L
3144 4505 mt 3144 4577 L
5973 3193 mt 6045 3193 L
6009 3157 mt 6009 3229 L
 944 3874 mt 1016 3874 L
 980 3838 mt  980 3910 L
 925 4059 mt  997 4059 L
 961 4023 mt  961 4095 L
1291 4084 mt 1363 4084 L
1327 4048 mt 1327 4120 L
1389 4594 mt 1461 4594 L
1425 4558 mt 1425 4630 L
1136 4220 mt 1208 4220 L
1172 4184 mt 1172 4256 L
1205 4531 mt 1277 4531 L
1241 4495 mt 1241 4567 L
2626 3661 mt 2698 3661 L
2662 3625 mt 2662 3697 L
2027 4579 mt 2099 4579 L
2063 4543 mt 2063 4615 L
1136 4549 mt 1208 4549 L
1172 4513 mt 1172 4585 L
5073 4592 mt 5145 4592 L
5109 4556 mt 5109 4628 L
2673 4403 mt 2745 4403 L
2709 4367 mt 2709 4439 L
1120 4207 mt 1192 4207 L
1156 4171 mt 1156 4243 L
2172 3933 mt 2244 3933 L
2208 3897 mt 2208 3969 L
 867 3110 mt  939 3110 L
 903 3074 mt  903 3146 L
4807 4605 mt 4879 4605 L
4843 4569 mt 4843 4641 L
1334 4224 mt 1406 4224 L
1370 4188 mt 1370 4260 L
1233 4601 mt 1305 4601 L
1269 4565 mt 1269 4637 L
1935 4408 mt 2007 4408 L
1971 4372 mt 1971 4444 L
2329 3683 mt 2401 3683 L
2365 3647 mt 2365 3719 L
4785 4429 mt 4857 4429 L
4821 4393 mt 4821 4465 L
1236 3294 mt 1308 3294 L
1272 3258 mt 1272 3330 L
1474 4517 mt 1546 4517 L
1510 4481 mt 1510 4553 L
 911 4614 mt  983 4614 L
 947 4578 mt  947 4650 L
1151 4298 mt 1223 4298 L
1187 4262 mt 1187 4334 L
 987 3415 mt 1059 3415 L
1023 3379 mt 1023 3451 L
1162 4532 mt 1234 4532 L
1198 4496 mt 1198 4568 L
 891 3363 mt  963 3363 L
 927 3327 mt  927 3399 L
1382 4128 mt 1454 4128 L
1418 4092 mt 1418 4164 L
1838 4613 mt 1910 4613 L
1874 4577 mt 1874 4649 L
 908 4265 mt  980 4265 L
 944 4229 mt  944 4301 L
1090 3766 mt 1162 3766 L
1126 3730 mt 1126 3802 L
4006 4475 mt 4078 4475 L
4042 4439 mt 4042 4511 L
 880 4441 mt  952 4441 L
 916 4405 mt  916 4477 L
1105 4182 mt 1177 4182 L
1141 4146 mt 1141 4218 L
3606 4304 mt 3678 4304 L
3642 4268 mt 3642 4340 L
 998 4310 mt 1070 4310 L
1034 4274 mt 1034 4346 L
3165 3870 mt 3237 3870 L
3201 3834 mt 3201 3906 L
3706 2918 mt 3778 2918 L
3742 2882 mt 3742 2954 L
1249 3525 mt 1321 3525 L
1285 3489 mt 1285 3561 L
5370 4599 mt 5442 4599 L
5406 4563 mt 5406 4635 L
1451 4456 mt 1523 4456 L
1487 4420 mt 1487 4492 L
 868 3945 mt  940 3945 L
 904 3909 mt  904 3981 L
1014 4609 mt 1086 4609 L
1050 4573 mt 1050 4645 L
 864 3176 mt  936 3176 L
 900 3140 mt  900 3212 L
1937 3963 mt 2009 3963 L
1973 3927 mt 1973 3999 L
2581 4180 mt 2653 4180 L
2617 4144 mt 2617 4216 L
2832 2819 mt 2904 2819 L
2868 2783 mt 2868 2855 L
 986 4614 mt 1058 4614 L
1022 4578 mt 1022 4650 L
4243 4614 mt 4315 4614 L
4279 4578 mt 4279 4650 L
1488 4450 mt 1560 4450 L
1524 4414 mt 1524 4486 L
1837 4615 mt 1909 4615 L
1873 4579 mt 1873 4651 L
1791 4215 mt 1863 4215 L
1827 4179 mt 1827 4251 L
1016 3764 mt 1088 3764 L
1052 3728 mt 1052 3800 L
4548 4063 mt 4620 4063 L
4584 4027 mt 4584 4099 L
1315 3917 mt 1387 3917 L
1351 3881 mt 1351 3953 L
2974 4587 mt 3046 4587 L
3010 4551 mt 3010 4623 L
3839 4262 mt 3911 4262 L
3875 4226 mt 3875 4298 L
 887 4606 mt  959 4606 L
 923 4570 mt  923 4642 L
 872 3934 mt  944 3934 L
 908 3898 mt  908 3970 L
1636 3214 mt 1708 3214 L
1672 3178 mt 1672 3250 L
3264 4583 mt 3336 4583 L
3300 4547 mt 3300 4619 L
 979 4596 mt 1051 4596 L
1015 4560 mt 1015 4632 L
2467 4426 mt 2539 4426 L
2503 4390 mt 2503 4462 L
2789 3291 mt 2861 3291 L
2825 3255 mt 2825 3327 L
1316 4313 mt 1388 4313 L
1352 4277 mt 1352 4349 L
1619 3751 mt 1691 3751 L
1655 3715 mt 1655 3787 L
5924 3949 mt 5996 3949 L
5960 3913 mt 5960 3985 L
1112 4504 mt 1184 4504 L
1148 4468 mt 1148 4540 L
3282 4432 mt 3354 4432 L
3318 4396 mt 3318 4468 L
1455 3812 mt 1527 3812 L
1491 3776 mt 1491 3848 L
1879 3665 mt 1951 3665 L
1915 3629 mt 1915 3701 L
1035 3514 mt 1107 3514 L
1071 3478 mt 1071 3550 L
1067 4603 mt 1139 4603 L
1103 4567 mt 1103 4639 L
1029 4552 mt 1101 4552 L
1065 4516 mt 1065 4588 L
 866 4401 mt  938 4401 L
 902 4365 mt  902 4437 L
2689 4507 mt 2761 4507 L
2725 4471 mt 2725 4543 L
1545 4420 mt 1617 4420 L
1581 4384 mt 1581 4456 L
1544 2430 mt 1616 2430 L
1580 2394 mt 1580 2466 L
1793 4147 mt 1865 4147 L
1829 4111 mt 1829 4183 L
1573 2630 mt 1645 2630 L
1609 2594 mt 1609 2666 L
1062 4600 mt 1134 4600 L
1098 4564 mt 1098 4636 L
1053 3812 mt 1125 3812 L
1089 3776 mt 1089 3848 L
3293 4478 mt 3365 4478 L
3329 4442 mt 3329 4514 L
2333 4562 mt 2405 4562 L
2369 4526 mt 2369 4598 L
1384 2110 mt 1456 2110 L
1420 2074 mt 1420 2146 L
 929 4392 mt 1001 4392 L
 965 4356 mt  965 4428 L
1390 3123 mt 1462 3123 L
1426 3087 mt 1426 3159 L
1051 4589 mt 1123 4589 L
1087 4553 mt 1087 4625 L
1580 4612 mt 1652 4612 L
1616 4576 mt 1616 4648 L
gs 899 414 5363 4203 rc
gr

0 sg
2779 5104 mt 
(\(F,DCTs,GMM\)) s
 422 3343 mt  -90 rotate
(\(S,LFCC,GMM\)) s
90 rotate
2975  223 mt 
(Corr = 0.01) s

end %%Color Dict

eplot
%%EndObject

epage
end

showpage

%%Trailer
%%EOF
