%!PS-Adobe-3.0 EPSF-3.0
%%Creator: MATLAB, The Mathworks, Inc. Version 7.7.0.471 (R2008b). Operating System: Microsoft Windows XP.
%%Title: Pictures\main_zoo_mvar_analysis_data_BMI_xcorr_bmig_p1_k1_5_8.eps
%%CreationDate: 10/26/2009  05:45:04
%%DocumentNeededFonts: Helvetica
%%DocumentProcessColors: Cyan Magenta Yellow Black
%%LanguageLevel: 2
%%Pages: 1
%%BoundingBox:    37   180   549   616
%%EndComments

%%BeginProlog
% MathWorks dictionary
/MathWorks 160 dict begin
% definition operators
/bdef {bind def} bind def
/ldef {load def} bind def
/xdef {exch def} bdef
/xstore {exch store} bdef
% operator abbreviations
/c  /clip ldef
/cc /concat ldef
/cp /closepath ldef
/gr /grestore ldef
/gs /gsave ldef
/mt /moveto ldef
/np /newpath ldef
/cm /currentmatrix ldef
/sm /setmatrix ldef
/rm /rmoveto ldef
/rl /rlineto ldef
/s {show newpath} bdef
/sc {setcmykcolor} bdef
/sr /setrgbcolor ldef
/sg /setgray ldef
/w /setlinewidth ldef
/j /setlinejoin ldef
/cap /setlinecap ldef
/rc {rectclip} bdef
/rf {rectfill} bdef
% page state control
/pgsv () def
/bpage {/pgsv save def} bdef
/epage {pgsv restore} bdef
/bplot /gsave ldef
/eplot {stroke grestore} bdef
% orientation switch
/portraitMode 0 def /landscapeMode 1 def /rotateMode 2 def
% coordinate system mappings
/dpi2point 0 def
% font control
/FontSize 0 def
/FMS {/FontSize xstore findfont [FontSize 0 0 FontSize neg 0 0]
  makefont setfont} bdef
/ISOLatin1Encoding where {pop /WindowsLatin1Encoding 256 array bdef
ISOLatin1Encoding WindowsLatin1Encoding copy pop
/.notdef/.notdef/quotesinglbase/florin/quotedblbase/ellipsis/dagger
/daggerdbl/circumflex/perthousand/Scaron/guilsinglleft/OE/.notdef/.notdef
/.notdef/.notdef/quoteleft/quoteright/quotedblleft/quotedblright/bullet
/endash/emdash/tilde/trademark/scaron/guilsinglright/oe/.notdef/.notdef
/Ydieresis WindowsLatin1Encoding 128 32 getinterval astore pop}
{/WindowsLatin1Encoding StandardEncoding bdef} ifelse
/reencode {exch dup where {pop load} {pop StandardEncoding} ifelse
  exch dup 3 1 roll findfont dup length dict begin
  { 1 index /FID ne {def}{pop pop} ifelse } forall
  /Encoding exch def currentdict end definefont pop} bdef
/isroman {findfont /CharStrings get /Agrave known} bdef
/FMSR {3 1 roll 1 index dup isroman {reencode} {pop pop} ifelse
  exch FMS} bdef
/csm {1 dpi2point div -1 dpi2point div scale neg translate
 dup landscapeMode eq {pop -90 rotate}
  {rotateMode eq {90 rotate} if} ifelse} bdef
% line types: solid, dotted, dashed, dotdash
/SO { [] 0 setdash } bdef
/DO { [.5 dpi2point mul 4 dpi2point mul] 0 setdash } bdef
/DA { [6 dpi2point mul] 0 setdash } bdef
/DD { [.5 dpi2point mul 4 dpi2point mul 6 dpi2point mul 4
  dpi2point mul] 0 setdash } bdef
% macros for lines and objects
/L {lineto stroke} bdef
/MP {3 1 roll moveto 1 sub {rlineto} repeat} bdef
/AP {{rlineto} repeat} bdef
/PDlw -1 def
/W {/PDlw currentlinewidth def setlinewidth} def
/PP {closepath eofill} bdef
/DP {closepath stroke} bdef
/MR {4 -2 roll moveto dup  0 exch rlineto exch 0 rlineto
  neg 0 exch rlineto closepath} bdef
/FR {MR stroke} bdef
/PR {MR fill} bdef
/L1i {{currentfile picstr readhexstring pop} image} bdef
/tMatrix matrix def
/MakeOval {newpath tMatrix currentmatrix pop translate scale
0 0 1 0 360 arc tMatrix setmatrix} bdef
/FO {MakeOval stroke} bdef
/PO {MakeOval fill} bdef
/PD {currentlinewidth 2 div 0 360 arc fill
   PDlw -1 eq not {PDlw w /PDlw -1 def} if} def
/FA {newpath tMatrix currentmatrix pop translate scale
  0 0 1 5 -2 roll arc tMatrix setmatrix stroke} bdef
/PA {newpath tMatrix currentmatrix pop	translate 0 0 moveto scale
  0 0 1 5 -2 roll arc closepath tMatrix setmatrix fill} bdef
/FAn {newpath tMatrix currentmatrix pop translate scale
  0 0 1 5 -2 roll arcn tMatrix setmatrix stroke} bdef
/PAn {newpath tMatrix currentmatrix pop translate 0 0 moveto scale
  0 0 1 5 -2 roll arcn closepath tMatrix setmatrix fill} bdef
/vradius 0 def /hradius 0 def /lry 0 def
/lrx 0 def /uly 0 def /ulx 0 def /rad 0 def
/MRR {/vradius xdef /hradius xdef /lry xdef /lrx xdef /uly xdef
  /ulx xdef newpath tMatrix currentmatrix pop ulx hradius add uly
  vradius add translate hradius vradius scale 0 0 1 180 270 arc 
  tMatrix setmatrix lrx hradius sub uly vradius add translate
  hradius vradius scale 0 0 1 270 360 arc tMatrix setmatrix
  lrx hradius sub lry vradius sub translate hradius vradius scale
  0 0 1 0 90 arc tMatrix setmatrix ulx hradius add lry vradius sub
  translate hradius vradius scale 0 0 1 90 180 arc tMatrix setmatrix
  closepath} bdef
/FRR {MRR stroke } bdef
/PRR {MRR fill } bdef
/MlrRR {/lry xdef /lrx xdef /uly xdef /ulx xdef /rad lry uly sub 2 div def
  newpath tMatrix currentmatrix pop ulx rad add uly rad add translate
  rad rad scale 0 0 1 90 270 arc tMatrix setmatrix lrx rad sub lry rad
  sub translate rad rad scale 0 0 1 270 90 arc tMatrix setmatrix
  closepath} bdef
/FlrRR {MlrRR stroke } bdef
/PlrRR {MlrRR fill } bdef
/MtbRR {/lry xdef /lrx xdef /uly xdef /ulx xdef /rad lrx ulx sub 2 div def
  newpath tMatrix currentmatrix pop ulx rad add uly rad add translate
  rad rad scale 0 0 1 180 360 arc tMatrix setmatrix lrx rad sub lry rad
  sub translate rad rad scale 0 0 1 0 180 arc tMatrix setmatrix
  closepath} bdef
/FtbRR {MtbRR stroke } bdef
/PtbRR {MtbRR fill } bdef
/stri 6 array def /dtri 6 array def
/smat 6 array def /dmat 6 array def
/tmat1 6 array def /tmat2 6 array def /dif 3 array def
/asub {/ind2 exch def /ind1 exch def dup dup
  ind1 get exch ind2 get sub exch } bdef
/tri_to_matrix {
  2 0 asub 3 1 asub 4 0 asub 5 1 asub
  dup 0 get exch 1 get 7 -1 roll astore } bdef
/compute_transform {
  dmat dtri tri_to_matrix tmat1 invertmatrix 
  smat stri tri_to_matrix tmat2 concatmatrix } bdef
/ds {stri astore pop} bdef
/dt {dtri astore pop} bdef
/db {2 copy /cols xdef /rows xdef mul dup 3 mul string
  currentfile 
  3 index 0 eq {/ASCIIHexDecode filter}
  {/ASCII85Decode filter 3 index 2 eq {/RunLengthDecode filter} if }
  ifelse exch readstring pop
  dup 0 3 index getinterval /rbmap xdef
  dup 2 index dup getinterval /gbmap xdef
  1 index dup 2 mul exch getinterval /bbmap xdef pop pop}bdef
/it {gs np dtri aload pop moveto lineto lineto cp c
  cols rows 8 compute_transform 
  rbmap gbmap bbmap true 3 colorimage gr}bdef
/il {newpath moveto lineto stroke}bdef
currentdict end def
%%EndProlog

%%BeginSetup
MathWorks begin

0 cap

end
%%EndSetup

%%Page: 1 1
%%BeginPageSetup
%%PageBoundingBox:    37   180   549   616
MathWorks begin
bpage
%%EndPageSetup

%%BeginObject: obj1
bplot

/dpi2point 12 def
portraitMode 0216 7344 csm

  234   -48  6149  5231 rc
85 dict begin %Colortable dictionary
/c0 { 0.000000 0.000000 0.000000 sr} bdef
/c1 { 1.000000 1.000000 1.000000 sr} bdef
/c2 { 0.900000 0.000000 0.000000 sr} bdef
/c3 { 0.000000 0.820000 0.000000 sr} bdef
/c4 { 0.000000 0.000000 0.800000 sr} bdef
/c5 { 0.910000 0.820000 0.320000 sr} bdef
/c6 { 1.000000 0.260000 0.820000 sr} bdef
/c7 { 0.000000 0.820000 0.820000 sr} bdef
c0
1 j
1 sg
   0    0 6919 5187 rf
6 w
0 4202 5362 0 0 -4202 899 4616 4 MP
PP
-5362 0 0 4202 5362 0 0 -4202 899 4616 5 MP stroke
4 w
DO
SO
6 w
0 sg
 899  414 mt 6261  414 L
 899 4616 mt 6261 4616 L
6261 4616 mt 6261  414 L
 899 4616 mt  899  414 L
 899 4616 mt 6261 4616 L
 899 4616 mt  899  414 L
 919 4616 mt  919 4562 L
 919  414 mt  919  467 L
%%IncludeResource: font Helvetica
/Helvetica /WindowsLatin1Encoding 240 FMSR

 713 4873 mt 
(-3) s
1806 4616 mt 1806 4562 L
1806  414 mt 1806  467 L
1600 4873 mt 
(-2) s
2693 4616 mt 2693 4562 L
2693  414 mt 2693  467 L
2487 4873 mt 
(-1) s
3580 4616 mt 3580 4562 L
3580  414 mt 3580  467 L
3514 4873 mt 
(0) s
4466 4616 mt 4466 4562 L
4466  414 mt 4466  467 L
4400 4873 mt 
(1) s
5353 4616 mt 5353 4562 L
5353  414 mt 5353  467 L
5287 4873 mt 
(2) s
6240 4616 mt 6240 4562 L
6240  414 mt 6240  467 L
6174 4873 mt 
(3) s
 899 4599 mt  952 4599 L
6261 4599 mt 6207 4599 L
 591 4688 mt 
(-3) s
 899 3904 mt  952 3904 L
6261 3904 mt 6207 3904 L
 591 3993 mt 
(-2) s
 899 3209 mt  952 3209 L
6261 3209 mt 6207 3209 L
 591 3298 mt 
(-1) s
 899 2514 mt  952 2514 L
6261 2514 mt 6207 2514 L
 731 2603 mt 
(0) s
 899 1820 mt  952 1820 L
6261 1820 mt 6207 1820 L
 731 1909 mt 
(1) s
 899 1125 mt  952 1125 L
6261 1125 mt 6207 1125 L
 731 1214 mt 
(2) s
 899  430 mt  952  430 L
6261  430 mt 6207  430 L
 731  519 mt 
(3) s
 899  414 mt 6261  414 L
 899 4616 mt 6261 4616 L
6261 4616 mt 6261  414 L
 899 4616 mt  899  414 L
gs 899 414 5363 4203 rc
gr

/c8 { 0.000000 0.000000 1.000000 sr} bdef
c8
5211  414 mt 5283  414 L
5247  378 mt 5247  450 L
4746 2602 mt 4818 2602 L
4782 2566 mt 4782 2638 L
4060 3034 mt 4132 3034 L
4096 2998 mt 4096 3070 L
3940 2293 mt 4012 2293 L
3976 2257 mt 3976 2329 L
3672 2410 mt 3744 2410 L
3708 2374 mt 3708 2446 L
2534 2840 mt 2606 2840 L
2570 2804 mt 2570 2876 L
2235 1604 mt 2307 1604 L
2271 1568 mt 2271 1640 L
3571 2655 mt 3643 2655 L
3607 2619 mt 3607 2691 L
2513 4205 mt 2585 4205 L
2549 4169 mt 2549 4241 L
5282 2040 mt 5354 2040 L
5318 2004 mt 5318 2076 L
5828 2536 mt 5900 2536 L
5864 2500 mt 5864 2572 L
3415 4616 mt 3487 4616 L
3451 4580 mt 3451 4652 L
4407 3503 mt 4479 3503 L
4443 3467 mt 4443 3539 L
4149 3322 mt 4221 3322 L
4185 3286 mt 4185 3358 L
4156 2401 mt 4228 2401 L
4192 2365 mt 4192 2437 L
4667 1831 mt 4739 1831 L
4703 1795 mt 4703 1867 L
3814 1583 mt 3886 1583 L
3850 1547 mt 3850 1619 L
2394 2423 mt 2466 2423 L
2430 2387 mt 2430 2459 L
3711 2722 mt 3783 2722 L
3747 2686 mt 3747 2758 L
2789 2001 mt 2861 2001 L
2825 1965 mt 2825 2037 L
3147 2361 mt 3219 2361 L
3183 2325 mt 3183 2397 L
5413 2646 mt 5485 2646 L
5449 2610 mt 5449 2682 L
3296 2436 mt 3368 2436 L
3332 2400 mt 3332 2472 L
2980 2484 mt 3052 2484 L
3016 2448 mt 3016 2520 L
2420 1885 mt 2492 1885 L
2456 1849 mt 2456 1921 L
3398 2806 mt 3470 2806 L
3434 2770 mt 3434 2842 L
2836 2199 mt 2908 2199 L
2872 2163 mt 2872 2235 L
5096 2825 mt 5168 2825 L
5132 2789 mt 5132 2861 L
3717 2972 mt 3789 2972 L
3753 2936 mt 3753 3008 L
2706 2589 mt 2778 2589 L
2742 2553 mt 2742 2625 L
4338 1572 mt 4410 1572 L
4374 1536 mt 4374 1608 L
4142 2467 mt 4214 2467 L
4178 2431 mt 4178 2503 L
3728 2558 mt 3800 2558 L
3764 2522 mt 3764 2594 L
3505 1787 mt 3577 1787 L
3541 1751 mt 3541 1823 L
3915 3297 mt 3987 3297 L
3951 3261 mt 3951 3333 L
4047 2576 mt 4119 2576 L
4083 2540 mt 4083 2612 L
2201 3118 mt 2273 3118 L
2237 3082 mt 2237 3154 L
4719 2844 mt 4791 2844 L
4755 2808 mt 4755 2880 L
4290 2445 mt 4362 2445 L
4326 2409 mt 4326 2481 L
4732 1255 mt 4804 1255 L
4768 1219 mt 4768 1291 L
5002 2619 mt 5074 2619 L
5038 2583 mt 5038 2655 L
3803 2506 mt 3875 2506 L
3839 2470 mt 3839 2542 L
2896 1740 mt 2968 1740 L
2932 1704 mt 2932 1776 L
3085 1809 mt 3157 1809 L
3121 1773 mt 3121 1845 L
5606 1816 mt 5678 1816 L
5642 1780 mt 5642 1852 L
1907 3039 mt 1979 3039 L
1943 3003 mt 1943 3075 L
4002  898 mt 4074  898 L
4038  862 mt 4038  934 L
3020 2811 mt 3092 2811 L
3056 2775 mt 3056 2847 L
2671 3658 mt 2743 3658 L
2707 3622 mt 2707 3694 L
5047 2352 mt 5119 2352 L
5083 2316 mt 5083 2388 L
3072 2279 mt 3144 2279 L
3108 2243 mt 3108 2315 L
3723 2270 mt 3795 2270 L
3759 2234 mt 3759 2306 L
3302 2864 mt 3374 2864 L
3338 2828 mt 3338 2900 L
4266 2514 mt 4338 2514 L
4302 2478 mt 4302 2550 L
3190 2835 mt 3262 2835 L
3226 2799 mt 3226 2871 L
2910 1954 mt 2982 1954 L
2946 1918 mt 2946 1990 L
6033 2261 mt 6105 2261 L
6069 2225 mt 6069 2297 L
5700 3675 mt 5772 3675 L
5736 3639 mt 5736 3711 L
5245 2664 mt 5317 2664 L
5281 2628 mt 5281 2700 L
2715 2523 mt 2787 2523 L
2751 2487 mt 2751 2559 L
4322 2204 mt 4394 2204 L
4358 2168 mt 4358 2240 L
4482 2709 mt 4554 2709 L
4518 2673 mt 4518 2745 L
2267  824 mt 2339  824 L
2303  788 mt 2303  860 L
2615 1917 mt 2687 1917 L
2651 1881 mt 2651 1953 L
3153 4023 mt 3225 4023 L
3189 3987 mt 3189 4059 L
3751 2078 mt 3823 2078 L
3787 2042 mt 3787 2114 L
3499 3527 mt 3571 3527 L
3535 3491 mt 3535 3563 L
4775 3641 mt 4847 3641 L
4811 3605 mt 4811 3677 L
4163 3515 mt 4235 3515 L
4199 3479 mt 4199 3551 L
2605 2624 mt 2677 2624 L
2641 2588 mt 2641 2660 L
4492 2018 mt 4564 2018 L
4528 1982 mt 4528 2054 L
3885 3171 mt 3957 3171 L
3921 3135 mt 3921 3207 L
3053 2414 mt 3125 2414 L
3089 2378 mt 3089 2450 L
2523 3731 mt 2595 3731 L
2559 3695 mt 2559 3767 L
3319 3093 mt 3391 3093 L
3355 3057 mt 3355 3129 L
3867 2396 mt 3939 2396 L
3903 2360 mt 3903 2432 L
4760 2792 mt 4832 2792 L
4796 2756 mt 4796 2828 L
3482 3191 mt 3554 3191 L
3518 3155 mt 3518 3227 L
2165 2062 mt 2237 2062 L
2201 2026 mt 2201 2098 L
4282 3144 mt 4354 3144 L
4318 3108 mt 4318 3180 L
6225 2325 mt 6297 2325 L
6261 2289 mt 6261 2361 L
3160 1794 mt 3232 1794 L
3196 1758 mt 3196 1830 L
3958 1419 mt 4030 1419 L
3994 1383 mt 3994 1455 L
2757 2379 mt 2829 2379 L
2793 2343 mt 2793 2415 L
3091 1434 mt 3163 1434 L
3127 1398 mt 3127 1470 L
3855 2302 mt 3927 2302 L
3891 2266 mt 3891 2338 L
4631 3491 mt 4703 3491 L
4667 3455 mt 4667 3527 L
3820 3075 mt 3892 3075 L
3856 3039 mt 3856 3111 L
2063 3457 mt 2135 3457 L
2099 3421 mt 2099 3493 L
4054 1942 mt 4126 1942 L
4090 1906 mt 4090 1978 L
4597 2962 mt 4669 2962 L
4633 2926 mt 4633 2998 L
4199 2453 mt 4271 2453 L
4235 2417 mt 4235 2489 L
2765 2458 mt 2837 2458 L
2801 2422 mt 2801 2494 L
3873 3386 mt 3945 3386 L
3909 3350 mt 3909 3422 L
2805 2925 mt 2877 2925 L
2841 2889 mt 2841 2961 L
3432 2083 mt 3504 2083 L
3468 2047 mt 3468 2119 L
2502 2094 mt 2574 2094 L
2538 2058 mt 2538 2130 L
5122 2869 mt 5194 2869 L
5158 2833 mt 5158 2905 L
2251 2256 mt 2323 2256 L
2287 2220 mt 2287 2292 L
2565 2320 mt 2637 2320 L
2601 2284 mt 2601 2356 L
4820  724 mt 4892  724 L
4856  688 mt 4856  760 L
3757 2849 mt 3829 2849 L
3793 2813 mt 3793 2885 L
4805 1121 mt 4877 1121 L
4841 1085 mt 4841 1157 L
3577 2237 mt 3649 2237 L
3613 2201 mt 3613 2273 L
3977 2668 mt 4049 2668 L
4013 2632 mt 4013 2704 L
3387 2682 mt 3459 2682 L
3423 2646 mt 3423 2718 L
3493 4131 mt 3565 4131 L
3529 4095 mt 3529 4167 L
4425 2759 mt 4497 2759 L
4461 2723 mt 4461 2795 L
4922 3011 mt 4994 3011 L
4958 2975 mt 4958 3047 L
4177 2155 mt 4249 2155 L
4213 2119 mt 4213 2191 L
2381 3610 mt 2453 3610 L
2417 3574 mt 2417 3646 L
3971 2899 mt 4043 2899 L
4007 2863 mt 4007 2935 L
2749 3213 mt 2821 3213 L
2785 3177 mt 2785 3249 L
3313 2659 mt 3385 2659 L
3349 2623 mt 3349 2695 L
4128 2528 mt 4200 2528 L
4164 2492 mt 4164 2564 L
4680 2686 mt 4752 2686 L
4716 2650 mt 4716 2722 L
3594 3415 mt 3666 3415 L
3630 3379 mt 3630 3451 L
2341 3848 mt 2413 3848 L
2377 3812 mt 2377 3884 L
3689 1960 mt 3761 1960 L
3725 1924 mt 3725 1996 L
4608 1502 mt 4680 1502 L
4644 1466 mt 4644 1538 L
3661 2247 mt 3733 2247 L
3697 2211 mt 3697 2283 L
3927 2214 mt 3999 2214 L
3963 2178 mt 3963 2250 L
3449 3567 mt 3521 3567 L
3485 3531 mt 3485 3603 L
3104 1550 mt 3176 1550 L
3140 1514 mt 3140 1586 L
5150 2104 mt 5222 2104 L
5186 2068 mt 5186 2140 L
4585 1978 mt 4657 1978 L
4621 1942 mt 4621 2014 L
2844 2307 mt 2916 2307 L
2880 2271 mt 2880 2343 L
2282 2584 mt 2354 2584 L
2318 2548 mt 2318 2620 L
3220 2597 mt 3292 2597 L
3256 2561 mt 3256 2633 L
2586 2497 mt 2658 2497 L
2622 2461 mt 2622 2533 L
3359 2311 mt 3431 2311 L
3395 2275 mt 3395 2347 L
2888 1878 mt 2960 1878 L
2924 1842 mt 2924 1914 L
3996 3184 mt 4068 3184 L
4032 3148 mt 4032 3220 L
1556 3273 mt 1628 3273 L
1592 3237 mt 1592 3309 L
4259 2035 mt 4331 2035 L
4295 1999 mt 4295 2071 L
2146 3242 mt 2218 3242 L
2182 3206 mt 2182 3278 L
3330 2946 mt 3402 2946 L
3366 2910 mt 3366 2982 L
2368 1538 mt 2440 1538 L
2404 1502 mt 2404 1574 L
4886 2637 mt 4958 2637 L
4922 2601 mt 4922 2673 L
5071 2099 mt 5143 2099 L
5107 2063 mt 5107 2135 L
2931 4072 mt 3003 4072 L
2967 4036 mt 2967 4108 L
2740 3908 mt 2812 3908 L
2776 3872 mt 2776 3944 L
3588 1892 mt 3660 1892 L
3624 1856 mt 3624 1928 L
3555 2427 mt 3627 2427 L
3591 2391 mt 3591 2463 L
4251 2242 mt 4323 2242 L
4287 2206 mt 4287 2278 L
4191 2125 mt 4263 2125 L
4227 2089 mt 4227 2161 L
3336 3405 mt 3408 3405 L
3372 3369 mt 3372 3441 L
2555 1845 mt 2627 1845 L
2591 1809 mt 2591 1881 L
4961 3306 mt 5033 3306 L
4997 3270 mt 4997 3342 L
3861 2218 mt 3933 2218 L
3897 2182 mt 3897 2254 L
5321 2930 mt 5393 2930 L
5357 2894 mt 5357 2966 L
 863 2334 mt  935 2334 L
 899 2298 mt  899 2370 L
4087 1526 mt 4159 1526 L
4123 1490 mt 4123 1562 L
1991 2741 mt 2063 2741 L
2027 2705 mt 2027 2777 L
4213 2135 mt 4285 2135 L
4249 2099 mt 4249 2171 L
2218 2736 mt 2290 2736 L
2254 2700 mt 2254 2772 L
1965 3051 mt 2037 3051 L
2001 3015 mt 2001 3087 L
3261 2480 mt 3333 2480 L
3297 2444 mt 3297 2516 L
4100 2764 mt 4172 2764 L
4136 2728 mt 4136 2800 L
3078 2713 mt 3150 2713 L
3114 2677 mt 3114 2749 L
2851 2057 mt 2923 2057 L
2887 2021 mt 2887 2093 L
4501 2488 mt 4573 2488 L
4537 2452 mt 4537 2524 L
3745 1732 mt 3817 1732 L
3781 1696 mt 3781 1768 L
4228 3468 mt 4300 3468 L
4264 3432 mt 4264 3504 L
3921 2773 mt 3993 2773 L
3957 2737 mt 3957 2809 L
3683 2046 mt 3755 2046 L
3719 2010 mt 3719 2082 L
4314 1872 mt 4386 1872 L
4350 1836 mt 4350 1908 L
4564 2989 mt 4636 2989 L
4600 2953 mt 4600 3025 L
4041 3367 mt 4113 3367 L
4077 3331 mt 4077 3403 L
3267 2519 mt 3339 2519 L
3303 2483 mt 3303 2555 L
3027 1671 mt 3099 1671 L
3063 1635 mt 3063 1707 L
2680 1898 mt 2752 1898 L
2716 1862 mt 2716 1934 L
4074 2007 mt 4146 2007 L
4110 1971 mt 4110 2043 L
2040 2120 mt 2112 2120 L
2076 2084 mt 2076 2156 L
3549 1936 mt 3621 1936 L
3585 1900 mt 3585 1972 L
4463 3081 mt 4535 3081 L
4499 3045 mt 4499 3117 L
4121 2541 mt 4193 2541 L
4157 2505 mt 4157 2577 L
4067 2914 mt 4139 2914 L
4103 2878 mt 4103 2950 L
3426 1514 mt 3498 1514 L
3462 1478 mt 3462 1550 L
3706 3358 mt 3778 3358 L
3742 3322 mt 3742 3394 L
4789 3693 mt 4861 3693 L
4825 3657 mt 4825 3729 L
4655 1371 mt 4727 1371 L
4691 1335 mt 4691 1407 L
1722 1277 mt 1794 1277 L
1758 1241 mt 1758 1313 L
5365 3331 mt 5437 3331 L
5401 3295 mt 5401 3367 L
4372 2370 mt 4444 2370 L
4408 2334 mt 4408 2406 L
3677 1593 mt 3749 1593 L
3713 1557 mt 3713 1629 L
4221 1715 mt 4293 1715 L
4257 1679 mt 4257 1751 L
3538 1858 mt 3610 1858 L
3574 1822 mt 3574 1894 L
3184 3063 mt 3256 3063 L
3220 3027 mt 3220 3099 L
3438 1662 mt 3510 1662 L
3474 1626 mt 3474 1698 L
4381 3235 mt 4453 3235 L
4417 3199 mt 4417 3271 L
4355 2288 mt 4427 2288 L
4391 2252 mt 4391 2324 L
3633 2365 mt 3705 2365 L
3669 2329 mt 3669 2401 L
3135 2727 mt 3207 2727 L
3171 2691 mt 3171 2763 L
4904 2718 mt 4976 2718 L
4940 2682 mt 4940 2754 L
4574  957 mt 4646  957 L
4610  921 mt 4610  993 L
3232 1634 mt 3304 1634 L
3268 1598 mt 3268 1670 L
2917 1388 mt 2989 1388 L
2953 1352 mt 2953 1424 L
3649 2731 mt 3721 2731 L
3685 2695 mt 3685 2767 L
4243 2904 mt 4315 2904 L
4279 2868 mt 4279 2940 L
3454  564 mt 3526  564 L
3490  528 mt 3490  600 L
2828 1748 mt 2900 1748 L
2864 1712 mt 2864 1784 L
3393 2920 mt 3465 2920 L
3429 2884 mt 3429 2956 L
3243 2815 mt 3315 2815 L
3279 2779 mt 3279 2851 L
3983 3125 mt 4055 3125 L
4019 3089 mt 4019 3161 L
2479 2859 mt 2551 2859 L
2515 2823 mt 2515 2895 L
3762 1838 mt 3834 1838 L
3798 1802 mt 3798 1874 L
3544 2909 mt 3616 2909 L
3580 2873 mt 3580 2945 L
3655 3376 mt 3727 3376 L
3691 3340 mt 3691 3412 L
5024 1990 mt 5096 1990 L
5060 1954 mt 5060 2026 L
4398 3099 mt 4470 3099 L
4434 3063 mt 4434 3135 L
3237 2392 mt 3309 2392 L
3273 2356 mt 3273 2428 L
2595 2978 mt 2667 2978 L
2631 2942 mt 2631 3014 L
2966 2150 mt 3038 2150 L
3002 2114 mt 3002 2186 L
3934 2418 mt 4006 2418 L
3970 2382 mt 3970 2454 L
3059 1561 mt 3131 1561 L
3095 1525 mt 3095 1597 L
2959 1643 mt 3031 1643 L
2995 1607 mt 2995 1679 L
1259 2830 mt 1331 2830 L
1295 2794 mt 1295 2866 L
3172 2170 mt 3244 2170 L
3208 2134 mt 3208 2206 L
2183 1764 mt 2255 1764 L
2219 1728 mt 2219 1800 L
3797 3131 mt 3869 3131 L
3833 3095 mt 3833 3167 L
3443 3479 mt 3515 3479 L
3479 3443 mt 3479 3515 L
2697 1802 mt 2769 1802 L
2733 1766 mt 2733 1838 L
3809 3164 mt 3881 3164 L
3845 3128 mt 3845 3200 L
3946 1823 mt 4018 1823 L
3982 1787 mt 3982 1859 L
3582 4305 mt 3654 4305 L
3618 4269 mt 3618 4341 L
4107 3069 mt 4179 3069 L
4143 3033 mt 4143 3105 L
4034 2801 mt 4106 2801 L
4070 2765 mt 4070 2837 L
3791 2140 mt 3863 2140 L
3827 2104 mt 3827 2176 L
3214 3265 mt 3286 3265 L
3250 3229 mt 3250 3301 L
1766 2051 mt 1838 2051 L
1802 2015 mt 1802 2087 L
3273 1865 mt 3345 1865 L
3309 1829 mt 3309 1901 L
2945 3112 mt 3017 3112 L
2981 3076 mt 2981 3148 L
3033 1462 mt 3105 1462 L
3069 1426 mt 3069 1498 L
3000 3395 mt 3072 3395 L
3036 3359 mt 3036 3431 L
3785 3797 mt 3857 3797 L
3821 3761 mt 3821 3833 L
2490 3281 mt 2562 3281 L
2526 3245 mt 2526 3317 L
2312 3022 mt 2384 3022 L
2348 2986 mt 2348 3058 L
4184 2567 mt 4256 2567 L
4220 2531 mt 4220 2603 L
3013 1448 mt 3085 1448 L
3049 1412 mt 3049 1484 L
2634 2405 mt 2706 2405 L
2670 2369 mt 2670 2441 L
2924 1972 mt 2996 1972 L
2960 1936 mt 2960 2008 L
2821 2194 mt 2893 2194 L
2857 2158 mt 2857 2230 L
2652 2228 mt 2724 2228 L
2688 2192 mt 2688 2264 L
4693 2298 mt 4765 2298 L
4729 2262 mt 4729 2334 L
3166 2475 mt 3238 2475 L
3202 2439 mt 3202 2511 L
2938 1152 mt 3010 1152 L
2974 1116 mt 2974 1188 L
3410 3822 mt 3482 3822 L
3446 3786 mt 3446 3858 L
4206 3227 mt 4278 3227 L
4242 3191 mt 4242 3263 L
3477 2673 mt 3549 2673 L
3513 2637 mt 3513 2709 L
1842 2967 mt 1914 2967 L
1878 2931 mt 1878 3003 L
3610 2704 mt 3682 2704 L
3646 2668 mt 3646 2740 L
4390 3340 mt 4462 3340 L
4426 3304 mt 4426 3376 L
3903 3206 mt 3975 3206 L
3939 3170 mt 3939 3242 L
2662 3595 mt 2734 3595 L
2698 3559 mt 2698 3631 L
3780 2067 mt 3852 2067 L
3816 2031 mt 3816 2103 L
4114 2894 mt 4186 2894 L
4150 2858 mt 4150 2930 L
3734 2951 mt 3806 2951 L
3770 2915 mt 3770 2987 L
4981 1930 mt 5053 1930 L
5017 1894 mt 5017 1966 L
3740 2029 mt 3812 2029 L
3776 1993 mt 3776 2065 L
3178 2189 mt 3250 2189 L
3214 2153 mt 3214 2225 L
4015 2691 mt 4087 2691 L
4051 2655 mt 4051 2727 L
2874 1087 mt 2946 1087 L
2910 1051 mt 2910 1123 L
3644 1995 mt 3716 1995 L
3680 1959 mt 3680 2031 L
4080 2338 mt 4152 2338 L
4116 2302 mt 4116 2374 L
4472 2750 mt 4544 2750 L
4508 2714 mt 4508 2786 L
3129 3752 mt 3201 3752 L
3165 3716 mt 3165 3788 L
3208 2854 mt 3280 2854 L
3244 2818 mt 3244 2890 L
4435 2545 mt 4507 2545 L
4471 2509 mt 4471 2581 L
3404 1756 mt 3476 1756 L
3440 1720 mt 3440 1792 L
4643 2549 mt 4715 2549 L
4679 2513 mt 4679 2585 L
3527 2388 mt 3599 2388 L
3563 2352 mt 3563 2424 L
3046 3106 mt 3118 3106 L
3082 3070 mt 3082 3142 L
1937 2650 mt 2009 2650 L
1973 2614 mt 1973 2686 L
3202 2615 mt 3274 2615 L
3238 2579 mt 3238 2651 L
3110 2160 mt 3182 2160 L
3146 2124 mt 3146 2196 L
4836 3198 mt 4908 3198 L
4872 3162 mt 4872 3234 L
2973 2677 mt 3045 2677 L
3009 2641 mt 3009 2713 L
3510 2782 mt 3582 2782 L
3546 2746 mt 3546 2818 L
1481 2935 mt 1553 2935 L
1517 2899 mt 1517 2971 L
5531 2700 mt 5603 2700 L
5567 2664 mt 5567 2736 L
4135 1923 mt 4207 1923 L
4171 1887 mt 4171 1959 L
2016 1336 mt 2088 1336 L
2052 1300 mt 2052 1372 L
3605 1772 mt 3677 1772 L
3641 1736 mt 3641 1808 L
4298 1049 mt 4370 1049 L
4334 1013 mt 4334 1085 L
2866 3017 mt 2938 3017 L
2902 2981 mt 2902 3053 L
4364 2223 mt 4436 2223 L
4400 2187 mt 4400 2259 L
3325 3137 mt 3397 3137 L
3361 3101 mt 3361 3173 L
3196 2879 mt 3268 2879 L
3232 2843 mt 3232 2915 L
4532 2493 mt 4604 2493 L
4568 2457 mt 4568 2529 L
3278 2145 mt 3350 2145 L
3314 2109 mt 3314 2181 L
3532 3942 mt 3604 3942 L
3568 3906 mt 3568 3978 L
3627 2115 mt 3699 2115 L
3663 2079 mt 3663 2151 L
2355 2209 mt 2427 2209 L
2391 2173 mt 2391 2245 L
3116 2956 mt 3188 2956 L
3152 2920 mt 3152 2992 L
4236 2889 mt 4308 2889 L
4272 2853 mt 4272 2925 L
3471 2532 mt 3543 2532 L
3507 2496 mt 3507 2568 L
1805 3087 mt 1877 3087 L
1841 3051 mt 1841 3123 L
2773 2695 mt 2845 2695 L
2809 2659 mt 2809 2731 L
3488 2073 mt 3560 2073 L
3524 2037 mt 3524 2109 L
3560 1298 mt 3632 1298 L
3596 1262 mt 3596 1334 L
2732 3877 mt 2804 3877 L
2768 3841 mt 2768 3913 L
3307 1006 mt 3379 1006 L
3343  970 mt 3343 1042 L
2903 2628 mt 2975 2628 L
2939 2592 mt 2939 2664 L
3879 3250 mt 3951 3250 L
3915 3214 mt 3915 3286 L
2987 2275 mt 3059 2275 L
3023 2239 mt 3023 2311 L
2327 2611 mt 2399 2611 L
2363 2575 mt 2363 2647 L
3826 2940 mt 3898 2940 L
3862 2904 mt 3862 2976 L
3466 3711 mt 3538 3711 L
3502 3675 mt 3502 3747 L
3353 2251 mt 3425 2251 L
3389 2215 mt 3389 2287 L
2126 2284 mt 2198 2284 L
2162 2248 mt 2162 2320 L
2859 3057 mt 2931 3057 L
2895 3021 mt 2895 3093 L
2298 3625 mt 2370 3625 L
2334 3589 mt 2334 3661 L
3040 2884 mt 3112 2884 L
3076 2848 mt 3076 2920 L
3909 1966 mt 3981 1966 L
3945 1930 mt 3945 2002 L
3226 2316 mt 3298 2316 L
3262 2280 mt 3262 2352 L
4306 2432 mt 4378 2432 L
4342 2396 mt 4342 2468 L
1876 2745 mt 1948 2745 L
1912 2709 mt 1912 2781 L
2781 2347 mt 2853 2347 L
2817 2311 mt 2817 2383 L
3774 1723 mt 3846 1723 L
3810 1687 mt 3810 1759 L
3952 2778 mt 4024 2778 L
3988 2742 mt 3988 2814 L
3989 2501 mt 4061 2501 L
4025 2465 mt 4025 2537 L
4009 2383 mt 4081 2383 L
4045 2347 mt 4045 2419 L
4869 1181 mt 4941 1181 L
4905 1145 mt 4905 1217 L
3850 1680 mt 3922 1680 L
3886 1644 mt 3886 1716 L
3098 2787 mt 3170 2787 L
3134 2751 mt 3134 2823 L
3255 1698 mt 3327 1698 L
3291 1662 mt 3291 1734 L
3347 3314 mt 3419 3314 L
3383 3278 mt 3383 3350 L
3832 1851 mt 3904 1851 L
3868 1815 mt 3868 1887 L
3891 3000 mt 3963 3000 L
3927 2964 mt 3927 3036 L
4619 3257 mt 4691 3257 L
4655 3221 mt 4655 3293 L
1387 2165 mt 1459 2165 L
1423 2129 mt 1423 2201 L
3768 2440 mt 3840 2440 L
3804 2404 mt 3804 2476 L
4522 3436 mt 4594 3436 L
4558 3400 mt 4558 3472 L
2624 1614 mt 2696 1614 L
2660 1578 mt 2660 1650 L
1674 2633 mt 1746 2633 L
1710 2597 mt 1710 2669 L
4170 3774 mt 4242 3774 L
4206 3738 mt 4206 3810 L
3700 1911 mt 3772 1911 L
3736 1875 mt 3736 1947 L
4941 2983 mt 5013 2983 L
4977 2947 mt 4977 3019 L
4416 2329 mt 4488 2329 L
4452 2293 mt 4452 2365 L
4094 3220 mt 4166 3220 L
4130 3184 mt 4130 3256 L
3381 3581 mt 3453 3581 L
3417 3545 mt 3417 3617 L
3066 2265 mt 3138 2265 L
3102 2229 mt 3102 2301 L
3376 2374 mt 3448 2374 L
3412 2338 mt 3412 2410 L
3123 2606 mt 3195 2606 L
3159 2570 mt 3159 2642 L
3638 3425 mt 3710 3425 L
3674 3389 mt 3674 3461 L
2444 3289 mt 2516 3289 L
2480 3253 mt 2480 3325 L
2881 3045 mt 2953 3045 L
2917 3009 mt 2917 3081 L
4542 2471 mt 4614 2471 L
4578 2435 mt 4578 2507 L
4453 2180 mt 4525 2180 L
4489 2144 mt 4489 2216 L
4852 2641 mt 4924 2641 L
4888 2605 mt 4888 2677 L
3516 3178 mt 3588 3178 L
3552 3142 mt 3552 3214 L
5468 1318 mt 5540 1318 L
5504 1282 mt 5504 1354 L
3364 3446 mt 3436 3446 L
3400 3410 mt 3400 3482 L
2643 2571 mt 2715 2571 L
2679 2535 mt 2679 2607 L
2813 3980 mt 2885 3980 L
2849 3944 mt 2849 4016 L
4021 2012 mt 4093 2012 L
4057 1976 mt 4057 2048 L
3599 1779 mt 3671 1779 L
3635 1743 mt 3635 1815 L
2575 2874 mt 2647 2874 L
2611 2838 mt 2611 2910 L
3421 2554 mt 3493 2554 L
3457 2518 mt 3457 2590 L
3007 2130 mt 3079 2130 L
3043 2094 mt 3043 2166 L
4553 3540 mt 4625 3540 L
4589 3504 mt 4589 3576 L
4330 2024 mt 4402 2024 L
4366 1988 mt 4366 2060 L
3141 2580 mt 3213 2580 L
3177 2544 mt 3177 2616 L
2407 2089 mt 2479 2089 L
2443 2053 mt 2443 2125 L
4512 1653 mt 4584 1653 L
4548 1617 mt 4548 1689 L
3342 2356 mt 3414 2356 L
3378 2320 mt 3378 2392 L
3249 2593 mt 3321 2593 L
3285 2557 mt 3285 2629 L
2545 2449 mt 2617 2449 L
2581 2413 mt 2581 2485 L
4028 1948 mt 4100 1948 L
4064 1912 mt 4064 1984 L
2085 1689 mt 2157 1689 L
2121 1653 mt 2121 1725 L
3666 2343 mt 3738 2343 L
3702 2307 mt 3702 2379 L
3694 2233 mt 3766 2233 L
3730 2197 mt 3730 2269 L
2468 2185 mt 2540 2185 L
2504 2149 mt 2504 2221 L
2689 1476 mt 2761 1476 L
2725 1440 mt 2725 1512 L
5180 2796 mt 5252 2796 L
5216 2760 mt 5216 2832 L
3621 1984 mt 3693 1984 L
3657 1948 mt 3657 2020 L
2952 3553 mt 3024 3553 L
2988 3517 mt 2988 3589 L
2432 1624 mt 2504 1624 L
2468 1588 mt 2468 1660 L
3844 3005 mt 3916 3005 L
3880 2969 mt 3880 3041 L
2106 2754 mt 2178 2754 L
2142 2718 mt 2142 2790 L
3897 1232 mt 3969 1232 L
3933 1196 mt 3933 1268 L
3460 1354 mt 3532 1354 L
3496 1318 mt 3496 1390 L
4274 2994 mt 4346 2994 L
4310 2958 mt 4310 3030 L
3964 2820 mt 4036 2820 L
4000 2784 mt 4000 2856 L
3566 1404 mt 3638 1404 L
3602 1368 mt 3602 1440 L
2797 2175 mt 2869 2175 L
2833 2139 mt 2833 2211 L
3290 2562 mt 3362 2562 L
3326 2526 mt 3326 2598 L
3521 3028 mt 3593 3028 L
3557 2992 mt 3557 3064 L
2456 1707 mt 2528 1707 L
2492 1671 mt 2492 1743 L
3370 3157 mt 3442 3157 L
3406 3121 mt 3406 3193 L
3284 3349 mt 3356 3349 L
3320 3313 mt 3320 3385 L
4347 2109 mt 4419 2109 L
4383 2073 mt 4383 2145 L
3838 2768 mt 3910 2768 L
3874 2732 mt 3874 2804 L
3616 2510 mt 3688 2510 L
3652 2474 mt 3652 2546 L
4444 1207 mt 4516 1207 L
4480 1171 mt 4480 1243 L
2993 1904 mt 3065 1904 L
3029 1868 mt 3029 1940 L
2723 1489 mt 2795 1489 L
2759 1453 mt 2759 1525 L
1619 2462 mt 1691 2462 L
1655 2426 mt 1655 2498 L
4706 3151 mt 4778 3151 L
4742 3115 mt 4742 3187 L
gs 899 414 5363 4203 rc
gr

0 sg
2822 5104 mt 
(\(F,DCTb,MLP\)) s
 482 3259 mt  -90 rotate
(\(S,PAC,GMM\)) s
90 rotate
2975  223 mt 
(Corr = 0.02) s

end %%Color Dict

eplot
%%EndObject

epage
end

showpage

%%Trailer
%%EOF
