%!PS-Adobe-3.0 EPSF-3.0
%%Creator: MATLAB, The Mathworks, Inc.
%%Title: Pictures\main_analyse_rerun3_arun_comp-F-ratio-F-norm.eps
%%CreationDate: 02/01/2009  09:15:35
%%DocumentNeededFonts: Helvetica
%%DocumentProcessColors: Cyan Magenta Yellow Black
%%LanguageLevel: 2
%%Pages: 1
%%BoundingBox:    87   221   546   598
%%EndComments

%%BeginProlog
% MathWorks dictionary
/MathWorks 160 dict begin
% definition operators
/bdef {bind def} bind def
/ldef {load def} bind def
/xdef {exch def} bdef
/xstore {exch store} bdef
% operator abbreviations
/c  /clip ldef
/cc /concat ldef
/cp /closepath ldef
/gr /grestore ldef
/gs /gsave ldef
/mt /moveto ldef
/np /newpath ldef
/cm /currentmatrix ldef
/sm /setmatrix ldef
/rm /rmoveto ldef
/rl /rlineto ldef
/s {show newpath} bdef
/sc {setcmykcolor} bdef
/sr /setrgbcolor ldef
/sg /setgray ldef
/w /setlinewidth ldef
/j /setlinejoin ldef
/cap /setlinecap ldef
/rc {rectclip} bdef
/rf {rectfill} bdef
% page state control
/pgsv () def
/bpage {/pgsv save def} bdef
/epage {pgsv restore} bdef
/bplot /gsave ldef
/eplot {stroke grestore} bdef
% orientation switch
/portraitMode 0 def /landscapeMode 1 def /rotateMode 2 def
% coordinate system mappings
/dpi2point 0 def
% font control
/FontSize 0 def
/FMS {/FontSize xstore findfont [FontSize 0 0 FontSize neg 0 0]
  makefont setfont} bdef
/ISOLatin1Encoding where {pop /WindowsLatin1Encoding 256 array bdef
ISOLatin1Encoding WindowsLatin1Encoding copy pop
/.notdef/.notdef/quotesinglbase/florin/quotedblbase/ellipsis/dagger
/daggerdbl/circumflex/perthousand/Scaron/guilsinglleft/OE/.notdef/.notdef
/.notdef/.notdef/quoteleft/quoteright/quotedblleft/quotedblright/bullet
/endash/emdash/tilde/trademark/scaron/guilsinglright/oe/.notdef/.notdef
/Ydieresis WindowsLatin1Encoding 128 32 getinterval astore pop}
{/WindowsLatin1Encoding StandardEncoding bdef} ifelse
/reencode {exch dup where {pop load} {pop StandardEncoding} ifelse
  exch dup 3 1 roll findfont dup length dict begin
  { 1 index /FID ne {def}{pop pop} ifelse } forall
  /Encoding exch def currentdict end definefont pop} bdef
/isroman {findfont /CharStrings get /Agrave known} bdef
/FMSR {3 1 roll 1 index dup isroman {reencode} {pop pop} ifelse
  exch FMS} bdef
/csm {1 dpi2point div -1 dpi2point div scale neg translate
 dup landscapeMode eq {pop -90 rotate}
  {rotateMode eq {90 rotate} if} ifelse} bdef
% line types: solid, dotted, dashed, dotdash
/SO { [] 0 setdash } bdef
/DO { [.5 dpi2point mul 4 dpi2point mul] 0 setdash } bdef
/DA { [6 dpi2point mul] 0 setdash } bdef
/DD { [.5 dpi2point mul 4 dpi2point mul 6 dpi2point mul 4
  dpi2point mul] 0 setdash } bdef
% macros for lines and objects
/L {lineto stroke} bdef
/MP {3 1 roll moveto 1 sub {rlineto} repeat} bdef
/AP {{rlineto} repeat} bdef
/PDlw -1 def
/W {/PDlw currentlinewidth def setlinewidth} def
/PP {closepath eofill} bdef
/DP {closepath stroke} bdef
/MR {4 -2 roll moveto dup  0 exch rlineto exch 0 rlineto
  neg 0 exch rlineto closepath} bdef
/FR {MR stroke} bdef
/PR {MR fill} bdef
/L1i {{currentfile picstr readhexstring pop} image} bdef
/tMatrix matrix def
/MakeOval {newpath tMatrix currentmatrix pop translate scale
0 0 1 0 360 arc tMatrix setmatrix} bdef
/FO {MakeOval stroke} bdef
/PO {MakeOval fill} bdef
/PD {currentlinewidth 2 div 0 360 arc fill
   PDlw -1 eq not {PDlw w /PDlw -1 def} if} def
/FA {newpath tMatrix currentmatrix pop translate scale
  0 0 1 5 -2 roll arc tMatrix setmatrix stroke} bdef
/PA {newpath tMatrix currentmatrix pop	translate 0 0 moveto scale
  0 0 1 5 -2 roll arc closepath tMatrix setmatrix fill} bdef
/FAn {newpath tMatrix currentmatrix pop translate scale
  0 0 1 5 -2 roll arcn tMatrix setmatrix stroke} bdef
/PAn {newpath tMatrix currentmatrix pop translate 0 0 moveto scale
  0 0 1 5 -2 roll arcn closepath tMatrix setmatrix fill} bdef
/vradius 0 def /hradius 0 def /lry 0 def
/lrx 0 def /uly 0 def /ulx 0 def /rad 0 def
/MRR {/vradius xdef /hradius xdef /lry xdef /lrx xdef /uly xdef
  /ulx xdef newpath tMatrix currentmatrix pop ulx hradius add uly
  vradius add translate hradius vradius scale 0 0 1 180 270 arc 
  tMatrix setmatrix lrx hradius sub uly vradius add translate
  hradius vradius scale 0 0 1 270 360 arc tMatrix setmatrix
  lrx hradius sub lry vradius sub translate hradius vradius scale
  0 0 1 0 90 arc tMatrix setmatrix ulx hradius add lry vradius sub
  translate hradius vradius scale 0 0 1 90 180 arc tMatrix setmatrix
  closepath} bdef
/FRR {MRR stroke } bdef
/PRR {MRR fill } bdef
/MlrRR {/lry xdef /lrx xdef /uly xdef /ulx xdef /rad lry uly sub 2 div def
  newpath tMatrix currentmatrix pop ulx rad add uly rad add translate
  rad rad scale 0 0 1 90 270 arc tMatrix setmatrix lrx rad sub lry rad
  sub translate rad rad scale 0 0 1 270 90 arc tMatrix setmatrix
  closepath} bdef
/FlrRR {MlrRR stroke } bdef
/PlrRR {MlrRR fill } bdef
/MtbRR {/lry xdef /lrx xdef /uly xdef /ulx xdef /rad lrx ulx sub 2 div def
  newpath tMatrix currentmatrix pop ulx rad add uly rad add translate
  rad rad scale 0 0 1 180 360 arc tMatrix setmatrix lrx rad sub lry rad
  sub translate rad rad scale 0 0 1 0 180 arc tMatrix setmatrix
  closepath} bdef
/FtbRR {MtbRR stroke } bdef
/PtbRR {MtbRR fill } bdef
/stri 6 array def /dtri 6 array def
/smat 6 array def /dmat 6 array def
/tmat1 6 array def /tmat2 6 array def /dif 3 array def
/asub {/ind2 exch def /ind1 exch def dup dup
  ind1 get exch ind2 get sub exch } bdef
/tri_to_matrix {
  2 0 asub 3 1 asub 4 0 asub 5 1 asub
  dup 0 get exch 1 get 7 -1 roll astore } bdef
/compute_transform {
  dmat dtri tri_to_matrix tmat1 invertmatrix 
  smat stri tri_to_matrix tmat2 concatmatrix } bdef
/ds {stri astore pop} bdef
/dt {dtri astore pop} bdef
/db {2 copy /cols xdef /rows xdef mul dup 3 mul string
  currentfile 
  3 index 0 eq {/ASCIIHexDecode filter}
  {/ASCII85Decode filter 3 index 2 eq {/RunLengthDecode filter} if }
  ifelse exch readstring pop
  dup 0 3 index getinterval /rbmap xdef
  dup 2 index dup getinterval /gbmap xdef
  1 index dup 2 mul exch getinterval /bbmap xdef pop pop}bdef
/it {gs np dtri aload pop moveto lineto lineto cp c
  cols rows 8 compute_transform 
  rbmap gbmap bbmap true 3 colorimage gr}bdef
/il {newpath moveto lineto stroke}bdef
currentdict end def
%%EndProlog

%%BeginSetup
MathWorks begin

0 cap

end
%%EndSetup

%%Page: 1 1
%%BeginPageSetup
%%PageBoundingBox:    87   221   546   598
MathWorks begin
bpage
%%EndPageSetup

%%BeginObject: obj1
bplot

/dpi2point 12 def
portraitMode 0216 7344 csm

  828   160  5519  4530 rc
85 dict begin %Colortable dictionary
/c0 { 0.000000 0.000000 0.000000 sr} bdef
/c1 { 1.000000 1.000000 1.000000 sr} bdef
/c2 { 0.900000 0.000000 0.000000 sr} bdef
/c3 { 0.000000 0.820000 0.000000 sr} bdef
/c4 { 0.000000 0.000000 0.800000 sr} bdef
/c5 { 0.910000 0.820000 0.320000 sr} bdef
/c6 { 1.000000 0.260000 0.820000 sr} bdef
/c7 { 0.000000 0.820000 0.820000 sr} bdef
c0
1 j
1 sg
   0    0 6919 5187 rf
6 w
0 1068 856 0 0 -1068 898 1508 4 MP
PP
-856 0 0 1068 856 0 0 -1068 898 1508 5 MP stroke
4 w
DO
SO
6 w
0 sg
 898 1508 mt 1754 1508 L
 898 1508 mt  898  440 L
 967 1508 mt  967 1497 L
1149 1508 mt 1149 1497 L
1330 1508 mt 1330 1497 L
1512 1508 mt 1512 1497 L
1693 1508 mt 1693 1497 L
 898 1478 mt  909 1478 L
 898 1069 mt  909 1069 L
 898  659 mt  909  659 L
%%IncludeResource: font Helvetica
/Helvetica /WindowsLatin1Encoding 120 FMSR

 986  344 mt 
(P1:1 P1:1\(F\)) s
gs 898 439 858 1070 rc
gr

gs 825 367 1003 1215 rc
24 W
/c8 { 0.000000 0.000000 1.000000 sr} bdef
c8
1499 538 PD
24 W
1500 840 PD
24 W
1104 682 PD
24 W
982 969 PD
24 W
1152 1248 PD
24 W
1229 859 PD
24 W
1054 817 PD
24 W
1255 818 PD
24 W
1430 893 PD
24 W
1207 1365 PD
24 W
1123 1128 PD
24 W
1214 709 PD
24 W
1754 589 PD
24 W
1269 982 PD
24 W
1443 714 PD
24 W
1193 961 PD
24 W
1118 1031 PD
24 W
1480 602 PD
24 W
1457 647 PD
24 W
1460 969 PD
24 W
1148 1159 PD
24 W
1251 1281 PD
24 W
948 1073 PD
24 W
1084 1115 PD
24 W
1494 440 PD
24 W
1229 1269 PD
24 W
1185 771 PD
24 W
1372 877 PD
24 W
1317 787 PD
24 W
1145 948 PD
24 W
1414 1019 PD
24 W
1318 801 PD
24 W
1126 913 PD
24 W
937 840 PD
24 W
1163 911 PD
24 W
1076 1134 PD
24 W
1041 984 PD
24 W
1124 791 PD
24 W
1240 721 PD
24 W
1267 884 PD
24 W
1246 835 PD
24 W
1336 800 PD
24 W
1500 748 PD
24 W
983 1011 PD
24 W
1429 688 PD
24 W
1275 985 PD
24 W
984 1254 PD
24 W
1142 1377 PD
24 W
1580 848 PD
24 W
1417 1139 PD
24 W
1180 973 PD
24 W
1353 1137 PD
24 W
1342 1046 PD
24 W
1403 699 PD
24 W
1168 1214 PD
24 W
1334 820 PD
24 W
898 947 PD
24 W
1471 606 PD
24 W
1199 907 PD
24 W
1296 879 PD
24 W
1360 712 PD
24 W
1062 867 PD
24 W
1289 882 PD
24 W
1376 893 PD
24 W
1517 866 PD
24 W
1539 827 PD
24 W
1372 690 PD
24 W
1207 1033 PD
24 W
1371 1095 PD
24 W
1214 1067 PD
24 W
1194 909 PD
24 W
1531 720 PD
24 W
1420 701 PD
24 W
1084 1022 PD
24 W
1210 1117 PD
24 W
1477 959 PD
24 W
1394 753 PD
24 W
1081 1072 PD
24 W
1218 1081 PD
24 W
1344 967 PD
24 W
1278 704 PD
24 W
1109 997 PD
24 W
1415 656 PD
24 W
917 1445 PD
24 W
1296 941 PD
24 W
1363 1034 PD
24 W
1439 786 PD
24 W
1211 808 PD
24 W
958 1444 PD
24 W
1265 1125 PD
24 W
1097 1050 PD
24 W
1485 616 PD
24 W
974 1296 PD
24 W
1422 805 PD
24 W
1391 1021 PD
24 W
1153 1045 PD
24 W
1355 814 PD
24 W
1333 1223 PD
24 W
1176 1140 PD
24 W
1290 902 PD
24 W
1447 819 PD
24 W
1156 955 PD
24 W
1191 987 PD
24 W
1144 727 PD
24 W
1414 1287 PD
24 W
1133 921 PD
24 W
1345 674 PD
24 W
1104 821 PD
24 W
948 1109 PD
24 W
1369 725 PD
24 W
1286 765 PD
24 W
1188 1149 PD
24 W
1532 1010 PD
24 W
1106 1508 PD
24 W
1103 901 PD
24 W
1486 1131 PD
24 W
1297 1022 PD
24 W
1460 780 PD
24 W
1142 773 PD
24 W
1029 896 PD
24 W
1474 539 PD
24 W
1107 1155 PD
24 W
1237 1058 PD
24 W
1250 892 PD
24 W
1132 952 PD
24 W
1628 663 PD
24 W
1207 920 PD
24 W
1306 806 PD
24 W
1285 998 PD
24 W
1265 1029 PD
24 W
1491 706 PD
24 W
1325 1142 PD
24 W
1245 678 PD
24 W
1273 958 PD
24 W
1063 1143 PD
24 W
1287 857 PD
24 W
1392 1158 PD
24 W
1561 575 PD
24 W
1470 821 PD
24 W
1192 1108 PD
24 W
1185 956 PD
24 W
1459 705 PD
24 W
1072 908 PD
24 W
1245 1243 PD
24 W
1349 832 PD
24 W
1268 1027 PD
24 W
1158 951 PD
24 W
1323 794 PD
24 W
1180 1015 PD
24 W
1190 1082 PD
24 W
992 1265 PD
24 W
1014 1379 PD
24 W
1044 1172 PD
24 W
958 1379 PD
24 W
1109 1406 PD
24 W
1191 881 PD
24 W
1421 1043 PD
24 W
1582 1015 PD
24 W
1115 830 PD
24 W
1153 1389 PD
24 W
1204 1006 PD
24 W
1080 870 PD
24 W
1406 1010 PD
24 W
1100 1149 PD
24 W
1148 794 PD
24 W
1075 994 PD
24 W
1187 903 PD
24 W
1752 807 PD
24 W
984 968 PD
24 W
1288 987 PD
24 W
1225 1055 PD
24 W
1435 768 PD
24 W
1185 1125 PD
24 W
965 1308 PD
24 W
1207 833 PD
24 W
1176 1167 PD
24 W
1427 1190 PD
24 W
1161 1007 PD
24 W
1141 1095 PD
24 W
1233 1187 PD
24 W
1157 1048 PD
24 W
919 1430 PD
24 W
1101 975 PD
24 W
1237 683 PD
24 W
1244 1360 PD
24 W
962 827 PD
24 W
1347 1147 PD
24 W
942 1088 PD
24 W
1117 1307 PD
24 W
1101 1255 PD
24 W
1127 1029 PD
24 W
1404 578 PD
24 W
1538 798 PD
24 W
1617 1131 PD
24 W
1409 750 PD
24 W
1237 1094 PD
24 W
1211 996 PD
24 W
1516 888 PD
24 W
1452 541 PD
24 W
1242 754 PD
gs 898 439 858 1070 rc
/c9 { 1.000000 0.000000 0.000000 sr} bdef
c9
808 -911 898 1351 2 MP stroke
gr
gr

c9
1 sg
0 1068 856 0 0 -1068 2026 1508 4 MP
PP
-856 0 0 1068 856 0 0 -1068 2026 1508 5 MP stroke
4 w
DO
SO
6 w
0 sg
2026 1508 mt 2882 1508 L
2026 1508 mt 2026  440 L
2222 1508 mt 2222 1497 L
2499 1508 mt 2499 1497 L
2775 1508 mt 2775 1497 L
2026 1261 mt 2036 1261 L
2026  927 mt 2036  927 L
2026  594 mt 2036  594 L
2113  344 mt 
(P1:2 P1:2\(F\)) s
gs 2026 439 857 1070 rc
gr

gs 1953 367 1003 1215 rc
24 W
c8
2497 643 PD
24 W
2501 999 PD
24 W
2373 582 PD
24 W
2165 784 PD
24 W
2643 958 PD
24 W
2554 993 PD
24 W
2312 790 PD
24 W
2401 939 PD
24 W
2501 844 PD
24 W
2603 1378 PD
24 W
2266 1106 PD
24 W
2399 835 PD
24 W
2835 440 PD
24 W
2397 1058 PD
24 W
2657 773 PD
24 W
2462 768 PD
24 W
2498 983 PD
24 W
2763 651 PD
24 W
2526 617 PD
24 W
2355 1191 PD
24 W
2426 520 PD
24 W
2397 1388 PD
24 W
2128 939 PD
24 W
2667 841 PD
24 W
2698 440 PD
24 W
2489 976 PD
24 W
2414 1067 PD
24 W
2514 946 PD
24 W
2490 944 PD
24 W
2564 908 PD
24 W
2467 1004 PD
24 W
2444 1206 PD
24 W
2638 1129 PD
24 W
2257 738 PD
24 W
2360 1098 PD
24 W
2342 1243 PD
24 W
2344 1005 PD
24 W
2383 1143 PD
24 W
2515 645 PD
24 W
2425 1005 PD
24 W
2449 784 PD
24 W
2492 861 PD
24 W
2483 794 PD
24 W
2325 907 PD
24 W
2572 705 PD
24 W
2412 780 PD
24 W
2360 1074 PD
24 W
2555 928 PD
24 W
2453 611 PD
24 W
2571 1188 PD
24 W
2537 851 PD
24 W
2551 992 PD
24 W
2594 1138 PD
24 W
2378 615 PD
24 W
2424 1225 PD
24 W
2565 1014 PD
24 W
2026 1119 PD
24 W
2665 653 PD
24 W
2404 855 PD
24 W
2469 687 PD
24 W
2700 583 PD
24 W
2411 814 PD
24 W
2441 573 PD
24 W
2437 1132 PD
24 W
2641 1095 PD
24 W
2834 873 PD
24 W
2426 1108 PD
24 W
2360 889 PD
24 W
2434 997 PD
24 W
2300 953 PD
24 W
2525 887 PD
24 W
2574 922 PD
24 W
2359 708 PD
24 W
2458 802 PD
24 W
2527 984 PD
24 W
2550 1082 PD
24 W
2452 904 PD
24 W
2435 920 PD
24 W
2387 1095 PD
24 W
2572 782 PD
24 W
2399 1027 PD
24 W
2391 929 PD
24 W
2634 665 PD
24 W
2365 1193 PD
24 W
2537 937 PD
24 W
2367 1137 PD
24 W
2521 1070 PD
24 W
2489 1126 PD
24 W
2519 1377 PD
24 W
2450 943 PD
24 W
2163 1294 PD
24 W
2828 660 PD
24 W
2375 1074 PD
24 W
2614 831 PD
24 W
2371 1199 PD
24 W
2543 753 PD
24 W
2467 725 PD
24 W
2365 1139 PD
24 W
2540 1138 PD
24 W
2578 676 PD
24 W
2475 872 PD
24 W
2571 1086 PD
24 W
2385 1079 PD
24 W
2246 714 PD
24 W
2476 837 PD
24 W
2418 766 PD
24 W
2476 865 PD
24 W
2379 863 PD
24 W
2311 1175 PD
24 W
2507 923 PD
24 W
2546 531 PD
24 W
2357 1200 PD
24 W
2506 865 PD
24 W
2399 1250 PD
24 W
2273 1112 PD
24 W
2557 1194 PD
24 W
2566 625 PD
24 W
2611 925 PD
24 W
2453 883 PD
24 W
2290 805 PD
24 W
2552 993 PD
24 W
2511 1338 PD
24 W
2459 1040 PD
24 W
2533 687 PD
24 W
2562 1077 PD
24 W
2783 451 PD
24 W
2273 630 PD
24 W
2503 784 PD
24 W
2737 983 PD
24 W
2355 1266 PD
24 W
2579 708 PD
24 W
2274 1396 PD
24 W
2502 593 PD
24 W
2639 1033 PD
24 W
2191 764 PD
24 W
2522 1013 PD
24 W
2428 1022 PD
24 W
2789 656 PD
24 W
2545 881 PD
24 W
2512 1093 PD
24 W
2430 1100 PD
24 W
2590 659 PD
24 W
2366 902 PD
24 W
2288 1295 PD
24 W
2659 556 PD
24 W
2688 1077 PD
24 W
2408 1210 PD
24 W
2483 848 PD
24 W
2469 1026 PD
24 W
2498 993 PD
24 W
2355 1036 PD
24 W
2456 1062 PD
24 W
2387 833 PD
24 W
2355 603 PD
24 W
2181 1508 PD
24 W
2355 930 PD
24 W
2513 1104 PD
24 W
2582 988 PD
24 W
2351 1135 PD
24 W
2499 1097 PD
24 W
2456 997 PD
24 W
2353 916 PD
24 W
2487 871 PD
24 W
2510 1023 PD
24 W
2796 920 PD
24 W
2259 891 PD
24 W
2562 675 PD
24 W
2564 795 PD
24 W
2462 870 PD
24 W
2495 870 PD
24 W
2591 730 PD
24 W
2660 751 PD
24 W
2316 943 PD
24 W
2208 1251 PD
24 W
2393 743 PD
24 W
2321 1307 PD
24 W
2424 915 PD
24 W
2303 831 PD
24 W
2306 1326 PD
24 W
2331 1127 PD
24 W
2452 1140 PD
24 W
2583 1095 PD
24 W
2285 599 PD
24 W
2373 833 PD
24 W
2721 1071 PD
24 W
2075 659 PD
24 W
2661 1167 PD
24 W
2095 1179 PD
24 W
2489 1283 PD
24 W
2328 1216 PD
24 W
2371 1332 PD
24 W
2412 739 PD
24 W
2882 1162 PD
24 W
2797 653 PD
24 W
2596 492 PD
24 W
2536 885 PD
24 W
2522 864 PD
24 W
2576 851 PD
24 W
2596 1059 PD
24 W
2331 589 PD
gs 2026 439 857 1070 rc
c9
857 -1034 2026 1498 2 MP stroke
gr
gr

c9
1 sg
0 1068 856 0 0 -1068 3152 1508 4 MP
PP
-856 0 0 1068 856 0 0 -1068 3152 1508 5 MP stroke
4 w
DO
SO
6 w
0 sg
3152 1508 mt 4008 1508 L
3152 1508 mt 3152  440 L
3294 1508 mt 3294 1497 L
3441 1508 mt 3441 1497 L
3589 1508 mt 3589 1497 L
3736 1508 mt 3736 1497 L
3883 1508 mt 3883 1497 L
3152 1413 mt 3162 1413 L
3152 1097 mt 3162 1097 L
3152  782 mt 3162  782 L
3152  466 mt 3162  466 L
3235  344 mt 
(P1:3 P1:3\(S\)) s
gs 3152 439 857 1070 rc
gr

gs 3079 367 1003 1215 rc
24 W
c8
3916 815 PD
24 W
3375 1001 PD
24 W
3385 1168 PD
24 W
3221 1407 PD
24 W
3704 1089 PD
24 W
3430 1131 PD
24 W
3854 1230 PD
24 W
3283 1296 PD
24 W
3713 690 PD
24 W
3846 723 PD
24 W
3496 969 PD
24 W
3306 1295 PD
24 W
3712 881 PD
24 W
3667 1192 PD
24 W
3742 796 PD
24 W
3846 896 PD
24 W
3575 440 PD
24 W
3527 1188 PD
24 W
3226 1352 PD
24 W
3613 1278 PD
24 W
3565 1248 PD
24 W
3596 1080 PD
24 W
3222 1456 PD
24 W
3445 1159 PD
24 W
3347 1369 PD
24 W
3709 1096 PD
24 W
3374 1059 PD
24 W
3432 1146 PD
24 W
3414 1321 PD
24 W
3399 1309 PD
24 W
3210 1332 PD
24 W
3668 1101 PD
24 W
3574 1322 PD
24 W
3248 1387 PD
24 W
3687 1017 PD
24 W
3259 1325 PD
24 W
4008 1151 PD
24 W
3669 1237 PD
24 W
3825 1032 PD
24 W
3606 1108 PD
24 W
3201 1357 PD
24 W
3681 1175 PD
24 W
3548 1229 PD
24 W
3706 724 PD
24 W
3413 1254 PD
24 W
3333 1081 PD
24 W
3809 1054 PD
24 W
3367 1186 PD
24 W
3179 1213 PD
24 W
3222 1435 PD
24 W
3404 1400 PD
24 W
3717 1043 PD
24 W
3475 1082 PD
24 W
3529 1137 PD
24 W
3512 1270 PD
24 W
3280 1290 PD
24 W
3440 1114 PD
24 W
3225 1327 PD
24 W
3221 1378 PD
24 W
3277 1336 PD
24 W
3468 1231 PD
24 W
3784 1093 PD
24 W
3312 1234 PD
24 W
3923 1162 PD
24 W
3401 995 PD
24 W
3667 1227 PD
24 W
3884 1116 PD
24 W
3639 844 PD
24 W
3300 1227 PD
24 W
3341 1395 PD
24 W
3627 1120 PD
24 W
3494 1205 PD
24 W
3228 1401 PD
24 W
3545 1126 PD
24 W
3661 1171 PD
24 W
3715 991 PD
24 W
3444 1038 PD
24 W
3364 1334 PD
24 W
3417 1341 PD
24 W
3544 1148 PD
24 W
3914 1144 PD
24 W
3655 1049 PD
24 W
3258 1508 PD
24 W
3288 1425 PD
24 W
3372 1345 PD
24 W
3297 1248 PD
24 W
3389 1189 PD
24 W
3602 1117 PD
24 W
3374 1463 PD
24 W
3512 1179 PD
24 W
3247 1417 PD
24 W
3225 1352 PD
24 W
3305 1339 PD
24 W
3263 1394 PD
24 W
3365 1325 PD
24 W
3433 1410 PD
24 W
3450 1437 PD
24 W
3393 1123 PD
24 W
3458 1223 PD
24 W
3181 1419 PD
24 W
3933 660 PD
24 W
3416 1222 PD
24 W
3618 921 PD
24 W
3455 1277 PD
24 W
3497 1367 PD
24 W
3597 1325 PD
24 W
3240 1308 PD
24 W
3644 1165 PD
24 W
3348 1232 PD
24 W
3242 1445 PD
24 W
3461 1038 PD
24 W
3500 1439 PD
24 W
3650 1149 PD
24 W
3274 1333 PD
24 W
3427 1414 PD
24 W
3679 1301 PD
24 W
3509 1361 PD
24 W
3341 1363 PD
24 W
3426 1318 PD
24 W
3457 960 PD
24 W
3432 1204 PD
24 W
3400 1221 PD
24 W
3487 1199 PD
24 W
3304 1278 PD
24 W
3448 897 PD
24 W
3451 1270 PD
24 W
3394 1370 PD
24 W
3352 1358 PD
24 W
3213 1335 PD
24 W
3348 1233 PD
24 W
3369 1199 PD
24 W
3459 1253 PD
24 W
3492 1285 PD
24 W
3534 952 PD
24 W
3408 1293 PD
24 W
3433 1263 PD
24 W
3225 1396 PD
24 W
3751 557 PD
24 W
3427 1382 PD
24 W
3488 1063 PD
24 W
3441 971 PD
24 W
3819 982 PD
24 W
3511 1232 PD
24 W
3251 1345 PD
24 W
3353 1218 PD
24 W
3540 1297 PD
24 W
3806 841 PD
24 W
3628 1256 PD
24 W
3775 891 PD
24 W
3902 1239 PD
24 W
3637 1176 PD
24 W
3283 1292 PD
24 W
3347 1197 PD
24 W
3359 1319 PD
24 W
3674 772 PD
24 W
3671 960 PD
24 W
3415 1357 PD
24 W
3491 1081 PD
24 W
3492 1209 PD
24 W
3704 1101 PD
24 W
3484 1186 PD
24 W
3385 1360 PD
24 W
3182 1225 PD
24 W
3434 1353 PD
24 W
3293 1486 PD
24 W
3309 1474 PD
24 W
3289 1348 PD
24 W
3456 1311 PD
24 W
3731 1100 PD
24 W
3508 1248 PD
24 W
3423 1301 PD
24 W
3303 1470 PD
24 W
3230 1437 PD
24 W
3206 1476 PD
24 W
3304 1267 PD
24 W
3352 1285 PD
24 W
3160 1479 PD
24 W
3152 1454 PD
24 W
3247 1356 PD
24 W
3325 1363 PD
24 W
3290 1415 PD
24 W
3171 1222 PD
24 W
3365 1217 PD
24 W
3367 1139 PD
24 W
3457 1236 PD
24 W
3493 1129 PD
24 W
3308 1469 PD
24 W
3470 1248 PD
24 W
3969 1269 PD
24 W
3485 889 PD
24 W
3243 1404 PD
24 W
3274 1389 PD
24 W
3559 1248 PD
24 W
3782 1027 PD
24 W
3732 1018 PD
24 W
3722 952 PD
24 W
3411 1312 PD
24 W
3407 1162 PD
24 W
3695 1157 PD
24 W
3462 1150 PD
gs 3152 439 857 1070 rc
c9
857 -918 3152 1408 2 MP stroke
gr
gr

c9
1 sg
0 1068 856 0 0 -1068 4278 1508 4 MP
PP
-856 0 0 1068 856 0 0 -1068 4278 1508 5 MP stroke
4 w
DO
SO
6 w
0 sg
4278 1508 mt 5134 1508 L
4278 1508 mt 4278  440 L
4333 1508 mt 4333 1497 L
4540 1508 mt 4540 1497 L
4747 1508 mt 4747 1497 L
4954 1508 mt 4954 1497 L
4278 1244 mt 4288 1244 L
4278  946 mt 4288  946 L
4278  648 mt 4288  648 L
4361  344 mt 
(P1:4 P1:4\(S\)) s
gs 4278 439 857 1070 rc
gr

gs 4205 367 1003 1215 rc
24 W
c8
4921 666 PD
24 W
4619 837 PD
24 W
4670 934 PD
24 W
4506 1057 PD
24 W
4767 1042 PD
24 W
4548 955 PD
24 W
4714 1206 PD
24 W
4388 1232 PD
24 W
4619 832 PD
24 W
4926 852 PD
24 W
4397 862 PD
24 W
4389 1278 PD
24 W
4635 832 PD
24 W
4671 946 PD
24 W
4501 1049 PD
24 W
4547 840 PD
24 W
4793 860 PD
24 W
4472 1228 PD
24 W
4631 936 PD
24 W
4623 1154 PD
24 W
4438 1269 PD
24 W
4856 938 PD
24 W
4475 1246 PD
24 W
4496 1159 PD
24 W
4625 1278 PD
24 W
4481 1134 PD
24 W
4441 1136 PD
24 W
4445 1112 PD
24 W
4652 863 PD
24 W
4463 1006 PD
24 W
4279 1425 PD
24 W
4563 1316 PD
24 W
4542 1320 PD
24 W
4652 948 PD
24 W
4602 992 PD
24 W
4537 1190 PD
24 W
4697 1246 PD
24 W
4394 1201 PD
24 W
4655 1126 PD
24 W
4712 973 PD
24 W
4454 1503 PD
24 W
4730 937 PD
24 W
4490 1135 PD
24 W
4816 520 PD
24 W
4439 1249 PD
24 W
4594 935 PD
24 W
4641 982 PD
24 W
4613 666 PD
24 W
4518 978 PD
24 W
4438 1085 PD
24 W
4684 1095 PD
24 W
4544 1068 PD
24 W
4445 1021 PD
24 W
4545 1358 PD
24 W
4425 1169 PD
24 W
4343 1414 PD
24 W
4452 1035 PD
24 W
4582 978 PD
24 W
4497 963 PD
24 W
4485 1128 PD
24 W
4683 1183 PD
24 W
4953 918 PD
24 W
4948 921 PD
24 W
4798 989 PD
24 W
4811 951 PD
24 W
4579 899 PD
24 W
4622 966 PD
24 W
4503 908 PD
24 W
4485 915 PD
24 W
4507 1091 PD
24 W
4500 1011 PD
24 W
4545 1033 PD
24 W
4547 1280 PD
24 W
4675 1014 PD
24 W
4600 1013 PD
24 W
4537 938 PD
24 W
4694 772 PD
24 W
4807 1067 PD
24 W
4504 1233 PD
24 W
4578 1183 PD
24 W
4818 1160 PD
24 W
4542 890 PD
24 W
4720 1331 PD
24 W
4318 1330 PD
24 W
4570 1250 PD
24 W
4534 781 PD
24 W
4455 1317 PD
24 W
4571 1167 PD
24 W
4444 1338 PD
24 W
4833 623 PD
24 W
4396 1467 PD
24 W
4508 1033 PD
24 W
4448 1137 PD
24 W
4491 1280 PD
24 W
4482 1059 PD
24 W
4466 1377 PD
24 W
4450 1380 PD
24 W
4620 1174 PD
24 W
4409 1131 PD
24 W
4421 1067 PD
24 W
5006 826 PD
24 W
4394 1069 PD
24 W
4950 947 PD
24 W
4531 1300 PD
24 W
4401 1295 PD
24 W
4459 1319 PD
24 W
4516 1097 PD
24 W
4667 1239 PD
24 W
4447 1307 PD
24 W
4576 992 PD
24 W
4452 1149 PD
24 W
4466 1162 PD
24 W
4545 1150 PD
24 W
4566 828 PD
24 W
4738 943 PD
24 W
4744 1041 PD
24 W
4593 1004 PD
24 W
4552 1418 PD
24 W
4400 1242 PD
24 W
4422 1122 PD
24 W
4348 1239 PD
24 W
4441 1508 PD
24 W
4506 1160 PD
24 W
4627 440 PD
24 W
4824 864 PD
24 W
4661 951 PD
24 W
4498 1114 PD
24 W
4587 1257 PD
24 W
4522 1051 PD
24 W
4530 1216 PD
24 W
4668 935 PD
24 W
4489 1316 PD
24 W
4406 1091 PD
24 W
4645 1167 PD
24 W
4553 1127 PD
24 W
4464 1171 PD
24 W
4278 1387 PD
24 W
4615 1002 PD
24 W
4503 1304 PD
24 W
4641 870 PD
24 W
4452 1192 PD
24 W
4813 760 PD
24 W
4426 1122 PD
24 W
4572 1160 PD
24 W
4603 1244 PD
24 W
4875 1029 PD
24 W
4638 924 PD
24 W
4873 746 PD
24 W
4458 1074 PD
24 W
4779 1033 PD
24 W
4658 1003 PD
24 W
4371 1304 PD
24 W
4589 948 PD
24 W
4477 1104 PD
24 W
4855 662 PD
24 W
4471 1155 PD
24 W
4745 1179 PD
24 W
4497 1293 PD
24 W
4625 1048 PD
24 W
4664 971 PD
24 W
4638 793 PD
24 W
4463 1242 PD
24 W
4749 897 PD
24 W
4517 1021 PD
24 W
4481 1183 PD
24 W
4413 1353 PD
24 W
4395 1298 PD
24 W
4364 1195 PD
24 W
4478 892 PD
24 W
4496 1061 PD
24 W
4483 1232 PD
24 W
4533 1246 PD
24 W
4426 1392 PD
24 W
4765 728 PD
24 W
4502 1272 PD
24 W
4475 1052 PD
24 W
4503 1227 PD
24 W
4388 1375 PD
24 W
4803 1169 PD
24 W
4592 1326 PD
24 W
4374 1255 PD
24 W
4781 1020 PD
24 W
4723 1048 PD
24 W
4783 800 PD
24 W
4594 1073 PD
24 W
4737 1232 PD
24 W
4815 1282 PD
24 W
5063 961 PD
24 W
4865 953 PD
24 W
5134 473 PD
24 W
4817 1149 PD
24 W
5031 941 PD
24 W
4474 1179 PD
24 W
4639 922 PD
24 W
4871 954 PD
24 W
4855 522 PD
24 W
4409 1143 PD
24 W
4879 696 PD
24 W
4491 1162 PD
24 W
4560 997 PD
gs 4278 439 857 1070 rc
c9
613 -884 4278 1324 2 MP stroke
gr
gr

c9
1 sg
0 1068 856 0 0 -1068 5405 1508 4 MP
PP
-856 0 0 1068 856 0 0 -1068 5405 1508 5 MP stroke
4 w
DO
SO
6 w
0 sg
5405 1508 mt 6261 1508 L
5405 1508 mt 5405  440 L
5619 1508 mt 5619 1497 L
5874 1508 mt 5874 1497 L
6130 1508 mt 6130 1497 L
5405 1234 mt 5415 1234 L
5405  911 mt 5415  911 L
5405  587 mt 5415  587 L
5488  345 mt 
(P1:5 P1:5\(S\)) s
gs 5405 440 857 1069 rc
gr

gs 5332 367 1003 1215 rc
24 W
c8
5815 801 PD
24 W
5815 638 PD
24 W
5940 857 PD
24 W
5809 1050 PD
24 W
5729 957 PD
24 W
5701 958 PD
24 W
5710 1209 PD
24 W
5454 977 PD
24 W
5860 502 PD
24 W
5773 681 PD
24 W
5581 753 PD
24 W
5709 1165 PD
24 W
5621 866 PD
24 W
5836 1064 PD
24 W
5744 709 PD
24 W
5774 687 PD
24 W
5777 749 PD
24 W
5647 1036 PD
24 W
5905 666 PD
24 W
5623 1225 PD
24 W
5662 960 PD
24 W
5929 812 PD
24 W
5809 1058 PD
24 W
5848 945 PD
24 W
5854 814 PD
24 W
5712 1032 PD
24 W
5571 914 PD
24 W
5520 822 PD
24 W
5911 867 PD
24 W
5705 1002 PD
24 W
5405 1189 PD
24 W
5886 1377 PD
24 W
5768 1086 PD
24 W
5769 756 PD
24 W
5697 887 PD
24 W
5728 1084 PD
24 W
5924 973 PD
24 W
5738 976 PD
24 W
5617 1063 PD
24 W
5640 765 PD
24 W
5621 1474 PD
24 W
5807 826 PD
24 W
5642 1100 PD
24 W
6089 444 PD
24 W
5705 1154 PD
24 W
5812 736 PD
24 W
5726 821 PD
24 W
5723 650 PD
24 W
5609 983 PD
24 W
5828 1087 PD
24 W
5868 939 PD
24 W
5863 944 PD
24 W
5540 963 PD
24 W
5615 1237 PD
24 W
5656 1056 PD
24 W
5540 1293 PD
24 W
5616 926 PD
24 W
5664 1005 PD
24 W
5525 897 PD
24 W
5600 1116 PD
24 W
5496 1106 PD
24 W
6022 984 PD
24 W
5894 549 PD
24 W
5762 1122 PD
24 W
5893 1027 PD
24 W
5823 1075 PD
24 W
5916 1003 PD
24 W
5578 684 PD
24 W
5806 866 PD
24 W
5706 1076 PD
24 W
5605 981 PD
24 W
5455 1127 PD
24 W
5645 1382 PD
24 W
5682 888 PD
24 W
5602 891 PD
24 W
5700 857 PD
24 W
5703 865 PD
24 W
5901 891 PD
24 W
5598 1070 PD
24 W
5504 1054 PD
24 W
6072 949 PD
24 W
5724 784 PD
24 W
5840 1215 PD
24 W
5772 1200 PD
24 W
5969 1187 PD
24 W
5549 729 PD
24 W
5696 935 PD
24 W
5739 1104 PD
24 W
5547 1258 PD
24 W
5961 849 PD
24 W
5668 1269 PD
24 W
5820 1001 PD
24 W
5792 959 PD
24 W
5647 1309 PD
24 W
5513 950 PD
24 W
5643 1222 PD
24 W
5613 1316 PD
24 W
5723 958 PD
24 W
5550 1150 PD
24 W
5671 1176 PD
24 W
6004 514 PD
24 W
5437 1237 PD
24 W
5766 597 PD
24 W
5525 1192 PD
24 W
5486 1207 PD
24 W
5769 1122 PD
24 W
5727 711 PD
24 W
5666 1146 PD
24 W
5717 928 PD
24 W
5715 1254 PD
24 W
5681 787 PD
24 W
5659 1168 PD
24 W
5658 819 PD
24 W
5757 1262 PD
24 W
5899 1098 PD
24 W
5781 1119 PD
24 W
5935 1143 PD
24 W
5625 1472 PD
24 W
5684 965 PD
24 W
5558 911 PD
24 W
5564 959 PD
24 W
5819 1508 PD
24 W
5652 972 PD
24 W
5734 1023 PD
24 W
5993 440 PD
24 W
5543 978 PD
24 W
5763 1055 PD
24 W
5785 1127 PD
24 W
5810 926 PD
24 W
6104 1120 PD
24 W
5883 614 PD
24 W
5516 1057 PD
24 W
5454 1088 PD
24 W
5645 1001 PD
24 W
5960 549 PD
24 W
5761 973 PD
24 W
5515 1239 PD
24 W
5815 668 PD
24 W
5698 1057 PD
24 W
5801 1120 PD
24 W
5504 948 PD
24 W
5769 826 PD
24 W
5578 1069 PD
24 W
5735 1289 PD
24 W
5665 1086 PD
24 W
5957 973 PD
24 W
5898 573 PD
24 W
6032 676 PD
24 W
5835 668 PD
24 W
5861 889 PD
24 W
5675 1011 PD
24 W
5528 1198 PD
24 W
5876 683 PD
24 W
5496 1049 PD
24 W
5838 591 PD
24 W
5614 816 PD
24 W
5993 642 PD
24 W
5761 1128 PD
24 W
5564 1120 PD
24 W
5677 1148 PD
24 W
5648 1075 PD
24 W
5542 1257 PD
24 W
5968 1039 PD
24 W
5866 740 PD
24 W
5885 1211 PD
24 W
5917 1293 PD
24 W
5615 1081 PD
24 W
5775 1050 PD
24 W
5817 868 PD
24 W
5643 1101 PD
24 W
6041 1139 PD
24 W
5886 1124 PD
24 W
5574 1316 PD
24 W
5738 974 PD
24 W
5719 1102 PD
24 W
5604 1074 PD
24 W
5712 1263 PD
24 W
5820 1411 PD
24 W
5965 1053 PD
24 W
5881 1357 PD
24 W
6173 1109 PD
24 W
5805 899 PD
24 W
5968 1091 PD
24 W
6129 508 PD
24 W
6070 1153 PD
24 W
6109 877 PD
24 W
6022 1154 PD
24 W
5981 775 PD
24 W
6059 1133 PD
24 W
6254 478 PD
24 W
5818 1091 PD
24 W
6261 503 PD
24 W
5677 1049 PD
24 W
5732 1007 PD
24 W
5918 917 PD
24 W
5759 935 PD
24 W
5451 1337 PD
24 W
5946 594 PD
24 W
5604 1129 PD
24 W
5571 1043 PD
gs 5405 440 857 1069 rc
c9
586 -742 5405 1182 2 MP stroke
gr
gr

c9
1 sg
0 1069 857 0 0 -1069 898 3062 4 MP
PP
-857 0 0 1069 857 0 0 -1069 898 3062 5 MP stroke
4 w
DO
SO
6 w
0 sg
 898 3062 mt 1755 3062 L
 898 3062 mt  898 1993 L
 942 3062 mt  942 3051 L
1168 3062 mt 1168 3051 L
1394 3062 mt 1394 3051 L
1620 3062 mt 1620 3051 L
 898 2958 mt  909 2958 L
 898 2693 mt  909 2693 L
 898 2428 mt  909 2428 L
 898 2163 mt  909 2163 L
 986 1898 mt 
(P1:6 P1:6\(F\)) s
gs 898 1993 858 1070 rc
gr

gs 825 1920 1004 1216 rc
24 W
c8
1534 2298 PD
24 W
1277 2720 PD
24 W
1379 2497 PD
24 W
951 2718 PD
24 W
1012 2896 PD
24 W
1470 2560 PD
24 W
1010 2634 PD
24 W
1187 2421 PD
24 W
1281 2411 PD
24 W
1406 2583 PD
24 W
1214 2656 PD
24 W
1229 2398 PD
24 W
1465 2425 PD
24 W
1468 2593 PD
24 W
1474 2430 PD
24 W
1291 2246 PD
24 W
1289 2390 PD
24 W
1376 2611 PD
24 W
1335 2526 PD
24 W
1299 2831 PD
24 W
990 3008 PD
24 W
1187 2950 PD
24 W
957 2624 PD
24 W
1379 2665 PD
24 W
1478 2430 PD
24 W
1153 2944 PD
24 W
1068 2687 PD
24 W
1556 2620 PD
24 W
1278 2653 PD
24 W
1271 2648 PD
24 W
1277 2575 PD
24 W
1085 2434 PD
24 W
1375 2471 PD
24 W
898 2693 PD
24 W
1212 2731 PD
24 W
1208 2747 PD
24 W
1028 2486 PD
24 W
992 2547 PD
24 W
1307 2647 PD
24 W
1389 2455 PD
24 W
1354 2360 PD
24 W
1478 2318 PD
24 W
1410 2300 PD
24 W
952 2629 PD
24 W
1561 2080 PD
24 W
1166 2296 PD
24 W
974 2946 PD
24 W
1056 2860 PD
24 W
1304 2470 PD
24 W
1417 2745 PD
24 W
1286 2523 PD
24 W
1346 2606 PD
24 W
1185 2548 PD
24 W
1363 2443 PD
24 W
969 3006 PD
24 W
1400 2748 PD
24 W
1009 2352 PD
24 W
1389 2503 PD
24 W
1506 2145 PD
24 W
1384 2605 PD
24 W
1168 2594 PD
24 W
1097 2639 PD
24 W
1376 2376 PD
24 W
1239 2391 PD
24 W
1643 2731 PD
24 W
1460 2626 PD
24 W
1651 2400 PD
24 W
1432 2969 PD
24 W
1494 2509 PD
24 W
1607 2458 PD
24 W
1113 1993 PD
24 W
1401 2525 PD
24 W
1183 2692 PD
24 W
977 2891 PD
24 W
1130 2738 PD
24 W
1413 2845 PD
24 W
1532 2126 PD
24 W
1313 2412 PD
24 W
1065 2787 PD
24 W
1141 2535 PD
24 W
1532 2794 PD
24 W
956 2611 PD
24 W
1642 2133 PD
24 W
938 2968 PD
24 W
1118 2640 PD
24 W
1209 2705 PD
24 W
1459 2539 PD
24 W
1566 2516 PD
24 W
1003 2805 PD
24 W
1255 2578 PD
24 W
1296 2549 PD
24 W
1508 2238 PD
24 W
1149 2596 PD
24 W
1334 2884 PD
24 W
1291 2535 PD
24 W
1422 2785 PD
24 W
1120 2676 PD
24 W
1374 2652 PD
24 W
1134 2968 PD
24 W
1336 2335 PD
24 W
1504 2439 PD
24 W
1288 2840 PD
24 W
1419 2532 PD
24 W
1242 2494 PD
24 W
1150 2964 PD
24 W
1133 2520 PD
24 W
1457 2155 PD
24 W
1206 2587 PD
24 W
963 2468 PD
24 W
1153 2651 PD
24 W
1444 2106 PD
24 W
1074 2971 PD
24 W
1362 2492 PD
24 W
1207 3062 PD
24 W
1109 2847 PD
24 W
1271 2683 PD
24 W
1251 2478 PD
24 W
1516 2669 PD
24 W
1232 2334 PD
24 W
1250 2393 PD
24 W
1161 2482 PD
24 W
1262 2421 PD
24 W
1409 2438 PD
24 W
1107 2742 PD
24 W
1336 2489 PD
24 W
1606 2636 PD
24 W
1405 2452 PD
24 W
1488 2588 PD
24 W
1437 2302 PD
24 W
1212 2786 PD
24 W
1482 2330 PD
24 W
1095 2861 PD
24 W
1233 2526 PD
24 W
1208 2561 PD
24 W
1079 2501 PD
24 W
1314 2309 PD
24 W
1355 2864 PD
24 W
1367 2482 PD
24 W
1275 2629 PD
24 W
1308 2899 PD
24 W
1288 2535 PD
24 W
1547 2440 PD
24 W
1142 2700 PD
24 W
1028 2800 PD
24 W
1259 2849 PD
24 W
1219 2668 PD
24 W
1323 2322 PD
24 W
1444 2463 PD
24 W
1391 2394 PD
24 W
1135 2680 PD
24 W
1284 2639 PD
24 W
979 2935 PD
24 W
1151 2443 PD
24 W
950 2533 PD
24 W
1442 2946 PD
24 W
1182 2573 PD
24 W
1395 2748 PD
24 W
1193 2995 PD
24 W
1167 2790 PD
24 W
1071 2917 PD
24 W
1197 2595 PD
24 W
1148 2494 PD
24 W
1408 2370 PD
24 W
1041 2820 PD
24 W
955 2923 PD
24 W
1215 2572 PD
24 W
1266 2123 PD
24 W
1252 2597 PD
24 W
1316 2402 PD
24 W
1309 2371 PD
24 W
1369 2439 PD
24 W
1255 2484 PD
24 W
1289 2473 PD
24 W
956 2871 PD
24 W
1082 2470 PD
24 W
1590 2491 PD
24 W
1374 2774 PD
24 W
1159 2748 PD
24 W
1325 2853 PD
24 W
1115 2752 PD
24 W
1256 2677 PD
24 W
966 2888 PD
24 W
1102 2271 PD
24 W
1755 2143 PD
24 W
1116 2784 PD
24 W
966 2192 PD
24 W
1385 2702 PD
24 W
1282 2609 PD
24 W
965 2728 PD
24 W
927 2880 PD
24 W
1030 2782 PD
24 W
1245 2518 PD
24 W
1385 2498 PD
24 W
1273 2727 PD
24 W
1294 2638 PD
24 W
1225 2766 PD
24 W
1259 2413 PD
24 W
1321 2490 PD
24 W
1473 2611 PD
24 W
1267 2590 PD
gs 898 1993 858 1070 rc
c9
858 -1007 898 3010 2 MP stroke
gr
gr

c9
1 sg
0 1069 856 0 0 -1069 2026 3062 4 MP
PP
-856 0 0 1069 856 0 0 -1069 2026 3062 5 MP stroke
4 w
DO
SO
6 w
0 sg
2026 3062 mt 2882 3062 L
2026 3062 mt 2026 1993 L
2160 3062 mt 2160 3051 L
2551 3062 mt 2551 3051 L
2026 2891 mt 2036 2891 L
2026 2677 mt 2036 2677 L
2026 2463 mt 2036 2463 L
2026 2248 mt 2036 2248 L
2026 2034 mt 2036 2034 L
2113 1898 mt 
(P1:7 P1:7\(F\)) s
gs 2026 1993 857 1070 rc
gr

gs 1953 1920 1003 1216 rc
24 W
c8
2527 2356 PD
24 W
2302 2731 PD
24 W
2402 2604 PD
24 W
2138 2783 PD
24 W
2200 2941 PD
24 W
2425 2678 PD
24 W
2214 2561 PD
24 W
2348 2486 PD
24 W
2307 2626 PD
24 W
2550 2601 PD
24 W
2366 2701 PD
24 W
2365 2527 PD
24 W
2486 2499 PD
24 W
2513 2677 PD
24 W
2454 2565 PD
24 W
2506 2283 PD
24 W
2430 2523 PD
24 W
2419 2652 PD
24 W
2416 2563 PD
24 W
2359 2783 PD
24 W
2131 2984 PD
24 W
2347 2914 PD
24 W
2169 2610 PD
24 W
2499 2717 PD
24 W
2523 2452 PD
24 W
2257 2931 PD
24 W
2235 2740 PD
24 W
2594 2542 PD
24 W
2370 2711 PD
24 W
2312 2724 PD
24 W
2374 2667 PD
24 W
2265 2481 PD
24 W
2517 2598 PD
24 W
2026 2782 PD
24 W
2377 2739 PD
24 W
2374 2666 PD
24 W
2233 2583 PD
24 W
2167 2702 PD
24 W
2442 2693 PD
24 W
2422 2504 PD
24 W
2447 2413 PD
24 W
2621 2379 PD
24 W
2416 2387 PD
24 W
2120 2702 PD
24 W
2882 1993 PD
24 W
2330 2419 PD
24 W
2193 2856 PD
24 W
2270 2818 PD
24 W
2375 2606 PD
24 W
2438 2749 PD
24 W
2409 2643 PD
24 W
2442 2685 PD
24 W
2302 2718 PD
24 W
2449 2523 PD
24 W
2124 2990 PD
24 W
2433 2649 PD
24 W
2199 2499 PD
24 W
2532 2520 PD
24 W
2644 2197 PD
24 W
2408 2622 PD
24 W
2278 2674 PD
24 W
2245 2665 PD
24 W
2493 2425 PD
24 W
2575 2264 PD
24 W
2552 2630 PD
24 W
2525 2698 PD
24 W
2641 2454 PD
24 W
2489 2953 PD
24 W
2498 2674 PD
24 W
2566 2563 PD
24 W
2338 2082 PD
24 W
2430 2662 PD
24 W
2278 2735 PD
24 W
2193 2847 PD
24 W
2325 2674 PD
24 W
2474 2785 PD
24 W
2678 2156 PD
24 W
2418 2462 PD
24 W
2262 2749 PD
24 W
2274 2708 PD
24 W
2672 2629 PD
24 W
2163 2591 PD
24 W
2648 2317 PD
24 W
2132 2991 PD
24 W
2247 2743 PD
24 W
2333 2756 PD
24 W
2475 2611 PD
24 W
2597 2403 PD
24 W
2202 2869 PD
24 W
2394 2638 PD
24 W
2371 2533 PD
24 W
2685 2396 PD
24 W
2299 2690 PD
24 W
2364 2830 PD
24 W
2384 2649 PD
24 W
2401 2796 PD
24 W
2250 2806 PD
24 W
2397 2783 PD
24 W
2339 2925 PD
24 W
2382 2523 PD
24 W
2549 2569 PD
24 W
2371 2746 PD
24 W
2510 2589 PD
24 W
2380 2559 PD
24 W
2230 2956 PD
24 W
2284 2511 PD
24 W
2459 2383 PD
24 W
2326 2629 PD
24 W
2197 2519 PD
24 W
2269 2689 PD
24 W
2592 2170 PD
24 W
2225 2925 PD
24 W
2443 2644 PD
24 W
2299 3062 PD
24 W
2286 2824 PD
24 W
2376 2728 PD
24 W
2480 2487 PD
24 W
2490 2608 PD
24 W
2392 2465 PD
24 W
2341 2459 PD
24 W
2291 2613 PD
24 W
2434 2605 PD
24 W
2447 2582 PD
24 W
2296 2741 PD
24 W
2466 2633 PD
24 W
2554 2642 PD
24 W
2453 2478 PD
24 W
2529 2481 PD
24 W
2533 2368 PD
24 W
2299 2804 PD
24 W
2681 2262 PD
24 W
2281 2832 PD
24 W
2365 2495 PD
24 W
2328 2669 PD
24 W
2276 2642 PD
24 W
2478 2455 PD
24 W
2384 2805 PD
24 W
2392 2570 PD
24 W
2404 2710 PD
24 W
2510 2809 PD
24 W
2376 2600 PD
24 W
2622 2409 PD
24 W
2330 2593 PD
24 W
2219 2821 PD
24 W
2389 2740 PD
24 W
2271 2750 PD
24 W
2376 2534 PD
24 W
2439 2710 PD
24 W
2485 2453 PD
24 W
2288 2675 PD
24 W
2468 2634 PD
24 W
2151 2907 PD
24 W
2318 2624 PD
24 W
2147 2675 PD
24 W
2559 2898 PD
24 W
2310 2598 PD
24 W
2354 2800 PD
24 W
2265 2959 PD
24 W
2321 2788 PD
24 W
2246 2900 PD
24 W
2295 2706 PD
24 W
2342 2584 PD
24 W
2533 2420 PD
24 W
2282 2748 PD
24 W
2138 2932 PD
24 W
2374 2636 PD
24 W
2382 2240 PD
24 W
2356 2612 PD
24 W
2372 2489 PD
24 W
2455 2523 PD
24 W
2388 2536 PD
24 W
2356 2623 PD
24 W
2331 2562 PD
24 W
2138 2875 PD
24 W
2250 2602 PD
24 W
2614 2551 PD
24 W
2446 2806 PD
24 W
2288 2825 PD
24 W
2465 2766 PD
24 W
2256 2762 PD
24 W
2308 2753 PD
24 W
2163 2921 PD
24 W
2275 2478 PD
24 W
2623 2449 PD
24 W
2305 2842 PD
24 W
2184 2355 PD
24 W
2421 2733 PD
24 W
2401 2545 PD
24 W
2177 2779 PD
24 W
2128 2796 PD
24 W
2193 2767 PD
24 W
2348 2607 PD
24 W
2476 2528 PD
24 W
2322 2732 PD
24 W
2352 2687 PD
24 W
2451 2676 PD
24 W
2394 2596 PD
24 W
2417 2525 PD
24 W
2532 2671 PD
24 W
2343 2614 PD
gs 2026 1993 857 1070 rc
c9
857 -938 2026 3038 2 MP stroke
gr
gr

c9
1 sg
0 1069 856 0 0 -1069 3152 3062 4 MP
PP
-856 0 0 1069 856 0 0 -1069 3152 3062 5 MP stroke
4 w
DO
SO
6 w
0 sg
3152 3062 mt 4008 3062 L
3152 3062 mt 3152 1993 L
3287 3062 mt 3287 3051 L
3627 3062 mt 3627 3051 L
3967 3062 mt 3967 3051 L
3152 3042 mt 3162 3042 L
3152 2820 mt 3162 2820 L
3152 2598 mt 3162 2598 L
3152 2377 mt 3162 2377 L
3152 2155 mt 3162 2155 L
3239 1898 mt 
(P1:8 P1:8\(F\)) s
gs 3152 1993 857 1070 rc
gr

gs 3079 1920 1003 1216 rc
24 W
c8
3768 2172 PD
24 W
3566 2300 PD
24 W
3545 2513 PD
24 W
3668 2630 PD
24 W
3375 2529 PD
24 W
3520 2494 PD
24 W
3382 2579 PD
24 W
3443 2726 PD
24 W
3362 2548 PD
24 W
3562 3062 PD
24 W
3559 2816 PD
24 W
3552 2418 PD
24 W
3754 2415 PD
24 W
3434 2465 PD
24 W
3537 2553 PD
24 W
3396 2594 PD
24 W
3497 2372 PD
24 W
3507 2537 PD
24 W
3629 2308 PD
24 W
3173 2906 PD
24 W
3529 2827 PD
24 W
3375 3008 PD
24 W
3270 2384 PD
24 W
3608 2127 PD
24 W
3571 2484 PD
24 W
3360 2886 PD
24 W
3506 2561 PD
24 W
3871 2697 PD
24 W
3474 2431 PD
24 W
3439 2760 PD
24 W
3293 2850 PD
24 W
3445 2516 PD
24 W
3468 2162 PD
24 W
3254 2833 PD
24 W
3595 2679 PD
24 W
3345 2196 PD
24 W
3254 2453 PD
24 W
3409 2649 PD
24 W
3582 2730 PD
24 W
3396 2664 PD
24 W
3879 2341 PD
24 W
3678 2216 PD
24 W
3712 2301 PD
24 W
3345 2506 PD
24 W
3915 2311 PD
24 W
3599 2429 PD
24 W
3346 2771 PD
24 W
3309 2622 PD
24 W
3517 2641 PD
24 W
3687 2849 PD
24 W
3579 2476 PD
24 W
3462 2801 PD
24 W
3292 2651 PD
24 W
3518 2473 PD
24 W
3353 2959 PD
24 W
3545 2446 PD
24 W
3650 2182 PD
24 W
4008 2370 PD
24 W
3418 2130 PD
24 W
3643 2271 PD
24 W
3377 2569 PD
24 W
3348 2636 PD
24 W
3622 2730 PD
24 W
3500 2603 PD
24 W
3303 2406 PD
24 W
3671 2199 PD
24 W
3572 2784 PD
24 W
3362 2946 PD
24 W
3583 2595 PD
24 W
3415 2548 PD
24 W
3607 2079 PD
24 W
3548 2518 PD
24 W
3518 2393 PD
24 W
3274 2687 PD
24 W
3384 2610 PD
24 W
3405 2456 PD
24 W
3586 2177 PD
24 W
3613 2681 PD
24 W
3750 2273 PD
24 W
3271 2467 PD
24 W
3446 2086 PD
24 W
3285 2768 PD
24 W
3428 2384 PD
24 W
3182 2907 PD
24 W
3370 2741 PD
24 W
3434 2426 PD
24 W
3511 2494 PD
24 W
3692 2349 PD
24 W
3230 3039 PD
24 W
3534 2602 PD
24 W
3319 2659 PD
24 W
3758 2328 PD
24 W
3488 2222 PD
24 W
3522 2874 PD
24 W
3421 2505 PD
24 W
3605 2563 PD
24 W
3455 2592 PD
24 W
3489 2816 PD
24 W
3304 2430 PD
24 W
3543 2452 PD
24 W
3480 2396 PD
24 W
3643 2883 PD
24 W
3638 2164 PD
24 W
3313 2487 PD
24 W
3390 2666 PD
24 W
3523 2360 PD
24 W
3507 2429 PD
24 W
3594 2357 PD
24 W
3291 2709 PD
24 W
3597 2361 PD
24 W
3823 2441 PD
24 W
3462 2465 PD
24 W
3419 2490 PD
24 W
3276 2831 PD
24 W
3386 2565 PD
24 W
3635 2516 PD
24 W
3654 2170 PD
24 W
3629 2378 PD
24 W
3501 2625 PD
24 W
3322 2582 PD
24 W
3512 2440 PD
24 W
3330 2632 PD
24 W
3588 2468 PD
24 W
3644 1993 PD
24 W
3345 2265 PD
24 W
3872 2363 PD
24 W
3287 2880 PD
24 W
3394 2520 PD
24 W
3552 2264 PD
24 W
3394 2871 PD
24 W
3658 2139 PD
24 W
3316 2993 PD
24 W
3799 2256 PD
24 W
3412 2495 PD
24 W
3519 2392 PD
24 W
3543 2409 PD
24 W
3271 2546 PD
24 W
3677 2470 PD
24 W
3384 2346 PD
24 W
3611 2238 PD
24 W
3289 2834 PD
24 W
3613 2174 PD
24 W
3605 2241 PD
24 W
3192 2994 PD
24 W
3536 2660 PD
24 W
3471 2733 PD
24 W
3257 2812 PD
24 W
3464 2644 PD
24 W
3307 2889 PD
24 W
3281 2867 PD
24 W
3558 2624 PD
24 W
3324 2786 PD
24 W
3447 2456 PD
24 W
3310 2263 PD
24 W
3327 2849 PD
24 W
3446 2402 PD
24 W
3509 2517 PD
24 W
3203 2814 PD
24 W
3571 2525 PD
24 W
3450 2768 PD
24 W
3596 2453 PD
24 W
3460 2439 PD
24 W
3456 2624 PD
24 W
3237 2922 PD
24 W
3216 2812 PD
24 W
3234 2727 PD
24 W
3304 2682 PD
24 W
3900 2534 PD
24 W
3680 2239 PD
24 W
3619 2235 PD
24 W
3539 2556 PD
24 W
3390 2352 PD
24 W
3643 2479 PD
24 W
3413 2455 PD
24 W
3345 2573 PD
24 W
3759 2673 PD
24 W
3542 2546 PD
24 W
3299 2510 PD
24 W
3346 2864 PD
24 W
3633 2432 PD
24 W
3411 2389 PD
24 W
3266 2876 PD
24 W
3530 2201 PD
24 W
3383 2270 PD
24 W
3152 2769 PD
24 W
3503 2377 PD
24 W
3718 2557 PD
24 W
3194 2860 PD
24 W
3285 2755 PD
24 W
3500 2403 PD
24 W
3232 2841 PD
24 W
3321 2540 PD
24 W
3678 2290 PD
24 W
3649 2137 PD
24 W
3426 2489 PD
24 W
3724 2212 PD
24 W
3467 2639 PD
24 W
3356 2488 PD
24 W
3466 2402 PD
24 W
3473 2577 PD
gs 3152 1993 857 1070 rc
c9
770 -1004 3152 2997 2 MP stroke
gr
gr

c9
1 sg
0 1069 856 0 0 -1069 4278 3062 4 MP
PP
-856 0 0 1069 856 0 0 -1069 4278 3062 5 MP stroke
4 w
DO
SO
6 w
0 sg
4278 3062 mt 5134 3062 L
4278 3062 mt 4278 1993 L
4393 3062 mt 4393 3051 L
4578 3062 mt 4578 3051 L
4763 3062 mt 4763 3051 L
4948 3062 mt 4948 3051 L
5132 3062 mt 5132 3051 L
4278 3010 mt 4288 3010 L
4278 2633 mt 4288 2633 L
4278 2256 mt 4288 2256 L
4365 1898 mt 
(P1:9 P1:9\(F\)) s
gs 4278 1993 857 1070 rc
gr

gs 4205 1920 1003 1216 rc
24 W
c8
4903 2193 PD
24 W
4724 2272 PD
24 W
4704 2570 PD
24 W
4916 2378 PD
24 W
4687 2627 PD
24 W
4659 2582 PD
24 W
4575 2402 PD
24 W
4606 2675 PD
24 W
4559 2590 PD
24 W
4571 3062 PD
24 W
4716 2689 PD
24 W
4709 2438 PD
24 W
4851 2457 PD
24 W
4629 2442 PD
24 W
4640 2572 PD
24 W
4642 2606 PD
24 W
4707 2429 PD
24 W
4580 2591 PD
24 W
4816 2275 PD
24 W
4298 2873 PD
24 W
4602 2773 PD
24 W
4625 3044 PD
24 W
4500 2427 PD
24 W
4797 2144 PD
24 W
4866 2409 PD
24 W
4490 2816 PD
24 W
4693 2565 PD
24 W
5131 2537 PD
24 W
4673 2531 PD
24 W
4644 2679 PD
24 W
4459 2848 PD
24 W
4689 2381 PD
24 W
4736 2067 PD
24 W
4478 2783 PD
24 W
4678 2583 PD
24 W
4653 2198 PD
24 W
4421 2475 PD
24 W
4655 2739 PD
24 W
4765 2531 PD
24 W
4586 2674 PD
24 W
5133 2247 PD
24 W
4982 2224 PD
24 W
4899 2298 PD
24 W
4538 2547 PD
24 W
5114 2134 PD
24 W
4903 2321 PD
24 W
4564 2638 PD
24 W
4530 2590 PD
24 W
4645 2596 PD
24 W
4877 2783 PD
24 W
4730 2618 PD
24 W
4640 2699 PD
24 W
4469 2717 PD
24 W
4660 2551 PD
24 W
4564 2966 PD
24 W
4791 2392 PD
24 W
4894 2255 PD
24 W
5123 2237 PD
24 W
4601 2263 PD
24 W
4963 2252 PD
24 W
4497 2711 PD
24 W
4456 2662 PD
24 W
4667 2646 PD
24 W
4727 2549 PD
24 W
4549 2560 PD
24 W
4855 2390 PD
24 W
4779 2667 PD
24 W
4584 2929 PD
24 W
4806 2594 PD
24 W
4636 2458 PD
24 W
4719 2350 PD
24 W
4775 2540 PD
24 W
4641 2488 PD
24 W
4499 2569 PD
24 W
4593 2459 PD
24 W
4568 2582 PD
24 W
4700 2333 PD
24 W
4771 2533 PD
24 W
5014 2236 PD
24 W
4455 2657 PD
24 W
4783 1993 PD
24 W
4493 2706 PD
24 W
4649 2308 PD
24 W
4291 2894 PD
24 W
4566 2722 PD
24 W
4614 2497 PD
24 W
4711 2467 PD
24 W
4948 2438 PD
24 W
4372 3005 PD
24 W
4578 2607 PD
24 W
4464 2619 PD
24 W
5002 2342 PD
24 W
4720 2214 PD
24 W
4664 2817 PD
24 W
4570 2611 PD
24 W
4856 2467 PD
24 W
4578 2564 PD
24 W
4654 2697 PD
24 W
4518 2407 PD
24 W
4767 2412 PD
24 W
4703 2383 PD
24 W
4893 2829 PD
24 W
4964 2217 PD
24 W
4455 2485 PD
24 W
4490 2691 PD
24 W
4771 2335 PD
24 W
4593 2448 PD
24 W
4871 2258 PD
24 W
4510 2715 PD
24 W
4649 2482 PD
24 W
5038 2323 PD
24 W
4660 2416 PD
24 W
4571 2555 PD
24 W
4482 2740 PD
24 W
4585 2668 PD
24 W
4856 2493 PD
24 W
4931 2265 PD
24 W
4905 2180 PD
24 W
4683 2602 PD
24 W
4503 2523 PD
24 W
4628 2452 PD
24 W
4668 2717 PD
24 W
4883 2439 PD
24 W
4944 2093 PD
24 W
4581 2421 PD
24 W
5029 2325 PD
24 W
4451 2784 PD
24 W
4552 2582 PD
24 W
4818 2367 PD
24 W
4517 2853 PD
24 W
5054 2163 PD
24 W
4529 2929 PD
24 W
5115 2095 PD
24 W
4670 2492 PD
24 W
4740 2467 PD
24 W
4793 2386 PD
24 W
4465 2563 PD
24 W
4850 2422 PD
24 W
4553 2573 PD
24 W
4893 2273 PD
24 W
4506 2774 PD
24 W
4800 2239 PD
24 W
4747 2262 PD
24 W
4339 2988 PD
24 W
4654 2546 PD
24 W
4783 2681 PD
24 W
4443 2824 PD
24 W
4575 2710 PD
24 W
4535 2790 PD
24 W
4509 2811 PD
24 W
4919 2609 PD
24 W
4503 2735 PD
24 W
4797 2270 PD
24 W
4536 2241 PD
24 W
4599 2704 PD
24 W
4697 2564 PD
24 W
4665 2482 PD
24 W
4360 2801 PD
24 W
4840 2573 PD
24 W
4598 2818 PD
24 W
4703 2435 PD
24 W
4611 2551 PD
24 W
4677 2430 PD
24 W
4430 2915 PD
24 W
4369 2801 PD
24 W
4423 2627 PD
24 W
4453 2711 PD
24 W
5134 2451 PD
24 W
4828 2345 PD
24 W
4787 2365 PD
24 W
4744 2462 PD
24 W
4526 2519 PD
24 W
4774 2596 PD
24 W
4641 2598 PD
24 W
4513 2494 PD
24 W
5045 2505 PD
24 W
4741 2451 PD
24 W
4440 2620 PD
24 W
4477 2702 PD
24 W
4760 2489 PD
24 W
4550 2522 PD
24 W
4457 2836 PD
24 W
4668 2332 PD
24 W
4530 2391 PD
24 W
4278 2733 PD
24 W
4636 2482 PD
24 W
4912 2613 PD
24 W
4332 2833 PD
24 W
4534 2795 PD
24 W
4665 2463 PD
24 W
4357 2730 PD
24 W
4494 2554 PD
24 W
4947 2291 PD
24 W
4949 2209 PD
24 W
4593 2582 PD
24 W
4952 2149 PD
24 W
4735 2580 PD
24 W
4590 2565 PD
24 W
4711 2396 PD
24 W
4735 2564 PD
gs 4278 1993 857 1070 rc
c9
857 -874 4278 2939 2 MP stroke
gr
gr

c9
1 sg
0 1069 856 0 0 -1069 5405 3062 4 MP
PP
-856 0 0 1069 856 0 0 -1069 5405 3062 5 MP stroke
4 w
DO
SO
6 w
0 sg
5405 3062 mt 6261 3062 L
5405 3062 mt 5405 1993 L
5407 3062 mt 5407 3051 L
5811 3062 mt 5811 3051 L
6214 3062 mt 6214 3051 L
5405 3013 mt 5415 3013 L
5405 2753 mt 5415 2753 L
5405 2494 mt 5415 2494 L
5405 2234 mt 5415 2234 L
5492 1898 mt 
(P2:1 P2:1\(F\)) s
gs 5405 1993 857 1070 rc
gr

gs 5332 1920 1003 1216 rc
24 W
c8
5888 2771 PD
24 W
5702 2192 PD
24 W
5592 2630 PD
24 W
5898 2612 PD
24 W
5870 2597 PD
24 W
5779 2508 PD
24 W
6055 2507 PD
24 W
5860 2707 PD
24 W
5625 2536 PD
24 W
5934 2041 PD
24 W
5686 2733 PD
24 W
5825 2269 PD
24 W
6138 1993 PD
24 W
5689 2712 PD
24 W
6037 2422 PD
24 W
5694 2473 PD
24 W
5792 2250 PD
24 W
6146 2313 PD
24 W
5975 2583 PD
24 W
5780 2739 PD
24 W
5891 2328 PD
24 W
5931 3024 PD
24 W
5989 2738 PD
24 W
5837 2605 PD
24 W
5578 2464 PD
24 W
5475 2904 PD
24 W
5739 2353 PD
24 W
6040 2412 PD
24 W
5951 2657 PD
24 W
5687 2896 PD
24 W
5687 2583 PD
24 W
5861 2226 PD
24 W
5786 2786 PD
24 W
5535 2429 PD
24 W
5702 2923 PD
24 W
5856 2620 PD
24 W
5856 2490 PD
24 W
5663 2763 PD
24 W
6168 2252 PD
24 W
5762 2306 PD
24 W
5405 2744 PD
24 W
5668 2670 PD
24 W
5849 2725 PD
24 W
5613 2344 PD
24 W
5761 2378 PD
24 W
6153 2525 PD
24 W
5576 2315 PD
24 W
5783 2526 PD
24 W
5567 2523 PD
24 W
5940 2425 PD
24 W
5891 2261 PD
24 W
5859 2354 PD
24 W
5785 2465 PD
24 W
5791 2495 PD
24 W
5755 2519 PD
24 W
5623 2401 PD
24 W
5564 2642 PD
24 W
5670 2385 PD
24 W
5614 2765 PD
24 W
6112 2102 PD
24 W
6099 2201 PD
24 W
5682 2276 PD
24 W
6038 2237 PD
24 W
5724 2701 PD
24 W
5755 2374 PD
24 W
5659 2493 PD
24 W
6147 2550 PD
24 W
6122 2003 PD
24 W
5837 2543 PD
24 W
5584 2665 PD
24 W
5683 2683 PD
24 W
5829 2785 PD
24 W
5965 2380 PD
24 W
5889 2163 PD
24 W
5661 2709 PD
24 W
5749 2748 PD
24 W
5896 2198 PD
24 W
5905 2041 PD
24 W
5911 2679 PD
24 W
5781 2270 PD
24 W
5765 2581 PD
24 W
5784 2383 PD
24 W
5957 2198 PD
24 W
5732 2447 PD
24 W
5730 2608 PD
24 W
5930 2732 PD
24 W
6082 2656 PD
24 W
5684 2583 PD
24 W
5721 3062 PD
24 W
5642 2675 PD
24 W
5892 2600 PD
24 W
6261 2336 PD
24 W
5725 2436 PD
24 W
5716 2531 PD
24 W
5615 2641 PD
24 W
5826 2317 PD
24 W
5835 2381 PD
24 W
6212 2583 PD
24 W
5879 2882 PD
24 W
5853 2325 PD
24 W
5779 2167 PD
24 W
5643 2823 PD
24 W
5749 2683 PD
24 W
5826 2542 PD
24 W
5677 2510 PD
24 W
5930 2653 PD
24 W
5889 2417 PD
24 W
5754 2433 PD
24 W
5626 2624 PD
24 W
6000 2562 PD
24 W
5692 2216 PD
24 W
5676 2600 PD
24 W
5693 2478 PD
24 W
5572 2704 PD
24 W
5706 2312 PD
24 W
5744 2682 PD
24 W
5507 2369 PD
24 W
5734 2356 PD
24 W
5549 2627 PD
24 W
6038 2460 PD
24 W
5738 2368 PD
24 W
5528 2953 PD
24 W
5564 2580 PD
24 W
5941 2370 PD
24 W
5691 2437 PD
24 W
5953 2096 PD
24 W
6097 2599 PD
24 W
5973 2097 PD
24 W
5719 2551 PD
24 W
5462 2938 PD
24 W
5692 2805 PD
24 W
5991 3054 PD
24 W
5733 2507 PD
24 W
5892 2788 PD
24 W
6015 2454 PD
24 W
5852 2456 PD
24 W
5848 2666 PD
24 W
6106 2059 PD
24 W
5801 2597 PD
24 W
5800 2286 PD
24 W
5693 2670 PD
24 W
6003 2452 PD
24 W
5726 2424 PD
24 W
5621 2787 PD
24 W
5825 2082 PD
24 W
5708 2881 PD
24 W
5744 2559 PD
24 W
5968 2405 PD
24 W
6091 2189 PD
24 W
6046 2481 PD
24 W
5792 2422 PD
24 W
5646 2518 PD
24 W
5557 2103 PD
24 W
6171 2250 PD
24 W
5649 2912 PD
24 W
5739 2745 PD
24 W
5950 2300 PD
24 W
5450 2880 PD
24 W
6092 2038 PD
24 W
5452 2135 PD
24 W
6008 2387 PD
24 W
5752 2603 PD
24 W
5832 2069 PD
24 W
5658 2608 PD
24 W
5568 2928 PD
24 W
5761 2412 PD
24 W
5954 2705 PD
24 W
5980 2382 PD
24 W
5874 2160 PD
24 W
5652 2492 PD
24 W
5652 2607 PD
24 W
5980 2449 PD
24 W
5833 2347 PD
24 W
5707 2493 PD
24 W
5537 2690 PD
24 W
5674 2740 PD
24 W
5934 2667 PD
24 W
5848 2328 PD
24 W
5764 2894 PD
24 W
5690 2752 PD
24 W
5790 2945 PD
24 W
5802 2476 PD
24 W
5878 2208 PD
24 W
5741 2515 PD
24 W
6100 2306 PD
24 W
5924 2170 PD
24 W
5966 2449 PD
24 W
5641 2706 PD
24 W
5689 2742 PD
24 W
6020 2493 PD
24 W
5422 2876 PD
24 W
6118 2272 PD
24 W
6161 2880 PD
24 W
5617 2254 PD
24 W
6121 2103 PD
24 W
5898 2125 PD
24 W
5731 2868 PD
24 W
5810 2751 PD
24 W
5831 2520 PD
24 W
5938 2251 PD
gs 5405 1993 857 1070 rc
c9
795 -1024 5405 3017 2 MP stroke
gr
gr

c9
1 sg
0 1069 856 0 0 -1069 899 4616 4 MP
PP
-856 0 0 1069 856 0 0 -1069 899 4616 5 MP stroke
4 w
DO
SO
6 w
0 sg
 899 4616 mt 1755 4616 L
 899 4616 mt  899 3547 L
1041 4616 mt 1041 4605 L
1210 4616 mt 1210 4605 L
1378 4616 mt 1378 4605 L
1547 4616 mt 1547 4605 L
1716 4616 mt 1716 4605 L
 899 4461 mt  909 4461 L
 899 4259 mt  909 4259 L
 899 4058 mt  909 4058 L
 899 3856 mt  909 3856 L
 899 3654 mt  909 3654 L
 982 3452 mt 
(P2:2 P2:2\(S\)) s
gs 899 3547 857 1070 rc
gr

gs 826 3474 1003 1216 rc
24 W
c8
1558 4142 PD
24 W
1233 4050 PD
24 W
1018 4329 PD
24 W
969 4500 PD
24 W
1319 4304 PD
24 W
1095 4251 PD
24 W
1262 4357 PD
24 W
908 4429 PD
24 W
1358 4136 PD
24 W
1264 3913 PD
24 W
1375 4052 PD
24 W
1036 4428 PD
24 W
1211 4065 PD
24 W
1396 4110 PD
24 W
1397 4139 PD
24 W
1300 4111 PD
24 W
1459 4215 PD
24 W
1240 4229 PD
24 W
899 4512 PD
24 W
1105 4422 PD
24 W
1191 4355 PD
24 W
1225 4327 PD
24 W
976 4479 PD
24 W
1222 4152 PD
24 W
1027 4376 PD
24 W
1228 4204 PD
24 W
1044 4447 PD
24 W
1055 4272 PD
24 W
1110 4360 PD
24 W
1158 4423 PD
24 W
1085 4393 PD
24 W
1263 4139 PD
24 W
1213 4293 PD
24 W
1066 4423 PD
24 W
1212 4317 PD
24 W
1078 4406 PD
24 W
1755 3802 PD
24 W
1184 4298 PD
24 W
1165 4457 PD
24 W
1253 4266 PD
24 W
1011 4458 PD
24 W
1322 4299 PD
24 W
1263 4389 PD
24 W
1383 4185 PD
24 W
1146 4331 PD
24 W
1013 4392 PD
24 W
1224 4182 PD
24 W
1024 4507 PD
24 W
1013 4448 PD
24 W
1001 4463 PD
24 W
1112 4407 PD
24 W
1279 4063 PD
24 W
1111 4408 PD
24 W
1209 4051 PD
24 W
1197 4263 PD
24 W
1031 4527 PD
24 W
1051 4402 PD
24 W
995 4511 PD
24 W
899 4548 PD
24 W
1080 4357 PD
24 W
1388 4264 PD
24 W
1387 4041 PD
24 W
1067 4481 PD
24 W
1397 4031 PD
24 W
1098 4242 PD
24 W
1285 3925 PD
24 W
1548 3961 PD
24 W
1414 4204 PD
24 W
1029 4500 PD
24 W
1092 4334 PD
24 W
1156 4334 PD
24 W
1020 4327 PD
24 W
952 4556 PD
24 W
1149 4493 PD
24 W
1291 4304 PD
24 W
1512 4000 PD
24 W
1438 4049 PD
24 W
1006 4473 PD
24 W
1069 4452 PD
24 W
1209 4365 PD
24 W
1348 4112 PD
24 W
1324 4126 PD
24 W
994 4479 PD
24 W
1015 4450 PD
24 W
1043 4357 PD
24 W
1032 4509 PD
24 W
1047 4490 PD
24 W
1388 3893 PD
24 W
1138 4454 PD
24 W
1138 4264 PD
24 W
994 4498 PD
24 W
991 4462 PD
24 W
939 4534 PD
24 W
1024 4421 PD
24 W
1126 4399 PD
24 W
1144 4452 PD
24 W
1190 4358 PD
24 W
1061 4446 PD
24 W
1191 4361 PD
24 W
966 4546 PD
24 W
1449 3620 PD
24 W
1269 4300 PD
24 W
1544 3547 PD
24 W
1137 4352 PD
24 W
1078 4505 PD
24 W
1173 4193 PD
24 W
968 4483 PD
24 W
1368 4002 PD
24 W
1083 4371 PD
24 W
943 4551 PD
24 W
1145 4272 PD
24 W
1124 4383 PD
24 W
1318 4210 PD
24 W
965 4406 PD
24 W
975 4465 PD
24 W
1339 4186 PD
24 W
1189 4228 PD
24 W
1000 4461 PD
24 W
1202 4355 PD
24 W
1054 4531 PD
24 W
1205 4260 PD
24 W
1268 4008 PD
24 W
1149 4400 PD
24 W
1051 4337 PD
24 W
1150 4260 PD
24 W
1156 4360 PD
24 W
1051 4566 PD
24 W
1029 4466 PD
24 W
969 4520 PD
24 W
1014 4512 PD
24 W
1042 4455 PD
24 W
1405 4160 PD
24 W
1091 4360 PD
24 W
1347 4223 PD
24 W
1194 4308 PD
24 W
1242 4351 PD
24 W
1031 4323 PD
24 W
1305 4004 PD
24 W
1281 4285 PD
24 W
1115 4190 PD
24 W
1101 4317 PD
24 W
1387 4108 PD
24 W
1216 4326 PD
24 W
985 4472 PD
24 W
1009 4435 PD
24 W
1099 4231 PD
24 W
1417 4163 PD
24 W
1198 4147 PD
24 W
1334 4339 PD
24 W
1437 4226 PD
24 W
1291 4259 PD
24 W
1001 4532 PD
24 W
1029 4478 PD
24 W
1057 4322 PD
24 W
1365 3926 PD
24 W
1236 4411 PD
24 W
1013 4431 PD
24 W
1272 4072 PD
24 W
1084 4285 PD
24 W
1250 4210 PD
24 W
1137 4353 PD
24 W
1046 4386 PD
24 W
1000 4569 PD
24 W
998 4415 PD
24 W
1001 4616 PD
24 W
980 4581 PD
24 W
1081 4373 PD
24 W
1074 4324 PD
24 W
1244 4351 PD
24 W
1274 4273 PD
24 W
1010 4257 PD
24 W
1011 4445 PD
24 W
1010 4511 PD
24 W
952 4569 PD
24 W
1099 4317 PD
24 W
1078 4324 PD
24 W
988 4487 PD
24 W
939 4456 PD
24 W
1018 4438 PD
24 W
972 4382 PD
24 W
1076 4370 PD
24 W
986 4470 PD
24 W
1075 4321 PD
24 W
1107 4347 PD
24 W
1055 4353 PD
24 W
1136 4463 PD
24 W
1060 4508 PD
24 W
1208 4127 PD
24 W
1580 4413 PD
24 W
1271 4124 PD
24 W
915 4488 PD
24 W
985 4473 PD
24 W
999 4494 PD
24 W
1260 4221 PD
24 W
1382 4146 PD
24 W
1366 4115 PD
24 W
1090 4438 PD
24 W
1137 4278 PD
24 W
1189 4333 PD
24 W
1157 4473 PD
gs 899 3547 857 1070 rc
c9
846 -1009 910 4617 2 MP stroke
gr
gr

c9
1 sg
0 1069 856 0 0 -1069 2026 4616 4 MP
PP
-856 0 0 1069 856 0 0 -1069 2026 4616 5 MP stroke
4 w
DO
SO
6 w
0 sg
2026 4616 mt 2882 4616 L
2026 4616 mt 2026 3547 L
2086 4616 mt 2086 4605 L
2259 4616 mt 2259 4605 L
2432 4616 mt 2432 4605 L
2605 4616 mt 2605 4605 L
2778 4616 mt 2778 4605 L
2026 4529 mt 2036 4529 L
2026 4293 mt 2036 4293 L
2026 4056 mt 2036 4056 L
2026 3820 mt 2036 3820 L
2026 3583 mt 2036 3583 L
2109 3452 mt 
(P2:3 P2:3\(S\)) s
gs 2026 3547 857 1070 rc
gr

gs 1953 3474 1003 1216 rc
24 W
c8
2785 3808 PD
24 W
2484 4005 PD
24 W
2131 4312 PD
24 W
2536 3986 PD
24 W
2579 3920 PD
24 W
2229 4299 PD
24 W
2640 4196 PD
24 W
2061 4445 PD
24 W
2531 3876 PD
24 W
2344 4218 PD
24 W
2583 3991 PD
24 W
2419 4248 PD
24 W
2486 4179 PD
24 W
2489 3950 PD
24 W
2511 4092 PD
24 W
2365 3963 PD
24 W
2423 4265 PD
24 W
2068 4499 PD
24 W
2269 4214 PD
24 W
2347 4231 PD
24 W
2234 4440 PD
24 W
2652 3876 PD
24 W
2109 4466 PD
24 W
2701 3809 PD
24 W
2309 3838 PD
24 W
2234 4395 PD
24 W
2155 4315 PD
24 W
2201 4269 PD
24 W
2421 4166 PD
24 W
2294 4220 PD
24 W
2227 4394 PD
24 W
2410 4078 PD
24 W
2292 4176 PD
24 W
2369 4108 PD
24 W
2633 4201 PD
24 W
2312 4138 PD
24 W
2356 4219 PD
24 W
2410 4100 PD
24 W
2361 4099 PD
24 W
2392 4186 PD
24 W
2117 4353 PD
24 W
2503 4061 PD
24 W
2298 4276 PD
24 W
2781 4035 PD
24 W
2187 4445 PD
24 W
2461 4037 PD
24 W
2380 4204 PD
24 W
2467 3983 PD
24 W
2283 4219 PD
24 W
2283 4189 PD
24 W
2518 3913 PD
24 W
2337 4349 PD
24 W
2205 4469 PD
24 W
2299 4163 PD
24 W
2403 4166 PD
24 W
2065 4209 PD
24 W
2207 4231 PD
24 W
2141 4112 PD
24 W
2110 4315 PD
24 W
2292 4241 PD
24 W
2368 3697 PD
24 W
2878 3562 PD
24 W
2550 3632 PD
24 W
2801 3692 PD
24 W
2649 3950 PD
24 W
2680 3848 PD
24 W
2633 3837 PD
24 W
2431 4071 PD
24 W
2501 3879 PD
24 W
2235 4237 PD
24 W
2297 4359 PD
24 W
2214 4354 PD
24 W
2230 4172 PD
24 W
2308 4186 PD
24 W
2391 4180 PD
24 W
2475 4255 PD
24 W
2541 3924 PD
24 W
2341 4052 PD
24 W
2318 4279 PD
24 W
2290 4280 PD
24 W
2493 4114 PD
24 W
2394 4234 PD
24 W
2388 4225 PD
24 W
2167 4309 PD
24 W
2415 4064 PD
24 W
2462 4221 PD
24 W
2320 4255 PD
24 W
2442 4020 PD
24 W
2167 4430 PD
24 W
2544 3956 PD
24 W
2406 4160 PD
24 W
2398 3968 PD
24 W
2245 4400 PD
24 W
2256 4035 PD
24 W
2305 4323 PD
24 W
2147 4404 PD
24 W
2456 4095 PD
24 W
2393 4375 PD
24 W
2211 4478 PD
24 W
2368 3987 PD
24 W
2500 3560 PD
24 W
2253 4345 PD
24 W
2476 3783 PD
24 W
2180 4403 PD
24 W
2258 4338 PD
24 W
2259 4448 PD
24 W
2501 3977 PD
24 W
2678 4101 PD
24 W
2319 4154 PD
24 W
2504 3899 PD
24 W
2339 4324 PD
24 W
2288 4143 PD
24 W
2400 4439 PD
24 W
2533 3789 PD
24 W
2409 4083 PD
24 W
2484 4114 PD
24 W
2384 3895 PD
24 W
2368 3986 PD
24 W
2253 4324 PD
24 W
2174 4554 PD
24 W
2258 4277 PD
24 W
2404 4105 PD
24 W
2269 4264 PD
24 W
2351 3750 PD
24 W
2544 3955 PD
24 W
2299 4281 PD
24 W
2266 4224 PD
24 W
2600 4081 PD
24 W
2228 4346 PD
24 W
2317 4151 PD
24 W
2250 4499 PD
24 W
2614 4004 PD
24 W
2413 4167 PD
24 W
2396 4295 PD
24 W
2237 4092 PD
24 W
2293 4275 PD
24 W
2141 4469 PD
24 W
2238 4372 PD
24 W
2258 4269 PD
24 W
2406 3798 PD
24 W
2136 4447 PD
24 W
2539 3965 PD
24 W
2291 4308 PD
24 W
2244 4031 PD
24 W
2258 4345 PD
24 W
2882 3547 PD
24 W
2304 4229 PD
24 W
2599 4048 PD
24 W
2270 4188 PD
24 W
2492 4069 PD
24 W
2514 4005 PD
24 W
2026 4560 PD
24 W
2464 4134 PD
24 W
2290 4177 PD
24 W
2471 4189 PD
24 W
2068 4616 PD
24 W
2690 3947 PD
24 W
2646 3736 PD
24 W
2403 4100 PD
24 W
2546 4264 PD
24 W
2413 4155 PD
24 W
2378 4236 PD
24 W
2533 3604 PD
24 W
2291 4313 PD
24 W
2216 4292 PD
24 W
2209 4258 PD
24 W
2236 4324 PD
24 W
2174 4373 PD
24 W
2292 4140 PD
24 W
2331 4262 PD
24 W
2566 3773 PD
24 W
2413 3949 PD
24 W
2393 4072 PD
24 W
2544 3909 PD
24 W
2294 4282 PD
24 W
2328 4311 PD
24 W
2588 3897 PD
24 W
2362 4016 PD
24 W
2480 4224 PD
24 W
2402 4041 PD
24 W
2273 3842 PD
24 W
2629 4071 PD
24 W
2285 3951 PD
24 W
2562 4316 PD
24 W
2563 3841 PD
24 W
2590 3755 PD
24 W
2533 4362 PD
24 W
2786 3992 PD
24 W
2184 3865 PD
24 W
2822 3557 PD
24 W
2480 4210 PD
24 W
2541 3785 PD
24 W
2136 4361 PD
24 W
2348 4117 PD
24 W
2524 4053 PD
24 W
2586 3905 PD
24 W
2115 4303 PD
24 W
2516 3633 PD
24 W
2362 4178 PD
24 W
2464 4151 PD
gs 2026 3547 857 1070 rc
c9
779 -1065 2026 4612 2 MP stroke
gr
gr

c9
1 sg
0 1069 856 0 0 -1069 3152 4616 4 MP
PP
-856 0 0 1069 856 0 0 -1069 3152 4616 5 MP stroke
4 w
DO
SO
6 w
0 sg
3152 4616 mt 4008 4616 L
3152 4616 mt 3152 3547 L
3236 4616 mt 3236 4605 L
3621 4616 mt 3621 4605 L
4007 4616 mt 4007 4605 L
3152 4538 mt 3162 4538 L
3152 4321 mt 3162 4321 L
3152 4104 mt 3162 4104 L
3152 3888 mt 3162 3888 L
3152 3671 mt 3162 3671 L
3235 3452 mt 
(P2:4 P2:4\(S\)) s
gs 3152 3547 857 1070 rc
gr

gs 3079 3474 1003 1216 rc
24 W
c8
3533 4295 PD
24 W
3612 3921 PD
24 W
3255 4429 PD
24 W
3704 4552 PD
24 W
3531 4214 PD
24 W
3358 4267 PD
24 W
3287 4344 PD
24 W
3167 4492 PD
24 W
3633 4033 PD
24 W
3291 4354 PD
24 W
3490 4128 PD
24 W
3437 4283 PD
24 W
3333 4311 PD
24 W
3606 4165 PD
24 W
3660 4000 PD
24 W
3457 4155 PD
24 W
3299 4554 PD
24 W
3364 4287 PD
24 W
3411 4498 PD
24 W
3155 4525 PD
24 W
3289 4501 PD
24 W
3641 3966 PD
24 W
3580 4380 PD
24 W
3876 4075 PD
24 W
3575 4564 PD
24 W
3576 4245 PD
24 W
3249 4413 PD
24 W
3385 4367 PD
24 W
3620 4059 PD
24 W
3444 4302 PD
24 W
3204 4538 PD
24 W
3313 4057 PD
24 W
3441 4281 PD
24 W
3793 4020 PD
24 W
3406 4477 PD
24 W
3689 4275 PD
24 W
3583 4103 PD
24 W
3515 4145 PD
24 W
3358 4440 PD
24 W
3447 4304 PD
24 W
3401 4340 PD
24 W
3465 4277 PD
24 W
3377 4373 PD
24 W
3832 3881 PD
24 W
3391 4382 PD
24 W
3535 3900 PD
24 W
3483 4462 PD
24 W
3751 4198 PD
24 W
3309 4499 PD
24 W
3758 4160 PD
24 W
3764 3835 PD
24 W
3478 4227 PD
24 W
3169 4563 PD
24 W
3457 4319 PD
24 W
3353 4343 PD
24 W
3201 4149 PD
24 W
3152 4495 PD
24 W
3250 4349 PD
24 W
3239 4516 PD
24 W
3545 4358 PD
24 W
3516 4249 PD
24 W
3863 3643 PD
24 W
3472 3776 PD
24 W
3647 4313 PD
24 W
3471 3955 PD
24 W
3591 4188 PD
24 W
3713 4231 PD
24 W
3543 4010 PD
24 W
3675 4368 PD
24 W
3409 4147 PD
24 W
3265 4410 PD
24 W
3165 4425 PD
24 W
3449 4303 PD
24 W
3329 4423 PD
24 W
3346 4301 PD
24 W
3618 4129 PD
24 W
3584 3898 PD
24 W
3424 4203 PD
24 W
3403 4342 PD
24 W
3302 4523 PD
24 W
3775 3827 PD
24 W
3401 4261 PD
24 W
3547 4360 PD
24 W
3236 4402 PD
24 W
3328 4087 PD
24 W
3521 4504 PD
24 W
3440 4347 PD
24 W
3495 4277 PD
24 W
3324 4384 PD
24 W
3537 3911 PD
24 W
3345 4273 PD
24 W
3594 4208 PD
24 W
3363 4226 PD
24 W
3551 4037 PD
24 W
3454 4294 PD
24 W
3399 4416 PD
24 W
3586 4217 PD
24 W
3741 3975 PD
24 W
3320 4434 PD
24 W
3559 4164 PD
24 W
3497 3786 PD
24 W
3315 4468 PD
24 W
3781 3547 PD
24 W
3239 4517 PD
24 W
3227 4570 PD
24 W
3434 4407 PD
24 W
3632 4565 PD
24 W
3391 4224 PD
24 W
3520 4278 PD
24 W
3432 4137 PD
24 W
3382 4375 PD
24 W
3326 4359 PD
24 W
3281 4474 PD
24 W
3449 4248 PD
24 W
3538 4093 PD
24 W
3532 4266 PD
24 W
3617 4304 PD
24 W
3166 4245 PD
24 W
3408 4300 PD
24 W
3152 4616 PD
24 W
3328 4370 PD
24 W
3645 4259 PD
24 W
3291 4456 PD
24 W
3742 3992 PD
24 W
3826 3869 PD
24 W
3206 4481 PD
24 W
3393 4422 PD
24 W
3538 4294 PD
24 W
3477 4611 PD
24 W
3711 4045 PD
24 W
3600 4369 PD
24 W
3503 4087 PD
24 W
3294 4371 PD
24 W
3458 4315 PD
24 W
3663 4033 PD
24 W
3399 4331 PD
24 W
3261 4379 PD
24 W
3273 4339 PD
24 W
3439 4123 PD
24 W
3546 4267 PD
24 W
3258 4289 PD
24 W
3425 4238 PD
24 W
3493 4305 PD
24 W
3370 4413 PD
24 W
3398 4345 PD
24 W
3628 3964 PD
24 W
3492 4231 PD
24 W
3654 4371 PD
24 W
3461 4100 PD
24 W
3524 4140 PD
24 W
3489 4280 PD
24 W
3194 4537 PD
24 W
3428 4554 PD
24 W
3271 4349 PD
24 W
3540 4109 PD
24 W
3340 4443 PD
24 W
3776 4196 PD
24 W
3696 3716 PD
24 W
3237 4455 PD
24 W
3521 4319 PD
24 W
3213 4419 PD
24 W
3160 4403 PD
24 W
3660 3850 PD
24 W
3432 4306 PD
24 W
3461 4377 PD
24 W
3442 4455 PD
24 W
3238 4313 PD
24 W
3187 4192 PD
24 W
3431 4355 PD
24 W
3433 4287 PD
24 W
3723 4061 PD
24 W
3732 3984 PD
24 W
3645 4266 PD
24 W
3417 4314 PD
24 W
3370 4253 PD
24 W
3316 4291 PD
24 W
3658 4240 PD
24 W
3465 4400 PD
24 W
3602 4508 PD
24 W
3439 4434 PD
24 W
3337 3798 PD
24 W
3876 3939 PD
24 W
3539 4070 PD
24 W
3914 3862 PD
24 W
3619 4096 PD
24 W
3666 4152 PD
24 W
3810 4113 PD
24 W
3530 3935 PD
24 W
3505 4395 PD
24 W
4008 3694 PD
24 W
3401 4363 PD
24 W
3524 4005 PD
24 W
3228 4400 PD
24 W
3388 4317 PD
24 W
3485 4208 PD
24 W
3552 4187 PD
24 W
3161 4610 PD
24 W
3570 3904 PD
24 W
3366 4276 PD
24 W
3247 4471 PD
gs 3152 3547 857 1070 rc
c9
843 -948 3166 4617 2 MP stroke
gr
gr

c9

end %%Color Dict

eplot
%%EndObject

epage
end

showpage

%%Trailer
%%EOF
