%!PS-Adobe-3.0 EPSF-3.0
%%Creator: MATLAB, The Mathworks, Inc.
%%Title: Pictures\main_arun_global_transform_us_kurt.eps
%%CreationDate: 01/26/2009  17:38:20
%%DocumentNeededFonts: Helvetica
%%DocumentProcessColors: Cyan Magenta Yellow Black
%%LanguageLevel: 2
%%Pages: 1
%%BoundingBox:    26   201   543   583
%%EndComments

%%BeginProlog
% MathWorks dictionary
/MathWorks 160 dict begin
% definition operators
/bdef {bind def} bind def
/ldef {load def} bind def
/xdef {exch def} bdef
/xstore {exch store} bdef
% operator abbreviations
/c  /clip ldef
/cc /concat ldef
/cp /closepath ldef
/gr /grestore ldef
/gs /gsave ldef
/mt /moveto ldef
/np /newpath ldef
/cm /currentmatrix ldef
/sm /setmatrix ldef
/rm /rmoveto ldef
/rl /rlineto ldef
/s {show newpath} bdef
/sc {setcmykcolor} bdef
/sr /setrgbcolor ldef
/sg /setgray ldef
/w /setlinewidth ldef
/j /setlinejoin ldef
/cap /setlinecap ldef
/rc {rectclip} bdef
/rf {rectfill} bdef
% page state control
/pgsv () def
/bpage {/pgsv save def} bdef
/epage {pgsv restore} bdef
/bplot /gsave ldef
/eplot {stroke grestore} bdef
% orientation switch
/portraitMode 0 def /landscapeMode 1 def /rotateMode 2 def
% coordinate system mappings
/dpi2point 0 def
% font control
/FontSize 0 def
/FMS {/FontSize xstore findfont [FontSize 0 0 FontSize neg 0 0]
  makefont setfont} bdef
/ISOLatin1Encoding where {pop /WindowsLatin1Encoding 256 array bdef
ISOLatin1Encoding WindowsLatin1Encoding copy pop
/.notdef/.notdef/quotesinglbase/florin/quotedblbase/ellipsis/dagger
/daggerdbl/circumflex/perthousand/Scaron/guilsinglleft/OE/.notdef/.notdef
/.notdef/.notdef/quoteleft/quoteright/quotedblleft/quotedblright/bullet
/endash/emdash/tilde/trademark/scaron/guilsinglright/oe/.notdef/.notdef
/Ydieresis WindowsLatin1Encoding 128 32 getinterval astore pop}
{/WindowsLatin1Encoding StandardEncoding bdef} ifelse
/reencode {exch dup where {pop load} {pop StandardEncoding} ifelse
  exch dup 3 1 roll findfont dup length dict begin
  { 1 index /FID ne {def}{pop pop} ifelse } forall
  /Encoding exch def currentdict end definefont pop} bdef
/isroman {findfont /CharStrings get /Agrave known} bdef
/FMSR {3 1 roll 1 index dup isroman {reencode} {pop pop} ifelse
  exch FMS} bdef
/csm {1 dpi2point div -1 dpi2point div scale neg translate
 dup landscapeMode eq {pop -90 rotate}
  {rotateMode eq {90 rotate} if} ifelse} bdef
% line types: solid, dotted, dashed, dotdash
/SO { [] 0 setdash } bdef
/DO { [.5 dpi2point mul 4 dpi2point mul] 0 setdash } bdef
/DA { [6 dpi2point mul] 0 setdash } bdef
/DD { [.5 dpi2point mul 4 dpi2point mul 6 dpi2point mul 4
  dpi2point mul] 0 setdash } bdef
% macros for lines and objects
/L {lineto stroke} bdef
/MP {3 1 roll moveto 1 sub {rlineto} repeat} bdef
/AP {{rlineto} repeat} bdef
/PDlw -1 def
/W {/PDlw currentlinewidth def setlinewidth} def
/PP {closepath eofill} bdef
/DP {closepath stroke} bdef
/MR {4 -2 roll moveto dup  0 exch rlineto exch 0 rlineto
  neg 0 exch rlineto closepath} bdef
/FR {MR stroke} bdef
/PR {MR fill} bdef
/L1i {{currentfile picstr readhexstring pop} image} bdef
/tMatrix matrix def
/MakeOval {newpath tMatrix currentmatrix pop translate scale
0 0 1 0 360 arc tMatrix setmatrix} bdef
/FO {MakeOval stroke} bdef
/PO {MakeOval fill} bdef
/PD {currentlinewidth 2 div 0 360 arc fill
   PDlw -1 eq not {PDlw w /PDlw -1 def} if} def
/FA {newpath tMatrix currentmatrix pop translate scale
  0 0 1 5 -2 roll arc tMatrix setmatrix stroke} bdef
/PA {newpath tMatrix currentmatrix pop	translate 0 0 moveto scale
  0 0 1 5 -2 roll arc closepath tMatrix setmatrix fill} bdef
/FAn {newpath tMatrix currentmatrix pop translate scale
  0 0 1 5 -2 roll arcn tMatrix setmatrix stroke} bdef
/PAn {newpath tMatrix currentmatrix pop translate 0 0 moveto scale
  0 0 1 5 -2 roll arcn closepath tMatrix setmatrix fill} bdef
/vradius 0 def /hradius 0 def /lry 0 def
/lrx 0 def /uly 0 def /ulx 0 def /rad 0 def
/MRR {/vradius xdef /hradius xdef /lry xdef /lrx xdef /uly xdef
  /ulx xdef newpath tMatrix currentmatrix pop ulx hradius add uly
  vradius add translate hradius vradius scale 0 0 1 180 270 arc 
  tMatrix setmatrix lrx hradius sub uly vradius add translate
  hradius vradius scale 0 0 1 270 360 arc tMatrix setmatrix
  lrx hradius sub lry vradius sub translate hradius vradius scale
  0 0 1 0 90 arc tMatrix setmatrix ulx hradius add lry vradius sub
  translate hradius vradius scale 0 0 1 90 180 arc tMatrix setmatrix
  closepath} bdef
/FRR {MRR stroke } bdef
/PRR {MRR fill } bdef
/MlrRR {/lry xdef /lrx xdef /uly xdef /ulx xdef /rad lry uly sub 2 div def
  newpath tMatrix currentmatrix pop ulx rad add uly rad add translate
  rad rad scale 0 0 1 90 270 arc tMatrix setmatrix lrx rad sub lry rad
  sub translate rad rad scale 0 0 1 270 90 arc tMatrix setmatrix
  closepath} bdef
/FlrRR {MlrRR stroke } bdef
/PlrRR {MlrRR fill } bdef
/MtbRR {/lry xdef /lrx xdef /uly xdef /ulx xdef /rad lrx ulx sub 2 div def
  newpath tMatrix currentmatrix pop ulx rad add uly rad add translate
  rad rad scale 0 0 1 180 360 arc tMatrix setmatrix lrx rad sub lry rad
  sub translate rad rad scale 0 0 1 0 180 arc tMatrix setmatrix
  closepath} bdef
/FtbRR {MtbRR stroke } bdef
/PtbRR {MtbRR fill } bdef
/stri 6 array def /dtri 6 array def
/smat 6 array def /dmat 6 array def
/tmat1 6 array def /tmat2 6 array def /dif 3 array def
/asub {/ind2 exch def /ind1 exch def dup dup
  ind1 get exch ind2 get sub exch } bdef
/tri_to_matrix {
  2 0 asub 3 1 asub 4 0 asub 5 1 asub
  dup 0 get exch 1 get 7 -1 roll astore } bdef
/compute_transform {
  dmat dtri tri_to_matrix tmat1 invertmatrix 
  smat stri tri_to_matrix tmat2 concatmatrix } bdef
/ds {stri astore pop} bdef
/dt {dtri astore pop} bdef
/db {2 copy /cols xdef /rows xdef mul dup 3 mul string
  currentfile 
  3 index 0 eq {/ASCIIHexDecode filter}
  {/ASCII85Decode filter 3 index 2 eq {/RunLengthDecode filter} if }
  ifelse exch readstring pop
  dup 0 3 index getinterval /rbmap xdef
  dup 2 index dup getinterval /gbmap xdef
  1 index dup 2 mul exch getinterval /bbmap xdef pop pop}bdef
/it {gs np dtri aload pop moveto lineto lineto cp c
  cols rows 8 compute_transform 
  rbmap gbmap bbmap true 3 colorimage gr}bdef
/il {newpath moveto lineto stroke}bdef
currentdict end def
%%EndProlog

%%BeginSetup
MathWorks begin

0 cap

end
%%EndSetup

%%Page: 1 1
%%BeginPageSetup
%%PageBoundingBox:    26   201   543   583
MathWorks begin
bpage
%%EndPageSetup

%%BeginObject: obj1
bplot

/dpi2point 12 def
portraitMode 0216 7344 csm

  107   341  6204  4587 rc
85 dict begin %Colortable dictionary
/c0 { 0.000000 0.000000 0.000000 sr} bdef
/c1 { 1.000000 1.000000 1.000000 sr} bdef
/c2 { 0.900000 0.000000 0.000000 sr} bdef
/c3 { 0.000000 0.820000 0.000000 sr} bdef
/c4 { 0.000000 0.000000 0.800000 sr} bdef
/c5 { 0.910000 0.820000 0.320000 sr} bdef
/c6 { 1.000000 0.260000 0.820000 sr} bdef
/c7 { 0.000000 0.820000 0.820000 sr} bdef
c0
1 j
1 sg
   0    0 6919 5187 rf
6 w
0 4227 5362 0 0 -4227 899 4616 4 MP
PP
-5362 0 0 4227 5362 0 0 -4227 899 4616 5 MP stroke
4 w
DO
SO
6 w
0 sg
 899  389 mt 6261  389 L
 899 4616 mt 6261 4616 L
6261 4616 mt 6261  389 L
 899 4616 mt  899  389 L
 899 4616 mt 6261 4616 L
 899 4616 mt  899  389 L
1569 4616 mt 1569 4562 L
1569  389 mt 1569  442 L
%%IncludeResource: font Helvetica
/Helvetica /WindowsLatin1Encoding 240 FMSR

1066 4873 mt 
(before [1]) s
2909 4616 mt 2909 4562 L
2909  389 mt 2909  442 L
2503 4873 mt 
(after [1]) s
4250 4616 mt 4250 4562 L
4250  389 mt 4250  442 L
3747 4873 mt 
(before [2]) s
5590 4616 mt 5590 4562 L
5590  389 mt 5590  442 L
5184 4873 mt 
(after [2]) s
 899 4518 mt  952 4518 L
6261 4518 mt 6207 4518 L
 731 4607 mt 
(0) s
 899 3768 mt  952 3768 L
6261 3768 mt 6207 3768 L
 598 3857 mt 
(20) s
 899 3019 mt  952 3019 L
6261 3019 mt 6207 3019 L
 598 3108 mt 
(40) s
 899 2269 mt  952 2269 L
6261 2269 mt 6207 2269 L
 598 2358 mt 
(60) s
 899 1519 mt  952 1519 L
6261 1519 mt 6207 1519 L
 598 1608 mt 
(80) s
 899  770 mt  952  770 L
6261  770 mt 6207  770 L
 464  859 mt 
(100) s
 899  389 mt 6261  389 L
 899 4616 mt 6261 4616 L
6261 4616 mt 6261  389 L
 899 4616 mt  899  389 L
 355 3658 mt  -90 rotate
(user-specific kurtosis) s
90 rotate
gs 899 389 5363 4228 rc
DA
0 -838 1569 3224 2 MP stroke
0 -408 1569 4221 2 MP stroke
SO
335 0 1401 2386 2 MP stroke
335 0 1401 4221 2 MP stroke
/c8 { 0.000000 0.000000 1.000000 sr} bdef
c8
0 -589 -670 0 0 589 670 0 1234 3224 5 MP stroke
/c9 { 1.000000 0.000000 0.000000 sr} bdef
c9
670 0 1234 3580 2 MP stroke
gr

c9
1533 2248 mt 1605 2248 L
1569 2212 mt 1569 2284 L
1533 2138 mt 1605 2138 L
1569 2102 mt 1569 2174 L
1533 2242 mt 1605 2242 L
1569 2206 mt 1569 2278 L
1533 1844 mt 1605 1844 L
1569 1808 mt 1569 1880 L
1533 2330 mt 1605 2330 L
1569 2294 mt 1569 2366 L
1533 2110 mt 1605 2110 L
1569 2074 mt 1569 2146 L
1533  581 mt 1605  581 L
1569  545 mt 1569  617 L
gs 899 389 5363 4228 rc
DA
0 sg
0 -62 2909 4339 2 MP stroke
0 -35 2909 4423 2 MP stroke
SO
335 0 2742 4277 2 MP stroke
335 0 2742 4423 2 MP stroke
c8
0 -49 -670 0 0 49 670 0 2574 4339 5 MP stroke
c9
670 0 2574 4369 2 MP stroke
gr

2873 4231 mt 2945 4231 L
2909 4195 mt 2909 4267 L
2873 4088 mt 2945 4088 L
2909 4052 mt 2909 4124 L
2873 4242 mt 2945 4242 L
2909 4206 mt 2909 4278 L
2873 4186 mt 2945 4186 L
2909 4150 mt 2909 4222 L
2873 4233 mt 2945 4233 L
2909 4197 mt 2909 4269 L
2873 4159 mt 2945 4159 L
2909 4123 mt 2909 4195 L
2873 4238 mt 2945 4238 L
2909 4202 mt 2909 4274 L
2873 4248 mt 2945 4248 L
2909 4212 mt 2909 4284 L
2873 3997 mt 2945 3997 L
2909 3961 mt 2909 4033 L
2873 4251 mt 2945 4251 L
2909 4215 mt 2909 4287 L
2873 4042 mt 2945 4042 L
2909 4006 mt 2909 4078 L
2873 4219 mt 2945 4219 L
2909 4183 mt 2909 4255 L
2873 4208 mt 2945 4208 L
2909 4172 mt 2909 4244 L
2873 4245 mt 2945 4245 L
2909 4209 mt 2909 4281 L
2873 4103 mt 2945 4103 L
2909 4067 mt 2909 4139 L
2873 4218 mt 2945 4218 L
2909 4182 mt 2909 4254 L
2873 4174 mt 2945 4174 L
2909 4138 mt 2909 4210 L
2873 4198 mt 2945 4198 L
2909 4162 mt 2909 4234 L
2873 4191 mt 2945 4191 L
2909 4155 mt 2909 4227 L
2873 4207 mt 2945 4207 L
2909 4171 mt 2909 4243 L
2873 4239 mt 2945 4239 L
2909 4203 mt 2909 4275 L
2873 4244 mt 2945 4244 L
2909 4208 mt 2909 4280 L
gs 899 389 5363 4228 rc
DA
0 sg
0 -366 4250 3735 2 MP stroke
0 -232 4250 4251 2 MP stroke
SO
335 0 4082 3369 2 MP stroke
335 0 4082 4251 2 MP stroke
c8
0 -284 -670 0 0 284 670 0 3915 3735 5 MP stroke
c9
670 0 3915 3902 2 MP stroke
gr

4214 2773 mt 4286 2773 L
4250 2737 mt 4250 2809 L
4214 3283 mt 4286 3283 L
4250 3247 mt 4250 3319 L
4214 2929 mt 4286 2929 L
4250 2893 mt 4250 2965 L
4214 3023 mt 4286 3023 L
4250 2987 mt 4250 3059 L
4214 1326 mt 4286 1326 L
4250 1290 mt 4250 1362 L
4214 2957 mt 4286 2957 L
4250 2921 mt 4250 2993 L
4214 3256 mt 4286 3256 L
4250 3220 mt 4250 3292 L
4214 2249 mt 4286 2249 L
4250 2213 mt 4250 2285 L
4214 3304 mt 4286 3304 L
4250 3268 mt 4250 3340 L
4214 3006 mt 4286 3006 L
4250 2970 mt 4250 3042 L
4214 3031 mt 4286 3031 L
4250 2995 mt 4250 3067 L
4214 3050 mt 4286 3050 L
4250 3014 mt 4250 3086 L
4214 3260 mt 4286 3260 L
4250 3224 mt 4250 3296 L
gs 899 389 5363 4228 rc
DA
0 sg
0 -33 5590 4379 2 MP stroke
0 -19 5590 4421 2 MP stroke
SO
335 0 5423 4346 2 MP stroke
335 0 5423 4421 2 MP stroke
c8
0 -23 -670 0 0 23 670 0 5255 4379 5 MP stroke
c9
670 0 5255 4394 2 MP stroke
gr

5554 4334 mt 5626 4334 L
5590 4298 mt 5590 4370 L
5554 4326 mt 5626 4326 L
5590 4290 mt 5590 4362 L
5554 4344 mt 5626 4344 L
5590 4308 mt 5590 4380 L
5554 4318 mt 5626 4318 L
5590 4282 mt 5590 4354 L
5554 4331 mt 5626 4331 L
5590 4295 mt 5590 4367 L
5554 4310 mt 5626 4310 L
5590 4274 mt 5590 4346 L
5554 4331 mt 5626 4331 L
5590 4295 mt 5590 4367 L
5554 4319 mt 5626 4319 L
5590 4283 mt 5590 4355 L
5554 4326 mt 5626 4326 L
5590 4290 mt 5590 4362 L
5554 4334 mt 5626 4334 L
5590 4298 mt 5590 4370 L
5554 4329 mt 5626 4329 L
5590 4293 mt 5590 4365 L
5554 4337 mt 5626 4337 L
5590 4301 mt 5590 4373 L
5554 4318 mt 5626 4318 L
5590 4282 mt 5590 4354 L
gs 899 389 5363 4228 rc
gr


end %%Color Dict

eplot
%%EndObject

epage
end

showpage

%%Trailer
%%EOF
