%!PS-Adobe-3.0 EPSF-3.0
%%Creator: MATLAB, The Mathworks, Inc. Version 7.7.0.471 (R2008b). Operating System: Microsoft Windows XP.
%%Title: Pictures\main_zoo_mvar_analysis_data_BMI_xcorr_bmi_p1_k2_3_5.eps
%%CreationDate: 10/26/2009  05:44:23
%%DocumentNeededFonts: Helvetica
%%DocumentProcessColors: Cyan Magenta Yellow Black
%%LanguageLevel: 2
%%Pages: 1
%%BoundingBox:    32   180   546   616
%%EndComments

%%BeginProlog
% MathWorks dictionary
/MathWorks 160 dict begin
% definition operators
/bdef {bind def} bind def
/ldef {load def} bind def
/xdef {exch def} bdef
/xstore {exch store} bdef
% operator abbreviations
/c  /clip ldef
/cc /concat ldef
/cp /closepath ldef
/gr /grestore ldef
/gs /gsave ldef
/mt /moveto ldef
/np /newpath ldef
/cm /currentmatrix ldef
/sm /setmatrix ldef
/rm /rmoveto ldef
/rl /rlineto ldef
/s {show newpath} bdef
/sc {setcmykcolor} bdef
/sr /setrgbcolor ldef
/sg /setgray ldef
/w /setlinewidth ldef
/j /setlinejoin ldef
/cap /setlinecap ldef
/rc {rectclip} bdef
/rf {rectfill} bdef
% page state control
/pgsv () def
/bpage {/pgsv save def} bdef
/epage {pgsv restore} bdef
/bplot /gsave ldef
/eplot {stroke grestore} bdef
% orientation switch
/portraitMode 0 def /landscapeMode 1 def /rotateMode 2 def
% coordinate system mappings
/dpi2point 0 def
% font control
/FontSize 0 def
/FMS {/FontSize xstore findfont [FontSize 0 0 FontSize neg 0 0]
  makefont setfont} bdef
/ISOLatin1Encoding where {pop /WindowsLatin1Encoding 256 array bdef
ISOLatin1Encoding WindowsLatin1Encoding copy pop
/.notdef/.notdef/quotesinglbase/florin/quotedblbase/ellipsis/dagger
/daggerdbl/circumflex/perthousand/Scaron/guilsinglleft/OE/.notdef/.notdef
/.notdef/.notdef/quoteleft/quoteright/quotedblleft/quotedblright/bullet
/endash/emdash/tilde/trademark/scaron/guilsinglright/oe/.notdef/.notdef
/Ydieresis WindowsLatin1Encoding 128 32 getinterval astore pop}
{/WindowsLatin1Encoding StandardEncoding bdef} ifelse
/reencode {exch dup where {pop load} {pop StandardEncoding} ifelse
  exch dup 3 1 roll findfont dup length dict begin
  { 1 index /FID ne {def}{pop pop} ifelse } forall
  /Encoding exch def currentdict end definefont pop} bdef
/isroman {findfont /CharStrings get /Agrave known} bdef
/FMSR {3 1 roll 1 index dup isroman {reencode} {pop pop} ifelse
  exch FMS} bdef
/csm {1 dpi2point div -1 dpi2point div scale neg translate
 dup landscapeMode eq {pop -90 rotate}
  {rotateMode eq {90 rotate} if} ifelse} bdef
% line types: solid, dotted, dashed, dotdash
/SO { [] 0 setdash } bdef
/DO { [.5 dpi2point mul 4 dpi2point mul] 0 setdash } bdef
/DA { [6 dpi2point mul] 0 setdash } bdef
/DD { [.5 dpi2point mul 4 dpi2point mul 6 dpi2point mul 4
  dpi2point mul] 0 setdash } bdef
% macros for lines and objects
/L {lineto stroke} bdef
/MP {3 1 roll moveto 1 sub {rlineto} repeat} bdef
/AP {{rlineto} repeat} bdef
/PDlw -1 def
/W {/PDlw currentlinewidth def setlinewidth} def
/PP {closepath eofill} bdef
/DP {closepath stroke} bdef
/MR {4 -2 roll moveto dup  0 exch rlineto exch 0 rlineto
  neg 0 exch rlineto closepath} bdef
/FR {MR stroke} bdef
/PR {MR fill} bdef
/L1i {{currentfile picstr readhexstring pop} image} bdef
/tMatrix matrix def
/MakeOval {newpath tMatrix currentmatrix pop translate scale
0 0 1 0 360 arc tMatrix setmatrix} bdef
/FO {MakeOval stroke} bdef
/PO {MakeOval fill} bdef
/PD {currentlinewidth 2 div 0 360 arc fill
   PDlw -1 eq not {PDlw w /PDlw -1 def} if} def
/FA {newpath tMatrix currentmatrix pop translate scale
  0 0 1 5 -2 roll arc tMatrix setmatrix stroke} bdef
/PA {newpath tMatrix currentmatrix pop	translate 0 0 moveto scale
  0 0 1 5 -2 roll arc closepath tMatrix setmatrix fill} bdef
/FAn {newpath tMatrix currentmatrix pop translate scale
  0 0 1 5 -2 roll arcn tMatrix setmatrix stroke} bdef
/PAn {newpath tMatrix currentmatrix pop translate 0 0 moveto scale
  0 0 1 5 -2 roll arcn closepath tMatrix setmatrix fill} bdef
/vradius 0 def /hradius 0 def /lry 0 def
/lrx 0 def /uly 0 def /ulx 0 def /rad 0 def
/MRR {/vradius xdef /hradius xdef /lry xdef /lrx xdef /uly xdef
  /ulx xdef newpath tMatrix currentmatrix pop ulx hradius add uly
  vradius add translate hradius vradius scale 0 0 1 180 270 arc 
  tMatrix setmatrix lrx hradius sub uly vradius add translate
  hradius vradius scale 0 0 1 270 360 arc tMatrix setmatrix
  lrx hradius sub lry vradius sub translate hradius vradius scale
  0 0 1 0 90 arc tMatrix setmatrix ulx hradius add lry vradius sub
  translate hradius vradius scale 0 0 1 90 180 arc tMatrix setmatrix
  closepath} bdef
/FRR {MRR stroke } bdef
/PRR {MRR fill } bdef
/MlrRR {/lry xdef /lrx xdef /uly xdef /ulx xdef /rad lry uly sub 2 div def
  newpath tMatrix currentmatrix pop ulx rad add uly rad add translate
  rad rad scale 0 0 1 90 270 arc tMatrix setmatrix lrx rad sub lry rad
  sub translate rad rad scale 0 0 1 270 90 arc tMatrix setmatrix
  closepath} bdef
/FlrRR {MlrRR stroke } bdef
/PlrRR {MlrRR fill } bdef
/MtbRR {/lry xdef /lrx xdef /uly xdef /ulx xdef /rad lrx ulx sub 2 div def
  newpath tMatrix currentmatrix pop ulx rad add uly rad add translate
  rad rad scale 0 0 1 180 360 arc tMatrix setmatrix lrx rad sub lry rad
  sub translate rad rad scale 0 0 1 0 180 arc tMatrix setmatrix
  closepath} bdef
/FtbRR {MtbRR stroke } bdef
/PtbRR {MtbRR fill } bdef
/stri 6 array def /dtri 6 array def
/smat 6 array def /dmat 6 array def
/tmat1 6 array def /tmat2 6 array def /dif 3 array def
/asub {/ind2 exch def /ind1 exch def dup dup
  ind1 get exch ind2 get sub exch } bdef
/tri_to_matrix {
  2 0 asub 3 1 asub 4 0 asub 5 1 asub
  dup 0 get exch 1 get 7 -1 roll astore } bdef
/compute_transform {
  dmat dtri tri_to_matrix tmat1 invertmatrix 
  smat stri tri_to_matrix tmat2 concatmatrix } bdef
/ds {stri astore pop} bdef
/dt {dtri astore pop} bdef
/db {2 copy /cols xdef /rows xdef mul dup 3 mul string
  currentfile 
  3 index 0 eq {/ASCIIHexDecode filter}
  {/ASCII85Decode filter 3 index 2 eq {/RunLengthDecode filter} if }
  ifelse exch readstring pop
  dup 0 3 index getinterval /rbmap xdef
  dup 2 index dup getinterval /gbmap xdef
  1 index dup 2 mul exch getinterval /bbmap xdef pop pop}bdef
/it {gs np dtri aload pop moveto lineto lineto cp c
  cols rows 8 compute_transform 
  rbmap gbmap bbmap true 3 colorimage gr}bdef
/il {newpath moveto lineto stroke}bdef
currentdict end def
%%EndProlog

%%BeginSetup
MathWorks begin

0 cap

end
%%EndSetup

%%Page: 1 1
%%BeginPageSetup
%%PageBoundingBox:    32   180   546   616
MathWorks begin
bpage
%%EndPageSetup

%%BeginObject: obj1
bplot

/dpi2point 12 def
portraitMode 0216 7344 csm

  174   -48  6173  5231 rc
85 dict begin %Colortable dictionary
/c0 { 0.000000 0.000000 0.000000 sr} bdef
/c1 { 1.000000 1.000000 1.000000 sr} bdef
/c2 { 0.900000 0.000000 0.000000 sr} bdef
/c3 { 0.000000 0.820000 0.000000 sr} bdef
/c4 { 0.000000 0.000000 0.800000 sr} bdef
/c5 { 0.910000 0.820000 0.320000 sr} bdef
/c6 { 1.000000 0.260000 0.820000 sr} bdef
/c7 { 0.000000 0.820000 0.820000 sr} bdef
c0
1 j
1 sg
   0    0 6919 5187 rf
6 w
0 4202 5362 0 0 -4202 899 4616 4 MP
PP
-5362 0 0 4202 5362 0 0 -4202 899 4616 5 MP stroke
4 w
DO
SO
6 w
0 sg
 899  414 mt 6261  414 L
 899 4616 mt 6261 4616 L
6261 4616 mt 6261  414 L
 899 4616 mt  899  414 L
 899 4616 mt 6261 4616 L
 899 4616 mt  899  414 L
1971 4616 mt 1971 4562 L
1971  414 mt 1971  467 L
%%IncludeResource: font Helvetica
/Helvetica /WindowsLatin1Encoding 240 FMSR

1805 4873 mt 
(0.2) s
3043 4616 mt 3043 4562 L
3043  414 mt 3043  467 L
2877 4873 mt 
(0.4) s
4116 4616 mt 4116 4562 L
4116  414 mt 4116  467 L
3950 4873 mt 
(0.6) s
5188 4616 mt 5188 4562 L
5188  414 mt 5188  467 L
5022 4873 mt 
(0.8) s
 899 4195 mt  952 4195 L
6261 4195 mt 6207 4195 L
 531 4284 mt 
(0.1) s
 899 3775 mt  952 3775 L
6261 3775 mt 6207 3775 L
 531 3864 mt 
(0.2) s
 899 3355 mt  952 3355 L
6261 3355 mt 6207 3355 L
 531 3444 mt 
(0.3) s
 899 2935 mt  952 2935 L
6261 2935 mt 6207 2935 L
 531 3024 mt 
(0.4) s
 899 2515 mt  952 2515 L
6261 2515 mt 6207 2515 L
 531 2604 mt 
(0.5) s
 899 2094 mt  952 2094 L
6261 2094 mt 6207 2094 L
 531 2183 mt 
(0.6) s
 899 1674 mt  952 1674 L
6261 1674 mt 6207 1674 L
 531 1763 mt 
(0.7) s
 899 1254 mt  952 1254 L
6261 1254 mt 6207 1254 L
 531 1343 mt 
(0.8) s
 899  834 mt  952  834 L
6261  834 mt 6207  834 L
 531  923 mt 
(0.9) s
 899  414 mt 6261  414 L
 899 4616 mt 6261 4616 L
6261 4616 mt 6261  414 L
 899 4616 mt  899  414 L
gs 899 414 5363 4203 rc
gr

/c8 { 0.000000 0.000000 1.000000 sr} bdef
c8
6059  969 mt 6131  969 L
6095  933 mt 6095 1005 L
6157 2020 mt 6229 2020 L
6193 1984 mt 6193 2056 L
2487  662 mt 2559  662 L
2523  626 mt 2523  698 L
1711 1720 mt 1783 1720 L
1747 1684 mt 1747 1756 L
5961 1474 mt 6033 1474 L
5997 1438 mt 5997 1510 L
5332  517 mt 5404  517 L
5368  481 mt 5368  553 L
1393 4302 mt 1465 4302 L
1429 4266 mt 1429 4338 L
2316 3838 mt 2388 3838 L
2352 3802 mt 2352 3874 L
5533 4261 mt 5605 4261 L
5569 4225 mt 5569 4297 L
1262  419 mt 1334  419 L
1298  383 mt 1298  455 L
 863 4502 mt  935 4502 L
 899 4466 mt  899 4538 L
5861 1122 mt 5933 1122 L
5897 1086 mt 5897 1158 L
6164  454 mt 6236  454 L
6200  418 mt 6200  490 L
5622 1246 mt 5694 1246 L
5658 1210 mt 5658 1282 L
6216  420 mt 6288  420 L
6252  384 mt 6252  456 L
5730 3117 mt 5802 3117 L
5766 3081 mt 5766 3153 L
1183 2335 mt 1255 2335 L
1219 2299 mt 1219 2371 L
5072 1617 mt 5144 1617 L
5108 1581 mt 5108 1653 L
2779 2334 mt 2851 2334 L
2815 2298 mt 2815 2370 L
5193 2078 mt 5265 2078 L
5229 2042 mt 5229 2114 L
1290 1491 mt 1362 1491 L
1326 1455 mt 1326 1527 L
3090 1074 mt 3162 1074 L
3126 1038 mt 3126 1110 L
1538 3849 mt 1610 3849 L
1574 3813 mt 1574 3885 L
5066 1293 mt 5138 1293 L
5102 1257 mt 5102 1329 L
5736  417 mt 5808  417 L
5772  381 mt 5772  453 L
 864  520 mt  936  520 L
 900  484 mt  900  556 L
1319 1819 mt 1391 1819 L
1355 1783 mt 1355 1855 L
5987  448 mt 6059  448 L
6023  412 mt 6023  484 L
4909 4197 mt 4981 4197 L
4945 4161 mt 4945 4233 L
1747 4090 mt 1819 4090 L
1783 4054 mt 1783 4126 L
 919 1317 mt  991 1317 L
 955 1281 mt  955 1353 L
 873 4328 mt  945 4328 L
 909 4292 mt  909 4364 L
3159 4450 mt 3231 4450 L
3195 4414 mt 3195 4486 L
3919 2043 mt 3991 2043 L
3955 2007 mt 3955 2079 L
6146  715 mt 6218  715 L
6182  679 mt 6182  751 L
1954 3727 mt 2026 3727 L
1990 3691 mt 1990 3763 L
1815 3995 mt 1887 3995 L
1851 3959 mt 1851 4031 L
1314 1926 mt 1386 1926 L
1350 1890 mt 1350 1962 L
1395  615 mt 1467  615 L
1431  579 mt 1431  651 L
4450 3876 mt 4522 3876 L
4486 3840 mt 4486 3912 L
6001  534 mt 6073  534 L
6037  498 mt 6037  570 L
6193  435 mt 6265  435 L
6229  399 mt 6229  471 L
4951  523 mt 5023  523 L
4987  487 mt 4987  559 L
1885 1993 mt 1957 1993 L
1921 1957 mt 1921 2029 L
6216 1168 mt 6288 1168 L
6252 1132 mt 6252 1204 L
1175  695 mt 1247  695 L
1211  659 mt 1211  731 L
3572 3636 mt 3644 3636 L
3608 3600 mt 3608 3672 L
1754 2124 mt 1826 2124 L
1790 2088 mt 1790 2160 L
1503 1145 mt 1575 1145 L
1539 1109 mt 1539 1181 L
1214  453 mt 1286  453 L
1250  417 mt 1250  489 L
6217 2545 mt 6289 2545 L
6253 2509 mt 6253 2581 L
5916 3542 mt 5988 3542 L
5952 3506 mt 5952 3578 L
4086 1377 mt 4158 1377 L
4122 1341 mt 4122 1413 L
6058 2864 mt 6130 2864 L
6094 2828 mt 6094 2900 L
4132 3133 mt 4204 3133 L
4168 3097 mt 4168 3169 L
4810 1798 mt 4882 1798 L
4846 1762 mt 4846 1834 L
3673 4332 mt 3745 4332 L
3709 4296 mt 3709 4368 L
6215  433 mt 6287  433 L
6251  397 mt 6251  469 L
2796 4615 mt 2868 4615 L
2832 4579 mt 2832 4651 L
3366  452 mt 3438  452 L
3402  416 mt 3402  488 L
6059 1618 mt 6131 1618 L
6095 1582 mt 6095 1654 L
1806 4568 mt 1878 4568 L
1842 4532 mt 1842 4604 L
5003  816 mt 5075  816 L
5039  780 mt 5039  852 L
6217 2280 mt 6289 2280 L
6253 2244 mt 6253 2316 L
5809 4338 mt 5881 4338 L
5845 4302 mt 5845 4374 L
6216  456 mt 6288  456 L
6252  420 mt 6252  492 L
6211 2225 mt 6283 2225 L
6247 2189 mt 6247 2261 L
5257 1080 mt 5329 1080 L
5293 1044 mt 5293 1116 L
2607 4085 mt 2679 4085 L
2643 4049 mt 2643 4121 L
6067 3035 mt 6139 3035 L
6103 2999 mt 6103 3071 L
1502 1454 mt 1574 1454 L
1538 1418 mt 1538 1490 L
6130  438 mt 6202  438 L
6166  402 mt 6166  474 L
 863 4444 mt  935 4444 L
 899 4408 mt  899 4480 L
2852 3286 mt 2924 3286 L
2888 3250 mt 2888 3322 L
1195 4500 mt 1267 4500 L
1231 4464 mt 1231 4536 L
6179 4046 mt 6251 4046 L
6215 4010 mt 6215 4082 L
6184 2418 mt 6256 2418 L
6220 2382 mt 6220 2454 L
1176  771 mt 1248  771 L
1212  735 mt 1212  807 L
1259  501 mt 1331  501 L
1295  465 mt 1295  537 L
2559 4616 mt 2631 4616 L
2595 4580 mt 2595 4652 L
6122 4608 mt 6194 4608 L
6158 4572 mt 6158 4644 L
2031 3227 mt 2103 3227 L
2067 3191 mt 2067 3263 L
6064 3147 mt 6136 3147 L
6100 3111 mt 6100 3183 L
4550 1108 mt 4622 1108 L
4586 1072 mt 4586 1144 L
1037 2260 mt 1109 2260 L
1073 2224 mt 1073 2296 L
4315 3917 mt 4387 3917 L
4351 3881 mt 4351 3953 L
6157 1894 mt 6229 1894 L
6193 1858 mt 6193 1930 L
5360  534 mt 5432  534 L
5396  498 mt 5396  570 L
4619  805 mt 4691  805 L
4655  769 mt 4655  841 L
6219  531 mt 6291  531 L
6255  495 mt 6255  567 L
3643 4577 mt 3715 4577 L
3679 4541 mt 3679 4613 L
6221  530 mt 6293  530 L
6257  494 mt 6257  566 L
1232 3679 mt 1304 3679 L
1268 3643 mt 1268 3715 L
5607 3497 mt 5679 3497 L
5643 3461 mt 5643 3533 L
1260 4027 mt 1332 4027 L
1296 3991 mt 1296 4063 L
5389  426 mt 5461  426 L
5425  390 mt 5425  462 L
6117 1755 mt 6189 1755 L
6153 1719 mt 6153 1791 L
6201 4610 mt 6273 4610 L
6237 4574 mt 6237 4646 L
2577 4388 mt 2649 4388 L
2613 4352 mt 2613 4424 L
6129  505 mt 6201  505 L
6165  469 mt 6165  541 L
6225  443 mt 6297  443 L
6261  407 mt 6261  479 L
4612  429 mt 4684  429 L
4648  393 mt 4648  465 L
1121 2281 mt 1193 2281 L
1157 2245 mt 1157 2317 L
6150 4409 mt 6222 4409 L
6186 4373 mt 6186 4445 L
2321 3152 mt 2393 3152 L
2357 3116 mt 2357 3188 L
1176  461 mt 1248  461 L
1212  425 mt 1212  497 L
5677  666 mt 5749  666 L
5713  630 mt 5713  702 L
1006  470 mt 1078  470 L
1042  434 mt 1042  506 L
1720 2967 mt 1792 2967 L
1756 2931 mt 1756 3003 L
3401  993 mt 3473  993 L
3437  957 mt 3437 1029 L
5698  470 mt 5770  470 L
5734  434 mt 5734  506 L
1314  815 mt 1386  815 L
1350  779 mt 1350  851 L
5868 4088 mt 5940 4088 L
5904 4052 mt 5904 4124 L
6170 1473 mt 6242 1473 L
6206 1437 mt 6206 1509 L
1326 3956 mt 1398 3956 L
1362 3920 mt 1362 3992 L
1104 2510 mt 1176 2510 L
1140 2474 mt 1140 2546 L
3742  644 mt 3814  644 L
3778  608 mt 3778  680 L
6171  440 mt 6243  440 L
6207  404 mt 6207  476 L
 879 2888 mt  951 2888 L
 915 2852 mt  915 2924 L
3138 4360 mt 3210 4360 L
3174 4324 mt 3174 4396 L
5951 1210 mt 6023 1210 L
5987 1174 mt 5987 1246 L
1705 1783 mt 1777 1783 L
1741 1747 mt 1741 1819 L
5544 2976 mt 5616 2976 L
5580 2940 mt 5580 3012 L
 894 1970 mt  966 1970 L
 930 1934 mt  930 2006 L
3546 4031 mt 3618 4031 L
3582 3995 mt 3582 4067 L
6223  417 mt 6295  417 L
6259  381 mt 6259  453 L
5984 4038 mt 6056 4038 L
6020 4002 mt 6020 4074 L
5804 1699 mt 5876 1699 L
5840 1663 mt 5840 1735 L
1510  549 mt 1582  549 L
1546  513 mt 1546  585 L
 896 4371 mt  968 4371 L
 932 4335 mt  932 4407 L
6166  448 mt 6238  448 L
6202  412 mt 6202  484 L
4313 1013 mt 4385 1013 L
4349  977 mt 4349 1049 L
2291  479 mt 2363  479 L
2327  443 mt 2327  515 L
5737 1431 mt 5809 1431 L
5773 1395 mt 5773 1467 L
1147 3660 mt 1219 3660 L
1183 3624 mt 1183 3696 L
6100 1035 mt 6172 1035 L
6136  999 mt 6136 1071 L
1812 4433 mt 1884 4433 L
1848 4397 mt 1848 4469 L
4714  468 mt 4786  468 L
4750  432 mt 4750  504 L
3100 3079 mt 3172 3079 L
3136 3043 mt 3136 3115 L
4835 3281 mt 4907 3281 L
4871 3245 mt 4871 3317 L
4556 3919 mt 4628 3919 L
4592 3883 mt 4592 3955 L
6197  687 mt 6269  687 L
6233  651 mt 6233  723 L
 888 1406 mt  960 1406 L
 924 1370 mt  924 1442 L
2041 1821 mt 2113 1821 L
2077 1785 mt 2077 1857 L
6194 2928 mt 6266 2928 L
6230 2892 mt 6230 2964 L
4767  423 mt 4839  423 L
4803  387 mt 4803  459 L
1173 2156 mt 1245 2156 L
1209 2120 mt 1209 2192 L
6141 4362 mt 6213 4362 L
6177 4326 mt 6177 4398 L
3245 2364 mt 3317 2364 L
3281 2328 mt 3281 2400 L
2860 2495 mt 2932 2495 L
2896 2459 mt 2896 2531 L
1106 3816 mt 1178 3816 L
1142 3780 mt 1142 3852 L
2386 3669 mt 2458 3669 L
2422 3633 mt 2422 3705 L
1863 4586 mt 1935 4586 L
1899 4550 mt 1899 4622 L
1465 4513 mt 1537 4513 L
1501 4477 mt 1501 4549 L
1016 2301 mt 1088 2301 L
1052 2265 mt 1052 2337 L
3242 2476 mt 3314 2476 L
3278 2440 mt 3278 2512 L
1265 1507 mt 1337 1507 L
1301 1471 mt 1301 1543 L
1619 3177 mt 1691 3177 L
1655 3141 mt 1655 3213 L
 863  539 mt  935  539 L
 899  503 mt  899  575 L
4695  531 mt 4767  531 L
4731  495 mt 4731  567 L
5087  642 mt 5159  642 L
5123  606 mt 5123  678 L
2601 4606 mt 2673 4606 L
2637 4570 mt 2637 4642 L
 977 4394 mt 1049 4394 L
1013 4358 mt 1013 4430 L
5311 3782 mt 5383 3782 L
5347 3746 mt 5347 3818 L
1546 4306 mt 1618 4306 L
1582 4270 mt 1582 4342 L
 948 3778 mt 1020 3778 L
 984 3742 mt  984 3814 L
1397 2343 mt 1469 2343 L
1433 2307 mt 1433 2379 L
5713  429 mt 5785  429 L
5749  393 mt 5749  465 L
2370 1048 mt 2442 1048 L
2406 1012 mt 2406 1084 L
6206  570 mt 6278  570 L
6242  534 mt 6242  606 L
4106 1945 mt 4178 1945 L
4142 1909 mt 4142 1981 L
6088 4596 mt 6160 4596 L
6124 4560 mt 6124 4632 L
1538  746 mt 1610  746 L
1574  710 mt 1574  782 L
3584 3981 mt 3656 3981 L
3620 3945 mt 3620 4017 L
2296 4291 mt 2368 4291 L
2332 4255 mt 2332 4327 L
6078  656 mt 6150  656 L
6114  620 mt 6114  692 L
5009  698 mt 5081  698 L
5045  662 mt 5045  734 L
6223 4007 mt 6295 4007 L
6259 3971 mt 6259 4043 L
6139 4611 mt 6211 4611 L
6175 4575 mt 6175 4647 L
1021 1179 mt 1093 1179 L
1057 1143 mt 1057 1215 L
1394  482 mt 1466  482 L
1430  446 mt 1430  518 L
4046 1607 mt 4118 1607 L
4082 1571 mt 4082 1643 L
2924 3301 mt 2996 3301 L
2960 3265 mt 2960 3337 L
6189 4504 mt 6261 4504 L
6225 4468 mt 6225 4540 L
3579 1768 mt 3651 1768 L
3615 1732 mt 3615 1804 L
1590 3796 mt 1662 3796 L
1626 3760 mt 1626 3832 L
5523 1420 mt 5595 1420 L
5559 1384 mt 5559 1456 L
5748 1982 mt 5820 1982 L
5784 1946 mt 5784 2018 L
5061  933 mt 5133  933 L
5097  897 mt 5097  969 L
2013  873 mt 2085  873 L
2049  837 mt 2049  909 L
1018 3631 mt 1090 3631 L
1054 3595 mt 1054 3667 L
5467 4505 mt 5539 4505 L
5503 4469 mt 5503 4541 L
6203  436 mt 6275  436 L
6239  400 mt 6239  472 L
6059  415 mt 6131  415 L
6095  379 mt 6095  451 L
5853  927 mt 5925  927 L
5889  891 mt 5889  963 L
1077  668 mt 1149  668 L
1113  632 mt 1113  704 L
2865 3879 mt 2937 3879 L
2901 3843 mt 2901 3915 L
6025 3448 mt 6097 3448 L
6061 3412 mt 6061 3484 L
3575 3447 mt 3647 3447 L
3611 3411 mt 3611 3483 L
5555  419 mt 5627  419 L
5591  383 mt 5591  455 L
6217  426 mt 6289  426 L
6253  390 mt 6253  462 L
6205  452 mt 6277  452 L
6241  416 mt 6241  488 L
2233  606 mt 2305  606 L
2269  570 mt 2269  642 L
1787 1209 mt 1859 1209 L
1823 1173 mt 1823 1245 L
1097 1150 mt 1169 1150 L
1133 1114 mt 1133 1186 L
6108  480 mt 6180  480 L
6144  444 mt 6144  516 L
 973  424 mt 1045  424 L
1009  388 mt 1009  460 L
5751 1142 mt 5823 1142 L
5787 1106 mt 5787 1178 L
6209  419 mt 6281  419 L
6245  383 mt 6245  455 L
 870 3697 mt  942 3697 L
 906 3661 mt  906 3733 L
1323 4201 mt 1395 4201 L
1359 4165 mt 1359 4237 L
6219  426 mt 6291  426 L
6255  390 mt 6255  462 L
6223 1687 mt 6295 1687 L
6259 1651 mt 6259 1723 L
4845  421 mt 4917  421 L
4881  385 mt 4881  457 L
6205  507 mt 6277  507 L
6241  471 mt 6241  543 L
6199 2255 mt 6271 2255 L
6235 2219 mt 6235 2291 L
6179  519 mt 6251  519 L
6215  483 mt 6215  555 L
5757  878 mt 5829  878 L
5793  842 mt 5793  914 L
1188  415 mt 1260  415 L
1224  379 mt 1224  451 L
3781  956 mt 3853  956 L
3817  920 mt 3817  992 L
2488 4472 mt 2560 4472 L
2524 4436 mt 2524 4508 L
2478 3572 mt 2550 3572 L
2514 3536 mt 2514 3608 L
6169  469 mt 6241  469 L
6205  433 mt 6205  505 L
 873  422 mt  945  422 L
 909  386 mt  909  458 L
6146  419 mt 6218  419 L
6182  383 mt 6182  455 L
2174 1487 mt 2246 1487 L
2210 1451 mt 2210 1523 L
1702 3679 mt 1774 3679 L
1738 3643 mt 1738 3715 L
5959 3694 mt 6031 3694 L
5995 3658 mt 5995 3730 L
3389  502 mt 3461  502 L
3425  466 mt 3425  538 L
5199 4090 mt 5271 4090 L
5235 4054 mt 5235 4126 L
5967 4615 mt 6039 4615 L
6003 4579 mt 6003 4651 L
4515  439 mt 4587  439 L
4551  403 mt 4551  475 L
3999  419 mt 4071  419 L
4035  383 mt 4035  455 L
4353 4543 mt 4425 4543 L
4389 4507 mt 4389 4579 L
2123 2844 mt 2195 2844 L
2159 2808 mt 2159 2880 L
5778  414 mt 5850  414 L
5814  378 mt 5814  450 L
6211  414 mt 6283  414 L
6247  378 mt 6247  450 L
5987 1580 mt 6059 1580 L
6023 1544 mt 6023 1616 L
1116 2793 mt 1188 2793 L
1152 2757 mt 1152 2829 L
6221 2575 mt 6293 2575 L
6257 2539 mt 6257 2611 L
6222  942 mt 6294  942 L
6258  906 mt 6258  978 L
6215  425 mt 6287  425 L
6251  389 mt 6251  461 L
6223  439 mt 6295  439 L
6259  403 mt 6259  475 L
6207  473 mt 6279  473 L
6243  437 mt 6243  509 L
6005  502 mt 6077  502 L
6041  466 mt 6041  538 L
6220  454 mt 6292  454 L
6256  418 mt 6256  490 L
2892 2652 mt 2964 2652 L
2928 2616 mt 2928 2688 L
1798 4438 mt 1870 4438 L
1834 4402 mt 1834 4474 L
6175 3189 mt 6247 3189 L
6211 3153 mt 6211 3225 L
 877 4277 mt  949 4277 L
 913 4241 mt  913 4313 L
6210  697 mt 6282  697 L
6246  661 mt 6246  733 L
5133 3765 mt 5205 3765 L
5169 3729 mt 5169 3801 L
4634 1541 mt 4706 1541 L
4670 1505 mt 4670 1577 L
6220  439 mt 6292  439 L
6256  403 mt 6256  475 L
2673 3763 mt 2745 3763 L
2709 3727 mt 2709 3799 L
4308 2630 mt 4380 2630 L
4344 2594 mt 4344 2666 L
6202  444 mt 6274  444 L
6238  408 mt 6238  480 L
3993  477 mt 4065  477 L
4029  441 mt 4029  513 L
6175  420 mt 6247  420 L
6211  384 mt 6211  456 L
1028  740 mt 1100  740 L
1064  704 mt 1064  776 L
6222  887 mt 6294  887 L
6258  851 mt 6258  923 L
6063  548 mt 6135  548 L
6099  512 mt 6099  584 L
6064 4601 mt 6136 4601 L
6100 4565 mt 6100 4637 L
6205 4587 mt 6277 4587 L
6241 4551 mt 6241 4623 L
4002  442 mt 4074  442 L
4038  406 mt 4038  478 L
4109  466 mt 4181  466 L
4145  430 mt 4145  502 L
6215 2371 mt 6287 2371 L
6251 2335 mt 6251 2407 L
3214 3156 mt 3286 3156 L
3250 3120 mt 3250 3192 L
4054 4132 mt 4126 4132 L
4090 4096 mt 4090 4168 L
6028  902 mt 6100  902 L
6064  866 mt 6064  938 L
6224  417 mt 6296  417 L
6260  381 mt 6260  453 L
6168  594 mt 6240  594 L
6204  558 mt 6204  630 L
6217  493 mt 6289  493 L
6253  457 mt 6253  529 L
2166 3415 mt 2238 3415 L
2202 3379 mt 2202 3451 L
2913 1309 mt 2985 1309 L
2949 1273 mt 2949 1345 L
1885  448 mt 1957  448 L
1921  412 mt 1921  484 L
6216  446 mt 6288  446 L
6252  410 mt 6252  482 L
6215 3366 mt 6287 3366 L
6251 3330 mt 6251 3402 L
1711  537 mt 1783  537 L
1747  501 mt 1747  573 L
6220  506 mt 6292  506 L
6256  470 mt 6256  542 L
4720  440 mt 4792  440 L
4756  404 mt 4756  476 L
2569 4323 mt 2641 4323 L
2605 4287 mt 2605 4359 L
6219 2013 mt 6291 2013 L
6255 1977 mt 6255 2049 L
5060  588 mt 5132  588 L
5096  552 mt 5096  624 L
6078 4424 mt 6150 4424 L
6114 4388 mt 6114 4460 L
2203  551 mt 2275  551 L
2239  515 mt 2239  587 L
6205  516 mt 6277  516 L
6241  480 mt 6241  552 L
5958  690 mt 6030  690 L
5994  654 mt 5994  726 L
4202 3929 mt 4274 3929 L
4238 3893 mt 4238 3965 L
6186  480 mt 6258  480 L
6222  444 mt 6222  516 L
6195  557 mt 6267  557 L
6231  521 mt 6231  593 L
6100  642 mt 6172  642 L
6136  606 mt 6136  678 L
3551  473 mt 3623  473 L
3587  437 mt 3587  509 L
2454 4290 mt 2526 4290 L
2490 4254 mt 2490 4326 L
5584 1022 mt 5656 1022 L
5620  986 mt 5620 1058 L
1427  414 mt 1499  414 L
1463  378 mt 1463  450 L
5722  745 mt 5794  745 L
5758  709 mt 5758  781 L
2605 3467 mt 2677 3467 L
2641 3431 mt 2641 3503 L
2566 1607 mt 2638 1607 L
2602 1571 mt 2602 1643 L
6215  442 mt 6287  442 L
6251  406 mt 6251  478 L
6070  414 mt 6142  414 L
6106  378 mt 6106  450 L
5396 2971 mt 5468 2971 L
5432 2935 mt 5432 3007 L
4956  414 mt 5028  414 L
4992  378 mt 4992  450 L
6206 3895 mt 6278 3895 L
6242 3859 mt 6242 3931 L
2428 3405 mt 2500 3405 L
2464 3369 mt 2464 3441 L
4469  414 mt 4541  414 L
4505  378 mt 4505  450 L
6224  423 mt 6296  423 L
6260  387 mt 6260  459 L
6163 3795 mt 6235 3795 L
6199 3759 mt 6199 3831 L
6168 3952 mt 6240 3952 L
6204 3916 mt 6204 3988 L
3995  494 mt 4067  494 L
4031  458 mt 4031  530 L
5996 3359 mt 6068 3359 L
6032 3323 mt 6032 3395 L
2751  601 mt 2823  601 L
2787  565 mt 2787  637 L
3705  465 mt 3777  465 L
3741  429 mt 3741  501 L
2589 3696 mt 2661 3696 L
2625 3660 mt 2625 3732 L
2158  450 mt 2230  450 L
2194  414 mt 2194  486 L
 869 1732 mt  941 1732 L
 905 1696 mt  905 1768 L
6197  416 mt 6269  416 L
6233  380 mt 6233  452 L
5583  781 mt 5655  781 L
5619  745 mt 5619  817 L
5512 2423 mt 5584 2423 L
5548 2387 mt 5548 2459 L
6200 2913 mt 6272 2913 L
6236 2877 mt 6236 2949 L
6221  417 mt 6293  417 L
6257  381 mt 6257  453 L
5616 2940 mt 5688 2940 L
5652 2904 mt 5652 2976 L
5533 2965 mt 5605 2965 L
5569 2929 mt 5569 3001 L
 863  424 mt  935  424 L
 899  388 mt  899  460 L
5913  417 mt 5985  417 L
5949  381 mt 5949  453 L
5455  448 mt 5527  448 L
5491  412 mt 5491  484 L
6040 4159 mt 6112 4159 L
6076 4123 mt 6076 4195 L
6049 2225 mt 6121 2225 L
6085 2189 mt 6085 2261 L
6221  808 mt 6293  808 L
6257  772 mt 6257  844 L
1386 4583 mt 1458 4583 L
1422 4547 mt 1422 4619 L
6123  431 mt 6195  431 L
6159  395 mt 6159  467 L
2109 3346 mt 2181 3346 L
2145 3310 mt 2145 3382 L
6156  438 mt 6228  438 L
6192  402 mt 6192  474 L
5127 3073 mt 5199 3073 L
5163 3037 mt 5163 3109 L
4427  687 mt 4499  687 L
4463  651 mt 4463  723 L
5807  659 mt 5879  659 L
5843  623 mt 5843  695 L
3146 2815 mt 3218 2815 L
3182 2779 mt 3182 2851 L
6172  495 mt 6244  495 L
6208  459 mt 6208  531 L
5239  472 mt 5311  472 L
5275  436 mt 5275  508 L
3977  424 mt 4049  424 L
4013  388 mt 4013  460 L
3708 4602 mt 3780 4602 L
3744 4566 mt 3744 4638 L
6224  415 mt 6296  415 L
6260  379 mt 6260  451 L
1542  425 mt 1614  425 L
1578  389 mt 1578  461 L
 863 4275 mt  935 4275 L
 899 4239 mt  899 4311 L
3966  824 mt 4038  824 L
4002  788 mt 4002  860 L
5690 4491 mt 5762 4491 L
5726 4455 mt 5726 4527 L
5915 4061 mt 5987 4061 L
5951 4025 mt 5951 4097 L
5699 3557 mt 5771 3557 L
5735 3521 mt 5735 3593 L
5578 3961 mt 5650 3961 L
5614 3925 mt 5614 3997 L
 870 4583 mt  942 4583 L
 906 4547 mt  906 4619 L
 870 4271 mt  942 4271 L
 906 4235 mt  906 4307 L
2143 2670 mt 2215 2670 L
2179 2634 mt 2179 2706 L
5585 4450 mt 5657 4450 L
5621 4414 mt 5621 4486 L
5411  416 mt 5483  416 L
5447  380 mt 5447  452 L
2817 3426 mt 2889 3426 L
2853 3390 mt 2853 3462 L
6026  443 mt 6098  443 L
6062  407 mt 6062  479 L
1588  417 mt 1660  417 L
1624  381 mt 1624  453 L
2653  658 mt 2725  658 L
2689  622 mt 2689  694 L
1268 2315 mt 1340 2315 L
1304 2279 mt 1304 2351 L
1786 1972 mt 1858 1972 L
1822 1936 mt 1822 2008 L
6115 1224 mt 6187 1224 L
6151 1188 mt 6151 1260 L
4758 1188 mt 4830 1188 L
4794 1152 mt 4794 1224 L
 863 1243 mt  935 1243 L
 899 1207 mt  899 1279 L
6075 1745 mt 6147 1745 L
6111 1709 mt 6111 1781 L
1258 4466 mt 1330 4466 L
1294 4430 mt 1294 4502 L
5073 2376 mt 5145 2376 L
5109 2340 mt 5109 2412 L
6175 1731 mt 6247 1731 L
6211 1695 mt 6211 1767 L
1057 4193 mt 1129 4193 L
1093 4157 mt 1093 4229 L
6213  416 mt 6285  416 L
6249  380 mt 6249  452 L
6209  489 mt 6281  489 L
6245  453 mt 6245  525 L
2894  605 mt 2966  605 L
2930  569 mt 2930  641 L
6205  430 mt 6277  430 L
6241  394 mt 6241  466 L
6222  692 mt 6294  692 L
6258  656 mt 6258  728 L
1926  495 mt 1998  495 L
1962  459 mt 1962  531 L
6213 1389 mt 6285 1389 L
6249 1353 mt 6249 1425 L
1866 4407 mt 1938 4407 L
1902 4371 mt 1902 4443 L
 864 4614 mt  936 4614 L
 900 4578 mt  900 4650 L
3728  464 mt 3800  464 L
3764  428 mt 3764  500 L
2586 3310 mt 2658 3310 L
2622 3274 mt 2622 3346 L
 863 1722 mt  935 1722 L
 899 1686 mt  899 1758 L
 994  417 mt 1066  417 L
1030  381 mt 1030  453 L
1080 4612 mt 1152 4612 L
1116 4576 mt 1116 4648 L
6223  428 mt 6295  428 L
6259  392 mt 6259  464 L
6193  443 mt 6265  443 L
6229  407 mt 6229  479 L
 968 4415 mt 1040 4415 L
1004 4379 mt 1004 4451 L
6223  457 mt 6295  457 L
6259  421 mt 6259  493 L
2726 1483 mt 2798 1483 L
2762 1447 mt 2762 1519 L
4333 4575 mt 4405 4575 L
4369 4539 mt 4369 4611 L
1039 3337 mt 1111 3337 L
1075 3301 mt 1075 3373 L
3331  561 mt 3403  561 L
3367  525 mt 3367  597 L
 874 1747 mt  946 1747 L
 910 1711 mt  910 1783 L
5458 1065 mt 5530 1065 L
5494 1029 mt 5494 1101 L
6186  613 mt 6258  613 L
6222  577 mt 6222  649 L
4426  414 mt 4498  414 L
4462  378 mt 4462  450 L
6223  561 mt 6295  561 L
6259  525 mt 6259  597 L
2837 2262 mt 2909 2262 L
2873 2226 mt 2873 2298 L
5740 1772 mt 5812 1772 L
5776 1736 mt 5776 1808 L
5725  536 mt 5797  536 L
5761  500 mt 5761  572 L
4521  483 mt 4593  483 L
4557  447 mt 4557  519 L
6213  428 mt 6285  428 L
6249  392 mt 6249  464 L
gs 899 414 5363 4203 rc
gr

0 sg
2826 5104 mt 
(\(F,DCTs,MLP\)) s
 422 3273 mt  -90 rotate
(\(F,DCTb,MLP\)) s
90 rotate
2975  223 mt 
(Corr = 0.29) s

end %%Color Dict

eplot
%%EndObject

epage
end

showpage

%%Trailer
%%EOF
