%!PS-Adobe-3.0 EPSF-3.0
%%Creator: MATLAB, The Mathworks, Inc. Version 7.7.0.471 (R2008b). Operating System: Microsoft Windows XP.
%%Title: Pictures\main_zoo_mvar_analysis_data_BMI_xcorr_bmig_p1_k2_4_5.eps
%%CreationDate: 10/26/2009  05:45:25
%%DocumentNeededFonts: Helvetica
%%DocumentProcessColors: Cyan Magenta Yellow Black
%%LanguageLevel: 2
%%Pages: 1
%%BoundingBox:    37   180   549   616
%%EndComments

%%BeginProlog
% MathWorks dictionary
/MathWorks 160 dict begin
% definition operators
/bdef {bind def} bind def
/ldef {load def} bind def
/xdef {exch def} bdef
/xstore {exch store} bdef
% operator abbreviations
/c  /clip ldef
/cc /concat ldef
/cp /closepath ldef
/gr /grestore ldef
/gs /gsave ldef
/mt /moveto ldef
/np /newpath ldef
/cm /currentmatrix ldef
/sm /setmatrix ldef
/rm /rmoveto ldef
/rl /rlineto ldef
/s {show newpath} bdef
/sc {setcmykcolor} bdef
/sr /setrgbcolor ldef
/sg /setgray ldef
/w /setlinewidth ldef
/j /setlinejoin ldef
/cap /setlinecap ldef
/rc {rectclip} bdef
/rf {rectfill} bdef
% page state control
/pgsv () def
/bpage {/pgsv save def} bdef
/epage {pgsv restore} bdef
/bplot /gsave ldef
/eplot {stroke grestore} bdef
% orientation switch
/portraitMode 0 def /landscapeMode 1 def /rotateMode 2 def
% coordinate system mappings
/dpi2point 0 def
% font control
/FontSize 0 def
/FMS {/FontSize xstore findfont [FontSize 0 0 FontSize neg 0 0]
  makefont setfont} bdef
/ISOLatin1Encoding where {pop /WindowsLatin1Encoding 256 array bdef
ISOLatin1Encoding WindowsLatin1Encoding copy pop
/.notdef/.notdef/quotesinglbase/florin/quotedblbase/ellipsis/dagger
/daggerdbl/circumflex/perthousand/Scaron/guilsinglleft/OE/.notdef/.notdef
/.notdef/.notdef/quoteleft/quoteright/quotedblleft/quotedblright/bullet
/endash/emdash/tilde/trademark/scaron/guilsinglright/oe/.notdef/.notdef
/Ydieresis WindowsLatin1Encoding 128 32 getinterval astore pop}
{/WindowsLatin1Encoding StandardEncoding bdef} ifelse
/reencode {exch dup where {pop load} {pop StandardEncoding} ifelse
  exch dup 3 1 roll findfont dup length dict begin
  { 1 index /FID ne {def}{pop pop} ifelse } forall
  /Encoding exch def currentdict end definefont pop} bdef
/isroman {findfont /CharStrings get /Agrave known} bdef
/FMSR {3 1 roll 1 index dup isroman {reencode} {pop pop} ifelse
  exch FMS} bdef
/csm {1 dpi2point div -1 dpi2point div scale neg translate
 dup landscapeMode eq {pop -90 rotate}
  {rotateMode eq {90 rotate} if} ifelse} bdef
% line types: solid, dotted, dashed, dotdash
/SO { [] 0 setdash } bdef
/DO { [.5 dpi2point mul 4 dpi2point mul] 0 setdash } bdef
/DA { [6 dpi2point mul] 0 setdash } bdef
/DD { [.5 dpi2point mul 4 dpi2point mul 6 dpi2point mul 4
  dpi2point mul] 0 setdash } bdef
% macros for lines and objects
/L {lineto stroke} bdef
/MP {3 1 roll moveto 1 sub {rlineto} repeat} bdef
/AP {{rlineto} repeat} bdef
/PDlw -1 def
/W {/PDlw currentlinewidth def setlinewidth} def
/PP {closepath eofill} bdef
/DP {closepath stroke} bdef
/MR {4 -2 roll moveto dup  0 exch rlineto exch 0 rlineto
  neg 0 exch rlineto closepath} bdef
/FR {MR stroke} bdef
/PR {MR fill} bdef
/L1i {{currentfile picstr readhexstring pop} image} bdef
/tMatrix matrix def
/MakeOval {newpath tMatrix currentmatrix pop translate scale
0 0 1 0 360 arc tMatrix setmatrix} bdef
/FO {MakeOval stroke} bdef
/PO {MakeOval fill} bdef
/PD {currentlinewidth 2 div 0 360 arc fill
   PDlw -1 eq not {PDlw w /PDlw -1 def} if} def
/FA {newpath tMatrix currentmatrix pop translate scale
  0 0 1 5 -2 roll arc tMatrix setmatrix stroke} bdef
/PA {newpath tMatrix currentmatrix pop	translate 0 0 moveto scale
  0 0 1 5 -2 roll arc closepath tMatrix setmatrix fill} bdef
/FAn {newpath tMatrix currentmatrix pop translate scale
  0 0 1 5 -2 roll arcn tMatrix setmatrix stroke} bdef
/PAn {newpath tMatrix currentmatrix pop translate 0 0 moveto scale
  0 0 1 5 -2 roll arcn closepath tMatrix setmatrix fill} bdef
/vradius 0 def /hradius 0 def /lry 0 def
/lrx 0 def /uly 0 def /ulx 0 def /rad 0 def
/MRR {/vradius xdef /hradius xdef /lry xdef /lrx xdef /uly xdef
  /ulx xdef newpath tMatrix currentmatrix pop ulx hradius add uly
  vradius add translate hradius vradius scale 0 0 1 180 270 arc 
  tMatrix setmatrix lrx hradius sub uly vradius add translate
  hradius vradius scale 0 0 1 270 360 arc tMatrix setmatrix
  lrx hradius sub lry vradius sub translate hradius vradius scale
  0 0 1 0 90 arc tMatrix setmatrix ulx hradius add lry vradius sub
  translate hradius vradius scale 0 0 1 90 180 arc tMatrix setmatrix
  closepath} bdef
/FRR {MRR stroke } bdef
/PRR {MRR fill } bdef
/MlrRR {/lry xdef /lrx xdef /uly xdef /ulx xdef /rad lry uly sub 2 div def
  newpath tMatrix currentmatrix pop ulx rad add uly rad add translate
  rad rad scale 0 0 1 90 270 arc tMatrix setmatrix lrx rad sub lry rad
  sub translate rad rad scale 0 0 1 270 90 arc tMatrix setmatrix
  closepath} bdef
/FlrRR {MlrRR stroke } bdef
/PlrRR {MlrRR fill } bdef
/MtbRR {/lry xdef /lrx xdef /uly xdef /ulx xdef /rad lrx ulx sub 2 div def
  newpath tMatrix currentmatrix pop ulx rad add uly rad add translate
  rad rad scale 0 0 1 180 360 arc tMatrix setmatrix lrx rad sub lry rad
  sub translate rad rad scale 0 0 1 0 180 arc tMatrix setmatrix
  closepath} bdef
/FtbRR {MtbRR stroke } bdef
/PtbRR {MtbRR fill } bdef
/stri 6 array def /dtri 6 array def
/smat 6 array def /dmat 6 array def
/tmat1 6 array def /tmat2 6 array def /dif 3 array def
/asub {/ind2 exch def /ind1 exch def dup dup
  ind1 get exch ind2 get sub exch } bdef
/tri_to_matrix {
  2 0 asub 3 1 asub 4 0 asub 5 1 asub
  dup 0 get exch 1 get 7 -1 roll astore } bdef
/compute_transform {
  dmat dtri tri_to_matrix tmat1 invertmatrix 
  smat stri tri_to_matrix tmat2 concatmatrix } bdef
/ds {stri astore pop} bdef
/dt {dtri astore pop} bdef
/db {2 copy /cols xdef /rows xdef mul dup 3 mul string
  currentfile 
  3 index 0 eq {/ASCIIHexDecode filter}
  {/ASCII85Decode filter 3 index 2 eq {/RunLengthDecode filter} if }
  ifelse exch readstring pop
  dup 0 3 index getinterval /rbmap xdef
  dup 2 index dup getinterval /gbmap xdef
  1 index dup 2 mul exch getinterval /bbmap xdef pop pop}bdef
/it {gs np dtri aload pop moveto lineto lineto cp c
  cols rows 8 compute_transform 
  rbmap gbmap bbmap true 3 colorimage gr}bdef
/il {newpath moveto lineto stroke}bdef
currentdict end def
%%EndProlog

%%BeginSetup
MathWorks begin

0 cap

end
%%EndSetup

%%Page: 1 1
%%BeginPageSetup
%%PageBoundingBox:    37   180   549   616
MathWorks begin
bpage
%%EndPageSetup

%%BeginObject: obj1
bplot

/dpi2point 12 def
portraitMode 0216 7344 csm

  234   -48  6149  5231 rc
85 dict begin %Colortable dictionary
/c0 { 0.000000 0.000000 0.000000 sr} bdef
/c1 { 1.000000 1.000000 1.000000 sr} bdef
/c2 { 0.900000 0.000000 0.000000 sr} bdef
/c3 { 0.000000 0.820000 0.000000 sr} bdef
/c4 { 0.000000 0.000000 0.800000 sr} bdef
/c5 { 0.910000 0.820000 0.320000 sr} bdef
/c6 { 1.000000 0.260000 0.820000 sr} bdef
/c7 { 0.000000 0.820000 0.820000 sr} bdef
c0
1 j
1 sg
   0    0 6919 5187 rf
6 w
0 4202 5362 0 0 -4202 899 4616 4 MP
PP
-5362 0 0 4202 5362 0 0 -4202 899 4616 5 MP stroke
4 w
DO
SO
6 w
0 sg
 899  414 mt 6261  414 L
 899 4616 mt 6261 4616 L
6261 4616 mt 6261  414 L
 899 4616 mt  899  414 L
 899 4616 mt 6261 4616 L
 899 4616 mt  899  414 L
 919 4616 mt  919 4562 L
 919  414 mt  919  467 L
%%IncludeResource: font Helvetica
/Helvetica /WindowsLatin1Encoding 240 FMSR

 713 4873 mt 
(-3) s
1806 4616 mt 1806 4562 L
1806  414 mt 1806  467 L
1600 4873 mt 
(-2) s
2693 4616 mt 2693 4562 L
2693  414 mt 2693  467 L
2487 4873 mt 
(-1) s
3580 4616 mt 3580 4562 L
3580  414 mt 3580  467 L
3514 4873 mt 
(0) s
4466 4616 mt 4466 4562 L
4466  414 mt 4466  467 L
4400 4873 mt 
(1) s
5353 4616 mt 5353 4562 L
5353  414 mt 5353  467 L
5287 4873 mt 
(2) s
6240 4616 mt 6240 4562 L
6240  414 mt 6240  467 L
6174 4873 mt 
(3) s
 899 4599 mt  952 4599 L
6261 4599 mt 6207 4599 L
 591 4688 mt 
(-3) s
 899 3904 mt  952 3904 L
6261 3904 mt 6207 3904 L
 591 3993 mt 
(-2) s
 899 3209 mt  952 3209 L
6261 3209 mt 6207 3209 L
 591 3298 mt 
(-1) s
 899 2514 mt  952 2514 L
6261 2514 mt 6207 2514 L
 731 2603 mt 
(0) s
 899 1820 mt  952 1820 L
6261 1820 mt 6207 1820 L
 731 1909 mt 
(1) s
 899 1125 mt  952 1125 L
6261 1125 mt 6207 1125 L
 731 1214 mt 
(2) s
 899  430 mt  952  430 L
6261  430 mt 6207  430 L
 731  519 mt 
(3) s
 899  414 mt 6261  414 L
 899 4616 mt 6261 4616 L
6261 4616 mt 6261  414 L
 899 4616 mt  899  414 L
gs 899 414 5363 4203 rc
gr

/c8 { 0.000000 0.000000 1.000000 sr} bdef
c8
3946 2356 mt 4018 2356 L
3982 2320 mt 3982 2392 L
4149 2646 mt 4221 2646 L
4185 2610 mt 4185 2682 L
2490 2223 mt 2562 2223 L
2526 2187 mt 2526 2259 L
2805 2554 mt 2877 2554 L
2841 2518 mt 2841 2590 L
4372 2497 mt 4444 2497 L
4408 2461 mt 4408 2533 L
3072 2062 mt 3144 2062 L
3108 2026 mt 3108 2098 L
2456 3331 mt 2528 3331 L
2492 3295 mt 2492 3367 L
2851 3087 mt 2923 3087 L
2887 3051 mt 2887 3123 L
3644 3281 mt 3716 3281 L
3680 3245 mt 3680 3317 L
3454 1388 mt 3526 1388 L
3490 1352 mt 3490 1424 L
2040 3595 mt 2112 3595 L
2076 3559 mt 2076 3631 L
3711 2401 mt 3783 2401 L
3747 2365 mt 3747 2437 L
4236 1872 mt 4308 1872 L
4272 1836 mt 4272 1908 L
3621 2449 mt 3693 2449 L
3657 2413 mt 3657 2485 L
4789 1448 mt 4861 1448 L
4825 1412 mt 4825 1484 L
3443 2854 mt 3515 2854 L
3479 2818 mt 3479 2890 L
3214 2713 mt 3286 2713 L
3250 2677 mt 3250 2749 L
3432 2536 mt 3504 2536 L
3468 2500 mt 3468 2572 L
3123 2709 mt 3195 2709 L
3159 2673 mt 3159 2745 L
4021 2655 mt 4093 2655 L
4057 2619 mt 4057 2691 L
1876 2510 mt 1948 2510 L
1912 2474 mt 1912 2546 L
3521 2388 mt 3593 2388 L
3557 2352 mt 3557 2424 L
2605 3093 mt 2677 3093 L
2641 3057 mt 2641 3129 L
3359 2453 mt 3431 2453 L
3395 2417 mt 3395 2489 L
3723 1336 mt 3795 1336 L
3759 1300 mt 3759 1372 L
1722 2073 mt 1794 2073 L
1758 2037 mt 1758 2109 L
2836 2602 mt 2908 2602 L
2872 2566 mt 2872 2638 L
3855 1823 mt 3927 1823 L
3891 1787 mt 3891 1859 L
3404 3265 mt 3476 3265 L
3440 3229 mt 3440 3301 L
3532 3235 mt 3604 3235 L
3568 3199 mt 3568 3271 L
2312 2462 mt 2384 2462 L
2348 2426 mt 2348 2498 L
1674 3358 mt 1746 3358 L
1710 3322 mt 1710 3394 L
2085 3527 mt 2157 3527 L
2121 3491 mt 2121 3563 L
3544 2650 mt 3616 2650 L
3580 2614 mt 3580 2686 L
4135 2270 mt 4207 2270 L
4171 2234 mt 4171 2306 L
3336 3039 mt 3408 3039 L
3372 3003 mt 3372 3075 L
3110 3164 mt 3182 3164 L
3146 3128 mt 3146 3200 L
2545 2615 mt 2617 2615 L
2581 2579 mt 2581 2651 L
2615 2189 mt 2687 2189 L
2651 2153 mt 2651 2225 L
3147 3099 mt 3219 3099 L
3183 3063 mt 3183 3135 L
3891 2104 mt 3963 2104 L
3927 2068 mt 3927 2140 L
4381 1680 mt 4453 1680 L
4417 1644 mt 4417 1716 L
3370 2078 mt 3442 2078 L
3406 2042 mt 3406 2114 L
2973 2637 mt 3045 2637 L
3009 2601 mt 3009 2673 L
4886 2418 mt 4958 2418 L
4922 2382 mt 4922 2454 L
2016 2256 mt 2088 2256 L
2052 2220 mt 2052 2292 L
3538 2994 mt 3610 2994 L
3574 2958 mt 3574 3030 L
3007 2659 mt 3079 2659 L
3043 2623 mt 3043 2695 L
2917 2410 mt 2989 2410 L
2953 2374 mt 2953 2446 L
3689 1858 mt 3761 1858 L
3725 1822 mt 3725 1894 L
4820 2759 mt 4892 2759 L
4856 2723 mt 4856 2795 L
3903 2972 mt 3975 2972 L
3939 2936 mt 3939 3008 L
3797 2467 mt 3869 2467 L
3833 2431 mt 3833 2503 L
4034 2796 mt 4106 2796 L
4070 2760 mt 4070 2832 L
3757 2859 mt 3829 2859 L
3793 2823 mt 3793 2895 L
3319 2597 mt 3391 2597 L
3355 2561 mt 3355 2633 L
3516 3367 mt 3588 3367 L
3552 3331 mt 3552 3403 L
4746 1671 mt 4818 1671 L
4782 1635 mt 4782 1707 L
2251 4205 mt 2323 4205 L
2287 4169 mt 2287 4241 L
3059 1845 mt 3131 1845 L
3095 1809 mt 3095 1881 L
4009 2541 mt 4081 2541 L
4045 2505 mt 4045 2577 L
1259 3675 mt 1331 3675 L
1295 3639 mt 1295 3711 L
3178 2311 mt 3250 2311 L
3214 2275 mt 3214 2347 L
4836 2691 mt 4908 2691 L
4872 2655 mt 4872 2727 L
3633 3376 mt 3705 3376 L
3669 3340 mt 3669 3412 L
4775 1878 mt 4847 1878 L
4811 1842 mt 4811 1914 L
4585 2668 mt 4657 2668 L
4621 2632 mt 4621 2704 L
3172 2392 mt 3244 2392 L
3208 2356 mt 3208 2428 L
2697 3213 mt 2769 3213 L
2733 3177 mt 2733 3249 L
3977 2840 mt 4049 2840 L
4013 2804 mt 4013 2876 L
2797 2488 mt 2869 2488 L
2833 2452 mt 2833 2524 L
4163 1707 mt 4235 1707 L
4199 1671 mt 4199 1743 L
3706 3503 mt 3778 3503 L
3742 3467 mt 3742 3539 L
3505 2899 mt 3577 2899 L
3541 2863 mt 3541 2935 L
2643 3581 mt 2715 3581 L
2679 3545 mt 2679 3617 L
4306 3198 mt 4378 3198 L
4342 3162 mt 4342 3234 L
4322 2736 mt 4394 2736 L
4358 2700 mt 4358 2772 L
1991 2288 mt 2063 2288 L
2027 2252 mt 2027 2324 L
2355 2024 mt 2427 2024 L
2391 1988 mt 2391 2060 L
2420 4616 mt 2492 4616 L
2456 4580 mt 2456 4652 L
4080 3942 mt 4152 3942 L
4116 3906 mt 4116 3978 L
3116 2889 mt 3188 2889 L
3152 2853 mt 3152 2925 L
3964 2864 mt 4036 2864 L
4000 2828 mt 4000 2900 L
3873 2396 mt 3945 2396 L
3909 2360 mt 3909 2432 L
3762 2682 mt 3834 2682 L
3798 2646 mt 3798 2718 L
2952 3118 mt 3024 3118 L
2988 3082 mt 2988 3154 L
4199 2611 mt 4271 2611 L
4235 2575 mt 4235 2647 L
3376 2099 mt 3448 2099 L
3412 2063 mt 3412 2135 L
3989 2298 mt 4061 2298 L
4025 2262 mt 4025 2334 L
4869 2089 mt 4941 2089 L
4905 2053 mt 4905 2125 L
3033 3711 mt 3105 3711 L
3069 3675 mt 3069 3747 L
5024 2083 mt 5096 2083 L
5060 2047 mt 5060 2119 L
2813 3011 mt 2885 3011 L
2849 2975 mt 2849 3047 L
3672 2967 mt 3744 2967 L
3708 2931 mt 3708 3003 L
3387 3178 mt 3459 3178 L
3423 3142 mt 3423 3214 L
2896 1583 mt 2968 1583 L
2932 1547 mt 2932 1619 L
4107 2580 mt 4179 2580 L
4143 2544 mt 4143 2616 L
4472 3980 mt 4544 3980 L
4508 3944 mt 4508 4016 L
3261 3415 mt 3333 3415 L
3297 3379 mt 3297 3451 L
4170 2040 mt 4242 2040 L
4206 2004 mt 4206 2076 L
6225 1787 mt 6297 1787 L
6261 1751 mt 6261 1823 L
3040 1643 mt 3112 1643 L
3076 1607 mt 3076 1679 L
3243 2695 mt 3315 2695 L
3279 2659 mt 3279 2731 L
4177 3446 mt 4249 3446 L
4213 3410 mt 4213 3482 L
2652 2869 mt 2724 2869 L
2688 2833 mt 2688 2905 L
2789 1892 mt 2861 1892 L
2825 1856 mt 2825 1928 L
3571 2228 mt 3643 2228 L
3607 2192 mt 3607 2264 L
2586 1936 mt 2658 1936 L
2622 1900 mt 2622 1972 L
2821 2825 mt 2893 2825 L
2857 2789 mt 2857 2861 L
2757 2361 mt 2829 2361 L
2793 2325 mt 2793 2397 L
3728 1930 mt 3800 1930 L
3764 1894 mt 3764 1966 L
2534 2307 mt 2606 2307 L
2570 2271 mt 2570 2343 L
3616 3220 mt 3688 3220 L
3652 3184 mt 3652 3256 L
4631 2493 mt 4703 2493 L
4667 2457 mt 4667 2529 L
2945 3144 mt 3017 3144 L
2981 3108 mt 2981 3180 L
2773 2754 mt 2845 2754 L
2809 2718 mt 2809 2790 L
3915 2204 mt 3987 2204 L
3951 2168 mt 3951 2240 L
4228 1748 mt 4300 1748 L
4264 1712 mt 4264 1784 L
1387 2801 mt 1459 2801 L
1423 2765 mt 1423 2837 L
3273 3386 mt 3345 3386 L
3309 3350 mt 3309 3422 L
3838 2436 mt 3910 2436 L
3874 2400 mt 3874 2472 L
3364 2593 mt 3436 2593 L
3400 2557 mt 3400 2629 L
3566 2835 mt 3638 2835 L
3602 2799 mt 3602 2871 L
3153 2624 mt 3225 2624 L
3189 2588 mt 3189 2660 L
3879 3184 mt 3951 3184 L
3915 3148 mt 3915 3220 L
5282 1277 mt 5354 1277 L
5318 1241 mt 5318 1313 L
3952 3191 mt 4024 3191 L
3988 3155 mt 3988 3227 L
3694 2549 mt 3766 2549 L
3730 2513 mt 3730 2585 L
2749 2130 mt 2821 2130 L
2785 2094 mt 2785 2166 L
2327 3405 mt 2399 3405 L
2363 3369 mt 2363 3441 L
4259 1809 mt 4331 1809 L
4295 1773 mt 4295 1845 L
3832 2365 mt 3904 2365 L
3868 2329 mt 3868 2401 L
2966 1966 mt 3038 1966 L
3002 1930 mt 3002 2002 L
3649 2484 mt 3721 2484 L
3685 2448 mt 3685 2520 L
2407 3000 mt 2479 3000 L
2443 2964 mt 2443 3036 L
3921 2374 mt 3993 2374 L
3957 2338 mt 3957 2410 L
1907 3479 mt 1979 3479 L
1943 3443 mt 1943 3515 L
3460 1917 mt 3532 1917 L
3496 1881 mt 3496 1953 L
3661 2849 mt 3733 2849 L
3697 2813 mt 3697 2885 L
4087 2894 mt 4159 2894 L
4123 2858 mt 4123 2930 L
3237 3125 mt 3309 3125 L
3273 3089 mt 3273 3161 L
4364 2237 mt 4436 2237 L
4400 2201 mt 4400 2273 L
2298 2475 mt 2370 2475 L
2334 2439 mt 2334 2511 L
3296 2606 mt 3368 2606 L
3332 2570 mt 3332 2642 L
4407 2811 mt 4479 2811 L
4443 2775 mt 4443 2847 L
3449 1502 mt 3521 1502 L
3485 1466 mt 3485 1538 L
3220 2664 mt 3292 2664 L
3256 2628 mt 3256 2700 L
4114 3395 mt 4186 3395 L
4150 3359 mt 4150 3431 L
3190 2722 mt 3262 2722 L
3226 2686 mt 3226 2758 L
3325 2750 mt 3397 2750 L
3361 2714 mt 3361 2786 L
2432 3081 mt 2504 3081 L
2468 3045 mt 2468 3117 L
3085 3005 mt 3157 3005 L
3121 2969 mt 3121 3041 L
2980 3774 mt 3052 3774 L
3016 3738 mt 3016 3810 L
2341 3641 mt 2413 3641 L
2377 3605 mt 2377 3677 L
2903 2700 mt 2975 2700 L
2939 2664 mt 2939 2736 L
2924 2745 mt 2996 2745 L
2960 2709 mt 2960 2781 L
1619 2514 mt 1691 2514 L
1655 2478 mt 1655 2550 L
2394 2879 mt 2466 2879 L
2430 2843 mt 2430 2915 L
2063 2120 mt 2135 2120 L
2099 2084 mt 2099 2156 L
4015 2094 mt 4087 2094 L
4051 2058 mt 4051 2130 L
3353 2194 mt 3425 2194 L
3389 2158 mt 3389 2230 L
3347 3908 mt 3419 3908 L
3383 3872 mt 3383 3944 L
2938 3425 mt 3010 3425 L
2974 3389 mt 2974 3461 L
4142 3063 mt 4214 3063 L
4178 3027 mt 4178 3099 L
2662 3340 mt 2734 3340 L
2698 3304 mt 2698 3376 L
 863 3057 mt  935 3057 L
 899 3021 mt  899 3093 L
2183 2718 mt 2255 2718 L
2219 2682 mt 2219 2754 L
3774 1634 mt 3846 1634 L
3810 1598 mt 3810 1670 L
2502 2379 mt 2574 2379 L
2538 2343 mt 2538 2415 L
4542 2155 mt 4614 2155 L
4578 2119 mt 4578 2191 L
2740 2619 mt 2812 2619 L
2776 2583 mt 2776 2655 L
4074 3822 mt 4146 3822 L
4110 3786 mt 4110 3858 L
1842 2284 mt 1914 2284 L
1878 2248 mt 1878 2320 L
3599 3157 mt 3671 3157 L
3635 3121 mt 3635 3193 L
3226 3322 mt 3298 3322 L
3262 3286 mt 3262 3358 L
4047 2209 mt 4119 2209 L
4083 2173 mt 4083 2245 L
3426 2265 mt 3498 2265 L
3462 2229 mt 3462 2301 L
5531 3171 mt 5603 3171 L
5567 3135 mt 5567 3207 L
4121 4023 mt 4193 4023 L
4157 3987 mt 4157 4059 L
2479 2423 mt 2551 2423 L
2515 2387 mt 2515 2459 L
2523 1984 mt 2595 1984 L
2559 1948 mt 2559 2020 L
3745 2528 mt 3817 2528 L
3781 2492 mt 3781 2564 L
3421 2904 mt 3493 2904 L
3457 2868 mt 3457 2940 L
4390 3610 mt 4462 3610 L
4426 3574 mt 4426 3646 L
3780 2584 mt 3852 2584 L
3816 2548 mt 3816 2620 L
2634 3075 mt 2706 3075 L
2670 3039 mt 2670 3111 L
4416 2480 mt 4488 2480 L
4452 2444 mt 4452 2516 L
3751 2633 mt 3823 2633 L
3787 2597 mt 3787 2669 L
4041 2343 mt 4113 2343 L
4077 2307 mt 4077 2379 L
2888 2320 mt 2960 2320 L
2924 2284 mt 2924 2356 L
2267 2989 mt 2339 2989 L
2303 2953 mt 2303 3025 L
3638 3625 mt 3710 3625 L
3674 3589 mt 3674 3661 L
4482 1689 mt 4554 1689 L
4518 1653 mt 4518 1725 L
4054 1121 mt 4126 1121 L
4090 1085 mt 4090 1157 L
3809 2338 mt 3881 2338 L
3845 2302 mt 3845 2374 L
3398 2233 mt 3470 2233 L
3434 2197 mt 3434 2269 L
2781 3106 mt 2853 3106 L
2817 3070 mt 2817 3142 L
3958 2956 mt 4030 2956 L
3994 2920 mt 3994 2992 L
3046 2951 mt 3118 2951 L
3082 2915 mt 3082 2987 L
3683 1419 mt 3755 1419 L
3719 1383 mt 3719 1455 L
4852 1604 mt 4924 1604 L
4888 1568 mt 4888 1640 L
4522 1851 mt 4594 1851 L
4558 1815 mt 4558 1887 L
4330 2180 mt 4402 2180 L
4366 2144 mt 4366 2216 L
1965 2432 mt 2037 2432 L
2001 2396 mt 2001 2468 L
2444 2414 mt 2516 2414 L
2480 2378 mt 2480 2450 L
4067 1972 mt 4139 1972 L
4103 1936 mt 4103 2008 L
3499 1550 mt 3571 1550 L
3535 1514 mt 3535 1586 L
3510 2405 mt 3582 2405 L
3546 2369 mt 3546 2441 L
4444 1434 mt 4516 1434 L
4480 1398 mt 4480 1470 L
2723 3034 mt 2795 3034 L
2759 2998 mt 2759 3070 L
2235 3273 mt 2307 3273 L
2271 3237 mt 2271 3309 L
4941 1593 mt 5013 1593 L
4977 1557 mt 4977 1629 L
4094 2545 mt 4166 2545 L
4130 2509 mt 4130 2581 L
3393 1476 mt 3465 1476 L
3429 1440 mt 3429 1512 L
4512 2051 mt 4584 2051 L
4548 2015 mt 4548 2087 L
4435 2677 mt 4507 2677 L
4471 2641 mt 4471 2713 L
4314 2067 mt 4386 2067 L
4350 2031 mt 4350 2103 L
3410 2325 mt 3482 2325 L
3446 2289 mt 3446 2361 L
2706 1087 mt 2778 1087 L
2742 1051 mt 2742 1123 L
3740 2352 mt 3812 2352 L
3776 2316 mt 3776 2388 L
2987 3553 mt 3059 3553 L
3023 3517 mt 3023 3589 L
3000 2983 mt 3072 2983 L
3036 2947 mt 3036 3019 L
4251 1923 mt 4323 1923 L
4287 1887 mt 4287 1959 L
2165 1489 mt 2237 1489 L
2201 1453 mt 2201 1525 L
4184 1404 mt 4256 1404 L
4220 1368 mt 4220 1440 L
2689 2506 mt 2761 2506 L
2725 2470 mt 2725 2542 L
1766 3017 mt 1838 3017 L
1802 2981 mt 1802 3053 L
3814 3022 mt 3886 3022 L
3850 2986 mt 3850 3058 L
2715 2035 mt 2787 2035 L
2751 1999 mt 2751 2071 L
2146 3227 mt 2218 3227 L
2182 3191 mt 2182 3263 L
3844 4305 mt 3916 4305 L
3880 4269 mt 3880 4341 L
3381 1723 mt 3453 1723 L
3417 1687 mt 3417 1759 L
2565 1371 mt 2637 1371 L
2601 1335 mt 2601 1407 L
2931 3658 mt 3003 3658 L
2967 3622 mt 2967 3694 L
2218 2792 mt 2290 2792 L
2254 2756 mt 2254 2828 L
4243  957 mt 4315  957 L
4279  921 mt 4279  993 L
4574  824 mt 4646  824 L
4610  788 mt 4610  860 L
3897 2523 mt 3969 2523 L
3933 2487 mt 3933 2559 L
2106 2782 mt 2178 2782 L
2142 2746 mt 2142 2818 L
5002 2764 mt 5074 2764 L
5038 2728 mt 5038 2800 L
5180 2347 mt 5252 2347 L
5216 2311 mt 5216 2383 L
4643 1561 mt 4715 1561 L
4679 1525 mt 4679 1597 L
5365 1732 mt 5437 1732 L
5401 1696 mt 5401 1768 L
5245 1948 mt 5317 1948 L
5281 1912 mt 5281 1984 L
4981 2029 mt 5053 2029 L
5017 1993 mt 5017 2065 L
4961 1865 mt 5033 1865 L
4997 1829 mt 4997 1901 L
3493 2773 mt 3565 2773 L
3529 2737 mt 3529 2809 L
2959 3491 mt 3031 3491 L
2995 3455 mt 2995 3527 L
4282 2884 mt 4354 2884 L
4318 2848 mt 4318 2920 L
2595 3306 mt 2667 3306 L
2631 3270 mt 2631 3342 L
4553 2261 mt 4625 2261 L
4589 2225 mt 4589 2297 L
3330 3051 mt 3402 3051 L
3366 3015 mt 3366 3087 L
3278 2519 mt 3350 2519 L
3314 2483 mt 3314 2555 L
5047 1715 mt 5119 1715 L
5083 1679 mt 5083 1751 L
3267 3045 mt 3339 3045 L
3303 3009 mt 3303 3081 L
4002 2768 mt 4074 2768 L
4038 2732 mt 4038 2804 L
4463 1794 mt 4535 1794 L
4499 1758 mt 4499 1830 L
3129 1960 mt 3201 1960 L
3165 1924 mt 3165 1996 L
4290 1462 mt 4362 1462 L
4326 1426 mt 4326 1498 L
3284 2275 mt 3356 2275 L
3320 2239 mt 3320 2311 L
5211 2329 mt 5283 2329 L
5247 2293 mt 5247 2365 L
4680 2125 mt 4752 2125 L
4716 2089 mt 4716 2161 L
3996 3848 mt 4068 3848 L
4032 3812 mt 4032 3884 L
4532 3797 mt 4604 3797 L
4568 3761 mt 4568 3833 L
3885 1756 mt 3957 1756 L
3921 1720 mt 3921 1792 L
3027 1911 mt 3099 1911 L
3063 1875 mt 3063 1947 L
4760 2727 mt 4832 2727 L
4796 2691 mt 4796 2763 L
3488 2874 mt 3560 2874 L
3524 2838 mt 3524 2910 L
3166 3242 mt 3238 3242 L
3202 3206 mt 3202 3278 L
3934 2334 mt 4006 2334 L
3970 2298 mt 3970 2370 L
5700 1232 mt 5772 1232 L
5736 1196 mt 5736 1268 L
4206 2165 mt 4278 2165 L
4242 2129 mt 4242 2201 L
4904 2001 mt 4976 2001 L
4940 1965 mt 4940 2037 L
3141 2940 mt 3213 2940 L
3177 2904 mt 3177 2976 L
3655 2458 mt 3727 2458 L
3691 2422 mt 3691 2494 L
2881 1816 mt 2953 1816 L
2917 1780 mt 2917 1852 L
4805 1802 mt 4877 1802 L
4841 1766 mt 4841 1838 L
4667 2930 mt 4739 2930 L
4703 2894 mt 4703 2966 L
2844 2115 mt 2916 2115 L
2880 2079 mt 2880 2151 L
4732 2046 mt 4804 2046 L
4768 2010 mt 4768 2082 L
3971 1740 mt 4043 1740 L
4007 1704 mt 4007 1776 L
3850 3349 mt 3922 3349 L
3886 3313 mt 3886 3385 L
4922 2641 mt 4994 2641 L
4958 2605 mt 4958 2677 L
3826 2160 mt 3898 2160 L
3862 2124 mt 3862 2196 L
3940 3468 mt 4012 3468 L
3976 3432 mt 3976 3504 L
2555 2135 mt 2627 2135 L
2591 2099 mt 2591 2171 L
4398 2057 mt 4470 2057 L
4434 2021 mt 4434 2093 L
3717 2247 mt 3789 2247 L
3753 2211 mt 3753 2283 L
3078 3131 mt 3150 3131 L
3114 3095 mt 3114 3167 L
4355 1978 mt 4427 1978 L
4391 1942 mt 4391 2014 L
4608 2140 mt 4680 2140 L
4644 2104 mt 4644 2176 L
4060 2199 mt 4132 2199 L
4096 2163 mt 4096 2235 L
2866 1954 mt 2938 1954 L
2902 1918 mt 2902 1990 L
3196 3314 mt 3268 3314 L
3232 3278 mt 3232 3350 L
3415 2370 mt 3487 2370 L
3451 2334 mt 3451 2406 L
2993  414 mt 3065  414 L
3029  378 mt 3029  450 L
3700 2279 mt 3772 2279 L
3736 2243 mt 3736 2315 L
2765 2962 mt 2837 2962 L
2801 2926 mt 2801 2998 L
3091 2532 mt 3163 2532 L
3127 2496 mt 3127 2568 L
4706 1764 mt 4778 1764 L
4742 1728 mt 4742 1800 L
4028  564 mt 4100  564 L
4064  528 mt 4064  600 L
4156 2830 mt 4228 2830 L
4192 2794 mt 4192 2866 L
3342 1006 mt 3414 1006 L
3378  970 mt 3378 1042 L
4425 3112 mt 4497 3112 L
4461 3076 mt 4461 3148 L
2910 2935 mt 2982 2935 L
2946 2899 mt 2946 2971 L
5606  898 mt 5678  898 L
5642  862 mt 5642  934 L
5828 1514 mt 5900 1514 L
5864 1478 mt 5864 1550 L
4221 3069 mt 4293 3069 L
4257 3033 mt 4257 3105 L
4213 3137 mt 4285 3137 L
4249 3101 mt 4249 3173 L
2671 2007 mt 2743 2007 L
2707 1971 mt 2707 2043 L
3820 2925 mt 3892 2925 L
3856 2889 mt 3856 2961 L
3255 2170 mt 3327 2170 L
3291 2134 mt 3291 2206 L
2680 1904 mt 2752 1904 L
2716 1868 mt 2716 1940 L
3053 3028 mt 3125 3028 L
3089 2992 mt 3089 3064 L
3202 1838 mt 3274 1838 L
3238 1802 mt 3238 1874 L
2468 2567 mt 2540 2567 L
2504 2531 mt 2504 2603 L
5096 1152 mt 5168 1152 L
5132 1116 mt 5132 1188 L
4298 2293 mt 4370 2293 L
4334 2257 mt 4334 2329 L
3232 2741 mt 3304 2741 L
3268 2705 mt 3268 2777 L
4453 2806 mt 4525 2806 L
4489 2770 mt 4489 2842 L
5071 1318 mt 5143 1318 L
5107 1282 mt 5107 1354 L
3627 2815 mt 3699 2815 L
3663 2779 mt 3663 2851 L
3013 2820 mt 3085 2820 L
3049 2784 mt 3049 2856 L
2859 1526 mt 2931 1526 L
2895 1490 mt 2895 1562 L
3803 1354 mt 3875 1354 L
3839 1318 mt 3839 1390 L
3471 1831 mt 3543 1831 L
3507 1795 mt 3507 1867 L
4338 3250 mt 4410 3250 L
4374 3214 mt 4374 3286 L
4719 2673 mt 4791 2673 L
4755 2637 mt 4755 2709 L
5122 2302 mt 5194 2302 L
5158 2266 mt 5158 2338 L
2732 3731 mt 2804 3731 L
2768 3695 mt 2768 3767 L
4128 1662 mt 4200 1662 L
4164 1626 mt 4164 1698 L
3249 2920 mt 3321 2920 L
3285 2884 mt 3285 2956 L
4693 1698 mt 4765 1698 L
4729 1662 mt 4729 1734 L
3438 2844 mt 3510 2844 L
3474 2808 mt 3474 2880 L
3160 2242 mt 3232 2242 L
3196 2206 mt 3196 2278 L
3290 2218 mt 3362 2218 L
3326 2182 mt 3326 2254 L
3555 2787 mt 3627 2787 L
3591 2751 mt 3591 2823 L
4274 2018 mt 4346 2018 L
4310 1982 mt 4310 2054 L
3477 1942 mt 3549 1942 L
3513 1906 mt 3513 1978 L
3734 1538 mt 3806 1538 L
3770 1502 mt 3770 1574 L
3927 3877 mt 3999 3877 L
3963 3841 mt 3963 3913 L
6033 1049 mt 6105 1049 L
6069 1013 mt 6069 1085 L
3582 1572 mt 3654 1572 L
3618 1536 mt 3618 1608 L
2126 3297 mt 2198 3297 L
2162 3261 mt 2162 3333 L
3791 2316 mt 3863 2316 L
3827 2280 mt 3827 2352 L
3560 3567 mt 3632 3567 L
3596 3531 mt 3596 3603 L
3768 3206 mt 3840 3206 L
3804 3170 mt 3804 3242 L
3677 2978 mt 3749 2978 L
3713 2942 mt 3713 3014 L
3527 3151 mt 3599 3151 L
3563 3115 mt 3563 3187 L
3313 3752 mt 3385 3752 L
3349 3716 mt 3349 3788 L
1556 3289 mt 1628 3289 L
1592 3253 mt 1592 3325 L
3020 2778 mt 3092 2778 L
3056 2742 mt 3056 2814 L
3588 3515 mt 3660 3515 L
3624 3479 mt 3624 3551 L
3549 1207 mt 3621 1207 L
3585 1171 mt 3585 1243 L
3302 2946 mt 3374 2946 L
3338 2910 mt 3338 2982 L
3861 1772 mt 3933 1772 L
3897 1736 mt 3897 1808 L
2368 1255 mt 2440 1255 L
2404 1219 mt 2404 1291 L
3135 2214 mt 3207 2214 L
3171 2178 mt 3171 2250 L
2575 2704 mt 2647 2704 L
2611 2668 mt 2611 2740 L
2874 2628 mt 2946 2628 L
2910 2592 mt 2910 2664 L
4100 2440 mt 4172 2440 L
4136 2404 mt 4136 2476 L
2624 2427 mt 2696 2427 L
2660 2391 mt 2660 2463 L
3867 2445 mt 3939 2445 L
3903 2409 mt 3903 2481 L
4501 2571 mt 4573 2571 L
4537 2535 mt 4537 2607 L
2381 3540 mt 2453 3540 L
2417 3504 mt 2417 3576 L
3104 2731 mt 3176 2731 L
3140 2695 mt 3140 2767 L
4191 2562 mt 4263 2562 L
4227 2526 mt 4227 2598 L
3482 3257 mt 3554 3257 L
3518 3221 mt 3518 3293 L
4619 1181 mt 4691 1181 L
4655 1145 mt 4655 1217 L
4564 1995 mt 4636 1995 L
4600 1959 mt 4600 2031 L
3594 2175 mt 3666 2175 L
3630 2139 mt 3630 2211 L
4492 1653 mt 4564 1653 L
4528 1617 mt 4528 1689 L
5150 2251 mt 5222 2251 L
5186 2215 mt 5186 2287 L
3098 2012 mt 3170 2012 L
3134 1976 mt 3134 2048 L
4655 2471 mt 4727 2471 L
4691 2435 mt 4691 2507 L
1937 3436 mt 2009 3436 L
1973 3400 mt 1973 3472 L
2201 4131 mt 2273 4131 L
2237 4095 mt 2237 4167 L
3066 1898 mt 3138 1898 L
3102 1862 mt 3102 1934 L
3307 2909 mt 3379 2909 L
3343 2873 mt 3343 2945 L
1805 2558 mt 1877 2558 L
1841 2522 mt 1841 2594 L
3208 1298 mt 3280 1298 L
3244 1262 mt 3244 1334 L
2282 4072 mt 2354 4072 L
2318 4036 mt 2318 4108 L
5468 1614 mt 5540 1614 L
5504 1578 mt 5504 1650 L
4266 1779 mt 4338 1779 L
4302 1743 mt 4302 1815 L
1481 3457 mt 1553 3457 L
1517 3421 mt 1517 3493 L
5413 1885 mt 5485 1885 L
5449 1849 mt 5449 1921 L
3666 2501 mt 3738 2501 L
3702 2465 mt 3702 2537 L
3909 3693 mt 3981 3693 L
3945 3657 mt 3945 3729 L
3184 2914 mt 3256 2914 L
3220 2878 mt 3220 2950 L
3610 2150 mt 3682 2150 L
3646 2114 mt 3646 2186 L
2513 2576 mt 2585 2576 L
2549 2540 mt 2549 2612 L
3466 2383 mt 3538 2383 L
3502 2347 mt 3502 2419 L
4347 2185 mt 4419 2185 L
4383 2149 mt 4383 2221 L
3983  724 mt 4055  724 L
4019  688 mt 4019  760 L
5321 2145 mt 5393 2145 L
5357 2109 mt 5357 2181 L
3605 2686 mt 3677 2686 L
3641 2650 mt 3641 2722 L
3577 2589 mt 3649 2589 L
3613 2553 mt 3613 2625 L
3785 2109 mt 3857 2109 L
3821 2073 mt 3821 2145 L
2828 1990 mt 2900 1990 L
2864 1954 mt 2864 2026 L
4597 1624 mt 4669 1624 L
4633 1588 mt 4633 1660 L
gs 899 414 5363 4203 rc
gr

0 sg
2799 5104 mt 
(\(F,DCTs,iMLP\)) s
 482 3273 mt  -90 rotate
(\(F,DCTb,MLP\)) s
90 rotate
2975  223 mt 
(Corr = 0.34) s

end %%Color Dict

eplot
%%EndObject

epage
end

showpage

%%Trailer
%%EOF
