%!PS-Adobe-3.0 EPSF-3.0
%%Creator: MATLAB, The Mathworks, Inc.
%%Title: Pictures\main_analyse_rerun3_arun_B-ratio-orig.eps
%%CreationDate: 02/01/2009  09:15:34
%%DocumentNeededFonts: Helvetica
%%DocumentProcessColors: Cyan Magenta Yellow Black
%%LanguageLevel: 2
%%Pages: 1
%%BoundingBox:    87   221   546   598
%%EndComments

%%BeginProlog
% MathWorks dictionary
/MathWorks 160 dict begin
% definition operators
/bdef {bind def} bind def
/ldef {load def} bind def
/xdef {exch def} bdef
/xstore {exch store} bdef
% operator abbreviations
/c  /clip ldef
/cc /concat ldef
/cp /closepath ldef
/gr /grestore ldef
/gs /gsave ldef
/mt /moveto ldef
/np /newpath ldef
/cm /currentmatrix ldef
/sm /setmatrix ldef
/rm /rmoveto ldef
/rl /rlineto ldef
/s {show newpath} bdef
/sc {setcmykcolor} bdef
/sr /setrgbcolor ldef
/sg /setgray ldef
/w /setlinewidth ldef
/j /setlinejoin ldef
/cap /setlinecap ldef
/rc {rectclip} bdef
/rf {rectfill} bdef
% page state control
/pgsv () def
/bpage {/pgsv save def} bdef
/epage {pgsv restore} bdef
/bplot /gsave ldef
/eplot {stroke grestore} bdef
% orientation switch
/portraitMode 0 def /landscapeMode 1 def /rotateMode 2 def
% coordinate system mappings
/dpi2point 0 def
% font control
/FontSize 0 def
/FMS {/FontSize xstore findfont [FontSize 0 0 FontSize neg 0 0]
  makefont setfont} bdef
/ISOLatin1Encoding where {pop /WindowsLatin1Encoding 256 array bdef
ISOLatin1Encoding WindowsLatin1Encoding copy pop
/.notdef/.notdef/quotesinglbase/florin/quotedblbase/ellipsis/dagger
/daggerdbl/circumflex/perthousand/Scaron/guilsinglleft/OE/.notdef/.notdef
/.notdef/.notdef/quoteleft/quoteright/quotedblleft/quotedblright/bullet
/endash/emdash/tilde/trademark/scaron/guilsinglright/oe/.notdef/.notdef
/Ydieresis WindowsLatin1Encoding 128 32 getinterval astore pop}
{/WindowsLatin1Encoding StandardEncoding bdef} ifelse
/reencode {exch dup where {pop load} {pop StandardEncoding} ifelse
  exch dup 3 1 roll findfont dup length dict begin
  { 1 index /FID ne {def}{pop pop} ifelse } forall
  /Encoding exch def currentdict end definefont pop} bdef
/isroman {findfont /CharStrings get /Agrave known} bdef
/FMSR {3 1 roll 1 index dup isroman {reencode} {pop pop} ifelse
  exch FMS} bdef
/csm {1 dpi2point div -1 dpi2point div scale neg translate
 dup landscapeMode eq {pop -90 rotate}
  {rotateMode eq {90 rotate} if} ifelse} bdef
% line types: solid, dotted, dashed, dotdash
/SO { [] 0 setdash } bdef
/DO { [.5 dpi2point mul 4 dpi2point mul] 0 setdash } bdef
/DA { [6 dpi2point mul] 0 setdash } bdef
/DD { [.5 dpi2point mul 4 dpi2point mul 6 dpi2point mul 4
  dpi2point mul] 0 setdash } bdef
% macros for lines and objects
/L {lineto stroke} bdef
/MP {3 1 roll moveto 1 sub {rlineto} repeat} bdef
/AP {{rlineto} repeat} bdef
/PDlw -1 def
/W {/PDlw currentlinewidth def setlinewidth} def
/PP {closepath eofill} bdef
/DP {closepath stroke} bdef
/MR {4 -2 roll moveto dup  0 exch rlineto exch 0 rlineto
  neg 0 exch rlineto closepath} bdef
/FR {MR stroke} bdef
/PR {MR fill} bdef
/L1i {{currentfile picstr readhexstring pop} image} bdef
/tMatrix matrix def
/MakeOval {newpath tMatrix currentmatrix pop translate scale
0 0 1 0 360 arc tMatrix setmatrix} bdef
/FO {MakeOval stroke} bdef
/PO {MakeOval fill} bdef
/PD {currentlinewidth 2 div 0 360 arc fill
   PDlw -1 eq not {PDlw w /PDlw -1 def} if} def
/FA {newpath tMatrix currentmatrix pop translate scale
  0 0 1 5 -2 roll arc tMatrix setmatrix stroke} bdef
/PA {newpath tMatrix currentmatrix pop	translate 0 0 moveto scale
  0 0 1 5 -2 roll arc closepath tMatrix setmatrix fill} bdef
/FAn {newpath tMatrix currentmatrix pop translate scale
  0 0 1 5 -2 roll arcn tMatrix setmatrix stroke} bdef
/PAn {newpath tMatrix currentmatrix pop translate 0 0 moveto scale
  0 0 1 5 -2 roll arcn closepath tMatrix setmatrix fill} bdef
/vradius 0 def /hradius 0 def /lry 0 def
/lrx 0 def /uly 0 def /ulx 0 def /rad 0 def
/MRR {/vradius xdef /hradius xdef /lry xdef /lrx xdef /uly xdef
  /ulx xdef newpath tMatrix currentmatrix pop ulx hradius add uly
  vradius add translate hradius vradius scale 0 0 1 180 270 arc 
  tMatrix setmatrix lrx hradius sub uly vradius add translate
  hradius vradius scale 0 0 1 270 360 arc tMatrix setmatrix
  lrx hradius sub lry vradius sub translate hradius vradius scale
  0 0 1 0 90 arc tMatrix setmatrix ulx hradius add lry vradius sub
  translate hradius vradius scale 0 0 1 90 180 arc tMatrix setmatrix
  closepath} bdef
/FRR {MRR stroke } bdef
/PRR {MRR fill } bdef
/MlrRR {/lry xdef /lrx xdef /uly xdef /ulx xdef /rad lry uly sub 2 div def
  newpath tMatrix currentmatrix pop ulx rad add uly rad add translate
  rad rad scale 0 0 1 90 270 arc tMatrix setmatrix lrx rad sub lry rad
  sub translate rad rad scale 0 0 1 270 90 arc tMatrix setmatrix
  closepath} bdef
/FlrRR {MlrRR stroke } bdef
/PlrRR {MlrRR fill } bdef
/MtbRR {/lry xdef /lrx xdef /uly xdef /ulx xdef /rad lrx ulx sub 2 div def
  newpath tMatrix currentmatrix pop ulx rad add uly rad add translate
  rad rad scale 0 0 1 180 360 arc tMatrix setmatrix lrx rad sub lry rad
  sub translate rad rad scale 0 0 1 0 180 arc tMatrix setmatrix
  closepath} bdef
/FtbRR {MtbRR stroke } bdef
/PtbRR {MtbRR fill } bdef
/stri 6 array def /dtri 6 array def
/smat 6 array def /dmat 6 array def
/tmat1 6 array def /tmat2 6 array def /dif 3 array def
/asub {/ind2 exch def /ind1 exch def dup dup
  ind1 get exch ind2 get sub exch } bdef
/tri_to_matrix {
  2 0 asub 3 1 asub 4 0 asub 5 1 asub
  dup 0 get exch 1 get 7 -1 roll astore } bdef
/compute_transform {
  dmat dtri tri_to_matrix tmat1 invertmatrix 
  smat stri tri_to_matrix tmat2 concatmatrix } bdef
/ds {stri astore pop} bdef
/dt {dtri astore pop} bdef
/db {2 copy /cols xdef /rows xdef mul dup 3 mul string
  currentfile 
  3 index 0 eq {/ASCIIHexDecode filter}
  {/ASCII85Decode filter 3 index 2 eq {/RunLengthDecode filter} if }
  ifelse exch readstring pop
  dup 0 3 index getinterval /rbmap xdef
  dup 2 index dup getinterval /gbmap xdef
  1 index dup 2 mul exch getinterval /bbmap xdef pop pop}bdef
/it {gs np dtri aload pop moveto lineto lineto cp c
  cols rows 8 compute_transform 
  rbmap gbmap bbmap true 3 colorimage gr}bdef
/il {newpath moveto lineto stroke}bdef
currentdict end def
%%EndProlog

%%BeginSetup
MathWorks begin

0 cap

end
%%EndSetup

%%Page: 1 1
%%BeginPageSetup
%%PageBoundingBox:    87   221   546   598
MathWorks begin
bpage
%%EndPageSetup

%%BeginObject: obj1
bplot

/dpi2point 12 def
portraitMode 0216 7344 csm

  828   161  5519  4529 rc
85 dict begin %Colortable dictionary
/c0 { 0.000000 0.000000 0.000000 sr} bdef
/c1 { 1.000000 1.000000 1.000000 sr} bdef
/c2 { 0.900000 0.000000 0.000000 sr} bdef
/c3 { 0.000000 0.820000 0.000000 sr} bdef
/c4 { 0.000000 0.000000 0.800000 sr} bdef
/c5 { 0.910000 0.820000 0.320000 sr} bdef
/c6 { 1.000000 0.260000 0.820000 sr} bdef
/c7 { 0.000000 0.820000 0.820000 sr} bdef
c0
1 j
1 sg
   0    0 6919 5187 rf
6 w
0 1068 856 0 0 -1068 898 1508 4 MP
PP
-856 0 0 1068 856 0 0 -1068 898 1508 5 MP stroke
4 w
DO
SO
6 w
0 sg
 898 1508 mt 1754 1508 L
 898 1508 mt  898  440 L
 976 1508 mt  976 1497 L
1180 1508 mt 1180 1497 L
1384 1508 mt 1384 1497 L
1588 1508 mt 1588 1497 L
 898 1389 mt  909 1389 L
 898 1028 mt  909 1028 L
 898  667 mt  909  667 L
%%IncludeResource: font Helvetica
/Helvetica /WindowsLatin1Encoding 120 FMSR

 986  345 mt 
(P1:1 P1:1\(F\)) s
gs 898 440 858 1069 rc
gr

gs 825 367 1003 1215 rc
24 W
/c8 { 0.000000 0.000000 1.000000 sr} bdef
c8
1605 524 PD
24 W
1372 878 PD
24 W
1225 1091 PD
24 W
1217 964 PD
24 W
1075 688 PD
24 W
1200 921 PD
24 W
1143 1236 PD
24 W
1305 964 PD
24 W
1249 850 PD
24 W
1006 1125 PD
24 W
1261 789 PD
24 W
1221 730 PD
24 W
1572 551 PD
24 W
1278 877 PD
24 W
1251 912 PD
24 W
1124 787 PD
24 W
1075 841 PD
24 W
1458 876 PD
24 W
1352 720 PD
24 W
1269 1080 PD
24 W
1266 1078 PD
24 W
1139 1085 PD
24 W
1170 780 PD
24 W
1214 924 PD
24 W
1754 562 PD
24 W
1208 1116 PD
24 W
1312 919 PD
24 W
1322 952 PD
24 W
1359 783 PD
24 W
1065 1142 PD
24 W
1251 786 PD
24 W
1317 802 PD
24 W
1236 857 PD
24 W
1077 901 PD
24 W
1245 967 PD
24 W
1117 1306 PD
24 W
1055 977 PD
24 W
1317 791 PD
24 W
1313 785 PD
24 W
1314 802 PD
24 W
1324 954 PD
24 W
1258 888 PD
24 W
1306 740 PD
24 W
1083 1262 PD
24 W
1345 1222 PD
24 W
1268 812 PD
24 W
1145 1185 PD
24 W
1059 1021 PD
24 W
1423 830 PD
24 W
1221 777 PD
24 W
1127 1026 PD
24 W
1306 1029 PD
24 W
1250 609 PD
24 W
1339 813 PD
24 W
1130 1006 PD
24 W
1174 1164 PD
24 W
1076 594 PD
24 W
1343 913 PD
24 W
1295 745 PD
24 W
1129 985 PD
24 W
1329 818 PD
24 W
1214 1202 PD
24 W
1264 913 PD
24 W
1261 791 PD
24 W
1496 881 PD
24 W
1312 991 PD
24 W
1532 651 PD
24 W
1225 899 PD
24 W
1177 900 PD
24 W
1340 816 PD
24 W
1253 766 PD
24 W
1335 825 PD
24 W
1240 950 PD
24 W
1214 925 PD
24 W
1341 963 PD
24 W
1465 775 PD
24 W
1311 714 PD
24 W
1257 837 PD
24 W
1190 1065 PD
24 W
1165 440 PD
24 W
1322 1215 PD
24 W
1121 1016 PD
24 W
1394 685 PD
24 W
981 1454 PD
24 W
1120 1274 PD
24 W
1279 909 PD
24 W
1338 884 PD
24 W
1314 745 PD
24 W
961 1184 PD
24 W
1240 1180 PD
24 W
1228 1022 PD
24 W
1417 683 PD
24 W
1107 963 PD
24 W
1461 823 PD
24 W
1271 852 PD
24 W
1164 1253 PD
24 W
1178 1097 PD
24 W
1244 1158 PD
24 W
1222 992 PD
24 W
1223 986 PD
24 W
1355 767 PD
24 W
1160 1346 PD
24 W
1253 600 PD
24 W
1240 898 PD
24 W
1273 1237 PD
24 W
1217 1044 PD
24 W
1226 811 PD
24 W
1141 857 PD
24 W
1091 950 PD
24 W
1254 1001 PD
24 W
1314 799 PD
24 W
1201 1048 PD
24 W
1379 615 PD
24 W
907 1167 PD
24 W
1243 764 PD
24 W
1480 869 PD
24 W
1150 1386 PD
24 W
1325 950 PD
24 W
1264 855 PD
24 W
1196 1004 PD
24 W
1286 722 PD
24 W
991 969 PD
24 W
1193 1080 PD
24 W
1194 872 PD
24 W
1251 816 PD
24 W
1350 758 PD
24 W
1226 1126 PD
24 W
1247 1218 PD
24 W
1261 794 PD
24 W
1226 980 PD
24 W
1430 640 PD
24 W
1125 924 PD
24 W
1288 1401 PD
24 W
1198 1007 PD
24 W
1170 1205 PD
24 W
1224 821 PD
24 W
1406 1212 PD
24 W
1453 527 PD
24 W
1320 640 PD
24 W
1181 952 PD
24 W
1084 1315 PD
24 W
1477 565 PD
24 W
1212 901 PD
24 W
1289 887 PD
24 W
1303 1118 PD
24 W
1109 1206 PD
24 W
1228 958 PD
24 W
1272 844 PD
24 W
1385 799 PD
24 W
1170 1000 PD
24 W
1088 1055 PD
24 W
969 1205 PD
24 W
1228 877 PD
24 W
1111 1008 PD
24 W
1113 1140 PD
24 W
1224 1131 PD
24 W
1312 1128 PD
24 W
1368 1117 PD
24 W
1337 883 PD
24 W
954 1003 PD
24 W
1170 909 PD
24 W
1190 1086 PD
24 W
1306 834 PD
24 W
1011 1426 PD
24 W
1186 1078 PD
24 W
1147 1243 PD
24 W
1270 743 PD
24 W
1619 607 PD
24 W
1157 833 PD
24 W
1186 1049 PD
24 W
1257 1148 PD
24 W
1289 644 PD
24 W
1245 737 PD
24 W
1048 1291 PD
24 W
1141 752 PD
24 W
1178 1129 PD
24 W
1499 1076 PD
24 W
1057 1079 PD
24 W
1231 1052 PD
24 W
1301 1066 PD
24 W
1160 1072 PD
24 W
898 1126 PD
24 W
1206 877 PD
24 W
1369 747 PD
24 W
1051 800 PD
24 W
1209 477 PD
24 W
1087 1086 PD
24 W
1050 1020 PD
24 W
946 1085 PD
24 W
1041 1009 PD
24 W
1150 1048 PD
24 W
1413 772 PD
24 W
1375 889 PD
24 W
1362 1508 PD
24 W
1267 885 PD
24 W
1261 1039 PD
24 W
1103 1139 PD
24 W
1281 927 PD
24 W
1540 643 PD
24 W
1332 685 PD
gs 898 440 858 1069 rc
/c9 { 1.000000 0.000000 0.000000 sr} bdef
c9
603 -1069 909 1509 2 MP stroke
gr
gr

c9
1 sg
0 1068 856 0 0 -1068 2026 1508 4 MP
PP
-856 0 0 1068 856 0 0 -1068 2026 1508 5 MP stroke
4 w
DO
SO
6 w
0 sg
2026 1508 mt 2882 1508 L
2026 1508 mt 2026  440 L
2168 1508 mt 2168 1497 L
2491 1508 mt 2491 1497 L
2813 1508 mt 2813 1497 L
2026 1489 mt 2036 1489 L
2026 1252 mt 2036 1252 L
2026 1016 mt 2036 1016 L
2026  779 mt 2036  779 L
2026  542 mt 2036  542 L
2113  345 mt 
(P1:2 P1:2\(F\)) s
gs 2026 440 857 1069 rc
gr

gs 1953 367 1003 1215 rc
24 W
c8
2588 574 PD
24 W
2338 926 PD
24 W
2301 990 PD
24 W
2228 1103 PD
24 W
2373 577 PD
24 W
2206 1106 PD
24 W
2343 1222 PD
24 W
2181 1218 PD
24 W
2334 751 PD
24 W
2155 939 PD
24 W
2362 891 PD
24 W
2323 833 PD
24 W
2511 850 PD
24 W
2251 936 PD
24 W
2314 1002 PD
24 W
2235 802 PD
24 W
2266 892 PD
24 W
2532 1006 PD
24 W
2311 920 PD
24 W
2133 1260 PD
24 W
2357 689 PD
24 W
2233 1074 PD
24 W
2137 834 PD
24 W
2293 1019 PD
24 W
2882 659 PD
24 W
2203 1073 PD
24 W
2269 930 PD
24 W
2505 698 PD
24 W
2390 798 PD
24 W
2111 1147 PD
24 W
2129 1184 PD
24 W
2202 951 PD
24 W
2348 933 PD
24 W
2090 875 PD
24 W
2212 1172 PD
24 W
2238 1321 PD
24 W
2123 925 PD
24 W
2243 918 PD
24 W
2395 869 PD
24 W
2371 752 PD
24 W
2368 630 PD
24 W
2304 1037 PD
24 W
2221 924 PD
24 W
2253 1320 PD
24 W
2353 1197 PD
24 W
2307 855 PD
24 W
2294 1222 PD
24 W
2191 829 PD
24 W
2285 950 PD
24 W
2327 698 PD
24 W
2282 896 PD
24 W
2564 750 PD
24 W
2173 567 PD
24 W
2372 783 PD
24 W
2107 1073 PD
24 W
2234 1192 PD
24 W
2047 517 PD
24 W
2311 947 PD
24 W
2319 815 PD
24 W
2328 617 PD
24 W
2408 734 PD
24 W
2208 1113 PD
24 W
2254 1018 PD
24 W
2347 812 PD
24 W
2458 832 PD
24 W
2529 803 PD
24 W
2587 898 PD
24 W
2325 747 PD
24 W
2245 795 PD
24 W
2343 1027 PD
24 W
2234 923 PD
24 W
2318 1024 PD
24 W
2158 948 PD
24 W
2282 910 PD
24 W
2291 1072 PD
24 W
2375 851 PD
24 W
2493 475 PD
24 W
2368 780 PD
24 W
2227 1266 PD
24 W
2145 860 PD
24 W
2268 1283 PD
24 W
2178 1003 PD
24 W
2435 552 PD
24 W
2100 1508 PD
24 W
2124 1174 PD
24 W
2461 743 PD
24 W
2274 812 PD
24 W
2431 641 PD
24 W
2112 1253 PD
24 W
2227 1094 PD
24 W
2201 1325 PD
24 W
2549 613 PD
24 W
2352 915 PD
24 W
2317 1000 PD
24 W
2182 919 PD
24 W
2231 995 PD
24 W
2368 952 PD
24 W
2285 1030 PD
24 W
2321 887 PD
24 W
2417 843 PD
24 W
2267 826 PD
24 W
2164 1410 PD
24 W
2224 877 PD
24 W
2253 788 PD
24 W
2160 1127 PD
24 W
2228 1105 PD
24 W
2323 867 PD
24 W
2216 762 PD
24 W
2245 1014 PD
24 W
2374 965 PD
24 W
2352 748 PD
24 W
2187 1193 PD
24 W
2304 604 PD
24 W
2110 1114 PD
24 W
2240 777 PD
24 W
2407 751 PD
24 W
2225 1406 PD
24 W
2379 838 PD
24 W
2381 970 PD
24 W
2281 720 PD
24 W
2229 923 PD
24 W
2110 1006 PD
24 W
2250 1102 PD
24 W
2256 826 PD
24 W
2410 523 PD
24 W
2426 880 PD
24 W
2361 1161 PD
24 W
2474 880 PD
24 W
2286 854 PD
24 W
2128 1069 PD
24 W
2293 988 PD
24 W
2134 994 PD
24 W
2401 1342 PD
24 W
2303 1013 PD
24 W
2500 923 PD
24 W
2192 1008 PD
24 W
2324 965 PD
24 W
2491 546 PD
24 W
2326 692 PD
24 W
2245 1094 PD
24 W
2088 1338 PD
24 W
2547 530 PD
24 W
2254 860 PD
24 W
2323 588 PD
24 W
2425 1264 PD
24 W
2256 1255 PD
24 W
2143 1065 PD
24 W
2296 996 PD
24 W
2510 824 PD
24 W
2308 765 PD
24 W
2256 885 PD
24 W
2164 1108 PD
24 W
2451 747 PD
24 W
2312 986 PD
24 W
2042 1099 PD
24 W
2147 1306 PD
24 W
2271 1158 PD
24 W
2306 1196 PD
24 W
2355 880 PD
24 W
2132 923 PD
24 W
2222 890 PD
24 W
2244 1159 PD
24 W
2315 1000 PD
24 W
2060 1460 PD
24 W
2328 873 PD
24 W
2336 1136 PD
24 W
2367 803 PD
24 W
2499 701 PD
24 W
2660 554 PD
24 W
2210 1086 PD
24 W
2258 1131 PD
24 W
2294 850 PD
24 W
2346 828 PD
24 W
2111 1058 PD
24 W
2182 862 PD
24 W
2205 1260 PD
24 W
2399 1093 PD
24 W
2120 1104 PD
24 W
2156 1253 PD
24 W
2227 992 PD
24 W
2292 1151 PD
24 W
2176 983 PD
24 W
2155 695 PD
24 W
2403 643 PD
24 W
2230 562 PD
24 W
2296 440 PD
24 W
2102 1213 PD
24 W
2032 945 PD
24 W
2026 1236 PD
24 W
2190 1091 PD
24 W
2169 1017 PD
24 W
2350 806 PD
24 W
2600 784 PD
24 W
2442 1334 PD
24 W
2410 754 PD
24 W
2376 877 PD
24 W
2176 1092 PD
24 W
2227 1124 PD
24 W
2454 855 PD
24 W
2303 760 PD
gs 2026 440 857 1069 rc
c9
520 -955 2026 1395 2 MP stroke
gr
gr

c9
1 sg
0 1068 856 0 0 -1068 3152 1508 4 MP
PP
-856 0 0 1068 856 0 0 -1068 3152 1508 5 MP stroke
4 w
DO
SO
6 w
0 sg
3152 1508 mt 4008 1508 L
3152 1508 mt 3152  440 L
3300 1508 mt 3300 1497 L
3554 1508 mt 3554 1497 L
3807 1508 mt 3807 1497 L
3152 1371 mt 3162 1371 L
3152 1197 mt 3162 1197 L
3152 1023 mt 3162 1023 L
3152  849 mt 3162  849 L
3152  675 mt 3162  675 L
3152  500 mt 3162  500 L
3235  345 mt 
(P1:3 P1:3\(S\)) s
gs 3152 440 857 1069 rc
gr

gs 3079 367 1003 1215 rc
24 W
c8
3358 1179 PD
24 W
3331 987 PD
24 W
3269 1296 PD
24 W
3175 1465 PD
24 W
3398 1154 PD
24 W
3282 1203 PD
24 W
3345 1221 PD
24 W
3222 1347 PD
24 W
3464 995 PD
24 W
3465 1023 PD
24 W
3409 1090 PD
24 W
3220 1417 PD
24 W
3385 1101 PD
24 W
3386 936 PD
24 W
3506 1016 PD
24 W
3472 1007 PD
24 W
3449 878 PD
24 W
3321 1301 PD
24 W
3180 1396 PD
24 W
3311 1229 PD
24 W
3346 1313 PD
24 W
3318 1152 PD
24 W
3164 1485 PD
24 W
3265 1188 PD
24 W
3209 1399 PD
24 W
3442 1041 PD
24 W
3263 1251 PD
24 W
3232 1334 PD
24 W
3211 1435 PD
24 W
3270 1274 PD
24 W
3207 1261 PD
24 W
3299 1215 PD
24 W
3308 1181 PD
24 W
3218 1326 PD
24 W
3287 1394 PD
24 W
3199 1372 PD
24 W
3434 1035 PD
24 W
3358 1105 PD
24 W
3315 1307 PD
24 W
3343 1225 PD
24 W
3188 1449 PD
24 W
3394 1278 PD
24 W
3301 1253 PD
24 W
3335 1213 PD
24 W
3278 1336 PD
24 W
3272 1324 PD
24 W
3333 1156 PD
24 W
3223 1429 PD
24 W
3191 1439 PD
24 W
3189 1434 PD
24 W
3225 1336 PD
24 W
3470 1126 PD
24 W
3294 1231 PD
24 W
3302 1231 PD
24 W
3300 1256 PD
24 W
3228 1414 PD
24 W
3247 1342 PD
24 W
3184 1456 PD
24 W
3169 1507 PD
24 W
3201 1427 PD
24 W
3384 1206 PD
24 W
3370 1337 PD
24 W
3223 1429 PD
24 W
3369 1041 PD
24 W
3268 1352 PD
24 W
3326 1003 PD
24 W
3441 1115 PD
24 W
3413 1107 PD
24 W
3189 1426 PD
24 W
3187 1442 PD
24 W
3282 1390 PD
24 W
3251 1296 PD
24 W
3188 1434 PD
24 W
3315 1275 PD
24 W
3344 1165 PD
24 W
3405 1104 PD
24 W
3466 941 PD
24 W
3195 1497 PD
24 W
3260 1284 PD
24 W
3262 1488 PD
24 W
3373 1147 PD
24 W
3339 1102 PD
24 W
3202 1422 PD
24 W
3166 1493 PD
24 W
3229 1362 PD
24 W
3213 1508 PD
24 W
3191 1455 PD
24 W
3426 995 PD
24 W
3261 1320 PD
24 W
3265 1333 PD
24 W
3171 1487 PD
24 W
3165 1500 PD
24 W
3197 1463 PD
24 W
3199 1422 PD
24 W
3281 1218 PD
24 W
3259 1348 PD
24 W
3246 1293 PD
24 W
3205 1455 PD
24 W
3302 1285 PD
24 W
3152 1505 PD
24 W
4008 440 PD
24 W
3303 1368 PD
24 W
3398 763 PD
24 W
3330 1222 PD
24 W
3260 1352 PD
24 W
3269 1267 PD
24 W
3172 1454 PD
24 W
3318 1243 PD
24 W
3222 1359 PD
24 W
3189 1445 PD
24 W
3273 1301 PD
24 W
3265 1244 PD
24 W
3376 1206 PD
24 W
3181 1395 PD
24 W
3255 1297 PD
24 W
3340 1126 PD
24 W
3229 1419 PD
24 W
3235 1304 PD
24 W
3300 1274 PD
24 W
3284 1392 PD
24 W
3347 1281 PD
24 W
3242 1232 PD
24 W
3286 1305 PD
24 W
3194 1398 PD
24 W
3298 1321 PD
24 W
3250 1358 PD
24 W
3227 1353 PD
24 W
3216 1453 PD
24 W
3175 1433 PD
24 W
3218 1435 PD
24 W
3219 1458 PD
24 W
3408 1197 PD
24 W
3258 1397 PD
24 W
3364 1193 PD
24 W
3248 1378 PD
24 W
3301 1173 PD
24 W
3261 1260 PD
24 W
3524 929 PD
24 W
3312 1326 PD
24 W
3295 1390 PD
24 W
3341 1229 PD
24 W
3466 1031 PD
24 W
3301 1382 PD
24 W
3188 1486 PD
24 W
3224 1414 PD
24 W
3274 1366 PD
24 W
3555 1080 PD
24 W
3264 1292 PD
24 W
3362 1138 PD
24 W
3376 1209 PD
24 W
3533 1032 PD
24 W
3208 1376 PD
24 W
3204 1357 PD
24 W
3227 1364 PD
24 W
3312 1174 PD
24 W
3285 1276 PD
24 W
3250 1354 PD
24 W
3319 1288 PD
24 W
3299 1262 PD
24 W
3388 1218 PD
24 W
3280 1275 PD
24 W
3245 1239 PD
24 W
3176 1503 PD
24 W
3239 1437 PD
24 W
3187 1482 PD
24 W
3232 1407 PD
24 W
3223 1342 PD
24 W
3242 1329 PD
24 W
3360 1393 PD
24 W
3334 1158 PD
24 W
3220 1327 PD
24 W
3180 1441 PD
24 W
3180 1484 PD
24 W
3175 1458 PD
24 W
3269 1366 PD
24 W
3302 1194 PD
24 W
3162 1483 PD
24 W
3178 1415 PD
24 W
3188 1427 PD
24 W
3195 1416 PD
24 W
3225 1350 PD
24 W
3216 1458 PD
24 W
3213 1403 PD
24 W
3231 1394 PD
24 W
3236 1396 PD
24 W
3265 1308 PD
24 W
3205 1408 PD
24 W
3361 1178 PD
24 W
3525 967 PD
24 W
3324 1129 PD
24 W
3221 1389 PD
24 W
3206 1389 PD
24 W
3251 1331 PD
24 W
3441 1201 PD
24 W
3464 1183 PD
24 W
3287 1404 PD
24 W
3236 1377 PD
24 W
3194 1398 PD
24 W
3367 1274 PD
24 W
3249 1317 PD
gs 3152 440 857 1069 rc
c9
622 -1069 3170 1509 2 MP stroke
gr
gr

c9
1 sg
0 1068 856 0 0 -1068 4278 1508 4 MP
PP
-856 0 0 1068 856 0 0 -1068 4278 1508 5 MP stroke
4 w
DO
SO
6 w
0 sg
4278 1508 mt 5134 1508 L
4278 1508 mt 4278  440 L
4351 1508 mt 4351 1497 L
4682 1508 mt 4682 1497 L
5012 1508 mt 5012 1497 L
4278 1367 mt 4288 1367 L
4278 1010 mt 4288 1010 L
4278  652 mt 4288  652 L
4361  345 mt 
(P1:4 P1:4\(S\)) s
gs 4278 440 857 1069 rc
gr

gs 4205 367 1003 1215 rc
24 W
c8
4473 1347 PD
24 W
4630 975 PD
24 W
4573 965 PD
24 W
4516 1250 PD
24 W
4746 906 PD
24 W
4511 1253 PD
24 W
4602 1214 PD
24 W
4327 1384 PD
24 W
4745 1085 PD
24 W
4691 1123 PD
24 W
4673 1040 PD
24 W
4326 1420 PD
24 W
4600 1217 PD
24 W
4586 1140 PD
24 W
4570 1173 PD
24 W
4559 1167 PD
24 W
4540 1168 PD
24 W
4418 1397 PD
24 W
4464 1231 PD
24 W
4480 1269 PD
24 W
4441 1375 PD
24 W
4675 730 PD
24 W
4362 1323 PD
24 W
4529 907 PD
24 W
4586 633 PD
24 W
4494 1226 PD
24 W
4377 1256 PD
24 W
4462 1223 PD
24 W
4419 1304 PD
24 W
4468 1114 PD
24 W
4287 1287 PD
24 W
4415 984 PD
24 W
4429 1216 PD
24 W
4568 1298 PD
24 W
4425 1451 PD
24 W
4360 1182 PD
24 W
4494 1216 PD
24 W
4403 1403 PD
24 W
4576 1199 PD
24 W
4580 1279 PD
24 W
4363 750 PD
24 W
4618 1223 PD
24 W
4479 1126 PD
24 W
4890 831 PD
24 W
4394 1440 PD
24 W
4497 1188 PD
24 W
4528 1224 PD
24 W
4666 973 PD
24 W
4500 1068 PD
24 W
4468 996 PD
24 W
4570 1048 PD
24 W
4502 1202 PD
24 W
4490 1327 PD
24 W
4405 1186 PD
24 W
4544 1202 PD
24 W
4347 1119 PD
24 W
4423 1255 PD
24 W
4491 1165 PD
24 W
4410 1422 PD
24 W
4422 1489 PD
24 W
4711 998 PD
24 W
4908 831 PD
24 W
4894 918 PD
24 W
4632 997 PD
24 W
4433 1307 PD
24 W
4892 918 PD
24 W
4604 1256 PD
24 W
4527 1151 PD
24 W
4359 1105 PD
24 W
4379 1258 PD
24 W
4482 1257 PD
24 W
4401 1362 PD
24 W
4526 1084 PD
24 W
4545 1267 PD
24 W
4566 1131 PD
24 W
4477 1312 PD
24 W
4786 869 PD
24 W
4593 1169 PD
24 W
4506 1166 PD
24 W
4481 1507 PD
24 W
4443 1108 PD
24 W
4563 1115 PD
24 W
4660 1141 PD
24 W
4281 1344 PD
24 W
4496 1211 PD
24 W
4520 1508 PD
24 W
4278 1325 PD
24 W
4584 1131 PD
24 W
4365 1368 PD
24 W
4653 988 PD
24 W
4391 1202 PD
24 W
4468 1117 PD
24 W
4328 1305 PD
24 W
4417 1173 PD
24 W
4460 1150 PD
24 W
4416 1199 PD
24 W
4420 892 PD
24 W
4416 1458 PD
24 W
4393 1334 PD
24 W
4405 1091 PD
24 W
5126 720 PD
24 W
4439 1288 PD
24 W
4701 763 PD
24 W
4435 1173 PD
24 W
4395 1238 PD
24 W
4365 1299 PD
24 W
4475 1241 PD
24 W
4570 1142 PD
24 W
4377 1059 PD
24 W
4507 1171 PD
24 W
4460 1388 PD
24 W
4467 1269 PD
24 W
4464 1162 PD
24 W
4581 816 PD
24 W
4600 1246 PD
24 W
4594 1045 PD
24 W
4368 1185 PD
24 W
4466 964 PD
24 W
4369 1292 PD
24 W
4424 1325 PD
24 W
4457 1227 PD
24 W
4291 1007 PD
24 W
4405 1261 PD
24 W
4546 1107 PD
24 W
4641 1125 PD
24 W
4430 1184 PD
24 W
4488 1150 PD
24 W
4534 1104 PD
24 W
4371 1185 PD
24 W
4458 1083 PD
24 W
4581 933 PD
24 W
4545 1134 PD
24 W
4364 1341 PD
24 W
4493 1140 PD
24 W
4455 1163 PD
24 W
4535 1217 PD
24 W
4292 1310 PD
24 W
4636 1150 PD
24 W
4458 1354 PD
24 W
4564 884 PD
24 W
4471 1093 PD
24 W
4750 1046 PD
24 W
4396 1386 PD
24 W
4445 1160 PD
24 W
4519 985 PD
24 W
4752 1027 PD
24 W
4495 1231 PD
24 W
4475 1416 PD
24 W
4419 1198 PD
24 W
4615 1132 PD
24 W
4671 924 PD
24 W
4334 1342 PD
24 W
4509 1211 PD
24 W
4457 1400 PD
24 W
4650 1172 PD
24 W
4453 1279 PD
24 W
4496 1084 PD
24 W
4479 805 PD
24 W
4540 1289 PD
24 W
4640 1158 PD
24 W
4610 1090 PD
24 W
4440 1139 PD
24 W
4684 802 PD
24 W
4440 1474 PD
24 W
4407 1275 PD
24 W
4445 1198 PD
24 W
4432 1182 PD
24 W
4426 1106 PD
24 W
4526 1305 PD
24 W
4402 1285 PD
24 W
4385 1129 PD
24 W
4364 1261 PD
24 W
4431 946 PD
24 W
4555 1349 PD
24 W
4506 1480 PD
24 W
4509 1124 PD
24 W
4413 1156 PD
24 W
4425 1028 PD
24 W
4654 849 PD
24 W
4468 972 PD
24 W
4427 955 PD
24 W
4691 942 PD
24 W
4461 1148 PD
24 W
4736 1050 PD
24 W
4515 1050 PD
24 W
4505 1140 PD
24 W
4652 1198 PD
24 W
4722 1004 PD
24 W
4681 1036 PD
24 W
5134 440 PD
24 W
4532 1277 PD
24 W
4841 910 PD
24 W
4385 1252 PD
24 W
4571 1137 PD
24 W
4731 1104 PD
24 W
4601 1228 PD
24 W
4428 1265 PD
24 W
4665 1278 PD
24 W
4526 1120 PD
24 W
4539 1147 PD
gs 4278 440 857 1069 rc
c9
857 -927 4278 1447 2 MP stroke
gr
gr

c9
1 sg
0 1068 856 0 0 -1068 5405 1508 4 MP
PP
-856 0 0 1068 856 0 0 -1068 5405 1508 5 MP stroke
4 w
DO
SO
6 w
0 sg
5405 1508 mt 6261 1508 L
5405 1508 mt 5405  440 L
5435 1508 mt 5435 1497 L
5847 1508 mt 5847 1497 L
6259 1508 mt 6259 1497 L
5405 1427 mt 5415 1427 L
5405 1208 mt 5415 1208 L
5405  989 mt 5415  989 L
5405  770 mt 5415  770 L
5405  552 mt 5415  552 L
5488  345 mt 
(P1:5 P1:5\(S\)) s
gs 5405 440 857 1069 rc
gr

gs 5332 367 1003 1215 rc
24 W
c8
5562 1255 PD
24 W
5912 645 PD
24 W
5704 919 PD
24 W
5671 1310 PD
24 W
5808 843 PD
24 W
5732 946 PD
24 W
5634 1080 PD
24 W
5542 1275 PD
24 W
6039 794 PD
24 W
5704 1096 PD
24 W
5840 963 PD
24 W
5529 1274 PD
24 W
5665 1104 PD
24 W
5716 998 PD
24 W
5891 1021 PD
24 W
5824 924 PD
24 W
5747 936 PD
24 W
5600 1260 PD
24 W
5716 1202 PD
24 W
5565 1092 PD
24 W
5560 1340 PD
24 W
5854 456 PD
24 W
5624 1298 PD
24 W
5711 907 PD
24 W
5784 908 PD
24 W
5757 1087 PD
24 W
5524 1099 PD
24 W
5541 1153 PD
24 W
5583 1277 PD
24 W
5704 918 PD
24 W
5405 1149 PD
24 W
5572 1066 PD
24 W
5693 930 PD
24 W
5792 1169 PD
24 W
5509 1384 PD
24 W
5541 1193 PD
24 W
5713 1052 PD
24 W
5808 787 PD
24 W
5611 1268 PD
24 W
5668 1149 PD
24 W
5495 919 PD
24 W
5822 1077 PD
24 W
5591 1146 PD
24 W
6069 816 PD
24 W
5570 1344 PD
24 W
5765 1024 PD
24 W
5546 1227 PD
24 W
5754 1007 PD
24 W
5592 1210 PD
24 W
5705 1099 PD
24 W
5829 972 PD
24 W
5823 1034 PD
24 W
5569 1347 PD
24 W
5544 1238 PD
24 W
5621 1130 PD
24 W
5495 1115 PD
24 W
5484 1181 PD
24 W
5458 1467 PD
24 W
5433 1508 PD
24 W
5513 1390 PD
24 W
5595 1074 PD
24 W
5652 986 PD
24 W
5909 988 PD
24 W
5627 1045 PD
24 W
5616 1094 PD
24 W
5851 795 PD
24 W
5804 970 PD
24 W
5788 897 PD
24 W
5577 1370 PD
24 W
5540 1178 PD
24 W
5551 1328 PD
24 W
5448 1373 PD
24 W
5705 863 PD
24 W
5663 1227 PD
24 W
5693 1009 PD
24 W
5662 1088 PD
24 W
5807 817 PD
24 W
5695 1216 PD
24 W
5670 998 PD
24 W
5460 1438 PD
24 W
5702 993 PD
24 W
5710 985 PD
24 W
5815 1119 PD
24 W
5410 1392 PD
24 W
5716 1066 PD
24 W
5537 1347 PD
24 W
5476 1295 PD
24 W
5733 993 PD
24 W
5544 1173 PD
24 W
5886 993 PD
24 W
5546 1245 PD
24 W
5558 1220 PD
24 W
5595 1362 PD
24 W
5632 1104 PD
24 W
5620 1052 PD
24 W
5569 1132 PD
24 W
5668 736 PD
24 W
5429 1475 PD
24 W
5600 1061 PD
24 W
5430 1269 PD
24 W
6261 440 PD
24 W
5558 1307 PD
24 W
5942 566 PD
24 W
5588 1096 PD
24 W
5542 1163 PD
24 W
5554 1136 PD
24 W
5568 1391 PD
24 W
5514 1215 PD
24 W
5622 1089 PD
24 W
5539 1239 PD
24 W
5595 1182 PD
24 W
5559 1189 PD
24 W
5653 1087 PD
24 W
5594 920 PD
24 W
5814 952 PD
24 W
5688 827 PD
24 W
5562 1078 PD
24 W
5609 949 PD
24 W
5630 1089 PD
24 W
5514 1319 PD
24 W
5714 1224 PD
24 W
5415 1047 PD
24 W
5625 1127 PD
24 W
5595 941 PD
24 W
5687 1276 PD
24 W
5463 1297 PD
24 W
5719 969 PD
24 W
5628 1155 PD
24 W
5618 1268 PD
24 W
5779 1069 PD
24 W
5700 1138 PD
24 W
5710 1177 PD
24 W
5471 1318 PD
24 W
5701 1168 PD
24 W
5730 1094 PD
24 W
5741 960 PD
24 W
5530 1181 PD
24 W
5766 1143 PD
24 W
5723 1218 PD
24 W
5713 1102 PD
24 W
5690 994 PD
24 W
5754 1120 PD
24 W
5580 1287 PD
24 W
5543 1084 PD
24 W
5552 1132 PD
24 W
5755 1193 PD
24 W
5914 902 PD
24 W
5645 1279 PD
24 W
5698 988 PD
24 W
5762 1078 PD
24 W
5837 709 PD
24 W
5509 1283 PD
24 W
5621 1117 PD
24 W
5531 1282 PD
24 W
5658 1290 PD
24 W
5527 1263 PD
24 W
5792 1064 PD
24 W
5760 876 PD
24 W
5568 1204 PD
24 W
5593 1144 PD
24 W
5601 1185 PD
24 W
5533 986 PD
24 W
5720 1106 PD
24 W
5652 1431 PD
24 W
5593 1314 PD
24 W
5650 1125 PD
24 W
5555 1135 PD
24 W
5683 1123 PD
24 W
5797 1193 PD
24 W
5670 994 PD
24 W
5533 920 PD
24 W
5492 1208 PD
24 W
5451 1228 PD
24 W
5534 1334 PD
24 W
5787 1085 PD
24 W
5623 1008 PD
24 W
5469 1080 PD
24 W
5593 1213 PD
24 W
5739 967 PD
24 W
5597 959 PD
24 W
5850 839 PD
24 W
5923 928 PD
24 W
5545 1156 PD
24 W
5911 1113 PD
24 W
5797 807 PD
24 W
5687 1103 PD
24 W
5781 1228 PD
24 W
5895 987 PD
24 W
5985 914 PD
24 W
6254 493 PD
24 W
5697 1334 PD
24 W
6059 731 PD
24 W
5523 1242 PD
24 W
5709 1120 PD
24 W
5872 832 PD
24 W
5548 1362 PD
24 W
5477 1263 PD
24 W
5626 1315 PD
24 W
5634 1083 PD
24 W
5555 1206 PD
gs 5405 440 857 1069 rc
c9
857 -910 5405 1459 2 MP stroke
gr
gr

c9
1 sg
0 1069 856 0 0 -1069 899 3062 4 MP
PP
-856 0 0 1069 856 0 0 -1069 899 3062 5 MP stroke
4 w
DO
SO
6 w
0 sg
 899 3062 mt 1755 3062 L
 899 3062 mt  899 1993 L
1060 3062 mt 1060 3051 L
1292 3062 mt 1292 3051 L
1524 3062 mt 1524 3051 L
 899 2832 mt  909 2832 L
 899 2522 mt  909 2522 L
 899 2212 mt  909 2212 L
 986 1898 mt 
(P1:6 P1:6\(F\)) s
gs 899 1993 857 1070 rc
gr

gs 826 1920 1003 1216 rc
24 W
c8
1338 2643 PD
24 W
1043 2967 PD
24 W
1346 2844 PD
24 W
1059 2823 PD
24 W
899 2881 PD
24 W
1266 2838 PD
24 W
1180 2846 PD
24 W
1066 2686 PD
24 W
1080 2721 PD
24 W
1379 2568 PD
24 W
1272 2718 PD
24 W
1019 2728 PD
24 W
1190 2809 PD
24 W
1294 2794 PD
24 W
1180 2764 PD
24 W
1055 2544 PD
24 W
1320 2681 PD
24 W
1201 2893 PD
24 W
1393 2619 PD
24 W
1042 2869 PD
24 W
934 3015 PD
24 W
1208 2722 PD
24 W
991 2865 PD
24 W
1192 2596 PD
24 W
1324 2754 PD
24 W
1190 2918 PD
24 W
1062 2816 PD
24 W
1388 2893 PD
24 W
1092 2852 PD
24 W
1051 2904 PD
24 W
1281 2817 PD
24 W
1062 2713 PD
24 W
1195 2625 PD
24 W
974 2735 PD
24 W
1003 2909 PD
24 W
1224 2968 PD
24 W
1031 2758 PD
24 W
982 2773 PD
24 W
1169 2753 PD
24 W
1240 2788 PD
24 W
1113 2712 PD
24 W
1209 2649 PD
24 W
1275 2648 PD
24 W
1197 3046 PD
24 W
1275 2369 PD
24 W
1067 2606 PD
24 W
1068 2961 PD
24 W
1138 2870 PD
24 W
1124 2785 PD
24 W
1248 2866 PD
24 W
1034 2835 PD
24 W
1115 2847 PD
24 W
1258 2604 PD
24 W
1117 2789 PD
24 W
1001 2988 PD
24 W
1264 2956 PD
24 W
1055 2524 PD
24 W
1105 2802 PD
24 W
1721 2310 PD
24 W
1383 2767 PD
24 W
987 2891 PD
24 W
968 2965 PD
24 W
1182 2646 PD
24 W
1008 2725 PD
24 W
1658 2896 PD
24 W
1168 2838 PD
24 W
1438 2757 PD
24 W
1228 2967 PD
24 W
1417 2556 PD
24 W
1451 2752 PD
24 W
1317 1993 PD
24 W
1144 2832 PD
24 W
996 2937 PD
24 W
1113 2855 PD
24 W
1275 2843 PD
24 W
1144 2884 PD
24 W
1271 2368 PD
24 W
1391 2761 PD
24 W
1243 2486 PD
24 W
997 2825 PD
24 W
1279 2847 PD
24 W
1076 2769 PD
24 W
1574 2384 PD
24 W
917 3025 PD
24 W
960 2894 PD
24 W
1029 2857 PD
24 W
1194 2846 PD
24 W
1576 2821 PD
24 W
926 2934 PD
24 W
1019 2882 PD
24 W
1153 2891 PD
24 W
1213 2425 PD
24 W
1084 2717 PD
24 W
1120 2904 PD
24 W
1162 2784 PD
24 W
1184 2890 PD
24 W
960 2895 PD
24 W
1095 2796 PD
24 W
1192 2834 PD
24 W
1085 2660 PD
24 W
1195 2726 PD
24 W
1089 3026 PD
24 W
1518 2694 PD
24 W
1015 2830 PD
24 W
1015 2923 PD
24 W
1021 2867 PD
24 W
1238 2448 PD
24 W
1182 2861 PD
24 W
1083 2701 PD
24 W
999 2865 PD
24 W
1265 2031 PD
24 W
1117 2944 PD
24 W
1110 2628 PD
24 W
939 2834 PD
24 W
1119 2866 PD
24 W
1135 2699 PD
24 W
1145 2991 PD
24 W
1257 2926 PD
24 W
1349 2506 PD
24 W
1163 2732 PD
24 W
979 2815 PD
24 W
1465 2538 PD
24 W
1199 2725 PD
24 W
971 2886 PD
24 W
1326 2690 PD
24 W
1329 2895 PD
24 W
1170 2829 PD
24 W
1298 2937 PD
24 W
1401 2621 PD
24 W
1279 2777 PD
24 W
1209 2714 PD
24 W
1108 2876 PD
24 W
1148 3012 PD
24 W
1013 2770 PD
24 W
1167 2570 PD
24 W
1058 2558 PD
24 W
1310 2871 PD
24 W
1240 2798 PD
24 W
1220 2818 PD
24 W
1310 2804 PD
24 W
1104 2857 PD
24 W
1288 2793 PD
24 W
1090 2896 PD
24 W
1020 2871 PD
24 W
1024 2946 PD
24 W
1046 2917 PD
24 W
1249 2482 PD
24 W
1163 2654 PD
24 W
1538 2603 PD
24 W
1225 2850 PD
24 W
1531 2478 PD
24 W
953 2945 PD
24 W
1187 2564 PD
24 W
1016 2647 PD
24 W
1562 2915 PD
24 W
1030 2859 PD
24 W
1501 2901 PD
24 W
1071 3017 PD
24 W
1136 2804 PD
24 W
968 2944 PD
24 W
1016 2863 PD
24 W
1265 2680 PD
24 W
1438 2602 PD
24 W
966 3062 PD
24 W
987 2981 PD
24 W
1205 2812 PD
24 W
1193 2298 PD
24 W
1050 2813 PD
24 W
1204 2749 PD
24 W
1052 2695 PD
24 W
1192 2729 PD
24 W
1027 2795 PD
24 W
1175 2793 PD
24 W
1010 2798 PD
24 W
1155 2753 PD
24 W
1440 2492 PD
24 W
1202 2856 PD
24 W
967 2926 PD
24 W
1077 2854 PD
24 W
1034 2818 PD
24 W
1100 2831 PD
24 W
968 2882 PD
24 W
1200 2535 PD
24 W
1755 2292 PD
24 W
1051 2653 PD
24 W
1073 2406 PD
24 W
1128 2806 PD
24 W
1068 2912 PD
24 W
924 2672 PD
24 W
974 2805 PD
24 W
983 2890 PD
24 W
1055 2763 PD
24 W
1112 2818 PD
24 W
1044 2905 PD
24 W
1071 2920 PD
24 W
1031 2873 PD
24 W
1118 2661 PD
24 W
1080 2836 PD
24 W
1274 2847 PD
24 W
1066 2882 PD
gs 899 1993 857 1070 rc
c9
790 -1055 899 3048 2 MP stroke
gr
gr

c9
1 sg
0 1069 856 0 0 -1069 2026 3062 4 MP
PP
-856 0 0 1069 856 0 0 -1069 2026 3062 5 MP stroke
4 w
DO
SO
6 w
0 sg
2026 3062 mt 2882 3062 L
2026 3062 mt 2026 1993 L
2174 3062 mt 2174 3051 L
2345 3062 mt 2345 3051 L
2515 3062 mt 2515 3051 L
2686 3062 mt 2686 3051 L
2857 3062 mt 2857 3051 L
2026 3037 mt 2036 3037 L
2026 2847 mt 2036 2847 L
2026 2656 mt 2036 2656 L
2026 2465 mt 2036 2465 L
2026 2275 mt 2036 2275 L
2026 2084 mt 2036 2084 L
2113 1898 mt 
(P1:7 P1:7\(F\)) s
gs 2026 1993 857 1070 rc
gr

gs 1953 1920 1003 1216 rc
24 W
c8
2510 2509 PD
24 W
2194 2875 PD
24 W
2332 2852 PD
24 W
2229 2755 PD
24 W
2026 2779 PD
24 W
2292 2722 PD
24 W
2381 2675 PD
24 W
2345 2595 PD
24 W
2230 2655 PD
24 W
2527 2516 PD
24 W
2429 2624 PD
24 W
2251 2625 PD
24 W
2336 2755 PD
24 W
2471 2633 PD
24 W
2289 2708 PD
24 W
2364 2370 PD
24 W
2388 2593 PD
24 W
2375 2803 PD
24 W
2586 2575 PD
24 W
2175 2870 PD
24 W
2133 2921 PD
24 W
2323 2678 PD
24 W
2247 2661 PD
24 W
2461 2578 PD
24 W
2562 2590 PD
24 W
2256 2840 PD
24 W
2204 2746 PD
24 W
2581 2636 PD
24 W
2319 2758 PD
24 W
2158 2850 PD
24 W
2344 2614 PD
24 W
2311 2657 PD
24 W
2448 2610 PD
24 W
2032 2650 PD
24 W
2268 2770 PD
24 W
2347 2915 PD
24 W
2226 2606 PD
24 W
2164 2722 PD
24 W
2356 2694 PD
24 W
2344 2634 PD
24 W
2360 2565 PD
24 W
2588 2424 PD
24 W
2403 2528 PD
24 W
2185 3021 PD
24 W
2843 2241 PD
24 W
2310 2492 PD
24 W
2243 2830 PD
24 W
2345 2730 PD
24 W
2246 2757 PD
24 W
2285 2780 PD
24 W
2246 2746 PD
24 W
2356 2753 PD
24 W
2193 2663 PD
24 W
2356 2679 PD
24 W
2059 2934 PD
24 W
2429 2849 PD
24 W
2205 2393 PD
24 W
2365 2721 PD
24 W
2819 2136 PD
24 W
2473 2746 PD
24 W
2227 2805 PD
24 W
2151 2942 PD
24 W
2484 2424 PD
24 W
2421 2341 PD
24 W
2479 2832 PD
24 W
2371 2747 PD
24 W
2535 2656 PD
24 W
2396 2970 PD
24 W
2392 2520 PD
24 W
2478 2663 PD
24 W
2526 1993 PD
24 W
2320 2770 PD
24 W
2128 2834 PD
24 W
2239 2755 PD
24 W
2405 2769 PD
24 W
2353 2811 PD
24 W
2624 2182 PD
24 W
2459 2653 PD
24 W
2435 2492 PD
24 W
2186 2707 PD
24 W
2578 2767 PD
24 W
2294 2658 PD
24 W
2702 2376 PD
24 W
2049 3062 PD
24 W
2104 2834 PD
24 W
2266 2725 PD
24 W
2358 2668 PD
24 W
2717 2512 PD
24 W
2078 2845 PD
24 W
2249 2800 PD
24 W
2361 2783 PD
24 W
2573 2365 PD
24 W
2294 2603 PD
24 W
2268 2854 PD
24 W
2282 2720 PD
24 W
2253 2848 PD
24 W
2169 2814 PD
24 W
2230 2770 PD
24 W
2437 2673 PD
24 W
2253 2624 PD
24 W
2363 2634 PD
24 W
2263 2953 PD
24 W
2515 2424 PD
24 W
2234 2746 PD
24 W
2149 2882 PD
24 W
2253 2747 PD
24 W
2328 2497 PD
24 W
2324 2713 PD
24 W
2396 2437 PD
24 W
2210 2766 PD
24 W
2682 2024 PD
24 W
2236 2881 PD
24 W
2294 2663 PD
24 W
2045 2817 PD
24 W
2281 2796 PD
24 W
2284 2634 PD
24 W
2372 2917 PD
24 W
2368 2903 PD
24 W
2511 2519 PD
24 W
2417 2635 PD
24 W
2170 2774 PD
24 W
2415 2505 PD
24 W
2346 2732 PD
24 W
2195 2756 PD
24 W
2348 2533 PD
24 W
2390 2788 PD
24 W
2368 2762 PD
24 W
2490 2824 PD
24 W
2495 2412 PD
24 W
2294 2756 PD
24 W
2590 2520 PD
24 W
2192 2814 PD
24 W
2412 2964 PD
24 W
2236 2676 PD
24 W
2357 2563 PD
24 W
2305 2572 PD
24 W
2349 2848 PD
24 W
2375 2694 PD
24 W
2312 2676 PD
24 W
2398 2794 PD
24 W
2292 2798 PD
24 W
2562 2557 PD
24 W
2375 2703 PD
24 W
2172 2772 PD
24 W
2242 2874 PD
24 W
2190 2864 PD
24 W
2304 2526 PD
24 W
2267 2671 PD
24 W
2747 2452 PD
24 W
2299 2764 PD
24 W
2882 2222 PD
24 W
2124 2857 PD
24 W
2379 2515 PD
24 W
2273 2530 PD
24 W
2559 2852 PD
24 W
2233 2742 PD
24 W
2314 2826 PD
24 W
2215 2944 PD
24 W
2332 2736 PD
24 W
2111 2880 PD
24 W
2217 2755 PD
24 W
2379 2627 PD
24 W
2511 2572 PD
24 W
2140 2986 PD
24 W
2148 2908 PD
24 W
2428 2698 PD
24 W
2454 2307 PD
24 W
2284 2790 PD
24 W
2357 2668 PD
24 W
2304 2613 PD
24 W
2293 2728 PD
24 W
2216 2706 PD
24 W
2300 2657 PD
24 W
2112 2823 PD
24 W
2243 2686 PD
24 W
2629 2526 PD
24 W
2410 2703 PD
24 W
2140 2862 PD
24 W
2372 2764 PD
24 W
2282 2688 PD
24 W
2205 2819 PD
24 W
2100 2798 PD
24 W
2262 2551 PD
24 W
2511 2379 PD
24 W
2209 2590 PD
24 W
2345 2402 PD
24 W
2217 2816 PD
24 W
2318 2772 PD
24 W
2065 2677 PD
24 W
2208 2809 PD
24 W
2169 2797 PD
24 W
2309 2674 PD
24 W
2353 2665 PD
24 W
2202 2901 PD
24 W
2245 2799 PD
24 W
2325 2711 PD
24 W
2366 2688 PD
24 W
2297 2764 PD
24 W
2389 2761 PD
24 W
2271 2712 PD
gs 2026 1993 857 1070 rc
c9
857 -956 2026 3012 2 MP stroke
gr
gr

c9
1 sg
0 1069 856 0 0 -1069 3152 3062 4 MP
PP
-856 0 0 1069 856 0 0 -1069 3152 3062 5 MP stroke
4 w
DO
SO
6 w
0 sg
3152 3062 mt 4008 3062 L
3152 3062 mt 3152 1993 L
3387 3062 mt 3387 3051 L
3632 3062 mt 3632 3051 L
3876 3062 mt 3876 3051 L
3152 3055 mt 3162 3055 L
3152 2769 mt 3162 2769 L
3152 2484 mt 3162 2484 L
3152 2199 mt 3162 2199 L
3239 1898 mt 
(P1:8 P1:8\(F\)) s
gs 3152 1993 857 1070 rc
gr

gs 3079 1920 1003 1216 rc
24 W
c8
3532 2408 PD
24 W
3398 2548 PD
24 W
3315 2673 PD
24 W
3477 2828 PD
24 W
3284 2352 PD
24 W
3291 2681 PD
24 W
3316 2967 PD
24 W
3334 2903 PD
24 W
3272 2734 PD
24 W
3152 2597 PD
24 W
3492 2617 PD
24 W
3340 2610 PD
24 W
3417 2634 PD
24 W
3276 2654 PD
24 W
3293 2721 PD
24 W
3261 2562 PD
24 W
3311 2613 PD
24 W
3334 2647 PD
24 W
3434 2531 PD
24 W
3198 2974 PD
24 W
3339 2786 PD
24 W
3315 2721 PD
24 W
3299 2473 PD
24 W
3401 2368 PD
24 W
3304 2696 PD
24 W
3210 2902 PD
24 W
3320 2537 PD
24 W
3508 2674 PD
24 W
3346 2578 PD
24 W
3283 2617 PD
24 W
3214 2772 PD
24 W
3277 2943 PD
24 W
3400 2369 PD
24 W
3223 2618 PD
24 W
3349 2735 PD
24 W
3390 3062 PD
24 W
3256 2596 PD
24 W
3296 2637 PD
24 W
3333 2757 PD
24 W
3362 2692 PD
24 W
3559 2503 PD
24 W
3366 2411 PD
24 W
3408 2516 PD
24 W
3264 2757 PD
24 W
3746 2831 PD
24 W
3332 2650 PD
24 W
3329 2771 PD
24 W
3243 2688 PD
24 W
3307 2754 PD
24 W
3332 2678 PD
24 W
3355 2582 PD
24 W
3335 2712 PD
24 W
3227 2539 PD
24 W
3324 2650 PD
24 W
3278 2773 PD
24 W
3348 2408 PD
24 W
3617 2288 PD
24 W
3676 2945 PD
24 W
3453 2651 PD
24 W
3350 2376 PD
24 W
3251 2698 PD
24 W
3247 2748 PD
24 W
3379 2721 PD
24 W
3339 2417 PD
24 W
3281 3023 PD
24 W
3369 2332 PD
24 W
3358 2779 PD
24 W
3238 2884 PD
24 W
3401 2480 PD
24 W
3294 2807 PD
24 W
3410 2220 PD
24 W
3298 2704 PD
24 W
3328 2554 PD
24 W
3289 2701 PD
24 W
3313 2729 PD
24 W
3326 2591 PD
24 W
3412 2417 PD
24 W
3351 2722 PD
24 W
3406 2643 PD
24 W
3226 2540 PD
24 W
4008 2911 PD
24 W
3280 2452 PD
24 W
3300 2505 PD
24 W
3176 3015 PD
24 W
3257 2815 PD
24 W
3358 2613 PD
24 W
3312 2673 PD
24 W
3388 2440 PD
24 W
3181 2838 PD
24 W
3300 2784 PD
24 W
3263 2960 PD
24 W
3436 2451 PD
24 W
3328 2421 PD
24 W
3308 2806 PD
24 W
3320 2557 PD
24 W
3322 2762 PD
24 W
3298 2754 PD
24 W
3396 2793 PD
24 W
3282 2692 PD
24 W
3304 2733 PD
24 W
3276 2605 PD
24 W
3340 2854 PD
24 W
3430 2294 PD
24 W
3251 2641 PD
24 W
3267 2761 PD
24 W
3291 2603 PD
24 W
3297 2663 PD
24 W
3326 2683 PD
24 W
3349 2437 PD
24 W
3364 2535 PD
24 W
3465 2506 PD
24 W
3278 2661 PD
24 W
3319 2641 PD
24 W
3234 2636 PD
24 W
3258 2699 PD
24 W
3506 2533 PD
24 W
3367 2804 PD
24 W
3341 2692 PD
24 W
3335 2729 PD
24 W
3251 2757 PD
24 W
3319 2677 PD
24 W
3263 2301 PD
24 W
3424 2281 PD
24 W
3399 2082 PD
24 W
3373 2405 PD
24 W
3491 2596 PD
24 W
3295 2795 PD
24 W
3259 2623 PD
24 W
3305 2473 PD
24 W
3300 2836 PD
24 W
3356 2291 PD
24 W
3226 2849 PD
24 W
3465 2929 PD
24 W
3266 2482 PD
24 W
3389 2467 PD
24 W
3330 2560 PD
24 W
3323 2478 PD
24 W
3371 2683 PD
24 W
3332 2389 PD
24 W
3398 2993 PD
24 W
3272 2782 PD
24 W
3362 2394 PD
24 W
3378 2459 PD
24 W
3212 2799 PD
24 W
3398 2912 PD
24 W
3270 2730 PD
24 W
3237 2672 PD
24 W
3347 2560 PD
24 W
3338 2570 PD
24 W
3242 2745 PD
24 W
3545 2221 PD
24 W
3259 2766 PD
24 W
3393 1993 PD
24 W
3336 2415 PD
24 W
3314 2746 PD
24 W
3279 2549 PD
24 W
3312 2753 PD
24 W
3221 2981 PD
24 W
3316 2512 PD
24 W
3242 2701 PD
24 W
3334 2723 PD
24 W
3381 2409 PD
24 W
3365 2716 PD
24 W
3233 2951 PD
24 W
3226 2780 PD
24 W
3284 2678 PD
24 W
3229 2703 PD
24 W
3530 2558 PD
24 W
3432 2449 PD
24 W
3346 2626 PD
24 W
3335 2897 PD
24 W
3305 2507 PD
24 W
3380 2628 PD
24 W
3293 2552 PD
24 W
3272 2670 PD
24 W
3474 2129 PD
24 W
3317 2743 PD
24 W
3241 2691 PD
24 W
3342 2806 PD
24 W
3418 2431 PD
24 W
3251 2591 PD
24 W
3245 2659 PD
24 W
3344 2369 PD
24 W
3447 2464 PD
24 W
3180 2762 PD
24 W
3367 2525 PD
24 W
3438 2605 PD
24 W
3205 2658 PD
24 W
3210 2494 PD
24 W
3298 2565 PD
24 W
3319 2833 PD
24 W
3258 2645 PD
24 W
3362 2396 PD
24 W
3339 2824 PD
24 W
3267 2641 PD
24 W
3416 2354 PD
24 W
3295 2706 PD
24 W
3305 2565 PD
24 W
3341 2552 PD
24 W
3269 2760 PD
gs 3152 1993 857 1070 rc
c9
446 -1041 3152 3034 2 MP stroke
gr
gr

c9
1 sg
0 1069 856 0 0 -1069 4278 3062 4 MP
PP
-856 0 0 1069 856 0 0 -1069 4278 3062 5 MP stroke
4 w
DO
SO
6 w
0 sg
4278 3062 mt 5134 3062 L
4278 3062 mt 4278 1993 L
4387 3062 mt 4387 3051 L
4554 3062 mt 4554 3051 L
4722 3062 mt 4722 3051 L
4889 3062 mt 4889 3051 L
5057 3062 mt 5057 3051 L
4278 2775 mt 4288 2775 L
4278 2463 mt 4288 2463 L
4278 2152 mt 4288 2152 L
4365 1898 mt 
(P1:9 P1:9\(F\)) s
gs 4278 1993 857 1070 rc
gr

gs 4205 1920 1003 1216 rc
24 W
c8
4801 2305 PD
24 W
4656 2438 PD
24 W
4545 2527 PD
24 W
4761 2631 PD
24 W
4501 2149 PD
24 W
4494 2568 PD
24 W
4599 2826 PD
24 W
4586 2836 PD
24 W
4491 2602 PD
24 W
4278 2484 PD
24 W
4597 2493 PD
24 W
4587 2291 PD
24 W
4593 2596 PD
24 W
4526 2380 PD
24 W
4489 2564 PD
24 W
4505 2305 PD
24 W
4553 2554 PD
24 W
4555 2495 PD
24 W
4666 2241 PD
24 W
4349 2885 PD
24 W
4561 2652 PD
24 W
4461 2786 PD
24 W
4534 2296 PD
24 W
4693 2292 PD
24 W
4579 2411 PD
24 W
4367 2796 PD
24 W
4547 2483 PD
24 W
4744 2526 PD
24 W
4557 2421 PD
24 W
4511 2562 PD
24 W
4382 2623 PD
24 W
4514 2782 PD
24 W
4690 2134 PD
24 W
4419 2492 PD
24 W
4543 2649 PD
24 W
4622 3062 PD
24 W
4479 2411 PD
24 W
4484 2554 PD
24 W
4592 2637 PD
24 W
4548 2575 PD
24 W
4801 2298 PD
24 W
4712 2135 PD
24 W
4664 2300 PD
24 W
4429 2678 PD
24 W
4791 2657 PD
24 W
4621 2387 PD
24 W
4522 2659 PD
24 W
4436 2590 PD
24 W
4501 2659 PD
24 W
4509 2564 PD
24 W
4533 2476 PD
24 W
4547 2634 PD
24 W
4391 2498 PD
24 W
4526 2482 PD
24 W
4461 2675 PD
24 W
4662 2274 PD
24 W
4673 2213 PD
24 W
4760 2812 PD
24 W
4583 2631 PD
24 W
4697 2256 PD
24 W
4438 2651 PD
24 W
4412 2598 PD
24 W
4604 2577 PD
24 W
4630 2410 PD
24 W
4535 2962 PD
24 W
4643 2338 PD
24 W
4577 2707 PD
24 W
4464 2828 PD
24 W
4579 2391 PD
24 W
4576 2696 PD
24 W
4613 2238 PD
24 W
4543 2561 PD
24 W
4484 2468 PD
24 W
4481 2539 PD
24 W
4551 2630 PD
24 W
4469 2483 PD
24 W
4572 2454 PD
24 W
4566 2598 PD
24 W
4649 2535 PD
24 W
4426 2424 PD
24 W
5134 2780 PD
24 W
4459 2435 PD
24 W
4566 2366 PD
24 W
4317 2932 PD
24 W
4437 2717 PD
24 W
4529 2537 PD
24 W
4545 2464 PD
24 W
4679 2285 PD
24 W
4335 2685 PD
24 W
4462 2665 PD
24 W
4455 2843 PD
24 W
4711 2256 PD
24 W
4603 2286 PD
24 W
4481 2660 PD
24 W
4516 2450 PD
24 W
4582 2499 PD
24 W
4509 2617 PD
24 W
4523 2693 PD
24 W
4514 2568 PD
24 W
4572 2604 PD
24 W
4548 2273 PD
24 W
4600 2773 PD
24 W
4633 2093 PD
24 W
4469 2584 PD
24 W
4438 2686 PD
24 W
4560 2390 PD
24 W
4501 2533 PD
24 W
4641 2520 PD
24 W
4551 2243 PD
24 W
4542 2467 PD
24 W
4678 2314 PD
24 W
4526 2480 PD
24 W
4534 2440 PD
24 W
4407 2598 PD
24 W
4473 2509 PD
24 W
4749 2214 PD
24 W
4648 2676 PD
24 W
4658 2588 PD
24 W
4548 2593 PD
24 W
4443 2612 PD
24 W
4530 2539 PD
24 W
4510 2226 PD
24 W
4728 2120 PD
24 W
4675 2108 PD
24 W
4525 2364 PD
24 W
4700 2401 PD
24 W
4491 2613 PD
24 W
4465 2614 PD
24 W
4572 2469 PD
24 W
4470 2678 PD
24 W
4744 2068 PD
24 W
4404 2749 PD
24 W
4826 2766 PD
24 W
4548 2451 PD
24 W
4635 2259 PD
24 W
4646 2345 PD
24 W
4535 2439 PD
24 W
4606 2487 PD
24 W
4452 2411 PD
24 W
4641 2885 PD
24 W
4484 2615 PD
24 W
4647 2250 PD
24 W
4594 2317 PD
24 W
4365 2633 PD
24 W
4585 2800 PD
24 W
4582 2570 PD
24 W
4406 2485 PD
24 W
4498 2481 PD
24 W
4489 2457 PD
24 W
4454 2529 PD
24 W
4768 1993 PD
24 W
4452 2697 PD
24 W
4750 2067 PD
24 W
4599 2137 PD
24 W
4522 2578 PD
24 W
4521 2294 PD
24 W
4533 2610 PD
24 W
4392 2880 PD
24 W
4592 2366 PD
24 W
4404 2570 PD
24 W
4516 2614 PD
24 W
4571 2349 PD
24 W
4594 2577 PD
24 W
4432 2893 PD
24 W
4422 2649 PD
24 W
4489 2602 PD
24 W
4396 2589 PD
24 W
4760 2457 PD
24 W
4667 2175 PD
24 W
4575 2611 PD
24 W
4568 2768 PD
24 W
4488 2443 PD
24 W
4587 2544 PD
24 W
4500 2395 PD
24 W
4502 2466 PD
24 W
4836 2053 PD
24 W
4593 2589 PD
24 W
4421 2632 PD
24 W
4555 2667 PD
24 W
4662 2387 PD
24 W
4454 2512 PD
24 W
4401 2540 PD
24 W
4548 2322 PD
24 W
4555 2480 PD
24 W
4331 2628 PD
24 W
4576 2308 PD
24 W
4624 2385 PD
24 W
4363 2554 PD
24 W
4401 2353 PD
24 W
4523 2454 PD
24 W
4496 2712 PD
24 W
4490 2515 PD
24 W
4641 2210 PD
24 W
4629 2719 PD
24 W
4504 2516 PD
24 W
4660 2317 PD
24 W
4543 2429 PD
24 W
4504 2388 PD
24 W
4528 2370 PD
24 W
4546 2569 PD
gs 4278 1993 857 1070 rc
c9
529 -986 4278 2979 2 MP stroke
gr
gr

c9
1 sg
0 1069 856 0 0 -1069 5405 3062 4 MP
PP
-856 0 0 1069 856 0 0 -1069 5405 3062 5 MP stroke
4 w
DO
SO
6 w
0 sg
5405 3062 mt 6261 3062 L
5405 3062 mt 5405 1993 L
5639 3062 mt 5639 3051 L
5907 3062 mt 5907 3051 L
6175 3062 mt 6175 3051 L
5405 2942 mt 5415 2942 L
5405 2725 mt 5415 2725 L
5405 2508 mt 5415 2508 L
5405 2291 mt 5415 2291 L
5405 2074 mt 5415 2074 L
5492 1898 mt 
(P2:1 P2:1\(F\)) s
gs 5405 1993 857 1070 rc
gr

gs 5332 1920 1003 1216 rc
24 W
c8
5996 2169 PD
24 W
5880 2453 PD
24 W
5636 2456 PD
24 W
5717 2774 PD
24 W
5817 2094 PD
24 W
5779 2643 PD
24 W
5845 2874 PD
24 W
5701 2718 PD
24 W
5817 2359 PD
24 W
5950 2373 PD
24 W
5870 2429 PD
24 W
5945 2318 PD
24 W
6052 2173 PD
24 W
5700 2650 PD
24 W
5832 2520 PD
24 W
5743 2371 PD
24 W
5834 2340 PD
24 W
6235 2528 PD
24 W
5735 2405 PD
24 W
5768 2850 PD
24 W
5877 2265 PD
24 W
5763 2744 PD
24 W
5701 2482 PD
24 W
5785 2529 PD
24 W
6203 2357 PD
24 W
5702 2794 PD
24 W
5709 2592 PD
24 W
6138 2321 PD
24 W
5844 2549 PD
24 W
5601 2775 PD
24 W
5664 2803 PD
24 W
5791 2441 PD
24 W
5837 2620 PD
24 W
5405 2314 PD
24 W
5662 2762 PD
24 W
5685 2866 PD
24 W
5700 2535 PD
24 W
5829 2539 PD
24 W
6197 2412 PD
24 W
5875 2532 PD
24 W
5761 2217 PD
24 W
5749 2611 PD
24 W
5753 2615 PD
24 W
5749 2844 PD
24 W
5751 2834 PD
24 W
6057 2439 PD
24 W
5791 2730 PD
24 W
5782 2521 PD
24 W
5742 2498 PD
24 W
5954 2281 PD
24 W
5837 2519 PD
24 W
6076 2133 PD
24 W
5835 2392 PD
24 W
5780 2371 PD
24 W
5685 2747 PD
24 W
5716 2724 PD
24 W
5816 2412 PD
24 W
5718 2527 PD
24 W
5734 2620 PD
24 W
5987 2232 PD
24 W
5784 2205 PD
24 W
5685 2723 PD
24 W
5784 2680 PD
24 W
5847 2376 PD
24 W
5855 2466 PD
24 W
5955 2285 PD
24 W
6092 2329 PD
24 W
5967 2363 PD
24 W
5816 2499 PD
24 W
5792 2765 PD
24 W
5679 2612 PD
24 W
5884 2676 PD
24 W
5794 2526 PD
24 W
5883 2440 PD
24 W
5830 2452 PD
24 W
5783 2496 PD
24 W
5956 2211 PD
24 W
5911 2208 PD
24 W
5741 2877 PD
24 W
5700 2566 PD
24 W
5809 2919 PD
24 W
5753 2487 PD
24 W
5842 2081 PD
24 W
5776 2818 PD
24 W
5684 2721 PD
24 W
6060 2398 PD
24 W
5868 2247 PD
24 W
5907 2385 PD
24 W
5571 2829 PD
24 W
5708 2681 PD
24 W
5817 2872 PD
24 W
6013 2116 PD
24 W
5779 2567 PD
24 W
5905 2682 PD
24 W
5713 2558 PD
24 W
5773 2624 PD
24 W
5881 2436 PD
24 W
5913 2570 PD
24 W
5766 2613 PD
24 W
5991 2228 PD
24 W
5887 2234 PD
24 W
5658 3015 PD
24 W
5723 2602 PD
24 W
5774 2373 PD
24 W
5727 2642 PD
24 W
5723 2649 PD
24 W
5666 2388 PD
24 W
5710 2724 PD
24 W
5821 2430 PD
24 W
5843 2590 PD
24 W
5920 2318 PD
24 W
5666 2758 PD
24 W
5817 2141 PD
24 W
5640 2531 PD
24 W
5764 2449 PD
24 W
5951 2151 PD
24 W
5650 2954 PD
24 W
5836 2431 PD
24 W
5769 2510 PD
24 W
5852 2392 PD
24 W
5679 2639 PD
24 W
5746 2612 PD
24 W
5724 2764 PD
24 W
5730 2445 PD
24 W
5951 2279 PD
24 W
5844 2461 PD
24 W
5908 2725 PD
24 W
6151 2314 PD
24 W
5765 2578 PD
24 W
5602 2934 PD
24 W
5736 2529 PD
24 W
5711 2624 PD
24 W
5817 3062 PD
24 W
5890 2634 PD
24 W
6261 2625 PD
24 W
5661 2764 PD
24 W
6032 2485 PD
24 W
6020 1993 PD
24 W
5963 2363 PD
24 W
5743 2735 PD
24 W
5631 2961 PD
24 W
5962 2205 PD
24 W
5749 2613 PD
24 W
5945 2158 PD
24 W
6091 2649 PD
24 W
5672 2850 PD
24 W
5733 2730 PD
24 W
5799 2611 PD
24 W
5901 2180 PD
24 W
5943 2238 PD
24 W
5761 2517 PD
24 W
5567 2532 PD
24 W
5795 2389 PD
24 W
5952 2556 PD
24 W
5847 2877 PD
24 W
5605 2875 PD
24 W
5813 2690 PD
24 W
5688 2873 PD
24 W
6000 2188 PD
24 W
5732 2232 PD
24 W
5830 2508 PD
24 W
5717 2881 PD
24 W
5952 2463 PD
24 W
5552 3045 PD
24 W
5490 2767 PD
24 W
5810 2755 PD
24 W
5879 2587 PD
24 W
6045 2284 PD
24 W
6082 2162 PD
24 W
5739 2591 PD
24 W
5698 2600 PD
24 W
5757 2405 PD
24 W
5811 2501 PD
24 W
5636 2650 PD
24 W
5730 2459 PD
24 W
5732 2845 PD
24 W
5879 2734 PD
24 W
5740 2785 PD
24 W
5757 2489 PD
24 W
5612 2471 PD
24 W
5793 2761 PD
24 W
5670 2642 PD
24 W
5736 2605 PD
24 W
5838 2542 PD
24 W
5817 2461 PD
24 W
5993 2354 PD
24 W
5702 2749 PD
24 W
5610 2757 PD
24 W
5554 2927 PD
24 W
5729 2705 PD
24 W
5734 2607 PD
24 W
5935 2366 PD
24 W
6029 2379 PD
24 W
5884 2968 PD
24 W
5958 2376 PD
24 W
5969 2376 PD
24 W
5822 2633 PD
24 W
5682 2752 PD
24 W
5974 2613 PD
24 W
5874 2362 PD
gs 5405 1993 857 1070 rc
c9
528 -1070 5526 3063 2 MP stroke
gr
gr

c9
1 sg
0 1069 856 0 0 -1069 899 4616 4 MP
PP
-856 0 0 1069 856 0 0 -1069 899 4616 5 MP stroke
4 w
DO
SO
6 w
0 sg
 899 4616 mt 1755 4616 L
 899 4616 mt  899 3547 L
 906 4616 mt  906 4605 L
1044 4616 mt 1044 4605 L
1182 4616 mt 1182 4605 L
1319 4616 mt 1319 4605 L
1457 4616 mt 1457 4605 L
1595 4616 mt 1595 4605 L
1733 4616 mt 1733 4605 L
 899 4407 mt  909 4407 L
 899 4005 mt  909 4005 L
 899 3603 mt  909 3603 L
 982 3452 mt 
(P2:2 P2:2\(S\)) s
gs 899 3547 857 1070 rc
gr

gs 826 3474 1003 1216 rc
24 W
c8
1273 4237 PD
24 W
1216 4172 PD
24 W
1065 4410 PD
24 W
945 4565 PD
24 W
1209 4332 PD
24 W
1104 4340 PD
24 W
1195 4383 PD
24 W
955 4435 PD
24 W
1354 4166 PD
24 W
1373 4144 PD
24 W
1344 4213 PD
24 W
1015 4555 PD
24 W
1241 4300 PD
24 W
1272 4052 PD
24 W
1404 4173 PD
24 W
1245 4205 PD
24 W
1129 3943 PD
24 W
1141 4420 PD
24 W
917 4519 PD
24 W
1097 4365 PD
24 W
1163 4433 PD
24 W
1171 4345 PD
24 W
965 4599 PD
24 W
1140 4355 PD
24 W
992 4525 PD
24 W
1307 4296 PD
24 W
1050 4413 PD
24 W
1021 4443 PD
24 W
1004 4542 PD
24 W
1087 4424 PD
24 W
1010 4472 PD
24 W
1162 4424 PD
24 W
1158 4322 PD
24 W
1024 4418 PD
24 W
1115 4533 PD
24 W
1037 4481 PD
24 W
1484 4160 PD
24 W
1272 4261 PD
24 W
1129 4424 PD
24 W
1180 4380 PD
24 W
986 4552 PD
24 W
1244 4394 PD
24 W
1138 4329 PD
24 W
1201 4310 PD
24 W
1068 4428 PD
24 W
1057 4453 PD
24 W
1087 4330 PD
24 W
993 4534 PD
24 W
971 4550 PD
24 W
1020 4560 PD
24 W
1059 4446 PD
24 W
1396 4255 PD
24 W
1015 4387 PD
24 W
1247 4354 PD
24 W
1181 4370 PD
24 W
1025 4508 PD
24 W
992 4451 PD
24 W
986 4566 PD
24 W
931 4605 PD
24 W
1021 4509 PD
24 W
1260 4319 PD
24 W
1247 4424 PD
24 W
1027 4533 PD
24 W
1210 4233 PD
24 W
1110 4433 PD
24 W
1201 4132 PD
24 W
1491 4194 PD
24 W
1299 4304 PD
24 W
999 4550 PD
24 W
1010 4544 PD
24 W
1133 4427 PD
24 W
1073 4445 PD
24 W
935 4548 PD
24 W
1143 4413 PD
24 W
1137 4289 PD
24 W
1314 4254 PD
24 W
1483 4072 PD
24 W
950 4613 PD
24 W
1040 4425 PD
24 W
1084 4606 PD
24 W
1284 4284 PD
24 W
1144 4235 PD
24 W
1013 4528 PD
24 W
969 4573 PD
24 W
1063 4434 PD
24 W
1003 4588 PD
24 W
944 4584 PD
24 W
1301 4183 PD
24 W
1084 4398 PD
24 W
1117 4435 PD
24 W
951 4590 PD
24 W
927 4616 PD
24 W
955 4534 PD
24 W
1008 4515 PD
24 W
1118 4346 PD
24 W
1075 4480 PD
24 W
1143 4366 PD
24 W
1016 4586 PD
24 W
1157 4396 PD
24 W
964 4588 PD
24 W
1755 3547 PD
24 W
1176 4477 PD
24 W
1336 3963 PD
24 W
1103 4317 PD
24 W
1055 4482 PD
24 W
1147 4354 PD
24 W
976 4508 PD
24 W
1153 4359 PD
24 W
1034 4503 PD
24 W
974 4558 PD
24 W
1096 4382 PD
24 W
1087 4390 PD
24 W
1323 4282 PD
24 W
968 4489 PD
24 W
1014 4445 PD
24 W
1215 4315 PD
24 W
1064 4558 PD
24 W
1043 4421 PD
24 W
1153 4375 PD
24 W
899 4526 PD
24 W
1169 4422 PD
24 W
1166 4347 PD
24 W
1114 4406 PD
24 W
984 4513 PD
24 W
1080 4423 PD
24 W
1014 4476 PD
24 W
986 4468 PD
24 W
1000 4536 PD
24 W
990 4526 PD
24 W
1007 4561 PD
24 W
1005 4602 PD
24 W
1376 4244 PD
24 W
1109 4498 PD
24 W
1167 4332 PD
24 W
1081 4464 PD
24 W
1135 4290 PD
24 W
1148 4363 PD
24 W
1209 4150 PD
24 W
1212 4452 PD
24 W
1115 4515 PD
24 W
1129 4409 PD
24 W
1326 4186 PD
24 W
1137 4465 PD
24 W
933 4560 PD
24 W
1014 4525 PD
24 W
1112 4433 PD
24 W
1450 4140 PD
24 W
1116 4432 PD
24 W
1237 4309 PD
24 W
1266 4295 PD
24 W
1476 4205 PD
24 W
978 4510 PD
24 W
989 4472 PD
24 W
1050 4497 PD
24 W
1134 4310 PD
24 W
1076 4417 PD
24 W
1053 4476 PD
24 W
1173 4379 PD
24 W
1108 4429 PD
24 W
1223 4352 PD
24 W
1051 4442 PD
24 W
1102 4373 PD
24 W
961 4595 PD
24 W
1006 4569 PD
24 W
964 4593 PD
24 W
1040 4527 PD
24 W
1044 4462 PD
24 W
1032 4458 PD
24 W
1145 4502 PD
24 W
1196 4301 PD
24 W
1039 4410 PD
24 W
967 4564 PD
24 W
967 4594 PD
24 W
919 4557 PD
24 W
1049 4462 PD
24 W
1133 4330 PD
24 W
973 4564 PD
24 W
995 4538 PD
24 W
1003 4530 PD
24 W
993 4531 PD
24 W
1029 4448 PD
24 W
1002 4547 PD
24 W
1038 4510 PD
24 W
1037 4528 PD
24 W
1034 4525 PD
24 W
1115 4373 PD
24 W
1049 4498 PD
24 W
1266 4264 PD
24 W
1491 4096 PD
24 W
1141 4297 PD
24 W
1016 4517 PD
24 W
981 4493 PD
24 W
1055 4451 PD
24 W
1307 4359 PD
24 W
1343 4334 PD
24 W
1099 4521 PD
24 W
1024 4502 PD
24 W
1059 4514 PD
24 W
1153 4383 PD
24 W
1067 4406 PD
gs 899 3547 857 1070 rc
c9
823 -960 933 4617 2 MP stroke
gr
gr

c9
1 sg
0 1069 856 0 0 -1069 2026 4616 4 MP
PP
-856 0 0 1069 856 0 0 -1069 2026 4616 5 MP stroke
4 w
DO
SO
6 w
0 sg
2026 4616 mt 2882 4616 L
2026 4616 mt 2026 3547 L
2180 4616 mt 2180 4605 L
2477 4616 mt 2477 4605 L
2773 4616 mt 2773 4605 L
2026 4445 mt 2036 4445 L
2026 4248 mt 2036 4248 L
2026 4050 mt 2036 4050 L
2026 3852 mt 2036 3852 L
2026 3654 mt 2036 3654 L
2109 3452 mt 
(P2:3 P2:3\(S\)) s
gs 2026 3547 857 1070 rc
gr

gs 1953 3474 1003 1216 rc
24 W
c8
2327 4513 PD
24 W
2474 4040 PD
24 W
2318 4230 PD
24 W
2455 4222 PD
24 W
2551 4028 PD
24 W
2312 4406 PD
24 W
2391 4424 PD
24 W
2083 4320 PD
24 W
2533 4198 PD
24 W
2426 4176 PD
24 W
2625 4012 PD
24 W
2197 4576 PD
24 W
2398 4309 PD
24 W
2404 4181 PD
24 W
2454 4319 PD
24 W
2358 4186 PD
24 W
2110 4158 PD
24 W
2060 4475 PD
24 W
2273 4313 PD
24 W
2228 4342 PD
24 W
2255 4467 PD
24 W
2426 4076 PD
24 W
2105 4398 PD
24 W
2745 3893 PD
24 W
2447 3833 PD
24 W
2273 4327 PD
24 W
2183 4313 PD
24 W
2234 4255 PD
24 W
2229 4299 PD
24 W
2295 4251 PD
24 W
2173 4388 PD
24 W
2408 4203 PD
24 W
2287 4238 PD
24 W
2372 4251 PD
24 W
2337 4467 PD
24 W
2334 4256 PD
24 W
2260 4330 PD
24 W
2351 4516 PD
24 W
2424 4192 PD
24 W
2240 4401 PD
24 W
2263 3910 PD
24 W
2388 4262 PD
24 W
2262 4159 PD
24 W
2682 3841 PD
24 W
2189 4517 PD
24 W
2373 4295 PD
24 W
2276 4321 PD
24 W
2372 4080 PD
24 W
2318 4074 PD
24 W
2392 4154 PD
24 W
2518 4055 PD
24 W
2320 4267 PD
24 W
2163 4380 PD
24 W
2373 4261 PD
24 W
2410 4202 PD
24 W
2239 4182 PD
24 W
2159 4348 PD
24 W
2379 4124 PD
24 W
2121 4496 PD
24 W
2347 4526 PD
24 W
2543 3895 PD
24 W
2882 3847 PD
24 W
2787 3877 PD
24 W
2597 3982 PD
24 W
2332 4156 PD
24 W
2629 4043 PD
24 W
2584 4292 PD
24 W
2423 4221 PD
24 W
2356 4473 PD
24 W
2199 4320 PD
24 W
2235 4360 PD
24 W
2239 4436 PD
24 W
2284 4143 PD
24 W
2299 4387 PD
24 W
2376 4162 PD
24 W
2339 4383 PD
24 W
2391 3903 PD
24 W
2370 4300 PD
24 W
2352 4229 PD
24 W
2252 4606 PD
24 W
2412 4208 PD
24 W
2376 4124 PD
24 W
2560 4253 PD
24 W
2116 4243 PD
24 W
2311 4404 PD
24 W
2415 4498 PD
24 W
2134 4344 PD
24 W
2343 4093 PD
24 W
2144 4491 PD
24 W
2482 4167 PD
24 W
2346 4157 PD
24 W
2301 4087 PD
24 W
2124 4289 PD
24 W
2375 4207 PD
24 W
2255 4288 PD
24 W
2162 4393 PD
24 W
2435 3914 PD
24 W
2280 4597 PD
24 W
2183 4377 PD
24 W
2362 4145 PD
24 W
2818 3739 PD
24 W
2286 4291 PD
24 W
2533 3822 PD
24 W
2235 4237 PD
24 W
2223 4355 PD
24 W
2177 4331 PD
24 W
2478 4219 PD
24 W
2473 4184 PD
24 W
2279 4196 PD
24 W
2450 4248 PD
24 W
2345 4464 PD
24 W
2306 4349 PD
24 W
2230 4105 PD
24 W
2435 3873 PD
24 W
2403 4224 PD
24 W
2314 4198 PD
24 W
2206 4230 PD
24 W
2382 3955 PD
24 W
2193 4400 PD
24 W
2105 4389 PD
24 W
2281 4279 PD
24 W
2327 4153 PD
24 W
2202 4254 PD
24 W
2401 4355 PD
24 W
2449 4226 PD
24 W
2097 4314 PD
24 W
2242 4211 PD
24 W
2374 4192 PD
24 W
2327 4197 PD
24 W
2292 3977 PD
24 W
2083 3992 PD
24 W
2512 4246 PD
24 W
2303 4380 PD
24 W
2220 4247 PD
24 W
2312 4292 PD
24 W
2300 4286 PD
24 W
2141 4391 PD
24 W
2203 4261 PD
24 W
2249 4525 PD
24 W
2415 4156 PD
24 W
2159 4345 PD
24 W
2441 4126 PD
24 W
2287 4430 PD
24 W
2427 4159 PD
24 W
2349 4088 PD
24 W
2666 3896 PD
24 W
2219 4276 PD
24 W
2420 4408 PD
24 W
2288 4321 PD
24 W
2386 4125 PD
24 W
2492 4086 PD
24 W
2063 4404 PD
24 W
2338 4246 PD
24 W
2320 4488 PD
24 W
2364 4229 PD
24 W
2026 4281 PD
24 W
2562 4124 PD
24 W
2610 4017 PD
24 W
2379 4364 PD
24 W
2354 4184 PD
24 W
2345 4123 PD
24 W
2302 4247 PD
24 W
2559 3865 PD
24 W
2185 4563 PD
24 W
2152 4333 PD
24 W
2238 4412 PD
24 W
2280 4248 PD
24 W
2206 4377 PD
24 W
2337 4359 PD
24 W
2248 4372 PD
24 W
2362 4094 PD
24 W
2299 4309 PD
24 W
2353 4001 PD
24 W
2412 4310 PD
24 W
2175 4616 PD
24 W
2322 4163 PD
24 W
2454 4137 PD
24 W
2395 4229 PD
24 W
2357 4041 PD
24 W
2383 4026 PD
24 W
2516 4037 PD
24 W
2375 3918 PD
24 W
2281 4226 PD
24 W
2554 4123 PD
24 W
2480 4187 PD
24 W
2525 4185 PD
24 W
2456 4236 PD
24 W
2681 4006 PD
24 W
2641 4112 PD
24 W
2660 3547 PD
24 W
2448 4394 PD
24 W
2522 4041 PD
24 W
2212 4268 PD
24 W
2436 4183 PD
24 W
2555 4119 PD
24 W
2393 4286 PD
24 W
2178 4311 PD
24 W
2622 4388 PD
24 W
2276 4196 PD
24 W
2426 4175 PD
gs 2026 3547 857 1070 rc
c9
802 -1070 2052 4617 2 MP stroke
gr
gr

c9
1 sg
0 1069 856 0 0 -1069 3152 4616 4 MP
PP
-856 0 0 1069 856 0 0 -1069 3152 4616 5 MP stroke
4 w
DO
SO
6 w
0 sg
3152 4616 mt 4008 4616 L
3152 4616 mt 3152 3547 L
3243 4616 mt 3243 4605 L
3578 4616 mt 3578 4605 L
3913 4616 mt 3913 4605 L
3152 4497 mt 3162 4497 L
3152 4301 mt 3162 4301 L
3152 4106 mt 3162 4106 L
3152 3910 mt 3162 3910 L
3152 3715 mt 3162 3715 L
3235 3452 mt 
(P2:4 P2:4\(S\)) s
gs 3152 3547 857 1070 rc
gr

gs 3079 3474 1003 1216 rc
24 W
c8
3375 4342 PD
24 W
3731 3814 PD
24 W
3570 4110 PD
24 W
3625 4304 PD
24 W
3576 4074 PD
24 W
3470 4064 PD
24 W
3449 4278 PD
24 W
3288 4286 PD
24 W
3761 3942 PD
24 W
3424 4172 PD
24 W
3696 4034 PD
24 W
3403 4461 PD
24 W
3436 4278 PD
24 W
3528 4043 PD
24 W
3728 4105 PD
24 W
3508 4079 PD
24 W
3224 3985 PD
24 W
3351 4270 PD
24 W
3575 4347 PD
24 W
3276 4179 PD
24 W
3323 4402 PD
24 W
3604 3862 PD
24 W
3420 4385 PD
24 W
3904 3866 PD
24 W
3560 4021 PD
24 W
3585 4172 PD
24 W
3390 4234 PD
24 W
3397 4207 PD
24 W
3497 4282 PD
24 W
3489 4163 PD
24 W
3258 4311 PD
24 W
3701 4196 PD
24 W
3468 4050 PD
24 W
3654 4145 PD
24 W
3356 4451 PD
24 W
3563 4231 PD
24 W
3528 4160 PD
24 W
3678 4060 PD
24 W
3405 4332 PD
24 W
3435 4243 PD
24 W
3533 4051 PD
24 W
3523 4164 PD
24 W
3380 4148 PD
24 W
3806 3915 PD
24 W
3441 4379 PD
24 W
3534 4099 PD
24 W
3328 4311 PD
24 W
3607 4149 PD
24 W
3278 4348 PD
24 W
3643 4297 PD
24 W
3834 3991 PD
24 W
3574 4115 PD
24 W
3257 4386 PD
24 W
3474 4341 PD
24 W
3435 4234 PD
24 W
3614 4187 PD
24 W
3178 4274 PD
24 W
3526 4383 PD
24 W
3215 4616 PD
24 W
3385 4527 PD
24 W
3427 4134 PD
24 W
3686 4157 PD
24 W
3732 4127 PD
24 W
3565 4138 PD
24 W
3437 4122 PD
24 W
3625 4008 PD
24 W
3713 4055 PD
24 W
3619 4067 PD
24 W
3542 4557 PD
24 W
3408 4294 PD
24 W
3293 4415 PD
24 W
3287 4433 PD
24 W
3370 4010 PD
24 W
3461 4388 PD
24 W
3434 4084 PD
24 W
3547 4200 PD
24 W
3707 3869 PD
24 W
3529 4294 PD
24 W
3468 4135 PD
24 W
3293 4556 PD
24 W
3607 4086 PD
24 W
3392 4069 PD
24 W
3720 4212 PD
24 W
3226 4338 PD
24 W
3510 4297 PD
24 W
3548 4293 PD
24 W
3328 4419 PD
24 W
3575 4082 PD
24 W
3351 4215 PD
24 W
3807 4231 PD
24 W
3386 4320 PD
24 W
3380 4295 PD
24 W
3321 4334 PD
24 W
3572 4112 PD
24 W
3437 4201 PD
24 W
3389 4331 PD
24 W
3657 3835 PD
24 W
3576 4540 PD
24 W
3348 4173 PD
24 W
3382 4405 PD
24 W
3879 3547 PD
24 W
3420 4377 PD
24 W
3873 3660 PD
24 W
3318 4194 PD
24 W
3321 4330 PD
24 W
3350 4231 PD
24 W
3618 4221 PD
24 W
3414 4284 PD
24 W
3599 4258 PD
24 W
3452 4254 PD
24 W
3402 4239 PD
24 W
3351 4300 PD
24 W
3519 4122 PD
24 W
3524 4144 PD
24 W
3545 4040 PD
24 W
3604 4039 PD
24 W
3506 4324 PD
24 W
3549 3875 PD
24 W
3411 4186 PD
24 W
3152 4375 PD
24 W
3445 4315 PD
24 W
3529 4288 PD
24 W
3390 4205 PD
24 W
3538 4154 PD
24 W
3600 4460 PD
24 W
3191 4409 PD
24 W
3338 4165 PD
24 W
3346 4245 PD
24 W
3513 4359 PD
24 W
3697 4022 PD
24 W
3308 4216 PD
24 W
3617 4151 PD
24 W
3343 4348 PD
24 W
3435 4274 PD
24 W
3647 4283 PD
24 W
3439 4047 PD
24 W
3378 4220 PD
24 W
3285 4282 PD
24 W
3645 4291 PD
24 W
3502 4350 PD
24 W
3377 4242 PD
24 W
3500 4230 PD
24 W
3443 4335 PD
24 W
3523 4193 PD
24 W
3375 4285 PD
24 W
3684 4082 PD
24 W
3574 3943 PD
24 W
3688 4371 PD
24 W
3558 4106 PD
24 W
3522 4110 PD
24 W
3628 3941 PD
24 W
3268 4405 PD
24 W
3384 4211 PD
24 W
3367 4363 PD
24 W
3383 4369 PD
24 W
3322 4299 PD
24 W
3715 4115 PD
24 W
4008 3930 PD
24 W
3373 4302 PD
24 W
3474 4261 PD
24 W
3289 4322 PD
24 W
3405 4185 PD
24 W
3643 4227 PD
24 W
3414 4591 PD
24 W
3319 4402 PD
24 W
3553 4263 PD
24 W
3355 4312 PD
24 W
3274 4431 PD
24 W
3439 4318 PD
24 W
3451 4096 PD
24 W
3460 4069 PD
24 W
3490 4329 PD
24 W
3467 4298 PD
24 W
3342 4384 PD
24 W
3380 4233 PD
24 W
3443 4096 PD
24 W
3499 4199 PD
24 W
3478 4365 PD
24 W
3461 4147 PD
24 W
3434 4178 PD
24 W
3855 3887 PD
24 W
3733 3987 PD
24 W
3347 4286 PD
24 W
3703 4269 PD
24 W
3658 4006 PD
24 W
3825 3920 PD
24 W
3734 4322 PD
24 W
3696 3998 PD
24 W
3850 3964 PD
24 W
3867 3812 PD
24 W
3486 4432 PD
24 W
3624 3802 PD
24 W
3341 4337 PD
24 W
3519 4228 PD
24 W
3650 4007 PD
24 W
3372 4436 PD
24 W
3293 4361 PD
24 W
3694 4435 PD
24 W
3417 4168 PD
24 W
3372 4232 PD
gs 3152 3547 857 1070 rc
c9
857 -1000 3152 4604 2 MP stroke
gr
gr

c9

end %%Color Dict

eplot
%%EndObject

epage
end

showpage

%%Trailer
%%EOF
