%!PS-Adobe-3.0 EPSF-3.0
%%Creator: MATLAB, The Mathworks, Inc. Version 7.7.0.471 (R2008b). Operating System: Microsoft Windows XP.
%%Title: Pictures\main_zoo_mvar_analysis_data_BMI_xcorr_bmig_p1_k1_4_8.eps
%%CreationDate: 10/26/2009  05:45:01
%%DocumentNeededFonts: Helvetica
%%DocumentProcessColors: Cyan Magenta Yellow Black
%%LanguageLevel: 2
%%Pages: 1
%%BoundingBox:    37   180   549   616
%%EndComments

%%BeginProlog
% MathWorks dictionary
/MathWorks 160 dict begin
% definition operators
/bdef {bind def} bind def
/ldef {load def} bind def
/xdef {exch def} bdef
/xstore {exch store} bdef
% operator abbreviations
/c  /clip ldef
/cc /concat ldef
/cp /closepath ldef
/gr /grestore ldef
/gs /gsave ldef
/mt /moveto ldef
/np /newpath ldef
/cm /currentmatrix ldef
/sm /setmatrix ldef
/rm /rmoveto ldef
/rl /rlineto ldef
/s {show newpath} bdef
/sc {setcmykcolor} bdef
/sr /setrgbcolor ldef
/sg /setgray ldef
/w /setlinewidth ldef
/j /setlinejoin ldef
/cap /setlinecap ldef
/rc {rectclip} bdef
/rf {rectfill} bdef
% page state control
/pgsv () def
/bpage {/pgsv save def} bdef
/epage {pgsv restore} bdef
/bplot /gsave ldef
/eplot {stroke grestore} bdef
% orientation switch
/portraitMode 0 def /landscapeMode 1 def /rotateMode 2 def
% coordinate system mappings
/dpi2point 0 def
% font control
/FontSize 0 def
/FMS {/FontSize xstore findfont [FontSize 0 0 FontSize neg 0 0]
  makefont setfont} bdef
/ISOLatin1Encoding where {pop /WindowsLatin1Encoding 256 array bdef
ISOLatin1Encoding WindowsLatin1Encoding copy pop
/.notdef/.notdef/quotesinglbase/florin/quotedblbase/ellipsis/dagger
/daggerdbl/circumflex/perthousand/Scaron/guilsinglleft/OE/.notdef/.notdef
/.notdef/.notdef/quoteleft/quoteright/quotedblleft/quotedblright/bullet
/endash/emdash/tilde/trademark/scaron/guilsinglright/oe/.notdef/.notdef
/Ydieresis WindowsLatin1Encoding 128 32 getinterval astore pop}
{/WindowsLatin1Encoding StandardEncoding bdef} ifelse
/reencode {exch dup where {pop load} {pop StandardEncoding} ifelse
  exch dup 3 1 roll findfont dup length dict begin
  { 1 index /FID ne {def}{pop pop} ifelse } forall
  /Encoding exch def currentdict end definefont pop} bdef
/isroman {findfont /CharStrings get /Agrave known} bdef
/FMSR {3 1 roll 1 index dup isroman {reencode} {pop pop} ifelse
  exch FMS} bdef
/csm {1 dpi2point div -1 dpi2point div scale neg translate
 dup landscapeMode eq {pop -90 rotate}
  {rotateMode eq {90 rotate} if} ifelse} bdef
% line types: solid, dotted, dashed, dotdash
/SO { [] 0 setdash } bdef
/DO { [.5 dpi2point mul 4 dpi2point mul] 0 setdash } bdef
/DA { [6 dpi2point mul] 0 setdash } bdef
/DD { [.5 dpi2point mul 4 dpi2point mul 6 dpi2point mul 4
  dpi2point mul] 0 setdash } bdef
% macros for lines and objects
/L {lineto stroke} bdef
/MP {3 1 roll moveto 1 sub {rlineto} repeat} bdef
/AP {{rlineto} repeat} bdef
/PDlw -1 def
/W {/PDlw currentlinewidth def setlinewidth} def
/PP {closepath eofill} bdef
/DP {closepath stroke} bdef
/MR {4 -2 roll moveto dup  0 exch rlineto exch 0 rlineto
  neg 0 exch rlineto closepath} bdef
/FR {MR stroke} bdef
/PR {MR fill} bdef
/L1i {{currentfile picstr readhexstring pop} image} bdef
/tMatrix matrix def
/MakeOval {newpath tMatrix currentmatrix pop translate scale
0 0 1 0 360 arc tMatrix setmatrix} bdef
/FO {MakeOval stroke} bdef
/PO {MakeOval fill} bdef
/PD {currentlinewidth 2 div 0 360 arc fill
   PDlw -1 eq not {PDlw w /PDlw -1 def} if} def
/FA {newpath tMatrix currentmatrix pop translate scale
  0 0 1 5 -2 roll arc tMatrix setmatrix stroke} bdef
/PA {newpath tMatrix currentmatrix pop	translate 0 0 moveto scale
  0 0 1 5 -2 roll arc closepath tMatrix setmatrix fill} bdef
/FAn {newpath tMatrix currentmatrix pop translate scale
  0 0 1 5 -2 roll arcn tMatrix setmatrix stroke} bdef
/PAn {newpath tMatrix currentmatrix pop translate 0 0 moveto scale
  0 0 1 5 -2 roll arcn closepath tMatrix setmatrix fill} bdef
/vradius 0 def /hradius 0 def /lry 0 def
/lrx 0 def /uly 0 def /ulx 0 def /rad 0 def
/MRR {/vradius xdef /hradius xdef /lry xdef /lrx xdef /uly xdef
  /ulx xdef newpath tMatrix currentmatrix pop ulx hradius add uly
  vradius add translate hradius vradius scale 0 0 1 180 270 arc 
  tMatrix setmatrix lrx hradius sub uly vradius add translate
  hradius vradius scale 0 0 1 270 360 arc tMatrix setmatrix
  lrx hradius sub lry vradius sub translate hradius vradius scale
  0 0 1 0 90 arc tMatrix setmatrix ulx hradius add lry vradius sub
  translate hradius vradius scale 0 0 1 90 180 arc tMatrix setmatrix
  closepath} bdef
/FRR {MRR stroke } bdef
/PRR {MRR fill } bdef
/MlrRR {/lry xdef /lrx xdef /uly xdef /ulx xdef /rad lry uly sub 2 div def
  newpath tMatrix currentmatrix pop ulx rad add uly rad add translate
  rad rad scale 0 0 1 90 270 arc tMatrix setmatrix lrx rad sub lry rad
  sub translate rad rad scale 0 0 1 270 90 arc tMatrix setmatrix
  closepath} bdef
/FlrRR {MlrRR stroke } bdef
/PlrRR {MlrRR fill } bdef
/MtbRR {/lry xdef /lrx xdef /uly xdef /ulx xdef /rad lrx ulx sub 2 div def
  newpath tMatrix currentmatrix pop ulx rad add uly rad add translate
  rad rad scale 0 0 1 180 360 arc tMatrix setmatrix lrx rad sub lry rad
  sub translate rad rad scale 0 0 1 0 180 arc tMatrix setmatrix
  closepath} bdef
/FtbRR {MtbRR stroke } bdef
/PtbRR {MtbRR fill } bdef
/stri 6 array def /dtri 6 array def
/smat 6 array def /dmat 6 array def
/tmat1 6 array def /tmat2 6 array def /dif 3 array def
/asub {/ind2 exch def /ind1 exch def dup dup
  ind1 get exch ind2 get sub exch } bdef
/tri_to_matrix {
  2 0 asub 3 1 asub 4 0 asub 5 1 asub
  dup 0 get exch 1 get 7 -1 roll astore } bdef
/compute_transform {
  dmat dtri tri_to_matrix tmat1 invertmatrix 
  smat stri tri_to_matrix tmat2 concatmatrix } bdef
/ds {stri astore pop} bdef
/dt {dtri astore pop} bdef
/db {2 copy /cols xdef /rows xdef mul dup 3 mul string
  currentfile 
  3 index 0 eq {/ASCIIHexDecode filter}
  {/ASCII85Decode filter 3 index 2 eq {/RunLengthDecode filter} if }
  ifelse exch readstring pop
  dup 0 3 index getinterval /rbmap xdef
  dup 2 index dup getinterval /gbmap xdef
  1 index dup 2 mul exch getinterval /bbmap xdef pop pop}bdef
/it {gs np dtri aload pop moveto lineto lineto cp c
  cols rows 8 compute_transform 
  rbmap gbmap bbmap true 3 colorimage gr}bdef
/il {newpath moveto lineto stroke}bdef
currentdict end def
%%EndProlog

%%BeginSetup
MathWorks begin

0 cap

end
%%EndSetup

%%Page: 1 1
%%BeginPageSetup
%%PageBoundingBox:    37   180   549   616
MathWorks begin
bpage
%%EndPageSetup

%%BeginObject: obj1
bplot

/dpi2point 12 def
portraitMode 0216 7344 csm

  234   -48  6149  5231 rc
85 dict begin %Colortable dictionary
/c0 { 0.000000 0.000000 0.000000 sr} bdef
/c1 { 1.000000 1.000000 1.000000 sr} bdef
/c2 { 0.900000 0.000000 0.000000 sr} bdef
/c3 { 0.000000 0.820000 0.000000 sr} bdef
/c4 { 0.000000 0.000000 0.800000 sr} bdef
/c5 { 0.910000 0.820000 0.320000 sr} bdef
/c6 { 1.000000 0.260000 0.820000 sr} bdef
/c7 { 0.000000 0.820000 0.820000 sr} bdef
c0
1 j
1 sg
   0    0 6919 5187 rf
6 w
0 4202 5362 0 0 -4202 899 4616 4 MP
PP
-5362 0 0 4202 5362 0 0 -4202 899 4616 5 MP stroke
4 w
DO
SO
6 w
0 sg
 899  414 mt 6261  414 L
 899 4616 mt 6261 4616 L
6261 4616 mt 6261  414 L
 899 4616 mt  899  414 L
 899 4616 mt 6261 4616 L
 899 4616 mt  899  414 L
 919 4616 mt  919 4562 L
 919  414 mt  919  467 L
%%IncludeResource: font Helvetica
/Helvetica /WindowsLatin1Encoding 240 FMSR

 713 4873 mt 
(-3) s
1806 4616 mt 1806 4562 L
1806  414 mt 1806  467 L
1600 4873 mt 
(-2) s
2693 4616 mt 2693 4562 L
2693  414 mt 2693  467 L
2487 4873 mt 
(-1) s
3580 4616 mt 3580 4562 L
3580  414 mt 3580  467 L
3514 4873 mt 
(0) s
4466 4616 mt 4466 4562 L
4466  414 mt 4466  467 L
4400 4873 mt 
(1) s
5353 4616 mt 5353 4562 L
5353  414 mt 5353  467 L
5287 4873 mt 
(2) s
6240 4616 mt 6240 4562 L
6240  414 mt 6240  467 L
6174 4873 mt 
(3) s
 899 4599 mt  952 4599 L
6261 4599 mt 6207 4599 L
 591 4688 mt 
(-3) s
 899 3904 mt  952 3904 L
6261 3904 mt 6207 3904 L
 591 3993 mt 
(-2) s
 899 3209 mt  952 3209 L
6261 3209 mt 6207 3209 L
 591 3298 mt 
(-1) s
 899 2514 mt  952 2514 L
6261 2514 mt 6207 2514 L
 731 2603 mt 
(0) s
 899 1820 mt  952 1820 L
6261 1820 mt 6207 1820 L
 731 1909 mt 
(1) s
 899 1125 mt  952 1125 L
6261 1125 mt 6207 1125 L
 731 1214 mt 
(2) s
 899  430 mt  952  430 L
6261  430 mt 6207  430 L
 731  519 mt 
(3) s
 899  414 mt 6261  414 L
 899 4616 mt 6261 4616 L
6261 4616 mt 6261  414 L
 899 4616 mt  899  414 L
gs 899 414 5363 4203 rc
gr

/c8 { 0.000000 0.000000 1.000000 sr} bdef
c8
3053  414 mt 3125  414 L
3089  378 mt 3089  450 L
3983 2602 mt 4055 2602 L
4019 2566 mt 4019 2638 L
4719 3034 mt 4791 3034 L
4755 2998 mt 4755 3070 L
3791 2293 mt 3863 2293 L
3827 2257 mt 3827 2329 L
2866 2410 mt 2938 2410 L
2902 2374 mt 2902 2446 L
3460 2840 mt 3532 2840 L
3496 2804 mt 3496 2876 L
4298 1604 mt 4370 1604 L
4334 1568 mt 4334 1640 L
2851 2655 mt 2923 2655 L
2887 2619 mt 2887 2691 L
3421 4205 mt 3493 4205 L
3457 4169 mt 3457 4241 L
3940 2040 mt 4012 2040 L
3976 2004 mt 3976 2076 L
3621 2536 mt 3693 2536 L
3657 2500 mt 3657 2572 L
4330 4616 mt 4402 4616 L
4366 4580 mt 4366 4652 L
4553 3503 mt 4625 3503 L
4589 3467 mt 4589 3539 L
4087 3322 mt 4159 3322 L
4123 3286 mt 4123 3358 L
3885 2401 mt 3957 2401 L
3921 2365 mt 3921 2437 L
4290 1831 mt 4362 1831 L
4326 1795 mt 4326 1867 L
3243 1583 mt 3315 1583 L
3279 1547 mt 3279 1619 L
2917 2423 mt 2989 2423 L
2953 2387 mt 2953 2459 L
5002 2722 mt 5074 2722 L
5038 2686 mt 5038 2758 L
3605 2001 mt 3677 2001 L
3641 1965 mt 3641 2037 L
3532 2361 mt 3604 2361 L
3568 2325 mt 3568 2397 L
2468 2646 mt 2540 2646 L
2504 2610 mt 2504 2682 L
3774 2436 mt 3846 2436 L
3810 2400 mt 3810 2472 L
4852 2484 mt 4924 2484 L
4888 2448 mt 4888 2520 L
2945 1885 mt 3017 1885 L
2981 1849 mt 2981 1921 L
3832 2806 mt 3904 2806 L
3868 2770 mt 3868 2842 L
3711 2199 mt 3783 2199 L
3747 2163 mt 3747 2235 L
3873 2825 mt 3945 2825 L
3909 2789 mt 3909 2861 L
3751 2972 mt 3823 2972 L
3787 2936 mt 3787 3008 L
3387 2589 mt 3459 2589 L
3423 2553 mt 3423 2625 L
2828 1572 mt 2900 1572 L
2864 1536 mt 2864 1608 L
3689 2467 mt 3761 2467 L
3725 2431 mt 3725 2503 L
4407 2558 mt 4479 2558 L
4443 2522 mt 4443 2594 L
2697 1787 mt 2769 1787 L
2733 1751 mt 2733 1823 L
4355 3297 mt 4427 3297 L
4391 3261 mt 4391 3333 L
2394 2576 mt 2466 2576 L
2430 2540 mt 2430 2612 L
2575 3118 mt 2647 3118 L
2611 3082 mt 2611 3154 L
3694 2844 mt 3766 2844 L
3730 2808 mt 3730 2880 L
3903 2445 mt 3975 2445 L
3939 2409 mt 3939 2481 L
4184 1255 mt 4256 1255 L
4220 1219 mt 4220 1291 L
3410 2619 mt 3482 2619 L
3446 2583 mt 3446 2655 L
4805 2506 mt 4877 2506 L
4841 2470 mt 4841 2542 L
2420 1740 mt 2492 1740 L
2456 1704 mt 2456 1776 L
5282 1809 mt 5354 1809 L
5318 1773 mt 5318 1845 L
6033 1816 mt 6105 1816 L
6069 1780 mt 6069 1852 L
3838 3039 mt 3910 3039 L
3874 3003 mt 3874 3075 L
2555  898 mt 2627  898 L
2591  862 mt 2591  934 L
4338 2811 mt 4410 2811 L
4374 2775 mt 4374 2847 L
4608 3658 mt 4680 3658 L
4644 3622 mt 4644 3694 L
4643 2352 mt 4715 2352 L
4679 2316 mt 4679 2388 L
2456 2279 mt 2528 2279 L
2492 2243 mt 2492 2315 L
1876 2270 mt 1948 2270 L
1912 2234 mt 1912 2306 L
5365 2864 mt 5437 2864 L
5401 2828 mt 5401 2900 L
3147 2514 mt 3219 2514 L
3183 2478 mt 3183 2550 L
3296 2835 mt 3368 2835 L
3332 2799 mt 3332 2871 L
3290 1954 mt 3362 1954 L
3326 1918 mt 3326 1990 L
3844 2261 mt 3916 2261 L
3880 2225 mt 3880 2297 L
3278 3675 mt 3350 3675 L
3314 3639 mt 3314 3711 L
4322 2664 mt 4394 2664 L
4358 2628 mt 4358 2700 L
4435 2523 mt 4507 2523 L
4471 2487 mt 4471 2559 L
2789 2204 mt 2861 2204 L
2825 2168 mt 2825 2240 L
2016 2709 mt 2088 2709 L
2052 2673 mt 2052 2745 L
4746  824 mt 4818  824 L
4782  788 mt 4782  860 L
5071 1917 mt 5143 1917 L
5107 1881 mt 5107 1953 L
4836 4023 mt 4908 4023 L
4872 3987 mt 4872 4059 L
2896 2078 mt 2968 2078 L
2932 2042 mt 2932 2114 L
5150 3527 mt 5222 3527 L
5186 3491 mt 5186 3563 L
2671 3641 mt 2743 3641 L
2707 3605 mt 2707 3677 L
3566 3515 mt 3638 3515 L
3602 3479 mt 3602 3551 L
3353 2624 mt 3425 2624 L
3389 2588 mt 3389 2660 L
3734 2018 mt 3806 2018 L
3770 1982 mt 3770 2054 L
4170 3171 mt 4242 3171 L
4206 3135 mt 4206 3207 L
3803 2414 mt 3875 2414 L
3839 2378 mt 3839 2450 L
3307 3731 mt 3379 3731 L
3343 3695 mt 3343 3767 L
3098 3093 mt 3170 3093 L
3134 3057 mt 3134 3129 L
4886 2396 mt 4958 2396 L
4922 2360 mt 4922 2432 L
4522 2792 mt 4594 2792 L
4558 2756 mt 4558 2828 L
3921 3191 mt 3993 3191 L
3957 3155 mt 3957 3227 L
4631 2062 mt 4703 2062 L
4667 2026 mt 4667 2098 L
3521 3144 mt 3593 3144 L
3557 3108 mt 3557 3180 L
4904 2325 mt 4976 2325 L
4940 2289 mt 4940 2361 L
5047 1794 mt 5119 1794 L
5083 1758 mt 5083 1830 L
2595 1419 mt 2667 1419 L
2631 1383 mt 2631 1455 L
3577 2379 mt 3649 2379 L
3613 2343 mt 3613 2415 L
3538 1434 mt 3610 1434 L
3574 1398 mt 3574 1470 L
4074 2302 mt 4146 2302 L
4110 2266 mt 4110 2338 L
3123 3491 mt 3195 3491 L
3159 3455 mt 3159 3527 L
5321 3075 mt 5393 3075 L
5357 3039 mt 5357 3111 L
2479 3457 mt 2551 3457 L
2515 3421 mt 2515 3493 L
2218 1942 mt 2290 1942 L
2254 1906 mt 2254 1978 L
4585 2962 mt 4657 2962 L
4621 2926 mt 4621 2998 L
4922 2453 mt 4994 2453 L
4958 2417 mt 4958 2489 L
4121 2458 mt 4193 2458 L
4157 2422 mt 4157 2494 L
3891 3386 mt 3963 3386 L
3927 3350 mt 3927 3422 L
1481 2925 mt 1553 2925 L
1517 2889 mt 1517 2961 L
4015 2083 mt 4087 2083 L
4051 2047 mt 4051 2119 L
3267 2094 mt 3339 2094 L
3303 2058 mt 3303 2130 L
3319 2869 mt 3391 2869 L
3355 2833 mt 3355 2905 L
4667 2256 mt 4739 2256 L
4703 2220 mt 4703 2292 L
2931 2320 mt 3003 2320 L
2967 2284 mt 2967 2356 L
3000  724 mt 3072  724 L
3036  688 mt 3036  760 L
3393 2849 mt 3465 2849 L
3429 2813 mt 3429 2885 L
4372 1121 mt 4444 1121 L
4408 1085 mt 4408 1157 L
2980 2237 mt 3052 2237 L
3016 2201 mt 3016 2273 L
3867 2668 mt 3939 2668 L
3903 2632 mt 3903 2704 L
4021 2682 mt 4093 2682 L
4057 2646 mt 4057 2718 L
4236 4131 mt 4308 4131 L
4272 4095 mt 4272 4167 L
3214 2759 mt 3286 2759 L
3250 2723 mt 3250 2795 L
3438 3011 mt 3510 3011 L
3474 2975 mt 3474 3047 L
2821 2155 mt 2893 2155 L
2857 2119 mt 2857 2191 L
5828 3610 mt 5900 3610 L
5864 3574 mt 5864 3646 L
3454 2899 mt 3526 2899 L
3490 2863 mt 3490 2935 L
2749 3213 mt 2821 3213 L
2785 3177 mt 2785 3249 L
2859 2659 mt 2931 2659 L
2895 2623 mt 2895 2695 L
4266 2528 mt 4338 2528 L
4302 2492 mt 4302 2564 L
3934 2686 mt 4006 2686 L
3970 2650 mt 3970 2722 L
4107 3415 mt 4179 3415 L
4143 3379 mt 4143 3451 L
3740 3848 mt 3812 3848 L
3776 3812 mt 3776 3884 L
4775 1960 mt 4847 1960 L
4811 1924 mt 4811 1996 L
2565 1502 mt 2637 1502 L
2601 1466 mt 2601 1538 L
3085 2247 mt 3157 2247 L
3121 2211 mt 3121 2283 L
4228 2214 mt 4300 2214 L
4264 2178 mt 4264 2250 L
2757 3567 mt 2829 3567 L
2793 3531 mt 2793 3603 L
4869 1550 mt 4941 1550 L
4905 1514 mt 4905 1586 L
3594 2104 mt 3666 2104 L
3630 2068 mt 3630 2140 L
5024 1978 mt 5096 1978 L
5060 1942 mt 5060 2014 L
3153 2307 mt 3225 2307 L
3189 2271 mt 3189 2343 L
3555 2584 mt 3627 2584 L
3591 2548 mt 3591 2620 L
3313 2597 mt 3385 2597 L
3349 2561 mt 3349 2633 L
2085 2497 mt 2157 2497 L
2121 2461 mt 2121 2533 L
4472 2311 mt 4544 2311 L
4508 2275 mt 4508 2347 L
3347 1878 mt 3419 1878 L
3383 1842 mt 3383 1914 L
3027 3184 mt 3099 3184 L
3063 3148 mt 3063 3220 L
1259 3273 mt 1331 3273 L
1295 3237 mt 1295 3309 L
1387 2035 mt 1459 2035 L
1423 1999 mt 1423 2071 L
2523 3242 mt 2595 3242 L
2559 3206 mt 2559 3278 L
3342 2946 mt 3414 2946 L
3378 2910 mt 3378 2982 L
3261 1538 mt 3333 1538 L
3297 1502 mt 3297 1574 L
4306 2637 mt 4378 2637 L
4342 2601 mt 4342 2673 L
3046 2099 mt 3118 2099 L
3082 2063 mt 3082 2135 L
4041 4072 mt 4113 4072 L
4077 4036 mt 4077 4108 L
3897 3908 mt 3969 3908 L
3933 3872 mt 3933 3944 L
4619 1892 mt 4691 1892 L
4655 1856 mt 4655 1928 L
2368 2427 mt 2440 2427 L
2404 2391 mt 2404 2463 L
3505 2242 mt 3577 2242 L
3541 2206 mt 3541 2278 L
3404 2125 mt 3476 2125 L
3440 2089 mt 3440 2161 L
4054 3405 mt 4126 3405 L
4090 3369 mt 4090 3441 L
4532 1845 mt 4604 1845 L
4568 1809 mt 4568 1881 L
4574 3306 mt 4646 3306 L
4610 3270 mt 4610 3342 L
2327 2218 mt 2399 2218 L
2363 2182 mt 2363 2254 L
6225 2930 mt 6297 2930 L
6261 2894 mt 6261 2966 L
2765 2334 mt 2837 2334 L
2801 2298 mt 2801 2370 L
3471 1526 mt 3543 1526 L
3507 1490 mt 3507 1562 L
4213 2741 mt 4285 2741 L
4249 2705 mt 4249 2777 L
1937 2135 mt 2009 2135 L
1973 2099 mt 1973 2171 L
3376 2736 mt 3448 2736 L
3412 2700 mt 3412 2772 L
4390 3051 mt 4462 3051 L
4426 3015 mt 4426 3087 L
3477 2480 mt 3549 2480 L
3513 2444 mt 3513 2516 L
2201 2764 mt 2273 2764 L
2237 2728 mt 2237 2800 L
4206 2713 mt 4278 2713 L
4242 2677 mt 4242 2749 L
4693 2057 mt 4765 2057 L
4729 2021 mt 4729 2093 L
3172 2488 mt 3244 2488 L
3208 2452 mt 3208 2524 L
2836 1732 mt 2908 1732 L
2872 1696 mt 2872 1768 L
3809 3468 mt 3881 3468 L
3845 3432 mt 3845 3504 L
3672 2773 mt 3744 2773 L
3708 2737 mt 3708 2809 L
4191 2046 mt 4263 2046 L
4227 2010 mt 4227 2082 L
5468 1872 mt 5540 1872 L
5504 1836 mt 5504 1908 L
3797 2989 mt 3869 2989 L
3833 2953 mt 3833 3025 L
3510 3367 mt 3582 3367 L
3546 3331 mt 3546 3403 L
4364 2519 mt 4436 2519 L
4400 2483 mt 4400 2555 L
2966 1671 mt 3038 1671 L
3002 1635 mt 3002 1707 L
2874 1898 mt 2946 1898 L
2910 1862 mt 2910 1934 L
2235 2007 mt 2307 2007 L
2271 1971 mt 2271 2043 L
3757 2120 mt 3829 2120 L
3793 2084 mt 3793 2156 L
3449 1936 mt 3521 1936 L
3485 1900 mt 3485 1972 L
3728 3081 mt 3800 3081 L
3764 3045 mt 3764 3117 L
3952 2541 mt 4024 2541 L
3988 2505 mt 3988 2577 L
3527 2914 mt 3599 2914 L
3563 2878 mt 3563 2950 L
4163 1514 mt 4235 1514 L
4199 1478 mt 4199 1550 L
3627 3358 mt 3699 3358 L
3663 3322 mt 3663 3394 L
2881 3693 mt 2953 3693 L
2917 3657 mt 2917 3729 L
2605 1371 mt 2677 1371 L
2641 1335 mt 2641 1407 L
4002 1277 mt 4074 1277 L
4038 1241 mt 4038 1313 L
5122 3331 mt 5194 3331 L
5158 3295 mt 5158 3367 L
4135 2370 mt 4207 2370 L
4171 2334 mt 4171 2406 L
3683 1593 mt 3755 1593 L
3719 1557 mt 3719 1629 L
3196 1715 mt 3268 1715 L
3232 1679 mt 3232 1751 L
3655 1858 mt 3727 1858 L
3691 1822 mt 3691 1894 L
3091 3063 mt 3163 3063 L
3127 3027 mt 3127 3099 L
3226 1662 mt 3298 1662 L
3262 1626 mt 3262 1698 L
3129 3235 mt 3201 3235 L
3165 3199 mt 3165 3271 L
4114 2288 mt 4186 2288 L
4150 2252 mt 4150 2324 L
3104 2365 mt 3176 2365 L
3140 2329 mt 3140 2401 L
2643 2727 mt 2715 2727 L
2679 2691 mt 2679 2763 L
1722 2718 mt 1794 2718 L
1758 2682 mt 1758 2754 L
5096  957 mt 5168  957 L
5132  921 mt 5132  993 L
3616 1634 mt 3688 1634 L
3652 1598 mt 3652 1670 L
3381 1388 mt 3453 1388 L
3417 1352 mt 3417 1424 L
3780 2731 mt 3852 2731 L
3816 2695 mt 3816 2767 L
3370 2904 mt 3442 2904 L
3406 2868 mt 3406 2940 L
3364  564 mt 3436  564 L
3400  528 mt 3400  600 L
3560 1748 mt 3632 1748 L
3596 1712 mt 3596 1784 L
2910 2920 mt 2982 2920 L
2946 2884 mt 2946 2956 L
2282 2815 mt 2354 2815 L
2318 2779 mt 2318 2851 L
2586 3125 mt 2658 3125 L
2622 3089 mt 2622 3161 L
3116 2859 mt 3188 2859 L
3152 2823 mt 3152 2895 L
4425 1838 mt 4497 1838 L
4461 1802 mt 4461 1874 L
1766 2909 mt 1838 2909 L
1802 2873 mt 1802 2945 L
4149 3376 mt 4221 3376 L
4185 3340 mt 4185 3412 L
4492 1990 mt 4564 1990 L
4528 1954 mt 4528 2026 L
1674 3099 mt 1746 3099 L
1710 3063 mt 1710 3135 L
3927 2392 mt 3999 2392 L
3963 2356 mt 3963 2428 L
4047 2978 mt 4119 2978 L
4083 2942 mt 4083 3014 L
2924 2150 mt 2996 2150 L
2960 2114 mt 2960 2186 L
2615 2418 mt 2687 2418 L
2651 2382 mt 2651 2454 L
4941 1561 mt 5013 1561 L
4977 1525 mt 4977 1597 L
2706 1643 mt 2778 1643 L
2742 1607 mt 2742 1679 L
3078 2830 mt 3150 2830 L
3114 2794 mt 3114 2866 L
4080 2170 mt 4152 2170 L
4116 2134 mt 4116 2206 L
4243 1764 mt 4315 1764 L
4279 1728 mt 4279 1800 L
2355 3131 mt 2427 3131 L
2391 3095 mt 2391 3167 L
3066 3479 mt 3138 3479 L
3102 3443 mt 3102 3515 L
4282 1802 mt 4354 1802 L
4318 1766 mt 4318 1838 L
3996 3164 mt 4068 3164 L
4032 3128 mt 4032 3200 L
4655 1823 mt 4727 1823 L
4691 1787 mt 4691 1859 L
3861 4305 mt 3933 4305 L
3897 4269 mt 3897 4341 L
3814 3069 mt 3886 3069 L
3850 3033 mt 3850 3105 L
3915 2801 mt 3987 2801 L
3951 2765 mt 3951 2837 L
3644 2140 mt 3716 2140 L
3680 2104 mt 3680 2176 L
3336 3265 mt 3408 3265 L
3372 3229 mt 3372 3301 L
2126 2051 mt 2198 2051 L
2162 2015 mt 2162 2087 L
4177 1865 mt 4249 1865 L
4213 1829 mt 4213 1901 L
3638 3112 mt 3710 3112 L
3674 3076 mt 3674 3148 L
2938 1462 mt 3010 1462 L
2974 1426 mt 2974 1498 L
2888 3395 mt 2960 3395 L
2924 3359 mt 2924 3431 L
2732 3797 mt 2804 3797 L
2768 3761 mt 2768 3833 L
3482 3281 mt 3554 3281 L
3518 3245 mt 3518 3317 L
 863 3022 mt  935 3022 L
 899 2986 mt  899 3058 L
3141 2567 mt 3213 2567 L
3177 2531 mt 3177 2603 L
3768 1448 mt 3840 1448 L
3804 1412 mt 3804 1484 L
3232 2405 mt 3304 2405 L
3268 2369 mt 3268 2441 L
4542 1972 mt 4614 1972 L
4578 1936 mt 4578 2008 L
2513 2194 mt 2585 2194 L
2549 2158 mt 2549 2230 L
4199 2228 mt 4271 2228 L
4235 2192 mt 4235 2264 L
5413 2298 mt 5485 2298 L
5449 2262 mt 5449 2334 L
3516 2475 mt 3588 2475 L
3552 2439 mt 3552 2511 L
3273 1152 mt 3345 1152 L
3309 1116 mt 3309 1188 L
4381 3822 mt 4453 3822 L
4417 3786 mt 4417 3858 L
3202 3227 mt 3274 3227 L
3238 3191 mt 3238 3263 L
3599 2673 mt 3671 2673 L
3635 2637 mt 3635 2709 L
2959 2967 mt 3031 2967 L
2995 2931 mt 2995 3003 L
3040 2704 mt 3112 2704 L
3076 2668 mt 3076 2740 L
4789 3340 mt 4861 3340 L
4825 3304 mt 4825 3376 L
2781 3206 mt 2853 3206 L
2817 3170 mt 2817 3242 L
3820 3595 mt 3892 3595 L
3856 3559 mt 3856 3631 L
3443 2067 mt 3515 2067 L
3479 2031 mt 3479 2103 L
3958 2894 mt 4030 2894 L
3994 2858 mt 3994 2930 L
1991 2951 mt 2063 2951 L
2027 2915 mt 2027 2987 L
4259 1930 mt 4331 1930 L
4295 1894 mt 4295 1966 L
3666 2029 mt 3738 2029 L
3702 1993 mt 3702 2065 L
2715 2189 mt 2787 2189 L
2751 2153 mt 2751 2225 L
3359 2691 mt 3431 2691 L
3395 2655 mt 3395 2727 L
4274 1087 mt 4346 1087 L
4310 1051 mt 4310 1123 L
5531 1995 mt 5603 1995 L
5567 1959 mt 5567 2031 L
2146 2338 mt 2218 2338 L
2182 2302 mt 2182 2374 L
3249 2750 mt 3321 2750 L
3285 2714 mt 3285 2786 L
3178 3752 mt 3250 3752 L
3214 3716 mt 3214 3788 L
2381 2854 mt 2453 2854 L
2417 2818 mt 2417 2890 L
4100 2545 mt 4172 2545 L
4136 2509 mt 4136 2581 L
3466 1756 mt 3538 1756 L
3502 1720 mt 3502 1792 L
4142 2549 mt 4214 2549 L
4178 2513 mt 4178 2585 L
2652 2388 mt 2724 2388 L
2688 2352 mt 2688 2424 L
4034 3106 mt 4106 3106 L
4070 3070 mt 4070 3142 L
3971 2650 mt 4043 2650 L
4007 2614 mt 4007 2686 L
3190 2615 mt 3262 2615 L
3226 2579 mt 3226 2651 L
4009 2160 mt 4081 2160 L
4045 2124 mt 4045 2196 L
4416 3198 mt 4488 3198 L
4452 3162 mt 4452 3234 L
1965 2677 mt 2037 2677 L
2001 2641 mt 2001 2713 L
3946 2782 mt 4018 2782 L
3982 2746 mt 3982 2818 L
2805 2935 mt 2877 2935 L
2841 2899 mt 2841 2971 L
5245 2700 mt 5317 2700 L
5281 2664 mt 5281 2736 L
4453 1923 mt 4525 1923 L
4489 1887 mt 4489 1959 L
3723 1336 mt 3795 1336 L
3759 1300 mt 3759 1372 L
2689 1772 mt 2761 1772 L
2725 1736 mt 2725 1808 L
4251 1049 mt 4323 1049 L
4287 1013 mt 4287 1085 L
3544 3017 mt 3616 3017 L
3580 2981 mt 3580 3053 L
3785 2223 mt 3857 2223 L
3821 2187 mt 3821 2259 L
5211 3137 mt 5283 3137 L
5247 3101 mt 5247 3173 L
3398 2879 mt 3470 2879 L
3434 2843 mt 3434 2915 L
2502 2493 mt 2574 2493 L
2538 2457 mt 2538 2529 L
3989 2145 mt 4061 2145 L
4025 2109 mt 4025 2181 L
4060 3942 mt 4132 3942 L
4096 3906 mt 4096 3978 L
3325 2115 mt 3397 2115 L
3361 2079 mt 3361 2151 L
3700 2209 mt 3772 2209 L
3736 2173 mt 3736 2245 L
2490 2956 mt 2562 2956 L
2526 2920 mt 2526 2992 L
3762 2889 mt 3834 2889 L
3798 2853 mt 3798 2925 L
4482 2532 mt 4554 2532 L
4518 2496 mt 4518 2568 L
2797 3087 mt 2869 3087 L
2833 3051 mt 2833 3123 L
4760 2695 mt 4832 2695 L
4796 2659 mt 4796 2731 L
3850 2073 mt 3922 2073 L
3886 2037 mt 3886 2109 L
2545 1298 mt 2617 1298 L
2581 1262 mt 2581 1334 L
2662 3877 mt 2734 3877 L
2698 3841 mt 2698 3913 L
4732 1006 mt 4804 1006 L
4768  970 mt 4768 1042 L
2432 2628 mt 2504 2628 L
2468 2592 mt 2468 2664 L
4820 3250 mt 4892 3250 L
4856 3214 mt 4856 3286 L
3909 2275 mt 3981 2275 L
3945 2239 mt 3945 2311 L
4463 2611 mt 4535 2611 L
4499 2575 mt 4499 2647 L
1907 2940 mt 1979 2940 L
1943 2904 mt 1943 2976 L
3208 3711 mt 3280 3711 L
3244 3675 mt 3244 3747 L
3033 2251 mt 3105 2251 L
3069 2215 mt 3069 2287 L
5606 2284 mt 5678 2284 L
5642 2248 mt 5642 2320 L
3661 3057 mt 3733 3057 L
3697 3021 mt 3697 3093 L
4094 3625 mt 4166 3625 L
4130 3589 mt 4130 3661 L
2407 2884 mt 2479 2884 L
2443 2848 mt 2443 2920 L
3677 1966 mt 3749 1966 L
3713 1930 mt 3713 2002 L
2444 2316 mt 2516 2316 L
2480 2280 mt 2480 2352 L
3493 2432 mt 3565 2432 L
3529 2396 mt 3529 2468 L
1619 2745 mt 1691 2745 L
1655 2709 mt 1655 2781 L
4680 2347 mt 4752 2347 L
4716 2311 mt 4716 2383 L
3488 1723 mt 3560 1723 L
3524 1687 mt 3524 1759 L
3588 2778 mt 3660 2778 L
3624 2742 mt 3624 2814 L
3166 2501 mt 3238 2501 L
3202 2465 mt 3202 2537 L
3013 2383 mt 3085 2383 L
3049 2347 mt 3049 2419 L
4512 1181 mt 4584 1181 L
4548 1145 mt 4548 1217 L
2298 1680 mt 2370 1680 L
2334 1644 mt 2334 1716 L
3649 2787 mt 3721 2787 L
3685 2751 mt 3685 2823 L
3302 1698 mt 3374 1698 L
3338 1662 mt 3338 1734 L
2993 3314 mt 3065 3314 L
3029 3278 mt 3029 3350 L
3549 1851 mt 3621 1851 L
3585 1815 mt 3585 1887 L
2267 3000 mt 2339 3000 L
2303 2964 mt 2303 3036 L
4706 3257 mt 4778 3257 L
4742 3221 mt 4742 3293 L
1556 2165 mt 1628 2165 L
1592 2129 mt 1592 2201 L
3745 2440 mt 3817 2440 L
3781 2404 mt 3781 2476 L
2844 3436 mt 2916 3436 L
2880 3400 mt 2880 3472 L
2680 1614 mt 2752 1614 L
2716 1578 mt 2716 1650 L
3499 2633 mt 3571 2633 L
3535 2597 mt 3535 2669 L
3135 3774 mt 3207 3774 L
3171 3738 mt 3171 3810 L
2624 1911 mt 2696 1911 L
2660 1875 mt 2660 1947 L
2165 2983 mt 2237 2983 L
2201 2947 mt 2201 3019 L
2040 2329 mt 2112 2329 L
2076 2293 mt 2076 2365 L
4314 3220 mt 4386 3220 L
4350 3184 mt 4350 3256 L
3964 3581 mt 4036 3581 L
4000 3545 mt 4000 3617 L
4961 2265 mt 5033 2265 L
4997 2229 mt 4997 2301 L
2106 2374 mt 2178 2374 L
2142 2338 mt 2142 2410 L
4156 2606 mt 4228 2606 L
4192 2570 mt 4192 2642 L
3184 3425 mt 3256 3425 L
3220 3389 mt 3220 3461 L
3220 3289 mt 3292 3289 L
3256 3253 mt 3256 3325 L
4398 3045 mt 4470 3045 L
4434 3009 mt 4434 3081 L
4347 2471 mt 4419 2471 L
4383 2435 mt 4383 2507 L
3855 2180 mt 3927 2180 L
3891 2144 mt 3891 2216 L
5700 2641 mt 5772 2641 L
5736 2605 mt 5736 2677 L
4128 3178 mt 4200 3178 L
4164 3142 mt 4164 3214 L
2987 1318 mt 3059 1318 L
3023 1282 mt 3023 1354 L
2183 3446 mt 2255 3446 L
2219 3410 mt 2219 3482 L
2903 2571 mt 2975 2571 L
2939 2535 mt 2939 2607 L
2063 3980 mt 2135 3980 L
2099 3944 mt 2099 4016 L
3160 2012 mt 3232 2012 L
3196 1976 mt 3196 2048 L
2534 1779 mt 2606 1779 L
2570 1743 mt 2570 1815 L
3432 2874 mt 3504 2874 L
3468 2838 mt 3468 2910 L
3571 2554 mt 3643 2554 L
3607 2518 mt 3607 2590 L
3330 2130 mt 3402 2130 L
3366 2094 mt 3366 2166 L
2341 3540 mt 2413 3540 L
2377 3504 mt 2377 3576 L
2973 2024 mt 3045 2024 L
3009 1988 mt 3009 2060 L
3110 2580 mt 3182 2580 L
3146 2544 mt 3146 2616 L
3977 2089 mt 4049 2089 L
4013 2053 mt 4013 2125 L
3426 1653 mt 3498 1653 L
3462 1617 mt 3462 1689 L
5180 2356 mt 5252 2356 L
5216 2320 mt 5216 2392 L
3072 2593 mt 3144 2593 L
3108 2557 mt 3108 2629 L
3007 2449 mt 3079 2449 L
3043 2413 mt 3043 2485 L
1842 1948 mt 1914 1948 L
1878 1912 mt 1878 1984 L
2813 1689 mt 2885 1689 L
2849 1653 mt 2849 1725 L
1805 2343 mt 1877 2343 L
1841 2307 mt 1841 2379 L
2723 2233 mt 2795 2233 L
2759 2197 mt 2759 2269 L
2773 2185 mt 2845 2185 L
2809 2149 mt 2809 2221 L
2740 1476 mt 2812 1476 L
2776 1440 mt 2776 1512 L
4444 2796 mt 4516 2796 L
4480 2760 mt 4480 2832 L
3826 1984 mt 3898 1984 L
3862 1948 mt 3862 2020 L
4067 3553 mt 4139 3553 L
4103 3517 mt 4103 3589 L
4221 1624 mt 4293 1624 L
4257 1588 mt 4257 1660 L
3610 3005 mt 3682 3005 L
3646 2969 mt 3646 3041 L
3582 2754 mt 3654 2754 L
3618 2718 mt 3618 2790 L
3717 1232 mt 3789 1232 L
3753 1196 mt 3753 1268 L
4564 1354 mt 4636 1354 L
4600 1318 mt 4600 1390 L
4597 2994 mt 4669 2994 L
4633 2958 mt 4633 3030 L
3415 2820 mt 3487 2820 L
3451 2784 mt 3451 2856 L
3059 1404 mt 3131 1404 L
3095 1368 mt 3095 1440 L
3284 2175 mt 3356 2175 L
3320 2139 mt 3320 2211 L
3633 2562 mt 3705 2562 L
3669 2526 mt 3669 2598 L
4501 3028 mt 4573 3028 L
4537 2992 mt 4537 3064 L
3020 1707 mt 3092 1707 L
3056 1671 mt 3056 1743 L
3237 3157 mt 3309 3157 L
3273 3121 mt 3273 3193 L
4028 3349 mt 4100 3349 L
4064 3313 mt 4064 3385 L
2251 2109 mt 2323 2109 L
2287 2073 mt 2287 2145 L
3706 2768 mt 3778 2768 L
3742 2732 mt 3742 2804 L
2952 2510 mt 3024 2510 L
2988 2474 mt 2988 2546 L
4981 1207 mt 5053 1207 L
5017 1171 mt 5017 1243 L
3879 1904 mt 3951 1904 L
3915 1868 mt 3915 1940 L
2634 1489 mt 2706 1489 L
2670 1453 mt 2670 1525 L
2312 2462 mt 2384 2462 L
2348 2426 mt 2348 2498 L
3255 3151 mt 3327 3151 L
3291 3115 mt 3291 3187 L
gs 899 414 5363 4203 rc
gr

0 sg
2799 5104 mt 
(\(F,DCTs,iMLP\)) s
 482 3259 mt  -90 rotate
(\(S,PAC,GMM\)) s
90 rotate
2975  223 mt 
(Corr = 0.02) s

end %%Color Dict

eplot
%%EndObject

epage
end

showpage

%%Trailer
%%EOF
