%!PS-Adobe-3.0 EPSF-3.0
%%Creator: MATLAB, The Mathworks, Inc. Version 7.7.0.471 (R2008b). Operating System: Microsoft Windows XP.
%%Title: Pictures\main_zoo_mvar_analysis_data_BMI_xcorr_bmi_p2_k2_1_2.eps
%%CreationDate: 10/26/2009  05:44:41
%%DocumentNeededFonts: Helvetica
%%DocumentProcessColors: Cyan Magenta Yellow Black
%%LanguageLevel: 2
%%Pages: 1
%%BoundingBox:    32   180   546   616
%%EndComments

%%BeginProlog
% MathWorks dictionary
/MathWorks 160 dict begin
% definition operators
/bdef {bind def} bind def
/ldef {load def} bind def
/xdef {exch def} bdef
/xstore {exch store} bdef
% operator abbreviations
/c  /clip ldef
/cc /concat ldef
/cp /closepath ldef
/gr /grestore ldef
/gs /gsave ldef
/mt /moveto ldef
/np /newpath ldef
/cm /currentmatrix ldef
/sm /setmatrix ldef
/rm /rmoveto ldef
/rl /rlineto ldef
/s {show newpath} bdef
/sc {setcmykcolor} bdef
/sr /setrgbcolor ldef
/sg /setgray ldef
/w /setlinewidth ldef
/j /setlinejoin ldef
/cap /setlinecap ldef
/rc {rectclip} bdef
/rf {rectfill} bdef
% page state control
/pgsv () def
/bpage {/pgsv save def} bdef
/epage {pgsv restore} bdef
/bplot /gsave ldef
/eplot {stroke grestore} bdef
% orientation switch
/portraitMode 0 def /landscapeMode 1 def /rotateMode 2 def
% coordinate system mappings
/dpi2point 0 def
% font control
/FontSize 0 def
/FMS {/FontSize xstore findfont [FontSize 0 0 FontSize neg 0 0]
  makefont setfont} bdef
/ISOLatin1Encoding where {pop /WindowsLatin1Encoding 256 array bdef
ISOLatin1Encoding WindowsLatin1Encoding copy pop
/.notdef/.notdef/quotesinglbase/florin/quotedblbase/ellipsis/dagger
/daggerdbl/circumflex/perthousand/Scaron/guilsinglleft/OE/.notdef/.notdef
/.notdef/.notdef/quoteleft/quoteright/quotedblleft/quotedblright/bullet
/endash/emdash/tilde/trademark/scaron/guilsinglright/oe/.notdef/.notdef
/Ydieresis WindowsLatin1Encoding 128 32 getinterval astore pop}
{/WindowsLatin1Encoding StandardEncoding bdef} ifelse
/reencode {exch dup where {pop load} {pop StandardEncoding} ifelse
  exch dup 3 1 roll findfont dup length dict begin
  { 1 index /FID ne {def}{pop pop} ifelse } forall
  /Encoding exch def currentdict end definefont pop} bdef
/isroman {findfont /CharStrings get /Agrave known} bdef
/FMSR {3 1 roll 1 index dup isroman {reencode} {pop pop} ifelse
  exch FMS} bdef
/csm {1 dpi2point div -1 dpi2point div scale neg translate
 dup landscapeMode eq {pop -90 rotate}
  {rotateMode eq {90 rotate} if} ifelse} bdef
% line types: solid, dotted, dashed, dotdash
/SO { [] 0 setdash } bdef
/DO { [.5 dpi2point mul 4 dpi2point mul] 0 setdash } bdef
/DA { [6 dpi2point mul] 0 setdash } bdef
/DD { [.5 dpi2point mul 4 dpi2point mul 6 dpi2point mul 4
  dpi2point mul] 0 setdash } bdef
% macros for lines and objects
/L {lineto stroke} bdef
/MP {3 1 roll moveto 1 sub {rlineto} repeat} bdef
/AP {{rlineto} repeat} bdef
/PDlw -1 def
/W {/PDlw currentlinewidth def setlinewidth} def
/PP {closepath eofill} bdef
/DP {closepath stroke} bdef
/MR {4 -2 roll moveto dup  0 exch rlineto exch 0 rlineto
  neg 0 exch rlineto closepath} bdef
/FR {MR stroke} bdef
/PR {MR fill} bdef
/L1i {{currentfile picstr readhexstring pop} image} bdef
/tMatrix matrix def
/MakeOval {newpath tMatrix currentmatrix pop translate scale
0 0 1 0 360 arc tMatrix setmatrix} bdef
/FO {MakeOval stroke} bdef
/PO {MakeOval fill} bdef
/PD {currentlinewidth 2 div 0 360 arc fill
   PDlw -1 eq not {PDlw w /PDlw -1 def} if} def
/FA {newpath tMatrix currentmatrix pop translate scale
  0 0 1 5 -2 roll arc tMatrix setmatrix stroke} bdef
/PA {newpath tMatrix currentmatrix pop	translate 0 0 moveto scale
  0 0 1 5 -2 roll arc closepath tMatrix setmatrix fill} bdef
/FAn {newpath tMatrix currentmatrix pop translate scale
  0 0 1 5 -2 roll arcn tMatrix setmatrix stroke} bdef
/PAn {newpath tMatrix currentmatrix pop translate 0 0 moveto scale
  0 0 1 5 -2 roll arcn closepath tMatrix setmatrix fill} bdef
/vradius 0 def /hradius 0 def /lry 0 def
/lrx 0 def /uly 0 def /ulx 0 def /rad 0 def
/MRR {/vradius xdef /hradius xdef /lry xdef /lrx xdef /uly xdef
  /ulx xdef newpath tMatrix currentmatrix pop ulx hradius add uly
  vradius add translate hradius vradius scale 0 0 1 180 270 arc 
  tMatrix setmatrix lrx hradius sub uly vradius add translate
  hradius vradius scale 0 0 1 270 360 arc tMatrix setmatrix
  lrx hradius sub lry vradius sub translate hradius vradius scale
  0 0 1 0 90 arc tMatrix setmatrix ulx hradius add lry vradius sub
  translate hradius vradius scale 0 0 1 90 180 arc tMatrix setmatrix
  closepath} bdef
/FRR {MRR stroke } bdef
/PRR {MRR fill } bdef
/MlrRR {/lry xdef /lrx xdef /uly xdef /ulx xdef /rad lry uly sub 2 div def
  newpath tMatrix currentmatrix pop ulx rad add uly rad add translate
  rad rad scale 0 0 1 90 270 arc tMatrix setmatrix lrx rad sub lry rad
  sub translate rad rad scale 0 0 1 270 90 arc tMatrix setmatrix
  closepath} bdef
/FlrRR {MlrRR stroke } bdef
/PlrRR {MlrRR fill } bdef
/MtbRR {/lry xdef /lrx xdef /uly xdef /ulx xdef /rad lrx ulx sub 2 div def
  newpath tMatrix currentmatrix pop ulx rad add uly rad add translate
  rad rad scale 0 0 1 180 360 arc tMatrix setmatrix lrx rad sub lry rad
  sub translate rad rad scale 0 0 1 0 180 arc tMatrix setmatrix
  closepath} bdef
/FtbRR {MtbRR stroke } bdef
/PtbRR {MtbRR fill } bdef
/stri 6 array def /dtri 6 array def
/smat 6 array def /dmat 6 array def
/tmat1 6 array def /tmat2 6 array def /dif 3 array def
/asub {/ind2 exch def /ind1 exch def dup dup
  ind1 get exch ind2 get sub exch } bdef
/tri_to_matrix {
  2 0 asub 3 1 asub 4 0 asub 5 1 asub
  dup 0 get exch 1 get 7 -1 roll astore } bdef
/compute_transform {
  dmat dtri tri_to_matrix tmat1 invertmatrix 
  smat stri tri_to_matrix tmat2 concatmatrix } bdef
/ds {stri astore pop} bdef
/dt {dtri astore pop} bdef
/db {2 copy /cols xdef /rows xdef mul dup 3 mul string
  currentfile 
  3 index 0 eq {/ASCIIHexDecode filter}
  {/ASCII85Decode filter 3 index 2 eq {/RunLengthDecode filter} if }
  ifelse exch readstring pop
  dup 0 3 index getinterval /rbmap xdef
  dup 2 index dup getinterval /gbmap xdef
  1 index dup 2 mul exch getinterval /bbmap xdef pop pop}bdef
/it {gs np dtri aload pop moveto lineto lineto cp c
  cols rows 8 compute_transform 
  rbmap gbmap bbmap true 3 colorimage gr}bdef
/il {newpath moveto lineto stroke}bdef
currentdict end def
%%EndProlog

%%BeginSetup
MathWorks begin

0 cap

end
%%EndSetup

%%Page: 1 1
%%BeginPageSetup
%%PageBoundingBox:    32   180   546   616
MathWorks begin
bpage
%%EndPageSetup

%%BeginObject: obj1
bplot

/dpi2point 12 def
portraitMode 0216 7344 csm

  174   -48  6173  5231 rc
85 dict begin %Colortable dictionary
/c0 { 0.000000 0.000000 0.000000 sr} bdef
/c1 { 1.000000 1.000000 1.000000 sr} bdef
/c2 { 0.900000 0.000000 0.000000 sr} bdef
/c3 { 0.000000 0.820000 0.000000 sr} bdef
/c4 { 0.000000 0.000000 0.800000 sr} bdef
/c5 { 0.910000 0.820000 0.320000 sr} bdef
/c6 { 1.000000 0.260000 0.820000 sr} bdef
/c7 { 0.000000 0.820000 0.820000 sr} bdef
c0
1 j
1 sg
   0    0 6919 5187 rf
6 w
0 4202 5363 0 0 -4202 898 4616 4 MP
PP
-5363 0 0 4202 5363 0 0 -4202 898 4616 5 MP stroke
4 w
DO
SO
6 w
0 sg
 898  414 mt 6261  414 L
 898 4616 mt 6261 4616 L
6261 4616 mt 6261  414 L
 898 4616 mt  898  414 L
 898 4616 mt 6261 4616 L
 898 4616 mt  898  414 L
1971 4616 mt 1971 4562 L
1971  415 mt 1971  468 L
%%IncludeResource: font Helvetica
/Helvetica /WindowsLatin1Encoding 240 FMSR

1805 4873 mt 
(0.2) s
3043 4616 mt 3043 4562 L
3043  415 mt 3043  468 L
2877 4873 mt 
(0.4) s
4116 4616 mt 4116 4562 L
4116  415 mt 4116  468 L
3950 4873 mt 
(0.6) s
5188 4616 mt 5188 4562 L
5188  415 mt 5188  468 L
5022 4873 mt 
(0.8) s
 898 4205 mt  952 4205 L
6261 4205 mt 6207 4205 L
 531 4294 mt 
(0.1) s
 898 3784 mt  952 3784 L
6261 3784 mt 6207 3784 L
 531 3873 mt 
(0.2) s
 898 3363 mt  952 3363 L
6261 3363 mt 6207 3363 L
 531 3452 mt 
(0.3) s
 898 2942 mt  952 2942 L
6261 2942 mt 6207 2942 L
 531 3031 mt 
(0.4) s
 898 2521 mt  952 2521 L
6261 2521 mt 6207 2521 L
 531 2610 mt 
(0.5) s
 898 2099 mt  952 2099 L
6261 2099 mt 6207 2099 L
 531 2188 mt 
(0.6) s
 898 1678 mt  952 1678 L
6261 1678 mt 6207 1678 L
 531 1767 mt 
(0.7) s
 898 1257 mt  952 1257 L
6261 1257 mt 6207 1257 L
 531 1346 mt 
(0.8) s
 898  836 mt  952  836 L
6261  836 mt 6207  836 L
 531  925 mt 
(0.9) s
 898  414 mt 6261  414 L
 898 4616 mt 6261 4616 L
6261 4616 mt 6261  414 L
 898 4616 mt  898  414 L
gs 898 414 5364 4203 rc
gr

/c8 { 0.000000 0.000000 1.000000 sr} bdef
c8
5517  431 mt 5589  431 L
5553  395 mt 5553  467 L
3289  421 mt 3361  421 L
3325  385 mt 3325  457 L
5742 4191 mt 5814 4191 L
5778 4155 mt 5778 4227 L
6149  420 mt 6221  420 L
6185  384 mt 6185  456 L
3566  429 mt 3638  429 L
3602  393 mt 3602  465 L
 894 1354 mt  966 1354 L
 930 1318 mt  930 1390 L
4989 1201 mt 5061 1201 L
5025 1165 mt 5025 1237 L
5801 1390 mt 5873 1390 L
5837 1354 mt 5837 1426 L
1296  479 mt 1368  479 L
1332  443 mt 1332  515 L
5685 3117 mt 5757 3117 L
5721 3081 mt 5721 3153 L
2351  439 mt 2423  439 L
2387  403 mt 2387  475 L
5603 1215 mt 5675 1215 L
5639 1179 mt 5639 1251 L
6177 1565 mt 6249 1565 L
6213 1529 mt 6213 1601 L
2070  425 mt 2142  425 L
2106  389 mt 2106  461 L
6213  474 mt 6285  474 L
6249  438 mt 6249  510 L
3873 3226 mt 3945 3226 L
3909 3190 mt 3909 3262 L
 936  421 mt 1008  421 L
 972  385 mt  972  457 L
6113 2418 mt 6185 2418 L
6149 2382 mt 6149 2454 L
6209  604 mt 6281  604 L
6245  568 mt 6245  640 L
5425 3355 mt 5497 3355 L
5461 3319 mt 5461 3391 L
5596 1449 mt 5668 1449 L
5632 1413 mt 5632 1485 L
 864 1667 mt  936 1667 L
 900 1631 mt  900 1703 L
6220  630 mt 6292  630 L
6256  594 mt 6256  666 L
1818  962 mt 1890  962 L
1854  926 mt 1854  998 L
4559  614 mt 4631  614 L
4595  578 mt 4595  650 L
3650  947 mt 3722  947 L
3686  911 mt 3686  983 L
3223 1190 mt 3295 1190 L
3259 1154 mt 3259 1226 L
5930  840 mt 6002  840 L
5966  804 mt 5966  876 L
6081  423 mt 6153  423 L
6117  387 mt 6117  459 L
6106  425 mt 6178  425 L
6142  389 mt 6142  461 L
5813  438 mt 5885  438 L
5849  402 mt 5849  474 L
6201 1953 mt 6273 1953 L
6237 1917 mt 6237 1989 L
4146  479 mt 4218  479 L
4182  443 mt 4182  515 L
6166  423 mt 6238  423 L
6202  387 mt 6202  459 L
5698  668 mt 5770  668 L
5734  632 mt 5734  704 L
6173  961 mt 6245  961 L
6209  925 mt 6209  997 L
6110  415 mt 6182  415 L
6146  379 mt 6146  451 L
 879  699 mt  951  699 L
 915  663 mt  915  735 L
6160  942 mt 6232  942 L
6196  906 mt 6196  978 L
3499  435 mt 3571  435 L
3535  399 mt 3535  471 L
1841 3642 mt 1913 3642 L
1877 3606 mt 1877 3678 L
5206  415 mt 5278  415 L
5242  379 mt 5242  451 L
6205  415 mt 6277  415 L
6241  379 mt 6241  451 L
1034  551 mt 1106  551 L
1070  515 mt 1070  587 L
6155  458 mt 6227  458 L
6191  422 mt 6191  494 L
6141 1049 mt 6213 1049 L
6177 1013 mt 6177 1085 L
1378  477 mt 1450  477 L
1414  441 mt 1414  513 L
4675  656 mt 4747  656 L
4711  620 mt 4711  692 L
4344  437 mt 4416  437 L
4380  401 mt 4380  473 L
5607 2044 mt 5679 2044 L
5643 2008 mt 5643 2080 L
4568 1518 mt 4640 1518 L
4604 1482 mt 4604 1554 L
5632  720 mt 5704  720 L
5668  684 mt 5668  756 L
5373  416 mt 5445  416 L
5409  380 mt 5409  452 L
1620 2771 mt 1692 2771 L
1656 2735 mt 1656 2807 L
5738 1239 mt 5810 1239 L
5774 1203 mt 5774 1275 L
4968  708 mt 5040  708 L
5004  672 mt 5004  744 L
 899  541 mt  971  541 L
 935  505 mt  935  577 L
4619 1641 mt 4691 1641 L
4655 1605 mt 4655 1677 L
 934  816 mt 1006  816 L
 970  780 mt  970  852 L
5916  584 mt 5988  584 L
5952  548 mt 5952  620 L
6222  944 mt 6294  944 L
6258  908 mt 6258  980 L
5600  602 mt 5672  602 L
5636  566 mt 5636  638 L
6204 4510 mt 6276 4510 L
6240 4474 mt 6240 4546 L
5792  512 mt 5864  512 L
5828  476 mt 5828  548 L
3096 2539 mt 3168 2539 L
3132 2503 mt 3132 2575 L
4499 4600 mt 4571 4600 L
4535 4564 mt 4535 4636 L
6204  510 mt 6276  510 L
6240  474 mt 6240  546 L
6217  419 mt 6289  419 L
6253  383 mt 6253  455 L
5729  750 mt 5801  750 L
5765  714 mt 5765  786 L
3630  423 mt 3702  423 L
3666  387 mt 3666  459 L
 875  880 mt  947  880 L
 911  844 mt  911  916 L
4107 2233 mt 4179 2233 L
4143 2197 mt 4143 2269 L
2695  423 mt 2767  423 L
2731  387 mt 2731  459 L
5084  430 mt 5156  430 L
5120  394 mt 5120  466 L
2140  588 mt 2212  588 L
2176  552 mt 2176  624 L
4416 1850 mt 4488 1850 L
4452 1814 mt 4452 1886 L
6127  678 mt 6199  678 L
6163  642 mt 6163  714 L
4970  416 mt 5042  416 L
5006  380 mt 5006  452 L
6209  837 mt 6281  837 L
6245  801 mt 6245  873 L
5918  496 mt 5990  496 L
5954  460 mt 5954  532 L
5681 1482 mt 5753 1482 L
5717 1446 mt 5717 1518 L
1006  449 mt 1078  449 L
1042  413 mt 1042  485 L
5617  860 mt 5689  860 L
5653  824 mt 5653  896 L
3919  454 mt 3991  454 L
3955  418 mt 3955  490 L
5921 2215 mt 5993 2215 L
5957 2179 mt 5957 2251 L
6051 3396 mt 6123 3396 L
6087 3360 mt 6087 3432 L
6221  416 mt 6293  416 L
6257  380 mt 6257  452 L
5624  439 mt 5696  439 L
5660  403 mt 5660  475 L
6191 1626 mt 6263 1626 L
6227 1590 mt 6227 1662 L
3177  526 mt 3249  526 L
3213  490 mt 3213  562 L
5851  432 mt 5923  432 L
5887  396 mt 5887  468 L
6224  422 mt 6296  422 L
6260  386 mt 6260  458 L
3460  799 mt 3532  799 L
3496  763 mt 3496  835 L
 943 2147 mt 1015 2147 L
 979 2111 mt  979 2183 L
 880  686 mt  952  686 L
 916  650 mt  916  722 L
1057  454 mt 1129  454 L
1093  418 mt 1093  490 L
 863  780 mt  935  780 L
 899  744 mt  899  816 L
6224  764 mt 6296  764 L
6260  728 mt 6260  800 L
 873  865 mt  945  865 L
 909  829 mt  909  901 L
2199  741 mt 2271  741 L
2235  705 mt 2235  777 L
5567 1171 mt 5639 1171 L
5603 1135 mt 5603 1207 L
4573  419 mt 4645  419 L
4609  383 mt 4609  455 L
3636 3051 mt 3708 3051 L
3672 3015 mt 3672 3087 L
5143 1167 mt 5215 1167 L
5179 1131 mt 5179 1203 L
2435 3626 mt 2507 3626 L
2471 3590 mt 2471 3662 L
6195 3598 mt 6267 3598 L
6231 3562 mt 6231 3634 L
6215 1112 mt 6287 1112 L
6251 1076 mt 6251 1148 L
5880  429 mt 5952  429 L
5916  393 mt 5916  465 L
3107  557 mt 3179  557 L
3143  521 mt 3143  593 L
6211 1703 mt 6283 1703 L
6247 1667 mt 6247 1739 L
5800 2975 mt 5872 2975 L
5836 2939 mt 5836 3011 L
3982 4559 mt 4054 4559 L
4018 4523 mt 4018 4595 L
2347 1248 mt 2419 1248 L
2383 1212 mt 2383 1284 L
5468  765 mt 5540  765 L
5504  729 mt 5504  801 L
3679 2172 mt 3751 2172 L
3715 2136 mt 3715 2208 L
3637  601 mt 3709  601 L
3673  565 mt 3673  637 L
4444  426 mt 4516  426 L
4480  390 mt 4480  462 L
2272 1336 mt 2344 1336 L
2308 1300 mt 2308 1372 L
1256 2363 mt 1328 2363 L
1292 2327 mt 1292 2399 L
6208  422 mt 6280  422 L
6244  386 mt 6244  458 L
5862  552 mt 5934  552 L
5898  516 mt 5898  588 L
 968 3539 mt 1040 3539 L
1004 3503 mt 1004 3575 L
1610  570 mt 1682  570 L
1646  534 mt 1646  606 L
6185  440 mt 6257  440 L
6221  404 mt 6221  476 L
1542  856 mt 1614  856 L
1578  820 mt 1578  892 L
3254  417 mt 3326  417 L
3290  381 mt 3290  453 L
6141  452 mt 6213  452 L
6177  416 mt 6177  488 L
5286 1112 mt 5358 1112 L
5322 1076 mt 5322 1148 L
 872 4551 mt  944 4551 L
 908 4515 mt  908 4587 L
5244 4376 mt 5316 4376 L
5280 4340 mt 5280 4412 L
1722  645 mt 1794  645 L
1758  609 mt 1758  681 L
6211 1417 mt 6283 1417 L
6247 1381 mt 6247 1453 L
5500 4554 mt 5572 4554 L
5536 4518 mt 5536 4590 L
5998  500 mt 6070  500 L
6034  464 mt 6034  536 L
5482  525 mt 5554  525 L
5518  489 mt 5518  561 L
6221 1295 mt 6293 1295 L
6257 1259 mt 6257 1331 L
4476 2004 mt 4548 2004 L
4512 1968 mt 4512 2040 L
5938 1057 mt 6010 1057 L
5974 1021 mt 5974 1093 L
5268  449 mt 5340  449 L
5304  413 mt 5304  485 L
5805  851 mt 5877  851 L
5841  815 mt 5841  887 L
5910  706 mt 5982  706 L
5946  670 mt 5946  742 L
5999  443 mt 6071  443 L
6035  407 mt 6035  479 L
5515 1017 mt 5587 1017 L
5551  981 mt 5551 1053 L
 862  423 mt  934  423 L
 898  387 mt  898  459 L
5499 1354 mt 5571 1354 L
5535 1318 mt 5535 1390 L
5859 2335 mt 5931 2335 L
5895 2299 mt 5895 2371 L
2291 1548 mt 2363 1548 L
2327 1512 mt 2327 1584 L
5381 1332 mt 5453 1332 L
5417 1296 mt 5417 1368 L
5958  442 mt 6030  442 L
5994  406 mt 5994  478 L
3491  506 mt 3563  506 L
3527  470 mt 3527  542 L
6192  542 mt 6264  542 L
6228  506 mt 6228  578 L
6129  549 mt 6201  549 L
6165  513 mt 6165  585 L
3031  571 mt 3103  571 L
3067  535 mt 3067  607 L
6224 4606 mt 6296 4606 L
6260 4570 mt 6260 4642 L
 863  442 mt  935  442 L
 899  406 mt  899  478 L
6175  415 mt 6247  415 L
6211  379 mt 6211  451 L
6141 4568 mt 6213 4568 L
6177 4532 mt 6177 4604 L
2447  517 mt 2519  517 L
2483  481 mt 2483  553 L
6098 1672 mt 6170 1672 L
6134 1636 mt 6134 1708 L
2384 4616 mt 2456 4616 L
2420 4580 mt 2420 4652 L
6206  561 mt 6278  561 L
6242  525 mt 6242  597 L
5234 3860 mt 5306 3860 L
5270 3824 mt 5270 3896 L
3505  458 mt 3577  458 L
3541  422 mt 3541  494 L
6173 1887 mt 6245 1887 L
6209 1851 mt 6209 1923 L
6154  417 mt 6226  417 L
6190  381 mt 6190  453 L
3515 1303 mt 3587 1303 L
3551 1267 mt 3551 1339 L
6188 1770 mt 6260 1770 L
6224 1734 mt 6224 1806 L
5682 1114 mt 5754 1114 L
5718 1078 mt 5718 1150 L
3289  424 mt 3361  424 L
3325  388 mt 3325  460 L
4202  414 mt 4274  414 L
4238  378 mt 4238  450 L
5100 1824 mt 5172 1824 L
5136 1788 mt 5136 1860 L
6188  474 mt 6260  474 L
6224  438 mt 6224  510 L
4877  433 mt 4949  433 L
4913  397 mt 4913  469 L
6036  424 mt 6108  424 L
6072  388 mt 6072  460 L
4126 4292 mt 4198 4292 L
4162 4256 mt 4162 4328 L
3316  722 mt 3388  722 L
3352  686 mt 3352  758 L
5837  668 mt 5909  668 L
5873  632 mt 5873  704 L
5919 4452 mt 5991 4452 L
5955 4416 mt 5955 4488 L
5668  910 mt 5740  910 L
5704  874 mt 5704  946 L
6084 2022 mt 6156 2022 L
6120 1986 mt 6120 2058 L
 867  834 mt  939  834 L
 903  798 mt  903  870 L
6117 4237 mt 6189 4237 L
6153 4201 mt 6153 4273 L
6036  870 mt 6108  870 L
6072  834 mt 6072  906 L
4391  832 mt 4463  832 L
4427  796 mt 4427  868 L
6205 2910 mt 6277 2910 L
6241 2874 mt 6241 2946 L
4660 4382 mt 4732 4382 L
4696 4346 mt 4696 4418 L
6221 2393 mt 6293 2393 L
6257 2357 mt 6257 2429 L
5938 1017 mt 6010 1017 L
5974  981 mt 5974 1053 L
6180  420 mt 6252  420 L
6216  384 mt 6216  456 L
6224 2433 mt 6296 2433 L
6260 2397 mt 6260 2469 L
2806 4081 mt 2878 4081 L
2842 4045 mt 2842 4117 L
6117 1644 mt 6189 1644 L
6153 1608 mt 6153 1680 L
6220 2172 mt 6292 2172 L
6256 2136 mt 6256 2208 L
2930  855 mt 3002  855 L
2966  819 mt 2966  891 L
6126  418 mt 6198  418 L
6162  382 mt 6162  454 L
5029  415 mt 5101  415 L
5065  379 mt 5065  451 L
3237  572 mt 3309  572 L
3273  536 mt 3273  608 L
6045  596 mt 6117  596 L
6081  560 mt 6081  632 L
1928 3856 mt 2000 3856 L
1964 3820 mt 1964 3892 L
6165  533 mt 6237  533 L
6201  497 mt 6201  569 L
2836  782 mt 2908  782 L
2872  746 mt 2872  818 L
6219  416 mt 6291  416 L
6255  380 mt 6255  452 L
1475  550 mt 1547  550 L
1511  514 mt 1511  586 L
5708  670 mt 5780  670 L
5744  634 mt 5744  706 L
5680  508 mt 5752  508 L
5716  472 mt 5716  544 L
5933 1691 mt 6005 1691 L
5969 1655 mt 5969 1727 L
6058 1299 mt 6130 1299 L
6094 1263 mt 6094 1335 L
4230  446 mt 4302  446 L
4266  410 mt 4266  482 L
5433  496 mt 5505  496 L
5469  460 mt 5469  532 L
6221 2545 mt 6293 2545 L
6257 2509 mt 6257 2581 L
2565  418 mt 2637  418 L
2601  382 mt 2601  454 L
6053  555 mt 6125  555 L
6089  519 mt 6089  591 L
6128  459 mt 6200  459 L
6164  423 mt 6164  495 L
2387  729 mt 2459  729 L
2423  693 mt 2423  765 L
5890  828 mt 5962  828 L
5926  792 mt 5926  864 L
6137 4607 mt 6209 4607 L
6173 4571 mt 6173 4643 L
6218 1668 mt 6290 1668 L
6254 1632 mt 6254 1704 L
4159  463 mt 4231  463 L
4195  427 mt 4195  499 L
3509 4577 mt 3581 4577 L
3545 4541 mt 3545 4613 L
5464  860 mt 5536  860 L
5500  824 mt 5500  896 L
6124  717 mt 6196  717 L
6160  681 mt 6160  753 L
 950 1261 mt 1022 1261 L
 986 1225 mt  986 1297 L
1600  429 mt 1672  429 L
1636  393 mt 1636  465 L
2407  687 mt 2479  687 L
2443  651 mt 2443  723 L
5827  421 mt 5899  421 L
5863  385 mt 5863  457 L
3821  860 mt 3893  860 L
3857  824 mt 3857  896 L
5993 2669 mt 6065 2669 L
6029 2633 mt 6029 2705 L
5520  415 mt 5592  415 L
5556  379 mt 5556  451 L
1788  429 mt 1860  429 L
1824  393 mt 1824  465 L
4720 1921 mt 4792 1921 L
4756 1885 mt 4756 1957 L
6104  582 mt 6176  582 L
6140  546 mt 6140  618 L
6207  583 mt 6279  583 L
6243  547 mt 6243  619 L
 946  577 mt 1018  577 L
 982  541 mt  982  613 L
6216  527 mt 6288  527 L
6252  491 mt 6252  563 L
2844  451 mt 2916  451 L
2880  415 mt 2880  487 L
5808  782 mt 5880  782 L
5844  746 mt 5844  818 L
 871 1517 mt  943 1517 L
 907 1481 mt  907 1553 L
2549 2139 mt 2621 2139 L
2585 2103 mt 2585 2175 L
1261 2686 mt 1333 2686 L
1297 2650 mt 1297 2722 L
 989  572 mt 1061  572 L
1025  536 mt 1025  608 L
4887 1688 mt 4959 1688 L
4923 1652 mt 4923 1724 L
5624  749 mt 5696  749 L
5660  713 mt 5660  785 L
5306  560 mt 5378  560 L
5342  524 mt 5342  596 L
6179 1648 mt 6251 1648 L
6215 1612 mt 6215 1684 L
6105  419 mt 6177  419 L
6141  383 mt 6141  455 L
 917  773 mt  989  773 L
 953  737 mt  953  809 L
6190  884 mt 6262  884 L
6226  848 mt 6226  920 L
2901 1354 mt 2973 1354 L
2937 1318 mt 2937 1390 L
1317  567 mt 1389  567 L
1353  531 mt 1353  603 L
3224 1323 mt 3296 1323 L
3260 1287 mt 3260 1359 L
6223 3416 mt 6295 3416 L
6259 3380 mt 6259 3452 L
6094  461 mt 6166  461 L
6130  425 mt 6130  497 L
3438  867 mt 3510  867 L
3474  831 mt 3474  903 L
6020  551 mt 6092  551 L
6056  515 mt 6056  587 L
5909 1186 mt 5981 1186 L
5945 1150 mt 5945 1222 L
6146 3583 mt 6218 3583 L
6182 3547 mt 6182 3619 L
3566  545 mt 3638  545 L
3602  509 mt 3602  581 L
4832 2350 mt 4904 2350 L
4868 2314 mt 4868 2386 L
1446  594 mt 1518  594 L
1482  558 mt 1482  630 L
6170  607 mt 6242  607 L
6206  571 mt 6206  643 L
6073 1549 mt 6145 1549 L
6109 1513 mt 6109 1585 L
6225  417 mt 6297  417 L
6261  381 mt 6261  453 L
6191 1717 mt 6263 1717 L
6227 1681 mt 6227 1753 L
4173  760 mt 4245  760 L
4209  724 mt 4209  796 L
1594  680 mt 1666  680 L
1630  644 mt 1630  716 L
5601 1066 mt 5673 1066 L
5637 1030 mt 5637 1102 L
5250 1019 mt 5322 1019 L
5286  983 mt 5286 1055 L
6172 1494 mt 6244 1494 L
6208 1458 mt 6208 1530 L
4415 1218 mt 4487 1218 L
4451 1182 mt 4451 1254 L
5377  428 mt 5449  428 L
5413  392 mt 5413  464 L
5515  707 mt 5587  707 L
5551  671 mt 5551  743 L
 904  856 mt  976  856 L
 940  820 mt  940  892 L
4320 3186 mt 4392 3186 L
4356 3150 mt 4356 3222 L
6223 1154 mt 6295 1154 L
6259 1118 mt 6259 1190 L
2079  602 mt 2151  602 L
2115  566 mt 2115  638 L
2513 1975 mt 2585 1975 L
2549 1939 mt 2549 2011 L
6203 1293 mt 6275 1293 L
6239 1257 mt 6239 1329 L
6216  415 mt 6288  415 L
6252  379 mt 6252  451 L
5118  527 mt 5190  527 L
5154  491 mt 5154  563 L
6193  433 mt 6265  433 L
6229  397 mt 6229  469 L
5762 1036 mt 5834 1036 L
5798 1000 mt 5798 1072 L
6192  432 mt 6264  432 L
6228  396 mt 6228  468 L
6220  743 mt 6292  743 L
6256  707 mt 6256  779 L
6053  432 mt 6125  432 L
6089  396 mt 6089  468 L
5746  497 mt 5818  497 L
5782  461 mt 5782  533 L
2732  963 mt 2804  963 L
2768  927 mt 2768  999 L
4229  516 mt 4301  516 L
4265  480 mt 4265  552 L
5520  416 mt 5592  416 L
5556  380 mt 5556  452 L
3542  944 mt 3614  944 L
3578  908 mt 3578  980 L
2033  590 mt 2105  590 L
2069  554 mt 2069  626 L
5918  418 mt 5990  418 L
5954  382 mt 5954  454 L
6069  415 mt 6141  415 L
6105  379 mt 6105  451 L
1824 1589 mt 1896 1589 L
1860 1553 mt 1860 1625 L
5472 3992 mt 5544 3992 L
5508 3956 mt 5508 4028 L
4951  575 mt 5023  575 L
4987  539 mt 4987  611 L
5719 4438 mt 5791 4438 L
5755 4402 mt 5755 4474 L
3198 1917 mt 3270 1917 L
3234 1881 mt 3234 1953 L
3197  606 mt 3269  606 L
3233  570 mt 3233  642 L
 864 1462 mt  936 1462 L
 900 1426 mt  900 1498 L
5074  965 mt 5146  965 L
5110  929 mt 5110 1001 L
6193  545 mt 6265  545 L
6229  509 mt 6229  581 L
5733 1261 mt 5805 1261 L
5769 1225 mt 5769 1297 L
3910  428 mt 3982  428 L
3946  392 mt 3946  464 L
2258 1365 mt 2330 1365 L
2294 1329 mt 2294 1401 L
3645  584 mt 3717  584 L
3681  548 mt 3681  620 L
1190 1550 mt 1262 1550 L
1226 1514 mt 1226 1586 L
 883 3514 mt  955 3514 L
 919 3478 mt  919 3550 L
6154  433 mt 6226  433 L
6190  397 mt 6190  469 L
5662 4324 mt 5734 4324 L
5698 4288 mt 5698 4360 L
2975 1802 mt 3047 1802 L
3011 1766 mt 3011 1838 L
6138  966 mt 6210  966 L
6174  930 mt 6174 1002 L
5321 2841 mt 5393 2841 L
5357 2805 mt 5357 2877 L
5227 3632 mt 5299 3632 L
5263 3596 mt 5263 3668 L
3649  604 mt 3721  604 L
3685  568 mt 3685  640 L
1536  578 mt 1608  578 L
1572  542 mt 1572  614 L
4296  506 mt 4368  506 L
4332  470 mt 4332  542 L
6217  416 mt 6289  416 L
6253  380 mt 6253  452 L
 948  984 mt 1020  984 L
 984  948 mt  984 1020 L
5638  686 mt 5710  686 L
5674  650 mt 5674  722 L
4997  442 mt 5069  442 L
5033  406 mt 5033  478 L
6144  419 mt 6216  419 L
6180  383 mt 6180  455 L
1159  495 mt 1231  495 L
1195  459 mt 1195  531 L
4414  783 mt 4486  783 L
4450  747 mt 4450  819 L
6047  417 mt 6119  417 L
6083  381 mt 6083  453 L
5692  745 mt 5764  745 L
5728  709 mt 5728  781 L
5938  417 mt 6010  417 L
5974  381 mt 5974  453 L
4793 4558 mt 4865 4558 L
4829 4522 mt 4829 4594 L
1646 4615 mt 1718 4615 L
1682 4579 mt 1682 4651 L
5063 4569 mt 5135 4569 L
5099 4533 mt 5099 4605 L
5264 2100 mt 5336 2100 L
5300 2064 mt 5300 2136 L
2519  560 mt 2591  560 L
2555  524 mt 2555  596 L
2131 1600 mt 2203 1600 L
2167 1564 mt 2167 1636 L
6148  624 mt 6220  624 L
6184  588 mt 6184  660 L
1239 4412 mt 1311 4412 L
1275 4376 mt 1275 4448 L
5170  667 mt 5242  667 L
5206  631 mt 5206  703 L
6187 1606 mt 6259 1606 L
6223 1570 mt 6223 1642 L
 900  445 mt  972  445 L
 936  409 mt  936  481 L
6224  694 mt 6296  694 L
6260  658 mt 6260  730 L
3199  480 mt 3271  480 L
3235  444 mt 3235  516 L
6204  430 mt 6276  430 L
6240  394 mt 6240  466 L
6166  613 mt 6238  613 L
6202  577 mt 6202  649 L
5848  482 mt 5920  482 L
5884  446 mt 5884  518 L
6012 4576 mt 6084 4576 L
6048 4540 mt 6048 4612 L
1083  427 mt 1155  427 L
1119  391 mt 1119  463 L
6110 1004 mt 6182 1004 L
6146  968 mt 6146 1040 L
4754  564 mt 4826  564 L
4790  528 mt 4790  600 L
 865 1734 mt  937 1734 L
 901 1698 mt  901 1770 L
5114  415 mt 5186  415 L
5150  379 mt 5150  451 L
6224 2975 mt 6296 2975 L
6260 2939 mt 6260 3011 L
3363 3103 mt 3435 3103 L
3399 3067 mt 3399 3139 L
6215  585 mt 6287  585 L
6251  549 mt 6251  621 L
5081 2054 mt 5153 2054 L
5117 2018 mt 5117 2090 L
6191 4587 mt 6263 4587 L
6227 4551 mt 6227 4623 L
4114  449 mt 4186  449 L
4150  413 mt 4150  485 L
4235  440 mt 4307  440 L
4271  404 mt 4271  476 L
5851 1819 mt 5923 1819 L
5887 1783 mt 5887 1855 L
6220 2801 mt 6292 2801 L
6256 2765 mt 6256 2837 L
4509  745 mt 4581  745 L
4545  709 mt 4545  781 L
6087  596 mt 6159  596 L
6123  560 mt 6123  632 L
5815  564 mt 5887  564 L
5851  528 mt 5851  600 L
3597 2306 mt 3669 2306 L
3633 2270 mt 3633 2342 L
6141  527 mt 6213  527 L
6177  491 mt 6177  563 L
6052  949 mt 6124  949 L
6088  913 mt 6088  985 L
6210  457 mt 6282  457 L
6246  421 mt 6246  493 L
5010 2181 mt 5082 2181 L
5046 2145 mt 5046 2217 L
5900 4216 mt 5972 4216 L
5936 4180 mt 5936 4252 L
2442 1720 mt 2514 1720 L
2478 1684 mt 2478 1756 L
4060 1997 mt 4132 1997 L
4096 1961 mt 4096 2033 L
5869 2740 mt 5941 2740 L
5905 2704 mt 5905 2776 L
6202  424 mt 6274  424 L
6238  388 mt 6238  460 L
3880  757 mt 3952  757 L
3916  721 mt 3916  793 L
5784  440 mt 5856  440 L
5820  404 mt 5820  476 L
1845  568 mt 1917  568 L
1881  532 mt 1881  604 L
5810 1115 mt 5882 1115 L
5846 1079 mt 5846 1151 L
1076  445 mt 1148  445 L
1112  409 mt 1112  481 L
3309  419 mt 3381  419 L
3345  383 mt 3345  455 L
2669  566 mt 2741  566 L
2705  530 mt 2705  602 L
6195  639 mt 6267  639 L
6231  603 mt 6231  675 L
2712  693 mt 2784  693 L
2748  657 mt 2748  729 L
 901  421 mt  973  421 L
 937  385 mt  937  457 L
2177 3965 mt 2249 3965 L
2213 3929 mt 2213 4001 L
5973 2011 mt 6045 2011 L
6009 1975 mt 6009 2047 L
6175  469 mt 6247  469 L
6211  433 mt 6211  505 L
4848  449 mt 4920  449 L
4884  413 mt 4884  485 L
5911  455 mt 5983  455 L
5947  419 mt 5947  491 L
3981 3331 mt 4053 3331 L
4017 3295 mt 4017 3367 L
6068 4192 mt 6140 4192 L
6104 4156 mt 6104 4228 L
5421  540 mt 5493  540 L
5457  504 mt 5457  576 L
6090 2515 mt 6162 2515 L
6126 2479 mt 6126 2551 L
5861  416 mt 5933  416 L
5897  380 mt 5897  452 L
2369 1939 mt 2441 1939 L
2405 1903 mt 2405 1975 L
2731  418 mt 2803  418 L
2767  382 mt 2767  454 L
2976 2763 mt 3048 2763 L
3012 2727 mt 3012 2799 L
6183  441 mt 6255  441 L
6219  405 mt 6219  477 L
6180  425 mt 6252  425 L
6216  389 mt 6216  461 L
6189  415 mt 6261  415 L
6225  379 mt 6225  451 L
 867 4578 mt  939 4578 L
 903 4542 mt  903 4614 L
1086  448 mt 1158  448 L
1122  412 mt 1122  484 L
3473  527 mt 3545  527 L
3509  491 mt 3509  563 L
6030  845 mt 6102  845 L
6066  809 mt 6066  881 L
gs 898 414 5364 4203 rc
gr

0 sg
2774 5104 mt 
(\(F,DCTb,GMM\)) s
 422 3343 mt  -90 rotate
(\(S,LFCC,GMM\)) s
90 rotate
2975  223 mt 
(Corr = 0.07) s

end %%Color Dict

eplot
%%EndObject

epage
end

showpage

%%Trailer
%%EOF
