%!PS-Adobe-3.0 EPSF-3.0
%%Creator: MATLAB, The Mathworks, Inc. Version 7.7.0.471 (R2008b). Operating System: Microsoft Windows XP.
%%Title: Pictures\main_zoo_mvar_analysis_data_BMI_xcorr_bmi_p1_k1_2_8.eps
%%CreationDate: 10/26/2009  05:43:58
%%DocumentNeededFonts: Helvetica
%%DocumentProcessColors: Cyan Magenta Yellow Black
%%LanguageLevel: 2
%%Pages: 1
%%BoundingBox:    32   180   549   616
%%EndComments

%%BeginProlog
% MathWorks dictionary
/MathWorks 160 dict begin
% definition operators
/bdef {bind def} bind def
/ldef {load def} bind def
/xdef {exch def} bdef
/xstore {exch store} bdef
% operator abbreviations
/c  /clip ldef
/cc /concat ldef
/cp /closepath ldef
/gr /grestore ldef
/gs /gsave ldef
/mt /moveto ldef
/np /newpath ldef
/cm /currentmatrix ldef
/sm /setmatrix ldef
/rm /rmoveto ldef
/rl /rlineto ldef
/s {show newpath} bdef
/sc {setcmykcolor} bdef
/sr /setrgbcolor ldef
/sg /setgray ldef
/w /setlinewidth ldef
/j /setlinejoin ldef
/cap /setlinecap ldef
/rc {rectclip} bdef
/rf {rectfill} bdef
% page state control
/pgsv () def
/bpage {/pgsv save def} bdef
/epage {pgsv restore} bdef
/bplot /gsave ldef
/eplot {stroke grestore} bdef
% orientation switch
/portraitMode 0 def /landscapeMode 1 def /rotateMode 2 def
% coordinate system mappings
/dpi2point 0 def
% font control
/FontSize 0 def
/FMS {/FontSize xstore findfont [FontSize 0 0 FontSize neg 0 0]
  makefont setfont} bdef
/ISOLatin1Encoding where {pop /WindowsLatin1Encoding 256 array bdef
ISOLatin1Encoding WindowsLatin1Encoding copy pop
/.notdef/.notdef/quotesinglbase/florin/quotedblbase/ellipsis/dagger
/daggerdbl/circumflex/perthousand/Scaron/guilsinglleft/OE/.notdef/.notdef
/.notdef/.notdef/quoteleft/quoteright/quotedblleft/quotedblright/bullet
/endash/emdash/tilde/trademark/scaron/guilsinglright/oe/.notdef/.notdef
/Ydieresis WindowsLatin1Encoding 128 32 getinterval astore pop}
{/WindowsLatin1Encoding StandardEncoding bdef} ifelse
/reencode {exch dup where {pop load} {pop StandardEncoding} ifelse
  exch dup 3 1 roll findfont dup length dict begin
  { 1 index /FID ne {def}{pop pop} ifelse } forall
  /Encoding exch def currentdict end definefont pop} bdef
/isroman {findfont /CharStrings get /Agrave known} bdef
/FMSR {3 1 roll 1 index dup isroman {reencode} {pop pop} ifelse
  exch FMS} bdef
/csm {1 dpi2point div -1 dpi2point div scale neg translate
 dup landscapeMode eq {pop -90 rotate}
  {rotateMode eq {90 rotate} if} ifelse} bdef
% line types: solid, dotted, dashed, dotdash
/SO { [] 0 setdash } bdef
/DO { [.5 dpi2point mul 4 dpi2point mul] 0 setdash } bdef
/DA { [6 dpi2point mul] 0 setdash } bdef
/DD { [.5 dpi2point mul 4 dpi2point mul 6 dpi2point mul 4
  dpi2point mul] 0 setdash } bdef
% macros for lines and objects
/L {lineto stroke} bdef
/MP {3 1 roll moveto 1 sub {rlineto} repeat} bdef
/AP {{rlineto} repeat} bdef
/PDlw -1 def
/W {/PDlw currentlinewidth def setlinewidth} def
/PP {closepath eofill} bdef
/DP {closepath stroke} bdef
/MR {4 -2 roll moveto dup  0 exch rlineto exch 0 rlineto
  neg 0 exch rlineto closepath} bdef
/FR {MR stroke} bdef
/PR {MR fill} bdef
/L1i {{currentfile picstr readhexstring pop} image} bdef
/tMatrix matrix def
/MakeOval {newpath tMatrix currentmatrix pop translate scale
0 0 1 0 360 arc tMatrix setmatrix} bdef
/FO {MakeOval stroke} bdef
/PO {MakeOval fill} bdef
/PD {currentlinewidth 2 div 0 360 arc fill
   PDlw -1 eq not {PDlw w /PDlw -1 def} if} def
/FA {newpath tMatrix currentmatrix pop translate scale
  0 0 1 5 -2 roll arc tMatrix setmatrix stroke} bdef
/PA {newpath tMatrix currentmatrix pop	translate 0 0 moveto scale
  0 0 1 5 -2 roll arc closepath tMatrix setmatrix fill} bdef
/FAn {newpath tMatrix currentmatrix pop translate scale
  0 0 1 5 -2 roll arcn tMatrix setmatrix stroke} bdef
/PAn {newpath tMatrix currentmatrix pop translate 0 0 moveto scale
  0 0 1 5 -2 roll arcn closepath tMatrix setmatrix fill} bdef
/vradius 0 def /hradius 0 def /lry 0 def
/lrx 0 def /uly 0 def /ulx 0 def /rad 0 def
/MRR {/vradius xdef /hradius xdef /lry xdef /lrx xdef /uly xdef
  /ulx xdef newpath tMatrix currentmatrix pop ulx hradius add uly
  vradius add translate hradius vradius scale 0 0 1 180 270 arc 
  tMatrix setmatrix lrx hradius sub uly vradius add translate
  hradius vradius scale 0 0 1 270 360 arc tMatrix setmatrix
  lrx hradius sub lry vradius sub translate hradius vradius scale
  0 0 1 0 90 arc tMatrix setmatrix ulx hradius add lry vradius sub
  translate hradius vradius scale 0 0 1 90 180 arc tMatrix setmatrix
  closepath} bdef
/FRR {MRR stroke } bdef
/PRR {MRR fill } bdef
/MlrRR {/lry xdef /lrx xdef /uly xdef /ulx xdef /rad lry uly sub 2 div def
  newpath tMatrix currentmatrix pop ulx rad add uly rad add translate
  rad rad scale 0 0 1 90 270 arc tMatrix setmatrix lrx rad sub lry rad
  sub translate rad rad scale 0 0 1 270 90 arc tMatrix setmatrix
  closepath} bdef
/FlrRR {MlrRR stroke } bdef
/PlrRR {MlrRR fill } bdef
/MtbRR {/lry xdef /lrx xdef /uly xdef /ulx xdef /rad lrx ulx sub 2 div def
  newpath tMatrix currentmatrix pop ulx rad add uly rad add translate
  rad rad scale 0 0 1 180 360 arc tMatrix setmatrix lrx rad sub lry rad
  sub translate rad rad scale 0 0 1 0 180 arc tMatrix setmatrix
  closepath} bdef
/FtbRR {MtbRR stroke } bdef
/PtbRR {MtbRR fill } bdef
/stri 6 array def /dtri 6 array def
/smat 6 array def /dmat 6 array def
/tmat1 6 array def /tmat2 6 array def /dif 3 array def
/asub {/ind2 exch def /ind1 exch def dup dup
  ind1 get exch ind2 get sub exch } bdef
/tri_to_matrix {
  2 0 asub 3 1 asub 4 0 asub 5 1 asub
  dup 0 get exch 1 get 7 -1 roll astore } bdef
/compute_transform {
  dmat dtri tri_to_matrix tmat1 invertmatrix 
  smat stri tri_to_matrix tmat2 concatmatrix } bdef
/ds {stri astore pop} bdef
/dt {dtri astore pop} bdef
/db {2 copy /cols xdef /rows xdef mul dup 3 mul string
  currentfile 
  3 index 0 eq {/ASCIIHexDecode filter}
  {/ASCII85Decode filter 3 index 2 eq {/RunLengthDecode filter} if }
  ifelse exch readstring pop
  dup 0 3 index getinterval /rbmap xdef
  dup 2 index dup getinterval /gbmap xdef
  1 index dup 2 mul exch getinterval /bbmap xdef pop pop}bdef
/it {gs np dtri aload pop moveto lineto lineto cp c
  cols rows 8 compute_transform 
  rbmap gbmap bbmap true 3 colorimage gr}bdef
/il {newpath moveto lineto stroke}bdef
currentdict end def
%%EndProlog

%%BeginSetup
MathWorks begin

0 cap

end
%%EndSetup

%%Page: 1 1
%%BeginPageSetup
%%PageBoundingBox:    32   180   549   616
MathWorks begin
bpage
%%EndPageSetup

%%BeginObject: obj1
bplot

/dpi2point 12 def
portraitMode 0216 7344 csm

  174   -48  6209  5231 rc
85 dict begin %Colortable dictionary
/c0 { 0.000000 0.000000 0.000000 sr} bdef
/c1 { 1.000000 1.000000 1.000000 sr} bdef
/c2 { 0.900000 0.000000 0.000000 sr} bdef
/c3 { 0.000000 0.820000 0.000000 sr} bdef
/c4 { 0.000000 0.000000 0.800000 sr} bdef
/c5 { 0.910000 0.820000 0.320000 sr} bdef
/c6 { 1.000000 0.260000 0.820000 sr} bdef
/c7 { 0.000000 0.820000 0.820000 sr} bdef
c0
1 j
1 sg
   0    0 6919 5187 rf
6 w
0 4202 5362 0 0 -4202 899 4616 4 MP
PP
-5362 0 0 4202 5362 0 0 -4202 899 4616 5 MP stroke
4 w
DO
SO
6 w
0 sg
 899  414 mt 6261  414 L
 899 4616 mt 6261 4616 L
6261 4616 mt 6261  414 L
 899 4616 mt  899  414 L
 899 4616 mt 6261 4616 L
 899 4616 mt  899  414 L
1648 4616 mt 1648 4562 L
1648  414 mt 1648  467 L
%%IncludeResource: font Helvetica
/Helvetica /WindowsLatin1Encoding 240 FMSR

1482 4873 mt 
(0.1) s
2398 4616 mt 2398 4562 L
2398  414 mt 2398  467 L
2232 4873 mt 
(0.2) s
3148 4616 mt 3148 4562 L
3148  414 mt 3148  467 L
2982 4873 mt 
(0.3) s
3898 4616 mt 3898 4562 L
3898  414 mt 3898  467 L
3732 4873 mt 
(0.4) s
4648 4616 mt 4648 4562 L
4648  414 mt 4648  467 L
4482 4873 mt 
(0.5) s
5398 4616 mt 5398 4562 L
5398  414 mt 5398  467 L
5232 4873 mt 
(0.6) s
6148 4616 mt 6148 4562 L
6148  414 mt 6148  467 L
5982 4873 mt 
(0.7) s
 899 3780 mt  952 3780 L
6261 3780 mt 6207 3780 L
 531 3869 mt 
(0.1) s
 899 2945 mt  952 2945 L
6261 2945 mt 6207 2945 L
 531 3034 mt 
(0.2) s
 899 2109 mt  952 2109 L
6261 2109 mt 6207 2109 L
 531 2198 mt 
(0.3) s
 899 1274 mt  952 1274 L
6261 1274 mt 6207 1274 L
 531 1363 mt 
(0.4) s
 899  439 mt  952  439 L
6261  439 mt 6207  439 L
 531  528 mt 
(0.5) s
 899  414 mt 6261  414 L
 899 4616 mt 6261 4616 L
6261 4616 mt 6261  414 L
 899 4616 mt  899  414 L
gs 899 414 5363 4203 rc
gr

/c8 { 0.000000 0.000000 1.000000 sr} bdef
c8
1653  414 mt 1725  414 L
1689  378 mt 1689  450 L
 866 4410 mt  938 4410 L
 902 4374 mt  902 4446 L
2139 4556 mt 2211 4556 L
2175 4520 mt 2175 4592 L
2372 4214 mt 2444 4214 L
2408 4178 mt 2408 4250 L
 874 4305 mt  946 4305 L
 910 4269 mt  910 4341 L
 965 4518 mt 1037 4518 L
1001 4482 mt 1001 4554 L
1200 3006 mt 1272 3006 L
1236 2970 mt 1236 3042 L
 863 4431 mt  935 4431 L
 899 4395 mt  899 4467 L
1287 4615 mt 1359 4615 L
1323 4579 mt 1323 4651 L
5731 3867 mt 5803 3867 L
5767 3831 mt 5767 3903 L
 863 4369 mt  935 4369 L
 899 4333 mt  899 4405 L
 929 4616 mt 1001 4616 L
 965 4580 mt  965 4652 L
 900 4608 mt  972 4608 L
 936 4572 mt  936 4644 L
 920 4596 mt  992 4596 L
 956 4560 mt  956 4632 L
2061 4298 mt 2133 4298 L
2097 4262 mt 2097 4334 L
1562 3582 mt 1634 3582 L
1598 3546 mt 1598 3618 L
 929 2973 mt 1001 2973 L
 965 2937 mt  965 3009 L
1371 4312 mt 1443 4312 L
1407 4276 mt 1407 4348 L
2100 4467 mt 2172 4467 L
2136 4431 mt 2136 4503 L
2546 3806 mt 2618 3806 L
2582 3770 mt 2582 3842 L
 901 4280 mt  973 4280 L
 937 4244 mt  937 4316 L
1293 4421 mt 1365 4421 L
1329 4385 mt 1329 4457 L
1595 4313 mt 1667 4313 L
1631 4277 mt 1631 4349 L
 935 4341 mt 1007 4341 L
 971 4305 mt  971 4377 L
3781 3642 mt 3853 3642 L
3817 3606 mt 3817 3678 L
2945 4507 mt 3017 4507 L
2981 4471 mt 2981 4543 L
1031 4049 mt 1103 4049 L
1067 4013 mt 1067 4085 L
2144 4514 mt 2216 4514 L
2180 4478 mt 2180 4550 L
2202 4550 mt 2274 4550 L
2238 4514 mt 2238 4586 L
4485 4400 mt 4557 4400 L
4521 4364 mt 4521 4436 L
1041 2943 mt 1113 2943 L
1077 2907 mt 1077 2979 L
1901 4327 mt 1973 4327 L
1937 4291 mt 1937 4363 L
2021 4387 mt 2093 4387 L
2057 4351 mt 2057 4423 L
4336 3514 mt 4408 3514 L
4372 3478 mt 4372 3550 L
2649 4594 mt 2721 4594 L
2685 4558 mt 2685 4630 L
1830 4393 mt 1902 4393 L
1866 4357 mt 1866 4429 L
1769 4576 mt 1841 4576 L
1805 4540 mt 1805 4612 L
1066 4519 mt 1138 4519 L
1102 4483 mt 1102 4555 L
1068 4315 mt 1140 4315 L
1104 4279 mt 1104 4351 L
 937 1753 mt 1009 1753 L
 973 1717 mt  973 1789 L
2627 4415 mt 2699 4415 L
2663 4379 mt 2663 4451 L
1072 4355 mt 1144 4355 L
1108 4319 mt 1108 4391 L
 879 3432 mt  951 3432 L
 915 3396 mt  915 3468 L
2354 3531 mt 2426 3531 L
2390 3495 mt 2390 3567 L
6015 3533 mt 6087 3533 L
6051 3497 mt 6051 3569 L
1824 4558 mt 1896 4558 L
1860 4522 mt 1860 4594 L
1023 1182 mt 1095 1182 L
1059 1146 mt 1059 1218 L
 868 4507 mt  940 4507 L
 904 4471 mt  904 4543 L
2675 4613 mt 2747 4613 L
2711 4577 mt 2711 4649 L
 866 4277 mt  938 4277 L
 902 4241 mt  902 4313 L
1795 4187 mt 1867 4187 L
1831 4151 mt 1831 4223 L
2463 4180 mt 2535 4180 L
2499 4144 mt 2499 4216 L
 926 4525 mt  998 4525 L
 962 4489 mt  962 4561 L
 956 4355 mt 1028 4355 L
 992 4319 mt  992 4391 L
1534 4518 mt 1606 4518 L
1570 4482 mt 1570 4554 L
2409 3754 mt 2481 3754 L
2445 3718 mt 2445 3790 L
1689 4178 mt 1761 4178 L
1725 4142 mt 1725 4214 L
2385 4613 mt 2457 4613 L
2421 4577 mt 2421 4649 L
3521 4432 mt 3593 4432 L
3557 4396 mt 3557 4468 L
1010 4357 mt 1082 4357 L
1046 4321 mt 1046 4393 L
2774 4074 mt 2846 4074 L
2810 4038 mt 2810 4110 L
1703 4462 mt 1775 4462 L
1739 4426 mt 1739 4498 L
2243 1148 mt 2315 1148 L
2279 1112 mt 2279 1184 L
3083 3682 mt 3155 3682 L
3119 3646 mt 3119 3718 L
1297 4615 mt 1369 4615 L
1333 4579 mt 1333 4651 L
1329 3890 mt 1401 3890 L
1365 3854 mt 1365 3926 L
3285 4609 mt 3357 4609 L
3321 4573 mt 3321 4645 L
 864 4612 mt  936 4612 L
 900 4576 mt  900 4648 L
1502 4608 mt 1574 4608 L
1538 4572 mt 1538 4644 L
 867 4416 mt  939 4416 L
 903 4380 mt  903 4452 L
1575 3838 mt 1647 3838 L
1611 3802 mt 1611 3874 L
1731 4580 mt 1803 4580 L
1767 4544 mt 1767 4616 L
 906 4307 mt  978 4307 L
 942 4271 mt  942 4343 L
1089 4614 mt 1161 4614 L
1125 4578 mt 1125 4650 L
 863 4572 mt  935 4572 L
 899 4536 mt  899 4608 L
 864 4295 mt  936 4295 L
 900 4259 mt  900 4331 L
4778 4503 mt 4850 4503 L
4814 4467 mt 4814 4539 L
1032 4584 mt 1104 4584 L
1068 4548 mt 1068 4620 L
1114 3873 mt 1186 3873 L
1150 3837 mt 1150 3909 L
1412 4578 mt 1484 4578 L
1448 4542 mt 1448 4614 L
1705 4253 mt 1777 4253 L
1741 4217 mt 1741 4289 L
 920 3521 mt  992 3521 L
 956 3485 mt  956 3557 L
 895 2277 mt  967 2277 L
 931 2241 mt  931 2313 L
1118 4290 mt 1190 4290 L
1154 4254 mt 1154 4326 L
3818 2343 mt 3890 2343 L
3854 2307 mt 3854 2379 L
1124 4223 mt 1196 4223 L
1160 4187 mt 1160 4259 L
1442 4608 mt 1514 4608 L
1478 4572 mt 1478 4644 L
4103 4570 mt 4175 4570 L
4139 4534 mt 4139 4606 L
3933 4607 mt 4005 4607 L
3969 4571 mt 3969 4643 L
1235 3733 mt 1307 3733 L
1271 3697 mt 1271 3769 L
1589 4549 mt 1661 4549 L
1625 4513 mt 1625 4585 L
1171 4321 mt 1243 4321 L
1207 4285 mt 1207 4357 L
 864 4325 mt  936 4325 L
 900 4289 mt  900 4361 L
1444 4604 mt 1516 4604 L
1480 4568 mt 1480 4640 L
 936 4543 mt 1008 4543 L
 972 4507 mt  972 4579 L
 925 3892 mt  997 3892 L
 961 3856 mt  961 3928 L
1523 3903 mt 1595 3903 L
1559 3867 mt 1559 3939 L
1415 4527 mt 1487 4527 L
1451 4491 mt 1451 4563 L
4971 4172 mt 5043 4172 L
5007 4136 mt 5007 4208 L
2371 4245 mt 2443 4245 L
2407 4209 mt 2407 4281 L
 863 1071 mt  935 1071 L
 899 1035 mt  899 1107 L
1871 4519 mt 1943 4519 L
1907 4483 mt 1907 4555 L
1596 1426 mt 1668 1426 L
1632 1390 mt 1632 1462 L
 863 4152 mt  935 4152 L
 899 4116 mt  899 4188 L
1977 4435 mt 2049 4435 L
2013 4399 mt 2013 4471 L
1693 4441 mt 1765 4441 L
1729 4405 mt 1729 4477 L
1354 4615 mt 1426 4615 L
1390 4579 mt 1390 4651 L
3461 4488 mt 3533 4488 L
3497 4452 mt 3497 4524 L
1010 4554 mt 1082 4554 L
1046 4518 mt 1046 4590 L
 870 4009 mt  942 4009 L
 906 3973 mt  906 4045 L
5427 4610 mt 5499 4610 L
5463 4574 mt 5463 4646 L
1794 4539 mt 1866 4539 L
1830 4503 mt 1830 4575 L
1015 4586 mt 1087 4586 L
1051 4550 mt 1051 4622 L
1700 4431 mt 1772 4431 L
1736 4395 mt 1736 4467 L
2138 4361 mt 2210 4361 L
2174 4325 mt 2174 4397 L
 990 4448 mt 1062 4448 L
1026 4412 mt 1026 4484 L
 882 4606 mt  954 4606 L
 918 4570 mt  918 4642 L
 863 4615 mt  935 4615 L
 899 4579 mt  899 4651 L
1231 3759 mt 1303 3759 L
1267 3723 mt 1267 3795 L
2164 2684 mt 2236 2684 L
2200 2648 mt 2200 2720 L
1365 4163 mt 1437 4163 L
1401 4127 mt 1401 4199 L
1397 4082 mt 1469 4082 L
1433 4046 mt 1433 4118 L
 864 4610 mt  936 4610 L
 900 4574 mt  900 4646 L
 908 2846 mt  980 2846 L
 944 2810 mt  944 2882 L
1148 3928 mt 1220 3928 L
1184 3892 mt 1184 3964 L
 863 3780 mt  935 3780 L
 899 3744 mt  899 3816 L
1075 4233 mt 1147 4233 L
1111 4197 mt 1111 4269 L
1482 4395 mt 1554 4395 L
1518 4359 mt 1518 4431 L
1384 4409 mt 1456 4409 L
1420 4373 mt 1420 4445 L
3356 4348 mt 3428 4348 L
3392 4312 mt 3392 4384 L
1535 4240 mt 1607 4240 L
1571 4204 mt 1571 4276 L
2242 3640 mt 2314 3640 L
2278 3604 mt 2278 3676 L
 959 4583 mt 1031 4583 L
 995 4547 mt  995 4619 L
 972 4592 mt 1044 4592 L
1008 4556 mt 1008 4628 L
 864 3865 mt  936 3865 L
 900 3829 mt  900 3901 L
1071 4590 mt 1143 4590 L
1107 4554 mt 1107 4626 L
1318 4545 mt 1390 4545 L
1354 4509 mt 1354 4581 L
1480 2843 mt 1552 2843 L
1516 2807 mt 1516 2879 L
1511 4419 mt 1583 4419 L
1547 4383 mt 1547 4455 L
1417 3905 mt 1489 3905 L
1453 3869 mt 1453 3941 L
1174 4615 mt 1246 4615 L
1210 4579 mt 1210 4651 L
3036 4615 mt 3108 4615 L
3072 4579 mt 3072 4651 L
3268 3649 mt 3340 3649 L
3304 3613 mt 3304 3685 L
1547 4312 mt 1619 4312 L
1583 4276 mt 1583 4348 L
3112 4155 mt 3184 4155 L
3148 4119 mt 3148 4191 L
4554 3962 mt 4626 3962 L
4590 3926 mt 4590 3998 L
1051 4606 mt 1123 4606 L
1087 4570 mt 1087 4642 L
3704 3601 mt 3776 3601 L
3740 3565 mt 3740 3637 L
3467 4596 mt 3539 4596 L
3503 4560 mt 3503 4632 L
 906 4093 mt  978 4093 L
 942 4057 mt  942 4129 L
4463 4544 mt 4535 4544 L
4499 4508 mt 4499 4580 L
1638 4257 mt 1710 4257 L
1674 4221 mt 1674 4293 L
1016 2838 mt 1088 2838 L
1052 2802 mt 1052 2874 L
2048 4483 mt 2120 4483 L
2084 4447 mt 2084 4519 L
1026 3980 mt 1098 3980 L
1062 3944 mt 1062 4016 L
2732 4482 mt 2804 4482 L
2768 4446 mt 2768 4518 L
 945 4563 mt 1017 4563 L
 981 4527 mt  981 4599 L
 868 4338 mt  940 4338 L
 904 4302 mt  904 4374 L
1735 4492 mt 1807 4492 L
1771 4456 mt 1771 4528 L
1977 4465 mt 2049 4465 L
2013 4429 mt 2013 4501 L
1310 3872 mt 1382 3872 L
1346 3836 mt 1346 3908 L
 880 4342 mt  952 4342 L
 916 4306 mt  916 4378 L
2182 3426 mt 2254 3426 L
2218 3390 mt 2218 3462 L
2520 4608 mt 2592 4608 L
2556 4572 mt 2556 4644 L
4165 4493 mt 4237 4493 L
4201 4457 mt 4201 4529 L
1139 3868 mt 1211 3868 L
1175 3832 mt 1175 3904 L
3404 3628 mt 3476 3628 L
3440 3592 mt 3440 3664 L
2040 4551 mt 2112 4551 L
2076 4515 mt 2076 4587 L
 954 4603 mt 1026 4603 L
 990 4567 mt  990 4639 L
 984 4356 mt 1056 4356 L
1020 4320 mt 1020 4392 L
1433 3217 mt 1505 3217 L
1469 3181 mt 1469 3253 L
1160 3658 mt 1232 3658 L
1196 3622 mt 1196 3694 L
1476 3828 mt 1548 3828 L
1512 3792 mt 1512 3864 L
 863 3960 mt  935 3960 L
 899 3924 mt  899 3996 L
1014 3727 mt 1086 3727 L
1050 3691 mt 1050 3763 L
 912 4571 mt  984 4571 L
 948 4535 mt  948 4607 L
1392 4370 mt 1464 4370 L
1428 4334 mt 1428 4406 L
2663 4539 mt 2735 4539 L
2699 4503 mt 2699 4575 L
 926 2746 mt  998 2746 L
 962 2710 mt  962 2782 L
 876 4602 mt  948 4602 L
 912 4566 mt  912 4638 L
1174 4613 mt 1246 4613 L
1210 4577 mt 1210 4649 L
3172 2097 mt 3244 2097 L
3208 2061 mt 3208 2133 L
 878 1790 mt  950 1790 L
 914 1754 mt  914 1826 L
1143 4597 mt 1215 4597 L
1179 4561 mt 1179 4633 L
4120 4282 mt 4192 4282 L
4156 4246 mt 4156 4318 L
1008 3002 mt 1080 3002 L
1044 2966 mt 1044 3038 L
1095 3389 mt 1167 3389 L
1131 3353 mt 1131 3425 L
 908 3618 mt  980 3618 L
 944 3582 mt  944 3654 L
3198 4566 mt 3270 4566 L
3234 4530 mt 3234 4602 L
 876 3182 mt  948 3182 L
 912 3146 mt  912 3218 L
 890 4589 mt  962 4589 L
 926 4553 mt  926 4625 L
1817 4200 mt 1889 4200 L
1853 4164 mt 1853 4236 L
1216 4282 mt 1288 4282 L
1252 4246 mt 1252 4318 L
 878 4467 mt  950 4467 L
 914 4431 mt  914 4503 L
 874 4466 mt  946 4466 L
 910 4430 mt  910 4502 L
2801 1210 mt 2873 1210 L
2837 1174 mt 2837 1246 L
1184 3086 mt 1256 3086 L
1220 3050 mt 1220 3122 L
1467 2178 mt 1539 2178 L
1503 2142 mt 1503 2214 L
 898 4473 mt  970 4473 L
 934 4437 mt  934 4509 L
 941 4539 mt 1013 4539 L
 977 4503 mt  977 4575 L
1248  693 mt 1320  693 L
1284  657 mt 1284  729 L
 897 3443 mt  969 3443 L
 933 3407 mt  933 3479 L
3819 4540 mt 3891 4540 L
3855 4504 mt 3855 4576 L
1939 4509 mt 2011 4509 L
1975 4473 mt 1975 4545 L
 932 4576 mt 1004 4576 L
 968 4540 mt  968 4612 L
 869 4523 mt  941 4523 L
 905 4487 mt  905 4559 L
1059 3590 mt 1131 3590 L
1095 3554 mt 1095 3626 L
1593 4539 mt 1665 4539 L
1629 4503 mt 1629 4575 L
1682 4604 mt 1754 4604 L
1718 4568 mt 1718 4640 L
4916 3794 mt 4988 3794 L
4952 3758 mt 4952 3830 L
 991 4573 mt 1063 4573 L
1027 4537 mt 1027 4609 L
 877 4294 mt  949 4294 L
 913 4258 mt  913 4330 L
1118 4550 mt 1190 4550 L
1154 4514 mt 1154 4586 L
1014 4007 mt 1086 4007 L
1050 3971 mt 1050 4043 L
1305 4308 mt 1377 4308 L
1341 4272 mt 1341 4344 L
2198 2857 mt 2270 2857 L
2234 2821 mt 2234 2893 L
 870 3127 mt  942 3127 L
 906 3091 mt  906 3163 L
1025 4515 mt 1097 4515 L
1061 4479 mt 1061 4551 L
1426 4029 mt 1498 4029 L
1462 3993 mt 1462 4065 L
2252 3455 mt 2324 3455 L
2288 3419 mt 2288 3491 L
1126 4577 mt 1198 4577 L
1162 4541 mt 1162 4613 L
1494 4608 mt 1566 4608 L
1530 4572 mt 1530 4644 L
1185 3529 mt 1257 3529 L
1221 3493 mt 1221 3565 L
 955 4580 mt 1027 4580 L
 991 4544 mt  991 4616 L
1676 3573 mt 1748 3573 L
1712 3537 mt 1712 3609 L
2914 4615 mt 2986 4615 L
2950 4579 mt 2950 4651 L
1111 4567 mt 1183 4567 L
1147 4531 mt 1147 4603 L
1832 4506 mt 1904 4506 L
1868 4470 mt 1868 4542 L
 963 3997 mt 1035 3997 L
 999 3961 mt  999 4033 L
3352 4591 mt 3424 4591 L
3388 4555 mt 3388 4627 L
 868 3872 mt  940 3872 L
 904 3836 mt  904 3908 L
1711 3628 mt 1783 3628 L
1747 3592 mt 1747 3664 L
2586 4575 mt 2658 4575 L
2622 4539 mt 2622 4611 L
4700 2459 mt 4772 2459 L
4736 2423 mt 4736 2495 L
1470 4604 mt 1542 4604 L
1506 4568 mt 1506 4640 L
 904 4614 mt  976 4614 L
 940 4578 mt  940 4650 L
1509 4592 mt 1581 4592 L
1545 4556 mt 1545 4628 L
1567 4554 mt 1639 4554 L
1603 4518 mt 1603 4590 L
1283 4392 mt 1355 4392 L
1319 4356 mt 1319 4428 L
 863 2405 mt  935 2405 L
 899 2369 mt  899 2441 L
2019 4302 mt 2091 4302 L
2055 4266 mt 2055 4338 L
1648 3775 mt 1720 3775 L
1684 3739 mt 1684 3811 L
1254 4041 mt 1326 4041 L
1290 4005 mt 1290 4077 L
3298 4106 mt 3370 4106 L
3334 4070 mt 3334 4142 L
6225 4221 mt 6297 4221 L
6261 4185 mt 6261 4257 L
1486 4335 mt 1558 4335 L
1522 4299 mt 1522 4371 L
 973 1465 mt 1045 1465 L
1009 1429 mt 1009 1501 L
1377 4614 mt 1449 4614 L
1413 4578 mt 1413 4650 L
4160 4589 mt 4232 4589 L
4196 4553 mt 4196 4625 L
1357 4436 mt 1429 4436 L
1393 4400 mt 1393 4472 L
1788 4549 mt 1860 4549 L
1824 4513 mt 1824 4585 L
2874 4461 mt 2946 4461 L
2910 4425 mt 2910 4497 L
1666 4598 mt 1738 4598 L
1702 4562 mt 1702 4634 L
 892 4585 mt  964 4585 L
 928 4549 mt  928 4621 L
1102 4610 mt 1174 4610 L
1138 4574 mt 1138 4646 L
3277 3887 mt 3349 3887 L
3313 3851 mt 3313 3923 L
2583 4538 mt 2655 4538 L
2619 4502 mt 2619 4574 L
2704 4545 mt 2776 4545 L
2740 4509 mt 2740 4581 L
3655 3722 mt 3727 3722 L
3691 3686 mt 3691 3758 L
1016 3855 mt 1088 3855 L
1052 3819 mt 1052 3891 L
2862 4040 mt 2934 4040 L
2898 4004 mt 2898 4076 L
2527 4449 mt 2599 4449 L
2563 4413 mt 2563 4485 L
2757 1364 mt 2829 1364 L
2793 1328 mt 2793 1400 L
4830 3799 mt 4902 3799 L
4866 3763 mt 4866 3835 L
1046 4258 mt 1118 4258 L
1082 4222 mt 1082 4294 L
1046 4487 mt 1118 4487 L
1082 4451 mt 1082 4523 L
1648 4614 mt 1720 4614 L
1684 4578 mt 1684 4650 L
 985 4522 mt 1057 4522 L
1021 4486 mt 1021 4558 L
1898 4377 mt 1970 4377 L
1934 4341 mt 1934 4413 L
2248 3445 mt 2320 3445 L
2284 3409 mt 2284 3481 L
2889 4381 mt 2961 4381 L
2925 4345 mt 2925 4417 L
 866 4293 mt  938 4293 L
 902 4257 mt  902 4329 L
1393 4573 mt 1465 4573 L
1429 4537 mt 1429 4609 L
1067 4426 mt 1139 4426 L
1103 4390 mt 1103 4462 L
1056 4411 mt 1128 4411 L
1092 4375 mt 1092 4447 L
1123 4014 mt 1195 4014 L
1159 3978 mt 1159 4050 L
4973 4585 mt 5045 4585 L
5009 4549 mt 5009 4621 L
 890 4437 mt  962 4437 L
 926 4401 mt  926 4473 L
1804 4498 mt 1876 4498 L
1840 4462 mt 1840 4534 L
1166 4544 mt 1238 4544 L
1202 4508 mt 1202 4580 L
2239 4453 mt 2311 4453 L
2275 4417 mt 2275 4489 L
 934 3721 mt 1006 3721 L
 970 3685 mt  970 3757 L
 922 1843 mt  994 1843 L
 958 1807 mt  958 1879 L
2530 3500 mt 2602 3500 L
2566 3464 mt 2566 3536 L
3810 1292 mt 3882 1292 L
3846 1256 mt 3846 1328 L
1776 4554 mt 1848 4554 L
1812 4518 mt 1812 4590 L
1648 4094 mt 1720 4094 L
1684 4058 mt 1684 4130 L
4579 4578 mt 4651 4578 L
4615 4542 mt 4615 4614 L
3060 4530 mt 3132 4530 L
3096 4494 mt 3096 4566 L
2124 4343 mt 2196 4343 L
2160 4307 mt 2160 4379 L
2666 3998 mt 2738 3998 L
2702 3962 mt 2702 4034 L
1003 4615 mt 1075 4615 L
1039 4579 mt 1039 4651 L
 870 3946 mt  942 3946 L
 906 3910 mt  906 3982 L
2692 4078 mt 2764 4078 L
2728 4042 mt 2728 4114 L
 863 4548 mt  935 4548 L
 899 4512 mt  899 4584 L
 872 4537 mt  944 4537 L
 908 4501 mt  908 4573 L
2383 4364 mt 2455 4364 L
2419 4328 mt 2419 4400 L
2743 4572 mt 2815 4572 L
2779 4536 mt 2779 4608 L
4906 4453 mt 4978 4453 L
4942 4417 mt 4942 4489 L
2627 3888 mt 2699 3888 L
2663 3852 mt 2663 3924 L
 872 1791 mt  944 1791 L
 908 1755 mt  908 1827 L
 863 4615 mt  935 4615 L
 899 4579 mt  899 4651 L
2467 1264 mt 2539 1264 L
2503 1228 mt 2503 1300 L
 900 4417 mt  972 4417 L
 936 4381 mt  936 4453 L
1773 4590 mt 1845 4590 L
1809 4554 mt 1809 4626 L
 991 4185 mt 1063 4185 L
1027 4149 mt 1027 4221 L
2084 4411 mt 2156 4411 L
2120 4375 mt 2120 4447 L
3489 4544 mt 3561 4544 L
3525 4508 mt 3525 4580 L
 873 4613 mt  945 4613 L
 909 4577 mt  909 4649 L
1282 4167 mt 1354 4167 L
1318 4131 mt 1318 4203 L
6204 4190 mt 6276 4190 L
6240 4154 mt 6240 4226 L
1174 4564 mt 1246 4564 L
1210 4528 mt 1210 4600 L
 903 4611 mt  975 4611 L
 939 4575 mt  939 4647 L
1410 4533 mt 1482 4533 L
1446 4497 mt 1446 4569 L
1567 3767 mt 1639 3767 L
1603 3731 mt 1603 3803 L
 939 4241 mt 1011 4241 L
 975 4205 mt  975 4277 L
 873 4312 mt  945 4312 L
 909 4276 mt  909 4348 L
1939 4486 mt 2011 4486 L
1975 4450 mt 1975 4522 L
1253 4277 mt 1325 4277 L
1289 4241 mt 1289 4313 L
2081 3419 mt 2153 3419 L
2117 3383 mt 2117 3455 L
1206 4494 mt 1278 4494 L
1242 4458 mt 1242 4530 L
2043 4354 mt 2115 4354 L
2079 4318 mt 2079 4390 L
1473 4290 mt 1545 4290 L
1509 4254 mt 1509 4326 L
 911 1520 mt  983 1520 L
 947 1484 mt  947 1556 L
1244 3251 mt 1316 3251 L
1280 3215 mt 1280 3287 L
1320 4501 mt 1392 4501 L
1356 4465 mt 1356 4537 L
1058 3342 mt 1130 3342 L
1094 3306 mt 1094 3378 L
2323 4596 mt 2395 4596 L
2359 4560 mt 2359 4632 L
1003 3608 mt 1075 3608 L
1039 3572 mt 1039 3644 L
2860 4553 mt 2932 4553 L
2896 4517 mt 2896 4589 L
2492 4591 mt 2564 4591 L
2528 4555 mt 2528 4627 L
1938 4022 mt 2010 4022 L
1974 3986 mt 1974 4058 L
1520 4313 mt 1592 4313 L
1556 4277 mt 1556 4349 L
1115 4607 mt 1187 4607 L
1151 4571 mt 1151 4643 L
 997 3020 mt 1069 3020 L
1033 2984 mt 1033 3056 L
 874 4417 mt  946 4417 L
 910 4381 mt  910 4453 L
 972 4614 mt 1044 4614 L
1008 4578 mt 1008 4650 L
1792 3677 mt 1864 3677 L
1828 3641 mt 1828 3713 L
 946 4550 mt 1018 4550 L
 982 4514 mt  982 4586 L
3096 4256 mt 3168 4256 L
3132 4220 mt 3132 4292 L
 878 4588 mt  950 4588 L
 914 4552 mt  914 4624 L
2505 4610 mt 2577 4610 L
2541 4574 mt 2541 4646 L
3729 4179 mt 3801 4179 L
3765 4143 mt 3765 4215 L
1278 4287 mt 1350 4287 L
1314 4251 mt 1314 4323 L
2797 4411 mt 2869 4411 L
2833 4375 mt 2833 4447 L
3271 4606 mt 3343 4606 L
3307 4570 mt 3307 4642 L
2103 4593 mt 2175 4593 L
2139 4557 mt 2139 4629 L
3744 4561 mt 3816 4561 L
3780 4525 mt 3780 4597 L
3342 4335 mt 3414 4335 L
3378 4299 mt 3378 4371 L
 881 4038 mt  953 4038 L
 917 4002 mt  917 4074 L
5659 4419 mt 5731 4419 L
5695 4383 mt 5695 4455 L
1593 4582 mt 1665 4582 L
1629 4546 mt 1629 4618 L
 949 1839 mt 1021 1839 L
 985 1803 mt  985 1875 L
 871 4607 mt  943 4607 L
 907 4571 mt  907 4643 L
1143 4392 mt 1215 4392 L
1179 4356 mt 1179 4428 L
1510 4615 mt 1582 4615 L
1546 4579 mt 1546 4651 L
1498 3830 mt 1570 3830 L
1534 3794 mt 1534 3866 L
1068 3508 mt 1140 3508 L
1104 3472 mt 1104 3544 L
1637 4527 mt 1709 4527 L
1673 4491 mt 1673 4563 L
3235 4385 mt 3307 4385 L
3271 4349 mt 3271 4421 L
 863 3970 mt  935 3970 L
 899 3934 mt  899 4006 L
 869 4609 mt  941 4609 L
 905 4573 mt  905 4645 L
1488 3843 mt 1560 3843 L
1524 3807 mt 1524 3879 L
1943 4393 mt 2015 4393 L
1979 4357 mt 1979 4429 L
4556 3901 mt 4628 3901 L
4592 3865 mt 4592 3937 L
1035 3165 mt 1107 3165 L
1071 3129 mt 1071 3201 L
3974 4279 mt 4046 4279 L
4010 4243 mt 4010 4315 L
2255 4400 mt 2327 4400 L
2291 4364 mt 2291 4436 L
1098 4315 mt 1170 4315 L
1134 4279 mt 1134 4351 L
 990 3739 mt 1062 3739 L
1026 3703 mt 1026 3775 L
2573 3326 mt 2645 3326 L
2609 3290 mt 2609 3362 L
1570 4267 mt 1642 4267 L
1606 4231 mt 1606 4303 L
1376 4116 mt 1448 4116 L
1412 4080 mt 1412 4152 L
1498 4040 mt 1570 4040 L
1534 4004 mt 1534 4076 L
1873 2565 mt 1945 2565 L
1909 2529 mt 1909 2601 L
1701 4504 mt 1773 4504 L
1737 4468 mt 1737 4540 L
 910 3792 mt  982 3792 L
 946 3756 mt  946 3828 L
3072 4609 mt 3144 4609 L
3108 4573 mt 3108 4645 L
1199 3060 mt 1271 3060 L
1235 3024 mt 1235 3096 L
1579 4554 mt 1651 4554 L
1615 4518 mt 1615 4590 L
1172 4487 mt 1244 4487 L
1208 4451 mt 1208 4523 L
2988 1725 mt 3060 1725 L
3024 1689 mt 3024 1761 L
1361 1895 mt 1433 1895 L
1397 1859 mt 1397 1931 L
 868 4553 mt  940 4553 L
 904 4517 mt  904 4589 L
4570 4513 mt 4642 4513 L
4606 4477 mt 4606 4549 L
1425 2272 mt 1497 2272 L
1461 2236 mt 1461 2308 L
2569 4036 mt 2641 4036 L
2605 4000 mt 2605 4072 L
 940 4387 mt 1012 4387 L
 976 4351 mt  976 4423 L
1323 4555 mt 1395 4555 L
1359 4519 mt 1359 4591 L
1211 3356 mt 1283 3356 L
1247 3320 mt 1247 3392 L
1418 4579 mt 1490 4579 L
1454 4543 mt 1454 4615 L
2254 4598 mt 2326 4598 L
2290 4562 mt 2290 4634 L
 988 3940 mt 1060 3940 L
1024 3904 mt 1024 3976 L
 880 4493 mt  952 4493 L
 916 4457 mt  916 4529 L
 977 4355 mt 1049 4355 L
1013 4319 mt 1013 4391 L
3026 1603 mt 3098 1603 L
3062 1567 mt 3062 1639 L
1775 3661 mt 1847 3661 L
1811 3625 mt 1811 3697 L
 909 2623 mt  981 2623 L
 945 2587 mt  945 2659 L
1011 4327 mt 1083 4327 L
1047 4291 mt 1047 4363 L
 951 4578 mt 1023 4578 L
 987 4542 mt  987 4614 L
gs 899 414 5363 4203 rc
gr

0 sg
2775 5104 mt 
(\(F,DCTb,GMM\)) s
 422 3259 mt  -90 rotate
(\(S,PAC,GMM\)) s
90 rotate
2975  223 mt 
(Corr = 0.01) s

end %%Color Dict

eplot
%%EndObject

epage
end

showpage

%%Trailer
%%EOF
