%!PS-Adobe-3.0 EPSF-3.0
%%Creator: MATLAB, The Mathworks, Inc.
%%Title: Pictures\main_zoo_mvar_analysis_data_BMI_corr.eps
%%CreationDate: 10/24/2008  18:25:21
%%DocumentNeededFonts: Helvetica
%%DocumentProcessColors: Cyan Magenta Yellow Black
%%LanguageLevel: 2
%%Pages: 1
%%BoundingBox:    47   187   552   592
%%EndComments

%%BeginProlog
% MathWorks dictionary
/MathWorks 160 dict begin
% definition operators
/bdef {bind def} bind def
/ldef {load def} bind def
/xdef {exch def} bdef
/xstore {exch store} bdef
% operator abbreviations
/c  /clip ldef
/cc /concat ldef
/cp /closepath ldef
/gr /grestore ldef
/gs /gsave ldef
/mt /moveto ldef
/np /newpath ldef
/cm /currentmatrix ldef
/sm /setmatrix ldef
/rm /rmoveto ldef
/rl /rlineto ldef
/s {show newpath} bdef
/sc {setcmykcolor} bdef
/sr /setrgbcolor ldef
/sg /setgray ldef
/w /setlinewidth ldef
/j /setlinejoin ldef
/cap /setlinecap ldef
/rc {rectclip} bdef
/rf {rectfill} bdef
% page state control
/pgsv () def
/bpage {/pgsv save def} bdef
/epage {pgsv restore} bdef
/bplot /gsave ldef
/eplot {stroke grestore} bdef
% orientation switch
/portraitMode 0 def /landscapeMode 1 def /rotateMode 2 def
% coordinate system mappings
/dpi2point 0 def
% font control
/FontSize 0 def
/FMS {/FontSize xstore findfont [FontSize 0 0 FontSize neg 0 0]
  makefont setfont} bdef
/ISOLatin1Encoding where {pop /WindowsLatin1Encoding 256 array bdef
ISOLatin1Encoding WindowsLatin1Encoding copy pop
/.notdef/.notdef/quotesinglbase/florin/quotedblbase/ellipsis/dagger
/daggerdbl/circumflex/perthousand/Scaron/guilsinglleft/OE/.notdef/.notdef
/.notdef/.notdef/quoteleft/quoteright/quotedblleft/quotedblright/bullet
/endash/emdash/tilde/trademark/scaron/guilsinglright/oe/.notdef/.notdef
/Ydieresis WindowsLatin1Encoding 128 32 getinterval astore pop}
{/WindowsLatin1Encoding StandardEncoding bdef} ifelse
/reencode {exch dup where {pop load} {pop StandardEncoding} ifelse
  exch dup 3 1 roll findfont dup length dict begin
  { 1 index /FID ne {def}{pop pop} ifelse } forall
  /Encoding exch def currentdict end definefont pop} bdef
/isroman {findfont /CharStrings get /Agrave known} bdef
/FMSR {3 1 roll 1 index dup isroman {reencode} {pop pop} ifelse
  exch FMS} bdef
/csm {1 dpi2point div -1 dpi2point div scale neg translate
 dup landscapeMode eq {pop -90 rotate}
  {rotateMode eq {90 rotate} if} ifelse} bdef
% line types: solid, dotted, dashed, dotdash
/SO { [] 0 setdash } bdef
/DO { [.5 dpi2point mul 4 dpi2point mul] 0 setdash } bdef
/DA { [6 dpi2point mul] 0 setdash } bdef
/DD { [.5 dpi2point mul 4 dpi2point mul 6 dpi2point mul 4
  dpi2point mul] 0 setdash } bdef
% macros for lines and objects
/L {lineto stroke} bdef
/MP {3 1 roll moveto 1 sub {rlineto} repeat} bdef
/AP {{rlineto} repeat} bdef
/PDlw -1 def
/W {/PDlw currentlinewidth def setlinewidth} def
/PP {closepath eofill} bdef
/DP {closepath stroke} bdef
/MR {4 -2 roll moveto dup  0 exch rlineto exch 0 rlineto
  neg 0 exch rlineto closepath} bdef
/FR {MR stroke} bdef
/PR {MR fill} bdef
/L1i {{currentfile picstr readhexstring pop} image} bdef
/tMatrix matrix def
/MakeOval {newpath tMatrix currentmatrix pop translate scale
0 0 1 0 360 arc tMatrix setmatrix} bdef
/FO {MakeOval stroke} bdef
/PO {MakeOval fill} bdef
/PD {currentlinewidth 2 div 0 360 arc fill
   PDlw -1 eq not {PDlw w /PDlw -1 def} if} def
/FA {newpath tMatrix currentmatrix pop translate scale
  0 0 1 5 -2 roll arc tMatrix setmatrix stroke} bdef
/PA {newpath tMatrix currentmatrix pop	translate 0 0 moveto scale
  0 0 1 5 -2 roll arc closepath tMatrix setmatrix fill} bdef
/FAn {newpath tMatrix currentmatrix pop translate scale
  0 0 1 5 -2 roll arcn tMatrix setmatrix stroke} bdef
/PAn {newpath tMatrix currentmatrix pop translate 0 0 moveto scale
  0 0 1 5 -2 roll arcn closepath tMatrix setmatrix fill} bdef
/vradius 0 def /hradius 0 def /lry 0 def
/lrx 0 def /uly 0 def /ulx 0 def /rad 0 def
/MRR {/vradius xdef /hradius xdef /lry xdef /lrx xdef /uly xdef
  /ulx xdef newpath tMatrix currentmatrix pop ulx hradius add uly
  vradius add translate hradius vradius scale 0 0 1 180 270 arc 
  tMatrix setmatrix lrx hradius sub uly vradius add translate
  hradius vradius scale 0 0 1 270 360 arc tMatrix setmatrix
  lrx hradius sub lry vradius sub translate hradius vradius scale
  0 0 1 0 90 arc tMatrix setmatrix ulx hradius add lry vradius sub
  translate hradius vradius scale 0 0 1 90 180 arc tMatrix setmatrix
  closepath} bdef
/FRR {MRR stroke } bdef
/PRR {MRR fill } bdef
/MlrRR {/lry xdef /lrx xdef /uly xdef /ulx xdef /rad lry uly sub 2 div def
  newpath tMatrix currentmatrix pop ulx rad add uly rad add translate
  rad rad scale 0 0 1 90 270 arc tMatrix setmatrix lrx rad sub lry rad
  sub translate rad rad scale 0 0 1 270 90 arc tMatrix setmatrix
  closepath} bdef
/FlrRR {MlrRR stroke } bdef
/PlrRR {MlrRR fill } bdef
/MtbRR {/lry xdef /lrx xdef /uly xdef /ulx xdef /rad lrx ulx sub 2 div def
  newpath tMatrix currentmatrix pop ulx rad add uly rad add translate
  rad rad scale 0 0 1 180 360 arc tMatrix setmatrix lrx rad sub lry rad
  sub translate rad rad scale 0 0 1 0 180 arc tMatrix setmatrix
  closepath} bdef
/FtbRR {MtbRR stroke } bdef
/PtbRR {MtbRR fill } bdef
/stri 6 array def /dtri 6 array def
/smat 6 array def /dmat 6 array def
/tmat1 6 array def /tmat2 6 array def /dif 3 array def
/asub {/ind2 exch def /ind1 exch def dup dup
  ind1 get exch ind2 get sub exch } bdef
/tri_to_matrix {
  2 0 asub 3 1 asub 4 0 asub 5 1 asub
  dup 0 get exch 1 get 7 -1 roll astore } bdef
/compute_transform {
  dmat dtri tri_to_matrix tmat1 invertmatrix 
  smat stri tri_to_matrix tmat2 concatmatrix } bdef
/ds {stri astore pop} bdef
/dt {dtri astore pop} bdef
/db {2 copy /cols xdef /rows xdef mul dup 3 mul string
  currentfile 
  3 index 0 eq {/ASCIIHexDecode filter}
  {/ASCII85Decode filter 3 index 2 eq {/RunLengthDecode filter} if }
  ifelse exch readstring pop
  dup 0 3 index getinterval /rbmap xdef
  dup 2 index dup getinterval /gbmap xdef
  1 index dup 2 mul exch getinterval /bbmap xdef pop pop}bdef
/it {gs np dtri aload pop moveto lineto lineto cp c
  cols rows 8 compute_transform 
  rbmap gbmap bbmap true 3 colorimage gr}bdef
/il {newpath moveto lineto stroke}bdef
currentdict end def
%%EndProlog

%%BeginSetup
MathWorks begin

0 cap

end
%%EndSetup

%%Page: 1 1
%%BeginPageSetup
%%PageBoundingBox:    47   187   552   592
MathWorks begin
bpage
%%EndPageSetup

%%BeginObject: obj1
bplot

/dpi2point 12 def
portraitMode 0216 7344 csm

  350   234  6067  4858 rc
86 dict begin %Colortable dictionary
/c0 { 0.000000 0.000000 0.000000 sr} bdef
/c1 { 1.000000 1.000000 1.000000 sr} bdef
/c2 { 0.900000 0.000000 0.000000 sr} bdef
/c3 { 0.000000 0.820000 0.000000 sr} bdef
/c4 { 0.000000 0.000000 0.800000 sr} bdef
/c5 { 0.910000 0.820000 0.320000 sr} bdef
/c6 { 1.000000 0.260000 0.820000 sr} bdef
/c7 { 0.000000 0.820000 0.820000 sr} bdef
c0
1 j
1 sg
   0    0 6919 5187 rf
6 w
0 4227 5362 0 0 -4227 899 4616 4 MP
PP
-5362 0 0 4227 5362 0 0 -4227 899 4616 5 MP stroke
4 w
DO
SO
6 w
0 sg
 899 4616 mt 6261 4616 L
 899 4616 mt  899  389 L
 899 4616 mt  899 4562 L
%%IncludeResource: font Helvetica
/Helvetica /WindowsLatin1Encoding 192 FMSR

 846 4828 mt 
(0) s
1569 4616 mt 1569 4562 L
1463 4828 mt 
(10) s
2239 4616 mt 2239 4562 L
2133 4828 mt 
(20) s
2909 4616 mt 2909 4562 L
2803 4828 mt 
(30) s
3580 4616 mt 3580 4562 L
3474 4828 mt 
(40) s
4250 4616 mt 4250 4562 L
4144 4828 mt 
(50) s
4920 4616 mt 4920 4562 L
4814 4828 mt 
(60) s
5590 4616 mt 5590 4562 L
5484 4828 mt 
(70) s
6261 4616 mt 6261 4562 L
6155 4828 mt 
(80) s
 899 4616 mt  952 4616 L
 758 4687 mt 
(0) s
 899 4087 mt  952 4087 L
 651 4158 mt 
(10) s
 899 3559 mt  952 3559 L
 651 3630 mt 
(20) s
 899 3030 mt  952 3030 L
 651 3101 mt 
(30) s
 899 2502 mt  952 2502 L
 651 2573 mt 
(40) s
 899 1974 mt  952 1974 L
 651 2045 mt 
(50) s
 899 1445 mt  952 1445 L
 651 1516 mt 
(60) s
 899  917 mt  952  917 L
 651  988 mt 
(70) s
 899  389 mt  952  389 L
 651  460 mt 
(80) s
2647 5024 mt 
(zoo index [%], dev set) s
 553 3433 mt  -90 rotate
(zoo index [%], eva set) s
90 rotate
gs 899 389 5363 4228 rc
gr

gs 1049 3708 884 943 rc
/c8 { 0.000000 0.000000 1.000000 sr} bdef
c8
1751 3829 mt 1871 3829 L
1811 3769 mt 1811 3889 L
1635 3907 mt 1755 3907 L
1695 3847 mt 1695 3967 L
1146 4529 mt 1266 4529 L
1206 4469 mt 1206 4589 L
1341 4311 mt 1461 4311 L
1401 4251 mt 1401 4371 L
1110 4511 mt 1230 4511 L
1170 4451 mt 1170 4571 L
1167 4423 mt 1287 4423 L
1227 4363 mt 1227 4483 L
1344 4082 mt 1464 4082 L
1404 4022 mt 1404 4142 L
1293 4253 mt 1413 4253 L
1353 4193 mt 1353 4313 L
1165 4389 mt 1285 4389 L
1225 4329 mt 1225 4449 L
gr

c8
gs 899 389 5363 4228 rc
gs 1058 3617 948 902 rc
/c9 { 1.000000 0.000000 0.000000 sr} bdef
c9
  60   60 1884 3738 FO
  60   60 1398 4080 FO
  60   60 1348 4222 FO
  60   60 1179 4397 FO
gr

c9
gs 3994 910 1844 934 rc
/c10 { 0.000000 1.000000 0.000000 sr} bdef
c10
4166 1658 mt 4250 1742 L
4250 1658 mt 4166 1742 L
4376 1506 mt 4460 1590 L
4460 1506 mt 4376 1590 L
4496 1120 mt 4580 1204 L
4580 1120 mt 4496 1204 L
4073 1457 mt 4157 1541 L
4157 1457 mt 4073 1541 L
4634  989 mt 4718 1073 L
4718  989 mt 4634 1073 L
4174 1256 mt 4258 1340 L
4258 1256 mt 4174 1340 L
5425 1536 mt 5509 1620 L
5509 1536 mt 5425 1620 L
4883 1680 mt 4967 1764 L
4967 1680 mt 4883 1764 L
5674 1420 mt 5758 1504 L
5758 1420 mt 5674 1504 L
gr

c10
gr

c10
gs 5401 301 864 878 rc
0 j
60 79 -60 79 -60 -79 60 -79 5522 1136 5 MP
0 sg
DP
60 79 -60 79 -60 -79 60 -79 6143 501 5 MP
DP
60 79 -60 79 -60 -79 60 -79 5981 831 5 MP
DP
60 79 -60 79 -60 -79 60 -79 5855 801 5 MP
DP
gr

0 sg
gs 899 389 5363 4228 rc
gr

%%IncludeResource: font Helvetica
/Helvetica /WindowsLatin1Encoding 120 FMSR

 882 4659 mt 
( ) s
6245  431 mt 
( ) s
1 sg
0 958 1680 0 0 -958 4521 4557 4 MP
PP
-1680 0 0 958 1680 0 0 -958 4521 4557 5 MP stroke
4 w
DO
SO
6 w
0 sg
4521 3599 mt 6201 3599 L
4521 4557 mt 6201 4557 L
6201 4557 mt 6201 3599 L
4521 4557 mt 4521 3599 L
4521 4557 mt 6201 4557 L
4521 4557 mt 4521 3599 L
4521 3599 mt 6201 3599 L
4521 4557 mt 6201 4557 L
6201 4557 mt 6201 3599 L
4521 4557 mt 4521 3599 L
%%IncludeResource: font Helvetica
/Helvetica /WindowsLatin1Encoding 192 FMSR

4972 3801 mt 
(impostor, LP1) s
gs 4521 3599 1681 959 rc
gs 4642 3612 243 243 rc
c8
4703 3733 mt 4823 3733 L
4763 3673 mt 4763 3793 L
gr

c8
gr

c8
0 sg
4972 4031 mt 
(impostor, LP2) s
gs 4521 3599 1681 959 rc
gs 4642 3842 243 243 rc
c9
  60   60 4763 3963 FO
gr

c9
gr

c9
0 sg
4972 4262 mt 
(client, LP1) s
gs 4521 3599 1681 959 rc
gs 4642 4071 243 243 rc
c10
4721 4150 mt 4805 4234 L
4805 4150 mt 4721 4234 L
gr

c10
gr

c10
0 sg
4972 4492 mt 
(client, LP2) s
gs 4521 3599 1681 959 rc
gs 4642 4301 243 243 rc
0 j
60 79 -60 79 -60 -79 60 -79 4763 4501 5 MP
DP
gr

gr


end %%Color Dict

eplot
%%EndObject

epage
end

showpage

%%Trailer
%%EOF
