%!PS-Adobe-3.0 EPSF-3.0
%%Creator: MATLAB, The Mathworks, Inc. Version 7.7.0.471 (R2008b). Operating System: Microsoft Windows XP.
%%Title: Pictures\main_zoo_mvar_analysis_data_BMI_xcorr_bmig_p1_k1_1_8.eps
%%CreationDate: 10/26/2009  05:44:48
%%DocumentNeededFonts: Helvetica
%%DocumentProcessColors: Cyan Magenta Yellow Black
%%LanguageLevel: 2
%%Pages: 1
%%BoundingBox:    37   180   549   616
%%EndComments

%%BeginProlog
% MathWorks dictionary
/MathWorks 160 dict begin
% definition operators
/bdef {bind def} bind def
/ldef {load def} bind def
/xdef {exch def} bdef
/xstore {exch store} bdef
% operator abbreviations
/c  /clip ldef
/cc /concat ldef
/cp /closepath ldef
/gr /grestore ldef
/gs /gsave ldef
/mt /moveto ldef
/np /newpath ldef
/cm /currentmatrix ldef
/sm /setmatrix ldef
/rm /rmoveto ldef
/rl /rlineto ldef
/s {show newpath} bdef
/sc {setcmykcolor} bdef
/sr /setrgbcolor ldef
/sg /setgray ldef
/w /setlinewidth ldef
/j /setlinejoin ldef
/cap /setlinecap ldef
/rc {rectclip} bdef
/rf {rectfill} bdef
% page state control
/pgsv () def
/bpage {/pgsv save def} bdef
/epage {pgsv restore} bdef
/bplot /gsave ldef
/eplot {stroke grestore} bdef
% orientation switch
/portraitMode 0 def /landscapeMode 1 def /rotateMode 2 def
% coordinate system mappings
/dpi2point 0 def
% font control
/FontSize 0 def
/FMS {/FontSize xstore findfont [FontSize 0 0 FontSize neg 0 0]
  makefont setfont} bdef
/ISOLatin1Encoding where {pop /WindowsLatin1Encoding 256 array bdef
ISOLatin1Encoding WindowsLatin1Encoding copy pop
/.notdef/.notdef/quotesinglbase/florin/quotedblbase/ellipsis/dagger
/daggerdbl/circumflex/perthousand/Scaron/guilsinglleft/OE/.notdef/.notdef
/.notdef/.notdef/quoteleft/quoteright/quotedblleft/quotedblright/bullet
/endash/emdash/tilde/trademark/scaron/guilsinglright/oe/.notdef/.notdef
/Ydieresis WindowsLatin1Encoding 128 32 getinterval astore pop}
{/WindowsLatin1Encoding StandardEncoding bdef} ifelse
/reencode {exch dup where {pop load} {pop StandardEncoding} ifelse
  exch dup 3 1 roll findfont dup length dict begin
  { 1 index /FID ne {def}{pop pop} ifelse } forall
  /Encoding exch def currentdict end definefont pop} bdef
/isroman {findfont /CharStrings get /Agrave known} bdef
/FMSR {3 1 roll 1 index dup isroman {reencode} {pop pop} ifelse
  exch FMS} bdef
/csm {1 dpi2point div -1 dpi2point div scale neg translate
 dup landscapeMode eq {pop -90 rotate}
  {rotateMode eq {90 rotate} if} ifelse} bdef
% line types: solid, dotted, dashed, dotdash
/SO { [] 0 setdash } bdef
/DO { [.5 dpi2point mul 4 dpi2point mul] 0 setdash } bdef
/DA { [6 dpi2point mul] 0 setdash } bdef
/DD { [.5 dpi2point mul 4 dpi2point mul 6 dpi2point mul 4
  dpi2point mul] 0 setdash } bdef
% macros for lines and objects
/L {lineto stroke} bdef
/MP {3 1 roll moveto 1 sub {rlineto} repeat} bdef
/AP {{rlineto} repeat} bdef
/PDlw -1 def
/W {/PDlw currentlinewidth def setlinewidth} def
/PP {closepath eofill} bdef
/DP {closepath stroke} bdef
/MR {4 -2 roll moveto dup  0 exch rlineto exch 0 rlineto
  neg 0 exch rlineto closepath} bdef
/FR {MR stroke} bdef
/PR {MR fill} bdef
/L1i {{currentfile picstr readhexstring pop} image} bdef
/tMatrix matrix def
/MakeOval {newpath tMatrix currentmatrix pop translate scale
0 0 1 0 360 arc tMatrix setmatrix} bdef
/FO {MakeOval stroke} bdef
/PO {MakeOval fill} bdef
/PD {currentlinewidth 2 div 0 360 arc fill
   PDlw -1 eq not {PDlw w /PDlw -1 def} if} def
/FA {newpath tMatrix currentmatrix pop translate scale
  0 0 1 5 -2 roll arc tMatrix setmatrix stroke} bdef
/PA {newpath tMatrix currentmatrix pop	translate 0 0 moveto scale
  0 0 1 5 -2 roll arc closepath tMatrix setmatrix fill} bdef
/FAn {newpath tMatrix currentmatrix pop translate scale
  0 0 1 5 -2 roll arcn tMatrix setmatrix stroke} bdef
/PAn {newpath tMatrix currentmatrix pop translate 0 0 moveto scale
  0 0 1 5 -2 roll arcn closepath tMatrix setmatrix fill} bdef
/vradius 0 def /hradius 0 def /lry 0 def
/lrx 0 def /uly 0 def /ulx 0 def /rad 0 def
/MRR {/vradius xdef /hradius xdef /lry xdef /lrx xdef /uly xdef
  /ulx xdef newpath tMatrix currentmatrix pop ulx hradius add uly
  vradius add translate hradius vradius scale 0 0 1 180 270 arc 
  tMatrix setmatrix lrx hradius sub uly vradius add translate
  hradius vradius scale 0 0 1 270 360 arc tMatrix setmatrix
  lrx hradius sub lry vradius sub translate hradius vradius scale
  0 0 1 0 90 arc tMatrix setmatrix ulx hradius add lry vradius sub
  translate hradius vradius scale 0 0 1 90 180 arc tMatrix setmatrix
  closepath} bdef
/FRR {MRR stroke } bdef
/PRR {MRR fill } bdef
/MlrRR {/lry xdef /lrx xdef /uly xdef /ulx xdef /rad lry uly sub 2 div def
  newpath tMatrix currentmatrix pop ulx rad add uly rad add translate
  rad rad scale 0 0 1 90 270 arc tMatrix setmatrix lrx rad sub lry rad
  sub translate rad rad scale 0 0 1 270 90 arc tMatrix setmatrix
  closepath} bdef
/FlrRR {MlrRR stroke } bdef
/PlrRR {MlrRR fill } bdef
/MtbRR {/lry xdef /lrx xdef /uly xdef /ulx xdef /rad lrx ulx sub 2 div def
  newpath tMatrix currentmatrix pop ulx rad add uly rad add translate
  rad rad scale 0 0 1 180 360 arc tMatrix setmatrix lrx rad sub lry rad
  sub translate rad rad scale 0 0 1 0 180 arc tMatrix setmatrix
  closepath} bdef
/FtbRR {MtbRR stroke } bdef
/PtbRR {MtbRR fill } bdef
/stri 6 array def /dtri 6 array def
/smat 6 array def /dmat 6 array def
/tmat1 6 array def /tmat2 6 array def /dif 3 array def
/asub {/ind2 exch def /ind1 exch def dup dup
  ind1 get exch ind2 get sub exch } bdef
/tri_to_matrix {
  2 0 asub 3 1 asub 4 0 asub 5 1 asub
  dup 0 get exch 1 get 7 -1 roll astore } bdef
/compute_transform {
  dmat dtri tri_to_matrix tmat1 invertmatrix 
  smat stri tri_to_matrix tmat2 concatmatrix } bdef
/ds {stri astore pop} bdef
/dt {dtri astore pop} bdef
/db {2 copy /cols xdef /rows xdef mul dup 3 mul string
  currentfile 
  3 index 0 eq {/ASCIIHexDecode filter}
  {/ASCII85Decode filter 3 index 2 eq {/RunLengthDecode filter} if }
  ifelse exch readstring pop
  dup 0 3 index getinterval /rbmap xdef
  dup 2 index dup getinterval /gbmap xdef
  1 index dup 2 mul exch getinterval /bbmap xdef pop pop}bdef
/it {gs np dtri aload pop moveto lineto lineto cp c
  cols rows 8 compute_transform 
  rbmap gbmap bbmap true 3 colorimage gr}bdef
/il {newpath moveto lineto stroke}bdef
currentdict end def
%%EndProlog

%%BeginSetup
MathWorks begin

0 cap

end
%%EndSetup

%%Page: 1 1
%%BeginPageSetup
%%PageBoundingBox:    37   180   549   616
MathWorks begin
bpage
%%EndPageSetup

%%BeginObject: obj1
bplot

/dpi2point 12 def
portraitMode 0216 7344 csm

  234   -48  6149  5231 rc
85 dict begin %Colortable dictionary
/c0 { 0.000000 0.000000 0.000000 sr} bdef
/c1 { 1.000000 1.000000 1.000000 sr} bdef
/c2 { 0.900000 0.000000 0.000000 sr} bdef
/c3 { 0.000000 0.820000 0.000000 sr} bdef
/c4 { 0.000000 0.000000 0.800000 sr} bdef
/c5 { 0.910000 0.820000 0.320000 sr} bdef
/c6 { 1.000000 0.260000 0.820000 sr} bdef
/c7 { 0.000000 0.820000 0.820000 sr} bdef
c0
1 j
1 sg
   0    0 6919 5187 rf
6 w
0 4202 5362 0 0 -4202 899 4616 4 MP
PP
-5362 0 0 4202 5362 0 0 -4202 899 4616 5 MP stroke
4 w
DO
SO
6 w
0 sg
 899  414 mt 6261  414 L
 899 4616 mt 6261 4616 L
6261 4616 mt 6261  414 L
 899 4616 mt  899  414 L
 899 4616 mt 6261 4616 L
 899 4616 mt  899  414 L
 919 4616 mt  919 4562 L
 919  414 mt  919  467 L
%%IncludeResource: font Helvetica
/Helvetica /WindowsLatin1Encoding 240 FMSR

 713 4873 mt 
(-3) s
1806 4616 mt 1806 4562 L
1806  414 mt 1806  467 L
1600 4873 mt 
(-2) s
2693 4616 mt 2693 4562 L
2693  414 mt 2693  467 L
2487 4873 mt 
(-1) s
3580 4616 mt 3580 4562 L
3580  414 mt 3580  467 L
3514 4873 mt 
(0) s
4466 4616 mt 4466 4562 L
4466  414 mt 4466  467 L
4400 4873 mt 
(1) s
5353 4616 mt 5353 4562 L
5353  414 mt 5353  467 L
5287 4873 mt 
(2) s
6240 4616 mt 6240 4562 L
6240  414 mt 6240  467 L
6174 4873 mt 
(3) s
 899 4599 mt  952 4599 L
6261 4599 mt 6207 4599 L
 591 4688 mt 
(-3) s
 899 3904 mt  952 3904 L
6261 3904 mt 6207 3904 L
 591 3993 mt 
(-2) s
 899 3209 mt  952 3209 L
6261 3209 mt 6207 3209 L
 591 3298 mt 
(-1) s
 899 2514 mt  952 2514 L
6261 2514 mt 6207 2514 L
 731 2603 mt 
(0) s
 899 1820 mt  952 1820 L
6261 1820 mt 6207 1820 L
 731 1909 mt 
(1) s
 899 1125 mt  952 1125 L
6261 1125 mt 6207 1125 L
 731 1214 mt 
(2) s
 899  430 mt  952  430 L
6261  430 mt 6207  430 L
 731  519 mt 
(3) s
 899  414 mt 6261  414 L
 899 4616 mt 6261 4616 L
6261 4616 mt 6261  414 L
 899 4616 mt  899  414 L
gs 899 414 5363 4203 rc
gr

/c8 { 0.000000 0.000000 1.000000 sr} bdef
c8
4453  414 mt 4525  414 L
4489  378 mt 4489  450 L
2749 2602 mt 2821 2602 L
2785 2566 mt 2785 2638 L
4067 3034 mt 4139 3034 L
4103 2998 mt 4103 3070 L
3582 2293 mt 3654 2293 L
3618 2257 mt 3618 2329 L
1805 2410 mt 1877 2410 L
1841 2374 mt 1841 2446 L
4163 2840 mt 4235 2840 L
4199 2804 mt 4199 2876 L
3267 1604 mt 3339 1604 L
3303 1568 mt 3303 1640 L
3202 2655 mt 3274 2655 L
3238 2619 mt 3238 2691 L
4585 4205 mt 4657 4205 L
4621 4169 mt 4621 4241 L
4981 2040 mt 5053 2040 L
5017 2004 mt 5017 2076 L
3085 2536 mt 3157 2536 L
3121 2500 mt 3121 2572 L
1766 4616 mt 1838 4616 L
1802 4580 mt 1802 4652 L
3330 3503 mt 3402 3503 L
3366 3467 mt 3366 3539 L
3046 3322 mt 3118 3322 L
3082 3286 mt 3082 3358 L
4243 2401 mt 4315 2401 L
4279 2365 mt 4279 2437 L
4416 1831 mt 4488 1831 L
4452 1795 mt 4452 1867 L
3135 1583 mt 3207 1583 L
3171 1547 mt 3171 1619 L
3307 2423 mt 3379 2423 L
3343 2387 mt 3343 2459 L
2634 2722 mt 2706 2722 L
2670 2686 mt 2670 2758 L
4028 2001 mt 4100 2001 L
4064 1965 mt 4064 2037 L
4398 2361 mt 4470 2361 L
4434 2325 mt 4434 2397 L
3325 2646 mt 3397 2646 L
3361 2610 mt 3361 2682 L
2723 2436 mt 2795 2436 L
2759 2400 mt 2759 2472 L
3290 2484 mt 3362 2484 L
3326 2448 mt 3326 2520 L
5468 1885 mt 5540 1885 L
5504 1849 mt 5504 1921 L
3700 2806 mt 3772 2806 L
3736 2770 mt 3736 2842 L
3426 2199 mt 3498 2199 L
3462 2163 mt 3462 2235 L
4338 2825 mt 4410 2825 L
4374 2789 mt 4374 2861 L
1556 2972 mt 1628 2972 L
1592 2936 mt 1592 3008 L
3751 2589 mt 3823 2589 L
3787 2553 mt 3787 2625 L
2355 1572 mt 2427 1572 L
2391 1536 mt 2391 1608 L
3694 2467 mt 3766 2467 L
3730 2431 mt 3730 2503 L
3538 2558 mt 3610 2558 L
3574 2522 mt 3574 2594 L
1842 1787 mt 1914 1787 L
1878 1751 mt 1878 1823 L
3785 3297 mt 3857 3297 L
3821 3261 mt 3821 3333 L
2781 2576 mt 2853 2576 L
2817 2540 mt 2817 2612 L
4149 3118 mt 4221 3118 L
4185 3082 mt 4185 3154 L
3723 2844 mt 3795 2844 L
3759 2808 mt 3759 2880 L
3190 2445 mt 3262 2445 L
3226 2409 mt 3226 2481 L
3493 1255 mt 3565 1255 L
3529 1219 mt 3529 1291 L
2063 2619 mt 2135 2619 L
2099 2583 mt 2099 2655 L
2987 2506 mt 3059 2506 L
3023 2470 mt 3023 2542 L
3098 1740 mt 3170 1740 L
3134 1704 mt 3134 1776 L
4444 1809 mt 4516 1809 L
4480 1773 mt 4480 1845 L
5606 1816 mt 5678 1816 L
5642 1780 mt 5642 1852 L
2765 3039 mt 2837 3039 L
2801 3003 mt 2801 3075 L
3091  898 mt 3163  898 L
3127  862 mt 3127  934 L
3466 2811 mt 3538 2811 L
3502 2775 mt 3502 2847 L
4512 3658 mt 4584 3658 L
4548 3622 mt 4548 3694 L
2534 2352 mt 2606 2352 L
2570 2316 mt 2570 2388 L
4236 2279 mt 4308 2279 L
4272 2243 mt 4272 2315 L
3172 2270 mt 3244 2270 L
3208 2234 mt 3208 2306 L
3566 2864 mt 3638 2864 L
3602 2828 mt 3602 2900 L
3381 2514 mt 3453 2514 L
3417 2478 mt 3417 2550 L
4372 2835 mt 4444 2835 L
4408 2799 mt 4408 2871 L
2394 1954 mt 2466 1954 L
2430 1918 mt 2430 1990 L
2298 2261 mt 2370 2261 L
2334 2225 mt 2334 2297 L
3655 3675 mt 3727 3675 L
3691 3639 mt 3691 3711 L
4680 2664 mt 4752 2664 L
4716 2628 mt 4716 2700 L
2917 2523 mt 2989 2523 L
2953 2487 mt 2953 2559 L
4015 2204 mt 4087 2204 L
4051 2168 mt 4051 2240 L
4435 2709 mt 4507 2709 L
4471 2673 mt 4471 2745 L
2085  824 mt 2157  824 L
2121  788 mt 2121  860 L
4390 1917 mt 4462 1917 L
4426 1881 mt 4426 1953 L
4251 4023 mt 4323 4023 L
4287 3987 mt 4287 4059 L
1481 2078 mt 1553 2078 L
1517 2042 mt 1517 2114 L
4259 3527 mt 4331 3527 L
4295 3491 mt 4295 3563 L
2757 3641 mt 2829 3641 L
2793 3605 mt 2793 3677 L
2680 3515 mt 2752 3515 L
2716 3479 mt 2716 3551 L
3588 2624 mt 3660 2624 L
3624 2588 mt 3624 2660 L
4501 2018 mt 4573 2018 L
4537 1982 mt 4537 2054 L
4191 3171 mt 4263 3171 L
4227 3135 mt 4227 3207 L
5245 2414 mt 5317 2414 L
5281 2378 mt 5281 2450 L
3214 3731 mt 3286 3731 L
3250 3695 mt 3250 3767 L
4047 3093 mt 4119 3093 L
4083 3057 mt 4083 3129 L
1876 2396 mt 1948 2396 L
1912 2360 mt 1912 2432 L
4564 2792 mt 4636 2792 L
4600 2756 mt 4600 2828 L
3116 3191 mt 3188 3191 L
3152 3155 mt 3152 3227 L
3072 2062 mt 3144 2062 L
3108 2026 mt 3108 2098 L
4836 3144 mt 4908 3144 L
4872 3108 mt 4872 3180 L
4094 2325 mt 4166 2325 L
4130 2289 mt 4130 2361 L
3594 1794 mt 3666 1794 L
3630 1758 mt 3630 1830 L
3855 1419 mt 3927 1419 L
3891 1383 mt 3891 1455 L
2165 2379 mt 2237 2379 L
2201 2343 mt 2201 2415 L
5180 1434 mt 5252 1434 L
5216 1398 mt 5216 1470 L
3415 2302 mt 3487 2302 L
3451 2266 mt 3451 2338 L
3921 3491 mt 3993 3491 L
3957 3455 mt 3957 3527 L
5096 3075 mt 5168 3075 L
5132 3039 mt 5132 3111 L
2828 3457 mt 2900 3457 L
2864 3421 mt 2864 3493 L
5150 1942 mt 5222 1942 L
5186 1906 mt 5186 1978 L
3757 2962 mt 3829 2962 L
3793 2926 mt 3793 2998 L
3599 2453 mt 3671 2453 L
3635 2417 mt 3635 2489 L
1965 2458 mt 2037 2458 L
2001 2422 mt 2001 2494 L
2959 3386 mt 3031 3386 L
2995 3350 mt 2995 3422 L
4142 2925 mt 4214 2925 L
4178 2889 mt 4178 2961 L
3927 2083 mt 3999 2083 L
3963 2047 mt 3963 2119 L
4805 2094 mt 4877 2094 L
4841 2058 mt 4841 2130 L
4608 2869 mt 4680 2869 L
4644 2833 mt 4644 2905 L
4719 2256 mt 4791 2256 L
4755 2220 mt 4755 2292 L
4597 2320 mt 4669 2320 L
4633 2284 mt 4633 2356 L
3488  724 mt 3560  724 L
3524  688 mt 3524  760 L
2444 2849 mt 2516 2849 L
2480 2813 mt 2480 2885 L
4643 1121 mt 4715 1121 L
4679 1085 mt 4679 1157 L
3940 2237 mt 4012 2237 L
3976 2201 mt 3976 2273 L
6033 2668 mt 6105 2668 L
6069 2632 mt 6069 2704 L
2773 2682 mt 2845 2682 L
2809 2646 mt 2809 2718 L
3897 4131 mt 3969 4131 L
3933 4095 mt 3933 4167 L
3141 2759 mt 3213 2759 L
3177 2723 mt 3177 2795 L
2040 3011 mt 2112 3011 L
2076 2975 mt 2076 3047 L
4199 2155 mt 4271 2155 L
4235 2119 mt 4235 2191 L
5321 3610 mt 5393 3610 L
5357 3574 mt 5357 3646 L
3505 2899 mt 3577 2899 L
3541 2863 mt 3541 2935 L
3410 3213 mt 3482 3213 L
3446 3177 mt 3446 3249 L
1907 2659 mt 1979 2659 L
1943 2623 mt 1943 2695 L
3232 2528 mt 3304 2528 L
3268 2492 mt 3268 2564 L
2468 2686 mt 2540 2686 L
2504 2650 mt 2504 2722 L
3059 3415 mt 3131 3415 L
3095 3379 mt 3095 3451 L
3033 3848 mt 3105 3848 L
3069 3812 mt 3069 3884 L
3891 1960 mt 3963 1960 L
3927 1924 mt 3927 1996 L
2938 1502 mt 3010 1502 L
2974 1466 mt 2974 1538 L
4904 2247 mt 4976 2247 L
4940 2211 mt 4940 2283 L
3838 2214 mt 3910 2214 L
3874 2178 mt 3874 2250 L
2662 3567 mt 2734 3567 L
2698 3531 mt 2698 3603 L
3364 1550 mt 3436 1550 L
3400 1514 mt 3400 1586 L
2740 2104 mt 2812 2104 L
2776 2068 mt 2776 2140 L
4330 1978 mt 4402 1978 L
4366 1942 mt 4366 2014 L
3013 2307 mt 3085 2307 L
3049 2271 mt 3049 2343 L
3404 2584 mt 3476 2584 L
3440 2548 mt 3440 2620 L
3605 2597 mt 3677 2597 L
3641 2561 mt 3641 2633 L
3903 2497 mt 3975 2497 L
3939 2461 mt 3939 2533 L
4655 2311 mt 4727 2311 L
4691 2275 mt 4691 2347 L
 863 1878 mt  935 1878 L
 899 1842 mt  899 1914 L
3166 3184 mt 3238 3184 L
3202 3148 mt 3202 3220 L
2282 3273 mt 2354 3273 L
2318 3237 mt 2318 3309 L
2595 2035 mt 2667 2035 L
2631 1999 mt 2631 2071 L
3284 3242 mt 3356 3242 L
3320 3206 mt 3320 3278 L
2697 2946 mt 2769 2946 L
2733 2910 mt 2733 2982 L
2327 1538 mt 2399 1538 L
2363 1502 mt 2363 1574 L
1387 2637 mt 1459 2637 L
1423 2601 mt 1423 2673 L
2980 2099 mt 3052 2099 L
3016 2063 mt 3016 2135 L
2523 4072 mt 2595 4072 L
2559 4036 mt 2559 4108 L
3359 3908 mt 3431 3908 L
3395 3872 mt 3395 3944 L
4314 1892 mt 4386 1892 L
4350 1856 mt 4350 1928 L
2924 2427 mt 2996 2427 L
2960 2391 mt 2960 2463 L
3768 2242 mt 3840 2242 L
3804 2206 mt 3804 2278 L
4306 2125 mt 4378 2125 L
4342 2089 mt 4342 2161 L
2218 3405 mt 2290 3405 L
2254 3369 mt 2254 3441 L
4087 1845 mt 4159 1845 L
4123 1809 mt 4123 1881 L
4922 3306 mt 4994 3306 L
4958 3270 mt 4958 3342 L
1619 2218 mt 1691 2218 L
1655 2182 mt 1655 2254 L
4492 2930 mt 4564 2930 L
4528 2894 mt 4528 2966 L
3255 2334 mt 3327 2334 L
3291 2298 mt 3291 2370 L
2201 1526 mt 2273 1526 L
2237 1490 mt 2237 1562 L
3438 2741 mt 3510 2741 L
3474 2705 mt 3474 2777 L
2490 2135 mt 2562 2135 L
2526 2099 mt 2526 2171 L
3571 2736 mt 3643 2736 L
3607 2700 mt 3607 2772 L
3728 3051 mt 3800 3051 L
3764 3015 mt 3764 3087 L
3983 2480 mt 4055 2480 L
4019 2444 mt 4019 2516 L
2859 2764 mt 2931 2764 L
2895 2728 mt 2895 2800 L
4553 2713 mt 4625 2713 L
4589 2677 mt 4589 2749 L
4184 2057 mt 4256 2057 L
4220 2021 mt 4220 2093 L
3780 2488 mt 3852 2488 L
3816 2452 mt 3816 2524 L
4228 1732 mt 4300 1732 L
4264 1696 mt 4264 1768 L
2888 3468 mt 2960 3468 L
2924 3432 mt 2924 3504 L
4746 2773 mt 4818 2773 L
4782 2737 mt 4782 2809 L
3178 2046 mt 3250 2046 L
3214 2010 mt 3214 2082 L
4021 1872 mt 4093 1872 L
4057 1836 mt 4057 1908 L
4522 2989 mt 4594 2989 L
4558 2953 mt 4558 3025 L
2555 3367 mt 2627 3367 L
2591 3331 mt 2591 3403 L
2715 2519 mt 2787 2519 L
2751 2483 mt 2751 2555 L
3208 1671 mt 3280 1671 L
3244 1635 mt 3244 1707 L
4156 1898 mt 4228 1898 L
4192 1862 mt 4192 1934 L
2836 2007 mt 2908 2007 L
2872 1971 mt 2872 2043 L
3319 2120 mt 3391 2120 L
3355 2084 mt 3355 2156 L
3666 1936 mt 3738 1936 L
3702 1900 mt 3702 1972 L
2432 3081 mt 2504 3081 L
2468 3045 mt 2468 3117 L
2789 2541 mt 2861 2541 L
2825 2505 mt 2825 2577 L
5531 2914 mt 5603 2914 L
5567 2878 mt 5567 2950 L
3627 1514 mt 3699 1514 L
3663 1478 mt 3663 1550 L
3826 3358 mt 3898 3358 L
3862 3322 mt 3862 3394 L
3510 3693 mt 3582 3693 L
3546 3657 mt 3546 3729 L
3989 1371 mt 4061 1371 L
4025 1335 mt 4025 1407 L
2106 1277 mt 2178 1277 L
2142 1241 mt 2142 1313 L
3421 3331 mt 3493 3331 L
3457 3295 mt 3457 3367 L
2502 2370 mt 2574 2370 L
2538 2334 mt 2538 2406 L
2183 1593 mt 2255 1593 L
2219 1557 mt 2219 1629 L
3689 1715 mt 3761 1715 L
3725 1679 mt 3725 1751 L
3336 1858 mt 3408 1858 L
3372 1822 mt 3372 1894 L
2513 3063 mt 2585 3063 L
2549 3027 mt 2549 3099 L
3832 1662 mt 3904 1662 L
3868 1626 mt 3868 1698 L
2267 3235 mt 2339 3235 L
2303 3199 mt 2303 3271 L
2126 2288 mt 2198 2288 L
2162 2252 mt 2162 2324 L
2235 2365 mt 2307 2365 L
2271 2329 mt 2271 2401 L
4760 2727 mt 4832 2727 L
4796 2691 mt 4796 2763 L
3946 2718 mt 4018 2718 L
3982 2682 mt 3982 2754 L
3885  957 mt 3957  957 L
3921  921 mt 3921  993 L
2575 1634 mt 2647 1634 L
2611 1598 mt 2611 1670 L
3053 1388 mt 3125 1388 L
3089 1352 mt 3089 1424 L
2671 2731 mt 2743 2731 L
2707 2695 mt 2707 2767 L
4213 2904 mt 4285 2904 L
4249 2868 mt 4249 2940 L
4100  564 mt 4172  564 L
4136  528 mt 4136  600 L
3621 1748 mt 3693 1748 L
3657 1712 mt 3657 1784 L
4820 2920 mt 4892 2920 L
4856 2884 mt 4856 2956 L
2993 2815 mt 3065 2815 L
3029 2779 mt 3029 2851 L
1722 3125 mt 1794 3125 L
1758 3089 mt 1758 3161 L
3915 2859 mt 3987 2859 L
3951 2823 mt 3951 2895 L
3549 1838 mt 3621 1838 L
3585 1802 mt 3585 1874 L
3460 2909 mt 3532 2909 L
3496 2873 mt 3496 2945 L
5282 3376 mt 5354 3376 L
5318 3340 mt 5318 3412 L
4706 1990 mt 4778 1990 L
4742 1954 mt 4742 2026 L
3820 3099 mt 3892 3099 L
3856 3063 mt 3856 3135 L
2381 2392 mt 2453 2392 L
2417 2356 mt 2417 2428 L
3971 2978 mt 4043 2978 L
4007 2942 mt 4007 3014 L
3007 2150 mt 3079 2150 L
3043 2114 mt 3043 2186 L
4128 2418 mt 4200 2418 L
4164 2382 mt 4164 2454 L
5047 1561 mt 5119 1561 L
5083 1525 mt 5083 1597 L
3814 1643 mt 3886 1643 L
3850 1607 mt 3850 1679 L
2706 2830 mt 2778 2830 L
2742 2794 mt 2742 2866 L
2797 2170 mt 2869 2170 L
2833 2134 mt 2833 2206 L
4009 1764 mt 4081 1764 L
4045 1728 mt 4045 1800 L
4266 3131 mt 4338 3131 L
4302 3095 mt 4302 3167 L
3717 3479 mt 3789 3479 L
3753 3443 mt 3753 3515 L
2732 1802 mt 2804 1802 L
2768 1766 mt 2768 1838 L
3803 3164 mt 3875 3164 L
3839 3128 mt 3839 3200 L
3797 1823 mt 3869 1823 L
3833 1787 mt 3833 1859 L
3683 4305 mt 3755 4305 L
3719 4269 mt 3719 4341 L
3850 3069 mt 3922 3069 L
3886 3033 mt 3886 3105 L
4135 2801 mt 4207 2801 L
4171 2765 mt 4171 2837 L
3577 2140 mt 3649 2140 L
3613 2104 mt 3613 2176 L
2881 3265 mt 2953 3265 L
2917 3229 mt 2917 3301 L
2456 2051 mt 2528 2051 L
2492 2015 mt 2492 2087 L
3532 1865 mt 3604 1865 L
3568 1829 mt 3568 1901 L
3844 3112 mt 3916 3112 L
3880 3076 mt 3880 3148 L
3160 1462 mt 3232 1462 L
3196 1426 mt 3196 1498 L
3237 3395 mt 3309 3395 L
3273 3359 mt 3273 3431 L
3398 3797 mt 3470 3797 L
3434 3761 mt 3434 3833 L
4041 3281 mt 4113 3281 L
4077 3245 mt 4077 3317 L
4463 3022 mt 4535 3022 L
4499 2986 mt 4499 3058 L
3499 2567 mt 3571 2567 L
3535 2531 mt 3535 2603 L
2146 1448 mt 2218 1448 L
2182 1412 mt 2182 1484 L
3184 2405 mt 3256 2405 L
3220 2369 mt 3220 2441 L
3249 1972 mt 3321 1972 L
3285 1936 mt 3285 2008 L
3471 2194 mt 3543 2194 L
3507 2158 mt 3507 2230 L
4886 2228 mt 4958 2228 L
4922 2192 mt 4922 2264 L
6225 2298 mt 6297 2298 L
6261 2262 mt 6261 2334 L
3644 2475 mt 3716 2475 L
3680 2439 mt 3680 2511 L
3123 1152 mt 3195 1152 L
3159 1116 mt 3159 1188 L
3964 3822 mt 4036 3822 L
4000 3786 mt 4000 3858 L
4532 3227 mt 4604 3227 L
4568 3191 mt 4568 3263 L
2931 2673 mt 3003 2673 L
2967 2637 mt 2967 2709 L
4355 2967 mt 4427 2967 L
4391 2931 mt 4391 3003 L
3353 2704 mt 3425 2704 L
3389 2668 mt 3389 2740 L
3000 3340 mt 3072 3340 L
3036 3304 mt 3036 3376 L
3633 3206 mt 3705 3206 L
3669 3170 mt 3669 3242 L
4177 3595 mt 4249 3595 L
4213 3559 mt 4213 3631 L
2874 2067 mt 2946 2067 L
2910 2031 mt 2910 2103 L
2896 2894 mt 2968 2894 L
2932 2858 mt 2932 2930 L
3861 2951 mt 3933 2951 L
3897 2915 mt 3897 2987 L
4693 1930 mt 4765 1930 L
4729 1894 mt 4729 1966 L
3027 2029 mt 3099 2029 L
3063 1993 mt 3063 2065 L
3909 2189 mt 3981 2189 L
3945 2153 mt 3945 2225 L
4290 2691 mt 4362 2691 L
4326 2655 mt 4326 2727 L
3296 1087 mt 3368 1087 L
3332 1051 mt 3332 1123 L
5071 1995 mt 5143 1995 L
5107 1959 mt 5107 2031 L
1259 2338 mt 1331 2338 L
1295 2302 mt 1295 2374 L
2605 2750 mt 2677 2750 L
2641 2714 mt 2641 2786 L
3560 3752 mt 3632 3752 L
3596 3716 mt 3596 3788 L
2479 2854 mt 2551 2854 L
2515 2818 mt 2515 2890 L
3153 2545 mt 3225 2545 L
3189 2509 mt 3189 2581 L
2341 1756 mt 2413 1756 L
2377 1720 mt 2377 1792 L
4631 2549 mt 4703 2549 L
4667 2513 mt 4667 2585 L
4054 2388 mt 4126 2388 L
4090 2352 mt 4090 2424 L
5365 3106 mt 5437 3106 L
5401 3070 mt 5401 3142 L
2652 2650 mt 2724 2650 L
2688 2614 mt 2688 2686 L
4114 2615 mt 4186 2615 L
4150 2579 mt 4150 2651 L
3649 2160 mt 3721 2160 L
3685 2124 mt 3685 2196 L
4789 3198 mt 4861 3198 L
4825 3162 mt 4825 3234 L
2586 2677 mt 2658 2677 L
2622 2641 mt 2622 2713 L
3638 2782 mt 3710 2782 L
3674 2746 mt 3674 2818 L
5211 2935 mt 5283 2935 L
5247 2899 mt 5247 2971 L
4347 2700 mt 4419 2700 L
4383 2664 mt 4383 2736 L
3791 1923 mt 3863 1923 L
3827 1887 mt 3827 1959 L
3873 1336 mt 3945 1336 L
3909 1300 mt 3909 1372 L
3273 1772 mt 3345 1772 L
3309 1736 mt 3309 1808 L
4574 1049 mt 4646 1049 L
4610 1013 mt 4610 1085 L
3740 3017 mt 3812 3017 L
3776 2981 mt 3776 3053 L
4274 2223 mt 4346 2223 L
4310 2187 mt 4310 2259 L
4732 3137 mt 4804 3137 L
4768 3101 mt 4768 3173 L
2407 2879 mt 2479 2879 L
2443 2843 mt 2443 2915 L
4667 2493 mt 4739 2493 L
4703 2457 mt 4703 2529 L
3934 2145 mt 4006 2145 L
3970 2109 mt 3970 2181 L
3879 3942 mt 3951 3942 L
3915 3906 mt 3915 3978 L
2624 2115 mt 2696 2115 L
2660 2079 mt 2660 2151 L
4364 2209 mt 4436 2209 L
4400 2173 mt 4400 2245 L
3977 2956 mt 4049 2956 L
4013 2920 mt 4013 2992 L
3482 2889 mt 3554 2889 L
3518 2853 mt 3518 2925 L
4381 2532 mt 4453 2532 L
4417 2496 mt 4417 2568 L
4869 3087 mt 4941 3087 L
4905 3051 mt 4905 3123 L
5002 2695 mt 5074 2695 L
5038 2659 mt 5038 2731 L
4472 2073 mt 4544 2073 L
4508 2037 mt 4508 2109 L
3661 1298 mt 3733 1298 L
3697 1262 mt 3697 1334 L
3347 3877 mt 3419 3877 L
3383 3841 mt 3383 3913 L
5024 1006 mt 5096 1006 L
5060  970 mt 5060 1042 L
3745 2628 mt 3817 2628 L
3781 2592 mt 3781 2664 L
4775 3250 mt 4847 3250 L
4811 3214 mt 4811 3286 L
3516 2275 mt 3588 2275 L
3552 2239 mt 3552 2311 L
4002 2611 mt 4074 2611 L
4038 2575 mt 4038 2647 L
3261 2940 mt 3333 2940 L
3297 2904 mt 3297 2976 L
3432 3711 mt 3504 3711 L
3468 3675 mt 3468 3747 L
4206 2251 mt 4278 2251 L
4242 2215 mt 4242 2287 L
5828 2284 mt 5900 2284 L
5864 2248 mt 5864 2320 L
2689 3057 mt 2761 3057 L
2725 3021 mt 2725 3093 L
2615 3625 mt 2687 3625 L
2651 3589 mt 2651 3661 L
3278 2884 mt 3350 2884 L
3314 2848 mt 3314 2920 L
3387 1966 mt 3459 1966 L
3423 1930 mt 3423 2002 L
3104 2316 mt 3176 2316 L
3140 2280 mt 3140 2352 L
3196 2432 mt 3268 2432 L
3232 2396 mt 3232 2468 L
4060 2745 mt 4132 2745 L
4096 2709 mt 4096 2781 L
3809 2347 mt 3881 2347 L
3845 2311 mt 3845 2383 L
3110 1723 mt 3182 1723 L
3146 1687 mt 3146 1759 L
5122 2778 mt 5194 2778 L
5158 2742 mt 5158 2814 L
4074 2501 mt 4146 2501 L
4110 2465 mt 4110 2537 L
3078 2383 mt 3150 2383 L
3114 2347 mt 3114 2419 L
3867 1181 mt 3939 1181 L
3903 1145 mt 3903 1217 L
1991 1680 mt 2063 1680 L
2027 1644 mt 2027 1716 L
4961 2787 mt 5033 2787 L
4997 2751 mt 4997 2823 L
3342 1698 mt 3414 1698 L
3378 1662 mt 3378 1734 L
3220 3314 mt 3292 3314 L
3256 3278 mt 3256 3350 L
3762 1851 mt 3834 1851 L
3798 1815 mt 3798 1887 L
3952 3000 mt 4024 3000 L
3988 2964 mt 3988 3036 L
4941 3257 mt 5013 3257 L
4977 3221 mt 4977 3293 L
3226 2165 mt 3298 2165 L
3262 2129 mt 3262 2201 L
3454 2440 mt 3526 2440 L
3490 2404 mt 3490 2476 L
2565 3436 mt 2637 3436 L
2601 3400 mt 2601 3472 L
3129 1614 mt 3201 1614 L
3165 1578 mt 3165 1650 L
2821 2633 mt 2893 2633 L
2857 2597 mt 2857 2669 L
3147 3774 mt 3219 3774 L
3183 3738 mt 3183 3810 L
2420 1911 mt 2492 1911 L
2456 1875 mt 2456 1947 L
3370 2983 mt 3442 2983 L
3406 2947 mt 3406 3019 L
3711 2329 mt 3783 2329 L
3747 2293 mt 3747 2365 L
2545 3220 mt 2617 3220 L
2581 3184 mt 2581 3256 L
3020 3581 mt 3092 3581 L
3056 3545 mt 3056 3617 L
4542 2265 mt 4614 2265 L
4578 2229 mt 4578 2301 L
2312 2374 mt 2384 2374 L
2348 2338 mt 2348 2410 L
3040 2606 mt 3112 2606 L
3076 2570 mt 3076 2642 L
4407 3425 mt 4479 3425 L
4443 3389 mt 4443 3461 L
2844 3289 mt 2916 3289 L
2880 3253 mt 2880 3325 L
4221 3045 mt 4293 3045 L
4257 3009 mt 4257 3081 L
4425 2471 mt 4497 2471 L
4461 2435 mt 4461 2507 L
3243 2180 mt 3315 2180 L
3279 2144 mt 3279 2216 L
5413 2641 mt 5485 2641 L
5449 2605 mt 5449 2677 L
3443 3178 mt 3515 3178 L
3479 3142 mt 3479 3214 L
2016 1318 mt 2088 1318 L
2052 1282 mt 2052 1354 L
2851 3446 mt 2923 3446 L
2887 3410 mt 2887 3482 L
1674 2571 mt 1746 2571 L
1710 2535 mt 1710 2607 L
3774 3980 mt 3846 3980 L
3810 3944 mt 3810 4016 L
4034 2012 mt 4106 2012 L
4070 1976 mt 4070 2048 L
4121 1779 mt 4193 1779 L
4157 1743 mt 4157 1815 L
2813 2874 mt 2885 2874 L
2849 2838 mt 2849 2910 L
4619 2554 mt 4691 2554 L
4655 2518 mt 4655 2590 L
3477 2130 mt 3549 2130 L
3513 2094 mt 3513 2166 L
3706 3540 mt 3778 3540 L
3742 3504 mt 3742 3576 L
3672 2024 mt 3744 2024 L
3708 1988 mt 3708 2060 L
2866 2580 mt 2938 2580 L
2902 2544 mt 2902 2616 L
4852 2089 mt 4924 2089 L
4888 2053 mt 4888 2125 L
3302 1653 mt 3374 1653 L
3338 1617 mt 3338 1689 L
4170 2356 mt 4242 2356 L
4206 2320 mt 4206 2392 L
4482 2593 mt 4554 2593 L
4518 2557 mt 4518 2629 L
2368 2449 mt 2440 2449 L
2404 2413 mt 2404 2485 L
2251 1948 mt 2323 1948 L
2287 1912 mt 2287 1984 L
3616 1689 mt 3688 1689 L
3652 1653 mt 3652 1725 L
4282 2343 mt 4354 2343 L
4318 2307 mt 4318 2379 L
2805 2233 mt 2877 2233 L
2841 2197 mt 2841 2269 L
3996 2185 mt 4068 2185 L
4032 2149 mt 4032 2221 L
4107 1476 mt 4179 1476 L
4143 1440 mt 4143 1512 L
3313 2796 mt 3385 2796 L
3349 2760 mt 3349 2832 L
3610 1984 mt 3682 1984 L
3646 1948 mt 3646 2020 L
5700 3553 mt 5772 3553 L
5736 3517 mt 5736 3589 L
3066 1624 mt 3138 1624 L
3102 1588 mt 3102 1660 L
4298 3005 mt 4370 3005 L
4334 2969 mt 4334 3041 L
3449 2754 mt 3521 2754 L
3485 2718 mt 3485 2790 L
3734 1232 mt 3806 1232 L
3770 1196 mt 3770 1268 L
2910 1354 mt 2982 1354 L
2946 1318 mt 2946 1390 L
2973 2994 mt 3045 2994 L
3009 2958 mt 3009 3030 L
2903 2820 mt 2975 2820 L
2939 2784 mt 2939 2856 L
1937 1404 mt 2009 1404 L
1973 1368 mt 1973 1440 L
4080 2175 mt 4152 2175 L
4116 2139 mt 4116 2211 L
3527 2562 mt 3599 2562 L
3563 2526 mt 3563 2598 L
3521 3028 mt 3593 3028 L
3557 2992 mt 3557 3064 L
3677 1707 mt 3749 1707 L
3713 1671 mt 3713 1743 L
3544 3157 mt 3616 3157 L
3580 3121 mt 3580 3193 L
2966 3349 mt 3038 3349 L
3002 3313 mt 3002 3385 L
2952 2109 mt 3024 2109 L
2988 2073 mt 2988 2145 L
4322 2768 mt 4394 2768 L
4358 2732 mt 4358 2804 L
3958 2510 mt 4030 2510 L
3994 2474 mt 3994 2546 L
3376 1207 mt 3448 1207 L
3412 1171 mt 3412 1243 L
2643 1904 mt 2715 1904 L
2679 1868 mt 2679 1940 L
3393 1489 mt 3465 1489 L
3429 1453 mt 3429 1525 L
2945 2462 mt 3017 2462 L
2981 2426 mt 2981 2498 L
3555 3151 mt 3627 3151 L
3591 3115 mt 3591 3187 L
gs 899 414 5363 4203 rc
gr

0 sg
2779 5104 mt 
(\(F,DCTs,GMM\)) s
 482 3259 mt  -90 rotate
(\(S,PAC,GMM\)) s
90 rotate
2905  223 mt 
(Corr = -0.03) s

end %%Color Dict

eplot
%%EndObject

epage
end

showpage

%%Trailer
%%EOF
