%!PS-Adobe-3.0 EPSF-3.0
%%Creator: MATLAB, The Mathworks, Inc. Version 7.7.0.471 (R2008b). Operating System: Microsoft Windows XP.
%%Title: Pictures\main_zoo_mvar_analysis_data_BMI_xcorr_bmi_p1_k2_1_7.eps
%%CreationDate: 10/26/2009  05:44:16
%%DocumentNeededFonts: Helvetica
%%DocumentProcessColors: Cyan Magenta Yellow Black
%%LanguageLevel: 2
%%Pages: 1
%%BoundingBox:    32   180   546   616
%%EndComments

%%BeginProlog
% MathWorks dictionary
/MathWorks 160 dict begin
% definition operators
/bdef {bind def} bind def
/ldef {load def} bind def
/xdef {exch def} bdef
/xstore {exch store} bdef
% operator abbreviations
/c  /clip ldef
/cc /concat ldef
/cp /closepath ldef
/gr /grestore ldef
/gs /gsave ldef
/mt /moveto ldef
/np /newpath ldef
/cm /currentmatrix ldef
/sm /setmatrix ldef
/rm /rmoveto ldef
/rl /rlineto ldef
/s {show newpath} bdef
/sc {setcmykcolor} bdef
/sr /setrgbcolor ldef
/sg /setgray ldef
/w /setlinewidth ldef
/j /setlinejoin ldef
/cap /setlinecap ldef
/rc {rectclip} bdef
/rf {rectfill} bdef
% page state control
/pgsv () def
/bpage {/pgsv save def} bdef
/epage {pgsv restore} bdef
/bplot /gsave ldef
/eplot {stroke grestore} bdef
% orientation switch
/portraitMode 0 def /landscapeMode 1 def /rotateMode 2 def
% coordinate system mappings
/dpi2point 0 def
% font control
/FontSize 0 def
/FMS {/FontSize xstore findfont [FontSize 0 0 FontSize neg 0 0]
  makefont setfont} bdef
/ISOLatin1Encoding where {pop /WindowsLatin1Encoding 256 array bdef
ISOLatin1Encoding WindowsLatin1Encoding copy pop
/.notdef/.notdef/quotesinglbase/florin/quotedblbase/ellipsis/dagger
/daggerdbl/circumflex/perthousand/Scaron/guilsinglleft/OE/.notdef/.notdef
/.notdef/.notdef/quoteleft/quoteright/quotedblleft/quotedblright/bullet
/endash/emdash/tilde/trademark/scaron/guilsinglright/oe/.notdef/.notdef
/Ydieresis WindowsLatin1Encoding 128 32 getinterval astore pop}
{/WindowsLatin1Encoding StandardEncoding bdef} ifelse
/reencode {exch dup where {pop load} {pop StandardEncoding} ifelse
  exch dup 3 1 roll findfont dup length dict begin
  { 1 index /FID ne {def}{pop pop} ifelse } forall
  /Encoding exch def currentdict end definefont pop} bdef
/isroman {findfont /CharStrings get /Agrave known} bdef
/FMSR {3 1 roll 1 index dup isroman {reencode} {pop pop} ifelse
  exch FMS} bdef
/csm {1 dpi2point div -1 dpi2point div scale neg translate
 dup landscapeMode eq {pop -90 rotate}
  {rotateMode eq {90 rotate} if} ifelse} bdef
% line types: solid, dotted, dashed, dotdash
/SO { [] 0 setdash } bdef
/DO { [.5 dpi2point mul 4 dpi2point mul] 0 setdash } bdef
/DA { [6 dpi2point mul] 0 setdash } bdef
/DD { [.5 dpi2point mul 4 dpi2point mul 6 dpi2point mul 4
  dpi2point mul] 0 setdash } bdef
% macros for lines and objects
/L {lineto stroke} bdef
/MP {3 1 roll moveto 1 sub {rlineto} repeat} bdef
/AP {{rlineto} repeat} bdef
/PDlw -1 def
/W {/PDlw currentlinewidth def setlinewidth} def
/PP {closepath eofill} bdef
/DP {closepath stroke} bdef
/MR {4 -2 roll moveto dup  0 exch rlineto exch 0 rlineto
  neg 0 exch rlineto closepath} bdef
/FR {MR stroke} bdef
/PR {MR fill} bdef
/L1i {{currentfile picstr readhexstring pop} image} bdef
/tMatrix matrix def
/MakeOval {newpath tMatrix currentmatrix pop translate scale
0 0 1 0 360 arc tMatrix setmatrix} bdef
/FO {MakeOval stroke} bdef
/PO {MakeOval fill} bdef
/PD {currentlinewidth 2 div 0 360 arc fill
   PDlw -1 eq not {PDlw w /PDlw -1 def} if} def
/FA {newpath tMatrix currentmatrix pop translate scale
  0 0 1 5 -2 roll arc tMatrix setmatrix stroke} bdef
/PA {newpath tMatrix currentmatrix pop	translate 0 0 moveto scale
  0 0 1 5 -2 roll arc closepath tMatrix setmatrix fill} bdef
/FAn {newpath tMatrix currentmatrix pop translate scale
  0 0 1 5 -2 roll arcn tMatrix setmatrix stroke} bdef
/PAn {newpath tMatrix currentmatrix pop translate 0 0 moveto scale
  0 0 1 5 -2 roll arcn closepath tMatrix setmatrix fill} bdef
/vradius 0 def /hradius 0 def /lry 0 def
/lrx 0 def /uly 0 def /ulx 0 def /rad 0 def
/MRR {/vradius xdef /hradius xdef /lry xdef /lrx xdef /uly xdef
  /ulx xdef newpath tMatrix currentmatrix pop ulx hradius add uly
  vradius add translate hradius vradius scale 0 0 1 180 270 arc 
  tMatrix setmatrix lrx hradius sub uly vradius add translate
  hradius vradius scale 0 0 1 270 360 arc tMatrix setmatrix
  lrx hradius sub lry vradius sub translate hradius vradius scale
  0 0 1 0 90 arc tMatrix setmatrix ulx hradius add lry vradius sub
  translate hradius vradius scale 0 0 1 90 180 arc tMatrix setmatrix
  closepath} bdef
/FRR {MRR stroke } bdef
/PRR {MRR fill } bdef
/MlrRR {/lry xdef /lrx xdef /uly xdef /ulx xdef /rad lry uly sub 2 div def
  newpath tMatrix currentmatrix pop ulx rad add uly rad add translate
  rad rad scale 0 0 1 90 270 arc tMatrix setmatrix lrx rad sub lry rad
  sub translate rad rad scale 0 0 1 270 90 arc tMatrix setmatrix
  closepath} bdef
/FlrRR {MlrRR stroke } bdef
/PlrRR {MlrRR fill } bdef
/MtbRR {/lry xdef /lrx xdef /uly xdef /ulx xdef /rad lrx ulx sub 2 div def
  newpath tMatrix currentmatrix pop ulx rad add uly rad add translate
  rad rad scale 0 0 1 180 360 arc tMatrix setmatrix lrx rad sub lry rad
  sub translate rad rad scale 0 0 1 0 180 arc tMatrix setmatrix
  closepath} bdef
/FtbRR {MtbRR stroke } bdef
/PtbRR {MtbRR fill } bdef
/stri 6 array def /dtri 6 array def
/smat 6 array def /dmat 6 array def
/tmat1 6 array def /tmat2 6 array def /dif 3 array def
/asub {/ind2 exch def /ind1 exch def dup dup
  ind1 get exch ind2 get sub exch } bdef
/tri_to_matrix {
  2 0 asub 3 1 asub 4 0 asub 5 1 asub
  dup 0 get exch 1 get 7 -1 roll astore } bdef
/compute_transform {
  dmat dtri tri_to_matrix tmat1 invertmatrix 
  smat stri tri_to_matrix tmat2 concatmatrix } bdef
/ds {stri astore pop} bdef
/dt {dtri astore pop} bdef
/db {2 copy /cols xdef /rows xdef mul dup 3 mul string
  currentfile 
  3 index 0 eq {/ASCIIHexDecode filter}
  {/ASCII85Decode filter 3 index 2 eq {/RunLengthDecode filter} if }
  ifelse exch readstring pop
  dup 0 3 index getinterval /rbmap xdef
  dup 2 index dup getinterval /gbmap xdef
  1 index dup 2 mul exch getinterval /bbmap xdef pop pop}bdef
/it {gs np dtri aload pop moveto lineto lineto cp c
  cols rows 8 compute_transform 
  rbmap gbmap bbmap true 3 colorimage gr}bdef
/il {newpath moveto lineto stroke}bdef
currentdict end def
%%EndProlog

%%BeginSetup
MathWorks begin

0 cap

end
%%EndSetup

%%Page: 1 1
%%BeginPageSetup
%%PageBoundingBox:    32   180   546   616
MathWorks begin
bpage
%%EndPageSetup

%%BeginObject: obj1
bplot

/dpi2point 12 def
portraitMode 0216 7344 csm

  174   -48  6173  5231 rc
85 dict begin %Colortable dictionary
/c0 { 0.000000 0.000000 0.000000 sr} bdef
/c1 { 1.000000 1.000000 1.000000 sr} bdef
/c2 { 0.900000 0.000000 0.000000 sr} bdef
/c3 { 0.000000 0.820000 0.000000 sr} bdef
/c4 { 0.000000 0.000000 0.800000 sr} bdef
/c5 { 0.910000 0.820000 0.320000 sr} bdef
/c6 { 1.000000 0.260000 0.820000 sr} bdef
/c7 { 0.000000 0.820000 0.820000 sr} bdef
c0
1 j
1 sg
   0    0 6919 5187 rf
6 w
0 4201 5362 0 0 -4201 899 4616 4 MP
PP
-5362 0 0 4201 5362 0 0 -4201 899 4616 5 MP stroke
4 w
DO
SO
6 w
0 sg
 899  415 mt 6261  415 L
 899 4616 mt 6261 4616 L
6261 4616 mt 6261  415 L
 899 4616 mt  899  415 L
 899 4616 mt 6261 4616 L
 899 4616 mt  899  415 L
1971 4616 mt 1971 4562 L
1971  415 mt 1971  468 L
%%IncludeResource: font Helvetica
/Helvetica /WindowsLatin1Encoding 240 FMSR

1805 4873 mt 
(0.2) s
3043 4616 mt 3043 4562 L
3043  415 mt 3043  468 L
2877 4873 mt 
(0.4) s
4116 4616 mt 4116 4562 L
4116  415 mt 4116  468 L
3950 4873 mt 
(0.6) s
5188 4616 mt 5188 4562 L
5188  415 mt 5188  468 L
5022 4873 mt 
(0.8) s
 899 4196 mt  952 4196 L
6261 4196 mt 6207 4196 L
 531 4285 mt 
(0.1) s
 899 3776 mt  952 3776 L
6261 3776 mt 6207 3776 L
 531 3865 mt 
(0.2) s
 899 3356 mt  952 3356 L
6261 3356 mt 6207 3356 L
 531 3445 mt 
(0.3) s
 899 2935 mt  952 2935 L
6261 2935 mt 6207 2935 L
 531 3024 mt 
(0.4) s
 899 2515 mt  952 2515 L
6261 2515 mt 6207 2515 L
 531 2604 mt 
(0.5) s
 899 2095 mt  952 2095 L
6261 2095 mt 6207 2095 L
 531 2184 mt 
(0.6) s
 899 1675 mt  952 1675 L
6261 1675 mt 6207 1675 L
 531 1764 mt 
(0.7) s
 899 1255 mt  952 1255 L
6261 1255 mt 6207 1255 L
 531 1344 mt 
(0.8) s
 899  835 mt  952  835 L
6261  835 mt 6207  835 L
 531  924 mt 
(0.9) s
 899  415 mt 6261  415 L
 899 4616 mt 6261 4616 L
6261 4616 mt 6261  415 L
 899 4616 mt  899  415 L
gs 899 414 5363 4203 rc
gr

/c8 { 0.000000 0.000000 1.000000 sr} bdef
c8
5711  505 mt 5783  505 L
5747  469 mt 5747  541 L
6170 1018 mt 6242 1018 L
6206  982 mt 6206 1054 L
1538 3370 mt 1610 3370 L
1574 3334 mt 1574 3406 L
1040  725 mt 1112  725 L
1076  689 mt 1076  761 L
5197  512 mt 5269  512 L
5233  476 mt 5233  548 L
1063 1672 mt 1135 1672 L
1099 1636 mt 1099 1708 L
 864  602 mt  936  602 L
 900  566 mt  900  638 L
5223 2010 mt 5295 2010 L
5259 1974 mt 5259 2046 L
5098  616 mt 5170  616 L
5134  580 mt 5134  652 L
6173 1244 mt 6245 1244 L
6209 1208 mt 6209 1280 L
1044 1113 mt 1116 1113 L
1080 1077 mt 1080 1149 L
4160 2644 mt 4232 2644 L
4196 2608 mt 4196 2680 L
6191  634 mt 6263  634 L
6227  598 mt 6227  670 L
3007 1173 mt 3079 1173 L
3043 1137 mt 3043 1209 L
6104  623 mt 6176  623 L
6140  587 mt 6140  659 L
3711  821 mt 3783  821 L
3747  785 mt 3747  857 L
4390 2877 mt 4462 2877 L
4426 2841 mt 4426 2913 L
5397 4591 mt 5469 4591 L
5433 4555 mt 5433 4627 L
6060  905 mt 6132  905 L
6096  869 mt 6096  941 L
4636 1649 mt 4708 1649 L
4672 1613 mt 4672 1685 L
1303  914 mt 1375  914 L
1339  878 mt 1339  950 L
5038 4587 mt 5110 4587 L
5074 4551 mt 5074 4623 L
1035  537 mt 1107  537 L
1071  501 mt 1071  573 L
1800 1154 mt 1872 1154 L
1836 1118 mt 1836 1190 L
5740  811 mt 5812  811 L
5776  775 mt 5776  847 L
3523 1450 mt 3595 1450 L
3559 1414 mt 3559 1486 L
1092 1574 mt 1164 1574 L
1128 1538 mt 1128 1610 L
4803  912 mt 4875  912 L
4839  876 mt 4839  948 L
4217  555 mt 4289  555 L
4253  519 mt 4253  591 L
5194  934 mt 5266  934 L
5230  898 mt 5230  970 L
 907 1947 mt  979 1947 L
 943 1911 mt  943 1983 L
2766  870 mt 2838  870 L
2802  834 mt 2802  906 L
 961 2130 mt 1033 2130 L
 997 2094 mt  997 2166 L
3180 2523 mt 3252 2523 L
3216 2487 mt 3216 2559 L
3180  522 mt 3252  522 L
3216  486 mt 3216  558 L
3852 2520 mt 3924 2520 L
3888 2484 mt 3888 2556 L
4663 1740 mt 4735 1740 L
4699 1704 mt 4699 1776 L
 940  649 mt 1012  649 L
 976  613 mt  976  685 L
2473  452 mt 2545  452 L
2509  416 mt 2509  488 L
2619  582 mt 2691  582 L
2655  546 mt 2655  618 L
3905 2743 mt 3977 2743 L
3941 2707 mt 3941 2779 L
5778  444 mt 5850  444 L
5814  408 mt 5814  480 L
6222 1101 mt 6294 1101 L
6258 1065 mt 6258 1137 L
4214 4196 mt 4286 4196 L
4250 4160 mt 4250 4232 L
6050 3339 mt 6122 3339 L
6086 3303 mt 6086 3375 L
3498 1223 mt 3570 1223 L
3534 1187 mt 3534 1259 L
2940  557 mt 3012  557 L
2976  521 mt 2976  593 L
5549 1557 mt 5621 1557 L
5585 1521 mt 5585 1593 L
1041 3405 mt 1113 3405 L
1077 3369 mt 1077 3441 L
5607 1862 mt 5679 1862 L
5643 1826 mt 5643 1898 L
1610 1030 mt 1682 1030 L
1646  994 mt 1646 1066 L
4620 1147 mt 4692 1147 L
4656 1111 mt 4656 1183 L
4842 2599 mt 4914 2599 L
4878 2563 mt 4878 2635 L
5380 1900 mt 5452 1900 L
5416 1864 mt 5416 1936 L
4579 1916 mt 4651 1916 L
4615 1880 mt 4615 1952 L
4239 3146 mt 4311 3146 L
4275 3110 mt 4275 3182 L
2372 1272 mt 2444 1272 L
2408 1236 mt 2408 1308 L
5971 2050 mt 6043 2050 L
6007 2014 mt 6007 2086 L
1830  617 mt 1902  617 L
1866  581 mt 1866  653 L
5677 1123 mt 5749 1123 L
5713 1087 mt 5713 1159 L
2918 4353 mt 2990 4353 L
2954 4317 mt 2954 4389 L
 927  881 mt  999  881 L
 963  845 mt  963  917 L
3256 4469 mt 3328 4469 L
3292 4433 mt 3292 4505 L
6194  565 mt 6266  565 L
6230  529 mt 6230  601 L
5370 2246 mt 5442 2246 L
5406 2210 mt 5406 2282 L
5131 1917 mt 5203 1917 L
5167 1881 mt 5167 1953 L
3962  989 mt 4034  989 L
3998  953 mt 3998 1025 L
2036  841 mt 2108  841 L
2072  805 mt 2072  877 L
5446  580 mt 5518  580 L
5482  544 mt 5482  616 L
 971  428 mt 1043  428 L
1007  392 mt 1007  464 L
1359  600 mt 1431  600 L
1395  564 mt 1395  636 L
6163 3031 mt 6235 3031 L
6199 2995 mt 6199 3067 L
5817 1815 mt 5889 1815 L
5853 1779 mt 5853 1851 L
1293  445 mt 1365  445 L
1329  409 mt 1329  481 L
 863 1145 mt  935 1145 L
 899 1109 mt  899 1181 L
2723 4612 mt 2795 4612 L
2759 4576 mt 2759 4648 L
6008 3920 mt 6080 3920 L
6044 3884 mt 6044 3956 L
1168  449 mt 1240  449 L
1204  413 mt 1204  485 L
1296  714 mt 1368  714 L
1332  678 mt 1332  750 L
5794  697 mt 5866  697 L
5830  661 mt 5830  733 L
3873  561 mt 3945  561 L
3909  525 mt 3909  597 L
2098 4497 mt 2170 4497 L
2134 4461 mt 2134 4533 L
5464 2161 mt 5536 2161 L
5500 2125 mt 5500 2197 L
4624  425 mt 4696  425 L
4660  389 mt 4660  461 L
5846  626 mt 5918  626 L
5882  590 mt 5882  662 L
5544 4511 mt 5616 4511 L
5580 4475 mt 5580 4547 L
3068  466 mt 3140  466 L
3104  430 mt 3104  502 L
2757 1969 mt 2829 1969 L
2793 1933 mt 2793 2005 L
5227 4399 mt 5299 4399 L
5263 4363 mt 5263 4435 L
1016  430 mt 1088  430 L
1052  394 mt 1052  466 L
2792  477 mt 2864  477 L
2828  441 mt 2828  513 L
6062  573 mt 6134  573 L
6098  537 mt 6098  609 L
1838  823 mt 1910  823 L
1874  787 mt 1874  859 L
 993 1669 mt 1065 1669 L
1029 1633 mt 1029 1705 L
2582 2450 mt 2654 2450 L
2618 2414 mt 2618 2486 L
 963 1763 mt 1035 1763 L
 999 1727 mt  999 1799 L
5110 1527 mt 5182 1527 L
5146 1491 mt 5146 1563 L
4747  508 mt 4819  508 L
4783  472 mt 4783  544 L
1945 4596 mt 2017 4596 L
1981 4560 mt 1981 4632 L
 945  479 mt 1017  479 L
 981  443 mt  981  515 L
5880  757 mt 5952  757 L
5916  721 mt 5916  793 L
1619 1547 mt 1691 1547 L
1655 1511 mt 1655 1583 L
2589 4360 mt 2661 4360 L
2625 4324 mt 2625 4396 L
 894 4612 mt  966 4612 L
 930 4576 mt  930 4648 L
 927 2533 mt  999 2533 L
 963 2497 mt  963 2569 L
1550  589 mt 1622  589 L
1586  553 mt 1586  625 L
4091  588 mt 4163  588 L
4127  552 mt 4127  624 L
1660  820 mt 1732  820 L
1696  784 mt 1696  856 L
 925 2269 mt  997 2269 L
 961 2233 mt  961 2305 L
3721 1448 mt 3793 1448 L
3757 1412 mt 3757 1484 L
4849 3726 mt 4921 3726 L
4885 3690 mt 4885 3762 L
2299 2309 mt 2371 2309 L
2335 2273 mt 2335 2345 L
 950 4287 mt 1022 4287 L
 986 4251 mt  986 4323 L
6207  607 mt 6279  607 L
6243  571 mt 6243  643 L
1040 4482 mt 1112 4482 L
1076 4446 mt 1076 4518 L
5206 3412 mt 5278 3412 L
5242 3376 mt 5242 3448 L
3564  491 mt 3636  491 L
3600  455 mt 3600  527 L
1046 1074 mt 1118 1074 L
1082 1038 mt 1082 1110 L
2161 2671 mt 2233 2671 L
2197 2635 mt 2197 2707 L
 864 1194 mt  936 1194 L
 900 1158 mt  900 1230 L
4474  995 mt 4546  995 L
4510  959 mt 4510 1031 L
5970 1048 mt 6042 1048 L
6006 1012 mt 6006 1084 L
5201  794 mt 5273  794 L
5237  758 mt 5237  830 L
4632  704 mt 4704  704 L
4668  668 mt 4668  740 L
 880 4374 mt  952 4374 L
 916 4338 mt  916 4410 L
5709 1395 mt 5781 1395 L
5745 1359 mt 5745 1431 L
 886 1343 mt  958 1343 L
 922 1307 mt  922 1379 L
1401 2222 mt 1473 2222 L
1437 2186 mt 1437 2258 L
2622  821 mt 2694  821 L
2658  785 mt 2658  857 L
1799 4545 mt 1871 4545 L
1835 4509 mt 1835 4581 L
6022  853 mt 6094  853 L
6058  817 mt 6058  889 L
5965 3752 mt 6037 3752 L
6001 3716 mt 6001 3788 L
3854 1939 mt 3926 1939 L
3890 1903 mt 3890 1975 L
2904 3538 mt 2976 3538 L
2940 3502 mt 2940 3574 L
1900 1511 mt 1972 1511 L
1936 1475 mt 1936 1547 L
3761 4548 mt 3833 4548 L
3797 4512 mt 3797 4584 L
1620 4505 mt 1692 4505 L
1656 4469 mt 1656 4541 L
6163 1040 mt 6235 1040 L
6199 1004 mt 6199 1076 L
1867 2520 mt 1939 2520 L
1903 2484 mt 1903 2556 L
4826  722 mt 4898  722 L
4862  686 mt 4862  758 L
5360 1099 mt 5432 1099 L
5396 1063 mt 5396 1135 L
5983  499 mt 6055  499 L
6019  463 mt 6019  535 L
1376 1318 mt 1448 1318 L
1412 1282 mt 1412 1354 L
2127  934 mt 2199  934 L
2163  898 mt 2163  970 L
5120  526 mt 5192  526 L
5156  490 mt 5156  562 L
5697 1707 mt 5769 1707 L
5733 1671 mt 5733 1743 L
 884 2327 mt  956 2327 L
 920 2291 mt  920 2363 L
 863  467 mt  935  467 L
 899  431 mt  899  503 L
2436  573 mt 2508  573 L
2472  537 mt 2472  609 L
3379  484 mt 3451  484 L
3415  448 mt 3415  520 L
 908  853 mt  980  853 L
 944  817 mt  944  889 L
5547 4406 mt 5619 4406 L
5583 4370 mt 5583 4442 L
1101  682 mt 1173  682 L
1137  646 mt 1137  718 L
1354 1706 mt 1426 1706 L
1390 1670 mt 1390 1742 L
4585  685 mt 4657  685 L
4621  649 mt 4621  721 L
 990  545 mt 1062  545 L
1026  509 mt 1026  581 L
3519 4470 mt 3591 4470 L
3555 4434 mt 3555 4506 L
6111 3397 mt 6183 3397 L
6147 3361 mt 6147 3433 L
1164 2131 mt 1236 2131 L
1200 2095 mt 1200 2167 L
6060 2216 mt 6132 2216 L
6096 2180 mt 6096 2252 L
4165 3241 mt 4237 3241 L
4201 3205 mt 4201 3277 L
1343 4574 mt 1415 4574 L
1379 4538 mt 1379 4610 L
1653 1148 mt 1725 1148 L
1689 1112 mt 1689 1184 L
5704 2209 mt 5776 2209 L
5740 2173 mt 5740 2245 L
3663  529 mt 3735  529 L
3699  493 mt 3699  565 L
1001  833 mt 1073  833 L
1037  797 mt 1037  869 L
1288 3831 mt 1360 3831 L
1324 3795 mt 1324 3867 L
6194 1578 mt 6266 1578 L
6230 1542 mt 6230 1614 L
1350  417 mt 1422  417 L
1386  381 mt 1386  453 L
5870  594 mt 5942  594 L
5906  558 mt 5906  630 L
2321  586 mt 2393  586 L
2357  550 mt 2357  622 L
3693  519 mt 3765  519 L
3729  483 mt 3729  555 L
1161  873 mt 1233  873 L
1197  837 mt 1197  909 L
3572  901 mt 3644  901 L
3608  865 mt 3608  937 L
5169 2590 mt 5241 2590 L
5205 2554 mt 5205 2626 L
2340 1206 mt 2412 1206 L
2376 1170 mt 2376 1242 L
4999  862 mt 5071  862 L
5035  826 mt 5035  898 L
5649 2400 mt 5721 2400 L
5685 2364 mt 5685 2436 L
2013  983 mt 2085  983 L
2049  947 mt 2049 1019 L
2820  502 mt 2892  502 L
2856  466 mt 2856  538 L
1411 2213 mt 1483 2213 L
1447 2177 mt 1447 2249 L
5571 3867 mt 5643 3867 L
5607 3831 mt 5607 3903 L
2520  751 mt 2592  751 L
2556  715 mt 2556  787 L
1254 3470 mt 1326 3470 L
1290 3434 mt 1290 3506 L
6065  739 mt 6137  739 L
6101  703 mt 6101  775 L
1035 3133 mt 1107 3133 L
1071 3097 mt 1071 3169 L
6154 1376 mt 6226 1376 L
6190 1340 mt 6190 1412 L
2914 2412 mt 2986 2412 L
2950 2376 mt 2950 2448 L
6111  525 mt 6183  525 L
6147  489 mt 6147  561 L
5448 3509 mt 5520 3509 L
5484 3473 mt 5484 3545 L
2307 4496 mt 2379 4496 L
2343 4460 mt 2343 4532 L
5109 3659 mt 5181 3659 L
5145 3623 mt 5145 3695 L
6215  524 mt 6287  524 L
6251  488 mt 6251  560 L
6211  779 mt 6283  779 L
6247  743 mt 6247  815 L
3874  486 mt 3946  486 L
3910  450 mt 3910  522 L
 868  496 mt  940  496 L
 904  460 mt  904  532 L
5426 1877 mt 5498 1877 L
5462 1841 mt 5462 1913 L
4968  493 mt 5040  493 L
5004  457 mt 5004  529 L
4738 1497 mt 4810 1497 L
4774 1461 mt 4774 1533 L
4677 2298 mt 4749 2298 L
4713 2262 mt 4713 2334 L
6199  553 mt 6271  553 L
6235  517 mt 6235  589 L
4534  490 mt 4606  490 L
4570  454 mt 4570  526 L
6218  830 mt 6290  830 L
6254  794 mt 6254  866 L
3364 2577 mt 3436 2577 L
3400 2541 mt 3400 2613 L
3515  569 mt 3587  569 L
3551  533 mt 3551  605 L
6171 2088 mt 6243 2088 L
6207 2052 mt 6207 2124 L
6219 2370 mt 6291 2370 L
6255 2334 mt 6255 2406 L
5635 4166 mt 5707 4166 L
5671 4130 mt 5671 4202 L
1420  415 mt 1492  415 L
1456  379 mt 1456  451 L
1553 4425 mt 1625 4425 L
1589 4389 mt 1589 4461 L
2432  459 mt 2504  459 L
2468  423 mt 2468  495 L
6219 1972 mt 6291 1972 L
6255 1936 mt 6255 2008 L
5620  523 mt 5692  523 L
5656  487 mt 5656  559 L
3007 1621 mt 3079 1621 L
3043 1585 mt 3043 1657 L
 868  489 mt  940  489 L
 904  453 mt  904  525 L
6010 4014 mt 6082 4014 L
6046 3978 mt 6046 4050 L
5291  420 mt 5363  420 L
5327  384 mt 5327  456 L
6203 3624 mt 6275 3624 L
6239 3588 mt 6239 3660 L
6217 4610 mt 6289 4610 L
6253 4574 mt 6253 4646 L
4887 2221 mt 4959 2221 L
4923 2185 mt 4923 2257 L
1903 2614 mt 1975 2614 L
1939 2578 mt 1939 2650 L
1555  624 mt 1627  624 L
1591  588 mt 1591  660 L
5063 1481 mt 5135 1481 L
5099 1445 mt 5099 1517 L
 886 4582 mt  958 4582 L
 922 4546 mt  922 4618 L
6216 2961 mt 6288 2961 L
6252 2925 mt 6252 2997 L
2994 1057 mt 3066 1057 L
3030 1021 mt 3030 1093 L
2114  808 mt 2186  808 L
2150  772 mt 2150  844 L
2705  745 mt 2777  745 L
2741  709 mt 2741  781 L
5541  956 mt 5613  956 L
5577  920 mt 5577  992 L
6220 1974 mt 6292 1974 L
6256 1938 mt 6256 2010 L
3137 4607 mt 3209 4607 L
3173 4571 mt 3173 4643 L
2672 2704 mt 2744 2704 L
2708 2668 mt 2708 2740 L
4751 2890 mt 4823 2890 L
4787 2854 mt 4787 2926 L
4823 1224 mt 4895 1224 L
4859 1188 mt 4859 1260 L
 868  417 mt  940  417 L
 904  381 mt  904  453 L
5351 1388 mt 5423 1388 L
5387 1352 mt 5387 1424 L
4878 3804 mt 4950 3804 L
4914 3768 mt 4914 3840 L
1311 2914 mt 1383 2914 L
1347 2878 mt 1347 2950 L
6144  612 mt 6216  612 L
6180  576 mt 6180  648 L
3948  728 mt 4020  728 L
3984  692 mt 3984  764 L
6209 3562 mt 6281 3562 L
6245 3526 mt 6245 3598 L
6203 2230 mt 6275 2230 L
6239 2194 mt 6239 2266 L
6224  952 mt 6296  952 L
6260  916 mt 6260  988 L
5930  427 mt 6002  427 L
5966  391 mt 5966  463 L
6200 4613 mt 6272 4613 L
6236 4577 mt 6236 4649 L
4633  852 mt 4705  852 L
4669  816 mt 4669  888 L
3165 1816 mt 3237 1816 L
3201 1780 mt 3201 1852 L
1836  615 mt 1908  615 L
1872  579 mt 1872  651 L
 865  416 mt  937  416 L
 901  380 mt  901  452 L
1071 4139 mt 1143 4139 L
1107 4103 mt 1107 4175 L
1432 4576 mt 1504 4576 L
1468 4540 mt 1468 4612 L
1019  875 mt 1091  875 L
1055  839 mt 1055  911 L
1868 1157 mt 1940 1157 L
1904 1121 mt 1904 1193 L
6095 2624 mt 6167 2624 L
6131 2588 mt 6131 2660 L
2806 1907 mt 2878 1907 L
2842 1871 mt 2842 1943 L
6162 4571 mt 6234 4571 L
6198 4535 mt 6198 4607 L
5857  572 mt 5929  572 L
5893  536 mt 5893  608 L
4893 3227 mt 4965 3227 L
4929 3191 mt 4929 3263 L
5374  734 mt 5446  734 L
5410  698 mt 5410  770 L
3029 1272 mt 3101 1272 L
3065 1236 mt 3065 1308 L
4505 3991 mt 4577 3991 L
4541 3955 mt 4541 4027 L
6133  679 mt 6205  679 L
6169  643 mt 6169  715 L
 871 1268 mt  943 1268 L
 907 1232 mt  907 1304 L
5645 4151 mt 5717 4151 L
5681 4115 mt 5681 4187 L
 872  490 mt  944  490 L
 908  454 mt  908  526 L
3303 4050 mt 3375 4050 L
3339 4014 mt 3339 4086 L
5829 4041 mt 5901 4041 L
5865 4005 mt 5865 4077 L
2408  612 mt 2480  612 L
2444  576 mt 2444  648 L
 937  449 mt 1009  449 L
 973  413 mt  973  485 L
1857 1947 mt 1929 1947 L
1893 1911 mt 1893 1983 L
5713  525 mt 5785  525 L
5749  489 mt 5749  561 L
5058 4401 mt 5130 4401 L
5094 4365 mt 5094 4437 L
6215 4223 mt 6287 4223 L
6251 4187 mt 6251 4259 L
1590  476 mt 1662  476 L
1626  440 mt 1626  512 L
2387 1576 mt 2459 1576 L
2423 1540 mt 2423 1612 L
1694 4616 mt 1766 4616 L
1730 4580 mt 1730 4652 L
6060 2211 mt 6132 2211 L
6096 2175 mt 6096 2247 L
 958  670 mt 1030  670 L
 994  634 mt  994  706 L
1972 1461 mt 2044 1461 L
2008 1425 mt 2008 1497 L
4628  427 mt 4700  427 L
4664  391 mt 4664  463 L
6219 2339 mt 6291 2339 L
6255 2303 mt 6255 2375 L
 905 2084 mt  977 2084 L
 941 2048 mt  941 2120 L
6220 3576 mt 6292 3576 L
6256 3540 mt 6256 3612 L
4119 1091 mt 4191 1091 L
4155 1055 mt 4155 1127 L
6208 1645 mt 6280 1645 L
6244 1609 mt 6244 1681 L
 983  481 mt 1055  481 L
1019  445 mt 1019  517 L
1296  458 mt 1368  458 L
1332  422 mt 1332  494 L
5900 2015 mt 5972 2015 L
5936 1979 mt 5936 2051 L
3116 4194 mt 3188 4194 L
3152 4158 mt 3152 4230 L
3875 1798 mt 3947 1798 L
3911 1762 mt 3911 1834 L
4310 1381 mt 4382 1381 L
4346 1345 mt 4346 1417 L
6154  604 mt 6226  604 L
6190  568 mt 6190  640 L
 934 1114 mt 1006 1114 L
 970 1078 mt  970 1150 L
 864 4110 mt  936 4110 L
 900 4074 mt  900 4146 L
2890  941 mt 2962  941 L
2926  905 mt 2926  977 L
5334 3972 mt 5406 3972 L
5370 3936 mt 5370 4008 L
6225 4471 mt 6297 4471 L
6261 4435 mt 6261 4507 L
3531  415 mt 3603  415 L
3567  379 mt 3567  451 L
1039 4556 mt 1111 4556 L
1075 4520 mt 1075 4592 L
4377  752 mt 4449  752 L
4413  716 mt 4413  788 L
5340  927 mt 5412  927 L
5376  891 mt 5376  963 L
6201 4006 mt 6273 4006 L
6237 3970 mt 6237 4042 L
5565 2446 mt 5637 2446 L
5601 2410 mt 5601 2482 L
3411 4299 mt 3483 4299 L
3447 4263 mt 3447 4335 L
3161 1758 mt 3233 1758 L
3197 1722 mt 3197 1794 L
 878 3036 mt  950 3036 L
 914 3000 mt  914 3072 L
5914  719 mt 5986  719 L
5950  683 mt 5950  755 L
6210 1404 mt 6282 1404 L
6246 1368 mt 6246 1440 L
5595 4014 mt 5667 4014 L
5631 3978 mt 5631 4050 L
5872 3176 mt 5944 3176 L
5908 3140 mt 5908 3212 L
5977  668 mt 6049  668 L
6013  632 mt 6013  704 L
1058 4567 mt 1130 4567 L
1094 4531 mt 1094 4603 L
2517 4092 mt 2589 4092 L
2553 4056 mt 2553 4128 L
1669 2164 mt 1741 2164 L
1705 2128 mt 1705 2200 L
1300 3387 mt 1372 3387 L
1336 3351 mt 1336 3423 L
 994 2803 mt 1066 2803 L
1030 2767 mt 1030 2839 L
5951 1346 mt 6023 1346 L
5987 1310 mt 5987 1382 L
4182 1945 mt 4254 1945 L
4218 1909 mt 4218 1981 L
6087 1718 mt 6159 1718 L
6123 1682 mt 6123 1754 L
2531  415 mt 2603  415 L
2567  379 mt 2567  451 L
6028 1226 mt 6100 1226 L
6064 1190 mt 6064 1262 L
3230 2617 mt 3302 2617 L
3266 2581 mt 3266 2653 L
2897 1299 mt 2969 1299 L
2933 1263 mt 2933 1335 L
5995 1280 mt 6067 1280 L
6031 1244 mt 6031 1316 L
1654  506 mt 1726  506 L
1690  470 mt 1690  542 L
2390 1559 mt 2462 1559 L
2426 1523 mt 2426 1595 L
5265 4615 mt 5337 4615 L
5301 4579 mt 5301 4651 L
6085 3669 mt 6157 3669 L
6121 3633 mt 6121 3705 L
4089 4491 mt 4161 4491 L
4125 4455 mt 4125 4527 L
1640 1124 mt 1712 1124 L
1676 1088 mt 1676 1160 L
6126  603 mt 6198  603 L
6162  567 mt 6162  639 L
1656 4130 mt 1728 4130 L
1692 4094 mt 1692 4166 L
6223 1557 mt 6295 1557 L
6259 1521 mt 6259 1593 L
 958 3198 mt 1030 3198 L
 994 3162 mt  994 3234 L
4403 1553 mt 4475 1553 L
4439 1517 mt 4439 1589 L
5060 3641 mt 5132 3641 L
5096 3605 mt 5096 3677 L
3554 1686 mt 3626 1686 L
3590 1650 mt 3590 1722 L
6207  461 mt 6279  461 L
6243  425 mt 6243  497 L
4275 3424 mt 4347 3424 L
4311 3388 mt 4311 3460 L
3907 1226 mt 3979 1226 L
3943 1190 mt 3943 1262 L
6212  441 mt 6284  441 L
6248  405 mt 6248  477 L
6184  677 mt 6256  677 L
6220  641 mt 6220  713 L
4648 4042 mt 4720 4042 L
4684 4006 mt 4684 4078 L
1181  769 mt 1253  769 L
1217  733 mt 1217  805 L
5602  508 mt 5674  508 L
5638  472 mt 5638  544 L
5478 2717 mt 5550 2717 L
5514 2681 mt 5514 2753 L
 912 4547 mt  984 4547 L
 948 4511 mt  948 4583 L
1285 3213 mt 1357 3213 L
1321 3177 mt 1321 3249 L
3357  764 mt 3429  764 L
3393  728 mt 3393  800 L
2314 4602 mt 2386 4602 L
2350 4566 mt 2350 4638 L
 883  955 mt  955  955 L
 919  919 mt  919  991 L
3368 4159 mt 3440 4159 L
3404 4123 mt 3404 4195 L
 863 3383 mt  935 3383 L
 899 3347 mt  899 3419 L
1180 2064 mt 1252 2064 L
1216 2028 mt 1216 2100 L
1996  499 mt 2068  499 L
2032  463 mt 2032  535 L
5320  432 mt 5392  432 L
5356  396 mt 5356  468 L
3854 3973 mt 3926 3973 L
3890 3937 mt 3890 4009 L
3447 4184 mt 3519 4184 L
3483 4148 mt 3483 4220 L
2063 2610 mt 2135 2610 L
2099 2574 mt 2099 2646 L
2549 2315 mt 2621 2315 L
2585 2279 mt 2585 2351 L
5963 4611 mt 6035 4611 L
5999 4575 mt 5999 4647 L
6088 1096 mt 6160 1096 L
6124 1060 mt 6124 1132 L
 874  415 mt  946  415 L
 910  379 mt  910  451 L
5992 2438 mt 6064 2438 L
6028 2402 mt 6028 2474 L
6165 2923 mt 6237 2923 L
6201 2887 mt 6201 2959 L
5655 3293 mt 5727 3293 L
5691 3257 mt 5691 3329 L
4838 3887 mt 4910 3887 L
4874 3851 mt 4874 3923 L
2987 4564 mt 3059 4564 L
3023 4528 mt 3023 4600 L
5000 4589 mt 5072 4589 L
5036 4553 mt 5036 4625 L
1158  834 mt 1230  834 L
1194  798 mt 1194  870 L
4696 4277 mt 4768 4277 L
4732 4241 mt 4732 4313 L
6111 2406 mt 6183 2406 L
6147 2370 mt 6147 2442 L
2117 1791 mt 2189 1791 L
2153 1755 mt 2153 1827 L
3816 3042 mt 3888 3042 L
3852 3006 mt 3852 3078 L
1031 4125 mt 1103 4125 L
1067 4089 mt 1067 4161 L
1678  841 mt 1750  841 L
1714  805 mt 1714  877 L
1109 2419 mt 1181 2419 L
1145 2383 mt 1145 2455 L
5449 3332 mt 5521 3332 L
5485 3296 mt 5485 3368 L
2743 2162 mt 2815 2162 L
2779 2126 mt 2779 2198 L
1423 3940 mt 1495 3940 L
1459 3904 mt 1459 3976 L
 895 4550 mt  967 4550 L
 931 4514 mt  931 4586 L
2558  795 mt 2630  795 L
2594  759 mt 2594  831 L
1890  780 mt 1962  780 L
1926  744 mt 1926  816 L
6181  737 mt 6253  737 L
6217  701 mt 6217  773 L
1517 1208 mt 1589 1208 L
1553 1172 mt 1553 1244 L
5965 3775 mt 6037 3775 L
6001 3739 mt 6001 3811 L
4160 4536 mt 4232 4536 L
4196 4500 mt 4196 4572 L
 950 2455 mt 1022 2455 L
 986 2419 mt  986 2491 L
3380 3469 mt 3452 3469 L
3416 3433 mt 3416 3505 L
2078  444 mt 2150  444 L
2114  408 mt 2114  480 L
2784 4068 mt 2856 4068 L
2820 4032 mt 2820 4104 L
6204 2548 mt 6276 2548 L
6240 2512 mt 6240 2584 L
4614 1953 mt 4686 1953 L
4650 1917 mt 4650 1989 L
5439  665 mt 5511  665 L
5475  629 mt 5475  701 L
6202  609 mt 6274  609 L
6238  573 mt 6238  645 L
2007  443 mt 2079  443 L
2043  407 mt 2043  479 L
5910 3716 mt 5982 3716 L
5946 3680 mt 5946 3752 L
 912  476 mt  984  476 L
 948  440 mt  948  512 L
6223 2883 mt 6295 2883 L
6259 2847 mt 6259 2919 L
6171  538 mt 6243  538 L
6207  502 mt 6207  574 L
gs 899 414 5363 4203 rc
gr

0 sg
2779 5104 mt 
(\(F,DCTs,GMM\)) s
 422 3343 mt  -90 rotate
(\(S,LFCC,GMM\)) s
90 rotate
2905  223 mt 
(Corr = -0.07) s

end %%Color Dict

eplot
%%EndObject

epage
end

showpage

%%Trailer
%%EOF
