%!PS-Adobe-3.0 EPSF-3.0
%%Creator: MATLAB, The Mathworks, Inc. Version 7.7.0.471 (R2008b). Operating System: Microsoft Windows XP.
%%Title: Pictures\main_zoo_mvar_analysis_data_BMI_xcorr_bmi_p1_k2_4_9.eps
%%CreationDate: 10/26/2009  05:44:29
%%DocumentNeededFonts: Helvetica
%%DocumentProcessColors: Cyan Magenta Yellow Black
%%LanguageLevel: 2
%%Pages: 1
%%BoundingBox:    32   180   546   616
%%EndComments

%%BeginProlog
% MathWorks dictionary
/MathWorks 160 dict begin
% definition operators
/bdef {bind def} bind def
/ldef {load def} bind def
/xdef {exch def} bdef
/xstore {exch store} bdef
% operator abbreviations
/c  /clip ldef
/cc /concat ldef
/cp /closepath ldef
/gr /grestore ldef
/gs /gsave ldef
/mt /moveto ldef
/np /newpath ldef
/cm /currentmatrix ldef
/sm /setmatrix ldef
/rm /rmoveto ldef
/rl /rlineto ldef
/s {show newpath} bdef
/sc {setcmykcolor} bdef
/sr /setrgbcolor ldef
/sg /setgray ldef
/w /setlinewidth ldef
/j /setlinejoin ldef
/cap /setlinecap ldef
/rc {rectclip} bdef
/rf {rectfill} bdef
% page state control
/pgsv () def
/bpage {/pgsv save def} bdef
/epage {pgsv restore} bdef
/bplot /gsave ldef
/eplot {stroke grestore} bdef
% orientation switch
/portraitMode 0 def /landscapeMode 1 def /rotateMode 2 def
% coordinate system mappings
/dpi2point 0 def
% font control
/FontSize 0 def
/FMS {/FontSize xstore findfont [FontSize 0 0 FontSize neg 0 0]
  makefont setfont} bdef
/ISOLatin1Encoding where {pop /WindowsLatin1Encoding 256 array bdef
ISOLatin1Encoding WindowsLatin1Encoding copy pop
/.notdef/.notdef/quotesinglbase/florin/quotedblbase/ellipsis/dagger
/daggerdbl/circumflex/perthousand/Scaron/guilsinglleft/OE/.notdef/.notdef
/.notdef/.notdef/quoteleft/quoteright/quotedblleft/quotedblright/bullet
/endash/emdash/tilde/trademark/scaron/guilsinglright/oe/.notdef/.notdef
/Ydieresis WindowsLatin1Encoding 128 32 getinterval astore pop}
{/WindowsLatin1Encoding StandardEncoding bdef} ifelse
/reencode {exch dup where {pop load} {pop StandardEncoding} ifelse
  exch dup 3 1 roll findfont dup length dict begin
  { 1 index /FID ne {def}{pop pop} ifelse } forall
  /Encoding exch def currentdict end definefont pop} bdef
/isroman {findfont /CharStrings get /Agrave known} bdef
/FMSR {3 1 roll 1 index dup isroman {reencode} {pop pop} ifelse
  exch FMS} bdef
/csm {1 dpi2point div -1 dpi2point div scale neg translate
 dup landscapeMode eq {pop -90 rotate}
  {rotateMode eq {90 rotate} if} ifelse} bdef
% line types: solid, dotted, dashed, dotdash
/SO { [] 0 setdash } bdef
/DO { [.5 dpi2point mul 4 dpi2point mul] 0 setdash } bdef
/DA { [6 dpi2point mul] 0 setdash } bdef
/DD { [.5 dpi2point mul 4 dpi2point mul 6 dpi2point mul 4
  dpi2point mul] 0 setdash } bdef
% macros for lines and objects
/L {lineto stroke} bdef
/MP {3 1 roll moveto 1 sub {rlineto} repeat} bdef
/AP {{rlineto} repeat} bdef
/PDlw -1 def
/W {/PDlw currentlinewidth def setlinewidth} def
/PP {closepath eofill} bdef
/DP {closepath stroke} bdef
/MR {4 -2 roll moveto dup  0 exch rlineto exch 0 rlineto
  neg 0 exch rlineto closepath} bdef
/FR {MR stroke} bdef
/PR {MR fill} bdef
/L1i {{currentfile picstr readhexstring pop} image} bdef
/tMatrix matrix def
/MakeOval {newpath tMatrix currentmatrix pop translate scale
0 0 1 0 360 arc tMatrix setmatrix} bdef
/FO {MakeOval stroke} bdef
/PO {MakeOval fill} bdef
/PD {currentlinewidth 2 div 0 360 arc fill
   PDlw -1 eq not {PDlw w /PDlw -1 def} if} def
/FA {newpath tMatrix currentmatrix pop translate scale
  0 0 1 5 -2 roll arc tMatrix setmatrix stroke} bdef
/PA {newpath tMatrix currentmatrix pop	translate 0 0 moveto scale
  0 0 1 5 -2 roll arc closepath tMatrix setmatrix fill} bdef
/FAn {newpath tMatrix currentmatrix pop translate scale
  0 0 1 5 -2 roll arcn tMatrix setmatrix stroke} bdef
/PAn {newpath tMatrix currentmatrix pop translate 0 0 moveto scale
  0 0 1 5 -2 roll arcn closepath tMatrix setmatrix fill} bdef
/vradius 0 def /hradius 0 def /lry 0 def
/lrx 0 def /uly 0 def /ulx 0 def /rad 0 def
/MRR {/vradius xdef /hradius xdef /lry xdef /lrx xdef /uly xdef
  /ulx xdef newpath tMatrix currentmatrix pop ulx hradius add uly
  vradius add translate hradius vradius scale 0 0 1 180 270 arc 
  tMatrix setmatrix lrx hradius sub uly vradius add translate
  hradius vradius scale 0 0 1 270 360 arc tMatrix setmatrix
  lrx hradius sub lry vradius sub translate hradius vradius scale
  0 0 1 0 90 arc tMatrix setmatrix ulx hradius add lry vradius sub
  translate hradius vradius scale 0 0 1 90 180 arc tMatrix setmatrix
  closepath} bdef
/FRR {MRR stroke } bdef
/PRR {MRR fill } bdef
/MlrRR {/lry xdef /lrx xdef /uly xdef /ulx xdef /rad lry uly sub 2 div def
  newpath tMatrix currentmatrix pop ulx rad add uly rad add translate
  rad rad scale 0 0 1 90 270 arc tMatrix setmatrix lrx rad sub lry rad
  sub translate rad rad scale 0 0 1 270 90 arc tMatrix setmatrix
  closepath} bdef
/FlrRR {MlrRR stroke } bdef
/PlrRR {MlrRR fill } bdef
/MtbRR {/lry xdef /lrx xdef /uly xdef /ulx xdef /rad lrx ulx sub 2 div def
  newpath tMatrix currentmatrix pop ulx rad add uly rad add translate
  rad rad scale 0 0 1 180 360 arc tMatrix setmatrix lrx rad sub lry rad
  sub translate rad rad scale 0 0 1 0 180 arc tMatrix setmatrix
  closepath} bdef
/FtbRR {MtbRR stroke } bdef
/PtbRR {MtbRR fill } bdef
/stri 6 array def /dtri 6 array def
/smat 6 array def /dmat 6 array def
/tmat1 6 array def /tmat2 6 array def /dif 3 array def
/asub {/ind2 exch def /ind1 exch def dup dup
  ind1 get exch ind2 get sub exch } bdef
/tri_to_matrix {
  2 0 asub 3 1 asub 4 0 asub 5 1 asub
  dup 0 get exch 1 get 7 -1 roll astore } bdef
/compute_transform {
  dmat dtri tri_to_matrix tmat1 invertmatrix 
  smat stri tri_to_matrix tmat2 concatmatrix } bdef
/ds {stri astore pop} bdef
/dt {dtri astore pop} bdef
/db {2 copy /cols xdef /rows xdef mul dup 3 mul string
  currentfile 
  3 index 0 eq {/ASCIIHexDecode filter}
  {/ASCII85Decode filter 3 index 2 eq {/RunLengthDecode filter} if }
  ifelse exch readstring pop
  dup 0 3 index getinterval /rbmap xdef
  dup 2 index dup getinterval /gbmap xdef
  1 index dup 2 mul exch getinterval /bbmap xdef pop pop}bdef
/it {gs np dtri aload pop moveto lineto lineto cp c
  cols rows 8 compute_transform 
  rbmap gbmap bbmap true 3 colorimage gr}bdef
/il {newpath moveto lineto stroke}bdef
currentdict end def
%%EndProlog

%%BeginSetup
MathWorks begin

0 cap

end
%%EndSetup

%%Page: 1 1
%%BeginPageSetup
%%PageBoundingBox:    32   180   546   616
MathWorks begin
bpage
%%EndPageSetup

%%BeginObject: obj1
bplot

/dpi2point 12 def
portraitMode 0216 7344 csm

  174   -48  6173  5231 rc
85 dict begin %Colortable dictionary
/c0 { 0.000000 0.000000 0.000000 sr} bdef
/c1 { 1.000000 1.000000 1.000000 sr} bdef
/c2 { 0.900000 0.000000 0.000000 sr} bdef
/c3 { 0.000000 0.820000 0.000000 sr} bdef
/c4 { 0.000000 0.000000 0.800000 sr} bdef
/c5 { 0.910000 0.820000 0.320000 sr} bdef
/c6 { 1.000000 0.260000 0.820000 sr} bdef
/c7 { 0.000000 0.820000 0.820000 sr} bdef
c0
1 j
1 sg
   0    0 6919 5187 rf
6 w
0 4202 5363 0 0 -4202 898 4616 4 MP
PP
-5363 0 0 4202 5363 0 0 -4202 898 4616 5 MP stroke
4 w
DO
SO
6 w
0 sg
 898  414 mt 6261  414 L
 898 4616 mt 6261 4616 L
6261 4616 mt 6261  414 L
 898 4616 mt  898  414 L
 898 4616 mt 6261 4616 L
 898 4616 mt  898  414 L
1970 4616 mt 1970 4562 L
1970  415 mt 1970  468 L
%%IncludeResource: font Helvetica
/Helvetica /WindowsLatin1Encoding 240 FMSR

1804 4873 mt 
(0.2) s
3043 4616 mt 3043 4562 L
3043  415 mt 3043  468 L
2877 4873 mt 
(0.4) s
4116 4616 mt 4116 4562 L
4116  415 mt 4116  468 L
3950 4873 mt 
(0.6) s
5188 4616 mt 5188 4562 L
5188  415 mt 5188  468 L
5022 4873 mt 
(0.8) s
 898 4195 mt  952 4195 L
6261 4195 mt 6207 4195 L
 531 4284 mt 
(0.1) s
 898 3775 mt  952 3775 L
6261 3775 mt 6207 3775 L
 531 3864 mt 
(0.2) s
 898 3355 mt  952 3355 L
6261 3355 mt 6207 3355 L
 531 3444 mt 
(0.3) s
 898 2935 mt  952 2935 L
6261 2935 mt 6207 2935 L
 531 3024 mt 
(0.4) s
 898 2515 mt  952 2515 L
6261 2515 mt 6207 2515 L
 531 2604 mt 
(0.5) s
 898 2095 mt  952 2095 L
6261 2095 mt 6207 2095 L
 531 2184 mt 
(0.6) s
 898 1675 mt  952 1675 L
6261 1675 mt 6207 1675 L
 531 1764 mt 
(0.7) s
 898 1255 mt  952 1255 L
6261 1255 mt 6207 1255 L
 531 1344 mt 
(0.8) s
 898  834 mt  952  834 L
6261  834 mt 6207  834 L
 531  923 mt 
(0.9) s
 898  414 mt 6261  414 L
 898 4616 mt 6261 4616 L
6261 4616 mt 6261  414 L
 898 4616 mt  898  414 L
gs 898 414 5364 4203 rc
gr

/c8 { 0.000000 0.000000 1.000000 sr} bdef
c8
5284  523 mt 5356  523 L
5320  487 mt 5320  559 L
5738  606 mt 5810  606 L
5774  570 mt 5774  642 L
1082 1448 mt 1154 1448 L
1118 1412 mt 1118 1484 L
1527 3345 mt 1599 3345 L
1563 3309 mt 1563 3381 L
6021  556 mt 6093  556 L
6057  520 mt 6057  592 L
2122  675 mt 2194  675 L
2158  639 mt 2158  711 L
1044 4574 mt 1116 4574 L
1080 4538 mt 1080 4610 L
1637 1083 mt 1709 1083 L
1673 1047 mt 1673 1119 L
4249  558 mt 4321  558 L
4285  522 mt 4285  594 L
3369  781 mt 3441  781 L
3405  745 mt 3405  817 L
 885  765 mt  957  765 L
 921  729 mt  921  801 L
4471  740 mt 4543  740 L
4507  704 mt 4507  776 L
5900 1212 mt 5972 1212 L
5936 1176 mt 5936 1248 L
4149 1194 mt 4221 1194 L
4185 1158 mt 4185 1230 L
6169  719 mt 6241  719 L
6205  683 mt 6205  755 L
3297 1081 mt 3369 1081 L
3333 1045 mt 3333 1117 L
2574 4465 mt 2646 4465 L
2610 4429 mt 2610 4501 L
3279 1328 mt 3351 1328 L
3315 1292 mt 3315 1364 L
2258 1385 mt 2330 1385 L
2294 1349 mt 2294 1421 L
5429 1593 mt 5501 1593 L
5465 1557 mt 5465 1629 L
 875 3608 mt  947 3608 L
 911 3572 mt  911 3644 L
3653 4589 mt 3725 4589 L
3689 4553 mt 3689 4625 L
1240  880 mt 1312  880 L
1276  844 mt 1276  916 L
3117 1193 mt 3189 1193 L
3153 1157 mt 3153 1229 L
4624 2547 mt 4696 2547 L
4660 2511 mt 4660 2583 L
 870  736 mt  942  736 L
 906  700 mt  906  772 L
1574 2887 mt 1646 2887 L
1610 2851 mt 1610 2923 L
5032 4081 mt 5104 4081 L
5068 4045 mt 5068 4117 L
3188  487 mt 3260  487 L
3224  451 mt 3224  523 L
3711  635 mt 3783  635 L
3747  599 mt 3747  671 L
 998 1585 mt 1070 1585 L
1034 1549 mt 1034 1621 L
 869  519 mt  941  519 L
 905  483 mt  905  555 L
 897  792 mt  969  792 L
 933  756 mt  933  828 L
3765 3518 mt 3837 3518 L
3801 3482 mt 3801 3554 L
5726  638 mt 5798  638 L
5762  602 mt 5762  674 L
3018  699 mt 3090  699 L
3054  663 mt 3054  735 L
2219 1623 mt 2291 1623 L
2255 1587 mt 2255 1659 L
1185 1263 mt 1257 1263 L
1221 1227 mt 1221 1299 L
1250 1354 mt 1322 1354 L
1286 1318 mt 1286 1390 L
2414 1667 mt 2486 1667 L
2450 1631 mt 2450 1703 L
5100  881 mt 5172  881 L
5136  845 mt 5136  917 L
6026  452 mt 6098  452 L
6062  416 mt 6062  488 L
3128  776 mt 3200  776 L
3164  740 mt 3164  812 L
1907 4054 mt 1979 4054 L
1943 4018 mt 1943 4090 L
6179 4410 mt 6251 4410 L
6215 4374 mt 6215 4446 L
 885 4584 mt  957 4584 L
 921 4548 mt  921 4620 L
3749  746 mt 3821  746 L
3785  710 mt 3785  782 L
1985 4212 mt 2057 4212 L
2021 4176 mt 2021 4248 L
1745 2356 mt 1817 2356 L
1781 2320 mt 1781 2392 L
4371 2807 mt 4443 2807 L
4407 2771 mt 4407 2843 L
6177 4424 mt 6249 4424 L
6213 4388 mt 6213 4460 L
5119  459 mt 5191  459 L
5155  423 mt 5155  495 L
4823 1020 mt 4895 1020 L
4859  984 mt 4859 1056 L
5439 2100 mt 5511 2100 L
5475 2064 mt 5475 2136 L
4689  420 mt 4761  420 L
4725  384 mt 4725  456 L
2949 1363 mt 3021 1363 L
2985 1327 mt 2985 1399 L
3652  618 mt 3724  618 L
3688  582 mt 3688  654 L
6165  511 mt 6237  511 L
6201  475 mt 6201  547 L
 939  893 mt 1011  893 L
 975  857 mt  975  929 L
2103 1115 mt 2175 1115 L
2139 1079 mt 2139 1151 L
5413 4588 mt 5485 4588 L
5449 4552 mt 5449 4624 L
 863  545 mt  935  545 L
 899  509 mt  899  581 L
2464 4380 mt 2536 4380 L
2500 4344 mt 2500 4416 L
6177 1255 mt 6249 1255 L
6213 1219 mt 6213 1291 L
4215  612 mt 4287  612 L
4251  576 mt 4251  648 L
6166 1038 mt 6238 1038 L
6202 1002 mt 6202 1074 L
6138  565 mt 6210  565 L
6174  529 mt 6174  601 L
2452 1553 mt 2524 1553 L
2488 1517 mt 2488 1589 L
1350  642 mt 1422  642 L
1386  606 mt 1386  678 L
5339  807 mt 5411  807 L
5375  771 mt 5375  843 L
1523 3861 mt 1595 3861 L
1559 3825 mt 1559 3897 L
5749 2490 mt 5821 2490 L
5785 2454 mt 5785 2526 L
4434 3983 mt 4506 3983 L
4470 3947 mt 4470 4019 L
3611  474 mt 3683  474 L
3647  438 mt 3647  510 L
1268  647 mt 1340  647 L
1304  611 mt 1304  683 L
5950 4348 mt 6022 4348 L
5986 4312 mt 5986 4384 L
5966 1820 mt 6038 1820 L
6002 1784 mt 6002 1856 L
 879 1075 mt  951 1075 L
 915 1039 mt  915 1111 L
1005  629 mt 1077  629 L
1041  593 mt 1041  665 L
1030 2837 mt 1102 2837 L
1066 2801 mt 1066 2873 L
5583  468 mt 5655  468 L
5619  432 mt 5619  504 L
2246 1382 mt 2318 1382 L
2282 1346 mt 2282 1418 L
5296 3072 mt 5368 3072 L
5332 3036 mt 5332 3108 L
5056  423 mt 5128  423 L
5092  387 mt 5092  459 L
4707  954 mt 4779  954 L
4743  918 mt 4743  990 L
1843 1705 mt 1915 1705 L
1879 1669 mt 1879 1741 L
5841  622 mt 5913  622 L
5877  586 mt 5877  658 L
3157  727 mt 3229  727 L
3193  691 mt 3193  763 L
5383 4464 mt 5455 4464 L
5419 4428 mt 5419 4500 L
6179 1701 mt 6251 1701 L
6215 1665 mt 6215 1737 L
2055 1019 mt 2127 1019 L
2091  983 mt 2091 1055 L
6199  564 mt 6271  564 L
6235  528 mt 6235  600 L
1540  787 mt 1612  787 L
1576  751 mt 1576  823 L
4291 2283 mt 4363 2283 L
4327 2247 mt 4327 2319 L
3158 3702 mt 3230 3702 L
3194 3666 mt 3194 3738 L
1728 4574 mt 1800 4574 L
1764 4538 mt 1764 4610 L
5640 3343 mt 5712 3343 L
5676 3307 mt 5676 3379 L
6082  457 mt 6154  457 L
6118  421 mt 6118  493 L
2747 1962 mt 2819 1962 L
2783 1926 mt 2783 1998 L
5778  468 mt 5850  468 L
5814  432 mt 5814  504 L
6225  767 mt 6297  767 L
6261  731 mt 6261  803 L
2078 1206 mt 2150 1206 L
2114 1170 mt 2114 1242 L
2683 2575 mt 2755 2575 L
2719 2539 mt 2719 2611 L
5778 4466 mt 5850 4466 L
5814 4430 mt 5814 4502 L
1274 1809 mt 1346 1809 L
1310 1773 mt 1310 1845 L
1518  482 mt 1590  482 L
1554  446 mt 1554  518 L
3937  926 mt 4009  926 L
3973  890 mt 3973  962 L
1235  772 mt 1307  772 L
1271  736 mt 1271  808 L
1559 1911 mt 1631 1911 L
1595 1875 mt 1595 1947 L
1447  760 mt 1519  760 L
1483  724 mt 1483  796 L
4637  885 mt 4709  885 L
4673  849 mt 4673  921 L
1183  430 mt 1255  430 L
1219  394 mt 1219  466 L
4144 1822 mt 4216 1822 L
4180 1786 mt 4180 1858 L
6147  864 mt 6219  864 L
6183  828 mt 6183  900 L
1842 3089 mt 1914 3089 L
1878 3053 mt 1878 3125 L
1471 2853 mt 1543 2853 L
1507 2817 mt 1507 2889 L
5218  545 mt 5290  545 L
5254  509 mt 5254  581 L
5881 3947 mt 5953 3947 L
5917 3911 mt 5917 3983 L
 863 1176 mt  935 1176 L
 899 1140 mt  899 1212 L
2788 1707 mt 2860 1707 L
2824 1671 mt 2824 1743 L
5003 1062 mt 5075 1062 L
5039 1026 mt 5039 1098 L
3118  452 mt 3190  452 L
3154  416 mt 3154  488 L
3919  660 mt 3991  660 L
3955  624 mt 3955  696 L
2423 1017 mt 2495 1017 L
2459  981 mt 2459 1053 L
5072  560 mt 5144  560 L
5108  524 mt 5108  596 L
6212 1143 mt 6284 1143 L
6248 1107 mt 6248 1179 L
5287 3151 mt 5359 3151 L
5323 3115 mt 5323 3187 L
4381 1077 mt 4453 1077 L
4417 1041 mt 4417 1113 L
1424  894 mt 1496  894 L
1460  858 mt 1460  930 L
1000  705 mt 1072  705 L
1036  669 mt 1036  741 L
5907 1038 mt 5979 1038 L
5943 1002 mt 5943 1074 L
4985 2084 mt 5057 2084 L
5021 2048 mt 5021 2120 L
1851 3609 mt 1923 3609 L
1887 3573 mt 1887 3645 L
4266 1312 mt 4338 1312 L
4302 1276 mt 4302 1348 L
1028 1076 mt 1100 1076 L
1064 1040 mt 1064 1112 L
5247  600 mt 5319  600 L
5283  564 mt 5283  636 L
 875 4610 mt  947 4610 L
 911 4574 mt  911 4646 L
3467  569 mt 3539  569 L
3503  533 mt 3503  605 L
4283  591 mt 4355  591 L
4319  555 mt 4319  627 L
5608 2452 mt 5680 2452 L
5644 2416 mt 5644 2488 L
2649 1915 mt 2721 1915 L
2685 1879 mt 2685 1951 L
6014  547 mt 6086  547 L
6050  511 mt 6050  583 L
 987 3880 mt 1059 3880 L
1023 3844 mt 1023 3916 L
2865  720 mt 2937  720 L
2901  684 mt 2901  756 L
6056 1602 mt 6128 1602 L
6092 1566 mt 6092 1638 L
3354 1104 mt 3426 1104 L
3390 1068 mt 3390 1140 L
2578  938 mt 2650  938 L
2614  902 mt 2614  974 L
5676  490 mt 5748  490 L
5712  454 mt 5712  526 L
2520  612 mt 2592  612 L
2556  576 mt 2556  648 L
2950  645 mt 3022  645 L
2986  609 mt 2986  681 L
1037  931 mt 1109  931 L
1073  895 mt 1073  967 L
2147  672 mt 2219  672 L
2183  636 mt 2183  708 L
1916  639 mt 1988  639 L
1952  603 mt 1952  675 L
1002 1428 mt 1074 1428 L
1038 1392 mt 1038 1464 L
1737 1776 mt 1809 1776 L
1773 1740 mt 1773 1812 L
1748 1999 mt 1820 1999 L
1784 1963 mt 1784 2035 L
 865 1763 mt  937 1763 L
 901 1727 mt  901 1799 L
1022 3297 mt 1094 3297 L
1058 3261 mt 1058 3333 L
 887 2445 mt  959 2445 L
 923 2409 mt  923 2481 L
5415 3001 mt 5487 3001 L
5451 2965 mt 5451 3037 L
3079 2108 mt 3151 2108 L
3115 2072 mt 3115 2144 L
3044 2145 mt 3116 2145 L
3080 2109 mt 3080 2181 L
1801  857 mt 1873  857 L
1837  821 mt 1837  893 L
5735  825 mt 5807  825 L
5771  789 mt 5771  861 L
1290  485 mt 1362  485 L
1326  449 mt 1326  521 L
 862  569 mt  934  569 L
 898  533 mt  898  605 L
 917 2147 mt  989 2147 L
 953 2111 mt  953 2183 L
4731 1507 mt 4803 1507 L
4767 1471 mt 4767 1543 L
1104  463 mt 1176  463 L
1140  427 mt 1140  499 L
6109  864 mt 6181  864 L
6145  828 mt 6145  900 L
1408  417 mt 1480  417 L
1444  381 mt 1444  453 L
5577  468 mt 5649  468 L
5613  432 mt 5613  504 L
 871  823 mt  943  823 L
 907  787 mt  907  859 L
4077  670 mt 4149  670 L
4113  634 mt 4113  706 L
2600 4464 mt 2672 4464 L
2636 4428 mt 2636 4500 L
5478  486 mt 5550  486 L
5514  450 mt 5514  522 L
3276  516 mt 3348  516 L
3312  480 mt 3312  552 L
6219  614 mt 6291  614 L
6255  578 mt 6255  650 L
5689 1692 mt 5761 1692 L
5725 1656 mt 5725 1728 L
1061  473 mt 1133  473 L
1097  437 mt 1097  509 L
1164 1287 mt 1236 1287 L
1200 1251 mt 1200 1323 L
4659 2560 mt 4731 2560 L
4695 2524 mt 4695 2596 L
3272  444 mt 3344  444 L
3308  408 mt 3308  480 L
6035 3377 mt 6107 3377 L
6071 3341 mt 6071 3413 L
4749 3732 mt 4821 3732 L
4785 3696 mt 4785 3768 L
1265  433 mt 1337  433 L
1301  397 mt 1301  469 L
6065 1325 mt 6137 1325 L
6101 1289 mt 6101 1361 L
4684 1042 mt 4756 1042 L
4720 1006 mt 4720 1078 L
5474  461 mt 5546  461 L
5510  425 mt 5510  497 L
1721  884 mt 1793  884 L
1757  848 mt 1757  920 L
 943 1579 mt 1015 1579 L
 979 1543 mt  979 1615 L
4239 2342 mt 4311 2342 L
4275 2306 mt 4275 2378 L
6089  772 mt 6161  772 L
6125  736 mt 6125  808 L
5522  490 mt 5594  490 L
5558  454 mt 5558  526 L
4894  420 mt 4966  420 L
4930  384 mt 4930  456 L
3172  640 mt 3244  640 L
3208  604 mt 3208  676 L
1490 4436 mt 1562 4436 L
1526 4400 mt 1526 4472 L
5291  532 mt 5363  532 L
5327  496 mt 5327  568 L
2083 2123 mt 2155 2123 L
2119 2087 mt 2119 2159 L
4361  685 mt 4433  685 L
4397  649 mt 4397  721 L
6178  576 mt 6250  576 L
6214  540 mt 6214  612 L
6102  524 mt 6174  524 L
6138  488 mt 6138  560 L
5973 2739 mt 6045 2739 L
6009 2703 mt 6009 2775 L
 877 1737 mt  949 1737 L
 913 1701 mt  913 1773 L
1043  591 mt 1115  591 L
1079  555 mt 1079  627 L
5577 1413 mt 5649 1413 L
5613 1377 mt 5613 1449 L
3584 4374 mt 3656 4374 L
3620 4338 mt 3620 4410 L
3648 1908 mt 3720 1908 L
3684 1872 mt 3684 1944 L
6072  414 mt 6144  414 L
6108  378 mt 6108  450 L
1385 4108 mt 1457 4108 L
1421 4072 mt 1421 4144 L
 937  420 mt 1009  420 L
 973  384 mt  973  456 L
6188 1887 mt 6260 1887 L
6224 1851 mt 6224 1923 L
5627  565 mt 5699  565 L
5663  529 mt 5663  601 L
3159 4574 mt 3231 4574 L
3195 4538 mt 3195 4610 L
6100  428 mt 6172  428 L
6136  392 mt 6136  464 L
6067  845 mt 6139  845 L
6103  809 mt 6103  881 L
5962 2805 mt 6034 2805 L
5998 2769 mt 5998 2841 L
3228 4355 mt 3300 4355 L
3264 4319 mt 3264 4391 L
1356  448 mt 1428  448 L
1392  412 mt 1392  484 L
4659 2491 mt 4731 2491 L
4695 2455 mt 4695 2527 L
1951  439 mt 2023  439 L
1987  403 mt 1987  475 L
1975 1156 mt 2047 1156 L
2011 1120 mt 2011 1192 L
5903 1231 mt 5975 1231 L
5939 1195 mt 5939 1267 L
 916 3690 mt  988 3690 L
 952 3654 mt  952 3726 L
5784 3998 mt 5856 3998 L
5820 3962 mt 5820 4034 L
1324 1108 mt 1396 1108 L
1360 1072 mt 1360 1144 L
 870  648 mt  942  648 L
 906  612 mt  906  684 L
4942 1133 mt 5014 1133 L
4978 1097 mt 4978 1169 L
1361  567 mt 1433  567 L
1397  531 mt 1397  603 L
 916 1196 mt  988 1196 L
 952 1160 mt  952 1232 L
5018 3858 mt 5090 3858 L
5054 3822 mt 5054 3894 L
3157 3740 mt 3229 3740 L
3193 3704 mt 3193 3776 L
1200 1661 mt 1272 1661 L
1236 1625 mt 1236 1697 L
1750  920 mt 1822  920 L
1786  884 mt 1786  956 L
 931  440 mt 1003  440 L
 967  404 mt  967  476 L
5901 3972 mt 5973 3972 L
5937 3936 mt 5937 4008 L
6138 3737 mt 6210 3737 L
6174 3701 mt 6174 3773 L
5100 2672 mt 5172 2672 L
5136 2636 mt 5136 2708 L
 898 1651 mt  970 1651 L
 934 1615 mt  934 1687 L
6199  691 mt 6271  691 L
6235  655 mt 6235  727 L
6206 4599 mt 6278 4599 L
6242 4563 mt 6242 4635 L
6147  744 mt 6219  744 L
6183  708 mt 6183  780 L
6216 1531 mt 6288 1531 L
6252 1495 mt 6252 1567 L
6211 2629 mt 6283 2629 L
6247 2593 mt 6247 2665 L
6198 1989 mt 6270 1989 L
6234 1953 mt 6234 2025 L
6195 3116 mt 6267 3116 L
6231 3080 mt 6231 3152 L
3552  484 mt 3624  484 L
3588  448 mt 3588  520 L
1845 2102 mt 1917 2102 L
1881 2066 mt 1881 2138 L
5930 2081 mt 6002 2081 L
5966 2045 mt 5966 2117 L
1237 4347 mt 1309 4347 L
1273 4311 mt 1273 4383 L
6126 4449 mt 6198 4449 L
6162 4413 mt 6162 4485 L
3002  819 mt 3074  819 L
3038  783 mt 3038  855 L
2827 1269 mt 2899 1269 L
2863 1233 mt 2863 1305 L
6200 3663 mt 6272 3663 L
6236 3627 mt 6236 3699 L
2771  588 mt 2843  588 L
2807  552 mt 2807  624 L
5403 4086 mt 5475 4086 L
5439 4050 mt 5439 4122 L
6075 2336 mt 6147 2336 L
6111 2300 mt 6111 2372 L
2268  453 mt 2340  453 L
2304  417 mt 2304  489 L
5935  430 mt 6007  430 L
5971  394 mt 5971  466 L
2828 1006 mt 2900 1006 L
2864  970 mt 2864 1042 L
6207 1973 mt 6279 1973 L
6243 1937 mt 6243 2009 L
6152 1336 mt 6224 1336 L
6188 1300 mt 6188 1372 L
5390 1600 mt 5462 1600 L
5426 1564 mt 5426 1636 L
6106 3684 mt 6178 3684 L
6142 3648 mt 6142 3720 L
5087 1652 mt 5159 1652 L
5123 1616 mt 5123 1688 L
2049 1120 mt 2121 1120 L
2085 1084 mt 2085 1156 L
6166 1693 mt 6238 1693 L
6202 1657 mt 6202 1729 L
3550  433 mt 3622  433 L
3586  397 mt 3586  469 L
2445  480 mt 2517  480 L
2481  444 mt 2481  516 L
5261 2347 mt 5333 2347 L
5297 2311 mt 5297 2383 L
6220  711 mt 6292  711 L
6256  675 mt 6256  747 L
5856 1029 mt 5928 1029 L
5892  993 mt 5892 1065 L
6180 4152 mt 6252 4152 L
6216 4116 mt 6216 4188 L
2409  495 mt 2481  495 L
2445  459 mt 2445  531 L
4273  438 mt 4345  438 L
4309  402 mt 4309  474 L
1689 4534 mt 1761 4534 L
1725 4498 mt 1725 4570 L
6170 1120 mt 6242 1120 L
6206 1084 mt 6206 1156 L
6151 1118 mt 6223 1118 L
6187 1082 mt 6187 1154 L
1616  683 mt 1688  683 L
1652  647 mt 1652  719 L
6164  417 mt 6236  417 L
6200  381 mt 6200  453 L
5324 2915 mt 5396 2915 L
5360 2879 mt 5360 2951 L
5024  681 mt 5096  681 L
5060  645 mt 5060  717 L
6181 4606 mt 6253 4606 L
6217 4570 mt 6217 4642 L
4977 1022 mt 5049 1022 L
5013  986 mt 5013 1058 L
5278 4230 mt 5350 4230 L
5314 4194 mt 5314 4266 L
1194  415 mt 1266  415 L
1230  379 mt 1230  451 L
6053  686 mt 6125  686 L
6089  650 mt 6089  722 L
4526 1885 mt 4598 1885 L
4562 1849 mt 4562 1921 L
2136 3919 mt 2208 3919 L
2172 3883 mt 2172 3955 L
5994 4299 mt 6066 4299 L
6030 4263 mt 6030 4335 L
6144 3021 mt 6216 3021 L
6180 2985 mt 6180 3057 L
5565 1278 mt 5637 1278 L
5601 1242 mt 5601 1314 L
1666  695 mt 1738  695 L
1702  659 mt 1702  731 L
2545 4580 mt 2617 4580 L
2581 4544 mt 2581 4616 L
3253  866 mt 3325  866 L
3289  830 mt 3289  902 L
1965 4603 mt 2037 4603 L
2001 4567 mt 2001 4639 L
4390 3131 mt 4462 3131 L
4426 3095 mt 4426 3167 L
1458  460 mt 1530  460 L
1494  424 mt 1494  496 L
2177 1878 mt 2249 1878 L
2213 1842 mt 2213 1914 L
6157 1428 mt 6229 1428 L
6193 1392 mt 6193 1464 L
5432  629 mt 5504  629 L
5468  593 mt 5468  665 L
5741 2749 mt 5813 2749 L
5777 2713 mt 5777 2785 L
3036  820 mt 3108  820 L
3072  784 mt 3072  856 L
6066 3397 mt 6138 3397 L
6102 3361 mt 6102 3433 L
1739 1432 mt 1811 1432 L
1775 1396 mt 1775 1468 L
6220 4616 mt 6292 4616 L
6256 4580 mt 6256 4652 L
6224  430 mt 6296  430 L
6260  394 mt 6260  466 L
5873 3264 mt 5945 3264 L
5909 3228 mt 5909 3300 L
5872 4182 mt 5944 4182 L
5908 4146 mt 5908 4218 L
1304 2737 mt 1376 2737 L
1340 2701 mt 1340 2773 L
4947  745 mt 5019  745 L
4983  709 mt 4983  781 L
2732 3745 mt 2804 3745 L
2768 3709 mt 2768 3781 L
1322  514 mt 1394  514 L
1358  478 mt 1358  550 L
2101 4229 mt 2173 4229 L
2137 4193 mt 2137 4265 L
2554 4614 mt 2626 4614 L
2590 4578 mt 2590 4650 L
1058 2935 mt 1130 2935 L
1094 2899 mt 1094 2971 L
6202 1547 mt 6274 1547 L
6238 1511 mt 6238 1583 L
5944 3977 mt 6016 3977 L
5980 3941 mt 5980 4013 L
2612 1076 mt 2684 1076 L
2648 1040 mt 2648 1112 L
6074  458 mt 6146  458 L
6110  422 mt 6110  494 L
6200  670 mt 6272  670 L
6236  634 mt 6236  706 L
4152 3632 mt 4224 3632 L
4188 3596 mt 4188 3668 L
2000  646 mt 2072  646 L
2036  610 mt 2036  682 L
1646 2921 mt 1718 2921 L
1682 2885 mt 1682 2957 L
4873  415 mt 4945  415 L
4909  379 mt 4909  451 L
3520  556 mt 3592  556 L
3556  520 mt 3556  592 L
5984 3911 mt 6056 3911 L
6020 3875 mt 6020 3947 L
6159 2960 mt 6231 2960 L
6195 2924 mt 6195 2996 L
6202  936 mt 6274  936 L
6238  900 mt 6238  972 L
1403 4308 mt 1475 4308 L
1439 4272 mt 1439 4344 L
5694  427 mt 5766  427 L
5730  391 mt 5730  463 L
2722 2409 mt 2794 2409 L
2758 2373 mt 2758 2445 L
6154 1421 mt 6226 1421 L
6190 1385 mt 6190 1457 L
3281 1130 mt 3353 1130 L
3317 1094 mt 3317 1166 L
2432  503 mt 2504  503 L
2468  467 mt 2468  539 L
2829 1400 mt 2901 1400 L
2865 1364 mt 2865 1436 L
3834 3081 mt 3906 3081 L
3870 3045 mt 3870 3117 L
5920 1993 mt 5992 1993 L
5956 1957 mt 5956 2029 L
3522 2046 mt 3594 2046 L
3558 2010 mt 3558 2082 L
4639 3301 mt 4711 3301 L
4675 3265 mt 4675 3337 L
5257  977 mt 5329  977 L
5293  941 mt 5293 1013 L
6224 2122 mt 6296 2122 L
6260 2086 mt 6260 2158 L
3998 4035 mt 4070 4035 L
4034 3999 mt 4034 4071 L
 906 3778 mt  978 3778 L
 942 3742 mt  942 3814 L
4811 3426 mt 4883 3426 L
4847 3390 mt 4847 3462 L
3910 1493 mt 3982 1493 L
3946 1457 mt 3946 1529 L
4726  526 mt 4798  526 L
4762  490 mt 4762  562 L
4349  458 mt 4421  458 L
4385  422 mt 4385  494 L
3702  731 mt 3774  731 L
3738  695 mt 3738  767 L
2949 2720 mt 3021 2720 L
2985 2684 mt 2985 2756 L
 865  705 mt  937  705 L
 901  669 mt  901  741 L
2044 4316 mt 2116 4316 L
2080 4280 mt 2080 4352 L
4043  459 mt 4115  459 L
4079  423 mt 4079  495 L
3799 4615 mt 3871 4615 L
3835 4579 mt 3835 4651 L
2909  415 mt 2981  415 L
2945  379 mt 2945  451 L
5054  416 mt 5126  416 L
5090  380 mt 5090  452 L
1012  848 mt 1084  848 L
1048  812 mt 1048  884 L
2388 4564 mt 2460 4564 L
2424 4528 mt 2424 4600 L
1218 4061 mt 1290 4061 L
1254 4025 mt 1254 4097 L
1677 3733 mt 1749 3733 L
1713 3697 mt 1713 3769 L
5637 4568 mt 5709 4568 L
5673 4532 mt 5673 4604 L
1255 1092 mt 1327 1092 L
1291 1056 mt 1291 1128 L
5056 2645 mt 5128 2645 L
5092 2609 mt 5092 2681 L
6099  434 mt 6171  434 L
6135  398 mt 6135  470 L
1019 2241 mt 1091 2241 L
1055 2205 mt 1055 2277 L
2210 4615 mt 2282 4615 L
2246 4579 mt 2246 4651 L
5786 4497 mt 5858 4497 L
5822 4461 mt 5822 4533 L
3548 2252 mt 3620 2252 L
3584 2216 mt 3584 2288 L
6145  615 mt 6217  615 L
6181  579 mt 6181  651 L
6127 1722 mt 6199 1722 L
6163 1686 mt 6163 1758 L
4049 3872 mt 4121 3872 L
4085 3836 mt 4085 3908 L
6091 1348 mt 6163 1348 L
6127 1312 mt 6127 1384 L
6206 3058 mt 6278 3058 L
6242 3022 mt 6242 3094 L
2206  671 mt 2278  671 L
2242  635 mt 2242  707 L
6150 4084 mt 6222 4084 L
6186 4048 mt 6186 4120 L
 875  579 mt  947  579 L
 911  543 mt  911  615 L
 917 4389 mt  989 4389 L
 953 4353 mt  953 4425 L
2110 4076 mt 2182 4076 L
2146 4040 mt 2146 4112 L
2943 4557 mt 3015 4557 L
2979 4521 mt 2979 4593 L
 870 4214 mt  942 4214 L
 906 4178 mt  906 4250 L
2568 4146 mt 2640 4146 L
2604 4110 mt 2604 4182 L
 986 2571 mt 1058 2571 L
1022 2535 mt 1022 2607 L
6218 1512 mt 6290 1512 L
6254 1476 mt 6254 1548 L
5919  601 mt 5991  601 L
5955  565 mt 5955  637 L
 863 3195 mt  935 3195 L
 899 3159 mt  899 3231 L
6216 1359 mt 6288 1359 L
6252 1323 mt 6252 1395 L
4283 2592 mt 4355 2592 L
4319 2556 mt 4319 2628 L
5138 3395 mt 5210 3395 L
5174 3359 mt 5174 3431 L
2470 3340 mt 2542 3340 L
2506 3304 mt 2506 3376 L
4115  818 mt 4187  818 L
4151  782 mt 4151  854 L
1133 1342 mt 1205 1342 L
1169 1306 mt 1169 1378 L
3490 1701 mt 3562 1701 L
3526 1665 mt 3526 1737 L
5990 2186 mt 6062 2186 L
6026 2150 mt 6026 2222 L
5382  760 mt 5454  760 L
5418  724 mt 5418  796 L
6216  617 mt 6288  617 L
6252  581 mt 6252  653 L
4114  555 mt 4186  555 L
4150  519 mt 4150  591 L
3941 4309 mt 4013 4309 L
3977 4273 mt 3977 4345 L
4755  423 mt 4827  423 L
4791  387 mt 4791  459 L
1565 2429 mt 1637 2429 L
1601 2393 mt 1601 2465 L
6141 1076 mt 6213 1076 L
6177 1040 mt 6177 1112 L
gs 898 414 5364 4203 rc
gr

0 sg
2798 5104 mt 
(\(F,DCTs,iMLP\)) s
 422 3277 mt  -90 rotate
(\(S,SSC,GMM\)) s
90 rotate
2975  223 mt 
(Corr = 0.00) s

end %%Color Dict

eplot
%%EndObject

epage
end

showpage

%%Trailer
%%EOF
