%!PS-Adobe-3.0 EPSF-3.0
%%Creator: MATLAB, The Mathworks, Inc.
%%Title: Pictures\main_analyse_rerun3_arun_F-ratio-orig.eps
%%CreationDate: 02/01/2009  09:15:32
%%DocumentNeededFonts: Helvetica
%%DocumentProcessColors: Cyan Magenta Yellow Black
%%LanguageLevel: 2
%%Pages: 1
%%BoundingBox:    87   221   546   598
%%EndComments

%%BeginProlog
% MathWorks dictionary
/MathWorks 160 dict begin
% definition operators
/bdef {bind def} bind def
/ldef {load def} bind def
/xdef {exch def} bdef
/xstore {exch store} bdef
% operator abbreviations
/c  /clip ldef
/cc /concat ldef
/cp /closepath ldef
/gr /grestore ldef
/gs /gsave ldef
/mt /moveto ldef
/np /newpath ldef
/cm /currentmatrix ldef
/sm /setmatrix ldef
/rm /rmoveto ldef
/rl /rlineto ldef
/s {show newpath} bdef
/sc {setcmykcolor} bdef
/sr /setrgbcolor ldef
/sg /setgray ldef
/w /setlinewidth ldef
/j /setlinejoin ldef
/cap /setlinecap ldef
/rc {rectclip} bdef
/rf {rectfill} bdef
% page state control
/pgsv () def
/bpage {/pgsv save def} bdef
/epage {pgsv restore} bdef
/bplot /gsave ldef
/eplot {stroke grestore} bdef
% orientation switch
/portraitMode 0 def /landscapeMode 1 def /rotateMode 2 def
% coordinate system mappings
/dpi2point 0 def
% font control
/FontSize 0 def
/FMS {/FontSize xstore findfont [FontSize 0 0 FontSize neg 0 0]
  makefont setfont} bdef
/ISOLatin1Encoding where {pop /WindowsLatin1Encoding 256 array bdef
ISOLatin1Encoding WindowsLatin1Encoding copy pop
/.notdef/.notdef/quotesinglbase/florin/quotedblbase/ellipsis/dagger
/daggerdbl/circumflex/perthousand/Scaron/guilsinglleft/OE/.notdef/.notdef
/.notdef/.notdef/quoteleft/quoteright/quotedblleft/quotedblright/bullet
/endash/emdash/tilde/trademark/scaron/guilsinglright/oe/.notdef/.notdef
/Ydieresis WindowsLatin1Encoding 128 32 getinterval astore pop}
{/WindowsLatin1Encoding StandardEncoding bdef} ifelse
/reencode {exch dup where {pop load} {pop StandardEncoding} ifelse
  exch dup 3 1 roll findfont dup length dict begin
  { 1 index /FID ne {def}{pop pop} ifelse } forall
  /Encoding exch def currentdict end definefont pop} bdef
/isroman {findfont /CharStrings get /Agrave known} bdef
/FMSR {3 1 roll 1 index dup isroman {reencode} {pop pop} ifelse
  exch FMS} bdef
/csm {1 dpi2point div -1 dpi2point div scale neg translate
 dup landscapeMode eq {pop -90 rotate}
  {rotateMode eq {90 rotate} if} ifelse} bdef
% line types: solid, dotted, dashed, dotdash
/SO { [] 0 setdash } bdef
/DO { [.5 dpi2point mul 4 dpi2point mul] 0 setdash } bdef
/DA { [6 dpi2point mul] 0 setdash } bdef
/DD { [.5 dpi2point mul 4 dpi2point mul 6 dpi2point mul 4
  dpi2point mul] 0 setdash } bdef
% macros for lines and objects
/L {lineto stroke} bdef
/MP {3 1 roll moveto 1 sub {rlineto} repeat} bdef
/AP {{rlineto} repeat} bdef
/PDlw -1 def
/W {/PDlw currentlinewidth def setlinewidth} def
/PP {closepath eofill} bdef
/DP {closepath stroke} bdef
/MR {4 -2 roll moveto dup  0 exch rlineto exch 0 rlineto
  neg 0 exch rlineto closepath} bdef
/FR {MR stroke} bdef
/PR {MR fill} bdef
/L1i {{currentfile picstr readhexstring pop} image} bdef
/tMatrix matrix def
/MakeOval {newpath tMatrix currentmatrix pop translate scale
0 0 1 0 360 arc tMatrix setmatrix} bdef
/FO {MakeOval stroke} bdef
/PO {MakeOval fill} bdef
/PD {currentlinewidth 2 div 0 360 arc fill
   PDlw -1 eq not {PDlw w /PDlw -1 def} if} def
/FA {newpath tMatrix currentmatrix pop translate scale
  0 0 1 5 -2 roll arc tMatrix setmatrix stroke} bdef
/PA {newpath tMatrix currentmatrix pop	translate 0 0 moveto scale
  0 0 1 5 -2 roll arc closepath tMatrix setmatrix fill} bdef
/FAn {newpath tMatrix currentmatrix pop translate scale
  0 0 1 5 -2 roll arcn tMatrix setmatrix stroke} bdef
/PAn {newpath tMatrix currentmatrix pop translate 0 0 moveto scale
  0 0 1 5 -2 roll arcn closepath tMatrix setmatrix fill} bdef
/vradius 0 def /hradius 0 def /lry 0 def
/lrx 0 def /uly 0 def /ulx 0 def /rad 0 def
/MRR {/vradius xdef /hradius xdef /lry xdef /lrx xdef /uly xdef
  /ulx xdef newpath tMatrix currentmatrix pop ulx hradius add uly
  vradius add translate hradius vradius scale 0 0 1 180 270 arc 
  tMatrix setmatrix lrx hradius sub uly vradius add translate
  hradius vradius scale 0 0 1 270 360 arc tMatrix setmatrix
  lrx hradius sub lry vradius sub translate hradius vradius scale
  0 0 1 0 90 arc tMatrix setmatrix ulx hradius add lry vradius sub
  translate hradius vradius scale 0 0 1 90 180 arc tMatrix setmatrix
  closepath} bdef
/FRR {MRR stroke } bdef
/PRR {MRR fill } bdef
/MlrRR {/lry xdef /lrx xdef /uly xdef /ulx xdef /rad lry uly sub 2 div def
  newpath tMatrix currentmatrix pop ulx rad add uly rad add translate
  rad rad scale 0 0 1 90 270 arc tMatrix setmatrix lrx rad sub lry rad
  sub translate rad rad scale 0 0 1 270 90 arc tMatrix setmatrix
  closepath} bdef
/FlrRR {MlrRR stroke } bdef
/PlrRR {MlrRR fill } bdef
/MtbRR {/lry xdef /lrx xdef /uly xdef /ulx xdef /rad lrx ulx sub 2 div def
  newpath tMatrix currentmatrix pop ulx rad add uly rad add translate
  rad rad scale 0 0 1 180 360 arc tMatrix setmatrix lrx rad sub lry rad
  sub translate rad rad scale 0 0 1 0 180 arc tMatrix setmatrix
  closepath} bdef
/FtbRR {MtbRR stroke } bdef
/PtbRR {MtbRR fill } bdef
/stri 6 array def /dtri 6 array def
/smat 6 array def /dmat 6 array def
/tmat1 6 array def /tmat2 6 array def /dif 3 array def
/asub {/ind2 exch def /ind1 exch def dup dup
  ind1 get exch ind2 get sub exch } bdef
/tri_to_matrix {
  2 0 asub 3 1 asub 4 0 asub 5 1 asub
  dup 0 get exch 1 get 7 -1 roll astore } bdef
/compute_transform {
  dmat dtri tri_to_matrix tmat1 invertmatrix 
  smat stri tri_to_matrix tmat2 concatmatrix } bdef
/ds {stri astore pop} bdef
/dt {dtri astore pop} bdef
/db {2 copy /cols xdef /rows xdef mul dup 3 mul string
  currentfile 
  3 index 0 eq {/ASCIIHexDecode filter}
  {/ASCII85Decode filter 3 index 2 eq {/RunLengthDecode filter} if }
  ifelse exch readstring pop
  dup 0 3 index getinterval /rbmap xdef
  dup 2 index dup getinterval /gbmap xdef
  1 index dup 2 mul exch getinterval /bbmap xdef pop pop}bdef
/it {gs np dtri aload pop moveto lineto lineto cp c
  cols rows 8 compute_transform 
  rbmap gbmap bbmap true 3 colorimage gr}bdef
/il {newpath moveto lineto stroke}bdef
currentdict end def
%%EndProlog

%%BeginSetup
MathWorks begin

0 cap

end
%%EndSetup

%%Page: 1 1
%%BeginPageSetup
%%PageBoundingBox:    87   221   546   598
MathWorks begin
bpage
%%EndPageSetup

%%BeginObject: obj1
bplot

/dpi2point 12 def
portraitMode 0216 7344 csm

  828   160  5519  4530 rc
85 dict begin %Colortable dictionary
/c0 { 0.000000 0.000000 0.000000 sr} bdef
/c1 { 1.000000 1.000000 1.000000 sr} bdef
/c2 { 0.900000 0.000000 0.000000 sr} bdef
/c3 { 0.000000 0.820000 0.000000 sr} bdef
/c4 { 0.000000 0.000000 0.800000 sr} bdef
/c5 { 0.910000 0.820000 0.320000 sr} bdef
/c6 { 1.000000 0.260000 0.820000 sr} bdef
/c7 { 0.000000 0.820000 0.820000 sr} bdef
c0
1 j
1 sg
   0    0 6919 5187 rf
6 w
0 1068 856 0 0 -1068 898 1508 4 MP
PP
-856 0 0 1068 856 0 0 -1068 898 1508 5 MP stroke
4 w
DO
SO
6 w
0 sg
 898 1508 mt 1754 1508 L
 898 1508 mt  898  440 L
1102 1508 mt 1102 1497 L
1376 1508 mt 1376 1497 L
1650 1508 mt 1650 1497 L
 898 1387 mt  909 1387 L
 898 1195 mt  909 1195 L
 898 1003 mt  909 1003 L
 898  811 mt  909  811 L
 898  619 mt  909  619 L
%%IncludeResource: font Helvetica
/Helvetica /WindowsLatin1Encoding 120 FMSR

 986  345 mt 
(P1:1 P1:1\(F\)) s
gs 898 440 858 1069 rc
gr

gs 825 367 1003 1215 rc
24 W
/c8 { 0.000000 0.000000 1.000000 sr} bdef
c8
1377 488 PD
24 W
1491 1046 PD
24 W
1034 914 PD
24 W
1001 1048 PD
24 W
1062 1192 PD
24 W
1154 780 PD
24 W
1040 1062 PD
24 W
1211 931 PD
24 W
1264 1080 PD
24 W
1085 1371 PD
24 W
1067 1196 PD
24 W
1172 564 PD
24 W
1743 760 PD
24 W
1183 1111 PD
24 W
1407 831 PD
24 W
1180 867 PD
24 W
1059 942 PD
24 W
1358 693 PD
24 W
1416 554 PD
24 W
1307 1241 PD
24 W
1085 1335 PD
24 W
1131 1341 PD
24 W
971 1048 PD
24 W
1065 1262 PD
24 W
1366 455 PD
24 W
1097 1414 PD
24 W
1095 911 PD
24 W
1278 1038 PD
24 W
1218 919 PD
24 W
1071 948 PD
24 W
1303 1111 PD
24 W
1207 975 PD
24 W
1070 960 PD
24 W
940 822 PD
24 W
1122 1086 PD
24 W
1004 1380 PD
24 W
978 1031 PD
24 W
1044 1026 PD
24 W
1149 686 PD
24 W
1169 1046 PD
24 W
1170 781 PD
24 W
1299 743 PD
24 W
1521 532 PD
24 W
937 1323 PD
24 W
1394 1078 PD
24 W
1196 1041 PD
24 W
957 1381 PD
24 W
1010 1408 PD
24 W
1396 1039 PD
24 W
1247 1227 PD
24 W
1126 1049 PD
24 W
1263 1314 PD
24 W
1149 1136 PD
24 W
1316 740 PD
24 W
1056 1337 PD
24 W
1236 1039 PD
24 W
936 772 PD
24 W
1412 825 PD
24 W
1119 954 PD
24 W
1182 898 PD
24 W
1239 810 PD
24 W
1026 1090 PD
24 W
1205 1041 PD
24 W
1404 967 PD
24 W
1382 1181 PD
24 W
1453 973 PD
24 W
1225 798 PD
24 W
1142 1156 PD
24 W
1264 1234 PD
24 W
1105 1207 PD
24 W
1117 900 PD
24 W
1498 835 PD
24 W
1153 777 PD
24 W
1028 1120 PD
24 W
1096 1323 PD
24 W
1300 1256 PD
24 W
1361 779 PD
24 W
1047 1246 PD
24 W
1153 1242 PD
24 W
1155 957 PD
24 W
1191 1046 PD
24 W
1061 1071 PD
24 W
1320 518 PD
24 W
911 1508 PD
24 W
1167 1123 PD
24 W
1303 1233 PD
24 W
1309 972 PD
24 W
1134 843 PD
24 W
915 1437 PD
24 W
1167 1342 PD
24 W
1008 1275 PD
24 W
1439 640 PD
24 W
979 1345 PD
24 W
1230 1066 PD
24 W
1241 1094 PD
24 W
1106 1278 PD
24 W
1244 890 PD
24 W
1147 1401 PD
24 W
1120 1303 PD
24 W
1194 1148 PD
24 W
1381 945 PD
24 W
1120 1194 PD
24 W
1130 983 PD
24 W
1078 827 PD
24 W
1286 1431 PD
24 W
1089 1020 PD
24 W
1197 628 PD
24 W
1055 683 PD
24 W
987 1013 PD
24 W
1281 836 PD
24 W
1217 802 PD
24 W
1137 1280 PD
24 W
1362 1121 PD
24 W
980 1416 PD
24 W
1040 1047 PD
24 W
1351 1303 PD
24 W
1222 1343 PD
24 W
1317 1063 PD
24 W
1094 781 PD
24 W
1018 979 PD
24 W
1313 562 PD
24 W
1030 1060 PD
24 W
1214 1124 PD
24 W
1211 861 PD
24 W
1062 1103 PD
24 W
1556 902 PD
24 W
1117 1214 PD
24 W
1205 1175 PD
24 W
1196 1080 PD
24 W
1147 1194 PD
24 W
1433 691 PD
24 W
1125 1237 PD
24 W
1175 1229 PD
24 W
1210 1081 PD
24 W
1015 1369 PD
24 W
1221 924 PD
24 W
1230 1392 PD
24 W
1543 471 PD
24 W
1311 942 PD
24 W
1033 1307 PD
24 W
1086 1164 PD
24 W
1399 623 PD
24 W
1052 979 PD
24 W
1103 1346 PD
24 W
1273 1087 PD
24 W
1173 1238 PD
24 W
1088 1080 PD
24 W
1197 977 PD
24 W
1103 1154 PD
24 W
1085 1258 PD
24 W
1013 1304 PD
24 W
946 1413 PD
24 W
1009 1274 PD
24 W
978 1397 PD
24 W
1008 1427 PD
24 W
1115 1043 PD
24 W
1236 1257 PD
24 W
1527 1295 PD
24 W
1055 1072 PD
24 W
958 1384 PD
24 W
1178 925 PD
24 W
1030 911 PD
24 W
1247 1188 PD
24 W
1007 1376 PD
24 W
1036 973 PD
24 W
1046 1242 PD
24 W
1108 972 PD
24 W
1754 1074 PD
24 W
983 958 PD
24 W
1277 1126 PD
24 W
1094 1321 PD
24 W
1332 690 PD
24 W
1088 1205 PD
24 W
959 1431 PD
24 W
1054 853 PD
24 W
1136 1306 PD
24 W
1294 1378 PD
24 W
1037 1109 PD
24 W
1097 1318 PD
24 W
1151 1374 PD
24 W
1091 1140 PD
24 W
898 1381 PD
24 W
1020 1047 PD
24 W
1121 625 PD
24 W
1090 1305 PD
24 W
973 734 PD
24 W
1149 1292 PD
24 W
957 1082 PD
24 W
984 1305 PD
24 W
990 1297 PD
24 W
1059 1233 PD
24 W
1293 606 PD
24 W
1568 1009 PD
24 W
1588 1486 PD
24 W
1317 710 PD
24 W
1130 1293 PD
24 W
1087 1073 PD
24 W
1384 1084 PD
24 W
1299 440 PD
24 W
1183 660 PD
gs 898 440 858 1069 rc
/c9 { 1.000000 0.000000 0.000000 sr} bdef
c9
743 -1040 898 1480 2 MP stroke
gr
gr

c9
1 sg
0 1068 856 0 0 -1068 2026 1508 4 MP
PP
-856 0 0 1068 856 0 0 -1068 2026 1508 5 MP stroke
4 w
DO
SO
6 w
0 sg
2026 1508 mt 2882 1508 L
2026 1508 mt 2026  440 L
2174 1508 mt 2174 1497 L
2380 1508 mt 2380 1497 L
2586 1508 mt 2586 1497 L
2792 1508 mt 2792 1497 L
2026 1301 mt 2036 1301 L
2026 1017 mt 2036 1017 L
2026  732 mt 2036  732 L
2026  448 mt 2036  448 L
2113  345 mt 
(P1:2 P1:2\(F\)) s
gs 2026 440 857 1069 rc
gr

gs 1953 367 1003 1215 rc
24 W
c8
2290 780 PD
24 W
2319 1219 PD
24 W
2178 867 PD
24 W
2105 973 PD
24 W
2429 1101 PD
24 W
2386 1081 PD
24 W
2186 1210 PD
24 W
2276 1050 PD
24 W
2286 977 PD
24 W
2326 1367 PD
24 W
2154 1268 PD
24 W
2235 964 PD
24 W
2686 696 PD
24 W
2249 1173 PD
24 W
2505 882 PD
24 W
2326 565 PD
24 W
2277 1113 PD
24 W
2571 892 PD
24 W
2312 690 PD
24 W
2149 1384 PD
24 W
2286 501 PD
24 W
2231 1425 PD
24 W
2059 869 PD
24 W
2559 1052 PD
24 W
2484 466 PD
24 W
2256 1262 PD
24 W
2239 1252 PD
24 W
2297 1108 PD
24 W
2320 1154 PD
24 W
2332 1040 PD
24 W
2264 1186 PD
24 W
2295 1291 PD
24 W
2444 1280 PD
24 W
2067 947 PD
24 W
2228 1332 PD
24 W
2176 1451 PD
24 W
2177 1007 PD
24 W
2196 1300 PD
24 W
2340 924 PD
24 W
2235 1161 PD
24 W
2255 825 PD
24 W
2390 918 PD
24 W
2351 670 PD
24 W
2129 1347 PD
24 W
2492 1110 PD
24 W
2245 901 PD
24 W
2166 1337 PD
24 W
2246 1111 PD
24 W
2229 770 PD
24 W
2255 1302 PD
24 W
2370 936 PD
24 W
2358 1171 PD
24 W
2247 1196 PD
24 W
2222 643 PD
24 W
2234 1295 PD
24 W
2297 1313 PD
24 W
2026 855 PD
24 W
2494 919 PD
24 W
2236 1050 PD
24 W
2253 696 PD
24 W
2419 724 PD
24 W
2219 980 PD
24 W
2233 821 PD
24 W
2321 1304 PD
24 W
2378 1363 PD
24 W
2698 1109 PD
24 W
2259 1314 PD
24 W
2201 1039 PD
24 W
2198 1154 PD
24 W
2152 1280 PD
24 W
2388 921 PD
24 W
2375 1022 PD
24 W
2198 671 PD
24 W
2249 994 PD
24 W
2325 1245 PD
24 W
2316 1308 PD
24 W
2312 992 PD
24 W
2251 1163 PD
24 W
2249 1304 PD
24 W
2311 699 PD
24 W
2240 1329 PD
24 W
2231 1055 PD
24 W
2461 712 PD
24 W
2126 1508 PD
24 W
2276 1169 PD
24 W
2223 1315 PD
24 W
2341 1210 PD
24 W
2339 1218 PD
24 W
2229 1474 PD
24 W
2300 1151 PD
24 W
2087 1475 PD
24 W
2749 869 PD
24 W
2204 1226 PD
24 W
2335 1184 PD
24 W
2201 1248 PD
24 W
2422 769 PD
24 W
2272 1014 PD
24 W
2168 1313 PD
24 W
2350 1304 PD
24 W
2336 923 PD
24 W
2341 972 PD
24 W
2451 1345 PD
24 W
2241 1134 PD
24 W
2136 952 PD
24 W
2302 1008 PD
24 W
2246 879 PD
24 W
2283 1129 PD
24 W
2192 887 PD
24 W
2170 1290 PD
24 W
2356 1192 PD
24 W
2423 589 PD
24 W
2228 1377 PD
24 W
2291 1046 PD
24 W
2187 1327 PD
24 W
2133 1245 PD
24 W
2326 1323 PD
24 W
2347 1259 PD
24 W
2409 1187 PD
24 W
2283 1035 PD
24 W
2161 929 PD
24 W
2350 1206 PD
24 W
2331 1325 PD
24 W
2339 1147 PD
24 W
2354 589 PD
24 W
2273 1151 PD
24 W
2649 665 PD
24 W
2139 1119 PD
24 W
2263 1131 PD
24 W
2590 1077 PD
24 W
2159 1353 PD
24 W
2437 906 PD
24 W
2087 1407 PD
24 W
2369 1222 PD
24 W
2474 1257 PD
24 W
2108 1143 PD
24 W
2359 1141 PD
24 W
2224 1258 PD
24 W
2676 772 PD
24 W
2336 1040 PD
24 W
2243 1386 PD
24 W
2257 1250 PD
24 W
2394 725 PD
24 W
2236 1001 PD
24 W
2133 1364 PD
24 W
2466 1184 PD
24 W
2472 1344 PD
24 W
2244 1267 PD
24 W
2260 1098 PD
24 W
2274 1240 PD
24 W
2254 1179 PD
24 W
2277 1100 PD
24 W
2238 1247 PD
24 W
2198 1136 PD
24 W
2204 697 PD
24 W
2058 1445 PD
24 W
2193 1090 PD
24 W
2315 1295 PD
24 W
2428 1299 PD
24 W
2186 1349 PD
24 W
2257 1284 PD
24 W
2307 1066 PD
24 W
2173 1122 PD
24 W
2245 1166 PD
24 W
2231 1376 PD
24 W
2564 1227 PD
24 W
2163 1230 PD
24 W
2400 722 PD
24 W
2322 1106 PD
24 W
2261 1134 PD
24 W
2374 904 PD
24 W
2357 1058 PD
24 W
2524 763 PD
24 W
2160 1068 PD
24 W
2107 1277 PD
24 W
2184 774 PD
24 W
2207 1394 PD
24 W
2277 1171 PD
24 W
2137 1020 PD
24 W
2175 1444 PD
24 W
2201 1261 PD
24 W
2275 1359 PD
24 W
2327 1258 PD
24 W
2139 440 PD
24 W
2193 1030 PD
24 W
2399 1193 PD
24 W
2061 533 PD
24 W
2329 1356 PD
24 W
2046 1161 PD
24 W
2173 1372 PD
24 W
2144 1367 PD
24 W
2162 1390 PD
24 W
2238 1028 PD
24 W
2882 1318 PD
24 W
2699 1280 PD
24 W
2373 498 PD
24 W
2328 1122 PD
24 W
2347 903 PD
24 W
2383 994 PD
24 W
2318 1185 PD
24 W
2226 514 PD
gs 2026 440 857 1069 rc
c9
773 -1065 2026 1505 2 MP stroke
gr
gr

c9
1 sg
0 1068 856 0 0 -1068 3152 1508 4 MP
PP
-856 0 0 1068 856 0 0 -1068 3152 1508 5 MP stroke
4 w
DO
SO
6 w
0 sg
3152 1508 mt 4008 1508 L
3152 1508 mt 3152  440 L
3221 1508 mt 3221 1497 L
3604 1508 mt 3604 1497 L
3987 1508 mt 3987 1497 L
3152 1416 mt 3162 1416 L
3152 1157 mt 3162 1157 L
3152  898 mt 3162  898 L
3152  640 mt 3162  640 L
3235  345 mt 
(P1:3 P1:3\(S\)) s
gs 3152 440 857 1069 rc
gr

gs 3079 367 1003 1215 rc
24 W
c8
3713 1246 PD
24 W
3402 988 PD
24 W
3370 1211 PD
24 W
3247 1435 PD
24 W
3781 1131 PD
24 W
3438 1212 PD
24 W
3764 1421 PD
24 W
3336 1326 PD
24 W
3725 599 PD
24 W
3757 980 PD
24 W
3464 975 PD
24 W
3288 1389 PD
24 W
3737 976 PD
24 W
3623 1278 PD
24 W
3739 962 PD
24 W
3796 1195 PD
24 W
3323 440 PD
24 W
3440 1323 PD
24 W
3230 1361 PD
24 W
3611 1325 PD
24 W
3567 1334 PD
24 W
3524 1069 PD
24 W
3200 1471 PD
24 W
3291 1255 PD
24 W
3310 1431 PD
24 W
3616 1198 PD
24 W
3399 1091 PD
24 W
3407 1258 PD
24 W
3298 1448 PD
24 W
3448 1328 PD
24 W
3152 1326 PD
24 W
3593 1323 PD
24 W
3558 1366 PD
24 W
3298 1357 PD
24 W
3531 1215 PD
24 W
3279 1309 PD
24 W
3888 1385 PD
24 W
3700 1344 PD
24 W
3715 1187 PD
24 W
3663 1177 PD
24 W
3228 1383 PD
24 W
3854 1341 PD
24 W
3565 1239 PD
24 W
3644 963 PD
24 W
3391 1333 PD
24 W
3372 1204 PD
24 W
3616 1275 PD
24 W
3351 1340 PD
24 W
3198 1260 PD
24 W
3234 1447 PD
24 W
3402 1427 PD
24 W
3630 1173 PD
24 W
3453 1157 PD
24 W
3391 1301 PD
24 W
3500 1306 PD
24 W
3311 1373 PD
24 W
3371 1230 PD
24 W
3279 1319 PD
24 W
3205 1464 PD
24 W
3227 1468 PD
24 W
3307 1392 PD
24 W
3545 1394 PD
24 W
3335 1359 PD
24 W
3767 1343 PD
24 W
3295 1242 PD
24 W
3555 1361 PD
24 W
3840 1323 PD
24 W
3617 991 PD
24 W
3292 1260 PD
24 W
3338 1463 PD
24 W
3417 1362 PD
24 W
3513 1261 PD
24 W
3254 1418 PD
24 W
3695 1137 PD
24 W
3650 1245 PD
24 W
3559 1209 PD
24 W
3303 1218 PD
24 W
3348 1442 PD
24 W
3486 1326 PD
24 W
3420 1378 PD
24 W
3669 1343 PD
24 W
3565 1181 PD
24 W
3331 1471 PD
24 W
3258 1478 PD
24 W
3458 1357 PD
24 W
3326 1412 PD
24 W
3284 1363 PD
24 W
3499 1282 PD
24 W
3351 1449 PD
24 W
3625 1287 PD
24 W
3257 1429 PD
24 W
3178 1446 PD
24 W
3303 1425 PD
24 W
3258 1426 PD
24 W
3356 1279 PD
24 W
3460 1410 PD
24 W
3417 1455 PD
24 W
3342 1287 PD
24 W
3377 1317 PD
24 W
3181 1442 PD
24 W
3772 1065 PD
24 W
3414 1316 PD
24 W
3443 1128 PD
24 W
3351 1365 PD
24 W
3527 1335 PD
24 W
3461 1427 PD
24 W
3212 1391 PD
24 W
3414 1393 PD
24 W
3342 1277 PD
24 W
3260 1480 PD
24 W
3404 1253 PD
24 W
3460 1444 PD
24 W
3500 1329 PD
24 W
3223 1365 PD
24 W
3409 1421 PD
24 W
3577 1349 PD
24 W
3386 1508 PD
24 W
3405 1381 PD
24 W
3395 1321 PD
24 W
3262 1200 PD
24 W
3444 1293 PD
24 W
3272 1367 PD
24 W
3533 1248 PD
24 W
3265 1364 PD
24 W
3387 1223 PD
24 W
3388 1356 PD
24 W
3380 1415 PD
24 W
3419 1416 PD
24 W
3254 1333 PD
24 W
3388 1335 PD
24 W
3283 1440 PD
24 W
3339 1378 PD
24 W
3463 1392 PD
24 W
3434 1125 PD
24 W
3321 1472 PD
24 W
3361 1338 PD
24 W
3201 1358 PD
24 W
3651 684 PD
24 W
3390 1411 PD
24 W
3539 1329 PD
24 W
3443 1016 PD
24 W
3895 1117 PD
24 W
3516 1342 PD
24 W
3212 1455 PD
24 W
3452 1252 PD
24 W
3485 1432 PD
24 W
3617 1143 PD
24 W
3561 1389 PD
24 W
3824 995 PD
24 W
3981 1389 PD
24 W
3582 1273 PD
24 W
3330 1284 PD
24 W
3349 1242 PD
24 W
3325 1397 PD
24 W
3440 1199 PD
24 W
3605 1063 PD
24 W
3417 1395 PD
24 W
3431 1264 PD
24 W
3354 1347 PD
24 W
3623 1224 PD
24 W
3412 1281 PD
24 W
3377 1292 PD
24 W
3160 1355 PD
24 W
3435 1449 PD
24 W
3314 1502 PD
24 W
3391 1466 PD
24 W
3278 1382 PD
24 W
3452 1390 PD
24 W
3951 1284 PD
24 W
3579 1261 PD
24 W
3395 1369 PD
24 W
3234 1493 PD
24 W
3225 1472 PD
24 W
3192 1468 PD
24 W
3306 1372 PD
24 W
3377 1267 PD
24 W
3157 1463 PD
24 W
3171 1414 PD
24 W
3224 1397 PD
24 W
3364 1406 PD
24 W
3236 1446 PD
24 W
3205 1331 PD
24 W
3282 1384 PD
24 W
3364 1275 PD
24 W
3403 1371 PD
24 W
3508 1251 PD
24 W
3310 1456 PD
24 W
3401 1356 PD
24 W
4008 1423 PD
24 W
3418 915 PD
24 W
3240 1466 PD
24 W
3297 1378 PD
24 W
3485 1345 PD
24 W
3753 1135 PD
24 W
3839 1167 PD
24 W
3440 1355 PD
24 W
3396 1353 PD
24 W
3240 1307 PD
24 W
3653 1272 PD
24 W
3501 1132 PD
gs 3152 440 857 1069 rc
c9
857 -579 3152 1463 2 MP stroke
gr
gr

c9
1 sg
0 1069 856 0 0 -1069 4278 1508 4 MP
PP
-856 0 0 1069 856 0 0 -1069 4278 1508 5 MP stroke
4 w
DO
SO
6 w
0 sg
4278 1508 mt 5134 1508 L
4278 1508 mt 4278  439 L
4489 1508 mt 4489 1497 L
4910 1508 mt 4910 1497 L
4278 1363 mt 4288 1363 L
4278 1070 mt 4288 1070 L
4278  777 mt 4288  777 L
4278  485 mt 4288  485 L
4361  345 mt 
(P1:4 P1:4\(S\)) s
gs 4278 440 857 1069 rc
gr

gs 4205 367 1003 1215 rc
24 W
c8
4549 1114 PD
24 W
4622 692 PD
24 W
4653 872 PD
24 W
4489 1196 PD
24 W
4796 898 PD
24 W
4613 935 PD
24 W
4609 1283 PD
24 W
4409 1230 PD
24 W
4576 825 PD
24 W
4881 957 PD
24 W
4421 625 PD
24 W
4319 1378 PD
24 W
4562 904 PD
24 W
4696 993 PD
24 W
4453 985 PD
24 W
4400 974 PD
24 W
4537 971 PD
24 W
4464 1275 PD
24 W
4599 978 PD
24 W
4531 1213 PD
24 W
4480 1274 PD
24 W
4610 933 PD
24 W
4422 1256 PD
24 W
4360 1174 PD
24 W
4530 1148 PD
24 W
4498 1040 PD
24 W
4486 1006 PD
24 W
4469 1017 PD
24 W
4433 1027 PD
24 W
4507 737 PD
24 W
4302 1236 PD
24 W
4447 1255 PD
24 W
4481 1235 PD
24 W
4535 1156 PD
24 W
4376 1306 PD
24 W
4442 1116 PD
24 W
4557 1244 PD
24 W
4392 1301 PD
24 W
4624 1071 PD
24 W
4679 1069 PD
24 W
4406 1265 PD
24 W
4721 1071 PD
24 W
4511 936 PD
24 W
4672 716 PD
24 W
4437 1360 PD
24 W
4544 1037 PD
24 W
4479 1067 PD
24 W
4549 665 PD
24 W
4492 912 PD
24 W
4392 1051 PD
24 W
4616 1132 PD
24 W
4613 915 PD
24 W
4444 1009 PD
24 W
4491 1265 PD
24 W
4449 1133 PD
24 W
4278 1345 PD
24 W
4425 983 PD
24 W
4596 986 PD
24 W
4461 1219 PD
24 W
4386 1460 PD
24 W
4539 1198 PD
24 W
4705 1157 PD
24 W
4839 1175 PD
24 W
4602 1057 PD
24 W
4562 1231 PD
24 W
4447 934 PD
24 W
4565 1011 PD
24 W
4469 729 PD
24 W
4340 868 PD
24 W
4393 1262 PD
24 W
4529 955 PD
24 W
4502 1140 PD
24 W
4500 1252 PD
24 W
4713 1055 PD
24 W
4619 829 PD
24 W
4442 1060 PD
24 W
4631 647 PD
24 W
4645 1216 PD
24 W
4568 1098 PD
24 W
4567 1411 PD
24 W
4489 1186 PD
24 W
4531 740 PD
24 W
4616 1295 PD
24 W
4288 1315 PD
24 W
4485 1296 PD
24 W
4433 1334 PD
24 W
4332 1325 PD
24 W
4473 1198 PD
24 W
4404 1336 PD
24 W
4856 456 PD
24 W
4343 1357 PD
24 W
4434 1038 PD
24 W
4372 1160 PD
24 W
4435 1237 PD
24 W
4425 960 PD
24 W
4472 1229 PD
24 W
4383 1227 PD
24 W
4508 1420 PD
24 W
4420 1046 PD
24 W
4350 1149 PD
24 W
4858 919 PD
24 W
4434 959 PD
24 W
4801 920 PD
24 W
4500 1201 PD
24 W
4424 1107 PD
24 W
4424 1270 PD
24 W
4498 1208 PD
24 W
4490 1280 PD
24 W
4406 1191 PD
24 W
4575 1097 PD
24 W
4484 1275 PD
24 W
4465 1167 PD
24 W
4475 1053 PD
24 W
4463 724 PD
24 W
4578 1131 PD
24 W
4577 1044 PD
24 W
4375 1168 PD
24 W
4519 1297 PD
24 W
4413 1131 PD
24 W
4413 1092 PD
24 W
4420 1067 PD
24 W
4314 1367 PD
24 W
4531 1110 PD
24 W
4517 847 PD
24 W
4772 1156 PD
24 W
4496 986 PD
24 W
4441 1080 PD
24 W
4442 1279 PD
24 W
4442 976 PD
24 W
4477 1168 PD
24 W
4581 805 PD
24 W
4461 1219 PD
24 W
4376 1092 PD
24 W
4559 1053 PD
24 W
4483 1164 PD
24 W
4435 1205 PD
24 W
4303 1189 PD
24 W
4634 916 PD
24 W
4495 1328 PD
24 W
4560 757 PD
24 W
4377 1079 PD
24 W
4703 802 PD
24 W
4413 1131 PD
24 W
4536 1210 PD
24 W
4630 1135 PD
24 W
4578 1236 PD
24 W
4515 976 PD
24 W
4528 1267 PD
24 W
4445 987 PD
24 W
4735 1064 PD
24 W
4584 886 PD
24 W
4422 1198 PD
24 W
4473 1057 PD
24 W
4506 1234 PD
24 W
4696 760 PD
24 W
4452 1137 PD
24 W
4585 1163 PD
24 W
4413 1199 PD
24 W
4634 1094 PD
24 W
4543 1003 PD
24 W
4551 707 PD
24 W
4435 1074 PD
24 W
4649 888 PD
24 W
4369 1374 PD
24 W
4451 1199 PD
24 W
4421 1324 PD
24 W
4429 1148 PD
24 W
4360 1146 PD
24 W
4464 994 PD
24 W
4424 1086 PD
24 W
4379 1235 PD
24 W
4351 1374 PD
24 W
4389 1246 PD
24 W
4654 1193 PD
24 W
4418 1508 PD
24 W
4521 809 PD
24 W
4437 1142 PD
24 W
4412 1227 PD
24 W
4732 1166 PD
24 W
4602 1206 PD
24 W
4327 1127 PD
24 W
4585 956 PD
24 W
4518 1215 PD
24 W
4713 920 PD
24 W
4535 1034 PD
24 W
4566 1272 PD
24 W
4726 1412 PD
24 W
4841 1063 PD
24 W
4719 947 PD
gs 4278 440 857 1069 rc
gr

24 W
4651 1356 PD
24 W
4846 1135 PD
24 W
4414 1133 PD
24 W
4634 720 PD
24 W
4845 1049 PD
24 W
4522 888 PD
24 W
4367 1115 PD
24 W
4685 1139 PD
24 W
4438 1104 PD
24 W
4566 838 PD
gs 4278 440 857 1069 rc
c9
665 -924 4278 1364 2 MP stroke
gr
gr

c9
1 sg
0 1068 856 0 0 -1068 5405 1508 4 MP
PP
-856 0 0 1068 856 0 0 -1068 5405 1508 5 MP stroke
4 w
DO
SO
6 w
0 sg
5405 1508 mt 6261 1508 L
5405 1508 mt 5405  440 L
5479 1508 mt 5479 1497 L
5645 1508 mt 5645 1497 L
5810 1508 mt 5810 1497 L
5976 1508 mt 5976 1497 L
6141 1508 mt 6141 1497 L
5405 1446 mt 5415 1446 L
5405 1181 mt 5415 1181 L
5405  916 mt 5415  916 L
5405  651 mt 5415  651 L
5488  344 mt 
(P1:5 P1:5\(S\)) s
gs 5405 439 857 1070 rc
gr

gs 5332 367 1003 1215 rc
24 W
c8
5722 1181 PD
24 W
5960 700 PD
24 W
5910 1015 PD
24 W
5775 1351 PD
24 W
5913 929 PD
24 W
5838 1067 PD
24 W
5717 1302 PD
24 W
5603 1051 PD
24 W
6035 440 PD
24 W
5872 883 PD
24 W
5744 709 PD
24 W
5535 1334 PD
24 W
5712 922 PD
24 W
5896 1248 PD
24 W
5867 782 PD
24 W
5828 864 PD
24 W
5693 905 PD
24 W
5740 1185 PD
24 W
5781 985 PD
24 W
5719 1230 PD
24 W
5737 1093 PD
24 W
5818 893 PD
24 W
5618 1365 PD
24 W
5615 1179 PD
24 W
5685 1088 PD
24 W
5834 1113 PD
24 W
5662 878 PD
24 W
5575 875 PD
24 W
5715 1197 PD
24 W
5847 1060 PD
24 W
5409 1217 PD
24 W
5652 1465 PD
24 W
5867 1141 PD
24 W
5615 1164 PD
24 W
5594 1210 PD
24 W
5645 1211 PD
24 W
5857 1233 PD
24 W
5784 1157 PD
24 W
5709 1147 PD
24 W
5703 903 PD
24 W
5448 1438 PD
24 W
6058 998 PD
24 W
5767 1138 PD
24 W
5934 904 PD
24 W
5765 1346 PD
24 W
5732 1062 PD
24 W
5647 1020 PD
24 W
5613 968 PD
24 W
5514 1186 PD
24 W
5743 1290 PD
24 W
5785 1191 PD
24 W
6076 1047 PD
24 W
5670 1123 PD
24 W
5585 1359 PD
24 W
5906 1030 PD
24 W
5427 1363 PD
24 W
5676 943 PD
24 W
5566 1309 PD
24 W
5405 1343 PD
24 W
5453 1432 PD
24 W
5499 1136 PD
24 W
5630 1360 PD
24 W
5777 940 PD
24 W
5619 1299 PD
24 W
5652 1374 PD
24 W
5870 1106 PD
24 W
6034 1132 PD
24 W
5641 666 PD
24 W
5674 1234 PD
24 W
5561 1301 PD
24 W
5620 1191 PD
24 W
5488 1305 PD
24 W
5545 1395 PD
24 W
5884 989 PD
24 W
5775 808 PD
24 W
5693 1058 PD
24 W
5719 984 PD
24 W
5763 1198 PD
24 W
5773 1025 PD
24 W
5573 1206 PD
24 W
5949 1209 PD
24 W
5782 876 PD
24 W
5801 1384 PD
24 W
5545 1418 PD
24 W
5883 1373 PD
24 W
5424 1097 PD
24 W
5456 1316 PD
24 W
5855 1200 PD
24 W
5592 1286 PD
24 W
5945 1162 PD
24 W
5512 1409 PD
24 W
5639 1244 PD
24 W
5582 1365 PD
24 W
5520 1390 PD
24 W
5542 966 PD
24 W
5677 1321 PD
24 W
5504 1308 PD
24 W
5519 1346 PD
24 W
5630 1172 PD
24 W
5533 1406 PD
24 W
6037 739 PD
24 W
5583 1275 PD
24 W
5709 757 PD
24 W
5540 1232 PD
24 W
5594 1179 PD
24 W
5789 1219 PD
24 W
5608 1216 PD
24 W
5627 1285 PD
24 W
5624 1078 PD
24 W
5594 1417 PD
24 W
5790 970 PD
24 W
5822 1237 PD
24 W
5717 869 PD
24 W
5483 1352 PD
24 W
5747 1273 PD
24 W
5691 1188 PD
24 W
5481 1400 PD
24 W
5588 1424 PD
24 W
5774 1008 PD
24 W
5492 1124 PD
24 W
5679 1067 PD
24 W
5460 1508 PD
24 W
5793 987 PD
24 W
5545 1262 PD
24 W
5910 1012 PD
24 W
5550 1138 PD
24 W
5645 1194 PD
24 W
5627 1329 PD
24 W
5678 1229 PD
24 W
6050 1331 PD
24 W
5676 893 PD
24 W
5576 1196 PD
24 W
5489 1184 PD
24 W
5720 1090 PD
24 W
5830 943 PD
24 W
5902 1088 PD
24 W
5551 1238 PD
24 W
5954 895 PD
24 W
5859 1203 PD
24 W
5674 1370 PD
24 W
5578 1017 PD
24 W
5930 1052 PD
24 W
5619 1200 PD
24 W
5566 1391 PD
24 W
5640 1170 PD
24 W
5756 1342 PD
24 W
5939 736 PD
24 W
5750 1168 PD
24 W
5944 775 PD
24 W
5966 1090 PD
24 W
5772 983 PD
24 W
5683 1247 PD
24 W
5716 873 PD
24 W
5618 1138 PD
24 W
5797 1035 PD
24 W
5618 998 PD
24 W
5861 879 PD
24 W
5617 1303 PD
24 W
5640 1205 PD
24 W
5738 1221 PD
24 W
5718 1231 PD
24 W
5639 1130 PD
24 W
5810 1337 PD
24 W
5673 1272 PD
24 W
5785 1414 PD
24 W
5918 1378 PD
24 W
5704 1182 PD
24 W
5583 1326 PD
24 W
6034 1016 PD
24 W
5761 1152 PD
24 W
5756 1247 PD
24 W
5544 1387 PD
24 W
5411 1404 PD
24 W
5572 1288 PD
24 W
5606 1345 PD
24 W
5816 975 PD
24 W
5546 1255 PD
24 W
5794 1494 PD
24 W
5899 1239 PD
24 W
5817 1361 PD
24 W
6123 1273 PD
24 W
5748 1133 PD
24 W
5672 1379 PD
24 W
6090 1025 PD
24 W
6064 1248 PD
24 W
5954 1265 PD
24 W
5903 1430 PD
24 W
6005 1069 PD
24 W
6261 1319 PD
24 W
6223 726 PD
24 W
5655 1436 PD
24 W
6194 789 PD
24 W
5707 1206 PD
24 W
5922 1066 PD
24 W
6245 944 PD
24 W
5647 1272 PD
24 W
5532 1331 PD
24 W
5729 1127 PD
24 W
5663 1195 PD
24 W
5721 1075 PD
gs 5405 439 857 1070 rc
c9
857 -686 5405 1373 2 MP stroke
gr
gr

c9
1 sg
0 1069 856 0 0 -1069 899 3062 4 MP
PP
-856 0 0 1069 856 0 0 -1069 899 3062 5 MP stroke
4 w
DO
SO
6 w
0 sg
 899 3062 mt 1755 3062 L
 899 3062 mt  899 1993 L
1042 3062 mt 1042 3051 L
1204 3062 mt 1204 3051 L
1367 3062 mt 1367 3051 L
1529 3062 mt 1529 3051 L
1691 3062 mt 1691 3051 L
 899 2761 mt  909 2761 L
 899 2443 mt  909 2443 L
 899 2126 mt  909 2126 L
 986 1898 mt 
(P1:6 P1:6\(F\)) s
gs 899 1993 857 1070 rc
gr

gs 826 1920 1003 1216 rc
24 W
c8
1331 2620 PD
24 W
1137 2911 PD
24 W
1112 2838 PD
24 W
920 2941 PD
24 W
920 2981 PD
24 W
1240 2835 PD
24 W
934 2905 PD
24 W
1027 2779 PD
24 W
1107 2707 PD
24 W
1118 2930 PD
24 W
1010 2947 PD
24 W
1091 2687 PD
24 W
1295 2743 PD
24 W
1233 2898 PD
24 W
1331 2740 PD
24 W
1128 2572 PD
24 W
1043 2697 PD
24 W
1150 2881 PD
24 W
1077 2902 PD
24 W
1141 3029 PD
24 W
948 3055 PD
24 W
990 3049 PD
24 W
925 2836 PD
24 W
1156 2969 PD
24 W
1239 2765 PD
24 W
987 3045 PD
24 W
959 2940 PD
24 W
1345 2880 PD
24 W
1094 2927 PD
24 W
1097 2895 PD
24 W
1043 2848 PD
24 W
969 2789 PD
24 W
1141 2848 PD
24 W
899 2871 PD
24 W
1093 2957 PD
24 W
1004 3042 PD
24 W
945 2728 PD
24 W
939 2813 PD
24 W
1082 2944 PD
24 W
1148 2737 PD
24 W
1175 2663 PD
24 W
1319 2637 PD
24 W
1164 2596 PD
24 W
917 3013 PD
24 W
1445 2492 PD
24 W
1011 2578 PD
24 W
918 3034 PD
24 W
948 3017 PD
24 W
1094 2768 PD
24 W
1158 2976 PD
24 W
1155 2794 PD
24 W
1163 2894 PD
24 W
981 2859 PD
24 W
1186 2736 PD
24 W
916 3047 PD
24 W
1156 2990 PD
24 W
928 2574 PD
24 W
1241 2849 PD
24 W
1187 2479 PD
24 W
1115 2936 PD
24 W
1062 2830 PD
24 W
1001 2987 PD
24 W
1155 2729 PD
24 W
1121 2705 PD
24 W
1419 3000 PD
24 W
1315 2916 PD
24 W
1583 2719 PD
24 W
1204 3060 PD
24 W
1213 2876 PD
24 W
1425 2796 PD
24 W
962 1993 PD
24 W
1225 2816 PD
24 W
1047 2878 PD
24 W
921 3022 PD
24 W
971 2988 PD
24 W
1248 3025 PD
24 W
1375 2410 PD
24 W
1058 2715 PD
24 W
950 3008 PD
24 W
1019 2776 PD
24 W
1358 3039 PD
24 W
919 2905 PD
24 W
1459 2412 PD
24 W
913 3062 PD
24 W
1017 2864 PD
24 W
1059 2951 PD
24 W
1285 2810 PD
24 W
1295 2827 PD
24 W
944 2948 PD
24 W
1134 2841 PD
24 W
1085 2830 PD
24 W
1383 2630 PD
24 W
992 2899 PD
24 W
1142 3036 PD
24 W
1065 2837 PD
24 W
1210 2998 PD
24 W
1041 2907 PD
24 W
1221 2936 PD
24 W
971 3052 PD
24 W
1175 2642 PD
24 W
1387 2778 PD
24 W
1102 3042 PD
24 W
1115 2862 PD
24 W
1112 2783 PD
24 W
1018 3051 PD
24 W
997 2806 PD
24 W
1238 2387 PD
24 W
1011 2834 PD
24 W
922 2728 PD
24 W
1029 2914 PD
24 W
1214 2526 PD
24 W
957 3053 PD
24 W
1180 2864 PD
24 W
929 3056 PD
24 W
970 3018 PD
24 W
1062 2964 PD
24 W
1031 3005 PD
24 W
1351 2998 PD
24 W
1015 2735 PD
24 W
1049 2713 PD
24 W
1056 2759 PD
24 W
1018 2787 PD
24 W
1191 2799 PD
24 W
1002 2965 PD
24 W
1062 2798 PD
24 W
1538 2904 PD
24 W
1209 2785 PD
24 W
1262 2951 PD
24 W
1151 2586 PD
24 W
1007 3002 PD
24 W
1313 2687 PD
24 W
951 3011 PD
24 W
1039 3033 PD
24 W
1075 2875 PD
24 W
957 2856 PD
24 W
1159 2698 PD
24 W
1096 3035 PD
24 W
1129 2785 PD
24 W
1037 2890 PD
24 W
1036 3047 PD
24 W
1097 2847 PD
24 W
1402 2725 PD
24 W
991 2953 PD
24 W
945 2984 PD
24 W
1130 3034 PD
24 W
1063 2906 PD
24 W
1072 2696 PD
24 W
1272 2820 PD
24 W
1107 2784 PD
24 W
968 2934 PD
24 W
1035 2959 PD
24 W
934 3033 PD
24 W
981 2791 PD
24 W
922 2833 PD
24 W
1135 3052 PD
24 W
1037 2847 PD
24 W
1105 2969 PD
24 W
1027 3057 PD
24 W
998 3002 PD
24 W
963 3025 PD
24 W
1059 2847 PD
24 W
973 2823 PD
24 W
1118 2788 PD
24 W
936 3044 PD
24 W
925 3021 PD
24 W
1017 2870 PD
24 W
1049 2432 PD
24 W
1096 2926 PD
24 W
1085 2707 PD
24 W
1168 2679 PD
24 W
1139 2814 PD
24 W
1116 2766 PD
24 W
1068 2739 PD
24 W
915 3011 PD
24 W
954 2720 PD
24 W
1398 2898 PD
24 W
1147 2992 PD
24 W
1071 2954 PD
24 W
1168 3032 PD
24 W
989 2982 PD
24 W
1062 2951 PD
24 W
919 3004 PD
24 W
957 2485 PD
24 W
1755 2482 PD
24 W
972 2992 PD
24 W
924 2374 PD
24 W
1158 2972 PD
24 W
1115 2883 PD
24 W
916 2937 PD
24 W
916 3031 PD
24 W
955 2983 PD
24 W
1085 2848 PD
24 W
1232 2795 PD
24 W
1125 2995 PD
24 W
1127 2856 PD
24 W
1064 2997 PD
24 W
1063 2778 PD
24 W
1155 2814 PD
24 W
1231 2897 PD
24 W
1100 2833 PD
gs 899 1993 857 1070 rc
c9
857 -840 899 3061 2 MP stroke
gr
gr

c9
1 sg
0 1069 856 0 0 -1069 2026 3062 4 MP
PP
-856 0 0 1069 856 0 0 -1069 2026 3062 5 MP stroke
4 w
DO
SO
6 w
0 sg
2026 3062 mt 2882 3062 L
2026 3062 mt 2026 1993 L
2421 3062 mt 2421 3051 L
2869 3062 mt 2869 3051 L
2026 2917 mt 2036 2917 L
2026 2731 mt 2036 2731 L
2026 2545 mt 2036 2545 L
2026 2360 mt 2036 2360 L
2026 2174 mt 2036 2174 L
2113 1898 mt 
(P1:7 P1:7\(F\)) s
gs 2026 1993 857 1070 rc
gr

gs 1953 1920 1003 1216 rc
24 W
c8
2405 2492 PD
24 W
2276 2792 PD
24 W
2286 2773 PD
24 W
2091 2860 PD
24 W
2104 2918 PD
24 W
2335 2755 PD
24 W
2125 2752 PD
24 W
2239 2669 PD
24 W
2251 2675 PD
24 W
2352 2820 PD
24 W
2223 2865 PD
24 W
2300 2577 PD
24 W
2421 2646 PD
24 W
2382 2832 PD
24 W
2416 2674 PD
24 W
2405 2413 PD
24 W
2273 2605 PD
24 W
2306 2772 PD
24 W
2260 2790 PD
24 W
2309 2940 PD
24 W
2112 3017 PD
24 W
2200 3000 PD
24 W
2110 2677 PD
24 W
2362 2888 PD
24 W
2378 2640 PD
24 W
2176 2993 PD
24 W
2160 2853 PD
24 W
2455 2707 PD
24 W
2275 2847 PD
24 W
2258 2802 PD
24 W
2246 2767 PD
24 W
2172 2673 PD
24 W
2365 2762 PD
24 W
2026 2778 PD
24 W
2325 2862 PD
24 W
2225 2963 PD
24 W
2146 2590 PD
24 W
2124 2753 PD
24 W
2310 2854 PD
24 W
2312 2574 PD
24 W
2355 2503 PD
24 W
2533 2499 PD
24 W
2296 2460 PD
24 W
2081 2926 PD
24 W
2882 2264 PD
24 W
2222 2465 PD
24 W
2095 2953 PD
24 W
2152 2940 PD
24 W
2283 2706 PD
24 W
2324 2885 PD
24 W
2380 2698 PD
24 W
2352 2811 PD
24 W
2192 2818 PD
24 W
2365 2602 PD
24 W
2076 2991 PD
24 W
2303 2869 PD
24 W
2108 2502 PD
24 W
2484 2728 PD
24 W
2416 2344 PD
24 W
2267 2830 PD
24 W
2246 2717 PD
24 W
2199 2882 PD
24 W
2344 2591 PD
24 W
2529 2407 PD
24 W
2424 2890 PD
24 W
2480 2838 PD
24 W
2583 2608 PD
24 W
2367 3049 PD
24 W
2361 2817 PD
24 W
2456 2722 PD
24 W
2180 1993 PD
24 W
2364 2764 PD
24 W
2234 2741 PD
24 W
2098 2944 PD
24 W
2189 2877 PD
24 W
2410 2950 PD
24 W
2583 2265 PD
24 W
2264 2576 PD
24 W
2149 2921 PD
24 W
2215 2680 PD
24 W
2567 2956 PD
24 W
2090 2755 PD
24 W
2496 2426 PD
24 W
2078 3062 PD
24 W
2215 2771 PD
24 W
2248 2873 PD
24 W
2403 2694 PD
24 W
2406 2607 PD
24 W
2145 2870 PD
24 W
2373 2737 PD
24 W
2258 2679 PD
24 W
2659 2591 PD
24 W
2188 2815 PD
24 W
2291 2968 PD
24 W
2263 2748 PD
24 W
2325 2916 PD
24 W
2238 2860 PD
24 W
2360 2880 PD
24 W
2180 3011 PD
24 W
2333 2597 PD
24 W
2524 2717 PD
24 W
2288 2961 PD
24 W
2317 2764 PD
24 W
2335 2664 PD
24 W
2192 3004 PD
24 W
2187 2643 PD
24 W
2367 2412 PD
24 W
2206 2700 PD
24 W
2108 2591 PD
24 W
2206 2820 PD
24 W
2424 2426 PD
24 W
2149 3007 PD
24 W
2364 2790 PD
24 W
2115 3031 PD
24 W
2178 2940 PD
24 W
2265 2870 PD
24 W
2300 2881 PD
24 W
2418 2890 PD
24 W
2232 2655 PD
24 W
2230 2600 PD
24 W
2260 2680 PD
24 W
2263 2747 PD
24 W
2347 2734 PD
24 W
2215 2865 PD
24 W
2301 2738 PD
24 W
2526 2809 PD
24 W
2363 2673 PD
24 W
2396 2788 PD
24 W
2359 2402 PD
24 W
2195 2926 PD
24 W
2589 2468 PD
24 W
2160 2926 PD
24 W
2242 2947 PD
24 W
2268 2808 PD
24 W
2166 2796 PD
24 W
2409 2617 PD
24 W
2259 2964 PD
24 W
2284 2684 PD
24 W
2257 2817 PD
24 W
2305 2982 PD
24 W
2285 2735 PD
24 W
2535 2468 PD
24 W
2203 2810 PD
24 W
2145 2907 PD
24 W
2353 2943 PD
24 W
2225 2831 PD
24 W
2248 2653 PD
24 W
2382 2817 PD
24 W
2297 2678 PD
24 W
2164 2824 PD
24 W
2258 2862 PD
24 W
2113 2960 PD
24 W
2182 2738 PD
24 W
2099 2776 PD
24 W
2367 3007 PD
24 W
2237 2725 PD
24 W
2240 2899 PD
24 W
2197 3024 PD
24 W
2207 2928 PD
24 W
2173 2956 PD
24 W
2237 2753 PD
24 W
2189 2720 PD
24 W
2351 2643 PD
24 W
2148 2960 PD
24 W
2106 2957 PD
24 W
2233 2765 PD
24 W
2237 2365 PD
24 W
2285 2825 PD
24 W
2251 2594 PD
24 W
2410 2591 PD
24 W
2289 2723 PD
24 W
2313 2683 PD
24 W
2226 2590 PD
24 W
2080 2937 PD
24 W
2152 2637 PD
24 W
2478 2813 PD
24 W
2323 2926 PD
24 W
2290 2891 PD
24 W
2385 2959 PD
24 W
2176 2903 PD
24 W
2232 2861 PD
24 W
2095 2930 PD
24 W
2159 2468 PD
24 W
2547 2607 PD
24 W
2187 2921 PD
24 W
2108 2348 PD
24 W
2324 2871 PD
24 W
2317 2720 PD
24 W
2097 2820 PD
24 W
2085 2948 PD
24 W
2145 2901 PD
24 W
2267 2768 PD
24 W
2426 2666 PD
24 W
2286 2898 PD
24 W
2293 2704 PD
24 W
2323 2883 PD
24 W
2273 2726 PD
24 W
2345 2697 PD
24 W
2406 2803 PD
24 W
2273 2675 PD
gs 2026 1993 857 1070 rc
c9
857 -889 2026 3049 2 MP stroke
gr
gr

c9
1 sg
0 1070 856 0 0 -1070 3152 3062 4 MP
PP
-856 0 0 1070 856 0 0 -1070 3152 3062 5 MP stroke
4 w
DO
SO
6 w
0 sg
3152 3062 mt 4008 3062 L
3152 3062 mt 3152 1992 L
3403 3062 mt 3403 3051 L
3666 3062 mt 3666 3051 L
3928 3062 mt 3928 3051 L
3152 3054 mt 3162 3054 L
3152 2678 mt 3162 2678 L
3152 2303 mt 3162 2303 L
3239 1898 mt 
(P1:8 P1:8\(F\)) s
gs 3152 1993 857 1070 rc
gr

gs 3079 1920 1003 1216 rc
24 W
c8
3537 2325 PD
24 W
3372 2499 PD
24 W
3413 2693 PD
24 W
3436 2943 PD
24 W
3229 2676 PD
24 W
3410 2653 PD
24 W
3266 2959 PD
24 W
3298 3010 PD
24 W
3268 2655 PD
24 W
3152 3004 PD
24 W
3324 2966 PD
24 W
3394 2544 PD
24 W
3619 2698 PD
24 W
3332 2574 PD
24 W
3445 2707 PD
24 W
3301 2797 PD
24 W
3351 2577 PD
24 W
3354 2734 PD
24 W
3408 2405 PD
24 W
3172 3019 PD
24 W
3370 2962 PD
24 W
3203 3012 PD
24 W
3206 2474 PD
24 W
3414 2253 PD
24 W
3472 2616 PD
24 W
3237 2974 PD
24 W
3358 2821 PD
24 W
3763 2938 PD
24 W
3310 2601 PD
24 W
3313 2946 PD
24 W
3231 2917 PD
24 W
3320 2953 PD
24 W
3293 2240 PD
24 W
3201 2927 PD
24 W
3439 2930 PD
24 W
3224 3062 PD
24 W
3208 2464 PD
24 W
3255 2783 PD
24 W
3441 2963 PD
24 W
3249 2824 PD
24 W
3723 2627 PD
24 W
3556 2346 PD
24 W
3553 2470 PD
24 W
3231 2727 PD
24 W
3669 2959 PD
24 W
3450 2600 PD
24 W
3230 2949 PD
24 W
3224 2785 PD
24 W
3379 2844 PD
24 W
3450 2956 PD
24 W
3395 2670 PD
24 W
3310 2968 PD
24 W
3208 2749 PD
24 W
3357 2597 PD
24 W
3242 3006 PD
24 W
3375 2752 PD
24 W
3365 2298 PD
24 W
4008 2992 PD
24 W
3260 2626 PD
24 W
3515 2559 PD
24 W
3302 2737 PD
24 W
3270 2735 PD
24 W
3447 2923 PD
24 W
3342 2876 PD
24 W
3226 3034 PD
24 W
3539 2395 PD
24 W
3389 2990 PD
24 W
3304 3016 PD
24 W
3356 2833 PD
24 W
3298 2854 PD
24 W
3408 2092 PD
24 W
3443 2700 PD
24 W
3339 2546 PD
24 W
3204 2871 PD
24 W
3265 2936 PD
24 W
3262 2556 PD
24 W
3379 2348 PD
24 W
3452 2925 PD
24 W
3602 2698 PD
24 W
3235 2581 PD
24 W
3256 2999 PD
24 W
3210 2925 PD
24 W
3303 2666 PD
24 W
3162 3029 PD
24 W
3257 2875 PD
24 W
3269 2589 PD
24 W
3364 2657 PD
24 W
3536 2605 PD
24 W
3170 2997 PD
24 W
3418 2745 PD
24 W
3246 2993 PD
24 W
3596 2580 PD
24 W
3329 2393 PD
24 W
3367 2974 PD
24 W
3287 2717 PD
24 W
3494 2669 PD
24 W
3331 2760 PD
24 W
3300 2969 PD
24 W
3227 2637 PD
24 W
3427 2655 PD
24 W
3396 2471 PD
24 W
3525 3009 PD
24 W
3378 2111 PD
24 W
3241 2738 PD
24 W
3294 2841 PD
24 W
3420 2473 PD
24 W
3390 2577 PD
24 W
3470 2616 PD
24 W
3201 2862 PD
24 W
3425 2559 PD
24 W
3691 2754 PD
24 W
3359 2657 PD
24 W
3286 2621 PD
24 W
3194 2935 PD
24 W
3292 2661 PD
24 W
3395 2766 PD
24 W
3492 2772 PD
24 W
3510 2830 PD
24 W
3339 2819 PD
24 W
3246 2777 PD
24 W
3370 2582 PD
24 W
3219 2804 PD
24 W
3373 2776 PD
gs 3152 1993 857 1070 rc
gr

24 W
3228 2283 PD
24 W
3821 2560 PD
24 W
3215 2966 PD
24 W
3309 2765 PD
24 W
3429 2524 PD
24 W
3276 2961 PD
24 W
3530 2265 PD
24 W
3211 3006 PD
24 W
3653 2967 PD
24 W
3319 2779 PD
24 W
3331 2621 PD
24 W
3392 2636 PD
24 W
3210 2773 PD
24 W
3539 2659 PD
24 W
3242 2437 PD
24 W
3399 3006 PD
24 W
3218 2935 PD
24 W
3453 2245 PD
24 W
3418 2378 PD
24 W
3169 2981 PD
24 W
3344 2979 PD
24 W
3397 2911 PD
24 W
3197 2886 PD
24 W
3302 2852 PD
24 W
3202 2972 PD
24 W
3212 2943 PD
24 W
3310 2862 PD
24 W
3238 2956 PD
24 W
3281 2821 PD
24 W
3223 2277 PD
24 W
3212 2958 PD
24 W
3329 2524 PD
24 W
3367 2669 PD
24 W
3190 3008 PD
24 W
3443 2781 PD
24 W
3269 2826 PD
24 W
3451 2688 PD
24 W
3287 2681 PD
24 W
3284 2950 PD
24 W
3206 3020 PD
24 W
3203 2906 PD
24 W
3195 2931 PD
24 W
3235 2790 PD
24 W
3828 2834 PD
24 W
3475 2321 PD
24 W
3473 2569 PD
24 W
3375 2968 PD
24 W
3266 2445 PD
24 W
3471 2697 PD
24 W
3277 2577 PD
24 W
3249 2740 PD
24 W
3566 2933 PD
24 W
3408 2795 PD
24 W
3235 2623 PD
24 W
3239 2988 PD
24 W
3432 2728 PD
24 W
3346 2485 PD
24 W
3187 2927 PD
24 W
3355 2301 PD
24 W
3243 2402 PD
24 W
3171 2808 PD
24 W
3325 2520 PD
24 W
3506 2775 PD
24 W
3177 2917 PD
24 W
3194 2829 PD
24 W
3377 2606 PD
24 W
3190 3003 PD
24 W
3249 2719 PD
24 W
3553 2543 PD
24 W
3546 2763 PD
24 W
3336 2654 PD
24 W
3546 2559 PD
24 W
3328 2805 PD
24 W
3238 2605 PD
24 W
3288 2537 PD
24 W
3399 2702 PD
gs 3152 1993 857 1070 rc
c9
731 -1045 3152 3038 2 MP stroke
gr
gr

c9
1 sg
0 1069 856 0 0 -1069 4278 3062 4 MP
PP
-856 0 0 1069 856 0 0 -1069 4278 3062 5 MP stroke
4 w
DO
SO
6 w
0 sg
4278 3062 mt 5134 3062 L
4278 3062 mt 4278 1993 L
4549 3062 mt 4549 3051 L
4901 3062 mt 4901 3051 L
4278 2898 mt 4288 2898 L
4278 2711 mt 4288 2711 L
4278 2525 mt 4288 2525 L
4278 2338 mt 4288 2338 L
4278 2152 mt 4288 2152 L
4365 1898 mt 
(P1:9 P1:9\(F\)) s
gs 4278 1993 857 1070 rc
gr

gs 4205 1920 1003 1216 rc
24 W
c8
4748 2258 PD
24 W
4636 2401 PD
24 W
4696 2590 PD
24 W
4764 2767 PD
24 W
4517 2602 PD
24 W
4684 2562 PD
24 W
4520 2802 PD
24 W
4546 2953 PD
24 W
4540 2534 PD
24 W
4278 2953 PD
24 W
4595 2848 PD
24 W
4661 2400 PD
24 W
4848 2604 PD
24 W
4617 2366 PD
24 W
4713 2609 PD
24 W
4607 2678 PD
24 W
4648 2509 PD
24 W
4565 2654 PD
24 W
4691 2178 PD
24 W
4337 2958 PD
24 W
4574 2867 PD
24 W
4444 3026 PD
24 W
4427 2353 PD
24 W
4698 2205 PD
24 W
4906 2409 PD
24 W
4468 2852 PD
24 W
4651 2692 PD
24 W
5106 2775 PD
24 W
4598 2553 PD
24 W
4594 2821 PD
24 W
4462 2779 PD
24 W
4627 2787 PD
24 W
4595 2044 PD
24 W
4428 2801 PD
24 W
4671 2780 PD
24 W
4495 3062 PD
24 W
4419 2309 PD
24 W
4551 2709 PD
24 W
4728 2809 PD
24 W
4498 2711 PD
24 W
5036 2445 PD
24 W
4960 2239 PD
24 W
4850 2322 PD
24 W
4484 2622 PD
24 W
4963 2800 PD
24 W
4841 2372 PD
24 W
4479 2810 PD
24 W
4474 2641 PD
24 W
4641 2735 PD
24 W
4762 2836 PD
24 W
4679 2617 PD
24 W
4589 2847 PD
24 W
4447 2674 PD
24 W
4610 2477 PD
24 W
4504 2950 PD
24 W
4682 2597 PD
24 W
4706 2277 PD
24 W
5106 2883 PD
24 W
4524 2564 PD
24 W
4936 2444 PD
24 W
4544 2669 PD
24 W
4495 2617 PD
24 W
4626 2797 PD
24 W
4642 2745 PD
24 W
4480 3007 PD
24 W
4832 2460 PD
24 W
4704 2893 PD
24 W
4607 3006 PD
24 W
4672 2682 PD
24 W
4581 2699 PD
24 W
4657 2288 PD
24 W
4801 2573 PD
24 W
4594 2468 PD
24 W
4426 2683 PD
24 W
4534 2771 PD
24 W
4526 2499 PD
24 W
4638 2383 PD
24 W
4734 2766 PD
24 W
4974 2514 PD
24 W
4480 2577 PD
24 W
4561 2930 PD
24 W
4435 2786 PD
24 W
4591 2486 PD
24 W
4302 2971 PD
24 W
4523 2751 PD
24 W
4524 2503 PD
24 W
4659 2491 PD
24 W
4882 2545 PD
24 W
4335 2913 PD
24 W
4628 2636 PD
24 W
4476 2883 PD
24 W
4927 2470 PD
24 W
4618 2256 PD
24 W
4647 2869 PD
24 W
4543 2660 PD
24 W
4881 2384 PD
24 W
4578 2637 PD
24 W
4585 2849 PD
24 W
4473 2497 PD
24 W
4760 2525 PD
24 W
4741 2178 PD
24 W
4906 2955 PD
24 W
4772 1993 PD
24 W
4454 2601 PD
24 W
4524 2735 PD
24 W
4780 2278 PD
24 W
4611 2462 PD
24 W
4842 2444 PD
24 W
4417 2760 PD
24 W
4628 2541 PD
24 W
5002 2559 PD
24 W
4650 2489 PD
24 W
4535 2527 PD
24 W
4410 2800 PD
24 W
4569 2560 PD
24 W
4704 2643 PD
24 W
4865 2616 PD
24 W
4899 2640 PD
24 W
4628 2686 PD
24 W
4492 2607 PD
24 W
4616 2461 PD
24 W
4507 2725 PD
24 W
4723 2634 PD
24 W
4815 2041 PD
24 W
4497 2316 PD
24 W
5069 2436 PD
24 W
4427 2850 PD
24 W
4575 2676 PD
24 W
4795 2457 PD
24 W
4517 2864 PD
24 W
5018 2195 PD
24 W
4458 2941 PD
24 W
5025 2819 PD
24 W
4637 2645 PD
24 W
4630 2564 PD
24 W
4715 2500 PD
24 W
4436 2648 PD
24 W
4842 2502 PD
24 W
4504 2489 PD
24 W
4766 2911 PD
24 W
4458 2820 PD
24 W
4742 2176 PD
24 W
4677 2286 PD
24 W
4320 2889 PD
24 W
4592 2858 PD
24 W
4827 2801 PD
24 W
4403 2775 PD
24 W
4544 2760 PD
24 W
4427 2855 PD
24 W
4443 2836 PD
24 W
4668 2734 PD
24 W
4478 2817 PD
24 W
4617 2589 PD
24 W
4468 2084 PD
24 W
4461 2821 PD
24 W
4657 2509 PD
24 W
4632 2527 PD
24 W
4384 2910 PD
24 W
4813 2666 PD
24 W
4528 2743 PD
24 W
4706 2564 PD
24 W
4529 2602 PD
24 W
4556 2777 PD
24 W
4424 3001 PD
24 W
4411 2776 PD
24 W
4392 2759 PD
24 W
4463 2675 PD
24 W
5134 2694 PD
24 W
4727 2245 PD
24 W
4760 2538 PD
24 W
4680 2832 PD
24 W
4500 2433 PD
24 W
4734 2656 PD
24 W
4566 2527 PD
24 W
4475 2562 PD
24 W
4907 2790 PD
24 W
4706 2622 PD
24 W
4456 2568 PD
24 W
4458 2881 PD
24 W
4679 2637 PD
24 W
4618 2445 PD
24 W
4401 2807 PD
24 W
4602 2299 PD
24 W
4479 2422 PD
24 W
4318 2656 PD
24 W
4566 2456 PD
24 W
4821 2684 PD
24 W
4340 2784 PD
24 W
4415 2715 PD
24 W
4660 2527 PD
24 W
4337 2932 PD
24 W
4487 2595 PD
24 W
4945 2444 PD
24 W
5001 2649 PD
24 W
4603 2560 PD
24 W
4874 2393 PD
24 W
4660 2645 PD
24 W
4501 2519 PD
24 W
4598 2386 PD
24 W
4797 2562 PD
gs 4278 1993 857 1070 rc
c9
857 -908 4278 2999 2 MP stroke
gr
gr

c9
1 sg
0 1069 856 0 0 -1069 5405 3062 4 MP
PP
-856 0 0 1069 856 0 0 -1069 5405 3062 5 MP stroke
4 w
DO
SO
6 w
0 sg
5405 3062 mt 6261 3062 L
5405 3062 mt 5405 1993 L
5535 3062 mt 5535 3051 L
5684 3062 mt 5684 3051 L
5834 3062 mt 5834 3051 L
5983 3062 mt 5983 3051 L
6132 3062 mt 6132 3051 L
5405 2961 mt 5415 2961 L
5405 2765 mt 5415 2765 L
5405 2569 mt 5415 2569 L
5405 2373 mt 5415 2373 L
5405 2177 mt 5415 2177 L
5492 1898 mt 
(P2:1 P2:1\(F\)) s
gs 5405 1993 857 1070 rc
gr

gs 5332 1920 1003 1216 rc
24 W
c8
5760 2929 PD
24 W
5629 2364 PD
24 W
5516 2775 PD
24 W
5759 2893 PD
24 W
5727 2698 PD
24 W
5682 2625 PD
24 W
5932 2884 PD
24 W
5810 2785 PD
24 W
5583 2716 PD
24 W
5808 2278 PD
24 W
5616 2891 PD
24 W
5729 2534 PD
24 W
6052 2335 PD
24 W
5635 2836 PD
24 W
5992 2602 PD
24 W
5654 2544 PD
24 W
5672 2298 PD
24 W
5998 2684 PD
24 W
5828 2729 PD
24 W
5635 2975 PD
24 W
5787 2485 PD
24 W
5851 3029 PD
24 W
5792 2875 PD
24 W
5738 2801 PD
24 W
5572 2721 PD
24 W
5493 2995 PD
24 W
5666 2508 PD
24 W
5879 2689 PD
24 W
5880 2889 PD
24 W
5552 2972 PD
24 W
5583 2761 PD
24 W
5865 2427 PD
24 W
5695 2929 PD
24 W
5405 2281 PD
24 W
5620 2988 PD
24 W
5763 2892 PD
24 W
5740 2679 PD
24 W
5596 2979 PD
24 W
6051 2734 PD
24 W
5666 2635 PD
24 W
5475 2802 PD
24 W
5652 2778 PD
24 W
5853 2825 PD
24 W
5577 2797 PD
24 W
5775 2709 PD
24 W
6042 2842 PD
24 W
5548 2651 PD
24 W
5652 2795 PD
24 W
5523 2732 PD
24 W
5690 2745 PD
24 W
5780 2402 PD
24 W
5738 2538 PD
24 W
5613 2745 PD
24 W
5685 2585 PD
24 W
5657 2717 PD
24 W
5549 2722 PD
24 W
5549 2815 PD
24 W
5589 2642 PD
24 W
5582 2892 PD
24 W
5976 2309 PD
24 W
5915 2288 PD
24 W
5583 2568 PD
24 W
5894 2698 PD
24 W
5692 2882 PD
24 W
5625 2684 PD
24 W
5613 2726 PD
24 W
6101 2805 PD
24 W
6103 2334 PD
24 W
5642 2801 PD
24 W
5533 2952 PD
24 W
5650 2747 PD
24 W
5714 2935 PD
24 W
5874 2650 PD
24 W
5771 2330 PD
24 W
5580 2918 PD
24 W
5628 2949 PD
24 W
5841 2367 PD
24 W
5775 2199 PD
24 W
5882 2905 PD
24 W
5648 2517 PD
24 W
5715 2925 PD
24 W
5701 2463 PD
24 W
5856 2151 PD
24 W
5623 2879 PD
24 W
5593 2845 PD
24 W
5830 2939 PD
24 W
6048 2843 PD
24 W
5657 2786 PD
24 W
5576 3040 PD
24 W
5589 2870 PD
24 W
5686 3008 PD
24 W
6261 2522 PD
24 W
5622 2666 PD
24 W
5616 2939 PD
24 W
5588 2767 PD
24 W
5730 2573 PD
24 W
5694 2739 PD
24 W
6137 2878 PD
24 W
5784 2976 PD
24 W
5697 2612 PD
24 W
5708 2359 PD
24 W
5599 2994 PD
24 W
5699 2817 PD
24 W
5687 2824 PD
24 W
5612 2749 PD
24 W
5832 2789 PD
24 W
5744 2615 PD
24 W
5606 2727 PD
24 W
5596 2747 PD
24 W
5972 2826 PD
24 W
5671 2504 PD
24 W
5631 2833 PD
24 W
5599 2668 PD
24 W
5522 2746 PD
24 W
5610 2557 PD
24 W
5647 2850 PD
24 W
5508 2846 PD
24 W
5648 2711 PD
24 W
5552 2738 PD
24 W
5995 2703 PD
24 W
5626 2633 PD
24 W
5535 2982 PD
24 W
5568 2720 PD
24 W
5797 2455 PD
24 W
5586 2611 PD
24 W
5828 2373 PD
24 W
6014 2954 PD
24 W
5790 2550 PD
24 W
5644 2715 PD
24 W
5473 3038 PD
24 W
5642 2902 PD
24 W
5744 3042 PD
24 W
5687 2973 PD
24 W
5813 2984 PD
24 W
5814 2931 PD
24 W
5771 2678 PD
24 W
5707 2913 PD
24 W
5963 1993 PD
24 W
5701 2848 PD
24 W
5643 2707 PD
24 W
5633 2856 PD
24 W
5887 2661 PD
24 W
5695 2616 PD
24 W
5562 2941 PD
24 W
5710 2756 PD
24 W
5592 2989 PD
24 W
5684 2731 PD
24 W
5840 2694 PD
24 W
5886 2096 PD
24 W
5849 2734 PD
24 W
5815 2484 PD
24 W
5543 2498 PD
24 W
5525 2330 PD
24 W
6170 2584 PD
24 W
5585 3062 PD
24 W
5618 2893 PD
24 W
5895 2545 PD
24 W
5494 3030 PD
24 W
5979 2341 PD
24 W
5491 2278 PD
24 W
5967 2667 PD
24 W
5648 2784 PD
24 W
5698 2526 PD
24 W
5550 2930 PD
24 W
5471 2937 PD
24 W
5679 2768 PD
24 W
5922 2906 PD
24 W
5826 2721 PD
24 W
5705 2449 PD
24 W
5631 2545 PD
24 W
5573 2831 PD
24 W
5876 2606 PD
24 W
5678 2585 PD
24 W
5590 2647 PD
24 W
5512 2859 PD
24 W
5640 2906 PD
24 W
5833 2939 PD
24 W
5695 2751 PD
24 W
5610 3005 PD
24 W
5556 2831 PD
24 W
5686 3032 PD
24 W
5650 2713 PD
24 W
5724 2663 PD
24 W
5606 2824 PD
24 W
5888 2721 PD
24 W
5767 2520 PD
24 W
5810 2810 PD
24 W
5571 2907 PD
24 W
5543 2930 PD
24 W
5873 2818 PD
24 W
5476 2989 PD
24 W
6024 2622 PD
24 W
6173 2974 PD
24 W
5584 2932 PD
24 W
6024 2344 PD
24 W
5758 2346 PD
24 W
5655 2973 PD
24 W
5712 2856 PD
24 W
5683 2814 PD
24 W
5892 2523 PD
gs 5405 1993 857 1070 rc
c9
804 -1056 5458 3063 2 MP stroke
gr
gr

c9
1 sg
0 1069 856 0 0 -1069 899 4616 4 MP
PP
-856 0 0 1069 856 0 0 -1069 899 4616 5 MP stroke
4 w
DO
SO
6 w
0 sg
 899 4616 mt 1755 4616 L
 899 4616 mt  899 3547 L
1237 4616 mt 1237 4605 L
1726 4616 mt 1726 4605 L
 899 4558 mt  909 4558 L
 899 4315 mt  909 4315 L
 899 4073 mt  909 4073 L
 899 3830 mt  909 3830 L
 899 3587 mt  909 3587 L
 982 3452 mt 
(P2:2 P2:2\(S\)) s
gs 899 3547 857 1070 rc
gr

gs 826 3474 1003 1216 rc
24 W
c8
1359 4480 PD
24 W
1301 3911 PD
24 W
1002 4289 PD
24 W
992 4473 PD
24 W
1317 4244 PD
24 W
1078 4259 PD
24 W
1117 4514 PD
24 W
918 4254 PD
24 W
1318 4154 PD
24 W
1117 4125 PD
24 W
1372 3979 PD
24 W
1019 4483 PD
24 W
1128 4085 PD
24 W
1392 4166 PD
24 W
1348 4285 PD
24 W
1190 4250 PD
24 W
1149 4156 PD
24 W
1169 4235 PD
24 W
904 4395 PD
24 W
1046 4342 PD
24 W
1138 4322 PD
24 W
1165 4317 PD
24 W
969 4509 PD
24 W
1110 4244 PD
24 W
998 4388 PD
24 W
1147 4269 PD
24 W
1056 4417 PD
24 W
1017 4250 PD
24 W
1059 4437 PD
24 W
1182 4400 PD
24 W
1074 4352 PD
24 W
1207 4356 PD
24 W
1212 4257 PD
24 W
1105 4339 PD
24 W
1096 4466 PD
24 W
1094 4378 PD
24 W
1755 4088 PD
24 W
1142 4397 PD
24 W
1035 4507 PD
24 W
1265 4270 PD
24 W
1049 4436 PD
24 W
1416 4354 PD
24 W
1272 4289 PD
24 W
1264 4367 PD
24 W
1158 4238 PD
24 W
1034 4387 PD
24 W
1115 4296 PD
24 W
1007 4552 PD
24 W
1019 4472 PD
24 W
1022 4500 PD
24 W
1111 4429 PD
24 W
1190 4119 PD
24 W
1093 4306 PD
24 W
1109 4212 PD
24 W
1142 4280 PD
24 W
1064 4524 PD
24 W
954 4373 PD
24 W
1037 4497 PD
24 W
901 4572 PD
24 W
1016 4521 PD
24 W
1219 4435 PD
24 W
1173 4267 PD
24 W
1076 4548 PD
24 W
1239 4208 PD
24 W
1021 4371 PD
24 W
1189 4039 PD
24 W
1440 4150 PD
24 W
1437 4313 PD
24 W
1018 4510 PD
24 W
1080 4432 PD
24 W
1010 4476 PD
24 W
1016 4289 PD
24 W
976 4457 PD
24 W
1206 4470 PD
24 W
1237 4217 PD
24 W
1380 4101 PD
24 W
1304 4220 PD
24 W
1000 4509 PD
24 W
1087 4325 PD
24 W
1108 4550 PD
24 W
1166 4288 PD
24 W
1232 4006 PD
24 W
1034 4443 PD
24 W
1003 4469 PD
24 W
1039 4311 PD
24 W
1054 4568 PD
24 W
985 4560 PD
24 W
1373 3888 PD
24 W
1081 4360 PD
24 W
1149 4310 PD
24 W
988 4480 PD
24 W
953 4517 PD
24 W
925 4493 PD
24 W
1026 4410 PD
24 W
1122 4307 PD
24 W
1160 4437 PD
24 W
1162 4413 PD
24 W
1045 4569 PD
24 W
1156 4358 PD
24 W
977 4562 PD
24 W
1234 3811 PD
24 W
1294 4334 PD
24 W
1430 3547 PD
24 W
1041 4294 PD
24 W
1052 4380 PD
24 W
1087 4275 PD
24 W
970 4468 PD
24 W
1241 4221 PD
24 W
1106 4369 PD
24 W
951 4569 PD
24 W
1092 4373 PD
24 W
1090 4360 PD
24 W
1203 4347 PD
24 W
941 4368 PD
24 W
955 4352 PD
24 W
1287 4166 PD
24 W
1154 4436 PD
24 W
1021 4432 PD
24 W
1144 4292 PD
24 W
899 4425 PD
24 W
1190 4232 PD
24 W
1202 4219 PD
24 W
1150 4356 PD
24 W
1026 4368 PD
24 W
1077 4411 PD
24 W
1081 4310 PD
24 W
1021 4518 PD
24 W
1040 4431 PD
24 W
993 4508 PD
24 W
1033 4548 PD
24 W
980 4608 PD
24 W
1261 4263 PD
24 W
1037 4425 PD
24 W
1271 4292 PD
24 W
1084 4519 PD
24 W
1206 4348 PD
24 W
1009 4222 PD
24 W
1157 3959 PD
24 W
1278 4299 PD
24 W
1105 4388 PD
24 W
1101 4294 PD
24 W
1370 4111 PD
24 W
1182 4335 PD
24 W
964 4449 PD
24 W
1038 4418 PD
24 W
1019 4309 PD
24 W
1248 4298 PD
24 W
1124 4234 PD
24 W
1322 4419 PD
24 W
1378 4321 PD
24 W
1233 4296 PD
24 W
1039 4425 PD
24 W
1002 4468 PD
24 W
1043 4376 PD
24 W
1114 4299 PD
24 W
1178 4436 PD
24 W
998 4426 PD
24 W
1246 4160 PD
24 W
991 4362 PD
24 W
1135 4184 PD
24 W
1079 4307 PD
24 W
1013 4280 PD
24 W
990 4616 PD
24 W
988 4474 PD
24 W
1022 4603 PD
24 W
1007 4582 PD
24 W
1088 4354 PD
24 W
1050 4309 PD
24 W
1255 4377 PD
24 W
1350 4134 PD
24 W
966 4282 PD
24 W
989 4461 PD
24 W
1015 4538 PD
24 W
945 4483 PD
24 W
1095 4292 PD
24 W
1083 4142 PD
24 W
999 4457 PD
24 W
964 4417 PD
24 W
993 4470 PD
24 W
972 4391 PD
24 W
1045 4362 PD
24 W
999 4495 PD
24 W
1019 4426 PD
24 W
1100 4410 PD
24 W
1041 4401 PD
24 W
1086 4486 PD
24 W
1061 4521 PD
24 W
1136 4184 PD
24 W
1610 4523 PD
24 W
1230 4049 PD
24 W
919 4555 PD
24 W
1008 4338 PD
24 W
950 4506 PD
24 W
1177 4200 PD
24 W
1455 4162 PD
24 W
1200 4385 PD
24 W
1096 4365 PD
24 W
1034 4449 PD
24 W
1121 4262 PD
24 W
1161 4378 PD
gs 899 3547 857 1070 rc
c9
857 -1064 899 4615 2 MP stroke
gr
gr

c9
1 sg
0 1069 856 0 0 -1069 2026 4616 4 MP
PP
-856 0 0 1069 856 0 0 -1069 2026 4616 5 MP stroke
4 w
DO
SO
6 w
0 sg
2026 4616 mt 2882 4616 L
2026 4616 mt 2026 3547 L
2272 4616 mt 2272 4605 L
2684 4616 mt 2684 4605 L
2026 4534 mt 2036 4534 L
2026 4284 mt 2036 4284 L
2026 4034 mt 2036 4034 L
2026 3783 mt 2036 3783 L
2109 3452 mt 
(P2:3 P2:3\(S\)) s
gs 2026 3547 857 1070 rc
gr

gs 1953 3474 1003 1216 rc
24 W
c8
2409 4487 PD
24 W
2577 4017 PD
24 W
2146 4354 PD
24 W
2642 4194 PD
24 W
2654 3828 PD
24 W
2275 4393 PD
24 W
2557 4426 PD
24 W
2051 4258 PD
24 W
2536 4002 PD
24 W
2246 4315 PD
24 W
2608 4083 PD
24 W
2261 4549 PD
24 W
2448 4332 PD
24 W
2575 4043 PD
24 W
2500 4256 PD
24 W
2226 4086 PD
24 W
2136 4132 PD
24 W
2041 4352 PD
24 W
2236 4267 PD
24 W
2248 4283 PD
24 W
2295 4459 PD
24 W
2533 3985 PD
24 W
2085 4360 PD
24 W
2627 4155 PD
24 W
2304 3691 PD
24 W
2291 4304 PD
24 W
2214 4118 PD
24 W
2249 4108 PD
24 W
2218 4293 PD
24 W
2362 4152 PD
24 W
2250 4308 PD
24 W
2417 4272 PD
24 W
2269 4077 PD
24 W
2319 4190 PD
24 W
2445 4502 PD
24 W
2287 4229 PD
24 W
2270 4212 PD
24 W
2476 4396 PD
24 W
2343 4047 PD
24 W
2303 4229 PD
24 W
2147 4167 PD
24 W
2538 4183 PD
24 W
2335 4039 PD
24 W
2743 4271 PD
24 W
2196 4515 PD
24 W
2397 4333 PD
24 W
2198 4347 PD
24 W
2456 4039 PD
24 W
2264 4173 PD
24 W
2297 4288 PD
24 W
2594 4014 PD
24 W
2419 4280 PD
24 W
2231 4326 PD
24 W
2264 4266 PD
24 W
2451 4169 PD
24 W
2072 4215 PD
24 W
2151 4183 PD
24 W
2194 4157 PD
24 W
2087 4393 PD
24 W
2221 4580 PD
24 W
2226 3660 PD
24 W
2690 4022 PD
24 W
2471 4074 PD
24 W
2671 3898 PD
24 W
2443 4103 PD
24 W
2595 3975 PD
24 W
2644 4119 PD
24 W
2447 4110 PD
24 W
2428 4362 PD
24 W
2148 4388 PD
24 W
2339 4347 PD
24 W
2231 4410 PD
24 W
2260 4027 PD
24 W
2335 4235 PD
24 W
2437 4057 PD
24 W
2464 4439 PD
24 W
2524 3698 PD
24 W
2240 4249 PD
24 W
2448 4182 PD
24 W
2256 4515 PD
24 W
2308 4273 PD
24 W
2390 4191 PD
24 W
2326 4377 PD
24 W
2091 4138 PD
24 W
2354 4271 PD
24 W
2503 4552 PD
24 W
2202 4258 PD
24 W
2345 3845 PD
24 W
2161 4380 PD
24 W
2610 4161 PD
24 W
2467 4108 PD
24 W
2356 3918 PD
24 W
2130 4336 PD
24 W
2257 4123 PD
24 W
2270 4281 PD
24 W
2156 4286 PD
24 W
2453 4124 PD
24 W
2395 4616 PD
24 W
2274 4328 PD
24 W
2352 4164 PD
24 W
2371 3604 PD
24 W
2303 4276 PD
24 W
2322 3888 PD
24 W
2168 4292 PD
24 W
2295 4178 PD
24 W
2245 4349 PD
24 W
2625 4202 PD
24 W
2652 4236 PD
24 W
2383 4073 PD
24 W
2630 4151 PD
24 W
2435 4488 PD
24 W
2314 4164 PD
24 W
2317 4232 PD
24 W
2554 3736 PD
24 W
2259 4208 PD
24 W
2398 4108 PD
24 W
2212 4059 PD
24 W
2407 3756 PD
24 W
2262 4261 PD
24 W
2155 4363 PD
24 W
2322 4129 PD
24 W
2398 4274 PD
24 W
2275 4081 PD
24 W
2310 4323 PD
24 W
2535 4297 PD
24 W
2118 4257 PD
24 W
2207 4165 PD
24 W
2470 4250 PD
24 W
2218 4359 PD
24 W
2283 4018 PD
24 W
2123 4158 PD
24 W
2676 4144 PD
24 W
2440 4293 PD
24 W
2321 4178 PD
24 W
2204 4199 PD
24 W
2284 4291 PD
24 W
2154 4304 PD
24 W
2216 4217 PD
24 W
2265 4410 PD
24 W
2379 3984 PD
24 W
2120 4307 PD
24 W
2497 3981 PD
24 W
2295 4382 PD
24 W
2229 4236 PD
24 W
2283 4271 PD
24 W
2610 3724 PD
24 W
2227 4131 PD
24 W
2487 4456 PD
24 W
2281 4237 PD
24 W
2469 4039 PD
24 W
2536 4014 PD
24 W
2061 4298 PD
24 W
2289 4295 PD
24 W
2316 4408 PD
24 W
2337 4318 PD
24 W
2026 4269 PD
24 W
2605 4145 PD
24 W
2735 4008 PD
24 W
2422 4204 PD
24 W
2492 4214 PD
24 W
2376 4084 PD
24 W
2419 4136 PD
24 W
2524 3591 PD
24 W
2157 4540 PD
24 W
2215 4161 PD
24 W
2210 4409 PD
24 W
2314 4187 PD
24 W
2163 4442 PD
24 W
2271 4323 PD
24 W
2320 4309 PD
24 W
2488 3932 PD
24 W
2268 4265 PD
24 W
2424 3999 PD
24 W
2569 4296 PD
24 W
2184 4584 PD
24 W
2429 4146 PD
24 W
2570 3894 PD
24 W
2457 4129 PD
24 W
2399 4288 PD
24 W
2458 4018 PD
24 W
2257 3964 PD
24 W
2503 3894 PD
24 W
2176 4094 PD
24 W
2524 4418 PD
24 W
2654 3985 PD
24 W
2449 4095 PD
24 W
2604 4502 PD
24 W
2604 4195 PD
24 W
2153 4060 PD
24 W
2882 3547 PD
24 W
2394 4499 PD
24 W
2359 4028 PD
24 W
2103 4294 PD
24 W
2331 4112 PD
24 W
2510 4145 PD
24 W
2283 4369 PD
24 W
2091 4157 PD
24 W
2465 4273 PD
24 W
2352 4037 PD
24 W
2532 4107 PD
gs 2026 3547 857 1070 rc
c9
854 -1036 2026 4583 2 MP stroke
gr
gr

c9
1 sg
0 1069 856 0 0 -1069 3152 4616 4 MP
PP
-856 0 0 1069 856 0 0 -1069 3152 4616 5 MP stroke
4 w
DO
SO
6 w
0 sg
3152 4616 mt 4008 4616 L
3152 4616 mt 3152 3547 L
3374 4616 mt 3374 4605 L
3810 4616 mt 3810 4605 L
3152 4597 mt 3162 4597 L
3152 4365 mt 3162 4365 L
3152 4133 mt 3162 4133 L
3152 3900 mt 3162 3900 L
3152 3668 mt 3162 3668 L
3235 3452 mt 
(P2:4 P2:4\(S\)) s
gs 3152 3547 857 1070 rc
gr

gs 3079 3474 1003 1216 rc
24 W
c8
3489 4427 PD
24 W
3812 3808 PD
24 W
3282 4405 PD
24 W
3795 4574 PD
24 W
3770 4030 PD
24 W
3481 4194 PD
24 W
3367 4342 PD
24 W
3333 4244 PD
24 W
3824 3904 PD
24 W
3362 4288 PD
24 W
3700 3986 PD
24 W
3315 4450 PD
24 W
3465 4215 PD
24 W
3725 4163 PD
24 W
3841 3991 PD
24 W
3543 4049 PD
24 W
3246 4214 PD
24 W
3437 4098 PD
24 W
3381 4542 PD
24 W
3266 4182 PD
24 W
3378 4351 PD
24 W
3644 3887 PD
24 W
3494 4466 PD
24 W
3749 4233 PD
24 W
3572 4470 PD
24 W
3731 4129 PD
24 W
3429 4258 PD
24 W
3528 4280 PD
24 W
3546 4205 PD
24 W
3652 4186 PD
24 W
3339 4346 PD
24 W
3304 4307 PD
24 W
3595 4082 PD
24 W
3745 4198 PD
24 W
3432 4503 PD
24 W
3720 4321 PD
24 W
3564 4106 PD
24 W
3658 4200 PD
24 W
3456 4316 PD
24 W
3591 4227 PD
24 W
3428 4313 PD
24 W
3667 4130 PD
24 W
3499 4036 PD
24 W
3725 4118 PD
24 W
3525 4375 PD
24 W
3519 3909 PD
24 W
3483 4421 PD
24 W
3785 4319 PD
24 W
3300 4346 PD
24 W
3874 4341 PD
24 W
3772 3956 PD
24 W
3629 4044 PD
24 W
3326 4330 PD
24 W
3526 4363 PD
24 W
3557 4137 PD
24 W
3282 4248 PD
24 W
3203 4193 PD
24 W
3335 4452 PD
24 W
3239 4601 PD
24 W
3456 4561 PD
24 W
3540 4091 PD
24 W
3680 4178 PD
24 W
3427 4011 PD
24 W
3596 4383 PD
24 W
3355 3948 PD
24 W
3699 4062 PD
24 W
3811 4245 PD
24 W
3715 3901 PD
24 W
3617 4616 PD
24 W
3411 4192 PD
24 W
3339 4353 PD
24 W
3309 4307 PD
24 W
3460 3929 PD
24 W
3515 4374 PD
24 W
3519 3908 PD
24 W
3740 4181 PD
24 W
3630 3816 PD
24 W
3383 4287 PD
24 W
3644 4077 PD
24 W
3418 4509 PD
24 W
3710 3982 PD
24 W
3470 3936 PD
24 W
3540 4428 PD
24 W
3175 4324 PD
24 W
3299 4275 PD
24 W
3562 4510 PD
24 W
3335 4498 PD
24 W
3641 4163 PD
24 W
3455 4088 PD
24 W
3529 4265 PD
24 W
3336 4275 PD
24 W
3539 4159 PD
24 W
3257 4212 PD
24 W
3521 3938 PD
24 W
3570 4135 PD
24 W
3525 4350 PD
24 W
3563 4150 PD
24 W
3755 4423 PD
24 W
3474 4142 PD
24 W
3539 4339 PD
24 W
3489 3690 PD
24 W
3530 4328 PD
24 W
3781 3547 PD
24 W
3339 4275 PD
24 W
3396 4321 PD
24 W
3487 4278 PD
24 W
3718 4575 PD
24 W
3453 4240 PD
24 W
3569 4341 PD
24 W
3425 4181 PD
24 W
3521 4330 PD
24 W
3472 4149 PD
24 W
3369 4357 PD
24 W
3403 4328 PD
24 W
3464 3924 PD
24 W
3559 4223 PD
24 W
3377 4535 PD
24 W
3255 3977 PD
24 W
3479 4087 PD
24 W
3207 4314 PD
24 W
3486 4242 PD
24 W
3570 4505 PD
24 W
3443 4208 PD
24 W
3682 4180 PD
24 W
3833 4351 PD
24 W
3275 4323 PD
24 W
3336 4264 PD
24 W
3386 4250 PD
24 W
3440 4602 PD
24 W
3637 4068 PD
24 W
3447 4274 PD
24 W
3599 3991 PD
24 W
3395 4280 PD
24 W
3601 4148 PD
24 W
3571 4322 PD
24 W
3533 4146 PD
24 W
3374 4097 PD
24 W
3335 4131 PD
24 W
3626 4163 PD
24 W
3484 4465 PD
24 W
3428 4096 PD
24 W
3596 4160 PD
24 W
3621 4237 PD
24 W
3359 4433 PD
24 W
3457 4250 PD
24 W
3493 4100 PD
24 W
3544 4087 PD
24 W
3554 4562 PD
24 W
3558 4084 PD
24 W
3621 3992 PD
24 W
3651 4049 PD
24 W
3397 4315 PD
24 W
3331 4473 PD
24 W
3435 4256 PD
24 W
3483 4267 PD
24 W
3429 4374 PD
24 W
3693 4279 PD
24 W
3651 4056 PD
24 W
3362 4297 PD
24 W
3616 4251 PD
24 W
3315 4229 PD
24 W
3310 4109 PD
24 W
3597 4121 PD
24 W
3333 4577 PD
24 W
3424 4361 PD
24 W
3471 4461 PD
24 W
3402 4174 PD
24 W
3152 4353 PD
24 W
3620 4195 PD
24 W
3595 4021 PD
24 W
3534 4097 PD
24 W
3612 4257 PD
24 W
3624 4378 PD
24 W
3351 4350 PD
24 W
3347 4122 PD
24 W
3542 3929 PD
24 W
3643 4166 PD
24 W
3493 4495 PD
24 W
3473 4481 PD
24 W
3460 4357 PD
24 W
3346 3935 PD
24 W
4003 3893 PD
24 W
3337 4230 PD
24 W
3944 4211 PD
24 W
3582 4039 PD
24 W
3497 4343 PD
24 W
3883 4396 PD
24 W
3510 3958 PD
24 W
3585 4420 PD
24 W
4008 3675 PD
24 W
3337 4544 PD
24 W
3450 3912 PD
24 W
3310 4305 PD
24 W
3535 4127 PD
24 W
3677 4020 PD
24 W
3481 4335 PD
24 W
3311 4399 PD
24 W
3492 4380 PD
24 W
3496 4022 PD
24 W
3390 4231 PD
gs 3152 3547 857 1070 rc
c9
857 -915 3152 4603 2 MP stroke
gr
gr

c9

end %%Color Dict

eplot
%%EndObject

epage
end

showpage

%%Trailer
%%EOF
