%!PS-Adobe-3.0 EPSF-3.0
%%Creator: MATLAB, The Mathworks, Inc. Version 7.7.0.471 (R2008b). Operating System: Microsoft Windows XP.
%%Title: Pictures\main_zoo_mvar_analysis_data_BMI_xcorr_bmig_p1_k1_5_9.eps
%%CreationDate: 10/26/2009  05:45:05
%%DocumentNeededFonts: Helvetica
%%DocumentProcessColors: Cyan Magenta Yellow Black
%%LanguageLevel: 2
%%Pages: 1
%%BoundingBox:    37   180   549   616
%%EndComments

%%BeginProlog
% MathWorks dictionary
/MathWorks 160 dict begin
% definition operators
/bdef {bind def} bind def
/ldef {load def} bind def
/xdef {exch def} bdef
/xstore {exch store} bdef
% operator abbreviations
/c  /clip ldef
/cc /concat ldef
/cp /closepath ldef
/gr /grestore ldef
/gs /gsave ldef
/mt /moveto ldef
/np /newpath ldef
/cm /currentmatrix ldef
/sm /setmatrix ldef
/rm /rmoveto ldef
/rl /rlineto ldef
/s {show newpath} bdef
/sc {setcmykcolor} bdef
/sr /setrgbcolor ldef
/sg /setgray ldef
/w /setlinewidth ldef
/j /setlinejoin ldef
/cap /setlinecap ldef
/rc {rectclip} bdef
/rf {rectfill} bdef
% page state control
/pgsv () def
/bpage {/pgsv save def} bdef
/epage {pgsv restore} bdef
/bplot /gsave ldef
/eplot {stroke grestore} bdef
% orientation switch
/portraitMode 0 def /landscapeMode 1 def /rotateMode 2 def
% coordinate system mappings
/dpi2point 0 def
% font control
/FontSize 0 def
/FMS {/FontSize xstore findfont [FontSize 0 0 FontSize neg 0 0]
  makefont setfont} bdef
/ISOLatin1Encoding where {pop /WindowsLatin1Encoding 256 array bdef
ISOLatin1Encoding WindowsLatin1Encoding copy pop
/.notdef/.notdef/quotesinglbase/florin/quotedblbase/ellipsis/dagger
/daggerdbl/circumflex/perthousand/Scaron/guilsinglleft/OE/.notdef/.notdef
/.notdef/.notdef/quoteleft/quoteright/quotedblleft/quotedblright/bullet
/endash/emdash/tilde/trademark/scaron/guilsinglright/oe/.notdef/.notdef
/Ydieresis WindowsLatin1Encoding 128 32 getinterval astore pop}
{/WindowsLatin1Encoding StandardEncoding bdef} ifelse
/reencode {exch dup where {pop load} {pop StandardEncoding} ifelse
  exch dup 3 1 roll findfont dup length dict begin
  { 1 index /FID ne {def}{pop pop} ifelse } forall
  /Encoding exch def currentdict end definefont pop} bdef
/isroman {findfont /CharStrings get /Agrave known} bdef
/FMSR {3 1 roll 1 index dup isroman {reencode} {pop pop} ifelse
  exch FMS} bdef
/csm {1 dpi2point div -1 dpi2point div scale neg translate
 dup landscapeMode eq {pop -90 rotate}
  {rotateMode eq {90 rotate} if} ifelse} bdef
% line types: solid, dotted, dashed, dotdash
/SO { [] 0 setdash } bdef
/DO { [.5 dpi2point mul 4 dpi2point mul] 0 setdash } bdef
/DA { [6 dpi2point mul] 0 setdash } bdef
/DD { [.5 dpi2point mul 4 dpi2point mul 6 dpi2point mul 4
  dpi2point mul] 0 setdash } bdef
% macros for lines and objects
/L {lineto stroke} bdef
/MP {3 1 roll moveto 1 sub {rlineto} repeat} bdef
/AP {{rlineto} repeat} bdef
/PDlw -1 def
/W {/PDlw currentlinewidth def setlinewidth} def
/PP {closepath eofill} bdef
/DP {closepath stroke} bdef
/MR {4 -2 roll moveto dup  0 exch rlineto exch 0 rlineto
  neg 0 exch rlineto closepath} bdef
/FR {MR stroke} bdef
/PR {MR fill} bdef
/L1i {{currentfile picstr readhexstring pop} image} bdef
/tMatrix matrix def
/MakeOval {newpath tMatrix currentmatrix pop translate scale
0 0 1 0 360 arc tMatrix setmatrix} bdef
/FO {MakeOval stroke} bdef
/PO {MakeOval fill} bdef
/PD {currentlinewidth 2 div 0 360 arc fill
   PDlw -1 eq not {PDlw w /PDlw -1 def} if} def
/FA {newpath tMatrix currentmatrix pop translate scale
  0 0 1 5 -2 roll arc tMatrix setmatrix stroke} bdef
/PA {newpath tMatrix currentmatrix pop	translate 0 0 moveto scale
  0 0 1 5 -2 roll arc closepath tMatrix setmatrix fill} bdef
/FAn {newpath tMatrix currentmatrix pop translate scale
  0 0 1 5 -2 roll arcn tMatrix setmatrix stroke} bdef
/PAn {newpath tMatrix currentmatrix pop translate 0 0 moveto scale
  0 0 1 5 -2 roll arcn closepath tMatrix setmatrix fill} bdef
/vradius 0 def /hradius 0 def /lry 0 def
/lrx 0 def /uly 0 def /ulx 0 def /rad 0 def
/MRR {/vradius xdef /hradius xdef /lry xdef /lrx xdef /uly xdef
  /ulx xdef newpath tMatrix currentmatrix pop ulx hradius add uly
  vradius add translate hradius vradius scale 0 0 1 180 270 arc 
  tMatrix setmatrix lrx hradius sub uly vradius add translate
  hradius vradius scale 0 0 1 270 360 arc tMatrix setmatrix
  lrx hradius sub lry vradius sub translate hradius vradius scale
  0 0 1 0 90 arc tMatrix setmatrix ulx hradius add lry vradius sub
  translate hradius vradius scale 0 0 1 90 180 arc tMatrix setmatrix
  closepath} bdef
/FRR {MRR stroke } bdef
/PRR {MRR fill } bdef
/MlrRR {/lry xdef /lrx xdef /uly xdef /ulx xdef /rad lry uly sub 2 div def
  newpath tMatrix currentmatrix pop ulx rad add uly rad add translate
  rad rad scale 0 0 1 90 270 arc tMatrix setmatrix lrx rad sub lry rad
  sub translate rad rad scale 0 0 1 270 90 arc tMatrix setmatrix
  closepath} bdef
/FlrRR {MlrRR stroke } bdef
/PlrRR {MlrRR fill } bdef
/MtbRR {/lry xdef /lrx xdef /uly xdef /ulx xdef /rad lrx ulx sub 2 div def
  newpath tMatrix currentmatrix pop ulx rad add uly rad add translate
  rad rad scale 0 0 1 180 360 arc tMatrix setmatrix lrx rad sub lry rad
  sub translate rad rad scale 0 0 1 0 180 arc tMatrix setmatrix
  closepath} bdef
/FtbRR {MtbRR stroke } bdef
/PtbRR {MtbRR fill } bdef
/stri 6 array def /dtri 6 array def
/smat 6 array def /dmat 6 array def
/tmat1 6 array def /tmat2 6 array def /dif 3 array def
/asub {/ind2 exch def /ind1 exch def dup dup
  ind1 get exch ind2 get sub exch } bdef
/tri_to_matrix {
  2 0 asub 3 1 asub 4 0 asub 5 1 asub
  dup 0 get exch 1 get 7 -1 roll astore } bdef
/compute_transform {
  dmat dtri tri_to_matrix tmat1 invertmatrix 
  smat stri tri_to_matrix tmat2 concatmatrix } bdef
/ds {stri astore pop} bdef
/dt {dtri astore pop} bdef
/db {2 copy /cols xdef /rows xdef mul dup 3 mul string
  currentfile 
  3 index 0 eq {/ASCIIHexDecode filter}
  {/ASCII85Decode filter 3 index 2 eq {/RunLengthDecode filter} if }
  ifelse exch readstring pop
  dup 0 3 index getinterval /rbmap xdef
  dup 2 index dup getinterval /gbmap xdef
  1 index dup 2 mul exch getinterval /bbmap xdef pop pop}bdef
/it {gs np dtri aload pop moveto lineto lineto cp c
  cols rows 8 compute_transform 
  rbmap gbmap bbmap true 3 colorimage gr}bdef
/il {newpath moveto lineto stroke}bdef
currentdict end def
%%EndProlog

%%BeginSetup
MathWorks begin

0 cap

end
%%EndSetup

%%Page: 1 1
%%BeginPageSetup
%%PageBoundingBox:    37   180   549   616
MathWorks begin
bpage
%%EndPageSetup

%%BeginObject: obj1
bplot

/dpi2point 12 def
portraitMode 0216 7344 csm

  234   -48  6149  5231 rc
85 dict begin %Colortable dictionary
/c0 { 0.000000 0.000000 0.000000 sr} bdef
/c1 { 1.000000 1.000000 1.000000 sr} bdef
/c2 { 0.900000 0.000000 0.000000 sr} bdef
/c3 { 0.000000 0.820000 0.000000 sr} bdef
/c4 { 0.000000 0.000000 0.800000 sr} bdef
/c5 { 0.910000 0.820000 0.320000 sr} bdef
/c6 { 1.000000 0.260000 0.820000 sr} bdef
/c7 { 0.000000 0.820000 0.820000 sr} bdef
c0
1 j
1 sg
   0    0 6919 5187 rf
6 w
0 4202 5362 0 0 -4202 899 4616 4 MP
PP
-5362 0 0 4202 5362 0 0 -4202 899 4616 5 MP stroke
4 w
DO
SO
6 w
0 sg
 899  414 mt 6261  414 L
 899 4616 mt 6261 4616 L
6261 4616 mt 6261  414 L
 899 4616 mt  899  414 L
 899 4616 mt 6261 4616 L
 899 4616 mt  899  414 L
 919 4616 mt  919 4562 L
 919  414 mt  919  467 L
%%IncludeResource: font Helvetica
/Helvetica /WindowsLatin1Encoding 240 FMSR

 713 4873 mt 
(-3) s
1806 4616 mt 1806 4562 L
1806  414 mt 1806  467 L
1600 4873 mt 
(-2) s
2693 4616 mt 2693 4562 L
2693  414 mt 2693  467 L
2487 4873 mt 
(-1) s
3580 4616 mt 3580 4562 L
3580  414 mt 3580  467 L
3514 4873 mt 
(0) s
4466 4616 mt 4466 4562 L
4466  414 mt 4466  467 L
4400 4873 mt 
(1) s
5353 4616 mt 5353 4562 L
5353  414 mt 5353  467 L
5287 4873 mt 
(2) s
6240 4616 mt 6240 4562 L
6240  414 mt 6240  467 L
6174 4873 mt 
(3) s
 899 4599 mt  952 4599 L
6261 4599 mt 6207 4599 L
 591 4688 mt 
(-3) s
 899 3904 mt  952 3904 L
6261 3904 mt 6207 3904 L
 591 3993 mt 
(-2) s
 899 3209 mt  952 3209 L
6261 3209 mt 6207 3209 L
 591 3298 mt 
(-1) s
 899 2514 mt  952 2514 L
6261 2514 mt 6207 2514 L
 731 2603 mt 
(0) s
 899 1820 mt  952 1820 L
6261 1820 mt 6207 1820 L
 731 1909 mt 
(1) s
 899 1125 mt  952 1125 L
6261 1125 mt 6207 1125 L
 731 1214 mt 
(2) s
 899  430 mt  952  430 L
6261  430 mt 6207  430 L
 731  519 mt 
(3) s
 899  414 mt 6261  414 L
 899 4616 mt 6261 4616 L
6261 4616 mt 6261  414 L
 899 4616 mt  899  414 L
gs 899 414 5363 4203 rc
gr

/c8 { 0.000000 0.000000 1.000000 sr} bdef
c8
5211 1698 mt 5283 1698 L
5247 1662 mt 5247 1734 L
4746 2815 mt 4818 2815 L
4782 2779 mt 4782 2851 L
4060 4023 mt 4132 4023 L
4096 3987 mt 4096 4059 L
3940 2978 mt 4012 2978 L
3976 2942 mt 3976 3014 L
3672 1892 mt 3744 1892 L
3708 1856 mt 3708 1928 L
2534 2859 mt 2606 2859 L
2570 2823 mt 2570 2895 L
2235 2549 mt 2307 2549 L
2271 2513 mt 2271 2585 L
3571 2160 mt 3643 2160 L
3607 2124 mt 3607 2196 L
2513 2388 mt 2585 2388 L
2549 2352 mt 2549 2424 L
5282 2067 mt 5354 2067 L
5318 2031 mt 5318 2103 L
5828 1740 mt 5900 1740 L
5864 1704 mt 5864 1776 L
3415 2237 mt 3487 2237 L
3451 2201 mt 3451 2273 L
4407 2223 mt 4479 2223 L
4443 2187 mt 4443 2259 L
4149 2320 mt 4221 2320 L
4185 2284 mt 4185 2356 L
4156 2001 mt 4228 2001 L
4192 1965 mt 4192 2037 L
4667 2347 mt 4739 2347 L
4703 2311 mt 4703 2383 L
3814 3273 mt 3886 3273 L
3850 3237 mt 3850 3309 L
2394 2204 mt 2466 2204 L
2430 2168 mt 2430 2240 L
3711 2589 mt 3783 2589 L
3747 2553 mt 3747 2625 L
2789 3567 mt 2861 3567 L
2825 3531 mt 2825 3603 L
3147 3118 mt 3219 3118 L
3183 3082 mt 3183 3154 L
5413 1087 mt 5485 1087 L
5449 1051 mt 5449 1123 L
3296 1404 mt 3368 1404 L
3332 1368 mt 3332 1440 L
2980  564 mt 3052  564 L
3016  528 mt 3016  600 L
2420 2007 mt 2492 2007 L
2456 1971 mt 2456 2043 L
3398 3213 mt 3470 3213 L
3434 3177 mt 3434 3249 L
2836 2576 mt 2908 2576 L
2872 2540 mt 2872 2612 L
5096 2506 mt 5168 2506 L
5132 2470 mt 5132 2542 L
3717 2782 mt 3789 2782 L
3753 2746 mt 3753 2818 L
2706 3358 mt 2778 3358 L
2742 3322 mt 2742 3394 L
4338 3731 mt 4410 3731 L
4374 3695 mt 4374 3767 L
4142 2078 mt 4214 2078 L
4178 2042 mt 4178 2114 L
3728 3581 mt 3800 3581 L
3764 3545 mt 3764 3617 L
3505 2673 mt 3577 2673 L
3541 2637 mt 3541 2709 L
3915 3069 mt 3987 3069 L
3951 3033 mt 3951 3105 L
4047 2909 mt 4119 2909 L
4083 2873 mt 4083 2945 L
2201 2686 mt 2273 2686 L
2237 2650 mt 2237 2722 L
4719 2650 mt 4791 2650 L
4755 2614 mt 4755 2686 L
4290 1960 mt 4362 1960 L
4326 1924 mt 4326 1996 L
4732 4205 mt 4804 4205 L
4768 4169 mt 4768 4241 L
5002 3289 mt 5074 3289 L
5038 3253 mt 5038 3325 L
3803 2365 mt 3875 2365 L
3839 2329 mt 3839 2401 L
2896 3658 mt 2968 3658 L
2932 3622 mt 2932 3694 L
3085 1006 mt 3157 1006 L
3121  970 mt 3121 1042 L
5606 3125 mt 5678 3125 L
5642 3089 mt 5642 3161 L
1907 3045 mt 1979 3045 L
1943 3009 mt 1943 3081 L
4002 2401 mt 4074 2401 L
4038 2365 mt 4038 2437 L
3020 3349 mt 3092 3349 L
3056 3313 mt 3056 3385 L
2671 3093 mt 2743 3093 L
2707 3057 mt 2707 3129 L
5047 2796 mt 5119 2796 L
5083 2760 mt 5083 2832 L
3072 1232 mt 3144 1232 L
3108 1196 mt 3108 1268 L
3723 2140 mt 3795 2140 L
3759 2104 mt 3759 2176 L
3302 1653 mt 3374 1653 L
3338 1617 mt 3338 1689 L
4266 2731 mt 4338 2731 L
4302 2695 mt 4302 2767 L
3190 1561 mt 3262 1561 L
3226 1525 mt 3226 1597 L
2910 2493 mt 2982 2493 L
2946 2457 mt 2946 2529 L
6033 1984 mt 6105 1984 L
6069 1948 mt 6069 2020 L
5700 2029 mt 5772 2029 L
5736 1993 mt 5736 2065 L
5245 2619 mt 5317 2619 L
5281 2583 mt 5281 2655 L
2715 3711 mt 2787 3711 L
2751 3675 mt 2751 3747 L
4322 1787 mt 4394 1787 L
4358 1751 mt 4358 1823 L
4482 3005 mt 4554 3005 L
4518 2969 mt 4518 3041 L
2267 2155 mt 2339 2155 L
2303 2119 mt 2303 2191 L
2615 2820 mt 2687 2820 L
2651 2784 mt 2651 2856 L
3153 2889 mt 3225 2889 L
3189 2853 mt 3189 2925 L
3751 2270 mt 3823 2270 L
3787 2234 mt 3787 2306 L
3499 3675 mt 3571 3675 L
3535 3639 mt 3535 3711 L
4775 4305 mt 4847 4305 L
4811 4269 mt 4811 4341 L
4163 2307 mt 4235 2307 L
4199 2271 mt 4199 2343 L
2605 2633 mt 2677 2633 L
2641 2597 mt 2641 2669 L
4492 3693 mt 4564 3693 L
4528 3657 mt 4528 3729 L
3885 2884 mt 3957 2884 L
3921 2848 mt 3921 2920 L
3053 2120 mt 3125 2120 L
3089 2084 mt 3089 2156 L
2523 2445 mt 2595 2445 L
2559 2409 mt 2559 2481 L
3319 1538 mt 3391 1538 L
3355 1502 mt 3355 1574 L
3867 3942 mt 3939 3942 L
3903 3906 mt 3903 3978 L
4760 2338 mt 4832 2338 L
4796 2302 mt 4796 2374 L
3482 3386 mt 3554 3386 L
3518 3350 mt 3518 3422 L
2165 2311 mt 2237 2311 L
2201 2275 mt 2201 2347 L
4282 2298 mt 4354 2298 L
4318 2262 mt 4318 2334 L
6225 1689 mt 6297 1689 L
6261 1653 mt 6261 1725 L
3160 2754 mt 3232 2754 L
3196 2718 mt 3196 2790 L
3958 3137 mt 4030 3137 L
3994 3101 mt 3994 3173 L
2757 3340 mt 2829 3340 L
2793 3304 mt 2793 3376 L
3091 3265 mt 3163 3265 L
3127 3229 mt 3127 3301 L
3855 2109 mt 3927 2109 L
3891 2073 mt 3891 2145 L
4631  824 mt 4703  824 L
4667  788 mt 4667  860 L
3820 2379 mt 3892 2379 L
3856 2343 mt 3856 2415 L
2063 3376 mt 2135 3376 L
2099 3340 mt 2099 3412 L
4054 1904 mt 4126 1904 L
4090 1868 mt 4090 1940 L
4597 3503 mt 4669 3503 L
4633 3467 mt 4633 3539 L
4199 1336 mt 4271 1336 L
4235 1300 mt 4235 1372 L
2765 2247 mt 2837 2247 L
2801 2211 mt 2801 2283 L
3873 2778 mt 3945 2778 L
3909 2742 mt 3909 2814 L
2805 2611 mt 2877 2611 L
2841 2575 mt 2841 2647 L
3432 2849 mt 3504 2849 L
3468 2813 mt 3468 2885 L
2502 3057 mt 2574 3057 L
2538 3021 mt 2538 3093 L
5122 3491 mt 5194 3491 L
5158 3455 mt 5158 3527 L
2251 3051 mt 2323 3051 L
2287 3015 mt 2287 3087 L
2565 1954 mt 2637 1954 L
2601 1918 mt 2601 1990 L
4820 2284 mt 4892 2284 L
4856 2248 mt 4856 2320 L
3757 1624 mt 3829 1624 L
3793 1588 mt 3793 1660 L
4805 1419 mt 4877 1419 L
4841 1383 mt 4841 1455 L
3577 2554 mt 3649 2554 L
3613 2518 mt 3613 2590 L
3977 2104 mt 4049 2104 L
4013 2068 mt 4013 2140 L
3387 2293 mt 3459 2293 L
3423 2257 mt 3423 2329 L
3493 2940 mt 3565 2940 L
3529 2904 mt 3529 2976 L
4425 2471 mt 4497 2471 L
4461 2435 mt 4461 2507 L
4922 1978 mt 4994 1978 L
4958 1942 mt 4958 2014 L
4177 3822 mt 4249 3822 L
4213 3786 mt 4213 3858 L
2381 2768 mt 2453 2768 L
2417 2732 mt 2417 2804 L
3971 3022 mt 4043 3022 L
4007 2986 mt 4007 3058 L
2749 2361 mt 2821 2361 L
2785 2325 mt 2785 2397 L
3313 2185 mt 3385 2185 L
3349 2149 mt 3349 2221 L
4128 1816 mt 4200 1816 L
4164 1780 mt 4164 1852 L
4680 1277 mt 4752 1277 L
4716 1241 mt 4716 1313 L
3594 2983 mt 3666 2983 L
3630 2947 mt 3630 3019 L
2341 2874 mt 2413 2874 L
2377 2838 mt 2377 2910 L
3689 2989 mt 3761 2989 L
3725 2953 mt 3725 3025 L
4608 2035 mt 4680 2035 L
4644 1999 mt 4644 2071 L
3661 2825 mt 3733 2825 L
3697 2789 mt 3697 2861 L
3927 1152 mt 3999 1152 L
3963 1116 mt 3963 1188 L
3449 2914 mt 3521 2914 L
3485 2878 mt 3485 2950 L
3104 1858 mt 3176 1858 L
3140 1822 mt 3140 1894 L
5150 2316 mt 5222 2316 L
5186 2280 mt 5186 2352 L
4585 2150 mt 4657 2150 L
4621 2114 mt 4621 2186 L
2844 3281 mt 2916 3281 L
2880 3245 mt 2880 3317 L
2282 2228 mt 2354 2228 L
2318 2192 mt 2318 2264 L
3220 2668 mt 3292 2668 L
3256 2632 mt 3256 2704 L
2586 1462 mt 2658 1462 L
2622 1426 mt 2622 1498 L
3359 2012 mt 3431 2012 L
3395 1976 mt 3395 2048 L
2888 1748 mt 2960 1748 L
2924 1712 mt 2924 1784 L
3996 2130 mt 4068 2130 L
4032 2094 mt 4032 2166 L
1556 2083 mt 1628 2083 L
1592 2047 mt 1592 2119 L
4259 2879 mt 4331 2879 L
4295 2843 mt 4295 2915 L
2146 2704 mt 2218 2704 L
2182 2668 mt 2182 2740 L
3330 2864 mt 3402 2864 L
3366 2828 mt 3366 2900 L
2368 3087 mt 2440 3087 L
2404 3051 mt 2404 3123 L
4886 2510 mt 4958 2510 L
4922 2474 mt 4922 2546 L
5071 2467 mt 5143 2467 L
5107 2431 mt 5107 2503 L
2931 2602 mt 3003 2602 L
2967 2566 mt 2967 2638 L
2740 2251 mt 2812 2251 L
2776 2215 mt 2776 2287 L
3588 2414 mt 3660 2414 L
3624 2378 mt 3624 2450 L
3555 2165 mt 3627 2165 L
3591 2129 mt 3591 2201 L
4251 2458 mt 4323 2458 L
4287 2422 mt 4287 2494 L
4191 2967 mt 4263 2967 L
4227 2931 mt 4227 3003 L
3336 2024 mt 3408 2024 L
3372 1988 mt 3372 2060 L
2555 1371 mt 2627 1371 L
2591 1335 mt 2591 1407 L
4961 2356 mt 5033 2356 L
4997 2320 mt 4997 2392 L
3861 2750 mt 3933 2750 L
3897 2714 mt 3897 2786 L
5321 2046 mt 5393 2046 L
5357 2010 mt 5357 2082 L
 863 2514 mt  935 2514 L
 899 2478 mt  899 2550 L
4087 3908 mt 4159 3908 L
4123 3872 mt 4123 3944 L
1991 1851 mt 2063 1851 L
2027 1815 mt 2027 1887 L
4213 2773 mt 4285 2773 L
4249 2737 mt 4249 2809 L
2218 2811 mt 2290 2811 L
2254 2775 mt 2254 2847 L
1965 3479 mt 2037 3479 L
2001 3443 mt 2001 3515 L
3261 2099 mt 3333 2099 L
3297 2063 mt 3297 2135 L
4100 1779 mt 4172 1779 L
4136 1743 mt 4136 1815 L
3078 2073 mt 3150 2073 L
3114 2037 mt 3114 2109 L
2851 3436 mt 2923 3436 L
2887 3400 mt 2887 3472 L
4501 2541 mt 4573 2541 L
4537 2505 mt 4537 2577 L
3745 1255 mt 3817 1255 L
3781 1219 mt 3781 1291 L
4228 3250 mt 4300 3250 L
4264 3214 mt 4264 3286 L
3921 2089 mt 3993 2089 L
3957 2053 mt 3957 2125 L
3683 3220 mt 3755 3220 L
3719 3184 mt 3719 3256 L
4314 2764 mt 4386 2764 L
4350 2728 mt 4350 2800 L
4564 1838 mt 4636 1838 L
4600 1802 mt 4600 1874 L
4041 1809 mt 4113 1809 L
4077 1773 mt 4077 1845 L
3267 2869 mt 3339 2869 L
3303 2833 mt 3303 2905 L
3027 1207 mt 3099 1207 L
3063 1171 mt 3063 1243 L
2680 1948 mt 2752 1948 L
2716 1912 mt 2716 1984 L
4074 3184 mt 4146 3184 L
4110 3148 mt 4110 3220 L
2040 2343 mt 2112 2343 L
2076 2307 mt 2076 2379 L
3549 2175 mt 3621 2175 L
3585 2139 mt 3585 2211 L
4463 2242 mt 4535 2242 L
4499 2206 mt 4499 2278 L
4121 2501 mt 4193 2501 L
4157 2465 mt 4157 2537 L
4067 3641 mt 4139 3641 L
4103 3605 mt 4103 3677 L
3426 2718 mt 3498 2718 L
3462 2682 mt 3462 2754 L
3706 2787 mt 3778 2787 L
3742 2751 mt 3742 2823 L
4789 1794 mt 4861 1794 L
4825 1758 mt 4825 1830 L
4655 3797 mt 4727 3797 L
4691 3761 mt 4691 3833 L
1722  898 mt 1794  898 L
1758  862 mt 1758  934 L
5365 2558 mt 5437 2558 L
5401 2522 mt 5401 2594 L
4372 2580 mt 4444 2580 L
4408 2544 mt 4408 2616 L
3677 2624 mt 3749 2624 L
3713 2588 mt 3713 2660 L
4221 1550 mt 4293 1550 L
4257 1514 mt 4257 1586 L
3538 2899 mt 3610 2899 L
3574 2863 mt 3574 2935 L
3184 3625 mt 3256 3625 L
3220 3589 mt 3220 3661 L
3438 1318 mt 3510 1318 L
3474 1282 mt 3474 1354 L
4381 2352 mt 4453 2352 L
4417 2316 mt 4417 2388 L
4355  414 mt 4427  414 L
4391  378 mt 4391  450 L
3633 3034 mt 3705 3034 L
3669 2998 mt 3669 3070 L
3135 1764 mt 3207 1764 L
3171 1728 mt 3171 1800 L
4904 1972 mt 4976 1972 L
4940 1936 mt 4940 2008 L
4574 2436 mt 4646 2436 L
4610 2400 mt 4610 2472 L
3232 1593 mt 3304 1593 L
3268 1557 mt 3268 1629 L
2917 1942 mt 2989 1942 L
2953 1906 mt 2953 1978 L
3649 2325 mt 3721 2325 L
3685 2289 mt 3685 2361 L
4243 2094 mt 4315 2094 L
4279 2058 mt 4279 2130 L
3454 1680 mt 3526 1680 L
3490 1644 mt 3490 1716 L
2828 1572 mt 2900 1572 L
2864 1536 mt 2864 1608 L
3393 2682 mt 3465 2682 L
3429 2646 mt 3429 2718 L
3243 2418 mt 3315 2418 L
3279 2382 mt 3279 2454 L
3983 2449 mt 4055 2449 L
4019 2413 mt 4019 2485 L
2479 2405 mt 2551 2405 L
2515 2369 mt 2515 2441 L
3762 2677 mt 3834 2677 L
3798 2641 mt 3798 2713 L
3544 3848 mt 3616 3848 L
3580 3812 mt 3580 3884 L
3655 2302 mt 3727 2302 L
3691 2266 mt 3691 2338 L
5024 2528 mt 5096 2528 L
5060 2492 mt 5060 2564 L
4398 2256 mt 4470 2256 L
4434 2220 mt 4434 2292 L
3237 3039 mt 3309 3039 L
3273 3003 mt 3273 3075 L
2595 2536 mt 2667 2536 L
2631 2500 mt 2631 2572 L
2966 1354 mt 3038 1354 L
3002 1318 mt 3002 1390 L
3934 1823 mt 4006 1823 L
3970 1787 mt 3970 1859 L
3059 1756 mt 3131 1756 L
3095 1720 mt 3095 1792 L
2959 3752 mt 3031 3752 L
2995 3716 mt 2995 3788 L
1259 2523 mt 1331 2523 L
1295 2487 mt 1295 2559 L
3172 3610 mt 3244 3610 L
3208 3574 mt 3208 3646 L
2183 2628 mt 2255 2628 L
2219 2592 mt 2219 2664 L
3797 3131 mt 3869 3131 L
3833 3095 mt 3833 3167 L
3443  724 mt 3515  724 L
3479  688 mt 3479  760 L
2697 1930 mt 2769 1930 L
2733 1894 mt 2733 1966 L
3809 1049 mt 3881 1049 L
3845 1013 mt 3845 1085 L
3946 2334 mt 4018 2334 L
3982 2298 mt 3982 2370 L
3582 4072 mt 3654 4072 L
3618 4036 mt 3618 4108 L
4107 2606 mt 4179 2606 L
4143 2570 mt 4143 2642 L
4034 2956 mt 4106 2956 L
4070 2920 mt 4070 2992 L
3791 2275 mt 3863 2275 L
3827 2239 mt 3827 2311 L
3214 2218 mt 3286 2218 L
3250 2182 mt 3250 2254 L
1766 1878 mt 1838 1878 L
1802 1842 mt 1802 1914 L
3273 2709 mt 3345 2709 L
3309 2673 mt 3309 2745 L
2945 3306 mt 3017 3306 L
2981 3270 mt 2981 3342 L
3033 3527 mt 3105 3527 L
3069 3491 mt 3069 3563 L
3000 2741 mt 3072 2741 L
3036 2705 mt 3036 2777 L
3785 2792 mt 3857 2792 L
3821 2756 mt 3821 2828 L
2490 3297 mt 2562 3297 L
2526 3261 mt 2526 3333 L
2312 1448 mt 2384 1448 L
2348 1412 mt 2348 1484 L
4184 1662 mt 4256 1662 L
4220 1626 mt 4220 1698 L
3013 3099 mt 3085 3099 L
3049 3063 mt 3049 3135 L
2634 3075 mt 2706 3075 L
2670 3039 mt 2670 3111 L
2924 3515 mt 2996 3515 L
2960 3479 mt 2960 3551 L
2821 3395 mt 2893 3395 L
2857 3359 mt 2857 3431 L
2652 1526 mt 2724 1526 L
2688 1490 mt 2688 1562 L
4693 2462 mt 4765 2462 L
4729 2426 mt 4729 2498 L
3166 3081 mt 3238 3081 L
3202 3045 mt 3202 3117 L
2938 1923 mt 3010 1923 L
2974 1887 mt 2974 1959 L
3410 2664 mt 3482 2664 L
3446 2628 mt 3446 2700 L
4206 2925 mt 4278 2925 L
4242 2889 mt 4242 2961 L
3477 3242 mt 3549 3242 L
3513 3206 mt 3513 3278 L
1842 1723 mt 1914 1723 L
1878 1687 mt 1878 1759 L
3610 2209 mt 3682 2209 L
3646 2173 mt 3646 2245 L
4390 1604 mt 4462 1604 L
4426 1568 mt 4426 1640 L
3903 2894 mt 3975 2894 L
3939 2858 mt 3939 2930 L
2662 1707 mt 2734 1707 L
2698 1671 mt 2698 1743 L
3780 2423 mt 3852 2423 L
3816 2387 mt 3816 2459 L
4114 2519 mt 4186 2519 L
4150 2483 mt 4150 2555 L
3734 2427 mt 3806 2427 L
3770 2391 mt 3770 2463 L
4981 1772 mt 5053 1772 L
5017 1736 mt 5017 1808 L
3740 2659 mt 3812 2659 L
3776 2623 mt 3776 2695 L
3178 1671 mt 3250 1671 L
3214 1635 mt 3214 1707 L
4015 3151 mt 4087 3151 L
4051 3115 mt 4051 3187 L
2874 2691 mt 2946 2691 L
2910 2655 mt 2910 2727 L
3644 2695 mt 3716 2695 L
3680 2659 mt 3680 2731 L
4080 3017 mt 4152 3017 L
4116 2981 mt 4116 3053 L
4472 1865 mt 4544 1865 L
4508 1829 mt 4508 1901 L
3129 3063 mt 3201 3063 L
3165 3027 mt 3165 3099 L
3208 2484 mt 3280 2484 L
3244 2448 mt 3244 2520 L
4435 2835 mt 4507 2835 L
4471 2799 mt 4471 2871 L
3404 2759 mt 3476 2759 L
3440 2723 mt 3440 2795 L
4643 2713 mt 4715 2713 L
4679 2677 mt 4679 2749 L
3527 3468 mt 3599 3468 L
3563 3432 mt 3563 3504 L
3046 2801 mt 3118 2801 L
3082 2765 mt 3082 2837 L
1937 3191 mt 2009 3191 L
1973 3155 mt 1973 3227 L
3202 1911 mt 3274 1911 L
3238 1875 mt 3238 1947 L
3110 3235 mt 3182 3235 L
3146 3199 mt 3146 3271 L
4836 1831 mt 4908 1831 L
4872 1795 mt 4872 1867 L
2973 2637 mt 3045 2637 L
3009 2601 mt 3009 2673 L
3510 3157 mt 3582 3157 L
3546 3121 mt 3546 3193 L
1481 2383 mt 1553 2383 L
1517 2347 mt 1517 2419 L
5531 1802 mt 5603 1802 L
5567 1766 mt 5567 1838 L
4135 2597 mt 4207 2597 L
4171 2561 mt 4171 2633 L
2016 1995 mt 2088 1995 L
2052 1959 mt 2052 2031 L
3605 2480 mt 3677 2480 L
3641 2444 mt 3641 2516 L
4298 2189 mt 4370 2189 L
4334 2153 mt 4334 2225 L
2866 2920 mt 2938 2920 L
2902 2884 mt 2902 2956 L
4364 1181 mt 4436 1181 L
4400 1145 mt 4400 1217 L
3325 2233 mt 3397 2233 L
3361 2197 mt 3361 2269 L
3196 2641 mt 3268 2641 L
3232 2605 mt 3232 2677 L
4532 2951 mt 4604 2951 L
4568 2915 mt 4568 2987 L
3278 2265 mt 3350 2265 L
3314 2229 mt 3314 2301 L
3532 1936 mt 3604 1936 L
3568 1900 mt 3568 1972 L
3627 2615 mt 3699 2615 L
3663 2579 mt 3663 2651 L
2355 1872 mt 2427 1872 L
2391 1836 mt 2391 1908 L
3116 3457 mt 3188 3457 L
3152 3421 mt 3152 3493 L
4236 3322 mt 4308 3322 L
4272 3286 mt 4272 3358 L
3471 2532 mt 3543 2532 L
3507 2496 mt 3507 2568 L
1805 2374 mt 1877 2374 L
1841 2338 mt 1841 2410 L
2773 2994 mt 2845 2994 L
2809 2958 mt 2809 3030 L
3488 1514 mt 3560 1514 L
3524 1478 mt 3524 1550 L
3560 2410 mt 3632 2410 L
3596 2374 mt 3596 2446 L
2732 2018 mt 2804 2018 L
2768 1982 mt 2768 2054 L
3307  957 mt 3379  957 L
3343  921 mt 3343  993 L
2903 3367 mt 2975 3367 L
2939 3331 mt 2939 3403 L
3879 2370 mt 3951 2370 L
3915 2334 mt 3915 2406 L
2987 2040 mt 3059 2040 L
3023 2004 mt 3023 2076 L
2327 3171 mt 2399 3171 L
2363 3135 mt 2363 3207 L
3826 2199 mt 3898 2199 L
3862 2163 mt 3862 2235 L
3466 2057 mt 3538 2057 L
3502 2021 mt 3502 2093 L
3353 3144 mt 3425 3144 L
3389 3108 mt 3389 3180 L
2126 2655 mt 2198 2655 L
2162 2619 mt 2162 2691 L
2859 2930 mt 2931 2930 L
2895 2894 mt 2895 2966 L
2298 2396 mt 2370 2396 L
2334 2360 mt 2334 2432 L
3040 2840 mt 3112 2840 L
3076 2804 mt 3076 2876 L
3909 2135 mt 3981 2135 L
3945 2099 mt 3945 2171 L
3226 1298 mt 3298 1298 L
3262 1262 mt 3262 1334 L
4306 3178 mt 4378 3178 L
4342 3142 mt 4342 3214 L
1876 1990 mt 1948 1990 L
1912 1954 mt 1912 2026 L
2781 3106 mt 2853 3106 L
2817 3070 mt 2817 3142 L
3774 1845 mt 3846 1845 L
3810 1809 mt 3810 1881 L
3952 3011 mt 4024 3011 L
3988 2975 mt 3988 3047 L
3989 1583 mt 4061 1583 L
4025 1547 mt 4025 1619 L
4009 3595 mt 4081 3595 L
4045 3559 mt 4045 3631 L
4869 1732 mt 4941 1732 L
4905 1696 mt 4905 1768 L
3850 3227 mt 3922 3227 L
3886 3191 mt 3886 3263 L
3098 3028 mt 3170 3028 L
3134 2992 mt 3134 3064 L
3255 2214 mt 3327 2214 L
3291 2178 mt 3291 2250 L
3347 1614 mt 3419 1614 L
3383 1578 mt 3383 1650 L
3832 2962 mt 3904 2962 L
3868 2926 mt 3868 2998 L
3891 2261 mt 3963 2261 L
3927 2225 mt 3927 2297 L
4619 2545 mt 4691 2545 L
4655 2509 mt 4655 2581 L
1387 1715 mt 1459 1715 L
1423 1679 mt 1423 1751 L
3768 2453 mt 3840 2453 L
3804 2417 mt 3804 2489 L
4522 2115 mt 4594 2115 L
4558 2079 mt 4558 2151 L
2624 3206 mt 2696 3206 L
2660 3170 mt 2660 3242 L
1674 4131 mt 1746 4131 L
1710 4095 mt 1710 4167 L
4170 3314 mt 4242 3314 L
4206 3278 mt 4206 3350 L
3700 3000 mt 3772 3000 L
3736 2964 mt 3736 3036 L
4941 2562 mt 5013 2562 L
4977 2526 mt 4977 2598 L
4416 2972 mt 4488 2972 L
4452 2936 mt 4452 3008 L
4094 3405 mt 4166 3405 L
4130 3369 mt 4130 3441 L
3381 2722 mt 3453 2722 L
3417 2686 mt 3417 2758 L
3066 2475 mt 3138 2475 L
3102 2439 mt 3102 2511 L
3376 2180 mt 3448 2180 L
3412 2144 mt 3412 2216 L
3123 3877 mt 3195 3877 L
3159 3841 mt 3159 3913 L
3638 2844 mt 3710 2844 L
3674 2808 mt 3674 2880 L
2444 2125 mt 2516 2125 L
2480 2089 mt 2480 2161 L
2881 1966 mt 2953 1966 L
2917 1930 mt 2917 2002 L
4542 1434 mt 4614 1434 L
4578 1398 mt 4578 1470 L
4453 2904 mt 4525 2904 L
4489 2868 mt 4489 2940 L
4852 2051 mt 4924 2051 L
4888 2015 mt 4888 2087 L
3516 3425 mt 3588 3425 L
3552 3389 mt 3552 3461 L
5468 2279 mt 5540 2279 L
5504 2243 mt 5504 2315 L
3364 2593 mt 3436 2593 L
3400 2557 mt 3400 2629 L
2643 2497 mt 2715 2497 L
2679 2461 mt 2679 2533 L
2813 2854 mt 2885 2854 L
2849 2818 mt 2849 2890 L
4021 2488 mt 4093 2488 L
4057 2452 mt 4057 2524 L
3599 3331 mt 3671 3331 L
3635 3295 mt 3635 3367 L
2575 2170 mt 2647 2170 L
2611 2134 mt 2611 2206 L
3421 2329 mt 3493 2329 L
3457 2293 mt 3457 2365 L
3007 3980 mt 3079 3980 L
3043 3944 mt 3043 4016 L
4553 3540 mt 4625 3540 L
4589 3504 mt 4589 3576 L
4330 1898 mt 4402 1898 L
4366 1862 mt 4366 1934 L
3141 2145 mt 3213 2145 L
3177 2109 mt 3177 2181 L
2407 2946 mt 2479 2946 L
2443 2910 mt 2443 2982 L
4512 3198 mt 4584 3198 L
4548 3162 mt 4548 3234 L
3342 2700 mt 3414 2700 L
3378 2664 mt 3378 2736 L
3249 2288 mt 3321 2288 L
3285 2252 mt 3285 2324 L
2545 2062 mt 2617 2062 L
2581 2026 mt 2581 2098 L
4028 2646 mt 4100 2646 L
4064 2610 mt 4064 2682 L
2085 1476 mt 2157 1476 L
2121 1440 mt 2121 1512 L
3666 3112 mt 3738 3112 L
3702 3076 mt 3702 3148 L
3694 2830 mt 3766 2830 L
3730 2794 mt 3730 2866 L
2468 2736 mt 2540 2736 L
2504 2700 mt 2504 2772 L
2689 1502 mt 2761 1502 L
2725 1466 mt 2725 1538 L
5180 3446 mt 5252 3446 L
5216 3410 mt 5216 3482 L
3621 1634 mt 3693 1634 L
3657 1598 mt 3657 1670 L
2952 2745 mt 3024 2745 L
2988 2709 mt 2988 2781 L
2432 3774 mt 2504 3774 L
2468 3738 mt 2468 3810 L
3844 3257 mt 3916 3257 L
3880 3221 mt 3880 3293 L
2106 2806 mt 2178 2806 L
2142 2770 mt 2142 2842 L
3897 2432 mt 3969 2432 L
3933 2396 mt 3933 2468 L
3460 1121 mt 3532 1121 L
3496 1085 mt 3496 1157 L
4274 1917 mt 4346 1917 L
4310 1881 mt 4310 1953 L
3964 3553 mt 4036 3553 L
4000 3517 mt 4000 3589 L
3566 2935 mt 3638 2935 L
3602 2899 mt 3602 2971 L
2797 2194 mt 2869 2194 L
2833 2158 mt 2833 2230 L
3290 3415 mt 3362 3415 L
3326 3379 mt 3326 3451 L
3521 3164 mt 3593 3164 L
3557 3128 mt 3557 3200 L
2456 1489 mt 2528 1489 L
2492 1453 mt 2492 1525 L
3370 2584 mt 3442 2584 L
3406 2548 mt 3406 2620 L
3284 1388 mt 3356 1388 L
3320 1352 mt 3320 1424 L
4347 4616 mt 4419 4616 L
4383 4580 mt 4383 4652 L
3838 1643 mt 3910 1643 L
3874 1607 mt 3874 1679 L
3616 2392 mt 3688 2392 L
3652 2356 mt 3652 2428 L
4444 2440 mt 4516 2440 L
4480 2404 mt 4480 2476 L
2993 1885 mt 3065 1885 L
3029 1849 mt 3029 1921 L
2723 2727 mt 2795 2727 L
2759 2691 mt 2759 2763 L
1619 2567 mt 1691 2567 L
1655 2531 mt 1655 2603 L
4706 2571 mt 4778 2571 L
4742 2535 mt 4742 2607 L
gs 899 414 5363 4203 rc
gr

0 sg
2822 5104 mt 
(\(F,DCTb,MLP\)) s
 482 3277 mt  -90 rotate
(\(S,SSC,GMM\)) s
90 rotate
2975  223 mt 
(Corr = 0.03) s

end %%Color Dict

eplot
%%EndObject

epage
end

showpage

%%Trailer
%%EOF
