%!PS-Adobe-3.0 EPSF-3.0
%%Creator: MATLAB, The Mathworks, Inc. Version 7.7.0.471 (R2008b). Operating System: Microsoft Windows XP.
%%Title: Pictures\main_zoo_mvar_analysis_data_BMI_xcorr_bmi_p2_k2_2_3.eps
%%CreationDate: 10/26/2009  05:44:43
%%DocumentNeededFonts: Helvetica
%%DocumentProcessColors: Cyan Magenta Yellow Black
%%LanguageLevel: 2
%%Pages: 1
%%BoundingBox:    32   180   546   616
%%EndComments

%%BeginProlog
% MathWorks dictionary
/MathWorks 160 dict begin
% definition operators
/bdef {bind def} bind def
/ldef {load def} bind def
/xdef {exch def} bdef
/xstore {exch store} bdef
% operator abbreviations
/c  /clip ldef
/cc /concat ldef
/cp /closepath ldef
/gr /grestore ldef
/gs /gsave ldef
/mt /moveto ldef
/np /newpath ldef
/cm /currentmatrix ldef
/sm /setmatrix ldef
/rm /rmoveto ldef
/rl /rlineto ldef
/s {show newpath} bdef
/sc {setcmykcolor} bdef
/sr /setrgbcolor ldef
/sg /setgray ldef
/w /setlinewidth ldef
/j /setlinejoin ldef
/cap /setlinecap ldef
/rc {rectclip} bdef
/rf {rectfill} bdef
% page state control
/pgsv () def
/bpage {/pgsv save def} bdef
/epage {pgsv restore} bdef
/bplot /gsave ldef
/eplot {stroke grestore} bdef
% orientation switch
/portraitMode 0 def /landscapeMode 1 def /rotateMode 2 def
% coordinate system mappings
/dpi2point 0 def
% font control
/FontSize 0 def
/FMS {/FontSize xstore findfont [FontSize 0 0 FontSize neg 0 0]
  makefont setfont} bdef
/ISOLatin1Encoding where {pop /WindowsLatin1Encoding 256 array bdef
ISOLatin1Encoding WindowsLatin1Encoding copy pop
/.notdef/.notdef/quotesinglbase/florin/quotedblbase/ellipsis/dagger
/daggerdbl/circumflex/perthousand/Scaron/guilsinglleft/OE/.notdef/.notdef
/.notdef/.notdef/quoteleft/quoteright/quotedblleft/quotedblright/bullet
/endash/emdash/tilde/trademark/scaron/guilsinglright/oe/.notdef/.notdef
/Ydieresis WindowsLatin1Encoding 128 32 getinterval astore pop}
{/WindowsLatin1Encoding StandardEncoding bdef} ifelse
/reencode {exch dup where {pop load} {pop StandardEncoding} ifelse
  exch dup 3 1 roll findfont dup length dict begin
  { 1 index /FID ne {def}{pop pop} ifelse } forall
  /Encoding exch def currentdict end definefont pop} bdef
/isroman {findfont /CharStrings get /Agrave known} bdef
/FMSR {3 1 roll 1 index dup isroman {reencode} {pop pop} ifelse
  exch FMS} bdef
/csm {1 dpi2point div -1 dpi2point div scale neg translate
 dup landscapeMode eq {pop -90 rotate}
  {rotateMode eq {90 rotate} if} ifelse} bdef
% line types: solid, dotted, dashed, dotdash
/SO { [] 0 setdash } bdef
/DO { [.5 dpi2point mul 4 dpi2point mul] 0 setdash } bdef
/DA { [6 dpi2point mul] 0 setdash } bdef
/DD { [.5 dpi2point mul 4 dpi2point mul 6 dpi2point mul 4
  dpi2point mul] 0 setdash } bdef
% macros for lines and objects
/L {lineto stroke} bdef
/MP {3 1 roll moveto 1 sub {rlineto} repeat} bdef
/AP {{rlineto} repeat} bdef
/PDlw -1 def
/W {/PDlw currentlinewidth def setlinewidth} def
/PP {closepath eofill} bdef
/DP {closepath stroke} bdef
/MR {4 -2 roll moveto dup  0 exch rlineto exch 0 rlineto
  neg 0 exch rlineto closepath} bdef
/FR {MR stroke} bdef
/PR {MR fill} bdef
/L1i {{currentfile picstr readhexstring pop} image} bdef
/tMatrix matrix def
/MakeOval {newpath tMatrix currentmatrix pop translate scale
0 0 1 0 360 arc tMatrix setmatrix} bdef
/FO {MakeOval stroke} bdef
/PO {MakeOval fill} bdef
/PD {currentlinewidth 2 div 0 360 arc fill
   PDlw -1 eq not {PDlw w /PDlw -1 def} if} def
/FA {newpath tMatrix currentmatrix pop translate scale
  0 0 1 5 -2 roll arc tMatrix setmatrix stroke} bdef
/PA {newpath tMatrix currentmatrix pop	translate 0 0 moveto scale
  0 0 1 5 -2 roll arc closepath tMatrix setmatrix fill} bdef
/FAn {newpath tMatrix currentmatrix pop translate scale
  0 0 1 5 -2 roll arcn tMatrix setmatrix stroke} bdef
/PAn {newpath tMatrix currentmatrix pop translate 0 0 moveto scale
  0 0 1 5 -2 roll arcn closepath tMatrix setmatrix fill} bdef
/vradius 0 def /hradius 0 def /lry 0 def
/lrx 0 def /uly 0 def /ulx 0 def /rad 0 def
/MRR {/vradius xdef /hradius xdef /lry xdef /lrx xdef /uly xdef
  /ulx xdef newpath tMatrix currentmatrix pop ulx hradius add uly
  vradius add translate hradius vradius scale 0 0 1 180 270 arc 
  tMatrix setmatrix lrx hradius sub uly vradius add translate
  hradius vradius scale 0 0 1 270 360 arc tMatrix setmatrix
  lrx hradius sub lry vradius sub translate hradius vradius scale
  0 0 1 0 90 arc tMatrix setmatrix ulx hradius add lry vradius sub
  translate hradius vradius scale 0 0 1 90 180 arc tMatrix setmatrix
  closepath} bdef
/FRR {MRR stroke } bdef
/PRR {MRR fill } bdef
/MlrRR {/lry xdef /lrx xdef /uly xdef /ulx xdef /rad lry uly sub 2 div def
  newpath tMatrix currentmatrix pop ulx rad add uly rad add translate
  rad rad scale 0 0 1 90 270 arc tMatrix setmatrix lrx rad sub lry rad
  sub translate rad rad scale 0 0 1 270 90 arc tMatrix setmatrix
  closepath} bdef
/FlrRR {MlrRR stroke } bdef
/PlrRR {MlrRR fill } bdef
/MtbRR {/lry xdef /lrx xdef /uly xdef /ulx xdef /rad lrx ulx sub 2 div def
  newpath tMatrix currentmatrix pop ulx rad add uly rad add translate
  rad rad scale 0 0 1 180 360 arc tMatrix setmatrix lrx rad sub lry rad
  sub translate rad rad scale 0 0 1 0 180 arc tMatrix setmatrix
  closepath} bdef
/FtbRR {MtbRR stroke } bdef
/PtbRR {MtbRR fill } bdef
/stri 6 array def /dtri 6 array def
/smat 6 array def /dmat 6 array def
/tmat1 6 array def /tmat2 6 array def /dif 3 array def
/asub {/ind2 exch def /ind1 exch def dup dup
  ind1 get exch ind2 get sub exch } bdef
/tri_to_matrix {
  2 0 asub 3 1 asub 4 0 asub 5 1 asub
  dup 0 get exch 1 get 7 -1 roll astore } bdef
/compute_transform {
  dmat dtri tri_to_matrix tmat1 invertmatrix 
  smat stri tri_to_matrix tmat2 concatmatrix } bdef
/ds {stri astore pop} bdef
/dt {dtri astore pop} bdef
/db {2 copy /cols xdef /rows xdef mul dup 3 mul string
  currentfile 
  3 index 0 eq {/ASCIIHexDecode filter}
  {/ASCII85Decode filter 3 index 2 eq {/RunLengthDecode filter} if }
  ifelse exch readstring pop
  dup 0 3 index getinterval /rbmap xdef
  dup 2 index dup getinterval /gbmap xdef
  1 index dup 2 mul exch getinterval /bbmap xdef pop pop}bdef
/it {gs np dtri aload pop moveto lineto lineto cp c
  cols rows 8 compute_transform 
  rbmap gbmap bbmap true 3 colorimage gr}bdef
/il {newpath moveto lineto stroke}bdef
currentdict end def
%%EndProlog

%%BeginSetup
MathWorks begin

0 cap

end
%%EndSetup

%%Page: 1 1
%%BeginPageSetup
%%PageBoundingBox:    32   180   546   616
MathWorks begin
bpage
%%EndPageSetup

%%BeginObject: obj1
bplot

/dpi2point 12 def
portraitMode 0216 7344 csm

  174   -48  6173  5231 rc
85 dict begin %Colortable dictionary
/c0 { 0.000000 0.000000 0.000000 sr} bdef
/c1 { 1.000000 1.000000 1.000000 sr} bdef
/c2 { 0.900000 0.000000 0.000000 sr} bdef
/c3 { 0.000000 0.820000 0.000000 sr} bdef
/c4 { 0.000000 0.000000 0.800000 sr} bdef
/c5 { 0.910000 0.820000 0.320000 sr} bdef
/c6 { 1.000000 0.260000 0.820000 sr} bdef
/c7 { 0.000000 0.820000 0.820000 sr} bdef
c0
1 j
1 sg
   0    0 6919 5187 rf
6 w
0 4203 5362 0 0 -4203 899 4616 4 MP
PP
-5362 0 0 4203 5362 0 0 -4203 899 4616 5 MP stroke
4 w
DO
SO
6 w
0 sg
 899  413 mt 6261  413 L
 899 4616 mt 6261 4616 L
6261 4616 mt 6261  413 L
 899 4616 mt  899  413 L
 899 4616 mt 6261 4616 L
 899 4616 mt  899  413 L
1960 4616 mt 1960 4562 L
1960  414 mt 1960  467 L
%%IncludeResource: font Helvetica
/Helvetica /WindowsLatin1Encoding 240 FMSR

1794 4873 mt 
(0.2) s
3035 4616 mt 3035 4562 L
3035  414 mt 3035  467 L
2869 4873 mt 
(0.4) s
4110 4616 mt 4110 4562 L
4110  414 mt 4110  467 L
3944 4873 mt 
(0.6) s
5185 4616 mt 5185 4562 L
5185  414 mt 5185  467 L
5019 4873 mt 
(0.8) s
 899 4195 mt  952 4195 L
6261 4195 mt 6207 4195 L
 531 4284 mt 
(0.1) s
 899 3775 mt  952 3775 L
6261 3775 mt 6207 3775 L
 531 3864 mt 
(0.2) s
 899 3355 mt  952 3355 L
6261 3355 mt 6207 3355 L
 531 3444 mt 
(0.3) s
 899 2935 mt  952 2935 L
6261 2935 mt 6207 2935 L
 531 3024 mt 
(0.4) s
 899 2515 mt  952 2515 L
6261 2515 mt 6207 2515 L
 531 2604 mt 
(0.5) s
 899 2094 mt  952 2094 L
6261 2094 mt 6207 2094 L
 531 2183 mt 
(0.6) s
 899 1674 mt  952 1674 L
6261 1674 mt 6207 1674 L
 531 1763 mt 
(0.7) s
 899 1254 mt  952 1254 L
6261 1254 mt 6207 1254 L
 531 1343 mt 
(0.8) s
 899  834 mt  952  834 L
6261  834 mt 6207  834 L
 531  923 mt 
(0.9) s
 899  413 mt 6261  413 L
 899 4616 mt 6261 4616 L
6261 4616 mt 6261  413 L
 899 4616 mt  899  413 L
gs 899 414 5363 4203 rc
gr

/c8 { 0.000000 0.000000 1.000000 sr} bdef
c8
6203  416 mt 6275  416 L
6239  380 mt 6239  452 L
6216  438 mt 6288  438 L
6252  402 mt 6252  474 L
1404 4045 mt 1476 4045 L
1440 4009 mt 1440 4081 L
6218  414 mt 6290  414 L
6254  378 mt 6254  450 L
6206  440 mt 6278  440 L
6242  404 mt 6242  476 L
5025 1298 mt 5097 1298 L
5061 1262 mt 5061 1334 L
5221  414 mt 5293  414 L
5257  378 mt 5257  450 L
4980  740 mt 5052  740 L
5016  704 mt 5016  776 L
6142  598 mt 6214  598 L
6178  562 mt 6178  634 L
2775 4201 mt 2847 4201 L
2811 4165 mt 2811 4237 L
6193  514 mt 6265  514 L
6229  478 mt 6229  550 L
5203  419 mt 5275  419 L
5239  383 mt 5239  455 L
4756 3822 mt 4828 3822 L
4792 3786 mt 4792 3858 L
6212  414 mt 6284  414 L
6248  378 mt 6248  450 L
6148  791 mt 6220  791 L
6184  755 mt 6184  827 L
2636 1478 mt 2708 1478 L
2672 1442 mt 2672 1514 L
6216  418 mt 6288  418 L
6252  382 mt 6252  454 L
3667  563 mt 3739  563 L
3703  527 mt 3703  599 L
5983 2615 mt 6055 2615 L
6019 2579 mt 6019 2651 L
2471  509 mt 2543  509 L
2507  473 mt 2507  545 L
4904 1066 mt 4976 1066 L
4940 1030 mt 4940 1102 L
4626  478 mt 4698  478 L
4662  442 mt 4662  514 L
5950  652 mt 6022  652 L
5986  616 mt 5986  688 L
5526  714 mt 5598  714 L
5562  678 mt 5562  750 L
5970 1524 mt 6042 1524 L
6006 1488 mt 6006 1560 L
5545 1099 mt 5617 1099 L
5581 1063 mt 5581 1135 L
5234 4481 mt 5306 4481 L
5270 4445 mt 5270 4517 L
5681 2848 mt 5753 2848 L
5717 2812 mt 5717 2884 L
6213  473 mt 6285  473 L
6249  437 mt 6249  509 L
6211  578 mt 6283  578 L
6247  542 mt 6247  614 L
6195  424 mt 6267  424 L
6231  388 mt 6231  460 L
4261  889 mt 4333  889 L
4297  853 mt 4297  925 L
6143 3523 mt 6215 3523 L
6179 3487 mt 6179 3559 L
6214 4587 mt 6286 4587 L
6250 4551 mt 6250 4623 L
5901  419 mt 5973  419 L
5937  383 mt 5937  455 L
5527 4447 mt 5599 4447 L
5563 4411 mt 5563 4483 L
6224  634 mt 6296  634 L
6260  598 mt 6260  670 L
5861  434 mt 5933  434 L
5897  398 mt 5897  470 L
5551 1670 mt 5623 1670 L
5587 1634 mt 5587 1706 L
6198  443 mt 6270  443 L
6234  407 mt 6234  479 L
2105 4215 mt 2177 4215 L
2141 4179 mt 2141 4251 L
6224  431 mt 6296  431 L
6260  395 mt 6260  467 L
6224 2295 mt 6296 2295 L
6260 2259 mt 6260 2331 L
6050  545 mt 6122  545 L
6086  509 mt 6086  581 L
6169 1290 mt 6241 1290 L
6205 1254 mt 6205 1326 L
5415 2463 mt 5487 2463 L
5451 2427 mt 5451 2499 L
6145  661 mt 6217  661 L
6181  625 mt 6181  697 L
5917 2028 mt 5989 2028 L
5953 1992 mt 5953 2064 L
6195 4491 mt 6267 4491 L
6231 4455 mt 6231 4527 L
4145 1428 mt 4217 1428 L
4181 1392 mt 4181 1464 L
4816  453 mt 4888  453 L
4852  417 mt 4852  489 L
5834  453 mt 5906  453 L
5870  417 mt 5870  489 L
6223  436 mt 6295  436 L
6259  400 mt 6259  472 L
3217 3975 mt 3289 3975 L
3253 3939 mt 3253 4011 L
5172  560 mt 5244  560 L
5208  524 mt 5208  596 L
5850 3990 mt 5922 3990 L
5886 3954 mt 5886 4026 L
6063  599 mt 6135  599 L
6099  563 mt 6099  635 L
4659 1711 mt 4731 1711 L
4695 1675 mt 4695 1747 L
5712  802 mt 5784  802 L
5748  766 mt 5748  838 L
6008 3596 mt 6080 3596 L
6044 3560 mt 6044 3632 L
5549 4162 mt 5621 4162 L
5585 4126 mt 5585 4198 L
5985 1629 mt 6057 1629 L
6021 1593 mt 6021 1665 L
 998  945 mt 1070  945 L
1034  909 mt 1034  981 L
6100 2158 mt 6172 2158 L
6136 2122 mt 6136 2194 L
3513  417 mt 3585  417 L
3549  381 mt 3549  453 L
 882 1058 mt  954 1058 L
 918 1022 mt  918 1094 L
6103  500 mt 6175  500 L
6139  464 mt 6139  536 L
6219  711 mt 6291  711 L
6255  675 mt 6255  747 L
5796  672 mt 5868  672 L
5832  636 mt 5832  708 L
6214  788 mt 6286  788 L
6250  752 mt 6250  824 L
5630  615 mt 5702  615 L
5666  579 mt 5666  651 L
3904 4422 mt 3976 4422 L
3940 4386 mt 3940 4458 L
6214 2381 mt 6286 2381 L
6250 2345 mt 6250 2417 L
6205 1609 mt 6277 1609 L
6241 1573 mt 6241 1645 L
6003  566 mt 6075  566 L
6039  530 mt 6039  602 L
4392  782 mt 4464  782 L
4428  746 mt 4428  818 L
5889 4539 mt 5961 4539 L
5925 4503 mt 5925 4575 L
6223 2720 mt 6295 2720 L
6259 2684 mt 6259 2756 L
5685  432 mt 5757  432 L
5721  396 mt 5721  468 L
6121 1216 mt 6193 1216 L
6157 1180 mt 6157 1252 L
4863 1005 mt 4935 1005 L
4899  969 mt 4899 1041 L
6180 1460 mt 6252 1460 L
6216 1424 mt 6216 1496 L
5657 1995 mt 5729 1995 L
5693 1959 mt 5693 2031 L
6174  564 mt 6246  564 L
6210  528 mt 6210  600 L
3926  800 mt 3998  800 L
3962  764 mt 3962  836 L
2419  504 mt 2491  504 L
2455  468 mt 2455  540 L
6222  414 mt 6294  414 L
6258  378 mt 6258  450 L
6193  966 mt 6265  966 L
6229  930 mt 6229 1002 L
4678  578 mt 4750  578 L
4714  542 mt 4714  614 L
6082  436 mt 6154  436 L
6118  400 mt 6118  472 L
6203  442 mt 6275  442 L
6239  406 mt 6239  478 L
6214  848 mt 6286  848 L
6250  812 mt 6250  884 L
5733  455 mt 5805  455 L
5769  419 mt 5769  491 L
4013 2311 mt 4085 2311 L
4049 2275 mt 4049 2347 L
5878 1074 mt 5950 1074 L
5914 1038 mt 5914 1110 L
6174 1087 mt 6246 1087 L
6210 1051 mt 6210 1123 L
5758  857 mt 5830  857 L
5794  821 mt 5794  893 L
5778  450 mt 5850  450 L
5814  414 mt 5814  486 L
5649  416 mt 5721  416 L
5685  380 mt 5685  452 L
5808 2587 mt 5880 2587 L
5844 2551 mt 5844 2623 L
5259 1942 mt 5331 1942 L
5295 1906 mt 5295 1978 L
6219 1118 mt 6291 1118 L
6255 1082 mt 6255 1154 L
2860 4065 mt 2932 4065 L
2896 4029 mt 2896 4101 L
5263 3045 mt 5335 3045 L
5299 3009 mt 5299 3081 L
2125 1741 mt 2197 1741 L
2161 1705 mt 2161 1777 L
2161  430 mt 2233  430 L
2197  394 mt 2197  466 L
5334  420 mt 5406  420 L
5370  384 mt 5370  456 L
6206  960 mt 6278  960 L
6242  924 mt 6242  996 L
6042  475 mt 6114  475 L
6078  439 mt 6078  511 L
4579  414 mt 4651  414 L
4615  378 mt 4615  450 L
2957  451 mt 3029  451 L
2993  415 mt 2993  487 L
 935 1628 mt 1007 1628 L
 971 1592 mt  971 1664 L
5161  419 mt 5233  419 L
5197  383 mt 5197  455 L
5778  493 mt 5850  493 L
5814  457 mt 5814  529 L
3982 1702 mt 4054 1702 L
4018 1666 mt 4018 1738 L
5987  463 mt 6059  463 L
6023  427 mt 6023  499 L
6210  461 mt 6282  461 L
6246  425 mt 6246  497 L
5049  674 mt 5121  674 L
5085  638 mt 5085  710 L
3738  470 mt 3810  470 L
3774  434 mt 3774  506 L
6215  418 mt 6287  418 L
6251  382 mt 6251  454 L
6049  767 mt 6121  767 L
6085  731 mt 6085  803 L
2237 4539 mt 2309 4539 L
2273 4503 mt 2273 4575 L
6027  465 mt 6099  465 L
6063  429 mt 6063  501 L
6192 3335 mt 6264 3335 L
6228 3299 mt 6228 3371 L
5661  708 mt 5733  708 L
5697  672 mt 5697  744 L
6222  423 mt 6294  423 L
6258  387 mt 6258  459 L
6176 1130 mt 6248 1130 L
6212 1094 mt 6212 1166 L
5335  447 mt 5407  447 L
5371  411 mt 5371  483 L
 945 4079 mt 1017 4079 L
 981 4043 mt  981 4115 L
1168 2647 mt 1240 2647 L
1204 2611 mt 1204 2683 L
5931  415 mt 6003  415 L
5967  379 mt 5967  451 L
4945  424 mt 5017  424 L
4981  388 mt 4981  460 L
 941  523 mt 1013  523 L
 977  487 mt  977  559 L
6115  414 mt 6187  414 L
6151  378 mt 6151  450 L
6084 4386 mt 6156 4386 L
6120 4350 mt 6120 4422 L
5100 4576 mt 5172 4576 L
5136 4540 mt 5136 4612 L
4196  700 mt 4268  700 L
4232  664 mt 4232  736 L
5404  798 mt 5476  798 L
5440  762 mt 5440  834 L
6181 3425 mt 6253 3425 L
6217 3389 mt 6217 3461 L
5668 1840 mt 5740 1840 L
5704 1804 mt 5704 1876 L
5852 1115 mt 5924 1115 L
5888 1079 mt 5888 1151 L
6188 2109 mt 6260 2109 L
6224 2073 mt 6224 2145 L
5456 4421 mt 5528 4421 L
5492 4385 mt 5492 4457 L
6214 2726 mt 6286 2726 L
6250 2690 mt 6250 2762 L
5025 1543 mt 5097 1543 L
5061 1507 mt 5061 1579 L
3773  717 mt 3845  717 L
3809  681 mt 3809  753 L
4777  580 mt 4849  580 L
4813  544 mt 4813  616 L
5054  659 mt 5126  659 L
5090  623 mt 5090  695 L
6190 3530 mt 6262 3530 L
6226 3494 mt 6226 3566 L
6108 3073 mt 6180 3073 L
6144 3037 mt 6144 3109 L
6062  544 mt 6134  544 L
6098  508 mt 6098  580 L
6053  598 mt 6125  598 L
6089  562 mt 6089  634 L
6025  667 mt 6097  667 L
6061  631 mt 6061  703 L
 874 1442 mt  946 1442 L
 910 1406 mt  910 1478 L
6190  871 mt 6262  871 L
6226  835 mt 6226  907 L
6223  445 mt 6295  445 L
6259  409 mt 6259  481 L
 923 1907 mt  995 1907 L
 959 1871 mt  959 1943 L
6093  430 mt 6165  430 L
6129  394 mt 6129  466 L
4619  788 mt 4691  788 L
4655  752 mt 4655  824 L
 863  426 mt  935  426 L
 899  390 mt  899  462 L
6038 3730 mt 6110 3730 L
6074 3694 mt 6074 3766 L
1827  529 mt 1899  529 L
1863  493 mt 1863  565 L
6168  653 mt 6240  653 L
6204  617 mt 6204  689 L
4345  546 mt 4417  546 L
4381  510 mt 4381  582 L
6222  424 mt 6294  424 L
6258  388 mt 6258  460 L
5091 3491 mt 5163 3491 L
5127 3455 mt 5127 3527 L
4495  684 mt 4567  684 L
4531  648 mt 4531  720 L
5331 1938 mt 5403 1938 L
5367 1902 mt 5367 1974 L
6213 4092 mt 6285 4092 L
6249 4056 mt 6249 4128 L
6225  586 mt 6297  586 L
6261  550 mt 6261  622 L
4426  435 mt 4498  435 L
4462  399 mt 4462  471 L
6148  654 mt 6220  654 L
6184  618 mt 6184  690 L
6200  669 mt 6272  669 L
6236  633 mt 6236  705 L
6212  434 mt 6284  434 L
6248  398 mt 6248  470 L
1276  480 mt 1348  480 L
1312  444 mt 1312  516 L
5832  432 mt 5904  432 L
5868  396 mt 5868  468 L
5901  777 mt 5973  777 L
5937  741 mt 5937  813 L
1071  470 mt 1143  470 L
1107  434 mt 1107  506 L
5592  874 mt 5664  874 L
5628  838 mt 5628  910 L
4173  509 mt 4245  509 L
4209  473 mt 4209  545 L
5689 1875 mt 5761 1875 L
5725 1839 mt 5725 1911 L
1345  422 mt 1417  422 L
1381  386 mt 1381  458 L
5643 1251 mt 5715 1251 L
5679 1215 mt 5679 1287 L
5692  823 mt 5764  823 L
5728  787 mt 5728  859 L
3040  417 mt 3112  417 L
3076  381 mt 3076  453 L
1160 3709 mt 1232 3709 L
1196 3673 mt 1196 3745 L
3699  425 mt 3771  425 L
3735  389 mt 3735  461 L
5456 4477 mt 5528 4477 L
5492 4441 mt 5492 4513 L
6218 3385 mt 6290 3385 L
6254 3349 mt 6254 3421 L
3648  418 mt 3720  418 L
3684  382 mt 3684  454 L
1544 4588 mt 1616 4588 L
1580 4552 mt 1580 4624 L
4655 2336 mt 4727 2336 L
4691 2300 mt 4691 2372 L
3981 2118 mt 4053 2118 L
4017 2082 mt 4017 2154 L
5663 1630 mt 5735 1630 L
5699 1594 mt 5699 1666 L
6220  698 mt 6292  698 L
6256  662 mt 6256  734 L
6224  562 mt 6296  562 L
6260  526 mt 6260  598 L
6024 1692 mt 6096 1692 L
6060 1656 mt 6060 1728 L
5993  941 mt 6065  941 L
6029  905 mt 6029  977 L
1832  849 mt 1904  849 L
1868  813 mt 1868  885 L
6074  450 mt 6146  450 L
6110  414 mt 6110  486 L
5756  431 mt 5828  431 L
5792  395 mt 5792  467 L
6222  601 mt 6294  601 L
6258  565 mt 6258  637 L
6052 3372 mt 6124 3372 L
6088 3336 mt 6088 3408 L
5899 2274 mt 5971 2274 L
5935 2238 mt 5935 2310 L
6105  421 mt 6177  421 L
6141  385 mt 6141  457 L
4595 1997 mt 4667 1997 L
4631 1961 mt 4631 2033 L
5096  700 mt 5168  700 L
5132  664 mt 5132  736 L
6185 1718 mt 6257 1718 L
6221 1682 mt 6221 1754 L
6121  456 mt 6193  456 L
6157  420 mt 6157  492 L
3505 4333 mt 3577 4333 L
3541 4297 mt 3541 4369 L
6220  790 mt 6292  790 L
6256  754 mt 6256  826 L
6045  500 mt 6117  500 L
6081  464 mt 6081  536 L
6168 1934 mt 6240 1934 L
6204 1898 mt 6204 1970 L
5823 2482 mt 5895 2482 L
5859 2446 mt 5859 2518 L
5697 1694 mt 5769 1694 L
5733 1658 mt 5733 1730 L
 874  549 mt  946  549 L
 910  513 mt  910  585 L
4625  953 mt 4697  953 L
4661  917 mt 4661  989 L
6162  442 mt 6234  442 L
6198  406 mt 6198  478 L
 911 2808 mt  983 2808 L
 947 2772 mt  947 2844 L
5655  639 mt 5727  639 L
5691  603 mt 5691  675 L
5838 2319 mt 5910 2319 L
5874 2283 mt 5874 2355 L
5144  989 mt 5216  989 L
5180  953 mt 5180 1025 L
6206 2478 mt 6278 2478 L
6242 2442 mt 6242 2514 L
5876 3170 mt 5948 3170 L
5912 3134 mt 5912 3206 L
6216  430 mt 6288  430 L
6252  394 mt 6252  466 L
5655 1754 mt 5727 1754 L
5691 1718 mt 5691 1790 L
3347  414 mt 3419  414 L
3383  378 mt 3383  450 L
6224  539 mt 6296  539 L
6260  503 mt 6260  575 L
6206  678 mt 6278  678 L
6242  642 mt 6242  714 L
4301  906 mt 4373  906 L
4337  870 mt 4337  942 L
6011 1394 mt 6083 1394 L
6047 1358 mt 6047 1430 L
6010 4205 mt 6082 4205 L
6046 4169 mt 6046 4241 L
6018  638 mt 6090  638 L
6054  602 mt 6054  674 L
6081 3667 mt 6153 3667 L
6117 3631 mt 6117 3703 L
6178  624 mt 6250  624 L
6214  588 mt 6214  660 L
5755 4044 mt 5827 4044 L
5791 4008 mt 5791 4080 L
4817  622 mt 4889  622 L
4853  586 mt 4853  658 L
4023  419 mt 4095  419 L
4059  383 mt 4059  455 L
3326  478 mt 3398  478 L
3362  442 mt 3362  514 L
6023  414 mt 6095  414 L
6059  378 mt 6059  450 L
4600  882 mt 4672  882 L
4636  846 mt 4636  918 L
5798 1780 mt 5870 1780 L
5834 1744 mt 5834 1816 L
6038  475 mt 6110  475 L
6074  439 mt 6074  511 L
4650 3478 mt 4722 3478 L
4686 3442 mt 4686 3514 L
6219  852 mt 6291  852 L
6255  816 mt 6255  888 L
5767 1014 mt 5839 1014 L
5803  978 mt 5803 1050 L
5626  790 mt 5698  790 L
5662  754 mt 5662  826 L
5026  948 mt 5098  948 L
5062  912 mt 5062  984 L
6030 1224 mt 6102 1224 L
6066 1188 mt 6066 1260 L
5065 2610 mt 5137 2610 L
5101 2574 mt 5101 2646 L
2393  545 mt 2465  545 L
2429  509 mt 2429  581 L
6165 1368 mt 6237 1368 L
6201 1332 mt 6201 1404 L
5647 4478 mt 5719 4478 L
5683 4442 mt 5683 4514 L
6050 3519 mt 6122 3519 L
6086 3483 mt 6086 3555 L
5240  923 mt 5312  923 L
5276  887 mt 5276  959 L
2180 3707 mt 2252 3707 L
2216 3671 mt 2216 3743 L
6058  420 mt 6130  420 L
6094  384 mt 6094  456 L
3755  781 mt 3827  781 L
3791  745 mt 3791  817 L
5996  445 mt 6068  445 L
6032  409 mt 6032  481 L
5978  880 mt 6050  880 L
6014  844 mt 6014  916 L
4777  444 mt 4849  444 L
4813  408 mt 4813  480 L
6221 3004 mt 6293 3004 L
6257 2968 mt 6257 3040 L
4562 3142 mt 4634 3142 L
4598 3106 mt 4598 3178 L
5784 2083 mt 5856 2083 L
5820 2047 mt 5820 2119 L
5885  659 mt 5957  659 L
5921  623 mt 5921  695 L
5393  873 mt 5465  873 L
5429  837 mt 5429  909 L
5453  454 mt 5525  454 L
5489  418 mt 5489  490 L
4846 1052 mt 4918 1052 L
4882 1016 mt 4882 1088 L
5198  421 mt 5270  421 L
5234  385 mt 5234  457 L
6208 1129 mt 6280 1129 L
6244 1093 mt 6244 1165 L
5851 3063 mt 5923 3063 L
5887 3027 mt 5887 3099 L
5661 1043 mt 5733 1043 L
5697 1007 mt 5697 1079 L
2687  466 mt 2759  466 L
2723  430 mt 2723  502 L
5280  453 mt 5352  453 L
5316  417 mt 5316  489 L
5985  497 mt 6057  497 L
6021  461 mt 6021  533 L
4233 1235 mt 4305 1235 L
4269 1199 mt 4269 1271 L
5104  424 mt 5176  424 L
5140  388 mt 5140  460 L
6224  791 mt 6296  791 L
6260  755 mt 6260  827 L
6081  621 mt 6153  621 L
6117  585 mt 6117  657 L
6201  425 mt 6273  425 L
6237  389 mt 6237  461 L
5431 1360 mt 5503 1360 L
5467 1324 mt 5467 1396 L
6202 1300 mt 6274 1300 L
6238 1264 mt 6238 1336 L
5805 4431 mt 5877 4431 L
5841 4395 mt 5841 4467 L
6202 3378 mt 6274 3378 L
6238 3342 mt 6238 3414 L
6119  435 mt 6191  435 L
6155  399 mt 6155  471 L
5524 1271 mt 5596 1271 L
5560 1235 mt 5560 1307 L
6095  596 mt 6167  596 L
6131  560 mt 6131  632 L
6223  414 mt 6295  414 L
6259  378 mt 6259  450 L
5549  467 mt 5621  467 L
5585  431 mt 5585  503 L
6001 1760 mt 6073 1760 L
6037 1724 mt 6037 1796 L
6220  612 mt 6292  612 L
6256  576 mt 6256  648 L
6224  504 mt 6296  504 L
6260  468 mt 6260  540 L
4726 2328 mt 4798 2328 L
4762 2292 mt 4762 2364 L
1658  846 mt 1730  846 L
1694  810 mt 1694  882 L
6020 3753 mt 6092 3753 L
6056 3717 mt 6056 3789 L
1089  991 mt 1161  991 L
1125  955 mt 1125 1027 L
4307  996 mt 4379  996 L
4343  960 mt 4343 1032 L
5980  923 mt 6052  923 L
6016  887 mt 6016  959 L
4887 2544 mt 4959 2544 L
4923 2508 mt 4923 2580 L
5522 4602 mt 5594 4602 L
5558 4566 mt 5558 4638 L
6058  446 mt 6130  446 L
6094  410 mt 6094  482 L
5144 1785 mt 5216 1785 L
5180 1749 mt 5180 1821 L
6207 1578 mt 6279 1578 L
6243 1542 mt 6243 1614 L
5011 2921 mt 5083 2921 L
5047 2885 mt 5047 2957 L
6008  422 mt 6080  422 L
6044  386 mt 6044  458 L
4775 4261 mt 4847 4261 L
4811 4225 mt 4811 4297 L
2268 1426 mt 2340 1426 L
2304 1390 mt 2304 1462 L
6201 4159 mt 6273 4159 L
6237 4123 mt 6237 4195 L
1235  501 mt 1307  501 L
1271  465 mt 1271  537 L
4453 2130 mt 4525 2130 L
4489 2094 mt 4489 2166 L
5520 1626 mt 5592 1626 L
5556 1590 mt 5556 1662 L
3127  414 mt 3199  414 L
3163  378 mt 3163  450 L
2118 1770 mt 2190 1770 L
2154 1734 mt 2154 1806 L
5983  453 mt 6055  453 L
6019  417 mt 6019  489 L
6016 2131 mt 6088 2131 L
6052 2095 mt 6052 2167 L
6108 2356 mt 6180 2356 L
6144 2320 mt 6144 2392 L
6223  419 mt 6295  419 L
6259  383 mt 6259  455 L
5498  419 mt 5570  419 L
5534  383 mt 5534  455 L
5878  510 mt 5950  510 L
5914  474 mt 5914  546 L
6189 4146 mt 6261 4146 L
6225 4110 mt 6225 4182 L
6219  453 mt 6291  453 L
6255  417 mt 6255  489 L
6121 4588 mt 6193 4588 L
6157 4552 mt 6157 4624 L
5754  538 mt 5826  538 L
5790  502 mt 5790  574 L
6221  489 mt 6293  489 L
6257  453 mt 6257  525 L
5803 1693 mt 5875 1693 L
5839 1657 mt 5839 1729 L
6222  512 mt 6294  512 L
6258  476 mt 6258  548 L
 936 2100 mt 1008 2100 L
 972 2064 mt  972 2136 L
 863 1772 mt  935 1772 L
 899 1736 mt  899 1808 L
 922 2826 mt  994 2826 L
 958 2790 mt  958 2862 L
4073  670 mt 4145  670 L
4109  634 mt 4109  706 L
6038 1081 mt 6110 1081 L
6074 1045 mt 6074 1117 L
4711 2620 mt 4783 2620 L
4747 2584 mt 4747 2656 L
5957  604 mt 6029  604 L
5993  568 mt 5993  640 L
1123 4246 mt 1195 4246 L
1159 4210 mt 1159 4282 L
5902 1995 mt 5974 1995 L
5938 1959 mt 5938 2031 L
4704 4558 mt 4776 4558 L
4740 4522 mt 4740 4594 L
6186 3919 mt 6258 3919 L
6222 3883 mt 6222 3955 L
5868 2420 mt 5940 2420 L
5904 2384 mt 5904 2456 L
6141  425 mt 6213  425 L
6177  389 mt 6177  461 L
6205 4052 mt 6277 4052 L
6241 4016 mt 6241 4088 L
5971 4198 mt 6043 4198 L
6007 4162 mt 6007 4234 L
6138  780 mt 6210  780 L
6174  744 mt 6174  816 L
 912  963 mt  984  963 L
 948  927 mt  948  999 L
6208 4467 mt 6280 4467 L
6244 4431 mt 6244 4503 L
5472 1177 mt 5544 1177 L
5508 1141 mt 5508 1213 L
6034 1517 mt 6106 1517 L
6070 1481 mt 6070 1553 L
4540 1565 mt 4612 1565 L
4576 1529 mt 4576 1601 L
6224  707 mt 6296  707 L
6260  671 mt 6260  743 L
2956 1221 mt 3028 1221 L
2992 1185 mt 2992 1257 L
2794  813 mt 2866  813 L
2830  777 mt 2830  849 L
6006  589 mt 6078  589 L
6042  553 mt 6042  625 L
4132 4455 mt 4204 4455 L
4168 4419 mt 4168 4491 L
 899 1185 mt  971 1185 L
 935 1149 mt  935 1221 L
6180  492 mt 6252  492 L
6216  456 mt 6216  528 L
6192 2070 mt 6264 2070 L
6228 2034 mt 6228 2106 L
4431 2282 mt 4503 2282 L
4467 2246 mt 4467 2318 L
3178 4249 mt 3250 4249 L
3214 4213 mt 3214 4285 L
5803  750 mt 5875  750 L
5839  714 mt 5839  786 L
5993  529 mt 6065  529 L
6029  493 mt 6029  565 L
6034 3248 mt 6106 3248 L
6070 3212 mt 6070 3284 L
3810  962 mt 3882  962 L
3846  926 mt 3846  998 L
6082  767 mt 6154  767 L
6118  731 mt 6118  803 L
5543  415 mt 5615  415 L
5579  379 mt 5579  451 L
6171  531 mt 6243  531 L
6207  495 mt 6207  567 L
3970  598 mt 4042  598 L
4006  562 mt 4006  634 L
1373 1155 mt 1445 1155 L
1409 1119 mt 1409 1191 L
4559  679 mt 4631  679 L
4595  643 mt 4595  715 L
4205 2432 mt 4277 2432 L
4241 2396 mt 4241 2468 L
3256  790 mt 3328  790 L
3292  754 mt 3292  826 L
6213  785 mt 6285  785 L
6249  749 mt 6249  821 L
5788  657 mt 5860  657 L
5824  621 mt 5824  693 L
6192  504 mt 6264  504 L
6228  468 mt 6228  540 L
6029  559 mt 6101  559 L
6065  523 mt 6065  595 L
5330  711 mt 5402  711 L
5366  675 mt 5366  747 L
6185  494 mt 6257  494 L
6221  458 mt 6221  530 L
6218  623 mt 6290  623 L
6254  587 mt 6254  659 L
gs 899 414 5363 4203 rc
gr

5939  592 mt 6011  592 L
5975  556 mt 5975  628 L
5869 4235 mt 5941 4235 L
5905 4199 mt 5905 4271 L
6217  574 mt 6289  574 L
6253  538 mt 6253  610 L
1693  550 mt 1765  550 L
1729  514 mt 1729  586 L
4187  558 mt 4259  558 L
4223  522 mt 4223  594 L
6155  474 mt 6227  474 L
6191  438 mt 6191  510 L
6180 4027 mt 6252 4027 L
6216 3991 mt 6216 4063 L
6173  427 mt 6245  427 L
6209  391 mt 6209  463 L
2501  533 mt 2573  533 L
2537  497 mt 2537  569 L
1404 4599 mt 1476 4599 L
1440 4563 mt 1440 4635 L
6064 4616 mt 6136 4616 L
6100 4580 mt 6100 4652 L
3543 2104 mt 3615 2104 L
3579 2068 mt 3579 2140 L
6222  459 mt 6294  459 L
6258  423 mt 6258  495 L
4279 1443 mt 4351 1443 L
4315 1407 mt 4315 1479 L
6219 1579 mt 6291 1579 L
6255 1543 mt 6255 1615 L
3227 4046 mt 3299 4046 L
3263 4010 mt 3263 4082 L
6191  735 mt 6263  735 L
6227  699 mt 6227  771 L
6212 1219 mt 6284 1219 L
6248 1183 mt 6248 1255 L
6224  530 mt 6296  530 L
6260  494 mt 6260  566 L
 910 1749 mt  982 1749 L
 946 1713 mt  946 1785 L
6181  431 mt 6253  431 L
6217  395 mt 6217  467 L
6081  525 mt 6153  525 L
6117  489 mt 6117  561 L
5675  652 mt 5747  652 L
5711  616 mt 5711  688 L
gs 899 414 5363 4203 rc
gr

0 sg
2752 5104 mt 
(\(S,LFCC,GMM\)) s
 422 3259 mt  -90 rotate
(\(S,PAC,GMM\)) s
90 rotate
2975  223 mt 
(Corr = 0.16) s

end %%Color Dict

eplot
%%EndObject

epage
end

showpage

%%Trailer
%%EOF
