%!PS-Adobe-3.0 EPSF-3.0
%%Creator: MATLAB, The Mathworks, Inc. Version 7.7.0.471 (R2008b). Operating System: Microsoft Windows XP.
%%Title: Pictures\main_zoo_mvar_analysis_data_BMI_xcorr_bmig_p2_k2_1_4.eps
%%CreationDate: 10/26/2009  05:45:42
%%DocumentNeededFonts: Helvetica
%%DocumentProcessColors: Cyan Magenta Yellow Black
%%LanguageLevel: 2
%%Pages: 1
%%BoundingBox:    37   180   549   616
%%EndComments

%%BeginProlog
% MathWorks dictionary
/MathWorks 160 dict begin
% definition operators
/bdef {bind def} bind def
/ldef {load def} bind def
/xdef {exch def} bdef
/xstore {exch store} bdef
% operator abbreviations
/c  /clip ldef
/cc /concat ldef
/cp /closepath ldef
/gr /grestore ldef
/gs /gsave ldef
/mt /moveto ldef
/np /newpath ldef
/cm /currentmatrix ldef
/sm /setmatrix ldef
/rm /rmoveto ldef
/rl /rlineto ldef
/s {show newpath} bdef
/sc {setcmykcolor} bdef
/sr /setrgbcolor ldef
/sg /setgray ldef
/w /setlinewidth ldef
/j /setlinejoin ldef
/cap /setlinecap ldef
/rc {rectclip} bdef
/rf {rectfill} bdef
% page state control
/pgsv () def
/bpage {/pgsv save def} bdef
/epage {pgsv restore} bdef
/bplot /gsave ldef
/eplot {stroke grestore} bdef
% orientation switch
/portraitMode 0 def /landscapeMode 1 def /rotateMode 2 def
% coordinate system mappings
/dpi2point 0 def
% font control
/FontSize 0 def
/FMS {/FontSize xstore findfont [FontSize 0 0 FontSize neg 0 0]
  makefont setfont} bdef
/ISOLatin1Encoding where {pop /WindowsLatin1Encoding 256 array bdef
ISOLatin1Encoding WindowsLatin1Encoding copy pop
/.notdef/.notdef/quotesinglbase/florin/quotedblbase/ellipsis/dagger
/daggerdbl/circumflex/perthousand/Scaron/guilsinglleft/OE/.notdef/.notdef
/.notdef/.notdef/quoteleft/quoteright/quotedblleft/quotedblright/bullet
/endash/emdash/tilde/trademark/scaron/guilsinglright/oe/.notdef/.notdef
/Ydieresis WindowsLatin1Encoding 128 32 getinterval astore pop}
{/WindowsLatin1Encoding StandardEncoding bdef} ifelse
/reencode {exch dup where {pop load} {pop StandardEncoding} ifelse
  exch dup 3 1 roll findfont dup length dict begin
  { 1 index /FID ne {def}{pop pop} ifelse } forall
  /Encoding exch def currentdict end definefont pop} bdef
/isroman {findfont /CharStrings get /Agrave known} bdef
/FMSR {3 1 roll 1 index dup isroman {reencode} {pop pop} ifelse
  exch FMS} bdef
/csm {1 dpi2point div -1 dpi2point div scale neg translate
 dup landscapeMode eq {pop -90 rotate}
  {rotateMode eq {90 rotate} if} ifelse} bdef
% line types: solid, dotted, dashed, dotdash
/SO { [] 0 setdash } bdef
/DO { [.5 dpi2point mul 4 dpi2point mul] 0 setdash } bdef
/DA { [6 dpi2point mul] 0 setdash } bdef
/DD { [.5 dpi2point mul 4 dpi2point mul 6 dpi2point mul 4
  dpi2point mul] 0 setdash } bdef
% macros for lines and objects
/L {lineto stroke} bdef
/MP {3 1 roll moveto 1 sub {rlineto} repeat} bdef
/AP {{rlineto} repeat} bdef
/PDlw -1 def
/W {/PDlw currentlinewidth def setlinewidth} def
/PP {closepath eofill} bdef
/DP {closepath stroke} bdef
/MR {4 -2 roll moveto dup  0 exch rlineto exch 0 rlineto
  neg 0 exch rlineto closepath} bdef
/FR {MR stroke} bdef
/PR {MR fill} bdef
/L1i {{currentfile picstr readhexstring pop} image} bdef
/tMatrix matrix def
/MakeOval {newpath tMatrix currentmatrix pop translate scale
0 0 1 0 360 arc tMatrix setmatrix} bdef
/FO {MakeOval stroke} bdef
/PO {MakeOval fill} bdef
/PD {currentlinewidth 2 div 0 360 arc fill
   PDlw -1 eq not {PDlw w /PDlw -1 def} if} def
/FA {newpath tMatrix currentmatrix pop translate scale
  0 0 1 5 -2 roll arc tMatrix setmatrix stroke} bdef
/PA {newpath tMatrix currentmatrix pop	translate 0 0 moveto scale
  0 0 1 5 -2 roll arc closepath tMatrix setmatrix fill} bdef
/FAn {newpath tMatrix currentmatrix pop translate scale
  0 0 1 5 -2 roll arcn tMatrix setmatrix stroke} bdef
/PAn {newpath tMatrix currentmatrix pop translate 0 0 moveto scale
  0 0 1 5 -2 roll arcn closepath tMatrix setmatrix fill} bdef
/vradius 0 def /hradius 0 def /lry 0 def
/lrx 0 def /uly 0 def /ulx 0 def /rad 0 def
/MRR {/vradius xdef /hradius xdef /lry xdef /lrx xdef /uly xdef
  /ulx xdef newpath tMatrix currentmatrix pop ulx hradius add uly
  vradius add translate hradius vradius scale 0 0 1 180 270 arc 
  tMatrix setmatrix lrx hradius sub uly vradius add translate
  hradius vradius scale 0 0 1 270 360 arc tMatrix setmatrix
  lrx hradius sub lry vradius sub translate hradius vradius scale
  0 0 1 0 90 arc tMatrix setmatrix ulx hradius add lry vradius sub
  translate hradius vradius scale 0 0 1 90 180 arc tMatrix setmatrix
  closepath} bdef
/FRR {MRR stroke } bdef
/PRR {MRR fill } bdef
/MlrRR {/lry xdef /lrx xdef /uly xdef /ulx xdef /rad lry uly sub 2 div def
  newpath tMatrix currentmatrix pop ulx rad add uly rad add translate
  rad rad scale 0 0 1 90 270 arc tMatrix setmatrix lrx rad sub lry rad
  sub translate rad rad scale 0 0 1 270 90 arc tMatrix setmatrix
  closepath} bdef
/FlrRR {MlrRR stroke } bdef
/PlrRR {MlrRR fill } bdef
/MtbRR {/lry xdef /lrx xdef /uly xdef /ulx xdef /rad lrx ulx sub 2 div def
  newpath tMatrix currentmatrix pop ulx rad add uly rad add translate
  rad rad scale 0 0 1 180 360 arc tMatrix setmatrix lrx rad sub lry rad
  sub translate rad rad scale 0 0 1 0 180 arc tMatrix setmatrix
  closepath} bdef
/FtbRR {MtbRR stroke } bdef
/PtbRR {MtbRR fill } bdef
/stri 6 array def /dtri 6 array def
/smat 6 array def /dmat 6 array def
/tmat1 6 array def /tmat2 6 array def /dif 3 array def
/asub {/ind2 exch def /ind1 exch def dup dup
  ind1 get exch ind2 get sub exch } bdef
/tri_to_matrix {
  2 0 asub 3 1 asub 4 0 asub 5 1 asub
  dup 0 get exch 1 get 7 -1 roll astore } bdef
/compute_transform {
  dmat dtri tri_to_matrix tmat1 invertmatrix 
  smat stri tri_to_matrix tmat2 concatmatrix } bdef
/ds {stri astore pop} bdef
/dt {dtri astore pop} bdef
/db {2 copy /cols xdef /rows xdef mul dup 3 mul string
  currentfile 
  3 index 0 eq {/ASCIIHexDecode filter}
  {/ASCII85Decode filter 3 index 2 eq {/RunLengthDecode filter} if }
  ifelse exch readstring pop
  dup 0 3 index getinterval /rbmap xdef
  dup 2 index dup getinterval /gbmap xdef
  1 index dup 2 mul exch getinterval /bbmap xdef pop pop}bdef
/it {gs np dtri aload pop moveto lineto lineto cp c
  cols rows 8 compute_transform 
  rbmap gbmap bbmap true 3 colorimage gr}bdef
/il {newpath moveto lineto stroke}bdef
currentdict end def
%%EndProlog

%%BeginSetup
MathWorks begin

0 cap

end
%%EndSetup

%%Page: 1 1
%%BeginPageSetup
%%PageBoundingBox:    37   180   549   616
MathWorks begin
bpage
%%EndPageSetup

%%BeginObject: obj1
bplot

/dpi2point 12 def
portraitMode 0216 7344 csm

  234   -48  6149  5231 rc
85 dict begin %Colortable dictionary
/c0 { 0.000000 0.000000 0.000000 sr} bdef
/c1 { 1.000000 1.000000 1.000000 sr} bdef
/c2 { 0.900000 0.000000 0.000000 sr} bdef
/c3 { 0.000000 0.820000 0.000000 sr} bdef
/c4 { 0.000000 0.000000 0.800000 sr} bdef
/c5 { 0.910000 0.820000 0.320000 sr} bdef
/c6 { 1.000000 0.260000 0.820000 sr} bdef
/c7 { 0.000000 0.820000 0.820000 sr} bdef
c0
1 j
1 sg
   0    0 6919 5187 rf
6 w
0 4202 5362 0 0 -4202 899 4616 4 MP
PP
-5362 0 0 4202 5362 0 0 -4202 899 4616 5 MP stroke
4 w
DO
SO
6 w
0 sg
 899  414 mt 6261  414 L
 899 4616 mt 6261 4616 L
6261 4616 mt 6261  414 L
 899 4616 mt  899  414 L
 899 4616 mt 6261 4616 L
 899 4616 mt  899  414 L
 919 4616 mt  919 4562 L
 919  414 mt  919  467 L
%%IncludeResource: font Helvetica
/Helvetica /WindowsLatin1Encoding 240 FMSR

 713 4873 mt 
(-3) s
1806 4616 mt 1806 4562 L
1806  414 mt 1806  467 L
1600 4873 mt 
(-2) s
2693 4616 mt 2693 4562 L
2693  414 mt 2693  467 L
2487 4873 mt 
(-1) s
3580 4616 mt 3580 4562 L
3580  414 mt 3580  467 L
3514 4873 mt 
(0) s
4466 4616 mt 4466 4562 L
4466  414 mt 4466  467 L
4400 4873 mt 
(1) s
5353 4616 mt 5353 4562 L
5353  414 mt 5353  467 L
5287 4873 mt 
(2) s
6240 4616 mt 6240 4562 L
6240  414 mt 6240  467 L
6174 4873 mt 
(3) s
 899 4599 mt  952 4599 L
6261 4599 mt 6207 4599 L
 591 4688 mt 
(-3) s
 899 3904 mt  952 3904 L
6261 3904 mt 6207 3904 L
 591 3993 mt 
(-2) s
 899 3209 mt  952 3209 L
6261 3209 mt 6207 3209 L
 591 3298 mt 
(-1) s
 899 2514 mt  952 2514 L
6261 2514 mt 6207 2514 L
 731 2603 mt 
(0) s
 899 1820 mt  952 1820 L
6261 1820 mt 6207 1820 L
 731 1909 mt 
(1) s
 899 1125 mt  952 1125 L
6261 1125 mt 6207 1125 L
 731 1214 mt 
(2) s
 899  430 mt  952  430 L
6261  430 mt 6207  430 L
 731  519 mt 
(3) s
 899  414 mt 6261  414 L
 899 4616 mt 6261 4616 L
6261 4616 mt 6261  414 L
 899 4616 mt  899  414 L
gs 899 414 5363 4203 rc
gr

/c8 { 0.000000 0.000000 1.000000 sr} bdef
c8
3610 1538 mt 3682 1538 L
3646 1502 mt 3646 1574 L
2993 1680 mt 3065 1680 L
3029 1644 mt 3029 1716 L
3762 3908 mt 3834 3908 L
3798 3872 mt 3798 3944 L
4322 2007 mt 4394 2007 L
4358 1971 mt 4358 2043 L
3085 1207 mt 3157 1207 L
3121 1171 mt 3121 1243 L
1991 2673 mt 2063 2673 L
2027 2637 mt 2027 2709 L
3404 3515 mt 3476 3515 L
3440 3479 mt 3440 3551 L
3797 3980 mt 3869 3980 L
3833 3944 mt 3833 4016 L
2420 1740 mt 2492 1740 L
2456 1704 mt 2456 1776 L
3717 3848 mt 3789 3848 L
3753 3812 mt 3753 3884 L
2723 1972 mt 2795 1972 L
2759 1936 mt 2759 2008 L
3649 2365 mt 3721 2365 L
3685 2329 mt 3685 2401 L
4444 2695 mt 4516 2695 L
4480 2659 mt 4480 2731 L
2634 1404 mt 2706 1404 L
2670 1368 mt 2670 1440 L
4886 1643 mt 4958 1643 L
4922 1607 mt 4922 1679 L
3147 2736 mt 3219 2736 L
3183 2700 mt 3183 2772 L
2146 2051 mt 2218 2051 L
2182 2015 mt 2182 2087 L
4191 2370 mt 4263 2370 L
4227 2334 mt 4227 2406 L
4805 3331 mt 4877 3331 L
4841 3295 mt 4841 3367 L
3555 2889 mt 3627 2889 L
3591 2853 mt 3591 2925 L
3633 2633 mt 3705 2633 L
3669 2597 mt 3669 2669 L
1481 3436 mt 1553 3436 L
1517 3400 mt 1517 3472 L
5150 1930 mt 5222 1930 L
5186 1894 mt 5186 1966 L
2575 3306 mt 2647 3306 L
2611 3270 mt 2611 3342 L
3313 3376 mt 3385 3376 L
3349 3340 mt 3349 3412 L
3129 1698 mt 3201 1698 L
3165 1662 mt 3165 1734 L
2959 2545 mt 3031 2545 L
2995 2509 mt 2995 2581 L
3952 2458 mt 4024 2458 L
3988 2422 mt 3988 2494 L
4114 2242 mt 4186 2242 L
4150 2206 mt 4150 2278 L
4170 1354 mt 4242 1354 L
4206 1318 mt 4206 1390 L
3820 2388 mt 3892 2388 L
3856 2352 mt 3856 2424 L
4655 4616 mt 4727 4616 L
4691 4580 mt 4691 4652 L
3208 2094 mt 3280 2094 L
3244 2058 mt 3244 2130 L
4381 2713 mt 4453 2713 L
4417 2677 mt 4417 2749 L
3728 2209 mt 3800 2209 L
3764 2173 mt 3764 2245 L
4416 2914 mt 4488 2914 L
4452 2878 mt 4452 2950 L
4177 2745 mt 4249 2745 L
4213 2709 mt 4213 2781 L
1907 2180 mt 1979 2180 L
1943 2144 mt 1943 2216 L
4355 3797 mt 4427 3797 L
4391 3761 mt 4391 3833 L
3046 2024 mt 3118 2024 L
3082 1988 mt 3082 2060 L
2595 3658 mt 2667 3658 L
2631 3622 mt 2631 3694 L
3477 1561 mt 3549 1561 L
3513 1525 mt 3513 1597 L
4732 3877 mt 4804 3877 L
4768 3841 mt 4768 3913 L
2282 4205 mt 2354 4205 L
2318 4169 mt 2318 4241 L
4347 2519 mt 4419 2519 L
4383 2483 mt 4383 2555 L
4282 3022 mt 4354 3022 L
4318 2986 mt 4318 3058 L
2444  414 mt 2516  414 L
2480  378 mt 2480  450 L
3342 3405 mt 3414 3405 L
3378 3369 mt 3378 3441 L
3261 2214 mt 3333 2214 L
3297 2178 mt 3297 2250 L
3655 1232 mt 3727 1232 L
3691 1196 mt 3691 1268 L
3319 2423 mt 3391 2423 L
3355 2387 mt 3355 2459 L
3677 2160 mt 3749 2160 L
3713 2124 mt 3713 2196 L
3532 2806 mt 3604 2806 L
3568 2770 mt 3568 2842 L
2534 3322 mt 2606 3322 L
2570 3286 mt 2570 3358 L
3757 1851 mt 3829 1851 L
3793 1815 mt 3793 1887 L
3393 3281 mt 3465 3281 L
3429 3245 mt 3429 3317 L
2016 2185 mt 2088 2185 L
2052 2149 mt 2052 2221 L
3330 3198 mt 3402 3198 L
3366 3162 mt 3366 3234 L
2126 2125 mt 2198 2125 L
2162 2089 mt 2162 2161 L
3921 1838 mt 3993 1838 L
3957 1802 mt 3957 1874 L
5321 2165 mt 5393 2165 L
5357 2129 mt 5357 2201 L
3638 2298 mt 3710 2298 L
3674 2262 mt 3674 2334 L
4719 3553 mt 4791 3553 L
4755 3517 mt 4755 3589 L
3785 2628 mt 3857 2628 L
3821 2592 mt 3821 2664 L
2917 2418 mt 2989 2418 L
2953 2382 mt 2953 2454 L
3302 2189 mt 3374 2189 L
3338 2153 mt 3338 2225 L
4693 2062 mt 4765 2062 L
4729 2026 mt 4729 2098 L
4981 1872 mt 5053 1872 L
5017 1836 mt 5017 1908 L
3745 2307 mt 3817 2307 L
3781 2271 mt 3781 2343 L
3098 2602 mt 3170 2602 L
3134 2566 mt 3134 2638 L
1876 2445 mt 1948 2445 L
1912 2409 mt 1912 2481 L
3190 3250 mt 3262 3250 L
3226 3214 mt 3226 3286 L
2828 2083 mt 2900 2083 L
2864 2047 mt 2864 2119 L
3443 2223 mt 3515 2223 L
3479 2187 mt 3479 2259 L
2662 2237 mt 2734 2237 L
2698 2201 mt 2698 2273 L
3284 1489 mt 3356 1489 L
3320 1453 mt 3320 1525 L
4228 2567 mt 4300 2567 L
4264 2531 mt 4264 2603 L
3398 3011 mt 3470 3011 L
3434 2975 mt 3434 3047 L
4820 1181 mt 4892 1181 L
4856 1145 mt 4856 1217 L
3927 1723 mt 3999 1723 L
3963 1687 mt 3963 1759 L
3706 2293 mt 3778 2293 L
3742 2257 mt 3742 2329 L
2267 2709 mt 2339 2709 L
2303 2673 mt 2303 2745 L
3661 2930 mt 3733 2930 L
3697 2894 mt 3697 2966 L
3166 2329 mt 3238 2329 L
3202 2293 mt 3202 2365 L
3946 3045 mt 4018 3045 L
3982 3009 mt 3982 3081 L
4060 3081 mt 4132 3081 L
4096 3045 mt 4096 3117 L
5211 2104 mt 5283 2104 L
5247 2068 mt 5247 2140 L
3666 2145 mt 3738 2145 L
3702 2109 mt 3702 2181 L
4553 3641 mt 4625 3641 L
4589 3605 mt 4589 3677 L
2931 2825 mt 3003 2825 L
2967 2789 mt 2967 2861 L
3850 2664 mt 3922 2664 L
3886 2628 mt 3886 2700 L
5700  957 mt 5772  957 L
5736  921 mt 5736  993 L
3027 2325 mt 3099 2325 L
3063 2289 mt 3063 2361 L
2165 3220 mt 2237 3220 L
2201 3184 mt 2201 3256 L
1937 2615 mt 2009 2615 L
1973 2579 mt 1973 2651 L
2298 3171 mt 2370 3171 L
2334 3135 mt 2334 3207 L
1387 3289 mt 1459 3289 L
1423 3253 mt 1423 3325 L
5531 2256 mt 5603 2256 L
5567 2220 mt 5567 2292 L
1842 2801 mt 1914 2801 L
1878 2765 mt 1878 2837 L
2680 1049 mt 2752 1049 L
2716 1013 mt 2716 1085 L
3627 2854 mt 3699 2854 L
3663 2818 mt 3663 2890 L
3325 1936 mt 3397 1936 L
3361 1900 mt 3361 1972 L
3104 2414 mt 3176 2414 L
3140 2378 mt 3140 2450 L
3466 2899 mt 3538 2899 L
3502 2863 mt 3502 2935 L
2765 2940 mt 2837 2940 L
2801 2904 mt 2801 2976 L
4643 1434 mt 4715 1434 L
4679 1398 mt 4679 1470 L
4922 2251 mt 4994 2251 L
4958 2215 mt 4958 2287 L
3885 3039 mt 3957 3039 L
3921 3003 mt 3921 3075 L
2924 2764 mt 2996 2764 L
2960 2728 mt 2960 2800 L
4869 2773 mt 4941 2773 L
4905 2737 mt 4905 2809 L
3791 2554 mt 3863 2554 L
3827 2518 mt 3827 2590 L
3178 3075 mt 3250 3075 L
3214 3039 mt 3214 3111 L
2715 3069 mt 2787 3069 L
2751 3033 mt 2751 3105 L
3571 2962 mt 3643 2962 L
3607 2926 mt 3607 2998 L
3135 2754 mt 3207 2754 L
3171 2718 mt 3171 2790 L
3110 2972 mt 3182 2972 L
3146 2936 mt 3146 3008 L
3290 2288 mt 3362 2288 L
3326 2252 mt 3326 2324 L
2697 3491 mt 2769 3491 L
2733 3455 mt 2733 3527 L
2394 2989 mt 2466 2989 L
2430 2953 mt 2430 3025 L
4789 1831 mt 4861 1831 L
4825 1795 mt 4825 1867 L
3873 2462 mt 3945 2462 L
3909 2426 mt 3909 2498 L
2235 2338 mt 2307 2338 L
2271 2302 mt 2271 2374 L
2523 2686 mt 2595 2686 L
2559 2650 mt 2559 2722 L
4492 1748 mt 4564 1748 L
4528 1712 mt 4528 1784 L
2490  898 mt 2562  898 L
2526  862 mt 2526  934 L
2980 1526 mt 3052 1526 L
3016 1490 mt 3016 1562 L
4290 2247 mt 4362 2247 L
4326 2211 mt 4326 2283 L
3516 1794 mt 3588 1794 L
3552 1758 mt 3552 1830 L
1805 2884 mt 1877 2884 L
1841 2848 mt 1841 2920 L
3493 3446 mt 3565 3446 L
3529 3410 mt 3529 3482 L
2555  824 mt 2627  824 L
2591  788 mt 2591  860 L
4852 2432 mt 4924 2432 L
4888 2396 mt 4888 2468 L
3594 2951 mt 3666 2951 L
3630 2915 mt 3630 2987 L
4002 1787 mt 4074 1787 L
4038 1751 mt 4038 1823 L
3582 2946 mt 3654 2946 L
3618 2910 mt 3618 2982 L
5180 2480 mt 5252 2480 L
5216 2444 mt 5216 2516 L
3296 3595 mt 3368 3595 L
3332 3559 mt 3332 3631 L
3964 2320 mt 4036 2320 L
4000 2284 mt 4000 2356 L
3510 2120 mt 3582 2120 L
3546 2084 mt 3546 2156 L
3803 2580 mt 3875 2580 L
3839 2544 mt 3839 2616 L
3909 2606 mt 3981 2606 L
3945 2570 mt 3945 2642 L
4009 2099 mt 4081 2099 L
4045 2063 mt 4045 2135 L
3605 1764 mt 3677 1764 L
3641 1728 mt 3641 1800 L
 863 3235 mt  935 3235 L
 899 3199 mt  899 3271 L
3588 2471 mt 3660 2471 L
3624 2435 mt 3624 2507 L
3861 2909 mt 3933 2909 L
3897 2873 mt 3897 2945 L
2706 2849 mt 2778 2849 L
2742 2813 mt 2742 2885 L
3544 3125 mt 3616 3125 L
3580 3089 mt 3580 3161 L
3983 2571 mt 4055 2571 L
4019 2535 mt 4019 2607 L
3040 2475 mt 3112 2475 L
3076 2439 mt 3076 2511 L
4597 2109 mt 4669 2109 L
4633 2073 mt 4633 2145 L
4243 2334 mt 4315 2334 L
4279 2298 mt 4279 2370 L
2910 2352 mt 2982 2352 L
2946 2316 mt 2946 2388 L
5606 2659 mt 5678 2659 L
5642 2623 mt 5642 2695 L
1259 1671 mt 1331 1671 L
1295 1635 mt 1295 1707 L
4435 2140 mt 4507 2140 L
4471 2104 mt 4471 2176 L
4274 3184 mt 4346 3184 L
4310 3148 mt 4310 3220 L
2781 2646 mt 2853 2646 L
2817 2610 mt 2817 2682 L
4149 3340 mt 4221 3340 L
4185 3304 mt 4185 3376 L
2740 2718 mt 2812 2718 L
2776 2682 mt 2776 2754 L
4760 2722 mt 4832 2722 L
4796 2686 mt 4796 2758 L
3488 3057 mt 3560 3057 L
3524 3021 mt 3524 3093 L
3053 3144 mt 3125 3144 L
3089 3108 mt 3089 3180 L
4407 2467 mt 4479 2467 L
4443 2431 mt 4443 2503 L
4338 1448 mt 4410 1448 L
4374 1412 mt 4374 1484 L
3066 3297 mt 3138 3297 L
3102 3261 mt 3102 3333 L
4522 2787 mt 4594 2787 L
4558 2751 mt 4558 2823 L
3711 2593 mt 3783 2593 L
3747 2557 mt 3747 2629 L
2987 1006 mt 3059 1006 L
3023  970 mt 3023 1042 L
3226 1911 mt 3298 1911 L
3262 1875 mt 3262 1947 L
3449 1634 mt 3521 1634 L
3485 1598 mt 3485 1670 L
4512 1550 mt 4584 1550 L
4548 1514 mt 4548 1586 L
3376 1419 mt 3448 1419 L
3412 1383 mt 3412 1455 L
4041 2194 mt 4113 2194 L
4077 2158 mt 4077 2230 L
3202 2558 mt 3274 2558 L
3238 2522 mt 3238 2594 L
3007 1917 mt 3079 1917 L
3043 1881 mt 3043 1953 L
3838 1898 mt 3910 1898 L
3874 1862 mt 3874 1934 L
3940 3151 mt 4012 3151 L
3976 3115 mt 3976 3187 L
3694 2155 mt 3766 2155 L
3730 2119 mt 3730 2191 L
4121 2731 mt 4193 2731 L
4157 2695 mt 4157 2767 L
1674 3164 mt 1746 3164 L
1710 3128 mt 1710 3200 L
4206  564 mt 4278  564 L
4242  528 mt 4242  600 L
4034 2012 mt 4106 2012 L
4070 1976 mt 4070 2048 L
3267 2356 mt 3339 2356 L
3303 2320 mt 3303 2392 L
4746 3731 mt 4818 3731 L
4782 3695 mt 4782 3767 L
3336 3118 mt 3408 3118 L
3372 3082 mt 3372 3154 L
5282 2040 mt 5354 2040 L
5318 2004 mt 5318 2076 L
3977 3131 mt 4049 3131 L
4013 3095 mt 4013 3167 L
4463 2453 mt 4535 2453 L
4499 2417 mt 4499 2489 L
5828 2279 mt 5900 2279 L
5864 2243 mt 5864 2315 L
2859 2778 mt 2931 2778 L
2895 2742 mt 2895 2814 L
4199 3137 mt 4271 3137 L
4235 3101 mt 4235 3173 L
5096 3028 mt 5168 3028 L
5132 2992 mt 5132 3064 L
2888 2361 mt 2960 2361 L
2924 2325 mt 2924 2397 L
4221 2046 mt 4293 2046 L
4257 2010 mt 4257 2082 L
3421 1514 mt 3493 1514 L
3457 1478 mt 3457 1550 L
2973 3625 mt 3045 3625 L
3009 3589 mt 3009 3661 L
4047 3527 mt 4119 3527 L
4083 3491 mt 4083 3563 L
2615 2704 mt 2687 2704 L
2651 2668 mt 2651 2740 L
4364 3005 mt 4436 3005 L
4400 2969 mt 4400 3041 L
2866 2396 mt 2938 2396 L
2902 2360 mt 2902 2432 L
5047 1845 mt 5119 1845 L
5083 1809 mt 5083 1881 L
2468 3752 mt 2540 3752 L
2504 3716 mt 2504 3788 L
3734 3358 mt 3806 3358 L
3770 3322 mt 3770 3394 L
3700 1954 mt 3772 1954 L
3736 1918 mt 3736 1990 L
3958 2956 mt 4030 2956 L
3994 2920 mt 3994 2992 L
4087 3273 mt 4159 3273 L
4123 3237 mt 4123 3309 L
3237 2741 mt 3309 2741 L
3273 2705 mt 3273 2777 L
3560 1707 mt 3632 1707 L
3596 1671 mt 3596 1743 L
5245 3822 mt 5317 3822 L
5281 3786 mt 5281 3858 L
2813 1756 mt 2885 1756 L
2849 1720 mt 2849 1792 L
4074 2067 mt 4146 2067 L
4110 2031 mt 4110 2103 L
4236 2782 mt 4308 2782 L
4272 2746 mt 4272 2818 L
2749 3395 mt 2821 3395 L
2785 3359 mt 2785 3431 L
3891 1715 mt 3963 1715 L
3927 1679 mt 3927 1751 L
4251 2501 mt 4323 2501 L
4287 2465 mt 4287 2537 L
5024 2904 mt 5096 2904 L
5060 2868 mt 5060 2940 L
3214 2584 mt 3286 2584 L
3250 2548 mt 3250 2620 L
3059 3034 mt 3131 3034 L
3095 2998 mt 3095 3070 L
3566 2436 mt 3638 2436 L
3602 2400 mt 3602 2472 L
4213 2869 mt 4285 2869 L
4249 2833 mt 4249 2905 L
2218 2410 mt 2290 2410 L
2254 2374 mt 2254 2446 L
2513 2536 mt 2585 2536 L
2549 2500 mt 2549 2572 L
2757 4072 mt 2829 4072 L
2793 4036 mt 2793 4108 L
3832 3479 mt 3904 3479 L
3868 3443 mt 3868 3515 L
3141 2261 mt 3213 2261 L
3177 2225 mt 3177 2297 L
3996 2811 mt 4068 2811 L
4032 2775 mt 4032 2847 L
3616 3675 mt 3688 3675 L
3652 3639 mt 3652 3711 L
2565 1892 mt 2637 1892 L
2601 1856 mt 2601 1928 L
3347 2576 mt 3419 2576 L
3383 2540 mt 3383 2612 L
4156 3386 mt 4228 3386 L
4192 3350 mt 4192 3422 L
4775 2677 mt 4847 2677 L
4811 2641 mt 4811 2713 L
2183 2270 mt 2255 2270 L
2219 2234 mt 2219 2306 L
4941 2700 mt 5013 2700 L
4977 2664 mt 4977 2736 L
2874 2562 mt 2946 2562 L
2910 2526 mt 2910 2598 L
3809 3415 mt 3881 3415 L
3845 3379 mt 3845 3451 L
1766 2978 mt 1838 2978 L
1802 2942 mt 1802 3014 L
2805 2820 mt 2877 2820 L
2841 2784 mt 2841 2856 L
2407 3112 mt 2479 3112 L
2443 3076 mt 2443 3148 L
2251 3017 mt 2323 3017 L
2287 2981 mt 2287 3053 L
3381 3265 mt 3453 3265 L
3417 3229 mt 3417 3301 L
3672 2265 mt 3744 2265 L
3708 2229 mt 3708 2301 L
3521 1689 mt 3593 1689 L
3557 1653 mt 3557 1725 L
4453 3051 mt 4525 3051 L
4489 3015 mt 4489 3087 L
4163 2874 mt 4235 2874 L
4199 2838 mt 4199 2910 L
2106 1823 mt 2178 1823 L
2142 1787 mt 2142 1859 L
4542 2835 mt 4614 2835 L
4578 2799 mt 4578 2871 L
2881 3178 mt 2953 3178 L
2917 3142 mt 2917 3214 L
2432 2815 mt 2504 2815 L
2468 2779 mt 2468 2851 L
2966 2768 mt 3038 2768 L
3002 2732 mt 3002 2804 L
5365 2514 mt 5437 2514 L
5401 2478 mt 5401 2550 L
4142 1885 mt 4214 1885 L
4178 1849 mt 4178 1921 L
3020 3093 mt 3092 3093 L
3056 3057 mt 3056 3129 L
4021 2792 mt 4093 2792 L
4057 2756 mt 4057 2828 L
3903 1990 mt 3975 1990 L
3939 1954 mt 3939 2026 L
4306 4131 mt 4378 4131 L
4342 4095 mt 4342 4167 L
3078 2840 mt 3150 2840 L
3114 2804 mt 3114 2876 L
3364 2894 mt 3436 2894 L
3400 2858 mt 3400 2930 L
2456 2150 mt 2528 2150 L
2492 2114 mt 2492 2186 L
4390 2228 mt 4462 2228 L
4426 2192 mt 4426 2264 L
4107 2727 mt 4179 2727 L
4143 2691 mt 4143 2763 L
6225 1816 mt 6297 1816 L
6261 1780 mt 6261 1852 L
4574 2001 mt 4646 2001 L
4610 1965 mt 4610 2037 L
3220 3087 mt 3292 3087 L
3256 3051 mt 3256 3123 L
2502 1255 mt 2574 1255 L
2538 1219 mt 2538 1291 L
3644 2233 mt 3716 2233 L
3680 2197 mt 3680 2269 L
3499 2844 mt 3571 2844 L
3535 2808 mt 3535 2880 L
4398 1318 mt 4470 1318 L
4434 1282 mt 4434 1354 L
3278 2379 mt 3350 2379 L
3314 2343 mt 3314 2415 L
3538 2089 mt 3610 2089 L
3574 2053 mt 3574 2125 L
3599 2204 mt 3671 2204 L
3635 2168 mt 3635 2240 L
2085 1502 mt 2157 1502 L
2121 1466 mt 2121 1538 L
3255 1858 mt 3327 1858 L
3291 1822 mt 3291 1894 L
5413 3942 mt 5485 3942 L
5449 3906 mt 5449 3978 L
2643 1087 mt 2715 1087 L
2679 1051 mt 2679 1123 L
2789 3567 mt 2861 3567 L
2825 3531 mt 2825 3603 L
4680 2018 mt 4752 2018 L
4716 1982 mt 4716 2054 L
4961 2493 mt 5033 2493 L
4997 2457 mt 4997 2529 L
3460 1942 mt 3532 1942 L
3496 1906 mt 3496 1978 L
4619 2170 mt 4691 2170 L
4655 2134 mt 4655 2206 L
3774 1984 mt 3846 1984 L
3810 1948 mt 3810 2020 L
4585 1604 mt 4657 1604 L
4621 1568 mt 4621 1640 L
5071 4023 mt 5143 4023 L
5107 3987 mt 5107 4059 L
4080 2311 mt 4152 2311 L
4116 2275 mt 4116 2347 L
3768 2218 mt 3840 2218 L
3804 2182 mt 3804 2254 L
2851 3468 mt 2923 3468 L
2887 3432 mt 2887 3504 L
3232 2347 mt 3304 2347 L
3268 2311 mt 3268 2383 L
3621 2405 mt 3693 2405 L
3657 2369 mt 3657 2441 L
3072 1732 mt 3144 1732 L
3108 1696 mt 3108 1768 L
2624 2597 mt 2696 2597 L
2660 2561 mt 2660 2633 L
3934 2383 mt 4006 2383 L
3970 2347 mt 3970 2419 L
4100 1476 mt 4172 1476 L
4136 1440 mt 4136 1512 L
2586 1298 mt 2658 1298 L
2622 1262 mt 2622 1334 L
3577 1662 mt 3649 1662 L
3613 1626 mt 3613 1698 L
3387 2532 mt 3459 2532 L
3423 2496 mt 3423 2568 L
3740 2994 mt 3812 2994 L
3776 2958 mt 3776 3030 L
2945 2655 mt 3017 2655 L
2981 2619 mt 2981 2691 L
2938  724 mt 3010  724 L
2974  688 mt 2974  760 L
1556 2284 mt 1628 2284 L
1592 2248 mt 1592 2320 L
3432 1653 mt 3504 1653 L
3468 1617 mt 3468 1689 L
4608 2057 mt 4680 2057 L
4644 2021 mt 4644 2093 L
3751 2691 mt 3823 2691 L
3787 2655 mt 3787 2727 L
3160 1779 mt 3232 1779 L
3196 1743 mt 3196 1815 L
2689 2830 mt 2761 2830 L
2725 2794 mt 2725 2866 L
3116 2624 mt 3188 2624 L
3152 2588 mt 3152 2660 L
2368 3581 mt 2440 3581 L
2404 3545 mt 2404 3617 L
1965 3693 mt 2037 3693 L
2001 3657 mt 2001 3729 L
4330 2650 mt 4402 2650 L
4366 2614 mt 4366 2686 L
3689 3503 mt 3761 3503 L
3725 3467 mt 3725 3539 L
2896 2302 mt 2968 2302 L
2932 2266 mt 2932 2338 L
4259 3457 mt 4331 3457 L
4295 3421 mt 4295 3493 L
3527 1948 mt 3599 1948 L
3563 1912 mt 3563 1984 L
3482 2967 mt 3554 2967 L
3518 2931 mt 3518 3003 L
3123 2983 mt 3195 2983 L
3159 2947 mt 3159 3019 L
2479 2175 mt 2551 2175 L
2515 2139 mt 2515 2211 L
3249 2920 mt 3321 2920 L
3285 2884 mt 3285 2956 L
5002 2497 mt 5074 2497 L
5038 2461 mt 5038 2533 L
2201 2130 mt 2273 2130 L
2237 2094 mt 2237 2166 L
3683 2343 mt 3755 2343 L
3719 2307 mt 3719 2379 L
3410 2859 mt 3482 2859 L
3446 2823 mt 3446 2895 L
4298 2401 mt 4370 2401 L
4334 2365 mt 4334 2437 L
2355 2668 mt 2427 2668 L
2391 2632 mt 2391 2704 L
3273 2374 mt 3345 2374 L
3309 2338 mt 3309 2410 L
4054 2316 mt 4126 2316 L
4090 2280 mt 4090 2352 L
3723 1152 mt 3795 1152 L
3759 1116 mt 3759 1188 L
3971 1978 mt 4043 1978 L
4007 1942 mt 4007 2014 L
3359 4305 mt 3431 4305 L
3395 4269 mt 3395 4341 L
2545 2440 mt 2617 2440 L
2581 2404 mt 2581 2476 L
3426 3106 mt 3498 3106 L
3462 3070 mt 3462 3142 L
3505 3000 mt 3577 3000 L
3541 2964 mt 3541 3036 L
2797 2682 mt 2869 2682 L
2833 2646 mt 2833 2718 L
2652 1336 mt 2724 1336 L
2688 1300 mt 2688 1372 L
4314 2641 mt 4386 2641 L
4350 2605 mt 4350 2677 L
2381 2073 mt 2453 2073 L
2417 2037 mt 2417 2109 L
3471 2275 mt 3543 2275 L
3507 2239 mt 3507 2311 L
4501 2523 mt 4573 2523 L
4537 2487 mt 4537 2559 L
2040 1772 mt 2112 1772 L
2076 1736 mt 2076 1808 L
5468 1865 mt 5540 1865 L
5504 1829 mt 5504 1901 L
2952 1802 mt 3024 1802 L
2988 1766 mt 2988 1838 L
4706 2549 mt 4778 2549 L
4742 2513 mt 4742 2585 L
4372 1624 mt 4444 1624 L
4408 1588 mt 4408 1660 L
3844 2449 mt 3916 2449 L
3880 2413 mt 3880 2485 L
4015 2925 mt 4087 2925 L
4051 2889 mt 4051 2961 L
2327 3206 mt 2399 3206 L
2363 3170 mt 2363 3242 L
4184 3774 mt 4256 3774 L
4220 3738 mt 4220 3810 L
3353 2611 mt 3425 2611 L
3389 2575 mt 3389 2647 L
1619 2427 mt 1691 2427 L
1655 2391 mt 1655 2463 L
3454 2759 mt 3526 2759 L
3490 2723 mt 3490 2795 L
6033 2750 mt 6105 2750 L
6069 2714 mt 6069 2786 L
3013 1960 mt 3085 1960 L
3049 1924 mt 3049 1996 L
4904 2135 mt 4976 2135 L
4940 2099 mt 4940 2171 L
3438 3367 mt 3510 3367 L
3474 3331 mt 3474 3403 L
4564 3314 mt 4636 3314 L
4600 3278 mt 4600 3350 L
3196 2589 mt 3268 2589 L
3232 2553 mt 3232 2625 L
3243 1371 mt 3315 1371 L
3279 1335 mt 3279 1407 L
3855 2935 mt 3927 2935 L
3891 2899 mt 3891 2971 L
5122 3425 mt 5194 3425 L
5158 3389 mt 5158 3461 L
3307 3227 mt 3379 3227 L
3343 3191 mt 3343 3263 L
4128 3099 mt 4200 3099 L
4164 3063 mt 4164 3135 L
3826 3610 mt 3898 3610 L
3862 3574 mt 3862 3646 L
3091 3349 mt 3163 3349 L
3127 3313 mt 3127 3385 L
4266 1966 mt 4338 1966 L
4302 1930 mt 4302 2002 L
4067 1614 mt 4139 1614 L
4103 1578 mt 4103 1650 L
4836 2029 mt 4908 2029 L
4872 1993 mt 4872 2065 L
3415 2199 mt 3487 2199 L
3451 2163 mt 3451 2235 L
3897 3711 mt 3969 3711 L
3933 3675 mt 3933 3747 L
2773 3213 mt 2845 3213 L
2809 3177 mt 2809 3249 L
3184 1388 mt 3256 1388 L
3220 1352 mt 3220 1424 L
3879 2078 mt 3951 2078 L
3915 2042 mt 3915 2114 L
4667 1995 mt 4739 1995 L
4703 1959 mt 4703 2031 L
3153 2392 mt 3225 2392 L
3189 2356 mt 3189 2428 L
3780 1572 mt 3852 1572 L
3816 1536 mt 3816 1608 L
2605 2619 mt 2677 2619 L
2641 2583 mt 2641 2655 L
3814 2115 mt 3886 2115 L
3850 2079 mt 3850 2151 L
2312 2879 mt 2384 2879 L
2348 2843 mt 2348 2915 L
3000 1121 mt 3072 1121 L
3036 1085 mt 3036 1157 L
2821 3242 mt 2893 3242 L
2857 3206 mt 2857 3278 L
4631 2864 mt 4703 2864 L
4667 2828 mt 4667 2900 L
2836 3157 mt 2908 3157 L
2872 3121 mt 2872 3193 L
2063 3540 mt 2135 3540 L
2099 3504 mt 2099 3576 L
2671 2528 mt 2743 2528 L
2707 2492 mt 2707 2564 L
3989 1904 mt 4061 1904 L
4025 1868 mt 4025 1940 L
4425 1593 mt 4497 1593 L
4461 1557 mt 4461 1629 L
3370 1923 mt 3442 1923 L
3406 1887 mt 3406 1959 L
3915 2541 mt 3987 2541 L
3951 2505 mt 3951 2577 L
3172 3191 mt 3244 3191 L
3208 3155 mt 3208 3227 L
4094 2637 mt 4166 2637 L
4130 2601 mt 4130 2673 L
3549 2506 mt 3621 2506 L
3585 2470 mt 3585 2542 L
4135 3063 mt 4207 3063 L
4171 3027 mt 4171 3099 L
3867 1878 mt 3939 1878 L
3903 1842 mt 3903 1914 L
2732 2510 mt 2804 2510 L
2768 2474 mt 2768 2546 L
2844 2488 mt 2916 2488 L
2880 2452 mt 2880 2524 L
2903 2796 mt 2975 2796 L
2939 2760 mt 2939 2832 L
4482 1809 mt 4554 1809 L
4518 1773 mt 4518 1845 L
4472 2035 mt 4544 2035 L
4508 1999 mt 4508 2071 L
4532 1277 mt 4604 1277 L
4568 1241 mt 4568 1313 L
1722 3257 mt 1794 3257 L
1758 3221 mt 1758 3293 L
2341 1583 mt 2413 1583 L
2377 1547 mt 2377 1619 L
3033 1462 mt 3105 1462 L
3069 1426 mt 3069 1498 L
4028 2484 mt 4100 2484 L
4064 2448 mt 4064 2520 L
gs 899 414 5363 4203 rc
gr

0 sg
2775 5104 mt 
(\(F,DCTb,GMM\)) s
 482 3277 mt  -90 rotate
(\(S,SSC,GMM\)) s
90 rotate
2975  223 mt 
(Corr = 0.03) s

end %%Color Dict

eplot
%%EndObject

epage
end

showpage

%%Trailer
%%EOF
