%!PS-Adobe-3.0 EPSF-3.0
%%Creator: MATLAB, The Mathworks, Inc. Version 7.7.0.471 (R2008b). Operating System: Microsoft Windows XP.
%%Title: Pictures\main_zoo_mvar_analysis_data_BMI_xcorr_bmi_p1_k1_3_9.eps
%%CreationDate: 10/26/2009  05:44:03
%%DocumentNeededFonts: Helvetica
%%DocumentProcessColors: Cyan Magenta Yellow Black
%%LanguageLevel: 2
%%Pages: 1
%%BoundingBox:    21   180   546   616
%%EndComments

%%BeginProlog
% MathWorks dictionary
/MathWorks 160 dict begin
% definition operators
/bdef {bind def} bind def
/ldef {load def} bind def
/xdef {exch def} bdef
/xstore {exch store} bdef
% operator abbreviations
/c  /clip ldef
/cc /concat ldef
/cp /closepath ldef
/gr /grestore ldef
/gs /gsave ldef
/mt /moveto ldef
/np /newpath ldef
/cm /currentmatrix ldef
/sm /setmatrix ldef
/rm /rmoveto ldef
/rl /rlineto ldef
/s {show newpath} bdef
/sc {setcmykcolor} bdef
/sr /setrgbcolor ldef
/sg /setgray ldef
/w /setlinewidth ldef
/j /setlinejoin ldef
/cap /setlinecap ldef
/rc {rectclip} bdef
/rf {rectfill} bdef
% page state control
/pgsv () def
/bpage {/pgsv save def} bdef
/epage {pgsv restore} bdef
/bplot /gsave ldef
/eplot {stroke grestore} bdef
% orientation switch
/portraitMode 0 def /landscapeMode 1 def /rotateMode 2 def
% coordinate system mappings
/dpi2point 0 def
% font control
/FontSize 0 def
/FMS {/FontSize xstore findfont [FontSize 0 0 FontSize neg 0 0]
  makefont setfont} bdef
/ISOLatin1Encoding where {pop /WindowsLatin1Encoding 256 array bdef
ISOLatin1Encoding WindowsLatin1Encoding copy pop
/.notdef/.notdef/quotesinglbase/florin/quotedblbase/ellipsis/dagger
/daggerdbl/circumflex/perthousand/Scaron/guilsinglleft/OE/.notdef/.notdef
/.notdef/.notdef/quoteleft/quoteright/quotedblleft/quotedblright/bullet
/endash/emdash/tilde/trademark/scaron/guilsinglright/oe/.notdef/.notdef
/Ydieresis WindowsLatin1Encoding 128 32 getinterval astore pop}
{/WindowsLatin1Encoding StandardEncoding bdef} ifelse
/reencode {exch dup where {pop load} {pop StandardEncoding} ifelse
  exch dup 3 1 roll findfont dup length dict begin
  { 1 index /FID ne {def}{pop pop} ifelse } forall
  /Encoding exch def currentdict end definefont pop} bdef
/isroman {findfont /CharStrings get /Agrave known} bdef
/FMSR {3 1 roll 1 index dup isroman {reencode} {pop pop} ifelse
  exch FMS} bdef
/csm {1 dpi2point div -1 dpi2point div scale neg translate
 dup landscapeMode eq {pop -90 rotate}
  {rotateMode eq {90 rotate} if} ifelse} bdef
% line types: solid, dotted, dashed, dotdash
/SO { [] 0 setdash } bdef
/DO { [.5 dpi2point mul 4 dpi2point mul] 0 setdash } bdef
/DA { [6 dpi2point mul] 0 setdash } bdef
/DD { [.5 dpi2point mul 4 dpi2point mul 6 dpi2point mul 4
  dpi2point mul] 0 setdash } bdef
% macros for lines and objects
/L {lineto stroke} bdef
/MP {3 1 roll moveto 1 sub {rlineto} repeat} bdef
/AP {{rlineto} repeat} bdef
/PDlw -1 def
/W {/PDlw currentlinewidth def setlinewidth} def
/PP {closepath eofill} bdef
/DP {closepath stroke} bdef
/MR {4 -2 roll moveto dup  0 exch rlineto exch 0 rlineto
  neg 0 exch rlineto closepath} bdef
/FR {MR stroke} bdef
/PR {MR fill} bdef
/L1i {{currentfile picstr readhexstring pop} image} bdef
/tMatrix matrix def
/MakeOval {newpath tMatrix currentmatrix pop translate scale
0 0 1 0 360 arc tMatrix setmatrix} bdef
/FO {MakeOval stroke} bdef
/PO {MakeOval fill} bdef
/PD {currentlinewidth 2 div 0 360 arc fill
   PDlw -1 eq not {PDlw w /PDlw -1 def} if} def
/FA {newpath tMatrix currentmatrix pop translate scale
  0 0 1 5 -2 roll arc tMatrix setmatrix stroke} bdef
/PA {newpath tMatrix currentmatrix pop	translate 0 0 moveto scale
  0 0 1 5 -2 roll arc closepath tMatrix setmatrix fill} bdef
/FAn {newpath tMatrix currentmatrix pop translate scale
  0 0 1 5 -2 roll arcn tMatrix setmatrix stroke} bdef
/PAn {newpath tMatrix currentmatrix pop translate 0 0 moveto scale
  0 0 1 5 -2 roll arcn closepath tMatrix setmatrix fill} bdef
/vradius 0 def /hradius 0 def /lry 0 def
/lrx 0 def /uly 0 def /ulx 0 def /rad 0 def
/MRR {/vradius xdef /hradius xdef /lry xdef /lrx xdef /uly xdef
  /ulx xdef newpath tMatrix currentmatrix pop ulx hradius add uly
  vradius add translate hradius vradius scale 0 0 1 180 270 arc 
  tMatrix setmatrix lrx hradius sub uly vradius add translate
  hradius vradius scale 0 0 1 270 360 arc tMatrix setmatrix
  lrx hradius sub lry vradius sub translate hradius vradius scale
  0 0 1 0 90 arc tMatrix setmatrix ulx hradius add lry vradius sub
  translate hradius vradius scale 0 0 1 90 180 arc tMatrix setmatrix
  closepath} bdef
/FRR {MRR stroke } bdef
/PRR {MRR fill } bdef
/MlrRR {/lry xdef /lrx xdef /uly xdef /ulx xdef /rad lry uly sub 2 div def
  newpath tMatrix currentmatrix pop ulx rad add uly rad add translate
  rad rad scale 0 0 1 90 270 arc tMatrix setmatrix lrx rad sub lry rad
  sub translate rad rad scale 0 0 1 270 90 arc tMatrix setmatrix
  closepath} bdef
/FlrRR {MlrRR stroke } bdef
/PlrRR {MlrRR fill } bdef
/MtbRR {/lry xdef /lrx xdef /uly xdef /ulx xdef /rad lrx ulx sub 2 div def
  newpath tMatrix currentmatrix pop ulx rad add uly rad add translate
  rad rad scale 0 0 1 180 360 arc tMatrix setmatrix lrx rad sub lry rad
  sub translate rad rad scale 0 0 1 0 180 arc tMatrix setmatrix
  closepath} bdef
/FtbRR {MtbRR stroke } bdef
/PtbRR {MtbRR fill } bdef
/stri 6 array def /dtri 6 array def
/smat 6 array def /dmat 6 array def
/tmat1 6 array def /tmat2 6 array def /dif 3 array def
/asub {/ind2 exch def /ind1 exch def dup dup
  ind1 get exch ind2 get sub exch } bdef
/tri_to_matrix {
  2 0 asub 3 1 asub 4 0 asub 5 1 asub
  dup 0 get exch 1 get 7 -1 roll astore } bdef
/compute_transform {
  dmat dtri tri_to_matrix tmat1 invertmatrix 
  smat stri tri_to_matrix tmat2 concatmatrix } bdef
/ds {stri astore pop} bdef
/dt {dtri astore pop} bdef
/db {2 copy /cols xdef /rows xdef mul dup 3 mul string
  currentfile 
  3 index 0 eq {/ASCIIHexDecode filter}
  {/ASCII85Decode filter 3 index 2 eq {/RunLengthDecode filter} if }
  ifelse exch readstring pop
  dup 0 3 index getinterval /rbmap xdef
  dup 2 index dup getinterval /gbmap xdef
  1 index dup 2 mul exch getinterval /bbmap xdef pop pop}bdef
/it {gs np dtri aload pop moveto lineto lineto cp c
  cols rows 8 compute_transform 
  rbmap gbmap bbmap true 3 colorimage gr}bdef
/il {newpath moveto lineto stroke}bdef
currentdict end def
%%EndProlog

%%BeginSetup
MathWorks begin

0 cap

end
%%EndSetup

%%Page: 1 1
%%BeginPageSetup
%%PageBoundingBox:    21   180   546   616
MathWorks begin
bpage
%%EndPageSetup

%%BeginObject: obj1
bplot

/dpi2point 12 def
portraitMode 0216 7344 csm

   40   -48  6307  5231 rc
85 dict begin %Colortable dictionary
/c0 { 0.000000 0.000000 0.000000 sr} bdef
/c1 { 1.000000 1.000000 1.000000 sr} bdef
/c2 { 0.900000 0.000000 0.000000 sr} bdef
/c3 { 0.000000 0.820000 0.000000 sr} bdef
/c4 { 0.000000 0.000000 0.800000 sr} bdef
/c5 { 0.910000 0.820000 0.320000 sr} bdef
/c6 { 1.000000 0.260000 0.820000 sr} bdef
/c7 { 0.000000 0.820000 0.820000 sr} bdef
c0
1 j
1 sg
   0    0 6919 5187 rf
6 w
0 4202 5362 0 0 -4202 899 4616 4 MP
PP
-5362 0 0 4202 5362 0 0 -4202 899 4616 5 MP stroke
4 w
DO
SO
6 w
0 sg
 899  414 mt 6261  414 L
 899 4616 mt 6261 4616 L
6261 4616 mt 6261  414 L
 899 4616 mt  899  414 L
 899 4616 mt 6261 4616 L
 899 4616 mt  899  414 L
1877 4616 mt 1877 4562 L
1877  414 mt 1877  467 L
%%IncludeResource: font Helvetica
/Helvetica /WindowsLatin1Encoding 240 FMSR

1711 4873 mt 
(0.1) s
2855 4616 mt 2855 4562 L
2855  414 mt 2855  467 L
2689 4873 mt 
(0.2) s
3834 4616 mt 3834 4562 L
3834  414 mt 3834  467 L
3668 4873 mt 
(0.3) s
4812 4616 mt 4812 4562 L
4812  414 mt 4812  467 L
4646 4873 mt 
(0.4) s
5791 4616 mt 5791 4562 L
5791  414 mt 5791  467 L
5625 4873 mt 
(0.5) s
 899 3934 mt  952 3934 L
6261 3934 mt 6207 3934 L
 397 4023 mt 
(0.05) s
 899 3253 mt  952 3253 L
6261 3253 mt 6207 3253 L
 531 3342 mt 
(0.1) s
 899 2572 mt  952 2572 L
6261 2572 mt 6207 2572 L
 397 2661 mt 
(0.15) s
 899 1891 mt  952 1891 L
6261 1891 mt 6207 1891 L
 531 1980 mt 
(0.2) s
 899 1209 mt  952 1209 L
6261 1209 mt 6207 1209 L
 397 1298 mt 
(0.25) s
 899  528 mt  952  528 L
6261  528 mt 6207  528 L
 531  617 mt 
(0.3) s
 899  414 mt 6261  414 L
 899 4616 mt 6261 4616 L
6261 4616 mt 6261  414 L
 899 4616 mt  899  414 L
gs 899 414 5363 4203 rc
gr

/c8 { 0.000000 0.000000 1.000000 sr} bdef
c8
1505 3194 mt 1577 3194 L
1541 3158 mt 1541 3230 L
 925 4484 mt  997 4484 L
 961 4448 mt  961 4520 L
2984 4615 mt 3056 4615 L
3020 4579 mt 3020 4651 L
 967 4536 mt 1039 4536 L
1003 4500 mt 1003 4572 L
 978 3542 mt 1050 3542 L
1014 3506 mt 1014 3578 L
1174 4494 mt 1246 4494 L
1210 4458 mt 1210 4530 L
 867 4316 mt  939 4316 L
 903 4280 mt  903 4352 L
 869 3896 mt  941 3896 L
 905 3860 mt  905 3932 L
 897 4160 mt  969 4160 L
 933 4124 mt  933 4196 L
1394 3785 mt 1466 3785 L
1430 3749 mt 1430 3821 L
1762 3233 mt 1834 3233 L
1798 3197 mt 1798 3269 L
1444 3995 mt 1516 3995 L
1480 3959 mt 1480 4031 L
1451 3987 mt 1523 3987 L
1487 3951 mt 1487 4023 L
1990 4088 mt 2062 4088 L
2026 4052 mt 2026 4124 L
1043 3719 mt 1115 3719 L
1079 3683 mt 1079 3755 L
 956 4130 mt 1028 4130 L
 992 4094 mt  992 4166 L
1977 4590 mt 2049 4590 L
2013 4554 mt 2013 4626 L
 873 3930 mt  945 3930 L
 909 3894 mt  909 3966 L
 905 4358 mt  977 4358 L
 941 4322 mt  941 4394 L
 881 4609 mt  953 4609 L
 917 4573 mt  917 4645 L
1323 4572 mt 1395 4572 L
1359 4536 mt 1359 4608 L
1210 1537 mt 1282 1537 L
1246 1501 mt 1246 1573 L
 947 2348 mt 1019 2348 L
 983 2312 mt  983 2384 L
 996  598 mt 1068  598 L
1032  562 mt 1032  634 L
1256 3722 mt 1328 3722 L
1292 3686 mt 1292 3758 L
1149 4583 mt 1221 4583 L
1185 4547 mt 1185 4619 L
 887 4348 mt  959 4348 L
 923 4312 mt  923 4384 L
1095 4266 mt 1167 4266 L
1131 4230 mt 1131 4302 L
1006 4466 mt 1078 4466 L
1042 4430 mt 1042 4502 L
 877 4601 mt  949 4601 L
 913 4565 mt  913 4637 L
1293 4612 mt 1365 4612 L
1329 4576 mt 1329 4648 L
 912 3800 mt  984 3800 L
 948 3764 mt  948 3836 L
 870 4609 mt  942 4609 L
 906 4573 mt  906 4645 L
 863 4406 mt  935 4406 L
 899 4370 mt  899 4442 L
1493 4565 mt 1565 4565 L
1529 4529 mt 1529 4601 L
1221 4507 mt 1293 4507 L
1257 4471 mt 1257 4543 L
 870 4408 mt  942 4408 L
 906 4372 mt  906 4444 L
1299 4400 mt 1371 4400 L
1335 4364 mt 1335 4436 L
1279 3603 mt 1351 3603 L
1315 3567 mt 1315 3639 L
1683 4615 mt 1755 4615 L
1719 4579 mt 1719 4651 L
 879 4592 mt  951 4592 L
 915 4556 mt  915 4628 L
 933 4143 mt 1005 4143 L
 969 4107 mt  969 4179 L
1013 4611 mt 1085 4611 L
1049 4575 mt 1049 4647 L
3481 1497 mt 3553 1497 L
3517 1461 mt 3517 1533 L
 874 4572 mt  946 4572 L
 910 4536 mt  910 4608 L
 928 4559 mt 1000 4559 L
 964 4523 mt  964 4595 L
1255 4166 mt 1327 4166 L
1291 4130 mt 1291 4202 L
 885 4600 mt  957 4600 L
 921 4564 mt  921 4636 L
1394 4568 mt 1466 4568 L
1430 4532 mt 1430 4604 L
2224 4479 mt 2296 4479 L
2260 4443 mt 2260 4515 L
1032 2008 mt 1104 2008 L
1068 1972 mt 1068 2044 L
 863 3888 mt  935 3888 L
 899 3852 mt  899 3924 L
4295 3099 mt 4367 3099 L
4331 3063 mt 4331 3135 L
 886 4439 mt  958 4439 L
 922 4403 mt  922 4475 L
 866 2910 mt  938 2910 L
 902 2874 mt  902 2946 L
 925 4256 mt  997 4256 L
 961 4220 mt  961 4292 L
 878 3647 mt  950 3647 L
 914 3611 mt  914 3683 L
 930 3761 mt 1002 3761 L
 966 3725 mt  966 3797 L
2636 4384 mt 2708 4384 L
2672 4348 mt 2672 4420 L
2988 4612 mt 3060 4612 L
3024 4576 mt 3024 4648 L
1319 3277 mt 1391 3277 L
1355 3241 mt 1355 3313 L
1073 4542 mt 1145 4542 L
1109 4506 mt 1109 4578 L
 901 3896 mt  973 3896 L
 937 3860 mt  937 3932 L
1207 4485 mt 1279 4485 L
1243 4449 mt 1243 4521 L
5296 4504 mt 5368 4504 L
5332 4468 mt 5332 4540 L
 892 4027 mt  964 4027 L
 928 3991 mt  928 4063 L
3861 4611 mt 3933 4611 L
3897 4575 mt 3897 4647 L
1090 4615 mt 1162 4615 L
1126 4579 mt 1126 4651 L
2394 4063 mt 2466 4063 L
2430 4027 mt 2430 4099 L
2199 4392 mt 2271 4392 L
2235 4356 mt 2235 4428 L
1495 4612 mt 1567 4612 L
1531 4576 mt 1531 4648 L
1093 4502 mt 1165 4502 L
1129 4466 mt 1129 4538 L
 950 3852 mt 1022 3852 L
 986 3816 mt  986 3888 L
 995 4198 mt 1067 4198 L
1031 4162 mt 1031 4234 L
1766 2721 mt 1838 2721 L
1802 2685 mt 1802 2757 L
1389 4615 mt 1461 4615 L
1425 4579 mt 1425 4651 L
 863 4125 mt  935 4125 L
 899 4089 mt  899 4161 L
2715 4601 mt 2787 4601 L
2751 4565 mt 2751 4637 L
 870 4065 mt  942 4065 L
 906 4029 mt  906 4101 L
1290 4041 mt 1362 4041 L
1326 4005 mt 1326 4077 L
 872 3194 mt  944 3194 L
 908 3158 mt  908 3230 L
1080 4454 mt 1152 4454 L
1116 4418 mt 1116 4490 L
2888 4574 mt 2960 4574 L
2924 4538 mt 2924 4610 L
1120 4600 mt 1192 4600 L
1156 4564 mt 1156 4636 L
1081 4589 mt 1153 4589 L
1117 4553 mt 1117 4625 L
1145 3830 mt 1217 3830 L
1181 3794 mt 1181 3866 L
 864  671 mt  936  671 L
 900  635 mt  900  707 L
 891 4153 mt  963 4153 L
 927 4117 mt  927 4189 L
1066 4601 mt 1138 4601 L
1102 4565 mt 1102 4637 L
1021 3545 mt 1093 3545 L
1057 3509 mt 1057 3581 L
1482 4606 mt 1554 4606 L
1518 4570 mt 1518 4642 L
1008 2150 mt 1080 2150 L
1044 2114 mt 1044 2186 L
1014 4000 mt 1086 4000 L
1050 3964 mt 1050 4036 L
 919 4465 mt  991 4465 L
 955 4429 mt  955 4501 L
 905 4374 mt  977 4374 L
 941 4338 mt  941 4410 L
1126 4490 mt 1198 4490 L
1162 4454 mt 1162 4526 L
1221 4562 mt 1293 4562 L
1257 4526 mt 1257 4598 L
1183 4606 mt 1255 4606 L
1219 4570 mt 1219 4642 L
 872 4562 mt  944 4562 L
 908 4526 mt  908 4598 L
 909 3602 mt  981 3602 L
 945 3566 mt  945 3638 L
 945 4037 mt 1017 4037 L
 981 4001 mt  981 4073 L
1022 3028 mt 1094 3028 L
1058 2992 mt 1058 3064 L
1304 2356 mt 1376 2356 L
1340 2320 mt 1340 2392 L
1082 4321 mt 1154 4321 L
1118 4285 mt 1118 4357 L
 910 3829 mt  982 3829 L
 946 3793 mt  946 3865 L
 990 4040 mt 1062 4040 L
1026 4004 mt 1026 4076 L
1653 4522 mt 1725 4522 L
1689 4486 mt 1689 4558 L
1194 4239 mt 1266 4239 L
1230 4203 mt 1230 4275 L
 989 3641 mt 1061 3641 L
1025 3605 mt 1025 3677 L
1071 4613 mt 1143 4613 L
1107 4577 mt 1107 4649 L
1008 4459 mt 1080 4459 L
1044 4423 mt 1044 4495 L
 940 4549 mt 1012 4549 L
 976 4513 mt  976 4585 L
 866 4142 mt  938 4142 L
 902 4106 mt  902 4178 L
1610 3913 mt 1682 3913 L
1646 3877 mt 1646 3949 L
1059 3328 mt 1131 3328 L
1095 3292 mt 1095 3364 L
 997 2068 mt 1069 2068 L
1033 2032 mt 1033 2104 L
 879 4537 mt  951 4537 L
 915 4501 mt  915 4573 L
1244 4500 mt 1316 4500 L
1280 4464 mt 1280 4536 L
 863 4542 mt  935 4542 L
 899 4506 mt  899 4578 L
 900 3762 mt  972 3762 L
 936 3726 mt  936 3798 L
1031 4486 mt 1103 4486 L
1067 4450 mt 1067 4522 L
4075 1892 mt 4147 1892 L
4111 1856 mt 4111 1928 L
 872 4510 mt  944 4510 L
 908 4474 mt  908 4546 L
1520 3481 mt 1592 3481 L
1556 3445 mt 1556 3517 L
2424 4087 mt 2496 4087 L
2460 4051 mt 2460 4123 L
2934 3894 mt 3006 3894 L
2970 3858 mt 2970 3930 L
 919 4591 mt  991 4591 L
 955 4555 mt  955 4627 L
1673 3990 mt 1745 3990 L
1709 3954 mt 1709 4026 L
1553 4404 mt 1625 4404 L
1589 4368 mt 1589 4440 L
1014 2611 mt 1086 2611 L
1050 2575 mt 1050 2647 L
 867 3732 mt  939 3732 L
 903 3696 mt  903 3768 L
1246 3242 mt 1318 3242 L
1282 3206 mt 1282 3278 L
 894 3854 mt  966 3854 L
 930 3818 mt  930 3890 L
 962 3809 mt 1034 3809 L
 998 3773 mt  998 3845 L
1041 4502 mt 1113 4502 L
1077 4466 mt 1077 4538 L
 868 4419 mt  940 4419 L
 904 4383 mt  904 4455 L
 922 4498 mt  994 4498 L
 958 4462 mt  958 4534 L
1124 4568 mt 1196 4568 L
1160 4532 mt 1160 4604 L
2234 4270 mt 2306 4270 L
2270 4234 mt 2270 4306 L
1904 4218 mt 1976 4218 L
1940 4182 mt 1940 4254 L
1032 4372 mt 1104 4372 L
1068 4336 mt 1068 4408 L
 893 4004 mt  965 4004 L
 929 3968 mt  929 4040 L
 971 4170 mt 1043 4170 L
1007 4134 mt 1007 4206 L
 891 3905 mt  963 3905 L
 927 3869 mt  927 3941 L
 918 4211 mt  990 4211 L
 954 4175 mt  954 4247 L
 928 4535 mt 1000 4535 L
 964 4499 mt  964 4571 L
 888 3751 mt  960 3751 L
 924 3715 mt  924 3787 L
1336 2202 mt 1408 2202 L
1372 2166 mt 1372 2238 L
1268 4139 mt 1340 4139 L
1304 4103 mt 1304 4175 L
1370 4452 mt 1442 4452 L
1406 4416 mt 1406 4488 L
 969 3773 mt 1041 3773 L
1005 3737 mt 1005 3809 L
 990 4278 mt 1062 4278 L
1026 4242 mt 1026 4314 L
 969 4615 mt 1041 4615 L
1005 4579 mt 1005 4651 L
1054 3475 mt 1126 3475 L
1090 3439 mt 1090 3511 L
3092 4462 mt 3164 4462 L
3128 4426 mt 3128 4498 L
 871 4484 mt  943 4484 L
 907 4448 mt  907 4520 L
3845 4606 mt 3917 4606 L
3881 4570 mt 3881 4642 L
 869 3826 mt  941 3826 L
 905 3790 mt  905 3862 L
 926 3268 mt  998 3268 L
 962 3232 mt  962 3304 L
 864 3797 mt  936 3797 L
 900 3761 mt  900 3833 L
1956 4604 mt 2028 4604 L
1992 4568 mt 1992 4640 L
2003 4310 mt 2075 4310 L
2039 4274 mt 2039 4346 L
2036 2031 mt 2108 2031 L
2072 1995 mt 2072 2067 L
 911 4588 mt  983 4588 L
 947 4552 mt  947 4624 L
 883 3816 mt  955 3816 L
 919 3780 mt  919 3852 L
 863 4586 mt  935 4586 L
 899 4550 mt  899 4622 L
1385 4456 mt 1457 4456 L
1421 4420 mt 1421 4492 L
 863 3425 mt  935 3425 L
 899 3389 mt  899 3461 L
1228 3305 mt 1300 3305 L
1264 3269 mt 1264 3341 L
1407 4498 mt 1479 4498 L
1443 4462 mt 1443 4534 L
 919 1973 mt  991 1973 L
 955 1937 mt  955 2009 L
1098 3599 mt 1170 3599 L
1134 3563 mt 1134 3635 L
 873 4579 mt  945 4579 L
 909 4543 mt  909 4615 L
 968 4128 mt 1040 4128 L
1004 4092 mt 1004 4164 L
1206 3911 mt 1278 3911 L
1242 3875 mt 1242 3947 L
1275 3998 mt 1347 3998 L
1311 3962 mt 1311 4034 L
 880 4264 mt  952 4264 L
 916 4228 mt  916 4300 L
1236 4611 mt 1308 4611 L
1272 4575 mt 1272 4647 L
1048 4427 mt 1120 4427 L
1084 4391 mt 1084 4463 L
 981 4472 mt 1053 4472 L
1017 4436 mt 1017 4508 L
 994 3298 mt 1066 3298 L
1030 3262 mt 1030 3334 L
 908 4613 mt  980 4613 L
 944 4577 mt  944 4649 L
1928  813 mt 2000  813 L
1964  777 mt 1964  849 L
6225 4336 mt 6297 4336 L
6261 4300 mt 6261 4372 L
1054 4349 mt 1126 4349 L
1090 4313 mt 1090 4385 L
 866 4387 mt  938 4387 L
 902 4351 mt  902 4423 L
 932 2808 mt 1004 2808 L
 968 2772 mt  968 2844 L
1014 4507 mt 1086 4507 L
1050 4471 mt 1050 4543 L
 972 4610 mt 1044 4610 L
1008 4574 mt 1008 4646 L
 865 2103 mt  937 2103 L
 901 2067 mt  901 2139 L
 949 4138 mt 1021 4138 L
 985 4102 mt  985 4174 L
1204  414 mt 1276  414 L
1240  378 mt 1240  450 L
 865 4556 mt  937 4556 L
 901 4520 mt  901 4592 L
1132 3262 mt 1204 3262 L
1168 3226 mt 1168 3298 L
 997 3641 mt 1069 3641 L
1033 3605 mt 1033 3677 L
1255 4196 mt 1327 4196 L
1291 4160 mt 1291 4232 L
1039 2991 mt 1111 2991 L
1075 2955 mt 1075 3027 L
 869 3588 mt  941 3588 L
 905 3552 mt  905 3624 L
1854 4094 mt 1926 4094 L
1890 4058 mt 1890 4130 L
1076 3826 mt 1148 3826 L
1112 3790 mt 1112 3862 L
 910 3159 mt  982 3159 L
 946 3123 mt  946 3195 L
1128 2927 mt 1200 2927 L
1164 2891 mt 1164 2963 L
 896 4406 mt  968 4406 L
 932 4370 mt  932 4442 L
 873 4172 mt  945 4172 L
 909 4136 mt  909 4208 L
 926 4204 mt  998 4204 L
 962 4168 mt  962 4240 L
 872 4168 mt  944 4168 L
 908 4132 mt  908 4204 L
 953 4406 mt 1025 4406 L
 989 4370 mt  989 4442 L
 984 4614 mt 1056 4614 L
1020 4578 mt 1020 4650 L
1065 4054 mt 1137 4054 L
1101 4018 mt 1101 4090 L
 880 4301 mt  952 4301 L
 916 4265 mt  916 4337 L
 960 4008 mt 1032 4008 L
 996 3972 mt  996 4044 L
 989 4558 mt 1061 4558 L
1025 4522 mt 1025 4594 L
 957 4308 mt 1029 4308 L
 993 4272 mt  993 4344 L
 880 2166 mt  952 2166 L
 916 2130 mt  916 2202 L
 869 3349 mt  941 3349 L
 905 3313 mt  905 3385 L
 869 3254 mt  941 3254 L
 905 3218 mt  905 3290 L
1016 4613 mt 1088 4613 L
1052 4577 mt 1052 4649 L
1067 4295 mt 1139 4295 L
1103 4259 mt 1103 4331 L
 880 4609 mt  952 4609 L
 916 4573 mt  916 4645 L
1180 4389 mt 1252 4389 L
1216 4353 mt 1216 4425 L
1026 4572 mt 1098 4572 L
1062 4536 mt 1062 4608 L
1332  623 mt 1404  623 L
1368  587 mt 1368  659 L
1150 3570 mt 1222 3570 L
1186 3534 mt 1186 3606 L
 898 1512 mt  970 1512 L
 934 1476 mt  934 1548 L
1124 4125 mt 1196 4125 L
1160 4089 mt 1160 4161 L
 892 4615 mt  964 4615 L
 928 4579 mt  928 4651 L
 922 4372 mt  994 4372 L
 958 4336 mt  958 4408 L
 918 4530 mt  990 4530 L
 954 4494 mt  954 4566 L
1044 4030 mt 1116 4030 L
1080 3994 mt 1080 4066 L
 941 3984 mt 1013 3984 L
 977 3948 mt  977 4020 L
 864 3523 mt  936 3523 L
 900 3487 mt  900 3559 L
 907 4421 mt  979 4421 L
 943 4385 mt  943 4457 L
 879 4593 mt  951 4593 L
 915 4557 mt  915 4629 L
 985 4607 mt 1057 4607 L
1021 4571 mt 1021 4643 L
 936 4449 mt 1008 4449 L
 972 4413 mt  972 4485 L
1004 4478 mt 1076 4478 L
1040 4442 mt 1040 4514 L
 959 4592 mt 1031 4592 L
 995 4556 mt  995 4628 L
 868 2473 mt  940 2473 L
 904 2437 mt  904 2509 L
 983 3140 mt 1055 3140 L
1019 3104 mt 1019 3176 L
 984 4568 mt 1056 4568 L
1020 4532 mt 1020 4604 L
 871 4567 mt  943 4567 L
 907 4531 mt  907 4603 L
 927 4607 mt  999 4607 L
 963 4571 mt  963 4643 L
 960 4602 mt 1032 4602 L
 996 4566 mt  996 4638 L
 888 2701 mt  960 2701 L
 924 2665 mt  924 2737 L
1111 4216 mt 1183 4216 L
1147 4180 mt 1147 4252 L
 901 4567 mt  973 4567 L
 937 4531 mt  937 4603 L
 892 3559 mt  964 3559 L
 928 3523 mt  928 3595 L
 970 4403 mt 1042 4403 L
1006 4367 mt 1006 4439 L
 863 4517 mt  935 4517 L
 899 4481 mt  899 4553 L
 873 4588 mt  945 4588 L
 909 4552 mt  909 4624 L
 914 3226 mt  986 3226 L
 950 3190 mt  950 3262 L
 872 3941 mt  944 3941 L
 908 3905 mt  908 3977 L
2157 3007 mt 2229 3007 L
2193 2971 mt 2193 3043 L
 865 4505 mt  937 4505 L
 901 4469 mt  901 4541 L
 878 3220 mt  950 3220 L
 914 3184 mt  914 3256 L
 924 4173 mt  996 4173 L
 960 4137 mt  960 4209 L
 922 4295 mt  994 4295 L
 958 4259 mt  958 4331 L
 868 4179 mt  940 4179 L
 904 4143 mt  904 4215 L
1595 3265 mt 1667 3265 L
1631 3229 mt 1631 3301 L
1015 4402 mt 1087 4402 L
1051 4366 mt 1051 4438 L
1080 3152 mt 1152 3152 L
1116 3116 mt 1116 3188 L
 863 4576 mt  935 4576 L
 899 4540 mt  899 4612 L
 871 4412 mt  943 4412 L
 907 4376 mt  907 4448 L
 979 4416 mt 1051 4416 L
1015 4380 mt 1015 4452 L
 864 4545 mt  936 4545 L
 900 4509 mt  900 4581 L
 863 3490 mt  935 3490 L
 899 3454 mt  899 3526 L
 883 4562 mt  955 4562 L
 919 4526 mt  919 4598 L
 863 4254 mt  935 4254 L
 899 4218 mt  899 4290 L
2032 4486 mt 2104 4486 L
2068 4450 mt 2068 4522 L
 893 4455 mt  965 4455 L
 929 4419 mt  929 4491 L
2585 4427 mt 2657 4427 L
2621 4391 mt 2621 4463 L
 989 4605 mt 1061 4605 L
1025 4569 mt 1025 4641 L
 877 4481 mt  949 4481 L
 913 4445 mt  913 4517 L
 906 4580 mt  978 4580 L
 942 4544 mt  942 4616 L
 863 3547 mt  935 3547 L
 899 3511 mt  899 3583 L
 955 4588 mt 1027 4588 L
 991 4552 mt  991 4624 L
1191 3380 mt 1263 3380 L
1227 3344 mt 1227 3416 L
 886 4395 mt  958 4395 L
 922 4359 mt  922 4431 L
1433 4576 mt 1505 4576 L
1469 4540 mt 1469 4612 L
 940 4156 mt 1012 4156 L
 976 4120 mt  976 4192 L
 932 3302 mt 1004 3302 L
 968 3266 mt  968 3338 L
 891 4365 mt  963 4365 L
 927 4329 mt  927 4401 L
1094 3682 mt 1166 3682 L
1130 3646 mt 1130 3718 L
 864 4250 mt  936 4250 L
 900 4214 mt  900 4286 L
 864 3922 mt  936 3922 L
 900 3886 mt  900 3958 L
 941 4512 mt 1013 4512 L
 977 4476 mt  977 4548 L
1146 1965 mt 1218 1965 L
1182 1929 mt 1182 2001 L
1004 3993 mt 1076 3993 L
1040 3957 mt 1040 4029 L
 986 4398 mt 1058 4398 L
1022 4362 mt 1022 4434 L
1008 4527 mt 1080 4527 L
1044 4491 mt 1044 4563 L
 906 4026 mt  978 4026 L
 942 3990 mt  942 4062 L
1048 3578 mt 1120 3578 L
1084 3542 mt 1084 3614 L
 873 4376 mt  945 4376 L
 909 4340 mt  909 4412 L
 886 3494 mt  958 3494 L
 922 3458 mt  922 3530 L
 863 4605 mt  935 4605 L
 899 4569 mt  899 4641 L
 863 4594 mt  935 4594 L
 899 4558 mt  899 4630 L
 863 4303 mt  935 4303 L
 899 4267 mt  899 4339 L
 863 4150 mt  935 4150 L
 899 4114 mt  899 4186 L
 867 4542 mt  939 4542 L
 903 4506 mt  903 4578 L
1159 2674 mt 1231 2674 L
1195 2638 mt 1195 2710 L
 864 4170 mt  936 4170 L
 900 4134 mt  900 4206 L
 877 3748 mt  949 3748 L
 913 3712 mt  913 3784 L
 869  940 mt  941  940 L
 905  904 mt  905  976 L
 893 4601 mt  965 4601 L
 929 4565 mt  929 4637 L
1171 4147 mt 1243 4147 L
1207 4111 mt 1207 4183 L
 942 3769 mt 1014 3769 L
 978 3733 mt  978 3805 L
2602 4578 mt 2674 4578 L
2638 4542 mt 2638 4614 L
 898 3928 mt  970 3928 L
 934 3892 mt  934 3964 L
 924 3777 mt  996 3777 L
 960 3741 mt  960 3813 L
 947 4575 mt 1019 4575 L
 983 4539 mt  983 4611 L
1181 4402 mt 1253 4402 L
1217 4366 mt 1217 4438 L
 889 4517 mt  961 4517 L
 925 4481 mt  925 4553 L
1615 4164 mt 1687 4164 L
1651 4128 mt 1651 4200 L
1041 4489 mt 1113 4489 L
1077 4453 mt 1077 4525 L
 942 3855 mt 1014 3855 L
 978 3819 mt  978 3891 L
1070 2099 mt 1142 2099 L
1106 2063 mt 1106 2135 L
1001 4579 mt 1073 4579 L
1037 4543 mt 1037 4615 L
 865 3656 mt  937 3656 L
 901 3620 mt  901 3692 L
 877 4570 mt  949 4570 L
 913 4534 mt  913 4606 L
 878 3457 mt  950 3457 L
 914 3421 mt  914 3493 L
 863 4544 mt  935 4544 L
 899 4508 mt  899 4580 L
1459 2968 mt 1531 2968 L
1495 2932 mt 1495 3004 L
 877 4609 mt  949 4609 L
 913 4573 mt  913 4645 L
1234 3231 mt 1306 3231 L
1270 3195 mt 1270 3267 L
 934 4587 mt 1006 4587 L
 970 4551 mt  970 4623 L
 863 4551 mt  935 4551 L
 899 4515 mt  899 4587 L
 912 3971 mt  984 3971 L
 948 3935 mt  948 4007 L
 916 3008 mt  988 3008 L
 952 2972 mt  952 3044 L
 951 4534 mt 1023 4534 L
 987 4498 mt  987 4570 L
 883 4020 mt  955 4020 L
 919 3984 mt  919 4056 L
 867 4310 mt  939 4310 L
 903 4274 mt  903 4346 L
 864 3224 mt  936 3224 L
 900 3188 mt  900 3260 L
 911 4209 mt  983 4209 L
 947 4173 mt  947 4245 L
 874 3830 mt  946 3830 L
 910 3794 mt  910 3866 L
1068 4583 mt 1140 4583 L
1104 4547 mt 1104 4619 L
1635 4615 mt 1707 4615 L
1671 4579 mt 1671 4651 L
 867 4594 mt  939 4594 L
 903 4558 mt  903 4630 L
 863 4542 mt  935 4542 L
 899 4506 mt  899 4578 L
 865 4340 mt  937 4340 L
 901 4304 mt  901 4376 L
1473 4536 mt 1545 4536 L
1509 4500 mt 1509 4572 L
 967 4603 mt 1039 4603 L
1003 4567 mt 1003 4639 L
 937 4431 mt 1009 4431 L
 973 4395 mt  973 4467 L
1116 4250 mt 1188 4250 L
1152 4214 mt 1152 4286 L
 880 3911 mt  952 3911 L
 916 3875 mt  916 3947 L
 999 4614 mt 1071 4614 L
1035 4578 mt 1035 4650 L
1034 4489 mt 1106 4489 L
1070 4453 mt 1070 4525 L
1124 3854 mt 1196 3854 L
1160 3818 mt 1160 3890 L
1459 3607 mt 1531 3607 L
1495 3571 mt 1495 3643 L
 868 2409 mt  940 2409 L
 904 2373 mt  904 2445 L
1001 4507 mt 1073 4507 L
1037 4471 mt 1037 4543 L
 872 3776 mt  944 3776 L
 908 3740 mt  908 3812 L
 885 4604 mt  957 4604 L
 921 4568 mt  921 4640 L
1377 4030 mt 1449 4030 L
1413 3994 mt 1413 4066 L
1030 4360 mt 1102 4360 L
1066 4324 mt 1066 4396 L
 863 4257 mt  935 4257 L
 899 4221 mt  899 4293 L
 880 4493 mt  952 4493 L
 916 4457 mt  916 4529 L
 926 4255 mt  998 4255 L
 962 4219 mt  962 4291 L
 901 4596 mt  973 4596 L
 937 4560 mt  937 4632 L
 878 3908 mt  950 3908 L
 914 3872 mt  914 3944 L
 887 4116 mt  959 4116 L
 923 4080 mt  923 4152 L
1079 4615 mt 1151 4615 L
1115 4579 mt 1115 4651 L
1015 4607 mt 1087 4607 L
1051 4571 mt 1051 4643 L
1271 3544 mt 1343 3544 L
1307 3508 mt 1307 3580 L
 869 3893 mt  941 3893 L
 905 3857 mt  905 3929 L
 913 4523 mt  985 4523 L
 949 4487 mt  949 4559 L
 905 4582 mt  977 4582 L
 941 4546 mt  941 4618 L
 875 4418 mt  947 4418 L
 911 4382 mt  911 4454 L
 873 4039 mt  945 4039 L
 909 4003 mt  909 4075 L
 903 3783 mt  975 3783 L
 939 3747 mt  939 3819 L
 891 4399 mt  963 4399 L
 927 4363 mt  927 4435 L
 867 2637 mt  939 2637 L
 903 2601 mt  903 2673 L
 908 4572 mt  980 4572 L
 944 4536 mt  944 4608 L
 863 4486 mt  935 4486 L
 899 4450 mt  899 4522 L
 869 4444 mt  941 4444 L
 905 4408 mt  905 4480 L
 886 2652 mt  958 2652 L
 922 2616 mt  922 2688 L
 868 4605 mt  940 4605 L
 904 4569 mt  904 4641 L
 946 3076 mt 1018 3076 L
 982 3040 mt  982 3112 L
 904 4451 mt  976 4451 L
 940 4415 mt  940 4487 L
 939 4613 mt 1011 4613 L
 975 4577 mt  975 4649 L
 876 4588 mt  948 4588 L
 912 4552 mt  912 4624 L
 883 4483 mt  955 4483 L
 919 4447 mt  919 4519 L
 865 4186 mt  937 4186 L
 901 4150 mt  901 4222 L
2360 1841 mt 2432 1841 L
2396 1805 mt 2396 1877 L
3633 3558 mt 3705 3558 L
3669 3522 mt 3669 3594 L
 969 4608 mt 1041 4608 L
1005 4572 mt 1005 4644 L
1433 4519 mt 1505 4519 L
1469 4483 mt 1469 4555 L
 920 3923 mt  992 3923 L
 956 3887 mt  956 3959 L
 953 4603 mt 1025 4603 L
 989 4567 mt  989 4639 L
1953 4577 mt 2025 4577 L
1989 4541 mt 1989 4613 L
1070 2646 mt 1142 2646 L
1106 2610 mt 1106 2682 L
 963 4355 mt 1035 4355 L
 999 4319 mt  999 4391 L
 993 2257 mt 1065 2257 L
1029 2221 mt 1029 2293 L
 875 4616 mt  947 4616 L
 911 4580 mt  911 4652 L
 867 3076 mt  939 3076 L
 903 3040 mt  903 3112 L
1063 4163 mt 1135 4163 L
1099 4127 mt 1099 4199 L
1093 4196 mt 1165 4196 L
1129 4160 mt 1129 4232 L
1191 3538 mt 1263 3538 L
1227 3502 mt 1227 3574 L
 864 4437 mt  936 4437 L
 900 4401 mt  900 4473 L
 893 4341 mt  965 4341 L
 929 4305 mt  929 4377 L
1027 4344 mt 1099 4344 L
1063 4308 mt 1063 4380 L
gs 899 414 5363 4203 rc
gr

0 sg
2826 5104 mt 
(\(F,DCTs,MLP\)) s
 288 3277 mt  -90 rotate
(\(S,SSC,GMM\)) s
90 rotate
2975  223 mt 
(Corr = 0.01) s

end %%Color Dict

eplot
%%EndObject

epage
end

showpage

%%Trailer
%%EOF
