%!PS-Adobe-3.0 EPSF-3.0
%%Creator: MATLAB, The Mathworks, Inc. Version 7.7.0.471 (R2008b). Operating System: Microsoft Windows XP.
%%Title: Pictures\main_zoo_mvar_analysis_data_BMI_xcorr_bmig_p1_k2_1_5.eps
%%CreationDate: 10/26/2009  05:45:12
%%DocumentNeededFonts: Helvetica
%%DocumentProcessColors: Cyan Magenta Yellow Black
%%LanguageLevel: 2
%%Pages: 1
%%BoundingBox:    37   180   549   616
%%EndComments

%%BeginProlog
% MathWorks dictionary
/MathWorks 160 dict begin
% definition operators
/bdef {bind def} bind def
/ldef {load def} bind def
/xdef {exch def} bdef
/xstore {exch store} bdef
% operator abbreviations
/c  /clip ldef
/cc /concat ldef
/cp /closepath ldef
/gr /grestore ldef
/gs /gsave ldef
/mt /moveto ldef
/np /newpath ldef
/cm /currentmatrix ldef
/sm /setmatrix ldef
/rm /rmoveto ldef
/rl /rlineto ldef
/s {show newpath} bdef
/sc {setcmykcolor} bdef
/sr /setrgbcolor ldef
/sg /setgray ldef
/w /setlinewidth ldef
/j /setlinejoin ldef
/cap /setlinecap ldef
/rc {rectclip} bdef
/rf {rectfill} bdef
% page state control
/pgsv () def
/bpage {/pgsv save def} bdef
/epage {pgsv restore} bdef
/bplot /gsave ldef
/eplot {stroke grestore} bdef
% orientation switch
/portraitMode 0 def /landscapeMode 1 def /rotateMode 2 def
% coordinate system mappings
/dpi2point 0 def
% font control
/FontSize 0 def
/FMS {/FontSize xstore findfont [FontSize 0 0 FontSize neg 0 0]
  makefont setfont} bdef
/ISOLatin1Encoding where {pop /WindowsLatin1Encoding 256 array bdef
ISOLatin1Encoding WindowsLatin1Encoding copy pop
/.notdef/.notdef/quotesinglbase/florin/quotedblbase/ellipsis/dagger
/daggerdbl/circumflex/perthousand/Scaron/guilsinglleft/OE/.notdef/.notdef
/.notdef/.notdef/quoteleft/quoteright/quotedblleft/quotedblright/bullet
/endash/emdash/tilde/trademark/scaron/guilsinglright/oe/.notdef/.notdef
/Ydieresis WindowsLatin1Encoding 128 32 getinterval astore pop}
{/WindowsLatin1Encoding StandardEncoding bdef} ifelse
/reencode {exch dup where {pop load} {pop StandardEncoding} ifelse
  exch dup 3 1 roll findfont dup length dict begin
  { 1 index /FID ne {def}{pop pop} ifelse } forall
  /Encoding exch def currentdict end definefont pop} bdef
/isroman {findfont /CharStrings get /Agrave known} bdef
/FMSR {3 1 roll 1 index dup isroman {reencode} {pop pop} ifelse
  exch FMS} bdef
/csm {1 dpi2point div -1 dpi2point div scale neg translate
 dup landscapeMode eq {pop -90 rotate}
  {rotateMode eq {90 rotate} if} ifelse} bdef
% line types: solid, dotted, dashed, dotdash
/SO { [] 0 setdash } bdef
/DO { [.5 dpi2point mul 4 dpi2point mul] 0 setdash } bdef
/DA { [6 dpi2point mul] 0 setdash } bdef
/DD { [.5 dpi2point mul 4 dpi2point mul 6 dpi2point mul 4
  dpi2point mul] 0 setdash } bdef
% macros for lines and objects
/L {lineto stroke} bdef
/MP {3 1 roll moveto 1 sub {rlineto} repeat} bdef
/AP {{rlineto} repeat} bdef
/PDlw -1 def
/W {/PDlw currentlinewidth def setlinewidth} def
/PP {closepath eofill} bdef
/DP {closepath stroke} bdef
/MR {4 -2 roll moveto dup  0 exch rlineto exch 0 rlineto
  neg 0 exch rlineto closepath} bdef
/FR {MR stroke} bdef
/PR {MR fill} bdef
/L1i {{currentfile picstr readhexstring pop} image} bdef
/tMatrix matrix def
/MakeOval {newpath tMatrix currentmatrix pop translate scale
0 0 1 0 360 arc tMatrix setmatrix} bdef
/FO {MakeOval stroke} bdef
/PO {MakeOval fill} bdef
/PD {currentlinewidth 2 div 0 360 arc fill
   PDlw -1 eq not {PDlw w /PDlw -1 def} if} def
/FA {newpath tMatrix currentmatrix pop translate scale
  0 0 1 5 -2 roll arc tMatrix setmatrix stroke} bdef
/PA {newpath tMatrix currentmatrix pop	translate 0 0 moveto scale
  0 0 1 5 -2 roll arc closepath tMatrix setmatrix fill} bdef
/FAn {newpath tMatrix currentmatrix pop translate scale
  0 0 1 5 -2 roll arcn tMatrix setmatrix stroke} bdef
/PAn {newpath tMatrix currentmatrix pop translate 0 0 moveto scale
  0 0 1 5 -2 roll arcn closepath tMatrix setmatrix fill} bdef
/vradius 0 def /hradius 0 def /lry 0 def
/lrx 0 def /uly 0 def /ulx 0 def /rad 0 def
/MRR {/vradius xdef /hradius xdef /lry xdef /lrx xdef /uly xdef
  /ulx xdef newpath tMatrix currentmatrix pop ulx hradius add uly
  vradius add translate hradius vradius scale 0 0 1 180 270 arc 
  tMatrix setmatrix lrx hradius sub uly vradius add translate
  hradius vradius scale 0 0 1 270 360 arc tMatrix setmatrix
  lrx hradius sub lry vradius sub translate hradius vradius scale
  0 0 1 0 90 arc tMatrix setmatrix ulx hradius add lry vradius sub
  translate hradius vradius scale 0 0 1 90 180 arc tMatrix setmatrix
  closepath} bdef
/FRR {MRR stroke } bdef
/PRR {MRR fill } bdef
/MlrRR {/lry xdef /lrx xdef /uly xdef /ulx xdef /rad lry uly sub 2 div def
  newpath tMatrix currentmatrix pop ulx rad add uly rad add translate
  rad rad scale 0 0 1 90 270 arc tMatrix setmatrix lrx rad sub lry rad
  sub translate rad rad scale 0 0 1 270 90 arc tMatrix setmatrix
  closepath} bdef
/FlrRR {MlrRR stroke } bdef
/PlrRR {MlrRR fill } bdef
/MtbRR {/lry xdef /lrx xdef /uly xdef /ulx xdef /rad lrx ulx sub 2 div def
  newpath tMatrix currentmatrix pop ulx rad add uly rad add translate
  rad rad scale 0 0 1 180 360 arc tMatrix setmatrix lrx rad sub lry rad
  sub translate rad rad scale 0 0 1 0 180 arc tMatrix setmatrix
  closepath} bdef
/FtbRR {MtbRR stroke } bdef
/PtbRR {MtbRR fill } bdef
/stri 6 array def /dtri 6 array def
/smat 6 array def /dmat 6 array def
/tmat1 6 array def /tmat2 6 array def /dif 3 array def
/asub {/ind2 exch def /ind1 exch def dup dup
  ind1 get exch ind2 get sub exch } bdef
/tri_to_matrix {
  2 0 asub 3 1 asub 4 0 asub 5 1 asub
  dup 0 get exch 1 get 7 -1 roll astore } bdef
/compute_transform {
  dmat dtri tri_to_matrix tmat1 invertmatrix 
  smat stri tri_to_matrix tmat2 concatmatrix } bdef
/ds {stri astore pop} bdef
/dt {dtri astore pop} bdef
/db {2 copy /cols xdef /rows xdef mul dup 3 mul string
  currentfile 
  3 index 0 eq {/ASCIIHexDecode filter}
  {/ASCII85Decode filter 3 index 2 eq {/RunLengthDecode filter} if }
  ifelse exch readstring pop
  dup 0 3 index getinterval /rbmap xdef
  dup 2 index dup getinterval /gbmap xdef
  1 index dup 2 mul exch getinterval /bbmap xdef pop pop}bdef
/it {gs np dtri aload pop moveto lineto lineto cp c
  cols rows 8 compute_transform 
  rbmap gbmap bbmap true 3 colorimage gr}bdef
/il {newpath moveto lineto stroke}bdef
currentdict end def
%%EndProlog

%%BeginSetup
MathWorks begin

0 cap

end
%%EndSetup

%%Page: 1 1
%%BeginPageSetup
%%PageBoundingBox:    37   180   549   616
MathWorks begin
bpage
%%EndPageSetup

%%BeginObject: obj1
bplot

/dpi2point 12 def
portraitMode 0216 7344 csm

  234   -48  6149  5231 rc
85 dict begin %Colortable dictionary
/c0 { 0.000000 0.000000 0.000000 sr} bdef
/c1 { 1.000000 1.000000 1.000000 sr} bdef
/c2 { 0.900000 0.000000 0.000000 sr} bdef
/c3 { 0.000000 0.820000 0.000000 sr} bdef
/c4 { 0.000000 0.000000 0.800000 sr} bdef
/c5 { 0.910000 0.820000 0.320000 sr} bdef
/c6 { 1.000000 0.260000 0.820000 sr} bdef
/c7 { 0.000000 0.820000 0.820000 sr} bdef
c0
1 j
1 sg
   0    0 6919 5187 rf
6 w
0 4202 5362 0 0 -4202 899 4616 4 MP
PP
-5362 0 0 4202 5362 0 0 -4202 899 4616 5 MP stroke
4 w
DO
SO
6 w
0 sg
 899  414 mt 6261  414 L
 899 4616 mt 6261 4616 L
6261 4616 mt 6261  414 L
 899 4616 mt  899  414 L
 899 4616 mt 6261 4616 L
 899 4616 mt  899  414 L
 919 4616 mt  919 4562 L
 919  414 mt  919  467 L
%%IncludeResource: font Helvetica
/Helvetica /WindowsLatin1Encoding 240 FMSR

 713 4873 mt 
(-3) s
1806 4616 mt 1806 4562 L
1806  414 mt 1806  467 L
1600 4873 mt 
(-2) s
2693 4616 mt 2693 4562 L
2693  414 mt 2693  467 L
2487 4873 mt 
(-1) s
3580 4616 mt 3580 4562 L
3580  414 mt 3580  467 L
3514 4873 mt 
(0) s
4466 4616 mt 4466 4562 L
4466  414 mt 4466  467 L
4400 4873 mt 
(1) s
5353 4616 mt 5353 4562 L
5353  414 mt 5353  467 L
5287 4873 mt 
(2) s
6240 4616 mt 6240 4562 L
6240  414 mt 6240  467 L
6174 4873 mt 
(3) s
 899 4599 mt  952 4599 L
6261 4599 mt 6207 4599 L
 591 4688 mt 
(-3) s
 899 3904 mt  952 3904 L
6261 3904 mt 6207 3904 L
 591 3993 mt 
(-2) s
 899 3209 mt  952 3209 L
6261 3209 mt 6207 3209 L
 591 3298 mt 
(-1) s
 899 2514 mt  952 2514 L
6261 2514 mt 6207 2514 L
 731 2603 mt 
(0) s
 899 1820 mt  952 1820 L
6261 1820 mt 6207 1820 L
 731 1909 mt 
(1) s
 899 1125 mt  952 1125 L
6261 1125 mt 6207 1125 L
 731 1214 mt 
(2) s
 899  430 mt  952  430 L
6261  430 mt 6207  430 L
 731  519 mt 
(3) s
 899  414 mt 6261  414 L
 899 4616 mt 6261 4616 L
6261 4616 mt 6261  414 L
 899 4616 mt  899  414 L
gs 899 414 5363 4203 rc
gr

/c8 { 0.000000 0.000000 1.000000 sr} bdef
c8
4213 2356 mt 4285 2356 L
4249 2320 mt 4249 2392 L
4719 2646 mt 4791 2646 L
4755 2610 mt 4755 2682 L
2866 2223 mt 2938 2223 L
2902 2187 mt 2902 2259 L
2545 2554 mt 2617 2554 L
2581 2518 mt 2581 2590 L
3940 2497 mt 4012 2497 L
3976 2461 mt 3976 2533 L
2605 2062 mt 2677 2062 L
2641 2026 mt 2641 2098 L
1556 3331 mt 1628 3331 L
1592 3295 mt 1592 3367 L
3958 3087 mt 4030 3087 L
3994 3051 mt 3994 3123 L
3897 3281 mt 3969 3281 L
3933 3245 mt 3933 3317 L
4760 1388 mt 4832 1388 L
4796 1352 mt 4796 1424 L
2575 3595 mt 2647 3595 L
2611 3559 mt 2611 3631 L
3627 2401 mt 3699 2401 L
3663 2365 mt 3663 2437 L
4805 1872 mt 4877 1872 L
4841 1836 mt 4841 1908 L
3370 2449 mt 3442 2449 L
3406 2413 mt 3406 2485 L
4564 1448 mt 4636 1448 L
4600 1412 mt 4600 1484 L
3532 2854 mt 3604 2854 L
3568 2818 mt 3568 2890 L
3683 2713 mt 3755 2713 L
3719 2677 mt 3719 2749 L
4034 2536 mt 4106 2536 L
4070 2500 mt 4070 2572 L
4492 2709 mt 4564 2709 L
4528 2673 mt 4528 2745 L
3757 2655 mt 3829 2655 L
3793 2619 mt 3793 2691 L
2765 2510 mt 2837 2510 L
2801 2474 mt 2801 2546 L
3873 2388 mt 3945 2388 L
3909 2352 mt 3909 2424 L
2513 3093 mt 2585 3093 L
2549 3057 mt 2549 3129 L
2987 2453 mt 3059 2453 L
3023 2417 mt 3023 2489 L
4228 1336 mt 4300 1336 L
4264 1300 mt 4264 1372 L
3493 2073 mt 3565 2073 L
3529 2037 mt 3529 2109 L
2624 2602 mt 2696 2602 L
2660 2566 mt 2660 2638 L
3803 1823 mt 3875 1823 L
3839 1787 mt 3839 1859 L
3655 3265 mt 3727 3265 L
3691 3229 mt 3691 3301 L
3934 3235 mt 4006 3235 L
3970 3199 mt 3970 3271 L
2146 2462 mt 2218 2462 L
2182 2426 mt 2182 2498 L
3290 3358 mt 3362 3358 L
3326 3322 mt 3326 3394 L
2381 3527 mt 2453 3527 L
2417 3491 mt 2417 3563 L
3410 2650 mt 3482 2650 L
3446 2614 mt 3446 2686 L
3415 2270 mt 3487 2270 L
3451 2234 mt 3451 2306 L
3555 3039 mt 3627 3039 L
3591 3003 mt 3591 3075 L
3768 3164 mt 3840 3164 L
3804 3128 mt 3804 3200 L
2298 2615 mt 2370 2615 L
2334 2579 mt 2334 2651 L
3202 2189 mt 3274 2189 L
3238 2153 mt 3238 2225 L
3249 3099 mt 3321 3099 L
3285 3063 mt 3285 3135 L
3588 2104 mt 3660 2104 L
3624 2068 mt 3624 2140 L
4236 1680 mt 4308 1680 L
4272 1644 mt 4272 1716 L
5606 2078 mt 5678 2078 L
5642 2042 mt 5642 2114 L
3649 2637 mt 3721 2637 L
3685 2601 mt 3685 2673 L
4463 2418 mt 4535 2418 L
4499 2382 mt 4499 2454 L
3477 2256 mt 3549 2256 L
3513 2220 mt 3513 2292 L
3347 2994 mt 3419 2994 L
3383 2958 mt 3383 3030 L
4107 2659 mt 4179 2659 L
4143 2623 mt 4143 2695 L
2565 2410 mt 2637 2410 L
2601 2374 mt 2601 2446 L
4142 1858 mt 4214 1858 L
4178 1822 mt 4178 1894 L
2903 2759 mt 2975 2759 L
2939 2723 mt 2939 2795 L
3728 2972 mt 3800 2972 L
3764 2936 mt 3764 3008 L
3826 2467 mt 3898 2467 L
3862 2431 mt 3862 2503 L
4028 2796 mt 4100 2796 L
4064 2760 mt 4064 2832 L
3711 2859 mt 3783 2859 L
3747 2823 mt 3747 2895 L
3661 2597 mt 3733 2597 L
3697 2561 mt 3697 2633 L
3166 3367 mt 3238 3367 L
3202 3331 mt 3202 3403 L
4381 1671 mt 4453 1671 L
4417 1635 mt 4417 1707 L
2993 4205 mt 3065 4205 L
3029 4169 mt 3029 4241 L
4184 1845 mt 4256 1845 L
4220 1809 mt 4220 1881 L
3342 2541 mt 3414 2541 L
3378 2505 mt 3378 2577 L
2251 3675 mt 2323 3675 L
2287 3639 mt 2287 3711 L
3426 2311 mt 3498 2311 L
3462 2275 mt 3462 2347 L
4836 2691 mt 4908 2691 L
4872 2655 mt 4872 2727 L
4015 3376 mt 4087 3376 L
4051 3340 mt 4051 3412 L
3921 1878 mt 3993 1878 L
3957 1842 mt 3957 1914 L
3605 2668 mt 3677 2668 L
3641 2632 mt 3641 2704 L
3085 2392 mt 3157 2392 L
3121 2356 mt 3121 2428 L
4054 3213 mt 4126 3213 L
4090 3177 mt 4090 3249 L
2407 2840 mt 2479 2840 L
2443 2804 mt 2443 2876 L
2805 2488 mt 2877 2488 L
2841 2452 mt 2841 2524 L
4693 1707 mt 4765 1707 L
4729 1671 mt 4729 1743 L
4251 3503 mt 4323 3503 L
4287 3467 mt 4287 3539 L
2732 2899 mt 2804 2899 L
2768 2863 mt 2768 2935 L
 863 3581 mt  935 3581 L
 899 3545 mt  899 3617 L
3273 3198 mt 3345 3198 L
3309 3162 mt 3309 3234 L
4425 2736 mt 4497 2736 L
4461 2700 mt 4461 2772 L
2680 2288 mt 2752 2288 L
2716 2252 mt 2716 2324 L
2749 2024 mt 2821 2024 L
2785 1988 mt 2785 2060 L
4243 4616 mt 4315 4616 L
4279 4580 mt 4279 4652 L
3571 3942 mt 3643 3942 L
3607 3906 mt 3607 3978 L
3104 2889 mt 3176 2889 L
3140 2853 mt 3140 2925 L
4074 2864 mt 4146 2864 L
4110 2828 mt 4110 2900 L
3734 2396 mt 3806 2396 L
3770 2360 mt 3770 2432 L
4266 2682 mt 4338 2682 L
4302 2646 mt 4302 2718 L
4094 3118 mt 4166 3118 L
4130 3082 mt 4130 3154 L
3381 2611 mt 3453 2611 L
3417 2575 mt 3417 2647 L
3284 2099 mt 3356 2099 L
3320 2063 mt 3320 2135 L
3964 2298 mt 4036 2298 L
4000 2262 mt 4000 2334 L
2479 2089 mt 2551 2089 L
2515 2053 mt 2515 2125 L
3302 3711 mt 3374 3711 L
3338 3675 mt 3338 3747 L
4501 2083 mt 4573 2083 L
4537 2047 mt 4537 2119 L
3007 3011 mt 3079 3011 L
3043 2975 mt 3043 3047 L
2444 2967 mt 2516 2967 L
2480 2931 mt 2480 3003 L
3237 3178 mt 3309 3178 L
3273 3142 mt 3273 3214 L
2394 1583 mt 2466 1583 L
2430 1547 mt 2430 1619 L
3909 2580 mt 3981 2580 L
3945 2544 mt 3945 2616 L
3791 3980 mt 3863 3980 L
3827 3944 mt 3827 4016 L
3053 3415 mt 3125 3415 L
3089 3379 mt 3089 3451 L
2312 2040 mt 2384 2040 L
2348 2004 mt 2348 2076 L
4298 1787 mt 4370 1787 L
4334 1751 mt 4334 1823 L
2910 1643 mt 2982 1643 L
2946 1607 mt 2946 1679 L
3243 2695 mt 3315 2695 L
3279 2659 mt 3279 2731 L
2085 3446 mt 2157 3446 L
2121 3410 mt 2121 3482 L
2235 2869 mt 2307 2869 L
2271 2833 mt 2271 2905 L
2874 1892 mt 2946 1892 L
2910 1856 mt 2910 1928 L
3616 2228 mt 3688 2228 L
3652 2192 mt 3652 2264 L
2952 1936 mt 3024 1936 L
2988 1900 mt 2988 1972 L
2218 2825 mt 2290 2825 L
2254 2789 mt 2254 2861 L
3538 2361 mt 3610 2361 L
3574 2325 mt 3574 2397 L
3832 1930 mt 3904 1930 L
3868 1894 mt 3868 1966 L
3135 2307 mt 3207 2307 L
3171 2271 mt 3171 2343 L
2327 3220 mt 2399 3220 L
2363 3184 mt 2363 3256 L
5002 2493 mt 5074 2493 L
5038 2457 mt 5038 2529 L
2555 3144 mt 2627 3144 L
2591 3108 mt 2591 3180 L
3952 2754 mt 4024 2754 L
3988 2718 mt 3988 2790 L
3510 2204 mt 3582 2204 L
3546 2168 mt 3546 2240 L
2586 1748 mt 2658 1748 L
2622 1712 mt 2622 1784 L
3129 2801 mt 3201 2801 L
3165 2765 mt 3165 2837 L
1481 3386 mt 1553 3386 L
1517 3350 mt 1517 3422 L
3694 2436 mt 3766 2436 L
3730 2400 mt 3730 2472 L
4372 2593 mt 4444 2593 L
4408 2557 mt 4408 2629 L
3946 2835 mt 4018 2835 L
3982 2799 mt 3982 2871 L
3745 2624 mt 3817 2624 L
3781 2588 mt 3781 2660 L
1965 3184 mt 2037 3184 L
2001 3148 mt 2001 3220 L
4206 1277 mt 4278 1277 L
4242 1241 mt 4242 1313 L
2040 3191 mt 2112 3191 L
2076 3155 mt 2076 3227 L
2821 2549 mt 2893 2549 L
2857 2513 mt 2857 2585 L
3255 2130 mt 3327 2130 L
3291 2094 mt 3291 2166 L
2980 3405 mt 3052 3405 L
3016 3369 mt 3016 3441 L
4444 1809 mt 4516 1809 L
4480 1773 mt 4480 1845 L
4364 2365 mt 4436 2365 L
4400 2329 mt 4400 2401 L
3566 1966 mt 3638 1966 L
3602 1930 mt 3602 2002 L
3330 2484 mt 3402 2484 L
3366 2448 mt 3366 2520 L
3040 3000 mt 3112 3000 L
3076 2964 mt 3076 3036 L
3544 2374 mt 3616 2374 L
3580 2338 mt 3580 2410 L
2917 3479 mt 2989 3479 L
2953 3443 mt 2953 3515 L
4680 1917 mt 4752 1917 L
4716 1881 mt 4716 1953 L
3020 2849 mt 3092 2849 L
3056 2813 mt 3056 2885 L
3814 2894 mt 3886 2894 L
3850 2858 mt 3850 2930 L
4009 3125 mt 4081 3125 L
4045 3089 mt 4045 3161 L
4398 2237 mt 4470 2237 L
4434 2201 mt 4434 2273 L
2813 2475 mt 2885 2475 L
2849 2439 mt 2849 2511 L
3123 2606 mt 3195 2606 L
3159 2570 mt 3159 2642 L
3915 2811 mt 3987 2811 L
3951 2775 mt 3951 2847 L
4191 1502 mt 4263 1502 L
4227 1466 mt 4227 1538 L
2016 2664 mt 2088 2664 L
2052 2628 mt 2052 2700 L
1387 3395 mt 1459 3395 L
1423 3359 mt 1423 3431 L
3196 2722 mt 3268 2722 L
3232 2686 mt 3232 2758 L
3454 2750 mt 3526 2750 L
3490 2714 mt 3490 2786 L
2165 3081 mt 2237 3081 L
2201 3045 mt 2201 3117 L
4100 3005 mt 4172 3005 L
4136 2969 mt 4136 3041 L
2634 3774 mt 2706 3774 L
2670 3738 mt 2670 3810 L
2797 3641 mt 2869 3641 L
2833 3605 mt 2833 3677 L
3717 2700 mt 3789 2700 L
3753 2664 mt 3753 2736 L
2432 2745 mt 2504 2745 L
2468 2709 mt 2468 2781 L
3488 2514 mt 3560 2514 L
3524 2478 mt 3524 2550 L
4585 2879 mt 4657 2879 L
4621 2843 mt 4621 2915 L
2671 2120 mt 2743 2120 L
2707 2084 mt 2707 2156 L
4472 2094 mt 4544 2094 L
4508 2058 mt 4508 2130 L
3638 2194 mt 3710 2194 L
3674 2158 mt 3674 2230 L
2781 3908 mt 2853 3908 L
2817 3872 mt 2817 3944 L
2931 3425 mt 3003 3425 L
2967 3389 mt 2967 3461 L
4199 3063 mt 4271 3063 L
4235 3027 mt 4235 3099 L
3521 3340 mt 3593 3340 L
3557 3304 mt 3557 3376 L
2468 3057 mt 2540 3057 L
2504 3021 mt 2504 3093 L
2723 2718 mt 2795 2718 L
2759 2682 mt 2759 2754 L
4820 1634 mt 4892 1634 L
4856 1598 mt 4856 1670 L
2789 2379 mt 2861 2379 L
2825 2343 mt 2825 2415 L
4282 2155 mt 4354 2155 L
4318 2119 mt 4318 2191 L
3153 2619 mt 3225 2619 L
3189 2583 mt 3189 2655 L
3527 3822 mt 3599 3822 L
3563 3786 mt 3563 3858 L
2662 2284 mt 2734 2284 L
2698 2248 mt 2698 2320 L
3516 3157 mt 3588 3157 L
3552 3121 mt 3552 3193 L
3927 3322 mt 3999 3322 L
3963 3286 mt 3963 3358 L
3160 2209 mt 3232 2209 L
3196 2173 mt 3196 2245 L
3861 2265 mt 3933 2265 L
3897 2229 mt 3897 2301 L
4170 3171 mt 4242 3171 L
4206 3135 mt 4206 3207 L
3078 4023 mt 3150 4023 L
3114 3987 mt 3114 4059 L
3313 2423 mt 3385 2423 L
3349 2387 mt 3349 2459 L
2828 1984 mt 2900 1984 L
2864 1948 mt 2864 2020 L
4121 2528 mt 4193 2528 L
4157 2492 mt 4157 2564 L
3214 2904 mt 3286 2904 L
3250 2868 mt 3250 2940 L
2706 3610 mt 2778 3610 L
2742 3574 mt 2742 3646 L
4512 2584 mt 4584 2584 L
4548 2548 mt 4548 2620 L
2523 3075 mt 2595 3075 L
2559 3039 mt 2559 3111 L
4655 2480 mt 4727 2480 L
4691 2444 mt 4691 2516 L
3336 2633 mt 3408 2633 L
3372 2597 mt 3372 2669 L
4597 2343 mt 4669 2343 L
4633 2307 mt 4633 2379 L
4060 2320 mt 4132 2320 L
4096 2284 mt 4096 2356 L
3141 2989 mt 3213 2989 L
3177 2953 mt 3177 3025 L
3903 3625 mt 3975 3625 L
3939 3589 mt 3939 3661 L
5180 1689 mt 5252 1689 L
5216 1653 mt 5216 1725 L
5096 1121 mt 5168 1121 L
5132 1085 mt 5132 1157 L
3577 2338 mt 3649 2338 L
3613 2302 mt 3613 2374 L
1722 2233 mt 1794 2233 L
1758 2197 mt 1758 2269 L
4041 3106 mt 4113 3106 L
4077 3070 mt 4077 3142 L
3855 2956 mt 3927 2956 L
3891 2920 mt 3891 2992 L
3785 2951 mt 3857 2951 L
3821 2915 mt 3821 2987 L
3774 1419 mt 3846 1419 L
3810 1383 mt 3810 1455 L
4852 1604 mt 4924 1604 L
4888 1568 mt 4888 1640 L
3706 1851 mt 3778 1851 L
3742 1815 mt 3742 1887 L
5282 2180 mt 5354 2180 L
5318 2144 mt 5318 2216 L
3443 2432 mt 3515 2432 L
3479 2396 mt 3479 2468 L
3482 2414 mt 3554 2414 L
3518 2378 mt 3518 2450 L
4732 1972 mt 4804 1972 L
4768 1936 mt 4768 2008 L
5413 1550 mt 5485 1550 L
5449 1514 mt 5449 1586 L
4156 2405 mt 4228 2405 L
4192 2369 mt 4192 2441 L
2836 1434 mt 2908 1434 L
2872 1398 mt 2872 1470 L
2881 3034 mt 2953 3034 L
2917 2998 mt 2917 3070 L
3190 3273 mt 3262 3273 L
3226 3237 mt 3226 3309 L
5365 1593 mt 5437 1593 L
5401 1557 mt 5401 1629 L
4149 2545 mt 4221 2545 L
4185 2509 mt 4185 2581 L
3364 1476 mt 3436 1476 L
3400 1440 mt 3400 1512 L
1766 2051 mt 1838 2051 L
1802 2015 mt 1802 2087 L
4435 2677 mt 4507 2677 L
4471 2641 mt 4471 2713 L
3977 2067 mt 4049 2067 L
4013 2031 mt 4013 2103 L
4922 2325 mt 4994 2325 L
4958 2289 mt 4958 2361 L
5245 1087 mt 5317 1087 L
5281 1051 mt 5281 1123 L
3844 2352 mt 3916 2352 L
3880 2316 mt 3880 2388 L
3046 3553 mt 3118 3553 L
3082 3517 mt 3082 3589 L
2888 2983 mt 2960 2983 L
2924 2947 mt 2924 3019 L
3891 1923 mt 3963 1923 L
3927 1887 mt 3927 1959 L
2063 1489 mt 2135 1489 L
2099 1453 mt 2099 1525 L
5211 1404 mt 5283 1404 L
5247 1368 mt 5247 1440 L
3359 2506 mt 3431 2506 L
3395 2470 mt 3395 2542 L
3110 3017 mt 3182 3017 L
3146 2981 mt 3146 3053 L
3267 3022 mt 3339 3022 L
3303 2986 mt 3303 3058 L
4087 2035 mt 4159 2035 L
4123 1999 mt 4123 2071 L
5531 3227 mt 5603 3227 L
5567 3191 mt 5567 3263 L
3393 4305 mt 3465 4305 L
3429 4269 mt 3429 4341 L
3261 1723 mt 3333 1723 L
3297 1687 mt 3297 1759 L
3797 1371 mt 3869 1371 L
3833 1335 mt 3833 1407 L
3809 3658 mt 3881 3658 L
3845 3622 mt 3845 3694 L
1805 2792 mt 1877 2792 L
1841 2756 mt 1841 2828 L
4002  957 mt 4074  957 L
4038  921 mt 4038  993 L
3838  824 mt 3910  824 L
3874  788 mt 3874  860 L
2773 2523 mt 2845 2523 L
2809 2487 mt 2809 2559 L
4631 2782 mt 4703 2782 L
4667 2746 mt 4667 2818 L
3599 2764 mt 3671 2764 L
3635 2728 mt 3635 2800 L
5047 2347 mt 5119 2347 L
5083 2311 mt 5083 2383 L
4941 1561 mt 5013 1561 L
4977 1525 mt 4977 1597 L
6033 1732 mt 6105 1732 L
6069 1696 mt 6069 1768 L
4330 1948 mt 4402 1948 L
4366 1912 mt 4366 1984 L
4869 2029 mt 4941 2029 L
4905 1993 mt 4905 2065 L
3751 1865 mt 3823 1865 L
3787 1829 mt 3787 1901 L
3404 2773 mt 3476 2773 L
3440 2737 mt 3440 2809 L
3000 3491 mt 3072 3491 L
3036 3455 mt 3036 3527 L
1674 2884 mt 1746 2884 L
1710 2848 mt 1710 2920 L
2615 3306 mt 2687 3306 L
2651 3270 mt 2651 3342 L
2851 2261 mt 2923 2261 L
2887 2225 mt 2887 2297 L
2490 3051 mt 2562 3051 L
2526 3015 mt 2526 3087 L
3027 2519 mt 3099 2519 L
3063 2483 mt 3063 2555 L
4553 1715 mt 4625 1715 L
4589 1679 mt 4589 1751 L
3307 3045 mt 3379 3045 L
3343 3009 mt 3343 3081 L
4667 2768 mt 4739 2768 L
4703 2732 mt 4703 2804 L
4274 1794 mt 4346 1794 L
4310 1758 mt 4310 1830 L
3850 1960 mt 3922 1960 L
3886 1924 mt 3886 1996 L
4021 1462 mt 4093 1462 L
4057 1426 mt 4057 1498 L
3376 2275 mt 3448 2275 L
3412 2239 mt 3412 2311 L
3700 2329 mt 3772 2329 L
3736 2293 mt 3736 2365 L
4619 2125 mt 4691 2125 L
4655 2089 mt 4655 2161 L
1842 3848 mt 1914 3848 L
1878 3812 mt 1878 3884 L
4163 3797 mt 4235 3797 L
4199 3761 mt 4199 3833 L
1876 1756 mt 1948 1756 L
1912 1720 mt 1912 1792 L
3432 1911 mt 3504 1911 L
3468 1875 mt 3468 1947 L
4259 2727 mt 4331 2727 L
4295 2691 mt 4295 2763 L
3184 2874 mt 3256 2874 L
3220 2838 mt 3220 2910 L
2282 3242 mt 2354 3242 L
2318 3206 mt 2318 3278 L
3013 2334 mt 3085 2334 L
3049 2298 mt 3049 2370 L
4221 1232 mt 4293 1232 L
4257 1196 mt 4257 1268 L
3879 2165 mt 3951 2165 L
3915 2129 mt 3915 2201 L
5150 2001 mt 5222 2001 L
5186 1965 mt 5186 2037 L
2896 2940 mt 2968 2940 L
2932 2904 mt 2932 2976 L
3172 2458 mt 3244 2458 L
3208 2422 mt 3208 2494 L
2973 1816 mt 3045 1816 L
3009 1780 mt 3009 1852 L
4482 1802 mt 4554 1802 L
4518 1766 mt 4518 1838 L
2368 2930 mt 2440 2930 L
2404 2894 mt 2404 2966 L
3059 2115 mt 3131 2115 L
3095 2079 mt 3095 2151 L
3740 2046 mt 3812 2046 L
3776 2010 mt 3776 2082 L
5321 1740 mt 5393 1740 L
5357 1704 mt 5357 1776 L
2126 3349 mt 2198 3349 L
2162 3313 mt 2162 3385 L
5468 2641 mt 5540 2641 L
5504 2605 mt 5504 2677 L
3621 2160 mt 3693 2160 L
3657 2124 mt 3657 2196 L
5024 3468 mt 5096 3468 L
5060 3432 mt 5060 3504 L
2420 2135 mt 2492 2135 L
2456 2099 mt 2456 2171 L
2740 2057 mt 2812 2057 L
2776 2021 mt 2776 2093 L
4306 2247 mt 4378 2247 L
4342 2211 mt 4342 2283 L
3387 3131 mt 3459 3131 L
3423 3095 mt 3423 3167 L
3582 1978 mt 3654 1978 L
3618 1942 mt 3618 2014 L
3672 2140 mt 3744 2140 L
3708 2104 mt 3708 2176 L
4643 2199 mt 4715 2199 L
4679 2163 mt 4679 2235 L
2267 1954 mt 2339 1954 L
2303 1918 mt 2303 1990 L
1619 3314 mt 1691 3314 L
1655 3278 mt 1655 3350 L
3319 2370 mt 3391 2370 L
3355 2334 mt 3355 2406 L
3989  414 mt 4061  414 L
4025  378 mt 4025  450 L
6225 2279 mt 6297 2279 L
6261 2243 mt 6261 2315 L
3499 2962 mt 3571 2962 L
3535 2926 mt 3535 2998 L
2534 2532 mt 2606 2532 L
2570 2496 mt 2570 2568 L
3677 1764 mt 3749 1764 L
3713 1728 mt 3713 1800 L
3996  564 mt 4068  564 L
4032  528 mt 4032  600 L
4886 2830 mt 4958 2830 L
4922 2794 mt 4922 2866 L
4114 1006 mt 4186 1006 L
4150  970 mt 4150 1042 L
3466 3112 mt 3538 3112 L
3502 3076 mt 3502 3148 L
3398 2935 mt 3470 2935 L
3434 2899 mt 3434 2971 L
1937  898 mt 2009  898 L
1973  862 mt 1973  934 L
4322 1514 mt 4394 1514 L
4358 1478 mt 4358 1550 L
5071 3069 mt 5143 3069 L
5107 3033 mt 5107 3105 L
4128 3137 mt 4200 3137 L
4164 3101 mt 4164 3173 L
4290 2007 mt 4362 2007 L
4326 1971 mt 4326 2043 L
4390 2925 mt 4462 2925 L
4426 2889 mt 4426 2961 L
2595 2170 mt 2667 2170 L
2631 2134 mt 2631 2206 L
3208 1904 mt 3280 1904 L
3244 1868 mt 3244 1940 L
2959 3028 mt 3031 3028 L
2995 2992 mt 2995 3064 L
2757 1838 mt 2829 1838 L
2793 1802 mt 2793 1874 L
2456 2567 mt 2528 2567 L
2492 2531 mt 2492 2603 L
4338 1152 mt 4410 1152 L
4374 1116 mt 4374 1188 L
3644 2293 mt 3716 2293 L
3680 2257 mt 3680 2329 L
4532 2741 mt 4604 2741 L
4568 2705 mt 4568 2777 L
3220 2806 mt 3292 2806 L
3256 2770 mt 3256 2842 L
4453 1318 mt 4525 1318 L
4489 1282 mt 4489 1354 L
3421 2815 mt 3493 2815 L
3457 2779 mt 3457 2851 L
3325 2820 mt 3397 2820 L
3361 2784 mt 3361 2856 L
4416 1526 mt 4488 1526 L
4452 1490 mt 4452 1562 L
2938 1354 mt 3010 1354 L
2974 1318 mt 2974 1390 L
3178 1831 mt 3250 1831 L
3214 1795 mt 3214 1867 L
3971 3250 mt 4043 3250 L
4007 3214 mt 4007 3286 L
4522 2673 mt 4594 2673 L
4558 2637 mt 4558 2709 L
3610 2302 mt 3682 2302 L
3646 2266 mt 3646 2338 L
2924 3731 mt 2996 3731 L
2960 3695 mt 2960 3767 L
4608 1662 mt 4680 1662 L
4644 1626 mt 4644 1698 L
2945 2920 mt 3017 2920 L
2981 2884 mt 2981 2956 L
5828 1698 mt 5900 1698 L
5864 1662 mt 5864 1734 L
2355 2844 mt 2427 2844 L
2391 2808 mt 2391 2880 L
3689 2242 mt 3761 2242 L
3725 2206 mt 3725 2278 L
3885 2218 mt 3957 2218 L
3921 2182 mt 3921 2254 L
3505 2787 mt 3577 2787 L
3541 2751 mt 3541 2823 L
4981 2018 mt 5053 2018 L
5017 1982 mt 5017 2054 L
3666 1942 mt 3738 1942 L
3702 1906 mt 3702 1978 L
3594 1538 mt 3666 1538 L
3630 1502 mt 3630 1574 L
5122 3877 mt 5194 3877 L
5158 3841 mt 5158 3913 L
4789 1049 mt 4861 1049 L
4825 1013 mt 4825 1085 L
3762 1572 mt 3834 1572 L
3798 1536 mt 3798 1608 L
2697 3297 mt 2769 3297 L
2733 3261 mt 2733 3333 L
4135 2316 mt 4207 2316 L
4171 2280 mt 4171 2352 L
4080 3567 mt 4152 3567 L
4116 3531 mt 4116 3603 L
2183 3206 mt 2255 3206 L
2219 3170 mt 2219 3242 L
2715 2978 mt 2787 2978 L
2751 2942 mt 2751 3014 L
3438 3151 mt 3510 3151 L
3474 3115 mt 3474 3187 L
3147 3752 mt 3219 3752 L
3183 3716 mt 3183 3788 L
1991 3289 mt 2063 3289 L
2027 3253 mt 2027 3325 L
3449 2778 mt 3521 2778 L
3485 2742 mt 3485 2814 L
1259 3515 mt 1331 3515 L
1295 3479 mt 1295 3551 L
2689 1207 mt 2761 1207 L
2725 1171 mt 2725 1243 L
3066 2946 mt 3138 2946 L
3102 2910 mt 3102 2982 L
3983 1772 mt 4055 1772 L
4019 1736 mt 4019 1808 L
3560 1255 mt 3632 1255 L
3596 1219 mt 3596 1291 L
3471 2214 mt 3543 2214 L
3507 2178 mt 3507 2250 L
3091 2704 mt 3163 2704 L
3127 2668 mt 3127 2740 L
3226 2628 mt 3298 2628 L
3262 2592 mt 3262 2664 L
4347 2440 mt 4419 2440 L
4383 2404 mt 4383 2476 L
4542 2427 mt 4614 2427 L
4578 2391 mt 4578 2463 L
1907 2445 mt 1979 2445 L
1943 2409 mt 1943 2481 L
4407 2571 mt 4479 2571 L
4443 2535 mt 4443 2607 L
4706 3540 mt 4778 3540 L
4742 3504 mt 4742 3576 L
4177 2731 mt 4249 2731 L
4213 2695 mt 4213 2767 L
3820 2562 mt 3892 2562 L
3856 2526 mt 3856 2598 L
3353 3257 mt 3425 3257 L
3389 3221 mt 3389 3293 L
3867 1181 mt 3939 1181 L
3903 1145 mt 3903 1217 L
2652 1995 mt 2724 1995 L
2688 1959 mt 2688 2031 L
3780 2175 mt 3852 2175 L
3816 2139 mt 3816 2211 L
4574 1653 mt 4646 1653 L
4610 1617 mt 4610 1689 L
3116 2251 mt 3188 2251 L
3152 2215 mt 3152 2287 L
3549 2012 mt 3621 2012 L
3585 1976 mt 3585 2048 L
2502 2471 mt 2574 2471 L
2538 2435 mt 2538 2507 L
2966 3436 mt 3038 3436 L
3002 3400 mt 3002 3472 L
2643 4131 mt 2715 4131 L
2679 4095 mt 2679 4167 L
4067 1898 mt 4139 1898 L
4103 1862 mt 4103 1934 L
3278 2909 mt 3350 2909 L
3314 2873 mt 3314 2945 L
2844 2558 mt 2916 2558 L
2880 2522 mt 2880 2594 L
2106 1298 mt 2178 1298 L
2142 1262 mt 2142 1334 L
3232 4072 mt 3304 4072 L
3268 4036 mt 3268 4108 L
3033 1614 mt 3105 1614 L
3069 1578 mt 3069 1650 L
4775 1779 mt 4847 1779 L
4811 1743 mt 4811 1815 L
2859 3457 mt 2931 3457 L
2895 3421 mt 2895 3493 L
4355 1885 mt 4427 1885 L
4391 1849 mt 4391 1921 L
3633 2501 mt 3705 2501 L
3669 2465 mt 3669 2537 L
2341 3693 mt 2413 3693 L
2377 3657 mt 2377 3729 L
3460 2914 mt 3532 2914 L
3496 2878 mt 3496 2950 L
3098 2150 mt 3170 2150 L
3134 2114 mt 3134 2186 L
3296 2576 mt 3368 2576 L
3332 2540 mt 3332 2612 L
4961 2383 mt 5033 2383 L
4997 2347 mt 4997 2419 L
3723 2185 mt 3795 2185 L
3759 2149 mt 3759 2221 L
4047  724 mt 4119  724 L
4083  688 mt 4083  760 L
4904 2145 mt 4976 2145 L
4940 2109 mt 4940 2181 L
3072 2686 mt 3144 2686 L
3108 2650 mt 3108 2722 L
4314 2589 mt 4386 2589 L
4350 2553 mt 4350 2625 L
2201 2109 mt 2273 2109 L
2237 2073 mt 2237 2145 L
5700 1990 mt 5772 1990 L
5736 1954 mt 5736 2026 L
4746 1624 mt 4818 1624 L
4782 1588 mt 4782 1660 L
gs 899 414 5363 4203 rc
gr

0 sg
2779 5104 mt 
(\(F,DCTs,GMM\)) s
 482 3273 mt  -90 rotate
(\(F,DCTb,MLP\)) s
90 rotate
2975  223 mt 
(Corr = 0.31) s

end %%Color Dict

eplot
%%EndObject

epage
end

showpage

%%Trailer
%%EOF
