%!PS-Adobe-3.0 EPSF-3.0
%%Creator: MATLAB, The Mathworks, Inc. Version 7.7.0.471 (R2008b). Operating System: Microsoft Windows XP.
%%Title: Pictures\main_zoo_mvar_analysis_data_BMI_xcorr_bmi_p1_k1_4_7.eps
%%CreationDate: 10/26/2009  05:44:05
%%DocumentNeededFonts: Helvetica
%%DocumentProcessColors: Cyan Magenta Yellow Black
%%LanguageLevel: 2
%%Pages: 1
%%BoundingBox:    32   180   546   616
%%EndComments

%%BeginProlog
% MathWorks dictionary
/MathWorks 160 dict begin
% definition operators
/bdef {bind def} bind def
/ldef {load def} bind def
/xdef {exch def} bdef
/xstore {exch store} bdef
% operator abbreviations
/c  /clip ldef
/cc /concat ldef
/cp /closepath ldef
/gr /grestore ldef
/gs /gsave ldef
/mt /moveto ldef
/np /newpath ldef
/cm /currentmatrix ldef
/sm /setmatrix ldef
/rm /rmoveto ldef
/rl /rlineto ldef
/s {show newpath} bdef
/sc {setcmykcolor} bdef
/sr /setrgbcolor ldef
/sg /setgray ldef
/w /setlinewidth ldef
/j /setlinejoin ldef
/cap /setlinecap ldef
/rc {rectclip} bdef
/rf {rectfill} bdef
% page state control
/pgsv () def
/bpage {/pgsv save def} bdef
/epage {pgsv restore} bdef
/bplot /gsave ldef
/eplot {stroke grestore} bdef
% orientation switch
/portraitMode 0 def /landscapeMode 1 def /rotateMode 2 def
% coordinate system mappings
/dpi2point 0 def
% font control
/FontSize 0 def
/FMS {/FontSize xstore findfont [FontSize 0 0 FontSize neg 0 0]
  makefont setfont} bdef
/ISOLatin1Encoding where {pop /WindowsLatin1Encoding 256 array bdef
ISOLatin1Encoding WindowsLatin1Encoding copy pop
/.notdef/.notdef/quotesinglbase/florin/quotedblbase/ellipsis/dagger
/daggerdbl/circumflex/perthousand/Scaron/guilsinglleft/OE/.notdef/.notdef
/.notdef/.notdef/quoteleft/quoteright/quotedblleft/quotedblright/bullet
/endash/emdash/tilde/trademark/scaron/guilsinglright/oe/.notdef/.notdef
/Ydieresis WindowsLatin1Encoding 128 32 getinterval astore pop}
{/WindowsLatin1Encoding StandardEncoding bdef} ifelse
/reencode {exch dup where {pop load} {pop StandardEncoding} ifelse
  exch dup 3 1 roll findfont dup length dict begin
  { 1 index /FID ne {def}{pop pop} ifelse } forall
  /Encoding exch def currentdict end definefont pop} bdef
/isroman {findfont /CharStrings get /Agrave known} bdef
/FMSR {3 1 roll 1 index dup isroman {reencode} {pop pop} ifelse
  exch FMS} bdef
/csm {1 dpi2point div -1 dpi2point div scale neg translate
 dup landscapeMode eq {pop -90 rotate}
  {rotateMode eq {90 rotate} if} ifelse} bdef
% line types: solid, dotted, dashed, dotdash
/SO { [] 0 setdash } bdef
/DO { [.5 dpi2point mul 4 dpi2point mul] 0 setdash } bdef
/DA { [6 dpi2point mul] 0 setdash } bdef
/DD { [.5 dpi2point mul 4 dpi2point mul 6 dpi2point mul 4
  dpi2point mul] 0 setdash } bdef
% macros for lines and objects
/L {lineto stroke} bdef
/MP {3 1 roll moveto 1 sub {rlineto} repeat} bdef
/AP {{rlineto} repeat} bdef
/PDlw -1 def
/W {/PDlw currentlinewidth def setlinewidth} def
/PP {closepath eofill} bdef
/DP {closepath stroke} bdef
/MR {4 -2 roll moveto dup  0 exch rlineto exch 0 rlineto
  neg 0 exch rlineto closepath} bdef
/FR {MR stroke} bdef
/PR {MR fill} bdef
/L1i {{currentfile picstr readhexstring pop} image} bdef
/tMatrix matrix def
/MakeOval {newpath tMatrix currentmatrix pop translate scale
0 0 1 0 360 arc tMatrix setmatrix} bdef
/FO {MakeOval stroke} bdef
/PO {MakeOval fill} bdef
/PD {currentlinewidth 2 div 0 360 arc fill
   PDlw -1 eq not {PDlw w /PDlw -1 def} if} def
/FA {newpath tMatrix currentmatrix pop translate scale
  0 0 1 5 -2 roll arc tMatrix setmatrix stroke} bdef
/PA {newpath tMatrix currentmatrix pop	translate 0 0 moveto scale
  0 0 1 5 -2 roll arc closepath tMatrix setmatrix fill} bdef
/FAn {newpath tMatrix currentmatrix pop translate scale
  0 0 1 5 -2 roll arcn tMatrix setmatrix stroke} bdef
/PAn {newpath tMatrix currentmatrix pop translate 0 0 moveto scale
  0 0 1 5 -2 roll arcn closepath tMatrix setmatrix fill} bdef
/vradius 0 def /hradius 0 def /lry 0 def
/lrx 0 def /uly 0 def /ulx 0 def /rad 0 def
/MRR {/vradius xdef /hradius xdef /lry xdef /lrx xdef /uly xdef
  /ulx xdef newpath tMatrix currentmatrix pop ulx hradius add uly
  vradius add translate hradius vradius scale 0 0 1 180 270 arc 
  tMatrix setmatrix lrx hradius sub uly vradius add translate
  hradius vradius scale 0 0 1 270 360 arc tMatrix setmatrix
  lrx hradius sub lry vradius sub translate hradius vradius scale
  0 0 1 0 90 arc tMatrix setmatrix ulx hradius add lry vradius sub
  translate hradius vradius scale 0 0 1 90 180 arc tMatrix setmatrix
  closepath} bdef
/FRR {MRR stroke } bdef
/PRR {MRR fill } bdef
/MlrRR {/lry xdef /lrx xdef /uly xdef /ulx xdef /rad lry uly sub 2 div def
  newpath tMatrix currentmatrix pop ulx rad add uly rad add translate
  rad rad scale 0 0 1 90 270 arc tMatrix setmatrix lrx rad sub lry rad
  sub translate rad rad scale 0 0 1 270 90 arc tMatrix setmatrix
  closepath} bdef
/FlrRR {MlrRR stroke } bdef
/PlrRR {MlrRR fill } bdef
/MtbRR {/lry xdef /lrx xdef /uly xdef /ulx xdef /rad lrx ulx sub 2 div def
  newpath tMatrix currentmatrix pop ulx rad add uly rad add translate
  rad rad scale 0 0 1 180 360 arc tMatrix setmatrix lrx rad sub lry rad
  sub translate rad rad scale 0 0 1 0 180 arc tMatrix setmatrix
  closepath} bdef
/FtbRR {MtbRR stroke } bdef
/PtbRR {MtbRR fill } bdef
/stri 6 array def /dtri 6 array def
/smat 6 array def /dmat 6 array def
/tmat1 6 array def /tmat2 6 array def /dif 3 array def
/asub {/ind2 exch def /ind1 exch def dup dup
  ind1 get exch ind2 get sub exch } bdef
/tri_to_matrix {
  2 0 asub 3 1 asub 4 0 asub 5 1 asub
  dup 0 get exch 1 get 7 -1 roll astore } bdef
/compute_transform {
  dmat dtri tri_to_matrix tmat1 invertmatrix 
  smat stri tri_to_matrix tmat2 concatmatrix } bdef
/ds {stri astore pop} bdef
/dt {dtri astore pop} bdef
/db {2 copy /cols xdef /rows xdef mul dup 3 mul string
  currentfile 
  3 index 0 eq {/ASCIIHexDecode filter}
  {/ASCII85Decode filter 3 index 2 eq {/RunLengthDecode filter} if }
  ifelse exch readstring pop
  dup 0 3 index getinterval /rbmap xdef
  dup 2 index dup getinterval /gbmap xdef
  1 index dup 2 mul exch getinterval /bbmap xdef pop pop}bdef
/it {gs np dtri aload pop moveto lineto lineto cp c
  cols rows 8 compute_transform 
  rbmap gbmap bbmap true 3 colorimage gr}bdef
/il {newpath moveto lineto stroke}bdef
currentdict end def
%%EndProlog

%%BeginSetup
MathWorks begin

0 cap

end
%%EndSetup

%%Page: 1 1
%%BeginPageSetup
%%PageBoundingBox:    32   180   546   616
MathWorks begin
bpage
%%EndPageSetup

%%BeginObject: obj1
bplot

/dpi2point 12 def
portraitMode 0216 7344 csm

  174   -48  6173  5231 rc
85 dict begin %Colortable dictionary
/c0 { 0.000000 0.000000 0.000000 sr} bdef
/c1 { 1.000000 1.000000 1.000000 sr} bdef
/c2 { 0.900000 0.000000 0.000000 sr} bdef
/c3 { 0.000000 0.820000 0.000000 sr} bdef
/c4 { 0.000000 0.000000 0.800000 sr} bdef
/c5 { 0.910000 0.820000 0.320000 sr} bdef
/c6 { 1.000000 0.260000 0.820000 sr} bdef
/c7 { 0.000000 0.820000 0.820000 sr} bdef
c0
1 j
1 sg
   0    0 6919 5187 rf
6 w
0 4202 5363 0 0 -4202 898 4616 4 MP
PP
-5363 0 0 4202 5363 0 0 -4202 898 4616 5 MP stroke
4 w
DO
SO
6 w
0 sg
 898  414 mt 6261  414 L
 898 4616 mt 6261 4616 L
6261 4616 mt 6261  414 L
 898 4616 mt  898  414 L
 898 4616 mt 6261 4616 L
 898 4616 mt  898  414 L
1827 4616 mt 1827 4562 L
1827  414 mt 1827  467 L
%%IncludeResource: font Helvetica
/Helvetica /WindowsLatin1Encoding 240 FMSR

1661 4873 mt 
(0.1) s
2756 4616 mt 2756 4562 L
2756  414 mt 2756  467 L
2590 4873 mt 
(0.2) s
3684 4616 mt 3684 4562 L
3684  414 mt 3684  467 L
3518 4873 mt 
(0.3) s
4613 4616 mt 4613 4562 L
4613  414 mt 4613  467 L
4447 4873 mt 
(0.4) s
5542 4616 mt 5542 4562 L
5542  414 mt 5542  467 L
5376 4873 mt 
(0.5) s
 898 4104 mt  952 4104 L
6261 4104 mt 6207 4104 L
 531 4193 mt 
(0.1) s
 898 3593 mt  952 3593 L
6261 3593 mt 6207 3593 L
 531 3682 mt 
(0.2) s
 898 3081 mt  952 3081 L
6261 3081 mt 6207 3081 L
 531 3170 mt 
(0.3) s
 898 2570 mt  952 2570 L
6261 2570 mt 6207 2570 L
 531 2659 mt 
(0.4) s
 898 2058 mt  952 2058 L
6261 2058 mt 6207 2058 L
 531 2147 mt 
(0.5) s
 898 1547 mt  952 1547 L
6261 1547 mt 6207 1547 L
 531 1636 mt 
(0.6) s
 898 1036 mt  952 1036 L
6261 1036 mt 6207 1036 L
 531 1125 mt 
(0.7) s
 898  524 mt  952  524 L
6261  524 mt 6207  524 L
 531  613 mt 
(0.8) s
 898  414 mt 6261  414 L
 898 4616 mt 6261 4616 L
6261 4616 mt 6261  414 L
 898 4616 mt  898  414 L
gs 898 414 5364 4203 rc
gr

/c8 { 0.000000 0.000000 1.000000 sr} bdef
c8
 933 1576 mt 1005 1576 L
 969 1540 mt  969 1612 L
1516 4500 mt 1588 4500 L
1552 4464 mt 1552 4536 L
2634 4605 mt 2706 4605 L
2670 4569 mt 2670 4641 L
1292 4615 mt 1364 4615 L
1328 4579 mt 1328 4651 L
 902 4261 mt  974 4261 L
 938 4225 mt  938 4297 L
1082 4589 mt 1154 4589 L
1118 4553 mt 1118 4625 L
1963 4469 mt 2035 4469 L
1999 4433 mt 1999 4505 L
 901 4561 mt  973 4561 L
 937 4525 mt  937 4597 L
1069 4612 mt 1141 4612 L
1105 4576 mt 1105 4648 L
1470 4357 mt 1542 4357 L
1506 4321 mt 1506 4393 L
1173 4511 mt 1245 4511 L
1209 4475 mt 1209 4547 L
2029 4314 mt 2101 4314 L
2065 4278 mt 2065 4350 L
2416 4251 mt 2488 4251 L
2452 4215 mt 2452 4287 L
1664 3581 mt 1736 3581 L
1700 3545 mt 1700 3617 L
1387 4610 mt 1459 4610 L
1423 4574 mt 1423 4646 L
1954 2836 mt 2026 2836 L
1990 2800 mt 1990 2872 L
 995 1225 mt 1067 1225 L
1031 1189 mt 1031 1261 L
 912 4524 mt  984 4524 L
 948 4488 mt  948 4560 L
3377 4493 mt 3449 4493 L
3413 4457 mt 3413 4529 L
1167 3968 mt 1239 3968 L
1203 3932 mt 1203 4004 L
1112 4525 mt 1184 4525 L
1148 4489 mt 1148 4561 L
 870 4582 mt  942 4582 L
 906 4546 mt  906 4618 L
1290 4561 mt 1362 4561 L
1326 4525 mt 1326 4597 L
2865 4543 mt 2937 4543 L
2901 4507 mt 2901 4579 L
 915 3206 mt  987 3206 L
 951 3170 mt  951 3242 L
1356 4338 mt 1428 4338 L
1392 4302 mt 1392 4374 L
1235 4255 mt 1307 4255 L
1271 4219 mt 1271 4291 L
1382 4595 mt 1454 4595 L
1418 4559 mt 1418 4631 L
1259 4615 mt 1331 4615 L
1295 4579 mt 1295 4651 L
1051 4514 mt 1123 4514 L
1087 4478 mt 1087 4550 L
 899 4564 mt  971 4564 L
 935 4528 mt  935 4600 L
1221 4371 mt 1293 4371 L
1257 4335 mt 1257 4407 L
2178 4575 mt 2250 4575 L
2214 4539 mt 2214 4611 L
 887 4341 mt  959 4341 L
 923 4305 mt  923 4377 L
2059 4571 mt 2131 4571 L
2095 4535 mt 2095 4607 L
 869 4501 mt  941 4501 L
 905 4465 mt  905 4537 L
 874 4404 mt  946 4404 L
 910 4368 mt  910 4440 L
1223 4118 mt 1295 4118 L
1259 4082 mt 1259 4154 L
1424 3158 mt 1496 3158 L
1460 3122 mt 1460 3194 L
1818 3753 mt 1890 3753 L
1854 3717 mt 1854 3789 L
1060 4521 mt 1132 4521 L
1096 4485 mt 1096 4557 L
2798 4568 mt 2870 4568 L
2834 4532 mt 2834 4604 L
 869 3851 mt  941 3851 L
 905 3815 mt  905 3887 L
3708 4155 mt 3780 4155 L
3744 4119 mt 3744 4191 L
4769 4496 mt 4841 4496 L
4805 4460 mt 4805 4532 L
1360 4614 mt 1432 4614 L
1396 4578 mt 1396 4650 L
 873 2852 mt  945 2852 L
 909 2816 mt  909 2888 L
2033 4457 mt 2105 4457 L
2069 4421 mt 2069 4493 L
2466 4124 mt 2538 4124 L
2502 4088 mt 2502 4160 L
2510 4610 mt 2582 4610 L
2546 4574 mt 2546 4646 L
 870 4003 mt  942 4003 L
 906 3967 mt  906 4039 L
 863 4396 mt  935 4396 L
 899 4360 mt  899 4432 L
4075 4435 mt 4147 4435 L
4111 4399 mt 4111 4471 L
 959 4609 mt 1031 4609 L
 995 4573 mt  995 4645 L
1012 3611 mt 1084 3611 L
1048 3575 mt 1048 3647 L
1010 4564 mt 1082 4564 L
1046 4528 mt 1046 4600 L
1363 4259 mt 1435 4259 L
1399 4223 mt 1399 4295 L
1007 4605 mt 1079 4605 L
1043 4569 mt 1043 4641 L
2024 4320 mt 2096 4320 L
2060 4284 mt 2060 4356 L
2189 4489 mt 2261 4489 L
2225 4453 mt 2225 4525 L
 895 3952 mt  967 3952 L
 931 3916 mt  931 3988 L
 864 2926 mt  936 2926 L
 900 2890 mt  900 2962 L
2659 4484 mt 2731 4484 L
2695 4448 mt 2695 4520 L
3538 4492 mt 3610 4492 L
3574 4456 mt 3574 4528 L
2818 4599 mt 2890 4599 L
2854 4563 mt 2854 4635 L
 907 4303 mt  979 4303 L
 943 4267 mt  943 4339 L
3603 4569 mt 3675 4569 L
3639 4533 mt 3639 4605 L
 885 4213 mt  957 4213 L
 921 4177 mt  921 4249 L
1146 4512 mt 1218 4512 L
1182 4476 mt 1182 4548 L
1037 4609 mt 1109 4609 L
1073 4573 mt 1073 4645 L
1254 4612 mt 1326 4612 L
1290 4576 mt 1290 4648 L
1795 4491 mt 1867 4491 L
1831 4455 mt 1831 4527 L
1313 4609 mt 1385 4609 L
1349 4573 mt 1349 4645 L
1014 4513 mt 1086 4513 L
1050 4477 mt 1050 4549 L
 943 4155 mt 1015 4155 L
 979 4119 mt  979 4191 L
2869 4100 mt 2941 4100 L
2905 4064 mt 2905 4136 L
2351 4573 mt 2423 4573 L
2387 4537 mt 2387 4609 L
1447 4506 mt 1519 4506 L
1483 4470 mt 1483 4542 L
2485 4180 mt 2557 4180 L
2521 4144 mt 2521 4216 L
1108 4008 mt 1180 4008 L
1144 3972 mt 1144 4044 L
2977 4434 mt 3049 4434 L
3013 4398 mt 3013 4470 L
3446 4610 mt 3518 4610 L
3482 4574 mt 3482 4646 L
 876 4110 mt  948 4110 L
 912 4074 mt  912 4146 L
1147 4614 mt 1219 4614 L
1183 4578 mt 1183 4650 L
1114 3584 mt 1186 3584 L
1150 3548 mt 1150 3620 L
1616 4611 mt 1688 4611 L
1652 4575 mt 1652 4647 L
 947 4615 mt 1019 4615 L
 983 4579 mt  983 4651 L
3758 4569 mt 3830 4569 L
3794 4533 mt 3794 4605 L
 871 4615 mt  943 4615 L
 907 4579 mt  907 4651 L
 865 3966 mt  937 3966 L
 901 3930 mt  901 4002 L
2435 4450 mt 2507 4450 L
2471 4414 mt 2471 4486 L
3094 4596 mt 3166 4596 L
3130 4560 mt 3130 4632 L
1736 4614 mt 1808 4614 L
1772 4578 mt 1772 4650 L
1408 3639 mt 1480 3639 L
1444 3603 mt 1444 3675 L
 863 4513 mt  935 4513 L
 899 4477 mt  899 4549 L
1534 3944 mt 1606 3944 L
1570 3908 mt 1570 3980 L
1006 4432 mt 1078 4432 L
1042 4396 mt 1042 4468 L
1018 4539 mt 1090 4539 L
1054 4503 mt 1054 4575 L
2530 4354 mt 2602 4354 L
2566 4318 mt 2566 4390 L
 913 4602 mt  985 4602 L
 949 4566 mt  949 4638 L
 919  414 mt  991  414 L
 955  378 mt  955  450 L
1053 4450 mt 1125 4450 L
1089 4414 mt 1089 4486 L
2066 4262 mt 2138 4262 L
2102 4226 mt 2102 4298 L
 919 4607 mt  991 4607 L
 955 4571 mt  955 4643 L
1376 3854 mt 1448 3854 L
1412 3818 mt 1412 3890 L
1544 4353 mt 1616 4353 L
1580 4317 mt 1580 4389 L
1867 4610 mt 1939 4610 L
1903 4574 mt 1903 4646 L
 984 3641 mt 1056 3641 L
1020 3605 mt 1020 3677 L
1077 4284 mt 1149 4284 L
1113 4248 mt 1113 4320 L
 898 4615 mt  970 4615 L
 934 4579 mt  934 4651 L
4557 4527 mt 4629 4527 L
4593 4491 mt 4593 4563 L
1082 4606 mt 1154 4606 L
1118 4570 mt 1118 4642 L
 890 4074 mt  962 4074 L
 926 4038 mt  926 4110 L
 901 4436 mt  973 4436 L
 937 4400 mt  937 4472 L
1893 4597 mt 1965 4597 L
1929 4561 mt 1929 4633 L
1468 4264 mt 1540 4264 L
1504 4228 mt 1504 4300 L
1701 4589 mt 1773 4589 L
1737 4553 mt 1737 4625 L
1257 4321 mt 1329 4321 L
1293 4285 mt 1293 4357 L
2731 4505 mt 2803 4505 L
2767 4469 mt 2767 4541 L
 873 4580 mt  945 4580 L
 909 4544 mt  909 4616 L
 941 4494 mt 1013 4494 L
 977 4458 mt  977 4530 L
1856 4593 mt 1928 4593 L
1892 4557 mt 1892 4629 L
 891 4575 mt  963 4575 L
 927 4539 mt  927 4611 L
2866 3911 mt 2938 3911 L
2902 3875 mt 2902 3947 L
1158 3803 mt 1230 3803 L
1194 3767 mt 1194 3839 L
3417 4095 mt 3489 4095 L
3453 4059 mt 3453 4131 L
 962 4531 mt 1034 4531 L
 998 4495 mt  998 4567 L
1130 4568 mt 1202 4568 L
1166 4532 mt 1166 4604 L
1017 4612 mt 1089 4612 L
1053 4576 mt 1053 4648 L
 864 4196 mt  936 4196 L
 900 4160 mt  900 4232 L
2218 4609 mt 2290 4609 L
2254 4573 mt 2254 4645 L
1036 3026 mt 1108 3026 L
1072 2990 mt 1072 3062 L
 925 4608 mt  997 4608 L
 961 4572 mt  961 4644 L
 863 4615 mt  935 4615 L
 899 4579 mt  899 4651 L
 863 4600 mt  935 4600 L
 899 4564 mt  899 4636 L
 871 4335 mt  943 4335 L
 907 4299 mt  907 4371 L
1030 4602 mt 1102 4602 L
1066 4566 mt 1066 4638 L
1004 4341 mt 1076 4341 L
1040 4305 mt 1040 4377 L
2008 3811 mt 2080 3811 L
2044 3775 mt 2044 3847 L
 932 4407 mt 1004 4407 L
 968 4371 mt  968 4443 L
1597 4605 mt 1669 4605 L
1633 4569 mt 1633 4641 L
1419 4286 mt 1491 4286 L
1455 4250 mt 1455 4322 L
2471 4274 mt 2543 4274 L
2507 4238 mt 2507 4310 L
 868 4307 mt  940 4307 L
 904 4271 mt  904 4343 L
1103 4550 mt 1175 4550 L
1139 4514 mt 1139 4586 L
1060 4608 mt 1132 4608 L
1096 4572 mt 1096 4644 L
1598 3437 mt 1670 3437 L
1634 3401 mt 1634 3473 L
2397 3228 mt 2469 3228 L
2433 3192 mt 2433 3264 L
2434 4061 mt 2506 4061 L
2470 4025 mt 2470 4097 L
 867 3783 mt  939 3783 L
 903 3747 mt  903 3819 L
6225 4583 mt 6297 4583 L
6261 4547 mt 6261 4619 L
 892 4495 mt  964 4495 L
 928 4459 mt  928 4531 L
1088 4556 mt 1160 4556 L
1124 4520 mt 1124 4592 L
1847 4244 mt 1919 4244 L
1883 4208 mt 1883 4280 L
 863 3309 mt  935 3309 L
 899 3273 mt  899 3345 L
1049 4615 mt 1121 4615 L
1085 4579 mt 1085 4651 L
2070 4414 mt 2142 4414 L
2106 4378 mt 2106 4450 L
1089 3283 mt 1161 3283 L
1125 3247 mt 1125 3319 L
 865 4431 mt  937 4431 L
 901 4395 mt  901 4467 L
1834 4606 mt 1906 4606 L
1870 4570 mt 1870 4642 L
2561 4311 mt 2633 4311 L
2597 4275 mt 2597 4347 L
 967 4425 mt 1039 4425 L
1003 4389 mt 1003 4461 L
 900 4443 mt  972 4443 L
 936 4407 mt  936 4479 L
1327 4274 mt 1399 4274 L
1363 4238 mt 1363 4310 L
1204 4523 mt 1276 4523 L
1240 4487 mt 1240 4559 L
1819 4421 mt 1891 4421 L
1855 4385 mt 1855 4457 L
4267 3710 mt 4339 3710 L
4303 3674 mt 4303 3746 L
1306 4117 mt 1378 4117 L
1342 4081 mt 1342 4153 L
1104 4550 mt 1176 4550 L
1140 4514 mt 1140 4586 L
2065 4526 mt 2137 4526 L
2101 4490 mt 2101 4562 L
 917 3215 mt  989 3215 L
 953 3179 mt  953 3251 L
 903 4255 mt  975 4255 L
 939 4219 mt  939 4291 L
 865 4414 mt  937 4414 L
 901 4378 mt  901 4450 L
1260 4578 mt 1332 4578 L
1296 4542 mt 1296 4614 L
1080 3923 mt 1152 3923 L
1116 3887 mt 1116 3959 L
1246 4612 mt 1318 4612 L
1282 4576 mt 1282 4648 L
1485 4208 mt 1557 4208 L
1521 4172 mt 1521 4244 L
1111 4489 mt 1183 4489 L
1147 4453 mt 1147 4525 L
1790 4326 mt 1862 4326 L
1826 4290 mt 1826 4362 L
1175 4608 mt 1247 4608 L
1211 4572 mt 1211 4644 L
 903 4356 mt  975 4356 L
 939 4320 mt  939 4392 L
 876 4316 mt  948 4316 L
 912 4280 mt  912 4352 L
1527 3331 mt 1599 3331 L
1563 3295 mt 1563 3367 L
3564 4591 mt 3636 4591 L
3600 4555 mt 3600 4627 L
1762 4604 mt 1834 4604 L
1798 4568 mt 1798 4640 L
1220 4612 mt 1292 4612 L
1256 4576 mt 1256 4648 L
 975 4605 mt 1047 4605 L
1011 4569 mt 1011 4641 L
1189 4613 mt 1261 4613 L
1225 4577 mt 1225 4649 L
 943 2454 mt 1015 2454 L
 979 2418 mt  979 2490 L
 992 3801 mt 1064 3801 L
1028 3765 mt 1028 3837 L
 948 3371 mt 1020 3371 L
 984 3335 mt  984 3407 L
1711 4552 mt 1783 4552 L
1747 4516 mt 1747 4588 L
 944 4222 mt 1016 4222 L
 980 4186 mt  980 4258 L
 880 4590 mt  952 4590 L
 916 4554 mt  916 4626 L
 863 4600 mt  935 4600 L
 899 4564 mt  899 4636 L
3553 1998 mt 3625 1998 L
3589 1962 mt 3589 2034 L
1170 3937 mt 1242 3937 L
1206 3901 mt 1206 3973 L
1050 2992 mt 1122 2992 L
1086 2956 mt 1086 3028 L
1291 4579 mt 1363 4579 L
1327 4543 mt 1327 4615 L
1048 4376 mt 1120 4376 L
1084 4340 mt 1084 4412 L
1042 1362 mt 1114 1362 L
1078 1326 mt 1078 1398 L
1138 3192 mt 1210 3192 L
1174 3156 mt 1174 3228 L
 909 4582 mt  981 4582 L
 945 4546 mt  945 4618 L
 867 4423 mt  939 4423 L
 903 4387 mt  903 4459 L
 875 4593 mt  947 4593 L
 911 4557 mt  911 4629 L
 947 3915 mt 1019 3915 L
 983 3879 mt  983 3951 L
2184 4245 mt 2256 4245 L
2220 4209 mt 2220 4281 L
 863 4253 mt  935 4253 L
 899 4217 mt  899 4289 L
1785 4555 mt 1857 4555 L
1821 4519 mt 1821 4591 L
2246 3492 mt 2318 3492 L
2282 3456 mt 2282 3528 L
 863 4577 mt  935 4577 L
 899 4541 mt  899 4613 L
1455 4487 mt 1527 4487 L
1491 4451 mt 1491 4523 L
1597 4508 mt 1669 4508 L
1633 4472 mt 1633 4544 L
 912 2110 mt  984 2110 L
 948 2074 mt  948 2146 L
 876 4446 mt  948 4446 L
 912 4410 mt  912 4482 L
3181 2097 mt 3253 2097 L
3217 2061 mt 3217 2133 L
 887 1218 mt  959 1218 L
 923 1182 mt  923 1254 L
 940 4320 mt 1012 4320 L
 976 4284 mt  976 4356 L
1627 4027 mt 1699 4027 L
1663 3991 mt 1663 4063 L
1869 3743 mt 1941 3743 L
1905 3707 mt 1905 3779 L
 868 4615 mt  940 4615 L
 904 4579 mt  904 4651 L
 935 4161 mt 1007 4161 L
 971 4125 mt  971 4197 L
1943 4394 mt 2015 4394 L
1979 4358 mt 1979 4430 L
1523 4598 mt 1595 4598 L
1559 4562 mt 1559 4634 L
2529 3498 mt 2601 3498 L
2565 3462 mt 2565 3534 L
1375 4188 mt 1447 4188 L
1411 4152 mt 1411 4224 L
1328 4397 mt 1400 4397 L
1364 4361 mt 1364 4433 L
1428 3949 mt 1500 3949 L
1464 3913 mt 1464 3985 L
1186 4511 mt 1258 4511 L
1222 4475 mt 1222 4547 L
1030 4332 mt 1102 4332 L
1066 4296 mt 1066 4368 L
 864 3994 mt  936 3994 L
 900 3958 mt  900 4030 L
1806 4616 mt 1878 4616 L
1842 4580 mt 1842 4652 L
1180 4567 mt 1252 4567 L
1216 4531 mt 1216 4603 L
 914 3661 mt  986 3661 L
 950 3625 mt  950 3697 L
 904 4609 mt  976 4609 L
 940 4573 mt  940 4645 L
 889 4615 mt  961 4615 L
 925 4579 mt  925 4651 L
1095 4590 mt 1167 4590 L
1131 4554 mt 1131 4626 L
 862 2622 mt  934 2622 L
 898 2586 mt  898 2658 L
 957 3093 mt 1029 3093 L
 993 3057 mt  993 3129 L
1271 4229 mt 1343 4229 L
1307 4193 mt 1307 4265 L
 992 4179 mt 1064 4179 L
1028 4143 mt 1028 4215 L
2399 4079 mt 2471 4079 L
2435 4043 mt 2435 4115 L
 871 4308 mt  943 4308 L
 907 4272 mt  907 4344 L
1822 4598 mt 1894 4598 L
1858 4562 mt 1858 4634 L
4257 4609 mt 4329 4609 L
4293 4573 mt 4293 4645 L
1108 4508 mt 1180 4508 L
1144 4472 mt 1144 4544 L
1007 2419 mt 1079 2419 L
1043 2383 mt 1043 2455 L
2070 4586 mt 2142 4586 L
2106 4550 mt 2106 4622 L
 981 3559 mt 1053 3559 L
1017 3523 mt 1017 3595 L
1164 4581 mt 1236 4581 L
1200 4545 mt 1200 4617 L
 916 4106 mt  988 4106 L
 952 4070 mt  952 4142 L
 930 4220 mt 1002 4220 L
 966 4184 mt  966 4256 L
2770 4599 mt 2842 4599 L
2806 4563 mt 2806 4635 L
 893 4609 mt  965 4609 L
 929 4573 mt  929 4645 L
1332 4165 mt 1404 4165 L
1368 4129 mt 1368 4201 L
1077 4246 mt 1149 4246 L
1113 4210 mt 1113 4282 L
1498 4598 mt 1570 4598 L
1534 4562 mt 1534 4634 L
 863 4557 mt  935 4557 L
 899 4521 mt  899 4593 L
1881 3791 mt 1953 3791 L
1917 3755 mt 1917 3827 L
1202 4215 mt 1274 4215 L
1238 4179 mt 1238 4251 L
 888 3948 mt  960 3948 L
 924 3912 mt  924 3984 L
1040 3811 mt 1112 3811 L
1076 3775 mt 1076 3847 L
1931 4582 mt 2003 4582 L
1967 4546 mt 1967 4618 L
4343 4484 mt 4415 4484 L
4379 4448 mt 4379 4520 L
 864 4505 mt  936 4505 L
 900 4469 mt  900 4541 L
 995 4592 mt 1067 4592 L
1031 4556 mt 1031 4628 L
 973 4599 mt 1045 4599 L
1009 4563 mt 1009 4635 L
 868 3299 mt  940 3299 L
 904 3263 mt  904 3335 L
1697 4607 mt 1769 4607 L
1733 4571 mt 1733 4643 L
1083 4510 mt 1155 4510 L
1119 4474 mt 1119 4546 L
1765 4426 mt 1837 4426 L
1801 4390 mt 1801 4462 L
 882 3726 mt  954 3726 L
 918 3690 mt  918 3762 L
1597 4587 mt 1669 4587 L
1633 4551 mt 1633 4623 L
1508 4576 mt 1580 4576 L
1544 4540 mt 1544 4612 L
 973 4588 mt 1045 4588 L
1009 4552 mt 1009 4624 L
1529 4168 mt 1601 4168 L
1565 4132 mt 1565 4204 L
2179 4191 mt 2251 4191 L
2215 4155 mt 2215 4227 L
 863 4614 mt  935 4614 L
 899 4578 mt  899 4650 L
1471 4611 mt 1543 4611 L
1507 4575 mt 1507 4647 L
 897 4275 mt  969 4275 L
 933 4239 mt  933 4311 L
3694 4336 mt 3766 4336 L
3730 4300 mt 3730 4372 L
2214 4611 mt 2286 4611 L
2250 4575 mt 2250 4647 L
1246 3369 mt 1318 3369 L
1282 3333 mt 1282 3405 L
 886 4468 mt  958 4468 L
 922 4432 mt  922 4504 L
1879 2859 mt 1951 2859 L
1915 2823 mt 1915 2895 L
1124 4598 mt 1196 4598 L
1160 4562 mt 1160 4634 L
1291 4519 mt 1363 4519 L
1327 4483 mt 1327 4555 L
3653 4442 mt 3725 4442 L
3689 4406 mt 3689 4478 L
1054 4457 mt 1126 4457 L
1090 4421 mt 1090 4493 L
 871 4414 mt  943 4414 L
 907 4378 mt  907 4450 L
1520 4086 mt 1592 4086 L
1556 4050 mt 1556 4122 L
1609 4356 mt 1681 4356 L
1645 4320 mt 1645 4392 L
1023 4578 mt 1095 4578 L
1059 4542 mt 1059 4614 L
1227 2849 mt 1299 2849 L
1263 2813 mt 1263 2885 L
 871 4586 mt  943 4586 L
 907 4550 mt  907 4622 L
1268 4552 mt 1340 4552 L
1304 4516 mt 1304 4588 L
2222 4610 mt 2294 4610 L
2258 4574 mt 2258 4646 L
 896 4603 mt  968 4603 L
 932 4567 mt  932 4639 L
2700 4615 mt 2772 4615 L
2736 4579 mt 2736 4651 L
1366 4604 mt 1438 4604 L
1402 4568 mt 1402 4640 L
 872  578 mt  944  578 L
 908  542 mt  908  614 L
 882 4597 mt  954 4597 L
 918 4561 mt  918 4633 L
2638 3278 mt 2710 3278 L
2674 3242 mt 2674 3314 L
 869 4486 mt  941 4486 L
 905 4450 mt  905 4522 L
2817 4382 mt 2889 4382 L
2853 4346 mt 2853 4418 L
1424 4250 mt 1496 4250 L
1460 4214 mt 1460 4286 L
2216 4446 mt 2288 4446 L
2252 4410 mt 2252 4482 L
 863 2979 mt  935 2979 L
 899 2943 mt  899 3015 L
 981 4402 mt 1053 4402 L
1017 4366 mt 1017 4438 L
 925 4541 mt  997 4541 L
 961 4505 mt  961 4577 L
4425 3193 mt 4497 3193 L
4461 3157 mt 4461 3229 L
1198 3874 mt 1270 3874 L
1234 3838 mt 1234 3910 L
1669 4059 mt 1741 4059 L
1705 4023 mt 1705 4095 L
 869 4084 mt  941 4084 L
 905 4048 mt  905 4120 L
1207 4594 mt 1279 4594 L
1243 4558 mt 1243 4630 L
 870 4220 mt  942 4220 L
 906 4184 mt  906 4256 L
1102 4531 mt 1174 4531 L
1138 4495 mt 1138 4567 L
 863 3661 mt  935 3661 L
 899 3625 mt  899 3697 L
2544 4579 mt 2616 4579 L
2580 4543 mt 2580 4615 L
1101 4549 mt 1173 4549 L
1137 4513 mt 1137 4585 L
1151 4592 mt 1223 4592 L
1187 4556 mt 1187 4628 L
 967 4403 mt 1039 4403 L
1003 4367 mt 1003 4439 L
 920 4207 mt  992 4207 L
 956 4171 mt  956 4243 L
2342 3933 mt 2414 3933 L
2378 3897 mt 2378 3969 L
 867 3110 mt  939 3110 L
 903 3074 mt  903 3146 L
1189 4605 mt 1261 4605 L
1225 4569 mt 1225 4641 L
1013 4224 mt 1085 4224 L
1049 4188 mt 1049 4260 L
 919 4601 mt  991 4601 L
 955 4565 mt  955 4637 L
1129 4408 mt 1201 4408 L
1165 4372 mt 1165 4444 L
 866 3683 mt  938 3683 L
 902 3647 mt  902 3719 L
2583 4429 mt 2655 4429 L
2619 4393 mt 2619 4465 L
 863 3294 mt  935 3294 L
 899 3258 mt  899 3330 L
1258 4517 mt 1330 4517 L
1294 4481 mt 1294 4553 L
 900 4614 mt  972 4614 L
 936 4578 mt  936 4650 L
 886 4298 mt  958 4298 L
 922 4262 mt  922 4334 L
1103 3415 mt 1175 3415 L
1139 3379 mt 1139 3451 L
 949 4532 mt 1021 4532 L
 985 4496 mt  985 4568 L
 877 3363 mt  949 3363 L
 913 3327 mt  913 3399 L
 865 4128 mt  937 4128 L
 901 4092 mt  901 4164 L
 864 4613 mt  936 4613 L
 900 4577 mt  900 4649 L
2021 4265 mt 2093 4265 L
2057 4229 mt 2057 4301 L
1503 3766 mt 1575 3766 L
1539 3730 mt 1539 3802 L
3230 4475 mt 3302 4475 L
3266 4439 mt 3266 4511 L
 864 4441 mt  936 4441 L
 900 4405 mt  900 4477 L
1785 4182 mt 1857 4182 L
1821 4146 mt 1821 4218 L
 973 4304 mt 1045 4304 L
1009 4268 mt 1009 4340 L
 987 4310 mt 1059 4310 L
1023 4274 mt 1023 4346 L
2147 3870 mt 2219 3870 L
2183 3834 mt 2183 3906 L
2055 2918 mt 2127 2918 L
2091 2882 mt 2091 2954 L
1371 3525 mt 1443 3525 L
1407 3489 mt 1407 3561 L
4531 4599 mt 4603 4599 L
4567 4563 mt 4567 4635 L
1750 4456 mt 1822 4456 L
1786 4420 mt 1786 4492 L
 919 3945 mt  991 3945 L
 955 3909 mt  955 3981 L
 865 4609 mt  937 4609 L
 901 4573 mt  901 4645 L
 908 3176 mt  980 3176 L
 944 3140 mt  944 3212 L
 864 3963 mt  936 3963 L
 900 3927 mt  900 3999 L
 967 4180 mt 1039 4180 L
1003 4144 mt 1003 4216 L
 872 2819 mt  944 2819 L
 908 2783 mt  908 2855 L
1074 4614 mt 1146 4614 L
1110 4578 mt 1110 4650 L
1147 4614 mt 1219 4614 L
1183 4578 mt 1183 4650 L
1028 4450 mt 1100 4450 L
1064 4414 mt 1064 4486 L
 868 4615 mt  940 4615 L
 904 4579 mt  904 4651 L
 918 4215 mt  990 4215 L
 954 4179 mt  954 4251 L
 946 3764 mt 1018 3764 L
 982 3728 mt  982 3800 L
1514 4063 mt 1586 4063 L
1550 4027 mt 1550 4099 L
1069 3917 mt 1141 3917 L
1105 3881 mt 1105 3953 L
3649 4587 mt 3721 4587 L
3685 4551 mt 3685 4623 L
 939 4262 mt 1011 4262 L
 975 4226 mt  975 4298 L
 920 4606 mt  992 4606 L
 956 4570 mt  956 4642 L
 863 3934 mt  935 3934 L
 899 3898 mt  899 3970 L
 897 3214 mt  969 3214 L
 933 3178 mt  933 3250 L
 863 4583 mt  935 4583 L
 899 4547 mt  899 4619 L
 888 4596 mt  960 4596 L
 924 4560 mt  924 4632 L
 892 4426 mt  964 4426 L
 928 4390 mt  928 4462 L
 890 3291 mt  962 3291 L
 926 3255 mt  926 3327 L
2192 4313 mt 2264 4313 L
2228 4277 mt 2228 4349 L
1344 3751 mt 1416 3751 L
1380 3715 mt 1380 3787 L
1610 3949 mt 1682 3949 L
1646 3913 mt 1646 3985 L
1851 4504 mt 1923 4504 L
1887 4468 mt 1887 4540 L
1169 4432 mt 1241 4432 L
1205 4396 mt 1205 4468 L
1151 3812 mt 1223 3812 L
1187 3776 mt 1187 3848 L
1244 3665 mt 1316 3665 L
1280 3629 mt 1280 3701 L
2419 3514 mt 2491 3514 L
2455 3478 mt 2455 3550 L
2452 4603 mt 2524 4603 L
2488 4567 mt 2488 4639 L
1068 4552 mt 1140 4552 L
1104 4516 mt 1104 4588 L
 935 4401 mt 1007 4401 L
 971 4365 mt  971 4437 L
1009 4507 mt 1081 4507 L
1045 4471 mt 1045 4543 L
1177 4420 mt 1249 4420 L
1213 4384 mt 1213 4456 L
2300 2430 mt 2372 2430 L
2336 2394 mt 2336 2466 L
 924 4147 mt  996 4147 L
 960 4111 mt  960 4183 L
 993 2630 mt 1065 2630 L
1029 2594 mt 1029 2666 L
1561 4600 mt 1633 4600 L
1597 4564 mt 1597 4636 L
 866 3812 mt  938 3812 L
 902 3776 mt  902 3848 L
1229 4478 mt 1301 4478 L
1265 4442 mt 1265 4514 L
 915 4562 mt  987 4562 L
 951 4526 mt  951 4598 L
3353 2110 mt 3425 2110 L
3389 2074 mt 3389 2146 L
1386 4392 mt 1458 4392 L
1422 4356 mt 1422 4428 L
 880 3123 mt  952 3123 L
 916 3087 mt  916 3159 L
 867 4589 mt  939 4589 L
 903 4553 mt  903 4625 L
 996 4612 mt 1068 4612 L
1032 4576 mt 1032 4648 L
gs 898 414 5364 4203 rc
gr

0 sg
2798 5104 mt 
(\(F,DCTs,iMLP\)) s
 422 3343 mt  -90 rotate
(\(S,LFCC,GMM\)) s
90 rotate
2905  223 mt 
(Corr = -0.05) s

end %%Color Dict

eplot
%%EndObject

epage
end

showpage

%%Trailer
%%EOF
