%!PS-Adobe-3.0 EPSF-3.0
%%Creator: MATLAB, The Mathworks, Inc. Version 7.7.0.471 (R2008b). Operating System: Microsoft Windows XP.
%%Title: Pictures\main_zoo_mvar_analysis_data_BMI_xcorr_bmi_p2_k1_2_3.eps
%%CreationDate: 10/26/2009  05:44:39
%%DocumentNeededFonts: Helvetica
%%DocumentProcessColors: Cyan Magenta Yellow Black
%%LanguageLevel: 2
%%Pages: 1
%%BoundingBox:    32   180   546   616
%%EndComments

%%BeginProlog
% MathWorks dictionary
/MathWorks 160 dict begin
% definition operators
/bdef {bind def} bind def
/ldef {load def} bind def
/xdef {exch def} bdef
/xstore {exch store} bdef
% operator abbreviations
/c  /clip ldef
/cc /concat ldef
/cp /closepath ldef
/gr /grestore ldef
/gs /gsave ldef
/mt /moveto ldef
/np /newpath ldef
/cm /currentmatrix ldef
/sm /setmatrix ldef
/rm /rmoveto ldef
/rl /rlineto ldef
/s {show newpath} bdef
/sc {setcmykcolor} bdef
/sr /setrgbcolor ldef
/sg /setgray ldef
/w /setlinewidth ldef
/j /setlinejoin ldef
/cap /setlinecap ldef
/rc {rectclip} bdef
/rf {rectfill} bdef
% page state control
/pgsv () def
/bpage {/pgsv save def} bdef
/epage {pgsv restore} bdef
/bplot /gsave ldef
/eplot {stroke grestore} bdef
% orientation switch
/portraitMode 0 def /landscapeMode 1 def /rotateMode 2 def
% coordinate system mappings
/dpi2point 0 def
% font control
/FontSize 0 def
/FMS {/FontSize xstore findfont [FontSize 0 0 FontSize neg 0 0]
  makefont setfont} bdef
/ISOLatin1Encoding where {pop /WindowsLatin1Encoding 256 array bdef
ISOLatin1Encoding WindowsLatin1Encoding copy pop
/.notdef/.notdef/quotesinglbase/florin/quotedblbase/ellipsis/dagger
/daggerdbl/circumflex/perthousand/Scaron/guilsinglleft/OE/.notdef/.notdef
/.notdef/.notdef/quoteleft/quoteright/quotedblleft/quotedblright/bullet
/endash/emdash/tilde/trademark/scaron/guilsinglright/oe/.notdef/.notdef
/Ydieresis WindowsLatin1Encoding 128 32 getinterval astore pop}
{/WindowsLatin1Encoding StandardEncoding bdef} ifelse
/reencode {exch dup where {pop load} {pop StandardEncoding} ifelse
  exch dup 3 1 roll findfont dup length dict begin
  { 1 index /FID ne {def}{pop pop} ifelse } forall
  /Encoding exch def currentdict end definefont pop} bdef
/isroman {findfont /CharStrings get /Agrave known} bdef
/FMSR {3 1 roll 1 index dup isroman {reencode} {pop pop} ifelse
  exch FMS} bdef
/csm {1 dpi2point div -1 dpi2point div scale neg translate
 dup landscapeMode eq {pop -90 rotate}
  {rotateMode eq {90 rotate} if} ifelse} bdef
% line types: solid, dotted, dashed, dotdash
/SO { [] 0 setdash } bdef
/DO { [.5 dpi2point mul 4 dpi2point mul] 0 setdash } bdef
/DA { [6 dpi2point mul] 0 setdash } bdef
/DD { [.5 dpi2point mul 4 dpi2point mul 6 dpi2point mul 4
  dpi2point mul] 0 setdash } bdef
% macros for lines and objects
/L {lineto stroke} bdef
/MP {3 1 roll moveto 1 sub {rlineto} repeat} bdef
/AP {{rlineto} repeat} bdef
/PDlw -1 def
/W {/PDlw currentlinewidth def setlinewidth} def
/PP {closepath eofill} bdef
/DP {closepath stroke} bdef
/MR {4 -2 roll moveto dup  0 exch rlineto exch 0 rlineto
  neg 0 exch rlineto closepath} bdef
/FR {MR stroke} bdef
/PR {MR fill} bdef
/L1i {{currentfile picstr readhexstring pop} image} bdef
/tMatrix matrix def
/MakeOval {newpath tMatrix currentmatrix pop translate scale
0 0 1 0 360 arc tMatrix setmatrix} bdef
/FO {MakeOval stroke} bdef
/PO {MakeOval fill} bdef
/PD {currentlinewidth 2 div 0 360 arc fill
   PDlw -1 eq not {PDlw w /PDlw -1 def} if} def
/FA {newpath tMatrix currentmatrix pop translate scale
  0 0 1 5 -2 roll arc tMatrix setmatrix stroke} bdef
/PA {newpath tMatrix currentmatrix pop	translate 0 0 moveto scale
  0 0 1 5 -2 roll arc closepath tMatrix setmatrix fill} bdef
/FAn {newpath tMatrix currentmatrix pop translate scale
  0 0 1 5 -2 roll arcn tMatrix setmatrix stroke} bdef
/PAn {newpath tMatrix currentmatrix pop translate 0 0 moveto scale
  0 0 1 5 -2 roll arcn closepath tMatrix setmatrix fill} bdef
/vradius 0 def /hradius 0 def /lry 0 def
/lrx 0 def /uly 0 def /ulx 0 def /rad 0 def
/MRR {/vradius xdef /hradius xdef /lry xdef /lrx xdef /uly xdef
  /ulx xdef newpath tMatrix currentmatrix pop ulx hradius add uly
  vradius add translate hradius vradius scale 0 0 1 180 270 arc 
  tMatrix setmatrix lrx hradius sub uly vradius add translate
  hradius vradius scale 0 0 1 270 360 arc tMatrix setmatrix
  lrx hradius sub lry vradius sub translate hradius vradius scale
  0 0 1 0 90 arc tMatrix setmatrix ulx hradius add lry vradius sub
  translate hradius vradius scale 0 0 1 90 180 arc tMatrix setmatrix
  closepath} bdef
/FRR {MRR stroke } bdef
/PRR {MRR fill } bdef
/MlrRR {/lry xdef /lrx xdef /uly xdef /ulx xdef /rad lry uly sub 2 div def
  newpath tMatrix currentmatrix pop ulx rad add uly rad add translate
  rad rad scale 0 0 1 90 270 arc tMatrix setmatrix lrx rad sub lry rad
  sub translate rad rad scale 0 0 1 270 90 arc tMatrix setmatrix
  closepath} bdef
/FlrRR {MlrRR stroke } bdef
/PlrRR {MlrRR fill } bdef
/MtbRR {/lry xdef /lrx xdef /uly xdef /ulx xdef /rad lrx ulx sub 2 div def
  newpath tMatrix currentmatrix pop ulx rad add uly rad add translate
  rad rad scale 0 0 1 180 360 arc tMatrix setmatrix lrx rad sub lry rad
  sub translate rad rad scale 0 0 1 0 180 arc tMatrix setmatrix
  closepath} bdef
/FtbRR {MtbRR stroke } bdef
/PtbRR {MtbRR fill } bdef
/stri 6 array def /dtri 6 array def
/smat 6 array def /dmat 6 array def
/tmat1 6 array def /tmat2 6 array def /dif 3 array def
/asub {/ind2 exch def /ind1 exch def dup dup
  ind1 get exch ind2 get sub exch } bdef
/tri_to_matrix {
  2 0 asub 3 1 asub 4 0 asub 5 1 asub
  dup 0 get exch 1 get 7 -1 roll astore } bdef
/compute_transform {
  dmat dtri tri_to_matrix tmat1 invertmatrix 
  smat stri tri_to_matrix tmat2 concatmatrix } bdef
/ds {stri astore pop} bdef
/dt {dtri astore pop} bdef
/db {2 copy /cols xdef /rows xdef mul dup 3 mul string
  currentfile 
  3 index 0 eq {/ASCIIHexDecode filter}
  {/ASCII85Decode filter 3 index 2 eq {/RunLengthDecode filter} if }
  ifelse exch readstring pop
  dup 0 3 index getinterval /rbmap xdef
  dup 2 index dup getinterval /gbmap xdef
  1 index dup 2 mul exch getinterval /bbmap xdef pop pop}bdef
/it {gs np dtri aload pop moveto lineto lineto cp c
  cols rows 8 compute_transform 
  rbmap gbmap bbmap true 3 colorimage gr}bdef
/il {newpath moveto lineto stroke}bdef
currentdict end def
%%EndProlog

%%BeginSetup
MathWorks begin

0 cap

end
%%EndSetup

%%Page: 1 1
%%BeginPageSetup
%%PageBoundingBox:    32   180   546   616
MathWorks begin
bpage
%%EndPageSetup

%%BeginObject: obj1
bplot

/dpi2point 12 def
portraitMode 0216 7344 csm

  174   -48  6173  5231 rc
85 dict begin %Colortable dictionary
/c0 { 0.000000 0.000000 0.000000 sr} bdef
/c1 { 1.000000 1.000000 1.000000 sr} bdef
/c2 { 0.900000 0.000000 0.000000 sr} bdef
/c3 { 0.000000 0.820000 0.000000 sr} bdef
/c4 { 0.000000 0.000000 0.800000 sr} bdef
/c5 { 0.910000 0.820000 0.320000 sr} bdef
/c6 { 1.000000 0.260000 0.820000 sr} bdef
/c7 { 0.000000 0.820000 0.820000 sr} bdef
c0
1 j
1 sg
   0    0 6919 5187 rf
6 w
0 4201 5362 0 0 -4201 899 4616 4 MP
PP
-5362 0 0 4201 5362 0 0 -4201 899 4616 5 MP stroke
4 w
DO
SO
6 w
0 sg
 899  415 mt 6261  415 L
 899 4616 mt 6261 4616 L
6261 4616 mt 6261  415 L
 899 4616 mt  899  415 L
 899 4616 mt 6261 4616 L
 899 4616 mt  899  415 L
2183 4616 mt 2183 4562 L
2183  415 mt 2183  468 L
%%IncludeResource: font Helvetica
/Helvetica /WindowsLatin1Encoding 240 FMSR

2017 4873 mt 
(0.2) s
3467 4616 mt 3467 4562 L
3467  415 mt 3467  468 L
3301 4873 mt 
(0.4) s
4752 4616 mt 4752 4562 L
4752  415 mt 4752  468 L
4586 4873 mt 
(0.6) s
6036 4616 mt 6036 4562 L
6036  415 mt 6036  468 L
5870 4873 mt 
(0.8) s
 899 3915 mt  952 3915 L
6261 3915 mt 6207 3915 L
 531 4004 mt 
(0.1) s
 899 3214 mt  952 3214 L
6261 3214 mt 6207 3214 L
 531 3303 mt 
(0.2) s
 899 2514 mt  952 2514 L
6261 2514 mt 6207 2514 L
 531 2603 mt 
(0.3) s
 899 1813 mt  952 1813 L
6261 1813 mt 6207 1813 L
 531 1902 mt 
(0.4) s
 899 1113 mt  952 1113 L
6261 1113 mt 6207 1113 L
 531 1202 mt 
(0.5) s
 899  415 mt 6261  415 L
 899 4616 mt 6261 4616 L
6261 4616 mt 6261  415 L
 899 4616 mt  899  415 L
gs 899 414 5363 4203 rc
gr

/c8 { 0.000000 0.000000 1.000000 sr} bdef
c8
5358  415 mt 5430  415 L
5394  379 mt 5394  451 L
 962 4390 mt 1034 4390 L
 998 4354 mt  998 4426 L
 867 4533 mt  939 4533 L
 903 4497 mt  903 4569 L
 868 4256 mt  940 4256 L
 904 4220 mt  904 4292 L
 912 4615 mt  984 4615 L
 948 4579 mt  948 4651 L
 877 4616 mt  949 4616 L
 913 4580 mt  913 4652 L
 863 3018 mt  935 3018 L
 899 2982 mt  899 3054 L
 865 4529 mt  937 4529 L
 901 4493 mt  901 4565 L
 863 4359 mt  935 4359 L
 899 4323 mt  899 4395 L
1418 3254 mt 1490 3254 L
1454 3218 mt 1454 3290 L
 951 4566 mt 1023 4566 L
 987 4530 mt  987 4602 L
1379 4615 mt 1451 4615 L
1415 4579 mt 1415 4651 L
1243 4446 mt 1315 4446 L
1279 4410 mt 1279 4482 L
1922 4605 mt 1994 4605 L
1958 4569 mt 1958 4641 L
 991 4522 mt 1063 4522 L
1027 4486 mt 1027 4558 L
2505 3497 mt 2577 3497 L
2541 3461 mt 2541 3533 L
5443 2818 mt 5515 2818 L
5479 2782 mt 5479 2854 L
 931 4528 mt 1003 4528 L
 967 4492 mt  967 4564 L
 875 4524 mt  947 4524 L
 911 4488 mt  911 4560 L
1280 3299 mt 1352 3299 L
1316 3263 mt 1316 3335 L
 863 4529 mt  935 4529 L
 899 4493 mt  899 4565 L
 937 4287 mt 1009 4287 L
 973 4251 mt  973 4323 L
 994 4146 mt 1066 4146 L
1030 4110 mt 1030 4182 L
 989 4607 mt 1061 4607 L
1025 4571 mt 1025 4643 L
1903 4230 mt 1975 4230 L
1939 4194 mt 1939 4266 L
1020 4405 mt 1092 4405 L
1056 4369 mt 1056 4441 L
1420 3833 mt 1492 3833 L
1456 3797 mt 1456 3869 L
 868 4553 mt  940 4553 L
 904 4517 mt  904 4589 L
 878 4613 mt  950 4613 L
 914 4577 mt  914 4649 L
 921 4465 mt  993 4465 L
 957 4429 mt  957 4501 L
 883 3180 mt  955 3180 L
 919 3144 mt  919 3216 L
 947 4192 mt 1019 4192 L
 983 4156 mt  983 4228 L
1062 4381 mt 1134 4381 L
1098 4345 mt 1098 4417 L
1179 3348 mt 1251 3348 L
1215 3312 mt 1215 3384 L
1054 4594 mt 1126 4594 L
1090 4558 mt 1090 4630 L
1067 4464 mt 1139 4464 L
1103 4428 mt 1103 4500 L
 872 4551 mt  944 4551 L
 908 4515 mt  908 4587 L
 930 4204 mt 1002 4204 L
 966 4168 mt  966 4240 L
1832 4565 mt 1904 4565 L
1868 4529 mt 1868 4601 L
1627 3072 mt 1699 3072 L
1663 3036 mt 1663 3108 L
1069 4589 mt 1141 4589 L
1105 4553 mt 1105 4625 L
 976 3893 mt 1048 3893 L
1012 3857 mt 1012 3929 L
1627 3953 mt 1699 3953 L
1663 3917 mt 1663 3989 L
1587 4302 mt 1659 4302 L
1623 4266 mt 1623 4338 L
 950 3752 mt 1022 3752 L
 986 3716 mt  986 3788 L
 867 4587 mt  939 4587 L
 903 4551 mt  903 4623 L
2087 2769 mt 2159 2769 L
2123 2733 mt 2123 2805 L
1001 4193 mt 1073 4193 L
1037 4157 mt 1037 4229 L
1295 4567 mt 1367 4567 L
1331 4531 mt 1331 4603 L
 891 4581 mt  963 4581 L
 927 4545 mt  927 4617 L
1791 4607 mt 1863 4607 L
1827 4571 mt 1827 4643 L
1410 4316 mt 1482 4316 L
1446 4280 mt 1446 4352 L
 899 4593 mt  971 4593 L
 935 4557 mt  935 4629 L
1089 4229 mt 1161 4229 L
1125 4193 mt 1125 4265 L
2424 4473 mt 2496 4473 L
2460 4437 mt 2460 4509 L
1161 4414 mt 1233 4414 L
1197 4378 mt 1197 4450 L
1360 4576 mt 1432 4576 L
1396 4540 mt 1396 4612 L
 896 4567 mt  968 4567 L
 932 4531 mt  932 4603 L
1220 4563 mt 1292 4563 L
1256 4527 mt 1256 4599 L
 908 4588 mt  980 4588 L
 944 4552 mt  944 4624 L
1154 3936 mt 1226 3936 L
1190 3900 mt 1190 3972 L
2932 4406 mt 3004 4406 L
2968 4370 mt 2968 4442 L
 983 1623 mt 1055 1623 L
1019 1587 mt 1019 1659 L
1019 3713 mt 1091 3713 L
1055 3677 mt 1055 3749 L
 879 3853 mt  951 3853 L
 915 3817 mt  915 3889 L
 987 3583 mt 1059 3583 L
1023 3547 mt 1023 3619 L
2613 4495 mt 2685 4495 L
2649 4459 mt 2649 4531 L
 958 4451 mt 1030 4451 L
 994 4415 mt  994 4487 L
 960 4547 mt 1032 4547 L
 996 4511 mt  996 4583 L
 869 4446 mt  941 4446 L
 905 4410 mt  905 4482 L
 937 4335 mt 1009 4335 L
 973 4299 mt  973 4371 L
 872 4587 mt  944 4587 L
 908 4551 mt  908 4623 L
 872 4526 mt  944 4526 L
 908 4490 mt  908 4562 L
1230 4609 mt 1302 4609 L
1266 4573 mt 1266 4645 L
 931 4504 mt 1003 4504 L
 967 4468 mt  967 4540 L
1467 4452 mt 1539 4452 L
1503 4416 mt 1503 4488 L
 864 4611 mt  936 4611 L
 900 4575 mt  900 4647 L
 863 4615 mt  935 4615 L
 899 4579 mt  899 4651 L
1153 3861 mt 1225 3861 L
1189 3825 mt 1189 3897 L
 967 4552 mt 1039 4552 L
1003 4516 mt 1003 4588 L
1730 4419 mt 1802 4419 L
1766 4383 mt 1766 4455 L
 863 3893 mt  935 3893 L
 899 3857 mt  899 3929 L
1273 2893 mt 1345 2893 L
1309 2857 mt 1309 2929 L
 864 4428 mt  936 4428 L
 900 4392 mt  900 4464 L
2497 1702 mt 2569 1702 L
2533 1666 mt 2533 1738 L
 897 4479 mt  969 4479 L
 933 4443 mt  933 4515 L
 884 4568 mt  956 4568 L
 920 4532 mt  920 4604 L
1485 4582 mt 1557 4582 L
1521 4546 mt 1521 4618 L
 886 4441 mt  958 4441 L
 922 4405 mt  922 4477 L
1791 4317 mt 1863 4317 L
1827 4281 mt 1827 4353 L
1079 4255 mt 1151 4255 L
1115 4219 mt 1115 4291 L
 879 4279 mt  951 4279 L
 915 4243 mt  915 4315 L
1266 4607 mt 1338 4607 L
1302 4571 mt 1302 4643 L
2244 4480 mt 2316 4480 L
2280 4444 mt 2280 4516 L
 983 4462 mt 1055 4462 L
1019 4426 mt 1019 4498 L
1224 4377 mt 1296 4377 L
1260 4341 mt 1260 4413 L
 913 4058 mt  985 4058 L
 949 4022 mt  949 4094 L
 893 4606 mt  965 4606 L
 929 4570 mt  929 4642 L
1388 4361 mt 1460 4361 L
1424 4325 mt 1424 4397 L
 867 4579 mt  939 4579 L
 903 4543 mt  903 4615 L
6225 1524 mt 6297 1524 L
6261 1488 mt 6261 1560 L
1139 4379 mt 1211 4379 L
1175 4343 mt 1175 4415 L
1505 1364 mt 1577 1364 L
1541 1328 mt 1541 1400 L
 894 4552 mt  966 4552 L
 930 4516 mt  930 4588 L
1870 4517 mt 1942 4517 L
1906 4481 mt 1906 4553 L
1007 4576 mt 1079 4576 L
1043 4540 mt 1043 4612 L
1069 4612 mt 1141 4612 L
1105 4576 mt 1105 4648 L
1588 4131 mt 1660 4131 L
1624 4095 mt 1624 4167 L
1016 4491 mt 1088 4491 L
1052 4455 mt 1052 4527 L
 863 4353 mt  935 4353 L
 899 4317 mt  899 4389 L
1091 4608 mt 1163 4608 L
1127 4572 mt 1127 4644 L
 864 4450 mt  936 4450 L
 900 4414 mt  900 4486 L
2375 4438 mt 2447 4438 L
2411 4402 mt 2411 4474 L
1361 4568 mt 1433 4568 L
1397 4532 mt 1397 4604 L
 898 4465 mt  970 4465 L
 934 4429 mt  934 4501 L
1028 4613 mt 1100 4613 L
1064 4577 mt 1064 4649 L
 915 3603 mt  987 3603 L
 951 3567 mt  951 3639 L
1246 4550 mt 1318 4550 L
1282 4514 mt 1282 4586 L
 879 4444 mt  951 4444 L
 915 4408 mt  915 4480 L
1322 2790 mt 1394 2790 L
1358 2754 mt 1358 2826 L
 908 4468 mt  980 4468 L
 944 4432 mt  944 4504 L
1140 4257 mt 1212 4257 L
1176 4221 mt 1176 4293 L
 955 4582 mt 1027 4582 L
 991 4546 mt  991 4618 L
1725 3371 mt 1797 3371 L
1761 3335 mt 1761 3407 L
2145 4192 mt 2217 4192 L
2181 4156 mt 2181 4228 L
 966 4597 mt 1038 4597 L
1002 4561 mt 1002 4633 L
 924 4513 mt  996 4513 L
 960 4477 mt  960 4549 L
 964 4555 mt 1036 4555 L
1000 4519 mt 1000 4591 L
 956 4510 mt 1028 4510 L
 992 4474 mt  992 4546 L
 964 4110 mt 1036 4110 L
1000 4074 mt 1000 4146 L
 902 4019 mt  974 4019 L
 938 3983 mt  938 4055 L
2746 4193 mt 2818 4193 L
2782 4157 mt 2782 4229 L
 938 4607 mt 1010 4607 L
 974 4571 mt  974 4643 L
1167 4380 mt 1239 4380 L
1203 4344 mt 1203 4416 L
 950 3990 mt 1022 3990 L
 986 3954 mt  986 4026 L
1075 4405 mt 1147 4405 L
1111 4369 mt 1111 4441 L
 979 4497 mt 1051 4497 L
1015 4461 mt 1015 4533 L
1054 4390 mt 1126 4390 L
1090 4354 mt 1090 4426 L
3007 4443 mt 3079 4443 L
3043 4407 mt 3043 4479 L
 978 3842 mt 1050 3842 L
1014 3806 mt 1014 3878 L
 870 4557 mt  942 4557 L
 906 4521 mt  906 4593 L
1428 4615 mt 1500 4615 L
1464 4579 mt 1464 4651 L
 863 3304 mt  935 3304 L
 899 3268 mt  899 3340 L
1131 4274 mt 1203 4274 L
1167 4238 mt 1167 4310 L
 985 4526 mt 1057 4526 L
1021 4490 mt 1021 4562 L
 988 4377 mt 1060 4377 L
1024 4341 mt 1024 4413 L
2971 4615 mt 3043 4615 L
3007 4579 mt 3007 4651 L
2804 4615 mt 2876 4615 L
2840 4579 mt 2840 4651 L
1351 4600 mt 1423 4600 L
1387 4564 mt 1387 4636 L
2458 3941 mt 2530 3941 L
2494 3905 mt 2494 3977 L
 869 4582 mt  941 4582 L
 905 4546 mt  905 4618 L
1089 4355 mt 1161 4355 L
1125 4319 mt 1125 4391 L
 864 3396 mt  936 3396 L
 900 3360 mt  900 3432 L
1384 4461 mt 1456 4461 L
1420 4425 mt 1420 4497 L
3384 4039 mt 3456 4039 L
3420 4003 mt 3420 4075 L
1022 4573 mt 1094 4573 L
1058 4537 mt 1058 4609 L
 954 4400 mt 1026 4400 L
 990 4364 mt  990 4436 L
2293 3531 mt 2365 3531 L
2329 3495 mt 2329 3567 L
1206 4615 mt 1278 4615 L
1242 4579 mt 1242 4651 L
 863 4576 mt  935 4576 L
 899 4540 mt  899 4612 L
 863 4521 mt  935 4521 L
 899 4485 mt  899 4557 L
1156 4602 mt 1228 4602 L
1192 4566 mt 1192 4638 L
 982 3182 mt 1054 3182 L
1018 3146 mt 1018 3218 L
1234 4420 mt 1306 4420 L
1270 4384 mt 1270 4456 L
 915 4497 mt  987 4497 L
 951 4461 mt  951 4533 L
1283 4060 mt 1355 4060 L
1319 4024 mt 1319 4096 L
2198 3814 mt 2270 3814 L
2234 3778 mt 2234 3850 L
1161 4358 mt 1233 4358 L
1197 4322 mt 1197 4394 L
 889 4319 mt  961 4319 L
 925 4283 mt  925 4355 L
1139 4433 mt 1211 4433 L
1175 4397 mt 1175 4469 L
3268 3339 mt 3340 3339 L
3304 3303 mt 3304 3375 L
1490 4093 mt 1562 4093 L
1526 4057 mt 1526 4129 L
1253 3976 mt 1325 3976 L
1289 3940 mt 1289 4012 L
 864 4451 mt  936 4451 L
 900 4415 mt  900 4487 L
1457 4209 mt 1529 4209 L
1493 4173 mt 1493 4245 L
 887 4615 mt  959 4615 L
 923 4579 mt  923 4651 L
1322 4159 mt 1394 4159 L
1358 4123 mt 1358 4195 L
 953 4550 mt 1025 4550 L
 989 4514 mt  989 4586 L
1329 2378 mt 1401 2378 L
1365 2342 mt 1365 2414 L
 871 4533 mt  943 4533 L
 907 4497 mt  907 4569 L
1643 4100 mt 1715 4100 L
1679 4064 mt 1679 4136 L
1437 2399 mt 1509 2399 L
1473 2363 mt 1473 2435 L
2428 2953 mt 2500 2953 L
2464 2917 mt 2464 2989 L
1015 4427 mt 1087 4427 L
1051 4391 mt 1051 4463 L
 991 4583 mt 1063 4583 L
1027 4547 mt 1027 4619 L
 886 3292 mt  958 3292 L
 922 3256 mt  922 3328 L
 868 4137 mt  940 4137 L
 904 4101 mt  904 4173 L
 957 4583 mt 1029 4583 L
 993 4547 mt  993 4619 L
2874 4513 mt 2946 4513 L
2910 4477 mt 2910 4549 L
1951 3044 mt 2023 3044 L
1987 3008 mt 1987 3080 L
1970 4328 mt 2042 4328 L
2006 4292 mt 2006 4364 L
 883 3968 mt  955 3968 L
 919 3932 mt  919 4004 L
1080 3717 mt 1152 3717 L
1116 3681 mt 1116 3753 L
 896 4355 mt  968 4355 L
 932 4319 mt  932 4391 L
 879 4610 mt  951 4610 L
 915 4574 mt  915 4646 L
3617 1185 mt 3689 1185 L
3653 1149 mt 3653 1221 L
1577 4192 mt 1649 4192 L
1613 4156 mt 1613 4228 L
2828 3073 mt 2900 3073 L
2864 3037 mt 2864 3109 L
 911 4439 mt  983 4439 L
 947 4403 mt  947 4475 L
1191 4612 mt 1263 4612 L
1227 4576 mt 1227 4648 L
5666  438 mt 5738  438 L
5702  402 mt 5702  474 L
2420 3679 mt 2492 3679 L
2456 3643 mt 2456 3715 L
 931 4606 mt 1003 4606 L
 967 4570 mt  967 4642 L
1218 4525 mt 1290 4525 L
1254 4489 mt 1254 4561 L
 906 4553 mt  978 4553 L
 942 4517 mt  942 4589 L
1948 4332 mt 2020 4332 L
1984 4296 mt 1984 4368 L
1009 3429 mt 1081 3429 L
1045 3393 mt 1045 3465 L
1880 3828 mt 1952 3828 L
1916 3792 mt 1916 3864 L
 903 4406 mt  975 4406 L
 939 4370 mt  939 4442 L
2390 3412 mt 2462 3412 L
2426 3376 mt 2426 3448 L
 917 4527 mt  989 4527 L
 953 4491 mt  953 4563 L
1046 4158 mt 1118 4158 L
1082 4122 mt 1082 4194 L
 964 4426 mt 1036 4426 L
1000 4390 mt 1000 4462 L
4337 3987 mt 4409 3987 L
4373 3951 mt 4373 4023 L
 868 4563 mt  940 4563 L
 904 4527 mt  904 4599 L
3542 3025 mt 3614 3025 L
3578 2989 mt 3578 3061 L
5223 2976 mt 5295 2976 L
5259 2940 mt 5259 3012 L
1163 4611 mt 1235 4611 L
1199 4575 mt 1199 4647 L
1147 4302 mt 1219 4302 L
1183 4266 mt 1183 4338 L
1502 3093 mt 1574 3093 L
1538 3057 mt 1538 3129 L
 920 4614 mt  992 4614 L
 956 4578 mt  956 4650 L
1564 4598 mt 1636 4598 L
1600 4562 mt 1600 4634 L
1220 3620 mt 1292 3620 L
1256 3584 mt 1256 3656 L
 898 4324 mt  970 4324 L
 934 4288 mt  934 4360 L
1585 4362 mt 1657 4362 L
1621 4326 mt 1621 4398 L
1222 4595 mt 1294 4595 L
1258 4559 mt 1258 4631 L
 961 4438 mt 1033 4438 L
 997 4402 mt  997 4474 L
1898 4461 mt 1970 4461 L
1934 4425 mt 1934 4497 L
 916 4323 mt  988 4323 L
 952 4287 mt  952 4359 L
1250 4564 mt 1322 4564 L
1286 4528 mt 1286 4600 L
1615 3902 mt 1687 3902 L
1651 3866 mt 1651 3938 L
 950 3305 mt 1022 3305 L
 986 3269 mt  986 3341 L
 882 4570 mt  954 4570 L
 918 4534 mt  918 4606 L
1935 2626 mt 2007 2626 L
1971 2590 mt 1971 2662 L
 897 4608 mt  969 4608 L
 933 4572 mt  933 4644 L
 864 4603 mt  936 4603 L
 900 4567 mt  900 4639 L
1019 4599 mt 1091 4599 L
1055 4563 mt 1055 4635 L
2435 4610 mt 2507 4610 L
2471 4574 mt 2471 4646 L
2117 4547 mt 2189 4547 L
2153 4511 mt 2153 4583 L
1125 3517 mt 1197 3517 L
1161 3481 mt 1161 3553 L
1611 4579 mt 1683 4579 L
1647 4543 mt 1647 4615 L
1592 3283 mt 1664 3283 L
1628 3247 mt 1628 3319 L
1033 4323 mt 1105 4323 L
1069 4287 mt 1069 4359 L
 878 4561 mt  950 4561 L
 914 4525 mt  914 4597 L
 983 4415 mt 1055 4415 L
1019 4379 mt 1019 4451 L
 936 4313 mt 1008 4313 L
 972 4277 mt  972 4349 L
3119 2699 mt 3191 2699 L
3155 2663 mt 3155 2735 L
 884 4531 mt  956 4531 L
 920 4495 mt  920 4567 L
1894 4615 mt 1966 4615 L
1930 4579 mt 1930 4651 L
 877 4611 mt  949 4611 L
 913 4575 mt  913 4647 L
1531 4500 mt 1603 4500 L
1567 4464 mt 1567 4536 L
1727 4520 mt 1799 4520 L
1763 4484 mt 1763 4556 L
 915 4613 mt  987 4613 L
 951 4577 mt  951 4649 L
 966 4466 mt 1038 4466 L
1002 4430 mt 1002 4502 L
1450 4590 mt 1522 4590 L
1486 4554 mt 1486 4626 L
1652 4048 mt 1724 4048 L
1688 4012 mt 1688 4084 L
 865 4570 mt  937 4570 L
 901 4534 mt  901 4606 L
1036 4453 mt 1108 4453 L
1072 4417 mt 1072 4489 L
1966 4221 mt 2038 4221 L
2002 4185 mt 2002 4257 L
1244 4263 mt 1316 4263 L
1280 4227 mt 1280 4299 L
1122 4055 mt 1194 4055 L
1158 4019 mt 1158 4091 L
2106 4569 mt 2178 4569 L
2142 4533 mt 2142 4605 L
 894 1526 mt  966 1526 L
 930 1490 mt  930 1562 L
1014 3707 mt 1086 3707 L
1050 3671 mt 1050 3743 L
 971 3126 mt 1043 3126 L
1007 3090 mt 1007 3162 L
 899 4215 mt  971 4215 L
 935 4179 mt  935 4251 L
1448 4519 mt 1520 4519 L
1484 4483 mt 1484 4555 L
1778 4613 mt 1850 4613 L
1814 4577 mt 1814 4649 L
 863 4488 mt  935 4488 L
 899 4452 mt  899 4524 L
1014 3740 mt 1086 3740 L
1050 3704 mt 1050 3776 L
1345 4591 mt 1417 4591 L
1381 4555 mt 1381 4627 L
1371 4517 mt 1443 4517 L
1407 4481 mt 1407 4553 L
1030 4615 mt 1102 4615 L
1066 4579 mt 1066 4651 L
 863 4347 mt  935 4347 L
 899 4311 mt  899 4383 L
 927 4351 mt  999 4351 L
 963 4315 mt  963 4387 L
1261 4173 mt 1333 4173 L
1297 4137 mt 1297 4209 L
1129 4615 mt 1201 4615 L
1165 4579 mt 1165 4651 L
1041 4426 mt 1113 4426 L
1077 4390 mt 1077 4462 L
 873 4451 mt  945 4451 L
 909 4415 mt  909 4487 L
 878 4494 mt  950 4494 L
 914 4458 mt  914 4530 L
1789 4437 mt 1861 4437 L
1825 4401 mt 1825 4473 L
 865 4132 mt  937 4132 L
 901 4096 mt  901 4168 L
2088 2519 mt 2160 2519 L
2124 2483 mt 2124 2555 L
1079 3849 mt 1151 3849 L
1115 3813 mt 1115 3885 L
3320 1067 mt 3392 1067 L
3356 1031 mt 3356 1103 L
 894 4615 mt  966 4615 L
 930 4579 mt  930 4651 L
1101 4030 mt 1173 4030 L
1137 3994 mt 1137 4066 L
1781 4574 mt 1853 4574 L
1817 4538 mt 1817 4610 L
 934 4585 mt 1006 4585 L
 970 4549 mt  970 4621 L
1172 4587 mt 1244 4587 L
1208 4551 mt 1208 4623 L
1531 3786 mt 1603 3786 L
1567 3750 mt 1567 3822 L
 932 4559 mt 1004 4559 L
 968 4523 mt  968 4595 L
1012 4454 mt 1084 4454 L
1048 4418 mt 1048 4490 L
3165 3871 mt 3237 3871 L
3201 3835 mt 3201 3907 L
 950 4612 mt 1022 4612 L
 986 4576 mt  986 4648 L
 869 4614 mt  941 4614 L
 905 4578 mt  905 4650 L
 934 4482 mt 1006 4482 L
 970 4446 mt  970 4518 L
1194 4389 mt 1266 4389 L
1230 4353 mt 1230 4425 L
 869 4549 mt  941 4549 L
 905 4513 mt  905 4585 L
 964 4495 mt 1036 4495 L
1000 4459 mt 1000 4531 L
6193 2234 mt 6265 2234 L
6229 2198 mt 6229 2270 L
 898 4589 mt  970 4589 L
 934 4553 mt  934 4625 L
2676 1280 mt 2748 1280 L
2712 1244 mt 2712 1316 L
1187 4615 mt 1259 4615 L
1223 4579 mt 1223 4651 L
1176 4600 mt 1248 4600 L
1212 4564 mt 1212 4636 L
1257 4427 mt 1329 4427 L
1293 4391 mt 1293 4463 L
1588 4508 mt 1660 4508 L
1624 4472 mt 1624 4544 L
2522 4271 mt 2594 4271 L
2558 4235 mt 2558 4307 L
 891 4251 mt  963 4251 L
 927 4215 mt  927 4287 L
1015 4520 mt 1087 4520 L
1051 4484 mt 1051 4556 L
2998 4375 mt 3070 4375 L
3034 4339 mt 3034 4411 L
1613 4605 mt 1685 4605 L
1649 4569 mt 1649 4641 L
2284 4598 mt 2356 4598 L
2320 4562 mt 2320 4634 L
1875 4549 mt 1947 4549 L
1911 4513 mt 1911 4585 L
 942 4517 mt 1014 4517 L
 978 4481 mt  978 4553 L
1109 4548 mt 1181 4548 L
1145 4512 mt 1145 4584 L
1427 3115 mt 1499 3115 L
1463 3079 mt 1463 3151 L
2008 4211 mt 2080 4211 L
2044 4175 mt 2044 4247 L
1031 4605 mt 1103 4605 L
1067 4569 mt 1067 4641 L
 974 3363 mt 1046 3363 L
1010 3327 mt 1010 3399 L
 873 4581 mt  945 4581 L
 909 4545 mt  909 4617 L
1719 3325 mt 1791 3325 L
1755 3289 mt 1755 3361 L
1431 4254 mt 1503 4254 L
1467 4218 mt 1467 4290 L
1751 2834 mt 1823 2834 L
1787 2798 mt 1787 2870 L
3011 3561 mt 3083 3561 L
3047 3525 mt 3047 3597 L
1134 4509 mt 1206 4509 L
1170 4473 mt 1170 4545 L
1153 4073 mt 1225 4073 L
1189 4037 mt 1189 4109 L
 873 4187 mt  945 4187 L
 909 4151 mt  909 4223 L
1361 3748 mt 1433 3748 L
1397 3712 mt 1397 3784 L
1498 4360 mt 1570 4360 L
1534 4324 mt 1534 4396 L
1344 4363 mt 1416 4363 L
1380 4327 mt 1380 4399 L
2541 4373 mt 2613 4373 L
2577 4337 mt 2577 4409 L
 927 4555 mt  999 4555 L
 963 4519 mt  963 4591 L
1085 4409 mt 1157 4409 L
1121 4373 mt 1121 4445 L
1554 3306 mt 1626 3306 L
1590 3270 mt 1590 3342 L
2044 4165 mt 2116 4165 L
2080 4129 mt 2080 4201 L
 863 4615 mt  935 4615 L
 899 4579 mt  899 4651 L
2206 4603 mt 2278 4603 L
2242 4567 mt 2242 4639 L
2253 4555 mt 2325 4555 L
2289 4519 mt 2289 4591 L
 908 4112 mt  980 4112 L
 944 4076 mt  944 4148 L
1383 4612 mt 1455 4612 L
1419 4576 mt 1419 4648 L
2201 4588 mt 2273 4588 L
2237 4552 mt 2237 4624 L
 875 3934 mt  947 3934 L
 911 3898 mt  911 3970 L
 981 4320 mt 1053 4320 L
1017 4284 mt 1017 4356 L
1573 4612 mt 1645 4612 L
1609 4576 mt 1609 4648 L
 883 4552 mt  955 4552 L
 919 4516 mt  919 4588 L
1920 4615 mt 1992 4615 L
1956 4579 mt 1956 4651 L
1865 4252 mt 1937 4252 L
1901 4216 mt 1901 4288 L
2573 4412 mt 2645 4412 L
2609 4376 mt 2609 4448 L
2391 3887 mt 2463 3887 L
2427 3851 mt 2427 3923 L
 870 4483 mt  942 4483 L
 906 4447 mt  906 4519 L
 960 4610 mt 1032 4610 L
 996 4574 mt  996 4646 L
1325 2847 mt 1397 2847 L
1361 2811 mt 1361 2883 L
 865 4613 mt  937 4613 L
 901 4577 mt  901 4649 L
3438 4256 mt 3510 4256 L
3474 4220 mt 3474 4292 L
1137 4603 mt 1209 4603 L
1173 4567 mt 1173 4639 L
1214 3756 mt 1286 3756 L
1250 3720 mt 1250 3792 L
3092 2481 mt 3164 2481 L
3128 2445 mt 3128 2517 L
 880 4615 mt  952 4615 L
 916 4579 mt  916 4651 L
 872 4488 mt  944 4488 L
 908 4452 mt  908 4524 L
 892 4590 mt  964 4590 L
 928 4554 mt  928 4626 L
 879 4545 mt  951 4545 L
 915 4509 mt  915 4581 L
1285 3492 mt 1357 3492 L
1321 3456 mt 1321 3528 L
2085 3966 mt 2157 3966 L
2121 3930 mt 2121 4002 L
1300 4068 mt 1372 4068 L
1336 4032 mt 1336 4104 L
1973 3511 mt 2045 3511 L
2009 3475 mt 2009 3547 L
 985 4363 mt 1057 4363 L
1021 4327 mt 1021 4399 L
 991 3853 mt 1063 3853 L
1027 3817 mt 1027 3889 L
 942 3747 mt 1014 3747 L
 978 3711 mt  978 3783 L
1700 3959 mt 1772 3959 L
1736 3923 mt 1736 3995 L
3481 3771 mt 3553 3771 L
3517 3735 mt 3517 3807 L
 963 4544 mt 1035 4544 L
 999 4508 mt  999 4580 L
 940 4356 mt 1012 4356 L
 976 4320 mt  976 4392 L
 996 4544 mt 1068 4544 L
1032 4508 mt 1032 4580 L
2225 3505 mt 2297 3505 L
2261 3469 mt 2261 3541 L
1031 4400 mt 1103 4400 L
1067 4364 mt 1067 4436 L
1952 3539 mt 2024 3539 L
1988 3503 mt 1988 3575 L
1576 4614 mt 1648 4614 L
1612 4578 mt 1612 4650 L
1116 2592 mt 1188 2592 L
1152 2556 mt 1152 2628 L
 942 4614 mt 1014 4614 L
 978 4578 mt  978 4650 L
2547 3384 mt 2619 3384 L
2583 3348 mt 2583 3420 L
2445 1943 mt 2517 1943 L
2481 1907 mt 2481 1979 L
2238 3240 mt 2310 3240 L
2274 3204 mt 2274 3276 L
 879 4614 mt  951 4614 L
 915 4578 mt  915 4650 L
1407 4286 mt 1479 4286 L
1443 4250 mt 1443 4322 L
 904 3026 mt  976 3026 L
 940 2990 mt  940 3062 L
1112 4458 mt 1184 4458 L
1148 4422 mt 1148 4494 L
 980 4485 mt 1052 4485 L
1016 4449 mt 1016 4521 L
2948 4594 mt 3020 4594 L
2984 4558 mt 2984 4630 L
1460 3138 mt 1532 3138 L
1496 3102 mt 1496 3174 L
3047 4608 mt 3119 4608 L
3083 4572 mt 3083 4644 L
 901 4471 mt  973 4471 L
 937 4435 mt  937 4507 L
1585 3246 mt 1657 3246 L
1621 3210 mt 1621 3282 L
 900 4353 mt  972 4353 L
 936 4317 mt  936 4389 L
 863 4598 mt  935 4598 L
 899 4562 mt  899 4634 L
3535 1182 mt 3607 1182 L
3571 1146 mt 3571 1218 L
 978 4431 mt 1050 4431 L
1014 4395 mt 1014 4467 L
2779 3469 mt 2851 3469 L
2815 3433 mt 2815 3505 L
 867 4196 mt  939 4196 L
 903 4160 mt  903 4232 L
 863 4494 mt  935 4494 L
 899 4458 mt  899 4530 L
gs 899 414 5363 4203 rc
gr

0 sg
2752 5104 mt 
(\(S,LFCC,GMM\)) s
 422 3259 mt  -90 rotate
(\(S,PAC,GMM\)) s
90 rotate
2975  223 mt 
(Corr = 0.35) s

end %%Color Dict

eplot
%%EndObject

epage
end

showpage

%%Trailer
%%EOF
