%!PS-Adobe-3.0 EPSF-3.0
%%Creator: MATLAB, The Mathworks, Inc. Version 7.7.0.471 (R2008b). Operating System: Microsoft Windows XP.
%%Title: Pictures\main_zoo_mvar_analysis_data_BMI_xcorr_bmi_p1_k1_1_3.eps
%%CreationDate: 10/26/2009  05:43:49
%%DocumentNeededFonts: Helvetica
%%DocumentProcessColors: Cyan Magenta Yellow Black
%%LanguageLevel: 2
%%Pages: 1
%%BoundingBox:    32   180   551   616
%%EndComments

%%BeginProlog
% MathWorks dictionary
/MathWorks 160 dict begin
% definition operators
/bdef {bind def} bind def
/ldef {load def} bind def
/xdef {exch def} bdef
/xstore {exch store} bdef
% operator abbreviations
/c  /clip ldef
/cc /concat ldef
/cp /closepath ldef
/gr /grestore ldef
/gs /gsave ldef
/mt /moveto ldef
/np /newpath ldef
/cm /currentmatrix ldef
/sm /setmatrix ldef
/rm /rmoveto ldef
/rl /rlineto ldef
/s {show newpath} bdef
/sc {setcmykcolor} bdef
/sr /setrgbcolor ldef
/sg /setgray ldef
/w /setlinewidth ldef
/j /setlinejoin ldef
/cap /setlinecap ldef
/rc {rectclip} bdef
/rf {rectfill} bdef
% page state control
/pgsv () def
/bpage {/pgsv save def} bdef
/epage {pgsv restore} bdef
/bplot /gsave ldef
/eplot {stroke grestore} bdef
% orientation switch
/portraitMode 0 def /landscapeMode 1 def /rotateMode 2 def
% coordinate system mappings
/dpi2point 0 def
% font control
/FontSize 0 def
/FMS {/FontSize xstore findfont [FontSize 0 0 FontSize neg 0 0]
  makefont setfont} bdef
/ISOLatin1Encoding where {pop /WindowsLatin1Encoding 256 array bdef
ISOLatin1Encoding WindowsLatin1Encoding copy pop
/.notdef/.notdef/quotesinglbase/florin/quotedblbase/ellipsis/dagger
/daggerdbl/circumflex/perthousand/Scaron/guilsinglleft/OE/.notdef/.notdef
/.notdef/.notdef/quoteleft/quoteright/quotedblleft/quotedblright/bullet
/endash/emdash/tilde/trademark/scaron/guilsinglright/oe/.notdef/.notdef
/Ydieresis WindowsLatin1Encoding 128 32 getinterval astore pop}
{/WindowsLatin1Encoding StandardEncoding bdef} ifelse
/reencode {exch dup where {pop load} {pop StandardEncoding} ifelse
  exch dup 3 1 roll findfont dup length dict begin
  { 1 index /FID ne {def}{pop pop} ifelse } forall
  /Encoding exch def currentdict end definefont pop} bdef
/isroman {findfont /CharStrings get /Agrave known} bdef
/FMSR {3 1 roll 1 index dup isroman {reencode} {pop pop} ifelse
  exch FMS} bdef
/csm {1 dpi2point div -1 dpi2point div scale neg translate
 dup landscapeMode eq {pop -90 rotate}
  {rotateMode eq {90 rotate} if} ifelse} bdef
% line types: solid, dotted, dashed, dotdash
/SO { [] 0 setdash } bdef
/DO { [.5 dpi2point mul 4 dpi2point mul] 0 setdash } bdef
/DA { [6 dpi2point mul] 0 setdash } bdef
/DD { [.5 dpi2point mul 4 dpi2point mul 6 dpi2point mul 4
  dpi2point mul] 0 setdash } bdef
% macros for lines and objects
/L {lineto stroke} bdef
/MP {3 1 roll moveto 1 sub {rlineto} repeat} bdef
/AP {{rlineto} repeat} bdef
/PDlw -1 def
/W {/PDlw currentlinewidth def setlinewidth} def
/PP {closepath eofill} bdef
/DP {closepath stroke} bdef
/MR {4 -2 roll moveto dup  0 exch rlineto exch 0 rlineto
  neg 0 exch rlineto closepath} bdef
/FR {MR stroke} bdef
/PR {MR fill} bdef
/L1i {{currentfile picstr readhexstring pop} image} bdef
/tMatrix matrix def
/MakeOval {newpath tMatrix currentmatrix pop translate scale
0 0 1 0 360 arc tMatrix setmatrix} bdef
/FO {MakeOval stroke} bdef
/PO {MakeOval fill} bdef
/PD {currentlinewidth 2 div 0 360 arc fill
   PDlw -1 eq not {PDlw w /PDlw -1 def} if} def
/FA {newpath tMatrix currentmatrix pop translate scale
  0 0 1 5 -2 roll arc tMatrix setmatrix stroke} bdef
/PA {newpath tMatrix currentmatrix pop	translate 0 0 moveto scale
  0 0 1 5 -2 roll arc closepath tMatrix setmatrix fill} bdef
/FAn {newpath tMatrix currentmatrix pop translate scale
  0 0 1 5 -2 roll arcn tMatrix setmatrix stroke} bdef
/PAn {newpath tMatrix currentmatrix pop translate 0 0 moveto scale
  0 0 1 5 -2 roll arcn closepath tMatrix setmatrix fill} bdef
/vradius 0 def /hradius 0 def /lry 0 def
/lrx 0 def /uly 0 def /ulx 0 def /rad 0 def
/MRR {/vradius xdef /hradius xdef /lry xdef /lrx xdef /uly xdef
  /ulx xdef newpath tMatrix currentmatrix pop ulx hradius add uly
  vradius add translate hradius vradius scale 0 0 1 180 270 arc 
  tMatrix setmatrix lrx hradius sub uly vradius add translate
  hradius vradius scale 0 0 1 270 360 arc tMatrix setmatrix
  lrx hradius sub lry vradius sub translate hradius vradius scale
  0 0 1 0 90 arc tMatrix setmatrix ulx hradius add lry vradius sub
  translate hradius vradius scale 0 0 1 90 180 arc tMatrix setmatrix
  closepath} bdef
/FRR {MRR stroke } bdef
/PRR {MRR fill } bdef
/MlrRR {/lry xdef /lrx xdef /uly xdef /ulx xdef /rad lry uly sub 2 div def
  newpath tMatrix currentmatrix pop ulx rad add uly rad add translate
  rad rad scale 0 0 1 90 270 arc tMatrix setmatrix lrx rad sub lry rad
  sub translate rad rad scale 0 0 1 270 90 arc tMatrix setmatrix
  closepath} bdef
/FlrRR {MlrRR stroke } bdef
/PlrRR {MlrRR fill } bdef
/MtbRR {/lry xdef /lrx xdef /uly xdef /ulx xdef /rad lrx ulx sub 2 div def
  newpath tMatrix currentmatrix pop ulx rad add uly rad add translate
  rad rad scale 0 0 1 180 360 arc tMatrix setmatrix lrx rad sub lry rad
  sub translate rad rad scale 0 0 1 0 180 arc tMatrix setmatrix
  closepath} bdef
/FtbRR {MtbRR stroke } bdef
/PtbRR {MtbRR fill } bdef
/stri 6 array def /dtri 6 array def
/smat 6 array def /dmat 6 array def
/tmat1 6 array def /tmat2 6 array def /dif 3 array def
/asub {/ind2 exch def /ind1 exch def dup dup
  ind1 get exch ind2 get sub exch } bdef
/tri_to_matrix {
  2 0 asub 3 1 asub 4 0 asub 5 1 asub
  dup 0 get exch 1 get 7 -1 roll astore } bdef
/compute_transform {
  dmat dtri tri_to_matrix tmat1 invertmatrix 
  smat stri tri_to_matrix tmat2 concatmatrix } bdef
/ds {stri astore pop} bdef
/dt {dtri astore pop} bdef
/db {2 copy /cols xdef /rows xdef mul dup 3 mul string
  currentfile 
  3 index 0 eq {/ASCIIHexDecode filter}
  {/ASCII85Decode filter 3 index 2 eq {/RunLengthDecode filter} if }
  ifelse exch readstring pop
  dup 0 3 index getinterval /rbmap xdef
  dup 2 index dup getinterval /gbmap xdef
  1 index dup 2 mul exch getinterval /bbmap xdef pop pop}bdef
/it {gs np dtri aload pop moveto lineto lineto cp c
  cols rows 8 compute_transform 
  rbmap gbmap bbmap true 3 colorimage gr}bdef
/il {newpath moveto lineto stroke}bdef
currentdict end def
%%EndProlog

%%BeginSetup
MathWorks begin

0 cap

end
%%EndSetup

%%Page: 1 1
%%BeginPageSetup
%%PageBoundingBox:    32   180   551   616
MathWorks begin
bpage
%%EndPageSetup

%%BeginObject: obj1
bplot

/dpi2point 12 def
portraitMode 0216 7344 csm

  174   -48  6229  5231 rc
85 dict begin %Colortable dictionary
/c0 { 0.000000 0.000000 0.000000 sr} bdef
/c1 { 1.000000 1.000000 1.000000 sr} bdef
/c2 { 0.900000 0.000000 0.000000 sr} bdef
/c3 { 0.000000 0.820000 0.000000 sr} bdef
/c4 { 0.000000 0.000000 0.800000 sr} bdef
/c5 { 0.910000 0.820000 0.320000 sr} bdef
/c6 { 1.000000 0.260000 0.820000 sr} bdef
/c7 { 0.000000 0.820000 0.820000 sr} bdef
c0
1 j
1 sg
   0    0 6919 5187 rf
6 w
0 4202 5362 0 0 -4202 899 4616 4 MP
PP
-5362 0 0 4202 5362 0 0 -4202 899 4616 5 MP stroke
4 w
DO
SO
6 w
0 sg
 899  414 mt 6261  414 L
 899 4616 mt 6261 4616 L
6261 4616 mt 6261  414 L
 899 4616 mt  899  414 L
 899 4616 mt 6261 4616 L
 899 4616 mt  899  414 L
1780 4616 mt 1780 4562 L
1780  414 mt 1780  467 L
%%IncludeResource: font Helvetica
/Helvetica /WindowsLatin1Encoding 240 FMSR

1614 4873 mt 
(0.1) s
2661 4616 mt 2661 4562 L
2661  414 mt 2661  467 L
2495 4873 mt 
(0.2) s
3543 4616 mt 3543 4562 L
3543  414 mt 3543  467 L
3377 4873 mt 
(0.3) s
4424 4616 mt 4424 4562 L
4424  414 mt 4424  467 L
4258 4873 mt 
(0.4) s
5305 4616 mt 5305 4562 L
5305  414 mt 5305  467 L
5139 4873 mt 
(0.5) s
6187 4616 mt 6187 4562 L
6187  414 mt 6187  467 L
6021 4873 mt 
(0.6) s
 899 3849 mt  952 3849 L
6261 3849 mt 6207 3849 L
 531 3938 mt 
(0.1) s
 899 3082 mt  952 3082 L
6261 3082 mt 6207 3082 L
 531 3171 mt 
(0.2) s
 899 2315 mt  952 2315 L
6261 2315 mt 6207 2315 L
 531 2404 mt 
(0.3) s
 899 1548 mt  952 1548 L
6261 1548 mt 6207 1548 L
 531 1637 mt 
(0.4) s
 899  782 mt  952  782 L
6261  782 mt 6207  782 L
 531  871 mt 
(0.5) s
 899  414 mt 6261  414 L
 899 4616 mt 6261 4616 L
6261 4616 mt 6261  414 L
 899 4616 mt  899  414 L
gs 899 414 5363 4203 rc
gr

/c8 { 0.000000 0.000000 1.000000 sr} bdef
c8
3752 4112 mt 3824 4112 L
3788 4076 mt 3788 4148 L
 957 4567 mt 1029 4567 L
 993 4531 mt  993 4603 L
2642 2953 mt 2714 2953 L
2678 2917 mt 2678 2989 L
1600 4534 mt 1672 4534 L
1636 4498 mt 1636 4570 L
 865 4525 mt  937 4525 L
 901 4489 mt  901 4561 L
2972 4372 mt 3044 4372 L
3008 4336 mt 3008 4408 L
1286 4612 mt 1358 4612 L
1322 4576 mt 1322 4648 L
1206 4610 mt 1278 4610 L
1242 4574 mt 1242 4646 L
4075 4588 mt 4147 4588 L
4111 4552 mt 4111 4624 L
4851 4199 mt 4923 4199 L
4887 4163 mt 4887 4235 L
1125 3910 mt 1197 3910 L
1161 3874 mt 1161 3946 L
 865 4160 mt  937 4160 L
 901 4124 mt  901 4196 L
1333 4154 mt 1405 4154 L
1369 4118 mt 1369 4190 L
1109 3732 mt 1181 3732 L
1145 3696 mt 1145 3768 L
3199 4474 mt 3271 4474 L
3235 4438 mt 3235 4510 L
3649 4542 mt 3721 4542 L
3685 4506 mt 3685 4578 L
1154 3742 mt 1226 3742 L
1190 3706 mt 1190 3778 L
1315 4607 mt 1387 4607 L
1351 4571 mt 1351 4643 L
 928 4582 mt 1000 4582 L
 964 4546 mt  964 4618 L
2519 4601 mt 2591 4601 L
2555 4565 mt 2555 4637 L
3599 4255 mt 3671 4255 L
3635 4219 mt 3635 4291 L
1332 4343 mt 1404 4343 L
1368 4307 mt 1368 4379 L
 954 4549 mt 1026 4549 L
 990 4513 mt  990 4585 L
1295 4511 mt 1367 4511 L
1331 4475 mt 1331 4547 L
5473 4307 mt 5545 4307 L
5509 4271 mt 5509 4343 L
1820 4391 mt 1892 4391 L
1856 4355 mt 1856 4427 L
1429 4596 mt 1501 4596 L
1465 4560 mt 1465 4632 L
3458 4433 mt 3530 4433 L
3494 4397 mt 3494 4469 L
 863 4503 mt  935 4503 L
 899 4467 mt  899 4539 L
1905 4604 mt 1977 4604 L
1941 4568 mt 1941 4640 L
 883 4278 mt  955 4278 L
 919 4242 mt  919 4314 L
1810 4577 mt 1882 4577 L
1846 4541 mt 1846 4613 L
1565 4610 mt 1637 4610 L
1601 4574 mt 1601 4646 L
 866 4615 mt  938 4615 L
 902 4579 mt  902 4651 L
1974 4122 mt 2046 4122 L
2010 4086 mt 2010 4158 L
 973 4335 mt 1045 4335 L
1009 4299 mt 1009 4371 L
2959 4609 mt 3031 4609 L
2995 4573 mt 2995 4645 L
1845 4274 mt 1917 4274 L
1881 4238 mt 1881 4310 L
1190 4289 mt 1262 4289 L
1226 4253 mt 1226 4325 L
1522 3973 mt 1594 3973 L
1558 3937 mt 1558 4009 L
 868 4603 mt  940 4603 L
 904 4567 mt  904 4639 L
1076 4561 mt 1148 4561 L
1112 4525 mt 1112 4597 L
1134 4497 mt 1206 4497 L
1170 4461 mt 1170 4533 L
3748 2563 mt 3820 2563 L
3784 2527 mt 3784 2599 L
5783 4606 mt 5855 4606 L
5819 4570 mt 5819 4642 L
 961 4564 mt 1033 4564 L
 997 4528 mt  997 4600 L
1131 4308 mt 1203 4308 L
1167 4272 mt 1167 4344 L
1480 4598 mt 1552 4598 L
1516 4562 mt 1516 4634 L
3989 4199 mt 4061 4199 L
4025 4163 mt 4025 4235 L
 907 3549 mt  979 3549 L
 943 3513 mt  943 3585 L
3190 4483 mt 3262 4483 L
3226 4447 mt 3226 4519 L
1169 4616 mt 1241 4616 L
1205 4580 mt 1205 4652 L
1586 1925 mt 1658 1925 L
1622 1889 mt 1622 1961 L
1387 4597 mt 1459 4597 L
1423 4561 mt 1423 4633 L
3538 4613 mt 3610 4613 L
3574 4577 mt 3574 4649 L
 888 4567 mt  960 4567 L
 924 4531 mt  924 4603 L
 876 4603 mt  948 4603 L
 912 4567 mt  912 4639 L
1748 4562 mt 1820 4562 L
1784 4526 mt 1784 4598 L
4388 3226 mt 4460 3226 L
4424 3190 mt 4424 3262 L
1035 2949 mt 1107 2949 L
1071 2913 mt 1071 2985 L
2500 4258 mt 2572 4258 L
2536 4222 mt 2536 4294 L
3723 4450 mt 3795 4450 L
3759 4414 mt 3759 4486 L
 868 4585 mt  940 4585 L
 904 4549 mt  904 4621 L
3553 4345 mt 3625 4345 L
3589 4309 mt 3589 4381 L
3201 1141 mt 3273 1141 L
3237 1105 mt 3237 1177 L
 863 4592 mt  935 4592 L
 899 4556 mt  899 4628 L
3218 2266 mt 3290 2266 L
3254 2230 mt 3254 2302 L
 960 4437 mt 1032 4437 L
 996 4401 mt  996 4473 L
 944 3415 mt 1016 3415 L
 980 3379 mt  980 3451 L
1609 3568 mt 1681 3568 L
1645 3532 mt 1645 3604 L
3962 4120 mt 4034 4120 L
3998 4084 mt 3998 4156 L
3025 4435 mt 3097 4435 L
3061 4399 mt 3061 4471 L
5255 4547 mt 5327 4547 L
5291 4511 mt 5291 4583 L
1221 4512 mt 1293 4512 L
1257 4476 mt 1257 4548 L
2596 3907 mt 2668 3907 L
2632 3871 mt 2632 3943 L
 866 4203 mt  938 4203 L
 902 4167 mt  902 4239 L
4067 4615 mt 4139 4615 L
4103 4579 mt 4103 4651 L
1138 3164 mt 1210 3164 L
1174 3128 mt 1174 3200 L
1113 4610 mt 1185 4610 L
1149 4574 mt 1149 4646 L
4545 4281 mt 4617 4281 L
4581 4245 mt 4581 4317 L
2705 4608 mt 2777 4608 L
2741 4572 mt 2741 4644 L
1609 4445 mt 1681 4445 L
1645 4409 mt 1645 4481 L
2137 3028 mt 2209 3028 L
2173 2992 mt 2173 3064 L
 869 4414 mt  941 4414 L
 905 4378 mt  905 4450 L
5209 4444 mt 5281 4444 L
5245 4408 mt 5245 4480 L
1421 4394 mt 1493 4394 L
1457 4358 mt 1457 4430 L
2269 4614 mt 2341 4614 L
2305 4578 mt 2305 4650 L
4996 4593 mt 5068 4593 L
5032 4557 mt 5032 4629 L
 995 4456 mt 1067 4456 L
1031 4420 mt 1031 4492 L
5078 4491 mt 5150 4491 L
5114 4455 mt 5114 4527 L
1928 4130 mt 2000 4130 L
1964 4094 mt 1964 4166 L
1616 4501 mt 1688 4501 L
1652 4465 mt 1652 4537 L
 867 4497 mt  939 4497 L
 903 4461 mt  903 4533 L
1058 4572 mt 1130 4572 L
1094 4536 mt 1094 4608 L
2892 4583 mt 2964 4583 L
2928 4547 mt 2928 4619 L
2279 4409 mt 2351 4409 L
2315 4373 mt 2315 4445 L
4504 4334 mt 4576 4334 L
4540 4298 mt 4540 4370 L
4166 4364 mt 4238 4364 L
4202 4328 mt 4202 4400 L
4425 4608 mt 4497 4608 L
4461 4572 mt 4461 4644 L
4146 4579 mt 4218 4579 L
4182 4543 mt 4182 4615 L
1521 4551 mt 1593 4551 L
1557 4515 mt 1557 4587 L
 898 4490 mt  970 4490 L
 934 4454 mt  934 4526 L
4313 4269 mt 4385 4269 L
4349 4233 mt 4349 4305 L
2295 4444 mt 2367 4444 L
2331 4408 mt 2331 4480 L
6056 4579 mt 6128 4579 L
6092 4543 mt 6092 4615 L
 963 4515 mt 1035 4515 L
 999 4479 mt  999 4551 L
2224 3996 mt 2296 3996 L
2260 3960 mt 2260 4032 L
1159 4355 mt 1231 4355 L
1195 4319 mt 1195 4391 L
 868 4517 mt  940 4517 L
 904 4481 mt  904 4553 L
3102 4452 mt 3174 4452 L
3138 4416 mt 3138 4488 L
5354 4501 mt 5426 4501 L
5390 4465 mt 5390 4537 L
1533 4555 mt 1605 4555 L
1569 4519 mt 1569 4591 L
1414 4613 mt 1486 4613 L
1450 4577 mt 1450 4649 L
 866 4030 mt  938 4030 L
 902 3994 mt  902 4066 L
1240 4462 mt 1312 4462 L
1276 4426 mt 1276 4498 L
 900 4510 mt  972 4510 L
 936 4474 mt  936 4546 L
1112 4602 mt 1184 4602 L
1148 4566 mt 1148 4638 L
1099 4316 mt 1171 4316 L
1135 4280 mt 1135 4352 L
2221 4615 mt 2293 4615 L
2257 4579 mt 2257 4651 L
1040 4586 mt 1112 4586 L
1076 4550 mt 1076 4622 L
4678 4483 mt 4750 4483 L
4714 4447 mt 4714 4519 L
2111 2098 mt 2183 2098 L
2147 2062 mt 2147 2134 L
 943 4608 mt 1015 4608 L
 979 4572 mt  979 4644 L
1378 4100 mt 1450 4100 L
1414 4064 mt 1414 4136 L
 956 3392 mt 1028 3392 L
 992 3356 mt  992 3428 L
3381 2992 mt 3453 2992 L
3417 2956 mt 3417 3028 L
1088 4571 mt 1160 4571 L
1124 4535 mt 1124 4607 L
1410 3981 mt 1482 3981 L
1446 3945 mt 1446 4017 L
1618 4074 mt 1690 4074 L
1654 4038 mt 1654 4110 L
2229 4497 mt 2301 4497 L
2265 4461 mt 2265 4533 L
4322 4612 mt 4394 4612 L
4358 4576 mt 4358 4648 L
 863 4315 mt  935 4315 L
 899 4279 mt  899 4351 L
1169 4591 mt 1241 4591 L
1205 4555 mt 1205 4627 L
 876 4537 mt  948 4537 L
 912 4501 mt  912 4573 L
 919 4475 mt  991 4475 L
 955 4439 mt  955 4511 L
1291 4611 mt 1363 4611 L
1327 4575 mt 1327 4647 L
 949 4569 mt 1021 4569 L
 985 4533 mt  985 4605 L
 881 4411 mt  953 4411 L
 917 4375 mt  917 4447 L
 863 3541 mt  935 3541 L
 899 3505 mt  899 3577 L
1072 3799 mt 1144 3799 L
1108 3763 mt 1108 3835 L
 907 4482 mt  979 4482 L
 943 4446 mt  943 4518 L
1365 4592 mt 1437 4592 L
1401 4556 mt 1401 4628 L
3283 4531 mt 3355 4531 L
3319 4495 mt 3319 4567 L
1038 4593 mt 1110 4593 L
1074 4557 mt 1074 4629 L
1935 4572 mt 2007 4572 L
1971 4536 mt 1971 4608 L
3282 4564 mt 3354 4564 L
3318 4528 mt 3318 4600 L
 871 4596 mt  943 4596 L
 907 4560 mt  907 4632 L
2691 4245 mt 2763 4245 L
2727 4209 mt 2727 4281 L
4725 4297 mt 4797 4297 L
4761 4261 mt 4761 4333 L
 863 4218 mt  935 4218 L
 899 4182 mt  899 4254 L
3889 4532 mt 3961 4532 L
3925 4496 mt 3925 4568 L
1255 4515 mt 1327 4515 L
1291 4479 mt 1291 4551 L
 871 4532 mt  943 4532 L
 907 4496 mt  907 4568 L
1435 4465 mt 1507 4465 L
1471 4429 mt 1471 4501 L
 903 2869 mt  975 2869 L
 939 2833 mt  939 2905 L
1587 4609 mt 1659 4609 L
1623 4573 mt 1623 4645 L
1856 2278 mt 1928 2278 L
1892 2242 mt 1892 2314 L
2451 4611 mt 2523 4611 L
2487 4575 mt 2487 4647 L
1016 4566 mt 1088 4566 L
1052 4530 mt 1052 4602 L
4008 4614 mt 4080 4614 L
4044 4578 mt 4044 4650 L
3021 3759 mt 3093 3759 L
3057 3723 mt 3057 3795 L
1966 3722 mt 2038 3722 L
2002 3686 mt 2002 3758 L
3174 3696 mt 3246 3696 L
3210 3660 mt 3210 3732 L
1021 4578 mt 1093 4578 L
1057 4542 mt 1057 4614 L
4459 4600 mt 4531 4600 L
4495 4564 mt 4495 4636 L
1177 4615 mt 1249 4615 L
1213 4579 mt 1213 4651 L
2507 4206 mt 2579 4206 L
2543 4170 mt 2543 4242 L
3995 4615 mt 4067 4615 L
4031 4579 mt 4031 4651 L
 910 4329 mt  982 4329 L
 946 4293 mt  946 4365 L
 953 4189 mt 1025 4189 L
 989 4153 mt  989 4225 L
1217 4571 mt 1289 4571 L
1253 4535 mt 1253 4607 L
2961 4431 mt 3033 4431 L
2997 4395 mt 2997 4467 L
 996 4607 mt 1068 4607 L
1032 4571 mt 1032 4643 L
1322 4533 mt 1394 4533 L
1358 4497 mt 1358 4569 L
1783 4347 mt 1855 4347 L
1819 4311 mt 1819 4383 L
 894 4292 mt  966 4292 L
 930 4256 mt  930 4328 L
 975 4602 mt 1047 4602 L
1011 4566 mt 1011 4638 L
5720 4323 mt 5792 4323 L
5756 4287 mt 5756 4359 L
1658 4470 mt 1730 4470 L
1694 4434 mt 1694 4506 L
2043 4523 mt 2115 4523 L
2079 4487 mt 2079 4559 L
1536 4512 mt 1608 4512 L
1572 4476 mt 1572 4548 L
2452 4580 mt 2524 4580 L
2488 4544 mt 2488 4616 L
 868 3780 mt  940 3780 L
 904 3744 mt  904 3816 L
1428  414 mt 1500  414 L
1464  378 mt 1464  450 L
 905 4466 mt  977 4466 L
 941 4430 mt  941 4502 L
 869 4613 mt  941 4613 L
 905 4577 mt  905 4649 L
1801 4561 mt 1873 4561 L
1837 4525 mt 1837 4597 L
1333 4497 mt 1405 4497 L
1369 4461 mt 1369 4533 L
 906 4530 mt  978 4530 L
 942 4494 mt  942 4566 L
2101 4614 mt 2173 4614 L
2137 4578 mt 2137 4650 L
 874 4547 mt  946 4547 L
 910 4511 mt  910 4583 L
 868 4348 mt  940 4348 L
 904 4312 mt  904 4384 L
 872 4614 mt  944 4614 L
 908 4578 mt  908 4650 L
4463 4404 mt 4535 4404 L
4499 4368 mt 4499 4440 L
2323 4510 mt 2395 4510 L
2359 4474 mt 2359 4546 L
2217 4308 mt 2289 4308 L
2253 4272 mt 2253 4344 L
 911 4477 mt  983 4477 L
 947 4441 mt  947 4513 L
1110 4610 mt 1182 4610 L
1146 4574 mt 1146 4646 L
 943 3838 mt 1015 3838 L
 979 3802 mt  979 3874 L
3124 4448 mt 3196 4448 L
3160 4412 mt 3160 4484 L
2742 4579 mt 2814 4579 L
2778 4543 mt 2778 4615 L
1637 4407 mt 1709 4407 L
1673 4371 mt 1673 4443 L
4537 4590 mt 4609 4590 L
4573 4554 mt 4573 4626 L
1076 4607 mt 1148 4607 L
1112 4571 mt 1112 4643 L
 864 4566 mt  936 4566 L
 900 4530 mt  900 4602 L
2266 4608 mt 2338 4608 L
2302 4572 mt 2302 4644 L
1578 4545 mt 1650 4545 L
1614 4509 mt 1614 4581 L
1478 4520 mt 1550 4520 L
1514 4484 mt 1514 4556 L
5353 4457 mt 5425 4457 L
5389 4421 mt 5389 4493 L
4400 4602 mt 4472 4602 L
4436 4566 mt 4436 4638 L
2033 4539 mt 2105 4539 L
2069 4503 mt 2069 4575 L
 888 4517 mt  960 4517 L
 924 4481 mt  924 4553 L
2385 4542 mt 2457 4542 L
2421 4506 mt 2421 4578 L
1085 4601 mt 1157 4601 L
1121 4565 mt 1121 4637 L
2875 4610 mt 2947 4610 L
2911 4574 mt 2911 4646 L
4956 4610 mt 5028 4610 L
4992 4574 mt 4992 4646 L
2027 4495 mt 2099 4495 L
2063 4459 mt 2063 4531 L
 951 4455 mt 1023 4455 L
 987 4419 mt  987 4491 L
 975 4602 mt 1047 4602 L
1011 4566 mt 1011 4638 L
2487 4367 mt 2559 4367 L
2523 4331 mt 2523 4403 L
3251 4487 mt 3323 4487 L
3287 4451 mt 3287 4523 L
1842 4247 mt 1914 4247 L
1878 4211 mt 1878 4283 L
 956 4390 mt 1028 4390 L
 992 4354 mt  992 4426 L
2006 4588 mt 2078 4588 L
2042 4552 mt 2042 4624 L
1985 4410 mt 2057 4410 L
2021 4374 mt 2021 4446 L
1798 4592 mt 1870 4592 L
1834 4556 mt 1834 4628 L
2126 4569 mt 2198 4569 L
2162 4533 mt 2162 4605 L
2882 4572 mt 2954 4572 L
2918 4536 mt 2918 4608 L
1595 4473 mt 1667 4473 L
1631 4437 mt 1631 4509 L
1020 4554 mt 1092 4554 L
1056 4518 mt 1056 4590 L
 900 4614 mt  972 4614 L
 936 4578 mt  936 4650 L
1555 4581 mt 1627 4581 L
1591 4545 mt 1591 4617 L
2118 4602 mt 2190 4602 L
2154 4566 mt 2154 4638 L
1165 4519 mt 1237 4519 L
1201 4483 mt 1201 4555 L
1248 4558 mt 1320 4558 L
1284 4522 mt 1284 4594 L
1410 4504 mt 1482 4504 L
1446 4468 mt 1446 4540 L
2593 4540 mt 2665 4540 L
2629 4504 mt 2629 4576 L
3758 4611 mt 3830 4611 L
3794 4575 mt 3794 4647 L
1530 4521 mt 1602 4521 L
1566 4485 mt 1566 4557 L
 869 4520 mt  941 4520 L
 905 4484 mt  905 4556 L
1178 4609 mt 1250 4609 L
1214 4573 mt 1214 4645 L
1253 4565 mt 1325 4565 L
1289 4529 mt 1289 4601 L
1486 4539 mt 1558 4539 L
1522 4503 mt 1522 4575 L
4673 4595 mt 4745 4595 L
4709 4559 mt 4709 4631 L
6225 4421 mt 6297 4421 L
6261 4385 mt 6261 4457 L
1707 4585 mt 1779 4585 L
1743 4549 mt 1743 4621 L
1148 4592 mt 1220 4592 L
1184 4556 mt 1184 4628 L
2347 4531 mt 2419 4531 L
2383 4495 mt 2383 4567 L
4001 4615 mt 4073 4615 L
4037 4579 mt 4037 4651 L
1039 4607 mt 1111 4607 L
1075 4571 mt 1075 4643 L
3478 4575 mt 3550 4575 L
3514 4539 mt 3514 4611 L
1352 4608 mt 1424 4608 L
1388 4572 mt 1388 4644 L
1080 3601 mt 1152 3601 L
1116 3565 mt 1116 3637 L
1701 4614 mt 1773 4614 L
1737 4578 mt 1737 4650 L
2998 4604 mt 3070 4604 L
3034 4568 mt 3034 4640 L
1019 4567 mt 1091 4567 L
1055 4531 mt 1055 4603 L
1027 4569 mt 1099 4569 L
1063 4533 mt 1063 4605 L
2140 4611 mt 2212 4611 L
2176 4575 mt 2176 4647 L
4395 4042 mt 4467 4042 L
4431 4006 mt 4431 4078 L
1092 4496 mt 1164 4496 L
1128 4460 mt 1128 4532 L
2239 4445 mt 2311 4445 L
2275 4409 mt 2275 4481 L
3274 4615 mt 3346 4615 L
3310 4579 mt 3310 4651 L
1313 4609 mt 1385 4609 L
1349 4573 mt 1349 4645 L
4984 4524 mt 5056 4524 L
5020 4488 mt 5020 4560 L
 863 4614 mt  935 4614 L
 899 4578 mt  899 4650 L
 922 4615 mt  994 4615 L
 958 4579 mt  958 4651 L
1583 4600 mt 1655 4600 L
1619 4564 mt 1619 4636 L
 901 4615 mt  973 4615 L
 937 4579 mt  937 4651 L
1164 3699 mt 1236 3699 L
1200 3663 mt 1200 3735 L
 882 4592 mt  954 4592 L
 918 4556 mt  918 4628 L
4257 3265 mt 4329 3265 L
4293 3229 mt 4293 3301 L
2607 4516 mt 2679 4516 L
2643 4480 mt 2643 4552 L
5354 4605 mt 5426 4605 L
5390 4569 mt 5390 4641 L
 931 4581 mt 1003 4581 L
 967 4545 mt  967 4617 L
2831 4615 mt 2903 4615 L
2867 4579 mt 2867 4651 L
1725 4543 mt 1797 4543 L
1761 4507 mt 1761 4579 L
4496 4358 mt 4568 4358 L
4532 4322 mt 4532 4394 L
 917 4597 mt  989 4597 L
 953 4561 mt  953 4633 L
1702 4169 mt 1774 4169 L
1738 4133 mt 1738 4205 L
5247 4554 mt 5319 4554 L
5283 4518 mt 5283 4590 L
3458 4561 mt 3530 4561 L
3494 4525 mt 3494 4597 L
1974 4593 mt 2046 4593 L
2010 4557 mt 2010 4629 L
2182 4434 mt 2254 4434 L
2218 4398 mt 2218 4470 L
1286 4614 mt 1358 4614 L
1322 4578 mt 1322 4650 L
4071 4614 mt 4143 4614 L
4107 4578 mt 4107 4650 L
1885 4554 mt 1957 4554 L
1921 4518 mt 1921 4590 L
3256 4394 mt 3328 4394 L
3292 4358 mt 3292 4430 L
4450 4505 mt 4522 4505 L
4486 4469 mt 4486 4541 L
 891 4519 mt  963 4519 L
 927 4483 mt  927 4555 L
4364 4501 mt 4436 4501 L
4400 4465 mt 4400 4537 L
2288 4581 mt 2360 4581 L
2324 4545 mt 2324 4617 L
2192 4470 mt 2264 4470 L
2228 4434 mt 2228 4506 L
 926 4607 mt  998 4607 L
 962 4571 mt  962 4643 L
3509 4597 mt 3581 4597 L
3545 4561 mt 3545 4633 L
2428 4615 mt 2500 4615 L
2464 4579 mt 2464 4651 L
1510 4615 mt 1582 4615 L
1546 4579 mt 1546 4651 L
3550 4615 mt 3622 4615 L
3586 4579 mt 3586 4651 L
4625 4615 mt 4697 4615 L
4661 4579 mt 4661 4651 L
4936 4612 mt 5008 4612 L
4972 4576 mt 4972 4648 L
3793 4383 mt 3865 4383 L
3829 4347 mt 3829 4419 L
1752 4614 mt 1824 4614 L
1788 4578 mt 1788 4650 L
1344 4604 mt 1416 4604 L
1380 4568 mt 1380 4640 L
4946 4611 mt 5018 4611 L
4982 4575 mt 4982 4647 L
1887 4592 mt 1959 4592 L
1923 4556 mt 1923 4628 L
4490 4374 mt 4562 4374 L
4526 4338 mt 4526 4410 L
1540 4553 mt 1612 4553 L
1576 4517 mt 1576 4589 L
2476 3253 mt 2548 3253 L
2512 3217 mt 2512 3289 L
1279 4588 mt 1351 4588 L
1315 4552 mt 1315 4624 L
1430 4568 mt 1502 4568 L
1466 4532 mt 1466 4604 L
3108 4549 mt 3180 4549 L
3144 4513 mt 3144 4585 L
5973 4366 mt 6045 4366 L
6009 4330 mt 6009 4402 L
 944 4595 mt 1016 4595 L
 980 4559 mt  980 4631 L
 925 4026 mt  997 4026 L
 961 3990 mt  961 4062 L
1291 4475 mt 1363 4475 L
1327 4439 mt 1327 4511 L
1389 4554 mt 1461 4554 L
1425 4518 mt 1425 4590 L
1136 4453 mt 1208 4453 L
1172 4417 mt 1172 4489 L
1205 4507 mt 1277 4507 L
1241 4471 mt 1241 4543 L
2626 4614 mt 2698 4614 L
2662 4578 mt 2662 4650 L
2027 4604 mt 2099 4604 L
2063 4568 mt 2063 4640 L
1136 4603 mt 1208 4603 L
1172 4567 mt 1172 4639 L
5073 4615 mt 5145 4615 L
5109 4579 mt 5109 4651 L
2673 4148 mt 2745 4148 L
2709 4112 mt 2709 4184 L
1120 4604 mt 1192 4604 L
1156 4568 mt 1156 4640 L
2172 4325 mt 2244 4325 L
2208 4289 mt 2208 4361 L
 867 4560 mt  939 4560 L
 903 4524 mt  903 4596 L
4807 4615 mt 4879 4615 L
4843 4579 mt 4843 4651 L
1334 4577 mt 1406 4577 L
1370 4541 mt 1370 4613 L
1233 4574 mt 1305 4574 L
1269 4538 mt 1269 4610 L
1935 4546 mt 2007 4546 L
1971 4510 mt 1971 4582 L
2329 4599 mt 2401 4599 L
2365 4563 mt 2365 4635 L
4785 4612 mt 4857 4612 L
4821 4576 mt 4821 4648 L
1236 4614 mt 1308 4614 L
1272 4578 mt 1272 4650 L
1474 4578 mt 1546 4578 L
1510 4542 mt 1510 4614 L
 911 4606 mt  983 4606 L
 947 4570 mt  947 4642 L
1151 4454 mt 1223 4454 L
1187 4418 mt 1187 4490 L
 987 4010 mt 1059 4010 L
1023 3974 mt 1023 4046 L
1162 4612 mt 1234 4612 L
1198 4576 mt 1198 4648 L
 891 4615 mt  963 4615 L
 927 4579 mt  927 4651 L
1382 4614 mt 1454 4614 L
1418 4578 mt 1418 4650 L
1838 4137 mt 1910 4137 L
1874 4101 mt 1874 4173 L
 908 4533 mt  980 4533 L
 944 4497 mt  944 4569 L
1090 4557 mt 1162 4557 L
1126 4521 mt 1126 4593 L
4006 4417 mt 4078 4417 L
4042 4381 mt 4042 4453 L
 880 4602 mt  952 4602 L
 916 4566 mt  916 4638 L
1105 4509 mt 1177 4509 L
1141 4473 mt 1141 4545 L
3606 4481 mt 3678 4481 L
3642 4445 mt 3642 4517 L
 998 4411 mt 1070 4411 L
1034 4375 mt 1034 4447 L
3165 4148 mt 3237 4148 L
3201 4112 mt 3201 4184 L
3706 4611 mt 3778 4611 L
3742 4575 mt 3742 4647 L
1249 4507 mt 1321 4507 L
1285 4471 mt 1285 4543 L
5370 4608 mt 5442 4608 L
5406 4572 mt 5406 4644 L
1451 4598 mt 1523 4598 L
1487 4562 mt 1487 4634 L
 868 4213 mt  940 4213 L
 904 4177 mt  904 4249 L
1014 4484 mt 1086 4484 L
1050 4448 mt 1050 4520 L
 864 4615 mt  936 4615 L
 900 4579 mt  900 4651 L
1937 4601 mt 2009 4601 L
1973 4565 mt 1973 4637 L
2581 4566 mt 2653 4566 L
2617 4530 mt 2617 4602 L
2832 4585 mt 2904 4585 L
2868 4549 mt 2868 4621 L
 986 4604 mt 1058 4604 L
1022 4568 mt 1022 4640 L
4243 4596 mt 4315 4596 L
4279 4560 mt 4279 4632 L
1488 4446 mt 1560 4446 L
1524 4410 mt 1524 4482 L
1837 4496 mt 1909 4496 L
1873 4460 mt 1873 4532 L
1791 4295 mt 1863 4295 L
1827 4259 mt 1827 4331 L
1016 4610 mt 1088 4610 L
1052 4574 mt 1052 4646 L
4548 4576 mt 4620 4576 L
4584 4540 mt 4584 4612 L
1315 4582 mt 1387 4582 L
1351 4546 mt 1351 4618 L
2974 4606 mt 3046 4606 L
3010 4570 mt 3010 4642 L
3839 4607 mt 3911 4607 L
3875 4571 mt 3875 4643 L
 887 4583 mt  959 4583 L
 923 4547 mt  923 4619 L
 872 4593 mt  944 4593 L
 908 4557 mt  908 4629 L
1636 4612 mt 1708 4612 L
1672 4576 mt 1672 4648 L
3264 4580 mt 3336 4580 L
3300 4544 mt 3300 4616 L
 979 4615 mt 1051 4615 L
1015 4579 mt 1015 4651 L
2467 4611 mt 2539 4611 L
2503 4575 mt 2503 4647 L
2789 4597 mt 2861 4597 L
2825 4561 mt 2825 4633 L
1316 4611 mt 1388 4611 L
1352 4575 mt 1352 4647 L
1619 4550 mt 1691 4550 L
1655 4514 mt 1655 4586 L
5924 4583 mt 5996 4583 L
5960 4547 mt 5960 4619 L
1112 4556 mt 1184 4556 L
1148 4520 mt 1148 4592 L
3282 4605 mt 3354 4605 L
3318 4569 mt 3318 4641 L
1455 4599 mt 1527 4599 L
1491 4563 mt 1491 4635 L
1879 4614 mt 1951 4614 L
1915 4578 mt 1915 4650 L
1035 3442 mt 1107 3442 L
1071 3406 mt 1071 3478 L
1067 2444 mt 1139 2444 L
1103 2408 mt 1103 2480 L
1029 4532 mt 1101 4532 L
1065 4496 mt 1065 4568 L
 866 4169 mt  938 4169 L
 902 4133 mt  902 4205 L
2689 4570 mt 2761 4570 L
2725 4534 mt 2725 4606 L
1545 4544 mt 1617 4544 L
1581 4508 mt 1581 4580 L
1544 3761 mt 1616 3761 L
1580 3725 mt 1580 3797 L
1793 4453 mt 1865 4453 L
1829 4417 mt 1829 4489 L
1573 4537 mt 1645 4537 L
1609 4501 mt 1609 4573 L
1062 4513 mt 1134 4513 L
1098 4477 mt 1098 4549 L
1053 4606 mt 1125 4606 L
1089 4570 mt 1089 4642 L
3293 4612 mt 3365 4612 L
3329 4576 mt 3329 4648 L
2333 4458 mt 2405 4458 L
2369 4422 mt 2369 4494 L
1384 4435 mt 1456 4435 L
1420 4399 mt 1420 4471 L
 929 4358 mt 1001 4358 L
 965 4322 mt  965 4394 L
1390 4615 mt 1462 4615 L
1426 4579 mt 1426 4651 L
1051 4592 mt 1123 4592 L
1087 4556 mt 1087 4628 L
1580 4486 mt 1652 4486 L
1616 4450 mt 1616 4522 L
gs 899 414 5363 4203 rc
gr

0 sg
2779 5104 mt 
(\(F,DCTs,GMM\)) s
 422 3269 mt  -90 rotate
(\(F,DCTs,MLP\)) s
90 rotate
2905  223 mt 
(Corr = -0.02) s

end %%Color Dict

eplot
%%EndObject

epage
end

showpage

%%Trailer
%%EOF
