%!PS-Adobe-3.0 EPSF-3.0
%%Creator: MATLAB, The Mathworks, Inc. Version 7.7.0.471 (R2008b). Operating System: Microsoft Windows XP.
%%Title: Pictures\main_zoo_mvar_analysis_data_BMI_xcorr_bmi_p2_k2_1_4.eps
%%CreationDate: 10/26/2009  05:44:42
%%DocumentNeededFonts: Helvetica
%%DocumentProcessColors: Cyan Magenta Yellow Black
%%LanguageLevel: 2
%%Pages: 1
%%BoundingBox:    32   180   546   616
%%EndComments

%%BeginProlog
% MathWorks dictionary
/MathWorks 160 dict begin
% definition operators
/bdef {bind def} bind def
/ldef {load def} bind def
/xdef {exch def} bdef
/xstore {exch store} bdef
% operator abbreviations
/c  /clip ldef
/cc /concat ldef
/cp /closepath ldef
/gr /grestore ldef
/gs /gsave ldef
/mt /moveto ldef
/np /newpath ldef
/cm /currentmatrix ldef
/sm /setmatrix ldef
/rm /rmoveto ldef
/rl /rlineto ldef
/s {show newpath} bdef
/sc {setcmykcolor} bdef
/sr /setrgbcolor ldef
/sg /setgray ldef
/w /setlinewidth ldef
/j /setlinejoin ldef
/cap /setlinecap ldef
/rc {rectclip} bdef
/rf {rectfill} bdef
% page state control
/pgsv () def
/bpage {/pgsv save def} bdef
/epage {pgsv restore} bdef
/bplot /gsave ldef
/eplot {stroke grestore} bdef
% orientation switch
/portraitMode 0 def /landscapeMode 1 def /rotateMode 2 def
% coordinate system mappings
/dpi2point 0 def
% font control
/FontSize 0 def
/FMS {/FontSize xstore findfont [FontSize 0 0 FontSize neg 0 0]
  makefont setfont} bdef
/ISOLatin1Encoding where {pop /WindowsLatin1Encoding 256 array bdef
ISOLatin1Encoding WindowsLatin1Encoding copy pop
/.notdef/.notdef/quotesinglbase/florin/quotedblbase/ellipsis/dagger
/daggerdbl/circumflex/perthousand/Scaron/guilsinglleft/OE/.notdef/.notdef
/.notdef/.notdef/quoteleft/quoteright/quotedblleft/quotedblright/bullet
/endash/emdash/tilde/trademark/scaron/guilsinglright/oe/.notdef/.notdef
/Ydieresis WindowsLatin1Encoding 128 32 getinterval astore pop}
{/WindowsLatin1Encoding StandardEncoding bdef} ifelse
/reencode {exch dup where {pop load} {pop StandardEncoding} ifelse
  exch dup 3 1 roll findfont dup length dict begin
  { 1 index /FID ne {def}{pop pop} ifelse } forall
  /Encoding exch def currentdict end definefont pop} bdef
/isroman {findfont /CharStrings get /Agrave known} bdef
/FMSR {3 1 roll 1 index dup isroman {reencode} {pop pop} ifelse
  exch FMS} bdef
/csm {1 dpi2point div -1 dpi2point div scale neg translate
 dup landscapeMode eq {pop -90 rotate}
  {rotateMode eq {90 rotate} if} ifelse} bdef
% line types: solid, dotted, dashed, dotdash
/SO { [] 0 setdash } bdef
/DO { [.5 dpi2point mul 4 dpi2point mul] 0 setdash } bdef
/DA { [6 dpi2point mul] 0 setdash } bdef
/DD { [.5 dpi2point mul 4 dpi2point mul 6 dpi2point mul 4
  dpi2point mul] 0 setdash } bdef
% macros for lines and objects
/L {lineto stroke} bdef
/MP {3 1 roll moveto 1 sub {rlineto} repeat} bdef
/AP {{rlineto} repeat} bdef
/PDlw -1 def
/W {/PDlw currentlinewidth def setlinewidth} def
/PP {closepath eofill} bdef
/DP {closepath stroke} bdef
/MR {4 -2 roll moveto dup  0 exch rlineto exch 0 rlineto
  neg 0 exch rlineto closepath} bdef
/FR {MR stroke} bdef
/PR {MR fill} bdef
/L1i {{currentfile picstr readhexstring pop} image} bdef
/tMatrix matrix def
/MakeOval {newpath tMatrix currentmatrix pop translate scale
0 0 1 0 360 arc tMatrix setmatrix} bdef
/FO {MakeOval stroke} bdef
/PO {MakeOval fill} bdef
/PD {currentlinewidth 2 div 0 360 arc fill
   PDlw -1 eq not {PDlw w /PDlw -1 def} if} def
/FA {newpath tMatrix currentmatrix pop translate scale
  0 0 1 5 -2 roll arc tMatrix setmatrix stroke} bdef
/PA {newpath tMatrix currentmatrix pop	translate 0 0 moveto scale
  0 0 1 5 -2 roll arc closepath tMatrix setmatrix fill} bdef
/FAn {newpath tMatrix currentmatrix pop translate scale
  0 0 1 5 -2 roll arcn tMatrix setmatrix stroke} bdef
/PAn {newpath tMatrix currentmatrix pop translate 0 0 moveto scale
  0 0 1 5 -2 roll arcn closepath tMatrix setmatrix fill} bdef
/vradius 0 def /hradius 0 def /lry 0 def
/lrx 0 def /uly 0 def /ulx 0 def /rad 0 def
/MRR {/vradius xdef /hradius xdef /lry xdef /lrx xdef /uly xdef
  /ulx xdef newpath tMatrix currentmatrix pop ulx hradius add uly
  vradius add translate hradius vradius scale 0 0 1 180 270 arc 
  tMatrix setmatrix lrx hradius sub uly vradius add translate
  hradius vradius scale 0 0 1 270 360 arc tMatrix setmatrix
  lrx hradius sub lry vradius sub translate hradius vradius scale
  0 0 1 0 90 arc tMatrix setmatrix ulx hradius add lry vradius sub
  translate hradius vradius scale 0 0 1 90 180 arc tMatrix setmatrix
  closepath} bdef
/FRR {MRR stroke } bdef
/PRR {MRR fill } bdef
/MlrRR {/lry xdef /lrx xdef /uly xdef /ulx xdef /rad lry uly sub 2 div def
  newpath tMatrix currentmatrix pop ulx rad add uly rad add translate
  rad rad scale 0 0 1 90 270 arc tMatrix setmatrix lrx rad sub lry rad
  sub translate rad rad scale 0 0 1 270 90 arc tMatrix setmatrix
  closepath} bdef
/FlrRR {MlrRR stroke } bdef
/PlrRR {MlrRR fill } bdef
/MtbRR {/lry xdef /lrx xdef /uly xdef /ulx xdef /rad lrx ulx sub 2 div def
  newpath tMatrix currentmatrix pop ulx rad add uly rad add translate
  rad rad scale 0 0 1 180 360 arc tMatrix setmatrix lrx rad sub lry rad
  sub translate rad rad scale 0 0 1 0 180 arc tMatrix setmatrix
  closepath} bdef
/FtbRR {MtbRR stroke } bdef
/PtbRR {MtbRR fill } bdef
/stri 6 array def /dtri 6 array def
/smat 6 array def /dmat 6 array def
/tmat1 6 array def /tmat2 6 array def /dif 3 array def
/asub {/ind2 exch def /ind1 exch def dup dup
  ind1 get exch ind2 get sub exch } bdef
/tri_to_matrix {
  2 0 asub 3 1 asub 4 0 asub 5 1 asub
  dup 0 get exch 1 get 7 -1 roll astore } bdef
/compute_transform {
  dmat dtri tri_to_matrix tmat1 invertmatrix 
  smat stri tri_to_matrix tmat2 concatmatrix } bdef
/ds {stri astore pop} bdef
/dt {dtri astore pop} bdef
/db {2 copy /cols xdef /rows xdef mul dup 3 mul string
  currentfile 
  3 index 0 eq {/ASCIIHexDecode filter}
  {/ASCII85Decode filter 3 index 2 eq {/RunLengthDecode filter} if }
  ifelse exch readstring pop
  dup 0 3 index getinterval /rbmap xdef
  dup 2 index dup getinterval /gbmap xdef
  1 index dup 2 mul exch getinterval /bbmap xdef pop pop}bdef
/it {gs np dtri aload pop moveto lineto lineto cp c
  cols rows 8 compute_transform 
  rbmap gbmap bbmap true 3 colorimage gr}bdef
/il {newpath moveto lineto stroke}bdef
currentdict end def
%%EndProlog

%%BeginSetup
MathWorks begin

0 cap

end
%%EndSetup

%%Page: 1 1
%%BeginPageSetup
%%PageBoundingBox:    32   180   546   616
MathWorks begin
bpage
%%EndPageSetup

%%BeginObject: obj1
bplot

/dpi2point 12 def
portraitMode 0216 7344 csm

  174   -48  6173  5231 rc
85 dict begin %Colortable dictionary
/c0 { 0.000000 0.000000 0.000000 sr} bdef
/c1 { 1.000000 1.000000 1.000000 sr} bdef
/c2 { 0.900000 0.000000 0.000000 sr} bdef
/c3 { 0.000000 0.820000 0.000000 sr} bdef
/c4 { 0.000000 0.000000 0.800000 sr} bdef
/c5 { 0.910000 0.820000 0.320000 sr} bdef
/c6 { 1.000000 0.260000 0.820000 sr} bdef
/c7 { 0.000000 0.820000 0.820000 sr} bdef
c0
1 j
1 sg
   0    0 6919 5187 rf
6 w
0 4202 5363 0 0 -4202 898 4616 4 MP
PP
-5363 0 0 4202 5363 0 0 -4202 898 4616 5 MP stroke
4 w
DO
SO
6 w
0 sg
 898  414 mt 6261  414 L
 898 4616 mt 6261 4616 L
6261 4616 mt 6261  414 L
 898 4616 mt  898  414 L
 898 4616 mt 6261 4616 L
 898 4616 mt  898  414 L
1971 4616 mt 1971 4562 L
1971  414 mt 1971  467 L
%%IncludeResource: font Helvetica
/Helvetica /WindowsLatin1Encoding 240 FMSR

1805 4873 mt 
(0.2) s
3043 4616 mt 3043 4562 L
3043  414 mt 3043  467 L
2877 4873 mt 
(0.4) s
4116 4616 mt 4116 4562 L
4116  414 mt 4116  467 L
3950 4873 mt 
(0.6) s
5188 4616 mt 5188 4562 L
5188  414 mt 5188  467 L
5022 4873 mt 
(0.8) s
 898 4196 mt  952 4196 L
6261 4196 mt 6207 4196 L
 531 4285 mt 
(0.1) s
 898 3775 mt  952 3775 L
6261 3775 mt 6207 3775 L
 531 3864 mt 
(0.2) s
 898 3355 mt  952 3355 L
6261 3355 mt 6207 3355 L
 531 3444 mt 
(0.3) s
 898 2935 mt  952 2935 L
6261 2935 mt 6207 2935 L
 531 3024 mt 
(0.4) s
 898 2515 mt  952 2515 L
6261 2515 mt 6207 2515 L
 531 2604 mt 
(0.5) s
 898 2094 mt  952 2094 L
6261 2094 mt 6207 2094 L
 531 2183 mt 
(0.6) s
 898 1674 mt  952 1674 L
6261 1674 mt 6207 1674 L
 531 1763 mt 
(0.7) s
 898 1254 mt  952 1254 L
6261 1254 mt 6207 1254 L
 531 1343 mt 
(0.8) s
 898  834 mt  952  834 L
6261  834 mt 6207  834 L
 531  923 mt 
(0.9) s
 898  414 mt 6261  414 L
 898 4616 mt 6261 4616 L
6261 4616 mt 6261  414 L
 898 4616 mt  898  414 L
gs 898 414 5364 4203 rc
gr

/c8 { 0.000000 0.000000 1.000000 sr} bdef
c8
5517  429 mt 5589  429 L
5553  393 mt 5553  465 L
3289  439 mt 3361  439 L
3325  403 mt 3325  475 L
5742 4565 mt 5814 4565 L
5778 4529 mt 5778 4601 L
6149  468 mt 6221  468 L
6185  432 mt 6185  504 L
3566  416 mt 3638  416 L
3602  380 mt 3602  452 L
 894 1109 mt  966 1109 L
 930 1073 mt  930 1145 L
4989 4254 mt 5061 4254 L
5025 4218 mt 5025 4290 L
5801 4584 mt 5873 4584 L
5837 4548 mt 5837 4620 L
1296  443 mt 1368  443 L
1332  407 mt 1332  479 L
5685 4529 mt 5757 4529 L
5721 4493 mt 5721 4565 L
2351  464 mt 2423  464 L
2387  428 mt 2387  500 L
5603  681 mt 5675  681 L
5639  645 mt 5639  717 L
6177 1179 mt 6249 1179 L
6213 1143 mt 6213 1215 L
2070  424 mt 2142  424 L
2106  388 mt 2106  460 L
6213  435 mt 6285  435 L
6249  399 mt 6249  471 L
3873 1339 mt 3945 1339 L
3909 1303 mt 3909 1375 L
 936  478 mt 1008  478 L
 972  442 mt  972  514 L
6113  682 mt 6185  682 L
6149  646 mt 6149  718 L
6209 3825 mt 6281 3825 L
6245 3789 mt 6245 3861 L
5425 1863 mt 5497 1863 L
5461 1827 mt 5461 1899 L
5596 1046 mt 5668 1046 L
5632 1010 mt 5632 1082 L
 864 4113 mt  936 4113 L
 900 4077 mt  900 4149 L
6220  460 mt 6292  460 L
6256  424 mt 6256  496 L
1818 3707 mt 1890 3707 L
1854 3671 mt 1854 3743 L
4559 3957 mt 4631 3957 L
4595 3921 mt 4595 3993 L
3650  441 mt 3722  441 L
3686  405 mt 3686  477 L
3223  831 mt 3295  831 L
3259  795 mt 3259  867 L
5930  738 mt 6002  738 L
5966  702 mt 5966  774 L
6081  566 mt 6153  566 L
6117  530 mt 6117  602 L
6106  422 mt 6178  422 L
6142  386 mt 6142  458 L
5813  697 mt 5885  697 L
5849  661 mt 5849  733 L
6201 4616 mt 6273 4616 L
6237 4580 mt 6237 4652 L
4146  490 mt 4218  490 L
4182  454 mt 4182  526 L
6166 1251 mt 6238 1251 L
6202 1215 mt 6202 1287 L
5698  541 mt 5770  541 L
5734  505 mt 5734  577 L
6173 1953 mt 6245 1953 L
6209 1917 mt 6209 1989 L
6110 1362 mt 6182 1362 L
6146 1326 mt 6146 1398 L
 879  532 mt  951  532 L
 915  496 mt  915  568 L
6160 4497 mt 6232 4497 L
6196 4461 mt 6196 4533 L
3499  470 mt 3571  470 L
3535  434 mt 3535  506 L
1841 4437 mt 1913 4437 L
1877 4401 mt 1877 4473 L
5206  431 mt 5278  431 L
5242  395 mt 5242  467 L
6205 4557 mt 6277 4557 L
6241 4521 mt 6241 4593 L
1034 4612 mt 1106 4612 L
1070 4576 mt 1070 4648 L
6155  809 mt 6227  809 L
6191  773 mt 6191  845 L
6141 2459 mt 6213 2459 L
6177 2423 mt 6177 2495 L
1378  414 mt 1450  414 L
1414  378 mt 1414  450 L
4675 4028 mt 4747 4028 L
4711 3992 mt 4711 4064 L
4344  542 mt 4416  542 L
4380  506 mt 4380  578 L
5607  416 mt 5679  416 L
5643  380 mt 5643  452 L
4568  718 mt 4640  718 L
4604  682 mt 4604  754 L
5632  520 mt 5704  520 L
5668  484 mt 5668  556 L
5373 1528 mt 5445 1528 L
5409 1492 mt 5409 1564 L
1620 3761 mt 1692 3761 L
1656 3725 mt 1656 3797 L
5738  451 mt 5810  451 L
5774  415 mt 5774  487 L
4968 3618 mt 5040 3618 L
5004 3582 mt 5004 3654 L
 899  534 mt  971  534 L
 935  498 mt  935  570 L
4619 3262 mt 4691 3262 L
4655 3226 mt 4655 3298 L
 934  506 mt 1006  506 L
 970  470 mt  970  542 L
5916  450 mt 5988  450 L
5952  414 mt 5952  486 L
6222  527 mt 6294  527 L
6258  491 mt 6258  563 L
5600  595 mt 5672  595 L
5636  559 mt 5636  631 L
6204 4330 mt 6276 4330 L
6240 4294 mt 6240 4366 L
5792 1040 mt 5864 1040 L
5828 1004 mt 5828 1076 L
3096  713 mt 3168  713 L
3132  677 mt 3132  749 L
4499  535 mt 4571  535 L
4535  499 mt 4535  571 L
6204  482 mt 6276  482 L
6240  446 mt 6240  518 L
6217  454 mt 6289  454 L
6253  418 mt 6253  490 L
5729  602 mt 5801  602 L
5765  566 mt 5765  638 L
3630  979 mt 3702  979 L
3666  943 mt 3666 1015 L
 875  728 mt  947  728 L
 911  692 mt  911  764 L
4107 3514 mt 4179 3514 L
4143 3478 mt 4143 3550 L
2695  487 mt 2767  487 L
2731  451 mt 2731  523 L
5084  558 mt 5156  558 L
5120  522 mt 5120  594 L
2140  563 mt 2212  563 L
2176  527 mt 2176  599 L
4416  427 mt 4488  427 L
4452  391 mt 4452  463 L
6127  864 mt 6199  864 L
6163  828 mt 6163  900 L
4970 2420 mt 5042 2420 L
5006 2384 mt 5006 2456 L
6209  416 mt 6281  416 L
6245  380 mt 6245  452 L
5918  442 mt 5990  442 L
5954  406 mt 5954  478 L
5681  593 mt 5753  593 L
5717  557 mt 5717  629 L
1006 1206 mt 1078 1206 L
1042 1170 mt 1042 1242 L
5617 2021 mt 5689 2021 L
5653 1985 mt 5653 2057 L
3919  622 mt 3991  622 L
3955  586 mt 3955  658 L
5921 2522 mt 5993 2522 L
5957 2486 mt 5957 2558 L
6051 2728 mt 6123 2728 L
6087 2692 mt 6087 2764 L
6221  496 mt 6293  496 L
6257  460 mt 6257  532 L
5624  515 mt 5696  515 L
5660  479 mt 5660  551 L
6191 4379 mt 6263 4379 L
6227 4343 mt 6227 4415 L
3177 1615 mt 3249 1615 L
3213 1579 mt 3213 1651 L
5851 1087 mt 5923 1087 L
5887 1051 mt 5887 1123 L
6224  414 mt 6296  414 L
6260  378 mt 6260  450 L
3460  614 mt 3532  614 L
3496  578 mt 3496  650 L
 943 3326 mt 1015 3326 L
 979 3290 mt  979 3362 L
 880 1002 mt  952 1002 L
 916  966 mt  916 1038 L
1057 3211 mt 1129 3211 L
1093 3175 mt 1093 3247 L
 863 3640 mt  935 3640 L
 899 3604 mt  899 3676 L
6224  569 mt 6296  569 L
6260  533 mt 6260  605 L
 873 1489 mt  945 1489 L
 909 1453 mt  909 1525 L
2199  415 mt 2271  415 L
2235  379 mt 2235  451 L
5567 1675 mt 5639 1675 L
5603 1639 mt 5603 1711 L
4573  460 mt 4645  460 L
4609  424 mt 4609  496 L
3636  713 mt 3708  713 L
3672  677 mt 3672  749 L
5143 1910 mt 5215 1910 L
5179 1874 mt 5179 1946 L
2435 2024 mt 2507 2024 L
2471 1988 mt 2471 2060 L
6195  425 mt 6267  425 L
6231  389 mt 6231  461 L
6215  568 mt 6287  568 L
6251  532 mt 6251  604 L
5880 2515 mt 5952 2515 L
5916 2479 mt 5916 2551 L
3107 1407 mt 3179 1407 L
3143 1371 mt 3143 1443 L
6211 1455 mt 6283 1455 L
6247 1419 mt 6247 1491 L
5800  852 mt 5872  852 L
5836  816 mt 5836  888 L
3982 2711 mt 4054 2711 L
4018 2675 mt 4018 2747 L
2347 2697 mt 2419 2697 L
2383 2661 mt 2383 2733 L
5468 2095 mt 5540 2095 L
5504 2059 mt 5504 2131 L
3679 1389 mt 3751 1389 L
3715 1353 mt 3715 1425 L
3637 2123 mt 3709 2123 L
3673 2087 mt 3673 2159 L
4444  587 mt 4516  587 L
4480  551 mt 4480  623 L
2272 4239 mt 2344 4239 L
2308 4203 mt 2308 4275 L
1256 2268 mt 1328 2268 L
1292 2232 mt 1292 2304 L
6208  450 mt 6280  450 L
6244  414 mt 6244  486 L
5862  739 mt 5934  739 L
5898  703 mt 5898  775 L
 968  631 mt 1040  631 L
1004  595 mt 1004  667 L
1610 1163 mt 1682 1163 L
1646 1127 mt 1646 1199 L
6185  444 mt 6257  444 L
6221  408 mt 6221  480 L
1542  414 mt 1614  414 L
1578  378 mt 1578  450 L
3254  429 mt 3326  429 L
3290  393 mt 3290  465 L
6141  567 mt 6213  567 L
6177  531 mt 6177  603 L
5286  447 mt 5358  447 L
5322  411 mt 5322  483 L
 872 1858 mt  944 1858 L
 908 1822 mt  908 1894 L
5244 4127 mt 5316 4127 L
5280 4091 mt 5280 4163 L
1722  414 mt 1794  414 L
1758  378 mt 1758  450 L
6211  719 mt 6283  719 L
6247  683 mt 6247  755 L
5500 2042 mt 5572 2042 L
5536 2006 mt 5536 2078 L
5998  447 mt 6070  447 L
6034  411 mt 6034  483 L
5482 2034 mt 5554 2034 L
5518 1998 mt 5518 2070 L
6221  776 mt 6293  776 L
6257  740 mt 6257  812 L
4476 4366 mt 4548 4366 L
4512 4330 mt 4512 4402 L
5938  613 mt 6010  613 L
5974  577 mt 5974  649 L
5268  506 mt 5340  506 L
5304  470 mt 5304  542 L
5805  909 mt 5877  909 L
5841  873 mt 5841  945 L
5910  981 mt 5982  981 L
5946  945 mt 5946 1017 L
5999  491 mt 6071  491 L
6035  455 mt 6035  527 L
5515  445 mt 5587  445 L
5551  409 mt 5551  481 L
 862 3486 mt  934 3486 L
 898 3450 mt  898 3522 L
5499  747 mt 5571  747 L
5535  711 mt 5535  783 L
5859 1931 mt 5931 1931 L
5895 1895 mt 5895 1967 L
2291 1669 mt 2363 1669 L
2327 1633 mt 2327 1705 L
5381 2983 mt 5453 2983 L
5417 2947 mt 5417 3019 L
5958  878 mt 6030  878 L
5994  842 mt 5994  914 L
3491  748 mt 3563  748 L
3527  712 mt 3527  784 L
6192  504 mt 6264  504 L
6228  468 mt 6228  540 L
6129  628 mt 6201  628 L
6165  592 mt 6165  664 L
3031  645 mt 3103  645 L
3067  609 mt 3067  681 L
6224 1081 mt 6296 1081 L
6260 1045 mt 6260 1117 L
 863  437 mt  935  437 L
 899  401 mt  899  473 L
6175  514 mt 6247  514 L
6211  478 mt 6211  550 L
6141 3220 mt 6213 3220 L
6177 3184 mt 6177 3256 L
2447 1056 mt 2519 1056 L
2483 1020 mt 2483 1092 L
6098 3835 mt 6170 3835 L
6134 3799 mt 6134 3871 L
2384 1269 mt 2456 1269 L
2420 1233 mt 2420 1305 L
6206 1281 mt 6278 1281 L
6242 1245 mt 6242 1317 L
5234 2648 mt 5306 2648 L
5270 2612 mt 5270 2684 L
3505 3084 mt 3577 3084 L
3541 3048 mt 3541 3120 L
6173  740 mt 6245  740 L
6209  704 mt 6209  776 L
6154  425 mt 6226  425 L
6190  389 mt 6190  461 L
3515 3674 mt 3587 3674 L
3551 3638 mt 3551 3710 L
6188 1472 mt 6260 1472 L
6224 1436 mt 6224 1508 L
5682  932 mt 5754  932 L
5718  896 mt 5718  968 L
3289  415 mt 3361  415 L
3325  379 mt 3325  451 L
4202  458 mt 4274  458 L
4238  422 mt 4238  494 L
5100  435 mt 5172  435 L
5136  399 mt 5136  471 L
6188  429 mt 6260  429 L
6224  393 mt 6224  465 L
4877  425 mt 4949  425 L
4913  389 mt 4913  461 L
6036  536 mt 6108  536 L
6072  500 mt 6072  572 L
4126  853 mt 4198  853 L
4162  817 mt 4162  889 L
3316  459 mt 3388  459 L
3352  423 mt 3352  495 L
5837  457 mt 5909  457 L
5873  421 mt 5873  493 L
5919 3124 mt 5991 3124 L
5955 3088 mt 5955 3160 L
5668  518 mt 5740  518 L
5704  482 mt 5704  554 L
6084 1332 mt 6156 1332 L
6120 1296 mt 6120 1368 L
 867 3189 mt  939 3189 L
 903 3153 mt  903 3225 L
6117  414 mt 6189  414 L
6153  378 mt 6153  450 L
6036  469 mt 6108  469 L
6072  433 mt 6072  505 L
4391  648 mt 4463  648 L
4427  612 mt 4427  684 L
6205 4466 mt 6277 4466 L
6241 4430 mt 6241 4502 L
4660 2978 mt 4732 2978 L
4696 2942 mt 4696 3014 L
6221  472 mt 6293  472 L
6257  436 mt 6257  508 L
5938 3019 mt 6010 3019 L
5974 2983 mt 5974 3055 L
6180  733 mt 6252  733 L
6216  697 mt 6216  769 L
6224  579 mt 6296  579 L
6260  543 mt 6260  615 L
2806 1458 mt 2878 1458 L
2842 1422 mt 2842 1494 L
6117 3038 mt 6189 3038 L
6153 3002 mt 6153 3074 L
6220 2462 mt 6292 2462 L
6256 2426 mt 6256 2498 L
2930  658 mt 3002  658 L
2966  622 mt 2966  694 L
6126  473 mt 6198  473 L
6162  437 mt 6162  509 L
5029  427 mt 5101  427 L
5065  391 mt 5065  463 L
3237 4379 mt 3309 4379 L
3273 4343 mt 3273 4415 L
6045 4310 mt 6117 4310 L
6081 4274 mt 6081 4346 L
1928 1199 mt 2000 1199 L
1964 1163 mt 1964 1235 L
6165 2350 mt 6237 2350 L
6201 2314 mt 6201 2386 L
2836  705 mt 2908  705 L
2872  669 mt 2872  741 L
6219  450 mt 6291  450 L
6255  414 mt 6255  486 L
1475 4483 mt 1547 4483 L
1511 4447 mt 1511 4519 L
5708 3930 mt 5780 3930 L
5744 3894 mt 5744 3966 L
5680  461 mt 5752  461 L
5716  425 mt 5716  497 L
5933 2057 mt 6005 2057 L
5969 2021 mt 5969 2093 L
6058 3584 mt 6130 3584 L
6094 3548 mt 6094 3620 L
4230 1347 mt 4302 1347 L
4266 1311 mt 4266 1383 L
5433  441 mt 5505  441 L
5469  405 mt 5469  477 L
6221 4523 mt 6293 4523 L
6257 4487 mt 6257 4559 L
2565  445 mt 2637  445 L
2601  409 mt 2601  481 L
6053  482 mt 6125  482 L
6089  446 mt 6089  518 L
6128 1471 mt 6200 1471 L
6164 1435 mt 6164 1507 L
2387 4028 mt 2459 4028 L
2423 3992 mt 2423 4064 L
5890  441 mt 5962  441 L
5926  405 mt 5926  477 L
6137  797 mt 6209  797 L
6173  761 mt 6173  833 L
6218 1913 mt 6290 1913 L
6254 1877 mt 6254 1949 L
4159  914 mt 4231  914 L
4195  878 mt 4195  950 L
3509 2498 mt 3581 2498 L
3545 2462 mt 3545 2534 L
5464  724 mt 5536  724 L
5500  688 mt 5500  760 L
6124 1733 mt 6196 1733 L
6160 1697 mt 6160 1769 L
 950  709 mt 1022  709 L
 986  673 mt  986  745 L
1600  825 mt 1672  825 L
1636  789 mt 1636  861 L
2407 4592 mt 2479 4592 L
2443 4556 mt 2443 4628 L
5827 4206 mt 5899 4206 L
5863 4170 mt 5863 4242 L
3821  573 mt 3893  573 L
3857  537 mt 3857  609 L
5993 1535 mt 6065 1535 L
6029 1499 mt 6029 1571 L
5520 4441 mt 5592 4441 L
5556 4405 mt 5556 4477 L
1788  456 mt 1860  456 L
1824  420 mt 1824  492 L
4720  897 mt 4792  897 L
4756  861 mt 4756  933 L
6104 4004 mt 6176 4004 L
6140 3968 mt 6140 4040 L
6207 1132 mt 6279 1132 L
6243 1096 mt 6243 1168 L
 946  576 mt 1018  576 L
 982  540 mt  982  612 L
6216 1183 mt 6288 1183 L
6252 1147 mt 6252 1219 L
2844  860 mt 2916  860 L
2880  824 mt 2880  896 L
5808 4106 mt 5880 4106 L
5844 4070 mt 5844 4142 L
 871 2136 mt  943 2136 L
 907 2100 mt  907 2172 L
2549 1577 mt 2621 1577 L
2585 1541 mt 2585 1613 L
1261 2973 mt 1333 2973 L
1297 2937 mt 1297 3009 L
 989 2455 mt 1061 2455 L
1025 2419 mt 1025 2491 L
4887 3573 mt 4959 3573 L
4923 3537 mt 4923 3609 L
5624  575 mt 5696  575 L
5660  539 mt 5660  611 L
5306  440 mt 5378  440 L
5342  404 mt 5342  476 L
6179 2628 mt 6251 2628 L
6215 2592 mt 6215 2664 L
6105 1772 mt 6177 1772 L
6141 1736 mt 6141 1808 L
 917  449 mt  989  449 L
 953  413 mt  953  485 L
6190 1621 mt 6262 1621 L
6226 1585 mt 6226 1657 L
2901 3217 mt 2973 3217 L
2937 3181 mt 2937 3253 L
1317 1559 mt 1389 1559 L
1353 1523 mt 1353 1595 L
3224 1453 mt 3296 1453 L
3260 1417 mt 3260 1489 L
6223  809 mt 6295  809 L
6259  773 mt 6259  845 L
6094  455 mt 6166  455 L
6130  419 mt 6130  491 L
3438 2855 mt 3510 2855 L
3474 2819 mt 3474 2891 L
6020 1477 mt 6092 1477 L
6056 1441 mt 6056 1513 L
5909  466 mt 5981  466 L
5945  430 mt 5945  502 L
6146 4603 mt 6218 4603 L
6182 4567 mt 6182 4639 L
3566 1635 mt 3638 1635 L
3602 1599 mt 3602 1671 L
4832 1865 mt 4904 1865 L
4868 1829 mt 4868 1901 L
1446  517 mt 1518  517 L
1482  481 mt 1482  553 L
6170  563 mt 6242  563 L
6206  527 mt 6206  599 L
6073 1329 mt 6145 1329 L
6109 1293 mt 6109 1365 L
6225  449 mt 6297  449 L
6261  413 mt 6261  485 L
6191  466 mt 6263  466 L
6227  430 mt 6227  502 L
4173 2795 mt 4245 2795 L
4209 2759 mt 4209 2831 L
1594  417 mt 1666  417 L
1630  381 mt 1630  453 L
5601  563 mt 5673  563 L
5637  527 mt 5637  599 L
5250 1644 mt 5322 1644 L
5286 1608 mt 5286 1680 L
6172  421 mt 6244  421 L
6208  385 mt 6208  457 L
4415  692 mt 4487  692 L
4451  656 mt 4451  728 L
5377  489 mt 5449  489 L
5413  453 mt 5413  525 L
5515  541 mt 5587  541 L
5551  505 mt 5551  577 L
 904  427 mt  976  427 L
 940  391 mt  940  463 L
4320  451 mt 4392  451 L
4356  415 mt 4356  487 L
6223 4575 mt 6295 4575 L
6259 4539 mt 6259 4611 L
2079  415 mt 2151  415 L
2115  379 mt 2115  451 L
2513 4337 mt 2585 4337 L
2549 4301 mt 2549 4373 L
6203  469 mt 6275  469 L
6239  433 mt 6239  505 L
6216  790 mt 6288  790 L
6252  754 mt 6252  826 L
5118  460 mt 5190  460 L
5154  424 mt 5154  496 L
6193  528 mt 6265  528 L
6229  492 mt 6229  564 L
5762  466 mt 5834  466 L
5798  430 mt 5798  502 L
6192  433 mt 6264  433 L
6228  397 mt 6228  469 L
6220 4588 mt 6292 4588 L
6256 4552 mt 6256 4624 L
6053  603 mt 6125  603 L
6089  567 mt 6089  639 L
5746  547 mt 5818  547 L
5782  511 mt 5782  583 L
2732 4202 mt 2804 4202 L
2768 4166 mt 2768 4238 L
4229  643 mt 4301  643 L
4265  607 mt 4265  679 L
5520  709 mt 5592  709 L
5556  673 mt 5556  745 L
3542  442 mt 3614  442 L
3578  406 mt 3578  478 L
2033  972 mt 2105  972 L
2069  936 mt 2069 1008 L
5918  692 mt 5990  692 L
5954  656 mt 5954  728 L
6069  426 mt 6141  426 L
6105  390 mt 6105  462 L
1824  419 mt 1896  419 L
1860  383 mt 1860  455 L
5472  437 mt 5544  437 L
5508  401 mt 5508  473 L
4951  824 mt 5023  824 L
4987  788 mt 4987  860 L
5719 2292 mt 5791 2292 L
5755 2256 mt 5755 2328 L
3198 1074 mt 3270 1074 L
3234 1038 mt 3234 1110 L
3197  414 mt 3269  414 L
3233  378 mt 3233  450 L
 864  585 mt  936  585 L
 900  549 mt  900  621 L
5074  436 mt 5146  436 L
5110  400 mt 5110  472 L
6193  479 mt 6265  479 L
6229  443 mt 6229  515 L
5733 1178 mt 5805 1178 L
5769 1142 mt 5769 1214 L
3910  446 mt 3982  446 L
3946  410 mt 3946  482 L
2258 1618 mt 2330 1618 L
2294 1582 mt 2294 1654 L
3645 1029 mt 3717 1029 L
3681  993 mt 3681 1065 L
1190 4339 mt 1262 4339 L
1226 4303 mt 1226 4375 L
 883 4443 mt  955 4443 L
 919 4407 mt  919 4479 L
6154 1072 mt 6226 1072 L
6190 1036 mt 6190 1108 L
5662 4244 mt 5734 4244 L
5698 4208 mt 5698 4280 L
2975  595 mt 3047  595 L
3011  559 mt 3011  631 L
6138 4165 mt 6210 4165 L
6174 4129 mt 6174 4201 L
5321  461 mt 5393  461 L
5357  425 mt 5357  497 L
5227 2100 mt 5299 2100 L
5263 2064 mt 5263 2136 L
3649 2228 mt 3721 2228 L
3685 2192 mt 3685 2264 L
1536  530 mt 1608  530 L
1572  494 mt 1572  566 L
4296 1981 mt 4368 1981 L
4332 1945 mt 4332 2017 L
6217  793 mt 6289  793 L
6253  757 mt 6253  829 L
 948  511 mt 1020  511 L
 984  475 mt  984  547 L
5638  641 mt 5710  641 L
5674  605 mt 5674  677 L
4997 1683 mt 5069 1683 L
5033 1647 mt 5033 1719 L
6144  708 mt 6216  708 L
6180  672 mt 6180  744 L
1159 1087 mt 1231 1087 L
1195 1051 mt 1195 1123 L
4414  685 mt 4486  685 L
4450  649 mt 4450  721 L
6047  611 mt 6119  611 L
6083  575 mt 6083  647 L
5692  415 mt 5764  415 L
5728  379 mt 5728  451 L
5938  465 mt 6010  465 L
5974  429 mt 5974  501 L
4793 4613 mt 4865 4613 L
4829 4577 mt 4829 4649 L
1646  728 mt 1718  728 L
1682  692 mt 1682  764 L
5063 2901 mt 5135 2901 L
5099 2865 mt 5099 2937 L
5264 2297 mt 5336 2297 L
5300 2261 mt 5300 2333 L
2519 1136 mt 2591 1136 L
2555 1100 mt 2555 1172 L
2131  421 mt 2203  421 L
2167  385 mt 2167  457 L
6148 1051 mt 6220 1051 L
6184 1015 mt 6184 1087 L
1239  483 mt 1311  483 L
1275  447 mt 1275  519 L
5170  577 mt 5242  577 L
5206  541 mt 5206  613 L
6187  810 mt 6259  810 L
6223  774 mt 6223  846 L
 900  446 mt  972  446 L
 936  410 mt  936  482 L
6224  453 mt 6296  453 L
6260  417 mt 6260  489 L
3199  448 mt 3271  448 L
3235  412 mt 3235  484 L
6204  834 mt 6276  834 L
6240  798 mt 6240  870 L
6166  435 mt 6238  435 L
6202  399 mt 6202  471 L
5848  730 mt 5920  730 L
5884  694 mt 5884  766 L
6012 2014 mt 6084 2014 L
6048 1978 mt 6048 2050 L
1083 3267 mt 1155 3267 L
1119 3231 mt 1119 3303 L
6110 4486 mt 6182 4486 L
6146 4450 mt 6146 4522 L
4754  991 mt 4826  991 L
4790  955 mt 4790 1027 L
 865  719 mt  937  719 L
 901  683 mt  901  755 L
5114 1390 mt 5186 1390 L
5150 1354 mt 5150 1426 L
6224 1382 mt 6296 1382 L
6260 1346 mt 6260 1418 L
3363  463 mt 3435  463 L
3399  427 mt 3399  499 L
6215  512 mt 6287  512 L
6251  476 mt 6251  548 L
5081 3953 mt 5153 3953 L
5117 3917 mt 5117 3989 L
6191 3757 mt 6263 3757 L
6227 3721 mt 6227 3793 L
4114  927 mt 4186  927 L
4150  891 mt 4150  963 L
4235  422 mt 4307  422 L
4271  386 mt 4271  458 L
5851 2021 mt 5923 2021 L
5887 1985 mt 5887 2057 L
6220 4106 mt 6292 4106 L
6256 4070 mt 6256 4142 L
4509 3446 mt 4581 3446 L
4545 3410 mt 4545 3482 L
6087 2887 mt 6159 2887 L
6123 2851 mt 6123 2923 L
5815 4370 mt 5887 4370 L
5851 4334 mt 5851 4406 L
3597 3891 mt 3669 3891 L
3633 3855 mt 3633 3927 L
6141  464 mt 6213  464 L
6177  428 mt 6177  500 L
6052  434 mt 6124  434 L
6088  398 mt 6088  470 L
6210  470 mt 6282  470 L
6246  434 mt 6246  506 L
5010  540 mt 5082  540 L
5046  504 mt 5046  576 L
5900 4457 mt 5972 4457 L
5936 4421 mt 5936 4493 L
2442 3288 mt 2514 3288 L
2478 3252 mt 2478 3324 L
4060  423 mt 4132  423 L
4096  387 mt 4096  459 L
5869  487 mt 5941  487 L
5905  451 mt 5905  523 L
6202  466 mt 6274  466 L
6238  430 mt 6238  502 L
3880  700 mt 3952  700 L
3916  664 mt 3916  736 L
5784  431 mt 5856  431 L
5820  395 mt 5820  467 L
1845 1009 mt 1917 1009 L
1881  973 mt 1881 1045 L
5810  505 mt 5882  505 L
5846  469 mt 5846  541 L
1076 1804 mt 1148 1804 L
1112 1768 mt 1112 1840 L
3309  415 mt 3381  415 L
3345  379 mt 3345  451 L
2669 3495 mt 2741 3495 L
2705 3459 mt 2705 3531 L
6195 1701 mt 6267 1701 L
6231 1665 mt 6231 1737 L
2712 3140 mt 2784 3140 L
2748 3104 mt 2748 3176 L
 901 4310 mt  973 4310 L
 937 4274 mt  937 4346 L
2177  824 mt 2249  824 L
2213  788 mt 2213  860 L
5973  458 mt 6045  458 L
6009  422 mt 6009  494 L
6175  433 mt 6247  433 L
6211  397 mt 6211  469 L
4848  459 mt 4920  459 L
4884  423 mt 4884  495 L
5911  830 mt 5983  830 L
5947  794 mt 5947  866 L
3981 3242 mt 4053 3242 L
4017 3206 mt 4017 3278 L
6068 1048 mt 6140 1048 L
6104 1012 mt 6104 1084 L
5421  800 mt 5493  800 L
5457  764 mt 5457  836 L
6090 2681 mt 6162 2681 L
6126 2645 mt 6126 2717 L
5861  455 mt 5933  455 L
5897  419 mt 5897  491 L
2369  807 mt 2441  807 L
2405  771 mt 2405  843 L
2731  781 mt 2803  781 L
2767  745 mt 2767  817 L
2976 1481 mt 3048 1481 L
3012 1445 mt 3012 1517 L
6183  448 mt 6255  448 L
6219  412 mt 6219  484 L
6180  471 mt 6252  471 L
6216  435 mt 6216  507 L
6189  419 mt 6261  419 L
6225  383 mt 6225  455 L
 867 3548 mt  939 3548 L
 903 3512 mt  903 3584 L
1086  431 mt 1158  431 L
1122  395 mt 1122  467 L
3473  425 mt 3545  425 L
3509  389 mt 3509  461 L
6030  779 mt 6102  779 L
6066  743 mt 6066  815 L
gs 898 414 5364 4203 rc
gr

0 sg
2774 5104 mt 
(\(F,DCTb,GMM\)) s
 422 3277 mt  -90 rotate
(\(S,SSC,GMM\)) s
90 rotate
2975  223 mt 
(Corr = 0.03) s

end %%Color Dict

eplot
%%EndObject

epage
end

showpage

%%Trailer
%%EOF
