%!PS-Adobe-3.0 EPSF-3.0
%%Creator: MATLAB, The Mathworks, Inc. Version 7.7.0.471 (R2008b). Operating System: Microsoft Windows XP.
%%Title: Pictures\main_zoo_mvar_analysis_data_BMI_xcorr_bmi_p2_k1_3_4.eps
%%CreationDate: 10/26/2009  05:44:40
%%DocumentNeededFonts: Helvetica
%%DocumentProcessColors: Cyan Magenta Yellow Black
%%LanguageLevel: 2
%%Pages: 1
%%BoundingBox:    21   180   546   616
%%EndComments

%%BeginProlog
% MathWorks dictionary
/MathWorks 160 dict begin
% definition operators
/bdef {bind def} bind def
/ldef {load def} bind def
/xdef {exch def} bdef
/xstore {exch store} bdef
% operator abbreviations
/c  /clip ldef
/cc /concat ldef
/cp /closepath ldef
/gr /grestore ldef
/gs /gsave ldef
/mt /moveto ldef
/np /newpath ldef
/cm /currentmatrix ldef
/sm /setmatrix ldef
/rm /rmoveto ldef
/rl /rlineto ldef
/s {show newpath} bdef
/sc {setcmykcolor} bdef
/sr /setrgbcolor ldef
/sg /setgray ldef
/w /setlinewidth ldef
/j /setlinejoin ldef
/cap /setlinecap ldef
/rc {rectclip} bdef
/rf {rectfill} bdef
% page state control
/pgsv () def
/bpage {/pgsv save def} bdef
/epage {pgsv restore} bdef
/bplot /gsave ldef
/eplot {stroke grestore} bdef
% orientation switch
/portraitMode 0 def /landscapeMode 1 def /rotateMode 2 def
% coordinate system mappings
/dpi2point 0 def
% font control
/FontSize 0 def
/FMS {/FontSize xstore findfont [FontSize 0 0 FontSize neg 0 0]
  makefont setfont} bdef
/ISOLatin1Encoding where {pop /WindowsLatin1Encoding 256 array bdef
ISOLatin1Encoding WindowsLatin1Encoding copy pop
/.notdef/.notdef/quotesinglbase/florin/quotedblbase/ellipsis/dagger
/daggerdbl/circumflex/perthousand/Scaron/guilsinglleft/OE/.notdef/.notdef
/.notdef/.notdef/quoteleft/quoteright/quotedblleft/quotedblright/bullet
/endash/emdash/tilde/trademark/scaron/guilsinglright/oe/.notdef/.notdef
/Ydieresis WindowsLatin1Encoding 128 32 getinterval astore pop}
{/WindowsLatin1Encoding StandardEncoding bdef} ifelse
/reencode {exch dup where {pop load} {pop StandardEncoding} ifelse
  exch dup 3 1 roll findfont dup length dict begin
  { 1 index /FID ne {def}{pop pop} ifelse } forall
  /Encoding exch def currentdict end definefont pop} bdef
/isroman {findfont /CharStrings get /Agrave known} bdef
/FMSR {3 1 roll 1 index dup isroman {reencode} {pop pop} ifelse
  exch FMS} bdef
/csm {1 dpi2point div -1 dpi2point div scale neg translate
 dup landscapeMode eq {pop -90 rotate}
  {rotateMode eq {90 rotate} if} ifelse} bdef
% line types: solid, dotted, dashed, dotdash
/SO { [] 0 setdash } bdef
/DO { [.5 dpi2point mul 4 dpi2point mul] 0 setdash } bdef
/DA { [6 dpi2point mul] 0 setdash } bdef
/DD { [.5 dpi2point mul 4 dpi2point mul 6 dpi2point mul 4
  dpi2point mul] 0 setdash } bdef
% macros for lines and objects
/L {lineto stroke} bdef
/MP {3 1 roll moveto 1 sub {rlineto} repeat} bdef
/AP {{rlineto} repeat} bdef
/PDlw -1 def
/W {/PDlw currentlinewidth def setlinewidth} def
/PP {closepath eofill} bdef
/DP {closepath stroke} bdef
/MR {4 -2 roll moveto dup  0 exch rlineto exch 0 rlineto
  neg 0 exch rlineto closepath} bdef
/FR {MR stroke} bdef
/PR {MR fill} bdef
/L1i {{currentfile picstr readhexstring pop} image} bdef
/tMatrix matrix def
/MakeOval {newpath tMatrix currentmatrix pop translate scale
0 0 1 0 360 arc tMatrix setmatrix} bdef
/FO {MakeOval stroke} bdef
/PO {MakeOval fill} bdef
/PD {currentlinewidth 2 div 0 360 arc fill
   PDlw -1 eq not {PDlw w /PDlw -1 def} if} def
/FA {newpath tMatrix currentmatrix pop translate scale
  0 0 1 5 -2 roll arc tMatrix setmatrix stroke} bdef
/PA {newpath tMatrix currentmatrix pop	translate 0 0 moveto scale
  0 0 1 5 -2 roll arc closepath tMatrix setmatrix fill} bdef
/FAn {newpath tMatrix currentmatrix pop translate scale
  0 0 1 5 -2 roll arcn tMatrix setmatrix stroke} bdef
/PAn {newpath tMatrix currentmatrix pop translate 0 0 moveto scale
  0 0 1 5 -2 roll arcn closepath tMatrix setmatrix fill} bdef
/vradius 0 def /hradius 0 def /lry 0 def
/lrx 0 def /uly 0 def /ulx 0 def /rad 0 def
/MRR {/vradius xdef /hradius xdef /lry xdef /lrx xdef /uly xdef
  /ulx xdef newpath tMatrix currentmatrix pop ulx hradius add uly
  vradius add translate hradius vradius scale 0 0 1 180 270 arc 
  tMatrix setmatrix lrx hradius sub uly vradius add translate
  hradius vradius scale 0 0 1 270 360 arc tMatrix setmatrix
  lrx hradius sub lry vradius sub translate hradius vradius scale
  0 0 1 0 90 arc tMatrix setmatrix ulx hradius add lry vradius sub
  translate hradius vradius scale 0 0 1 90 180 arc tMatrix setmatrix
  closepath} bdef
/FRR {MRR stroke } bdef
/PRR {MRR fill } bdef
/MlrRR {/lry xdef /lrx xdef /uly xdef /ulx xdef /rad lry uly sub 2 div def
  newpath tMatrix currentmatrix pop ulx rad add uly rad add translate
  rad rad scale 0 0 1 90 270 arc tMatrix setmatrix lrx rad sub lry rad
  sub translate rad rad scale 0 0 1 270 90 arc tMatrix setmatrix
  closepath} bdef
/FlrRR {MlrRR stroke } bdef
/PlrRR {MlrRR fill } bdef
/MtbRR {/lry xdef /lrx xdef /uly xdef /ulx xdef /rad lrx ulx sub 2 div def
  newpath tMatrix currentmatrix pop ulx rad add uly rad add translate
  rad rad scale 0 0 1 180 360 arc tMatrix setmatrix lrx rad sub lry rad
  sub translate rad rad scale 0 0 1 0 180 arc tMatrix setmatrix
  closepath} bdef
/FtbRR {MtbRR stroke } bdef
/PtbRR {MtbRR fill } bdef
/stri 6 array def /dtri 6 array def
/smat 6 array def /dmat 6 array def
/tmat1 6 array def /tmat2 6 array def /dif 3 array def
/asub {/ind2 exch def /ind1 exch def dup dup
  ind1 get exch ind2 get sub exch } bdef
/tri_to_matrix {
  2 0 asub 3 1 asub 4 0 asub 5 1 asub
  dup 0 get exch 1 get 7 -1 roll astore } bdef
/compute_transform {
  dmat dtri tri_to_matrix tmat1 invertmatrix 
  smat stri tri_to_matrix tmat2 concatmatrix } bdef
/ds {stri astore pop} bdef
/dt {dtri astore pop} bdef
/db {2 copy /cols xdef /rows xdef mul dup 3 mul string
  currentfile 
  3 index 0 eq {/ASCIIHexDecode filter}
  {/ASCII85Decode filter 3 index 2 eq {/RunLengthDecode filter} if }
  ifelse exch readstring pop
  dup 0 3 index getinterval /rbmap xdef
  dup 2 index dup getinterval /gbmap xdef
  1 index dup 2 mul exch getinterval /bbmap xdef pop pop}bdef
/it {gs np dtri aload pop moveto lineto lineto cp c
  cols rows 8 compute_transform 
  rbmap gbmap bbmap true 3 colorimage gr}bdef
/il {newpath moveto lineto stroke}bdef
currentdict end def
%%EndProlog

%%BeginSetup
MathWorks begin

0 cap

end
%%EndSetup

%%Page: 1 1
%%BeginPageSetup
%%PageBoundingBox:    21   180   546   616
MathWorks begin
bpage
%%EndPageSetup

%%BeginObject: obj1
bplot

/dpi2point 12 def
portraitMode 0216 7344 csm

   40   -48  6307  5231 rc
85 dict begin %Colortable dictionary
/c0 { 0.000000 0.000000 0.000000 sr} bdef
/c1 { 1.000000 1.000000 1.000000 sr} bdef
/c2 { 0.900000 0.000000 0.000000 sr} bdef
/c3 { 0.000000 0.820000 0.000000 sr} bdef
/c4 { 0.000000 0.000000 0.800000 sr} bdef
/c5 { 0.910000 0.820000 0.320000 sr} bdef
/c6 { 1.000000 0.260000 0.820000 sr} bdef
/c7 { 0.000000 0.820000 0.820000 sr} bdef
c0
1 j
1 sg
   0    0 6919 5187 rf
6 w
0 4202 5362 0 0 -4202 899 4616 4 MP
PP
-5362 0 0 4202 5362 0 0 -4202 899 4616 5 MP stroke
4 w
DO
SO
6 w
0 sg
 899  414 mt 6261  414 L
 899 4616 mt 6261 4616 L
6261 4616 mt 6261  414 L
 899 4616 mt  899  414 L
 899 4616 mt 6261 4616 L
 899 4616 mt  899  414 L
1793 4616 mt 1793 4562 L
1793  414 mt 1793  467 L
%%IncludeResource: font Helvetica
/Helvetica /WindowsLatin1Encoding 240 FMSR

1627 4873 mt 
(0.1) s
2687 4616 mt 2687 4562 L
2687  414 mt 2687  467 L
2521 4873 mt 
(0.2) s
3581 4616 mt 3581 4562 L
3581  414 mt 3581  467 L
3415 4873 mt 
(0.3) s
4475 4616 mt 4475 4562 L
4475  414 mt 4475  467 L
4309 4873 mt 
(0.4) s
5369 4616 mt 5369 4562 L
5369  414 mt 5369  467 L
5203 4873 mt 
(0.5) s
 899 4002 mt  952 4002 L
6261 4002 mt 6207 4002 L
 397 4091 mt 
(0.05) s
 899 3389 mt  952 3389 L
6261 3389 mt 6207 3389 L
 531 3478 mt 
(0.1) s
 899 2775 mt  952 2775 L
6261 2775 mt 6207 2775 L
 397 2864 mt 
(0.15) s
 899 2162 mt  952 2162 L
6261 2162 mt 6207 2162 L
 531 2251 mt 
(0.2) s
 899 1549 mt  952 1549 L
6261 1549 mt 6207 1549 L
 397 1638 mt 
(0.25) s
 899  935 mt  952  935 L
6261  935 mt 6207  935 L
 531 1024 mt 
(0.3) s
 899  414 mt 6261  414 L
 899 4616 mt 6261 4616 L
6261 4616 mt 6261  414 L
 899 4616 mt  899  414 L
gs 899 414 5363 4203 rc
gr

/c8 { 0.000000 0.000000 1.000000 sr} bdef
c8
6225 3074 mt 6297 3074 L
6261 3038 mt 6261 3110 L
1150 4422 mt 1222 4422 L
1186 4386 mt 1186 4458 L
 968 4611 mt 1040 4611 L
1004 4575 mt 1004 4647 L
1321 4241 mt 1393 4241 L
1357 4205 mt 1357 4277 L
 863 4038 mt  935 4038 L
 899 4002 mt  899 4074 L
 863 4479 mt  935 4479 L
 899 4443 mt  899 4515 L
2901 4012 mt 2973 4012 L
2937 3976 mt 2937 4048 L
 973 4155 mt 1045 4155 L
1009 4119 mt 1009 4191 L
1189 4589 mt 1261 4589 L
1225 4553 mt 1225 4625 L
2600 4487 mt 2672 4487 L
2636 4451 mt 2636 4523 L
 925 3208 mt  997 3208 L
 961 3172 mt  961 3244 L
 863 4022 mt  935 4022 L
 899 3986 mt  899 4058 L
1078 4127 mt 1150 4127 L
1114 4091 mt 1114 4163 L
 877 4302 mt  949 4302 L
 913 4266 mt  913 4338 L
 981 3715 mt 1053 3715 L
1017 3679 mt 1017 3751 L
2290 4155 mt 2362 4155 L
2326 4119 mt 2326 4191 L
3157 4596 mt 3229 4596 L
3193 4560 mt 3193 4632 L
 974 4332 mt 1046 4332 L
1010 4296 mt 1010 4368 L
 979 4615 mt 1051 4615 L
1015 4579 mt 1015 4651 L
2543 4616 mt 2615 4616 L
2579 4580 mt 2579 4652 L
 973 4551 mt 1045 4551 L
1009 4515 mt 1009 4587 L
1282 3372 mt 1354 3372 L
1318 3336 mt 1318 3408 L
1462 3839 mt 1534 3839 L
1498 3803 mt 1498 3875 L
 873 2062 mt  945 2062 L
 909 2026 mt  909 2098 L
1355 3586 mt 1427 3586 L
1391 3550 mt 1391 3622 L
1132 4612 mt 1204 4612 L
1168 4576 mt 1168 4648 L
1862 3769 mt 1934 3769 L
1898 3733 mt 1898 3805 L
 942 4567 mt 1014 4567 L
 978 4531 mt  978 4603 L
 866 4220 mt  938 4220 L
 902 4184 mt  902 4256 L
1055 4562 mt 1127 4562 L
1091 4526 mt 1091 4598 L
2695 4431 mt 2767 4431 L
2731 4395 mt 2731 4467 L
1403 4501 mt 1475 4501 L
1439 4465 mt 1439 4537 L
1162 4614 mt 1234 4614 L
1198 4578 mt 1198 4650 L
2480 4559 mt 2552 4559 L
2516 4523 mt 2516 4595 L
 891 4555 mt  963 4555 L
 927 4519 mt  927 4591 L
1056 4597 mt 1128 4597 L
1092 4561 mt 1092 4633 L
 945 4528 mt 1017 4528 L
 981 4492 mt  981 4564 L
1388 4575 mt 1460 4575 L
1424 4539 mt 1424 4611 L
 927 4249 mt  999 4249 L
 963 4213 mt  963 4285 L
2833 4566 mt 2905 4566 L
2869 4530 mt 2869 4602 L
 897 4606 mt  969 4606 L
 933 4570 mt  933 4642 L
1785 4521 mt 1857 4521 L
1821 4485 mt 1821 4557 L
1708 4615 mt 1780 4615 L
1744 4579 mt 1744 4651 L
1263  414 mt 1335  414 L
1299  378 mt 1299  450 L
1964 4604 mt 2036 4604 L
2000 4568 mt 2000 4640 L
 899 4615 mt  971 4615 L
 935 4579 mt  935 4651 L
3220 4479 mt 3292 4479 L
3256 4443 mt 3256 4515 L
1402 4513 mt 1474 4513 L
1438 4477 mt 1438 4549 L
 925 4566 mt  997 4566 L
 961 4530 mt  961 4602 L
 906 4592 mt  978 4592 L
 942 4556 mt  942 4628 L
 874 1945 mt  946 1945 L
 910 1909 mt  910 1981 L
1245 4230 mt 1317 4230 L
1281 4194 mt 1281 4266 L
 891 3735 mt  963 3735 L
 927 3699 mt  927 3771 L
1356 4369 mt 1428 4369 L
1392 4333 mt 1392 4405 L
1044 2821 mt 1116 2821 L
1080 2785 mt 1080 2857 L
1120 4555 mt 1192 4555 L
1156 4519 mt 1156 4591 L
 913 3866 mt  985 3866 L
 949 3830 mt  949 3902 L
 924 4499 mt  996 4499 L
 960 4463 mt  960 4535 L
 930 4473 mt 1002 4473 L
 966 4437 mt  966 4509 L
 898 4417 mt  970 4417 L
 934 4381 mt  934 4453 L
1729 4117 mt 1801 4117 L
1765 4081 mt 1765 4153 L
1130 4579 mt 1202 4579 L
1166 4543 mt 1166 4615 L
4682 1960 mt 4754 1960 L
4718 1924 mt 4718 1996 L
2015 4559 mt 2087 4559 L
2051 4523 mt 2051 4595 L
1836 4596 mt 1908 4596 L
1872 4560 mt 1872 4632 L
2180 4248 mt 2252 4248 L
2216 4212 mt 2216 4284 L
1016 4355 mt 1088 4355 L
1052 4319 mt 1052 4391 L
1072 4608 mt 1144 4608 L
1108 4572 mt 1108 4644 L
 950 4195 mt 1022 4195 L
 986 4159 mt  986 4231 L
1079 4614 mt 1151 4614 L
1115 4578 mt 1115 4650 L
1221 4520 mt 1293 4520 L
1257 4484 mt 1257 4556 L
 899 4031 mt  971 4031 L
 935 3995 mt  935 4067 L
 977 4285 mt 1049 4285 L
1013 4249 mt 1013 4321 L
 870 4408 mt  942 4408 L
 906 4372 mt  906 4444 L
1005 3645 mt 1077 3645 L
1041 3609 mt 1041 3681 L
1071 4597 mt 1143 4597 L
1107 4561 mt 1107 4633 L
 868 4306 mt  940 4306 L
 904 4270 mt  904 4342 L
 863 4599 mt  935 4599 L
 899 4563 mt  899 4635 L
1825 4009 mt 1897 4009 L
1861 3973 mt 1861 4045 L
 943 4314 mt 1015 4314 L
 979 4278 mt  979 4350 L
1113 3523 mt 1185 3523 L
1149 3487 mt 1149 3559 L
1785 4463 mt 1857 4463 L
1821 4427 mt 1821 4499 L
3061 4608 mt 3133 4608 L
3097 4572 mt 3097 4644 L
1102 4601 mt 1174 4601 L
1138 4565 mt 1138 4637 L
4581 4288 mt 4653 4288 L
4617 4252 mt 4617 4324 L
1037 4469 mt 1109 4469 L
1073 4433 mt 1073 4505 L
 924 3477 mt  996 3477 L
 960 3441 mt  960 3513 L
 905 3899 mt  977 3899 L
 941 3863 mt  941 3935 L
1085 4608 mt 1157 4608 L
1121 4572 mt 1121 4644 L
1243 2921 mt 1315 2921 L
1279 2885 mt 1279 2957 L
1323 4613 mt 1395 4613 L
1359 4577 mt 1359 4649 L
1292 3905 mt 1364 3905 L
1328 3869 mt 1328 3941 L
 873 3595 mt  945 3595 L
 909 3559 mt  909 3631 L
1035 4440 mt 1107 4440 L
1071 4404 mt 1071 4476 L
1058 4508 mt 1130 4508 L
1094 4472 mt 1094 4544 L
1167 4524 mt 1239 4524 L
1203 4488 mt 1203 4560 L
1574 3918 mt 1646 3918 L
1610 3882 mt 1610 3954 L
 875 4603 mt  947 4603 L
 911 4567 mt  911 4639 L
1188 4553 mt 1260 4553 L
1224 4517 mt 1224 4589 L
 909 4200 mt  981 4200 L
 945 4164 mt  945 4236 L
4809 3554 mt 4881 3554 L
4845 3518 mt 4845 3590 L
1165 3271 mt 1237 3271 L
1201 3235 mt 1201 3307 L
5013 2925 mt 5085 2925 L
5049 2889 mt 5049 2961 L
 944 4456 mt 1016 4456 L
 980 4420 mt  980 4492 L
 988 3831 mt 1060 3831 L
1024 3795 mt 1024 3867 L
 912 3898 mt  984 3898 L
 948 3862 mt  948 3934 L
 866 4615 mt  938 4615 L
 902 4579 mt  902 4651 L
1482 4310 mt 1554 4310 L
1518 4274 mt 1518 4346 L
1022 4614 mt 1094 4614 L
1058 4578 mt 1058 4650 L
1197 4607 mt 1269 4607 L
1233 4571 mt 1233 4643 L
 872 4615 mt  944 4615 L
 908 4579 mt  908 4651 L
1074 4576 mt 1146 4576 L
1110 4540 mt 1110 4612 L
1090 4558 mt 1162 4558 L
1126 4522 mt 1126 4594 L
 923 4397 mt  995 4397 L
 959 4361 mt  959 4433 L
1054 3949 mt 1126 3949 L
1090 3913 mt 1090 3985 L
 866 3863 mt  938 3863 L
 902 3827 mt  902 3899 L
2155 4514 mt 2227 4514 L
2191 4478 mt 2191 4550 L
 946 4488 mt 1018 4488 L
 982 4452 mt  982 4524 L
1082 4603 mt 1154 4603 L
1118 4567 mt 1118 4639 L
3192 4615 mt 3264 4615 L
3228 4579 mt 3228 4651 L
1051 4540 mt 1123 4540 L
1087 4504 mt 1087 4576 L
1320 4131 mt 1392 4131 L
1356 4095 mt 1356 4167 L
 905 4613 mt  977 4613 L
 941 4577 mt  941 4649 L
2451 4014 mt 2523 4014 L
2487 3978 mt 2487 4050 L
1402 4444 mt 1474 4444 L
1438 4408 mt 1438 4480 L
 887 4243 mt  959 4243 L
 923 4207 mt  923 4279 L
 994 4517 mt 1066 4517 L
1030 4481 mt 1030 4553 L
 940 4615 mt 1012 4615 L
 976 4579 mt  976 4651 L
 997 4585 mt 1069 4585 L
1033 4549 mt 1033 4621 L
1508 1972 mt 1580 1972 L
1544 1936 mt 1544 2008 L
1624 3412 mt 1696 3412 L
1660 3376 mt 1660 3448 L
1402 4059 mt 1474 4059 L
1438 4023 mt 1438 4095 L
 873 3795 mt  945 3795 L
 909 3759 mt  909 3831 L
1163 4137 mt 1235 4137 L
1199 4101 mt 1199 4173 L
1661 4471 mt 1733 4471 L
1697 4435 mt 1697 4507 L
1131 4591 mt 1203 4591 L
1167 4555 mt 1167 4627 L
1013 4562 mt 1085 4562 L
1049 4526 mt 1049 4598 L
1151 4607 mt 1223 4607 L
1187 4571 mt 1187 4643 L
1083 4283 mt 1155 4283 L
1119 4247 mt 1119 4319 L
1850 3378 mt 1922 3378 L
1886 3342 mt 1886 3414 L
 937 4605 mt 1009 4605 L
 973 4569 mt  973 4641 L
 863 4198 mt  935 4198 L
 899 4162 mt  899 4234 L
2537 4581 mt 2609 4581 L
2573 4545 mt 2573 4617 L
1299 3332 mt 1371 3332 L
1335 3296 mt 1335 3368 L
 976 4607 mt 1048 4607 L
1012 4571 mt 1012 4643 L
1168 4612 mt 1240 4612 L
1204 4576 mt 1204 4648 L
 864 3727 mt  936 3727 L
 900 3691 mt  900 3763 L
 863 4049 mt  935 4049 L
 899 4013 mt  899 4085 L
 883 4236 mt  955 4236 L
 919 4200 mt  919 4272 L
1724 4612 mt 1796 4612 L
1760 4576 mt 1760 4648 L
 905 4290 mt  977 4290 L
 941 4254 mt  941 4326 L
1195 4136 mt 1267 4136 L
1231 4100 mt 1231 4172 L
2419 4615 mt 2491 4615 L
2455 4579 mt 2455 4651 L
1060 3781 mt 1132 3781 L
1096 3745 mt 1096 3817 L
1598 4614 mt 1670 4614 L
1634 4578 mt 1634 4650 L
 916 4415 mt  988 4415 L
 952 4379 mt  952 4451 L
1137 4509 mt 1209 4509 L
1173 4473 mt 1173 4545 L
2247 4445 mt 2319 4445 L
2283 4409 mt 2283 4481 L
 863 3924 mt  935 3924 L
 899 3888 mt  899 3960 L
 913 4095 mt  985 4095 L
 949 4059 mt  949 4131 L
 983 4615 mt 1055 4615 L
1019 4579 mt 1019 4651 L
 879 4412 mt  951 4412 L
 915 4376 mt  915 4448 L
2692 1604 mt 2764 1604 L
2728 1568 mt 2728 1640 L
1113 4606 mt 1185 4606 L
1149 4570 mt 1149 4642 L
1013 3771 mt 1085 3771 L
1049 3735 mt 1049 3807 L
1572 4525 mt 1644 4525 L
1608 4489 mt 1608 4561 L
1886 4313 mt 1958 4313 L
1922 4277 mt 1922 4349 L
1191 4312 mt 1263 4312 L
1227 4276 mt 1227 4348 L
1241 4300 mt 1313 4300 L
1277 4264 mt 1277 4336 L
1095 4615 mt 1167 4615 L
1131 4579 mt 1131 4651 L
2492 1839 mt 2564 1839 L
2528 1803 mt 2528 1875 L
1530 3570 mt 1602 3570 L
1566 3534 mt 1566 3606 L
1678 4495 mt 1750 4495 L
1714 4459 mt 1714 4531 L
1073 3962 mt 1145 3962 L
1109 3926 mt 1109 3998 L
1381 3470 mt 1453 3470 L
1417 3434 mt 1417 3506 L
 863 4036 mt  935 4036 L
 899 4000 mt  899 4072 L
1446 4318 mt 1518 4318 L
1482 4282 mt 1482 4354 L
 945 4544 mt 1017 4544 L
 981 4508 mt  981 4580 L
3718 3601 mt 3790 3601 L
3754 3565 mt 3754 3637 L
 967 4376 mt 1039 4376 L
1003 4340 mt 1003 4412 L
1520 4552 mt 1592 4552 L
1556 4516 mt 1556 4588 L
3692 4586 mt 3764 4586 L
3728 4550 mt 3728 4622 L
2984 1180 mt 3056 1180 L
3020 1144 mt 3020 1216 L
1103 4527 mt 1175 4527 L
1139 4491 mt 1139 4563 L
 904 4411 mt  976 4411 L
 940 4375 mt  940 4447 L
2552 2821 mt 2624 2821 L
2588 2785 mt 2588 2857 L
1473 3433 mt 1545 3433 L
1509 3397 mt 1509 3469 L
 904 3966 mt  976 3966 L
 940 3930 mt  940 4002 L
 994 4174 mt 1066 4174 L
1030 4138 mt 1030 4210 L
2868  916 mt 2940  916 L
2904  880 mt 2904  952 L
1230 4041 mt 1302 4041 L
1266 4005 mt 1266 4077 L
1688 2228 mt 1760 2228 L
1724 2192 mt 1724 2264 L
2010 4569 mt 2082 4569 L
2046 4533 mt 2046 4605 L
1195 3946 mt 1267 3946 L
1231 3910 mt 1231 3982 L
 869 3803 mt  941 3803 L
 905 3767 mt  905 3839 L
5240 3665 mt 5312 3665 L
5276 3629 mt 5276 3701 L
1403 3254 mt 1475 3254 L
1439 3218 mt 1439 3290 L
2832 3503 mt 2904 3503 L
2868 3467 mt 2868 3539 L
1088 4135 mt 1160 4135 L
1124 4099 mt 1124 4171 L
 867 4022 mt  939 4022 L
 903 3986 mt  903 4058 L
6194 2828 mt 6266 2828 L
6230 2792 mt 6230 2864 L
2058 2748 mt 2130 2748 L
2094 2712 mt 2094 2784 L
 875 4447 mt  947 4447 L
 911 4411 mt  911 4483 L
 978 3552 mt 1050 3552 L
1014 3516 mt 1014 3588 L
 942 4391 mt 1014 4391 L
 978 4355 mt  978 4427 L
1224 4073 mt 1296 4073 L
1260 4037 mt 1260 4109 L
2377 4071 mt 2449 4071 L
2413 4035 mt 2413 4107 L
1868 4595 mt 1940 4595 L
1904 4559 mt 1904 4631 L
1130 4572 mt 1202 4572 L
1166 4536 mt 1166 4608 L
2399 4612 mt 2471 4612 L
2435 4576 mt 2435 4648 L
 976 4016 mt 1048 4016 L
1012 3980 mt 1012 4052 L
1447 4606 mt 1519 4606 L
1483 4570 mt 1483 4642 L
1105 4412 mt 1177 4412 L
1141 4376 mt 1141 4448 L
1664 2158 mt 1736 2158 L
1700 2122 mt 1700 2194 L
 929 3468 mt 1001 3468 L
 965 3432 mt  965 3504 L
2893 2993 mt 2965 2993 L
2929 2957 mt 2929 3029 L
2955 4614 mt 3027 4614 L
2991 4578 mt 2991 4650 L
 869 4540 mt  941 4540 L
 905 4504 mt  905 4576 L
1263 4307 mt 1335 4307 L
1299 4271 mt 1299 4343 L
2805 4428 mt 2877 4428 L
2841 4392 mt 2841 4464 L
 864 4600 mt  936 4600 L
 900 4564 mt  900 4636 L
 885 2558 mt  957 2558 L
 921 2522 mt  921 2594 L
2133 4404 mt 2205 4404 L
2169 4368 mt 2169 4440 L
1235 2982 mt 1307 2982 L
1271 2946 mt 1271 3018 L
1186 3947 mt 1258 3947 L
1222 3911 mt 1222 3983 L
 888 4612 mt  960 4612 L
 924 4576 mt  924 4648 L
1089 4615 mt 1161 4615 L
1125 4579 mt 1125 4651 L
1060 4198 mt 1132 4198 L
1096 4162 mt 1096 4234 L
1236 3550 mt 1308 3550 L
1272 3514 mt 1272 3586 L
 929 3482 mt 1001 3482 L
 965 3446 mt  965 3518 L
1773 4432 mt 1845 4432 L
1809 4396 mt 1809 4468 L
2536 4544 mt 2608 4544 L
2572 4508 mt 2572 4580 L
 921 4597 mt  993 4597 L
 957 4561 mt  957 4633 L
3401 4457 mt 3473 4457 L
3437 4421 mt 3437 4493 L
 872 4614 mt  944 4614 L
 908 4578 mt  908 4650 L
 878 4179 mt  950 4179 L
 914 4143 mt  914 4215 L
 883 4613 mt  955 4613 L
 919 4577 mt  919 4649 L
 870 3397 mt  942 3397 L
 906 3361 mt  906 3433 L
 950 3907 mt 1022 3907 L
 986 3871 mt  986 3943 L
2265 4613 mt 2337 4613 L
2301 4577 mt 2301 4649 L
 910 4591 mt  982 4591 L
 946 4555 mt  946 4627 L
2563 4446 mt 2635 4446 L
2599 4410 mt 2599 4482 L
1236 4579 mt 1308 4579 L
1272 4543 mt 1272 4615 L
 932  866 mt 1004  866 L
 968  830 mt  968  902 L
1118 4346 mt 1190 4346 L
1154 4310 mt 1154 4382 L
1249 4434 mt 1321 4434 L
1285 4398 mt 1285 4470 L
3309 4382 mt 3381 4382 L
3345 4346 mt 3345 4418 L
 971 4603 mt 1043 4603 L
1007 4567 mt 1007 4639 L
 863 4596 mt  935 4596 L
 899 4560 mt  899 4632 L
 868 4549 mt  940 4549 L
 904 4513 mt  904 4585 L
1009 3151 mt 1081 3151 L
1045 3115 mt 1045 3187 L
 985 4201 mt 1057 4201 L
1021 4165 mt 1021 4237 L
 865 3992 mt  937 3992 L
 901 3956 mt  901 4028 L
1053 4359 mt 1125 4359 L
1089 4323 mt 1089 4395 L
 895 3491 mt  967 3491 L
 931 3455 mt  931 3527 L
1586 4392 mt 1658 4392 L
1622 4356 mt 1622 4428 L
 921 4427 mt  993 4427 L
 957 4391 mt  957 4463 L
1070 4608 mt 1142 4608 L
1106 4572 mt 1106 4644 L
1366 3388 mt 1438 3388 L
1402 3352 mt 1402 3424 L
1312 3833 mt 1384 3833 L
1348 3797 mt 1348 3869 L
1577 4179 mt 1649 4179 L
1613 4143 mt 1613 4215 L
 922 4422 mt  994 4422 L
 958 4386 mt  958 4458 L
4806 2711 mt 4878 2711 L
4842 2675 mt 4842 2747 L
2022 4539 mt 2094 4539 L
2058 4503 mt 2058 4575 L
2764 4508 mt 2836 4508 L
2800 4472 mt 2800 4544 L
1373 3600 mt 1445 3600 L
1409 3564 mt 1409 3636 L
 986 4550 mt 1058 4550 L
1022 4514 mt 1022 4586 L
 866 4230 mt  938 4230 L
 902 4194 mt  902 4266 L
1026 4605 mt 1098 4605 L
1062 4569 mt 1062 4641 L
1980 3915 mt 2052 3915 L
2016 3879 mt 2016 3951 L
 894 4283 mt  966 4283 L
 930 4247 mt  930 4319 L
 988 4566 mt 1060 4566 L
1024 4530 mt 1024 4602 L
 863 4595 mt  935 4595 L
 899 4559 mt  899 4631 L
1206 4613 mt 1278 4613 L
1242 4577 mt 1242 4649 L
1200 4152 mt 1272 4152 L
1236 4116 mt 1236 4188 L
1428 4577 mt 1500 4577 L
1464 4541 mt 1464 4613 L
 863 3969 mt  935 3969 L
 899 3933 mt  899 4005 L
1105 4197 mt 1177 4197 L
1141 4161 mt 1141 4233 L
1073 4568 mt 1145 4568 L
1109 4532 mt 1109 4604 L
1017 4428 mt 1089 4428 L
1053 4392 mt 1053 4464 L
1091 3651 mt 1163 3651 L
1127 3615 mt 1127 3687 L
1479 4313 mt 1551 4313 L
1515 4277 mt 1515 4349 L
3538 4178 mt 3610 4178 L
3574 4142 mt 3574 4214 L
1841 4083 mt 1913 4083 L
1877 4047 mt 1877 4119 L
5392 2506 mt 5464 2506 L
5428 2470 mt 5428 2542 L
 863 4558 mt  935 4558 L
 899 4522 mt  899 4594 L
1610 4401 mt 1682 4401 L
1646 4365 mt 1646 4437 L
 915 3867 mt  987 3867 L
 951 3831 mt  951 3903 L
 901 4581 mt  973 4581 L
 937 4545 mt  937 4617 L
 899 4293 mt  971 4293 L
 935 4257 mt  935 4329 L
1922 4205 mt 1994 4205 L
1958 4169 mt 1958 4241 L
 935 4497 mt 1007 4497 L
 971 4461 mt  971 4533 L
1068 4004 mt 1140 4004 L
1104 3968 mt 1104 4040 L
1813 3742 mt 1885 3742 L
1849 3706 mt 1849 3778 L
 867 4611 mt  939 4611 L
 903 4575 mt  903 4647 L
 864 4487 mt  936 4487 L
 900 4451 mt  900 4523 L
1033 4612 mt 1105 4612 L
1069 4576 mt 1069 4648 L
1152 4077 mt 1224 4077 L
1188 4041 mt 1188 4113 L
 947 4530 mt 1019 4530 L
 983 4494 mt  983 4566 L
1016 4040 mt 1088 4040 L
1052 4004 mt 1052 4076 L
3902 3550 mt 3974 3550 L
3938 3514 mt 3938 3586 L
 896 3980 mt  968 3980 L
 932 3944 mt  932 4016 L
5120 1268 mt 5192 1268 L
5156 1232 mt 5156 1304 L
 863 4605 mt  935 4605 L
 899 4569 mt  899 4641 L
 883 4038 mt  955 4038 L
 919 4002 mt  919 4074 L
1103 3441 mt 1175 3441 L
1139 3405 mt 1139 3477 L
1000 4195 mt 1072 4195 L
1036 4159 mt 1036 4231 L
1302 4006 mt 1374 4006 L
1338 3970 mt 1338 4042 L
1327 4564 mt 1399 4564 L
1363 4528 mt 1363 4600 L
 985 4410 mt 1057 4410 L
1021 4374 mt 1021 4446 L
1170 3875 mt 1242 3875 L
1206 3839 mt 1206 3911 L
 876 4508 mt  948 4508 L
 912 4472 mt  912 4544 L
 885 4531 mt  957 4531 L
 921 4495 mt  921 4567 L
 948 4474 mt 1020 4474 L
 984 4438 mt  984 4510 L
 988 4523 mt 1060 4523 L
1024 4487 mt 1024 4559 L
 949 3774 mt 1021 3774 L
 985 3738 mt  985 3810 L
2778 4118 mt 2850 4118 L
2814 4082 mt 2814 4154 L
1379 3873 mt 1451 3873 L
1415 3837 mt 1415 3909 L
 876 4491 mt  948 4491 L
 912 4455 mt  912 4527 L
2461 4610 mt 2533 4610 L
2497 4574 mt 2497 4646 L
 907 4567 mt  979 4567 L
 943 4531 mt  943 4603 L
2510 4605 mt 2582 4605 L
2546 4569 mt 2546 4641 L
1324 4430 mt 1396 4430 L
1360 4394 mt 1360 4466 L
3136 4161 mt 3208 4161 L
3172 4125 mt 3172 4197 L
2208 4552 mt 2280 4552 L
2244 4516 mt 2244 4588 L
 999 4614 mt 1071 4614 L
1035 4578 mt 1035 4650 L
1555 4073 mt 1627 4073 L
1591 4037 mt 1591 4109 L
1409 4171 mt 1481 4171 L
1445 4135 mt 1445 4207 L
1969 4355 mt 2041 4355 L
2005 4319 mt 2005 4391 L
1189 3530 mt 1261 3530 L
1225 3494 mt 1225 3566 L
1185 4197 mt 1257 4197 L
1221 4161 mt 1221 4233 L
1171 3839 mt 1243 3839 L
1207 3803 mt 1207 3875 L
 940 4154 mt 1012 4154 L
 976 4118 mt  976 4190 L
1126 4145 mt 1198 4145 L
1162 4109 mt 1162 4181 L
2535 4199 mt 2607 4199 L
2571 4163 mt 2571 4235 L
1437 4548 mt 1509 4548 L
1473 4512 mt 1473 4584 L
 863 4615 mt  935 4615 L
 899 4579 mt  899 4651 L
 878 4163 mt  950 4163 L
 914 4127 mt  914 4199 L
 939 4325 mt 1011 4325 L
 975 4289 mt  975 4361 L
1506 3936 mt 1578 3936 L
1542 3900 mt 1542 3972 L
 867 4407 mt  939 4407 L
 903 4371 mt  903 4443 L
 898 4581 mt  970 4581 L
 934 4545 mt  934 4617 L
1732 4611 mt 1804 4611 L
1768 4575 mt 1768 4647 L
1239 3170 mt 1311 3170 L
1275 3134 mt 1275 3206 L
 867 4353 mt  939 4353 L
 903 4317 mt  903 4389 L
 943 4370 mt 1015 4370 L
 979 4334 mt  979 4406 L
 863 3932 mt  935 3932 L
 899 3896 mt  899 3968 L
1326 4614 mt 1398 4614 L
1362 4578 mt 1362 4650 L
1122 2852 mt 1194 2852 L
1158 2816 mt 1158 2888 L
1792 4602 mt 1864 4602 L
1828 4566 mt 1828 4638 L
1032 4383 mt 1104 4383 L
1068 4347 mt 1068 4419 L
 870 4606 mt  942 4606 L
 906 4570 mt  906 4642 L
3120 3610 mt 3192 3610 L
3156 3574 mt 3156 3646 L
 866 4554 mt  938 4554 L
 902 4518 mt  902 4590 L
1322 4561 mt 1394 4561 L
1358 4525 mt 1358 4597 L
 879 4604 mt  951 4604 L
 915 4568 mt  915 4640 L
1960 3968 mt 2032 3968 L
1996 3932 mt 1996 4004 L
3587 4257 mt 3659 4257 L
3623 4221 mt 3623 4293 L
 863 4460 mt  935 4460 L
 899 4424 mt  899 4496 L
1025 4273 mt 1097 4273 L
1061 4237 mt 1061 4309 L
 894 4555 mt  966 4555 L
 930 4519 mt  930 4591 L
 953 4594 mt 1025 4594 L
 989 4558 mt  989 4630 L
2297 2663 mt 2369 2663 L
2333 2627 mt 2333 2699 L
1691 4144 mt 1763 4144 L
1727 4108 mt 1727 4180 L
1561 4390 mt 1633 4390 L
1597 4354 mt 1597 4426 L
2272 4556 mt 2344 4556 L
2308 4520 mt 2308 4592 L
1184 4566 mt 1256 4566 L
1220 4530 mt 1220 4602 L
1836 4613 mt 1908 4613 L
1872 4577 mt 1872 4649 L
1971 4530 mt 2043 4530 L
2007 4494 mt 2007 4566 L
1700 4235 mt 1772 4235 L
1736 4199 mt 1736 4271 L
1940 2705 mt 2012 2705 L
1976 2669 mt 1976 2741 L
 954 4578 mt 1026 4578 L
 990 4542 mt  990 4614 L
1194 4564 mt 1266 4564 L
1230 4528 mt 1230 4600 L
 954 4405 mt 1026 4405 L
 990 4369 mt  990 4441 L
2280 2484 mt 2352 2484 L
2316 2448 mt 2316 2520 L
1138 4552 mt 1210 4552 L
1174 4516 mt 1174 4588 L
2236 3257 mt 2308 3257 L
2272 3221 mt 2272 3293 L
 865 4059 mt  937 4059 L
 901 4023 mt  901 4095 L
3445 4171 mt 3517 4171 L
3481 4135 mt 3481 4207 L
 865 4615 mt  937 4615 L
 901 4579 mt  901 4651 L
2435 4254 mt 2507 4254 L
2471 4218 mt 2471 4290 L
4274 3766 mt 4346 3766 L
4310 3730 mt 4310 3802 L
2618 2015 mt 2690 2015 L
2654 1979 mt 2654 2051 L
 865 4034 mt  937 4034 L
 901 3998 mt  901 4070 L
1283 4576 mt 1355 4576 L
1319 4540 mt 1319 4612 L
2892 4208 mt 2964 4208 L
2928 4172 mt 2928 4244 L
1064 4250 mt 1136 4250 L
1100 4214 mt 1100 4286 L
1029 4432 mt 1101 4432 L
1065 4396 mt 1065 4468 L
 890 3799 mt  962 3799 L
 926 3763 mt  926 3835 L
2748 1599 mt 2820 1599 L
2784 1563 mt 2784 1635 L
 872 4339 mt  944 4339 L
 908 4303 mt  908 4375 L
1047 3061 mt 1119 3061 L
1083 3025 mt 1083 3097 L
2611 4615 mt 2683 4615 L
2647 4579 mt 2647 4651 L
1198 3839 mt 1270 3839 L
1234 3803 mt 1234 3875 L
 884 4268 mt  956 4268 L
 920 4232 mt  920 4304 L
5245 3627 mt 5317 3627 L
5281 3591 mt 5281 3663 L
1098 3694 mt 1170 3694 L
1134 3658 mt 1134 3730 L
2326 4183 mt 2398 4183 L
2362 4147 mt 2362 4219 L
1398 4312 mt 1470 4312 L
1434 4276 mt 1434 4348 L
1018 4429 mt 1090 4429 L
1054 4393 mt 1054 4465 L
gs 899 414 5363 4203 rc
gr

0 sg
2836 5104 mt 
(\(S,PAC,GMM\)) s
 288 3277 mt  -90 rotate
(\(S,SSC,GMM\)) s
90 rotate
2975  223 mt 
(Corr = 0.18) s

end %%Color Dict

eplot
%%EndObject

epage
end

showpage

%%Trailer
%%EOF
