%!PS-Adobe-3.0 EPSF-3.0
%%Creator: MATLAB, The Mathworks, Inc.
%%Title: Pictures\ROC_MSCC_vs_emp.eps
%%CreationDate: 12/02/2006  02:59:12
%%DocumentNeededFonts: Helvetica
%%DocumentProcessColors: Cyan Magenta Yellow Black
%%LanguageLevel: 2
%%Pages: 1
%%BoundingBox:    35   182   552   594
%%EndComments

%%BeginProlog
% MathWorks dictionary
/MathWorks 160 dict begin
% definition operators
/bdef {bind def} bind def
/ldef {load def} bind def
/xdef {exch def} bdef
/xstore {exch store} bdef
% operator abbreviations
/c  /clip ldef
/cc /concat ldef
/cp /closepath ldef
/gr /grestore ldef
/gs /gsave ldef
/mt /moveto ldef
/np /newpath ldef
/cm /currentmatrix ldef
/sm /setmatrix ldef
/rm /rmoveto ldef
/rl /rlineto ldef
/s {show newpath} bdef
/sc {setcmykcolor} bdef
/sr /setrgbcolor ldef
/sg /setgray ldef
/w /setlinewidth ldef
/j /setlinejoin ldef
/cap /setlinecap ldef
/rc {rectclip} bdef
/rf {rectfill} bdef
% page state control
/pgsv () def
/bpage {/pgsv save def} bdef
/epage {pgsv restore} bdef
/bplot /gsave ldef
/eplot {stroke grestore} bdef
% orientation switch
/portraitMode 0 def /landscapeMode 1 def /rotateMode 2 def
% coordinate system mappings
/dpi2point 0 def
% font control
/FontSize 0 def
/FMS {/FontSize xstore findfont [FontSize 0 0 FontSize neg 0 0]
  makefont setfont} bdef
/ISOLatin1Encoding where {pop /WindowsLatin1Encoding 256 array bdef
ISOLatin1Encoding WindowsLatin1Encoding copy pop
/.notdef/.notdef/quotesinglbase/florin/quotedblbase/ellipsis/dagger
/daggerdbl/circumflex/perthousand/Scaron/guilsinglleft/OE/.notdef/.notdef
/.notdef/.notdef/quoteleft/quoteright/quotedblleft/quotedblright/bullet
/endash/emdash/tilde/trademark/scaron/guilsinglright/oe/.notdef/.notdef
/Ydieresis WindowsLatin1Encoding 128 32 getinterval astore pop}
{/WindowsLatin1Encoding StandardEncoding bdef} ifelse
/reencode {exch dup where {pop load} {pop StandardEncoding} ifelse
  exch dup 3 1 roll findfont dup length dict begin
  { 1 index /FID ne {def}{pop pop} ifelse } forall
  /Encoding exch def currentdict end definefont pop} bdef
/isroman {findfont /CharStrings get /Agrave known} bdef
/FMSR {3 1 roll 1 index dup isroman {reencode} {pop pop} ifelse
  exch FMS} bdef
/csm {1 dpi2point div -1 dpi2point div scale neg translate
 dup landscapeMode eq {pop -90 rotate}
  {rotateMode eq {90 rotate} if} ifelse} bdef
% line types: solid, dotted, dashed, dotdash
/SO { [] 0 setdash } bdef
/DO { [.5 dpi2point mul 4 dpi2point mul] 0 setdash } bdef
/DA { [6 dpi2point mul] 0 setdash } bdef
/DD { [.5 dpi2point mul 4 dpi2point mul 6 dpi2point mul 4
  dpi2point mul] 0 setdash } bdef
% macros for lines and objects
/L {lineto stroke} bdef
/MP {3 1 roll moveto 1 sub {rlineto} repeat} bdef
/AP {{rlineto} repeat} bdef
/PDlw -1 def
/W {/PDlw currentlinewidth def setlinewidth} def
/PP {closepath eofill} bdef
/DP {closepath stroke} bdef
/MR {4 -2 roll moveto dup  0 exch rlineto exch 0 rlineto
  neg 0 exch rlineto closepath} bdef
/FR {MR stroke} bdef
/PR {MR fill} bdef
/L1i {{currentfile picstr readhexstring pop} image} bdef
/tMatrix matrix def
/MakeOval {newpath tMatrix currentmatrix pop translate scale
0 0 1 0 360 arc tMatrix setmatrix} bdef
/FO {MakeOval stroke} bdef
/PO {MakeOval fill} bdef
/PD {currentlinewidth 2 div 0 360 arc fill
   PDlw -1 eq not {PDlw w /PDlw -1 def} if} def
/FA {newpath tMatrix currentmatrix pop translate scale
  0 0 1 5 -2 roll arc tMatrix setmatrix stroke} bdef
/PA {newpath tMatrix currentmatrix pop	translate 0 0 moveto scale
  0 0 1 5 -2 roll arc closepath tMatrix setmatrix fill} bdef
/FAn {newpath tMatrix currentmatrix pop translate scale
  0 0 1 5 -2 roll arcn tMatrix setmatrix stroke} bdef
/PAn {newpath tMatrix currentmatrix pop translate 0 0 moveto scale
  0 0 1 5 -2 roll arcn closepath tMatrix setmatrix fill} bdef
/vradius 0 def /hradius 0 def /lry 0 def
/lrx 0 def /uly 0 def /ulx 0 def /rad 0 def
/MRR {/vradius xdef /hradius xdef /lry xdef /lrx xdef /uly xdef
  /ulx xdef newpath tMatrix currentmatrix pop ulx hradius add uly
  vradius add translate hradius vradius scale 0 0 1 180 270 arc 
  tMatrix setmatrix lrx hradius sub uly vradius add translate
  hradius vradius scale 0 0 1 270 360 arc tMatrix setmatrix
  lrx hradius sub lry vradius sub translate hradius vradius scale
  0 0 1 0 90 arc tMatrix setmatrix ulx hradius add lry vradius sub
  translate hradius vradius scale 0 0 1 90 180 arc tMatrix setmatrix
  closepath} bdef
/FRR {MRR stroke } bdef
/PRR {MRR fill } bdef
/MlrRR {/lry xdef /lrx xdef /uly xdef /ulx xdef /rad lry uly sub 2 div def
  newpath tMatrix currentmatrix pop ulx rad add uly rad add translate
  rad rad scale 0 0 1 90 270 arc tMatrix setmatrix lrx rad sub lry rad
  sub translate rad rad scale 0 0 1 270 90 arc tMatrix setmatrix
  closepath} bdef
/FlrRR {MlrRR stroke } bdef
/PlrRR {MlrRR fill } bdef
/MtbRR {/lry xdef /lrx xdef /uly xdef /ulx xdef /rad lrx ulx sub 2 div def
  newpath tMatrix currentmatrix pop ulx rad add uly rad add translate
  rad rad scale 0 0 1 180 360 arc tMatrix setmatrix lrx rad sub lry rad
  sub translate rad rad scale 0 0 1 0 180 arc tMatrix setmatrix
  closepath} bdef
/FtbRR {MtbRR stroke } bdef
/PtbRR {MtbRR fill } bdef
/stri 6 array def /dtri 6 array def
/smat 6 array def /dmat 6 array def
/tmat1 6 array def /tmat2 6 array def /dif 3 array def
/asub {/ind2 exch def /ind1 exch def dup dup
  ind1 get exch ind2 get sub exch } bdef
/tri_to_matrix {
  2 0 asub 3 1 asub 4 0 asub 5 1 asub
  dup 0 get exch 1 get 7 -1 roll astore } bdef
/compute_transform {
  dmat dtri tri_to_matrix tmat1 invertmatrix 
  smat stri tri_to_matrix tmat2 concatmatrix } bdef
/ds {stri astore pop} bdef
/dt {dtri astore pop} bdef
/db {2 copy /cols xdef /rows xdef mul dup 3 mul string
  currentfile 
  3 index 0 eq {/ASCIIHexDecode filter}
  {/ASCII85Decode filter 3 index 2 eq {/RunLengthDecode filter} if }
  ifelse exch readstring pop
  dup 0 3 index getinterval /rbmap xdef
  dup 2 index dup getinterval /gbmap xdef
  1 index dup 2 mul exch getinterval /bbmap xdef pop pop}bdef
/it {gs np dtri aload pop moveto lineto lineto cp c
  cols rows 8 compute_transform 
  rbmap gbmap bbmap true 3 colorimage gr}bdef
/il {newpath moveto lineto stroke}bdef
currentdict end def
%%EndProlog

%%BeginSetup
MathWorks begin

0 cap

end
%%EndSetup

%%Page: 1 1
%%BeginPageSetup
%%PageBoundingBox:    35   182   552   594
MathWorks begin
bpage
%%EndPageSetup

%%BeginObject: obj1
bplot

/dpi2point 12 def
portraitMode 0216 7344 csm

  205   205  6211  4947 rc
86 dict begin %Colortable dictionary
/c0 { 0.000000 0.000000 0.000000 sr} bdef
/c1 { 1.000000 1.000000 1.000000 sr} bdef
/c2 { 0.900000 0.000000 0.000000 sr} bdef
/c3 { 0.000000 0.820000 0.000000 sr} bdef
/c4 { 0.000000 0.000000 0.800000 sr} bdef
/c5 { 0.910000 0.820000 0.320000 sr} bdef
/c6 { 1.000000 0.260000 0.820000 sr} bdef
/c7 { 0.000000 0.820000 0.820000 sr} bdef
c0
1 j
1 sg
   0    0 6919 5187 rf
6 w
0 4227 5363 0 0 -4227 898 4616 4 MP
PP
-5363 0 0 4227 5363 0 0 -4227 898 4616 5 MP stroke
4 w
DO
SO
6 w
0 sg
 898 4616 mt 6261 4616 L
 898 4616 mt  898  389 L
 898 4616 mt  898 4616 L
 898 4616 mt  898 4616 L
 898 4616 mt  898 4616 L
 898 4616 mt  898 4616 L
 898 4616 mt  898 4616 L
 898 4616 mt  898 4616 L
 898 4616 mt  898 4616 L
 898 4616 mt  898 4616 L
 898 4616 mt  898 4616 L
2088 4616 mt 2088 4562 L
%%IncludeResource: font Helvetica
/Helvetica /WindowsLatin1Encoding 192 FMSR

1909 4888 mt 
(10) s
%%IncludeResource: font Helvetica
/Helvetica /WindowsLatin1Encoding 128 FMSR

2122 4769 mt 
(-6) s
 898 4616 mt  898 4616 L
 898 4616 mt  898 4616 L
 898 4616 mt  898 4616 L
 898 4616 mt  898 4616 L
 898 4616 mt  898 4616 L
 898 4616 mt  898 4616 L
 898 4616 mt  898 4616 L
 898 4616 mt  898 4616 L
 898 4616 mt  898 4616 L
3467 4616 mt 3467 4562 L
%%IncludeResource: font Helvetica
/Helvetica /WindowsLatin1Encoding 192 FMSR

3288 4888 mt 
(10) s
%%IncludeResource: font Helvetica
/Helvetica /WindowsLatin1Encoding 128 FMSR

3501 4769 mt 
(-4) s
 898 4616 mt  898 4616 L
 898 4616 mt  898 4616 L
 898 4616 mt  898 4616 L
 898 4616 mt  898 4616 L
 898 4616 mt  898 4616 L
 898 4616 mt  898 4616 L
 898 4616 mt  898 4616 L
 898 4616 mt  898 4616 L
 898 4616 mt  898 4616 L
4846 4616 mt 4846 4562 L
%%IncludeResource: font Helvetica
/Helvetica /WindowsLatin1Encoding 192 FMSR

4667 4888 mt 
(10) s
%%IncludeResource: font Helvetica
/Helvetica /WindowsLatin1Encoding 128 FMSR

4880 4769 mt 
(-2) s
 898 4616 mt  898 4616 L
 898 4616 mt  898 4616 L
 898 4616 mt  898 4616 L
 898 4616 mt  898 4616 L
 898 4616 mt  898 4616 L
 898 4616 mt  898 4616 L
 898 4616 mt  898 4616 L
 898 4616 mt  898 4616 L
 898 4616 mt  898 4616 L
6225 4616 mt 6225 4562 L
%%IncludeResource: font Helvetica
/Helvetica /WindowsLatin1Encoding 192 FMSR

6083 4888 mt 
(10) s
%%IncludeResource: font Helvetica
/Helvetica /WindowsLatin1Encoding 128 FMSR

6296 4769 mt 
(0) s
 898 4616 mt  898 4616 L
 898 4616 mt  898 4616 L
 898 4616 mt  898 4616 L
 898 4616 mt  898 4616 L
 898 4616 mt  898 4616 L
 898 4616 mt  898 4616 L
 898 4616 mt  898 4616 L
 898 4616 mt  898 4616 L
 898 4616 mt  898 4616 L
 898 3676 mt  925 3676 L
 898 3726 mt  925 3726 L
 898 3782 mt  925 3782 L
 898 3844 mt  925 3844 L
 898 3917 mt  925 3917 L
 898 4003 mt  925 4003 L
 898 4108 mt  925 4108 L
 898 4244 mt  925 4244 L
 898 4435 mt  925 4435 L
 898 3676 mt  952 3676 L
%%IncludeResource: font Helvetica
/Helvetica /WindowsLatin1Encoding 192 FMSR

 506 3747 mt 
(10) s
%%IncludeResource: font Helvetica
/Helvetica /WindowsLatin1Encoding 128 FMSR

 719 3628 mt 
(-3) s
 898 3350 mt  925 3350 L
 898 3158 mt  925 3158 L
 898 3023 mt  925 3023 L
 898 2918 mt  925 2918 L
 898 2832 mt  925 2832 L
 898 2759 mt  925 2759 L
 898 2696 mt  925 2696 L
 898 2641 mt  925 2641 L
 898 2591 mt  925 2591 L
 898 2591 mt  952 2591 L
%%IncludeResource: font Helvetica
/Helvetica /WindowsLatin1Encoding 192 FMSR

 506 2662 mt 
(10) s
%%IncludeResource: font Helvetica
/Helvetica /WindowsLatin1Encoding 128 FMSR

 719 2543 mt 
(-2) s
 898 2264 mt  925 2264 L
 898 2073 mt  925 2073 L
 898 1938 mt  925 1938 L
 898 1832 mt  925 1832 L
 898 1746 mt  925 1746 L
 898 1674 mt  925 1674 L
 898 1611 mt  925 1611 L
 898 1555 mt  925 1555 L
 898 1506 mt  925 1506 L
 898 1506 mt  952 1506 L
%%IncludeResource: font Helvetica
/Helvetica /WindowsLatin1Encoding 192 FMSR

 506 1577 mt 
(10) s
%%IncludeResource: font Helvetica
/Helvetica /WindowsLatin1Encoding 128 FMSR

 719 1458 mt 
(-1) s
 898 1179 mt  925 1179 L
 898  988 mt  925  988 L
 898  852 mt  925  852 L
 898  747 mt  925  747 L
 898  661 mt  925  661 L
 898  588 mt  925  588 L
 898  525 mt  925  525 L
 898  470 mt  925  470 L
 898  420 mt  925  420 L
 898  420 mt  952  420 L
%%IncludeResource: font Helvetica
/Helvetica /WindowsLatin1Encoding 192 FMSR

 506  491 mt 
(10) s
%%IncludeResource: font Helvetica
/Helvetica /WindowsLatin1Encoding 128 FMSR

 719  372 mt 
(0) s
%%IncludeResource: font Helvetica
/Helvetica /WindowsLatin1Encoding 192 FMSR

3394 5084 mt 
(FAR) s
 408 2700 mt  -90 rotate
(FRR) s
90 rotate
%%IncludeResource: font Helvetica
/Helvetica /WindowsLatin1Encoding 120 FMSR

 881 4659 mt 
( ) s
6244  431 mt 
( ) s
gs 898 389 5363 4228 rc
/c8 { 0.000000 0.000000 1.000000 sr} bdef
c8
-561 -2 -326 -3 -96 -2 -2 -3 -3 -5 -20 -3 -32 -2 -28 -3 
-36 -3 -18 -2 -2 -3 -11 -3 -7 -2 -9 -3 -12 -3 -4 -3 
-3 -2 -1 -3 -4 -3 -22 -3 -22 -3 -40 -3 -28 -2 -6 -2 
-5 -1 -6 -3 -2 -3 -4 -3 -7 -3 -5 -3 -4 -3 -29 -3 
-23 -3 -6 -3 -7 -3 -20 -3 -17 -4 -13 -3 -9 -3 -3 -3 
-1 -3 -43 -4 -3 0 -122 -3 -1 0 -14 -3 -8 -3 -3 -4 
-1 -3 -3 -3 -6 -4 -11 -3 -5 -4 -13 -3 -3 -4 -4 -3 
-1 -4 -11 -3 0 -8 -2 -2 -1 -1 -39 -4 -15 -4 -3 -4 
-4 -3 -5 -1 -54 -1 -43 -2 -2 -4 -1 0 -25 -4 -15 -3 
-36 0 -9 -1 -20 -4 -2 0 -4 -4 -11 -4 -2 -4 -12 -2 
-26 -1 -3 -1 -21 -3 -3 -1 -3 -4 -13 -4 -3 -1 -5 -4 
-5 -4 -2 -4 -3 -4 -4 -5 -2 -1 -5 -3 -11 -5 -3 0 
-18 -2 -17 0 -13 -2 -1 -5 -3 -1 -15 -1 -4 -2 -1 -5 
-4 -5 -3 -4 0 -5 -2 -1 -14 -3 -6 -1 -4 -5 -4 -1 
-12 -3 -7 -1 -6 -2 -11 0 -12 0 -11 -1 -10 -2 -10 0 
-5 -5 -5 -4 -10 0 -1 -1 -8 -3 -4 -2 -5 -2 -8 -2 
-9 -1 -5 -6 -3 0 -8 -2 -8 -1 -7 0 -8 -1 -2 -1 
-5 -1 -7 -1 -7 0 -7 0 -6 -1 -7 -1 -6 -1 -6 0 
-6 0 -6 0 -4 -6 -2 -2 -6 -1 0 -2 -5 -4 -6 -1 
-5 -1 -5 -6 0 -2 -1 -3 -4 -6 -1 -1 -5 -1 -4 -4 
-1 0 -5 -2 -5 0 -4 0 -5 -1 -5 0 -4 -1 -5 -1 
-4 0 -5 0 -4 0 -4 -1 -4 0 -5 -1 -4 0 -4 0 
-4 -1 -4 0 -3 0 -4 0 -4 0 -4 -1 -3 0 -4 0 
-4 -1 -3 0 -4 -1 -3 0 -4 -1 -1 0 -2 0 -3 -1 
-4 0 -3 0 -3 0 -3 -2 -3 0 -4 -1 -3 0 -3 0 
-3 -1 -3 0 -3 0 -3 0 -3 -1 -1 0 -2 -1 -2 -4 
-1 -1 -1 -6 -1 -3 -3 -1 -3 -1 -2 -2 -1 -1 -2 -4 
-1 -1 -2 -2 -3 -1 -2 0 -3 -1 -3 -1 -2 -2 -3 -1 
-2 -5 0 -2 -3 0 -2 -1 -3 -1 -2 0 -3 0 -2 -2 
-1 -1 -2 -1 -2 0 -2 -1 -3 0 -2 0 -2 -1 -3 0 
-2 -1 -2 0 -2 0 -3 0 -2 -1 -2 -2 -1 0 -1 0 
-2 0 -3 0 -2 0 -2 -1 -2 -1 -2 0 -2 0 -2 0 
-2 0 -2 -1 -2 0 -2 -1 -2 0 -2 -1 -2 -1 -1 0 
-1 -3 -1 -4 -1 -2 -2 0 -2 -2 -2 -1 -2 0 -2 0 
-1 -1 -2 0 -2 -1 -1 -1 -1 0 -2 -1 -2 0 -1 -1 
-2 0 -2 0 -2 -1 -1 0 -2 0 -2 -1 -2 -1 -1 0 
-2 0 -2 -1 -1 0 -2 0 -2 0 -1 -1 -2 -2 -2 0 
-1 -2 -2 -2 -2 -1 4309 1284 300 MP stroke
-1 -2 -2 -2 0 -3 -1 -6 -2 0 -3 0 -2 -1 -1 0 
-1 -1 -1 -1 -1 -7 -2 0 -1 -1 -2 -3 -1 -1 -2 -2 
-1 0 1 0 -3 -2 -1 -1 -2 0 -1 0 -2 -1 -1 -1 
-2 0 -1 0 -1 0 -2 -1 -1 0 -2 -1 -1 0 -1 0 
-2 -1 -1 0 -2 -1 -1 0 -1 -1 -2 -1 -1 0 -1 0 
-2 0 -1 -1 -1 0 -2 0 -1 0 -1 0 -2 0 -1 -1 
-1 -1 -1 0 -2 0 -1 0 -1 0 -1 -1 -2 -1 -1 0 
-1 0 -1 -1 -2 0 -1 0 -1 0 -1 0 -2 0 -1 0 
-1 0 -2 -1 -2 0 -1 0 -1 0 -1 0 -1 0 -1 0 
-2 0 -1 0 -1 -1 -1 0 -1 0 -1 0 -2 0 -1 0 
-1 0 -1 -1 -1 0 -1 0 -1 0 -1 0 -1 0 -2 0 
-1 0 -1 0 -1 0 -1 0 -1 -1 -1 0 -1 0 -2 0 
-1 0 -1 0 -1 0 -1 0 -2 -1 -1 0 -1 0 -1 0 
-1 -1 -1 0 -1 0 -1 0 -1 0 -1 -1 -1 0 -1 0 
-1 0 -1 0 -1 0 -1 0 -1 -1 -1 0 -1 0 -1 -3 
-1 -1 -1 0 -1 -2 -1 -2 -1 -1 -1 0 -1 -1 -1 -3 
-1 0 -1 -1 -1 0 -1 -1 -1 -2 -1 -1 -1 -1 -1 0 
-1 -1 -1 -1 -1 0 -1 0 -1 0 -1 -1 -1 0 -1 0 
-1 0 -1 0 -1 -1 -1 -1 -1 0 -1 0 -1 -1 -1 0 
-1 -7 0 -2 -1 0 -1 0 -1 0 -1 -1 -1 0 -1 0 
-1 -1 -1 0 -1 -1 -1 -1 -2 0 -2 0 -1 -2 -1 0 
-1 -1 -1 0 -1 0 -1 -1 -1 -1 -1 0 -1 -1 -1 -7 
0 -1 0 1 -1 -3 -1 0 -1 0 -1 -1 0 -1 -1 -1 
-1 0 -1 -1 -1 -1 -1 0 -1 0 -1 -1 -1 -1 -1 0 
-1 0 -1 -1 -1 -1 -1 0 -1 -1 0 -2 -2 0 -1 -1 
-1 -1 -1 0 -1 0 -1 0 -1 -1 -1 -1 -1 -1 -2 0 
-1 0 -1 -2 -1 -1 0 -3 -1 -1 -1 -1 0 -2 -1 0 
-1 -1 -1 -1 -1 -1 -1 -1 -1 -1 -1 0 -1 0 -1 -2 
-1 0 -1 -1 -1 0 -1 -1 -1 -1 -1 -1 -1 -1 -1 0 
-1 -1 -1 -4 -1 -1 -1 -2 0 -10 -1 0 -1 0 -1 0 
-1 -1 -1 0 -1 0 -1 -1 -1 0 -1 0 -1 -1 -1 0 
-1 0 -1 0 -1 -1 -1 0 -2 0 -1 0 -1 0 -1 0 
-1 -1 -1 0 -1 0 -1 0 -1 0 -1 0 -1 -1 -1 0 
-1 0 -1 0 -1 -1 -2 0 -1 0 -1 0 -1 -1 -1 0 
-1 -1 -1 0 -1 0 -1 0 -1 0 -1 0 -1 -1 -1 0 
-1 0 -1 0 -1 -1 -1 0 -1 -1 -1 0 0 -1 -2 -2 
-1 0 -1 0 -1 -1 -1 0 -1 -1 -1 0 -1 0 -1 -1 
-1 0 -1 0 -1 -1 4635 1469 300 MP stroke
-1 0 -1 -1 -1 -1 -1 0 -1 0 1 0 -2 -2 -1 -1 
0 -2 -2 -2 -1 0 1 0 -2 -2 0 -1 -1 -1 0 -1 
-1 -1 0 -2 -1 -1 -1 -2 -1 -1 -1 -1 -1 0 0 -2 
-1 0 -1 -1 -1 -1 -1 -1 -1 0 -1 0 1 0 -2 -2 
-1 -1 -1 0 -1 -1 -1 -1 -1 -1 -1 -1 -1 0 -1 -1 
-1 0 -1 -1 -1 0 -1 0 -1 0 -1 -1 -1 0 -1 0 
-1 -1 -1 0 -1 0 -1 0 -1 0 -1 -1 -1 0 -1 0 
-1 -1 -1 0 -1 0 -1 0 -1 -1 -1 0 -1 0 -1 -1 
-1 0 -1 -1 -1 -1 -1 0 -1 -1 -1 0 -1 0 -1 0 
-1 -1 -1 0 -1 0 -1 -1 -1 0 -1 0 -1 -1 -1 0 
-1 0 -1 0 -1 -1 -1 -1 -1 0 -1 -1 -1 0 1 0 
-2 -2 0 -1 -1 -1 -1 -1 0 -1 -1 -3 -1 -1 -1 -1 
0 -2 -1 -1 0 -1 -1 -1 0 -1 -1 -3 0 -2 -1 -1 
-1 -1 -1 -1 -1 0 -1 -1 0 -1 -2 -2 -1 -1 -1 -1 
-1 -1 -1 -1 -1 0 1 0 -2 -2 0 -2 -1 -1 -1 -1 
-1 0 0 -1 -2 -4 0 -1 -1 -1 0 -3 -1 0 0 -10 
-1 -1 0 -2 -1 0 -1 -1 -1 0 -1 0 -1 0 -1 -1 
-1 0 -1 0 -1 0 -1 -1 -1 0 -1 0 -1 0 -1 -1 
-1 0 -1 0 -1 0 -1 -1 -1 0 -1 0 -1 0 -1 0 
-1 0 -1 -1 -1 0 -1 0 -1 0 -1 0 -1 -1 -1 0 
-1 0 -1 0 -1 0 -1 0 -1 0 -1 0 -1 0 -1 -1 
-1 0 -1 0 -1 0 -1 0 -1 -1 -1 0 -1 0 -1 0 
-1 0 -1 0 -1 -1 -1 0 -1 0 -1 0 -1 0 -1 0 
-1 0 -1 -1 -1 0 -1 0 -1 0 -1 -1 -1 0 -1 0 
-1 0 -1 0 -1 0 -1 0 -1 -1 -1 0 -1 0 -1 0 
-1 0 -1 -1 -1 0 -1 0 -1 -1 -1 -1 -1 -1 -1 0 
-1 -1 -1 -1 -1 -1 -1 -1 -1 -1 0 -1 -2 -2 -1 0 
1 0 -2 -2 -1 -1 -1 0 -1 -1 -1 -1 -1 0 -1 -1 
-1 -1 -1 -1 -1 0 -1 -1 -1 0 -1 -1 -1 -1 -1 0 
0 -1 -2 -2 -1 0 -1 -1 -1 0 -1 -1 -1 -1 -1 -1 
-1 -1 0 -15 -1 0 -1 -1 -1 0 -1 -1 -1 -1 -1 0 
-1 -1 -1 -1 -1 -1 -1 0 -1 -1 -1 0 -1 -1 -1 -1 
-1 0 -1 -1 -1 0 -1 0 -1 -1 -1 -1 -1 0 -1 -1 
-1 -1 -1 0 -1 -1 -1 0 -1 0 -1 -1 0 -1 -2 -2 
0 -2 -1 0 -1 -1 -1 -1 -1 -1 0 -2 -2 -2 -1 -1 
-1 -1 0 -2 -1 -1 0 -1 -1 -1 0 -2 -1 -2 0 -1 
-1 -1 0 -1 -1 -1 -1 -1 0 -4 -1 -1 -1 -1 -1 0 
-1 -1 -1 0 -1 -1 4905 1693 300 MP stroke
-1 0 -1 0 -1 -1 -1 0 -1 -1 -1 0 -1 0 -1 -1 
-1 0 -1 -1 -1 0 -1 -1 -1 0 -1 0 -1 -1 -1 0 
-1 -1 -1 0 -1 -1 -1 0 -1 -1 -1 -1 -1 0 -1 0 
-1 -1 -1 0 -1 -1 -1 0 -1 0 -1 -1 -1 0 -1 0 
-1 -1 -1 0 -1 -1 -1 -1 -1 0 -1 0 -1 0 -1 0 
-1 -1 -1 0 -1 0 -1 0 -1 0 -1 0 -1 0 -1 -1 
-1 0 -1 0 -1 0 -1 0 -1 0 -1 0 -1 -1 -1 0 
-1 0 -1 0 -1 0 -1 0 -1 0 -1 -1 -1 0 -1 0 
-1 0 -1 0 -1 0 -1 -1 -1 0 -1 0 -1 0 -1 0 
-1 -1 -1 0 -1 0 -1 0 -1 0 -1 0 -1 -1 -1 0 
-1 0 -1 0 -1 0 -1 0 -1 -1 -1 0 -1 0 -1 0 
-1 0 -1 0 -1 0 -1 -1 -1 0 -1 0 -1 0 -1 0 
-1 -1 -1 0 -1 0 -1 0 -1 0 -1 0 -1 0 -1 -1 
-1 0 -1 0 -1 0 -1 0 -1 0 -1 -1 -1 0 -1 0 
-1 0 -1 0 -1 -1 -1 0 -1 0 -1 0 -1 0 -1 0 
-1 -1 -1 0 -1 0 -1 0 -1 0 -1 0 -1 -1 -1 0 
-1 0 -1 0 -1 0 -1 0 -1 0 -1 -1 -1 0 -1 0 
-1 0 -1 0 -1 0 -1 -1 -1 0 -1 0 -1 0 -1 0 
-1 -1 -1 0 -1 0 -1 0 -1 0 -1 -1 -1 0 -1 0 
-1 -1 -1 0 -1 0 -1 -1 -1 0 -1 0 -1 0 -1 0 
-1 -1 -1 0 -1 0 -1 0 -1 -1 -1 0 -1 0 -1 -1 
-1 0 -1 0 -1 0 -1 -1 -1 0 -1 0 -1 0 -1 -1 
-1 0 -1 0 -1 -1 -1 0 -1 0 -1 0 -1 0 -1 -1 
-1 0 -1 0 -1 -1 -1 0 -1 0 -1 0 -1 -1 -1 0 
-1 0 -1 0 -1 -1 -1 0 -1 0 -1 0 -1 0 -1 -1 
-1 0 -1 0 -1 0 -1 -1 -1 0 -1 0 -1 -1 -1 0 
-1 0 -1 0 -1 -1 -1 0 -1 0 -1 0 -1 -1 -1 0 
-1 0 -1 0 -1 -1 -1 0 -1 0 -1 -1 -1 -1 -1 -1 
0 -1 -2 -2 0 -1 -2 -2 -1 -1 0 -1 -2 -2 -1 -1 
-1 -1 -1 -1 -1 -1 -1 -1 0 -2 -2 -2 0 -1 -1 -1 
0 -2 -2 -2 0 -3 -1 -1 0 -1 -2 -2 0 -3 -1 -1 
0 -1 -1 -1 -1 -1 -1 0 -1 -1 -1 0 -1 -1 -1 0 
-1 -1 -1 0 -1 -1 -1 0 -1 0 -1 -1 -1 0 -1 -1 
-1 0 -1 -1 -1 0 -1 0 -1 0 -1 -1 -1 0 -1 -1 
-1 0 -1 0 -1 -1 -1 0 -1 -1 -1 0 -1 -1 -1 0 
-1 -1 -1 0 -1 -1 -1 0 -1 -1 -1 0 -1 0 -1 0 
-1 -1 -1 0 -1 -1 -1 0 -1 0 -1 -1 -1 0 -1 -1 
-1 0 -1 -1 -1 0 5200 1808 300 MP stroke
-1 0 -1 -1 -1 0 -1 -1 0 -1 -2 -2 0 -2 -1 -1 
0 -2 -2 -2 0 -2 -2 -2 0 -1 -2 -2 0 -1 -2 -2 
0 -2 -1 -1 -1 0 -1 -1 -1 0 -1 -1 -1 0 -1 -1 
-1 -1 -1 0 -1 -1 -1 0 -1 -1 -1 0 -1 -1 -1 0 
-1 0 -1 -1 -1 -1 -1 0 -1 -1 -1 0 -1 -1 -1 0 
-1 -1 -1 0 -1 -1 -1 0 -1 -1 -1 0 -1 -1 -1 -1 
-1 -1 -1 0 -1 -1 -1 0 -1 0 -1 -1 -1 0 -1 -1 
-1 0 -1 -1 -1 -1 -1 -1 -1 0 0 -4 -1 -3 0 -7 
-1 -1 0 -7 -1 -3 0 -3 -1 -1 0 -2 -1 -1 0 -3 
-1 -1 0 -2 -1 -1 0 -2 -1 -1 0 -4 -1 -1 0 -4 
-2 -2 -1 0 -1 -1 -1 0 -1 -1 -1 0 -1 0 -1 -1 
-1 -1 -1 0 -1 0 -1 -1 -1 0 -1 0 -1 -1 -1 0 
-1 -1 -1 0 -1 -1 -1 0 -1 0 -1 -1 -1 0 -1 0 
-1 -1 -1 0 -1 -1 -1 0 -1 -1 -1 0 -1 -1 -1 0 
-1 -1 -1 0 -1 -1 -1 0 -1 -1 -1 0 -1 -1 -1 0 
-1 0 -1 -1 -1 0 -1 -1 -1 0 -1 -1 -1 0 -1 -1 
-1 0 -1 0 -1 -1 -1 0 -1 -1 -1 0 -1 0 -1 -1 
-1 0 -1 -1 -1 0 -1 -1 -1 0 -1 0 -1 -1 -1 0 
-1 -1 -1 0 -1 -1 -1 0 1 0 -2 -2 -1 -1 -1 0 
1 0 -2 -2 -1 -1 -1 -1 -1 -1 -1 -1 -1 -1 -1 -1 
-1 -1 -1 -1 -1 -1 -1 -1 0 -1 -2 -2 -1 -1 0 -1 
-2 -2 -1 -1 -1 -1 -1 -1 0 -1 -2 -2 -1 -1 -1 -1 
-1 -1 0 -2 -2 -2 -1 -1 -1 -1 0 -2 -2 -2 -1 -1 
0 -2 -2 -2 -1 -1 0 -2 -2 -2 0 -1 -2 -2 0 -2 
-2 -2 0 -2 -2 -2 0 -7 -1 -3 0 -12 -1 -2 0 -14 
-1 -1 0 -4 -1 -1 0 -4 -1 -1 0 -4 -1 -1 0 -3 
-1 -3 0 -9 -1 -1 0 -2 -1 -1 0 -1 -2 -2 -1 0 
-1 -1 -1 -1 -1 -1 -1 0 1 0 -2 -2 -1 -1 -1 0 
-1 -1 -1 -1 -1 -1 -1 -1 -1 -1 -1 0 -1 -1 -1 -1 
-1 -1 -1 -1 -1 -1 -1 -1 -1 -1 -1 -1 -1 -1 -1 0 
-1 -1 -1 -1 -1 -1 -1 -1 -1 -1 -1 -1 -1 -1 -1 -1 
-1 -1 -1 0 -1 -1 -1 -1 -1 -1 -1 -1 -1 -1 -1 -1 
-1 -1 -1 -1 0 -1 -2 -2 0 -4 -2 -2 0 -2 -1 -1 
0 -2 -1 -1 0 -2 -1 -1 0 -3 -1 -1 0 -2 -1 -1 
0 -2 -1 -1 0 -2 -1 -1 0 -2 -1 -1 0 -3 -1 -1 
0 -4 -1 -1 0 -2 -1 -1 -1 -1 -1 0 -1 -1 -1 -1 
-1 -1 -1 -1 -1 0 -1 -1 -1 -1 -1 0 -1 -1 -1 -1 
-1 0 1 0 -2 -2 5464 2170 300 MP stroke
-1 -1 -1 0 -1 -1 -1 -1 -1 -1 -1 0 -1 -1 -1 -1 
-1 -1 -1 0 -1 -1 -1 -1 -1 -1 -1 -1 -1 -1 -1 -1 
-1 0 -1 -1 -1 -1 -1 -1 -1 0 -1 -1 -1 -1 -1 -1 
-1 -1 -1 -1 -1 -1 -1 0 -1 -1 -1 -1 -1 -1 -1 -1 
-1 -1 -1 -1 -1 -1 -1 -1 -1 -1 -1 0 -1 -1 -1 -1 
-1 -1 -1 -1 -1 -1 -1 -1 -1 -1 -1 -1 0 -1 -2 -2 
-1 -1 0 -2 -2 -2 0 -1 -2 -2 0 -1 -2 -2 0 -1 
-2 -2 0 -1 -2 -2 0 -1 -2 -2 0 -2 -2 -2 0 -1 
-2 -2 0 -2 -2 -2 0 -2 -2 -2 0 -2 -2 -2 0 -2 
-2 -2 0 -1 -2 -2 0 -2 -1 -1 -1 -1 0 -2 -1 -1 
0 -4 -1 -1 0 -3 -1 -1 0 -3 -1 -1 0 -4 -1 -1 
0 -4 -1 -1 0 -4 -1 -1 0 -4 -1 -1 0 -4 -1 -1 
0 -4 -1 -1 0 -4 -1 -1 0 -4 -1 -1 0 -4 -1 -1 
0 -6 -1 -1 0 -10 -1 -1 0 -10 -1 -1 0 -12 -1 -1 
0 -13 -1 -1 0 -12 -1 -1 0 -7 -1 -1 -1 -1 -1 -1 
-1 -1 -1 -1 -1 -1 0 -2 -2 -2 0 -1 -2 -2 -1 -1 
0 -1 -2 -2 -1 -1 0 -1 -2 -2 -1 -1 -1 -1 0 -1 
-2 -2 -1 -1 -1 -1 0 -1 -2 -2 -1 -1 -1 -1 0 -2 
-2 -2 0 -1 -2 -2 -1 -1 0 -1 -2 -2 -1 -1 0 -1 
-2 -2 0 -1 -2 -2 0 -1 -2 -2 -1 -1 -1 -1 0 -1 
-2 -2 -1 -1 0 -2 -2 -2 0 -1 -2 -2 0 -1 -2 -2 
0 -1 -2 -2 0 -1 -2 -2 0 -1 -2 -2 0 -1 -2 -2 
0 -1 -2 -2 0 -1 -2 -2 -1 0 1 0 -2 -2 -1 -1 
0 -1 -2 -2 -1 -1 0 -1 -2 -2 -1 -1 -1 -1 0 -1 
-2 -2 -1 -1 -1 -1 -1 -1 0 -1 -2 -2 -1 -1 -1 -1 
0 -1 -2 -2 0 -1 -2 -2 0 -1 -2 -2 -1 -1 0 -1 
-2 -2 0 -1 -2 -2 -1 -1 0 -1 -2 -2 0 -1 -2 -2 
-1 -1 -1 -1 0 -2 -2 -2 0 -1 -2 -2 0 -1 -2 -2 
0 -1 -2 -2 0 -1 -2 -2 0 -1 -2 -2 -1 -1 0 -2 
-2 -2 0 -1 -2 -2 0 -1 -2 -2 0 -1 -2 -2 0 -1 
-2 -2 0 -1 -2 -2 -1 -1 0 -2 -2 -2 0 -1 -2 -2 
-1 -1 0 -2 -2 -2 0 -1 -2 -2 -1 -1 -1 -1 -1 -1 
-1 -1 -1 0 -1 -1 -1 -1 -1 -1 -1 0 -1 -1 -1 -1 
-1 0 -1 -1 -1 -1 -1 -1 -1 0 -1 -1 -1 -1 -1 -1 
-1 0 -1 -1 -1 -1 -1 -1 -1 -1 -1 0 -1 -1 -1 -1 
-1 -1 -1 0 -1 -1 -1 -1 -1 -1 -1 0 -1 -1 -1 -1 
-1 -1 -1 -1 -1 0 -1 -1 -1 -1 -1 -1 -1 -1 -1 0 
-1 -1 -1 -1 -1 -1 5741 2626 300 MP stroke
-1 -1 -1 -1 -1 0 -1 -1 -1 -1 -1 -1 -1 -1 -1 -1 
-1 0 -1 -1 -1 -1 -1 -1 -1 -1 -1 -1 -1 -1 -1 -1 
-1 -1 -1 -1 -1 -1 -1 -1 -1 0 -1 -1 -1 -1 -1 -1 
-1 -1 -1 -1 -1 -1 -1 -1 -1 0 -1 -1 -1 -1 -1 -1 
-1 -1 -1 -1 -1 -1 -1 -1 -1 -1 -1 -1 -1 -1 -1 -1 
-1 -1 -1 -1 -1 -1 -1 -1 -1 -1 -1 -1 -1 -1 -1 -1 
-1 -1 -1 -1 -1 -1 -1 -1 -1 -1 -1 -1 -1 -1 -1 -1 
-1 -1 0 -1 -2 -2 -1 -1 -1 -1 -1 -1 -1 -1 -1 -1 
-1 -1 -1 -1 -1 -1 -1 -1 -1 -1 -1 -1 -1 -1 -1 -1 
0 -1 -2 -2 -1 -1 -1 -1 -1 -1 -1 -1 -1 -1 0 -1 
-2 -2 -1 -1 -1 -1 -1 -1 -1 -1 0 -1 -2 -2 -1 -1 
-1 -1 -1 -1 -1 -1 0 -1 -2 -2 -1 -1 -1 -1 0 -1 
-2 -2 -1 -1 0 -2 -1 -1 0 -7 -1 -1 0 -9 -1 -1 
0 -7 -1 -1 0 -7 -1 -1 0 -8 -1 -1 0 -7 -1 -1 
0 -8 -1 -1 0 -8 -1 -1 0 -8 -1 -1 0 -10 -1 -1 
0 -9 -1 -1 0 -7 -1 -1 0 -10 -1 -1 0 -10 -1 -1 
0 -10 -1 -1 0 -11 -1 -1 0 -11 -1 -1 0 -11 -1 -1 
0 -12 -1 -1 -1 0 -1 -1 -1 0 -1 -1 -1 0 -1 -1 
-1 -1 -1 0 -1 -1 -1 -1 -1 0 -1 -1 -1 0 -1 -1 
-1 -1 -1 0 -1 -1 -1 0 -1 -1 -1 -1 -1 0 -1 -1 
-1 -1 -1 0 -1 -1 -1 0 -1 -1 -1 -1 -1 0 -1 -1 
-1 -1 -1 0 -1 -1 -1 -1 -1 0 -1 -1 -1 -1 -1 0 
-1 -1 -1 -1 -1 0 -1 -1 -1 0 -1 -1 -1 -1 -1 -1 
-1 0 -1 -1 -1 -1 -1 0 -1 -1 -1 -1 -1 0 -1 -1 
-1 -1 -1 -1 -1 0 -1 -1 -1 -1 -1 -1 -1 0 -1 -1 
-1 -1 -1 -1 -1 0 -1 -1 -1 -1 -1 -1 -1 0 -1 -1 
-1 -1 -1 -1 -1 0 -1 -1 -1 -1 -1 -1 -1 0 -1 -1 
-1 -1 -1 -1 -1 -1 -1 0 -1 -1 -1 -1 -1 -1 -1 -1 
-1 0 -1 -1 -1 -1 -1 -1 -1 -1 -1 -1 -1 0 -1 -1 
-1 -1 -1 -1 -1 -1 -1 -1 -1 -1 -1 -1 -1 -1 -1 -1 
-1 0 -1 -1 -1 -1 -1 -1 -1 -1 -1 -1 -1 -1 -1 -1 
-1 -1 -1 -1 -1 0 -1 -1 -1 -1 -1 -1 -1 -1 -1 -1 
-1 -1 -1 -1 -1 -1 -1 -1 -1 -1 -1 -1 -1 -1 -1 -1 
-1 -1 -1 -1 -1 -1 -1 -1 -1 -1 -1 -1 -1 -1 -1 -1 
-1 -1 -1 -1 -1 -1 -1 -1 -1 -1 -1 -1 -1 -1 0 -1 
-2 -2 -1 -1 -1 -1 -1 -1 -1 -1 -1 -1 0 -1 -2 -2 
-1 -1 -1 -1 -1 -1 0 -1 -2 -2 -1 -1 -1 -1 -1 -1 
0 -1 -2 -2 0 -1 6019 3052 300 MP stroke
-2 -2 -1 -1 -1 -1 -1 -1 0 -1 -2 -2 -1 -1 0 -1 
-2 -2 0 -1 -2 -2 0 -1 -2 -2 -1 -1 0 -1 -2 -2 
0 -1 -2 -2 -1 -1 0 -1 -2 -2 0 -1 -2 -2 -1 -1 
0 -1 -2 -2 -1 -1 0 -2 -2 -2 -1 -1 0 -2 -2 -2 
0 -1 -2 -2 -1 -1 0 -2 -2 -2 -1 -1 0 -2 -2 -2 
-1 -1 0 -2 -2 -2 0 -1 -2 -2 0 -2 -2 -2 0 -1 
-2 -2 0 -2 -2 -2 0 -2 -2 -2 0 -2 -2 -2 0 -2 
-2 -2 0 -2 -2 -2 -1 -1 0 -2 -2 -2 0 -2 -1 -1 
0 -2 -2 -2 0 -2 -1 -1 0 -2 -2 -2 0 -3 -2 -2 
0 -2 -1 -1 0 -2 -2 -2 0 -3 -2 -2 0 -3 -2 -2 
0 -3 -2 -2 0 -2 -1 -1 0 -3 -2 -2 0 -2 -1 -1 
0 -3 -2 -2 0 -2 -1 -1 0 -2 -1 -1 0 -2 -1 -1 
0 -2 -1 -1 0 -2 -1 -1 0 -2 -1 -1 0 -2 -1 -1 
0 -2 -1 -1 0 -2 -1 -1 0 -2 -1 -1 0 -3 -1 -1 
0 -1 -1 -1 6117 3244 115 MP stroke
DA
24 w
/c9 { 1.000000 0.000000 0.000000 sr} bdef
c9
-2 0 -23 -2 -22 -2 -22 -2 -22 -1 -22 -2 -22 -2 -22 -2 
-22 -2 -22 -2 -22 -1 -22 -2 -21 -2 -22 -2 -22 -2 -21 -2 
-22 -3 -22 -2 -21 -2 -22 -2 -21 -2 -22 -2 -21 -3 -21 -2 
-22 -2 -21 -2 -21 -3 -21 -2 -22 -2 -21 -3 -21 -2 -21 -3 
-21 -2 -21 -3 -21 -2 -21 -3 -20 -2 -21 -3 -21 -2 -21 -3 
-20 -3 -21 -2 -21 -3 -20 -3 -21 -2 -20 -3 -21 -3 -20 -3 
-20 -2 -21 -3 -20 -3 -20 -3 -20 -3 -20 -3 -20 -2 -20 -3 
-20 -3 -20 -3 -20 -3 -20 -3 -20 -3 -20 -3 -20 -3 -19 -3 
-20 -3 -20 -3 -19 -3 -20 -4 -19 -3 -20 -3 -19 -3 -19 -3 
-20 -3 -19 -4 -19 -3 -19 -3 -19 -4 -20 -3 -19 -3 -19 -4 
-19 -3 -18 -4 -19 -3 -19 -4 -19 -4 -19 -3 -18 -4 -19 -4 
-18 -3 -19 -4 -18 -4 -19 -4 -18 -4 -19 -3 -18 -4 -18 -4 
-18 -4 -19 -4 -18 -4 -18 -4 -18 -5 -18 -4 -18 -4 -18 -4 
-17 -4 -18 -5 -18 -4 -18 -4 -17 -4 -18 -5 -17 -4 -18 -5 
-17 -4 -18 -4 -17 -5 -18 -4 -17 -5 -17 -4 -17 -5 -17 -5 
-17 -4 -17 -5 -17 -5 -17 -5 -17 -5 -17 -5 -17 -5 -16 -5 
-17 -6 -17 -5 -16 -6 -17 -5 -16 -6 -17 -5 -16 -6 -16 -5 
-17 -6 -16 -5 -16 -6 -16 -5 -16 -6 -16 -5 -16 -6 -16 -5 
-16 -6 -16 -5 -16 -6 -15 -5 -16 -6 -16 -5 -15 -6 -16 -5 
-15 -6 -16 -5 -15 -6 -15 -5 -16 -6 -15 -5 -15 -6 -15 -5 
-15 -6 -15 -5 -15 -6 -15 -6 -15 -5 -15 -6 -15 -5 -14 -6 
-15 -6 -15 -5 -14 -6 -15 -6 -14 -5 -14 -6 -15 -6 -14 -6 
-14 -5 -14 -6 -15 -6 -14 -6 -14 -6 -14 -6 -14 -6 -13 -6 
-14 -6 -14 -6 -14 -7 -13 -6 -14 -6 -13 -6 -14 -7 -13 -6 
-14 -7 -13 -6 -13 -7 -14 -6 -13 -7 -13 -6 -13 -7 -13 -7 
-13 -6 -13 -7 -13 -7 -13 -7 -12 -7 -13 -7 -13 -6 -12 -7 
-13 -7 -12 -7 -13 -7 -12 -7 -12 -7 -13 -8 -12 -7 -12 -7 
-12 -7 -12 -7 -12 -7 -12 -7 -12 -7 -12 -8 -12 -7 -11 -7 
-12 -7 -12 -7 -11 -8 -12 -7 -11 -7 -12 -7 -11 -8 -11 -7 
-11 -7 -12 -7 -11 -8 -11 -7 -11 -7 -11 -7 -11 -8 -11 -7 
-10 -7 -11 -8 -11 -7 -11 -7 -10 -7 -11 -8 -10 -7 -11 -8 
-10 -7 -10 -7 -11 -8 -10 -7 -10 -8 -10 -7 -10 -8 -10 -7 
-10 -8 -10 -8 -10 -7 -10 -8 -9 -8 -10 -8 -10 -7 -9 -8 
-10 -8 -9 -8 -10 -8 -9 -9 -9 -8 -9 -8 -10 -8 -9 -9 
-9 -8 -9 -8 -9 -9 -9 -9 -9 -8 -8 -9 -9 -9 -9 -8 
-9 -9 -8 -9 -9 -9 -8 -9 -9 -9 -8 -8 -8 -9 -9 -9 
-8 -9 -8 -9 -8 -9 -8 -9 -8 -9 -8 -9 -8 -9 -8 -9 
-8 -9 -8 -9 -7 -9 5481 2107 300 MP stroke
-8 -9 -8 -9 -7 -9 -8 -9 -7 -9 -8 -9 -7 -9 -7 -9 
-8 -8 -7 -9 -7 -9 -7 -9 -7 -9 -7 -8 -7 -9 -7 -9 
-7 -9 -7 -8 -6 -9 -7 -9 -7 -9 -6 -9 -7 -8 -6 -9 
-7 -9 -6 -9 -6 -8 -7 -9 -6 -9 -6 -9 -6 -9 -6 -9 
-7 -9 -6 -9 -5 -8 -6 -9 -6 -9 -6 -9 -6 -9 -6 -9 
-5 -9 -6 -9 -5 -9 -6 -10 -5 -9 -6 -9 -5 -9 -6 -9 
-5 -9 -5 -9 -5 -9 -6 -10 -5 -9 -5 -9 -5 -9 -5 -10 
-5 -9 -5 -9 -5 -10 -4 -9 -5 -9 -5 -10 -4 -9 -5 -9 
-5 -10 -4 -9 -5 -10 -4 -9 -5 -10 -4 -9 -4 -10 -5 -9 
-4 -10 -4 -9 -4 -10 -4 -9 -4 -10 -4 -10 -4 -9 -4 -10 
-4 -9 -4 -10 -4 -10 -4 -9 -4 -10 -3 -10 -4 -9 -4 -10 
-3 -10 -4 -10 -3 -9 -4 -10 -3 -10 -4 -10 -3 -10 -3 -9 
-4 -10 -3 -10 -3 -10 -3 -10 -4 -10 -3 -9 -3 -10 -3 -10 
-3 -10 -3 -10 -3 -10 -3 -10 -3 -10 -2 -10 -3 -10 -3 -10 
-3 -10 -3 -10 -2 -10 -3 -10 -2 -10 -3 -10 -3 -10 -2 -10 
-3 -10 -2 -10 -3 -10 -2 -10 -2 -10 -3 -10 -2 -10 -2 -10 
-2 -10 -3 -10 -2 -11 -2 -10 -2 -10 -2 -10 -2 -10 -2 -10 
-2 -11 -2 -10 -2 -10 -2 -10 -2 -10 -2 -11 -2 -10 -2 -10 
-2 -10 -1 -11 -2 -10 -2 -10 -2 -10 -1 -11 -2 -10 -2 -10 
-1 -11 -2 -10 -1 -10 -2 -11 -1 -10 -2 -10 -1 -11 -2 -10 
-1 -10 -2 -11 -1 -10 -1 -11 -2 -10 -1 -10 -1 -11 -2 -10 
-1 -11 -1 -10 -1 -11 -2 -10 -1 -11 -1 -10 -1 -11 -1 -10 
-1 -11 -1 -10 -1 -11 -2 -10 -1 -11 -1 -11 -1 -10 -1 -11 
-1 -10 -1 -11 0 -11 -1 -10 -1 -11 -1 -11 -1 -10 -1 -11 
-1 -11 -1 -10 0 -11 -1 -11 -1 -10 -1 -11 -1 -11 0 -11 
-1 -10 -1 -11 -1 -11 0 -11 -1 -10 -1 -11 0 -11 -1 -11 
-1 -11 0 -11 -1 -10 0 -11 -1 -11 -1 -11 0 -11 -1 -11 
0 -11 -1 -11 0 -11 -1 -11 0 -11 -1 -10 0 -11 -1 -11 
0 -11 -1 -11 0 -12 -1 -11 0 -11 -1 -11 0 -22 -1 -11 
0 -11 -1 -11 0 -22 -1 -12 0 -22 -1 -11 0 -23 -1 -11 
0 -22 -1 -11 0 -23 -1 -11 0 -7 6213 4617 246 MP stroke
SO
6 w
gr

c9
1 sg
0 500 1028 0 0 -500 5172 949 4 MP
PP
-1028 0 0 500 1028 0 0 -500 5172 949 5 MP stroke
4 w
DO
SO
6 w
0 sg
5172  449 mt 6200  449 L
5172  949 mt 6200  949 L
6200  949 mt 6200  449 L
5172  949 mt 5172  449 L
5172  949 mt 6200  949 L
5172  949 mt 5172  449 L
5172  449 mt 6200  449 L
5172  949 mt 6200  949 L
6200  949 mt 6200  449 L
5172  949 mt 5172  449 L
%%IncludeResource: font Helvetica
/Helvetica /WindowsLatin1Encoding 192 FMSR

5629  652 mt 
(data) s
gs 5172 449 1029 501 rc
c8
351 0 5242 583 2 MP stroke
gr

c8
0 sg
5629  883 mt 
(model) s
gs 5172 449 1029 501 rc
DA
24 w
c9
351 0 5242 814 2 MP stroke
SO
6 w
gr

c9

end %%Color Dict

eplot
%%EndObject

epage
end

showpage

%%Trailer
%%EOF
