%!PS-Adobe-3.0 EPSF-3.0
%%Creator: MATLAB, The Mathworks, Inc.
%%Title: Pictures\tata.eps
%%CreationDate: 05/18/2008  05:38:50
%%DocumentNeededFonts: Helvetica
%%DocumentProcessColors: Cyan Magenta Yellow Black
%%LanguageLevel: 2
%%Pages: 1
%%BoundingBox:    22   215   543   612
%%EndComments

%%BeginProlog
% MathWorks dictionary
/MathWorks 160 dict begin
% definition operators
/bdef {bind def} bind def
/ldef {load def} bind def
/xdef {exch def} bdef
/xstore {exch store} bdef
% operator abbreviations
/c  /clip ldef
/cc /concat ldef
/cp /closepath ldef
/gr /grestore ldef
/gs /gsave ldef
/mt /moveto ldef
/np /newpath ldef
/cm /currentmatrix ldef
/sm /setmatrix ldef
/rm /rmoveto ldef
/rl /rlineto ldef
/s {show newpath} bdef
/sc {setcmykcolor} bdef
/sr /setrgbcolor ldef
/sg /setgray ldef
/w /setlinewidth ldef
/j /setlinejoin ldef
/cap /setlinecap ldef
/rc {rectclip} bdef
/rf {rectfill} bdef
% page state control
/pgsv () def
/bpage {/pgsv save def} bdef
/epage {pgsv restore} bdef
/bplot /gsave ldef
/eplot {stroke grestore} bdef
% orientation switch
/portraitMode 0 def /landscapeMode 1 def /rotateMode 2 def
% coordinate system mappings
/dpi2point 0 def
% font control
/FontSize 0 def
/FMS {/FontSize xstore findfont [FontSize 0 0 FontSize neg 0 0]
  makefont setfont} bdef
/ISOLatin1Encoding where {pop /WindowsLatin1Encoding 256 array bdef
ISOLatin1Encoding WindowsLatin1Encoding copy pop
/.notdef/.notdef/quotesinglbase/florin/quotedblbase/ellipsis/dagger
/daggerdbl/circumflex/perthousand/Scaron/guilsinglleft/OE/.notdef/.notdef
/.notdef/.notdef/quoteleft/quoteright/quotedblleft/quotedblright/bullet
/endash/emdash/tilde/trademark/scaron/guilsinglright/oe/.notdef/.notdef
/Ydieresis WindowsLatin1Encoding 128 32 getinterval astore pop}
{/WindowsLatin1Encoding StandardEncoding bdef} ifelse
/reencode {exch dup where {pop load} {pop StandardEncoding} ifelse
  exch dup 3 1 roll findfont dup length dict begin
  { 1 index /FID ne {def}{pop pop} ifelse } forall
  /Encoding exch def currentdict end definefont pop} bdef
/isroman {findfont /CharStrings get /Agrave known} bdef
/FMSR {3 1 roll 1 index dup isroman {reencode} {pop pop} ifelse
  exch FMS} bdef
/csm {1 dpi2point div -1 dpi2point div scale neg translate
 dup landscapeMode eq {pop -90 rotate}
  {rotateMode eq {90 rotate} if} ifelse} bdef
% line types: solid, dotted, dashed, dotdash
/SO { [] 0 setdash } bdef
/DO { [.5 dpi2point mul 4 dpi2point mul] 0 setdash } bdef
/DA { [6 dpi2point mul] 0 setdash } bdef
/DD { [.5 dpi2point mul 4 dpi2point mul 6 dpi2point mul 4
  dpi2point mul] 0 setdash } bdef
% macros for lines and objects
/L {lineto stroke} bdef
/MP {3 1 roll moveto 1 sub {rlineto} repeat} bdef
/AP {{rlineto} repeat} bdef
/PDlw -1 def
/W {/PDlw currentlinewidth def setlinewidth} def
/PP {closepath eofill} bdef
/DP {closepath stroke} bdef
/MR {4 -2 roll moveto dup  0 exch rlineto exch 0 rlineto
  neg 0 exch rlineto closepath} bdef
/FR {MR stroke} bdef
/PR {MR fill} bdef
/L1i {{currentfile picstr readhexstring pop} image} bdef
/tMatrix matrix def
/MakeOval {newpath tMatrix currentmatrix pop translate scale
0 0 1 0 360 arc tMatrix setmatrix} bdef
/FO {MakeOval stroke} bdef
/PO {MakeOval fill} bdef
/PD {currentlinewidth 2 div 0 360 arc fill
   PDlw -1 eq not {PDlw w /PDlw -1 def} if} def
/FA {newpath tMatrix currentmatrix pop translate scale
  0 0 1 5 -2 roll arc tMatrix setmatrix stroke} bdef
/PA {newpath tMatrix currentmatrix pop	translate 0 0 moveto scale
  0 0 1 5 -2 roll arc closepath tMatrix setmatrix fill} bdef
/FAn {newpath tMatrix currentmatrix pop translate scale
  0 0 1 5 -2 roll arcn tMatrix setmatrix stroke} bdef
/PAn {newpath tMatrix currentmatrix pop translate 0 0 moveto scale
  0 0 1 5 -2 roll arcn closepath tMatrix setmatrix fill} bdef
/vradius 0 def /hradius 0 def /lry 0 def
/lrx 0 def /uly 0 def /ulx 0 def /rad 0 def
/MRR {/vradius xdef /hradius xdef /lry xdef /lrx xdef /uly xdef
  /ulx xdef newpath tMatrix currentmatrix pop ulx hradius add uly
  vradius add translate hradius vradius scale 0 0 1 180 270 arc 
  tMatrix setmatrix lrx hradius sub uly vradius add translate
  hradius vradius scale 0 0 1 270 360 arc tMatrix setmatrix
  lrx hradius sub lry vradius sub translate hradius vradius scale
  0 0 1 0 90 arc tMatrix setmatrix ulx hradius add lry vradius sub
  translate hradius vradius scale 0 0 1 90 180 arc tMatrix setmatrix
  closepath} bdef
/FRR {MRR stroke } bdef
/PRR {MRR fill } bdef
/MlrRR {/lry xdef /lrx xdef /uly xdef /ulx xdef /rad lry uly sub 2 div def
  newpath tMatrix currentmatrix pop ulx rad add uly rad add translate
  rad rad scale 0 0 1 90 270 arc tMatrix setmatrix lrx rad sub lry rad
  sub translate rad rad scale 0 0 1 270 90 arc tMatrix setmatrix
  closepath} bdef
/FlrRR {MlrRR stroke } bdef
/PlrRR {MlrRR fill } bdef
/MtbRR {/lry xdef /lrx xdef /uly xdef /ulx xdef /rad lrx ulx sub 2 div def
  newpath tMatrix currentmatrix pop ulx rad add uly rad add translate
  rad rad scale 0 0 1 180 360 arc tMatrix setmatrix lrx rad sub lry rad
  sub translate rad rad scale 0 0 1 0 180 arc tMatrix setmatrix
  closepath} bdef
/FtbRR {MtbRR stroke } bdef
/PtbRR {MtbRR fill } bdef
/stri 6 array def /dtri 6 array def
/smat 6 array def /dmat 6 array def
/tmat1 6 array def /tmat2 6 array def /dif 3 array def
/asub {/ind2 exch def /ind1 exch def dup dup
  ind1 get exch ind2 get sub exch } bdef
/tri_to_matrix {
  2 0 asub 3 1 asub 4 0 asub 5 1 asub
  dup 0 get exch 1 get 7 -1 roll astore } bdef
/compute_transform {
  dmat dtri tri_to_matrix tmat1 invertmatrix 
  smat stri tri_to_matrix tmat2 concatmatrix } bdef
/ds {stri astore pop} bdef
/dt {dtri astore pop} bdef
/db {2 copy /cols xdef /rows xdef mul dup 3 mul string
  currentfile 
  3 index 0 eq {/ASCIIHexDecode filter}
  {/ASCII85Decode filter 3 index 2 eq {/RunLengthDecode filter} if }
  ifelse exch readstring pop
  dup 0 3 index getinterval /rbmap xdef
  dup 2 index dup getinterval /gbmap xdef
  1 index dup 2 mul exch getinterval /bbmap xdef pop pop}bdef
/it {gs np dtri aload pop moveto lineto lineto cp c
  cols rows 8 compute_transform 
  rbmap gbmap bbmap true 3 colorimage gr}bdef
/il {newpath moveto lineto stroke}bdef
currentdict end def
%%EndProlog

%%BeginSetup
MathWorks begin

0 cap

end
%%EndSetup

%%Page: 1 1
%%BeginPageSetup
%%PageBoundingBox:    22   215   543   612
MathWorks begin
bpage
%%EndPageSetup

%%BeginObject: obj1
bplot

/dpi2point 12 def
portraitMode 0216 7344 csm

   57    -1  6254  4763 rc
85 dict begin %Colortable dictionary
/c0 { 0.000000 0.000000 0.000000 sr} bdef
/c1 { 1.000000 1.000000 1.000000 sr} bdef
/c2 { 0.900000 0.000000 0.000000 sr} bdef
/c3 { 0.000000 0.820000 0.000000 sr} bdef
/c4 { 0.000000 0.000000 0.800000 sr} bdef
/c5 { 0.910000 0.820000 0.320000 sr} bdef
/c6 { 1.000000 0.260000 0.820000 sr} bdef
/c7 { 0.000000 0.820000 0.820000 sr} bdef
c0
1 j
1 sg
   0    0 6919 5187 rf
6 w
0 1769 2063 0 0 -1769 1152 2158 4 MP
PP
-2063 0 0 1769 2063 0 0 -1769 1152 2158 5 MP stroke
4 w
DO
SO
6 w
0 sg
1152  389 mt 3215  389 L
1152 2158 mt 3215 2158 L
3215 2158 mt 3215  389 L
1152 2158 mt 1152  389 L
1152 2158 mt 3215 2158 L
1152 2158 mt 1152  389 L
1152 2158 mt 1152 2137 L
1152  389 mt 1152  409 L
%%IncludeResource: font Helvetica
/Helvetica /WindowsLatin1Encoding 120 FMSR

1119 2303 mt 
(0) s
1785 2158 mt 1785 2137 L
1785  389 mt 1785  409 L
1719 2303 mt 
(50) s
2419 2158 mt 2419 2137 L
2419  389 mt 2419  409 L
2319 2303 mt 
(100) s
3052 2158 mt 3052 2137 L
3052  389 mt 3052  409 L
2952 2303 mt 
(150) s
1152 2103 mt 1172 2103 L
3215 2103 mt 3194 2103 L
 317 2147 mt 
(\(F,DCTs,GMM\)) s
1152 1965 mt 1172 1965 L
3215 1965 mt 3194 1965 L
 314 2009 mt 
(\(F,DCTb,GMM\)) s
1152 1826 mt 1172 1826 L
3215 1826 mt 3194 1826 L
 290 1870 mt 
(\(S,LFCC,GMM\)) s
1152 1688 mt 1172 1688 L
3215 1688 mt 3194 1688 L
 375 1732 mt 
(\(S,PAC,GMM\)) s
1152 1550 mt 1172 1550 L
3215 1550 mt 3194 1550 L
 357 1594 mt 
(\(S,SSC,GMM\)) s
1152 1411 mt 1172 1411 L
3215 1411 mt 3194 1411 L
 364 1455 mt 
(\(F,DCTs,MLP\)) s
1152 1273 mt 1172 1273 L
3215 1273 mt 3194 1273 L
 337 1317 mt 
(\(F,DCTs,iMLP\)) s
1152 1135 mt 1172 1135 L
3215 1135 mt 3194 1135 L
 360 1179 mt 
(\(F,DCTb,MLP\)) s
1152  996 mt 1172  996 L
3215  996 mt 3194  996 L
 334 1040 mt 
(\(F,DCTb,iMLP\)) s
1152  858 mt 1172  858 L
3215  858 mt 3194  858 L
 314  902 mt 
(\(F,DCTb,GMM\)) s
1152  720 mt 1172  720 L
3215  720 mt 3194  720 L
 290  764 mt 
(\(S,LFCC,GMM\)) s
1152  581 mt 1172  581 L
3215  581 mt 3194  581 L
 375  625 mt 
(\(S,PAC,GMM\)) s
1152  443 mt 1172  443 L
3215  443 mt 3194  443 L
 357  487 mt 
(\(S,SSC,GMM\)) s
1152  389 mt 3215  389 L
1152 2158 mt 3215 2158 L
3215 2158 mt 3215  389 L
1152 2158 mt 1152  389 L
gs 1152 389 2064 1770 rc
/c8 { 0.000000 0.000000 0.562500 sr} bdef
c8
0 0 0 -7 0 0 1152 2158 4 MP
PP
0 sg
0 7 0 0 0 -7 0 0 1152 2158 5 MP stroke
c8
0 0 0 -7 0 0 1152 2019 4 MP
PP
0 sg
0 7 0 0 0 -7 0 0 1152 2019 5 MP stroke
c8
0 0 0 -7 0 0 1152 1881 4 MP
PP
0 sg
0 7 0 0 0 -7 0 0 1152 1881 5 MP stroke
c8
0 0 0 -6 0 0 1152 1742 4 MP
PP
0 sg
0 6 0 0 0 -6 0 0 1152 1742 5 MP stroke
c8
0 0 0 -7 0 0 1152 1604 4 MP
PP
0 sg
0 7 0 0 0 -7 0 0 1152 1604 5 MP stroke
c8
0 0 0 -7 0 0 1152 1466 4 MP
PP
0 sg
0 7 0 0 0 -7 0 0 1152 1466 5 MP stroke
c8
0 0 0 -6 0 0 1152 1327 4 MP
PP
0 sg
0 6 0 0 0 -6 0 0 1152 1327 5 MP stroke
c8
0 0 0 -7 0 0 1152 1189 4 MP
PP
0 sg
0 7 0 0 0 -7 0 0 1152 1189 5 MP stroke
c8
0 0 0 -7 0 0 1152 1051 4 MP
PP
0 sg
0 7 0 0 0 -7 0 0 1152 1051 5 MP stroke
c8
0 0 0 -6 0 0 1152 912 4 MP
PP
0 sg
0 6 0 0 0 -6 0 0 1152 912 5 MP stroke
c8
0 0 0 -7 0 0 1152 774 4 MP
PP
0 sg
0 7 0 0 0 -7 0 0 1152 774 5 MP stroke
c8
0 0 0 -7 0 0 1152 636 4 MP
PP
0 sg
0 7 0 0 0 -7 0 0 1152 636 5 MP stroke
c8
0 0 0 -6 0 0 1152 497 4 MP
PP
0 sg
0 6 0 0 0 -6 0 0 1152 497 5 MP stroke
0 -1769 1152 2158 2 MP stroke
/c9 { 0.000000 0.000000 0.875000 sr} bdef
c9
0 0 0 -7 0 0 1152 2149 4 MP
PP
0 sg
0 7 0 0 0 -7 0 0 1152 2149 5 MP stroke
c9
0 0 0 -7 0 0 1152 2011 4 MP
PP
0 sg
0 7 0 0 0 -7 0 0 1152 2011 5 MP stroke
c9
0 0 0 -6 0 0 1152 1872 4 MP
PP
0 sg
0 6 0 0 0 -6 0 0 1152 1872 5 MP stroke
c9
0 0 0 -7 0 0 1152 1734 4 MP
PP
0 sg
0 7 0 0 0 -7 0 0 1152 1734 5 MP stroke
c9
0 0 0 -7 0 0 1152 1596 4 MP
PP
0 sg
0 7 0 0 0 -7 0 0 1152 1596 5 MP stroke
c9
0 0 0 -7 0 0 1152 1457 4 MP
PP
0 sg
0 7 0 0 0 -7 0 0 1152 1457 5 MP stroke
c9
0 0 0 -7 0 0 1152 1319 4 MP
PP
0 sg
0 7 0 0 0 -7 0 0 1152 1319 5 MP stroke
c9
0 0 0 -7 0 0 1152 1181 4 MP
PP
0 sg
0 7 0 0 0 -7 0 0 1152 1181 5 MP stroke
c9
0 0 0 -7 0 0 1152 1042 4 MP
PP
0 sg
0 7 0 0 0 -7 0 0 1152 1042 5 MP stroke
c9
0 0 0 -7 0 0 1152 904 4 MP
PP
0 sg
0 7 0 0 0 -7 0 0 1152 904 5 MP stroke
c9
0 0 0 -7 0 0 1152 766 4 MP
PP
0 sg
0 7 0 0 0 -7 0 0 1152 766 5 MP stroke
c9
0 0 0 -7 0 0 1152 627 4 MP
PP
0 sg
0 7 0 0 0 -7 0 0 1152 627 5 MP stroke
c9
0 0 0 -7 0 0 1152 489 4 MP
PP
0 sg
0 7 0 0 0 -7 0 0 1152 489 5 MP stroke
/c10 { 0.000000 0.187500 1.000000 sr} bdef
c10
0 0 0 -6 0 0 1152 2140 4 MP
PP
0 sg
0 6 0 0 0 -6 0 0 1152 2140 5 MP stroke
c10
0 0 0 -7 0 0 1152 2002 4 MP
PP
0 sg
0 7 0 0 0 -7 0 0 1152 2002 5 MP stroke
c10
0 0 0 -7 0 0 1152 1864 4 MP
PP
0 sg
0 7 0 0 0 -7 0 0 1152 1864 5 MP stroke
c10
0 0 0 -6 0 0 1152 1725 4 MP
PP
0 sg
0 6 0 0 0 -6 0 0 1152 1725 5 MP stroke
c10
0 0 0 -7 0 0 1152 1587 4 MP
PP
0 sg
0 7 0 0 0 -7 0 0 1152 1587 5 MP stroke
c10
0 0 0 -7 0 0 1152 1449 4 MP
PP
0 sg
0 7 0 0 0 -7 0 0 1152 1449 5 MP stroke
c10
0 0 0 -6 0 0 1152 1310 4 MP
PP
0 sg
0 6 0 0 0 -6 0 0 1152 1310 5 MP stroke
c10
0 0 0 -7 0 0 1152 1172 4 MP
PP
0 sg
0 7 0 0 0 -7 0 0 1152 1172 5 MP stroke
c10
0 0 0 -7 0 0 1152 1034 4 MP
PP
0 sg
0 7 0 0 0 -7 0 0 1152 1034 5 MP stroke
c10
0 0 0 -6 0 0 1152 895 4 MP
PP
0 sg
0 6 0 0 0 -6 0 0 1152 895 5 MP stroke
c10
0 0 0 -7 0 0 1152 757 4 MP
PP
0 sg
0 7 0 0 0 -7 0 0 1152 757 5 MP stroke
c10
0 0 0 -7 0 0 1152 619 4 MP
PP
0 sg
0 7 0 0 0 -7 0 0 1152 619 5 MP stroke
c10
0 0 0 -6 0 0 1152 480 4 MP
PP
0 sg
0 6 0 0 0 -6 0 0 1152 480 5 MP stroke
/c11 { 0.000000 0.562500 1.000000 sr} bdef
c11
0 0 0 -7 0 0 1152 2132 4 MP
PP
0 sg
0 7 0 0 0 -7 0 0 1152 2132 5 MP stroke
c11
0 0 0 -7 0 0 1152 1994 4 MP
PP
0 sg
0 7 0 0 0 -7 0 0 1152 1994 5 MP stroke
c11
0 0 0 -7 0 0 1152 1855 4 MP
PP
0 sg
0 7 0 0 0 -7 0 0 1152 1855 5 MP stroke
c11
0 0 0 -7 0 0 1152 1717 4 MP
PP
0 sg
0 7 0 0 0 -7 0 0 1152 1717 5 MP stroke
c11
0 0 0 -7 0 0 1152 1579 4 MP
PP
0 sg
0 7 0 0 0 -7 0 0 1152 1579 5 MP stroke
c11
0 0 0 -7 0 0 1152 1440 4 MP
PP
0 sg
0 7 0 0 0 -7 0 0 1152 1440 5 MP stroke
c11
0 0 0 -7 0 0 1152 1302 4 MP
PP
0 sg
0 7 0 0 0 -7 0 0 1152 1302 5 MP stroke
c11
0 0 0 -7 0 0 1152 1164 4 MP
PP
0 sg
0 7 0 0 0 -7 0 0 1152 1164 5 MP stroke
c11
0 0 0 -7 0 0 1152 1025 4 MP
PP
0 sg
0 7 0 0 0 -7 0 0 1152 1025 5 MP stroke
c11
0 0 0 -7 0 0 1152 887 4 MP
PP
0 sg
0 7 0 0 0 -7 0 0 1152 887 5 MP stroke
c11
0 0 0 -7 0 0 1152 749 4 MP
PP
0 sg
0 7 0 0 0 -7 0 0 1152 749 5 MP stroke
c11
0 0 0 -7 0 0 1152 610 4 MP
PP
0 sg
0 7 0 0 0 -7 0 0 1152 610 5 MP stroke
c11
0 0 0 -7 0 0 1152 472 4 MP
PP
0 sg
0 7 0 0 0 -7 0 0 1152 472 5 MP stroke
/c12 { 0.000000 0.875000 1.000000 sr} bdef
c12
0 0 0 -6 0 0 1152 2123 4 MP
PP
0 sg
0 6 0 0 0 -6 0 0 1152 2123 5 MP stroke
c12
0 0 0 -7 0 0 1152 1985 4 MP
PP
0 sg
0 7 0 0 0 -7 0 0 1152 1985 5 MP stroke
c12
0 0 0 -7 0 0 1152 1847 4 MP
PP
0 sg
0 7 0 0 0 -7 0 0 1152 1847 5 MP stroke
c12
0 0 0 -6 0 0 1152 1708 4 MP
PP
0 sg
0 6 0 0 0 -6 0 0 1152 1708 5 MP stroke
c12
0 0 0 -7 0 0 1152 1570 4 MP
PP
0 sg
0 7 0 0 0 -7 0 0 1152 1570 5 MP stroke
c12
0 0 0 -7 0 0 1152 1432 4 MP
PP
0 sg
0 7 0 0 0 -7 0 0 1152 1432 5 MP stroke
c12
0 0 0 -6 0 0 1152 1293 4 MP
PP
0 sg
0 6 0 0 0 -6 0 0 1152 1293 5 MP stroke
c12
0 0 0 -7 0 0 1152 1155 4 MP
PP
0 sg
0 7 0 0 0 -7 0 0 1152 1155 5 MP stroke
c12
0 0 0 -7 0 0 1152 1017 4 MP
PP
0 sg
0 7 0 0 0 -7 0 0 1152 1017 5 MP stroke
c12
0 0 0 -6 0 0 1152 878 4 MP
PP
0 sg
0 6 0 0 0 -6 0 0 1152 878 5 MP stroke
c12
0 0 0 -7 0 0 1152 740 4 MP
PP
0 sg
0 7 0 0 0 -7 0 0 1152 740 5 MP stroke
c12
0 0 0 -7 0 0 1152 602 4 MP
PP
0 sg
0 7 0 0 0 -7 0 0 1152 602 5 MP stroke
c12
0 0 0 -6 0 0 1152 463 4 MP
PP
0 sg
0 6 0 0 0 -6 0 0 1152 463 5 MP stroke
/c13 { 0.187500 1.000000 0.812500 sr} bdef
c13
0 0 0 -7 0 0 1152 2115 4 MP
PP
0 sg
0 7 0 0 0 -7 0 0 1152 2115 5 MP stroke
c13
0 0 0 -7 0 0 1152 1977 4 MP
PP
0 sg
0 7 0 0 0 -7 0 0 1152 1977 5 MP stroke
c13
0 0 0 -7 0 0 1152 1838 4 MP
PP
0 sg
0 7 0 0 0 -7 0 0 1152 1838 5 MP stroke
c13
0 0 0 -7 0 0 1152 1700 4 MP
PP
0 sg
0 7 0 0 0 -7 0 0 1152 1700 5 MP stroke
c13
0 0 0 -7 0 0 1152 1562 4 MP
PP
0 sg
0 7 0 0 0 -7 0 0 1152 1562 5 MP stroke
c13
0 0 0 -7 0 0 1152 1423 4 MP
PP
0 sg
0 7 0 0 0 -7 0 0 1152 1423 5 MP stroke
c13
0 0 0 -7 0 0 1152 1285 4 MP
PP
0 sg
0 7 0 0 0 -7 0 0 1152 1285 5 MP stroke
c13
0 0 0 -7 0 0 1152 1147 4 MP
PP
0 sg
0 7 0 0 0 -7 0 0 1152 1147 5 MP stroke
c13
0 0 0 -7 0 0 1152 1008 4 MP
PP
0 sg
0 7 0 0 0 -7 0 0 1152 1008 5 MP stroke
c13
0 0 0 -7 0 0 1152 870 4 MP
PP
0 sg
0 7 0 0 0 -7 0 0 1152 870 5 MP stroke
c13
0 0 0 -7 0 0 1152 732 4 MP
PP
0 sg
0 7 0 0 0 -7 0 0 1152 732 5 MP stroke
c13
0 0 0 -7 0 0 1152 593 4 MP
PP
0 sg
0 7 0 0 0 -7 0 0 1152 593 5 MP stroke
c13
0 0 0 -7 0 0 1152 455 4 MP
PP
0 sg
0 7 0 0 0 -7 0 0 1152 455 5 MP stroke
/c14 { 0.562500 1.000000 0.437500 sr} bdef
c14
0 0 0 -6 0 0 1152 2106 4 MP
PP
0 sg
0 6 0 0 0 -6 0 0 1152 2106 5 MP stroke
c14
0 0 0 -7 0 0 1152 1968 4 MP
PP
0 sg
0 7 0 0 0 -7 0 0 1152 1968 5 MP stroke
c14
0 0 0 -7 0 0 1152 1830 4 MP
PP
0 sg
0 7 0 0 0 -7 0 0 1152 1830 5 MP stroke
c14
0 0 0 -6 0 0 1152 1691 4 MP
PP
0 sg
0 6 0 0 0 -6 0 0 1152 1691 5 MP stroke
c14
0 0 0 -7 0 0 1152 1553 4 MP
PP
0 sg
0 7 0 0 0 -7 0 0 1152 1553 5 MP stroke
c14
0 0 0 -7 0 0 1152 1415 4 MP
PP
0 sg
0 7 0 0 0 -7 0 0 1152 1415 5 MP stroke
c14
0 0 0 -6 0 0 1152 1276 4 MP
PP
0 sg
0 6 0 0 0 -6 0 0 1152 1276 5 MP stroke
c14
0 0 0 -7 0 0 1152 1138 4 MP
PP
0 sg
0 7 0 0 0 -7 0 0 1152 1138 5 MP stroke
c14
0 0 0 -7 0 0 1152 1000 4 MP
PP
0 sg
0 7 0 0 0 -7 0 0 1152 1000 5 MP stroke
c14
0 0 0 -6 0 0 1152 861 4 MP
PP
0 sg
0 6 0 0 0 -6 0 0 1152 861 5 MP stroke
c14
0 0 0 -7 0 0 1152 723 4 MP
PP
0 sg
0 7 0 0 0 -7 0 0 1152 723 5 MP stroke
c14
0 0 0 -7 0 0 1152 585 4 MP
PP
0 sg
0 7 0 0 0 -7 0 0 1152 585 5 MP stroke
c14
0 0 0 -6 0 0 1152 446 4 MP
PP
0 sg
0 6 0 0 0 -6 0 0 1152 446 5 MP stroke
/c15 { 0.875000 1.000000 0.125000 sr} bdef
c15
0 0 0 -7 0 0 1152 2098 4 MP
PP
0 sg
0 7 0 0 0 -7 0 0 1152 2098 5 MP stroke
c15
0 0 0 -7 0 0 1152 1960 4 MP
PP
0 sg
0 7 0 0 0 -7 0 0 1152 1960 5 MP stroke
c15
0 0 0 -7 0 0 1152 1821 4 MP
PP
0 sg
0 7 0 0 0 -7 0 0 1152 1821 5 MP stroke
c15
0 0 0 -7 0 0 1152 1683 4 MP
PP
0 sg
0 7 0 0 0 -7 0 0 1152 1683 5 MP stroke
c15
0 0 0 -7 0 0 1152 1545 4 MP
PP
0 sg
0 7 0 0 0 -7 0 0 1152 1545 5 MP stroke
c15
0 0 0 -7 0 0 1152 1406 4 MP
PP
0 sg
0 7 0 0 0 -7 0 0 1152 1406 5 MP stroke
c15
0 0 0 -7 0 0 1152 1268 4 MP
PP
0 sg
0 7 0 0 0 -7 0 0 1152 1268 5 MP stroke
c15
0 0 0 -7 0 0 1152 1130 4 MP
PP
0 sg
0 7 0 0 0 -7 0 0 1152 1130 5 MP stroke
c15
0 0 0 -7 0 0 1152 991 4 MP
PP
0 sg
0 7 0 0 0 -7 0 0 1152 991 5 MP stroke
c15
0 0 0 -7 0 0 1152 853 4 MP
PP
0 sg
0 7 0 0 0 -7 0 0 1152 853 5 MP stroke
c15
0 0 0 -7 0 0 1152 715 4 MP
PP
0 sg
0 7 0 0 0 -7 0 0 1152 715 5 MP stroke
c15
0 0 0 -7 0 0 1152 576 4 MP
PP
0 sg
0 7 0 0 0 -7 0 0 1152 576 5 MP stroke
c15
0 0 0 -7 0 0 1152 438 4 MP
PP
0 sg
0 7 0 0 0 -7 0 0 1152 438 5 MP stroke
/c16 { 1.000000 0.812500 0.000000 sr} bdef
c16
-52 0 0 -6 52 0 1152 2089 4 MP
PP
0 sg
0 6 -52 0 0 -6 52 0 1152 2089 5 MP stroke
c16
-283 0 0 -7 283 0 1152 1951 4 MP
PP
0 sg
0 7 -283 0 0 -7 283 0 1152 1951 5 MP stroke
c16
-1507 0 0 -7 1507 0 1152 1813 4 MP
PP
0 sg
0 7 -1507 0 0 -7 1507 0 1152 1813 5 MP stroke
c16
-844 0 0 -6 844 0 1152 1674 4 MP
PP
0 sg
0 6 -844 0 0 -6 844 0 1152 1674 5 MP stroke
c16
-333 0 0 -7 333 0 1152 1536 4 MP
PP
0 sg
0 7 -333 0 0 -7 333 0 1152 1536 5 MP stroke
c16
-67 0 0 -7 67 0 1152 1398 4 MP
PP
0 sg
0 7 -67 0 0 -7 67 0 1152 1398 5 MP stroke
c16
-1040 0 0 -6 1040 0 1152 1259 4 MP
PP
0 sg
0 6 -1040 0 0 -6 1040 0 1152 1259 5 MP stroke
c16
-147 0 0 -7 147 0 1152 1121 4 MP
PP
0 sg
0 7 -147 0 0 -7 147 0 1152 1121 5 MP stroke
c16
-2063 0 0 -7 2063 0 1152 983 4 MP
PP
0 sg
0 7 -2063 0 0 -7 2063 0 1152 983 5 MP stroke
c16
-6 0 0 -6 6 0 1152 844 4 MP
PP
0 sg
0 6 -6 0 0 -6 6 0 1152 844 5 MP stroke
c16
-691 0 0 -7 691 0 1152 706 4 MP
PP
0 sg
0 7 -691 0 0 -7 691 0 1152 706 5 MP stroke
c16
-355 0 0 -7 355 0 1152 568 4 MP
PP
0 sg
0 7 -355 0 0 -7 355 0 1152 568 5 MP stroke
c16
-70 0 0 -6 70 0 1152 429 4 MP
PP
0 sg
0 6 -70 0 0 -6 70 0 1152 429 5 MP stroke
/c17 { 1.000000 0.437500 0.000000 sr} bdef
c17
0 0 0 -7 0 0 1152 2081 4 MP
PP
0 sg
0 7 0 0 0 -7 0 0 1152 2081 5 MP stroke
c17
0 0 0 -7 0 0 1152 1943 4 MP
PP
0 sg
0 7 0 0 0 -7 0 0 1152 1943 5 MP stroke
c17
0 0 0 -7 0 0 1152 1804 4 MP
PP
0 sg
0 7 0 0 0 -7 0 0 1152 1804 5 MP stroke
c17
0 0 0 -7 0 0 1152 1666 4 MP
PP
0 sg
0 7 0 0 0 -7 0 0 1152 1666 5 MP stroke
c17
0 0 0 -7 0 0 1152 1528 4 MP
PP
0 sg
0 7 0 0 0 -7 0 0 1152 1528 5 MP stroke
c17
0 0 0 -7 0 0 1152 1389 4 MP
PP
0 sg
0 7 0 0 0 -7 0 0 1152 1389 5 MP stroke
c17
0 0 0 -7 0 0 1152 1251 4 MP
PP
0 sg
0 7 0 0 0 -7 0 0 1152 1251 5 MP stroke
c17
0 0 0 -7 0 0 1152 1113 4 MP
PP
0 sg
0 7 0 0 0 -7 0 0 1152 1113 5 MP stroke
c17
0 0 0 -7 0 0 1152 974 4 MP
PP
0 sg
0 7 0 0 0 -7 0 0 1152 974 5 MP stroke
c17
0 0 0 -7 0 0 1152 836 4 MP
PP
0 sg
0 7 0 0 0 -7 0 0 1152 836 5 MP stroke
c17
0 0 0 -7 0 0 1152 698 4 MP
PP
0 sg
0 7 0 0 0 -7 0 0 1152 698 5 MP stroke
c17
0 0 0 -7 0 0 1152 559 4 MP
PP
0 sg
0 7 0 0 0 -7 0 0 1152 559 5 MP stroke
c17
0 0 0 -7 0 0 1152 421 4 MP
PP
0 sg
0 7 0 0 0 -7 0 0 1152 421 5 MP stroke
/c18 { 1.000000 0.125000 0.000000 sr} bdef
c18
0 0 0 -6 0 0 1152 2072 4 MP
PP
0 sg
0 6 0 0 0 -6 0 0 1152 2072 5 MP stroke
c18
0 0 0 -7 0 0 1152 1934 4 MP
PP
0 sg
0 7 0 0 0 -7 0 0 1152 1934 5 MP stroke
c18
0 0 0 -7 0 0 1152 1796 4 MP
PP
0 sg
0 7 0 0 0 -7 0 0 1152 1796 5 MP stroke
c18
0 0 0 -6 0 0 1152 1657 4 MP
PP
0 sg
0 6 0 0 0 -6 0 0 1152 1657 5 MP stroke
c18
0 0 0 -7 0 0 1152 1519 4 MP
PP
0 sg
0 7 0 0 0 -7 0 0 1152 1519 5 MP stroke
c18
0 0 0 -7 0 0 1152 1381 4 MP
PP
0 sg
0 7 0 0 0 -7 0 0 1152 1381 5 MP stroke
c18
0 0 0 -6 0 0 1152 1242 4 MP
PP
0 sg
0 6 0 0 0 -6 0 0 1152 1242 5 MP stroke
c18
0 0 0 -7 0 0 1152 1104 4 MP
PP
0 sg
0 7 0 0 0 -7 0 0 1152 1104 5 MP stroke
c18
0 0 0 -7 0 0 1152 966 4 MP
PP
0 sg
0 7 0 0 0 -7 0 0 1152 966 5 MP stroke
c18
0 0 0 -6 0 0 1152 827 4 MP
PP
0 sg
0 6 0 0 0 -6 0 0 1152 827 5 MP stroke
c18
0 0 0 -7 0 0 1152 689 4 MP
PP
0 sg
0 7 0 0 0 -7 0 0 1152 689 5 MP stroke
c18
0 0 0 -7 0 0 1152 551 4 MP
PP
0 sg
0 7 0 0 0 -7 0 0 1152 551 5 MP stroke
c18
0 0 0 -6 0 0 1152 412 4 MP
PP
0 sg
0 6 0 0 0 -6 0 0 1152 412 5 MP stroke
/c19 { 0.812500 0.000000 0.000000 sr} bdef
c19
0 0 0 -7 0 0 1152 2064 4 MP
PP
0 sg
0 7 0 0 0 -7 0 0 1152 2064 5 MP stroke
c19
0 0 0 -7 0 0 1152 1926 4 MP
PP
0 sg
0 7 0 0 0 -7 0 0 1152 1926 5 MP stroke
c19
0 0 0 -7 0 0 1152 1787 4 MP
PP
0 sg
0 7 0 0 0 -7 0 0 1152 1787 5 MP stroke
c19
0 0 0 -7 0 0 1152 1649 4 MP
PP
0 sg
0 7 0 0 0 -7 0 0 1152 1649 5 MP stroke
c19
0 0 0 -7 0 0 1152 1511 4 MP
PP
0 sg
0 7 0 0 0 -7 0 0 1152 1511 5 MP stroke
c19
0 0 0 -7 0 0 1152 1372 4 MP
PP
0 sg
0 7 0 0 0 -7 0 0 1152 1372 5 MP stroke
c19
0 0 0 -7 0 0 1152 1234 4 MP
PP
0 sg
0 7 0 0 0 -7 0 0 1152 1234 5 MP stroke
c19
0 0 0 -7 0 0 1152 1096 4 MP
PP
0 sg
0 7 0 0 0 -7 0 0 1152 1096 5 MP stroke
c19
0 0 0 -7 0 0 1152 957 4 MP
PP
0 sg
0 7 0 0 0 -7 0 0 1152 957 5 MP stroke
c19
0 0 0 -7 0 0 1152 819 4 MP
PP
0 sg
0 7 0 0 0 -7 0 0 1152 819 5 MP stroke
c19
0 0 0 -6 0 0 1152 680 4 MP
PP
0 sg
0 6 0 0 0 -6 0 0 1152 680 5 MP stroke
c19
0 0 0 -7 0 0 1152 542 4 MP
PP
0 sg
0 7 0 0 0 -7 0 0 1152 542 5 MP stroke
c19
0 0 0 -7 0 0 1152 404 4 MP
PP
0 sg
0 7 0 0 0 -7 0 0 1152 404 5 MP stroke
/c20 { 0.500000 0.000000 0.000000 sr} bdef
c20
0 0 0 -6 0 0 1152 2055 4 MP
PP
0 sg
0 6 0 0 0 -6 0 0 1152 2055 5 MP stroke
c20
0 0 0 -7 0 0 1152 1917 4 MP
PP
0 sg
0 7 0 0 0 -7 0 0 1152 1917 5 MP stroke
c20
0 0 0 -7 0 0 1152 1779 4 MP
PP
0 sg
0 7 0 0 0 -7 0 0 1152 1779 5 MP stroke
c20
0 0 0 -6 0 0 1152 1640 4 MP
PP
0 sg
0 6 0 0 0 -6 0 0 1152 1640 5 MP stroke
c20
0 0 0 -7 0 0 1152 1502 4 MP
PP
0 sg
0 7 0 0 0 -7 0 0 1152 1502 5 MP stroke
c20
0 0 0 -7 0 0 1152 1364 4 MP
PP
0 sg
0 7 0 0 0 -7 0 0 1152 1364 5 MP stroke
c20
0 0 0 -6 0 0 1152 1225 4 MP
PP
0 sg
0 6 0 0 0 -6 0 0 1152 1225 5 MP stroke
c20
0 0 0 -7 0 0 1152 1087 4 MP
PP
0 sg
0 7 0 0 0 -7 0 0 1152 1087 5 MP stroke
c20
0 0 0 -7 0 0 1152 949 4 MP
PP
0 sg
0 7 0 0 0 -7 0 0 1152 949 5 MP stroke
c20
0 0 0 -6 0 0 1152 810 4 MP
PP
0 sg
0 6 0 0 0 -6 0 0 1152 810 5 MP stroke
c20
0 0 0 -7 0 0 1152 672 4 MP
PP
0 sg
0 7 0 0 0 -7 0 0 1152 672 5 MP stroke
c20
0 0 0 -7 0 0 1152 534 4 MP
PP
0 sg
0 7 0 0 0 -7 0 0 1152 534 5 MP stroke
c20
0 0 0 -6 0 0 1152 395 4 MP
PP
0 sg
0 6 0 0 0 -6 0 0 1152 395 5 MP stroke
gr

1 sg
0 1769 2063 0 0 -1769 4198 2158 4 MP
PP
-2063 0 0 1769 2063 0 0 -1769 4198 2158 5 MP stroke
4 w
DO
SO
6 w
0 sg
4198  389 mt 6261  389 L
4198 2158 mt 6261 2158 L
6261 2158 mt 6261  389 L
4198 2158 mt 4198  389 L
4198 2158 mt 6261 2158 L
4198 2158 mt 4198  389 L
4198 2158 mt 4198 2137 L
4198  389 mt 4198  409 L
4165 2303 mt 
(0) s
4717 2158 mt 4717 2137 L
4717  389 mt 4717  409 L
4651 2303 mt 
(50) s
5236 2158 mt 5236 2137 L
5236  389 mt 5236  409 L
5136 2303 mt 
(100) s
5756 2158 mt 5756 2137 L
5756  389 mt 5756  409 L
5656 2303 mt 
(150) s
4198 2103 mt 4218 2103 L
6261 2103 mt 6240 2103 L
3363 2147 mt 
(\(F,DCTs,GMM\)) s
4198 1965 mt 4218 1965 L
6261 1965 mt 6240 1965 L
3360 2009 mt 
(\(F,DCTb,GMM\)) s
4198 1826 mt 4218 1826 L
6261 1826 mt 6240 1826 L
3336 1870 mt 
(\(S,LFCC,GMM\)) s
4198 1688 mt 4218 1688 L
6261 1688 mt 6240 1688 L
3421 1732 mt 
(\(S,PAC,GMM\)) s
4198 1550 mt 4218 1550 L
6261 1550 mt 6240 1550 L
3403 1594 mt 
(\(S,SSC,GMM\)) s
4198 1411 mt 4218 1411 L
6261 1411 mt 6240 1411 L
3410 1455 mt 
(\(F,DCTs,MLP\)) s
4198 1273 mt 4218 1273 L
6261 1273 mt 6240 1273 L
3383 1317 mt 
(\(F,DCTs,iMLP\)) s
4198 1135 mt 4218 1135 L
6261 1135 mt 6240 1135 L
3406 1179 mt 
(\(F,DCTb,MLP\)) s
4198  996 mt 4218  996 L
6261  996 mt 6240  996 L
3380 1040 mt 
(\(F,DCTb,iMLP\)) s
4198  858 mt 4218  858 L
6261  858 mt 6240  858 L
3360  902 mt 
(\(F,DCTb,GMM\)) s
4198  720 mt 4218  720 L
6261  720 mt 6240  720 L
3336  764 mt 
(\(S,LFCC,GMM\)) s
4198  581 mt 4218  581 L
6261  581 mt 6240  581 L
3421  625 mt 
(\(S,PAC,GMM\)) s
4198  443 mt 4218  443 L
6261  443 mt 6240  443 L
3403  487 mt 
(\(S,SSC,GMM\)) s
4198  389 mt 6261  389 L
4198 2158 mt 6261 2158 L
6261 2158 mt 6261  389 L
4198 2158 mt 4198  389 L
gs 4198 389 2064 1770 rc
c8
0 0 0 -7 0 0 4198 2158 4 MP
PP
0 sg
0 7 0 0 0 -7 0 0 4198 2158 5 MP stroke
c8
0 0 0 -7 0 0 4198 2019 4 MP
PP
0 sg
0 7 0 0 0 -7 0 0 4198 2019 5 MP stroke
c8
0 0 0 -7 0 0 4198 1881 4 MP
PP
0 sg
0 7 0 0 0 -7 0 0 4198 1881 5 MP stroke
c8
0 0 0 -6 0 0 4198 1742 4 MP
PP
0 sg
0 6 0 0 0 -6 0 0 4198 1742 5 MP stroke
c8
0 0 0 -7 0 0 4198 1604 4 MP
PP
0 sg
0 7 0 0 0 -7 0 0 4198 1604 5 MP stroke
c8
0 0 0 -7 0 0 4198 1466 4 MP
PP
0 sg
0 7 0 0 0 -7 0 0 4198 1466 5 MP stroke
c8
0 0 0 -6 0 0 4198 1327 4 MP
PP
0 sg
0 6 0 0 0 -6 0 0 4198 1327 5 MP stroke
c8
0 0 0 -7 0 0 4198 1189 4 MP
PP
0 sg
0 7 0 0 0 -7 0 0 4198 1189 5 MP stroke
c8
0 0 0 -7 0 0 4198 1051 4 MP
PP
0 sg
0 7 0 0 0 -7 0 0 4198 1051 5 MP stroke
c8
0 0 0 -6 0 0 4198 912 4 MP
PP
0 sg
0 6 0 0 0 -6 0 0 4198 912 5 MP stroke
c8
0 0 0 -7 0 0 4198 774 4 MP
PP
0 sg
0 7 0 0 0 -7 0 0 4198 774 5 MP stroke
c8
0 0 0 -7 0 0 4198 636 4 MP
PP
0 sg
0 7 0 0 0 -7 0 0 4198 636 5 MP stroke
c8
0 0 0 -6 0 0 4198 497 4 MP
PP
0 sg
0 6 0 0 0 -6 0 0 4198 497 5 MP stroke
0 -1769 4198 2158 2 MP stroke
c9
0 0 0 -7 0 0 4198 2149 4 MP
PP
0 sg
0 7 0 0 0 -7 0 0 4198 2149 5 MP stroke
c9
0 0 0 -7 0 0 4198 2011 4 MP
PP
0 sg
0 7 0 0 0 -7 0 0 4198 2011 5 MP stroke
c9
0 0 0 -6 0 0 4198 1872 4 MP
PP
0 sg
0 6 0 0 0 -6 0 0 4198 1872 5 MP stroke
c9
0 0 0 -7 0 0 4198 1734 4 MP
PP
0 sg
0 7 0 0 0 -7 0 0 4198 1734 5 MP stroke
c9
0 0 0 -7 0 0 4198 1596 4 MP
PP
0 sg
0 7 0 0 0 -7 0 0 4198 1596 5 MP stroke
c9
0 0 0 -7 0 0 4198 1457 4 MP
PP
0 sg
0 7 0 0 0 -7 0 0 4198 1457 5 MP stroke
c9
0 0 0 -7 0 0 4198 1319 4 MP
PP
0 sg
0 7 0 0 0 -7 0 0 4198 1319 5 MP stroke
c9
0 0 0 -7 0 0 4198 1181 4 MP
PP
0 sg
0 7 0 0 0 -7 0 0 4198 1181 5 MP stroke
c9
0 0 0 -7 0 0 4198 1042 4 MP
PP
0 sg
0 7 0 0 0 -7 0 0 4198 1042 5 MP stroke
c9
0 0 0 -7 0 0 4198 904 4 MP
PP
0 sg
0 7 0 0 0 -7 0 0 4198 904 5 MP stroke
c9
0 0 0 -7 0 0 4198 766 4 MP
PP
0 sg
0 7 0 0 0 -7 0 0 4198 766 5 MP stroke
c9
0 0 0 -7 0 0 4198 627 4 MP
PP
0 sg
0 7 0 0 0 -7 0 0 4198 627 5 MP stroke
c9
0 0 0 -7 0 0 4198 489 4 MP
PP
0 sg
0 7 0 0 0 -7 0 0 4198 489 5 MP stroke
c10
0 0 0 -6 0 0 4198 2140 4 MP
PP
0 sg
0 6 0 0 0 -6 0 0 4198 2140 5 MP stroke
c10
0 0 0 -7 0 0 4198 2002 4 MP
PP
0 sg
0 7 0 0 0 -7 0 0 4198 2002 5 MP stroke
c10
0 0 0 -7 0 0 4198 1864 4 MP
PP
0 sg
0 7 0 0 0 -7 0 0 4198 1864 5 MP stroke
c10
0 0 0 -6 0 0 4198 1725 4 MP
PP
0 sg
0 6 0 0 0 -6 0 0 4198 1725 5 MP stroke
c10
0 0 0 -7 0 0 4198 1587 4 MP
PP
0 sg
0 7 0 0 0 -7 0 0 4198 1587 5 MP stroke
c10
0 0 0 -7 0 0 4198 1449 4 MP
PP
0 sg
0 7 0 0 0 -7 0 0 4198 1449 5 MP stroke
c10
0 0 0 -6 0 0 4198 1310 4 MP
PP
0 sg
0 6 0 0 0 -6 0 0 4198 1310 5 MP stroke
c10
0 0 0 -7 0 0 4198 1172 4 MP
PP
0 sg
0 7 0 0 0 -7 0 0 4198 1172 5 MP stroke
c10
0 0 0 -7 0 0 4198 1034 4 MP
PP
0 sg
0 7 0 0 0 -7 0 0 4198 1034 5 MP stroke
c10
0 0 0 -6 0 0 4198 895 4 MP
PP
0 sg
0 6 0 0 0 -6 0 0 4198 895 5 MP stroke
c10
0 0 0 -7 0 0 4198 757 4 MP
PP
0 sg
0 7 0 0 0 -7 0 0 4198 757 5 MP stroke
c10
0 0 0 -7 0 0 4198 619 4 MP
PP
0 sg
0 7 0 0 0 -7 0 0 4198 619 5 MP stroke
c10
0 0 0 -6 0 0 4198 480 4 MP
PP
0 sg
0 6 0 0 0 -6 0 0 4198 480 5 MP stroke
c11
0 0 0 -7 0 0 4198 2132 4 MP
PP
0 sg
0 7 0 0 0 -7 0 0 4198 2132 5 MP stroke
c11
0 0 0 -7 0 0 4198 1994 4 MP
PP
0 sg
0 7 0 0 0 -7 0 0 4198 1994 5 MP stroke
c11
0 0 0 -7 0 0 4198 1855 4 MP
PP
0 sg
0 7 0 0 0 -7 0 0 4198 1855 5 MP stroke
c11
0 0 0 -7 0 0 4198 1717 4 MP
PP
0 sg
0 7 0 0 0 -7 0 0 4198 1717 5 MP stroke
c11
0 0 0 -7 0 0 4198 1579 4 MP
PP
0 sg
0 7 0 0 0 -7 0 0 4198 1579 5 MP stroke
c11
0 0 0 -7 0 0 4198 1440 4 MP
PP
0 sg
0 7 0 0 0 -7 0 0 4198 1440 5 MP stroke
c11
0 0 0 -7 0 0 4198 1302 4 MP
PP
0 sg
0 7 0 0 0 -7 0 0 4198 1302 5 MP stroke
c11
0 0 0 -7 0 0 4198 1164 4 MP
PP
0 sg
0 7 0 0 0 -7 0 0 4198 1164 5 MP stroke
c11
0 0 0 -7 0 0 4198 1025 4 MP
PP
0 sg
0 7 0 0 0 -7 0 0 4198 1025 5 MP stroke
c11
0 0 0 -7 0 0 4198 887 4 MP
PP
0 sg
0 7 0 0 0 -7 0 0 4198 887 5 MP stroke
c11
0 0 0 -7 0 0 4198 749 4 MP
PP
0 sg
0 7 0 0 0 -7 0 0 4198 749 5 MP stroke
c11
0 0 0 -7 0 0 4198 610 4 MP
PP
0 sg
0 7 0 0 0 -7 0 0 4198 610 5 MP stroke
c11
0 0 0 -7 0 0 4198 472 4 MP
PP
0 sg
0 7 0 0 0 -7 0 0 4198 472 5 MP stroke
c12
0 0 0 -6 0 0 4198 2123 4 MP
PP
0 sg
0 6 0 0 0 -6 0 0 4198 2123 5 MP stroke
c12
0 0 0 -7 0 0 4198 1985 4 MP
PP
0 sg
0 7 0 0 0 -7 0 0 4198 1985 5 MP stroke
c12
0 0 0 -7 0 0 4198 1847 4 MP
PP
0 sg
0 7 0 0 0 -7 0 0 4198 1847 5 MP stroke
c12
0 0 0 -6 0 0 4198 1708 4 MP
PP
0 sg
0 6 0 0 0 -6 0 0 4198 1708 5 MP stroke
c12
0 0 0 -7 0 0 4198 1570 4 MP
PP
0 sg
0 7 0 0 0 -7 0 0 4198 1570 5 MP stroke
c12
0 0 0 -7 0 0 4198 1432 4 MP
PP
0 sg
0 7 0 0 0 -7 0 0 4198 1432 5 MP stroke
c12
0 0 0 -6 0 0 4198 1293 4 MP
PP
0 sg
0 6 0 0 0 -6 0 0 4198 1293 5 MP stroke
c12
0 0 0 -7 0 0 4198 1155 4 MP
PP
0 sg
0 7 0 0 0 -7 0 0 4198 1155 5 MP stroke
c12
0 0 0 -7 0 0 4198 1017 4 MP
PP
0 sg
0 7 0 0 0 -7 0 0 4198 1017 5 MP stroke
c12
0 0 0 -6 0 0 4198 878 4 MP
PP
0 sg
0 6 0 0 0 -6 0 0 4198 878 5 MP stroke
c12
0 0 0 -7 0 0 4198 740 4 MP
PP
0 sg
0 7 0 0 0 -7 0 0 4198 740 5 MP stroke
c12
0 0 0 -7 0 0 4198 602 4 MP
PP
0 sg
0 7 0 0 0 -7 0 0 4198 602 5 MP stroke
c12
0 0 0 -6 0 0 4198 463 4 MP
PP
0 sg
0 6 0 0 0 -6 0 0 4198 463 5 MP stroke
c13
0 0 0 -7 0 0 4198 2115 4 MP
PP
0 sg
0 7 0 0 0 -7 0 0 4198 2115 5 MP stroke
c13
0 0 0 -7 0 0 4198 1977 4 MP
PP
0 sg
0 7 0 0 0 -7 0 0 4198 1977 5 MP stroke
c13
0 0 0 -7 0 0 4198 1838 4 MP
PP
0 sg
0 7 0 0 0 -7 0 0 4198 1838 5 MP stroke
c13
0 0 0 -7 0 0 4198 1700 4 MP
PP
0 sg
0 7 0 0 0 -7 0 0 4198 1700 5 MP stroke
c13
0 0 0 -7 0 0 4198 1562 4 MP
PP
0 sg
0 7 0 0 0 -7 0 0 4198 1562 5 MP stroke
c13
0 0 0 -7 0 0 4198 1423 4 MP
PP
0 sg
0 7 0 0 0 -7 0 0 4198 1423 5 MP stroke
c13
0 0 0 -7 0 0 4198 1285 4 MP
PP
0 sg
0 7 0 0 0 -7 0 0 4198 1285 5 MP stroke
c13
0 0 0 -7 0 0 4198 1147 4 MP
PP
0 sg
0 7 0 0 0 -7 0 0 4198 1147 5 MP stroke
c13
0 0 0 -7 0 0 4198 1008 4 MP
PP
0 sg
0 7 0 0 0 -7 0 0 4198 1008 5 MP stroke
c13
0 0 0 -7 0 0 4198 870 4 MP
PP
0 sg
0 7 0 0 0 -7 0 0 4198 870 5 MP stroke
c13
0 0 0 -7 0 0 4198 732 4 MP
PP
0 sg
0 7 0 0 0 -7 0 0 4198 732 5 MP stroke
c13
0 0 0 -7 0 0 4198 593 4 MP
PP
0 sg
0 7 0 0 0 -7 0 0 4198 593 5 MP stroke
c13
0 0 0 -7 0 0 4198 455 4 MP
PP
0 sg
0 7 0 0 0 -7 0 0 4198 455 5 MP stroke
c14
0 0 0 -6 0 0 4198 2106 4 MP
PP
0 sg
0 6 0 0 0 -6 0 0 4198 2106 5 MP stroke
c14
0 0 0 -7 0 0 4198 1968 4 MP
PP
0 sg
0 7 0 0 0 -7 0 0 4198 1968 5 MP stroke
c14
0 0 0 -7 0 0 4198 1830 4 MP
PP
0 sg
0 7 0 0 0 -7 0 0 4198 1830 5 MP stroke
c14
0 0 0 -6 0 0 4198 1691 4 MP
PP
0 sg
0 6 0 0 0 -6 0 0 4198 1691 5 MP stroke
c14
0 0 0 -7 0 0 4198 1553 4 MP
PP
0 sg
0 7 0 0 0 -7 0 0 4198 1553 5 MP stroke
c14
0 0 0 -7 0 0 4198 1415 4 MP
PP
0 sg
0 7 0 0 0 -7 0 0 4198 1415 5 MP stroke
c14
0 0 0 -6 0 0 4198 1276 4 MP
PP
0 sg
0 6 0 0 0 -6 0 0 4198 1276 5 MP stroke
c14
0 0 0 -7 0 0 4198 1138 4 MP
PP
0 sg
0 7 0 0 0 -7 0 0 4198 1138 5 MP stroke
c14
0 0 0 -7 0 0 4198 1000 4 MP
PP
0 sg
0 7 0 0 0 -7 0 0 4198 1000 5 MP stroke
c14
0 0 0 -6 0 0 4198 861 4 MP
PP
0 sg
0 6 0 0 0 -6 0 0 4198 861 5 MP stroke
c14
0 0 0 -7 0 0 4198 723 4 MP
PP
0 sg
0 7 0 0 0 -7 0 0 4198 723 5 MP stroke
c14
0 0 0 -7 0 0 4198 585 4 MP
PP
0 sg
0 7 0 0 0 -7 0 0 4198 585 5 MP stroke
c14
0 0 0 -6 0 0 4198 446 4 MP
PP
0 sg
0 6 0 0 0 -6 0 0 4198 446 5 MP stroke
c15
0 0 0 -7 0 0 4198 2098 4 MP
PP
0 sg
0 7 0 0 0 -7 0 0 4198 2098 5 MP stroke
c15
0 0 0 -7 0 0 4198 1960 4 MP
PP
0 sg
0 7 0 0 0 -7 0 0 4198 1960 5 MP stroke
c15
0 0 0 -7 0 0 4198 1821 4 MP
PP
0 sg
0 7 0 0 0 -7 0 0 4198 1821 5 MP stroke
c15
0 0 0 -7 0 0 4198 1683 4 MP
PP
0 sg
0 7 0 0 0 -7 0 0 4198 1683 5 MP stroke
c15
0 0 0 -7 0 0 4198 1545 4 MP
PP
0 sg
0 7 0 0 0 -7 0 0 4198 1545 5 MP stroke
c15
0 0 0 -7 0 0 4198 1406 4 MP
PP
0 sg
0 7 0 0 0 -7 0 0 4198 1406 5 MP stroke
c15
0 0 0 -7 0 0 4198 1268 4 MP
PP
0 sg
0 7 0 0 0 -7 0 0 4198 1268 5 MP stroke
c15
0 0 0 -7 0 0 4198 1130 4 MP
PP
0 sg
0 7 0 0 0 -7 0 0 4198 1130 5 MP stroke
c15
0 0 0 -7 0 0 4198 991 4 MP
PP
0 sg
0 7 0 0 0 -7 0 0 4198 991 5 MP stroke
c15
0 0 0 -7 0 0 4198 853 4 MP
PP
0 sg
0 7 0 0 0 -7 0 0 4198 853 5 MP stroke
c15
0 0 0 -7 0 0 4198 715 4 MP
PP
0 sg
0 7 0 0 0 -7 0 0 4198 715 5 MP stroke
c15
0 0 0 -7 0 0 4198 576 4 MP
PP
0 sg
0 7 0 0 0 -7 0 0 4198 576 5 MP stroke
c15
0 0 0 -7 0 0 4198 438 4 MP
PP
0 sg
0 7 0 0 0 -7 0 0 4198 438 5 MP stroke
c16
0 0 0 -6 0 0 4198 2089 4 MP
PP
0 sg
0 6 0 0 0 -6 0 0 4198 2089 5 MP stroke
c16
0 0 0 -7 0 0 4198 1951 4 MP
PP
0 sg
0 7 0 0 0 -7 0 0 4198 1951 5 MP stroke
c16
0 0 0 -7 0 0 4198 1813 4 MP
PP
0 sg
0 7 0 0 0 -7 0 0 4198 1813 5 MP stroke
c16
0 0 0 -6 0 0 4198 1674 4 MP
PP
0 sg
0 6 0 0 0 -6 0 0 4198 1674 5 MP stroke
c16
0 0 0 -7 0 0 4198 1536 4 MP
PP
0 sg
0 7 0 0 0 -7 0 0 4198 1536 5 MP stroke
c16
0 0 0 -7 0 0 4198 1398 4 MP
PP
0 sg
0 7 0 0 0 -7 0 0 4198 1398 5 MP stroke
c16
0 0 0 -6 0 0 4198 1259 4 MP
PP
0 sg
0 6 0 0 0 -6 0 0 4198 1259 5 MP stroke
c16
0 0 0 -7 0 0 4198 1121 4 MP
PP
0 sg
0 7 0 0 0 -7 0 0 4198 1121 5 MP stroke
c16
0 0 0 -7 0 0 4198 983 4 MP
PP
0 sg
0 7 0 0 0 -7 0 0 4198 983 5 MP stroke
c16
0 0 0 -6 0 0 4198 844 4 MP
PP
0 sg
0 6 0 0 0 -6 0 0 4198 844 5 MP stroke
c16
0 0 0 -7 0 0 4198 706 4 MP
PP
0 sg
0 7 0 0 0 -7 0 0 4198 706 5 MP stroke
c16
0 0 0 -7 0 0 4198 568 4 MP
PP
0 sg
0 7 0 0 0 -7 0 0 4198 568 5 MP stroke
c16
0 0 0 -6 0 0 4198 429 4 MP
PP
0 sg
0 6 0 0 0 -6 0 0 4198 429 5 MP stroke
c17
0 0 0 -7 0 0 4198 2081 4 MP
PP
0 sg
0 7 0 0 0 -7 0 0 4198 2081 5 MP stroke
c17
0 0 0 -7 0 0 4198 1943 4 MP
PP
0 sg
0 7 0 0 0 -7 0 0 4198 1943 5 MP stroke
c17
0 0 0 -7 0 0 4198 1804 4 MP
PP
0 sg
0 7 0 0 0 -7 0 0 4198 1804 5 MP stroke
c17
0 0 0 -7 0 0 4198 1666 4 MP
PP
0 sg
0 7 0 0 0 -7 0 0 4198 1666 5 MP stroke
c17
0 0 0 -7 0 0 4198 1528 4 MP
PP
0 sg
0 7 0 0 0 -7 0 0 4198 1528 5 MP stroke
c17
0 0 0 -7 0 0 4198 1389 4 MP
PP
0 sg
0 7 0 0 0 -7 0 0 4198 1389 5 MP stroke
c17
0 0 0 -7 0 0 4198 1251 4 MP
PP
0 sg
0 7 0 0 0 -7 0 0 4198 1251 5 MP stroke
c17
0 0 0 -7 0 0 4198 1113 4 MP
PP
0 sg
0 7 0 0 0 -7 0 0 4198 1113 5 MP stroke
c17
0 0 0 -7 0 0 4198 974 4 MP
PP
0 sg
0 7 0 0 0 -7 0 0 4198 974 5 MP stroke
c17
0 0 0 -7 0 0 4198 836 4 MP
PP
0 sg
0 7 0 0 0 -7 0 0 4198 836 5 MP stroke
c17
0 0 0 -7 0 0 4198 698 4 MP
PP
0 sg
0 7 0 0 0 -7 0 0 4198 698 5 MP stroke
c17
0 0 0 -7 0 0 4198 559 4 MP
PP
0 sg
0 7 0 0 0 -7 0 0 4198 559 5 MP stroke
c17
0 0 0 -7 0 0 4198 421 4 MP
PP
0 sg
0 7 0 0 0 -7 0 0 4198 421 5 MP stroke
c18
-302 0 0 -6 302 0 4198 2072 4 MP
PP
0 sg
0 6 -302 0 0 -6 302 0 4198 2072 5 MP stroke
c18
-363 0 0 -7 363 0 4198 1934 4 MP
PP
0 sg
0 7 -363 0 0 -7 363 0 4198 1934 5 MP stroke
c18
-1576 0 0 -7 1576 0 4198 1796 4 MP
PP
0 sg
0 7 -1576 0 0 -7 1576 0 4198 1796 5 MP stroke
c18
-144 0 0 -6 144 0 4198 1657 4 MP
PP
0 sg
0 6 -144 0 0 -6 144 0 4198 1657 5 MP stroke
c18
-232 0 0 -7 232 0 4198 1519 4 MP
PP
0 sg
0 7 -232 0 0 -7 232 0 4198 1519 5 MP stroke
c18
-1420 0 0 -7 1420 0 4198 1381 4 MP
PP
0 sg
0 7 -1420 0 0 -7 1420 0 4198 1381 5 MP stroke
c18
-227 0 0 -6 227 0 4198 1242 4 MP
PP
0 sg
0 6 -227 0 0 -6 227 0 4198 1242 5 MP stroke
c18
-714 0 0 -7 714 0 4198 1104 4 MP
PP
0 sg
0 7 -714 0 0 -7 714 0 4198 1104 5 MP stroke
c18
-234 0 0 -7 234 0 4198 966 4 MP
PP
0 sg
0 7 -234 0 0 -7 234 0 4198 966 5 MP stroke
c18
-276 0 0 -6 276 0 4198 827 4 MP
PP
0 sg
0 6 -276 0 0 -6 276 0 4198 827 5 MP stroke
c18
-2063 0 0 -7 2063 0 4198 689 4 MP
PP
0 sg
0 7 -2063 0 0 -7 2063 0 4198 689 5 MP stroke
c18
-574 0 0 -7 574 0 4198 551 4 MP
PP
0 sg
0 7 -574 0 0 -7 574 0 4198 551 5 MP stroke
c18
-1281 0 0 -6 1281 0 4198 412 4 MP
PP
0 sg
0 6 -1281 0 0 -6 1281 0 4198 412 5 MP stroke
c19
0 0 0 -7 0 0 4198 2064 4 MP
PP
0 sg
0 7 0 0 0 -7 0 0 4198 2064 5 MP stroke
c19
0 0 0 -7 0 0 4198 1926 4 MP
PP
0 sg
0 7 0 0 0 -7 0 0 4198 1926 5 MP stroke
c19
0 0 0 -7 0 0 4198 1787 4 MP
PP
0 sg
0 7 0 0 0 -7 0 0 4198 1787 5 MP stroke
c19
0 0 0 -7 0 0 4198 1649 4 MP
PP
0 sg
0 7 0 0 0 -7 0 0 4198 1649 5 MP stroke
c19
0 0 0 -7 0 0 4198 1511 4 MP
PP
0 sg
0 7 0 0 0 -7 0 0 4198 1511 5 MP stroke
c19
0 0 0 -7 0 0 4198 1372 4 MP
PP
0 sg
0 7 0 0 0 -7 0 0 4198 1372 5 MP stroke
c19
0 0 0 -7 0 0 4198 1234 4 MP
PP
0 sg
0 7 0 0 0 -7 0 0 4198 1234 5 MP stroke
c19
0 0 0 -7 0 0 4198 1096 4 MP
PP
0 sg
0 7 0 0 0 -7 0 0 4198 1096 5 MP stroke
c19
0 0 0 -7 0 0 4198 957 4 MP
PP
0 sg
0 7 0 0 0 -7 0 0 4198 957 5 MP stroke
c19
0 0 0 -7 0 0 4198 819 4 MP
PP
0 sg
0 7 0 0 0 -7 0 0 4198 819 5 MP stroke
c19
0 0 0 -6 0 0 4198 680 4 MP
PP
0 sg
0 6 0 0 0 -6 0 0 4198 680 5 MP stroke
c19
0 0 0 -7 0 0 4198 542 4 MP
PP
0 sg
0 7 0 0 0 -7 0 0 4198 542 5 MP stroke
c19
0 0 0 -7 0 0 4198 404 4 MP
PP
0 sg
0 7 0 0 0 -7 0 0 4198 404 5 MP stroke
c20
0 0 0 -6 0 0 4198 2055 4 MP
PP
0 sg
0 6 0 0 0 -6 0 0 4198 2055 5 MP stroke
c20
0 0 0 -7 0 0 4198 1917 4 MP
PP
0 sg
0 7 0 0 0 -7 0 0 4198 1917 5 MP stroke
c20
0 0 0 -7 0 0 4198 1779 4 MP
PP
0 sg
0 7 0 0 0 -7 0 0 4198 1779 5 MP stroke
c20
0 0 0 -6 0 0 4198 1640 4 MP
PP
0 sg
0 6 0 0 0 -6 0 0 4198 1640 5 MP stroke
c20
0 0 0 -7 0 0 4198 1502 4 MP
PP
0 sg
0 7 0 0 0 -7 0 0 4198 1502 5 MP stroke
c20
0 0 0 -7 0 0 4198 1364 4 MP
PP
0 sg
0 7 0 0 0 -7 0 0 4198 1364 5 MP stroke
c20
0 0 0 -6 0 0 4198 1225 4 MP
PP
0 sg
0 6 0 0 0 -6 0 0 4198 1225 5 MP stroke
c20
0 0 0 -7 0 0 4198 1087 4 MP
PP
0 sg
0 7 0 0 0 -7 0 0 4198 1087 5 MP stroke
c20
0 0 0 -7 0 0 4198 949 4 MP
PP
0 sg
0 7 0 0 0 -7 0 0 4198 949 5 MP stroke
c20
0 0 0 -6 0 0 4198 810 4 MP
PP
0 sg
0 6 0 0 0 -6 0 0 4198 810 5 MP stroke
c20
0 0 0 -7 0 0 4198 672 4 MP
PP
0 sg
0 7 0 0 0 -7 0 0 4198 672 5 MP stroke
c20
0 0 0 -7 0 0 4198 534 4 MP
PP
0 sg
0 7 0 0 0 -7 0 0 4198 534 5 MP stroke
c20
0 0 0 -6 0 0 4198 395 4 MP
PP
0 sg
0 6 0 0 0 -6 0 0 4198 395 5 MP stroke
gr

1 sg
0 1770 2063 0 0 -1770 1152 4616 4 MP
PP
-2063 0 0 1770 2063 0 0 -1770 1152 4616 5 MP stroke
4 w
DO
SO
6 w
0 sg
1152 2846 mt 3215 2846 L
1152 4616 mt 3215 4616 L
3215 4616 mt 3215 2846 L
1152 4616 mt 1152 2846 L
1152 4616 mt 3215 4616 L
1152 4616 mt 1152 2846 L
1152 4616 mt 1152 4595 L
1152 2846 mt 1152 2866 L
1119 4761 mt 
(0) s
1785 4616 mt 1785 4595 L
1785 2846 mt 1785 2866 L
1719 4761 mt 
(50) s
2418 4616 mt 2418 4595 L
2418 2846 mt 2418 2866 L
2318 4761 mt 
(100) s
3051 4616 mt 3051 4595 L
3051 2846 mt 3051 2866 L
2951 4761 mt 
(150) s
1152 4561 mt 1172 4561 L
3215 4561 mt 3194 4561 L
 317 4605 mt 
(\(F,DCTs,GMM\)) s
1152 4423 mt 1172 4423 L
3215 4423 mt 3194 4423 L
 314 4467 mt 
(\(F,DCTb,GMM\)) s
1152 4284 mt 1172 4284 L
3215 4284 mt 3194 4284 L
 290 4328 mt 
(\(S,LFCC,GMM\)) s
1152 4146 mt 1172 4146 L
3215 4146 mt 3194 4146 L
 375 4190 mt 
(\(S,PAC,GMM\)) s
1152 4007 mt 1172 4007 L
3215 4007 mt 3194 4007 L
 357 4051 mt 
(\(S,SSC,GMM\)) s
1152 3869 mt 1172 3869 L
3215 3869 mt 3194 3869 L
 364 3913 mt 
(\(F,DCTs,MLP\)) s
1152 3731 mt 1172 3731 L
3215 3731 mt 3194 3731 L
 337 3775 mt 
(\(F,DCTs,iMLP\)) s
1152 3592 mt 1172 3592 L
3215 3592 mt 3194 3592 L
 360 3636 mt 
(\(F,DCTb,MLP\)) s
1152 3454 mt 1172 3454 L
3215 3454 mt 3194 3454 L
 334 3498 mt 
(\(F,DCTb,iMLP\)) s
1152 3315 mt 1172 3315 L
3215 3315 mt 3194 3315 L
 314 3359 mt 
(\(F,DCTb,GMM\)) s
1152 3177 mt 1172 3177 L
3215 3177 mt 3194 3177 L
 290 3221 mt 
(\(S,LFCC,GMM\)) s
1152 3038 mt 1172 3038 L
3215 3038 mt 3194 3038 L
 375 3082 mt 
(\(S,PAC,GMM\)) s
1152 2900 mt 1172 2900 L
3215 2900 mt 3194 2900 L
 357 2944 mt 
(\(S,SSC,GMM\)) s
1152 2846 mt 3215 2846 L
1152 4616 mt 3215 4616 L
3215 4616 mt 3215 2846 L
1152 4616 mt 1152 2846 L
gs 1152 2846 2064 1771 rc
c8
0 0 0 -7 0 0 1152 4616 4 MP
PP
0 sg
0 7 0 0 0 -7 0 0 1152 4616 5 MP stroke
c8
0 0 0 -7 0 0 1152 4477 4 MP
PP
0 sg
0 7 0 0 0 -7 0 0 1152 4477 5 MP stroke
c8
0 0 0 -7 0 0 1152 4339 4 MP
PP
0 sg
0 7 0 0 0 -7 0 0 1152 4339 5 MP stroke
c8
0 0 0 -7 0 0 1152 4200 4 MP
PP
0 sg
0 7 0 0 0 -7 0 0 1152 4200 5 MP stroke
c8
0 0 0 -7 0 0 1152 4062 4 MP
PP
0 sg
0 7 0 0 0 -7 0 0 1152 4062 5 MP stroke
c8
0 0 0 -6 0 0 1152 3923 4 MP
PP
0 sg
0 6 0 0 0 -6 0 0 1152 3923 5 MP stroke
c8
0 0 0 -7 0 0 1152 3785 4 MP
PP
0 sg
0 7 0 0 0 -7 0 0 1152 3785 5 MP stroke
c8
0 0 0 -7 0 0 1152 3647 4 MP
PP
0 sg
0 7 0 0 0 -7 0 0 1152 3647 5 MP stroke
c8
0 0 0 -7 0 0 1152 3508 4 MP
PP
0 sg
0 7 0 0 0 -7 0 0 1152 3508 5 MP stroke
c8
0 0 0 -7 0 0 1152 3370 4 MP
PP
0 sg
0 7 0 0 0 -7 0 0 1152 3370 5 MP stroke
c8
0 0 0 -6 0 0 1152 3231 4 MP
PP
0 sg
0 6 0 0 0 -6 0 0 1152 3231 5 MP stroke
c8
0 0 0 -7 0 0 1152 3093 4 MP
PP
0 sg
0 7 0 0 0 -7 0 0 1152 3093 5 MP stroke
c8
0 0 0 -7 0 0 1152 2955 4 MP
PP
0 sg
0 7 0 0 0 -7 0 0 1152 2955 5 MP stroke
0 -1770 1152 4616 2 MP stroke
c9
0 0 0 -7 0 0 1152 4607 4 MP
PP
0 sg
0 7 0 0 0 -7 0 0 1152 4607 5 MP stroke
c9
0 0 0 -7 0 0 1152 4469 4 MP
PP
0 sg
0 7 0 0 0 -7 0 0 1152 4469 5 MP stroke
c9
0 0 0 -7 0 0 1152 4330 4 MP
PP
0 sg
0 7 0 0 0 -7 0 0 1152 4330 5 MP stroke
c9
0 0 0 -7 0 0 1152 4192 4 MP
PP
0 sg
0 7 0 0 0 -7 0 0 1152 4192 5 MP stroke
c9
0 0 0 -6 0 0 1152 4053 4 MP
PP
0 sg
0 6 0 0 0 -6 0 0 1152 4053 5 MP stroke
c9
0 0 0 -7 0 0 1152 3915 4 MP
PP
0 sg
0 7 0 0 0 -7 0 0 1152 3915 5 MP stroke
c9
0 0 0 -6 0 0 1152 3776 4 MP
PP
0 sg
0 6 0 0 0 -6 0 0 1152 3776 5 MP stroke
c9
0 0 0 -7 0 0 1152 3638 4 MP
PP
0 sg
0 7 0 0 0 -7 0 0 1152 3638 5 MP stroke
c9
0 0 0 -7 0 0 1152 3500 4 MP
PP
0 sg
0 7 0 0 0 -7 0 0 1152 3500 5 MP stroke
c9
0 0 0 -7 0 0 1152 3361 4 MP
PP
0 sg
0 7 0 0 0 -7 0 0 1152 3361 5 MP stroke
c9
0 0 0 -7 0 0 1152 3223 4 MP
PP
0 sg
0 7 0 0 0 -7 0 0 1152 3223 5 MP stroke
c9
0 0 0 -6 0 0 1152 3084 4 MP
PP
0 sg
0 6 0 0 0 -6 0 0 1152 3084 5 MP stroke
c9
0 0 0 -7 0 0 1152 2946 4 MP
PP
0 sg
0 7 0 0 0 -7 0 0 1152 2946 5 MP stroke
c10
0 0 0 -6 0 0 1152 4598 4 MP
PP
0 sg
0 6 0 0 0 -6 0 0 1152 4598 5 MP stroke
c10
0 0 0 -7 0 0 1152 4460 4 MP
PP
0 sg
0 7 0 0 0 -7 0 0 1152 4460 5 MP stroke
c10
0 0 0 -7 0 0 1152 4322 4 MP
PP
0 sg
0 7 0 0 0 -7 0 0 1152 4322 5 MP stroke
c10
0 0 0 -7 0 0 1152 4183 4 MP
PP
0 sg
0 7 0 0 0 -7 0 0 1152 4183 5 MP stroke
c10
0 0 0 -7 0 0 1152 4045 4 MP
PP
0 sg
0 7 0 0 0 -7 0 0 1152 4045 5 MP stroke
c10
0 0 0 -6 0 0 1152 3906 4 MP
PP
0 sg
0 6 0 0 0 -6 0 0 1152 3906 5 MP stroke
c10
0 0 0 -7 0 0 1152 3768 4 MP
PP
0 sg
0 7 0 0 0 -7 0 0 1152 3768 5 MP stroke
c10
0 0 0 -7 0 0 1152 3630 4 MP
PP
0 sg
0 7 0 0 0 -7 0 0 1152 3630 5 MP stroke
c10
0 0 0 -7 0 0 1152 3491 4 MP
PP
0 sg
0 7 0 0 0 -7 0 0 1152 3491 5 MP stroke
c10
0 0 0 -7 0 0 1152 3353 4 MP
PP
0 sg
0 7 0 0 0 -7 0 0 1152 3353 5 MP stroke
c10
0 0 0 -6 0 0 1152 3214 4 MP
PP
0 sg
0 6 0 0 0 -6 0 0 1152 3214 5 MP stroke
c10
0 0 0 -7 0 0 1152 3076 4 MP
PP
0 sg
0 7 0 0 0 -7 0 0 1152 3076 5 MP stroke
c10
0 0 0 -6 0 0 1152 2937 4 MP
PP
0 sg
0 6 0 0 0 -6 0 0 1152 2937 5 MP stroke
c11
0 0 0 -7 0 0 1152 4590 4 MP
PP
0 sg
0 7 0 0 0 -7 0 0 1152 4590 5 MP stroke
c11
0 0 0 -7 0 0 1152 4452 4 MP
PP
0 sg
0 7 0 0 0 -7 0 0 1152 4452 5 MP stroke
c11
0 0 0 -7 0 0 1152 4313 4 MP
PP
0 sg
0 7 0 0 0 -7 0 0 1152 4313 5 MP stroke
c11
0 0 0 -7 0 0 1152 4175 4 MP
PP
0 sg
0 7 0 0 0 -7 0 0 1152 4175 5 MP stroke
c11
0 0 0 -7 0 0 1152 4036 4 MP
PP
0 sg
0 7 0 0 0 -7 0 0 1152 4036 5 MP stroke
c11
0 0 0 -7 0 0 1152 3898 4 MP
PP
0 sg
0 7 0 0 0 -7 0 0 1152 3898 5 MP stroke
c11
0 0 0 -6 0 0 1152 3759 4 MP
PP
0 sg
0 6 0 0 0 -6 0 0 1152 3759 5 MP stroke
c11
0 0 0 -7 0 0 1152 3621 4 MP
PP
0 sg
0 7 0 0 0 -7 0 0 1152 3621 5 MP stroke
c11
0 0 0 -7 0 0 1152 3483 4 MP
PP
0 sg
0 7 0 0 0 -7 0 0 1152 3483 5 MP stroke
c11
0 0 0 -7 0 0 1152 3344 4 MP
PP
0 sg
0 7 0 0 0 -7 0 0 1152 3344 5 MP stroke
c11
0 0 0 -7 0 0 1152 3206 4 MP
PP
0 sg
0 7 0 0 0 -7 0 0 1152 3206 5 MP stroke
c11
0 0 0 -6 0 0 1152 3067 4 MP
PP
0 sg
0 6 0 0 0 -6 0 0 1152 3067 5 MP stroke
c11
0 0 0 -7 0 0 1152 2929 4 MP
PP
0 sg
0 7 0 0 0 -7 0 0 1152 2929 5 MP stroke
c12
0 0 0 -6 0 0 1152 4581 4 MP
PP
0 sg
0 6 0 0 0 -6 0 0 1152 4581 5 MP stroke
c12
0 0 0 -7 0 0 1152 4443 4 MP
PP
0 sg
0 7 0 0 0 -7 0 0 1152 4443 5 MP stroke
c12
0 0 0 -7 0 0 1152 4305 4 MP
PP
0 sg
0 7 0 0 0 -7 0 0 1152 4305 5 MP stroke
c12
0 0 0 -7 0 0 1152 4166 4 MP
PP
0 sg
0 7 0 0 0 -7 0 0 1152 4166 5 MP stroke
c12
0 0 0 -7 0 0 1152 4028 4 MP
PP
0 sg
0 7 0 0 0 -7 0 0 1152 4028 5 MP stroke
c12
0 0 0 -6 0 0 1152 3889 4 MP
PP
0 sg
0 6 0 0 0 -6 0 0 1152 3889 5 MP stroke
c12
0 0 0 -7 0 0 1152 3751 4 MP
PP
0 sg
0 7 0 0 0 -7 0 0 1152 3751 5 MP stroke
c12
0 0 0 -7 0 0 1152 3613 4 MP
PP
0 sg
0 7 0 0 0 -7 0 0 1152 3613 5 MP stroke
c12
0 0 0 -7 0 0 1152 3474 4 MP
PP
0 sg
0 7 0 0 0 -7 0 0 1152 3474 5 MP stroke
c12
0 0 0 -7 0 0 1152 3336 4 MP
PP
0 sg
0 7 0 0 0 -7 0 0 1152 3336 5 MP stroke
c12
0 0 0 -7 0 0 1152 3197 4 MP
PP
0 sg
0 7 0 0 0 -7 0 0 1152 3197 5 MP stroke
c12
0 0 0 -7 0 0 1152 3059 4 MP
PP
0 sg
0 7 0 0 0 -7 0 0 1152 3059 5 MP stroke
c12
0 0 0 -6 0 0 1152 2920 4 MP
PP
0 sg
0 6 0 0 0 -6 0 0 1152 2920 5 MP stroke
c13
0 0 0 -7 0 0 1152 4573 4 MP
PP
0 sg
0 7 0 0 0 -7 0 0 1152 4573 5 MP stroke
c13
0 0 0 -6 0 0 1152 4434 4 MP
PP
0 sg
0 6 0 0 0 -6 0 0 1152 4434 5 MP stroke
c13
0 0 0 -7 0 0 1152 4296 4 MP
PP
0 sg
0 7 0 0 0 -7 0 0 1152 4296 5 MP stroke
c13
0 0 0 -7 0 0 1152 4158 4 MP
PP
0 sg
0 7 0 0 0 -7 0 0 1152 4158 5 MP stroke
c13
0 0 0 -7 0 0 1152 4019 4 MP
PP
0 sg
0 7 0 0 0 -7 0 0 1152 4019 5 MP stroke
c13
0 0 0 -7 0 0 1152 3881 4 MP
PP
0 sg
0 7 0 0 0 -7 0 0 1152 3881 5 MP stroke
c13
0 0 0 -6 0 0 1152 3742 4 MP
PP
0 sg
0 6 0 0 0 -6 0 0 1152 3742 5 MP stroke
c13
0 0 0 -7 0 0 1152 3604 4 MP
PP
0 sg
0 7 0 0 0 -7 0 0 1152 3604 5 MP stroke
c13
0 0 0 -7 0 0 1152 3466 4 MP
PP
0 sg
0 7 0 0 0 -7 0 0 1152 3466 5 MP stroke
c13
0 0 0 -7 0 0 1152 3327 4 MP
PP
0 sg
0 7 0 0 0 -7 0 0 1152 3327 5 MP stroke
c13
0 0 0 -7 0 0 1152 3189 4 MP
PP
0 sg
0 7 0 0 0 -7 0 0 1152 3189 5 MP stroke
c13
0 0 0 -6 0 0 1152 3050 4 MP
PP
0 sg
0 6 0 0 0 -6 0 0 1152 3050 5 MP stroke
c13
0 0 0 -7 0 0 1152 2912 4 MP
PP
0 sg
0 7 0 0 0 -7 0 0 1152 2912 5 MP stroke
c14
0 0 0 -6 0 0 1152 4564 4 MP
PP
0 sg
0 6 0 0 0 -6 0 0 1152 4564 5 MP stroke
c14
0 0 0 -7 0 0 1152 4426 4 MP
PP
0 sg
0 7 0 0 0 -7 0 0 1152 4426 5 MP stroke
c14
0 0 0 -7 0 0 1152 4288 4 MP
PP
0 sg
0 7 0 0 0 -7 0 0 1152 4288 5 MP stroke
c14
0 0 0 -7 0 0 1152 4149 4 MP
PP
0 sg
0 7 0 0 0 -7 0 0 1152 4149 5 MP stroke
c14
0 0 0 -7 0 0 1152 4011 4 MP
PP
0 sg
0 7 0 0 0 -7 0 0 1152 4011 5 MP stroke
c14
0 0 0 -6 0 0 1152 3872 4 MP
PP
0 sg
0 6 0 0 0 -6 0 0 1152 3872 5 MP stroke
c14
0 0 0 -7 0 0 1152 3734 4 MP
PP
0 sg
0 7 0 0 0 -7 0 0 1152 3734 5 MP stroke
c14
0 0 0 -6 0 0 1152 3595 4 MP
PP
0 sg
0 6 0 0 0 -6 0 0 1152 3595 5 MP stroke
c14
0 0 0 -7 0 0 1152 3457 4 MP
PP
0 sg
0 7 0 0 0 -7 0 0 1152 3457 5 MP stroke
c14
0 0 0 -7 0 0 1152 3319 4 MP
PP
0 sg
0 7 0 0 0 -7 0 0 1152 3319 5 MP stroke
c14
0 0 0 -7 0 0 1152 3180 4 MP
PP
0 sg
0 7 0 0 0 -7 0 0 1152 3180 5 MP stroke
c14
0 0 0 -7 0 0 1152 3042 4 MP
PP
0 sg
0 7 0 0 0 -7 0 0 1152 3042 5 MP stroke
c14
0 0 0 -6 0 0 1152 2903 4 MP
PP
0 sg
0 6 0 0 0 -6 0 0 1152 2903 5 MP stroke
c15
0 0 0 -7 0 0 1152 4556 4 MP
PP
0 sg
0 7 0 0 0 -7 0 0 1152 4556 5 MP stroke
c15
0 0 0 -6 0 0 1152 4417 4 MP
PP
0 sg
0 6 0 0 0 -6 0 0 1152 4417 5 MP stroke
c15
0 0 0 -7 0 0 1152 4279 4 MP
PP
0 sg
0 7 0 0 0 -7 0 0 1152 4279 5 MP stroke
c15
0 0 0 -7 0 0 1152 4141 4 MP
PP
0 sg
0 7 0 0 0 -7 0 0 1152 4141 5 MP stroke
c15
0 0 0 -7 0 0 1152 4002 4 MP
PP
0 sg
0 7 0 0 0 -7 0 0 1152 4002 5 MP stroke
c15
0 0 0 -7 0 0 1152 3864 4 MP
PP
0 sg
0 7 0 0 0 -7 0 0 1152 3864 5 MP stroke
c15
0 0 0 -6 0 0 1152 3725 4 MP
PP
0 sg
0 6 0 0 0 -6 0 0 1152 3725 5 MP stroke
c15
0 0 0 -7 0 0 1152 3587 4 MP
PP
0 sg
0 7 0 0 0 -7 0 0 1152 3587 5 MP stroke
c15
0 0 0 -7 0 0 1152 3449 4 MP
PP
0 sg
0 7 0 0 0 -7 0 0 1152 3449 5 MP stroke
c15
0 0 0 -7 0 0 1152 3310 4 MP
PP
0 sg
0 7 0 0 0 -7 0 0 1152 3310 5 MP stroke
c15
0 0 0 -7 0 0 1152 3172 4 MP
PP
0 sg
0 7 0 0 0 -7 0 0 1152 3172 5 MP stroke
c15
0 0 0 -6 0 0 1152 3033 4 MP
PP
0 sg
0 6 0 0 0 -6 0 0 1152 3033 5 MP stroke
c15
0 0 0 -7 0 0 1152 2895 4 MP
PP
0 sg
0 7 0 0 0 -7 0 0 1152 2895 5 MP stroke
c16
-73 0 0 -6 73 0 1152 4547 4 MP
PP
0 sg
0 6 -73 0 0 -6 73 0 1152 4547 5 MP stroke
c16
-223 0 0 -7 223 0 1152 4409 4 MP
PP
0 sg
0 7 -223 0 0 -7 223 0 1152 4409 5 MP stroke
c16
-2063 0 0 -7 2063 0 1152 4271 4 MP
PP
0 sg
0 7 -2063 0 0 -7 2063 0 1152 4271 5 MP stroke
c16
-646 0 0 -7 646 0 1152 4132 4 MP
PP
0 sg
0 7 -646 0 0 -7 646 0 1152 4132 5 MP stroke
c16
-289 0 0 -7 289 0 1152 3994 4 MP
PP
0 sg
0 7 -289 0 0 -7 289 0 1152 3994 5 MP stroke
c16
-12 0 0 -7 12 0 1152 3855 4 MP
PP
0 sg
0 7 -12 0 0 -7 12 0 1152 3855 5 MP stroke
c16
-1247 0 0 -7 1247 0 1152 3717 4 MP
PP
0 sg
0 7 -1247 0 0 -7 1247 0 1152 3717 5 MP stroke
c16
-132 0 0 -6 132 0 1152 3578 4 MP
PP
0 sg
0 6 -132 0 0 -6 132 0 1152 3578 5 MP stroke
c16
-1964 0 0 -7 1964 0 1152 3440 4 MP
PP
0 sg
0 7 -1964 0 0 -7 1964 0 1152 3440 5 MP stroke
c16
-11 0 0 -7 11 0 1152 3302 4 MP
PP
0 sg
0 7 -11 0 0 -7 11 0 1152 3302 5 MP stroke
c16
-680 0 0 -7 680 0 1152 3163 4 MP
PP
0 sg
0 7 -680 0 0 -7 680 0 1152 3163 5 MP stroke
c16
-446 0 0 -7 446 0 1152 3025 4 MP
PP
0 sg
0 7 -446 0 0 -7 446 0 1152 3025 5 MP stroke
c16
-91 0 0 -6 91 0 1152 2886 4 MP
PP
0 sg
0 6 -91 0 0 -6 91 0 1152 2886 5 MP stroke
c17
0 0 0 -7 0 0 1152 4539 4 MP
PP
0 sg
0 7 0 0 0 -7 0 0 1152 4539 5 MP stroke
c17
0 0 0 -6 0 0 1152 4400 4 MP
PP
0 sg
0 6 0 0 0 -6 0 0 1152 4400 5 MP stroke
c17
0 0 0 -7 0 0 1152 4262 4 MP
PP
0 sg
0 7 0 0 0 -7 0 0 1152 4262 5 MP stroke
c17
0 0 0 -7 0 0 1152 4124 4 MP
PP
0 sg
0 7 0 0 0 -7 0 0 1152 4124 5 MP stroke
c17
0 0 0 -7 0 0 1152 3985 4 MP
PP
0 sg
0 7 0 0 0 -7 0 0 1152 3985 5 MP stroke
c17
0 0 0 -7 0 0 1152 3847 4 MP
PP
0 sg
0 7 0 0 0 -7 0 0 1152 3847 5 MP stroke
c17
0 0 0 -6 0 0 1152 3708 4 MP
PP
0 sg
0 6 0 0 0 -6 0 0 1152 3708 5 MP stroke
c17
0 0 0 -7 0 0 1152 3570 4 MP
PP
0 sg
0 7 0 0 0 -7 0 0 1152 3570 5 MP stroke
c17
0 0 0 -7 0 0 1152 3432 4 MP
PP
0 sg
0 7 0 0 0 -7 0 0 1152 3432 5 MP stroke
c17
0 0 0 -7 0 0 1152 3293 4 MP
PP
0 sg
0 7 0 0 0 -7 0 0 1152 3293 5 MP stroke
c17
0 0 0 -7 0 0 1152 3155 4 MP
PP
0 sg
0 7 0 0 0 -7 0 0 1152 3155 5 MP stroke
c17
0 0 0 -7 0 0 1152 3016 4 MP
PP
0 sg
0 7 0 0 0 -7 0 0 1152 3016 5 MP stroke
c17
0 0 0 -7 0 0 1152 2878 4 MP
PP
0 sg
0 7 0 0 0 -7 0 0 1152 2878 5 MP stroke
c18
0 0 0 -6 0 0 1152 4530 4 MP
PP
0 sg
0 6 0 0 0 -6 0 0 1152 4530 5 MP stroke
c18
0 0 0 -7 0 0 1152 4392 4 MP
PP
0 sg
0 7 0 0 0 -7 0 0 1152 4392 5 MP stroke
c18
0 0 0 -6 0 0 1152 4253 4 MP
PP
0 sg
0 6 0 0 0 -6 0 0 1152 4253 5 MP stroke
c18
0 0 0 -7 0 0 1152 4115 4 MP
PP
0 sg
0 7 0 0 0 -7 0 0 1152 4115 5 MP stroke
c18
0 0 0 -7 0 0 1152 3977 4 MP
PP
0 sg
0 7 0 0 0 -7 0 0 1152 3977 5 MP stroke
c18
0 0 0 -7 0 0 1152 3838 4 MP
PP
0 sg
0 7 0 0 0 -7 0 0 1152 3838 5 MP stroke
c18
0 0 0 -7 0 0 1152 3700 4 MP
PP
0 sg
0 7 0 0 0 -7 0 0 1152 3700 5 MP stroke
c18
0 0 0 -6 0 0 1152 3561 4 MP
PP
0 sg
0 6 0 0 0 -6 0 0 1152 3561 5 MP stroke
c18
0 0 0 -7 0 0 1152 3423 4 MP
PP
0 sg
0 7 0 0 0 -7 0 0 1152 3423 5 MP stroke
c18
0 0 0 -7 0 0 1152 3285 4 MP
PP
0 sg
0 7 0 0 0 -7 0 0 1152 3285 5 MP stroke
c18
0 0 0 -7 0 0 1152 3146 4 MP
PP
0 sg
0 7 0 0 0 -7 0 0 1152 3146 5 MP stroke
c18
0 0 0 -7 0 0 1152 3008 4 MP
PP
0 sg
0 7 0 0 0 -7 0 0 1152 3008 5 MP stroke
c18
0 0 0 -6 0 0 1152 2869 4 MP
PP
0 sg
0 6 0 0 0 -6 0 0 1152 2869 5 MP stroke
c19
0 0 0 -7 0 0 1152 4522 4 MP
PP
0 sg
0 7 0 0 0 -7 0 0 1152 4522 5 MP stroke
c19
0 0 0 -6 0 0 1152 4383 4 MP
PP
0 sg
0 6 0 0 0 -6 0 0 1152 4383 5 MP stroke
c19
0 0 0 -7 0 0 1152 4245 4 MP
PP
0 sg
0 7 0 0 0 -7 0 0 1152 4245 5 MP stroke
c19
0 0 0 -7 0 0 1152 4107 4 MP
PP
0 sg
0 7 0 0 0 -7 0 0 1152 4107 5 MP stroke
c19
0 0 0 -7 0 0 1152 3968 4 MP
PP
0 sg
0 7 0 0 0 -7 0 0 1152 3968 5 MP stroke
c19
0 0 0 -7 0 0 1152 3830 4 MP
PP
0 sg
0 7 0 0 0 -7 0 0 1152 3830 5 MP stroke
c19
0 0 0 -6 0 0 1152 3691 4 MP
PP
0 sg
0 6 0 0 0 -6 0 0 1152 3691 5 MP stroke
c19
0 0 0 -7 0 0 1152 3553 4 MP
PP
0 sg
0 7 0 0 0 -7 0 0 1152 3553 5 MP stroke
c19
0 0 0 -6 0 0 1152 3414 4 MP
PP
0 sg
0 6 0 0 0 -6 0 0 1152 3414 5 MP stroke
c19
0 0 0 -7 0 0 1152 3276 4 MP
PP
0 sg
0 7 0 0 0 -7 0 0 1152 3276 5 MP stroke
c19
0 0 0 -7 0 0 1152 3138 4 MP
PP
0 sg
0 7 0 0 0 -7 0 0 1152 3138 5 MP stroke
c19
0 0 0 -7 0 0 1152 2999 4 MP
PP
0 sg
0 7 0 0 0 -7 0 0 1152 2999 5 MP stroke
c19
0 0 0 -7 0 0 1152 2861 4 MP
PP
0 sg
0 7 0 0 0 -7 0 0 1152 2861 5 MP stroke
c20
0 0 0 -7 0 0 1152 4513 4 MP
PP
0 sg
0 7 0 0 0 -7 0 0 1152 4513 5 MP stroke
c20
0 0 0 -7 0 0 1152 4375 4 MP
PP
0 sg
0 7 0 0 0 -7 0 0 1152 4375 5 MP stroke
c20
0 0 0 -6 0 0 1152 4236 4 MP
PP
0 sg
0 6 0 0 0 -6 0 0 1152 4236 5 MP stroke
c20
0 0 0 -7 0 0 1152 4098 4 MP
PP
0 sg
0 7 0 0 0 -7 0 0 1152 4098 5 MP stroke
c20
0 0 0 -7 0 0 1152 3960 4 MP
PP
0 sg
0 7 0 0 0 -7 0 0 1152 3960 5 MP stroke
c20
0 0 0 -7 0 0 1152 3821 4 MP
PP
0 sg
0 7 0 0 0 -7 0 0 1152 3821 5 MP stroke
c20
0 0 0 -7 0 0 1152 3683 4 MP
PP
0 sg
0 7 0 0 0 -7 0 0 1152 3683 5 MP stroke
c20
0 0 0 -6 0 0 1152 3544 4 MP
PP
0 sg
0 6 0 0 0 -6 0 0 1152 3544 5 MP stroke
c20
0 0 0 -7 0 0 1152 3406 4 MP
PP
0 sg
0 7 0 0 0 -7 0 0 1152 3406 5 MP stroke
c20
0 0 0 -7 0 0 1152 3268 4 MP
PP
0 sg
0 7 0 0 0 -7 0 0 1152 3268 5 MP stroke
c20
0 0 0 -7 0 0 1152 3129 4 MP
PP
0 sg
0 7 0 0 0 -7 0 0 1152 3129 5 MP stroke
c20
0 0 0 -7 0 0 1152 2991 4 MP
PP
0 sg
0 7 0 0 0 -7 0 0 1152 2991 5 MP stroke
c20
0 0 0 -6 0 0 1152 2852 4 MP
PP
0 sg
0 6 0 0 0 -6 0 0 1152 2852 5 MP stroke
gr

1 sg
0 1770 2063 0 0 -1770 4198 4616 4 MP
PP
-2063 0 0 1770 2063 0 0 -1770 4198 4616 5 MP stroke
4 w
DO
SO
6 w
0 sg
4198 2846 mt 6261 2846 L
4198 4616 mt 6261 4616 L
6261 4616 mt 6261 2846 L
4198 4616 mt 4198 2846 L
4198 4616 mt 6261 4616 L
4198 4616 mt 4198 2846 L
4198 4616 mt 4198 4595 L
4198 2846 mt 4198 2866 L
4165 4761 mt 
(0) s
4717 4616 mt 4717 4595 L
4717 2846 mt 4717 2866 L
4651 4761 mt 
(50) s
5237 4616 mt 5237 4595 L
5237 2846 mt 5237 2866 L
5137 4761 mt 
(100) s
5756 4616 mt 5756 4595 L
5756 2846 mt 5756 2866 L
5656 4761 mt 
(150) s
4198 4561 mt 4218 4561 L
6261 4561 mt 6240 4561 L
3363 4605 mt 
(\(F,DCTs,GMM\)) s
4198 4423 mt 4218 4423 L
6261 4423 mt 6240 4423 L
3360 4467 mt 
(\(F,DCTb,GMM\)) s
4198 4284 mt 4218 4284 L
6261 4284 mt 6240 4284 L
3336 4328 mt 
(\(S,LFCC,GMM\)) s
4198 4146 mt 4218 4146 L
6261 4146 mt 6240 4146 L
3421 4190 mt 
(\(S,PAC,GMM\)) s
4198 4007 mt 4218 4007 L
6261 4007 mt 6240 4007 L
3403 4051 mt 
(\(S,SSC,GMM\)) s
4198 3869 mt 4218 3869 L
6261 3869 mt 6240 3869 L
3410 3913 mt 
(\(F,DCTs,MLP\)) s
4198 3731 mt 4218 3731 L
6261 3731 mt 6240 3731 L
3383 3775 mt 
(\(F,DCTs,iMLP\)) s
4198 3592 mt 4218 3592 L
6261 3592 mt 6240 3592 L
3406 3636 mt 
(\(F,DCTb,MLP\)) s
4198 3454 mt 4218 3454 L
6261 3454 mt 6240 3454 L
3380 3498 mt 
(\(F,DCTb,iMLP\)) s
4198 3315 mt 4218 3315 L
6261 3315 mt 6240 3315 L
3360 3359 mt 
(\(F,DCTb,GMM\)) s
4198 3177 mt 4218 3177 L
6261 3177 mt 6240 3177 L
3336 3221 mt 
(\(S,LFCC,GMM\)) s
4198 3038 mt 4218 3038 L
6261 3038 mt 6240 3038 L
3421 3082 mt 
(\(S,PAC,GMM\)) s
4198 2900 mt 4218 2900 L
6261 2900 mt 6240 2900 L
3403 2944 mt 
(\(S,SSC,GMM\)) s
4198 2846 mt 6261 2846 L
4198 4616 mt 6261 4616 L
6261 4616 mt 6261 2846 L
4198 4616 mt 4198 2846 L
gs 4198 2846 2064 1771 rc
c8
0 0 0 -7 0 0 4198 4616 4 MP
PP
0 sg
0 7 0 0 0 -7 0 0 4198 4616 5 MP stroke
c8
0 0 0 -7 0 0 4198 4477 4 MP
PP
0 sg
0 7 0 0 0 -7 0 0 4198 4477 5 MP stroke
c8
0 0 0 -7 0 0 4198 4339 4 MP
PP
0 sg
0 7 0 0 0 -7 0 0 4198 4339 5 MP stroke
c8
0 0 0 -7 0 0 4198 4200 4 MP
PP
0 sg
0 7 0 0 0 -7 0 0 4198 4200 5 MP stroke
c8
0 0 0 -7 0 0 4198 4062 4 MP
PP
0 sg
0 7 0 0 0 -7 0 0 4198 4062 5 MP stroke
c8
0 0 0 -6 0 0 4198 3923 4 MP
PP
0 sg
0 6 0 0 0 -6 0 0 4198 3923 5 MP stroke
c8
0 0 0 -7 0 0 4198 3785 4 MP
PP
0 sg
0 7 0 0 0 -7 0 0 4198 3785 5 MP stroke
c8
0 0 0 -7 0 0 4198 3647 4 MP
PP
0 sg
0 7 0 0 0 -7 0 0 4198 3647 5 MP stroke
c8
0 0 0 -7 0 0 4198 3508 4 MP
PP
0 sg
0 7 0 0 0 -7 0 0 4198 3508 5 MP stroke
c8
0 0 0 -7 0 0 4198 3370 4 MP
PP
0 sg
0 7 0 0 0 -7 0 0 4198 3370 5 MP stroke
c8
0 0 0 -6 0 0 4198 3231 4 MP
PP
0 sg
0 6 0 0 0 -6 0 0 4198 3231 5 MP stroke
c8
0 0 0 -7 0 0 4198 3093 4 MP
PP
0 sg
0 7 0 0 0 -7 0 0 4198 3093 5 MP stroke
c8
0 0 0 -7 0 0 4198 2955 4 MP
PP
0 sg
0 7 0 0 0 -7 0 0 4198 2955 5 MP stroke
0 -1770 4198 4616 2 MP stroke
c9
0 0 0 -7 0 0 4198 4607 4 MP
PP
0 sg
0 7 0 0 0 -7 0 0 4198 4607 5 MP stroke
c9
0 0 0 -7 0 0 4198 4469 4 MP
PP
0 sg
0 7 0 0 0 -7 0 0 4198 4469 5 MP stroke
c9
0 0 0 -7 0 0 4198 4330 4 MP
PP
0 sg
0 7 0 0 0 -7 0 0 4198 4330 5 MP stroke
c9
0 0 0 -7 0 0 4198 4192 4 MP
PP
0 sg
0 7 0 0 0 -7 0 0 4198 4192 5 MP stroke
c9
0 0 0 -6 0 0 4198 4053 4 MP
PP
0 sg
0 6 0 0 0 -6 0 0 4198 4053 5 MP stroke
c9
0 0 0 -7 0 0 4198 3915 4 MP
PP
0 sg
0 7 0 0 0 -7 0 0 4198 3915 5 MP stroke
c9
0 0 0 -6 0 0 4198 3776 4 MP
PP
0 sg
0 6 0 0 0 -6 0 0 4198 3776 5 MP stroke
c9
0 0 0 -7 0 0 4198 3638 4 MP
PP
0 sg
0 7 0 0 0 -7 0 0 4198 3638 5 MP stroke
c9
0 0 0 -7 0 0 4198 3500 4 MP
PP
0 sg
0 7 0 0 0 -7 0 0 4198 3500 5 MP stroke
c9
0 0 0 -7 0 0 4198 3361 4 MP
PP
0 sg
0 7 0 0 0 -7 0 0 4198 3361 5 MP stroke
c9
0 0 0 -7 0 0 4198 3223 4 MP
PP
0 sg
0 7 0 0 0 -7 0 0 4198 3223 5 MP stroke
c9
0 0 0 -6 0 0 4198 3084 4 MP
PP
0 sg
0 6 0 0 0 -6 0 0 4198 3084 5 MP stroke
c9
0 0 0 -7 0 0 4198 2946 4 MP
PP
0 sg
0 7 0 0 0 -7 0 0 4198 2946 5 MP stroke
c10
0 0 0 -6 0 0 4198 4598 4 MP
PP
0 sg
0 6 0 0 0 -6 0 0 4198 4598 5 MP stroke
c10
0 0 0 -7 0 0 4198 4460 4 MP
PP
0 sg
0 7 0 0 0 -7 0 0 4198 4460 5 MP stroke
c10
0 0 0 -7 0 0 4198 4322 4 MP
PP
0 sg
0 7 0 0 0 -7 0 0 4198 4322 5 MP stroke
c10
0 0 0 -7 0 0 4198 4183 4 MP
PP
0 sg
0 7 0 0 0 -7 0 0 4198 4183 5 MP stroke
c10
0 0 0 -7 0 0 4198 4045 4 MP
PP
0 sg
0 7 0 0 0 -7 0 0 4198 4045 5 MP stroke
c10
0 0 0 -6 0 0 4198 3906 4 MP
PP
0 sg
0 6 0 0 0 -6 0 0 4198 3906 5 MP stroke
c10
0 0 0 -7 0 0 4198 3768 4 MP
PP
0 sg
0 7 0 0 0 -7 0 0 4198 3768 5 MP stroke
c10
0 0 0 -7 0 0 4198 3630 4 MP
PP
0 sg
0 7 0 0 0 -7 0 0 4198 3630 5 MP stroke
c10
0 0 0 -7 0 0 4198 3491 4 MP
PP
0 sg
0 7 0 0 0 -7 0 0 4198 3491 5 MP stroke
c10
0 0 0 -7 0 0 4198 3353 4 MP
PP
0 sg
0 7 0 0 0 -7 0 0 4198 3353 5 MP stroke
c10
0 0 0 -6 0 0 4198 3214 4 MP
PP
0 sg
0 6 0 0 0 -6 0 0 4198 3214 5 MP stroke
c10
0 0 0 -7 0 0 4198 3076 4 MP
PP
0 sg
0 7 0 0 0 -7 0 0 4198 3076 5 MP stroke
c10
0 0 0 -6 0 0 4198 2937 4 MP
PP
0 sg
0 6 0 0 0 -6 0 0 4198 2937 5 MP stroke
c11
0 0 0 -7 0 0 4198 4590 4 MP
PP
0 sg
0 7 0 0 0 -7 0 0 4198 4590 5 MP stroke
c11
0 0 0 -7 0 0 4198 4452 4 MP
PP
0 sg
0 7 0 0 0 -7 0 0 4198 4452 5 MP stroke
c11
0 0 0 -7 0 0 4198 4313 4 MP
PP
0 sg
0 7 0 0 0 -7 0 0 4198 4313 5 MP stroke
c11
0 0 0 -7 0 0 4198 4175 4 MP
PP
0 sg
0 7 0 0 0 -7 0 0 4198 4175 5 MP stroke
c11
0 0 0 -7 0 0 4198 4036 4 MP
PP
0 sg
0 7 0 0 0 -7 0 0 4198 4036 5 MP stroke
c11
0 0 0 -7 0 0 4198 3898 4 MP
PP
0 sg
0 7 0 0 0 -7 0 0 4198 3898 5 MP stroke
c11
0 0 0 -6 0 0 4198 3759 4 MP
PP
0 sg
0 6 0 0 0 -6 0 0 4198 3759 5 MP stroke
c11
0 0 0 -7 0 0 4198 3621 4 MP
PP
0 sg
0 7 0 0 0 -7 0 0 4198 3621 5 MP stroke
c11
0 0 0 -7 0 0 4198 3483 4 MP
PP
0 sg
0 7 0 0 0 -7 0 0 4198 3483 5 MP stroke
c11
0 0 0 -7 0 0 4198 3344 4 MP
PP
0 sg
0 7 0 0 0 -7 0 0 4198 3344 5 MP stroke
c11
0 0 0 -7 0 0 4198 3206 4 MP
PP
0 sg
0 7 0 0 0 -7 0 0 4198 3206 5 MP stroke
c11
0 0 0 -6 0 0 4198 3067 4 MP
PP
0 sg
0 6 0 0 0 -6 0 0 4198 3067 5 MP stroke
c11
0 0 0 -7 0 0 4198 2929 4 MP
PP
0 sg
0 7 0 0 0 -7 0 0 4198 2929 5 MP stroke
c12
0 0 0 -6 0 0 4198 4581 4 MP
PP
0 sg
0 6 0 0 0 -6 0 0 4198 4581 5 MP stroke
c12
0 0 0 -7 0 0 4198 4443 4 MP
PP
0 sg
0 7 0 0 0 -7 0 0 4198 4443 5 MP stroke
c12
0 0 0 -7 0 0 4198 4305 4 MP
PP
0 sg
0 7 0 0 0 -7 0 0 4198 4305 5 MP stroke
c12
0 0 0 -7 0 0 4198 4166 4 MP
PP
0 sg
0 7 0 0 0 -7 0 0 4198 4166 5 MP stroke
c12
0 0 0 -7 0 0 4198 4028 4 MP
PP
0 sg
0 7 0 0 0 -7 0 0 4198 4028 5 MP stroke
c12
0 0 0 -6 0 0 4198 3889 4 MP
PP
0 sg
0 6 0 0 0 -6 0 0 4198 3889 5 MP stroke
c12
0 0 0 -7 0 0 4198 3751 4 MP
PP
0 sg
0 7 0 0 0 -7 0 0 4198 3751 5 MP stroke
c12
0 0 0 -7 0 0 4198 3613 4 MP
PP
0 sg
0 7 0 0 0 -7 0 0 4198 3613 5 MP stroke
c12
0 0 0 -7 0 0 4198 3474 4 MP
PP
0 sg
0 7 0 0 0 -7 0 0 4198 3474 5 MP stroke
c12
0 0 0 -7 0 0 4198 3336 4 MP
PP
0 sg
0 7 0 0 0 -7 0 0 4198 3336 5 MP stroke
c12
0 0 0 -7 0 0 4198 3197 4 MP
PP
0 sg
0 7 0 0 0 -7 0 0 4198 3197 5 MP stroke
c12
0 0 0 -7 0 0 4198 3059 4 MP
PP
0 sg
0 7 0 0 0 -7 0 0 4198 3059 5 MP stroke
c12
0 0 0 -6 0 0 4198 2920 4 MP
PP
0 sg
0 6 0 0 0 -6 0 0 4198 2920 5 MP stroke
c13
0 0 0 -7 0 0 4198 4573 4 MP
PP
0 sg
0 7 0 0 0 -7 0 0 4198 4573 5 MP stroke
c13
0 0 0 -6 0 0 4198 4434 4 MP
PP
0 sg
0 6 0 0 0 -6 0 0 4198 4434 5 MP stroke
c13
0 0 0 -7 0 0 4198 4296 4 MP
PP
0 sg
0 7 0 0 0 -7 0 0 4198 4296 5 MP stroke
c13
0 0 0 -7 0 0 4198 4158 4 MP
PP
0 sg
0 7 0 0 0 -7 0 0 4198 4158 5 MP stroke
c13
0 0 0 -7 0 0 4198 4019 4 MP
PP
0 sg
0 7 0 0 0 -7 0 0 4198 4019 5 MP stroke
c13
0 0 0 -7 0 0 4198 3881 4 MP
PP
0 sg
0 7 0 0 0 -7 0 0 4198 3881 5 MP stroke
c13
0 0 0 -6 0 0 4198 3742 4 MP
PP
0 sg
0 6 0 0 0 -6 0 0 4198 3742 5 MP stroke
c13
0 0 0 -7 0 0 4198 3604 4 MP
PP
0 sg
0 7 0 0 0 -7 0 0 4198 3604 5 MP stroke
c13
0 0 0 -7 0 0 4198 3466 4 MP
PP
0 sg
0 7 0 0 0 -7 0 0 4198 3466 5 MP stroke
c13
0 0 0 -7 0 0 4198 3327 4 MP
PP
0 sg
0 7 0 0 0 -7 0 0 4198 3327 5 MP stroke
c13
0 0 0 -7 0 0 4198 3189 4 MP
PP
0 sg
0 7 0 0 0 -7 0 0 4198 3189 5 MP stroke
c13
0 0 0 -6 0 0 4198 3050 4 MP
PP
0 sg
0 6 0 0 0 -6 0 0 4198 3050 5 MP stroke
c13
0 0 0 -7 0 0 4198 2912 4 MP
PP
0 sg
0 7 0 0 0 -7 0 0 4198 2912 5 MP stroke
c14
0 0 0 -6 0 0 4198 4564 4 MP
PP
0 sg
0 6 0 0 0 -6 0 0 4198 4564 5 MP stroke
c14
0 0 0 -7 0 0 4198 4426 4 MP
PP
0 sg
0 7 0 0 0 -7 0 0 4198 4426 5 MP stroke
c14
0 0 0 -7 0 0 4198 4288 4 MP
PP
0 sg
0 7 0 0 0 -7 0 0 4198 4288 5 MP stroke
c14
0 0 0 -7 0 0 4198 4149 4 MP
PP
0 sg
0 7 0 0 0 -7 0 0 4198 4149 5 MP stroke
c14
0 0 0 -7 0 0 4198 4011 4 MP
PP
0 sg
0 7 0 0 0 -7 0 0 4198 4011 5 MP stroke
c14
0 0 0 -6 0 0 4198 3872 4 MP
PP
0 sg
0 6 0 0 0 -6 0 0 4198 3872 5 MP stroke
c14
0 0 0 -7 0 0 4198 3734 4 MP
PP
0 sg
0 7 0 0 0 -7 0 0 4198 3734 5 MP stroke
c14
0 0 0 -6 0 0 4198 3595 4 MP
PP
0 sg
0 6 0 0 0 -6 0 0 4198 3595 5 MP stroke
c14
0 0 0 -7 0 0 4198 3457 4 MP
PP
0 sg
0 7 0 0 0 -7 0 0 4198 3457 5 MP stroke
c14
0 0 0 -7 0 0 4198 3319 4 MP
PP
0 sg
0 7 0 0 0 -7 0 0 4198 3319 5 MP stroke
c14
0 0 0 -7 0 0 4198 3180 4 MP
PP
0 sg
0 7 0 0 0 -7 0 0 4198 3180 5 MP stroke
c14
0 0 0 -7 0 0 4198 3042 4 MP
PP
0 sg
0 7 0 0 0 -7 0 0 4198 3042 5 MP stroke
c14
0 0 0 -6 0 0 4198 2903 4 MP
PP
0 sg
0 6 0 0 0 -6 0 0 4198 2903 5 MP stroke
c15
0 0 0 -7 0 0 4198 4556 4 MP
PP
0 sg
0 7 0 0 0 -7 0 0 4198 4556 5 MP stroke
c15
0 0 0 -6 0 0 4198 4417 4 MP
PP
0 sg
0 6 0 0 0 -6 0 0 4198 4417 5 MP stroke
c15
0 0 0 -7 0 0 4198 4279 4 MP
PP
0 sg
0 7 0 0 0 -7 0 0 4198 4279 5 MP stroke
c15
0 0 0 -7 0 0 4198 4141 4 MP
PP
0 sg
0 7 0 0 0 -7 0 0 4198 4141 5 MP stroke
c15
0 0 0 -7 0 0 4198 4002 4 MP
PP
0 sg
0 7 0 0 0 -7 0 0 4198 4002 5 MP stroke
c15
0 0 0 -7 0 0 4198 3864 4 MP
PP
0 sg
0 7 0 0 0 -7 0 0 4198 3864 5 MP stroke
c15
0 0 0 -6 0 0 4198 3725 4 MP
PP
0 sg
0 6 0 0 0 -6 0 0 4198 3725 5 MP stroke
c15
0 0 0 -7 0 0 4198 3587 4 MP
PP
0 sg
0 7 0 0 0 -7 0 0 4198 3587 5 MP stroke
c15
0 0 0 -7 0 0 4198 3449 4 MP
PP
0 sg
0 7 0 0 0 -7 0 0 4198 3449 5 MP stroke
c15
0 0 0 -7 0 0 4198 3310 4 MP
PP
0 sg
0 7 0 0 0 -7 0 0 4198 3310 5 MP stroke
c15
0 0 0 -7 0 0 4198 3172 4 MP
PP
0 sg
0 7 0 0 0 -7 0 0 4198 3172 5 MP stroke
c15
0 0 0 -6 0 0 4198 3033 4 MP
PP
0 sg
0 6 0 0 0 -6 0 0 4198 3033 5 MP stroke
c15
0 0 0 -7 0 0 4198 2895 4 MP
PP
0 sg
0 7 0 0 0 -7 0 0 4198 2895 5 MP stroke
c16
0 0 0 -6 0 0 4198 4547 4 MP
PP
0 sg
0 6 0 0 0 -6 0 0 4198 4547 5 MP stroke
c16
0 0 0 -7 0 0 4198 4409 4 MP
PP
0 sg
0 7 0 0 0 -7 0 0 4198 4409 5 MP stroke
c16
0 0 0 -7 0 0 4198 4271 4 MP
PP
0 sg
0 7 0 0 0 -7 0 0 4198 4271 5 MP stroke
c16
0 0 0 -7 0 0 4198 4132 4 MP
PP
0 sg
0 7 0 0 0 -7 0 0 4198 4132 5 MP stroke
c16
0 0 0 -7 0 0 4198 3994 4 MP
PP
0 sg
0 7 0 0 0 -7 0 0 4198 3994 5 MP stroke
c16
0 0 0 -7 0 0 4198 3855 4 MP
PP
0 sg
0 7 0 0 0 -7 0 0 4198 3855 5 MP stroke
c16
0 0 0 -7 0 0 4198 3717 4 MP
PP
0 sg
0 7 0 0 0 -7 0 0 4198 3717 5 MP stroke
c16
0 0 0 -6 0 0 4198 3578 4 MP
PP
0 sg
0 6 0 0 0 -6 0 0 4198 3578 5 MP stroke
c16
0 0 0 -7 0 0 4198 3440 4 MP
PP
0 sg
0 7 0 0 0 -7 0 0 4198 3440 5 MP stroke
c16
0 0 0 -7 0 0 4198 3302 4 MP
PP
0 sg
0 7 0 0 0 -7 0 0 4198 3302 5 MP stroke
c16
0 0 0 -7 0 0 4198 3163 4 MP
PP
0 sg
0 7 0 0 0 -7 0 0 4198 3163 5 MP stroke
c16
0 0 0 -7 0 0 4198 3025 4 MP
PP
0 sg
0 7 0 0 0 -7 0 0 4198 3025 5 MP stroke
c16
0 0 0 -6 0 0 4198 2886 4 MP
PP
0 sg
0 6 0 0 0 -6 0 0 4198 2886 5 MP stroke
c17
0 0 0 -7 0 0 4198 4539 4 MP
PP
0 sg
0 7 0 0 0 -7 0 0 4198 4539 5 MP stroke
c17
0 0 0 -6 0 0 4198 4400 4 MP
PP
0 sg
0 6 0 0 0 -6 0 0 4198 4400 5 MP stroke
c17
0 0 0 -7 0 0 4198 4262 4 MP
PP
0 sg
0 7 0 0 0 -7 0 0 4198 4262 5 MP stroke
c17
0 0 0 -7 0 0 4198 4124 4 MP
PP
0 sg
0 7 0 0 0 -7 0 0 4198 4124 5 MP stroke
c17
0 0 0 -7 0 0 4198 3985 4 MP
PP
0 sg
0 7 0 0 0 -7 0 0 4198 3985 5 MP stroke
c17
0 0 0 -7 0 0 4198 3847 4 MP
PP
0 sg
0 7 0 0 0 -7 0 0 4198 3847 5 MP stroke
c17
0 0 0 -6 0 0 4198 3708 4 MP
PP
0 sg
0 6 0 0 0 -6 0 0 4198 3708 5 MP stroke
c17
0 0 0 -7 0 0 4198 3570 4 MP
PP
0 sg
0 7 0 0 0 -7 0 0 4198 3570 5 MP stroke
c17
0 0 0 -7 0 0 4198 3432 4 MP
PP
0 sg
0 7 0 0 0 -7 0 0 4198 3432 5 MP stroke
c17
0 0 0 -7 0 0 4198 3293 4 MP
PP
0 sg
0 7 0 0 0 -7 0 0 4198 3293 5 MP stroke
c17
0 0 0 -7 0 0 4198 3155 4 MP
PP
0 sg
0 7 0 0 0 -7 0 0 4198 3155 5 MP stroke
c17
0 0 0 -7 0 0 4198 3016 4 MP
PP
0 sg
0 7 0 0 0 -7 0 0 4198 3016 5 MP stroke
c17
0 0 0 -7 0 0 4198 2878 4 MP
PP
0 sg
0 7 0 0 0 -7 0 0 4198 2878 5 MP stroke
c18
-307 0 0 -6 307 0 4198 4530 4 MP
PP
0 sg
0 6 -307 0 0 -6 307 0 4198 4530 5 MP stroke
c18
-277 0 0 -7 277 0 4198 4392 4 MP
PP
0 sg
0 7 -277 0 0 -7 277 0 4198 4392 5 MP stroke
c18
-736 0 0 -6 736 0 4198 4253 4 MP
PP
0 sg
0 6 -736 0 0 -6 736 0 4198 4253 5 MP stroke
c18
-258 0 0 -7 258 0 4198 4115 4 MP
PP
0 sg
0 7 -258 0 0 -7 258 0 4198 4115 5 MP stroke
c18
-112 0 0 -7 112 0 4198 3977 4 MP
PP
0 sg
0 7 -112 0 0 -7 112 0 4198 3977 5 MP stroke
c18
-533 0 0 -7 533 0 4198 3838 4 MP
PP
0 sg
0 7 -533 0 0 -7 533 0 4198 3838 5 MP stroke
c18
-170 0 0 -7 170 0 4198 3700 4 MP
PP
0 sg
0 7 -170 0 0 -7 170 0 4198 3700 5 MP stroke
c18
-310 0 0 -6 310 0 4198 3561 4 MP
PP
0 sg
0 6 -310 0 0 -6 310 0 4198 3561 5 MP stroke
c18
-1351 0 0 -7 1351 0 4198 3423 4 MP
PP
0 sg
0 7 -1351 0 0 -7 1351 0 4198 3423 5 MP stroke
c18
-44 0 0 -7 44 0 4198 3285 4 MP
PP
0 sg
0 7 -44 0 0 -7 44 0 4198 3285 5 MP stroke
c18
-2063 0 0 -7 2063 0 4198 3146 4 MP
PP
0 sg
0 7 -2063 0 0 -7 2063 0 4198 3146 5 MP stroke
c18
-300 0 0 -7 300 0 4198 3008 4 MP
PP
0 sg
0 7 -300 0 0 -7 300 0 4198 3008 5 MP stroke
c18
-998 0 0 -6 998 0 4198 2869 4 MP
PP
0 sg
0 6 -998 0 0 -6 998 0 4198 2869 5 MP stroke
c19
0 0 0 -7 0 0 4198 4522 4 MP
PP
0 sg
0 7 0 0 0 -7 0 0 4198 4522 5 MP stroke
c19
0 0 0 -6 0 0 4198 4383 4 MP
PP
0 sg
0 6 0 0 0 -6 0 0 4198 4383 5 MP stroke
c19
0 0 0 -7 0 0 4198 4245 4 MP
PP
0 sg
0 7 0 0 0 -7 0 0 4198 4245 5 MP stroke
c19
0 0 0 -7 0 0 4198 4107 4 MP
PP
0 sg
0 7 0 0 0 -7 0 0 4198 4107 5 MP stroke
c19
0 0 0 -7 0 0 4198 3968 4 MP
PP
0 sg
0 7 0 0 0 -7 0 0 4198 3968 5 MP stroke
c19
0 0 0 -7 0 0 4198 3830 4 MP
PP
0 sg
0 7 0 0 0 -7 0 0 4198 3830 5 MP stroke
c19
0 0 0 -6 0 0 4198 3691 4 MP
PP
0 sg
0 6 0 0 0 -6 0 0 4198 3691 5 MP stroke
c19
0 0 0 -7 0 0 4198 3553 4 MP
PP
0 sg
0 7 0 0 0 -7 0 0 4198 3553 5 MP stroke
c19
0 0 0 -6 0 0 4198 3414 4 MP
PP
0 sg
0 6 0 0 0 -6 0 0 4198 3414 5 MP stroke
c19
0 0 0 -7 0 0 4198 3276 4 MP
PP
0 sg
0 7 0 0 0 -7 0 0 4198 3276 5 MP stroke
c19
0 0 0 -7 0 0 4198 3138 4 MP
PP
0 sg
0 7 0 0 0 -7 0 0 4198 3138 5 MP stroke
c19
0 0 0 -7 0 0 4198 2999 4 MP
PP
0 sg
0 7 0 0 0 -7 0 0 4198 2999 5 MP stroke
c19
0 0 0 -7 0 0 4198 2861 4 MP
PP
0 sg
0 7 0 0 0 -7 0 0 4198 2861 5 MP stroke
c20
0 0 0 -7 0 0 4198 4513 4 MP
PP
0 sg
0 7 0 0 0 -7 0 0 4198 4513 5 MP stroke
c20
0 0 0 -7 0 0 4198 4375 4 MP
PP
0 sg
0 7 0 0 0 -7 0 0 4198 4375 5 MP stroke
c20
0 0 0 -6 0 0 4198 4236 4 MP
PP
0 sg
0 6 0 0 0 -6 0 0 4198 4236 5 MP stroke
c20
0 0 0 -7 0 0 4198 4098 4 MP
PP
0 sg
0 7 0 0 0 -7 0 0 4198 4098 5 MP stroke
c20
0 0 0 -7 0 0 4198 3960 4 MP
PP
0 sg
0 7 0 0 0 -7 0 0 4198 3960 5 MP stroke
c20
0 0 0 -7 0 0 4198 3821 4 MP
PP
0 sg
0 7 0 0 0 -7 0 0 4198 3821 5 MP stroke
c20
0 0 0 -7 0 0 4198 3683 4 MP
PP
0 sg
0 7 0 0 0 -7 0 0 4198 3683 5 MP stroke
c20
0 0 0 -6 0 0 4198 3544 4 MP
PP
0 sg
0 6 0 0 0 -6 0 0 4198 3544 5 MP stroke
c20
0 0 0 -7 0 0 4198 3406 4 MP
PP
0 sg
0 7 0 0 0 -7 0 0 4198 3406 5 MP stroke
c20
0 0 0 -7 0 0 4198 3268 4 MP
PP
0 sg
0 7 0 0 0 -7 0 0 4198 3268 5 MP stroke
c20
0 0 0 -7 0 0 4198 3129 4 MP
PP
0 sg
0 7 0 0 0 -7 0 0 4198 3129 5 MP stroke
c20
0 0 0 -7 0 0 4198 2991 4 MP
PP
0 sg
0 7 0 0 0 -7 0 0 4198 2991 5 MP stroke
c20
0 0 0 -6 0 0 4198 2852 4 MP
PP
0 sg
0 6 0 0 0 -6 0 0 4198 2852 5 MP stroke
gr


end %%Color Dict

eplot
%%EndObject

epage
end

showpage

%%Trailer
%%EOF
