%!PS-Adobe-3.0 EPSF-3.0
%%Creator: MATLAB, The Mathworks, Inc.
%%Title: Pictures\US_llk001.eps
%%CreationDate: 11/30/2006  09:12:00
%%DocumentNeededFonts: Helvetica
%%DocumentProcessColors: Cyan Magenta Yellow Black
%%LanguageLevel: 2
%%Pages: 1
%%BoundingBox:    58   199   543   589
%%EndComments

%%BeginProlog
% MathWorks dictionary
/MathWorks 160 dict begin
% definition operators
/bdef {bind def} bind def
/ldef {load def} bind def
/xdef {exch def} bdef
/xstore {exch store} bdef
% operator abbreviations
/c  /clip ldef
/cc /concat ldef
/cp /closepath ldef
/gr /grestore ldef
/gs /gsave ldef
/mt /moveto ldef
/np /newpath ldef
/cm /currentmatrix ldef
/sm /setmatrix ldef
/rm /rmoveto ldef
/rl /rlineto ldef
/s {show newpath} bdef
/sc {setcmykcolor} bdef
/sr /setrgbcolor ldef
/sg /setgray ldef
/w /setlinewidth ldef
/j /setlinejoin ldef
/cap /setlinecap ldef
/rc {rectclip} bdef
/rf {rectfill} bdef
% page state control
/pgsv () def
/bpage {/pgsv save def} bdef
/epage {pgsv restore} bdef
/bplot /gsave ldef
/eplot {stroke grestore} bdef
% orientation switch
/portraitMode 0 def /landscapeMode 1 def /rotateMode 2 def
% coordinate system mappings
/dpi2point 0 def
% font control
/FontSize 0 def
/FMS {/FontSize xstore findfont [FontSize 0 0 FontSize neg 0 0]
  makefont setfont} bdef
/ISOLatin1Encoding where {pop /WindowsLatin1Encoding 256 array bdef
ISOLatin1Encoding WindowsLatin1Encoding copy pop
/.notdef/.notdef/quotesinglbase/florin/quotedblbase/ellipsis/dagger
/daggerdbl/circumflex/perthousand/Scaron/guilsinglleft/OE/.notdef/.notdef
/.notdef/.notdef/quoteleft/quoteright/quotedblleft/quotedblright/bullet
/endash/emdash/tilde/trademark/scaron/guilsinglright/oe/.notdef/.notdef
/Ydieresis WindowsLatin1Encoding 128 32 getinterval astore pop}
{/WindowsLatin1Encoding StandardEncoding bdef} ifelse
/reencode {exch dup where {pop load} {pop StandardEncoding} ifelse
  exch dup 3 1 roll findfont dup length dict begin
  { 1 index /FID ne {def}{pop pop} ifelse } forall
  /Encoding exch def currentdict end definefont pop} bdef
/isroman {findfont /CharStrings get /Agrave known} bdef
/FMSR {3 1 roll 1 index dup isroman {reencode} {pop pop} ifelse
  exch FMS} bdef
/csm {1 dpi2point div -1 dpi2point div scale neg translate
 dup landscapeMode eq {pop -90 rotate}
  {rotateMode eq {90 rotate} if} ifelse} bdef
% line types: solid, dotted, dashed, dotdash
/SO { [] 0 setdash } bdef
/DO { [.5 dpi2point mul 4 dpi2point mul] 0 setdash } bdef
/DA { [6 dpi2point mul] 0 setdash } bdef
/DD { [.5 dpi2point mul 4 dpi2point mul 6 dpi2point mul 4
  dpi2point mul] 0 setdash } bdef
% macros for lines and objects
/L {lineto stroke} bdef
/MP {3 1 roll moveto 1 sub {rlineto} repeat} bdef
/AP {{rlineto} repeat} bdef
/PDlw -1 def
/W {/PDlw currentlinewidth def setlinewidth} def
/PP {closepath eofill} bdef
/DP {closepath stroke} bdef
/MR {4 -2 roll moveto dup  0 exch rlineto exch 0 rlineto
  neg 0 exch rlineto closepath} bdef
/FR {MR stroke} bdef
/PR {MR fill} bdef
/L1i {{currentfile picstr readhexstring pop} image} bdef
/tMatrix matrix def
/MakeOval {newpath tMatrix currentmatrix pop translate scale
0 0 1 0 360 arc tMatrix setmatrix} bdef
/FO {MakeOval stroke} bdef
/PO {MakeOval fill} bdef
/PD {currentlinewidth 2 div 0 360 arc fill
   PDlw -1 eq not {PDlw w /PDlw -1 def} if} def
/FA {newpath tMatrix currentmatrix pop translate scale
  0 0 1 5 -2 roll arc tMatrix setmatrix stroke} bdef
/PA {newpath tMatrix currentmatrix pop	translate 0 0 moveto scale
  0 0 1 5 -2 roll arc closepath tMatrix setmatrix fill} bdef
/FAn {newpath tMatrix currentmatrix pop translate scale
  0 0 1 5 -2 roll arcn tMatrix setmatrix stroke} bdef
/PAn {newpath tMatrix currentmatrix pop translate 0 0 moveto scale
  0 0 1 5 -2 roll arcn closepath tMatrix setmatrix fill} bdef
/vradius 0 def /hradius 0 def /lry 0 def
/lrx 0 def /uly 0 def /ulx 0 def /rad 0 def
/MRR {/vradius xdef /hradius xdef /lry xdef /lrx xdef /uly xdef
  /ulx xdef newpath tMatrix currentmatrix pop ulx hradius add uly
  vradius add translate hradius vradius scale 0 0 1 180 270 arc 
  tMatrix setmatrix lrx hradius sub uly vradius add translate
  hradius vradius scale 0 0 1 270 360 arc tMatrix setmatrix
  lrx hradius sub lry vradius sub translate hradius vradius scale
  0 0 1 0 90 arc tMatrix setmatrix ulx hradius add lry vradius sub
  translate hradius vradius scale 0 0 1 90 180 arc tMatrix setmatrix
  closepath} bdef
/FRR {MRR stroke } bdef
/PRR {MRR fill } bdef
/MlrRR {/lry xdef /lrx xdef /uly xdef /ulx xdef /rad lry uly sub 2 div def
  newpath tMatrix currentmatrix pop ulx rad add uly rad add translate
  rad rad scale 0 0 1 90 270 arc tMatrix setmatrix lrx rad sub lry rad
  sub translate rad rad scale 0 0 1 270 90 arc tMatrix setmatrix
  closepath} bdef
/FlrRR {MlrRR stroke } bdef
/PlrRR {MlrRR fill } bdef
/MtbRR {/lry xdef /lrx xdef /uly xdef /ulx xdef /rad lrx ulx sub 2 div def
  newpath tMatrix currentmatrix pop ulx rad add uly rad add translate
  rad rad scale 0 0 1 180 360 arc tMatrix setmatrix lrx rad sub lry rad
  sub translate rad rad scale 0 0 1 0 180 arc tMatrix setmatrix
  closepath} bdef
/FtbRR {MtbRR stroke } bdef
/PtbRR {MtbRR fill } bdef
/stri 6 array def /dtri 6 array def
/smat 6 array def /dmat 6 array def
/tmat1 6 array def /tmat2 6 array def /dif 3 array def
/asub {/ind2 exch def /ind1 exch def dup dup
  ind1 get exch ind2 get sub exch } bdef
/tri_to_matrix {
  2 0 asub 3 1 asub 4 0 asub 5 1 asub
  dup 0 get exch 1 get 7 -1 roll astore } bdef
/compute_transform {
  dmat dtri tri_to_matrix tmat1 invertmatrix 
  smat stri tri_to_matrix tmat2 concatmatrix } bdef
/ds {stri astore pop} bdef
/dt {dtri astore pop} bdef
/db {2 copy /cols xdef /rows xdef mul dup 3 mul string
  currentfile 
  3 index 0 eq {/ASCIIHexDecode filter}
  {/ASCII85Decode filter 3 index 2 eq {/RunLengthDecode filter} if }
  ifelse exch readstring pop
  dup 0 3 index getinterval /rbmap xdef
  dup 2 index dup getinterval /gbmap xdef
  1 index dup 2 mul exch getinterval /bbmap xdef pop pop}bdef
/it {gs np dtri aload pop moveto lineto lineto cp c
  cols rows 8 compute_transform 
  rbmap gbmap bbmap true 3 colorimage gr}bdef
/il {newpath moveto lineto stroke}bdef
currentdict end def
%%EndProlog

%%BeginSetup
MathWorks begin

0 cap

end
%%EndSetup

%%Page: 1 1
%%BeginPageSetup
%%PageBoundingBox:    58   199   543   589
MathWorks begin
bpage
%%EndPageSetup

%%BeginObject: obj1
bplot

/dpi2point 12 def
portraitMode 0216 7344 csm

  480   274  5831  4682 rc
85 dict begin %Colortable dictionary
/c0 { 0.000000 0.000000 0.000000 sr} bdef
/c1 { 1.000000 1.000000 1.000000 sr} bdef
/c2 { 0.900000 0.000000 0.000000 sr} bdef
/c3 { 0.000000 0.820000 0.000000 sr} bdef
/c4 { 0.000000 0.000000 0.800000 sr} bdef
/c5 { 0.910000 0.820000 0.320000 sr} bdef
/c6 { 1.000000 0.260000 0.820000 sr} bdef
/c7 { 0.000000 0.820000 0.820000 sr} bdef
c0
1 j
1 sg
   0    0 6919 5187 rf
6 w
0 4227 5362 0 0 -4227 899 4616 4 MP
PP
-5362 0 0 4227 5362 0 0 -4227 899 4616 5 MP stroke
4 w
DO
SO
6 w
0 sg
 899 4616 mt 6261 4616 L
 899 4616 mt  899  389 L
1246 4616 mt 1246 4562 L
%%IncludeResource: font Helvetica
/Helvetica /WindowsLatin1Encoding 120 FMSR

1143 4761 mt 
(-6) s
1997 4616 mt 1997 4562 L
1894 4761 mt 
(-4) s
2747 4616 mt 2747 4562 L
2644 4761 mt 
(-2) s
3498 4616 mt 3498 4562 L
3465 4761 mt 
(0) s
4248 4616 mt 4248 4562 L
4215 4761 mt 
(2) s
4999 4616 mt 4999 4562 L
4966 4761 mt 
(4) s
5749 4616 mt 5749 4562 L
5716 4761 mt 
(6) s
 899 4616 mt  952 4616 L
 798 4660 mt 
(0) s
 899 4193 mt  952 4193 L
 698 4237 mt 
(0.5) s
 899 3770 mt  952 3770 L
 798 3814 mt 
(1) s
 899 3347 mt  952 3347 L
 698 3391 mt 
(1.5) s
 899 2925 mt  952 2925 L
 798 2969 mt 
(2) s
 899 2502 mt  952 2502 L
 698 2546 mt 
(2.5) s
 899 2079 mt  952 2079 L
 798 2123 mt 
(3) s
 899 1657 mt  952 1657 L
 698 1701 mt 
(3.5) s
 899 1234 mt  952 1234 L
 798 1278 mt 
(4) s
 899  811 mt  952  811 L
 698  855 mt 
(4.5) s
 899  389 mt  952  389 L
 798  433 mt 
(5) s
3402 4904 mt 
(scores) s
 616 2752 mt  -90 rotate
(likelihood) s
90 rotate
gs 899 389 5363 4228 rc
/c8 { 1.000000 0.000000 0.000000 sr} bdef
c8
6 0 5 0 6 0 5 0 5 0 6 0 5 0 5 0 
6 0 5 0 6 0 5 0 5 0 6 0 5 0 5 0 
6 0 5 0 5 0 6 0 5 0 6 0 5 0 5 0 
6 0 5 0 5 0 6 0 5 0 6 0 5 0 5 0 
6 0 5 0 5 0 6 0 5 0 5 0 6 0 5 0 
6 0 5 0 5 0 6 0 5 0 5 0 6 0 5 0 
6 0 5 0 5 0 6 0 5 0 5 0 6 0 5 0 
5 0 6 0 5 0 6 0 5 0 5 0 6 0 5 0 
5 0 6 0 5 0 5 0 6 0 5 0 6 0 5 0 
5 0 6 0 5 0 5 0 6 0 5 1 6 0 5 0 
5 0 6 0 5 0 5 0 6 0 5 0 5 0 6 0 
5 0 6 0 5 0 5 0 6 0 5 0 5 0 6 0 
5 0 6 0 5 0 5 0 6 0 5 0 5 0 6 0 
5 0 5 0 6 0 5 0 6 0 5 0 5 0 6 0 
5 0 5 0 6 0 5 0 5 0 6 0 5 0 6 0 
5 0 5 0 6 0 5 0 5 0 6 0 5 0 6 0 
5 0 5 0 6 0 5 0 5 0 6 0 5 0 5 0 
6 0 5 0 6 0 5 0 5 0 6 0 5 0 5 0 
6 0 5 0 6 0 5 0 5 0 6 0 5 0 5 0 
6 0 5 0 5 0 6 0 5 0 6 0 5 0 5 0 
6 0 5 0 5 0 6 0 5 0 5 0 6 0 5 0 
6 0 5 0 5 0 6 0 5 0 5 0 6 0 5 0 
6 0 5 0 5 0 6 0 5 0 5 0 6 0 5 0 
5 0 6 0 5 0 6 0 5 0 5 0 6 0 5 0 
5 0 6 0 5 0 6 0 5 0 5 0 6 0 5 0 
5 0 6 0 5 0 5 0 6 0 5 0 6 0 5 0 
5 0 6 0 5 0 5 0 6 0 5 0 5 0 6 0 
5 0 6 0 5 0 5 0 6 0 5 0 5 0 6 0 
5 0 6 0 5 0 5 0 6 0 5 0 5 0 6 0 
5 0 5 0 6 0 5 0 6 0 5 0 5 0 6 0 
5 0 5 0 6 0 5 0 6 0 5 0 5 0 6 0 
5 0 5 0 6 0 5 0 5 0 6 0 5 0 6 0 
5 0 5 0 6 0 5 0 5 0 6 0 5 0 5 0 
6 0 5 0 6 0 5 0 5 0 6 0 5 0 5 0 
6 0 5 0 6 0 5 0 5 0 6 0 5 0 5 0 
6 0 5 0 5 0 6 0 5 0 6 0 5 0 5 0 
6 0 5 0 5 0 6 0 5 0 6 0 5 0 5 0 
6 0 5 0 5 0 4656 4615 300 MP stroke
6 0 5 0 5 0 6 0 5 0 6 0 5 0 5 0 
6 0 5 0 5 0 6 0 5 0 5 0 6 0 5 0 
6 0 5 0 5 0 6 0 5 0 5 0 6 0 5 0 
6 0 5 0 5 0 6 0 5 0 5 0 6 0 5 0 
5 0 6 0 5 0 6 0 5 0 5 0 6 0 5 0 
5 0 6 0 5 0 6 0 5 0 5 0 6 0 5 0 
5 0 6 0 5 0 5 0 6 0 5 0 6 0 5 0 
5 0 6 0 5 0 5 0 6 0 5 0 5 0 6 0 
5 0 6 0 5 0 5 0 6 0 5 0 5 0 6 0 
5 0 6 0 5 0 5 0 6 0 5 0 5 0 6 0 
5 0 5 0 6 0 5 0 6 0 5 0 5 0 6 0 
5 0 5 0 6 0 5 0 6 0 5 0 5 0 6 0 
5 0 5 0 6 0 5 0 5 0 6 0 5 0 6 0 
5 0 5 0 6 0 5 0 5 0 6 0 5 0 5 0 
6 0 5 0 6 0 5 0 5 0 6 0 5 0 5 0 
6 0 5 0 6 1 5 0 5 0 6 0 5 0 5 0 
6 0 5 0 5 0 6 0 5 0 6 0 5 0 5 0 
6 1 5 0 5 0 6 0 5 0 6 0 5 0 5 0 
6 0 5 0 5 1 6 0 5 0 5 0 6 0 5 0 
6 1 5 0 5 0 6 0 5 0 5 0 6 1 5 0 
5 0 6 0 5 1 6 0 5 0 5 0 6 1 5 0 
5 0 6 1 5 0 6 0 5 0 5 1 6 0 5 1 
5 0 6 0 5 1 5 0 6 1 5 0 6 0 5 1 
5 0 6 1 5 0 5 1 6 1 5 0 6 1 5 0 
5 1 6 1 5 0 5 1 6 1 5 0 5 1 6 1 
5 1 6 0 5 1 5 1 6 1 5 1 5 1 6 1 
5 0 5 1 6 1 5 1 6 2 5 1 5 1 6 1 
5 1 5 1 6 1 5 1 6 2 5 1 5 1 6 2 
5 1 5 1 6 2 5 1 5 2 6 1 5 2 6 1 
5 2 5 1 6 2 5 2 5 1 6 2 5 2 6 2 
5 2 5 1 6 2 5 2 5 2 6 2 5 2 5 2 
6 2 5 2 6 2 5 2 5 3 6 2 5 2 5 2 
6 3 5 2 5 2 6 3 5 2 6 2 5 3 5 2 
6 3 5 2 5 3 6 2 5 3 6 3 5 2 5 3 
6 3 5 2 5 3 6 3 5 2 5 3 6 3 5 3 
6 2 5 3 5 3 6 3 5 3 5 2 6 3 5 3 
6 3 5 3 5 3 6 3 5 2 5 3 6 3 5 3 
5 3 6 3 5 3 3051 4394 300 MP stroke
6 2 5 3 5 3 6 3 5 3 5 2 6 3 5 3 
5 3 6 2 5 3 6 3 5 2 5 3 6 2 5 3 
5 3 6 2 5 3 6 2 5 2 5 3 6 2 5 2 
5 3 6 2 5 2 5 2 6 2 5 2 6 2 5 2 
5 2 6 2 5 2 5 2 6 1 5 2 6 2 5 1 
5 2 6 1 5 1 5 2 6 1 5 1 5 1 6 1 
5 1 6 1 5 1 5 1 6 1 5 1 5 0 6 1 
5 0 5 1 6 0 5 0 6 1 5 0 5 0 6 0 
5 0 5 0 6 0 5 0 6 -1 5 0 5 -1 6 0 
5 -1 5 0 6 -1 5 -1 5 0 6 -1 5 -1 6 -1 
5 -1 5 -1 6 -2 5 -1 5 -1 6 -2 5 -1 6 -1 
5 -2 5 -2 6 -1 5 -2 5 -2 6 -1 5 -2 5 -2 
6 -2 5 -2 6 -2 5 -2 5 -2 6 -3 5 -2 5 -2 
6 -2 5 -3 5 -2 6 -2 5 -3 6 -2 5 -3 5 -2 
6 -3 5 -2 5 -3 6 -3 5 -2 6 -3 5 -3 5 -2 
6 -3 5 -3 5 -3 6 -2 5 -3 5 -3 6 -3 5 -3 
6 -3 5 -2 5 -3 6 -3 5 -3 5 -3 6 -3 5 -3 
6 -2 5 -3 5 -3 6 -3 5 -3 5 -3 6 -2 5 -3 
5 -3 6 -3 5 -3 6 -2 5 -3 5 -3 6 -3 5 -2 
5 -3 6 -3 5 -2 5 -3 6 -3 5 -2 6 -3 5 -2 
5 -3 6 -3 5 -2 5 -3 6 -2 5 -2 6 -3 5 -2 
5 -2 6 -3 5 -2 5 -2 6 -3 5 -2 5 -2 6 -2 
5 -2 6 -2 5 -2 5 -2 6 -2 5 -2 5 -2 6 -2 
5 -2 6 -2 5 -2 5 -2 6 -1 5 -2 5 -2 6 -1 
5 -2 5 -2 6 -1 5 -2 6 -1 5 -2 5 -1 6 -2 
5 -1 5 -2 6 -1 5 -1 5 -2 6 -1 5 -1 6 -1 
5 -2 5 -1 6 -1 5 -1 5 -1 6 -1 5 -1 6 -1 
5 -1 5 -1 6 -1 5 -1 5 -1 6 -1 5 -1 5 -1 
6 0 5 -1 6 -1 5 -1 5 0 6 -1 5 -1 5 -1 
6 0 5 -1 6 -1 5 0 5 -1 6 0 5 -1 5 0 
6 -1 5 0 5 -1 6 0 5 -1 6 0 5 -1 5 0 
6 -1 5 0 5 0 6 -1 5 0 5 0 6 -1 5 0 
6 0 5 -1 5 0 6 0 5 -1 5 0 6 0 5 0 
6 -1 5 0 5 0 6 0 5 0 5 -1 6 0 5 0 
5 0 6 0 5 -1 6 0 5 0 5 0 6 0 5 0 
5 0 6 -1 5 0 6 0 5 0 5 0 6 0 5 0 
5 0 6 0 5 -1 5 0 6 0 5 0 6 0 5 0 
5 0 6 0 5 0 1446 4614 300 MP stroke
5 0 6 0 5 0 5 0 6 0 5 0 6 -1 5 0 
5 0 6 0 5 0 5 0 6 0 5 0 6 0 5 0 
5 0 6 0 5 0 5 0 6 0 5 0 5 0 6 0 
5 0 6 0 5 0 5 0 6 0 5 0 5 0 6 0 
5 0 6 0 5 0 5 0 6 0 5 0 5 0 6 0 
5 0 5 0 6 0 5 0 6 0 5 0 5 0 6 0 
5 0 5 0 6 0 5 0 5 0 6 0 5 0 6 0 
5 0 5 0 6 0 5 0 5 0 6 0 5 0 6 0 
5 0 5 0 6 0 5 0 5 0 6 0 5 0 5 0 
6 0 5 0 6 0 5 0 5 0 6 0 5 0 5 0 
6 0 5 0 6 0 5 0 5 0 6 0 5 0 5 0 
6 0 5 0 5 0 6 0 5 0 6 0 5 0 5 0 
6 0 5 0 5 0 6 0 5 0 5 0 899 4615 103 MP stroke
/c9 { 0.000000 0.000000 1.000000 sr} bdef
c9
6 0 5 0 6 0 5 0 5 0 6 0 5 0 5 0 
6 0 5 0 6 0 5 0 5 0 6 0 5 0 5 0 
6 0 5 0 5 0 6 0 5 0 6 0 5 0 5 0 
6 0 5 0 5 0 6 0 5 0 6 0 5 0 5 0 
6 0 5 0 5 0 6 0 5 0 5 0 6 0 5 0 
6 0 5 0 5 0 6 0 5 0 5 0 6 0 5 0 
6 0 5 0 5 0 6 0 5 0 5 0 6 0 5 0 
5 0 6 0 5 0 6 0 5 0 5 0 6 1 5 0 
5 0 6 0 5 0 5 0 6 1 5 0 6 0 5 0 
5 1 6 0 5 0 5 1 6 0 5 1 6 0 5 1 
5 1 6 0 5 1 5 1 6 1 5 1 5 1 6 1 
5 1 6 2 5 1 5 2 6 2 5 1 5 3 6 2 
5 2 6 2 5 3 5 3 6 3 5 3 5 4 6 3 
5 4 5 4 6 5 5 4 6 5 5 6 5 5 6 6 
5 6 5 6 6 7 5 7 5 7 6 8 5 8 6 8 
5 9 5 9 6 9 5 10 5 10 6 10 5 11 6 11 
5 11 5 12 6 12 5 13 5 12 6 13 5 13 5 14 
6 13 5 14 6 14 5 14 5 15 6 14 5 15 5 14 
6 15 5 14 6 15 5 15 5 14 6 15 5 14 5 14 
6 14 5 13 5 14 6 12 5 13 6 12 5 12 5 12 
6 10 5 11 5 10 6 9 5 8 5 9 6 7 5 7 
6 6 5 5 5 5 6 3 5 4 5 2 6 1 5 1 
6 0 5 0 5 -2 6 -2 5 -3 5 -4 6 -5 5 -5 
5 -6 6 -6 5 -8 6 -8 5 -8 5 -9 6 -10 5 -11 
5 -10 6 -12 5 -11 6 -13 5 -12 5 -13 6 -13 5 -14 
5 -14 6 -14 5 -14 5 -14 6 -15 5 -14 6 -15 5 -15 
5 -14 6 -15 5 -15 5 -14 6 -14 5 -15 5 -14 6 -13 
5 -14 6 -13 5 -14 5 -13 6 -12 5 -13 5 -12 6 -11 
5 -12 6 -11 5 -11 5 -10 6 -10 5 -10 5 -9 6 -9 
5 -9 5 -8 6 -8 5 -8 6 -7 5 -7 5 -7 6 -7 
5 -6 5 -5 6 -6 5 -5 6 -5 5 -5 5 -4 6 -4 
5 -4 5 -4 6 -3 5 -4 5 -3 6 -3 5 -2 6 -3 
5 -2 5 -2 6 -2 5 -2 5 -2 6 -2 5 -1 5 -1 
6 -2 5 -1 6 -1 5 -1 5 -1 6 -1 5 -1 5 0 
6 -1 5 -1 6 0 5 -1 5 0 6 -1 5 0 5 0 
6 -1 5 0 5 0 6 0 5 -1 6 0 5 0 5 0 
6 0 5 0 5 -1 6 0 5 0 6 0 5 0 5 0 
6 0 5 0 5 0 4656 4615 300 MP stroke
6 0 5 0 5 0 6 0 5 0 6 0 5 0 5 0 
6 0 5 0 5 0 6 0 5 0 5 0 6 0 5 0 
6 0 5 0 5 0 6 0 5 0 5 0 6 0 5 0 
6 0 5 0 5 0 6 0 5 0 5 0 6 0 5 0 
5 0 6 0 5 0 6 0 5 0 5 0 6 0 5 0 
5 0 6 0 5 0 6 0 5 0 5 0 6 0 5 0 
5 0 6 0 5 0 5 0 6 0 5 0 6 0 5 0 
5 0 6 0 5 0 5 0 6 0 5 0 5 0 6 0 
5 0 6 0 5 0 5 0 6 0 5 0 5 0 6 0 
5 0 6 0 5 0 5 0 6 0 5 0 5 0 6 0 
5 0 5 0 6 0 5 0 6 0 5 0 5 0 6 0 
5 0 5 0 6 0 5 0 6 0 5 0 5 0 6 0 
5 0 5 0 6 0 5 0 5 0 6 0 5 0 6 0 
5 0 5 0 6 0 5 0 5 0 6 0 5 0 5 0 
6 0 5 0 6 0 5 0 5 0 6 0 5 0 5 0 
6 0 5 0 6 0 5 0 5 0 6 0 5 0 5 0 
6 0 5 0 5 0 6 0 5 0 6 0 5 0 5 0 
6 0 5 0 5 0 6 -1 5 0 6 0 5 0 5 0 
6 0 5 0 5 0 6 0 5 0 5 0 6 0 5 0 
6 0 5 0 5 0 6 0 5 0 5 0 6 0 5 0 
5 0 6 0 5 0 6 0 5 0 5 0 6 0 5 0 
5 0 6 0 5 0 6 0 5 0 5 0 6 0 5 0 
5 0 6 0 5 0 5 0 6 0 5 0 6 0 5 0 
5 0 6 0 5 0 5 0 6 0 5 0 6 0 5 0 
5 0 6 0 5 0 5 0 6 0 5 0 5 0 6 0 
5 0 6 0 5 0 5 0 6 0 5 0 5 0 6 0 
5 0 5 0 6 0 5 0 6 0 5 0 5 0 6 0 
5 0 5 0 6 0 5 0 6 0 5 0 5 0 6 0 
5 0 5 0 6 0 5 0 5 0 6 0 5 0 6 0 
5 0 5 0 6 0 5 0 5 0 6 0 5 0 6 0 
5 0 5 0 6 0 5 0 5 0 6 0 5 0 5 0 
6 0 5 0 6 0 5 0 5 0 6 0 5 0 5 0 
6 0 5 0 5 0 6 0 5 0 6 0 5 0 5 0 
6 0 5 0 5 0 6 0 5 0 6 0 5 0 5 0 
6 0 5 0 5 0 6 0 5 0 5 0 6 0 5 0 
6 0 5 0 5 0 6 0 5 0 5 0 6 0 5 0 
6 0 5 0 5 0 6 0 5 0 5 0 6 0 5 0 
5 0 6 0 5 0 3051 4616 300 MP stroke
6 0 5 0 5 0 6 0 5 0 5 0 6 0 5 0 
5 0 6 0 5 0 6 0 5 0 5 0 6 0 5 0 
5 0 6 0 5 0 6 0 5 0 5 0 6 0 5 0 
5 0 6 0 5 0 5 0 6 0 5 0 6 0 5 0 
5 0 6 0 5 0 5 0 6 0 5 0 6 0 5 0 
5 0 6 0 5 0 5 0 6 0 5 0 5 0 6 0 
5 0 6 0 5 0 5 0 6 0 5 0 5 0 6 0 
5 0 5 0 6 0 5 0 6 0 5 0 5 0 6 0 
5 0 5 0 6 0 5 0 6 0 5 0 5 0 6 0 
5 0 5 0 6 0 5 0 5 0 6 0 5 0 6 0 
5 0 5 0 6 0 5 0 5 0 6 0 5 0 6 0 
5 0 5 0 6 0 5 0 5 0 6 0 5 0 5 0 
6 0 5 0 6 0 5 0 5 0 6 0 5 0 5 0 
6 0 5 0 5 0 6 0 5 0 6 0 5 0 5 0 
6 0 5 0 5 0 6 0 5 0 6 0 5 0 5 0 
6 0 5 0 5 0 6 0 5 0 5 0 6 0 5 0 
6 0 5 0 5 0 6 0 5 0 5 0 6 0 5 0 
6 0 5 0 5 0 6 0 5 0 5 0 6 0 5 0 
5 0 6 0 5 0 6 0 5 0 5 0 6 0 5 0 
5 0 6 0 5 0 5 0 6 0 5 0 6 0 5 0 
5 0 6 0 5 0 5 0 6 0 5 0 6 0 5 0 
5 0 6 0 5 0 5 0 6 0 5 0 5 0 6 0 
5 0 6 0 5 0 5 0 6 0 5 0 5 0 6 0 
5 0 6 0 5 0 5 0 6 0 5 0 5 0 6 0 
5 0 5 0 6 0 5 0 6 0 5 0 5 0 6 0 
5 0 5 0 6 0 5 0 5 0 6 0 5 0 6 0 
5 0 5 0 6 0 5 0 5 0 6 0 5 0 6 0 
5 0 5 0 6 0 5 0 5 0 6 0 5 0 5 0 
6 0 5 0 6 0 5 0 5 0 6 0 5 0 5 0 
6 0 5 0 6 0 5 0 5 0 6 0 5 0 5 0 
6 0 5 0 5 0 6 0 5 0 6 0 5 0 5 0 
6 0 5 0 5 0 6 0 5 0 5 0 6 0 5 0 
6 0 5 0 5 0 6 0 5 0 5 0 6 0 5 0 
6 0 5 0 5 0 6 0 5 0 5 0 6 0 5 0 
5 0 6 0 5 0 6 0 5 0 5 0 6 0 5 0 
5 0 6 0 5 0 6 0 5 0 5 0 6 0 5 0 
5 0 6 0 5 0 5 0 6 0 5 0 6 0 5 0 
5 0 6 0 5 0 1446 4616 300 MP stroke
5 0 6 0 5 0 5 0 6 0 5 0 6 0 5 0 
5 0 6 0 5 0 5 0 6 0 5 0 6 0 5 0 
5 0 6 0 5 0 5 0 6 0 5 0 5 0 6 0 
5 0 6 0 5 0 5 0 6 0 5 0 5 0 6 0 
5 0 6 0 5 0 5 0 6 0 5 0 5 0 6 0 
5 0 5 0 6 0 5 0 6 0 5 0 5 0 6 0 
5 0 5 0 6 0 5 0 5 0 6 0 5 0 6 0 
5 0 5 0 6 0 5 0 5 0 6 0 5 0 6 0 
5 0 5 0 6 0 5 0 5 0 6 0 5 0 5 0 
6 0 5 0 6 0 5 0 5 0 6 0 5 0 5 0 
6 0 5 0 6 0 5 0 5 0 6 0 5 0 5 0 
6 0 5 0 5 0 6 0 5 0 6 0 5 0 5 0 
6 0 5 0 5 0 6 0 5 0 5 0 899 4616 103 MP stroke
gr

c9

end %%Color Dict

eplot
%%EndObject

epage
end

showpage

%%Trailer
%%EOF
