%!PS-Adobe-3.0 EPSF-3.0
%%Creator: MATLAB, The MathWorks, Inc. Version 8.3.0.532 (R2014a). Operating System: Microsoft Windows 7 Enterprise .
%%Title: Pictures\main_llr_confidence_sample_level_bstrp__13_expe_LR.eps
%%CreationDate: 03/28/2015  14:44:14
%%DocumentNeededFonts: Helvetica
%%DocumentProcessColors: Cyan Magenta Yellow Black
%%LanguageLevel: 2
%%Pages: 1
%%BoundingBox:    82   215   547   593
%%EndComments

%%BeginProlog
% MathWorks dictionary
/MathWorks 160 dict begin
% definition operators
/bdef {bind def} bind def
/ldef {load def} bind def
/xdef {exch def} bdef
/xstore {exch store} bdef
% operator abbreviations
/c  /clip ldef
/cc /concat ldef
/cp /closepath ldef
/gr /grestore ldef
/gs /gsave ldef
/mt /moveto ldef
/np /newpath ldef
/cm /currentmatrix ldef
/sm /setmatrix ldef
/rm /rmoveto ldef
/rl /rlineto ldef
/s {show newpath} bdef
/sc {setcmykcolor} bdef
/sr /setrgbcolor ldef
/sg /setgray ldef
/w /setlinewidth ldef
/j /setlinejoin ldef
/cap /setlinecap ldef
/rc {rectclip} bdef
/rf {rectfill} bdef
% page state control
/pgsv () def
/bpage {/pgsv save def} bdef
/epage {pgsv restore} bdef
/bplot /gsave ldef
/eplot {stroke grestore} bdef
% orientation switch
/portraitMode 0 def /landscapeMode 1 def /rotateMode 2 def
% coordinate system mappings
/dpi2point 0 def
% font control
/FontSize 0 def
/FMS {/FontSize xstore findfont [FontSize 0 0 FontSize neg 0 0]
  makefont setfont} bdef
/ISOLatin1Encoding where {pop /WindowsLatin1Encoding 256 array bdef
ISOLatin1Encoding WindowsLatin1Encoding copy pop
/.notdef/.notdef/quotesinglbase/florin/quotedblbase/ellipsis/dagger
/daggerdbl/circumflex/perthousand/Scaron/guilsinglleft/OE/.notdef/.notdef
/.notdef/.notdef/quoteleft/quoteright/quotedblleft/quotedblright/bullet
/endash/emdash/tilde/trademark/scaron/guilsinglright/oe/.notdef/.notdef
/Ydieresis WindowsLatin1Encoding 128 32 getinterval astore pop}
{/WindowsLatin1Encoding StandardEncoding bdef} ifelse
/reencode {exch dup where {pop load} {pop StandardEncoding} ifelse
  exch dup 3 1 roll findfont dup length dict begin
  { 1 index /FID ne {def}{pop pop} ifelse } forall
  /Encoding exch def currentdict end definefont pop} bdef
/isroman {findfont /CharStrings get /Agrave known} bdef
/FMSR {3 1 roll 1 index dup isroman {reencode} {pop pop} ifelse
  exch FMS} bdef
/csm {1 dpi2point div -1 dpi2point div scale neg translate
 dup landscapeMode eq {pop -90 rotate}
  {rotateMode eq {90 rotate} if} ifelse} bdef
% line types: solid, dotted, dashed, dotdash
/SO { [] 0 setdash } bdef
/DO { [.5 dpi2point mul 4 dpi2point mul] 0 setdash } bdef
/DA { [6 dpi2point mul] 0 setdash } bdef
/DD { [.5 dpi2point mul 4 dpi2point mul 6 dpi2point mul 4
  dpi2point mul] 0 setdash } bdef
% macros for lines and objects
/L {lineto stroke} bdef
/MP {3 1 roll moveto 1 sub {rlineto} repeat} bdef
/AP {{rlineto} repeat} bdef
/PDlw -1 def
/W {/PDlw currentlinewidth def setlinewidth} def
/PP {closepath eofill} bdef
/DP {closepath stroke} bdef
/MR {4 -2 roll moveto dup  0 exch rlineto exch 0 rlineto
  neg 0 exch rlineto closepath} bdef
/FR {MR stroke} bdef
/PR {MR fill} bdef
/L1i {{currentfile picstr readhexstring pop} image} bdef
/tMatrix matrix def
/MakeOval {newpath tMatrix currentmatrix pop translate scale
0 0 1 0 360 arc tMatrix setmatrix} bdef
/FO {MakeOval stroke} bdef
/PO {MakeOval fill} bdef
/PD {currentlinewidth 2 div 0 360 arc fill
   PDlw -1 eq not {PDlw w /PDlw -1 def} if} def
/FA {newpath tMatrix currentmatrix pop translate scale
  0 0 1 5 -2 roll arc tMatrix setmatrix stroke} bdef
/PA {newpath tMatrix currentmatrix pop	translate 0 0 moveto scale
  0 0 1 5 -2 roll arc closepath tMatrix setmatrix fill} bdef
/FAn {newpath tMatrix currentmatrix pop translate scale
  0 0 1 5 -2 roll arcn tMatrix setmatrix stroke} bdef
/PAn {newpath tMatrix currentmatrix pop translate 0 0 moveto scale
  0 0 1 5 -2 roll arcn closepath tMatrix setmatrix fill} bdef
/vradius 0 def /hradius 0 def /lry 0 def
/lrx 0 def /uly 0 def /ulx 0 def /rad 0 def
/MRR {/vradius xdef /hradius xdef /lry xdef /lrx xdef /uly xdef
  /ulx xdef newpath tMatrix currentmatrix pop ulx hradius add uly
  vradius add translate hradius vradius scale 0 0 1 180 270 arc 
  tMatrix setmatrix lrx hradius sub uly vradius add translate
  hradius vradius scale 0 0 1 270 360 arc tMatrix setmatrix
  lrx hradius sub lry vradius sub translate hradius vradius scale
  0 0 1 0 90 arc tMatrix setmatrix ulx hradius add lry vradius sub
  translate hradius vradius scale 0 0 1 90 180 arc tMatrix setmatrix
  closepath} bdef
/FRR {MRR stroke } bdef
/PRR {MRR fill } bdef
/MlrRR {/lry xdef /lrx xdef /uly xdef /ulx xdef /rad lry uly sub 2 div def
  newpath tMatrix currentmatrix pop ulx rad add uly rad add translate
  rad rad scale 0 0 1 90 270 arc tMatrix setmatrix lrx rad sub lry rad
  sub translate rad rad scale 0 0 1 270 90 arc tMatrix setmatrix
  closepath} bdef
/FlrRR {MlrRR stroke } bdef
/PlrRR {MlrRR fill } bdef
/MtbRR {/lry xdef /lrx xdef /uly xdef /ulx xdef /rad lrx ulx sub 2 div def
  newpath tMatrix currentmatrix pop ulx rad add uly rad add translate
  rad rad scale 0 0 1 180 360 arc tMatrix setmatrix lrx rad sub lry rad
  sub translate rad rad scale 0 0 1 0 180 arc tMatrix setmatrix
  closepath} bdef
/FtbRR {MtbRR stroke } bdef
/PtbRR {MtbRR fill } bdef
/stri 6 array def /dtri 6 array def
/smat 6 array def /dmat 6 array def
/tmat1 6 array def /tmat2 6 array def /dif 3 array def
/asub {/ind2 exch def /ind1 exch def dup dup
  ind1 get exch ind2 get sub exch } bdef
/tri_to_matrix {
  2 0 asub 3 1 asub 4 0 asub 5 1 asub
  dup 0 get exch 1 get 7 -1 roll astore } bdef
/compute_transform {
  dmat dtri tri_to_matrix tmat1 invertmatrix 
  smat stri tri_to_matrix tmat2 concatmatrix } bdef
/ds {stri astore pop} bdef
/dt {dtri astore pop} bdef
/db {2 copy /cols xdef /rows xdef mul dup 3 mul string
  currentfile 
  3 index 0 eq {/ASCIIHexDecode filter}
  {/ASCII85Decode filter 3 index 2 eq {/RunLengthDecode filter} if }
  ifelse exch readstring pop
  dup 0 3 index getinterval /rbmap xdef
  dup 2 index dup getinterval /gbmap xdef
  1 index dup 2 mul exch getinterval /bbmap xdef pop pop}bdef
/it {gs np dtri aload pop moveto lineto lineto cp c
  cols rows 8 compute_transform 
  rbmap gbmap bbmap true 3 colorimage gr}bdef
/il {newpath moveto lineto stroke}bdef
currentdict end def
%%EndProlog

%%BeginSetup
MathWorks begin

0 cap

end
%%EndSetup

%%Page: 1 1
%%BeginPageSetup
%%PageBoundingBox:    82   215   547   593
MathWorks begin
bpage
%%EndPageSetup

%%BeginObject: obj1
bplot

/dpi2point 12 def
portraitMode 0216 7344 csm

  770   220  5589  4543 rc
85 dict begin %Colortable dictionary
/c0 { 0.000000 0.000000 0.000000 sr} bdef
/c1 { 1.000000 1.000000 1.000000 sr} bdef
/c2 { 0.900000 0.000000 0.000000 sr} bdef
/c3 { 0.000000 0.820000 0.000000 sr} bdef
/c4 { 0.000000 0.000000 0.800000 sr} bdef
/c5 { 0.910000 0.820000 0.320000 sr} bdef
/c6 { 1.000000 0.260000 0.820000 sr} bdef
/c7 { 0.000000 0.820000 0.820000 sr} bdef
c0
1 j
1 sg
   0    0 6919 5187 rf
6 w
0 897 750 0 0 -897 1008 1396 4 MP
PP
-750 0 0 897 750 0 0 -897 1008 1396 5 MP stroke
4 w
DO
SO
6 w
0 sg
1008  499 mt 1758  499 L
1008 1396 mt 1758 1396 L
1758 1396 mt 1758  499 L
1008 1396 mt 1008  499 L
1008 1396 mt 1758 1396 L
1008 1396 mt 1008  499 L
1008 1287 mt 1016 1287 L
1758 1287 mt 1749 1287 L
%%IncludeResource: font Helvetica
/Helvetica /WindowsLatin1Encoding 120 FMSR

 770 1331 mt 
(-20) s
1008 1068 mt 1016 1068 L
1758 1068 mt 1749 1068 L
 770 1112 mt 
(-10) s
1008  849 mt 1016  849 L
1758  849 mt 1749  849 L
 907  893 mt 
(0) s
1008  630 mt 1016  630 L
1758  630 mt 1749  630 L
 840  674 mt 
(10) s
1008  499 mt 1758  499 L
1008 1396 mt 1758 1396 L
1758 1396 mt 1758  499 L
1008 1396 mt 1008  499 L
gs 1008 499 751 898 rc
DA
0 -3 1045 1348 2 MP stroke
0 -2 1120 1259 2 MP stroke
0 -1 1195 1169 2 MP stroke
0 -1 1270 1080 2 MP stroke
0 -1 1345 991 2 MP stroke
1420 901 PD
1495 811 PD
0 -2 1570 722 2 MP stroke
0 -1 1645 631 2 MP stroke
0 -2 1720 541 2 MP stroke
0 -3 1045 1355 2 MP stroke
0 -2 1120 1264 2 MP stroke
0 -2 1195 1174 2 MP stroke
0 -1 1270 1083 2 MP stroke
0 -1 1345 992 2 MP stroke
1420 902 PD
0 -1 1495 813 2 MP stroke
0 -1 1570 724 2 MP stroke
0 -1 1645 635 2 MP stroke
0 -2 1720 546 2 MP stroke
SO
18 0 1036 1345 2 MP stroke
18 0 1111 1257 2 MP stroke
18 0 1186 1168 2 MP stroke
18 0 1261 1079 2 MP stroke
18 0 1336 990 2 MP stroke
18 0 1411 901 2 MP stroke
18 0 1486 811 2 MP stroke
18 0 1561 720 2 MP stroke
18 0 1636 630 2 MP stroke
18 0 1711 539 2 MP stroke
18 0 1036 1355 2 MP stroke
18 0 1111 1264 2 MP stroke
18 0 1186 1174 2 MP stroke
18 0 1261 1083 2 MP stroke
18 0 1336 992 2 MP stroke
18 0 1411 902 2 MP stroke
18 0 1486 813 2 MP stroke
18 0 1561 724 2 MP stroke
18 0 1636 635 2 MP stroke
18 0 1711 546 2 MP stroke
/c8 { 0.000000 0.000000 1.000000 sr} bdef
c8
-38 0 0 4 38 0 0 -4 1026 1352 5 MP stroke
-38 0 0 3 38 0 0 -3 1101 1262 5 MP stroke
-38 0 0 3 38 0 0 -3 1176 1172 5 MP stroke
-38 0 0 2 38 0 0 -2 1251 1082 5 MP stroke
-38 0 38 0 1326 991 3 MP stroke
-38 0 0 1 38 0 0 -1 1401 902 5 MP stroke
-38 0 0 1 38 0 0 -1 1476 812 5 MP stroke
-38 0 0 1 38 0 0 -1 1551 723 5 MP stroke
-38 0 0 3 38 0 0 -3 1626 634 5 MP stroke
-38 0 0 3 38 0 0 -3 1701 544 5 MP stroke
/c9 { 1.000000 0.000000 0.000000 sr} bdef
c9
38 0 1026 1350 2 MP stroke
38 0 1101 1260 2 MP stroke
38 0 1176 1171 2 MP stroke
38 0 1251 1081 2 MP stroke
38 0 1326 991 2 MP stroke
38 0 1401 901 2 MP stroke
38 0 1476 812 2 MP stroke
38 0 1551 722 2 MP stroke
38 0 1626 633 2 MP stroke
38 0 1701 543 2 MP stroke
gr

c9
0 sg
1012 1532 mt 
(1) s
1087 1532 mt 
(2) s
1162 1532 mt 
(3) s
1237 1532 mt 
(4) s
1312 1532 mt 
(5) s
1387 1532 mt 
(6) s
1462 1532 mt 
(7) s
1537 1532 mt 
(8) s
1612 1532 mt 
(9) s
1653 1532 mt 
(10) s
1182  404 mt 
(P1:1\(F\)) s
1 sg
0 897 715 0 0 -897 2169 1396 4 MP
PP
-715 0 0 897 715 0 0 -897 2169 1396 5 MP stroke
4 w
DO
SO
6 w
0 sg
2169  499 mt 2884  499 L
2169 1396 mt 2884 1396 L
2884 1396 mt 2884  499 L
2169 1396 mt 2169  499 L
2169 1396 mt 2884 1396 L
2169 1396 mt 2169  499 L
2169 1286 mt 2177 1286 L
2884 1286 mt 2875 1286 L
1931 1330 mt 
(-20) s
2169  952 mt 2177  952 L
2884  952 mt 2875  952 L
2068  996 mt 
(0) s
2169  618 mt 2177  618 L
2884  618 mt 2875  618 L
2001  662 mt 
(20) s
2169  499 mt 2884  499 L
2169 1396 mt 2884 1396 L
2884 1396 mt 2884  499 L
2169 1396 mt 2169  499 L
gs 2169 499 716 898 rc
DA
0 -2 2204 1349 2 MP stroke
0 -2 2276 1260 2 MP stroke
0 -1 2347 1171 2 MP stroke
2419 1081 PD
2490 992 PD
0 -1 2562 903 2 MP stroke
0 -2 2633 813 2 MP stroke
0 -3 2705 723 2 MP stroke
0 -3 2776 633 2 MP stroke
0 -5 2848 544 2 MP stroke
0 -1 2204 1352 2 MP stroke
0 -1 2276 1262 2 MP stroke
0 -1 2347 1172 2 MP stroke
2419 1082 PD
0 -1 2490 993 2 MP stroke
0 -1 2562 904 2 MP stroke
0 -1 2633 815 2 MP stroke
0 -1 2705 726 2 MP stroke
0 -1 2776 637 2 MP stroke
0 -2 2848 549 2 MP stroke
SO
18 0 2195 1347 2 MP stroke
18 0 2267 1258 2 MP stroke
18 0 2338 1170 2 MP stroke
18 0 2410 1081 2 MP stroke
18 0 2481 992 2 MP stroke
18 0 2553 902 2 MP stroke
18 0 2624 811 2 MP stroke
18 0 2696 720 2 MP stroke
18 0 2767 630 2 MP stroke
18 0 2839 539 2 MP stroke
18 0 2195 1352 2 MP stroke
18 0 2267 1262 2 MP stroke
18 0 2338 1172 2 MP stroke
18 0 2410 1082 2 MP stroke
18 0 2481 993 2 MP stroke
18 0 2553 904 2 MP stroke
18 0 2624 815 2 MP stroke
18 0 2696 726 2 MP stroke
18 0 2767 637 2 MP stroke
18 0 2839 549 2 MP stroke
c8
-36 0 0 2 36 0 0 -2 2186 1351 5 MP stroke
-36 0 0 1 36 0 0 -1 2258 1261 5 MP stroke
-36 0 36 0 2329 1171 3 MP stroke
-36 0 0 1 36 0 0 -1 2401 1082 5 MP stroke
-36 0 36 0 2472 992 3 MP stroke
-36 0 36 0 2544 903 3 MP stroke
-36 0 0 1 36 0 0 -1 2615 814 5 MP stroke
-36 0 0 2 36 0 0 -2 2687 725 5 MP stroke
-36 0 0 3 36 0 0 -3 2758 636 5 MP stroke
-36 0 0 3 36 0 0 -3 2830 547 5 MP stroke
c9
36 0 2186 1350 2 MP stroke
36 0 2258 1260 2 MP stroke
36 0 2329 1171 2 MP stroke
36 0 2401 1082 2 MP stroke
36 0 2472 992 2 MP stroke
36 0 2544 903 2 MP stroke
36 0 2615 814 2 MP stroke
36 0 2687 724 2 MP stroke
36 0 2758 635 2 MP stroke
36 0 2830 546 2 MP stroke
gs 2191 1342 27 27 rc
2198 1355 mt 2210 1355 L
2204 1349 mt 2204 1361 L
gr

gs 2263 1251 27 27 rc
2270 1264 mt 2282 1264 L
2276 1258 mt 2276 1270 L
gr

gs 2334 1161 27 27 rc
2341 1174 mt 2353 1174 L
2347 1168 mt 2347 1180 L
gr

gs 2406 1070 27 27 rc
2413 1083 mt 2425 1083 L
2419 1077 mt 2419 1089 L
gr

gr

c9
0 sg
2172 1532 mt 
(1) s
2243 1532 mt 
(2) s
2315 1532 mt 
(3) s
2386 1532 mt 
(4) s
2458 1532 mt 
(5) s
2530 1532 mt 
(6) s
2601 1532 mt 
(7) s
2673 1532 mt 
(8) s
2744 1532 mt 
(9) s
2782 1532 mt 
(10) s
2326  404 mt 
(P1:2\(F\)) s
1 sg
0 897 715 0 0 -897 3295 1396 4 MP
PP
-715 0 0 897 715 0 0 -897 3295 1396 5 MP stroke
4 w
DO
SO
6 w
0 sg
3295  499 mt 4010  499 L
3295 1396 mt 4010 1396 L
4010 1396 mt 4010  499 L
3295 1396 mt 3295  499 L
3295 1396 mt 4010 1396 L
3295 1396 mt 3295  499 L
3295 1169 mt 3303 1169 L
4010 1169 mt 4001 1169 L
3057 1213 mt 
(-20) s
3295  926 mt 3303  926 L
4010  926 mt 4001  926 L
3194  970 mt 
(0) s
3295  684 mt 3303  684 L
4010  684 mt 4001  684 L
3127  728 mt 
(20) s
3295  499 mt 4010  499 L
3295 1396 mt 4010 1396 L
4010 1396 mt 4010  499 L
3295 1396 mt 3295  499 L
gs 3295 499 716 898 rc
DA
0 -8 3330 1341 2 MP stroke
0 -5 3402 1253 2 MP stroke
0 -4 3473 1166 2 MP stroke
0 -2 3545 1078 2 MP stroke
0 -1 3616 991 2 MP stroke
0 -1 3688 902 2 MP stroke
0 -1 3759 812 2 MP stroke
0 -3 3831 723 2 MP stroke
0 -4 3902 634 2 MP stroke
0 -6 3974 545 2 MP stroke
0 -6 3330 1355 2 MP stroke
0 -5 3402 1264 2 MP stroke
0 -4 3473 1174 2 MP stroke
0 -2 3545 1083 2 MP stroke
0 -1 3616 992 2 MP stroke
0 -1 3688 904 2 MP stroke
0 -3 3759 818 2 MP stroke
0 -4 3831 732 2 MP stroke
0 -6 3902 646 2 MP stroke
0 -8 3974 560 2 MP stroke
SO
18 0 3321 1333 2 MP stroke
18 0 3393 1248 2 MP stroke
18 0 3464 1162 2 MP stroke
18 0 3536 1076 2 MP stroke
18 0 3607 990 2 MP stroke
18 0 3679 901 2 MP stroke
18 0 3750 811 2 MP stroke
18 0 3822 720 2 MP stroke
18 0 3893 630 2 MP stroke
18 0 3965 539 2 MP stroke
18 0 3321 1355 2 MP stroke
18 0 3393 1264 2 MP stroke
18 0 3464 1174 2 MP stroke
18 0 3536 1083 2 MP stroke
18 0 3607 992 2 MP stroke
18 0 3679 904 2 MP stroke
18 0 3750 818 2 MP stroke
18 0 3822 732 2 MP stroke
18 0 3893 646 2 MP stroke
18 0 3965 560 2 MP stroke
c8
-36 0 0 8 36 0 0 -8 3312 1349 5 MP stroke
-36 0 0 6 36 0 0 -6 3384 1259 5 MP stroke
-36 0 0 4 36 0 0 -4 3455 1170 5 MP stroke
-36 0 0 3 36 0 0 -3 3527 1081 5 MP stroke
-36 0 36 0 3598 991 3 MP stroke
-36 0 0 1 36 0 0 -1 3670 903 5 MP stroke
-36 0 0 3 36 0 0 -3 3741 815 5 MP stroke
-36 0 0 5 36 0 0 -5 3813 728 5 MP stroke
-36 0 0 6 36 0 0 -6 3884 640 5 MP stroke
-36 0 0 7 36 0 0 -7 3956 552 5 MP stroke
c9
36 0 3312 1344 2 MP stroke
36 0 3384 1256 2 MP stroke
36 0 3455 1168 2 MP stroke
36 0 3527 1079 2 MP stroke
36 0 3598 991 2 MP stroke
36 0 3670 902 2 MP stroke
36 0 3741 814 2 MP stroke
36 0 3813 726 2 MP stroke
36 0 3884 638 2 MP stroke
36 0 3956 549 2 MP stroke
gr

c9
0 sg
3298 1532 mt 
(1) s
3369 1532 mt 
(2) s
3441 1532 mt 
(3) s
3512 1532 mt 
(4) s
3584 1532 mt 
(5) s
3656 1532 mt 
(6) s
3727 1532 mt 
(7) s
3799 1532 mt 
(8) s
3870 1532 mt 
(9) s
3908 1532 mt 
(10) s
3449  404 mt 
(P1:3\(S\)) s
1 sg
0 897 716 0 0 -897 4421 1396 4 MP
PP
-716 0 0 897 716 0 0 -897 4421 1396 5 MP stroke
4 w
DO
SO
6 w
0 sg
4421  499 mt 5137  499 L
4421 1396 mt 5137 1396 L
5137 1396 mt 5137  499 L
4421 1396 mt 4421  499 L
4421 1396 mt 5137 1396 L
4421 1396 mt 4421  499 L
4421 1307 mt 4429 1307 L
5137 1307 mt 5128 1307 L
4183 1351 mt 
(-20) s
4421 1095 mt 4429 1095 L
5137 1095 mt 5128 1095 L
4183 1139 mt 
(-10) s
4421  882 mt 4429  882 L
5137  882 mt 5128  882 L
4320  926 mt 
(0) s
4421  670 mt 4429  670 L
5137  670 mt 5128  670 L
4253  714 mt 
(10) s
4421  499 mt 5137  499 L
4421 1396 mt 5137 1396 L
5137 1396 mt 5137  499 L
4421 1396 mt 4421  499 L
gs 4421 499 717 898 rc
DA
0 -2 4456 1347 2 MP stroke
0 -2 4528 1258 2 MP stroke
0 -2 4600 1169 2 MP stroke
0 -1 4671 1080 2 MP stroke
0 -1 4743 991 2 MP stroke
4814 902 PD
0 -1 4886 812 2 MP stroke
0 -2 4958 722 2 MP stroke
0 -2 5029 632 2 MP stroke
0 -3 5101 542 2 MP stroke
0 -4 4456 1355 2 MP stroke
0 -3 4528 1264 2 MP stroke
0 -3 4600 1174 2 MP stroke
0 -1 4671 1083 2 MP stroke
0 -1 4743 993 2 MP stroke
4814 902 PD
0 -1 4886 814 2 MP stroke
0 -1 4958 725 2 MP stroke
0 -1 5029 636 2 MP stroke
0 -3 5101 548 2 MP stroke
SO
18 0 4447 1345 2 MP stroke
18 0 4519 1256 2 MP stroke
17 0 4591 1167 2 MP stroke
18 0 4662 1079 2 MP stroke
18 0 4734 990 2 MP stroke
18 0 4805 902 2 MP stroke
18 0 4877 811 2 MP stroke
17 0 4949 720 2 MP stroke
18 0 5020 630 2 MP stroke
18 0 5092 539 2 MP stroke
18 0 4447 1355 2 MP stroke
18 0 4519 1264 2 MP stroke
17 0 4591 1174 2 MP stroke
18 0 4662 1083 2 MP stroke
18 0 4734 993 2 MP stroke
18 0 4805 902 2 MP stroke
18 0 4877 814 2 MP stroke
17 0 4949 725 2 MP stroke
18 0 5020 636 2 MP stroke
18 0 5092 548 2 MP stroke
c8
-36 0 0 4 36 0 0 -4 4438 1351 5 MP stroke
-36 0 0 3 36 0 0 -3 4510 1261 5 MP stroke
-35 0 0 2 35 0 0 -2 4582 1171 5 MP stroke
-36 0 0 2 36 0 0 -2 4653 1082 5 MP stroke
-36 0 0 1 36 0 0 -1 4725 992 5 MP stroke
-36 0 36 0 4796 902 3 MP stroke
-36 0 0 1 36 0 0 -1 4868 813 5 MP stroke
-35 0 0 2 35 0 0 -2 4940 724 5 MP stroke
-36 0 0 3 36 0 0 -3 5011 635 5 MP stroke
-36 0 0 3 36 0 0 -3 5083 545 5 MP stroke
c9
36 0 4438 1350 2 MP stroke
36 0 4510 1260 2 MP stroke
35 0 4582 1170 2 MP stroke
36 0 4653 1081 2 MP stroke
36 0 4725 991 2 MP stroke
36 0 4796 902 2 MP stroke
36 0 4868 812 2 MP stroke
35 0 4940 723 2 MP stroke
36 0 5011 633 2 MP stroke
36 0 5083 543 2 MP stroke
gs 4801 889 27 28 rc
4808  903 mt 4820  903 L
4814  897 mt 4814  909 L
4808  902 mt 4820  902 L
4814  896 mt 4814  908 L
gr

gr

c9
0 sg
4424 1532 mt 
(1) s
4495 1532 mt 
(2) s
4567 1532 mt 
(3) s
4638 1532 mt 
(4) s
4710 1532 mt 
(5) s
4782 1532 mt 
(6) s
4853 1532 mt 
(7) s
4925 1532 mt 
(8) s
4996 1532 mt 
(9) s
5034 1532 mt 
(10) s
4575  404 mt 
(P1:4\(S\)) s
1 sg
0 897 707 0 0 -897 5548 1396 4 MP
PP
-707 0 0 897 707 0 0 -897 5548 1396 5 MP stroke
4 w
DO
SO
6 w
0 sg
5548  499 mt 6255  499 L
5548 1396 mt 6255 1396 L
6255 1396 mt 6255  499 L
5548 1396 mt 5548  499 L
5548 1396 mt 6255 1396 L
5548 1396 mt 5548  499 L
5548 1381 mt 5556 1381 L
6255 1381 mt 6246 1381 L
5310 1425 mt 
(-40) s
5548 1094 mt 5556 1094 L
6255 1094 mt 6246 1094 L
5310 1138 mt 
(-20) s
5548  808 mt 5556  808 L
6255  808 mt 6246  808 L
5447  852 mt 
(0) s
5548  521 mt 5556  521 L
6255  521 mt 6246  521 L
5380  565 mt 
(20) s
5548  499 mt 6255  499 L
5548 1396 mt 6255 1396 L
6255 1396 mt 6255  499 L
5548 1396 mt 5548  499 L
gs 5548 499 708 898 rc
DA
0 -3 5583 1345 2 MP stroke
0 -2 5654 1256 2 MP stroke
0 -2 5724 1167 2 MP stroke
0 -1 5795 1078 2 MP stroke
0 -1 5866 989 2 MP stroke
0 -1 5936 900 2 MP stroke
6007 811 PD
0 -1 6078 721 2 MP stroke
0 -2 6148 632 2 MP stroke
0 -3 6219 542 2 MP stroke
0 -5 5583 1355 2 MP stroke
0 -4 5654 1264 2 MP stroke
0 -4 5724 1174 2 MP stroke
0 -3 5795 1083 2 MP stroke
0 -1 5866 992 2 MP stroke
0 -1 5936 902 2 MP stroke
0 -1 6007 812 2 MP stroke
0 -1 6078 723 2 MP stroke
0 -1 6148 634 2 MP stroke
0 -1 6219 546 2 MP stroke
SO
18 0 5574 1342 2 MP stroke
17 0 5645 1254 2 MP stroke
18 0 5715 1165 2 MP stroke
18 0 5786 1077 2 MP stroke
17 0 5857 988 2 MP stroke
17 0 5928 899 2 MP stroke
18 0 5998 811 2 MP stroke
18 0 6069 720 2 MP stroke
17 0 6140 630 2 MP stroke
18 0 6210 539 2 MP stroke
18 0 5574 1355 2 MP stroke
17 0 5645 1264 2 MP stroke
18 0 5715 1174 2 MP stroke
18 0 5786 1083 2 MP stroke
17 0 5857 992 2 MP stroke
17 0 5928 902 2 MP stroke
18 0 5998 812 2 MP stroke
18 0 6069 723 2 MP stroke
17 0 6140 634 2 MP stroke
18 0 6210 546 2 MP stroke
c8
-36 0 0 5 36 0 0 -5 5565 1350 5 MP stroke
-35 0 0 4 35 0 0 -4 5636 1260 5 MP stroke
-35 0 0 3 35 0 0 -3 5707 1170 5 MP stroke
-36 0 0 2 36 0 0 -2 5777 1080 5 MP stroke
-35 0 0 2 35 0 0 -2 5848 991 5 MP stroke
-35 0 0 1 35 0 0 -1 5919 901 5 MP stroke
-36 0 36 0 5989 811 3 MP stroke
-35 0 0 1 35 0 0 -1 6060 722 5 MP stroke
-35 0 0 1 35 0 0 -1 6131 633 5 MP stroke
-36 0 0 3 36 0 0 -3 6201 545 5 MP stroke
c9
36 0 5565 1348 2 MP stroke
35 0 5636 1259 2 MP stroke
35 0 5707 1169 2 MP stroke
36 0 5777 1080 2 MP stroke
35 0 5848 990 2 MP stroke
35 0 5919 901 2 MP stroke
36 0 5989 811 2 MP stroke
35 0 6060 722 2 MP stroke
35 0 6131 632 2 MP stroke
36 0 6201 543 2 MP stroke
gr

c9
0 sg
5550 1532 mt 
(1) s
5621 1532 mt 
(2) s
5692 1532 mt 
(3) s
5763 1532 mt 
(4) s
5833 1532 mt 
(5) s
5904 1532 mt 
(6) s
5975 1532 mt 
(7) s
6045 1532 mt 
(8) s
6116 1532 mt 
(9) s
6153 1532 mt 
(10) s
5698  404 mt 
(P1:5\(S\)) s
1 sg
0 843 817 0 0 -843 941 2955 4 MP
PP
-817 0 0 843 817 0 0 -843 941 2955 5 MP stroke
4 w
DO
SO
6 w
0 sg
 941 2112 mt 1758 2112 L
 941 2955 mt 1758 2955 L
1758 2955 mt 1758 2112 L
 941 2955 mt  941 2112 L
 941 2955 mt 1758 2955 L
 941 2955 mt  941 2112 L
 941 2944 mt  949 2944 L
1758 2944 mt 1749 2944 L
 770 2988 mt 
(-5) s
 941 2653 mt  949 2653 L
1758 2653 mt 1749 2653 L
 840 2697 mt 
(0) s
 941 2362 mt  949 2362 L
1758 2362 mt 1749 2362 L
 840 2406 mt 
(5) s
 941 2112 mt 1758 2112 L
 941 2955 mt 1758 2955 L
1758 2955 mt 1758 2112 L
 941 2955 mt  941 2112 L
gs 941 2112 818 844 rc
DA
0 -2 981 2911 2 MP stroke
0 -1 1063 2829 2 MP stroke
0 -1 1145 2746 2 MP stroke
0 -3 1226 2663 2 MP stroke
0 -3 1308 2580 2 MP stroke
0 -5 1390 2497 2 MP stroke
0 -6 1472 2414 2 MP stroke
0 -7 1553 2331 2 MP stroke
0 -9 1635 2248 2 MP stroke
0 -10 1717 2165 2 MP stroke
0 -1 981 2914 2 MP stroke
1063 2830 PD
0 -1 1145 2748 2 MP stroke
0 -3 1226 2668 2 MP stroke
0 -4 1308 2587 2 MP stroke
0 -5 1390 2506 2 MP stroke
0 -6 1472 2425 2 MP stroke
0 -8 1553 2345 2 MP stroke
0 -9 1635 2264 2 MP stroke
0 -10 1717 2183 2 MP stroke
SO
21 0 971 2909 2 MP stroke
20 0 1053 2828 2 MP stroke
20 0 1135 2745 2 MP stroke
21 0 1216 2660 2 MP stroke
20 0 1298 2577 2 MP stroke
20 0 1380 2492 2 MP stroke
21 0 1461 2408 2 MP stroke
20 0 1543 2324 2 MP stroke
20 0 1625 2239 2 MP stroke
21 0 1706 2155 2 MP stroke
21 0 971 2914 2 MP stroke
20 0 1053 2830 2 MP stroke
20 0 1135 2748 2 MP stroke
21 0 1216 2668 2 MP stroke
20 0 1298 2587 2 MP stroke
20 0 1380 2506 2 MP stroke
21 0 1461 2425 2 MP stroke
20 0 1543 2345 2 MP stroke
20 0 1625 2264 2 MP stroke
21 0 1706 2183 2 MP stroke
c8
-41 0 0 2 41 0 0 -2 961 2913 5 MP stroke
-40 0 0 1 40 0 0 -1 1043 2830 5 MP stroke
-41 0 0 1 41 0 0 -1 1124 2747 5 MP stroke
-41 0 0 2 41 0 0 -2 1206 2665 5 MP stroke
-41 0 0 3 41 0 0 -3 1288 2583 5 MP stroke
-41 0 0 4 41 0 0 -4 1369 2501 5 MP stroke
-41 0 0 5 41 0 0 -5 1451 2419 5 MP stroke
-41 0 0 6 41 0 0 -6 1533 2337 5 MP stroke
-40 0 0 7 40 0 0 -7 1615 2255 5 MP stroke
-41 0 0 8 41 0 0 -8 1696 2173 5 MP stroke
c9
41 0 961 2912 2 MP stroke
40 0 1043 2830 2 MP stroke
41 0 1124 2747 2 MP stroke
41 0 1206 2664 2 MP stroke
41 0 1288 2581 2 MP stroke
41 0 1369 2499 2 MP stroke
41 0 1451 2416 2 MP stroke
41 0 1533 2333 2 MP stroke
40 0 1615 2250 2 MP stroke
41 0 1696 2167 2 MP stroke
gs 968 2903 27 27 rc
 975 2916 mt  987 2916 L
 981 2910 mt  981 2922 L
gr

gs 1050 2818 27 27 rc
1057 2831 mt 1069 2831 L
1063 2825 mt 1063 2837 L
gr

gs 1132 2736 27 27 rc
1139 2749 mt 1151 2749 L
1145 2743 mt 1145 2755 L
gr

gs 1213 2657 27 27 rc
1220 2670 mt 1232 2670 L
1226 2664 mt 1226 2676 L
gr

gs 1295 2563 27 41 rc
1302 2590 mt 1314 2590 L
1308 2584 mt 1308 2596 L
1302 2576 mt 1314 2576 L
1308 2570 mt 1308 2582 L
gr

gs 1377 2477 27 47 rc
1384 2510 mt 1396 2510 L
1390 2504 mt 1390 2516 L
1384 2491 mt 1396 2491 L
1390 2485 mt 1390 2497 L
1384 2490 mt 1396 2490 L
1390 2484 mt 1390 2496 L
gr

gs 1459 2392 27 52 rc
1466 2430 mt 1478 2430 L
1472 2424 mt 1472 2436 L
1466 2407 mt 1478 2407 L
1472 2401 mt 1472 2413 L
1466 2405 mt 1478 2405 L
1472 2399 mt 1472 2411 L
gr

gs 1540 2307 27 58 rc
1547 2351 mt 1559 2351 L
1553 2345 mt 1553 2357 L
1547 2322 mt 1559 2322 L
1553 2316 mt 1553 2328 L
1547 2320 mt 1559 2320 L
1553 2314 mt 1553 2326 L
gr

gs 1622 2222 27 63 rc
1629 2271 mt 1641 2271 L
1635 2265 mt 1635 2277 L
1629 2237 mt 1641 2237 L
1635 2231 mt 1635 2243 L
1629 2235 mt 1641 2235 L
1635 2229 mt 1635 2241 L
gr

gs 1704 2137 27 68 rc
1711 2191 mt 1723 2191 L
1717 2185 mt 1717 2197 L
1711 2153 mt 1723 2153 L
1717 2147 mt 1717 2159 L
1711 2150 mt 1723 2150 L
1717 2144 mt 1717 2156 L
gr

gr

c9
0 sg
 949 3091 mt 
(1) s
1030 3091 mt 
(2) s
1112 3091 mt 
(3) s
1194 3091 mt 
(4) s
1275 3091 mt 
(5) s
1357 3091 mt 
(6) s
1438 3091 mt 
(7) s
1520 3091 mt 
(8) s
1602 3091 mt 
(9) s
1649 3091 mt 
(10) s
1149 2017 mt 
(P1:6\(F\)) s
1 sg
0 843 715 0 0 -843 2169 2955 4 MP
PP
-715 0 0 843 715 0 0 -843 2169 2955 5 MP stroke
4 w
DO
SO
6 w
0 sg
2169 2112 mt 2884 2112 L
2169 2955 mt 2884 2955 L
2884 2955 mt 2884 2112 L
2169 2955 mt 2169 2112 L
2169 2955 mt 2884 2955 L
2169 2955 mt 2169 2112 L
2169 2764 mt 2177 2764 L
2884 2764 mt 2875 2764 L
1931 2808 mt 
(-10) s
2169 2465 mt 2177 2465 L
2884 2465 mt 2875 2465 L
2068 2509 mt 
(0) s
2169 2167 mt 2177 2167 L
2884 2167 mt 2875 2167 L
2001 2211 mt 
(10) s
2169 2112 mt 2884 2112 L
2169 2955 mt 2884 2955 L
2884 2955 mt 2884 2112 L
2169 2955 mt 2169 2112 L
gs 2169 2112 716 844 rc
DA
0 -2 2204 2909 2 MP stroke
0 -2 2276 2826 2 MP stroke
0 -1 2347 2742 2 MP stroke
0 -1 2419 2658 2 MP stroke
0 -1 2490 2575 2 MP stroke
0 -1 2562 2491 2 MP stroke
0 -1 2633 2406 2 MP stroke
0 -2 2705 2322 2 MP stroke
0 -3 2776 2238 2 MP stroke
0 -3 2848 2153 2 MP stroke
0 -4 2204 2916 2 MP stroke
0 -3 2276 2831 2 MP stroke
0 -2 2347 2746 2 MP stroke
0 -1 2419 2661 2 MP stroke
0 -1 2490 2576 2 MP stroke
0 -1 2562 2492 2 MP stroke
0 -1 2633 2409 2 MP stroke
0 -2 2705 2326 2 MP stroke
0 -2 2776 2243 2 MP stroke
0 -4 2848 2161 2 MP stroke
SO
18 0 2195 2907 2 MP stroke
18 0 2267 2824 2 MP stroke
18 0 2338 2741 2 MP stroke
18 0 2410 2657 2 MP stroke
18 0 2481 2574 2 MP stroke
18 0 2553 2490 2 MP stroke
18 0 2624 2405 2 MP stroke
18 0 2696 2320 2 MP stroke
18 0 2767 2235 2 MP stroke
18 0 2839 2150 2 MP stroke
18 0 2195 2916 2 MP stroke
18 0 2267 2831 2 MP stroke
18 0 2338 2746 2 MP stroke
18 0 2410 2661 2 MP stroke
18 0 2481 2576 2 MP stroke
18 0 2553 2492 2 MP stroke
18 0 2624 2409 2 MP stroke
18 0 2696 2326 2 MP stroke
18 0 2767 2243 2 MP stroke
18 0 2839 2161 2 MP stroke
c8
-36 0 0 3 36 0 0 -3 2186 2912 5 MP stroke
-36 0 0 2 36 0 0 -2 2258 2828 5 MP stroke
-36 0 0 2 36 0 0 -2 2329 2744 5 MP stroke
-36 0 0 2 36 0 0 -2 2401 2660 5 MP stroke
-36 0 36 0 2472 2575 3 MP stroke
-36 0 36 0 2544 2491 3 MP stroke
-36 0 0 2 36 0 0 -2 2615 2408 5 MP stroke
-36 0 0 2 36 0 0 -2 2687 2324 5 MP stroke
-36 0 0 3 36 0 0 -3 2758 2241 5 MP stroke
-36 0 0 4 36 0 0 -4 2830 2157 5 MP stroke
c9
36 0 2186 2911 2 MP stroke
36 0 2258 2827 2 MP stroke
36 0 2329 2743 2 MP stroke
36 0 2401 2659 2 MP stroke
36 0 2472 2575 2 MP stroke
36 0 2544 2491 2 MP stroke
36 0 2615 2407 2 MP stroke
36 0 2687 2323 2 MP stroke
36 0 2758 2239 2 MP stroke
36 0 2830 2155 2 MP stroke
gs 2191 2892 27 27 rc
2198 2905 mt 2210 2905 L
2204 2899 mt 2204 2911 L
gr

gs 2263 2809 27 27 rc
2270 2822 mt 2282 2822 L
2276 2816 mt 2276 2828 L
gr

gs 2334 2726 27 27 rc
2341 2739 mt 2353 2739 L
2347 2733 mt 2347 2745 L
gr

gs 2406 2644 27 27 rc
2413 2657 mt 2425 2657 L
2419 2651 mt 2419 2663 L
gr

gr

c9
0 sg
2172 3091 mt 
(1) s
2243 3091 mt 
(2) s
2315 3091 mt 
(3) s
2386 3091 mt 
(4) s
2458 3091 mt 
(5) s
2530 3091 mt 
(6) s
2601 3091 mt 
(7) s
2673 3091 mt 
(8) s
2744 3091 mt 
(9) s
2782 3091 mt 
(10) s
2326 2017 mt 
(P1:7\(F\)) s
1 sg
0 843 753 0 0 -843 3258 2955 4 MP
PP
-753 0 0 843 753 0 0 -843 3258 2955 5 MP stroke
4 w
DO
SO
6 w
0 sg
3258 2112 mt 4011 2112 L
3258 2955 mt 4011 2955 L
4011 2955 mt 4011 2112 L
3258 2955 mt 3258 2112 L
3258 2955 mt 4011 2955 L
3258 2955 mt 3258 2112 L
3258 2924 mt 3266 2924 L
4011 2924 mt 4002 2924 L
3087 2968 mt 
(-4) s
3258 2778 mt 3266 2778 L
4011 2778 mt 4002 2778 L
3087 2822 mt 
(-2) s
3258 2632 mt 3266 2632 L
4011 2632 mt 4002 2632 L
3157 2676 mt 
(0) s
3258 2486 mt 3266 2486 L
4011 2486 mt 4002 2486 L
3157 2530 mt 
(2) s
3258 2340 mt 3266 2340 L
4011 2340 mt 4002 2340 L
3157 2384 mt 
(4) s
3258 2194 mt 3266 2194 L
4011 2194 mt 4002 2194 L
3157 2238 mt 
(6) s
3258 2112 mt 4011 2112 L
3258 2955 mt 4011 2955 L
4011 2955 mt 4011 2112 L
3258 2955 mt 3258 2112 L
gs 3258 2112 754 844 rc
DA
0 -1 3295 2913 2 MP stroke
0 -1 3370 2830 2 MP stroke
0 -1 3446 2746 2 MP stroke
0 -1 3521 2662 2 MP stroke
0 -2 3596 2578 2 MP stroke
0 -4 3672 2494 2 MP stroke
0 -4 3747 2409 2 MP stroke
0 -5 3822 2325 2 MP stroke
0 -6 3898 2241 2 MP stroke
0 -7 3973 2157 2 MP stroke
0 -1 3295 2916 2 MP stroke
0 -1 3370 2831 2 MP stroke
0 -1 3446 2748 2 MP stroke
0 -2 3521 2665 2 MP stroke
0 -2 3596 2582 2 MP stroke
0 -5 3672 2502 2 MP stroke
0 -6 3747 2420 2 MP stroke
0 -7 3822 2338 2 MP stroke
0 -8 3898 2256 2 MP stroke
0 -9 3973 2174 2 MP stroke
SO
19 0 3286 2912 2 MP stroke
19 0 3361 2829 2 MP stroke
19 0 3436 2745 2 MP stroke
18 0 3512 2661 2 MP stroke
19 0 3587 2576 2 MP stroke
19 0 3662 2490 2 MP stroke
18 0 3738 2405 2 MP stroke
19 0 3813 2320 2 MP stroke
19 0 3888 2235 2 MP stroke
19 0 3963 2150 2 MP stroke
19 0 3286 2916 2 MP stroke
19 0 3361 2831 2 MP stroke
19 0 3436 2748 2 MP stroke
18 0 3512 2665 2 MP stroke
19 0 3587 2582 2 MP stroke
19 0 3662 2502 2 MP stroke
18 0 3738 2420 2 MP stroke
19 0 3813 2338 2 MP stroke
19 0 3888 2256 2 MP stroke
19 0 3963 2174 2 MP stroke
c8
-38 0 0 2 38 0 0 -2 3276 2915 5 MP stroke
-37 0 37 0 3352 2830 3 MP stroke
-38 0 0 1 38 0 0 -1 3427 2747 5 MP stroke
-38 0 0 1 38 0 0 -1 3502 2663 5 MP stroke
-37 0 0 2 37 0 0 -2 3578 2580 5 MP stroke
-37 0 0 3 37 0 0 -3 3653 2497 5 MP stroke
-38 0 0 5 38 0 0 -5 3728 2414 5 MP stroke
-38 0 0 6 38 0 0 -6 3803 2331 5 MP stroke
-37 0 0 7 37 0 0 -7 3879 2248 5 MP stroke
-38 0 0 8 38 0 0 -8 3954 2165 5 MP stroke
c9
38 0 3276 2914 2 MP stroke
37 0 3352 2830 2 MP stroke
38 0 3427 2746 2 MP stroke
38 0 3502 2663 2 MP stroke
37 0 3578 2579 2 MP stroke
37 0 3653 2496 2 MP stroke
38 0 3728 2412 2 MP stroke
38 0 3803 2328 2 MP stroke
37 0 3879 2245 2 MP stroke
38 0 3954 2161 2 MP stroke
gs 3508 2653 27 27 rc
3515 2666 mt 3527 2666 L
3521 2660 mt 3521 2672 L
gr

gs 3583 2571 27 27 rc
3590 2584 mt 3602 2584 L
3596 2578 mt 3596 2590 L
gr

gr

c9
0 sg
3263 3091 mt 
(1) s
3338 3091 mt 
(2) s
3413 3091 mt 
(3) s
3488 3091 mt 
(4) s
3564 3091 mt 
(5) s
3639 3091 mt 
(6) s
3714 3091 mt 
(7) s
3789 3091 mt 
(8) s
3865 3091 mt 
(9) s
3906 3091 mt 
(10) s
3434 2017 mt 
(P1:8\(F\)) s
1 sg
0 851 716 0 0 -851 4421 2954 4 MP
PP
-716 0 0 851 716 0 0 -851 4421 2954 5 MP stroke
4 w
DO
SO
6 w
0 sg
4421 2103 mt 5137 2103 L
4421 2954 mt 5137 2954 L
5137 2954 mt 5137 2103 L
4421 2954 mt 4421 2103 L
4421 2954 mt 5137 2954 L
4421 2954 mt 4421 2103 L
4421 2912 mt 4429 2912 L
5137 2912 mt 5128 2912 L
4183 2956 mt 
(-20) s
4421 2645 mt 4429 2645 L
5137 2645 mt 5128 2645 L
4183 2689 mt 
(-10) s
4421 2378 mt 4429 2378 L
5137 2378 mt 5128 2378 L
4320 2422 mt 
(0) s
4421 2112 mt 4429 2112 L
5137 2112 mt 5128 2112 L
4253 2156 mt 
(10) s
4421 2103 mt 5137 2103 L
4421 2954 mt 5137 2954 L
5137 2954 mt 5137 2103 L
4421 2954 mt 4421 2103 L
gs 4421 2103 717 852 rc
DA
0 -4 4456 2907 2 MP stroke
0 -3 4528 2822 2 MP stroke
0 -3 4600 2738 2 MP stroke
0 -2 4671 2653 2 MP stroke
0 -2 4743 2569 2 MP stroke
0 -1 4814 2484 2 MP stroke
4886 2399 PD
0 -1 4958 2314 2 MP stroke
0 -2 5029 2229 2 MP stroke
0 -2 5101 2144 2 MP stroke
0 -5 4456 2915 2 MP stroke
0 -4 4528 2829 2 MP stroke
0 -2 4600 2742 2 MP stroke
0 -1 4671 2656 2 MP stroke
0 -1 4743 2571 2 MP stroke
4814 2485 PD
4886 2400 PD
0 -1 4958 2316 2 MP stroke
0 -2 5029 2232 2 MP stroke
0 -2 5101 2148 2 MP stroke
SO
18 0 4447 2903 2 MP stroke
18 0 4519 2819 2 MP stroke
17 0 4591 2735 2 MP stroke
18 0 4662 2651 2 MP stroke
18 0 4734 2567 2 MP stroke
18 0 4805 2483 2 MP stroke
18 0 4877 2399 2 MP stroke
17 0 4949 2313 2 MP stroke
18 0 5020 2227 2 MP stroke
18 0 5092 2142 2 MP stroke
18 0 4447 2915 2 MP stroke
18 0 4519 2829 2 MP stroke
17 0 4591 2742 2 MP stroke
18 0 4662 2656 2 MP stroke
18 0 4734 2571 2 MP stroke
18 0 4805 2485 2 MP stroke
18 0 4877 2400 2 MP stroke
17 0 4949 2316 2 MP stroke
18 0 5020 2232 2 MP stroke
18 0 5092 2148 2 MP stroke
c8
-36 0 0 3 36 0 0 -3 4438 2910 5 MP stroke
-36 0 0 3 36 0 0 -3 4510 2825 5 MP stroke
-35 0 0 2 35 0 0 -2 4582 2740 5 MP stroke
-36 0 0 2 36 0 0 -2 4653 2655 5 MP stroke
-36 0 0 1 36 0 0 -1 4725 2570 5 MP stroke
-36 0 0 1 36 0 0 -1 4796 2485 5 MP stroke
-36 0 0 1 36 0 0 -1 4868 2400 5 MP stroke
-35 0 0 1 35 0 0 -1 4940 2315 5 MP stroke
-36 0 0 1 36 0 0 -1 5011 2230 5 MP stroke
-36 0 0 2 36 0 0 -2 5083 2146 5 MP stroke
c9
36 0 4438 2908 2 MP stroke
36 0 4510 2824 2 MP stroke
35 0 4582 2739 2 MP stroke
36 0 4653 2654 2 MP stroke
36 0 4725 2569 2 MP stroke
36 0 4796 2484 2 MP stroke
36 0 4868 2399 2 MP stroke
35 0 4940 2315 2 MP stroke
36 0 5011 2230 2 MP stroke
36 0 5083 2145 2 MP stroke
gs 4587 2730 27 27 rc
4594 2743 mt 4606 2743 L
4600 2737 mt 4600 2749 L
gr

gs 4658 2644 27 27 rc
4665 2657 mt 4677 2657 L
4671 2651 mt 4671 2663 L
gr

gs 5088 2128 27 27 rc
5095 2141 mt 5107 2141 L
5101 2135 mt 5101 2147 L
gr

gr

c9
0 sg
4424 3090 mt 
(1) s
4495 3090 mt 
(2) s
4567 3090 mt 
(3) s
4638 3090 mt 
(4) s
4710 3090 mt 
(5) s
4782 3090 mt 
(6) s
4853 3090 mt 
(7) s
4925 3090 mt 
(8) s
4996 3090 mt 
(9) s
5034 3090 mt 
(10) s
4578 2008 mt 
(P1:9\(F\)) s
1 sg
0 843 707 0 0 -843 5548 2955 4 MP
PP
-707 0 0 843 707 0 0 -843 5548 2955 5 MP stroke
4 w
DO
SO
6 w
0 sg
5548 2112 mt 6255 2112 L
5548 2955 mt 6255 2955 L
6255 2955 mt 6255 2112 L
5548 2955 mt 5548 2112 L
5548 2955 mt 6255 2955 L
5548 2955 mt 5548 2112 L
5548 2918 mt 5556 2918 L
6255 2918 mt 6246 2918 L
5310 2962 mt 
(-40) s
5548 2681 mt 5556 2681 L
6255 2681 mt 6246 2681 L
5310 2725 mt 
(-20) s
5548 2444 mt 5556 2444 L
6255 2444 mt 6246 2444 L
5447 2488 mt 
(0) s
5548 2208 mt 5556 2208 L
6255 2208 mt 6246 2208 L
5380 2252 mt 
(20) s
5548 2112 mt 6255 2112 L
5548 2955 mt 6255 2955 L
6255 2955 mt 6255 2112 L
5548 2955 mt 5548 2112 L
gs 5548 2112 708 844 rc
DA
0 -2 5583 2909 2 MP stroke
0 -1 5654 2825 2 MP stroke
0 -2 5724 2742 2 MP stroke
0 -1 5795 2658 2 MP stroke
5866 2574 PD
5936 2490 PD
0 -1 6007 2406 2 MP stroke
0 -2 6078 2322 2 MP stroke
0 -2 6148 2237 2 MP stroke
0 -3 6219 2153 2 MP stroke
0 -3 5583 2916 2 MP stroke
0 -3 5654 2831 2 MP stroke
0 -2 5724 2746 2 MP stroke
0 -2 5795 2661 2 MP stroke
0 -1 5866 2576 2 MP stroke
5936 2491 PD
6007 2407 PD
0 -1 6078 2324 2 MP stroke
0 -2 6148 2241 2 MP stroke
0 -2 6219 2157 2 MP stroke
SO
18 0 5574 2907 2 MP stroke
17 0 5645 2824 2 MP stroke
18 0 5715 2740 2 MP stroke
18 0 5786 2657 2 MP stroke
17 0 5857 2574 2 MP stroke
17 0 5928 2490 2 MP stroke
18 0 5998 2405 2 MP stroke
18 0 6069 2320 2 MP stroke
17 0 6140 2235 2 MP stroke
18 0 6210 2150 2 MP stroke
18 0 5574 2916 2 MP stroke
17 0 5645 2831 2 MP stroke
18 0 5715 2746 2 MP stroke
18 0 5786 2661 2 MP stroke
17 0 5857 2576 2 MP stroke
17 0 5928 2491 2 MP stroke
18 0 5998 2407 2 MP stroke
18 0 6069 2324 2 MP stroke
17 0 6140 2241 2 MP stroke
18 0 6210 2157 2 MP stroke
c8
-36 0 0 4 36 0 0 -4 5565 2913 5 MP stroke
-35 0 0 3 35 0 0 -3 5636 2828 5 MP stroke
-35 0 0 2 35 0 0 -2 5707 2744 5 MP stroke
-36 0 0 1 36 0 0 -1 5777 2659 5 MP stroke
-35 0 0 1 35 0 0 -1 5848 2575 5 MP stroke
-35 0 0 1 35 0 0 -1 5919 2491 5 MP stroke
-36 0 0 1 36 0 0 -1 5989 2407 5 MP stroke
-35 0 0 1 35 0 0 -1 6060 2323 5 MP stroke
-35 0 0 2 35 0 0 -2 6131 2239 5 MP stroke
-36 0 0 2 36 0 0 -2 6201 2155 5 MP stroke
c9
36 0 5565 2911 2 MP stroke
35 0 5636 2827 2 MP stroke
35 0 5707 2743 2 MP stroke
36 0 5777 2659 2 MP stroke
35 0 5848 2575 2 MP stroke
35 0 5919 2491 2 MP stroke
36 0 5989 2406 2 MP stroke
35 0 6060 2323 2 MP stroke
35 0 6131 2238 2 MP stroke
36 0 6201 2154 2 MP stroke
gs 5570 2890 27 27 rc
5577 2903 mt 5589 2903 L
5583 2897 mt 5583 2909 L
gr

gs 5641 2807 27 27 rc
5648 2820 mt 5660 2820 L
5654 2814 mt 5654 2826 L
gr

gs 5711 2725 27 27 rc
5718 2738 mt 5730 2738 L
5724 2732 mt 5724 2744 L
gr

gs 5782 2642 27 27 rc
5789 2655 mt 5801 2655 L
5795 2649 mt 5795 2661 L
gr

gs 5853 2560 27 27 rc
5860 2573 mt 5872 2573 L
5866 2567 mt 5866 2579 L
gr

gs 5923 2477 27 27 rc
5930 2490 mt 5942 2490 L
5936 2484 mt 5936 2496 L
gr

gs 6065 2312 27 27 rc
6072 2325 mt 6084 2325 L
6078 2319 mt 6078 2331 L
gr

gs 6135 2229 27 27 rc
6142 2242 mt 6154 2242 L
6148 2236 mt 6148 2248 L
gr

gs 6206 2147 27 27 rc
6213 2160 mt 6225 2160 L
6219 2154 mt 6219 2166 L
gr

gr

c9
0 sg
5550 3091 mt 
(1) s
5621 3091 mt 
(2) s
5692 3091 mt 
(3) s
5763 3091 mt 
(4) s
5833 3091 mt 
(5) s
5904 3091 mt 
(6) s
5975 3091 mt 
(7) s
6045 3091 mt 
(8) s
6116 3091 mt 
(9) s
6153 3091 mt 
(10) s
5701 2017 mt 
(P2:1\(F\)) s
1 sg
0 911 750 0 0 -911 1008 4575 4 MP
PP
-750 0 0 911 750 0 0 -911 1008 4575 5 MP stroke
4 w
DO
SO
6 w
0 sg
1008 3664 mt 1758 3664 L
1008 4575 mt 1758 4575 L
1758 4575 mt 1758 3664 L
1008 4575 mt 1008 3664 L
1008 4575 mt 1758 4575 L
1008 4575 mt 1008 3664 L
1008 4443 mt 1017 4443 L
1758 4443 mt 1748 4443 L
 770 4487 mt 
(-20) s
1008 4088 mt 1017 4088 L
1758 4088 mt 1748 4088 L
 907 4132 mt 
(0) s
1008 3733 mt 1017 3733 L
1758 3733 mt 1748 3733 L
 840 3777 mt 
(20) s
1008 3664 mt 1758 3664 L
1008 4575 mt 1758 4575 L
1758 4575 mt 1758 3664 L
1008 4575 mt 1008 3664 L
gs 1008 3664 751 912 rc
DA
0 -3 1045 4525 2 MP stroke
0 -3 1120 4435 2 MP stroke
0 -2 1195 4345 2 MP stroke
0 -2 1270 4255 2 MP stroke
1345 4164 PD
0 -1 1420 4074 2 MP stroke
0 -1 1495 3983 2 MP stroke
0 -3 1570 3892 2 MP stroke
0 -4 1645 3801 2 MP stroke
0 -5 1720 3710 2 MP stroke
0 -4 1045 4533 2 MP stroke
0 -3 1120 4441 2 MP stroke
0 -2 1195 4349 2 MP stroke
0 -1 1270 4257 2 MP stroke
1345 4165 PD
0 -1 1420 4075 2 MP stroke
0 -1 1495 3985 2 MP stroke
0 -1 1570 3895 2 MP stroke
0 -2 1645 3806 2 MP stroke
0 -2 1720 3716 2 MP stroke
SO
18 0 1036 4522 2 MP stroke
18 0 1111 4432 2 MP stroke
18 0 1186 4343 2 MP stroke
18 0 1261 4253 2 MP stroke
18 0 1336 4164 2 MP stroke
18 0 1411 4073 2 MP stroke
18 0 1486 3982 2 MP stroke
18 0 1561 3889 2 MP stroke
18 0 1636 3797 2 MP stroke
18 0 1711 3705 2 MP stroke
18 0 1036 4533 2 MP stroke
18 0 1111 4441 2 MP stroke
18 0 1186 4349 2 MP stroke
18 0 1261 4257 2 MP stroke
18 0 1336 4165 2 MP stroke
18 0 1411 4075 2 MP stroke
18 0 1486 3985 2 MP stroke
18 0 1561 3895 2 MP stroke
18 0 1636 3806 2 MP stroke
18 0 1711 3716 2 MP stroke
c8
-38 0 0 4 38 0 0 -4 1026 4529 5 MP stroke
-38 0 0 3 38 0 0 -3 1101 4438 5 MP stroke
-38 0 0 2 38 0 0 -2 1176 4347 5 MP stroke
-38 0 0 1 38 0 0 -1 1251 4256 5 MP stroke
-38 0 0 1 38 0 0 -1 1326 4165 5 MP stroke
-38 0 38 0 1401 4074 3 MP stroke
-38 0 0 1 38 0 0 -1 1476 3984 5 MP stroke
-38 0 0 2 38 0 0 -2 1551 3894 5 MP stroke
-38 0 0 3 38 0 0 -3 1626 3804 5 MP stroke
-38 0 0 4 38 0 0 -4 1701 3714 5 MP stroke
c9
38 0 1026 4527 2 MP stroke
38 0 1101 4437 2 MP stroke
38 0 1176 4346 2 MP stroke
38 0 1251 4255 2 MP stroke
38 0 1326 4165 2 MP stroke
38 0 1401 4074 2 MP stroke
38 0 1476 3983 2 MP stroke
38 0 1551 3893 2 MP stroke
38 0 1626 3802 2 MP stroke
38 0 1701 3712 2 MP stroke
gs 1482 3968 27 27 rc
1489 3981 mt 1501 3981 L
1495 3975 mt 1495 3987 L
gr

gs 1557 3876 27 27 rc
1564 3889 mt 1576 3889 L
1570 3883 mt 1570 3895 L
gr

gr

c9
0 sg
1012 4711 mt 
(1) s
1087 4711 mt 
(2) s
1162 4711 mt 
(3) s
1237 4711 mt 
(4) s
1312 4711 mt 
(5) s
1387 4711 mt 
(6) s
1462 4711 mt 
(7) s
1537 4711 mt 
(8) s
1612 4711 mt 
(9) s
1653 4711 mt 
(10) s
1179 3569 mt 
(P2:2\(S\)) s
1 sg
0 911 715 0 0 -911 2169 4575 4 MP
PP
-715 0 0 911 715 0 0 -911 2169 4575 5 MP stroke
4 w
DO
SO
6 w
0 sg
2169 3664 mt 2884 3664 L
2169 4575 mt 2884 4575 L
2884 4575 mt 2884 3664 L
2169 4575 mt 2169 3664 L
2169 4575 mt 2884 4575 L
2169 4575 mt 2169 3664 L
2169 4534 mt 2178 4534 L
2884 4534 mt 2874 4534 L
1931 4578 mt 
(-20) s
2169 4273 mt 2178 4273 L
2884 4273 mt 2874 4273 L
1931 4317 mt 
(-10) s
2169 4012 mt 2178 4012 L
2884 4012 mt 2874 4012 L
2068 4056 mt 
(0) s
2169 3752 mt 2178 3752 L
2884 3752 mt 2874 3752 L
2001 3796 mt 
(10) s
2169 3664 mt 2884 3664 L
2169 4575 mt 2884 4575 L
2884 4575 mt 2884 3664 L
2169 4575 mt 2169 3664 L
gs 2169 3664 716 912 rc
DA
0 -2 2204 4525 2 MP stroke
0 -1 2276 4434 2 MP stroke
0 -1 2347 4344 2 MP stroke
0 -1 2419 4254 2 MP stroke
0 -1 2490 4163 2 MP stroke
2562 4072 PD
2633 3981 PD
0 -1 2705 3890 2 MP stroke
0 -2 2776 3799 2 MP stroke
0 -3 2848 3708 2 MP stroke
0 -5 2204 4533 2 MP stroke
0 -4 2276 4441 2 MP stroke
0 -3 2347 4349 2 MP stroke
0 -2 2419 4257 2 MP stroke
0 -1 2490 4165 2 MP stroke
2562 4073 PD
2633 3982 PD
2705 3892 PD
0 -1 2776 3802 2 MP stroke
0 -2 2848 3712 2 MP stroke
SO
18 0 2195 4523 2 MP stroke
18 0 2267 4433 2 MP stroke
18 0 2338 4343 2 MP stroke
18 0 2410 4253 2 MP stroke
18 0 2481 4162 2 MP stroke
18 0 2553 4072 2 MP stroke
18 0 2624 3981 2 MP stroke
18 0 2696 3889 2 MP stroke
18 0 2767 3797 2 MP stroke
18 0 2839 3705 2 MP stroke
18 0 2195 4533 2 MP stroke
18 0 2267 4441 2 MP stroke
18 0 2338 4349 2 MP stroke
18 0 2410 4257 2 MP stroke
18 0 2481 4165 2 MP stroke
18 0 2553 4073 2 MP stroke
18 0 2624 3982 2 MP stroke
18 0 2696 3892 2 MP stroke
18 0 2767 3802 2 MP stroke
18 0 2839 3712 2 MP stroke
c8
-36 0 0 3 36 0 0 -3 2186 4528 5 MP stroke
-36 0 0 3 36 0 0 -3 2258 4437 5 MP stroke
-36 0 0 2 36 0 0 -2 2329 4346 5 MP stroke
-36 0 0 1 36 0 0 -1 2401 4255 5 MP stroke
-36 0 0 1 36 0 0 -1 2472 4164 5 MP stroke
-36 0 0 1 36 0 0 -1 2544 4073 5 MP stroke
-36 0 0 1 36 0 0 -1 2615 3982 5 MP stroke
-36 0 0 2 36 0 0 -2 2687 3892 5 MP stroke
-36 0 0 2 36 0 0 -2 2758 3801 5 MP stroke
-36 0 0 2 36 0 0 -2 2830 3710 5 MP stroke
c9
36 0 2186 4527 2 MP stroke
36 0 2258 4436 2 MP stroke
36 0 2329 4345 2 MP stroke
36 0 2401 4254 2 MP stroke
36 0 2472 4163 2 MP stroke
36 0 2544 4072 2 MP stroke
36 0 2615 3982 2 MP stroke
36 0 2687 3891 2 MP stroke
36 0 2758 3800 2 MP stroke
36 0 2830 3709 2 MP stroke
gr

c9
0 sg
2172 4711 mt 
(1) s
2243 4711 mt 
(2) s
2315 4711 mt 
(3) s
2386 4711 mt 
(4) s
2458 4711 mt 
(5) s
2530 4711 mt 
(6) s
2601 4711 mt 
(7) s
2673 4711 mt 
(8) s
2744 4711 mt 
(9) s
2782 4711 mt 
(10) s
2323 3569 mt 
(P2:3\(S\)) s
1 sg
0 923 715 0 0 -923 3295 4573 4 MP
PP
-715 0 0 923 715 0 0 -923 3295 4573 5 MP stroke
4 w
DO
SO
6 w
0 sg
3295 3650 mt 4010 3650 L
3295 4573 mt 4010 4573 L
4010 4573 mt 4010 3650 L
3295 4573 mt 3295 3650 L
3295 4573 mt 4010 4573 L
3295 4573 mt 3295 3650 L
3295 4455 mt 3304 4455 L
4010 4455 mt 4000 4455 L
3057 4499 mt 
(-40) s
3295 4187 mt 3304 4187 L
4010 4187 mt 4000 4187 L
3057 4231 mt 
(-20) s
3295 3919 mt 3304 3919 L
4010 3919 mt 4000 3919 L
3194 3963 mt 
(0) s
3295 3651 mt 3304 3651 L
4010 3651 mt 4000 3651 L
3127 3695 mt 
(20) s
3295 3650 mt 4010 3650 L
3295 4573 mt 4010 4573 L
4010 4573 mt 4010 3650 L
3295 4573 mt 3295 3650 L
gs 3295 3650 716 924 rc
DA
0 -5 3330 4517 2 MP stroke
0 -4 3402 4426 2 MP stroke
0 -3 3473 4335 2 MP stroke
0 -3 3545 4244 2 MP stroke
0 -2 3616 4153 2 MP stroke
3688 4061 PD
3759 3970 PD
0 -1 3831 3879 2 MP stroke
0 -2 3902 3787 2 MP stroke
0 -4 3974 3695 2 MP stroke
0 -7 3330 4531 2 MP stroke
0 -5 3402 4437 2 MP stroke
0 -5 3473 4344 2 MP stroke
0 -4 3545 4251 2 MP stroke
0 -3 3616 4158 2 MP stroke
0 -1 3688 4064 2 MP stroke
3759 3971 PD
0 -1 3831 3880 2 MP stroke
0 -2 3902 3790 2 MP stroke
0 -2 3974 3699 2 MP stroke
SO
18 0 3321 4512 2 MP stroke
18 0 3393 4422 2 MP stroke
18 0 3464 4332 2 MP stroke
18 0 3536 4241 2 MP stroke
18 0 3607 4151 2 MP stroke
18 0 3679 4061 2 MP stroke
18 0 3750 3970 2 MP stroke
18 0 3822 3878 2 MP stroke
18 0 3893 3785 2 MP stroke
18 0 3965 3691 2 MP stroke
18 0 3321 4531 2 MP stroke
18 0 3393 4437 2 MP stroke
18 0 3464 4344 2 MP stroke
18 0 3536 4251 2 MP stroke
18 0 3607 4158 2 MP stroke
18 0 3679 4064 2 MP stroke
18 0 3750 3971 2 MP stroke
18 0 3822 3880 2 MP stroke
18 0 3893 3790 2 MP stroke
18 0 3965 3699 2 MP stroke
c8
-36 0 0 7 36 0 0 -7 3312 4524 5 MP stroke
-36 0 0 6 36 0 0 -6 3384 4432 5 MP stroke
-36 0 0 4 36 0 0 -4 3455 4339 5 MP stroke
-36 0 0 3 36 0 0 -3 3527 4247 5 MP stroke
-36 0 0 2 36 0 0 -2 3598 4155 5 MP stroke
-36 0 0 2 36 0 0 -2 3670 4063 5 MP stroke
-36 0 0 1 36 0 0 -1 3741 3971 5 MP stroke
-36 0 36 0 3813 3879 3 MP stroke
-36 0 0 1 36 0 0 -1 3884 3788 5 MP stroke
-36 0 0 2 36 0 0 -2 3956 3697 5 MP stroke
c9
36 0 3312 4520 2 MP stroke
36 0 3384 4429 2 MP stroke
36 0 3455 4337 2 MP stroke
36 0 3527 4245 2 MP stroke
36 0 3598 4154 2 MP stroke
36 0 3670 4062 2 MP stroke
36 0 3741 3971 2 MP stroke
36 0 3813 3879 2 MP stroke
36 0 3884 3787 2 MP stroke
36 0 3956 3696 2 MP stroke
gs 3818 3865 27 27 rc
3825 3878 mt 3837 3878 L
3831 3872 mt 3831 3884 L
gr

gr

c9
0 sg
3298 4709 mt 
(1) s
3369 4709 mt 
(2) s
3441 4709 mt 
(3) s
3512 4709 mt 
(4) s
3584 4709 mt 
(5) s
3656 4709 mt 
(6) s
3727 4709 mt 
(7) s
3799 4709 mt 
(8) s
3870 4709 mt 
(9) s
3908 4709 mt 
(10) s
3449 3555 mt 
(P2:4\(S\)) s

end %%Color Dict

eplot
%%EndObject

epage
end

showpage

%%Trailer
%%EOF
