%!PS-Adobe-3.0 EPSF-3.0
%%Creator: MATLAB, The MathWorks, Inc. Version 8.3.0.532 (R2014a). Operating System: Microsoft Windows 7 Enterprise .
%%Title: Pictures\main_llr_confidence_subject_level_bstrp__13_expe_LLR.eps
%%CreationDate: 03/28/2015  14:49:44
%%DocumentNeededFonts: Helvetica
%%DocumentProcessColors: Cyan Magenta Yellow Black
%%LanguageLevel: 2
%%Pages: 1
%%BoundingBox:    82   215   547   593
%%EndComments

%%BeginProlog
% MathWorks dictionary
/MathWorks 160 dict begin
% definition operators
/bdef {bind def} bind def
/ldef {load def} bind def
/xdef {exch def} bdef
/xstore {exch store} bdef
% operator abbreviations
/c  /clip ldef
/cc /concat ldef
/cp /closepath ldef
/gr /grestore ldef
/gs /gsave ldef
/mt /moveto ldef
/np /newpath ldef
/cm /currentmatrix ldef
/sm /setmatrix ldef
/rm /rmoveto ldef
/rl /rlineto ldef
/s {show newpath} bdef
/sc {setcmykcolor} bdef
/sr /setrgbcolor ldef
/sg /setgray ldef
/w /setlinewidth ldef
/j /setlinejoin ldef
/cap /setlinecap ldef
/rc {rectclip} bdef
/rf {rectfill} bdef
% page state control
/pgsv () def
/bpage {/pgsv save def} bdef
/epage {pgsv restore} bdef
/bplot /gsave ldef
/eplot {stroke grestore} bdef
% orientation switch
/portraitMode 0 def /landscapeMode 1 def /rotateMode 2 def
% coordinate system mappings
/dpi2point 0 def
% font control
/FontSize 0 def
/FMS {/FontSize xstore findfont [FontSize 0 0 FontSize neg 0 0]
  makefont setfont} bdef
/ISOLatin1Encoding where {pop /WindowsLatin1Encoding 256 array bdef
ISOLatin1Encoding WindowsLatin1Encoding copy pop
/.notdef/.notdef/quotesinglbase/florin/quotedblbase/ellipsis/dagger
/daggerdbl/circumflex/perthousand/Scaron/guilsinglleft/OE/.notdef/.notdef
/.notdef/.notdef/quoteleft/quoteright/quotedblleft/quotedblright/bullet
/endash/emdash/tilde/trademark/scaron/guilsinglright/oe/.notdef/.notdef
/Ydieresis WindowsLatin1Encoding 128 32 getinterval astore pop}
{/WindowsLatin1Encoding StandardEncoding bdef} ifelse
/reencode {exch dup where {pop load} {pop StandardEncoding} ifelse
  exch dup 3 1 roll findfont dup length dict begin
  { 1 index /FID ne {def}{pop pop} ifelse } forall
  /Encoding exch def currentdict end definefont pop} bdef
/isroman {findfont /CharStrings get /Agrave known} bdef
/FMSR {3 1 roll 1 index dup isroman {reencode} {pop pop} ifelse
  exch FMS} bdef
/csm {1 dpi2point div -1 dpi2point div scale neg translate
 dup landscapeMode eq {pop -90 rotate}
  {rotateMode eq {90 rotate} if} ifelse} bdef
% line types: solid, dotted, dashed, dotdash
/SO { [] 0 setdash } bdef
/DO { [.5 dpi2point mul 4 dpi2point mul] 0 setdash } bdef
/DA { [6 dpi2point mul] 0 setdash } bdef
/DD { [.5 dpi2point mul 4 dpi2point mul 6 dpi2point mul 4
  dpi2point mul] 0 setdash } bdef
% macros for lines and objects
/L {lineto stroke} bdef
/MP {3 1 roll moveto 1 sub {rlineto} repeat} bdef
/AP {{rlineto} repeat} bdef
/PDlw -1 def
/W {/PDlw currentlinewidth def setlinewidth} def
/PP {closepath eofill} bdef
/DP {closepath stroke} bdef
/MR {4 -2 roll moveto dup  0 exch rlineto exch 0 rlineto
  neg 0 exch rlineto closepath} bdef
/FR {MR stroke} bdef
/PR {MR fill} bdef
/L1i {{currentfile picstr readhexstring pop} image} bdef
/tMatrix matrix def
/MakeOval {newpath tMatrix currentmatrix pop translate scale
0 0 1 0 360 arc tMatrix setmatrix} bdef
/FO {MakeOval stroke} bdef
/PO {MakeOval fill} bdef
/PD {currentlinewidth 2 div 0 360 arc fill
   PDlw -1 eq not {PDlw w /PDlw -1 def} if} def
/FA {newpath tMatrix currentmatrix pop translate scale
  0 0 1 5 -2 roll arc tMatrix setmatrix stroke} bdef
/PA {newpath tMatrix currentmatrix pop	translate 0 0 moveto scale
  0 0 1 5 -2 roll arc closepath tMatrix setmatrix fill} bdef
/FAn {newpath tMatrix currentmatrix pop translate scale
  0 0 1 5 -2 roll arcn tMatrix setmatrix stroke} bdef
/PAn {newpath tMatrix currentmatrix pop translate 0 0 moveto scale
  0 0 1 5 -2 roll arcn closepath tMatrix setmatrix fill} bdef
/vradius 0 def /hradius 0 def /lry 0 def
/lrx 0 def /uly 0 def /ulx 0 def /rad 0 def
/MRR {/vradius xdef /hradius xdef /lry xdef /lrx xdef /uly xdef
  /ulx xdef newpath tMatrix currentmatrix pop ulx hradius add uly
  vradius add translate hradius vradius scale 0 0 1 180 270 arc 
  tMatrix setmatrix lrx hradius sub uly vradius add translate
  hradius vradius scale 0 0 1 270 360 arc tMatrix setmatrix
  lrx hradius sub lry vradius sub translate hradius vradius scale
  0 0 1 0 90 arc tMatrix setmatrix ulx hradius add lry vradius sub
  translate hradius vradius scale 0 0 1 90 180 arc tMatrix setmatrix
  closepath} bdef
/FRR {MRR stroke } bdef
/PRR {MRR fill } bdef
/MlrRR {/lry xdef /lrx xdef /uly xdef /ulx xdef /rad lry uly sub 2 div def
  newpath tMatrix currentmatrix pop ulx rad add uly rad add translate
  rad rad scale 0 0 1 90 270 arc tMatrix setmatrix lrx rad sub lry rad
  sub translate rad rad scale 0 0 1 270 90 arc tMatrix setmatrix
  closepath} bdef
/FlrRR {MlrRR stroke } bdef
/PlrRR {MlrRR fill } bdef
/MtbRR {/lry xdef /lrx xdef /uly xdef /ulx xdef /rad lrx ulx sub 2 div def
  newpath tMatrix currentmatrix pop ulx rad add uly rad add translate
  rad rad scale 0 0 1 180 360 arc tMatrix setmatrix lrx rad sub lry rad
  sub translate rad rad scale 0 0 1 0 180 arc tMatrix setmatrix
  closepath} bdef
/FtbRR {MtbRR stroke } bdef
/PtbRR {MtbRR fill } bdef
/stri 6 array def /dtri 6 array def
/smat 6 array def /dmat 6 array def
/tmat1 6 array def /tmat2 6 array def /dif 3 array def
/asub {/ind2 exch def /ind1 exch def dup dup
  ind1 get exch ind2 get sub exch } bdef
/tri_to_matrix {
  2 0 asub 3 1 asub 4 0 asub 5 1 asub
  dup 0 get exch 1 get 7 -1 roll astore } bdef
/compute_transform {
  dmat dtri tri_to_matrix tmat1 invertmatrix 
  smat stri tri_to_matrix tmat2 concatmatrix } bdef
/ds {stri astore pop} bdef
/dt {dtri astore pop} bdef
/db {2 copy /cols xdef /rows xdef mul dup 3 mul string
  currentfile 
  3 index 0 eq {/ASCIIHexDecode filter}
  {/ASCII85Decode filter 3 index 2 eq {/RunLengthDecode filter} if }
  ifelse exch readstring pop
  dup 0 3 index getinterval /rbmap xdef
  dup 2 index dup getinterval /gbmap xdef
  1 index dup 2 mul exch getinterval /bbmap xdef pop pop}bdef
/it {gs np dtri aload pop moveto lineto lineto cp c
  cols rows 8 compute_transform 
  rbmap gbmap bbmap true 3 colorimage gr}bdef
/il {newpath moveto lineto stroke}bdef
currentdict end def
%%EndProlog

%%BeginSetup
MathWorks begin

0 cap

end
%%EndSetup

%%Page: 1 1
%%BeginPageSetup
%%PageBoundingBox:    82   215   547   593
MathWorks begin
bpage
%%EndPageSetup

%%BeginObject: obj1
bplot

/dpi2point 12 def
portraitMode 0216 7344 csm

  770   220  5587  4543 rc
85 dict begin %Colortable dictionary
/c0 { 0.000000 0.000000 0.000000 sr} bdef
/c1 { 1.000000 1.000000 1.000000 sr} bdef
/c2 { 0.900000 0.000000 0.000000 sr} bdef
/c3 { 0.000000 0.820000 0.000000 sr} bdef
/c4 { 0.000000 0.000000 0.800000 sr} bdef
/c5 { 0.910000 0.820000 0.320000 sr} bdef
/c6 { 1.000000 0.260000 0.820000 sr} bdef
/c7 { 0.000000 0.820000 0.820000 sr} bdef
c0
1 j
1 sg
   0    0 6919 5187 rf
6 w
0 897 717 0 0 -897 1041 1396 4 MP
PP
-717 0 0 897 717 0 0 -897 1041 1396 5 MP stroke
4 w
DO
SO
6 w
0 sg
1041  499 mt 1758  499 L
1041 1396 mt 1758 1396 L
1758 1396 mt 1758  499 L
1041 1396 mt 1041  499 L
1041 1396 mt 1758 1396 L
1041 1396 mt 1041  499 L
1041 1396 mt 1049 1396 L
1758 1396 mt 1749 1396 L
%%IncludeResource: font Helvetica
/Helvetica /WindowsLatin1Encoding 120 FMSR

 770 1440 mt 
(-0.5) s
1041  947 mt 1049  947 L
1758  947 mt 1749  947 L
 940  991 mt 
(0) s
1041  499 mt 1049  499 L
1758  499 mt 1749  499 L
 840  543 mt 
(0.5) s
1041  499 mt 1758  499 L
1041 1396 mt 1758 1396 L
1758 1396 mt 1758  499 L
1041 1396 mt 1041  499 L
gs 1041 499 718 898 rc
DA
1076 947 PD
1148 947 PD
1220 947 PD
1291 947 PD
1363 947 PD
1435 947 PD
1507 947 PD
1578 947 PD
1650 947 PD
1722 947 PD
1076 947 PD
1148 947 PD
1220 947 PD
1291 947 PD
1363 947 PD
1435 947 PD
1507 947 PD
1578 947 PD
1650 947 PD
1722 947 PD
SO
18 0 1067 947 2 MP stroke
18 0 1139 947 2 MP stroke
18 0 1211 947 2 MP stroke
18 0 1282 947 2 MP stroke
18 0 1354 947 2 MP stroke
18 0 1426 947 2 MP stroke
18 0 1498 947 2 MP stroke
18 0 1569 947 2 MP stroke
18 0 1641 947 2 MP stroke
18 0 1713 947 2 MP stroke
18 0 1067 947 2 MP stroke
18 0 1139 947 2 MP stroke
18 0 1211 947 2 MP stroke
18 0 1282 947 2 MP stroke
18 0 1354 947 2 MP stroke
18 0 1426 947 2 MP stroke
18 0 1498 947 2 MP stroke
18 0 1569 947 2 MP stroke
18 0 1641 947 2 MP stroke
18 0 1713 947 2 MP stroke
/c8 { 0.000000 0.000000 1.000000 sr} bdef
c8
-36 0 36 0 1058 947 3 MP stroke
-36 0 36 0 1130 947 3 MP stroke
-36 0 36 0 1202 947 3 MP stroke
-35 0 35 0 1274 947 3 MP stroke
-36 0 36 0 1345 947 3 MP stroke
-36 0 36 0 1417 947 3 MP stroke
-35 0 35 0 1489 947 3 MP stroke
-36 0 36 0 1560 947 3 MP stroke
-36 0 36 0 1632 947 3 MP stroke
-36 0 36 0 1704 947 3 MP stroke
/c9 { 1.000000 0.000000 0.000000 sr} bdef
c9
36 0 1058 947 2 MP stroke
36 0 1130 947 2 MP stroke
36 0 1202 947 2 MP stroke
35 0 1274 947 2 MP stroke
36 0 1345 947 2 MP stroke
36 0 1417 947 2 MP stroke
35 0 1489 947 2 MP stroke
36 0 1560 947 2 MP stroke
36 0 1632 947 2 MP stroke
36 0 1704 947 2 MP stroke
gr

c9
0 sg
1044 1532 mt 
(1) s
1115 1532 mt 
(2) s
1187 1532 mt 
(3) s
1259 1532 mt 
(4) s
1330 1532 mt 
(5) s
1402 1532 mt 
(6) s
1473 1532 mt 
(7) s
1545 1532 mt 
(8) s
1617 1532 mt 
(9) s
1654 1532 mt 
(10) s
1199  404 mt 
(P1:1\(F\)) s
1 sg
0 897 731 0 0 -897 2153 1396 4 MP
PP
-731 0 0 897 731 0 0 -897 2153 1396 5 MP stroke
4 w
DO
SO
6 w
0 sg
2153  499 mt 2884  499 L
2153 1396 mt 2884 1396 L
2884 1396 mt 2884  499 L
2153 1396 mt 2153  499 L
2153 1396 mt 2884 1396 L
2153 1396 mt 2153  499 L
2153 1330 mt 2161 1330 L
2884 1330 mt 2875 1330 L
2052 1374 mt 
(0) s
2153 1106 mt 2161 1106 L
2884 1106 mt 2875 1106 L
1918 1150 mt 
(200) s
2153  882 mt 2161  882 L
2884  882 mt 2875  882 L
1918  926 mt 
(400) s
2153  659 mt 2161  659 L
2884  659 mt 2875  659 L
1918  703 mt 
(600) s
2153  499 mt 2884  499 L
2153 1396 mt 2884 1396 L
2884 1396 mt 2884  499 L
2153 1396 mt 2153  499 L
gs 2153 499 732 898 rc
DA
2262 1354 PD
2335 1338 PD
2408 1335 PD
2481 1333 PD
2555 1325 PD
0 -10 2628 1294 2 MP stroke
0 -38 2701 985 2 MP stroke
2774 539 PD
2847 541 PD
0 -1 2262 1355 2 MP stroke
2335 1338 PD
2408 1335 PD
2481 1333 PD
2555 1325 PD
0 -1 2628 1322 2 MP stroke
0 -7 2701 1158 2 MP stroke
0 -19 2774 701 2 MP stroke
2847 541 PD
SO
18 0 2253 1354 2 MP stroke
18 0 2326 1338 2 MP stroke
18 0 2399 1335 2 MP stroke
19 0 2472 1333 2 MP stroke
19 0 2545 1325 2 MP stroke
18 0 2619 1284 2 MP stroke
18 0 2692 947 2 MP stroke
18 0 2765 539 2 MP stroke
18 0 2838 541 2 MP stroke
18 0 2253 1355 2 MP stroke
18 0 2326 1338 2 MP stroke
18 0 2399 1335 2 MP stroke
19 0 2472 1333 2 MP stroke
19 0 2545 1325 2 MP stroke
18 0 2619 1322 2 MP stroke
18 0 2692 1158 2 MP stroke
18 0 2765 701 2 MP stroke
18 0 2838 541 2 MP stroke
c8
-36 0 36 0 2244 1354 3 MP stroke
-37 0 37 0 2317 1338 3 MP stroke
-37 0 37 0 2390 1335 3 MP stroke
-37 0 37 0 2463 1333 3 MP stroke
-37 0 37 0 2536 1325 3 MP stroke
-37 0 0 27 37 0 0 -27 2609 1321 5 MP stroke
-37 0 0 166 37 0 0 -166 2682 1151 5 MP stroke
-36 0 0 143 36 0 0 -143 2756 682 5 MP stroke
-36 0 36 0 2829 541 3 MP stroke
c9
36 0 2244 1354 2 MP stroke
37 0 2317 1338 2 MP stroke
37 0 2390 1335 2 MP stroke
37 0 2463 1333 2 MP stroke
37 0 2536 1325 2 MP stroke
37 0 2609 1321 2 MP stroke
37 0 2682 1148 2 MP stroke
36 0 2756 661 2 MP stroke
36 0 2829 541 2 MP stroke
gs 2468 1320 27 27 rc
2475 1333 mt 2487 1333 L
2481 1327 mt 2481 1339 L
gr

gs 2542 1312 27 27 rc
2549 1325 mt 2561 1325 L
2555 1319 mt 2555 1331 L
gr

gs 2615 1180 27 27 rc
2622 1193 mt 2634 1193 L
2628 1187 mt 2628 1199 L
gr

gs 2688 700 27 27 rc
2695  713 mt 2707  713 L
2701  707 mt 2701  719 L
gr

gs 2834 528 27 27 rc
2841  541 mt 2853  541 L
2847  535 mt 2847  547 L
gr

gr

c9
0 sg
2157 1532 mt 
(1) s
2230 1532 mt 
(2) s
2303 1532 mt 
(3) s
2376 1532 mt 
(4) s
2449 1532 mt 
(5) s
2522 1532 mt 
(6) s
2595 1532 mt 
(7) s
2669 1532 mt 
(8) s
2742 1532 mt 
(9) s
2781 1532 mt 
(10) s
2318  404 mt 
(P1:2\(F\)) s
1 sg
0 897 678 0 0 -897 3332 1396 4 MP
PP
-678 0 0 897 678 0 0 -897 3332 1396 5 MP stroke
4 w
DO
SO
6 w
0 sg
3332  499 mt 4010  499 L
3332 1396 mt 4010 1396 L
4010 1396 mt 4010  499 L
3332 1396 mt 3332  499 L
3332 1396 mt 4010 1396 L
3332 1396 mt 3332  499 L
3332 1320 mt 3340 1320 L
4010 1320 mt 4001 1320 L
3027 1364 mt 
(-100) s
3332 1140 mt 3340 1140 L
4010 1140 mt 4001 1140 L
3231 1184 mt 
(0) s
3332  959 mt 3340  959 L
4010  959 mt 4001  959 L
3097 1003 mt 
(100) s
3332  778 mt 3340  778 L
4010  778 mt 4001  778 L
3097  822 mt 
(200) s
3332  597 mt 3340  597 L
4010  597 mt 4001  597 L
3097  641 mt 
(300) s
3332  499 mt 4010  499 L
3332 1396 mt 4010 1396 L
4010 1396 mt 4010  499 L
3332 1396 mt 3332  499 L
gs 3332 499 679 898 rc
DA
0 -1 3365 1354 2 MP stroke
3433 1269 PD
3501 1206 PD
3569 1166 PD
3637 1147 PD
3704 1136 PD
0 -2 3772 1120 2 MP stroke
0 -3 3840 1030 2 MP stroke
0 -7 3908 830 2 MP stroke
0 -12 3976 555 2 MP stroke
0 -1 3365 1355 2 MP stroke
3433 1269 PD
3501 1206 PD
3569 1166 PD
3637 1147 PD
3704 1136 PD
0 -2 3772 1125 2 MP stroke
3840 1061 PD
0 -18 3908 906 2 MP stroke
0 -6 3976 642 2 MP stroke
SO
17 0 3357 1353 2 MP stroke
17 0 3425 1269 2 MP stroke
16 0 3493 1206 2 MP stroke
17 0 3560 1166 2 MP stroke
17 0 3628 1147 2 MP stroke
17 0 3696 1136 2 MP stroke
17 0 3764 1118 2 MP stroke
16 0 3832 1027 2 MP stroke
17 0 3899 823 2 MP stroke
17 0 3967 543 2 MP stroke
17 0 3357 1355 2 MP stroke
17 0 3425 1269 2 MP stroke
16 0 3493 1206 2 MP stroke
17 0 3560 1166 2 MP stroke
17 0 3628 1147 2 MP stroke
17 0 3696 1136 2 MP stroke
17 0 3764 1125 2 MP stroke
16 0 3832 1061 2 MP stroke
17 0 3899 906 2 MP stroke
17 0 3967 642 2 MP stroke
c8
-34 0 34 0 3348 1354 3 MP stroke
-34 0 34 0 3416 1269 3 MP stroke
-34 0 34 0 3484 1206 3 MP stroke
-34 0 34 0 3552 1166 3 MP stroke
-34 0 34 0 3620 1147 3 MP stroke
-34 0 34 0 3687 1136 3 MP stroke
-34 0 0 3 34 0 0 -3 3755 1123 5 MP stroke
-34 0 0 31 34 0 0 -31 3823 1061 5 MP stroke
-34 0 0 58 34 0 0 -58 3891 888 5 MP stroke
-34 0 0 81 34 0 0 -81 3959 636 5 MP stroke
c9
34 0 3348 1354 2 MP stroke
34 0 3416 1269 2 MP stroke
34 0 3484 1206 2 MP stroke
34 0 3552 1166 2 MP stroke
34 0 3620 1147 2 MP stroke
34 0 3687 1136 2 MP stroke
34 0 3755 1121 2 MP stroke
34 0 3823 1031 2 MP stroke
34 0 3891 835 2 MP stroke
34 0 3959 562 2 MP stroke
gs 3352 1336 27 28 rc
3359 1350 mt 3371 1350 L
3365 1344 mt 3365 1356 L
3359 1349 mt 3371 1349 L
3365 1343 mt 3365 1355 L
gr

gs 3420 1259 27 27 rc
3427 1272 mt 3439 1272 L
3433 1266 mt 3433 1278 L
gr

gs 3488 1194 27 27 rc
3495 1207 mt 3507 1207 L
3501 1201 mt 3501 1213 L
gr

gs 3556 1153 27 27 rc
3563 1166 mt 3575 1166 L
3569 1160 mt 3569 1172 L
gr

gr

c9
0 sg
3333 1532 mt 
(1) s
3401 1532 mt 
(2) s
3469 1532 mt 
(3) s
3537 1532 mt 
(4) s
3604 1532 mt 
(5) s
3672 1532 mt 
(6) s
3740 1532 mt 
(7) s
3808 1532 mt 
(8) s
3876 1532 mt 
(9) s
3910 1532 mt 
(10) s
3467  404 mt 
(P1:3\(S\)) s
1 sg
0 897 679 0 0 -897 4458 1396 4 MP
PP
-679 0 0 897 679 0 0 -897 4458 1396 5 MP stroke
4 w
DO
SO
6 w
0 sg
4458  499 mt 5137  499 L
4458 1396 mt 5137 1396 L
5137 1396 mt 5137  499 L
4458 1396 mt 4458  499 L
4458 1396 mt 5137 1396 L
4458 1396 mt 4458  499 L
4458 1212 mt 4466 1212 L
5137 1212 mt 5128 1212 L
4153 1256 mt 
(-100) s
4458  885 mt 4466  885 L
5137  885 mt 5128  885 L
4357  929 mt 
(0) s
4458  558 mt 4466  558 L
5137  558 mt 5128  558 L
4223  602 mt 
(100) s
4458  499 mt 5137  499 L
4458 1396 mt 5137 1396 L
5137 1396 mt 5137  499 L
4458 1396 mt 4458  499 L
gs 4458 499 680 898 rc
DA
4559 1341 PD
0 -1 4627 1132 2 MP stroke
4695 987 PD
0 -1 4763 910 2 MP stroke
4831 887 PD
4899 875 PD
0 -1 4967 864 2 MP stroke
0 -6 5035 814 2 MP stroke
0 -9 5103 620 2 MP stroke
0 -6 4559 1355 2 MP stroke
4627 1135 PD
0 -1 4695 989 2 MP stroke
4763 910 PD
4831 887 PD
4899 875 PD
0 -1 4967 866 2 MP stroke
0 -1 5035 819 2 MP stroke
0 -3 5103 629 2 MP stroke
SO
17 0 4551 1341 2 MP stroke
17 0 4619 1131 2 MP stroke
17 0 4687 987 2 MP stroke
17 0 4755 909 2 MP stroke
17 0 4822 887 2 MP stroke
17 0 4890 875 2 MP stroke
17 0 4958 863 2 MP stroke
17 0 5026 808 2 MP stroke
17 0 5094 611 2 MP stroke
17 0 4551 1355 2 MP stroke
17 0 4619 1135 2 MP stroke
17 0 4687 989 2 MP stroke
17 0 4755 910 2 MP stroke
17 0 4822 887 2 MP stroke
17 0 4890 875 2 MP stroke
17 0 4958 866 2 MP stroke
17 0 5026 819 2 MP stroke
17 0 5094 629 2 MP stroke
c8
-34 0 0 8 34 0 0 -8 4542 1349 5 MP stroke
-34 0 0 3 34 0 0 -3 4610 1135 5 MP stroke
-34 0 0 1 34 0 0 -1 4678 988 5 MP stroke
-34 0 34 0 4746 910 3 MP stroke
-34 0 34 0 4814 887 3 MP stroke
-34 0 34 0 4882 875 3 MP stroke
-34 0 0 1 34 0 0 -1 4950 865 5 MP stroke
-34 0 0 4 34 0 0 -4 5018 818 5 MP stroke
-34 0 0 6 34 0 0 -6 5086 626 5 MP stroke
c9
34 0 4542 1342 2 MP stroke
34 0 4610 1134 2 MP stroke
34 0 4678 987 2 MP stroke
34 0 4746 910 2 MP stroke
34 0 4814 887 2 MP stroke
34 0 4882 875 2 MP stroke
34 0 4950 864 2 MP stroke
34 0 5018 815 2 MP stroke
34 0 5086 623 2 MP stroke
gs 4750 896 27 28 rc
4757  910 mt 4769  910 L
4763  904 mt 4763  916 L
4757  909 mt 4769  909 L
4763  903 mt 4763  915 L
gr

gs 4886 862 27 27 rc
4893  875 mt 4905  875 L
4899  869 mt 4899  881 L
gr

gs 5022 768 27 38 rc
5029  792 mt 5041  792 L
5035  786 mt 5035  798 L
5029  788 mt 5041  788 L
5035  782 mt 5035  794 L
5029  787 mt 5041  787 L
5035  781 mt 5035  793 L
5029  781 mt 5041  781 L
5035  775 mt 5035  787 L
gr

gs 5090 526 27 56 rc
5097  568 mt 5109  568 L
5103  562 mt 5103  574 L
5097  567 mt 5109  567 L
5103  561 mt 5103  573 L
5097  562 mt 5109  562 L
5103  556 mt 5103  568 L
5097  539 mt 5109  539 L
5103  533 mt 5103  545 L
gr

gr

c9
0 sg
4459 1532 mt 
(1) s
4527 1532 mt 
(2) s
4595 1532 mt 
(3) s
4663 1532 mt 
(4) s
4730 1532 mt 
(5) s
4798 1532 mt 
(6) s
4866 1532 mt 
(7) s
4934 1532 mt 
(8) s
5002 1532 mt 
(9) s
5036 1532 mt 
(10) s
4594  404 mt 
(P1:4\(S\)) s
1 sg
0 897 668 0 0 -897 5584 1396 4 MP
PP
-668 0 0 897 668 0 0 -897 5584 1396 5 MP stroke
4 w
DO
SO
6 w
0 sg
5584  499 mt 6252  499 L
5584 1396 mt 6252 1396 L
6252 1396 mt 6252  499 L
5584 1396 mt 5584  499 L
5584 1396 mt 6252 1396 L
5584 1396 mt 5584  499 L
5584 1356 mt 5592 1356 L
6252 1356 mt 6243 1356 L
5279 1400 mt 
(-200) s
5584 1122 mt 5592 1122 L
6252 1122 mt 6243 1122 L
5279 1166 mt 
(-100) s
5584  888 mt 5592  888 L
6252  888 mt 6243  888 L
5483  932 mt 
(0) s
5584  654 mt 5592  654 L
6252  654 mt 6243  654 L
5349  698 mt 
(100) s
5584  499 mt 6252  499 L
5584 1396 mt 6252 1396 L
6252 1396 mt 6252  499 L
5584 1396 mt 5584  499 L
gs 5584 499 669 898 rc
DA
0 -5 5684 1351 2 MP stroke
0 -1 5751 1165 2 MP stroke
5817 1036 PD
0 -1 5884 951 2 MP stroke
5951 904 PD
6018 888 PD
6085 875 PD
0 -18 6151 819 2 MP stroke
0 -39 6218 578 2 MP stroke
0 -1 5684 1355 2 MP stroke
5751 1165 PD
0 -1 5817 1037 2 MP stroke
5884 952 PD
5951 904 PD
0 -1 6018 889 2 MP stroke
6085 876 PD
0 -3 6151 868 2 MP stroke
0 -3 6218 727 2 MP stroke
SO
17 0 5675 1346 2 MP stroke
17 0 5742 1164 2 MP stroke
17 0 5809 1036 2 MP stroke
16 0 5876 950 2 MP stroke
16 0 5943 904 2 MP stroke
17 0 6009 888 2 MP stroke
17 0 6076 875 2 MP stroke
17 0 6143 801 2 MP stroke
16 0 6210 539 2 MP stroke
17 0 5675 1355 2 MP stroke
17 0 5742 1165 2 MP stroke
17 0 5809 1037 2 MP stroke
16 0 5876 952 2 MP stroke
16 0 5943 904 2 MP stroke
17 0 6009 889 2 MP stroke
17 0 6076 876 2 MP stroke
17 0 6143 868 2 MP stroke
16 0 6210 727 2 MP stroke
c8
-33 0 0 3 33 0 0 -3 5667 1354 5 MP stroke
-33 0 33 0 5734 1165 3 MP stroke
-33 0 33 0 5801 1036 3 MP stroke
-34 0 0 1 34 0 0 -1 5867 952 5 MP stroke
-34 0 34 0 5934 904 3 MP stroke
-33 0 33 0 6001 888 3 MP stroke
-33 0 0 1 33 0 0 -1 6068 876 5 MP stroke
-33 0 0 46 33 0 0 -46 6135 865 5 MP stroke
-34 0 0 146 34 0 0 -146 6201 724 5 MP stroke
c9
33 0 5667 1353 2 MP stroke
33 0 5734 1165 2 MP stroke
33 0 5801 1036 2 MP stroke
34 0 5867 952 2 MP stroke
34 0 5934 904 2 MP stroke
33 0 6001 888 2 MP stroke
33 0 6068 875 2 MP stroke
33 0 6135 865 2 MP stroke
34 0 6201 721 2 MP stroke
gs 5671 1329 27 31 rc
5678 1346 mt 5690 1346 L
5684 1340 mt 5684 1352 L
5678 1345 mt 5690 1345 L
5684 1339 mt 5684 1351 L
5678 1343 mt 5690 1343 L
5684 1337 mt 5684 1349 L
5678 1342 mt 5690 1342 L
5684 1336 mt 5684 1348 L
gr

gs 5738 1154 27 33 rc
5745 1173 mt 5757 1173 L
5751 1167 mt 5751 1179 L
5745 1169 mt 5757 1169 L
5751 1163 mt 5751 1175 L
5745 1168 mt 5757 1168 L
5751 1162 mt 5751 1174 L
5745 1167 mt 5757 1167 L
5751 1161 mt 5751 1173 L
gr

gs 5804 1022 27 29 rc
5811 1037 mt 5823 1037 L
5817 1031 mt 5817 1043 L
5811 1035 mt 5823 1035 L
5817 1029 mt 5817 1041 L
gr

gr

c9
0 sg
5584 1532 mt 
(1) s
5651 1532 mt 
(2) s
5718 1532 mt 
(3) s
5785 1532 mt 
(4) s
5851 1532 mt 
(5) s
5918 1532 mt 
(6) s
5985 1532 mt 
(7) s
6052 1532 mt 
(8) s
6118 1532 mt 
(9) s
6151 1532 mt 
(10) s
5714  404 mt 
(P1:5\(S\)) s
1 sg
0 843 820 0 0 -843 938 2955 4 MP
PP
-820 0 0 843 820 0 0 -843 938 2955 5 MP stroke
4 w
DO
SO
6 w
0 sg
 938 2112 mt 1758 2112 L
 938 2955 mt 1758 2955 L
1758 2955 mt 1758 2112 L
 938 2955 mt  938 2112 L
 938 2955 mt 1758 2955 L
 938 2955 mt  938 2112 L
 938 2822 mt  946 2822 L
1758 2822 mt 1749 2822 L
 837 2866 mt 
(0) s
 938 2643 mt  946 2643 L
1758 2643 mt 1749 2643 L
 837 2687 mt 
(5) s
 938 2465 mt  946 2465 L
1758 2465 mt 1749 2465 L
 770 2509 mt 
(10) s
 938 2287 mt  946 2287 L
1758 2287 mt 1749 2287 L
 770 2331 mt 
(15) s
 938 2112 mt 1758 2112 L
 938 2955 mt 1758 2955 L
1758 2955 mt 1758 2112 L
 938 2955 mt  938 2112 L
gs 938 2112 821 844 rc
DA
0 -1 1061 2912 2 MP stroke
0 -3 1143 2838 2 MP stroke
0 -7 1225 2817 2 MP stroke
0 -6 1307 2773 2 MP stroke
0 -11 1389 2729 2 MP stroke
0 -27 1471 2690 2 MP stroke
0 -25 1553 2681 2 MP stroke
0 -25 1635 2610 2 MP stroke
0 -118 1717 2268 2 MP stroke
0 -2 1061 2916 2 MP stroke
0 -3 1143 2845 2 MP stroke
0 -4 1225 2828 2 MP stroke
0 -9 1307 2791 2 MP stroke
0 -13 1389 2754 2 MP stroke
0 -13 1471 2722 2 MP stroke
0 -10 1553 2707 2 MP stroke
0 -20 1635 2658 2 MP stroke
0 -49 1717 2561 2 MP stroke
SO
21 0 1050 2911 2 MP stroke
21 0 1132 2835 2 MP stroke
21 0 1214 2810 2 MP stroke
21 0 1296 2767 2 MP stroke
21 0 1378 2718 2 MP stroke
21 0 1460 2663 2 MP stroke
21 0 1542 2656 2 MP stroke
21 0 1624 2585 2 MP stroke
21 0 1706 2150 2 MP stroke
21 0 1050 2916 2 MP stroke
21 0 1132 2845 2 MP stroke
21 0 1214 2828 2 MP stroke
21 0 1296 2791 2 MP stroke
21 0 1378 2754 2 MP stroke
21 0 1460 2722 2 MP stroke
21 0 1542 2707 2 MP stroke
21 0 1624 2658 2 MP stroke
21 0 1706 2561 2 MP stroke
c8
-41 0 0 2 41 0 0 -2 1040 2914 5 MP stroke
-41 0 0 4 41 0 0 -4 1122 2842 5 MP stroke
-41 0 0 7 41 0 0 -7 1204 2824 5 MP stroke
-41 0 0 9 41 0 0 -9 1286 2782 5 MP stroke
-41 0 0 12 41 0 0 -12 1368 2741 5 MP stroke
-41 0 0 19 41 0 0 -19 1450 2709 5 MP stroke
-41 0 0 16 41 0 0 -16 1532 2697 5 MP stroke
-41 0 0 28 41 0 0 -28 1614 2638 5 MP stroke
-41 0 0 244 41 0 0 -244 1696 2512 5 MP stroke
c9
41 0 1040 2913 2 MP stroke
41 0 1122 2839 2 MP stroke
41 0 1204 2821 2 MP stroke
41 0 1286 2777 2 MP stroke
41 0 1368 2734 2 MP stroke
41 0 1450 2699 2 MP stroke
41 0 1532 2690 2 MP stroke
41 0 1614 2630 2 MP stroke
41 0 1696 2511 2 MP stroke
gs 1130 2834 27 27 rc
1137 2847 mt 1149 2847 L
1143 2841 mt 1143 2853 L
gr

gs 1376 2677 27 49 rc
1383 2712 mt 1395 2712 L
1389 2706 mt 1389 2718 L
1383 2690 mt 1395 2690 L
1389 2684 mt 1389 2696 L
gr

gs 1458 2646 27 27 rc
1465 2659 mt 1477 2659 L
1471 2653 mt 1471 2665 L
gr

gs 1540 2620 27 27 rc
1547 2633 mt 1559 2633 L
1553 2627 mt 1553 2639 L
gr

gr

c9
0 sg
 946 3091 mt 
(1) s
1028 3091 mt 
(2) s
1110 3091 mt 
(3) s
1192 3091 mt 
(4) s
1274 3091 mt 
(5) s
1355 3091 mt 
(6) s
1437 3091 mt 
(7) s
1519 3091 mt 
(8) s
1601 3091 mt 
(9) s
1649 3091 mt 
(10) s
1147 2017 mt 
(P1:6\(F\)) s
1 sg
0 843 728 0 0 -843 2156 2955 4 MP
PP
-728 0 0 843 728 0 0 -843 2156 2955 5 MP stroke
4 w
DO
SO
6 w
0 sg
2156 2112 mt 2884 2112 L
2156 2955 mt 2884 2955 L
2884 2955 mt 2884 2112 L
2156 2955 mt 2156 2112 L
2156 2955 mt 2884 2955 L
2156 2955 mt 2156 2112 L
2156 2829 mt 2164 2829 L
2884 2829 mt 2875 2829 L
1918 2873 mt 
(-50) s
2156 2602 mt 2164 2602 L
2884 2602 mt 2875 2602 L
2055 2646 mt 
(0) s
2156 2375 mt 2164 2375 L
2884 2375 mt 2875 2375 L
1988 2419 mt 
(50) s
2156 2147 mt 2164 2147 L
2884 2147 mt 2875 2147 L
1921 2191 mt 
(100) s
2156 2112 mt 2884 2112 L
2156 2955 mt 2884 2955 L
2884 2955 mt 2884 2112 L
2156 2955 mt 2156 2112 L
gs 2156 2112 729 844 rc
DA
2265 2914 PD
2338 2717 PD
2410 2631 PD
2483 2622 PD
0 -1 2556 2605 2 MP stroke
2629 2593 PD
0 -2 2702 2579 2 MP stroke
0 -8 2774 2557 2 MP stroke
0 -60 2847 2210 2 MP stroke
0 -1 2265 2916 2 MP stroke
2338 2718 PD
2410 2631 PD
2483 2622 PD
2556 2605 PD
0 -1 2629 2594 2 MP stroke
0 -2 2702 2582 2 MP stroke
0 -3 2774 2567 2 MP stroke
0 -8 2847 2359 2 MP stroke
SO
18 0 2256 2914 2 MP stroke
19 0 2328 2717 2 MP stroke
18 0 2401 2631 2 MP stroke
18 0 2474 2622 2 MP stroke
18 0 2547 2604 2 MP stroke
18 0 2620 2593 2 MP stroke
19 0 2692 2577 2 MP stroke
18 0 2765 2549 2 MP stroke
18 0 2838 2150 2 MP stroke
18 0 2256 2916 2 MP stroke
19 0 2328 2718 2 MP stroke
18 0 2401 2631 2 MP stroke
18 0 2474 2622 2 MP stroke
18 0 2547 2605 2 MP stroke
18 0 2620 2594 2 MP stroke
19 0 2692 2582 2 MP stroke
18 0 2765 2567 2 MP stroke
18 0 2838 2359 2 MP stroke
c8
-36 0 0 1 36 0 0 -1 2247 2915 5 MP stroke
-37 0 0 1 37 0 0 -1 2319 2718 5 MP stroke
-37 0 37 0 2392 2631 3 MP stroke
-36 0 36 0 2465 2622 3 MP stroke
-36 0 36 0 2538 2605 3 MP stroke
-36 0 36 0 2611 2593 3 MP stroke
-37 0 0 1 37 0 0 -1 2683 2580 5 MP stroke
-37 0 0 7 37 0 0 -7 2756 2564 5 MP stroke
-36 0 0 141 36 0 0 -141 2829 2351 5 MP stroke
c9
36 0 2247 2915 2 MP stroke
37 0 2319 2717 2 MP stroke
37 0 2392 2631 2 MP stroke
36 0 2465 2622 2 MP stroke
36 0 2538 2605 2 MP stroke
36 0 2611 2593 2 MP stroke
37 0 2683 2579 2 MP stroke
37 0 2756 2563 2 MP stroke
36 0 2829 2349 2 MP stroke
gs 2252 2894 27 30 rc
2259 2910 mt 2271 2910 L
2265 2904 mt 2265 2916 L
2259 2907 mt 2271 2907 L
2265 2901 mt 2265 2913 L
gr

gs 2325 2703 27 27 rc
2332 2716 mt 2344 2716 L
2338 2710 mt 2338 2722 L
gr

gs 2543 2591 27 28 rc
2550 2605 mt 2562 2605 L
2556 2599 mt 2556 2611 L
2550 2604 mt 2562 2604 L
2556 2598 mt 2556 2610 L
gr

gr

c9
0 sg
2159 3091 mt 
(1) s
2232 3091 mt 
(2) s
2305 3091 mt 
(3) s
2378 3091 mt 
(4) s
2451 3091 mt 
(5) s
2524 3091 mt 
(6) s
2596 3091 mt 
(7) s
2669 3091 mt 
(8) s
2742 3091 mt 
(9) s
2781 3091 mt 
(10) s
2319 2017 mt 
(P1:7\(F\)) s
1 sg
0 843 753 0 0 -843 3258 2955 4 MP
PP
-753 0 0 843 753 0 0 -843 3258 2955 5 MP stroke
4 w
DO
SO
6 w
0 sg
3258 2112 mt 4011 2112 L
3258 2955 mt 4011 2955 L
4011 2955 mt 4011 2112 L
3258 2955 mt 3258 2112 L
3258 2955 mt 4011 2955 L
3258 2955 mt 3258 2112 L
3258 2869 mt 3266 2869 L
4011 2869 mt 4002 2869 L
3087 2913 mt 
(-2) s
3258 2701 mt 3266 2701 L
4011 2701 mt 4002 2701 L
3157 2745 mt 
(0) s
3258 2533 mt 3266 2533 L
4011 2533 mt 4002 2533 L
3157 2577 mt 
(2) s
3258 2365 mt 3266 2365 L
4011 2365 mt 4002 2365 L
3157 2409 mt 
(4) s
3258 2198 mt 3266 2198 L
4011 2198 mt 4002 2198 L
3157 2242 mt 
(6) s
3258 2112 mt 4011 2112 L
3258 2955 mt 4011 2955 L
4011 2955 mt 4011 2112 L
3258 2955 mt 3258 2112 L
gs 3258 2112 754 844 rc
DA
0 -2 3370 2909 2 MP stroke
0 -1 3446 2781 2 MP stroke
0 -6 3521 2688 2 MP stroke
0 -13 3596 2610 2 MP stroke
0 -11 3672 2554 2 MP stroke
0 -9 3747 2491 2 MP stroke
0 -28 3822 2405 2 MP stroke
0 -24 3898 2355 2 MP stroke
0 -40 3973 2201 2 MP stroke
0 -3 3370 2916 2 MP stroke
0 -3 3446 2789 2 MP stroke
0 -9 3521 2704 2 MP stroke
0 -6 3596 2627 2 MP stroke
0 -18 3672 2588 2 MP stroke
0 -15 3747 2519 2 MP stroke
0 -18 3822 2447 2 MP stroke
0 -19 3898 2404 2 MP stroke
0 -32 3973 2266 2 MP stroke
SO
19 0 3361 2907 2 MP stroke
19 0 3436 2780 2 MP stroke
18 0 3512 2682 2 MP stroke
19 0 3587 2597 2 MP stroke
19 0 3662 2543 2 MP stroke
18 0 3738 2482 2 MP stroke
19 0 3813 2377 2 MP stroke
19 0 3888 2331 2 MP stroke
19 0 3963 2161 2 MP stroke
19 0 3361 2916 2 MP stroke
19 0 3436 2789 2 MP stroke
18 0 3512 2704 2 MP stroke
19 0 3587 2627 2 MP stroke
19 0 3662 2588 2 MP stroke
18 0 3738 2519 2 MP stroke
19 0 3813 2447 2 MP stroke
19 0 3888 2404 2 MP stroke
19 0 3963 2266 2 MP stroke
c8
-37 0 0 4 37 0 0 -4 3352 2913 5 MP stroke
-38 0 0 5 38 0 0 -5 3427 2786 5 MP stroke
-38 0 0 7 38 0 0 -7 3502 2695 5 MP stroke
-37 0 0 11 37 0 0 -11 3578 2621 5 MP stroke
-37 0 0 16 37 0 0 -16 3653 2570 5 MP stroke
-38 0 0 13 38 0 0 -13 3728 2504 5 MP stroke
-38 0 0 24 38 0 0 -24 3803 2429 5 MP stroke
-37 0 0 30 37 0 0 -30 3879 2385 5 MP stroke
-38 0 0 33 38 0 0 -33 3954 2234 5 MP stroke
c9
37 0 3352 2910 2 MP stroke
38 0 3427 2784 2 MP stroke
38 0 3502 2693 2 MP stroke
37 0 3578 2616 2 MP stroke
37 0 3653 2563 2 MP stroke
38 0 3728 2499 2 MP stroke
38 0 3803 2416 2 MP stroke
37 0 3879 2376 2 MP stroke
38 0 3954 2217 2 MP stroke
gs 3734 2454 27 88 rc
3741 2528 mt 3753 2528 L
3747 2522 mt 3747 2534 L
3741 2467 mt 3753 2467 L
3747 2461 mt 3747 2473 L
gr

gs 3809 2354 27 27 rc
3816 2367 mt 3828 2367 L
3822 2361 mt 3822 2373 L
gr

gs 3960 2137 27 27 rc
3967 2150 mt 3979 2150 L
3973 2144 mt 3973 2156 L
gr

gr

c9
0 sg
3263 3091 mt 
(1) s
3338 3091 mt 
(2) s
3413 3091 mt 
(3) s
3488 3091 mt 
(4) s
3564 3091 mt 
(5) s
3639 3091 mt 
(6) s
3714 3091 mt 
(7) s
3789 3091 mt 
(8) s
3865 3091 mt 
(9) s
3906 3091 mt 
(10) s
3434 2017 mt 
(P1:8\(F\)) s
1 sg
0 843 679 0 0 -843 4458 2955 4 MP
PP
-679 0 0 843 679 0 0 -843 4458 2955 5 MP stroke
4 w
DO
SO
6 w
0 sg
4458 2112 mt 5137 2112 L
4458 2955 mt 5137 2955 L
5137 2955 mt 5137 2112 L
4458 2955 mt 4458 2112 L
4458 2955 mt 5137 2955 L
4458 2955 mt 4458 2112 L
4458 2889 mt 4466 2889 L
5137 2889 mt 5128 2889 L
4153 2933 mt 
(-150) s
4458 2656 mt 4466 2656 L
5137 2656 mt 5128 2656 L
4153 2700 mt 
(-100) s
4458 2423 mt 4466 2423 L
5137 2423 mt 5128 2423 L
4220 2467 mt 
(-50) s
4458 2190 mt 4466 2190 L
5137 2190 mt 5128 2190 L
4357 2234 mt 
(0) s
4458 2112 mt 5137 2112 L
4458 2955 mt 5137 2955 L
5137 2955 mt 5137 2112 L
4458 2955 mt 4458 2112 L
gs 4458 2112 680 844 rc
DA
0 -2 4559 2910 2 MP stroke
0 -2 4627 2579 2 MP stroke
4695 2356 PD
0 -1 4763 2237 2 MP stroke
4831 2207 PD
0 -1 4899 2195 2 MP stroke
4967 2179 PD
0 -2 5035 2163 2 MP stroke
0 -7 5103 2159 2 MP stroke
0 -2 4559 2916 2 MP stroke
0 -4 4627 2590 2 MP stroke
0 -1 4695 2360 2 MP stroke
4763 2237 PD
4831 2207 PD
4899 2195 PD
4967 2179 PD
0 -2 5035 2166 2 MP stroke
0 -1 5103 2165 2 MP stroke
SO
17 0 4551 2908 2 MP stroke
17 0 4619 2577 2 MP stroke
17 0 4687 2356 2 MP stroke
17 0 4755 2236 2 MP stroke
17 0 4822 2207 2 MP stroke
17 0 4890 2194 2 MP stroke
17 0 4958 2179 2 MP stroke
17 0 5026 2161 2 MP stroke
17 0 5094 2152 2 MP stroke
17 0 4551 2916 2 MP stroke
17 0 4619 2590 2 MP stroke
17 0 4687 2360 2 MP stroke
17 0 4755 2237 2 MP stroke
17 0 4822 2207 2 MP stroke
17 0 4890 2195 2 MP stroke
17 0 4958 2179 2 MP stroke
17 0 5026 2166 2 MP stroke
17 0 5094 2165 2 MP stroke
c8
-34 0 0 4 34 0 0 -4 4542 2914 5 MP stroke
-34 0 0 7 34 0 0 -7 4610 2586 5 MP stroke
-34 0 0 3 34 0 0 -3 4678 2359 5 MP stroke
-34 0 34 0 4746 2237 3 MP stroke
-34 0 34 0 4814 2207 3 MP stroke
-34 0 34 0 4882 2195 3 MP stroke
-34 0 34 0 4950 2179 3 MP stroke
-34 0 0 1 34 0 0 -1 5018 2164 5 MP stroke
-34 0 0 5 34 0 0 -5 5086 2164 5 MP stroke
c9
34 0 4542 2913 2 MP stroke
34 0 4610 2581 2 MP stroke
34 0 4678 2357 2 MP stroke
34 0 4746 2237 2 MP stroke
34 0 4814 2207 2 MP stroke
34 0 4882 2195 2 MP stroke
34 0 4950 2179 2 MP stroke
34 0 5018 2164 2 MP stroke
34 0 5086 2162 2 MP stroke
gs 4818 2194 27 27 rc
4825 2207 mt 4837 2207 L
4831 2201 mt 4831 2213 L
gr

gs 4954 2165 27 29 rc
4961 2180 mt 4973 2180 L
4967 2174 mt 4967 2186 L
4961 2178 mt 4973 2178 L
4967 2172 mt 4967 2184 L
gr

gs 5090 2137 27 27 rc
5097 2150 mt 5109 2150 L
5103 2144 mt 5103 2156 L
gr

gr

c9
0 sg
4459 3091 mt 
(1) s
4527 3091 mt 
(2) s
4595 3091 mt 
(3) s
4663 3091 mt 
(4) s
4730 3091 mt 
(5) s
4798 3091 mt 
(6) s
4866 3091 mt 
(7) s
4934 3091 mt 
(8) s
5002 3091 mt 
(9) s
5036 3091 mt 
(10) s
4597 2017 mt 
(P1:9\(F\)) s
1 sg
0 843 722 0 0 -843 5532 2955 4 MP
PP
-722 0 0 843 722 0 0 -843 5532 2955 5 MP stroke
4 w
DO
SO
6 w
0 sg
5532 2112 mt 6254 2112 L
5532 2955 mt 6254 2955 L
6254 2955 mt 6254 2112 L
5532 2955 mt 5532 2112 L
5532 2955 mt 6254 2955 L
5532 2955 mt 5532 2112 L
5532 2853 mt 5540 2853 L
6254 2853 mt 6245 2853 L
5431 2897 mt 
(0) s
5532 2654 mt 5540 2654 L
6254 2654 mt 6245 2654 L
5297 2698 mt 
(200) s
5532 2455 mt 5540 2455 L
6254 2455 mt 6245 2455 L
5297 2499 mt 
(400) s
5532 2256 mt 5540 2256 L
6254 2256 mt 6245 2256 L
5297 2300 mt 
(600) s
5532 2112 mt 6254 2112 L
5532 2955 mt 6254 2955 L
6254 2955 mt 6254 2112 L
5532 2955 mt 5532 2112 L
gs 5532 2112 723 844 rc
DA
0 -1 5640 2914 2 MP stroke
5712 2885 PD
5784 2867 PD
5856 2860 PD
5929 2857 PD
6001 2849 PD
0 -8 6073 2834 2 MP stroke
0 -102 6145 2638 2 MP stroke
6217 2150 PD
5640 2916 PD
5712 2886 PD
5784 2868 PD
5856 2860 PD
5929 2857 PD
6001 2849 PD
0 -1 6073 2845 2 MP stroke
0 -15 6145 2778 2 MP stroke
0 -11 6217 2386 2 MP stroke
SO
18 0 5631 2913 2 MP stroke
18 0 5703 2885 2 MP stroke
18 0 5775 2867 2 MP stroke
18 0 5847 2860 2 MP stroke
18 0 5920 2857 2 MP stroke
18 0 5992 2849 2 MP stroke
18 0 6064 2826 2 MP stroke
18 0 6136 2536 2 MP stroke
18 0 6208 2150 2 MP stroke
18 0 5631 2916 2 MP stroke
18 0 5703 2886 2 MP stroke
18 0 5775 2868 2 MP stroke
18 0 5847 2860 2 MP stroke
18 0 5920 2857 2 MP stroke
18 0 5992 2849 2 MP stroke
18 0 6064 2845 2 MP stroke
18 0 6136 2778 2 MP stroke
18 0 6208 2386 2 MP stroke
c8
-36 0 0 2 36 0 0 -2 5622 2916 5 MP stroke
-36 0 0 1 36 0 0 -1 5694 2886 5 MP stroke
-36 0 0 1 36 0 0 -1 5766 2868 5 MP stroke
-36 0 36 0 5838 2860 3 MP stroke
-36 0 36 0 5911 2857 3 MP stroke
-36 0 36 0 5983 2849 3 MP stroke
-36 0 0 10 36 0 0 -10 6055 2844 5 MP stroke
-36 0 0 125 36 0 0 -125 6127 2763 5 MP stroke
-36 0 0 225 36 0 0 -225 6199 2375 5 MP stroke
c9
36 0 5622 2915 2 MP stroke
36 0 5694 2886 2 MP stroke
36 0 5766 2868 2 MP stroke
36 0 5838 2860 2 MP stroke
36 0 5911 2857 2 MP stroke
36 0 5983 2849 2 MP stroke
36 0 6055 2844 2 MP stroke
36 0 6127 2761 2 MP stroke
36 0 6199 2356 2 MP stroke
gs 5627 2899 27 27 rc
5634 2912 mt 5646 2912 L
5640 2906 mt 5640 2918 L
gr

gs 5699 2872 27 27 rc
5706 2885 mt 5718 2885 L
5712 2879 mt 5712 2891 L
gr

gs 5843 2847 27 27 rc
5850 2860 mt 5862 2860 L
5856 2854 mt 5856 2866 L
gr

gr

c9
0 sg
5535 3091 mt 
(1) s
5607 3091 mt 
(2) s
5679 3091 mt 
(3) s
5752 3091 mt 
(4) s
5824 3091 mt 
(5) s
5896 3091 mt 
(6) s
5968 3091 mt 
(7) s
6040 3091 mt 
(8) s
6113 3091 mt 
(9) s
6151 3091 mt 
(10) s
5692 2017 mt 
(P2:1\(F\)) s
1 sg
0 911 753 0 0 -911 1005 4575 4 MP
PP
-753 0 0 911 753 0 0 -911 1005 4575 5 MP stroke
4 w
DO
SO
6 w
0 sg
1005 3664 mt 1758 3664 L
1005 4575 mt 1758 4575 L
1758 4575 mt 1758 3664 L
1005 4575 mt 1005 3664 L
1005 4575 mt 1758 4575 L
1005 4575 mt 1005 3664 L
1005 4376 mt 1014 4376 L
1758 4376 mt 1748 4376 L
 904 4420 mt 
(0) s
1005 4113 mt 1014 4113 L
1758 4113 mt 1748 4113 L
 770 4157 mt 
(100) s
1005 3850 mt 1014 3850 L
1758 3850 mt 1748 3850 L
 770 3894 mt 
(200) s
1005 3664 mt 1758 3664 L
1005 4575 mt 1758 4575 L
1758 4575 mt 1758 3664 L
1005 4575 mt 1005 3664 L
gs 1005 3664 754 912 rc
DA
0 -1 1117 4532 2 MP stroke
1193 4455 PD
0 -1 1268 4407 2 MP stroke
1343 4385 PD
1419 4374 PD
0 -2 1494 4358 2 MP stroke
0 -1 1569 4289 2 MP stroke
0 -2 1645 4073 2 MP stroke
0 -5 1720 3739 2 MP stroke
1117 4533 PD
1193 4455 PD
1268 4407 PD
1343 4385 PD
1419 4374 PD
0 -1 1494 4360 2 MP stroke
0 -1 1569 4291 2 MP stroke
0 -2 1645 4079 2 MP stroke
0 -7 1720 3755 2 MP stroke
SO
19 0 1108 4531 2 MP stroke
19 0 1183 4455 2 MP stroke
18 0 1259 4406 2 MP stroke
19 0 1334 4385 2 MP stroke
19 0 1409 4374 2 MP stroke
18 0 1485 4356 2 MP stroke
19 0 1560 4288 2 MP stroke
19 0 1635 4071 2 MP stroke
19 0 1710 3734 2 MP stroke
19 0 1108 4533 2 MP stroke
19 0 1183 4455 2 MP stroke
18 0 1259 4407 2 MP stroke
19 0 1334 4385 2 MP stroke
19 0 1409 4374 2 MP stroke
18 0 1485 4360 2 MP stroke
19 0 1560 4291 2 MP stroke
19 0 1635 4079 2 MP stroke
19 0 1710 3755 2 MP stroke
c8
-37 0 0 1 37 0 0 -1 1099 4533 5 MP stroke
-38 0 38 0 1174 4455 3 MP stroke
-38 0 38 0 1249 4407 3 MP stroke
-37 0 37 0 1325 4385 3 MP stroke
-37 0 37 0 1400 4374 3 MP stroke
-38 0 0 1 38 0 0 -1 1475 4359 5 MP stroke
-38 0 0 1 38 0 0 -1 1550 4290 5 MP stroke
-37 0 0 4 37 0 0 -4 1626 4077 5 MP stroke
-38 0 0 9 38 0 0 -9 1701 3748 5 MP stroke
c9
37 0 1099 4532 2 MP stroke
38 0 1174 4455 2 MP stroke
38 0 1249 4407 2 MP stroke
37 0 1325 4385 2 MP stroke
37 0 1400 4374 2 MP stroke
38 0 1475 4359 2 MP stroke
38 0 1550 4290 2 MP stroke
37 0 1626 4075 2 MP stroke
38 0 1701 3744 2 MP stroke
gs 1180 4443 27 27 rc
1187 4456 mt 1199 4456 L
1193 4450 mt 1193 4462 L
gr

gs 1406 4361 27 27 rc
1413 4374 mt 1425 4374 L
1419 4368 mt 1419 4380 L
gr

gs 1556 4264 27 36 rc
1563 4286 mt 1575 4286 L
1569 4280 mt 1569 4292 L
1563 4278 mt 1575 4278 L
1569 4272 mt 1569 4284 L
1563 4277 mt 1575 4277 L
1569 4271 mt 1569 4283 L
gr

gs 1632 4036 27 77 rc
1639 4099 mt 1651 4099 L
1645 4093 mt 1645 4105 L
1639 4091 mt 1651 4091 L
1645 4085 mt 1645 4097 L
1639 4053 mt 1651 4053 L
1645 4047 mt 1645 4059 L
1639 4049 mt 1651 4049 L
1645 4043 mt 1645 4055 L
gr

gs 1707 3692 27 35 rc
1714 3713 mt 1726 3713 L
1720 3707 mt 1720 3719 L
1714 3707 mt 1726 3707 L
1720 3701 mt 1720 3713 L
1714 3705 mt 1726 3705 L
1720 3699 mt 1720 3711 L
gr

gr

c9
0 sg
1010 4711 mt 
(1) s
1085 4711 mt 
(2) s
1160 4711 mt 
(3) s
1235 4711 mt 
(4) s
1310 4711 mt 
(5) s
1386 4711 mt 
(6) s
1461 4711 mt 
(7) s
1536 4711 mt 
(8) s
1611 4711 mt 
(9) s
1652 4711 mt 
(10) s
1178 3569 mt 
(P2:2\(S\)) s
1 sg
0 911 679 0 0 -911 2205 4575 4 MP
PP
-679 0 0 911 679 0 0 -911 2205 4575 5 MP stroke
4 w
DO
SO
6 w
0 sg
2205 3664 mt 2884 3664 L
2205 4575 mt 2884 4575 L
2884 4575 mt 2884 3664 L
2205 4575 mt 2205 3664 L
2205 4575 mt 2884 4575 L
2205 4575 mt 2205 3664 L
2205 4454 mt 2214 4454 L
2884 4454 mt 2874 4454 L
1900 4498 mt 
(-100) s
2205 4210 mt 2214 4210 L
2884 4210 mt 2874 4210 L
1967 4254 mt 
(-50) s
2205 3966 mt 2214 3966 L
2884 3966 mt 2874 3966 L
2104 4010 mt 
(0) s
2205 3722 mt 2214 3722 L
2884 3722 mt 2874 3722 L
2037 3766 mt 
(50) s
2205 3664 mt 2884 3664 L
2205 4575 mt 2884 4575 L
2884 4575 mt 2884 3664 L
2205 4575 mt 2205 3664 L
gs 2205 3664 680 912 rc
DA
2238 4526 PD
0 -1 2306 4323 2 MP stroke
2374 4171 PD
2442 4062 PD
2510 3998 PD
2578 3975 PD
2646 3960 PD
2714 3943 PD
0 -12 2782 3908 2 MP stroke
0 -28 2850 3733 2 MP stroke
0 -3 2238 4533 2 MP stroke
0 -1 2306 4326 2 MP stroke
2374 4172 PD
0 -1 2442 4063 2 MP stroke
2510 3998 PD
2578 3975 PD
2646 3961 PD
0 -1 2714 3945 2 MP stroke
0 -5 2782 3932 2 MP stroke
0 -2 2850 3822 2 MP stroke
SO
17 0 2230 4526 2 MP stroke
17 0 2298 4322 2 MP stroke
17 0 2366 4171 2 MP stroke
17 0 2434 4062 2 MP stroke
17 0 2502 3998 2 MP stroke
17 0 2569 3975 2 MP stroke
17 0 2637 3960 2 MP stroke
17 0 2705 3943 2 MP stroke
17 0 2773 3896 2 MP stroke
17 0 2841 3705 2 MP stroke
17 0 2230 4533 2 MP stroke
17 0 2298 4326 2 MP stroke
17 0 2366 4172 2 MP stroke
17 0 2434 4063 2 MP stroke
17 0 2502 3998 2 MP stroke
17 0 2569 3975 2 MP stroke
17 0 2637 3961 2 MP stroke
17 0 2705 3945 2 MP stroke
17 0 2773 3932 2 MP stroke
17 0 2841 3822 2 MP stroke
c8
-34 0 0 4 34 0 0 -4 2221 4530 5 MP stroke
-34 0 0 2 34 0 0 -2 2289 4325 5 MP stroke
-34 0 0 1 34 0 0 -1 2357 4172 5 MP stroke
-34 0 34 0 2425 4062 3 MP stroke
-34 0 34 0 2493 3998 3 MP stroke
-34 0 34 0 2561 3975 3 MP stroke
-34 0 0 1 34 0 0 -1 2629 3961 5 MP stroke
-34 0 0 1 34 0 0 -1 2697 3944 5 MP stroke
-34 0 0 19 34 0 0 -19 2765 3927 5 MP stroke
-34 0 0 87 34 0 0 -87 2833 3820 5 MP stroke
c9
34 0 2221 4527 2 MP stroke
34 0 2289 4325 2 MP stroke
34 0 2357 4171 2 MP stroke
34 0 2425 4062 2 MP stroke
34 0 2493 3998 2 MP stroke
34 0 2561 3975 2 MP stroke
34 0 2629 3960 2 MP stroke
34 0 2697 3944 2 MP stroke
34 0 2765 3924 2 MP stroke
34 0 2833 3817 2 MP stroke
gr

c9
0 sg
2206 4711 mt 
(1) s
2274 4711 mt 
(2) s
2342 4711 mt 
(3) s
2410 4711 mt 
(4) s
2477 4711 mt 
(5) s
2545 4711 mt 
(6) s
2613 4711 mt 
(7) s
2681 4711 mt 
(8) s
2749 4711 mt 
(9) s
2783 4711 mt 
(10) s
2341 3569 mt 
(P2:3\(S\)) s
1 sg
0 911 678 0 0 -911 3332 4575 4 MP
PP
-678 0 0 911 678 0 0 -911 3332 4575 5 MP stroke
4 w
DO
SO
6 w
0 sg
3332 3664 mt 4010 3664 L
3332 4575 mt 4010 4575 L
4010 4575 mt 4010 3664 L
3332 4575 mt 3332 3664 L
3332 4575 mt 4010 4575 L
3332 4575 mt 3332 3664 L
3332 4463 mt 3341 4463 L
4010 4463 mt 4000 4463 L
3027 4507 mt 
(-200) s
3332 4211 mt 3341 4211 L
4010 4211 mt 4000 4211 L
3027 4255 mt 
(-100) s
3332 3960 mt 3341 3960 L
4010 3960 mt 4000 3960 L
3231 4004 mt 
(0) s
3332 3708 mt 3341 3708 L
4010 3708 mt 4000 3708 L
3097 3752 mt 
(100) s
3332 3664 mt 4010 3664 L
3332 4575 mt 4010 4575 L
4010 4575 mt 4010 3664 L
3332 4575 mt 3332 3664 L
gs 3332 3664 679 912 rc
DA
0 -2 3433 4530 2 MP stroke
3501 4331 PD
3569 4165 PD
3637 4056 PD
3704 3992 PD
3772 3968 PD
3840 3952 PD
0 -7 3908 3919 2 MP stroke
0 -17 3976 3722 2 MP stroke
0 -1 3433 4533 2 MP stroke
0 -1 3501 4334 2 MP stroke
3569 4166 PD
3637 4057 PD
0 -1 3704 3993 2 MP stroke
3772 3968 PD
3840 3953 PD
0 -2 3908 3937 2 MP stroke
0 -1 3976 3873 2 MP stroke
SO
17 0 3425 4528 2 MP stroke
16 0 3493 4331 2 MP stroke
17 0 3560 4165 2 MP stroke
17 0 3628 4056 2 MP stroke
17 0 3696 3992 2 MP stroke
17 0 3764 3968 2 MP stroke
16 0 3832 3952 2 MP stroke
17 0 3899 3912 2 MP stroke
17 0 3967 3705 2 MP stroke
17 0 3425 4533 2 MP stroke
16 0 3493 4334 2 MP stroke
17 0 3560 4166 2 MP stroke
17 0 3628 4057 2 MP stroke
17 0 3696 3993 2 MP stroke
17 0 3764 3968 2 MP stroke
16 0 3832 3953 2 MP stroke
17 0 3899 3937 2 MP stroke
17 0 3967 3873 2 MP stroke
c8
-34 0 0 2 34 0 0 -2 3416 4532 5 MP stroke
-34 0 0 2 34 0 0 -2 3484 4333 5 MP stroke
-34 0 0 1 34 0 0 -1 3552 4166 5 MP stroke
-34 0 0 1 34 0 0 -1 3620 4057 5 MP stroke
-34 0 34 0 3687 3992 3 MP stroke
-34 0 34 0 3755 3968 3 MP stroke
-34 0 0 1 34 0 0 -1 3823 3953 5 MP stroke
-34 0 0 16 34 0 0 -16 3891 3935 5 MP stroke
-34 0 0 150 34 0 0 -150 3959 3872 5 MP stroke
c9
34 0 3416 4531 2 MP stroke
34 0 3484 4333 2 MP stroke
34 0 3552 4166 2 MP stroke
34 0 3620 4057 2 MP stroke
34 0 3687 3992 2 MP stroke
34 0 3755 3968 2 MP stroke
34 0 3823 3953 2 MP stroke
34 0 3891 3931 2 MP stroke
34 0 3959 3810 2 MP stroke
gs 3420 4514 27 27 rc
3427 4527 mt 3439 4527 L
3433 4521 mt 3433 4533 L
gr

gs 3488 4310 27 28 rc
3495 4324 mt 3507 4324 L
3501 4318 mt 3501 4330 L
3495 4323 mt 3507 4323 L
3501 4317 mt 3501 4329 L
gr

gs 3556 4155 27 28 rc
3563 4169 mt 3575 4169 L
3569 4163 mt 3569 4175 L
3563 4168 mt 3575 4168 L
3569 4162 mt 3569 4174 L
gr

gr

c9
0 sg
3333 4711 mt 
(1) s
3401 4711 mt 
(2) s
3469 4711 mt 
(3) s
3537 4711 mt 
(4) s
3604 4711 mt 
(5) s
3672 4711 mt 
(6) s
3740 4711 mt 
(7) s
3808 4711 mt 
(8) s
3876 4711 mt 
(9) s
3910 4711 mt 
(10) s
3467 3569 mt 
(P2:4\(S\)) s

end %%Color Dict

eplot
%%EndObject

epage
end

showpage

%%Trailer
%%EOF
